<?xml version="1.0" encoding="UTF-8" standalone="no"?>
<!-- Created with CurveBenchmark -->
<svg
	xmlns:dc="http://purl.org/dc/elements/1.1/"
	xmlns:cc="http://creativecommons.org/ns#"
	xmlns:rdf="http://www.w3.org/1999/02/22-rdf-syntax-ns#"
	xmlns:svg="http://www.w3.org/2000/svg"
	xmlns="http://www.w3.org/2000/svg"
	xmlns:sodipodi="http://sodipodi.sourceforge.net/DTD/sodipodi-0.dtd"
	xmlns:inkscape="http://www.inkscape.org/namespaces/inkscape"
	width="1000"
	height="1000"
	id="svg2"
	version="1.1"
	sodipodi:docname="manifold/gathang-children-13.png.txt">
<defs
	id="defs4" />
<metadata
	id="metadata7">
	<rdf:RDF>
		<cc:Work
			rdf:about="">
			<dc:format>image/svg+xml</dc:format>
			<dc:type
				rdf:resource="http://purl.org/dc/dcmitype/StillImage" />
			<dc:title></dc:title>
		</cc:Work>
	</rdf:RDF>
</metadata>
<g
	inkscape:label="Layer 1"
	inkscape:groupmode="layer"
	id="layer1">
	<path style="fill:none;stroke:red;stroke-width:1px;stroke-linecap:butt;stroke-linejoin:miter;stroke-opacity:1" d="M 21.799,78.756 21.799,90.622 z" id="boundary" inkscape:connector-curvature="0" />
	<path style="fill:none;stroke:red;stroke-width:1px;stroke-linecap:butt;stroke-linejoin:miter;stroke-opacity:1" d="M 21.799,78.756 27.7321,66.89 z" id="boundary" inkscape:connector-curvature="0" />
	<path style="fill:none;stroke:red;stroke-width:1px;stroke-linecap:butt;stroke-linejoin:miter;stroke-opacity:1" d="M 21.799,102.488 21.799,90.622 z" id="boundary" inkscape:connector-curvature="0" />
	<path style="fill:none;stroke:red;stroke-width:1px;stroke-linecap:butt;stroke-linejoin:miter;stroke-opacity:1" d="M 4,322.01 4,310.144 z" id="boundary" inkscape:connector-curvature="0" />
	<path style="fill:none;stroke:red;stroke-width:1px;stroke-linecap:butt;stroke-linejoin:miter;stroke-opacity:1" d="M 4,310.144 9.93301,298.278 z" id="boundary" inkscape:connector-curvature="0" />
	<path style="fill:none;stroke:red;stroke-width:1px;stroke-linecap:butt;stroke-linejoin:miter;stroke-opacity:1" d="M 15.866,286.411 9.93301,298.278 z" id="boundary" inkscape:connector-curvature="0" />
	<path style="fill:none;stroke:red;stroke-width:1px;stroke-linecap:butt;stroke-linejoin:miter;stroke-opacity:1" d="M 21.799,102.488 21.799,114.354 z" id="boundary" inkscape:connector-curvature="0" />
	<path style="fill:none;stroke:red;stroke-width:1px;stroke-linecap:butt;stroke-linejoin:miter;stroke-opacity:1" d="M 21.799,126.22 21.799,114.354 z" id="boundary" inkscape:connector-curvature="0" />
	<path style="fill:none;stroke:red;stroke-width:1px;stroke-linecap:butt;stroke-linejoin:miter;stroke-opacity:1" d="M 27.7321,136.9 21.799,126.22 z" id="boundary" inkscape:connector-curvature="0" />
	<path style="fill:none;stroke:red;stroke-width:1px;stroke-linecap:butt;stroke-linejoin:miter;stroke-opacity:1" d="M 33.6651,147.579 27.7321,136.9 z" id="boundary" inkscape:connector-curvature="0" />
	<path style="fill:none;stroke:red;stroke-width:1px;stroke-linecap:butt;stroke-linejoin:miter;stroke-opacity:1" d="M 31.2919,265.053 21.799,274.545 z" id="boundary" inkscape:connector-curvature="0" />
	<path style="fill:none;stroke:red;stroke-width:1px;stroke-linecap:butt;stroke-linejoin:miter;stroke-opacity:1" d="M 15.866,286.411 21.799,274.545 z" id="boundary" inkscape:connector-curvature="0" />
	<path style="fill:none;stroke:red;stroke-width:1px;stroke-linecap:butt;stroke-linejoin:miter;stroke-opacity:1" d="M 15.866,390.833 9.93301,380.153 z" id="boundary" inkscape:connector-curvature="0" />
	<path style="fill:none;stroke:red;stroke-width:1px;stroke-linecap:butt;stroke-linejoin:miter;stroke-opacity:1" d="M 9.93301,380.153 4,369.474 z" id="boundary" inkscape:connector-curvature="0" />
	<path style="fill:none;stroke:red;stroke-width:1px;stroke-linecap:butt;stroke-linejoin:miter;stroke-opacity:1" d="M 4,369.474 4,357.608 z" id="boundary" inkscape:connector-curvature="0" />
	<path style="fill:none;stroke:red;stroke-width:1px;stroke-linecap:butt;stroke-linejoin:miter;stroke-opacity:1" d="M 4,357.608 4,345.742 z" id="boundary" inkscape:connector-curvature="0" />
	<path style="fill:none;stroke:red;stroke-width:1px;stroke-linecap:butt;stroke-linejoin:miter;stroke-opacity:1" d="M 4,333.876 4,322.01 z" id="boundary" inkscape:connector-curvature="0" />
	<path style="fill:none;stroke:red;stroke-width:1px;stroke-linecap:butt;stroke-linejoin:miter;stroke-opacity:1" d="M 15.866,390.833 15.866,402.699 z" id="boundary" inkscape:connector-curvature="0" />
	<path style="fill:none;stroke:red;stroke-width:1px;stroke-linecap:butt;stroke-linejoin:miter;stroke-opacity:1" d="M 15.866,402.699 15.866,414.565 z" id="boundary" inkscape:connector-curvature="0" />
	<path style="fill:none;stroke:red;stroke-width:1px;stroke-linecap:butt;stroke-linejoin:miter;stroke-opacity:1" d="M 15.866,426.431 15.866,438.297 z" id="boundary" inkscape:connector-curvature="0" />
	<path style="fill:none;stroke:red;stroke-width:1px;stroke-linecap:butt;stroke-linejoin:miter;stroke-opacity:1" d="M 21.799,460.842 15.866,450.163 z" id="boundary" inkscape:connector-curvature="0" />
	<path style="fill:none;stroke:red;stroke-width:1px;stroke-linecap:butt;stroke-linejoin:miter;stroke-opacity:1" d="M 15.866,450.163 15.866,438.297 z" id="boundary" inkscape:connector-curvature="0" />
	<path style="fill:none;stroke:red;stroke-width:1px;stroke-linecap:butt;stroke-linejoin:miter;stroke-opacity:1" d="M 15.866,426.431 15.866,414.565 z" id="boundary" inkscape:connector-curvature="0" />
	<path style="fill:none;stroke:red;stroke-width:1px;stroke-linecap:butt;stroke-linejoin:miter;stroke-opacity:1" d="M 4,345.742 4,333.876 z" id="boundary" inkscape:connector-curvature="0" />
	<path style="fill:none;stroke:red;stroke-width:1px;stroke-linecap:butt;stroke-linejoin:miter;stroke-opacity:1" d="M 72.823,21.799 84.689,15.866 z" id="boundary" inkscape:connector-curvature="0" />
	<path style="fill:none;stroke:red;stroke-width:1px;stroke-linecap:butt;stroke-linejoin:miter;stroke-opacity:1" d="M 52.6507,36.0383 62.1435,27.7321 z" id="boundary" inkscape:connector-curvature="0" />
	<path style="fill:none;stroke:red;stroke-width:1px;stroke-linecap:butt;stroke-linejoin:miter;stroke-opacity:1" d="M 62.1435,27.7321 72.823,21.799 z" id="boundary" inkscape:connector-curvature="0" />
	<path style="fill:none;stroke:red;stroke-width:1px;stroke-linecap:butt;stroke-linejoin:miter;stroke-opacity:1" d="M 84.689,15.866 96.555,9.93301 z" id="boundary" inkscape:connector-curvature="0" />
	<path style="fill:none;stroke:red;stroke-width:1px;stroke-linecap:butt;stroke-linejoin:miter;stroke-opacity:1" d="M 96.555,9.93301 108.421,9.93301 z" id="boundary" inkscape:connector-curvature="0" />
	<path style="fill:none;stroke:red;stroke-width:1px;stroke-linecap:butt;stroke-linejoin:miter;stroke-opacity:1" d="M 119.1,4 130.967,4 z" id="boundary" inkscape:connector-curvature="0" />
	<path style="fill:none;stroke:red;stroke-width:1px;stroke-linecap:butt;stroke-linejoin:miter;stroke-opacity:1" d="M 108.421,9.93301 119.1,4 z" id="boundary" inkscape:connector-curvature="0" />
	<path style="fill:none;stroke:red;stroke-width:1px;stroke-linecap:butt;stroke-linejoin:miter;stroke-opacity:1" d="M 130.967,4 142.833,4 z" id="boundary" inkscape:connector-curvature="0" />
	<path style="fill:none;stroke:red;stroke-width:1px;stroke-linecap:butt;stroke-linejoin:miter;stroke-opacity:1" d="M 142.833,4 153.512,9.93301 z" id="boundary" inkscape:connector-curvature="0" />
	<path style="fill:none;stroke:red;stroke-width:1px;stroke-linecap:butt;stroke-linejoin:miter;stroke-opacity:1" d="M 165.378,9.93301 153.512,9.93301 z" id="boundary" inkscape:connector-curvature="0" />
	<path style="fill:none;stroke:red;stroke-width:1px;stroke-linecap:butt;stroke-linejoin:miter;stroke-opacity:1" d="M 43.1579,170.124 37.2249,159.445 z" id="boundary" inkscape:connector-curvature="0" />
	<path style="fill:none;stroke:red;stroke-width:1px;stroke-linecap:butt;stroke-linejoin:miter;stroke-opacity:1" d="M 37.2249,159.445 33.6651,147.579 z" id="boundary" inkscape:connector-curvature="0" />
	<path style="fill:none;stroke:red;stroke-width:1px;stroke-linecap:butt;stroke-linejoin:miter;stroke-opacity:1" d="M 27.7321,66.89 33.6651,55.0239 z" id="boundary" inkscape:connector-curvature="0" />
	<path style="fill:none;stroke:red;stroke-width:1px;stroke-linecap:butt;stroke-linejoin:miter;stroke-opacity:1" d="M 33.6651,55.0239 43.1579,45.5311 z" id="boundary" inkscape:connector-curvature="0" />
	<path style="fill:none;stroke:red;stroke-width:1px;stroke-linecap:butt;stroke-linejoin:miter;stroke-opacity:1" d="M 43.1579,170.124 51.4641,179.617 z" id="boundary" inkscape:connector-curvature="0" />
	<path style="fill:none;stroke:red;stroke-width:1px;stroke-linecap:butt;stroke-linejoin:miter;stroke-opacity:1" d="M 40.7847,255.56 31.2919,265.053 z" id="boundary" inkscape:connector-curvature="0" />
	<path style="fill:none;stroke:red;stroke-width:1px;stroke-linecap:butt;stroke-linejoin:miter;stroke-opacity:1" d="M 63.3301,183.177 51.4641,179.617 z" id="boundary" inkscape:connector-curvature="0" />
	<path style="fill:none;stroke:red;stroke-width:1px;stroke-linecap:butt;stroke-linejoin:miter;stroke-opacity:1" d="M 52.6507,249.627 40.7847,255.56 z" id="boundary" inkscape:connector-curvature="0" />
	<path style="fill:none;stroke:red;stroke-width:1px;stroke-linecap:butt;stroke-linejoin:miter;stroke-opacity:1" d="M 43.1579,45.5311 52.6507,36.0383 z" id="boundary" inkscape:connector-curvature="0" />
	<path style="fill:none;stroke:red;stroke-width:1px;stroke-linecap:butt;stroke-linejoin:miter;stroke-opacity:1" d="M 69.2632,193.856 63.3301,183.177 z" id="boundary" inkscape:connector-curvature="0" />
	<path style="fill:none;stroke:red;stroke-width:1px;stroke-linecap:butt;stroke-linejoin:miter;stroke-opacity:1" d="M 69.2632,193.856 75.1962,204.536 z" id="boundary" inkscape:connector-curvature="0" />
	<path style="fill:none;stroke:red;stroke-width:1px;stroke-linecap:butt;stroke-linejoin:miter;stroke-opacity:1" d="M 75.1962,204.536 75.1962,216.402 z" id="boundary" inkscape:connector-curvature="0" />
	<path style="fill:none;stroke:red;stroke-width:1px;stroke-linecap:butt;stroke-linejoin:miter;stroke-opacity:1" d="M 52.6507,249.627 62.1435,241.321 z" id="boundary" inkscape:connector-curvature="0" />
	<path style="fill:none;stroke:red;stroke-width:1px;stroke-linecap:butt;stroke-linejoin:miter;stroke-opacity:1" d="M 62.1435,241.321 70.4498,231.828 z" id="boundary" inkscape:connector-curvature="0" />
	<path style="fill:none;stroke:red;stroke-width:1px;stroke-linecap:butt;stroke-linejoin:miter;stroke-opacity:1" d="M 75.1962,216.402 70.4498,231.828 z" id="boundary" inkscape:connector-curvature="0" />
	<path style="fill:none;stroke:red;stroke-width:1px;stroke-linecap:butt;stroke-linejoin:miter;stroke-opacity:1" d="M 27.7321,484.574 24.1722,472.708 z" id="boundary" inkscape:connector-curvature="0" />
	<path style="fill:none;stroke:red;stroke-width:1px;stroke-linecap:butt;stroke-linejoin:miter;stroke-opacity:1" d="M 24.1722,472.708 21.799,460.842 z" id="boundary" inkscape:connector-curvature="0" />
	<path style="fill:none;stroke:red;stroke-width:1px;stroke-linecap:butt;stroke-linejoin:miter;stroke-opacity:1" d="M 27.7321,484.574 30.1053,496.44 z" id="boundary" inkscape:connector-curvature="0" />
	<path style="fill:none;stroke:red;stroke-width:1px;stroke-linecap:butt;stroke-linejoin:miter;stroke-opacity:1" d="M 39.5981,518.986 33.6651,508.306 z" id="boundary" inkscape:connector-curvature="0" />
	<path style="fill:none;stroke:red;stroke-width:1px;stroke-linecap:butt;stroke-linejoin:miter;stroke-opacity:1" d="M 33.6651,508.306 30.1053,496.44 z" id="boundary" inkscape:connector-curvature="0" />
	<path style="fill:none;stroke:red;stroke-width:1px;stroke-linecap:butt;stroke-linejoin:miter;stroke-opacity:1" d="M 39.5981,518.986 39.5981,530.852 z" id="boundary" inkscape:connector-curvature="0" />
	<path style="fill:none;stroke:red;stroke-width:1px;stroke-linecap:butt;stroke-linejoin:miter;stroke-opacity:1" d="M 39.5981,530.852 39.5981,542.718 z" id="boundary" inkscape:connector-curvature="0" />
	<path style="fill:none;stroke:red;stroke-width:1px;stroke-linecap:butt;stroke-linejoin:miter;stroke-opacity:1" d="M 39.5981,566.45 39.5981,554.584 z" id="boundary" inkscape:connector-curvature="0" />
	<path style="fill:none;stroke:red;stroke-width:1px;stroke-linecap:butt;stroke-linejoin:miter;stroke-opacity:1" d="M 39.5981,542.718 39.5981,554.584 z" id="boundary" inkscape:connector-curvature="0" />
	<path style="fill:none;stroke:red;stroke-width:1px;stroke-linecap:butt;stroke-linejoin:miter;stroke-opacity:1" d="M 45.5311,602.048 40.7847,590.182 z" id="boundary" inkscape:connector-curvature="0" />
	<path style="fill:none;stroke:red;stroke-width:1px;stroke-linecap:butt;stroke-linejoin:miter;stroke-opacity:1" d="M 40.7847,590.182 39.5981,578.316 z" id="boundary" inkscape:connector-curvature="0" />
	<path style="fill:none;stroke:red;stroke-width:1px;stroke-linecap:butt;stroke-linejoin:miter;stroke-opacity:1" d="M 39.5981,578.316 39.5981,566.45 z" id="boundary" inkscape:connector-curvature="0" />
	<path style="fill:none;stroke:red;stroke-width:1px;stroke-linecap:butt;stroke-linejoin:miter;stroke-opacity:1" d="M 51.4641,624.593 45.5311,613.914 z" id="boundary" inkscape:connector-curvature="0" />
	<path style="fill:none;stroke:red;stroke-width:1px;stroke-linecap:butt;stroke-linejoin:miter;stroke-opacity:1" d="M 45.5311,613.914 45.5311,602.048 z" id="boundary" inkscape:connector-curvature="0" />
	<path style="fill:none;stroke:red;stroke-width:1px;stroke-linecap:butt;stroke-linejoin:miter;stroke-opacity:1" d="M 57.3971,635.273 51.4641,624.593 z" id="boundary" inkscape:connector-curvature="0" />
	<path style="fill:none;stroke:red;stroke-width:1px;stroke-linecap:butt;stroke-linejoin:miter;stroke-opacity:1" d="M 57.3971,635.273 57.3971,647.139 z" id="boundary" inkscape:connector-curvature="0" />
	<path style="fill:none;stroke:red;stroke-width:1px;stroke-linecap:butt;stroke-linejoin:miter;stroke-opacity:1" d="M 57.3971,659.005 57.3971,647.139 z" id="boundary" inkscape:connector-curvature="0" />
	<path style="fill:none;stroke:red;stroke-width:1px;stroke-linecap:butt;stroke-linejoin:miter;stroke-opacity:1" d="M 63.3301,669.684 57.3971,659.005 z" id="boundary" inkscape:connector-curvature="0" />
	<path style="fill:none;stroke:red;stroke-width:1px;stroke-linecap:butt;stroke-linejoin:miter;stroke-opacity:1" d="M 76.3828,689.856 66.89,681.55 z" id="boundary" inkscape:connector-curvature="0" />
	<path style="fill:none;stroke:red;stroke-width:1px;stroke-linecap:butt;stroke-linejoin:miter;stroke-opacity:1" d="M 66.89,681.55 63.3301,669.684 z" id="boundary" inkscape:connector-curvature="0" />
	<path style="fill:none;stroke:red;stroke-width:1px;stroke-linecap:butt;stroke-linejoin:miter;stroke-opacity:1" d="M 87.0622,695.789 76.3828,689.856 z" id="boundary" inkscape:connector-curvature="0" />
	<path style="fill:none;stroke:red;stroke-width:1px;stroke-linecap:butt;stroke-linejoin:miter;stroke-opacity:1" d="M 87.0622,778.852 81.1292,796.651 z" id="boundary" inkscape:connector-curvature="0" />
	<path style="fill:none;stroke:red;stroke-width:1px;stroke-linecap:butt;stroke-linejoin:miter;stroke-opacity:1" d="M 81.1292,796.651 81.1292,808.517 z" id="boundary" inkscape:connector-curvature="0" />
	<path style="fill:none;stroke:red;stroke-width:1px;stroke-linecap:butt;stroke-linejoin:miter;stroke-opacity:1" d="M 81.1292,820.383 81.1292,832.249 z" id="boundary" inkscape:connector-curvature="0" />
	<path style="fill:none;stroke:red;stroke-width:1px;stroke-linecap:butt;stroke-linejoin:miter;stroke-opacity:1" d="M 87.0622,842.928 81.1292,832.249 z" id="boundary" inkscape:connector-curvature="0" />
	<path style="fill:none;stroke:red;stroke-width:1px;stroke-linecap:butt;stroke-linejoin:miter;stroke-opacity:1" d="M 81.1292,820.383 81.1292,808.517 z" id="boundary" inkscape:connector-curvature="0" />
	<path style="fill:none;stroke:red;stroke-width:1px;stroke-linecap:butt;stroke-linejoin:miter;stroke-opacity:1" d="M 92.9952,766.986 87.0622,778.852 z" id="boundary" inkscape:connector-curvature="0" />
	<path style="fill:none;stroke:red;stroke-width:1px;stroke-linecap:butt;stroke-linejoin:miter;stroke-opacity:1" d="M 98.9282,755.12 92.9952,766.986 z" id="boundary" inkscape:connector-curvature="0" />
	<path style="fill:none;stroke:red;stroke-width:1px;stroke-linecap:butt;stroke-linejoin:miter;stroke-opacity:1" d="M 92.9952,865.474 87.0622,854.794 z" id="boundary" inkscape:connector-curvature="0" />
	<path style="fill:none;stroke:red;stroke-width:1px;stroke-linecap:butt;stroke-linejoin:miter;stroke-opacity:1" d="M 87.0622,854.794 87.0622,842.928 z" id="boundary" inkscape:connector-curvature="0" />
	<path style="fill:none;stroke:red;stroke-width:1px;stroke-linecap:butt;stroke-linejoin:miter;stroke-opacity:1" d="M 92.9952,865.474 96.555,877.34 z" id="boundary" inkscape:connector-curvature="0" />
	<path style="fill:none;stroke:red;stroke-width:1px;stroke-linecap:butt;stroke-linejoin:miter;stroke-opacity:1" d="M 104.861,727.828 101.301,715.962 z" id="boundary" inkscape:connector-curvature="0" />
	<path style="fill:none;stroke:red;stroke-width:1px;stroke-linecap:butt;stroke-linejoin:miter;stroke-opacity:1" d="M 102.488,888.019 96.555,877.34 z" id="boundary" inkscape:connector-curvature="0" />
	<path style="fill:none;stroke:red;stroke-width:1px;stroke-linecap:butt;stroke-linejoin:miter;stroke-opacity:1" d="M 104.861,739.694 98.9282,755.12 z" id="boundary" inkscape:connector-curvature="0" />
	<path style="fill:none;stroke:red;stroke-width:1px;stroke-linecap:butt;stroke-linejoin:miter;stroke-opacity:1" d="M 104.861,727.828 104.861,739.694 z" id="boundary" inkscape:connector-curvature="0" />
	<path style="fill:none;stroke:red;stroke-width:1px;stroke-linecap:butt;stroke-linejoin:miter;stroke-opacity:1" d="M 87.0622,695.789 96.555,704.096 z" id="boundary" inkscape:connector-curvature="0" />
	<path style="fill:none;stroke:red;stroke-width:1px;stroke-linecap:butt;stroke-linejoin:miter;stroke-opacity:1" d="M 96.555,704.096 101.301,715.962 z" id="boundary" inkscape:connector-curvature="0" />
	<path style="fill:none;stroke:red;stroke-width:1px;stroke-linecap:butt;stroke-linejoin:miter;stroke-opacity:1" d="M 98.9282,915.311 92.9952,933.11 z" id="boundary" inkscape:connector-curvature="0" />
	<path style="fill:none;stroke:red;stroke-width:1px;stroke-linecap:butt;stroke-linejoin:miter;stroke-opacity:1" d="M 92.9952,944.976 92.9952,933.11 z" id="boundary" inkscape:connector-curvature="0" />
	<path style="fill:none;stroke:red;stroke-width:1px;stroke-linecap:butt;stroke-linejoin:miter;stroke-opacity:1" d="M 98.9282,967.522 92.9952,956.842 z" id="boundary" inkscape:connector-curvature="0" />
	<path style="fill:none;stroke:red;stroke-width:1px;stroke-linecap:butt;stroke-linejoin:miter;stroke-opacity:1" d="M 92.9952,956.842 92.9952,944.976 z" id="boundary" inkscape:connector-curvature="0" />
	<path style="fill:none;stroke:red;stroke-width:1px;stroke-linecap:butt;stroke-linejoin:miter;stroke-opacity:1" d="M 102.488,888.019 104.861,899.885 z" id="boundary" inkscape:connector-curvature="0" />
	<path style="fill:none;stroke:red;stroke-width:1px;stroke-linecap:butt;stroke-linejoin:miter;stroke-opacity:1" d="M 104.861,899.885 98.9282,915.311 z" id="boundary" inkscape:connector-curvature="0" />
	<path style="fill:none;stroke:red;stroke-width:1px;stroke-linecap:butt;stroke-linejoin:miter;stroke-opacity:1" d="M 119.1,981.761 107.234,977.014 z" id="boundary" inkscape:connector-curvature="0" />
	<path style="fill:none;stroke:red;stroke-width:1px;stroke-linecap:butt;stroke-linejoin:miter;stroke-opacity:1" d="M 107.234,977.014 98.9282,967.522 z" id="boundary" inkscape:connector-curvature="0" />
	<path style="fill:none;stroke:red;stroke-width:1px;stroke-linecap:butt;stroke-linejoin:miter;stroke-opacity:1" d="M 130.967,984.134 119.1,981.761 z" id="boundary" inkscape:connector-curvature="0" />
	<path style="fill:none;stroke:red;stroke-width:1px;stroke-linecap:butt;stroke-linejoin:miter;stroke-opacity:1" d="M 130.967,984.134 142.833,987.694 z" id="boundary" inkscape:connector-curvature="0" />
	<path style="fill:none;stroke:red;stroke-width:1px;stroke-linecap:butt;stroke-linejoin:miter;stroke-opacity:1" d="M 154.699,990.067 166.565,993.627 z" id="boundary" inkscape:connector-curvature="0" />
	<path style="fill:none;stroke:red;stroke-width:1px;stroke-linecap:butt;stroke-linejoin:miter;stroke-opacity:1" d="M 142.833,987.694 154.699,990.067 z" id="boundary" inkscape:connector-curvature="0" />
	<path style="fill:none;stroke:red;stroke-width:1px;stroke-linecap:butt;stroke-linejoin:miter;stroke-opacity:1" d="M 165.378,9.93301 177.244,13.4928 z" id="boundary" inkscape:connector-curvature="0" />
	<path style="fill:none;stroke:red;stroke-width:1px;stroke-linecap:butt;stroke-linejoin:miter;stroke-opacity:1" d="M 177.244,13.4928 189.11,15.866 z" id="boundary" inkscape:connector-curvature="0" />
	<path style="fill:none;stroke:red;stroke-width:1px;stroke-linecap:butt;stroke-linejoin:miter;stroke-opacity:1" d="M 189.11,15.866 200.976,19.4258 z" id="boundary" inkscape:connector-curvature="0" />
	<path style="fill:none;stroke:red;stroke-width:1px;stroke-linecap:butt;stroke-linejoin:miter;stroke-opacity:1" d="M 200.976,19.4258 211.656,25.3589 z" id="boundary" inkscape:connector-curvature="0" />
	<path style="fill:none;stroke:red;stroke-width:1px;stroke-linecap:butt;stroke-linejoin:miter;stroke-opacity:1" d="M 231.828,39.5981 221.148,33.6651 z" id="boundary" inkscape:connector-curvature="0" />
	<path style="fill:none;stroke:red;stroke-width:1px;stroke-linecap:butt;stroke-linejoin:miter;stroke-opacity:1" d="M 221.148,33.6651 211.656,25.3589 z" id="boundary" inkscape:connector-curvature="0" />
	<path style="fill:none;stroke:red;stroke-width:1px;stroke-linecap:butt;stroke-linejoin:miter;stroke-opacity:1" d="M 231.828,39.5981 241.321,47.9043 z" id="boundary" inkscape:connector-curvature="0" />
	<path style="fill:none;stroke:red;stroke-width:1px;stroke-linecap:butt;stroke-linejoin:miter;stroke-opacity:1" d="M 257.933,64.5167 248.44,57.3971 z" id="boundary" inkscape:connector-curvature="0" />
	<path style="fill:none;stroke:red;stroke-width:1px;stroke-linecap:butt;stroke-linejoin:miter;stroke-opacity:1" d="M 248.44,57.3971 241.321,47.9043 z" id="boundary" inkscape:connector-curvature="0" />
	<path style="fill:none;stroke:red;stroke-width:1px;stroke-linecap:butt;stroke-linejoin:miter;stroke-opacity:1" d="M 266.239,74.0096 272.172,84.689 z" id="boundary" inkscape:connector-curvature="0" />
	<path style="fill:none;stroke:red;stroke-width:1px;stroke-linecap:butt;stroke-linejoin:miter;stroke-opacity:1" d="M 272.172,84.689 272.172,96.555 z" id="boundary" inkscape:connector-curvature="0" />
	<path style="fill:none;stroke:red;stroke-width:1px;stroke-linecap:butt;stroke-linejoin:miter;stroke-opacity:1" d="M 257.933,64.5167 266.239,74.0096 z" id="boundary" inkscape:connector-curvature="0" />
	<path style="fill:none;stroke:red;stroke-width:1px;stroke-linecap:butt;stroke-linejoin:miter;stroke-opacity:1" d="M 272.172,96.555 272.172,108.421 z" id="boundary" inkscape:connector-curvature="0" />
	<path style="fill:none;stroke:red;stroke-width:1px;stroke-linecap:butt;stroke-linejoin:miter;stroke-opacity:1" d="M 260.306,195.043 260.306,206.909 z" id="boundary" inkscape:connector-curvature="0" />
	<path style="fill:none;stroke:red;stroke-width:1px;stroke-linecap:butt;stroke-linejoin:miter;stroke-opacity:1" d="M 260.306,206.909 254.373,218.775 z" id="boundary" inkscape:connector-curvature="0" />
	<path style="fill:none;stroke:red;stroke-width:1px;stroke-linecap:butt;stroke-linejoin:miter;stroke-opacity:1" d="M 254.373,218.775 248.44,236.574 z" id="boundary" inkscape:connector-curvature="0" />
	<path style="fill:none;stroke:red;stroke-width:1px;stroke-linecap:butt;stroke-linejoin:miter;stroke-opacity:1" d="M 260.306,195.043 266.239,183.177 z" id="boundary" inkscape:connector-curvature="0" />
	<path style="fill:none;stroke:red;stroke-width:1px;stroke-linecap:butt;stroke-linejoin:miter;stroke-opacity:1" d="M 254.373,247.254 260.306,257.933 z" id="boundary" inkscape:connector-curvature="0" />
	<path style="fill:none;stroke:red;stroke-width:1px;stroke-linecap:butt;stroke-linejoin:miter;stroke-opacity:1" d="M 254.373,247.254 248.44,236.574 z" id="boundary" inkscape:connector-curvature="0" />
	<path style="fill:none;stroke:red;stroke-width:1px;stroke-linecap:butt;stroke-linejoin:miter;stroke-opacity:1" d="M 269.799,266.239 260.306,257.933 z" id="boundary" inkscape:connector-curvature="0" />
	<path style="fill:none;stroke:red;stroke-width:1px;stroke-linecap:butt;stroke-linejoin:miter;stroke-opacity:1" d="M 266.239,129.78 272.172,108.421 z" id="boundary" inkscape:connector-curvature="0" />
	<path style="fill:none;stroke:red;stroke-width:1px;stroke-linecap:butt;stroke-linejoin:miter;stroke-opacity:1" d="M 266.239,141.646 266.239,129.78 z" id="boundary" inkscape:connector-curvature="0" />
	<path style="fill:none;stroke:red;stroke-width:1px;stroke-linecap:butt;stroke-linejoin:miter;stroke-opacity:1" d="M 266.239,141.646 266.239,153.512 z" id="boundary" inkscape:connector-curvature="0" />
	<path style="fill:none;stroke:red;stroke-width:1px;stroke-linecap:butt;stroke-linejoin:miter;stroke-opacity:1" d="M 266.239,153.512 268.612,165.378 z" id="boundary" inkscape:connector-curvature="0" />
	<path style="fill:none;stroke:red;stroke-width:1px;stroke-linecap:butt;stroke-linejoin:miter;stroke-opacity:1" d="M 268.612,165.378 266.239,183.177 z" id="boundary" inkscape:connector-curvature="0" />
	<path style="fill:none;stroke:red;stroke-width:1px;stroke-linecap:butt;stroke-linejoin:miter;stroke-opacity:1" d="M 274.545,278.105 269.799,266.239 z" id="boundary" inkscape:connector-curvature="0" />
	<path style="fill:none;stroke:red;stroke-width:1px;stroke-linecap:butt;stroke-linejoin:miter;stroke-opacity:1" d="M 278.105,289.971 280.478,301.837 z" id="boundary" inkscape:connector-curvature="0" />
	<path style="fill:none;stroke:red;stroke-width:1px;stroke-linecap:butt;stroke-linejoin:miter;stroke-opacity:1" d="M 278.105,289.971 274.545,278.105 z" id="boundary" inkscape:connector-curvature="0" />
	<path style="fill:none;stroke:red;stroke-width:1px;stroke-linecap:butt;stroke-linejoin:miter;stroke-opacity:1" d="M 284.038,313.703 280.478,301.837 z" id="boundary" inkscape:connector-curvature="0" />
	<path style="fill:none;stroke:red;stroke-width:1px;stroke-linecap:butt;stroke-linejoin:miter;stroke-opacity:1" d="M 295.904,348.115 289.971,337.435 z" id="boundary" inkscape:connector-curvature="0" />
	<path style="fill:none;stroke:red;stroke-width:1px;stroke-linecap:butt;stroke-linejoin:miter;stroke-opacity:1" d="M 289.971,337.435 286.411,325.569 z" id="boundary" inkscape:connector-curvature="0" />
	<path style="fill:none;stroke:red;stroke-width:1px;stroke-linecap:butt;stroke-linejoin:miter;stroke-opacity:1" d="M 286.411,325.569 284.038,313.703 z" id="boundary" inkscape:connector-curvature="0" />
	<path style="fill:none;stroke:red;stroke-width:1px;stroke-linecap:butt;stroke-linejoin:miter;stroke-opacity:1" d="M 289.971,367.1 295.904,348.115 z" id="boundary" inkscape:connector-curvature="0" />
	<path style="fill:none;stroke:red;stroke-width:1px;stroke-linecap:butt;stroke-linejoin:miter;stroke-opacity:1" d="M 289.971,378.967 289.971,367.1 z" id="boundary" inkscape:connector-curvature="0" />
	<path style="fill:none;stroke:red;stroke-width:1px;stroke-linecap:butt;stroke-linejoin:miter;stroke-opacity:1" d="M 298.278,413.378 292.344,402.699 z" id="boundary" inkscape:connector-curvature="0" />
	<path style="fill:none;stroke:red;stroke-width:1px;stroke-linecap:butt;stroke-linejoin:miter;stroke-opacity:1" d="M 292.344,402.699 289.971,390.833 z" id="boundary" inkscape:connector-curvature="0" />
	<path style="fill:none;stroke:red;stroke-width:1px;stroke-linecap:butt;stroke-linejoin:miter;stroke-opacity:1" d="M 289.971,390.833 289.971,378.967 z" id="boundary" inkscape:connector-curvature="0" />
	<path style="fill:none;stroke:red;stroke-width:1px;stroke-linecap:butt;stroke-linejoin:miter;stroke-opacity:1" d="M 298.278,413.378 301.837,425.244 z" id="boundary" inkscape:connector-curvature="0" />
	<path style="fill:none;stroke:red;stroke-width:1px;stroke-linecap:butt;stroke-linejoin:miter;stroke-opacity:1" d="M 301.837,425.244 307.77,435.923 z" id="boundary" inkscape:connector-curvature="0" />
	<path style="fill:none;stroke:red;stroke-width:1px;stroke-linecap:butt;stroke-linejoin:miter;stroke-opacity:1" d="M 307.77,435.923 307.77,447.789 z" id="boundary" inkscape:connector-curvature="0" />
	<path style="fill:none;stroke:red;stroke-width:1px;stroke-linecap:butt;stroke-linejoin:miter;stroke-opacity:1" d="M 313.703,458.469 307.77,447.789 z" id="boundary" inkscape:connector-curvature="0" />
	<path style="fill:none;stroke:red;stroke-width:1px;stroke-linecap:butt;stroke-linejoin:miter;stroke-opacity:1" d="M 313.703,458.469 318.45,470.335 z" id="boundary" inkscape:connector-curvature="0" />
	<path style="fill:none;stroke:red;stroke-width:1px;stroke-linecap:butt;stroke-linejoin:miter;stroke-opacity:1" d="M 318.45,470.335 319.636,482.201 z" id="boundary" inkscape:connector-curvature="0" />
	<path style="fill:none;stroke:red;stroke-width:1px;stroke-linecap:butt;stroke-linejoin:miter;stroke-opacity:1" d="M 325.569,492.88 319.636,482.201 z" id="boundary" inkscape:connector-curvature="0" />
	<path style="fill:none;stroke:red;stroke-width:1px;stroke-linecap:butt;stroke-linejoin:miter;stroke-opacity:1" d="M 325.569,492.88 331.502,503.56 z" id="boundary" inkscape:connector-curvature="0" />
	<path style="fill:none;stroke:red;stroke-width:1px;stroke-linecap:butt;stroke-linejoin:miter;stroke-opacity:1" d="M 331.502,503.56 331.502,515.426 z" id="boundary" inkscape:connector-curvature="0" />
	<path style="fill:none;stroke:red;stroke-width:1px;stroke-linecap:butt;stroke-linejoin:miter;stroke-opacity:1" d="M 337.435,526.105 331.502,515.426 z" id="boundary" inkscape:connector-curvature="0" />
	<path style="fill:none;stroke:red;stroke-width:1px;stroke-linecap:butt;stroke-linejoin:miter;stroke-opacity:1" d="M 337.435,526.105 337.435,537.971 z" id="boundary" inkscape:connector-curvature="0" />
	<path style="fill:none;stroke:red;stroke-width:1px;stroke-linecap:butt;stroke-linejoin:miter;stroke-opacity:1" d="M 343.368,548.651 337.435,537.971 z" id="boundary" inkscape:connector-curvature="0" />
	<path style="fill:none;stroke:red;stroke-width:1px;stroke-linecap:butt;stroke-linejoin:miter;stroke-opacity:1" d="M 343.368,548.651 349.301,559.33 z" id="boundary" inkscape:connector-curvature="0" />
	<path style="fill:none;stroke:red;stroke-width:1px;stroke-linecap:butt;stroke-linejoin:miter;stroke-opacity:1" d="M 349.301,559.33 349.301,571.196 z" id="boundary" inkscape:connector-curvature="0" />
	<path style="fill:none;stroke:red;stroke-width:1px;stroke-linecap:butt;stroke-linejoin:miter;stroke-opacity:1" d="M 254.373,841.742 254.373,829.876 z" id="boundary" inkscape:connector-curvature="0" />
	<path style="fill:none;stroke:red;stroke-width:1px;stroke-linecap:butt;stroke-linejoin:miter;stroke-opacity:1" d="M 254.373,829.876 260.306,818.01 z" id="boundary" inkscape:connector-curvature="0" />
	<path style="fill:none;stroke:red;stroke-width:1px;stroke-linecap:butt;stroke-linejoin:miter;stroke-opacity:1" d="M 260.306,794.278 260.306,806.144 z" id="boundary" inkscape:connector-curvature="0" />
	<path style="fill:none;stroke:red;stroke-width:1px;stroke-linecap:butt;stroke-linejoin:miter;stroke-opacity:1" d="M 254.373,841.742 248.44,853.608 z" id="boundary" inkscape:connector-curvature="0" />
	<path style="fill:none;stroke:red;stroke-width:1px;stroke-linecap:butt;stroke-linejoin:miter;stroke-opacity:1" d="M 242.507,883.273 242.507,871.407 z" id="boundary" inkscape:connector-curvature="0" />
	<path style="fill:none;stroke:red;stroke-width:1px;stroke-linecap:butt;stroke-linejoin:miter;stroke-opacity:1" d="M 248.44,853.608 242.507,871.407 z" id="boundary" inkscape:connector-curvature="0" />
	<path style="fill:none;stroke:red;stroke-width:1px;stroke-linecap:butt;stroke-linejoin:miter;stroke-opacity:1" d="M 242.507,883.273 244.88,895.139 z" id="boundary" inkscape:connector-curvature="0" />
	<path style="fill:none;stroke:red;stroke-width:1px;stroke-linecap:butt;stroke-linejoin:miter;stroke-opacity:1" d="M 272.172,752.746 266.239,764.612 z" id="boundary" inkscape:connector-curvature="0" />
	<path style="fill:none;stroke:red;stroke-width:1px;stroke-linecap:butt;stroke-linejoin:miter;stroke-opacity:1" d="M 272.172,752.746 278.105,740.88 z" id="boundary" inkscape:connector-curvature="0" />
	<path style="fill:none;stroke:red;stroke-width:1px;stroke-linecap:butt;stroke-linejoin:miter;stroke-opacity:1" d="M 266.239,776.478 266.239,764.612 z" id="boundary" inkscape:connector-curvature="0" />
	<path style="fill:none;stroke:red;stroke-width:1px;stroke-linecap:butt;stroke-linejoin:miter;stroke-opacity:1" d="M 260.306,818.01 260.306,806.144 z" id="boundary" inkscape:connector-curvature="0" />
	<path style="fill:none;stroke:red;stroke-width:1px;stroke-linecap:butt;stroke-linejoin:miter;stroke-opacity:1" d="M 260.306,794.278 266.239,776.478 z" id="boundary" inkscape:connector-curvature="0" />
	<path style="fill:none;stroke:red;stroke-width:1px;stroke-linecap:butt;stroke-linejoin:miter;stroke-opacity:1" d="M 178.431,996 166.565,993.627 z" id="boundary" inkscape:connector-curvature="0" />
	<path style="fill:none;stroke:red;stroke-width:1px;stroke-linecap:butt;stroke-linejoin:miter;stroke-opacity:1" d="M 190.297,996 178.431,996 z" id="boundary" inkscape:connector-curvature="0" />
	<path style="fill:none;stroke:red;stroke-width:1px;stroke-linecap:butt;stroke-linejoin:miter;stroke-opacity:1" d="M 202.163,996 190.297,996 z" id="boundary" inkscape:connector-curvature="0" />
	<path style="fill:none;stroke:red;stroke-width:1px;stroke-linecap:butt;stroke-linejoin:miter;stroke-opacity:1" d="M 225.895,996 214.029,996 z" id="boundary" inkscape:connector-curvature="0" />
	<path style="fill:none;stroke:red;stroke-width:1px;stroke-linecap:butt;stroke-linejoin:miter;stroke-opacity:1" d="M 237.761,996 225.895,996 z" id="boundary" inkscape:connector-curvature="0" />
	<path style="fill:none;stroke:red;stroke-width:1px;stroke-linecap:butt;stroke-linejoin:miter;stroke-opacity:1" d="M 214.029,996 202.163,996 z" id="boundary" inkscape:connector-curvature="0" />
	<path style="fill:none;stroke:red;stroke-width:1px;stroke-linecap:butt;stroke-linejoin:miter;stroke-opacity:1" d="M 254.373,903.445 263.866,911.751 z" id="boundary" inkscape:connector-curvature="0" />
	<path style="fill:none;stroke:red;stroke-width:1px;stroke-linecap:butt;stroke-linejoin:miter;stroke-opacity:1" d="M 254.373,903.445 244.88,895.139 z" id="boundary" inkscape:connector-curvature="0" />
	<path style="fill:none;stroke:red;stroke-width:1px;stroke-linecap:butt;stroke-linejoin:miter;stroke-opacity:1" d="M 249.627,996 260.306,990.067 z" id="boundary" inkscape:connector-curvature="0" />
	<path style="fill:none;stroke:red;stroke-width:1px;stroke-linecap:butt;stroke-linejoin:miter;stroke-opacity:1" d="M 260.306,990.067 272.172,990.067 z" id="boundary" inkscape:connector-curvature="0" />
	<path style="fill:none;stroke:red;stroke-width:1px;stroke-linecap:butt;stroke-linejoin:miter;stroke-opacity:1" d="M 249.627,996 237.761,996 z" id="boundary" inkscape:connector-curvature="0" />
	<path style="fill:none;stroke:red;stroke-width:1px;stroke-linecap:butt;stroke-linejoin:miter;stroke-opacity:1" d="M 274.545,917.684 282.852,927.177 z" id="boundary" inkscape:connector-curvature="0" />
	<path style="fill:none;stroke:red;stroke-width:1px;stroke-linecap:butt;stroke-linejoin:miter;stroke-opacity:1" d="M 263.866,911.751 274.545,917.684 z" id="boundary" inkscape:connector-curvature="0" />
	<path style="fill:none;stroke:red;stroke-width:1px;stroke-linecap:butt;stroke-linejoin:miter;stroke-opacity:1" d="M 282.852,984.134 272.172,990.067 z" id="boundary" inkscape:connector-curvature="0" />
	<path style="fill:none;stroke:red;stroke-width:1px;stroke-linecap:butt;stroke-linejoin:miter;stroke-opacity:1" d="M 278.105,681.55 278.105,693.416 z" id="boundary" inkscape:connector-curvature="0" />
	<path style="fill:none;stroke:red;stroke-width:1px;stroke-linecap:butt;stroke-linejoin:miter;stroke-opacity:1" d="M 307.77,657.818 295.904,663.751 z" id="boundary" inkscape:connector-curvature="0" />
	<path style="fill:none;stroke:red;stroke-width:1px;stroke-linecap:butt;stroke-linejoin:miter;stroke-opacity:1" d="M 313.703,645.952 307.77,657.818 z" id="boundary" inkscape:connector-curvature="0" />
	<path style="fill:none;stroke:red;stroke-width:1px;stroke-linecap:butt;stroke-linejoin:miter;stroke-opacity:1" d="M 295.904,663.751 287.598,673.244 z" id="boundary" inkscape:connector-curvature="0" />
	<path style="fill:none;stroke:red;stroke-width:1px;stroke-linecap:butt;stroke-linejoin:miter;stroke-opacity:1" d="M 313.703,622.22 313.703,634.086 z" id="boundary" inkscape:connector-curvature="0" />
	<path style="fill:none;stroke:red;stroke-width:1px;stroke-linecap:butt;stroke-linejoin:miter;stroke-opacity:1" d="M 284.038,704.096 278.105,693.416 z" id="boundary" inkscape:connector-curvature="0" />
	<path style="fill:none;stroke:red;stroke-width:1px;stroke-linecap:butt;stroke-linejoin:miter;stroke-opacity:1" d="M 278.105,681.55 287.598,673.244 z" id="boundary" inkscape:connector-curvature="0" />
	<path style="fill:none;stroke:red;stroke-width:1px;stroke-linecap:butt;stroke-linejoin:miter;stroke-opacity:1" d="M 284.038,704.096 284.038,715.962 z" id="boundary" inkscape:connector-curvature="0" />
	<path style="fill:none;stroke:red;stroke-width:1px;stroke-linecap:butt;stroke-linejoin:miter;stroke-opacity:1" d="M 349.301,571.196 343.368,592.555 z" id="boundary" inkscape:connector-curvature="0" />
	<path style="fill:none;stroke:red;stroke-width:1px;stroke-linecap:butt;stroke-linejoin:miter;stroke-opacity:1" d="M 343.368,592.555 331.502,604.421 z" id="boundary" inkscape:connector-curvature="0" />
	<path style="fill:none;stroke:red;stroke-width:1px;stroke-linecap:butt;stroke-linejoin:miter;stroke-opacity:1" d="M 323.196,613.914 313.703,622.22 z" id="boundary" inkscape:connector-curvature="0" />
	<path style="fill:none;stroke:red;stroke-width:1px;stroke-linecap:butt;stroke-linejoin:miter;stroke-opacity:1" d="M 313.703,645.952 313.703,634.086 z" id="boundary" inkscape:connector-curvature="0" />
	<path style="fill:none;stroke:red;stroke-width:1px;stroke-linecap:butt;stroke-linejoin:miter;stroke-opacity:1" d="M 323.196,613.914 331.502,604.421 z" id="boundary" inkscape:connector-curvature="0" />
	<path style="fill:none;stroke:red;stroke-width:1px;stroke-linecap:butt;stroke-linejoin:miter;stroke-opacity:1" d="M 284.038,715.962 284.038,727.828 z" id="boundary" inkscape:connector-curvature="0" />
	<path style="fill:none;stroke:red;stroke-width:1px;stroke-linecap:butt;stroke-linejoin:miter;stroke-opacity:1" d="M 284.038,727.828 278.105,740.88 z" id="boundary" inkscape:connector-curvature="0" />
	<path style="fill:none;stroke:red;stroke-width:1px;stroke-linecap:butt;stroke-linejoin:miter;stroke-opacity:1" d="M 306.584,935.483 294.718,931.923 z" id="boundary" inkscape:connector-curvature="0" />
	<path style="fill:none;stroke:red;stroke-width:1px;stroke-linecap:butt;stroke-linejoin:miter;stroke-opacity:1" d="M 282.852,927.177 294.718,931.923 z" id="boundary" inkscape:connector-curvature="0" />
	<path style="fill:none;stroke:red;stroke-width:1px;stroke-linecap:butt;stroke-linejoin:miter;stroke-opacity:1" d="M 294.718,980.574 282.852,984.134 z" id="boundary" inkscape:connector-curvature="0" />
	<path style="fill:none;stroke:red;stroke-width:1px;stroke-linecap:butt;stroke-linejoin:miter;stroke-opacity:1" d="M 306.584,935.483 318.45,937.856 z" id="boundary" inkscape:connector-curvature="0" />
	<path style="fill:none;stroke:red;stroke-width:1px;stroke-linecap:butt;stroke-linejoin:miter;stroke-opacity:1" d="M 318.45,937.856 325.569,947.349 z" id="boundary" inkscape:connector-curvature="0" />
	<path style="fill:none;stroke:red;stroke-width:1px;stroke-linecap:butt;stroke-linejoin:miter;stroke-opacity:1" d="M 294.718,980.574 306.584,978.201 z" id="boundary" inkscape:connector-curvature="0" />
	<path style="fill:none;stroke:red;stroke-width:1px;stroke-linecap:butt;stroke-linejoin:miter;stroke-opacity:1" d="M 318.45,974.641 306.584,978.201 z" id="boundary" inkscape:connector-curvature="0" />
	<path style="fill:none;stroke:red;stroke-width:1px;stroke-linecap:butt;stroke-linejoin:miter;stroke-opacity:1" d="M 327.943,965.148 318.45,974.641 z" id="boundary" inkscape:connector-curvature="0" />
	<path style="fill:none;stroke:red;stroke-width:1px;stroke-linecap:butt;stroke-linejoin:miter;stroke-opacity:1" d="M 325.569,947.349 327.943,965.148 z" id="boundary" inkscape:connector-curvature="0" />
	<circle cx="4" cy="310.144" r="4" fill="#0" id="circle0"/>
	<circle cx="4" cy="322.01" r="4" fill="#0" id="circle1"/>
	<circle cx="4" cy="333.876" r="4" fill="#0" id="circle2"/>
	<circle cx="4" cy="345.742" r="4" fill="#0" id="circle3"/>
	<circle cx="4" cy="357.608" r="4" fill="#0" id="circle4"/>
	<circle cx="4" cy="369.474" r="4" fill="#0" id="circle5"/>
	<circle cx="9.93301" cy="298.278" r="4" fill="#0" id="circle6"/>
	<circle cx="9.93301" cy="380.153" r="4" fill="#0" id="circle7"/>
	<circle cx="15.866" cy="286.411" r="4" fill="#0" id="circle8"/>
	<circle cx="15.866" cy="390.833" r="4" fill="#0" id="circle9"/>
	<circle cx="15.866" cy="402.699" r="4" fill="#0" id="circle10"/>
	<circle cx="15.866" cy="414.565" r="4" fill="#0" id="circle11"/>
	<circle cx="15.866" cy="426.431" r="4" fill="#0" id="circle12"/>
	<circle cx="15.866" cy="438.297" r="4" fill="#0" id="circle13"/>
	<circle cx="15.866" cy="450.163" r="4" fill="#0" id="circle14"/>
	<circle cx="21.799" cy="78.756" r="4" fill="#0" id="circle15"/>
	<circle cx="21.799" cy="90.622" r="4" fill="#0" id="circle16"/>
	<circle cx="21.799" cy="102.488" r="4" fill="#0" id="circle17"/>
	<circle cx="21.799" cy="114.354" r="4" fill="#0" id="circle18"/>
	<circle cx="21.799" cy="126.22" r="4" fill="#0" id="circle19"/>
	<circle cx="21.799" cy="274.545" r="4" fill="#0" id="circle20"/>
	<circle cx="21.799" cy="460.842" r="4" fill="#0" id="circle21"/>
	<circle cx="24.1722" cy="472.708" r="4" fill="#0" id="circle22"/>
	<circle cx="27.7321" cy="66.89" r="4" fill="#0" id="circle23"/>
	<circle cx="27.7321" cy="136.9" r="4" fill="#0" id="circle24"/>
	<circle cx="27.7321" cy="484.574" r="4" fill="#0" id="circle25"/>
	<circle cx="30.1053" cy="496.44" r="4" fill="#0" id="circle26"/>
	<circle cx="31.2919" cy="265.053" r="4" fill="#0" id="circle27"/>
	<circle cx="33.6651" cy="55.0239" r="4" fill="#0" id="circle28"/>
	<circle cx="33.6651" cy="147.579" r="4" fill="#0" id="circle29"/>
	<circle cx="33.6651" cy="508.306" r="4" fill="#0" id="circle30"/>
	<circle cx="37.2249" cy="159.445" r="4" fill="#0" id="circle31"/>
	<circle cx="39.5981" cy="518.986" r="4" fill="#0" id="circle32"/>
	<circle cx="39.5981" cy="530.852" r="4" fill="#0" id="circle33"/>
	<circle cx="39.5981" cy="542.718" r="4" fill="#0" id="circle34"/>
	<circle cx="39.5981" cy="554.584" r="4" fill="#0" id="circle35"/>
	<circle cx="39.5981" cy="566.45" r="4" fill="#0" id="circle36"/>
	<circle cx="39.5981" cy="578.316" r="4" fill="#0" id="circle37"/>
	<circle cx="40.7847" cy="255.56" r="4" fill="#0" id="circle38"/>
	<circle cx="40.7847" cy="590.182" r="4" fill="#0" id="circle39"/>
	<circle cx="43.1579" cy="45.5311" r="4" fill="#0" id="circle40"/>
	<circle cx="43.1579" cy="170.124" r="4" fill="#0" id="circle41"/>
	<circle cx="45.5311" cy="602.048" r="4" fill="#0" id="circle42"/>
	<circle cx="45.5311" cy="613.914" r="4" fill="#0" id="circle43"/>
	<circle cx="51.4641" cy="179.617" r="4" fill="#0" id="circle44"/>
	<circle cx="51.4641" cy="624.593" r="4" fill="#0" id="circle45"/>
	<circle cx="52.6507" cy="36.0383" r="4" fill="#0" id="circle46"/>
	<circle cx="52.6507" cy="249.627" r="4" fill="#0" id="circle47"/>
	<circle cx="57.3971" cy="635.273" r="4" fill="#0" id="circle48"/>
	<circle cx="57.3971" cy="647.139" r="4" fill="#0" id="circle49"/>
	<circle cx="57.3971" cy="659.005" r="4" fill="#0" id="circle50"/>
	<circle cx="62.1435" cy="27.7321" r="4" fill="#0" id="circle51"/>
	<circle cx="62.1435" cy="241.321" r="4" fill="#0" id="circle52"/>
	<circle cx="63.3301" cy="183.177" r="4" fill="#0" id="circle53"/>
	<circle cx="63.3301" cy="669.684" r="4" fill="#0" id="circle54"/>
	<circle cx="66.89" cy="681.55" r="4" fill="#0" id="circle55"/>
	<circle cx="69.2632" cy="193.856" r="4" fill="#0" id="circle56"/>
	<circle cx="70.4498" cy="231.828" r="4" fill="#0" id="circle57"/>
	<circle cx="72.823" cy="21.799" r="4" fill="#0" id="circle58"/>
	<circle cx="75.1962" cy="204.536" r="4" fill="#0" id="circle59"/>
	<circle cx="75.1962" cy="216.402" r="4" fill="#0" id="circle60"/>
	<circle cx="76.3828" cy="689.856" r="4" fill="#0" id="circle61"/>
	<circle cx="81.1292" cy="796.651" r="4" fill="#0" id="circle62"/>
	<circle cx="81.1292" cy="808.517" r="4" fill="#0" id="circle63"/>
	<circle cx="81.1292" cy="820.383" r="4" fill="#0" id="circle64"/>
	<circle cx="81.1292" cy="832.249" r="4" fill="#0" id="circle65"/>
	<circle cx="84.689" cy="15.866" r="4" fill="#0" id="circle66"/>
	<circle cx="87.0622" cy="695.789" r="4" fill="#0" id="circle67"/>
	<circle cx="87.0622" cy="778.852" r="4" fill="#0" id="circle68"/>
	<circle cx="87.0622" cy="842.928" r="4" fill="#0" id="circle69"/>
	<circle cx="87.0622" cy="854.794" r="4" fill="#0" id="circle70"/>
	<circle cx="92.9952" cy="766.986" r="4" fill="#0" id="circle71"/>
	<circle cx="92.9952" cy="865.474" r="4" fill="#0" id="circle72"/>
	<circle cx="92.9952" cy="933.11" r="4" fill="#0" id="circle73"/>
	<circle cx="92.9952" cy="944.976" r="4" fill="#0" id="circle74"/>
	<circle cx="92.9952" cy="956.842" r="4" fill="#0" id="circle75"/>
	<circle cx="96.555" cy="9.93301" r="4" fill="#0" id="circle76"/>
	<circle cx="96.555" cy="704.096" r="4" fill="#0" id="circle77"/>
	<circle cx="96.555" cy="877.34" r="4" fill="#0" id="circle78"/>
	<circle cx="98.9282" cy="755.12" r="4" fill="#0" id="circle79"/>
	<circle cx="98.9282" cy="915.311" r="4" fill="#0" id="circle80"/>
	<circle cx="98.9282" cy="967.522" r="4" fill="#0" id="circle81"/>
	<circle cx="101.301" cy="715.962" r="4" fill="#0" id="circle82"/>
	<circle cx="102.488" cy="888.019" r="4" fill="#0" id="circle83"/>
	<circle cx="104.861" cy="727.828" r="4" fill="#0" id="circle84"/>
	<circle cx="104.861" cy="739.694" r="4" fill="#0" id="circle85"/>
	<circle cx="104.861" cy="899.885" r="4" fill="#0" id="circle86"/>
	<circle cx="107.234" cy="977.014" r="4" fill="#0" id="circle87"/>
	<circle cx="108.421" cy="9.93301" r="4" fill="#0" id="circle88"/>
	<circle cx="119.1" cy="4" r="4" fill="#0" id="circle89"/>
	<circle cx="119.1" cy="981.761" r="4" fill="#0" id="circle90"/>
	<circle cx="130.967" cy="4" r="4" fill="#0" id="circle91"/>
	<circle cx="130.967" cy="984.134" r="4" fill="#0" id="circle92"/>
	<circle cx="142.833" cy="4" r="4" fill="#0" id="circle93"/>
	<circle cx="142.833" cy="987.694" r="4" fill="#0" id="circle94"/>
	<circle cx="153.512" cy="9.93301" r="4" fill="#0" id="circle95"/>
	<circle cx="154.699" cy="990.067" r="4" fill="#0" id="circle96"/>
	<circle cx="165.378" cy="9.93301" r="4" fill="#0" id="circle97"/>
	<circle cx="166.565" cy="993.627" r="4" fill="#0" id="circle98"/>
	<circle cx="177.244" cy="13.4928" r="4" fill="#0" id="circle99"/>
	<circle cx="178.431" cy="996" r="4" fill="#0" id="circle100"/>
	<circle cx="189.11" cy="15.866" r="4" fill="#0" id="circle101"/>
	<circle cx="190.297" cy="996" r="4" fill="#0" id="circle102"/>
	<circle cx="200.976" cy="19.4258" r="4" fill="#0" id="circle103"/>
	<circle cx="202.163" cy="996" r="4" fill="#0" id="circle104"/>
	<circle cx="211.656" cy="25.3589" r="4" fill="#0" id="circle105"/>
	<circle cx="214.029" cy="996" r="4" fill="#0" id="circle106"/>
	<circle cx="221.148" cy="33.6651" r="4" fill="#0" id="circle107"/>
	<circle cx="225.895" cy="996" r="4" fill="#0" id="circle108"/>
	<circle cx="231.828" cy="39.5981" r="4" fill="#0" id="circle109"/>
	<circle cx="237.761" cy="996" r="4" fill="#0" id="circle110"/>
	<circle cx="241.321" cy="47.9043" r="4" fill="#0" id="circle111"/>
	<circle cx="242.507" cy="871.407" r="4" fill="#0" id="circle112"/>
	<circle cx="242.507" cy="883.273" r="4" fill="#0" id="circle113"/>
	<circle cx="244.88" cy="895.139" r="4" fill="#0" id="circle114"/>
	<circle cx="248.44" cy="57.3971" r="4" fill="#0" id="circle115"/>
	<circle cx="248.44" cy="236.574" r="4" fill="#0" id="circle116"/>
	<circle cx="248.44" cy="853.608" r="4" fill="#0" id="circle117"/>
	<circle cx="249.627" cy="996" r="4" fill="#0" id="circle118"/>
	<circle cx="254.373" cy="218.775" r="4" fill="#0" id="circle119"/>
	<circle cx="254.373" cy="247.254" r="4" fill="#0" id="circle120"/>
	<circle cx="254.373" cy="829.876" r="4" fill="#0" id="circle121"/>
	<circle cx="254.373" cy="841.742" r="4" fill="#0" id="circle122"/>
	<circle cx="254.373" cy="903.445" r="4" fill="#0" id="circle123"/>
	<circle cx="257.933" cy="64.5167" r="4" fill="#0" id="circle124"/>
	<circle cx="260.306" cy="195.043" r="4" fill="#0" id="circle125"/>
	<circle cx="260.306" cy="206.909" r="4" fill="#0" id="circle126"/>
	<circle cx="260.306" cy="257.933" r="4" fill="#0" id="circle127"/>
	<circle cx="260.306" cy="794.278" r="4" fill="#0" id="circle128"/>
	<circle cx="260.306" cy="806.144" r="4" fill="#0" id="circle129"/>
	<circle cx="260.306" cy="818.01" r="4" fill="#0" id="circle130"/>
	<circle cx="260.306" cy="990.067" r="4" fill="#0" id="circle131"/>
	<circle cx="263.866" cy="911.751" r="4" fill="#0" id="circle132"/>
	<circle cx="266.239" cy="74.0096" r="4" fill="#0" id="circle133"/>
	<circle cx="266.239" cy="129.78" r="4" fill="#0" id="circle134"/>
	<circle cx="266.239" cy="141.646" r="4" fill="#0" id="circle135"/>
	<circle cx="266.239" cy="153.512" r="4" fill="#0" id="circle136"/>
	<circle cx="266.239" cy="183.177" r="4" fill="#0" id="circle137"/>
	<circle cx="266.239" cy="764.612" r="4" fill="#0" id="circle138"/>
	<circle cx="266.239" cy="776.478" r="4" fill="#0" id="circle139"/>
	<circle cx="268.612" cy="165.378" r="4" fill="#0" id="circle140"/>
	<circle cx="269.799" cy="266.239" r="4" fill="#0" id="circle141"/>
	<circle cx="272.172" cy="84.689" r="4" fill="#0" id="circle142"/>
	<circle cx="272.172" cy="96.555" r="4" fill="#0" id="circle143"/>
	<circle cx="272.172" cy="108.421" r="4" fill="#0" id="circle144"/>
	<circle cx="272.172" cy="752.746" r="4" fill="#0" id="circle145"/>
	<circle cx="272.172" cy="990.067" r="4" fill="#0" id="circle146"/>
	<circle cx="274.545" cy="278.105" r="4" fill="#0" id="circle147"/>
	<circle cx="274.545" cy="917.684" r="4" fill="#0" id="circle148"/>
	<circle cx="278.105" cy="289.971" r="4" fill="#0" id="circle149"/>
	<circle cx="278.105" cy="681.55" r="4" fill="#0" id="circle150"/>
	<circle cx="278.105" cy="693.416" r="4" fill="#0" id="circle151"/>
	<circle cx="278.105" cy="740.88" r="4" fill="#0" id="circle152"/>
	<circle cx="280.478" cy="301.837" r="4" fill="#0" id="circle153"/>
	<circle cx="282.852" cy="927.177" r="4" fill="#0" id="circle154"/>
	<circle cx="282.852" cy="984.134" r="4" fill="#0" id="circle155"/>
	<circle cx="284.038" cy="313.703" r="4" fill="#0" id="circle156"/>
	<circle cx="284.038" cy="704.096" r="4" fill="#0" id="circle157"/>
	<circle cx="284.038" cy="715.962" r="4" fill="#0" id="circle158"/>
	<circle cx="284.038" cy="727.828" r="4" fill="#0" id="circle159"/>
	<circle cx="286.411" cy="325.569" r="4" fill="#0" id="circle160"/>
	<circle cx="287.598" cy="673.244" r="4" fill="#0" id="circle161"/>
	<circle cx="289.971" cy="337.435" r="4" fill="#0" id="circle162"/>
	<circle cx="289.971" cy="367.1" r="4" fill="#0" id="circle163"/>
	<circle cx="289.971" cy="378.967" r="4" fill="#0" id="circle164"/>
	<circle cx="289.971" cy="390.833" r="4" fill="#0" id="circle165"/>
	<circle cx="292.344" cy="402.699" r="4" fill="#0" id="circle166"/>
	<circle cx="294.718" cy="931.923" r="4" fill="#0" id="circle167"/>
	<circle cx="294.718" cy="980.574" r="4" fill="#0" id="circle168"/>
	<circle cx="295.904" cy="348.115" r="4" fill="#0" id="circle169"/>
	<circle cx="295.904" cy="663.751" r="4" fill="#0" id="circle170"/>
	<circle cx="298.278" cy="413.378" r="4" fill="#0" id="circle171"/>
	<circle cx="301.837" cy="425.244" r="4" fill="#0" id="circle172"/>
	<circle cx="306.584" cy="935.483" r="4" fill="#0" id="circle173"/>
	<circle cx="306.584" cy="978.201" r="4" fill="#0" id="circle174"/>
	<circle cx="307.77" cy="435.923" r="4" fill="#0" id="circle175"/>
	<circle cx="307.77" cy="447.789" r="4" fill="#0" id="circle176"/>
	<circle cx="307.77" cy="657.818" r="4" fill="#0" id="circle177"/>
	<circle cx="313.703" cy="458.469" r="4" fill="#0" id="circle178"/>
	<circle cx="313.703" cy="622.22" r="4" fill="#0" id="circle179"/>
	<circle cx="313.703" cy="634.086" r="4" fill="#0" id="circle180"/>
	<circle cx="313.703" cy="645.952" r="4" fill="#0" id="circle181"/>
	<circle cx="318.45" cy="470.335" r="4" fill="#0" id="circle182"/>
	<circle cx="318.45" cy="937.856" r="4" fill="#0" id="circle183"/>
	<circle cx="318.45" cy="974.641" r="4" fill="#0" id="circle184"/>
	<circle cx="319.636" cy="482.201" r="4" fill="#0" id="circle185"/>
	<circle cx="323.196" cy="613.914" r="4" fill="#0" id="circle186"/>
	<circle cx="325.569" cy="492.88" r="4" fill="#0" id="circle187"/>
	<circle cx="325.569" cy="947.349" r="4" fill="#0" id="circle188"/>
	<circle cx="327.943" cy="965.148" r="4" fill="#0" id="circle189"/>
	<circle cx="331.502" cy="503.56" r="4" fill="#0" id="circle190"/>
	<circle cx="331.502" cy="515.426" r="4" fill="#0" id="circle191"/>
	<circle cx="331.502" cy="604.421" r="4" fill="#0" id="circle192"/>
	<circle cx="337.435" cy="526.105" r="4" fill="#0" id="circle193"/>
	<circle cx="337.435" cy="537.971" r="4" fill="#0" id="circle194"/>
	<circle cx="343.368" cy="548.651" r="4" fill="#0" id="circle195"/>
	<circle cx="343.368" cy="592.555" r="4" fill="#0" id="circle196"/>
	<circle cx="349.301" cy="559.33" r="4" fill="#0" id="circle197"/>
	<circle cx="349.301" cy="571.196" r="4" fill="#0" id="circle198"/>
	</g>
</svg>