<?xml version="1.0" encoding="UTF-8" standalone="no"?>
<!-- Created with CurveBenchmark -->
<svg
	xmlns:dc="http://purl.org/dc/elements/1.1/"
	xmlns:cc="http://creativecommons.org/ns#"
	xmlns:rdf="http://www.w3.org/1999/02/22-rdf-syntax-ns#"
	xmlns:svg="http://www.w3.org/2000/svg"
	xmlns="http://www.w3.org/2000/svg"
	xmlns:sodipodi="http://sodipodi.sourceforge.net/DTD/sodipodi-0.dtd"
	xmlns:inkscape="http://www.inkscape.org/namespaces/inkscape"
	width="1000"
	height="1000"
	id="svg2"
	version="1.1"
	sodipodi:docname="manifold/gathang-dino24.png.txt">
<defs
	id="defs4" />
<metadata
	id="metadata7">
	<rdf:RDF>
		<cc:Work
			rdf:about="">
			<dc:format>image/svg+xml</dc:format>
			<dc:type
				rdf:resource="http://purl.org/dc/dcmitype/StillImage" />
			<dc:title></dc:title>
		</cc:Work>
	</rdf:RDF>
</metadata>
<g
	inkscape:label="Layer 1"
	inkscape:groupmode="layer"
	id="layer1">
	<path style="fill:none;stroke:red;stroke-width:1px;stroke-linecap:butt;stroke-linejoin:miter;stroke-opacity:1" d="M 18.9779,38.5645 24.7387,27.043 z" id="boundary" inkscape:connector-curvature="0" />
	<path style="fill:none;stroke:red;stroke-width:1px;stroke-linecap:butt;stroke-linejoin:miter;stroke-opacity:1" d="M 18.9779,38.5645 9.76074,47.7816 z" id="boundary" inkscape:connector-curvature="0" />
	<path style="fill:none;stroke:red;stroke-width:1px;stroke-linecap:butt;stroke-linejoin:miter;stroke-opacity:1" d="M 24.7387,27.043 33.9559,17.8258 z" id="boundary" inkscape:connector-curvature="0" />
	<path style="fill:none;stroke:red;stroke-width:1px;stroke-linecap:butt;stroke-linejoin:miter;stroke-opacity:1" d="M 4,65.0639 9.76074,47.7816 z" id="boundary" inkscape:connector-curvature="0" />
	<path style="fill:none;stroke:red;stroke-width:1px;stroke-linecap:butt;stroke-linejoin:miter;stroke-opacity:1" d="M 4,88.1069 4,76.5854 z" id="boundary" inkscape:connector-curvature="0" />
	<path style="fill:none;stroke:red;stroke-width:1px;stroke-linecap:butt;stroke-linejoin:miter;stroke-opacity:1" d="M 4,76.5854 4,65.0639 z" id="boundary" inkscape:connector-curvature="0" />
	<path style="fill:none;stroke:red;stroke-width:1px;stroke-linecap:butt;stroke-linejoin:miter;stroke-opacity:1" d="M 33.9559,17.8258 43.1731,9.76074 z" id="boundary" inkscape:connector-curvature="0" />
	<path style="fill:none;stroke:red;stroke-width:1px;stroke-linecap:butt;stroke-linejoin:miter;stroke-opacity:1" d="M 43.1731,9.76074 54.6945,9.76074 z" id="boundary" inkscape:connector-curvature="0" />
	<path style="fill:none;stroke:red;stroke-width:1px;stroke-linecap:butt;stroke-linejoin:miter;stroke-opacity:1" d="M 65.0639,4 76.5854,4 z" id="boundary" inkscape:connector-curvature="0" />
	<path style="fill:none;stroke:red;stroke-width:1px;stroke-linecap:butt;stroke-linejoin:miter;stroke-opacity:1" d="M 54.6945,9.76074 65.0639,4 z" id="boundary" inkscape:connector-curvature="0" />
	<path style="fill:none;stroke:red;stroke-width:1px;stroke-linecap:butt;stroke-linejoin:miter;stroke-opacity:1" d="M 88.1069,4 99.6283,4 z" id="boundary" inkscape:connector-curvature="0" />
	<path style="fill:none;stroke:red;stroke-width:1px;stroke-linecap:butt;stroke-linejoin:miter;stroke-opacity:1" d="M 76.5854,4 88.1069,4 z" id="boundary" inkscape:connector-curvature="0" />
	<path style="fill:none;stroke:red;stroke-width:1px;stroke-linecap:butt;stroke-linejoin:miter;stroke-opacity:1" d="M 80.0418,74.2811 68.5203,80.0418 z" id="boundary" inkscape:connector-curvature="0" />
	<path style="fill:none;stroke:red;stroke-width:1px;stroke-linecap:butt;stroke-linejoin:miter;stroke-opacity:1" d="M 119.215,131.889 108.846,137.649 z" id="boundary" inkscape:connector-curvature="0" />
	<path style="fill:none;stroke:red;stroke-width:1px;stroke-linecap:butt;stroke-linejoin:miter;stroke-opacity:1" d="M 80.0418,74.2811 78.8897,88.1069 z" id="boundary" inkscape:connector-curvature="0" />
	<path style="fill:none;stroke:red;stroke-width:1px;stroke-linecap:butt;stroke-linejoin:miter;stroke-opacity:1" d="M 99.6283,4 111.15,4 z" id="boundary" inkscape:connector-curvature="0" />
	<path style="fill:none;stroke:red;stroke-width:1px;stroke-linecap:butt;stroke-linejoin:miter;stroke-opacity:1" d="M 68.5203,80.0418 62.7596,91.5633 z" id="boundary" inkscape:connector-curvature="0" />
	<path style="fill:none;stroke:red;stroke-width:1px;stroke-linecap:butt;stroke-linejoin:miter;stroke-opacity:1" d="M 4,99.6283 13.2172,107.693 z" id="boundary" inkscape:connector-curvature="0" />
	<path style="fill:none;stroke:red;stroke-width:1px;stroke-linecap:butt;stroke-linejoin:miter;stroke-opacity:1" d="M 4,99.6283 4,88.1069 z" id="boundary" inkscape:connector-curvature="0" />
	<path style="fill:none;stroke:red;stroke-width:1px;stroke-linecap:butt;stroke-linejoin:miter;stroke-opacity:1" d="M 65.0639,113.454 59.3031,124.976 z" id="boundary" inkscape:connector-curvature="0" />
	<path style="fill:none;stroke:red;stroke-width:1px;stroke-linecap:butt;stroke-linejoin:miter;stroke-opacity:1" d="M 54.6945,100.78 45.4774,108.846 z" id="boundary" inkscape:connector-curvature="0" />
	<path style="fill:none;stroke:red;stroke-width:1px;stroke-linecap:butt;stroke-linejoin:miter;stroke-opacity:1" d="M 45.4774,108.846 33.9559,114.606 z" id="boundary" inkscape:connector-curvature="0" />
	<path style="fill:none;stroke:red;stroke-width:1px;stroke-linecap:butt;stroke-linejoin:miter;stroke-opacity:1" d="M 22.4344,114.606 33.9559,114.606 z" id="boundary" inkscape:connector-curvature="0" />
	<path style="fill:none;stroke:red;stroke-width:1px;stroke-linecap:butt;stroke-linejoin:miter;stroke-opacity:1" d="M 22.4344,114.606 13.2172,107.693 z" id="boundary" inkscape:connector-curvature="0" />
	<path style="fill:none;stroke:red;stroke-width:1px;stroke-linecap:butt;stroke-linejoin:miter;stroke-opacity:1" d="M 50.0859,145.714 50.0859,134.193 z" id="boundary" inkscape:connector-curvature="0" />
	<path style="fill:none;stroke:red;stroke-width:1px;stroke-linecap:butt;stroke-linejoin:miter;stroke-opacity:1" d="M 61.6074,149.171 50.0859,145.714 z" id="boundary" inkscape:connector-curvature="0" />
	<path style="fill:none;stroke:red;stroke-width:1px;stroke-linecap:butt;stroke-linejoin:miter;stroke-opacity:1" d="M 50.0859,134.193 59.3031,124.976 z" id="boundary" inkscape:connector-curvature="0" />
	<path style="fill:none;stroke:red;stroke-width:1px;stroke-linecap:butt;stroke-linejoin:miter;stroke-opacity:1" d="M 70.8246,101.933 65.0639,113.454 z" id="boundary" inkscape:connector-curvature="0" />
	<path style="fill:none;stroke:red;stroke-width:1px;stroke-linecap:butt;stroke-linejoin:miter;stroke-opacity:1" d="M 78.8897,88.1069 70.8246,101.933 z" id="boundary" inkscape:connector-curvature="0" />
	<path style="fill:none;stroke:red;stroke-width:1px;stroke-linecap:butt;stroke-linejoin:miter;stroke-opacity:1" d="M 61.6074,149.171 71.9768,154.931 z" id="boundary" inkscape:connector-curvature="0" />
	<path style="fill:none;stroke:red;stroke-width:1px;stroke-linecap:butt;stroke-linejoin:miter;stroke-opacity:1" d="M 82.3461,160.692 92.7154,154.931 z" id="boundary" inkscape:connector-curvature="0" />
	<path style="fill:none;stroke:red;stroke-width:1px;stroke-linecap:butt;stroke-linejoin:miter;stroke-opacity:1" d="M 82.3461,160.692 71.9768,154.931 z" id="boundary" inkscape:connector-curvature="0" />
	<path style="fill:none;stroke:red;stroke-width:1px;stroke-linecap:butt;stroke-linejoin:miter;stroke-opacity:1" d="M 92.7154,154.931 103.085,149.171 z" id="boundary" inkscape:connector-curvature="0" />
	<path style="fill:none;stroke:red;stroke-width:1px;stroke-linecap:butt;stroke-linejoin:miter;stroke-opacity:1" d="M 108.846,137.649 103.085,149.171 z" id="boundary" inkscape:connector-curvature="0" />
	<path style="fill:none;stroke:red;stroke-width:1px;stroke-linecap:butt;stroke-linejoin:miter;stroke-opacity:1" d="M 54.6945,100.78 62.7596,91.5633 z" id="boundary" inkscape:connector-curvature="0" />
	<path style="fill:none;stroke:red;stroke-width:1px;stroke-linecap:butt;stroke-linejoin:miter;stroke-opacity:1" d="M 111.15,4 122.671,4 z" id="boundary" inkscape:connector-curvature="0" />
	<path style="fill:none;stroke:red;stroke-width:1px;stroke-linecap:butt;stroke-linejoin:miter;stroke-opacity:1" d="M 122.671,4 134.193,4 z" id="boundary" inkscape:connector-curvature="0" />
	<path style="fill:none;stroke:red;stroke-width:1px;stroke-linecap:butt;stroke-linejoin:miter;stroke-opacity:1" d="M 134.193,4 144.562,9.76074 z" id="boundary" inkscape:connector-curvature="0" />
	<path style="fill:none;stroke:red;stroke-width:1px;stroke-linecap:butt;stroke-linejoin:miter;stroke-opacity:1" d="M 144.562,9.76074 154.931,15.5215 z" id="boundary" inkscape:connector-curvature="0" />
	<path style="fill:none;stroke:red;stroke-width:1px;stroke-linecap:butt;stroke-linejoin:miter;stroke-opacity:1" d="M 154.931,15.5215 164.149,22.4344 z" id="boundary" inkscape:connector-curvature="0" />
	<path style="fill:none;stroke:red;stroke-width:1px;stroke-linecap:butt;stroke-linejoin:miter;stroke-opacity:1" d="M 164.149,22.4344 172.214,31.6516 z" id="boundary" inkscape:connector-curvature="0" />
	<path style="fill:none;stroke:red;stroke-width:1px;stroke-linecap:butt;stroke-linejoin:miter;stroke-opacity:1" d="M 277.059,32.8037 288.581,28.1951 z" id="boundary" inkscape:connector-curvature="0" />
	<path style="fill:none;stroke:red;stroke-width:1px;stroke-linecap:butt;stroke-linejoin:miter;stroke-opacity:1" d="M 288.581,28.1951 300.102,27.043 z" id="boundary" inkscape:connector-curvature="0" />
	<path style="fill:none;stroke:red;stroke-width:1px;stroke-linecap:butt;stroke-linejoin:miter;stroke-opacity:1" d="M 334.667,21.2822 346.188,21.2822 z" id="boundary" inkscape:connector-curvature="0" />
	<path style="fill:none;stroke:red;stroke-width:1px;stroke-linecap:butt;stroke-linejoin:miter;stroke-opacity:1" d="M 357.71,21.2822 369.231,21.2822 z" id="boundary" inkscape:connector-curvature="0" />
	<path style="fill:none;stroke:red;stroke-width:1px;stroke-linecap:butt;stroke-linejoin:miter;stroke-opacity:1" d="M 369.231,21.2822 379.6,27.043 z" id="boundary" inkscape:connector-curvature="0" />
	<path style="fill:none;stroke:red;stroke-width:1px;stroke-linecap:butt;stroke-linejoin:miter;stroke-opacity:1" d="M 357.71,21.2822 346.188,21.2822 z" id="boundary" inkscape:connector-curvature="0" />
	<path style="fill:none;stroke:red;stroke-width:1px;stroke-linecap:butt;stroke-linejoin:miter;stroke-opacity:1" d="M 323.145,22.4344 334.667,21.2822 z" id="boundary" inkscape:connector-curvature="0" />
	<path style="fill:none;stroke:red;stroke-width:1px;stroke-linecap:butt;stroke-linejoin:miter;stroke-opacity:1" d="M 311.624,27.043 323.145,22.4344 z" id="boundary" inkscape:connector-curvature="0" />
	<path style="fill:none;stroke:red;stroke-width:1px;stroke-linecap:butt;stroke-linejoin:miter;stroke-opacity:1" d="M 311.624,27.043 300.102,27.043 z" id="boundary" inkscape:connector-curvature="0" />
	<path style="fill:none;stroke:red;stroke-width:1px;stroke-linecap:butt;stroke-linejoin:miter;stroke-opacity:1" d="M 379.6,27.043 391.122,27.043 z" id="boundary" inkscape:connector-curvature="0" />
	<path style="fill:none;stroke:red;stroke-width:1px;stroke-linecap:butt;stroke-linejoin:miter;stroke-opacity:1" d="M 391.122,27.043 402.643,30.4994 z" id="boundary" inkscape:connector-curvature="0" />
	<path style="fill:none;stroke:red;stroke-width:1px;stroke-linecap:butt;stroke-linejoin:miter;stroke-opacity:1" d="M 414.165,32.8037 402.643,30.4994 z" id="boundary" inkscape:connector-curvature="0" />
	<path style="fill:none;stroke:red;stroke-width:1px;stroke-linecap:butt;stroke-linejoin:miter;stroke-opacity:1" d="M 129.584,137.649 134.193,149.171 z" id="boundary" inkscape:connector-curvature="0" />
	<path style="fill:none;stroke:red;stroke-width:1px;stroke-linecap:butt;stroke-linejoin:miter;stroke-opacity:1" d="M 129.584,137.649 119.215,131.889 z" id="boundary" inkscape:connector-curvature="0" />
	<path style="fill:none;stroke:red;stroke-width:1px;stroke-linecap:butt;stroke-linejoin:miter;stroke-opacity:1" d="M 136.497,160.692 134.193,149.171 z" id="boundary" inkscape:connector-curvature="0" />
	<path style="fill:none;stroke:red;stroke-width:1px;stroke-linecap:butt;stroke-linejoin:miter;stroke-opacity:1" d="M 172.214,31.6516 181.431,39.7166 z" id="boundary" inkscape:connector-curvature="0" />
	<path style="fill:none;stroke:red;stroke-width:1px;stroke-linecap:butt;stroke-linejoin:miter;stroke-opacity:1" d="M 136.497,160.692 136.497,172.214 z" id="boundary" inkscape:connector-curvature="0" />
	<path style="fill:none;stroke:red;stroke-width:1px;stroke-linecap:butt;stroke-linejoin:miter;stroke-opacity:1" d="M 136.497,172.214 142.258,182.583 z" id="boundary" inkscape:connector-curvature="0" />
	<path style="fill:none;stroke:red;stroke-width:1px;stroke-linecap:butt;stroke-linejoin:miter;stroke-opacity:1" d="M 142.258,182.583 142.258,194.105 z" id="boundary" inkscape:connector-curvature="0" />
	<path style="fill:none;stroke:red;stroke-width:1px;stroke-linecap:butt;stroke-linejoin:miter;stroke-opacity:1" d="M 142.258,194.105 135.345,205.626 z" id="boundary" inkscape:connector-curvature="0" />
	<path style="fill:none;stroke:red;stroke-width:1px;stroke-linecap:butt;stroke-linejoin:miter;stroke-opacity:1" d="M 181.431,39.7166 189.496,48.9338 z" id="boundary" inkscape:connector-curvature="0" />
	<path style="fill:none;stroke:red;stroke-width:1px;stroke-linecap:butt;stroke-linejoin:miter;stroke-opacity:1" d="M 243.647,38.5645 255.168,38.5645 z" id="boundary" inkscape:connector-curvature="0" />
	<path style="fill:none;stroke:red;stroke-width:1px;stroke-linecap:butt;stroke-linejoin:miter;stroke-opacity:1" d="M 232.125,44.3252 243.647,38.5645 z" id="boundary" inkscape:connector-curvature="0" />
	<path style="fill:none;stroke:red;stroke-width:1px;stroke-linecap:butt;stroke-linejoin:miter;stroke-opacity:1" d="M 265.538,32.8037 255.168,38.5645 z" id="boundary" inkscape:connector-curvature="0" />
	<path style="fill:none;stroke:red;stroke-width:1px;stroke-linecap:butt;stroke-linejoin:miter;stroke-opacity:1" d="M 265.538,32.8037 277.059,32.8037 z" id="boundary" inkscape:connector-curvature="0" />
	<path style="fill:none;stroke:red;stroke-width:1px;stroke-linecap:butt;stroke-linejoin:miter;stroke-opacity:1" d="M 189.496,48.9338 198.713,55.8467 z" id="boundary" inkscape:connector-curvature="0" />
	<path style="fill:none;stroke:red;stroke-width:1px;stroke-linecap:butt;stroke-linejoin:miter;stroke-opacity:1" d="M 210.235,55.8467 198.713,55.8467 z" id="boundary" inkscape:connector-curvature="0" />
	<path style="fill:none;stroke:red;stroke-width:1px;stroke-linecap:butt;stroke-linejoin:miter;stroke-opacity:1" d="M 220.604,50.0859 232.125,44.3252 z" id="boundary" inkscape:connector-curvature="0" />
	<path style="fill:none;stroke:red;stroke-width:1px;stroke-linecap:butt;stroke-linejoin:miter;stroke-opacity:1" d="M 220.604,50.0859 210.235,55.8467 z" id="boundary" inkscape:connector-curvature="0" />
	<path style="fill:none;stroke:red;stroke-width:1px;stroke-linecap:butt;stroke-linejoin:miter;stroke-opacity:1" d="M 135.345,205.626 124.976,211.387 z" id="boundary" inkscape:connector-curvature="0" />
	<path style="fill:none;stroke:red;stroke-width:1px;stroke-linecap:butt;stroke-linejoin:miter;stroke-opacity:1" d="M 101.933,232.125 101.933,220.604 z" id="boundary" inkscape:connector-curvature="0" />
	<path style="fill:none;stroke:red;stroke-width:1px;stroke-linecap:butt;stroke-linejoin:miter;stroke-opacity:1" d="M 101.933,220.604 113.454,214.843 z" id="boundary" inkscape:connector-curvature="0" />
	<path style="fill:none;stroke:red;stroke-width:1px;stroke-linecap:butt;stroke-linejoin:miter;stroke-opacity:1" d="M 113.454,214.843 124.976,211.387 z" id="boundary" inkscape:connector-curvature="0" />
	<path style="fill:none;stroke:red;stroke-width:1px;stroke-linecap:butt;stroke-linejoin:miter;stroke-opacity:1" d="M 146.866,224.06 136.497,229.821 z" id="boundary" inkscape:connector-curvature="0" />
	<path style="fill:none;stroke:red;stroke-width:1px;stroke-linecap:butt;stroke-linejoin:miter;stroke-opacity:1" d="M 101.933,232.125 111.15,240.19 z" id="boundary" inkscape:connector-curvature="0" />
	<path style="fill:none;stroke:red;stroke-width:1px;stroke-linecap:butt;stroke-linejoin:miter;stroke-opacity:1" d="M 126.128,235.582 136.497,229.821 z" id="boundary" inkscape:connector-curvature="0" />
	<path style="fill:none;stroke:red;stroke-width:1px;stroke-linecap:butt;stroke-linejoin:miter;stroke-opacity:1" d="M 120.367,247.103 111.15,240.19 z" id="boundary" inkscape:connector-curvature="0" />
	<path style="fill:none;stroke:red;stroke-width:1px;stroke-linecap:butt;stroke-linejoin:miter;stroke-opacity:1" d="M 126.128,235.582 120.367,247.103 z" id="boundary" inkscape:connector-curvature="0" />
	<path style="fill:none;stroke:red;stroke-width:1px;stroke-linecap:butt;stroke-linejoin:miter;stroke-opacity:1" d="M 158.388,221.756 166.453,212.539 z" id="boundary" inkscape:connector-curvature="0" />
	<path style="fill:none;stroke:red;stroke-width:1px;stroke-linecap:butt;stroke-linejoin:miter;stroke-opacity:1" d="M 166.453,212.539 171.062,226.365 z" id="boundary" inkscape:connector-curvature="0" />
	<path style="fill:none;stroke:red;stroke-width:1px;stroke-linecap:butt;stroke-linejoin:miter;stroke-opacity:1" d="M 158.388,221.756 146.866,224.06 z" id="boundary" inkscape:connector-curvature="0" />
	<path style="fill:none;stroke:red;stroke-width:1px;stroke-linecap:butt;stroke-linejoin:miter;stroke-opacity:1" d="M 211.387,224.06 222.908,224.06 z" id="boundary" inkscape:connector-curvature="0" />
	<path style="fill:none;stroke:red;stroke-width:1px;stroke-linecap:butt;stroke-linejoin:miter;stroke-opacity:1" d="M 222.908,224.06 226.365,235.582 z" id="boundary" inkscape:connector-curvature="0" />
	<path style="fill:none;stroke:red;stroke-width:1px;stroke-linecap:butt;stroke-linejoin:miter;stroke-opacity:1" d="M 165.301,237.886 171.062,226.365 z" id="boundary" inkscape:connector-curvature="0" />
	<path style="fill:none;stroke:red;stroke-width:1px;stroke-linecap:butt;stroke-linejoin:miter;stroke-opacity:1" d="M 195.257,252.864 195.257,241.343 z" id="boundary" inkscape:connector-curvature="0" />
	<path style="fill:none;stroke:red;stroke-width:1px;stroke-linecap:butt;stroke-linejoin:miter;stroke-opacity:1" d="M 195.257,241.343 204.474,233.278 z" id="boundary" inkscape:connector-curvature="0" />
	<path style="fill:none;stroke:red;stroke-width:1px;stroke-linecap:butt;stroke-linejoin:miter;stroke-opacity:1" d="M 211.387,224.06 204.474,233.278 z" id="boundary" inkscape:connector-curvature="0" />
	<path style="fill:none;stroke:red;stroke-width:1px;stroke-linecap:butt;stroke-linejoin:miter;stroke-opacity:1" d="M 165.301,237.886 159.54,249.408 z" id="boundary" inkscape:connector-curvature="0" />
	<path style="fill:none;stroke:red;stroke-width:1px;stroke-linecap:butt;stroke-linejoin:miter;stroke-opacity:1" d="M 235.582,243.647 226.365,235.582 z" id="boundary" inkscape:connector-curvature="0" />
	<path style="fill:none;stroke:red;stroke-width:1px;stroke-linecap:butt;stroke-linejoin:miter;stroke-opacity:1" d="M 159.54,249.408 159.54,260.929 z" id="boundary" inkscape:connector-curvature="0" />
	<path style="fill:none;stroke:red;stroke-width:1px;stroke-linecap:butt;stroke-linejoin:miter;stroke-opacity:1" d="M 165.301,271.298 159.54,260.929 z" id="boundary" inkscape:connector-curvature="0" />
	<path style="fill:none;stroke:red;stroke-width:1px;stroke-linecap:butt;stroke-linejoin:miter;stroke-opacity:1" d="M 165.301,271.298 171.062,281.668 z" id="boundary" inkscape:connector-curvature="0" />
	<path style="fill:none;stroke:red;stroke-width:1px;stroke-linecap:butt;stroke-linejoin:miter;stroke-opacity:1" d="M 191.8,275.907 182.583,283.972 z" id="boundary" inkscape:connector-curvature="0" />
	<path style="fill:none;stroke:red;stroke-width:1px;stroke-linecap:butt;stroke-linejoin:miter;stroke-opacity:1" d="M 182.583,283.972 171.062,281.668 z" id="boundary" inkscape:connector-curvature="0" />
	<path style="fill:none;stroke:red;stroke-width:1px;stroke-linecap:butt;stroke-linejoin:miter;stroke-opacity:1" d="M 191.8,275.907 201.017,263.233 z" id="boundary" inkscape:connector-curvature="0" />
	<path style="fill:none;stroke:red;stroke-width:1px;stroke-linecap:butt;stroke-linejoin:miter;stroke-opacity:1" d="M 195.257,252.864 201.017,263.233 z" id="boundary" inkscape:connector-curvature="0" />
	<path style="fill:none;stroke:red;stroke-width:1px;stroke-linecap:butt;stroke-linejoin:miter;stroke-opacity:1" d="M 243.647,252.864 251.712,262.081 z" id="boundary" inkscape:connector-curvature="0" />
	<path style="fill:none;stroke:red;stroke-width:1px;stroke-linecap:butt;stroke-linejoin:miter;stroke-opacity:1" d="M 243.647,252.864 235.582,243.647 z" id="boundary" inkscape:connector-curvature="0" />
	<path style="fill:none;stroke:red;stroke-width:1px;stroke-linecap:butt;stroke-linejoin:miter;stroke-opacity:1" d="M 251.712,262.081 257.473,272.451 z" id="boundary" inkscape:connector-curvature="0" />
	<path style="fill:none;stroke:red;stroke-width:1px;stroke-linecap:butt;stroke-linejoin:miter;stroke-opacity:1" d="M 266.69,280.516 257.473,272.451 z" id="boundary" inkscape:connector-curvature="0" />
	<path style="fill:none;stroke:red;stroke-width:1px;stroke-linecap:butt;stroke-linejoin:miter;stroke-opacity:1" d="M 257.473,462.555 257.473,474.077 z" id="boundary" inkscape:connector-curvature="0" />
	<path style="fill:none;stroke:red;stroke-width:1px;stroke-linecap:butt;stroke-linejoin:miter;stroke-opacity:1" d="M 257.473,485.598 257.473,474.077 z" id="boundary" inkscape:connector-curvature="0" />
	<path style="fill:none;stroke:red;stroke-width:1px;stroke-linecap:butt;stroke-linejoin:miter;stroke-opacity:1" d="M 263.233,451.034 257.473,462.555 z" id="boundary" inkscape:connector-curvature="0" />
	<path style="fill:none;stroke:red;stroke-width:1px;stroke-linecap:butt;stroke-linejoin:miter;stroke-opacity:1" d="M 266.69,280.516 274.755,289.733 z" id="boundary" inkscape:connector-curvature="0" />
	<path style="fill:none;stroke:red;stroke-width:1px;stroke-linecap:butt;stroke-linejoin:miter;stroke-opacity:1" d="M 272.451,441.816 263.233,451.034 z" id="boundary" inkscape:connector-curvature="0" />
	<path style="fill:none;stroke:red;stroke-width:1px;stroke-linecap:butt;stroke-linejoin:miter;stroke-opacity:1" d="M 274.755,289.733 286.276,293.189 z" id="boundary" inkscape:connector-curvature="0" />
	<path style="fill:none;stroke:red;stroke-width:1px;stroke-linecap:butt;stroke-linejoin:miter;stroke-opacity:1" d="M 286.276,293.189 293.189,302.407 z" id="boundary" inkscape:connector-curvature="0" />
	<path style="fill:none;stroke:red;stroke-width:1px;stroke-linecap:butt;stroke-linejoin:miter;stroke-opacity:1" d="M 293.189,302.407 303.559,308.167 z" id="boundary" inkscape:connector-curvature="0" />
	<path style="fill:none;stroke:red;stroke-width:1px;stroke-linecap:butt;stroke-linejoin:miter;stroke-opacity:1" d="M 303.559,308.167 304.711,319.689 z" id="boundary" inkscape:connector-curvature="0" />
	<path style="fill:none;stroke:red;stroke-width:1px;stroke-linecap:butt;stroke-linejoin:miter;stroke-opacity:1" d="M 304.711,319.689 313.928,327.754 z" id="boundary" inkscape:connector-curvature="0" />
	<path style="fill:none;stroke:red;stroke-width:1px;stroke-linecap:butt;stroke-linejoin:miter;stroke-opacity:1" d="M 313.928,327.754 315.08,339.275 z" id="boundary" inkscape:connector-curvature="0" />
	<path style="fill:none;stroke:red;stroke-width:1px;stroke-linecap:butt;stroke-linejoin:miter;stroke-opacity:1" d="M 320.841,349.645 315.08,339.275 z" id="boundary" inkscape:connector-curvature="0" />
	<path style="fill:none;stroke:red;stroke-width:1px;stroke-linecap:butt;stroke-linejoin:miter;stroke-opacity:1" d="M 320.841,349.645 326.602,360.014 z" id="boundary" inkscape:connector-curvature="0" />
	<path style="fill:none;stroke:red;stroke-width:1px;stroke-linecap:butt;stroke-linejoin:miter;stroke-opacity:1" d="M 326.602,360.014 326.602,371.535 z" id="boundary" inkscape:connector-curvature="0" />
	<path style="fill:none;stroke:red;stroke-width:1px;stroke-linecap:butt;stroke-linejoin:miter;stroke-opacity:1" d="M 402.643,391.122 396.883,402.643 z" id="boundary" inkscape:connector-curvature="0" />
	<path style="fill:none;stroke:red;stroke-width:1px;stroke-linecap:butt;stroke-linejoin:miter;stroke-opacity:1" d="M 326.602,383.057 326.602,371.535 z" id="boundary" inkscape:connector-curvature="0" />
	<path style="fill:none;stroke:red;stroke-width:1px;stroke-linecap:butt;stroke-linejoin:miter;stroke-opacity:1" d="M 326.602,383.057 320.841,399.187 z" id="boundary" inkscape:connector-curvature="0" />
	<path style="fill:none;stroke:red;stroke-width:1px;stroke-linecap:butt;stroke-linejoin:miter;stroke-opacity:1" d="M 320.841,399.187 320.841,410.708 z" id="boundary" inkscape:connector-curvature="0" />
	<path style="fill:none;stroke:red;stroke-width:1px;stroke-linecap:butt;stroke-linejoin:miter;stroke-opacity:1" d="M 320.841,410.708 315.08,422.23 z" id="boundary" inkscape:connector-curvature="0" />
	<path style="fill:none;stroke:red;stroke-width:1px;stroke-linecap:butt;stroke-linejoin:miter;stroke-opacity:1" d="M 396.883,402.643 391.122,419.926 z" id="boundary" inkscape:connector-curvature="0" />
	<path style="fill:none;stroke:red;stroke-width:1px;stroke-linecap:butt;stroke-linejoin:miter;stroke-opacity:1" d="M 391.122,419.926 379.6,425.686 z" id="boundary" inkscape:connector-curvature="0" />
	<path style="fill:none;stroke:red;stroke-width:1px;stroke-linecap:butt;stroke-linejoin:miter;stroke-opacity:1" d="M 379.6,425.686 373.84,437.208 z" id="boundary" inkscape:connector-curvature="0" />
	<path style="fill:none;stroke:red;stroke-width:1px;stroke-linecap:butt;stroke-linejoin:miter;stroke-opacity:1" d="M 283.972,441.816 272.451,441.816 z" id="boundary" inkscape:connector-curvature="0" />
	<path style="fill:none;stroke:red;stroke-width:1px;stroke-linecap:butt;stroke-linejoin:miter;stroke-opacity:1" d="M 294.341,436.056 283.972,441.816 z" id="boundary" inkscape:connector-curvature="0" />
	<path style="fill:none;stroke:red;stroke-width:1px;stroke-linecap:butt;stroke-linejoin:miter;stroke-opacity:1" d="M 294.341,436.056 305.863,436.056 z" id="boundary" inkscape:connector-curvature="0" />
	<path style="fill:none;stroke:red;stroke-width:1px;stroke-linecap:butt;stroke-linejoin:miter;stroke-opacity:1" d="M 315.08,422.23 305.863,436.056 z" id="boundary" inkscape:connector-curvature="0" />
	<path style="fill:none;stroke:red;stroke-width:1px;stroke-linecap:butt;stroke-linejoin:miter;stroke-opacity:1" d="M 266.69,493.663 278.211,489.055 z" id="boundary" inkscape:connector-curvature="0" />
	<path style="fill:none;stroke:red;stroke-width:1px;stroke-linecap:butt;stroke-linejoin:miter;stroke-opacity:1" d="M 278.211,489.055 289.733,487.902 z" id="boundary" inkscape:connector-curvature="0" />
	<path style="fill:none;stroke:red;stroke-width:1px;stroke-linecap:butt;stroke-linejoin:miter;stroke-opacity:1" d="M 266.69,493.663 257.473,485.598 z" id="boundary" inkscape:connector-curvature="0" />
	<path style="fill:none;stroke:red;stroke-width:1px;stroke-linecap:butt;stroke-linejoin:miter;stroke-opacity:1" d="M 301.254,487.902 312.776,489.055 z" id="boundary" inkscape:connector-curvature="0" />
	<path style="fill:none;stroke:red;stroke-width:1px;stroke-linecap:butt;stroke-linejoin:miter;stroke-opacity:1" d="M 301.254,487.902 289.733,487.902 z" id="boundary" inkscape:connector-curvature="0" />
	<path style="fill:none;stroke:red;stroke-width:1px;stroke-linecap:butt;stroke-linejoin:miter;stroke-opacity:1" d="M 312.776,489.055 324.297,489.055 z" id="boundary" inkscape:connector-curvature="0" />
	<path style="fill:none;stroke:red;stroke-width:1px;stroke-linecap:butt;stroke-linejoin:miter;stroke-opacity:1" d="M 376.144,448.729 373.84,437.208 z" id="boundary" inkscape:connector-curvature="0" />
	<path style="fill:none;stroke:red;stroke-width:1px;stroke-linecap:butt;stroke-linejoin:miter;stroke-opacity:1" d="M 379.6,471.772 381.905,459.099 z" id="boundary" inkscape:connector-curvature="0" />
	<path style="fill:none;stroke:red;stroke-width:1px;stroke-linecap:butt;stroke-linejoin:miter;stroke-opacity:1" d="M 376.144,448.729 381.905,459.099 z" id="boundary" inkscape:connector-curvature="0" />
	<path style="fill:none;stroke:red;stroke-width:1px;stroke-linecap:butt;stroke-linejoin:miter;stroke-opacity:1" d="M 379.6,471.772 370.383,482.142 z" id="boundary" inkscape:connector-curvature="0" />
	<path style="fill:none;stroke:red;stroke-width:1px;stroke-linecap:butt;stroke-linejoin:miter;stroke-opacity:1" d="M 324.297,489.055 335.819,489.055 z" id="boundary" inkscape:connector-curvature="0" />
	<path style="fill:none;stroke:red;stroke-width:1px;stroke-linecap:butt;stroke-linejoin:miter;stroke-opacity:1" d="M 358.862,487.902 347.34,489.055 z" id="boundary" inkscape:connector-curvature="0" />
	<path style="fill:none;stroke:red;stroke-width:1px;stroke-linecap:butt;stroke-linejoin:miter;stroke-opacity:1" d="M 347.34,489.055 335.819,489.055 z" id="boundary" inkscape:connector-curvature="0" />
	<path style="fill:none;stroke:red;stroke-width:1px;stroke-linecap:butt;stroke-linejoin:miter;stroke-opacity:1" d="M 358.862,487.902 370.383,482.142 z" id="boundary" inkscape:connector-curvature="0" />
	<path style="fill:none;stroke:red;stroke-width:1px;stroke-linecap:butt;stroke-linejoin:miter;stroke-opacity:1" d="M 425.686,36.2602 414.165,32.8037 z" id="boundary" inkscape:connector-curvature="0" />
	<path style="fill:none;stroke:red;stroke-width:1px;stroke-linecap:butt;stroke-linejoin:miter;stroke-opacity:1" d="M 437.208,38.5645 425.686,36.2602 z" id="boundary" inkscape:connector-curvature="0" />
	<path style="fill:none;stroke:red;stroke-width:1px;stroke-linecap:butt;stroke-linejoin:miter;stroke-opacity:1" d="M 437.208,38.5645 447.577,44.3252 z" id="boundary" inkscape:connector-curvature="0" />
	<path style="fill:none;stroke:red;stroke-width:1px;stroke-linecap:butt;stroke-linejoin:miter;stroke-opacity:1" d="M 459.099,46.6295 447.577,44.3252 z" id="boundary" inkscape:connector-curvature="0" />
	<path style="fill:none;stroke:red;stroke-width:1px;stroke-linecap:butt;stroke-linejoin:miter;stroke-opacity:1" d="M 459.099,46.6295 466.012,55.8467 z" id="boundary" inkscape:connector-curvature="0" />
	<path style="fill:none;stroke:red;stroke-width:1px;stroke-linecap:butt;stroke-linejoin:miter;stroke-opacity:1" d="M 477.533,59.3031 466.012,55.8467 z" id="boundary" inkscape:connector-curvature="0" />
	<path style="fill:none;stroke:red;stroke-width:1px;stroke-linecap:butt;stroke-linejoin:miter;stroke-opacity:1" d="M 477.533,59.3031 486.75,67.3682 z" id="boundary" inkscape:connector-curvature="0" />
	<path style="fill:none;stroke:red;stroke-width:1px;stroke-linecap:butt;stroke-linejoin:miter;stroke-opacity:1" d="M 497.12,73.1289 486.75,67.3682 z" id="boundary" inkscape:connector-curvature="0" />
	<path style="fill:none;stroke:red;stroke-width:1px;stroke-linecap:butt;stroke-linejoin:miter;stroke-opacity:1" d="M 497.12,73.1289 507.489,78.8897 z" id="boundary" inkscape:connector-curvature="0" />
	<path style="fill:none;stroke:red;stroke-width:1px;stroke-linecap:butt;stroke-linejoin:miter;stroke-opacity:1" d="M 517.858,84.6504 527.075,91.5633 z" id="boundary" inkscape:connector-curvature="0" />
	<path style="fill:none;stroke:red;stroke-width:1px;stroke-linecap:butt;stroke-linejoin:miter;stroke-opacity:1" d="M 507.489,78.8897 517.858,84.6504 z" id="boundary" inkscape:connector-curvature="0" />
	<path style="fill:none;stroke:red;stroke-width:1px;stroke-linecap:butt;stroke-linejoin:miter;stroke-opacity:1" d="M 537.445,97.324 527.075,91.5633 z" id="boundary" inkscape:connector-curvature="0" />
	<path style="fill:none;stroke:red;stroke-width:1px;stroke-linecap:butt;stroke-linejoin:miter;stroke-opacity:1" d="M 537.445,97.324 548.966,101.933 z" id="boundary" inkscape:connector-curvature="0" />
	<path style="fill:none;stroke:red;stroke-width:1px;stroke-linecap:butt;stroke-linejoin:miter;stroke-opacity:1" d="M 548.966,101.933 557.031,111.15 z" id="boundary" inkscape:connector-curvature="0" />
	<path style="fill:none;stroke:red;stroke-width:1px;stroke-linecap:butt;stroke-linejoin:miter;stroke-opacity:1" d="M 557.031,111.15 568.553,115.758 z" id="boundary" inkscape:connector-curvature="0" />
	<path style="fill:none;stroke:red;stroke-width:1px;stroke-linecap:butt;stroke-linejoin:miter;stroke-opacity:1" d="M 578.922,121.519 568.553,115.758 z" id="boundary" inkscape:connector-curvature="0" />
	<path style="fill:none;stroke:red;stroke-width:1px;stroke-linecap:butt;stroke-linejoin:miter;stroke-opacity:1" d="M 578.922,121.519 586.987,130.736 z" id="boundary" inkscape:connector-curvature="0" />
	<path style="fill:none;stroke:red;stroke-width:1px;stroke-linecap:butt;stroke-linejoin:miter;stroke-opacity:1" d="M 586.987,130.736 598.509,134.193 z" id="boundary" inkscape:connector-curvature="0" />
	<path style="fill:none;stroke:red;stroke-width:1px;stroke-linecap:butt;stroke-linejoin:miter;stroke-opacity:1" d="M 598.509,134.193 606.574,143.41 z" id="boundary" inkscape:connector-curvature="0" />
	<path style="fill:none;stroke:red;stroke-width:1px;stroke-linecap:butt;stroke-linejoin:miter;stroke-opacity:1" d="M 618.095,148.019 606.574,143.41 z" id="boundary" inkscape:connector-curvature="0" />
	<path style="fill:none;stroke:red;stroke-width:1px;stroke-linecap:butt;stroke-linejoin:miter;stroke-opacity:1" d="M 628.465,153.779 618.095,148.019 z" id="boundary" inkscape:connector-curvature="0" />
	<path style="fill:none;stroke:red;stroke-width:1px;stroke-linecap:butt;stroke-linejoin:miter;stroke-opacity:1" d="M 508.641,321.993 506.337,310.472 z" id="boundary" inkscape:connector-curvature="0" />
	<path style="fill:none;stroke:red;stroke-width:1px;stroke-linecap:butt;stroke-linejoin:miter;stroke-opacity:1" d="M 506.337,310.472 516.706,304.711 z" id="boundary" inkscape:connector-curvature="0" />
	<path style="fill:none;stroke:red;stroke-width:1px;stroke-linecap:butt;stroke-linejoin:miter;stroke-opacity:1" d="M 527.075,310.472 538.597,310.472 z" id="boundary" inkscape:connector-curvature="0" />
	<path style="fill:none;stroke:red;stroke-width:1px;stroke-linecap:butt;stroke-linejoin:miter;stroke-opacity:1" d="M 527.075,310.472 516.706,304.711 z" id="boundary" inkscape:connector-curvature="0" />
	<path style="fill:none;stroke:red;stroke-width:1px;stroke-linecap:butt;stroke-linejoin:miter;stroke-opacity:1" d="M 550.118,310.472 538.597,310.472 z" id="boundary" inkscape:connector-curvature="0" />
	<path style="fill:none;stroke:red;stroke-width:1px;stroke-linecap:butt;stroke-linejoin:miter;stroke-opacity:1" d="M 628.465,153.779 637.682,161.844 z" id="boundary" inkscape:connector-curvature="0" />
	<path style="fill:none;stroke:red;stroke-width:1px;stroke-linecap:butt;stroke-linejoin:miter;stroke-opacity:1" d="M 648.051,167.605 637.682,161.844 z" id="boundary" inkscape:connector-curvature="0" />
	<path style="fill:none;stroke:red;stroke-width:1px;stroke-linecap:butt;stroke-linejoin:miter;stroke-opacity:1" d="M 648.051,167.605 659.573,172.214 z" id="boundary" inkscape:connector-curvature="0" />
	<path style="fill:none;stroke:red;stroke-width:1px;stroke-linecap:butt;stroke-linejoin:miter;stroke-opacity:1" d="M 659.573,172.214 667.638,181.431 z" id="boundary" inkscape:connector-curvature="0" />
	<path style="fill:none;stroke:red;stroke-width:1px;stroke-linecap:butt;stroke-linejoin:miter;stroke-opacity:1" d="M 667.638,181.431 679.159,186.039 z" id="boundary" inkscape:connector-curvature="0" />
	<path style="fill:none;stroke:red;stroke-width:1px;stroke-linecap:butt;stroke-linejoin:miter;stroke-opacity:1" d="M 679.159,186.039 688.376,194.105 z" id="boundary" inkscape:connector-curvature="0" />
	<path style="fill:none;stroke:red;stroke-width:1px;stroke-linecap:butt;stroke-linejoin:miter;stroke-opacity:1" d="M 698.746,199.865 688.376,194.105 z" id="boundary" inkscape:connector-curvature="0" />
	<path style="fill:none;stroke:red;stroke-width:1px;stroke-linecap:butt;stroke-linejoin:miter;stroke-opacity:1" d="M 709.115,205.626 698.746,199.865 z" id="boundary" inkscape:connector-curvature="0" />
	<path style="fill:none;stroke:red;stroke-width:1px;stroke-linecap:butt;stroke-linejoin:miter;stroke-opacity:1" d="M 719.484,211.387 729.854,217.148 z" id="boundary" inkscape:connector-curvature="0" />
	<path style="fill:none;stroke:red;stroke-width:1px;stroke-linecap:butt;stroke-linejoin:miter;stroke-opacity:1" d="M 740.223,222.908 751.744,224.06 z" id="boundary" inkscape:connector-curvature="0" />
	<path style="fill:none;stroke:red;stroke-width:1px;stroke-linecap:butt;stroke-linejoin:miter;stroke-opacity:1" d="M 751.744,224.06 762.114,229.821 z" id="boundary" inkscape:connector-curvature="0" />
	<path style="fill:none;stroke:red;stroke-width:1px;stroke-linecap:butt;stroke-linejoin:miter;stroke-opacity:1" d="M 740.223,222.908 729.854,217.148 z" id="boundary" inkscape:connector-curvature="0" />
	<path style="fill:none;stroke:red;stroke-width:1px;stroke-linecap:butt;stroke-linejoin:miter;stroke-opacity:1" d="M 762.114,229.821 773.635,234.43 z" id="boundary" inkscape:connector-curvature="0" />
	<path style="fill:none;stroke:red;stroke-width:1px;stroke-linecap:butt;stroke-linejoin:miter;stroke-opacity:1" d="M 784.005,240.19 795.526,240.19 z" id="boundary" inkscape:connector-curvature="0" />
	<path style="fill:none;stroke:red;stroke-width:1px;stroke-linecap:butt;stroke-linejoin:miter;stroke-opacity:1" d="M 795.526,240.19 805.895,245.951 z" id="boundary" inkscape:connector-curvature="0" />
	<path style="fill:none;stroke:red;stroke-width:1px;stroke-linecap:butt;stroke-linejoin:miter;stroke-opacity:1" d="M 784.005,240.19 773.635,234.43 z" id="boundary" inkscape:connector-curvature="0" />
	<path style="fill:none;stroke:red;stroke-width:1px;stroke-linecap:butt;stroke-linejoin:miter;stroke-opacity:1" d="M 719.484,211.387 709.115,205.626 z" id="boundary" inkscape:connector-curvature="0" />
	<path style="fill:none;stroke:red;stroke-width:1px;stroke-linecap:butt;stroke-linejoin:miter;stroke-opacity:1" d="M 805.895,245.951 817.417,245.951 z" id="boundary" inkscape:connector-curvature="0" />
	<path style="fill:none;stroke:red;stroke-width:1px;stroke-linecap:butt;stroke-linejoin:miter;stroke-opacity:1" d="M 817.417,245.951 827.786,251.712 z" id="boundary" inkscape:connector-curvature="0" />
	<path style="fill:none;stroke:red;stroke-width:1px;stroke-linecap:butt;stroke-linejoin:miter;stroke-opacity:1" d="M 827.786,251.712 839.308,254.016 z" id="boundary" inkscape:connector-curvature="0" />
	<path style="fill:none;stroke:red;stroke-width:1px;stroke-linecap:butt;stroke-linejoin:miter;stroke-opacity:1" d="M 850.829,257.473 839.308,254.016 z" id="boundary" inkscape:connector-curvature="0" />
	<path style="fill:none;stroke:red;stroke-width:1px;stroke-linecap:butt;stroke-linejoin:miter;stroke-opacity:1" d="M 861.199,263.233 850.829,257.473 z" id="boundary" inkscape:connector-curvature="0" />
	<path style="fill:none;stroke:red;stroke-width:1px;stroke-linecap:butt;stroke-linejoin:miter;stroke-opacity:1" d="M 872.72,263.233 861.199,263.233 z" id="boundary" inkscape:connector-curvature="0" />
	<path style="fill:none;stroke:red;stroke-width:1px;stroke-linecap:butt;stroke-linejoin:miter;stroke-opacity:1" d="M 884.242,263.233 872.72,263.233 z" id="boundary" inkscape:connector-curvature="0" />
	<path style="fill:none;stroke:red;stroke-width:1px;stroke-linecap:butt;stroke-linejoin:miter;stroke-opacity:1" d="M 895.763,263.233 884.242,263.233 z" id="boundary" inkscape:connector-curvature="0" />
	<path style="fill:none;stroke:red;stroke-width:1px;stroke-linecap:butt;stroke-linejoin:miter;stroke-opacity:1" d="M 903.828,310.472 892.307,310.472 z" id="boundary" inkscape:connector-curvature="0" />
	<path style="fill:none;stroke:red;stroke-width:1px;stroke-linecap:butt;stroke-linejoin:miter;stroke-opacity:1" d="M 907.285,264.386 895.763,263.233 z" id="boundary" inkscape:connector-curvature="0" />
	<path style="fill:none;stroke:red;stroke-width:1px;stroke-linecap:butt;stroke-linejoin:miter;stroke-opacity:1" d="M 940.697,263.233 930.328,268.994 z" id="boundary" inkscape:connector-curvature="0" />
	<path style="fill:none;stroke:red;stroke-width:1px;stroke-linecap:butt;stroke-linejoin:miter;stroke-opacity:1" d="M 930.328,268.994 918.806,268.994 z" id="boundary" inkscape:connector-curvature="0" />
	<path style="fill:none;stroke:red;stroke-width:1px;stroke-linecap:butt;stroke-linejoin:miter;stroke-opacity:1" d="M 918.806,268.994 907.285,264.386 z" id="boundary" inkscape:connector-curvature="0" />
	<path style="fill:none;stroke:red;stroke-width:1px;stroke-linecap:butt;stroke-linejoin:miter;stroke-opacity:1" d="M 880.785,310.472 892.307,310.472 z" id="boundary" inkscape:connector-curvature="0" />
	<path style="fill:none;stroke:red;stroke-width:1px;stroke-linecap:butt;stroke-linejoin:miter;stroke-opacity:1" d="M 870.416,316.232 880.785,310.472 z" id="boundary" inkscape:connector-curvature="0" />
	<path style="fill:none;stroke:red;stroke-width:1px;stroke-linecap:butt;stroke-linejoin:miter;stroke-opacity:1" d="M 937.24,304.711 925.719,304.711 z" id="boundary" inkscape:connector-curvature="0" />
	<path style="fill:none;stroke:red;stroke-width:1px;stroke-linecap:butt;stroke-linejoin:miter;stroke-opacity:1" d="M 947.61,298.95 937.24,304.711 z" id="boundary" inkscape:connector-curvature="0" />
	<path style="fill:none;stroke:red;stroke-width:1px;stroke-linecap:butt;stroke-linejoin:miter;stroke-opacity:1" d="M 925.719,304.711 915.35,310.472 z" id="boundary" inkscape:connector-curvature="0" />
	<path style="fill:none;stroke:red;stroke-width:1px;stroke-linecap:butt;stroke-linejoin:miter;stroke-opacity:1" d="M 952.218,263.233 963.74,263.233 z" id="boundary" inkscape:connector-curvature="0" />
	<path style="fill:none;stroke:red;stroke-width:1px;stroke-linecap:butt;stroke-linejoin:miter;stroke-opacity:1" d="M 963.74,263.233 975.261,263.233 z" id="boundary" inkscape:connector-curvature="0" />
	<path style="fill:none;stroke:red;stroke-width:1px;stroke-linecap:butt;stroke-linejoin:miter;stroke-opacity:1" d="M 985.631,257.473 996,264.386 z" id="boundary" inkscape:connector-curvature="0" />
	<path style="fill:none;stroke:red;stroke-width:1px;stroke-linecap:butt;stroke-linejoin:miter;stroke-opacity:1" d="M 996,264.386 987.935,273.603 z" id="boundary" inkscape:connector-curvature="0" />
	<path style="fill:none;stroke:red;stroke-width:1px;stroke-linecap:butt;stroke-linejoin:miter;stroke-opacity:1" d="M 985.631,257.473 975.261,263.233 z" id="boundary" inkscape:connector-curvature="0" />
	<path style="fill:none;stroke:red;stroke-width:1px;stroke-linecap:butt;stroke-linejoin:miter;stroke-opacity:1" d="M 957.979,293.189 947.61,298.95 z" id="boundary" inkscape:connector-curvature="0" />
	<path style="fill:none;stroke:red;stroke-width:1px;stroke-linecap:butt;stroke-linejoin:miter;stroke-opacity:1" d="M 978.718,281.668 968.348,287.429 z" id="boundary" inkscape:connector-curvature="0" />
	<path style="fill:none;stroke:red;stroke-width:1px;stroke-linecap:butt;stroke-linejoin:miter;stroke-opacity:1" d="M 968.348,287.429 957.979,293.189 z" id="boundary" inkscape:connector-curvature="0" />
	<path style="fill:none;stroke:red;stroke-width:1px;stroke-linecap:butt;stroke-linejoin:miter;stroke-opacity:1" d="M 987.935,273.603 978.718,281.668 z" id="boundary" inkscape:connector-curvature="0" />
	<path style="fill:none;stroke:red;stroke-width:1px;stroke-linecap:butt;stroke-linejoin:miter;stroke-opacity:1" d="M 940.697,263.233 952.218,263.233 z" id="boundary" inkscape:connector-curvature="0" />
	<path style="fill:none;stroke:red;stroke-width:1px;stroke-linecap:butt;stroke-linejoin:miter;stroke-opacity:1" d="M 431.447,368.079 442.969,368.079 z" id="boundary" inkscape:connector-curvature="0" />
	<path style="fill:none;stroke:red;stroke-width:1px;stroke-linecap:butt;stroke-linejoin:miter;stroke-opacity:1" d="M 423.382,377.296 431.447,368.079 z" id="boundary" inkscape:connector-curvature="0" />
	<path style="fill:none;stroke:red;stroke-width:1px;stroke-linecap:butt;stroke-linejoin:miter;stroke-opacity:1" d="M 454.49,368.079 466.012,368.079 z" id="boundary" inkscape:connector-curvature="0" />
	<path style="fill:none;stroke:red;stroke-width:1px;stroke-linecap:butt;stroke-linejoin:miter;stroke-opacity:1" d="M 466.012,368.079 470.62,379.6 z" id="boundary" inkscape:connector-curvature="0" />
	<path style="fill:none;stroke:red;stroke-width:1px;stroke-linecap:butt;stroke-linejoin:miter;stroke-opacity:1" d="M 454.49,368.079 442.969,368.079 z" id="boundary" inkscape:connector-curvature="0" />
	<path style="fill:none;stroke:red;stroke-width:1px;stroke-linecap:butt;stroke-linejoin:miter;stroke-opacity:1" d="M 414.165,385.361 402.643,391.122 z" id="boundary" inkscape:connector-curvature="0" />
	<path style="fill:none;stroke:red;stroke-width:1px;stroke-linecap:butt;stroke-linejoin:miter;stroke-opacity:1" d="M 423.382,377.296 414.165,385.361 z" id="boundary" inkscape:connector-curvature="0" />
	<path style="fill:none;stroke:red;stroke-width:1px;stroke-linecap:butt;stroke-linejoin:miter;stroke-opacity:1" d="M 470.62,379.6 470.62,391.122 z" id="boundary" inkscape:connector-curvature="0" />
	<path style="fill:none;stroke:red;stroke-width:1px;stroke-linecap:butt;stroke-linejoin:miter;stroke-opacity:1" d="M 517.858,330.058 525.923,339.275 z" id="boundary" inkscape:connector-curvature="0" />
	<path style="fill:none;stroke:red;stroke-width:1px;stroke-linecap:butt;stroke-linejoin:miter;stroke-opacity:1" d="M 517.858,330.058 508.641,321.993 z" id="boundary" inkscape:connector-curvature="0" />
	<path style="fill:none;stroke:red;stroke-width:1px;stroke-linecap:butt;stroke-linejoin:miter;stroke-opacity:1" d="M 535.141,358.862 529.38,373.84 z" id="boundary" inkscape:connector-curvature="0" />
	<path style="fill:none;stroke:red;stroke-width:1px;stroke-linecap:butt;stroke-linejoin:miter;stroke-opacity:1" d="M 535.141,347.34 525.923,339.275 z" id="boundary" inkscape:connector-curvature="0" />
	<path style="fill:none;stroke:red;stroke-width:1px;stroke-linecap:butt;stroke-linejoin:miter;stroke-opacity:1" d="M 470.62,391.122 470.62,402.643 z" id="boundary" inkscape:connector-curvature="0" />
	<path style="fill:none;stroke:red;stroke-width:1px;stroke-linecap:butt;stroke-linejoin:miter;stroke-opacity:1" d="M 477.533,411.861 470.62,402.643 z" id="boundary" inkscape:connector-curvature="0" />
	<path style="fill:none;stroke:red;stroke-width:1px;stroke-linecap:butt;stroke-linejoin:miter;stroke-opacity:1" d="M 523.619,391.122 529.38,373.84 z" id="boundary" inkscape:connector-curvature="0" />
	<path style="fill:none;stroke:red;stroke-width:1px;stroke-linecap:butt;stroke-linejoin:miter;stroke-opacity:1" d="M 525.923,402.643 523.619,391.122 z" id="boundary" inkscape:connector-curvature="0" />
	<path style="fill:none;stroke:red;stroke-width:1px;stroke-linecap:butt;stroke-linejoin:miter;stroke-opacity:1" d="M 529.38,414.165 525.923,402.643 z" id="boundary" inkscape:connector-curvature="0" />
	<path style="fill:none;stroke:red;stroke-width:1px;stroke-linecap:butt;stroke-linejoin:miter;stroke-opacity:1" d="M 445.273,453.338 454.49,444.121 z" id="boundary" inkscape:connector-curvature="0" />
	<path style="fill:none;stroke:red;stroke-width:1px;stroke-linecap:butt;stroke-linejoin:miter;stroke-opacity:1" d="M 454.49,444.121 466.012,441.816 z" id="boundary" inkscape:connector-curvature="0" />
	<path style="fill:none;stroke:red;stroke-width:1px;stroke-linecap:butt;stroke-linejoin:miter;stroke-opacity:1" d="M 445.273,453.338 436.056,462.555 z" id="boundary" inkscape:connector-curvature="0" />
	<path style="fill:none;stroke:red;stroke-width:1px;stroke-linecap:butt;stroke-linejoin:miter;stroke-opacity:1" d="M 436.056,462.555 441.816,472.925 z" id="boundary" inkscape:connector-curvature="0" />
	<path style="fill:none;stroke:red;stroke-width:1px;stroke-linecap:butt;stroke-linejoin:miter;stroke-opacity:1" d="M 449.882,482.142 441.816,472.925 z" id="boundary" inkscape:connector-curvature="0" />
	<path style="fill:none;stroke:red;stroke-width:1px;stroke-linecap:butt;stroke-linejoin:miter;stroke-opacity:1" d="M 461.403,486.75 449.882,482.142 z" id="boundary" inkscape:connector-curvature="0" />
	<path style="fill:none;stroke:red;stroke-width:1px;stroke-linecap:butt;stroke-linejoin:miter;stroke-opacity:1" d="M 461.403,486.75 472.925,489.055 z" id="boundary" inkscape:connector-curvature="0" />
	<path style="fill:none;stroke:red;stroke-width:1px;stroke-linecap:butt;stroke-linejoin:miter;stroke-opacity:1" d="M 483.294,483.294 472.925,489.055 z" id="boundary" inkscape:connector-curvature="0" />
	<path style="fill:none;stroke:red;stroke-width:1px;stroke-linecap:butt;stroke-linejoin:miter;stroke-opacity:1" d="M 477.533,411.861 482.142,423.382 z" id="boundary" inkscape:connector-curvature="0" />
	<path style="fill:none;stroke:red;stroke-width:1px;stroke-linecap:butt;stroke-linejoin:miter;stroke-opacity:1" d="M 477.533,438.36 482.142,423.382 z" id="boundary" inkscape:connector-curvature="0" />
	<path style="fill:none;stroke:red;stroke-width:1px;stroke-linecap:butt;stroke-linejoin:miter;stroke-opacity:1" d="M 477.533,438.36 466.012,441.816 z" id="boundary" inkscape:connector-curvature="0" />
	<path style="fill:none;stroke:red;stroke-width:1px;stroke-linecap:butt;stroke-linejoin:miter;stroke-opacity:1" d="M 529.38,414.165 531.684,425.686 z" id="boundary" inkscape:connector-curvature="0" />
	<path style="fill:none;stroke:red;stroke-width:1px;stroke-linecap:butt;stroke-linejoin:miter;stroke-opacity:1" d="M 537.445,436.056 531.684,425.686 z" id="boundary" inkscape:connector-curvature="0" />
	<path style="fill:none;stroke:red;stroke-width:1px;stroke-linecap:butt;stroke-linejoin:miter;stroke-opacity:1" d="M 483.294,483.294 494.815,483.294 z" id="boundary" inkscape:connector-curvature="0" />
	<path style="fill:none;stroke:red;stroke-width:1px;stroke-linecap:butt;stroke-linejoin:miter;stroke-opacity:1" d="M 529.38,477.533 517.858,483.294 z" id="boundary" inkscape:connector-curvature="0" />
	<path style="fill:none;stroke:red;stroke-width:1px;stroke-linecap:butt;stroke-linejoin:miter;stroke-opacity:1" d="M 517.858,483.294 506.337,483.294 z" id="boundary" inkscape:connector-curvature="0" />
	<path style="fill:none;stroke:red;stroke-width:1px;stroke-linecap:butt;stroke-linejoin:miter;stroke-opacity:1" d="M 506.337,483.294 494.815,483.294 z" id="boundary" inkscape:connector-curvature="0" />
	<path style="fill:none;stroke:red;stroke-width:1px;stroke-linecap:butt;stroke-linejoin:miter;stroke-opacity:1" d="M 529.38,477.533 540.901,471.772 z" id="boundary" inkscape:connector-curvature="0" />
	<path style="fill:none;stroke:red;stroke-width:1px;stroke-linecap:butt;stroke-linejoin:miter;stroke-opacity:1" d="M 535.141,347.34 535.141,358.862 z" id="boundary" inkscape:connector-curvature="0" />
	<path style="fill:none;stroke:red;stroke-width:1px;stroke-linecap:butt;stroke-linejoin:miter;stroke-opacity:1" d="M 560.488,316.232 550.118,310.472 z" id="boundary" inkscape:connector-curvature="0" />
	<path style="fill:none;stroke:red;stroke-width:1px;stroke-linecap:butt;stroke-linejoin:miter;stroke-opacity:1" d="M 572.009,316.232 560.488,316.232 z" id="boundary" inkscape:connector-curvature="0" />
	<path style="fill:none;stroke:red;stroke-width:1px;stroke-linecap:butt;stroke-linejoin:miter;stroke-opacity:1" d="M 583.531,316.232 595.052,320.841 z" id="boundary" inkscape:connector-curvature="0" />
	<path style="fill:none;stroke:red;stroke-width:1px;stroke-linecap:butt;stroke-linejoin:miter;stroke-opacity:1" d="M 572.009,316.232 583.531,316.232 z" id="boundary" inkscape:connector-curvature="0" />
	<path style="fill:none;stroke:red;stroke-width:1px;stroke-linecap:butt;stroke-linejoin:miter;stroke-opacity:1" d="M 606.574,321.993 595.052,320.841 z" id="boundary" inkscape:connector-curvature="0" />
	<path style="fill:none;stroke:red;stroke-width:1px;stroke-linecap:butt;stroke-linejoin:miter;stroke-opacity:1" d="M 606.574,321.993 618.095,321.993 z" id="boundary" inkscape:connector-curvature="0" />
	<path style="fill:none;stroke:red;stroke-width:1px;stroke-linecap:butt;stroke-linejoin:miter;stroke-opacity:1" d="M 629.617,321.993 641.138,321.993 z" id="boundary" inkscape:connector-curvature="0" />
	<path style="fill:none;stroke:red;stroke-width:1px;stroke-linecap:butt;stroke-linejoin:miter;stroke-opacity:1" d="M 641.138,321.993 652.66,326.602 z" id="boundary" inkscape:connector-curvature="0" />
	<path style="fill:none;stroke:red;stroke-width:1px;stroke-linecap:butt;stroke-linejoin:miter;stroke-opacity:1" d="M 629.617,321.993 618.095,321.993 z" id="boundary" inkscape:connector-curvature="0" />
	<path style="fill:none;stroke:red;stroke-width:1px;stroke-linecap:butt;stroke-linejoin:miter;stroke-opacity:1" d="M 790.918,321.993 779.396,321.993 z" id="boundary" inkscape:connector-curvature="0" />
	<path style="fill:none;stroke:red;stroke-width:1px;stroke-linecap:butt;stroke-linejoin:miter;stroke-opacity:1" d="M 824.33,316.232 812.808,316.232 z" id="boundary" inkscape:connector-curvature="0" />
	<path style="fill:none;stroke:red;stroke-width:1px;stroke-linecap:butt;stroke-linejoin:miter;stroke-opacity:1" d="M 835.851,316.232 824.33,316.232 z" id="boundary" inkscape:connector-curvature="0" />
	<path style="fill:none;stroke:red;stroke-width:1px;stroke-linecap:butt;stroke-linejoin:miter;stroke-opacity:1" d="M 915.35,310.472 903.828,310.472 z" id="boundary" inkscape:connector-curvature="0" />
	<path style="fill:none;stroke:red;stroke-width:1px;stroke-linecap:butt;stroke-linejoin:miter;stroke-opacity:1" d="M 802.439,321.993 812.808,316.232 z" id="boundary" inkscape:connector-curvature="0" />
	<path style="fill:none;stroke:red;stroke-width:1px;stroke-linecap:butt;stroke-linejoin:miter;stroke-opacity:1" d="M 835.851,316.232 847.373,316.232 z" id="boundary" inkscape:connector-curvature="0" />
	<path style="fill:none;stroke:red;stroke-width:1px;stroke-linecap:butt;stroke-linejoin:miter;stroke-opacity:1" d="M 858.894,316.232 847.373,316.232 z" id="boundary" inkscape:connector-curvature="0" />
	<path style="fill:none;stroke:red;stroke-width:1px;stroke-linecap:butt;stroke-linejoin:miter;stroke-opacity:1" d="M 870.416,316.232 858.894,316.232 z" id="boundary" inkscape:connector-curvature="0" />
	<path style="fill:none;stroke:red;stroke-width:1px;stroke-linecap:butt;stroke-linejoin:miter;stroke-opacity:1" d="M 710.267,327.754 698.746,327.754 z" id="boundary" inkscape:connector-curvature="0" />
	<path style="fill:none;stroke:red;stroke-width:1px;stroke-linecap:butt;stroke-linejoin:miter;stroke-opacity:1" d="M 652.66,326.602 664.181,327.754 z" id="boundary" inkscape:connector-curvature="0" />
	<path style="fill:none;stroke:red;stroke-width:1px;stroke-linecap:butt;stroke-linejoin:miter;stroke-opacity:1" d="M 675.703,327.754 687.224,327.754 z" id="boundary" inkscape:connector-curvature="0" />
	<path style="fill:none;stroke:red;stroke-width:1px;stroke-linecap:butt;stroke-linejoin:miter;stroke-opacity:1" d="M 675.703,327.754 664.181,327.754 z" id="boundary" inkscape:connector-curvature="0" />
	<path style="fill:none;stroke:red;stroke-width:1px;stroke-linecap:butt;stroke-linejoin:miter;stroke-opacity:1" d="M 540.901,447.577 540.901,460.251 z" id="boundary" inkscape:connector-curvature="0" />
	<path style="fill:none;stroke:red;stroke-width:1px;stroke-linecap:butt;stroke-linejoin:miter;stroke-opacity:1" d="M 540.901,471.772 540.901,460.251 z" id="boundary" inkscape:connector-curvature="0" />
	<path style="fill:none;stroke:red;stroke-width:1px;stroke-linecap:butt;stroke-linejoin:miter;stroke-opacity:1" d="M 540.901,447.577 537.445,436.056 z" id="boundary" inkscape:connector-curvature="0" />
	<path style="fill:none;stroke:red;stroke-width:1px;stroke-linecap:butt;stroke-linejoin:miter;stroke-opacity:1" d="M 687.224,327.754 698.746,327.754 z" id="boundary" inkscape:connector-curvature="0" />
	<path style="fill:none;stroke:red;stroke-width:1px;stroke-linecap:butt;stroke-linejoin:miter;stroke-opacity:1" d="M 767.875,326.602 756.353,327.754 z" id="boundary" inkscape:connector-curvature="0" />
	<path style="fill:none;stroke:red;stroke-width:1px;stroke-linecap:butt;stroke-linejoin:miter;stroke-opacity:1" d="M 779.396,321.993 767.875,326.602 z" id="boundary" inkscape:connector-curvature="0" />
	<path style="fill:none;stroke:red;stroke-width:1px;stroke-linecap:butt;stroke-linejoin:miter;stroke-opacity:1" d="M 790.918,321.993 802.439,321.993 z" id="boundary" inkscape:connector-curvature="0" />
	<path style="fill:none;stroke:red;stroke-width:1px;stroke-linecap:butt;stroke-linejoin:miter;stroke-opacity:1" d="M 710.267,327.754 721.789,327.754 z" id="boundary" inkscape:connector-curvature="0" />
	<path style="fill:none;stroke:red;stroke-width:1px;stroke-linecap:butt;stroke-linejoin:miter;stroke-opacity:1" d="M 733.31,327.754 744.832,327.754 z" id="boundary" inkscape:connector-curvature="0" />
	<path style="fill:none;stroke:red;stroke-width:1px;stroke-linecap:butt;stroke-linejoin:miter;stroke-opacity:1" d="M 756.353,327.754 744.832,327.754 z" id="boundary" inkscape:connector-curvature="0" />
	<path style="fill:none;stroke:red;stroke-width:1px;stroke-linecap:butt;stroke-linejoin:miter;stroke-opacity:1" d="M 733.31,327.754 721.789,327.754 z" id="boundary" inkscape:connector-curvature="0" />
	<circle cx="4" cy="65.0639" r="4" fill="#0" id="circle0"/>
	<circle cx="4" cy="76.5854" r="4" fill="#0" id="circle1"/>
	<circle cx="4" cy="88.1069" r="4" fill="#0" id="circle2"/>
	<circle cx="4" cy="99.6283" r="4" fill="#0" id="circle3"/>
	<circle cx="9.76074" cy="47.7816" r="4" fill="#0" id="circle4"/>
	<circle cx="13.2172" cy="107.693" r="4" fill="#0" id="circle5"/>
	<circle cx="18.9779" cy="38.5645" r="4" fill="#0" id="circle6"/>
	<circle cx="22.4344" cy="114.606" r="4" fill="#0" id="circle7"/>
	<circle cx="24.7387" cy="27.043" r="4" fill="#0" id="circle8"/>
	<circle cx="33.9559" cy="17.8258" r="4" fill="#0" id="circle9"/>
	<circle cx="33.9559" cy="114.606" r="4" fill="#0" id="circle10"/>
	<circle cx="43.1731" cy="9.76074" r="4" fill="#0" id="circle11"/>
	<circle cx="45.4774" cy="108.846" r="4" fill="#0" id="circle12"/>
	<circle cx="50.0859" cy="134.193" r="4" fill="#0" id="circle13"/>
	<circle cx="50.0859" cy="145.714" r="4" fill="#0" id="circle14"/>
	<circle cx="54.6945" cy="9.76074" r="4" fill="#0" id="circle15"/>
	<circle cx="54.6945" cy="100.78" r="4" fill="#0" id="circle16"/>
	<circle cx="59.3031" cy="124.976" r="4" fill="#0" id="circle17"/>
	<circle cx="61.6074" cy="149.171" r="4" fill="#0" id="circle18"/>
	<circle cx="62.7596" cy="91.5633" r="4" fill="#0" id="circle19"/>
	<circle cx="65.0639" cy="4" r="4" fill="#0" id="circle20"/>
	<circle cx="65.0639" cy="113.454" r="4" fill="#0" id="circle21"/>
	<circle cx="68.5203" cy="80.0418" r="4" fill="#0" id="circle22"/>
	<circle cx="70.8246" cy="101.933" r="4" fill="#0" id="circle23"/>
	<circle cx="71.9768" cy="154.931" r="4" fill="#0" id="circle24"/>
	<circle cx="76.5854" cy="4" r="4" fill="#0" id="circle25"/>
	<circle cx="78.8897" cy="88.1069" r="4" fill="#0" id="circle26"/>
	<circle cx="80.0418" cy="74.2811" r="4" fill="#0" id="circle27"/>
	<circle cx="82.3461" cy="160.692" r="4" fill="#0" id="circle28"/>
	<circle cx="88.1069" cy="4" r="4" fill="#0" id="circle29"/>
	<circle cx="92.7154" cy="154.931" r="4" fill="#0" id="circle30"/>
	<circle cx="99.6283" cy="4" r="4" fill="#0" id="circle31"/>
	<circle cx="101.933" cy="220.604" r="4" fill="#0" id="circle32"/>
	<circle cx="101.933" cy="232.125" r="4" fill="#0" id="circle33"/>
	<circle cx="103.085" cy="149.171" r="4" fill="#0" id="circle34"/>
	<circle cx="108.846" cy="137.649" r="4" fill="#0" id="circle35"/>
	<circle cx="111.15" cy="4" r="4" fill="#0" id="circle36"/>
	<circle cx="111.15" cy="240.19" r="4" fill="#0" id="circle37"/>
	<circle cx="113.454" cy="214.843" r="4" fill="#0" id="circle38"/>
	<circle cx="119.215" cy="131.889" r="4" fill="#0" id="circle39"/>
	<circle cx="120.367" cy="247.103" r="4" fill="#0" id="circle40"/>
	<circle cx="122.671" cy="4" r="4" fill="#0" id="circle41"/>
	<circle cx="124.976" cy="211.387" r="4" fill="#0" id="circle42"/>
	<circle cx="126.128" cy="235.582" r="4" fill="#0" id="circle43"/>
	<circle cx="129.584" cy="137.649" r="4" fill="#0" id="circle44"/>
	<circle cx="134.193" cy="4" r="4" fill="#0" id="circle45"/>
	<circle cx="134.193" cy="149.171" r="4" fill="#0" id="circle46"/>
	<circle cx="135.345" cy="205.626" r="4" fill="#0" id="circle47"/>
	<circle cx="136.497" cy="160.692" r="4" fill="#0" id="circle48"/>
	<circle cx="136.497" cy="172.214" r="4" fill="#0" id="circle49"/>
	<circle cx="136.497" cy="229.821" r="4" fill="#0" id="circle50"/>
	<circle cx="142.258" cy="182.583" r="4" fill="#0" id="circle51"/>
	<circle cx="142.258" cy="194.105" r="4" fill="#0" id="circle52"/>
	<circle cx="144.562" cy="9.76074" r="4" fill="#0" id="circle53"/>
	<circle cx="146.866" cy="224.06" r="4" fill="#0" id="circle54"/>
	<circle cx="154.931" cy="15.5215" r="4" fill="#0" id="circle55"/>
	<circle cx="158.388" cy="221.756" r="4" fill="#0" id="circle56"/>
	<circle cx="159.54" cy="249.408" r="4" fill="#0" id="circle57"/>
	<circle cx="159.54" cy="260.929" r="4" fill="#0" id="circle58"/>
	<circle cx="164.149" cy="22.4344" r="4" fill="#0" id="circle59"/>
	<circle cx="165.301" cy="237.886" r="4" fill="#0" id="circle60"/>
	<circle cx="165.301" cy="271.298" r="4" fill="#0" id="circle61"/>
	<circle cx="166.453" cy="212.539" r="4" fill="#0" id="circle62"/>
	<circle cx="171.062" cy="226.365" r="4" fill="#0" id="circle63"/>
	<circle cx="171.062" cy="281.668" r="4" fill="#0" id="circle64"/>
	<circle cx="172.214" cy="31.6516" r="4" fill="#0" id="circle65"/>
	<circle cx="181.431" cy="39.7166" r="4" fill="#0" id="circle66"/>
	<circle cx="182.583" cy="283.972" r="4" fill="#0" id="circle67"/>
	<circle cx="189.496" cy="48.9338" r="4" fill="#0" id="circle68"/>
	<circle cx="191.8" cy="275.907" r="4" fill="#0" id="circle69"/>
	<circle cx="195.257" cy="241.343" r="4" fill="#0" id="circle70"/>
	<circle cx="195.257" cy="252.864" r="4" fill="#0" id="circle71"/>
	<circle cx="198.713" cy="55.8467" r="4" fill="#0" id="circle72"/>
	<circle cx="201.017" cy="263.233" r="4" fill="#0" id="circle73"/>
	<circle cx="204.474" cy="233.278" r="4" fill="#0" id="circle74"/>
	<circle cx="210.235" cy="55.8467" r="4" fill="#0" id="circle75"/>
	<circle cx="211.387" cy="224.06" r="4" fill="#0" id="circle76"/>
	<circle cx="220.604" cy="50.0859" r="4" fill="#0" id="circle77"/>
	<circle cx="222.908" cy="224.06" r="4" fill="#0" id="circle78"/>
	<circle cx="226.365" cy="235.582" r="4" fill="#0" id="circle79"/>
	<circle cx="232.125" cy="44.3252" r="4" fill="#0" id="circle80"/>
	<circle cx="235.582" cy="243.647" r="4" fill="#0" id="circle81"/>
	<circle cx="243.647" cy="38.5645" r="4" fill="#0" id="circle82"/>
	<circle cx="243.647" cy="252.864" r="4" fill="#0" id="circle83"/>
	<circle cx="251.712" cy="262.081" r="4" fill="#0" id="circle84"/>
	<circle cx="255.168" cy="38.5645" r="4" fill="#0" id="circle85"/>
	<circle cx="257.473" cy="272.451" r="4" fill="#0" id="circle86"/>
	<circle cx="257.473" cy="462.555" r="4" fill="#0" id="circle87"/>
	<circle cx="257.473" cy="474.077" r="4" fill="#0" id="circle88"/>
	<circle cx="257.473" cy="485.598" r="4" fill="#0" id="circle89"/>
	<circle cx="263.233" cy="451.034" r="4" fill="#0" id="circle90"/>
	<circle cx="265.538" cy="32.8037" r="4" fill="#0" id="circle91"/>
	<circle cx="266.69" cy="280.516" r="4" fill="#0" id="circle92"/>
	<circle cx="266.69" cy="493.663" r="4" fill="#0" id="circle93"/>
	<circle cx="272.451" cy="441.816" r="4" fill="#0" id="circle94"/>
	<circle cx="274.755" cy="289.733" r="4" fill="#0" id="circle95"/>
	<circle cx="277.059" cy="32.8037" r="4" fill="#0" id="circle96"/>
	<circle cx="278.211" cy="489.055" r="4" fill="#0" id="circle97"/>
	<circle cx="283.972" cy="441.816" r="4" fill="#0" id="circle98"/>
	<circle cx="286.276" cy="293.189" r="4" fill="#0" id="circle99"/>
	<circle cx="288.581" cy="28.1951" r="4" fill="#0" id="circle100"/>
	<circle cx="289.733" cy="487.902" r="4" fill="#0" id="circle101"/>
	<circle cx="293.189" cy="302.407" r="4" fill="#0" id="circle102"/>
	<circle cx="294.341" cy="436.056" r="4" fill="#0" id="circle103"/>
	<circle cx="300.102" cy="27.043" r="4" fill="#0" id="circle104"/>
	<circle cx="301.254" cy="487.902" r="4" fill="#0" id="circle105"/>
	<circle cx="303.559" cy="308.167" r="4" fill="#0" id="circle106"/>
	<circle cx="304.711" cy="319.689" r="4" fill="#0" id="circle107"/>
	<circle cx="305.863" cy="436.056" r="4" fill="#0" id="circle108"/>
	<circle cx="311.624" cy="27.043" r="4" fill="#0" id="circle109"/>
	<circle cx="312.776" cy="489.055" r="4" fill="#0" id="circle110"/>
	<circle cx="313.928" cy="327.754" r="4" fill="#0" id="circle111"/>
	<circle cx="315.08" cy="339.275" r="4" fill="#0" id="circle112"/>
	<circle cx="315.08" cy="422.23" r="4" fill="#0" id="circle113"/>
	<circle cx="320.841" cy="349.645" r="4" fill="#0" id="circle114"/>
	<circle cx="320.841" cy="399.187" r="4" fill="#0" id="circle115"/>
	<circle cx="320.841" cy="410.708" r="4" fill="#0" id="circle116"/>
	<circle cx="323.145" cy="22.4344" r="4" fill="#0" id="circle117"/>
	<circle cx="324.297" cy="489.055" r="4" fill="#0" id="circle118"/>
	<circle cx="326.602" cy="360.014" r="4" fill="#0" id="circle119"/>
	<circle cx="326.602" cy="371.535" r="4" fill="#0" id="circle120"/>
	<circle cx="326.602" cy="383.057" r="4" fill="#0" id="circle121"/>
	<circle cx="334.667" cy="21.2822" r="4" fill="#0" id="circle122"/>
	<circle cx="335.819" cy="489.055" r="4" fill="#0" id="circle123"/>
	<circle cx="346.188" cy="21.2822" r="4" fill="#0" id="circle124"/>
	<circle cx="347.34" cy="489.055" r="4" fill="#0" id="circle125"/>
	<circle cx="357.71" cy="21.2822" r="4" fill="#0" id="circle126"/>
	<circle cx="358.862" cy="487.902" r="4" fill="#0" id="circle127"/>
	<circle cx="369.231" cy="21.2822" r="4" fill="#0" id="circle128"/>
	<circle cx="370.383" cy="482.142" r="4" fill="#0" id="circle129"/>
	<circle cx="373.84" cy="437.208" r="4" fill="#0" id="circle130"/>
	<circle cx="376.144" cy="448.729" r="4" fill="#0" id="circle131"/>
	<circle cx="379.6" cy="27.043" r="4" fill="#0" id="circle132"/>
	<circle cx="379.6" cy="425.686" r="4" fill="#0" id="circle133"/>
	<circle cx="379.6" cy="471.772" r="4" fill="#0" id="circle134"/>
	<circle cx="381.905" cy="459.099" r="4" fill="#0" id="circle135"/>
	<circle cx="391.122" cy="27.043" r="4" fill="#0" id="circle136"/>
	<circle cx="391.122" cy="419.926" r="4" fill="#0" id="circle137"/>
	<circle cx="396.883" cy="402.643" r="4" fill="#0" id="circle138"/>
	<circle cx="402.643" cy="30.4994" r="4" fill="#0" id="circle139"/>
	<circle cx="402.643" cy="391.122" r="4" fill="#0" id="circle140"/>
	<circle cx="414.165" cy="32.8037" r="4" fill="#0" id="circle141"/>
	<circle cx="414.165" cy="385.361" r="4" fill="#0" id="circle142"/>
	<circle cx="423.382" cy="377.296" r="4" fill="#0" id="circle143"/>
	<circle cx="425.686" cy="36.2602" r="4" fill="#0" id="circle144"/>
	<circle cx="431.447" cy="368.079" r="4" fill="#0" id="circle145"/>
	<circle cx="436.056" cy="462.555" r="4" fill="#0" id="circle146"/>
	<circle cx="437.208" cy="38.5645" r="4" fill="#0" id="circle147"/>
	<circle cx="441.816" cy="472.925" r="4" fill="#0" id="circle148"/>
	<circle cx="442.969" cy="368.079" r="4" fill="#0" id="circle149"/>
	<circle cx="445.273" cy="453.338" r="4" fill="#0" id="circle150"/>
	<circle cx="447.577" cy="44.3252" r="4" fill="#0" id="circle151"/>
	<circle cx="449.882" cy="482.142" r="4" fill="#0" id="circle152"/>
	<circle cx="454.49" cy="368.079" r="4" fill="#0" id="circle153"/>
	<circle cx="454.49" cy="444.121" r="4" fill="#0" id="circle154"/>
	<circle cx="459.099" cy="46.6295" r="4" fill="#0" id="circle155"/>
	<circle cx="461.403" cy="486.75" r="4" fill="#0" id="circle156"/>
	<circle cx="466.012" cy="55.8467" r="4" fill="#0" id="circle157"/>
	<circle cx="466.012" cy="368.079" r="4" fill="#0" id="circle158"/>
	<circle cx="466.012" cy="441.816" r="4" fill="#0" id="circle159"/>
	<circle cx="470.62" cy="379.6" r="4" fill="#0" id="circle160"/>
	<circle cx="470.62" cy="391.122" r="4" fill="#0" id="circle161"/>
	<circle cx="470.62" cy="402.643" r="4" fill="#0" id="circle162"/>
	<circle cx="472.925" cy="489.055" r="4" fill="#0" id="circle163"/>
	<circle cx="477.533" cy="59.3031" r="4" fill="#0" id="circle164"/>
	<circle cx="477.533" cy="411.861" r="4" fill="#0" id="circle165"/>
	<circle cx="477.533" cy="438.36" r="4" fill="#0" id="circle166"/>
	<circle cx="482.142" cy="423.382" r="4" fill="#0" id="circle167"/>
	<circle cx="483.294" cy="483.294" r="4" fill="#0" id="circle168"/>
	<circle cx="486.75" cy="67.3682" r="4" fill="#0" id="circle169"/>
	<circle cx="494.815" cy="483.294" r="4" fill="#0" id="circle170"/>
	<circle cx="497.12" cy="73.1289" r="4" fill="#0" id="circle171"/>
	<circle cx="506.337" cy="310.472" r="4" fill="#0" id="circle172"/>
	<circle cx="506.337" cy="483.294" r="4" fill="#0" id="circle173"/>
	<circle cx="507.489" cy="78.8897" r="4" fill="#0" id="circle174"/>
	<circle cx="508.641" cy="321.993" r="4" fill="#0" id="circle175"/>
	<circle cx="516.706" cy="304.711" r="4" fill="#0" id="circle176"/>
	<circle cx="517.858" cy="84.6504" r="4" fill="#0" id="circle177"/>
	<circle cx="517.858" cy="330.058" r="4" fill="#0" id="circle178"/>
	<circle cx="517.858" cy="483.294" r="4" fill="#0" id="circle179"/>
	<circle cx="523.619" cy="391.122" r="4" fill="#0" id="circle180"/>
	<circle cx="525.923" cy="339.275" r="4" fill="#0" id="circle181"/>
	<circle cx="525.923" cy="402.643" r="4" fill="#0" id="circle182"/>
	<circle cx="527.075" cy="91.5633" r="4" fill="#0" id="circle183"/>
	<circle cx="527.075" cy="310.472" r="4" fill="#0" id="circle184"/>
	<circle cx="529.38" cy="373.84" r="4" fill="#0" id="circle185"/>
	<circle cx="529.38" cy="414.165" r="4" fill="#0" id="circle186"/>
	<circle cx="529.38" cy="477.533" r="4" fill="#0" id="circle187"/>
	<circle cx="531.684" cy="425.686" r="4" fill="#0" id="circle188"/>
	<circle cx="535.141" cy="347.34" r="4" fill="#0" id="circle189"/>
	<circle cx="535.141" cy="358.862" r="4" fill="#0" id="circle190"/>
	<circle cx="537.445" cy="97.324" r="4" fill="#0" id="circle191"/>
	<circle cx="537.445" cy="436.056" r="4" fill="#0" id="circle192"/>
	<circle cx="538.597" cy="310.472" r="4" fill="#0" id="circle193"/>
	<circle cx="540.901" cy="447.577" r="4" fill="#0" id="circle194"/>
	<circle cx="540.901" cy="460.251" r="4" fill="#0" id="circle195"/>
	<circle cx="540.901" cy="471.772" r="4" fill="#0" id="circle196"/>
	<circle cx="548.966" cy="101.933" r="4" fill="#0" id="circle197"/>
	<circle cx="550.118" cy="310.472" r="4" fill="#0" id="circle198"/>
	<circle cx="557.031" cy="111.15" r="4" fill="#0" id="circle199"/>
	<circle cx="560.488" cy="316.232" r="4" fill="#0" id="circle200"/>
	<circle cx="568.553" cy="115.758" r="4" fill="#0" id="circle201"/>
	<circle cx="572.009" cy="316.232" r="4" fill="#0" id="circle202"/>
	<circle cx="578.922" cy="121.519" r="4" fill="#0" id="circle203"/>
	<circle cx="583.531" cy="316.232" r="4" fill="#0" id="circle204"/>
	<circle cx="586.987" cy="130.736" r="4" fill="#0" id="circle205"/>
	<circle cx="595.052" cy="320.841" r="4" fill="#0" id="circle206"/>
	<circle cx="598.509" cy="134.193" r="4" fill="#0" id="circle207"/>
	<circle cx="606.574" cy="143.41" r="4" fill="#0" id="circle208"/>
	<circle cx="606.574" cy="321.993" r="4" fill="#0" id="circle209"/>
	<circle cx="618.095" cy="148.019" r="4" fill="#0" id="circle210"/>
	<circle cx="618.095" cy="321.993" r="4" fill="#0" id="circle211"/>
	<circle cx="628.465" cy="153.779" r="4" fill="#0" id="circle212"/>
	<circle cx="629.617" cy="321.993" r="4" fill="#0" id="circle213"/>
	<circle cx="637.682" cy="161.844" r="4" fill="#0" id="circle214"/>
	<circle cx="641.138" cy="321.993" r="4" fill="#0" id="circle215"/>
	<circle cx="648.051" cy="167.605" r="4" fill="#0" id="circle216"/>
	<circle cx="652.66" cy="326.602" r="4" fill="#0" id="circle217"/>
	<circle cx="659.573" cy="172.214" r="4" fill="#0" id="circle218"/>
	<circle cx="664.181" cy="327.754" r="4" fill="#0" id="circle219"/>
	<circle cx="667.638" cy="181.431" r="4" fill="#0" id="circle220"/>
	<circle cx="675.703" cy="327.754" r="4" fill="#0" id="circle221"/>
	<circle cx="679.159" cy="186.039" r="4" fill="#0" id="circle222"/>
	<circle cx="687.224" cy="327.754" r="4" fill="#0" id="circle223"/>
	<circle cx="688.376" cy="194.105" r="4" fill="#0" id="circle224"/>
	<circle cx="698.746" cy="199.865" r="4" fill="#0" id="circle225"/>
	<circle cx="698.746" cy="327.754" r="4" fill="#0" id="circle226"/>
	<circle cx="709.115" cy="205.626" r="4" fill="#0" id="circle227"/>
	<circle cx="710.267" cy="327.754" r="4" fill="#0" id="circle228"/>
	<circle cx="719.484" cy="211.387" r="4" fill="#0" id="circle229"/>
	<circle cx="721.789" cy="327.754" r="4" fill="#0" id="circle230"/>
	<circle cx="729.854" cy="217.148" r="4" fill="#0" id="circle231"/>
	<circle cx="733.31" cy="327.754" r="4" fill="#0" id="circle232"/>
	<circle cx="740.223" cy="222.908" r="4" fill="#0" id="circle233"/>
	<circle cx="744.832" cy="327.754" r="4" fill="#0" id="circle234"/>
	<circle cx="751.744" cy="224.06" r="4" fill="#0" id="circle235"/>
	<circle cx="756.353" cy="327.754" r="4" fill="#0" id="circle236"/>
	<circle cx="762.114" cy="229.821" r="4" fill="#0" id="circle237"/>
	<circle cx="767.875" cy="326.602" r="4" fill="#0" id="circle238"/>
	<circle cx="773.635" cy="234.43" r="4" fill="#0" id="circle239"/>
	<circle cx="779.396" cy="321.993" r="4" fill="#0" id="circle240"/>
	<circle cx="784.005" cy="240.19" r="4" fill="#0" id="circle241"/>
	<circle cx="790.918" cy="321.993" r="4" fill="#0" id="circle242"/>
	<circle cx="795.526" cy="240.19" r="4" fill="#0" id="circle243"/>
	<circle cx="802.439" cy="321.993" r="4" fill="#0" id="circle244"/>
	<circle cx="805.895" cy="245.951" r="4" fill="#0" id="circle245"/>
	<circle cx="812.808" cy="316.232" r="4" fill="#0" id="circle246"/>
	<circle cx="817.417" cy="245.951" r="4" fill="#0" id="circle247"/>
	<circle cx="824.33" cy="316.232" r="4" fill="#0" id="circle248"/>
	<circle cx="827.786" cy="251.712" r="4" fill="#0" id="circle249"/>
	<circle cx="835.851" cy="316.232" r="4" fill="#0" id="circle250"/>
	<circle cx="839.308" cy="254.016" r="4" fill="#0" id="circle251"/>
	<circle cx="847.373" cy="316.232" r="4" fill="#0" id="circle252"/>
	<circle cx="850.829" cy="257.473" r="4" fill="#0" id="circle253"/>
	<circle cx="858.894" cy="316.232" r="4" fill="#0" id="circle254"/>
	<circle cx="861.199" cy="263.233" r="4" fill="#0" id="circle255"/>
	<circle cx="870.416" cy="316.232" r="4" fill="#0" id="circle256"/>
	<circle cx="872.72" cy="263.233" r="4" fill="#0" id="circle257"/>
	<circle cx="880.785" cy="310.472" r="4" fill="#0" id="circle258"/>
	<circle cx="884.242" cy="263.233" r="4" fill="#0" id="circle259"/>
	<circle cx="892.307" cy="310.472" r="4" fill="#0" id="circle260"/>
	<circle cx="895.763" cy="263.233" r="4" fill="#0" id="circle261"/>
	<circle cx="903.828" cy="310.472" r="4" fill="#0" id="circle262"/>
	<circle cx="907.285" cy="264.386" r="4" fill="#0" id="circle263"/>
	<circle cx="915.35" cy="310.472" r="4" fill="#0" id="circle264"/>
	<circle cx="918.806" cy="268.994" r="4" fill="#0" id="circle265"/>
	<circle cx="925.719" cy="304.711" r="4" fill="#0" id="circle266"/>
	<circle cx="930.328" cy="268.994" r="4" fill="#0" id="circle267"/>
	<circle cx="937.24" cy="304.711" r="4" fill="#0" id="circle268"/>
	<circle cx="940.697" cy="263.233" r="4" fill="#0" id="circle269"/>
	<circle cx="947.61" cy="298.95" r="4" fill="#0" id="circle270"/>
	<circle cx="952.218" cy="263.233" r="4" fill="#0" id="circle271"/>
	<circle cx="957.979" cy="293.189" r="4" fill="#0" id="circle272"/>
	<circle cx="963.74" cy="263.233" r="4" fill="#0" id="circle273"/>
	<circle cx="968.348" cy="287.429" r="4" fill="#0" id="circle274"/>
	<circle cx="975.261" cy="263.233" r="4" fill="#0" id="circle275"/>
	<circle cx="978.718" cy="281.668" r="4" fill="#0" id="circle276"/>
	<circle cx="985.631" cy="257.473" r="4" fill="#0" id="circle277"/>
	<circle cx="987.935" cy="273.603" r="4" fill="#0" id="circle278"/>
	<circle cx="996" cy="264.386" r="4" fill="#0" id="circle279"/>
	</g>
</svg>