<?xml version="1.0" encoding="UTF-8" standalone="no"?>
<!-- Created with CurveBenchmark -->
<svg
	xmlns:dc="http://purl.org/dc/elements/1.1/"
	xmlns:cc="http://creativecommons.org/ns#"
	xmlns:rdf="http://www.w3.org/1999/02/22-rdf-syntax-ns#"
	xmlns:svg="http://www.w3.org/2000/svg"
	xmlns="http://www.w3.org/2000/svg"
	xmlns:sodipodi="http://sodipodi.sourceforge.net/DTD/sodipodi-0.dtd"
	xmlns:inkscape="http://www.inkscape.org/namespaces/inkscape"
	width="1000"
	height="1000"
	id="svg2"
	version="1.1"
	sodipodi:docname="manifold/gathang-tool11.png.txt">
<defs
	id="defs4" />
<metadata
	id="metadata7">
	<rdf:RDF>
		<cc:Work
			rdf:about="">
			<dc:format>image/svg+xml</dc:format>
			<dc:type
				rdf:resource="http://purl.org/dc/dcmitype/StillImage" />
			<dc:title></dc:title>
		</cc:Work>
	</rdf:RDF>
</metadata>
<g
	inkscape:label="Layer 1"
	inkscape:groupmode="layer"
	id="layer1">
	<path style="fill:none;stroke:red;stroke-width:1px;stroke-linecap:butt;stroke-linejoin:miter;stroke-opacity:1" d="M 4,78.5621 4,46.1438 z" id="boundary" inkscape:connector-curvature="0" />
	<path style="fill:none;stroke:red;stroke-width:1px;stroke-linecap:butt;stroke-linejoin:miter;stroke-opacity:1" d="M 4,46.1438 29.9346,20.2092 z" id="boundary" inkscape:connector-curvature="0" />
	<path style="fill:none;stroke:red;stroke-width:1px;stroke-linecap:butt;stroke-linejoin:miter;stroke-opacity:1" d="M 117.464,42.902 91.5294,20.2092 z" id="boundary" inkscape:connector-curvature="0" />
	<path style="fill:none;stroke:red;stroke-width:1px;stroke-linecap:butt;stroke-linejoin:miter;stroke-opacity:1" d="M 29.9346,20.2092 62.3529,4 z" id="boundary" inkscape:connector-curvature="0" />
	<path style="fill:none;stroke:red;stroke-width:1px;stroke-linecap:butt;stroke-linejoin:miter;stroke-opacity:1" d="M 62.3529,4 91.5294,20.2092 z" id="boundary" inkscape:connector-curvature="0" />
	<path style="fill:none;stroke:red;stroke-width:1px;stroke-linecap:butt;stroke-linejoin:miter;stroke-opacity:1" d="M 20.2092,107.739 4,78.5621 z" id="boundary" inkscape:connector-curvature="0" />
	<path style="fill:none;stroke:red;stroke-width:1px;stroke-linecap:butt;stroke-linejoin:miter;stroke-opacity:1" d="M 42.902,133.673 20.2092,107.739 z" id="boundary" inkscape:connector-curvature="0" />
	<path style="fill:none;stroke:red;stroke-width:1px;stroke-linecap:butt;stroke-linejoin:miter;stroke-opacity:1" d="M 68.8366,153.124 98.0131,169.333 z" id="boundary" inkscape:connector-curvature="0" />
	<path style="fill:none;stroke:red;stroke-width:1px;stroke-linecap:butt;stroke-linejoin:miter;stroke-opacity:1" d="M 98.0131,169.333 117.464,195.268 z" id="boundary" inkscape:connector-curvature="0" />
	<path style="fill:none;stroke:red;stroke-width:1px;stroke-linecap:butt;stroke-linejoin:miter;stroke-opacity:1" d="M 68.8366,153.124 42.902,133.673 z" id="boundary" inkscape:connector-curvature="0" />
	<path style="fill:none;stroke:red;stroke-width:1px;stroke-linecap:butt;stroke-linejoin:miter;stroke-opacity:1" d="M 117.464,42.902 136.915,68.8366 z" id="boundary" inkscape:connector-curvature="0" />
	<path style="fill:none;stroke:red;stroke-width:1px;stroke-linecap:butt;stroke-linejoin:miter;stroke-opacity:1" d="M 166.092,85.0458 192.026,104.497 z" id="boundary" inkscape:connector-curvature="0" />
	<path style="fill:none;stroke:red;stroke-width:1px;stroke-linecap:butt;stroke-linejoin:miter;stroke-opacity:1" d="M 166.092,85.0458 136.915,68.8366 z" id="boundary" inkscape:connector-curvature="0" />
	<path style="fill:none;stroke:red;stroke-width:1px;stroke-linecap:butt;stroke-linejoin:miter;stroke-opacity:1" d="M 192.026,104.497 224.444,117.464 z" id="boundary" inkscape:connector-curvature="0" />
	<path style="fill:none;stroke:red;stroke-width:1px;stroke-linecap:butt;stroke-linejoin:miter;stroke-opacity:1" d="M 247.137,143.399 224.444,117.464 z" id="boundary" inkscape:connector-curvature="0" />
	<path style="fill:none;stroke:red;stroke-width:1px;stroke-linecap:butt;stroke-linejoin:miter;stroke-opacity:1" d="M 279.556,156.366 247.137,143.399 z" id="boundary" inkscape:connector-curvature="0" />
	<path style="fill:none;stroke:red;stroke-width:1px;stroke-linecap:butt;stroke-linejoin:miter;stroke-opacity:1" d="M 143.399,217.961 117.464,195.268 z" id="boundary" inkscape:connector-curvature="0" />
	<path style="fill:none;stroke:red;stroke-width:1px;stroke-linecap:butt;stroke-linejoin:miter;stroke-opacity:1" d="M 172.575,234.17 143.399,217.961 z" id="boundary" inkscape:connector-curvature="0" />
	<path style="fill:none;stroke:red;stroke-width:1px;stroke-linecap:butt;stroke-linejoin:miter;stroke-opacity:1" d="M 279.556,156.366 299.007,182.301 z" id="boundary" inkscape:connector-curvature="0" />
	<path style="fill:none;stroke:red;stroke-width:1px;stroke-linecap:butt;stroke-linejoin:miter;stroke-opacity:1" d="M 172.575,234.17 188.784,263.346 z" id="boundary" inkscape:connector-curvature="0" />
	<path style="fill:none;stroke:red;stroke-width:1px;stroke-linecap:butt;stroke-linejoin:miter;stroke-opacity:1" d="M 324.941,201.752 299.007,182.301 z" id="boundary" inkscape:connector-curvature="0" />
	<path style="fill:none;stroke:red;stroke-width:1px;stroke-linecap:butt;stroke-linejoin:miter;stroke-opacity:1" d="M 354.118,217.961 324.941,201.752 z" id="boundary" inkscape:connector-curvature="0" />
	<path style="fill:none;stroke:red;stroke-width:1px;stroke-linecap:butt;stroke-linejoin:miter;stroke-opacity:1" d="M 188.784,263.346 214.719,282.797 z" id="boundary" inkscape:connector-curvature="0" />
	<path style="fill:none;stroke:red;stroke-width:1px;stroke-linecap:butt;stroke-linejoin:miter;stroke-opacity:1" d="M 402.745,266.588 380.052,240.654 z" id="boundary" inkscape:connector-curvature="0" />
	<path style="fill:none;stroke:red;stroke-width:1px;stroke-linecap:butt;stroke-linejoin:miter;stroke-opacity:1" d="M 435.163,279.556 402.745,266.588 z" id="boundary" inkscape:connector-curvature="0" />
	<path style="fill:none;stroke:red;stroke-width:1px;stroke-linecap:butt;stroke-linejoin:miter;stroke-opacity:1" d="M 354.118,217.961 380.052,240.654 z" id="boundary" inkscape:connector-curvature="0" />
	<path style="fill:none;stroke:red;stroke-width:1px;stroke-linecap:butt;stroke-linejoin:miter;stroke-opacity:1" d="M 256.863,315.216 286.039,331.425 z" id="boundary" inkscape:connector-curvature="0" />
	<path style="fill:none;stroke:red;stroke-width:1px;stroke-linecap:butt;stroke-linejoin:miter;stroke-opacity:1" d="M 286.039,331.425 311.974,350.876 z" id="boundary" inkscape:connector-curvature="0" />
	<path style="fill:none;stroke:red;stroke-width:1px;stroke-linecap:butt;stroke-linejoin:miter;stroke-opacity:1" d="M 363.843,389.778 380.052,418.954 z" id="boundary" inkscape:connector-curvature="0" />
	<path style="fill:none;stroke:red;stroke-width:1px;stroke-linecap:butt;stroke-linejoin:miter;stroke-opacity:1" d="M 363.843,389.778 344.392,363.843 z" id="boundary" inkscape:connector-curvature="0" />
	<path style="fill:none;stroke:red;stroke-width:1px;stroke-linecap:butt;stroke-linejoin:miter;stroke-opacity:1" d="M 412.471,428.68 380.052,418.954 z" id="boundary" inkscape:connector-curvature="0" />
	<path style="fill:none;stroke:red;stroke-width:1px;stroke-linecap:butt;stroke-linejoin:miter;stroke-opacity:1" d="M 311.974,350.876 344.392,363.843 z" id="boundary" inkscape:connector-curvature="0" />
	<path style="fill:none;stroke:red;stroke-width:1px;stroke-linecap:butt;stroke-linejoin:miter;stroke-opacity:1" d="M 461.098,299.007 477.307,328.183 z" id="boundary" inkscape:connector-curvature="0" />
	<path style="fill:none;stroke:red;stroke-width:1px;stroke-linecap:butt;stroke-linejoin:miter;stroke-opacity:1" d="M 461.098,299.007 435.163,279.556 z" id="boundary" inkscape:connector-curvature="0" />
	<path style="fill:none;stroke:red;stroke-width:1px;stroke-linecap:butt;stroke-linejoin:miter;stroke-opacity:1" d="M 506.484,344.392 477.307,328.183 z" id="boundary" inkscape:connector-curvature="0" />
	<path style="fill:none;stroke:red;stroke-width:1px;stroke-linecap:butt;stroke-linejoin:miter;stroke-opacity:1" d="M 506.484,344.392 532.418,363.843 z" id="boundary" inkscape:connector-curvature="0" />
	<path style="fill:none;stroke:red;stroke-width:1px;stroke-linecap:butt;stroke-linejoin:miter;stroke-opacity:1" d="M 587.529,402.745 558.353,386.536 z" id="boundary" inkscape:connector-curvature="0" />
	<path style="fill:none;stroke:red;stroke-width:1px;stroke-linecap:butt;stroke-linejoin:miter;stroke-opacity:1" d="M 558.353,386.536 532.418,363.843 z" id="boundary" inkscape:connector-curvature="0" />
	<path style="fill:none;stroke:red;stroke-width:1px;stroke-linecap:butt;stroke-linejoin:miter;stroke-opacity:1" d="M 412.471,428.68 441.647,444.889 z" id="boundary" inkscape:connector-curvature="0" />
	<path style="fill:none;stroke:red;stroke-width:1px;stroke-linecap:butt;stroke-linejoin:miter;stroke-opacity:1" d="M 441.647,444.889 457.856,474.065 z" id="boundary" inkscape:connector-curvature="0" />
	<path style="fill:none;stroke:red;stroke-width:1px;stroke-linecap:butt;stroke-linejoin:miter;stroke-opacity:1" d="M 483.791,493.516 516.209,506.484 z" id="boundary" inkscape:connector-curvature="0" />
	<path style="fill:none;stroke:red;stroke-width:1px;stroke-linecap:butt;stroke-linejoin:miter;stroke-opacity:1" d="M 516.209,506.484 529.176,538.902 z" id="boundary" inkscape:connector-curvature="0" />
	<path style="fill:none;stroke:red;stroke-width:1px;stroke-linecap:butt;stroke-linejoin:miter;stroke-opacity:1" d="M 483.791,493.516 457.856,474.065 z" id="boundary" inkscape:connector-curvature="0" />
	<path style="fill:none;stroke:red;stroke-width:1px;stroke-linecap:butt;stroke-linejoin:miter;stroke-opacity:1" d="M 561.595,551.869 529.176,538.902 z" id="boundary" inkscape:connector-curvature="0" />
	<path style="fill:none;stroke:red;stroke-width:1px;stroke-linecap:butt;stroke-linejoin:miter;stroke-opacity:1" d="M 613.464,425.438 587.529,402.745 z" id="boundary" inkscape:connector-curvature="0" />
	<path style="fill:none;stroke:red;stroke-width:1px;stroke-linecap:butt;stroke-linejoin:miter;stroke-opacity:1" d="M 642.641,441.647 613.464,425.438 z" id="boundary" inkscape:connector-curvature="0" />
	<path style="fill:none;stroke:red;stroke-width:1px;stroke-linecap:butt;stroke-linejoin:miter;stroke-opacity:1" d="M 642.641,441.647 668.575,464.34 z" id="boundary" inkscape:connector-curvature="0" />
	<path style="fill:none;stroke:red;stroke-width:1px;stroke-linecap:butt;stroke-linejoin:miter;stroke-opacity:1" d="M 688.026,490.275 668.575,464.34 z" id="boundary" inkscape:connector-curvature="0" />
	<path style="fill:none;stroke:red;stroke-width:1px;stroke-linecap:butt;stroke-linejoin:miter;stroke-opacity:1" d="M 720.444,490.275 688.026,490.275 z" id="boundary" inkscape:connector-curvature="0" />
	<path style="fill:none;stroke:red;stroke-width:1px;stroke-linecap:butt;stroke-linejoin:miter;stroke-opacity:1" d="M 561.595,551.869 590.771,568.078 z" id="boundary" inkscape:connector-curvature="0" />
	<path style="fill:none;stroke:red;stroke-width:1px;stroke-linecap:butt;stroke-linejoin:miter;stroke-opacity:1" d="M 590.771,568.078 616.706,590.771 z" id="boundary" inkscape:connector-curvature="0" />
	<path style="fill:none;stroke:red;stroke-width:1px;stroke-linecap:butt;stroke-linejoin:miter;stroke-opacity:1" d="M 616.706,590.771 639.399,616.706 z" id="boundary" inkscape:connector-curvature="0" />
	<path style="fill:none;stroke:red;stroke-width:1px;stroke-linecap:butt;stroke-linejoin:miter;stroke-opacity:1" d="M 639.399,616.706 665.333,639.399 z" id="boundary" inkscape:connector-curvature="0" />
	<path style="fill:none;stroke:red;stroke-width:1px;stroke-linecap:butt;stroke-linejoin:miter;stroke-opacity:1" d="M 665.333,639.399 688.026,665.333 z" id="boundary" inkscape:connector-curvature="0" />
	<path style="fill:none;stroke:red;stroke-width:1px;stroke-linecap:butt;stroke-linejoin:miter;stroke-opacity:1" d="M 749.621,506.484 778.797,522.693 z" id="boundary" inkscape:connector-curvature="0" />
	<path style="fill:none;stroke:red;stroke-width:1px;stroke-linecap:butt;stroke-linejoin:miter;stroke-opacity:1" d="M 749.621,506.484 720.444,490.275 z" id="boundary" inkscape:connector-curvature="0" />
	<path style="fill:none;stroke:red;stroke-width:1px;stroke-linecap:butt;stroke-linejoin:miter;stroke-opacity:1" d="M 778.797,522.693 811.216,522.693 z" id="boundary" inkscape:connector-curvature="0" />
	<path style="fill:none;stroke:red;stroke-width:1px;stroke-linecap:butt;stroke-linejoin:miter;stroke-opacity:1" d="M 811.216,522.693 840.392,538.902 z" id="boundary" inkscape:connector-curvature="0" />
	<path style="fill:none;stroke:red;stroke-width:1px;stroke-linecap:butt;stroke-linejoin:miter;stroke-opacity:1" d="M 872.81,538.902 840.392,538.902 z" id="boundary" inkscape:connector-curvature="0" />
	<path style="fill:none;stroke:red;stroke-width:1px;stroke-linecap:butt;stroke-linejoin:miter;stroke-opacity:1" d="M 713.961,688.026 688.026,665.333 z" id="boundary" inkscape:connector-curvature="0" />
	<path style="fill:none;stroke:red;stroke-width:1px;stroke-linecap:butt;stroke-linejoin:miter;stroke-opacity:1" d="M 901.987,555.111 872.81,538.902 z" id="boundary" inkscape:connector-curvature="0" />
	<path style="fill:none;stroke:red;stroke-width:1px;stroke-linecap:butt;stroke-linejoin:miter;stroke-opacity:1" d="M 931.163,571.32 901.987,555.111 z" id="boundary" inkscape:connector-curvature="0" />
	<path style="fill:none;stroke:red;stroke-width:1px;stroke-linecap:butt;stroke-linejoin:miter;stroke-opacity:1" d="M 963.582,581.046 931.163,571.32 z" id="boundary" inkscape:connector-curvature="0" />
	<path style="fill:none;stroke:red;stroke-width:1px;stroke-linecap:butt;stroke-linejoin:miter;stroke-opacity:1" d="M 976.549,613.464 979.791,645.882 z" id="boundary" inkscape:connector-curvature="0" />
	<path style="fill:none;stroke:red;stroke-width:1px;stroke-linecap:butt;stroke-linejoin:miter;stroke-opacity:1" d="M 963.582,581.046 976.549,613.464 z" id="boundary" inkscape:connector-curvature="0" />
	<path style="fill:none;stroke:red;stroke-width:1px;stroke-linecap:butt;stroke-linejoin:miter;stroke-opacity:1" d="M 726.928,720.444 713.961,688.026 z" id="boundary" inkscape:connector-curvature="0" />
	<path style="fill:none;stroke:red;stroke-width:1px;stroke-linecap:butt;stroke-linejoin:miter;stroke-opacity:1" d="M 749.621,782.039 743.137,749.621 z" id="boundary" inkscape:connector-curvature="0" />
	<path style="fill:none;stroke:red;stroke-width:1px;stroke-linecap:butt;stroke-linejoin:miter;stroke-opacity:1" d="M 743.137,749.621 726.928,720.444 z" id="boundary" inkscape:connector-curvature="0" />
	<path style="fill:none;stroke:red;stroke-width:1px;stroke-linecap:butt;stroke-linejoin:miter;stroke-opacity:1" d="M 765.83,811.216 749.621,782.039 z" id="boundary" inkscape:connector-curvature="0" />
	<path style="fill:none;stroke:red;stroke-width:1px;stroke-linecap:butt;stroke-linejoin:miter;stroke-opacity:1" d="M 765.83,811.216 782.039,840.392 z" id="boundary" inkscape:connector-curvature="0" />
	<path style="fill:none;stroke:red;stroke-width:1px;stroke-linecap:butt;stroke-linejoin:miter;stroke-opacity:1" d="M 782.039,840.392 782.039,872.81 z" id="boundary" inkscape:connector-curvature="0" />
	<path style="fill:none;stroke:red;stroke-width:1px;stroke-linecap:butt;stroke-linejoin:miter;stroke-opacity:1" d="M 814.458,882.536 782.039,872.81 z" id="boundary" inkscape:connector-curvature="0" />
	<path style="fill:none;stroke:red;stroke-width:1px;stroke-linecap:butt;stroke-linejoin:miter;stroke-opacity:1" d="M 876.052,898.745 843.634,898.745 z" id="boundary" inkscape:connector-curvature="0" />
	<path style="fill:none;stroke:red;stroke-width:1px;stroke-linecap:butt;stroke-linejoin:miter;stroke-opacity:1" d="M 814.458,882.536 843.634,898.745 z" id="boundary" inkscape:connector-curvature="0" />
	<path style="fill:none;stroke:red;stroke-width:1px;stroke-linecap:butt;stroke-linejoin:miter;stroke-opacity:1" d="M 898.745,752.863 898.745,785.281 z" id="boundary" inkscape:connector-curvature="0" />
	<path style="fill:none;stroke:red;stroke-width:1px;stroke-linecap:butt;stroke-linejoin:miter;stroke-opacity:1" d="M 931.163,752.863 963.582,759.346 z" id="boundary" inkscape:connector-curvature="0" />
	<path style="fill:none;stroke:red;stroke-width:1px;stroke-linecap:butt;stroke-linejoin:miter;stroke-opacity:1" d="M 898.745,752.863 931.163,752.863 z" id="boundary" inkscape:connector-curvature="0" />
	<path style="fill:none;stroke:red;stroke-width:1px;stroke-linecap:butt;stroke-linejoin:miter;stroke-opacity:1" d="M 992.758,710.719 996,743.137 z" id="boundary" inkscape:connector-curvature="0" />
	<path style="fill:none;stroke:red;stroke-width:1px;stroke-linecap:butt;stroke-linejoin:miter;stroke-opacity:1" d="M 992.758,710.719 979.791,678.301 z" id="boundary" inkscape:connector-curvature="0" />
	<path style="fill:none;stroke:red;stroke-width:1px;stroke-linecap:butt;stroke-linejoin:miter;stroke-opacity:1" d="M 979.791,678.301 979.791,645.882 z" id="boundary" inkscape:connector-curvature="0" />
	<path style="fill:none;stroke:red;stroke-width:1px;stroke-linecap:butt;stroke-linejoin:miter;stroke-opacity:1" d="M 996,743.137 986.275,785.281 z" id="boundary" inkscape:connector-curvature="0" />
	<path style="fill:none;stroke:red;stroke-width:1px;stroke-linecap:butt;stroke-linejoin:miter;stroke-opacity:1" d="M 986.275,785.281 963.582,759.346 z" id="boundary" inkscape:connector-curvature="0" />
	<path style="fill:none;stroke:red;stroke-width:1px;stroke-linecap:butt;stroke-linejoin:miter;stroke-opacity:1" d="M 908.471,898.745 876.052,898.745 z" id="boundary" inkscape:connector-curvature="0" />
	<path style="fill:none;stroke:red;stroke-width:1px;stroke-linecap:butt;stroke-linejoin:miter;stroke-opacity:1" d="M 898.745,817.699 898.745,785.281 z" id="boundary" inkscape:connector-curvature="0" />
	<path style="fill:none;stroke:red;stroke-width:1px;stroke-linecap:butt;stroke-linejoin:miter;stroke-opacity:1" d="M 924.68,837.15 898.745,817.699 z" id="boundary" inkscape:connector-curvature="0" />
	<path style="fill:none;stroke:red;stroke-width:1px;stroke-linecap:butt;stroke-linejoin:miter;stroke-opacity:1" d="M 937.647,882.536 908.471,898.745 z" id="boundary" inkscape:connector-curvature="0" />
	<path style="fill:none;stroke:red;stroke-width:1px;stroke-linecap:butt;stroke-linejoin:miter;stroke-opacity:1" d="M 924.68,837.15 957.098,850.118 z" id="boundary" inkscape:connector-curvature="0" />
	<path style="fill:none;stroke:red;stroke-width:1px;stroke-linecap:butt;stroke-linejoin:miter;stroke-opacity:1" d="M 957.098,850.118 937.647,882.536 z" id="boundary" inkscape:connector-curvature="0" />
	<circle cx="4" cy="46.1438" r="4" fill="#0" id="circle0"/>
	<circle cx="4" cy="78.5621" r="4" fill="#0" id="circle1"/>
	<circle cx="20.2092" cy="107.739" r="4" fill="#0" id="circle2"/>
	<circle cx="29.9346" cy="20.2092" r="4" fill="#0" id="circle3"/>
	<circle cx="42.902" cy="133.673" r="4" fill="#0" id="circle4"/>
	<circle cx="62.3529" cy="4" r="4" fill="#0" id="circle5"/>
	<circle cx="68.8366" cy="153.124" r="4" fill="#0" id="circle6"/>
	<circle cx="91.5294" cy="20.2092" r="4" fill="#0" id="circle7"/>
	<circle cx="98.0131" cy="169.333" r="4" fill="#0" id="circle8"/>
	<circle cx="117.464" cy="42.902" r="4" fill="#0" id="circle9"/>
	<circle cx="117.464" cy="195.268" r="4" fill="#0" id="circle10"/>
	<circle cx="136.915" cy="68.8366" r="4" fill="#0" id="circle11"/>
	<circle cx="143.399" cy="217.961" r="4" fill="#0" id="circle12"/>
	<circle cx="166.092" cy="85.0458" r="4" fill="#0" id="circle13"/>
	<circle cx="172.575" cy="234.17" r="4" fill="#0" id="circle14"/>
	<circle cx="188.784" cy="263.346" r="4" fill="#0" id="circle15"/>
	<circle cx="192.026" cy="104.497" r="4" fill="#0" id="circle16"/>
	<circle cx="214.719" cy="282.797" r="4" fill="#0" id="circle17"/>
	<circle cx="224.444" cy="117.464" r="4" fill="#0" id="circle18"/>
	<circle cx="247.137" cy="143.399" r="4" fill="#0" id="circle19"/>
	<circle cx="247.137" cy="282.797" r="4" fill="#0" id="circle20"/>
	<circle cx="256.863" cy="315.216" r="4" fill="#0" id="circle21"/>
	<circle cx="279.556" cy="156.366" r="4" fill="#0" id="circle22"/>
	<circle cx="286.039" cy="331.425" r="4" fill="#0" id="circle23"/>
	<circle cx="299.007" cy="182.301" r="4" fill="#0" id="circle24"/>
	<circle cx="311.974" cy="350.876" r="4" fill="#0" id="circle25"/>
	<circle cx="324.941" cy="201.752" r="4" fill="#0" id="circle26"/>
	<circle cx="344.392" cy="363.843" r="4" fill="#0" id="circle27"/>
	<circle cx="354.118" cy="217.961" r="4" fill="#0" id="circle28"/>
	<circle cx="363.843" cy="389.778" r="4" fill="#0" id="circle29"/>
	<circle cx="380.052" cy="240.654" r="4" fill="#0" id="circle30"/>
	<circle cx="380.052" cy="418.954" r="4" fill="#0" id="circle31"/>
	<circle cx="402.745" cy="266.588" r="4" fill="#0" id="circle32"/>
	<circle cx="412.471" cy="428.68" r="4" fill="#0" id="circle33"/>
	<circle cx="435.163" cy="279.556" r="4" fill="#0" id="circle34"/>
	<circle cx="441.647" cy="444.889" r="4" fill="#0" id="circle35"/>
	<circle cx="457.856" cy="474.065" r="4" fill="#0" id="circle36"/>
	<circle cx="461.098" cy="299.007" r="4" fill="#0" id="circle37"/>
	<circle cx="477.307" cy="328.183" r="4" fill="#0" id="circle38"/>
	<circle cx="483.791" cy="493.516" r="4" fill="#0" id="circle39"/>
	<circle cx="506.484" cy="344.392" r="4" fill="#0" id="circle40"/>
	<circle cx="516.209" cy="506.484" r="4" fill="#0" id="circle41"/>
	<circle cx="529.176" cy="538.902" r="4" fill="#0" id="circle42"/>
	<circle cx="532.418" cy="363.843" r="4" fill="#0" id="circle43"/>
	<circle cx="558.353" cy="386.536" r="4" fill="#0" id="circle44"/>
	<circle cx="561.595" cy="551.869" r="4" fill="#0" id="circle45"/>
	<circle cx="587.529" cy="402.745" r="4" fill="#0" id="circle46"/>
	<circle cx="590.771" cy="568.078" r="4" fill="#0" id="circle47"/>
	<circle cx="613.464" cy="425.438" r="4" fill="#0" id="circle48"/>
	<circle cx="616.706" cy="590.771" r="4" fill="#0" id="circle49"/>
	<circle cx="639.399" cy="616.706" r="4" fill="#0" id="circle50"/>
	<circle cx="642.641" cy="441.647" r="4" fill="#0" id="circle51"/>
	<circle cx="665.333" cy="639.399" r="4" fill="#0" id="circle52"/>
	<circle cx="668.575" cy="464.34" r="4" fill="#0" id="circle53"/>
	<circle cx="688.026" cy="490.275" r="4" fill="#0" id="circle54"/>
	<circle cx="688.026" cy="665.333" r="4" fill="#0" id="circle55"/>
	<circle cx="713.961" cy="688.026" r="4" fill="#0" id="circle56"/>
	<circle cx="720.444" cy="490.275" r="4" fill="#0" id="circle57"/>
	<circle cx="726.928" cy="720.444" r="4" fill="#0" id="circle58"/>
	<circle cx="743.137" cy="749.621" r="4" fill="#0" id="circle59"/>
	<circle cx="749.621" cy="506.484" r="4" fill="#0" id="circle60"/>
	<circle cx="749.621" cy="782.039" r="4" fill="#0" id="circle61"/>
	<circle cx="765.83" cy="811.216" r="4" fill="#0" id="circle62"/>
	<circle cx="778.797" cy="522.693" r="4" fill="#0" id="circle63"/>
	<circle cx="782.039" cy="840.392" r="4" fill="#0" id="circle64"/>
	<circle cx="782.039" cy="872.81" r="4" fill="#0" id="circle65"/>
	<circle cx="811.216" cy="522.693" r="4" fill="#0" id="circle66"/>
	<circle cx="814.458" cy="882.536" r="4" fill="#0" id="circle67"/>
	<circle cx="840.392" cy="538.902" r="4" fill="#0" id="circle68"/>
	<circle cx="843.634" cy="898.745" r="4" fill="#0" id="circle69"/>
	<circle cx="872.81" cy="538.902" r="4" fill="#0" id="circle70"/>
	<circle cx="876.052" cy="898.745" r="4" fill="#0" id="circle71"/>
	<circle cx="898.745" cy="752.863" r="4" fill="#0" id="circle72"/>
	<circle cx="898.745" cy="785.281" r="4" fill="#0" id="circle73"/>
	<circle cx="898.745" cy="817.699" r="4" fill="#0" id="circle74"/>
	<circle cx="901.987" cy="555.111" r="4" fill="#0" id="circle75"/>
	<circle cx="908.471" cy="898.745" r="4" fill="#0" id="circle76"/>
	<circle cx="924.68" cy="837.15" r="4" fill="#0" id="circle77"/>
	<circle cx="931.163" cy="571.32" r="4" fill="#0" id="circle78"/>
	<circle cx="931.163" cy="752.863" r="4" fill="#0" id="circle79"/>
	<circle cx="937.647" cy="882.536" r="4" fill="#0" id="circle80"/>
	<circle cx="957.098" cy="850.118" r="4" fill="#0" id="circle81"/>
	<circle cx="963.582" cy="581.046" r="4" fill="#0" id="circle82"/>
	<circle cx="963.582" cy="759.346" r="4" fill="#0" id="circle83"/>
	<circle cx="976.549" cy="613.464" r="4" fill="#0" id="circle84"/>
	<circle cx="979.791" cy="645.882" r="4" fill="#0" id="circle85"/>
	<circle cx="979.791" cy="678.301" r="4" fill="#0" id="circle86"/>
	<circle cx="986.275" cy="785.281" r="4" fill="#0" id="circle87"/>
	<circle cx="992.758" cy="710.719" r="4" fill="#0" id="circle88"/>
	<circle cx="996" cy="743.137" r="4" fill="#0" id="circle89"/>
	</g>
</svg>