<?xml version="1.0" encoding="UTF-8" standalone="no"?>
<!-- Created with CurveBenchmark -->
<svg
	xmlns:dc="http://purl.org/dc/elements/1.1/"
	xmlns:cc="http://creativecommons.org/ns#"
	xmlns:rdf="http://www.w3.org/1999/02/22-rdf-syntax-ns#"
	xmlns:svg="http://www.w3.org/2000/svg"
	xmlns="http://www.w3.org/2000/svg"
	xmlns:sodipodi="http://sodipodi.sourceforge.net/DTD/sodipodi-0.dtd"
	xmlns:inkscape="http://www.inkscape.org/namespaces/inkscape"
	width="1000"
	height="1000"
	id="svg2"
	version="1.1"
	sodipodi:docname="manifold/gathan1-car-17.png.txt">
<defs
	id="defs4" />
<metadata
	id="metadata7">
	<rdf:RDF>
		<cc:Work
			rdf:about="">
			<dc:format>image/svg+xml</dc:format>
			<dc:type
				rdf:resource="http://purl.org/dc/dcmitype/StillImage" />
			<dc:title></dc:title>
		</cc:Work>
	</rdf:RDF>
</metadata>
<g
	inkscape:label="Layer 1"
	inkscape:groupmode="layer"
	id="layer1">
	<path style="fill:none;stroke:red;stroke-width:1px;stroke-linecap:butt;stroke-linejoin:miter;stroke-opacity:1" d="M 137.109,183.745 146.825,179.859 z" id="boundary" inkscape:connector-curvature="0" />
	<path style="fill:none;stroke:red;stroke-width:1px;stroke-linecap:butt;stroke-linejoin:miter;stroke-opacity:1" d="M 146.825,179.859 156.541,178.887 z" id="boundary" inkscape:connector-curvature="0" />
	<path style="fill:none;stroke:red;stroke-width:1px;stroke-linecap:butt;stroke-linejoin:miter;stroke-opacity:1" d="M 156.541,178.887 166.257,178.887 z" id="boundary" inkscape:connector-curvature="0" />
	<path style="fill:none;stroke:red;stroke-width:1px;stroke-linecap:butt;stroke-linejoin:miter;stroke-opacity:1" d="M 175.973,178.887 166.257,178.887 z" id="boundary" inkscape:connector-curvature="0" />
	<path style="fill:none;stroke:red;stroke-width:1px;stroke-linecap:butt;stroke-linejoin:miter;stroke-opacity:1" d="M 185.689,175.001 175.973,178.887 z" id="boundary" inkscape:connector-curvature="0" />
	<path style="fill:none;stroke:red;stroke-width:1px;stroke-linecap:butt;stroke-linejoin:miter;stroke-opacity:1" d="M 99.2165,188.603 89.5005,188.603 z" id="boundary" inkscape:connector-curvature="0" />
	<path style="fill:none;stroke:red;stroke-width:1px;stroke-linecap:butt;stroke-linejoin:miter;stroke-opacity:1" d="M 108.932,188.603 117.677,183.745 z" id="boundary" inkscape:connector-curvature="0" />
	<path style="fill:none;stroke:red;stroke-width:1px;stroke-linecap:butt;stroke-linejoin:miter;stroke-opacity:1" d="M 117.677,183.745 127.393,183.745 z" id="boundary" inkscape:connector-curvature="0" />
	<path style="fill:none;stroke:red;stroke-width:1px;stroke-linecap:butt;stroke-linejoin:miter;stroke-opacity:1" d="M 137.109,183.745 127.393,183.745 z" id="boundary" inkscape:connector-curvature="0" />
	<path style="fill:none;stroke:red;stroke-width:1px;stroke-linecap:butt;stroke-linejoin:miter;stroke-opacity:1" d="M 213.865,169.171 223.581,169.171 z" id="boundary" inkscape:connector-curvature="0" />
	<path style="fill:none;stroke:red;stroke-width:1px;stroke-linecap:butt;stroke-linejoin:miter;stroke-opacity:1" d="M 205.12,174.029 213.865,169.171 z" id="boundary" inkscape:connector-curvature="0" />
	<path style="fill:none;stroke:red;stroke-width:1px;stroke-linecap:butt;stroke-linejoin:miter;stroke-opacity:1" d="M 242.041,164.313 250.786,159.455 z" id="boundary" inkscape:connector-curvature="0" />
	<path style="fill:none;stroke:red;stroke-width:1px;stroke-linecap:butt;stroke-linejoin:miter;stroke-opacity:1" d="M 242.041,164.313 233.297,169.171 z" id="boundary" inkscape:connector-curvature="0" />
	<path style="fill:none;stroke:red;stroke-width:1px;stroke-linecap:butt;stroke-linejoin:miter;stroke-opacity:1" d="M 233.297,169.171 223.581,169.171 z" id="boundary" inkscape:connector-curvature="0" />
	<path style="fill:none;stroke:red;stroke-width:1px;stroke-linecap:butt;stroke-linejoin:miter;stroke-opacity:1" d="M 195.405,174.029 205.12,174.029 z" id="boundary" inkscape:connector-curvature="0" />
	<path style="fill:none;stroke:red;stroke-width:1px;stroke-linecap:butt;stroke-linejoin:miter;stroke-opacity:1" d="M 195.405,174.029 185.689,175.001 z" id="boundary" inkscape:connector-curvature="0" />
	<path style="fill:none;stroke:red;stroke-width:1px;stroke-linecap:butt;stroke-linejoin:miter;stroke-opacity:1" d="M 4,249.814 4,240.098 z" id="boundary" inkscape:connector-curvature="0" />
	<path style="fill:none;stroke:red;stroke-width:1px;stroke-linecap:butt;stroke-linejoin:miter;stroke-opacity:1" d="M 4,240.098 8.85798,230.382 z" id="boundary" inkscape:connector-curvature="0" />
	<path style="fill:none;stroke:red;stroke-width:1px;stroke-linecap:butt;stroke-linejoin:miter;stroke-opacity:1" d="M 8.85798,230.382 16.6308,222.609 z" id="boundary" inkscape:connector-curvature="0" />
	<path style="fill:none;stroke:red;stroke-width:1px;stroke-linecap:butt;stroke-linejoin:miter;stroke-opacity:1" d="M 4,259.53 4,249.814 z" id="boundary" inkscape:connector-curvature="0" />
	<path style="fill:none;stroke:red;stroke-width:1px;stroke-linecap:butt;stroke-linejoin:miter;stroke-opacity:1" d="M 4,269.246 4,259.53 z" id="boundary" inkscape:connector-curvature="0" />
	<path style="fill:none;stroke:red;stroke-width:1px;stroke-linecap:butt;stroke-linejoin:miter;stroke-opacity:1" d="M 8.85798,277.99 4,269.246 z" id="boundary" inkscape:connector-curvature="0" />
	<path style="fill:none;stroke:red;stroke-width:1px;stroke-linecap:butt;stroke-linejoin:miter;stroke-opacity:1" d="M 8.85798,277.99 15.6592,285.763 z" id="boundary" inkscape:connector-curvature="0" />
	<path style="fill:none;stroke:red;stroke-width:1px;stroke-linecap:butt;stroke-linejoin:miter;stroke-opacity:1" d="M 23.4319,291.593 15.6592,285.763 z" id="boundary" inkscape:connector-curvature="0" />
	<path style="fill:none;stroke:red;stroke-width:1px;stroke-linecap:butt;stroke-linejoin:miter;stroke-opacity:1" d="M 16.6308,222.609 25.3751,217.751 z" id="boundary" inkscape:connector-curvature="0" />
	<path style="fill:none;stroke:red;stroke-width:1px;stroke-linecap:butt;stroke-linejoin:miter;stroke-opacity:1" d="M 71.0402,198.319 61.3242,198.319 z" id="boundary" inkscape:connector-curvature="0" />
	<path style="fill:none;stroke:red;stroke-width:1px;stroke-linecap:butt;stroke-linejoin:miter;stroke-opacity:1" d="M 79.7845,193.461 71.0402,198.319 z" id="boundary" inkscape:connector-curvature="0" />
	<path style="fill:none;stroke:red;stroke-width:1px;stroke-linecap:butt;stroke-linejoin:miter;stroke-opacity:1" d="M 89.5005,188.603 79.7845,193.461 z" id="boundary" inkscape:connector-curvature="0" />
	<path style="fill:none;stroke:red;stroke-width:1px;stroke-linecap:butt;stroke-linejoin:miter;stroke-opacity:1" d="M 108.932,188.603 99.2165,188.603 z" id="boundary" inkscape:connector-curvature="0" />
	<path style="fill:none;stroke:red;stroke-width:1px;stroke-linecap:butt;stroke-linejoin:miter;stroke-opacity:1" d="M 25.3751,217.751 33.1479,210.95 z" id="boundary" inkscape:connector-curvature="0" />
	<path style="fill:none;stroke:red;stroke-width:1px;stroke-linecap:butt;stroke-linejoin:miter;stroke-opacity:1" d="M 33.1479,210.95 42.8639,206.092 z" id="boundary" inkscape:connector-curvature="0" />
	<path style="fill:none;stroke:red;stroke-width:1px;stroke-linecap:butt;stroke-linejoin:miter;stroke-opacity:1" d="M 52.5798,203.177 42.8639,206.092 z" id="boundary" inkscape:connector-curvature="0" />
	<path style="fill:none;stroke:red;stroke-width:1px;stroke-linecap:butt;stroke-linejoin:miter;stroke-opacity:1" d="M 61.3242,198.319 52.5798,203.177 z" id="boundary" inkscape:connector-curvature="0" />
	<path style="fill:none;stroke:red;stroke-width:1px;stroke-linecap:butt;stroke-linejoin:miter;stroke-opacity:1" d="M 364.462,86.5857 354.746,86.5857 z" id="boundary" inkscape:connector-curvature="0" />
	<path style="fill:none;stroke:red;stroke-width:1px;stroke-linecap:butt;stroke-linejoin:miter;stroke-opacity:1" d="M 354.746,86.5857 345.03,86.5857 z" id="boundary" inkscape:connector-curvature="0" />
	<path style="fill:none;stroke:red;stroke-width:1px;stroke-linecap:butt;stroke-linejoin:miter;stroke-opacity:1" d="M 426.644,84.6425 426.644,74.9265 z" id="boundary" inkscape:connector-curvature="0" />
	<path style="fill:none;stroke:red;stroke-width:1px;stroke-linecap:butt;stroke-linejoin:miter;stroke-opacity:1" d="M 426.644,65.2106 431.502,50.6366 z" id="boundary" inkscape:connector-curvature="0" />
	<path style="fill:none;stroke:red;stroke-width:1px;stroke-linecap:butt;stroke-linejoin:miter;stroke-opacity:1" d="M 426.644,74.9265 426.644,65.2106 z" id="boundary" inkscape:connector-curvature="0" />
	<path style="fill:none;stroke:red;stroke-width:1px;stroke-linecap:butt;stroke-linejoin:miter;stroke-opacity:1" d="M 336.286,91.4437 345.03,86.5857 z" id="boundary" inkscape:connector-curvature="0" />
	<path style="fill:none;stroke:red;stroke-width:1px;stroke-linecap:butt;stroke-linejoin:miter;stroke-opacity:1" d="M 374.178,86.5857 364.462,86.5857 z" id="boundary" inkscape:connector-curvature="0" />
	<path style="fill:none;stroke:red;stroke-width:1px;stroke-linecap:butt;stroke-linejoin:miter;stroke-opacity:1" d="M 374.178,86.5857 382.923,91.4437 z" id="boundary" inkscape:connector-curvature="0" />
	<path style="fill:none;stroke:red;stroke-width:1px;stroke-linecap:butt;stroke-linejoin:miter;stroke-opacity:1" d="M 448.991,18.5739 456.764,10.8012 z" id="boundary" inkscape:connector-curvature="0" />
	<path style="fill:none;stroke:red;stroke-width:1px;stroke-linecap:butt;stroke-linejoin:miter;stroke-opacity:1" d="M 456.764,10.8012 466.48,5.94319 z" id="boundary" inkscape:connector-curvature="0" />
	<path style="fill:none;stroke:red;stroke-width:1px;stroke-linecap:butt;stroke-linejoin:miter;stroke-opacity:1" d="M 466.48,5.94319 476.196,4 z" id="boundary" inkscape:connector-curvature="0" />
	<path style="fill:none;stroke:red;stroke-width:1px;stroke-linecap:butt;stroke-linejoin:miter;stroke-opacity:1" d="M 476.196,4 485.912,4 z" id="boundary" inkscape:connector-curvature="0" />
	<path style="fill:none;stroke:red;stroke-width:1px;stroke-linecap:butt;stroke-linejoin:miter;stroke-opacity:1" d="M 436.36,36.0627 431.502,50.6366 z" id="boundary" inkscape:connector-curvature="0" />
	<path style="fill:none;stroke:red;stroke-width:1px;stroke-linecap:butt;stroke-linejoin:miter;stroke-opacity:1" d="M 441.218,26.3467 448.991,18.5739 z" id="boundary" inkscape:connector-curvature="0" />
	<path style="fill:none;stroke:red;stroke-width:1px;stroke-linecap:butt;stroke-linejoin:miter;stroke-opacity:1" d="M 436.36,36.0627 441.218,26.3467 z" id="boundary" inkscape:connector-curvature="0" />
	<path style="fill:none;stroke:red;stroke-width:1px;stroke-linecap:butt;stroke-linejoin:miter;stroke-opacity:1" d="M 336.286,91.4437 327.542,96.3017 z" id="boundary" inkscape:connector-curvature="0" />
	<path style="fill:none;stroke:red;stroke-width:1px;stroke-linecap:butt;stroke-linejoin:miter;stroke-opacity:1" d="M 426.644,94.3585 426.644,84.6425 z" id="boundary" inkscape:connector-curvature="0" />
	<path style="fill:none;stroke:red;stroke-width:1px;stroke-linecap:butt;stroke-linejoin:miter;stroke-opacity:1" d="M 278.962,125.45 287.706,120.592 z" id="boundary" inkscape:connector-curvature="0" />
	<path style="fill:none;stroke:red;stroke-width:1px;stroke-linecap:butt;stroke-linejoin:miter;stroke-opacity:1" d="M 287.706,120.592 297.422,120.592 z" id="boundary" inkscape:connector-curvature="0" />
	<path style="fill:none;stroke:red;stroke-width:1px;stroke-linecap:butt;stroke-linejoin:miter;stroke-opacity:1" d="M 307.138,120.592 297.422,120.592 z" id="boundary" inkscape:connector-curvature="0" />
	<path style="fill:none;stroke:red;stroke-width:1px;stroke-linecap:butt;stroke-linejoin:miter;stroke-opacity:1" d="M 314.911,113.79 307.138,120.592 z" id="boundary" inkscape:connector-curvature="0" />
	<path style="fill:none;stroke:red;stroke-width:1px;stroke-linecap:butt;stroke-linejoin:miter;stroke-opacity:1" d="M 259.53,154.597 269.246,154.597 z" id="boundary" inkscape:connector-curvature="0" />
	<path style="fill:none;stroke:red;stroke-width:1px;stroke-linecap:butt;stroke-linejoin:miter;stroke-opacity:1" d="M 250.786,159.455 259.53,154.597 z" id="boundary" inkscape:connector-curvature="0" />
	<path style="fill:none;stroke:red;stroke-width:1px;stroke-linecap:butt;stroke-linejoin:miter;stroke-opacity:1" d="M 271.189,142.938 269.246,154.597 z" id="boundary" inkscape:connector-curvature="0" />
	<path style="fill:none;stroke:red;stroke-width:1px;stroke-linecap:butt;stroke-linejoin:miter;stroke-opacity:1" d="M 271.189,133.222 271.189,142.938 z" id="boundary" inkscape:connector-curvature="0" />
	<path style="fill:none;stroke:red;stroke-width:1px;stroke-linecap:butt;stroke-linejoin:miter;stroke-opacity:1" d="M 271.189,133.222 278.962,125.45 z" id="boundary" inkscape:connector-curvature="0" />
	<path style="fill:none;stroke:red;stroke-width:1px;stroke-linecap:butt;stroke-linejoin:miter;stroke-opacity:1" d="M 382.923,91.4437 392.639,91.4437 z" id="boundary" inkscape:connector-curvature="0" />
	<path style="fill:none;stroke:red;stroke-width:1px;stroke-linecap:butt;stroke-linejoin:miter;stroke-opacity:1" d="M 392.639,91.4437 400.411,97.2733 z" id="boundary" inkscape:connector-curvature="0" />
	<path style="fill:none;stroke:red;stroke-width:1px;stroke-linecap:butt;stroke-linejoin:miter;stroke-opacity:1" d="M 319.769,104.074 327.542,96.3017 z" id="boundary" inkscape:connector-curvature="0" />
	<path style="fill:none;stroke:red;stroke-width:1px;stroke-linecap:butt;stroke-linejoin:miter;stroke-opacity:1" d="M 314.911,113.79 319.769,104.074 z" id="boundary" inkscape:connector-curvature="0" />
	<path style="fill:none;stroke:red;stroke-width:1px;stroke-linecap:butt;stroke-linejoin:miter;stroke-opacity:1" d="M 408.184,104.074 400.411,97.2733 z" id="boundary" inkscape:connector-curvature="0" />
	<path style="fill:none;stroke:red;stroke-width:1px;stroke-linecap:butt;stroke-linejoin:miter;stroke-opacity:1" d="M 426.644,94.3585 417.9,106.018 z" id="boundary" inkscape:connector-curvature="0" />
	<path style="fill:none;stroke:red;stroke-width:1px;stroke-linecap:butt;stroke-linejoin:miter;stroke-opacity:1" d="M 417.9,106.018 408.184,104.074 z" id="boundary" inkscape:connector-curvature="0" />
	<path style="fill:none;stroke:red;stroke-width:1px;stroke-linecap:butt;stroke-linejoin:miter;stroke-opacity:1" d="M 26.3467,301.309 28.2899,311.024 z" id="boundary" inkscape:connector-curvature="0" />
	<path style="fill:none;stroke:red;stroke-width:1px;stroke-linecap:butt;stroke-linejoin:miter;stroke-opacity:1" d="M 196.376,432.474 186.66,432.474 z" id="boundary" inkscape:connector-curvature="0" />
	<path style="fill:none;stroke:red;stroke-width:1px;stroke-linecap:butt;stroke-linejoin:miter;stroke-opacity:1" d="M 28.2899,311.024 28.2899,320.74 z" id="boundary" inkscape:connector-curvature="0" />
	<path style="fill:none;stroke:red;stroke-width:1px;stroke-linecap:butt;stroke-linejoin:miter;stroke-opacity:1" d="M 28.2899,330.456 28.2899,320.74 z" id="boundary" inkscape:connector-curvature="0" />
	<path style="fill:none;stroke:red;stroke-width:1px;stroke-linecap:butt;stroke-linejoin:miter;stroke-opacity:1" d="M 28.2899,330.456 28.2899,340.172 z" id="boundary" inkscape:connector-curvature="0" />
	<path style="fill:none;stroke:red;stroke-width:1px;stroke-linecap:butt;stroke-linejoin:miter;stroke-opacity:1" d="M 28.2899,349.888 28.2899,359.604 z" id="boundary" inkscape:connector-curvature="0" />
	<path style="fill:none;stroke:red;stroke-width:1px;stroke-linecap:butt;stroke-linejoin:miter;stroke-opacity:1" d="M 28.2899,349.888 28.2899,340.172 z" id="boundary" inkscape:connector-curvature="0" />
	<path style="fill:none;stroke:red;stroke-width:1px;stroke-linecap:butt;stroke-linejoin:miter;stroke-opacity:1" d="M 28.2899,359.604 28.2899,369.32 z" id="boundary" inkscape:connector-curvature="0" />
	<path style="fill:none;stroke:red;stroke-width:1px;stroke-linecap:butt;stroke-linejoin:miter;stroke-opacity:1" d="M 28.2899,369.32 31.2047,379.036 z" id="boundary" inkscape:connector-curvature="0" />
	<path style="fill:none;stroke:red;stroke-width:1px;stroke-linecap:butt;stroke-linejoin:miter;stroke-opacity:1" d="M 31.2047,379.036 33.1479,388.752 z" id="boundary" inkscape:connector-curvature="0" />
	<path style="fill:none;stroke:red;stroke-width:1px;stroke-linecap:butt;stroke-linejoin:miter;stroke-opacity:1" d="M 46.7502,403.326 38.9775,396.525 z" id="boundary" inkscape:connector-curvature="0" />
	<path style="fill:none;stroke:red;stroke-width:1px;stroke-linecap:butt;stroke-linejoin:miter;stroke-opacity:1" d="M 33.1479,388.752 38.9775,396.525 z" id="boundary" inkscape:connector-curvature="0" />
	<path style="fill:none;stroke:red;stroke-width:1px;stroke-linecap:butt;stroke-linejoin:miter;stroke-opacity:1" d="M 46.7502,403.326 55.4946,408.184 z" id="boundary" inkscape:connector-curvature="0" />
	<path style="fill:none;stroke:red;stroke-width:1px;stroke-linecap:butt;stroke-linejoin:miter;stroke-opacity:1" d="M 55.4946,408.184 57.4378,417.9 z" id="boundary" inkscape:connector-curvature="0" />
	<path style="fill:none;stroke:red;stroke-width:1px;stroke-linecap:butt;stroke-linejoin:miter;stroke-opacity:1" d="M 57.4378,417.9 57.4378,427.616 z" id="boundary" inkscape:connector-curvature="0" />
	<path style="fill:none;stroke:red;stroke-width:1px;stroke-linecap:butt;stroke-linejoin:miter;stroke-opacity:1" d="M 57.4378,427.616 57.4378,437.332 z" id="boundary" inkscape:connector-curvature="0" />
	<path style="fill:none;stroke:red;stroke-width:1px;stroke-linecap:butt;stroke-linejoin:miter;stroke-opacity:1" d="M 23.4319,291.593 26.3467,301.309 z" id="boundary" inkscape:connector-curvature="0" />
	<path style="fill:none;stroke:red;stroke-width:1px;stroke-linecap:butt;stroke-linejoin:miter;stroke-opacity:1" d="M 76.8697,458.707 68.1254,453.849 z" id="boundary" inkscape:connector-curvature="0" />
	<path style="fill:none;stroke:red;stroke-width:1px;stroke-linecap:butt;stroke-linejoin:miter;stroke-opacity:1" d="M 68.1254,453.849 62.2958,446.076 z" id="boundary" inkscape:connector-curvature="0" />
	<path style="fill:none;stroke:red;stroke-width:1px;stroke-linecap:butt;stroke-linejoin:miter;stroke-opacity:1" d="M 62.2958,446.076 57.4378,437.332 z" id="boundary" inkscape:connector-curvature="0" />
	<path style="fill:none;stroke:red;stroke-width:1px;stroke-linecap:butt;stroke-linejoin:miter;stroke-opacity:1" d="M 86.5857,461.622 96.3017,461.622 z" id="boundary" inkscape:connector-curvature="0" />
	<path style="fill:none;stroke:red;stroke-width:1px;stroke-linecap:butt;stroke-linejoin:miter;stroke-opacity:1" d="M 86.5857,461.622 76.8697,458.707 z" id="boundary" inkscape:connector-curvature="0" />
	<path style="fill:none;stroke:red;stroke-width:1px;stroke-linecap:butt;stroke-linejoin:miter;stroke-opacity:1" d="M 106.018,461.622 115.734,461.622 z" id="boundary" inkscape:connector-curvature="0" />
	<path style="fill:none;stroke:red;stroke-width:1px;stroke-linecap:butt;stroke-linejoin:miter;stroke-opacity:1" d="M 96.3017,461.622 106.018,461.622 z" id="boundary" inkscape:connector-curvature="0" />
	<path style="fill:none;stroke:red;stroke-width:1px;stroke-linecap:butt;stroke-linejoin:miter;stroke-opacity:1" d="M 167.228,432.474 176.944,432.474 z" id="boundary" inkscape:connector-curvature="0" />
	<path style="fill:none;stroke:red;stroke-width:1px;stroke-linecap:butt;stroke-linejoin:miter;stroke-opacity:1" d="M 186.66,432.474 176.944,432.474 z" id="boundary" inkscape:connector-curvature="0" />
	<path style="fill:none;stroke:red;stroke-width:1px;stroke-linecap:butt;stroke-linejoin:miter;stroke-opacity:1" d="M 125.45,461.622 135.166,458.707 z" id="boundary" inkscape:connector-curvature="0" />
	<path style="fill:none;stroke:red;stroke-width:1px;stroke-linecap:butt;stroke-linejoin:miter;stroke-opacity:1" d="M 125.45,461.622 115.734,461.622 z" id="boundary" inkscape:connector-curvature="0" />
	<path style="fill:none;stroke:red;stroke-width:1px;stroke-linecap:butt;stroke-linejoin:miter;stroke-opacity:1" d="M 157.512,436.36 152.654,446.076 z" id="boundary" inkscape:connector-curvature="0" />
	<path style="fill:none;stroke:red;stroke-width:1px;stroke-linecap:butt;stroke-linejoin:miter;stroke-opacity:1" d="M 152.654,446.076 144.881,453.849 z" id="boundary" inkscape:connector-curvature="0" />
	<path style="fill:none;stroke:red;stroke-width:1px;stroke-linecap:butt;stroke-linejoin:miter;stroke-opacity:1" d="M 144.881,453.849 135.166,458.707 z" id="boundary" inkscape:connector-curvature="0" />
	<path style="fill:none;stroke:red;stroke-width:1px;stroke-linecap:butt;stroke-linejoin:miter;stroke-opacity:1" d="M 157.512,436.36 167.228,432.474 z" id="boundary" inkscape:connector-curvature="0" />
	<path style="fill:none;stroke:red;stroke-width:1px;stroke-linecap:butt;stroke-linejoin:miter;stroke-opacity:1" d="M 196.376,432.474 206.092,432.474 z" id="boundary" inkscape:connector-curvature="0" />
	<path style="fill:none;stroke:red;stroke-width:1px;stroke-linecap:butt;stroke-linejoin:miter;stroke-opacity:1" d="M 215.808,432.474 225.524,432.474 z" id="boundary" inkscape:connector-curvature="0" />
	<path style="fill:none;stroke:red;stroke-width:1px;stroke-linecap:butt;stroke-linejoin:miter;stroke-opacity:1" d="M 235.24,432.474 244.956,432.474 z" id="boundary" inkscape:connector-curvature="0" />
	<path style="fill:none;stroke:red;stroke-width:1px;stroke-linecap:butt;stroke-linejoin:miter;stroke-opacity:1" d="M 215.808,432.474 206.092,432.474 z" id="boundary" inkscape:connector-curvature="0" />
	<path style="fill:none;stroke:red;stroke-width:1px;stroke-linecap:butt;stroke-linejoin:miter;stroke-opacity:1" d="M 225.524,432.474 235.24,432.474 z" id="boundary" inkscape:connector-curvature="0" />
	<path style="fill:none;stroke:red;stroke-width:1px;stroke-linecap:butt;stroke-linejoin:miter;stroke-opacity:1" d="M 264.388,432.474 274.104,432.474 z" id="boundary" inkscape:connector-curvature="0" />
	<path style="fill:none;stroke:red;stroke-width:1px;stroke-linecap:butt;stroke-linejoin:miter;stroke-opacity:1" d="M 264.388,432.474 254.672,432.474 z" id="boundary" inkscape:connector-curvature="0" />
	<path style="fill:none;stroke:red;stroke-width:1px;stroke-linecap:butt;stroke-linejoin:miter;stroke-opacity:1" d="M 254.672,432.474 244.956,432.474 z" id="boundary" inkscape:connector-curvature="0" />
	<path style="fill:none;stroke:red;stroke-width:1px;stroke-linecap:butt;stroke-linejoin:miter;stroke-opacity:1" d="M 283.82,432.474 293.536,432.474 z" id="boundary" inkscape:connector-curvature="0" />
	<path style="fill:none;stroke:red;stroke-width:1px;stroke-linecap:butt;stroke-linejoin:miter;stroke-opacity:1" d="M 293.536,432.474 302.28,437.332 z" id="boundary" inkscape:connector-curvature="0" />
	<path style="fill:none;stroke:red;stroke-width:1px;stroke-linecap:butt;stroke-linejoin:miter;stroke-opacity:1" d="M 283.82,432.474 274.104,432.474 z" id="boundary" inkscape:connector-curvature="0" />
	<path style="fill:none;stroke:red;stroke-width:1px;stroke-linecap:butt;stroke-linejoin:miter;stroke-opacity:1" d="M 446.076,432.474 437.332,427.616 z" id="boundary" inkscape:connector-curvature="0" />
	<path style="fill:none;stroke:red;stroke-width:1px;stroke-linecap:butt;stroke-linejoin:miter;stroke-opacity:1" d="M 321.712,437.332 311.996,437.332 z" id="boundary" inkscape:connector-curvature="0" />
	<path style="fill:none;stroke:red;stroke-width:1px;stroke-linecap:butt;stroke-linejoin:miter;stroke-opacity:1" d="M 437.332,427.616 427.616,432.474 z" id="boundary" inkscape:connector-curvature="0" />
	<path style="fill:none;stroke:red;stroke-width:1px;stroke-linecap:butt;stroke-linejoin:miter;stroke-opacity:1" d="M 302.28,437.332 311.996,437.332 z" id="boundary" inkscape:connector-curvature="0" />
	<path style="fill:none;stroke:red;stroke-width:1px;stroke-linecap:butt;stroke-linejoin:miter;stroke-opacity:1" d="M 341.144,437.332 331.428,437.332 z" id="boundary" inkscape:connector-curvature="0" />
	<path style="fill:none;stroke:red;stroke-width:1px;stroke-linecap:butt;stroke-linejoin:miter;stroke-opacity:1" d="M 446.076,432.474 450.934,441.218 z" id="boundary" inkscape:connector-curvature="0" />
	<path style="fill:none;stroke:red;stroke-width:1px;stroke-linecap:butt;stroke-linejoin:miter;stroke-opacity:1" d="M 321.712,437.332 331.428,437.332 z" id="boundary" inkscape:connector-curvature="0" />
	<path style="fill:none;stroke:red;stroke-width:1px;stroke-linecap:butt;stroke-linejoin:miter;stroke-opacity:1" d="M 341.144,437.332 350.86,437.332 z" id="boundary" inkscape:connector-curvature="0" />
	<path style="fill:none;stroke:red;stroke-width:1px;stroke-linecap:butt;stroke-linejoin:miter;stroke-opacity:1" d="M 360.576,437.332 370.292,437.332 z" id="boundary" inkscape:connector-curvature="0" />
	<path style="fill:none;stroke:red;stroke-width:1px;stroke-linecap:butt;stroke-linejoin:miter;stroke-opacity:1" d="M 380.008,437.332 389.724,437.332 z" id="boundary" inkscape:connector-curvature="0" />
	<path style="fill:none;stroke:red;stroke-width:1px;stroke-linecap:butt;stroke-linejoin:miter;stroke-opacity:1" d="M 380.008,437.332 370.292,437.332 z" id="boundary" inkscape:connector-curvature="0" />
	<path style="fill:none;stroke:red;stroke-width:1px;stroke-linecap:butt;stroke-linejoin:miter;stroke-opacity:1" d="M 360.576,437.332 350.86,437.332 z" id="boundary" inkscape:connector-curvature="0" />
	<path style="fill:none;stroke:red;stroke-width:1px;stroke-linecap:butt;stroke-linejoin:miter;stroke-opacity:1" d="M 399.44,437.332 409.156,437.332 z" id="boundary" inkscape:connector-curvature="0" />
	<path style="fill:none;stroke:red;stroke-width:1px;stroke-linecap:butt;stroke-linejoin:miter;stroke-opacity:1" d="M 409.156,437.332 418.872,437.332 z" id="boundary" inkscape:connector-curvature="0" />
	<path style="fill:none;stroke:red;stroke-width:1px;stroke-linecap:butt;stroke-linejoin:miter;stroke-opacity:1" d="M 450.934,441.218 452.878,450.934 z" id="boundary" inkscape:connector-curvature="0" />
	<path style="fill:none;stroke:red;stroke-width:1px;stroke-linecap:butt;stroke-linejoin:miter;stroke-opacity:1" d="M 427.616,432.474 418.872,437.332 z" id="boundary" inkscape:connector-curvature="0" />
	<path style="fill:none;stroke:red;stroke-width:1px;stroke-linecap:butt;stroke-linejoin:miter;stroke-opacity:1" d="M 452.878,450.934 457.736,459.679 z" id="boundary" inkscape:connector-curvature="0" />
	<path style="fill:none;stroke:red;stroke-width:1px;stroke-linecap:butt;stroke-linejoin:miter;stroke-opacity:1" d="M 465.508,466.48 457.736,459.679 z" id="boundary" inkscape:connector-curvature="0" />
	<path style="fill:none;stroke:red;stroke-width:1px;stroke-linecap:butt;stroke-linejoin:miter;stroke-opacity:1" d="M 481.054,476.196 471.338,474.253 z" id="boundary" inkscape:connector-curvature="0" />
	<path style="fill:none;stroke:red;stroke-width:1px;stroke-linecap:butt;stroke-linejoin:miter;stroke-opacity:1" d="M 471.338,474.253 465.508,466.48 z" id="boundary" inkscape:connector-curvature="0" />
	<path style="fill:none;stroke:red;stroke-width:1px;stroke-linecap:butt;stroke-linejoin:miter;stroke-opacity:1" d="M 389.724,437.332 399.44,437.332 z" id="boundary" inkscape:connector-curvature="0" />
	<path style="fill:none;stroke:red;stroke-width:1px;stroke-linecap:butt;stroke-linejoin:miter;stroke-opacity:1" d="M 481.054,476.196 489.798,481.054 z" id="boundary" inkscape:connector-curvature="0" />
	<path style="fill:none;stroke:red;stroke-width:1px;stroke-linecap:butt;stroke-linejoin:miter;stroke-opacity:1" d="M 485.912,4 495.628,4 z" id="boundary" inkscape:connector-curvature="0" />
	<path style="fill:none;stroke:red;stroke-width:1px;stroke-linecap:butt;stroke-linejoin:miter;stroke-opacity:1" d="M 505.344,4 515.06,4 z" id="boundary" inkscape:connector-curvature="0" />
	<path style="fill:none;stroke:red;stroke-width:1px;stroke-linecap:butt;stroke-linejoin:miter;stroke-opacity:1" d="M 524.776,4 534.492,4 z" id="boundary" inkscape:connector-curvature="0" />
	<path style="fill:none;stroke:red;stroke-width:1px;stroke-linecap:butt;stroke-linejoin:miter;stroke-opacity:1" d="M 515.06,4 524.776,4 z" id="boundary" inkscape:connector-curvature="0" />
	<path style="fill:none;stroke:red;stroke-width:1px;stroke-linecap:butt;stroke-linejoin:miter;stroke-opacity:1" d="M 544.208,4 553.924,4 z" id="boundary" inkscape:connector-curvature="0" />
	<path style="fill:none;stroke:red;stroke-width:1px;stroke-linecap:butt;stroke-linejoin:miter;stroke-opacity:1" d="M 563.64,4 573.356,4 z" id="boundary" inkscape:connector-curvature="0" />
	<path style="fill:none;stroke:red;stroke-width:1px;stroke-linecap:butt;stroke-linejoin:miter;stroke-opacity:1" d="M 553.924,4 563.64,4 z" id="boundary" inkscape:connector-curvature="0" />
	<path style="fill:none;stroke:red;stroke-width:1px;stroke-linecap:butt;stroke-linejoin:miter;stroke-opacity:1" d="M 534.492,4 544.208,4 z" id="boundary" inkscape:connector-curvature="0" />
	<path style="fill:none;stroke:red;stroke-width:1px;stroke-linecap:butt;stroke-linejoin:miter;stroke-opacity:1" d="M 583.071,4 592.787,4 z" id="boundary" inkscape:connector-curvature="0" />
	<path style="fill:none;stroke:red;stroke-width:1px;stroke-linecap:butt;stroke-linejoin:miter;stroke-opacity:1" d="M 592.787,4 602.503,4 z" id="boundary" inkscape:connector-curvature="0" />
	<path style="fill:none;stroke:red;stroke-width:1px;stroke-linecap:butt;stroke-linejoin:miter;stroke-opacity:1" d="M 612.219,4 621.935,4 z" id="boundary" inkscape:connector-curvature="0" />
	<path style="fill:none;stroke:red;stroke-width:1px;stroke-linecap:butt;stroke-linejoin:miter;stroke-opacity:1" d="M 631.651,4 641.367,4 z" id="boundary" inkscape:connector-curvature="0" />
	<path style="fill:none;stroke:red;stroke-width:1px;stroke-linecap:butt;stroke-linejoin:miter;stroke-opacity:1" d="M 621.935,4 631.651,4 z" id="boundary" inkscape:connector-curvature="0" />
	<path style="fill:none;stroke:red;stroke-width:1px;stroke-linecap:butt;stroke-linejoin:miter;stroke-opacity:1" d="M 602.503,4 612.219,4 z" id="boundary" inkscape:connector-curvature="0" />
	<path style="fill:none;stroke:red;stroke-width:1px;stroke-linecap:butt;stroke-linejoin:miter;stroke-opacity:1" d="M 573.356,4 583.071,4 z" id="boundary" inkscape:connector-curvature="0" />
	<path style="fill:none;stroke:red;stroke-width:1px;stroke-linecap:butt;stroke-linejoin:miter;stroke-opacity:1" d="M 651.083,4 660.799,4 z" id="boundary" inkscape:connector-curvature="0" />
	<path style="fill:none;stroke:red;stroke-width:1px;stroke-linecap:butt;stroke-linejoin:miter;stroke-opacity:1" d="M 670.515,4 680.231,4 z" id="boundary" inkscape:connector-curvature="0" />
	<path style="fill:none;stroke:red;stroke-width:1px;stroke-linecap:butt;stroke-linejoin:miter;stroke-opacity:1" d="M 660.799,4 670.515,4 z" id="boundary" inkscape:connector-curvature="0" />
	<path style="fill:none;stroke:red;stroke-width:1px;stroke-linecap:butt;stroke-linejoin:miter;stroke-opacity:1" d="M 689.947,4 699.663,4 z" id="boundary" inkscape:connector-curvature="0" />
	<path style="fill:none;stroke:red;stroke-width:1px;stroke-linecap:butt;stroke-linejoin:miter;stroke-opacity:1" d="M 709.379,4 718.123,8.85798 z" id="boundary" inkscape:connector-curvature="0" />
	<path style="fill:none;stroke:red;stroke-width:1px;stroke-linecap:butt;stroke-linejoin:miter;stroke-opacity:1" d="M 699.663,4 709.379,4 z" id="boundary" inkscape:connector-curvature="0" />
	<path style="fill:none;stroke:red;stroke-width:1px;stroke-linecap:butt;stroke-linejoin:miter;stroke-opacity:1" d="M 680.231,4 689.947,4 z" id="boundary" inkscape:connector-curvature="0" />
	<path style="fill:none;stroke:red;stroke-width:1px;stroke-linecap:butt;stroke-linejoin:miter;stroke-opacity:1" d="M 718.123,8.85798 726.868,13.716 z" id="boundary" inkscape:connector-curvature="0" />
	<path style="fill:none;stroke:red;stroke-width:1px;stroke-linecap:butt;stroke-linejoin:miter;stroke-opacity:1" d="M 726.868,13.716 735.612,18.5739 z" id="boundary" inkscape:connector-curvature="0" />
	<path style="fill:none;stroke:red;stroke-width:1px;stroke-linecap:butt;stroke-linejoin:miter;stroke-opacity:1" d="M 745.328,18.5739 735.612,18.5739 z" id="boundary" inkscape:connector-curvature="0" />
	<path style="fill:none;stroke:red;stroke-width:1px;stroke-linecap:butt;stroke-linejoin:miter;stroke-opacity:1" d="M 745.328,18.5739 754.072,23.4319 z" id="boundary" inkscape:connector-curvature="0" />
	<path style="fill:none;stroke:red;stroke-width:1px;stroke-linecap:butt;stroke-linejoin:miter;stroke-opacity:1" d="M 761.845,30.2331 767.675,38.0059 z" id="boundary" inkscape:connector-curvature="0" />
	<path style="fill:none;stroke:red;stroke-width:1px;stroke-linecap:butt;stroke-linejoin:miter;stroke-opacity:1" d="M 767.675,38.0059 767.675,47.7218 z" id="boundary" inkscape:connector-curvature="0" />
	<path style="fill:none;stroke:red;stroke-width:1px;stroke-linecap:butt;stroke-linejoin:miter;stroke-opacity:1" d="M 772.533,56.4662 767.675,47.7218 z" id="boundary" inkscape:connector-curvature="0" />
	<path style="fill:none;stroke:red;stroke-width:1px;stroke-linecap:butt;stroke-linejoin:miter;stroke-opacity:1" d="M 777.391,65.2106 772.533,56.4662 z" id="boundary" inkscape:connector-curvature="0" />
	<path style="fill:none;stroke:red;stroke-width:1px;stroke-linecap:butt;stroke-linejoin:miter;stroke-opacity:1" d="M 754.072,23.4319 761.845,30.2331 z" id="boundary" inkscape:connector-curvature="0" />
	<path style="fill:none;stroke:red;stroke-width:1px;stroke-linecap:butt;stroke-linejoin:miter;stroke-opacity:1" d="M 641.367,4 651.083,4 z" id="boundary" inkscape:connector-curvature="0" />
	<path style="fill:none;stroke:red;stroke-width:1px;stroke-linecap:butt;stroke-linejoin:miter;stroke-opacity:1" d="M 777.391,65.2106 777.391,74.9265 z" id="boundary" inkscape:connector-curvature="0" />
	<path style="fill:none;stroke:red;stroke-width:1px;stroke-linecap:butt;stroke-linejoin:miter;stroke-opacity:1" d="M 777.391,74.9265 781.277,84.6425 z" id="boundary" inkscape:connector-curvature="0" />
	<path style="fill:none;stroke:red;stroke-width:1px;stroke-linecap:butt;stroke-linejoin:miter;stroke-opacity:1" d="M 781.277,84.6425 782.249,94.3585 z" id="boundary" inkscape:connector-curvature="0" />
	<path style="fill:none;stroke:red;stroke-width:1px;stroke-linecap:butt;stroke-linejoin:miter;stroke-opacity:1" d="M 782.249,94.3585 787.107,103.103 z" id="boundary" inkscape:connector-curvature="0" />
	<path style="fill:none;stroke:red;stroke-width:1px;stroke-linecap:butt;stroke-linejoin:miter;stroke-opacity:1" d="M 787.107,103.103 790.022,112.819 z" id="boundary" inkscape:connector-curvature="0" />
	<path style="fill:none;stroke:red;stroke-width:1px;stroke-linecap:butt;stroke-linejoin:miter;stroke-opacity:1" d="M 790.022,112.819 791.965,122.535 z" id="boundary" inkscape:connector-curvature="0" />
	<path style="fill:none;stroke:red;stroke-width:1px;stroke-linecap:butt;stroke-linejoin:miter;stroke-opacity:1" d="M 796.823,131.279 791.965,122.535 z" id="boundary" inkscape:connector-curvature="0" />
	<path style="fill:none;stroke:red;stroke-width:1px;stroke-linecap:butt;stroke-linejoin:miter;stroke-opacity:1" d="M 811.397,142.938 801.681,140.024 z" id="boundary" inkscape:connector-curvature="0" />
	<path style="fill:none;stroke:red;stroke-width:1px;stroke-linecap:butt;stroke-linejoin:miter;stroke-opacity:1" d="M 801.681,140.024 796.823,131.279 z" id="boundary" inkscape:connector-curvature="0" />
	<path style="fill:none;stroke:red;stroke-width:1px;stroke-linecap:butt;stroke-linejoin:miter;stroke-opacity:1" d="M 811.397,142.938 821.113,144.881 z" id="boundary" inkscape:connector-curvature="0" />
	<path style="fill:none;stroke:red;stroke-width:1px;stroke-linecap:butt;stroke-linejoin:miter;stroke-opacity:1" d="M 830.829,144.881 840.545,144.881 z" id="boundary" inkscape:connector-curvature="0" />
	<path style="fill:none;stroke:red;stroke-width:1px;stroke-linecap:butt;stroke-linejoin:miter;stroke-opacity:1" d="M 840.545,144.881 849.289,149.739 z" id="boundary" inkscape:connector-curvature="0" />
	<path style="fill:none;stroke:red;stroke-width:1px;stroke-linecap:butt;stroke-linejoin:miter;stroke-opacity:1" d="M 830.829,144.881 821.113,144.881 z" id="boundary" inkscape:connector-curvature="0" />
	<path style="fill:none;stroke:red;stroke-width:1px;stroke-linecap:butt;stroke-linejoin:miter;stroke-opacity:1" d="M 849.289,149.739 859.005,149.739 z" id="boundary" inkscape:connector-curvature="0" />
	<path style="fill:none;stroke:red;stroke-width:1px;stroke-linecap:butt;stroke-linejoin:miter;stroke-opacity:1" d="M 868.721,149.739 878.437,149.739 z" id="boundary" inkscape:connector-curvature="0" />
	<path style="fill:none;stroke:red;stroke-width:1px;stroke-linecap:butt;stroke-linejoin:miter;stroke-opacity:1" d="M 868.721,149.739 859.005,149.739 z" id="boundary" inkscape:connector-curvature="0" />
	<path style="fill:none;stroke:red;stroke-width:1px;stroke-linecap:butt;stroke-linejoin:miter;stroke-opacity:1" d="M 888.153,149.739 897.869,149.739 z" id="boundary" inkscape:connector-curvature="0" />
	<path style="fill:none;stroke:red;stroke-width:1px;stroke-linecap:butt;stroke-linejoin:miter;stroke-opacity:1" d="M 888.153,149.739 878.437,149.739 z" id="boundary" inkscape:connector-curvature="0" />
	<path style="fill:none;stroke:red;stroke-width:1px;stroke-linecap:butt;stroke-linejoin:miter;stroke-opacity:1" d="M 907.585,149.739 917.301,149.739 z" id="boundary" inkscape:connector-curvature="0" />
	<path style="fill:none;stroke:red;stroke-width:1px;stroke-linecap:butt;stroke-linejoin:miter;stroke-opacity:1" d="M 907.585,149.739 897.869,149.739 z" id="boundary" inkscape:connector-curvature="0" />
	<path style="fill:none;stroke:red;stroke-width:1px;stroke-linecap:butt;stroke-linejoin:miter;stroke-opacity:1" d="M 927.017,149.739 936.733,149.739 z" id="boundary" inkscape:connector-curvature="0" />
	<path style="fill:none;stroke:red;stroke-width:1px;stroke-linecap:butt;stroke-linejoin:miter;stroke-opacity:1" d="M 927.017,149.739 917.301,149.739 z" id="boundary" inkscape:connector-curvature="0" />
	<path style="fill:none;stroke:red;stroke-width:1px;stroke-linecap:butt;stroke-linejoin:miter;stroke-opacity:1" d="M 946.449,149.739 956.165,149.739 z" id="boundary" inkscape:connector-curvature="0" />
	<path style="fill:none;stroke:red;stroke-width:1px;stroke-linecap:butt;stroke-linejoin:miter;stroke-opacity:1" d="M 946.449,149.739 936.733,149.739 z" id="boundary" inkscape:connector-curvature="0" />
	<path style="fill:none;stroke:red;stroke-width:1px;stroke-linecap:butt;stroke-linejoin:miter;stroke-opacity:1" d="M 965.881,149.739 975.596,149.739 z" id="boundary" inkscape:connector-curvature="0" />
	<path style="fill:none;stroke:red;stroke-width:1px;stroke-linecap:butt;stroke-linejoin:miter;stroke-opacity:1" d="M 965.881,149.739 956.165,149.739 z" id="boundary" inkscape:connector-curvature="0" />
	<path style="fill:none;stroke:red;stroke-width:1px;stroke-linecap:butt;stroke-linejoin:miter;stroke-opacity:1" d="M 985.312,151.683 991.142,159.455 z" id="boundary" inkscape:connector-curvature="0" />
	<path style="fill:none;stroke:red;stroke-width:1px;stroke-linecap:butt;stroke-linejoin:miter;stroke-opacity:1" d="M 975.596,149.739 985.312,151.683 z" id="boundary" inkscape:connector-curvature="0" />
	<path style="fill:none;stroke:red;stroke-width:1px;stroke-linecap:butt;stroke-linejoin:miter;stroke-opacity:1" d="M 996,168.2 996,177.916 z" id="boundary" inkscape:connector-curvature="0" />
	<path style="fill:none;stroke:red;stroke-width:1px;stroke-linecap:butt;stroke-linejoin:miter;stroke-opacity:1" d="M 991.142,159.455 996,168.2 z" id="boundary" inkscape:connector-curvature="0" />
	<path style="fill:none;stroke:red;stroke-width:1px;stroke-linecap:butt;stroke-linejoin:miter;stroke-opacity:1" d="M 996,187.632 996,197.348 z" id="boundary" inkscape:connector-curvature="0" />
	<path style="fill:none;stroke:red;stroke-width:1px;stroke-linecap:butt;stroke-linejoin:miter;stroke-opacity:1" d="M 996,177.916 996,187.632 z" id="boundary" inkscape:connector-curvature="0" />
	<path style="fill:none;stroke:red;stroke-width:1px;stroke-linecap:butt;stroke-linejoin:miter;stroke-opacity:1" d="M 996,207.064 991.142,223.581 z" id="boundary" inkscape:connector-curvature="0" />
	<path style="fill:none;stroke:red;stroke-width:1px;stroke-linecap:butt;stroke-linejoin:miter;stroke-opacity:1" d="M 996,197.348 996,207.064 z" id="boundary" inkscape:connector-curvature="0" />
	<path style="fill:none;stroke:red;stroke-width:1px;stroke-linecap:butt;stroke-linejoin:miter;stroke-opacity:1" d="M 611.248,417.9 620.964,417.9 z" id="boundary" inkscape:connector-curvature="0" />
	<path style="fill:none;stroke:red;stroke-width:1px;stroke-linecap:butt;stroke-linejoin:miter;stroke-opacity:1" d="M 630.68,417.9 620.964,417.9 z" id="boundary" inkscape:connector-curvature="0" />
	<path style="fill:none;stroke:red;stroke-width:1px;stroke-linecap:butt;stroke-linejoin:miter;stroke-opacity:1" d="M 630.68,417.9 640.396,417.9 z" id="boundary" inkscape:connector-curvature="0" />
	<path style="fill:none;stroke:red;stroke-width:1px;stroke-linecap:butt;stroke-linejoin:miter;stroke-opacity:1" d="M 650.112,417.9 640.396,417.9 z" id="boundary" inkscape:connector-curvature="0" />
	<path style="fill:none;stroke:red;stroke-width:1px;stroke-linecap:butt;stroke-linejoin:miter;stroke-opacity:1" d="M 650.112,417.9 659.828,417.9 z" id="boundary" inkscape:connector-curvature="0" />
	<path style="fill:none;stroke:red;stroke-width:1px;stroke-linecap:butt;stroke-linejoin:miter;stroke-opacity:1" d="M 669.544,417.9 679.26,417.9 z" id="boundary" inkscape:connector-curvature="0" />
	<path style="fill:none;stroke:red;stroke-width:1px;stroke-linecap:butt;stroke-linejoin:miter;stroke-opacity:1" d="M 669.544,417.9 659.828,417.9 z" id="boundary" inkscape:connector-curvature="0" />
	<path style="fill:none;stroke:red;stroke-width:1px;stroke-linecap:butt;stroke-linejoin:miter;stroke-opacity:1" d="M 736.584,413.042 726.868,413.042 z" id="boundary" inkscape:connector-curvature="0" />
	<path style="fill:none;stroke:red;stroke-width:1px;stroke-linecap:butt;stroke-linejoin:miter;stroke-opacity:1" d="M 763.788,403.326 755.044,408.184 z" id="boundary" inkscape:connector-curvature="0" />
	<path style="fill:none;stroke:red;stroke-width:1px;stroke-linecap:butt;stroke-linejoin:miter;stroke-opacity:1" d="M 763.788,403.326 773.504,403.326 z" id="boundary" inkscape:connector-curvature="0" />
	<path style="fill:none;stroke:red;stroke-width:1px;stroke-linecap:butt;stroke-linejoin:miter;stroke-opacity:1" d="M 782.249,398.468 773.504,403.326 z" id="boundary" inkscape:connector-curvature="0" />
	<path style="fill:none;stroke:red;stroke-width:1px;stroke-linecap:butt;stroke-linejoin:miter;stroke-opacity:1" d="M 688.976,417.9 679.26,417.9 z" id="boundary" inkscape:connector-curvature="0" />
	<path style="fill:none;stroke:red;stroke-width:1px;stroke-linecap:butt;stroke-linejoin:miter;stroke-opacity:1" d="M 746.3,413.042 755.044,408.184 z" id="boundary" inkscape:connector-curvature="0" />
	<path style="fill:none;stroke:red;stroke-width:1px;stroke-linecap:butt;stroke-linejoin:miter;stroke-opacity:1" d="M 688.976,417.9 698.691,417.9 z" id="boundary" inkscape:connector-curvature="0" />
	<path style="fill:none;stroke:red;stroke-width:1px;stroke-linecap:butt;stroke-linejoin:miter;stroke-opacity:1" d="M 718.123,417.9 726.868,413.042 z" id="boundary" inkscape:connector-curvature="0" />
	<path style="fill:none;stroke:red;stroke-width:1px;stroke-linecap:butt;stroke-linejoin:miter;stroke-opacity:1" d="M 746.3,413.042 736.584,413.042 z" id="boundary" inkscape:connector-curvature="0" />
	<path style="fill:none;stroke:red;stroke-width:1px;stroke-linecap:butt;stroke-linejoin:miter;stroke-opacity:1" d="M 708.407,417.9 698.691,417.9 z" id="boundary" inkscape:connector-curvature="0" />
	<path style="fill:none;stroke:red;stroke-width:1px;stroke-linecap:butt;stroke-linejoin:miter;stroke-opacity:1" d="M 489.798,481.054 499.514,481.054 z" id="boundary" inkscape:connector-curvature="0" />
	<path style="fill:none;stroke:red;stroke-width:1px;stroke-linecap:butt;stroke-linejoin:miter;stroke-opacity:1" d="M 509.23,481.054 499.514,481.054 z" id="boundary" inkscape:connector-curvature="0" />
	<path style="fill:none;stroke:red;stroke-width:1px;stroke-linecap:butt;stroke-linejoin:miter;stroke-opacity:1" d="M 509.23,481.054 517.975,485.912 z" id="boundary" inkscape:connector-curvature="0" />
	<path style="fill:none;stroke:red;stroke-width:1px;stroke-linecap:butt;stroke-linejoin:miter;stroke-opacity:1" d="M 527.69,485.912 517.975,485.912 z" id="boundary" inkscape:connector-curvature="0" />
	<path style="fill:none;stroke:red;stroke-width:1px;stroke-linecap:butt;stroke-linejoin:miter;stroke-opacity:1" d="M 547.122,485.912 537.406,485.912 z" id="boundary" inkscape:connector-curvature="0" />
	<path style="fill:none;stroke:red;stroke-width:1px;stroke-linecap:butt;stroke-linejoin:miter;stroke-opacity:1" d="M 555.867,481.054 547.122,485.912 z" id="boundary" inkscape:connector-curvature="0" />
	<path style="fill:none;stroke:red;stroke-width:1px;stroke-linecap:butt;stroke-linejoin:miter;stroke-opacity:1" d="M 537.406,485.912 527.69,485.912 z" id="boundary" inkscape:connector-curvature="0" />
	<path style="fill:none;stroke:red;stroke-width:1px;stroke-linecap:butt;stroke-linejoin:miter;stroke-opacity:1" d="M 555.867,481.054 564.611,476.196 z" id="boundary" inkscape:connector-curvature="0" />
	<path style="fill:none;stroke:red;stroke-width:1px;stroke-linecap:butt;stroke-linejoin:miter;stroke-opacity:1" d="M 602.503,422.758 611.248,417.9 z" id="boundary" inkscape:connector-curvature="0" />
	<path style="fill:none;stroke:red;stroke-width:1px;stroke-linecap:butt;stroke-linejoin:miter;stroke-opacity:1" d="M 597.645,432.474 602.503,422.758 z" id="boundary" inkscape:connector-curvature="0" />
	<path style="fill:none;stroke:red;stroke-width:1px;stroke-linecap:butt;stroke-linejoin:miter;stroke-opacity:1" d="M 590.844,445.105 597.645,432.474 z" id="boundary" inkscape:connector-curvature="0" />
	<path style="fill:none;stroke:red;stroke-width:1px;stroke-linecap:butt;stroke-linejoin:miter;stroke-opacity:1" d="M 718.123,417.9 708.407,417.9 z" id="boundary" inkscape:connector-curvature="0" />
	<path style="fill:none;stroke:red;stroke-width:1px;stroke-linecap:butt;stroke-linejoin:miter;stroke-opacity:1" d="M 573.356,471.338 564.611,476.196 z" id="boundary" inkscape:connector-curvature="0" />
	<path style="fill:none;stroke:red;stroke-width:1px;stroke-linecap:butt;stroke-linejoin:miter;stroke-opacity:1" d="M 578.214,461.622 573.356,471.338 z" id="boundary" inkscape:connector-curvature="0" />
	<path style="fill:none;stroke:red;stroke-width:1px;stroke-linecap:butt;stroke-linejoin:miter;stroke-opacity:1" d="M 578.214,461.622 583.071,451.906 z" id="boundary" inkscape:connector-curvature="0" />
	<path style="fill:none;stroke:red;stroke-width:1px;stroke-linecap:butt;stroke-linejoin:miter;stroke-opacity:1" d="M 583.071,451.906 590.844,445.105 z" id="boundary" inkscape:connector-curvature="0" />
	<path style="fill:none;stroke:red;stroke-width:1px;stroke-linecap:butt;stroke-linejoin:miter;stroke-opacity:1" d="M 952.278,315.882 947.42,325.598 z" id="boundary" inkscape:connector-curvature="0" />
	<path style="fill:none;stroke:red;stroke-width:1px;stroke-linecap:butt;stroke-linejoin:miter;stroke-opacity:1" d="M 947.42,325.598 937.704,330.456 z" id="boundary" inkscape:connector-curvature="0" />
	<path style="fill:none;stroke:red;stroke-width:1px;stroke-linecap:butt;stroke-linejoin:miter;stroke-opacity:1" d="M 961.994,296.451 957.136,306.167 z" id="boundary" inkscape:connector-curvature="0" />
	<path style="fill:none;stroke:red;stroke-width:1px;stroke-linecap:butt;stroke-linejoin:miter;stroke-opacity:1" d="M 957.136,306.167 952.278,315.882 z" id="boundary" inkscape:connector-curvature="0" />
	<path style="fill:none;stroke:red;stroke-width:1px;stroke-linecap:butt;stroke-linejoin:miter;stroke-opacity:1" d="M 913.414,349.888 918.272,335.314 z" id="boundary" inkscape:connector-curvature="0" />
	<path style="fill:none;stroke:red;stroke-width:1px;stroke-linecap:butt;stroke-linejoin:miter;stroke-opacity:1" d="M 918.272,335.314 927.988,335.314 z" id="boundary" inkscape:connector-curvature="0" />
	<path style="fill:none;stroke:red;stroke-width:1px;stroke-linecap:butt;stroke-linejoin:miter;stroke-opacity:1" d="M 927.988,335.314 937.704,330.456 z" id="boundary" inkscape:connector-curvature="0" />
	<path style="fill:none;stroke:red;stroke-width:1px;stroke-linecap:butt;stroke-linejoin:miter;stroke-opacity:1" d="M 908.556,359.604 913.414,349.888 z" id="boundary" inkscape:connector-curvature="0" />
	<path style="fill:none;stroke:red;stroke-width:1px;stroke-linecap:butt;stroke-linejoin:miter;stroke-opacity:1" d="M 971.71,247.871 979.483,241.07 z" id="boundary" inkscape:connector-curvature="0" />
	<path style="fill:none;stroke:red;stroke-width:1px;stroke-linecap:butt;stroke-linejoin:miter;stroke-opacity:1" d="M 971.71,257.587 971.71,247.871 z" id="boundary" inkscape:connector-curvature="0" />
	<path style="fill:none;stroke:red;stroke-width:1px;stroke-linecap:butt;stroke-linejoin:miter;stroke-opacity:1" d="M 986.284,233.297 991.142,223.581 z" id="boundary" inkscape:connector-curvature="0" />
	<path style="fill:none;stroke:red;stroke-width:1px;stroke-linecap:butt;stroke-linejoin:miter;stroke-opacity:1" d="M 986.284,233.297 979.483,241.07 z" id="boundary" inkscape:connector-curvature="0" />
	<path style="fill:none;stroke:red;stroke-width:1px;stroke-linecap:butt;stroke-linejoin:miter;stroke-opacity:1" d="M 966.852,277.019 966.852,286.735 z" id="boundary" inkscape:connector-curvature="0" />
	<path style="fill:none;stroke:red;stroke-width:1px;stroke-linecap:butt;stroke-linejoin:miter;stroke-opacity:1" d="M 966.852,286.735 961.994,296.451 z" id="boundary" inkscape:connector-curvature="0" />
	<path style="fill:none;stroke:red;stroke-width:1px;stroke-linecap:butt;stroke-linejoin:miter;stroke-opacity:1" d="M 966.852,277.019 971.71,267.303 z" id="boundary" inkscape:connector-curvature="0" />
	<path style="fill:none;stroke:red;stroke-width:1px;stroke-linecap:butt;stroke-linejoin:miter;stroke-opacity:1" d="M 971.71,257.587 971.71,267.303 z" id="boundary" inkscape:connector-curvature="0" />
	<path style="fill:none;stroke:red;stroke-width:1px;stroke-linecap:butt;stroke-linejoin:miter;stroke-opacity:1" d="M 791.965,398.468 782.249,398.468 z" id="boundary" inkscape:connector-curvature="0" />
	<path style="fill:none;stroke:red;stroke-width:1px;stroke-linecap:butt;stroke-linejoin:miter;stroke-opacity:1" d="M 801.681,400.411 808.482,408.184 z" id="boundary" inkscape:connector-curvature="0" />
	<path style="fill:none;stroke:red;stroke-width:1px;stroke-linecap:butt;stroke-linejoin:miter;stroke-opacity:1" d="M 791.965,398.468 801.681,400.411 z" id="boundary" inkscape:connector-curvature="0" />
	<path style="fill:none;stroke:red;stroke-width:1px;stroke-linecap:butt;stroke-linejoin:miter;stroke-opacity:1" d="M 816.255,414.985 808.482,408.184 z" id="boundary" inkscape:connector-curvature="0" />
	<path style="fill:none;stroke:red;stroke-width:1px;stroke-linecap:butt;stroke-linejoin:miter;stroke-opacity:1" d="M 816.255,414.985 823.056,422.758 z" id="boundary" inkscape:connector-curvature="0" />
	<path style="fill:none;stroke:red;stroke-width:1px;stroke-linecap:butt;stroke-linejoin:miter;stroke-opacity:1" d="M 832.772,426.644 823.056,422.758 z" id="boundary" inkscape:connector-curvature="0" />
	<path style="fill:none;stroke:red;stroke-width:1px;stroke-linecap:butt;stroke-linejoin:miter;stroke-opacity:1" d="M 832.772,426.644 842.488,427.616 z" id="boundary" inkscape:connector-curvature="0" />
	<path style="fill:none;stroke:red;stroke-width:1px;stroke-linecap:butt;stroke-linejoin:miter;stroke-opacity:1" d="M 889.124,393.61 896.897,386.809 z" id="boundary" inkscape:connector-curvature="0" />
	<path style="fill:none;stroke:red;stroke-width:1px;stroke-linecap:butt;stroke-linejoin:miter;stroke-opacity:1" d="M 884.266,403.326 889.124,393.61 z" id="boundary" inkscape:connector-curvature="0" />
	<path style="fill:none;stroke:red;stroke-width:1px;stroke-linecap:butt;stroke-linejoin:miter;stroke-opacity:1" d="M 903.698,374.178 896.897,386.809 z" id="boundary" inkscape:connector-curvature="0" />
	<path style="fill:none;stroke:red;stroke-width:1px;stroke-linecap:butt;stroke-linejoin:miter;stroke-opacity:1" d="M 903.698,374.178 908.556,359.604 z" id="boundary" inkscape:connector-curvature="0" />
	<path style="fill:none;stroke:red;stroke-width:1px;stroke-linecap:butt;stroke-linejoin:miter;stroke-opacity:1" d="M 860.948,422.758 852.204,427.616 z" id="boundary" inkscape:connector-curvature="0" />
	<path style="fill:none;stroke:red;stroke-width:1px;stroke-linecap:butt;stroke-linejoin:miter;stroke-opacity:1" d="M 852.204,427.616 842.488,427.616 z" id="boundary" inkscape:connector-curvature="0" />
	<path style="fill:none;stroke:red;stroke-width:1px;stroke-linecap:butt;stroke-linejoin:miter;stroke-opacity:1" d="M 869.692,417.9 860.948,422.758 z" id="boundary" inkscape:connector-curvature="0" />
	<path style="fill:none;stroke:red;stroke-width:1px;stroke-linecap:butt;stroke-linejoin:miter;stroke-opacity:1" d="M 877.465,411.099 869.692,417.9 z" id="boundary" inkscape:connector-curvature="0" />
	<path style="fill:none;stroke:red;stroke-width:1px;stroke-linecap:butt;stroke-linejoin:miter;stroke-opacity:1" d="M 884.266,403.326 877.465,411.099 z" id="boundary" inkscape:connector-curvature="0" />
	<path style="fill:none;stroke:red;stroke-width:1px;stroke-linecap:butt;stroke-linejoin:miter;stroke-opacity:1" d="M 495.628,4 505.344,4 z" id="boundary" inkscape:connector-curvature="0" />
	<circle cx="4" cy="240.098" r="4" fill="#0" id="circle0"/>
	<circle cx="4" cy="249.814" r="4" fill="#0" id="circle1"/>
	<circle cx="4" cy="259.53" r="4" fill="#0" id="circle2"/>
	<circle cx="4" cy="269.246" r="4" fill="#0" id="circle3"/>
	<circle cx="8.85798" cy="230.382" r="4" fill="#0" id="circle4"/>
	<circle cx="8.85798" cy="277.99" r="4" fill="#0" id="circle5"/>
	<circle cx="15.6592" cy="285.763" r="4" fill="#0" id="circle6"/>
	<circle cx="16.6308" cy="222.609" r="4" fill="#0" id="circle7"/>
	<circle cx="23.4319" cy="291.593" r="4" fill="#0" id="circle8"/>
	<circle cx="25.3751" cy="217.751" r="4" fill="#0" id="circle9"/>
	<circle cx="26.3467" cy="301.309" r="4" fill="#0" id="circle10"/>
	<circle cx="28.2899" cy="311.024" r="4" fill="#0" id="circle11"/>
	<circle cx="28.2899" cy="320.74" r="4" fill="#0" id="circle12"/>
	<circle cx="28.2899" cy="330.456" r="4" fill="#0" id="circle13"/>
	<circle cx="28.2899" cy="340.172" r="4" fill="#0" id="circle14"/>
	<circle cx="28.2899" cy="349.888" r="4" fill="#0" id="circle15"/>
	<circle cx="28.2899" cy="359.604" r="4" fill="#0" id="circle16"/>
	<circle cx="28.2899" cy="369.32" r="4" fill="#0" id="circle17"/>
	<circle cx="31.2047" cy="379.036" r="4" fill="#0" id="circle18"/>
	<circle cx="33.1479" cy="210.95" r="4" fill="#0" id="circle19"/>
	<circle cx="33.1479" cy="388.752" r="4" fill="#0" id="circle20"/>
	<circle cx="38.9775" cy="396.525" r="4" fill="#0" id="circle21"/>
	<circle cx="42.8639" cy="206.092" r="4" fill="#0" id="circle22"/>
	<circle cx="46.7502" cy="403.326" r="4" fill="#0" id="circle23"/>
	<circle cx="52.5798" cy="203.177" r="4" fill="#0" id="circle24"/>
	<circle cx="55.4946" cy="408.184" r="4" fill="#0" id="circle25"/>
	<circle cx="57.4378" cy="417.9" r="4" fill="#0" id="circle26"/>
	<circle cx="57.4378" cy="427.616" r="4" fill="#0" id="circle27"/>
	<circle cx="57.4378" cy="437.332" r="4" fill="#0" id="circle28"/>
	<circle cx="61.3242" cy="198.319" r="4" fill="#0" id="circle29"/>
	<circle cx="62.2958" cy="446.076" r="4" fill="#0" id="circle30"/>
	<circle cx="68.1254" cy="453.849" r="4" fill="#0" id="circle31"/>
	<circle cx="71.0402" cy="198.319" r="4" fill="#0" id="circle32"/>
	<circle cx="76.8697" cy="458.707" r="4" fill="#0" id="circle33"/>
	<circle cx="79.7845" cy="193.461" r="4" fill="#0" id="circle34"/>
	<circle cx="86.5857" cy="461.622" r="4" fill="#0" id="circle35"/>
	<circle cx="89.5005" cy="188.603" r="4" fill="#0" id="circle36"/>
	<circle cx="96.3017" cy="461.622" r="4" fill="#0" id="circle37"/>
	<circle cx="99.2165" cy="188.603" r="4" fill="#0" id="circle38"/>
	<circle cx="106.018" cy="461.622" r="4" fill="#0" id="circle39"/>
	<circle cx="108.932" cy="188.603" r="4" fill="#0" id="circle40"/>
	<circle cx="115.734" cy="461.622" r="4" fill="#0" id="circle41"/>
	<circle cx="117.677" cy="183.745" r="4" fill="#0" id="circle42"/>
	<circle cx="125.45" cy="461.622" r="4" fill="#0" id="circle43"/>
	<circle cx="127.393" cy="183.745" r="4" fill="#0" id="circle44"/>
	<circle cx="135.166" cy="458.707" r="4" fill="#0" id="circle45"/>
	<circle cx="137.109" cy="183.745" r="4" fill="#0" id="circle46"/>
	<circle cx="144.881" cy="453.849" r="4" fill="#0" id="circle47"/>
	<circle cx="146.825" cy="179.859" r="4" fill="#0" id="circle48"/>
	<circle cx="152.654" cy="446.076" r="4" fill="#0" id="circle49"/>
	<circle cx="156.541" cy="178.887" r="4" fill="#0" id="circle50"/>
	<circle cx="157.512" cy="436.36" r="4" fill="#0" id="circle51"/>
	<circle cx="166.257" cy="178.887" r="4" fill="#0" id="circle52"/>
	<circle cx="167.228" cy="432.474" r="4" fill="#0" id="circle53"/>
	<circle cx="175.973" cy="178.887" r="4" fill="#0" id="circle54"/>
	<circle cx="176.944" cy="432.474" r="4" fill="#0" id="circle55"/>
	<circle cx="185.689" cy="175.001" r="4" fill="#0" id="circle56"/>
	<circle cx="186.66" cy="432.474" r="4" fill="#0" id="circle57"/>
	<circle cx="195.405" cy="174.029" r="4" fill="#0" id="circle58"/>
	<circle cx="196.376" cy="432.474" r="4" fill="#0" id="circle59"/>
	<circle cx="205.12" cy="174.029" r="4" fill="#0" id="circle60"/>
	<circle cx="206.092" cy="432.474" r="4" fill="#0" id="circle61"/>
	<circle cx="213.865" cy="169.171" r="4" fill="#0" id="circle62"/>
	<circle cx="215.808" cy="432.474" r="4" fill="#0" id="circle63"/>
	<circle cx="223.581" cy="169.171" r="4" fill="#0" id="circle64"/>
	<circle cx="225.524" cy="432.474" r="4" fill="#0" id="circle65"/>
	<circle cx="233.297" cy="169.171" r="4" fill="#0" id="circle66"/>
	<circle cx="235.24" cy="432.474" r="4" fill="#0" id="circle67"/>
	<circle cx="242.041" cy="164.313" r="4" fill="#0" id="circle68"/>
	<circle cx="244.956" cy="432.474" r="4" fill="#0" id="circle69"/>
	<circle cx="250.786" cy="159.455" r="4" fill="#0" id="circle70"/>
	<circle cx="254.672" cy="432.474" r="4" fill="#0" id="circle71"/>
	<circle cx="259.53" cy="154.597" r="4" fill="#0" id="circle72"/>
	<circle cx="264.388" cy="432.474" r="4" fill="#0" id="circle73"/>
	<circle cx="269.246" cy="154.597" r="4" fill="#0" id="circle74"/>
	<circle cx="271.189" cy="133.222" r="4" fill="#0" id="circle75"/>
	<circle cx="271.189" cy="142.938" r="4" fill="#0" id="circle76"/>
	<circle cx="274.104" cy="432.474" r="4" fill="#0" id="circle77"/>
	<circle cx="278.962" cy="125.45" r="4" fill="#0" id="circle78"/>
	<circle cx="283.82" cy="432.474" r="4" fill="#0" id="circle79"/>
	<circle cx="287.706" cy="120.592" r="4" fill="#0" id="circle80"/>
	<circle cx="293.536" cy="432.474" r="4" fill="#0" id="circle81"/>
	<circle cx="297.422" cy="120.592" r="4" fill="#0" id="circle82"/>
	<circle cx="302.28" cy="437.332" r="4" fill="#0" id="circle83"/>
	<circle cx="307.138" cy="120.592" r="4" fill="#0" id="circle84"/>
	<circle cx="311.996" cy="437.332" r="4" fill="#0" id="circle85"/>
	<circle cx="314.911" cy="113.79" r="4" fill="#0" id="circle86"/>
	<circle cx="319.769" cy="104.074" r="4" fill="#0" id="circle87"/>
	<circle cx="321.712" cy="437.332" r="4" fill="#0" id="circle88"/>
	<circle cx="327.542" cy="96.3017" r="4" fill="#0" id="circle89"/>
	<circle cx="331.428" cy="437.332" r="4" fill="#0" id="circle90"/>
	<circle cx="336.286" cy="91.4437" r="4" fill="#0" id="circle91"/>
	<circle cx="341.144" cy="437.332" r="4" fill="#0" id="circle92"/>
	<circle cx="345.03" cy="86.5857" r="4" fill="#0" id="circle93"/>
	<circle cx="350.86" cy="437.332" r="4" fill="#0" id="circle94"/>
	<circle cx="354.746" cy="86.5857" r="4" fill="#0" id="circle95"/>
	<circle cx="360.576" cy="437.332" r="4" fill="#0" id="circle96"/>
	<circle cx="364.462" cy="86.5857" r="4" fill="#0" id="circle97"/>
	<circle cx="370.292" cy="437.332" r="4" fill="#0" id="circle98"/>
	<circle cx="374.178" cy="86.5857" r="4" fill="#0" id="circle99"/>
	<circle cx="380.008" cy="437.332" r="4" fill="#0" id="circle100"/>
	<circle cx="382.923" cy="91.4437" r="4" fill="#0" id="circle101"/>
	<circle cx="389.724" cy="437.332" r="4" fill="#0" id="circle102"/>
	<circle cx="392.639" cy="91.4437" r="4" fill="#0" id="circle103"/>
	<circle cx="399.44" cy="437.332" r="4" fill="#0" id="circle104"/>
	<circle cx="400.411" cy="97.2733" r="4" fill="#0" id="circle105"/>
	<circle cx="408.184" cy="104.074" r="4" fill="#0" id="circle106"/>
	<circle cx="409.156" cy="437.332" r="4" fill="#0" id="circle107"/>
	<circle cx="417.9" cy="106.018" r="4" fill="#0" id="circle108"/>
	<circle cx="418.872" cy="437.332" r="4" fill="#0" id="circle109"/>
	<circle cx="426.644" cy="65.2106" r="4" fill="#0" id="circle110"/>
	<circle cx="426.644" cy="74.9265" r="4" fill="#0" id="circle111"/>
	<circle cx="426.644" cy="84.6425" r="4" fill="#0" id="circle112"/>
	<circle cx="426.644" cy="94.3585" r="4" fill="#0" id="circle113"/>
	<circle cx="427.616" cy="432.474" r="4" fill="#0" id="circle114"/>
	<circle cx="431.502" cy="50.6366" r="4" fill="#0" id="circle115"/>
	<circle cx="436.36" cy="36.0627" r="4" fill="#0" id="circle116"/>
	<circle cx="437.332" cy="427.616" r="4" fill="#0" id="circle117"/>
	<circle cx="441.218" cy="26.3467" r="4" fill="#0" id="circle118"/>
	<circle cx="442.19" cy="417.9" r="4" fill="#0" id="circle119"/>
	<circle cx="446.076" cy="432.474" r="4" fill="#0" id="circle120"/>
	<circle cx="448.991" cy="18.5739" r="4" fill="#0" id="circle121"/>
	<circle cx="450.934" cy="441.218" r="4" fill="#0" id="circle122"/>
	<circle cx="452.878" cy="450.934" r="4" fill="#0" id="circle123"/>
	<circle cx="456.764" cy="10.8012" r="4" fill="#0" id="circle124"/>
	<circle cx="457.736" cy="459.679" r="4" fill="#0" id="circle125"/>
	<circle cx="465.508" cy="466.48" r="4" fill="#0" id="circle126"/>
	<circle cx="466.48" cy="5.94319" r="4" fill="#0" id="circle127"/>
	<circle cx="471.338" cy="474.253" r="4" fill="#0" id="circle128"/>
	<circle cx="476.196" cy="4" r="4" fill="#0" id="circle129"/>
	<circle cx="481.054" cy="476.196" r="4" fill="#0" id="circle130"/>
	<circle cx="485.912" cy="4" r="4" fill="#0" id="circle131"/>
	<circle cx="489.798" cy="481.054" r="4" fill="#0" id="circle132"/>
	<circle cx="495.628" cy="4" r="4" fill="#0" id="circle133"/>
	<circle cx="499.514" cy="481.054" r="4" fill="#0" id="circle134"/>
	<circle cx="505.344" cy="4" r="4" fill="#0" id="circle135"/>
	<circle cx="509.23" cy="481.054" r="4" fill="#0" id="circle136"/>
	<circle cx="515.06" cy="4" r="4" fill="#0" id="circle137"/>
	<circle cx="517.975" cy="485.912" r="4" fill="#0" id="circle138"/>
	<circle cx="524.776" cy="4" r="4" fill="#0" id="circle139"/>
	<circle cx="527.69" cy="485.912" r="4" fill="#0" id="circle140"/>
	<circle cx="534.492" cy="4" r="4" fill="#0" id="circle141"/>
	<circle cx="537.406" cy="485.912" r="4" fill="#0" id="circle142"/>
	<circle cx="544.208" cy="4" r="4" fill="#0" id="circle143"/>
	<circle cx="547.122" cy="485.912" r="4" fill="#0" id="circle144"/>
	<circle cx="553.924" cy="4" r="4" fill="#0" id="circle145"/>
	<circle cx="555.867" cy="481.054" r="4" fill="#0" id="circle146"/>
	<circle cx="563.64" cy="4" r="4" fill="#0" id="circle147"/>
	<circle cx="564.611" cy="476.196" r="4" fill="#0" id="circle148"/>
	<circle cx="573.356" cy="4" r="4" fill="#0" id="circle149"/>
	<circle cx="573.356" cy="471.338" r="4" fill="#0" id="circle150"/>
	<circle cx="578.214" cy="461.622" r="4" fill="#0" id="circle151"/>
	<circle cx="583.071" cy="4" r="4" fill="#0" id="circle152"/>
	<circle cx="583.071" cy="451.906" r="4" fill="#0" id="circle153"/>
	<circle cx="590.844" cy="445.105" r="4" fill="#0" id="circle154"/>
	<circle cx="592.787" cy="4" r="4" fill="#0" id="circle155"/>
	<circle cx="597.645" cy="432.474" r="4" fill="#0" id="circle156"/>
	<circle cx="602.503" cy="4" r="4" fill="#0" id="circle157"/>
	<circle cx="602.503" cy="422.758" r="4" fill="#0" id="circle158"/>
	<circle cx="611.248" cy="417.9" r="4" fill="#0" id="circle159"/>
	<circle cx="612.219" cy="4" r="4" fill="#0" id="circle160"/>
	<circle cx="620.964" cy="417.9" r="4" fill="#0" id="circle161"/>
	<circle cx="621.935" cy="4" r="4" fill="#0" id="circle162"/>
	<circle cx="630.68" cy="417.9" r="4" fill="#0" id="circle163"/>
	<circle cx="631.651" cy="4" r="4" fill="#0" id="circle164"/>
	<circle cx="640.396" cy="417.9" r="4" fill="#0" id="circle165"/>
	<circle cx="641.367" cy="4" r="4" fill="#0" id="circle166"/>
	<circle cx="650.112" cy="417.9" r="4" fill="#0" id="circle167"/>
	<circle cx="651.083" cy="4" r="4" fill="#0" id="circle168"/>
	<circle cx="659.828" cy="417.9" r="4" fill="#0" id="circle169"/>
	<circle cx="660.799" cy="4" r="4" fill="#0" id="circle170"/>
	<circle cx="669.544" cy="417.9" r="4" fill="#0" id="circle171"/>
	<circle cx="670.515" cy="4" r="4" fill="#0" id="circle172"/>
	<circle cx="679.26" cy="417.9" r="4" fill="#0" id="circle173"/>
	<circle cx="680.231" cy="4" r="4" fill="#0" id="circle174"/>
	<circle cx="688.976" cy="417.9" r="4" fill="#0" id="circle175"/>
	<circle cx="689.947" cy="4" r="4" fill="#0" id="circle176"/>
	<circle cx="698.691" cy="417.9" r="4" fill="#0" id="circle177"/>
	<circle cx="699.663" cy="4" r="4" fill="#0" id="circle178"/>
	<circle cx="708.407" cy="417.9" r="4" fill="#0" id="circle179"/>
	<circle cx="709.379" cy="4" r="4" fill="#0" id="circle180"/>
	<circle cx="718.123" cy="8.85798" r="4" fill="#0" id="circle181"/>
	<circle cx="718.123" cy="417.9" r="4" fill="#0" id="circle182"/>
	<circle cx="726.868" cy="13.716" r="4" fill="#0" id="circle183"/>
	<circle cx="726.868" cy="413.042" r="4" fill="#0" id="circle184"/>
	<circle cx="735.612" cy="18.5739" r="4" fill="#0" id="circle185"/>
	<circle cx="736.584" cy="413.042" r="4" fill="#0" id="circle186"/>
	<circle cx="745.328" cy="18.5739" r="4" fill="#0" id="circle187"/>
	<circle cx="746.3" cy="413.042" r="4" fill="#0" id="circle188"/>
	<circle cx="754.072" cy="23.4319" r="4" fill="#0" id="circle189"/>
	<circle cx="755.044" cy="408.184" r="4" fill="#0" id="circle190"/>
	<circle cx="761.845" cy="30.2331" r="4" fill="#0" id="circle191"/>
	<circle cx="763.788" cy="403.326" r="4" fill="#0" id="circle192"/>
	<circle cx="767.675" cy="38.0059" r="4" fill="#0" id="circle193"/>
	<circle cx="767.675" cy="47.7218" r="4" fill="#0" id="circle194"/>
	<circle cx="772.533" cy="56.4662" r="4" fill="#0" id="circle195"/>
	<circle cx="773.504" cy="403.326" r="4" fill="#0" id="circle196"/>
	<circle cx="777.391" cy="65.2106" r="4" fill="#0" id="circle197"/>
	<circle cx="777.391" cy="74.9265" r="4" fill="#0" id="circle198"/>
	<circle cx="781.277" cy="84.6425" r="4" fill="#0" id="circle199"/>
	<circle cx="782.249" cy="94.3585" r="4" fill="#0" id="circle200"/>
	<circle cx="782.249" cy="398.468" r="4" fill="#0" id="circle201"/>
	<circle cx="787.107" cy="103.103" r="4" fill="#0" id="circle202"/>
	<circle cx="790.022" cy="112.819" r="4" fill="#0" id="circle203"/>
	<circle cx="791.965" cy="122.535" r="4" fill="#0" id="circle204"/>
	<circle cx="791.965" cy="398.468" r="4" fill="#0" id="circle205"/>
	<circle cx="796.823" cy="131.279" r="4" fill="#0" id="circle206"/>
	<circle cx="801.681" cy="140.024" r="4" fill="#0" id="circle207"/>
	<circle cx="801.681" cy="400.411" r="4" fill="#0" id="circle208"/>
	<circle cx="808.482" cy="408.184" r="4" fill="#0" id="circle209"/>
	<circle cx="811.397" cy="142.938" r="4" fill="#0" id="circle210"/>
	<circle cx="816.255" cy="414.985" r="4" fill="#0" id="circle211"/>
	<circle cx="821.113" cy="144.881" r="4" fill="#0" id="circle212"/>
	<circle cx="823.056" cy="422.758" r="4" fill="#0" id="circle213"/>
	<circle cx="830.829" cy="144.881" r="4" fill="#0" id="circle214"/>
	<circle cx="832.772" cy="426.644" r="4" fill="#0" id="circle215"/>
	<circle cx="840.545" cy="144.881" r="4" fill="#0" id="circle216"/>
	<circle cx="842.488" cy="427.616" r="4" fill="#0" id="circle217"/>
	<circle cx="849.289" cy="149.739" r="4" fill="#0" id="circle218"/>
	<circle cx="852.204" cy="427.616" r="4" fill="#0" id="circle219"/>
	<circle cx="859.005" cy="149.739" r="4" fill="#0" id="circle220"/>
	<circle cx="860.948" cy="422.758" r="4" fill="#0" id="circle221"/>
	<circle cx="868.721" cy="149.739" r="4" fill="#0" id="circle222"/>
	<circle cx="869.692" cy="417.9" r="4" fill="#0" id="circle223"/>
	<circle cx="877.465" cy="411.099" r="4" fill="#0" id="circle224"/>
	<circle cx="878.437" cy="149.739" r="4" fill="#0" id="circle225"/>
	<circle cx="884.266" cy="403.326" r="4" fill="#0" id="circle226"/>
	<circle cx="888.153" cy="149.739" r="4" fill="#0" id="circle227"/>
	<circle cx="889.124" cy="393.61" r="4" fill="#0" id="circle228"/>
	<circle cx="896.897" cy="386.809" r="4" fill="#0" id="circle229"/>
	<circle cx="897.869" cy="149.739" r="4" fill="#0" id="circle230"/>
	<circle cx="903.698" cy="374.178" r="4" fill="#0" id="circle231"/>
	<circle cx="907.585" cy="149.739" r="4" fill="#0" id="circle232"/>
	<circle cx="908.556" cy="359.604" r="4" fill="#0" id="circle233"/>
	<circle cx="913.414" cy="349.888" r="4" fill="#0" id="circle234"/>
	<circle cx="917.301" cy="149.739" r="4" fill="#0" id="circle235"/>
	<circle cx="918.272" cy="335.314" r="4" fill="#0" id="circle236"/>
	<circle cx="927.017" cy="149.739" r="4" fill="#0" id="circle237"/>
	<circle cx="927.988" cy="335.314" r="4" fill="#0" id="circle238"/>
	<circle cx="936.733" cy="149.739" r="4" fill="#0" id="circle239"/>
	<circle cx="937.704" cy="330.456" r="4" fill="#0" id="circle240"/>
	<circle cx="946.449" cy="149.739" r="4" fill="#0" id="circle241"/>
	<circle cx="947.42" cy="325.598" r="4" fill="#0" id="circle242"/>
	<circle cx="952.278" cy="315.882" r="4" fill="#0" id="circle243"/>
	<circle cx="956.165" cy="149.739" r="4" fill="#0" id="circle244"/>
	<circle cx="957.136" cy="306.167" r="4" fill="#0" id="circle245"/>
	<circle cx="961.994" cy="296.451" r="4" fill="#0" id="circle246"/>
	<circle cx="965.881" cy="149.739" r="4" fill="#0" id="circle247"/>
	<circle cx="966.852" cy="277.019" r="4" fill="#0" id="circle248"/>
	<circle cx="966.852" cy="286.735" r="4" fill="#0" id="circle249"/>
	<circle cx="971.71" cy="247.871" r="4" fill="#0" id="circle250"/>
	<circle cx="971.71" cy="257.587" r="4" fill="#0" id="circle251"/>
	<circle cx="971.71" cy="267.303" r="4" fill="#0" id="circle252"/>
	<circle cx="975.596" cy="149.739" r="4" fill="#0" id="circle253"/>
	<circle cx="979.483" cy="241.07" r="4" fill="#0" id="circle254"/>
	<circle cx="985.312" cy="151.683" r="4" fill="#0" id="circle255"/>
	<circle cx="986.284" cy="233.297" r="4" fill="#0" id="circle256"/>
	<circle cx="991.142" cy="159.455" r="4" fill="#0" id="circle257"/>
	<circle cx="991.142" cy="223.581" r="4" fill="#0" id="circle258"/>
	<circle cx="996" cy="168.2" r="4" fill="#0" id="circle259"/>
	<circle cx="996" cy="177.916" r="4" fill="#0" id="circle260"/>
	<circle cx="996" cy="187.632" r="4" fill="#0" id="circle261"/>
	<circle cx="996" cy="197.348" r="4" fill="#0" id="circle262"/>
	<circle cx="996" cy="207.064" r="4" fill="#0" id="circle263"/>
	</g>
</svg>