<?xml version="1.0" encoding="UTF-8" standalone="no"?>
<!-- Created with CurveBenchmark -->
<svg
	xmlns:dc="http://purl.org/dc/elements/1.1/"
	xmlns:cc="http://creativecommons.org/ns#"
	xmlns:rdf="http://www.w3.org/1999/02/22-rdf-syntax-ns#"
	xmlns:svg="http://www.w3.org/2000/svg"
	xmlns="http://www.w3.org/2000/svg"
	xmlns:sodipodi="http://sodipodi.sourceforge.net/DTD/sodipodi-0.dtd"
	xmlns:inkscape="http://www.inkscape.org/namespaces/inkscape"
	width="1000"
	height="1000"
	id="svg2"
	version="1.1"
	sodipodi:docname="manifold/gathang-sink160.png.txt">
<defs
	id="defs4" />
<metadata
	id="metadata7">
	<rdf:RDF>
		<cc:Work
			rdf:about="">
			<dc:format>image/svg+xml</dc:format>
			<dc:type
				rdf:resource="http://purl.org/dc/dcmitype/StillImage" />
			<dc:title></dc:title>
		</cc:Work>
	</rdf:RDF>
</metadata>
<g
	inkscape:label="Layer 1"
	inkscape:groupmode="layer"
	id="layer1">
	<path style="fill:none;stroke:red;stroke-width:1px;stroke-linecap:butt;stroke-linejoin:miter;stroke-opacity:1" d="M 42.7122,265.307 91.1024,265.307 z" id="boundary" inkscape:connector-curvature="0" />
	<path style="fill:none;stroke:red;stroke-width:1px;stroke-linecap:butt;stroke-linejoin:miter;stroke-opacity:1" d="M 187.883,168.527 168.527,226.595 z" id="boundary" inkscape:connector-curvature="0" />
	<path style="fill:none;stroke:red;stroke-width:1px;stroke-linecap:butt;stroke-linejoin:miter;stroke-opacity:1" d="M 187.883,342.732 144.332,318.537 z" id="boundary" inkscape:connector-curvature="0" />
	<path style="fill:none;stroke:red;stroke-width:1px;stroke-linecap:butt;stroke-linejoin:miter;stroke-opacity:1" d="M 168.527,226.595 139.493,265.307 z" id="boundary" inkscape:connector-curvature="0" />
	<path style="fill:none;stroke:red;stroke-width:1px;stroke-linecap:butt;stroke-linejoin:miter;stroke-opacity:1" d="M 139.493,265.307 91.1024,265.307 z" id="boundary" inkscape:connector-curvature="0" />
	<path style="fill:none;stroke:red;stroke-width:1px;stroke-linecap:butt;stroke-linejoin:miter;stroke-opacity:1" d="M 4,294.341 47.5512,318.537 z" id="boundary" inkscape:connector-curvature="0" />
	<path style="fill:none;stroke:red;stroke-width:1px;stroke-linecap:butt;stroke-linejoin:miter;stroke-opacity:1" d="M 4,294.341 42.7122,265.307 z" id="boundary" inkscape:connector-curvature="0" />
	<path style="fill:none;stroke:red;stroke-width:1px;stroke-linecap:butt;stroke-linejoin:miter;stroke-opacity:1" d="M 95.9415,318.537 144.332,318.537 z" id="boundary" inkscape:connector-curvature="0" />
	<path style="fill:none;stroke:red;stroke-width:1px;stroke-linecap:butt;stroke-linejoin:miter;stroke-opacity:1" d="M 95.9415,318.537 47.5512,318.537 z" id="boundary" inkscape:connector-curvature="0" />
	<path style="fill:none;stroke:red;stroke-width:1px;stroke-linecap:butt;stroke-linejoin:miter;stroke-opacity:1" d="M 187.883,168.527 236.273,168.527 z" id="boundary" inkscape:connector-curvature="0" />
	<path style="fill:none;stroke:red;stroke-width:1px;stroke-linecap:butt;stroke-linejoin:miter;stroke-opacity:1" d="M 434.673,18.5171 410.478,62.0683 z" id="boundary" inkscape:connector-curvature="0" />
	<path style="fill:none;stroke:red;stroke-width:1px;stroke-linecap:butt;stroke-linejoin:miter;stroke-opacity:1" d="M 284.663,168.527 236.273,168.527 z" id="boundary" inkscape:connector-curvature="0" />
	<path style="fill:none;stroke:red;stroke-width:1px;stroke-linecap:butt;stroke-linejoin:miter;stroke-opacity:1" d="M 333.054,168.527 284.663,168.527 z" id="boundary" inkscape:connector-curvature="0" />
	<path style="fill:none;stroke:red;stroke-width:1px;stroke-linecap:butt;stroke-linejoin:miter;stroke-opacity:1" d="M 333.054,168.527 381.444,168.527 z" id="boundary" inkscape:connector-curvature="0" />
	<path style="fill:none;stroke:red;stroke-width:1px;stroke-linecap:butt;stroke-linejoin:miter;stroke-opacity:1" d="M 429.834,168.527 381.444,168.527 z" id="boundary" inkscape:connector-curvature="0" />
	<path style="fill:none;stroke:red;stroke-width:1px;stroke-linecap:butt;stroke-linejoin:miter;stroke-opacity:1" d="M 216.917,381.444 187.883,342.732 z" id="boundary" inkscape:connector-curvature="0" />
	<path style="fill:none;stroke:red;stroke-width:1px;stroke-linecap:butt;stroke-linejoin:miter;stroke-opacity:1" d="M 250.79,420.156 265.307,468.546 z" id="boundary" inkscape:connector-curvature="0" />
	<path style="fill:none;stroke:red;stroke-width:1px;stroke-linecap:butt;stroke-linejoin:miter;stroke-opacity:1" d="M 216.917,381.444 250.79,420.156 z" id="boundary" inkscape:connector-curvature="0" />
	<path style="fill:none;stroke:red;stroke-width:1px;stroke-linecap:butt;stroke-linejoin:miter;stroke-opacity:1" d="M 265.307,468.546 265.307,516.937 z" id="boundary" inkscape:connector-curvature="0" />
	<path style="fill:none;stroke:red;stroke-width:1px;stroke-linecap:butt;stroke-linejoin:miter;stroke-opacity:1" d="M 289.502,996 241.112,996 z" id="boundary" inkscape:connector-curvature="0" />
	<path style="fill:none;stroke:red;stroke-width:1px;stroke-linecap:butt;stroke-linejoin:miter;stroke-opacity:1" d="M 241.112,996 216.917,952.449 z" id="boundary" inkscape:connector-curvature="0" />
	<path style="fill:none;stroke:red;stroke-width:1px;stroke-linecap:butt;stroke-linejoin:miter;stroke-opacity:1" d="M 216.917,952.449 245.951,894.38 z" id="boundary" inkscape:connector-curvature="0" />
	<path style="fill:none;stroke:red;stroke-width:1px;stroke-linecap:butt;stroke-linejoin:miter;stroke-opacity:1" d="M 265.307,662.107 265.307,710.498 z" id="boundary" inkscape:connector-curvature="0" />
	<path style="fill:none;stroke:red;stroke-width:1px;stroke-linecap:butt;stroke-linejoin:miter;stroke-opacity:1" d="M 265.307,516.937 265.307,565.327 z" id="boundary" inkscape:connector-curvature="0" />
	<path style="fill:none;stroke:red;stroke-width:1px;stroke-linecap:butt;stroke-linejoin:miter;stroke-opacity:1" d="M 265.307,565.327 265.307,613.717 z" id="boundary" inkscape:connector-curvature="0" />
	<path style="fill:none;stroke:red;stroke-width:1px;stroke-linecap:butt;stroke-linejoin:miter;stroke-opacity:1" d="M 265.307,710.498 265.307,758.888 z" id="boundary" inkscape:connector-curvature="0" />
	<path style="fill:none;stroke:red;stroke-width:1px;stroke-linecap:butt;stroke-linejoin:miter;stroke-opacity:1" d="M 265.307,613.717 265.307,662.107 z" id="boundary" inkscape:connector-curvature="0" />
	<path style="fill:none;stroke:red;stroke-width:1px;stroke-linecap:butt;stroke-linejoin:miter;stroke-opacity:1" d="M 265.307,758.888 265.307,807.278 z" id="boundary" inkscape:connector-curvature="0" />
	<path style="fill:none;stroke:red;stroke-width:1px;stroke-linecap:butt;stroke-linejoin:miter;stroke-opacity:1" d="M 265.307,807.278 245.951,894.38 z" id="boundary" inkscape:connector-curvature="0" />
	<path style="fill:none;stroke:red;stroke-width:1px;stroke-linecap:butt;stroke-linejoin:miter;stroke-opacity:1" d="M 337.893,996 289.502,996 z" id="boundary" inkscape:connector-curvature="0" />
	<path style="fill:none;stroke:red;stroke-width:1px;stroke-linecap:butt;stroke-linejoin:miter;stroke-opacity:1" d="M 386.283,996 337.893,996 z" id="boundary" inkscape:connector-curvature="0" />
	<path style="fill:none;stroke:red;stroke-width:1px;stroke-linecap:butt;stroke-linejoin:miter;stroke-opacity:1" d="M 502.42,52.3902 516.937,100.78 z" id="boundary" inkscape:connector-curvature="0" />
	<path style="fill:none;stroke:red;stroke-width:1px;stroke-linecap:butt;stroke-linejoin:miter;stroke-opacity:1" d="M 478.224,178.205 429.834,168.527 z" id="boundary" inkscape:connector-curvature="0" />
	<path style="fill:none;stroke:red;stroke-width:1px;stroke-linecap:butt;stroke-linejoin:miter;stroke-opacity:1" d="M 516.937,149.171 516.937,100.78 z" id="boundary" inkscape:connector-curvature="0" />
	<path style="fill:none;stroke:red;stroke-width:1px;stroke-linecap:butt;stroke-linejoin:miter;stroke-opacity:1" d="M 652.429,178.205 604.039,178.205 z" id="boundary" inkscape:connector-curvature="0" />
	<path style="fill:none;stroke:red;stroke-width:1px;stroke-linecap:butt;stroke-linejoin:miter;stroke-opacity:1" d="M 478.224,178.205 555.649,178.205 z" id="boundary" inkscape:connector-curvature="0" />
	<path style="fill:none;stroke:red;stroke-width:1px;stroke-linecap:butt;stroke-linejoin:miter;stroke-opacity:1" d="M 555.649,178.205 604.039,178.205 z" id="boundary" inkscape:connector-curvature="0" />
	<path style="fill:none;stroke:red;stroke-width:1px;stroke-linecap:butt;stroke-linejoin:miter;stroke-opacity:1" d="M 647.59,318.537 608.878,352.41 z" id="boundary" inkscape:connector-curvature="0" />
	<path style="fill:none;stroke:red;stroke-width:1px;stroke-linecap:butt;stroke-linejoin:miter;stroke-opacity:1" d="M 502.42,52.3902 483.063,4 z" id="boundary" inkscape:connector-curvature="0" />
	<path style="fill:none;stroke:red;stroke-width:1px;stroke-linecap:butt;stroke-linejoin:miter;stroke-opacity:1" d="M 652.429,178.205 700.82,168.527 z" id="boundary" inkscape:connector-curvature="0" />
	<path style="fill:none;stroke:red;stroke-width:1px;stroke-linecap:butt;stroke-linejoin:miter;stroke-opacity:1" d="M 700.82,168.527 749.21,168.527 z" id="boundary" inkscape:connector-curvature="0" />
	<path style="fill:none;stroke:red;stroke-width:1px;stroke-linecap:butt;stroke-linejoin:miter;stroke-opacity:1" d="M 797.6,168.527 749.21,168.527 z" id="boundary" inkscape:connector-curvature="0" />
	<path style="fill:none;stroke:red;stroke-width:1px;stroke-linecap:butt;stroke-linejoin:miter;stroke-opacity:1" d="M 797.6,168.527 821.795,212.078 z" id="boundary" inkscape:connector-curvature="0" />
	<path style="fill:none;stroke:red;stroke-width:1px;stroke-linecap:butt;stroke-linejoin:miter;stroke-opacity:1" d="M 695.98,318.537 744.371,318.537 z" id="boundary" inkscape:connector-curvature="0" />
	<path style="fill:none;stroke:red;stroke-width:1px;stroke-linecap:butt;stroke-linejoin:miter;stroke-opacity:1" d="M 821.795,260.468 792.761,318.537 z" id="boundary" inkscape:connector-curvature="0" />
	<path style="fill:none;stroke:red;stroke-width:1px;stroke-linecap:butt;stroke-linejoin:miter;stroke-opacity:1" d="M 792.761,318.537 744.371,318.537 z" id="boundary" inkscape:connector-curvature="0" />
	<path style="fill:none;stroke:red;stroke-width:1px;stroke-linecap:butt;stroke-linejoin:miter;stroke-opacity:1" d="M 821.795,212.078 821.795,260.468 z" id="boundary" inkscape:connector-curvature="0" />
	<path style="fill:none;stroke:red;stroke-width:1px;stroke-linecap:butt;stroke-linejoin:miter;stroke-opacity:1" d="M 695.98,318.537 647.59,318.537 z" id="boundary" inkscape:connector-curvature="0" />
	<path style="fill:none;stroke:red;stroke-width:1px;stroke-linecap:butt;stroke-linejoin:miter;stroke-opacity:1" d="M 444.351,507.259 444.351,555.649 z" id="boundary" inkscape:connector-curvature="0" />
	<path style="fill:none;stroke:red;stroke-width:1px;stroke-linecap:butt;stroke-linejoin:miter;stroke-opacity:1" d="M 444.351,507.259 444.351,458.868 z" id="boundary" inkscape:connector-curvature="0" />
	<path style="fill:none;stroke:red;stroke-width:1px;stroke-linecap:butt;stroke-linejoin:miter;stroke-opacity:1" d="M 444.351,458.868 492.741,449.19 z" id="boundary" inkscape:connector-curvature="0" />
	<path style="fill:none;stroke:red;stroke-width:1px;stroke-linecap:butt;stroke-linejoin:miter;stroke-opacity:1" d="M 444.351,604.039 444.351,652.429 z" id="boundary" inkscape:connector-curvature="0" />
	<path style="fill:none;stroke:red;stroke-width:1px;stroke-linecap:butt;stroke-linejoin:miter;stroke-opacity:1" d="M 444.351,604.039 444.351,555.649 z" id="boundary" inkscape:connector-curvature="0" />
	<path style="fill:none;stroke:red;stroke-width:1px;stroke-linecap:butt;stroke-linejoin:miter;stroke-opacity:1" d="M 444.351,700.82 444.351,749.21 z" id="boundary" inkscape:connector-curvature="0" />
	<path style="fill:none;stroke:red;stroke-width:1px;stroke-linecap:butt;stroke-linejoin:miter;stroke-opacity:1" d="M 444.351,652.429 444.351,700.82 z" id="boundary" inkscape:connector-curvature="0" />
	<path style="fill:none;stroke:red;stroke-width:1px;stroke-linecap:butt;stroke-linejoin:miter;stroke-opacity:1" d="M 444.351,749.21 444.351,797.6 z" id="boundary" inkscape:connector-curvature="0" />
	<path style="fill:none;stroke:red;stroke-width:1px;stroke-linecap:butt;stroke-linejoin:miter;stroke-opacity:1" d="M 444.351,797.6 444.351,845.99 z" id="boundary" inkscape:connector-curvature="0" />
	<path style="fill:none;stroke:red;stroke-width:1px;stroke-linecap:butt;stroke-linejoin:miter;stroke-opacity:1" d="M 541.132,429.834 579.844,400.8 z" id="boundary" inkscape:connector-curvature="0" />
	<path style="fill:none;stroke:red;stroke-width:1px;stroke-linecap:butt;stroke-linejoin:miter;stroke-opacity:1" d="M 541.132,429.834 492.741,449.19 z" id="boundary" inkscape:connector-curvature="0" />
	<path style="fill:none;stroke:red;stroke-width:1px;stroke-linecap:butt;stroke-linejoin:miter;stroke-opacity:1" d="M 579.844,400.8 608.878,352.41 z" id="boundary" inkscape:connector-curvature="0" />
	<path style="fill:none;stroke:red;stroke-width:1px;stroke-linecap:butt;stroke-linejoin:miter;stroke-opacity:1" d="M 444.351,845.99 458.868,894.38 z" id="boundary" inkscape:connector-curvature="0" />
	<path style="fill:none;stroke:red;stroke-width:1px;stroke-linecap:butt;stroke-linejoin:miter;stroke-opacity:1" d="M 478.224,942.771 483.063,996 z" id="boundary" inkscape:connector-curvature="0" />
	<path style="fill:none;stroke:red;stroke-width:1px;stroke-linecap:butt;stroke-linejoin:miter;stroke-opacity:1" d="M 483.063,996 434.673,996 z" id="boundary" inkscape:connector-curvature="0" />
	<path style="fill:none;stroke:red;stroke-width:1px;stroke-linecap:butt;stroke-linejoin:miter;stroke-opacity:1" d="M 478.224,942.771 458.868,894.38 z" id="boundary" inkscape:connector-curvature="0" />
	<path style="fill:none;stroke:red;stroke-width:1px;stroke-linecap:butt;stroke-linejoin:miter;stroke-opacity:1" d="M 434.673,996 386.283,996 z" id="boundary" inkscape:connector-curvature="0" />
	<path style="fill:none;stroke:red;stroke-width:1px;stroke-linecap:butt;stroke-linejoin:miter;stroke-opacity:1" d="M 434.673,18.5171 483.063,4 z" id="boundary" inkscape:connector-curvature="0" />
	<circle cx="4" cy="294.341" r="4" fill="#0" id="circle0"/>
	<circle cx="42.7122" cy="265.307" r="4" fill="#0" id="circle1"/>
	<circle cx="47.5512" cy="318.537" r="4" fill="#0" id="circle2"/>
	<circle cx="91.1024" cy="265.307" r="4" fill="#0" id="circle3"/>
	<circle cx="95.9415" cy="318.537" r="4" fill="#0" id="circle4"/>
	<circle cx="139.493" cy="265.307" r="4" fill="#0" id="circle5"/>
	<circle cx="144.332" cy="318.537" r="4" fill="#0" id="circle6"/>
	<circle cx="168.527" cy="226.595" r="4" fill="#0" id="circle7"/>
	<circle cx="187.883" cy="168.527" r="4" fill="#0" id="circle8"/>
	<circle cx="187.883" cy="342.732" r="4" fill="#0" id="circle9"/>
	<circle cx="216.917" cy="381.444" r="4" fill="#0" id="circle10"/>
	<circle cx="216.917" cy="952.449" r="4" fill="#0" id="circle11"/>
	<circle cx="236.273" cy="168.527" r="4" fill="#0" id="circle12"/>
	<circle cx="241.112" cy="996" r="4" fill="#0" id="circle13"/>
	<circle cx="245.951" cy="894.38" r="4" fill="#0" id="circle14"/>
	<circle cx="250.79" cy="420.156" r="4" fill="#0" id="circle15"/>
	<circle cx="265.307" cy="468.546" r="4" fill="#0" id="circle16"/>
	<circle cx="265.307" cy="516.937" r="4" fill="#0" id="circle17"/>
	<circle cx="265.307" cy="565.327" r="4" fill="#0" id="circle18"/>
	<circle cx="265.307" cy="613.717" r="4" fill="#0" id="circle19"/>
	<circle cx="265.307" cy="662.107" r="4" fill="#0" id="circle20"/>
	<circle cx="265.307" cy="710.498" r="4" fill="#0" id="circle21"/>
	<circle cx="265.307" cy="758.888" r="4" fill="#0" id="circle22"/>
	<circle cx="265.307" cy="807.278" r="4" fill="#0" id="circle23"/>
	<circle cx="284.663" cy="168.527" r="4" fill="#0" id="circle24"/>
	<circle cx="289.502" cy="996" r="4" fill="#0" id="circle25"/>
	<circle cx="333.054" cy="168.527" r="4" fill="#0" id="circle26"/>
	<circle cx="337.893" cy="996" r="4" fill="#0" id="circle27"/>
	<circle cx="381.444" cy="168.527" r="4" fill="#0" id="circle28"/>
	<circle cx="386.283" cy="996" r="4" fill="#0" id="circle29"/>
	<circle cx="410.478" cy="62.0683" r="4" fill="#0" id="circle30"/>
	<circle cx="429.834" cy="168.527" r="4" fill="#0" id="circle31"/>
	<circle cx="434.673" cy="18.5171" r="4" fill="#0" id="circle32"/>
	<circle cx="434.673" cy="996" r="4" fill="#0" id="circle33"/>
	<circle cx="444.351" cy="458.868" r="4" fill="#0" id="circle34"/>
	<circle cx="444.351" cy="507.259" r="4" fill="#0" id="circle35"/>
	<circle cx="444.351" cy="555.649" r="4" fill="#0" id="circle36"/>
	<circle cx="444.351" cy="604.039" r="4" fill="#0" id="circle37"/>
	<circle cx="444.351" cy="652.429" r="4" fill="#0" id="circle38"/>
	<circle cx="444.351" cy="700.82" r="4" fill="#0" id="circle39"/>
	<circle cx="444.351" cy="749.21" r="4" fill="#0" id="circle40"/>
	<circle cx="444.351" cy="797.6" r="4" fill="#0" id="circle41"/>
	<circle cx="444.351" cy="845.99" r="4" fill="#0" id="circle42"/>
	<circle cx="458.868" cy="894.38" r="4" fill="#0" id="circle43"/>
	<circle cx="478.224" cy="178.205" r="4" fill="#0" id="circle44"/>
	<circle cx="478.224" cy="942.771" r="4" fill="#0" id="circle45"/>
	<circle cx="483.063" cy="4" r="4" fill="#0" id="circle46"/>
	<circle cx="483.063" cy="996" r="4" fill="#0" id="circle47"/>
	<circle cx="492.741" cy="449.19" r="4" fill="#0" id="circle48"/>
	<circle cx="502.42" cy="52.3902" r="4" fill="#0" id="circle49"/>
	<circle cx="516.937" cy="100.78" r="4" fill="#0" id="circle50"/>
	<circle cx="516.937" cy="149.171" r="4" fill="#0" id="circle51"/>
	<circle cx="541.132" cy="429.834" r="4" fill="#0" id="circle52"/>
	<circle cx="555.649" cy="178.205" r="4" fill="#0" id="circle53"/>
	<circle cx="579.844" cy="400.8" r="4" fill="#0" id="circle54"/>
	<circle cx="604.039" cy="178.205" r="4" fill="#0" id="circle55"/>
	<circle cx="608.878" cy="352.41" r="4" fill="#0" id="circle56"/>
	<circle cx="647.59" cy="318.537" r="4" fill="#0" id="circle57"/>
	<circle cx="652.429" cy="178.205" r="4" fill="#0" id="circle58"/>
	<circle cx="695.98" cy="318.537" r="4" fill="#0" id="circle59"/>
	<circle cx="700.82" cy="168.527" r="4" fill="#0" id="circle60"/>
	<circle cx="744.371" cy="318.537" r="4" fill="#0" id="circle61"/>
	<circle cx="749.21" cy="168.527" r="4" fill="#0" id="circle62"/>
	<circle cx="792.761" cy="318.537" r="4" fill="#0" id="circle63"/>
	<circle cx="797.6" cy="168.527" r="4" fill="#0" id="circle64"/>
	<circle cx="821.795" cy="212.078" r="4" fill="#0" id="circle65"/>
	<circle cx="821.795" cy="260.468" r="4" fill="#0" id="circle66"/>
	</g>
</svg>