<?xml version="1.0" encoding="UTF-8" standalone="no"?>
<!-- Created with CurveBenchmark -->
<svg
	xmlns:dc="http://purl.org/dc/elements/1.1/"
	xmlns:cc="http://creativecommons.org/ns#"
	xmlns:rdf="http://www.w3.org/1999/02/22-rdf-syntax-ns#"
	xmlns:svg="http://www.w3.org/2000/svg"
	xmlns="http://www.w3.org/2000/svg"
	xmlns:sodipodi="http://sodipodi.sourceforge.net/DTD/sodipodi-0.dtd"
	xmlns:inkscape="http://www.inkscape.org/namespaces/inkscape"
	width="1000"
	height="1000"
	id="svg2"
	version="1.1"
	sodipodi:docname="manifold/gathan1-teddy155.png.txt">
<defs
	id="defs4" />
<metadata
	id="metadata7">
	<rdf:RDF>
		<cc:Work
			rdf:about="">
			<dc:format>image/svg+xml</dc:format>
			<dc:type
				rdf:resource="http://purl.org/dc/dcmitype/StillImage" />
			<dc:title></dc:title>
		</cc:Work>
	</rdf:RDF>
</metadata>
<g
	inkscape:label="Layer 1"
	inkscape:groupmode="layer"
	id="layer1">
	<path style="fill:none;stroke:red;stroke-width:1px;stroke-linecap:butt;stroke-linejoin:miter;stroke-opacity:1" d="M 4,218.792 9.65242,179.225 z" id="boundary" inkscape:connector-curvature="0" />
	<path style="fill:none;stroke:red;stroke-width:1px;stroke-linecap:butt;stroke-linejoin:miter;stroke-opacity:1" d="M 9.65242,179.225 20.9573,150.963 z" id="boundary" inkscape:connector-curvature="0" />
	<path style="fill:none;stroke:red;stroke-width:1px;stroke-linecap:butt;stroke-linejoin:miter;stroke-opacity:1" d="M 54.8718,43.567 54.8718,71.8291 z" id="boundary" inkscape:connector-curvature="0" />
	<path style="fill:none;stroke:red;stroke-width:1px;stroke-linecap:butt;stroke-linejoin:miter;stroke-opacity:1" d="M 54.8718,43.567 71.8291,20.9573 z" id="boundary" inkscape:connector-curvature="0" />
	<path style="fill:none;stroke:red;stroke-width:1px;stroke-linecap:butt;stroke-linejoin:miter;stroke-opacity:1" d="M 20.9573,150.963 35.0883,125.527 z" id="boundary" inkscape:connector-curvature="0" />
	<path style="fill:none;stroke:red;stroke-width:1px;stroke-linecap:butt;stroke-linejoin:miter;stroke-opacity:1" d="M 54.8718,100.091 35.0883,125.527 z" id="boundary" inkscape:connector-curvature="0" />
	<path style="fill:none;stroke:red;stroke-width:1px;stroke-linecap:butt;stroke-linejoin:miter;stroke-opacity:1" d="M 54.8718,71.8291 54.8718,100.091 z" id="boundary" inkscape:connector-curvature="0" />
	<path style="fill:none;stroke:red;stroke-width:1px;stroke-linecap:butt;stroke-linejoin:miter;stroke-opacity:1" d="M 4,247.054 4,218.792 z" id="boundary" inkscape:connector-curvature="0" />
	<path style="fill:none;stroke:red;stroke-width:1px;stroke-linecap:butt;stroke-linejoin:miter;stroke-opacity:1" d="M 26.6097,329.014 12.4786,303.578 z" id="boundary" inkscape:connector-curvature="0" />
	<path style="fill:none;stroke:red;stroke-width:1px;stroke-linecap:butt;stroke-linejoin:miter;stroke-opacity:1" d="M 12.4786,303.578 6.82621,275.316 z" id="boundary" inkscape:connector-curvature="0" />
	<path style="fill:none;stroke:red;stroke-width:1px;stroke-linecap:butt;stroke-linejoin:miter;stroke-opacity:1" d="M 6.82621,275.316 4,247.054 z" id="boundary" inkscape:connector-curvature="0" />
	<path style="fill:none;stroke:red;stroke-width:1px;stroke-linecap:butt;stroke-linejoin:miter;stroke-opacity:1" d="M 26.6097,329.014 37.9145,357.276 z" id="boundary" inkscape:connector-curvature="0" />
	<path style="fill:none;stroke:red;stroke-width:1px;stroke-linecap:butt;stroke-linejoin:miter;stroke-opacity:1" d="M 52.0456,382.712 37.9145,357.276 z" id="boundary" inkscape:connector-curvature="0" />
	<path style="fill:none;stroke:red;stroke-width:1px;stroke-linecap:butt;stroke-linejoin:miter;stroke-opacity:1" d="M 49.2194,410.974 52.0456,382.712 z" id="boundary" inkscape:connector-curvature="0" />
	<path style="fill:none;stroke:red;stroke-width:1px;stroke-linecap:butt;stroke-linejoin:miter;stroke-opacity:1" d="M 49.2194,410.974 35.0883,447.715 z" id="boundary" inkscape:connector-curvature="0" />
	<path style="fill:none;stroke:red;stroke-width:1px;stroke-linecap:butt;stroke-linejoin:miter;stroke-opacity:1" d="M 100.091,9.65242 128.353,4 z" id="boundary" inkscape:connector-curvature="0" />
	<path style="fill:none;stroke:red;stroke-width:1px;stroke-linecap:butt;stroke-linejoin:miter;stroke-opacity:1" d="M 128.353,4 156.615,12.4786 z" id="boundary" inkscape:connector-curvature="0" />
	<path style="fill:none;stroke:red;stroke-width:1px;stroke-linecap:butt;stroke-linejoin:miter;stroke-opacity:1" d="M 252.707,9.65242 280.969,4 z" id="boundary" inkscape:connector-curvature="0" />
	<path style="fill:none;stroke:red;stroke-width:1px;stroke-linecap:butt;stroke-linejoin:miter;stroke-opacity:1" d="M 280.969,4 309.231,12.4786 z" id="boundary" inkscape:connector-curvature="0" />
	<path style="fill:none;stroke:red;stroke-width:1px;stroke-linecap:butt;stroke-linejoin:miter;stroke-opacity:1" d="M 156.615,12.4786 179.225,29.4359 z" id="boundary" inkscape:connector-curvature="0" />
	<path style="fill:none;stroke:red;stroke-width:1px;stroke-linecap:butt;stroke-linejoin:miter;stroke-opacity:1" d="M 252.707,9.65242 224.444,20.9573 z" id="boundary" inkscape:connector-curvature="0" />
	<path style="fill:none;stroke:red;stroke-width:1px;stroke-linecap:butt;stroke-linejoin:miter;stroke-opacity:1" d="M 309.231,12.4786 331.84,29.4359 z" id="boundary" inkscape:connector-curvature="0" />
	<path style="fill:none;stroke:red;stroke-width:1px;stroke-linecap:butt;stroke-linejoin:miter;stroke-opacity:1" d="M 224.444,20.9573 204.661,43.567 z" id="boundary" inkscape:connector-curvature="0" />
	<path style="fill:none;stroke:red;stroke-width:1px;stroke-linecap:butt;stroke-linejoin:miter;stroke-opacity:1" d="M 204.661,43.567 179.225,29.4359 z" id="boundary" inkscape:connector-curvature="0" />
	<path style="fill:none;stroke:red;stroke-width:1px;stroke-linecap:butt;stroke-linejoin:miter;stroke-opacity:1" d="M 331.84,29.4359 348.798,52.0456 z" id="boundary" inkscape:connector-curvature="0" />
	<path style="fill:none;stroke:red;stroke-width:1px;stroke-linecap:butt;stroke-linejoin:miter;stroke-opacity:1" d="M 348.798,52.0456 357.276,80.3077 z" id="boundary" inkscape:connector-curvature="0" />
	<path style="fill:none;stroke:red;stroke-width:1px;stroke-linecap:butt;stroke-linejoin:miter;stroke-opacity:1" d="M 357.276,80.3077 357.276,108.57 z" id="boundary" inkscape:connector-curvature="0" />
	<path style="fill:none;stroke:red;stroke-width:1px;stroke-linecap:butt;stroke-linejoin:miter;stroke-opacity:1" d="M 71.8291,20.9573 100.091,9.65242 z" id="boundary" inkscape:connector-curvature="0" />
	<path style="fill:none;stroke:red;stroke-width:1px;stroke-linecap:butt;stroke-linejoin:miter;stroke-opacity:1" d="M 9.65242,512.718 20.9573,473.151 z" id="boundary" inkscape:connector-curvature="0" />
	<path style="fill:none;stroke:red;stroke-width:1px;stroke-linecap:butt;stroke-linejoin:miter;stroke-opacity:1" d="M 20.9573,540.98 9.65242,512.718 z" id="boundary" inkscape:connector-curvature="0" />
	<path style="fill:none;stroke:red;stroke-width:1px;stroke-linecap:butt;stroke-linejoin:miter;stroke-opacity:1" d="M 20.9573,473.151 35.0883,447.715 z" id="boundary" inkscape:connector-curvature="0" />
	<path style="fill:none;stroke:red;stroke-width:1px;stroke-linecap:butt;stroke-linejoin:miter;stroke-opacity:1" d="M 35.0883,566.416 20.9573,540.98 z" id="boundary" inkscape:connector-curvature="0" />
	<path style="fill:none;stroke:red;stroke-width:1px;stroke-linecap:butt;stroke-linejoin:miter;stroke-opacity:1" d="M 37.9145,594.678 49.2194,622.94 z" id="boundary" inkscape:connector-curvature="0" />
	<path style="fill:none;stroke:red;stroke-width:1px;stroke-linecap:butt;stroke-linejoin:miter;stroke-opacity:1" d="M 49.2194,622.94 49.2194,651.202 z" id="boundary" inkscape:connector-curvature="0" />
	<path style="fill:none;stroke:red;stroke-width:1px;stroke-linecap:butt;stroke-linejoin:miter;stroke-opacity:1" d="M 37.9145,594.678 35.0883,566.416 z" id="boundary" inkscape:connector-curvature="0" />
	<path style="fill:none;stroke:red;stroke-width:1px;stroke-linecap:butt;stroke-linejoin:miter;stroke-opacity:1" d="M 49.2194,651.202 49.2194,679.464 z" id="boundary" inkscape:connector-curvature="0" />
	<path style="fill:none;stroke:red;stroke-width:1px;stroke-linecap:butt;stroke-linejoin:miter;stroke-opacity:1" d="M 49.2194,735.989 49.2194,707.726 z" id="boundary" inkscape:connector-curvature="0" />
	<path style="fill:none;stroke:red;stroke-width:1px;stroke-linecap:butt;stroke-linejoin:miter;stroke-opacity:1" d="M 49.2194,679.464 49.2194,707.726 z" id="boundary" inkscape:connector-curvature="0" />
	<path style="fill:none;stroke:red;stroke-width:1px;stroke-linecap:butt;stroke-linejoin:miter;stroke-opacity:1" d="M 49.2194,735.989 49.2194,764.251 z" id="boundary" inkscape:connector-curvature="0" />
	<path style="fill:none;stroke:red;stroke-width:1px;stroke-linecap:butt;stroke-linejoin:miter;stroke-opacity:1" d="M 54.8718,792.513 49.2194,764.251 z" id="boundary" inkscape:connector-curvature="0" />
	<path style="fill:none;stroke:red;stroke-width:1px;stroke-linecap:butt;stroke-linejoin:miter;stroke-opacity:1" d="M 60.5242,829.254 54.8718,792.513 z" id="boundary" inkscape:connector-curvature="0" />
	<path style="fill:none;stroke:red;stroke-width:1px;stroke-linecap:butt;stroke-linejoin:miter;stroke-opacity:1" d="M 60.5242,829.254 60.5242,857.516 z" id="boundary" inkscape:connector-curvature="0" />
	<path style="fill:none;stroke:red;stroke-width:1px;stroke-linecap:butt;stroke-linejoin:miter;stroke-opacity:1" d="M 69.0028,914.04 63.3504,885.778 z" id="boundary" inkscape:connector-curvature="0" />
	<path style="fill:none;stroke:red;stroke-width:1px;stroke-linecap:butt;stroke-linejoin:miter;stroke-opacity:1" d="M 63.3504,885.778 60.5242,857.516 z" id="boundary" inkscape:connector-curvature="0" />
	<path style="fill:none;stroke:red;stroke-width:1px;stroke-linecap:butt;stroke-linejoin:miter;stroke-opacity:1" d="M 85.9601,970.564 74.6553,942.302 z" id="boundary" inkscape:connector-curvature="0" />
	<path style="fill:none;stroke:red;stroke-width:1px;stroke-linecap:butt;stroke-linejoin:miter;stroke-opacity:1" d="M 111.396,984.695 85.9601,970.564 z" id="boundary" inkscape:connector-curvature="0" />
	<path style="fill:none;stroke:red;stroke-width:1px;stroke-linecap:butt;stroke-linejoin:miter;stroke-opacity:1" d="M 224.444,990.348 196.182,996 z" id="boundary" inkscape:connector-curvature="0" />
	<path style="fill:none;stroke:red;stroke-width:1px;stroke-linecap:butt;stroke-linejoin:miter;stroke-opacity:1" d="M 139.658,993.174 111.396,984.695 z" id="boundary" inkscape:connector-curvature="0" />
	<path style="fill:none;stroke:red;stroke-width:1px;stroke-linecap:butt;stroke-linejoin:miter;stroke-opacity:1" d="M 74.6553,942.302 69.0028,914.04 z" id="boundary" inkscape:connector-curvature="0" />
	<path style="fill:none;stroke:red;stroke-width:1px;stroke-linecap:butt;stroke-linejoin:miter;stroke-opacity:1" d="M 167.92,996 139.658,993.174 z" id="boundary" inkscape:connector-curvature="0" />
	<path style="fill:none;stroke:red;stroke-width:1px;stroke-linecap:butt;stroke-linejoin:miter;stroke-opacity:1" d="M 196.182,996 167.92,996 z" id="boundary" inkscape:connector-curvature="0" />
	<path style="fill:none;stroke:red;stroke-width:1px;stroke-linecap:butt;stroke-linejoin:miter;stroke-opacity:1" d="M 252.707,990.348 280.969,996 z" id="boundary" inkscape:connector-curvature="0" />
	<path style="fill:none;stroke:red;stroke-width:1px;stroke-linecap:butt;stroke-linejoin:miter;stroke-opacity:1" d="M 309.231,996 280.969,996 z" id="boundary" inkscape:connector-curvature="0" />
	<path style="fill:none;stroke:red;stroke-width:1px;stroke-linecap:butt;stroke-linejoin:miter;stroke-opacity:1" d="M 252.707,990.348 224.444,990.348 z" id="boundary" inkscape:connector-curvature="0" />
	<path style="fill:none;stroke:red;stroke-width:1px;stroke-linecap:butt;stroke-linejoin:miter;stroke-opacity:1" d="M 337.493,996 309.231,996 z" id="boundary" inkscape:connector-curvature="0" />
	<path style="fill:none;stroke:red;stroke-width:1px;stroke-linecap:butt;stroke-linejoin:miter;stroke-opacity:1" d="M 357.276,108.57 362.929,136.832 z" id="boundary" inkscape:connector-curvature="0" />
	<path style="fill:none;stroke:red;stroke-width:1px;stroke-linecap:butt;stroke-linejoin:miter;stroke-opacity:1" d="M 379.886,159.442 396.843,182.051 z" id="boundary" inkscape:connector-curvature="0" />
	<path style="fill:none;stroke:red;stroke-width:1px;stroke-linecap:butt;stroke-linejoin:miter;stroke-opacity:1" d="M 379.886,159.442 362.929,136.832 z" id="boundary" inkscape:connector-curvature="0" />
	<path style="fill:none;stroke:red;stroke-width:1px;stroke-linecap:butt;stroke-linejoin:miter;stroke-opacity:1" d="M 425.105,190.53 396.843,182.051 z" id="boundary" inkscape:connector-curvature="0" />
	<path style="fill:none;stroke:red;stroke-width:1px;stroke-linecap:butt;stroke-linejoin:miter;stroke-opacity:1" d="M 425.105,190.53 453.368,201.835 z" id="boundary" inkscape:connector-curvature="0" />
	<path style="fill:none;stroke:red;stroke-width:1px;stroke-linecap:butt;stroke-linejoin:miter;stroke-opacity:1" d="M 487.282,258.359 481.63,292.274 z" id="boundary" inkscape:connector-curvature="0" />
	<path style="fill:none;stroke:red;stroke-width:1px;stroke-linecap:butt;stroke-linejoin:miter;stroke-opacity:1" d="M 453.368,201.835 475.977,218.792 z" id="boundary" inkscape:connector-curvature="0" />
	<path style="fill:none;stroke:red;stroke-width:1px;stroke-linecap:butt;stroke-linejoin:miter;stroke-opacity:1" d="M 475.977,218.792 487.282,258.359 z" id="boundary" inkscape:connector-curvature="0" />
	<path style="fill:none;stroke:red;stroke-width:1px;stroke-linecap:butt;stroke-linejoin:miter;stroke-opacity:1" d="M 410.974,385.538 433.584,362.929 z" id="boundary" inkscape:connector-curvature="0" />
	<path style="fill:none;stroke:red;stroke-width:1px;stroke-linecap:butt;stroke-linejoin:miter;stroke-opacity:1" d="M 427.932,408.148 410.974,385.538 z" id="boundary" inkscape:connector-curvature="0" />
	<path style="fill:none;stroke:red;stroke-width:1px;stroke-linecap:butt;stroke-linejoin:miter;stroke-opacity:1" d="M 433.584,362.929 461.846,351.624 z" id="boundary" inkscape:connector-curvature="0" />
	<path style="fill:none;stroke:red;stroke-width:1px;stroke-linecap:butt;stroke-linejoin:miter;stroke-opacity:1" d="M 507.066,433.584 478.803,430.758 z" id="boundary" inkscape:connector-curvature="0" />
	<path style="fill:none;stroke:red;stroke-width:1px;stroke-linecap:butt;stroke-linejoin:miter;stroke-opacity:1" d="M 475.977,320.536 461.846,351.624 z" id="boundary" inkscape:connector-curvature="0" />
	<path style="fill:none;stroke:red;stroke-width:1px;stroke-linecap:butt;stroke-linejoin:miter;stroke-opacity:1" d="M 450.541,427.932 478.803,430.758 z" id="boundary" inkscape:connector-curvature="0" />
	<path style="fill:none;stroke:red;stroke-width:1px;stroke-linecap:butt;stroke-linejoin:miter;stroke-opacity:1" d="M 450.541,427.932 427.932,408.148 z" id="boundary" inkscape:connector-curvature="0" />
	<path style="fill:none;stroke:red;stroke-width:1px;stroke-linecap:butt;stroke-linejoin:miter;stroke-opacity:1" d="M 481.63,292.274 475.977,320.536 z" id="boundary" inkscape:connector-curvature="0" />
	<path style="fill:none;stroke:red;stroke-width:1px;stroke-linecap:butt;stroke-linejoin:miter;stroke-opacity:1" d="M 535.328,439.236 507.066,433.584 z" id="boundary" inkscape:connector-curvature="0" />
	<path style="fill:none;stroke:red;stroke-width:1px;stroke-linecap:butt;stroke-linejoin:miter;stroke-opacity:1" d="M 563.59,444.889 535.328,439.236 z" id="boundary" inkscape:connector-curvature="0" />
	<path style="fill:none;stroke:red;stroke-width:1px;stroke-linecap:butt;stroke-linejoin:miter;stroke-opacity:1" d="M 563.59,444.889 589.026,459.02 z" id="boundary" inkscape:connector-curvature="0" />
	<path style="fill:none;stroke:red;stroke-width:1px;stroke-linecap:butt;stroke-linejoin:miter;stroke-opacity:1" d="M 611.635,475.977 617.288,504.239 z" id="boundary" inkscape:connector-curvature="0" />
	<path style="fill:none;stroke:red;stroke-width:1px;stroke-linecap:butt;stroke-linejoin:miter;stroke-opacity:1" d="M 589.026,459.02 611.635,475.977 z" id="boundary" inkscape:connector-curvature="0" />
	<path style="fill:none;stroke:red;stroke-width:1px;stroke-linecap:butt;stroke-linejoin:miter;stroke-opacity:1" d="M 617.288,504.239 617.288,532.501 z" id="boundary" inkscape:connector-curvature="0" />
	<path style="fill:none;stroke:red;stroke-width:1px;stroke-linecap:butt;stroke-linejoin:miter;stroke-opacity:1" d="M 549.459,625.766 524.023,639.897 z" id="boundary" inkscape:connector-curvature="0" />
	<path style="fill:none;stroke:red;stroke-width:1px;stroke-linecap:butt;stroke-linejoin:miter;stroke-opacity:1" d="M 524.023,639.897 495.761,645.55 z" id="boundary" inkscape:connector-curvature="0" />
	<path style="fill:none;stroke:red;stroke-width:1px;stroke-linecap:butt;stroke-linejoin:miter;stroke-opacity:1" d="M 498.587,673.812 495.761,645.55 z" id="boundary" inkscape:connector-curvature="0" />
	<path style="fill:none;stroke:red;stroke-width:1px;stroke-linecap:butt;stroke-linejoin:miter;stroke-opacity:1" d="M 611.635,563.59 617.288,532.501 z" id="boundary" inkscape:connector-curvature="0" />
	<path style="fill:none;stroke:red;stroke-width:1px;stroke-linecap:butt;stroke-linejoin:miter;stroke-opacity:1" d="M 611.635,563.59 597.504,589.026 z" id="boundary" inkscape:connector-curvature="0" />
	<path style="fill:none;stroke:red;stroke-width:1px;stroke-linecap:butt;stroke-linejoin:miter;stroke-opacity:1" d="M 574.895,611.635 597.504,589.026 z" id="boundary" inkscape:connector-curvature="0" />
	<path style="fill:none;stroke:red;stroke-width:1px;stroke-linecap:butt;stroke-linejoin:miter;stroke-opacity:1" d="M 574.895,611.635 549.459,625.766 z" id="boundary" inkscape:connector-curvature="0" />
	<path style="fill:none;stroke:red;stroke-width:1px;stroke-linecap:butt;stroke-linejoin:miter;stroke-opacity:1" d="M 444.889,967.738 416.627,973.39 z" id="boundary" inkscape:connector-curvature="0" />
	<path style="fill:none;stroke:red;stroke-width:1px;stroke-linecap:butt;stroke-linejoin:miter;stroke-opacity:1" d="M 365.755,996 337.493,996 z" id="boundary" inkscape:connector-curvature="0" />
	<path style="fill:none;stroke:red;stroke-width:1px;stroke-linecap:butt;stroke-linejoin:miter;stroke-opacity:1" d="M 504.239,702.074 509.892,730.336 z" id="boundary" inkscape:connector-curvature="0" />
	<path style="fill:none;stroke:red;stroke-width:1px;stroke-linecap:butt;stroke-linejoin:miter;stroke-opacity:1" d="M 394.017,990.348 416.627,973.39 z" id="boundary" inkscape:connector-curvature="0" />
	<path style="fill:none;stroke:red;stroke-width:1px;stroke-linecap:butt;stroke-linejoin:miter;stroke-opacity:1" d="M 538.154,738.815 509.892,730.336 z" id="boundary" inkscape:connector-curvature="0" />
	<path style="fill:none;stroke:red;stroke-width:1px;stroke-linecap:butt;stroke-linejoin:miter;stroke-opacity:1" d="M 566.416,730.336 538.154,738.815 z" id="boundary" inkscape:connector-curvature="0" />
	<path style="fill:none;stroke:red;stroke-width:1px;stroke-linecap:butt;stroke-linejoin:miter;stroke-opacity:1" d="M 504.239,702.074 498.587,673.812 z" id="boundary" inkscape:connector-curvature="0" />
	<path style="fill:none;stroke:red;stroke-width:1px;stroke-linecap:butt;stroke-linejoin:miter;stroke-opacity:1" d="M 473.151,973.39 444.889,967.738 z" id="boundary" inkscape:connector-curvature="0" />
	<path style="fill:none;stroke:red;stroke-width:1px;stroke-linecap:butt;stroke-linejoin:miter;stroke-opacity:1" d="M 394.017,990.348 365.755,996 z" id="boundary" inkscape:connector-curvature="0" />
	<path style="fill:none;stroke:red;stroke-width:1px;stroke-linecap:butt;stroke-linejoin:miter;stroke-opacity:1" d="M 473.151,973.39 501.413,979.043 z" id="boundary" inkscape:connector-curvature="0" />
	<path style="fill:none;stroke:red;stroke-width:1px;stroke-linecap:butt;stroke-linejoin:miter;stroke-opacity:1" d="M 501.413,979.043 529.675,990.348 z" id="boundary" inkscape:connector-curvature="0" />
	<path style="fill:none;stroke:red;stroke-width:1px;stroke-linecap:butt;stroke-linejoin:miter;stroke-opacity:1" d="M 557.937,996 529.675,990.348 z" id="boundary" inkscape:connector-curvature="0" />
	<path style="fill:none;stroke:red;stroke-width:1px;stroke-linecap:butt;stroke-linejoin:miter;stroke-opacity:1" d="M 586.199,996 557.937,996 z" id="boundary" inkscape:connector-curvature="0" />
	<path style="fill:none;stroke:red;stroke-width:1px;stroke-linecap:butt;stroke-linejoin:miter;stroke-opacity:1" d="M 594.678,727.51 622.94,727.51 z" id="boundary" inkscape:connector-curvature="0" />
	<path style="fill:none;stroke:red;stroke-width:1px;stroke-linecap:butt;stroke-linejoin:miter;stroke-opacity:1" d="M 594.678,727.51 566.416,730.336 z" id="boundary" inkscape:connector-curvature="0" />
	<path style="fill:none;stroke:red;stroke-width:1px;stroke-linecap:butt;stroke-linejoin:miter;stroke-opacity:1" d="M 622.94,727.51 651.202,727.51 z" id="boundary" inkscape:connector-curvature="0" />
	<path style="fill:none;stroke:red;stroke-width:1px;stroke-linecap:butt;stroke-linejoin:miter;stroke-opacity:1" d="M 690.769,767.077 696.422,795.339 z" id="boundary" inkscape:connector-curvature="0" />
	<path style="fill:none;stroke:red;stroke-width:1px;stroke-linecap:butt;stroke-linejoin:miter;stroke-opacity:1" d="M 690.769,767.077 676.638,741.641 z" id="boundary" inkscape:connector-curvature="0" />
	<path style="fill:none;stroke:red;stroke-width:1px;stroke-linecap:butt;stroke-linejoin:miter;stroke-opacity:1" d="M 696.422,795.339 696.422,823.601 z" id="boundary" inkscape:connector-curvature="0" />
	<path style="fill:none;stroke:red;stroke-width:1px;stroke-linecap:butt;stroke-linejoin:miter;stroke-opacity:1" d="M 651.202,727.51 676.638,741.641 z" id="boundary" inkscape:connector-curvature="0" />
	<path style="fill:none;stroke:red;stroke-width:1px;stroke-linecap:butt;stroke-linejoin:miter;stroke-opacity:1" d="M 696.422,823.601 696.422,857.516 z" id="boundary" inkscape:connector-curvature="0" />
	<path style="fill:none;stroke:red;stroke-width:1px;stroke-linecap:butt;stroke-linejoin:miter;stroke-opacity:1" d="M 642.724,979.043 614.462,990.348 z" id="boundary" inkscape:connector-curvature="0" />
	<path style="fill:none;stroke:red;stroke-width:1px;stroke-linecap:butt;stroke-linejoin:miter;stroke-opacity:1" d="M 670.986,967.738 642.724,979.043 z" id="boundary" inkscape:connector-curvature="0" />
	<path style="fill:none;stroke:red;stroke-width:1px;stroke-linecap:butt;stroke-linejoin:miter;stroke-opacity:1" d="M 685.117,942.302 670.986,967.738 z" id="boundary" inkscape:connector-curvature="0" />
	<path style="fill:none;stroke:red;stroke-width:1px;stroke-linecap:butt;stroke-linejoin:miter;stroke-opacity:1" d="M 696.422,914.04 685.117,942.302 z" id="boundary" inkscape:connector-curvature="0" />
	<path style="fill:none;stroke:red;stroke-width:1px;stroke-linecap:butt;stroke-linejoin:miter;stroke-opacity:1" d="M 696.422,885.778 696.422,914.04 z" id="boundary" inkscape:connector-curvature="0" />
	<path style="fill:none;stroke:red;stroke-width:1px;stroke-linecap:butt;stroke-linejoin:miter;stroke-opacity:1" d="M 614.462,990.348 586.199,996 z" id="boundary" inkscape:connector-curvature="0" />
	<path style="fill:none;stroke:red;stroke-width:1px;stroke-linecap:butt;stroke-linejoin:miter;stroke-opacity:1" d="M 696.422,857.516 696.422,885.778 z" id="boundary" inkscape:connector-curvature="0" />
	<circle cx="4" cy="218.792" r="4" fill="#0" id="circle0"/>
	<circle cx="4" cy="247.054" r="4" fill="#0" id="circle1"/>
	<circle cx="6.82621" cy="275.316" r="4" fill="#0" id="circle2"/>
	<circle cx="9.65242" cy="179.225" r="4" fill="#0" id="circle3"/>
	<circle cx="9.65242" cy="512.718" r="4" fill="#0" id="circle4"/>
	<circle cx="12.4786" cy="303.578" r="4" fill="#0" id="circle5"/>
	<circle cx="20.9573" cy="150.963" r="4" fill="#0" id="circle6"/>
	<circle cx="20.9573" cy="473.151" r="4" fill="#0" id="circle7"/>
	<circle cx="20.9573" cy="540.98" r="4" fill="#0" id="circle8"/>
	<circle cx="26.6097" cy="329.014" r="4" fill="#0" id="circle9"/>
	<circle cx="35.0883" cy="125.527" r="4" fill="#0" id="circle10"/>
	<circle cx="35.0883" cy="447.715" r="4" fill="#0" id="circle11"/>
	<circle cx="35.0883" cy="566.416" r="4" fill="#0" id="circle12"/>
	<circle cx="37.9145" cy="357.276" r="4" fill="#0" id="circle13"/>
	<circle cx="37.9145" cy="594.678" r="4" fill="#0" id="circle14"/>
	<circle cx="49.2194" cy="410.974" r="4" fill="#0" id="circle15"/>
	<circle cx="49.2194" cy="622.94" r="4" fill="#0" id="circle16"/>
	<circle cx="49.2194" cy="651.202" r="4" fill="#0" id="circle17"/>
	<circle cx="49.2194" cy="679.464" r="4" fill="#0" id="circle18"/>
	<circle cx="49.2194" cy="707.726" r="4" fill="#0" id="circle19"/>
	<circle cx="49.2194" cy="735.989" r="4" fill="#0" id="circle20"/>
	<circle cx="49.2194" cy="764.251" r="4" fill="#0" id="circle21"/>
	<circle cx="52.0456" cy="382.712" r="4" fill="#0" id="circle22"/>
	<circle cx="54.8718" cy="43.567" r="4" fill="#0" id="circle23"/>
	<circle cx="54.8718" cy="71.8291" r="4" fill="#0" id="circle24"/>
	<circle cx="54.8718" cy="100.091" r="4" fill="#0" id="circle25"/>
	<circle cx="54.8718" cy="792.513" r="4" fill="#0" id="circle26"/>
	<circle cx="60.5242" cy="829.254" r="4" fill="#0" id="circle27"/>
	<circle cx="60.5242" cy="857.516" r="4" fill="#0" id="circle28"/>
	<circle cx="63.3504" cy="885.778" r="4" fill="#0" id="circle29"/>
	<circle cx="69.0028" cy="914.04" r="4" fill="#0" id="circle30"/>
	<circle cx="71.8291" cy="20.9573" r="4" fill="#0" id="circle31"/>
	<circle cx="74.6553" cy="942.302" r="4" fill="#0" id="circle32"/>
	<circle cx="85.9601" cy="970.564" r="4" fill="#0" id="circle33"/>
	<circle cx="100.091" cy="9.65242" r="4" fill="#0" id="circle34"/>
	<circle cx="111.396" cy="984.695" r="4" fill="#0" id="circle35"/>
	<circle cx="128.353" cy="4" r="4" fill="#0" id="circle36"/>
	<circle cx="139.658" cy="993.174" r="4" fill="#0" id="circle37"/>
	<circle cx="156.615" cy="12.4786" r="4" fill="#0" id="circle38"/>
	<circle cx="167.92" cy="996" r="4" fill="#0" id="circle39"/>
	<circle cx="179.225" cy="29.4359" r="4" fill="#0" id="circle40"/>
	<circle cx="196.182" cy="996" r="4" fill="#0" id="circle41"/>
	<circle cx="204.661" cy="43.567" r="4" fill="#0" id="circle42"/>
	<circle cx="224.444" cy="20.9573" r="4" fill="#0" id="circle43"/>
	<circle cx="224.444" cy="990.348" r="4" fill="#0" id="circle44"/>
	<circle cx="252.707" cy="9.65242" r="4" fill="#0" id="circle45"/>
	<circle cx="252.707" cy="990.348" r="4" fill="#0" id="circle46"/>
	<circle cx="280.969" cy="4" r="4" fill="#0" id="circle47"/>
	<circle cx="280.969" cy="996" r="4" fill="#0" id="circle48"/>
	<circle cx="309.231" cy="12.4786" r="4" fill="#0" id="circle49"/>
	<circle cx="309.231" cy="996" r="4" fill="#0" id="circle50"/>
	<circle cx="331.84" cy="29.4359" r="4" fill="#0" id="circle51"/>
	<circle cx="337.493" cy="996" r="4" fill="#0" id="circle52"/>
	<circle cx="348.798" cy="52.0456" r="4" fill="#0" id="circle53"/>
	<circle cx="357.276" cy="80.3077" r="4" fill="#0" id="circle54"/>
	<circle cx="357.276" cy="108.57" r="4" fill="#0" id="circle55"/>
	<circle cx="362.929" cy="136.832" r="4" fill="#0" id="circle56"/>
	<circle cx="365.755" cy="996" r="4" fill="#0" id="circle57"/>
	<circle cx="379.886" cy="159.442" r="4" fill="#0" id="circle58"/>
	<circle cx="394.017" cy="990.348" r="4" fill="#0" id="circle59"/>
	<circle cx="396.843" cy="182.051" r="4" fill="#0" id="circle60"/>
	<circle cx="410.974" cy="385.538" r="4" fill="#0" id="circle61"/>
	<circle cx="416.627" cy="973.39" r="4" fill="#0" id="circle62"/>
	<circle cx="425.105" cy="190.53" r="4" fill="#0" id="circle63"/>
	<circle cx="427.932" cy="408.148" r="4" fill="#0" id="circle64"/>
	<circle cx="433.584" cy="362.929" r="4" fill="#0" id="circle65"/>
	<circle cx="444.889" cy="967.738" r="4" fill="#0" id="circle66"/>
	<circle cx="450.541" cy="427.932" r="4" fill="#0" id="circle67"/>
	<circle cx="453.368" cy="201.835" r="4" fill="#0" id="circle68"/>
	<circle cx="461.846" cy="351.624" r="4" fill="#0" id="circle69"/>
	<circle cx="473.151" cy="973.39" r="4" fill="#0" id="circle70"/>
	<circle cx="475.977" cy="218.792" r="4" fill="#0" id="circle71"/>
	<circle cx="475.977" cy="320.536" r="4" fill="#0" id="circle72"/>
	<circle cx="478.803" cy="430.758" r="4" fill="#0" id="circle73"/>
	<circle cx="481.63" cy="292.274" r="4" fill="#0" id="circle74"/>
	<circle cx="487.282" cy="258.359" r="4" fill="#0" id="circle75"/>
	<circle cx="495.761" cy="645.55" r="4" fill="#0" id="circle76"/>
	<circle cx="498.587" cy="673.812" r="4" fill="#0" id="circle77"/>
	<circle cx="501.413" cy="979.043" r="4" fill="#0" id="circle78"/>
	<circle cx="504.239" cy="702.074" r="4" fill="#0" id="circle79"/>
	<circle cx="507.066" cy="433.584" r="4" fill="#0" id="circle80"/>
	<circle cx="509.892" cy="730.336" r="4" fill="#0" id="circle81"/>
	<circle cx="524.023" cy="639.897" r="4" fill="#0" id="circle82"/>
	<circle cx="529.675" cy="990.348" r="4" fill="#0" id="circle83"/>
	<circle cx="535.328" cy="439.236" r="4" fill="#0" id="circle84"/>
	<circle cx="538.154" cy="738.815" r="4" fill="#0" id="circle85"/>
	<circle cx="549.459" cy="625.766" r="4" fill="#0" id="circle86"/>
	<circle cx="557.937" cy="996" r="4" fill="#0" id="circle87"/>
	<circle cx="563.59" cy="444.889" r="4" fill="#0" id="circle88"/>
	<circle cx="566.416" cy="730.336" r="4" fill="#0" id="circle89"/>
	<circle cx="574.895" cy="611.635" r="4" fill="#0" id="circle90"/>
	<circle cx="586.199" cy="996" r="4" fill="#0" id="circle91"/>
	<circle cx="589.026" cy="459.02" r="4" fill="#0" id="circle92"/>
	<circle cx="594.678" cy="727.51" r="4" fill="#0" id="circle93"/>
	<circle cx="597.504" cy="589.026" r="4" fill="#0" id="circle94"/>
	<circle cx="611.635" cy="475.977" r="4" fill="#0" id="circle95"/>
	<circle cx="611.635" cy="563.59" r="4" fill="#0" id="circle96"/>
	<circle cx="614.462" cy="990.348" r="4" fill="#0" id="circle97"/>
	<circle cx="617.288" cy="504.239" r="4" fill="#0" id="circle98"/>
	<circle cx="617.288" cy="532.501" r="4" fill="#0" id="circle99"/>
	<circle cx="622.94" cy="727.51" r="4" fill="#0" id="circle100"/>
	<circle cx="642.724" cy="979.043" r="4" fill="#0" id="circle101"/>
	<circle cx="651.202" cy="727.51" r="4" fill="#0" id="circle102"/>
	<circle cx="670.986" cy="967.738" r="4" fill="#0" id="circle103"/>
	<circle cx="676.638" cy="741.641" r="4" fill="#0" id="circle104"/>
	<circle cx="685.117" cy="942.302" r="4" fill="#0" id="circle105"/>
	<circle cx="690.769" cy="767.077" r="4" fill="#0" id="circle106"/>
	<circle cx="696.422" cy="795.339" r="4" fill="#0" id="circle107"/>
	<circle cx="696.422" cy="823.601" r="4" fill="#0" id="circle108"/>
	<circle cx="696.422" cy="857.516" r="4" fill="#0" id="circle109"/>
	<circle cx="696.422" cy="885.778" r="4" fill="#0" id="circle110"/>
	<circle cx="696.422" cy="914.04" r="4" fill="#0" id="circle111"/>
	</g>
</svg>