<?xml version="1.0" encoding="UTF-8" standalone="no"?>
<!-- Created with CurveBenchmark -->
<svg
	xmlns:dc="http://purl.org/dc/elements/1.1/"
	xmlns:cc="http://creativecommons.org/ns#"
	xmlns:rdf="http://www.w3.org/1999/02/22-rdf-syntax-ns#"
	xmlns:svg="http://www.w3.org/2000/svg"
	xmlns="http://www.w3.org/2000/svg"
	xmlns:sodipodi="http://sodipodi.sourceforge.net/DTD/sodipodi-0.dtd"
	xmlns:inkscape="http://www.inkscape.org/namespaces/inkscape"
	width="1000"
	height="1000"
	id="svg2"
	version="1.1"
	sodipodi:docname="manifold/gathan1-guitar305.png.txt">
<defs
	id="defs4" />
<metadata
	id="metadata7">
	<rdf:RDF>
		<cc:Work
			rdf:about="">
			<dc:format>image/svg+xml</dc:format>
			<dc:type
				rdf:resource="http://purl.org/dc/dcmitype/StillImage" />
			<dc:title></dc:title>
		</cc:Work>
	</rdf:RDF>
</metadata>
<g
	inkscape:label="Layer 1"
	inkscape:groupmode="layer"
	id="layer1">
	<path style="fill:none;stroke:red;stroke-width:1px;stroke-linecap:butt;stroke-linejoin:miter;stroke-opacity:1" d="M 102.847,95.7865 102.847,131.089 z" id="boundary" inkscape:connector-curvature="0" />
	<path style="fill:none;stroke:red;stroke-width:1px;stroke-linecap:butt;stroke-linejoin:miter;stroke-opacity:1" d="M 155.801,88.726 134.619,148.74 z" id="boundary" inkscape:connector-curvature="0" />
	<path style="fill:none;stroke:red;stroke-width:1px;stroke-linecap:butt;stroke-linejoin:miter;stroke-opacity:1" d="M 95.7865,399.388 95.7865,364.085 z" id="boundary" inkscape:connector-curvature="0" />
	<path style="fill:none;stroke:red;stroke-width:1px;stroke-linecap:butt;stroke-linejoin:miter;stroke-opacity:1" d="M 95.7865,399.388 95.7865,434.69 z" id="boundary" inkscape:connector-curvature="0" />
	<path style="fill:none;stroke:red;stroke-width:1px;stroke-linecap:butt;stroke-linejoin:miter;stroke-opacity:1" d="M 95.7865,434.69 95.7865,469.993 z" id="boundary" inkscape:connector-curvature="0" />
	<path style="fill:none;stroke:red;stroke-width:1px;stroke-linecap:butt;stroke-linejoin:miter;stroke-opacity:1" d="M 102.847,131.089 102.847,166.391 z" id="boundary" inkscape:connector-curvature="0" />
	<path style="fill:none;stroke:red;stroke-width:1px;stroke-linecap:butt;stroke-linejoin:miter;stroke-opacity:1" d="M 95.7865,469.993 78.1352,508.826 z" id="boundary" inkscape:connector-curvature="0" />
	<path style="fill:none;stroke:red;stroke-width:1px;stroke-linecap:butt;stroke-linejoin:miter;stroke-opacity:1" d="M 78.1352,508.826 46.363,526.477 z" id="boundary" inkscape:connector-curvature="0" />
	<path style="fill:none;stroke:red;stroke-width:1px;stroke-linecap:butt;stroke-linejoin:miter;stroke-opacity:1" d="M 134.619,148.74 134.619,184.043 z" id="boundary" inkscape:connector-curvature="0" />
	<path style="fill:none;stroke:red;stroke-width:1px;stroke-linecap:butt;stroke-linejoin:miter;stroke-opacity:1" d="M 102.847,95.7865 116.968,32.242 z" id="boundary" inkscape:connector-curvature="0" />
	<path style="fill:none;stroke:red;stroke-width:1px;stroke-linecap:butt;stroke-linejoin:miter;stroke-opacity:1" d="M 102.847,201.694 102.847,166.391 z" id="boundary" inkscape:connector-curvature="0" />
	<path style="fill:none;stroke:red;stroke-width:1px;stroke-linecap:butt;stroke-linejoin:miter;stroke-opacity:1" d="M 102.847,201.694 102.847,236.996 z" id="boundary" inkscape:connector-curvature="0" />
	<path style="fill:none;stroke:red;stroke-width:1px;stroke-linecap:butt;stroke-linejoin:miter;stroke-opacity:1" d="M 102.847,272.299 102.847,307.601 z" id="boundary" inkscape:connector-curvature="0" />
	<path style="fill:none;stroke:red;stroke-width:1px;stroke-linecap:butt;stroke-linejoin:miter;stroke-opacity:1" d="M 102.847,307.601 95.7865,364.085 z" id="boundary" inkscape:connector-curvature="0" />
	<path style="fill:none;stroke:red;stroke-width:1px;stroke-linecap:butt;stroke-linejoin:miter;stroke-opacity:1" d="M 102.847,272.299 102.847,236.996 z" id="boundary" inkscape:connector-curvature="0" />
	<path style="fill:none;stroke:red;stroke-width:1px;stroke-linecap:butt;stroke-linejoin:miter;stroke-opacity:1" d="M 25.1815,745.352 11.0605,780.655 z" id="boundary" inkscape:connector-curvature="0" />
	<path style="fill:none;stroke:red;stroke-width:1px;stroke-linecap:butt;stroke-linejoin:miter;stroke-opacity:1" d="M 11.0605,780.655 4,823.018 z" id="boundary" inkscape:connector-curvature="0" />
	<path style="fill:none;stroke:red;stroke-width:1px;stroke-linecap:butt;stroke-linejoin:miter;stroke-opacity:1" d="M 4,858.32 4,823.018 z" id="boundary" inkscape:connector-curvature="0" />
	<path style="fill:none;stroke:red;stroke-width:1px;stroke-linecap:butt;stroke-linejoin:miter;stroke-opacity:1" d="M 21.6512,928.925 11.0605,893.623 z" id="boundary" inkscape:connector-curvature="0" />
	<path style="fill:none;stroke:red;stroke-width:1px;stroke-linecap:butt;stroke-linejoin:miter;stroke-opacity:1" d="M 11.0605,893.623 4,858.32 z" id="boundary" inkscape:connector-curvature="0" />
	<path style="fill:none;stroke:red;stroke-width:1px;stroke-linecap:butt;stroke-linejoin:miter;stroke-opacity:1" d="M 138.149,996 102.847,996 z" id="boundary" inkscape:connector-curvature="0" />
	<path style="fill:none;stroke:red;stroke-width:1px;stroke-linecap:butt;stroke-linejoin:miter;stroke-opacity:1" d="M 32.242,568.84 32.242,604.142 z" id="boundary" inkscape:connector-curvature="0" />
	<path style="fill:none;stroke:red;stroke-width:1px;stroke-linecap:butt;stroke-linejoin:miter;stroke-opacity:1" d="M 32.242,604.142 42.8327,639.445 z" id="boundary" inkscape:connector-curvature="0" />
	<path style="fill:none;stroke:red;stroke-width:1px;stroke-linecap:butt;stroke-linejoin:miter;stroke-opacity:1" d="M 46.363,674.747 42.8327,639.445 z" id="boundary" inkscape:connector-curvature="0" />
	<path style="fill:none;stroke:red;stroke-width:1px;stroke-linecap:butt;stroke-linejoin:miter;stroke-opacity:1" d="M 32.242,568.84 46.363,526.477 z" id="boundary" inkscape:connector-curvature="0" />
	<path style="fill:none;stroke:red;stroke-width:1px;stroke-linecap:butt;stroke-linejoin:miter;stroke-opacity:1" d="M 46.363,674.747 39.3025,710.05 z" id="boundary" inkscape:connector-curvature="0" />
	<path style="fill:none;stroke:red;stroke-width:1px;stroke-linecap:butt;stroke-linejoin:miter;stroke-opacity:1" d="M 39.3025,960.698 21.6512,928.925 z" id="boundary" inkscape:connector-curvature="0" />
	<path style="fill:none;stroke:red;stroke-width:1px;stroke-linecap:butt;stroke-linejoin:miter;stroke-opacity:1" d="M 102.847,996 67.5445,985.409 z" id="boundary" inkscape:connector-curvature="0" />
	<path style="fill:none;stroke:red;stroke-width:1px;stroke-linecap:butt;stroke-linejoin:miter;stroke-opacity:1" d="M 67.5445,985.409 39.3025,960.698 z" id="boundary" inkscape:connector-curvature="0" />
	<path style="fill:none;stroke:red;stroke-width:1px;stroke-linecap:butt;stroke-linejoin:miter;stroke-opacity:1" d="M 25.1815,745.352 39.3025,710.05 z" id="boundary" inkscape:connector-curvature="0" />
	<path style="fill:none;stroke:red;stroke-width:1px;stroke-linecap:butt;stroke-linejoin:miter;stroke-opacity:1" d="M 134.619,184.043 141.68,219.345 z" id="boundary" inkscape:connector-curvature="0" />
	<path style="fill:none;stroke:red;stroke-width:1px;stroke-linecap:butt;stroke-linejoin:miter;stroke-opacity:1" d="M 141.68,219.345 141.68,254.648 z" id="boundary" inkscape:connector-curvature="0" />
	<path style="fill:none;stroke:red;stroke-width:1px;stroke-linecap:butt;stroke-linejoin:miter;stroke-opacity:1" d="M 141.68,254.648 141.68,289.95 z" id="boundary" inkscape:connector-curvature="0" />
	<path style="fill:none;stroke:red;stroke-width:1px;stroke-linecap:butt;stroke-linejoin:miter;stroke-opacity:1" d="M 141.68,289.95 141.68,325.253 z" id="boundary" inkscape:connector-curvature="0" />
	<path style="fill:none;stroke:red;stroke-width:1px;stroke-linecap:butt;stroke-linejoin:miter;stroke-opacity:1" d="M 141.68,360.555 141.68,395.858 z" id="boundary" inkscape:connector-curvature="0" />
	<path style="fill:none;stroke:red;stroke-width:1px;stroke-linecap:butt;stroke-linejoin:miter;stroke-opacity:1" d="M 141.68,360.555 141.68,325.253 z" id="boundary" inkscape:connector-curvature="0" />
	<path style="fill:none;stroke:red;stroke-width:1px;stroke-linecap:butt;stroke-linejoin:miter;stroke-opacity:1" d="M 141.68,395.858 148.74,431.16 z" id="boundary" inkscape:connector-curvature="0" />
	<path style="fill:none;stroke:red;stroke-width:1px;stroke-linecap:butt;stroke-linejoin:miter;stroke-opacity:1" d="M 155.801,88.726 169.922,46.363 z" id="boundary" inkscape:connector-curvature="0" />
	<path style="fill:none;stroke:red;stroke-width:1px;stroke-linecap:butt;stroke-linejoin:miter;stroke-opacity:1" d="M 138.149,4 173.452,11.0605 z" id="boundary" inkscape:connector-curvature="0" />
	<path style="fill:none;stroke:red;stroke-width:1px;stroke-linecap:butt;stroke-linejoin:miter;stroke-opacity:1" d="M 173.452,11.0605 169.922,46.363 z" id="boundary" inkscape:connector-curvature="0" />
	<path style="fill:none;stroke:red;stroke-width:1px;stroke-linecap:butt;stroke-linejoin:miter;stroke-opacity:1" d="M 148.74,466.463 148.74,431.16 z" id="boundary" inkscape:connector-curvature="0" />
	<path style="fill:none;stroke:red;stroke-width:1px;stroke-linecap:butt;stroke-linejoin:miter;stroke-opacity:1" d="M 180.512,484.114 148.74,466.463 z" id="boundary" inkscape:connector-curvature="0" />
	<path style="fill:none;stroke:red;stroke-width:1px;stroke-linecap:butt;stroke-linejoin:miter;stroke-opacity:1" d="M 215.815,498.235 219.345,533.537 z" id="boundary" inkscape:connector-curvature="0" />
	<path style="fill:none;stroke:red;stroke-width:1px;stroke-linecap:butt;stroke-linejoin:miter;stroke-opacity:1" d="M 180.512,484.114 215.815,498.235 z" id="boundary" inkscape:connector-curvature="0" />
	<path style="fill:none;stroke:red;stroke-width:1px;stroke-linecap:butt;stroke-linejoin:miter;stroke-opacity:1" d="M 254.648,547.658 219.345,533.537 z" id="boundary" inkscape:connector-curvature="0" />
	<path style="fill:none;stroke:red;stroke-width:1px;stroke-linecap:butt;stroke-linejoin:miter;stroke-opacity:1" d="M 268.769,660.626 275.829,695.929 z" id="boundary" inkscape:connector-curvature="0" />
	<path style="fill:none;stroke:red;stroke-width:1px;stroke-linecap:butt;stroke-linejoin:miter;stroke-opacity:1" d="M 268.769,660.626 282.89,604.142 z" id="boundary" inkscape:connector-curvature="0" />
	<path style="fill:none;stroke:red;stroke-width:1px;stroke-linecap:butt;stroke-linejoin:miter;stroke-opacity:1" d="M 282.89,731.231 297.011,766.534 z" id="boundary" inkscape:connector-curvature="0" />
	<path style="fill:none;stroke:red;stroke-width:1px;stroke-linecap:butt;stroke-linejoin:miter;stroke-opacity:1" d="M 275.829,695.929 282.89,731.231 z" id="boundary" inkscape:connector-curvature="0" />
	<path style="fill:none;stroke:red;stroke-width:1px;stroke-linecap:butt;stroke-linejoin:miter;stroke-opacity:1" d="M 208.754,996 173.452,996 z" id="boundary" inkscape:connector-curvature="0" />
	<path style="fill:none;stroke:red;stroke-width:1px;stroke-linecap:butt;stroke-linejoin:miter;stroke-opacity:1" d="M 173.452,996 138.149,996 z" id="boundary" inkscape:connector-curvature="0" />
	<path style="fill:none;stroke:red;stroke-width:1px;stroke-linecap:butt;stroke-linejoin:miter;stroke-opacity:1" d="M 289.95,928.925 272.299,960.698 z" id="boundary" inkscape:connector-curvature="0" />
	<path style="fill:none;stroke:red;stroke-width:1px;stroke-linecap:butt;stroke-linejoin:miter;stroke-opacity:1" d="M 244.057,988.94 208.754,996 z" id="boundary" inkscape:connector-curvature="0" />
	<path style="fill:none;stroke:red;stroke-width:1px;stroke-linecap:butt;stroke-linejoin:miter;stroke-opacity:1" d="M 272.299,960.698 244.057,988.94 z" id="boundary" inkscape:connector-curvature="0" />
	<path style="fill:none;stroke:red;stroke-width:1px;stroke-linecap:butt;stroke-linejoin:miter;stroke-opacity:1" d="M 282.89,568.84 282.89,604.142 z" id="boundary" inkscape:connector-curvature="0" />
	<path style="fill:none;stroke:red;stroke-width:1px;stroke-linecap:butt;stroke-linejoin:miter;stroke-opacity:1" d="M 254.648,547.658 282.89,568.84 z" id="boundary" inkscape:connector-curvature="0" />
	<path style="fill:none;stroke:red;stroke-width:1px;stroke-linecap:butt;stroke-linejoin:miter;stroke-opacity:1" d="M 304.071,801.836 297.011,766.534 z" id="boundary" inkscape:connector-curvature="0" />
	<path style="fill:none;stroke:red;stroke-width:1px;stroke-linecap:butt;stroke-linejoin:miter;stroke-opacity:1" d="M 304.071,886.562 289.95,928.925 z" id="boundary" inkscape:connector-curvature="0" />
	<path style="fill:none;stroke:red;stroke-width:1px;stroke-linecap:butt;stroke-linejoin:miter;stroke-opacity:1" d="M 311.132,837.139 304.071,886.562 z" id="boundary" inkscape:connector-curvature="0" />
	<path style="fill:none;stroke:red;stroke-width:1px;stroke-linecap:butt;stroke-linejoin:miter;stroke-opacity:1" d="M 304.071,801.836 311.132,837.139 z" id="boundary" inkscape:connector-curvature="0" />
	<path style="fill:none;stroke:red;stroke-width:1px;stroke-linecap:butt;stroke-linejoin:miter;stroke-opacity:1" d="M 116.968,32.242 138.149,4 z" id="boundary" inkscape:connector-curvature="0" />
	<circle cx="4" cy="823.018" r="4" fill="#0" id="circle0"/>
	<circle cx="4" cy="858.32" r="4" fill="#0" id="circle1"/>
	<circle cx="11.0605" cy="780.655" r="4" fill="#0" id="circle2"/>
	<circle cx="11.0605" cy="893.623" r="4" fill="#0" id="circle3"/>
	<circle cx="21.6512" cy="928.925" r="4" fill="#0" id="circle4"/>
	<circle cx="25.1815" cy="745.352" r="4" fill="#0" id="circle5"/>
	<circle cx="32.242" cy="568.84" r="4" fill="#0" id="circle6"/>
	<circle cx="32.242" cy="604.142" r="4" fill="#0" id="circle7"/>
	<circle cx="39.3025" cy="710.05" r="4" fill="#0" id="circle8"/>
	<circle cx="39.3025" cy="960.698" r="4" fill="#0" id="circle9"/>
	<circle cx="42.8327" cy="639.445" r="4" fill="#0" id="circle10"/>
	<circle cx="46.363" cy="526.477" r="4" fill="#0" id="circle11"/>
	<circle cx="46.363" cy="674.747" r="4" fill="#0" id="circle12"/>
	<circle cx="67.5445" cy="985.409" r="4" fill="#0" id="circle13"/>
	<circle cx="78.1352" cy="508.826" r="4" fill="#0" id="circle14"/>
	<circle cx="95.7865" cy="364.085" r="4" fill="#0" id="circle15"/>
	<circle cx="95.7865" cy="399.388" r="4" fill="#0" id="circle16"/>
	<circle cx="95.7865" cy="434.69" r="4" fill="#0" id="circle17"/>
	<circle cx="95.7865" cy="469.993" r="4" fill="#0" id="circle18"/>
	<circle cx="102.847" cy="95.7865" r="4" fill="#0" id="circle19"/>
	<circle cx="102.847" cy="131.089" r="4" fill="#0" id="circle20"/>
	<circle cx="102.847" cy="166.391" r="4" fill="#0" id="circle21"/>
	<circle cx="102.847" cy="201.694" r="4" fill="#0" id="circle22"/>
	<circle cx="102.847" cy="236.996" r="4" fill="#0" id="circle23"/>
	<circle cx="102.847" cy="272.299" r="4" fill="#0" id="circle24"/>
	<circle cx="102.847" cy="307.601" r="4" fill="#0" id="circle25"/>
	<circle cx="102.847" cy="996" r="4" fill="#0" id="circle26"/>
	<circle cx="116.968" cy="32.242" r="4" fill="#0" id="circle27"/>
	<circle cx="134.619" cy="148.74" r="4" fill="#0" id="circle28"/>
	<circle cx="134.619" cy="184.043" r="4" fill="#0" id="circle29"/>
	<circle cx="138.149" cy="4" r="4" fill="#0" id="circle30"/>
	<circle cx="138.149" cy="996" r="4" fill="#0" id="circle31"/>
	<circle cx="141.68" cy="219.345" r="4" fill="#0" id="circle32"/>
	<circle cx="141.68" cy="254.648" r="4" fill="#0" id="circle33"/>
	<circle cx="141.68" cy="289.95" r="4" fill="#0" id="circle34"/>
	<circle cx="141.68" cy="325.253" r="4" fill="#0" id="circle35"/>
	<circle cx="141.68" cy="360.555" r="4" fill="#0" id="circle36"/>
	<circle cx="141.68" cy="395.858" r="4" fill="#0" id="circle37"/>
	<circle cx="148.74" cy="431.16" r="4" fill="#0" id="circle38"/>
	<circle cx="148.74" cy="466.463" r="4" fill="#0" id="circle39"/>
	<circle cx="155.801" cy="88.726" r="4" fill="#0" id="circle40"/>
	<circle cx="169.922" cy="46.363" r="4" fill="#0" id="circle41"/>
	<circle cx="173.452" cy="11.0605" r="4" fill="#0" id="circle42"/>
	<circle cx="173.452" cy="996" r="4" fill="#0" id="circle43"/>
	<circle cx="180.512" cy="484.114" r="4" fill="#0" id="circle44"/>
	<circle cx="208.754" cy="996" r="4" fill="#0" id="circle45"/>
	<circle cx="215.815" cy="498.235" r="4" fill="#0" id="circle46"/>
	<circle cx="219.345" cy="533.537" r="4" fill="#0" id="circle47"/>
	<circle cx="244.057" cy="988.94" r="4" fill="#0" id="circle48"/>
	<circle cx="254.648" cy="547.658" r="4" fill="#0" id="circle49"/>
	<circle cx="268.769" cy="660.626" r="4" fill="#0" id="circle50"/>
	<circle cx="272.299" cy="960.698" r="4" fill="#0" id="circle51"/>
	<circle cx="275.829" cy="695.929" r="4" fill="#0" id="circle52"/>
	<circle cx="282.89" cy="568.84" r="4" fill="#0" id="circle53"/>
	<circle cx="282.89" cy="604.142" r="4" fill="#0" id="circle54"/>
	<circle cx="282.89" cy="731.231" r="4" fill="#0" id="circle55"/>
	<circle cx="289.95" cy="928.925" r="4" fill="#0" id="circle56"/>
	<circle cx="297.011" cy="766.534" r="4" fill="#0" id="circle57"/>
	<circle cx="304.071" cy="801.836" r="4" fill="#0" id="circle58"/>
	<circle cx="304.071" cy="886.562" r="4" fill="#0" id="circle59"/>
	<circle cx="311.132" cy="837.139" r="4" fill="#0" id="circle60"/>
	</g>
</svg>