<?xml version="1.0" encoding="UTF-8" standalone="no"?>
<!-- Created with CurveBenchmark -->
<svg
	xmlns:dc="http://purl.org/dc/elements/1.1/"
	xmlns:cc="http://creativecommons.org/ns#"
	xmlns:rdf="http://www.w3.org/1999/02/22-rdf-syntax-ns#"
	xmlns:svg="http://www.w3.org/2000/svg"
	xmlns="http://www.w3.org/2000/svg"
	xmlns:sodipodi="http://sodipodi.sourceforge.net/DTD/sodipodi-0.dtd"
	xmlns:inkscape="http://www.inkscape.org/namespaces/inkscape"
	width="1000"
	height="1000"
	id="svg2"
	version="1.1"
	sodipodi:docname="manifold/gathang-teddy075.png.txt">
<defs
	id="defs4" />
<metadata
	id="metadata7">
	<rdf:RDF>
		<cc:Work
			rdf:about="">
			<dc:format>image/svg+xml</dc:format>
			<dc:type
				rdf:resource="http://purl.org/dc/dcmitype/StillImage" />
			<dc:title></dc:title>
		</cc:Work>
	</rdf:RDF>
</metadata>
<g
	inkscape:label="Layer 1"
	inkscape:groupmode="layer"
	id="layer1">
	<path style="fill:none;stroke:red;stroke-width:1px;stroke-linecap:butt;stroke-linejoin:miter;stroke-opacity:1" d="M 71.8291,54.8718 71.8291,83.1339 z" id="boundary" inkscape:connector-curvature="0" />
	<path style="fill:none;stroke:red;stroke-width:1px;stroke-linecap:butt;stroke-linejoin:miter;stroke-opacity:1" d="M 77.4815,111.396 71.8291,83.1339 z" id="boundary" inkscape:connector-curvature="0" />
	<path style="fill:none;stroke:red;stroke-width:1px;stroke-linecap:butt;stroke-linejoin:miter;stroke-opacity:1" d="M 77.4815,111.396 85.9601,139.658 z" id="boundary" inkscape:connector-curvature="0" />
	<path style="fill:none;stroke:red;stroke-width:1px;stroke-linecap:butt;stroke-linejoin:miter;stroke-opacity:1" d="M 71.8291,54.8718 88.7863,32.2621 z" id="boundary" inkscape:connector-curvature="0" />
	<path style="fill:none;stroke:red;stroke-width:1px;stroke-linecap:butt;stroke-linejoin:miter;stroke-opacity:1" d="M 97.265,167.92 85.9601,139.658 z" id="boundary" inkscape:connector-curvature="0" />
	<path style="fill:none;stroke:red;stroke-width:1px;stroke-linecap:butt;stroke-linejoin:miter;stroke-opacity:1" d="M 94.4387,235.749 94.4387,207.487 z" id="boundary" inkscape:connector-curvature="0" />
	<path style="fill:none;stroke:red;stroke-width:1px;stroke-linecap:butt;stroke-linejoin:miter;stroke-opacity:1" d="M 97.265,167.92 94.4387,207.487 z" id="boundary" inkscape:connector-curvature="0" />
	<path style="fill:none;stroke:red;stroke-width:1px;stroke-linecap:butt;stroke-linejoin:miter;stroke-opacity:1" d="M 88.7863,32.2621 114.222,18.1311 z" id="boundary" inkscape:connector-curvature="0" />
	<path style="fill:none;stroke:red;stroke-width:1px;stroke-linecap:butt;stroke-linejoin:miter;stroke-opacity:1" d="M 94.4387,235.749 97.265,264.011 z" id="boundary" inkscape:connector-curvature="0" />
	<path style="fill:none;stroke:red;stroke-width:1px;stroke-linecap:butt;stroke-linejoin:miter;stroke-opacity:1" d="M 74.6553,405.322 52.0456,425.105 z" id="boundary" inkscape:connector-curvature="0" />
	<path style="fill:none;stroke:red;stroke-width:1px;stroke-linecap:butt;stroke-linejoin:miter;stroke-opacity:1" d="M 29.4359,447.715 52.0456,425.105 z" id="boundary" inkscape:connector-curvature="0" />
	<path style="fill:none;stroke:red;stroke-width:1px;stroke-linecap:butt;stroke-linejoin:miter;stroke-opacity:1" d="M 18.1311,475.977 29.4359,447.715 z" id="boundary" inkscape:connector-curvature="0" />
	<path style="fill:none;stroke:red;stroke-width:1px;stroke-linecap:butt;stroke-linejoin:miter;stroke-opacity:1" d="M 74.6553,405.322 102.917,391.191 z" id="boundary" inkscape:connector-curvature="0" />
	<path style="fill:none;stroke:red;stroke-width:1px;stroke-linecap:butt;stroke-linejoin:miter;stroke-opacity:1" d="M 102.917,292.274 111.396,320.536 z" id="boundary" inkscape:connector-curvature="0" />
	<path style="fill:none;stroke:red;stroke-width:1px;stroke-linecap:butt;stroke-linejoin:miter;stroke-opacity:1" d="M 111.396,320.536 125.527,345.972 z" id="boundary" inkscape:connector-curvature="0" />
	<path style="fill:none;stroke:red;stroke-width:1px;stroke-linecap:butt;stroke-linejoin:miter;stroke-opacity:1" d="M 102.917,292.274 97.265,264.011 z" id="boundary" inkscape:connector-curvature="0" />
	<path style="fill:none;stroke:red;stroke-width:1px;stroke-linecap:butt;stroke-linejoin:miter;stroke-opacity:1" d="M 114.222,18.1311 142.484,6.82621 z" id="boundary" inkscape:connector-curvature="0" />
	<path style="fill:none;stroke:red;stroke-width:1px;stroke-linecap:butt;stroke-linejoin:miter;stroke-opacity:1" d="M 170.746,4 199.009,9.65242 z" id="boundary" inkscape:connector-curvature="0" />
	<path style="fill:none;stroke:red;stroke-width:1px;stroke-linecap:butt;stroke-linejoin:miter;stroke-opacity:1" d="M 199.009,9.65242 227.271,20.9573 z" id="boundary" inkscape:connector-curvature="0" />
	<path style="fill:none;stroke:red;stroke-width:1px;stroke-linecap:butt;stroke-linejoin:miter;stroke-opacity:1" d="M 227.271,20.9573 249.88,37.9145 z" id="boundary" inkscape:connector-curvature="0" />
	<path style="fill:none;stroke:red;stroke-width:1px;stroke-linecap:butt;stroke-linejoin:miter;stroke-opacity:1" d="M 444.889,4 473.151,4 z" id="boundary" inkscape:connector-curvature="0" />
	<path style="fill:none;stroke:red;stroke-width:1px;stroke-linecap:butt;stroke-linejoin:miter;stroke-opacity:1" d="M 473.151,4 501.413,15.3048 z" id="boundary" inkscape:connector-curvature="0" />
	<path style="fill:none;stroke:red;stroke-width:1px;stroke-linecap:butt;stroke-linejoin:miter;stroke-opacity:1" d="M 416.627,15.3048 388.365,26.6097 z" id="boundary" inkscape:connector-curvature="0" />
	<path style="fill:none;stroke:red;stroke-width:1px;stroke-linecap:butt;stroke-linejoin:miter;stroke-opacity:1" d="M 416.627,15.3048 444.889,4 z" id="boundary" inkscape:connector-curvature="0" />
	<path style="fill:none;stroke:red;stroke-width:1px;stroke-linecap:butt;stroke-linejoin:miter;stroke-opacity:1" d="M 278.142,43.567 306.405,43.567 z" id="boundary" inkscape:connector-curvature="0" />
	<path style="fill:none;stroke:red;stroke-width:1px;stroke-linecap:butt;stroke-linejoin:miter;stroke-opacity:1" d="M 278.142,43.567 249.88,37.9145 z" id="boundary" inkscape:connector-curvature="0" />
	<path style="fill:none;stroke:red;stroke-width:1px;stroke-linecap:butt;stroke-linejoin:miter;stroke-opacity:1" d="M 125.527,345.972 131.179,382.712 z" id="boundary" inkscape:connector-curvature="0" />
	<path style="fill:none;stroke:red;stroke-width:1px;stroke-linecap:butt;stroke-linejoin:miter;stroke-opacity:1" d="M 131.179,382.712 102.917,391.191 z" id="boundary" inkscape:connector-curvature="0" />
	<path style="fill:none;stroke:red;stroke-width:1px;stroke-linecap:butt;stroke-linejoin:miter;stroke-opacity:1" d="M 388.365,26.6097 362.929,43.567 z" id="boundary" inkscape:connector-curvature="0" />
	<path style="fill:none;stroke:red;stroke-width:1px;stroke-linecap:butt;stroke-linejoin:miter;stroke-opacity:1" d="M 362.929,43.567 334.667,40.7407 z" id="boundary" inkscape:connector-curvature="0" />
	<path style="fill:none;stroke:red;stroke-width:1px;stroke-linecap:butt;stroke-linejoin:miter;stroke-opacity:1" d="M 306.405,43.567 334.667,40.7407 z" id="boundary" inkscape:connector-curvature="0" />
	<path style="fill:none;stroke:red;stroke-width:1px;stroke-linecap:butt;stroke-linejoin:miter;stroke-opacity:1" d="M 142.484,6.82621 170.746,4 z" id="boundary" inkscape:connector-curvature="0" />
	<path style="fill:none;stroke:red;stroke-width:1px;stroke-linecap:butt;stroke-linejoin:miter;stroke-opacity:1" d="M 4,501.413 18.1311,475.977 z" id="boundary" inkscape:connector-curvature="0" />
	<path style="fill:none;stroke:red;stroke-width:1px;stroke-linecap:butt;stroke-linejoin:miter;stroke-opacity:1" d="M 9.65242,529.675 4,501.413 z" id="boundary" inkscape:connector-curvature="0" />
	<path style="fill:none;stroke:red;stroke-width:1px;stroke-linecap:butt;stroke-linejoin:miter;stroke-opacity:1" d="M 9.65242,529.675 9.65242,557.937 z" id="boundary" inkscape:connector-curvature="0" />
	<path style="fill:none;stroke:red;stroke-width:1px;stroke-linecap:butt;stroke-linejoin:miter;stroke-opacity:1" d="M 26.6097,580.547 9.65242,557.937 z" id="boundary" inkscape:connector-curvature="0" />
	<path style="fill:none;stroke:red;stroke-width:1px;stroke-linecap:butt;stroke-linejoin:miter;stroke-opacity:1" d="M 26.6097,580.547 43.567,603.157 z" id="boundary" inkscape:connector-curvature="0" />
	<path style="fill:none;stroke:red;stroke-width:1px;stroke-linecap:butt;stroke-linejoin:miter;stroke-opacity:1" d="M 60.5242,625.766 83.1339,642.724 z" id="boundary" inkscape:connector-curvature="0" />
	<path style="fill:none;stroke:red;stroke-width:1px;stroke-linecap:butt;stroke-linejoin:miter;stroke-opacity:1" d="M 60.5242,625.766 43.567,603.157 z" id="boundary" inkscape:connector-curvature="0" />
	<path style="fill:none;stroke:red;stroke-width:1px;stroke-linecap:butt;stroke-linejoin:miter;stroke-opacity:1" d="M 117.048,846.211 117.048,874.473 z" id="boundary" inkscape:connector-curvature="0" />
	<path style="fill:none;stroke:red;stroke-width:1px;stroke-linecap:butt;stroke-linejoin:miter;stroke-opacity:1" d="M 117.048,874.473 117.048,902.735 z" id="boundary" inkscape:connector-curvature="0" />
	<path style="fill:none;stroke:red;stroke-width:1px;stroke-linecap:butt;stroke-linejoin:miter;stroke-opacity:1" d="M 117.048,930.997 117.048,902.735 z" id="boundary" inkscape:connector-curvature="0" />
	<path style="fill:none;stroke:red;stroke-width:1px;stroke-linecap:butt;stroke-linejoin:miter;stroke-opacity:1" d="M 122.701,772.729 122.701,744.467 z" id="boundary" inkscape:connector-curvature="0" />
	<path style="fill:none;stroke:red;stroke-width:1px;stroke-linecap:butt;stroke-linejoin:miter;stroke-opacity:1" d="M 122.701,744.467 134.006,699.248 z" id="boundary" inkscape:connector-curvature="0" />
	<path style="fill:none;stroke:red;stroke-width:1px;stroke-linecap:butt;stroke-linejoin:miter;stroke-opacity:1" d="M 117.048,930.997 119.875,959.259 z" id="boundary" inkscape:connector-curvature="0" />
	<path style="fill:none;stroke:red;stroke-width:1px;stroke-linecap:butt;stroke-linejoin:miter;stroke-opacity:1" d="M 142.484,979.043 119.875,959.259 z" id="boundary" inkscape:connector-curvature="0" />
	<path style="fill:none;stroke:red;stroke-width:1px;stroke-linecap:butt;stroke-linejoin:miter;stroke-opacity:1" d="M 122.701,812.296 117.048,846.211 z" id="boundary" inkscape:connector-curvature="0" />
	<path style="fill:none;stroke:red;stroke-width:1px;stroke-linecap:butt;stroke-linejoin:miter;stroke-opacity:1" d="M 122.701,772.729 122.701,812.296 z" id="boundary" inkscape:connector-curvature="0" />
	<path style="fill:none;stroke:red;stroke-width:1px;stroke-linecap:butt;stroke-linejoin:miter;stroke-opacity:1" d="M 83.1339,642.724 108.57,656.855 z" id="boundary" inkscape:connector-curvature="0" />
	<path style="fill:none;stroke:red;stroke-width:1px;stroke-linecap:butt;stroke-linejoin:miter;stroke-opacity:1" d="M 108.57,656.855 134.006,670.986 z" id="boundary" inkscape:connector-curvature="0" />
	<path style="fill:none;stroke:red;stroke-width:1px;stroke-linecap:butt;stroke-linejoin:miter;stroke-opacity:1" d="M 134.006,670.986 134.006,699.248 z" id="boundary" inkscape:connector-curvature="0" />
	<path style="fill:none;stroke:red;stroke-width:1px;stroke-linecap:butt;stroke-linejoin:miter;stroke-opacity:1" d="M 450.541,979.043 478.803,979.043 z" id="boundary" inkscape:connector-curvature="0" />
	<path style="fill:none;stroke:red;stroke-width:1px;stroke-linecap:butt;stroke-linejoin:miter;stroke-opacity:1" d="M 422.279,984.695 450.541,979.043 z" id="boundary" inkscape:connector-curvature="0" />
	<path style="fill:none;stroke:red;stroke-width:1px;stroke-linecap:butt;stroke-linejoin:miter;stroke-opacity:1" d="M 507.066,973.39 478.803,979.043 z" id="boundary" inkscape:connector-curvature="0" />
	<path style="fill:none;stroke:red;stroke-width:1px;stroke-linecap:butt;stroke-linejoin:miter;stroke-opacity:1" d="M 422.279,984.695 394.017,990.348 z" id="boundary" inkscape:connector-curvature="0" />
	<path style="fill:none;stroke:red;stroke-width:1px;stroke-linecap:butt;stroke-linejoin:miter;stroke-opacity:1" d="M 394.017,990.348 365.755,990.348 z" id="boundary" inkscape:connector-curvature="0" />
	<path style="fill:none;stroke:red;stroke-width:1px;stroke-linecap:butt;stroke-linejoin:miter;stroke-opacity:1" d="M 167.92,993.174 142.484,979.043 z" id="boundary" inkscape:connector-curvature="0" />
	<path style="fill:none;stroke:red;stroke-width:1px;stroke-linecap:butt;stroke-linejoin:miter;stroke-opacity:1" d="M 196.182,996 167.92,993.174 z" id="boundary" inkscape:connector-curvature="0" />
	<path style="fill:none;stroke:red;stroke-width:1px;stroke-linecap:butt;stroke-linejoin:miter;stroke-opacity:1" d="M 224.444,996 196.182,996 z" id="boundary" inkscape:connector-curvature="0" />
	<path style="fill:none;stroke:red;stroke-width:1px;stroke-linecap:butt;stroke-linejoin:miter;stroke-opacity:1" d="M 252.707,996 224.444,996 z" id="boundary" inkscape:connector-curvature="0" />
	<path style="fill:none;stroke:red;stroke-width:1px;stroke-linecap:butt;stroke-linejoin:miter;stroke-opacity:1" d="M 309.231,996 280.969,996 z" id="boundary" inkscape:connector-curvature="0" />
	<path style="fill:none;stroke:red;stroke-width:1px;stroke-linecap:butt;stroke-linejoin:miter;stroke-opacity:1" d="M 280.969,996 252.707,996 z" id="boundary" inkscape:connector-curvature="0" />
	<path style="fill:none;stroke:red;stroke-width:1px;stroke-linecap:butt;stroke-linejoin:miter;stroke-opacity:1" d="M 365.755,990.348 337.493,996 z" id="boundary" inkscape:connector-curvature="0" />
	<path style="fill:none;stroke:red;stroke-width:1px;stroke-linecap:butt;stroke-linejoin:miter;stroke-opacity:1" d="M 337.493,996 309.231,996 z" id="boundary" inkscape:connector-curvature="0" />
	<path style="fill:none;stroke:red;stroke-width:1px;stroke-linecap:butt;stroke-linejoin:miter;stroke-opacity:1" d="M 538.154,145.311 526.849,179.225 z" id="boundary" inkscape:connector-curvature="0" />
	<path style="fill:none;stroke:red;stroke-width:1px;stroke-linecap:butt;stroke-linejoin:miter;stroke-opacity:1" d="M 549.459,111.396 538.154,145.311 z" id="boundary" inkscape:connector-curvature="0" />
	<path style="fill:none;stroke:red;stroke-width:1px;stroke-linecap:butt;stroke-linejoin:miter;stroke-opacity:1" d="M 535.328,207.487 526.849,179.225 z" id="boundary" inkscape:connector-curvature="0" />
	<path style="fill:none;stroke:red;stroke-width:1px;stroke-linecap:butt;stroke-linejoin:miter;stroke-opacity:1" d="M 549.459,232.923 535.328,207.487 z" id="boundary" inkscape:connector-curvature="0" />
	<path style="fill:none;stroke:red;stroke-width:1px;stroke-linecap:butt;stroke-linejoin:miter;stroke-opacity:1" d="M 555.111,77.4815 549.459,111.396 z" id="boundary" inkscape:connector-curvature="0" />
	<path style="fill:none;stroke:red;stroke-width:1px;stroke-linecap:butt;stroke-linejoin:miter;stroke-opacity:1" d="M 555.111,77.4815 549.459,49.2194 z" id="boundary" inkscape:connector-curvature="0" />
	<path style="fill:none;stroke:red;stroke-width:1px;stroke-linecap:butt;stroke-linejoin:miter;stroke-opacity:1" d="M 526.849,29.4359 549.459,49.2194 z" id="boundary" inkscape:connector-curvature="0" />
	<path style="fill:none;stroke:red;stroke-width:1px;stroke-linecap:butt;stroke-linejoin:miter;stroke-opacity:1" d="M 549.459,232.923 549.459,261.185 z" id="boundary" inkscape:connector-curvature="0" />
	<path style="fill:none;stroke:red;stroke-width:1px;stroke-linecap:butt;stroke-linejoin:miter;stroke-opacity:1" d="M 572.068,388.365 543.806,382.712 z" id="boundary" inkscape:connector-curvature="0" />
	<path style="fill:none;stroke:red;stroke-width:1px;stroke-linecap:butt;stroke-linejoin:miter;stroke-opacity:1" d="M 535.328,345.972 518.37,368.581 z" id="boundary" inkscape:connector-curvature="0" />
	<path style="fill:none;stroke:red;stroke-width:1px;stroke-linecap:butt;stroke-linejoin:miter;stroke-opacity:1" d="M 518.37,368.581 543.806,382.712 z" id="boundary" inkscape:connector-curvature="0" />
	<path style="fill:none;stroke:red;stroke-width:1px;stroke-linecap:butt;stroke-linejoin:miter;stroke-opacity:1" d="M 549.459,261.185 555.111,289.447 z" id="boundary" inkscape:connector-curvature="0" />
	<path style="fill:none;stroke:red;stroke-width:1px;stroke-linecap:butt;stroke-linejoin:miter;stroke-opacity:1" d="M 552.285,323.362 555.111,289.447 z" id="boundary" inkscape:connector-curvature="0" />
	<path style="fill:none;stroke:red;stroke-width:1px;stroke-linecap:butt;stroke-linejoin:miter;stroke-opacity:1" d="M 552.285,323.362 535.328,345.972 z" id="boundary" inkscape:connector-curvature="0" />
	<path style="fill:none;stroke:red;stroke-width:1px;stroke-linecap:butt;stroke-linejoin:miter;stroke-opacity:1" d="M 572.068,388.365 600.33,394.017 z" id="boundary" inkscape:connector-curvature="0" />
	<path style="fill:none;stroke:red;stroke-width:1px;stroke-linecap:butt;stroke-linejoin:miter;stroke-opacity:1" d="M 600.33,394.017 617.288,416.627 z" id="boundary" inkscape:connector-curvature="0" />
	<path style="fill:none;stroke:red;stroke-width:1px;stroke-linecap:butt;stroke-linejoin:miter;stroke-opacity:1" d="M 501.413,15.3048 526.849,29.4359 z" id="boundary" inkscape:connector-curvature="0" />
	<path style="fill:none;stroke:red;stroke-width:1px;stroke-linecap:butt;stroke-linejoin:miter;stroke-opacity:1" d="M 617.288,416.627 645.55,427.932 z" id="boundary" inkscape:connector-curvature="0" />
	<path style="fill:none;stroke:red;stroke-width:1px;stroke-linecap:butt;stroke-linejoin:miter;stroke-opacity:1" d="M 673.812,433.584 702.074,433.584 z" id="boundary" inkscape:connector-curvature="0" />
	<path style="fill:none;stroke:red;stroke-width:1px;stroke-linecap:butt;stroke-linejoin:miter;stroke-opacity:1" d="M 673.812,433.584 645.55,427.932 z" id="boundary" inkscape:connector-curvature="0" />
	<path style="fill:none;stroke:red;stroke-width:1px;stroke-linecap:butt;stroke-linejoin:miter;stroke-opacity:1" d="M 730.336,439.236 758.598,444.889 z" id="boundary" inkscape:connector-curvature="0" />
	<path style="fill:none;stroke:red;stroke-width:1px;stroke-linecap:butt;stroke-linejoin:miter;stroke-opacity:1" d="M 786.86,456.194 800.991,481.63 z" id="boundary" inkscape:connector-curvature="0" />
	<path style="fill:none;stroke:red;stroke-width:1px;stroke-linecap:butt;stroke-linejoin:miter;stroke-opacity:1" d="M 758.598,444.889 786.86,456.194 z" id="boundary" inkscape:connector-curvature="0" />
	<path style="fill:none;stroke:red;stroke-width:1px;stroke-linecap:butt;stroke-linejoin:miter;stroke-opacity:1" d="M 702.074,433.584 730.336,439.236 z" id="boundary" inkscape:connector-curvature="0" />
	<path style="fill:none;stroke:red;stroke-width:1px;stroke-linecap:butt;stroke-linejoin:miter;stroke-opacity:1" d="M 800.991,481.63 809.47,509.892 z" id="boundary" inkscape:connector-curvature="0" />
	<path style="fill:none;stroke:red;stroke-width:1px;stroke-linecap:butt;stroke-linejoin:miter;stroke-opacity:1" d="M 713.379,634.245 741.641,622.94 z" id="boundary" inkscape:connector-curvature="0" />
	<path style="fill:none;stroke:red;stroke-width:1px;stroke-linecap:butt;stroke-linejoin:miter;stroke-opacity:1" d="M 656.855,651.202 685.117,645.55 z" id="boundary" inkscape:connector-curvature="0" />
	<path style="fill:none;stroke:red;stroke-width:1px;stroke-linecap:butt;stroke-linejoin:miter;stroke-opacity:1" d="M 685.117,645.55 713.379,634.245 z" id="boundary" inkscape:connector-curvature="0" />
	<path style="fill:none;stroke:red;stroke-width:1px;stroke-linecap:butt;stroke-linejoin:miter;stroke-opacity:1" d="M 803.818,557.937 809.47,509.892 z" id="boundary" inkscape:connector-curvature="0" />
	<path style="fill:none;stroke:red;stroke-width:1px;stroke-linecap:butt;stroke-linejoin:miter;stroke-opacity:1" d="M 803.818,557.937 789.687,583.373 z" id="boundary" inkscape:connector-curvature="0" />
	<path style="fill:none;stroke:red;stroke-width:1px;stroke-linecap:butt;stroke-linejoin:miter;stroke-opacity:1" d="M 767.077,605.983 789.687,583.373 z" id="boundary" inkscape:connector-curvature="0" />
	<path style="fill:none;stroke:red;stroke-width:1px;stroke-linecap:butt;stroke-linejoin:miter;stroke-opacity:1" d="M 767.077,605.983 741.641,622.94 z" id="boundary" inkscape:connector-curvature="0" />
	<path style="fill:none;stroke:red;stroke-width:1px;stroke-linecap:butt;stroke-linejoin:miter;stroke-opacity:1" d="M 572.068,659.681 600.33,656.855 z" id="boundary" inkscape:connector-curvature="0" />
	<path style="fill:none;stroke:red;stroke-width:1px;stroke-linecap:butt;stroke-linejoin:miter;stroke-opacity:1" d="M 577.721,687.943 572.068,659.681 z" id="boundary" inkscape:connector-curvature="0" />
	<path style="fill:none;stroke:red;stroke-width:1px;stroke-linecap:butt;stroke-linejoin:miter;stroke-opacity:1" d="M 614.462,721.858 586.199,716.205 z" id="boundary" inkscape:connector-curvature="0" />
	<path style="fill:none;stroke:red;stroke-width:1px;stroke-linecap:butt;stroke-linejoin:miter;stroke-opacity:1" d="M 586.199,716.205 577.721,687.943 z" id="boundary" inkscape:connector-curvature="0" />
	<path style="fill:none;stroke:red;stroke-width:1px;stroke-linecap:butt;stroke-linejoin:miter;stroke-opacity:1" d="M 600.33,656.855 628.593,662.507 z" id="boundary" inkscape:connector-curvature="0" />
	<path style="fill:none;stroke:red;stroke-width:1px;stroke-linecap:butt;stroke-linejoin:miter;stroke-opacity:1" d="M 642.724,730.336 614.462,721.858 z" id="boundary" inkscape:connector-curvature="0" />
	<path style="fill:none;stroke:red;stroke-width:1px;stroke-linecap:butt;stroke-linejoin:miter;stroke-opacity:1" d="M 670.986,733.162 642.724,730.336 z" id="boundary" inkscape:connector-curvature="0" />
	<path style="fill:none;stroke:red;stroke-width:1px;stroke-linecap:butt;stroke-linejoin:miter;stroke-opacity:1" d="M 628.593,662.507 656.855,651.202 z" id="boundary" inkscape:connector-curvature="0" />
	<path style="fill:none;stroke:red;stroke-width:1px;stroke-linecap:butt;stroke-linejoin:miter;stroke-opacity:1" d="M 699.248,727.51 670.986,733.162 z" id="boundary" inkscape:connector-curvature="0" />
	<path style="fill:none;stroke:red;stroke-width:1px;stroke-linecap:butt;stroke-linejoin:miter;stroke-opacity:1" d="M 535.328,973.39 507.066,973.39 z" id="boundary" inkscape:connector-curvature="0" />
	<path style="fill:none;stroke:red;stroke-width:1px;stroke-linecap:butt;stroke-linejoin:miter;stroke-opacity:1" d="M 563.59,967.738 535.328,973.39 z" id="boundary" inkscape:connector-curvature="0" />
	<path style="fill:none;stroke:red;stroke-width:1px;stroke-linecap:butt;stroke-linejoin:miter;stroke-opacity:1" d="M 563.59,967.738 591.852,973.39 z" id="boundary" inkscape:connector-curvature="0" />
	<path style="fill:none;stroke:red;stroke-width:1px;stroke-linecap:butt;stroke-linejoin:miter;stroke-opacity:1" d="M 648.376,990.348 620.114,979.043 z" id="boundary" inkscape:connector-curvature="0" />
	<path style="fill:none;stroke:red;stroke-width:1px;stroke-linecap:butt;stroke-linejoin:miter;stroke-opacity:1" d="M 620.114,979.043 591.852,973.39 z" id="boundary" inkscape:connector-curvature="0" />
	<path style="fill:none;stroke:red;stroke-width:1px;stroke-linecap:butt;stroke-linejoin:miter;stroke-opacity:1" d="M 648.376,990.348 676.638,996 z" id="boundary" inkscape:connector-curvature="0" />
	<path style="fill:none;stroke:red;stroke-width:1px;stroke-linecap:butt;stroke-linejoin:miter;stroke-opacity:1" d="M 704.9,996 676.638,996 z" id="boundary" inkscape:connector-curvature="0" />
	<path style="fill:none;stroke:red;stroke-width:1px;stroke-linecap:butt;stroke-linejoin:miter;stroke-opacity:1" d="M 727.51,727.51 755.772,727.51 z" id="boundary" inkscape:connector-curvature="0" />
	<path style="fill:none;stroke:red;stroke-width:1px;stroke-linecap:butt;stroke-linejoin:miter;stroke-opacity:1" d="M 727.51,727.51 699.248,727.51 z" id="boundary" inkscape:connector-curvature="0" />
	<path style="fill:none;stroke:red;stroke-width:1px;stroke-linecap:butt;stroke-linejoin:miter;stroke-opacity:1" d="M 784.034,727.51 806.644,744.467 z" id="boundary" inkscape:connector-curvature="0" />
	<path style="fill:none;stroke:red;stroke-width:1px;stroke-linecap:butt;stroke-linejoin:miter;stroke-opacity:1" d="M 755.772,727.51 784.034,727.51 z" id="boundary" inkscape:connector-curvature="0" />
	<path style="fill:none;stroke:red;stroke-width:1px;stroke-linecap:butt;stroke-linejoin:miter;stroke-opacity:1" d="M 843.385,786.86 849.037,815.123 z" id="boundary" inkscape:connector-curvature="0" />
	<path style="fill:none;stroke:red;stroke-width:1px;stroke-linecap:butt;stroke-linejoin:miter;stroke-opacity:1" d="M 843.385,786.86 829.254,761.425 z" id="boundary" inkscape:connector-curvature="0" />
	<path style="fill:none;stroke:red;stroke-width:1px;stroke-linecap:butt;stroke-linejoin:miter;stroke-opacity:1" d="M 849.037,815.123 854.689,843.385 z" id="boundary" inkscape:connector-curvature="0" />
	<path style="fill:none;stroke:red;stroke-width:1px;stroke-linecap:butt;stroke-linejoin:miter;stroke-opacity:1" d="M 806.644,744.467 829.254,761.425 z" id="boundary" inkscape:connector-curvature="0" />
	<path style="fill:none;stroke:red;stroke-width:1px;stroke-linecap:butt;stroke-linejoin:miter;stroke-opacity:1" d="M 854.689,843.385 854.689,871.647 z" id="boundary" inkscape:connector-curvature="0" />
	<path style="fill:none;stroke:red;stroke-width:1px;stroke-linecap:butt;stroke-linejoin:miter;stroke-opacity:1" d="M 812.296,967.738 789.687,984.695 z" id="boundary" inkscape:connector-curvature="0" />
	<path style="fill:none;stroke:red;stroke-width:1px;stroke-linecap:butt;stroke-linejoin:miter;stroke-opacity:1" d="M 789.687,984.695 761.425,990.348 z" id="boundary" inkscape:connector-curvature="0" />
	<path style="fill:none;stroke:red;stroke-width:1px;stroke-linecap:butt;stroke-linejoin:miter;stroke-opacity:1" d="M 761.425,990.348 733.162,996 z" id="boundary" inkscape:connector-curvature="0" />
	<path style="fill:none;stroke:red;stroke-width:1px;stroke-linecap:butt;stroke-linejoin:miter;stroke-opacity:1" d="M 733.162,996 704.9,996 z" id="boundary" inkscape:connector-curvature="0" />
	<path style="fill:none;stroke:red;stroke-width:1px;stroke-linecap:butt;stroke-linejoin:miter;stroke-opacity:1" d="M 854.689,871.647 849.037,919.692 z" id="boundary" inkscape:connector-curvature="0" />
	<path style="fill:none;stroke:red;stroke-width:1px;stroke-linecap:butt;stroke-linejoin:miter;stroke-opacity:1" d="M 834.906,950.781 812.296,967.738 z" id="boundary" inkscape:connector-curvature="0" />
	<path style="fill:none;stroke:red;stroke-width:1px;stroke-linecap:butt;stroke-linejoin:miter;stroke-opacity:1" d="M 849.037,919.692 834.906,950.781 z" id="boundary" inkscape:connector-curvature="0" />
	<circle cx="4" cy="501.413" r="4" fill="#0" id="circle0"/>
	<circle cx="9.65242" cy="529.675" r="4" fill="#0" id="circle1"/>
	<circle cx="9.65242" cy="557.937" r="4" fill="#0" id="circle2"/>
	<circle cx="18.1311" cy="475.977" r="4" fill="#0" id="circle3"/>
	<circle cx="26.6097" cy="580.547" r="4" fill="#0" id="circle4"/>
	<circle cx="29.4359" cy="447.715" r="4" fill="#0" id="circle5"/>
	<circle cx="43.567" cy="603.157" r="4" fill="#0" id="circle6"/>
	<circle cx="52.0456" cy="425.105" r="4" fill="#0" id="circle7"/>
	<circle cx="60.5242" cy="625.766" r="4" fill="#0" id="circle8"/>
	<circle cx="71.8291" cy="54.8718" r="4" fill="#0" id="circle9"/>
	<circle cx="71.8291" cy="83.1339" r="4" fill="#0" id="circle10"/>
	<circle cx="74.6553" cy="405.322" r="4" fill="#0" id="circle11"/>
	<circle cx="77.4815" cy="111.396" r="4" fill="#0" id="circle12"/>
	<circle cx="83.1339" cy="642.724" r="4" fill="#0" id="circle13"/>
	<circle cx="85.9601" cy="139.658" r="4" fill="#0" id="circle14"/>
	<circle cx="88.7863" cy="32.2621" r="4" fill="#0" id="circle15"/>
	<circle cx="94.4387" cy="207.487" r="4" fill="#0" id="circle16"/>
	<circle cx="94.4387" cy="235.749" r="4" fill="#0" id="circle17"/>
	<circle cx="97.265" cy="167.92" r="4" fill="#0" id="circle18"/>
	<circle cx="97.265" cy="264.011" r="4" fill="#0" id="circle19"/>
	<circle cx="102.917" cy="292.274" r="4" fill="#0" id="circle20"/>
	<circle cx="102.917" cy="391.191" r="4" fill="#0" id="circle21"/>
	<circle cx="108.57" cy="656.855" r="4" fill="#0" id="circle22"/>
	<circle cx="111.396" cy="320.536" r="4" fill="#0" id="circle23"/>
	<circle cx="114.222" cy="18.1311" r="4" fill="#0" id="circle24"/>
	<circle cx="117.048" cy="846.211" r="4" fill="#0" id="circle25"/>
	<circle cx="117.048" cy="874.473" r="4" fill="#0" id="circle26"/>
	<circle cx="117.048" cy="902.735" r="4" fill="#0" id="circle27"/>
	<circle cx="117.048" cy="930.997" r="4" fill="#0" id="circle28"/>
	<circle cx="119.875" cy="959.259" r="4" fill="#0" id="circle29"/>
	<circle cx="122.701" cy="744.467" r="4" fill="#0" id="circle30"/>
	<circle cx="122.701" cy="772.729" r="4" fill="#0" id="circle31"/>
	<circle cx="122.701" cy="812.296" r="4" fill="#0" id="circle32"/>
	<circle cx="125.527" cy="345.972" r="4" fill="#0" id="circle33"/>
	<circle cx="131.179" cy="382.712" r="4" fill="#0" id="circle34"/>
	<circle cx="134.006" cy="670.986" r="4" fill="#0" id="circle35"/>
	<circle cx="134.006" cy="699.248" r="4" fill="#0" id="circle36"/>
	<circle cx="142.484" cy="6.82621" r="4" fill="#0" id="circle37"/>
	<circle cx="142.484" cy="979.043" r="4" fill="#0" id="circle38"/>
	<circle cx="167.92" cy="993.174" r="4" fill="#0" id="circle39"/>
	<circle cx="170.746" cy="4" r="4" fill="#0" id="circle40"/>
	<circle cx="196.182" cy="996" r="4" fill="#0" id="circle41"/>
	<circle cx="199.009" cy="9.65242" r="4" fill="#0" id="circle42"/>
	<circle cx="224.444" cy="996" r="4" fill="#0" id="circle43"/>
	<circle cx="227.271" cy="20.9573" r="4" fill="#0" id="circle44"/>
	<circle cx="249.88" cy="37.9145" r="4" fill="#0" id="circle45"/>
	<circle cx="252.707" cy="996" r="4" fill="#0" id="circle46"/>
	<circle cx="278.142" cy="43.567" r="4" fill="#0" id="circle47"/>
	<circle cx="280.969" cy="996" r="4" fill="#0" id="circle48"/>
	<circle cx="306.405" cy="43.567" r="4" fill="#0" id="circle49"/>
	<circle cx="309.231" cy="996" r="4" fill="#0" id="circle50"/>
	<circle cx="334.667" cy="40.7407" r="4" fill="#0" id="circle51"/>
	<circle cx="337.493" cy="996" r="4" fill="#0" id="circle52"/>
	<circle cx="362.929" cy="43.567" r="4" fill="#0" id="circle53"/>
	<circle cx="365.755" cy="990.348" r="4" fill="#0" id="circle54"/>
	<circle cx="388.365" cy="26.6097" r="4" fill="#0" id="circle55"/>
	<circle cx="394.017" cy="990.348" r="4" fill="#0" id="circle56"/>
	<circle cx="416.627" cy="15.3048" r="4" fill="#0" id="circle57"/>
	<circle cx="422.279" cy="984.695" r="4" fill="#0" id="circle58"/>
	<circle cx="444.889" cy="4" r="4" fill="#0" id="circle59"/>
	<circle cx="450.541" cy="979.043" r="4" fill="#0" id="circle60"/>
	<circle cx="473.151" cy="4" r="4" fill="#0" id="circle61"/>
	<circle cx="478.803" cy="979.043" r="4" fill="#0" id="circle62"/>
	<circle cx="501.413" cy="15.3048" r="4" fill="#0" id="circle63"/>
	<circle cx="507.066" cy="973.39" r="4" fill="#0" id="circle64"/>
	<circle cx="518.37" cy="368.581" r="4" fill="#0" id="circle65"/>
	<circle cx="526.849" cy="29.4359" r="4" fill="#0" id="circle66"/>
	<circle cx="526.849" cy="179.225" r="4" fill="#0" id="circle67"/>
	<circle cx="535.328" cy="207.487" r="4" fill="#0" id="circle68"/>
	<circle cx="535.328" cy="345.972" r="4" fill="#0" id="circle69"/>
	<circle cx="535.328" cy="973.39" r="4" fill="#0" id="circle70"/>
	<circle cx="538.154" cy="145.311" r="4" fill="#0" id="circle71"/>
	<circle cx="543.806" cy="382.712" r="4" fill="#0" id="circle72"/>
	<circle cx="549.459" cy="49.2194" r="4" fill="#0" id="circle73"/>
	<circle cx="549.459" cy="111.396" r="4" fill="#0" id="circle74"/>
	<circle cx="549.459" cy="232.923" r="4" fill="#0" id="circle75"/>
	<circle cx="549.459" cy="261.185" r="4" fill="#0" id="circle76"/>
	<circle cx="552.285" cy="323.362" r="4" fill="#0" id="circle77"/>
	<circle cx="555.111" cy="77.4815" r="4" fill="#0" id="circle78"/>
	<circle cx="555.111" cy="289.447" r="4" fill="#0" id="circle79"/>
	<circle cx="563.59" cy="967.738" r="4" fill="#0" id="circle80"/>
	<circle cx="572.068" cy="388.365" r="4" fill="#0" id="circle81"/>
	<circle cx="572.068" cy="659.681" r="4" fill="#0" id="circle82"/>
	<circle cx="577.721" cy="687.943" r="4" fill="#0" id="circle83"/>
	<circle cx="586.199" cy="716.205" r="4" fill="#0" id="circle84"/>
	<circle cx="591.852" cy="973.39" r="4" fill="#0" id="circle85"/>
	<circle cx="600.33" cy="394.017" r="4" fill="#0" id="circle86"/>
	<circle cx="600.33" cy="656.855" r="4" fill="#0" id="circle87"/>
	<circle cx="614.462" cy="721.858" r="4" fill="#0" id="circle88"/>
	<circle cx="617.288" cy="416.627" r="4" fill="#0" id="circle89"/>
	<circle cx="620.114" cy="979.043" r="4" fill="#0" id="circle90"/>
	<circle cx="628.593" cy="662.507" r="4" fill="#0" id="circle91"/>
	<circle cx="642.724" cy="730.336" r="4" fill="#0" id="circle92"/>
	<circle cx="645.55" cy="427.932" r="4" fill="#0" id="circle93"/>
	<circle cx="648.376" cy="990.348" r="4" fill="#0" id="circle94"/>
	<circle cx="656.855" cy="651.202" r="4" fill="#0" id="circle95"/>
	<circle cx="670.986" cy="733.162" r="4" fill="#0" id="circle96"/>
	<circle cx="673.812" cy="433.584" r="4" fill="#0" id="circle97"/>
	<circle cx="676.638" cy="996" r="4" fill="#0" id="circle98"/>
	<circle cx="685.117" cy="645.55" r="4" fill="#0" id="circle99"/>
	<circle cx="699.248" cy="727.51" r="4" fill="#0" id="circle100"/>
	<circle cx="702.074" cy="433.584" r="4" fill="#0" id="circle101"/>
	<circle cx="704.9" cy="996" r="4" fill="#0" id="circle102"/>
	<circle cx="713.379" cy="634.245" r="4" fill="#0" id="circle103"/>
	<circle cx="727.51" cy="727.51" r="4" fill="#0" id="circle104"/>
	<circle cx="730.336" cy="439.236" r="4" fill="#0" id="circle105"/>
	<circle cx="733.162" cy="996" r="4" fill="#0" id="circle106"/>
	<circle cx="741.641" cy="622.94" r="4" fill="#0" id="circle107"/>
	<circle cx="755.772" cy="727.51" r="4" fill="#0" id="circle108"/>
	<circle cx="758.598" cy="444.889" r="4" fill="#0" id="circle109"/>
	<circle cx="761.425" cy="990.348" r="4" fill="#0" id="circle110"/>
	<circle cx="767.077" cy="605.983" r="4" fill="#0" id="circle111"/>
	<circle cx="784.034" cy="727.51" r="4" fill="#0" id="circle112"/>
	<circle cx="786.86" cy="456.194" r="4" fill="#0" id="circle113"/>
	<circle cx="789.687" cy="583.373" r="4" fill="#0" id="circle114"/>
	<circle cx="789.687" cy="984.695" r="4" fill="#0" id="circle115"/>
	<circle cx="800.991" cy="481.63" r="4" fill="#0" id="circle116"/>
	<circle cx="803.818" cy="557.937" r="4" fill="#0" id="circle117"/>
	<circle cx="806.644" cy="744.467" r="4" fill="#0" id="circle118"/>
	<circle cx="809.47" cy="509.892" r="4" fill="#0" id="circle119"/>
	<circle cx="812.296" cy="967.738" r="4" fill="#0" id="circle120"/>
	<circle cx="829.254" cy="761.425" r="4" fill="#0" id="circle121"/>
	<circle cx="834.906" cy="950.781" r="4" fill="#0" id="circle122"/>
	<circle cx="843.385" cy="786.86" r="4" fill="#0" id="circle123"/>
	<circle cx="849.037" cy="815.123" r="4" fill="#0" id="circle124"/>
	<circle cx="849.037" cy="919.692" r="4" fill="#0" id="circle125"/>
	<circle cx="854.689" cy="843.385" r="4" fill="#0" id="circle126"/>
	<circle cx="854.689" cy="871.647" r="4" fill="#0" id="circle127"/>
	</g>
</svg>