<?xml version="1.0" encoding="UTF-8" standalone="no"?>
<!-- Created with CurveBenchmark -->
<svg
	xmlns:dc="http://purl.org/dc/elements/1.1/"
	xmlns:cc="http://creativecommons.org/ns#"
	xmlns:rdf="http://www.w3.org/1999/02/22-rdf-syntax-ns#"
	xmlns:svg="http://www.w3.org/2000/svg"
	xmlns="http://www.w3.org/2000/svg"
	xmlns:sodipodi="http://sodipodi.sourceforge.net/DTD/sodipodi-0.dtd"
	xmlns:inkscape="http://www.inkscape.org/namespaces/inkscape"
	width="1000"
	height="1000"
	id="svg2"
	version="1.1"
	sodipodi:docname="manifold/gathan1-fish060.png.txt">
<defs
	id="defs4" />
<metadata
	id="metadata7">
	<rdf:RDF>
		<cc:Work
			rdf:about="">
			<dc:format>image/svg+xml</dc:format>
			<dc:type
				rdf:resource="http://purl.org/dc/dcmitype/StillImage" />
			<dc:title></dc:title>
		</cc:Work>
	</rdf:RDF>
</metadata>
<g
	inkscape:label="Layer 1"
	inkscape:groupmode="layer"
	id="layer1">
	<path style="fill:none;stroke:red;stroke-width:1px;stroke-linecap:butt;stroke-linejoin:miter;stroke-opacity:1" d="M 55.9372,305.236 97.4869,263.686 z" id="boundary" inkscape:connector-curvature="0" />
	<path style="fill:none;stroke:red;stroke-width:1px;stroke-linecap:butt;stroke-linejoin:miter;stroke-opacity:1" d="M 97.4869,263.686 149.424,253.298 z" id="boundary" inkscape:connector-curvature="0" />
	<path style="fill:none;stroke:red;stroke-width:1px;stroke-linecap:butt;stroke-linejoin:miter;stroke-opacity:1" d="M 196.168,227.33 149.424,253.298 z" id="boundary" inkscape:connector-curvature="0" />
	<path style="fill:none;stroke:red;stroke-width:1px;stroke-linecap:butt;stroke-linejoin:miter;stroke-opacity:1" d="M 29.9686,362.366 55.9372,305.236 z" id="boundary" inkscape:connector-curvature="0" />
	<path style="fill:none;stroke:red;stroke-width:1px;stroke-linecap:butt;stroke-linejoin:miter;stroke-opacity:1" d="M 19.5812,461.047 4,409.11 z" id="boundary" inkscape:connector-curvature="0" />
	<path style="fill:none;stroke:red;stroke-width:1px;stroke-linecap:butt;stroke-linejoin:miter;stroke-opacity:1" d="M 4,409.11 29.9686,362.366 z" id="boundary" inkscape:connector-curvature="0" />
	<path style="fill:none;stroke:red;stroke-width:1px;stroke-linecap:butt;stroke-linejoin:miter;stroke-opacity:1" d="M 35.1623,512.984 19.5812,461.047 z" id="boundary" inkscape:connector-curvature="0" />
	<path style="fill:none;stroke:red;stroke-width:1px;stroke-linecap:butt;stroke-linejoin:miter;stroke-opacity:1" d="M 346.785,55.9372 367.56,4 z" id="boundary" inkscape:connector-curvature="0" />
	<path style="fill:none;stroke:red;stroke-width:1px;stroke-linecap:butt;stroke-linejoin:miter;stroke-opacity:1" d="M 367.56,4 419.497,9.19372 z" id="boundary" inkscape:connector-curvature="0" />
	<path style="fill:none;stroke:red;stroke-width:1px;stroke-linecap:butt;stroke-linejoin:miter;stroke-opacity:1" d="M 346.785,55.9372 315.623,97.4869 z" id="boundary" inkscape:connector-curvature="0" />
	<path style="fill:none;stroke:red;stroke-width:1px;stroke-linecap:butt;stroke-linejoin:miter;stroke-opacity:1" d="M 419.497,9.19372 461.047,40.356 z" id="boundary" inkscape:connector-curvature="0" />
	<path style="fill:none;stroke:red;stroke-width:1px;stroke-linecap:butt;stroke-linejoin:miter;stroke-opacity:1" d="M 507.791,66.3246 461.047,40.356 z" id="boundary" inkscape:connector-curvature="0" />
	<path style="fill:none;stroke:red;stroke-width:1px;stroke-linecap:butt;stroke-linejoin:miter;stroke-opacity:1" d="M 196.168,227.33 242.911,201.361 z" id="boundary" inkscape:connector-curvature="0" />
	<path style="fill:none;stroke:red;stroke-width:1px;stroke-linecap:butt;stroke-linejoin:miter;stroke-opacity:1" d="M 294.848,180.586 242.911,201.361 z" id="boundary" inkscape:connector-curvature="0" />
	<path style="fill:none;stroke:red;stroke-width:1px;stroke-linecap:butt;stroke-linejoin:miter;stroke-opacity:1" d="M 315.623,97.4869 294.848,180.586 z" id="boundary" inkscape:connector-curvature="0" />
	<path style="fill:none;stroke:red;stroke-width:1px;stroke-linecap:butt;stroke-linejoin:miter;stroke-opacity:1" d="M 61.1309,559.728 102.681,590.89 z" id="boundary" inkscape:connector-curvature="0" />
	<path style="fill:none;stroke:red;stroke-width:1px;stroke-linecap:butt;stroke-linejoin:miter;stroke-opacity:1" d="M 61.1309,559.728 35.1623,512.984 z" id="boundary" inkscape:connector-curvature="0" />
	<path style="fill:none;stroke:red;stroke-width:1px;stroke-linecap:butt;stroke-linejoin:miter;stroke-opacity:1" d="M 102.681,590.89 154.618,611.665 z" id="boundary" inkscape:connector-curvature="0" />
	<path style="fill:none;stroke:red;stroke-width:1px;stroke-linecap:butt;stroke-linejoin:miter;stroke-opacity:1" d="M 196.168,642.827 154.618,611.665 z" id="boundary" inkscape:connector-curvature="0" />
	<path style="fill:none;stroke:red;stroke-width:1px;stroke-linecap:butt;stroke-linejoin:miter;stroke-opacity:1" d="M 248.105,663.602 196.168,642.827 z" id="boundary" inkscape:connector-curvature="0" />
	<path style="fill:none;stroke:red;stroke-width:1px;stroke-linecap:butt;stroke-linejoin:miter;stroke-opacity:1" d="M 242.911,720.733 242.911,772.67 z" id="boundary" inkscape:connector-curvature="0" />
	<path style="fill:none;stroke:red;stroke-width:1px;stroke-linecap:butt;stroke-linejoin:miter;stroke-opacity:1" d="M 253.298,824.607 242.911,772.67 z" id="boundary" inkscape:connector-curvature="0" />
	<path style="fill:none;stroke:red;stroke-width:1px;stroke-linecap:butt;stroke-linejoin:miter;stroke-opacity:1" d="M 242.911,720.733 248.105,663.602 z" id="boundary" inkscape:connector-curvature="0" />
	<path style="fill:none;stroke:red;stroke-width:1px;stroke-linecap:butt;stroke-linejoin:miter;stroke-opacity:1" d="M 362.366,772.67 388.335,725.927 z" id="boundary" inkscape:connector-curvature="0" />
	<path style="fill:none;stroke:red;stroke-width:1px;stroke-linecap:butt;stroke-linejoin:miter;stroke-opacity:1" d="M 388.335,725.927 429.885,757.089 z" id="boundary" inkscape:connector-curvature="0" />
	<path style="fill:none;stroke:red;stroke-width:1px;stroke-linecap:butt;stroke-linejoin:miter;stroke-opacity:1" d="M 362.366,772.67 336.398,819.414 z" id="boundary" inkscape:connector-curvature="0" />
	<path style="fill:none;stroke:red;stroke-width:1px;stroke-linecap:butt;stroke-linejoin:miter;stroke-opacity:1" d="M 471.435,793.445 429.885,757.089 z" id="boundary" inkscape:connector-curvature="0" />
	<path style="fill:none;stroke:red;stroke-width:1px;stroke-linecap:butt;stroke-linejoin:miter;stroke-opacity:1" d="M 294.848,860.963 336.398,819.414 z" id="boundary" inkscape:connector-curvature="0" />
	<path style="fill:none;stroke:red;stroke-width:1px;stroke-linecap:butt;stroke-linejoin:miter;stroke-opacity:1" d="M 294.848,860.963 253.298,824.607 z" id="boundary" inkscape:connector-curvature="0" />
	<path style="fill:none;stroke:red;stroke-width:1px;stroke-linecap:butt;stroke-linejoin:miter;stroke-opacity:1" d="M 471.435,793.445 507.791,834.995 z" id="boundary" inkscape:connector-curvature="0" />
	<path style="fill:none;stroke:red;stroke-width:1px;stroke-linecap:butt;stroke-linejoin:miter;stroke-opacity:1" d="M 507.791,834.995 554.534,860.963 z" id="boundary" inkscape:connector-curvature="0" />
	<path style="fill:none;stroke:red;stroke-width:1px;stroke-linecap:butt;stroke-linejoin:miter;stroke-opacity:1" d="M 512.984,653.215 544.147,694.764 z" id="boundary" inkscape:connector-curvature="0" />
	<path style="fill:none;stroke:red;stroke-width:1px;stroke-linecap:butt;stroke-linejoin:miter;stroke-opacity:1" d="M 507.791,66.3246 544.147,107.874 z" id="boundary" inkscape:connector-curvature="0" />
	<path style="fill:none;stroke:red;stroke-width:1px;stroke-linecap:butt;stroke-linejoin:miter;stroke-opacity:1" d="M 575.309,653.215 512.984,653.215 z" id="boundary" inkscape:connector-curvature="0" />
	<path style="fill:none;stroke:red;stroke-width:1px;stroke-linecap:butt;stroke-linejoin:miter;stroke-opacity:1" d="M 575.309,149.424 544.147,107.874 z" id="boundary" inkscape:connector-curvature="0" />
	<path style="fill:none;stroke:red;stroke-width:1px;stroke-linecap:butt;stroke-linejoin:miter;stroke-opacity:1" d="M 627.246,159.812 575.309,149.424 z" id="boundary" inkscape:connector-curvature="0" />
	<path style="fill:none;stroke:red;stroke-width:1px;stroke-linecap:butt;stroke-linejoin:miter;stroke-opacity:1" d="M 627.246,159.812 679.183,139.037 z" id="boundary" inkscape:connector-curvature="0" />
	<path style="fill:none;stroke:red;stroke-width:1px;stroke-linecap:butt;stroke-linejoin:miter;stroke-opacity:1" d="M 679.183,139.037 720.733,170.199 z" id="boundary" inkscape:connector-curvature="0" />
	<path style="fill:none;stroke:red;stroke-width:1px;stroke-linecap:butt;stroke-linejoin:miter;stroke-opacity:1" d="M 720.733,170.199 746.702,216.942 z" id="boundary" inkscape:connector-curvature="0" />
	<path style="fill:none;stroke:red;stroke-width:1px;stroke-linecap:butt;stroke-linejoin:miter;stroke-opacity:1" d="M 777.864,258.492 746.702,216.942 z" id="boundary" inkscape:connector-curvature="0" />
	<path style="fill:none;stroke:red;stroke-width:1px;stroke-linecap:butt;stroke-linejoin:miter;stroke-opacity:1" d="M 777.864,258.492 798.639,310.429 z" id="boundary" inkscape:connector-curvature="0" />
	<path style="fill:none;stroke:red;stroke-width:1px;stroke-linecap:butt;stroke-linejoin:miter;stroke-opacity:1" d="M 850.576,300.042 798.639,310.429 z" id="boundary" inkscape:connector-curvature="0" />
	<path style="fill:none;stroke:red;stroke-width:1px;stroke-linecap:butt;stroke-linejoin:miter;stroke-opacity:1" d="M 892.126,263.686 938.869,232.524 z" id="boundary" inkscape:connector-curvature="0" />
	<path style="fill:none;stroke:red;stroke-width:1px;stroke-linecap:butt;stroke-linejoin:miter;stroke-opacity:1" d="M 990.806,222.136 996,274.073 z" id="boundary" inkscape:connector-curvature="0" />
	<path style="fill:none;stroke:red;stroke-width:1px;stroke-linecap:butt;stroke-linejoin:miter;stroke-opacity:1" d="M 938.869,232.524 990.806,222.136 z" id="boundary" inkscape:connector-curvature="0" />
	<path style="fill:none;stroke:red;stroke-width:1px;stroke-linecap:butt;stroke-linejoin:miter;stroke-opacity:1" d="M 996,274.073 985.613,336.398 z" id="boundary" inkscape:connector-curvature="0" />
	<path style="fill:none;stroke:red;stroke-width:1px;stroke-linecap:butt;stroke-linejoin:miter;stroke-opacity:1" d="M 985.613,336.398 985.613,388.335 z" id="boundary" inkscape:connector-curvature="0" />
	<path style="fill:none;stroke:red;stroke-width:1px;stroke-linecap:butt;stroke-linejoin:miter;stroke-opacity:1" d="M 850.576,300.042 892.126,263.686 z" id="boundary" inkscape:connector-curvature="0" />
	<path style="fill:none;stroke:red;stroke-width:1px;stroke-linecap:butt;stroke-linejoin:miter;stroke-opacity:1" d="M 985.613,388.335 985.613,440.272 z" id="boundary" inkscape:connector-curvature="0" />
	<path style="fill:none;stroke:red;stroke-width:1px;stroke-linecap:butt;stroke-linejoin:miter;stroke-opacity:1" d="M 575.309,653.215 627.246,642.827 z" id="boundary" inkscape:connector-curvature="0" />
	<path style="fill:none;stroke:red;stroke-width:1px;stroke-linecap:butt;stroke-linejoin:miter;stroke-opacity:1" d="M 627.246,642.827 673.99,668.796 z" id="boundary" inkscape:connector-curvature="0" />
	<path style="fill:none;stroke:red;stroke-width:1px;stroke-linecap:butt;stroke-linejoin:miter;stroke-opacity:1" d="M 777.864,637.634 725.927,684.377 z" id="boundary" inkscape:connector-curvature="0" />
	<path style="fill:none;stroke:red;stroke-width:1px;stroke-linecap:butt;stroke-linejoin:miter;stroke-opacity:1" d="M 725.927,684.377 673.99,668.796 z" id="boundary" inkscape:connector-curvature="0" />
	<path style="fill:none;stroke:red;stroke-width:1px;stroke-linecap:butt;stroke-linejoin:miter;stroke-opacity:1" d="M 544.147,694.764 559.728,746.702 z" id="boundary" inkscape:connector-curvature="0" />
	<path style="fill:none;stroke:red;stroke-width:1px;stroke-linecap:butt;stroke-linejoin:miter;stroke-opacity:1" d="M 559.728,746.702 580.503,798.639 z" id="boundary" inkscape:connector-curvature="0" />
	<path style="fill:none;stroke:red;stroke-width:1px;stroke-linecap:butt;stroke-linejoin:miter;stroke-opacity:1" d="M 580.503,798.639 554.534,860.963 z" id="boundary" inkscape:connector-curvature="0" />
	<path style="fill:none;stroke:red;stroke-width:1px;stroke-linecap:butt;stroke-linejoin:miter;stroke-opacity:1" d="M 798.639,512.984 840.188,544.147 z" id="boundary" inkscape:connector-curvature="0" />
	<path style="fill:none;stroke:red;stroke-width:1px;stroke-linecap:butt;stroke-linejoin:miter;stroke-opacity:1" d="M 788.251,585.696 798.639,512.984 z" id="boundary" inkscape:connector-curvature="0" />
	<path style="fill:none;stroke:red;stroke-width:1px;stroke-linecap:butt;stroke-linejoin:miter;stroke-opacity:1" d="M 881.738,580.503 840.188,544.147 z" id="boundary" inkscape:connector-curvature="0" />
	<path style="fill:none;stroke:red;stroke-width:1px;stroke-linecap:butt;stroke-linejoin:miter;stroke-opacity:1" d="M 996,544.147 985.613,492.209 z" id="boundary" inkscape:connector-curvature="0" />
	<path style="fill:none;stroke:red;stroke-width:1px;stroke-linecap:butt;stroke-linejoin:miter;stroke-opacity:1" d="M 985.613,492.209 985.613,440.272 z" id="boundary" inkscape:connector-curvature="0" />
	<path style="fill:none;stroke:red;stroke-width:1px;stroke-linecap:butt;stroke-linejoin:miter;stroke-opacity:1" d="M 777.864,637.634 788.251,585.696 z" id="boundary" inkscape:connector-curvature="0" />
	<path style="fill:none;stroke:red;stroke-width:1px;stroke-linecap:butt;stroke-linejoin:miter;stroke-opacity:1" d="M 923.288,611.665 881.738,580.503 z" id="boundary" inkscape:connector-curvature="0" />
	<path style="fill:none;stroke:red;stroke-width:1px;stroke-linecap:butt;stroke-linejoin:miter;stroke-opacity:1" d="M 996,544.147 975.225,632.44 z" id="boundary" inkscape:connector-curvature="0" />
	<path style="fill:none;stroke:red;stroke-width:1px;stroke-linecap:butt;stroke-linejoin:miter;stroke-opacity:1" d="M 975.225,632.44 923.288,611.665 z" id="boundary" inkscape:connector-curvature="0" />
	<circle cx="4" cy="409.11" r="4" fill="#0" id="circle0"/>
	<circle cx="19.5812" cy="461.047" r="4" fill="#0" id="circle1"/>
	<circle cx="29.9686" cy="362.366" r="4" fill="#0" id="circle2"/>
	<circle cx="35.1623" cy="512.984" r="4" fill="#0" id="circle3"/>
	<circle cx="55.9372" cy="305.236" r="4" fill="#0" id="circle4"/>
	<circle cx="61.1309" cy="559.728" r="4" fill="#0" id="circle5"/>
	<circle cx="97.4869" cy="263.686" r="4" fill="#0" id="circle6"/>
	<circle cx="102.681" cy="590.89" r="4" fill="#0" id="circle7"/>
	<circle cx="149.424" cy="253.298" r="4" fill="#0" id="circle8"/>
	<circle cx="154.618" cy="611.665" r="4" fill="#0" id="circle9"/>
	<circle cx="196.168" cy="227.33" r="4" fill="#0" id="circle10"/>
	<circle cx="196.168" cy="642.827" r="4" fill="#0" id="circle11"/>
	<circle cx="242.911" cy="201.361" r="4" fill="#0" id="circle12"/>
	<circle cx="242.911" cy="720.733" r="4" fill="#0" id="circle13"/>
	<circle cx="242.911" cy="772.67" r="4" fill="#0" id="circle14"/>
	<circle cx="248.105" cy="663.602" r="4" fill="#0" id="circle15"/>
	<circle cx="253.298" cy="824.607" r="4" fill="#0" id="circle16"/>
	<circle cx="294.848" cy="180.586" r="4" fill="#0" id="circle17"/>
	<circle cx="294.848" cy="860.963" r="4" fill="#0" id="circle18"/>
	<circle cx="315.623" cy="97.4869" r="4" fill="#0" id="circle19"/>
	<circle cx="336.398" cy="819.414" r="4" fill="#0" id="circle20"/>
	<circle cx="346.785" cy="55.9372" r="4" fill="#0" id="circle21"/>
	<circle cx="362.366" cy="772.67" r="4" fill="#0" id="circle22"/>
	<circle cx="367.56" cy="4" r="4" fill="#0" id="circle23"/>
	<circle cx="388.335" cy="725.927" r="4" fill="#0" id="circle24"/>
	<circle cx="419.497" cy="9.19372" r="4" fill="#0" id="circle25"/>
	<circle cx="429.885" cy="757.089" r="4" fill="#0" id="circle26"/>
	<circle cx="461.047" cy="40.356" r="4" fill="#0" id="circle27"/>
	<circle cx="471.435" cy="793.445" r="4" fill="#0" id="circle28"/>
	<circle cx="507.791" cy="66.3246" r="4" fill="#0" id="circle29"/>
	<circle cx="507.791" cy="834.995" r="4" fill="#0" id="circle30"/>
	<circle cx="512.984" cy="653.215" r="4" fill="#0" id="circle31"/>
	<circle cx="544.147" cy="107.874" r="4" fill="#0" id="circle32"/>
	<circle cx="544.147" cy="694.764" r="4" fill="#0" id="circle33"/>
	<circle cx="554.534" cy="860.963" r="4" fill="#0" id="circle34"/>
	<circle cx="559.728" cy="746.702" r="4" fill="#0" id="circle35"/>
	<circle cx="575.309" cy="149.424" r="4" fill="#0" id="circle36"/>
	<circle cx="575.309" cy="653.215" r="4" fill="#0" id="circle37"/>
	<circle cx="580.503" cy="798.639" r="4" fill="#0" id="circle38"/>
	<circle cx="627.246" cy="159.812" r="4" fill="#0" id="circle39"/>
	<circle cx="627.246" cy="642.827" r="4" fill="#0" id="circle40"/>
	<circle cx="673.99" cy="668.796" r="4" fill="#0" id="circle41"/>
	<circle cx="679.183" cy="139.037" r="4" fill="#0" id="circle42"/>
	<circle cx="720.733" cy="170.199" r="4" fill="#0" id="circle43"/>
	<circle cx="725.927" cy="684.377" r="4" fill="#0" id="circle44"/>
	<circle cx="746.702" cy="216.942" r="4" fill="#0" id="circle45"/>
	<circle cx="777.864" cy="258.492" r="4" fill="#0" id="circle46"/>
	<circle cx="777.864" cy="637.634" r="4" fill="#0" id="circle47"/>
	<circle cx="788.251" cy="585.696" r="4" fill="#0" id="circle48"/>
	<circle cx="798.639" cy="310.429" r="4" fill="#0" id="circle49"/>
	<circle cx="798.639" cy="512.984" r="4" fill="#0" id="circle50"/>
	<circle cx="840.188" cy="544.147" r="4" fill="#0" id="circle51"/>
	<circle cx="850.576" cy="300.042" r="4" fill="#0" id="circle52"/>
	<circle cx="881.738" cy="580.503" r="4" fill="#0" id="circle53"/>
	<circle cx="892.126" cy="263.686" r="4" fill="#0" id="circle54"/>
	<circle cx="923.288" cy="611.665" r="4" fill="#0" id="circle55"/>
	<circle cx="938.869" cy="232.524" r="4" fill="#0" id="circle56"/>
	<circle cx="975.225" cy="632.44" r="4" fill="#0" id="circle57"/>
	<circle cx="985.613" cy="336.398" r="4" fill="#0" id="circle58"/>
	<circle cx="985.613" cy="388.335" r="4" fill="#0" id="circle59"/>
	<circle cx="985.613" cy="440.272" r="4" fill="#0" id="circle60"/>
	<circle cx="985.613" cy="492.209" r="4" fill="#0" id="circle61"/>
	<circle cx="990.806" cy="222.136" r="4" fill="#0" id="circle62"/>
	<circle cx="996" cy="274.073" r="4" fill="#0" id="circle63"/>
	<circle cx="996" cy="544.147" r="4" fill="#0" id="circle64"/>
	</g>
</svg>