<?xml version="1.0" encoding="UTF-8" standalone="no"?>
<!-- Created with CurveBenchmark -->
<svg
	xmlns:dc="http://purl.org/dc/elements/1.1/"
	xmlns:cc="http://creativecommons.org/ns#"
	xmlns:rdf="http://www.w3.org/1999/02/22-rdf-syntax-ns#"
	xmlns:svg="http://www.w3.org/2000/svg"
	xmlns="http://www.w3.org/2000/svg"
	xmlns:sodipodi="http://sodipodi.sourceforge.net/DTD/sodipodi-0.dtd"
	xmlns:inkscape="http://www.inkscape.org/namespaces/inkscape"
	width="1000"
	height="1000"
	id="svg2"
	version="1.1"
	sodipodi:docname="manifold/gathang-stef03.png.txt">
<defs
	id="defs4" />
<metadata
	id="metadata7">
	<rdf:RDF>
		<cc:Work
			rdf:about="">
			<dc:format>image/svg+xml</dc:format>
			<dc:type
				rdf:resource="http://purl.org/dc/dcmitype/StillImage" />
			<dc:title></dc:title>
		</cc:Work>
	</rdf:RDF>
</metadata>
<g
	inkscape:label="Layer 1"
	inkscape:groupmode="layer"
	id="layer1">
	<path style="fill:none;stroke:red;stroke-width:1px;stroke-linecap:butt;stroke-linejoin:miter;stroke-opacity:1" d="M 34.7002,73.0754 19.3501,61.5629 z" id="boundary" inkscape:connector-curvature="0" />
	<path style="fill:none;stroke:red;stroke-width:1px;stroke-linecap:butt;stroke-linejoin:miter;stroke-opacity:1" d="M 4,48.1315 13.5938,28.9439 z" id="boundary" inkscape:connector-curvature="0" />
	<path style="fill:none;stroke:red;stroke-width:1px;stroke-linecap:butt;stroke-linejoin:miter;stroke-opacity:1" d="M 19.3501,61.5629 4,48.1315 z" id="boundary" inkscape:connector-curvature="0" />
	<path style="fill:none;stroke:red;stroke-width:1px;stroke-linecap:butt;stroke-linejoin:miter;stroke-opacity:1" d="M 13.5938,28.9439 28.9439,13.5938 z" id="boundary" inkscape:connector-curvature="0" />
	<path style="fill:none;stroke:red;stroke-width:1px;stroke-linecap:butt;stroke-linejoin:miter;stroke-opacity:1" d="M 28.9439,13.5938 48.1315,4 z" id="boundary" inkscape:connector-curvature="0" />
	<path style="fill:none;stroke:red;stroke-width:1px;stroke-linecap:butt;stroke-linejoin:miter;stroke-opacity:1" d="M 84.588,13.5938 67.3191,4 z" id="boundary" inkscape:connector-curvature="0" />
	<path style="fill:none;stroke:red;stroke-width:1px;stroke-linecap:butt;stroke-linejoin:miter;stroke-opacity:1" d="M 101.857,23.1876 84.588,13.5938 z" id="boundary" inkscape:connector-curvature="0" />
	<path style="fill:none;stroke:red;stroke-width:1px;stroke-linecap:butt;stroke-linejoin:miter;stroke-opacity:1" d="M 121.044,28.9439 101.857,23.1876 z" id="boundary" inkscape:connector-curvature="0" />
	<path style="fill:none;stroke:red;stroke-width:1px;stroke-linecap:butt;stroke-linejoin:miter;stroke-opacity:1" d="M 121.044,28.9439 138.313,38.5377 z" id="boundary" inkscape:connector-curvature="0" />
	<path style="fill:none;stroke:red;stroke-width:1px;stroke-linecap:butt;stroke-linejoin:miter;stroke-opacity:1" d="M 138.313,38.5377 147.907,55.8066 z" id="boundary" inkscape:connector-curvature="0" />
	<path style="fill:none;stroke:red;stroke-width:1px;stroke-linecap:butt;stroke-linejoin:miter;stroke-opacity:1" d="M 48.1315,4 67.3191,4 z" id="boundary" inkscape:connector-curvature="0" />
	<path style="fill:none;stroke:red;stroke-width:1px;stroke-linecap:butt;stroke-linejoin:miter;stroke-opacity:1" d="M 34.7002,73.0754 51.9691,82.6692 z" id="boundary" inkscape:connector-curvature="0" />
	<path style="fill:none;stroke:red;stroke-width:1px;stroke-linecap:butt;stroke-linejoin:miter;stroke-opacity:1" d="M 69.2379,92.2631 51.9691,82.6692 z" id="boundary" inkscape:connector-curvature="0" />
	<path style="fill:none;stroke:red;stroke-width:1px;stroke-linecap:butt;stroke-linejoin:miter;stroke-opacity:1" d="M 86.5068,101.857 99.9381,117.207 z" id="boundary" inkscape:connector-curvature="0" />
	<path style="fill:none;stroke:red;stroke-width:1px;stroke-linecap:butt;stroke-linejoin:miter;stroke-opacity:1" d="M 99.9381,117.207 99.9381,136.395 z" id="boundary" inkscape:connector-curvature="0" />
	<path style="fill:none;stroke:red;stroke-width:1px;stroke-linecap:butt;stroke-linejoin:miter;stroke-opacity:1" d="M 69.2379,92.2631 86.5068,101.857 z" id="boundary" inkscape:connector-curvature="0" />
	<path style="fill:none;stroke:red;stroke-width:1px;stroke-linecap:butt;stroke-linejoin:miter;stroke-opacity:1" d="M 99.9381,136.395 99.9381,155.582 z" id="boundary" inkscape:connector-curvature="0" />
	<path style="fill:none;stroke:red;stroke-width:1px;stroke-linecap:butt;stroke-linejoin:miter;stroke-opacity:1" d="M 109.532,192.039 99.9381,174.77 z" id="boundary" inkscape:connector-curvature="0" />
	<path style="fill:none;stroke:red;stroke-width:1px;stroke-linecap:butt;stroke-linejoin:miter;stroke-opacity:1" d="M 99.9381,174.77 99.9381,155.582 z" id="boundary" inkscape:connector-curvature="0" />
	<path style="fill:none;stroke:red;stroke-width:1px;stroke-linecap:butt;stroke-linejoin:miter;stroke-opacity:1" d="M 119.126,209.308 138.313,216.983 z" id="boundary" inkscape:connector-curvature="0" />
	<path style="fill:none;stroke:red;stroke-width:1px;stroke-linecap:butt;stroke-linejoin:miter;stroke-opacity:1" d="M 138.313,216.983 149.826,232.333 z" id="boundary" inkscape:connector-curvature="0" />
	<path style="fill:none;stroke:red;stroke-width:1px;stroke-linecap:butt;stroke-linejoin:miter;stroke-opacity:1" d="M 119.126,209.308 109.532,192.039 z" id="boundary" inkscape:connector-curvature="0" />
	<path style="fill:none;stroke:red;stroke-width:1px;stroke-linecap:butt;stroke-linejoin:miter;stroke-opacity:1" d="M 169.014,230.414 149.826,232.333 z" id="boundary" inkscape:connector-curvature="0" />
	<path style="fill:none;stroke:red;stroke-width:1px;stroke-linecap:butt;stroke-linejoin:miter;stroke-opacity:1" d="M 147.907,55.8066 159.42,71.1567 z" id="boundary" inkscape:connector-curvature="0" />
	<path style="fill:none;stroke:red;stroke-width:1px;stroke-linecap:butt;stroke-linejoin:miter;stroke-opacity:1" d="M 178.607,76.913 197.795,80.7505 z" id="boundary" inkscape:connector-curvature="0" />
	<path style="fill:none;stroke:red;stroke-width:1px;stroke-linecap:butt;stroke-linejoin:miter;stroke-opacity:1" d="M 182.445,245.764 169.014,230.414 z" id="boundary" inkscape:connector-curvature="0" />
	<path style="fill:none;stroke:red;stroke-width:1px;stroke-linecap:butt;stroke-linejoin:miter;stroke-opacity:1" d="M 201.632,253.439 182.445,245.764 z" id="boundary" inkscape:connector-curvature="0" />
	<path style="fill:none;stroke:red;stroke-width:1px;stroke-linecap:butt;stroke-linejoin:miter;stroke-opacity:1" d="M 178.607,76.913 159.42,71.1567 z" id="boundary" inkscape:connector-curvature="0" />
	<path style="fill:none;stroke:red;stroke-width:1px;stroke-linecap:butt;stroke-linejoin:miter;stroke-opacity:1" d="M 253.439,90.3443 234.251,90.3443 z" id="boundary" inkscape:connector-curvature="0" />
	<path style="fill:none;stroke:red;stroke-width:1px;stroke-linecap:butt;stroke-linejoin:miter;stroke-opacity:1" d="M 234.251,90.3443 216.983,80.7505 z" id="boundary" inkscape:connector-curvature="0" />
	<path style="fill:none;stroke:red;stroke-width:1px;stroke-linecap:butt;stroke-linejoin:miter;stroke-opacity:1" d="M 253.439,90.3443 268.789,101.857 z" id="boundary" inkscape:connector-curvature="0" />
	<path style="fill:none;stroke:red;stroke-width:1px;stroke-linecap:butt;stroke-linejoin:miter;stroke-opacity:1" d="M 268.789,101.857 284.139,115.288 z" id="boundary" inkscape:connector-curvature="0" />
	<path style="fill:none;stroke:red;stroke-width:1px;stroke-linecap:butt;stroke-linejoin:miter;stroke-opacity:1" d="M 218.901,263.033 201.632,253.439 z" id="boundary" inkscape:connector-curvature="0" />
	<path style="fill:none;stroke:red;stroke-width:1px;stroke-linecap:butt;stroke-linejoin:miter;stroke-opacity:1" d="M 197.795,80.7505 216.983,80.7505 z" id="boundary" inkscape:connector-curvature="0" />
	<path style="fill:none;stroke:red;stroke-width:1px;stroke-linecap:butt;stroke-linejoin:miter;stroke-opacity:1" d="M 218.901,263.033 238.089,270.708 z" id="boundary" inkscape:connector-curvature="0" />
	<path style="fill:none;stroke:red;stroke-width:1px;stroke-linecap:butt;stroke-linejoin:miter;stroke-opacity:1" d="M 238.089,270.708 253.439,284.139 z" id="boundary" inkscape:connector-curvature="0" />
	<path style="fill:none;stroke:red;stroke-width:1px;stroke-linecap:butt;stroke-linejoin:miter;stroke-opacity:1" d="M 216.983,429.965 232.333,416.534 z" id="boundary" inkscape:connector-curvature="0" />
	<path style="fill:none;stroke:red;stroke-width:1px;stroke-linecap:butt;stroke-linejoin:miter;stroke-opacity:1" d="M 249.602,406.94 232.333,416.534 z" id="boundary" inkscape:connector-curvature="0" />
	<path style="fill:none;stroke:red;stroke-width:1px;stroke-linecap:butt;stroke-linejoin:miter;stroke-opacity:1" d="M 287.977,330.19 278.383,312.921 z" id="boundary" inkscape:connector-curvature="0" />
	<path style="fill:none;stroke:red;stroke-width:1px;stroke-linecap:butt;stroke-linejoin:miter;stroke-opacity:1" d="M 278.383,312.921 270.708,293.733 z" id="boundary" inkscape:connector-curvature="0" />
	<path style="fill:none;stroke:red;stroke-width:1px;stroke-linecap:butt;stroke-linejoin:miter;stroke-opacity:1" d="M 266.87,397.346 276.464,380.077 z" id="boundary" inkscape:connector-curvature="0" />
	<path style="fill:none;stroke:red;stroke-width:1px;stroke-linecap:butt;stroke-linejoin:miter;stroke-opacity:1" d="M 276.464,380.077 291.814,368.565 z" id="boundary" inkscape:connector-curvature="0" />
	<path style="fill:none;stroke:red;stroke-width:1px;stroke-linecap:butt;stroke-linejoin:miter;stroke-opacity:1" d="M 266.87,397.346 249.602,406.94 z" id="boundary" inkscape:connector-curvature="0" />
	<path style="fill:none;stroke:red;stroke-width:1px;stroke-linecap:butt;stroke-linejoin:miter;stroke-opacity:1" d="M 287.977,330.19 301.408,345.54 z" id="boundary" inkscape:connector-curvature="0" />
	<path style="fill:none;stroke:red;stroke-width:1px;stroke-linecap:butt;stroke-linejoin:miter;stroke-opacity:1" d="M 301.408,345.54 291.814,368.565 z" id="boundary" inkscape:connector-curvature="0" />
	<path style="fill:none;stroke:red;stroke-width:1px;stroke-linecap:butt;stroke-linejoin:miter;stroke-opacity:1" d="M 253.439,284.139 270.708,293.733 z" id="boundary" inkscape:connector-curvature="0" />
	<path style="fill:none;stroke:red;stroke-width:1px;stroke-linecap:butt;stroke-linejoin:miter;stroke-opacity:1" d="M 284.139,115.288 297.571,130.638 z" id="boundary" inkscape:connector-curvature="0" />
	<path style="fill:none;stroke:red;stroke-width:1px;stroke-linecap:butt;stroke-linejoin:miter;stroke-opacity:1" d="M 128.72,537.416 128.72,556.603 z" id="boundary" inkscape:connector-curvature="0" />
	<path style="fill:none;stroke:red;stroke-width:1px;stroke-linecap:butt;stroke-linejoin:miter;stroke-opacity:1" d="M 128.72,537.416 138.313,518.228 z" id="boundary" inkscape:connector-curvature="0" />
	<path style="fill:none;stroke:red;stroke-width:1px;stroke-linecap:butt;stroke-linejoin:miter;stroke-opacity:1" d="M 119.126,690.917 119.126,662.135 z" id="boundary" inkscape:connector-curvature="0" />
	<path style="fill:none;stroke:red;stroke-width:1px;stroke-linecap:butt;stroke-linejoin:miter;stroke-opacity:1" d="M 128.72,556.603 128.72,575.791 z" id="boundary" inkscape:connector-curvature="0" />
	<path style="fill:none;stroke:red;stroke-width:1px;stroke-linecap:butt;stroke-linejoin:miter;stroke-opacity:1" d="M 128.72,575.791 128.72,594.979 z" id="boundary" inkscape:connector-curvature="0" />
	<path style="fill:none;stroke:red;stroke-width:1px;stroke-linecap:butt;stroke-linejoin:miter;stroke-opacity:1" d="M 119.126,690.917 109.532,710.104 z" id="boundary" inkscape:connector-curvature="0" />
	<path style="fill:none;stroke:red;stroke-width:1px;stroke-linecap:butt;stroke-linejoin:miter;stroke-opacity:1" d="M 138.313,518.228 138.313,499.041 z" id="boundary" inkscape:connector-curvature="0" />
	<path style="fill:none;stroke:red;stroke-width:1px;stroke-linecap:butt;stroke-linejoin:miter;stroke-opacity:1" d="M 147.907,479.853 138.313,499.041 z" id="boundary" inkscape:connector-curvature="0" />
	<path style="fill:none;stroke:red;stroke-width:1px;stroke-linecap:butt;stroke-linejoin:miter;stroke-opacity:1" d="M 128.72,594.979 128.72,614.166 z" id="boundary" inkscape:connector-curvature="0" />
	<path style="fill:none;stroke:red;stroke-width:1px;stroke-linecap:butt;stroke-linejoin:miter;stroke-opacity:1" d="M 128.72,633.354 128.72,614.166 z" id="boundary" inkscape:connector-curvature="0" />
	<path style="fill:none;stroke:red;stroke-width:1px;stroke-linecap:butt;stroke-linejoin:miter;stroke-opacity:1" d="M 128.72,633.354 119.126,662.135 z" id="boundary" inkscape:connector-curvature="0" />
	<path style="fill:none;stroke:red;stroke-width:1px;stroke-linecap:butt;stroke-linejoin:miter;stroke-opacity:1" d="M 51.9691,777.261 61.5629,758.074 z" id="boundary" inkscape:connector-curvature="0" />
	<path style="fill:none;stroke:red;stroke-width:1px;stroke-linecap:butt;stroke-linejoin:miter;stroke-opacity:1" d="M 80.7505,752.317 61.5629,758.074 z" id="boundary" inkscape:connector-curvature="0" />
	<path style="fill:none;stroke:red;stroke-width:1px;stroke-linecap:butt;stroke-linejoin:miter;stroke-opacity:1" d="M 51.9691,796.449 71.1567,802.205 z" id="boundary" inkscape:connector-curvature="0" />
	<path style="fill:none;stroke:red;stroke-width:1px;stroke-linecap:butt;stroke-linejoin:miter;stroke-opacity:1" d="M 51.9691,796.449 51.9691,777.261 z" id="boundary" inkscape:connector-curvature="0" />
	<path style="fill:none;stroke:red;stroke-width:1px;stroke-linecap:butt;stroke-linejoin:miter;stroke-opacity:1" d="M 88.4255,811.799 71.1567,802.205 z" id="boundary" inkscape:connector-curvature="0" />
	<path style="fill:none;stroke:red;stroke-width:1px;stroke-linecap:butt;stroke-linejoin:miter;stroke-opacity:1" d="M 88.4255,811.799 101.857,827.149 z" id="boundary" inkscape:connector-curvature="0" />
	<path style="fill:none;stroke:red;stroke-width:1px;stroke-linecap:butt;stroke-linejoin:miter;stroke-opacity:1" d="M 80.7505,752.317 98.0193,742.723 z" id="boundary" inkscape:connector-curvature="0" />
	<path style="fill:none;stroke:red;stroke-width:1px;stroke-linecap:butt;stroke-linejoin:miter;stroke-opacity:1" d="M 117.207,840.58 101.857,827.149 z" id="boundary" inkscape:connector-curvature="0" />
	<path style="fill:none;stroke:red;stroke-width:1px;stroke-linecap:butt;stroke-linejoin:miter;stroke-opacity:1" d="M 109.532,710.104 98.0193,742.723 z" id="boundary" inkscape:connector-curvature="0" />
	<path style="fill:none;stroke:red;stroke-width:1px;stroke-linecap:butt;stroke-linejoin:miter;stroke-opacity:1" d="M 153.663,850.174 134.476,850.174 z" id="boundary" inkscape:connector-curvature="0" />
	<path style="fill:none;stroke:red;stroke-width:1px;stroke-linecap:butt;stroke-linejoin:miter;stroke-opacity:1" d="M 134.476,850.174 117.207,840.58 z" id="boundary" inkscape:connector-curvature="0" />
	<path style="fill:none;stroke:red;stroke-width:1px;stroke-linecap:butt;stroke-linejoin:miter;stroke-opacity:1" d="M 226.576,504.797 216.983,533.578 z" id="boundary" inkscape:connector-curvature="0" />
	<path style="fill:none;stroke:red;stroke-width:1px;stroke-linecap:butt;stroke-linejoin:miter;stroke-opacity:1" d="M 182.445,454.909 163.257,464.503 z" id="boundary" inkscape:connector-curvature="0" />
	<path style="fill:none;stroke:red;stroke-width:1px;stroke-linecap:butt;stroke-linejoin:miter;stroke-opacity:1" d="M 201.632,445.315 182.445,454.909 z" id="boundary" inkscape:connector-curvature="0" />
	<path style="fill:none;stroke:red;stroke-width:1px;stroke-linecap:butt;stroke-linejoin:miter;stroke-opacity:1" d="M 216.983,429.965 201.632,445.315 z" id="boundary" inkscape:connector-curvature="0" />
	<path style="fill:none;stroke:red;stroke-width:1px;stroke-linecap:butt;stroke-linejoin:miter;stroke-opacity:1" d="M 216.983,533.578 216.983,552.766 z" id="boundary" inkscape:connector-curvature="0" />
	<path style="fill:none;stroke:red;stroke-width:1px;stroke-linecap:butt;stroke-linejoin:miter;stroke-opacity:1" d="M 216.983,571.954 216.983,552.766 z" id="boundary" inkscape:connector-curvature="0" />
	<path style="fill:none;stroke:red;stroke-width:1px;stroke-linecap:butt;stroke-linejoin:miter;stroke-opacity:1" d="M 293.733,466.422 282.221,485.609 z" id="boundary" inkscape:connector-curvature="0" />
	<path style="fill:none;stroke:red;stroke-width:1px;stroke-linecap:butt;stroke-linejoin:miter;stroke-opacity:1" d="M 282.221,485.609 264.952,495.203 z" id="boundary" inkscape:connector-curvature="0" />
	<path style="fill:none;stroke:red;stroke-width:1px;stroke-linecap:butt;stroke-linejoin:miter;stroke-opacity:1" d="M 245.764,504.797 264.952,495.203 z" id="boundary" inkscape:connector-curvature="0" />
	<path style="fill:none;stroke:red;stroke-width:1px;stroke-linecap:butt;stroke-linejoin:miter;stroke-opacity:1" d="M 226.576,504.797 245.764,504.797 z" id="boundary" inkscape:connector-curvature="0" />
	<path style="fill:none;stroke:red;stroke-width:1px;stroke-linecap:butt;stroke-linejoin:miter;stroke-opacity:1" d="M 216.983,591.141 216.983,571.954 z" id="boundary" inkscape:connector-curvature="0" />
	<path style="fill:none;stroke:red;stroke-width:1px;stroke-linecap:butt;stroke-linejoin:miter;stroke-opacity:1" d="M 216.983,591.141 207.389,610.329 z" id="boundary" inkscape:connector-curvature="0" />
	<path style="fill:none;stroke:red;stroke-width:1px;stroke-linecap:butt;stroke-linejoin:miter;stroke-opacity:1" d="M 188.201,763.83 188.201,744.642 z" id="boundary" inkscape:connector-curvature="0" />
	<path style="fill:none;stroke:red;stroke-width:1px;stroke-linecap:butt;stroke-linejoin:miter;stroke-opacity:1" d="M 188.201,744.642 197.795,725.455 z" id="boundary" inkscape:connector-curvature="0" />
	<path style="fill:none;stroke:red;stroke-width:1px;stroke-linecap:butt;stroke-linejoin:miter;stroke-opacity:1" d="M 197.795,687.079 197.795,706.267 z" id="boundary" inkscape:connector-curvature="0" />
	<path style="fill:none;stroke:red;stroke-width:1px;stroke-linecap:butt;stroke-linejoin:miter;stroke-opacity:1" d="M 188.201,763.83 178.607,792.611 z" id="boundary" inkscape:connector-curvature="0" />
	<path style="fill:none;stroke:red;stroke-width:1px;stroke-linecap:butt;stroke-linejoin:miter;stroke-opacity:1" d="M 178.607,811.799 170.932,840.58 z" id="boundary" inkscape:connector-curvature="0" />
	<path style="fill:none;stroke:red;stroke-width:1px;stroke-linecap:butt;stroke-linejoin:miter;stroke-opacity:1" d="M 170.932,840.58 153.663,850.174 z" id="boundary" inkscape:connector-curvature="0" />
	<path style="fill:none;stroke:red;stroke-width:1px;stroke-linecap:butt;stroke-linejoin:miter;stroke-opacity:1" d="M 178.607,792.611 178.607,811.799 z" id="boundary" inkscape:connector-curvature="0" />
	<path style="fill:none;stroke:red;stroke-width:1px;stroke-linecap:butt;stroke-linejoin:miter;stroke-opacity:1" d="M 197.795,667.892 197.795,687.079 z" id="boundary" inkscape:connector-curvature="0" />
	<path style="fill:none;stroke:red;stroke-width:1px;stroke-linecap:butt;stroke-linejoin:miter;stroke-opacity:1" d="M 207.389,648.704 197.795,667.892 z" id="boundary" inkscape:connector-curvature="0" />
	<path style="fill:none;stroke:red;stroke-width:1px;stroke-linecap:butt;stroke-linejoin:miter;stroke-opacity:1" d="M 207.389,629.516 207.389,610.329 z" id="boundary" inkscape:connector-curvature="0" />
	<path style="fill:none;stroke:red;stroke-width:1px;stroke-linecap:butt;stroke-linejoin:miter;stroke-opacity:1" d="M 207.389,648.704 207.389,629.516 z" id="boundary" inkscape:connector-curvature="0" />
	<path style="fill:none;stroke:red;stroke-width:1px;stroke-linecap:butt;stroke-linejoin:miter;stroke-opacity:1" d="M 197.795,706.267 197.795,725.455 z" id="boundary" inkscape:connector-curvature="0" />
	<path style="fill:none;stroke:red;stroke-width:1px;stroke-linecap:butt;stroke-linejoin:miter;stroke-opacity:1" d="M 293.733,466.422 312.921,470.259 z" id="boundary" inkscape:connector-curvature="0" />
	<path style="fill:none;stroke:red;stroke-width:1px;stroke-linecap:butt;stroke-linejoin:miter;stroke-opacity:1" d="M 147.907,479.853 163.257,464.503 z" id="boundary" inkscape:connector-curvature="0" />
	<path style="fill:none;stroke:red;stroke-width:1px;stroke-linecap:butt;stroke-linejoin:miter;stroke-opacity:1" d="M 297.571,130.638 316.758,138.313 z" id="boundary" inkscape:connector-curvature="0" />
	<path style="fill:none;stroke:red;stroke-width:1px;stroke-linecap:butt;stroke-linejoin:miter;stroke-opacity:1" d="M 316.758,138.313 330.19,153.663 z" id="boundary" inkscape:connector-curvature="0" />
	<path style="fill:none;stroke:red;stroke-width:1px;stroke-linecap:butt;stroke-linejoin:miter;stroke-opacity:1" d="M 345.54,167.095 358.971,182.445 z" id="boundary" inkscape:connector-curvature="0" />
	<path style="fill:none;stroke:red;stroke-width:1px;stroke-linecap:butt;stroke-linejoin:miter;stroke-opacity:1" d="M 345.54,167.095 330.19,153.663 z" id="boundary" inkscape:connector-curvature="0" />
	<path style="fill:none;stroke:red;stroke-width:1px;stroke-linecap:butt;stroke-linejoin:miter;stroke-opacity:1" d="M 378.159,190.12 358.971,182.445 z" id="boundary" inkscape:connector-curvature="0" />
	<path style="fill:none;stroke:red;stroke-width:1px;stroke-linecap:butt;stroke-linejoin:miter;stroke-opacity:1" d="M 378.159,190.12 389.671,205.47 z" id="boundary" inkscape:connector-curvature="0" />
	<path style="fill:none;stroke:red;stroke-width:1px;stroke-linecap:butt;stroke-linejoin:miter;stroke-opacity:1" d="M 389.671,205.47 389.671,224.658 z" id="boundary" inkscape:connector-curvature="0" />
	<path style="fill:none;stroke:red;stroke-width:1px;stroke-linecap:butt;stroke-linejoin:miter;stroke-opacity:1" d="M 399.265,241.926 389.671,224.658 z" id="boundary" inkscape:connector-curvature="0" />
	<path style="fill:none;stroke:red;stroke-width:1px;stroke-linecap:butt;stroke-linejoin:miter;stroke-opacity:1" d="M 399.265,241.926 408.859,259.195 z" id="boundary" inkscape:connector-curvature="0" />
	<path style="fill:none;stroke:red;stroke-width:1px;stroke-linecap:butt;stroke-linejoin:miter;stroke-opacity:1" d="M 418.453,276.464 408.859,259.195 z" id="boundary" inkscape:connector-curvature="0" />
	<path style="fill:none;stroke:red;stroke-width:1px;stroke-linecap:butt;stroke-linejoin:miter;stroke-opacity:1" d="M 351.296,466.422 332.108,466.422 z" id="boundary" inkscape:connector-curvature="0" />
	<path style="fill:none;stroke:red;stroke-width:1px;stroke-linecap:butt;stroke-linejoin:miter;stroke-opacity:1" d="M 370.484,470.259 351.296,466.422 z" id="boundary" inkscape:connector-curvature="0" />
	<path style="fill:none;stroke:red;stroke-width:1px;stroke-linecap:butt;stroke-linejoin:miter;stroke-opacity:1" d="M 332.108,466.422 312.921,470.259 z" id="boundary" inkscape:connector-curvature="0" />
	<path style="fill:none;stroke:red;stroke-width:1px;stroke-linecap:butt;stroke-linejoin:miter;stroke-opacity:1" d="M 387.752,479.853 370.484,470.259 z" id="boundary" inkscape:connector-curvature="0" />
	<path style="fill:none;stroke:red;stroke-width:1px;stroke-linecap:butt;stroke-linejoin:miter;stroke-opacity:1" d="M 387.752,479.853 397.346,497.122 z" id="boundary" inkscape:connector-curvature="0" />
	<path style="fill:none;stroke:red;stroke-width:1px;stroke-linecap:butt;stroke-linejoin:miter;stroke-opacity:1" d="M 429.965,291.814 445.315,305.246 z" id="boundary" inkscape:connector-curvature="0" />
	<path style="fill:none;stroke:red;stroke-width:1px;stroke-linecap:butt;stroke-linejoin:miter;stroke-opacity:1" d="M 429.965,291.814 418.453,276.464 z" id="boundary" inkscape:connector-curvature="0" />
	<path style="fill:none;stroke:red;stroke-width:1px;stroke-linecap:butt;stroke-linejoin:miter;stroke-opacity:1" d="M 426.128,523.985 410.778,512.472 z" id="boundary" inkscape:connector-curvature="0" />
	<path style="fill:none;stroke:red;stroke-width:1px;stroke-linecap:butt;stroke-linejoin:miter;stroke-opacity:1" d="M 426.128,523.985 437.64,539.335 z" id="boundary" inkscape:connector-curvature="0" />
	<path style="fill:none;stroke:red;stroke-width:1px;stroke-linecap:butt;stroke-linejoin:miter;stroke-opacity:1" d="M 410.778,512.472 397.346,497.122 z" id="boundary" inkscape:connector-curvature="0" />
	<path style="fill:none;stroke:red;stroke-width:1px;stroke-linecap:butt;stroke-linejoin:miter;stroke-opacity:1" d="M 445.315,305.246 456.828,320.596 z" id="boundary" inkscape:connector-curvature="0" />
	<path style="fill:none;stroke:red;stroke-width:1px;stroke-linecap:butt;stroke-linejoin:miter;stroke-opacity:1" d="M 485.609,345.54 466.422,337.865 z" id="boundary" inkscape:connector-curvature="0" />
	<path style="fill:none;stroke:red;stroke-width:1px;stroke-linecap:butt;stroke-linejoin:miter;stroke-opacity:1" d="M 466.422,337.865 456.828,320.596 z" id="boundary" inkscape:connector-curvature="0" />
	<path style="fill:none;stroke:red;stroke-width:1px;stroke-linecap:butt;stroke-linejoin:miter;stroke-opacity:1" d="M 485.609,345.54 493.284,364.727 z" id="boundary" inkscape:connector-curvature="0" />
	<path style="fill:none;stroke:red;stroke-width:1px;stroke-linecap:butt;stroke-linejoin:miter;stroke-opacity:1" d="M 514.391,397.346 502.878,381.996 z" id="boundary" inkscape:connector-curvature="0" />
	<path style="fill:none;stroke:red;stroke-width:1px;stroke-linecap:butt;stroke-linejoin:miter;stroke-opacity:1" d="M 502.878,381.996 493.284,364.727 z" id="boundary" inkscape:connector-curvature="0" />
	<path style="fill:none;stroke:red;stroke-width:1px;stroke-linecap:butt;stroke-linejoin:miter;stroke-opacity:1" d="M 514.391,397.346 523.985,414.615 z" id="boundary" inkscape:connector-curvature="0" />
	<path style="fill:none;stroke:red;stroke-width:1px;stroke-linecap:butt;stroke-linejoin:miter;stroke-opacity:1" d="M 523.985,414.615 533.578,431.884 z" id="boundary" inkscape:connector-curvature="0" />
	<path style="fill:none;stroke:red;stroke-width:1px;stroke-linecap:butt;stroke-linejoin:miter;stroke-opacity:1" d="M 543.172,449.153 533.578,431.884 z" id="boundary" inkscape:connector-curvature="0" />
	<path style="fill:none;stroke:red;stroke-width:1px;stroke-linecap:butt;stroke-linejoin:miter;stroke-opacity:1" d="M 554.685,464.503 543.172,449.153 z" id="boundary" inkscape:connector-curvature="0" />
	<path style="fill:none;stroke:red;stroke-width:1px;stroke-linecap:butt;stroke-linejoin:miter;stroke-opacity:1" d="M 577.71,495.203 562.36,483.691 z" id="boundary" inkscape:connector-curvature="0" />
	<path style="fill:none;stroke:red;stroke-width:1px;stroke-linecap:butt;stroke-linejoin:miter;stroke-opacity:1" d="M 562.36,483.691 554.685,464.503 z" id="boundary" inkscape:connector-curvature="0" />
	<path style="fill:none;stroke:red;stroke-width:1px;stroke-linecap:butt;stroke-linejoin:miter;stroke-opacity:1" d="M 577.71,495.203 585.385,514.391 z" id="boundary" inkscape:connector-curvature="0" />
	<path style="fill:none;stroke:red;stroke-width:1px;stroke-linecap:butt;stroke-linejoin:miter;stroke-opacity:1" d="M 452.99,552.766 437.64,539.335 z" id="boundary" inkscape:connector-curvature="0" />
	<path style="fill:none;stroke:red;stroke-width:1px;stroke-linecap:butt;stroke-linejoin:miter;stroke-opacity:1" d="M 585.385,514.391 600.735,527.822 z" id="boundary" inkscape:connector-curvature="0" />
	<path style="fill:none;stroke:red;stroke-width:1px;stroke-linecap:butt;stroke-linejoin:miter;stroke-opacity:1" d="M 600.735,527.822 610.329,545.091 z" id="boundary" inkscape:connector-curvature="0" />
	<path style="fill:none;stroke:red;stroke-width:1px;stroke-linecap:butt;stroke-linejoin:miter;stroke-opacity:1" d="M 648.704,550.847 629.516,550.847 z" id="boundary" inkscape:connector-curvature="0" />
	<path style="fill:none;stroke:red;stroke-width:1px;stroke-linecap:butt;stroke-linejoin:miter;stroke-opacity:1" d="M 629.516,550.847 610.329,545.091 z" id="boundary" inkscape:connector-curvature="0" />
	<path style="fill:none;stroke:red;stroke-width:1px;stroke-linecap:butt;stroke-linejoin:miter;stroke-opacity:1" d="M 477.934,581.547 460.665,571.954 z" id="boundary" inkscape:connector-curvature="0" />
	<path style="fill:none;stroke:red;stroke-width:1px;stroke-linecap:butt;stroke-linejoin:miter;stroke-opacity:1" d="M 460.665,571.954 452.99,552.766 z" id="boundary" inkscape:connector-curvature="0" />
	<path style="fill:none;stroke:red;stroke-width:1px;stroke-linecap:butt;stroke-linejoin:miter;stroke-opacity:1" d="M 685.161,564.279 665.973,560.441 z" id="boundary" inkscape:connector-curvature="0" />
	<path style="fill:none;stroke:red;stroke-width:1px;stroke-linecap:butt;stroke-linejoin:miter;stroke-opacity:1" d="M 665.973,560.441 648.704,550.847 z" id="boundary" inkscape:connector-curvature="0" />
	<path style="fill:none;stroke:red;stroke-width:1px;stroke-linecap:butt;stroke-linejoin:miter;stroke-opacity:1" d="M 704.348,570.035 723.536,573.872 z" id="boundary" inkscape:connector-curvature="0" />
	<path style="fill:none;stroke:red;stroke-width:1px;stroke-linecap:butt;stroke-linejoin:miter;stroke-opacity:1" d="M 704.348,570.035 685.161,564.279 z" id="boundary" inkscape:connector-curvature="0" />
	<path style="fill:none;stroke:red;stroke-width:1px;stroke-linecap:butt;stroke-linejoin:miter;stroke-opacity:1" d="M 761.911,583.466 742.723,579.629 z" id="boundary" inkscape:connector-curvature="0" />
	<path style="fill:none;stroke:red;stroke-width:1px;stroke-linecap:butt;stroke-linejoin:miter;stroke-opacity:1" d="M 742.723,579.629 723.536,573.872 z" id="boundary" inkscape:connector-curvature="0" />
	<path style="fill:none;stroke:red;stroke-width:1px;stroke-linecap:butt;stroke-linejoin:miter;stroke-opacity:1" d="M 477.934,581.547 493.284,593.06 z" id="boundary" inkscape:connector-curvature="0" />
	<path style="fill:none;stroke:red;stroke-width:1px;stroke-linecap:butt;stroke-linejoin:miter;stroke-opacity:1" d="M 493.284,593.06 506.716,608.41 z" id="boundary" inkscape:connector-curvature="0" />
	<path style="fill:none;stroke:red;stroke-width:1px;stroke-linecap:butt;stroke-linejoin:miter;stroke-opacity:1" d="M 525.903,616.085 506.716,608.41 z" id="boundary" inkscape:connector-curvature="0" />
	<path style="fill:none;stroke:red;stroke-width:1px;stroke-linecap:butt;stroke-linejoin:miter;stroke-opacity:1" d="M 525.903,616.085 543.172,625.679 z" id="boundary" inkscape:connector-curvature="0" />
	<path style="fill:none;stroke:red;stroke-width:1px;stroke-linecap:butt;stroke-linejoin:miter;stroke-opacity:1" d="M 600.735,619.923 581.547,623.76 z" id="boundary" inkscape:connector-curvature="0" />
	<path style="fill:none;stroke:red;stroke-width:1px;stroke-linecap:butt;stroke-linejoin:miter;stroke-opacity:1" d="M 761.911,583.466 781.099,589.222 z" id="boundary" inkscape:connector-curvature="0" />
	<path style="fill:none;stroke:red;stroke-width:1px;stroke-linecap:butt;stroke-linejoin:miter;stroke-opacity:1" d="M 836.743,598.816 817.555,598.816 z" id="boundary" inkscape:connector-curvature="0" />
	<path style="fill:none;stroke:red;stroke-width:1px;stroke-linecap:butt;stroke-linejoin:miter;stroke-opacity:1" d="M 798.368,598.816 781.099,589.222 z" id="boundary" inkscape:connector-curvature="0" />
	<path style="fill:none;stroke:red;stroke-width:1px;stroke-linecap:butt;stroke-linejoin:miter;stroke-opacity:1" d="M 817.555,598.816 798.368,598.816 z" id="boundary" inkscape:connector-curvature="0" />
	<path style="fill:none;stroke:red;stroke-width:1px;stroke-linecap:butt;stroke-linejoin:miter;stroke-opacity:1" d="M 671.729,629.516 654.46,619.923 z" id="boundary" inkscape:connector-curvature="0" />
	<path style="fill:none;stroke:red;stroke-width:1px;stroke-linecap:butt;stroke-linejoin:miter;stroke-opacity:1" d="M 654.46,619.923 635.273,619.923 z" id="boundary" inkscape:connector-curvature="0" />
	<path style="fill:none;stroke:red;stroke-width:1px;stroke-linecap:butt;stroke-linejoin:miter;stroke-opacity:1" d="M 635.273,619.923 618.004,629.516 z" id="boundary" inkscape:connector-curvature="0" />
	<path style="fill:none;stroke:red;stroke-width:1px;stroke-linecap:butt;stroke-linejoin:miter;stroke-opacity:1" d="M 618.004,629.516 600.735,619.923 z" id="boundary" inkscape:connector-curvature="0" />
	<path style="fill:none;stroke:red;stroke-width:1px;stroke-linecap:butt;stroke-linejoin:miter;stroke-opacity:1" d="M 543.172,625.679 562.36,623.76 z" id="boundary" inkscape:connector-curvature="0" />
	<path style="fill:none;stroke:red;stroke-width:1px;stroke-linecap:butt;stroke-linejoin:miter;stroke-opacity:1" d="M 581.547,623.76 562.36,623.76 z" id="boundary" inkscape:connector-curvature="0" />
	<path style="fill:none;stroke:red;stroke-width:1px;stroke-linecap:butt;stroke-linejoin:miter;stroke-opacity:1" d="M 671.729,629.516 690.917,637.191 z" id="boundary" inkscape:connector-curvature="0" />
	<path style="fill:none;stroke:red;stroke-width:1px;stroke-linecap:butt;stroke-linejoin:miter;stroke-opacity:1" d="M 729.292,639.11 710.104,637.191 z" id="boundary" inkscape:connector-curvature="0" />
	<path style="fill:none;stroke:red;stroke-width:1px;stroke-linecap:butt;stroke-linejoin:miter;stroke-opacity:1" d="M 710.104,637.191 690.917,637.191 z" id="boundary" inkscape:connector-curvature="0" />
	<path style="fill:none;stroke:red;stroke-width:1px;stroke-linecap:butt;stroke-linejoin:miter;stroke-opacity:1" d="M 729.292,639.11 748.48,639.11 z" id="boundary" inkscape:connector-curvature="0" />
	<path style="fill:none;stroke:red;stroke-width:1px;stroke-linecap:butt;stroke-linejoin:miter;stroke-opacity:1" d="M 748.48,639.11 765.749,648.704 z" id="boundary" inkscape:connector-curvature="0" />
	<path style="fill:none;stroke:red;stroke-width:1px;stroke-linecap:butt;stroke-linejoin:miter;stroke-opacity:1" d="M 765.749,648.704 784.936,648.704 z" id="boundary" inkscape:connector-curvature="0" />
	<path style="fill:none;stroke:red;stroke-width:1px;stroke-linecap:butt;stroke-linejoin:miter;stroke-opacity:1" d="M 784.936,648.704 802.205,658.298 z" id="boundary" inkscape:connector-curvature="0" />
	<path style="fill:none;stroke:red;stroke-width:1px;stroke-linecap:butt;stroke-linejoin:miter;stroke-opacity:1" d="M 821.393,658.298 802.205,658.298 z" id="boundary" inkscape:connector-curvature="0" />
	<path style="fill:none;stroke:red;stroke-width:1px;stroke-linecap:butt;stroke-linejoin:miter;stroke-opacity:1" d="M 836.743,598.816 855.93,598.816 z" id="boundary" inkscape:connector-curvature="0" />
	<path style="fill:none;stroke:red;stroke-width:1px;stroke-linecap:butt;stroke-linejoin:miter;stroke-opacity:1" d="M 875.118,598.816 855.93,598.816 z" id="boundary" inkscape:connector-curvature="0" />
	<path style="fill:none;stroke:red;stroke-width:1px;stroke-linecap:butt;stroke-linejoin:miter;stroke-opacity:1" d="M 838.662,667.892 821.393,658.298 z" id="boundary" inkscape:connector-curvature="0" />
	<path style="fill:none;stroke:red;stroke-width:1px;stroke-linecap:butt;stroke-linejoin:miter;stroke-opacity:1" d="M 875.118,598.816 894.306,598.816 z" id="boundary" inkscape:connector-curvature="0" />
	<path style="fill:none;stroke:red;stroke-width:1px;stroke-linecap:butt;stroke-linejoin:miter;stroke-opacity:1" d="M 894.306,598.816 913.493,598.816 z" id="boundary" inkscape:connector-curvature="0" />
	<path style="fill:none;stroke:red;stroke-width:1px;stroke-linecap:butt;stroke-linejoin:miter;stroke-opacity:1" d="M 932.681,598.816 951.868,598.816 z" id="boundary" inkscape:connector-curvature="0" />
	<path style="fill:none;stroke:red;stroke-width:1px;stroke-linecap:butt;stroke-linejoin:miter;stroke-opacity:1" d="M 951.868,598.816 969.137,608.41 z" id="boundary" inkscape:connector-curvature="0" />
	<path style="fill:none;stroke:red;stroke-width:1px;stroke-linecap:butt;stroke-linejoin:miter;stroke-opacity:1" d="M 932.681,598.816 913.493,598.816 z" id="boundary" inkscape:connector-curvature="0" />
	<path style="fill:none;stroke:red;stroke-width:1px;stroke-linecap:butt;stroke-linejoin:miter;stroke-opacity:1" d="M 984.487,619.923 994.081,637.191 z" id="boundary" inkscape:connector-curvature="0" />
	<path style="fill:none;stroke:red;stroke-width:1px;stroke-linecap:butt;stroke-linejoin:miter;stroke-opacity:1" d="M 994.081,637.191 994.081,656.379 z" id="boundary" inkscape:connector-curvature="0" />
	<path style="fill:none;stroke:red;stroke-width:1px;stroke-linecap:butt;stroke-linejoin:miter;stroke-opacity:1" d="M 969.137,608.41 984.487,619.923 z" id="boundary" inkscape:connector-curvature="0" />
	<path style="fill:none;stroke:red;stroke-width:1px;stroke-linecap:butt;stroke-linejoin:miter;stroke-opacity:1" d="M 838.662,667.892 857.849,667.892 z" id="boundary" inkscape:connector-curvature="0" />
	<path style="fill:none;stroke:red;stroke-width:1px;stroke-linecap:butt;stroke-linejoin:miter;stroke-opacity:1" d="M 857.849,667.892 875.118,677.485 z" id="boundary" inkscape:connector-curvature="0" />
	<path style="fill:none;stroke:red;stroke-width:1px;stroke-linecap:butt;stroke-linejoin:miter;stroke-opacity:1" d="M 894.306,677.485 875.118,677.485 z" id="boundary" inkscape:connector-curvature="0" />
	<path style="fill:none;stroke:red;stroke-width:1px;stroke-linecap:butt;stroke-linejoin:miter;stroke-opacity:1" d="M 894.306,677.485 913.493,677.485 z" id="boundary" inkscape:connector-curvature="0" />
	<path style="fill:none;stroke:red;stroke-width:1px;stroke-linecap:butt;stroke-linejoin:miter;stroke-opacity:1" d="M 913.493,677.485 926.925,692.836 z" id="boundary" inkscape:connector-curvature="0" />
	<path style="fill:none;stroke:red;stroke-width:1px;stroke-linecap:butt;stroke-linejoin:miter;stroke-opacity:1" d="M 994.081,675.567 994.081,694.754 z" id="boundary" inkscape:connector-curvature="0" />
	<path style="fill:none;stroke:red;stroke-width:1px;stroke-linecap:butt;stroke-linejoin:miter;stroke-opacity:1" d="M 946.112,700.511 926.925,692.836 z" id="boundary" inkscape:connector-curvature="0" />
	<path style="fill:none;stroke:red;stroke-width:1px;stroke-linecap:butt;stroke-linejoin:miter;stroke-opacity:1" d="M 996,713.942 994.081,694.754 z" id="boundary" inkscape:connector-curvature="0" />
	<path style="fill:none;stroke:red;stroke-width:1px;stroke-linecap:butt;stroke-linejoin:miter;stroke-opacity:1" d="M 959.544,715.861 946.112,700.511 z" id="boundary" inkscape:connector-curvature="0" />
	<path style="fill:none;stroke:red;stroke-width:1px;stroke-linecap:butt;stroke-linejoin:miter;stroke-opacity:1" d="M 978.731,723.536 959.544,715.861 z" id="boundary" inkscape:connector-curvature="0" />
	<path style="fill:none;stroke:red;stroke-width:1px;stroke-linecap:butt;stroke-linejoin:miter;stroke-opacity:1" d="M 996,713.942 978.731,723.536 z" id="boundary" inkscape:connector-curvature="0" />
	<path style="fill:none;stroke:red;stroke-width:1px;stroke-linecap:butt;stroke-linejoin:miter;stroke-opacity:1" d="M 994.081,675.567 994.081,656.379 z" id="boundary" inkscape:connector-curvature="0" />
	<circle cx="4" cy="48.1315" r="4" fill="#0" id="circle0"/>
	<circle cx="13.5938" cy="28.9439" r="4" fill="#0" id="circle1"/>
	<circle cx="19.3501" cy="61.5629" r="4" fill="#0" id="circle2"/>
	<circle cx="28.9439" cy="13.5938" r="4" fill="#0" id="circle3"/>
	<circle cx="34.7002" cy="73.0754" r="4" fill="#0" id="circle4"/>
	<circle cx="48.1315" cy="4" r="4" fill="#0" id="circle5"/>
	<circle cx="51.9691" cy="82.6692" r="4" fill="#0" id="circle6"/>
	<circle cx="51.9691" cy="777.261" r="4" fill="#0" id="circle7"/>
	<circle cx="51.9691" cy="796.449" r="4" fill="#0" id="circle8"/>
	<circle cx="61.5629" cy="758.074" r="4" fill="#0" id="circle9"/>
	<circle cx="67.3191" cy="4" r="4" fill="#0" id="circle10"/>
	<circle cx="69.2379" cy="92.2631" r="4" fill="#0" id="circle11"/>
	<circle cx="71.1567" cy="802.205" r="4" fill="#0" id="circle12"/>
	<circle cx="80.7505" cy="752.317" r="4" fill="#0" id="circle13"/>
	<circle cx="84.588" cy="13.5938" r="4" fill="#0" id="circle14"/>
	<circle cx="86.5068" cy="101.857" r="4" fill="#0" id="circle15"/>
	<circle cx="88.4255" cy="811.799" r="4" fill="#0" id="circle16"/>
	<circle cx="98.0193" cy="742.723" r="4" fill="#0" id="circle17"/>
	<circle cx="99.9381" cy="117.207" r="4" fill="#0" id="circle18"/>
	<circle cx="99.9381" cy="136.395" r="4" fill="#0" id="circle19"/>
	<circle cx="99.9381" cy="155.582" r="4" fill="#0" id="circle20"/>
	<circle cx="99.9381" cy="174.77" r="4" fill="#0" id="circle21"/>
	<circle cx="101.857" cy="23.1876" r="4" fill="#0" id="circle22"/>
	<circle cx="101.857" cy="827.149" r="4" fill="#0" id="circle23"/>
	<circle cx="109.532" cy="192.039" r="4" fill="#0" id="circle24"/>
	<circle cx="109.532" cy="710.104" r="4" fill="#0" id="circle25"/>
	<circle cx="117.207" cy="840.58" r="4" fill="#0" id="circle26"/>
	<circle cx="119.126" cy="209.308" r="4" fill="#0" id="circle27"/>
	<circle cx="119.126" cy="662.135" r="4" fill="#0" id="circle28"/>
	<circle cx="119.126" cy="690.917" r="4" fill="#0" id="circle29"/>
	<circle cx="121.044" cy="28.9439" r="4" fill="#0" id="circle30"/>
	<circle cx="128.72" cy="537.416" r="4" fill="#0" id="circle31"/>
	<circle cx="128.72" cy="556.603" r="4" fill="#0" id="circle32"/>
	<circle cx="128.72" cy="575.791" r="4" fill="#0" id="circle33"/>
	<circle cx="128.72" cy="594.979" r="4" fill="#0" id="circle34"/>
	<circle cx="128.72" cy="614.166" r="4" fill="#0" id="circle35"/>
	<circle cx="128.72" cy="633.354" r="4" fill="#0" id="circle36"/>
	<circle cx="134.476" cy="850.174" r="4" fill="#0" id="circle37"/>
	<circle cx="138.313" cy="38.5377" r="4" fill="#0" id="circle38"/>
	<circle cx="138.313" cy="216.983" r="4" fill="#0" id="circle39"/>
	<circle cx="138.313" cy="499.041" r="4" fill="#0" id="circle40"/>
	<circle cx="138.313" cy="518.228" r="4" fill="#0" id="circle41"/>
	<circle cx="147.907" cy="55.8066" r="4" fill="#0" id="circle42"/>
	<circle cx="147.907" cy="479.853" r="4" fill="#0" id="circle43"/>
	<circle cx="149.826" cy="232.333" r="4" fill="#0" id="circle44"/>
	<circle cx="153.663" cy="850.174" r="4" fill="#0" id="circle45"/>
	<circle cx="159.42" cy="71.1567" r="4" fill="#0" id="circle46"/>
	<circle cx="163.257" cy="464.503" r="4" fill="#0" id="circle47"/>
	<circle cx="169.014" cy="230.414" r="4" fill="#0" id="circle48"/>
	<circle cx="170.932" cy="840.58" r="4" fill="#0" id="circle49"/>
	<circle cx="178.607" cy="76.913" r="4" fill="#0" id="circle50"/>
	<circle cx="178.607" cy="792.611" r="4" fill="#0" id="circle51"/>
	<circle cx="178.607" cy="811.799" r="4" fill="#0" id="circle52"/>
	<circle cx="182.445" cy="245.764" r="4" fill="#0" id="circle53"/>
	<circle cx="182.445" cy="454.909" r="4" fill="#0" id="circle54"/>
	<circle cx="188.201" cy="744.642" r="4" fill="#0" id="circle55"/>
	<circle cx="188.201" cy="763.83" r="4" fill="#0" id="circle56"/>
	<circle cx="197.795" cy="80.7505" r="4" fill="#0" id="circle57"/>
	<circle cx="197.795" cy="667.892" r="4" fill="#0" id="circle58"/>
	<circle cx="197.795" cy="687.079" r="4" fill="#0" id="circle59"/>
	<circle cx="197.795" cy="706.267" r="4" fill="#0" id="circle60"/>
	<circle cx="197.795" cy="725.455" r="4" fill="#0" id="circle61"/>
	<circle cx="201.632" cy="253.439" r="4" fill="#0" id="circle62"/>
	<circle cx="201.632" cy="445.315" r="4" fill="#0" id="circle63"/>
	<circle cx="207.389" cy="610.329" r="4" fill="#0" id="circle64"/>
	<circle cx="207.389" cy="629.516" r="4" fill="#0" id="circle65"/>
	<circle cx="207.389" cy="648.704" r="4" fill="#0" id="circle66"/>
	<circle cx="216.983" cy="80.7505" r="4" fill="#0" id="circle67"/>
	<circle cx="216.983" cy="429.965" r="4" fill="#0" id="circle68"/>
	<circle cx="216.983" cy="533.578" r="4" fill="#0" id="circle69"/>
	<circle cx="216.983" cy="552.766" r="4" fill="#0" id="circle70"/>
	<circle cx="216.983" cy="571.954" r="4" fill="#0" id="circle71"/>
	<circle cx="216.983" cy="591.141" r="4" fill="#0" id="circle72"/>
	<circle cx="218.901" cy="263.033" r="4" fill="#0" id="circle73"/>
	<circle cx="226.576" cy="504.797" r="4" fill="#0" id="circle74"/>
	<circle cx="232.333" cy="416.534" r="4" fill="#0" id="circle75"/>
	<circle cx="234.251" cy="90.3443" r="4" fill="#0" id="circle76"/>
	<circle cx="238.089" cy="270.708" r="4" fill="#0" id="circle77"/>
	<circle cx="245.764" cy="504.797" r="4" fill="#0" id="circle78"/>
	<circle cx="249.602" cy="406.94" r="4" fill="#0" id="circle79"/>
	<circle cx="253.439" cy="90.3443" r="4" fill="#0" id="circle80"/>
	<circle cx="253.439" cy="284.139" r="4" fill="#0" id="circle81"/>
	<circle cx="264.952" cy="495.203" r="4" fill="#0" id="circle82"/>
	<circle cx="266.87" cy="397.346" r="4" fill="#0" id="circle83"/>
	<circle cx="268.789" cy="101.857" r="4" fill="#0" id="circle84"/>
	<circle cx="270.708" cy="293.733" r="4" fill="#0" id="circle85"/>
	<circle cx="276.464" cy="380.077" r="4" fill="#0" id="circle86"/>
	<circle cx="278.383" cy="312.921" r="4" fill="#0" id="circle87"/>
	<circle cx="282.221" cy="485.609" r="4" fill="#0" id="circle88"/>
	<circle cx="284.139" cy="115.288" r="4" fill="#0" id="circle89"/>
	<circle cx="287.977" cy="330.19" r="4" fill="#0" id="circle90"/>
	<circle cx="291.814" cy="368.565" r="4" fill="#0" id="circle91"/>
	<circle cx="293.733" cy="466.422" r="4" fill="#0" id="circle92"/>
	<circle cx="297.571" cy="130.638" r="4" fill="#0" id="circle93"/>
	<circle cx="301.408" cy="345.54" r="4" fill="#0" id="circle94"/>
	<circle cx="312.921" cy="470.259" r="4" fill="#0" id="circle95"/>
	<circle cx="316.758" cy="138.313" r="4" fill="#0" id="circle96"/>
	<circle cx="330.19" cy="153.663" r="4" fill="#0" id="circle97"/>
	<circle cx="332.108" cy="466.422" r="4" fill="#0" id="circle98"/>
	<circle cx="345.54" cy="167.095" r="4" fill="#0" id="circle99"/>
	<circle cx="351.296" cy="466.422" r="4" fill="#0" id="circle100"/>
	<circle cx="358.971" cy="182.445" r="4" fill="#0" id="circle101"/>
	<circle cx="370.484" cy="470.259" r="4" fill="#0" id="circle102"/>
	<circle cx="378.159" cy="190.12" r="4" fill="#0" id="circle103"/>
	<circle cx="387.752" cy="479.853" r="4" fill="#0" id="circle104"/>
	<circle cx="389.671" cy="205.47" r="4" fill="#0" id="circle105"/>
	<circle cx="389.671" cy="224.658" r="4" fill="#0" id="circle106"/>
	<circle cx="397.346" cy="497.122" r="4" fill="#0" id="circle107"/>
	<circle cx="399.265" cy="241.926" r="4" fill="#0" id="circle108"/>
	<circle cx="408.859" cy="259.195" r="4" fill="#0" id="circle109"/>
	<circle cx="410.778" cy="512.472" r="4" fill="#0" id="circle110"/>
	<circle cx="418.453" cy="276.464" r="4" fill="#0" id="circle111"/>
	<circle cx="426.128" cy="523.985" r="4" fill="#0" id="circle112"/>
	<circle cx="429.965" cy="291.814" r="4" fill="#0" id="circle113"/>
	<circle cx="437.64" cy="539.335" r="4" fill="#0" id="circle114"/>
	<circle cx="445.315" cy="305.246" r="4" fill="#0" id="circle115"/>
	<circle cx="452.99" cy="552.766" r="4" fill="#0" id="circle116"/>
	<circle cx="456.828" cy="320.596" r="4" fill="#0" id="circle117"/>
	<circle cx="460.665" cy="571.954" r="4" fill="#0" id="circle118"/>
	<circle cx="466.422" cy="337.865" r="4" fill="#0" id="circle119"/>
	<circle cx="477.934" cy="581.547" r="4" fill="#0" id="circle120"/>
	<circle cx="485.609" cy="345.54" r="4" fill="#0" id="circle121"/>
	<circle cx="493.284" cy="364.727" r="4" fill="#0" id="circle122"/>
	<circle cx="493.284" cy="593.06" r="4" fill="#0" id="circle123"/>
	<circle cx="502.878" cy="381.996" r="4" fill="#0" id="circle124"/>
	<circle cx="506.716" cy="608.41" r="4" fill="#0" id="circle125"/>
	<circle cx="514.391" cy="397.346" r="4" fill="#0" id="circle126"/>
	<circle cx="523.985" cy="414.615" r="4" fill="#0" id="circle127"/>
	<circle cx="525.903" cy="616.085" r="4" fill="#0" id="circle128"/>
	<circle cx="533.578" cy="431.884" r="4" fill="#0" id="circle129"/>
	<circle cx="543.172" cy="449.153" r="4" fill="#0" id="circle130"/>
	<circle cx="543.172" cy="625.679" r="4" fill="#0" id="circle131"/>
	<circle cx="554.685" cy="464.503" r="4" fill="#0" id="circle132"/>
	<circle cx="562.36" cy="483.691" r="4" fill="#0" id="circle133"/>
	<circle cx="562.36" cy="623.76" r="4" fill="#0" id="circle134"/>
	<circle cx="577.71" cy="495.203" r="4" fill="#0" id="circle135"/>
	<circle cx="581.547" cy="623.76" r="4" fill="#0" id="circle136"/>
	<circle cx="585.385" cy="514.391" r="4" fill="#0" id="circle137"/>
	<circle cx="600.735" cy="527.822" r="4" fill="#0" id="circle138"/>
	<circle cx="600.735" cy="619.923" r="4" fill="#0" id="circle139"/>
	<circle cx="610.329" cy="545.091" r="4" fill="#0" id="circle140"/>
	<circle cx="618.004" cy="629.516" r="4" fill="#0" id="circle141"/>
	<circle cx="629.516" cy="550.847" r="4" fill="#0" id="circle142"/>
	<circle cx="635.273" cy="619.923" r="4" fill="#0" id="circle143"/>
	<circle cx="648.704" cy="550.847" r="4" fill="#0" id="circle144"/>
	<circle cx="654.46" cy="619.923" r="4" fill="#0" id="circle145"/>
	<circle cx="665.973" cy="560.441" r="4" fill="#0" id="circle146"/>
	<circle cx="671.729" cy="629.516" r="4" fill="#0" id="circle147"/>
	<circle cx="685.161" cy="564.279" r="4" fill="#0" id="circle148"/>
	<circle cx="690.917" cy="637.191" r="4" fill="#0" id="circle149"/>
	<circle cx="704.348" cy="570.035" r="4" fill="#0" id="circle150"/>
	<circle cx="710.104" cy="637.191" r="4" fill="#0" id="circle151"/>
	<circle cx="723.536" cy="573.872" r="4" fill="#0" id="circle152"/>
	<circle cx="729.292" cy="639.11" r="4" fill="#0" id="circle153"/>
	<circle cx="742.723" cy="579.629" r="4" fill="#0" id="circle154"/>
	<circle cx="748.48" cy="639.11" r="4" fill="#0" id="circle155"/>
	<circle cx="761.911" cy="583.466" r="4" fill="#0" id="circle156"/>
	<circle cx="765.749" cy="648.704" r="4" fill="#0" id="circle157"/>
	<circle cx="781.099" cy="589.222" r="4" fill="#0" id="circle158"/>
	<circle cx="784.936" cy="648.704" r="4" fill="#0" id="circle159"/>
	<circle cx="798.368" cy="598.816" r="4" fill="#0" id="circle160"/>
	<circle cx="802.205" cy="658.298" r="4" fill="#0" id="circle161"/>
	<circle cx="817.555" cy="598.816" r="4" fill="#0" id="circle162"/>
	<circle cx="821.393" cy="658.298" r="4" fill="#0" id="circle163"/>
	<circle cx="836.743" cy="598.816" r="4" fill="#0" id="circle164"/>
	<circle cx="838.662" cy="667.892" r="4" fill="#0" id="circle165"/>
	<circle cx="855.93" cy="598.816" r="4" fill="#0" id="circle166"/>
	<circle cx="857.849" cy="667.892" r="4" fill="#0" id="circle167"/>
	<circle cx="875.118" cy="598.816" r="4" fill="#0" id="circle168"/>
	<circle cx="875.118" cy="677.485" r="4" fill="#0" id="circle169"/>
	<circle cx="894.306" cy="598.816" r="4" fill="#0" id="circle170"/>
	<circle cx="894.306" cy="677.485" r="4" fill="#0" id="circle171"/>
	<circle cx="913.493" cy="598.816" r="4" fill="#0" id="circle172"/>
	<circle cx="913.493" cy="677.485" r="4" fill="#0" id="circle173"/>
	<circle cx="926.925" cy="692.836" r="4" fill="#0" id="circle174"/>
	<circle cx="932.681" cy="598.816" r="4" fill="#0" id="circle175"/>
	<circle cx="946.112" cy="700.511" r="4" fill="#0" id="circle176"/>
	<circle cx="951.868" cy="598.816" r="4" fill="#0" id="circle177"/>
	<circle cx="959.544" cy="715.861" r="4" fill="#0" id="circle178"/>
	<circle cx="969.137" cy="608.41" r="4" fill="#0" id="circle179"/>
	<circle cx="978.731" cy="723.536" r="4" fill="#0" id="circle180"/>
	<circle cx="984.487" cy="619.923" r="4" fill="#0" id="circle181"/>
	<circle cx="994.081" cy="637.191" r="4" fill="#0" id="circle182"/>
	<circle cx="994.081" cy="656.379" r="4" fill="#0" id="circle183"/>
	<circle cx="994.081" cy="675.567" r="4" fill="#0" id="circle184"/>
	<circle cx="994.081" cy="694.754" r="4" fill="#0" id="circle185"/>
	<circle cx="996" cy="713.942" r="4" fill="#0" id="circle186"/>
	</g>
</svg>