<?xml version="1.0" encoding="UTF-8" standalone="no"?>
<!-- Created with CurveBenchmark -->
<svg
	xmlns:dc="http://purl.org/dc/elements/1.1/"
	xmlns:cc="http://creativecommons.org/ns#"
	xmlns:rdf="http://www.w3.org/1999/02/22-rdf-syntax-ns#"
	xmlns:svg="http://www.w3.org/2000/svg"
	xmlns="http://www.w3.org/2000/svg"
	xmlns:sodipodi="http://sodipodi.sourceforge.net/DTD/sodipodi-0.dtd"
	xmlns:inkscape="http://www.inkscape.org/namespaces/inkscape"
	width="1000"
	height="1000"
	id="svg2"
	version="1.1"
	sodipodi:docname="manifold/gathan1-bird02.png.txt">
<defs
	id="defs4" />
<metadata
	id="metadata7">
	<rdf:RDF>
		<cc:Work
			rdf:about="">
			<dc:format>image/svg+xml</dc:format>
			<dc:type
				rdf:resource="http://purl.org/dc/dcmitype/StillImage" />
			<dc:title></dc:title>
		</cc:Work>
	</rdf:RDF>
</metadata>
<g
	inkscape:label="Layer 1"
	inkscape:groupmode="layer"
	id="layer1">
	<path style="fill:none;stroke:red;stroke-width:1px;stroke-linecap:butt;stroke-linejoin:miter;stroke-opacity:1" d="M 13.1682,92.0148 31.5046,82.8466 z" id="boundary" inkscape:connector-curvature="0" />
	<path style="fill:none;stroke:red;stroke-width:1px;stroke-linecap:butt;stroke-linejoin:miter;stroke-opacity:1" d="M 18.6691,132.355 4,119.519 z" id="boundary" inkscape:connector-curvature="0" />
	<path style="fill:none;stroke:red;stroke-width:1px;stroke-linecap:butt;stroke-linejoin:miter;stroke-opacity:1" d="M 4,119.519 13.1682,92.0148 z" id="boundary" inkscape:connector-curvature="0" />
	<path style="fill:none;stroke:red;stroke-width:1px;stroke-linecap:butt;stroke-linejoin:miter;stroke-opacity:1" d="M 37.0055,134.189 18.6691,132.355 z" id="boundary" inkscape:connector-curvature="0" />
	<path style="fill:none;stroke:red;stroke-width:1px;stroke-linecap:butt;stroke-linejoin:miter;stroke-opacity:1" d="M 37.0055,134.189 49.841,148.858 z" id="boundary" inkscape:connector-curvature="0" />
	<path style="fill:none;stroke:red;stroke-width:1px;stroke-linecap:butt;stroke-linejoin:miter;stroke-opacity:1" d="M 31.5046,82.8466 49.841,73.6784 z" id="boundary" inkscape:connector-curvature="0" />
	<path style="fill:none;stroke:red;stroke-width:1px;stroke-linecap:butt;stroke-linejoin:miter;stroke-opacity:1" d="M 49.841,55.342 64.5102,40.6728 z" id="boundary" inkscape:connector-curvature="0" />
	<path style="fill:none;stroke:red;stroke-width:1px;stroke-linecap:butt;stroke-linejoin:miter;stroke-opacity:1" d="M 49.841,73.6784 49.841,55.342 z" id="boundary" inkscape:connector-curvature="0" />
	<path style="fill:none;stroke:red;stroke-width:1px;stroke-linecap:butt;stroke-linejoin:miter;stroke-opacity:1" d="M 49.841,148.858 59.0092,165.36 z" id="boundary" inkscape:connector-curvature="0" />
	<path style="fill:none;stroke:red;stroke-width:1px;stroke-linecap:butt;stroke-linejoin:miter;stroke-opacity:1" d="M 68.1774,181.863 59.0092,165.36 z" id="boundary" inkscape:connector-curvature="0" />
	<path style="fill:none;stroke:red;stroke-width:1px;stroke-linecap:butt;stroke-linejoin:miter;stroke-opacity:1" d="M 68.1774,181.863 68.1774,200.2 z" id="boundary" inkscape:connector-curvature="0" />
	<path style="fill:none;stroke:red;stroke-width:1px;stroke-linecap:butt;stroke-linejoin:miter;stroke-opacity:1" d="M 59.0092,348.725 59.0092,330.388 z" id="boundary" inkscape:connector-curvature="0" />
	<path style="fill:none;stroke:red;stroke-width:1px;stroke-linecap:butt;stroke-linejoin:miter;stroke-opacity:1" d="M 59.0092,330.388 68.1774,312.052 z" id="boundary" inkscape:connector-curvature="0" />
	<path style="fill:none;stroke:red;stroke-width:1px;stroke-linecap:butt;stroke-linejoin:miter;stroke-opacity:1" d="M 59.0092,348.725 59.0092,367.061 z" id="boundary" inkscape:connector-curvature="0" />
	<path style="fill:none;stroke:red;stroke-width:1px;stroke-linecap:butt;stroke-linejoin:miter;stroke-opacity:1" d="M 68.1774,401.9 59.0092,385.397 z" id="boundary" inkscape:connector-curvature="0" />
	<path style="fill:none;stroke:red;stroke-width:1px;stroke-linecap:butt;stroke-linejoin:miter;stroke-opacity:1" d="M 59.0092,385.397 59.0092,367.061 z" id="boundary" inkscape:connector-curvature="0" />
	<path style="fill:none;stroke:red;stroke-width:1px;stroke-linecap:butt;stroke-linejoin:miter;stroke-opacity:1" d="M 68.1774,293.715 68.1774,312.052 z" id="boundary" inkscape:connector-curvature="0" />
	<path style="fill:none;stroke:red;stroke-width:1px;stroke-linecap:butt;stroke-linejoin:miter;stroke-opacity:1" d="M 77.3457,266.211 68.1774,293.715 z" id="boundary" inkscape:connector-curvature="0" />
	<path style="fill:none;stroke:red;stroke-width:1px;stroke-linecap:butt;stroke-linejoin:miter;stroke-opacity:1" d="M 77.3457,238.706 77.3457,266.211 z" id="boundary" inkscape:connector-curvature="0" />
	<path style="fill:none;stroke:red;stroke-width:1px;stroke-linecap:butt;stroke-linejoin:miter;stroke-opacity:1" d="M 77.3457,238.706 77.3457,216.702 z" id="boundary" inkscape:connector-curvature="0" />
	<path style="fill:none;stroke:red;stroke-width:1px;stroke-linecap:butt;stroke-linejoin:miter;stroke-opacity:1" d="M 77.3457,436.739 68.1774,420.237 z" id="boundary" inkscape:connector-curvature="0" />
	<path style="fill:none;stroke:red;stroke-width:1px;stroke-linecap:butt;stroke-linejoin:miter;stroke-opacity:1" d="M 68.1774,420.237 68.1774,401.9 z" id="boundary" inkscape:connector-curvature="0" />
	<path style="fill:none;stroke:red;stroke-width:1px;stroke-linecap:butt;stroke-linejoin:miter;stroke-opacity:1" d="M 68.1774,200.2 77.3457,216.702 z" id="boundary" inkscape:connector-curvature="0" />
	<path style="fill:none;stroke:red;stroke-width:1px;stroke-linecap:butt;stroke-linejoin:miter;stroke-opacity:1" d="M 93.8484,13.1682 112.185,13.1682 z" id="boundary" inkscape:connector-curvature="0" />
	<path style="fill:none;stroke:red;stroke-width:1px;stroke-linecap:butt;stroke-linejoin:miter;stroke-opacity:1" d="M 79.1793,26.0037 93.8484,13.1682 z" id="boundary" inkscape:connector-curvature="0" />
	<path style="fill:none;stroke:red;stroke-width:1px;stroke-linecap:butt;stroke-linejoin:miter;stroke-opacity:1" d="M 130.521,13.1682 148.858,13.1682 z" id="boundary" inkscape:connector-curvature="0" />
	<path style="fill:none;stroke:red;stroke-width:1px;stroke-linecap:butt;stroke-linejoin:miter;stroke-opacity:1" d="M 112.185,13.1682 130.521,13.1682 z" id="boundary" inkscape:connector-curvature="0" />
	<path style="fill:none;stroke:red;stroke-width:1px;stroke-linecap:butt;stroke-linejoin:miter;stroke-opacity:1" d="M 165.36,4 148.858,13.1682 z" id="boundary" inkscape:connector-curvature="0" />
	<path style="fill:none;stroke:red;stroke-width:1px;stroke-linecap:butt;stroke-linejoin:miter;stroke-opacity:1" d="M 181.863,13.1682 198.366,22.3364 z" id="boundary" inkscape:connector-curvature="0" />
	<path style="fill:none;stroke:red;stroke-width:1px;stroke-linecap:butt;stroke-linejoin:miter;stroke-opacity:1" d="M 198.366,22.3364 213.035,33.3383 z" id="boundary" inkscape:connector-curvature="0" />
	<path style="fill:none;stroke:red;stroke-width:1px;stroke-linecap:butt;stroke-linejoin:miter;stroke-opacity:1" d="M 240.54,60.8429 225.871,48.0074 z" id="boundary" inkscape:connector-curvature="0" />
	<path style="fill:none;stroke:red;stroke-width:1px;stroke-linecap:butt;stroke-linejoin:miter;stroke-opacity:1" d="M 225.871,48.0074 213.035,33.3383 z" id="boundary" inkscape:connector-curvature="0" />
	<path style="fill:none;stroke:red;stroke-width:1px;stroke-linecap:butt;stroke-linejoin:miter;stroke-opacity:1" d="M 165.36,4 181.863,13.1682 z" id="boundary" inkscape:connector-curvature="0" />
	<path style="fill:none;stroke:red;stroke-width:1px;stroke-linecap:butt;stroke-linejoin:miter;stroke-opacity:1" d="M 253.375,75.512 262.543,92.0148 z" id="boundary" inkscape:connector-curvature="0" />
	<path style="fill:none;stroke:red;stroke-width:1px;stroke-linecap:butt;stroke-linejoin:miter;stroke-opacity:1" d="M 262.543,92.0148 262.543,110.351 z" id="boundary" inkscape:connector-curvature="0" />
	<path style="fill:none;stroke:red;stroke-width:1px;stroke-linecap:butt;stroke-linejoin:miter;stroke-opacity:1" d="M 269.878,128.688 262.543,110.351 z" id="boundary" inkscape:connector-curvature="0" />
	<path style="fill:none;stroke:red;stroke-width:1px;stroke-linecap:butt;stroke-linejoin:miter;stroke-opacity:1" d="M 262.543,161.693 269.878,128.688 z" id="boundary" inkscape:connector-curvature="0" />
	<path style="fill:none;stroke:red;stroke-width:1px;stroke-linecap:butt;stroke-linejoin:miter;stroke-opacity:1" d="M 271.712,178.196 262.543,161.693 z" id="boundary" inkscape:connector-curvature="0" />
	<path style="fill:none;stroke:red;stroke-width:1px;stroke-linecap:butt;stroke-linejoin:miter;stroke-opacity:1" d="M 240.54,60.8429 253.375,75.512 z" id="boundary" inkscape:connector-curvature="0" />
	<path style="fill:none;stroke:red;stroke-width:1px;stroke-linecap:butt;stroke-linejoin:miter;stroke-opacity:1" d="M 312.052,214.869 295.549,205.701 z" id="boundary" inkscape:connector-curvature="0" />
	<path style="fill:none;stroke:red;stroke-width:1px;stroke-linecap:butt;stroke-linejoin:miter;stroke-opacity:1" d="M 295.549,205.701 280.88,194.699 z" id="boundary" inkscape:connector-curvature="0" />
	<path style="fill:none;stroke:red;stroke-width:1px;stroke-linecap:butt;stroke-linejoin:miter;stroke-opacity:1" d="M 280.88,194.699 271.712,178.196 z" id="boundary" inkscape:connector-curvature="0" />
	<path style="fill:none;stroke:red;stroke-width:1px;stroke-linecap:butt;stroke-linejoin:miter;stroke-opacity:1" d="M 346.891,224.037 328.555,224.037 z" id="boundary" inkscape:connector-curvature="0" />
	<path style="fill:none;stroke:red;stroke-width:1px;stroke-linecap:butt;stroke-linejoin:miter;stroke-opacity:1" d="M 328.555,224.037 312.052,214.869 z" id="boundary" inkscape:connector-curvature="0" />
	<path style="fill:none;stroke:red;stroke-width:1px;stroke-linecap:butt;stroke-linejoin:miter;stroke-opacity:1" d="M 365.227,224.037 346.891,224.037 z" id="boundary" inkscape:connector-curvature="0" />
	<path style="fill:none;stroke:red;stroke-width:1px;stroke-linecap:butt;stroke-linejoin:miter;stroke-opacity:1" d="M 64.5102,40.6728 79.1793,26.0037 z" id="boundary" inkscape:connector-curvature="0" />
	<path style="fill:none;stroke:red;stroke-width:1px;stroke-linecap:butt;stroke-linejoin:miter;stroke-opacity:1" d="M 77.3457,436.739 77.3457,455.076 z" id="boundary" inkscape:connector-curvature="0" />
	<path style="fill:none;stroke:red;stroke-width:1px;stroke-linecap:butt;stroke-linejoin:miter;stroke-opacity:1" d="M 88.3475,469.745 77.3457,455.076 z" id="boundary" inkscape:connector-curvature="0" />
	<path style="fill:none;stroke:red;stroke-width:1px;stroke-linecap:butt;stroke-linejoin:miter;stroke-opacity:1" d="M 110.351,500.917 97.5157,486.248 z" id="boundary" inkscape:connector-curvature="0" />
	<path style="fill:none;stroke:red;stroke-width:1px;stroke-linecap:butt;stroke-linejoin:miter;stroke-opacity:1" d="M 97.5157,486.248 88.3475,469.745 z" id="boundary" inkscape:connector-curvature="0" />
	<path style="fill:none;stroke:red;stroke-width:1px;stroke-linecap:butt;stroke-linejoin:miter;stroke-opacity:1" d="M 147.024,544.924 132.355,532.089 z" id="boundary" inkscape:connector-curvature="0" />
	<path style="fill:none;stroke:red;stroke-width:1px;stroke-linecap:butt;stroke-linejoin:miter;stroke-opacity:1" d="M 132.355,532.089 123.187,515.586 z" id="boundary" inkscape:connector-curvature="0" />
	<path style="fill:none;stroke:red;stroke-width:1px;stroke-linecap:butt;stroke-linejoin:miter;stroke-opacity:1" d="M 123.187,515.586 110.351,500.917 z" id="boundary" inkscape:connector-curvature="0" />
	<path style="fill:none;stroke:red;stroke-width:1px;stroke-linecap:butt;stroke-linejoin:miter;stroke-opacity:1" d="M 147.024,544.924 154.359,563.261 z" id="boundary" inkscape:connector-curvature="0" />
	<path style="fill:none;stroke:red;stroke-width:1px;stroke-linecap:butt;stroke-linejoin:miter;stroke-opacity:1" d="M 169.028,574.262 154.359,563.261 z" id="boundary" inkscape:connector-curvature="0" />
	<path style="fill:none;stroke:red;stroke-width:1px;stroke-linecap:butt;stroke-linejoin:miter;stroke-opacity:1" d="M 185.53,583.431 169.028,574.262 z" id="boundary" inkscape:connector-curvature="0" />
	<path style="fill:none;stroke:red;stroke-width:1px;stroke-linecap:butt;stroke-linejoin:miter;stroke-opacity:1" d="M 185.53,583.431 192.865,601.767 z" id="boundary" inkscape:connector-curvature="0" />
	<path style="fill:none;stroke:red;stroke-width:1px;stroke-linecap:butt;stroke-linejoin:miter;stroke-opacity:1" d="M 209.368,610.935 192.865,601.767 z" id="boundary" inkscape:connector-curvature="0" />
	<path style="fill:none;stroke:red;stroke-width:1px;stroke-linecap:butt;stroke-linejoin:miter;stroke-opacity:1" d="M 220.37,874.98 205.701,889.649 z" id="boundary" inkscape:connector-curvature="0" />
	<path style="fill:none;stroke:red;stroke-width:1px;stroke-linecap:butt;stroke-linejoin:miter;stroke-opacity:1" d="M 196.532,907.985 205.701,889.649 z" id="boundary" inkscape:connector-curvature="0" />
	<path style="fill:none;stroke:red;stroke-width:1px;stroke-linecap:butt;stroke-linejoin:miter;stroke-opacity:1" d="M 214.869,913.486 196.532,907.985 z" id="boundary" inkscape:connector-curvature="0" />
	<path style="fill:none;stroke:red;stroke-width:1px;stroke-linecap:butt;stroke-linejoin:miter;stroke-opacity:1" d="M 233.205,913.486 214.869,913.486 z" id="boundary" inkscape:connector-curvature="0" />
	<path style="fill:none;stroke:red;stroke-width:1px;stroke-linecap:butt;stroke-linejoin:miter;stroke-opacity:1" d="M 255.209,643.941 236.872,636.606 z" id="boundary" inkscape:connector-curvature="0" />
	<path style="fill:none;stroke:red;stroke-width:1px;stroke-linecap:butt;stroke-linejoin:miter;stroke-opacity:1" d="M 236.872,636.606 224.037,621.937 z" id="boundary" inkscape:connector-curvature="0" />
	<path style="fill:none;stroke:red;stroke-width:1px;stroke-linecap:butt;stroke-linejoin:miter;stroke-opacity:1" d="M 253.375,860.311 238.706,874.98 z" id="boundary" inkscape:connector-curvature="0" />
	<path style="fill:none;stroke:red;stroke-width:1px;stroke-linecap:butt;stroke-linejoin:miter;stroke-opacity:1" d="M 238.706,874.98 220.37,874.98 z" id="boundary" inkscape:connector-curvature="0" />
	<path style="fill:none;stroke:red;stroke-width:1px;stroke-linecap:butt;stroke-linejoin:miter;stroke-opacity:1" d="M 251.542,913.486 233.205,913.486 z" id="boundary" inkscape:connector-curvature="0" />
	<path style="fill:none;stroke:red;stroke-width:1px;stroke-linecap:butt;stroke-linejoin:miter;stroke-opacity:1" d="M 251.542,913.486 260.71,929.989 z" id="boundary" inkscape:connector-curvature="0" />
	<path style="fill:none;stroke:red;stroke-width:1px;stroke-linecap:butt;stroke-linejoin:miter;stroke-opacity:1" d="M 253.375,860.311 271.712,851.142 z" id="boundary" inkscape:connector-curvature="0" />
	<path style="fill:none;stroke:red;stroke-width:1px;stroke-linecap:butt;stroke-linejoin:miter;stroke-opacity:1" d="M 209.368,610.935 224.037,621.937 z" id="boundary" inkscape:connector-curvature="0" />
	<path style="fill:none;stroke:red;stroke-width:1px;stroke-linecap:butt;stroke-linejoin:miter;stroke-opacity:1" d="M 286.381,665.945 269.878,656.776 z" id="boundary" inkscape:connector-curvature="0" />
	<path style="fill:none;stroke:red;stroke-width:1px;stroke-linecap:butt;stroke-linejoin:miter;stroke-opacity:1" d="M 269.878,656.776 255.209,643.941 z" id="boundary" inkscape:connector-curvature="0" />
	<path style="fill:none;stroke:red;stroke-width:1px;stroke-linecap:butt;stroke-linejoin:miter;stroke-opacity:1" d="M 302.884,675.113 319.386,684.281 z" id="boundary" inkscape:connector-curvature="0" />
	<path style="fill:none;stroke:red;stroke-width:1px;stroke-linecap:butt;stroke-linejoin:miter;stroke-opacity:1" d="M 302.884,675.113 286.381,665.945 z" id="boundary" inkscape:connector-curvature="0" />
	<path style="fill:none;stroke:red;stroke-width:1px;stroke-linecap:butt;stroke-linejoin:miter;stroke-opacity:1" d="M 319.386,684.281 335.889,693.449 z" id="boundary" inkscape:connector-curvature="0" />
	<path style="fill:none;stroke:red;stroke-width:1px;stroke-linecap:butt;stroke-linejoin:miter;stroke-opacity:1" d="M 361.56,719.12 352.392,702.617 z" id="boundary" inkscape:connector-curvature="0" />
	<path style="fill:none;stroke:red;stroke-width:1px;stroke-linecap:butt;stroke-linejoin:miter;stroke-opacity:1" d="M 370.728,735.623 361.56,719.12 z" id="boundary" inkscape:connector-curvature="0" />
	<path style="fill:none;stroke:red;stroke-width:1px;stroke-linecap:butt;stroke-linejoin:miter;stroke-opacity:1" d="M 370.728,735.623 361.56,761.294 z" id="boundary" inkscape:connector-curvature="0" />
	<path style="fill:none;stroke:red;stroke-width:1px;stroke-linecap:butt;stroke-linejoin:miter;stroke-opacity:1" d="M 348.725,819.97 352.392,788.799 z" id="boundary" inkscape:connector-curvature="0" />
	<path style="fill:none;stroke:red;stroke-width:1px;stroke-linecap:butt;stroke-linejoin:miter;stroke-opacity:1" d="M 361.56,761.294 352.392,788.799 z" id="boundary" inkscape:connector-curvature="0" />
	<path style="fill:none;stroke:red;stroke-width:1px;stroke-linecap:butt;stroke-linejoin:miter;stroke-opacity:1" d="M 339.556,838.307 348.725,819.97 z" id="boundary" inkscape:connector-curvature="0" />
	<path style="fill:none;stroke:red;stroke-width:1px;stroke-linecap:butt;stroke-linejoin:miter;stroke-opacity:1" d="M 335.889,693.449 352.392,702.617 z" id="boundary" inkscape:connector-curvature="0" />
	<path style="fill:none;stroke:red;stroke-width:1px;stroke-linecap:butt;stroke-linejoin:miter;stroke-opacity:1" d="M 271.712,851.142 290.048,847.475 z" id="boundary" inkscape:connector-curvature="0" />
	<path style="fill:none;stroke:red;stroke-width:1px;stroke-linecap:butt;stroke-linejoin:miter;stroke-opacity:1" d="M 290.048,847.475 306.551,856.643 z" id="boundary" inkscape:connector-curvature="0" />
	<path style="fill:none;stroke:red;stroke-width:1px;stroke-linecap:butt;stroke-linejoin:miter;stroke-opacity:1" d="M 323.054,847.475 306.551,856.643 z" id="boundary" inkscape:connector-curvature="0" />
	<path style="fill:none;stroke:red;stroke-width:1px;stroke-linecap:butt;stroke-linejoin:miter;stroke-opacity:1" d="M 279.046,931.823 260.71,929.989 z" id="boundary" inkscape:connector-curvature="0" />
	<path style="fill:none;stroke:red;stroke-width:1px;stroke-linecap:butt;stroke-linejoin:miter;stroke-opacity:1" d="M 297.383,931.823 279.046,931.823 z" id="boundary" inkscape:connector-curvature="0" />
	<path style="fill:none;stroke:red;stroke-width:1px;stroke-linecap:butt;stroke-linejoin:miter;stroke-opacity:1" d="M 315.719,931.823 297.383,931.823 z" id="boundary" inkscape:connector-curvature="0" />
	<path style="fill:none;stroke:red;stroke-width:1px;stroke-linecap:butt;stroke-linejoin:miter;stroke-opacity:1" d="M 323.054,847.475 339.556,838.307 z" id="boundary" inkscape:connector-curvature="0" />
	<path style="fill:none;stroke:red;stroke-width:1px;stroke-linecap:butt;stroke-linejoin:miter;stroke-opacity:1" d="M 367.061,913.486 348.725,913.486 z" id="boundary" inkscape:connector-curvature="0" />
	<path style="fill:none;stroke:red;stroke-width:1px;stroke-linecap:butt;stroke-linejoin:miter;stroke-opacity:1" d="M 383.564,904.318 367.061,913.486 z" id="boundary" inkscape:connector-curvature="0" />
	<path style="fill:none;stroke:red;stroke-width:1px;stroke-linecap:butt;stroke-linejoin:miter;stroke-opacity:1" d="M 348.725,913.486 334.055,926.322 z" id="boundary" inkscape:connector-curvature="0" />
	<path style="fill:none;stroke:red;stroke-width:1px;stroke-linecap:butt;stroke-linejoin:miter;stroke-opacity:1" d="M 334.055,926.322 315.719,931.823 z" id="boundary" inkscape:connector-curvature="0" />
	<path style="fill:none;stroke:red;stroke-width:1px;stroke-linecap:butt;stroke-linejoin:miter;stroke-opacity:1" d="M 365.227,224.037 381.73,233.205 z" id="boundary" inkscape:connector-curvature="0" />
	<path style="fill:none;stroke:red;stroke-width:1px;stroke-linecap:butt;stroke-linejoin:miter;stroke-opacity:1" d="M 381.73,233.205 400.067,233.205 z" id="boundary" inkscape:connector-curvature="0" />
	<path style="fill:none;stroke:red;stroke-width:1px;stroke-linecap:butt;stroke-linejoin:miter;stroke-opacity:1" d="M 400.067,233.205 416.569,242.373 z" id="boundary" inkscape:connector-curvature="0" />
	<path style="fill:none;stroke:red;stroke-width:1px;stroke-linecap:butt;stroke-linejoin:miter;stroke-opacity:1" d="M 451.409,253.375 433.072,251.542 z" id="boundary" inkscape:connector-curvature="0" />
	<path style="fill:none;stroke:red;stroke-width:1px;stroke-linecap:butt;stroke-linejoin:miter;stroke-opacity:1" d="M 433.072,251.542 416.569,242.373 z" id="boundary" inkscape:connector-curvature="0" />
	<path style="fill:none;stroke:red;stroke-width:1px;stroke-linecap:butt;stroke-linejoin:miter;stroke-opacity:1" d="M 451.409,253.375 467.911,262.543 z" id="boundary" inkscape:connector-curvature="0" />
	<path style="fill:none;stroke:red;stroke-width:1px;stroke-linecap:butt;stroke-linejoin:miter;stroke-opacity:1" d="M 504.584,269.878 486.248,269.878 z" id="boundary" inkscape:connector-curvature="0" />
	<path style="fill:none;stroke:red;stroke-width:1px;stroke-linecap:butt;stroke-linejoin:miter;stroke-opacity:1" d="M 486.248,269.878 467.911,262.543 z" id="boundary" inkscape:connector-curvature="0" />
	<path style="fill:none;stroke:red;stroke-width:1px;stroke-linecap:butt;stroke-linejoin:miter;stroke-opacity:1" d="M 504.584,269.878 521.087,279.046 z" id="boundary" inkscape:connector-curvature="0" />
	<path style="fill:none;stroke:red;stroke-width:1px;stroke-linecap:butt;stroke-linejoin:miter;stroke-opacity:1" d="M 555.926,293.715 537.59,288.214 z" id="boundary" inkscape:connector-curvature="0" />
	<path style="fill:none;stroke:red;stroke-width:1px;stroke-linecap:butt;stroke-linejoin:miter;stroke-opacity:1" d="M 537.59,288.214 521.087,279.046 z" id="boundary" inkscape:connector-curvature="0" />
	<path style="fill:none;stroke:red;stroke-width:1px;stroke-linecap:butt;stroke-linejoin:miter;stroke-opacity:1" d="M 555.926,293.715 572.429,302.884 z" id="boundary" inkscape:connector-curvature="0" />
	<path style="fill:none;stroke:red;stroke-width:1px;stroke-linecap:butt;stroke-linejoin:miter;stroke-opacity:1" d="M 572.429,302.884 590.765,310.218 z" id="boundary" inkscape:connector-curvature="0" />
	<path style="fill:none;stroke:red;stroke-width:1px;stroke-linecap:butt;stroke-linejoin:miter;stroke-opacity:1" d="M 590.765,310.218 601.767,324.887 z" id="boundary" inkscape:connector-curvature="0" />
	<path style="fill:none;stroke:red;stroke-width:1px;stroke-linecap:butt;stroke-linejoin:miter;stroke-opacity:1" d="M 620.104,330.388 601.767,324.887 z" id="boundary" inkscape:connector-curvature="0" />
	<path style="fill:none;stroke:red;stroke-width:1px;stroke-linecap:butt;stroke-linejoin:miter;stroke-opacity:1" d="M 651.275,352.392 632.939,345.057 z" id="boundary" inkscape:connector-curvature="0" />
	<path style="fill:none;stroke:red;stroke-width:1px;stroke-linecap:butt;stroke-linejoin:miter;stroke-opacity:1" d="M 632.939,345.057 620.104,330.388 z" id="boundary" inkscape:connector-curvature="0" />
	<path style="fill:none;stroke:red;stroke-width:1px;stroke-linecap:butt;stroke-linejoin:miter;stroke-opacity:1" d="M 651.275,352.392 656.776,370.728 z" id="boundary" inkscape:connector-curvature="0" />
	<path style="fill:none;stroke:red;stroke-width:1px;stroke-linecap:butt;stroke-linejoin:miter;stroke-opacity:1" d="M 656.776,370.728 675.113,376.229 z" id="boundary" inkscape:connector-curvature="0" />
	<path style="fill:none;stroke:red;stroke-width:1px;stroke-linecap:butt;stroke-linejoin:miter;stroke-opacity:1" d="M 675.113,376.229 689.782,389.065 z" id="boundary" inkscape:connector-curvature="0" />
	<path style="fill:none;stroke:red;stroke-width:1px;stroke-linecap:butt;stroke-linejoin:miter;stroke-opacity:1" d="M 706.285,398.233 689.782,389.065 z" id="boundary" inkscape:connector-curvature="0" />
	<path style="fill:none;stroke:red;stroke-width:1px;stroke-linecap:butt;stroke-linejoin:miter;stroke-opacity:1" d="M 719.12,412.902 706.285,398.233 z" id="boundary" inkscape:connector-curvature="0" />
	<path style="fill:none;stroke:red;stroke-width:1px;stroke-linecap:butt;stroke-linejoin:miter;stroke-opacity:1" d="M 733.789,425.738 719.12,412.902 z" id="boundary" inkscape:connector-curvature="0" />
	<path style="fill:none;stroke:red;stroke-width:1px;stroke-linecap:butt;stroke-linejoin:miter;stroke-opacity:1" d="M 717.287,702.617 698.95,708.118 z" id="boundary" inkscape:connector-curvature="0" />
	<path style="fill:none;stroke:red;stroke-width:1px;stroke-linecap:butt;stroke-linejoin:miter;stroke-opacity:1" d="M 739.29,444.074 733.789,425.738 z" id="boundary" inkscape:connector-curvature="0" />
	<path style="fill:none;stroke:red;stroke-width:1px;stroke-linecap:butt;stroke-linejoin:miter;stroke-opacity:1" d="M 753.959,455.076 739.29,444.074 z" id="boundary" inkscape:connector-curvature="0" />
	<path style="fill:none;stroke:red;stroke-width:1px;stroke-linecap:butt;stroke-linejoin:miter;stroke-opacity:1" d="M 775.963,486.248 761.294,473.412 z" id="boundary" inkscape:connector-curvature="0" />
	<path style="fill:none;stroke:red;stroke-width:1px;stroke-linecap:butt;stroke-linejoin:miter;stroke-opacity:1" d="M 761.294,473.412 753.959,455.076 z" id="boundary" inkscape:connector-curvature="0" />
	<path style="fill:none;stroke:red;stroke-width:1px;stroke-linecap:butt;stroke-linejoin:miter;stroke-opacity:1" d="M 788.799,500.917 775.963,486.248 z" id="boundary" inkscape:connector-curvature="0" />
	<path style="fill:none;stroke:red;stroke-width:1px;stroke-linecap:butt;stroke-linejoin:miter;stroke-opacity:1" d="M 814.47,526.588 797.967,517.42 z" id="boundary" inkscape:connector-curvature="0" />
	<path style="fill:none;stroke:red;stroke-width:1px;stroke-linecap:butt;stroke-linejoin:miter;stroke-opacity:1" d="M 797.967,517.42 788.799,500.917 z" id="boundary" inkscape:connector-curvature="0" />
	<path style="fill:none;stroke:red;stroke-width:1px;stroke-linecap:butt;stroke-linejoin:miter;stroke-opacity:1" d="M 814.47,526.588 821.804,544.924 z" id="boundary" inkscape:connector-curvature="0" />
	<path style="fill:none;stroke:red;stroke-width:1px;stroke-linecap:butt;stroke-linejoin:miter;stroke-opacity:1" d="M 821.804,544.924 836.473,555.926 z" id="boundary" inkscape:connector-curvature="0" />
	<path style="fill:none;stroke:red;stroke-width:1px;stroke-linecap:butt;stroke-linejoin:miter;stroke-opacity:1" d="M 849.309,570.595 836.473,555.926 z" id="boundary" inkscape:connector-curvature="0" />
	<path style="fill:none;stroke:red;stroke-width:1px;stroke-linecap:butt;stroke-linejoin:miter;stroke-opacity:1" d="M 785.131,706.285 770.462,693.449 z" id="boundary" inkscape:connector-curvature="0" />
	<path style="fill:none;stroke:red;stroke-width:1px;stroke-linecap:butt;stroke-linejoin:miter;stroke-opacity:1" d="M 880.481,592.599 863.978,583.431 z" id="boundary" inkscape:connector-curvature="0" />
	<path style="fill:none;stroke:red;stroke-width:1px;stroke-linecap:butt;stroke-linejoin:miter;stroke-opacity:1" d="M 863.978,583.431 849.309,570.595 z" id="boundary" inkscape:connector-curvature="0" />
	<path style="fill:none;stroke:red;stroke-width:1px;stroke-linecap:butt;stroke-linejoin:miter;stroke-opacity:1" d="M 895.15,605.434 880.481,592.599 z" id="boundary" inkscape:connector-curvature="0" />
	<path style="fill:none;stroke:red;stroke-width:1px;stroke-linecap:butt;stroke-linejoin:miter;stroke-opacity:1" d="M 770.462,693.449 752.126,693.449 z" id="boundary" inkscape:connector-curvature="0" />
	<path style="fill:none;stroke:red;stroke-width:1px;stroke-linecap:butt;stroke-linejoin:miter;stroke-opacity:1" d="M 895.15,605.434 909.819,618.27 z" id="boundary" inkscape:connector-curvature="0" />
	<path style="fill:none;stroke:red;stroke-width:1px;stroke-linecap:butt;stroke-linejoin:miter;stroke-opacity:1" d="M 926.322,627.438 909.819,618.27 z" id="boundary" inkscape:connector-curvature="0" />
	<path style="fill:none;stroke:red;stroke-width:1px;stroke-linecap:butt;stroke-linejoin:miter;stroke-opacity:1" d="M 953.826,654.943 939.157,642.107 z" id="boundary" inkscape:connector-curvature="0" />
	<path style="fill:none;stroke:red;stroke-width:1px;stroke-linecap:butt;stroke-linejoin:miter;stroke-opacity:1" d="M 939.157,642.107 926.322,627.438 z" id="boundary" inkscape:connector-curvature="0" />
	<path style="fill:none;stroke:red;stroke-width:1px;stroke-linecap:butt;stroke-linejoin:miter;stroke-opacity:1" d="M 992.333,695.283 977.664,684.281 z" id="boundary" inkscape:connector-curvature="0" />
	<path style="fill:none;stroke:red;stroke-width:1px;stroke-linecap:butt;stroke-linejoin:miter;stroke-opacity:1" d="M 977.664,684.281 966.662,669.612 z" id="boundary" inkscape:connector-curvature="0" />
	<path style="fill:none;stroke:red;stroke-width:1px;stroke-linecap:butt;stroke-linejoin:miter;stroke-opacity:1" d="M 966.662,669.612 953.826,654.943 z" id="boundary" inkscape:connector-curvature="0" />
	<path style="fill:none;stroke:red;stroke-width:1px;stroke-linecap:butt;stroke-linejoin:miter;stroke-opacity:1" d="M 752.126,693.449 735.623,702.617 z" id="boundary" inkscape:connector-curvature="0" />
	<path style="fill:none;stroke:red;stroke-width:1px;stroke-linecap:butt;stroke-linejoin:miter;stroke-opacity:1" d="M 735.623,702.617 717.287,702.617 z" id="boundary" inkscape:connector-curvature="0" />
	<path style="fill:none;stroke:red;stroke-width:1px;stroke-linecap:butt;stroke-linejoin:miter;stroke-opacity:1" d="M 992.333,695.283 996,713.619 z" id="boundary" inkscape:connector-curvature="0" />
	<path style="fill:none;stroke:red;stroke-width:1px;stroke-linecap:butt;stroke-linejoin:miter;stroke-opacity:1" d="M 427.571,730.122 445.908,730.122 z" id="boundary" inkscape:connector-curvature="0" />
	<path style="fill:none;stroke:red;stroke-width:1px;stroke-linecap:butt;stroke-linejoin:miter;stroke-opacity:1" d="M 418.403,748.458 427.571,730.122 z" id="boundary" inkscape:connector-curvature="0" />
	<path style="fill:none;stroke:red;stroke-width:1px;stroke-linecap:butt;stroke-linejoin:miter;stroke-opacity:1" d="M 464.244,730.122 445.908,730.122 z" id="boundary" inkscape:connector-curvature="0" />
	<path style="fill:none;stroke:red;stroke-width:1px;stroke-linecap:butt;stroke-linejoin:miter;stroke-opacity:1" d="M 464.244,730.122 482.58,730.122 z" id="boundary" inkscape:connector-curvature="0" />
	<path style="fill:none;stroke:red;stroke-width:1px;stroke-linecap:butt;stroke-linejoin:miter;stroke-opacity:1" d="M 500.917,730.122 482.58,730.122 z" id="boundary" inkscape:connector-curvature="0" />
	<path style="fill:none;stroke:red;stroke-width:1px;stroke-linecap:butt;stroke-linejoin:miter;stroke-opacity:1" d="M 519.253,730.122 500.917,730.122 z" id="boundary" inkscape:connector-curvature="0" />
	<path style="fill:none;stroke:red;stroke-width:1px;stroke-linecap:butt;stroke-linejoin:miter;stroke-opacity:1" d="M 537.59,730.122 519.253,730.122 z" id="boundary" inkscape:connector-curvature="0" />
	<path style="fill:none;stroke:red;stroke-width:1px;stroke-linecap:butt;stroke-linejoin:miter;stroke-opacity:1" d="M 555.926,730.122 537.59,730.122 z" id="boundary" inkscape:connector-curvature="0" />
	<path style="fill:none;stroke:red;stroke-width:1px;stroke-linecap:butt;stroke-linejoin:miter;stroke-opacity:1" d="M 555.926,730.122 574.262,730.122 z" id="boundary" inkscape:connector-curvature="0" />
	<path style="fill:none;stroke:red;stroke-width:1px;stroke-linecap:butt;stroke-linejoin:miter;stroke-opacity:1" d="M 592.599,730.122 574.262,730.122 z" id="boundary" inkscape:connector-curvature="0" />
	<path style="fill:none;stroke:red;stroke-width:1px;stroke-linecap:butt;stroke-linejoin:miter;stroke-opacity:1" d="M 627.438,720.954 610.935,730.122 z" id="boundary" inkscape:connector-curvature="0" />
	<path style="fill:none;stroke:red;stroke-width:1px;stroke-linecap:butt;stroke-linejoin:miter;stroke-opacity:1" d="M 610.935,730.122 592.599,730.122 z" id="boundary" inkscape:connector-curvature="0" />
	<path style="fill:none;stroke:red;stroke-width:1px;stroke-linecap:butt;stroke-linejoin:miter;stroke-opacity:1" d="M 381.73,821.804 396.399,808.969 z" id="boundary" inkscape:connector-curvature="0" />
	<path style="fill:none;stroke:red;stroke-width:1px;stroke-linecap:butt;stroke-linejoin:miter;stroke-opacity:1" d="M 381.73,840.14 381.73,821.804 z" id="boundary" inkscape:connector-curvature="0" />
	<path style="fill:none;stroke:red;stroke-width:1px;stroke-linecap:butt;stroke-linejoin:miter;stroke-opacity:1" d="M 390.898,856.643 381.73,840.14 z" id="boundary" inkscape:connector-curvature="0" />
	<path style="fill:none;stroke:red;stroke-width:1px;stroke-linecap:butt;stroke-linejoin:miter;stroke-opacity:1" d="M 400.067,895.15 383.564,904.318 z" id="boundary" inkscape:connector-curvature="0" />
	<path style="fill:none;stroke:red;stroke-width:1px;stroke-linecap:butt;stroke-linejoin:miter;stroke-opacity:1" d="M 390.898,856.643 405.567,867.645 z" id="boundary" inkscape:connector-curvature="0" />
	<path style="fill:none;stroke:red;stroke-width:1px;stroke-linecap:butt;stroke-linejoin:miter;stroke-opacity:1" d="M 412.902,794.299 409.235,775.963 z" id="boundary" inkscape:connector-curvature="0" />
	<path style="fill:none;stroke:red;stroke-width:1px;stroke-linecap:butt;stroke-linejoin:miter;stroke-opacity:1" d="M 409.235,775.963 418.403,748.458 z" id="boundary" inkscape:connector-curvature="0" />
	<path style="fill:none;stroke:red;stroke-width:1px;stroke-linecap:butt;stroke-linejoin:miter;stroke-opacity:1" d="M 414.736,884.148 405.567,867.645 z" id="boundary" inkscape:connector-curvature="0" />
	<path style="fill:none;stroke:red;stroke-width:1px;stroke-linecap:butt;stroke-linejoin:miter;stroke-opacity:1" d="M 396.399,808.969 412.902,794.299 z" id="boundary" inkscape:connector-curvature="0" />
	<path style="fill:none;stroke:red;stroke-width:1px;stroke-linecap:butt;stroke-linejoin:miter;stroke-opacity:1" d="M 414.736,884.148 400.067,895.15 z" id="boundary" inkscape:connector-curvature="0" />
	<path style="fill:none;stroke:red;stroke-width:1px;stroke-linecap:butt;stroke-linejoin:miter;stroke-opacity:1" d="M 627.438,720.954 645.774,720.954 z" id="boundary" inkscape:connector-curvature="0" />
	<path style="fill:none;stroke:red;stroke-width:1px;stroke-linecap:butt;stroke-linejoin:miter;stroke-opacity:1" d="M 680.614,711.786 698.95,708.118 z" id="boundary" inkscape:connector-curvature="0" />
	<path style="fill:none;stroke:red;stroke-width:1px;stroke-linecap:butt;stroke-linejoin:miter;stroke-opacity:1" d="M 645.774,720.954 662.277,711.786 z" id="boundary" inkscape:connector-curvature="0" />
	<path style="fill:none;stroke:red;stroke-width:1px;stroke-linecap:butt;stroke-linejoin:miter;stroke-opacity:1" d="M 662.277,711.786 680.614,711.786 z" id="boundary" inkscape:connector-curvature="0" />
	<path style="fill:none;stroke:red;stroke-width:1px;stroke-linecap:butt;stroke-linejoin:miter;stroke-opacity:1" d="M 785.131,706.285 797.967,720.954 z" id="boundary" inkscape:connector-curvature="0" />
	<path style="fill:none;stroke:red;stroke-width:1px;stroke-linecap:butt;stroke-linejoin:miter;stroke-opacity:1" d="M 819.97,752.126 807.135,737.457 z" id="boundary" inkscape:connector-curvature="0" />
	<path style="fill:none;stroke:red;stroke-width:1px;stroke-linecap:butt;stroke-linejoin:miter;stroke-opacity:1" d="M 807.135,737.457 797.967,720.954 z" id="boundary" inkscape:connector-curvature="0" />
	<path style="fill:none;stroke:red;stroke-width:1px;stroke-linecap:butt;stroke-linejoin:miter;stroke-opacity:1" d="M 996,731.956 996,757.627 z" id="boundary" inkscape:connector-curvature="0" />
	<path style="fill:none;stroke:red;stroke-width:1px;stroke-linecap:butt;stroke-linejoin:miter;stroke-opacity:1" d="M 996,713.619 996,731.956 z" id="boundary" inkscape:connector-curvature="0" />
	<path style="fill:none;stroke:red;stroke-width:1px;stroke-linecap:butt;stroke-linejoin:miter;stroke-opacity:1" d="M 819.97,752.126 829.139,768.628 z" id="boundary" inkscape:connector-curvature="0" />
	<path style="fill:none;stroke:red;stroke-width:1px;stroke-linecap:butt;stroke-linejoin:miter;stroke-opacity:1" d="M 874.98,794.299 856.643,794.299 z" id="boundary" inkscape:connector-curvature="0" />
	<path style="fill:none;stroke:red;stroke-width:1px;stroke-linecap:butt;stroke-linejoin:miter;stroke-opacity:1" d="M 856.643,794.299 841.974,783.298 z" id="boundary" inkscape:connector-curvature="0" />
	<path style="fill:none;stroke:red;stroke-width:1px;stroke-linecap:butt;stroke-linejoin:miter;stroke-opacity:1" d="M 841.974,783.298 829.139,768.628 z" id="boundary" inkscape:connector-curvature="0" />
	<path style="fill:none;stroke:red;stroke-width:1px;stroke-linecap:butt;stroke-linejoin:miter;stroke-opacity:1" d="M 909.819,803.468 891.482,803.468 z" id="boundary" inkscape:connector-curvature="0" />
	<path style="fill:none;stroke:red;stroke-width:1px;stroke-linecap:butt;stroke-linejoin:miter;stroke-opacity:1" d="M 891.482,803.468 874.98,794.299 z" id="boundary" inkscape:connector-curvature="0" />
	<path style="fill:none;stroke:red;stroke-width:1px;stroke-linecap:butt;stroke-linejoin:miter;stroke-opacity:1" d="M 909.819,803.468 926.322,812.636 z" id="boundary" inkscape:connector-curvature="0" />
	<path style="fill:none;stroke:red;stroke-width:1px;stroke-linecap:butt;stroke-linejoin:miter;stroke-opacity:1" d="M 996,775.963 996,794.299 z" id="boundary" inkscape:connector-curvature="0" />
	<path style="fill:none;stroke:red;stroke-width:1px;stroke-linecap:butt;stroke-linejoin:miter;stroke-opacity:1" d="M 996,794.299 981.331,810.802 z" id="boundary" inkscape:connector-curvature="0" />
	<path style="fill:none;stroke:red;stroke-width:1px;stroke-linecap:butt;stroke-linejoin:miter;stroke-opacity:1" d="M 981.331,810.802 962.994,819.97 z" id="boundary" inkscape:connector-curvature="0" />
	<path style="fill:none;stroke:red;stroke-width:1px;stroke-linecap:butt;stroke-linejoin:miter;stroke-opacity:1" d="M 944.658,819.97 926.322,812.636 z" id="boundary" inkscape:connector-curvature="0" />
	<path style="fill:none;stroke:red;stroke-width:1px;stroke-linecap:butt;stroke-linejoin:miter;stroke-opacity:1" d="M 962.994,819.97 944.658,819.97 z" id="boundary" inkscape:connector-curvature="0" />
	<path style="fill:none;stroke:red;stroke-width:1px;stroke-linecap:butt;stroke-linejoin:miter;stroke-opacity:1" d="M 996,757.627 996,775.963 z" id="boundary" inkscape:connector-curvature="0" />
	<circle cx="4" cy="119.519" r="4" fill="#0" id="circle0"/>
	<circle cx="13.1682" cy="92.0148" r="4" fill="#0" id="circle1"/>
	<circle cx="18.6691" cy="132.355" r="4" fill="#0" id="circle2"/>
	<circle cx="31.5046" cy="82.8466" r="4" fill="#0" id="circle3"/>
	<circle cx="37.0055" cy="134.189" r="4" fill="#0" id="circle4"/>
	<circle cx="49.841" cy="55.342" r="4" fill="#0" id="circle5"/>
	<circle cx="49.841" cy="73.6784" r="4" fill="#0" id="circle6"/>
	<circle cx="49.841" cy="148.858" r="4" fill="#0" id="circle7"/>
	<circle cx="59.0092" cy="165.36" r="4" fill="#0" id="circle8"/>
	<circle cx="59.0092" cy="330.388" r="4" fill="#0" id="circle9"/>
	<circle cx="59.0092" cy="348.725" r="4" fill="#0" id="circle10"/>
	<circle cx="59.0092" cy="367.061" r="4" fill="#0" id="circle11"/>
	<circle cx="59.0092" cy="385.397" r="4" fill="#0" id="circle12"/>
	<circle cx="64.5102" cy="40.6728" r="4" fill="#0" id="circle13"/>
	<circle cx="68.1774" cy="181.863" r="4" fill="#0" id="circle14"/>
	<circle cx="68.1774" cy="200.2" r="4" fill="#0" id="circle15"/>
	<circle cx="68.1774" cy="293.715" r="4" fill="#0" id="circle16"/>
	<circle cx="68.1774" cy="312.052" r="4" fill="#0" id="circle17"/>
	<circle cx="68.1774" cy="401.9" r="4" fill="#0" id="circle18"/>
	<circle cx="68.1774" cy="420.237" r="4" fill="#0" id="circle19"/>
	<circle cx="77.3457" cy="216.702" r="4" fill="#0" id="circle20"/>
	<circle cx="77.3457" cy="238.706" r="4" fill="#0" id="circle21"/>
	<circle cx="77.3457" cy="266.211" r="4" fill="#0" id="circle22"/>
	<circle cx="77.3457" cy="436.739" r="4" fill="#0" id="circle23"/>
	<circle cx="77.3457" cy="455.076" r="4" fill="#0" id="circle24"/>
	<circle cx="79.1793" cy="26.0037" r="4" fill="#0" id="circle25"/>
	<circle cx="88.3475" cy="469.745" r="4" fill="#0" id="circle26"/>
	<circle cx="93.8484" cy="13.1682" r="4" fill="#0" id="circle27"/>
	<circle cx="97.5157" cy="486.248" r="4" fill="#0" id="circle28"/>
	<circle cx="110.351" cy="500.917" r="4" fill="#0" id="circle29"/>
	<circle cx="112.185" cy="13.1682" r="4" fill="#0" id="circle30"/>
	<circle cx="123.187" cy="515.586" r="4" fill="#0" id="circle31"/>
	<circle cx="130.521" cy="13.1682" r="4" fill="#0" id="circle32"/>
	<circle cx="132.355" cy="532.089" r="4" fill="#0" id="circle33"/>
	<circle cx="147.024" cy="544.924" r="4" fill="#0" id="circle34"/>
	<circle cx="148.858" cy="13.1682" r="4" fill="#0" id="circle35"/>
	<circle cx="154.359" cy="563.261" r="4" fill="#0" id="circle36"/>
	<circle cx="165.36" cy="4" r="4" fill="#0" id="circle37"/>
	<circle cx="169.028" cy="574.262" r="4" fill="#0" id="circle38"/>
	<circle cx="181.863" cy="13.1682" r="4" fill="#0" id="circle39"/>
	<circle cx="185.53" cy="583.431" r="4" fill="#0" id="circle40"/>
	<circle cx="192.865" cy="601.767" r="4" fill="#0" id="circle41"/>
	<circle cx="196.532" cy="907.985" r="4" fill="#0" id="circle42"/>
	<circle cx="198.366" cy="22.3364" r="4" fill="#0" id="circle43"/>
	<circle cx="205.701" cy="889.649" r="4" fill="#0" id="circle44"/>
	<circle cx="209.368" cy="610.935" r="4" fill="#0" id="circle45"/>
	<circle cx="213.035" cy="33.3383" r="4" fill="#0" id="circle46"/>
	<circle cx="214.869" cy="913.486" r="4" fill="#0" id="circle47"/>
	<circle cx="220.37" cy="874.98" r="4" fill="#0" id="circle48"/>
	<circle cx="224.037" cy="621.937" r="4" fill="#0" id="circle49"/>
	<circle cx="225.871" cy="48.0074" r="4" fill="#0" id="circle50"/>
	<circle cx="233.205" cy="913.486" r="4" fill="#0" id="circle51"/>
	<circle cx="236.872" cy="636.606" r="4" fill="#0" id="circle52"/>
	<circle cx="238.706" cy="874.98" r="4" fill="#0" id="circle53"/>
	<circle cx="240.54" cy="60.8429" r="4" fill="#0" id="circle54"/>
	<circle cx="251.542" cy="913.486" r="4" fill="#0" id="circle55"/>
	<circle cx="253.375" cy="75.512" r="4" fill="#0" id="circle56"/>
	<circle cx="253.375" cy="860.311" r="4" fill="#0" id="circle57"/>
	<circle cx="255.209" cy="643.941" r="4" fill="#0" id="circle58"/>
	<circle cx="260.71" cy="929.989" r="4" fill="#0" id="circle59"/>
	<circle cx="262.543" cy="92.0148" r="4" fill="#0" id="circle60"/>
	<circle cx="262.543" cy="110.351" r="4" fill="#0" id="circle61"/>
	<circle cx="262.543" cy="161.693" r="4" fill="#0" id="circle62"/>
	<circle cx="269.878" cy="128.688" r="4" fill="#0" id="circle63"/>
	<circle cx="269.878" cy="656.776" r="4" fill="#0" id="circle64"/>
	<circle cx="271.712" cy="178.196" r="4" fill="#0" id="circle65"/>
	<circle cx="271.712" cy="851.142" r="4" fill="#0" id="circle66"/>
	<circle cx="279.046" cy="931.823" r="4" fill="#0" id="circle67"/>
	<circle cx="280.88" cy="194.699" r="4" fill="#0" id="circle68"/>
	<circle cx="286.381" cy="665.945" r="4" fill="#0" id="circle69"/>
	<circle cx="290.048" cy="847.475" r="4" fill="#0" id="circle70"/>
	<circle cx="295.549" cy="205.701" r="4" fill="#0" id="circle71"/>
	<circle cx="297.383" cy="931.823" r="4" fill="#0" id="circle72"/>
	<circle cx="302.884" cy="675.113" r="4" fill="#0" id="circle73"/>
	<circle cx="306.551" cy="856.643" r="4" fill="#0" id="circle74"/>
	<circle cx="312.052" cy="214.869" r="4" fill="#0" id="circle75"/>
	<circle cx="315.719" cy="931.823" r="4" fill="#0" id="circle76"/>
	<circle cx="319.386" cy="684.281" r="4" fill="#0" id="circle77"/>
	<circle cx="323.054" cy="847.475" r="4" fill="#0" id="circle78"/>
	<circle cx="328.555" cy="224.037" r="4" fill="#0" id="circle79"/>
	<circle cx="334.055" cy="926.322" r="4" fill="#0" id="circle80"/>
	<circle cx="335.889" cy="693.449" r="4" fill="#0" id="circle81"/>
	<circle cx="339.556" cy="838.307" r="4" fill="#0" id="circle82"/>
	<circle cx="346.891" cy="224.037" r="4" fill="#0" id="circle83"/>
	<circle cx="348.725" cy="819.97" r="4" fill="#0" id="circle84"/>
	<circle cx="348.725" cy="913.486" r="4" fill="#0" id="circle85"/>
	<circle cx="352.392" cy="702.617" r="4" fill="#0" id="circle86"/>
	<circle cx="352.392" cy="788.799" r="4" fill="#0" id="circle87"/>
	<circle cx="361.56" cy="719.12" r="4" fill="#0" id="circle88"/>
	<circle cx="361.56" cy="761.294" r="4" fill="#0" id="circle89"/>
	<circle cx="365.227" cy="224.037" r="4" fill="#0" id="circle90"/>
	<circle cx="367.061" cy="913.486" r="4" fill="#0" id="circle91"/>
	<circle cx="370.728" cy="735.623" r="4" fill="#0" id="circle92"/>
	<circle cx="381.73" cy="233.205" r="4" fill="#0" id="circle93"/>
	<circle cx="381.73" cy="821.804" r="4" fill="#0" id="circle94"/>
	<circle cx="381.73" cy="840.14" r="4" fill="#0" id="circle95"/>
	<circle cx="383.564" cy="904.318" r="4" fill="#0" id="circle96"/>
	<circle cx="390.898" cy="856.643" r="4" fill="#0" id="circle97"/>
	<circle cx="396.399" cy="808.969" r="4" fill="#0" id="circle98"/>
	<circle cx="400.067" cy="233.205" r="4" fill="#0" id="circle99"/>
	<circle cx="400.067" cy="895.15" r="4" fill="#0" id="circle100"/>
	<circle cx="405.567" cy="867.645" r="4" fill="#0" id="circle101"/>
	<circle cx="409.235" cy="775.963" r="4" fill="#0" id="circle102"/>
	<circle cx="412.902" cy="794.299" r="4" fill="#0" id="circle103"/>
	<circle cx="414.736" cy="884.148" r="4" fill="#0" id="circle104"/>
	<circle cx="416.569" cy="242.373" r="4" fill="#0" id="circle105"/>
	<circle cx="418.403" cy="748.458" r="4" fill="#0" id="circle106"/>
	<circle cx="427.571" cy="730.122" r="4" fill="#0" id="circle107"/>
	<circle cx="433.072" cy="251.542" r="4" fill="#0" id="circle108"/>
	<circle cx="445.908" cy="730.122" r="4" fill="#0" id="circle109"/>
	<circle cx="451.409" cy="253.375" r="4" fill="#0" id="circle110"/>
	<circle cx="464.244" cy="730.122" r="4" fill="#0" id="circle111"/>
	<circle cx="467.911" cy="262.543" r="4" fill="#0" id="circle112"/>
	<circle cx="482.58" cy="730.122" r="4" fill="#0" id="circle113"/>
	<circle cx="486.248" cy="269.878" r="4" fill="#0" id="circle114"/>
	<circle cx="500.917" cy="730.122" r="4" fill="#0" id="circle115"/>
	<circle cx="504.584" cy="269.878" r="4" fill="#0" id="circle116"/>
	<circle cx="519.253" cy="730.122" r="4" fill="#0" id="circle117"/>
	<circle cx="521.087" cy="279.046" r="4" fill="#0" id="circle118"/>
	<circle cx="537.59" cy="288.214" r="4" fill="#0" id="circle119"/>
	<circle cx="537.59" cy="730.122" r="4" fill="#0" id="circle120"/>
	<circle cx="555.926" cy="293.715" r="4" fill="#0" id="circle121"/>
	<circle cx="555.926" cy="730.122" r="4" fill="#0" id="circle122"/>
	<circle cx="572.429" cy="302.884" r="4" fill="#0" id="circle123"/>
	<circle cx="574.262" cy="730.122" r="4" fill="#0" id="circle124"/>
	<circle cx="590.765" cy="310.218" r="4" fill="#0" id="circle125"/>
	<circle cx="592.599" cy="730.122" r="4" fill="#0" id="circle126"/>
	<circle cx="601.767" cy="324.887" r="4" fill="#0" id="circle127"/>
	<circle cx="610.935" cy="730.122" r="4" fill="#0" id="circle128"/>
	<circle cx="620.104" cy="330.388" r="4" fill="#0" id="circle129"/>
	<circle cx="627.438" cy="720.954" r="4" fill="#0" id="circle130"/>
	<circle cx="632.939" cy="345.057" r="4" fill="#0" id="circle131"/>
	<circle cx="645.774" cy="720.954" r="4" fill="#0" id="circle132"/>
	<circle cx="651.275" cy="352.392" r="4" fill="#0" id="circle133"/>
	<circle cx="656.776" cy="370.728" r="4" fill="#0" id="circle134"/>
	<circle cx="662.277" cy="711.786" r="4" fill="#0" id="circle135"/>
	<circle cx="675.113" cy="376.229" r="4" fill="#0" id="circle136"/>
	<circle cx="680.614" cy="711.786" r="4" fill="#0" id="circle137"/>
	<circle cx="689.782" cy="389.065" r="4" fill="#0" id="circle138"/>
	<circle cx="698.95" cy="708.118" r="4" fill="#0" id="circle139"/>
	<circle cx="706.285" cy="398.233" r="4" fill="#0" id="circle140"/>
	<circle cx="717.287" cy="702.617" r="4" fill="#0" id="circle141"/>
	<circle cx="719.12" cy="412.902" r="4" fill="#0" id="circle142"/>
	<circle cx="733.789" cy="425.738" r="4" fill="#0" id="circle143"/>
	<circle cx="735.623" cy="702.617" r="4" fill="#0" id="circle144"/>
	<circle cx="739.29" cy="444.074" r="4" fill="#0" id="circle145"/>
	<circle cx="752.126" cy="693.449" r="4" fill="#0" id="circle146"/>
	<circle cx="753.959" cy="455.076" r="4" fill="#0" id="circle147"/>
	<circle cx="761.294" cy="473.412" r="4" fill="#0" id="circle148"/>
	<circle cx="770.462" cy="693.449" r="4" fill="#0" id="circle149"/>
	<circle cx="775.963" cy="486.248" r="4" fill="#0" id="circle150"/>
	<circle cx="785.131" cy="706.285" r="4" fill="#0" id="circle151"/>
	<circle cx="788.799" cy="500.917" r="4" fill="#0" id="circle152"/>
	<circle cx="797.967" cy="517.42" r="4" fill="#0" id="circle153"/>
	<circle cx="797.967" cy="720.954" r="4" fill="#0" id="circle154"/>
	<circle cx="807.135" cy="737.457" r="4" fill="#0" id="circle155"/>
	<circle cx="814.47" cy="526.588" r="4" fill="#0" id="circle156"/>
	<circle cx="819.97" cy="752.126" r="4" fill="#0" id="circle157"/>
	<circle cx="821.804" cy="544.924" r="4" fill="#0" id="circle158"/>
	<circle cx="829.139" cy="768.628" r="4" fill="#0" id="circle159"/>
	<circle cx="836.473" cy="555.926" r="4" fill="#0" id="circle160"/>
	<circle cx="841.974" cy="783.298" r="4" fill="#0" id="circle161"/>
	<circle cx="849.309" cy="570.595" r="4" fill="#0" id="circle162"/>
	<circle cx="856.643" cy="794.299" r="4" fill="#0" id="circle163"/>
	<circle cx="863.978" cy="583.431" r="4" fill="#0" id="circle164"/>
	<circle cx="874.98" cy="794.299" r="4" fill="#0" id="circle165"/>
	<circle cx="880.481" cy="592.599" r="4" fill="#0" id="circle166"/>
	<circle cx="891.482" cy="803.468" r="4" fill="#0" id="circle167"/>
	<circle cx="895.15" cy="605.434" r="4" fill="#0" id="circle168"/>
	<circle cx="909.819" cy="618.27" r="4" fill="#0" id="circle169"/>
	<circle cx="909.819" cy="803.468" r="4" fill="#0" id="circle170"/>
	<circle cx="926.322" cy="627.438" r="4" fill="#0" id="circle171"/>
	<circle cx="926.322" cy="812.636" r="4" fill="#0" id="circle172"/>
	<circle cx="939.157" cy="642.107" r="4" fill="#0" id="circle173"/>
	<circle cx="944.658" cy="819.97" r="4" fill="#0" id="circle174"/>
	<circle cx="953.826" cy="654.943" r="4" fill="#0" id="circle175"/>
	<circle cx="962.994" cy="819.97" r="4" fill="#0" id="circle176"/>
	<circle cx="966.662" cy="669.612" r="4" fill="#0" id="circle177"/>
	<circle cx="977.664" cy="684.281" r="4" fill="#0" id="circle178"/>
	<circle cx="981.331" cy="810.802" r="4" fill="#0" id="circle179"/>
	<circle cx="992.333" cy="695.283" r="4" fill="#0" id="circle180"/>
	<circle cx="996" cy="713.619" r="4" fill="#0" id="circle181"/>
	<circle cx="996" cy="731.956" r="4" fill="#0" id="circle182"/>
	<circle cx="996" cy="757.627" r="4" fill="#0" id="circle183"/>
	<circle cx="996" cy="775.963" r="4" fill="#0" id="circle184"/>
	<circle cx="996" cy="794.299" r="4" fill="#0" id="circle185"/>
	</g>
</svg>