<?xml version="1.0" encoding="UTF-8" standalone="no"?>
<!-- Created with CurveBenchmark -->
<svg
	xmlns:dc="http://purl.org/dc/elements/1.1/"
	xmlns:cc="http://creativecommons.org/ns#"
	xmlns:rdf="http://www.w3.org/1999/02/22-rdf-syntax-ns#"
	xmlns:svg="http://www.w3.org/2000/svg"
	xmlns="http://www.w3.org/2000/svg"
	xmlns:sodipodi="http://sodipodi.sourceforge.net/DTD/sodipodi-0.dtd"
	xmlns:inkscape="http://www.inkscape.org/namespaces/inkscape"
	width="1000"
	height="1000"
	id="svg2"
	version="1.1"
	sodipodi:docname="manifold/gathang-hammer330.png.txt">
<defs
	id="defs4" />
<metadata
	id="metadata7">
	<rdf:RDF>
		<cc:Work
			rdf:about="">
			<dc:format>image/svg+xml</dc:format>
			<dc:type
				rdf:resource="http://purl.org/dc/dcmitype/StillImage" />
			<dc:title></dc:title>
		</cc:Work>
	</rdf:RDF>
</metadata>
<g
	inkscape:label="Layer 1"
	inkscape:groupmode="layer"
	id="layer1">
	<path style="fill:none;stroke:red;stroke-width:1px;stroke-linecap:butt;stroke-linejoin:miter;stroke-opacity:1" d="M 29.8783,98.887 44.2551,73.0087 z" id="boundary" inkscape:connector-curvature="0" />
	<path style="fill:none;stroke:red;stroke-width:1px;stroke-linecap:butt;stroke-linejoin:miter;stroke-opacity:1" d="M 67.258,50.0058 90.2609,27.0029 z" id="boundary" inkscape:connector-curvature="0" />
	<path style="fill:none;stroke:red;stroke-width:1px;stroke-linecap:butt;stroke-linejoin:miter;stroke-opacity:1" d="M 90.2609,27.0029 113.264,9.75072 z" id="boundary" inkscape:connector-curvature="0" />
	<path style="fill:none;stroke:red;stroke-width:1px;stroke-linecap:butt;stroke-linejoin:miter;stroke-opacity:1" d="M 44.2551,73.0087 67.258,50.0058 z" id="boundary" inkscape:connector-curvature="0" />
	<path style="fill:none;stroke:red;stroke-width:1px;stroke-linecap:butt;stroke-linejoin:miter;stroke-opacity:1" d="M 110.388,101.762 87.3855,119.014 z" id="boundary" inkscape:connector-curvature="0" />
	<path style="fill:none;stroke:red;stroke-width:1px;stroke-linecap:butt;stroke-linejoin:miter;stroke-opacity:1" d="M 4,159.27 15.5014,124.765 z" id="boundary" inkscape:connector-curvature="0" />
	<path style="fill:none;stroke:red;stroke-width:1px;stroke-linecap:butt;stroke-linejoin:miter;stroke-opacity:1" d="M 27.0029,179.397 4,159.27 z" id="boundary" inkscape:connector-curvature="0" />
	<path style="fill:none;stroke:red;stroke-width:1px;stroke-linecap:butt;stroke-linejoin:miter;stroke-opacity:1" d="M 70.1333,147.768 87.3855,119.014 z" id="boundary" inkscape:connector-curvature="0" />
	<path style="fill:none;stroke:red;stroke-width:1px;stroke-linecap:butt;stroke-linejoin:miter;stroke-opacity:1" d="M 70.1333,147.768 55.7565,179.397 z" id="boundary" inkscape:connector-curvature="0" />
	<path style="fill:none;stroke:red;stroke-width:1px;stroke-linecap:butt;stroke-linejoin:miter;stroke-opacity:1" d="M 55.7565,179.397 27.0029,179.397 z" id="boundary" inkscape:connector-curvature="0" />
	<path style="fill:none;stroke:red;stroke-width:1px;stroke-linecap:butt;stroke-linejoin:miter;stroke-opacity:1" d="M 15.5014,124.765 29.8783,98.887 z" id="boundary" inkscape:connector-curvature="0" />
	<path style="fill:none;stroke:red;stroke-width:1px;stroke-linecap:butt;stroke-linejoin:miter;stroke-opacity:1" d="M 110.388,101.762 130.516,124.765 z" id="boundary" inkscape:connector-curvature="0" />
	<path style="fill:none;stroke:red;stroke-width:1px;stroke-linecap:butt;stroke-linejoin:miter;stroke-opacity:1" d="M 130.516,124.765 136.267,153.519 z" id="boundary" inkscape:connector-curvature="0" />
	<path style="fill:none;stroke:red;stroke-width:1px;stroke-linecap:butt;stroke-linejoin:miter;stroke-opacity:1" d="M 142.017,4 170.771,4 z" id="boundary" inkscape:connector-curvature="0" />
	<path style="fill:none;stroke:red;stroke-width:1px;stroke-linecap:butt;stroke-linejoin:miter;stroke-opacity:1" d="M 147.768,182.272 136.267,153.519 z" id="boundary" inkscape:connector-curvature="0" />
	<path style="fill:none;stroke:red;stroke-width:1px;stroke-linecap:butt;stroke-linejoin:miter;stroke-opacity:1" d="M 153.519,211.026 159.27,239.78 z" id="boundary" inkscape:connector-curvature="0" />
	<path style="fill:none;stroke:red;stroke-width:1px;stroke-linecap:butt;stroke-linejoin:miter;stroke-opacity:1" d="M 153.519,211.026 147.768,182.272 z" id="boundary" inkscape:connector-curvature="0" />
	<path style="fill:none;stroke:red;stroke-width:1px;stroke-linecap:butt;stroke-linejoin:miter;stroke-opacity:1" d="M 159.27,239.78 159.27,268.533 z" id="boundary" inkscape:connector-curvature="0" />
	<path style="fill:none;stroke:red;stroke-width:1px;stroke-linecap:butt;stroke-linejoin:miter;stroke-opacity:1" d="M 159.27,268.533 159.27,297.287 z" id="boundary" inkscape:connector-curvature="0" />
	<path style="fill:none;stroke:red;stroke-width:1px;stroke-linecap:butt;stroke-linejoin:miter;stroke-opacity:1" d="M 159.27,326.041 159.27,297.287 z" id="boundary" inkscape:connector-curvature="0" />
	<path style="fill:none;stroke:red;stroke-width:1px;stroke-linecap:butt;stroke-linejoin:miter;stroke-opacity:1" d="M 159.27,354.794 159.27,326.041 z" id="boundary" inkscape:connector-curvature="0" />
	<path style="fill:none;stroke:red;stroke-width:1px;stroke-linecap:butt;stroke-linejoin:miter;stroke-opacity:1" d="M 113.264,9.75072 142.017,4 z" id="boundary" inkscape:connector-curvature="0" />
	<path style="fill:none;stroke:red;stroke-width:1px;stroke-linecap:butt;stroke-linejoin:miter;stroke-opacity:1" d="M 130.516,544.568 130.516,573.322 z" id="boundary" inkscape:connector-curvature="0" />
	<path style="fill:none;stroke:red;stroke-width:1px;stroke-linecap:butt;stroke-linejoin:miter;stroke-opacity:1" d="M 130.516,544.568 130.516,515.814 z" id="boundary" inkscape:connector-curvature="0" />
	<path style="fill:none;stroke:red;stroke-width:1px;stroke-linecap:butt;stroke-linejoin:miter;stroke-opacity:1" d="M 130.516,602.075 130.516,630.829 z" id="boundary" inkscape:connector-curvature="0" />
	<path style="fill:none;stroke:red;stroke-width:1px;stroke-linecap:butt;stroke-linejoin:miter;stroke-opacity:1" d="M 130.516,602.075 130.516,573.322 z" id="boundary" inkscape:connector-curvature="0" />
	<path style="fill:none;stroke:red;stroke-width:1px;stroke-linecap:butt;stroke-linejoin:miter;stroke-opacity:1" d="M 130.516,630.829 130.516,659.583 z" id="boundary" inkscape:connector-curvature="0" />
	<path style="fill:none;stroke:red;stroke-width:1px;stroke-linecap:butt;stroke-linejoin:miter;stroke-opacity:1" d="M 124.765,941.368 119.014,987.374 z" id="boundary" inkscape:connector-curvature="0" />
	<path style="fill:none;stroke:red;stroke-width:1px;stroke-linecap:butt;stroke-linejoin:miter;stroke-opacity:1" d="M 130.516,659.583 130.516,688.336 z" id="boundary" inkscape:connector-curvature="0" />
	<path style="fill:none;stroke:red;stroke-width:1px;stroke-linecap:butt;stroke-linejoin:miter;stroke-opacity:1" d="M 130.516,688.336 130.516,717.09 z" id="boundary" inkscape:connector-curvature="0" />
	<path style="fill:none;stroke:red;stroke-width:1px;stroke-linecap:butt;stroke-linejoin:miter;stroke-opacity:1" d="M 147.768,996 119.014,987.374 z" id="boundary" inkscape:connector-curvature="0" />
	<path style="fill:none;stroke:red;stroke-width:1px;stroke-linecap:butt;stroke-linejoin:miter;stroke-opacity:1" d="M 130.516,717.09 130.516,745.843 z" id="boundary" inkscape:connector-curvature="0" />
	<path style="fill:none;stroke:red;stroke-width:1px;stroke-linecap:butt;stroke-linejoin:miter;stroke-opacity:1" d="M 130.516,745.843 130.516,774.597 z" id="boundary" inkscape:connector-curvature="0" />
	<path style="fill:none;stroke:red;stroke-width:1px;stroke-linecap:butt;stroke-linejoin:miter;stroke-opacity:1" d="M 130.516,774.597 130.516,803.351 z" id="boundary" inkscape:connector-curvature="0" />
	<path style="fill:none;stroke:red;stroke-width:1px;stroke-linecap:butt;stroke-linejoin:miter;stroke-opacity:1" d="M 136.267,469.809 150.643,443.93 z" id="boundary" inkscape:connector-curvature="0" />
	<path style="fill:none;stroke:red;stroke-width:1px;stroke-linecap:butt;stroke-linejoin:miter;stroke-opacity:1" d="M 159.27,383.548 159.27,354.794 z" id="boundary" inkscape:connector-curvature="0" />
	<path style="fill:none;stroke:red;stroke-width:1px;stroke-linecap:butt;stroke-linejoin:miter;stroke-opacity:1" d="M 159.27,412.301 159.27,383.548 z" id="boundary" inkscape:connector-curvature="0" />
	<path style="fill:none;stroke:red;stroke-width:1px;stroke-linecap:butt;stroke-linejoin:miter;stroke-opacity:1" d="M 159.27,412.301 150.643,443.93 z" id="boundary" inkscape:connector-curvature="0" />
	<path style="fill:none;stroke:red;stroke-width:1px;stroke-linecap:butt;stroke-linejoin:miter;stroke-opacity:1" d="M 130.516,832.104 130.516,803.351 z" id="boundary" inkscape:connector-curvature="0" />
	<path style="fill:none;stroke:red;stroke-width:1px;stroke-linecap:butt;stroke-linejoin:miter;stroke-opacity:1" d="M 130.516,860.858 130.516,832.104 z" id="boundary" inkscape:connector-curvature="0" />
	<path style="fill:none;stroke:red;stroke-width:1px;stroke-linecap:butt;stroke-linejoin:miter;stroke-opacity:1" d="M 124.765,941.368 130.516,889.612 z" id="boundary" inkscape:connector-curvature="0" />
	<path style="fill:none;stroke:red;stroke-width:1px;stroke-linecap:butt;stroke-linejoin:miter;stroke-opacity:1" d="M 130.516,889.612 130.516,860.858 z" id="boundary" inkscape:connector-curvature="0" />
	<path style="fill:none;stroke:red;stroke-width:1px;stroke-linecap:butt;stroke-linejoin:miter;stroke-opacity:1" d="M 176.522,996 147.768,996 z" id="boundary" inkscape:connector-curvature="0" />
	<path style="fill:none;stroke:red;stroke-width:1px;stroke-linecap:butt;stroke-linejoin:miter;stroke-opacity:1" d="M 130.516,515.814 136.267,469.809 z" id="boundary" inkscape:connector-curvature="0" />
	<path style="fill:none;stroke:red;stroke-width:1px;stroke-linecap:butt;stroke-linejoin:miter;stroke-opacity:1" d="M 170.771,4 199.525,4 z" id="boundary" inkscape:connector-curvature="0" />
	<path style="fill:none;stroke:red;stroke-width:1px;stroke-linecap:butt;stroke-linejoin:miter;stroke-opacity:1" d="M 265.658,124.765 254.157,159.27 z" id="boundary" inkscape:connector-curvature="0" />
	<path style="fill:none;stroke:red;stroke-width:1px;stroke-linecap:butt;stroke-linejoin:miter;stroke-opacity:1" d="M 242.655,234.029 242.655,205.275 z" id="boundary" inkscape:connector-curvature="0" />
	<path style="fill:none;stroke:red;stroke-width:1px;stroke-linecap:butt;stroke-linejoin:miter;stroke-opacity:1" d="M 254.157,159.27 242.655,205.275 z" id="boundary" inkscape:connector-curvature="0" />
	<path style="fill:none;stroke:red;stroke-width:1px;stroke-linecap:butt;stroke-linejoin:miter;stroke-opacity:1" d="M 199.525,4 228.278,4 z" id="boundary" inkscape:connector-curvature="0" />
	<path style="fill:none;stroke:red;stroke-width:1px;stroke-linecap:butt;stroke-linejoin:miter;stroke-opacity:1" d="M 242.655,234.029 236.904,262.783 z" id="boundary" inkscape:connector-curvature="0" />
	<path style="fill:none;stroke:red;stroke-width:1px;stroke-linecap:butt;stroke-linejoin:miter;stroke-opacity:1" d="M 236.904,262.783 236.904,291.536 z" id="boundary" inkscape:connector-curvature="0" />
	<path style="fill:none;stroke:red;stroke-width:1px;stroke-linecap:butt;stroke-linejoin:miter;stroke-opacity:1" d="M 236.904,320.29 236.904,291.536 z" id="boundary" inkscape:connector-curvature="0" />
	<path style="fill:none;stroke:red;stroke-width:1px;stroke-linecap:butt;stroke-linejoin:miter;stroke-opacity:1" d="M 236.904,349.043 236.904,377.797 z" id="boundary" inkscape:connector-curvature="0" />
	<path style="fill:none;stroke:red;stroke-width:1px;stroke-linecap:butt;stroke-linejoin:miter;stroke-opacity:1" d="M 242.655,435.304 236.904,406.551 z" id="boundary" inkscape:connector-curvature="0" />
	<path style="fill:none;stroke:red;stroke-width:1px;stroke-linecap:butt;stroke-linejoin:miter;stroke-opacity:1" d="M 236.904,406.551 236.904,377.797 z" id="boundary" inkscape:connector-curvature="0" />
	<path style="fill:none;stroke:red;stroke-width:1px;stroke-linecap:butt;stroke-linejoin:miter;stroke-opacity:1" d="M 236.904,349.043 236.904,320.29 z" id="boundary" inkscape:connector-curvature="0" />
	<path style="fill:none;stroke:red;stroke-width:1px;stroke-linecap:butt;stroke-linejoin:miter;stroke-opacity:1" d="M 257.032,4 285.786,15.5014 z" id="boundary" inkscape:connector-curvature="0" />
	<path style="fill:none;stroke:red;stroke-width:1px;stroke-linecap:butt;stroke-linejoin:miter;stroke-opacity:1" d="M 314.539,9.75072 285.786,15.5014 z" id="boundary" inkscape:connector-curvature="0" />
	<path style="fill:none;stroke:red;stroke-width:1px;stroke-linecap:butt;stroke-linejoin:miter;stroke-opacity:1" d="M 314.539,9.75072 343.293,4 z" id="boundary" inkscape:connector-curvature="0" />
	<path style="fill:none;stroke:red;stroke-width:1px;stroke-linecap:butt;stroke-linejoin:miter;stroke-opacity:1" d="M 343.293,4 369.171,18.3768 z" id="boundary" inkscape:connector-curvature="0" />
	<path style="fill:none;stroke:red;stroke-width:1px;stroke-linecap:butt;stroke-linejoin:miter;stroke-opacity:1" d="M 369.171,18.3768 374.922,67.258 z" id="boundary" inkscape:connector-curvature="0" />
	<path style="fill:none;stroke:red;stroke-width:1px;stroke-linecap:butt;stroke-linejoin:miter;stroke-opacity:1" d="M 265.658,124.765 271.409,78.7594 z" id="boundary" inkscape:connector-curvature="0" />
	<path style="fill:none;stroke:red;stroke-width:1px;stroke-linecap:butt;stroke-linejoin:miter;stroke-opacity:1" d="M 300.162,75.8841 326.041,90.2609 z" id="boundary" inkscape:connector-curvature="0" />
	<path style="fill:none;stroke:red;stroke-width:1px;stroke-linecap:butt;stroke-linejoin:miter;stroke-opacity:1" d="M 374.922,67.258 354.794,93.1362 z" id="boundary" inkscape:connector-curvature="0" />
	<path style="fill:none;stroke:red;stroke-width:1px;stroke-linecap:butt;stroke-linejoin:miter;stroke-opacity:1" d="M 354.794,93.1362 326.041,90.2609 z" id="boundary" inkscape:connector-curvature="0" />
	<path style="fill:none;stroke:red;stroke-width:1px;stroke-linecap:butt;stroke-linejoin:miter;stroke-opacity:1" d="M 228.278,4 257.032,4 z" id="boundary" inkscape:connector-curvature="0" />
	<path style="fill:none;stroke:red;stroke-width:1px;stroke-linecap:butt;stroke-linejoin:miter;stroke-opacity:1" d="M 254.157,464.058 265.658,492.812 z" id="boundary" inkscape:connector-curvature="0" />
	<path style="fill:none;stroke:red;stroke-width:1px;stroke-linecap:butt;stroke-linejoin:miter;stroke-opacity:1" d="M 254.157,464.058 242.655,435.304 z" id="boundary" inkscape:connector-curvature="0" />
	<path style="fill:none;stroke:red;stroke-width:1px;stroke-linecap:butt;stroke-linejoin:miter;stroke-opacity:1" d="M 265.658,492.812 265.658,521.565 z" id="boundary" inkscape:connector-curvature="0" />
	<path style="fill:none;stroke:red;stroke-width:1px;stroke-linecap:butt;stroke-linejoin:miter;stroke-opacity:1" d="M 265.658,550.319 265.658,521.565 z" id="boundary" inkscape:connector-curvature="0" />
	<path style="fill:none;stroke:red;stroke-width:1px;stroke-linecap:butt;stroke-linejoin:miter;stroke-opacity:1" d="M 265.658,550.319 265.658,579.072 z" id="boundary" inkscape:connector-curvature="0" />
	<path style="fill:none;stroke:red;stroke-width:1px;stroke-linecap:butt;stroke-linejoin:miter;stroke-opacity:1" d="M 205.275,996 176.522,996 z" id="boundary" inkscape:connector-curvature="0" />
	<path style="fill:none;stroke:red;stroke-width:1px;stroke-linecap:butt;stroke-linejoin:miter;stroke-opacity:1" d="M 234.029,996 205.275,996 z" id="boundary" inkscape:connector-curvature="0" />
	<path style="fill:none;stroke:red;stroke-width:1px;stroke-linecap:butt;stroke-linejoin:miter;stroke-opacity:1" d="M 262.783,996 234.029,996 z" id="boundary" inkscape:connector-curvature="0" />
	<path style="fill:none;stroke:red;stroke-width:1px;stroke-linecap:butt;stroke-linejoin:miter;stroke-opacity:1" d="M 271.409,952.87 262.783,996 z" id="boundary" inkscape:connector-curvature="0" />
	<path style="fill:none;stroke:red;stroke-width:1px;stroke-linecap:butt;stroke-linejoin:miter;stroke-opacity:1" d="M 265.658,636.58 265.658,665.333 z" id="boundary" inkscape:connector-curvature="0" />
	<path style="fill:none;stroke:red;stroke-width:1px;stroke-linecap:butt;stroke-linejoin:miter;stroke-opacity:1" d="M 265.658,607.826 265.658,579.072 z" id="boundary" inkscape:connector-curvature="0" />
	<path style="fill:none;stroke:red;stroke-width:1px;stroke-linecap:butt;stroke-linejoin:miter;stroke-opacity:1" d="M 265.658,607.826 265.658,636.58 z" id="boundary" inkscape:connector-curvature="0" />
	<path style="fill:none;stroke:red;stroke-width:1px;stroke-linecap:butt;stroke-linejoin:miter;stroke-opacity:1" d="M 265.658,665.333 265.658,694.087 z" id="boundary" inkscape:connector-curvature="0" />
	<path style="fill:none;stroke:red;stroke-width:1px;stroke-linecap:butt;stroke-linejoin:miter;stroke-opacity:1" d="M 265.658,694.087 265.658,722.841 z" id="boundary" inkscape:connector-curvature="0" />
	<path style="fill:none;stroke:red;stroke-width:1px;stroke-linecap:butt;stroke-linejoin:miter;stroke-opacity:1" d="M 265.658,751.594 265.658,780.348 z" id="boundary" inkscape:connector-curvature="0" />
	<path style="fill:none;stroke:red;stroke-width:1px;stroke-linecap:butt;stroke-linejoin:miter;stroke-opacity:1" d="M 265.658,751.594 265.658,722.841 z" id="boundary" inkscape:connector-curvature="0" />
	<path style="fill:none;stroke:red;stroke-width:1px;stroke-linecap:butt;stroke-linejoin:miter;stroke-opacity:1" d="M 265.658,780.348 265.658,809.101 z" id="boundary" inkscape:connector-curvature="0" />
	<path style="fill:none;stroke:red;stroke-width:1px;stroke-linecap:butt;stroke-linejoin:miter;stroke-opacity:1" d="M 265.658,837.855 265.658,866.609 z" id="boundary" inkscape:connector-curvature="0" />
	<path style="fill:none;stroke:red;stroke-width:1px;stroke-linecap:butt;stroke-linejoin:miter;stroke-opacity:1" d="M 265.658,837.855 265.658,809.101 z" id="boundary" inkscape:connector-curvature="0" />
	<path style="fill:none;stroke:red;stroke-width:1px;stroke-linecap:butt;stroke-linejoin:miter;stroke-opacity:1" d="M 271.409,895.362 265.658,866.609 z" id="boundary" inkscape:connector-curvature="0" />
	<path style="fill:none;stroke:red;stroke-width:1px;stroke-linecap:butt;stroke-linejoin:miter;stroke-opacity:1" d="M 271.409,924.116 271.409,895.362 z" id="boundary" inkscape:connector-curvature="0" />
	<path style="fill:none;stroke:red;stroke-width:1px;stroke-linecap:butt;stroke-linejoin:miter;stroke-opacity:1" d="M 271.409,952.87 271.409,924.116 z" id="boundary" inkscape:connector-curvature="0" />
	<circle cx="4" cy="159.27" r="4" fill="#0" id="circle0"/>
	<circle cx="15.5014" cy="124.765" r="4" fill="#0" id="circle1"/>
	<circle cx="27.0029" cy="179.397" r="4" fill="#0" id="circle2"/>
	<circle cx="29.8783" cy="98.887" r="4" fill="#0" id="circle3"/>
	<circle cx="44.2551" cy="73.0087" r="4" fill="#0" id="circle4"/>
	<circle cx="55.7565" cy="179.397" r="4" fill="#0" id="circle5"/>
	<circle cx="67.258" cy="50.0058" r="4" fill="#0" id="circle6"/>
	<circle cx="70.1333" cy="147.768" r="4" fill="#0" id="circle7"/>
	<circle cx="87.3855" cy="119.014" r="4" fill="#0" id="circle8"/>
	<circle cx="90.2609" cy="27.0029" r="4" fill="#0" id="circle9"/>
	<circle cx="110.388" cy="101.762" r="4" fill="#0" id="circle10"/>
	<circle cx="113.264" cy="9.75072" r="4" fill="#0" id="circle11"/>
	<circle cx="119.014" cy="987.374" r="4" fill="#0" id="circle12"/>
	<circle cx="124.765" cy="941.368" r="4" fill="#0" id="circle13"/>
	<circle cx="130.516" cy="124.765" r="4" fill="#0" id="circle14"/>
	<circle cx="130.516" cy="515.814" r="4" fill="#0" id="circle15"/>
	<circle cx="130.516" cy="544.568" r="4" fill="#0" id="circle16"/>
	<circle cx="130.516" cy="573.322" r="4" fill="#0" id="circle17"/>
	<circle cx="130.516" cy="602.075" r="4" fill="#0" id="circle18"/>
	<circle cx="130.516" cy="630.829" r="4" fill="#0" id="circle19"/>
	<circle cx="130.516" cy="659.583" r="4" fill="#0" id="circle20"/>
	<circle cx="130.516" cy="688.336" r="4" fill="#0" id="circle21"/>
	<circle cx="130.516" cy="717.09" r="4" fill="#0" id="circle22"/>
	<circle cx="130.516" cy="745.843" r="4" fill="#0" id="circle23"/>
	<circle cx="130.516" cy="774.597" r="4" fill="#0" id="circle24"/>
	<circle cx="130.516" cy="803.351" r="4" fill="#0" id="circle25"/>
	<circle cx="130.516" cy="832.104" r="4" fill="#0" id="circle26"/>
	<circle cx="130.516" cy="860.858" r="4" fill="#0" id="circle27"/>
	<circle cx="130.516" cy="889.612" r="4" fill="#0" id="circle28"/>
	<circle cx="136.267" cy="153.519" r="4" fill="#0" id="circle29"/>
	<circle cx="136.267" cy="469.809" r="4" fill="#0" id="circle30"/>
	<circle cx="142.017" cy="4" r="4" fill="#0" id="circle31"/>
	<circle cx="147.768" cy="182.272" r="4" fill="#0" id="circle32"/>
	<circle cx="147.768" cy="996" r="4" fill="#0" id="circle33"/>
	<circle cx="150.643" cy="443.93" r="4" fill="#0" id="circle34"/>
	<circle cx="153.519" cy="211.026" r="4" fill="#0" id="circle35"/>
	<circle cx="159.27" cy="239.78" r="4" fill="#0" id="circle36"/>
	<circle cx="159.27" cy="268.533" r="4" fill="#0" id="circle37"/>
	<circle cx="159.27" cy="297.287" r="4" fill="#0" id="circle38"/>
	<circle cx="159.27" cy="326.041" r="4" fill="#0" id="circle39"/>
	<circle cx="159.27" cy="354.794" r="4" fill="#0" id="circle40"/>
	<circle cx="159.27" cy="383.548" r="4" fill="#0" id="circle41"/>
	<circle cx="159.27" cy="412.301" r="4" fill="#0" id="circle42"/>
	<circle cx="170.771" cy="4" r="4" fill="#0" id="circle43"/>
	<circle cx="176.522" cy="996" r="4" fill="#0" id="circle44"/>
	<circle cx="199.525" cy="4" r="4" fill="#0" id="circle45"/>
	<circle cx="205.275" cy="996" r="4" fill="#0" id="circle46"/>
	<circle cx="228.278" cy="4" r="4" fill="#0" id="circle47"/>
	<circle cx="234.029" cy="996" r="4" fill="#0" id="circle48"/>
	<circle cx="236.904" cy="262.783" r="4" fill="#0" id="circle49"/>
	<circle cx="236.904" cy="291.536" r="4" fill="#0" id="circle50"/>
	<circle cx="236.904" cy="320.29" r="4" fill="#0" id="circle51"/>
	<circle cx="236.904" cy="349.043" r="4" fill="#0" id="circle52"/>
	<circle cx="236.904" cy="377.797" r="4" fill="#0" id="circle53"/>
	<circle cx="236.904" cy="406.551" r="4" fill="#0" id="circle54"/>
	<circle cx="242.655" cy="205.275" r="4" fill="#0" id="circle55"/>
	<circle cx="242.655" cy="234.029" r="4" fill="#0" id="circle56"/>
	<circle cx="242.655" cy="435.304" r="4" fill="#0" id="circle57"/>
	<circle cx="254.157" cy="159.27" r="4" fill="#0" id="circle58"/>
	<circle cx="254.157" cy="464.058" r="4" fill="#0" id="circle59"/>
	<circle cx="257.032" cy="4" r="4" fill="#0" id="circle60"/>
	<circle cx="262.783" cy="996" r="4" fill="#0" id="circle61"/>
	<circle cx="265.658" cy="124.765" r="4" fill="#0" id="circle62"/>
	<circle cx="265.658" cy="492.812" r="4" fill="#0" id="circle63"/>
	<circle cx="265.658" cy="521.565" r="4" fill="#0" id="circle64"/>
	<circle cx="265.658" cy="550.319" r="4" fill="#0" id="circle65"/>
	<circle cx="265.658" cy="579.072" r="4" fill="#0" id="circle66"/>
	<circle cx="265.658" cy="607.826" r="4" fill="#0" id="circle67"/>
	<circle cx="265.658" cy="636.58" r="4" fill="#0" id="circle68"/>
	<circle cx="265.658" cy="665.333" r="4" fill="#0" id="circle69"/>
	<circle cx="265.658" cy="694.087" r="4" fill="#0" id="circle70"/>
	<circle cx="265.658" cy="722.841" r="4" fill="#0" id="circle71"/>
	<circle cx="265.658" cy="751.594" r="4" fill="#0" id="circle72"/>
	<circle cx="265.658" cy="780.348" r="4" fill="#0" id="circle73"/>
	<circle cx="265.658" cy="809.101" r="4" fill="#0" id="circle74"/>
	<circle cx="265.658" cy="837.855" r="4" fill="#0" id="circle75"/>
	<circle cx="265.658" cy="866.609" r="4" fill="#0" id="circle76"/>
	<circle cx="271.409" cy="78.7594" r="4" fill="#0" id="circle77"/>
	<circle cx="271.409" cy="895.362" r="4" fill="#0" id="circle78"/>
	<circle cx="271.409" cy="924.116" r="4" fill="#0" id="circle79"/>
	<circle cx="271.409" cy="952.87" r="4" fill="#0" id="circle80"/>
	<circle cx="285.786" cy="15.5014" r="4" fill="#0" id="circle81"/>
	<circle cx="300.162" cy="75.8841" r="4" fill="#0" id="circle82"/>
	<circle cx="314.539" cy="9.75072" r="4" fill="#0" id="circle83"/>
	<circle cx="326.041" cy="90.2609" r="4" fill="#0" id="circle84"/>
	<circle cx="343.293" cy="4" r="4" fill="#0" id="circle85"/>
	<circle cx="354.794" cy="93.1362" r="4" fill="#0" id="circle86"/>
	<circle cx="369.171" cy="18.3768" r="4" fill="#0" id="circle87"/>
	<circle cx="374.922" cy="67.258" r="4" fill="#0" id="circle88"/>
	</g>
</svg>