<?xml version="1.0" encoding="UTF-8" standalone="no"?>
<!-- Created with CurveBenchmark -->
<svg
	xmlns:dc="http://purl.org/dc/elements/1.1/"
	xmlns:cc="http://creativecommons.org/ns#"
	xmlns:rdf="http://www.w3.org/1999/02/22-rdf-syntax-ns#"
	xmlns:svg="http://www.w3.org/2000/svg"
	xmlns="http://www.w3.org/2000/svg"
	xmlns:sodipodi="http://sodipodi.sourceforge.net/DTD/sodipodi-0.dtd"
	xmlns:inkscape="http://www.inkscape.org/namespaces/inkscape"
	width="1000"
	height="1000"
	id="svg2"
	version="1.1"
	sodipodi:docname="manifold/gathan1-stef-15.png.txt">
<defs
	id="defs4" />
<metadata
	id="metadata7">
	<rdf:RDF>
		<cc:Work
			rdf:about="">
			<dc:format>image/svg+xml</dc:format>
			<dc:type
				rdf:resource="http://purl.org/dc/dcmitype/StillImage" />
			<dc:title></dc:title>
		</cc:Work>
	</rdf:RDF>
</metadata>
<g
	inkscape:label="Layer 1"
	inkscape:groupmode="layer"
	id="layer1">
	<path style="fill:none;stroke:red;stroke-width:1px;stroke-linecap:butt;stroke-linejoin:miter;stroke-opacity:1" d="M 63.6052,25.2876 82.7639,14.6438 z" id="boundary" inkscape:connector-curvature="0" />
	<path style="fill:none;stroke:red;stroke-width:1px;stroke-linecap:butt;stroke-linejoin:miter;stroke-opacity:1" d="M 52.9614,46.5751 63.6052,25.2876 z" id="boundary" inkscape:connector-curvature="0" />
	<path style="fill:none;stroke:red;stroke-width:1px;stroke-linecap:butt;stroke-linejoin:miter;stroke-opacity:1" d="M 52.9614,46.5751 42.3176,67.8627 z" id="boundary" inkscape:connector-curvature="0" />
	<path style="fill:none;stroke:red;stroke-width:1px;stroke-linecap:butt;stroke-linejoin:miter;stroke-opacity:1" d="M 42.3176,67.8627 25.2876,84.8927 z" id="boundary" inkscape:connector-curvature="0" />
	<path style="fill:none;stroke:red;stroke-width:1px;stroke-linecap:butt;stroke-linejoin:miter;stroke-opacity:1" d="M 123.21,10.3863 101.923,4 z" id="boundary" inkscape:connector-curvature="0" />
	<path style="fill:none;stroke:red;stroke-width:1px;stroke-linecap:butt;stroke-linejoin:miter;stroke-opacity:1" d="M 144.498,14.6438 123.21,10.3863 z" id="boundary" inkscape:connector-curvature="0" />
	<path style="fill:none;stroke:red;stroke-width:1px;stroke-linecap:butt;stroke-linejoin:miter;stroke-opacity:1" d="M 163.657,25.2876 144.498,14.6438 z" id="boundary" inkscape:connector-curvature="0" />
	<path style="fill:none;stroke:red;stroke-width:1px;stroke-linecap:butt;stroke-linejoin:miter;stroke-opacity:1" d="M 180.687,38.0601 163.657,25.2876 z" id="boundary" inkscape:connector-curvature="0" />
	<path style="fill:none;stroke:red;stroke-width:1px;stroke-linecap:butt;stroke-linejoin:miter;stroke-opacity:1" d="M 82.7639,14.6438 101.923,4 z" id="boundary" inkscape:connector-curvature="0" />
	<path style="fill:none;stroke:red;stroke-width:1px;stroke-linecap:butt;stroke-linejoin:miter;stroke-opacity:1" d="M 14.6438,106.18 14.6438,127.468 z" id="boundary" inkscape:connector-curvature="0" />
	<path style="fill:none;stroke:red;stroke-width:1px;stroke-linecap:butt;stroke-linejoin:miter;stroke-opacity:1" d="M 31.6738,142.369 14.6438,127.468 z" id="boundary" inkscape:connector-curvature="0" />
	<path style="fill:none;stroke:red;stroke-width:1px;stroke-linecap:butt;stroke-linejoin:miter;stroke-opacity:1" d="M 14.6438,106.18 25.2876,84.8927 z" id="boundary" inkscape:connector-curvature="0" />
	<path style="fill:none;stroke:red;stroke-width:1px;stroke-linecap:butt;stroke-linejoin:miter;stroke-opacity:1" d="M 50.8326,153.013 31.6738,142.369 z" id="boundary" inkscape:connector-curvature="0" />
	<path style="fill:none;stroke:red;stroke-width:1px;stroke-linecap:butt;stroke-linejoin:miter;stroke-opacity:1" d="M 50.8326,153.013 72.1202,161.528 z" id="boundary" inkscape:connector-curvature="0" />
	<path style="fill:none;stroke:red;stroke-width:1px;stroke-linecap:butt;stroke-linejoin:miter;stroke-opacity:1" d="M 72.1202,161.528 91.279,172.172 z" id="boundary" inkscape:connector-curvature="0" />
	<path style="fill:none;stroke:red;stroke-width:1px;stroke-linecap:butt;stroke-linejoin:miter;stroke-opacity:1" d="M 91.279,172.172 112.567,176.429 z" id="boundary" inkscape:connector-curvature="0" />
	<path style="fill:none;stroke:red;stroke-width:1px;stroke-linecap:butt;stroke-linejoin:miter;stroke-opacity:1" d="M 112.567,176.429 131.725,187.073 z" id="boundary" inkscape:connector-curvature="0" />
	<path style="fill:none;stroke:red;stroke-width:1px;stroke-linecap:butt;stroke-linejoin:miter;stroke-opacity:1" d="M 153.013,187.073 131.725,187.073 z" id="boundary" inkscape:connector-curvature="0" />
	<path style="fill:none;stroke:red;stroke-width:1px;stroke-linecap:butt;stroke-linejoin:miter;stroke-opacity:1" d="M 172.172,197.717 187.073,214.747 z" id="boundary" inkscape:connector-curvature="0" />
	<path style="fill:none;stroke:red;stroke-width:1px;stroke-linecap:butt;stroke-linejoin:miter;stroke-opacity:1" d="M 153.013,187.073 172.172,197.717 z" id="boundary" inkscape:connector-curvature="0" />
	<path style="fill:none;stroke:red;stroke-width:1px;stroke-linecap:butt;stroke-linejoin:miter;stroke-opacity:1" d="M 187.073,214.747 204.103,229.648 z" id="boundary" inkscape:connector-curvature="0" />
	<path style="fill:none;stroke:red;stroke-width:1px;stroke-linecap:butt;stroke-linejoin:miter;stroke-opacity:1" d="M 180.687,38.0601 201.974,46.5751 z" id="boundary" inkscape:connector-curvature="0" />
	<path style="fill:none;stroke:red;stroke-width:1px;stroke-linecap:butt;stroke-linejoin:miter;stroke-opacity:1" d="M 223.262,46.5751 244.549,46.5751 z" id="boundary" inkscape:connector-curvature="0" />
	<path style="fill:none;stroke:red;stroke-width:1px;stroke-linecap:butt;stroke-linejoin:miter;stroke-opacity:1" d="M 223.262,46.5751 201.974,46.5751 z" id="boundary" inkscape:connector-curvature="0" />
	<path style="fill:none;stroke:red;stroke-width:1px;stroke-linecap:butt;stroke-linejoin:miter;stroke-opacity:1" d="M 223.262,240.292 204.103,229.648 z" id="boundary" inkscape:connector-curvature="0" />
	<path style="fill:none;stroke:red;stroke-width:1px;stroke-linecap:butt;stroke-linejoin:miter;stroke-opacity:1" d="M 244.549,46.5751 265.837,46.5751 z" id="boundary" inkscape:connector-curvature="0" />
	<path style="fill:none;stroke:red;stroke-width:1px;stroke-linecap:butt;stroke-linejoin:miter;stroke-opacity:1" d="M 287.124,46.5751 265.837,46.5751 z" id="boundary" inkscape:connector-curvature="0" />
	<path style="fill:none;stroke:red;stroke-width:1px;stroke-linecap:butt;stroke-linejoin:miter;stroke-opacity:1" d="M 348.858,57.2189 327.571,57.2189 z" id="boundary" inkscape:connector-curvature="0" />
	<path style="fill:none;stroke:red;stroke-width:1px;stroke-linecap:butt;stroke-linejoin:miter;stroke-opacity:1" d="M 327.571,57.2189 308.412,46.5751 z" id="boundary" inkscape:connector-curvature="0" />
	<path style="fill:none;stroke:red;stroke-width:1px;stroke-linecap:butt;stroke-linejoin:miter;stroke-opacity:1" d="M 242.421,250.936 223.262,240.292 z" id="boundary" inkscape:connector-curvature="0" />
	<path style="fill:none;stroke:red;stroke-width:1px;stroke-linecap:butt;stroke-linejoin:miter;stroke-opacity:1" d="M 287.124,46.5751 308.412,46.5751 z" id="boundary" inkscape:connector-curvature="0" />
	<path style="fill:none;stroke:red;stroke-width:1px;stroke-linecap:butt;stroke-linejoin:miter;stroke-opacity:1" d="M 242.421,250.936 259.451,263.708 z" id="boundary" inkscape:connector-curvature="0" />
	<path style="fill:none;stroke:red;stroke-width:1px;stroke-linecap:butt;stroke-linejoin:miter;stroke-opacity:1" d="M 280.738,272.223 259.451,263.708 z" id="boundary" inkscape:connector-curvature="0" />
	<path style="fill:none;stroke:red;stroke-width:1px;stroke-linecap:butt;stroke-linejoin:miter;stroke-opacity:1" d="M 280.738,272.223 299.897,282.867 z" id="boundary" inkscape:connector-curvature="0" />
	<path style="fill:none;stroke:red;stroke-width:1px;stroke-linecap:butt;stroke-linejoin:miter;stroke-opacity:1" d="M 314.798,359.502 293.511,370.146 z" id="boundary" inkscape:connector-curvature="0" />
	<path style="fill:none;stroke:red;stroke-width:1px;stroke-linecap:butt;stroke-linejoin:miter;stroke-opacity:1" d="M 319.056,293.511 340.343,293.511 z" id="boundary" inkscape:connector-curvature="0" />
	<path style="fill:none;stroke:red;stroke-width:1px;stroke-linecap:butt;stroke-linejoin:miter;stroke-opacity:1" d="M 319.056,293.511 299.897,282.867 z" id="boundary" inkscape:connector-curvature="0" />
	<path style="fill:none;stroke:red;stroke-width:1px;stroke-linecap:butt;stroke-linejoin:miter;stroke-opacity:1" d="M 340.343,293.511 361.631,293.511 z" id="boundary" inkscape:connector-curvature="0" />
	<path style="fill:none;stroke:red;stroke-width:1px;stroke-linecap:butt;stroke-linejoin:miter;stroke-opacity:1" d="M 336.086,348.858 314.798,359.502 z" id="boundary" inkscape:connector-curvature="0" />
	<path style="fill:none;stroke:red;stroke-width:1px;stroke-linecap:butt;stroke-linejoin:miter;stroke-opacity:1" d="M 353.116,333.957 336.086,348.858 z" id="boundary" inkscape:connector-curvature="0" />
	<path style="fill:none;stroke:red;stroke-width:1px;stroke-linecap:butt;stroke-linejoin:miter;stroke-opacity:1" d="M 363.76,406.335 342.472,416.979 z" id="boundary" inkscape:connector-curvature="0" />
	<path style="fill:none;stroke:red;stroke-width:1px;stroke-linecap:butt;stroke-linejoin:miter;stroke-opacity:1" d="M 348.858,57.2189 368.017,67.8627 z" id="boundary" inkscape:connector-curvature="0" />
	<path style="fill:none;stroke:red;stroke-width:1px;stroke-linecap:butt;stroke-linejoin:miter;stroke-opacity:1" d="M 293.511,370.146 272.223,380.79 z" id="boundary" inkscape:connector-curvature="0" />
	<path style="fill:none;stroke:red;stroke-width:1px;stroke-linecap:butt;stroke-linejoin:miter;stroke-opacity:1" d="M 63.6052,610.695 84.8927,610.695 z" id="boundary" inkscape:connector-curvature="0" />
	<path style="fill:none;stroke:red;stroke-width:1px;stroke-linecap:butt;stroke-linejoin:miter;stroke-opacity:1" d="M 42.3176,621.339 63.6052,610.695 z" id="boundary" inkscape:connector-curvature="0" />
	<path style="fill:none;stroke:red;stroke-width:1px;stroke-linecap:butt;stroke-linejoin:miter;stroke-opacity:1" d="M 42.3176,621.339 21.03,621.339 z" id="boundary" inkscape:connector-curvature="0" />
	<path style="fill:none;stroke:red;stroke-width:1px;stroke-linecap:butt;stroke-linejoin:miter;stroke-opacity:1" d="M 84.8927,610.695 106.18,610.695 z" id="boundary" inkscape:connector-curvature="0" />
	<path style="fill:none;stroke:red;stroke-width:1px;stroke-linecap:butt;stroke-linejoin:miter;stroke-opacity:1" d="M 123.21,593.665 106.18,610.695 z" id="boundary" inkscape:connector-curvature="0" />
	<path style="fill:none;stroke:red;stroke-width:1px;stroke-linecap:butt;stroke-linejoin:miter;stroke-opacity:1" d="M 174.3,510.644 159.399,536.189 z" id="boundary" inkscape:connector-curvature="0" />
	<path style="fill:none;stroke:red;stroke-width:1px;stroke-linecap:butt;stroke-linejoin:miter;stroke-opacity:1" d="M 140.24,578.764 148.755,557.476 z" id="boundary" inkscape:connector-curvature="0" />
	<path style="fill:none;stroke:red;stroke-width:1px;stroke-linecap:butt;stroke-linejoin:miter;stroke-opacity:1" d="M 161.528,619.21 144.498,634.112 z" id="boundary" inkscape:connector-curvature="0" />
	<path style="fill:none;stroke:red;stroke-width:1px;stroke-linecap:butt;stroke-linejoin:miter;stroke-opacity:1" d="M 140.24,578.764 123.21,593.665 z" id="boundary" inkscape:connector-curvature="0" />
	<path style="fill:none;stroke:red;stroke-width:1px;stroke-linecap:butt;stroke-linejoin:miter;stroke-opacity:1" d="M 148.755,557.476 159.399,536.189 z" id="boundary" inkscape:connector-curvature="0" />
	<path style="fill:none;stroke:red;stroke-width:1px;stroke-linecap:butt;stroke-linejoin:miter;stroke-opacity:1" d="M 144.498,634.112 133.854,666.043 z" id="boundary" inkscape:connector-curvature="0" />
	<path style="fill:none;stroke:red;stroke-width:1px;stroke-linecap:butt;stroke-linejoin:miter;stroke-opacity:1" d="M 4,638.369 21.03,621.339 z" id="boundary" inkscape:connector-curvature="0" />
	<path style="fill:none;stroke:red;stroke-width:1px;stroke-linecap:butt;stroke-linejoin:miter;stroke-opacity:1" d="M 4,659.657 4,638.369 z" id="boundary" inkscape:connector-curvature="0" />
	<path style="fill:none;stroke:red;stroke-width:1px;stroke-linecap:butt;stroke-linejoin:miter;stroke-opacity:1" d="M 14.6438,678.815 29.5451,695.845 z" id="boundary" inkscape:connector-curvature="0" />
	<path style="fill:none;stroke:red;stroke-width:1px;stroke-linecap:butt;stroke-linejoin:miter;stroke-opacity:1" d="M 29.5451,695.845 40.1888,715.004 z" id="boundary" inkscape:connector-curvature="0" />
	<path style="fill:none;stroke:red;stroke-width:1px;stroke-linecap:butt;stroke-linejoin:miter;stroke-opacity:1" d="M 40.1888,715.004 48.7039,736.292 z" id="boundary" inkscape:connector-curvature="0" />
	<path style="fill:none;stroke:red;stroke-width:1px;stroke-linecap:butt;stroke-linejoin:miter;stroke-opacity:1" d="M 14.6438,678.815 4,659.657 z" id="boundary" inkscape:connector-curvature="0" />
	<path style="fill:none;stroke:red;stroke-width:1px;stroke-linecap:butt;stroke-linejoin:miter;stroke-opacity:1" d="M 123.21,697.974 112.567,719.262 z" id="boundary" inkscape:connector-curvature="0" />
	<path style="fill:none;stroke:red;stroke-width:1px;stroke-linecap:butt;stroke-linejoin:miter;stroke-opacity:1" d="M 112.567,719.262 91.279,740.549 z" id="boundary" inkscape:connector-curvature="0" />
	<path style="fill:none;stroke:red;stroke-width:1px;stroke-linecap:butt;stroke-linejoin:miter;stroke-opacity:1" d="M 123.21,697.974 133.854,666.043 z" id="boundary" inkscape:connector-curvature="0" />
	<path style="fill:none;stroke:red;stroke-width:1px;stroke-linecap:butt;stroke-linejoin:miter;stroke-opacity:1" d="M 69.9914,744.807 48.7039,736.292 z" id="boundary" inkscape:connector-curvature="0" />
	<path style="fill:none;stroke:red;stroke-width:1px;stroke-linecap:butt;stroke-linejoin:miter;stroke-opacity:1" d="M 91.279,740.549 69.9914,744.807 z" id="boundary" inkscape:connector-curvature="0" />
	<path style="fill:none;stroke:red;stroke-width:1px;stroke-linecap:butt;stroke-linejoin:miter;stroke-opacity:1" d="M 244.549,419.107 255.193,397.82 z" id="boundary" inkscape:connector-curvature="0" />
	<path style="fill:none;stroke:red;stroke-width:1px;stroke-linecap:butt;stroke-linejoin:miter;stroke-opacity:1" d="M 244.549,419.107 227.519,436.137 z" id="boundary" inkscape:connector-curvature="0" />
	<path style="fill:none;stroke:red;stroke-width:1px;stroke-linecap:butt;stroke-linejoin:miter;stroke-opacity:1" d="M 206.232,478.712 216.876,457.425 z" id="boundary" inkscape:connector-curvature="0" />
	<path style="fill:none;stroke:red;stroke-width:1px;stroke-linecap:butt;stroke-linejoin:miter;stroke-opacity:1" d="M 206.232,478.712 184.944,489.356 z" id="boundary" inkscape:connector-curvature="0" />
	<path style="fill:none;stroke:red;stroke-width:1px;stroke-linecap:butt;stroke-linejoin:miter;stroke-opacity:1" d="M 227.519,436.137 216.876,457.425 z" id="boundary" inkscape:connector-curvature="0" />
	<path style="fill:none;stroke:red;stroke-width:1px;stroke-linecap:butt;stroke-linejoin:miter;stroke-opacity:1" d="M 342.472,416.979 321.185,427.622 z" id="boundary" inkscape:connector-curvature="0" />
	<path style="fill:none;stroke:red;stroke-width:1px;stroke-linecap:butt;stroke-linejoin:miter;stroke-opacity:1" d="M 289.253,459.554 299.897,438.266 z" id="boundary" inkscape:connector-curvature="0" />
	<path style="fill:none;stroke:red;stroke-width:1px;stroke-linecap:butt;stroke-linejoin:miter;stroke-opacity:1" d="M 299.897,438.266 321.185,427.622 z" id="boundary" inkscape:connector-curvature="0" />
	<path style="fill:none;stroke:red;stroke-width:1px;stroke-linecap:butt;stroke-linejoin:miter;stroke-opacity:1" d="M 278.609,480.841 289.253,459.554 z" id="boundary" inkscape:connector-curvature="0" />
	<path style="fill:none;stroke:red;stroke-width:1px;stroke-linecap:butt;stroke-linejoin:miter;stroke-opacity:1" d="M 255.193,397.82 272.223,380.79 z" id="boundary" inkscape:connector-curvature="0" />
	<path style="fill:none;stroke:red;stroke-width:1px;stroke-linecap:butt;stroke-linejoin:miter;stroke-opacity:1" d="M 214.747,576.635 197.717,591.536 z" id="boundary" inkscape:connector-curvature="0" />
	<path style="fill:none;stroke:red;stroke-width:1px;stroke-linecap:butt;stroke-linejoin:miter;stroke-opacity:1" d="M 184.944,489.356 174.3,510.644 z" id="boundary" inkscape:connector-curvature="0" />
	<path style="fill:none;stroke:red;stroke-width:1px;stroke-linecap:butt;stroke-linejoin:miter;stroke-opacity:1" d="M 161.528,619.21 176.429,602.18 z" id="boundary" inkscape:connector-curvature="0" />
	<path style="fill:none;stroke:red;stroke-width:1px;stroke-linecap:butt;stroke-linejoin:miter;stroke-opacity:1" d="M 176.429,602.18 197.717,591.536 z" id="boundary" inkscape:connector-curvature="0" />
	<path style="fill:none;stroke:red;stroke-width:1px;stroke-linecap:butt;stroke-linejoin:miter;stroke-opacity:1" d="M 257.322,523.416 267.966,502.129 z" id="boundary" inkscape:connector-curvature="0" />
	<path style="fill:none;stroke:red;stroke-width:1px;stroke-linecap:butt;stroke-linejoin:miter;stroke-opacity:1" d="M 257.322,523.416 246.678,544.704 z" id="boundary" inkscape:connector-curvature="0" />
	<path style="fill:none;stroke:red;stroke-width:1px;stroke-linecap:butt;stroke-linejoin:miter;stroke-opacity:1" d="M 267.966,502.129 278.609,480.841 z" id="boundary" inkscape:connector-curvature="0" />
	<path style="fill:none;stroke:red;stroke-width:1px;stroke-linecap:butt;stroke-linejoin:miter;stroke-opacity:1" d="M 214.747,576.635 229.648,559.605 z" id="boundary" inkscape:connector-curvature="0" />
	<path style="fill:none;stroke:red;stroke-width:1px;stroke-linecap:butt;stroke-linejoin:miter;stroke-opacity:1" d="M 229.648,559.605 246.678,544.704 z" id="boundary" inkscape:connector-curvature="0" />
	<path style="fill:none;stroke:red;stroke-width:1px;stroke-linecap:butt;stroke-linejoin:miter;stroke-opacity:1" d="M 361.631,293.511 372.275,323.313 z" id="boundary" inkscape:connector-curvature="0" />
	<path style="fill:none;stroke:red;stroke-width:1px;stroke-linecap:butt;stroke-linejoin:miter;stroke-opacity:1" d="M 372.275,323.313 353.116,333.957 z" id="boundary" inkscape:connector-curvature="0" />
	<path style="fill:none;stroke:red;stroke-width:1px;stroke-linecap:butt;stroke-linejoin:miter;stroke-opacity:1" d="M 389.305,74.2489 368.017,67.8627 z" id="boundary" inkscape:connector-curvature="0" />
	<path style="fill:none;stroke:red;stroke-width:1px;stroke-linecap:butt;stroke-linejoin:miter;stroke-opacity:1" d="M 410.592,78.5064 429.751,89.1502 z" id="boundary" inkscape:connector-curvature="0" />
	<path style="fill:none;stroke:red;stroke-width:1px;stroke-linecap:butt;stroke-linejoin:miter;stroke-opacity:1" d="M 389.305,74.2489 410.592,78.5064 z" id="boundary" inkscape:connector-curvature="0" />
	<path style="fill:none;stroke:red;stroke-width:1px;stroke-linecap:butt;stroke-linejoin:miter;stroke-opacity:1" d="M 448.91,99.794 429.751,89.1502 z" id="boundary" inkscape:connector-curvature="0" />
	<path style="fill:none;stroke:red;stroke-width:1px;stroke-linecap:butt;stroke-linejoin:miter;stroke-opacity:1" d="M 468.069,110.438 482.97,127.468 z" id="boundary" inkscape:connector-curvature="0" />
	<path style="fill:none;stroke:red;stroke-width:1px;stroke-linecap:butt;stroke-linejoin:miter;stroke-opacity:1" d="M 448.91,99.794 468.069,110.438 z" id="boundary" inkscape:connector-curvature="0" />
	<path style="fill:none;stroke:red;stroke-width:1px;stroke-linecap:butt;stroke-linejoin:miter;stroke-opacity:1" d="M 500,142.369 482.97,127.468 z" id="boundary" inkscape:connector-curvature="0" />
	<path style="fill:none;stroke:red;stroke-width:1px;stroke-linecap:butt;stroke-linejoin:miter;stroke-opacity:1" d="M 531.931,174.3 514.901,159.399 z" id="boundary" inkscape:connector-curvature="0" />
	<path style="fill:none;stroke:red;stroke-width:1px;stroke-linecap:butt;stroke-linejoin:miter;stroke-opacity:1" d="M 514.901,159.399 500,142.369 z" id="boundary" inkscape:connector-curvature="0" />
	<path style="fill:none;stroke:red;stroke-width:1px;stroke-linecap:butt;stroke-linejoin:miter;stroke-opacity:1" d="M 531.931,174.3 538.318,195.588 z" id="boundary" inkscape:connector-curvature="0" />
	<path style="fill:none;stroke:red;stroke-width:1px;stroke-linecap:butt;stroke-linejoin:miter;stroke-opacity:1" d="M 427.622,385.047 406.335,395.691 z" id="boundary" inkscape:connector-curvature="0" />
	<path style="fill:none;stroke:red;stroke-width:1px;stroke-linecap:butt;stroke-linejoin:miter;stroke-opacity:1" d="M 448.91,374.403 427.622,385.047 z" id="boundary" inkscape:connector-curvature="0" />
	<path style="fill:none;stroke:red;stroke-width:1px;stroke-linecap:butt;stroke-linejoin:miter;stroke-opacity:1" d="M 385.047,399.948 363.76,406.335 z" id="boundary" inkscape:connector-curvature="0" />
	<path style="fill:none;stroke:red;stroke-width:1px;stroke-linecap:butt;stroke-linejoin:miter;stroke-opacity:1" d="M 406.335,395.691 385.047,399.948 z" id="boundary" inkscape:connector-curvature="0" />
	<path style="fill:none;stroke:red;stroke-width:1px;stroke-linecap:butt;stroke-linejoin:miter;stroke-opacity:1" d="M 470.197,368.017 448.91,374.403 z" id="boundary" inkscape:connector-curvature="0" />
	<path style="fill:none;stroke:red;stroke-width:1px;stroke-linecap:butt;stroke-linejoin:miter;stroke-opacity:1" d="M 548.961,214.747 538.318,195.588 z" id="boundary" inkscape:connector-curvature="0" />
	<path style="fill:none;stroke:red;stroke-width:1px;stroke-linecap:butt;stroke-linejoin:miter;stroke-opacity:1" d="M 482.97,385.047 470.197,368.017 z" id="boundary" inkscape:connector-curvature="0" />
	<path style="fill:none;stroke:red;stroke-width:1px;stroke-linecap:butt;stroke-linejoin:miter;stroke-opacity:1" d="M 482.97,385.047 493.614,404.206 z" id="boundary" inkscape:connector-curvature="0" />
	<path style="fill:none;stroke:red;stroke-width:1px;stroke-linecap:butt;stroke-linejoin:miter;stroke-opacity:1" d="M 548.961,214.747 559.605,233.906 z" id="boundary" inkscape:connector-curvature="0" />
	<path style="fill:none;stroke:red;stroke-width:1px;stroke-linecap:butt;stroke-linejoin:miter;stroke-opacity:1" d="M 493.614,404.206 504.258,423.365 z" id="boundary" inkscape:connector-curvature="0" />
	<path style="fill:none;stroke:red;stroke-width:1px;stroke-linecap:butt;stroke-linejoin:miter;stroke-opacity:1" d="M 570.249,253.064 576.635,274.352 z" id="boundary" inkscape:connector-curvature="0" />
	<path style="fill:none;stroke:red;stroke-width:1px;stroke-linecap:butt;stroke-linejoin:miter;stroke-opacity:1" d="M 570.249,253.064 559.605,233.906 z" id="boundary" inkscape:connector-curvature="0" />
	<path style="fill:none;stroke:red;stroke-width:1px;stroke-linecap:butt;stroke-linejoin:miter;stroke-opacity:1" d="M 597.923,336.086 587.279,316.927 z" id="boundary" inkscape:connector-curvature="0" />
	<path style="fill:none;stroke:red;stroke-width:1px;stroke-linecap:butt;stroke-linejoin:miter;stroke-opacity:1" d="M 587.279,316.927 580.893,295.639 z" id="boundary" inkscape:connector-curvature="0" />
	<path style="fill:none;stroke:red;stroke-width:1px;stroke-linecap:butt;stroke-linejoin:miter;stroke-opacity:1" d="M 580.893,295.639 576.635,274.352 z" id="boundary" inkscape:connector-curvature="0" />
	<path style="fill:none;stroke:red;stroke-width:1px;stroke-linecap:butt;stroke-linejoin:miter;stroke-opacity:1" d="M 606.438,357.373 597.923,336.086 z" id="boundary" inkscape:connector-curvature="0" />
	<path style="fill:none;stroke:red;stroke-width:1px;stroke-linecap:butt;stroke-linejoin:miter;stroke-opacity:1" d="M 917.236,365.888 936.395,355.245 z" id="boundary" inkscape:connector-curvature="0" />
	<path style="fill:none;stroke:red;stroke-width:1px;stroke-linecap:butt;stroke-linejoin:miter;stroke-opacity:1" d="M 936.395,355.245 957.682,355.245 z" id="boundary" inkscape:connector-curvature="0" />
	<path style="fill:none;stroke:red;stroke-width:1px;stroke-linecap:butt;stroke-linejoin:miter;stroke-opacity:1" d="M 957.682,355.245 978.97,355.245 z" id="boundary" inkscape:connector-curvature="0" />
	<path style="fill:none;stroke:red;stroke-width:1px;stroke-linecap:butt;stroke-linejoin:miter;stroke-opacity:1" d="M 606.438,357.373 617.082,376.532 z" id="boundary" inkscape:connector-curvature="0" />
	<path style="fill:none;stroke:red;stroke-width:1px;stroke-linecap:butt;stroke-linejoin:miter;stroke-opacity:1" d="M 623.468,397.82 617.082,376.532 z" id="boundary" inkscape:connector-curvature="0" />
	<path style="fill:none;stroke:red;stroke-width:1px;stroke-linecap:butt;stroke-linejoin:miter;stroke-opacity:1" d="M 655.399,419.107 634.112,416.979 z" id="boundary" inkscape:connector-curvature="0" />
	<path style="fill:none;stroke:red;stroke-width:1px;stroke-linecap:butt;stroke-linejoin:miter;stroke-opacity:1" d="M 634.112,416.979 623.468,397.82 z" id="boundary" inkscape:connector-curvature="0" />
	<path style="fill:none;stroke:red;stroke-width:1px;stroke-linecap:butt;stroke-linejoin:miter;stroke-opacity:1" d="M 676.687,419.107 655.399,419.107 z" id="boundary" inkscape:connector-curvature="0" />
	<path style="fill:none;stroke:red;stroke-width:1px;stroke-linecap:butt;stroke-linejoin:miter;stroke-opacity:1" d="M 900.206,380.79 917.236,365.888 z" id="boundary" inkscape:connector-curvature="0" />
	<path style="fill:none;stroke:red;stroke-width:1px;stroke-linecap:butt;stroke-linejoin:miter;stroke-opacity:1" d="M 978.97,355.245 996,368.017 z" id="boundary" inkscape:connector-curvature="0" />
	<path style="fill:none;stroke:red;stroke-width:1px;stroke-linecap:butt;stroke-linejoin:miter;stroke-opacity:1" d="M 996,368.017 996,389.305 z" id="boundary" inkscape:connector-curvature="0" />
	<path style="fill:none;stroke:red;stroke-width:1px;stroke-linecap:butt;stroke-linejoin:miter;stroke-opacity:1" d="M 996,389.305 996,410.592 z" id="boundary" inkscape:connector-curvature="0" />
	<path style="fill:none;stroke:red;stroke-width:1px;stroke-linecap:butt;stroke-linejoin:miter;stroke-opacity:1" d="M 885.305,397.82 900.206,380.79 z" id="boundary" inkscape:connector-curvature="0" />
	<path style="fill:none;stroke:red;stroke-width:1px;stroke-linecap:butt;stroke-linejoin:miter;stroke-opacity:1" d="M 866.146,408.464 885.305,397.82 z" id="boundary" inkscape:connector-curvature="0" />
	<path style="fill:none;stroke:red;stroke-width:1px;stroke-linecap:butt;stroke-linejoin:miter;stroke-opacity:1" d="M 996,410.592 996,431.88 z" id="boundary" inkscape:connector-curvature="0" />
	<path style="fill:none;stroke:red;stroke-width:1px;stroke-linecap:butt;stroke-linejoin:miter;stroke-opacity:1" d="M 514.901,442.524 534.06,453.167 z" id="boundary" inkscape:connector-curvature="0" />
	<path style="fill:none;stroke:red;stroke-width:1px;stroke-linecap:butt;stroke-linejoin:miter;stroke-opacity:1" d="M 514.901,442.524 504.258,423.365 z" id="boundary" inkscape:connector-curvature="0" />
	<path style="fill:none;stroke:red;stroke-width:1px;stroke-linecap:butt;stroke-linejoin:miter;stroke-opacity:1" d="M 574.506,463.811 553.219,463.811 z" id="boundary" inkscape:connector-curvature="0" />
	<path style="fill:none;stroke:red;stroke-width:1px;stroke-linecap:butt;stroke-linejoin:miter;stroke-opacity:1" d="M 553.219,463.811 534.06,453.167 z" id="boundary" inkscape:connector-curvature="0" />
	<path style="fill:none;stroke:red;stroke-width:1px;stroke-linecap:butt;stroke-linejoin:miter;stroke-opacity:1" d="M 676.687,419.107 697.974,419.107 z" id="boundary" inkscape:connector-curvature="0" />
	<path style="fill:none;stroke:red;stroke-width:1px;stroke-linecap:butt;stroke-linejoin:miter;stroke-opacity:1" d="M 719.262,419.107 697.974,419.107 z" id="boundary" inkscape:connector-curvature="0" />
	<path style="fill:none;stroke:red;stroke-width:1px;stroke-linecap:butt;stroke-linejoin:miter;stroke-opacity:1" d="M 719.262,419.107 740.549,419.107 z" id="boundary" inkscape:connector-curvature="0" />
	<path style="fill:none;stroke:red;stroke-width:1px;stroke-linecap:butt;stroke-linejoin:miter;stroke-opacity:1" d="M 761.837,419.107 740.549,419.107 z" id="boundary" inkscape:connector-curvature="0" />
	<path style="fill:none;stroke:red;stroke-width:1px;stroke-linecap:butt;stroke-linejoin:miter;stroke-opacity:1" d="M 783.124,419.107 761.837,419.107 z" id="boundary" inkscape:connector-curvature="0" />
	<path style="fill:none;stroke:red;stroke-width:1px;stroke-linecap:butt;stroke-linejoin:miter;stroke-opacity:1" d="M 574.506,463.811 593.665,474.455 z" id="boundary" inkscape:connector-curvature="0" />
	<path style="fill:none;stroke:red;stroke-width:1px;stroke-linecap:butt;stroke-linejoin:miter;stroke-opacity:1" d="M 614.953,480.841 636.24,485.099 z" id="boundary" inkscape:connector-curvature="0" />
	<path style="fill:none;stroke:red;stroke-width:1px;stroke-linecap:butt;stroke-linejoin:miter;stroke-opacity:1" d="M 636.24,485.099 657.528,491.485 z" id="boundary" inkscape:connector-curvature="0" />
	<path style="fill:none;stroke:red;stroke-width:1px;stroke-linecap:butt;stroke-linejoin:miter;stroke-opacity:1" d="M 614.953,480.841 593.665,474.455 z" id="boundary" inkscape:connector-curvature="0" />
	<path style="fill:none;stroke:red;stroke-width:1px;stroke-linecap:butt;stroke-linejoin:miter;stroke-opacity:1" d="M 657.528,491.485 678.815,495.742 z" id="boundary" inkscape:connector-curvature="0" />
	<path style="fill:none;stroke:red;stroke-width:1px;stroke-linecap:butt;stroke-linejoin:miter;stroke-opacity:1" d="M 678.815,495.742 700.103,495.742 z" id="boundary" inkscape:connector-curvature="0" />
	<path style="fill:none;stroke:red;stroke-width:1px;stroke-linecap:butt;stroke-linejoin:miter;stroke-opacity:1" d="M 700.103,495.742 721.391,502.129 z" id="boundary" inkscape:connector-curvature="0" />
	<path style="fill:none;stroke:red;stroke-width:1px;stroke-linecap:butt;stroke-linejoin:miter;stroke-opacity:1" d="M 721.391,502.129 742.678,506.386 z" id="boundary" inkscape:connector-curvature="0" />
	<path style="fill:none;stroke:red;stroke-width:1px;stroke-linecap:butt;stroke-linejoin:miter;stroke-opacity:1" d="M 742.678,506.386 763.966,506.386 z" id="boundary" inkscape:connector-curvature="0" />
	<path style="fill:none;stroke:red;stroke-width:1px;stroke-linecap:butt;stroke-linejoin:miter;stroke-opacity:1" d="M 763.966,506.386 785.253,506.386 z" id="boundary" inkscape:connector-curvature="0" />
	<path style="fill:none;stroke:red;stroke-width:1px;stroke-linecap:butt;stroke-linejoin:miter;stroke-opacity:1" d="M 783.124,419.107 804.412,419.107 z" id="boundary" inkscape:connector-curvature="0" />
	<path style="fill:none;stroke:red;stroke-width:1px;stroke-linecap:butt;stroke-linejoin:miter;stroke-opacity:1" d="M 804.412,419.107 825.7,419.107 z" id="boundary" inkscape:connector-curvature="0" />
	<path style="fill:none;stroke:red;stroke-width:1px;stroke-linecap:butt;stroke-linejoin:miter;stroke-opacity:1" d="M 827.828,506.386 806.541,506.386 z" id="boundary" inkscape:connector-curvature="0" />
	<path style="fill:none;stroke:red;stroke-width:1px;stroke-linecap:butt;stroke-linejoin:miter;stroke-opacity:1" d="M 825.7,419.107 846.987,419.107 z" id="boundary" inkscape:connector-curvature="0" />
	<path style="fill:none;stroke:red;stroke-width:1px;stroke-linecap:butt;stroke-linejoin:miter;stroke-opacity:1" d="M 849.116,506.386 827.828,506.386 z" id="boundary" inkscape:connector-curvature="0" />
	<path style="fill:none;stroke:red;stroke-width:1px;stroke-linecap:butt;stroke-linejoin:miter;stroke-opacity:1" d="M 866.146,408.464 846.987,419.107 z" id="boundary" inkscape:connector-curvature="0" />
	<path style="fill:none;stroke:red;stroke-width:1px;stroke-linecap:butt;stroke-linejoin:miter;stroke-opacity:1" d="M 806.541,506.386 785.253,506.386 z" id="boundary" inkscape:connector-curvature="0" />
	<path style="fill:none;stroke:red;stroke-width:1px;stroke-linecap:butt;stroke-linejoin:miter;stroke-opacity:1" d="M 868.275,517.03 849.116,506.386 z" id="boundary" inkscape:connector-curvature="0" />
	<path style="fill:none;stroke:red;stroke-width:1px;stroke-linecap:butt;stroke-linejoin:miter;stroke-opacity:1" d="M 889.562,521.288 868.275,517.03 z" id="boundary" inkscape:connector-curvature="0" />
	<path style="fill:none;stroke:red;stroke-width:1px;stroke-linecap:butt;stroke-linejoin:miter;stroke-opacity:1" d="M 996,453.167 996,474.455 z" id="boundary" inkscape:connector-curvature="0" />
	<path style="fill:none;stroke:red;stroke-width:1px;stroke-linecap:butt;stroke-linejoin:miter;stroke-opacity:1" d="M 996,474.455 996,495.742 z" id="boundary" inkscape:connector-curvature="0" />
	<path style="fill:none;stroke:red;stroke-width:1px;stroke-linecap:butt;stroke-linejoin:miter;stroke-opacity:1" d="M 996,431.88 996,453.167 z" id="boundary" inkscape:connector-curvature="0" />
	<path style="fill:none;stroke:red;stroke-width:1px;stroke-linecap:butt;stroke-linejoin:miter;stroke-opacity:1" d="M 889.562,521.288 904.464,538.318 z" id="boundary" inkscape:connector-curvature="0" />
	<path style="fill:none;stroke:red;stroke-width:1px;stroke-linecap:butt;stroke-linejoin:miter;stroke-opacity:1" d="M 921.494,553.219 904.464,538.318 z" id="boundary" inkscape:connector-curvature="0" />
	<path style="fill:none;stroke:red;stroke-width:1px;stroke-linecap:butt;stroke-linejoin:miter;stroke-opacity:1" d="M 953.425,585.15 936.395,570.249 z" id="boundary" inkscape:connector-curvature="0" />
	<path style="fill:none;stroke:red;stroke-width:1px;stroke-linecap:butt;stroke-linejoin:miter;stroke-opacity:1" d="M 936.395,570.249 921.494,553.219 z" id="boundary" inkscape:connector-curvature="0" />
	<path style="fill:none;stroke:red;stroke-width:1px;stroke-linecap:butt;stroke-linejoin:miter;stroke-opacity:1" d="M 996,538.318 996,559.605 z" id="boundary" inkscape:connector-curvature="0" />
	<path style="fill:none;stroke:red;stroke-width:1px;stroke-linecap:butt;stroke-linejoin:miter;stroke-opacity:1" d="M 974.712,591.536 953.425,585.15 z" id="boundary" inkscape:connector-curvature="0" />
	<path style="fill:none;stroke:red;stroke-width:1px;stroke-linecap:butt;stroke-linejoin:miter;stroke-opacity:1" d="M 996,580.893 987.485,608.567 z" id="boundary" inkscape:connector-curvature="0" />
	<path style="fill:none;stroke:red;stroke-width:1px;stroke-linecap:butt;stroke-linejoin:miter;stroke-opacity:1" d="M 987.485,608.567 974.712,591.536 z" id="boundary" inkscape:connector-curvature="0" />
	<path style="fill:none;stroke:red;stroke-width:1px;stroke-linecap:butt;stroke-linejoin:miter;stroke-opacity:1" d="M 996,559.605 996,580.893 z" id="boundary" inkscape:connector-curvature="0" />
	<path style="fill:none;stroke:red;stroke-width:1px;stroke-linecap:butt;stroke-linejoin:miter;stroke-opacity:1" d="M 996,517.03 996,538.318 z" id="boundary" inkscape:connector-curvature="0" />
	<path style="fill:none;stroke:red;stroke-width:1px;stroke-linecap:butt;stroke-linejoin:miter;stroke-opacity:1" d="M 996,495.742 996,517.03 z" id="boundary" inkscape:connector-curvature="0" />
	<circle cx="4" cy="638.369" r="4" fill="#0" id="circle0"/>
	<circle cx="4" cy="659.657" r="4" fill="#0" id="circle1"/>
	<circle cx="14.6438" cy="106.18" r="4" fill="#0" id="circle2"/>
	<circle cx="14.6438" cy="127.468" r="4" fill="#0" id="circle3"/>
	<circle cx="14.6438" cy="678.815" r="4" fill="#0" id="circle4"/>
	<circle cx="21.03" cy="621.339" r="4" fill="#0" id="circle5"/>
	<circle cx="25.2876" cy="84.8927" r="4" fill="#0" id="circle6"/>
	<circle cx="29.5451" cy="695.845" r="4" fill="#0" id="circle7"/>
	<circle cx="31.6738" cy="142.369" r="4" fill="#0" id="circle8"/>
	<circle cx="40.1888" cy="715.004" r="4" fill="#0" id="circle9"/>
	<circle cx="42.3176" cy="67.8627" r="4" fill="#0" id="circle10"/>
	<circle cx="42.3176" cy="621.339" r="4" fill="#0" id="circle11"/>
	<circle cx="48.7039" cy="736.292" r="4" fill="#0" id="circle12"/>
	<circle cx="50.8326" cy="153.013" r="4" fill="#0" id="circle13"/>
	<circle cx="52.9614" cy="46.5751" r="4" fill="#0" id="circle14"/>
	<circle cx="63.6052" cy="25.2876" r="4" fill="#0" id="circle15"/>
	<circle cx="63.6052" cy="610.695" r="4" fill="#0" id="circle16"/>
	<circle cx="69.9914" cy="744.807" r="4" fill="#0" id="circle17"/>
	<circle cx="72.1202" cy="161.528" r="4" fill="#0" id="circle18"/>
	<circle cx="82.7639" cy="14.6438" r="4" fill="#0" id="circle19"/>
	<circle cx="84.8927" cy="610.695" r="4" fill="#0" id="circle20"/>
	<circle cx="91.279" cy="172.172" r="4" fill="#0" id="circle21"/>
	<circle cx="91.279" cy="740.549" r="4" fill="#0" id="circle22"/>
	<circle cx="101.923" cy="4" r="4" fill="#0" id="circle23"/>
	<circle cx="106.18" cy="610.695" r="4" fill="#0" id="circle24"/>
	<circle cx="112.567" cy="176.429" r="4" fill="#0" id="circle25"/>
	<circle cx="112.567" cy="719.262" r="4" fill="#0" id="circle26"/>
	<circle cx="123.21" cy="10.3863" r="4" fill="#0" id="circle27"/>
	<circle cx="123.21" cy="593.665" r="4" fill="#0" id="circle28"/>
	<circle cx="123.21" cy="697.974" r="4" fill="#0" id="circle29"/>
	<circle cx="131.725" cy="187.073" r="4" fill="#0" id="circle30"/>
	<circle cx="133.854" cy="666.043" r="4" fill="#0" id="circle31"/>
	<circle cx="140.24" cy="578.764" r="4" fill="#0" id="circle32"/>
	<circle cx="144.498" cy="14.6438" r="4" fill="#0" id="circle33"/>
	<circle cx="144.498" cy="634.112" r="4" fill="#0" id="circle34"/>
	<circle cx="148.755" cy="557.476" r="4" fill="#0" id="circle35"/>
	<circle cx="153.013" cy="187.073" r="4" fill="#0" id="circle36"/>
	<circle cx="159.399" cy="536.189" r="4" fill="#0" id="circle37"/>
	<circle cx="161.528" cy="619.21" r="4" fill="#0" id="circle38"/>
	<circle cx="163.657" cy="25.2876" r="4" fill="#0" id="circle39"/>
	<circle cx="172.172" cy="197.717" r="4" fill="#0" id="circle40"/>
	<circle cx="174.3" cy="510.644" r="4" fill="#0" id="circle41"/>
	<circle cx="176.429" cy="602.18" r="4" fill="#0" id="circle42"/>
	<circle cx="180.687" cy="38.0601" r="4" fill="#0" id="circle43"/>
	<circle cx="184.944" cy="489.356" r="4" fill="#0" id="circle44"/>
	<circle cx="187.073" cy="214.747" r="4" fill="#0" id="circle45"/>
	<circle cx="197.717" cy="591.536" r="4" fill="#0" id="circle46"/>
	<circle cx="201.974" cy="46.5751" r="4" fill="#0" id="circle47"/>
	<circle cx="204.103" cy="229.648" r="4" fill="#0" id="circle48"/>
	<circle cx="206.232" cy="478.712" r="4" fill="#0" id="circle49"/>
	<circle cx="214.747" cy="576.635" r="4" fill="#0" id="circle50"/>
	<circle cx="216.876" cy="457.425" r="4" fill="#0" id="circle51"/>
	<circle cx="223.262" cy="46.5751" r="4" fill="#0" id="circle52"/>
	<circle cx="223.262" cy="240.292" r="4" fill="#0" id="circle53"/>
	<circle cx="227.519" cy="436.137" r="4" fill="#0" id="circle54"/>
	<circle cx="229.648" cy="559.605" r="4" fill="#0" id="circle55"/>
	<circle cx="242.421" cy="250.936" r="4" fill="#0" id="circle56"/>
	<circle cx="244.549" cy="46.5751" r="4" fill="#0" id="circle57"/>
	<circle cx="244.549" cy="419.107" r="4" fill="#0" id="circle58"/>
	<circle cx="246.678" cy="544.704" r="4" fill="#0" id="circle59"/>
	<circle cx="255.193" cy="397.82" r="4" fill="#0" id="circle60"/>
	<circle cx="257.322" cy="523.416" r="4" fill="#0" id="circle61"/>
	<circle cx="259.451" cy="263.708" r="4" fill="#0" id="circle62"/>
	<circle cx="265.837" cy="46.5751" r="4" fill="#0" id="circle63"/>
	<circle cx="267.966" cy="502.129" r="4" fill="#0" id="circle64"/>
	<circle cx="272.223" cy="380.79" r="4" fill="#0" id="circle65"/>
	<circle cx="278.609" cy="480.841" r="4" fill="#0" id="circle66"/>
	<circle cx="280.738" cy="272.223" r="4" fill="#0" id="circle67"/>
	<circle cx="287.124" cy="46.5751" r="4" fill="#0" id="circle68"/>
	<circle cx="289.253" cy="459.554" r="4" fill="#0" id="circle69"/>
	<circle cx="293.511" cy="370.146" r="4" fill="#0" id="circle70"/>
	<circle cx="299.897" cy="282.867" r="4" fill="#0" id="circle71"/>
	<circle cx="299.897" cy="438.266" r="4" fill="#0" id="circle72"/>
	<circle cx="308.412" cy="46.5751" r="4" fill="#0" id="circle73"/>
	<circle cx="314.798" cy="359.502" r="4" fill="#0" id="circle74"/>
	<circle cx="319.056" cy="293.511" r="4" fill="#0" id="circle75"/>
	<circle cx="321.185" cy="427.622" r="4" fill="#0" id="circle76"/>
	<circle cx="327.571" cy="57.2189" r="4" fill="#0" id="circle77"/>
	<circle cx="336.086" cy="348.858" r="4" fill="#0" id="circle78"/>
	<circle cx="340.343" cy="293.511" r="4" fill="#0" id="circle79"/>
	<circle cx="342.472" cy="416.979" r="4" fill="#0" id="circle80"/>
	<circle cx="348.858" cy="57.2189" r="4" fill="#0" id="circle81"/>
	<circle cx="353.116" cy="333.957" r="4" fill="#0" id="circle82"/>
	<circle cx="361.631" cy="293.511" r="4" fill="#0" id="circle83"/>
	<circle cx="363.76" cy="406.335" r="4" fill="#0" id="circle84"/>
	<circle cx="368.017" cy="67.8627" r="4" fill="#0" id="circle85"/>
	<circle cx="372.275" cy="323.313" r="4" fill="#0" id="circle86"/>
	<circle cx="385.047" cy="399.948" r="4" fill="#0" id="circle87"/>
	<circle cx="389.305" cy="74.2489" r="4" fill="#0" id="circle88"/>
	<circle cx="406.335" cy="395.691" r="4" fill="#0" id="circle89"/>
	<circle cx="410.592" cy="78.5064" r="4" fill="#0" id="circle90"/>
	<circle cx="427.622" cy="385.047" r="4" fill="#0" id="circle91"/>
	<circle cx="429.751" cy="89.1502" r="4" fill="#0" id="circle92"/>
	<circle cx="448.91" cy="99.794" r="4" fill="#0" id="circle93"/>
	<circle cx="448.91" cy="374.403" r="4" fill="#0" id="circle94"/>
	<circle cx="468.069" cy="110.438" r="4" fill="#0" id="circle95"/>
	<circle cx="470.197" cy="368.017" r="4" fill="#0" id="circle96"/>
	<circle cx="482.97" cy="127.468" r="4" fill="#0" id="circle97"/>
	<circle cx="482.97" cy="385.047" r="4" fill="#0" id="circle98"/>
	<circle cx="493.614" cy="404.206" r="4" fill="#0" id="circle99"/>
	<circle cx="500" cy="142.369" r="4" fill="#0" id="circle100"/>
	<circle cx="504.258" cy="423.365" r="4" fill="#0" id="circle101"/>
	<circle cx="514.901" cy="159.399" r="4" fill="#0" id="circle102"/>
	<circle cx="514.901" cy="442.524" r="4" fill="#0" id="circle103"/>
	<circle cx="531.931" cy="174.3" r="4" fill="#0" id="circle104"/>
	<circle cx="534.06" cy="453.167" r="4" fill="#0" id="circle105"/>
	<circle cx="538.318" cy="195.588" r="4" fill="#0" id="circle106"/>
	<circle cx="548.961" cy="214.747" r="4" fill="#0" id="circle107"/>
	<circle cx="553.219" cy="463.811" r="4" fill="#0" id="circle108"/>
	<circle cx="559.605" cy="233.906" r="4" fill="#0" id="circle109"/>
	<circle cx="570.249" cy="253.064" r="4" fill="#0" id="circle110"/>
	<circle cx="574.506" cy="463.811" r="4" fill="#0" id="circle111"/>
	<circle cx="576.635" cy="274.352" r="4" fill="#0" id="circle112"/>
	<circle cx="580.893" cy="295.639" r="4" fill="#0" id="circle113"/>
	<circle cx="587.279" cy="316.927" r="4" fill="#0" id="circle114"/>
	<circle cx="593.665" cy="474.455" r="4" fill="#0" id="circle115"/>
	<circle cx="597.923" cy="336.086" r="4" fill="#0" id="circle116"/>
	<circle cx="606.438" cy="357.373" r="4" fill="#0" id="circle117"/>
	<circle cx="614.953" cy="480.841" r="4" fill="#0" id="circle118"/>
	<circle cx="617.082" cy="376.532" r="4" fill="#0" id="circle119"/>
	<circle cx="623.468" cy="397.82" r="4" fill="#0" id="circle120"/>
	<circle cx="634.112" cy="416.979" r="4" fill="#0" id="circle121"/>
	<circle cx="636.24" cy="485.099" r="4" fill="#0" id="circle122"/>
	<circle cx="655.399" cy="419.107" r="4" fill="#0" id="circle123"/>
	<circle cx="657.528" cy="491.485" r="4" fill="#0" id="circle124"/>
	<circle cx="676.687" cy="419.107" r="4" fill="#0" id="circle125"/>
	<circle cx="678.815" cy="495.742" r="4" fill="#0" id="circle126"/>
	<circle cx="697.974" cy="419.107" r="4" fill="#0" id="circle127"/>
	<circle cx="700.103" cy="495.742" r="4" fill="#0" id="circle128"/>
	<circle cx="719.262" cy="419.107" r="4" fill="#0" id="circle129"/>
	<circle cx="721.391" cy="502.129" r="4" fill="#0" id="circle130"/>
	<circle cx="740.549" cy="419.107" r="4" fill="#0" id="circle131"/>
	<circle cx="742.678" cy="506.386" r="4" fill="#0" id="circle132"/>
	<circle cx="761.837" cy="419.107" r="4" fill="#0" id="circle133"/>
	<circle cx="763.966" cy="506.386" r="4" fill="#0" id="circle134"/>
	<circle cx="783.124" cy="419.107" r="4" fill="#0" id="circle135"/>
	<circle cx="785.253" cy="506.386" r="4" fill="#0" id="circle136"/>
	<circle cx="804.412" cy="419.107" r="4" fill="#0" id="circle137"/>
	<circle cx="806.541" cy="506.386" r="4" fill="#0" id="circle138"/>
	<circle cx="825.7" cy="419.107" r="4" fill="#0" id="circle139"/>
	<circle cx="827.828" cy="506.386" r="4" fill="#0" id="circle140"/>
	<circle cx="846.987" cy="419.107" r="4" fill="#0" id="circle141"/>
	<circle cx="849.116" cy="506.386" r="4" fill="#0" id="circle142"/>
	<circle cx="866.146" cy="408.464" r="4" fill="#0" id="circle143"/>
	<circle cx="868.275" cy="517.03" r="4" fill="#0" id="circle144"/>
	<circle cx="885.305" cy="397.82" r="4" fill="#0" id="circle145"/>
	<circle cx="889.562" cy="521.288" r="4" fill="#0" id="circle146"/>
	<circle cx="900.206" cy="380.79" r="4" fill="#0" id="circle147"/>
	<circle cx="904.464" cy="538.318" r="4" fill="#0" id="circle148"/>
	<circle cx="917.236" cy="365.888" r="4" fill="#0" id="circle149"/>
	<circle cx="921.494" cy="553.219" r="4" fill="#0" id="circle150"/>
	<circle cx="936.395" cy="355.245" r="4" fill="#0" id="circle151"/>
	<circle cx="936.395" cy="570.249" r="4" fill="#0" id="circle152"/>
	<circle cx="953.425" cy="585.15" r="4" fill="#0" id="circle153"/>
	<circle cx="957.682" cy="355.245" r="4" fill="#0" id="circle154"/>
	<circle cx="974.712" cy="591.536" r="4" fill="#0" id="circle155"/>
	<circle cx="978.97" cy="355.245" r="4" fill="#0" id="circle156"/>
	<circle cx="987.485" cy="608.567" r="4" fill="#0" id="circle157"/>
	<circle cx="996" cy="368.017" r="4" fill="#0" id="circle158"/>
	<circle cx="996" cy="389.305" r="4" fill="#0" id="circle159"/>
	<circle cx="996" cy="410.592" r="4" fill="#0" id="circle160"/>
	<circle cx="996" cy="431.88" r="4" fill="#0" id="circle161"/>
	<circle cx="996" cy="453.167" r="4" fill="#0" id="circle162"/>
	<circle cx="996" cy="474.455" r="4" fill="#0" id="circle163"/>
	<circle cx="996" cy="495.742" r="4" fill="#0" id="circle164"/>
	<circle cx="996" cy="517.03" r="4" fill="#0" id="circle165"/>
	<circle cx="996" cy="538.318" r="4" fill="#0" id="circle166"/>
	<circle cx="996" cy="559.605" r="4" fill="#0" id="circle167"/>
	<circle cx="996" cy="580.893" r="4" fill="#0" id="circle168"/>
	</g>
</svg>