<?xml version="1.0" encoding="UTF-8" standalone="no"?>
<!-- Created with CurveBenchmark -->
<svg
	xmlns:dc="http://purl.org/dc/elements/1.1/"
	xmlns:cc="http://creativecommons.org/ns#"
	xmlns:rdf="http://www.w3.org/1999/02/22-rdf-syntax-ns#"
	xmlns:svg="http://www.w3.org/2000/svg"
	xmlns="http://www.w3.org/2000/svg"
	xmlns:sodipodi="http://sodipodi.sourceforge.net/DTD/sodipodi-0.dtd"
	xmlns:inkscape="http://www.inkscape.org/namespaces/inkscape"
	width="1000"
	height="1000"
	id="svg2"
	version="1.1"
	sodipodi:docname="manifold/gathang-brick-10.png.txt">
<defs
	id="defs4" />
<metadata
	id="metadata7">
	<rdf:RDF>
		<cc:Work
			rdf:about="">
			<dc:format>image/svg+xml</dc:format>
			<dc:type
				rdf:resource="http://purl.org/dc/dcmitype/StillImage" />
			<dc:title></dc:title>
		</cc:Work>
	</rdf:RDF>
</metadata>
<g
	inkscape:label="Layer 1"
	inkscape:groupmode="layer"
	id="layer1">
	<path style="fill:none;stroke:red;stroke-width:1px;stroke-linecap:butt;stroke-linejoin:miter;stroke-opacity:1" d="M 107.915,4 117.536,4 z" id="boundary" inkscape:connector-curvature="0" />
	<path style="fill:none;stroke:red;stroke-width:1px;stroke-linecap:butt;stroke-linejoin:miter;stroke-opacity:1" d="M 117.536,4 127.158,4 z" id="boundary" inkscape:connector-curvature="0" />
	<path style="fill:none;stroke:red;stroke-width:1px;stroke-linecap:butt;stroke-linejoin:miter;stroke-opacity:1" d="M 100.217,11.6974 100.217,21.3191 z" id="boundary" inkscape:connector-curvature="0" />
	<path style="fill:none;stroke:red;stroke-width:1px;stroke-linecap:butt;stroke-linejoin:miter;stroke-opacity:1" d="M 107.915,28.0543 100.217,21.3191 z" id="boundary" inkscape:connector-curvature="0" />
	<path style="fill:none;stroke:red;stroke-width:1px;stroke-linecap:butt;stroke-linejoin:miter;stroke-opacity:1" d="M 127.158,4 136.78,4 z" id="boundary" inkscape:connector-curvature="0" />
	<path style="fill:none;stroke:red;stroke-width:1px;stroke-linecap:butt;stroke-linejoin:miter;stroke-opacity:1" d="M 100.217,11.6974 107.915,4 z" id="boundary" inkscape:connector-curvature="0" />
	<path style="fill:none;stroke:red;stroke-width:1px;stroke-linecap:butt;stroke-linejoin:miter;stroke-opacity:1" d="M 111.763,37.676 107.915,28.0543 z" id="boundary" inkscape:connector-curvature="0" />
	<path style="fill:none;stroke:red;stroke-width:1px;stroke-linecap:butt;stroke-linejoin:miter;stroke-opacity:1" d="M 136.78,4 146.402,4 z" id="boundary" inkscape:connector-curvature="0" />
	<path style="fill:none;stroke:red;stroke-width:1px;stroke-linecap:butt;stroke-linejoin:miter;stroke-opacity:1" d="M 156.023,4 165.645,4 z" id="boundary" inkscape:connector-curvature="0" />
	<path style="fill:none;stroke:red;stroke-width:1px;stroke-linecap:butt;stroke-linejoin:miter;stroke-opacity:1" d="M 146.402,4 156.023,4 z" id="boundary" inkscape:connector-curvature="0" />
	<path style="fill:none;stroke:red;stroke-width:1px;stroke-linecap:butt;stroke-linejoin:miter;stroke-opacity:1" d="M 175.267,4 184.888,4 z" id="boundary" inkscape:connector-curvature="0" />
	<path style="fill:none;stroke:red;stroke-width:1px;stroke-linecap:butt;stroke-linejoin:miter;stroke-opacity:1" d="M 184.888,4 194.51,4 z" id="boundary" inkscape:connector-curvature="0" />
	<path style="fill:none;stroke:red;stroke-width:1px;stroke-linecap:butt;stroke-linejoin:miter;stroke-opacity:1" d="M 165.645,4 175.267,4 z" id="boundary" inkscape:connector-curvature="0" />
	<path style="fill:none;stroke:red;stroke-width:1px;stroke-linecap:butt;stroke-linejoin:miter;stroke-opacity:1" d="M 194.51,4 204.132,4 z" id="boundary" inkscape:connector-curvature="0" />
	<path style="fill:none;stroke:red;stroke-width:1px;stroke-linecap:butt;stroke-linejoin:miter;stroke-opacity:1" d="M 81.936,131.007 91.5577,126.196 z" id="boundary" inkscape:connector-curvature="0" />
	<path style="fill:none;stroke:red;stroke-width:1px;stroke-linecap:butt;stroke-linejoin:miter;stroke-opacity:1" d="M 75.2008,138.704 81.936,131.007 z" id="boundary" inkscape:connector-curvature="0" />
	<path style="fill:none;stroke:red;stroke-width:1px;stroke-linecap:butt;stroke-linejoin:miter;stroke-opacity:1" d="M 99.2551,119.461 91.5577,126.196 z" id="boundary" inkscape:connector-curvature="0" />
	<path style="fill:none;stroke:red;stroke-width:1px;stroke-linecap:butt;stroke-linejoin:miter;stroke-opacity:1" d="M 99.2551,119.461 107.915,114.65 z" id="boundary" inkscape:connector-curvature="0" />
	<path style="fill:none;stroke:red;stroke-width:1px;stroke-linecap:butt;stroke-linejoin:miter;stroke-opacity:1" d="M 114.65,103.104 107.915,114.65 z" id="boundary" inkscape:connector-curvature="0" />
	<path style="fill:none;stroke:red;stroke-width:1px;stroke-linecap:butt;stroke-linejoin:miter;stroke-opacity:1" d="M 53.0708,159.872 60.7682,153.137 z" id="boundary" inkscape:connector-curvature="0" />
	<path style="fill:none;stroke:red;stroke-width:1px;stroke-linecap:butt;stroke-linejoin:miter;stroke-opacity:1" d="M 67.5034,145.439 60.7682,153.137 z" id="boundary" inkscape:connector-curvature="0" />
	<path style="fill:none;stroke:red;stroke-width:1px;stroke-linecap:butt;stroke-linejoin:miter;stroke-opacity:1" d="M 67.5034,145.439 75.2008,138.704 z" id="boundary" inkscape:connector-curvature="0" />
	<path style="fill:none;stroke:red;stroke-width:1px;stroke-linecap:butt;stroke-linejoin:miter;stroke-opacity:1" d="M 111.763,37.676 116.574,46.3356 z" id="boundary" inkscape:connector-curvature="0" />
	<path style="fill:none;stroke:red;stroke-width:1px;stroke-linecap:butt;stroke-linejoin:miter;stroke-opacity:1" d="M 116.574,46.3356 119.461,55.9573 z" id="boundary" inkscape:connector-curvature="0" />
	<path style="fill:none;stroke:red;stroke-width:1px;stroke-linecap:butt;stroke-linejoin:miter;stroke-opacity:1" d="M 119.461,55.9573 124.272,64.6169 z" id="boundary" inkscape:connector-curvature="0" />
	<path style="fill:none;stroke:red;stroke-width:1px;stroke-linecap:butt;stroke-linejoin:miter;stroke-opacity:1" d="M 124.272,64.6169 124.272,74.2386 z" id="boundary" inkscape:connector-curvature="0" />
	<path style="fill:none;stroke:red;stroke-width:1px;stroke-linecap:butt;stroke-linejoin:miter;stroke-opacity:1" d="M 124.272,98.2929 114.65,103.104 z" id="boundary" inkscape:connector-curvature="0" />
	<path style="fill:none;stroke:red;stroke-width:1px;stroke-linecap:butt;stroke-linejoin:miter;stroke-opacity:1" d="M 124.272,98.2929 129.082,82.8982 z" id="boundary" inkscape:connector-curvature="0" />
	<path style="fill:none;stroke:red;stroke-width:1px;stroke-linecap:butt;stroke-linejoin:miter;stroke-opacity:1" d="M 124.272,74.2386 129.082,82.8982 z" id="boundary" inkscape:connector-curvature="0" />
	<path style="fill:none;stroke:red;stroke-width:1px;stroke-linecap:butt;stroke-linejoin:miter;stroke-opacity:1" d="M 204.132,4 213.754,4 z" id="boundary" inkscape:connector-curvature="0" />
	<path style="fill:none;stroke:red;stroke-width:1px;stroke-linecap:butt;stroke-linejoin:miter;stroke-opacity:1" d="M 213.754,4 222.413,8.81086 z" id="boundary" inkscape:connector-curvature="0" />
	<path style="fill:none;stroke:red;stroke-width:1px;stroke-linecap:butt;stroke-linejoin:miter;stroke-opacity:1" d="M 231.073,13.6217 238.77,19.3948 z" id="boundary" inkscape:connector-curvature="0" />
	<path style="fill:none;stroke:red;stroke-width:1px;stroke-linecap:butt;stroke-linejoin:miter;stroke-opacity:1" d="M 231.073,13.6217 222.413,8.81086 z" id="boundary" inkscape:connector-curvature="0" />
	<path style="fill:none;stroke:red;stroke-width:1px;stroke-linecap:butt;stroke-linejoin:miter;stroke-opacity:1" d="M 238.77,19.3948 247.43,24.2056 z" id="boundary" inkscape:connector-curvature="0" />
	<path style="fill:none;stroke:red;stroke-width:1px;stroke-linecap:butt;stroke-linejoin:miter;stroke-opacity:1" d="M 247.43,24.2056 255.127,30.9408 z" id="boundary" inkscape:connector-curvature="0" />
	<path style="fill:none;stroke:red;stroke-width:1px;stroke-linecap:butt;stroke-linejoin:miter;stroke-opacity:1" d="M 263.787,35.7517 255.127,30.9408 z" id="boundary" inkscape:connector-curvature="0" />
	<path style="fill:none;stroke:red;stroke-width:1px;stroke-linecap:butt;stroke-linejoin:miter;stroke-opacity:1" d="M 263.787,35.7517 273.408,39.6004 z" id="boundary" inkscape:connector-curvature="0" />
	<path style="fill:none;stroke:red;stroke-width:1px;stroke-linecap:butt;stroke-linejoin:miter;stroke-opacity:1" d="M 282.068,44.4113 273.408,39.6004 z" id="boundary" inkscape:connector-curvature="0" />
	<path style="fill:none;stroke:red;stroke-width:1px;stroke-linecap:butt;stroke-linejoin:miter;stroke-opacity:1" d="M 282.068,44.4113 288.803,52.1086 z" id="boundary" inkscape:connector-curvature="0" />
	<path style="fill:none;stroke:red;stroke-width:1px;stroke-linecap:butt;stroke-linejoin:miter;stroke-opacity:1" d="M 463.919,42.4869 454.297,42.4869 z" id="boundary" inkscape:connector-curvature="0" />
	<path style="fill:none;stroke:red;stroke-width:1px;stroke-linecap:butt;stroke-linejoin:miter;stroke-opacity:1" d="M 501.443,33.8274 491.822,37.676 z" id="boundary" inkscape:connector-curvature="0" />
	<path style="fill:none;stroke:red;stroke-width:1px;stroke-linecap:butt;stroke-linejoin:miter;stroke-opacity:1" d="M 491.822,37.676 482.2,37.676 z" id="boundary" inkscape:connector-curvature="0" />
	<path style="fill:none;stroke:red;stroke-width:1px;stroke-linecap:butt;stroke-linejoin:miter;stroke-opacity:1" d="M 473.54,42.4869 482.2,37.676 z" id="boundary" inkscape:connector-curvature="0" />
	<path style="fill:none;stroke:red;stroke-width:1px;stroke-linecap:butt;stroke-linejoin:miter;stroke-opacity:1" d="M 425.432,47.2978 435.053,47.2978 z" id="boundary" inkscape:connector-curvature="0" />
	<path style="fill:none;stroke:red;stroke-width:1px;stroke-linecap:butt;stroke-linejoin:miter;stroke-opacity:1" d="M 415.81,52.1086 425.432,47.2978 z" id="boundary" inkscape:connector-curvature="0" />
	<path style="fill:none;stroke:red;stroke-width:1px;stroke-linecap:butt;stroke-linejoin:miter;stroke-opacity:1" d="M 444.675,47.2978 454.297,42.4869 z" id="boundary" inkscape:connector-curvature="0" />
	<path style="fill:none;stroke:red;stroke-width:1px;stroke-linecap:butt;stroke-linejoin:miter;stroke-opacity:1" d="M 473.54,42.4869 463.919,42.4869 z" id="boundary" inkscape:connector-curvature="0" />
	<path style="fill:none;stroke:red;stroke-width:1px;stroke-linecap:butt;stroke-linejoin:miter;stroke-opacity:1" d="M 444.675,47.2978 435.053,47.2978 z" id="boundary" inkscape:connector-curvature="0" />
	<path style="fill:none;stroke:red;stroke-width:1px;stroke-linecap:butt;stroke-linejoin:miter;stroke-opacity:1" d="M 288.803,52.1086 297.463,56.9195 z" id="boundary" inkscape:connector-curvature="0" />
	<path style="fill:none;stroke:red;stroke-width:1px;stroke-linecap:butt;stroke-linejoin:miter;stroke-opacity:1" d="M 297.463,56.9195 305.16,62.6925 z" id="boundary" inkscape:connector-curvature="0" />
	<path style="fill:none;stroke:red;stroke-width:1px;stroke-linecap:butt;stroke-linejoin:miter;stroke-opacity:1" d="M 305.16,62.6925 312.857,69.4277 z" id="boundary" inkscape:connector-curvature="0" />
	<path style="fill:none;stroke:red;stroke-width:1px;stroke-linecap:butt;stroke-linejoin:miter;stroke-opacity:1" d="M 312.857,69.4277 320.555,76.1629 z" id="boundary" inkscape:connector-curvature="0" />
	<path style="fill:none;stroke:red;stroke-width:1px;stroke-linecap:butt;stroke-linejoin:miter;stroke-opacity:1" d="M 330.177,76.1629 320.555,76.1629 z" id="boundary" inkscape:connector-curvature="0" />
	<path style="fill:none;stroke:red;stroke-width:1px;stroke-linecap:butt;stroke-linejoin:miter;stroke-opacity:1" d="M 330.177,76.1629 339.798,76.1629 z" id="boundary" inkscape:connector-curvature="0" />
	<path style="fill:none;stroke:red;stroke-width:1px;stroke-linecap:butt;stroke-linejoin:miter;stroke-opacity:1" d="M 358.08,71.3521 349.42,76.1629 z" id="boundary" inkscape:connector-curvature="0" />
	<path style="fill:none;stroke:red;stroke-width:1px;stroke-linecap:butt;stroke-linejoin:miter;stroke-opacity:1" d="M 349.42,76.1629 339.798,76.1629 z" id="boundary" inkscape:connector-curvature="0" />
	<path style="fill:none;stroke:red;stroke-width:1px;stroke-linecap:butt;stroke-linejoin:miter;stroke-opacity:1" d="M 396.566,56.9195 406.188,52.1086 z" id="boundary" inkscape:connector-curvature="0" />
	<path style="fill:none;stroke:red;stroke-width:1px;stroke-linecap:butt;stroke-linejoin:miter;stroke-opacity:1" d="M 406.188,52.1086 415.81,52.1086 z" id="boundary" inkscape:connector-curvature="0" />
	<path style="fill:none;stroke:red;stroke-width:1px;stroke-linecap:butt;stroke-linejoin:miter;stroke-opacity:1" d="M 386.945,61.7304 396.566,56.9195 z" id="boundary" inkscape:connector-curvature="0" />
	<path style="fill:none;stroke:red;stroke-width:1px;stroke-linecap:butt;stroke-linejoin:miter;stroke-opacity:1" d="M 358.08,71.3521 367.701,66.5412 z" id="boundary" inkscape:connector-curvature="0" />
	<path style="fill:none;stroke:red;stroke-width:1px;stroke-linecap:butt;stroke-linejoin:miter;stroke-opacity:1" d="M 377.323,61.7304 386.945,61.7304 z" id="boundary" inkscape:connector-curvature="0" />
	<path style="fill:none;stroke:red;stroke-width:1px;stroke-linecap:butt;stroke-linejoin:miter;stroke-opacity:1" d="M 367.701,66.5412 377.323,61.7304 z" id="boundary" inkscape:connector-curvature="0" />
	<path style="fill:none;stroke:red;stroke-width:1px;stroke-linecap:butt;stroke-linejoin:miter;stroke-opacity:1" d="M 4,208.943 4,199.321 z" id="boundary" inkscape:connector-curvature="0" />
	<path style="fill:none;stroke:red;stroke-width:1px;stroke-linecap:butt;stroke-linejoin:miter;stroke-opacity:1" d="M 4,199.321 13.6217,194.51 z" id="boundary" inkscape:connector-curvature="0" />
	<path style="fill:none;stroke:red;stroke-width:1px;stroke-linecap:butt;stroke-linejoin:miter;stroke-opacity:1" d="M 8.81086,217.602 4,208.943 z" id="boundary" inkscape:connector-curvature="0" />
	<path style="fill:none;stroke:red;stroke-width:1px;stroke-linecap:butt;stroke-linejoin:miter;stroke-opacity:1" d="M 23.2435,189.699 13.6217,194.51 z" id="boundary" inkscape:connector-curvature="0" />
	<path style="fill:none;stroke:red;stroke-width:1px;stroke-linecap:butt;stroke-linejoin:miter;stroke-opacity:1" d="M 28.0543,180.078 23.2435,189.699 z" id="boundary" inkscape:connector-curvature="0" />
	<path style="fill:none;stroke:red;stroke-width:1px;stroke-linecap:butt;stroke-linejoin:miter;stroke-opacity:1" d="M 13.6217,226.262 8.81086,217.602 z" id="boundary" inkscape:connector-curvature="0" />
	<path style="fill:none;stroke:red;stroke-width:1px;stroke-linecap:butt;stroke-linejoin:miter;stroke-opacity:1" d="M 19.3948,233.959 24.2056,242.619 z" id="boundary" inkscape:connector-curvature="0" />
	<path style="fill:none;stroke:red;stroke-width:1px;stroke-linecap:butt;stroke-linejoin:miter;stroke-opacity:1" d="M 13.6217,226.262 19.3948,233.959 z" id="boundary" inkscape:connector-curvature="0" />
	<path style="fill:none;stroke:red;stroke-width:1px;stroke-linecap:butt;stroke-linejoin:miter;stroke-opacity:1" d="M 30.9408,250.316 24.2056,242.619 z" id="boundary" inkscape:connector-curvature="0" />
	<path style="fill:none;stroke:red;stroke-width:1px;stroke-linecap:butt;stroke-linejoin:miter;stroke-opacity:1" d="M 28.0543,180.078 37.676,175.267 z" id="boundary" inkscape:connector-curvature="0" />
	<path style="fill:none;stroke:red;stroke-width:1px;stroke-linecap:butt;stroke-linejoin:miter;stroke-opacity:1" d="M 37.676,175.267 45.3734,167.569 z" id="boundary" inkscape:connector-curvature="0" />
	<path style="fill:none;stroke:red;stroke-width:1px;stroke-linecap:butt;stroke-linejoin:miter;stroke-opacity:1" d="M 53.0708,159.872 45.3734,167.569 z" id="boundary" inkscape:connector-curvature="0" />
	<path style="fill:none;stroke:red;stroke-width:1px;stroke-linecap:butt;stroke-linejoin:miter;stroke-opacity:1" d="M 35.7517,258.976 42.4869,266.673 z" id="boundary" inkscape:connector-curvature="0" />
	<path style="fill:none;stroke:red;stroke-width:1px;stroke-linecap:butt;stroke-linejoin:miter;stroke-opacity:1" d="M 42.4869,266.673 47.2978,275.333 z" id="boundary" inkscape:connector-curvature="0" />
	<path style="fill:none;stroke:red;stroke-width:1px;stroke-linecap:butt;stroke-linejoin:miter;stroke-opacity:1" d="M 35.7517,258.976 30.9408,250.316 z" id="boundary" inkscape:connector-curvature="0" />
	<path style="fill:none;stroke:red;stroke-width:1px;stroke-linecap:butt;stroke-linejoin:miter;stroke-opacity:1" d="M 54.033,283.03 61.7304,288.803 z" id="boundary" inkscape:connector-curvature="0" />
	<path style="fill:none;stroke:red;stroke-width:1px;stroke-linecap:butt;stroke-linejoin:miter;stroke-opacity:1" d="M 61.7304,288.803 67.5034,296.5 z" id="boundary" inkscape:connector-curvature="0" />
	<path style="fill:none;stroke:red;stroke-width:1px;stroke-linecap:butt;stroke-linejoin:miter;stroke-opacity:1" d="M 95.4064,293.614 85.7847,293.614 z" id="boundary" inkscape:connector-curvature="0" />
	<path style="fill:none;stroke:red;stroke-width:1px;stroke-linecap:butt;stroke-linejoin:miter;stroke-opacity:1" d="M 54.033,283.03 47.2978,275.333 z" id="boundary" inkscape:connector-curvature="0" />
	<path style="fill:none;stroke:red;stroke-width:1px;stroke-linecap:butt;stroke-linejoin:miter;stroke-opacity:1" d="M 85.7847,293.614 77.1251,298.425 z" id="boundary" inkscape:connector-curvature="0" />
	<path style="fill:none;stroke:red;stroke-width:1px;stroke-linecap:butt;stroke-linejoin:miter;stroke-opacity:1" d="M 77.1251,298.425 67.5034,296.5 z" id="boundary" inkscape:connector-curvature="0" />
	<path style="fill:none;stroke:red;stroke-width:1px;stroke-linecap:butt;stroke-linejoin:miter;stroke-opacity:1" d="M 95.4064,293.614 105.028,293.614 z" id="boundary" inkscape:connector-curvature="0" />
	<path style="fill:none;stroke:red;stroke-width:1px;stroke-linecap:butt;stroke-linejoin:miter;stroke-opacity:1" d="M 113.688,288.803 105.028,293.614 z" id="boundary" inkscape:connector-curvature="0" />
	<path style="fill:none;stroke:red;stroke-width:1px;stroke-linecap:butt;stroke-linejoin:miter;stroke-opacity:1" d="M 113.688,288.803 123.309,288.803 z" id="boundary" inkscape:connector-curvature="0" />
	<path style="fill:none;stroke:red;stroke-width:1px;stroke-linecap:butt;stroke-linejoin:miter;stroke-opacity:1" d="M 160.834,283.992 169.494,279.181 z" id="boundary" inkscape:connector-curvature="0" />
	<path style="fill:none;stroke:red;stroke-width:1px;stroke-linecap:butt;stroke-linejoin:miter;stroke-opacity:1" d="M 169.494,279.181 179.115,279.181 z" id="boundary" inkscape:connector-curvature="0" />
	<path style="fill:none;stroke:red;stroke-width:1px;stroke-linecap:butt;stroke-linejoin:miter;stroke-opacity:1" d="M 188.737,279.181 179.115,279.181 z" id="boundary" inkscape:connector-curvature="0" />
	<path style="fill:none;stroke:red;stroke-width:1px;stroke-linecap:butt;stroke-linejoin:miter;stroke-opacity:1" d="M 197.397,274.371 188.737,279.181 z" id="boundary" inkscape:connector-curvature="0" />
	<path style="fill:none;stroke:red;stroke-width:1px;stroke-linecap:butt;stroke-linejoin:miter;stroke-opacity:1" d="M 141.591,283.992 151.212,283.992 z" id="boundary" inkscape:connector-curvature="0" />
	<path style="fill:none;stroke:red;stroke-width:1px;stroke-linecap:butt;stroke-linejoin:miter;stroke-opacity:1" d="M 123.309,288.803 131.969,283.992 z" id="boundary" inkscape:connector-curvature="0" />
	<path style="fill:none;stroke:red;stroke-width:1px;stroke-linecap:butt;stroke-linejoin:miter;stroke-opacity:1" d="M 131.969,283.992 141.591,283.992 z" id="boundary" inkscape:connector-curvature="0" />
	<path style="fill:none;stroke:red;stroke-width:1px;stroke-linecap:butt;stroke-linejoin:miter;stroke-opacity:1" d="M 151.212,283.992 160.834,283.992 z" id="boundary" inkscape:connector-curvature="0" />
	<path style="fill:none;stroke:red;stroke-width:1px;stroke-linecap:butt;stroke-linejoin:miter;stroke-opacity:1" d="M 197.397,274.371 207.018,274.371 z" id="boundary" inkscape:connector-curvature="0" />
	<path style="fill:none;stroke:red;stroke-width:1px;stroke-linecap:butt;stroke-linejoin:miter;stroke-opacity:1" d="M 207.018,274.371 216.64,274.371 z" id="boundary" inkscape:connector-curvature="0" />
	<path style="fill:none;stroke:red;stroke-width:1px;stroke-linecap:butt;stroke-linejoin:miter;stroke-opacity:1" d="M 226.262,276.295 234.921,281.106 z" id="boundary" inkscape:connector-curvature="0" />
	<path style="fill:none;stroke:red;stroke-width:1px;stroke-linecap:butt;stroke-linejoin:miter;stroke-opacity:1" d="M 216.64,274.371 226.262,276.295 z" id="boundary" inkscape:connector-curvature="0" />
	<path style="fill:none;stroke:red;stroke-width:1px;stroke-linecap:butt;stroke-linejoin:miter;stroke-opacity:1" d="M 244.543,283.992 234.921,281.106 z" id="boundary" inkscape:connector-curvature="0" />
	<path style="fill:none;stroke:red;stroke-width:1px;stroke-linecap:butt;stroke-linejoin:miter;stroke-opacity:1" d="M 244.543,283.992 253.203,288.803 z" id="boundary" inkscape:connector-curvature="0" />
	<path style="fill:none;stroke:red;stroke-width:1px;stroke-linecap:butt;stroke-linejoin:miter;stroke-opacity:1" d="M 261.862,293.614 270.522,298.425 z" id="boundary" inkscape:connector-curvature="0" />
	<path style="fill:none;stroke:red;stroke-width:1px;stroke-linecap:butt;stroke-linejoin:miter;stroke-opacity:1" d="M 261.862,293.614 253.203,288.803 z" id="boundary" inkscape:connector-curvature="0" />
	<path style="fill:none;stroke:red;stroke-width:1px;stroke-linecap:butt;stroke-linejoin:miter;stroke-opacity:1" d="M 270.522,298.425 279.181,303.236 z" id="boundary" inkscape:connector-curvature="0" />
	<path style="fill:none;stroke:red;stroke-width:1px;stroke-linecap:butt;stroke-linejoin:miter;stroke-opacity:1" d="M 279.181,303.236 287.841,308.047 z" id="boundary" inkscape:connector-curvature="0" />
	<path style="fill:none;stroke:red;stroke-width:1px;stroke-linecap:butt;stroke-linejoin:miter;stroke-opacity:1" d="M 297.463,308.047 287.841,308.047 z" id="boundary" inkscape:connector-curvature="0" />
	<path style="fill:none;stroke:red;stroke-width:1px;stroke-linecap:butt;stroke-linejoin:miter;stroke-opacity:1" d="M 297.463,308.047 306.122,312.857 z" id="boundary" inkscape:connector-curvature="0" />
	<path style="fill:none;stroke:red;stroke-width:1px;stroke-linecap:butt;stroke-linejoin:miter;stroke-opacity:1" d="M 473.54,312.857 482.2,308.047 z" id="boundary" inkscape:connector-curvature="0" />
	<path style="fill:none;stroke:red;stroke-width:1px;stroke-linecap:butt;stroke-linejoin:miter;stroke-opacity:1" d="M 482.2,308.047 491.822,308.047 z" id="boundary" inkscape:connector-curvature="0" />
	<path style="fill:none;stroke:red;stroke-width:1px;stroke-linecap:butt;stroke-linejoin:miter;stroke-opacity:1" d="M 463.919,312.857 454.297,312.857 z" id="boundary" inkscape:connector-curvature="0" />
	<path style="fill:none;stroke:red;stroke-width:1px;stroke-linecap:butt;stroke-linejoin:miter;stroke-opacity:1" d="M 473.54,312.857 463.919,312.857 z" id="boundary" inkscape:connector-curvature="0" />
	<path style="fill:none;stroke:red;stroke-width:1px;stroke-linecap:butt;stroke-linejoin:miter;stroke-opacity:1" d="M 445.637,317.668 454.297,312.857 z" id="boundary" inkscape:connector-curvature="0" />
	<path style="fill:none;stroke:red;stroke-width:1px;stroke-linecap:butt;stroke-linejoin:miter;stroke-opacity:1" d="M 306.122,312.857 314.782,317.668 z" id="boundary" inkscape:connector-curvature="0" />
	<path style="fill:none;stroke:red;stroke-width:1px;stroke-linecap:butt;stroke-linejoin:miter;stroke-opacity:1" d="M 314.782,317.668 324.403,321.517 z" id="boundary" inkscape:connector-curvature="0" />
	<path style="fill:none;stroke:red;stroke-width:1px;stroke-linecap:butt;stroke-linejoin:miter;stroke-opacity:1" d="M 324.403,321.517 333.063,326.328 z" id="boundary" inkscape:connector-curvature="0" />
	<path style="fill:none;stroke:red;stroke-width:1px;stroke-linecap:butt;stroke-linejoin:miter;stroke-opacity:1" d="M 333.063,326.328 342.685,330.177 z" id="boundary" inkscape:connector-curvature="0" />
	<path style="fill:none;stroke:red;stroke-width:1px;stroke-linecap:butt;stroke-linejoin:miter;stroke-opacity:1" d="M 352.306,332.101 342.685,330.177 z" id="boundary" inkscape:connector-curvature="0" />
	<path style="fill:none;stroke:red;stroke-width:1px;stroke-linecap:butt;stroke-linejoin:miter;stroke-opacity:1" d="M 352.306,332.101 360.966,336.912 z" id="boundary" inkscape:connector-curvature="0" />
	<path style="fill:none;stroke:red;stroke-width:1px;stroke-linecap:butt;stroke-linejoin:miter;stroke-opacity:1" d="M 370.588,336.912 379.247,332.101 z" id="boundary" inkscape:connector-curvature="0" />
	<path style="fill:none;stroke:red;stroke-width:1px;stroke-linecap:butt;stroke-linejoin:miter;stroke-opacity:1" d="M 379.247,332.101 388.869,329.214 z" id="boundary" inkscape:connector-curvature="0" />
	<path style="fill:none;stroke:red;stroke-width:1px;stroke-linecap:butt;stroke-linejoin:miter;stroke-opacity:1" d="M 370.588,336.912 360.966,336.912 z" id="boundary" inkscape:connector-curvature="0" />
	<path style="fill:none;stroke:red;stroke-width:1px;stroke-linecap:butt;stroke-linejoin:miter;stroke-opacity:1" d="M 426.394,322.479 436.016,320.555 z" id="boundary" inkscape:connector-curvature="0" />
	<path style="fill:none;stroke:red;stroke-width:1px;stroke-linecap:butt;stroke-linejoin:miter;stroke-opacity:1" d="M 417.734,327.29 426.394,322.479 z" id="boundary" inkscape:connector-curvature="0" />
	<path style="fill:none;stroke:red;stroke-width:1px;stroke-linecap:butt;stroke-linejoin:miter;stroke-opacity:1" d="M 436.016,320.555 445.637,317.668 z" id="boundary" inkscape:connector-curvature="0" />
	<path style="fill:none;stroke:red;stroke-width:1px;stroke-linecap:butt;stroke-linejoin:miter;stroke-opacity:1" d="M 388.869,329.214 398.491,327.29 z" id="boundary" inkscape:connector-curvature="0" />
	<path style="fill:none;stroke:red;stroke-width:1px;stroke-linecap:butt;stroke-linejoin:miter;stroke-opacity:1" d="M 398.491,327.29 408.113,327.29 z" id="boundary" inkscape:connector-curvature="0" />
	<path style="fill:none;stroke:red;stroke-width:1px;stroke-linecap:butt;stroke-linejoin:miter;stroke-opacity:1" d="M 408.113,327.29 417.734,327.29 z" id="boundary" inkscape:connector-curvature="0" />
	<path style="fill:none;stroke:red;stroke-width:1px;stroke-linecap:butt;stroke-linejoin:miter;stroke-opacity:1" d="M 491.822,308.047 501.443,308.047 z" id="boundary" inkscape:connector-curvature="0" />
	<path style="fill:none;stroke:red;stroke-width:1px;stroke-linecap:butt;stroke-linejoin:miter;stroke-opacity:1" d="M 501.443,33.8274 511.065,32.8652 z" id="boundary" inkscape:connector-curvature="0" />
	<path style="fill:none;stroke:red;stroke-width:1px;stroke-linecap:butt;stroke-linejoin:miter;stroke-opacity:1" d="M 538.968,28.0543 548.59,28.0543 z" id="boundary" inkscape:connector-curvature="0" />
	<path style="fill:none;stroke:red;stroke-width:1px;stroke-linecap:butt;stroke-linejoin:miter;stroke-opacity:1" d="M 530.308,32.8652 538.968,28.0543 z" id="boundary" inkscape:connector-curvature="0" />
	<path style="fill:none;stroke:red;stroke-width:1px;stroke-linecap:butt;stroke-linejoin:miter;stroke-opacity:1" d="M 558.211,28.0543 567.833,28.0543 z" id="boundary" inkscape:connector-curvature="0" />
	<path style="fill:none;stroke:red;stroke-width:1px;stroke-linecap:butt;stroke-linejoin:miter;stroke-opacity:1" d="M 558.211,28.0543 548.59,28.0543 z" id="boundary" inkscape:connector-curvature="0" />
	<path style="fill:none;stroke:red;stroke-width:1px;stroke-linecap:butt;stroke-linejoin:miter;stroke-opacity:1" d="M 567.833,28.0543 577.455,28.0543 z" id="boundary" inkscape:connector-curvature="0" />
	<path style="fill:none;stroke:red;stroke-width:1px;stroke-linecap:butt;stroke-linejoin:miter;stroke-opacity:1" d="M 587.077,28.0543 577.455,28.0543 z" id="boundary" inkscape:connector-curvature="0" />
	<path style="fill:none;stroke:red;stroke-width:1px;stroke-linecap:butt;stroke-linejoin:miter;stroke-opacity:1" d="M 596.698,28.0543 606.32,28.0543 z" id="boundary" inkscape:connector-curvature="0" />
	<path style="fill:none;stroke:red;stroke-width:1px;stroke-linecap:butt;stroke-linejoin:miter;stroke-opacity:1" d="M 596.698,28.0543 587.077,28.0543 z" id="boundary" inkscape:connector-curvature="0" />
	<path style="fill:none;stroke:red;stroke-width:1px;stroke-linecap:butt;stroke-linejoin:miter;stroke-opacity:1" d="M 615.942,28.0543 625.564,28.0543 z" id="boundary" inkscape:connector-curvature="0" />
	<path style="fill:none;stroke:red;stroke-width:1px;stroke-linecap:butt;stroke-linejoin:miter;stroke-opacity:1" d="M 635.185,28.0543 644.807,28.0543 z" id="boundary" inkscape:connector-curvature="0" />
	<path style="fill:none;stroke:red;stroke-width:1px;stroke-linecap:butt;stroke-linejoin:miter;stroke-opacity:1" d="M 635.185,28.0543 625.564,28.0543 z" id="boundary" inkscape:connector-curvature="0" />
	<path style="fill:none;stroke:red;stroke-width:1px;stroke-linecap:butt;stroke-linejoin:miter;stroke-opacity:1" d="M 654.429,28.0543 664.05,28.0543 z" id="boundary" inkscape:connector-curvature="0" />
	<path style="fill:none;stroke:red;stroke-width:1px;stroke-linecap:butt;stroke-linejoin:miter;stroke-opacity:1" d="M 673.672,28.0543 683.294,28.0543 z" id="boundary" inkscape:connector-curvature="0" />
	<path style="fill:none;stroke:red;stroke-width:1px;stroke-linecap:butt;stroke-linejoin:miter;stroke-opacity:1" d="M 673.672,28.0543 664.05,28.0543 z" id="boundary" inkscape:connector-curvature="0" />
	<path style="fill:none;stroke:red;stroke-width:1px;stroke-linecap:butt;stroke-linejoin:miter;stroke-opacity:1" d="M 654.429,28.0543 644.807,28.0543 z" id="boundary" inkscape:connector-curvature="0" />
	<path style="fill:none;stroke:red;stroke-width:1px;stroke-linecap:butt;stroke-linejoin:miter;stroke-opacity:1" d="M 615.942,28.0543 606.32,28.0543 z" id="boundary" inkscape:connector-curvature="0" />
	<path style="fill:none;stroke:red;stroke-width:1px;stroke-linecap:butt;stroke-linejoin:miter;stroke-opacity:1" d="M 520.687,32.8652 530.308,32.8652 z" id="boundary" inkscape:connector-curvature="0" />
	<path style="fill:none;stroke:red;stroke-width:1px;stroke-linecap:butt;stroke-linejoin:miter;stroke-opacity:1" d="M 520.687,32.8652 511.065,32.8652 z" id="boundary" inkscape:connector-curvature="0" />
	<path style="fill:none;stroke:red;stroke-width:1px;stroke-linecap:butt;stroke-linejoin:miter;stroke-opacity:1" d="M 701.575,32.8652 710.235,37.676 z" id="boundary" inkscape:connector-curvature="0" />
	<path style="fill:none;stroke:red;stroke-width:1px;stroke-linecap:butt;stroke-linejoin:miter;stroke-opacity:1" d="M 683.294,28.0543 692.916,28.0543 z" id="boundary" inkscape:connector-curvature="0" />
	<path style="fill:none;stroke:red;stroke-width:1px;stroke-linecap:butt;stroke-linejoin:miter;stroke-opacity:1" d="M 692.916,28.0543 701.575,32.8652 z" id="boundary" inkscape:connector-curvature="0" />
	<path style="fill:none;stroke:red;stroke-width:1px;stroke-linecap:butt;stroke-linejoin:miter;stroke-opacity:1" d="M 710.235,37.676 718.894,42.4869 z" id="boundary" inkscape:connector-curvature="0" />
	<path style="fill:none;stroke:red;stroke-width:1px;stroke-linecap:butt;stroke-linejoin:miter;stroke-opacity:1" d="M 727.554,47.2978 718.894,42.4869 z" id="boundary" inkscape:connector-curvature="0" />
	<path style="fill:none;stroke:red;stroke-width:1px;stroke-linecap:butt;stroke-linejoin:miter;stroke-opacity:1" d="M 736.213,52.1086 743.911,57.8817 z" id="boundary" inkscape:connector-curvature="0" />
	<path style="fill:none;stroke:red;stroke-width:1px;stroke-linecap:butt;stroke-linejoin:miter;stroke-opacity:1" d="M 743.911,57.8817 750.646,65.579 z" id="boundary" inkscape:connector-curvature="0" />
	<path style="fill:none;stroke:red;stroke-width:1px;stroke-linecap:butt;stroke-linejoin:miter;stroke-opacity:1" d="M 758.343,71.3521 750.646,65.579 z" id="boundary" inkscape:connector-curvature="0" />
	<path style="fill:none;stroke:red;stroke-width:1px;stroke-linecap:butt;stroke-linejoin:miter;stroke-opacity:1" d="M 767.003,76.1629 758.343,71.3521 z" id="boundary" inkscape:connector-curvature="0" />
	<path style="fill:none;stroke:red;stroke-width:1px;stroke-linecap:butt;stroke-linejoin:miter;stroke-opacity:1" d="M 727.554,47.2978 736.213,52.1086 z" id="boundary" inkscape:connector-curvature="0" />
	<path style="fill:none;stroke:red;stroke-width:1px;stroke-linecap:butt;stroke-linejoin:miter;stroke-opacity:1" d="M 767.003,76.1629 773.738,83.8603 z" id="boundary" inkscape:connector-curvature="0" />
	<path style="fill:none;stroke:red;stroke-width:1px;stroke-linecap:butt;stroke-linejoin:miter;stroke-opacity:1" d="M 781.435,90.5955 773.738,83.8603 z" id="boundary" inkscape:connector-curvature="0" />
	<path style="fill:none;stroke:red;stroke-width:1px;stroke-linecap:butt;stroke-linejoin:miter;stroke-opacity:1" d="M 781.435,90.5955 788.171,98.2929 z" id="boundary" inkscape:connector-curvature="0" />
	<path style="fill:none;stroke:red;stroke-width:1px;stroke-linecap:butt;stroke-linejoin:miter;stroke-opacity:1" d="M 876.691,90.5955 867.069,90.5955 z" id="boundary" inkscape:connector-curvature="0" />
	<path style="fill:none;stroke:red;stroke-width:1px;stroke-linecap:butt;stroke-linejoin:miter;stroke-opacity:1" d="M 905.556,85.7847 915.177,81.936 z" id="boundary" inkscape:connector-curvature="0" />
	<path style="fill:none;stroke:red;stroke-width:1px;stroke-linecap:butt;stroke-linejoin:miter;stroke-opacity:1" d="M 915.177,81.936 924.799,80.9738 z" id="boundary" inkscape:connector-curvature="0" />
	<path style="fill:none;stroke:red;stroke-width:1px;stroke-linecap:butt;stroke-linejoin:miter;stroke-opacity:1" d="M 905.556,85.7847 895.934,86.7468 z" id="boundary" inkscape:connector-curvature="0" />
	<path style="fill:none;stroke:red;stroke-width:1px;stroke-linecap:butt;stroke-linejoin:miter;stroke-opacity:1" d="M 886.312,90.5955 895.934,86.7468 z" id="boundary" inkscape:connector-curvature="0" />
	<path style="fill:none;stroke:red;stroke-width:1px;stroke-linecap:butt;stroke-linejoin:miter;stroke-opacity:1" d="M 848.788,95.4064 858.409,95.4064 z" id="boundary" inkscape:connector-curvature="0" />
	<path style="fill:none;stroke:red;stroke-width:1px;stroke-linecap:butt;stroke-linejoin:miter;stroke-opacity:1" d="M 839.166,100.217 848.788,95.4064 z" id="boundary" inkscape:connector-curvature="0" />
	<path style="fill:none;stroke:red;stroke-width:1px;stroke-linecap:butt;stroke-linejoin:miter;stroke-opacity:1" d="M 867.069,90.5955 858.409,95.4064 z" id="boundary" inkscape:connector-curvature="0" />
	<path style="fill:none;stroke:red;stroke-width:1px;stroke-linecap:butt;stroke-linejoin:miter;stroke-opacity:1" d="M 876.691,90.5955 886.312,90.5955 z" id="boundary" inkscape:connector-curvature="0" />
	<path style="fill:none;stroke:red;stroke-width:1px;stroke-linecap:butt;stroke-linejoin:miter;stroke-opacity:1" d="M 933.459,76.1629 943.081,76.1629 z" id="boundary" inkscape:connector-curvature="0" />
	<path style="fill:none;stroke:red;stroke-width:1px;stroke-linecap:butt;stroke-linejoin:miter;stroke-opacity:1" d="M 924.799,80.9738 933.459,76.1629 z" id="boundary" inkscape:connector-curvature="0" />
	<path style="fill:none;stroke:red;stroke-width:1px;stroke-linecap:butt;stroke-linejoin:miter;stroke-opacity:1" d="M 951.74,71.3521 943.081,76.1629 z" id="boundary" inkscape:connector-curvature="0" />
	<path style="fill:none;stroke:red;stroke-width:1px;stroke-linecap:butt;stroke-linejoin:miter;stroke-opacity:1" d="M 961.362,71.3521 951.74,71.3521 z" id="boundary" inkscape:connector-curvature="0" />
	<path style="fill:none;stroke:red;stroke-width:1px;stroke-linecap:butt;stroke-linejoin:miter;stroke-opacity:1" d="M 961.362,71.3521 969.059,77.1251 z" id="boundary" inkscape:connector-curvature="0" />
	<path style="fill:none;stroke:red;stroke-width:1px;stroke-linecap:butt;stroke-linejoin:miter;stroke-opacity:1" d="M 976.757,83.8603 976.757,93.4821 z" id="boundary" inkscape:connector-curvature="0" />
	<path style="fill:none;stroke:red;stroke-width:1px;stroke-linecap:butt;stroke-linejoin:miter;stroke-opacity:1" d="M 969.059,77.1251 976.757,83.8603 z" id="boundary" inkscape:connector-curvature="0" />
	<path style="fill:none;stroke:red;stroke-width:1px;stroke-linecap:butt;stroke-linejoin:miter;stroke-opacity:1" d="M 981.567,102.142 976.757,93.4821 z" id="boundary" inkscape:connector-curvature="0" />
	<path style="fill:none;stroke:red;stroke-width:1px;stroke-linecap:butt;stroke-linejoin:miter;stroke-opacity:1" d="M 788.171,98.2929 795.868,105.028 z" id="boundary" inkscape:connector-curvature="0" />
	<path style="fill:none;stroke:red;stroke-width:1px;stroke-linecap:butt;stroke-linejoin:miter;stroke-opacity:1" d="M 804.528,109.839 795.868,105.028 z" id="boundary" inkscape:connector-curvature="0" />
	<path style="fill:none;stroke:red;stroke-width:1px;stroke-linecap:butt;stroke-linejoin:miter;stroke-opacity:1" d="M 830.506,105.028 839.166,100.217 z" id="boundary" inkscape:connector-curvature="0" />
	<path style="fill:none;stroke:red;stroke-width:1px;stroke-linecap:butt;stroke-linejoin:miter;stroke-opacity:1" d="M 822.809,111.763 830.506,105.028 z" id="boundary" inkscape:connector-curvature="0" />
	<path style="fill:none;stroke:red;stroke-width:1px;stroke-linecap:butt;stroke-linejoin:miter;stroke-opacity:1" d="M 813.187,114.65 822.809,111.763 z" id="boundary" inkscape:connector-curvature="0" />
	<path style="fill:none;stroke:red;stroke-width:1px;stroke-linecap:butt;stroke-linejoin:miter;stroke-opacity:1" d="M 813.187,114.65 804.528,109.839 z" id="boundary" inkscape:connector-curvature="0" />
	<path style="fill:none;stroke:red;stroke-width:1px;stroke-linecap:butt;stroke-linejoin:miter;stroke-opacity:1" d="M 967.135,187.775 974.832,181.04 z" id="boundary" inkscape:connector-curvature="0" />
	<path style="fill:none;stroke:red;stroke-width:1px;stroke-linecap:butt;stroke-linejoin:miter;stroke-opacity:1" d="M 960.4,200.283 967.135,187.775 z" id="boundary" inkscape:connector-curvature="0" />
	<path style="fill:none;stroke:red;stroke-width:1px;stroke-linecap:butt;stroke-linejoin:miter;stroke-opacity:1" d="M 981.567,102.142 986.378,110.801 z" id="boundary" inkscape:connector-curvature="0" />
	<path style="fill:none;stroke:red;stroke-width:1px;stroke-linecap:butt;stroke-linejoin:miter;stroke-opacity:1" d="M 986.378,110.801 986.378,120.423 z" id="boundary" inkscape:connector-curvature="0" />
	<path style="fill:none;stroke:red;stroke-width:1px;stroke-linecap:butt;stroke-linejoin:miter;stroke-opacity:1" d="M 986.378,120.423 991.189,129.082 z" id="boundary" inkscape:connector-curvature="0" />
	<path style="fill:none;stroke:red;stroke-width:1px;stroke-linecap:butt;stroke-linejoin:miter;stroke-opacity:1" d="M 996,137.742 991.189,129.082 z" id="boundary" inkscape:connector-curvature="0" />
	<path style="fill:none;stroke:red;stroke-width:1px;stroke-linecap:butt;stroke-linejoin:miter;stroke-opacity:1" d="M 981.567,173.342 986.378,163.721 z" id="boundary" inkscape:connector-curvature="0" />
	<path style="fill:none;stroke:red;stroke-width:1px;stroke-linecap:butt;stroke-linejoin:miter;stroke-opacity:1" d="M 981.567,173.342 974.832,181.04 z" id="boundary" inkscape:connector-curvature="0" />
	<path style="fill:none;stroke:red;stroke-width:1px;stroke-linecap:butt;stroke-linejoin:miter;stroke-opacity:1" d="M 991.189,154.099 986.378,163.721 z" id="boundary" inkscape:connector-curvature="0" />
	<path style="fill:none;stroke:red;stroke-width:1px;stroke-linecap:butt;stroke-linejoin:miter;stroke-opacity:1" d="M 996,137.742 991.189,154.099 z" id="boundary" inkscape:connector-curvature="0" />
	<path style="fill:none;stroke:red;stroke-width:1px;stroke-linecap:butt;stroke-linejoin:miter;stroke-opacity:1" d="M 586.114,295.538 595.736,290.727 z" id="boundary" inkscape:connector-curvature="0" />
	<path style="fill:none;stroke:red;stroke-width:1px;stroke-linecap:butt;stroke-linejoin:miter;stroke-opacity:1" d="M 595.736,290.727 605.358,288.803 z" id="boundary" inkscape:connector-curvature="0" />
	<path style="fill:none;stroke:red;stroke-width:1px;stroke-linecap:butt;stroke-linejoin:miter;stroke-opacity:1" d="M 614.98,288.803 624.601,285.917 z" id="boundary" inkscape:connector-curvature="0" />
	<path style="fill:none;stroke:red;stroke-width:1px;stroke-linecap:butt;stroke-linejoin:miter;stroke-opacity:1" d="M 614.98,288.803 605.358,288.803 z" id="boundary" inkscape:connector-curvature="0" />
	<path style="fill:none;stroke:red;stroke-width:1px;stroke-linecap:butt;stroke-linejoin:miter;stroke-opacity:1" d="M 538.968,303.236 529.346,303.236 z" id="boundary" inkscape:connector-curvature="0" />
	<path style="fill:none;stroke:red;stroke-width:1px;stroke-linecap:butt;stroke-linejoin:miter;stroke-opacity:1" d="M 576.493,298.425 586.114,295.538 z" id="boundary" inkscape:connector-curvature="0" />
	<path style="fill:none;stroke:red;stroke-width:1px;stroke-linecap:butt;stroke-linejoin:miter;stroke-opacity:1" d="M 576.493,298.425 566.871,298.425 z" id="boundary" inkscape:connector-curvature="0" />
	<path style="fill:none;stroke:red;stroke-width:1px;stroke-linecap:butt;stroke-linejoin:miter;stroke-opacity:1" d="M 558.211,303.236 566.871,298.425 z" id="boundary" inkscape:connector-curvature="0" />
	<path style="fill:none;stroke:red;stroke-width:1px;stroke-linecap:butt;stroke-linejoin:miter;stroke-opacity:1" d="M 643.845,283.992 634.223,283.992 z" id="boundary" inkscape:connector-curvature="0" />
	<path style="fill:none;stroke:red;stroke-width:1px;stroke-linecap:butt;stroke-linejoin:miter;stroke-opacity:1" d="M 653.467,283.992 663.088,283.992 z" id="boundary" inkscape:connector-curvature="0" />
	<path style="fill:none;stroke:red;stroke-width:1px;stroke-linecap:butt;stroke-linejoin:miter;stroke-opacity:1" d="M 653.467,283.992 643.845,283.992 z" id="boundary" inkscape:connector-curvature="0" />
	<path style="fill:none;stroke:red;stroke-width:1px;stroke-linecap:butt;stroke-linejoin:miter;stroke-opacity:1" d="M 672.71,283.992 678.483,291.69 z" id="boundary" inkscape:connector-curvature="0" />
	<path style="fill:none;stroke:red;stroke-width:1px;stroke-linecap:butt;stroke-linejoin:miter;stroke-opacity:1" d="M 663.088,283.992 672.71,283.992 z" id="boundary" inkscape:connector-curvature="0" />
	<path style="fill:none;stroke:red;stroke-width:1px;stroke-linecap:butt;stroke-linejoin:miter;stroke-opacity:1" d="M 688.105,295.538 678.483,291.69 z" id="boundary" inkscape:connector-curvature="0" />
	<path style="fill:none;stroke:red;stroke-width:1px;stroke-linecap:butt;stroke-linejoin:miter;stroke-opacity:1" d="M 697.726,298.425 688.105,295.538 z" id="boundary" inkscape:connector-curvature="0" />
	<path style="fill:none;stroke:red;stroke-width:1px;stroke-linecap:butt;stroke-linejoin:miter;stroke-opacity:1" d="M 706.386,303.236 697.726,298.425 z" id="boundary" inkscape:connector-curvature="0" />
	<path style="fill:none;stroke:red;stroke-width:1px;stroke-linecap:butt;stroke-linejoin:miter;stroke-opacity:1" d="M 624.601,285.917 634.223,283.992 z" id="boundary" inkscape:connector-curvature="0" />
	<path style="fill:none;stroke:red;stroke-width:1px;stroke-linecap:butt;stroke-linejoin:miter;stroke-opacity:1" d="M 538.968,303.236 548.59,303.236 z" id="boundary" inkscape:connector-curvature="0" />
	<path style="fill:none;stroke:red;stroke-width:1px;stroke-linecap:butt;stroke-linejoin:miter;stroke-opacity:1" d="M 706.386,303.236 712.159,310.933 z" id="boundary" inkscape:connector-curvature="0" />
	<path style="fill:none;stroke:red;stroke-width:1px;stroke-linecap:butt;stroke-linejoin:miter;stroke-opacity:1" d="M 558.211,303.236 548.59,303.236 z" id="boundary" inkscape:connector-curvature="0" />
	<path style="fill:none;stroke:red;stroke-width:1px;stroke-linecap:butt;stroke-linejoin:miter;stroke-opacity:1" d="M 511.065,308.047 520.687,308.047 z" id="boundary" inkscape:connector-curvature="0" />
	<path style="fill:none;stroke:red;stroke-width:1px;stroke-linecap:butt;stroke-linejoin:miter;stroke-opacity:1" d="M 511.065,308.047 501.443,308.047 z" id="boundary" inkscape:connector-curvature="0" />
	<path style="fill:none;stroke:red;stroke-width:1px;stroke-linecap:butt;stroke-linejoin:miter;stroke-opacity:1" d="M 529.346,303.236 520.687,308.047 z" id="boundary" inkscape:connector-curvature="0" />
	<path style="fill:none;stroke:red;stroke-width:1px;stroke-linecap:butt;stroke-linejoin:miter;stroke-opacity:1" d="M 712.159,310.933 721.781,314.782 z" id="boundary" inkscape:connector-curvature="0" />
	<path style="fill:none;stroke:red;stroke-width:1px;stroke-linecap:butt;stroke-linejoin:miter;stroke-opacity:1" d="M 721.781,314.782 731.403,317.668 z" id="boundary" inkscape:connector-curvature="0" />
	<path style="fill:none;stroke:red;stroke-width:1px;stroke-linecap:butt;stroke-linejoin:miter;stroke-opacity:1" d="M 731.403,317.668 740.062,322.479 z" id="boundary" inkscape:connector-curvature="0" />
	<path style="fill:none;stroke:red;stroke-width:1px;stroke-linecap:butt;stroke-linejoin:miter;stroke-opacity:1" d="M 740.062,322.479 748.722,327.29 z" id="boundary" inkscape:connector-curvature="0" />
	<path style="fill:none;stroke:red;stroke-width:1px;stroke-linecap:butt;stroke-linejoin:miter;stroke-opacity:1" d="M 757.381,332.101 748.722,327.29 z" id="boundary" inkscape:connector-curvature="0" />
	<path style="fill:none;stroke:red;stroke-width:1px;stroke-linecap:butt;stroke-linejoin:miter;stroke-opacity:1" d="M 757.381,332.101 766.041,336.912 z" id="boundary" inkscape:connector-curvature="0" />
	<path style="fill:none;stroke:red;stroke-width:1px;stroke-linecap:butt;stroke-linejoin:miter;stroke-opacity:1" d="M 775.662,339.798 766.041,336.912 z" id="boundary" inkscape:connector-curvature="0" />
	<path style="fill:none;stroke:red;stroke-width:1px;stroke-linecap:butt;stroke-linejoin:miter;stroke-opacity:1" d="M 775.662,339.798 783.36,346.533 z" id="boundary" inkscape:connector-curvature="0" />
	<path style="fill:none;stroke:red;stroke-width:1px;stroke-linecap:butt;stroke-linejoin:miter;stroke-opacity:1" d="M 792.019,351.344 783.36,346.533 z" id="boundary" inkscape:connector-curvature="0" />
	<path style="fill:none;stroke:red;stroke-width:1px;stroke-linecap:butt;stroke-linejoin:miter;stroke-opacity:1" d="M 909.404,259.938 909.404,250.316 z" id="boundary" inkscape:connector-curvature="0" />
	<path style="fill:none;stroke:red;stroke-width:1px;stroke-linecap:butt;stroke-linejoin:miter;stroke-opacity:1" d="M 909.404,250.316 917.102,243.581 z" id="boundary" inkscape:connector-curvature="0" />
	<path style="fill:none;stroke:red;stroke-width:1px;stroke-linecap:butt;stroke-linejoin:miter;stroke-opacity:1" d="M 914.215,268.597 909.404,259.938 z" id="boundary" inkscape:connector-curvature="0" />
	<path style="fill:none;stroke:red;stroke-width:1px;stroke-linecap:butt;stroke-linejoin:miter;stroke-opacity:1" d="M 923.837,235.884 917.102,243.581 z" id="boundary" inkscape:connector-curvature="0" />
	<path style="fill:none;stroke:red;stroke-width:1px;stroke-linecap:butt;stroke-linejoin:miter;stroke-opacity:1" d="M 914.215,268.597 914.215,278.219 z" id="boundary" inkscape:connector-curvature="0" />
	<path style="fill:none;stroke:red;stroke-width:1px;stroke-linecap:butt;stroke-linejoin:miter;stroke-opacity:1" d="M 919.026,286.879 914.215,278.219 z" id="boundary" inkscape:connector-curvature="0" />
	<path style="fill:none;stroke:red;stroke-width:1px;stroke-linecap:butt;stroke-linejoin:miter;stroke-opacity:1" d="M 919.026,286.879 923.837,295.538 z" id="boundary" inkscape:connector-curvature="0" />
	<path style="fill:none;stroke:red;stroke-width:1px;stroke-linecap:butt;stroke-linejoin:miter;stroke-opacity:1" d="M 923.837,295.538 923.837,305.16 z" id="boundary" inkscape:connector-curvature="0" />
	<path style="fill:none;stroke:red;stroke-width:1px;stroke-linecap:butt;stroke-linejoin:miter;stroke-opacity:1" d="M 923.837,235.884 932.497,231.073 z" id="boundary" inkscape:connector-curvature="0" />
	<path style="fill:none;stroke:red;stroke-width:1px;stroke-linecap:butt;stroke-linejoin:miter;stroke-opacity:1" d="M 947.891,216.64 940.194,225.3 z" id="boundary" inkscape:connector-curvature="0" />
	<path style="fill:none;stroke:red;stroke-width:1px;stroke-linecap:butt;stroke-linejoin:miter;stroke-opacity:1" d="M 952.702,207.018 947.891,216.64 z" id="boundary" inkscape:connector-curvature="0" />
	<path style="fill:none;stroke:red;stroke-width:1px;stroke-linecap:butt;stroke-linejoin:miter;stroke-opacity:1" d="M 952.702,207.018 960.4,200.283 z" id="boundary" inkscape:connector-curvature="0" />
	<path style="fill:none;stroke:red;stroke-width:1px;stroke-linecap:butt;stroke-linejoin:miter;stroke-opacity:1" d="M 940.194,225.3 932.497,231.073 z" id="boundary" inkscape:connector-curvature="0" />
	<path style="fill:none;stroke:red;stroke-width:1px;stroke-linecap:butt;stroke-linejoin:miter;stroke-opacity:1" d="M 923.837,314.782 923.837,305.16 z" id="boundary" inkscape:connector-curvature="0" />
	<path style="fill:none;stroke:red;stroke-width:1px;stroke-linecap:butt;stroke-linejoin:miter;stroke-opacity:1" d="M 928.648,323.441 923.837,314.782 z" id="boundary" inkscape:connector-curvature="0" />
	<path style="fill:none;stroke:red;stroke-width:1px;stroke-linecap:butt;stroke-linejoin:miter;stroke-opacity:1" d="M 928.648,323.441 928.648,333.063 z" id="boundary" inkscape:connector-curvature="0" />
	<path style="fill:none;stroke:red;stroke-width:1px;stroke-linecap:butt;stroke-linejoin:miter;stroke-opacity:1" d="M 792.019,351.344 800.679,356.155 z" id="boundary" inkscape:connector-curvature="0" />
	<path style="fill:none;stroke:red;stroke-width:1px;stroke-linecap:butt;stroke-linejoin:miter;stroke-opacity:1" d="M 810.301,360.004 819.922,360.966 z" id="boundary" inkscape:connector-curvature="0" />
	<path style="fill:none;stroke:red;stroke-width:1px;stroke-linecap:butt;stroke-linejoin:miter;stroke-opacity:1" d="M 810.301,360.004 800.679,356.155 z" id="boundary" inkscape:connector-curvature="0" />
	<path style="fill:none;stroke:red;stroke-width:1px;stroke-linecap:butt;stroke-linejoin:miter;stroke-opacity:1" d="M 829.544,360.966 819.922,360.966 z" id="boundary" inkscape:connector-curvature="0" />
	<path style="fill:none;stroke:red;stroke-width:1px;stroke-linecap:butt;stroke-linejoin:miter;stroke-opacity:1" d="M 858.409,360.966 848.788,360.966 z" id="boundary" inkscape:connector-curvature="0" />
	<path style="fill:none;stroke:red;stroke-width:1px;stroke-linecap:butt;stroke-linejoin:miter;stroke-opacity:1" d="M 848.788,360.966 839.166,360.966 z" id="boundary" inkscape:connector-curvature="0" />
	<path style="fill:none;stroke:red;stroke-width:1px;stroke-linecap:butt;stroke-linejoin:miter;stroke-opacity:1" d="M 839.166,360.966 829.544,360.966 z" id="boundary" inkscape:connector-curvature="0" />
	<path style="fill:none;stroke:red;stroke-width:1px;stroke-linecap:butt;stroke-linejoin:miter;stroke-opacity:1" d="M 923.837,346.533 916.14,355.193 z" id="boundary" inkscape:connector-curvature="0" />
	<path style="fill:none;stroke:red;stroke-width:1px;stroke-linecap:butt;stroke-linejoin:miter;stroke-opacity:1" d="M 916.14,355.193 906.518,356.155 z" id="boundary" inkscape:connector-curvature="0" />
	<path style="fill:none;stroke:red;stroke-width:1px;stroke-linecap:butt;stroke-linejoin:miter;stroke-opacity:1" d="M 928.648,333.063 923.837,346.533 z" id="boundary" inkscape:connector-curvature="0" />
	<path style="fill:none;stroke:red;stroke-width:1px;stroke-linecap:butt;stroke-linejoin:miter;stroke-opacity:1" d="M 887.274,356.155 877.653,356.155 z" id="boundary" inkscape:connector-curvature="0" />
	<path style="fill:none;stroke:red;stroke-width:1px;stroke-linecap:butt;stroke-linejoin:miter;stroke-opacity:1" d="M 868.031,360.004 858.409,360.966 z" id="boundary" inkscape:connector-curvature="0" />
	<path style="fill:none;stroke:red;stroke-width:1px;stroke-linecap:butt;stroke-linejoin:miter;stroke-opacity:1" d="M 877.653,356.155 868.031,360.004 z" id="boundary" inkscape:connector-curvature="0" />
	<path style="fill:none;stroke:red;stroke-width:1px;stroke-linecap:butt;stroke-linejoin:miter;stroke-opacity:1" d="M 887.274,356.155 896.896,356.155 z" id="boundary" inkscape:connector-curvature="0" />
	<path style="fill:none;stroke:red;stroke-width:1px;stroke-linecap:butt;stroke-linejoin:miter;stroke-opacity:1" d="M 896.896,356.155 906.518,356.155 z" id="boundary" inkscape:connector-curvature="0" />
	<circle cx="4" cy="199.321" r="4" fill="#0" id="circle0"/>
	<circle cx="4" cy="208.943" r="4" fill="#0" id="circle1"/>
	<circle cx="8.81086" cy="217.602" r="4" fill="#0" id="circle2"/>
	<circle cx="13.6217" cy="194.51" r="4" fill="#0" id="circle3"/>
	<circle cx="13.6217" cy="226.262" r="4" fill="#0" id="circle4"/>
	<circle cx="19.3948" cy="233.959" r="4" fill="#0" id="circle5"/>
	<circle cx="23.2435" cy="189.699" r="4" fill="#0" id="circle6"/>
	<circle cx="24.2056" cy="242.619" r="4" fill="#0" id="circle7"/>
	<circle cx="28.0543" cy="180.078" r="4" fill="#0" id="circle8"/>
	<circle cx="30.9408" cy="250.316" r="4" fill="#0" id="circle9"/>
	<circle cx="35.7517" cy="258.976" r="4" fill="#0" id="circle10"/>
	<circle cx="37.676" cy="175.267" r="4" fill="#0" id="circle11"/>
	<circle cx="42.4869" cy="266.673" r="4" fill="#0" id="circle12"/>
	<circle cx="45.3734" cy="167.569" r="4" fill="#0" id="circle13"/>
	<circle cx="47.2978" cy="275.333" r="4" fill="#0" id="circle14"/>
	<circle cx="53.0708" cy="159.872" r="4" fill="#0" id="circle15"/>
	<circle cx="54.033" cy="283.03" r="4" fill="#0" id="circle16"/>
	<circle cx="60.7682" cy="153.137" r="4" fill="#0" id="circle17"/>
	<circle cx="61.7304" cy="288.803" r="4" fill="#0" id="circle18"/>
	<circle cx="67.5034" cy="145.439" r="4" fill="#0" id="circle19"/>
	<circle cx="67.5034" cy="296.5" r="4" fill="#0" id="circle20"/>
	<circle cx="75.2008" cy="138.704" r="4" fill="#0" id="circle21"/>
	<circle cx="77.1251" cy="298.425" r="4" fill="#0" id="circle22"/>
	<circle cx="81.936" cy="131.007" r="4" fill="#0" id="circle23"/>
	<circle cx="85.7847" cy="293.614" r="4" fill="#0" id="circle24"/>
	<circle cx="91.5577" cy="126.196" r="4" fill="#0" id="circle25"/>
	<circle cx="95.4064" cy="293.614" r="4" fill="#0" id="circle26"/>
	<circle cx="99.2551" cy="119.461" r="4" fill="#0" id="circle27"/>
	<circle cx="100.217" cy="11.6974" r="4" fill="#0" id="circle28"/>
	<circle cx="100.217" cy="21.3191" r="4" fill="#0" id="circle29"/>
	<circle cx="105.028" cy="293.614" r="4" fill="#0" id="circle30"/>
	<circle cx="107.915" cy="4" r="4" fill="#0" id="circle31"/>
	<circle cx="107.915" cy="28.0543" r="4" fill="#0" id="circle32"/>
	<circle cx="107.915" cy="114.65" r="4" fill="#0" id="circle33"/>
	<circle cx="111.763" cy="37.676" r="4" fill="#0" id="circle34"/>
	<circle cx="113.688" cy="288.803" r="4" fill="#0" id="circle35"/>
	<circle cx="114.65" cy="103.104" r="4" fill="#0" id="circle36"/>
	<circle cx="116.574" cy="46.3356" r="4" fill="#0" id="circle37"/>
	<circle cx="117.536" cy="4" r="4" fill="#0" id="circle38"/>
	<circle cx="119.461" cy="55.9573" r="4" fill="#0" id="circle39"/>
	<circle cx="123.309" cy="288.803" r="4" fill="#0" id="circle40"/>
	<circle cx="124.272" cy="64.6169" r="4" fill="#0" id="circle41"/>
	<circle cx="124.272" cy="74.2386" r="4" fill="#0" id="circle42"/>
	<circle cx="124.272" cy="98.2929" r="4" fill="#0" id="circle43"/>
	<circle cx="127.158" cy="4" r="4" fill="#0" id="circle44"/>
	<circle cx="129.082" cy="82.8982" r="4" fill="#0" id="circle45"/>
	<circle cx="131.969" cy="283.992" r="4" fill="#0" id="circle46"/>
	<circle cx="136.78" cy="4" r="4" fill="#0" id="circle47"/>
	<circle cx="141.591" cy="283.992" r="4" fill="#0" id="circle48"/>
	<circle cx="146.402" cy="4" r="4" fill="#0" id="circle49"/>
	<circle cx="151.212" cy="283.992" r="4" fill="#0" id="circle50"/>
	<circle cx="156.023" cy="4" r="4" fill="#0" id="circle51"/>
	<circle cx="160.834" cy="283.992" r="4" fill="#0" id="circle52"/>
	<circle cx="165.645" cy="4" r="4" fill="#0" id="circle53"/>
	<circle cx="169.494" cy="279.181" r="4" fill="#0" id="circle54"/>
	<circle cx="175.267" cy="4" r="4" fill="#0" id="circle55"/>
	<circle cx="179.115" cy="279.181" r="4" fill="#0" id="circle56"/>
	<circle cx="184.888" cy="4" r="4" fill="#0" id="circle57"/>
	<circle cx="188.737" cy="279.181" r="4" fill="#0" id="circle58"/>
	<circle cx="194.51" cy="4" r="4" fill="#0" id="circle59"/>
	<circle cx="197.397" cy="274.371" r="4" fill="#0" id="circle60"/>
	<circle cx="204.132" cy="4" r="4" fill="#0" id="circle61"/>
	<circle cx="207.018" cy="274.371" r="4" fill="#0" id="circle62"/>
	<circle cx="213.754" cy="4" r="4" fill="#0" id="circle63"/>
	<circle cx="216.64" cy="274.371" r="4" fill="#0" id="circle64"/>
	<circle cx="222.413" cy="8.81086" r="4" fill="#0" id="circle65"/>
	<circle cx="226.262" cy="276.295" r="4" fill="#0" id="circle66"/>
	<circle cx="231.073" cy="13.6217" r="4" fill="#0" id="circle67"/>
	<circle cx="234.921" cy="281.106" r="4" fill="#0" id="circle68"/>
	<circle cx="238.77" cy="19.3948" r="4" fill="#0" id="circle69"/>
	<circle cx="244.543" cy="283.992" r="4" fill="#0" id="circle70"/>
	<circle cx="247.43" cy="24.2056" r="4" fill="#0" id="circle71"/>
	<circle cx="253.203" cy="288.803" r="4" fill="#0" id="circle72"/>
	<circle cx="255.127" cy="30.9408" r="4" fill="#0" id="circle73"/>
	<circle cx="261.862" cy="293.614" r="4" fill="#0" id="circle74"/>
	<circle cx="263.787" cy="35.7517" r="4" fill="#0" id="circle75"/>
	<circle cx="270.522" cy="298.425" r="4" fill="#0" id="circle76"/>
	<circle cx="273.408" cy="39.6004" r="4" fill="#0" id="circle77"/>
	<circle cx="279.181" cy="303.236" r="4" fill="#0" id="circle78"/>
	<circle cx="282.068" cy="44.4113" r="4" fill="#0" id="circle79"/>
	<circle cx="287.841" cy="308.047" r="4" fill="#0" id="circle80"/>
	<circle cx="288.803" cy="52.1086" r="4" fill="#0" id="circle81"/>
	<circle cx="297.463" cy="56.9195" r="4" fill="#0" id="circle82"/>
	<circle cx="297.463" cy="308.047" r="4" fill="#0" id="circle83"/>
	<circle cx="305.16" cy="62.6925" r="4" fill="#0" id="circle84"/>
	<circle cx="306.122" cy="312.857" r="4" fill="#0" id="circle85"/>
	<circle cx="312.857" cy="69.4277" r="4" fill="#0" id="circle86"/>
	<circle cx="314.782" cy="317.668" r="4" fill="#0" id="circle87"/>
	<circle cx="320.555" cy="76.1629" r="4" fill="#0" id="circle88"/>
	<circle cx="324.403" cy="321.517" r="4" fill="#0" id="circle89"/>
	<circle cx="330.177" cy="76.1629" r="4" fill="#0" id="circle90"/>
	<circle cx="333.063" cy="326.328" r="4" fill="#0" id="circle91"/>
	<circle cx="339.798" cy="76.1629" r="4" fill="#0" id="circle92"/>
	<circle cx="342.685" cy="330.177" r="4" fill="#0" id="circle93"/>
	<circle cx="349.42" cy="76.1629" r="4" fill="#0" id="circle94"/>
	<circle cx="352.306" cy="332.101" r="4" fill="#0" id="circle95"/>
	<circle cx="358.08" cy="71.3521" r="4" fill="#0" id="circle96"/>
	<circle cx="360.966" cy="336.912" r="4" fill="#0" id="circle97"/>
	<circle cx="367.701" cy="66.5412" r="4" fill="#0" id="circle98"/>
	<circle cx="370.588" cy="336.912" r="4" fill="#0" id="circle99"/>
	<circle cx="377.323" cy="61.7304" r="4" fill="#0" id="circle100"/>
	<circle cx="379.247" cy="332.101" r="4" fill="#0" id="circle101"/>
	<circle cx="386.945" cy="61.7304" r="4" fill="#0" id="circle102"/>
	<circle cx="388.869" cy="329.214" r="4" fill="#0" id="circle103"/>
	<circle cx="396.566" cy="56.9195" r="4" fill="#0" id="circle104"/>
	<circle cx="398.491" cy="327.29" r="4" fill="#0" id="circle105"/>
	<circle cx="406.188" cy="52.1086" r="4" fill="#0" id="circle106"/>
	<circle cx="408.113" cy="327.29" r="4" fill="#0" id="circle107"/>
	<circle cx="415.81" cy="52.1086" r="4" fill="#0" id="circle108"/>
	<circle cx="417.734" cy="327.29" r="4" fill="#0" id="circle109"/>
	<circle cx="425.432" cy="47.2978" r="4" fill="#0" id="circle110"/>
	<circle cx="426.394" cy="322.479" r="4" fill="#0" id="circle111"/>
	<circle cx="435.053" cy="47.2978" r="4" fill="#0" id="circle112"/>
	<circle cx="436.016" cy="320.555" r="4" fill="#0" id="circle113"/>
	<circle cx="444.675" cy="47.2978" r="4" fill="#0" id="circle114"/>
	<circle cx="445.637" cy="317.668" r="4" fill="#0" id="circle115"/>
	<circle cx="454.297" cy="42.4869" r="4" fill="#0" id="circle116"/>
	<circle cx="454.297" cy="312.857" r="4" fill="#0" id="circle117"/>
	<circle cx="463.919" cy="42.4869" r="4" fill="#0" id="circle118"/>
	<circle cx="463.919" cy="312.857" r="4" fill="#0" id="circle119"/>
	<circle cx="473.54" cy="42.4869" r="4" fill="#0" id="circle120"/>
	<circle cx="473.54" cy="312.857" r="4" fill="#0" id="circle121"/>
	<circle cx="482.2" cy="37.676" r="4" fill="#0" id="circle122"/>
	<circle cx="482.2" cy="308.047" r="4" fill="#0" id="circle123"/>
	<circle cx="491.822" cy="37.676" r="4" fill="#0" id="circle124"/>
	<circle cx="491.822" cy="308.047" r="4" fill="#0" id="circle125"/>
	<circle cx="501.443" cy="33.8274" r="4" fill="#0" id="circle126"/>
	<circle cx="501.443" cy="308.047" r="4" fill="#0" id="circle127"/>
	<circle cx="511.065" cy="32.8652" r="4" fill="#0" id="circle128"/>
	<circle cx="511.065" cy="308.047" r="4" fill="#0" id="circle129"/>
	<circle cx="520.687" cy="32.8652" r="4" fill="#0" id="circle130"/>
	<circle cx="520.687" cy="308.047" r="4" fill="#0" id="circle131"/>
	<circle cx="529.346" cy="303.236" r="4" fill="#0" id="circle132"/>
	<circle cx="530.308" cy="32.8652" r="4" fill="#0" id="circle133"/>
	<circle cx="538.968" cy="28.0543" r="4" fill="#0" id="circle134"/>
	<circle cx="538.968" cy="303.236" r="4" fill="#0" id="circle135"/>
	<circle cx="548.59" cy="28.0543" r="4" fill="#0" id="circle136"/>
	<circle cx="548.59" cy="303.236" r="4" fill="#0" id="circle137"/>
	<circle cx="558.211" cy="28.0543" r="4" fill="#0" id="circle138"/>
	<circle cx="558.211" cy="303.236" r="4" fill="#0" id="circle139"/>
	<circle cx="566.871" cy="298.425" r="4" fill="#0" id="circle140"/>
	<circle cx="567.833" cy="28.0543" r="4" fill="#0" id="circle141"/>
	<circle cx="576.493" cy="298.425" r="4" fill="#0" id="circle142"/>
	<circle cx="577.455" cy="28.0543" r="4" fill="#0" id="circle143"/>
	<circle cx="586.114" cy="295.538" r="4" fill="#0" id="circle144"/>
	<circle cx="587.077" cy="28.0543" r="4" fill="#0" id="circle145"/>
	<circle cx="595.736" cy="290.727" r="4" fill="#0" id="circle146"/>
	<circle cx="596.698" cy="28.0543" r="4" fill="#0" id="circle147"/>
	<circle cx="605.358" cy="288.803" r="4" fill="#0" id="circle148"/>
	<circle cx="606.32" cy="28.0543" r="4" fill="#0" id="circle149"/>
	<circle cx="614.98" cy="288.803" r="4" fill="#0" id="circle150"/>
	<circle cx="615.942" cy="28.0543" r="4" fill="#0" id="circle151"/>
	<circle cx="624.601" cy="285.917" r="4" fill="#0" id="circle152"/>
	<circle cx="625.564" cy="28.0543" r="4" fill="#0" id="circle153"/>
	<circle cx="634.223" cy="283.992" r="4" fill="#0" id="circle154"/>
	<circle cx="635.185" cy="28.0543" r="4" fill="#0" id="circle155"/>
	<circle cx="643.845" cy="283.992" r="4" fill="#0" id="circle156"/>
	<circle cx="644.807" cy="28.0543" r="4" fill="#0" id="circle157"/>
	<circle cx="653.467" cy="283.992" r="4" fill="#0" id="circle158"/>
	<circle cx="654.429" cy="28.0543" r="4" fill="#0" id="circle159"/>
	<circle cx="663.088" cy="283.992" r="4" fill="#0" id="circle160"/>
	<circle cx="664.05" cy="28.0543" r="4" fill="#0" id="circle161"/>
	<circle cx="672.71" cy="283.992" r="4" fill="#0" id="circle162"/>
	<circle cx="673.672" cy="28.0543" r="4" fill="#0" id="circle163"/>
	<circle cx="678.483" cy="291.69" r="4" fill="#0" id="circle164"/>
	<circle cx="683.294" cy="28.0543" r="4" fill="#0" id="circle165"/>
	<circle cx="688.105" cy="295.538" r="4" fill="#0" id="circle166"/>
	<circle cx="692.916" cy="28.0543" r="4" fill="#0" id="circle167"/>
	<circle cx="697.726" cy="298.425" r="4" fill="#0" id="circle168"/>
	<circle cx="701.575" cy="32.8652" r="4" fill="#0" id="circle169"/>
	<circle cx="706.386" cy="303.236" r="4" fill="#0" id="circle170"/>
	<circle cx="710.235" cy="37.676" r="4" fill="#0" id="circle171"/>
	<circle cx="712.159" cy="310.933" r="4" fill="#0" id="circle172"/>
	<circle cx="718.894" cy="42.4869" r="4" fill="#0" id="circle173"/>
	<circle cx="721.781" cy="314.782" r="4" fill="#0" id="circle174"/>
	<circle cx="727.554" cy="47.2978" r="4" fill="#0" id="circle175"/>
	<circle cx="731.403" cy="317.668" r="4" fill="#0" id="circle176"/>
	<circle cx="736.213" cy="52.1086" r="4" fill="#0" id="circle177"/>
	<circle cx="740.062" cy="322.479" r="4" fill="#0" id="circle178"/>
	<circle cx="743.911" cy="57.8817" r="4" fill="#0" id="circle179"/>
	<circle cx="748.722" cy="327.29" r="4" fill="#0" id="circle180"/>
	<circle cx="750.646" cy="65.579" r="4" fill="#0" id="circle181"/>
	<circle cx="757.381" cy="332.101" r="4" fill="#0" id="circle182"/>
	<circle cx="758.343" cy="71.3521" r="4" fill="#0" id="circle183"/>
	<circle cx="766.041" cy="336.912" r="4" fill="#0" id="circle184"/>
	<circle cx="767.003" cy="76.1629" r="4" fill="#0" id="circle185"/>
	<circle cx="773.738" cy="83.8603" r="4" fill="#0" id="circle186"/>
	<circle cx="775.662" cy="339.798" r="4" fill="#0" id="circle187"/>
	<circle cx="781.435" cy="90.5955" r="4" fill="#0" id="circle188"/>
	<circle cx="783.36" cy="346.533" r="4" fill="#0" id="circle189"/>
	<circle cx="788.171" cy="98.2929" r="4" fill="#0" id="circle190"/>
	<circle cx="792.019" cy="351.344" r="4" fill="#0" id="circle191"/>
	<circle cx="795.868" cy="105.028" r="4" fill="#0" id="circle192"/>
	<circle cx="800.679" cy="356.155" r="4" fill="#0" id="circle193"/>
	<circle cx="804.528" cy="109.839" r="4" fill="#0" id="circle194"/>
	<circle cx="810.301" cy="360.004" r="4" fill="#0" id="circle195"/>
	<circle cx="813.187" cy="114.65" r="4" fill="#0" id="circle196"/>
	<circle cx="819.922" cy="360.966" r="4" fill="#0" id="circle197"/>
	<circle cx="822.809" cy="111.763" r="4" fill="#0" id="circle198"/>
	<circle cx="829.544" cy="360.966" r="4" fill="#0" id="circle199"/>
	<circle cx="830.506" cy="105.028" r="4" fill="#0" id="circle200"/>
	<circle cx="839.166" cy="100.217" r="4" fill="#0" id="circle201"/>
	<circle cx="839.166" cy="360.966" r="4" fill="#0" id="circle202"/>
	<circle cx="848.788" cy="95.4064" r="4" fill="#0" id="circle203"/>
	<circle cx="848.788" cy="360.966" r="4" fill="#0" id="circle204"/>
	<circle cx="858.409" cy="95.4064" r="4" fill="#0" id="circle205"/>
	<circle cx="858.409" cy="360.966" r="4" fill="#0" id="circle206"/>
	<circle cx="867.069" cy="90.5955" r="4" fill="#0" id="circle207"/>
	<circle cx="868.031" cy="360.004" r="4" fill="#0" id="circle208"/>
	<circle cx="876.691" cy="90.5955" r="4" fill="#0" id="circle209"/>
	<circle cx="877.653" cy="356.155" r="4" fill="#0" id="circle210"/>
	<circle cx="886.312" cy="90.5955" r="4" fill="#0" id="circle211"/>
	<circle cx="887.274" cy="356.155" r="4" fill="#0" id="circle212"/>
	<circle cx="895.934" cy="86.7468" r="4" fill="#0" id="circle213"/>
	<circle cx="896.896" cy="356.155" r="4" fill="#0" id="circle214"/>
	<circle cx="905.556" cy="85.7847" r="4" fill="#0" id="circle215"/>
	<circle cx="906.518" cy="356.155" r="4" fill="#0" id="circle216"/>
	<circle cx="909.404" cy="250.316" r="4" fill="#0" id="circle217"/>
	<circle cx="909.404" cy="259.938" r="4" fill="#0" id="circle218"/>
	<circle cx="914.215" cy="268.597" r="4" fill="#0" id="circle219"/>
	<circle cx="914.215" cy="278.219" r="4" fill="#0" id="circle220"/>
	<circle cx="915.177" cy="81.936" r="4" fill="#0" id="circle221"/>
	<circle cx="916.14" cy="355.193" r="4" fill="#0" id="circle222"/>
	<circle cx="917.102" cy="243.581" r="4" fill="#0" id="circle223"/>
	<circle cx="919.026" cy="286.879" r="4" fill="#0" id="circle224"/>
	<circle cx="923.837" cy="235.884" r="4" fill="#0" id="circle225"/>
	<circle cx="923.837" cy="295.538" r="4" fill="#0" id="circle226"/>
	<circle cx="923.837" cy="305.16" r="4" fill="#0" id="circle227"/>
	<circle cx="923.837" cy="314.782" r="4" fill="#0" id="circle228"/>
	<circle cx="923.837" cy="346.533" r="4" fill="#0" id="circle229"/>
	<circle cx="924.799" cy="80.9738" r="4" fill="#0" id="circle230"/>
	<circle cx="928.648" cy="323.441" r="4" fill="#0" id="circle231"/>
	<circle cx="928.648" cy="333.063" r="4" fill="#0" id="circle232"/>
	<circle cx="932.497" cy="231.073" r="4" fill="#0" id="circle233"/>
	<circle cx="933.459" cy="76.1629" r="4" fill="#0" id="circle234"/>
	<circle cx="940.194" cy="225.3" r="4" fill="#0" id="circle235"/>
	<circle cx="943.081" cy="76.1629" r="4" fill="#0" id="circle236"/>
	<circle cx="947.891" cy="216.64" r="4" fill="#0" id="circle237"/>
	<circle cx="951.74" cy="71.3521" r="4" fill="#0" id="circle238"/>
	<circle cx="952.702" cy="207.018" r="4" fill="#0" id="circle239"/>
	<circle cx="960.4" cy="200.283" r="4" fill="#0" id="circle240"/>
	<circle cx="961.362" cy="71.3521" r="4" fill="#0" id="circle241"/>
	<circle cx="967.135" cy="187.775" r="4" fill="#0" id="circle242"/>
	<circle cx="969.059" cy="77.1251" r="4" fill="#0" id="circle243"/>
	<circle cx="974.832" cy="181.04" r="4" fill="#0" id="circle244"/>
	<circle cx="976.757" cy="83.8603" r="4" fill="#0" id="circle245"/>
	<circle cx="976.757" cy="93.4821" r="4" fill="#0" id="circle246"/>
	<circle cx="981.567" cy="102.142" r="4" fill="#0" id="circle247"/>
	<circle cx="981.567" cy="173.342" r="4" fill="#0" id="circle248"/>
	<circle cx="986.378" cy="110.801" r="4" fill="#0" id="circle249"/>
	<circle cx="986.378" cy="120.423" r="4" fill="#0" id="circle250"/>
	<circle cx="986.378" cy="163.721" r="4" fill="#0" id="circle251"/>
	<circle cx="991.189" cy="129.082" r="4" fill="#0" id="circle252"/>
	<circle cx="991.189" cy="154.099" r="4" fill="#0" id="circle253"/>
	<circle cx="996" cy="137.742" r="4" fill="#0" id="circle254"/>
	</g>
</svg>