<?xml version="1.0" encoding="UTF-8" standalone="no"?>
<!-- Created with CurveBenchmark -->
<svg
	xmlns:dc="http://purl.org/dc/elements/1.1/"
	xmlns:cc="http://creativecommons.org/ns#"
	xmlns:rdf="http://www.w3.org/1999/02/22-rdf-syntax-ns#"
	xmlns:svg="http://www.w3.org/2000/svg"
	xmlns="http://www.w3.org/2000/svg"
	xmlns:sodipodi="http://sodipodi.sourceforge.net/DTD/sodipodi-0.dtd"
	xmlns:inkscape="http://www.inkscape.org/namespaces/inkscape"
	width="1000"
	height="1000"
	id="svg2"
	version="1.1"
	sodipodi:docname="manifold/gathan1-fish075.png.txt">
<defs
	id="defs4" />
<metadata
	id="metadata7">
	<rdf:RDF>
		<cc:Work
			rdf:about="">
			<dc:format>image/svg+xml</dc:format>
			<dc:type
				rdf:resource="http://purl.org/dc/dcmitype/StillImage" />
			<dc:title></dc:title>
		</cc:Work>
	</rdf:RDF>
</metadata>
<g
	inkscape:label="Layer 1"
	inkscape:groupmode="layer"
	id="layer1">
	<path style="fill:none;stroke:red;stroke-width:1px;stroke-linecap:butt;stroke-linejoin:miter;stroke-opacity:1" d="M 27.7605,419.808 27.7605,360.407 z" id="boundary" inkscape:connector-curvature="0" />
	<path style="fill:none;stroke:red;stroke-width:1px;stroke-linecap:butt;stroke-linejoin:miter;stroke-opacity:1" d="M 27.7605,360.407 75.2814,312.886 z" id="boundary" inkscape:connector-curvature="0" />
	<path style="fill:none;stroke:red;stroke-width:1px;stroke-linecap:butt;stroke-linejoin:miter;stroke-opacity:1" d="M 128.743,283.186 75.2814,312.886 z" id="boundary" inkscape:connector-curvature="0" />
	<path style="fill:none;stroke:red;stroke-width:1px;stroke-linecap:butt;stroke-linejoin:miter;stroke-opacity:1" d="M 4,491.09 27.7605,419.808 z" id="boundary" inkscape:connector-curvature="0" />
	<path style="fill:none;stroke:red;stroke-width:1px;stroke-linecap:butt;stroke-linejoin:miter;stroke-opacity:1" d="M 4,550.491 4,491.09 z" id="boundary" inkscape:connector-curvature="0" />
	<path style="fill:none;stroke:red;stroke-width:1px;stroke-linecap:butt;stroke-linejoin:miter;stroke-opacity:1" d="M 265.365,63.4012 289.126,4 z" id="boundary" inkscape:connector-curvature="0" />
	<path style="fill:none;stroke:red;stroke-width:1px;stroke-linecap:butt;stroke-linejoin:miter;stroke-opacity:1" d="M 289.126,4 336.647,39.6407 z" id="boundary" inkscape:connector-curvature="0" />
	<path style="fill:none;stroke:red;stroke-width:1px;stroke-linecap:butt;stroke-linejoin:miter;stroke-opacity:1" d="M 265.365,63.4012 253.485,122.802 z" id="boundary" inkscape:connector-curvature="0" />
	<path style="fill:none;stroke:red;stroke-width:1px;stroke-linecap:butt;stroke-linejoin:miter;stroke-opacity:1" d="M 253.485,122.802 229.725,217.844 z" id="boundary" inkscape:connector-curvature="0" />
	<path style="fill:none;stroke:red;stroke-width:1px;stroke-linecap:butt;stroke-linejoin:miter;stroke-opacity:1" d="M 229.725,217.844 176.263,247.545 z" id="boundary" inkscape:connector-curvature="0" />
	<path style="fill:none;stroke:red;stroke-width:1px;stroke-linecap:butt;stroke-linejoin:miter;stroke-opacity:1" d="M 176.263,247.545 128.743,283.186 z" id="boundary" inkscape:connector-curvature="0" />
	<path style="fill:none;stroke:red;stroke-width:1px;stroke-linecap:butt;stroke-linejoin:miter;stroke-opacity:1" d="M 87.1617,710.874 45.5808,663.353 z" id="boundary" inkscape:connector-curvature="0" />
	<path style="fill:none;stroke:red;stroke-width:1px;stroke-linecap:butt;stroke-linejoin:miter;stroke-opacity:1" d="M 134.683,746.515 87.1617,710.874 z" id="boundary" inkscape:connector-curvature="0" />
	<path style="fill:none;stroke:red;stroke-width:1px;stroke-linecap:butt;stroke-linejoin:miter;stroke-opacity:1" d="M 15.8802,609.892 45.5808,663.353 z" id="boundary" inkscape:connector-curvature="0" />
	<path style="fill:none;stroke:red;stroke-width:1px;stroke-linecap:butt;stroke-linejoin:miter;stroke-opacity:1" d="M 134.683,871.257 122.802,930.659 z" id="boundary" inkscape:connector-curvature="0" />
	<path style="fill:none;stroke:red;stroke-width:1px;stroke-linecap:butt;stroke-linejoin:miter;stroke-opacity:1" d="M 134.683,746.515 158.443,805.916 z" id="boundary" inkscape:connector-curvature="0" />
	<path style="fill:none;stroke:red;stroke-width:1px;stroke-linecap:butt;stroke-linejoin:miter;stroke-opacity:1" d="M 158.443,805.916 134.683,871.257 z" id="boundary" inkscape:connector-curvature="0" />
	<path style="fill:none;stroke:red;stroke-width:1px;stroke-linecap:butt;stroke-linejoin:miter;stroke-opacity:1" d="M 15.8802,609.892 4,550.491 z" id="boundary" inkscape:connector-curvature="0" />
	<path style="fill:none;stroke:red;stroke-width:1px;stroke-linecap:butt;stroke-linejoin:miter;stroke-opacity:1" d="M 122.802,930.659 140.623,990.06 z" id="boundary" inkscape:connector-curvature="0" />
	<path style="fill:none;stroke:red;stroke-width:1px;stroke-linecap:butt;stroke-linejoin:miter;stroke-opacity:1" d="M 277.246,782.156 336.647,799.976 z" id="boundary" inkscape:connector-curvature="0" />
	<path style="fill:none;stroke:red;stroke-width:1px;stroke-linecap:butt;stroke-linejoin:miter;stroke-opacity:1" d="M 140.623,990.06 188.144,954.419 z" id="boundary" inkscape:connector-curvature="0" />
	<path style="fill:none;stroke:red;stroke-width:1px;stroke-linecap:butt;stroke-linejoin:miter;stroke-opacity:1" d="M 223.784,895.018 253.485,841.557 z" id="boundary" inkscape:connector-curvature="0" />
	<path style="fill:none;stroke:red;stroke-width:1px;stroke-linecap:butt;stroke-linejoin:miter;stroke-opacity:1" d="M 223.784,895.018 188.144,954.419 z" id="boundary" inkscape:connector-curvature="0" />
	<path style="fill:none;stroke:red;stroke-width:1px;stroke-linecap:butt;stroke-linejoin:miter;stroke-opacity:1" d="M 336.647,799.976 366.347,853.437 z" id="boundary" inkscape:connector-curvature="0" />
	<path style="fill:none;stroke:red;stroke-width:1px;stroke-linecap:butt;stroke-linejoin:miter;stroke-opacity:1" d="M 336.647,39.6407 372.287,87.1617 z" id="boundary" inkscape:connector-curvature="0" />
	<path style="fill:none;stroke:red;stroke-width:1px;stroke-linecap:butt;stroke-linejoin:miter;stroke-opacity:1" d="M 401.988,140.623 372.287,87.1617 z" id="boundary" inkscape:connector-curvature="0" />
	<path style="fill:none;stroke:red;stroke-width:1px;stroke-linecap:butt;stroke-linejoin:miter;stroke-opacity:1" d="M 497.03,182.204 437.629,188.144 z" id="boundary" inkscape:connector-curvature="0" />
	<path style="fill:none;stroke:red;stroke-width:1px;stroke-linecap:butt;stroke-linejoin:miter;stroke-opacity:1" d="M 437.629,188.144 401.988,140.623 z" id="boundary" inkscape:connector-curvature="0" />
	<path style="fill:none;stroke:red;stroke-width:1px;stroke-linecap:butt;stroke-linejoin:miter;stroke-opacity:1" d="M 520.79,241.605 538.611,301.006 z" id="boundary" inkscape:connector-curvature="0" />
	<path style="fill:none;stroke:red;stroke-width:1px;stroke-linecap:butt;stroke-linejoin:miter;stroke-opacity:1" d="M 497.03,182.204 520.79,241.605 z" id="boundary" inkscape:connector-curvature="0" />
	<path style="fill:none;stroke:red;stroke-width:1px;stroke-linecap:butt;stroke-linejoin:miter;stroke-opacity:1" d="M 538.611,301.006 568.311,354.467 z" id="boundary" inkscape:connector-curvature="0" />
	<path style="fill:none;stroke:red;stroke-width:1px;stroke-linecap:butt;stroke-linejoin:miter;stroke-opacity:1" d="M 645.533,265.365 598.012,301.006 z" id="boundary" inkscape:connector-curvature="0" />
	<path style="fill:none;stroke:red;stroke-width:1px;stroke-linecap:butt;stroke-linejoin:miter;stroke-opacity:1" d="M 645.533,265.365 663.353,372.287 z" id="boundary" inkscape:connector-curvature="0" />
	<path style="fill:none;stroke:red;stroke-width:1px;stroke-linecap:butt;stroke-linejoin:miter;stroke-opacity:1" d="M 663.353,372.287 663.353,431.689 z" id="boundary" inkscape:connector-curvature="0" />
	<path style="fill:none;stroke:red;stroke-width:1px;stroke-linecap:butt;stroke-linejoin:miter;stroke-opacity:1" d="M 663.353,491.09 663.353,550.491 z" id="boundary" inkscape:connector-curvature="0" />
	<path style="fill:none;stroke:red;stroke-width:1px;stroke-linecap:butt;stroke-linejoin:miter;stroke-opacity:1" d="M 663.353,491.09 663.353,431.689 z" id="boundary" inkscape:connector-curvature="0" />
	<path style="fill:none;stroke:red;stroke-width:1px;stroke-linecap:butt;stroke-linejoin:miter;stroke-opacity:1" d="M 401.988,900.958 366.347,853.437 z" id="boundary" inkscape:connector-curvature="0" />
	<path style="fill:none;stroke:red;stroke-width:1px;stroke-linecap:butt;stroke-linejoin:miter;stroke-opacity:1" d="M 437.629,948.479 401.988,900.958 z" id="boundary" inkscape:connector-curvature="0" />
	<path style="fill:none;stroke:red;stroke-width:1px;stroke-linecap:butt;stroke-linejoin:miter;stroke-opacity:1" d="M 479.21,871.257 508.91,924.719 z" id="boundary" inkscape:connector-curvature="0" />
	<path style="fill:none;stroke:red;stroke-width:1px;stroke-linecap:butt;stroke-linejoin:miter;stroke-opacity:1" d="M 663.353,609.892 675.234,669.293 z" id="boundary" inkscape:connector-curvature="0" />
	<path style="fill:none;stroke:red;stroke-width:1px;stroke-linecap:butt;stroke-linejoin:miter;stroke-opacity:1" d="M 675.234,669.293 615.832,722.754 z" id="boundary" inkscape:connector-curvature="0" />
	<path style="fill:none;stroke:red;stroke-width:1px;stroke-linecap:butt;stroke-linejoin:miter;stroke-opacity:1" d="M 615.832,722.754 556.431,740.575 z" id="boundary" inkscape:connector-curvature="0" />
	<path style="fill:none;stroke:red;stroke-width:1px;stroke-linecap:butt;stroke-linejoin:miter;stroke-opacity:1" d="M 663.353,609.892 663.353,550.491 z" id="boundary" inkscape:connector-curvature="0" />
	<path style="fill:none;stroke:red;stroke-width:1px;stroke-linecap:butt;stroke-linejoin:miter;stroke-opacity:1" d="M 479.21,996 508.91,924.719 z" id="boundary" inkscape:connector-curvature="0" />
	<path style="fill:none;stroke:red;stroke-width:1px;stroke-linecap:butt;stroke-linejoin:miter;stroke-opacity:1" d="M 479.21,996 437.629,948.479 z" id="boundary" inkscape:connector-curvature="0" />
	<path style="fill:none;stroke:red;stroke-width:1px;stroke-linecap:butt;stroke-linejoin:miter;stroke-opacity:1" d="M 520.79,788.096 556.431,740.575 z" id="boundary" inkscape:connector-curvature="0" />
	<circle cx="4" cy="491.09" r="4" fill="#0" id="circle0"/>
	<circle cx="4" cy="550.491" r="4" fill="#0" id="circle1"/>
	<circle cx="15.8802" cy="609.892" r="4" fill="#0" id="circle2"/>
	<circle cx="27.7605" cy="360.407" r="4" fill="#0" id="circle3"/>
	<circle cx="27.7605" cy="419.808" r="4" fill="#0" id="circle4"/>
	<circle cx="45.5808" cy="663.353" r="4" fill="#0" id="circle5"/>
	<circle cx="75.2814" cy="312.886" r="4" fill="#0" id="circle6"/>
	<circle cx="87.1617" cy="710.874" r="4" fill="#0" id="circle7"/>
	<circle cx="122.802" cy="930.659" r="4" fill="#0" id="circle8"/>
	<circle cx="128.743" cy="283.186" r="4" fill="#0" id="circle9"/>
	<circle cx="134.683" cy="746.515" r="4" fill="#0" id="circle10"/>
	<circle cx="134.683" cy="871.257" r="4" fill="#0" id="circle11"/>
	<circle cx="140.623" cy="990.06" r="4" fill="#0" id="circle12"/>
	<circle cx="158.443" cy="805.916" r="4" fill="#0" id="circle13"/>
	<circle cx="176.263" cy="247.545" r="4" fill="#0" id="circle14"/>
	<circle cx="188.144" cy="954.419" r="4" fill="#0" id="circle15"/>
	<circle cx="223.784" cy="895.018" r="4" fill="#0" id="circle16"/>
	<circle cx="229.725" cy="217.844" r="4" fill="#0" id="circle17"/>
	<circle cx="253.485" cy="122.802" r="4" fill="#0" id="circle18"/>
	<circle cx="253.485" cy="841.557" r="4" fill="#0" id="circle19"/>
	<circle cx="265.365" cy="63.4012" r="4" fill="#0" id="circle20"/>
	<circle cx="277.246" cy="782.156" r="4" fill="#0" id="circle21"/>
	<circle cx="289.126" cy="4" r="4" fill="#0" id="circle22"/>
	<circle cx="336.647" cy="39.6407" r="4" fill="#0" id="circle23"/>
	<circle cx="336.647" cy="799.976" r="4" fill="#0" id="circle24"/>
	<circle cx="366.347" cy="853.437" r="4" fill="#0" id="circle25"/>
	<circle cx="372.287" cy="87.1617" r="4" fill="#0" id="circle26"/>
	<circle cx="401.988" cy="140.623" r="4" fill="#0" id="circle27"/>
	<circle cx="401.988" cy="900.958" r="4" fill="#0" id="circle28"/>
	<circle cx="431.689" cy="758.395" r="4" fill="#0" id="circle29"/>
	<circle cx="437.629" cy="188.144" r="4" fill="#0" id="circle30"/>
	<circle cx="437.629" cy="948.479" r="4" fill="#0" id="circle31"/>
	<circle cx="461.389" cy="811.856" r="4" fill="#0" id="circle32"/>
	<circle cx="479.21" cy="871.257" r="4" fill="#0" id="circle33"/>
	<circle cx="479.21" cy="996" r="4" fill="#0" id="circle34"/>
	<circle cx="497.03" cy="182.204" r="4" fill="#0" id="circle35"/>
	<circle cx="508.91" cy="924.719" r="4" fill="#0" id="circle36"/>
	<circle cx="520.79" cy="241.605" r="4" fill="#0" id="circle37"/>
	<circle cx="520.79" cy="788.096" r="4" fill="#0" id="circle38"/>
	<circle cx="538.611" cy="301.006" r="4" fill="#0" id="circle39"/>
	<circle cx="556.431" cy="740.575" r="4" fill="#0" id="circle40"/>
	<circle cx="568.311" cy="354.467" r="4" fill="#0" id="circle41"/>
	<circle cx="598.012" cy="301.006" r="4" fill="#0" id="circle42"/>
	<circle cx="615.832" cy="722.754" r="4" fill="#0" id="circle43"/>
	<circle cx="645.533" cy="265.365" r="4" fill="#0" id="circle44"/>
	<circle cx="663.353" cy="372.287" r="4" fill="#0" id="circle45"/>
	<circle cx="663.353" cy="431.689" r="4" fill="#0" id="circle46"/>
	<circle cx="663.353" cy="491.09" r="4" fill="#0" id="circle47"/>
	<circle cx="663.353" cy="550.491" r="4" fill="#0" id="circle48"/>
	<circle cx="663.353" cy="609.892" r="4" fill="#0" id="circle49"/>
	<circle cx="675.234" cy="669.293" r="4" fill="#0" id="circle50"/>
	</g>
</svg>