<?xml version="1.0" encoding="UTF-8" standalone="no"?>
<!-- Created with CurveBenchmark -->
<svg
	xmlns:dc="http://purl.org/dc/elements/1.1/"
	xmlns:cc="http://creativecommons.org/ns#"
	xmlns:rdf="http://www.w3.org/1999/02/22-rdf-syntax-ns#"
	xmlns:svg="http://www.w3.org/2000/svg"
	xmlns="http://www.w3.org/2000/svg"
	xmlns:sodipodi="http://sodipodi.sourceforge.net/DTD/sodipodi-0.dtd"
	xmlns:inkscape="http://www.inkscape.org/namespaces/inkscape"
	width="1000"
	height="1000"
	id="svg2"
	version="1.1"
	sodipodi:docname="manifold/gathan1-textbox09.png.txt">
<defs
	id="defs4" />
<metadata
	id="metadata7">
	<rdf:RDF>
		<cc:Work
			rdf:about="">
			<dc:format>image/svg+xml</dc:format>
			<dc:type
				rdf:resource="http://purl.org/dc/dcmitype/StillImage" />
			<dc:title></dc:title>
		</cc:Work>
	</rdf:RDF>
</metadata>
<g
	inkscape:label="Layer 1"
	inkscape:groupmode="layer"
	id="layer1">
	<path style="fill:none;stroke:red;stroke-width:1px;stroke-linecap:butt;stroke-linejoin:miter;stroke-opacity:1" d="M 137.813,93.2086 121.755,102.129 z" id="boundary" inkscape:connector-curvature="0" />
	<path style="fill:none;stroke:red;stroke-width:1px;stroke-linecap:butt;stroke-linejoin:miter;stroke-opacity:1" d="M 121.755,102.129 103.914,105.698 z" id="boundary" inkscape:connector-curvature="0" />
	<path style="fill:none;stroke:red;stroke-width:1px;stroke-linecap:butt;stroke-linejoin:miter;stroke-opacity:1" d="M 75.3669,152.086 75.3669,134.245 z" id="boundary" inkscape:connector-curvature="0" />
	<path style="fill:none;stroke:red;stroke-width:1px;stroke-linecap:butt;stroke-linejoin:miter;stroke-opacity:1" d="M 75.3669,134.245 89.6403,119.971 z" id="boundary" inkscape:connector-curvature="0" />
	<path style="fill:none;stroke:red;stroke-width:1px;stroke-linecap:butt;stroke-linejoin:miter;stroke-opacity:1" d="M 89.6403,119.971 103.914,105.698 z" id="boundary" inkscape:connector-curvature="0" />
	<path style="fill:none;stroke:red;stroke-width:1px;stroke-linecap:butt;stroke-linejoin:miter;stroke-opacity:1" d="M 153.871,84.2878 137.813,93.2086 z" id="boundary" inkscape:connector-curvature="0" />
	<path style="fill:none;stroke:red;stroke-width:1px;stroke-linecap:butt;stroke-linejoin:miter;stroke-opacity:1" d="M 178.849,66.446 196.691,66.446 z" id="boundary" inkscape:connector-curvature="0" />
	<path style="fill:none;stroke:red;stroke-width:1px;stroke-linecap:butt;stroke-linejoin:miter;stroke-opacity:1" d="M 171.712,84.2878 153.871,84.2878 z" id="boundary" inkscape:connector-curvature="0" />
	<path style="fill:none;stroke:red;stroke-width:1px;stroke-linecap:butt;stroke-linejoin:miter;stroke-opacity:1" d="M 196.691,66.446 214.532,66.446 z" id="boundary" inkscape:connector-curvature="0" />
	<path style="fill:none;stroke:red;stroke-width:1px;stroke-linecap:butt;stroke-linejoin:miter;stroke-opacity:1" d="M 230.59,57.5252 214.532,66.446 z" id="boundary" inkscape:connector-curvature="0" />
	<path style="fill:none;stroke:red;stroke-width:1px;stroke-linecap:butt;stroke-linejoin:miter;stroke-opacity:1" d="M 4,285.899 4,268.058 z" id="boundary" inkscape:connector-curvature="0" />
	<path style="fill:none;stroke:red;stroke-width:1px;stroke-linecap:butt;stroke-linejoin:miter;stroke-opacity:1" d="M 4,268.058 21.8417,250.216 z" id="boundary" inkscape:connector-curvature="0" />
	<path style="fill:none;stroke:red;stroke-width:1px;stroke-linecap:butt;stroke-linejoin:miter;stroke-opacity:1" d="M 30.7626,205.612 21.8417,232.374 z" id="boundary" inkscape:connector-curvature="0" />
	<path style="fill:none;stroke:red;stroke-width:1px;stroke-linecap:butt;stroke-linejoin:miter;stroke-opacity:1" d="M 14.705,318.014 4,303.741 z" id="boundary" inkscape:connector-curvature="0" />
	<path style="fill:none;stroke:red;stroke-width:1px;stroke-linecap:butt;stroke-linejoin:miter;stroke-opacity:1" d="M 4,303.741 4,285.899 z" id="boundary" inkscape:connector-curvature="0" />
	<path style="fill:none;stroke:red;stroke-width:1px;stroke-linecap:butt;stroke-linejoin:miter;stroke-opacity:1" d="M 14.705,318.014 21.8417,335.856 z" id="boundary" inkscape:connector-curvature="0" />
	<path style="fill:none;stroke:red;stroke-width:1px;stroke-linecap:butt;stroke-linejoin:miter;stroke-opacity:1" d="M 21.8417,232.374 21.8417,250.216 z" id="boundary" inkscape:connector-curvature="0" />
	<path style="fill:none;stroke:red;stroke-width:1px;stroke-linecap:butt;stroke-linejoin:miter;stroke-opacity:1" d="M 48.6043,178.849 57.5252,161.007 z" id="boundary" inkscape:connector-curvature="0" />
	<path style="fill:none;stroke:red;stroke-width:1px;stroke-linecap:butt;stroke-linejoin:miter;stroke-opacity:1" d="M 57.5252,161.007 75.3669,152.086 z" id="boundary" inkscape:connector-curvature="0" />
	<path style="fill:none;stroke:red;stroke-width:1px;stroke-linecap:butt;stroke-linejoin:miter;stroke-opacity:1" d="M 48.6043,196.691 48.6043,178.849 z" id="boundary" inkscape:connector-curvature="0" />
	<path style="fill:none;stroke:red;stroke-width:1px;stroke-linecap:butt;stroke-linejoin:miter;stroke-opacity:1" d="M 30.7626,205.612 48.6043,196.691 z" id="boundary" inkscape:connector-curvature="0" />
	<path style="fill:none;stroke:red;stroke-width:1px;stroke-linecap:butt;stroke-linejoin:miter;stroke-opacity:1" d="M 414.36,12.9209 396.518,12.9209 z" id="boundary" inkscape:connector-curvature="0" />
	<path style="fill:none;stroke:red;stroke-width:1px;stroke-linecap:butt;stroke-linejoin:miter;stroke-opacity:1" d="M 396.518,12.9209 378.676,12.9209 z" id="boundary" inkscape:connector-curvature="0" />
	<path style="fill:none;stroke:red;stroke-width:1px;stroke-linecap:butt;stroke-linejoin:miter;stroke-opacity:1" d="M 467.885,4 450.043,9.35252 z" id="boundary" inkscape:connector-curvature="0" />
	<path style="fill:none;stroke:red;stroke-width:1px;stroke-linecap:butt;stroke-linejoin:miter;stroke-opacity:1" d="M 432.201,12.9209 414.36,12.9209 z" id="boundary" inkscape:connector-curvature="0" />
	<path style="fill:none;stroke:red;stroke-width:1px;stroke-linecap:butt;stroke-linejoin:miter;stroke-opacity:1" d="M 450.043,9.35252 432.201,12.9209 z" id="boundary" inkscape:connector-curvature="0" />
	<path style="fill:none;stroke:red;stroke-width:1px;stroke-linecap:butt;stroke-linejoin:miter;stroke-opacity:1" d="M 485.727,4 503.568,4 z" id="boundary" inkscape:connector-curvature="0" />
	<path style="fill:none;stroke:red;stroke-width:1px;stroke-linecap:butt;stroke-linejoin:miter;stroke-opacity:1" d="M 539.252,7.56835 557.094,12.9209 z" id="boundary" inkscape:connector-curvature="0" />
	<path style="fill:none;stroke:red;stroke-width:1px;stroke-linecap:butt;stroke-linejoin:miter;stroke-opacity:1" d="M 610.619,12.9209 592.777,12.9209 z" id="boundary" inkscape:connector-curvature="0" />
	<path style="fill:none;stroke:red;stroke-width:1px;stroke-linecap:butt;stroke-linejoin:miter;stroke-opacity:1" d="M 574.935,12.9209 557.094,12.9209 z" id="boundary" inkscape:connector-curvature="0" />
	<path style="fill:none;stroke:red;stroke-width:1px;stroke-linecap:butt;stroke-linejoin:miter;stroke-opacity:1" d="M 503.568,4 521.41,4 z" id="boundary" inkscape:connector-curvature="0" />
	<path style="fill:none;stroke:red;stroke-width:1px;stroke-linecap:butt;stroke-linejoin:miter;stroke-opacity:1" d="M 521.41,4 539.252,7.56835 z" id="boundary" inkscape:connector-curvature="0" />
	<path style="fill:none;stroke:red;stroke-width:1px;stroke-linecap:butt;stroke-linejoin:miter;stroke-opacity:1" d="M 467.885,4 485.727,4 z" id="boundary" inkscape:connector-curvature="0" />
	<path style="fill:none;stroke:red;stroke-width:1px;stroke-linecap:butt;stroke-linejoin:miter;stroke-opacity:1" d="M 293.036,32.5468 275.194,39.6835 z" id="boundary" inkscape:connector-curvature="0" />
	<path style="fill:none;stroke:red;stroke-width:1px;stroke-linecap:butt;stroke-linejoin:miter;stroke-opacity:1" d="M 275.194,39.6835 257.353,41.4676 z" id="boundary" inkscape:connector-curvature="0" />
	<path style="fill:none;stroke:red;stroke-width:1px;stroke-linecap:butt;stroke-linejoin:miter;stroke-opacity:1" d="M 257.353,41.4676 248.432,57.5252 z" id="boundary" inkscape:connector-curvature="0" />
	<path style="fill:none;stroke:red;stroke-width:1px;stroke-linecap:butt;stroke-linejoin:miter;stroke-opacity:1" d="M 248.432,57.5252 230.59,57.5252 z" id="boundary" inkscape:connector-curvature="0" />
	<path style="fill:none;stroke:red;stroke-width:1px;stroke-linecap:butt;stroke-linejoin:miter;stroke-opacity:1" d="M 293.036,32.5468 310.878,30.7626 z" id="boundary" inkscape:connector-curvature="0" />
	<path style="fill:none;stroke:red;stroke-width:1px;stroke-linecap:butt;stroke-linejoin:miter;stroke-opacity:1" d="M 360.835,18.2734 378.676,12.9209 z" id="boundary" inkscape:connector-curvature="0" />
	<path style="fill:none;stroke:red;stroke-width:1px;stroke-linecap:butt;stroke-linejoin:miter;stroke-opacity:1" d="M 346.561,30.7626 360.835,18.2734 z" id="boundary" inkscape:connector-curvature="0" />
	<path style="fill:none;stroke:red;stroke-width:1px;stroke-linecap:butt;stroke-linejoin:miter;stroke-opacity:1" d="M 592.777,12.9209 574.935,12.9209 z" id="boundary" inkscape:connector-curvature="0" />
	<path style="fill:none;stroke:red;stroke-width:1px;stroke-linecap:butt;stroke-linejoin:miter;stroke-opacity:1" d="M 310.878,30.7626 328.719,30.7626 z" id="boundary" inkscape:connector-curvature="0" />
	<path style="fill:none;stroke:red;stroke-width:1px;stroke-linecap:butt;stroke-linejoin:miter;stroke-opacity:1" d="M 346.561,30.7626 328.719,30.7626 z" id="boundary" inkscape:connector-curvature="0" />
	<path style="fill:none;stroke:red;stroke-width:1px;stroke-linecap:butt;stroke-linejoin:miter;stroke-opacity:1" d="M 27.1942,353.698 30.7626,371.54 z" id="boundary" inkscape:connector-curvature="0" />
	<path style="fill:none;stroke:red;stroke-width:1px;stroke-linecap:butt;stroke-linejoin:miter;stroke-opacity:1" d="M 27.1942,353.698 21.8417,335.856 z" id="boundary" inkscape:connector-curvature="0" />
	<path style="fill:none;stroke:red;stroke-width:1px;stroke-linecap:butt;stroke-linejoin:miter;stroke-opacity:1" d="M 30.7626,371.54 46.8201,380.46 z" id="boundary" inkscape:connector-curvature="0" />
	<path style="fill:none;stroke:red;stroke-width:1px;stroke-linecap:butt;stroke-linejoin:miter;stroke-opacity:1" d="M 46.8201,380.46 48.6043,398.302 z" id="boundary" inkscape:connector-curvature="0" />
	<path style="fill:none;stroke:red;stroke-width:1px;stroke-linecap:butt;stroke-linejoin:miter;stroke-opacity:1" d="M 59.3094,412.576 48.6043,398.302 z" id="boundary" inkscape:connector-curvature="0" />
	<path style="fill:none;stroke:red;stroke-width:1px;stroke-linecap:butt;stroke-linejoin:miter;stroke-opacity:1" d="M 59.3094,412.576 75.3669,421.496 z" id="boundary" inkscape:connector-curvature="0" />
	<path style="fill:none;stroke:red;stroke-width:1px;stroke-linecap:butt;stroke-linejoin:miter;stroke-opacity:1" d="M 75.3669,421.496 84.2878,437.554 z" id="boundary" inkscape:connector-curvature="0" />
	<path style="fill:none;stroke:red;stroke-width:1px;stroke-linecap:butt;stroke-linejoin:miter;stroke-opacity:1" d="M 102.129,442.906 84.2878,437.554 z" id="boundary" inkscape:connector-curvature="0" />
	<path style="fill:none;stroke:red;stroke-width:1px;stroke-linecap:butt;stroke-linejoin:miter;stroke-opacity:1" d="M 123.54,469.669 107.482,460.748 z" id="boundary" inkscape:connector-curvature="0" />
	<path style="fill:none;stroke:red;stroke-width:1px;stroke-linecap:butt;stroke-linejoin:miter;stroke-opacity:1" d="M 107.482,460.748 102.129,442.906 z" id="boundary" inkscape:connector-curvature="0" />
	<path style="fill:none;stroke:red;stroke-width:1px;stroke-linecap:butt;stroke-linejoin:miter;stroke-opacity:1" d="M 137.813,480.374 123.54,469.669 z" id="boundary" inkscape:connector-curvature="0" />
	<path style="fill:none;stroke:red;stroke-width:1px;stroke-linecap:butt;stroke-linejoin:miter;stroke-opacity:1" d="M 137.813,480.374 150.302,494.647 z" id="boundary" inkscape:connector-curvature="0" />
	<path style="fill:none;stroke:red;stroke-width:1px;stroke-linecap:butt;stroke-linejoin:miter;stroke-opacity:1" d="M 168.144,496.432 150.302,494.647 z" id="boundary" inkscape:connector-curvature="0" />
	<path style="fill:none;stroke:red;stroke-width:1px;stroke-linecap:butt;stroke-linejoin:miter;stroke-opacity:1" d="M 194.906,514.273 177.065,512.489 z" id="boundary" inkscape:connector-curvature="0" />
	<path style="fill:none;stroke:red;stroke-width:1px;stroke-linecap:butt;stroke-linejoin:miter;stroke-opacity:1" d="M 177.065,512.489 168.144,496.432 z" id="boundary" inkscape:connector-curvature="0" />
	<path style="fill:none;stroke:red;stroke-width:1px;stroke-linecap:butt;stroke-linejoin:miter;stroke-opacity:1" d="M 212.748,514.273 194.906,514.273 z" id="boundary" inkscape:connector-curvature="0" />
	<path style="fill:none;stroke:red;stroke-width:1px;stroke-linecap:butt;stroke-linejoin:miter;stroke-opacity:1" d="M 246.647,523.194 228.806,523.194 z" id="boundary" inkscape:connector-curvature="0" />
	<path style="fill:none;stroke:red;stroke-width:1px;stroke-linecap:butt;stroke-linejoin:miter;stroke-opacity:1" d="M 228.806,523.194 212.748,514.273 z" id="boundary" inkscape:connector-curvature="0" />
	<path style="fill:none;stroke:red;stroke-width:1px;stroke-linecap:butt;stroke-linejoin:miter;stroke-opacity:1" d="M 246.647,523.194 257.353,537.468 z" id="boundary" inkscape:connector-curvature="0" />
	<path style="fill:none;stroke:red;stroke-width:1px;stroke-linecap:butt;stroke-linejoin:miter;stroke-opacity:1" d="M 257.353,537.468 275.194,541.036 z" id="boundary" inkscape:connector-curvature="0" />
	<path style="fill:none;stroke:red;stroke-width:1px;stroke-linecap:butt;stroke-linejoin:miter;stroke-opacity:1" d="M 275.194,541.036 293.036,546.388 z" id="boundary" inkscape:connector-curvature="0" />
	<path style="fill:none;stroke:red;stroke-width:1px;stroke-linecap:butt;stroke-linejoin:miter;stroke-opacity:1" d="M 310.878,549.957 328.719,549.957 z" id="boundary" inkscape:connector-curvature="0" />
	<path style="fill:none;stroke:red;stroke-width:1px;stroke-linecap:butt;stroke-linejoin:miter;stroke-opacity:1" d="M 310.878,549.957 293.036,546.388 z" id="boundary" inkscape:connector-curvature="0" />
	<path style="fill:none;stroke:red;stroke-width:1px;stroke-linecap:butt;stroke-linejoin:miter;stroke-opacity:1" d="M 396.518,567.799 378.676,567.799 z" id="boundary" inkscape:connector-curvature="0" />
	<path style="fill:none;stroke:red;stroke-width:1px;stroke-linecap:butt;stroke-linejoin:miter;stroke-opacity:1" d="M 378.676,567.799 360.835,560.662 z" id="boundary" inkscape:connector-curvature="0" />
	<path style="fill:none;stroke:red;stroke-width:1px;stroke-linecap:butt;stroke-linejoin:miter;stroke-opacity:1" d="M 360.835,560.662 346.561,549.957 z" id="boundary" inkscape:connector-curvature="0" />
	<path style="fill:none;stroke:red;stroke-width:1px;stroke-linecap:butt;stroke-linejoin:miter;stroke-opacity:1" d="M 328.719,549.957 346.561,549.957 z" id="boundary" inkscape:connector-curvature="0" />
	<path style="fill:none;stroke:red;stroke-width:1px;stroke-linecap:butt;stroke-linejoin:miter;stroke-opacity:1" d="M 396.518,567.799 414.36,567.799 z" id="boundary" inkscape:connector-curvature="0" />
	<path style="fill:none;stroke:red;stroke-width:1px;stroke-linecap:butt;stroke-linejoin:miter;stroke-opacity:1" d="M 432.201,567.799 414.36,567.799 z" id="boundary" inkscape:connector-curvature="0" />
	<path style="fill:none;stroke:red;stroke-width:1px;stroke-linecap:butt;stroke-linejoin:miter;stroke-opacity:1" d="M 483.942,576.719 466.101,576.719 z" id="boundary" inkscape:connector-curvature="0" />
	<path style="fill:none;stroke:red;stroke-width:1px;stroke-linecap:butt;stroke-linejoin:miter;stroke-opacity:1" d="M 466.101,576.719 450.043,567.799 z" id="boundary" inkscape:connector-curvature="0" />
	<path style="fill:none;stroke:red;stroke-width:1px;stroke-linecap:butt;stroke-linejoin:miter;stroke-opacity:1" d="M 501.784,576.719 483.942,576.719 z" id="boundary" inkscape:connector-curvature="0" />
	<path style="fill:none;stroke:red;stroke-width:1px;stroke-linecap:butt;stroke-linejoin:miter;stroke-opacity:1" d="M 432.201,567.799 450.043,567.799 z" id="boundary" inkscape:connector-curvature="0" />
	<path style="fill:none;stroke:red;stroke-width:1px;stroke-linecap:butt;stroke-linejoin:miter;stroke-opacity:1" d="M 501.784,576.719 519.626,576.719 z" id="boundary" inkscape:connector-curvature="0" />
	<path style="fill:none;stroke:red;stroke-width:1px;stroke-linecap:butt;stroke-linejoin:miter;stroke-opacity:1" d="M 519.626,576.719 530.331,590.993 z" id="boundary" inkscape:connector-curvature="0" />
	<path style="fill:none;stroke:red;stroke-width:1px;stroke-linecap:butt;stroke-linejoin:miter;stroke-opacity:1" d="M 557.094,612.403 539.252,607.05 z" id="boundary" inkscape:connector-curvature="0" />
	<path style="fill:none;stroke:red;stroke-width:1px;stroke-linecap:butt;stroke-linejoin:miter;stroke-opacity:1" d="M 539.252,607.05 530.331,590.993 z" id="boundary" inkscape:connector-curvature="0" />
	<path style="fill:none;stroke:red;stroke-width:1px;stroke-linecap:butt;stroke-linejoin:miter;stroke-opacity:1" d="M 557.094,612.403 562.446,630.245 z" id="boundary" inkscape:connector-curvature="0" />
	<path style="fill:none;stroke:red;stroke-width:1px;stroke-linecap:butt;stroke-linejoin:miter;stroke-opacity:1" d="M 582.072,657.007 566.014,648.086 z" id="boundary" inkscape:connector-curvature="0" />
	<path style="fill:none;stroke:red;stroke-width:1px;stroke-linecap:butt;stroke-linejoin:miter;stroke-opacity:1" d="M 566.014,648.086 562.446,630.245 z" id="boundary" inkscape:connector-curvature="0" />
	<path style="fill:none;stroke:red;stroke-width:1px;stroke-linecap:butt;stroke-linejoin:miter;stroke-opacity:1" d="M 619.54,714.101 603.482,705.18 z" id="boundary" inkscape:connector-curvature="0" />
	<path style="fill:none;stroke:red;stroke-width:1px;stroke-linecap:butt;stroke-linejoin:miter;stroke-opacity:1" d="M 603.482,705.18 594.561,689.122 z" id="boundary" inkscape:connector-curvature="0" />
	<path style="fill:none;stroke:red;stroke-width:1px;stroke-linecap:butt;stroke-linejoin:miter;stroke-opacity:1" d="M 594.561,689.122 592.777,671.281 z" id="boundary" inkscape:connector-curvature="0" />
	<path style="fill:none;stroke:red;stroke-width:1px;stroke-linecap:butt;stroke-linejoin:miter;stroke-opacity:1" d="M 582.072,657.007 592.777,671.281 z" id="boundary" inkscape:connector-curvature="0" />
	<path style="fill:none;stroke:red;stroke-width:1px;stroke-linecap:butt;stroke-linejoin:miter;stroke-opacity:1" d="M 610.619,12.9209 628.46,12.9209 z" id="boundary" inkscape:connector-curvature="0" />
	<path style="fill:none;stroke:red;stroke-width:1px;stroke-linecap:butt;stroke-linejoin:miter;stroke-opacity:1" d="M 674.849,30.7626 657.007,30.7626 z" id="boundary" inkscape:connector-curvature="0" />
	<path style="fill:none;stroke:red;stroke-width:1px;stroke-linecap:butt;stroke-linejoin:miter;stroke-opacity:1" d="M 657.007,30.7626 646.302,16.4892 z" id="boundary" inkscape:connector-curvature="0" />
	<path style="fill:none;stroke:red;stroke-width:1px;stroke-linecap:butt;stroke-linejoin:miter;stroke-opacity:1" d="M 692.691,30.7626 674.849,30.7626 z" id="boundary" inkscape:connector-curvature="0" />
	<path style="fill:none;stroke:red;stroke-width:1px;stroke-linecap:butt;stroke-linejoin:miter;stroke-opacity:1" d="M 628.46,12.9209 646.302,16.4892 z" id="boundary" inkscape:connector-curvature="0" />
	<path style="fill:none;stroke:red;stroke-width:1px;stroke-linecap:butt;stroke-linejoin:miter;stroke-opacity:1" d="M 710.532,36.1151 692.691,30.7626 z" id="boundary" inkscape:connector-curvature="0" />
	<path style="fill:none;stroke:red;stroke-width:1px;stroke-linecap:butt;stroke-linejoin:miter;stroke-opacity:1" d="M 728.374,39.6835 746.216,39.6835 z" id="boundary" inkscape:connector-curvature="0" />
	<path style="fill:none;stroke:red;stroke-width:1px;stroke-linecap:butt;stroke-linejoin:miter;stroke-opacity:1" d="M 746.216,39.6835 755.137,55.741 z" id="boundary" inkscape:connector-curvature="0" />
	<path style="fill:none;stroke:red;stroke-width:1px;stroke-linecap:butt;stroke-linejoin:miter;stroke-opacity:1" d="M 728.374,39.6835 710.532,36.1151 z" id="boundary" inkscape:connector-curvature="0" />
	<path style="fill:none;stroke:red;stroke-width:1px;stroke-linecap:butt;stroke-linejoin:miter;stroke-opacity:1" d="M 772.978,57.5252 755.137,55.741 z" id="boundary" inkscape:connector-curvature="0" />
	<path style="fill:none;stroke:red;stroke-width:1px;stroke-linecap:butt;stroke-linejoin:miter;stroke-opacity:1" d="M 790.82,62.8777 772.978,57.5252 z" id="boundary" inkscape:connector-curvature="0" />
	<path style="fill:none;stroke:red;stroke-width:1px;stroke-linecap:butt;stroke-linejoin:miter;stroke-opacity:1" d="M 808.662,66.446 826.504,71.7986 z" id="boundary" inkscape:connector-curvature="0" />
	<path style="fill:none;stroke:red;stroke-width:1px;stroke-linecap:butt;stroke-linejoin:miter;stroke-opacity:1" d="M 826.504,71.7986 840.777,84.2878 z" id="boundary" inkscape:connector-curvature="0" />
	<path style="fill:none;stroke:red;stroke-width:1px;stroke-linecap:butt;stroke-linejoin:miter;stroke-opacity:1" d="M 790.82,62.8777 808.662,66.446 z" id="boundary" inkscape:connector-curvature="0" />
	<path style="fill:none;stroke:red;stroke-width:1px;stroke-linecap:butt;stroke-linejoin:miter;stroke-opacity:1" d="M 856.835,93.2086 874.676,93.2086 z" id="boundary" inkscape:connector-curvature="0" />
	<path style="fill:none;stroke:red;stroke-width:1px;stroke-linecap:butt;stroke-linejoin:miter;stroke-opacity:1" d="M 874.676,93.2086 890.734,102.129 z" id="boundary" inkscape:connector-curvature="0" />
	<path style="fill:none;stroke:red;stroke-width:1px;stroke-linecap:butt;stroke-linejoin:miter;stroke-opacity:1" d="M 856.835,93.2086 840.777,84.2878 z" id="boundary" inkscape:connector-curvature="0" />
	<path style="fill:none;stroke:red;stroke-width:1px;stroke-linecap:butt;stroke-linejoin:miter;stroke-opacity:1" d="M 851.482,482.158 865.755,469.669 z" id="boundary" inkscape:connector-curvature="0" />
	<path style="fill:none;stroke:red;stroke-width:1px;stroke-linecap:butt;stroke-linejoin:miter;stroke-opacity:1" d="M 881.813,460.748 865.755,469.669 z" id="boundary" inkscape:connector-curvature="0" />
	<path style="fill:none;stroke:red;stroke-width:1px;stroke-linecap:butt;stroke-linejoin:miter;stroke-opacity:1" d="M 881.813,460.748 899.655,460.748 z" id="boundary" inkscape:connector-curvature="0" />
	<path style="fill:none;stroke:red;stroke-width:1px;stroke-linecap:butt;stroke-linejoin:miter;stroke-opacity:1" d="M 851.482,482.158 833.64,487.511 z" id="boundary" inkscape:connector-curvature="0" />
	<path style="fill:none;stroke:red;stroke-width:1px;stroke-linecap:butt;stroke-linejoin:miter;stroke-opacity:1" d="M 915.712,127.108 906.791,111.05 z" id="boundary" inkscape:connector-curvature="0" />
	<path style="fill:none;stroke:red;stroke-width:1px;stroke-linecap:butt;stroke-linejoin:miter;stroke-opacity:1" d="M 933.554,134.245 915.712,127.108 z" id="boundary" inkscape:connector-curvature="0" />
	<path style="fill:none;stroke:red;stroke-width:1px;stroke-linecap:butt;stroke-linejoin:miter;stroke-opacity:1" d="M 958.532,177.065 942.475,168.144 z" id="boundary" inkscape:connector-curvature="0" />
	<path style="fill:none;stroke:red;stroke-width:1px;stroke-linecap:butt;stroke-linejoin:miter;stroke-opacity:1" d="M 942.475,168.144 933.554,152.086 z" id="boundary" inkscape:connector-curvature="0" />
	<path style="fill:none;stroke:red;stroke-width:1px;stroke-linecap:butt;stroke-linejoin:miter;stroke-opacity:1" d="M 933.554,152.086 933.554,134.245 z" id="boundary" inkscape:connector-curvature="0" />
	<path style="fill:none;stroke:red;stroke-width:1px;stroke-linecap:butt;stroke-linejoin:miter;stroke-opacity:1" d="M 969.237,210.964 960.317,194.906 z" id="boundary" inkscape:connector-curvature="0" />
	<path style="fill:none;stroke:red;stroke-width:1px;stroke-linecap:butt;stroke-linejoin:miter;stroke-opacity:1" d="M 960.317,194.906 958.532,177.065 z" id="boundary" inkscape:connector-curvature="0" />
	<path style="fill:none;stroke:red;stroke-width:1px;stroke-linecap:butt;stroke-linejoin:miter;stroke-opacity:1" d="M 978.158,227.022 969.237,210.964 z" id="boundary" inkscape:connector-curvature="0" />
	<path style="fill:none;stroke:red;stroke-width:1px;stroke-linecap:butt;stroke-linejoin:miter;stroke-opacity:1" d="M 978.158,227.022 987.079,243.079 z" id="boundary" inkscape:connector-curvature="0" />
	<path style="fill:none;stroke:red;stroke-width:1px;stroke-linecap:butt;stroke-linejoin:miter;stroke-opacity:1" d="M 987.079,243.079 987.079,260.921 z" id="boundary" inkscape:connector-curvature="0" />
	<path style="fill:none;stroke:red;stroke-width:1px;stroke-linecap:butt;stroke-linejoin:miter;stroke-opacity:1" d="M 996,276.978 987.079,260.921 z" id="boundary" inkscape:connector-curvature="0" />
	<path style="fill:none;stroke:red;stroke-width:1px;stroke-linecap:butt;stroke-linejoin:miter;stroke-opacity:1" d="M 933.554,407.223 949.612,398.302 z" id="boundary" inkscape:connector-curvature="0" />
	<path style="fill:none;stroke:red;stroke-width:1px;stroke-linecap:butt;stroke-linejoin:miter;stroke-opacity:1" d="M 922.849,433.986 933.554,407.223 z" id="boundary" inkscape:connector-curvature="0" />
	<path style="fill:none;stroke:red;stroke-width:1px;stroke-linecap:butt;stroke-linejoin:miter;stroke-opacity:1" d="M 960.317,371.54 949.612,398.302 z" id="boundary" inkscape:connector-curvature="0" />
	<path style="fill:none;stroke:red;stroke-width:1px;stroke-linecap:butt;stroke-linejoin:miter;stroke-opacity:1" d="M 899.655,460.748 906.791,442.906 z" id="boundary" inkscape:connector-curvature="0" />
	<path style="fill:none;stroke:red;stroke-width:1px;stroke-linecap:butt;stroke-linejoin:miter;stroke-opacity:1" d="M 906.791,442.906 922.849,433.986 z" id="boundary" inkscape:connector-curvature="0" />
	<path style="fill:none;stroke:red;stroke-width:1px;stroke-linecap:butt;stroke-linejoin:miter;stroke-opacity:1" d="M 987.079,300.173 996,276.978 z" id="boundary" inkscape:connector-curvature="0" />
	<path style="fill:none;stroke:red;stroke-width:1px;stroke-linecap:butt;stroke-linejoin:miter;stroke-opacity:1" d="M 987.079,318.014 987.079,300.173 z" id="boundary" inkscape:connector-curvature="0" />
	<path style="fill:none;stroke:red;stroke-width:1px;stroke-linecap:butt;stroke-linejoin:miter;stroke-opacity:1" d="M 987.079,335.856 987.079,318.014 z" id="boundary" inkscape:connector-curvature="0" />
	<path style="fill:none;stroke:red;stroke-width:1px;stroke-linecap:butt;stroke-linejoin:miter;stroke-opacity:1" d="M 960.317,371.54 969.237,344.777 z" id="boundary" inkscape:connector-curvature="0" />
	<path style="fill:none;stroke:red;stroke-width:1px;stroke-linecap:butt;stroke-linejoin:miter;stroke-opacity:1" d="M 969.237,344.777 987.079,335.856 z" id="boundary" inkscape:connector-curvature="0" />
	<path style="fill:none;stroke:red;stroke-width:1px;stroke-linecap:butt;stroke-linejoin:miter;stroke-opacity:1" d="M 890.734,102.129 906.791,111.05 z" id="boundary" inkscape:connector-curvature="0" />
	<path style="fill:none;stroke:red;stroke-width:1px;stroke-linecap:butt;stroke-linejoin:miter;stroke-opacity:1" d="M 724.806,578.504 710.532,567.799 z" id="boundary" inkscape:connector-curvature="0" />
	<path style="fill:none;stroke:red;stroke-width:1px;stroke-linecap:butt;stroke-linejoin:miter;stroke-opacity:1" d="M 628.46,730.158 619.54,714.101 z" id="boundary" inkscape:connector-curvature="0" />
	<path style="fill:none;stroke:red;stroke-width:1px;stroke-linecap:butt;stroke-linejoin:miter;stroke-opacity:1" d="M 728.374,614.187 728.374,632.029 z" id="boundary" inkscape:connector-curvature="0" />
	<path style="fill:none;stroke:red;stroke-width:1px;stroke-linecap:butt;stroke-linejoin:miter;stroke-opacity:1" d="M 724.806,578.504 728.374,596.345 z" id="boundary" inkscape:connector-curvature="0" />
	<path style="fill:none;stroke:red;stroke-width:1px;stroke-linecap:butt;stroke-linejoin:miter;stroke-opacity:1" d="M 710.532,567.799 710.532,549.957 z" id="boundary" inkscape:connector-curvature="0" />
	<path style="fill:none;stroke:red;stroke-width:1px;stroke-linecap:butt;stroke-linejoin:miter;stroke-opacity:1" d="M 710.532,549.957 728.374,541.036 z" id="boundary" inkscape:connector-curvature="0" />
	<path style="fill:none;stroke:red;stroke-width:1px;stroke-linecap:butt;stroke-linejoin:miter;stroke-opacity:1" d="M 728.374,614.187 728.374,596.345 z" id="boundary" inkscape:connector-curvature="0" />
	<path style="fill:none;stroke:red;stroke-width:1px;stroke-linecap:butt;stroke-linejoin:miter;stroke-opacity:1" d="M 737.295,665.928 728.374,649.871 z" id="boundary" inkscape:connector-curvature="0" />
	<path style="fill:none;stroke:red;stroke-width:1px;stroke-linecap:butt;stroke-linejoin:miter;stroke-opacity:1" d="M 728.374,649.871 728.374,632.029 z" id="boundary" inkscape:connector-curvature="0" />
	<path style="fill:none;stroke:red;stroke-width:1px;stroke-linecap:butt;stroke-linejoin:miter;stroke-opacity:1" d="M 728.374,541.036 746.216,541.036 z" id="boundary" inkscape:connector-curvature="0" />
	<path style="fill:none;stroke:red;stroke-width:1px;stroke-linecap:butt;stroke-linejoin:miter;stroke-opacity:1" d="M 637.381,746.216 653.439,755.137 z" id="boundary" inkscape:connector-curvature="0" />
	<path style="fill:none;stroke:red;stroke-width:1px;stroke-linecap:butt;stroke-linejoin:miter;stroke-opacity:1" d="M 653.439,755.137 655.223,772.978 z" id="boundary" inkscape:connector-curvature="0" />
	<path style="fill:none;stroke:red;stroke-width:1px;stroke-linecap:butt;stroke-linejoin:miter;stroke-opacity:1" d="M 637.381,746.216 628.46,730.158 z" id="boundary" inkscape:connector-curvature="0" />
	<path style="fill:none;stroke:red;stroke-width:1px;stroke-linecap:butt;stroke-linejoin:miter;stroke-opacity:1" d="M 655.223,772.978 671.281,781.899 z" id="boundary" inkscape:connector-curvature="0" />
	<path style="fill:none;stroke:red;stroke-width:1px;stroke-linecap:butt;stroke-linejoin:miter;stroke-opacity:1" d="M 671.281,781.899 678.417,799.741 z" id="boundary" inkscape:connector-curvature="0" />
	<path style="fill:none;stroke:red;stroke-width:1px;stroke-linecap:butt;stroke-linejoin:miter;stroke-opacity:1" d="M 678.417,799.741 681.986,817.583 z" id="boundary" inkscape:connector-curvature="0" />
	<path style="fill:none;stroke:red;stroke-width:1px;stroke-linecap:butt;stroke-linejoin:miter;stroke-opacity:1" d="M 681.986,817.583 698.043,826.504 z" id="boundary" inkscape:connector-curvature="0" />
	<path style="fill:none;stroke:red;stroke-width:1px;stroke-linecap:butt;stroke-linejoin:miter;stroke-opacity:1" d="M 698.043,826.504 708.748,840.777 z" id="boundary" inkscape:connector-curvature="0" />
	<path style="fill:none;stroke:red;stroke-width:1px;stroke-linecap:butt;stroke-linejoin:miter;stroke-opacity:1" d="M 708.748,840.777 710.532,858.619 z" id="boundary" inkscape:connector-curvature="0" />
	<path style="fill:none;stroke:red;stroke-width:1px;stroke-linecap:butt;stroke-linejoin:miter;stroke-opacity:1" d="M 710.532,858.619 726.59,867.54 z" id="boundary" inkscape:connector-curvature="0" />
	<path style="fill:none;stroke:red;stroke-width:1px;stroke-linecap:butt;stroke-linejoin:miter;stroke-opacity:1" d="M 726.59,867.54 735.511,883.597 z" id="boundary" inkscape:connector-curvature="0" />
	<path style="fill:none;stroke:red;stroke-width:1px;stroke-linecap:butt;stroke-linejoin:miter;stroke-opacity:1" d="M 737.295,665.928 737.295,683.77 z" id="boundary" inkscape:connector-curvature="0" />
	<path style="fill:none;stroke:red;stroke-width:1px;stroke-linecap:butt;stroke-linejoin:miter;stroke-opacity:1" d="M 751.568,730.158 737.295,719.453 z" id="boundary" inkscape:connector-curvature="0" />
	<path style="fill:none;stroke:red;stroke-width:1px;stroke-linecap:butt;stroke-linejoin:miter;stroke-opacity:1" d="M 737.295,719.453 737.295,701.612 z" id="boundary" inkscape:connector-curvature="0" />
	<path style="fill:none;stroke:red;stroke-width:1px;stroke-linecap:butt;stroke-linejoin:miter;stroke-opacity:1" d="M 737.295,701.612 737.295,683.77 z" id="boundary" inkscape:connector-curvature="0" />
	<path style="fill:none;stroke:red;stroke-width:1px;stroke-linecap:butt;stroke-linejoin:miter;stroke-opacity:1" d="M 751.568,730.158 755.137,748 z" id="boundary" inkscape:connector-curvature="0" />
	<path style="fill:none;stroke:red;stroke-width:1px;stroke-linecap:butt;stroke-linejoin:miter;stroke-opacity:1" d="M 833.64,487.511 817.583,496.432 z" id="boundary" inkscape:connector-curvature="0" />
	<path style="fill:none;stroke:red;stroke-width:1px;stroke-linecap:butt;stroke-linejoin:miter;stroke-opacity:1" d="M 817.583,496.432 799.741,496.432 z" id="boundary" inkscape:connector-curvature="0" />
	<path style="fill:none;stroke:red;stroke-width:1px;stroke-linecap:butt;stroke-linejoin:miter;stroke-opacity:1" d="M 790.82,514.273 799.741,496.432 z" id="boundary" inkscape:connector-curvature="0" />
	<path style="fill:none;stroke:red;stroke-width:1px;stroke-linecap:butt;stroke-linejoin:miter;stroke-opacity:1" d="M 772.978,514.273 790.82,514.273 z" id="boundary" inkscape:connector-curvature="0" />
	<path style="fill:none;stroke:red;stroke-width:1px;stroke-linecap:butt;stroke-linejoin:miter;stroke-opacity:1" d="M 772.978,514.273 755.137,523.194 z" id="boundary" inkscape:connector-curvature="0" />
	<path style="fill:none;stroke:red;stroke-width:1px;stroke-linecap:butt;stroke-linejoin:miter;stroke-opacity:1" d="M 746.216,541.036 755.137,523.194 z" id="boundary" inkscape:connector-curvature="0" />
	<path style="fill:none;stroke:red;stroke-width:1px;stroke-linecap:butt;stroke-linejoin:miter;stroke-opacity:1" d="M 755.137,765.842 755.137,783.683 z" id="boundary" inkscape:connector-curvature="0" />
	<path style="fill:none;stroke:red;stroke-width:1px;stroke-linecap:butt;stroke-linejoin:miter;stroke-opacity:1" d="M 755.137,765.842 755.137,748 z" id="boundary" inkscape:connector-curvature="0" />
	<path style="fill:none;stroke:red;stroke-width:1px;stroke-linecap:butt;stroke-linejoin:miter;stroke-opacity:1" d="M 755.137,801.525 764.058,817.583 z" id="boundary" inkscape:connector-curvature="0" />
	<path style="fill:none;stroke:red;stroke-width:1px;stroke-linecap:butt;stroke-linejoin:miter;stroke-opacity:1" d="M 755.137,783.683 755.137,801.525 z" id="boundary" inkscape:connector-curvature="0" />
	<path style="fill:none;stroke:red;stroke-width:1px;stroke-linecap:butt;stroke-linejoin:miter;stroke-opacity:1" d="M 764.058,835.424 764.058,853.266 z" id="boundary" inkscape:connector-curvature="0" />
	<path style="fill:none;stroke:red;stroke-width:1px;stroke-linecap:butt;stroke-linejoin:miter;stroke-opacity:1" d="M 764.058,853.266 767.626,871.108 z" id="boundary" inkscape:connector-curvature="0" />
	<path style="fill:none;stroke:red;stroke-width:1px;stroke-linecap:butt;stroke-linejoin:miter;stroke-opacity:1" d="M 764.058,835.424 764.058,817.583 z" id="boundary" inkscape:connector-curvature="0" />
	<path style="fill:none;stroke:red;stroke-width:1px;stroke-linecap:butt;stroke-linejoin:miter;stroke-opacity:1" d="M 749.784,896.086 735.511,883.597 z" id="boundary" inkscape:connector-curvature="0" />
	<path style="fill:none;stroke:red;stroke-width:1px;stroke-linecap:butt;stroke-linejoin:miter;stroke-opacity:1" d="M 772.978,888.95 756.921,913.928 z" id="boundary" inkscape:connector-curvature="0" />
	<path style="fill:none;stroke:red;stroke-width:1px;stroke-linecap:butt;stroke-linejoin:miter;stroke-opacity:1" d="M 756.921,913.928 749.784,896.086 z" id="boundary" inkscape:connector-curvature="0" />
	<path style="fill:none;stroke:red;stroke-width:1px;stroke-linecap:butt;stroke-linejoin:miter;stroke-opacity:1" d="M 767.626,871.108 772.978,888.95 z" id="boundary" inkscape:connector-curvature="0" />
	<circle cx="4" cy="268.058" r="4" fill="#0" id="circle0"/>
	<circle cx="4" cy="285.899" r="4" fill="#0" id="circle1"/>
	<circle cx="4" cy="303.741" r="4" fill="#0" id="circle2"/>
	<circle cx="14.705" cy="318.014" r="4" fill="#0" id="circle3"/>
	<circle cx="21.8417" cy="232.374" r="4" fill="#0" id="circle4"/>
	<circle cx="21.8417" cy="250.216" r="4" fill="#0" id="circle5"/>
	<circle cx="21.8417" cy="335.856" r="4" fill="#0" id="circle6"/>
	<circle cx="27.1942" cy="353.698" r="4" fill="#0" id="circle7"/>
	<circle cx="30.7626" cy="205.612" r="4" fill="#0" id="circle8"/>
	<circle cx="30.7626" cy="371.54" r="4" fill="#0" id="circle9"/>
	<circle cx="46.8201" cy="380.46" r="4" fill="#0" id="circle10"/>
	<circle cx="48.6043" cy="178.849" r="4" fill="#0" id="circle11"/>
	<circle cx="48.6043" cy="196.691" r="4" fill="#0" id="circle12"/>
	<circle cx="48.6043" cy="398.302" r="4" fill="#0" id="circle13"/>
	<circle cx="57.5252" cy="161.007" r="4" fill="#0" id="circle14"/>
	<circle cx="59.3094" cy="412.576" r="4" fill="#0" id="circle15"/>
	<circle cx="75.3669" cy="134.245" r="4" fill="#0" id="circle16"/>
	<circle cx="75.3669" cy="152.086" r="4" fill="#0" id="circle17"/>
	<circle cx="75.3669" cy="421.496" r="4" fill="#0" id="circle18"/>
	<circle cx="84.2878" cy="437.554" r="4" fill="#0" id="circle19"/>
	<circle cx="89.6403" cy="119.971" r="4" fill="#0" id="circle20"/>
	<circle cx="102.129" cy="442.906" r="4" fill="#0" id="circle21"/>
	<circle cx="103.914" cy="105.698" r="4" fill="#0" id="circle22"/>
	<circle cx="107.482" cy="460.748" r="4" fill="#0" id="circle23"/>
	<circle cx="121.755" cy="102.129" r="4" fill="#0" id="circle24"/>
	<circle cx="123.54" cy="469.669" r="4" fill="#0" id="circle25"/>
	<circle cx="137.813" cy="93.2086" r="4" fill="#0" id="circle26"/>
	<circle cx="137.813" cy="480.374" r="4" fill="#0" id="circle27"/>
	<circle cx="150.302" cy="494.647" r="4" fill="#0" id="circle28"/>
	<circle cx="153.871" cy="84.2878" r="4" fill="#0" id="circle29"/>
	<circle cx="168.144" cy="496.432" r="4" fill="#0" id="circle30"/>
	<circle cx="171.712" cy="84.2878" r="4" fill="#0" id="circle31"/>
	<circle cx="177.065" cy="512.489" r="4" fill="#0" id="circle32"/>
	<circle cx="178.849" cy="66.446" r="4" fill="#0" id="circle33"/>
	<circle cx="194.906" cy="514.273" r="4" fill="#0" id="circle34"/>
	<circle cx="196.691" cy="66.446" r="4" fill="#0" id="circle35"/>
	<circle cx="212.748" cy="514.273" r="4" fill="#0" id="circle36"/>
	<circle cx="214.532" cy="66.446" r="4" fill="#0" id="circle37"/>
	<circle cx="228.806" cy="523.194" r="4" fill="#0" id="circle38"/>
	<circle cx="230.59" cy="57.5252" r="4" fill="#0" id="circle39"/>
	<circle cx="246.647" cy="523.194" r="4" fill="#0" id="circle40"/>
	<circle cx="248.432" cy="57.5252" r="4" fill="#0" id="circle41"/>
	<circle cx="257.353" cy="41.4676" r="4" fill="#0" id="circle42"/>
	<circle cx="257.353" cy="537.468" r="4" fill="#0" id="circle43"/>
	<circle cx="275.194" cy="39.6835" r="4" fill="#0" id="circle44"/>
	<circle cx="275.194" cy="541.036" r="4" fill="#0" id="circle45"/>
	<circle cx="293.036" cy="32.5468" r="4" fill="#0" id="circle46"/>
	<circle cx="293.036" cy="546.388" r="4" fill="#0" id="circle47"/>
	<circle cx="310.878" cy="30.7626" r="4" fill="#0" id="circle48"/>
	<circle cx="310.878" cy="549.957" r="4" fill="#0" id="circle49"/>
	<circle cx="328.719" cy="30.7626" r="4" fill="#0" id="circle50"/>
	<circle cx="328.719" cy="549.957" r="4" fill="#0" id="circle51"/>
	<circle cx="346.561" cy="30.7626" r="4" fill="#0" id="circle52"/>
	<circle cx="346.561" cy="549.957" r="4" fill="#0" id="circle53"/>
	<circle cx="360.835" cy="18.2734" r="4" fill="#0" id="circle54"/>
	<circle cx="360.835" cy="560.662" r="4" fill="#0" id="circle55"/>
	<circle cx="378.676" cy="12.9209" r="4" fill="#0" id="circle56"/>
	<circle cx="378.676" cy="567.799" r="4" fill="#0" id="circle57"/>
	<circle cx="396.518" cy="12.9209" r="4" fill="#0" id="circle58"/>
	<circle cx="396.518" cy="567.799" r="4" fill="#0" id="circle59"/>
	<circle cx="414.36" cy="12.9209" r="4" fill="#0" id="circle60"/>
	<circle cx="414.36" cy="567.799" r="4" fill="#0" id="circle61"/>
	<circle cx="432.201" cy="12.9209" r="4" fill="#0" id="circle62"/>
	<circle cx="432.201" cy="567.799" r="4" fill="#0" id="circle63"/>
	<circle cx="450.043" cy="9.35252" r="4" fill="#0" id="circle64"/>
	<circle cx="450.043" cy="567.799" r="4" fill="#0" id="circle65"/>
	<circle cx="466.101" cy="576.719" r="4" fill="#0" id="circle66"/>
	<circle cx="467.885" cy="4" r="4" fill="#0" id="circle67"/>
	<circle cx="483.942" cy="576.719" r="4" fill="#0" id="circle68"/>
	<circle cx="485.727" cy="4" r="4" fill="#0" id="circle69"/>
	<circle cx="501.784" cy="576.719" r="4" fill="#0" id="circle70"/>
	<circle cx="503.568" cy="4" r="4" fill="#0" id="circle71"/>
	<circle cx="519.626" cy="576.719" r="4" fill="#0" id="circle72"/>
	<circle cx="521.41" cy="4" r="4" fill="#0" id="circle73"/>
	<circle cx="530.331" cy="590.993" r="4" fill="#0" id="circle74"/>
	<circle cx="539.252" cy="7.56835" r="4" fill="#0" id="circle75"/>
	<circle cx="539.252" cy="607.05" r="4" fill="#0" id="circle76"/>
	<circle cx="557.094" cy="12.9209" r="4" fill="#0" id="circle77"/>
	<circle cx="557.094" cy="612.403" r="4" fill="#0" id="circle78"/>
	<circle cx="562.446" cy="630.245" r="4" fill="#0" id="circle79"/>
	<circle cx="566.014" cy="648.086" r="4" fill="#0" id="circle80"/>
	<circle cx="574.935" cy="12.9209" r="4" fill="#0" id="circle81"/>
	<circle cx="582.072" cy="657.007" r="4" fill="#0" id="circle82"/>
	<circle cx="592.777" cy="12.9209" r="4" fill="#0" id="circle83"/>
	<circle cx="592.777" cy="671.281" r="4" fill="#0" id="circle84"/>
	<circle cx="594.561" cy="689.122" r="4" fill="#0" id="circle85"/>
	<circle cx="603.482" cy="705.18" r="4" fill="#0" id="circle86"/>
	<circle cx="610.619" cy="12.9209" r="4" fill="#0" id="circle87"/>
	<circle cx="619.54" cy="714.101" r="4" fill="#0" id="circle88"/>
	<circle cx="628.46" cy="12.9209" r="4" fill="#0" id="circle89"/>
	<circle cx="628.46" cy="730.158" r="4" fill="#0" id="circle90"/>
	<circle cx="637.381" cy="746.216" r="4" fill="#0" id="circle91"/>
	<circle cx="646.302" cy="16.4892" r="4" fill="#0" id="circle92"/>
	<circle cx="653.439" cy="755.137" r="4" fill="#0" id="circle93"/>
	<circle cx="655.223" cy="772.978" r="4" fill="#0" id="circle94"/>
	<circle cx="657.007" cy="30.7626" r="4" fill="#0" id="circle95"/>
	<circle cx="671.281" cy="781.899" r="4" fill="#0" id="circle96"/>
	<circle cx="674.849" cy="30.7626" r="4" fill="#0" id="circle97"/>
	<circle cx="678.417" cy="799.741" r="4" fill="#0" id="circle98"/>
	<circle cx="681.986" cy="817.583" r="4" fill="#0" id="circle99"/>
	<circle cx="692.691" cy="30.7626" r="4" fill="#0" id="circle100"/>
	<circle cx="698.043" cy="826.504" r="4" fill="#0" id="circle101"/>
	<circle cx="708.748" cy="840.777" r="4" fill="#0" id="circle102"/>
	<circle cx="710.532" cy="36.1151" r="4" fill="#0" id="circle103"/>
	<circle cx="710.532" cy="549.957" r="4" fill="#0" id="circle104"/>
	<circle cx="710.532" cy="567.799" r="4" fill="#0" id="circle105"/>
	<circle cx="710.532" cy="858.619" r="4" fill="#0" id="circle106"/>
	<circle cx="724.806" cy="578.504" r="4" fill="#0" id="circle107"/>
	<circle cx="726.59" cy="867.54" r="4" fill="#0" id="circle108"/>
	<circle cx="728.374" cy="39.6835" r="4" fill="#0" id="circle109"/>
	<circle cx="728.374" cy="541.036" r="4" fill="#0" id="circle110"/>
	<circle cx="728.374" cy="596.345" r="4" fill="#0" id="circle111"/>
	<circle cx="728.374" cy="614.187" r="4" fill="#0" id="circle112"/>
	<circle cx="728.374" cy="632.029" r="4" fill="#0" id="circle113"/>
	<circle cx="728.374" cy="649.871" r="4" fill="#0" id="circle114"/>
	<circle cx="735.511" cy="883.597" r="4" fill="#0" id="circle115"/>
	<circle cx="737.295" cy="665.928" r="4" fill="#0" id="circle116"/>
	<circle cx="737.295" cy="683.77" r="4" fill="#0" id="circle117"/>
	<circle cx="737.295" cy="701.612" r="4" fill="#0" id="circle118"/>
	<circle cx="737.295" cy="719.453" r="4" fill="#0" id="circle119"/>
	<circle cx="746.216" cy="39.6835" r="4" fill="#0" id="circle120"/>
	<circle cx="746.216" cy="541.036" r="4" fill="#0" id="circle121"/>
	<circle cx="749.784" cy="896.086" r="4" fill="#0" id="circle122"/>
	<circle cx="751.568" cy="730.158" r="4" fill="#0" id="circle123"/>
	<circle cx="755.137" cy="55.741" r="4" fill="#0" id="circle124"/>
	<circle cx="755.137" cy="523.194" r="4" fill="#0" id="circle125"/>
	<circle cx="755.137" cy="748" r="4" fill="#0" id="circle126"/>
	<circle cx="755.137" cy="765.842" r="4" fill="#0" id="circle127"/>
	<circle cx="755.137" cy="783.683" r="4" fill="#0" id="circle128"/>
	<circle cx="755.137" cy="801.525" r="4" fill="#0" id="circle129"/>
	<circle cx="756.921" cy="913.928" r="4" fill="#0" id="circle130"/>
	<circle cx="764.058" cy="817.583" r="4" fill="#0" id="circle131"/>
	<circle cx="764.058" cy="835.424" r="4" fill="#0" id="circle132"/>
	<circle cx="764.058" cy="853.266" r="4" fill="#0" id="circle133"/>
	<circle cx="767.626" cy="871.108" r="4" fill="#0" id="circle134"/>
	<circle cx="772.978" cy="57.5252" r="4" fill="#0" id="circle135"/>
	<circle cx="772.978" cy="514.273" r="4" fill="#0" id="circle136"/>
	<circle cx="772.978" cy="888.95" r="4" fill="#0" id="circle137"/>
	<circle cx="790.82" cy="62.8777" r="4" fill="#0" id="circle138"/>
	<circle cx="790.82" cy="514.273" r="4" fill="#0" id="circle139"/>
	<circle cx="799.741" cy="496.432" r="4" fill="#0" id="circle140"/>
	<circle cx="808.662" cy="66.446" r="4" fill="#0" id="circle141"/>
	<circle cx="817.583" cy="496.432" r="4" fill="#0" id="circle142"/>
	<circle cx="826.504" cy="71.7986" r="4" fill="#0" id="circle143"/>
	<circle cx="833.64" cy="487.511" r="4" fill="#0" id="circle144"/>
	<circle cx="840.777" cy="84.2878" r="4" fill="#0" id="circle145"/>
	<circle cx="851.482" cy="482.158" r="4" fill="#0" id="circle146"/>
	<circle cx="856.835" cy="93.2086" r="4" fill="#0" id="circle147"/>
	<circle cx="865.755" cy="469.669" r="4" fill="#0" id="circle148"/>
	<circle cx="874.676" cy="93.2086" r="4" fill="#0" id="circle149"/>
	<circle cx="881.813" cy="460.748" r="4" fill="#0" id="circle150"/>
	<circle cx="890.734" cy="102.129" r="4" fill="#0" id="circle151"/>
	<circle cx="899.655" cy="460.748" r="4" fill="#0" id="circle152"/>
	<circle cx="906.791" cy="111.05" r="4" fill="#0" id="circle153"/>
	<circle cx="906.791" cy="442.906" r="4" fill="#0" id="circle154"/>
	<circle cx="915.712" cy="127.108" r="4" fill="#0" id="circle155"/>
	<circle cx="922.849" cy="433.986" r="4" fill="#0" id="circle156"/>
	<circle cx="933.554" cy="134.245" r="4" fill="#0" id="circle157"/>
	<circle cx="933.554" cy="152.086" r="4" fill="#0" id="circle158"/>
	<circle cx="933.554" cy="407.223" r="4" fill="#0" id="circle159"/>
	<circle cx="942.475" cy="168.144" r="4" fill="#0" id="circle160"/>
	<circle cx="949.612" cy="398.302" r="4" fill="#0" id="circle161"/>
	<circle cx="958.532" cy="177.065" r="4" fill="#0" id="circle162"/>
	<circle cx="960.317" cy="194.906" r="4" fill="#0" id="circle163"/>
	<circle cx="960.317" cy="371.54" r="4" fill="#0" id="circle164"/>
	<circle cx="969.237" cy="210.964" r="4" fill="#0" id="circle165"/>
	<circle cx="969.237" cy="344.777" r="4" fill="#0" id="circle166"/>
	<circle cx="978.158" cy="227.022" r="4" fill="#0" id="circle167"/>
	<circle cx="987.079" cy="243.079" r="4" fill="#0" id="circle168"/>
	<circle cx="987.079" cy="260.921" r="4" fill="#0" id="circle169"/>
	<circle cx="987.079" cy="300.173" r="4" fill="#0" id="circle170"/>
	<circle cx="987.079" cy="318.014" r="4" fill="#0" id="circle171"/>
	<circle cx="987.079" cy="335.856" r="4" fill="#0" id="circle172"/>
	<circle cx="996" cy="276.978" r="4" fill="#0" id="circle173"/>
	</g>
</svg>