<?xml version="1.0" encoding="UTF-8" standalone="no"?>
<!-- Created with CurveBenchmark -->
<svg
	xmlns:dc="http://purl.org/dc/elements/1.1/"
	xmlns:cc="http://creativecommons.org/ns#"
	xmlns:rdf="http://www.w3.org/1999/02/22-rdf-syntax-ns#"
	xmlns:svg="http://www.w3.org/2000/svg"
	xmlns="http://www.w3.org/2000/svg"
	xmlns:sodipodi="http://sodipodi.sourceforge.net/DTD/sodipodi-0.dtd"
	xmlns:inkscape="http://www.inkscape.org/namespaces/inkscape"
	width="1000"
	height="1000"
	id="svg2"
	version="1.1"
	sodipodi:docname="manifold/gathan1-herringsaff1.png.txt">
<defs
	id="defs4" />
<metadata
	id="metadata7">
	<rdf:RDF>
		<cc:Work
			rdf:about="">
			<dc:format>image/svg+xml</dc:format>
			<dc:type
				rdf:resource="http://purl.org/dc/dcmitype/StillImage" />
			<dc:title></dc:title>
		</cc:Work>
	</rdf:RDF>
</metadata>
<g
	inkscape:label="Layer 1"
	inkscape:groupmode="layer"
	id="layer1">
	<path style="fill:none;stroke:red;stroke-width:1px;stroke-linecap:butt;stroke-linejoin:miter;stroke-opacity:1" d="M 4,9.69025 22.9675,4 z" id="boundary" inkscape:connector-curvature="0" />
	<path style="fill:none;stroke:red;stroke-width:1px;stroke-linecap:butt;stroke-linejoin:miter;stroke-opacity:1" d="M 4,28.6577 4,9.69025 z" id="boundary" inkscape:connector-curvature="0" />
	<path style="fill:none;stroke:red;stroke-width:1px;stroke-linecap:butt;stroke-linejoin:miter;stroke-opacity:1" d="M 4,47.6252 4,28.6577 z" id="boundary" inkscape:connector-curvature="0" />
	<path style="fill:none;stroke:red;stroke-width:1px;stroke-linecap:butt;stroke-linejoin:miter;stroke-opacity:1" d="M 22.9675,4 40.0382,13.4837 z" id="boundary" inkscape:connector-curvature="0" />
	<path style="fill:none;stroke:red;stroke-width:1px;stroke-linecap:butt;stroke-linejoin:miter;stroke-opacity:1" d="M 57.109,4 76.0765,4 z" id="boundary" inkscape:connector-curvature="0" />
	<path style="fill:none;stroke:red;stroke-width:1px;stroke-linecap:butt;stroke-linejoin:miter;stroke-opacity:1" d="M 76.0765,4 93.1472,13.4837 z" id="boundary" inkscape:connector-curvature="0" />
	<path style="fill:none;stroke:red;stroke-width:1px;stroke-linecap:butt;stroke-linejoin:miter;stroke-opacity:1" d="M 40.0382,13.4837 57.109,4 z" id="boundary" inkscape:connector-curvature="0" />
	<path style="fill:none;stroke:red;stroke-width:1px;stroke-linecap:butt;stroke-linejoin:miter;stroke-opacity:1" d="M 110.218,22.9675 93.1472,13.4837 z" id="boundary" inkscape:connector-curvature="0" />
	<path style="fill:none;stroke:red;stroke-width:1px;stroke-linecap:butt;stroke-linejoin:miter;stroke-opacity:1" d="M 13.4837,64.696 4,47.6252 z" id="boundary" inkscape:connector-curvature="0" />
	<path style="fill:none;stroke:red;stroke-width:1px;stroke-linecap:butt;stroke-linejoin:miter;stroke-opacity:1" d="M 22.9675,81.7667 13.4837,64.696 z" id="boundary" inkscape:connector-curvature="0" />
	<path style="fill:none;stroke:red;stroke-width:1px;stroke-linecap:butt;stroke-linejoin:miter;stroke-opacity:1" d="M 32.4512,98.8375 43.8317,114.011 z" id="boundary" inkscape:connector-curvature="0" />
	<path style="fill:none;stroke:red;stroke-width:1px;stroke-linecap:butt;stroke-linejoin:miter;stroke-opacity:1" d="M 43.8317,114.011 51.4187,132.979 z" id="boundary" inkscape:connector-curvature="0" />
	<path style="fill:none;stroke:red;stroke-width:1px;stroke-linecap:butt;stroke-linejoin:miter;stroke-opacity:1" d="M 32.4512,98.8375 22.9675,81.7667 z" id="boundary" inkscape:connector-curvature="0" />
	<path style="fill:none;stroke:red;stroke-width:1px;stroke-linecap:butt;stroke-linejoin:miter;stroke-opacity:1" d="M 51.4187,132.979 66.5927,146.256 z" id="boundary" inkscape:connector-curvature="0" />
	<path style="fill:none;stroke:red;stroke-width:1px;stroke-linecap:butt;stroke-linejoin:miter;stroke-opacity:1" d="M 79.87,161.43 89.3537,178.501 z" id="boundary" inkscape:connector-curvature="0" />
	<path style="fill:none;stroke:red;stroke-width:1px;stroke-linecap:butt;stroke-linejoin:miter;stroke-opacity:1" d="M 66.5927,146.256 79.87,161.43 z" id="boundary" inkscape:connector-curvature="0" />
	<path style="fill:none;stroke:red;stroke-width:1px;stroke-linecap:butt;stroke-linejoin:miter;stroke-opacity:1" d="M 98.8375,195.572 89.3537,178.501 z" id="boundary" inkscape:connector-curvature="0" />
	<path style="fill:none;stroke:red;stroke-width:1px;stroke-linecap:butt;stroke-linejoin:miter;stroke-opacity:1" d="M 110.218,22.9675 127.289,32.4512 z" id="boundary" inkscape:connector-curvature="0" />
	<path style="fill:none;stroke:red;stroke-width:1px;stroke-linecap:butt;stroke-linejoin:miter;stroke-opacity:1" d="M 144.359,41.935 161.43,51.4187 z" id="boundary" inkscape:connector-curvature="0" />
	<path style="fill:none;stroke:red;stroke-width:1px;stroke-linecap:butt;stroke-linejoin:miter;stroke-opacity:1" d="M 144.359,41.935 127.289,32.4512 z" id="boundary" inkscape:connector-curvature="0" />
	<path style="fill:none;stroke:red;stroke-width:1px;stroke-linecap:butt;stroke-linejoin:miter;stroke-opacity:1" d="M 178.501,60.9025 195.572,70.3862 z" id="boundary" inkscape:connector-curvature="0" />
	<path style="fill:none;stroke:red;stroke-width:1px;stroke-linecap:butt;stroke-linejoin:miter;stroke-opacity:1" d="M 178.501,60.9025 161.43,51.4187 z" id="boundary" inkscape:connector-curvature="0" />
	<path style="fill:none;stroke:red;stroke-width:1px;stroke-linecap:butt;stroke-linejoin:miter;stroke-opacity:1" d="M 110.218,210.746 98.8375,195.572 z" id="boundary" inkscape:connector-curvature="0" />
	<path style="fill:none;stroke:red;stroke-width:1px;stroke-linecap:butt;stroke-linejoin:miter;stroke-opacity:1" d="M 210.746,81.7667 195.572,70.3862 z" id="boundary" inkscape:connector-curvature="0" />
	<path style="fill:none;stroke:red;stroke-width:1px;stroke-linecap:butt;stroke-linejoin:miter;stroke-opacity:1" d="M 227.816,91.2505 210.746,81.7667 z" id="boundary" inkscape:connector-curvature="0" />
	<path style="fill:none;stroke:red;stroke-width:1px;stroke-linecap:butt;stroke-linejoin:miter;stroke-opacity:1" d="M 125.392,224.023 110.218,210.746 z" id="boundary" inkscape:connector-curvature="0" />
	<path style="fill:none;stroke:red;stroke-width:1px;stroke-linecap:butt;stroke-linejoin:miter;stroke-opacity:1" d="M 242.99,104.528 227.816,91.2505 z" id="boundary" inkscape:connector-curvature="0" />
	<path style="fill:none;stroke:red;stroke-width:1px;stroke-linecap:butt;stroke-linejoin:miter;stroke-opacity:1" d="M 258.164,117.805 242.99,104.528 z" id="boundary" inkscape:connector-curvature="0" />
	<path style="fill:none;stroke:red;stroke-width:1px;stroke-linecap:butt;stroke-linejoin:miter;stroke-opacity:1" d="M 275.235,127.289 258.164,117.805 z" id="boundary" inkscape:connector-curvature="0" />
	<path style="fill:none;stroke:red;stroke-width:1px;stroke-linecap:butt;stroke-linejoin:miter;stroke-opacity:1" d="M 292.306,136.772 275.235,127.289 z" id="boundary" inkscape:connector-curvature="0" />
	<path style="fill:none;stroke:red;stroke-width:1px;stroke-linecap:butt;stroke-linejoin:miter;stroke-opacity:1" d="M 292.306,136.772 309.377,146.256 z" id="boundary" inkscape:connector-curvature="0" />
	<path style="fill:none;stroke:red;stroke-width:1px;stroke-linecap:butt;stroke-linejoin:miter;stroke-opacity:1" d="M 309.377,146.256 324.551,157.637 z" id="boundary" inkscape:connector-curvature="0" />
	<path style="fill:none;stroke:red;stroke-width:1px;stroke-linecap:butt;stroke-linejoin:miter;stroke-opacity:1" d="M 324.551,157.637 337.828,172.811 z" id="boundary" inkscape:connector-curvature="0" />
	<path style="fill:none;stroke:red;stroke-width:1px;stroke-linecap:butt;stroke-linejoin:miter;stroke-opacity:1" d="M 337.828,172.811 356.795,180.398 z" id="boundary" inkscape:connector-curvature="0" />
	<path style="fill:none;stroke:red;stroke-width:1px;stroke-linecap:butt;stroke-linejoin:miter;stroke-opacity:1" d="M 356.795,180.398 370.073,195.572 z" id="boundary" inkscape:connector-curvature="0" />
	<path style="fill:none;stroke:red;stroke-width:1px;stroke-linecap:butt;stroke-linejoin:miter;stroke-opacity:1" d="M 402.317,218.333 385.247,208.849 z" id="boundary" inkscape:connector-curvature="0" />
	<path style="fill:none;stroke:red;stroke-width:1px;stroke-linecap:butt;stroke-linejoin:miter;stroke-opacity:1" d="M 385.247,208.849 370.073,195.572 z" id="boundary" inkscape:connector-curvature="0" />
	<path style="fill:none;stroke:red;stroke-width:1px;stroke-linecap:butt;stroke-linejoin:miter;stroke-opacity:1" d="M 402.317,218.333 417.491,231.61 z" id="boundary" inkscape:connector-curvature="0" />
	<path style="fill:none;stroke:red;stroke-width:1px;stroke-linecap:butt;stroke-linejoin:miter;stroke-opacity:1" d="M 136.772,239.197 146.256,256.268 z" id="boundary" inkscape:connector-curvature="0" />
	<path style="fill:none;stroke:red;stroke-width:1px;stroke-linecap:butt;stroke-linejoin:miter;stroke-opacity:1" d="M 146.256,256.268 155.74,273.338 z" id="boundary" inkscape:connector-curvature="0" />
	<path style="fill:none;stroke:red;stroke-width:1px;stroke-linecap:butt;stroke-linejoin:miter;stroke-opacity:1" d="M 169.017,288.512 155.74,273.338 z" id="boundary" inkscape:connector-curvature="0" />
	<path style="fill:none;stroke:red;stroke-width:1px;stroke-linecap:butt;stroke-linejoin:miter;stroke-opacity:1" d="M 125.392,224.023 136.772,239.197 z" id="boundary" inkscape:connector-curvature="0" />
	<path style="fill:none;stroke:red;stroke-width:1px;stroke-linecap:butt;stroke-linejoin:miter;stroke-opacity:1" d="M 169.017,288.512 184.191,299.893 z" id="boundary" inkscape:connector-curvature="0" />
	<path style="fill:none;stroke:red;stroke-width:1px;stroke-linecap:butt;stroke-linejoin:miter;stroke-opacity:1" d="M 184.191,299.893 195.572,315.067 z" id="boundary" inkscape:connector-curvature="0" />
	<path style="fill:none;stroke:red;stroke-width:1px;stroke-linecap:butt;stroke-linejoin:miter;stroke-opacity:1" d="M 195.572,315.067 214.539,322.654 z" id="boundary" inkscape:connector-curvature="0" />
	<path style="fill:none;stroke:red;stroke-width:1px;stroke-linecap:butt;stroke-linejoin:miter;stroke-opacity:1" d="M 214.539,322.654 222.126,341.621 z" id="boundary" inkscape:connector-curvature="0" />
	<path style="fill:none;stroke:red;stroke-width:1px;stroke-linecap:butt;stroke-linejoin:miter;stroke-opacity:1" d="M 241.094,347.312 222.126,341.621 z" id="boundary" inkscape:connector-curvature="0" />
	<path style="fill:none;stroke:red;stroke-width:1px;stroke-linecap:butt;stroke-linejoin:miter;stroke-opacity:1" d="M 252.474,362.486 241.094,347.312 z" id="boundary" inkscape:connector-curvature="0" />
	<path style="fill:none;stroke:red;stroke-width:1px;stroke-linecap:butt;stroke-linejoin:miter;stroke-opacity:1" d="M 267.648,375.763 252.474,362.486 z" id="boundary" inkscape:connector-curvature="0" />
	<path style="fill:none;stroke:red;stroke-width:1px;stroke-linecap:butt;stroke-linejoin:miter;stroke-opacity:1" d="M 260.061,408.008 260.061,426.975 z" id="boundary" inkscape:connector-curvature="0" />
	<path style="fill:none;stroke:red;stroke-width:1px;stroke-linecap:butt;stroke-linejoin:miter;stroke-opacity:1" d="M 269.545,444.046 260.061,426.975 z" id="boundary" inkscape:connector-curvature="0" />
	<path style="fill:none;stroke:red;stroke-width:1px;stroke-linecap:butt;stroke-linejoin:miter;stroke-opacity:1" d="M 267.648,375.763 260.061,408.008 z" id="boundary" inkscape:connector-curvature="0" />
	<path style="fill:none;stroke:red;stroke-width:1px;stroke-linecap:butt;stroke-linejoin:miter;stroke-opacity:1" d="M 301.79,461.117 282.822,459.22 z" id="boundary" inkscape:connector-curvature="0" />
	<path style="fill:none;stroke:red;stroke-width:1px;stroke-linecap:butt;stroke-linejoin:miter;stroke-opacity:1" d="M 282.822,459.22 269.545,444.046 z" id="boundary" inkscape:connector-curvature="0" />
	<path style="fill:none;stroke:red;stroke-width:1px;stroke-linecap:butt;stroke-linejoin:miter;stroke-opacity:1" d="M 320.757,461.117 301.79,461.117 z" id="boundary" inkscape:connector-curvature="0" />
	<path style="fill:none;stroke:red;stroke-width:1px;stroke-linecap:butt;stroke-linejoin:miter;stroke-opacity:1" d="M 347.312,432.665 328.344,432.665 z" id="boundary" inkscape:connector-curvature="0" />
	<path style="fill:none;stroke:red;stroke-width:1px;stroke-linecap:butt;stroke-linejoin:miter;stroke-opacity:1" d="M 347.312,432.665 364.382,442.149 z" id="boundary" inkscape:connector-curvature="0" />
	<path style="fill:none;stroke:red;stroke-width:1px;stroke-linecap:butt;stroke-linejoin:miter;stroke-opacity:1" d="M 417.491,231.61 434.562,241.094 z" id="boundary" inkscape:connector-curvature="0" />
	<path style="fill:none;stroke:red;stroke-width:1px;stroke-linecap:butt;stroke-linejoin:miter;stroke-opacity:1" d="M 364.382,442.149 381.453,451.633 z" id="boundary" inkscape:connector-curvature="0" />
	<path style="fill:none;stroke:red;stroke-width:1px;stroke-linecap:butt;stroke-linejoin:miter;stroke-opacity:1" d="M 434.562,241.094 451.633,250.577 z" id="boundary" inkscape:connector-curvature="0" />
	<path style="fill:none;stroke:red;stroke-width:1px;stroke-linecap:butt;stroke-linejoin:miter;stroke-opacity:1" d="M 470.6,250.577 451.633,250.577 z" id="boundary" inkscape:connector-curvature="0" />
	<path style="fill:none;stroke:red;stroke-width:1px;stroke-linecap:butt;stroke-linejoin:miter;stroke-opacity:1" d="M 527.503,260.061 508.535,260.061 z" id="boundary" inkscape:connector-curvature="0" />
	<path style="fill:none;stroke:red;stroke-width:1px;stroke-linecap:butt;stroke-linejoin:miter;stroke-opacity:1" d="M 508.535,260.061 489.568,256.268 z" id="boundary" inkscape:connector-curvature="0" />
	<path style="fill:none;stroke:red;stroke-width:1px;stroke-linecap:butt;stroke-linejoin:miter;stroke-opacity:1" d="M 470.6,250.577 489.568,256.268 z" id="boundary" inkscape:connector-curvature="0" />
	<path style="fill:none;stroke:red;stroke-width:1px;stroke-linecap:butt;stroke-linejoin:miter;stroke-opacity:1" d="M 398.524,461.117 415.595,470.6 z" id="boundary" inkscape:connector-curvature="0" />
	<path style="fill:none;stroke:red;stroke-width:1px;stroke-linecap:butt;stroke-linejoin:miter;stroke-opacity:1" d="M 398.524,461.117 381.453,451.633 z" id="boundary" inkscape:connector-curvature="0" />
	<path style="fill:none;stroke:red;stroke-width:1px;stroke-linecap:butt;stroke-linejoin:miter;stroke-opacity:1" d="M 415.595,470.6 430.769,481.981 z" id="boundary" inkscape:connector-curvature="0" />
	<path style="fill:none;stroke:red;stroke-width:1px;stroke-linecap:butt;stroke-linejoin:miter;stroke-opacity:1" d="M 430.769,481.981 444.046,497.155 z" id="boundary" inkscape:connector-curvature="0" />
	<path style="fill:none;stroke:red;stroke-width:1px;stroke-linecap:butt;stroke-linejoin:miter;stroke-opacity:1" d="M 459.22,508.535 444.046,497.155 z" id="boundary" inkscape:connector-curvature="0" />
	<path style="fill:none;stroke:red;stroke-width:1px;stroke-linecap:butt;stroke-linejoin:miter;stroke-opacity:1" d="M 459.22,508.535 468.704,525.606 z" id="boundary" inkscape:connector-curvature="0" />
	<path style="fill:none;stroke:red;stroke-width:1px;stroke-linecap:butt;stroke-linejoin:miter;stroke-opacity:1" d="M 502.845,573.025 487.671,559.748 z" id="boundary" inkscape:connector-curvature="0" />
	<path style="fill:none;stroke:red;stroke-width:1px;stroke-linecap:butt;stroke-linejoin:miter;stroke-opacity:1" d="M 487.671,559.748 478.187,542.677 z" id="boundary" inkscape:connector-curvature="0" />
	<path style="fill:none;stroke:red;stroke-width:1px;stroke-linecap:butt;stroke-linejoin:miter;stroke-opacity:1" d="M 478.187,542.677 468.704,525.606 z" id="boundary" inkscape:connector-curvature="0" />
	<path style="fill:none;stroke:red;stroke-width:1px;stroke-linecap:butt;stroke-linejoin:miter;stroke-opacity:1" d="M 502.845,573.025 518.019,584.405 z" id="boundary" inkscape:connector-curvature="0" />
	<path style="fill:none;stroke:red;stroke-width:1px;stroke-linecap:butt;stroke-linejoin:miter;stroke-opacity:1" d="M 544.574,269.545 527.503,260.061 z" id="boundary" inkscape:connector-curvature="0" />
	<path style="fill:none;stroke:red;stroke-width:1px;stroke-linecap:butt;stroke-linejoin:miter;stroke-opacity:1" d="M 563.541,273.338 544.574,269.545 z" id="boundary" inkscape:connector-curvature="0" />
	<path style="fill:none;stroke:red;stroke-width:1px;stroke-linecap:butt;stroke-linejoin:miter;stroke-opacity:1" d="M 563.541,273.338 580.612,282.822 z" id="boundary" inkscape:connector-curvature="0" />
	<path style="fill:none;stroke:red;stroke-width:1px;stroke-linecap:butt;stroke-linejoin:miter;stroke-opacity:1" d="M 580.612,282.822 593.889,297.996 z" id="boundary" inkscape:connector-curvature="0" />
	<path style="fill:none;stroke:red;stroke-width:1px;stroke-linecap:butt;stroke-linejoin:miter;stroke-opacity:1" d="M 593.889,297.996 603.373,315.067 z" id="boundary" inkscape:connector-curvature="0" />
	<path style="fill:none;stroke:red;stroke-width:1px;stroke-linecap:butt;stroke-linejoin:miter;stroke-opacity:1" d="M 603.373,315.067 603.373,334.034 z" id="boundary" inkscape:connector-curvature="0" />
	<path style="fill:none;stroke:red;stroke-width:1px;stroke-linecap:butt;stroke-linejoin:miter;stroke-opacity:1" d="M 603.373,334.034 612.857,351.105 z" id="boundary" inkscape:connector-curvature="0" />
	<path style="fill:none;stroke:red;stroke-width:1px;stroke-linecap:butt;stroke-linejoin:miter;stroke-opacity:1" d="M 612.857,351.105 612.857,370.073 z" id="boundary" inkscape:connector-curvature="0" />
	<path style="fill:none;stroke:red;stroke-width:1px;stroke-linecap:butt;stroke-linejoin:miter;stroke-opacity:1" d="M 618.547,400.421 612.857,370.073 z" id="boundary" inkscape:connector-curvature="0" />
	<path style="fill:none;stroke:red;stroke-width:1px;stroke-linecap:butt;stroke-linejoin:miter;stroke-opacity:1" d="M 518.019,584.405 536.987,584.405 z" id="boundary" inkscape:connector-curvature="0" />
	<path style="fill:none;stroke:red;stroke-width:1px;stroke-linecap:butt;stroke-linejoin:miter;stroke-opacity:1" d="M 536.987,584.405 554.057,593.889 z" id="boundary" inkscape:connector-curvature="0" />
	<path style="fill:none;stroke:red;stroke-width:1px;stroke-linecap:butt;stroke-linejoin:miter;stroke-opacity:1" d="M 554.057,593.889 571.128,603.373 z" id="boundary" inkscape:connector-curvature="0" />
	<path style="fill:none;stroke:red;stroke-width:1px;stroke-linecap:butt;stroke-linejoin:miter;stroke-opacity:1" d="M 590.096,603.373 571.128,603.373 z" id="boundary" inkscape:connector-curvature="0" />
	<path style="fill:none;stroke:red;stroke-width:1px;stroke-linecap:butt;stroke-linejoin:miter;stroke-opacity:1" d="M 603.373,413.698 618.547,400.421 z" id="boundary" inkscape:connector-curvature="0" />
	<path style="fill:none;stroke:red;stroke-width:1px;stroke-linecap:butt;stroke-linejoin:miter;stroke-opacity:1" d="M 612.857,430.769 603.373,413.698 z" id="boundary" inkscape:connector-curvature="0" />
	<path style="fill:none;stroke:red;stroke-width:1px;stroke-linecap:butt;stroke-linejoin:miter;stroke-opacity:1" d="M 607.166,612.857 590.096,603.373 z" id="boundary" inkscape:connector-curvature="0" />
	<path style="fill:none;stroke:red;stroke-width:1px;stroke-linecap:butt;stroke-linejoin:miter;stroke-opacity:1" d="M 612.857,430.769 628.031,442.149 z" id="boundary" inkscape:connector-curvature="0" />
	<path style="fill:none;stroke:red;stroke-width:1px;stroke-linecap:butt;stroke-linejoin:miter;stroke-opacity:1" d="M 607.166,612.857 626.134,620.444 z" id="boundary" inkscape:connector-curvature="0" />
	<path style="fill:none;stroke:red;stroke-width:1px;stroke-linecap:butt;stroke-linejoin:miter;stroke-opacity:1" d="M 641.308,457.323 656.482,470.6 z" id="boundary" inkscape:connector-curvature="0" />
	<path style="fill:none;stroke:red;stroke-width:1px;stroke-linecap:butt;stroke-linejoin:miter;stroke-opacity:1" d="M 641.308,457.323 628.031,442.149 z" id="boundary" inkscape:connector-curvature="0" />
	<path style="fill:none;stroke:red;stroke-width:1px;stroke-linecap:butt;stroke-linejoin:miter;stroke-opacity:1" d="M 656.482,470.6 669.759,485.774 z" id="boundary" inkscape:connector-curvature="0" />
	<path style="fill:none;stroke:red;stroke-width:1px;stroke-linecap:butt;stroke-linejoin:miter;stroke-opacity:1" d="M 684.933,499.052 669.759,485.774 z" id="boundary" inkscape:connector-curvature="0" />
	<path style="fill:none;stroke:red;stroke-width:1px;stroke-linecap:butt;stroke-linejoin:miter;stroke-opacity:1" d="M 698.21,514.226 684.933,499.052 z" id="boundary" inkscape:connector-curvature="0" />
	<path style="fill:none;stroke:red;stroke-width:1px;stroke-linecap:butt;stroke-linejoin:miter;stroke-opacity:1" d="M 720.971,546.47 707.694,531.296 z" id="boundary" inkscape:connector-curvature="0" />
	<path style="fill:none;stroke:red;stroke-width:1px;stroke-linecap:butt;stroke-linejoin:miter;stroke-opacity:1" d="M 707.694,531.296 698.21,514.226 z" id="boundary" inkscape:connector-curvature="0" />
	<path style="fill:none;stroke:red;stroke-width:1px;stroke-linecap:butt;stroke-linejoin:miter;stroke-opacity:1" d="M 736.145,559.748 720.971,546.47 z" id="boundary" inkscape:connector-curvature="0" />
	<path style="fill:none;stroke:red;stroke-width:1px;stroke-linecap:butt;stroke-linejoin:miter;stroke-opacity:1" d="M 645.101,622.34 626.134,620.444 z" id="boundary" inkscape:connector-curvature="0" />
	<path style="fill:none;stroke:red;stroke-width:1px;stroke-linecap:butt;stroke-linejoin:miter;stroke-opacity:1" d="M 736.145,559.748 749.423,574.922 z" id="boundary" inkscape:connector-curvature="0" />
	<path style="fill:none;stroke:red;stroke-width:1px;stroke-linecap:butt;stroke-linejoin:miter;stroke-opacity:1" d="M 679.243,641.308 660.275,635.618 z" id="boundary" inkscape:connector-curvature="0" />
	<path style="fill:none;stroke:red;stroke-width:1px;stroke-linecap:butt;stroke-linejoin:miter;stroke-opacity:1" d="M 660.275,635.618 645.101,622.34 z" id="boundary" inkscape:connector-curvature="0" />
	<path style="fill:none;stroke:red;stroke-width:1px;stroke-linecap:butt;stroke-linejoin:miter;stroke-opacity:1" d="M 679.243,641.308 696.314,650.792 z" id="boundary" inkscape:connector-curvature="0" />
	<path style="fill:none;stroke:red;stroke-width:1px;stroke-linecap:butt;stroke-linejoin:miter;stroke-opacity:1" d="M 781.667,597.683 768.39,582.509 z" id="boundary" inkscape:connector-curvature="0" />
	<path style="fill:none;stroke:red;stroke-width:1px;stroke-linecap:butt;stroke-linejoin:miter;stroke-opacity:1" d="M 808.222,624.237 791.151,614.753 z" id="boundary" inkscape:connector-curvature="0" />
	<path style="fill:none;stroke:red;stroke-width:1px;stroke-linecap:butt;stroke-linejoin:miter;stroke-opacity:1" d="M 791.151,614.753 781.667,597.683 z" id="boundary" inkscape:connector-curvature="0" />
	<path style="fill:none;stroke:red;stroke-width:1px;stroke-linecap:butt;stroke-linejoin:miter;stroke-opacity:1" d="M 827.189,631.824 808.222,624.237 z" id="boundary" inkscape:connector-curvature="0" />
	<path style="fill:none;stroke:red;stroke-width:1px;stroke-linecap:butt;stroke-linejoin:miter;stroke-opacity:1" d="M 749.423,574.922 768.39,582.509 z" id="boundary" inkscape:connector-curvature="0" />
	<path style="fill:none;stroke:red;stroke-width:1px;stroke-linecap:butt;stroke-linejoin:miter;stroke-opacity:1" d="M 844.26,641.308 827.189,631.824 z" id="boundary" inkscape:connector-curvature="0" />
	<path style="fill:none;stroke:red;stroke-width:1px;stroke-linecap:butt;stroke-linejoin:miter;stroke-opacity:1" d="M 696.314,650.792 713.384,660.275 z" id="boundary" inkscape:connector-curvature="0" />
	<path style="fill:none;stroke:red;stroke-width:1px;stroke-linecap:butt;stroke-linejoin:miter;stroke-opacity:1" d="M 713.384,660.275 724.765,675.449 z" id="boundary" inkscape:connector-curvature="0" />
	<path style="fill:none;stroke:red;stroke-width:1px;stroke-linecap:butt;stroke-linejoin:miter;stroke-opacity:1" d="M 724.765,675.449 734.249,692.52 z" id="boundary" inkscape:connector-curvature="0" />
	<path style="fill:none;stroke:red;stroke-width:1px;stroke-linecap:butt;stroke-linejoin:miter;stroke-opacity:1" d="M 734.249,692.52 743.732,709.591 z" id="boundary" inkscape:connector-curvature="0" />
	<path style="fill:none;stroke:red;stroke-width:1px;stroke-linecap:butt;stroke-linejoin:miter;stroke-opacity:1" d="M 753.216,726.662 743.732,709.591 z" id="boundary" inkscape:connector-curvature="0" />
	<path style="fill:none;stroke:red;stroke-width:1px;stroke-linecap:butt;stroke-linejoin:miter;stroke-opacity:1" d="M 758.906,745.629 753.216,726.662 z" id="boundary" inkscape:connector-curvature="0" />
	<path style="fill:none;stroke:red;stroke-width:1px;stroke-linecap:butt;stroke-linejoin:miter;stroke-opacity:1" d="M 772.184,760.803 758.906,745.629 z" id="boundary" inkscape:connector-curvature="0" />
	<path style="fill:none;stroke:red;stroke-width:1px;stroke-linecap:butt;stroke-linejoin:miter;stroke-opacity:1" d="M 849.95,755.113 849.95,736.145 z" id="boundary" inkscape:connector-curvature="0" />
	<path style="fill:none;stroke:red;stroke-width:1px;stroke-linecap:butt;stroke-linejoin:miter;stroke-opacity:1" d="M 849.95,736.145 867.021,726.662 z" id="boundary" inkscape:connector-curvature="0" />
	<path style="fill:none;stroke:red;stroke-width:1px;stroke-linecap:butt;stroke-linejoin:miter;stroke-opacity:1" d="M 772.184,760.803 781.667,777.874 z" id="boundary" inkscape:connector-curvature="0" />
	<path style="fill:none;stroke:red;stroke-width:1px;stroke-linecap:butt;stroke-linejoin:miter;stroke-opacity:1" d="M 791.151,794.945 781.667,777.874 z" id="boundary" inkscape:connector-curvature="0" />
	<path style="fill:none;stroke:red;stroke-width:1px;stroke-linecap:butt;stroke-linejoin:miter;stroke-opacity:1" d="M 804.428,810.119 791.151,794.945 z" id="boundary" inkscape:connector-curvature="0" />
	<path style="fill:none;stroke:red;stroke-width:1px;stroke-linecap:butt;stroke-linejoin:miter;stroke-opacity:1" d="M 819.602,821.499 804.428,810.119 z" id="boundary" inkscape:connector-curvature="0" />
	<path style="fill:none;stroke:red;stroke-width:1px;stroke-linecap:butt;stroke-linejoin:miter;stroke-opacity:1" d="M 819.602,821.499 825.293,840.467 z" id="boundary" inkscape:connector-curvature="0" />
	<path style="fill:none;stroke:red;stroke-width:1px;stroke-linecap:butt;stroke-linejoin:miter;stroke-opacity:1" d="M 849.95,774.08 853.744,793.048 z" id="boundary" inkscape:connector-curvature="0" />
	<path style="fill:none;stroke:red;stroke-width:1px;stroke-linecap:butt;stroke-linejoin:miter;stroke-opacity:1" d="M 859.434,830.983 842.363,849.95 z" id="boundary" inkscape:connector-curvature="0" />
	<path style="fill:none;stroke:red;stroke-width:1px;stroke-linecap:butt;stroke-linejoin:miter;stroke-opacity:1" d="M 842.363,849.95 825.293,840.467 z" id="boundary" inkscape:connector-curvature="0" />
	<path style="fill:none;stroke:red;stroke-width:1px;stroke-linecap:butt;stroke-linejoin:miter;stroke-opacity:1" d="M 853.744,793.048 859.434,812.015 z" id="boundary" inkscape:connector-curvature="0" />
	<path style="fill:none;stroke:red;stroke-width:1px;stroke-linecap:butt;stroke-linejoin:miter;stroke-opacity:1" d="M 849.95,774.08 849.95,755.113 z" id="boundary" inkscape:connector-curvature="0" />
	<path style="fill:none;stroke:red;stroke-width:1px;stroke-linecap:butt;stroke-linejoin:miter;stroke-opacity:1" d="M 844.26,641.308 859.434,654.585 z" id="boundary" inkscape:connector-curvature="0" />
	<path style="fill:none;stroke:red;stroke-width:1px;stroke-linecap:butt;stroke-linejoin:miter;stroke-opacity:1" d="M 859.434,654.585 878.402,658.379 z" id="boundary" inkscape:connector-curvature="0" />
	<path style="fill:none;stroke:red;stroke-width:1px;stroke-linecap:butt;stroke-linejoin:miter;stroke-opacity:1" d="M 885.989,726.662 867.021,726.662 z" id="boundary" inkscape:connector-curvature="0" />
	<path style="fill:none;stroke:red;stroke-width:1px;stroke-linecap:butt;stroke-linejoin:miter;stroke-opacity:1" d="M 878.402,658.379 895.472,667.862 z" id="boundary" inkscape:connector-curvature="0" />
	<path style="fill:none;stroke:red;stroke-width:1px;stroke-linecap:butt;stroke-linejoin:miter;stroke-opacity:1" d="M 895.472,667.862 912.543,677.346 z" id="boundary" inkscape:connector-curvature="0" />
	<path style="fill:none;stroke:red;stroke-width:1px;stroke-linecap:butt;stroke-linejoin:miter;stroke-opacity:1" d="M 929.614,686.83 912.543,677.346 z" id="boundary" inkscape:connector-curvature="0" />
	<path style="fill:none;stroke:red;stroke-width:1px;stroke-linecap:butt;stroke-linejoin:miter;stroke-opacity:1" d="M 982.723,711.488 963.755,705.797 z" id="boundary" inkscape:connector-curvature="0" />
	<path style="fill:none;stroke:red;stroke-width:1px;stroke-linecap:butt;stroke-linejoin:miter;stroke-opacity:1" d="M 963.755,705.797 946.685,696.314 z" id="boundary" inkscape:connector-curvature="0" />
	<path style="fill:none;stroke:red;stroke-width:1px;stroke-linecap:butt;stroke-linejoin:miter;stroke-opacity:1" d="M 946.685,696.314 929.614,686.83 z" id="boundary" inkscape:connector-curvature="0" />
	<path style="fill:none;stroke:red;stroke-width:1px;stroke-linecap:butt;stroke-linejoin:miter;stroke-opacity:1" d="M 885.989,726.662 904.956,726.662 z" id="boundary" inkscape:connector-curvature="0" />
	<path style="fill:none;stroke:red;stroke-width:1px;stroke-linecap:butt;stroke-linejoin:miter;stroke-opacity:1" d="M 904.956,726.662 922.027,736.145 z" id="boundary" inkscape:connector-curvature="0" />
	<path style="fill:none;stroke:red;stroke-width:1px;stroke-linecap:butt;stroke-linejoin:miter;stroke-opacity:1" d="M 859.434,830.983 859.434,812.015 z" id="boundary" inkscape:connector-curvature="0" />
	<path style="fill:none;stroke:red;stroke-width:1px;stroke-linecap:butt;stroke-linejoin:miter;stroke-opacity:1" d="M 922.027,736.145 939.098,745.629 z" id="boundary" inkscape:connector-curvature="0" />
	<path style="fill:none;stroke:red;stroke-width:1px;stroke-linecap:butt;stroke-linejoin:miter;stroke-opacity:1" d="M 958.065,745.629 939.098,745.629 z" id="boundary" inkscape:connector-curvature="0" />
	<path style="fill:none;stroke:red;stroke-width:1px;stroke-linecap:butt;stroke-linejoin:miter;stroke-opacity:1" d="M 975.136,755.113 958.065,745.629 z" id="boundary" inkscape:connector-curvature="0" />
	<path style="fill:none;stroke:red;stroke-width:1px;stroke-linecap:butt;stroke-linejoin:miter;stroke-opacity:1" d="M 996,726.662 994.103,755.113 z" id="boundary" inkscape:connector-curvature="0" />
	<path style="fill:none;stroke:red;stroke-width:1px;stroke-linecap:butt;stroke-linejoin:miter;stroke-opacity:1" d="M 994.103,755.113 975.136,755.113 z" id="boundary" inkscape:connector-curvature="0" />
	<path style="fill:none;stroke:red;stroke-width:1px;stroke-linecap:butt;stroke-linejoin:miter;stroke-opacity:1" d="M 982.723,711.488 996,726.662 z" id="boundary" inkscape:connector-curvature="0" />
	<circle cx="4" cy="9.69025" r="4" fill="#0" id="circle0"/>
	<circle cx="4" cy="28.6577" r="4" fill="#0" id="circle1"/>
	<circle cx="4" cy="47.6252" r="4" fill="#0" id="circle2"/>
	<circle cx="13.4837" cy="64.696" r="4" fill="#0" id="circle3"/>
	<circle cx="22.9675" cy="4" r="4" fill="#0" id="circle4"/>
	<circle cx="22.9675" cy="81.7667" r="4" fill="#0" id="circle5"/>
	<circle cx="32.4512" cy="98.8375" r="4" fill="#0" id="circle6"/>
	<circle cx="40.0382" cy="13.4837" r="4" fill="#0" id="circle7"/>
	<circle cx="43.8317" cy="114.011" r="4" fill="#0" id="circle8"/>
	<circle cx="51.4187" cy="132.979" r="4" fill="#0" id="circle9"/>
	<circle cx="57.109" cy="4" r="4" fill="#0" id="circle10"/>
	<circle cx="66.5927" cy="146.256" r="4" fill="#0" id="circle11"/>
	<circle cx="76.0765" cy="4" r="4" fill="#0" id="circle12"/>
	<circle cx="79.87" cy="161.43" r="4" fill="#0" id="circle13"/>
	<circle cx="89.3537" cy="178.501" r="4" fill="#0" id="circle14"/>
	<circle cx="93.1472" cy="13.4837" r="4" fill="#0" id="circle15"/>
	<circle cx="98.8375" cy="195.572" r="4" fill="#0" id="circle16"/>
	<circle cx="110.218" cy="22.9675" r="4" fill="#0" id="circle17"/>
	<circle cx="110.218" cy="210.746" r="4" fill="#0" id="circle18"/>
	<circle cx="125.392" cy="224.023" r="4" fill="#0" id="circle19"/>
	<circle cx="127.289" cy="32.4512" r="4" fill="#0" id="circle20"/>
	<circle cx="136.772" cy="239.197" r="4" fill="#0" id="circle21"/>
	<circle cx="144.359" cy="41.935" r="4" fill="#0" id="circle22"/>
	<circle cx="146.256" cy="256.268" r="4" fill="#0" id="circle23"/>
	<circle cx="155.74" cy="273.338" r="4" fill="#0" id="circle24"/>
	<circle cx="161.43" cy="51.4187" r="4" fill="#0" id="circle25"/>
	<circle cx="169.017" cy="288.512" r="4" fill="#0" id="circle26"/>
	<circle cx="178.501" cy="60.9025" r="4" fill="#0" id="circle27"/>
	<circle cx="184.191" cy="299.893" r="4" fill="#0" id="circle28"/>
	<circle cx="195.572" cy="70.3862" r="4" fill="#0" id="circle29"/>
	<circle cx="195.572" cy="315.067" r="4" fill="#0" id="circle30"/>
	<circle cx="210.746" cy="81.7667" r="4" fill="#0" id="circle31"/>
	<circle cx="214.539" cy="322.654" r="4" fill="#0" id="circle32"/>
	<circle cx="222.126" cy="341.621" r="4" fill="#0" id="circle33"/>
	<circle cx="227.816" cy="91.2505" r="4" fill="#0" id="circle34"/>
	<circle cx="241.094" cy="347.312" r="4" fill="#0" id="circle35"/>
	<circle cx="242.99" cy="104.528" r="4" fill="#0" id="circle36"/>
	<circle cx="252.474" cy="362.486" r="4" fill="#0" id="circle37"/>
	<circle cx="258.164" cy="117.805" r="4" fill="#0" id="circle38"/>
	<circle cx="260.061" cy="408.008" r="4" fill="#0" id="circle39"/>
	<circle cx="260.061" cy="426.975" r="4" fill="#0" id="circle40"/>
	<circle cx="267.648" cy="375.763" r="4" fill="#0" id="circle41"/>
	<circle cx="269.545" cy="444.046" r="4" fill="#0" id="circle42"/>
	<circle cx="275.235" cy="127.289" r="4" fill="#0" id="circle43"/>
	<circle cx="282.822" cy="459.22" r="4" fill="#0" id="circle44"/>
	<circle cx="292.306" cy="136.772" r="4" fill="#0" id="circle45"/>
	<circle cx="301.79" cy="461.117" r="4" fill="#0" id="circle46"/>
	<circle cx="309.377" cy="146.256" r="4" fill="#0" id="circle47"/>
	<circle cx="320.757" cy="461.117" r="4" fill="#0" id="circle48"/>
	<circle cx="324.551" cy="157.637" r="4" fill="#0" id="circle49"/>
	<circle cx="328.344" cy="432.665" r="4" fill="#0" id="circle50"/>
	<circle cx="337.828" cy="172.811" r="4" fill="#0" id="circle51"/>
	<circle cx="347.312" cy="432.665" r="4" fill="#0" id="circle52"/>
	<circle cx="356.795" cy="180.398" r="4" fill="#0" id="circle53"/>
	<circle cx="364.382" cy="442.149" r="4" fill="#0" id="circle54"/>
	<circle cx="370.073" cy="195.572" r="4" fill="#0" id="circle55"/>
	<circle cx="381.453" cy="451.633" r="4" fill="#0" id="circle56"/>
	<circle cx="385.247" cy="208.849" r="4" fill="#0" id="circle57"/>
	<circle cx="398.524" cy="461.117" r="4" fill="#0" id="circle58"/>
	<circle cx="402.317" cy="218.333" r="4" fill="#0" id="circle59"/>
	<circle cx="415.595" cy="470.6" r="4" fill="#0" id="circle60"/>
	<circle cx="417.491" cy="231.61" r="4" fill="#0" id="circle61"/>
	<circle cx="430.769" cy="481.981" r="4" fill="#0" id="circle62"/>
	<circle cx="434.562" cy="241.094" r="4" fill="#0" id="circle63"/>
	<circle cx="444.046" cy="497.155" r="4" fill="#0" id="circle64"/>
	<circle cx="451.633" cy="250.577" r="4" fill="#0" id="circle65"/>
	<circle cx="459.22" cy="508.535" r="4" fill="#0" id="circle66"/>
	<circle cx="468.704" cy="525.606" r="4" fill="#0" id="circle67"/>
	<circle cx="470.6" cy="250.577" r="4" fill="#0" id="circle68"/>
	<circle cx="478.187" cy="542.677" r="4" fill="#0" id="circle69"/>
	<circle cx="487.671" cy="559.748" r="4" fill="#0" id="circle70"/>
	<circle cx="489.568" cy="256.268" r="4" fill="#0" id="circle71"/>
	<circle cx="502.845" cy="573.025" r="4" fill="#0" id="circle72"/>
	<circle cx="508.535" cy="260.061" r="4" fill="#0" id="circle73"/>
	<circle cx="518.019" cy="584.405" r="4" fill="#0" id="circle74"/>
	<circle cx="527.503" cy="260.061" r="4" fill="#0" id="circle75"/>
	<circle cx="536.987" cy="584.405" r="4" fill="#0" id="circle76"/>
	<circle cx="544.574" cy="269.545" r="4" fill="#0" id="circle77"/>
	<circle cx="554.057" cy="593.889" r="4" fill="#0" id="circle78"/>
	<circle cx="563.541" cy="273.338" r="4" fill="#0" id="circle79"/>
	<circle cx="571.128" cy="603.373" r="4" fill="#0" id="circle80"/>
	<circle cx="580.612" cy="282.822" r="4" fill="#0" id="circle81"/>
	<circle cx="590.096" cy="603.373" r="4" fill="#0" id="circle82"/>
	<circle cx="593.889" cy="297.996" r="4" fill="#0" id="circle83"/>
	<circle cx="603.373" cy="315.067" r="4" fill="#0" id="circle84"/>
	<circle cx="603.373" cy="334.034" r="4" fill="#0" id="circle85"/>
	<circle cx="603.373" cy="413.698" r="4" fill="#0" id="circle86"/>
	<circle cx="607.166" cy="612.857" r="4" fill="#0" id="circle87"/>
	<circle cx="612.857" cy="351.105" r="4" fill="#0" id="circle88"/>
	<circle cx="612.857" cy="370.073" r="4" fill="#0" id="circle89"/>
	<circle cx="612.857" cy="430.769" r="4" fill="#0" id="circle90"/>
	<circle cx="618.547" cy="400.421" r="4" fill="#0" id="circle91"/>
	<circle cx="626.134" cy="620.444" r="4" fill="#0" id="circle92"/>
	<circle cx="628.031" cy="442.149" r="4" fill="#0" id="circle93"/>
	<circle cx="641.308" cy="457.323" r="4" fill="#0" id="circle94"/>
	<circle cx="645.101" cy="622.34" r="4" fill="#0" id="circle95"/>
	<circle cx="656.482" cy="470.6" r="4" fill="#0" id="circle96"/>
	<circle cx="660.275" cy="635.618" r="4" fill="#0" id="circle97"/>
	<circle cx="669.759" cy="485.774" r="4" fill="#0" id="circle98"/>
	<circle cx="679.243" cy="641.308" r="4" fill="#0" id="circle99"/>
	<circle cx="684.933" cy="499.052" r="4" fill="#0" id="circle100"/>
	<circle cx="696.314" cy="650.792" r="4" fill="#0" id="circle101"/>
	<circle cx="698.21" cy="514.226" r="4" fill="#0" id="circle102"/>
	<circle cx="707.694" cy="531.296" r="4" fill="#0" id="circle103"/>
	<circle cx="713.384" cy="660.275" r="4" fill="#0" id="circle104"/>
	<circle cx="720.971" cy="546.47" r="4" fill="#0" id="circle105"/>
	<circle cx="724.765" cy="675.449" r="4" fill="#0" id="circle106"/>
	<circle cx="734.249" cy="692.52" r="4" fill="#0" id="circle107"/>
	<circle cx="736.145" cy="559.748" r="4" fill="#0" id="circle108"/>
	<circle cx="743.732" cy="709.591" r="4" fill="#0" id="circle109"/>
	<circle cx="749.423" cy="574.922" r="4" fill="#0" id="circle110"/>
	<circle cx="753.216" cy="726.662" r="4" fill="#0" id="circle111"/>
	<circle cx="758.906" cy="745.629" r="4" fill="#0" id="circle112"/>
	<circle cx="768.39" cy="582.509" r="4" fill="#0" id="circle113"/>
	<circle cx="772.184" cy="760.803" r="4" fill="#0" id="circle114"/>
	<circle cx="781.667" cy="597.683" r="4" fill="#0" id="circle115"/>
	<circle cx="781.667" cy="777.874" r="4" fill="#0" id="circle116"/>
	<circle cx="791.151" cy="614.753" r="4" fill="#0" id="circle117"/>
	<circle cx="791.151" cy="794.945" r="4" fill="#0" id="circle118"/>
	<circle cx="804.428" cy="810.119" r="4" fill="#0" id="circle119"/>
	<circle cx="808.222" cy="624.237" r="4" fill="#0" id="circle120"/>
	<circle cx="819.602" cy="821.499" r="4" fill="#0" id="circle121"/>
	<circle cx="825.293" cy="840.467" r="4" fill="#0" id="circle122"/>
	<circle cx="827.189" cy="631.824" r="4" fill="#0" id="circle123"/>
	<circle cx="842.363" cy="849.95" r="4" fill="#0" id="circle124"/>
	<circle cx="844.26" cy="641.308" r="4" fill="#0" id="circle125"/>
	<circle cx="849.95" cy="736.145" r="4" fill="#0" id="circle126"/>
	<circle cx="849.95" cy="755.113" r="4" fill="#0" id="circle127"/>
	<circle cx="849.95" cy="774.08" r="4" fill="#0" id="circle128"/>
	<circle cx="853.744" cy="793.048" r="4" fill="#0" id="circle129"/>
	<circle cx="859.434" cy="654.585" r="4" fill="#0" id="circle130"/>
	<circle cx="859.434" cy="812.015" r="4" fill="#0" id="circle131"/>
	<circle cx="859.434" cy="830.983" r="4" fill="#0" id="circle132"/>
	<circle cx="867.021" cy="726.662" r="4" fill="#0" id="circle133"/>
	<circle cx="878.402" cy="658.379" r="4" fill="#0" id="circle134"/>
	<circle cx="885.989" cy="726.662" r="4" fill="#0" id="circle135"/>
	<circle cx="895.472" cy="667.862" r="4" fill="#0" id="circle136"/>
	<circle cx="904.956" cy="726.662" r="4" fill="#0" id="circle137"/>
	<circle cx="912.543" cy="677.346" r="4" fill="#0" id="circle138"/>
	<circle cx="922.027" cy="736.145" r="4" fill="#0" id="circle139"/>
	<circle cx="929.614" cy="686.83" r="4" fill="#0" id="circle140"/>
	<circle cx="939.098" cy="745.629" r="4" fill="#0" id="circle141"/>
	<circle cx="946.685" cy="696.314" r="4" fill="#0" id="circle142"/>
	<circle cx="958.065" cy="745.629" r="4" fill="#0" id="circle143"/>
	<circle cx="963.755" cy="705.797" r="4" fill="#0" id="circle144"/>
	<circle cx="975.136" cy="755.113" r="4" fill="#0" id="circle145"/>
	<circle cx="982.723" cy="711.488" r="4" fill="#0" id="circle146"/>
	<circle cx="994.103" cy="755.113" r="4" fill="#0" id="circle147"/>
	<circle cx="996" cy="726.662" r="4" fill="#0" id="circle148"/>
	</g>
</svg>