<?xml version="1.0" encoding="UTF-8" standalone="no"?>
<!-- Created with CurveBenchmark -->
<svg
	xmlns:dc="http://purl.org/dc/elements/1.1/"
	xmlns:cc="http://creativecommons.org/ns#"
	xmlns:rdf="http://www.w3.org/1999/02/22-rdf-syntax-ns#"
	xmlns:svg="http://www.w3.org/2000/svg"
	xmlns="http://www.w3.org/2000/svg"
	xmlns:sodipodi="http://sodipodi.sourceforge.net/DTD/sodipodi-0.dtd"
	xmlns:inkscape="http://www.inkscape.org/namespaces/inkscape"
	width="1000"
	height="1000"
	id="svg2"
	version="1.1"
	sodipodi:docname="manifold/gathan1-fork01.png.txt">
<defs
	id="defs4" />
<metadata
	id="metadata7">
	<rdf:RDF>
		<cc:Work
			rdf:about="">
			<dc:format>image/svg+xml</dc:format>
			<dc:type
				rdf:resource="http://purl.org/dc/dcmitype/StillImage" />
			<dc:title></dc:title>
		</cc:Work>
	</rdf:RDF>
</metadata>
<g
	inkscape:label="Layer 1"
	inkscape:groupmode="layer"
	id="layer1">
	<path style="fill:none;stroke:red;stroke-width:1px;stroke-linecap:butt;stroke-linejoin:miter;stroke-opacity:1" d="M 18.6691,40.6728 4,27.8373 z" id="boundary" inkscape:connector-curvature="0" />
	<path style="fill:none;stroke:red;stroke-width:1px;stroke-linecap:butt;stroke-linejoin:miter;stroke-opacity:1" d="M 4,27.8373 18.6691,13.1682 z" id="boundary" inkscape:connector-curvature="0" />
	<path style="fill:none;stroke:red;stroke-width:1px;stroke-linecap:butt;stroke-linejoin:miter;stroke-opacity:1" d="M 33.3383,51.6747 18.6691,40.6728 z" id="boundary" inkscape:connector-curvature="0" />
	<path style="fill:none;stroke:red;stroke-width:1px;stroke-linecap:butt;stroke-linejoin:miter;stroke-opacity:1" d="M 51.6747,51.6747 33.3383,51.6747 z" id="boundary" inkscape:connector-curvature="0" />
	<path style="fill:none;stroke:red;stroke-width:1px;stroke-linecap:butt;stroke-linejoin:miter;stroke-opacity:1" d="M 37.0055,4 53.5083,13.1682 z" id="boundary" inkscape:connector-curvature="0" />
	<path style="fill:none;stroke:red;stroke-width:1px;stroke-linecap:butt;stroke-linejoin:miter;stroke-opacity:1" d="M 18.6691,13.1682 37.0055,4 z" id="boundary" inkscape:connector-curvature="0" />
	<path style="fill:none;stroke:red;stroke-width:1px;stroke-linecap:butt;stroke-linejoin:miter;stroke-opacity:1" d="M 53.5083,13.1682 71.8447,13.1682 z" id="boundary" inkscape:connector-curvature="0" />
	<path style="fill:none;stroke:red;stroke-width:1px;stroke-linecap:butt;stroke-linejoin:miter;stroke-opacity:1" d="M 90.1811,13.1682 71.8447,13.1682 z" id="boundary" inkscape:connector-curvature="0" />
	<path style="fill:none;stroke:red;stroke-width:1px;stroke-linecap:butt;stroke-linejoin:miter;stroke-opacity:1" d="M 51.6747,51.6747 70.0111,51.6747 z" id="boundary" inkscape:connector-curvature="0" />
	<path style="fill:none;stroke:red;stroke-width:1px;stroke-linecap:butt;stroke-linejoin:miter;stroke-opacity:1" d="M 88.3475,55.342 70.0111,51.6747 z" id="boundary" inkscape:connector-curvature="0" />
	<path style="fill:none;stroke:red;stroke-width:1px;stroke-linecap:butt;stroke-linejoin:miter;stroke-opacity:1" d="M 106.684,60.8429 88.3475,55.342 z" id="boundary" inkscape:connector-curvature="0" />
	<path style="fill:none;stroke:red;stroke-width:1px;stroke-linecap:butt;stroke-linejoin:miter;stroke-opacity:1" d="M 108.518,13.1682 126.854,13.1682 z" id="boundary" inkscape:connector-curvature="0" />
	<path style="fill:none;stroke:red;stroke-width:1px;stroke-linecap:butt;stroke-linejoin:miter;stroke-opacity:1" d="M 90.1811,13.1682 108.518,13.1682 z" id="boundary" inkscape:connector-curvature="0" />
	<path style="fill:none;stroke:red;stroke-width:1px;stroke-linecap:butt;stroke-linejoin:miter;stroke-opacity:1" d="M 123.187,51.6747 106.684,60.8429 z" id="boundary" inkscape:connector-curvature="0" />
	<path style="fill:none;stroke:red;stroke-width:1px;stroke-linecap:butt;stroke-linejoin:miter;stroke-opacity:1" d="M 22.3364,101.183 40.6728,95.6821 z" id="boundary" inkscape:connector-curvature="0" />
	<path style="fill:none;stroke:red;stroke-width:1px;stroke-linecap:butt;stroke-linejoin:miter;stroke-opacity:1" d="M 59.0092,95.6821 40.6728,95.6821 z" id="boundary" inkscape:connector-curvature="0" />
	<path style="fill:none;stroke:red;stroke-width:1px;stroke-linecap:butt;stroke-linejoin:miter;stroke-opacity:1" d="M 13.1682,119.519 31.5046,125.02 z" id="boundary" inkscape:connector-curvature="0" />
	<path style="fill:none;stroke:red;stroke-width:1px;stroke-linecap:butt;stroke-linejoin:miter;stroke-opacity:1" d="M 13.1682,119.519 22.3364,101.183 z" id="boundary" inkscape:connector-curvature="0" />
	<path style="fill:none;stroke:red;stroke-width:1px;stroke-linecap:butt;stroke-linejoin:miter;stroke-opacity:1" d="M 48.0074,134.189 66.3438,134.189 z" id="boundary" inkscape:connector-curvature="0" />
	<path style="fill:none;stroke:red;stroke-width:1px;stroke-linecap:butt;stroke-linejoin:miter;stroke-opacity:1" d="M 48.0074,134.189 31.5046,125.02 z" id="boundary" inkscape:connector-curvature="0" />
	<path style="fill:none;stroke:red;stroke-width:1px;stroke-linecap:butt;stroke-linejoin:miter;stroke-opacity:1" d="M 59.0092,95.6821 77.3457,95.6821 z" id="boundary" inkscape:connector-curvature="0" />
	<path style="fill:none;stroke:red;stroke-width:1px;stroke-linecap:butt;stroke-linejoin:miter;stroke-opacity:1" d="M 95.6821,95.6821 77.3457,95.6821 z" id="boundary" inkscape:connector-curvature="0" />
	<path style="fill:none;stroke:red;stroke-width:1px;stroke-linecap:butt;stroke-linejoin:miter;stroke-opacity:1" d="M 112.185,104.85 95.6821,95.6821 z" id="boundary" inkscape:connector-curvature="0" />
	<path style="fill:none;stroke:red;stroke-width:1px;stroke-linecap:butt;stroke-linejoin:miter;stroke-opacity:1" d="M 66.3438,134.189 84.6802,134.189 z" id="boundary" inkscape:connector-curvature="0" />
	<path style="fill:none;stroke:red;stroke-width:1px;stroke-linecap:butt;stroke-linejoin:miter;stroke-opacity:1" d="M 101.183,143.357 84.6802,134.189 z" id="boundary" inkscape:connector-curvature="0" />
	<path style="fill:none;stroke:red;stroke-width:1px;stroke-linecap:butt;stroke-linejoin:miter;stroke-opacity:1" d="M 119.519,141.523 101.183,143.357 z" id="boundary" inkscape:connector-curvature="0" />
	<path style="fill:none;stroke:red;stroke-width:1px;stroke-linecap:butt;stroke-linejoin:miter;stroke-opacity:1" d="M 130.521,104.85 112.185,104.85 z" id="boundary" inkscape:connector-curvature="0" />
	<path style="fill:none;stroke:red;stroke-width:1px;stroke-linecap:butt;stroke-linejoin:miter;stroke-opacity:1" d="M 123.187,51.6747 139.689,60.8429 z" id="boundary" inkscape:connector-curvature="0" />
	<path style="fill:none;stroke:red;stroke-width:1px;stroke-linecap:butt;stroke-linejoin:miter;stroke-opacity:1" d="M 145.19,13.1682 126.854,13.1682 z" id="boundary" inkscape:connector-curvature="0" />
	<path style="fill:none;stroke:red;stroke-width:1px;stroke-linecap:butt;stroke-linejoin:miter;stroke-opacity:1" d="M 163.527,13.1682 145.19,13.1682 z" id="boundary" inkscape:connector-curvature="0" />
	<path style="fill:none;stroke:red;stroke-width:1px;stroke-linecap:butt;stroke-linejoin:miter;stroke-opacity:1" d="M 158.026,60.8429 139.689,60.8429 z" id="boundary" inkscape:connector-curvature="0" />
	<path style="fill:none;stroke:red;stroke-width:1px;stroke-linecap:butt;stroke-linejoin:miter;stroke-opacity:1" d="M 174.529,51.6747 158.026,60.8429 z" id="boundary" inkscape:connector-curvature="0" />
	<path style="fill:none;stroke:red;stroke-width:1px;stroke-linecap:butt;stroke-linejoin:miter;stroke-opacity:1" d="M 163.527,13.1682 181.863,15.0018 z" id="boundary" inkscape:connector-curvature="0" />
	<path style="fill:none;stroke:red;stroke-width:1px;stroke-linecap:butt;stroke-linejoin:miter;stroke-opacity:1" d="M 218.536,22.3364 200.2,22.3364 z" id="boundary" inkscape:connector-curvature="0" />
	<path style="fill:none;stroke:red;stroke-width:1px;stroke-linecap:butt;stroke-linejoin:miter;stroke-opacity:1" d="M 200.2,22.3364 181.863,15.0018 z" id="boundary" inkscape:connector-curvature="0" />
	<path style="fill:none;stroke:red;stroke-width:1px;stroke-linecap:butt;stroke-linejoin:miter;stroke-opacity:1" d="M 189.198,64.5102 207.534,60.8429 z" id="boundary" inkscape:connector-curvature="0" />
	<path style="fill:none;stroke:red;stroke-width:1px;stroke-linecap:butt;stroke-linejoin:miter;stroke-opacity:1" d="M 240.54,79.1793 224.037,70.0111 z" id="boundary" inkscape:connector-curvature="0" />
	<path style="fill:none;stroke:red;stroke-width:1px;stroke-linecap:butt;stroke-linejoin:miter;stroke-opacity:1" d="M 224.037,70.0111 207.534,60.8429 z" id="boundary" inkscape:connector-curvature="0" />
	<path style="fill:none;stroke:red;stroke-width:1px;stroke-linecap:butt;stroke-linejoin:miter;stroke-opacity:1" d="M 218.536,22.3364 235.039,31.5046 z" id="boundary" inkscape:connector-curvature="0" />
	<path style="fill:none;stroke:red;stroke-width:1px;stroke-linecap:butt;stroke-linejoin:miter;stroke-opacity:1" d="M 253.375,37.0055 235.039,31.5046 z" id="boundary" inkscape:connector-curvature="0" />
	<path style="fill:none;stroke:red;stroke-width:1px;stroke-linecap:butt;stroke-linejoin:miter;stroke-opacity:1" d="M 130.521,104.85 148.858,104.85 z" id="boundary" inkscape:connector-curvature="0" />
	<path style="fill:none;stroke:red;stroke-width:1px;stroke-linecap:butt;stroke-linejoin:miter;stroke-opacity:1" d="M 167.194,104.85 148.858,104.85 z" id="boundary" inkscape:connector-curvature="0" />
	<path style="fill:none;stroke:red;stroke-width:1px;stroke-linecap:butt;stroke-linejoin:miter;stroke-opacity:1" d="M 137.856,134.189 154.359,143.357 z" id="boundary" inkscape:connector-curvature="0" />
	<path style="fill:none;stroke:red;stroke-width:1px;stroke-linecap:butt;stroke-linejoin:miter;stroke-opacity:1" d="M 119.519,141.523 137.856,134.189 z" id="boundary" inkscape:connector-curvature="0" />
	<path style="fill:none;stroke:red;stroke-width:1px;stroke-linecap:butt;stroke-linejoin:miter;stroke-opacity:1" d="M 189.198,152.525 172.695,143.357 z" id="boundary" inkscape:connector-curvature="0" />
	<path style="fill:none;stroke:red;stroke-width:1px;stroke-linecap:butt;stroke-linejoin:miter;stroke-opacity:1" d="M 172.695,143.357 154.359,143.357 z" id="boundary" inkscape:connector-curvature="0" />
	<path style="fill:none;stroke:red;stroke-width:1px;stroke-linecap:butt;stroke-linejoin:miter;stroke-opacity:1" d="M 167.194,104.85 183.697,114.018 z" id="boundary" inkscape:connector-curvature="0" />
	<path style="fill:none;stroke:red;stroke-width:1px;stroke-linecap:butt;stroke-linejoin:miter;stroke-opacity:1" d="M 220.37,114.018 202.033,114.018 z" id="boundary" inkscape:connector-curvature="0" />
	<path style="fill:none;stroke:red;stroke-width:1px;stroke-linecap:butt;stroke-linejoin:miter;stroke-opacity:1" d="M 202.033,114.018 183.697,114.018 z" id="boundary" inkscape:connector-curvature="0" />
	<path style="fill:none;stroke:red;stroke-width:1px;stroke-linecap:butt;stroke-linejoin:miter;stroke-opacity:1" d="M 236.872,123.187 220.37,114.018 z" id="boundary" inkscape:connector-curvature="0" />
	<path style="fill:none;stroke:red;stroke-width:1px;stroke-linecap:butt;stroke-linejoin:miter;stroke-opacity:1" d="M 189.198,152.525 207.534,152.525 z" id="boundary" inkscape:connector-curvature="0" />
	<path style="fill:none;stroke:red;stroke-width:1px;stroke-linecap:butt;stroke-linejoin:miter;stroke-opacity:1" d="M 244.207,156.192 225.871,152.525 z" id="boundary" inkscape:connector-curvature="0" />
	<path style="fill:none;stroke:red;stroke-width:1px;stroke-linecap:butt;stroke-linejoin:miter;stroke-opacity:1" d="M 225.871,152.525 207.534,152.525 z" id="boundary" inkscape:connector-curvature="0" />
	<path style="fill:none;stroke:red;stroke-width:1px;stroke-linecap:butt;stroke-linejoin:miter;stroke-opacity:1" d="M 236.872,123.187 255.209,123.187 z" id="boundary" inkscape:connector-curvature="0" />
	<path style="fill:none;stroke:red;stroke-width:1px;stroke-linecap:butt;stroke-linejoin:miter;stroke-opacity:1" d="M 22.3364,192.865 37.0055,178.196 z" id="boundary" inkscape:connector-curvature="0" />
	<path style="fill:none;stroke:red;stroke-width:1px;stroke-linecap:butt;stroke-linejoin:miter;stroke-opacity:1" d="M 70.0111,178.196 53.5083,187.364 z" id="boundary" inkscape:connector-curvature="0" />
	<path style="fill:none;stroke:red;stroke-width:1px;stroke-linecap:butt;stroke-linejoin:miter;stroke-opacity:1" d="M 40.6728,216.702 22.3364,211.201 z" id="boundary" inkscape:connector-curvature="0" />
	<path style="fill:none;stroke:red;stroke-width:1px;stroke-linecap:butt;stroke-linejoin:miter;stroke-opacity:1" d="M 22.3364,211.201 22.3364,192.865 z" id="boundary" inkscape:connector-curvature="0" />
	<path style="fill:none;stroke:red;stroke-width:1px;stroke-linecap:butt;stroke-linejoin:miter;stroke-opacity:1" d="M 59.0092,216.702 40.6728,216.702 z" id="boundary" inkscape:connector-curvature="0" />
	<path style="fill:none;stroke:red;stroke-width:1px;stroke-linecap:butt;stroke-linejoin:miter;stroke-opacity:1" d="M 77.3457,216.702 59.0092,216.702 z" id="boundary" inkscape:connector-curvature="0" />
	<path style="fill:none;stroke:red;stroke-width:1px;stroke-linecap:butt;stroke-linejoin:miter;stroke-opacity:1" d="M 106.684,187.364 88.3475,183.697 z" id="boundary" inkscape:connector-curvature="0" />
	<path style="fill:none;stroke:red;stroke-width:1px;stroke-linecap:butt;stroke-linejoin:miter;stroke-opacity:1" d="M 88.3475,183.697 70.0111,178.196 z" id="boundary" inkscape:connector-curvature="0" />
	<path style="fill:none;stroke:red;stroke-width:1px;stroke-linecap:butt;stroke-linejoin:miter;stroke-opacity:1" d="M 93.8484,225.871 77.3457,216.702 z" id="boundary" inkscape:connector-curvature="0" />
	<path style="fill:none;stroke:red;stroke-width:1px;stroke-linecap:butt;stroke-linejoin:miter;stroke-opacity:1" d="M 110.351,216.702 93.8484,225.871 z" id="boundary" inkscape:connector-curvature="0" />
	<path style="fill:none;stroke:red;stroke-width:1px;stroke-linecap:butt;stroke-linejoin:miter;stroke-opacity:1" d="M 126.854,225.871 110.351,216.702 z" id="boundary" inkscape:connector-curvature="0" />
	<path style="fill:none;stroke:red;stroke-width:1px;stroke-linecap:butt;stroke-linejoin:miter;stroke-opacity:1" d="M 106.684,187.364 125.02,187.364 z" id="boundary" inkscape:connector-curvature="0" />
	<path style="fill:none;stroke:red;stroke-width:1px;stroke-linecap:butt;stroke-linejoin:miter;stroke-opacity:1" d="M 22.3364,293.715 37.0055,279.046 z" id="boundary" inkscape:connector-curvature="0" />
	<path style="fill:none;stroke:red;stroke-width:1px;stroke-linecap:butt;stroke-linejoin:miter;stroke-opacity:1" d="M 55.342,279.046 37.0055,279.046 z" id="boundary" inkscape:connector-curvature="0" />
	<path style="fill:none;stroke:red;stroke-width:1px;stroke-linecap:butt;stroke-linejoin:miter;stroke-opacity:1" d="M 13.1682,312.052 31.5046,317.553 z" id="boundary" inkscape:connector-curvature="0" />
	<path style="fill:none;stroke:red;stroke-width:1px;stroke-linecap:butt;stroke-linejoin:miter;stroke-opacity:1" d="M 31.5046,317.553 48.0074,326.721 z" id="boundary" inkscape:connector-curvature="0" />
	<path style="fill:none;stroke:red;stroke-width:1px;stroke-linecap:butt;stroke-linejoin:miter;stroke-opacity:1" d="M 13.1682,312.052 22.3364,293.715 z" id="boundary" inkscape:connector-curvature="0" />
	<path style="fill:none;stroke:red;stroke-width:1px;stroke-linecap:butt;stroke-linejoin:miter;stroke-opacity:1" d="M 48.0074,326.721 66.3438,326.721 z" id="boundary" inkscape:connector-curvature="0" />
	<path style="fill:none;stroke:red;stroke-width:1px;stroke-linecap:butt;stroke-linejoin:miter;stroke-opacity:1" d="M 55.342,279.046 71.8447,288.214 z" id="boundary" inkscape:connector-curvature="0" />
	<path style="fill:none;stroke:red;stroke-width:1px;stroke-linecap:butt;stroke-linejoin:miter;stroke-opacity:1" d="M 90.1811,288.214 71.8447,288.214 z" id="boundary" inkscape:connector-curvature="0" />
	<path style="fill:none;stroke:red;stroke-width:1px;stroke-linecap:butt;stroke-linejoin:miter;stroke-opacity:1" d="M 108.518,288.214 90.1811,288.214 z" id="boundary" inkscape:connector-curvature="0" />
	<path style="fill:none;stroke:red;stroke-width:1px;stroke-linecap:butt;stroke-linejoin:miter;stroke-opacity:1" d="M 84.6802,326.721 103.017,326.721 z" id="boundary" inkscape:connector-curvature="0" />
	<path style="fill:none;stroke:red;stroke-width:1px;stroke-linecap:butt;stroke-linejoin:miter;stroke-opacity:1" d="M 121.353,326.721 103.017,326.721 z" id="boundary" inkscape:connector-curvature="0" />
	<path style="fill:none;stroke:red;stroke-width:1px;stroke-linecap:butt;stroke-linejoin:miter;stroke-opacity:1" d="M 108.518,288.214 126.854,288.214 z" id="boundary" inkscape:connector-curvature="0" />
	<path style="fill:none;stroke:red;stroke-width:1px;stroke-linecap:butt;stroke-linejoin:miter;stroke-opacity:1" d="M 84.6802,326.721 66.3438,326.721 z" id="boundary" inkscape:connector-curvature="0" />
	<path style="fill:none;stroke:red;stroke-width:1px;stroke-linecap:butt;stroke-linejoin:miter;stroke-opacity:1" d="M 125.02,187.364 143.357,187.364 z" id="boundary" inkscape:connector-curvature="0" />
	<path style="fill:none;stroke:red;stroke-width:1px;stroke-linecap:butt;stroke-linejoin:miter;stroke-opacity:1" d="M 161.693,192.865 143.357,187.364 z" id="boundary" inkscape:connector-curvature="0" />
	<path style="fill:none;stroke:red;stroke-width:1px;stroke-linecap:butt;stroke-linejoin:miter;stroke-opacity:1" d="M 180.03,191.031 161.693,192.865 z" id="boundary" inkscape:connector-curvature="0" />
	<path style="fill:none;stroke:red;stroke-width:1px;stroke-linecap:butt;stroke-linejoin:miter;stroke-opacity:1" d="M 163.527,231.372 145.19,231.372 z" id="boundary" inkscape:connector-curvature="0" />
	<path style="fill:none;stroke:red;stroke-width:1px;stroke-linecap:butt;stroke-linejoin:miter;stroke-opacity:1" d="M 181.863,225.871 163.527,231.372 z" id="boundary" inkscape:connector-curvature="0" />
	<path style="fill:none;stroke:red;stroke-width:1px;stroke-linecap:butt;stroke-linejoin:miter;stroke-opacity:1" d="M 180.03,191.031 198.366,192.865 z" id="boundary" inkscape:connector-curvature="0" />
	<path style="fill:none;stroke:red;stroke-width:1px;stroke-linecap:butt;stroke-linejoin:miter;stroke-opacity:1" d="M 126.854,225.871 145.19,231.372 z" id="boundary" inkscape:connector-curvature="0" />
	<path style="fill:none;stroke:red;stroke-width:1px;stroke-linecap:butt;stroke-linejoin:miter;stroke-opacity:1" d="M 216.702,187.364 198.366,192.865 z" id="boundary" inkscape:connector-curvature="0" />
	<path style="fill:none;stroke:red;stroke-width:1px;stroke-linecap:butt;stroke-linejoin:miter;stroke-opacity:1" d="M 233.205,196.532 216.702,187.364 z" id="boundary" inkscape:connector-curvature="0" />
	<path style="fill:none;stroke:red;stroke-width:1px;stroke-linecap:butt;stroke-linejoin:miter;stroke-opacity:1" d="M 181.863,225.871 200.2,225.871 z" id="boundary" inkscape:connector-curvature="0" />
	<path style="fill:none;stroke:red;stroke-width:1px;stroke-linecap:butt;stroke-linejoin:miter;stroke-opacity:1" d="M 218.536,231.372 200.2,225.871 z" id="boundary" inkscape:connector-curvature="0" />
	<path style="fill:none;stroke:red;stroke-width:1px;stroke-linecap:butt;stroke-linejoin:miter;stroke-opacity:1" d="M 236.872,235.039 218.536,231.372 z" id="boundary" inkscape:connector-curvature="0" />
	<path style="fill:none;stroke:red;stroke-width:1px;stroke-linecap:butt;stroke-linejoin:miter;stroke-opacity:1" d="M 255.209,235.039 236.872,235.039 z" id="boundary" inkscape:connector-curvature="0" />
	<path style="fill:none;stroke:red;stroke-width:1px;stroke-linecap:butt;stroke-linejoin:miter;stroke-opacity:1" d="M 126.854,288.214 145.19,288.214 z" id="boundary" inkscape:connector-curvature="0" />
	<path style="fill:none;stroke:red;stroke-width:1px;stroke-linecap:butt;stroke-linejoin:miter;stroke-opacity:1" d="M 163.527,288.214 145.19,288.214 z" id="boundary" inkscape:connector-curvature="0" />
	<path style="fill:none;stroke:red;stroke-width:1px;stroke-linecap:butt;stroke-linejoin:miter;stroke-opacity:1" d="M 139.689,326.721 156.192,335.889 z" id="boundary" inkscape:connector-curvature="0" />
	<path style="fill:none;stroke:red;stroke-width:1px;stroke-linecap:butt;stroke-linejoin:miter;stroke-opacity:1" d="M 121.353,326.721 139.689,326.721 z" id="boundary" inkscape:connector-curvature="0" />
	<path style="fill:none;stroke:red;stroke-width:1px;stroke-linecap:butt;stroke-linejoin:miter;stroke-opacity:1" d="M 192.865,334.055 174.529,334.055 z" id="boundary" inkscape:connector-curvature="0" />
	<path style="fill:none;stroke:red;stroke-width:1px;stroke-linecap:butt;stroke-linejoin:miter;stroke-opacity:1" d="M 174.529,334.055 156.192,335.889 z" id="boundary" inkscape:connector-curvature="0" />
	<path style="fill:none;stroke:red;stroke-width:1px;stroke-linecap:butt;stroke-linejoin:miter;stroke-opacity:1" d="M 163.527,288.214 181.863,288.214 z" id="boundary" inkscape:connector-curvature="0" />
	<path style="fill:none;stroke:red;stroke-width:1px;stroke-linecap:butt;stroke-linejoin:miter;stroke-opacity:1" d="M 200.2,288.214 218.536,288.214 z" id="boundary" inkscape:connector-curvature="0" />
	<path style="fill:none;stroke:red;stroke-width:1px;stroke-linecap:butt;stroke-linejoin:miter;stroke-opacity:1" d="M 236.872,288.214 218.536,288.214 z" id="boundary" inkscape:connector-curvature="0" />
	<path style="fill:none;stroke:red;stroke-width:1px;stroke-linecap:butt;stroke-linejoin:miter;stroke-opacity:1" d="M 192.865,334.055 211.201,334.055 z" id="boundary" inkscape:connector-curvature="0" />
	<path style="fill:none;stroke:red;stroke-width:1px;stroke-linecap:butt;stroke-linejoin:miter;stroke-opacity:1" d="M 229.538,334.055 247.874,334.055 z" id="boundary" inkscape:connector-curvature="0" />
	<path style="fill:none;stroke:red;stroke-width:1px;stroke-linecap:butt;stroke-linejoin:miter;stroke-opacity:1" d="M 229.538,334.055 211.201,334.055 z" id="boundary" inkscape:connector-curvature="0" />
	<path style="fill:none;stroke:red;stroke-width:1px;stroke-linecap:butt;stroke-linejoin:miter;stroke-opacity:1" d="M 236.872,288.214 255.209,288.214 z" id="boundary" inkscape:connector-curvature="0" />
	<path style="fill:none;stroke:red;stroke-width:1px;stroke-linecap:butt;stroke-linejoin:miter;stroke-opacity:1" d="M 181.863,288.214 200.2,288.214 z" id="boundary" inkscape:connector-curvature="0" />
	<path style="fill:none;stroke:red;stroke-width:1px;stroke-linecap:butt;stroke-linejoin:miter;stroke-opacity:1" d="M 251.542,191.031 233.205,196.532 z" id="boundary" inkscape:connector-curvature="0" />
	<path style="fill:none;stroke:red;stroke-width:1px;stroke-linecap:butt;stroke-linejoin:miter;stroke-opacity:1" d="M 253.375,37.0055 269.878,46.1738 z" id="boundary" inkscape:connector-curvature="0" />
	<path style="fill:none;stroke:red;stroke-width:1px;stroke-linecap:butt;stroke-linejoin:miter;stroke-opacity:1" d="M 284.547,59.0092 269.878,46.1738 z" id="boundary" inkscape:connector-curvature="0" />
	<path style="fill:none;stroke:red;stroke-width:1px;stroke-linecap:butt;stroke-linejoin:miter;stroke-opacity:1" d="M 301.05,68.1774 284.547,59.0092 z" id="boundary" inkscape:connector-curvature="0" />
	<path style="fill:none;stroke:red;stroke-width:1px;stroke-linecap:butt;stroke-linejoin:miter;stroke-opacity:1" d="M 271.712,93.8484 258.876,79.1793 z" id="boundary" inkscape:connector-curvature="0" />
	<path style="fill:none;stroke:red;stroke-width:1px;stroke-linecap:butt;stroke-linejoin:miter;stroke-opacity:1" d="M 240.54,79.1793 258.876,79.1793 z" id="boundary" inkscape:connector-curvature="0" />
	<path style="fill:none;stroke:red;stroke-width:1px;stroke-linecap:butt;stroke-linejoin:miter;stroke-opacity:1" d="M 317.553,77.3457 326.721,93.8484 z" id="boundary" inkscape:connector-curvature="0" />
	<path style="fill:none;stroke:red;stroke-width:1px;stroke-linecap:butt;stroke-linejoin:miter;stroke-opacity:1" d="M 317.553,77.3457 301.05,68.1774 z" id="boundary" inkscape:connector-curvature="0" />
	<path style="fill:none;stroke:red;stroke-width:1px;stroke-linecap:butt;stroke-linejoin:miter;stroke-opacity:1" d="M 345.057,101.183 326.721,93.8484 z" id="boundary" inkscape:connector-curvature="0" />
	<path style="fill:none;stroke:red;stroke-width:1px;stroke-linecap:butt;stroke-linejoin:miter;stroke-opacity:1" d="M 359.726,114.018 345.057,101.183 z" id="boundary" inkscape:connector-curvature="0" />
	<path style="fill:none;stroke:red;stroke-width:1px;stroke-linecap:butt;stroke-linejoin:miter;stroke-opacity:1" d="M 378.063,114.018 359.726,114.018 z" id="boundary" inkscape:connector-curvature="0" />
	<path style="fill:none;stroke:red;stroke-width:1px;stroke-linecap:butt;stroke-linejoin:miter;stroke-opacity:1" d="M 396.399,114.018 378.063,114.018 z" id="boundary" inkscape:connector-curvature="0" />
	<path style="fill:none;stroke:red;stroke-width:1px;stroke-linecap:butt;stroke-linejoin:miter;stroke-opacity:1" d="M 414.736,115.852 396.399,114.018 z" id="boundary" inkscape:connector-curvature="0" />
	<path style="fill:none;stroke:red;stroke-width:1px;stroke-linecap:butt;stroke-linejoin:miter;stroke-opacity:1" d="M 255.209,123.187 273.545,123.187 z" id="boundary" inkscape:connector-curvature="0" />
	<path style="fill:none;stroke:red;stroke-width:1px;stroke-linecap:butt;stroke-linejoin:miter;stroke-opacity:1" d="M 280.88,165.36 262.543,161.693 z" id="boundary" inkscape:connector-curvature="0" />
	<path style="fill:none;stroke:red;stroke-width:1px;stroke-linecap:butt;stroke-linejoin:miter;stroke-opacity:1" d="M 244.207,156.192 262.543,161.693 z" id="boundary" inkscape:connector-curvature="0" />
	<path style="fill:none;stroke:red;stroke-width:1px;stroke-linecap:butt;stroke-linejoin:miter;stroke-opacity:1" d="M 251.542,191.031 269.878,196.532 z" id="boundary" inkscape:connector-curvature="0" />
	<path style="fill:none;stroke:red;stroke-width:1px;stroke-linecap:butt;stroke-linejoin:miter;stroke-opacity:1" d="M 288.214,196.532 269.878,196.532 z" id="boundary" inkscape:connector-curvature="0" />
	<path style="fill:none;stroke:red;stroke-width:1px;stroke-linecap:butt;stroke-linejoin:miter;stroke-opacity:1" d="M 306.551,191.031 288.214,196.532 z" id="boundary" inkscape:connector-curvature="0" />
	<path style="fill:none;stroke:red;stroke-width:1px;stroke-linecap:butt;stroke-linejoin:miter;stroke-opacity:1" d="M 273.545,123.187 291.882,125.02 z" id="boundary" inkscape:connector-curvature="0" />
	<path style="fill:none;stroke:red;stroke-width:1px;stroke-linecap:butt;stroke-linejoin:miter;stroke-opacity:1" d="M 451.409,123.187 433.072,123.187 z" id="boundary" inkscape:connector-curvature="0" />
	<path style="fill:none;stroke:red;stroke-width:1px;stroke-linecap:butt;stroke-linejoin:miter;stroke-opacity:1" d="M 433.072,123.187 414.736,115.852 z" id="boundary" inkscape:connector-curvature="0" />
	<path style="fill:none;stroke:red;stroke-width:1px;stroke-linecap:butt;stroke-linejoin:miter;stroke-opacity:1" d="M 280.88,165.36 299.216,161.693 z" id="boundary" inkscape:connector-curvature="0" />
	<path style="fill:none;stroke:red;stroke-width:1px;stroke-linecap:butt;stroke-linejoin:miter;stroke-opacity:1" d="M 299.216,161.693 315.719,170.861 z" id="boundary" inkscape:connector-curvature="0" />
	<path style="fill:none;stroke:red;stroke-width:1px;stroke-linecap:butt;stroke-linejoin:miter;stroke-opacity:1" d="M 315.719,170.861 324.887,187.364 z" id="boundary" inkscape:connector-curvature="0" />
	<path style="fill:none;stroke:red;stroke-width:1px;stroke-linecap:butt;stroke-linejoin:miter;stroke-opacity:1" d="M 324.887,187.364 306.551,191.031 z" id="boundary" inkscape:connector-curvature="0" />
	<path style="fill:none;stroke:red;stroke-width:1px;stroke-linecap:butt;stroke-linejoin:miter;stroke-opacity:1" d="M 488.081,125.02 469.745,125.02 z" id="boundary" inkscape:connector-curvature="0" />
	<path style="fill:none;stroke:red;stroke-width:1px;stroke-linecap:butt;stroke-linejoin:miter;stroke-opacity:1" d="M 469.745,125.02 451.409,123.187 z" id="boundary" inkscape:connector-curvature="0" />
	<path style="fill:none;stroke:red;stroke-width:1px;stroke-linecap:butt;stroke-linejoin:miter;stroke-opacity:1" d="M 488.081,125.02 506.418,132.355 z" id="boundary" inkscape:connector-curvature="0" />
	<path style="fill:none;stroke:red;stroke-width:1px;stroke-linecap:butt;stroke-linejoin:miter;stroke-opacity:1" d="M 506.418,132.355 524.754,132.355 z" id="boundary" inkscape:connector-curvature="0" />
	<path style="fill:none;stroke:red;stroke-width:1px;stroke-linecap:butt;stroke-linejoin:miter;stroke-opacity:1" d="M 524.754,132.355 541.257,141.523 z" id="boundary" inkscape:connector-curvature="0" />
	<path style="fill:none;stroke:red;stroke-width:1px;stroke-linecap:butt;stroke-linejoin:miter;stroke-opacity:1" d="M 559.593,141.523 541.257,141.523 z" id="boundary" inkscape:connector-curvature="0" />
	<path style="fill:none;stroke:red;stroke-width:1px;stroke-linecap:butt;stroke-linejoin:miter;stroke-opacity:1" d="M 559.593,141.523 577.93,141.523 z" id="boundary" inkscape:connector-curvature="0" />
	<path style="fill:none;stroke:red;stroke-width:1px;stroke-linecap:butt;stroke-linejoin:miter;stroke-opacity:1" d="M 596.266,141.523 577.93,141.523 z" id="boundary" inkscape:connector-curvature="0" />
	<path style="fill:none;stroke:red;stroke-width:1px;stroke-linecap:butt;stroke-linejoin:miter;stroke-opacity:1" d="M 614.603,141.523 632.939,141.523 z" id="boundary" inkscape:connector-curvature="0" />
	<path style="fill:none;stroke:red;stroke-width:1px;stroke-linecap:butt;stroke-linejoin:miter;stroke-opacity:1" d="M 651.275,141.523 669.612,141.523 z" id="boundary" inkscape:connector-curvature="0" />
	<path style="fill:none;stroke:red;stroke-width:1px;stroke-linecap:butt;stroke-linejoin:miter;stroke-opacity:1" d="M 669.612,141.523 686.115,150.691 z" id="boundary" inkscape:connector-curvature="0" />
	<path style="fill:none;stroke:red;stroke-width:1px;stroke-linecap:butt;stroke-linejoin:miter;stroke-opacity:1" d="M 651.275,141.523 632.939,141.523 z" id="boundary" inkscape:connector-curvature="0" />
	<path style="fill:none;stroke:red;stroke-width:1px;stroke-linecap:butt;stroke-linejoin:miter;stroke-opacity:1" d="M 614.603,141.523 596.266,141.523 z" id="boundary" inkscape:connector-curvature="0" />
	<path style="fill:none;stroke:red;stroke-width:1px;stroke-linecap:butt;stroke-linejoin:miter;stroke-opacity:1" d="M 686.115,150.691 704.451,150.691 z" id="boundary" inkscape:connector-curvature="0" />
	<path style="fill:none;stroke:red;stroke-width:1px;stroke-linecap:butt;stroke-linejoin:miter;stroke-opacity:1" d="M 704.451,150.691 720.954,159.86 z" id="boundary" inkscape:connector-curvature="0" />
	<path style="fill:none;stroke:red;stroke-width:1px;stroke-linecap:butt;stroke-linejoin:miter;stroke-opacity:1" d="M 739.29,159.86 720.954,159.86 z" id="boundary" inkscape:connector-curvature="0" />
	<path style="fill:none;stroke:red;stroke-width:1px;stroke-linecap:butt;stroke-linejoin:miter;stroke-opacity:1" d="M 739.29,159.86 757.627,159.86 z" id="boundary" inkscape:connector-curvature="0" />
	<path style="fill:none;stroke:red;stroke-width:1px;stroke-linecap:butt;stroke-linejoin:miter;stroke-opacity:1" d="M 757.627,159.86 774.129,169.028 z" id="boundary" inkscape:connector-curvature="0" />
	<path style="fill:none;stroke:red;stroke-width:1px;stroke-linecap:butt;stroke-linejoin:miter;stroke-opacity:1" d="M 774.129,169.028 792.466,163.527 z" id="boundary" inkscape:connector-curvature="0" />
	<path style="fill:none;stroke:red;stroke-width:1px;stroke-linecap:butt;stroke-linejoin:miter;stroke-opacity:1" d="M 792.466,163.527 810.802,169.028 z" id="boundary" inkscape:connector-curvature="0" />
	<path style="fill:none;stroke:red;stroke-width:1px;stroke-linecap:butt;stroke-linejoin:miter;stroke-opacity:1" d="M 845.641,180.03 827.305,178.196 z" id="boundary" inkscape:connector-curvature="0" />
	<path style="fill:none;stroke:red;stroke-width:1px;stroke-linecap:butt;stroke-linejoin:miter;stroke-opacity:1" d="M 827.305,178.196 810.802,169.028 z" id="boundary" inkscape:connector-curvature="0" />
	<path style="fill:none;stroke:red;stroke-width:1px;stroke-linecap:butt;stroke-linejoin:miter;stroke-opacity:1" d="M 845.641,180.03 863.978,187.364 z" id="boundary" inkscape:connector-curvature="0" />
	<path style="fill:none;stroke:red;stroke-width:1px;stroke-linecap:butt;stroke-linejoin:miter;stroke-opacity:1" d="M 880.481,196.532 863.978,187.364 z" id="boundary" inkscape:connector-curvature="0" />
	<path style="fill:none;stroke:red;stroke-width:1px;stroke-linecap:butt;stroke-linejoin:miter;stroke-opacity:1" d="M 898.817,196.532 880.481,196.532 z" id="boundary" inkscape:connector-curvature="0" />
	<path style="fill:none;stroke:red;stroke-width:1px;stroke-linecap:butt;stroke-linejoin:miter;stroke-opacity:1" d="M 950.159,196.532 933.656,205.701 z" id="boundary" inkscape:connector-curvature="0" />
	<path style="fill:none;stroke:red;stroke-width:1px;stroke-linecap:butt;stroke-linejoin:miter;stroke-opacity:1" d="M 255.209,235.039 273.545,235.039 z" id="boundary" inkscape:connector-curvature="0" />
	<path style="fill:none;stroke:red;stroke-width:1px;stroke-linecap:butt;stroke-linejoin:miter;stroke-opacity:1" d="M 291.882,235.039 273.545,235.039 z" id="boundary" inkscape:connector-curvature="0" />
	<path style="fill:none;stroke:red;stroke-width:1px;stroke-linecap:butt;stroke-linejoin:miter;stroke-opacity:1" d="M 372.562,235.039 354.226,235.039 z" id="boundary" inkscape:connector-curvature="0" />
	<path style="fill:none;stroke:red;stroke-width:1px;stroke-linecap:butt;stroke-linejoin:miter;stroke-opacity:1" d="M 310.218,235.039 291.882,235.039 z" id="boundary" inkscape:connector-curvature="0" />
	<path style="fill:none;stroke:red;stroke-width:1px;stroke-linecap:butt;stroke-linejoin:miter;stroke-opacity:1" d="M 390.898,235.039 409.235,235.039 z" id="boundary" inkscape:connector-curvature="0" />
	<path style="fill:none;stroke:red;stroke-width:1px;stroke-linecap:butt;stroke-linejoin:miter;stroke-opacity:1" d="M 427.571,235.039 409.235,235.039 z" id="boundary" inkscape:connector-curvature="0" />
	<path style="fill:none;stroke:red;stroke-width:1px;stroke-linecap:butt;stroke-linejoin:miter;stroke-opacity:1" d="M 445.908,235.039 462.41,244.207 z" id="boundary" inkscape:connector-curvature="0" />
	<path style="fill:none;stroke:red;stroke-width:1px;stroke-linecap:butt;stroke-linejoin:miter;stroke-opacity:1" d="M 427.571,235.039 445.908,235.039 z" id="boundary" inkscape:connector-curvature="0" />
	<path style="fill:none;stroke:red;stroke-width:1px;stroke-linecap:butt;stroke-linejoin:miter;stroke-opacity:1" d="M 480.747,244.207 462.41,244.207 z" id="boundary" inkscape:connector-curvature="0" />
	<path style="fill:none;stroke:red;stroke-width:1px;stroke-linecap:butt;stroke-linejoin:miter;stroke-opacity:1" d="M 480.747,244.207 499.083,244.207 z" id="boundary" inkscape:connector-curvature="0" />
	<path style="fill:none;stroke:red;stroke-width:1px;stroke-linecap:butt;stroke-linejoin:miter;stroke-opacity:1" d="M 499.083,244.207 515.586,253.375 z" id="boundary" inkscape:connector-curvature="0" />
	<path style="fill:none;stroke:red;stroke-width:1px;stroke-linecap:butt;stroke-linejoin:miter;stroke-opacity:1" d="M 372.562,235.039 390.898,235.039 z" id="boundary" inkscape:connector-curvature="0" />
	<path style="fill:none;stroke:red;stroke-width:1px;stroke-linecap:butt;stroke-linejoin:miter;stroke-opacity:1" d="M 269.878,275.379 255.209,288.214 z" id="boundary" inkscape:connector-curvature="0" />
	<path style="fill:none;stroke:red;stroke-width:1px;stroke-linecap:butt;stroke-linejoin:miter;stroke-opacity:1" d="M 266.211,324.887 284.547,315.719 z" id="boundary" inkscape:connector-curvature="0" />
	<path style="fill:none;stroke:red;stroke-width:1px;stroke-linecap:butt;stroke-linejoin:miter;stroke-opacity:1" d="M 302.884,306.551 317.553,290.048 z" id="boundary" inkscape:connector-curvature="0" />
	<path style="fill:none;stroke:red;stroke-width:1px;stroke-linecap:butt;stroke-linejoin:miter;stroke-opacity:1" d="M 302.884,306.551 284.547,315.719 z" id="boundary" inkscape:connector-curvature="0" />
	<path style="fill:none;stroke:red;stroke-width:1px;stroke-linecap:butt;stroke-linejoin:miter;stroke-opacity:1" d="M 326.721,271.712 317.553,290.048 z" id="boundary" inkscape:connector-curvature="0" />
	<path style="fill:none;stroke:red;stroke-width:1px;stroke-linecap:butt;stroke-linejoin:miter;stroke-opacity:1" d="M 266.211,324.887 247.874,334.055 z" id="boundary" inkscape:connector-curvature="0" />
	<path style="fill:none;stroke:red;stroke-width:1px;stroke-linecap:butt;stroke-linejoin:miter;stroke-opacity:1" d="M 533.922,253.375 515.586,253.375 z" id="boundary" inkscape:connector-curvature="0" />
	<path style="fill:none;stroke:red;stroke-width:1px;stroke-linecap:butt;stroke-linejoin:miter;stroke-opacity:1" d="M 345.057,262.543 326.721,271.712 z" id="boundary" inkscape:connector-curvature="0" />
	<path style="fill:none;stroke:red;stroke-width:1px;stroke-linecap:butt;stroke-linejoin:miter;stroke-opacity:1" d="M 570.595,249.708 588.932,244.207 z" id="boundary" inkscape:connector-curvature="0" />
	<path style="fill:none;stroke:red;stroke-width:1px;stroke-linecap:butt;stroke-linejoin:miter;stroke-opacity:1" d="M 588.932,244.207 607.268,244.207 z" id="boundary" inkscape:connector-curvature="0" />
	<path style="fill:none;stroke:red;stroke-width:1px;stroke-linecap:butt;stroke-linejoin:miter;stroke-opacity:1" d="M 533.922,253.375 552.259,253.375 z" id="boundary" inkscape:connector-curvature="0" />
	<path style="fill:none;stroke:red;stroke-width:1px;stroke-linecap:butt;stroke-linejoin:miter;stroke-opacity:1" d="M 570.595,249.708 552.259,253.375 z" id="boundary" inkscape:connector-curvature="0" />
	<path style="fill:none;stroke:red;stroke-width:1px;stroke-linecap:butt;stroke-linejoin:miter;stroke-opacity:1" d="M 625.604,244.207 607.268,244.207 z" id="boundary" inkscape:connector-curvature="0" />
	<path style="fill:none;stroke:red;stroke-width:1px;stroke-linecap:butt;stroke-linejoin:miter;stroke-opacity:1" d="M 643.941,244.207 625.604,244.207 z" id="boundary" inkscape:connector-curvature="0" />
	<path style="fill:none;stroke:red;stroke-width:1px;stroke-linecap:butt;stroke-linejoin:miter;stroke-opacity:1" d="M 662.277,244.207 680.614,244.207 z" id="boundary" inkscape:connector-curvature="0" />
	<path style="fill:none;stroke:red;stroke-width:1px;stroke-linecap:butt;stroke-linejoin:miter;stroke-opacity:1" d="M 680.614,244.207 697.116,253.375 z" id="boundary" inkscape:connector-curvature="0" />
	<path style="fill:none;stroke:red;stroke-width:1px;stroke-linecap:butt;stroke-linejoin:miter;stroke-opacity:1" d="M 715.453,253.375 697.116,253.375 z" id="boundary" inkscape:connector-curvature="0" />
	<path style="fill:none;stroke:red;stroke-width:1px;stroke-linecap:butt;stroke-linejoin:miter;stroke-opacity:1" d="M 643.941,244.207 662.277,244.207 z" id="boundary" inkscape:connector-curvature="0" />
	<path style="fill:none;stroke:red;stroke-width:1px;stroke-linecap:butt;stroke-linejoin:miter;stroke-opacity:1" d="M 933.656,205.701 915.32,205.701 z" id="boundary" inkscape:connector-curvature="0" />
	<path style="fill:none;stroke:red;stroke-width:1px;stroke-linecap:butt;stroke-linejoin:miter;stroke-opacity:1" d="M 915.32,205.701 898.817,196.532 z" id="boundary" inkscape:connector-curvature="0" />
	<path style="fill:none;stroke:red;stroke-width:1px;stroke-linecap:butt;stroke-linejoin:miter;stroke-opacity:1" d="M 733.789,253.375 752.126,253.375 z" id="boundary" inkscape:connector-curvature="0" />
	<path style="fill:none;stroke:red;stroke-width:1px;stroke-linecap:butt;stroke-linejoin:miter;stroke-opacity:1" d="M 968.495,202.033 984.998,211.201 z" id="boundary" inkscape:connector-curvature="0" />
	<path style="fill:none;stroke:red;stroke-width:1px;stroke-linecap:butt;stroke-linejoin:miter;stroke-opacity:1" d="M 984.998,211.201 996,235.039 z" id="boundary" inkscape:connector-curvature="0" />
	<path style="fill:none;stroke:red;stroke-width:1px;stroke-linecap:butt;stroke-linejoin:miter;stroke-opacity:1" d="M 996,235.039 986.832,253.375 z" id="boundary" inkscape:connector-curvature="0" />
	<path style="fill:none;stroke:red;stroke-width:1px;stroke-linecap:butt;stroke-linejoin:miter;stroke-opacity:1" d="M 733.789,253.375 715.453,253.375 z" id="boundary" inkscape:connector-curvature="0" />
	<path style="fill:none;stroke:red;stroke-width:1px;stroke-linecap:butt;stroke-linejoin:miter;stroke-opacity:1" d="M 752.126,253.375 770.462,253.375 z" id="boundary" inkscape:connector-curvature="0" />
	<path style="fill:none;stroke:red;stroke-width:1px;stroke-linecap:butt;stroke-linejoin:miter;stroke-opacity:1" d="M 788.799,253.375 770.462,253.375 z" id="boundary" inkscape:connector-curvature="0" />
	<path style="fill:none;stroke:red;stroke-width:1px;stroke-linecap:butt;stroke-linejoin:miter;stroke-opacity:1" d="M 807.135,253.375 825.471,253.375 z" id="boundary" inkscape:connector-curvature="0" />
	<path style="fill:none;stroke:red;stroke-width:1px;stroke-linecap:butt;stroke-linejoin:miter;stroke-opacity:1" d="M 843.808,253.375 862.144,253.375 z" id="boundary" inkscape:connector-curvature="0" />
	<path style="fill:none;stroke:red;stroke-width:1px;stroke-linecap:butt;stroke-linejoin:miter;stroke-opacity:1" d="M 843.808,253.375 825.471,253.375 z" id="boundary" inkscape:connector-curvature="0" />
	<path style="fill:none;stroke:red;stroke-width:1px;stroke-linecap:butt;stroke-linejoin:miter;stroke-opacity:1" d="M 807.135,253.375 788.799,253.375 z" id="boundary" inkscape:connector-curvature="0" />
	<path style="fill:none;stroke:red;stroke-width:1px;stroke-linecap:butt;stroke-linejoin:miter;stroke-opacity:1" d="M 880.481,253.375 898.817,253.375 z" id="boundary" inkscape:connector-curvature="0" />
	<path style="fill:none;stroke:red;stroke-width:1px;stroke-linecap:butt;stroke-linejoin:miter;stroke-opacity:1" d="M 898.817,253.375 915.32,262.543 z" id="boundary" inkscape:connector-curvature="0" />
	<path style="fill:none;stroke:red;stroke-width:1px;stroke-linecap:butt;stroke-linejoin:miter;stroke-opacity:1" d="M 986.832,253.375 970.329,262.543 z" id="boundary" inkscape:connector-curvature="0" />
	<path style="fill:none;stroke:red;stroke-width:1px;stroke-linecap:butt;stroke-linejoin:miter;stroke-opacity:1" d="M 951.993,262.543 933.656,262.543 z" id="boundary" inkscape:connector-curvature="0" />
	<path style="fill:none;stroke:red;stroke-width:1px;stroke-linecap:butt;stroke-linejoin:miter;stroke-opacity:1" d="M 915.32,262.543 933.656,262.543 z" id="boundary" inkscape:connector-curvature="0" />
	<path style="fill:none;stroke:red;stroke-width:1px;stroke-linecap:butt;stroke-linejoin:miter;stroke-opacity:1" d="M 951.993,262.543 970.329,262.543 z" id="boundary" inkscape:connector-curvature="0" />
	<path style="fill:none;stroke:red;stroke-width:1px;stroke-linecap:butt;stroke-linejoin:miter;stroke-opacity:1" d="M 862.144,253.375 880.481,253.375 z" id="boundary" inkscape:connector-curvature="0" />
	<path style="fill:none;stroke:red;stroke-width:1px;stroke-linecap:butt;stroke-linejoin:miter;stroke-opacity:1" d="M 950.159,196.532 968.495,202.033 z" id="boundary" inkscape:connector-curvature="0" />
	<circle cx="4" cy="27.8373" r="4" fill="#0" id="circle0"/>
	<circle cx="13.1682" cy="119.519" r="4" fill="#0" id="circle1"/>
	<circle cx="13.1682" cy="312.052" r="4" fill="#0" id="circle2"/>
	<circle cx="18.6691" cy="13.1682" r="4" fill="#0" id="circle3"/>
	<circle cx="18.6691" cy="40.6728" r="4" fill="#0" id="circle4"/>
	<circle cx="22.3364" cy="101.183" r="4" fill="#0" id="circle5"/>
	<circle cx="22.3364" cy="192.865" r="4" fill="#0" id="circle6"/>
	<circle cx="22.3364" cy="211.201" r="4" fill="#0" id="circle7"/>
	<circle cx="22.3364" cy="293.715" r="4" fill="#0" id="circle8"/>
	<circle cx="31.5046" cy="125.02" r="4" fill="#0" id="circle9"/>
	<circle cx="31.5046" cy="317.553" r="4" fill="#0" id="circle10"/>
	<circle cx="33.3383" cy="51.6747" r="4" fill="#0" id="circle11"/>
	<circle cx="37.0055" cy="4" r="4" fill="#0" id="circle12"/>
	<circle cx="37.0055" cy="178.196" r="4" fill="#0" id="circle13"/>
	<circle cx="37.0055" cy="279.046" r="4" fill="#0" id="circle14"/>
	<circle cx="40.6728" cy="95.6821" r="4" fill="#0" id="circle15"/>
	<circle cx="40.6728" cy="216.702" r="4" fill="#0" id="circle16"/>
	<circle cx="48.0074" cy="134.189" r="4" fill="#0" id="circle17"/>
	<circle cx="48.0074" cy="326.721" r="4" fill="#0" id="circle18"/>
	<circle cx="51.6747" cy="51.6747" r="4" fill="#0" id="circle19"/>
	<circle cx="53.5083" cy="13.1682" r="4" fill="#0" id="circle20"/>
	<circle cx="53.5083" cy="187.364" r="4" fill="#0" id="circle21"/>
	<circle cx="55.342" cy="279.046" r="4" fill="#0" id="circle22"/>
	<circle cx="59.0092" cy="95.6821" r="4" fill="#0" id="circle23"/>
	<circle cx="59.0092" cy="216.702" r="4" fill="#0" id="circle24"/>
	<circle cx="66.3438" cy="134.189" r="4" fill="#0" id="circle25"/>
	<circle cx="66.3438" cy="326.721" r="4" fill="#0" id="circle26"/>
	<circle cx="70.0111" cy="51.6747" r="4" fill="#0" id="circle27"/>
	<circle cx="70.0111" cy="178.196" r="4" fill="#0" id="circle28"/>
	<circle cx="71.8447" cy="13.1682" r="4" fill="#0" id="circle29"/>
	<circle cx="71.8447" cy="288.214" r="4" fill="#0" id="circle30"/>
	<circle cx="77.3457" cy="95.6821" r="4" fill="#0" id="circle31"/>
	<circle cx="77.3457" cy="216.702" r="4" fill="#0" id="circle32"/>
	<circle cx="84.6802" cy="134.189" r="4" fill="#0" id="circle33"/>
	<circle cx="84.6802" cy="326.721" r="4" fill="#0" id="circle34"/>
	<circle cx="88.3475" cy="55.342" r="4" fill="#0" id="circle35"/>
	<circle cx="88.3475" cy="183.697" r="4" fill="#0" id="circle36"/>
	<circle cx="90.1811" cy="13.1682" r="4" fill="#0" id="circle37"/>
	<circle cx="90.1811" cy="288.214" r="4" fill="#0" id="circle38"/>
	<circle cx="93.8484" cy="225.871" r="4" fill="#0" id="circle39"/>
	<circle cx="95.6821" cy="95.6821" r="4" fill="#0" id="circle40"/>
	<circle cx="101.183" cy="143.357" r="4" fill="#0" id="circle41"/>
	<circle cx="103.017" cy="326.721" r="4" fill="#0" id="circle42"/>
	<circle cx="106.684" cy="60.8429" r="4" fill="#0" id="circle43"/>
	<circle cx="106.684" cy="187.364" r="4" fill="#0" id="circle44"/>
	<circle cx="108.518" cy="13.1682" r="4" fill="#0" id="circle45"/>
	<circle cx="108.518" cy="288.214" r="4" fill="#0" id="circle46"/>
	<circle cx="110.351" cy="216.702" r="4" fill="#0" id="circle47"/>
	<circle cx="112.185" cy="104.85" r="4" fill="#0" id="circle48"/>
	<circle cx="119.519" cy="141.523" r="4" fill="#0" id="circle49"/>
	<circle cx="121.353" cy="326.721" r="4" fill="#0" id="circle50"/>
	<circle cx="123.187" cy="51.6747" r="4" fill="#0" id="circle51"/>
	<circle cx="125.02" cy="187.364" r="4" fill="#0" id="circle52"/>
	<circle cx="126.854" cy="13.1682" r="4" fill="#0" id="circle53"/>
	<circle cx="126.854" cy="225.871" r="4" fill="#0" id="circle54"/>
	<circle cx="126.854" cy="288.214" r="4" fill="#0" id="circle55"/>
	<circle cx="130.521" cy="104.85" r="4" fill="#0" id="circle56"/>
	<circle cx="137.856" cy="134.189" r="4" fill="#0" id="circle57"/>
	<circle cx="139.689" cy="60.8429" r="4" fill="#0" id="circle58"/>
	<circle cx="139.689" cy="326.721" r="4" fill="#0" id="circle59"/>
	<circle cx="143.357" cy="187.364" r="4" fill="#0" id="circle60"/>
	<circle cx="145.19" cy="13.1682" r="4" fill="#0" id="circle61"/>
	<circle cx="145.19" cy="231.372" r="4" fill="#0" id="circle62"/>
	<circle cx="145.19" cy="288.214" r="4" fill="#0" id="circle63"/>
	<circle cx="148.858" cy="104.85" r="4" fill="#0" id="circle64"/>
	<circle cx="154.359" cy="143.357" r="4" fill="#0" id="circle65"/>
	<circle cx="156.192" cy="335.889" r="4" fill="#0" id="circle66"/>
	<circle cx="158.026" cy="60.8429" r="4" fill="#0" id="circle67"/>
	<circle cx="161.693" cy="192.865" r="4" fill="#0" id="circle68"/>
	<circle cx="163.527" cy="13.1682" r="4" fill="#0" id="circle69"/>
	<circle cx="163.527" cy="231.372" r="4" fill="#0" id="circle70"/>
	<circle cx="163.527" cy="288.214" r="4" fill="#0" id="circle71"/>
	<circle cx="167.194" cy="104.85" r="4" fill="#0" id="circle72"/>
	<circle cx="172.695" cy="143.357" r="4" fill="#0" id="circle73"/>
	<circle cx="174.529" cy="51.6747" r="4" fill="#0" id="circle74"/>
	<circle cx="174.529" cy="334.055" r="4" fill="#0" id="circle75"/>
	<circle cx="180.03" cy="191.031" r="4" fill="#0" id="circle76"/>
	<circle cx="181.863" cy="15.0018" r="4" fill="#0" id="circle77"/>
	<circle cx="181.863" cy="225.871" r="4" fill="#0" id="circle78"/>
	<circle cx="181.863" cy="288.214" r="4" fill="#0" id="circle79"/>
	<circle cx="183.697" cy="114.018" r="4" fill="#0" id="circle80"/>
	<circle cx="189.198" cy="64.5102" r="4" fill="#0" id="circle81"/>
	<circle cx="189.198" cy="152.525" r="4" fill="#0" id="circle82"/>
	<circle cx="192.865" cy="334.055" r="4" fill="#0" id="circle83"/>
	<circle cx="198.366" cy="192.865" r="4" fill="#0" id="circle84"/>
	<circle cx="200.2" cy="22.3364" r="4" fill="#0" id="circle85"/>
	<circle cx="200.2" cy="225.871" r="4" fill="#0" id="circle86"/>
	<circle cx="200.2" cy="288.214" r="4" fill="#0" id="circle87"/>
	<circle cx="202.033" cy="114.018" r="4" fill="#0" id="circle88"/>
	<circle cx="207.534" cy="60.8429" r="4" fill="#0" id="circle89"/>
	<circle cx="207.534" cy="152.525" r="4" fill="#0" id="circle90"/>
	<circle cx="211.201" cy="334.055" r="4" fill="#0" id="circle91"/>
	<circle cx="216.702" cy="187.364" r="4" fill="#0" id="circle92"/>
	<circle cx="218.536" cy="22.3364" r="4" fill="#0" id="circle93"/>
	<circle cx="218.536" cy="231.372" r="4" fill="#0" id="circle94"/>
	<circle cx="218.536" cy="288.214" r="4" fill="#0" id="circle95"/>
	<circle cx="220.37" cy="114.018" r="4" fill="#0" id="circle96"/>
	<circle cx="224.037" cy="70.0111" r="4" fill="#0" id="circle97"/>
	<circle cx="225.871" cy="152.525" r="4" fill="#0" id="circle98"/>
	<circle cx="229.538" cy="334.055" r="4" fill="#0" id="circle99"/>
	<circle cx="233.205" cy="196.532" r="4" fill="#0" id="circle100"/>
	<circle cx="235.039" cy="31.5046" r="4" fill="#0" id="circle101"/>
	<circle cx="236.872" cy="123.187" r="4" fill="#0" id="circle102"/>
	<circle cx="236.872" cy="235.039" r="4" fill="#0" id="circle103"/>
	<circle cx="236.872" cy="288.214" r="4" fill="#0" id="circle104"/>
	<circle cx="240.54" cy="79.1793" r="4" fill="#0" id="circle105"/>
	<circle cx="244.207" cy="156.192" r="4" fill="#0" id="circle106"/>
	<circle cx="247.874" cy="334.055" r="4" fill="#0" id="circle107"/>
	<circle cx="251.542" cy="191.031" r="4" fill="#0" id="circle108"/>
	<circle cx="253.375" cy="37.0055" r="4" fill="#0" id="circle109"/>
	<circle cx="255.209" cy="123.187" r="4" fill="#0" id="circle110"/>
	<circle cx="255.209" cy="235.039" r="4" fill="#0" id="circle111"/>
	<circle cx="255.209" cy="288.214" r="4" fill="#0" id="circle112"/>
	<circle cx="258.876" cy="79.1793" r="4" fill="#0" id="circle113"/>
	<circle cx="262.543" cy="161.693" r="4" fill="#0" id="circle114"/>
	<circle cx="266.211" cy="324.887" r="4" fill="#0" id="circle115"/>
	<circle cx="269.878" cy="46.1738" r="4" fill="#0" id="circle116"/>
	<circle cx="269.878" cy="196.532" r="4" fill="#0" id="circle117"/>
	<circle cx="269.878" cy="275.379" r="4" fill="#0" id="circle118"/>
	<circle cx="271.712" cy="93.8484" r="4" fill="#0" id="circle119"/>
	<circle cx="273.545" cy="123.187" r="4" fill="#0" id="circle120"/>
	<circle cx="273.545" cy="235.039" r="4" fill="#0" id="circle121"/>
	<circle cx="280.88" cy="165.36" r="4" fill="#0" id="circle122"/>
	<circle cx="284.547" cy="59.0092" r="4" fill="#0" id="circle123"/>
	<circle cx="284.547" cy="315.719" r="4" fill="#0" id="circle124"/>
	<circle cx="288.214" cy="196.532" r="4" fill="#0" id="circle125"/>
	<circle cx="288.214" cy="257.043" r="4" fill="#0" id="circle126"/>
	<circle cx="290.048" cy="101.183" r="4" fill="#0" id="circle127"/>
	<circle cx="291.882" cy="125.02" r="4" fill="#0" id="circle128"/>
	<circle cx="291.882" cy="235.039" r="4" fill="#0" id="circle129"/>
	<circle cx="299.216" cy="161.693" r="4" fill="#0" id="circle130"/>
	<circle cx="301.05" cy="68.1774" r="4" fill="#0" id="circle131"/>
	<circle cx="302.884" cy="306.551" r="4" fill="#0" id="circle132"/>
	<circle cx="306.551" cy="191.031" r="4" fill="#0" id="circle133"/>
	<circle cx="310.218" cy="235.039" r="4" fill="#0" id="circle134"/>
	<circle cx="315.719" cy="170.861" r="4" fill="#0" id="circle135"/>
	<circle cx="317.553" cy="77.3457" r="4" fill="#0" id="circle136"/>
	<circle cx="317.553" cy="290.048" r="4" fill="#0" id="circle137"/>
	<circle cx="324.887" cy="187.364" r="4" fill="#0" id="circle138"/>
	<circle cx="326.721" cy="93.8484" r="4" fill="#0" id="circle139"/>
	<circle cx="326.721" cy="271.712" r="4" fill="#0" id="circle140"/>
	<circle cx="345.057" cy="101.183" r="4" fill="#0" id="circle141"/>
	<circle cx="345.057" cy="262.543" r="4" fill="#0" id="circle142"/>
	<circle cx="354.226" cy="235.039" r="4" fill="#0" id="circle143"/>
	<circle cx="359.726" cy="114.018" r="4" fill="#0" id="circle144"/>
	<circle cx="372.562" cy="235.039" r="4" fill="#0" id="circle145"/>
	<circle cx="378.063" cy="114.018" r="4" fill="#0" id="circle146"/>
	<circle cx="390.898" cy="235.039" r="4" fill="#0" id="circle147"/>
	<circle cx="396.399" cy="114.018" r="4" fill="#0" id="circle148"/>
	<circle cx="409.235" cy="235.039" r="4" fill="#0" id="circle149"/>
	<circle cx="414.736" cy="115.852" r="4" fill="#0" id="circle150"/>
	<circle cx="427.571" cy="235.039" r="4" fill="#0" id="circle151"/>
	<circle cx="433.072" cy="123.187" r="4" fill="#0" id="circle152"/>
	<circle cx="445.908" cy="235.039" r="4" fill="#0" id="circle153"/>
	<circle cx="451.409" cy="123.187" r="4" fill="#0" id="circle154"/>
	<circle cx="462.41" cy="244.207" r="4" fill="#0" id="circle155"/>
	<circle cx="469.745" cy="125.02" r="4" fill="#0" id="circle156"/>
	<circle cx="480.747" cy="244.207" r="4" fill="#0" id="circle157"/>
	<circle cx="488.081" cy="125.02" r="4" fill="#0" id="circle158"/>
	<circle cx="499.083" cy="244.207" r="4" fill="#0" id="circle159"/>
	<circle cx="506.418" cy="132.355" r="4" fill="#0" id="circle160"/>
	<circle cx="515.586" cy="253.375" r="4" fill="#0" id="circle161"/>
	<circle cx="524.754" cy="132.355" r="4" fill="#0" id="circle162"/>
	<circle cx="533.922" cy="253.375" r="4" fill="#0" id="circle163"/>
	<circle cx="541.257" cy="141.523" r="4" fill="#0" id="circle164"/>
	<circle cx="552.259" cy="253.375" r="4" fill="#0" id="circle165"/>
	<circle cx="559.593" cy="141.523" r="4" fill="#0" id="circle166"/>
	<circle cx="570.595" cy="249.708" r="4" fill="#0" id="circle167"/>
	<circle cx="577.93" cy="141.523" r="4" fill="#0" id="circle168"/>
	<circle cx="588.932" cy="244.207" r="4" fill="#0" id="circle169"/>
	<circle cx="596.266" cy="141.523" r="4" fill="#0" id="circle170"/>
	<circle cx="607.268" cy="244.207" r="4" fill="#0" id="circle171"/>
	<circle cx="614.603" cy="141.523" r="4" fill="#0" id="circle172"/>
	<circle cx="625.604" cy="244.207" r="4" fill="#0" id="circle173"/>
	<circle cx="632.939" cy="141.523" r="4" fill="#0" id="circle174"/>
	<circle cx="643.941" cy="244.207" r="4" fill="#0" id="circle175"/>
	<circle cx="651.275" cy="141.523" r="4" fill="#0" id="circle176"/>
	<circle cx="662.277" cy="244.207" r="4" fill="#0" id="circle177"/>
	<circle cx="669.612" cy="141.523" r="4" fill="#0" id="circle178"/>
	<circle cx="680.614" cy="244.207" r="4" fill="#0" id="circle179"/>
	<circle cx="686.115" cy="150.691" r="4" fill="#0" id="circle180"/>
	<circle cx="697.116" cy="253.375" r="4" fill="#0" id="circle181"/>
	<circle cx="704.451" cy="150.691" r="4" fill="#0" id="circle182"/>
	<circle cx="715.453" cy="253.375" r="4" fill="#0" id="circle183"/>
	<circle cx="720.954" cy="159.86" r="4" fill="#0" id="circle184"/>
	<circle cx="733.789" cy="253.375" r="4" fill="#0" id="circle185"/>
	<circle cx="739.29" cy="159.86" r="4" fill="#0" id="circle186"/>
	<circle cx="752.126" cy="253.375" r="4" fill="#0" id="circle187"/>
	<circle cx="757.627" cy="159.86" r="4" fill="#0" id="circle188"/>
	<circle cx="770.462" cy="253.375" r="4" fill="#0" id="circle189"/>
	<circle cx="774.129" cy="169.028" r="4" fill="#0" id="circle190"/>
	<circle cx="788.799" cy="253.375" r="4" fill="#0" id="circle191"/>
	<circle cx="792.466" cy="163.527" r="4" fill="#0" id="circle192"/>
	<circle cx="807.135" cy="253.375" r="4" fill="#0" id="circle193"/>
	<circle cx="810.802" cy="169.028" r="4" fill="#0" id="circle194"/>
	<circle cx="825.471" cy="253.375" r="4" fill="#0" id="circle195"/>
	<circle cx="827.305" cy="178.196" r="4" fill="#0" id="circle196"/>
	<circle cx="843.808" cy="253.375" r="4" fill="#0" id="circle197"/>
	<circle cx="845.641" cy="180.03" r="4" fill="#0" id="circle198"/>
	<circle cx="862.144" cy="253.375" r="4" fill="#0" id="circle199"/>
	<circle cx="863.978" cy="187.364" r="4" fill="#0" id="circle200"/>
	<circle cx="880.481" cy="196.532" r="4" fill="#0" id="circle201"/>
	<circle cx="880.481" cy="253.375" r="4" fill="#0" id="circle202"/>
	<circle cx="898.817" cy="196.532" r="4" fill="#0" id="circle203"/>
	<circle cx="898.817" cy="253.375" r="4" fill="#0" id="circle204"/>
	<circle cx="915.32" cy="205.701" r="4" fill="#0" id="circle205"/>
	<circle cx="915.32" cy="262.543" r="4" fill="#0" id="circle206"/>
	<circle cx="933.656" cy="205.701" r="4" fill="#0" id="circle207"/>
	<circle cx="933.656" cy="262.543" r="4" fill="#0" id="circle208"/>
	<circle cx="950.159" cy="196.532" r="4" fill="#0" id="circle209"/>
	<circle cx="951.993" cy="262.543" r="4" fill="#0" id="circle210"/>
	<circle cx="968.495" cy="202.033" r="4" fill="#0" id="circle211"/>
	<circle cx="970.329" cy="262.543" r="4" fill="#0" id="circle212"/>
	<circle cx="984.998" cy="211.201" r="4" fill="#0" id="circle213"/>
	<circle cx="986.832" cy="253.375" r="4" fill="#0" id="circle214"/>
	<circle cx="996" cy="235.039" r="4" fill="#0" id="circle215"/>
	</g>
</svg>