<?xml version="1.0" encoding="UTF-8" standalone="no"?>
<!-- Created with CurveBenchmark -->
<svg
	xmlns:dc="http://purl.org/dc/elements/1.1/"
	xmlns:cc="http://creativecommons.org/ns#"
	xmlns:rdf="http://www.w3.org/1999/02/22-rdf-syntax-ns#"
	xmlns:svg="http://www.w3.org/2000/svg"
	xmlns="http://www.w3.org/2000/svg"
	xmlns:sodipodi="http://sodipodi.sourceforge.net/DTD/sodipodi-0.dtd"
	xmlns:inkscape="http://www.inkscape.org/namespaces/inkscape"
	width="1000"
	height="1000"
	id="svg2"
	version="1.1"
	sodipodi:docname="manifold/gathan1-tool16.png.txt">
<defs
	id="defs4" />
<metadata
	id="metadata7">
	<rdf:RDF>
		<cc:Work
			rdf:about="">
			<dc:format>image/svg+xml</dc:format>
			<dc:type
				rdf:resource="http://purl.org/dc/dcmitype/StillImage" />
			<dc:title></dc:title>
		</cc:Work>
	</rdf:RDF>
</metadata>
<g
	inkscape:label="Layer 1"
	inkscape:groupmode="layer"
	id="layer1">
	<path style="fill:none;stroke:red;stroke-width:1px;stroke-linecap:butt;stroke-linejoin:miter;stroke-opacity:1" d="M 49.4555,30.7385 70.8464,12.0216 z" id="boundary" inkscape:connector-curvature="0" />
	<path style="fill:none;stroke:red;stroke-width:1px;stroke-linecap:butt;stroke-linejoin:miter;stroke-opacity:1" d="M 49.4555,30.7385 25.3908,44.1078 z" id="boundary" inkscape:connector-curvature="0" />
	<path style="fill:none;stroke:red;stroke-width:1px;stroke-linecap:butt;stroke-linejoin:miter;stroke-opacity:1" d="M 97.5849,4 124.323,4 z" id="boundary" inkscape:connector-curvature="0" />
	<path style="fill:none;stroke:red;stroke-width:1px;stroke-linecap:butt;stroke-linejoin:miter;stroke-opacity:1" d="M 151.062,9.34771 124.323,4 z" id="boundary" inkscape:connector-curvature="0" />
	<path style="fill:none;stroke:red;stroke-width:1px;stroke-linecap:butt;stroke-linejoin:miter;stroke-opacity:1" d="M 70.8464,12.0216 97.5849,4 z" id="boundary" inkscape:connector-curvature="0" />
	<path style="fill:none;stroke:red;stroke-width:1px;stroke-linecap:butt;stroke-linejoin:miter;stroke-opacity:1" d="M 4,65.4987 25.3908,44.1078 z" id="boundary" inkscape:connector-curvature="0" />
	<path style="fill:none;stroke:red;stroke-width:1px;stroke-linecap:butt;stroke-linejoin:miter;stroke-opacity:1" d="M 20.0431,86.8895 4,65.4987 z" id="boundary" inkscape:connector-curvature="0" />
	<path style="fill:none;stroke:red;stroke-width:1px;stroke-linecap:butt;stroke-linejoin:miter;stroke-opacity:1" d="M 46.7817,86.8895 20.0431,86.8895 z" id="boundary" inkscape:connector-curvature="0" />
	<path style="fill:none;stroke:red;stroke-width:1px;stroke-linecap:butt;stroke-linejoin:miter;stroke-opacity:1" d="M 46.7817,86.8895 73.5202,86.8895 z" id="boundary" inkscape:connector-curvature="0" />
	<path style="fill:none;stroke:red;stroke-width:1px;stroke-linecap:butt;stroke-linejoin:miter;stroke-opacity:1" d="M 73.5202,86.8895 89.5633,108.28 z" id="boundary" inkscape:connector-curvature="0" />
	<path style="fill:none;stroke:red;stroke-width:1px;stroke-linecap:butt;stroke-linejoin:miter;stroke-opacity:1" d="M 151.062,9.34771 167.105,30.7385 z" id="boundary" inkscape:connector-curvature="0" />
	<path style="fill:none;stroke:red;stroke-width:1px;stroke-linecap:butt;stroke-linejoin:miter;stroke-opacity:1" d="M 167.105,30.7385 193.844,30.7385 z" id="boundary" inkscape:connector-curvature="0" />
	<path style="fill:none;stroke:red;stroke-width:1px;stroke-linecap:butt;stroke-linejoin:miter;stroke-opacity:1" d="M 193.844,30.7385 215.235,46.7817 z" id="boundary" inkscape:connector-curvature="0" />
	<path style="fill:none;stroke:red;stroke-width:1px;stroke-linecap:butt;stroke-linejoin:miter;stroke-opacity:1" d="M 239.299,60.1509 215.235,46.7817 z" id="boundary" inkscape:connector-curvature="0" />
	<path style="fill:none;stroke:red;stroke-width:1px;stroke-linecap:butt;stroke-linejoin:miter;stroke-opacity:1" d="M 266.038,70.8464 239.299,60.1509 z" id="boundary" inkscape:connector-curvature="0" />
	<path style="fill:none;stroke:red;stroke-width:1px;stroke-linecap:butt;stroke-linejoin:miter;stroke-opacity:1" d="M 290.102,84.2156 316.841,84.2156 z" id="boundary" inkscape:connector-curvature="0" />
	<path style="fill:none;stroke:red;stroke-width:1px;stroke-linecap:butt;stroke-linejoin:miter;stroke-opacity:1" d="M 290.102,84.2156 266.038,70.8464 z" id="boundary" inkscape:connector-curvature="0" />
	<path style="fill:none;stroke:red;stroke-width:1px;stroke-linecap:butt;stroke-linejoin:miter;stroke-opacity:1" d="M 343.58,84.2156 316.841,84.2156 z" id="boundary" inkscape:connector-curvature="0" />
	<path style="fill:none;stroke:red;stroke-width:1px;stroke-linecap:butt;stroke-linejoin:miter;stroke-opacity:1" d="M 370.318,84.2156 397.057,84.2156 z" id="boundary" inkscape:connector-curvature="0" />
	<path style="fill:none;stroke:red;stroke-width:1px;stroke-linecap:butt;stroke-linejoin:miter;stroke-opacity:1" d="M 397.057,84.2156 421.121,97.5849 z" id="boundary" inkscape:connector-curvature="0" />
	<path style="fill:none;stroke:red;stroke-width:1px;stroke-linecap:butt;stroke-linejoin:miter;stroke-opacity:1" d="M 447.86,97.5849 421.121,97.5849 z" id="boundary" inkscape:connector-curvature="0" />
	<path style="fill:none;stroke:red;stroke-width:1px;stroke-linecap:butt;stroke-linejoin:miter;stroke-opacity:1" d="M 343.58,84.2156 370.318,84.2156 z" id="boundary" inkscape:connector-curvature="0" />
	<path style="fill:none;stroke:red;stroke-width:1px;stroke-linecap:butt;stroke-linejoin:miter;stroke-opacity:1" d="M 110.954,126.997 89.5633,108.28 z" id="boundary" inkscape:connector-curvature="0" />
	<path style="fill:none;stroke:red;stroke-width:1px;stroke-linecap:butt;stroke-linejoin:miter;stroke-opacity:1" d="M 30.7385,209.887 17.3693,185.822 z" id="boundary" inkscape:connector-curvature="0" />
	<path style="fill:none;stroke:red;stroke-width:1px;stroke-linecap:butt;stroke-linejoin:miter;stroke-opacity:1" d="M 17.3693,185.822 38.7601,164.431 z" id="boundary" inkscape:connector-curvature="0" />
	<path style="fill:none;stroke:red;stroke-width:1px;stroke-linecap:butt;stroke-linejoin:miter;stroke-opacity:1" d="M 92.2372,164.431 65.4987,164.431 z" id="boundary" inkscape:connector-curvature="0" />
	<path style="fill:none;stroke:red;stroke-width:1px;stroke-linecap:butt;stroke-linejoin:miter;stroke-opacity:1" d="M 65.4987,164.431 38.7601,164.431 z" id="boundary" inkscape:connector-curvature="0" />
	<path style="fill:none;stroke:red;stroke-width:1px;stroke-linecap:butt;stroke-linejoin:miter;stroke-opacity:1" d="M 110.954,126.997 92.2372,164.431 z" id="boundary" inkscape:connector-curvature="0" />
	<path style="fill:none;stroke:red;stroke-width:1px;stroke-linecap:butt;stroke-linejoin:miter;stroke-opacity:1" d="M 70.8464,247.321 49.4555,231.278 z" id="boundary" inkscape:connector-curvature="0" />
	<path style="fill:none;stroke:red;stroke-width:1px;stroke-linecap:butt;stroke-linejoin:miter;stroke-opacity:1" d="M 49.4555,231.278 30.7385,209.887 z" id="boundary" inkscape:connector-curvature="0" />
	<path style="fill:none;stroke:red;stroke-width:1px;stroke-linecap:butt;stroke-linejoin:miter;stroke-opacity:1" d="M 94.9111,260.69 70.8464,247.321 z" id="boundary" inkscape:connector-curvature="0" />
	<path style="fill:none;stroke:red;stroke-width:1px;stroke-linecap:butt;stroke-linejoin:miter;stroke-opacity:1" d="M 121.65,260.69 94.9111,260.69 z" id="boundary" inkscape:connector-curvature="0" />
	<path style="fill:none;stroke:red;stroke-width:1px;stroke-linecap:butt;stroke-linejoin:miter;stroke-opacity:1" d="M 172.453,247.321 148.388,260.69 z" id="boundary" inkscape:connector-curvature="0" />
	<path style="fill:none;stroke:red;stroke-width:1px;stroke-linecap:butt;stroke-linejoin:miter;stroke-opacity:1" d="M 148.388,260.69 121.65,260.69 z" id="boundary" inkscape:connector-curvature="0" />
	<path style="fill:none;stroke:red;stroke-width:1px;stroke-linecap:butt;stroke-linejoin:miter;stroke-opacity:1" d="M 247.321,207.213 274.059,207.213 z" id="boundary" inkscape:connector-curvature="0" />
	<path style="fill:none;stroke:red;stroke-width:1px;stroke-linecap:butt;stroke-linejoin:miter;stroke-opacity:1" d="M 220.582,220.582 247.321,207.213 z" id="boundary" inkscape:connector-curvature="0" />
	<path style="fill:none;stroke:red;stroke-width:1px;stroke-linecap:butt;stroke-linejoin:miter;stroke-opacity:1" d="M 300.798,207.213 327.536,207.213 z" id="boundary" inkscape:connector-curvature="0" />
	<path style="fill:none;stroke:red;stroke-width:1px;stroke-linecap:butt;stroke-linejoin:miter;stroke-opacity:1" d="M 300.798,207.213 274.059,207.213 z" id="boundary" inkscape:connector-curvature="0" />
	<path style="fill:none;stroke:red;stroke-width:1px;stroke-linecap:butt;stroke-linejoin:miter;stroke-opacity:1" d="M 327.536,207.213 354.275,207.213 z" id="boundary" inkscape:connector-curvature="0" />
	<path style="fill:none;stroke:red;stroke-width:1px;stroke-linecap:butt;stroke-linejoin:miter;stroke-opacity:1" d="M 354.275,207.213 381.013,212.561 z" id="boundary" inkscape:connector-curvature="0" />
	<path style="fill:none;stroke:red;stroke-width:1px;stroke-linecap:butt;stroke-linejoin:miter;stroke-opacity:1" d="M 220.582,220.582 199.191,244.647 z" id="boundary" inkscape:connector-curvature="0" />
	<path style="fill:none;stroke:red;stroke-width:1px;stroke-linecap:butt;stroke-linejoin:miter;stroke-opacity:1" d="M 199.191,244.647 172.453,247.321 z" id="boundary" inkscape:connector-curvature="0" />
	<path style="fill:none;stroke:red;stroke-width:1px;stroke-linecap:butt;stroke-linejoin:miter;stroke-opacity:1" d="M 407.752,220.582 381.013,212.561 z" id="boundary" inkscape:connector-curvature="0" />
	<path style="fill:none;stroke:red;stroke-width:1px;stroke-linecap:butt;stroke-linejoin:miter;stroke-opacity:1" d="M 407.752,220.582 434.491,220.582 z" id="boundary" inkscape:connector-curvature="0" />
	<path style="fill:none;stroke:red;stroke-width:1px;stroke-linecap:butt;stroke-linejoin:miter;stroke-opacity:1" d="M 447.86,97.5849 474.598,97.5849 z" id="boundary" inkscape:connector-curvature="0" />
	<path style="fill:none;stroke:red;stroke-width:1px;stroke-linecap:butt;stroke-linejoin:miter;stroke-opacity:1" d="M 501.337,97.5849 528.075,97.5849 z" id="boundary" inkscape:connector-curvature="0" />
	<path style="fill:none;stroke:red;stroke-width:1px;stroke-linecap:butt;stroke-linejoin:miter;stroke-opacity:1" d="M 554.814,105.606 528.075,97.5849 z" id="boundary" inkscape:connector-curvature="0" />
	<path style="fill:none;stroke:red;stroke-width:1px;stroke-linecap:butt;stroke-linejoin:miter;stroke-opacity:1" d="M 474.598,97.5849 501.337,97.5849 z" id="boundary" inkscape:connector-curvature="0" />
	<path style="fill:none;stroke:red;stroke-width:1px;stroke-linecap:butt;stroke-linejoin:miter;stroke-opacity:1" d="M 581.553,110.954 608.291,110.954 z" id="boundary" inkscape:connector-curvature="0" />
	<path style="fill:none;stroke:red;stroke-width:1px;stroke-linecap:butt;stroke-linejoin:miter;stroke-opacity:1" d="M 581.553,110.954 554.814,105.606 z" id="boundary" inkscape:connector-curvature="0" />
	<path style="fill:none;stroke:red;stroke-width:1px;stroke-linecap:butt;stroke-linejoin:miter;stroke-opacity:1" d="M 635.03,110.954 608.291,110.954 z" id="boundary" inkscape:connector-curvature="0" />
	<path style="fill:none;stroke:red;stroke-width:1px;stroke-linecap:butt;stroke-linejoin:miter;stroke-opacity:1" d="M 661.768,110.954 688.507,110.954 z" id="boundary" inkscape:connector-curvature="0" />
	<path style="fill:none;stroke:red;stroke-width:1px;stroke-linecap:butt;stroke-linejoin:miter;stroke-opacity:1" d="M 715.245,110.954 688.507,110.954 z" id="boundary" inkscape:connector-curvature="0" />
	<path style="fill:none;stroke:red;stroke-width:1px;stroke-linecap:butt;stroke-linejoin:miter;stroke-opacity:1" d="M 661.768,110.954 635.03,110.954 z" id="boundary" inkscape:connector-curvature="0" />
	<path style="fill:none;stroke:red;stroke-width:1px;stroke-linecap:butt;stroke-linejoin:miter;stroke-opacity:1" d="M 741.984,110.954 715.245,110.954 z" id="boundary" inkscape:connector-curvature="0" />
	<path style="fill:none;stroke:red;stroke-width:1px;stroke-linecap:butt;stroke-linejoin:miter;stroke-opacity:1" d="M 741.984,110.954 768.722,110.954 z" id="boundary" inkscape:connector-curvature="0" />
	<path style="fill:none;stroke:red;stroke-width:1px;stroke-linecap:butt;stroke-linejoin:miter;stroke-opacity:1" d="M 795.461,110.954 822.199,110.954 z" id="boundary" inkscape:connector-curvature="0" />
	<path style="fill:none;stroke:red;stroke-width:1px;stroke-linecap:butt;stroke-linejoin:miter;stroke-opacity:1" d="M 795.461,110.954 768.722,110.954 z" id="boundary" inkscape:connector-curvature="0" />
	<path style="fill:none;stroke:red;stroke-width:1px;stroke-linecap:butt;stroke-linejoin:miter;stroke-opacity:1" d="M 822.199,110.954 848.938,110.954 z" id="boundary" inkscape:connector-curvature="0" />
	<path style="fill:none;stroke:red;stroke-width:1px;stroke-linecap:butt;stroke-linejoin:miter;stroke-opacity:1" d="M 848.938,110.954 873.003,124.323 z" id="boundary" inkscape:connector-curvature="0" />
	<path style="fill:none;stroke:red;stroke-width:1px;stroke-linecap:butt;stroke-linejoin:miter;stroke-opacity:1" d="M 873.003,124.323 899.741,124.323 z" id="boundary" inkscape:connector-curvature="0" />
	<path style="fill:none;stroke:red;stroke-width:1px;stroke-linecap:butt;stroke-linejoin:miter;stroke-opacity:1" d="M 926.48,124.323 899.741,124.323 z" id="boundary" inkscape:connector-curvature="0" />
	<path style="fill:none;stroke:red;stroke-width:1px;stroke-linecap:butt;stroke-linejoin:miter;stroke-opacity:1" d="M 926.48,124.323 953.218,124.323 z" id="boundary" inkscape:connector-curvature="0" />
	<path style="fill:none;stroke:red;stroke-width:1px;stroke-linecap:butt;stroke-linejoin:miter;stroke-opacity:1" d="M 953.218,124.323 977.283,137.693 z" id="boundary" inkscape:connector-curvature="0" />
	<path style="fill:none;stroke:red;stroke-width:1px;stroke-linecap:butt;stroke-linejoin:miter;stroke-opacity:1" d="M 996,159.084 996,185.822 z" id="boundary" inkscape:connector-curvature="0" />
	<path style="fill:none;stroke:red;stroke-width:1px;stroke-linecap:butt;stroke-linejoin:miter;stroke-opacity:1" d="M 977.283,137.693 996,159.084 z" id="boundary" inkscape:connector-curvature="0" />
	<path style="fill:none;stroke:red;stroke-width:1px;stroke-linecap:butt;stroke-linejoin:miter;stroke-opacity:1" d="M 461.229,220.582 487.968,220.582 z" id="boundary" inkscape:connector-curvature="0" />
	<path style="fill:none;stroke:red;stroke-width:1px;stroke-linecap:butt;stroke-linejoin:miter;stroke-opacity:1" d="M 514.706,220.582 541.445,220.582 z" id="boundary" inkscape:connector-curvature="0" />
	<path style="fill:none;stroke:red;stroke-width:1px;stroke-linecap:butt;stroke-linejoin:miter;stroke-opacity:1" d="M 568.183,220.582 541.445,220.582 z" id="boundary" inkscape:connector-curvature="0" />
	<path style="fill:none;stroke:red;stroke-width:1px;stroke-linecap:butt;stroke-linejoin:miter;stroke-opacity:1" d="M 568.183,220.582 594.922,225.93 z" id="boundary" inkscape:connector-curvature="0" />
	<path style="fill:none;stroke:red;stroke-width:1px;stroke-linecap:butt;stroke-linejoin:miter;stroke-opacity:1" d="M 514.706,220.582 487.968,220.582 z" id="boundary" inkscape:connector-curvature="0" />
	<path style="fill:none;stroke:red;stroke-width:1px;stroke-linecap:butt;stroke-linejoin:miter;stroke-opacity:1" d="M 621.66,233.951 594.922,225.93 z" id="boundary" inkscape:connector-curvature="0" />
	<path style="fill:none;stroke:red;stroke-width:1px;stroke-linecap:butt;stroke-linejoin:miter;stroke-opacity:1" d="M 648.399,233.951 621.66,233.951 z" id="boundary" inkscape:connector-curvature="0" />
	<path style="fill:none;stroke:red;stroke-width:1px;stroke-linecap:butt;stroke-linejoin:miter;stroke-opacity:1" d="M 675.137,233.951 701.876,233.951 z" id="boundary" inkscape:connector-curvature="0" />
	<path style="fill:none;stroke:red;stroke-width:1px;stroke-linecap:butt;stroke-linejoin:miter;stroke-opacity:1" d="M 675.137,233.951 648.399,233.951 z" id="boundary" inkscape:connector-curvature="0" />
	<path style="fill:none;stroke:red;stroke-width:1px;stroke-linecap:butt;stroke-linejoin:miter;stroke-opacity:1" d="M 701.876,233.951 728.615,233.951 z" id="boundary" inkscape:connector-curvature="0" />
	<path style="fill:none;stroke:red;stroke-width:1px;stroke-linecap:butt;stroke-linejoin:miter;stroke-opacity:1" d="M 434.491,220.582 461.229,220.582 z" id="boundary" inkscape:connector-curvature="0" />
	<path style="fill:none;stroke:red;stroke-width:1px;stroke-linecap:butt;stroke-linejoin:miter;stroke-opacity:1" d="M 755.353,233.951 782.092,233.951 z" id="boundary" inkscape:connector-curvature="0" />
	<path style="fill:none;stroke:red;stroke-width:1px;stroke-linecap:butt;stroke-linejoin:miter;stroke-opacity:1" d="M 808.83,233.951 782.092,233.951 z" id="boundary" inkscape:connector-curvature="0" />
	<path style="fill:none;stroke:red;stroke-width:1px;stroke-linecap:butt;stroke-linejoin:miter;stroke-opacity:1" d="M 996,185.822 987.978,231.278 z" id="boundary" inkscape:connector-curvature="0" />
	<path style="fill:none;stroke:red;stroke-width:1px;stroke-linecap:butt;stroke-linejoin:miter;stroke-opacity:1" d="M 755.353,233.951 728.615,233.951 z" id="boundary" inkscape:connector-curvature="0" />
	<path style="fill:none;stroke:red;stroke-width:1px;stroke-linecap:butt;stroke-linejoin:miter;stroke-opacity:1" d="M 808.83,233.951 832.895,247.321 z" id="boundary" inkscape:connector-curvature="0" />
	<path style="fill:none;stroke:red;stroke-width:1px;stroke-linecap:butt;stroke-linejoin:miter;stroke-opacity:1" d="M 832.895,247.321 859.633,247.321 z" id="boundary" inkscape:connector-curvature="0" />
	<path style="fill:none;stroke:red;stroke-width:1px;stroke-linecap:butt;stroke-linejoin:miter;stroke-opacity:1" d="M 886.372,247.321 859.633,247.321 z" id="boundary" inkscape:connector-curvature="0" />
	<path style="fill:none;stroke:red;stroke-width:1px;stroke-linecap:butt;stroke-linejoin:miter;stroke-opacity:1" d="M 913.111,247.321 939.849,247.321 z" id="boundary" inkscape:connector-curvature="0" />
	<path style="fill:none;stroke:red;stroke-width:1px;stroke-linecap:butt;stroke-linejoin:miter;stroke-opacity:1" d="M 966.588,247.321 939.849,247.321 z" id="boundary" inkscape:connector-curvature="0" />
	<path style="fill:none;stroke:red;stroke-width:1px;stroke-linecap:butt;stroke-linejoin:miter;stroke-opacity:1" d="M 987.978,231.278 966.588,247.321 z" id="boundary" inkscape:connector-curvature="0" />
	<path style="fill:none;stroke:red;stroke-width:1px;stroke-linecap:butt;stroke-linejoin:miter;stroke-opacity:1" d="M 913.111,247.321 886.372,247.321 z" id="boundary" inkscape:connector-curvature="0" />
	<circle cx="4" cy="65.4987" r="4" fill="#0" id="circle0"/>
	<circle cx="17.3693" cy="185.822" r="4" fill="#0" id="circle1"/>
	<circle cx="20.0431" cy="86.8895" r="4" fill="#0" id="circle2"/>
	<circle cx="25.3908" cy="44.1078" r="4" fill="#0" id="circle3"/>
	<circle cx="30.7385" cy="209.887" r="4" fill="#0" id="circle4"/>
	<circle cx="38.7601" cy="164.431" r="4" fill="#0" id="circle5"/>
	<circle cx="46.7817" cy="86.8895" r="4" fill="#0" id="circle6"/>
	<circle cx="49.4555" cy="30.7385" r="4" fill="#0" id="circle7"/>
	<circle cx="49.4555" cy="231.278" r="4" fill="#0" id="circle8"/>
	<circle cx="65.4987" cy="164.431" r="4" fill="#0" id="circle9"/>
	<circle cx="70.8464" cy="12.0216" r="4" fill="#0" id="circle10"/>
	<circle cx="70.8464" cy="247.321" r="4" fill="#0" id="circle11"/>
	<circle cx="73.5202" cy="86.8895" r="4" fill="#0" id="circle12"/>
	<circle cx="89.5633" cy="108.28" r="4" fill="#0" id="circle13"/>
	<circle cx="92.2372" cy="164.431" r="4" fill="#0" id="circle14"/>
	<circle cx="94.9111" cy="260.69" r="4" fill="#0" id="circle15"/>
	<circle cx="97.5849" cy="4" r="4" fill="#0" id="circle16"/>
	<circle cx="110.954" cy="126.997" r="4" fill="#0" id="circle17"/>
	<circle cx="121.65" cy="260.69" r="4" fill="#0" id="circle18"/>
	<circle cx="124.323" cy="4" r="4" fill="#0" id="circle19"/>
	<circle cx="148.388" cy="260.69" r="4" fill="#0" id="circle20"/>
	<circle cx="151.062" cy="9.34771" r="4" fill="#0" id="circle21"/>
	<circle cx="167.105" cy="30.7385" r="4" fill="#0" id="circle22"/>
	<circle cx="172.453" cy="247.321" r="4" fill="#0" id="circle23"/>
	<circle cx="193.844" cy="30.7385" r="4" fill="#0" id="circle24"/>
	<circle cx="199.191" cy="244.647" r="4" fill="#0" id="circle25"/>
	<circle cx="215.235" cy="46.7817" r="4" fill="#0" id="circle26"/>
	<circle cx="220.582" cy="220.582" r="4" fill="#0" id="circle27"/>
	<circle cx="239.299" cy="60.1509" r="4" fill="#0" id="circle28"/>
	<circle cx="247.321" cy="207.213" r="4" fill="#0" id="circle29"/>
	<circle cx="266.038" cy="70.8464" r="4" fill="#0" id="circle30"/>
	<circle cx="274.059" cy="207.213" r="4" fill="#0" id="circle31"/>
	<circle cx="290.102" cy="84.2156" r="4" fill="#0" id="circle32"/>
	<circle cx="300.798" cy="207.213" r="4" fill="#0" id="circle33"/>
	<circle cx="316.841" cy="84.2156" r="4" fill="#0" id="circle34"/>
	<circle cx="327.536" cy="207.213" r="4" fill="#0" id="circle35"/>
	<circle cx="343.58" cy="84.2156" r="4" fill="#0" id="circle36"/>
	<circle cx="354.275" cy="207.213" r="4" fill="#0" id="circle37"/>
	<circle cx="370.318" cy="84.2156" r="4" fill="#0" id="circle38"/>
	<circle cx="381.013" cy="212.561" r="4" fill="#0" id="circle39"/>
	<circle cx="397.057" cy="84.2156" r="4" fill="#0" id="circle40"/>
	<circle cx="407.752" cy="220.582" r="4" fill="#0" id="circle41"/>
	<circle cx="421.121" cy="97.5849" r="4" fill="#0" id="circle42"/>
	<circle cx="434.491" cy="220.582" r="4" fill="#0" id="circle43"/>
	<circle cx="447.86" cy="97.5849" r="4" fill="#0" id="circle44"/>
	<circle cx="461.229" cy="220.582" r="4" fill="#0" id="circle45"/>
	<circle cx="474.598" cy="97.5849" r="4" fill="#0" id="circle46"/>
	<circle cx="487.968" cy="220.582" r="4" fill="#0" id="circle47"/>
	<circle cx="501.337" cy="97.5849" r="4" fill="#0" id="circle48"/>
	<circle cx="514.706" cy="220.582" r="4" fill="#0" id="circle49"/>
	<circle cx="528.075" cy="97.5849" r="4" fill="#0" id="circle50"/>
	<circle cx="541.445" cy="220.582" r="4" fill="#0" id="circle51"/>
	<circle cx="554.814" cy="105.606" r="4" fill="#0" id="circle52"/>
	<circle cx="568.183" cy="220.582" r="4" fill="#0" id="circle53"/>
	<circle cx="581.553" cy="110.954" r="4" fill="#0" id="circle54"/>
	<circle cx="594.922" cy="225.93" r="4" fill="#0" id="circle55"/>
	<circle cx="608.291" cy="110.954" r="4" fill="#0" id="circle56"/>
	<circle cx="621.66" cy="233.951" r="4" fill="#0" id="circle57"/>
	<circle cx="635.03" cy="110.954" r="4" fill="#0" id="circle58"/>
	<circle cx="648.399" cy="233.951" r="4" fill="#0" id="circle59"/>
	<circle cx="661.768" cy="110.954" r="4" fill="#0" id="circle60"/>
	<circle cx="675.137" cy="233.951" r="4" fill="#0" id="circle61"/>
	<circle cx="688.507" cy="110.954" r="4" fill="#0" id="circle62"/>
	<circle cx="701.876" cy="233.951" r="4" fill="#0" id="circle63"/>
	<circle cx="715.245" cy="110.954" r="4" fill="#0" id="circle64"/>
	<circle cx="728.615" cy="233.951" r="4" fill="#0" id="circle65"/>
	<circle cx="741.984" cy="110.954" r="4" fill="#0" id="circle66"/>
	<circle cx="755.353" cy="233.951" r="4" fill="#0" id="circle67"/>
	<circle cx="768.722" cy="110.954" r="4" fill="#0" id="circle68"/>
	<circle cx="782.092" cy="233.951" r="4" fill="#0" id="circle69"/>
	<circle cx="795.461" cy="110.954" r="4" fill="#0" id="circle70"/>
	<circle cx="808.83" cy="233.951" r="4" fill="#0" id="circle71"/>
	<circle cx="822.199" cy="110.954" r="4" fill="#0" id="circle72"/>
	<circle cx="832.895" cy="247.321" r="4" fill="#0" id="circle73"/>
	<circle cx="848.938" cy="110.954" r="4" fill="#0" id="circle74"/>
	<circle cx="859.633" cy="247.321" r="4" fill="#0" id="circle75"/>
	<circle cx="873.003" cy="124.323" r="4" fill="#0" id="circle76"/>
	<circle cx="886.372" cy="247.321" r="4" fill="#0" id="circle77"/>
	<circle cx="899.741" cy="124.323" r="4" fill="#0" id="circle78"/>
	<circle cx="913.111" cy="247.321" r="4" fill="#0" id="circle79"/>
	<circle cx="926.48" cy="124.323" r="4" fill="#0" id="circle80"/>
	<circle cx="939.849" cy="247.321" r="4" fill="#0" id="circle81"/>
	<circle cx="953.218" cy="124.323" r="4" fill="#0" id="circle82"/>
	<circle cx="966.588" cy="247.321" r="4" fill="#0" id="circle83"/>
	<circle cx="977.283" cy="137.693" r="4" fill="#0" id="circle84"/>
	<circle cx="987.978" cy="231.278" r="4" fill="#0" id="circle85"/>
	<circle cx="996" cy="159.084" r="4" fill="#0" id="circle86"/>
	<circle cx="996" cy="185.822" r="4" fill="#0" id="circle87"/>
	</g>
</svg>