<?xml version="1.0" encoding="UTF-8" standalone="no"?>
<!-- Created with CurveBenchmark -->
<svg
	xmlns:dc="http://purl.org/dc/elements/1.1/"
	xmlns:cc="http://creativecommons.org/ns#"
	xmlns:rdf="http://www.w3.org/1999/02/22-rdf-syntax-ns#"
	xmlns:svg="http://www.w3.org/2000/svg"
	xmlns="http://www.w3.org/2000/svg"
	xmlns:sodipodi="http://sodipodi.sourceforge.net/DTD/sodipodi-0.dtd"
	xmlns:inkscape="http://www.inkscape.org/namespaces/inkscape"
	width="1000"
	height="1000"
	id="svg2"
	version="1.1"
	sodipodi:docname="manifold/gathang-teddy335.png.txt">
<defs
	id="defs4" />
<metadata
	id="metadata7">
	<rdf:RDF>
		<cc:Work
			rdf:about="">
			<dc:format>image/svg+xml</dc:format>
			<dc:type
				rdf:resource="http://purl.org/dc/dcmitype/StillImage" />
			<dc:title></dc:title>
		</cc:Work>
	</rdf:RDF>
</metadata>
<g
	inkscape:label="Layer 1"
	inkscape:groupmode="layer"
	id="layer1">
	<path style="fill:none;stroke:red;stroke-width:1px;stroke-linecap:butt;stroke-linejoin:miter;stroke-opacity:1" d="M 111.396,461.846 136.832,447.715 z" id="boundary" inkscape:connector-curvature="0" />
	<path style="fill:none;stroke:red;stroke-width:1px;stroke-linecap:butt;stroke-linejoin:miter;stroke-opacity:1" d="M 165.094,439.236 136.832,447.715 z" id="boundary" inkscape:connector-curvature="0" />
	<path style="fill:none;stroke:red;stroke-width:1px;stroke-linecap:butt;stroke-linejoin:miter;stroke-opacity:1" d="M 190.53,292.274 184.877,264.011 z" id="boundary" inkscape:connector-curvature="0" />
	<path style="fill:none;stroke:red;stroke-width:1px;stroke-linecap:butt;stroke-linejoin:miter;stroke-opacity:1" d="M 184.877,264.011 184.877,235.749 z" id="boundary" inkscape:connector-curvature="0" />
	<path style="fill:none;stroke:red;stroke-width:1px;stroke-linecap:butt;stroke-linejoin:miter;stroke-opacity:1" d="M 184.877,235.749 207.487,218.792 z" id="boundary" inkscape:connector-curvature="0" />
	<path style="fill:none;stroke:red;stroke-width:1px;stroke-linecap:butt;stroke-linejoin:miter;stroke-opacity:1" d="M 111.396,461.846 88.7863,484.456 z" id="boundary" inkscape:connector-curvature="0" />
	<path style="fill:none;stroke:red;stroke-width:1px;stroke-linecap:butt;stroke-linejoin:miter;stroke-opacity:1" d="M 165.094,439.236 193.356,433.584 z" id="boundary" inkscape:connector-curvature="0" />
	<path style="fill:none;stroke:red;stroke-width:1px;stroke-linecap:butt;stroke-linejoin:miter;stroke-opacity:1" d="M 83.1339,512.718 88.7863,484.456 z" id="boundary" inkscape:connector-curvature="0" />
	<path style="fill:none;stroke:red;stroke-width:1px;stroke-linecap:butt;stroke-linejoin:miter;stroke-opacity:1" d="M 88.7863,540.98 83.1339,512.718 z" id="boundary" inkscape:connector-curvature="0" />
	<path style="fill:none;stroke:red;stroke-width:1px;stroke-linecap:butt;stroke-linejoin:miter;stroke-opacity:1" d="M 94.4387,569.242 111.396,591.852 z" id="boundary" inkscape:connector-curvature="0" />
	<path style="fill:none;stroke:red;stroke-width:1px;stroke-linecap:butt;stroke-linejoin:miter;stroke-opacity:1" d="M 94.4387,569.242 88.7863,540.98 z" id="boundary" inkscape:connector-curvature="0" />
	<path style="fill:none;stroke:red;stroke-width:1px;stroke-linecap:butt;stroke-linejoin:miter;stroke-opacity:1" d="M 134.006,611.635 156.615,628.593 z" id="boundary" inkscape:connector-curvature="0" />
	<path style="fill:none;stroke:red;stroke-width:1px;stroke-linecap:butt;stroke-linejoin:miter;stroke-opacity:1" d="M 134.006,611.635 111.396,591.852 z" id="boundary" inkscape:connector-curvature="0" />
	<path style="fill:none;stroke:red;stroke-width:1px;stroke-linecap:butt;stroke-linejoin:miter;stroke-opacity:1" d="M 190.53,292.274 199.009,320.536 z" id="boundary" inkscape:connector-curvature="0" />
	<path style="fill:none;stroke:red;stroke-width:1px;stroke-linecap:butt;stroke-linejoin:miter;stroke-opacity:1" d="M 230.097,196.182 207.487,218.792 z" id="boundary" inkscape:connector-curvature="0" />
	<path style="fill:none;stroke:red;stroke-width:1px;stroke-linecap:butt;stroke-linejoin:miter;stroke-opacity:1" d="M 230.097,196.182 258.359,190.53 z" id="boundary" inkscape:connector-curvature="0" />
	<path style="fill:none;stroke:red;stroke-width:1px;stroke-linecap:butt;stroke-linejoin:miter;stroke-opacity:1" d="M 303.578,162.268 286.621,184.877 z" id="boundary" inkscape:connector-curvature="0" />
	<path style="fill:none;stroke:red;stroke-width:1px;stroke-linecap:butt;stroke-linejoin:miter;stroke-opacity:1" d="M 286.621,184.877 258.359,190.53 z" id="boundary" inkscape:connector-curvature="0" />
	<path style="fill:none;stroke:red;stroke-width:1px;stroke-linecap:butt;stroke-linejoin:miter;stroke-opacity:1" d="M 320.536,139.658 303.578,162.268 z" id="boundary" inkscape:connector-curvature="0" />
	<path style="fill:none;stroke:red;stroke-width:1px;stroke-linecap:butt;stroke-linejoin:miter;stroke-opacity:1" d="M 221.618,433.584 193.356,433.584 z" id="boundary" inkscape:connector-curvature="0" />
	<path style="fill:none;stroke:red;stroke-width:1px;stroke-linecap:butt;stroke-linejoin:miter;stroke-opacity:1" d="M 210.313,348.798 235.749,362.929 z" id="boundary" inkscape:connector-curvature="0" />
	<path style="fill:none;stroke:red;stroke-width:1px;stroke-linecap:butt;stroke-linejoin:miter;stroke-opacity:1" d="M 235.749,362.929 261.185,377.06 z" id="boundary" inkscape:connector-curvature="0" />
	<path style="fill:none;stroke:red;stroke-width:1px;stroke-linecap:butt;stroke-linejoin:miter;stroke-opacity:1" d="M 221.618,433.584 249.88,427.932 z" id="boundary" inkscape:connector-curvature="0" />
	<path style="fill:none;stroke:red;stroke-width:1px;stroke-linecap:butt;stroke-linejoin:miter;stroke-opacity:1" d="M 275.316,410.974 249.88,427.932 z" id="boundary" inkscape:connector-curvature="0" />
	<path style="fill:none;stroke:red;stroke-width:1px;stroke-linecap:butt;stroke-linejoin:miter;stroke-opacity:1" d="M 261.185,377.06 275.316,410.974 z" id="boundary" inkscape:connector-curvature="0" />
	<path style="fill:none;stroke:red;stroke-width:1px;stroke-linecap:butt;stroke-linejoin:miter;stroke-opacity:1" d="M 210.313,348.798 199.009,320.536 z" id="boundary" inkscape:connector-curvature="0" />
	<path style="fill:none;stroke:red;stroke-width:1px;stroke-linecap:butt;stroke-linejoin:miter;stroke-opacity:1" d="M 182.051,642.724 156.615,628.593 z" id="boundary" inkscape:connector-curvature="0" />
	<path style="fill:none;stroke:red;stroke-width:1px;stroke-linecap:butt;stroke-linejoin:miter;stroke-opacity:1" d="M 9.65242,767.077 9.65242,795.339 z" id="boundary" inkscape:connector-curvature="0" />
	<path style="fill:none;stroke:red;stroke-width:1px;stroke-linecap:butt;stroke-linejoin:miter;stroke-opacity:1" d="M 9.65242,795.339 4,829.254 z" id="boundary" inkscape:connector-curvature="0" />
	<path style="fill:none;stroke:red;stroke-width:1px;stroke-linecap:butt;stroke-linejoin:miter;stroke-opacity:1" d="M 49.2194,727.51 77.4815,727.51 z" id="boundary" inkscape:connector-curvature="0" />
	<path style="fill:none;stroke:red;stroke-width:1px;stroke-linecap:butt;stroke-linejoin:miter;stroke-opacity:1" d="M 49.2194,727.51 23.7835,741.641 z" id="boundary" inkscape:connector-curvature="0" />
	<path style="fill:none;stroke:red;stroke-width:1px;stroke-linecap:butt;stroke-linejoin:miter;stroke-opacity:1" d="M 9.65242,767.077 23.7835,741.641 z" id="boundary" inkscape:connector-curvature="0" />
	<path style="fill:none;stroke:red;stroke-width:1px;stroke-linecap:butt;stroke-linejoin:miter;stroke-opacity:1" d="M 4,857.516 4,829.254 z" id="boundary" inkscape:connector-curvature="0" />
	<path style="fill:none;stroke:red;stroke-width:1px;stroke-linecap:butt;stroke-linejoin:miter;stroke-opacity:1" d="M 4,857.516 9.65242,885.778 z" id="boundary" inkscape:connector-curvature="0" />
	<path style="fill:none;stroke:red;stroke-width:1px;stroke-linecap:butt;stroke-linejoin:miter;stroke-opacity:1" d="M 9.65242,885.778 9.65242,914.04 z" id="boundary" inkscape:connector-curvature="0" />
	<path style="fill:none;stroke:red;stroke-width:1px;stroke-linecap:butt;stroke-linejoin:miter;stroke-opacity:1" d="M 29.4359,967.738 15.3048,942.302 z" id="boundary" inkscape:connector-curvature="0" />
	<path style="fill:none;stroke:red;stroke-width:1px;stroke-linecap:butt;stroke-linejoin:miter;stroke-opacity:1" d="M 57.698,979.043 29.4359,967.738 z" id="boundary" inkscape:connector-curvature="0" />
	<path style="fill:none;stroke:red;stroke-width:1px;stroke-linecap:butt;stroke-linejoin:miter;stroke-opacity:1" d="M 15.3048,942.302 9.65242,914.04 z" id="boundary" inkscape:connector-curvature="0" />
	<path style="fill:none;stroke:red;stroke-width:1px;stroke-linecap:butt;stroke-linejoin:miter;stroke-opacity:1" d="M 85.9601,990.348 57.698,979.043 z" id="boundary" inkscape:connector-curvature="0" />
	<path style="fill:none;stroke:red;stroke-width:1px;stroke-linecap:butt;stroke-linejoin:miter;stroke-opacity:1" d="M 114.222,996 85.9601,990.348 z" id="boundary" inkscape:connector-curvature="0" />
	<path style="fill:none;stroke:red;stroke-width:1px;stroke-linecap:butt;stroke-linejoin:miter;stroke-opacity:1" d="M 77.4815,727.51 105.744,727.51 z" id="boundary" inkscape:connector-curvature="0" />
	<path style="fill:none;stroke:red;stroke-width:1px;stroke-linecap:butt;stroke-linejoin:miter;stroke-opacity:1" d="M 134.006,730.336 162.268,738.815 z" id="boundary" inkscape:connector-curvature="0" />
	<path style="fill:none;stroke:red;stroke-width:1px;stroke-linecap:butt;stroke-linejoin:miter;stroke-opacity:1" d="M 134.006,730.336 105.744,727.51 z" id="boundary" inkscape:connector-curvature="0" />
	<path style="fill:none;stroke:red;stroke-width:1px;stroke-linecap:butt;stroke-linejoin:miter;stroke-opacity:1" d="M 179.225,699.248 162.268,738.815 z" id="boundary" inkscape:connector-curvature="0" />
	<path style="fill:none;stroke:red;stroke-width:1px;stroke-linecap:butt;stroke-linejoin:miter;stroke-opacity:1" d="M 337.493,996 309.231,996 z" id="boundary" inkscape:connector-curvature="0" />
	<path style="fill:none;stroke:red;stroke-width:1px;stroke-linecap:butt;stroke-linejoin:miter;stroke-opacity:1" d="M 184.877,670.986 182.051,642.724 z" id="boundary" inkscape:connector-curvature="0" />
	<path style="fill:none;stroke:red;stroke-width:1px;stroke-linecap:butt;stroke-linejoin:miter;stroke-opacity:1" d="M 184.877,670.986 179.225,699.248 z" id="boundary" inkscape:connector-curvature="0" />
	<path style="fill:none;stroke:red;stroke-width:1px;stroke-linecap:butt;stroke-linejoin:miter;stroke-opacity:1" d="M 227.271,973.39 199.009,979.043 z" id="boundary" inkscape:connector-curvature="0" />
	<path style="fill:none;stroke:red;stroke-width:1px;stroke-linecap:butt;stroke-linejoin:miter;stroke-opacity:1" d="M 170.746,987.521 142.484,996 z" id="boundary" inkscape:connector-curvature="0" />
	<path style="fill:none;stroke:red;stroke-width:1px;stroke-linecap:butt;stroke-linejoin:miter;stroke-opacity:1" d="M 142.484,996 114.222,996 z" id="boundary" inkscape:connector-curvature="0" />
	<path style="fill:none;stroke:red;stroke-width:1px;stroke-linecap:butt;stroke-linejoin:miter;stroke-opacity:1" d="M 252.707,987.521 280.969,996 z" id="boundary" inkscape:connector-curvature="0" />
	<path style="fill:none;stroke:red;stroke-width:1px;stroke-linecap:butt;stroke-linejoin:miter;stroke-opacity:1" d="M 227.271,973.39 252.707,987.521 z" id="boundary" inkscape:connector-curvature="0" />
	<path style="fill:none;stroke:red;stroke-width:1px;stroke-linecap:butt;stroke-linejoin:miter;stroke-opacity:1" d="M 309.231,996 280.969,996 z" id="boundary" inkscape:connector-curvature="0" />
	<path style="fill:none;stroke:red;stroke-width:1px;stroke-linecap:butt;stroke-linejoin:miter;stroke-opacity:1" d="M 170.746,987.521 199.009,979.043 z" id="boundary" inkscape:connector-curvature="0" />
	<path style="fill:none;stroke:red;stroke-width:1px;stroke-linecap:butt;stroke-linejoin:miter;stroke-opacity:1" d="M 388.365,15.3048 416.627,4 z" id="boundary" inkscape:connector-curvature="0" />
	<path style="fill:none;stroke:red;stroke-width:1px;stroke-linecap:butt;stroke-linejoin:miter;stroke-opacity:1" d="M 416.627,4 444.889,9.65242 z" id="boundary" inkscape:connector-curvature="0" />
	<path style="fill:none;stroke:red;stroke-width:1px;stroke-linecap:butt;stroke-linejoin:miter;stroke-opacity:1" d="M 365.755,32.2621 388.365,15.3048 z" id="boundary" inkscape:connector-curvature="0" />
	<path style="fill:none;stroke:red;stroke-width:1px;stroke-linecap:butt;stroke-linejoin:miter;stroke-opacity:1" d="M 535.328,4 509.892,18.1311 z" id="boundary" inkscape:connector-curvature="0" />
	<path style="fill:none;stroke:red;stroke-width:1px;stroke-linecap:butt;stroke-linejoin:miter;stroke-opacity:1" d="M 473.151,18.1311 444.889,9.65242 z" id="boundary" inkscape:connector-curvature="0" />
	<path style="fill:none;stroke:red;stroke-width:1px;stroke-linecap:butt;stroke-linejoin:miter;stroke-opacity:1" d="M 535.328,4 563.59,6.82621 z" id="boundary" inkscape:connector-curvature="0" />
	<path style="fill:none;stroke:red;stroke-width:1px;stroke-linecap:butt;stroke-linejoin:miter;stroke-opacity:1" d="M 348.798,60.5242 337.493,111.396 z" id="boundary" inkscape:connector-curvature="0" />
	<path style="fill:none;stroke:red;stroke-width:1px;stroke-linecap:butt;stroke-linejoin:miter;stroke-opacity:1" d="M 337.493,111.396 320.536,139.658 z" id="boundary" inkscape:connector-curvature="0" />
	<path style="fill:none;stroke:red;stroke-width:1px;stroke-linecap:butt;stroke-linejoin:miter;stroke-opacity:1" d="M 490.108,40.7407 509.892,18.1311 z" id="boundary" inkscape:connector-curvature="0" />
	<path style="fill:none;stroke:red;stroke-width:1px;stroke-linecap:butt;stroke-linejoin:miter;stroke-opacity:1" d="M 348.798,60.5242 365.755,32.2621 z" id="boundary" inkscape:connector-curvature="0" />
	<path style="fill:none;stroke:red;stroke-width:1px;stroke-linecap:butt;stroke-linejoin:miter;stroke-opacity:1" d="M 563.59,6.82621 591.852,18.1311 z" id="boundary" inkscape:connector-curvature="0" />
	<path style="fill:none;stroke:red;stroke-width:1px;stroke-linecap:butt;stroke-linejoin:miter;stroke-opacity:1" d="M 639.897,117.048 617.288,97.265 z" id="boundary" inkscape:connector-curvature="0" />
	<path style="fill:none;stroke:red;stroke-width:1px;stroke-linecap:butt;stroke-linejoin:miter;stroke-opacity:1" d="M 617.288,97.265 611.635,69.0028 z" id="boundary" inkscape:connector-curvature="0" />
	<path style="fill:none;stroke:red;stroke-width:1px;stroke-linecap:butt;stroke-linejoin:miter;stroke-opacity:1" d="M 611.635,69.0028 611.635,40.7407 z" id="boundary" inkscape:connector-curvature="0" />
	<path style="fill:none;stroke:red;stroke-width:1px;stroke-linecap:butt;stroke-linejoin:miter;stroke-opacity:1" d="M 591.852,18.1311 611.635,40.7407 z" id="boundary" inkscape:connector-curvature="0" />
	<path style="fill:none;stroke:red;stroke-width:1px;stroke-linecap:butt;stroke-linejoin:miter;stroke-opacity:1" d="M 654.028,142.484 662.507,170.746 z" id="boundary" inkscape:connector-curvature="0" />
	<path style="fill:none;stroke:red;stroke-width:1px;stroke-linecap:butt;stroke-linejoin:miter;stroke-opacity:1" d="M 654.028,142.484 639.897,117.048 z" id="boundary" inkscape:connector-curvature="0" />
	<path style="fill:none;stroke:red;stroke-width:1px;stroke-linecap:butt;stroke-linejoin:miter;stroke-opacity:1" d="M 673.812,199.009 662.507,170.746 z" id="boundary" inkscape:connector-curvature="0" />
	<path style="fill:none;stroke:red;stroke-width:1px;stroke-linecap:butt;stroke-linejoin:miter;stroke-opacity:1" d="M 622.94,388.365 637.071,362.929 z" id="boundary" inkscape:connector-curvature="0" />
	<path style="fill:none;stroke:red;stroke-width:1px;stroke-linecap:butt;stroke-linejoin:miter;stroke-opacity:1" d="M 628.593,416.627 622.94,388.365 z" id="boundary" inkscape:connector-curvature="0" />
	<path style="fill:none;stroke:red;stroke-width:1px;stroke-linecap:butt;stroke-linejoin:miter;stroke-opacity:1" d="M 651.202,337.493 637.071,362.929 z" id="boundary" inkscape:connector-curvature="0" />
	<path style="fill:none;stroke:red;stroke-width:1px;stroke-linecap:butt;stroke-linejoin:miter;stroke-opacity:1" d="M 673.812,227.271 673.812,269.664 z" id="boundary" inkscape:connector-curvature="0" />
	<path style="fill:none;stroke:red;stroke-width:1px;stroke-linecap:butt;stroke-linejoin:miter;stroke-opacity:1" d="M 665.333,312.057 673.812,269.664 z" id="boundary" inkscape:connector-curvature="0" />
	<path style="fill:none;stroke:red;stroke-width:1px;stroke-linecap:butt;stroke-linejoin:miter;stroke-opacity:1" d="M 665.333,312.057 651.202,337.493 z" id="boundary" inkscape:connector-curvature="0" />
	<path style="fill:none;stroke:red;stroke-width:1px;stroke-linecap:butt;stroke-linejoin:miter;stroke-opacity:1" d="M 673.812,199.009 673.812,227.271 z" id="boundary" inkscape:connector-curvature="0" />
	<path style="fill:none;stroke:red;stroke-width:1px;stroke-linecap:butt;stroke-linejoin:miter;stroke-opacity:1" d="M 611.635,902.735 605.983,930.997 z" id="boundary" inkscape:connector-curvature="0" />
	<path style="fill:none;stroke:red;stroke-width:1px;stroke-linecap:butt;stroke-linejoin:miter;stroke-opacity:1" d="M 422.279,984.695 394.017,984.695 z" id="boundary" inkscape:connector-curvature="0" />
	<path style="fill:none;stroke:red;stroke-width:1px;stroke-linecap:butt;stroke-linejoin:miter;stroke-opacity:1" d="M 605.983,930.997 591.852,973.39 z" id="boundary" inkscape:connector-curvature="0" />
	<path style="fill:none;stroke:red;stroke-width:1px;stroke-linecap:butt;stroke-linejoin:miter;stroke-opacity:1" d="M 591.852,973.39 563.59,984.695 z" id="boundary" inkscape:connector-curvature="0" />
	<path style="fill:none;stroke:red;stroke-width:1px;stroke-linecap:butt;stroke-linejoin:miter;stroke-opacity:1" d="M 365.755,996 394.017,984.695 z" id="boundary" inkscape:connector-curvature="0" />
	<path style="fill:none;stroke:red;stroke-width:1px;stroke-linecap:butt;stroke-linejoin:miter;stroke-opacity:1" d="M 617.288,851.863 611.635,902.735 z" id="boundary" inkscape:connector-curvature="0" />
	<path style="fill:none;stroke:red;stroke-width:1px;stroke-linecap:butt;stroke-linejoin:miter;stroke-opacity:1" d="M 617.288,795.339 617.288,823.601 z" id="boundary" inkscape:connector-curvature="0" />
	<path style="fill:none;stroke:red;stroke-width:1px;stroke-linecap:butt;stroke-linejoin:miter;stroke-opacity:1" d="M 365.755,996 337.493,996 z" id="boundary" inkscape:connector-curvature="0" />
	<path style="fill:none;stroke:red;stroke-width:1px;stroke-linecap:butt;stroke-linejoin:miter;stroke-opacity:1" d="M 422.279,984.695 450.541,990.348 z" id="boundary" inkscape:connector-curvature="0" />
	<path style="fill:none;stroke:red;stroke-width:1px;stroke-linecap:butt;stroke-linejoin:miter;stroke-opacity:1" d="M 507.066,996 478.803,990.348 z" id="boundary" inkscape:connector-curvature="0" />
	<path style="fill:none;stroke:red;stroke-width:1px;stroke-linecap:butt;stroke-linejoin:miter;stroke-opacity:1" d="M 478.803,990.348 450.541,990.348 z" id="boundary" inkscape:connector-curvature="0" />
	<path style="fill:none;stroke:red;stroke-width:1px;stroke-linecap:butt;stroke-linejoin:miter;stroke-opacity:1" d="M 535.328,996 507.066,996 z" id="boundary" inkscape:connector-curvature="0" />
	<path style="fill:none;stroke:red;stroke-width:1px;stroke-linecap:butt;stroke-linejoin:miter;stroke-opacity:1" d="M 563.59,984.695 535.328,996 z" id="boundary" inkscape:connector-curvature="0" />
	<path style="fill:none;stroke:red;stroke-width:1px;stroke-linecap:butt;stroke-linejoin:miter;stroke-opacity:1" d="M 628.593,608.809 628.593,637.071 z" id="boundary" inkscape:connector-curvature="0" />
	<path style="fill:none;stroke:red;stroke-width:1px;stroke-linecap:butt;stroke-linejoin:miter;stroke-opacity:1" d="M 628.593,608.809 634.245,557.937 z" id="boundary" inkscape:connector-curvature="0" />
	<path style="fill:none;stroke:red;stroke-width:1px;stroke-linecap:butt;stroke-linejoin:miter;stroke-opacity:1" d="M 634.245,557.937 645.55,529.675 z" id="boundary" inkscape:connector-curvature="0" />
	<path style="fill:none;stroke:red;stroke-width:1px;stroke-linecap:butt;stroke-linejoin:miter;stroke-opacity:1" d="M 628.593,637.071 628.593,665.333 z" id="boundary" inkscape:connector-curvature="0" />
	<path style="fill:none;stroke:red;stroke-width:1px;stroke-linecap:butt;stroke-linejoin:miter;stroke-opacity:1" d="M 645.55,473.151 637.071,444.889 z" id="boundary" inkscape:connector-curvature="0" />
	<path style="fill:none;stroke:red;stroke-width:1px;stroke-linecap:butt;stroke-linejoin:miter;stroke-opacity:1" d="M 645.55,529.675 651.202,501.413 z" id="boundary" inkscape:connector-curvature="0" />
	<path style="fill:none;stroke:red;stroke-width:1px;stroke-linecap:butt;stroke-linejoin:miter;stroke-opacity:1" d="M 645.55,473.151 651.202,501.413 z" id="boundary" inkscape:connector-curvature="0" />
	<path style="fill:none;stroke:red;stroke-width:1px;stroke-linecap:butt;stroke-linejoin:miter;stroke-opacity:1" d="M 637.071,444.889 628.593,416.627 z" id="boundary" inkscape:connector-curvature="0" />
	<path style="fill:none;stroke:red;stroke-width:1px;stroke-linecap:butt;stroke-linejoin:miter;stroke-opacity:1" d="M 617.288,851.863 617.288,823.601 z" id="boundary" inkscape:connector-curvature="0" />
	<path style="fill:none;stroke:red;stroke-width:1px;stroke-linecap:butt;stroke-linejoin:miter;stroke-opacity:1" d="M 628.593,665.333 634.245,693.595 z" id="boundary" inkscape:connector-curvature="0" />
	<path style="fill:none;stroke:red;stroke-width:1px;stroke-linecap:butt;stroke-linejoin:miter;stroke-opacity:1" d="M 634.245,693.595 634.245,721.858 z" id="boundary" inkscape:connector-curvature="0" />
	<path style="fill:none;stroke:red;stroke-width:1px;stroke-linecap:butt;stroke-linejoin:miter;stroke-opacity:1" d="M 617.288,795.339 634.245,750.12 z" id="boundary" inkscape:connector-curvature="0" />
	<path style="fill:none;stroke:red;stroke-width:1px;stroke-linecap:butt;stroke-linejoin:miter;stroke-opacity:1" d="M 634.245,750.12 634.245,721.858 z" id="boundary" inkscape:connector-curvature="0" />
	<circle cx="4" cy="829.254" r="4" fill="#0" id="circle0"/>
	<circle cx="4" cy="857.516" r="4" fill="#0" id="circle1"/>
	<circle cx="9.65242" cy="767.077" r="4" fill="#0" id="circle2"/>
	<circle cx="9.65242" cy="795.339" r="4" fill="#0" id="circle3"/>
	<circle cx="9.65242" cy="885.778" r="4" fill="#0" id="circle4"/>
	<circle cx="9.65242" cy="914.04" r="4" fill="#0" id="circle5"/>
	<circle cx="15.3048" cy="942.302" r="4" fill="#0" id="circle6"/>
	<circle cx="23.7835" cy="741.641" r="4" fill="#0" id="circle7"/>
	<circle cx="29.4359" cy="967.738" r="4" fill="#0" id="circle8"/>
	<circle cx="49.2194" cy="727.51" r="4" fill="#0" id="circle9"/>
	<circle cx="57.698" cy="979.043" r="4" fill="#0" id="circle10"/>
	<circle cx="77.4815" cy="727.51" r="4" fill="#0" id="circle11"/>
	<circle cx="83.1339" cy="512.718" r="4" fill="#0" id="circle12"/>
	<circle cx="85.9601" cy="990.348" r="4" fill="#0" id="circle13"/>
	<circle cx="88.7863" cy="484.456" r="4" fill="#0" id="circle14"/>
	<circle cx="88.7863" cy="540.98" r="4" fill="#0" id="circle15"/>
	<circle cx="94.4387" cy="569.242" r="4" fill="#0" id="circle16"/>
	<circle cx="105.744" cy="727.51" r="4" fill="#0" id="circle17"/>
	<circle cx="111.396" cy="461.846" r="4" fill="#0" id="circle18"/>
	<circle cx="111.396" cy="591.852" r="4" fill="#0" id="circle19"/>
	<circle cx="114.222" cy="996" r="4" fill="#0" id="circle20"/>
	<circle cx="134.006" cy="611.635" r="4" fill="#0" id="circle21"/>
	<circle cx="134.006" cy="730.336" r="4" fill="#0" id="circle22"/>
	<circle cx="136.832" cy="447.715" r="4" fill="#0" id="circle23"/>
	<circle cx="142.484" cy="996" r="4" fill="#0" id="circle24"/>
	<circle cx="156.615" cy="628.593" r="4" fill="#0" id="circle25"/>
	<circle cx="162.268" cy="738.815" r="4" fill="#0" id="circle26"/>
	<circle cx="165.094" cy="439.236" r="4" fill="#0" id="circle27"/>
	<circle cx="170.746" cy="987.521" r="4" fill="#0" id="circle28"/>
	<circle cx="179.225" cy="699.248" r="4" fill="#0" id="circle29"/>
	<circle cx="182.051" cy="642.724" r="4" fill="#0" id="circle30"/>
	<circle cx="184.877" cy="235.749" r="4" fill="#0" id="circle31"/>
	<circle cx="184.877" cy="264.011" r="4" fill="#0" id="circle32"/>
	<circle cx="184.877" cy="670.986" r="4" fill="#0" id="circle33"/>
	<circle cx="190.53" cy="292.274" r="4" fill="#0" id="circle34"/>
	<circle cx="193.356" cy="433.584" r="4" fill="#0" id="circle35"/>
	<circle cx="199.009" cy="320.536" r="4" fill="#0" id="circle36"/>
	<circle cx="199.009" cy="979.043" r="4" fill="#0" id="circle37"/>
	<circle cx="207.487" cy="218.792" r="4" fill="#0" id="circle38"/>
	<circle cx="210.313" cy="348.798" r="4" fill="#0" id="circle39"/>
	<circle cx="221.618" cy="433.584" r="4" fill="#0" id="circle40"/>
	<circle cx="227.271" cy="973.39" r="4" fill="#0" id="circle41"/>
	<circle cx="230.097" cy="196.182" r="4" fill="#0" id="circle42"/>
	<circle cx="235.749" cy="362.929" r="4" fill="#0" id="circle43"/>
	<circle cx="249.88" cy="427.932" r="4" fill="#0" id="circle44"/>
	<circle cx="252.707" cy="987.521" r="4" fill="#0" id="circle45"/>
	<circle cx="258.359" cy="190.53" r="4" fill="#0" id="circle46"/>
	<circle cx="261.185" cy="377.06" r="4" fill="#0" id="circle47"/>
	<circle cx="275.316" cy="410.974" r="4" fill="#0" id="circle48"/>
	<circle cx="280.969" cy="996" r="4" fill="#0" id="circle49"/>
	<circle cx="286.621" cy="184.877" r="4" fill="#0" id="circle50"/>
	<circle cx="303.578" cy="162.268" r="4" fill="#0" id="circle51"/>
	<circle cx="309.231" cy="996" r="4" fill="#0" id="circle52"/>
	<circle cx="320.536" cy="139.658" r="4" fill="#0" id="circle53"/>
	<circle cx="337.493" cy="111.396" r="4" fill="#0" id="circle54"/>
	<circle cx="337.493" cy="996" r="4" fill="#0" id="circle55"/>
	<circle cx="348.798" cy="60.5242" r="4" fill="#0" id="circle56"/>
	<circle cx="365.755" cy="32.2621" r="4" fill="#0" id="circle57"/>
	<circle cx="365.755" cy="996" r="4" fill="#0" id="circle58"/>
	<circle cx="388.365" cy="15.3048" r="4" fill="#0" id="circle59"/>
	<circle cx="394.017" cy="984.695" r="4" fill="#0" id="circle60"/>
	<circle cx="416.627" cy="4" r="4" fill="#0" id="circle61"/>
	<circle cx="422.279" cy="984.695" r="4" fill="#0" id="circle62"/>
	<circle cx="444.889" cy="9.65242" r="4" fill="#0" id="circle63"/>
	<circle cx="450.541" cy="990.348" r="4" fill="#0" id="circle64"/>
	<circle cx="473.151" cy="18.1311" r="4" fill="#0" id="circle65"/>
	<circle cx="478.803" cy="990.348" r="4" fill="#0" id="circle66"/>
	<circle cx="490.108" cy="40.7407" r="4" fill="#0" id="circle67"/>
	<circle cx="507.066" cy="996" r="4" fill="#0" id="circle68"/>
	<circle cx="509.892" cy="18.1311" r="4" fill="#0" id="circle69"/>
	<circle cx="535.328" cy="4" r="4" fill="#0" id="circle70"/>
	<circle cx="535.328" cy="996" r="4" fill="#0" id="circle71"/>
	<circle cx="563.59" cy="6.82621" r="4" fill="#0" id="circle72"/>
	<circle cx="563.59" cy="984.695" r="4" fill="#0" id="circle73"/>
	<circle cx="591.852" cy="18.1311" r="4" fill="#0" id="circle74"/>
	<circle cx="591.852" cy="973.39" r="4" fill="#0" id="circle75"/>
	<circle cx="605.983" cy="930.997" r="4" fill="#0" id="circle76"/>
	<circle cx="611.635" cy="40.7407" r="4" fill="#0" id="circle77"/>
	<circle cx="611.635" cy="69.0028" r="4" fill="#0" id="circle78"/>
	<circle cx="611.635" cy="902.735" r="4" fill="#0" id="circle79"/>
	<circle cx="617.288" cy="97.265" r="4" fill="#0" id="circle80"/>
	<circle cx="617.288" cy="795.339" r="4" fill="#0" id="circle81"/>
	<circle cx="617.288" cy="823.601" r="4" fill="#0" id="circle82"/>
	<circle cx="617.288" cy="851.863" r="4" fill="#0" id="circle83"/>
	<circle cx="622.94" cy="388.365" r="4" fill="#0" id="circle84"/>
	<circle cx="628.593" cy="416.627" r="4" fill="#0" id="circle85"/>
	<circle cx="628.593" cy="608.809" r="4" fill="#0" id="circle86"/>
	<circle cx="628.593" cy="637.071" r="4" fill="#0" id="circle87"/>
	<circle cx="628.593" cy="665.333" r="4" fill="#0" id="circle88"/>
	<circle cx="634.245" cy="557.937" r="4" fill="#0" id="circle89"/>
	<circle cx="634.245" cy="693.595" r="4" fill="#0" id="circle90"/>
	<circle cx="634.245" cy="721.858" r="4" fill="#0" id="circle91"/>
	<circle cx="634.245" cy="750.12" r="4" fill="#0" id="circle92"/>
	<circle cx="637.071" cy="362.929" r="4" fill="#0" id="circle93"/>
	<circle cx="637.071" cy="444.889" r="4" fill="#0" id="circle94"/>
	<circle cx="639.897" cy="117.048" r="4" fill="#0" id="circle95"/>
	<circle cx="645.55" cy="473.151" r="4" fill="#0" id="circle96"/>
	<circle cx="645.55" cy="529.675" r="4" fill="#0" id="circle97"/>
	<circle cx="651.202" cy="337.493" r="4" fill="#0" id="circle98"/>
	<circle cx="651.202" cy="501.413" r="4" fill="#0" id="circle99"/>
	<circle cx="654.028" cy="142.484" r="4" fill="#0" id="circle100"/>
	<circle cx="662.507" cy="170.746" r="4" fill="#0" id="circle101"/>
	<circle cx="665.333" cy="312.057" r="4" fill="#0" id="circle102"/>
	<circle cx="673.812" cy="199.009" r="4" fill="#0" id="circle103"/>
	<circle cx="673.812" cy="227.271" r="4" fill="#0" id="circle104"/>
	<circle cx="673.812" cy="269.664" r="4" fill="#0" id="circle105"/>
	</g>
</svg>