<?xml version="1.0" encoding="UTF-8" standalone="no"?>
<!-- Created with CurveBenchmark -->
<svg
	xmlns:dc="http://purl.org/dc/elements/1.1/"
	xmlns:cc="http://creativecommons.org/ns#"
	xmlns:rdf="http://www.w3.org/1999/02/22-rdf-syntax-ns#"
	xmlns:svg="http://www.w3.org/2000/svg"
	xmlns="http://www.w3.org/2000/svg"
	xmlns:sodipodi="http://sodipodi.sourceforge.net/DTD/sodipodi-0.dtd"
	xmlns:inkscape="http://www.inkscape.org/namespaces/inkscape"
	width="1000"
	height="1000"
	id="svg2"
	version="1.1"
	sodipodi:docname="manifold/gathan1-bird180.png.txt">
<defs
	id="defs4" />
<metadata
	id="metadata7">
	<rdf:RDF>
		<cc:Work
			rdf:about="">
			<dc:format>image/svg+xml</dc:format>
			<dc:type
				rdf:resource="http://purl.org/dc/dcmitype/StillImage" />
			<dc:title></dc:title>
		</cc:Work>
	</rdf:RDF>
</metadata>
<g
	inkscape:label="Layer 1"
	inkscape:groupmode="layer"
	id="layer1">
	<path style="fill:none;stroke:red;stroke-width:1px;stroke-linecap:butt;stroke-linejoin:miter;stroke-opacity:1" d="M 76.1455,155.505 90.5745,119.433 z" id="boundary" inkscape:connector-curvature="0" />
	<path style="fill:none;stroke:red;stroke-width:1px;stroke-linecap:butt;stroke-linejoin:miter;stroke-opacity:1" d="M 76.1455,155.505 54.5018,184.364 z" id="boundary" inkscape:connector-curvature="0" />
	<path style="fill:none;stroke:red;stroke-width:1px;stroke-linecap:butt;stroke-linejoin:miter;stroke-opacity:1" d="M 90.5745,119.433 112.218,90.5745 z" id="boundary" inkscape:connector-curvature="0" />
	<path style="fill:none;stroke:red;stroke-width:1px;stroke-linecap:butt;stroke-linejoin:miter;stroke-opacity:1" d="M 112.218,90.5745 148.291,76.1455 z" id="boundary" inkscape:connector-curvature="0" />
	<path style="fill:none;stroke:red;stroke-width:1px;stroke-linecap:butt;stroke-linejoin:miter;stroke-opacity:1" d="M 184.364,76.1455 148.291,76.1455 z" id="boundary" inkscape:connector-curvature="0" />
	<path style="fill:none;stroke:red;stroke-width:1px;stroke-linecap:butt;stroke-linejoin:miter;stroke-opacity:1" d="M 220.436,76.1455 184.364,76.1455 z" id="boundary" inkscape:connector-curvature="0" />
	<path style="fill:none;stroke:red;stroke-width:1px;stroke-linecap:butt;stroke-linejoin:miter;stroke-opacity:1" d="M 25.6436,220.436 54.5018,184.364 z" id="boundary" inkscape:connector-curvature="0" />
	<path style="fill:none;stroke:red;stroke-width:1px;stroke-linecap:butt;stroke-linejoin:miter;stroke-opacity:1" d="M 126.647,202.4 94.1818,220.436 z" id="boundary" inkscape:connector-curvature="0" />
	<path style="fill:none;stroke:red;stroke-width:1px;stroke-linecap:butt;stroke-linejoin:miter;stroke-opacity:1" d="M 195.185,169.935 231.258,166.327 z" id="boundary" inkscape:connector-curvature="0" />
	<path style="fill:none;stroke:red;stroke-width:1px;stroke-linecap:butt;stroke-linejoin:miter;stroke-opacity:1" d="M 126.647,202.4 162.72,187.971 z" id="boundary" inkscape:connector-curvature="0" />
	<path style="fill:none;stroke:red;stroke-width:1px;stroke-linecap:butt;stroke-linejoin:miter;stroke-opacity:1" d="M 162.72,187.971 195.185,169.935 z" id="boundary" inkscape:connector-curvature="0" />
	<path style="fill:none;stroke:red;stroke-width:1px;stroke-linecap:butt;stroke-linejoin:miter;stroke-opacity:1" d="M 234.865,213.222 227.651,256.509 z" id="boundary" inkscape:connector-curvature="0" />
	<path style="fill:none;stroke:red;stroke-width:1px;stroke-linecap:butt;stroke-linejoin:miter;stroke-opacity:1" d="M 220.436,76.1455 256.509,83.36 z" id="boundary" inkscape:connector-curvature="0" />
	<path style="fill:none;stroke:red;stroke-width:1px;stroke-linecap:butt;stroke-linejoin:miter;stroke-opacity:1" d="M 25.6436,220.436 4,249.295 z" id="boundary" inkscape:connector-curvature="0" />
	<path style="fill:none;stroke:red;stroke-width:1px;stroke-linecap:butt;stroke-linejoin:miter;stroke-opacity:1" d="M 361.12,79.7527 389.978,50.8945 z" id="boundary" inkscape:connector-curvature="0" />
	<path style="fill:none;stroke:red;stroke-width:1px;stroke-linecap:butt;stroke-linejoin:miter;stroke-opacity:1" d="M 389.978,50.8945 422.444,32.8582 z" id="boundary" inkscape:connector-curvature="0" />
	<path style="fill:none;stroke:red;stroke-width:1px;stroke-linecap:butt;stroke-linejoin:miter;stroke-opacity:1" d="M 422.444,32.8582 458.516,18.4291 z" id="boundary" inkscape:connector-curvature="0" />
	<path style="fill:none;stroke:red;stroke-width:1px;stroke-linecap:butt;stroke-linejoin:miter;stroke-opacity:1" d="M 494.589,11.2145 458.516,18.4291 z" id="boundary" inkscape:connector-curvature="0" />
	<path style="fill:none;stroke:red;stroke-width:1px;stroke-linecap:butt;stroke-linejoin:miter;stroke-opacity:1" d="M 530.662,4 494.589,11.2145 z" id="boundary" inkscape:connector-curvature="0" />
	<path style="fill:none;stroke:red;stroke-width:1px;stroke-linecap:butt;stroke-linejoin:miter;stroke-opacity:1" d="M 472.945,231.258 444.087,209.615 z" id="boundary" inkscape:connector-curvature="0" />
	<path style="fill:none;stroke:red;stroke-width:1px;stroke-linecap:butt;stroke-linejoin:miter;stroke-opacity:1" d="M 285.367,108.611 307.011,137.469 z" id="boundary" inkscape:connector-curvature="0" />
	<path style="fill:none;stroke:red;stroke-width:1px;stroke-linecap:butt;stroke-linejoin:miter;stroke-opacity:1" d="M 285.367,108.611 256.509,83.36 z" id="boundary" inkscape:connector-curvature="0" />
	<path style="fill:none;stroke:red;stroke-width:1px;stroke-linecap:butt;stroke-linejoin:miter;stroke-opacity:1" d="M 307.011,137.469 310.618,173.542 z" id="boundary" inkscape:connector-curvature="0" />
	<path style="fill:none;stroke:red;stroke-width:1px;stroke-linecap:butt;stroke-linejoin:miter;stroke-opacity:1" d="M 408.015,209.615 389.978,242.08 z" id="boundary" inkscape:connector-curvature="0" />
	<path style="fill:none;stroke:red;stroke-width:1px;stroke-linecap:butt;stroke-linejoin:miter;stroke-opacity:1" d="M 343.084,112.218 361.12,79.7527 z" id="boundary" inkscape:connector-curvature="0" />
	<path style="fill:none;stroke:red;stroke-width:1px;stroke-linecap:butt;stroke-linejoin:miter;stroke-opacity:1" d="M 444.087,209.615 408.015,209.615 z" id="boundary" inkscape:connector-curvature="0" />
	<path style="fill:none;stroke:red;stroke-width:1px;stroke-linecap:butt;stroke-linejoin:miter;stroke-opacity:1" d="M 36.4655,267.331 4,249.295 z" id="boundary" inkscape:connector-curvature="0" />
	<path style="fill:none;stroke:red;stroke-width:1px;stroke-linecap:butt;stroke-linejoin:miter;stroke-opacity:1" d="M 65.3236,242.08 36.4655,267.331 z" id="boundary" inkscape:connector-curvature="0" />
	<path style="fill:none;stroke:red;stroke-width:1px;stroke-linecap:butt;stroke-linejoin:miter;stroke-opacity:1" d="M 389.978,242.08 382.764,285.367 z" id="boundary" inkscape:connector-curvature="0" />
	<path style="fill:none;stroke:red;stroke-width:1px;stroke-linecap:butt;stroke-linejoin:miter;stroke-opacity:1" d="M 65.3236,242.08 94.1818,220.436 z" id="boundary" inkscape:connector-curvature="0" />
	<path style="fill:none;stroke:red;stroke-width:1px;stroke-linecap:butt;stroke-linejoin:miter;stroke-opacity:1" d="M 227.651,256.509 234.865,292.582 z" id="boundary" inkscape:connector-curvature="0" />
	<path style="fill:none;stroke:red;stroke-width:1px;stroke-linecap:butt;stroke-linejoin:miter;stroke-opacity:1" d="M 288.975,339.476 256.509,321.44 z" id="boundary" inkscape:connector-curvature="0" />
	<path style="fill:none;stroke:red;stroke-width:1px;stroke-linecap:butt;stroke-linejoin:miter;stroke-opacity:1" d="M 256.509,321.44 234.865,292.582 z" id="boundary" inkscape:connector-curvature="0" />
	<path style="fill:none;stroke:red;stroke-width:1px;stroke-linecap:butt;stroke-linejoin:miter;stroke-opacity:1" d="M 325.047,343.084 361.12,328.655 z" id="boundary" inkscape:connector-curvature="0" />
	<path style="fill:none;stroke:red;stroke-width:1px;stroke-linecap:butt;stroke-linejoin:miter;stroke-opacity:1" d="M 382.764,285.367 361.12,328.655 z" id="boundary" inkscape:connector-curvature="0" />
	<path style="fill:none;stroke:red;stroke-width:1px;stroke-linecap:butt;stroke-linejoin:miter;stroke-opacity:1" d="M 288.975,339.476 325.047,343.084 z" id="boundary" inkscape:connector-curvature="0" />
	<path style="fill:none;stroke:red;stroke-width:1px;stroke-linecap:butt;stroke-linejoin:miter;stroke-opacity:1" d="M 501.804,256.509 523.447,285.367 z" id="boundary" inkscape:connector-curvature="0" />
	<path style="fill:none;stroke:red;stroke-width:1px;stroke-linecap:butt;stroke-linejoin:miter;stroke-opacity:1" d="M 501.804,256.509 472.945,231.258 z" id="boundary" inkscape:connector-curvature="0" />
	<path style="fill:none;stroke:red;stroke-width:1px;stroke-linecap:butt;stroke-linejoin:miter;stroke-opacity:1" d="M 523.447,285.367 530.662,321.44 z" id="boundary" inkscape:connector-curvature="0" />
	<path style="fill:none;stroke:red;stroke-width:1px;stroke-linecap:butt;stroke-linejoin:miter;stroke-opacity:1" d="M 537.876,357.513 541.484,393.585 z" id="boundary" inkscape:connector-curvature="0" />
	<path style="fill:none;stroke:red;stroke-width:1px;stroke-linecap:butt;stroke-linejoin:miter;stroke-opacity:1" d="M 537.876,357.513 530.662,321.44 z" id="boundary" inkscape:connector-curvature="0" />
	<path style="fill:none;stroke:red;stroke-width:1px;stroke-linecap:butt;stroke-linejoin:miter;stroke-opacity:1" d="M 552.305,429.658 541.484,393.585 z" id="boundary" inkscape:connector-curvature="0" />
	<path style="fill:none;stroke:red;stroke-width:1px;stroke-linecap:butt;stroke-linejoin:miter;stroke-opacity:1" d="M 501.804,916.64 465.731,916.64 z" id="boundary" inkscape:connector-curvature="0" />
	<path style="fill:none;stroke:red;stroke-width:1px;stroke-linecap:butt;stroke-linejoin:miter;stroke-opacity:1" d="M 436.873,891.389 483.767,884.175 z" id="boundary" inkscape:connector-curvature="0" />
	<path style="fill:none;stroke:red;stroke-width:1px;stroke-linecap:butt;stroke-linejoin:miter;stroke-opacity:1" d="M 465.731,916.64 436.873,891.389 z" id="boundary" inkscape:connector-curvature="0" />
	<path style="fill:none;stroke:red;stroke-width:1px;stroke-linecap:butt;stroke-linejoin:miter;stroke-opacity:1" d="M 483.767,884.175 519.84,884.175 z" id="boundary" inkscape:connector-curvature="0" />
	<path style="fill:none;stroke:red;stroke-width:1px;stroke-linecap:butt;stroke-linejoin:miter;stroke-opacity:1" d="M 501.804,916.64 537.876,920.247 z" id="boundary" inkscape:connector-curvature="0" />
	<path style="fill:none;stroke:red;stroke-width:1px;stroke-linecap:butt;stroke-linejoin:miter;stroke-opacity:1" d="M 552.305,855.316 519.84,884.175 z" id="boundary" inkscape:connector-curvature="0" />
	<path style="fill:none;stroke:red;stroke-width:1px;stroke-linecap:butt;stroke-linejoin:miter;stroke-opacity:1" d="M 552.305,429.658 559.52,465.731 z" id="boundary" inkscape:connector-curvature="0" />
	<path style="fill:none;stroke:red;stroke-width:1px;stroke-linecap:butt;stroke-linejoin:miter;stroke-opacity:1" d="M 573.949,923.855 537.876,920.247 z" id="boundary" inkscape:connector-curvature="0" />
	<path style="fill:none;stroke:red;stroke-width:1px;stroke-linecap:butt;stroke-linejoin:miter;stroke-opacity:1" d="M 559.52,812.029 552.305,855.316 z" id="boundary" inkscape:connector-curvature="0" />
	<path style="fill:none;stroke:red;stroke-width:1px;stroke-linecap:butt;stroke-linejoin:miter;stroke-opacity:1" d="M 530.662,4 566.735,4 z" id="boundary" inkscape:connector-curvature="0" />
	<path style="fill:none;stroke:red;stroke-width:1px;stroke-linecap:butt;stroke-linejoin:miter;stroke-opacity:1" d="M 602.807,7.60727 638.88,18.4291 z" id="boundary" inkscape:connector-curvature="0" />
	<path style="fill:none;stroke:red;stroke-width:1px;stroke-linecap:butt;stroke-linejoin:miter;stroke-opacity:1" d="M 638.88,18.4291 674.953,32.8582 z" id="boundary" inkscape:connector-curvature="0" />
	<path style="fill:none;stroke:red;stroke-width:1px;stroke-linecap:butt;stroke-linejoin:miter;stroke-opacity:1" d="M 674.953,32.8582 711.025,47.2873 z" id="boundary" inkscape:connector-curvature="0" />
	<path style="fill:none;stroke:red;stroke-width:1px;stroke-linecap:butt;stroke-linejoin:miter;stroke-opacity:1" d="M 711.025,47.2873 739.884,68.9309 z" id="boundary" inkscape:connector-curvature="0" />
	<path style="fill:none;stroke:red;stroke-width:1px;stroke-linecap:butt;stroke-linejoin:miter;stroke-opacity:1" d="M 628.058,393.585 620.844,357.513 z" id="boundary" inkscape:connector-curvature="0" />
	<path style="fill:none;stroke:red;stroke-width:1px;stroke-linecap:butt;stroke-linejoin:miter;stroke-opacity:1" d="M 620.844,357.513 620.844,321.44 z" id="boundary" inkscape:connector-curvature="0" />
	<path style="fill:none;stroke:red;stroke-width:1px;stroke-linecap:butt;stroke-linejoin:miter;stroke-opacity:1" d="M 620.844,321.44 656.916,332.262 z" id="boundary" inkscape:connector-curvature="0" />
	<path style="fill:none;stroke:red;stroke-width:1px;stroke-linecap:butt;stroke-linejoin:miter;stroke-opacity:1" d="M 628.058,393.585 628.058,429.658 z" id="boundary" inkscape:connector-curvature="0" />
	<path style="fill:none;stroke:red;stroke-width:1px;stroke-linecap:butt;stroke-linejoin:miter;stroke-opacity:1" d="M 692.989,339.476 725.455,357.513 z" id="boundary" inkscape:connector-curvature="0" />
	<path style="fill:none;stroke:red;stroke-width:1px;stroke-linecap:butt;stroke-linejoin:miter;stroke-opacity:1" d="M 761.527,368.335 725.455,357.513 z" id="boundary" inkscape:connector-curvature="0" />
	<path style="fill:none;stroke:red;stroke-width:1px;stroke-linecap:butt;stroke-linejoin:miter;stroke-opacity:1" d="M 656.916,332.262 692.989,339.476 z" id="boundary" inkscape:connector-curvature="0" />
	<path style="fill:none;stroke:red;stroke-width:1px;stroke-linecap:butt;stroke-linejoin:miter;stroke-opacity:1" d="M 739.884,68.9309 768.742,90.5745 z" id="boundary" inkscape:connector-curvature="0" />
	<path style="fill:none;stroke:red;stroke-width:1px;stroke-linecap:butt;stroke-linejoin:miter;stroke-opacity:1" d="M 768.742,90.5745 797.6,112.218 z" id="boundary" inkscape:connector-curvature="0" />
	<path style="fill:none;stroke:red;stroke-width:1px;stroke-linecap:butt;stroke-linejoin:miter;stroke-opacity:1" d="M 797.6,112.218 819.244,141.076 z" id="boundary" inkscape:connector-curvature="0" />
	<path style="fill:none;stroke:red;stroke-width:1px;stroke-linecap:butt;stroke-linejoin:miter;stroke-opacity:1" d="M 848.102,162.72 819.244,141.076 z" id="boundary" inkscape:connector-curvature="0" />
	<path style="fill:none;stroke:red;stroke-width:1px;stroke-linecap:butt;stroke-linejoin:miter;stroke-opacity:1" d="M 876.96,187.971 902.211,216.829 z" id="boundary" inkscape:connector-curvature="0" />
	<path style="fill:none;stroke:red;stroke-width:1px;stroke-linecap:butt;stroke-linejoin:miter;stroke-opacity:1" d="M 876.96,187.971 848.102,162.72 z" id="boundary" inkscape:connector-curvature="0" />
	<path style="fill:none;stroke:red;stroke-width:1px;stroke-linecap:butt;stroke-linejoin:miter;stroke-opacity:1" d="M 797.6,382.764 761.527,368.335 z" id="boundary" inkscape:connector-curvature="0" />
	<path style="fill:none;stroke:red;stroke-width:1px;stroke-linecap:butt;stroke-linejoin:miter;stroke-opacity:1" d="M 902.211,216.829 923.855,245.687 z" id="boundary" inkscape:connector-curvature="0" />
	<path style="fill:none;stroke:red;stroke-width:1px;stroke-linecap:butt;stroke-linejoin:miter;stroke-opacity:1" d="M 923.855,245.687 945.498,274.545 z" id="boundary" inkscape:connector-curvature="0" />
	<path style="fill:none;stroke:red;stroke-width:1px;stroke-linecap:butt;stroke-linejoin:miter;stroke-opacity:1" d="M 833.673,393.585 797.6,382.764 z" id="boundary" inkscape:connector-curvature="0" />
	<path style="fill:none;stroke:red;stroke-width:1px;stroke-linecap:butt;stroke-linejoin:miter;stroke-opacity:1" d="M 967.142,303.404 981.571,339.476 z" id="boundary" inkscape:connector-curvature="0" />
	<path style="fill:none;stroke:red;stroke-width:1px;stroke-linecap:butt;stroke-linejoin:miter;stroke-opacity:1" d="M 931.069,393.585 898.604,375.549 z" id="boundary" inkscape:connector-curvature="0" />
	<path style="fill:none;stroke:red;stroke-width:1px;stroke-linecap:butt;stroke-linejoin:miter;stroke-opacity:1" d="M 945.498,274.545 967.142,303.404 z" id="boundary" inkscape:connector-curvature="0" />
	<path style="fill:none;stroke:red;stroke-width:1px;stroke-linecap:butt;stroke-linejoin:miter;stroke-opacity:1" d="M 981.571,339.476 996,375.549 z" id="boundary" inkscape:connector-curvature="0" />
	<path style="fill:none;stroke:red;stroke-width:1px;stroke-linecap:butt;stroke-linejoin:miter;stroke-opacity:1" d="M 996,375.549 967.142,397.193 z" id="boundary" inkscape:connector-curvature="0" />
	<path style="fill:none;stroke:red;stroke-width:1px;stroke-linecap:butt;stroke-linejoin:miter;stroke-opacity:1" d="M 566.735,501.804 573.949,537.876 z" id="boundary" inkscape:connector-curvature="0" />
	<path style="fill:none;stroke:red;stroke-width:1px;stroke-linecap:butt;stroke-linejoin:miter;stroke-opacity:1" d="M 566.735,501.804 559.52,465.731 z" id="boundary" inkscape:connector-curvature="0" />
	<path style="fill:none;stroke:red;stroke-width:1px;stroke-linecap:butt;stroke-linejoin:miter;stroke-opacity:1" d="M 573.949,537.876 581.164,573.949 z" id="boundary" inkscape:connector-curvature="0" />
	<path style="fill:none;stroke:red;stroke-width:1px;stroke-linecap:butt;stroke-linejoin:miter;stroke-opacity:1" d="M 581.164,573.949 588.378,610.022 z" id="boundary" inkscape:connector-curvature="0" />
	<path style="fill:none;stroke:red;stroke-width:1px;stroke-linecap:butt;stroke-linejoin:miter;stroke-opacity:1" d="M 588.378,610.022 581.164,674.953 z" id="boundary" inkscape:connector-curvature="0" />
	<path style="fill:none;stroke:red;stroke-width:1px;stroke-linecap:butt;stroke-linejoin:miter;stroke-opacity:1" d="M 573.949,725.455 581.164,674.953 z" id="boundary" inkscape:connector-curvature="0" />
	<path style="fill:none;stroke:red;stroke-width:1px;stroke-linecap:butt;stroke-linejoin:miter;stroke-opacity:1" d="M 559.52,812.029 566.735,768.742 z" id="boundary" inkscape:connector-curvature="0" />
	<path style="fill:none;stroke:red;stroke-width:1px;stroke-linecap:butt;stroke-linejoin:miter;stroke-opacity:1" d="M 573.949,725.455 566.735,768.742 z" id="boundary" inkscape:connector-curvature="0" />
	<path style="fill:none;stroke:red;stroke-width:1px;stroke-linecap:butt;stroke-linejoin:miter;stroke-opacity:1" d="M 606.415,747.098 599.2,790.385 z" id="boundary" inkscape:connector-curvature="0" />
	<path style="fill:none;stroke:red;stroke-width:1px;stroke-linecap:butt;stroke-linejoin:miter;stroke-opacity:1" d="M 591.985,833.673 599.2,790.385 z" id="boundary" inkscape:connector-curvature="0" />
	<path style="fill:none;stroke:red;stroke-width:1px;stroke-linecap:butt;stroke-linejoin:miter;stroke-opacity:1" d="M 591.985,869.745 591.985,833.673 z" id="boundary" inkscape:connector-curvature="0" />
	<path style="fill:none;stroke:red;stroke-width:1px;stroke-linecap:butt;stroke-linejoin:miter;stroke-opacity:1" d="M 573.949,923.855 591.985,869.745 z" id="boundary" inkscape:connector-curvature="0" />
	<path style="fill:none;stroke:red;stroke-width:1px;stroke-linecap:butt;stroke-linejoin:miter;stroke-opacity:1" d="M 628.058,465.731 628.058,429.658 z" id="boundary" inkscape:connector-curvature="0" />
	<path style="fill:none;stroke:red;stroke-width:1px;stroke-linecap:butt;stroke-linejoin:miter;stroke-opacity:1" d="M 628.058,501.804 628.058,465.731 z" id="boundary" inkscape:connector-curvature="0" />
	<path style="fill:none;stroke:red;stroke-width:1px;stroke-linecap:butt;stroke-linejoin:miter;stroke-opacity:1" d="M 869.745,397.193 833.673,393.585 z" id="boundary" inkscape:connector-curvature="0" />
	<path style="fill:none;stroke:red;stroke-width:1px;stroke-linecap:butt;stroke-linejoin:miter;stroke-opacity:1" d="M 898.604,375.549 869.745,397.193 z" id="boundary" inkscape:connector-curvature="0" />
	<path style="fill:none;stroke:red;stroke-width:1px;stroke-linecap:butt;stroke-linejoin:miter;stroke-opacity:1" d="M 967.142,397.193 931.069,393.585 z" id="boundary" inkscape:connector-curvature="0" />
	<path style="fill:none;stroke:red;stroke-width:1px;stroke-linecap:butt;stroke-linejoin:miter;stroke-opacity:1" d="M 620.844,653.309 613.629,703.811 z" id="boundary" inkscape:connector-curvature="0" />
	<path style="fill:none;stroke:red;stroke-width:1px;stroke-linecap:butt;stroke-linejoin:miter;stroke-opacity:1" d="M 613.629,703.811 606.415,747.098 z" id="boundary" inkscape:connector-curvature="0" />
	<path style="fill:none;stroke:red;stroke-width:1px;stroke-linecap:butt;stroke-linejoin:miter;stroke-opacity:1" d="M 620.844,653.309 628.058,610.022 z" id="boundary" inkscape:connector-curvature="0" />
	<path style="fill:none;stroke:red;stroke-width:1px;stroke-linecap:butt;stroke-linejoin:miter;stroke-opacity:1" d="M 628.058,537.876 628.058,573.949 z" id="boundary" inkscape:connector-curvature="0" />
	<path style="fill:none;stroke:red;stroke-width:1px;stroke-linecap:butt;stroke-linejoin:miter;stroke-opacity:1" d="M 628.058,537.876 628.058,501.804 z" id="boundary" inkscape:connector-curvature="0" />
	<path style="fill:none;stroke:red;stroke-width:1px;stroke-linecap:butt;stroke-linejoin:miter;stroke-opacity:1" d="M 628.058,610.022 628.058,573.949 z" id="boundary" inkscape:connector-curvature="0" />
	<path style="fill:none;stroke:red;stroke-width:1px;stroke-linecap:butt;stroke-linejoin:miter;stroke-opacity:1" d="M 566.735,4 602.807,7.60727 z" id="boundary" inkscape:connector-curvature="0" />
	<circle cx="4" cy="249.295" r="4" fill="#0" id="circle0"/>
	<circle cx="25.6436" cy="220.436" r="4" fill="#0" id="circle1"/>
	<circle cx="36.4655" cy="267.331" r="4" fill="#0" id="circle2"/>
	<circle cx="54.5018" cy="184.364" r="4" fill="#0" id="circle3"/>
	<circle cx="65.3236" cy="242.08" r="4" fill="#0" id="circle4"/>
	<circle cx="76.1455" cy="155.505" r="4" fill="#0" id="circle5"/>
	<circle cx="90.5745" cy="119.433" r="4" fill="#0" id="circle6"/>
	<circle cx="94.1818" cy="220.436" r="4" fill="#0" id="circle7"/>
	<circle cx="112.218" cy="90.5745" r="4" fill="#0" id="circle8"/>
	<circle cx="126.647" cy="202.4" r="4" fill="#0" id="circle9"/>
	<circle cx="148.291" cy="76.1455" r="4" fill="#0" id="circle10"/>
	<circle cx="162.72" cy="187.971" r="4" fill="#0" id="circle11"/>
	<circle cx="184.364" cy="76.1455" r="4" fill="#0" id="circle12"/>
	<circle cx="195.185" cy="169.935" r="4" fill="#0" id="circle13"/>
	<circle cx="220.436" cy="76.1455" r="4" fill="#0" id="circle14"/>
	<circle cx="227.651" cy="256.509" r="4" fill="#0" id="circle15"/>
	<circle cx="231.258" cy="166.327" r="4" fill="#0" id="circle16"/>
	<circle cx="234.865" cy="213.222" r="4" fill="#0" id="circle17"/>
	<circle cx="234.865" cy="292.582" r="4" fill="#0" id="circle18"/>
	<circle cx="256.509" cy="83.36" r="4" fill="#0" id="circle19"/>
	<circle cx="256.509" cy="321.44" r="4" fill="#0" id="circle20"/>
	<circle cx="285.367" cy="108.611" r="4" fill="#0" id="circle21"/>
	<circle cx="288.975" cy="339.476" r="4" fill="#0" id="circle22"/>
	<circle cx="307.011" cy="137.469" r="4" fill="#0" id="circle23"/>
	<circle cx="310.618" cy="173.542" r="4" fill="#0" id="circle24"/>
	<circle cx="325.047" cy="343.084" r="4" fill="#0" id="circle25"/>
	<circle cx="343.084" cy="112.218" r="4" fill="#0" id="circle26"/>
	<circle cx="361.12" cy="79.7527" r="4" fill="#0" id="circle27"/>
	<circle cx="361.12" cy="328.655" r="4" fill="#0" id="circle28"/>
	<circle cx="382.764" cy="285.367" r="4" fill="#0" id="circle29"/>
	<circle cx="389.978" cy="50.8945" r="4" fill="#0" id="circle30"/>
	<circle cx="389.978" cy="242.08" r="4" fill="#0" id="circle31"/>
	<circle cx="408.015" cy="209.615" r="4" fill="#0" id="circle32"/>
	<circle cx="422.444" cy="32.8582" r="4" fill="#0" id="circle33"/>
	<circle cx="436.873" cy="891.389" r="4" fill="#0" id="circle34"/>
	<circle cx="444.087" cy="209.615" r="4" fill="#0" id="circle35"/>
	<circle cx="458.516" cy="18.4291" r="4" fill="#0" id="circle36"/>
	<circle cx="465.731" cy="916.64" r="4" fill="#0" id="circle37"/>
	<circle cx="472.945" cy="231.258" r="4" fill="#0" id="circle38"/>
	<circle cx="483.767" cy="884.175" r="4" fill="#0" id="circle39"/>
	<circle cx="494.589" cy="11.2145" r="4" fill="#0" id="circle40"/>
	<circle cx="501.804" cy="256.509" r="4" fill="#0" id="circle41"/>
	<circle cx="501.804" cy="916.64" r="4" fill="#0" id="circle42"/>
	<circle cx="519.84" cy="884.175" r="4" fill="#0" id="circle43"/>
	<circle cx="523.447" cy="285.367" r="4" fill="#0" id="circle44"/>
	<circle cx="530.662" cy="4" r="4" fill="#0" id="circle45"/>
	<circle cx="530.662" cy="321.44" r="4" fill="#0" id="circle46"/>
	<circle cx="537.876" cy="357.513" r="4" fill="#0" id="circle47"/>
	<circle cx="537.876" cy="920.247" r="4" fill="#0" id="circle48"/>
	<circle cx="541.484" cy="393.585" r="4" fill="#0" id="circle49"/>
	<circle cx="552.305" cy="429.658" r="4" fill="#0" id="circle50"/>
	<circle cx="552.305" cy="855.316" r="4" fill="#0" id="circle51"/>
	<circle cx="559.52" cy="465.731" r="4" fill="#0" id="circle52"/>
	<circle cx="559.52" cy="812.029" r="4" fill="#0" id="circle53"/>
	<circle cx="566.735" cy="4" r="4" fill="#0" id="circle54"/>
	<circle cx="566.735" cy="501.804" r="4" fill="#0" id="circle55"/>
	<circle cx="566.735" cy="768.742" r="4" fill="#0" id="circle56"/>
	<circle cx="573.949" cy="537.876" r="4" fill="#0" id="circle57"/>
	<circle cx="573.949" cy="725.455" r="4" fill="#0" id="circle58"/>
	<circle cx="573.949" cy="923.855" r="4" fill="#0" id="circle59"/>
	<circle cx="581.164" cy="573.949" r="4" fill="#0" id="circle60"/>
	<circle cx="581.164" cy="674.953" r="4" fill="#0" id="circle61"/>
	<circle cx="588.378" cy="610.022" r="4" fill="#0" id="circle62"/>
	<circle cx="591.985" cy="833.673" r="4" fill="#0" id="circle63"/>
	<circle cx="591.985" cy="869.745" r="4" fill="#0" id="circle64"/>
	<circle cx="599.2" cy="790.385" r="4" fill="#0" id="circle65"/>
	<circle cx="602.807" cy="7.60727" r="4" fill="#0" id="circle66"/>
	<circle cx="606.415" cy="747.098" r="4" fill="#0" id="circle67"/>
	<circle cx="613.629" cy="703.811" r="4" fill="#0" id="circle68"/>
	<circle cx="620.844" cy="321.44" r="4" fill="#0" id="circle69"/>
	<circle cx="620.844" cy="357.513" r="4" fill="#0" id="circle70"/>
	<circle cx="620.844" cy="653.309" r="4" fill="#0" id="circle71"/>
	<circle cx="628.058" cy="393.585" r="4" fill="#0" id="circle72"/>
	<circle cx="628.058" cy="429.658" r="4" fill="#0" id="circle73"/>
	<circle cx="628.058" cy="465.731" r="4" fill="#0" id="circle74"/>
	<circle cx="628.058" cy="501.804" r="4" fill="#0" id="circle75"/>
	<circle cx="628.058" cy="537.876" r="4" fill="#0" id="circle76"/>
	<circle cx="628.058" cy="573.949" r="4" fill="#0" id="circle77"/>
	<circle cx="628.058" cy="610.022" r="4" fill="#0" id="circle78"/>
	<circle cx="638.88" cy="18.4291" r="4" fill="#0" id="circle79"/>
	<circle cx="656.916" cy="332.262" r="4" fill="#0" id="circle80"/>
	<circle cx="674.953" cy="32.8582" r="4" fill="#0" id="circle81"/>
	<circle cx="692.989" cy="339.476" r="4" fill="#0" id="circle82"/>
	<circle cx="711.025" cy="47.2873" r="4" fill="#0" id="circle83"/>
	<circle cx="725.455" cy="357.513" r="4" fill="#0" id="circle84"/>
	<circle cx="739.884" cy="68.9309" r="4" fill="#0" id="circle85"/>
	<circle cx="761.527" cy="368.335" r="4" fill="#0" id="circle86"/>
	<circle cx="768.742" cy="90.5745" r="4" fill="#0" id="circle87"/>
	<circle cx="797.6" cy="112.218" r="4" fill="#0" id="circle88"/>
	<circle cx="797.6" cy="382.764" r="4" fill="#0" id="circle89"/>
	<circle cx="819.244" cy="141.076" r="4" fill="#0" id="circle90"/>
	<circle cx="833.673" cy="393.585" r="4" fill="#0" id="circle91"/>
	<circle cx="848.102" cy="162.72" r="4" fill="#0" id="circle92"/>
	<circle cx="869.745" cy="397.193" r="4" fill="#0" id="circle93"/>
	<circle cx="876.96" cy="187.971" r="4" fill="#0" id="circle94"/>
	<circle cx="898.604" cy="375.549" r="4" fill="#0" id="circle95"/>
	<circle cx="902.211" cy="216.829" r="4" fill="#0" id="circle96"/>
	<circle cx="923.855" cy="245.687" r="4" fill="#0" id="circle97"/>
	<circle cx="931.069" cy="393.585" r="4" fill="#0" id="circle98"/>
	<circle cx="945.498" cy="274.545" r="4" fill="#0" id="circle99"/>
	<circle cx="967.142" cy="303.404" r="4" fill="#0" id="circle100"/>
	<circle cx="967.142" cy="397.193" r="4" fill="#0" id="circle101"/>
	<circle cx="981.571" cy="339.476" r="4" fill="#0" id="circle102"/>
	<circle cx="996" cy="375.549" r="4" fill="#0" id="circle103"/>
	</g>
</svg>