<?xml version="1.0" encoding="UTF-8" standalone="no"?>
<!-- Created with CurveBenchmark -->
<svg
	xmlns:dc="http://purl.org/dc/elements/1.1/"
	xmlns:cc="http://creativecommons.org/ns#"
	xmlns:rdf="http://www.w3.org/1999/02/22-rdf-syntax-ns#"
	xmlns:svg="http://www.w3.org/2000/svg"
	xmlns="http://www.w3.org/2000/svg"
	xmlns:sodipodi="http://sodipodi.sourceforge.net/DTD/sodipodi-0.dtd"
	xmlns:inkscape="http://www.inkscape.org/namespaces/inkscape"
	width="1000"
	height="1000"
	id="svg2"
	version="1.1"
	sodipodi:docname="manifold/gathan1-textbox17.png.txt">
<defs
	id="defs4" />
<metadata
	id="metadata7">
	<rdf:RDF>
		<cc:Work
			rdf:about="">
			<dc:format>image/svg+xml</dc:format>
			<dc:type
				rdf:resource="http://purl.org/dc/dcmitype/StillImage" />
			<dc:title></dc:title>
		</cc:Work>
	</rdf:RDF>
</metadata>
<g
	inkscape:label="Layer 1"
	inkscape:groupmode="layer"
	id="layer1">
	<path style="fill:none;stroke:red;stroke-width:1px;stroke-linecap:butt;stroke-linejoin:miter;stroke-opacity:1" d="M 4,67.8915 4,51.078 z" id="boundary" inkscape:connector-curvature="0" />
	<path style="fill:none;stroke:red;stroke-width:1px;stroke-linecap:butt;stroke-linejoin:miter;stroke-opacity:1" d="M 4,84.7051 4,67.8915 z" id="boundary" inkscape:connector-curvature="0" />
	<path style="fill:none;stroke:red;stroke-width:1px;stroke-linecap:butt;stroke-linejoin:miter;stroke-opacity:1" d="M 4,118.332 4,101.519 z" id="boundary" inkscape:connector-curvature="0" />
	<path style="fill:none;stroke:red;stroke-width:1px;stroke-linecap:butt;stroke-linejoin:miter;stroke-opacity:1" d="M 4,135.146 4,118.332 z" id="boundary" inkscape:connector-curvature="0" />
	<path style="fill:none;stroke:red;stroke-width:1px;stroke-linecap:butt;stroke-linejoin:miter;stroke-opacity:1" d="M 4,101.519 4,84.7051 z" id="boundary" inkscape:connector-curvature="0" />
	<path style="fill:none;stroke:red;stroke-width:1px;stroke-linecap:butt;stroke-linejoin:miter;stroke-opacity:1" d="M 4,168.773 4,151.959 z" id="boundary" inkscape:connector-curvature="0" />
	<path style="fill:none;stroke:red;stroke-width:1px;stroke-linecap:butt;stroke-linejoin:miter;stroke-opacity:1" d="M 4,185.586 4,168.773 z" id="boundary" inkscape:connector-curvature="0" />
	<path style="fill:none;stroke:red;stroke-width:1px;stroke-linecap:butt;stroke-linejoin:miter;stroke-opacity:1" d="M 4,219.214 4,202.4 z" id="boundary" inkscape:connector-curvature="0" />
	<path style="fill:none;stroke:red;stroke-width:1px;stroke-linecap:butt;stroke-linejoin:miter;stroke-opacity:1" d="M 4,236.027 4,219.214 z" id="boundary" inkscape:connector-curvature="0" />
	<path style="fill:none;stroke:red;stroke-width:1px;stroke-linecap:butt;stroke-linejoin:miter;stroke-opacity:1" d="M 4,202.4 4,185.586 z" id="boundary" inkscape:connector-curvature="0" />
	<path style="fill:none;stroke:red;stroke-width:1px;stroke-linecap:butt;stroke-linejoin:miter;stroke-opacity:1" d="M 4,151.959 4,135.146 z" id="boundary" inkscape:connector-curvature="0" />
	<path style="fill:none;stroke:red;stroke-width:1px;stroke-linecap:butt;stroke-linejoin:miter;stroke-opacity:1" d="M 4,269.654 4,252.841 z" id="boundary" inkscape:connector-curvature="0" />
	<path style="fill:none;stroke:red;stroke-width:1px;stroke-linecap:butt;stroke-linejoin:miter;stroke-opacity:1" d="M 4,286.468 4,269.654 z" id="boundary" inkscape:connector-curvature="0" />
	<path style="fill:none;stroke:red;stroke-width:1px;stroke-linecap:butt;stroke-linejoin:miter;stroke-opacity:1" d="M 4,320.095 4,303.281 z" id="boundary" inkscape:connector-curvature="0" />
	<path style="fill:none;stroke:red;stroke-width:1px;stroke-linecap:butt;stroke-linejoin:miter;stroke-opacity:1" d="M 4,336.908 4,320.095 z" id="boundary" inkscape:connector-curvature="0" />
	<path style="fill:none;stroke:red;stroke-width:1px;stroke-linecap:butt;stroke-linejoin:miter;stroke-opacity:1" d="M 4,303.281 4,286.468 z" id="boundary" inkscape:connector-curvature="0" />
	<path style="fill:none;stroke:red;stroke-width:1px;stroke-linecap:butt;stroke-linejoin:miter;stroke-opacity:1" d="M 4,370.536 4,353.722 z" id="boundary" inkscape:connector-curvature="0" />
	<path style="fill:none;stroke:red;stroke-width:1px;stroke-linecap:butt;stroke-linejoin:miter;stroke-opacity:1" d="M 4,387.349 12.4068,402.481 z" id="boundary" inkscape:connector-curvature="0" />
	<path style="fill:none;stroke:red;stroke-width:1px;stroke-linecap:butt;stroke-linejoin:miter;stroke-opacity:1" d="M 12.4068,402.481 12.4068,419.295 z" id="boundary" inkscape:connector-curvature="0" />
	<path style="fill:none;stroke:red;stroke-width:1px;stroke-linecap:butt;stroke-linejoin:miter;stroke-opacity:1" d="M 4,387.349 4,370.536 z" id="boundary" inkscape:connector-curvature="0" />
	<path style="fill:none;stroke:red;stroke-width:1px;stroke-linecap:butt;stroke-linejoin:miter;stroke-opacity:1" d="M 12.4068,419.295 12.4068,436.108 z" id="boundary" inkscape:connector-curvature="0" />
	<path style="fill:none;stroke:red;stroke-width:1px;stroke-linecap:butt;stroke-linejoin:miter;stroke-opacity:1" d="M 12.4068,436.108 12.4068,452.922 z" id="boundary" inkscape:connector-curvature="0" />
	<path style="fill:none;stroke:red;stroke-width:1px;stroke-linecap:butt;stroke-linejoin:miter;stroke-opacity:1" d="M 4,353.722 4,336.908 z" id="boundary" inkscape:connector-curvature="0" />
	<path style="fill:none;stroke:red;stroke-width:1px;stroke-linecap:butt;stroke-linejoin:miter;stroke-opacity:1" d="M 4,252.841 4,236.027 z" id="boundary" inkscape:connector-curvature="0" />
	<path style="fill:none;stroke:red;stroke-width:1px;stroke-linecap:butt;stroke-linejoin:miter;stroke-opacity:1" d="M 4,51.078 4,34.2644 z" id="boundary" inkscape:connector-curvature="0" />
	<path style="fill:none;stroke:red;stroke-width:1px;stroke-linecap:butt;stroke-linejoin:miter;stroke-opacity:1" d="M 4,34.2644 20.8136,29.2203 z" id="boundary" inkscape:connector-curvature="0" />
	<path style="fill:none;stroke:red;stroke-width:1px;stroke-linecap:butt;stroke-linejoin:miter;stroke-opacity:1" d="M 37.6271,29.2203 20.8136,29.2203 z" id="boundary" inkscape:connector-curvature="0" />
	<path style="fill:none;stroke:red;stroke-width:1px;stroke-linecap:butt;stroke-linejoin:miter;stroke-opacity:1" d="M 239.39,29.2203 249.478,15.7695 z" id="boundary" inkscape:connector-curvature="0" />
	<path style="fill:none;stroke:red;stroke-width:1px;stroke-linecap:butt;stroke-linejoin:miter;stroke-opacity:1" d="M 249.478,15.7695 266.292,12.4068 z" id="boundary" inkscape:connector-curvature="0" />
	<path style="fill:none;stroke:red;stroke-width:1px;stroke-linecap:butt;stroke-linejoin:miter;stroke-opacity:1" d="M 88.0678,29.2203 71.2542,29.2203 z" id="boundary" inkscape:connector-curvature="0" />
	<path style="fill:none;stroke:red;stroke-width:1px;stroke-linecap:butt;stroke-linejoin:miter;stroke-opacity:1" d="M 54.4407,29.2203 71.2542,29.2203 z" id="boundary" inkscape:connector-curvature="0" />
	<path style="fill:none;stroke:red;stroke-width:1px;stroke-linecap:butt;stroke-linejoin:miter;stroke-opacity:1" d="M 54.4407,29.2203 37.6271,29.2203 z" id="boundary" inkscape:connector-curvature="0" />
	<path style="fill:none;stroke:red;stroke-width:1px;stroke-linecap:butt;stroke-linejoin:miter;stroke-opacity:1" d="M 266.292,12.4068 283.105,12.4068 z" id="boundary" inkscape:connector-curvature="0" />
	<path style="fill:none;stroke:red;stroke-width:1px;stroke-linecap:butt;stroke-linejoin:miter;stroke-opacity:1" d="M 299.919,12.4068 283.105,12.4068 z" id="boundary" inkscape:connector-curvature="0" />
	<path style="fill:none;stroke:red;stroke-width:1px;stroke-linecap:butt;stroke-linejoin:miter;stroke-opacity:1" d="M 316.732,12.4068 299.919,12.4068 z" id="boundary" inkscape:connector-curvature="0" />
	<path style="fill:none;stroke:red;stroke-width:1px;stroke-linecap:butt;stroke-linejoin:miter;stroke-opacity:1" d="M 316.732,12.4068 333.546,12.4068 z" id="boundary" inkscape:connector-curvature="0" />
	<path style="fill:none;stroke:red;stroke-width:1px;stroke-linecap:butt;stroke-linejoin:miter;stroke-opacity:1" d="M 350.359,12.4068 333.546,12.4068 z" id="boundary" inkscape:connector-curvature="0" />
	<path style="fill:none;stroke:red;stroke-width:1px;stroke-linecap:butt;stroke-linejoin:miter;stroke-opacity:1" d="M 367.173,12.4068 350.359,12.4068 z" id="boundary" inkscape:connector-curvature="0" />
	<path style="fill:none;stroke:red;stroke-width:1px;stroke-linecap:butt;stroke-linejoin:miter;stroke-opacity:1" d="M 104.881,29.2203 121.695,29.2203 z" id="boundary" inkscape:connector-curvature="0" />
	<path style="fill:none;stroke:red;stroke-width:1px;stroke-linecap:butt;stroke-linejoin:miter;stroke-opacity:1" d="M 104.881,29.2203 88.0678,29.2203 z" id="boundary" inkscape:connector-curvature="0" />
	<path style="fill:none;stroke:red;stroke-width:1px;stroke-linecap:butt;stroke-linejoin:miter;stroke-opacity:1" d="M 121.695,29.2203 138.508,29.2203 z" id="boundary" inkscape:connector-curvature="0" />
	<path style="fill:none;stroke:red;stroke-width:1px;stroke-linecap:butt;stroke-linejoin:miter;stroke-opacity:1" d="M 12.4068,452.922 12.4068,469.736 z" id="boundary" inkscape:connector-curvature="0" />
	<path style="fill:none;stroke:red;stroke-width:1px;stroke-linecap:butt;stroke-linejoin:miter;stroke-opacity:1" d="M 12.4068,469.736 12.4068,486.549 z" id="boundary" inkscape:connector-curvature="0" />
	<path style="fill:none;stroke:red;stroke-width:1px;stroke-linecap:butt;stroke-linejoin:miter;stroke-opacity:1" d="M 138.508,29.2203 155.322,29.2203 z" id="boundary" inkscape:connector-curvature="0" />
	<path style="fill:none;stroke:red;stroke-width:1px;stroke-linecap:butt;stroke-linejoin:miter;stroke-opacity:1" d="M 155.322,29.2203 172.136,29.2203 z" id="boundary" inkscape:connector-curvature="0" />
	<path style="fill:none;stroke:red;stroke-width:1px;stroke-linecap:butt;stroke-linejoin:miter;stroke-opacity:1" d="M 172.136,29.2203 188.949,29.2203 z" id="boundary" inkscape:connector-curvature="0" />
	<path style="fill:none;stroke:red;stroke-width:1px;stroke-linecap:butt;stroke-linejoin:miter;stroke-opacity:1" d="M 205.763,29.2203 222.576,29.2203 z" id="boundary" inkscape:connector-curvature="0" />
	<path style="fill:none;stroke:red;stroke-width:1px;stroke-linecap:butt;stroke-linejoin:miter;stroke-opacity:1" d="M 205.763,29.2203 188.949,29.2203 z" id="boundary" inkscape:connector-curvature="0" />
	<path style="fill:none;stroke:red;stroke-width:1px;stroke-linecap:butt;stroke-linejoin:miter;stroke-opacity:1" d="M 239.39,29.2203 222.576,29.2203 z" id="boundary" inkscape:connector-curvature="0" />
	<path style="fill:none;stroke:red;stroke-width:1px;stroke-linecap:butt;stroke-linejoin:miter;stroke-opacity:1" d="M 12.4068,486.549 12.4068,503.363 z" id="boundary" inkscape:connector-curvature="0" />
	<path style="fill:none;stroke:red;stroke-width:1px;stroke-linecap:butt;stroke-linejoin:miter;stroke-opacity:1" d="M 37.6271,518.495 20.8136,518.495 z" id="boundary" inkscape:connector-curvature="0" />
	<path style="fill:none;stroke:red;stroke-width:1px;stroke-linecap:butt;stroke-linejoin:miter;stroke-opacity:1" d="M 20.8136,518.495 12.4068,503.363 z" id="boundary" inkscape:connector-curvature="0" />
	<path style="fill:none;stroke:red;stroke-width:1px;stroke-linecap:butt;stroke-linejoin:miter;stroke-opacity:1" d="M 54.4407,518.495 71.2542,518.495 z" id="boundary" inkscape:connector-curvature="0" />
	<path style="fill:none;stroke:red;stroke-width:1px;stroke-linecap:butt;stroke-linejoin:miter;stroke-opacity:1" d="M 54.4407,518.495 37.6271,518.495 z" id="boundary" inkscape:connector-curvature="0" />
	<path style="fill:none;stroke:red;stroke-width:1px;stroke-linecap:butt;stroke-linejoin:miter;stroke-opacity:1" d="M 71.2542,518.495 88.0678,518.495 z" id="boundary" inkscape:connector-curvature="0" />
	<path style="fill:none;stroke:red;stroke-width:1px;stroke-linecap:butt;stroke-linejoin:miter;stroke-opacity:1" d="M 104.881,518.495 121.695,518.495 z" id="boundary" inkscape:connector-curvature="0" />
	<path style="fill:none;stroke:red;stroke-width:1px;stroke-linecap:butt;stroke-linejoin:miter;stroke-opacity:1" d="M 104.881,518.495 88.0678,518.495 z" id="boundary" inkscape:connector-curvature="0" />
	<path style="fill:none;stroke:red;stroke-width:1px;stroke-linecap:butt;stroke-linejoin:miter;stroke-opacity:1" d="M 121.695,518.495 138.508,518.495 z" id="boundary" inkscape:connector-curvature="0" />
	<path style="fill:none;stroke:red;stroke-width:1px;stroke-linecap:butt;stroke-linejoin:miter;stroke-opacity:1" d="M 138.508,518.495 148.597,531.946 z" id="boundary" inkscape:connector-curvature="0" />
	<path style="fill:none;stroke:red;stroke-width:1px;stroke-linecap:butt;stroke-linejoin:miter;stroke-opacity:1" d="M 148.597,531.946 163.729,540.353 z" id="boundary" inkscape:connector-curvature="0" />
	<path style="fill:none;stroke:red;stroke-width:1px;stroke-linecap:butt;stroke-linejoin:miter;stroke-opacity:1" d="M 163.729,540.353 172.136,555.485 z" id="boundary" inkscape:connector-curvature="0" />
	<path style="fill:none;stroke:red;stroke-width:1px;stroke-linecap:butt;stroke-linejoin:miter;stroke-opacity:1" d="M 172.136,555.485 172.136,572.298 z" id="boundary" inkscape:connector-curvature="0" />
	<path style="fill:none;stroke:red;stroke-width:1px;stroke-linecap:butt;stroke-linejoin:miter;stroke-opacity:1" d="M 188.949,577.342 188.949,594.156 z" id="boundary" inkscape:connector-curvature="0" />
	<path style="fill:none;stroke:red;stroke-width:1px;stroke-linecap:butt;stroke-linejoin:miter;stroke-opacity:1" d="M 188.949,594.156 188.949,610.969 z" id="boundary" inkscape:connector-curvature="0" />
	<path style="fill:none;stroke:red;stroke-width:1px;stroke-linecap:butt;stroke-linejoin:miter;stroke-opacity:1" d="M 188.949,610.969 197.356,626.102 z" id="boundary" inkscape:connector-curvature="0" />
	<path style="fill:none;stroke:red;stroke-width:1px;stroke-linecap:butt;stroke-linejoin:miter;stroke-opacity:1" d="M 197.356,626.102 200.719,642.915 z" id="boundary" inkscape:connector-curvature="0" />
	<path style="fill:none;stroke:red;stroke-width:1px;stroke-linecap:butt;stroke-linejoin:miter;stroke-opacity:1" d="M 200.719,642.915 205.763,659.729 z" id="boundary" inkscape:connector-curvature="0" />
	<path style="fill:none;stroke:red;stroke-width:1px;stroke-linecap:butt;stroke-linejoin:miter;stroke-opacity:1" d="M 205.763,659.729 219.214,669.817 z" id="boundary" inkscape:connector-curvature="0" />
	<path style="fill:none;stroke:red;stroke-width:1px;stroke-linecap:butt;stroke-linejoin:miter;stroke-opacity:1" d="M 219.214,669.817 222.576,686.631 z" id="boundary" inkscape:connector-curvature="0" />
	<path style="fill:none;stroke:red;stroke-width:1px;stroke-linecap:butt;stroke-linejoin:miter;stroke-opacity:1" d="M 222.576,686.631 227.62,703.444 z" id="boundary" inkscape:connector-curvature="0" />
	<path style="fill:none;stroke:red;stroke-width:1px;stroke-linecap:butt;stroke-linejoin:miter;stroke-opacity:1" d="M 227.62,703.444 242.753,711.851 z" id="boundary" inkscape:connector-curvature="0" />
	<path style="fill:none;stroke:red;stroke-width:1px;stroke-linecap:butt;stroke-linejoin:miter;stroke-opacity:1" d="M 242.753,711.851 247.797,728.664 z" id="boundary" inkscape:connector-curvature="0" />
	<path style="fill:none;stroke:red;stroke-width:1px;stroke-linecap:butt;stroke-linejoin:miter;stroke-opacity:1" d="M 256.203,743.797 247.797,728.664 z" id="boundary" inkscape:connector-curvature="0" />
	<path style="fill:none;stroke:red;stroke-width:1px;stroke-linecap:butt;stroke-linejoin:miter;stroke-opacity:1" d="M 256.203,743.797 259.566,760.61 z" id="boundary" inkscape:connector-curvature="0" />
	<path style="fill:none;stroke:red;stroke-width:1px;stroke-linecap:butt;stroke-linejoin:miter;stroke-opacity:1" d="M 358.766,526.902 358.766,543.715 z" id="boundary" inkscape:connector-curvature="0" />
	<path style="fill:none;stroke:red;stroke-width:1px;stroke-linecap:butt;stroke-linejoin:miter;stroke-opacity:1" d="M 358.766,560.529 358.766,543.715 z" id="boundary" inkscape:connector-curvature="0" />
	<path style="fill:none;stroke:red;stroke-width:1px;stroke-linecap:butt;stroke-linejoin:miter;stroke-opacity:1" d="M 259.566,760.61 273.017,770.698 z" id="boundary" inkscape:connector-curvature="0" />
	<path style="fill:none;stroke:red;stroke-width:1px;stroke-linecap:butt;stroke-linejoin:miter;stroke-opacity:1" d="M 273.017,770.698 278.061,787.512 z" id="boundary" inkscape:connector-curvature="0" />
	<path style="fill:none;stroke:red;stroke-width:1px;stroke-linecap:butt;stroke-linejoin:miter;stroke-opacity:1" d="M 278.061,787.512 281.424,804.325 z" id="boundary" inkscape:connector-curvature="0" />
	<path style="fill:none;stroke:red;stroke-width:1px;stroke-linecap:butt;stroke-linejoin:miter;stroke-opacity:1" d="M 358.766,560.529 358.766,577.342 z" id="boundary" inkscape:connector-curvature="0" />
	<path style="fill:none;stroke:red;stroke-width:1px;stroke-linecap:butt;stroke-linejoin:miter;stroke-opacity:1" d="M 358.766,510.088 358.766,526.902 z" id="boundary" inkscape:connector-curvature="0" />
	<path style="fill:none;stroke:red;stroke-width:1px;stroke-linecap:butt;stroke-linejoin:miter;stroke-opacity:1" d="M 358.766,577.342 358.766,594.156 z" id="boundary" inkscape:connector-curvature="0" />
	<path style="fill:none;stroke:red;stroke-width:1px;stroke-linecap:butt;stroke-linejoin:miter;stroke-opacity:1" d="M 358.766,610.969 358.766,594.156 z" id="boundary" inkscape:connector-curvature="0" />
	<path style="fill:none;stroke:red;stroke-width:1px;stroke-linecap:butt;stroke-linejoin:miter;stroke-opacity:1" d="M 358.766,627.783 358.766,644.597 z" id="boundary" inkscape:connector-curvature="0" />
	<path style="fill:none;stroke:red;stroke-width:1px;stroke-linecap:butt;stroke-linejoin:miter;stroke-opacity:1" d="M 358.766,627.783 358.766,610.969 z" id="boundary" inkscape:connector-curvature="0" />
	<path style="fill:none;stroke:red;stroke-width:1px;stroke-linecap:butt;stroke-linejoin:miter;stroke-opacity:1" d="M 367.173,659.729 358.766,644.597 z" id="boundary" inkscape:connector-curvature="0" />
	<path style="fill:none;stroke:red;stroke-width:1px;stroke-linecap:butt;stroke-linejoin:miter;stroke-opacity:1" d="M 358.766,510.088 375.58,510.088 z" id="boundary" inkscape:connector-curvature="0" />
	<path style="fill:none;stroke:red;stroke-width:1px;stroke-linecap:butt;stroke-linejoin:miter;stroke-opacity:1" d="M 281.424,804.325 296.556,812.732 z" id="boundary" inkscape:connector-curvature="0" />
	<path style="fill:none;stroke:red;stroke-width:1px;stroke-linecap:butt;stroke-linejoin:miter;stroke-opacity:1" d="M 296.556,812.732 298.237,829.546 z" id="boundary" inkscape:connector-curvature="0" />
	<path style="fill:none;stroke:red;stroke-width:1px;stroke-linecap:butt;stroke-linejoin:miter;stroke-opacity:1" d="M 303.281,846.359 298.237,829.546 z" id="boundary" inkscape:connector-curvature="0" />
	<path style="fill:none;stroke:red;stroke-width:1px;stroke-linecap:butt;stroke-linejoin:miter;stroke-opacity:1" d="M 321.776,871.58 306.644,863.173 z" id="boundary" inkscape:connector-curvature="0" />
	<path style="fill:none;stroke:red;stroke-width:1px;stroke-linecap:butt;stroke-linejoin:miter;stroke-opacity:1" d="M 306.644,863.173 303.281,846.359 z" id="boundary" inkscape:connector-curvature="0" />
	<path style="fill:none;stroke:red;stroke-width:1px;stroke-linecap:butt;stroke-linejoin:miter;stroke-opacity:1" d="M 321.776,871.58 323.458,888.393 z" id="boundary" inkscape:connector-curvature="0" />
	<path style="fill:none;stroke:red;stroke-width:1px;stroke-linecap:butt;stroke-linejoin:miter;stroke-opacity:1" d="M 323.458,888.393 331.864,903.525 z" id="boundary" inkscape:connector-curvature="0" />
	<path style="fill:none;stroke:red;stroke-width:1px;stroke-linecap:butt;stroke-linejoin:miter;stroke-opacity:1" d="M 331.864,903.525 335.227,920.339 z" id="boundary" inkscape:connector-curvature="0" />
	<path style="fill:none;stroke:red;stroke-width:1px;stroke-linecap:butt;stroke-linejoin:miter;stroke-opacity:1" d="M 348.678,930.427 335.227,920.339 z" id="boundary" inkscape:connector-curvature="0" />
	<path style="fill:none;stroke:red;stroke-width:1px;stroke-linecap:butt;stroke-linejoin:miter;stroke-opacity:1" d="M 353.722,947.241 357.085,964.054 z" id="boundary" inkscape:connector-curvature="0" />
	<path style="fill:none;stroke:red;stroke-width:1px;stroke-linecap:butt;stroke-linejoin:miter;stroke-opacity:1" d="M 353.722,947.241 348.678,930.427 z" id="boundary" inkscape:connector-curvature="0" />
	<path style="fill:none;stroke:red;stroke-width:1px;stroke-linecap:butt;stroke-linejoin:miter;stroke-opacity:1" d="M 365.492,979.186 357.085,964.054 z" id="boundary" inkscape:connector-curvature="0" />
	<path style="fill:none;stroke:red;stroke-width:1px;stroke-linecap:butt;stroke-linejoin:miter;stroke-opacity:1" d="M 367.173,659.729 367.173,676.542 z" id="boundary" inkscape:connector-curvature="0" />
	<path style="fill:none;stroke:red;stroke-width:1px;stroke-linecap:butt;stroke-linejoin:miter;stroke-opacity:1" d="M 365.492,979.186 368.854,996 z" id="boundary" inkscape:connector-curvature="0" />
	<path style="fill:none;stroke:red;stroke-width:1px;stroke-linecap:butt;stroke-linejoin:miter;stroke-opacity:1" d="M 619.376,4 636.19,4 z" id="boundary" inkscape:connector-curvature="0" />
	<path style="fill:none;stroke:red;stroke-width:1px;stroke-linecap:butt;stroke-linejoin:miter;stroke-opacity:1" d="M 602.563,7.36271 619.376,4 z" id="boundary" inkscape:connector-curvature="0" />
	<path style="fill:none;stroke:red;stroke-width:1px;stroke-linecap:butt;stroke-linejoin:miter;stroke-opacity:1" d="M 585.749,12.4068 602.563,7.36271 z" id="boundary" inkscape:connector-curvature="0" />
	<path style="fill:none;stroke:red;stroke-width:1px;stroke-linecap:butt;stroke-linejoin:miter;stroke-opacity:1" d="M 636.19,4 653.003,4 z" id="boundary" inkscape:connector-curvature="0" />
	<path style="fill:none;stroke:red;stroke-width:1px;stroke-linecap:butt;stroke-linejoin:miter;stroke-opacity:1" d="M 653.003,4 669.817,4 z" id="boundary" inkscape:connector-curvature="0" />
	<path style="fill:none;stroke:red;stroke-width:1px;stroke-linecap:butt;stroke-linejoin:miter;stroke-opacity:1" d="M 669.817,4 686.631,4 z" id="boundary" inkscape:connector-curvature="0" />
	<path style="fill:none;stroke:red;stroke-width:1px;stroke-linecap:butt;stroke-linejoin:miter;stroke-opacity:1" d="M 686.631,4 703.444,4 z" id="boundary" inkscape:connector-curvature="0" />
	<path style="fill:none;stroke:red;stroke-width:1px;stroke-linecap:butt;stroke-linejoin:miter;stroke-opacity:1" d="M 720.258,4 737.071,4 z" id="boundary" inkscape:connector-curvature="0" />
	<path style="fill:none;stroke:red;stroke-width:1px;stroke-linecap:butt;stroke-linejoin:miter;stroke-opacity:1" d="M 737.071,4 753.885,4 z" id="boundary" inkscape:connector-curvature="0" />
	<path style="fill:none;stroke:red;stroke-width:1px;stroke-linecap:butt;stroke-linejoin:miter;stroke-opacity:1" d="M 703.444,4 720.258,4 z" id="boundary" inkscape:connector-curvature="0" />
	<path style="fill:none;stroke:red;stroke-width:1px;stroke-linecap:butt;stroke-linejoin:miter;stroke-opacity:1" d="M 753.885,4 770.698,4 z" id="boundary" inkscape:connector-curvature="0" />
	<path style="fill:none;stroke:red;stroke-width:1px;stroke-linecap:butt;stroke-linejoin:miter;stroke-opacity:1" d="M 383.986,12.4068 400.8,12.4068 z" id="boundary" inkscape:connector-curvature="0" />
	<path style="fill:none;stroke:red;stroke-width:1px;stroke-linecap:butt;stroke-linejoin:miter;stroke-opacity:1" d="M 417.614,12.4068 400.8,12.4068 z" id="boundary" inkscape:connector-curvature="0" />
	<path style="fill:none;stroke:red;stroke-width:1px;stroke-linecap:butt;stroke-linejoin:miter;stroke-opacity:1" d="M 434.427,12.4068 451.241,12.4068 z" id="boundary" inkscape:connector-curvature="0" />
	<path style="fill:none;stroke:red;stroke-width:1px;stroke-linecap:butt;stroke-linejoin:miter;stroke-opacity:1" d="M 468.054,12.4068 451.241,12.4068 z" id="boundary" inkscape:connector-curvature="0" />
	<path style="fill:none;stroke:red;stroke-width:1px;stroke-linecap:butt;stroke-linejoin:miter;stroke-opacity:1" d="M 434.427,12.4068 417.614,12.4068 z" id="boundary" inkscape:connector-curvature="0" />
	<path style="fill:none;stroke:red;stroke-width:1px;stroke-linecap:butt;stroke-linejoin:miter;stroke-opacity:1" d="M 484.868,12.4068 501.681,12.4068 z" id="boundary" inkscape:connector-curvature="0" />
	<path style="fill:none;stroke:red;stroke-width:1px;stroke-linecap:butt;stroke-linejoin:miter;stroke-opacity:1" d="M 518.495,12.4068 501.681,12.4068 z" id="boundary" inkscape:connector-curvature="0" />
	<path style="fill:none;stroke:red;stroke-width:1px;stroke-linecap:butt;stroke-linejoin:miter;stroke-opacity:1" d="M 535.308,12.4068 552.122,12.4068 z" id="boundary" inkscape:connector-curvature="0" />
	<path style="fill:none;stroke:red;stroke-width:1px;stroke-linecap:butt;stroke-linejoin:miter;stroke-opacity:1" d="M 568.936,12.4068 585.749,12.4068 z" id="boundary" inkscape:connector-curvature="0" />
	<path style="fill:none;stroke:red;stroke-width:1px;stroke-linecap:butt;stroke-linejoin:miter;stroke-opacity:1" d="M 568.936,12.4068 552.122,12.4068 z" id="boundary" inkscape:connector-curvature="0" />
	<path style="fill:none;stroke:red;stroke-width:1px;stroke-linecap:butt;stroke-linejoin:miter;stroke-opacity:1" d="M 535.308,12.4068 518.495,12.4068 z" id="boundary" inkscape:connector-curvature="0" />
	<path style="fill:none;stroke:red;stroke-width:1px;stroke-linecap:butt;stroke-linejoin:miter;stroke-opacity:1" d="M 484.868,12.4068 468.054,12.4068 z" id="boundary" inkscape:connector-curvature="0" />
	<path style="fill:none;stroke:red;stroke-width:1px;stroke-linecap:butt;stroke-linejoin:miter;stroke-opacity:1" d="M 770.698,4 787.512,4 z" id="boundary" inkscape:connector-curvature="0" />
	<path style="fill:none;stroke:red;stroke-width:1px;stroke-linecap:butt;stroke-linejoin:miter;stroke-opacity:1" d="M 383.986,12.4068 367.173,12.4068 z" id="boundary" inkscape:connector-curvature="0" />
	<path style="fill:none;stroke:red;stroke-width:1px;stroke-linecap:butt;stroke-linejoin:miter;stroke-opacity:1" d="M 812.732,19.1322 812.732,35.9458 z" id="boundary" inkscape:connector-curvature="0" />
	<path style="fill:none;stroke:red;stroke-width:1px;stroke-linecap:butt;stroke-linejoin:miter;stroke-opacity:1" d="M 812.732,35.9458 812.732,52.7593 z" id="boundary" inkscape:connector-curvature="0" />
	<path style="fill:none;stroke:red;stroke-width:1px;stroke-linecap:butt;stroke-linejoin:miter;stroke-opacity:1" d="M 812.732,52.7593 812.732,69.5729 z" id="boundary" inkscape:connector-curvature="0" />
	<path style="fill:none;stroke:red;stroke-width:1px;stroke-linecap:butt;stroke-linejoin:miter;stroke-opacity:1" d="M 812.732,86.3864 812.732,69.5729 z" id="boundary" inkscape:connector-curvature="0" />
	<path style="fill:none;stroke:red;stroke-width:1px;stroke-linecap:butt;stroke-linejoin:miter;stroke-opacity:1" d="M 812.732,86.3864 812.732,103.2 z" id="boundary" inkscape:connector-curvature="0" />
	<path style="fill:none;stroke:red;stroke-width:1px;stroke-linecap:butt;stroke-linejoin:miter;stroke-opacity:1" d="M 812.732,103.2 812.732,120.014 z" id="boundary" inkscape:connector-curvature="0" />
	<path style="fill:none;stroke:red;stroke-width:1px;stroke-linecap:butt;stroke-linejoin:miter;stroke-opacity:1" d="M 812.732,136.827 812.732,120.014 z" id="boundary" inkscape:connector-curvature="0" />
	<path style="fill:none;stroke:red;stroke-width:1px;stroke-linecap:butt;stroke-linejoin:miter;stroke-opacity:1" d="M 812.732,153.641 812.732,170.454 z" id="boundary" inkscape:connector-curvature="0" />
	<path style="fill:none;stroke:red;stroke-width:1px;stroke-linecap:butt;stroke-linejoin:miter;stroke-opacity:1" d="M 812.732,187.268 812.732,204.081 z" id="boundary" inkscape:connector-curvature="0" />
	<path style="fill:none;stroke:red;stroke-width:1px;stroke-linecap:butt;stroke-linejoin:miter;stroke-opacity:1" d="M 812.732,187.268 812.732,170.454 z" id="boundary" inkscape:connector-curvature="0" />
	<path style="fill:none;stroke:red;stroke-width:1px;stroke-linecap:butt;stroke-linejoin:miter;stroke-opacity:1" d="M 812.732,153.641 812.732,136.827 z" id="boundary" inkscape:connector-curvature="0" />
	<path style="fill:none;stroke:red;stroke-width:1px;stroke-linecap:butt;stroke-linejoin:miter;stroke-opacity:1" d="M 812.732,204.081 812.732,220.895 z" id="boundary" inkscape:connector-curvature="0" />
	<path style="fill:none;stroke:red;stroke-width:1px;stroke-linecap:butt;stroke-linejoin:miter;stroke-opacity:1" d="M 812.732,220.895 812.732,237.708 z" id="boundary" inkscape:connector-curvature="0" />
	<path style="fill:none;stroke:red;stroke-width:1px;stroke-linecap:butt;stroke-linejoin:miter;stroke-opacity:1" d="M 812.732,254.522 812.732,237.708 z" id="boundary" inkscape:connector-curvature="0" />
	<path style="fill:none;stroke:red;stroke-width:1px;stroke-linecap:butt;stroke-linejoin:miter;stroke-opacity:1" d="M 821.139,303.281 812.732,288.149 z" id="boundary" inkscape:connector-curvature="0" />
	<path style="fill:none;stroke:red;stroke-width:1px;stroke-linecap:butt;stroke-linejoin:miter;stroke-opacity:1" d="M 812.732,288.149 812.732,271.336 z" id="boundary" inkscape:connector-curvature="0" />
	<path style="fill:none;stroke:red;stroke-width:1px;stroke-linecap:butt;stroke-linejoin:miter;stroke-opacity:1" d="M 812.732,271.336 812.732,254.522 z" id="boundary" inkscape:connector-curvature="0" />
	<path style="fill:none;stroke:red;stroke-width:1px;stroke-linecap:butt;stroke-linejoin:miter;stroke-opacity:1" d="M 821.139,303.281 821.139,320.095 z" id="boundary" inkscape:connector-curvature="0" />
	<path style="fill:none;stroke:red;stroke-width:1px;stroke-linecap:butt;stroke-linejoin:miter;stroke-opacity:1" d="M 821.139,320.095 821.139,336.908 z" id="boundary" inkscape:connector-curvature="0" />
	<path style="fill:none;stroke:red;stroke-width:1px;stroke-linecap:butt;stroke-linejoin:miter;stroke-opacity:1" d="M 821.139,353.722 821.139,370.536 z" id="boundary" inkscape:connector-curvature="0" />
	<path style="fill:none;stroke:red;stroke-width:1px;stroke-linecap:butt;stroke-linejoin:miter;stroke-opacity:1" d="M 821.139,387.349 821.139,404.163 z" id="boundary" inkscape:connector-curvature="0" />
	<path style="fill:none;stroke:red;stroke-width:1px;stroke-linecap:butt;stroke-linejoin:miter;stroke-opacity:1" d="M 821.139,370.536 821.139,387.349 z" id="boundary" inkscape:connector-curvature="0" />
	<path style="fill:none;stroke:red;stroke-width:1px;stroke-linecap:butt;stroke-linejoin:miter;stroke-opacity:1" d="M 821.139,336.908 821.139,353.722 z" id="boundary" inkscape:connector-curvature="0" />
	<path style="fill:none;stroke:red;stroke-width:1px;stroke-linecap:butt;stroke-linejoin:miter;stroke-opacity:1" d="M 787.512,4 804.325,4 z" id="boundary" inkscape:connector-curvature="0" />
	<path style="fill:none;stroke:red;stroke-width:1px;stroke-linecap:butt;stroke-linejoin:miter;stroke-opacity:1" d="M 804.325,4 812.732,19.1322 z" id="boundary" inkscape:connector-curvature="0" />
	<path style="fill:none;stroke:red;stroke-width:1px;stroke-linecap:butt;stroke-linejoin:miter;stroke-opacity:1" d="M 821.139,404.163 821.139,420.976 z" id="boundary" inkscape:connector-curvature="0" />
	<path style="fill:none;stroke:red;stroke-width:1px;stroke-linecap:butt;stroke-linejoin:miter;stroke-opacity:1" d="M 375.58,510.088 392.393,510.088 z" id="boundary" inkscape:connector-curvature="0" />
	<path style="fill:none;stroke:red;stroke-width:1px;stroke-linecap:butt;stroke-linejoin:miter;stroke-opacity:1" d="M 367.173,710.169 367.173,693.356 z" id="boundary" inkscape:connector-curvature="0" />
	<path style="fill:none;stroke:red;stroke-width:1px;stroke-linecap:butt;stroke-linejoin:miter;stroke-opacity:1" d="M 367.173,676.542 367.173,693.356 z" id="boundary" inkscape:connector-curvature="0" />
	<path style="fill:none;stroke:red;stroke-width:1px;stroke-linecap:butt;stroke-linejoin:miter;stroke-opacity:1" d="M 367.173,710.169 367.173,726.983 z" id="boundary" inkscape:connector-curvature="0" />
	<path style="fill:none;stroke:red;stroke-width:1px;stroke-linecap:butt;stroke-linejoin:miter;stroke-opacity:1" d="M 380.624,753.885 367.173,743.797 z" id="boundary" inkscape:connector-curvature="0" />
	<path style="fill:none;stroke:red;stroke-width:1px;stroke-linecap:butt;stroke-linejoin:miter;stroke-opacity:1" d="M 367.173,743.797 367.173,726.983 z" id="boundary" inkscape:connector-curvature="0" />
	<path style="fill:none;stroke:red;stroke-width:1px;stroke-linecap:butt;stroke-linejoin:miter;stroke-opacity:1" d="M 392.393,510.088 409.207,510.088 z" id="boundary" inkscape:connector-curvature="0" />
	<path style="fill:none;stroke:red;stroke-width:1px;stroke-linecap:butt;stroke-linejoin:miter;stroke-opacity:1" d="M 426.02,510.088 442.834,510.088 z" id="boundary" inkscape:connector-curvature="0" />
	<path style="fill:none;stroke:red;stroke-width:1px;stroke-linecap:butt;stroke-linejoin:miter;stroke-opacity:1" d="M 426.02,510.088 409.207,510.088 z" id="boundary" inkscape:connector-curvature="0" />
	<path style="fill:none;stroke:red;stroke-width:1px;stroke-linecap:butt;stroke-linejoin:miter;stroke-opacity:1" d="M 442.834,510.088 459.647,510.088 z" id="boundary" inkscape:connector-curvature="0" />
	<path style="fill:none;stroke:red;stroke-width:1px;stroke-linecap:butt;stroke-linejoin:miter;stroke-opacity:1" d="M 383.986,770.698 380.624,753.885 z" id="boundary" inkscape:connector-curvature="0" />
	<path style="fill:none;stroke:red;stroke-width:1px;stroke-linecap:butt;stroke-linejoin:miter;stroke-opacity:1" d="M 383.986,787.512 383.986,770.698 z" id="boundary" inkscape:connector-curvature="0" />
	<path style="fill:none;stroke:red;stroke-width:1px;stroke-linecap:butt;stroke-linejoin:miter;stroke-opacity:1" d="M 383.986,804.325 383.986,821.139 z" id="boundary" inkscape:connector-curvature="0" />
	<path style="fill:none;stroke:red;stroke-width:1px;stroke-linecap:butt;stroke-linejoin:miter;stroke-opacity:1" d="M 383.986,804.325 383.986,787.512 z" id="boundary" inkscape:connector-curvature="0" />
	<path style="fill:none;stroke:red;stroke-width:1px;stroke-linecap:butt;stroke-linejoin:miter;stroke-opacity:1" d="M 383.986,821.139 383.986,837.953 z" id="boundary" inkscape:connector-curvature="0" />
	<path style="fill:none;stroke:red;stroke-width:1px;stroke-linecap:butt;stroke-linejoin:miter;stroke-opacity:1" d="M 383.986,854.766 383.986,871.58 z" id="boundary" inkscape:connector-curvature="0" />
	<path style="fill:none;stroke:red;stroke-width:1px;stroke-linecap:butt;stroke-linejoin:miter;stroke-opacity:1" d="M 383.986,837.953 383.986,854.766 z" id="boundary" inkscape:connector-curvature="0" />
	<path style="fill:none;stroke:red;stroke-width:1px;stroke-linecap:butt;stroke-linejoin:miter;stroke-opacity:1" d="M 383.986,871.58 383.986,888.393 z" id="boundary" inkscape:connector-curvature="0" />
	<path style="fill:none;stroke:red;stroke-width:1px;stroke-linecap:butt;stroke-linejoin:miter;stroke-opacity:1" d="M 383.986,888.393 383.986,905.207 z" id="boundary" inkscape:connector-curvature="0" />
	<path style="fill:none;stroke:red;stroke-width:1px;stroke-linecap:butt;stroke-linejoin:miter;stroke-opacity:1" d="M 383.986,905.207 383.986,922.02 z" id="boundary" inkscape:connector-curvature="0" />
	<path style="fill:none;stroke:red;stroke-width:1px;stroke-linecap:butt;stroke-linejoin:miter;stroke-opacity:1" d="M 383.986,938.834 383.986,955.647 z" id="boundary" inkscape:connector-curvature="0" />
	<path style="fill:none;stroke:red;stroke-width:1px;stroke-linecap:butt;stroke-linejoin:miter;stroke-opacity:1" d="M 383.986,938.834 383.986,922.02 z" id="boundary" inkscape:connector-curvature="0" />
	<path style="fill:none;stroke:red;stroke-width:1px;stroke-linecap:butt;stroke-linejoin:miter;stroke-opacity:1" d="M 383.986,972.461 368.854,996 z" id="boundary" inkscape:connector-curvature="0" />
	<path style="fill:none;stroke:red;stroke-width:1px;stroke-linecap:butt;stroke-linejoin:miter;stroke-opacity:1" d="M 383.986,972.461 383.986,955.647 z" id="boundary" inkscape:connector-curvature="0" />
	<path style="fill:none;stroke:red;stroke-width:1px;stroke-linecap:butt;stroke-linejoin:miter;stroke-opacity:1" d="M 459.647,510.088 476.461,510.088 z" id="boundary" inkscape:connector-curvature="0" />
	<path style="fill:none;stroke:red;stroke-width:1px;stroke-linecap:butt;stroke-linejoin:miter;stroke-opacity:1" d="M 720.258,493.275 703.444,493.275 z" id="boundary" inkscape:connector-curvature="0" />
	<path style="fill:none;stroke:red;stroke-width:1px;stroke-linecap:butt;stroke-linejoin:miter;stroke-opacity:1" d="M 737.071,493.275 720.258,493.275 z" id="boundary" inkscape:connector-curvature="0" />
	<path style="fill:none;stroke:red;stroke-width:1px;stroke-linecap:butt;stroke-linejoin:miter;stroke-opacity:1" d="M 695.037,510.088 703.444,493.275 z" id="boundary" inkscape:connector-curvature="0" />
	<path style="fill:none;stroke:red;stroke-width:1px;stroke-linecap:butt;stroke-linejoin:miter;stroke-opacity:1" d="M 493.275,510.088 476.461,510.088 z" id="boundary" inkscape:connector-curvature="0" />
	<path style="fill:none;stroke:red;stroke-width:1px;stroke-linecap:butt;stroke-linejoin:miter;stroke-opacity:1" d="M 737.071,493.275 753.885,493.275 z" id="boundary" inkscape:connector-curvature="0" />
	<path style="fill:none;stroke:red;stroke-width:1px;stroke-linecap:butt;stroke-linejoin:miter;stroke-opacity:1" d="M 821.139,437.79 821.139,454.603 z" id="boundary" inkscape:connector-curvature="0" />
	<path style="fill:none;stroke:red;stroke-width:1px;stroke-linecap:butt;stroke-linejoin:miter;stroke-opacity:1" d="M 821.139,454.603 821.139,471.417 z" id="boundary" inkscape:connector-curvature="0" />
	<path style="fill:none;stroke:red;stroke-width:1px;stroke-linecap:butt;stroke-linejoin:miter;stroke-opacity:1" d="M 753.885,493.275 770.698,493.275 z" id="boundary" inkscape:connector-curvature="0" />
	<path style="fill:none;stroke:red;stroke-width:1px;stroke-linecap:butt;stroke-linejoin:miter;stroke-opacity:1" d="M 787.512,493.275 770.698,493.275 z" id="boundary" inkscape:connector-curvature="0" />
	<path style="fill:none;stroke:red;stroke-width:1px;stroke-linecap:butt;stroke-linejoin:miter;stroke-opacity:1" d="M 804.325,493.275 821.139,488.231 z" id="boundary" inkscape:connector-curvature="0" />
	<path style="fill:none;stroke:red;stroke-width:1px;stroke-linecap:butt;stroke-linejoin:miter;stroke-opacity:1" d="M 804.325,493.275 787.512,493.275 z" id="boundary" inkscape:connector-curvature="0" />
	<path style="fill:none;stroke:red;stroke-width:1px;stroke-linecap:butt;stroke-linejoin:miter;stroke-opacity:1" d="M 821.139,471.417 821.139,488.231 z" id="boundary" inkscape:connector-curvature="0" />
	<path style="fill:none;stroke:red;stroke-width:1px;stroke-linecap:butt;stroke-linejoin:miter;stroke-opacity:1" d="M 510.088,510.088 526.902,510.088 z" id="boundary" inkscape:connector-curvature="0" />
	<path style="fill:none;stroke:red;stroke-width:1px;stroke-linecap:butt;stroke-linejoin:miter;stroke-opacity:1" d="M 510.088,510.088 493.275,510.088 z" id="boundary" inkscape:connector-curvature="0" />
	<path style="fill:none;stroke:red;stroke-width:1px;stroke-linecap:butt;stroke-linejoin:miter;stroke-opacity:1" d="M 543.715,510.088 560.529,510.088 z" id="boundary" inkscape:connector-curvature="0" />
	<path style="fill:none;stroke:red;stroke-width:1px;stroke-linecap:butt;stroke-linejoin:miter;stroke-opacity:1" d="M 577.342,510.088 560.529,510.088 z" id="boundary" inkscape:connector-curvature="0" />
	<path style="fill:none;stroke:red;stroke-width:1px;stroke-linecap:butt;stroke-linejoin:miter;stroke-opacity:1" d="M 543.715,510.088 526.902,510.088 z" id="boundary" inkscape:connector-curvature="0" />
	<path style="fill:none;stroke:red;stroke-width:1px;stroke-linecap:butt;stroke-linejoin:miter;stroke-opacity:1" d="M 594.156,510.088 610.969,510.088 z" id="boundary" inkscape:connector-curvature="0" />
	<path style="fill:none;stroke:red;stroke-width:1px;stroke-linecap:butt;stroke-linejoin:miter;stroke-opacity:1" d="M 627.783,510.088 610.969,510.088 z" id="boundary" inkscape:connector-curvature="0" />
	<path style="fill:none;stroke:red;stroke-width:1px;stroke-linecap:butt;stroke-linejoin:miter;stroke-opacity:1" d="M 644.597,510.088 661.41,510.088 z" id="boundary" inkscape:connector-curvature="0" />
	<path style="fill:none;stroke:red;stroke-width:1px;stroke-linecap:butt;stroke-linejoin:miter;stroke-opacity:1" d="M 678.224,510.088 695.037,510.088 z" id="boundary" inkscape:connector-curvature="0" />
	<path style="fill:none;stroke:red;stroke-width:1px;stroke-linecap:butt;stroke-linejoin:miter;stroke-opacity:1" d="M 678.224,510.088 661.41,510.088 z" id="boundary" inkscape:connector-curvature="0" />
	<path style="fill:none;stroke:red;stroke-width:1px;stroke-linecap:butt;stroke-linejoin:miter;stroke-opacity:1" d="M 644.597,510.088 627.783,510.088 z" id="boundary" inkscape:connector-curvature="0" />
	<path style="fill:none;stroke:red;stroke-width:1px;stroke-linecap:butt;stroke-linejoin:miter;stroke-opacity:1" d="M 594.156,510.088 577.342,510.088 z" id="boundary" inkscape:connector-curvature="0" />
	<path style="fill:none;stroke:red;stroke-width:1px;stroke-linecap:butt;stroke-linejoin:miter;stroke-opacity:1" d="M 821.139,420.976 821.139,437.79 z" id="boundary" inkscape:connector-curvature="0" />
	<circle cx="4" cy="34.2644" r="4" fill="#0" id="circle0"/>
	<circle cx="4" cy="51.078" r="4" fill="#0" id="circle1"/>
	<circle cx="4" cy="67.8915" r="4" fill="#0" id="circle2"/>
	<circle cx="4" cy="84.7051" r="4" fill="#0" id="circle3"/>
	<circle cx="4" cy="101.519" r="4" fill="#0" id="circle4"/>
	<circle cx="4" cy="118.332" r="4" fill="#0" id="circle5"/>
	<circle cx="4" cy="135.146" r="4" fill="#0" id="circle6"/>
	<circle cx="4" cy="151.959" r="4" fill="#0" id="circle7"/>
	<circle cx="4" cy="168.773" r="4" fill="#0" id="circle8"/>
	<circle cx="4" cy="185.586" r="4" fill="#0" id="circle9"/>
	<circle cx="4" cy="202.4" r="4" fill="#0" id="circle10"/>
	<circle cx="4" cy="219.214" r="4" fill="#0" id="circle11"/>
	<circle cx="4" cy="236.027" r="4" fill="#0" id="circle12"/>
	<circle cx="4" cy="252.841" r="4" fill="#0" id="circle13"/>
	<circle cx="4" cy="269.654" r="4" fill="#0" id="circle14"/>
	<circle cx="4" cy="286.468" r="4" fill="#0" id="circle15"/>
	<circle cx="4" cy="303.281" r="4" fill="#0" id="circle16"/>
	<circle cx="4" cy="320.095" r="4" fill="#0" id="circle17"/>
	<circle cx="4" cy="336.908" r="4" fill="#0" id="circle18"/>
	<circle cx="4" cy="353.722" r="4" fill="#0" id="circle19"/>
	<circle cx="4" cy="370.536" r="4" fill="#0" id="circle20"/>
	<circle cx="4" cy="387.349" r="4" fill="#0" id="circle21"/>
	<circle cx="12.4068" cy="402.481" r="4" fill="#0" id="circle22"/>
	<circle cx="12.4068" cy="419.295" r="4" fill="#0" id="circle23"/>
	<circle cx="12.4068" cy="436.108" r="4" fill="#0" id="circle24"/>
	<circle cx="12.4068" cy="452.922" r="4" fill="#0" id="circle25"/>
	<circle cx="12.4068" cy="469.736" r="4" fill="#0" id="circle26"/>
	<circle cx="12.4068" cy="486.549" r="4" fill="#0" id="circle27"/>
	<circle cx="12.4068" cy="503.363" r="4" fill="#0" id="circle28"/>
	<circle cx="20.8136" cy="29.2203" r="4" fill="#0" id="circle29"/>
	<circle cx="20.8136" cy="518.495" r="4" fill="#0" id="circle30"/>
	<circle cx="37.6271" cy="29.2203" r="4" fill="#0" id="circle31"/>
	<circle cx="37.6271" cy="518.495" r="4" fill="#0" id="circle32"/>
	<circle cx="54.4407" cy="29.2203" r="4" fill="#0" id="circle33"/>
	<circle cx="54.4407" cy="518.495" r="4" fill="#0" id="circle34"/>
	<circle cx="71.2542" cy="29.2203" r="4" fill="#0" id="circle35"/>
	<circle cx="71.2542" cy="518.495" r="4" fill="#0" id="circle36"/>
	<circle cx="88.0678" cy="29.2203" r="4" fill="#0" id="circle37"/>
	<circle cx="88.0678" cy="518.495" r="4" fill="#0" id="circle38"/>
	<circle cx="104.881" cy="29.2203" r="4" fill="#0" id="circle39"/>
	<circle cx="104.881" cy="518.495" r="4" fill="#0" id="circle40"/>
	<circle cx="121.695" cy="29.2203" r="4" fill="#0" id="circle41"/>
	<circle cx="121.695" cy="518.495" r="4" fill="#0" id="circle42"/>
	<circle cx="138.508" cy="29.2203" r="4" fill="#0" id="circle43"/>
	<circle cx="138.508" cy="518.495" r="4" fill="#0" id="circle44"/>
	<circle cx="148.597" cy="531.946" r="4" fill="#0" id="circle45"/>
	<circle cx="155.322" cy="29.2203" r="4" fill="#0" id="circle46"/>
	<circle cx="163.729" cy="540.353" r="4" fill="#0" id="circle47"/>
	<circle cx="172.136" cy="29.2203" r="4" fill="#0" id="circle48"/>
	<circle cx="172.136" cy="555.485" r="4" fill="#0" id="circle49"/>
	<circle cx="172.136" cy="572.298" r="4" fill="#0" id="circle50"/>
	<circle cx="188.949" cy="29.2203" r="4" fill="#0" id="circle51"/>
	<circle cx="188.949" cy="577.342" r="4" fill="#0" id="circle52"/>
	<circle cx="188.949" cy="594.156" r="4" fill="#0" id="circle53"/>
	<circle cx="188.949" cy="610.969" r="4" fill="#0" id="circle54"/>
	<circle cx="197.356" cy="626.102" r="4" fill="#0" id="circle55"/>
	<circle cx="200.719" cy="642.915" r="4" fill="#0" id="circle56"/>
	<circle cx="205.763" cy="29.2203" r="4" fill="#0" id="circle57"/>
	<circle cx="205.763" cy="659.729" r="4" fill="#0" id="circle58"/>
	<circle cx="219.214" cy="669.817" r="4" fill="#0" id="circle59"/>
	<circle cx="222.576" cy="29.2203" r="4" fill="#0" id="circle60"/>
	<circle cx="222.576" cy="686.631" r="4" fill="#0" id="circle61"/>
	<circle cx="227.62" cy="703.444" r="4" fill="#0" id="circle62"/>
	<circle cx="239.39" cy="29.2203" r="4" fill="#0" id="circle63"/>
	<circle cx="242.753" cy="711.851" r="4" fill="#0" id="circle64"/>
	<circle cx="247.797" cy="728.664" r="4" fill="#0" id="circle65"/>
	<circle cx="249.478" cy="15.7695" r="4" fill="#0" id="circle66"/>
	<circle cx="256.203" cy="743.797" r="4" fill="#0" id="circle67"/>
	<circle cx="259.566" cy="760.61" r="4" fill="#0" id="circle68"/>
	<circle cx="266.292" cy="12.4068" r="4" fill="#0" id="circle69"/>
	<circle cx="273.017" cy="770.698" r="4" fill="#0" id="circle70"/>
	<circle cx="278.061" cy="787.512" r="4" fill="#0" id="circle71"/>
	<circle cx="281.424" cy="804.325" r="4" fill="#0" id="circle72"/>
	<circle cx="283.105" cy="12.4068" r="4" fill="#0" id="circle73"/>
	<circle cx="296.556" cy="812.732" r="4" fill="#0" id="circle74"/>
	<circle cx="298.237" cy="829.546" r="4" fill="#0" id="circle75"/>
	<circle cx="299.919" cy="12.4068" r="4" fill="#0" id="circle76"/>
	<circle cx="303.281" cy="846.359" r="4" fill="#0" id="circle77"/>
	<circle cx="306.644" cy="863.173" r="4" fill="#0" id="circle78"/>
	<circle cx="316.732" cy="12.4068" r="4" fill="#0" id="circle79"/>
	<circle cx="321.776" cy="871.58" r="4" fill="#0" id="circle80"/>
	<circle cx="323.458" cy="888.393" r="4" fill="#0" id="circle81"/>
	<circle cx="331.864" cy="903.525" r="4" fill="#0" id="circle82"/>
	<circle cx="333.546" cy="12.4068" r="4" fill="#0" id="circle83"/>
	<circle cx="335.227" cy="920.339" r="4" fill="#0" id="circle84"/>
	<circle cx="348.678" cy="930.427" r="4" fill="#0" id="circle85"/>
	<circle cx="350.359" cy="12.4068" r="4" fill="#0" id="circle86"/>
	<circle cx="353.722" cy="947.241" r="4" fill="#0" id="circle87"/>
	<circle cx="357.085" cy="964.054" r="4" fill="#0" id="circle88"/>
	<circle cx="358.766" cy="510.088" r="4" fill="#0" id="circle89"/>
	<circle cx="358.766" cy="526.902" r="4" fill="#0" id="circle90"/>
	<circle cx="358.766" cy="543.715" r="4" fill="#0" id="circle91"/>
	<circle cx="358.766" cy="560.529" r="4" fill="#0" id="circle92"/>
	<circle cx="358.766" cy="577.342" r="4" fill="#0" id="circle93"/>
	<circle cx="358.766" cy="594.156" r="4" fill="#0" id="circle94"/>
	<circle cx="358.766" cy="610.969" r="4" fill="#0" id="circle95"/>
	<circle cx="358.766" cy="627.783" r="4" fill="#0" id="circle96"/>
	<circle cx="358.766" cy="644.597" r="4" fill="#0" id="circle97"/>
	<circle cx="365.492" cy="979.186" r="4" fill="#0" id="circle98"/>
	<circle cx="367.173" cy="12.4068" r="4" fill="#0" id="circle99"/>
	<circle cx="367.173" cy="659.729" r="4" fill="#0" id="circle100"/>
	<circle cx="367.173" cy="676.542" r="4" fill="#0" id="circle101"/>
	<circle cx="367.173" cy="693.356" r="4" fill="#0" id="circle102"/>
	<circle cx="367.173" cy="710.169" r="4" fill="#0" id="circle103"/>
	<circle cx="367.173" cy="726.983" r="4" fill="#0" id="circle104"/>
	<circle cx="367.173" cy="743.797" r="4" fill="#0" id="circle105"/>
	<circle cx="368.854" cy="996" r="4" fill="#0" id="circle106"/>
	<circle cx="375.58" cy="510.088" r="4" fill="#0" id="circle107"/>
	<circle cx="380.624" cy="753.885" r="4" fill="#0" id="circle108"/>
	<circle cx="383.986" cy="12.4068" r="4" fill="#0" id="circle109"/>
	<circle cx="383.986" cy="770.698" r="4" fill="#0" id="circle110"/>
	<circle cx="383.986" cy="787.512" r="4" fill="#0" id="circle111"/>
	<circle cx="383.986" cy="804.325" r="4" fill="#0" id="circle112"/>
	<circle cx="383.986" cy="821.139" r="4" fill="#0" id="circle113"/>
	<circle cx="383.986" cy="837.953" r="4" fill="#0" id="circle114"/>
	<circle cx="383.986" cy="854.766" r="4" fill="#0" id="circle115"/>
	<circle cx="383.986" cy="871.58" r="4" fill="#0" id="circle116"/>
	<circle cx="383.986" cy="888.393" r="4" fill="#0" id="circle117"/>
	<circle cx="383.986" cy="905.207" r="4" fill="#0" id="circle118"/>
	<circle cx="383.986" cy="922.02" r="4" fill="#0" id="circle119"/>
	<circle cx="383.986" cy="938.834" r="4" fill="#0" id="circle120"/>
	<circle cx="383.986" cy="955.647" r="4" fill="#0" id="circle121"/>
	<circle cx="383.986" cy="972.461" r="4" fill="#0" id="circle122"/>
	<circle cx="392.393" cy="510.088" r="4" fill="#0" id="circle123"/>
	<circle cx="400.8" cy="12.4068" r="4" fill="#0" id="circle124"/>
	<circle cx="409.207" cy="510.088" r="4" fill="#0" id="circle125"/>
	<circle cx="417.614" cy="12.4068" r="4" fill="#0" id="circle126"/>
	<circle cx="426.02" cy="510.088" r="4" fill="#0" id="circle127"/>
	<circle cx="434.427" cy="12.4068" r="4" fill="#0" id="circle128"/>
	<circle cx="442.834" cy="510.088" r="4" fill="#0" id="circle129"/>
	<circle cx="451.241" cy="12.4068" r="4" fill="#0" id="circle130"/>
	<circle cx="459.647" cy="510.088" r="4" fill="#0" id="circle131"/>
	<circle cx="468.054" cy="12.4068" r="4" fill="#0" id="circle132"/>
	<circle cx="476.461" cy="510.088" r="4" fill="#0" id="circle133"/>
	<circle cx="484.868" cy="12.4068" r="4" fill="#0" id="circle134"/>
	<circle cx="493.275" cy="510.088" r="4" fill="#0" id="circle135"/>
	<circle cx="501.681" cy="12.4068" r="4" fill="#0" id="circle136"/>
	<circle cx="510.088" cy="510.088" r="4" fill="#0" id="circle137"/>
	<circle cx="518.495" cy="12.4068" r="4" fill="#0" id="circle138"/>
	<circle cx="526.902" cy="510.088" r="4" fill="#0" id="circle139"/>
	<circle cx="535.308" cy="12.4068" r="4" fill="#0" id="circle140"/>
	<circle cx="543.715" cy="510.088" r="4" fill="#0" id="circle141"/>
	<circle cx="552.122" cy="12.4068" r="4" fill="#0" id="circle142"/>
	<circle cx="560.529" cy="510.088" r="4" fill="#0" id="circle143"/>
	<circle cx="568.936" cy="12.4068" r="4" fill="#0" id="circle144"/>
	<circle cx="577.342" cy="510.088" r="4" fill="#0" id="circle145"/>
	<circle cx="585.749" cy="12.4068" r="4" fill="#0" id="circle146"/>
	<circle cx="594.156" cy="510.088" r="4" fill="#0" id="circle147"/>
	<circle cx="602.563" cy="7.36271" r="4" fill="#0" id="circle148"/>
	<circle cx="610.969" cy="510.088" r="4" fill="#0" id="circle149"/>
	<circle cx="619.376" cy="4" r="4" fill="#0" id="circle150"/>
	<circle cx="627.783" cy="510.088" r="4" fill="#0" id="circle151"/>
	<circle cx="636.19" cy="4" r="4" fill="#0" id="circle152"/>
	<circle cx="644.597" cy="510.088" r="4" fill="#0" id="circle153"/>
	<circle cx="653.003" cy="4" r="4" fill="#0" id="circle154"/>
	<circle cx="661.41" cy="510.088" r="4" fill="#0" id="circle155"/>
	<circle cx="669.817" cy="4" r="4" fill="#0" id="circle156"/>
	<circle cx="678.224" cy="510.088" r="4" fill="#0" id="circle157"/>
	<circle cx="686.631" cy="4" r="4" fill="#0" id="circle158"/>
	<circle cx="695.037" cy="510.088" r="4" fill="#0" id="circle159"/>
	<circle cx="703.444" cy="4" r="4" fill="#0" id="circle160"/>
	<circle cx="703.444" cy="493.275" r="4" fill="#0" id="circle161"/>
	<circle cx="720.258" cy="4" r="4" fill="#0" id="circle162"/>
	<circle cx="720.258" cy="493.275" r="4" fill="#0" id="circle163"/>
	<circle cx="737.071" cy="4" r="4" fill="#0" id="circle164"/>
	<circle cx="737.071" cy="493.275" r="4" fill="#0" id="circle165"/>
	<circle cx="753.885" cy="4" r="4" fill="#0" id="circle166"/>
	<circle cx="753.885" cy="493.275" r="4" fill="#0" id="circle167"/>
	<circle cx="770.698" cy="4" r="4" fill="#0" id="circle168"/>
	<circle cx="770.698" cy="493.275" r="4" fill="#0" id="circle169"/>
	<circle cx="787.512" cy="4" r="4" fill="#0" id="circle170"/>
	<circle cx="787.512" cy="493.275" r="4" fill="#0" id="circle171"/>
	<circle cx="804.325" cy="4" r="4" fill="#0" id="circle172"/>
	<circle cx="804.325" cy="493.275" r="4" fill="#0" id="circle173"/>
	<circle cx="812.732" cy="19.1322" r="4" fill="#0" id="circle174"/>
	<circle cx="812.732" cy="35.9458" r="4" fill="#0" id="circle175"/>
	<circle cx="812.732" cy="52.7593" r="4" fill="#0" id="circle176"/>
	<circle cx="812.732" cy="69.5729" r="4" fill="#0" id="circle177"/>
	<circle cx="812.732" cy="86.3864" r="4" fill="#0" id="circle178"/>
	<circle cx="812.732" cy="103.2" r="4" fill="#0" id="circle179"/>
	<circle cx="812.732" cy="120.014" r="4" fill="#0" id="circle180"/>
	<circle cx="812.732" cy="136.827" r="4" fill="#0" id="circle181"/>
	<circle cx="812.732" cy="153.641" r="4" fill="#0" id="circle182"/>
	<circle cx="812.732" cy="170.454" r="4" fill="#0" id="circle183"/>
	<circle cx="812.732" cy="187.268" r="4" fill="#0" id="circle184"/>
	<circle cx="812.732" cy="204.081" r="4" fill="#0" id="circle185"/>
	<circle cx="812.732" cy="220.895" r="4" fill="#0" id="circle186"/>
	<circle cx="812.732" cy="237.708" r="4" fill="#0" id="circle187"/>
	<circle cx="812.732" cy="254.522" r="4" fill="#0" id="circle188"/>
	<circle cx="812.732" cy="271.336" r="4" fill="#0" id="circle189"/>
	<circle cx="812.732" cy="288.149" r="4" fill="#0" id="circle190"/>
	<circle cx="821.139" cy="303.281" r="4" fill="#0" id="circle191"/>
	<circle cx="821.139" cy="320.095" r="4" fill="#0" id="circle192"/>
	<circle cx="821.139" cy="336.908" r="4" fill="#0" id="circle193"/>
	<circle cx="821.139" cy="353.722" r="4" fill="#0" id="circle194"/>
	<circle cx="821.139" cy="370.536" r="4" fill="#0" id="circle195"/>
	<circle cx="821.139" cy="387.349" r="4" fill="#0" id="circle196"/>
	<circle cx="821.139" cy="404.163" r="4" fill="#0" id="circle197"/>
	<circle cx="821.139" cy="420.976" r="4" fill="#0" id="circle198"/>
	<circle cx="821.139" cy="437.79" r="4" fill="#0" id="circle199"/>
	<circle cx="821.139" cy="454.603" r="4" fill="#0" id="circle200"/>
	<circle cx="821.139" cy="471.417" r="4" fill="#0" id="circle201"/>
	<circle cx="821.139" cy="488.231" r="4" fill="#0" id="circle202"/>
	</g>
</svg>