<?xml version="1.0" encoding="UTF-8" standalone="no"?>
<!-- Created with CurveBenchmark -->
<svg
	xmlns:dc="http://purl.org/dc/elements/1.1/"
	xmlns:cc="http://creativecommons.org/ns#"
	xmlns:rdf="http://www.w3.org/1999/02/22-rdf-syntax-ns#"
	xmlns:svg="http://www.w3.org/2000/svg"
	xmlns="http://www.w3.org/2000/svg"
	xmlns:sodipodi="http://sodipodi.sourceforge.net/DTD/sodipodi-0.dtd"
	xmlns:inkscape="http://www.inkscape.org/namespaces/inkscape"
	width="1000"
	height="1000"
	id="svg2"
	version="1.1"
	sodipodi:docname="manifold/gathang-fountain13.png.txt">
<defs
	id="defs4" />
<metadata
	id="metadata7">
	<rdf:RDF>
		<cc:Work
			rdf:about="">
			<dc:format>image/svg+xml</dc:format>
			<dc:type
				rdf:resource="http://purl.org/dc/dcmitype/StillImage" />
			<dc:title></dc:title>
		</cc:Work>
	</rdf:RDF>
</metadata>
<g
	inkscape:label="Layer 1"
	inkscape:groupmode="layer"
	id="layer1">
	<path style="fill:none;stroke:red;stroke-width:1px;stroke-linecap:butt;stroke-linejoin:miter;stroke-opacity:1" d="M 370.307,128.743 370.307,148.543 z" id="boundary" inkscape:connector-curvature="0" />
	<path style="fill:none;stroke:red;stroke-width:1px;stroke-linecap:butt;stroke-linejoin:miter;stroke-opacity:1" d="M 390.108,154.483 370.307,148.543 z" id="boundary" inkscape:connector-curvature="0" />
	<path style="fill:none;stroke:red;stroke-width:1px;stroke-linecap:butt;stroke-linejoin:miter;stroke-opacity:1" d="M 318.826,340.607 338.627,340.607 z" id="boundary" inkscape:connector-curvature="0" />
	<path style="fill:none;stroke:red;stroke-width:1px;stroke-linecap:butt;stroke-linejoin:miter;stroke-opacity:1" d="M 301.006,350.507 318.826,340.607 z" id="boundary" inkscape:connector-curvature="0" />
	<path style="fill:none;stroke:red;stroke-width:1px;stroke-linecap:butt;stroke-linejoin:miter;stroke-opacity:1" d="M 358.427,340.607 338.627,340.607 z" id="boundary" inkscape:connector-curvature="0" />
	<path style="fill:none;stroke:red;stroke-width:1px;stroke-linecap:butt;stroke-linejoin:miter;stroke-opacity:1" d="M 386.148,112.902 405.948,103.002 z" id="boundary" inkscape:connector-curvature="0" />
	<path style="fill:none;stroke:red;stroke-width:1px;stroke-linecap:butt;stroke-linejoin:miter;stroke-opacity:1" d="M 378.228,340.607 358.427,340.607 z" id="boundary" inkscape:connector-curvature="0" />
	<path style="fill:none;stroke:red;stroke-width:1px;stroke-linecap:butt;stroke-linejoin:miter;stroke-opacity:1" d="M 390.108,154.483 407.928,164.383 z" id="boundary" inkscape:connector-curvature="0" />
	<path style="fill:none;stroke:red;stroke-width:1px;stroke-linecap:butt;stroke-linejoin:miter;stroke-opacity:1" d="M 398.028,340.607 378.228,340.607 z" id="boundary" inkscape:connector-curvature="0" />
	<path style="fill:none;stroke:red;stroke-width:1px;stroke-linecap:butt;stroke-linejoin:miter;stroke-opacity:1" d="M 415.848,330.707 398.028,340.607 z" id="boundary" inkscape:connector-curvature="0" />
	<path style="fill:none;stroke:red;stroke-width:1px;stroke-linecap:butt;stroke-linejoin:miter;stroke-opacity:1" d="M 405.948,103.002 425.749,103.002 z" id="boundary" inkscape:connector-curvature="0" />
	<path style="fill:none;stroke:red;stroke-width:1px;stroke-linecap:butt;stroke-linejoin:miter;stroke-opacity:1" d="M 370.307,128.743 386.148,112.902 z" id="boundary" inkscape:connector-curvature="0" />
	<path style="fill:none;stroke:red;stroke-width:1px;stroke-linecap:butt;stroke-linejoin:miter;stroke-opacity:1" d="M 192.104,396.048 207.944,380.208 z" id="boundary" inkscape:connector-curvature="0" />
	<path style="fill:none;stroke:red;stroke-width:1px;stroke-linecap:butt;stroke-linejoin:miter;stroke-opacity:1" d="M 225.764,370.307 207.944,380.208 z" id="boundary" inkscape:connector-curvature="0" />
	<path style="fill:none;stroke:red;stroke-width:1px;stroke-linecap:butt;stroke-linejoin:miter;stroke-opacity:1" d="M 182.204,415.848 192.104,396.048 z" id="boundary" inkscape:connector-curvature="0" />
	<path style="fill:none;stroke:red;stroke-width:1px;stroke-linecap:butt;stroke-linejoin:miter;stroke-opacity:1" d="M 182.204,415.848 178.244,449.509 z" id="boundary" inkscape:connector-curvature="0" />
	<path style="fill:none;stroke:red;stroke-width:1px;stroke-linecap:butt;stroke-linejoin:miter;stroke-opacity:1" d="M 178.244,449.509 158.443,459.409 z" id="boundary" inkscape:connector-curvature="0" />
	<path style="fill:none;stroke:red;stroke-width:1px;stroke-linecap:butt;stroke-linejoin:miter;stroke-opacity:1" d="M 225.764,370.307 245.565,370.307 z" id="boundary" inkscape:connector-curvature="0" />
	<path style="fill:none;stroke:red;stroke-width:1px;stroke-linecap:butt;stroke-linejoin:miter;stroke-opacity:1" d="M 301.006,350.507 281.206,350.507 z" id="boundary" inkscape:connector-curvature="0" />
	<path style="fill:none;stroke:red;stroke-width:1px;stroke-linecap:butt;stroke-linejoin:miter;stroke-opacity:1" d="M 245.565,370.307 263.385,360.407 z" id="boundary" inkscape:connector-curvature="0" />
	<path style="fill:none;stroke:red;stroke-width:1px;stroke-linecap:butt;stroke-linejoin:miter;stroke-opacity:1" d="M 263.385,360.407 281.206,350.507 z" id="boundary" inkscape:connector-curvature="0" />
	<path style="fill:none;stroke:red;stroke-width:1px;stroke-linecap:butt;stroke-linejoin:miter;stroke-opacity:1" d="M 445.549,103.002 425.749,103.002 z" id="boundary" inkscape:connector-curvature="0" />
	<path style="fill:none;stroke:red;stroke-width:1px;stroke-linecap:butt;stroke-linejoin:miter;stroke-opacity:1" d="M 445.549,174.283 425.749,174.283 z" id="boundary" inkscape:connector-curvature="0" />
	<path style="fill:none;stroke:red;stroke-width:1px;stroke-linecap:butt;stroke-linejoin:miter;stroke-opacity:1" d="M 479.21,77.2615 465.349,103.002 z" id="boundary" inkscape:connector-curvature="0" />
	<path style="fill:none;stroke:red;stroke-width:1px;stroke-linecap:butt;stroke-linejoin:miter;stroke-opacity:1" d="M 465.349,103.002 445.549,103.002 z" id="boundary" inkscape:connector-curvature="0" />
	<path style="fill:none;stroke:red;stroke-width:1px;stroke-linecap:butt;stroke-linejoin:miter;stroke-opacity:1" d="M 469.309,39.6407 479.21,57.4611 z" id="boundary" inkscape:connector-curvature="0" />
	<path style="fill:none;stroke:red;stroke-width:1px;stroke-linecap:butt;stroke-linejoin:miter;stroke-opacity:1" d="M 407.928,164.383 425.749,174.283 z" id="boundary" inkscape:connector-curvature="0" />
	<path style="fill:none;stroke:red;stroke-width:1px;stroke-linecap:butt;stroke-linejoin:miter;stroke-opacity:1" d="M 479.21,19.8403 495.05,4 z" id="boundary" inkscape:connector-curvature="0" />
	<path style="fill:none;stroke:red;stroke-width:1px;stroke-linecap:butt;stroke-linejoin:miter;stroke-opacity:1" d="M 469.309,39.6407 479.21,19.8403 z" id="boundary" inkscape:connector-curvature="0" />
	<path style="fill:none;stroke:red;stroke-width:1px;stroke-linecap:butt;stroke-linejoin:miter;stroke-opacity:1" d="M 479.21,77.2615 479.21,57.4611 z" id="boundary" inkscape:connector-curvature="0" />
	<path style="fill:none;stroke:red;stroke-width:1px;stroke-linecap:butt;stroke-linejoin:miter;stroke-opacity:1" d="M 459.409,229.725 459.409,249.525 z" id="boundary" inkscape:connector-curvature="0" />
	<path style="fill:none;stroke:red;stroke-width:1px;stroke-linecap:butt;stroke-linejoin:miter;stroke-opacity:1" d="M 459.409,190.124 445.549,174.283 z" id="boundary" inkscape:connector-curvature="0" />
	<path style="fill:none;stroke:red;stroke-width:1px;stroke-linecap:butt;stroke-linejoin:miter;stroke-opacity:1" d="M 459.409,289.126 455.449,320.806 z" id="boundary" inkscape:connector-curvature="0" />
	<path style="fill:none;stroke:red;stroke-width:1px;stroke-linecap:butt;stroke-linejoin:miter;stroke-opacity:1" d="M 455.449,320.806 435.649,330.707 z" id="boundary" inkscape:connector-curvature="0" />
	<path style="fill:none;stroke:red;stroke-width:1px;stroke-linecap:butt;stroke-linejoin:miter;stroke-opacity:1" d="M 435.649,330.707 415.848,330.707 z" id="boundary" inkscape:connector-curvature="0" />
	<path style="fill:none;stroke:red;stroke-width:1px;stroke-linecap:butt;stroke-linejoin:miter;stroke-opacity:1" d="M 459.409,190.124 459.409,209.924 z" id="boundary" inkscape:connector-curvature="0" />
	<path style="fill:none;stroke:red;stroke-width:1px;stroke-linecap:butt;stroke-linejoin:miter;stroke-opacity:1" d="M 459.409,209.924 459.409,229.725 z" id="boundary" inkscape:connector-curvature="0" />
	<path style="fill:none;stroke:red;stroke-width:1px;stroke-linecap:butt;stroke-linejoin:miter;stroke-opacity:1" d="M 459.409,249.525 459.409,269.325 z" id="boundary" inkscape:connector-curvature="0" />
	<path style="fill:none;stroke:red;stroke-width:1px;stroke-linecap:butt;stroke-linejoin:miter;stroke-opacity:1" d="M 459.409,289.126 459.409,269.325 z" id="boundary" inkscape:connector-curvature="0" />
	<path style="fill:none;stroke:red;stroke-width:1px;stroke-linecap:butt;stroke-linejoin:miter;stroke-opacity:1" d="M 33.7006,524.75 49.5409,508.91 z" id="boundary" inkscape:connector-curvature="0" />
	<path style="fill:none;stroke:red;stroke-width:1px;stroke-linecap:butt;stroke-linejoin:miter;stroke-opacity:1" d="M 23.8004,544.551 33.7006,524.75 z" id="boundary" inkscape:connector-curvature="0" />
	<path style="fill:none;stroke:red;stroke-width:1px;stroke-linecap:butt;stroke-linejoin:miter;stroke-opacity:1" d="M 13.9002,564.351 23.8004,544.551 z" id="boundary" inkscape:connector-curvature="0" />
	<path style="fill:none;stroke:red;stroke-width:1px;stroke-linecap:butt;stroke-linejoin:miter;stroke-opacity:1" d="M 13.9002,584.152 13.9002,564.351 z" id="boundary" inkscape:connector-curvature="0" />
	<path style="fill:none;stroke:red;stroke-width:1px;stroke-linecap:butt;stroke-linejoin:miter;stroke-opacity:1" d="M 13.9002,584.152 4,603.952 z" id="boundary" inkscape:connector-curvature="0" />
	<path style="fill:none;stroke:red;stroke-width:1px;stroke-linecap:butt;stroke-linejoin:miter;stroke-opacity:1" d="M 49.5409,508.91 67.3613,499.01 z" id="boundary" inkscape:connector-curvature="0" />
	<path style="fill:none;stroke:red;stroke-width:1px;stroke-linecap:butt;stroke-linejoin:miter;stroke-opacity:1" d="M 120.822,469.309 140.623,469.309 z" id="boundary" inkscape:connector-curvature="0" />
	<path style="fill:none;stroke:red;stroke-width:1px;stroke-linecap:butt;stroke-linejoin:miter;stroke-opacity:1" d="M 103.002,479.21 120.822,469.309 z" id="boundary" inkscape:connector-curvature="0" />
	<path style="fill:none;stroke:red;stroke-width:1px;stroke-linecap:butt;stroke-linejoin:miter;stroke-opacity:1" d="M 158.443,459.409 140.623,469.309 z" id="boundary" inkscape:connector-curvature="0" />
	<path style="fill:none;stroke:red;stroke-width:1px;stroke-linecap:butt;stroke-linejoin:miter;stroke-opacity:1" d="M 67.3613,499.01 85.1816,489.11 z" id="boundary" inkscape:connector-curvature="0" />
	<path style="fill:none;stroke:red;stroke-width:1px;stroke-linecap:butt;stroke-linejoin:miter;stroke-opacity:1" d="M 103.002,479.21 85.1816,489.11 z" id="boundary" inkscape:connector-curvature="0" />
	<path style="fill:none;stroke:red;stroke-width:1px;stroke-linecap:butt;stroke-linejoin:miter;stroke-opacity:1" d="M 4,623.752 4,603.952 z" id="boundary" inkscape:connector-curvature="0" />
	<path style="fill:none;stroke:red;stroke-width:1px;stroke-linecap:butt;stroke-linejoin:miter;stroke-opacity:1" d="M 19.8403,637.613 4,623.752 z" id="boundary" inkscape:connector-curvature="0" />
	<path style="fill:none;stroke:red;stroke-width:1px;stroke-linecap:butt;stroke-linejoin:miter;stroke-opacity:1" d="M 37.6607,647.513 19.8403,637.613 z" id="boundary" inkscape:connector-curvature="0" />
	<path style="fill:none;stroke:red;stroke-width:1px;stroke-linecap:butt;stroke-linejoin:miter;stroke-opacity:1" d="M 37.6607,647.513 57.4611,655.433 z" id="boundary" inkscape:connector-curvature="0" />
	<path style="fill:none;stroke:red;stroke-width:1px;stroke-linecap:butt;stroke-linejoin:miter;stroke-opacity:1" d="M 75.2814,665.333 93.1018,675.234 z" id="boundary" inkscape:connector-curvature="0" />
	<path style="fill:none;stroke:red;stroke-width:1px;stroke-linecap:butt;stroke-linejoin:miter;stroke-opacity:1" d="M 93.1018,675.234 103.002,693.054 z" id="boundary" inkscape:connector-curvature="0" />
	<path style="fill:none;stroke:red;stroke-width:1px;stroke-linecap:butt;stroke-linejoin:miter;stroke-opacity:1" d="M 75.2814,665.333 57.4611,655.433 z" id="boundary" inkscape:connector-curvature="0" />
	<path style="fill:none;stroke:red;stroke-width:1px;stroke-linecap:butt;stroke-linejoin:miter;stroke-opacity:1" d="M 122.802,698.994 103.002,693.054 z" id="boundary" inkscape:connector-curvature="0" />
	<path style="fill:none;stroke:red;stroke-width:1px;stroke-linecap:butt;stroke-linejoin:miter;stroke-opacity:1" d="M 142.603,698.994 122.802,698.994 z" id="boundary" inkscape:connector-curvature="0" />
	<path style="fill:none;stroke:red;stroke-width:1px;stroke-linecap:butt;stroke-linejoin:miter;stroke-opacity:1" d="M 142.603,698.994 160.423,708.894 z" id="boundary" inkscape:connector-curvature="0" />
	<path style="fill:none;stroke:red;stroke-width:1px;stroke-linecap:butt;stroke-linejoin:miter;stroke-opacity:1" d="M 180.224,708.894 160.423,708.894 z" id="boundary" inkscape:connector-curvature="0" />
	<path style="fill:none;stroke:red;stroke-width:1px;stroke-linecap:butt;stroke-linejoin:miter;stroke-opacity:1" d="M 217.844,718.794 198.044,718.794 z" id="boundary" inkscape:connector-curvature="0" />
	<path style="fill:none;stroke:red;stroke-width:1px;stroke-linecap:butt;stroke-linejoin:miter;stroke-opacity:1" d="M 198.044,718.794 180.224,708.894 z" id="boundary" inkscape:connector-curvature="0" />
	<path style="fill:none;stroke:red;stroke-width:1px;stroke-linecap:butt;stroke-linejoin:miter;stroke-opacity:1" d="M 217.844,718.794 235.665,728.695 z" id="boundary" inkscape:connector-curvature="0" />
	<path style="fill:none;stroke:red;stroke-width:1px;stroke-linecap:butt;stroke-linejoin:miter;stroke-opacity:1" d="M 235.665,728.695 255.465,728.695 z" id="boundary" inkscape:connector-curvature="0" />
	<path style="fill:none;stroke:red;stroke-width:1px;stroke-linecap:butt;stroke-linejoin:miter;stroke-opacity:1" d="M 295.066,734.635 275.265,728.695 z" id="boundary" inkscape:connector-curvature="0" />
	<path style="fill:none;stroke:red;stroke-width:1px;stroke-linecap:butt;stroke-linejoin:miter;stroke-opacity:1" d="M 314.866,738.595 295.066,734.635 z" id="boundary" inkscape:connector-curvature="0" />
	<path style="fill:none;stroke:red;stroke-width:1px;stroke-linecap:butt;stroke-linejoin:miter;stroke-opacity:1" d="M 334.667,738.595 314.866,738.595 z" id="boundary" inkscape:connector-curvature="0" />
	<path style="fill:none;stroke:red;stroke-width:1px;stroke-linecap:butt;stroke-linejoin:miter;stroke-opacity:1" d="M 255.465,728.695 275.265,728.695 z" id="boundary" inkscape:connector-curvature="0" />
	<path style="fill:none;stroke:red;stroke-width:1px;stroke-linecap:butt;stroke-linejoin:miter;stroke-opacity:1" d="M 334.667,738.595 354.467,744.535 z" id="boundary" inkscape:connector-curvature="0" />
	<path style="fill:none;stroke:red;stroke-width:1px;stroke-linecap:butt;stroke-linejoin:miter;stroke-opacity:1" d="M 374.267,748.495 394.068,748.495 z" id="boundary" inkscape:connector-curvature="0" />
	<path style="fill:none;stroke:red;stroke-width:1px;stroke-linecap:butt;stroke-linejoin:miter;stroke-opacity:1" d="M 394.068,748.495 413.868,754.435 z" id="boundary" inkscape:connector-curvature="0" />
	<path style="fill:none;stroke:red;stroke-width:1px;stroke-linecap:butt;stroke-linejoin:miter;stroke-opacity:1" d="M 374.267,748.495 354.467,744.535 z" id="boundary" inkscape:connector-curvature="0" />
	<path style="fill:none;stroke:red;stroke-width:1px;stroke-linecap:butt;stroke-linejoin:miter;stroke-opacity:1" d="M 413.868,754.435 433.669,758.395 z" id="boundary" inkscape:connector-curvature="0" />
	<path style="fill:none;stroke:red;stroke-width:1px;stroke-linecap:butt;stroke-linejoin:miter;stroke-opacity:1" d="M 453.469,758.395 433.669,758.395 z" id="boundary" inkscape:connector-curvature="0" />
	<path style="fill:none;stroke:red;stroke-width:1px;stroke-linecap:butt;stroke-linejoin:miter;stroke-opacity:1" d="M 473.269,758.395 453.469,758.395 z" id="boundary" inkscape:connector-curvature="0" />
	<path style="fill:none;stroke:red;stroke-width:1px;stroke-linecap:butt;stroke-linejoin:miter;stroke-opacity:1" d="M 493.07,758.395 473.269,758.395 z" id="boundary" inkscape:connector-curvature="0" />
	<path style="fill:none;stroke:red;stroke-width:1px;stroke-linecap:butt;stroke-linejoin:miter;stroke-opacity:1" d="M 512.87,758.395 493.07,758.395 z" id="boundary" inkscape:connector-curvature="0" />
	<path style="fill:none;stroke:red;stroke-width:1px;stroke-linecap:butt;stroke-linejoin:miter;stroke-opacity:1" d="M 495.05,4 514.85,4 z" id="boundary" inkscape:connector-curvature="0" />
	<path style="fill:none;stroke:red;stroke-width:1px;stroke-linecap:butt;stroke-linejoin:miter;stroke-opacity:1" d="M 514.85,4 520.79,23.8004 z" id="boundary" inkscape:connector-curvature="0" />
	<path style="fill:none;stroke:red;stroke-width:1px;stroke-linecap:butt;stroke-linejoin:miter;stroke-opacity:1" d="M 520.79,23.8004 520.79,43.6008 z" id="boundary" inkscape:connector-curvature="0" />
	<path style="fill:none;stroke:red;stroke-width:1px;stroke-linecap:butt;stroke-linejoin:miter;stroke-opacity:1" d="M 520.79,63.4012 520.79,43.6008 z" id="boundary" inkscape:connector-curvature="0" />
	<path style="fill:none;stroke:red;stroke-width:1px;stroke-linecap:butt;stroke-linejoin:miter;stroke-opacity:1" d="M 520.79,63.4012 520.79,83.2016 z" id="boundary" inkscape:connector-curvature="0" />
	<path style="fill:none;stroke:red;stroke-width:1px;stroke-linecap:butt;stroke-linejoin:miter;stroke-opacity:1" d="M 586.132,132.703 566.331,132.703 z" id="boundary" inkscape:connector-curvature="0" />
	<path style="fill:none;stroke:red;stroke-width:1px;stroke-linecap:butt;stroke-linejoin:miter;stroke-opacity:1" d="M 520.79,103.002 520.79,83.2016 z" id="boundary" inkscape:connector-curvature="0" />
	<path style="fill:none;stroke:red;stroke-width:1px;stroke-linecap:butt;stroke-linejoin:miter;stroke-opacity:1" d="M 530.691,120.822 520.79,103.002 z" id="boundary" inkscape:connector-curvature="0" />
	<path style="fill:none;stroke:red;stroke-width:1px;stroke-linecap:butt;stroke-linejoin:miter;stroke-opacity:1" d="M 530.691,120.822 546.531,132.703 z" id="boundary" inkscape:connector-curvature="0" />
	<path style="fill:none;stroke:red;stroke-width:1px;stroke-linecap:butt;stroke-linejoin:miter;stroke-opacity:1" d="M 566.331,132.703 546.531,132.703 z" id="boundary" inkscape:connector-curvature="0" />
	<path style="fill:none;stroke:red;stroke-width:1px;stroke-linecap:butt;stroke-linejoin:miter;stroke-opacity:1" d="M 580.192,184.184 560.391,184.184 z" id="boundary" inkscape:connector-curvature="0" />
	<path style="fill:none;stroke:red;stroke-width:1px;stroke-linecap:butt;stroke-linejoin:miter;stroke-opacity:1" d="M 560.391,184.184 540.591,194.084 z" id="boundary" inkscape:connector-curvature="0" />
	<path style="fill:none;stroke:red;stroke-width:1px;stroke-linecap:butt;stroke-linejoin:miter;stroke-opacity:1" d="M 520.79,233.685 520.79,253.485 z" id="boundary" inkscape:connector-curvature="0" />
	<path style="fill:none;stroke:red;stroke-width:1px;stroke-linecap:butt;stroke-linejoin:miter;stroke-opacity:1" d="M 520.79,273.285 520.79,253.485 z" id="boundary" inkscape:connector-curvature="0" />
	<path style="fill:none;stroke:red;stroke-width:1px;stroke-linecap:butt;stroke-linejoin:miter;stroke-opacity:1" d="M 524.75,312.886 520.79,293.086 z" id="boundary" inkscape:connector-curvature="0" />
	<path style="fill:none;stroke:red;stroke-width:1px;stroke-linecap:butt;stroke-linejoin:miter;stroke-opacity:1" d="M 520.79,293.086 520.79,273.285 z" id="boundary" inkscape:connector-curvature="0" />
	<path style="fill:none;stroke:red;stroke-width:1px;stroke-linecap:butt;stroke-linejoin:miter;stroke-opacity:1" d="M 524.75,312.886 534.651,330.707 z" id="boundary" inkscape:connector-curvature="0" />
	<path style="fill:none;stroke:red;stroke-width:1px;stroke-linecap:butt;stroke-linejoin:miter;stroke-opacity:1" d="M 520.79,233.685 530.691,213.884 z" id="boundary" inkscape:connector-curvature="0" />
	<path style="fill:none;stroke:red;stroke-width:1px;stroke-linecap:butt;stroke-linejoin:miter;stroke-opacity:1" d="M 530.691,213.884 540.591,194.084 z" id="boundary" inkscape:connector-curvature="0" />
	<path style="fill:none;stroke:red;stroke-width:1px;stroke-linecap:butt;stroke-linejoin:miter;stroke-opacity:1" d="M 552.471,340.607 534.651,330.707 z" id="boundary" inkscape:connector-curvature="0" />
	<path style="fill:none;stroke:red;stroke-width:1px;stroke-linecap:butt;stroke-linejoin:miter;stroke-opacity:1" d="M 572.271,340.607 552.471,340.607 z" id="boundary" inkscape:connector-curvature="0" />
	<path style="fill:none;stroke:red;stroke-width:1px;stroke-linecap:butt;stroke-linejoin:miter;stroke-opacity:1" d="M 532.671,758.395 512.87,758.395 z" id="boundary" inkscape:connector-curvature="0" />
	<path style="fill:none;stroke:red;stroke-width:1px;stroke-linecap:butt;stroke-linejoin:miter;stroke-opacity:1" d="M 592.072,340.607 572.271,340.607 z" id="boundary" inkscape:connector-curvature="0" />
	<path style="fill:none;stroke:red;stroke-width:1px;stroke-linecap:butt;stroke-linejoin:miter;stroke-opacity:1" d="M 586.132,132.703 605.932,132.703 z" id="boundary" inkscape:connector-curvature="0" />
	<path style="fill:none;stroke:red;stroke-width:1px;stroke-linecap:butt;stroke-linejoin:miter;stroke-opacity:1" d="M 609.892,350.507 592.072,340.607 z" id="boundary" inkscape:connector-curvature="0" />
	<path style="fill:none;stroke:red;stroke-width:1px;stroke-linecap:butt;stroke-linejoin:miter;stroke-opacity:1" d="M 629.693,350.507 609.892,350.507 z" id="boundary" inkscape:connector-curvature="0" />
	<path style="fill:none;stroke:red;stroke-width:1px;stroke-linecap:butt;stroke-linejoin:miter;stroke-opacity:1" d="M 580.192,184.184 599.992,174.283 z" id="boundary" inkscape:connector-curvature="0" />
	<path style="fill:none;stroke:red;stroke-width:1px;stroke-linecap:butt;stroke-linejoin:miter;stroke-opacity:1" d="M 619.792,164.383 599.992,174.283 z" id="boundary" inkscape:connector-curvature="0" />
	<path style="fill:none;stroke:red;stroke-width:1px;stroke-linecap:butt;stroke-linejoin:miter;stroke-opacity:1" d="M 625.733,132.703 645.533,134.683 z" id="boundary" inkscape:connector-curvature="0" />
	<path style="fill:none;stroke:red;stroke-width:1px;stroke-linecap:butt;stroke-linejoin:miter;stroke-opacity:1" d="M 645.533,134.683 639.593,154.483 z" id="boundary" inkscape:connector-curvature="0" />
	<path style="fill:none;stroke:red;stroke-width:1px;stroke-linecap:butt;stroke-linejoin:miter;stroke-opacity:1" d="M 639.593,154.483 619.792,164.383 z" id="boundary" inkscape:connector-curvature="0" />
	<path style="fill:none;stroke:red;stroke-width:1px;stroke-linecap:butt;stroke-linejoin:miter;stroke-opacity:1" d="M 649.493,350.507 629.693,350.507 z" id="boundary" inkscape:connector-curvature="0" />
	<path style="fill:none;stroke:red;stroke-width:1px;stroke-linecap:butt;stroke-linejoin:miter;stroke-opacity:1" d="M 605.932,132.703 625.733,132.703 z" id="boundary" inkscape:connector-curvature="0" />
	<path style="fill:none;stroke:red;stroke-width:1px;stroke-linecap:butt;stroke-linejoin:miter;stroke-opacity:1" d="M 649.493,350.507 667.313,360.407 z" id="boundary" inkscape:connector-curvature="0" />
	<path style="fill:none;stroke:red;stroke-width:1px;stroke-linecap:butt;stroke-linejoin:miter;stroke-opacity:1" d="M 687.114,360.407 667.313,360.407 z" id="boundary" inkscape:connector-curvature="0" />
	<path style="fill:none;stroke:red;stroke-width:1px;stroke-linecap:butt;stroke-linejoin:miter;stroke-opacity:1" d="M 724.735,370.307 704.934,370.307 z" id="boundary" inkscape:connector-curvature="0" />
	<path style="fill:none;stroke:red;stroke-width:1px;stroke-linecap:butt;stroke-linejoin:miter;stroke-opacity:1" d="M 704.934,370.307 687.114,360.407 z" id="boundary" inkscape:connector-curvature="0" />
	<path style="fill:none;stroke:red;stroke-width:1px;stroke-linecap:butt;stroke-linejoin:miter;stroke-opacity:1" d="M 744.535,370.307 724.735,370.307 z" id="boundary" inkscape:connector-curvature="0" />
	<path style="fill:none;stroke:red;stroke-width:1px;stroke-linecap:butt;stroke-linejoin:miter;stroke-opacity:1" d="M 744.535,370.307 764.335,370.307 z" id="boundary" inkscape:connector-curvature="0" />
	<path style="fill:none;stroke:red;stroke-width:1px;stroke-linecap:butt;stroke-linejoin:miter;stroke-opacity:1" d="M 784.136,372.287 801.956,382.188 z" id="boundary" inkscape:connector-curvature="0" />
	<path style="fill:none;stroke:red;stroke-width:1px;stroke-linecap:butt;stroke-linejoin:miter;stroke-opacity:1" d="M 817.796,396.048 801.956,382.188 z" id="boundary" inkscape:connector-curvature="0" />
	<path style="fill:none;stroke:red;stroke-width:1px;stroke-linecap:butt;stroke-linejoin:miter;stroke-opacity:1" d="M 764.335,370.307 784.136,372.287 z" id="boundary" inkscape:connector-curvature="0" />
	<path style="fill:none;stroke:red;stroke-width:1px;stroke-linecap:butt;stroke-linejoin:miter;stroke-opacity:1" d="M 817.796,396.048 817.796,415.848 z" id="boundary" inkscape:connector-curvature="0" />
	<path style="fill:none;stroke:red;stroke-width:1px;stroke-linecap:butt;stroke-linejoin:miter;stroke-opacity:1" d="M 782.156,708.894 801.956,708.894 z" id="boundary" inkscape:connector-curvature="0" />
	<path style="fill:none;stroke:red;stroke-width:1px;stroke-linecap:butt;stroke-linejoin:miter;stroke-opacity:1" d="M 764.335,718.794 782.156,708.894 z" id="boundary" inkscape:connector-curvature="0" />
	<path style="fill:none;stroke:red;stroke-width:1px;stroke-linecap:butt;stroke-linejoin:miter;stroke-opacity:1" d="M 819.776,698.994 801.956,708.894 z" id="boundary" inkscape:connector-curvature="0" />
	<path style="fill:none;stroke:red;stroke-width:1px;stroke-linecap:butt;stroke-linejoin:miter;stroke-opacity:1" d="M 764.335,718.794 746.515,728.695 z" id="boundary" inkscape:connector-curvature="0" />
	<path style="fill:none;stroke:red;stroke-width:1px;stroke-linecap:butt;stroke-linejoin:miter;stroke-opacity:1" d="M 746.515,728.695 728.695,738.595 z" id="boundary" inkscape:connector-curvature="0" />
	<path style="fill:none;stroke:red;stroke-width:1px;stroke-linecap:butt;stroke-linejoin:miter;stroke-opacity:1" d="M 728.695,738.595 708.894,738.595 z" id="boundary" inkscape:connector-curvature="0" />
	<path style="fill:none;stroke:red;stroke-width:1px;stroke-linecap:butt;stroke-linejoin:miter;stroke-opacity:1" d="M 817.796,435.649 817.796,455.449 z" id="boundary" inkscape:connector-curvature="0" />
	<path style="fill:none;stroke:red;stroke-width:1px;stroke-linecap:butt;stroke-linejoin:miter;stroke-opacity:1" d="M 853.437,469.309 833.637,469.309 z" id="boundary" inkscape:connector-curvature="0" />
	<path style="fill:none;stroke:red;stroke-width:1px;stroke-linecap:butt;stroke-linejoin:miter;stroke-opacity:1" d="M 833.637,469.309 817.796,455.449 z" id="boundary" inkscape:connector-curvature="0" />
	<path style="fill:none;stroke:red;stroke-width:1px;stroke-linecap:butt;stroke-linejoin:miter;stroke-opacity:1" d="M 817.796,435.649 817.796,415.848 z" id="boundary" inkscape:connector-curvature="0" />
	<path style="fill:none;stroke:red;stroke-width:1px;stroke-linecap:butt;stroke-linejoin:miter;stroke-opacity:1" d="M 819.776,698.994 839.577,698.994 z" id="boundary" inkscape:connector-curvature="0" />
	<path style="fill:none;stroke:red;stroke-width:1px;stroke-linecap:butt;stroke-linejoin:miter;stroke-opacity:1" d="M 552.471,758.395 532.671,758.395 z" id="boundary" inkscape:connector-curvature="0" />
	<path style="fill:none;stroke:red;stroke-width:1px;stroke-linecap:butt;stroke-linejoin:miter;stroke-opacity:1" d="M 592.072,758.395 572.271,758.395 z" id="boundary" inkscape:connector-curvature="0" />
	<path style="fill:none;stroke:red;stroke-width:1px;stroke-linecap:butt;stroke-linejoin:miter;stroke-opacity:1" d="M 611.872,758.395 592.072,758.395 z" id="boundary" inkscape:connector-curvature="0" />
	<path style="fill:none;stroke:red;stroke-width:1px;stroke-linecap:butt;stroke-linejoin:miter;stroke-opacity:1" d="M 572.271,758.395 552.471,758.395 z" id="boundary" inkscape:connector-curvature="0" />
	<path style="fill:none;stroke:red;stroke-width:1px;stroke-linecap:butt;stroke-linejoin:miter;stroke-opacity:1" d="M 708.894,738.595 689.094,748.495 z" id="boundary" inkscape:connector-curvature="0" />
	<path style="fill:none;stroke:red;stroke-width:1px;stroke-linecap:butt;stroke-linejoin:miter;stroke-opacity:1" d="M 689.094,748.495 669.293,748.495 z" id="boundary" inkscape:connector-curvature="0" />
	<path style="fill:none;stroke:red;stroke-width:1px;stroke-linecap:butt;stroke-linejoin:miter;stroke-opacity:1" d="M 669.293,748.495 651.473,758.395 z" id="boundary" inkscape:connector-curvature="0" />
	<path style="fill:none;stroke:red;stroke-width:1px;stroke-linecap:butt;stroke-linejoin:miter;stroke-opacity:1" d="M 651.473,758.395 631.673,758.395 z" id="boundary" inkscape:connector-curvature="0" />
	<path style="fill:none;stroke:red;stroke-width:1px;stroke-linecap:butt;stroke-linejoin:miter;stroke-opacity:1" d="M 631.673,758.395 611.872,758.395 z" id="boundary" inkscape:connector-curvature="0" />
	<path style="fill:none;stroke:red;stroke-width:1px;stroke-linecap:butt;stroke-linejoin:miter;stroke-opacity:1" d="M 926.699,504.95 906.898,499.01 z" id="boundary" inkscape:connector-curvature="0" />
	<path style="fill:none;stroke:red;stroke-width:1px;stroke-linecap:butt;stroke-linejoin:miter;stroke-opacity:1" d="M 906.898,499.01 889.078,489.11 z" id="boundary" inkscape:connector-curvature="0" />
	<path style="fill:none;stroke:red;stroke-width:1px;stroke-linecap:butt;stroke-linejoin:miter;stroke-opacity:1" d="M 871.257,479.21 853.437,469.309 z" id="boundary" inkscape:connector-curvature="0" />
	<path style="fill:none;stroke:red;stroke-width:1px;stroke-linecap:butt;stroke-linejoin:miter;stroke-opacity:1" d="M 889.078,489.11 871.257,479.21 z" id="boundary" inkscape:connector-curvature="0" />
	<path style="fill:none;stroke:red;stroke-width:1px;stroke-linecap:butt;stroke-linejoin:miter;stroke-opacity:1" d="M 944.519,514.85 960.359,528.711 z" id="boundary" inkscape:connector-curvature="0" />
	<path style="fill:none;stroke:red;stroke-width:1px;stroke-linecap:butt;stroke-linejoin:miter;stroke-opacity:1" d="M 978.18,538.611 960.359,528.711 z" id="boundary" inkscape:connector-curvature="0" />
	<path style="fill:none;stroke:red;stroke-width:1px;stroke-linecap:butt;stroke-linejoin:miter;stroke-opacity:1" d="M 978.18,538.611 994.02,552.471 z" id="boundary" inkscape:connector-curvature="0" />
	<path style="fill:none;stroke:red;stroke-width:1px;stroke-linecap:butt;stroke-linejoin:miter;stroke-opacity:1" d="M 994.02,552.471 996,572.271 z" id="boundary" inkscape:connector-curvature="0" />
	<path style="fill:none;stroke:red;stroke-width:1px;stroke-linecap:butt;stroke-linejoin:miter;stroke-opacity:1" d="M 944.519,514.85 926.699,504.95 z" id="boundary" inkscape:connector-curvature="0" />
	<path style="fill:none;stroke:red;stroke-width:1px;stroke-linecap:butt;stroke-linejoin:miter;stroke-opacity:1" d="M 996,572.271 986.1,590.092 z" id="boundary" inkscape:connector-curvature="0" />
	<path style="fill:none;stroke:red;stroke-width:1px;stroke-linecap:butt;stroke-linejoin:miter;stroke-opacity:1" d="M 896.998,679.194 916.798,679.194 z" id="boundary" inkscape:connector-curvature="0" />
	<path style="fill:none;stroke:red;stroke-width:1px;stroke-linecap:butt;stroke-linejoin:miter;stroke-opacity:1" d="M 877.198,689.094 896.998,679.194 z" id="boundary" inkscape:connector-curvature="0" />
	<path style="fill:none;stroke:red;stroke-width:1px;stroke-linecap:butt;stroke-linejoin:miter;stroke-opacity:1" d="M 936.599,669.293 916.798,679.194 z" id="boundary" inkscape:connector-curvature="0" />
	<path style="fill:none;stroke:red;stroke-width:1px;stroke-linecap:butt;stroke-linejoin:miter;stroke-opacity:1" d="M 839.577,698.994 857.397,689.094 z" id="boundary" inkscape:connector-curvature="0" />
	<path style="fill:none;stroke:red;stroke-width:1px;stroke-linecap:butt;stroke-linejoin:miter;stroke-opacity:1" d="M 857.397,689.094 877.198,689.094 z" id="boundary" inkscape:connector-curvature="0" />
	<path style="fill:none;stroke:red;stroke-width:1px;stroke-linecap:butt;stroke-linejoin:miter;stroke-opacity:1" d="M 976.2,609.892 986.1,590.092 z" id="boundary" inkscape:connector-curvature="0" />
	<path style="fill:none;stroke:red;stroke-width:1px;stroke-linecap:butt;stroke-linejoin:miter;stroke-opacity:1" d="M 952.439,655.433 936.599,669.293 z" id="boundary" inkscape:connector-curvature="0" />
	<path style="fill:none;stroke:red;stroke-width:1px;stroke-linecap:butt;stroke-linejoin:miter;stroke-opacity:1" d="M 966.299,629.693 952.439,655.433 z" id="boundary" inkscape:connector-curvature="0" />
	<path style="fill:none;stroke:red;stroke-width:1px;stroke-linecap:butt;stroke-linejoin:miter;stroke-opacity:1" d="M 966.299,629.693 976.2,609.892 z" id="boundary" inkscape:connector-curvature="0" />
	<circle cx="4" cy="603.952" r="4" fill="#0" id="circle0"/>
	<circle cx="4" cy="623.752" r="4" fill="#0" id="circle1"/>
	<circle cx="13.9002" cy="564.351" r="4" fill="#0" id="circle2"/>
	<circle cx="13.9002" cy="584.152" r="4" fill="#0" id="circle3"/>
	<circle cx="19.8403" cy="637.613" r="4" fill="#0" id="circle4"/>
	<circle cx="23.8004" cy="544.551" r="4" fill="#0" id="circle5"/>
	<circle cx="33.7006" cy="524.75" r="4" fill="#0" id="circle6"/>
	<circle cx="37.6607" cy="647.513" r="4" fill="#0" id="circle7"/>
	<circle cx="49.5409" cy="508.91" r="4" fill="#0" id="circle8"/>
	<circle cx="57.4611" cy="655.433" r="4" fill="#0" id="circle9"/>
	<circle cx="67.3613" cy="499.01" r="4" fill="#0" id="circle10"/>
	<circle cx="75.2814" cy="665.333" r="4" fill="#0" id="circle11"/>
	<circle cx="85.1816" cy="489.11" r="4" fill="#0" id="circle12"/>
	<circle cx="93.1018" cy="675.234" r="4" fill="#0" id="circle13"/>
	<circle cx="103.002" cy="479.21" r="4" fill="#0" id="circle14"/>
	<circle cx="103.002" cy="693.054" r="4" fill="#0" id="circle15"/>
	<circle cx="120.822" cy="469.309" r="4" fill="#0" id="circle16"/>
	<circle cx="122.802" cy="698.994" r="4" fill="#0" id="circle17"/>
	<circle cx="140.623" cy="469.309" r="4" fill="#0" id="circle18"/>
	<circle cx="142.603" cy="698.994" r="4" fill="#0" id="circle19"/>
	<circle cx="158.443" cy="459.409" r="4" fill="#0" id="circle20"/>
	<circle cx="160.423" cy="708.894" r="4" fill="#0" id="circle21"/>
	<circle cx="178.244" cy="449.509" r="4" fill="#0" id="circle22"/>
	<circle cx="180.224" cy="708.894" r="4" fill="#0" id="circle23"/>
	<circle cx="182.204" cy="415.848" r="4" fill="#0" id="circle24"/>
	<circle cx="192.104" cy="396.048" r="4" fill="#0" id="circle25"/>
	<circle cx="198.044" cy="718.794" r="4" fill="#0" id="circle26"/>
	<circle cx="207.944" cy="380.208" r="4" fill="#0" id="circle27"/>
	<circle cx="217.844" cy="718.794" r="4" fill="#0" id="circle28"/>
	<circle cx="225.764" cy="370.307" r="4" fill="#0" id="circle29"/>
	<circle cx="235.665" cy="728.695" r="4" fill="#0" id="circle30"/>
	<circle cx="245.565" cy="370.307" r="4" fill="#0" id="circle31"/>
	<circle cx="255.465" cy="728.695" r="4" fill="#0" id="circle32"/>
	<circle cx="263.385" cy="360.407" r="4" fill="#0" id="circle33"/>
	<circle cx="275.265" cy="728.695" r="4" fill="#0" id="circle34"/>
	<circle cx="281.206" cy="350.507" r="4" fill="#0" id="circle35"/>
	<circle cx="295.066" cy="734.635" r="4" fill="#0" id="circle36"/>
	<circle cx="301.006" cy="350.507" r="4" fill="#0" id="circle37"/>
	<circle cx="314.866" cy="738.595" r="4" fill="#0" id="circle38"/>
	<circle cx="318.826" cy="340.607" r="4" fill="#0" id="circle39"/>
	<circle cx="334.667" cy="738.595" r="4" fill="#0" id="circle40"/>
	<circle cx="338.627" cy="340.607" r="4" fill="#0" id="circle41"/>
	<circle cx="354.467" cy="744.535" r="4" fill="#0" id="circle42"/>
	<circle cx="358.427" cy="340.607" r="4" fill="#0" id="circle43"/>
	<circle cx="370.307" cy="128.743" r="4" fill="#0" id="circle44"/>
	<circle cx="370.307" cy="148.543" r="4" fill="#0" id="circle45"/>
	<circle cx="374.267" cy="748.495" r="4" fill="#0" id="circle46"/>
	<circle cx="378.228" cy="340.607" r="4" fill="#0" id="circle47"/>
	<circle cx="386.148" cy="112.902" r="4" fill="#0" id="circle48"/>
	<circle cx="390.108" cy="154.483" r="4" fill="#0" id="circle49"/>
	<circle cx="394.068" cy="748.495" r="4" fill="#0" id="circle50"/>
	<circle cx="398.028" cy="340.607" r="4" fill="#0" id="circle51"/>
	<circle cx="405.948" cy="103.002" r="4" fill="#0" id="circle52"/>
	<circle cx="407.928" cy="164.383" r="4" fill="#0" id="circle53"/>
	<circle cx="413.868" cy="754.435" r="4" fill="#0" id="circle54"/>
	<circle cx="415.848" cy="330.707" r="4" fill="#0" id="circle55"/>
	<circle cx="425.749" cy="103.002" r="4" fill="#0" id="circle56"/>
	<circle cx="425.749" cy="174.283" r="4" fill="#0" id="circle57"/>
	<circle cx="433.669" cy="758.395" r="4" fill="#0" id="circle58"/>
	<circle cx="435.649" cy="330.707" r="4" fill="#0" id="circle59"/>
	<circle cx="445.549" cy="103.002" r="4" fill="#0" id="circle60"/>
	<circle cx="445.549" cy="174.283" r="4" fill="#0" id="circle61"/>
	<circle cx="453.469" cy="758.395" r="4" fill="#0" id="circle62"/>
	<circle cx="455.449" cy="320.806" r="4" fill="#0" id="circle63"/>
	<circle cx="459.409" cy="190.124" r="4" fill="#0" id="circle64"/>
	<circle cx="459.409" cy="209.924" r="4" fill="#0" id="circle65"/>
	<circle cx="459.409" cy="229.725" r="4" fill="#0" id="circle66"/>
	<circle cx="459.409" cy="249.525" r="4" fill="#0" id="circle67"/>
	<circle cx="459.409" cy="269.325" r="4" fill="#0" id="circle68"/>
	<circle cx="459.409" cy="289.126" r="4" fill="#0" id="circle69"/>
	<circle cx="465.349" cy="103.002" r="4" fill="#0" id="circle70"/>
	<circle cx="469.309" cy="39.6407" r="4" fill="#0" id="circle71"/>
	<circle cx="473.269" cy="758.395" r="4" fill="#0" id="circle72"/>
	<circle cx="479.21" cy="19.8403" r="4" fill="#0" id="circle73"/>
	<circle cx="479.21" cy="57.4611" r="4" fill="#0" id="circle74"/>
	<circle cx="479.21" cy="77.2615" r="4" fill="#0" id="circle75"/>
	<circle cx="493.07" cy="758.395" r="4" fill="#0" id="circle76"/>
	<circle cx="495.05" cy="4" r="4" fill="#0" id="circle77"/>
	<circle cx="512.87" cy="758.395" r="4" fill="#0" id="circle78"/>
	<circle cx="514.85" cy="4" r="4" fill="#0" id="circle79"/>
	<circle cx="520.79" cy="23.8004" r="4" fill="#0" id="circle80"/>
	<circle cx="520.79" cy="43.6008" r="4" fill="#0" id="circle81"/>
	<circle cx="520.79" cy="63.4012" r="4" fill="#0" id="circle82"/>
	<circle cx="520.79" cy="83.2016" r="4" fill="#0" id="circle83"/>
	<circle cx="520.79" cy="103.002" r="4" fill="#0" id="circle84"/>
	<circle cx="520.79" cy="233.685" r="4" fill="#0" id="circle85"/>
	<circle cx="520.79" cy="253.485" r="4" fill="#0" id="circle86"/>
	<circle cx="520.79" cy="273.285" r="4" fill="#0" id="circle87"/>
	<circle cx="520.79" cy="293.086" r="4" fill="#0" id="circle88"/>
	<circle cx="524.75" cy="312.886" r="4" fill="#0" id="circle89"/>
	<circle cx="530.691" cy="120.822" r="4" fill="#0" id="circle90"/>
	<circle cx="530.691" cy="213.884" r="4" fill="#0" id="circle91"/>
	<circle cx="532.671" cy="758.395" r="4" fill="#0" id="circle92"/>
	<circle cx="534.651" cy="330.707" r="4" fill="#0" id="circle93"/>
	<circle cx="540.591" cy="194.084" r="4" fill="#0" id="circle94"/>
	<circle cx="546.531" cy="132.703" r="4" fill="#0" id="circle95"/>
	<circle cx="552.471" cy="340.607" r="4" fill="#0" id="circle96"/>
	<circle cx="552.471" cy="758.395" r="4" fill="#0" id="circle97"/>
	<circle cx="560.391" cy="184.184" r="4" fill="#0" id="circle98"/>
	<circle cx="566.331" cy="132.703" r="4" fill="#0" id="circle99"/>
	<circle cx="572.271" cy="340.607" r="4" fill="#0" id="circle100"/>
	<circle cx="572.271" cy="758.395" r="4" fill="#0" id="circle101"/>
	<circle cx="580.192" cy="184.184" r="4" fill="#0" id="circle102"/>
	<circle cx="586.132" cy="132.703" r="4" fill="#0" id="circle103"/>
	<circle cx="592.072" cy="340.607" r="4" fill="#0" id="circle104"/>
	<circle cx="592.072" cy="758.395" r="4" fill="#0" id="circle105"/>
	<circle cx="599.992" cy="174.283" r="4" fill="#0" id="circle106"/>
	<circle cx="605.932" cy="132.703" r="4" fill="#0" id="circle107"/>
	<circle cx="609.892" cy="350.507" r="4" fill="#0" id="circle108"/>
	<circle cx="611.872" cy="758.395" r="4" fill="#0" id="circle109"/>
	<circle cx="619.792" cy="164.383" r="4" fill="#0" id="circle110"/>
	<circle cx="625.733" cy="132.703" r="4" fill="#0" id="circle111"/>
	<circle cx="629.693" cy="350.507" r="4" fill="#0" id="circle112"/>
	<circle cx="631.673" cy="758.395" r="4" fill="#0" id="circle113"/>
	<circle cx="639.593" cy="154.483" r="4" fill="#0" id="circle114"/>
	<circle cx="645.533" cy="134.683" r="4" fill="#0" id="circle115"/>
	<circle cx="649.493" cy="350.507" r="4" fill="#0" id="circle116"/>
	<circle cx="651.473" cy="758.395" r="4" fill="#0" id="circle117"/>
	<circle cx="667.313" cy="360.407" r="4" fill="#0" id="circle118"/>
	<circle cx="669.293" cy="748.495" r="4" fill="#0" id="circle119"/>
	<circle cx="687.114" cy="360.407" r="4" fill="#0" id="circle120"/>
	<circle cx="689.094" cy="748.495" r="4" fill="#0" id="circle121"/>
	<circle cx="704.934" cy="370.307" r="4" fill="#0" id="circle122"/>
	<circle cx="708.894" cy="738.595" r="4" fill="#0" id="circle123"/>
	<circle cx="724.735" cy="370.307" r="4" fill="#0" id="circle124"/>
	<circle cx="728.695" cy="738.595" r="4" fill="#0" id="circle125"/>
	<circle cx="744.535" cy="370.307" r="4" fill="#0" id="circle126"/>
	<circle cx="746.515" cy="728.695" r="4" fill="#0" id="circle127"/>
	<circle cx="764.335" cy="370.307" r="4" fill="#0" id="circle128"/>
	<circle cx="764.335" cy="718.794" r="4" fill="#0" id="circle129"/>
	<circle cx="782.156" cy="708.894" r="4" fill="#0" id="circle130"/>
	<circle cx="784.136" cy="372.287" r="4" fill="#0" id="circle131"/>
	<circle cx="801.956" cy="382.188" r="4" fill="#0" id="circle132"/>
	<circle cx="801.956" cy="708.894" r="4" fill="#0" id="circle133"/>
	<circle cx="817.796" cy="396.048" r="4" fill="#0" id="circle134"/>
	<circle cx="817.796" cy="415.848" r="4" fill="#0" id="circle135"/>
	<circle cx="817.796" cy="435.649" r="4" fill="#0" id="circle136"/>
	<circle cx="817.796" cy="455.449" r="4" fill="#0" id="circle137"/>
	<circle cx="819.776" cy="698.994" r="4" fill="#0" id="circle138"/>
	<circle cx="833.637" cy="469.309" r="4" fill="#0" id="circle139"/>
	<circle cx="839.577" cy="698.994" r="4" fill="#0" id="circle140"/>
	<circle cx="853.437" cy="469.309" r="4" fill="#0" id="circle141"/>
	<circle cx="857.397" cy="689.094" r="4" fill="#0" id="circle142"/>
	<circle cx="871.257" cy="479.21" r="4" fill="#0" id="circle143"/>
	<circle cx="877.198" cy="689.094" r="4" fill="#0" id="circle144"/>
	<circle cx="889.078" cy="489.11" r="4" fill="#0" id="circle145"/>
	<circle cx="896.998" cy="679.194" r="4" fill="#0" id="circle146"/>
	<circle cx="906.898" cy="499.01" r="4" fill="#0" id="circle147"/>
	<circle cx="916.798" cy="679.194" r="4" fill="#0" id="circle148"/>
	<circle cx="926.699" cy="504.95" r="4" fill="#0" id="circle149"/>
	<circle cx="936.599" cy="669.293" r="4" fill="#0" id="circle150"/>
	<circle cx="944.519" cy="514.85" r="4" fill="#0" id="circle151"/>
	<circle cx="952.439" cy="655.433" r="4" fill="#0" id="circle152"/>
	<circle cx="960.359" cy="528.711" r="4" fill="#0" id="circle153"/>
	<circle cx="966.299" cy="629.693" r="4" fill="#0" id="circle154"/>
	<circle cx="976.2" cy="609.892" r="4" fill="#0" id="circle155"/>
	<circle cx="978.18" cy="538.611" r="4" fill="#0" id="circle156"/>
	<circle cx="986.1" cy="590.092" r="4" fill="#0" id="circle157"/>
	<circle cx="994.02" cy="552.471" r="4" fill="#0" id="circle158"/>
	<circle cx="996" cy="572.271" r="4" fill="#0" id="circle159"/>
	</g>
</svg>