<?xml version="1.0" encoding="UTF-8" standalone="no"?>
<!-- Created with CurveBenchmark -->
<svg
	xmlns:dc="http://purl.org/dc/elements/1.1/"
	xmlns:cc="http://creativecommons.org/ns#"
	xmlns:rdf="http://www.w3.org/1999/02/22-rdf-syntax-ns#"
	xmlns:svg="http://www.w3.org/2000/svg"
	xmlns="http://www.w3.org/2000/svg"
	xmlns:sodipodi="http://sodipodi.sourceforge.net/DTD/sodipodi-0.dtd"
	xmlns:inkscape="http://www.inkscape.org/namespaces/inkscape"
	width="1000"
	height="1000"
	id="svg2"
	version="1.1"
	sodipodi:docname="manifold/gathang-fork05.png.txt">
<defs
	id="defs4" />
<metadata
	id="metadata7">
	<rdf:RDF>
		<cc:Work
			rdf:about="">
			<dc:format>image/svg+xml</dc:format>
			<dc:type
				rdf:resource="http://purl.org/dc/dcmitype/StillImage" />
			<dc:title></dc:title>
		</cc:Work>
	</rdf:RDF>
</metadata>
<g
	inkscape:label="Layer 1"
	inkscape:groupmode="layer"
	id="layer1">
	<path style="fill:none;stroke:red;stroke-width:1px;stroke-linecap:butt;stroke-linejoin:miter;stroke-opacity:1" d="M 13.1682,18.6691 27.8373,4 z" id="boundary" inkscape:connector-curvature="0" />
	<path style="fill:none;stroke:red;stroke-width:1px;stroke-linecap:butt;stroke-linejoin:miter;stroke-opacity:1" d="M 27.8373,4 44.3401,13.1682 z" id="boundary" inkscape:connector-curvature="0" />
	<path style="fill:none;stroke:red;stroke-width:1px;stroke-linecap:butt;stroke-linejoin:miter;stroke-opacity:1" d="M 62.6765,13.1682 44.3401,13.1682 z" id="boundary" inkscape:connector-curvature="0" />
	<path style="fill:none;stroke:red;stroke-width:1px;stroke-linecap:butt;stroke-linejoin:miter;stroke-opacity:1" d="M 4,37.0055 18.6691,49.841 z" id="boundary" inkscape:connector-curvature="0" />
	<path style="fill:none;stroke:red;stroke-width:1px;stroke-linecap:butt;stroke-linejoin:miter;stroke-opacity:1" d="M 4,37.0055 13.1682,18.6691 z" id="boundary" inkscape:connector-curvature="0" />
	<path style="fill:none;stroke:red;stroke-width:1px;stroke-linecap:butt;stroke-linejoin:miter;stroke-opacity:1" d="M 37.0055,51.6747 55.342,51.6747 z" id="boundary" inkscape:connector-curvature="0" />
	<path style="fill:none;stroke:red;stroke-width:1px;stroke-linecap:butt;stroke-linejoin:miter;stroke-opacity:1" d="M 37.0055,51.6747 18.6691,49.841 z" id="boundary" inkscape:connector-curvature="0" />
	<path style="fill:none;stroke:red;stroke-width:1px;stroke-linecap:butt;stroke-linejoin:miter;stroke-opacity:1" d="M 81.0129,5.83364 99.3494,5.83364 z" id="boundary" inkscape:connector-curvature="0" />
	<path style="fill:none;stroke:red;stroke-width:1px;stroke-linecap:butt;stroke-linejoin:miter;stroke-opacity:1" d="M 117.686,5.83364 99.3494,5.83364 z" id="boundary" inkscape:connector-curvature="0" />
	<path style="fill:none;stroke:red;stroke-width:1px;stroke-linecap:butt;stroke-linejoin:miter;stroke-opacity:1" d="M 110.351,51.6747 92.0148,51.6747 z" id="boundary" inkscape:connector-curvature="0" />
	<path style="fill:none;stroke:red;stroke-width:1px;stroke-linecap:butt;stroke-linejoin:miter;stroke-opacity:1" d="M 73.6784,51.6747 55.342,51.6747 z" id="boundary" inkscape:connector-curvature="0" />
	<path style="fill:none;stroke:red;stroke-width:1px;stroke-linecap:butt;stroke-linejoin:miter;stroke-opacity:1" d="M 62.6765,13.1682 81.0129,5.83364 z" id="boundary" inkscape:connector-curvature="0" />
	<path style="fill:none;stroke:red;stroke-width:1px;stroke-linecap:butt;stroke-linejoin:miter;stroke-opacity:1" d="M 117.686,5.83364 136.022,5.83364 z" id="boundary" inkscape:connector-curvature="0" />
	<path style="fill:none;stroke:red;stroke-width:1px;stroke-linecap:butt;stroke-linejoin:miter;stroke-opacity:1" d="M 92.0148,51.6747 73.6784,51.6747 z" id="boundary" inkscape:connector-curvature="0" />
	<path style="fill:none;stroke:red;stroke-width:1px;stroke-linecap:butt;stroke-linejoin:miter;stroke-opacity:1" d="M 154.359,5.83364 136.022,5.83364 z" id="boundary" inkscape:connector-curvature="0" />
	<path style="fill:none;stroke:red;stroke-width:1px;stroke-linecap:butt;stroke-linejoin:miter;stroke-opacity:1" d="M 46.1738,159.86 64.5102,159.86 z" id="boundary" inkscape:connector-curvature="0" />
	<path style="fill:none;stroke:red;stroke-width:1px;stroke-linecap:butt;stroke-linejoin:miter;stroke-opacity:1" d="M 82.8466,159.86 64.5102,159.86 z" id="boundary" inkscape:connector-curvature="0" />
	<path style="fill:none;stroke:red;stroke-width:1px;stroke-linecap:butt;stroke-linejoin:miter;stroke-opacity:1" d="M 31.5046,174.529 40.6728,191.031 z" id="boundary" inkscape:connector-curvature="0" />
	<path style="fill:none;stroke:red;stroke-width:1px;stroke-linecap:butt;stroke-linejoin:miter;stroke-opacity:1" d="M 31.5046,174.529 46.1738,159.86 z" id="boundary" inkscape:connector-curvature="0" />
	<path style="fill:none;stroke:red;stroke-width:1px;stroke-linecap:butt;stroke-linejoin:miter;stroke-opacity:1" d="M 59.0092,198.366 77.3457,198.366 z" id="boundary" inkscape:connector-curvature="0" />
	<path style="fill:none;stroke:red;stroke-width:1px;stroke-linecap:butt;stroke-linejoin:miter;stroke-opacity:1" d="M 59.0092,198.366 40.6728,191.031 z" id="boundary" inkscape:connector-curvature="0" />
	<path style="fill:none;stroke:red;stroke-width:1px;stroke-linecap:butt;stroke-linejoin:miter;stroke-opacity:1" d="M 95.6821,198.366 77.3457,198.366 z" id="boundary" inkscape:connector-curvature="0" />
	<path style="fill:none;stroke:red;stroke-width:1px;stroke-linecap:butt;stroke-linejoin:miter;stroke-opacity:1" d="M 119.519,159.86 101.183,159.86 z" id="boundary" inkscape:connector-curvature="0" />
	<path style="fill:none;stroke:red;stroke-width:1px;stroke-linecap:butt;stroke-linejoin:miter;stroke-opacity:1" d="M 82.8466,159.86 101.183,159.86 z" id="boundary" inkscape:connector-curvature="0" />
	<path style="fill:none;stroke:red;stroke-width:1px;stroke-linecap:butt;stroke-linejoin:miter;stroke-opacity:1" d="M 128.688,51.6747 110.351,51.6747 z" id="boundary" inkscape:connector-curvature="0" />
	<path style="fill:none;stroke:red;stroke-width:1px;stroke-linecap:butt;stroke-linejoin:miter;stroke-opacity:1" d="M 95.6821,198.366 114.018,198.366 z" id="boundary" inkscape:connector-curvature="0" />
	<path style="fill:none;stroke:red;stroke-width:1px;stroke-linecap:butt;stroke-linejoin:miter;stroke-opacity:1" d="M 132.355,198.366 114.018,198.366 z" id="boundary" inkscape:connector-curvature="0" />
	<path style="fill:none;stroke:red;stroke-width:1px;stroke-linecap:butt;stroke-linejoin:miter;stroke-opacity:1" d="M 119.519,159.86 137.856,159.86 z" id="boundary" inkscape:connector-curvature="0" />
	<path style="fill:none;stroke:red;stroke-width:1px;stroke-linecap:butt;stroke-linejoin:miter;stroke-opacity:1" d="M 132.355,198.366 148.858,207.534 z" id="boundary" inkscape:connector-curvature="0" />
	<path style="fill:none;stroke:red;stroke-width:1px;stroke-linecap:butt;stroke-linejoin:miter;stroke-opacity:1" d="M 147.024,51.6747 128.688,51.6747 z" id="boundary" inkscape:connector-curvature="0" />
	<path style="fill:none;stroke:red;stroke-width:1px;stroke-linecap:butt;stroke-linejoin:miter;stroke-opacity:1" d="M 154.359,5.83364 172.695,13.1682 z" id="boundary" inkscape:connector-curvature="0" />
	<path style="fill:none;stroke:red;stroke-width:1px;stroke-linecap:butt;stroke-linejoin:miter;stroke-opacity:1" d="M 189.198,22.3364 172.695,13.1682 z" id="boundary" inkscape:connector-curvature="0" />
	<path style="fill:none;stroke:red;stroke-width:1px;stroke-linecap:butt;stroke-linejoin:miter;stroke-opacity:1" d="M 207.534,22.3364 189.198,22.3364 z" id="boundary" inkscape:connector-curvature="0" />
	<path style="fill:none;stroke:red;stroke-width:1px;stroke-linecap:butt;stroke-linejoin:miter;stroke-opacity:1" d="M 165.36,59.0092 147.024,51.6747 z" id="boundary" inkscape:connector-curvature="0" />
	<path style="fill:none;stroke:red;stroke-width:1px;stroke-linecap:butt;stroke-linejoin:miter;stroke-opacity:1" d="M 165.36,59.0092 183.697,59.0092 z" id="boundary" inkscape:connector-curvature="0" />
	<path style="fill:none;stroke:red;stroke-width:1px;stroke-linecap:butt;stroke-linejoin:miter;stroke-opacity:1" d="M 202.033,60.8429 183.697,59.0092 z" id="boundary" inkscape:connector-curvature="0" />
	<path style="fill:none;stroke:red;stroke-width:1px;stroke-linecap:butt;stroke-linejoin:miter;stroke-opacity:1" d="M 202.033,60.8429 218.536,70.0111 z" id="boundary" inkscape:connector-curvature="0" />
	<path style="fill:none;stroke:red;stroke-width:1px;stroke-linecap:butt;stroke-linejoin:miter;stroke-opacity:1" d="M 224.037,31.5046 207.534,22.3364 z" id="boundary" inkscape:connector-curvature="0" />
	<path style="fill:none;stroke:red;stroke-width:1px;stroke-linecap:butt;stroke-linejoin:miter;stroke-opacity:1" d="M 240.54,40.6728 224.037,31.5046 z" id="boundary" inkscape:connector-curvature="0" />
	<path style="fill:none;stroke:red;stroke-width:1px;stroke-linecap:butt;stroke-linejoin:miter;stroke-opacity:1" d="M 235.039,79.1793 218.536,70.0111 z" id="boundary" inkscape:connector-curvature="0" />
	<path style="fill:none;stroke:red;stroke-width:1px;stroke-linecap:butt;stroke-linejoin:miter;stroke-opacity:1" d="M 253.375,55.342 269.878,64.5102 z" id="boundary" inkscape:connector-curvature="0" />
	<path style="fill:none;stroke:red;stroke-width:1px;stroke-linecap:butt;stroke-linejoin:miter;stroke-opacity:1" d="M 253.375,55.342 240.54,40.6728 z" id="boundary" inkscape:connector-curvature="0" />
	<path style="fill:none;stroke:red;stroke-width:1px;stroke-linecap:butt;stroke-linejoin:miter;stroke-opacity:1" d="M 246.041,93.8484 235.039,79.1793 z" id="boundary" inkscape:connector-curvature="0" />
	<path style="fill:none;stroke:red;stroke-width:1px;stroke-linecap:butt;stroke-linejoin:miter;stroke-opacity:1" d="M 172.695,169.028 154.359,169.028 z" id="boundary" inkscape:connector-curvature="0" />
	<path style="fill:none;stroke:red;stroke-width:1px;stroke-linecap:butt;stroke-linejoin:miter;stroke-opacity:1" d="M 154.359,169.028 137.856,159.86 z" id="boundary" inkscape:connector-curvature="0" />
	<path style="fill:none;stroke:red;stroke-width:1px;stroke-linecap:butt;stroke-linejoin:miter;stroke-opacity:1" d="M 148.858,207.534 167.194,207.534 z" id="boundary" inkscape:connector-curvature="0" />
	<path style="fill:none;stroke:red;stroke-width:1px;stroke-linecap:butt;stroke-linejoin:miter;stroke-opacity:1" d="M 189.198,178.196 207.534,178.196 z" id="boundary" inkscape:connector-curvature="0" />
	<path style="fill:none;stroke:red;stroke-width:1px;stroke-linecap:butt;stroke-linejoin:miter;stroke-opacity:1" d="M 185.53,207.534 167.194,207.534 z" id="boundary" inkscape:connector-curvature="0" />
	<path style="fill:none;stroke:red;stroke-width:1px;stroke-linecap:butt;stroke-linejoin:miter;stroke-opacity:1" d="M 172.695,169.028 189.198,178.196 z" id="boundary" inkscape:connector-curvature="0" />
	<path style="fill:none;stroke:red;stroke-width:1px;stroke-linecap:butt;stroke-linejoin:miter;stroke-opacity:1" d="M 185.53,207.534 202.033,216.702 z" id="boundary" inkscape:connector-curvature="0" />
	<path style="fill:none;stroke:red;stroke-width:1px;stroke-linecap:butt;stroke-linejoin:miter;stroke-opacity:1" d="M 207.534,178.196 225.871,178.196 z" id="boundary" inkscape:connector-curvature="0" />
	<path style="fill:none;stroke:red;stroke-width:1px;stroke-linecap:butt;stroke-linejoin:miter;stroke-opacity:1" d="M 246.041,93.8484 262.543,103.017 z" id="boundary" inkscape:connector-curvature="0" />
	<path style="fill:none;stroke:red;stroke-width:1px;stroke-linecap:butt;stroke-linejoin:miter;stroke-opacity:1" d="M 202.033,216.702 220.37,216.702 z" id="boundary" inkscape:connector-curvature="0" />
	<path style="fill:none;stroke:red;stroke-width:1px;stroke-linecap:butt;stroke-linejoin:miter;stroke-opacity:1" d="M 220.37,216.702 236.872,225.871 z" id="boundary" inkscape:connector-curvature="0" />
	<path style="fill:none;stroke:red;stroke-width:1px;stroke-linecap:butt;stroke-linejoin:miter;stroke-opacity:1" d="M 260.71,187.364 242.373,187.364 z" id="boundary" inkscape:connector-curvature="0" />
	<path style="fill:none;stroke:red;stroke-width:1px;stroke-linecap:butt;stroke-linejoin:miter;stroke-opacity:1" d="M 242.373,187.364 225.871,178.196 z" id="boundary" inkscape:connector-curvature="0" />
	<path style="fill:none;stroke:red;stroke-width:1px;stroke-linecap:butt;stroke-linejoin:miter;stroke-opacity:1" d="M 262.543,103.017 277.213,115.852 z" id="boundary" inkscape:connector-curvature="0" />
	<path style="fill:none;stroke:red;stroke-width:1px;stroke-linecap:butt;stroke-linejoin:miter;stroke-opacity:1" d="M 273.545,225.871 255.209,225.871 z" id="boundary" inkscape:connector-curvature="0" />
	<path style="fill:none;stroke:red;stroke-width:1px;stroke-linecap:butt;stroke-linejoin:miter;stroke-opacity:1" d="M 49.841,312.052 68.1774,312.052 z" id="boundary" inkscape:connector-curvature="0" />
	<path style="fill:none;stroke:red;stroke-width:1px;stroke-linecap:butt;stroke-linejoin:miter;stroke-opacity:1" d="M 86.5139,312.052 68.1774,312.052 z" id="boundary" inkscape:connector-curvature="0" />
	<path style="fill:none;stroke:red;stroke-width:1px;stroke-linecap:butt;stroke-linejoin:miter;stroke-opacity:1" d="M 104.85,312.052 86.5139,312.052 z" id="boundary" inkscape:connector-curvature="0" />
	<path style="fill:none;stroke:red;stroke-width:1px;stroke-linecap:butt;stroke-linejoin:miter;stroke-opacity:1" d="M 31.5046,321.22 31.5046,339.556 z" id="boundary" inkscape:connector-curvature="0" />
	<path style="fill:none;stroke:red;stroke-width:1px;stroke-linecap:butt;stroke-linejoin:miter;stroke-opacity:1" d="M 49.841,345.057 31.5046,339.556 z" id="boundary" inkscape:connector-curvature="0" />
	<path style="fill:none;stroke:red;stroke-width:1px;stroke-linecap:butt;stroke-linejoin:miter;stroke-opacity:1" d="M 49.841,345.057 68.1774,345.057 z" id="boundary" inkscape:connector-curvature="0" />
	<path style="fill:none;stroke:red;stroke-width:1px;stroke-linecap:butt;stroke-linejoin:miter;stroke-opacity:1" d="M 31.5046,321.22 49.841,312.052 z" id="boundary" inkscape:connector-curvature="0" />
	<path style="fill:none;stroke:red;stroke-width:1px;stroke-linecap:butt;stroke-linejoin:miter;stroke-opacity:1" d="M 86.5139,348.725 68.1774,345.057 z" id="boundary" inkscape:connector-curvature="0" />
	<path style="fill:none;stroke:red;stroke-width:1px;stroke-linecap:butt;stroke-linejoin:miter;stroke-opacity:1" d="M 123.187,312.052 104.85,312.052 z" id="boundary" inkscape:connector-curvature="0" />
	<path style="fill:none;stroke:red;stroke-width:1px;stroke-linecap:butt;stroke-linejoin:miter;stroke-opacity:1" d="M 141.523,306.551 123.187,312.052 z" id="boundary" inkscape:connector-curvature="0" />
	<path style="fill:none;stroke:red;stroke-width:1px;stroke-linecap:butt;stroke-linejoin:miter;stroke-opacity:1" d="M 104.85,354.226 86.5139,348.725 z" id="boundary" inkscape:connector-curvature="0" />
	<path style="fill:none;stroke:red;stroke-width:1px;stroke-linecap:butt;stroke-linejoin:miter;stroke-opacity:1" d="M 123.187,348.725 141.523,354.226 z" id="boundary" inkscape:connector-curvature="0" />
	<path style="fill:none;stroke:red;stroke-width:1px;stroke-linecap:butt;stroke-linejoin:miter;stroke-opacity:1" d="M 104.85,354.226 123.187,348.725 z" id="boundary" inkscape:connector-curvature="0" />
	<path style="fill:none;stroke:red;stroke-width:1px;stroke-linecap:butt;stroke-linejoin:miter;stroke-opacity:1" d="M 158.026,345.057 141.523,354.226 z" id="boundary" inkscape:connector-curvature="0" />
	<path style="fill:none;stroke:red;stroke-width:1px;stroke-linecap:butt;stroke-linejoin:miter;stroke-opacity:1" d="M 37.0055,425.738 55.342,425.738 z" id="boundary" inkscape:connector-curvature="0" />
	<path style="fill:none;stroke:red;stroke-width:1px;stroke-linecap:butt;stroke-linejoin:miter;stroke-opacity:1" d="M 73.6784,425.738 55.342,425.738 z" id="boundary" inkscape:connector-curvature="0" />
	<path style="fill:none;stroke:red;stroke-width:1px;stroke-linecap:butt;stroke-linejoin:miter;stroke-opacity:1" d="M 22.3364,440.407 37.0055,425.738 z" id="boundary" inkscape:connector-curvature="0" />
	<path style="fill:none;stroke:red;stroke-width:1px;stroke-linecap:butt;stroke-linejoin:miter;stroke-opacity:1" d="M 31.5046,456.909 22.3364,440.407 z" id="boundary" inkscape:connector-curvature="0" />
	<path style="fill:none;stroke:red;stroke-width:1px;stroke-linecap:butt;stroke-linejoin:miter;stroke-opacity:1" d="M 49.841,464.244 66.3438,473.412 z" id="boundary" inkscape:connector-curvature="0" />
	<path style="fill:none;stroke:red;stroke-width:1px;stroke-linecap:butt;stroke-linejoin:miter;stroke-opacity:1" d="M 31.5046,456.909 49.841,464.244 z" id="boundary" inkscape:connector-curvature="0" />
	<path style="fill:none;stroke:red;stroke-width:1px;stroke-linecap:butt;stroke-linejoin:miter;stroke-opacity:1" d="M 82.8466,464.244 66.3438,473.412 z" id="boundary" inkscape:connector-curvature="0" />
	<path style="fill:none;stroke:red;stroke-width:1px;stroke-linecap:butt;stroke-linejoin:miter;stroke-opacity:1" d="M 92.0148,425.738 110.351,425.738 z" id="boundary" inkscape:connector-curvature="0" />
	<path style="fill:none;stroke:red;stroke-width:1px;stroke-linecap:butt;stroke-linejoin:miter;stroke-opacity:1" d="M 128.688,425.738 110.351,425.738 z" id="boundary" inkscape:connector-curvature="0" />
	<path style="fill:none;stroke:red;stroke-width:1px;stroke-linecap:butt;stroke-linejoin:miter;stroke-opacity:1" d="M 82.8466,464.244 101.183,464.244 z" id="boundary" inkscape:connector-curvature="0" />
	<path style="fill:none;stroke:red;stroke-width:1px;stroke-linecap:butt;stroke-linejoin:miter;stroke-opacity:1" d="M 101.183,464.244 117.686,473.412 z" id="boundary" inkscape:connector-curvature="0" />
	<path style="fill:none;stroke:red;stroke-width:1px;stroke-linecap:butt;stroke-linejoin:miter;stroke-opacity:1" d="M 117.686,473.412 136.022,469.745 z" id="boundary" inkscape:connector-curvature="0" />
	<path style="fill:none;stroke:red;stroke-width:1px;stroke-linecap:butt;stroke-linejoin:miter;stroke-opacity:1" d="M 128.688,425.738 147.024,425.738 z" id="boundary" inkscape:connector-curvature="0" />
	<path style="fill:none;stroke:red;stroke-width:1px;stroke-linecap:butt;stroke-linejoin:miter;stroke-opacity:1" d="M 73.6784,425.738 92.0148,425.738 z" id="boundary" inkscape:connector-curvature="0" />
	<path style="fill:none;stroke:red;stroke-width:1px;stroke-linecap:butt;stroke-linejoin:miter;stroke-opacity:1" d="M 214.869,297.383 196.532,302.884 z" id="boundary" inkscape:connector-curvature="0" />
	<path style="fill:none;stroke:red;stroke-width:1px;stroke-linecap:butt;stroke-linejoin:miter;stroke-opacity:1" d="M 196.532,302.884 178.196,302.884 z" id="boundary" inkscape:connector-curvature="0" />
	<path style="fill:none;stroke:red;stroke-width:1px;stroke-linecap:butt;stroke-linejoin:miter;stroke-opacity:1" d="M 176.362,345.057 158.026,345.057 z" id="boundary" inkscape:connector-curvature="0" />
	<path style="fill:none;stroke:red;stroke-width:1px;stroke-linecap:butt;stroke-linejoin:miter;stroke-opacity:1" d="M 176.362,345.057 192.865,335.889 z" id="boundary" inkscape:connector-curvature="0" />
	<path style="fill:none;stroke:red;stroke-width:1px;stroke-linecap:butt;stroke-linejoin:miter;stroke-opacity:1" d="M 192.865,335.889 209.368,345.057 z" id="boundary" inkscape:connector-curvature="0" />
	<path style="fill:none;stroke:red;stroke-width:1px;stroke-linecap:butt;stroke-linejoin:miter;stroke-opacity:1" d="M 159.86,306.551 178.196,302.884 z" id="boundary" inkscape:connector-curvature="0" />
	<path style="fill:none;stroke:red;stroke-width:1px;stroke-linecap:butt;stroke-linejoin:miter;stroke-opacity:1" d="M 236.872,225.871 255.209,225.871 z" id="boundary" inkscape:connector-curvature="0" />
	<path style="fill:none;stroke:red;stroke-width:1px;stroke-linecap:butt;stroke-linejoin:miter;stroke-opacity:1" d="M 251.542,288.214 269.878,288.214 z" id="boundary" inkscape:connector-curvature="0" />
	<path style="fill:none;stroke:red;stroke-width:1px;stroke-linecap:butt;stroke-linejoin:miter;stroke-opacity:1" d="M 251.542,288.214 233.205,291.882 z" id="boundary" inkscape:connector-curvature="0" />
	<path style="fill:none;stroke:red;stroke-width:1px;stroke-linecap:butt;stroke-linejoin:miter;stroke-opacity:1" d="M 244.207,335.889 225.871,335.889 z" id="boundary" inkscape:connector-curvature="0" />
	<path style="fill:none;stroke:red;stroke-width:1px;stroke-linecap:butt;stroke-linejoin:miter;stroke-opacity:1" d="M 214.869,297.383 233.205,291.882 z" id="boundary" inkscape:connector-curvature="0" />
	<path style="fill:none;stroke:red;stroke-width:1px;stroke-linecap:butt;stroke-linejoin:miter;stroke-opacity:1" d="M 269.878,379.896 255.209,390.898 z" id="boundary" inkscape:connector-curvature="0" />
	<path style="fill:none;stroke:red;stroke-width:1px;stroke-linecap:butt;stroke-linejoin:miter;stroke-opacity:1" d="M 262.543,326.721 244.207,335.889 z" id="boundary" inkscape:connector-curvature="0" />
	<path style="fill:none;stroke:red;stroke-width:1px;stroke-linecap:butt;stroke-linejoin:miter;stroke-opacity:1" d="M 225.871,335.889 209.368,345.057 z" id="boundary" inkscape:connector-curvature="0" />
	<path style="fill:none;stroke:red;stroke-width:1px;stroke-linecap:butt;stroke-linejoin:miter;stroke-opacity:1" d="M 159.86,306.551 141.523,306.551 z" id="boundary" inkscape:connector-curvature="0" />
	<path style="fill:none;stroke:red;stroke-width:1px;stroke-linecap:butt;stroke-linejoin:miter;stroke-opacity:1" d="M 165.36,416.569 183.697,416.569 z" id="boundary" inkscape:connector-curvature="0" />
	<path style="fill:none;stroke:red;stroke-width:1px;stroke-linecap:butt;stroke-linejoin:miter;stroke-opacity:1" d="M 202.033,416.569 183.697,416.569 z" id="boundary" inkscape:connector-curvature="0" />
	<path style="fill:none;stroke:red;stroke-width:1px;stroke-linecap:butt;stroke-linejoin:miter;stroke-opacity:1" d="M 218.536,407.401 202.033,416.569 z" id="boundary" inkscape:connector-curvature="0" />
	<path style="fill:none;stroke:red;stroke-width:1px;stroke-linecap:butt;stroke-linejoin:miter;stroke-opacity:1" d="M 154.359,464.244 136.022,469.745 z" id="boundary" inkscape:connector-curvature="0" />
	<path style="fill:none;stroke:red;stroke-width:1px;stroke-linecap:butt;stroke-linejoin:miter;stroke-opacity:1" d="M 172.695,464.244 154.359,464.244 z" id="boundary" inkscape:connector-curvature="0" />
	<path style="fill:none;stroke:red;stroke-width:1px;stroke-linecap:butt;stroke-linejoin:miter;stroke-opacity:1" d="M 172.695,464.244 189.198,455.076 z" id="boundary" inkscape:connector-curvature="0" />
	<path style="fill:none;stroke:red;stroke-width:1px;stroke-linecap:butt;stroke-linejoin:miter;stroke-opacity:1" d="M 189.198,455.076 207.534,455.076 z" id="boundary" inkscape:connector-curvature="0" />
	<path style="fill:none;stroke:red;stroke-width:1px;stroke-linecap:butt;stroke-linejoin:miter;stroke-opacity:1" d="M 147.024,425.738 165.36,416.569 z" id="boundary" inkscape:connector-curvature="0" />
	<path style="fill:none;stroke:red;stroke-width:1px;stroke-linecap:butt;stroke-linejoin:miter;stroke-opacity:1" d="M 236.872,400.067 218.536,407.401 z" id="boundary" inkscape:connector-curvature="0" />
	<path style="fill:none;stroke:red;stroke-width:1px;stroke-linecap:butt;stroke-linejoin:miter;stroke-opacity:1" d="M 236.872,400.067 255.209,390.898 z" id="boundary" inkscape:connector-curvature="0" />
	<path style="fill:none;stroke:red;stroke-width:1px;stroke-linecap:butt;stroke-linejoin:miter;stroke-opacity:1" d="M 207.534,455.076 225.871,445.908 z" id="boundary" inkscape:connector-curvature="0" />
	<path style="fill:none;stroke:red;stroke-width:1px;stroke-linecap:butt;stroke-linejoin:miter;stroke-opacity:1" d="M 244.207,436.739 262.543,427.571 z" id="boundary" inkscape:connector-curvature="0" />
	<path style="fill:none;stroke:red;stroke-width:1px;stroke-linecap:butt;stroke-linejoin:miter;stroke-opacity:1" d="M 244.207,436.739 225.871,445.908 z" id="boundary" inkscape:connector-curvature="0" />
	<path style="fill:none;stroke:red;stroke-width:1px;stroke-linecap:butt;stroke-linejoin:miter;stroke-opacity:1" d="M 280.88,418.403 262.543,427.571 z" id="boundary" inkscape:connector-curvature="0" />
	<path style="fill:none;stroke:red;stroke-width:1px;stroke-linecap:butt;stroke-linejoin:miter;stroke-opacity:1" d="M 269.878,64.5102 284.547,77.3457 z" id="boundary" inkscape:connector-curvature="0" />
	<path style="fill:none;stroke:red;stroke-width:1px;stroke-linecap:butt;stroke-linejoin:miter;stroke-opacity:1" d="M 315.719,99.3494 297.383,92.0148 z" id="boundary" inkscape:connector-curvature="0" />
	<path style="fill:none;stroke:red;stroke-width:1px;stroke-linecap:butt;stroke-linejoin:miter;stroke-opacity:1" d="M 297.383,92.0148 284.547,77.3457 z" id="boundary" inkscape:connector-curvature="0" />
	<path style="fill:none;stroke:red;stroke-width:1px;stroke-linecap:butt;stroke-linejoin:miter;stroke-opacity:1" d="M 260.71,187.364 279.046,187.364 z" id="boundary" inkscape:connector-curvature="0" />
	<path style="fill:none;stroke:red;stroke-width:1px;stroke-linecap:butt;stroke-linejoin:miter;stroke-opacity:1" d="M 290.048,130.521 304.717,143.357 z" id="boundary" inkscape:connector-curvature="0" />
	<path style="fill:none;stroke:red;stroke-width:1px;stroke-linecap:butt;stroke-linejoin:miter;stroke-opacity:1" d="M 290.048,130.521 277.213,115.852 z" id="boundary" inkscape:connector-curvature="0" />
	<path style="fill:none;stroke:red;stroke-width:1px;stroke-linecap:butt;stroke-linejoin:miter;stroke-opacity:1" d="M 297.383,191.031 279.046,187.364 z" id="boundary" inkscape:connector-curvature="0" />
	<path style="fill:none;stroke:red;stroke-width:1px;stroke-linecap:butt;stroke-linejoin:miter;stroke-opacity:1" d="M 315.719,99.3494 326.721,114.018 z" id="boundary" inkscape:connector-curvature="0" />
	<path style="fill:none;stroke:red;stroke-width:1px;stroke-linecap:butt;stroke-linejoin:miter;stroke-opacity:1" d="M 317.553,158.026 304.717,143.357 z" id="boundary" inkscape:connector-curvature="0" />
	<path style="fill:none;stroke:red;stroke-width:1px;stroke-linecap:butt;stroke-linejoin:miter;stroke-opacity:1" d="M 341.39,125.02 326.721,114.018 z" id="boundary" inkscape:connector-curvature="0" />
	<path style="fill:none;stroke:red;stroke-width:1px;stroke-linecap:butt;stroke-linejoin:miter;stroke-opacity:1" d="M 350.558,141.523 341.39,125.02 z" id="boundary" inkscape:connector-curvature="0" />
	<path style="fill:none;stroke:red;stroke-width:1px;stroke-linecap:butt;stroke-linejoin:miter;stroke-opacity:1" d="M 363.394,156.192 350.558,141.523 z" id="boundary" inkscape:connector-curvature="0" />
	<path style="fill:none;stroke:red;stroke-width:1px;stroke-linecap:butt;stroke-linejoin:miter;stroke-opacity:1" d="M 332.222,170.861 317.553,158.026 z" id="boundary" inkscape:connector-curvature="0" />
	<path style="fill:none;stroke:red;stroke-width:1px;stroke-linecap:butt;stroke-linejoin:miter;stroke-opacity:1" d="M 363.394,156.192 372.562,172.695 z" id="boundary" inkscape:connector-curvature="0" />
	<path style="fill:none;stroke:red;stroke-width:1px;stroke-linecap:butt;stroke-linejoin:miter;stroke-opacity:1" d="M 334.055,189.198 332.222,170.861 z" id="boundary" inkscape:connector-curvature="0" />
	<path style="fill:none;stroke:red;stroke-width:1px;stroke-linecap:butt;stroke-linejoin:miter;stroke-opacity:1" d="M 334.055,189.198 332.222,207.534 z" id="boundary" inkscape:connector-curvature="0" />
	<path style="fill:none;stroke:red;stroke-width:1px;stroke-linecap:butt;stroke-linejoin:miter;stroke-opacity:1" d="M 332.222,207.534 313.885,200.2 z" id="boundary" inkscape:connector-curvature="0" />
	<path style="fill:none;stroke:red;stroke-width:1px;stroke-linecap:butt;stroke-linejoin:miter;stroke-opacity:1" d="M 313.885,200.2 297.383,191.031 z" id="boundary" inkscape:connector-curvature="0" />
	<path style="fill:none;stroke:red;stroke-width:1px;stroke-linecap:butt;stroke-linejoin:miter;stroke-opacity:1" d="M 273.545,225.871 290.048,235.039 z" id="boundary" inkscape:connector-curvature="0" />
	<path style="fill:none;stroke:red;stroke-width:1px;stroke-linecap:butt;stroke-linejoin:miter;stroke-opacity:1" d="M 290.048,235.039 306.551,244.207 z" id="boundary" inkscape:connector-curvature="0" />
	<path style="fill:none;stroke:red;stroke-width:1px;stroke-linecap:butt;stroke-linejoin:miter;stroke-opacity:1" d="M 321.22,260.71 306.551,244.207 z" id="boundary" inkscape:connector-curvature="0" />
	<path style="fill:none;stroke:red;stroke-width:1px;stroke-linecap:butt;stroke-linejoin:miter;stroke-opacity:1" d="M 381.73,189.198 381.73,207.534 z" id="boundary" inkscape:connector-curvature="0" />
	<path style="fill:none;stroke:red;stroke-width:1px;stroke-linecap:butt;stroke-linejoin:miter;stroke-opacity:1" d="M 372.562,172.695 381.73,189.198 z" id="boundary" inkscape:connector-curvature="0" />
	<path style="fill:none;stroke:red;stroke-width:1px;stroke-linecap:butt;stroke-linejoin:miter;stroke-opacity:1" d="M 418.403,233.205 400.067,233.205 z" id="boundary" inkscape:connector-curvature="0" />
	<path style="fill:none;stroke:red;stroke-width:1px;stroke-linecap:butt;stroke-linejoin:miter;stroke-opacity:1" d="M 381.73,207.534 381.73,225.871 z" id="boundary" inkscape:connector-curvature="0" />
	<path style="fill:none;stroke:red;stroke-width:1px;stroke-linecap:butt;stroke-linejoin:miter;stroke-opacity:1" d="M 381.73,225.871 400.067,233.205 z" id="boundary" inkscape:connector-curvature="0" />
	<path style="fill:none;stroke:red;stroke-width:1px;stroke-linecap:butt;stroke-linejoin:miter;stroke-opacity:1" d="M 400.067,271.712 381.73,271.712 z" id="boundary" inkscape:connector-curvature="0" />
	<path style="fill:none;stroke:red;stroke-width:1px;stroke-linecap:butt;stroke-linejoin:miter;stroke-opacity:1" d="M 372.562,299.216 381.73,271.712 z" id="boundary" inkscape:connector-curvature="0" />
	<path style="fill:none;stroke:red;stroke-width:1px;stroke-linecap:butt;stroke-linejoin:miter;stroke-opacity:1" d="M 324.887,279.046 321.22,260.71 z" id="boundary" inkscape:connector-curvature="0" />
	<path style="fill:none;stroke:red;stroke-width:1px;stroke-linecap:butt;stroke-linejoin:miter;stroke-opacity:1" d="M 418.403,233.205 436.739,233.205 z" id="boundary" inkscape:connector-curvature="0" />
	<path style="fill:none;stroke:red;stroke-width:1px;stroke-linecap:butt;stroke-linejoin:miter;stroke-opacity:1" d="M 455.076,233.205 436.739,233.205 z" id="boundary" inkscape:connector-curvature="0" />
	<path style="fill:none;stroke:red;stroke-width:1px;stroke-linecap:butt;stroke-linejoin:miter;stroke-opacity:1" d="M 473.412,233.205 491.749,233.205 z" id="boundary" inkscape:connector-curvature="0" />
	<path style="fill:none;stroke:red;stroke-width:1px;stroke-linecap:butt;stroke-linejoin:miter;stroke-opacity:1" d="M 508.251,280.88 491.749,271.712 z" id="boundary" inkscape:connector-curvature="0" />
	<path style="fill:none;stroke:red;stroke-width:1px;stroke-linecap:butt;stroke-linejoin:miter;stroke-opacity:1" d="M 526.588,242.373 508.251,242.373 z" id="boundary" inkscape:connector-curvature="0" />
	<path style="fill:none;stroke:red;stroke-width:1px;stroke-linecap:butt;stroke-linejoin:miter;stroke-opacity:1" d="M 508.251,242.373 491.749,233.205 z" id="boundary" inkscape:connector-curvature="0" />
	<path style="fill:none;stroke:red;stroke-width:1px;stroke-linecap:butt;stroke-linejoin:miter;stroke-opacity:1" d="M 544.924,242.373 526.588,242.373 z" id="boundary" inkscape:connector-curvature="0" />
	<path style="fill:none;stroke:red;stroke-width:1px;stroke-linecap:butt;stroke-linejoin:miter;stroke-opacity:1" d="M 455.076,233.205 473.412,233.205 z" id="boundary" inkscape:connector-curvature="0" />
	<path style="fill:none;stroke:red;stroke-width:1px;stroke-linecap:butt;stroke-linejoin:miter;stroke-opacity:1" d="M 563.261,242.373 544.924,242.373 z" id="boundary" inkscape:connector-curvature="0" />
	<path style="fill:none;stroke:red;stroke-width:1px;stroke-linecap:butt;stroke-linejoin:miter;stroke-opacity:1" d="M 563.261,242.373 581.597,242.373 z" id="boundary" inkscape:connector-curvature="0" />
	<path style="fill:none;stroke:red;stroke-width:1px;stroke-linecap:butt;stroke-linejoin:miter;stroke-opacity:1" d="M 599.933,246.041 618.27,246.041 z" id="boundary" inkscape:connector-curvature="0" />
	<path style="fill:none;stroke:red;stroke-width:1px;stroke-linecap:butt;stroke-linejoin:miter;stroke-opacity:1" d="M 599.933,246.041 581.597,242.373 z" id="boundary" inkscape:connector-curvature="0" />
	<path style="fill:none;stroke:red;stroke-width:1px;stroke-linecap:butt;stroke-linejoin:miter;stroke-opacity:1" d="M 636.606,251.542 654.943,251.542 z" id="boundary" inkscape:connector-curvature="0" />
	<path style="fill:none;stroke:red;stroke-width:1px;stroke-linecap:butt;stroke-linejoin:miter;stroke-opacity:1" d="M 636.606,251.542 618.27,246.041 z" id="boundary" inkscape:connector-curvature="0" />
	<path style="fill:none;stroke:red;stroke-width:1px;stroke-linecap:butt;stroke-linejoin:miter;stroke-opacity:1" d="M 436.739,271.712 418.403,271.712 z" id="boundary" inkscape:connector-curvature="0" />
	<path style="fill:none;stroke:red;stroke-width:1px;stroke-linecap:butt;stroke-linejoin:miter;stroke-opacity:1" d="M 654.943,251.542 671.445,260.71 z" id="boundary" inkscape:connector-curvature="0" />
	<path style="fill:none;stroke:red;stroke-width:1px;stroke-linecap:butt;stroke-linejoin:miter;stroke-opacity:1" d="M 687.948,269.878 671.445,260.71 z" id="boundary" inkscape:connector-curvature="0" />
	<path style="fill:none;stroke:red;stroke-width:1px;stroke-linecap:butt;stroke-linejoin:miter;stroke-opacity:1" d="M 706.285,269.878 687.948,269.878 z" id="boundary" inkscape:connector-curvature="0" />
	<path style="fill:none;stroke:red;stroke-width:1px;stroke-linecap:butt;stroke-linejoin:miter;stroke-opacity:1" d="M 436.739,271.712 455.076,271.712 z" id="boundary" inkscape:connector-curvature="0" />
	<path style="fill:none;stroke:red;stroke-width:1px;stroke-linecap:butt;stroke-linejoin:miter;stroke-opacity:1" d="M 473.412,271.712 491.749,271.712 z" id="boundary" inkscape:connector-curvature="0" />
	<path style="fill:none;stroke:red;stroke-width:1px;stroke-linecap:butt;stroke-linejoin:miter;stroke-opacity:1" d="M 473.412,271.712 455.076,271.712 z" id="boundary" inkscape:connector-curvature="0" />
	<path style="fill:none;stroke:red;stroke-width:1px;stroke-linecap:butt;stroke-linejoin:miter;stroke-opacity:1" d="M 724.621,269.878 706.285,269.878 z" id="boundary" inkscape:connector-curvature="0" />
	<path style="fill:none;stroke:red;stroke-width:1px;stroke-linecap:butt;stroke-linejoin:miter;stroke-opacity:1" d="M 904.318,269.878 922.654,269.878 z" id="boundary" inkscape:connector-curvature="0" />
	<path style="fill:none;stroke:red;stroke-width:1px;stroke-linecap:butt;stroke-linejoin:miter;stroke-opacity:1" d="M 940.991,269.878 959.327,269.878 z" id="boundary" inkscape:connector-curvature="0" />
	<path style="fill:none;stroke:red;stroke-width:1px;stroke-linecap:butt;stroke-linejoin:miter;stroke-opacity:1" d="M 904.318,269.878 885.982,269.878 z" id="boundary" inkscape:connector-curvature="0" />
	<path style="fill:none;stroke:red;stroke-width:1px;stroke-linecap:butt;stroke-linejoin:miter;stroke-opacity:1" d="M 922.654,269.878 940.991,269.878 z" id="boundary" inkscape:connector-curvature="0" />
	<path style="fill:none;stroke:red;stroke-width:1px;stroke-linecap:butt;stroke-linejoin:miter;stroke-opacity:1" d="M 959.327,269.878 977.664,269.878 z" id="boundary" inkscape:connector-curvature="0" />
	<path style="fill:none;stroke:red;stroke-width:1px;stroke-linecap:butt;stroke-linejoin:miter;stroke-opacity:1" d="M 418.403,271.712 400.067,271.712 z" id="boundary" inkscape:connector-curvature="0" />
	<path style="fill:none;stroke:red;stroke-width:1px;stroke-linecap:butt;stroke-linejoin:miter;stroke-opacity:1" d="M 288.214,284.547 306.551,275.379 z" id="boundary" inkscape:connector-curvature="0" />
	<path style="fill:none;stroke:red;stroke-width:1px;stroke-linecap:butt;stroke-linejoin:miter;stroke-opacity:1" d="M 269.878,288.214 288.214,284.547 z" id="boundary" inkscape:connector-curvature="0" />
	<path style="fill:none;stroke:red;stroke-width:1px;stroke-linecap:butt;stroke-linejoin:miter;stroke-opacity:1" d="M 508.251,280.88 526.588,280.88 z" id="boundary" inkscape:connector-curvature="0" />
	<path style="fill:none;stroke:red;stroke-width:1px;stroke-linecap:butt;stroke-linejoin:miter;stroke-opacity:1" d="M 324.887,279.046 317.553,308.384 z" id="boundary" inkscape:connector-curvature="0" />
	<path style="fill:none;stroke:red;stroke-width:1px;stroke-linecap:butt;stroke-linejoin:miter;stroke-opacity:1" d="M 363.394,326.721 372.562,299.216 z" id="boundary" inkscape:connector-curvature="0" />
	<path style="fill:none;stroke:red;stroke-width:1px;stroke-linecap:butt;stroke-linejoin:miter;stroke-opacity:1" d="M 544.924,280.88 563.261,280.88 z" id="boundary" inkscape:connector-curvature="0" />
	<path style="fill:none;stroke:red;stroke-width:1px;stroke-linecap:butt;stroke-linejoin:miter;stroke-opacity:1" d="M 544.924,280.88 526.588,280.88 z" id="boundary" inkscape:connector-curvature="0" />
	<path style="fill:none;stroke:red;stroke-width:1px;stroke-linecap:butt;stroke-linejoin:miter;stroke-opacity:1" d="M 563.261,280.88 581.597,280.88 z" id="boundary" inkscape:connector-curvature="0" />
	<path style="fill:none;stroke:red;stroke-width:1px;stroke-linecap:butt;stroke-linejoin:miter;stroke-opacity:1" d="M 581.597,280.88 598.1,290.048 z" id="boundary" inkscape:connector-curvature="0" />
	<path style="fill:none;stroke:red;stroke-width:1px;stroke-linecap:butt;stroke-linejoin:miter;stroke-opacity:1" d="M 598.1,290.048 616.436,290.048 z" id="boundary" inkscape:connector-curvature="0" />
	<path style="fill:none;stroke:red;stroke-width:1px;stroke-linecap:butt;stroke-linejoin:miter;stroke-opacity:1" d="M 616.436,290.048 632.939,299.216 z" id="boundary" inkscape:connector-curvature="0" />
	<path style="fill:none;stroke:red;stroke-width:1px;stroke-linecap:butt;stroke-linejoin:miter;stroke-opacity:1" d="M 651.275,297.383 632.939,299.216 z" id="boundary" inkscape:connector-curvature="0" />
	<path style="fill:none;stroke:red;stroke-width:1px;stroke-linecap:butt;stroke-linejoin:miter;stroke-opacity:1" d="M 299.216,317.553 280.88,326.721 z" id="boundary" inkscape:connector-curvature="0" />
	<path style="fill:none;stroke:red;stroke-width:1px;stroke-linecap:butt;stroke-linejoin:miter;stroke-opacity:1" d="M 299.216,356.059 280.88,365.227 z" id="boundary" inkscape:connector-curvature="0" />
	<path style="fill:none;stroke:red;stroke-width:1px;stroke-linecap:butt;stroke-linejoin:miter;stroke-opacity:1" d="M 269.878,379.896 280.88,365.227 z" id="boundary" inkscape:connector-curvature="0" />
	<path style="fill:none;stroke:red;stroke-width:1px;stroke-linecap:butt;stroke-linejoin:miter;stroke-opacity:1" d="M 280.88,418.403 295.549,405.567 z" id="boundary" inkscape:connector-curvature="0" />
	<path style="fill:none;stroke:red;stroke-width:1px;stroke-linecap:butt;stroke-linejoin:miter;stroke-opacity:1" d="M 295.549,405.567 313.885,396.399 z" id="boundary" inkscape:connector-curvature="0" />
	<path style="fill:none;stroke:red;stroke-width:1px;stroke-linecap:butt;stroke-linejoin:miter;stroke-opacity:1" d="M 262.543,326.721 280.88,326.721 z" id="boundary" inkscape:connector-curvature="0" />
	<path style="fill:none;stroke:red;stroke-width:1px;stroke-linecap:butt;stroke-linejoin:miter;stroke-opacity:1" d="M 317.553,308.384 324.887,326.721 z" id="boundary" inkscape:connector-curvature="0" />
	<path style="fill:none;stroke:red;stroke-width:1px;stroke-linecap:butt;stroke-linejoin:miter;stroke-opacity:1" d="M 363.394,326.721 350.558,350.558 z" id="boundary" inkscape:connector-curvature="0" />
	<path style="fill:none;stroke:red;stroke-width:1px;stroke-linecap:butt;stroke-linejoin:miter;stroke-opacity:1" d="M 313.885,396.399 326.721,381.73 z" id="boundary" inkscape:connector-curvature="0" />
	<path style="fill:none;stroke:red;stroke-width:1px;stroke-linecap:butt;stroke-linejoin:miter;stroke-opacity:1" d="M 335.889,363.394 350.558,350.558 z" id="boundary" inkscape:connector-curvature="0" />
	<path style="fill:none;stroke:red;stroke-width:1px;stroke-linecap:butt;stroke-linejoin:miter;stroke-opacity:1" d="M 326.721,381.73 335.889,363.394 z" id="boundary" inkscape:connector-curvature="0" />
	<path style="fill:none;stroke:red;stroke-width:1px;stroke-linecap:butt;stroke-linejoin:miter;stroke-opacity:1" d="M 724.621,308.384 706.285,306.551 z" id="boundary" inkscape:connector-curvature="0" />
	<path style="fill:none;stroke:red;stroke-width:1px;stroke-linecap:butt;stroke-linejoin:miter;stroke-opacity:1" d="M 741.124,279.046 724.621,269.878 z" id="boundary" inkscape:connector-curvature="0" />
	<path style="fill:none;stroke:red;stroke-width:1px;stroke-linecap:butt;stroke-linejoin:miter;stroke-opacity:1" d="M 759.46,279.046 741.124,279.046 z" id="boundary" inkscape:connector-curvature="0" />
	<path style="fill:none;stroke:red;stroke-width:1px;stroke-linecap:butt;stroke-linejoin:miter;stroke-opacity:1" d="M 777.797,279.046 759.46,279.046 z" id="boundary" inkscape:connector-curvature="0" />
	<path style="fill:none;stroke:red;stroke-width:1px;stroke-linecap:butt;stroke-linejoin:miter;stroke-opacity:1" d="M 669.612,299.216 687.948,306.551 z" id="boundary" inkscape:connector-curvature="0" />
	<path style="fill:none;stroke:red;stroke-width:1px;stroke-linecap:butt;stroke-linejoin:miter;stroke-opacity:1" d="M 651.275,297.383 669.612,299.216 z" id="boundary" inkscape:connector-curvature="0" />
	<path style="fill:none;stroke:red;stroke-width:1px;stroke-linecap:butt;stroke-linejoin:miter;stroke-opacity:1" d="M 777.797,279.046 796.133,279.046 z" id="boundary" inkscape:connector-curvature="0" />
	<path style="fill:none;stroke:red;stroke-width:1px;stroke-linecap:butt;stroke-linejoin:miter;stroke-opacity:1" d="M 706.285,306.551 687.948,306.551 z" id="boundary" inkscape:connector-curvature="0" />
	<path style="fill:none;stroke:red;stroke-width:1px;stroke-linecap:butt;stroke-linejoin:miter;stroke-opacity:1" d="M 832.806,279.046 814.47,279.046 z" id="boundary" inkscape:connector-curvature="0" />
	<path style="fill:none;stroke:red;stroke-width:1px;stroke-linecap:butt;stroke-linejoin:miter;stroke-opacity:1" d="M 814.47,279.046 796.133,279.046 z" id="boundary" inkscape:connector-curvature="0" />
	<path style="fill:none;stroke:red;stroke-width:1px;stroke-linecap:butt;stroke-linejoin:miter;stroke-opacity:1" d="M 851.142,279.046 832.806,279.046 z" id="boundary" inkscape:connector-curvature="0" />
	<path style="fill:none;stroke:red;stroke-width:1px;stroke-linecap:butt;stroke-linejoin:miter;stroke-opacity:1" d="M 851.142,279.046 869.479,279.046 z" id="boundary" inkscape:connector-curvature="0" />
	<path style="fill:none;stroke:red;stroke-width:1px;stroke-linecap:butt;stroke-linejoin:miter;stroke-opacity:1" d="M 885.982,269.878 869.479,279.046 z" id="boundary" inkscape:connector-curvature="0" />
	<path style="fill:none;stroke:red;stroke-width:1px;stroke-linecap:butt;stroke-linejoin:miter;stroke-opacity:1" d="M 907.985,308.384 889.649,315.719 z" id="boundary" inkscape:connector-curvature="0" />
	<path style="fill:none;stroke:red;stroke-width:1px;stroke-linecap:butt;stroke-linejoin:miter;stroke-opacity:1" d="M 942.824,299.216 926.322,308.384 z" id="boundary" inkscape:connector-curvature="0" />
	<path style="fill:none;stroke:red;stroke-width:1px;stroke-linecap:butt;stroke-linejoin:miter;stroke-opacity:1" d="M 957.494,310.218 942.824,299.216 z" id="boundary" inkscape:connector-curvature="0" />
	<path style="fill:none;stroke:red;stroke-width:1px;stroke-linecap:butt;stroke-linejoin:miter;stroke-opacity:1" d="M 742.957,315.719 724.621,308.384 z" id="boundary" inkscape:connector-curvature="0" />
	<path style="fill:none;stroke:red;stroke-width:1px;stroke-linecap:butt;stroke-linejoin:miter;stroke-opacity:1" d="M 761.294,315.719 742.957,315.719 z" id="boundary" inkscape:connector-curvature="0" />
	<path style="fill:none;stroke:red;stroke-width:1px;stroke-linecap:butt;stroke-linejoin:miter;stroke-opacity:1" d="M 761.294,315.719 779.63,317.553 z" id="boundary" inkscape:connector-curvature="0" />
	<path style="fill:none;stroke:red;stroke-width:1px;stroke-linecap:butt;stroke-linejoin:miter;stroke-opacity:1" d="M 797.967,317.553 816.303,317.553 z" id="boundary" inkscape:connector-curvature="0" />
	<path style="fill:none;stroke:red;stroke-width:1px;stroke-linecap:butt;stroke-linejoin:miter;stroke-opacity:1" d="M 816.303,317.553 834.64,317.553 z" id="boundary" inkscape:connector-curvature="0" />
	<path style="fill:none;stroke:red;stroke-width:1px;stroke-linecap:butt;stroke-linejoin:miter;stroke-opacity:1" d="M 797.967,317.553 779.63,317.553 z" id="boundary" inkscape:connector-curvature="0" />
	<path style="fill:none;stroke:red;stroke-width:1px;stroke-linecap:butt;stroke-linejoin:miter;stroke-opacity:1" d="M 889.649,315.719 871.312,315.719 z" id="boundary" inkscape:connector-curvature="0" />
	<path style="fill:none;stroke:red;stroke-width:1px;stroke-linecap:butt;stroke-linejoin:miter;stroke-opacity:1" d="M 852.976,317.553 834.64,317.553 z" id="boundary" inkscape:connector-curvature="0" />
	<path style="fill:none;stroke:red;stroke-width:1px;stroke-linecap:butt;stroke-linejoin:miter;stroke-opacity:1" d="M 907.985,308.384 926.322,308.384 z" id="boundary" inkscape:connector-curvature="0" />
	<path style="fill:none;stroke:red;stroke-width:1px;stroke-linecap:butt;stroke-linejoin:miter;stroke-opacity:1" d="M 957.494,310.218 970.329,324.887 z" id="boundary" inkscape:connector-curvature="0" />
	<path style="fill:none;stroke:red;stroke-width:1px;stroke-linecap:butt;stroke-linejoin:miter;stroke-opacity:1" d="M 852.976,317.553 871.312,315.719 z" id="boundary" inkscape:connector-curvature="0" />
	<path style="fill:none;stroke:red;stroke-width:1px;stroke-linecap:butt;stroke-linejoin:miter;stroke-opacity:1" d="M 988.665,317.553 970.329,324.887 z" id="boundary" inkscape:connector-curvature="0" />
	<path style="fill:none;stroke:red;stroke-width:1px;stroke-linecap:butt;stroke-linejoin:miter;stroke-opacity:1" d="M 996,299.216 988.665,317.553 z" id="boundary" inkscape:connector-curvature="0" />
	<path style="fill:none;stroke:red;stroke-width:1px;stroke-linecap:butt;stroke-linejoin:miter;stroke-opacity:1" d="M 996,275.379 996,299.216 z" id="boundary" inkscape:connector-curvature="0" />
	<path style="fill:none;stroke:red;stroke-width:1px;stroke-linecap:butt;stroke-linejoin:miter;stroke-opacity:1" d="M 977.664,269.878 996,275.379 z" id="boundary" inkscape:connector-curvature="0" />
	<circle cx="4" cy="37.0055" r="4" fill="#0" id="circle0"/>
	<circle cx="13.1682" cy="18.6691" r="4" fill="#0" id="circle1"/>
	<circle cx="18.6691" cy="49.841" r="4" fill="#0" id="circle2"/>
	<circle cx="22.3364" cy="440.407" r="4" fill="#0" id="circle3"/>
	<circle cx="27.8373" cy="4" r="4" fill="#0" id="circle4"/>
	<circle cx="31.5046" cy="174.529" r="4" fill="#0" id="circle5"/>
	<circle cx="31.5046" cy="321.22" r="4" fill="#0" id="circle6"/>
	<circle cx="31.5046" cy="339.556" r="4" fill="#0" id="circle7"/>
	<circle cx="31.5046" cy="456.909" r="4" fill="#0" id="circle8"/>
	<circle cx="37.0055" cy="51.6747" r="4" fill="#0" id="circle9"/>
	<circle cx="37.0055" cy="425.738" r="4" fill="#0" id="circle10"/>
	<circle cx="40.6728" cy="191.031" r="4" fill="#0" id="circle11"/>
	<circle cx="44.3401" cy="13.1682" r="4" fill="#0" id="circle12"/>
	<circle cx="46.1738" cy="159.86" r="4" fill="#0" id="circle13"/>
	<circle cx="49.841" cy="312.052" r="4" fill="#0" id="circle14"/>
	<circle cx="49.841" cy="345.057" r="4" fill="#0" id="circle15"/>
	<circle cx="49.841" cy="464.244" r="4" fill="#0" id="circle16"/>
	<circle cx="55.342" cy="51.6747" r="4" fill="#0" id="circle17"/>
	<circle cx="55.342" cy="425.738" r="4" fill="#0" id="circle18"/>
	<circle cx="59.0092" cy="198.366" r="4" fill="#0" id="circle19"/>
	<circle cx="62.6765" cy="13.1682" r="4" fill="#0" id="circle20"/>
	<circle cx="64.5102" cy="159.86" r="4" fill="#0" id="circle21"/>
	<circle cx="66.3438" cy="473.412" r="4" fill="#0" id="circle22"/>
	<circle cx="68.1774" cy="312.052" r="4" fill="#0" id="circle23"/>
	<circle cx="68.1774" cy="345.057" r="4" fill="#0" id="circle24"/>
	<circle cx="73.6784" cy="51.6747" r="4" fill="#0" id="circle25"/>
	<circle cx="73.6784" cy="425.738" r="4" fill="#0" id="circle26"/>
	<circle cx="77.3457" cy="198.366" r="4" fill="#0" id="circle27"/>
	<circle cx="81.0129" cy="5.83364" r="4" fill="#0" id="circle28"/>
	<circle cx="82.8466" cy="159.86" r="4" fill="#0" id="circle29"/>
	<circle cx="82.8466" cy="464.244" r="4" fill="#0" id="circle30"/>
	<circle cx="86.5139" cy="312.052" r="4" fill="#0" id="circle31"/>
	<circle cx="86.5139" cy="348.725" r="4" fill="#0" id="circle32"/>
	<circle cx="92.0148" cy="51.6747" r="4" fill="#0" id="circle33"/>
	<circle cx="92.0148" cy="425.738" r="4" fill="#0" id="circle34"/>
	<circle cx="95.6821" cy="198.366" r="4" fill="#0" id="circle35"/>
	<circle cx="99.3494" cy="5.83364" r="4" fill="#0" id="circle36"/>
	<circle cx="101.183" cy="159.86" r="4" fill="#0" id="circle37"/>
	<circle cx="101.183" cy="464.244" r="4" fill="#0" id="circle38"/>
	<circle cx="104.85" cy="312.052" r="4" fill="#0" id="circle39"/>
	<circle cx="104.85" cy="354.226" r="4" fill="#0" id="circle40"/>
	<circle cx="110.351" cy="51.6747" r="4" fill="#0" id="circle41"/>
	<circle cx="110.351" cy="425.738" r="4" fill="#0" id="circle42"/>
	<circle cx="114.018" cy="198.366" r="4" fill="#0" id="circle43"/>
	<circle cx="117.686" cy="5.83364" r="4" fill="#0" id="circle44"/>
	<circle cx="117.686" cy="473.412" r="4" fill="#0" id="circle45"/>
	<circle cx="119.519" cy="159.86" r="4" fill="#0" id="circle46"/>
	<circle cx="123.187" cy="312.052" r="4" fill="#0" id="circle47"/>
	<circle cx="123.187" cy="348.725" r="4" fill="#0" id="circle48"/>
	<circle cx="128.688" cy="51.6747" r="4" fill="#0" id="circle49"/>
	<circle cx="128.688" cy="425.738" r="4" fill="#0" id="circle50"/>
	<circle cx="132.355" cy="198.366" r="4" fill="#0" id="circle51"/>
	<circle cx="136.022" cy="5.83364" r="4" fill="#0" id="circle52"/>
	<circle cx="136.022" cy="469.745" r="4" fill="#0" id="circle53"/>
	<circle cx="137.856" cy="159.86" r="4" fill="#0" id="circle54"/>
	<circle cx="141.523" cy="306.551" r="4" fill="#0" id="circle55"/>
	<circle cx="141.523" cy="354.226" r="4" fill="#0" id="circle56"/>
	<circle cx="147.024" cy="51.6747" r="4" fill="#0" id="circle57"/>
	<circle cx="147.024" cy="425.738" r="4" fill="#0" id="circle58"/>
	<circle cx="148.858" cy="207.534" r="4" fill="#0" id="circle59"/>
	<circle cx="154.359" cy="5.83364" r="4" fill="#0" id="circle60"/>
	<circle cx="154.359" cy="169.028" r="4" fill="#0" id="circle61"/>
	<circle cx="154.359" cy="464.244" r="4" fill="#0" id="circle62"/>
	<circle cx="158.026" cy="345.057" r="4" fill="#0" id="circle63"/>
	<circle cx="159.86" cy="306.551" r="4" fill="#0" id="circle64"/>
	<circle cx="165.36" cy="59.0092" r="4" fill="#0" id="circle65"/>
	<circle cx="165.36" cy="416.569" r="4" fill="#0" id="circle66"/>
	<circle cx="167.194" cy="207.534" r="4" fill="#0" id="circle67"/>
	<circle cx="172.695" cy="13.1682" r="4" fill="#0" id="circle68"/>
	<circle cx="172.695" cy="169.028" r="4" fill="#0" id="circle69"/>
	<circle cx="172.695" cy="464.244" r="4" fill="#0" id="circle70"/>
	<circle cx="176.362" cy="345.057" r="4" fill="#0" id="circle71"/>
	<circle cx="178.196" cy="302.884" r="4" fill="#0" id="circle72"/>
	<circle cx="183.697" cy="59.0092" r="4" fill="#0" id="circle73"/>
	<circle cx="183.697" cy="416.569" r="4" fill="#0" id="circle74"/>
	<circle cx="185.53" cy="207.534" r="4" fill="#0" id="circle75"/>
	<circle cx="189.198" cy="22.3364" r="4" fill="#0" id="circle76"/>
	<circle cx="189.198" cy="178.196" r="4" fill="#0" id="circle77"/>
	<circle cx="189.198" cy="455.076" r="4" fill="#0" id="circle78"/>
	<circle cx="192.865" cy="335.889" r="4" fill="#0" id="circle79"/>
	<circle cx="196.532" cy="302.884" r="4" fill="#0" id="circle80"/>
	<circle cx="202.033" cy="60.8429" r="4" fill="#0" id="circle81"/>
	<circle cx="202.033" cy="216.702" r="4" fill="#0" id="circle82"/>
	<circle cx="202.033" cy="416.569" r="4" fill="#0" id="circle83"/>
	<circle cx="207.534" cy="22.3364" r="4" fill="#0" id="circle84"/>
	<circle cx="207.534" cy="178.196" r="4" fill="#0" id="circle85"/>
	<circle cx="207.534" cy="455.076" r="4" fill="#0" id="circle86"/>
	<circle cx="209.368" cy="345.057" r="4" fill="#0" id="circle87"/>
	<circle cx="214.869" cy="297.383" r="4" fill="#0" id="circle88"/>
	<circle cx="218.536" cy="70.0111" r="4" fill="#0" id="circle89"/>
	<circle cx="218.536" cy="407.401" r="4" fill="#0" id="circle90"/>
	<circle cx="220.37" cy="216.702" r="4" fill="#0" id="circle91"/>
	<circle cx="224.037" cy="31.5046" r="4" fill="#0" id="circle92"/>
	<circle cx="225.871" cy="178.196" r="4" fill="#0" id="circle93"/>
	<circle cx="225.871" cy="335.889" r="4" fill="#0" id="circle94"/>
	<circle cx="225.871" cy="445.908" r="4" fill="#0" id="circle95"/>
	<circle cx="233.205" cy="291.882" r="4" fill="#0" id="circle96"/>
	<circle cx="235.039" cy="79.1793" r="4" fill="#0" id="circle97"/>
	<circle cx="236.872" cy="225.871" r="4" fill="#0" id="circle98"/>
	<circle cx="236.872" cy="400.067" r="4" fill="#0" id="circle99"/>
	<circle cx="240.54" cy="40.6728" r="4" fill="#0" id="circle100"/>
	<circle cx="242.373" cy="187.364" r="4" fill="#0" id="circle101"/>
	<circle cx="244.207" cy="335.889" r="4" fill="#0" id="circle102"/>
	<circle cx="244.207" cy="436.739" r="4" fill="#0" id="circle103"/>
	<circle cx="246.041" cy="93.8484" r="4" fill="#0" id="circle104"/>
	<circle cx="251.542" cy="288.214" r="4" fill="#0" id="circle105"/>
	<circle cx="253.375" cy="55.342" r="4" fill="#0" id="circle106"/>
	<circle cx="255.209" cy="225.871" r="4" fill="#0" id="circle107"/>
	<circle cx="255.209" cy="390.898" r="4" fill="#0" id="circle108"/>
	<circle cx="260.71" cy="187.364" r="4" fill="#0" id="circle109"/>
	<circle cx="262.543" cy="103.017" r="4" fill="#0" id="circle110"/>
	<circle cx="262.543" cy="326.721" r="4" fill="#0" id="circle111"/>
	<circle cx="262.543" cy="427.571" r="4" fill="#0" id="circle112"/>
	<circle cx="269.878" cy="64.5102" r="4" fill="#0" id="circle113"/>
	<circle cx="269.878" cy="288.214" r="4" fill="#0" id="circle114"/>
	<circle cx="269.878" cy="379.896" r="4" fill="#0" id="circle115"/>
	<circle cx="273.545" cy="225.871" r="4" fill="#0" id="circle116"/>
	<circle cx="277.213" cy="115.852" r="4" fill="#0" id="circle117"/>
	<circle cx="279.046" cy="187.364" r="4" fill="#0" id="circle118"/>
	<circle cx="280.88" cy="326.721" r="4" fill="#0" id="circle119"/>
	<circle cx="280.88" cy="365.227" r="4" fill="#0" id="circle120"/>
	<circle cx="280.88" cy="418.403" r="4" fill="#0" id="circle121"/>
	<circle cx="284.547" cy="77.3457" r="4" fill="#0" id="circle122"/>
	<circle cx="288.214" cy="284.547" r="4" fill="#0" id="circle123"/>
	<circle cx="290.048" cy="130.521" r="4" fill="#0" id="circle124"/>
	<circle cx="290.048" cy="235.039" r="4" fill="#0" id="circle125"/>
	<circle cx="295.549" cy="405.567" r="4" fill="#0" id="circle126"/>
	<circle cx="297.383" cy="92.0148" r="4" fill="#0" id="circle127"/>
	<circle cx="297.383" cy="191.031" r="4" fill="#0" id="circle128"/>
	<circle cx="299.216" cy="317.553" r="4" fill="#0" id="circle129"/>
	<circle cx="299.216" cy="356.059" r="4" fill="#0" id="circle130"/>
	<circle cx="304.717" cy="143.357" r="4" fill="#0" id="circle131"/>
	<circle cx="306.551" cy="244.207" r="4" fill="#0" id="circle132"/>
	<circle cx="306.551" cy="275.379" r="4" fill="#0" id="circle133"/>
	<circle cx="308.384" cy="337.723" r="4" fill="#0" id="circle134"/>
	<circle cx="313.885" cy="200.2" r="4" fill="#0" id="circle135"/>
	<circle cx="313.885" cy="396.399" r="4" fill="#0" id="circle136"/>
	<circle cx="315.719" cy="99.3494" r="4" fill="#0" id="circle137"/>
	<circle cx="317.553" cy="158.026" r="4" fill="#0" id="circle138"/>
	<circle cx="317.553" cy="308.384" r="4" fill="#0" id="circle139"/>
	<circle cx="321.22" cy="260.71" r="4" fill="#0" id="circle140"/>
	<circle cx="324.887" cy="279.046" r="4" fill="#0" id="circle141"/>
	<circle cx="324.887" cy="326.721" r="4" fill="#0" id="circle142"/>
	<circle cx="326.721" cy="114.018" r="4" fill="#0" id="circle143"/>
	<circle cx="326.721" cy="381.73" r="4" fill="#0" id="circle144"/>
	<circle cx="332.222" cy="170.861" r="4" fill="#0" id="circle145"/>
	<circle cx="332.222" cy="207.534" r="4" fill="#0" id="circle146"/>
	<circle cx="334.055" cy="189.198" r="4" fill="#0" id="circle147"/>
	<circle cx="335.889" cy="363.394" r="4" fill="#0" id="circle148"/>
	<circle cx="341.39" cy="125.02" r="4" fill="#0" id="circle149"/>
	<circle cx="350.558" cy="141.523" r="4" fill="#0" id="circle150"/>
	<circle cx="350.558" cy="350.558" r="4" fill="#0" id="circle151"/>
	<circle cx="363.394" cy="156.192" r="4" fill="#0" id="circle152"/>
	<circle cx="363.394" cy="326.721" r="4" fill="#0" id="circle153"/>
	<circle cx="372.562" cy="172.695" r="4" fill="#0" id="circle154"/>
	<circle cx="372.562" cy="299.216" r="4" fill="#0" id="circle155"/>
	<circle cx="381.73" cy="189.198" r="4" fill="#0" id="circle156"/>
	<circle cx="381.73" cy="207.534" r="4" fill="#0" id="circle157"/>
	<circle cx="381.73" cy="225.871" r="4" fill="#0" id="circle158"/>
	<circle cx="381.73" cy="271.712" r="4" fill="#0" id="circle159"/>
	<circle cx="400.067" cy="233.205" r="4" fill="#0" id="circle160"/>
	<circle cx="400.067" cy="271.712" r="4" fill="#0" id="circle161"/>
	<circle cx="418.403" cy="233.205" r="4" fill="#0" id="circle162"/>
	<circle cx="418.403" cy="271.712" r="4" fill="#0" id="circle163"/>
	<circle cx="436.739" cy="233.205" r="4" fill="#0" id="circle164"/>
	<circle cx="436.739" cy="271.712" r="4" fill="#0" id="circle165"/>
	<circle cx="455.076" cy="233.205" r="4" fill="#0" id="circle166"/>
	<circle cx="455.076" cy="271.712" r="4" fill="#0" id="circle167"/>
	<circle cx="473.412" cy="233.205" r="4" fill="#0" id="circle168"/>
	<circle cx="473.412" cy="271.712" r="4" fill="#0" id="circle169"/>
	<circle cx="491.749" cy="233.205" r="4" fill="#0" id="circle170"/>
	<circle cx="491.749" cy="271.712" r="4" fill="#0" id="circle171"/>
	<circle cx="508.251" cy="242.373" r="4" fill="#0" id="circle172"/>
	<circle cx="508.251" cy="280.88" r="4" fill="#0" id="circle173"/>
	<circle cx="526.588" cy="242.373" r="4" fill="#0" id="circle174"/>
	<circle cx="526.588" cy="280.88" r="4" fill="#0" id="circle175"/>
	<circle cx="544.924" cy="242.373" r="4" fill="#0" id="circle176"/>
	<circle cx="544.924" cy="280.88" r="4" fill="#0" id="circle177"/>
	<circle cx="563.261" cy="242.373" r="4" fill="#0" id="circle178"/>
	<circle cx="563.261" cy="280.88" r="4" fill="#0" id="circle179"/>
	<circle cx="581.597" cy="242.373" r="4" fill="#0" id="circle180"/>
	<circle cx="581.597" cy="280.88" r="4" fill="#0" id="circle181"/>
	<circle cx="598.1" cy="290.048" r="4" fill="#0" id="circle182"/>
	<circle cx="599.933" cy="246.041" r="4" fill="#0" id="circle183"/>
	<circle cx="616.436" cy="290.048" r="4" fill="#0" id="circle184"/>
	<circle cx="618.27" cy="246.041" r="4" fill="#0" id="circle185"/>
	<circle cx="632.939" cy="299.216" r="4" fill="#0" id="circle186"/>
	<circle cx="636.606" cy="251.542" r="4" fill="#0" id="circle187"/>
	<circle cx="651.275" cy="297.383" r="4" fill="#0" id="circle188"/>
	<circle cx="654.943" cy="251.542" r="4" fill="#0" id="circle189"/>
	<circle cx="669.612" cy="299.216" r="4" fill="#0" id="circle190"/>
	<circle cx="671.445" cy="260.71" r="4" fill="#0" id="circle191"/>
	<circle cx="687.948" cy="269.878" r="4" fill="#0" id="circle192"/>
	<circle cx="687.948" cy="306.551" r="4" fill="#0" id="circle193"/>
	<circle cx="706.285" cy="269.878" r="4" fill="#0" id="circle194"/>
	<circle cx="706.285" cy="306.551" r="4" fill="#0" id="circle195"/>
	<circle cx="724.621" cy="269.878" r="4" fill="#0" id="circle196"/>
	<circle cx="724.621" cy="308.384" r="4" fill="#0" id="circle197"/>
	<circle cx="741.124" cy="279.046" r="4" fill="#0" id="circle198"/>
	<circle cx="742.957" cy="315.719" r="4" fill="#0" id="circle199"/>
	<circle cx="759.46" cy="279.046" r="4" fill="#0" id="circle200"/>
	<circle cx="761.294" cy="315.719" r="4" fill="#0" id="circle201"/>
	<circle cx="777.797" cy="279.046" r="4" fill="#0" id="circle202"/>
	<circle cx="779.63" cy="317.553" r="4" fill="#0" id="circle203"/>
	<circle cx="796.133" cy="279.046" r="4" fill="#0" id="circle204"/>
	<circle cx="797.967" cy="317.553" r="4" fill="#0" id="circle205"/>
	<circle cx="814.47" cy="279.046" r="4" fill="#0" id="circle206"/>
	<circle cx="816.303" cy="317.553" r="4" fill="#0" id="circle207"/>
	<circle cx="832.806" cy="279.046" r="4" fill="#0" id="circle208"/>
	<circle cx="834.64" cy="317.553" r="4" fill="#0" id="circle209"/>
	<circle cx="851.142" cy="279.046" r="4" fill="#0" id="circle210"/>
	<circle cx="852.976" cy="317.553" r="4" fill="#0" id="circle211"/>
	<circle cx="869.479" cy="279.046" r="4" fill="#0" id="circle212"/>
	<circle cx="871.312" cy="315.719" r="4" fill="#0" id="circle213"/>
	<circle cx="885.982" cy="269.878" r="4" fill="#0" id="circle214"/>
	<circle cx="889.649" cy="315.719" r="4" fill="#0" id="circle215"/>
	<circle cx="904.318" cy="269.878" r="4" fill="#0" id="circle216"/>
	<circle cx="907.985" cy="308.384" r="4" fill="#0" id="circle217"/>
	<circle cx="922.654" cy="269.878" r="4" fill="#0" id="circle218"/>
	<circle cx="926.322" cy="308.384" r="4" fill="#0" id="circle219"/>
	<circle cx="940.991" cy="269.878" r="4" fill="#0" id="circle220"/>
	<circle cx="942.824" cy="299.216" r="4" fill="#0" id="circle221"/>
	<circle cx="957.494" cy="310.218" r="4" fill="#0" id="circle222"/>
	<circle cx="959.327" cy="269.878" r="4" fill="#0" id="circle223"/>
	<circle cx="970.329" cy="324.887" r="4" fill="#0" id="circle224"/>
	<circle cx="977.664" cy="269.878" r="4" fill="#0" id="circle225"/>
	<circle cx="988.665" cy="317.553" r="4" fill="#0" id="circle226"/>
	<circle cx="996" cy="275.379" r="4" fill="#0" id="circle227"/>
	<circle cx="996" cy="299.216" r="4" fill="#0" id="circle228"/>
	</g>
</svg>