<?xml version="1.0" encoding="UTF-8" standalone="no"?>
<!-- Created with CurveBenchmark -->
<svg
	xmlns:dc="http://purl.org/dc/elements/1.1/"
	xmlns:cc="http://creativecommons.org/ns#"
	xmlns:rdf="http://www.w3.org/1999/02/22-rdf-syntax-ns#"
	xmlns:svg="http://www.w3.org/2000/svg"
	xmlns="http://www.w3.org/2000/svg"
	xmlns:sodipodi="http://sodipodi.sourceforge.net/DTD/sodipodi-0.dtd"
	xmlns:inkscape="http://www.inkscape.org/namespaces/inkscape"
	width="1000"
	height="1000"
	id="svg2"
	version="1.1"
	sodipodi:docname="manifold/gathan1-herrings.png.txt">
<defs
	id="defs4" />
<metadata
	id="metadata7">
	<rdf:RDF>
		<cc:Work
			rdf:about="">
			<dc:format>image/svg+xml</dc:format>
			<dc:type
				rdf:resource="http://purl.org/dc/dcmitype/StillImage" />
			<dc:title></dc:title>
		</cc:Work>
	</rdf:RDF>
</metadata>
<g
	inkscape:label="Layer 1"
	inkscape:groupmode="layer"
	id="layer1">
	<path style="fill:none;stroke:red;stroke-width:1px;stroke-linecap:butt;stroke-linejoin:miter;stroke-opacity:1" d="M 55.9178,4 74.4598,4 z" id="boundary" inkscape:connector-curvature="0" />
	<path style="fill:none;stroke:red;stroke-width:1px;stroke-linecap:butt;stroke-linejoin:miter;stroke-opacity:1" d="M 41.0841,18.8336 55.9178,4 z" id="boundary" inkscape:connector-curvature="0" />
	<path style="fill:none;stroke:red;stroke-width:1px;stroke-linecap:butt;stroke-linejoin:miter;stroke-opacity:1" d="M 41.0841,18.8336 31.8131,37.3757 z" id="boundary" inkscape:connector-curvature="0" />
	<path style="fill:none;stroke:red;stroke-width:1px;stroke-linecap:butt;stroke-linejoin:miter;stroke-opacity:1" d="M 74.4598,4 91.1477,13.271 z" id="boundary" inkscape:connector-curvature="0" />
	<path style="fill:none;stroke:red;stroke-width:1px;stroke-linecap:butt;stroke-linejoin:miter;stroke-opacity:1" d="M 91.1477,13.271 109.69,13.271 z" id="boundary" inkscape:connector-curvature="0" />
	<path style="fill:none;stroke:red;stroke-width:1px;stroke-linecap:butt;stroke-linejoin:miter;stroke-opacity:1" d="M 163.462,28.1047 144.92,22.5421 z" id="boundary" inkscape:connector-curvature="0" />
	<path style="fill:none;stroke:red;stroke-width:1px;stroke-linecap:butt;stroke-linejoin:miter;stroke-opacity:1" d="M 144.92,22.5421 128.232,13.271 z" id="boundary" inkscape:connector-curvature="0" />
	<path style="fill:none;stroke:red;stroke-width:1px;stroke-linecap:butt;stroke-linejoin:miter;stroke-opacity:1" d="M 182.004,31.8131 163.462,28.1047 z" id="boundary" inkscape:connector-curvature="0" />
	<path style="fill:none;stroke:red;stroke-width:1px;stroke-linecap:butt;stroke-linejoin:miter;stroke-opacity:1" d="M 109.69,13.271 128.232,13.271 z" id="boundary" inkscape:connector-curvature="0" />
	<path style="fill:none;stroke:red;stroke-width:1px;stroke-linecap:butt;stroke-linejoin:miter;stroke-opacity:1" d="M 4,37.3757 13.271,54.0636 z" id="boundary" inkscape:connector-curvature="0" />
	<path style="fill:none;stroke:red;stroke-width:1px;stroke-linecap:butt;stroke-linejoin:miter;stroke-opacity:1" d="M 13.271,54.0636 13.271,72.6056 z" id="boundary" inkscape:connector-curvature="0" />
	<path style="fill:none;stroke:red;stroke-width:1px;stroke-linecap:butt;stroke-linejoin:miter;stroke-opacity:1" d="M 22.5421,107.836 13.271,91.1477 z" id="boundary" inkscape:connector-curvature="0" />
	<path style="fill:none;stroke:red;stroke-width:1px;stroke-linecap:butt;stroke-linejoin:miter;stroke-opacity:1" d="M 13.271,91.1477 13.271,72.6056 z" id="boundary" inkscape:connector-curvature="0" />
	<path style="fill:none;stroke:red;stroke-width:1px;stroke-linecap:butt;stroke-linejoin:miter;stroke-opacity:1" d="M 22.5421,107.836 28.1047,126.378 z" id="boundary" inkscape:connector-curvature="0" />
	<path style="fill:none;stroke:red;stroke-width:1px;stroke-linecap:butt;stroke-linejoin:miter;stroke-opacity:1" d="M 59.6262,172.733 44.7925,161.607 z" id="boundary" inkscape:connector-curvature="0" />
	<path style="fill:none;stroke:red;stroke-width:1px;stroke-linecap:butt;stroke-linejoin:miter;stroke-opacity:1" d="M 44.7925,161.607 37.3757,143.065 z" id="boundary" inkscape:connector-curvature="0" />
	<path style="fill:none;stroke:red;stroke-width:1px;stroke-linecap:butt;stroke-linejoin:miter;stroke-opacity:1" d="M 37.3757,143.065 28.1047,126.378 z" id="boundary" inkscape:connector-curvature="0" />
	<path style="fill:none;stroke:red;stroke-width:1px;stroke-linecap:butt;stroke-linejoin:miter;stroke-opacity:1" d="M 59.6262,172.733 65.1888,191.275 z" id="boundary" inkscape:connector-curvature="0" />
	<path style="fill:none;stroke:red;stroke-width:1px;stroke-linecap:butt;stroke-linejoin:miter;stroke-opacity:1" d="M 4,37.3757 18.8336,22.5421 z" id="boundary" inkscape:connector-curvature="0" />
	<path style="fill:none;stroke:red;stroke-width:1px;stroke-linecap:butt;stroke-linejoin:miter;stroke-opacity:1" d="M 182.004,31.8131 198.692,41.0841 z" id="boundary" inkscape:connector-curvature="0" />
	<path style="fill:none;stroke:red;stroke-width:1px;stroke-linecap:butt;stroke-linejoin:miter;stroke-opacity:1" d="M 217.234,44.7925 198.692,41.0841 z" id="boundary" inkscape:connector-curvature="0" />
	<path style="fill:none;stroke:red;stroke-width:1px;stroke-linecap:butt;stroke-linejoin:miter;stroke-opacity:1" d="M 252.464,61.4804 233.921,54.0636 z" id="boundary" inkscape:connector-curvature="0" />
	<path style="fill:none;stroke:red;stroke-width:1px;stroke-linecap:butt;stroke-linejoin:miter;stroke-opacity:1" d="M 233.921,54.0636 217.234,44.7925 z" id="boundary" inkscape:connector-curvature="0" />
	<path style="fill:none;stroke:red;stroke-width:1px;stroke-linecap:butt;stroke-linejoin:miter;stroke-opacity:1" d="M 271.006,68.8972 252.464,61.4804 z" id="boundary" inkscape:connector-curvature="0" />
	<path style="fill:none;stroke:red;stroke-width:1px;stroke-linecap:butt;stroke-linejoin:miter;stroke-opacity:1" d="M 339.611,102.273 321.069,96.7103 z" id="boundary" inkscape:connector-curvature="0" />
	<path style="fill:none;stroke:red;stroke-width:1px;stroke-linecap:butt;stroke-linejoin:miter;stroke-opacity:1" d="M 321.069,96.7103 304.381,87.4393 z" id="boundary" inkscape:connector-curvature="0" />
	<path style="fill:none;stroke:red;stroke-width:1px;stroke-linecap:butt;stroke-linejoin:miter;stroke-opacity:1" d="M 304.381,87.4393 287.693,78.1682 z" id="boundary" inkscape:connector-curvature="0" />
	<path style="fill:none;stroke:red;stroke-width:1px;stroke-linecap:butt;stroke-linejoin:miter;stroke-opacity:1" d="M 339.611,102.273 356.299,111.544 z" id="boundary" inkscape:connector-curvature="0" />
	<path style="fill:none;stroke:red;stroke-width:1px;stroke-linecap:butt;stroke-linejoin:miter;stroke-opacity:1" d="M 287.693,78.1682 271.006,68.8972 z" id="boundary" inkscape:connector-curvature="0" />
	<path style="fill:none;stroke:red;stroke-width:1px;stroke-linecap:butt;stroke-linejoin:miter;stroke-opacity:1" d="M 528.74,133.794 510.198,133.794 z" id="boundary" inkscape:connector-curvature="0" />
	<path style="fill:none;stroke:red;stroke-width:1px;stroke-linecap:butt;stroke-linejoin:miter;stroke-opacity:1" d="M 356.299,111.544 374.841,118.961 z" id="boundary" inkscape:connector-curvature="0" />
	<path style="fill:none;stroke:red;stroke-width:1px;stroke-linecap:butt;stroke-linejoin:miter;stroke-opacity:1" d="M 374.841,118.961 385.966,133.794 z" id="boundary" inkscape:connector-curvature="0" />
	<path style="fill:none;stroke:red;stroke-width:1px;stroke-linecap:butt;stroke-linejoin:miter;stroke-opacity:1" d="M 385.966,133.794 404.508,139.357 z" id="boundary" inkscape:connector-curvature="0" />
	<path style="fill:none;stroke:red;stroke-width:1px;stroke-linecap:butt;stroke-linejoin:miter;stroke-opacity:1" d="M 404.508,139.357 421.196,148.628 z" id="boundary" inkscape:connector-curvature="0" />
	<path style="fill:none;stroke:red;stroke-width:1px;stroke-linecap:butt;stroke-linejoin:miter;stroke-opacity:1" d="M 491.656,133.794 510.198,133.794 z" id="boundary" inkscape:connector-curvature="0" />
	<path style="fill:none;stroke:red;stroke-width:1px;stroke-linecap:butt;stroke-linejoin:miter;stroke-opacity:1" d="M 474.968,143.065 491.656,133.794 z" id="boundary" inkscape:connector-curvature="0" />
	<path style="fill:none;stroke:red;stroke-width:1px;stroke-linecap:butt;stroke-linejoin:miter;stroke-opacity:1" d="M 439.738,152.336 456.426,143.065 z" id="boundary" inkscape:connector-curvature="0" />
	<path style="fill:none;stroke:red;stroke-width:1px;stroke-linecap:butt;stroke-linejoin:miter;stroke-opacity:1" d="M 456.426,143.065 474.968,143.065 z" id="boundary" inkscape:connector-curvature="0" />
	<path style="fill:none;stroke:red;stroke-width:1px;stroke-linecap:butt;stroke-linejoin:miter;stroke-opacity:1" d="M 439.738,152.336 421.196,148.628 z" id="boundary" inkscape:connector-curvature="0" />
	<path style="fill:none;stroke:red;stroke-width:1px;stroke-linecap:butt;stroke-linejoin:miter;stroke-opacity:1" d="M 65.1888,191.275 80.0224,204.254 z" id="boundary" inkscape:connector-curvature="0" />
	<path style="fill:none;stroke:red;stroke-width:1px;stroke-linecap:butt;stroke-linejoin:miter;stroke-opacity:1" d="M 93.0019,219.088 102.273,235.776 z" id="boundary" inkscape:connector-curvature="0" />
	<path style="fill:none;stroke:red;stroke-width:1px;stroke-linecap:butt;stroke-linejoin:miter;stroke-opacity:1" d="M 80.0224,204.254 93.0019,219.088 z" id="boundary" inkscape:connector-curvature="0" />
	<path style="fill:none;stroke:red;stroke-width:1px;stroke-linecap:butt;stroke-linejoin:miter;stroke-opacity:1" d="M 102.273,235.776 109.69,254.318 z" id="boundary" inkscape:connector-curvature="0" />
	<path style="fill:none;stroke:red;stroke-width:1px;stroke-linecap:butt;stroke-linejoin:miter;stroke-opacity:1" d="M 109.69,254.318 124.523,265.443 z" id="boundary" inkscape:connector-curvature="0" />
	<path style="fill:none;stroke:red;stroke-width:1px;stroke-linecap:butt;stroke-linejoin:miter;stroke-opacity:1" d="M 124.523,265.443 135.649,280.277 z" id="boundary" inkscape:connector-curvature="0" />
	<path style="fill:none;stroke:red;stroke-width:1px;stroke-linecap:butt;stroke-linejoin:miter;stroke-opacity:1" d="M 135.649,280.277 150.482,293.256 z" id="boundary" inkscape:connector-curvature="0" />
	<path style="fill:none;stroke:red;stroke-width:1px;stroke-linecap:butt;stroke-linejoin:miter;stroke-opacity:1" d="M 150.482,293.256 157.899,311.798 z" id="boundary" inkscape:connector-curvature="0" />
	<path style="fill:none;stroke:red;stroke-width:1px;stroke-linecap:butt;stroke-linejoin:miter;stroke-opacity:1" d="M 172.733,324.778 157.899,311.798 z" id="boundary" inkscape:connector-curvature="0" />
	<path style="fill:none;stroke:red;stroke-width:1px;stroke-linecap:butt;stroke-linejoin:miter;stroke-opacity:1" d="M 185.712,339.611 172.733,324.778 z" id="boundary" inkscape:connector-curvature="0" />
	<path style="fill:none;stroke:red;stroke-width:1px;stroke-linecap:butt;stroke-linejoin:miter;stroke-opacity:1" d="M 200.546,352.591 217.234,361.862 z" id="boundary" inkscape:connector-curvature="0" />
	<path style="fill:none;stroke:red;stroke-width:1px;stroke-linecap:butt;stroke-linejoin:miter;stroke-opacity:1" d="M 217.234,361.862 232.067,374.841 z" id="boundary" inkscape:connector-curvature="0" />
	<path style="fill:none;stroke:red;stroke-width:1px;stroke-linecap:butt;stroke-linejoin:miter;stroke-opacity:1" d="M 200.546,352.591 185.712,339.611 z" id="boundary" inkscape:connector-curvature="0" />
	<path style="fill:none;stroke:red;stroke-width:1px;stroke-linecap:butt;stroke-linejoin:miter;stroke-opacity:1" d="M 248.755,384.112 232.067,374.841 z" id="boundary" inkscape:connector-curvature="0" />
	<path style="fill:none;stroke:red;stroke-width:1px;stroke-linecap:butt;stroke-linejoin:miter;stroke-opacity:1" d="M 248.755,384.112 263.589,395.237 z" id="boundary" inkscape:connector-curvature="0" />
	<path style="fill:none;stroke:red;stroke-width:1px;stroke-linecap:butt;stroke-linejoin:miter;stroke-opacity:1" d="M 263.589,436.03 263.589,454.572 z" id="boundary" inkscape:connector-curvature="0" />
	<path style="fill:none;stroke:red;stroke-width:1px;stroke-linecap:butt;stroke-linejoin:miter;stroke-opacity:1" d="M 263.589,473.114 263.589,454.572 z" id="boundary" inkscape:connector-curvature="0" />
	<path style="fill:none;stroke:red;stroke-width:1px;stroke-linecap:butt;stroke-linejoin:miter;stroke-opacity:1" d="M 263.589,395.237 272.86,411.925 z" id="boundary" inkscape:connector-curvature="0" />
	<path style="fill:none;stroke:red;stroke-width:1px;stroke-linecap:butt;stroke-linejoin:miter;stroke-opacity:1" d="M 272.86,411.925 263.589,436.03 z" id="boundary" inkscape:connector-curvature="0" />
	<path style="fill:none;stroke:red;stroke-width:1px;stroke-linecap:butt;stroke-linejoin:miter;stroke-opacity:1" d="M 263.589,473.114 263.589,491.656 z" id="boundary" inkscape:connector-curvature="0" />
	<path style="fill:none;stroke:red;stroke-width:1px;stroke-linecap:butt;stroke-linejoin:miter;stroke-opacity:1" d="M 330.34,432.321 330.34,450.864 z" id="boundary" inkscape:connector-curvature="0" />
	<path style="fill:none;stroke:red;stroke-width:1px;stroke-linecap:butt;stroke-linejoin:miter;stroke-opacity:1" d="M 328.486,473.114 330.34,450.864 z" id="boundary" inkscape:connector-curvature="0" />
	<path style="fill:none;stroke:red;stroke-width:1px;stroke-linecap:butt;stroke-linejoin:miter;stroke-opacity:1" d="M 330.34,432.321 348.882,436.03 z" id="boundary" inkscape:connector-curvature="0" />
	<path style="fill:none;stroke:red;stroke-width:1px;stroke-linecap:butt;stroke-linejoin:miter;stroke-opacity:1" d="M 348.882,436.03 365.57,445.301 z" id="boundary" inkscape:connector-curvature="0" />
	<path style="fill:none;stroke:red;stroke-width:1px;stroke-linecap:butt;stroke-linejoin:miter;stroke-opacity:1" d="M 328.486,473.114 313.652,487.948 z" id="boundary" inkscape:connector-curvature="0" />
	<path style="fill:none;stroke:red;stroke-width:1px;stroke-linecap:butt;stroke-linejoin:miter;stroke-opacity:1" d="M 384.112,450.864 400.8,460.135 z" id="boundary" inkscape:connector-curvature="0" />
	<path style="fill:none;stroke:red;stroke-width:1px;stroke-linecap:butt;stroke-linejoin:miter;stroke-opacity:1" d="M 384.112,450.864 365.57,445.301 z" id="boundary" inkscape:connector-curvature="0" />
	<path style="fill:none;stroke:red;stroke-width:1px;stroke-linecap:butt;stroke-linejoin:miter;stroke-opacity:1" d="M 400.8,460.135 419.342,460.135 z" id="boundary" inkscape:connector-curvature="0" />
	<path style="fill:none;stroke:red;stroke-width:1px;stroke-linecap:butt;stroke-linejoin:miter;stroke-opacity:1" d="M 419.342,460.135 436.03,469.406 z" id="boundary" inkscape:connector-curvature="0" />
	<path style="fill:none;stroke:red;stroke-width:1px;stroke-linecap:butt;stroke-linejoin:miter;stroke-opacity:1" d="M 296.964,497.219 313.652,487.948 z" id="boundary" inkscape:connector-curvature="0" />
	<path style="fill:none;stroke:red;stroke-width:1px;stroke-linecap:butt;stroke-linejoin:miter;stroke-opacity:1" d="M 436.03,469.406 452.718,478.677 z" id="boundary" inkscape:connector-curvature="0" />
	<path style="fill:none;stroke:red;stroke-width:1px;stroke-linecap:butt;stroke-linejoin:miter;stroke-opacity:1" d="M 452.718,478.677 461.989,495.364 z" id="boundary" inkscape:connector-curvature="0" />
	<path style="fill:none;stroke:red;stroke-width:1px;stroke-linecap:butt;stroke-linejoin:miter;stroke-opacity:1" d="M 296.964,497.219 278.422,504.636 z" id="boundary" inkscape:connector-curvature="0" />
	<path style="fill:none;stroke:red;stroke-width:1px;stroke-linecap:butt;stroke-linejoin:miter;stroke-opacity:1" d="M 278.422,504.636 263.589,491.656 z" id="boundary" inkscape:connector-curvature="0" />
	<path style="fill:none;stroke:red;stroke-width:1px;stroke-linecap:butt;stroke-linejoin:miter;stroke-opacity:1" d="M 461.989,495.364 471.26,512.052 z" id="boundary" inkscape:connector-curvature="0" />
	<path style="fill:none;stroke:red;stroke-width:1px;stroke-linecap:butt;stroke-linejoin:miter;stroke-opacity:1" d="M 471.26,512.052 478.677,530.594 z" id="boundary" inkscape:connector-curvature="0" />
	<path style="fill:none;stroke:red;stroke-width:1px;stroke-linecap:butt;stroke-linejoin:miter;stroke-opacity:1" d="M 493.51,543.574 478.677,530.594 z" id="boundary" inkscape:connector-curvature="0" />
	<path style="fill:none;stroke:red;stroke-width:1px;stroke-linecap:butt;stroke-linejoin:miter;stroke-opacity:1" d="M 510.198,552.845 493.51,543.574 z" id="boundary" inkscape:connector-curvature="0" />
	<path style="fill:none;stroke:red;stroke-width:1px;stroke-linecap:butt;stroke-linejoin:miter;stroke-opacity:1" d="M 528.74,552.845 510.198,552.845 z" id="boundary" inkscape:connector-curvature="0" />
	<path style="fill:none;stroke:red;stroke-width:1px;stroke-linecap:butt;stroke-linejoin:miter;stroke-opacity:1" d="M 528.74,133.794 547.282,133.794 z" id="boundary" inkscape:connector-curvature="0" />
	<path style="fill:none;stroke:red;stroke-width:1px;stroke-linecap:butt;stroke-linejoin:miter;stroke-opacity:1" d="M 565.824,133.794 584.366,133.794 z" id="boundary" inkscape:connector-curvature="0" />
	<path style="fill:none;stroke:red;stroke-width:1px;stroke-linecap:butt;stroke-linejoin:miter;stroke-opacity:1" d="M 584.366,133.794 589.929,152.336 z" id="boundary" inkscape:connector-curvature="0" />
	<path style="fill:none;stroke:red;stroke-width:1px;stroke-linecap:butt;stroke-linejoin:miter;stroke-opacity:1" d="M 565.824,133.794 547.282,133.794 z" id="boundary" inkscape:connector-curvature="0" />
	<path style="fill:none;stroke:red;stroke-width:1px;stroke-linecap:butt;stroke-linejoin:miter;stroke-opacity:1" d="M 589.929,152.336 599.2,169.024 z" id="boundary" inkscape:connector-curvature="0" />
	<path style="fill:none;stroke:red;stroke-width:1px;stroke-linecap:butt;stroke-linejoin:miter;stroke-opacity:1" d="M 599.2,169.024 599.2,187.566 z" id="boundary" inkscape:connector-curvature="0" />
	<path style="fill:none;stroke:red;stroke-width:1px;stroke-linecap:butt;stroke-linejoin:miter;stroke-opacity:1" d="M 608.471,222.796 599.2,206.108 z" id="boundary" inkscape:connector-curvature="0" />
	<path style="fill:none;stroke:red;stroke-width:1px;stroke-linecap:butt;stroke-linejoin:miter;stroke-opacity:1" d="M 599.2,206.108 599.2,187.566 z" id="boundary" inkscape:connector-curvature="0" />
	<path style="fill:none;stroke:red;stroke-width:1px;stroke-linecap:butt;stroke-linejoin:miter;stroke-opacity:1" d="M 608.471,222.796 608.471,241.338 z" id="boundary" inkscape:connector-curvature="0" />
	<path style="fill:none;stroke:red;stroke-width:1px;stroke-linecap:butt;stroke-linejoin:miter;stroke-opacity:1" d="M 608.471,241.338 608.471,274.714 z" id="boundary" inkscape:connector-curvature="0" />
	<path style="fill:none;stroke:red;stroke-width:1px;stroke-linecap:butt;stroke-linejoin:miter;stroke-opacity:1" d="M 589.929,283.985 599.2,300.673 z" id="boundary" inkscape:connector-curvature="0" />
	<path style="fill:none;stroke:red;stroke-width:1px;stroke-linecap:butt;stroke-linejoin:miter;stroke-opacity:1" d="M 627.013,326.632 641.847,339.611 z" id="boundary" inkscape:connector-curvature="0" />
	<path style="fill:none;stroke:red;stroke-width:1px;stroke-linecap:butt;stroke-linejoin:miter;stroke-opacity:1" d="M 614.034,311.798 599.2,300.673 z" id="boundary" inkscape:connector-curvature="0" />
	<path style="fill:none;stroke:red;stroke-width:1px;stroke-linecap:butt;stroke-linejoin:miter;stroke-opacity:1" d="M 614.034,311.798 627.013,326.632 z" id="boundary" inkscape:connector-curvature="0" />
	<path style="fill:none;stroke:red;stroke-width:1px;stroke-linecap:butt;stroke-linejoin:miter;stroke-opacity:1" d="M 669.66,367.424 654.826,354.445 z" id="boundary" inkscape:connector-curvature="0" />
	<path style="fill:none;stroke:red;stroke-width:1px;stroke-linecap:butt;stroke-linejoin:miter;stroke-opacity:1" d="M 654.826,354.445 641.847,339.611 z" id="boundary" inkscape:connector-curvature="0" />
	<path style="fill:none;stroke:red;stroke-width:1px;stroke-linecap:butt;stroke-linejoin:miter;stroke-opacity:1" d="M 547.282,552.845 528.74,552.845 z" id="boundary" inkscape:connector-curvature="0" />
	<path style="fill:none;stroke:red;stroke-width:1px;stroke-linecap:butt;stroke-linejoin:miter;stroke-opacity:1" d="M 682.639,382.258 697.473,395.237 z" id="boundary" inkscape:connector-curvature="0" />
	<path style="fill:none;stroke:red;stroke-width:1px;stroke-linecap:butt;stroke-linejoin:miter;stroke-opacity:1" d="M 710.452,410.071 725.286,423.05 z" id="boundary" inkscape:connector-curvature="0" />
	<path style="fill:none;stroke:red;stroke-width:1px;stroke-linecap:butt;stroke-linejoin:miter;stroke-opacity:1" d="M 710.452,410.071 697.473,395.237 z" id="boundary" inkscape:connector-curvature="0" />
	<path style="fill:none;stroke:red;stroke-width:1px;stroke-linecap:butt;stroke-linejoin:miter;stroke-opacity:1" d="M 738.265,437.884 725.286,423.05 z" id="boundary" inkscape:connector-curvature="0" />
	<path style="fill:none;stroke:red;stroke-width:1px;stroke-linecap:butt;stroke-linejoin:miter;stroke-opacity:1" d="M 753.099,449.009 738.265,437.884 z" id="boundary" inkscape:connector-curvature="0" />
	<path style="fill:none;stroke:red;stroke-width:1px;stroke-linecap:butt;stroke-linejoin:miter;stroke-opacity:1" d="M 669.66,367.424 682.639,382.258 z" id="boundary" inkscape:connector-curvature="0" />
	<path style="fill:none;stroke:red;stroke-width:1px;stroke-linecap:butt;stroke-linejoin:miter;stroke-opacity:1" d="M 753.099,449.009 769.787,458.28 z" id="boundary" inkscape:connector-curvature="0" />
	<path style="fill:none;stroke:red;stroke-width:1px;stroke-linecap:butt;stroke-linejoin:miter;stroke-opacity:1" d="M 769.787,458.28 782.766,473.114 z" id="boundary" inkscape:connector-curvature="0" />
	<path style="fill:none;stroke:red;stroke-width:1px;stroke-linecap:butt;stroke-linejoin:miter;stroke-opacity:1" d="M 801.308,480.531 782.766,473.114 z" id="boundary" inkscape:connector-curvature="0" />
	<path style="fill:none;stroke:red;stroke-width:1px;stroke-linecap:butt;stroke-linejoin:miter;stroke-opacity:1" d="M 819.85,486.093 801.308,480.531 z" id="boundary" inkscape:connector-curvature="0" />
	<path style="fill:none;stroke:red;stroke-width:1px;stroke-linecap:butt;stroke-linejoin:miter;stroke-opacity:1" d="M 838.393,486.093 819.85,486.093 z" id="boundary" inkscape:connector-curvature="0" />
	<path style="fill:none;stroke:red;stroke-width:1px;stroke-linecap:butt;stroke-linejoin:miter;stroke-opacity:1" d="M 838.393,486.093 855.08,495.364 z" id="boundary" inkscape:connector-curvature="0" />
	<path style="fill:none;stroke:red;stroke-width:1px;stroke-linecap:butt;stroke-linejoin:miter;stroke-opacity:1" d="M 873.622,495.364 855.08,495.364 z" id="boundary" inkscape:connector-curvature="0" />
	<path style="fill:none;stroke:red;stroke-width:1px;stroke-linecap:butt;stroke-linejoin:miter;stroke-opacity:1" d="M 873.622,495.364 892.164,497.219 z" id="boundary" inkscape:connector-curvature="0" />
	<path style="fill:none;stroke:red;stroke-width:1px;stroke-linecap:butt;stroke-linejoin:miter;stroke-opacity:1" d="M 910.707,504.636 892.164,497.219 z" id="boundary" inkscape:connector-curvature="0" />
	<path style="fill:none;stroke:red;stroke-width:1px;stroke-linecap:butt;stroke-linejoin:miter;stroke-opacity:1" d="M 929.249,504.636 910.707,504.636 z" id="boundary" inkscape:connector-curvature="0" />
	<path style="fill:none;stroke:red;stroke-width:1px;stroke-linecap:butt;stroke-linejoin:miter;stroke-opacity:1" d="M 929.249,504.636 947.791,506.49 z" id="boundary" inkscape:connector-curvature="0" />
	<path style="fill:none;stroke:red;stroke-width:1px;stroke-linecap:butt;stroke-linejoin:miter;stroke-opacity:1" d="M 964.479,515.761 983.021,523.178 z" id="boundary" inkscape:connector-curvature="0" />
	<path style="fill:none;stroke:red;stroke-width:1px;stroke-linecap:butt;stroke-linejoin:miter;stroke-opacity:1" d="M 964.479,515.761 947.791,506.49 z" id="boundary" inkscape:connector-curvature="0" />
	<path style="fill:none;stroke:red;stroke-width:1px;stroke-linecap:butt;stroke-linejoin:miter;stroke-opacity:1" d="M 983.021,523.178 996,538.011 z" id="boundary" inkscape:connector-curvature="0" />
	<path style="fill:none;stroke:red;stroke-width:1px;stroke-linecap:butt;stroke-linejoin:miter;stroke-opacity:1" d="M 996,538.011 984.875,558.407 z" id="boundary" inkscape:connector-curvature="0" />
	<path style="fill:none;stroke:red;stroke-width:1px;stroke-linecap:butt;stroke-linejoin:miter;stroke-opacity:1" d="M 547.282,552.845 565.824,552.845 z" id="boundary" inkscape:connector-curvature="0" />
	<path style="fill:none;stroke:red;stroke-width:1px;stroke-linecap:butt;stroke-linejoin:miter;stroke-opacity:1" d="M 584.366,552.845 602.908,552.845 z" id="boundary" inkscape:connector-curvature="0" />
	<path style="fill:none;stroke:red;stroke-width:1px;stroke-linecap:butt;stroke-linejoin:miter;stroke-opacity:1" d="M 584.366,552.845 565.824,552.845 z" id="boundary" inkscape:connector-curvature="0" />
	<path style="fill:none;stroke:red;stroke-width:1px;stroke-linecap:butt;stroke-linejoin:miter;stroke-opacity:1" d="M 621.45,552.845 639.993,552.845 z" id="boundary" inkscape:connector-curvature="0" />
	<path style="fill:none;stroke:red;stroke-width:1px;stroke-linecap:butt;stroke-linejoin:miter;stroke-opacity:1" d="M 639.993,552.845 658.535,560.262 z" id="boundary" inkscape:connector-curvature="0" />
	<path style="fill:none;stroke:red;stroke-width:1px;stroke-linecap:butt;stroke-linejoin:miter;stroke-opacity:1" d="M 658.535,560.262 677.077,560.262 z" id="boundary" inkscape:connector-curvature="0" />
	<path style="fill:none;stroke:red;stroke-width:1px;stroke-linecap:butt;stroke-linejoin:miter;stroke-opacity:1" d="M 677.077,560.262 695.619,560.262 z" id="boundary" inkscape:connector-curvature="0" />
	<path style="fill:none;stroke:red;stroke-width:1px;stroke-linecap:butt;stroke-linejoin:miter;stroke-opacity:1" d="M 695.619,560.262 708.598,575.095 z" id="boundary" inkscape:connector-curvature="0" />
	<path style="fill:none;stroke:red;stroke-width:1px;stroke-linecap:butt;stroke-linejoin:miter;stroke-opacity:1" d="M 602.908,552.845 621.45,552.845 z" id="boundary" inkscape:connector-curvature="0" />
	<path style="fill:none;stroke:red;stroke-width:1px;stroke-linecap:butt;stroke-linejoin:miter;stroke-opacity:1" d="M 708.598,575.095 717.869,591.783 z" id="boundary" inkscape:connector-curvature="0" />
	<path style="fill:none;stroke:red;stroke-width:1px;stroke-linecap:butt;stroke-linejoin:miter;stroke-opacity:1" d="M 727.14,608.471 717.869,591.783 z" id="boundary" inkscape:connector-curvature="0" />
	<path style="fill:none;stroke:red;stroke-width:1px;stroke-linecap:butt;stroke-linejoin:miter;stroke-opacity:1" d="M 727.14,608.471 736.411,625.159 z" id="boundary" inkscape:connector-curvature="0" />
	<path style="fill:none;stroke:red;stroke-width:1px;stroke-linecap:butt;stroke-linejoin:miter;stroke-opacity:1" d="M 745.682,641.847 736.411,625.159 z" id="boundary" inkscape:connector-curvature="0" />
	<path style="fill:none;stroke:red;stroke-width:1px;stroke-linecap:butt;stroke-linejoin:miter;stroke-opacity:1" d="M 754.953,658.535 745.682,641.847 z" id="boundary" inkscape:connector-curvature="0" />
	<path style="fill:none;stroke:red;stroke-width:1px;stroke-linecap:butt;stroke-linejoin:miter;stroke-opacity:1" d="M 754.953,658.535 764.224,675.222 z" id="boundary" inkscape:connector-curvature="0" />
	<path style="fill:none;stroke:red;stroke-width:1px;stroke-linecap:butt;stroke-linejoin:miter;stroke-opacity:1" d="M 777.204,690.056 764.224,675.222 z" id="boundary" inkscape:connector-curvature="0" />
	<path style="fill:none;stroke:red;stroke-width:1px;stroke-linecap:butt;stroke-linejoin:miter;stroke-opacity:1" d="M 786.475,706.744 793.892,725.286 z" id="boundary" inkscape:connector-curvature="0" />
	<path style="fill:none;stroke:red;stroke-width:1px;stroke-linecap:butt;stroke-linejoin:miter;stroke-opacity:1" d="M 786.475,706.744 777.204,690.056 z" id="boundary" inkscape:connector-curvature="0" />
	<path style="fill:none;stroke:red;stroke-width:1px;stroke-linecap:butt;stroke-linejoin:miter;stroke-opacity:1" d="M 875.477,571.387 894.019,571.387 z" id="boundary" inkscape:connector-curvature="0" />
	<path style="fill:none;stroke:red;stroke-width:1px;stroke-linecap:butt;stroke-linejoin:miter;stroke-opacity:1" d="M 858.789,580.658 875.477,571.387 z" id="boundary" inkscape:connector-curvature="0" />
	<path style="fill:none;stroke:red;stroke-width:1px;stroke-linecap:butt;stroke-linejoin:miter;stroke-opacity:1" d="M 830.976,599.2 840.247,580.658 z" id="boundary" inkscape:connector-curvature="0" />
	<path style="fill:none;stroke:red;stroke-width:1px;stroke-linecap:butt;stroke-linejoin:miter;stroke-opacity:1" d="M 840.247,580.658 858.789,580.658 z" id="boundary" inkscape:connector-curvature="0" />
	<path style="fill:none;stroke:red;stroke-width:1px;stroke-linecap:butt;stroke-linejoin:miter;stroke-opacity:1" d="M 840.247,615.888 830.976,599.2 z" id="boundary" inkscape:connector-curvature="0" />
	<path style="fill:none;stroke:red;stroke-width:1px;stroke-linecap:butt;stroke-linejoin:miter;stroke-opacity:1" d="M 966.333,562.116 984.875,558.407 z" id="boundary" inkscape:connector-curvature="0" />
	<path style="fill:none;stroke:red;stroke-width:1px;stroke-linecap:butt;stroke-linejoin:miter;stroke-opacity:1" d="M 949.645,571.387 966.333,562.116 z" id="boundary" inkscape:connector-curvature="0" />
	<path style="fill:none;stroke:red;stroke-width:1px;stroke-linecap:butt;stroke-linejoin:miter;stroke-opacity:1" d="M 912.561,571.387 894.019,571.387 z" id="boundary" inkscape:connector-curvature="0" />
	<path style="fill:none;stroke:red;stroke-width:1px;stroke-linecap:butt;stroke-linejoin:miter;stroke-opacity:1" d="M 931.103,571.387 912.561,571.387 z" id="boundary" inkscape:connector-curvature="0" />
	<path style="fill:none;stroke:red;stroke-width:1px;stroke-linecap:butt;stroke-linejoin:miter;stroke-opacity:1" d="M 949.645,571.387 931.103,571.387 z" id="boundary" inkscape:connector-curvature="0" />
	<path style="fill:none;stroke:red;stroke-width:1px;stroke-linecap:butt;stroke-linejoin:miter;stroke-opacity:1" d="M 840.247,634.43 840.247,652.972 z" id="boundary" inkscape:connector-curvature="0" />
	<path style="fill:none;stroke:red;stroke-width:1px;stroke-linecap:butt;stroke-linejoin:miter;stroke-opacity:1" d="M 840.247,634.43 840.247,615.888 z" id="boundary" inkscape:connector-curvature="0" />
	<path style="fill:none;stroke:red;stroke-width:1px;stroke-linecap:butt;stroke-linejoin:miter;stroke-opacity:1" d="M 821.705,753.099 808.725,738.265 z" id="boundary" inkscape:connector-curvature="0" />
	<path style="fill:none;stroke:red;stroke-width:1px;stroke-linecap:butt;stroke-linejoin:miter;stroke-opacity:1" d="M 840.247,652.972 840.247,671.514 z" id="boundary" inkscape:connector-curvature="0" />
	<path style="fill:none;stroke:red;stroke-width:1px;stroke-linecap:butt;stroke-linejoin:miter;stroke-opacity:1" d="M 840.247,671.514 849.518,688.202 z" id="boundary" inkscape:connector-curvature="0" />
	<path style="fill:none;stroke:red;stroke-width:1px;stroke-linecap:butt;stroke-linejoin:miter;stroke-opacity:1" d="M 793.892,725.286 808.725,738.265 z" id="boundary" inkscape:connector-curvature="0" />
	<path style="fill:none;stroke:red;stroke-width:1px;stroke-linecap:butt;stroke-linejoin:miter;stroke-opacity:1" d="M 849.518,688.202 849.518,706.744 z" id="boundary" inkscape:connector-curvature="0" />
	<path style="fill:none;stroke:red;stroke-width:1px;stroke-linecap:butt;stroke-linejoin:miter;stroke-opacity:1" d="M 849.518,725.286 840.247,756.807 z" id="boundary" inkscape:connector-curvature="0" />
	<path style="fill:none;stroke:red;stroke-width:1px;stroke-linecap:butt;stroke-linejoin:miter;stroke-opacity:1" d="M 840.247,756.807 821.705,753.099 z" id="boundary" inkscape:connector-curvature="0" />
	<path style="fill:none;stroke:red;stroke-width:1px;stroke-linecap:butt;stroke-linejoin:miter;stroke-opacity:1" d="M 849.518,706.744 849.518,725.286 z" id="boundary" inkscape:connector-curvature="0" />
	<circle cx="4" cy="37.3757" r="4" fill="#0" id="circle0"/>
	<circle cx="13.271" cy="54.0636" r="4" fill="#0" id="circle1"/>
	<circle cx="13.271" cy="72.6056" r="4" fill="#0" id="circle2"/>
	<circle cx="13.271" cy="91.1477" r="4" fill="#0" id="circle3"/>
	<circle cx="18.8336" cy="22.5421" r="4" fill="#0" id="circle4"/>
	<circle cx="22.5421" cy="107.836" r="4" fill="#0" id="circle5"/>
	<circle cx="28.1047" cy="126.378" r="4" fill="#0" id="circle6"/>
	<circle cx="31.8131" cy="37.3757" r="4" fill="#0" id="circle7"/>
	<circle cx="37.3757" cy="143.065" r="4" fill="#0" id="circle8"/>
	<circle cx="41.0841" cy="18.8336" r="4" fill="#0" id="circle9"/>
	<circle cx="44.7925" cy="161.607" r="4" fill="#0" id="circle10"/>
	<circle cx="55.9178" cy="4" r="4" fill="#0" id="circle11"/>
	<circle cx="59.6262" cy="172.733" r="4" fill="#0" id="circle12"/>
	<circle cx="65.1888" cy="191.275" r="4" fill="#0" id="circle13"/>
	<circle cx="74.4598" cy="4" r="4" fill="#0" id="circle14"/>
	<circle cx="80.0224" cy="204.254" r="4" fill="#0" id="circle15"/>
	<circle cx="91.1477" cy="13.271" r="4" fill="#0" id="circle16"/>
	<circle cx="93.0019" cy="219.088" r="4" fill="#0" id="circle17"/>
	<circle cx="102.273" cy="235.776" r="4" fill="#0" id="circle18"/>
	<circle cx="109.69" cy="13.271" r="4" fill="#0" id="circle19"/>
	<circle cx="109.69" cy="254.318" r="4" fill="#0" id="circle20"/>
	<circle cx="124.523" cy="265.443" r="4" fill="#0" id="circle21"/>
	<circle cx="128.232" cy="13.271" r="4" fill="#0" id="circle22"/>
	<circle cx="135.649" cy="280.277" r="4" fill="#0" id="circle23"/>
	<circle cx="144.92" cy="22.5421" r="4" fill="#0" id="circle24"/>
	<circle cx="150.482" cy="293.256" r="4" fill="#0" id="circle25"/>
	<circle cx="157.899" cy="311.798" r="4" fill="#0" id="circle26"/>
	<circle cx="163.462" cy="28.1047" r="4" fill="#0" id="circle27"/>
	<circle cx="172.733" cy="324.778" r="4" fill="#0" id="circle28"/>
	<circle cx="182.004" cy="31.8131" r="4" fill="#0" id="circle29"/>
	<circle cx="185.712" cy="339.611" r="4" fill="#0" id="circle30"/>
	<circle cx="198.692" cy="41.0841" r="4" fill="#0" id="circle31"/>
	<circle cx="200.546" cy="352.591" r="4" fill="#0" id="circle32"/>
	<circle cx="217.234" cy="44.7925" r="4" fill="#0" id="circle33"/>
	<circle cx="217.234" cy="361.862" r="4" fill="#0" id="circle34"/>
	<circle cx="232.067" cy="374.841" r="4" fill="#0" id="circle35"/>
	<circle cx="233.921" cy="54.0636" r="4" fill="#0" id="circle36"/>
	<circle cx="248.755" cy="384.112" r="4" fill="#0" id="circle37"/>
	<circle cx="252.464" cy="61.4804" r="4" fill="#0" id="circle38"/>
	<circle cx="263.589" cy="395.237" r="4" fill="#0" id="circle39"/>
	<circle cx="263.589" cy="436.03" r="4" fill="#0" id="circle40"/>
	<circle cx="263.589" cy="454.572" r="4" fill="#0" id="circle41"/>
	<circle cx="263.589" cy="473.114" r="4" fill="#0" id="circle42"/>
	<circle cx="263.589" cy="491.656" r="4" fill="#0" id="circle43"/>
	<circle cx="271.006" cy="68.8972" r="4" fill="#0" id="circle44"/>
	<circle cx="272.86" cy="411.925" r="4" fill="#0" id="circle45"/>
	<circle cx="278.422" cy="504.636" r="4" fill="#0" id="circle46"/>
	<circle cx="287.693" cy="78.1682" r="4" fill="#0" id="circle47"/>
	<circle cx="296.964" cy="497.219" r="4" fill="#0" id="circle48"/>
	<circle cx="304.381" cy="87.4393" r="4" fill="#0" id="circle49"/>
	<circle cx="313.652" cy="487.948" r="4" fill="#0" id="circle50"/>
	<circle cx="321.069" cy="96.7103" r="4" fill="#0" id="circle51"/>
	<circle cx="328.486" cy="473.114" r="4" fill="#0" id="circle52"/>
	<circle cx="330.34" cy="432.321" r="4" fill="#0" id="circle53"/>
	<circle cx="330.34" cy="450.864" r="4" fill="#0" id="circle54"/>
	<circle cx="339.611" cy="102.273" r="4" fill="#0" id="circle55"/>
	<circle cx="348.882" cy="436.03" r="4" fill="#0" id="circle56"/>
	<circle cx="356.299" cy="111.544" r="4" fill="#0" id="circle57"/>
	<circle cx="365.57" cy="445.301" r="4" fill="#0" id="circle58"/>
	<circle cx="374.841" cy="118.961" r="4" fill="#0" id="circle59"/>
	<circle cx="384.112" cy="450.864" r="4" fill="#0" id="circle60"/>
	<circle cx="385.966" cy="133.794" r="4" fill="#0" id="circle61"/>
	<circle cx="400.8" cy="460.135" r="4" fill="#0" id="circle62"/>
	<circle cx="404.508" cy="139.357" r="4" fill="#0" id="circle63"/>
	<circle cx="419.342" cy="460.135" r="4" fill="#0" id="circle64"/>
	<circle cx="421.196" cy="148.628" r="4" fill="#0" id="circle65"/>
	<circle cx="436.03" cy="469.406" r="4" fill="#0" id="circle66"/>
	<circle cx="439.738" cy="152.336" r="4" fill="#0" id="circle67"/>
	<circle cx="452.718" cy="478.677" r="4" fill="#0" id="circle68"/>
	<circle cx="456.426" cy="143.065" r="4" fill="#0" id="circle69"/>
	<circle cx="461.989" cy="495.364" r="4" fill="#0" id="circle70"/>
	<circle cx="471.26" cy="512.052" r="4" fill="#0" id="circle71"/>
	<circle cx="474.968" cy="143.065" r="4" fill="#0" id="circle72"/>
	<circle cx="478.677" cy="530.594" r="4" fill="#0" id="circle73"/>
	<circle cx="491.656" cy="133.794" r="4" fill="#0" id="circle74"/>
	<circle cx="493.51" cy="543.574" r="4" fill="#0" id="circle75"/>
	<circle cx="510.198" cy="133.794" r="4" fill="#0" id="circle76"/>
	<circle cx="510.198" cy="552.845" r="4" fill="#0" id="circle77"/>
	<circle cx="528.74" cy="133.794" r="4" fill="#0" id="circle78"/>
	<circle cx="528.74" cy="552.845" r="4" fill="#0" id="circle79"/>
	<circle cx="547.282" cy="133.794" r="4" fill="#0" id="circle80"/>
	<circle cx="547.282" cy="552.845" r="4" fill="#0" id="circle81"/>
	<circle cx="565.824" cy="133.794" r="4" fill="#0" id="circle82"/>
	<circle cx="565.824" cy="552.845" r="4" fill="#0" id="circle83"/>
	<circle cx="584.366" cy="133.794" r="4" fill="#0" id="circle84"/>
	<circle cx="584.366" cy="552.845" r="4" fill="#0" id="circle85"/>
	<circle cx="589.929" cy="152.336" r="4" fill="#0" id="circle86"/>
	<circle cx="589.929" cy="283.985" r="4" fill="#0" id="circle87"/>
	<circle cx="599.2" cy="169.024" r="4" fill="#0" id="circle88"/>
	<circle cx="599.2" cy="187.566" r="4" fill="#0" id="circle89"/>
	<circle cx="599.2" cy="206.108" r="4" fill="#0" id="circle90"/>
	<circle cx="599.2" cy="300.673" r="4" fill="#0" id="circle91"/>
	<circle cx="602.908" cy="552.845" r="4" fill="#0" id="circle92"/>
	<circle cx="608.471" cy="222.796" r="4" fill="#0" id="circle93"/>
	<circle cx="608.471" cy="241.338" r="4" fill="#0" id="circle94"/>
	<circle cx="608.471" cy="274.714" r="4" fill="#0" id="circle95"/>
	<circle cx="614.034" cy="311.798" r="4" fill="#0" id="circle96"/>
	<circle cx="621.45" cy="552.845" r="4" fill="#0" id="circle97"/>
	<circle cx="627.013" cy="326.632" r="4" fill="#0" id="circle98"/>
	<circle cx="639.993" cy="552.845" r="4" fill="#0" id="circle99"/>
	<circle cx="641.847" cy="339.611" r="4" fill="#0" id="circle100"/>
	<circle cx="654.826" cy="354.445" r="4" fill="#0" id="circle101"/>
	<circle cx="658.535" cy="560.262" r="4" fill="#0" id="circle102"/>
	<circle cx="669.66" cy="367.424" r="4" fill="#0" id="circle103"/>
	<circle cx="677.077" cy="560.262" r="4" fill="#0" id="circle104"/>
	<circle cx="682.639" cy="382.258" r="4" fill="#0" id="circle105"/>
	<circle cx="695.619" cy="560.262" r="4" fill="#0" id="circle106"/>
	<circle cx="697.473" cy="395.237" r="4" fill="#0" id="circle107"/>
	<circle cx="708.598" cy="575.095" r="4" fill="#0" id="circle108"/>
	<circle cx="710.452" cy="410.071" r="4" fill="#0" id="circle109"/>
	<circle cx="717.869" cy="591.783" r="4" fill="#0" id="circle110"/>
	<circle cx="725.286" cy="423.05" r="4" fill="#0" id="circle111"/>
	<circle cx="727.14" cy="608.471" r="4" fill="#0" id="circle112"/>
	<circle cx="736.411" cy="625.159" r="4" fill="#0" id="circle113"/>
	<circle cx="738.265" cy="437.884" r="4" fill="#0" id="circle114"/>
	<circle cx="745.682" cy="641.847" r="4" fill="#0" id="circle115"/>
	<circle cx="753.099" cy="449.009" r="4" fill="#0" id="circle116"/>
	<circle cx="754.953" cy="658.535" r="4" fill="#0" id="circle117"/>
	<circle cx="764.224" cy="675.222" r="4" fill="#0" id="circle118"/>
	<circle cx="769.787" cy="458.28" r="4" fill="#0" id="circle119"/>
	<circle cx="777.204" cy="690.056" r="4" fill="#0" id="circle120"/>
	<circle cx="782.766" cy="473.114" r="4" fill="#0" id="circle121"/>
	<circle cx="786.475" cy="706.744" r="4" fill="#0" id="circle122"/>
	<circle cx="793.892" cy="725.286" r="4" fill="#0" id="circle123"/>
	<circle cx="801.308" cy="480.531" r="4" fill="#0" id="circle124"/>
	<circle cx="808.725" cy="738.265" r="4" fill="#0" id="circle125"/>
	<circle cx="819.85" cy="486.093" r="4" fill="#0" id="circle126"/>
	<circle cx="821.705" cy="753.099" r="4" fill="#0" id="circle127"/>
	<circle cx="830.976" cy="599.2" r="4" fill="#0" id="circle128"/>
	<circle cx="838.393" cy="486.093" r="4" fill="#0" id="circle129"/>
	<circle cx="840.247" cy="580.658" r="4" fill="#0" id="circle130"/>
	<circle cx="840.247" cy="615.888" r="4" fill="#0" id="circle131"/>
	<circle cx="840.247" cy="634.43" r="4" fill="#0" id="circle132"/>
	<circle cx="840.247" cy="652.972" r="4" fill="#0" id="circle133"/>
	<circle cx="840.247" cy="671.514" r="4" fill="#0" id="circle134"/>
	<circle cx="840.247" cy="756.807" r="4" fill="#0" id="circle135"/>
	<circle cx="849.518" cy="688.202" r="4" fill="#0" id="circle136"/>
	<circle cx="849.518" cy="706.744" r="4" fill="#0" id="circle137"/>
	<circle cx="849.518" cy="725.286" r="4" fill="#0" id="circle138"/>
	<circle cx="855.08" cy="495.364" r="4" fill="#0" id="circle139"/>
	<circle cx="858.789" cy="580.658" r="4" fill="#0" id="circle140"/>
	<circle cx="873.622" cy="495.364" r="4" fill="#0" id="circle141"/>
	<circle cx="875.477" cy="571.387" r="4" fill="#0" id="circle142"/>
	<circle cx="892.164" cy="497.219" r="4" fill="#0" id="circle143"/>
	<circle cx="894.019" cy="571.387" r="4" fill="#0" id="circle144"/>
	<circle cx="910.707" cy="504.636" r="4" fill="#0" id="circle145"/>
	<circle cx="912.561" cy="571.387" r="4" fill="#0" id="circle146"/>
	<circle cx="929.249" cy="504.636" r="4" fill="#0" id="circle147"/>
	<circle cx="931.103" cy="571.387" r="4" fill="#0" id="circle148"/>
	<circle cx="947.791" cy="506.49" r="4" fill="#0" id="circle149"/>
	<circle cx="949.645" cy="571.387" r="4" fill="#0" id="circle150"/>
	<circle cx="964.479" cy="515.761" r="4" fill="#0" id="circle151"/>
	<circle cx="966.333" cy="562.116" r="4" fill="#0" id="circle152"/>
	<circle cx="983.021" cy="523.178" r="4" fill="#0" id="circle153"/>
	<circle cx="984.875" cy="558.407" r="4" fill="#0" id="circle154"/>
	<circle cx="996" cy="538.011" r="4" fill="#0" id="circle155"/>
	</g>
</svg>