<?xml version="1.0" encoding="UTF-8" standalone="no"?>
<!-- Created with CurveBenchmark -->
<svg
	xmlns:dc="http://purl.org/dc/elements/1.1/"
	xmlns:cc="http://creativecommons.org/ns#"
	xmlns:rdf="http://www.w3.org/1999/02/22-rdf-syntax-ns#"
	xmlns:svg="http://www.w3.org/2000/svg"
	xmlns="http://www.w3.org/2000/svg"
	xmlns:sodipodi="http://sodipodi.sourceforge.net/DTD/sodipodi-0.dtd"
	xmlns:inkscape="http://www.inkscape.org/namespaces/inkscape"
	width="1000"
	height="1000"
	id="svg2"
	version="1.1"
	sodipodi:docname="manifold/gathang-teddy270.png.txt">
<defs
	id="defs4" />
<metadata
	id="metadata7">
	<rdf:RDF>
		<cc:Work
			rdf:about="">
			<dc:format>image/svg+xml</dc:format>
			<dc:type
				rdf:resource="http://purl.org/dc/dcmitype/StillImage" />
			<dc:title></dc:title>
		</cc:Work>
	</rdf:RDF>
</metadata>
<g
	inkscape:label="Layer 1"
	inkscape:groupmode="layer"
	id="layer1">
	<path style="fill:none;stroke:red;stroke-width:1px;stroke-linecap:butt;stroke-linejoin:miter;stroke-opacity:1" d="M 66.1766,529.675 66.1766,501.413 z" id="boundary" inkscape:connector-curvature="0" />
	<path style="fill:none;stroke:red;stroke-width:1px;stroke-linecap:butt;stroke-linejoin:miter;stroke-opacity:1" d="M 66.1766,501.413 77.4815,473.151 z" id="boundary" inkscape:connector-curvature="0" />
	<path style="fill:none;stroke:red;stroke-width:1px;stroke-linecap:butt;stroke-linejoin:miter;stroke-opacity:1" d="M 128.353,444.889 156.615,439.236 z" id="boundary" inkscape:connector-curvature="0" />
	<path style="fill:none;stroke:red;stroke-width:1px;stroke-linecap:butt;stroke-linejoin:miter;stroke-opacity:1" d="M 184.877,433.584 156.615,439.236 z" id="boundary" inkscape:connector-curvature="0" />
	<path style="fill:none;stroke:red;stroke-width:1px;stroke-linecap:butt;stroke-linejoin:miter;stroke-opacity:1" d="M 100.091,450.541 128.353,444.889 z" id="boundary" inkscape:connector-curvature="0" />
	<path style="fill:none;stroke:red;stroke-width:1px;stroke-linecap:butt;stroke-linejoin:miter;stroke-opacity:1" d="M 77.4815,473.151 100.091,450.541 z" id="boundary" inkscape:connector-curvature="0" />
	<path style="fill:none;stroke:red;stroke-width:1px;stroke-linecap:butt;stroke-linejoin:miter;stroke-opacity:1" d="M 125.527,620.114 100.091,605.983 z" id="boundary" inkscape:connector-curvature="0" />
	<path style="fill:none;stroke:red;stroke-width:1px;stroke-linecap:butt;stroke-linejoin:miter;stroke-opacity:1" d="M 100.091,605.983 83.1339,583.373 z" id="boundary" inkscape:connector-curvature="0" />
	<path style="fill:none;stroke:red;stroke-width:1px;stroke-linecap:butt;stroke-linejoin:miter;stroke-opacity:1" d="M 83.1339,583.373 69.0028,557.937 z" id="boundary" inkscape:connector-curvature="0" />
	<path style="fill:none;stroke:red;stroke-width:1px;stroke-linecap:butt;stroke-linejoin:miter;stroke-opacity:1" d="M 69.0028,557.937 66.1766,529.675 z" id="boundary" inkscape:connector-curvature="0" />
	<path style="fill:none;stroke:red;stroke-width:1px;stroke-linecap:butt;stroke-linejoin:miter;stroke-opacity:1" d="M 125.527,620.114 150.963,634.245 z" id="boundary" inkscape:connector-curvature="0" />
	<path style="fill:none;stroke:red;stroke-width:1px;stroke-linecap:butt;stroke-linejoin:miter;stroke-opacity:1" d="M 179.225,639.897 150.963,634.245 z" id="boundary" inkscape:connector-curvature="0" />
	<path style="fill:none;stroke:red;stroke-width:1px;stroke-linecap:butt;stroke-linejoin:miter;stroke-opacity:1" d="M 179.225,639.897 207.487,651.202 z" id="boundary" inkscape:connector-curvature="0" />
	<path style="fill:none;stroke:red;stroke-width:1px;stroke-linecap:butt;stroke-linejoin:miter;stroke-opacity:1" d="M 184.877,433.584 213.14,427.932 z" id="boundary" inkscape:connector-curvature="0" />
	<path style="fill:none;stroke:red;stroke-width:1px;stroke-linecap:butt;stroke-linejoin:miter;stroke-opacity:1" d="M 297.926,269.664 309.231,230.097 z" id="boundary" inkscape:connector-curvature="0" />
	<path style="fill:none;stroke:red;stroke-width:1px;stroke-linecap:butt;stroke-linejoin:miter;stroke-opacity:1" d="M 326.188,201.835 309.231,230.097 z" id="boundary" inkscape:connector-curvature="0" />
	<path style="fill:none;stroke:red;stroke-width:1px;stroke-linecap:butt;stroke-linejoin:miter;stroke-opacity:1" d="M 331.84,83.1339 331.84,111.396 z" id="boundary" inkscape:connector-curvature="0" />
	<path style="fill:none;stroke:red;stroke-width:1px;stroke-linecap:butt;stroke-linejoin:miter;stroke-opacity:1" d="M 331.84,111.396 337.493,139.658 z" id="boundary" inkscape:connector-curvature="0" />
	<path style="fill:none;stroke:red;stroke-width:1px;stroke-linecap:butt;stroke-linejoin:miter;stroke-opacity:1" d="M 331.84,83.1339 331.84,54.8718 z" id="boundary" inkscape:connector-curvature="0" />
	<path style="fill:none;stroke:red;stroke-width:1px;stroke-linecap:butt;stroke-linejoin:miter;stroke-opacity:1" d="M 331.84,54.8718 354.45,32.2621 z" id="boundary" inkscape:connector-curvature="0" />
	<path style="fill:none;stroke:red;stroke-width:1px;stroke-linecap:butt;stroke-linejoin:miter;stroke-opacity:1" d="M 297.926,269.664 297.926,297.926 z" id="boundary" inkscape:connector-curvature="0" />
	<path style="fill:none;stroke:red;stroke-width:1px;stroke-linecap:butt;stroke-linejoin:miter;stroke-opacity:1" d="M 326.188,201.835 343.145,179.225 z" id="boundary" inkscape:connector-curvature="0" />
	<path style="fill:none;stroke:red;stroke-width:1px;stroke-linecap:butt;stroke-linejoin:miter;stroke-opacity:1" d="M 266.838,413.801 289.447,391.191 z" id="boundary" inkscape:connector-curvature="0" />
	<path style="fill:none;stroke:red;stroke-width:1px;stroke-linecap:butt;stroke-linejoin:miter;stroke-opacity:1" d="M 289.447,391.191 317.709,382.712 z" id="boundary" inkscape:connector-curvature="0" />
	<path style="fill:none;stroke:red;stroke-width:1px;stroke-linecap:butt;stroke-linejoin:miter;stroke-opacity:1" d="M 213.14,427.932 241.402,427.932 z" id="boundary" inkscape:connector-curvature="0" />
	<path style="fill:none;stroke:red;stroke-width:1px;stroke-linecap:butt;stroke-linejoin:miter;stroke-opacity:1" d="M 266.838,413.801 241.402,427.932 z" id="boundary" inkscape:connector-curvature="0" />
	<path style="fill:none;stroke:red;stroke-width:1px;stroke-linecap:butt;stroke-linejoin:miter;stroke-opacity:1" d="M 235.749,656.855 207.487,651.202 z" id="boundary" inkscape:connector-curvature="0" />
	<path style="fill:none;stroke:red;stroke-width:1px;stroke-linecap:butt;stroke-linejoin:miter;stroke-opacity:1" d="M 306.405,326.188 320.536,351.624 z" id="boundary" inkscape:connector-curvature="0" />
	<path style="fill:none;stroke:red;stroke-width:1px;stroke-linecap:butt;stroke-linejoin:miter;stroke-opacity:1" d="M 306.405,326.188 297.926,297.926 z" id="boundary" inkscape:connector-curvature="0" />
	<path style="fill:none;stroke:red;stroke-width:1px;stroke-linecap:butt;stroke-linejoin:miter;stroke-opacity:1" d="M 320.536,351.624 317.709,382.712 z" id="boundary" inkscape:connector-curvature="0" />
	<path style="fill:none;stroke:red;stroke-width:1px;stroke-linecap:butt;stroke-linejoin:miter;stroke-opacity:1" d="M 4,840.558 9.65242,806.644 z" id="boundary" inkscape:connector-curvature="0" />
	<path style="fill:none;stroke:red;stroke-width:1px;stroke-linecap:butt;stroke-linejoin:miter;stroke-opacity:1" d="M 9.65242,806.644 15.3048,772.729 z" id="boundary" inkscape:connector-curvature="0" />
	<path style="fill:none;stroke:red;stroke-width:1px;stroke-linecap:butt;stroke-linejoin:miter;stroke-opacity:1" d="M 15.3048,772.729 37.9145,750.12 z" id="boundary" inkscape:connector-curvature="0" />
	<path style="fill:none;stroke:red;stroke-width:1px;stroke-linecap:butt;stroke-linejoin:miter;stroke-opacity:1" d="M 88.7863,727.51 117.048,727.51 z" id="boundary" inkscape:connector-curvature="0" />
	<path style="fill:none;stroke:red;stroke-width:1px;stroke-linecap:butt;stroke-linejoin:miter;stroke-opacity:1" d="M 37.9145,750.12 60.5242,733.162 z" id="boundary" inkscape:connector-curvature="0" />
	<path style="fill:none;stroke:red;stroke-width:1px;stroke-linecap:butt;stroke-linejoin:miter;stroke-opacity:1" d="M 60.5242,733.162 88.7863,727.51 z" id="boundary" inkscape:connector-curvature="0" />
	<path style="fill:none;stroke:red;stroke-width:1px;stroke-linecap:butt;stroke-linejoin:miter;stroke-opacity:1" d="M 4,868.821 4,840.558 z" id="boundary" inkscape:connector-curvature="0" />
	<path style="fill:none;stroke:red;stroke-width:1px;stroke-linecap:butt;stroke-linejoin:miter;stroke-opacity:1" d="M 4,868.821 9.65242,897.083 z" id="boundary" inkscape:connector-curvature="0" />
	<path style="fill:none;stroke:red;stroke-width:1px;stroke-linecap:butt;stroke-linejoin:miter;stroke-opacity:1" d="M 9.65242,897.083 9.65242,925.345 z" id="boundary" inkscape:connector-curvature="0" />
	<path style="fill:none;stroke:red;stroke-width:1px;stroke-linecap:butt;stroke-linejoin:miter;stroke-opacity:1" d="M 26.6097,947.954 9.65242,925.345 z" id="boundary" inkscape:connector-curvature="0" />
	<path style="fill:none;stroke:red;stroke-width:1px;stroke-linecap:butt;stroke-linejoin:miter;stroke-opacity:1" d="M 46.3932,970.564 26.6097,947.954 z" id="boundary" inkscape:connector-curvature="0" />
	<path style="fill:none;stroke:red;stroke-width:1px;stroke-linecap:butt;stroke-linejoin:miter;stroke-opacity:1" d="M 71.8291,984.695 46.3932,970.564 z" id="boundary" inkscape:connector-curvature="0" />
	<path style="fill:none;stroke:red;stroke-width:1px;stroke-linecap:butt;stroke-linejoin:miter;stroke-opacity:1" d="M 100.091,990.348 71.8291,984.695 z" id="boundary" inkscape:connector-curvature="0" />
	<path style="fill:none;stroke:red;stroke-width:1px;stroke-linecap:butt;stroke-linejoin:miter;stroke-opacity:1" d="M 128.353,996 100.091,990.348 z" id="boundary" inkscape:connector-curvature="0" />
	<path style="fill:none;stroke:red;stroke-width:1px;stroke-linecap:butt;stroke-linejoin:miter;stroke-opacity:1" d="M 117.048,727.51 145.311,727.51 z" id="boundary" inkscape:connector-curvature="0" />
	<path style="fill:none;stroke:red;stroke-width:1px;stroke-linecap:butt;stroke-linejoin:miter;stroke-opacity:1" d="M 201.835,738.815 173.573,733.162 z" id="boundary" inkscape:connector-curvature="0" />
	<path style="fill:none;stroke:red;stroke-width:1px;stroke-linecap:butt;stroke-linejoin:miter;stroke-opacity:1" d="M 173.573,733.162 145.311,727.51 z" id="boundary" inkscape:connector-curvature="0" />
	<path style="fill:none;stroke:red;stroke-width:1px;stroke-linecap:butt;stroke-linejoin:miter;stroke-opacity:1" d="M 230.097,727.51 201.835,738.815 z" id="boundary" inkscape:connector-curvature="0" />
	<path style="fill:none;stroke:red;stroke-width:1px;stroke-linecap:butt;stroke-linejoin:miter;stroke-opacity:1" d="M 156.615,996 128.353,996 z" id="boundary" inkscape:connector-curvature="0" />
	<path style="fill:none;stroke:red;stroke-width:1px;stroke-linecap:butt;stroke-linejoin:miter;stroke-opacity:1" d="M 235.749,656.855 264.011,662.507 z" id="boundary" inkscape:connector-curvature="0" />
	<path style="fill:none;stroke:red;stroke-width:1px;stroke-linecap:butt;stroke-linejoin:miter;stroke-opacity:1" d="M 264.011,662.507 264.011,690.769 z" id="boundary" inkscape:connector-curvature="0" />
	<path style="fill:none;stroke:red;stroke-width:1px;stroke-linecap:butt;stroke-linejoin:miter;stroke-opacity:1" d="M 354.45,973.39 326.188,973.39 z" id="boundary" inkscape:connector-curvature="0" />
	<path style="fill:none;stroke:red;stroke-width:1px;stroke-linecap:butt;stroke-linejoin:miter;stroke-opacity:1" d="M 258.359,721.858 230.097,727.51 z" id="boundary" inkscape:connector-curvature="0" />
	<path style="fill:none;stroke:red;stroke-width:1px;stroke-linecap:butt;stroke-linejoin:miter;stroke-opacity:1" d="M 264.011,690.769 258.359,721.858 z" id="boundary" inkscape:connector-curvature="0" />
	<path style="fill:none;stroke:red;stroke-width:1px;stroke-linecap:butt;stroke-linejoin:miter;stroke-opacity:1" d="M 213.14,990.348 184.877,996 z" id="boundary" inkscape:connector-curvature="0" />
	<path style="fill:none;stroke:red;stroke-width:1px;stroke-linecap:butt;stroke-linejoin:miter;stroke-opacity:1" d="M 241.402,979.043 213.14,990.348 z" id="boundary" inkscape:connector-curvature="0" />
	<path style="fill:none;stroke:red;stroke-width:1px;stroke-linecap:butt;stroke-linejoin:miter;stroke-opacity:1" d="M 184.877,996 156.615,996 z" id="boundary" inkscape:connector-curvature="0" />
	<path style="fill:none;stroke:red;stroke-width:1px;stroke-linecap:butt;stroke-linejoin:miter;stroke-opacity:1" d="M 269.664,973.39 297.926,967.738 z" id="boundary" inkscape:connector-curvature="0" />
	<path style="fill:none;stroke:red;stroke-width:1px;stroke-linecap:butt;stroke-linejoin:miter;stroke-opacity:1" d="M 297.926,967.738 326.188,973.39 z" id="boundary" inkscape:connector-curvature="0" />
	<path style="fill:none;stroke:red;stroke-width:1px;stroke-linecap:butt;stroke-linejoin:miter;stroke-opacity:1" d="M 241.402,979.043 269.664,973.39 z" id="boundary" inkscape:connector-curvature="0" />
	<path style="fill:none;stroke:red;stroke-width:1px;stroke-linecap:butt;stroke-linejoin:miter;stroke-opacity:1" d="M 337.493,139.658 343.145,179.225 z" id="boundary" inkscape:connector-curvature="0" />
	<path style="fill:none;stroke:red;stroke-width:1px;stroke-linecap:butt;stroke-linejoin:miter;stroke-opacity:1" d="M 377.06,15.3048 405.322,4 z" id="boundary" inkscape:connector-curvature="0" />
	<path style="fill:none;stroke:red;stroke-width:1px;stroke-linecap:butt;stroke-linejoin:miter;stroke-opacity:1" d="M 405.322,4 433.584,6.82621 z" id="boundary" inkscape:connector-curvature="0" />
	<path style="fill:none;stroke:red;stroke-width:1px;stroke-linecap:butt;stroke-linejoin:miter;stroke-opacity:1" d="M 654.028,9.65242 682.291,4 z" id="boundary" inkscape:connector-curvature="0" />
	<path style="fill:none;stroke:red;stroke-width:1px;stroke-linecap:butt;stroke-linejoin:miter;stroke-opacity:1" d="M 682.291,4 710.553,9.65242 z" id="boundary" inkscape:connector-curvature="0" />
	<path style="fill:none;stroke:red;stroke-width:1px;stroke-linecap:butt;stroke-linejoin:miter;stroke-opacity:1" d="M 461.846,12.4786 433.584,6.82621 z" id="boundary" inkscape:connector-curvature="0" />
	<path style="fill:none;stroke:red;stroke-width:1px;stroke-linecap:butt;stroke-linejoin:miter;stroke-opacity:1" d="M 461.846,12.4786 487.282,26.6097 z" id="boundary" inkscape:connector-curvature="0" />
	<path style="fill:none;stroke:red;stroke-width:1px;stroke-linecap:butt;stroke-linejoin:miter;stroke-opacity:1" d="M 654.028,9.65242 625.766,20.9573 z" id="boundary" inkscape:connector-curvature="0" />
	<path style="fill:none;stroke:red;stroke-width:1px;stroke-linecap:butt;stroke-linejoin:miter;stroke-opacity:1" d="M 487.282,26.6097 515.544,37.9145 z" id="boundary" inkscape:connector-curvature="0" />
	<path style="fill:none;stroke:red;stroke-width:1px;stroke-linecap:butt;stroke-linejoin:miter;stroke-opacity:1" d="M 515.544,37.9145 543.806,43.567 z" id="boundary" inkscape:connector-curvature="0" />
	<path style="fill:none;stroke:red;stroke-width:1px;stroke-linecap:butt;stroke-linejoin:miter;stroke-opacity:1" d="M 354.45,32.2621 377.06,15.3048 z" id="boundary" inkscape:connector-curvature="0" />
	<path style="fill:none;stroke:red;stroke-width:1px;stroke-linecap:butt;stroke-linejoin:miter;stroke-opacity:1" d="M 600.33,35.0883 625.766,20.9573 z" id="boundary" inkscape:connector-curvature="0" />
	<path style="fill:none;stroke:red;stroke-width:1px;stroke-linecap:butt;stroke-linejoin:miter;stroke-opacity:1" d="M 572.068,43.567 543.806,43.567 z" id="boundary" inkscape:connector-curvature="0" />
	<path style="fill:none;stroke:red;stroke-width:1px;stroke-linecap:butt;stroke-linejoin:miter;stroke-opacity:1" d="M 600.33,35.0883 572.068,43.567 z" id="boundary" inkscape:connector-curvature="0" />
	<path style="fill:none;stroke:red;stroke-width:1px;stroke-linecap:butt;stroke-linejoin:miter;stroke-opacity:1" d="M 755.772,119.875 744.467,148.137 z" id="boundary" inkscape:connector-curvature="0" />
	<path style="fill:none;stroke:red;stroke-width:1px;stroke-linecap:butt;stroke-linejoin:miter;stroke-opacity:1" d="M 744.467,148.137 752.946,176.399 z" id="boundary" inkscape:connector-curvature="0" />
	<path style="fill:none;stroke:red;stroke-width:1px;stroke-linecap:butt;stroke-linejoin:miter;stroke-opacity:1" d="M 755.772,119.875 764.251,74.6553 z" id="boundary" inkscape:connector-curvature="0" />
	<path style="fill:none;stroke:red;stroke-width:1px;stroke-linecap:butt;stroke-linejoin:miter;stroke-opacity:1" d="M 752.946,46.3932 764.251,74.6553 z" id="boundary" inkscape:connector-curvature="0" />
	<path style="fill:none;stroke:red;stroke-width:1px;stroke-linecap:butt;stroke-linejoin:miter;stroke-opacity:1" d="M 758.598,204.661 752.946,176.399 z" id="boundary" inkscape:connector-curvature="0" />
	<path style="fill:none;stroke:red;stroke-width:1px;stroke-linecap:butt;stroke-linejoin:miter;stroke-opacity:1" d="M 758.598,232.923 758.598,204.661 z" id="boundary" inkscape:connector-curvature="0" />
	<path style="fill:none;stroke:red;stroke-width:1px;stroke-linecap:butt;stroke-linejoin:miter;stroke-opacity:1" d="M 755.772,416.627 733.162,399.67 z" id="boundary" inkscape:connector-curvature="0" />
	<path style="fill:none;stroke:red;stroke-width:1px;stroke-linecap:butt;stroke-linejoin:miter;stroke-opacity:1" d="M 738.815,317.709 724.684,343.145 z" id="boundary" inkscape:connector-curvature="0" />
	<path style="fill:none;stroke:red;stroke-width:1px;stroke-linecap:butt;stroke-linejoin:miter;stroke-opacity:1" d="M 733.162,399.67 713.379,377.06 z" id="boundary" inkscape:connector-curvature="0" />
	<path style="fill:none;stroke:red;stroke-width:1px;stroke-linecap:butt;stroke-linejoin:miter;stroke-opacity:1" d="M 713.379,377.06 724.684,343.145 z" id="boundary" inkscape:connector-curvature="0" />
	<path style="fill:none;stroke:red;stroke-width:1px;stroke-linecap:butt;stroke-linejoin:miter;stroke-opacity:1" d="M 798.165,459.02 778.382,436.41 z" id="boundary" inkscape:connector-curvature="0" />
	<path style="fill:none;stroke:red;stroke-width:1px;stroke-linecap:butt;stroke-linejoin:miter;stroke-opacity:1" d="M 758.598,232.923 752.946,280.969 z" id="boundary" inkscape:connector-curvature="0" />
	<path style="fill:none;stroke:red;stroke-width:1px;stroke-linecap:butt;stroke-linejoin:miter;stroke-opacity:1" d="M 752.946,280.969 738.815,317.709 z" id="boundary" inkscape:connector-curvature="0" />
	<path style="fill:none;stroke:red;stroke-width:1px;stroke-linecap:butt;stroke-linejoin:miter;stroke-opacity:1" d="M 778.382,436.41 755.772,416.627 z" id="boundary" inkscape:connector-curvature="0" />
	<path style="fill:none;stroke:red;stroke-width:1px;stroke-linecap:butt;stroke-linejoin:miter;stroke-opacity:1" d="M 735.989,23.7835 752.946,46.3932 z" id="boundary" inkscape:connector-curvature="0" />
	<path style="fill:none;stroke:red;stroke-width:1px;stroke-linecap:butt;stroke-linejoin:miter;stroke-opacity:1" d="M 710.553,9.65242 735.989,23.7835 z" id="boundary" inkscape:connector-curvature="0" />
	<path style="fill:none;stroke:red;stroke-width:1px;stroke-linecap:butt;stroke-linejoin:miter;stroke-opacity:1" d="M 354.45,973.39 382.712,973.39 z" id="boundary" inkscape:connector-curvature="0" />
	<path style="fill:none;stroke:red;stroke-width:1px;stroke-linecap:butt;stroke-linejoin:miter;stroke-opacity:1" d="M 382.712,973.39 410.974,979.043 z" id="boundary" inkscape:connector-curvature="0" />
	<path style="fill:none;stroke:red;stroke-width:1px;stroke-linecap:butt;stroke-linejoin:miter;stroke-opacity:1" d="M 410.974,979.043 439.236,984.695 z" id="boundary" inkscape:connector-curvature="0" />
	<path style="fill:none;stroke:red;stroke-width:1px;stroke-linecap:butt;stroke-linejoin:miter;stroke-opacity:1" d="M 713.379,829.254 713.379,857.516 z" id="boundary" inkscape:connector-curvature="0" />
	<path style="fill:none;stroke:red;stroke-width:1px;stroke-linecap:butt;stroke-linejoin:miter;stroke-opacity:1" d="M 690.769,959.259 665.333,979.043 z" id="boundary" inkscape:connector-curvature="0" />
	<path style="fill:none;stroke:red;stroke-width:1px;stroke-linecap:butt;stroke-linejoin:miter;stroke-opacity:1" d="M 702.074,914.04 690.769,959.259 z" id="boundary" inkscape:connector-curvature="0" />
	<path style="fill:none;stroke:red;stroke-width:1px;stroke-linecap:butt;stroke-linejoin:miter;stroke-opacity:1" d="M 702.074,914.04 713.379,885.778 z" id="boundary" inkscape:connector-curvature="0" />
	<path style="fill:none;stroke:red;stroke-width:1px;stroke-linecap:butt;stroke-linejoin:miter;stroke-opacity:1" d="M 719.031,784.034 713.379,829.254 z" id="boundary" inkscape:connector-curvature="0" />
	<path style="fill:none;stroke:red;stroke-width:1px;stroke-linecap:butt;stroke-linejoin:miter;stroke-opacity:1" d="M 665.333,979.043 637.071,990.348 z" id="boundary" inkscape:connector-curvature="0" />
	<path style="fill:none;stroke:red;stroke-width:1px;stroke-linecap:butt;stroke-linejoin:miter;stroke-opacity:1" d="M 439.236,984.695 467.499,984.695 z" id="boundary" inkscape:connector-curvature="0" />
	<path style="fill:none;stroke:red;stroke-width:1px;stroke-linecap:butt;stroke-linejoin:miter;stroke-opacity:1" d="M 467.499,984.695 495.761,993.174 z" id="boundary" inkscape:connector-curvature="0" />
	<path style="fill:none;stroke:red;stroke-width:1px;stroke-linecap:butt;stroke-linejoin:miter;stroke-opacity:1" d="M 495.761,993.174 524.023,996 z" id="boundary" inkscape:connector-curvature="0" />
	<path style="fill:none;stroke:red;stroke-width:1px;stroke-linecap:butt;stroke-linejoin:miter;stroke-opacity:1" d="M 580.547,996 552.285,996 z" id="boundary" inkscape:connector-curvature="0" />
	<path style="fill:none;stroke:red;stroke-width:1px;stroke-linecap:butt;stroke-linejoin:miter;stroke-opacity:1" d="M 552.285,996 524.023,996 z" id="boundary" inkscape:connector-curvature="0" />
	<path style="fill:none;stroke:red;stroke-width:1px;stroke-linecap:butt;stroke-linejoin:miter;stroke-opacity:1" d="M 608.809,996 580.547,996 z" id="boundary" inkscape:connector-curvature="0" />
	<path style="fill:none;stroke:red;stroke-width:1px;stroke-linecap:butt;stroke-linejoin:miter;stroke-opacity:1" d="M 637.071,990.348 608.809,996 z" id="boundary" inkscape:connector-curvature="0" />
	<path style="fill:none;stroke:red;stroke-width:1px;stroke-linecap:butt;stroke-linejoin:miter;stroke-opacity:1" d="M 781.208,603.157 764.251,625.766 z" id="boundary" inkscape:connector-curvature="0" />
	<path style="fill:none;stroke:red;stroke-width:1px;stroke-linecap:butt;stroke-linejoin:miter;stroke-opacity:1" d="M 764.251,625.766 741.641,642.724 z" id="boundary" inkscape:connector-curvature="0" />
	<path style="fill:none;stroke:red;stroke-width:1px;stroke-linecap:butt;stroke-linejoin:miter;stroke-opacity:1" d="M 809.47,487.282 815.123,515.544 z" id="boundary" inkscape:connector-curvature="0" />
	<path style="fill:none;stroke:red;stroke-width:1px;stroke-linecap:butt;stroke-linejoin:miter;stroke-opacity:1" d="M 798.165,580.547 815.123,543.806 z" id="boundary" inkscape:connector-curvature="0" />
	<path style="fill:none;stroke:red;stroke-width:1px;stroke-linecap:butt;stroke-linejoin:miter;stroke-opacity:1" d="M 815.123,515.544 815.123,543.806 z" id="boundary" inkscape:connector-curvature="0" />
	<path style="fill:none;stroke:red;stroke-width:1px;stroke-linecap:butt;stroke-linejoin:miter;stroke-opacity:1" d="M 798.165,580.547 781.208,603.157 z" id="boundary" inkscape:connector-curvature="0" />
	<path style="fill:none;stroke:red;stroke-width:1px;stroke-linecap:butt;stroke-linejoin:miter;stroke-opacity:1" d="M 809.47,487.282 798.165,459.02 z" id="boundary" inkscape:connector-curvature="0" />
	<path style="fill:none;stroke:red;stroke-width:1px;stroke-linecap:butt;stroke-linejoin:miter;stroke-opacity:1" d="M 719.031,687.943 719.031,659.681 z" id="boundary" inkscape:connector-curvature="0" />
	<path style="fill:none;stroke:red;stroke-width:1px;stroke-linecap:butt;stroke-linejoin:miter;stroke-opacity:1" d="M 719.031,659.681 741.641,642.724 z" id="boundary" inkscape:connector-curvature="0" />
	<path style="fill:none;stroke:red;stroke-width:1px;stroke-linecap:butt;stroke-linejoin:miter;stroke-opacity:1" d="M 713.379,857.516 713.379,885.778 z" id="boundary" inkscape:connector-curvature="0" />
	<path style="fill:none;stroke:red;stroke-width:1px;stroke-linecap:butt;stroke-linejoin:miter;stroke-opacity:1" d="M 719.031,784.034 730.336,744.467 z" id="boundary" inkscape:connector-curvature="0" />
	<path style="fill:none;stroke:red;stroke-width:1px;stroke-linecap:butt;stroke-linejoin:miter;stroke-opacity:1" d="M 724.684,716.205 719.031,687.943 z" id="boundary" inkscape:connector-curvature="0" />
	<path style="fill:none;stroke:red;stroke-width:1px;stroke-linecap:butt;stroke-linejoin:miter;stroke-opacity:1" d="M 724.684,716.205 730.336,744.467 z" id="boundary" inkscape:connector-curvature="0" />
	<circle cx="4" cy="840.558" r="4" fill="#0" id="circle0"/>
	<circle cx="4" cy="868.821" r="4" fill="#0" id="circle1"/>
	<circle cx="9.65242" cy="806.644" r="4" fill="#0" id="circle2"/>
	<circle cx="9.65242" cy="897.083" r="4" fill="#0" id="circle3"/>
	<circle cx="9.65242" cy="925.345" r="4" fill="#0" id="circle4"/>
	<circle cx="15.3048" cy="772.729" r="4" fill="#0" id="circle5"/>
	<circle cx="26.6097" cy="947.954" r="4" fill="#0" id="circle6"/>
	<circle cx="37.9145" cy="750.12" r="4" fill="#0" id="circle7"/>
	<circle cx="46.3932" cy="970.564" r="4" fill="#0" id="circle8"/>
	<circle cx="60.5242" cy="733.162" r="4" fill="#0" id="circle9"/>
	<circle cx="66.1766" cy="501.413" r="4" fill="#0" id="circle10"/>
	<circle cx="66.1766" cy="529.675" r="4" fill="#0" id="circle11"/>
	<circle cx="69.0028" cy="557.937" r="4" fill="#0" id="circle12"/>
	<circle cx="71.8291" cy="984.695" r="4" fill="#0" id="circle13"/>
	<circle cx="77.4815" cy="473.151" r="4" fill="#0" id="circle14"/>
	<circle cx="83.1339" cy="583.373" r="4" fill="#0" id="circle15"/>
	<circle cx="88.7863" cy="727.51" r="4" fill="#0" id="circle16"/>
	<circle cx="100.091" cy="450.541" r="4" fill="#0" id="circle17"/>
	<circle cx="100.091" cy="605.983" r="4" fill="#0" id="circle18"/>
	<circle cx="100.091" cy="990.348" r="4" fill="#0" id="circle19"/>
	<circle cx="117.048" cy="727.51" r="4" fill="#0" id="circle20"/>
	<circle cx="125.527" cy="620.114" r="4" fill="#0" id="circle21"/>
	<circle cx="128.353" cy="444.889" r="4" fill="#0" id="circle22"/>
	<circle cx="128.353" cy="996" r="4" fill="#0" id="circle23"/>
	<circle cx="145.311" cy="727.51" r="4" fill="#0" id="circle24"/>
	<circle cx="150.963" cy="634.245" r="4" fill="#0" id="circle25"/>
	<circle cx="156.615" cy="439.236" r="4" fill="#0" id="circle26"/>
	<circle cx="156.615" cy="996" r="4" fill="#0" id="circle27"/>
	<circle cx="173.573" cy="733.162" r="4" fill="#0" id="circle28"/>
	<circle cx="179.225" cy="639.897" r="4" fill="#0" id="circle29"/>
	<circle cx="184.877" cy="433.584" r="4" fill="#0" id="circle30"/>
	<circle cx="184.877" cy="996" r="4" fill="#0" id="circle31"/>
	<circle cx="201.835" cy="738.815" r="4" fill="#0" id="circle32"/>
	<circle cx="207.487" cy="651.202" r="4" fill="#0" id="circle33"/>
	<circle cx="213.14" cy="427.932" r="4" fill="#0" id="circle34"/>
	<circle cx="213.14" cy="990.348" r="4" fill="#0" id="circle35"/>
	<circle cx="230.097" cy="727.51" r="4" fill="#0" id="circle36"/>
	<circle cx="235.749" cy="656.855" r="4" fill="#0" id="circle37"/>
	<circle cx="241.402" cy="427.932" r="4" fill="#0" id="circle38"/>
	<circle cx="241.402" cy="979.043" r="4" fill="#0" id="circle39"/>
	<circle cx="258.359" cy="721.858" r="4" fill="#0" id="circle40"/>
	<circle cx="264.011" cy="662.507" r="4" fill="#0" id="circle41"/>
	<circle cx="264.011" cy="690.769" r="4" fill="#0" id="circle42"/>
	<circle cx="266.838" cy="413.801" r="4" fill="#0" id="circle43"/>
	<circle cx="269.664" cy="973.39" r="4" fill="#0" id="circle44"/>
	<circle cx="289.447" cy="391.191" r="4" fill="#0" id="circle45"/>
	<circle cx="297.926" cy="269.664" r="4" fill="#0" id="circle46"/>
	<circle cx="297.926" cy="297.926" r="4" fill="#0" id="circle47"/>
	<circle cx="297.926" cy="967.738" r="4" fill="#0" id="circle48"/>
	<circle cx="306.405" cy="326.188" r="4" fill="#0" id="circle49"/>
	<circle cx="309.231" cy="230.097" r="4" fill="#0" id="circle50"/>
	<circle cx="317.709" cy="382.712" r="4" fill="#0" id="circle51"/>
	<circle cx="320.536" cy="351.624" r="4" fill="#0" id="circle52"/>
	<circle cx="326.188" cy="201.835" r="4" fill="#0" id="circle53"/>
	<circle cx="326.188" cy="973.39" r="4" fill="#0" id="circle54"/>
	<circle cx="331.84" cy="54.8718" r="4" fill="#0" id="circle55"/>
	<circle cx="331.84" cy="83.1339" r="4" fill="#0" id="circle56"/>
	<circle cx="331.84" cy="111.396" r="4" fill="#0" id="circle57"/>
	<circle cx="337.493" cy="139.658" r="4" fill="#0" id="circle58"/>
	<circle cx="343.145" cy="179.225" r="4" fill="#0" id="circle59"/>
	<circle cx="354.45" cy="32.2621" r="4" fill="#0" id="circle60"/>
	<circle cx="354.45" cy="973.39" r="4" fill="#0" id="circle61"/>
	<circle cx="377.06" cy="15.3048" r="4" fill="#0" id="circle62"/>
	<circle cx="382.712" cy="973.39" r="4" fill="#0" id="circle63"/>
	<circle cx="405.322" cy="4" r="4" fill="#0" id="circle64"/>
	<circle cx="410.974" cy="979.043" r="4" fill="#0" id="circle65"/>
	<circle cx="433.584" cy="6.82621" r="4" fill="#0" id="circle66"/>
	<circle cx="439.236" cy="984.695" r="4" fill="#0" id="circle67"/>
	<circle cx="461.846" cy="12.4786" r="4" fill="#0" id="circle68"/>
	<circle cx="467.499" cy="984.695" r="4" fill="#0" id="circle69"/>
	<circle cx="487.282" cy="26.6097" r="4" fill="#0" id="circle70"/>
	<circle cx="495.761" cy="993.174" r="4" fill="#0" id="circle71"/>
	<circle cx="515.544" cy="37.9145" r="4" fill="#0" id="circle72"/>
	<circle cx="524.023" cy="996" r="4" fill="#0" id="circle73"/>
	<circle cx="543.806" cy="43.567" r="4" fill="#0" id="circle74"/>
	<circle cx="552.285" cy="996" r="4" fill="#0" id="circle75"/>
	<circle cx="572.068" cy="43.567" r="4" fill="#0" id="circle76"/>
	<circle cx="580.547" cy="996" r="4" fill="#0" id="circle77"/>
	<circle cx="600.33" cy="35.0883" r="4" fill="#0" id="circle78"/>
	<circle cx="608.809" cy="996" r="4" fill="#0" id="circle79"/>
	<circle cx="625.766" cy="20.9573" r="4" fill="#0" id="circle80"/>
	<circle cx="637.071" cy="990.348" r="4" fill="#0" id="circle81"/>
	<circle cx="654.028" cy="9.65242" r="4" fill="#0" id="circle82"/>
	<circle cx="665.333" cy="979.043" r="4" fill="#0" id="circle83"/>
	<circle cx="682.291" cy="4" r="4" fill="#0" id="circle84"/>
	<circle cx="690.769" cy="959.259" r="4" fill="#0" id="circle85"/>
	<circle cx="702.074" cy="914.04" r="4" fill="#0" id="circle86"/>
	<circle cx="710.553" cy="9.65242" r="4" fill="#0" id="circle87"/>
	<circle cx="713.379" cy="377.06" r="4" fill="#0" id="circle88"/>
	<circle cx="713.379" cy="829.254" r="4" fill="#0" id="circle89"/>
	<circle cx="713.379" cy="857.516" r="4" fill="#0" id="circle90"/>
	<circle cx="713.379" cy="885.778" r="4" fill="#0" id="circle91"/>
	<circle cx="719.031" cy="659.681" r="4" fill="#0" id="circle92"/>
	<circle cx="719.031" cy="687.943" r="4" fill="#0" id="circle93"/>
	<circle cx="719.031" cy="784.034" r="4" fill="#0" id="circle94"/>
	<circle cx="724.684" cy="343.145" r="4" fill="#0" id="circle95"/>
	<circle cx="724.684" cy="716.205" r="4" fill="#0" id="circle96"/>
	<circle cx="730.336" cy="744.467" r="4" fill="#0" id="circle97"/>
	<circle cx="733.162" cy="399.67" r="4" fill="#0" id="circle98"/>
	<circle cx="735.989" cy="23.7835" r="4" fill="#0" id="circle99"/>
	<circle cx="738.815" cy="317.709" r="4" fill="#0" id="circle100"/>
	<circle cx="741.641" cy="642.724" r="4" fill="#0" id="circle101"/>
	<circle cx="744.467" cy="148.137" r="4" fill="#0" id="circle102"/>
	<circle cx="752.946" cy="46.3932" r="4" fill="#0" id="circle103"/>
	<circle cx="752.946" cy="176.399" r="4" fill="#0" id="circle104"/>
	<circle cx="752.946" cy="280.969" r="4" fill="#0" id="circle105"/>
	<circle cx="755.772" cy="119.875" r="4" fill="#0" id="circle106"/>
	<circle cx="755.772" cy="416.627" r="4" fill="#0" id="circle107"/>
	<circle cx="758.598" cy="204.661" r="4" fill="#0" id="circle108"/>
	<circle cx="758.598" cy="232.923" r="4" fill="#0" id="circle109"/>
	<circle cx="764.251" cy="74.6553" r="4" fill="#0" id="circle110"/>
	<circle cx="764.251" cy="625.766" r="4" fill="#0" id="circle111"/>
	<circle cx="778.382" cy="436.41" r="4" fill="#0" id="circle112"/>
	<circle cx="781.208" cy="603.157" r="4" fill="#0" id="circle113"/>
	<circle cx="798.165" cy="459.02" r="4" fill="#0" id="circle114"/>
	<circle cx="798.165" cy="580.547" r="4" fill="#0" id="circle115"/>
	<circle cx="809.47" cy="487.282" r="4" fill="#0" id="circle116"/>
	<circle cx="815.123" cy="515.544" r="4" fill="#0" id="circle117"/>
	<circle cx="815.123" cy="543.806" r="4" fill="#0" id="circle118"/>
	</g>
</svg>