<?xml version="1.0" encoding="UTF-8" standalone="no"?>
<!-- Created with CurveBenchmark -->
<svg
	xmlns:dc="http://purl.org/dc/elements/1.1/"
	xmlns:cc="http://creativecommons.org/ns#"
	xmlns:rdf="http://www.w3.org/1999/02/22-rdf-syntax-ns#"
	xmlns:svg="http://www.w3.org/2000/svg"
	xmlns="http://www.w3.org/2000/svg"
	xmlns:sodipodi="http://sodipodi.sourceforge.net/DTD/sodipodi-0.dtd"
	xmlns:inkscape="http://www.inkscape.org/namespaces/inkscape"
	width="1000"
	height="1000"
	id="svg2"
	version="1.1"
	sodipodi:docname="manifold/gathang-chopper-11.png.txt">
<defs
	id="defs4" />
<metadata
	id="metadata7">
	<rdf:RDF>
		<cc:Work
			rdf:about="">
			<dc:format>image/svg+xml</dc:format>
			<dc:type
				rdf:resource="http://purl.org/dc/dcmitype/StillImage" />
			<dc:title></dc:title>
		</cc:Work>
	</rdf:RDF>
</metadata>
<g
	inkscape:label="Layer 1"
	inkscape:groupmode="layer"
	id="layer1">
	<path style="fill:none;stroke:red;stroke-width:1px;stroke-linecap:butt;stroke-linejoin:miter;stroke-opacity:1" d="M 121.598,222.126 130.134,217.384 z" id="boundary" inkscape:connector-curvature="0" />
	<path style="fill:none;stroke:red;stroke-width:1px;stroke-linecap:butt;stroke-linejoin:miter;stroke-opacity:1" d="M 114.011,228.765 121.598,222.126 z" id="boundary" inkscape:connector-curvature="0" />
	<path style="fill:none;stroke:red;stroke-width:1px;stroke-linecap:butt;stroke-linejoin:miter;stroke-opacity:1" d="M 147.205,207.901 138.669,212.642 z" id="boundary" inkscape:connector-curvature="0" />
	<path style="fill:none;stroke:red;stroke-width:1px;stroke-linecap:butt;stroke-linejoin:miter;stroke-opacity:1" d="M 155.74,203.159 147.205,207.901 z" id="boundary" inkscape:connector-curvature="0" />
	<path style="fill:none;stroke:red;stroke-width:1px;stroke-linecap:butt;stroke-linejoin:miter;stroke-opacity:1" d="M 138.669,212.642 130.134,217.384 z" id="boundary" inkscape:connector-curvature="0" />
	<path style="fill:none;stroke:red;stroke-width:1px;stroke-linecap:butt;stroke-linejoin:miter;stroke-opacity:1" d="M 90.3021,247.732 83.6635,255.319 z" id="boundary" inkscape:connector-curvature="0" />
	<path style="fill:none;stroke:red;stroke-width:1px;stroke-linecap:butt;stroke-linejoin:miter;stroke-opacity:1" d="M 83.6635,255.319 76.0765,261.958 z" id="boundary" inkscape:connector-curvature="0" />
	<path style="fill:none;stroke:red;stroke-width:1px;stroke-linecap:butt;stroke-linejoin:miter;stroke-opacity:1" d="M 90.3021,247.732 97.8891,241.094 z" id="boundary" inkscape:connector-curvature="0" />
	<path style="fill:none;stroke:red;stroke-width:1px;stroke-linecap:butt;stroke-linejoin:miter;stroke-opacity:1" d="M 97.8891,241.094 104.528,233.507 z" id="boundary" inkscape:connector-curvature="0" />
	<path style="fill:none;stroke:red;stroke-width:1px;stroke-linecap:butt;stroke-linejoin:miter;stroke-opacity:1" d="M 104.528,233.507 114.011,228.765 z" id="boundary" inkscape:connector-curvature="0" />
	<path style="fill:none;stroke:red;stroke-width:1px;stroke-linecap:butt;stroke-linejoin:miter;stroke-opacity:1" d="M 217.384,177.553 226.868,172.811 z" id="boundary" inkscape:connector-curvature="0" />
	<path style="fill:none;stroke:red;stroke-width:1px;stroke-linecap:butt;stroke-linejoin:miter;stroke-opacity:1" d="M 226.868,172.811 236.352,169.966 z" id="boundary" inkscape:connector-curvature="0" />
	<path style="fill:none;stroke:red;stroke-width:1px;stroke-linecap:butt;stroke-linejoin:miter;stroke-opacity:1" d="M 217.384,177.553 207.901,179.449 z" id="boundary" inkscape:connector-curvature="0" />
	<path style="fill:none;stroke:red;stroke-width:1px;stroke-linecap:butt;stroke-linejoin:miter;stroke-opacity:1" d="M 255.319,163.327 245.836,168.069 z" id="boundary" inkscape:connector-curvature="0" />
	<path style="fill:none;stroke:red;stroke-width:1px;stroke-linecap:butt;stroke-linejoin:miter;stroke-opacity:1" d="M 245.836,168.069 236.352,169.966 z" id="boundary" inkscape:connector-curvature="0" />
	<path style="fill:none;stroke:red;stroke-width:1px;stroke-linecap:butt;stroke-linejoin:miter;stroke-opacity:1" d="M 173.759,198.417 182.294,193.675 z" id="boundary" inkscape:connector-curvature="0" />
	<path style="fill:none;stroke:red;stroke-width:1px;stroke-linecap:butt;stroke-linejoin:miter;stroke-opacity:1" d="M 173.759,198.417 164.275,198.417 z" id="boundary" inkscape:connector-curvature="0" />
	<path style="fill:none;stroke:red;stroke-width:1px;stroke-linecap:butt;stroke-linejoin:miter;stroke-opacity:1" d="M 190.83,188.933 182.294,193.675 z" id="boundary" inkscape:connector-curvature="0" />
	<path style="fill:none;stroke:red;stroke-width:1px;stroke-linecap:butt;stroke-linejoin:miter;stroke-opacity:1" d="M 155.74,203.159 164.275,198.417 z" id="boundary" inkscape:connector-curvature="0" />
	<path style="fill:none;stroke:red;stroke-width:1px;stroke-linecap:butt;stroke-linejoin:miter;stroke-opacity:1" d="M 190.83,188.933 199.365,184.191 z" id="boundary" inkscape:connector-curvature="0" />
	<path style="fill:none;stroke:red;stroke-width:1px;stroke-linecap:butt;stroke-linejoin:miter;stroke-opacity:1" d="M 207.901,179.449 199.365,184.191 z" id="boundary" inkscape:connector-curvature="0" />
	<path style="fill:none;stroke:red;stroke-width:1px;stroke-linecap:butt;stroke-linejoin:miter;stroke-opacity:1" d="M 8.74187,414.646 8.74187,424.13 z" id="boundary" inkscape:connector-curvature="0" />
	<path style="fill:none;stroke:red;stroke-width:1px;stroke-linecap:butt;stroke-linejoin:miter;stroke-opacity:1" d="M 8.74187,414.646 13.4837,405.163 z" id="boundary" inkscape:connector-curvature="0" />
	<path style="fill:none;stroke:red;stroke-width:1px;stroke-linecap:butt;stroke-linejoin:miter;stroke-opacity:1" d="M 13.4837,386.195 13.4837,395.679 z" id="boundary" inkscape:connector-curvature="0" />
	<path style="fill:none;stroke:red;stroke-width:1px;stroke-linecap:butt;stroke-linejoin:miter;stroke-opacity:1" d="M 13.4837,386.195 18.2256,371.969 z" id="boundary" inkscape:connector-curvature="0" />
	<path style="fill:none;stroke:red;stroke-width:1px;stroke-linecap:butt;stroke-linejoin:miter;stroke-opacity:1" d="M 13.4837,405.163 13.4837,395.679 z" id="boundary" inkscape:connector-curvature="0" />
	<path style="fill:none;stroke:red;stroke-width:1px;stroke-linecap:butt;stroke-linejoin:miter;stroke-opacity:1" d="M 8.74187,433.614 8.74187,424.13 z" id="boundary" inkscape:connector-curvature="0" />
	<path style="fill:none;stroke:red;stroke-width:1px;stroke-linecap:butt;stroke-linejoin:miter;stroke-opacity:1" d="M 4,462.065 4,452.581 z" id="boundary" inkscape:connector-curvature="0" />
	<path style="fill:none;stroke:red;stroke-width:1px;stroke-linecap:butt;stroke-linejoin:miter;stroke-opacity:1" d="M 8.74187,470.6 4,462.065 z" id="boundary" inkscape:connector-curvature="0" />
	<path style="fill:none;stroke:red;stroke-width:1px;stroke-linecap:butt;stroke-linejoin:miter;stroke-opacity:1" d="M 8.74187,443.098 4,452.581 z" id="boundary" inkscape:connector-curvature="0" />
	<path style="fill:none;stroke:red;stroke-width:1px;stroke-linecap:butt;stroke-linejoin:miter;stroke-opacity:1" d="M 8.74187,433.614 8.74187,443.098 z" id="boundary" inkscape:connector-curvature="0" />
	<path style="fill:none;stroke:red;stroke-width:1px;stroke-linecap:butt;stroke-linejoin:miter;stroke-opacity:1" d="M 13.4837,479.136 8.74187,470.6 z" id="boundary" inkscape:connector-curvature="0" />
	<path style="fill:none;stroke:red;stroke-width:1px;stroke-linecap:butt;stroke-linejoin:miter;stroke-opacity:1" d="M 13.4837,479.136 16.3289,488.62 z" id="boundary" inkscape:connector-curvature="0" />
	<path style="fill:none;stroke:red;stroke-width:1px;stroke-linecap:butt;stroke-linejoin:miter;stroke-opacity:1" d="M 23.9159,495.258 16.3289,488.62 z" id="boundary" inkscape:connector-curvature="0" />
	<path style="fill:none;stroke:red;stroke-width:1px;stroke-linecap:butt;stroke-linejoin:miter;stroke-opacity:1" d="M 49.522,297.996 44.7801,307.48 z" id="boundary" inkscape:connector-curvature="0" />
	<path style="fill:none;stroke:red;stroke-width:1px;stroke-linecap:butt;stroke-linejoin:miter;stroke-opacity:1" d="M 44.7801,307.48 37.1931,315.067 z" id="boundary" inkscape:connector-curvature="0" />
	<path style="fill:none;stroke:red;stroke-width:1px;stroke-linecap:butt;stroke-linejoin:miter;stroke-opacity:1" d="M 54.2639,288.512 49.522,297.996 z" id="boundary" inkscape:connector-curvature="0" />
	<path style="fill:none;stroke:red;stroke-width:1px;stroke-linecap:butt;stroke-linejoin:miter;stroke-opacity:1" d="M 68.4895,269.545 76.0765,261.958 z" id="boundary" inkscape:connector-curvature="0" />
	<path style="fill:none;stroke:red;stroke-width:1px;stroke-linecap:butt;stroke-linejoin:miter;stroke-opacity:1" d="M 32.4512,324.551 37.1931,315.067 z" id="boundary" inkscape:connector-curvature="0" />
	<path style="fill:none;stroke:red;stroke-width:1px;stroke-linecap:butt;stroke-linejoin:miter;stroke-opacity:1" d="M 54.2639,288.512 60.9025,277.132 z" id="boundary" inkscape:connector-curvature="0" />
	<path style="fill:none;stroke:red;stroke-width:1px;stroke-linecap:butt;stroke-linejoin:miter;stroke-opacity:1" d="M 60.9025,277.132 68.4895,269.545 z" id="boundary" inkscape:connector-curvature="0" />
	<path style="fill:none;stroke:red;stroke-width:1px;stroke-linecap:butt;stroke-linejoin:miter;stroke-opacity:1" d="M 18.2256,362.486 18.2256,371.969 z" id="boundary" inkscape:connector-curvature="0" />
	<path style="fill:none;stroke:red;stroke-width:1px;stroke-linecap:butt;stroke-linejoin:miter;stroke-opacity:1" d="M 18.2256,362.486 22.9675,348.26 z" id="boundary" inkscape:connector-curvature="0" />
	<path style="fill:none;stroke:red;stroke-width:1px;stroke-linecap:butt;stroke-linejoin:miter;stroke-opacity:1" d="M 32.4512,324.551 27.7094,338.776 z" id="boundary" inkscape:connector-curvature="0" />
	<path style="fill:none;stroke:red;stroke-width:1px;stroke-linecap:butt;stroke-linejoin:miter;stroke-opacity:1" d="M 27.7094,338.776 22.9675,348.26 z" id="boundary" inkscape:connector-curvature="0" />
	<path style="fill:none;stroke:red;stroke-width:1px;stroke-linecap:butt;stroke-linejoin:miter;stroke-opacity:1" d="M 310.325,46.6769 317.912,39.0899 z" id="boundary" inkscape:connector-curvature="0" />
	<path style="fill:none;stroke:red;stroke-width:1px;stroke-linecap:butt;stroke-linejoin:miter;stroke-opacity:1" d="M 341.621,20.1224 334.034,27.7094 z" id="boundary" inkscape:connector-curvature="0" />
	<path style="fill:none;stroke:red;stroke-width:1px;stroke-linecap:butt;stroke-linejoin:miter;stroke-opacity:1" d="M 334.034,27.7094 325.499,32.4512 z" id="boundary" inkscape:connector-curvature="0" />
	<path style="fill:none;stroke:red;stroke-width:1px;stroke-linecap:butt;stroke-linejoin:miter;stroke-opacity:1" d="M 352.054,71.3346 342.57,71.3346 z" id="boundary" inkscape:connector-curvature="0" />
	<path style="fill:none;stroke:red;stroke-width:1px;stroke-linecap:butt;stroke-linejoin:miter;stroke-opacity:1" d="M 317.912,39.0899 325.499,32.4512 z" id="boundary" inkscape:connector-curvature="0" />
	<path style="fill:none;stroke:red;stroke-width:1px;stroke-linecap:butt;stroke-linejoin:miter;stroke-opacity:1" d="M 323.602,71.3346 314.119,70.3862 z" id="boundary" inkscape:connector-curvature="0" />
	<path style="fill:none;stroke:red;stroke-width:1px;stroke-linecap:butt;stroke-linejoin:miter;stroke-opacity:1" d="M 314.119,70.3862 307.48,62.7992 z" id="boundary" inkscape:connector-curvature="0" />
	<path style="fill:none;stroke:red;stroke-width:1px;stroke-linecap:butt;stroke-linejoin:miter;stroke-opacity:1" d="M 307.48,62.7992 302.738,54.2639 z" id="boundary" inkscape:connector-curvature="0" />
	<path style="fill:none;stroke:red;stroke-width:1px;stroke-linecap:butt;stroke-linejoin:miter;stroke-opacity:1" d="M 302.738,54.2639 310.325,46.6769 z" id="boundary" inkscape:connector-curvature="0" />
	<path style="fill:none;stroke:red;stroke-width:1px;stroke-linecap:butt;stroke-linejoin:miter;stroke-opacity:1" d="M 323.602,71.3346 333.086,71.3346 z" id="boundary" inkscape:connector-curvature="0" />
	<path style="fill:none;stroke:red;stroke-width:1px;stroke-linecap:butt;stroke-linejoin:miter;stroke-opacity:1" d="M 333.086,71.3346 342.57,71.3346 z" id="boundary" inkscape:connector-curvature="0" />
	<path style="fill:none;stroke:red;stroke-width:1px;stroke-linecap:butt;stroke-linejoin:miter;stroke-opacity:1" d="M 369.124,8.74187 378.608,8.74187 z" id="boundary" inkscape:connector-curvature="0" />
	<path style="fill:none;stroke:red;stroke-width:1px;stroke-linecap:butt;stroke-linejoin:miter;stroke-opacity:1" d="M 360.589,13.4837 369.124,8.74187 z" id="boundary" inkscape:connector-curvature="0" />
	<path style="fill:none;stroke:red;stroke-width:1px;stroke-linecap:butt;stroke-linejoin:miter;stroke-opacity:1" d="M 388.092,8.74187 378.608,8.74187 z" id="boundary" inkscape:connector-curvature="0" />
	<path style="fill:none;stroke:red;stroke-width:1px;stroke-linecap:butt;stroke-linejoin:miter;stroke-opacity:1" d="M 397.576,6.84512 388.092,8.74187 z" id="boundary" inkscape:connector-curvature="0" />
	<path style="fill:none;stroke:red;stroke-width:1px;stroke-linecap:butt;stroke-linejoin:miter;stroke-opacity:1" d="M 430.769,61.8509 422.233,66.5927 z" id="boundary" inkscape:connector-curvature="0" />
	<path style="fill:none;stroke:red;stroke-width:1px;stroke-linecap:butt;stroke-linejoin:miter;stroke-opacity:1" d="M 407.059,4 397.576,6.84512 z" id="boundary" inkscape:connector-curvature="0" />
	<path style="fill:none;stroke:red;stroke-width:1px;stroke-linecap:butt;stroke-linejoin:miter;stroke-opacity:1" d="M 361.537,71.3346 352.054,71.3346 z" id="boundary" inkscape:connector-curvature="0" />
	<path style="fill:none;stroke:red;stroke-width:1px;stroke-linecap:butt;stroke-linejoin:miter;stroke-opacity:1" d="M 360.589,13.4837 351.105,15.3805 z" id="boundary" inkscape:connector-curvature="0" />
	<path style="fill:none;stroke:red;stroke-width:1px;stroke-linecap:butt;stroke-linejoin:miter;stroke-opacity:1" d="M 341.621,20.1224 351.105,15.3805 z" id="boundary" inkscape:connector-curvature="0" />
	<path style="fill:none;stroke:red;stroke-width:1px;stroke-linecap:butt;stroke-linejoin:miter;stroke-opacity:1" d="M 364.382,82.7151 361.537,71.3346 z" id="boundary" inkscape:connector-curvature="0" />
	<path style="fill:none;stroke:red;stroke-width:1px;stroke-linecap:butt;stroke-linejoin:miter;stroke-opacity:1" d="M 407.059,4 416.543,4 z" id="boundary" inkscape:connector-curvature="0" />
	<path style="fill:none;stroke:red;stroke-width:1px;stroke-linecap:butt;stroke-linejoin:miter;stroke-opacity:1" d="M 364.382,82.7151 359.641,92.1989 z" id="boundary" inkscape:connector-curvature="0" />
	<path style="fill:none;stroke:red;stroke-width:1px;stroke-linecap:butt;stroke-linejoin:miter;stroke-opacity:1" d="M 320.757,155.74 330.241,155.74 z" id="boundary" inkscape:connector-curvature="0" />
	<path style="fill:none;stroke:red;stroke-width:1px;stroke-linecap:butt;stroke-linejoin:miter;stroke-opacity:1" d="M 312.222,160.482 320.757,155.74 z" id="boundary" inkscape:connector-curvature="0" />
	<path style="fill:none;stroke:red;stroke-width:1px;stroke-linecap:butt;stroke-linejoin:miter;stroke-opacity:1" d="M 339.725,155.74 349.208,155.74 z" id="boundary" inkscape:connector-curvature="0" />
	<path style="fill:none;stroke:red;stroke-width:1px;stroke-linecap:butt;stroke-linejoin:miter;stroke-opacity:1" d="M 358.692,155.74 349.208,155.74 z" id="boundary" inkscape:connector-curvature="0" />
	<path style="fill:none;stroke:red;stroke-width:1px;stroke-linecap:butt;stroke-linejoin:miter;stroke-opacity:1" d="M 339.725,155.74 330.241,155.74 z" id="boundary" inkscape:connector-curvature="0" />
	<path style="fill:none;stroke:red;stroke-width:1px;stroke-linecap:butt;stroke-linejoin:miter;stroke-opacity:1" d="M 264.803,160.482 274.287,160.482 z" id="boundary" inkscape:connector-curvature="0" />
	<path style="fill:none;stroke:red;stroke-width:1px;stroke-linecap:butt;stroke-linejoin:miter;stroke-opacity:1" d="M 255.319,163.327 264.803,160.482 z" id="boundary" inkscape:connector-curvature="0" />
	<path style="fill:none;stroke:red;stroke-width:1px;stroke-linecap:butt;stroke-linejoin:miter;stroke-opacity:1" d="M 283.771,160.482 274.287,160.482 z" id="boundary" inkscape:connector-curvature="0" />
	<path style="fill:none;stroke:red;stroke-width:1px;stroke-linecap:butt;stroke-linejoin:miter;stroke-opacity:1" d="M 293.254,160.482 283.771,160.482 z" id="boundary" inkscape:connector-curvature="0" />
	<path style="fill:none;stroke:red;stroke-width:1px;stroke-linecap:butt;stroke-linejoin:miter;stroke-opacity:1" d="M 293.254,160.482 302.738,160.482 z" id="boundary" inkscape:connector-curvature="0" />
	<path style="fill:none;stroke:red;stroke-width:1px;stroke-linecap:butt;stroke-linejoin:miter;stroke-opacity:1" d="M 312.222,160.482 302.738,160.482 z" id="boundary" inkscape:connector-curvature="0" />
	<path style="fill:none;stroke:red;stroke-width:1px;stroke-linecap:butt;stroke-linejoin:miter;stroke-opacity:1" d="M 367.228,108.321 359.641,101.683 z" id="boundary" inkscape:connector-curvature="0" />
	<path style="fill:none;stroke:red;stroke-width:1px;stroke-linecap:butt;stroke-linejoin:miter;stroke-opacity:1" d="M 359.641,101.683 359.641,92.1989 z" id="boundary" inkscape:connector-curvature="0" />
	<path style="fill:none;stroke:red;stroke-width:1px;stroke-linecap:butt;stroke-linejoin:miter;stroke-opacity:1" d="M 374.815,114.011 367.228,108.321 z" id="boundary" inkscape:connector-curvature="0" />
	<path style="fill:none;stroke:red;stroke-width:1px;stroke-linecap:butt;stroke-linejoin:miter;stroke-opacity:1" d="M 384.298,114.011 374.815,114.011 z" id="boundary" inkscape:connector-curvature="0" />
	<path style="fill:none;stroke:red;stroke-width:1px;stroke-linecap:butt;stroke-linejoin:miter;stroke-opacity:1" d="M 422.233,109.27 422.233,99.7859 z" id="boundary" inkscape:connector-curvature="0" />
	<path style="fill:none;stroke:red;stroke-width:1px;stroke-linecap:butt;stroke-linejoin:miter;stroke-opacity:1" d="M 422.233,99.7859 429.82,93.1472 z" id="boundary" inkscape:connector-curvature="0" />
	<path style="fill:none;stroke:red;stroke-width:1px;stroke-linecap:butt;stroke-linejoin:miter;stroke-opacity:1" d="M 368.176,155.74 358.692,155.74 z" id="boundary" inkscape:connector-curvature="0" />
	<path style="fill:none;stroke:red;stroke-width:1px;stroke-linecap:butt;stroke-linejoin:miter;stroke-opacity:1" d="M 377.66,155.74 368.176,155.74 z" id="boundary" inkscape:connector-curvature="0" />
	<path style="fill:none;stroke:red;stroke-width:1px;stroke-linecap:butt;stroke-linejoin:miter;stroke-opacity:1" d="M 384.298,114.011 388.092,123.495 z" id="boundary" inkscape:connector-curvature="0" />
	<path style="fill:none;stroke:red;stroke-width:1px;stroke-linecap:butt;stroke-linejoin:miter;stroke-opacity:1" d="M 388.092,132.979 386.195,150.998 z" id="boundary" inkscape:connector-curvature="0" />
	<path style="fill:none;stroke:red;stroke-width:1px;stroke-linecap:butt;stroke-linejoin:miter;stroke-opacity:1" d="M 386.195,150.998 377.66,155.74 z" id="boundary" inkscape:connector-curvature="0" />
	<path style="fill:none;stroke:red;stroke-width:1px;stroke-linecap:butt;stroke-linejoin:miter;stroke-opacity:1" d="M 388.092,123.495 388.092,132.979 z" id="boundary" inkscape:connector-curvature="0" />
	<path style="fill:none;stroke:red;stroke-width:1px;stroke-linecap:butt;stroke-linejoin:miter;stroke-opacity:1" d="M 422.233,66.5927 426.975,75.1281 z" id="boundary" inkscape:connector-curvature="0" />
	<path style="fill:none;stroke:red;stroke-width:1px;stroke-linecap:butt;stroke-linejoin:miter;stroke-opacity:1" d="M 23.9159,495.258 30.5545,502.845 z" id="boundary" inkscape:connector-curvature="0" />
	<path style="fill:none;stroke:red;stroke-width:1px;stroke-linecap:butt;stroke-linejoin:miter;stroke-opacity:1" d="M 30.5545,502.845 35.2964,511.38 z" id="boundary" inkscape:connector-curvature="0" />
	<path style="fill:none;stroke:red;stroke-width:1px;stroke-linecap:butt;stroke-linejoin:miter;stroke-opacity:1" d="M 43.8317,516.122 35.2964,511.38 z" id="boundary" inkscape:connector-curvature="0" />
	<path style="fill:none;stroke:red;stroke-width:1px;stroke-linecap:butt;stroke-linejoin:miter;stroke-opacity:1" d="M 53.3155,517.071 43.8317,516.122 z" id="boundary" inkscape:connector-curvature="0" />
	<path style="fill:none;stroke:red;stroke-width:1px;stroke-linecap:butt;stroke-linejoin:miter;stroke-opacity:1" d="M 53.3155,517.071 61.8509,521.813 z" id="boundary" inkscape:connector-curvature="0" />
	<path style="fill:none;stroke:red;stroke-width:1px;stroke-linecap:butt;stroke-linejoin:miter;stroke-opacity:1" d="M 27.7094,590.096 32.4512,580.612 z" id="boundary" inkscape:connector-curvature="0" />
	<path style="fill:none;stroke:red;stroke-width:1px;stroke-linecap:butt;stroke-linejoin:miter;stroke-opacity:1" d="M 40.0382,573.025 32.4512,580.612 z" id="boundary" inkscape:connector-curvature="0" />
	<path style="fill:none;stroke:red;stroke-width:1px;stroke-linecap:butt;stroke-linejoin:miter;stroke-opacity:1" d="M 40.0382,573.025 49.522,573.025 z" id="boundary" inkscape:connector-curvature="0" />
	<path style="fill:none;stroke:red;stroke-width:1px;stroke-linecap:butt;stroke-linejoin:miter;stroke-opacity:1" d="M 57.109,578.715 49.522,573.025 z" id="boundary" inkscape:connector-curvature="0" />
	<path style="fill:none;stroke:red;stroke-width:1px;stroke-linecap:butt;stroke-linejoin:miter;stroke-opacity:1" d="M 61.8509,521.813 70.3862,526.554 z" id="boundary" inkscape:connector-curvature="0" />
	<path style="fill:none;stroke:red;stroke-width:1px;stroke-linecap:butt;stroke-linejoin:miter;stroke-opacity:1" d="M 57.109,578.715 61.8509,587.25 z" id="boundary" inkscape:connector-curvature="0" />
	<path style="fill:none;stroke:red;stroke-width:1px;stroke-linecap:butt;stroke-linejoin:miter;stroke-opacity:1" d="M 27.7094,590.096 22.9675,604.321 z" id="boundary" inkscape:connector-curvature="0" />
	<path style="fill:none;stroke:red;stroke-width:1px;stroke-linecap:butt;stroke-linejoin:miter;stroke-opacity:1" d="M 79.87,526.554 89.3537,526.554 z" id="boundary" inkscape:connector-curvature="0" />
	<path style="fill:none;stroke:red;stroke-width:1px;stroke-linecap:butt;stroke-linejoin:miter;stroke-opacity:1" d="M 79.87,526.554 70.3862,526.554 z" id="boundary" inkscape:connector-curvature="0" />
	<path style="fill:none;stroke:red;stroke-width:1px;stroke-linecap:butt;stroke-linejoin:miter;stroke-opacity:1" d="M 89.3537,526.554 98.8375,526.554 z" id="boundary" inkscape:connector-curvature="0" />
	<path style="fill:none;stroke:red;stroke-width:1px;stroke-linecap:butt;stroke-linejoin:miter;stroke-opacity:1" d="M 66.5927,605.27 61.8509,596.734 z" id="boundary" inkscape:connector-curvature="0" />
	<path style="fill:none;stroke:red;stroke-width:1px;stroke-linecap:butt;stroke-linejoin:miter;stroke-opacity:1" d="M 61.8509,596.734 61.8509,587.25 z" id="boundary" inkscape:connector-curvature="0" />
	<path style="fill:none;stroke:red;stroke-width:1px;stroke-linecap:butt;stroke-linejoin:miter;stroke-opacity:1" d="M 98.8375,526.554 108.321,526.554 z" id="boundary" inkscape:connector-curvature="0" />
	<path style="fill:none;stroke:red;stroke-width:1px;stroke-linecap:butt;stroke-linejoin:miter;stroke-opacity:1" d="M 108.321,526.554 117.805,526.554 z" id="boundary" inkscape:connector-curvature="0" />
	<path style="fill:none;stroke:red;stroke-width:1px;stroke-linecap:butt;stroke-linejoin:miter;stroke-opacity:1" d="M 117.805,526.554 127.289,526.554 z" id="boundary" inkscape:connector-curvature="0" />
	<path style="fill:none;stroke:red;stroke-width:1px;stroke-linecap:butt;stroke-linejoin:miter;stroke-opacity:1" d="M 136.772,526.554 127.289,526.554 z" id="boundary" inkscape:connector-curvature="0" />
	<path style="fill:none;stroke:red;stroke-width:1px;stroke-linecap:butt;stroke-linejoin:miter;stroke-opacity:1" d="M 146.256,526.554 136.772,526.554 z" id="boundary" inkscape:connector-curvature="0" />
	<path style="fill:none;stroke:red;stroke-width:1px;stroke-linecap:butt;stroke-linejoin:miter;stroke-opacity:1" d="M 27.7094,612.857 22.9675,604.321 z" id="boundary" inkscape:connector-curvature="0" />
	<path style="fill:none;stroke:red;stroke-width:1px;stroke-linecap:butt;stroke-linejoin:miter;stroke-opacity:1" d="M 66.5927,605.27 74.1797,611.908 z" id="boundary" inkscape:connector-curvature="0" />
	<path style="fill:none;stroke:red;stroke-width:1px;stroke-linecap:butt;stroke-linejoin:miter;stroke-opacity:1" d="M 80.8184,619.495 74.1797,611.908 z" id="boundary" inkscape:connector-curvature="0" />
	<path style="fill:none;stroke:red;stroke-width:1px;stroke-linecap:butt;stroke-linejoin:miter;stroke-opacity:1" d="M 32.4512,621.392 27.7094,612.857 z" id="boundary" inkscape:connector-curvature="0" />
	<path style="fill:none;stroke:red;stroke-width:1px;stroke-linecap:butt;stroke-linejoin:miter;stroke-opacity:1" d="M 40.9866,626.134 32.4512,621.392 z" id="boundary" inkscape:connector-curvature="0" />
	<path style="fill:none;stroke:red;stroke-width:1px;stroke-linecap:butt;stroke-linejoin:miter;stroke-opacity:1" d="M 49.522,630.876 40.9866,626.134 z" id="boundary" inkscape:connector-curvature="0" />
	<path style="fill:none;stroke:red;stroke-width:1px;stroke-linecap:butt;stroke-linejoin:miter;stroke-opacity:1" d="M 59.0057,630.876 49.522,630.876 z" id="boundary" inkscape:connector-curvature="0" />
	<path style="fill:none;stroke:red;stroke-width:1px;stroke-linecap:butt;stroke-linejoin:miter;stroke-opacity:1" d="M 68.4895,630.876 59.0057,630.876 z" id="boundary" inkscape:connector-curvature="0" />
	<path style="fill:none;stroke:red;stroke-width:1px;stroke-linecap:butt;stroke-linejoin:miter;stroke-opacity:1" d="M 77.9732,630.876 68.4895,630.876 z" id="boundary" inkscape:connector-curvature="0" />
	<path style="fill:none;stroke:red;stroke-width:1px;stroke-linecap:butt;stroke-linejoin:miter;stroke-opacity:1" d="M 87.457,630.876 77.9732,630.876 z" id="boundary" inkscape:connector-curvature="0" />
	<path style="fill:none;stroke:red;stroke-width:1px;stroke-linecap:butt;stroke-linejoin:miter;stroke-opacity:1" d="M 114.96,616.65 122.547,610.96 z" id="boundary" inkscape:connector-curvature="0" />
	<path style="fill:none;stroke:red;stroke-width:1px;stroke-linecap:butt;stroke-linejoin:miter;stroke-opacity:1" d="M 114.96,616.65 95.044,625.185 z" id="boundary" inkscape:connector-curvature="0" />
	<path style="fill:none;stroke:red;stroke-width:1px;stroke-linecap:butt;stroke-linejoin:miter;stroke-opacity:1" d="M 95.044,625.185 80.8184,619.495 z" id="boundary" inkscape:connector-curvature="0" />
	<path style="fill:none;stroke:red;stroke-width:1px;stroke-linecap:butt;stroke-linejoin:miter;stroke-opacity:1" d="M 122.547,610.96 131.082,606.218 z" id="boundary" inkscape:connector-curvature="0" />
	<path style="fill:none;stroke:red;stroke-width:1px;stroke-linecap:butt;stroke-linejoin:miter;stroke-opacity:1" d="M 147.205,621.392 137.721,621.392 z" id="boundary" inkscape:connector-curvature="0" />
	<path style="fill:none;stroke:red;stroke-width:1px;stroke-linecap:butt;stroke-linejoin:miter;stroke-opacity:1" d="M 131.082,606.218 140.566,606.218 z" id="boundary" inkscape:connector-curvature="0" />
	<path style="fill:none;stroke:red;stroke-width:1px;stroke-linecap:butt;stroke-linejoin:miter;stroke-opacity:1" d="M 140.566,606.218 149.101,601.476 z" id="boundary" inkscape:connector-curvature="0" />
	<path style="fill:none;stroke:red;stroke-width:1px;stroke-linecap:butt;stroke-linejoin:miter;stroke-opacity:1" d="M 129.185,626.134 137.721,621.392 z" id="boundary" inkscape:connector-curvature="0" />
	<path style="fill:none;stroke:red;stroke-width:1px;stroke-linecap:butt;stroke-linejoin:miter;stroke-opacity:1" d="M 102.631,630.876 87.457,630.876 z" id="boundary" inkscape:connector-curvature="0" />
	<path style="fill:none;stroke:red;stroke-width:1px;stroke-linecap:butt;stroke-linejoin:miter;stroke-opacity:1" d="M 110.218,625.185 102.631,630.876 z" id="boundary" inkscape:connector-curvature="0" />
	<path style="fill:none;stroke:red;stroke-width:1px;stroke-linecap:butt;stroke-linejoin:miter;stroke-opacity:1" d="M 119.702,626.134 110.218,625.185 z" id="boundary" inkscape:connector-curvature="0" />
	<path style="fill:none;stroke:red;stroke-width:1px;stroke-linecap:butt;stroke-linejoin:miter;stroke-opacity:1" d="M 129.185,626.134 119.702,626.134 z" id="boundary" inkscape:connector-curvature="0" />
	<path style="fill:none;stroke:red;stroke-width:1px;stroke-linecap:butt;stroke-linejoin:miter;stroke-opacity:1" d="M 147.205,621.392 156.688,621.392 z" id="boundary" inkscape:connector-curvature="0" />
	<path style="fill:none;stroke:red;stroke-width:1px;stroke-linecap:butt;stroke-linejoin:miter;stroke-opacity:1" d="M 155.74,526.554 165.224,526.554 z" id="boundary" inkscape:connector-curvature="0" />
	<path style="fill:none;stroke:red;stroke-width:1px;stroke-linecap:butt;stroke-linejoin:miter;stroke-opacity:1" d="M 155.74,526.554 146.256,526.554 z" id="boundary" inkscape:connector-curvature="0" />
	<path style="fill:none;stroke:red;stroke-width:1px;stroke-linecap:butt;stroke-linejoin:miter;stroke-opacity:1" d="M 174.707,526.554 165.224,526.554 z" id="boundary" inkscape:connector-curvature="0" />
	<path style="fill:none;stroke:red;stroke-width:1px;stroke-linecap:butt;stroke-linejoin:miter;stroke-opacity:1" d="M 184.191,526.554 174.707,526.554 z" id="boundary" inkscape:connector-curvature="0" />
	<path style="fill:none;stroke:red;stroke-width:1px;stroke-linecap:butt;stroke-linejoin:miter;stroke-opacity:1" d="M 149.101,601.476 157.637,596.734 z" id="boundary" inkscape:connector-curvature="0" />
	<path style="fill:none;stroke:red;stroke-width:1px;stroke-linecap:butt;stroke-linejoin:miter;stroke-opacity:1" d="M 166.172,591.992 157.637,596.734 z" id="boundary" inkscape:connector-curvature="0" />
	<path style="fill:none;stroke:red;stroke-width:1px;stroke-linecap:butt;stroke-linejoin:miter;stroke-opacity:1" d="M 174.707,587.25 183.243,582.509 z" id="boundary" inkscape:connector-curvature="0" />
	<path style="fill:none;stroke:red;stroke-width:1px;stroke-linecap:butt;stroke-linejoin:miter;stroke-opacity:1" d="M 192.727,582.509 183.243,582.509 z" id="boundary" inkscape:connector-curvature="0" />
	<path style="fill:none;stroke:red;stroke-width:1px;stroke-linecap:butt;stroke-linejoin:miter;stroke-opacity:1" d="M 166.172,591.992 174.707,587.25 z" id="boundary" inkscape:connector-curvature="0" />
	<path style="fill:none;stroke:red;stroke-width:1px;stroke-linecap:butt;stroke-linejoin:miter;stroke-opacity:1" d="M 184.191,526.554 193.675,526.554 z" id="boundary" inkscape:connector-curvature="0" />
	<path style="fill:none;stroke:red;stroke-width:1px;stroke-linecap:butt;stroke-linejoin:miter;stroke-opacity:1" d="M 203.159,536.038 203.159,545.522 z" id="boundary" inkscape:connector-curvature="0" />
	<path style="fill:none;stroke:red;stroke-width:1px;stroke-linecap:butt;stroke-linejoin:miter;stroke-opacity:1" d="M 193.675,526.554 203.159,526.554 z" id="boundary" inkscape:connector-curvature="0" />
	<path style="fill:none;stroke:red;stroke-width:1px;stroke-linecap:butt;stroke-linejoin:miter;stroke-opacity:1" d="M 203.159,526.554 203.159,536.038 z" id="boundary" inkscape:connector-curvature="0" />
	<path style="fill:none;stroke:red;stroke-width:1px;stroke-linecap:butt;stroke-linejoin:miter;stroke-opacity:1" d="M 203.159,545.522 203.159,555.006 z" id="boundary" inkscape:connector-curvature="0" />
	<path style="fill:none;stroke:red;stroke-width:1px;stroke-linecap:butt;stroke-linejoin:miter;stroke-opacity:1" d="M 203.159,555.006 203.159,564.489 z" id="boundary" inkscape:connector-curvature="0" />
	<path style="fill:none;stroke:red;stroke-width:1px;stroke-linecap:butt;stroke-linejoin:miter;stroke-opacity:1" d="M 260.061,611.908 250.577,611.908 z" id="boundary" inkscape:connector-curvature="0" />
	<path style="fill:none;stroke:red;stroke-width:1px;stroke-linecap:butt;stroke-linejoin:miter;stroke-opacity:1" d="M 203.159,564.489 201.262,577.767 z" id="boundary" inkscape:connector-curvature="0" />
	<path style="fill:none;stroke:red;stroke-width:1px;stroke-linecap:butt;stroke-linejoin:miter;stroke-opacity:1" d="M 201.262,577.767 192.727,582.509 z" id="boundary" inkscape:connector-curvature="0" />
	<path style="fill:none;stroke:red;stroke-width:1px;stroke-linecap:butt;stroke-linejoin:miter;stroke-opacity:1" d="M 222.126,611.908 231.61,611.908 z" id="boundary" inkscape:connector-curvature="0" />
	<path style="fill:none;stroke:red;stroke-width:1px;stroke-linecap:butt;stroke-linejoin:miter;stroke-opacity:1" d="M 213.591,616.65 222.126,611.908 z" id="boundary" inkscape:connector-curvature="0" />
	<path style="fill:none;stroke:red;stroke-width:1px;stroke-linecap:butt;stroke-linejoin:miter;stroke-opacity:1" d="M 241.094,611.908 231.61,611.908 z" id="boundary" inkscape:connector-curvature="0" />
	<path style="fill:none;stroke:red;stroke-width:1px;stroke-linecap:butt;stroke-linejoin:miter;stroke-opacity:1" d="M 373.866,611.908 364.382,611.908 z" id="boundary" inkscape:connector-curvature="0" />
	<path style="fill:none;stroke:red;stroke-width:1px;stroke-linecap:butt;stroke-linejoin:miter;stroke-opacity:1" d="M 250.577,611.908 241.094,611.908 z" id="boundary" inkscape:connector-curvature="0" />
	<path style="fill:none;stroke:red;stroke-width:1px;stroke-linecap:butt;stroke-linejoin:miter;stroke-opacity:1" d="M 402.317,611.908 410.853,607.166 z" id="boundary" inkscape:connector-curvature="0" />
	<path style="fill:none;stroke:red;stroke-width:1px;stroke-linecap:butt;stroke-linejoin:miter;stroke-opacity:1" d="M 410.853,607.166 420.337,607.166 z" id="boundary" inkscape:connector-curvature="0" />
	<path style="fill:none;stroke:red;stroke-width:1px;stroke-linecap:butt;stroke-linejoin:miter;stroke-opacity:1" d="M 428.872,601.476 420.337,607.166 z" id="boundary" inkscape:connector-curvature="0" />
	<path style="fill:none;stroke:red;stroke-width:1px;stroke-linecap:butt;stroke-linejoin:miter;stroke-opacity:1" d="M 194.623,616.65 185.14,616.65 z" id="boundary" inkscape:connector-curvature="0" />
	<path style="fill:none;stroke:red;stroke-width:1px;stroke-linecap:butt;stroke-linejoin:miter;stroke-opacity:1" d="M 260.061,611.908 269.545,611.908 z" id="boundary" inkscape:connector-curvature="0" />
	<path style="fill:none;stroke:red;stroke-width:1px;stroke-linecap:butt;stroke-linejoin:miter;stroke-opacity:1" d="M 279.029,611.908 269.545,611.908 z" id="boundary" inkscape:connector-curvature="0" />
	<path style="fill:none;stroke:red;stroke-width:1px;stroke-linecap:butt;stroke-linejoin:miter;stroke-opacity:1" d="M 288.512,611.908 279.029,611.908 z" id="boundary" inkscape:connector-curvature="0" />
	<path style="fill:none;stroke:red;stroke-width:1px;stroke-linecap:butt;stroke-linejoin:miter;stroke-opacity:1" d="M 156.688,621.392 166.172,621.392 z" id="boundary" inkscape:connector-curvature="0" />
	<path style="fill:none;stroke:red;stroke-width:1px;stroke-linecap:butt;stroke-linejoin:miter;stroke-opacity:1" d="M 175.656,621.392 166.172,621.392 z" id="boundary" inkscape:connector-curvature="0" />
	<path style="fill:none;stroke:red;stroke-width:1px;stroke-linecap:butt;stroke-linejoin:miter;stroke-opacity:1" d="M 194.623,616.65 204.107,616.65 z" id="boundary" inkscape:connector-curvature="0" />
	<path style="fill:none;stroke:red;stroke-width:1px;stroke-linecap:butt;stroke-linejoin:miter;stroke-opacity:1" d="M 213.591,616.65 204.107,616.65 z" id="boundary" inkscape:connector-curvature="0" />
	<path style="fill:none;stroke:red;stroke-width:1px;stroke-linecap:butt;stroke-linejoin:miter;stroke-opacity:1" d="M 175.656,621.392 185.14,616.65 z" id="boundary" inkscape:connector-curvature="0" />
	<path style="fill:none;stroke:red;stroke-width:1px;stroke-linecap:butt;stroke-linejoin:miter;stroke-opacity:1" d="M 288.512,611.908 297.996,611.908 z" id="boundary" inkscape:connector-curvature="0" />
	<path style="fill:none;stroke:red;stroke-width:1px;stroke-linecap:butt;stroke-linejoin:miter;stroke-opacity:1" d="M 297.996,611.908 307.48,611.908 z" id="boundary" inkscape:connector-curvature="0" />
	<path style="fill:none;stroke:red;stroke-width:1px;stroke-linecap:butt;stroke-linejoin:miter;stroke-opacity:1" d="M 316.964,611.908 307.48,611.908 z" id="boundary" inkscape:connector-curvature="0" />
	<path style="fill:none;stroke:red;stroke-width:1px;stroke-linecap:butt;stroke-linejoin:miter;stroke-opacity:1" d="M 326.447,611.908 335.931,611.908 z" id="boundary" inkscape:connector-curvature="0" />
	<path style="fill:none;stroke:red;stroke-width:1px;stroke-linecap:butt;stroke-linejoin:miter;stroke-opacity:1" d="M 345.415,611.908 335.931,611.908 z" id="boundary" inkscape:connector-curvature="0" />
	<path style="fill:none;stroke:red;stroke-width:1px;stroke-linecap:butt;stroke-linejoin:miter;stroke-opacity:1" d="M 326.447,611.908 316.964,611.908 z" id="boundary" inkscape:connector-curvature="0" />
	<path style="fill:none;stroke:red;stroke-width:1px;stroke-linecap:butt;stroke-linejoin:miter;stroke-opacity:1" d="M 354.899,611.908 364.382,611.908 z" id="boundary" inkscape:connector-curvature="0" />
	<path style="fill:none;stroke:red;stroke-width:1px;stroke-linecap:butt;stroke-linejoin:miter;stroke-opacity:1" d="M 383.35,611.908 373.866,611.908 z" id="boundary" inkscape:connector-curvature="0" />
	<path style="fill:none;stroke:red;stroke-width:1px;stroke-linecap:butt;stroke-linejoin:miter;stroke-opacity:1" d="M 383.35,611.908 392.834,611.908 z" id="boundary" inkscape:connector-curvature="0" />
	<path style="fill:none;stroke:red;stroke-width:1px;stroke-linecap:butt;stroke-linejoin:miter;stroke-opacity:1" d="M 402.317,611.908 392.834,611.908 z" id="boundary" inkscape:connector-curvature="0" />
	<path style="fill:none;stroke:red;stroke-width:1px;stroke-linecap:butt;stroke-linejoin:miter;stroke-opacity:1" d="M 354.899,611.908 345.415,611.908 z" id="boundary" inkscape:connector-curvature="0" />
	<path style="fill:none;stroke:red;stroke-width:1px;stroke-linecap:butt;stroke-linejoin:miter;stroke-opacity:1" d="M 422.233,109.27 426.975,117.805 z" id="boundary" inkscape:connector-curvature="0" />
	<path style="fill:none;stroke:red;stroke-width:1px;stroke-linecap:butt;stroke-linejoin:miter;stroke-opacity:1" d="M 438.356,56.1606 430.769,61.8509 z" id="boundary" inkscape:connector-curvature="0" />
	<path style="fill:none;stroke:red;stroke-width:1px;stroke-linecap:butt;stroke-linejoin:miter;stroke-opacity:1" d="M 426.027,4 435.511,4 z" id="boundary" inkscape:connector-curvature="0" />
	<path style="fill:none;stroke:red;stroke-width:1px;stroke-linecap:butt;stroke-linejoin:miter;stroke-opacity:1" d="M 447.839,51.4187 438.356,56.1606 z" id="boundary" inkscape:connector-curvature="0" />
	<path style="fill:none;stroke:red;stroke-width:1px;stroke-linecap:butt;stroke-linejoin:miter;stroke-opacity:1" d="M 431.717,83.6635 426.975,75.1281 z" id="boundary" inkscape:connector-curvature="0" />
	<path style="fill:none;stroke:red;stroke-width:1px;stroke-linecap:butt;stroke-linejoin:miter;stroke-opacity:1" d="M 431.717,126.34 426.975,117.805 z" id="boundary" inkscape:connector-curvature="0" />
	<path style="fill:none;stroke:red;stroke-width:1px;stroke-linecap:butt;stroke-linejoin:miter;stroke-opacity:1" d="M 431.717,83.6635 429.82,93.1472 z" id="boundary" inkscape:connector-curvature="0" />
	<path style="fill:none;stroke:red;stroke-width:1px;stroke-linecap:butt;stroke-linejoin:miter;stroke-opacity:1" d="M 441.201,136.772 431.717,135.824 z" id="boundary" inkscape:connector-curvature="0" />
	<path style="fill:none;stroke:red;stroke-width:1px;stroke-linecap:butt;stroke-linejoin:miter;stroke-opacity:1" d="M 431.717,135.824 431.717,126.34 z" id="boundary" inkscape:connector-curvature="0" />
	<path style="fill:none;stroke:red;stroke-width:1px;stroke-linecap:butt;stroke-linejoin:miter;stroke-opacity:1" d="M 450.685,136.772 441.201,136.772 z" id="boundary" inkscape:connector-curvature="0" />
	<path style="fill:none;stroke:red;stroke-width:1px;stroke-linecap:butt;stroke-linejoin:miter;stroke-opacity:1" d="M 469.652,136.772 460.168,136.772 z" id="boundary" inkscape:connector-curvature="0" />
	<path style="fill:none;stroke:red;stroke-width:1px;stroke-linecap:butt;stroke-linejoin:miter;stroke-opacity:1" d="M 444.994,4 454.478,5.89675 z" id="boundary" inkscape:connector-curvature="0" />
	<path style="fill:none;stroke:red;stroke-width:1px;stroke-linecap:butt;stroke-linejoin:miter;stroke-opacity:1" d="M 454.478,5.89675 460.168,13.4837 z" id="boundary" inkscape:connector-curvature="0" />
	<path style="fill:none;stroke:red;stroke-width:1px;stroke-linecap:butt;stroke-linejoin:miter;stroke-opacity:1" d="M 460.168,13.4837 464.91,22.0191 z" id="boundary" inkscape:connector-curvature="0" />
	<path style="fill:none;stroke:red;stroke-width:1px;stroke-linecap:butt;stroke-linejoin:miter;stroke-opacity:1" d="M 464.91,22.0191 460.168,33.3996 z" id="boundary" inkscape:connector-curvature="0" />
	<path style="fill:none;stroke:red;stroke-width:1px;stroke-linecap:butt;stroke-linejoin:miter;stroke-opacity:1" d="M 599.579,137.721 591.044,132.979 z" id="boundary" inkscape:connector-curvature="0" />
	<path style="fill:none;stroke:red;stroke-width:1px;stroke-linecap:butt;stroke-linejoin:miter;stroke-opacity:1" d="M 460.168,33.3996 455.426,42.8834 z" id="boundary" inkscape:connector-curvature="0" />
	<path style="fill:none;stroke:red;stroke-width:1px;stroke-linecap:butt;stroke-linejoin:miter;stroke-opacity:1" d="M 460.168,136.772 450.685,136.772 z" id="boundary" inkscape:connector-curvature="0" />
	<path style="fill:none;stroke:red;stroke-width:1px;stroke-linecap:butt;stroke-linejoin:miter;stroke-opacity:1" d="M 455.426,42.8834 447.839,51.4187 z" id="boundary" inkscape:connector-curvature="0" />
	<path style="fill:none;stroke:red;stroke-width:1px;stroke-linecap:butt;stroke-linejoin:miter;stroke-opacity:1" d="M 573.025,136.772 581.56,132.031 z" id="boundary" inkscape:connector-curvature="0" />
	<path style="fill:none;stroke:red;stroke-width:1px;stroke-linecap:butt;stroke-linejoin:miter;stroke-opacity:1" d="M 581.56,132.031 591.044,132.979 z" id="boundary" inkscape:connector-curvature="0" />
	<path style="fill:none;stroke:red;stroke-width:1px;stroke-linecap:butt;stroke-linejoin:miter;stroke-opacity:1" d="M 435.511,4 444.994,4 z" id="boundary" inkscape:connector-curvature="0" />
	<path style="fill:none;stroke:red;stroke-width:1px;stroke-linecap:butt;stroke-linejoin:miter;stroke-opacity:1" d="M 469.652,136.772 479.136,136.772 z" id="boundary" inkscape:connector-curvature="0" />
	<path style="fill:none;stroke:red;stroke-width:1px;stroke-linecap:butt;stroke-linejoin:miter;stroke-opacity:1" d="M 479.136,136.772 487.671,141.514 z" id="boundary" inkscape:connector-curvature="0" />
	<path style="fill:none;stroke:red;stroke-width:1px;stroke-linecap:butt;stroke-linejoin:miter;stroke-opacity:1" d="M 497.155,141.514 487.671,141.514 z" id="boundary" inkscape:connector-curvature="0" />
	<path style="fill:none;stroke:red;stroke-width:1px;stroke-linecap:butt;stroke-linejoin:miter;stroke-opacity:1" d="M 506.639,141.514 497.155,141.514 z" id="boundary" inkscape:connector-curvature="0" />
	<path style="fill:none;stroke:red;stroke-width:1px;stroke-linecap:butt;stroke-linejoin:miter;stroke-opacity:1" d="M 544.574,141.514 535.09,141.514 z" id="boundary" inkscape:connector-curvature="0" />
	<path style="fill:none;stroke:red;stroke-width:1px;stroke-linecap:butt;stroke-linejoin:miter;stroke-opacity:1" d="M 525.606,141.514 516.122,141.514 z" id="boundary" inkscape:connector-curvature="0" />
	<path style="fill:none;stroke:red;stroke-width:1px;stroke-linecap:butt;stroke-linejoin:miter;stroke-opacity:1" d="M 506.639,141.514 516.122,141.514 z" id="boundary" inkscape:connector-curvature="0" />
	<path style="fill:none;stroke:red;stroke-width:1px;stroke-linecap:butt;stroke-linejoin:miter;stroke-opacity:1" d="M 554.057,141.514 544.574,141.514 z" id="boundary" inkscape:connector-curvature="0" />
	<path style="fill:none;stroke:red;stroke-width:1px;stroke-linecap:butt;stroke-linejoin:miter;stroke-opacity:1" d="M 563.541,139.618 554.057,141.514 z" id="boundary" inkscape:connector-curvature="0" />
	<path style="fill:none;stroke:red;stroke-width:1px;stroke-linecap:butt;stroke-linejoin:miter;stroke-opacity:1" d="M 535.09,141.514 525.606,141.514 z" id="boundary" inkscape:connector-curvature="0" />
	<path style="fill:none;stroke:red;stroke-width:1px;stroke-linecap:butt;stroke-linejoin:miter;stroke-opacity:1" d="M 599.579,137.721 604.321,146.256 z" id="boundary" inkscape:connector-curvature="0" />
	<path style="fill:none;stroke:red;stroke-width:1px;stroke-linecap:butt;stroke-linejoin:miter;stroke-opacity:1" d="M 607.166,155.74 604.321,146.256 z" id="boundary" inkscape:connector-curvature="0" />
	<path style="fill:none;stroke:red;stroke-width:1px;stroke-linecap:butt;stroke-linejoin:miter;stroke-opacity:1" d="M 616.65,165.224 607.166,165.224 z" id="boundary" inkscape:connector-curvature="0" />
	<path style="fill:none;stroke:red;stroke-width:1px;stroke-linecap:butt;stroke-linejoin:miter;stroke-opacity:1" d="M 607.166,165.224 607.166,155.74 z" id="boundary" inkscape:connector-curvature="0" />
	<path style="fill:none;stroke:red;stroke-width:1px;stroke-linecap:butt;stroke-linejoin:miter;stroke-opacity:1" d="M 626.134,165.224 616.65,165.224 z" id="boundary" inkscape:connector-curvature="0" />
	<path style="fill:none;stroke:red;stroke-width:1px;stroke-linecap:butt;stroke-linejoin:miter;stroke-opacity:1" d="M 635.618,165.224 626.134,165.224 z" id="boundary" inkscape:connector-curvature="0" />
	<path style="fill:none;stroke:red;stroke-width:1px;stroke-linecap:butt;stroke-linejoin:miter;stroke-opacity:1" d="M 607.166,237.3 616.65,237.3 z" id="boundary" inkscape:connector-curvature="0" />
	<path style="fill:none;stroke:red;stroke-width:1px;stroke-linecap:butt;stroke-linejoin:miter;stroke-opacity:1" d="M 609.063,246.784 607.166,237.3 z" id="boundary" inkscape:connector-curvature="0" />
	<path style="fill:none;stroke:red;stroke-width:1px;stroke-linecap:butt;stroke-linejoin:miter;stroke-opacity:1" d="M 625.185,232.558 616.65,237.3 z" id="boundary" inkscape:connector-curvature="0" />
	<path style="fill:none;stroke:red;stroke-width:1px;stroke-linecap:butt;stroke-linejoin:miter;stroke-opacity:1" d="M 616.65,253.423 609.063,246.784 z" id="boundary" inkscape:connector-curvature="0" />
	<path style="fill:none;stroke:red;stroke-width:1px;stroke-linecap:butt;stroke-linejoin:miter;stroke-opacity:1" d="M 634.669,232.558 625.185,232.558 z" id="boundary" inkscape:connector-curvature="0" />
	<path style="fill:none;stroke:red;stroke-width:1px;stroke-linecap:butt;stroke-linejoin:miter;stroke-opacity:1" d="M 563.541,139.618 573.025,136.772 z" id="boundary" inkscape:connector-curvature="0" />
	<path style="fill:none;stroke:red;stroke-width:1px;stroke-linecap:butt;stroke-linejoin:miter;stroke-opacity:1" d="M 635.618,165.224 645.101,165.224 z" id="boundary" inkscape:connector-curvature="0" />
	<path style="fill:none;stroke:red;stroke-width:1px;stroke-linecap:butt;stroke-linejoin:miter;stroke-opacity:1" d="M 654.585,165.224 664.069,168.069 z" id="boundary" inkscape:connector-curvature="0" />
	<path style="fill:none;stroke:red;stroke-width:1px;stroke-linecap:butt;stroke-linejoin:miter;stroke-opacity:1" d="M 664.069,168.069 670.707,175.656 z" id="boundary" inkscape:connector-curvature="0" />
	<path style="fill:none;stroke:red;stroke-width:1px;stroke-linecap:butt;stroke-linejoin:miter;stroke-opacity:1" d="M 645.101,165.224 654.585,165.224 z" id="boundary" inkscape:connector-curvature="0" />
	<path style="fill:none;stroke:red;stroke-width:1px;stroke-linecap:butt;stroke-linejoin:miter;stroke-opacity:1" d="M 670.707,175.656 673.553,185.14 z" id="boundary" inkscape:connector-curvature="0" />
	<path style="fill:none;stroke:red;stroke-width:1px;stroke-linecap:butt;stroke-linejoin:miter;stroke-opacity:1" d="M 644.153,232.558 652.688,227.816 z" id="boundary" inkscape:connector-curvature="0" />
	<path style="fill:none;stroke:red;stroke-width:1px;stroke-linecap:butt;stroke-linejoin:miter;stroke-opacity:1" d="M 644.153,232.558 634.669,232.558 z" id="boundary" inkscape:connector-curvature="0" />
	<path style="fill:none;stroke:red;stroke-width:1px;stroke-linecap:butt;stroke-linejoin:miter;stroke-opacity:1" d="M 662.172,225.92 652.688,227.816 z" id="boundary" inkscape:connector-curvature="0" />
	<path style="fill:none;stroke:red;stroke-width:1px;stroke-linecap:butt;stroke-linejoin:miter;stroke-opacity:1" d="M 668.811,218.333 662.172,225.92 z" id="boundary" inkscape:connector-curvature="0" />
	<path style="fill:none;stroke:red;stroke-width:1px;stroke-linecap:butt;stroke-linejoin:miter;stroke-opacity:1" d="M 673.553,204.107 668.811,218.333 z" id="boundary" inkscape:connector-curvature="0" />
	<path style="fill:none;stroke:red;stroke-width:1px;stroke-linecap:butt;stroke-linejoin:miter;stroke-opacity:1" d="M 673.553,194.623 673.553,185.14 z" id="boundary" inkscape:connector-curvature="0" />
	<path style="fill:none;stroke:red;stroke-width:1px;stroke-linecap:butt;stroke-linejoin:miter;stroke-opacity:1" d="M 673.553,194.623 673.553,204.107 z" id="boundary" inkscape:connector-curvature="0" />
	<path style="fill:none;stroke:red;stroke-width:1px;stroke-linecap:butt;stroke-linejoin:miter;stroke-opacity:1" d="M 963.755,217.384 955.22,222.126 z" id="boundary" inkscape:connector-curvature="0" />
	<path style="fill:none;stroke:red;stroke-width:1px;stroke-linecap:butt;stroke-linejoin:miter;stroke-opacity:1" d="M 955.22,222.126 945.736,222.126 z" id="boundary" inkscape:connector-curvature="0" />
	<path style="fill:none;stroke:red;stroke-width:1px;stroke-linecap:butt;stroke-linejoin:miter;stroke-opacity:1" d="M 945.736,222.126 936.252,226.868 z" id="boundary" inkscape:connector-curvature="0" />
	<path style="fill:none;stroke:red;stroke-width:1px;stroke-linecap:butt;stroke-linejoin:miter;stroke-opacity:1" d="M 981.774,222.126 972.291,222.126 z" id="boundary" inkscape:connector-curvature="0" />
	<path style="fill:none;stroke:red;stroke-width:1px;stroke-linecap:butt;stroke-linejoin:miter;stroke-opacity:1" d="M 972.291,222.126 963.755,217.384 z" id="boundary" inkscape:connector-curvature="0" />
	<path style="fill:none;stroke:red;stroke-width:1px;stroke-linecap:butt;stroke-linejoin:miter;stroke-opacity:1" d="M 909.698,243.939 919.182,239.197 z" id="boundary" inkscape:connector-curvature="0" />
	<path style="fill:none;stroke:red;stroke-width:1px;stroke-linecap:butt;stroke-linejoin:miter;stroke-opacity:1" d="M 928.665,234.455 919.182,239.197 z" id="boundary" inkscape:connector-curvature="0" />
	<path style="fill:none;stroke:red;stroke-width:1px;stroke-linecap:butt;stroke-linejoin:miter;stroke-opacity:1" d="M 936.252,226.868 928.665,234.455 z" id="boundary" inkscape:connector-curvature="0" />
	<path style="fill:none;stroke:red;stroke-width:1px;stroke-linecap:butt;stroke-linejoin:miter;stroke-opacity:1" d="M 981.774,222.126 990.31,226.868 z" id="boundary" inkscape:connector-curvature="0" />
	<path style="fill:none;stroke:red;stroke-width:1px;stroke-linecap:butt;stroke-linejoin:miter;stroke-opacity:1" d="M 996,234.455 994.103,244.887 z" id="boundary" inkscape:connector-curvature="0" />
	<path style="fill:none;stroke:red;stroke-width:1px;stroke-linecap:butt;stroke-linejoin:miter;stroke-opacity:1" d="M 990.31,226.868 996,234.455 z" id="boundary" inkscape:connector-curvature="0" />
	<path style="fill:none;stroke:red;stroke-width:1px;stroke-linecap:butt;stroke-linejoin:miter;stroke-opacity:1" d="M 909.698,243.939 900.214,245.836 z" id="boundary" inkscape:connector-curvature="0" />
	<path style="fill:none;stroke:red;stroke-width:1px;stroke-linecap:butt;stroke-linejoin:miter;stroke-opacity:1" d="M 664.069,250.577 673.553,250.577 z" id="boundary" inkscape:connector-curvature="0" />
	<path style="fill:none;stroke:red;stroke-width:1px;stroke-linecap:butt;stroke-linejoin:miter;stroke-opacity:1" d="M 654.585,252.474 664.069,250.577 z" id="boundary" inkscape:connector-curvature="0" />
	<path style="fill:none;stroke:red;stroke-width:1px;stroke-linecap:butt;stroke-linejoin:miter;stroke-opacity:1" d="M 683.036,250.577 692.52,250.577 z" id="boundary" inkscape:connector-curvature="0" />
	<path style="fill:none;stroke:red;stroke-width:1px;stroke-linecap:butt;stroke-linejoin:miter;stroke-opacity:1" d="M 702.004,250.577 692.52,250.577 z" id="boundary" inkscape:connector-curvature="0" />
	<path style="fill:none;stroke:red;stroke-width:1px;stroke-linecap:butt;stroke-linejoin:miter;stroke-opacity:1" d="M 683.036,250.577 673.553,250.577 z" id="boundary" inkscape:connector-curvature="0" />
	<path style="fill:none;stroke:red;stroke-width:1px;stroke-linecap:butt;stroke-linejoin:miter;stroke-opacity:1" d="M 711.488,250.577 720.971,250.577 z" id="boundary" inkscape:connector-curvature="0" />
	<path style="fill:none;stroke:red;stroke-width:1px;stroke-linecap:butt;stroke-linejoin:miter;stroke-opacity:1" d="M 730.455,250.577 720.971,250.577 z" id="boundary" inkscape:connector-curvature="0" />
	<path style="fill:none;stroke:red;stroke-width:1px;stroke-linecap:butt;stroke-linejoin:miter;stroke-opacity:1" d="M 739.939,250.577 749.423,250.577 z" id="boundary" inkscape:connector-curvature="0" />
	<path style="fill:none;stroke:red;stroke-width:1px;stroke-linecap:butt;stroke-linejoin:miter;stroke-opacity:1" d="M 758.906,250.577 749.423,250.577 z" id="boundary" inkscape:connector-curvature="0" />
	<path style="fill:none;stroke:red;stroke-width:1px;stroke-linecap:butt;stroke-linejoin:miter;stroke-opacity:1" d="M 739.939,250.577 730.455,250.577 z" id="boundary" inkscape:connector-curvature="0" />
	<path style="fill:none;stroke:red;stroke-width:1px;stroke-linecap:butt;stroke-linejoin:miter;stroke-opacity:1" d="M 711.488,250.577 702.004,250.577 z" id="boundary" inkscape:connector-curvature="0" />
	<path style="fill:none;stroke:red;stroke-width:1px;stroke-linecap:butt;stroke-linejoin:miter;stroke-opacity:1" d="M 777.874,250.577 768.39,250.577 z" id="boundary" inkscape:connector-curvature="0" />
	<path style="fill:none;stroke:red;stroke-width:1px;stroke-linecap:butt;stroke-linejoin:miter;stroke-opacity:1" d="M 768.39,250.577 758.906,250.577 z" id="boundary" inkscape:connector-curvature="0" />
	<path style="fill:none;stroke:red;stroke-width:1px;stroke-linecap:butt;stroke-linejoin:miter;stroke-opacity:1" d="M 787.358,250.577 777.874,250.577 z" id="boundary" inkscape:connector-curvature="0" />
	<path style="fill:none;stroke:red;stroke-width:1px;stroke-linecap:butt;stroke-linejoin:miter;stroke-opacity:1" d="M 900.214,245.836 890.73,245.836 z" id="boundary" inkscape:connector-curvature="0" />
	<path style="fill:none;stroke:red;stroke-width:1px;stroke-linecap:butt;stroke-linejoin:miter;stroke-opacity:1" d="M 890.73,245.836 881.247,245.836 z" id="boundary" inkscape:connector-curvature="0" />
	<path style="fill:none;stroke:red;stroke-width:1px;stroke-linecap:butt;stroke-linejoin:miter;stroke-opacity:1" d="M 872.711,250.577 881.247,245.836 z" id="boundary" inkscape:connector-curvature="0" />
	<path style="fill:none;stroke:red;stroke-width:1px;stroke-linecap:butt;stroke-linejoin:miter;stroke-opacity:1" d="M 844.26,250.577 834.776,250.577 z" id="boundary" inkscape:connector-curvature="0" />
	<path style="fill:none;stroke:red;stroke-width:1px;stroke-linecap:butt;stroke-linejoin:miter;stroke-opacity:1" d="M 787.358,250.577 796.841,250.577 z" id="boundary" inkscape:connector-curvature="0" />
	<path style="fill:none;stroke:red;stroke-width:1px;stroke-linecap:butt;stroke-linejoin:miter;stroke-opacity:1" d="M 806.325,250.577 796.841,250.577 z" id="boundary" inkscape:connector-curvature="0" />
	<path style="fill:none;stroke:red;stroke-width:1px;stroke-linecap:butt;stroke-linejoin:miter;stroke-opacity:1" d="M 815.809,250.577 825.293,250.577 z" id="boundary" inkscape:connector-curvature="0" />
	<path style="fill:none;stroke:red;stroke-width:1px;stroke-linecap:butt;stroke-linejoin:miter;stroke-opacity:1" d="M 834.776,250.577 825.293,250.577 z" id="boundary" inkscape:connector-curvature="0" />
	<path style="fill:none;stroke:red;stroke-width:1px;stroke-linecap:butt;stroke-linejoin:miter;stroke-opacity:1" d="M 815.809,250.577 806.325,250.577 z" id="boundary" inkscape:connector-curvature="0" />
	<path style="fill:none;stroke:red;stroke-width:1px;stroke-linecap:butt;stroke-linejoin:miter;stroke-opacity:1" d="M 994.103,244.887 986.516,251.526 z" id="boundary" inkscape:connector-curvature="0" />
	<path style="fill:none;stroke:red;stroke-width:1px;stroke-linecap:butt;stroke-linejoin:miter;stroke-opacity:1" d="M 626.134,255.319 616.65,253.423 z" id="boundary" inkscape:connector-curvature="0" />
	<path style="fill:none;stroke:red;stroke-width:1px;stroke-linecap:butt;stroke-linejoin:miter;stroke-opacity:1" d="M 645.101,255.319 635.618,255.319 z" id="boundary" inkscape:connector-curvature="0" />
	<path style="fill:none;stroke:red;stroke-width:1px;stroke-linecap:butt;stroke-linejoin:miter;stroke-opacity:1" d="M 635.618,255.319 626.134,255.319 z" id="boundary" inkscape:connector-curvature="0" />
	<path style="fill:none;stroke:red;stroke-width:1px;stroke-linecap:butt;stroke-linejoin:miter;stroke-opacity:1" d="M 654.585,252.474 645.101,255.319 z" id="boundary" inkscape:connector-curvature="0" />
	<path style="fill:none;stroke:red;stroke-width:1px;stroke-linecap:butt;stroke-linejoin:miter;stroke-opacity:1" d="M 609.063,521.813 599.579,521.813 z" id="boundary" inkscape:connector-curvature="0" />
	<path style="fill:none;stroke:red;stroke-width:1px;stroke-linecap:butt;stroke-linejoin:miter;stroke-opacity:1" d="M 618.547,521.813 609.063,521.813 z" id="boundary" inkscape:connector-curvature="0" />
	<path style="fill:none;stroke:red;stroke-width:1px;stroke-linecap:butt;stroke-linejoin:miter;stroke-opacity:1" d="M 627.082,517.071 618.547,521.813 z" id="boundary" inkscape:connector-curvature="0" />
	<path style="fill:none;stroke:red;stroke-width:1px;stroke-linecap:butt;stroke-linejoin:miter;stroke-opacity:1" d="M 590.096,525.606 599.579,521.813 z" id="boundary" inkscape:connector-curvature="0" />
	<path style="fill:none;stroke:red;stroke-width:1px;stroke-linecap:butt;stroke-linejoin:miter;stroke-opacity:1" d="M 654.585,512.329 646.05,517.071 z" id="boundary" inkscape:connector-curvature="0" />
	<path style="fill:none;stroke:red;stroke-width:1px;stroke-linecap:butt;stroke-linejoin:miter;stroke-opacity:1" d="M 646.05,517.071 636.566,517.071 z" id="boundary" inkscape:connector-curvature="0" />
	<path style="fill:none;stroke:red;stroke-width:1px;stroke-linecap:butt;stroke-linejoin:miter;stroke-opacity:1" d="M 654.585,512.329 664.069,512.329 z" id="boundary" inkscape:connector-curvature="0" />
	<path style="fill:none;stroke:red;stroke-width:1px;stroke-linecap:butt;stroke-linejoin:miter;stroke-opacity:1" d="M 627.082,517.071 636.566,517.071 z" id="boundary" inkscape:connector-curvature="0" />
	<path style="fill:none;stroke:red;stroke-width:1px;stroke-linecap:butt;stroke-linejoin:miter;stroke-opacity:1" d="M 668.811,412.75 668.811,422.233 z" id="boundary" inkscape:connector-curvature="0" />
	<path style="fill:none;stroke:red;stroke-width:1px;stroke-linecap:butt;stroke-linejoin:miter;stroke-opacity:1" d="M 668.811,412.75 668.811,403.266 z" id="boundary" inkscape:connector-curvature="0" />
	<path style="fill:none;stroke:red;stroke-width:1px;stroke-linecap:butt;stroke-linejoin:miter;stroke-opacity:1" d="M 668.811,403.266 677.346,398.524 z" id="boundary" inkscape:connector-curvature="0" />
	<path style="fill:none;stroke:red;stroke-width:1px;stroke-linecap:butt;stroke-linejoin:miter;stroke-opacity:1" d="M 678.294,426.027 668.811,422.233 z" id="boundary" inkscape:connector-curvature="0" />
	<path style="fill:none;stroke:red;stroke-width:1px;stroke-linecap:butt;stroke-linejoin:miter;stroke-opacity:1" d="M 677.346,398.524 686.83,395.679 z" id="boundary" inkscape:connector-curvature="0" />
	<path style="fill:none;stroke:red;stroke-width:1px;stroke-linecap:butt;stroke-linejoin:miter;stroke-opacity:1" d="M 704.849,389.04 696.314,393.782 z" id="boundary" inkscape:connector-curvature="0" />
	<path style="fill:none;stroke:red;stroke-width:1px;stroke-linecap:butt;stroke-linejoin:miter;stroke-opacity:1" d="M 696.314,393.782 686.83,395.679 z" id="boundary" inkscape:connector-curvature="0" />
	<path style="fill:none;stroke:red;stroke-width:1px;stroke-linecap:butt;stroke-linejoin:miter;stroke-opacity:1" d="M 673.553,512.329 664.069,512.329 z" id="boundary" inkscape:connector-curvature="0" />
	<path style="fill:none;stroke:red;stroke-width:1px;stroke-linecap:butt;stroke-linejoin:miter;stroke-opacity:1" d="M 692.52,507.587 683.036,512.329 z" id="boundary" inkscape:connector-curvature="0" />
	<path style="fill:none;stroke:red;stroke-width:1px;stroke-linecap:butt;stroke-linejoin:miter;stroke-opacity:1" d="M 683.036,512.329 673.553,512.329 z" id="boundary" inkscape:connector-curvature="0" />
	<path style="fill:none;stroke:red;stroke-width:1px;stroke-linecap:butt;stroke-linejoin:miter;stroke-opacity:1" d="M 678.294,426.027 687.778,426.027 z" id="boundary" inkscape:connector-curvature="0" />
	<path style="fill:none;stroke:red;stroke-width:1px;stroke-linecap:butt;stroke-linejoin:miter;stroke-opacity:1" d="M 697.262,428.872 687.778,426.027 z" id="boundary" inkscape:connector-curvature="0" />
	<path style="fill:none;stroke:red;stroke-width:1px;stroke-linecap:butt;stroke-linejoin:miter;stroke-opacity:1" d="M 441.201,550.264 450.685,550.264 z" id="boundary" inkscape:connector-curvature="0" />
	<path style="fill:none;stroke:red;stroke-width:1px;stroke-linecap:butt;stroke-linejoin:miter;stroke-opacity:1" d="M 441.201,559.748 441.201,550.264 z" id="boundary" inkscape:connector-curvature="0" />
	<path style="fill:none;stroke:red;stroke-width:1px;stroke-linecap:butt;stroke-linejoin:miter;stroke-opacity:1" d="M 469.652,545.522 460.168,550.264 z" id="boundary" inkscape:connector-curvature="0" />
	<path style="fill:none;stroke:red;stroke-width:1px;stroke-linecap:butt;stroke-linejoin:miter;stroke-opacity:1" d="M 460.168,550.264 450.685,550.264 z" id="boundary" inkscape:connector-curvature="0" />
	<path style="fill:none;stroke:red;stroke-width:1px;stroke-linecap:butt;stroke-linejoin:miter;stroke-opacity:1" d="M 479.136,545.522 469.652,545.522 z" id="boundary" inkscape:connector-curvature="0" />
	<path style="fill:none;stroke:red;stroke-width:1px;stroke-linecap:butt;stroke-linejoin:miter;stroke-opacity:1" d="M 488.62,545.522 479.136,545.522 z" id="boundary" inkscape:connector-curvature="0" />
	<path style="fill:none;stroke:red;stroke-width:1px;stroke-linecap:butt;stroke-linejoin:miter;stroke-opacity:1" d="M 497.155,540.78 488.62,545.522 z" id="boundary" inkscape:connector-curvature="0" />
	<path style="fill:none;stroke:red;stroke-width:1px;stroke-linecap:butt;stroke-linejoin:miter;stroke-opacity:1" d="M 436.459,588.199 428.872,601.476 z" id="boundary" inkscape:connector-curvature="0" />
	<path style="fill:none;stroke:red;stroke-width:1px;stroke-linecap:butt;stroke-linejoin:miter;stroke-opacity:1" d="M 441.201,559.748 441.201,569.231 z" id="boundary" inkscape:connector-curvature="0" />
	<path style="fill:none;stroke:red;stroke-width:1px;stroke-linecap:butt;stroke-linejoin:miter;stroke-opacity:1" d="M 436.459,588.199 441.201,578.715 z" id="boundary" inkscape:connector-curvature="0" />
	<path style="fill:none;stroke:red;stroke-width:1px;stroke-linecap:butt;stroke-linejoin:miter;stroke-opacity:1" d="M 441.201,578.715 441.201,569.231 z" id="boundary" inkscape:connector-curvature="0" />
	<path style="fill:none;stroke:red;stroke-width:1px;stroke-linecap:butt;stroke-linejoin:miter;stroke-opacity:1" d="M 571.128,526.554 562.593,531.296 z" id="boundary" inkscape:connector-curvature="0" />
	<path style="fill:none;stroke:red;stroke-width:1px;stroke-linecap:butt;stroke-linejoin:miter;stroke-opacity:1" d="M 562.593,531.296 553.109,531.296 z" id="boundary" inkscape:connector-curvature="0" />
	<path style="fill:none;stroke:red;stroke-width:1px;stroke-linecap:butt;stroke-linejoin:miter;stroke-opacity:1" d="M 571.128,526.554 580.612,526.554 z" id="boundary" inkscape:connector-curvature="0" />
	<path style="fill:none;stroke:red;stroke-width:1px;stroke-linecap:butt;stroke-linejoin:miter;stroke-opacity:1" d="M 544.574,536.038 553.109,531.296 z" id="boundary" inkscape:connector-curvature="0" />
	<path style="fill:none;stroke:red;stroke-width:1px;stroke-linecap:butt;stroke-linejoin:miter;stroke-opacity:1" d="M 590.096,525.606 580.612,526.554 z" id="boundary" inkscape:connector-curvature="0" />
	<path style="fill:none;stroke:red;stroke-width:1px;stroke-linecap:butt;stroke-linejoin:miter;stroke-opacity:1" d="M 497.155,540.78 506.639,540.78 z" id="boundary" inkscape:connector-curvature="0" />
	<path style="fill:none;stroke:red;stroke-width:1px;stroke-linecap:butt;stroke-linejoin:miter;stroke-opacity:1" d="M 516.122,540.78 506.639,540.78 z" id="boundary" inkscape:connector-curvature="0" />
	<path style="fill:none;stroke:red;stroke-width:1px;stroke-linecap:butt;stroke-linejoin:miter;stroke-opacity:1" d="M 525.606,537.935 516.122,540.78 z" id="boundary" inkscape:connector-curvature="0" />
	<path style="fill:none;stroke:red;stroke-width:1px;stroke-linecap:butt;stroke-linejoin:miter;stroke-opacity:1" d="M 525.606,537.935 535.09,536.038 z" id="boundary" inkscape:connector-curvature="0" />
	<path style="fill:none;stroke:red;stroke-width:1px;stroke-linecap:butt;stroke-linejoin:miter;stroke-opacity:1" d="M 535.09,536.038 544.574,536.038 z" id="boundary" inkscape:connector-curvature="0" />
	<path style="fill:none;stroke:red;stroke-width:1px;stroke-linecap:butt;stroke-linejoin:miter;stroke-opacity:1" d="M 844.26,250.577 853.744,250.577 z" id="boundary" inkscape:connector-curvature="0" />
	<path style="fill:none;stroke:red;stroke-width:1px;stroke-linecap:butt;stroke-linejoin:miter;stroke-opacity:1" d="M 863.228,250.577 872.711,250.577 z" id="boundary" inkscape:connector-curvature="0" />
	<path style="fill:none;stroke:red;stroke-width:1px;stroke-linecap:butt;stroke-linejoin:miter;stroke-opacity:1" d="M 889.782,303.686 880.298,306.532 z" id="boundary" inkscape:connector-curvature="0" />
	<path style="fill:none;stroke:red;stroke-width:1px;stroke-linecap:butt;stroke-linejoin:miter;stroke-opacity:1" d="M 853.744,250.577 863.228,250.577 z" id="boundary" inkscape:connector-curvature="0" />
	<path style="fill:none;stroke:red;stroke-width:1px;stroke-linecap:butt;stroke-linejoin:miter;stroke-opacity:1" d="M 880.298,306.532 870.815,311.273 z" id="boundary" inkscape:connector-curvature="0" />
	<path style="fill:none;stroke:red;stroke-width:1px;stroke-linecap:butt;stroke-linejoin:miter;stroke-opacity:1" d="M 843.312,322.654 834.776,327.396 z" id="boundary" inkscape:connector-curvature="0" />
	<path style="fill:none;stroke:red;stroke-width:1px;stroke-linecap:butt;stroke-linejoin:miter;stroke-opacity:1" d="M 834.776,327.396 825.293,327.396 z" id="boundary" inkscape:connector-curvature="0" />
	<path style="fill:none;stroke:red;stroke-width:1px;stroke-linecap:butt;stroke-linejoin:miter;stroke-opacity:1" d="M 816.757,332.138 825.293,327.396 z" id="boundary" inkscape:connector-curvature="0" />
	<path style="fill:none;stroke:red;stroke-width:1px;stroke-linecap:butt;stroke-linejoin:miter;stroke-opacity:1" d="M 861.331,316.015 851.847,317.912 z" id="boundary" inkscape:connector-curvature="0" />
	<path style="fill:none;stroke:red;stroke-width:1px;stroke-linecap:butt;stroke-linejoin:miter;stroke-opacity:1" d="M 870.815,311.273 861.331,316.015 z" id="boundary" inkscape:connector-curvature="0" />
	<path style="fill:none;stroke:red;stroke-width:1px;stroke-linecap:butt;stroke-linejoin:miter;stroke-opacity:1" d="M 843.312,322.654 851.847,317.912 z" id="boundary" inkscape:connector-curvature="0" />
	<path style="fill:none;stroke:red;stroke-width:1px;stroke-linecap:butt;stroke-linejoin:miter;stroke-opacity:1" d="M 943.839,284.719 953.323,279.977 z" id="boundary" inkscape:connector-curvature="0" />
	<path style="fill:none;stroke:red;stroke-width:1px;stroke-linecap:butt;stroke-linejoin:miter;stroke-opacity:1" d="M 935.304,289.461 943.839,284.719 z" id="boundary" inkscape:connector-curvature="0" />
	<path style="fill:none;stroke:red;stroke-width:1px;stroke-linecap:butt;stroke-linejoin:miter;stroke-opacity:1" d="M 962.807,275.235 953.323,279.977 z" id="boundary" inkscape:connector-curvature="0" />
	<path style="fill:none;stroke:red;stroke-width:1px;stroke-linecap:butt;stroke-linejoin:miter;stroke-opacity:1" d="M 986.516,251.526 979.878,263.855 z" id="boundary" inkscape:connector-curvature="0" />
	<path style="fill:none;stroke:red;stroke-width:1px;stroke-linecap:butt;stroke-linejoin:miter;stroke-opacity:1" d="M 979.878,263.855 970.394,268.597 z" id="boundary" inkscape:connector-curvature="0" />
	<path style="fill:none;stroke:red;stroke-width:1px;stroke-linecap:butt;stroke-linejoin:miter;stroke-opacity:1" d="M 962.807,275.235 970.394,268.597 z" id="boundary" inkscape:connector-curvature="0" />
	<path style="fill:none;stroke:red;stroke-width:1px;stroke-linecap:butt;stroke-linejoin:miter;stroke-opacity:1" d="M 935.304,289.461 926.769,294.203 z" id="boundary" inkscape:connector-curvature="0" />
	<path style="fill:none;stroke:red;stroke-width:1px;stroke-linecap:butt;stroke-linejoin:miter;stroke-opacity:1" d="M 889.782,303.686 898.317,298.945 z" id="boundary" inkscape:connector-curvature="0" />
	<path style="fill:none;stroke:red;stroke-width:1px;stroke-linecap:butt;stroke-linejoin:miter;stroke-opacity:1" d="M 898.317,298.945 907.801,298.945 z" id="boundary" inkscape:connector-curvature="0" />
	<path style="fill:none;stroke:red;stroke-width:1px;stroke-linecap:butt;stroke-linejoin:miter;stroke-opacity:1" d="M 907.801,298.945 917.285,297.996 z" id="boundary" inkscape:connector-curvature="0" />
	<path style="fill:none;stroke:red;stroke-width:1px;stroke-linecap:butt;stroke-linejoin:miter;stroke-opacity:1" d="M 917.285,297.996 926.769,294.203 z" id="boundary" inkscape:connector-curvature="0" />
	<path style="fill:none;stroke:red;stroke-width:1px;stroke-linecap:butt;stroke-linejoin:miter;stroke-opacity:1" d="M 703.901,436.459 706.746,445.943 z" id="boundary" inkscape:connector-curvature="0" />
	<path style="fill:none;stroke:red;stroke-width:1px;stroke-linecap:butt;stroke-linejoin:miter;stroke-opacity:1" d="M 703.901,436.459 697.262,428.872 z" id="boundary" inkscape:connector-curvature="0" />
	<path style="fill:none;stroke:red;stroke-width:1px;stroke-linecap:butt;stroke-linejoin:miter;stroke-opacity:1" d="M 704.849,389.04 713.384,384.298 z" id="boundary" inkscape:connector-curvature="0" />
	<path style="fill:none;stroke:red;stroke-width:1px;stroke-linecap:butt;stroke-linejoin:miter;stroke-opacity:1" d="M 706.746,445.943 706.746,455.426 z" id="boundary" inkscape:connector-curvature="0" />
	<path style="fill:none;stroke:red;stroke-width:1px;stroke-linecap:butt;stroke-linejoin:miter;stroke-opacity:1" d="M 702.004,502.845 692.52,507.587 z" id="boundary" inkscape:connector-curvature="0" />
	<path style="fill:none;stroke:red;stroke-width:1px;stroke-linecap:butt;stroke-linejoin:miter;stroke-opacity:1" d="M 706.746,455.426 708.642,464.91 z" id="boundary" inkscape:connector-curvature="0" />
	<path style="fill:none;stroke:red;stroke-width:1px;stroke-linecap:butt;stroke-linejoin:miter;stroke-opacity:1" d="M 716.229,471.549 708.642,464.91 z" id="boundary" inkscape:connector-curvature="0" />
	<path style="fill:none;stroke:red;stroke-width:1px;stroke-linecap:butt;stroke-linejoin:miter;stroke-opacity:1" d="M 711.488,493.361 702.004,502.845 z" id="boundary" inkscape:connector-curvature="0" />
	<path style="fill:none;stroke:red;stroke-width:1px;stroke-linecap:butt;stroke-linejoin:miter;stroke-opacity:1" d="M 716.229,483.878 711.488,493.361 z" id="boundary" inkscape:connector-curvature="0" />
	<path style="fill:none;stroke:red;stroke-width:1px;stroke-linecap:butt;stroke-linejoin:miter;stroke-opacity:1" d="M 716.229,471.549 716.229,483.878 z" id="boundary" inkscape:connector-curvature="0" />
	<path style="fill:none;stroke:red;stroke-width:1px;stroke-linecap:butt;stroke-linejoin:miter;stroke-opacity:1" d="M 713.384,384.298 721.92,379.556 z" id="boundary" inkscape:connector-curvature="0" />
	<path style="fill:none;stroke:red;stroke-width:1px;stroke-linecap:butt;stroke-linejoin:miter;stroke-opacity:1" d="M 771.235,346.363 779.771,341.621 z" id="boundary" inkscape:connector-curvature="0" />
	<path style="fill:none;stroke:red;stroke-width:1px;stroke-linecap:butt;stroke-linejoin:miter;stroke-opacity:1" d="M 779.771,341.621 789.254,340.673 z" id="boundary" inkscape:connector-curvature="0" />
	<path style="fill:none;stroke:red;stroke-width:1px;stroke-linecap:butt;stroke-linejoin:miter;stroke-opacity:1" d="M 771.235,346.363 762.7,351.105 z" id="boundary" inkscape:connector-curvature="0" />
	<path style="fill:none;stroke:red;stroke-width:1px;stroke-linecap:butt;stroke-linejoin:miter;stroke-opacity:1" d="M 798.738,336.88 789.254,340.673 z" id="boundary" inkscape:connector-curvature="0" />
	<path style="fill:none;stroke:red;stroke-width:1px;stroke-linecap:butt;stroke-linejoin:miter;stroke-opacity:1" d="M 798.738,336.88 807.273,332.138 z" id="boundary" inkscape:connector-curvature="0" />
	<path style="fill:none;stroke:red;stroke-width:1px;stroke-linecap:butt;stroke-linejoin:miter;stroke-opacity:1" d="M 807.273,332.138 816.757,332.138 z" id="boundary" inkscape:connector-curvature="0" />
	<path style="fill:none;stroke:red;stroke-width:1px;stroke-linecap:butt;stroke-linejoin:miter;stroke-opacity:1" d="M 738.042,368.176 730.455,374.815 z" id="boundary" inkscape:connector-curvature="0" />
	<path style="fill:none;stroke:red;stroke-width:1px;stroke-linecap:butt;stroke-linejoin:miter;stroke-opacity:1" d="M 730.455,374.815 721.92,379.556 z" id="boundary" inkscape:connector-curvature="0" />
	<path style="fill:none;stroke:red;stroke-width:1px;stroke-linecap:butt;stroke-linejoin:miter;stroke-opacity:1" d="M 738.042,368.176 747.526,363.434 z" id="boundary" inkscape:connector-curvature="0" />
	<path style="fill:none;stroke:red;stroke-width:1px;stroke-linecap:butt;stroke-linejoin:miter;stroke-opacity:1" d="M 747.526,363.434 754.164,355.847 z" id="boundary" inkscape:connector-curvature="0" />
	<path style="fill:none;stroke:red;stroke-width:1px;stroke-linecap:butt;stroke-linejoin:miter;stroke-opacity:1" d="M 754.164,355.847 762.7,351.105 z" id="boundary" inkscape:connector-curvature="0" />
	<path style="fill:none;stroke:red;stroke-width:1px;stroke-linecap:butt;stroke-linejoin:miter;stroke-opacity:1" d="M 416.543,4 426.027,4 z" id="boundary" inkscape:connector-curvature="0" />
	<circle cx="4" cy="452.581" r="4" fill="#0" id="circle0"/>
	<circle cx="4" cy="462.065" r="4" fill="#0" id="circle1"/>
	<circle cx="8.74187" cy="414.646" r="4" fill="#0" id="circle2"/>
	<circle cx="8.74187" cy="424.13" r="4" fill="#0" id="circle3"/>
	<circle cx="8.74187" cy="433.614" r="4" fill="#0" id="circle4"/>
	<circle cx="8.74187" cy="443.098" r="4" fill="#0" id="circle5"/>
	<circle cx="8.74187" cy="470.6" r="4" fill="#0" id="circle6"/>
	<circle cx="13.4837" cy="386.195" r="4" fill="#0" id="circle7"/>
	<circle cx="13.4837" cy="395.679" r="4" fill="#0" id="circle8"/>
	<circle cx="13.4837" cy="405.163" r="4" fill="#0" id="circle9"/>
	<circle cx="13.4837" cy="479.136" r="4" fill="#0" id="circle10"/>
	<circle cx="16.3289" cy="488.62" r="4" fill="#0" id="circle11"/>
	<circle cx="18.2256" cy="362.486" r="4" fill="#0" id="circle12"/>
	<circle cx="18.2256" cy="371.969" r="4" fill="#0" id="circle13"/>
	<circle cx="22.9675" cy="348.26" r="4" fill="#0" id="circle14"/>
	<circle cx="22.9675" cy="604.321" r="4" fill="#0" id="circle15"/>
	<circle cx="23.9159" cy="495.258" r="4" fill="#0" id="circle16"/>
	<circle cx="27.7094" cy="338.776" r="4" fill="#0" id="circle17"/>
	<circle cx="27.7094" cy="590.096" r="4" fill="#0" id="circle18"/>
	<circle cx="27.7094" cy="612.857" r="4" fill="#0" id="circle19"/>
	<circle cx="30.5545" cy="502.845" r="4" fill="#0" id="circle20"/>
	<circle cx="32.4512" cy="324.551" r="4" fill="#0" id="circle21"/>
	<circle cx="32.4512" cy="580.612" r="4" fill="#0" id="circle22"/>
	<circle cx="32.4512" cy="621.392" r="4" fill="#0" id="circle23"/>
	<circle cx="35.2964" cy="511.38" r="4" fill="#0" id="circle24"/>
	<circle cx="37.1931" cy="315.067" r="4" fill="#0" id="circle25"/>
	<circle cx="40.0382" cy="573.025" r="4" fill="#0" id="circle26"/>
	<circle cx="40.9866" cy="626.134" r="4" fill="#0" id="circle27"/>
	<circle cx="43.8317" cy="516.122" r="4" fill="#0" id="circle28"/>
	<circle cx="44.7801" cy="307.48" r="4" fill="#0" id="circle29"/>
	<circle cx="49.522" cy="297.996" r="4" fill="#0" id="circle30"/>
	<circle cx="49.522" cy="573.025" r="4" fill="#0" id="circle31"/>
	<circle cx="49.522" cy="630.876" r="4" fill="#0" id="circle32"/>
	<circle cx="53.3155" cy="517.071" r="4" fill="#0" id="circle33"/>
	<circle cx="54.2639" cy="288.512" r="4" fill="#0" id="circle34"/>
	<circle cx="57.109" cy="578.715" r="4" fill="#0" id="circle35"/>
	<circle cx="59.0057" cy="630.876" r="4" fill="#0" id="circle36"/>
	<circle cx="60.9025" cy="277.132" r="4" fill="#0" id="circle37"/>
	<circle cx="61.8509" cy="521.813" r="4" fill="#0" id="circle38"/>
	<circle cx="61.8509" cy="587.25" r="4" fill="#0" id="circle39"/>
	<circle cx="61.8509" cy="596.734" r="4" fill="#0" id="circle40"/>
	<circle cx="66.5927" cy="605.27" r="4" fill="#0" id="circle41"/>
	<circle cx="68.4895" cy="269.545" r="4" fill="#0" id="circle42"/>
	<circle cx="68.4895" cy="630.876" r="4" fill="#0" id="circle43"/>
	<circle cx="70.3862" cy="526.554" r="4" fill="#0" id="circle44"/>
	<circle cx="74.1797" cy="611.908" r="4" fill="#0" id="circle45"/>
	<circle cx="76.0765" cy="261.958" r="4" fill="#0" id="circle46"/>
	<circle cx="77.9732" cy="630.876" r="4" fill="#0" id="circle47"/>
	<circle cx="79.87" cy="526.554" r="4" fill="#0" id="circle48"/>
	<circle cx="80.8184" cy="619.495" r="4" fill="#0" id="circle49"/>
	<circle cx="83.6635" cy="255.319" r="4" fill="#0" id="circle50"/>
	<circle cx="87.457" cy="630.876" r="4" fill="#0" id="circle51"/>
	<circle cx="89.3537" cy="526.554" r="4" fill="#0" id="circle52"/>
	<circle cx="90.3021" cy="247.732" r="4" fill="#0" id="circle53"/>
	<circle cx="95.044" cy="625.185" r="4" fill="#0" id="circle54"/>
	<circle cx="97.8891" cy="241.094" r="4" fill="#0" id="circle55"/>
	<circle cx="98.8375" cy="526.554" r="4" fill="#0" id="circle56"/>
	<circle cx="102.631" cy="630.876" r="4" fill="#0" id="circle57"/>
	<circle cx="104.528" cy="233.507" r="4" fill="#0" id="circle58"/>
	<circle cx="108.321" cy="526.554" r="4" fill="#0" id="circle59"/>
	<circle cx="110.218" cy="625.185" r="4" fill="#0" id="circle60"/>
	<circle cx="114.011" cy="228.765" r="4" fill="#0" id="circle61"/>
	<circle cx="114.96" cy="616.65" r="4" fill="#0" id="circle62"/>
	<circle cx="117.805" cy="526.554" r="4" fill="#0" id="circle63"/>
	<circle cx="119.702" cy="626.134" r="4" fill="#0" id="circle64"/>
	<circle cx="121.598" cy="222.126" r="4" fill="#0" id="circle65"/>
	<circle cx="122.547" cy="610.96" r="4" fill="#0" id="circle66"/>
	<circle cx="127.289" cy="526.554" r="4" fill="#0" id="circle67"/>
	<circle cx="129.185" cy="626.134" r="4" fill="#0" id="circle68"/>
	<circle cx="130.134" cy="217.384" r="4" fill="#0" id="circle69"/>
	<circle cx="131.082" cy="606.218" r="4" fill="#0" id="circle70"/>
	<circle cx="136.772" cy="526.554" r="4" fill="#0" id="circle71"/>
	<circle cx="137.721" cy="621.392" r="4" fill="#0" id="circle72"/>
	<circle cx="138.669" cy="212.642" r="4" fill="#0" id="circle73"/>
	<circle cx="140.566" cy="606.218" r="4" fill="#0" id="circle74"/>
	<circle cx="146.256" cy="526.554" r="4" fill="#0" id="circle75"/>
	<circle cx="147.205" cy="207.901" r="4" fill="#0" id="circle76"/>
	<circle cx="147.205" cy="621.392" r="4" fill="#0" id="circle77"/>
	<circle cx="149.101" cy="601.476" r="4" fill="#0" id="circle78"/>
	<circle cx="155.74" cy="203.159" r="4" fill="#0" id="circle79"/>
	<circle cx="155.74" cy="526.554" r="4" fill="#0" id="circle80"/>
	<circle cx="156.688" cy="621.392" r="4" fill="#0" id="circle81"/>
	<circle cx="157.637" cy="596.734" r="4" fill="#0" id="circle82"/>
	<circle cx="164.275" cy="198.417" r="4" fill="#0" id="circle83"/>
	<circle cx="165.224" cy="526.554" r="4" fill="#0" id="circle84"/>
	<circle cx="166.172" cy="591.992" r="4" fill="#0" id="circle85"/>
	<circle cx="166.172" cy="621.392" r="4" fill="#0" id="circle86"/>
	<circle cx="173.759" cy="198.417" r="4" fill="#0" id="circle87"/>
	<circle cx="174.707" cy="526.554" r="4" fill="#0" id="circle88"/>
	<circle cx="174.707" cy="587.25" r="4" fill="#0" id="circle89"/>
	<circle cx="175.656" cy="621.392" r="4" fill="#0" id="circle90"/>
	<circle cx="182.294" cy="193.675" r="4" fill="#0" id="circle91"/>
	<circle cx="183.243" cy="582.509" r="4" fill="#0" id="circle92"/>
	<circle cx="184.191" cy="526.554" r="4" fill="#0" id="circle93"/>
	<circle cx="185.14" cy="616.65" r="4" fill="#0" id="circle94"/>
	<circle cx="190.83" cy="188.933" r="4" fill="#0" id="circle95"/>
	<circle cx="192.727" cy="582.509" r="4" fill="#0" id="circle96"/>
	<circle cx="193.675" cy="526.554" r="4" fill="#0" id="circle97"/>
	<circle cx="194.623" cy="616.65" r="4" fill="#0" id="circle98"/>
	<circle cx="199.365" cy="184.191" r="4" fill="#0" id="circle99"/>
	<circle cx="201.262" cy="577.767" r="4" fill="#0" id="circle100"/>
	<circle cx="203.159" cy="526.554" r="4" fill="#0" id="circle101"/>
	<circle cx="203.159" cy="536.038" r="4" fill="#0" id="circle102"/>
	<circle cx="203.159" cy="545.522" r="4" fill="#0" id="circle103"/>
	<circle cx="203.159" cy="555.006" r="4" fill="#0" id="circle104"/>
	<circle cx="203.159" cy="564.489" r="4" fill="#0" id="circle105"/>
	<circle cx="204.107" cy="616.65" r="4" fill="#0" id="circle106"/>
	<circle cx="207.901" cy="179.449" r="4" fill="#0" id="circle107"/>
	<circle cx="213.591" cy="616.65" r="4" fill="#0" id="circle108"/>
	<circle cx="217.384" cy="177.553" r="4" fill="#0" id="circle109"/>
	<circle cx="222.126" cy="611.908" r="4" fill="#0" id="circle110"/>
	<circle cx="226.868" cy="172.811" r="4" fill="#0" id="circle111"/>
	<circle cx="231.61" cy="611.908" r="4" fill="#0" id="circle112"/>
	<circle cx="236.352" cy="169.966" r="4" fill="#0" id="circle113"/>
	<circle cx="241.094" cy="611.908" r="4" fill="#0" id="circle114"/>
	<circle cx="245.836" cy="168.069" r="4" fill="#0" id="circle115"/>
	<circle cx="250.577" cy="611.908" r="4" fill="#0" id="circle116"/>
	<circle cx="255.319" cy="163.327" r="4" fill="#0" id="circle117"/>
	<circle cx="260.061" cy="611.908" r="4" fill="#0" id="circle118"/>
	<circle cx="264.803" cy="160.482" r="4" fill="#0" id="circle119"/>
	<circle cx="269.545" cy="611.908" r="4" fill="#0" id="circle120"/>
	<circle cx="274.287" cy="160.482" r="4" fill="#0" id="circle121"/>
	<circle cx="279.029" cy="611.908" r="4" fill="#0" id="circle122"/>
	<circle cx="283.771" cy="160.482" r="4" fill="#0" id="circle123"/>
	<circle cx="288.512" cy="611.908" r="4" fill="#0" id="circle124"/>
	<circle cx="293.254" cy="160.482" r="4" fill="#0" id="circle125"/>
	<circle cx="297.996" cy="611.908" r="4" fill="#0" id="circle126"/>
	<circle cx="302.738" cy="54.2639" r="4" fill="#0" id="circle127"/>
	<circle cx="302.738" cy="160.482" r="4" fill="#0" id="circle128"/>
	<circle cx="307.48" cy="62.7992" r="4" fill="#0" id="circle129"/>
	<circle cx="307.48" cy="611.908" r="4" fill="#0" id="circle130"/>
	<circle cx="310.325" cy="46.6769" r="4" fill="#0" id="circle131"/>
	<circle cx="312.222" cy="160.482" r="4" fill="#0" id="circle132"/>
	<circle cx="314.119" cy="70.3862" r="4" fill="#0" id="circle133"/>
	<circle cx="316.964" cy="611.908" r="4" fill="#0" id="circle134"/>
	<circle cx="317.912" cy="39.0899" r="4" fill="#0" id="circle135"/>
	<circle cx="320.757" cy="155.74" r="4" fill="#0" id="circle136"/>
	<circle cx="323.602" cy="71.3346" r="4" fill="#0" id="circle137"/>
	<circle cx="325.499" cy="32.4512" r="4" fill="#0" id="circle138"/>
	<circle cx="326.447" cy="611.908" r="4" fill="#0" id="circle139"/>
	<circle cx="330.241" cy="155.74" r="4" fill="#0" id="circle140"/>
	<circle cx="333.086" cy="71.3346" r="4" fill="#0" id="circle141"/>
	<circle cx="334.034" cy="27.7094" r="4" fill="#0" id="circle142"/>
	<circle cx="335.931" cy="611.908" r="4" fill="#0" id="circle143"/>
	<circle cx="339.725" cy="155.74" r="4" fill="#0" id="circle144"/>
	<circle cx="341.621" cy="20.1224" r="4" fill="#0" id="circle145"/>
	<circle cx="342.57" cy="71.3346" r="4" fill="#0" id="circle146"/>
	<circle cx="345.415" cy="611.908" r="4" fill="#0" id="circle147"/>
	<circle cx="349.208" cy="155.74" r="4" fill="#0" id="circle148"/>
	<circle cx="351.105" cy="15.3805" r="4" fill="#0" id="circle149"/>
	<circle cx="352.054" cy="71.3346" r="4" fill="#0" id="circle150"/>
	<circle cx="354.899" cy="611.908" r="4" fill="#0" id="circle151"/>
	<circle cx="358.692" cy="155.74" r="4" fill="#0" id="circle152"/>
	<circle cx="359.641" cy="92.1989" r="4" fill="#0" id="circle153"/>
	<circle cx="359.641" cy="101.683" r="4" fill="#0" id="circle154"/>
	<circle cx="360.589" cy="13.4837" r="4" fill="#0" id="circle155"/>
	<circle cx="361.537" cy="71.3346" r="4" fill="#0" id="circle156"/>
	<circle cx="364.382" cy="82.7151" r="4" fill="#0" id="circle157"/>
	<circle cx="364.382" cy="611.908" r="4" fill="#0" id="circle158"/>
	<circle cx="367.228" cy="108.321" r="4" fill="#0" id="circle159"/>
	<circle cx="368.176" cy="155.74" r="4" fill="#0" id="circle160"/>
	<circle cx="369.124" cy="8.74187" r="4" fill="#0" id="circle161"/>
	<circle cx="373.866" cy="611.908" r="4" fill="#0" id="circle162"/>
	<circle cx="374.815" cy="114.011" r="4" fill="#0" id="circle163"/>
	<circle cx="377.66" cy="155.74" r="4" fill="#0" id="circle164"/>
	<circle cx="378.608" cy="8.74187" r="4" fill="#0" id="circle165"/>
	<circle cx="383.35" cy="611.908" r="4" fill="#0" id="circle166"/>
	<circle cx="384.298" cy="114.011" r="4" fill="#0" id="circle167"/>
	<circle cx="386.195" cy="150.998" r="4" fill="#0" id="circle168"/>
	<circle cx="388.092" cy="8.74187" r="4" fill="#0" id="circle169"/>
	<circle cx="388.092" cy="123.495" r="4" fill="#0" id="circle170"/>
	<circle cx="388.092" cy="132.979" r="4" fill="#0" id="circle171"/>
	<circle cx="392.834" cy="611.908" r="4" fill="#0" id="circle172"/>
	<circle cx="397.576" cy="6.84512" r="4" fill="#0" id="circle173"/>
	<circle cx="402.317" cy="611.908" r="4" fill="#0" id="circle174"/>
	<circle cx="407.059" cy="4" r="4" fill="#0" id="circle175"/>
	<circle cx="410.853" cy="607.166" r="4" fill="#0" id="circle176"/>
	<circle cx="416.543" cy="4" r="4" fill="#0" id="circle177"/>
	<circle cx="420.337" cy="607.166" r="4" fill="#0" id="circle178"/>
	<circle cx="422.233" cy="66.5927" r="4" fill="#0" id="circle179"/>
	<circle cx="422.233" cy="99.7859" r="4" fill="#0" id="circle180"/>
	<circle cx="422.233" cy="109.27" r="4" fill="#0" id="circle181"/>
	<circle cx="426.027" cy="4" r="4" fill="#0" id="circle182"/>
	<circle cx="426.975" cy="75.1281" r="4" fill="#0" id="circle183"/>
	<circle cx="426.975" cy="117.805" r="4" fill="#0" id="circle184"/>
	<circle cx="428.872" cy="601.476" r="4" fill="#0" id="circle185"/>
	<circle cx="429.82" cy="93.1472" r="4" fill="#0" id="circle186"/>
	<circle cx="430.769" cy="61.8509" r="4" fill="#0" id="circle187"/>
	<circle cx="431.717" cy="83.6635" r="4" fill="#0" id="circle188"/>
	<circle cx="431.717" cy="126.34" r="4" fill="#0" id="circle189"/>
	<circle cx="431.717" cy="135.824" r="4" fill="#0" id="circle190"/>
	<circle cx="435.511" cy="4" r="4" fill="#0" id="circle191"/>
	<circle cx="436.459" cy="588.199" r="4" fill="#0" id="circle192"/>
	<circle cx="438.356" cy="56.1606" r="4" fill="#0" id="circle193"/>
	<circle cx="441.201" cy="136.772" r="4" fill="#0" id="circle194"/>
	<circle cx="441.201" cy="550.264" r="4" fill="#0" id="circle195"/>
	<circle cx="441.201" cy="559.748" r="4" fill="#0" id="circle196"/>
	<circle cx="441.201" cy="569.231" r="4" fill="#0" id="circle197"/>
	<circle cx="441.201" cy="578.715" r="4" fill="#0" id="circle198"/>
	<circle cx="444.994" cy="4" r="4" fill="#0" id="circle199"/>
	<circle cx="447.839" cy="51.4187" r="4" fill="#0" id="circle200"/>
	<circle cx="450.685" cy="136.772" r="4" fill="#0" id="circle201"/>
	<circle cx="450.685" cy="550.264" r="4" fill="#0" id="circle202"/>
	<circle cx="454.478" cy="5.89675" r="4" fill="#0" id="circle203"/>
	<circle cx="455.426" cy="42.8834" r="4" fill="#0" id="circle204"/>
	<circle cx="460.168" cy="13.4837" r="4" fill="#0" id="circle205"/>
	<circle cx="460.168" cy="33.3996" r="4" fill="#0" id="circle206"/>
	<circle cx="460.168" cy="136.772" r="4" fill="#0" id="circle207"/>
	<circle cx="460.168" cy="550.264" r="4" fill="#0" id="circle208"/>
	<circle cx="464.91" cy="22.0191" r="4" fill="#0" id="circle209"/>
	<circle cx="469.652" cy="136.772" r="4" fill="#0" id="circle210"/>
	<circle cx="469.652" cy="545.522" r="4" fill="#0" id="circle211"/>
	<circle cx="479.136" cy="136.772" r="4" fill="#0" id="circle212"/>
	<circle cx="479.136" cy="545.522" r="4" fill="#0" id="circle213"/>
	<circle cx="487.671" cy="141.514" r="4" fill="#0" id="circle214"/>
	<circle cx="488.62" cy="545.522" r="4" fill="#0" id="circle215"/>
	<circle cx="497.155" cy="141.514" r="4" fill="#0" id="circle216"/>
	<circle cx="497.155" cy="540.78" r="4" fill="#0" id="circle217"/>
	<circle cx="506.639" cy="141.514" r="4" fill="#0" id="circle218"/>
	<circle cx="506.639" cy="540.78" r="4" fill="#0" id="circle219"/>
	<circle cx="516.122" cy="141.514" r="4" fill="#0" id="circle220"/>
	<circle cx="516.122" cy="540.78" r="4" fill="#0" id="circle221"/>
	<circle cx="525.606" cy="141.514" r="4" fill="#0" id="circle222"/>
	<circle cx="525.606" cy="537.935" r="4" fill="#0" id="circle223"/>
	<circle cx="535.09" cy="141.514" r="4" fill="#0" id="circle224"/>
	<circle cx="535.09" cy="536.038" r="4" fill="#0" id="circle225"/>
	<circle cx="544.574" cy="141.514" r="4" fill="#0" id="circle226"/>
	<circle cx="544.574" cy="536.038" r="4" fill="#0" id="circle227"/>
	<circle cx="553.109" cy="531.296" r="4" fill="#0" id="circle228"/>
	<circle cx="554.057" cy="141.514" r="4" fill="#0" id="circle229"/>
	<circle cx="562.593" cy="531.296" r="4" fill="#0" id="circle230"/>
	<circle cx="563.541" cy="139.618" r="4" fill="#0" id="circle231"/>
	<circle cx="571.128" cy="526.554" r="4" fill="#0" id="circle232"/>
	<circle cx="573.025" cy="136.772" r="4" fill="#0" id="circle233"/>
	<circle cx="580.612" cy="526.554" r="4" fill="#0" id="circle234"/>
	<circle cx="581.56" cy="132.031" r="4" fill="#0" id="circle235"/>
	<circle cx="590.096" cy="525.606" r="4" fill="#0" id="circle236"/>
	<circle cx="591.044" cy="132.979" r="4" fill="#0" id="circle237"/>
	<circle cx="599.579" cy="137.721" r="4" fill="#0" id="circle238"/>
	<circle cx="599.579" cy="521.813" r="4" fill="#0" id="circle239"/>
	<circle cx="604.321" cy="146.256" r="4" fill="#0" id="circle240"/>
	<circle cx="607.166" cy="155.74" r="4" fill="#0" id="circle241"/>
	<circle cx="607.166" cy="165.224" r="4" fill="#0" id="circle242"/>
	<circle cx="607.166" cy="237.3" r="4" fill="#0" id="circle243"/>
	<circle cx="609.063" cy="246.784" r="4" fill="#0" id="circle244"/>
	<circle cx="609.063" cy="521.813" r="4" fill="#0" id="circle245"/>
	<circle cx="616.65" cy="165.224" r="4" fill="#0" id="circle246"/>
	<circle cx="616.65" cy="237.3" r="4" fill="#0" id="circle247"/>
	<circle cx="616.65" cy="253.423" r="4" fill="#0" id="circle248"/>
	<circle cx="618.547" cy="521.813" r="4" fill="#0" id="circle249"/>
	<circle cx="625.185" cy="232.558" r="4" fill="#0" id="circle250"/>
	<circle cx="626.134" cy="165.224" r="4" fill="#0" id="circle251"/>
	<circle cx="626.134" cy="255.319" r="4" fill="#0" id="circle252"/>
	<circle cx="627.082" cy="517.071" r="4" fill="#0" id="circle253"/>
	<circle cx="634.669" cy="232.558" r="4" fill="#0" id="circle254"/>
	<circle cx="635.618" cy="165.224" r="4" fill="#0" id="circle255"/>
	<circle cx="635.618" cy="255.319" r="4" fill="#0" id="circle256"/>
	<circle cx="636.566" cy="517.071" r="4" fill="#0" id="circle257"/>
	<circle cx="644.153" cy="232.558" r="4" fill="#0" id="circle258"/>
	<circle cx="645.101" cy="165.224" r="4" fill="#0" id="circle259"/>
	<circle cx="645.101" cy="255.319" r="4" fill="#0" id="circle260"/>
	<circle cx="646.05" cy="517.071" r="4" fill="#0" id="circle261"/>
	<circle cx="652.688" cy="227.816" r="4" fill="#0" id="circle262"/>
	<circle cx="654.585" cy="165.224" r="4" fill="#0" id="circle263"/>
	<circle cx="654.585" cy="252.474" r="4" fill="#0" id="circle264"/>
	<circle cx="654.585" cy="512.329" r="4" fill="#0" id="circle265"/>
	<circle cx="662.172" cy="225.92" r="4" fill="#0" id="circle266"/>
	<circle cx="664.069" cy="168.069" r="4" fill="#0" id="circle267"/>
	<circle cx="664.069" cy="250.577" r="4" fill="#0" id="circle268"/>
	<circle cx="664.069" cy="512.329" r="4" fill="#0" id="circle269"/>
	<circle cx="668.811" cy="218.333" r="4" fill="#0" id="circle270"/>
	<circle cx="668.811" cy="403.266" r="4" fill="#0" id="circle271"/>
	<circle cx="668.811" cy="412.75" r="4" fill="#0" id="circle272"/>
	<circle cx="668.811" cy="422.233" r="4" fill="#0" id="circle273"/>
	<circle cx="670.707" cy="175.656" r="4" fill="#0" id="circle274"/>
	<circle cx="673.553" cy="185.14" r="4" fill="#0" id="circle275"/>
	<circle cx="673.553" cy="194.623" r="4" fill="#0" id="circle276"/>
	<circle cx="673.553" cy="204.107" r="4" fill="#0" id="circle277"/>
	<circle cx="673.553" cy="250.577" r="4" fill="#0" id="circle278"/>
	<circle cx="673.553" cy="512.329" r="4" fill="#0" id="circle279"/>
	<circle cx="677.346" cy="398.524" r="4" fill="#0" id="circle280"/>
	<circle cx="678.294" cy="426.027" r="4" fill="#0" id="circle281"/>
	<circle cx="683.036" cy="250.577" r="4" fill="#0" id="circle282"/>
	<circle cx="683.036" cy="512.329" r="4" fill="#0" id="circle283"/>
	<circle cx="686.83" cy="395.679" r="4" fill="#0" id="circle284"/>
	<circle cx="687.778" cy="426.027" r="4" fill="#0" id="circle285"/>
	<circle cx="692.52" cy="250.577" r="4" fill="#0" id="circle286"/>
	<circle cx="692.52" cy="507.587" r="4" fill="#0" id="circle287"/>
	<circle cx="696.314" cy="393.782" r="4" fill="#0" id="circle288"/>
	<circle cx="697.262" cy="428.872" r="4" fill="#0" id="circle289"/>
	<circle cx="702.004" cy="250.577" r="4" fill="#0" id="circle290"/>
	<circle cx="702.004" cy="502.845" r="4" fill="#0" id="circle291"/>
	<circle cx="703.901" cy="436.459" r="4" fill="#0" id="circle292"/>
	<circle cx="704.849" cy="389.04" r="4" fill="#0" id="circle293"/>
	<circle cx="706.746" cy="445.943" r="4" fill="#0" id="circle294"/>
	<circle cx="706.746" cy="455.426" r="4" fill="#0" id="circle295"/>
	<circle cx="708.642" cy="464.91" r="4" fill="#0" id="circle296"/>
	<circle cx="711.488" cy="250.577" r="4" fill="#0" id="circle297"/>
	<circle cx="711.488" cy="493.361" r="4" fill="#0" id="circle298"/>
	<circle cx="713.384" cy="384.298" r="4" fill="#0" id="circle299"/>
	<circle cx="716.229" cy="471.549" r="4" fill="#0" id="circle300"/>
	<circle cx="716.229" cy="483.878" r="4" fill="#0" id="circle301"/>
	<circle cx="720.971" cy="250.577" r="4" fill="#0" id="circle302"/>
	<circle cx="721.92" cy="379.556" r="4" fill="#0" id="circle303"/>
	<circle cx="730.455" cy="250.577" r="4" fill="#0" id="circle304"/>
	<circle cx="730.455" cy="374.815" r="4" fill="#0" id="circle305"/>
	<circle cx="738.042" cy="368.176" r="4" fill="#0" id="circle306"/>
	<circle cx="739.939" cy="250.577" r="4" fill="#0" id="circle307"/>
	<circle cx="747.526" cy="363.434" r="4" fill="#0" id="circle308"/>
	<circle cx="749.423" cy="250.577" r="4" fill="#0" id="circle309"/>
	<circle cx="754.164" cy="355.847" r="4" fill="#0" id="circle310"/>
	<circle cx="758.906" cy="250.577" r="4" fill="#0" id="circle311"/>
	<circle cx="762.7" cy="351.105" r="4" fill="#0" id="circle312"/>
	<circle cx="768.39" cy="250.577" r="4" fill="#0" id="circle313"/>
	<circle cx="771.235" cy="346.363" r="4" fill="#0" id="circle314"/>
	<circle cx="777.874" cy="250.577" r="4" fill="#0" id="circle315"/>
	<circle cx="779.771" cy="341.621" r="4" fill="#0" id="circle316"/>
	<circle cx="787.358" cy="250.577" r="4" fill="#0" id="circle317"/>
	<circle cx="789.254" cy="340.673" r="4" fill="#0" id="circle318"/>
	<circle cx="796.841" cy="250.577" r="4" fill="#0" id="circle319"/>
	<circle cx="798.738" cy="336.88" r="4" fill="#0" id="circle320"/>
	<circle cx="806.325" cy="250.577" r="4" fill="#0" id="circle321"/>
	<circle cx="807.273" cy="332.138" r="4" fill="#0" id="circle322"/>
	<circle cx="815.809" cy="250.577" r="4" fill="#0" id="circle323"/>
	<circle cx="816.757" cy="332.138" r="4" fill="#0" id="circle324"/>
	<circle cx="825.293" cy="250.577" r="4" fill="#0" id="circle325"/>
	<circle cx="825.293" cy="327.396" r="4" fill="#0" id="circle326"/>
	<circle cx="834.776" cy="250.577" r="4" fill="#0" id="circle327"/>
	<circle cx="834.776" cy="327.396" r="4" fill="#0" id="circle328"/>
	<circle cx="843.312" cy="322.654" r="4" fill="#0" id="circle329"/>
	<circle cx="844.26" cy="250.577" r="4" fill="#0" id="circle330"/>
	<circle cx="851.847" cy="317.912" r="4" fill="#0" id="circle331"/>
	<circle cx="853.744" cy="250.577" r="4" fill="#0" id="circle332"/>
	<circle cx="861.331" cy="316.015" r="4" fill="#0" id="circle333"/>
	<circle cx="863.228" cy="250.577" r="4" fill="#0" id="circle334"/>
	<circle cx="870.815" cy="311.273" r="4" fill="#0" id="circle335"/>
	<circle cx="872.711" cy="250.577" r="4" fill="#0" id="circle336"/>
	<circle cx="880.298" cy="306.532" r="4" fill="#0" id="circle337"/>
	<circle cx="881.247" cy="245.836" r="4" fill="#0" id="circle338"/>
	<circle cx="889.782" cy="303.686" r="4" fill="#0" id="circle339"/>
	<circle cx="890.73" cy="245.836" r="4" fill="#0" id="circle340"/>
	<circle cx="898.317" cy="298.945" r="4" fill="#0" id="circle341"/>
	<circle cx="900.214" cy="245.836" r="4" fill="#0" id="circle342"/>
	<circle cx="907.801" cy="298.945" r="4" fill="#0" id="circle343"/>
	<circle cx="909.698" cy="243.939" r="4" fill="#0" id="circle344"/>
	<circle cx="917.285" cy="297.996" r="4" fill="#0" id="circle345"/>
	<circle cx="919.182" cy="239.197" r="4" fill="#0" id="circle346"/>
	<circle cx="926.769" cy="294.203" r="4" fill="#0" id="circle347"/>
	<circle cx="928.665" cy="234.455" r="4" fill="#0" id="circle348"/>
	<circle cx="935.304" cy="289.461" r="4" fill="#0" id="circle349"/>
	<circle cx="936.252" cy="226.868" r="4" fill="#0" id="circle350"/>
	<circle cx="943.839" cy="284.719" r="4" fill="#0" id="circle351"/>
	<circle cx="945.736" cy="222.126" r="4" fill="#0" id="circle352"/>
	<circle cx="953.323" cy="279.977" r="4" fill="#0" id="circle353"/>
	<circle cx="955.22" cy="222.126" r="4" fill="#0" id="circle354"/>
	<circle cx="962.807" cy="275.235" r="4" fill="#0" id="circle355"/>
	<circle cx="963.755" cy="217.384" r="4" fill="#0" id="circle356"/>
	<circle cx="970.394" cy="268.597" r="4" fill="#0" id="circle357"/>
	<circle cx="972.291" cy="222.126" r="4" fill="#0" id="circle358"/>
	<circle cx="979.878" cy="263.855" r="4" fill="#0" id="circle359"/>
	<circle cx="981.774" cy="222.126" r="4" fill="#0" id="circle360"/>
	<circle cx="986.516" cy="251.526" r="4" fill="#0" id="circle361"/>
	<circle cx="990.31" cy="226.868" r="4" fill="#0" id="circle362"/>
	<circle cx="994.103" cy="244.887" r="4" fill="#0" id="circle363"/>
	<circle cx="996" cy="234.455" r="4" fill="#0" id="circle364"/>
	</g>
</svg>