<?xml version="1.0" encoding="UTF-8" standalone="no"?>
<!-- Created with CurveBenchmark -->
<svg
	xmlns:dc="http://purl.org/dc/elements/1.1/"
	xmlns:cc="http://creativecommons.org/ns#"
	xmlns:rdf="http://www.w3.org/1999/02/22-rdf-syntax-ns#"
	xmlns:svg="http://www.w3.org/2000/svg"
	xmlns="http://www.w3.org/2000/svg"
	xmlns:sodipodi="http://sodipodi.sourceforge.net/DTD/sodipodi-0.dtd"
	xmlns:inkscape="http://www.inkscape.org/namespaces/inkscape"
	width="1000"
	height="1000"
	id="svg2"
	version="1.1"
	sodipodi:docname="manifold/gathang-chopper13.png.txt">
<defs
	id="defs4" />
<metadata
	id="metadata7">
	<rdf:RDF>
		<cc:Work
			rdf:about="">
			<dc:format>image/svg+xml</dc:format>
			<dc:type
				rdf:resource="http://purl.org/dc/dcmitype/StillImage" />
			<dc:title></dc:title>
		</cc:Work>
	</rdf:RDF>
</metadata>
<g
	inkscape:label="Layer 1"
	inkscape:groupmode="layer"
	id="layer1">
	<path style="fill:none;stroke:red;stroke-width:1px;stroke-linecap:butt;stroke-linejoin:miter;stroke-opacity:1" d="M 78.4908,192.952 93.0256,180.234 z" id="boundary" inkscape:connector-curvature="0" />
	<path style="fill:none;stroke:red;stroke-width:1px;stroke-linecap:butt;stroke-linejoin:miter;stroke-opacity:1" d="M 93.0256,180.234 109.377,171.15 z" id="boundary" inkscape:connector-curvature="0" />
	<path style="fill:none;stroke:red;stroke-width:1px;stroke-linecap:butt;stroke-linejoin:miter;stroke-opacity:1" d="M 63.956,207.487 78.4908,192.952 z" id="boundary" inkscape:connector-curvature="0" />
	<path style="fill:none;stroke:red;stroke-width:1px;stroke-linecap:butt;stroke-linejoin:miter;stroke-opacity:1" d="M 22.1685,258.359 31.2527,240.19 z" id="boundary" inkscape:connector-curvature="0" />
	<path style="fill:none;stroke:red;stroke-width:1px;stroke-linecap:butt;stroke-linejoin:miter;stroke-opacity:1" d="M 31.2527,240.19 49.4212,222.022 z" id="boundary" inkscape:connector-curvature="0" />
	<path style="fill:none;stroke:red;stroke-width:1px;stroke-linecap:butt;stroke-linejoin:miter;stroke-opacity:1" d="M 49.4212,222.022 63.956,207.487 z" id="boundary" inkscape:connector-curvature="0" />
	<path style="fill:none;stroke:red;stroke-width:1px;stroke-linecap:butt;stroke-linejoin:miter;stroke-opacity:1" d="M 209.304,125.729 192.952,134.813 z" id="boundary" inkscape:connector-curvature="0" />
	<path style="fill:none;stroke:red;stroke-width:1px;stroke-linecap:butt;stroke-linejoin:miter;stroke-opacity:1" d="M 192.952,134.813 174.784,134.813 z" id="boundary" inkscape:connector-curvature="0" />
	<path style="fill:none;stroke:red;stroke-width:1px;stroke-linecap:butt;stroke-linejoin:miter;stroke-opacity:1" d="M 109.377,171.15 125.729,162.066 z" id="boundary" inkscape:connector-curvature="0" />
	<path style="fill:none;stroke:red;stroke-width:1px;stroke-linecap:butt;stroke-linejoin:miter;stroke-opacity:1" d="M 158.432,143.897 174.784,134.813 z" id="boundary" inkscape:connector-curvature="0" />
	<path style="fill:none;stroke:red;stroke-width:1px;stroke-linecap:butt;stroke-linejoin:miter;stroke-opacity:1" d="M 125.729,162.066 142.081,152.982 z" id="boundary" inkscape:connector-curvature="0" />
	<path style="fill:none;stroke:red;stroke-width:1px;stroke-linecap:butt;stroke-linejoin:miter;stroke-opacity:1" d="M 158.432,143.897 142.081,152.982 z" id="boundary" inkscape:connector-curvature="0" />
	<path style="fill:none;stroke:red;stroke-width:1px;stroke-linecap:butt;stroke-linejoin:miter;stroke-opacity:1" d="M 4,385.538 4,367.37 z" id="boundary" inkscape:connector-curvature="0" />
	<path style="fill:none;stroke:red;stroke-width:1px;stroke-linecap:butt;stroke-linejoin:miter;stroke-opacity:1" d="M 4,367.37 13.0842,349.201 z" id="boundary" inkscape:connector-curvature="0" />
	<path style="fill:none;stroke:red;stroke-width:1px;stroke-linecap:butt;stroke-linejoin:miter;stroke-opacity:1" d="M 4,403.707 4,385.538 z" id="boundary" inkscape:connector-curvature="0" />
	<path style="fill:none;stroke:red;stroke-width:1px;stroke-linecap:butt;stroke-linejoin:miter;stroke-opacity:1" d="M 4,440.044 4,421.875 z" id="boundary" inkscape:connector-curvature="0" />
	<path style="fill:none;stroke:red;stroke-width:1px;stroke-linecap:butt;stroke-linejoin:miter;stroke-opacity:1" d="M 4,421.875 4,403.707 z" id="boundary" inkscape:connector-curvature="0" />
	<path style="fill:none;stroke:red;stroke-width:1px;stroke-linecap:butt;stroke-linejoin:miter;stroke-opacity:1" d="M 13.0842,276.527 22.1685,258.359 z" id="boundary" inkscape:connector-curvature="0" />
	<path style="fill:none;stroke:red;stroke-width:1px;stroke-linecap:butt;stroke-linejoin:miter;stroke-opacity:1" d="M 13.0842,294.696 13.0842,276.527 z" id="boundary" inkscape:connector-curvature="0" />
	<path style="fill:none;stroke:red;stroke-width:1px;stroke-linecap:butt;stroke-linejoin:miter;stroke-opacity:1" d="M 13.0842,312.864 13.0842,331.033 z" id="boundary" inkscape:connector-curvature="0" />
	<path style="fill:none;stroke:red;stroke-width:1px;stroke-linecap:butt;stroke-linejoin:miter;stroke-opacity:1" d="M 13.0842,312.864 13.0842,294.696 z" id="boundary" inkscape:connector-curvature="0" />
	<path style="fill:none;stroke:red;stroke-width:1px;stroke-linecap:butt;stroke-linejoin:miter;stroke-opacity:1" d="M 13.0842,331.033 13.0842,349.201 z" id="boundary" inkscape:connector-curvature="0" />
	<path style="fill:none;stroke:red;stroke-width:1px;stroke-linecap:butt;stroke-linejoin:miter;stroke-opacity:1" d="M 4,458.212 4,440.044 z" id="boundary" inkscape:connector-curvature="0" />
	<path style="fill:none;stroke:red;stroke-width:1px;stroke-linecap:butt;stroke-linejoin:miter;stroke-opacity:1" d="M 18.5348,470.93 4,458.212 z" id="boundary" inkscape:connector-curvature="0" />
	<path style="fill:none;stroke:red;stroke-width:1px;stroke-linecap:butt;stroke-linejoin:miter;stroke-opacity:1" d="M 209.304,125.729 227.473,125.729 z" id="boundary" inkscape:connector-curvature="0" />
	<path style="fill:none;stroke:red;stroke-width:1px;stroke-linecap:butt;stroke-linejoin:miter;stroke-opacity:1" d="M 303.78,31.2527 303.78,13.0842 z" id="boundary" inkscape:connector-curvature="0" />
	<path style="fill:none;stroke:red;stroke-width:1px;stroke-linecap:butt;stroke-linejoin:miter;stroke-opacity:1" d="M 303.78,13.0842 321.949,7.6337 z" id="boundary" inkscape:connector-curvature="0" />
	<path style="fill:none;stroke:red;stroke-width:1px;stroke-linecap:butt;stroke-linejoin:miter;stroke-opacity:1" d="M 321.949,7.6337 340.117,4 z" id="boundary" inkscape:connector-curvature="0" />
	<path style="fill:none;stroke:red;stroke-width:1px;stroke-linecap:butt;stroke-linejoin:miter;stroke-opacity:1" d="M 318.315,43.9707 303.78,31.2527 z" id="boundary" inkscape:connector-curvature="0" />
	<path style="fill:none;stroke:red;stroke-width:1px;stroke-linecap:butt;stroke-linejoin:miter;stroke-opacity:1" d="M 336.484,45.7875 318.315,43.9707 z" id="boundary" inkscape:connector-curvature="0" />
	<path style="fill:none;stroke:red;stroke-width:1px;stroke-linecap:butt;stroke-linejoin:miter;stroke-opacity:1" d="M 340.117,4 358.286,7.6337 z" id="boundary" inkscape:connector-curvature="0" />
	<path style="fill:none;stroke:red;stroke-width:1px;stroke-linecap:butt;stroke-linejoin:miter;stroke-opacity:1" d="M 358.286,7.6337 376.454,7.6337 z" id="boundary" inkscape:connector-curvature="0" />
	<path style="fill:none;stroke:red;stroke-width:1px;stroke-linecap:butt;stroke-linejoin:miter;stroke-opacity:1" d="M 376.454,7.6337 394.623,11.2674 z" id="boundary" inkscape:connector-curvature="0" />
	<path style="fill:none;stroke:red;stroke-width:1px;stroke-linecap:butt;stroke-linejoin:miter;stroke-opacity:1" d="M 354.652,45.7875 387.355,45.7875 z" id="boundary" inkscape:connector-curvature="0" />
	<path style="fill:none;stroke:red;stroke-width:1px;stroke-linecap:butt;stroke-linejoin:miter;stroke-opacity:1" d="M 387.355,45.7875 363.736,62.1392 z" id="boundary" inkscape:connector-curvature="0" />
	<path style="fill:none;stroke:red;stroke-width:1px;stroke-linecap:butt;stroke-linejoin:miter;stroke-opacity:1" d="M 354.652,80.3077 363.736,62.1392 z" id="boundary" inkscape:connector-curvature="0" />
	<path style="fill:none;stroke:red;stroke-width:1px;stroke-linecap:butt;stroke-linejoin:miter;stroke-opacity:1" d="M 336.484,45.7875 354.652,45.7875 z" id="boundary" inkscape:connector-curvature="0" />
	<path style="fill:none;stroke:red;stroke-width:1px;stroke-linecap:butt;stroke-linejoin:miter;stroke-opacity:1" d="M 227.473,125.729 245.641,125.729 z" id="boundary" inkscape:connector-curvature="0" />
	<path style="fill:none;stroke:red;stroke-width:1px;stroke-linecap:butt;stroke-linejoin:miter;stroke-opacity:1" d="M 263.81,125.729 245.641,125.729 z" id="boundary" inkscape:connector-curvature="0" />
	<path style="fill:none;stroke:red;stroke-width:1px;stroke-linecap:butt;stroke-linejoin:miter;stroke-opacity:1" d="M 263.81,125.729 280.161,134.813 z" id="boundary" inkscape:connector-curvature="0" />
	<path style="fill:none;stroke:red;stroke-width:1px;stroke-linecap:butt;stroke-linejoin:miter;stroke-opacity:1" d="M 298.33,134.813 280.161,134.813 z" id="boundary" inkscape:connector-curvature="0" />
	<path style="fill:none;stroke:red;stroke-width:1px;stroke-linecap:butt;stroke-linejoin:miter;stroke-opacity:1" d="M 316.498,134.813 298.33,134.813 z" id="boundary" inkscape:connector-curvature="0" />
	<path style="fill:none;stroke:red;stroke-width:1px;stroke-linecap:butt;stroke-linejoin:miter;stroke-opacity:1" d="M 352.835,134.813 334.667,134.813 z" id="boundary" inkscape:connector-curvature="0" />
	<path style="fill:none;stroke:red;stroke-width:1px;stroke-linecap:butt;stroke-linejoin:miter;stroke-opacity:1" d="M 358.286,100.293 367.37,116.645 z" id="boundary" inkscape:connector-curvature="0" />
	<path style="fill:none;stroke:red;stroke-width:1px;stroke-linecap:butt;stroke-linejoin:miter;stroke-opacity:1" d="M 367.37,116.645 352.835,134.813 z" id="boundary" inkscape:connector-curvature="0" />
	<path style="fill:none;stroke:red;stroke-width:1px;stroke-linecap:butt;stroke-linejoin:miter;stroke-opacity:1" d="M 334.667,134.813 316.498,134.813 z" id="boundary" inkscape:connector-curvature="0" />
	<path style="fill:none;stroke:red;stroke-width:1px;stroke-linecap:butt;stroke-linejoin:miter;stroke-opacity:1" d="M 51.2381,481.832 33.0696,481.832 z" id="boundary" inkscape:connector-curvature="0" />
	<path style="fill:none;stroke:red;stroke-width:1px;stroke-linecap:butt;stroke-linejoin:miter;stroke-opacity:1" d="M 33.0696,481.832 18.5348,470.93 z" id="boundary" inkscape:connector-curvature="0" />
	<path style="fill:none;stroke:red;stroke-width:1px;stroke-linecap:butt;stroke-linejoin:miter;stroke-opacity:1" d="M 4,530.886 18.5348,516.352 z" id="boundary" inkscape:connector-curvature="0" />
	<path style="fill:none;stroke:red;stroke-width:1px;stroke-linecap:butt;stroke-linejoin:miter;stroke-opacity:1" d="M 36.7033,516.352 18.5348,516.352 z" id="boundary" inkscape:connector-curvature="0" />
	<path style="fill:none;stroke:red;stroke-width:1px;stroke-linecap:butt;stroke-linejoin:miter;stroke-opacity:1" d="M 53.0549,525.436 36.7033,516.352 z" id="boundary" inkscape:connector-curvature="0" />
	<path style="fill:none;stroke:red;stroke-width:1px;stroke-linecap:butt;stroke-linejoin:miter;stroke-opacity:1" d="M 69.4066,481.832 87.5751,481.832 z" id="boundary" inkscape:connector-curvature="0" />
	<path style="fill:none;stroke:red;stroke-width:1px;stroke-linecap:butt;stroke-linejoin:miter;stroke-opacity:1" d="M 69.4066,481.832 51.2381,481.832 z" id="boundary" inkscape:connector-curvature="0" />
	<path style="fill:none;stroke:red;stroke-width:1px;stroke-linecap:butt;stroke-linejoin:miter;stroke-opacity:1" d="M 67.5897,538.154 53.0549,525.436 z" id="boundary" inkscape:connector-curvature="0" />
	<path style="fill:none;stroke:red;stroke-width:1px;stroke-linecap:butt;stroke-linejoin:miter;stroke-opacity:1" d="M 87.5751,481.832 105.744,481.832 z" id="boundary" inkscape:connector-curvature="0" />
	<path style="fill:none;stroke:red;stroke-width:1px;stroke-linecap:butt;stroke-linejoin:miter;stroke-opacity:1" d="M 105.744,481.832 123.912,481.832 z" id="boundary" inkscape:connector-curvature="0" />
	<path style="fill:none;stroke:red;stroke-width:1px;stroke-linecap:butt;stroke-linejoin:miter;stroke-opacity:1" d="M 14.9011,563.59 4,549.055 z" id="boundary" inkscape:connector-curvature="0" />
	<path style="fill:none;stroke:red;stroke-width:1px;stroke-linecap:butt;stroke-linejoin:miter;stroke-opacity:1" d="M 33.0696,563.59 14.9011,563.59 z" id="boundary" inkscape:connector-curvature="0" />
	<path style="fill:none;stroke:red;stroke-width:1px;stroke-linecap:butt;stroke-linejoin:miter;stroke-opacity:1" d="M 67.5897,538.154 78.4908,552.689 z" id="boundary" inkscape:connector-curvature="0" />
	<path style="fill:none;stroke:red;stroke-width:1px;stroke-linecap:butt;stroke-linejoin:miter;stroke-opacity:1" d="M 4,549.055 4,530.886 z" id="boundary" inkscape:connector-curvature="0" />
	<path style="fill:none;stroke:red;stroke-width:1px;stroke-linecap:butt;stroke-linejoin:miter;stroke-opacity:1" d="M 51.2381,567.223 69.4066,572.674 z" id="boundary" inkscape:connector-curvature="0" />
	<path style="fill:none;stroke:red;stroke-width:1px;stroke-linecap:butt;stroke-linejoin:miter;stroke-opacity:1" d="M 51.2381,567.223 33.0696,563.59 z" id="boundary" inkscape:connector-curvature="0" />
	<path style="fill:none;stroke:red;stroke-width:1px;stroke-linecap:butt;stroke-linejoin:miter;stroke-opacity:1" d="M 87.5751,572.674 69.4066,572.674 z" id="boundary" inkscape:connector-curvature="0" />
	<path style="fill:none;stroke:red;stroke-width:1px;stroke-linecap:butt;stroke-linejoin:miter;stroke-opacity:1" d="M 114.828,552.689 96.6593,552.689 z" id="boundary" inkscape:connector-curvature="0" />
	<path style="fill:none;stroke:red;stroke-width:1px;stroke-linecap:butt;stroke-linejoin:miter;stroke-opacity:1" d="M 96.6593,552.689 78.4908,552.689 z" id="boundary" inkscape:connector-curvature="0" />
	<path style="fill:none;stroke:red;stroke-width:1px;stroke-linecap:butt;stroke-linejoin:miter;stroke-opacity:1" d="M 114.828,552.689 132.996,547.238 z" id="boundary" inkscape:connector-curvature="0" />
	<path style="fill:none;stroke:red;stroke-width:1px;stroke-linecap:butt;stroke-linejoin:miter;stroke-opacity:1" d="M 105.744,572.674 87.5751,572.674 z" id="boundary" inkscape:connector-curvature="0" />
	<path style="fill:none;stroke:red;stroke-width:1px;stroke-linecap:butt;stroke-linejoin:miter;stroke-opacity:1" d="M 123.912,572.674 105.744,572.674 z" id="boundary" inkscape:connector-curvature="0" />
	<path style="fill:none;stroke:red;stroke-width:1px;stroke-linecap:butt;stroke-linejoin:miter;stroke-opacity:1" d="M 142.081,572.674 123.912,572.674 z" id="boundary" inkscape:connector-curvature="0" />
	<path style="fill:none;stroke:red;stroke-width:1px;stroke-linecap:butt;stroke-linejoin:miter;stroke-opacity:1" d="M 147.531,534.52 132.996,547.238 z" id="boundary" inkscape:connector-curvature="0" />
	<path style="fill:none;stroke:red;stroke-width:1px;stroke-linecap:butt;stroke-linejoin:miter;stroke-opacity:1" d="M 142.081,481.832 160.249,481.832 z" id="boundary" inkscape:connector-curvature="0" />
	<path style="fill:none;stroke:red;stroke-width:1px;stroke-linecap:butt;stroke-linejoin:miter;stroke-opacity:1" d="M 142.081,481.832 123.912,481.832 z" id="boundary" inkscape:connector-curvature="0" />
	<path style="fill:none;stroke:red;stroke-width:1px;stroke-linecap:butt;stroke-linejoin:miter;stroke-opacity:1" d="M 165.7,534.52 147.531,534.52 z" id="boundary" inkscape:connector-curvature="0" />
	<path style="fill:none;stroke:red;stroke-width:1px;stroke-linecap:butt;stroke-linejoin:miter;stroke-opacity:1" d="M 176.601,563.59 158.432,563.59 z" id="boundary" inkscape:connector-curvature="0" />
	<path style="fill:none;stroke:red;stroke-width:1px;stroke-linecap:butt;stroke-linejoin:miter;stroke-opacity:1" d="M 165.7,534.52 183.868,534.52 z" id="boundary" inkscape:connector-curvature="0" />
	<path style="fill:none;stroke:red;stroke-width:1px;stroke-linecap:butt;stroke-linejoin:miter;stroke-opacity:1" d="M 142.081,572.674 158.432,563.59 z" id="boundary" inkscape:connector-curvature="0" />
	<path style="fill:none;stroke:red;stroke-width:1px;stroke-linecap:butt;stroke-linejoin:miter;stroke-opacity:1" d="M 160.249,481.832 178.418,481.832 z" id="boundary" inkscape:connector-curvature="0" />
	<path style="fill:none;stroke:red;stroke-width:1px;stroke-linecap:butt;stroke-linejoin:miter;stroke-opacity:1" d="M 178.418,481.832 196.586,481.832 z" id="boundary" inkscape:connector-curvature="0" />
	<path style="fill:none;stroke:red;stroke-width:1px;stroke-linecap:butt;stroke-linejoin:miter;stroke-opacity:1" d="M 196.586,481.832 203.853,500 z" id="boundary" inkscape:connector-curvature="0" />
	<path style="fill:none;stroke:red;stroke-width:1px;stroke-linecap:butt;stroke-linejoin:miter;stroke-opacity:1" d="M 183.868,534.52 200.22,525.436 z" id="boundary" inkscape:connector-curvature="0" />
	<path style="fill:none;stroke:red;stroke-width:1px;stroke-linecap:butt;stroke-linejoin:miter;stroke-opacity:1" d="M 203.853,500 200.22,525.436 z" id="boundary" inkscape:connector-curvature="0" />
	<path style="fill:none;stroke:red;stroke-width:1px;stroke-linecap:butt;stroke-linejoin:miter;stroke-opacity:1" d="M 194.769,563.59 176.601,563.59 z" id="boundary" inkscape:connector-curvature="0" />
	<path style="fill:none;stroke:red;stroke-width:1px;stroke-linecap:butt;stroke-linejoin:miter;stroke-opacity:1" d="M 340.117,563.59 321.949,563.59 z" id="boundary" inkscape:connector-curvature="0" />
	<path style="fill:none;stroke:red;stroke-width:1px;stroke-linecap:butt;stroke-linejoin:miter;stroke-opacity:1" d="M 194.769,563.59 212.938,563.59 z" id="boundary" inkscape:connector-curvature="0" />
	<path style="fill:none;stroke:red;stroke-width:1px;stroke-linecap:butt;stroke-linejoin:miter;stroke-opacity:1" d="M 231.106,563.59 212.938,563.59 z" id="boundary" inkscape:connector-curvature="0" />
	<path style="fill:none;stroke:red;stroke-width:1px;stroke-linecap:butt;stroke-linejoin:miter;stroke-opacity:1" d="M 249.275,563.59 267.443,563.59 z" id="boundary" inkscape:connector-curvature="0" />
	<path style="fill:none;stroke:red;stroke-width:1px;stroke-linecap:butt;stroke-linejoin:miter;stroke-opacity:1" d="M 231.106,563.59 249.275,563.59 z" id="boundary" inkscape:connector-curvature="0" />
	<path style="fill:none;stroke:red;stroke-width:1px;stroke-linecap:butt;stroke-linejoin:miter;stroke-opacity:1" d="M 267.443,563.59 285.612,563.59 z" id="boundary" inkscape:connector-curvature="0" />
	<path style="fill:none;stroke:red;stroke-width:1px;stroke-linecap:butt;stroke-linejoin:miter;stroke-opacity:1" d="M 285.612,563.59 303.78,563.59 z" id="boundary" inkscape:connector-curvature="0" />
	<path style="fill:none;stroke:red;stroke-width:1px;stroke-linecap:butt;stroke-linejoin:miter;stroke-opacity:1" d="M 321.949,563.59 303.78,563.59 z" id="boundary" inkscape:connector-curvature="0" />
	<path style="fill:none;stroke:red;stroke-width:1px;stroke-linecap:butt;stroke-linejoin:miter;stroke-opacity:1" d="M 340.117,563.59 358.286,563.59 z" id="boundary" inkscape:connector-curvature="0" />
	<path style="fill:none;stroke:red;stroke-width:1px;stroke-linecap:butt;stroke-linejoin:miter;stroke-opacity:1" d="M 374.637,554.505 358.286,563.59 z" id="boundary" inkscape:connector-curvature="0" />
	<path style="fill:none;stroke:red;stroke-width:1px;stroke-linecap:butt;stroke-linejoin:miter;stroke-opacity:1" d="M 374.637,554.505 390.989,563.59 z" id="boundary" inkscape:connector-curvature="0" />
	<path style="fill:none;stroke:red;stroke-width:1px;stroke-linecap:butt;stroke-linejoin:miter;stroke-opacity:1" d="M 407.341,554.505 390.989,563.59 z" id="boundary" inkscape:connector-curvature="0" />
	<path style="fill:none;stroke:red;stroke-width:1px;stroke-linecap:butt;stroke-linejoin:miter;stroke-opacity:1" d="M 394.623,11.2674 410.974,20.3516 z" id="boundary" inkscape:connector-curvature="0" />
	<path style="fill:none;stroke:red;stroke-width:1px;stroke-linecap:butt;stroke-linejoin:miter;stroke-opacity:1" d="M 410.974,20.3516 405.524,45.7875 z" id="boundary" inkscape:connector-curvature="0" />
	<path style="fill:none;stroke:red;stroke-width:1px;stroke-linecap:butt;stroke-linejoin:miter;stroke-opacity:1" d="M 410.974,73.0403 405.524,45.7875 z" id="boundary" inkscape:connector-curvature="0" />
	<path style="fill:none;stroke:red;stroke-width:1px;stroke-linecap:butt;stroke-linejoin:miter;stroke-opacity:1" d="M 405.524,109.377 405.524,91.2088 z" id="boundary" inkscape:connector-curvature="0" />
	<path style="fill:none;stroke:red;stroke-width:1px;stroke-linecap:butt;stroke-linejoin:miter;stroke-opacity:1" d="M 410.974,73.0403 405.524,91.2088 z" id="boundary" inkscape:connector-curvature="0" />
	<path style="fill:none;stroke:red;stroke-width:1px;stroke-linecap:butt;stroke-linejoin:miter;stroke-opacity:1" d="M 405.524,109.377 414.608,125.729 z" id="boundary" inkscape:connector-curvature="0" />
	<path style="fill:none;stroke:red;stroke-width:1px;stroke-linecap:butt;stroke-linejoin:miter;stroke-opacity:1" d="M 490.916,107.56 507.267,98.4762 z" id="boundary" inkscape:connector-curvature="0" />
	<path style="fill:none;stroke:red;stroke-width:1px;stroke-linecap:butt;stroke-linejoin:miter;stroke-opacity:1" d="M 507.267,98.4762 523.619,107.56 z" id="boundary" inkscape:connector-curvature="0" />
	<path style="fill:none;stroke:red;stroke-width:1px;stroke-linecap:butt;stroke-linejoin:miter;stroke-opacity:1" d="M 541.788,107.56 523.619,107.56 z" id="boundary" inkscape:connector-curvature="0" />
	<path style="fill:none;stroke:red;stroke-width:1px;stroke-linecap:butt;stroke-linejoin:miter;stroke-opacity:1" d="M 474.564,116.645 490.916,107.56 z" id="boundary" inkscape:connector-curvature="0" />
	<path style="fill:none;stroke:red;stroke-width:1px;stroke-linecap:butt;stroke-linejoin:miter;stroke-opacity:1" d="M 460.029,129.363 474.564,116.645 z" id="boundary" inkscape:connector-curvature="0" />
	<path style="fill:none;stroke:red;stroke-width:1px;stroke-linecap:butt;stroke-linejoin:miter;stroke-opacity:1" d="M 541.788,107.56 556.322,118.462 z" id="boundary" inkscape:connector-curvature="0" />
	<path style="fill:none;stroke:red;stroke-width:1px;stroke-linecap:butt;stroke-linejoin:miter;stroke-opacity:1" d="M 627.179,134.813 609.011,134.813 z" id="boundary" inkscape:connector-curvature="0" />
	<path style="fill:none;stroke:red;stroke-width:1px;stroke-linecap:butt;stroke-linejoin:miter;stroke-opacity:1" d="M 556.322,118.462 572.674,127.546 z" id="boundary" inkscape:connector-curvature="0" />
	<path style="fill:none;stroke:red;stroke-width:1px;stroke-linecap:butt;stroke-linejoin:miter;stroke-opacity:1" d="M 460.029,129.363 441.861,138.447 z" id="boundary" inkscape:connector-curvature="0" />
	<path style="fill:none;stroke:red;stroke-width:1px;stroke-linecap:butt;stroke-linejoin:miter;stroke-opacity:1" d="M 423.692,142.081 441.861,138.447 z" id="boundary" inkscape:connector-curvature="0" />
	<path style="fill:none;stroke:red;stroke-width:1px;stroke-linecap:butt;stroke-linejoin:miter;stroke-opacity:1" d="M 423.692,142.081 414.608,125.729 z" id="boundary" inkscape:connector-curvature="0" />
	<path style="fill:none;stroke:red;stroke-width:1px;stroke-linecap:butt;stroke-linejoin:miter;stroke-opacity:1" d="M 594.476,200.22 578.125,209.304 z" id="boundary" inkscape:connector-curvature="0" />
	<path style="fill:none;stroke:red;stroke-width:1px;stroke-linecap:butt;stroke-linejoin:miter;stroke-opacity:1" d="M 590.842,134.813 609.011,134.813 z" id="boundary" inkscape:connector-curvature="0" />
	<path style="fill:none;stroke:red;stroke-width:1px;stroke-linecap:butt;stroke-linejoin:miter;stroke-opacity:1" d="M 590.842,134.813 572.674,127.546 z" id="boundary" inkscape:connector-curvature="0" />
	<path style="fill:none;stroke:red;stroke-width:1px;stroke-linecap:butt;stroke-linejoin:miter;stroke-opacity:1" d="M 612.645,194.769 630.813,194.769 z" id="boundary" inkscape:connector-curvature="0" />
	<path style="fill:none;stroke:red;stroke-width:1px;stroke-linecap:butt;stroke-linejoin:miter;stroke-opacity:1" d="M 612.645,194.769 594.476,200.22 z" id="boundary" inkscape:connector-curvature="0" />
	<path style="fill:none;stroke:red;stroke-width:1px;stroke-linecap:butt;stroke-linejoin:miter;stroke-opacity:1" d="M 621.729,216.571 603.56,216.571 z" id="boundary" inkscape:connector-curvature="0" />
	<path style="fill:none;stroke:red;stroke-width:1px;stroke-linecap:butt;stroke-linejoin:miter;stroke-opacity:1" d="M 603.56,216.571 578.125,209.304 z" id="boundary" inkscape:connector-curvature="0" />
	<path style="fill:none;stroke:red;stroke-width:1px;stroke-linecap:butt;stroke-linejoin:miter;stroke-opacity:1" d="M 627.179,134.813 643.531,143.897 z" id="boundary" inkscape:connector-curvature="0" />
	<path style="fill:none;stroke:red;stroke-width:1px;stroke-linecap:butt;stroke-linejoin:miter;stroke-opacity:1" d="M 643.531,143.897 650.799,162.066 z" id="boundary" inkscape:connector-curvature="0" />
	<path style="fill:none;stroke:red;stroke-width:1px;stroke-linecap:butt;stroke-linejoin:miter;stroke-opacity:1" d="M 650.799,162.066 645.348,182.051 z" id="boundary" inkscape:connector-curvature="0" />
	<path style="fill:none;stroke:red;stroke-width:1px;stroke-linecap:butt;stroke-linejoin:miter;stroke-opacity:1" d="M 630.813,194.769 645.348,182.051 z" id="boundary" inkscape:connector-curvature="0" />
	<path style="fill:none;stroke:red;stroke-width:1px;stroke-linecap:butt;stroke-linejoin:miter;stroke-opacity:1" d="M 857.919,198.403 839.751,203.853 z" id="boundary" inkscape:connector-curvature="0" />
	<path style="fill:none;stroke:red;stroke-width:1px;stroke-linecap:butt;stroke-linejoin:miter;stroke-opacity:1" d="M 876.088,198.403 857.919,198.403 z" id="boundary" inkscape:connector-curvature="0" />
	<path style="fill:none;stroke:red;stroke-width:1px;stroke-linecap:butt;stroke-linejoin:miter;stroke-opacity:1" d="M 894.256,198.403 876.088,198.403 z" id="boundary" inkscape:connector-curvature="0" />
	<path style="fill:none;stroke:red;stroke-width:1px;stroke-linecap:butt;stroke-linejoin:miter;stroke-opacity:1" d="M 912.425,198.403 894.256,198.403 z" id="boundary" inkscape:connector-curvature="0" />
	<path style="fill:none;stroke:red;stroke-width:1px;stroke-linecap:butt;stroke-linejoin:miter;stroke-opacity:1" d="M 930.593,198.403 948.762,198.403 z" id="boundary" inkscape:connector-curvature="0" />
	<path style="fill:none;stroke:red;stroke-width:1px;stroke-linecap:butt;stroke-linejoin:miter;stroke-opacity:1" d="M 966.93,198.403 948.762,198.403 z" id="boundary" inkscape:connector-curvature="0" />
	<path style="fill:none;stroke:red;stroke-width:1px;stroke-linecap:butt;stroke-linejoin:miter;stroke-opacity:1" d="M 930.593,198.403 912.425,198.403 z" id="boundary" inkscape:connector-curvature="0" />
	<path style="fill:none;stroke:red;stroke-width:1px;stroke-linecap:butt;stroke-linejoin:miter;stroke-opacity:1" d="M 639.897,216.571 658.066,216.571 z" id="boundary" inkscape:connector-curvature="0" />
	<path style="fill:none;stroke:red;stroke-width:1px;stroke-linecap:butt;stroke-linejoin:miter;stroke-opacity:1" d="M 676.234,216.571 658.066,216.571 z" id="boundary" inkscape:connector-curvature="0" />
	<path style="fill:none;stroke:red;stroke-width:1px;stroke-linecap:butt;stroke-linejoin:miter;stroke-opacity:1" d="M 694.403,216.571 712.571,216.571 z" id="boundary" inkscape:connector-curvature="0" />
	<path style="fill:none;stroke:red;stroke-width:1px;stroke-linecap:butt;stroke-linejoin:miter;stroke-opacity:1" d="M 730.74,216.571 712.571,216.571 z" id="boundary" inkscape:connector-curvature="0" />
	<path style="fill:none;stroke:red;stroke-width:1px;stroke-linecap:butt;stroke-linejoin:miter;stroke-opacity:1" d="M 694.403,216.571 676.234,216.571 z" id="boundary" inkscape:connector-curvature="0" />
	<path style="fill:none;stroke:red;stroke-width:1px;stroke-linecap:butt;stroke-linejoin:miter;stroke-opacity:1" d="M 803.414,212.938 821.582,207.487 z" id="boundary" inkscape:connector-curvature="0" />
	<path style="fill:none;stroke:red;stroke-width:1px;stroke-linecap:butt;stroke-linejoin:miter;stroke-opacity:1" d="M 748.908,216.571 730.74,216.571 z" id="boundary" inkscape:connector-curvature="0" />
	<path style="fill:none;stroke:red;stroke-width:1px;stroke-linecap:butt;stroke-linejoin:miter;stroke-opacity:1" d="M 966.93,198.403 985.099,198.403 z" id="boundary" inkscape:connector-curvature="0" />
	<path style="fill:none;stroke:red;stroke-width:1px;stroke-linecap:butt;stroke-linejoin:miter;stroke-opacity:1" d="M 767.077,216.571 748.908,216.571 z" id="boundary" inkscape:connector-curvature="0" />
	<path style="fill:none;stroke:red;stroke-width:1px;stroke-linecap:butt;stroke-linejoin:miter;stroke-opacity:1" d="M 821.582,207.487 839.751,203.853 z" id="boundary" inkscape:connector-curvature="0" />
	<path style="fill:none;stroke:red;stroke-width:1px;stroke-linecap:butt;stroke-linejoin:miter;stroke-opacity:1" d="M 985.099,198.403 996,212.938 z" id="boundary" inkscape:connector-curvature="0" />
	<path style="fill:none;stroke:red;stroke-width:1px;stroke-linecap:butt;stroke-linejoin:miter;stroke-opacity:1" d="M 996,212.938 985.099,231.106 z" id="boundary" inkscape:connector-curvature="0" />
	<path style="fill:none;stroke:red;stroke-width:1px;stroke-linecap:butt;stroke-linejoin:miter;stroke-opacity:1" d="M 639.897,216.571 621.729,216.571 z" id="boundary" inkscape:connector-curvature="0" />
	<path style="fill:none;stroke:red;stroke-width:1px;stroke-linecap:butt;stroke-linejoin:miter;stroke-opacity:1" d="M 450.945,481.832 432.777,481.832 z" id="boundary" inkscape:connector-curvature="0" />
	<path style="fill:none;stroke:red;stroke-width:1px;stroke-linecap:butt;stroke-linejoin:miter;stroke-opacity:1" d="M 632.63,389.172 623.546,372.821 z" id="boundary" inkscape:connector-curvature="0" />
	<path style="fill:none;stroke:red;stroke-width:1px;stroke-linecap:butt;stroke-linejoin:miter;stroke-opacity:1" d="M 623.546,372.821 639.897,363.736 z" id="boundary" inkscape:connector-curvature="0" />
	<path style="fill:none;stroke:red;stroke-width:1px;stroke-linecap:butt;stroke-linejoin:miter;stroke-opacity:1" d="M 505.451,481.832 487.282,481.832 z" id="boundary" inkscape:connector-curvature="0" />
	<path style="fill:none;stroke:red;stroke-width:1px;stroke-linecap:butt;stroke-linejoin:miter;stroke-opacity:1" d="M 450.945,481.832 469.114,481.832 z" id="boundary" inkscape:connector-curvature="0" />
	<path style="fill:none;stroke:red;stroke-width:1px;stroke-linecap:butt;stroke-linejoin:miter;stroke-opacity:1" d="M 487.282,481.832 469.114,481.832 z" id="boundary" inkscape:connector-curvature="0" />
	<path style="fill:none;stroke:red;stroke-width:1px;stroke-linecap:butt;stroke-linejoin:miter;stroke-opacity:1" d="M 432.777,500 432.777,481.832 z" id="boundary" inkscape:connector-curvature="0" />
	<path style="fill:none;stroke:red;stroke-width:1px;stroke-linecap:butt;stroke-linejoin:miter;stroke-opacity:1" d="M 639.897,363.736 656.249,354.652 z" id="boundary" inkscape:connector-curvature="0" />
	<path style="fill:none;stroke:red;stroke-width:1px;stroke-linecap:butt;stroke-linejoin:miter;stroke-opacity:1" d="M 659.883,405.524 650.799,389.172 z" id="boundary" inkscape:connector-curvature="0" />
	<path style="fill:none;stroke:red;stroke-width:1px;stroke-linecap:butt;stroke-linejoin:miter;stroke-opacity:1" d="M 632.63,389.172 650.799,389.172 z" id="boundary" inkscape:connector-curvature="0" />
	<path style="fill:none;stroke:red;stroke-width:1px;stroke-linecap:butt;stroke-linejoin:miter;stroke-opacity:1" d="M 667.15,472.747 648.982,472.747 z" id="boundary" inkscape:connector-curvature="0" />
	<path style="fill:none;stroke:red;stroke-width:1px;stroke-linecap:butt;stroke-linejoin:miter;stroke-opacity:1" d="M 659.883,405.524 674.418,418.242 z" id="boundary" inkscape:connector-curvature="0" />
	<path style="fill:none;stroke:red;stroke-width:1px;stroke-linecap:butt;stroke-linejoin:miter;stroke-opacity:1" d="M 656.249,354.652 674.418,351.018 z" id="boundary" inkscape:connector-curvature="0" />
	<path style="fill:none;stroke:red;stroke-width:1px;stroke-linecap:butt;stroke-linejoin:miter;stroke-opacity:1" d="M 632.63,481.832 648.982,472.747 z" id="boundary" inkscape:connector-curvature="0" />
	<path style="fill:none;stroke:red;stroke-width:1px;stroke-linecap:butt;stroke-linejoin:miter;stroke-opacity:1" d="M 432.777,518.168 432.777,500 z" id="boundary" inkscape:connector-curvature="0" />
	<path style="fill:none;stroke:red;stroke-width:1px;stroke-linecap:butt;stroke-linejoin:miter;stroke-opacity:1" d="M 523.619,481.832 505.451,481.832 z" id="boundary" inkscape:connector-curvature="0" />
	<path style="fill:none;stroke:red;stroke-width:1px;stroke-linecap:butt;stroke-linejoin:miter;stroke-opacity:1" d="M 432.777,518.168 423.692,545.421 z" id="boundary" inkscape:connector-curvature="0" />
	<path style="fill:none;stroke:red;stroke-width:1px;stroke-linecap:butt;stroke-linejoin:miter;stroke-opacity:1" d="M 423.692,545.421 407.341,554.505 z" id="boundary" inkscape:connector-curvature="0" />
	<path style="fill:none;stroke:red;stroke-width:1px;stroke-linecap:butt;stroke-linejoin:miter;stroke-opacity:1" d="M 523.619,481.832 541.788,481.832 z" id="boundary" inkscape:connector-curvature="0" />
	<path style="fill:none;stroke:red;stroke-width:1px;stroke-linecap:butt;stroke-linejoin:miter;stroke-opacity:1" d="M 541.788,481.832 559.956,481.832 z" id="boundary" inkscape:connector-curvature="0" />
	<path style="fill:none;stroke:red;stroke-width:1px;stroke-linecap:butt;stroke-linejoin:miter;stroke-opacity:1" d="M 578.125,481.832 559.956,481.832 z" id="boundary" inkscape:connector-curvature="0" />
	<path style="fill:none;stroke:red;stroke-width:1px;stroke-linecap:butt;stroke-linejoin:miter;stroke-opacity:1" d="M 596.293,481.832 614.462,481.832 z" id="boundary" inkscape:connector-curvature="0" />
	<path style="fill:none;stroke:red;stroke-width:1px;stroke-linecap:butt;stroke-linejoin:miter;stroke-opacity:1" d="M 632.63,481.832 614.462,481.832 z" id="boundary" inkscape:connector-curvature="0" />
	<path style="fill:none;stroke:red;stroke-width:1px;stroke-linecap:butt;stroke-linejoin:miter;stroke-opacity:1" d="M 596.293,481.832 578.125,481.832 z" id="boundary" inkscape:connector-curvature="0" />
	<path style="fill:none;stroke:red;stroke-width:1px;stroke-linecap:butt;stroke-linejoin:miter;stroke-opacity:1" d="M 667.15,472.747 685.319,467.297 z" id="boundary" inkscape:connector-curvature="0" />
	<path style="fill:none;stroke:red;stroke-width:1px;stroke-linecap:butt;stroke-linejoin:miter;stroke-opacity:1" d="M 767.077,216.571 785.245,216.571 z" id="boundary" inkscape:connector-curvature="0" />
	<path style="fill:none;stroke:red;stroke-width:1px;stroke-linecap:butt;stroke-linejoin:miter;stroke-opacity:1" d="M 803.414,212.938 785.245,216.571 z" id="boundary" inkscape:connector-curvature="0" />
	<path style="fill:none;stroke:red;stroke-width:1px;stroke-linecap:butt;stroke-linejoin:miter;stroke-opacity:1" d="M 881.538,271.077 863.37,271.077 z" id="boundary" inkscape:connector-curvature="0" />
	<path style="fill:none;stroke:red;stroke-width:1px;stroke-linecap:butt;stroke-linejoin:miter;stroke-opacity:1" d="M 845.201,280.161 830.667,294.696 z" id="boundary" inkscape:connector-curvature="0" />
	<path style="fill:none;stroke:red;stroke-width:1px;stroke-linecap:butt;stroke-linejoin:miter;stroke-opacity:1" d="M 845.201,280.161 863.37,271.077 z" id="boundary" inkscape:connector-curvature="0" />
	<path style="fill:none;stroke:red;stroke-width:1px;stroke-linecap:butt;stroke-linejoin:miter;stroke-opacity:1" d="M 830.667,294.696 812.498,303.78 z" id="boundary" inkscape:connector-curvature="0" />
	<path style="fill:none;stroke:red;stroke-width:1px;stroke-linecap:butt;stroke-linejoin:miter;stroke-opacity:1" d="M 948.762,236.557 966.93,231.106 z" id="boundary" inkscape:connector-curvature="0" />
	<path style="fill:none;stroke:red;stroke-width:1px;stroke-linecap:butt;stroke-linejoin:miter;stroke-opacity:1" d="M 966.93,231.106 985.099,231.106 z" id="boundary" inkscape:connector-curvature="0" />
	<path style="fill:none;stroke:red;stroke-width:1px;stroke-linecap:butt;stroke-linejoin:miter;stroke-opacity:1" d="M 914.242,245.641 899.707,261.993 z" id="boundary" inkscape:connector-curvature="0" />
	<path style="fill:none;stroke:red;stroke-width:1px;stroke-linecap:butt;stroke-linejoin:miter;stroke-opacity:1" d="M 932.41,245.641 948.762,236.557 z" id="boundary" inkscape:connector-curvature="0" />
	<path style="fill:none;stroke:red;stroke-width:1px;stroke-linecap:butt;stroke-linejoin:miter;stroke-opacity:1" d="M 914.242,245.641 932.41,245.641 z" id="boundary" inkscape:connector-curvature="0" />
	<path style="fill:none;stroke:red;stroke-width:1px;stroke-linecap:butt;stroke-linejoin:miter;stroke-opacity:1" d="M 899.707,261.993 881.538,271.077 z" id="boundary" inkscape:connector-curvature="0" />
	<path style="fill:none;stroke:red;stroke-width:1px;stroke-linecap:butt;stroke-linejoin:miter;stroke-opacity:1" d="M 708.938,345.568 692.586,354.652 z" id="boundary" inkscape:connector-curvature="0" />
	<path style="fill:none;stroke:red;stroke-width:1px;stroke-linecap:butt;stroke-linejoin:miter;stroke-opacity:1" d="M 692.586,354.652 674.418,351.018 z" id="boundary" inkscape:connector-curvature="0" />
	<path style="fill:none;stroke:red;stroke-width:1px;stroke-linecap:butt;stroke-linejoin:miter;stroke-opacity:1" d="M 687.136,432.777 685.319,467.297 z" id="boundary" inkscape:connector-curvature="0" />
	<path style="fill:none;stroke:red;stroke-width:1px;stroke-linecap:butt;stroke-linejoin:miter;stroke-opacity:1" d="M 687.136,432.777 674.418,418.242 z" id="boundary" inkscape:connector-curvature="0" />
	<path style="fill:none;stroke:red;stroke-width:1px;stroke-linecap:butt;stroke-linejoin:miter;stroke-opacity:1" d="M 708.938,345.568 725.289,336.484 z" id="boundary" inkscape:connector-curvature="0" />
	<path style="fill:none;stroke:red;stroke-width:1px;stroke-linecap:butt;stroke-linejoin:miter;stroke-opacity:1" d="M 812.498,303.78 794.33,309.231 z" id="boundary" inkscape:connector-curvature="0" />
	<path style="fill:none;stroke:red;stroke-width:1px;stroke-linecap:butt;stroke-linejoin:miter;stroke-opacity:1" d="M 777.978,318.315 794.33,309.231 z" id="boundary" inkscape:connector-curvature="0" />
	<path style="fill:none;stroke:red;stroke-width:1px;stroke-linecap:butt;stroke-linejoin:miter;stroke-opacity:1" d="M 777.978,318.315 759.81,318.315 z" id="boundary" inkscape:connector-curvature="0" />
	<path style="fill:none;stroke:red;stroke-width:1px;stroke-linecap:butt;stroke-linejoin:miter;stroke-opacity:1" d="M 741.641,327.399 759.81,318.315 z" id="boundary" inkscape:connector-curvature="0" />
	<path style="fill:none;stroke:red;stroke-width:1px;stroke-linecap:butt;stroke-linejoin:miter;stroke-opacity:1" d="M 725.289,336.484 741.641,327.399 z" id="boundary" inkscape:connector-curvature="0" />
	<circle cx="4" cy="367.37" r="4" fill="#0" id="circle0"/>
	<circle cx="4" cy="385.538" r="4" fill="#0" id="circle1"/>
	<circle cx="4" cy="403.707" r="4" fill="#0" id="circle2"/>
	<circle cx="4" cy="421.875" r="4" fill="#0" id="circle3"/>
	<circle cx="4" cy="440.044" r="4" fill="#0" id="circle4"/>
	<circle cx="4" cy="458.212" r="4" fill="#0" id="circle5"/>
	<circle cx="4" cy="530.886" r="4" fill="#0" id="circle6"/>
	<circle cx="4" cy="549.055" r="4" fill="#0" id="circle7"/>
	<circle cx="13.0842" cy="276.527" r="4" fill="#0" id="circle8"/>
	<circle cx="13.0842" cy="294.696" r="4" fill="#0" id="circle9"/>
	<circle cx="13.0842" cy="312.864" r="4" fill="#0" id="circle10"/>
	<circle cx="13.0842" cy="331.033" r="4" fill="#0" id="circle11"/>
	<circle cx="13.0842" cy="349.201" r="4" fill="#0" id="circle12"/>
	<circle cx="14.9011" cy="563.59" r="4" fill="#0" id="circle13"/>
	<circle cx="18.5348" cy="470.93" r="4" fill="#0" id="circle14"/>
	<circle cx="18.5348" cy="516.352" r="4" fill="#0" id="circle15"/>
	<circle cx="22.1685" cy="258.359" r="4" fill="#0" id="circle16"/>
	<circle cx="31.2527" cy="240.19" r="4" fill="#0" id="circle17"/>
	<circle cx="33.0696" cy="481.832" r="4" fill="#0" id="circle18"/>
	<circle cx="33.0696" cy="563.59" r="4" fill="#0" id="circle19"/>
	<circle cx="36.7033" cy="516.352" r="4" fill="#0" id="circle20"/>
	<circle cx="49.4212" cy="222.022" r="4" fill="#0" id="circle21"/>
	<circle cx="51.2381" cy="481.832" r="4" fill="#0" id="circle22"/>
	<circle cx="51.2381" cy="567.223" r="4" fill="#0" id="circle23"/>
	<circle cx="53.0549" cy="525.436" r="4" fill="#0" id="circle24"/>
	<circle cx="63.956" cy="207.487" r="4" fill="#0" id="circle25"/>
	<circle cx="67.5897" cy="538.154" r="4" fill="#0" id="circle26"/>
	<circle cx="69.4066" cy="481.832" r="4" fill="#0" id="circle27"/>
	<circle cx="69.4066" cy="572.674" r="4" fill="#0" id="circle28"/>
	<circle cx="78.4908" cy="192.952" r="4" fill="#0" id="circle29"/>
	<circle cx="78.4908" cy="552.689" r="4" fill="#0" id="circle30"/>
	<circle cx="87.5751" cy="481.832" r="4" fill="#0" id="circle31"/>
	<circle cx="87.5751" cy="572.674" r="4" fill="#0" id="circle32"/>
	<circle cx="93.0256" cy="180.234" r="4" fill="#0" id="circle33"/>
	<circle cx="96.6593" cy="552.689" r="4" fill="#0" id="circle34"/>
	<circle cx="105.744" cy="481.832" r="4" fill="#0" id="circle35"/>
	<circle cx="105.744" cy="572.674" r="4" fill="#0" id="circle36"/>
	<circle cx="109.377" cy="171.15" r="4" fill="#0" id="circle37"/>
	<circle cx="114.828" cy="552.689" r="4" fill="#0" id="circle38"/>
	<circle cx="123.912" cy="481.832" r="4" fill="#0" id="circle39"/>
	<circle cx="123.912" cy="572.674" r="4" fill="#0" id="circle40"/>
	<circle cx="125.729" cy="162.066" r="4" fill="#0" id="circle41"/>
	<circle cx="132.996" cy="547.238" r="4" fill="#0" id="circle42"/>
	<circle cx="142.081" cy="152.982" r="4" fill="#0" id="circle43"/>
	<circle cx="142.081" cy="481.832" r="4" fill="#0" id="circle44"/>
	<circle cx="142.081" cy="572.674" r="4" fill="#0" id="circle45"/>
	<circle cx="147.531" cy="534.52" r="4" fill="#0" id="circle46"/>
	<circle cx="158.432" cy="143.897" r="4" fill="#0" id="circle47"/>
	<circle cx="158.432" cy="563.59" r="4" fill="#0" id="circle48"/>
	<circle cx="160.249" cy="481.832" r="4" fill="#0" id="circle49"/>
	<circle cx="165.7" cy="534.52" r="4" fill="#0" id="circle50"/>
	<circle cx="174.784" cy="134.813" r="4" fill="#0" id="circle51"/>
	<circle cx="176.601" cy="563.59" r="4" fill="#0" id="circle52"/>
	<circle cx="178.418" cy="481.832" r="4" fill="#0" id="circle53"/>
	<circle cx="183.868" cy="534.52" r="4" fill="#0" id="circle54"/>
	<circle cx="192.952" cy="134.813" r="4" fill="#0" id="circle55"/>
	<circle cx="194.769" cy="563.59" r="4" fill="#0" id="circle56"/>
	<circle cx="196.586" cy="481.832" r="4" fill="#0" id="circle57"/>
	<circle cx="200.22" cy="525.436" r="4" fill="#0" id="circle58"/>
	<circle cx="203.853" cy="500" r="4" fill="#0" id="circle59"/>
	<circle cx="209.304" cy="125.729" r="4" fill="#0" id="circle60"/>
	<circle cx="212.938" cy="563.59" r="4" fill="#0" id="circle61"/>
	<circle cx="227.473" cy="125.729" r="4" fill="#0" id="circle62"/>
	<circle cx="231.106" cy="563.59" r="4" fill="#0" id="circle63"/>
	<circle cx="245.641" cy="125.729" r="4" fill="#0" id="circle64"/>
	<circle cx="249.275" cy="563.59" r="4" fill="#0" id="circle65"/>
	<circle cx="263.81" cy="125.729" r="4" fill="#0" id="circle66"/>
	<circle cx="267.443" cy="563.59" r="4" fill="#0" id="circle67"/>
	<circle cx="280.161" cy="134.813" r="4" fill="#0" id="circle68"/>
	<circle cx="285.612" cy="563.59" r="4" fill="#0" id="circle69"/>
	<circle cx="298.33" cy="134.813" r="4" fill="#0" id="circle70"/>
	<circle cx="303.78" cy="13.0842" r="4" fill="#0" id="circle71"/>
	<circle cx="303.78" cy="31.2527" r="4" fill="#0" id="circle72"/>
	<circle cx="303.78" cy="563.59" r="4" fill="#0" id="circle73"/>
	<circle cx="316.498" cy="134.813" r="4" fill="#0" id="circle74"/>
	<circle cx="318.315" cy="43.9707" r="4" fill="#0" id="circle75"/>
	<circle cx="321.949" cy="7.6337" r="4" fill="#0" id="circle76"/>
	<circle cx="321.949" cy="563.59" r="4" fill="#0" id="circle77"/>
	<circle cx="334.667" cy="134.813" r="4" fill="#0" id="circle78"/>
	<circle cx="336.484" cy="45.7875" r="4" fill="#0" id="circle79"/>
	<circle cx="340.117" cy="4" r="4" fill="#0" id="circle80"/>
	<circle cx="340.117" cy="94.8425" r="4" fill="#0" id="circle81"/>
	<circle cx="340.117" cy="563.59" r="4" fill="#0" id="circle82"/>
	<circle cx="352.835" cy="134.813" r="4" fill="#0" id="circle83"/>
	<circle cx="354.652" cy="45.7875" r="4" fill="#0" id="circle84"/>
	<circle cx="354.652" cy="80.3077" r="4" fill="#0" id="circle85"/>
	<circle cx="358.286" cy="7.6337" r="4" fill="#0" id="circle86"/>
	<circle cx="358.286" cy="100.293" r="4" fill="#0" id="circle87"/>
	<circle cx="358.286" cy="563.59" r="4" fill="#0" id="circle88"/>
	<circle cx="363.736" cy="62.1392" r="4" fill="#0" id="circle89"/>
	<circle cx="367.37" cy="116.645" r="4" fill="#0" id="circle90"/>
	<circle cx="374.637" cy="554.505" r="4" fill="#0" id="circle91"/>
	<circle cx="376.454" cy="7.6337" r="4" fill="#0" id="circle92"/>
	<circle cx="387.355" cy="45.7875" r="4" fill="#0" id="circle93"/>
	<circle cx="390.989" cy="563.59" r="4" fill="#0" id="circle94"/>
	<circle cx="394.623" cy="11.2674" r="4" fill="#0" id="circle95"/>
	<circle cx="396.44" cy="62.1392" r="4" fill="#0" id="circle96"/>
	<circle cx="405.524" cy="45.7875" r="4" fill="#0" id="circle97"/>
	<circle cx="405.524" cy="91.2088" r="4" fill="#0" id="circle98"/>
	<circle cx="405.524" cy="109.377" r="4" fill="#0" id="circle99"/>
	<circle cx="407.341" cy="554.505" r="4" fill="#0" id="circle100"/>
	<circle cx="410.974" cy="20.3516" r="4" fill="#0" id="circle101"/>
	<circle cx="410.974" cy="73.0403" r="4" fill="#0" id="circle102"/>
	<circle cx="414.608" cy="125.729" r="4" fill="#0" id="circle103"/>
	<circle cx="423.692" cy="142.081" r="4" fill="#0" id="circle104"/>
	<circle cx="423.692" cy="545.421" r="4" fill="#0" id="circle105"/>
	<circle cx="432.777" cy="481.832" r="4" fill="#0" id="circle106"/>
	<circle cx="432.777" cy="500" r="4" fill="#0" id="circle107"/>
	<circle cx="432.777" cy="518.168" r="4" fill="#0" id="circle108"/>
	<circle cx="441.861" cy="138.447" r="4" fill="#0" id="circle109"/>
	<circle cx="450.945" cy="481.832" r="4" fill="#0" id="circle110"/>
	<circle cx="460.029" cy="129.363" r="4" fill="#0" id="circle111"/>
	<circle cx="469.114" cy="481.832" r="4" fill="#0" id="circle112"/>
	<circle cx="474.564" cy="116.645" r="4" fill="#0" id="circle113"/>
	<circle cx="487.282" cy="481.832" r="4" fill="#0" id="circle114"/>
	<circle cx="490.916" cy="107.56" r="4" fill="#0" id="circle115"/>
	<circle cx="505.451" cy="481.832" r="4" fill="#0" id="circle116"/>
	<circle cx="507.267" cy="98.4762" r="4" fill="#0" id="circle117"/>
	<circle cx="523.619" cy="107.56" r="4" fill="#0" id="circle118"/>
	<circle cx="523.619" cy="481.832" r="4" fill="#0" id="circle119"/>
	<circle cx="541.788" cy="107.56" r="4" fill="#0" id="circle120"/>
	<circle cx="541.788" cy="481.832" r="4" fill="#0" id="circle121"/>
	<circle cx="556.322" cy="118.462" r="4" fill="#0" id="circle122"/>
	<circle cx="559.956" cy="481.832" r="4" fill="#0" id="circle123"/>
	<circle cx="572.674" cy="127.546" r="4" fill="#0" id="circle124"/>
	<circle cx="578.125" cy="209.304" r="4" fill="#0" id="circle125"/>
	<circle cx="578.125" cy="481.832" r="4" fill="#0" id="circle126"/>
	<circle cx="590.842" cy="134.813" r="4" fill="#0" id="circle127"/>
	<circle cx="594.476" cy="200.22" r="4" fill="#0" id="circle128"/>
	<circle cx="596.293" cy="481.832" r="4" fill="#0" id="circle129"/>
	<circle cx="603.56" cy="216.571" r="4" fill="#0" id="circle130"/>
	<circle cx="609.011" cy="134.813" r="4" fill="#0" id="circle131"/>
	<circle cx="612.645" cy="194.769" r="4" fill="#0" id="circle132"/>
	<circle cx="614.462" cy="481.832" r="4" fill="#0" id="circle133"/>
	<circle cx="621.729" cy="216.571" r="4" fill="#0" id="circle134"/>
	<circle cx="623.546" cy="372.821" r="4" fill="#0" id="circle135"/>
	<circle cx="627.179" cy="134.813" r="4" fill="#0" id="circle136"/>
	<circle cx="630.813" cy="194.769" r="4" fill="#0" id="circle137"/>
	<circle cx="632.63" cy="389.172" r="4" fill="#0" id="circle138"/>
	<circle cx="632.63" cy="481.832" r="4" fill="#0" id="circle139"/>
	<circle cx="639.897" cy="216.571" r="4" fill="#0" id="circle140"/>
	<circle cx="639.897" cy="363.736" r="4" fill="#0" id="circle141"/>
	<circle cx="643.531" cy="143.897" r="4" fill="#0" id="circle142"/>
	<circle cx="645.348" cy="182.051" r="4" fill="#0" id="circle143"/>
	<circle cx="648.982" cy="472.747" r="4" fill="#0" id="circle144"/>
	<circle cx="650.799" cy="162.066" r="4" fill="#0" id="circle145"/>
	<circle cx="650.799" cy="389.172" r="4" fill="#0" id="circle146"/>
	<circle cx="656.249" cy="354.652" r="4" fill="#0" id="circle147"/>
	<circle cx="658.066" cy="216.571" r="4" fill="#0" id="circle148"/>
	<circle cx="659.883" cy="405.524" r="4" fill="#0" id="circle149"/>
	<circle cx="667.15" cy="472.747" r="4" fill="#0" id="circle150"/>
	<circle cx="674.418" cy="351.018" r="4" fill="#0" id="circle151"/>
	<circle cx="674.418" cy="418.242" r="4" fill="#0" id="circle152"/>
	<circle cx="676.234" cy="216.571" r="4" fill="#0" id="circle153"/>
	<circle cx="685.319" cy="467.297" r="4" fill="#0" id="circle154"/>
	<circle cx="687.136" cy="432.777" r="4" fill="#0" id="circle155"/>
	<circle cx="692.586" cy="354.652" r="4" fill="#0" id="circle156"/>
	<circle cx="694.403" cy="216.571" r="4" fill="#0" id="circle157"/>
	<circle cx="708.938" cy="345.568" r="4" fill="#0" id="circle158"/>
	<circle cx="712.571" cy="216.571" r="4" fill="#0" id="circle159"/>
	<circle cx="725.289" cy="336.484" r="4" fill="#0" id="circle160"/>
	<circle cx="730.74" cy="216.571" r="4" fill="#0" id="circle161"/>
	<circle cx="741.641" cy="327.399" r="4" fill="#0" id="circle162"/>
	<circle cx="748.908" cy="216.571" r="4" fill="#0" id="circle163"/>
	<circle cx="759.81" cy="318.315" r="4" fill="#0" id="circle164"/>
	<circle cx="767.077" cy="216.571" r="4" fill="#0" id="circle165"/>
	<circle cx="777.978" cy="318.315" r="4" fill="#0" id="circle166"/>
	<circle cx="785.245" cy="216.571" r="4" fill="#0" id="circle167"/>
	<circle cx="794.33" cy="309.231" r="4" fill="#0" id="circle168"/>
	<circle cx="803.414" cy="212.938" r="4" fill="#0" id="circle169"/>
	<circle cx="812.498" cy="303.78" r="4" fill="#0" id="circle170"/>
	<circle cx="821.582" cy="207.487" r="4" fill="#0" id="circle171"/>
	<circle cx="830.667" cy="294.696" r="4" fill="#0" id="circle172"/>
	<circle cx="839.751" cy="203.853" r="4" fill="#0" id="circle173"/>
	<circle cx="845.201" cy="280.161" r="4" fill="#0" id="circle174"/>
	<circle cx="857.919" cy="198.403" r="4" fill="#0" id="circle175"/>
	<circle cx="863.37" cy="271.077" r="4" fill="#0" id="circle176"/>
	<circle cx="876.088" cy="198.403" r="4" fill="#0" id="circle177"/>
	<circle cx="881.538" cy="271.077" r="4" fill="#0" id="circle178"/>
	<circle cx="894.256" cy="198.403" r="4" fill="#0" id="circle179"/>
	<circle cx="899.707" cy="261.993" r="4" fill="#0" id="circle180"/>
	<circle cx="912.425" cy="198.403" r="4" fill="#0" id="circle181"/>
	<circle cx="914.242" cy="245.641" r="4" fill="#0" id="circle182"/>
	<circle cx="930.593" cy="198.403" r="4" fill="#0" id="circle183"/>
	<circle cx="932.41" cy="245.641" r="4" fill="#0" id="circle184"/>
	<circle cx="948.762" cy="198.403" r="4" fill="#0" id="circle185"/>
	<circle cx="948.762" cy="236.557" r="4" fill="#0" id="circle186"/>
	<circle cx="966.93" cy="198.403" r="4" fill="#0" id="circle187"/>
	<circle cx="966.93" cy="231.106" r="4" fill="#0" id="circle188"/>
	<circle cx="985.099" cy="198.403" r="4" fill="#0" id="circle189"/>
	<circle cx="985.099" cy="231.106" r="4" fill="#0" id="circle190"/>
	<circle cx="996" cy="212.938" r="4" fill="#0" id="circle191"/>
	</g>
</svg>