<?xml version="1.0" encoding="UTF-8" standalone="no"?>
<!-- Created with CurveBenchmark -->
<svg
	xmlns:dc="http://purl.org/dc/elements/1.1/"
	xmlns:cc="http://creativecommons.org/ns#"
	xmlns:rdf="http://www.w3.org/1999/02/22-rdf-syntax-ns#"
	xmlns:svg="http://www.w3.org/2000/svg"
	xmlns="http://www.w3.org/2000/svg"
	xmlns:sodipodi="http://sodipodi.sourceforge.net/DTD/sodipodi-0.dtd"
	xmlns:inkscape="http://www.inkscape.org/namespaces/inkscape"
	width="1000"
	height="1000"
	id="svg2"
	version="1.1"
	sodipodi:docname="manifold/gathan1-bed065.png.txt">
<defs
	id="defs4" />
<metadata
	id="metadata7">
	<rdf:RDF>
		<cc:Work
			rdf:about="">
			<dc:format>image/svg+xml</dc:format>
			<dc:type
				rdf:resource="http://purl.org/dc/dcmitype/StillImage" />
			<dc:title></dc:title>
		</cc:Work>
	</rdf:RDF>
</metadata>
<g
	inkscape:label="Layer 1"
	inkscape:groupmode="layer"
	id="layer1">
	<path style="fill:none;stroke:red;stroke-width:1px;stroke-linecap:butt;stroke-linejoin:miter;stroke-opacity:1" d="M 89.9733,63.52 73.44,70.1333 z" id="boundary" inkscape:connector-curvature="0" />
	<path style="fill:none;stroke:red;stroke-width:1px;stroke-linecap:butt;stroke-linejoin:miter;stroke-opacity:1" d="M 103.2,50.2933 89.9733,63.52 z" id="boundary" inkscape:connector-curvature="0" />
	<path style="fill:none;stroke:red;stroke-width:1px;stroke-linecap:butt;stroke-linejoin:miter;stroke-opacity:1" d="M 56.9067,76.7467 43.68,86.6667 z" id="boundary" inkscape:connector-curvature="0" />
	<path style="fill:none;stroke:red;stroke-width:1px;stroke-linecap:butt;stroke-linejoin:miter;stroke-opacity:1" d="M 43.68,86.6667 28.8,94.9333 z" id="boundary" inkscape:connector-curvature="0" />
	<path style="fill:none;stroke:red;stroke-width:1px;stroke-linecap:butt;stroke-linejoin:miter;stroke-opacity:1" d="M 56.9067,76.7467 73.44,70.1333 z" id="boundary" inkscape:connector-curvature="0" />
	<path style="fill:none;stroke:red;stroke-width:1px;stroke-linecap:butt;stroke-linejoin:miter;stroke-opacity:1" d="M 126.347,20.5333 132.96,4 z" id="boundary" inkscape:connector-curvature="0" />
	<path style="fill:none;stroke:red;stroke-width:1px;stroke-linecap:butt;stroke-linejoin:miter;stroke-opacity:1" d="M 132.96,4 149.493,4 z" id="boundary" inkscape:connector-curvature="0" />
	<path style="fill:none;stroke:red;stroke-width:1px;stroke-linecap:butt;stroke-linejoin:miter;stroke-opacity:1" d="M 149.493,4 162.72,15.5733 z" id="boundary" inkscape:connector-curvature="0" />
	<path style="fill:none;stroke:red;stroke-width:1px;stroke-linecap:butt;stroke-linejoin:miter;stroke-opacity:1" d="M 126.347,20.5333 116.427,37.0667 z" id="boundary" inkscape:connector-curvature="0" />
	<path style="fill:none;stroke:red;stroke-width:1px;stroke-linecap:butt;stroke-linejoin:miter;stroke-opacity:1" d="M 116.427,37.0667 103.2,50.2933 z" id="boundary" inkscape:connector-curvature="0" />
	<path style="fill:none;stroke:red;stroke-width:1px;stroke-linecap:butt;stroke-linejoin:miter;stroke-opacity:1" d="M 7.30667,123.04 7.30667,139.573 z" id="boundary" inkscape:connector-curvature="0" />
	<path style="fill:none;stroke:red;stroke-width:1px;stroke-linecap:butt;stroke-linejoin:miter;stroke-opacity:1" d="M 15.5733,108.16 28.8,94.9333 z" id="boundary" inkscape:connector-curvature="0" />
	<path style="fill:none;stroke:red;stroke-width:1px;stroke-linecap:butt;stroke-linejoin:miter;stroke-opacity:1" d="M 10.6133,156.107 10.6133,172.64 z" id="boundary" inkscape:connector-curvature="0" />
	<path style="fill:none;stroke:red;stroke-width:1px;stroke-linecap:butt;stroke-linejoin:miter;stroke-opacity:1" d="M 7.30667,139.573 10.6133,156.107 z" id="boundary" inkscape:connector-curvature="0" />
	<path style="fill:none;stroke:red;stroke-width:1px;stroke-linecap:butt;stroke-linejoin:miter;stroke-opacity:1" d="M 10.6133,189.173 10.6133,172.64 z" id="boundary" inkscape:connector-curvature="0" />
	<path style="fill:none;stroke:red;stroke-width:1px;stroke-linecap:butt;stroke-linejoin:miter;stroke-opacity:1" d="M 13.92,205.707 10.6133,189.173 z" id="boundary" inkscape:connector-curvature="0" />
	<path style="fill:none;stroke:red;stroke-width:1px;stroke-linecap:butt;stroke-linejoin:miter;stroke-opacity:1" d="M 7.30667,123.04 15.5733,108.16 z" id="boundary" inkscape:connector-curvature="0" />
	<path style="fill:none;stroke:red;stroke-width:1px;stroke-linecap:butt;stroke-linejoin:miter;stroke-opacity:1" d="M 13.92,205.707 13.92,222.24 z" id="boundary" inkscape:connector-curvature="0" />
	<path style="fill:none;stroke:red;stroke-width:1px;stroke-linecap:butt;stroke-linejoin:miter;stroke-opacity:1" d="M 10.6133,281.76 10.6133,265.227 z" id="boundary" inkscape:connector-curvature="0" />
	<path style="fill:none;stroke:red;stroke-width:1px;stroke-linecap:butt;stroke-linejoin:miter;stroke-opacity:1" d="M 13.92,238.773 10.6133,265.227 z" id="boundary" inkscape:connector-curvature="0" />
	<path style="fill:none;stroke:red;stroke-width:1px;stroke-linecap:butt;stroke-linejoin:miter;stroke-opacity:1" d="M 13.92,222.24 13.92,238.773 z" id="boundary" inkscape:connector-curvature="0" />
	<path style="fill:none;stroke:red;stroke-width:1px;stroke-linecap:butt;stroke-linejoin:miter;stroke-opacity:1" d="M 10.6133,281.76 7.30667,308.213 z" id="boundary" inkscape:connector-curvature="0" />
	<path style="fill:none;stroke:red;stroke-width:1px;stroke-linecap:butt;stroke-linejoin:miter;stroke-opacity:1" d="M 162.72,15.5733 167.68,32.1067 z" id="boundary" inkscape:connector-curvature="0" />
	<path style="fill:none;stroke:red;stroke-width:1px;stroke-linecap:butt;stroke-linejoin:miter;stroke-opacity:1" d="M 180.907,42.0267 190.827,55.2533 z" id="boundary" inkscape:connector-curvature="0" />
	<path style="fill:none;stroke:red;stroke-width:1px;stroke-linecap:butt;stroke-linejoin:miter;stroke-opacity:1" d="M 180.907,42.0267 167.68,32.1067 z" id="boundary" inkscape:connector-curvature="0" />
	<path style="fill:none;stroke:red;stroke-width:1px;stroke-linecap:butt;stroke-linejoin:miter;stroke-opacity:1" d="M 215.627,76.7467 200.747,68.48 z" id="boundary" inkscape:connector-curvature="0" />
	<path style="fill:none;stroke:red;stroke-width:1px;stroke-linecap:butt;stroke-linejoin:miter;stroke-opacity:1" d="M 200.747,68.48 190.827,55.2533 z" id="boundary" inkscape:connector-curvature="0" />
	<path style="fill:none;stroke:red;stroke-width:1px;stroke-linecap:butt;stroke-linejoin:miter;stroke-opacity:1" d="M 230.507,85.0133 215.627,76.7467 z" id="boundary" inkscape:connector-curvature="0" />
	<path style="fill:none;stroke:red;stroke-width:1px;stroke-linecap:butt;stroke-linejoin:miter;stroke-opacity:1" d="M 230.507,85.0133 243.733,94.9333 z" id="boundary" inkscape:connector-curvature="0" />
	<path style="fill:none;stroke:red;stroke-width:1px;stroke-linecap:butt;stroke-linejoin:miter;stroke-opacity:1" d="M 243.733,94.9333 256.96,104.853 z" id="boundary" inkscape:connector-curvature="0" />
	<path style="fill:none;stroke:red;stroke-width:1px;stroke-linecap:butt;stroke-linejoin:miter;stroke-opacity:1" d="M 270.187,134.613 260.267,159.413 z" id="boundary" inkscape:connector-curvature="0" />
	<path style="fill:none;stroke:red;stroke-width:1px;stroke-linecap:butt;stroke-linejoin:miter;stroke-opacity:1" d="M 256.96,104.853 266.88,118.08 z" id="boundary" inkscape:connector-curvature="0" />
	<path style="fill:none;stroke:red;stroke-width:1px;stroke-linecap:butt;stroke-linejoin:miter;stroke-opacity:1" d="M 266.88,118.08 270.187,134.613 z" id="boundary" inkscape:connector-curvature="0" />
	<path style="fill:none;stroke:red;stroke-width:1px;stroke-linecap:butt;stroke-linejoin:miter;stroke-opacity:1" d="M 260.267,159.413 260.267,175.947 z" id="boundary" inkscape:connector-curvature="0" />
	<path style="fill:none;stroke:red;stroke-width:1px;stroke-linecap:butt;stroke-linejoin:miter;stroke-opacity:1" d="M 273.493,185.867 260.267,175.947 z" id="boundary" inkscape:connector-curvature="0" />
	<path style="fill:none;stroke:red;stroke-width:1px;stroke-linecap:butt;stroke-linejoin:miter;stroke-opacity:1" d="M 290.027,192.48 273.493,185.867 z" id="boundary" inkscape:connector-curvature="0" />
	<path style="fill:none;stroke:red;stroke-width:1px;stroke-linecap:butt;stroke-linejoin:miter;stroke-opacity:1" d="M 337.973,202.4 321.44,205.707 z" id="boundary" inkscape:connector-curvature="0" />
	<path style="fill:none;stroke:red;stroke-width:1px;stroke-linecap:butt;stroke-linejoin:miter;stroke-opacity:1" d="M 321.44,205.707 304.907,200.747 z" id="boundary" inkscape:connector-curvature="0" />
	<path style="fill:none;stroke:red;stroke-width:1px;stroke-linecap:butt;stroke-linejoin:miter;stroke-opacity:1" d="M 304.907,200.747 290.027,192.48 z" id="boundary" inkscape:connector-curvature="0" />
	<path style="fill:none;stroke:red;stroke-width:1px;stroke-linecap:butt;stroke-linejoin:miter;stroke-opacity:1" d="M 337.973,202.4 354.507,202.4 z" id="boundary" inkscape:connector-curvature="0" />
	<path style="fill:none;stroke:red;stroke-width:1px;stroke-linecap:butt;stroke-linejoin:miter;stroke-opacity:1" d="M 371.04,205.707 387.573,212.32 z" id="boundary" inkscape:connector-curvature="0" />
	<path style="fill:none;stroke:red;stroke-width:1px;stroke-linecap:butt;stroke-linejoin:miter;stroke-opacity:1" d="M 404.107,218.933 418.987,227.2 z" id="boundary" inkscape:connector-curvature="0" />
	<path style="fill:none;stroke:red;stroke-width:1px;stroke-linecap:butt;stroke-linejoin:miter;stroke-opacity:1" d="M 387.573,212.32 404.107,218.933 z" id="boundary" inkscape:connector-curvature="0" />
	<path style="fill:none;stroke:red;stroke-width:1px;stroke-linecap:butt;stroke-linejoin:miter;stroke-opacity:1" d="M 354.507,202.4 371.04,205.707 z" id="boundary" inkscape:connector-curvature="0" />
	<path style="fill:none;stroke:red;stroke-width:1px;stroke-linecap:butt;stroke-linejoin:miter;stroke-opacity:1" d="M 432.213,237.12 418.987,227.2 z" id="boundary" inkscape:connector-curvature="0" />
	<path style="fill:none;stroke:red;stroke-width:1px;stroke-linecap:butt;stroke-linejoin:miter;stroke-opacity:1" d="M 7.30667,308.213 7.30667,324.747 z" id="boundary" inkscape:connector-curvature="0" />
	<path style="fill:none;stroke:red;stroke-width:1px;stroke-linecap:butt;stroke-linejoin:miter;stroke-opacity:1" d="M 7.30667,341.28 7.30667,324.747 z" id="boundary" inkscape:connector-curvature="0" />
	<path style="fill:none;stroke:red;stroke-width:1px;stroke-linecap:butt;stroke-linejoin:miter;stroke-opacity:1" d="M 4,397.493 4,380.96 z" id="boundary" inkscape:connector-curvature="0" />
	<path style="fill:none;stroke:red;stroke-width:1px;stroke-linecap:butt;stroke-linejoin:miter;stroke-opacity:1" d="M 4,414.027 4,397.493 z" id="boundary" inkscape:connector-curvature="0" />
	<path style="fill:none;stroke:red;stroke-width:1px;stroke-linecap:butt;stroke-linejoin:miter;stroke-opacity:1" d="M 7.30667,341.28 7.30667,357.813 z" id="boundary" inkscape:connector-curvature="0" />
	<path style="fill:none;stroke:red;stroke-width:1px;stroke-linecap:butt;stroke-linejoin:miter;stroke-opacity:1" d="M 7.30667,357.813 4,380.96 z" id="boundary" inkscape:connector-curvature="0" />
	<path style="fill:none;stroke:red;stroke-width:1px;stroke-linecap:butt;stroke-linejoin:miter;stroke-opacity:1" d="M 71.7867,448.747 55.2533,445.44 z" id="boundary" inkscape:connector-curvature="0" />
	<path style="fill:none;stroke:red;stroke-width:1px;stroke-linecap:butt;stroke-linejoin:miter;stroke-opacity:1" d="M 55.2533,445.44 38.72,447.093 z" id="boundary" inkscape:connector-curvature="0" />
	<path style="fill:none;stroke:red;stroke-width:1px;stroke-linecap:butt;stroke-linejoin:miter;stroke-opacity:1" d="M 8.96,447.093 7.30667,430.56 z" id="boundary" inkscape:connector-curvature="0" />
	<path style="fill:none;stroke:red;stroke-width:1px;stroke-linecap:butt;stroke-linejoin:miter;stroke-opacity:1" d="M 7.30667,430.56 4,414.027 z" id="boundary" inkscape:connector-curvature="0" />
	<path style="fill:none;stroke:red;stroke-width:1px;stroke-linecap:butt;stroke-linejoin:miter;stroke-opacity:1" d="M 13.92,463.627 8.96,447.093 z" id="boundary" inkscape:connector-curvature="0" />
	<path style="fill:none;stroke:red;stroke-width:1px;stroke-linecap:butt;stroke-linejoin:miter;stroke-opacity:1" d="M 13.92,480.16 13.92,463.627 z" id="boundary" inkscape:connector-curvature="0" />
	<path style="fill:none;stroke:red;stroke-width:1px;stroke-linecap:butt;stroke-linejoin:miter;stroke-opacity:1" d="M 38.72,463.627 35.4133,486.773 z" id="boundary" inkscape:connector-curvature="0" />
	<path style="fill:none;stroke:red;stroke-width:1px;stroke-linecap:butt;stroke-linejoin:miter;stroke-opacity:1" d="M 22.1867,511.573 13.92,496.693 z" id="boundary" inkscape:connector-curvature="0" />
	<path style="fill:none;stroke:red;stroke-width:1px;stroke-linecap:butt;stroke-linejoin:miter;stroke-opacity:1" d="M 38.72,503.307 22.1867,511.573 z" id="boundary" inkscape:connector-curvature="0" />
	<path style="fill:none;stroke:red;stroke-width:1px;stroke-linecap:butt;stroke-linejoin:miter;stroke-opacity:1" d="M 13.92,496.693 13.92,480.16 z" id="boundary" inkscape:connector-curvature="0" />
	<path style="fill:none;stroke:red;stroke-width:1px;stroke-linecap:butt;stroke-linejoin:miter;stroke-opacity:1" d="M 35.4133,486.773 38.72,503.307 z" id="boundary" inkscape:connector-curvature="0" />
	<path style="fill:none;stroke:red;stroke-width:1px;stroke-linecap:butt;stroke-linejoin:miter;stroke-opacity:1" d="M 71.7867,448.747 88.32,448.747 z" id="boundary" inkscape:connector-curvature="0" />
	<path style="fill:none;stroke:red;stroke-width:1px;stroke-linecap:butt;stroke-linejoin:miter;stroke-opacity:1" d="M 104.853,448.747 88.32,448.747 z" id="boundary" inkscape:connector-curvature="0" />
	<path style="fill:none;stroke:red;stroke-width:1px;stroke-linecap:butt;stroke-linejoin:miter;stroke-opacity:1" d="M 121.387,448.747 137.92,448.747 z" id="boundary" inkscape:connector-curvature="0" />
	<path style="fill:none;stroke:red;stroke-width:1px;stroke-linecap:butt;stroke-linejoin:miter;stroke-opacity:1" d="M 104.853,448.747 121.387,448.747 z" id="boundary" inkscape:connector-curvature="0" />
	<path style="fill:none;stroke:red;stroke-width:1px;stroke-linecap:butt;stroke-linejoin:miter;stroke-opacity:1" d="M 154.453,448.747 170.987,448.747 z" id="boundary" inkscape:connector-curvature="0" />
	<path style="fill:none;stroke:red;stroke-width:1px;stroke-linecap:butt;stroke-linejoin:miter;stroke-opacity:1" d="M 154.453,448.747 137.92,448.747 z" id="boundary" inkscape:connector-curvature="0" />
	<path style="fill:none;stroke:red;stroke-width:1px;stroke-linecap:butt;stroke-linejoin:miter;stroke-opacity:1" d="M 187.52,448.747 204.053,448.747 z" id="boundary" inkscape:connector-curvature="0" />
	<path style="fill:none;stroke:red;stroke-width:1px;stroke-linecap:butt;stroke-linejoin:miter;stroke-opacity:1" d="M 187.52,448.747 170.987,448.747 z" id="boundary" inkscape:connector-curvature="0" />
	<path style="fill:none;stroke:red;stroke-width:1px;stroke-linecap:butt;stroke-linejoin:miter;stroke-opacity:1" d="M 204.053,448.747 220.587,448.747 z" id="boundary" inkscape:connector-curvature="0" />
	<path style="fill:none;stroke:red;stroke-width:1px;stroke-linecap:butt;stroke-linejoin:miter;stroke-opacity:1" d="M 266.88,450.4 237.12,448.747 z" id="boundary" inkscape:connector-curvature="0" />
	<path style="fill:none;stroke:red;stroke-width:1px;stroke-linecap:butt;stroke-linejoin:miter;stroke-opacity:1" d="M 237.12,448.747 220.587,448.747 z" id="boundary" inkscape:connector-curvature="0" />
	<path style="fill:none;stroke:red;stroke-width:1px;stroke-linecap:butt;stroke-linejoin:miter;stroke-opacity:1" d="M 283.413,448.747 266.88,450.4 z" id="boundary" inkscape:connector-curvature="0" />
	<path style="fill:none;stroke:red;stroke-width:1px;stroke-linecap:butt;stroke-linejoin:miter;stroke-opacity:1" d="M 283.413,448.747 299.947,448.747 z" id="boundary" inkscape:connector-curvature="0" />
	<path style="fill:none;stroke:red;stroke-width:1px;stroke-linecap:butt;stroke-linejoin:miter;stroke-opacity:1" d="M 316.48,448.747 333.013,448.747 z" id="boundary" inkscape:connector-curvature="0" />
	<path style="fill:none;stroke:red;stroke-width:1px;stroke-linecap:butt;stroke-linejoin:miter;stroke-opacity:1" d="M 316.48,448.747 299.947,448.747 z" id="boundary" inkscape:connector-curvature="0" />
	<path style="fill:none;stroke:red;stroke-width:1px;stroke-linecap:butt;stroke-linejoin:miter;stroke-opacity:1" d="M 333.013,448.747 349.547,448.747 z" id="boundary" inkscape:connector-curvature="0" />
	<path style="fill:none;stroke:red;stroke-width:1px;stroke-linecap:butt;stroke-linejoin:miter;stroke-opacity:1" d="M 266.88,466.933 263.573,486.773 z" id="boundary" inkscape:connector-curvature="0" />
	<path style="fill:none;stroke:red;stroke-width:1px;stroke-linecap:butt;stroke-linejoin:miter;stroke-opacity:1" d="M 263.573,513.227 263.573,486.773 z" id="boundary" inkscape:connector-curvature="0" />
	<path style="fill:none;stroke:red;stroke-width:1px;stroke-linecap:butt;stroke-linejoin:miter;stroke-opacity:1" d="M 247.04,509.92 242.08,493.387 z" id="boundary" inkscape:connector-curvature="0" />
	<path style="fill:none;stroke:red;stroke-width:1px;stroke-linecap:butt;stroke-linejoin:miter;stroke-opacity:1" d="M 263.573,513.227 247.04,509.92 z" id="boundary" inkscape:connector-curvature="0" />
	<path style="fill:none;stroke:red;stroke-width:1px;stroke-linecap:butt;stroke-linejoin:miter;stroke-opacity:1" d="M 366.08,448.747 382.613,448.747 z" id="boundary" inkscape:connector-curvature="0" />
	<path style="fill:none;stroke:red;stroke-width:1px;stroke-linecap:butt;stroke-linejoin:miter;stroke-opacity:1" d="M 366.08,448.747 349.547,448.747 z" id="boundary" inkscape:connector-curvature="0" />
	<path style="fill:none;stroke:red;stroke-width:1px;stroke-linecap:butt;stroke-linejoin:miter;stroke-opacity:1" d="M 382.613,448.747 399.147,448.747 z" id="boundary" inkscape:connector-curvature="0" />
	<path style="fill:none;stroke:red;stroke-width:1px;stroke-linecap:butt;stroke-linejoin:miter;stroke-opacity:1" d="M 415.68,448.747 432.213,448.747 z" id="boundary" inkscape:connector-curvature="0" />
	<path style="fill:none;stroke:red;stroke-width:1px;stroke-linecap:butt;stroke-linejoin:miter;stroke-opacity:1" d="M 399.147,448.747 415.68,448.747 z" id="boundary" inkscape:connector-curvature="0" />
	<path style="fill:none;stroke:red;stroke-width:1px;stroke-linecap:butt;stroke-linejoin:miter;stroke-opacity:1" d="M 432.213,448.747 448.747,448.747 z" id="boundary" inkscape:connector-curvature="0" />
	<path style="fill:none;stroke:red;stroke-width:1px;stroke-linecap:butt;stroke-linejoin:miter;stroke-opacity:1" d="M 432.213,237.12 445.44,248.693 z" id="boundary" inkscape:connector-curvature="0" />
	<path style="fill:none;stroke:red;stroke-width:1px;stroke-linecap:butt;stroke-linejoin:miter;stroke-opacity:1" d="M 470.24,273.493 457.013,261.92 z" id="boundary" inkscape:connector-curvature="0" />
	<path style="fill:none;stroke:red;stroke-width:1px;stroke-linecap:butt;stroke-linejoin:miter;stroke-opacity:1" d="M 495.04,294.987 478.507,288.373 z" id="boundary" inkscape:connector-curvature="0" />
	<path style="fill:none;stroke:red;stroke-width:1px;stroke-linecap:butt;stroke-linejoin:miter;stroke-opacity:1" d="M 478.507,288.373 470.24,273.493 z" id="boundary" inkscape:connector-curvature="0" />
	<path style="fill:none;stroke:red;stroke-width:1px;stroke-linecap:butt;stroke-linejoin:miter;stroke-opacity:1" d="M 511.573,294.987 495.04,294.987 z" id="boundary" inkscape:connector-curvature="0" />
	<path style="fill:none;stroke:red;stroke-width:1px;stroke-linecap:butt;stroke-linejoin:miter;stroke-opacity:1" d="M 544.64,294.987 528.107,294.987 z" id="boundary" inkscape:connector-curvature="0" />
	<path style="fill:none;stroke:red;stroke-width:1px;stroke-linecap:butt;stroke-linejoin:miter;stroke-opacity:1" d="M 724.853,288.373 739.733,280.107 z" id="boundary" inkscape:connector-curvature="0" />
	<path style="fill:none;stroke:red;stroke-width:1px;stroke-linecap:butt;stroke-linejoin:miter;stroke-opacity:1" d="M 457.013,261.92 445.44,248.693 z" id="boundary" inkscape:connector-curvature="0" />
	<path style="fill:none;stroke:red;stroke-width:1px;stroke-linecap:butt;stroke-linejoin:miter;stroke-opacity:1" d="M 643.84,294.987 627.307,294.987 z" id="boundary" inkscape:connector-curvature="0" />
	<path style="fill:none;stroke:red;stroke-width:1px;stroke-linecap:butt;stroke-linejoin:miter;stroke-opacity:1" d="M 739.733,280.107 756.267,273.493 z" id="boundary" inkscape:connector-curvature="0" />
	<path style="fill:none;stroke:red;stroke-width:1px;stroke-linecap:butt;stroke-linejoin:miter;stroke-opacity:1" d="M 528.107,294.987 511.573,294.987 z" id="boundary" inkscape:connector-curvature="0" />
	<path style="fill:none;stroke:red;stroke-width:1px;stroke-linecap:butt;stroke-linejoin:miter;stroke-opacity:1" d="M 709.973,298.293 724.853,288.373 z" id="boundary" inkscape:connector-curvature="0" />
	<path style="fill:none;stroke:red;stroke-width:1px;stroke-linecap:butt;stroke-linejoin:miter;stroke-opacity:1" d="M 772.8,268.533 756.267,273.493 z" id="boundary" inkscape:connector-curvature="0" />
	<path style="fill:none;stroke:red;stroke-width:1px;stroke-linecap:butt;stroke-linejoin:miter;stroke-opacity:1" d="M 627.307,294.987 610.773,294.987 z" id="boundary" inkscape:connector-curvature="0" />
	<path style="fill:none;stroke:red;stroke-width:1px;stroke-linecap:butt;stroke-linejoin:miter;stroke-opacity:1" d="M 544.64,294.987 561.173,294.987 z" id="boundary" inkscape:connector-curvature="0" />
	<path style="fill:none;stroke:red;stroke-width:1px;stroke-linecap:butt;stroke-linejoin:miter;stroke-opacity:1" d="M 577.707,294.987 594.24,294.987 z" id="boundary" inkscape:connector-curvature="0" />
	<path style="fill:none;stroke:red;stroke-width:1px;stroke-linecap:butt;stroke-linejoin:miter;stroke-opacity:1" d="M 594.24,294.987 610.773,294.987 z" id="boundary" inkscape:connector-curvature="0" />
	<path style="fill:none;stroke:red;stroke-width:1px;stroke-linecap:butt;stroke-linejoin:miter;stroke-opacity:1" d="M 577.707,294.987 561.173,294.987 z" id="boundary" inkscape:connector-curvature="0" />
	<path style="fill:none;stroke:red;stroke-width:1px;stroke-linecap:butt;stroke-linejoin:miter;stroke-opacity:1" d="M 660.373,294.987 643.84,294.987 z" id="boundary" inkscape:connector-curvature="0" />
	<path style="fill:none;stroke:red;stroke-width:1px;stroke-linecap:butt;stroke-linejoin:miter;stroke-opacity:1" d="M 693.44,298.293 676.907,294.987 z" id="boundary" inkscape:connector-curvature="0" />
	<path style="fill:none;stroke:red;stroke-width:1px;stroke-linecap:butt;stroke-linejoin:miter;stroke-opacity:1" d="M 709.973,298.293 693.44,298.293 z" id="boundary" inkscape:connector-curvature="0" />
	<path style="fill:none;stroke:red;stroke-width:1px;stroke-linecap:butt;stroke-linejoin:miter;stroke-opacity:1" d="M 660.373,294.987 676.907,294.987 z" id="boundary" inkscape:connector-curvature="0" />
	<path style="fill:none;stroke:red;stroke-width:1px;stroke-linecap:butt;stroke-linejoin:miter;stroke-opacity:1" d="M 840.587,222.24 827.36,235.467 z" id="boundary" inkscape:connector-curvature="0" />
	<path style="fill:none;stroke:red;stroke-width:1px;stroke-linecap:butt;stroke-linejoin:miter;stroke-opacity:1" d="M 827.36,235.467 814.133,245.387 z" id="boundary" inkscape:connector-curvature="0" />
	<path style="fill:none;stroke:red;stroke-width:1px;stroke-linecap:butt;stroke-linejoin:miter;stroke-opacity:1" d="M 814.133,245.387 805.867,260.267 z" id="boundary" inkscape:connector-curvature="0" />
	<path style="fill:none;stroke:red;stroke-width:1px;stroke-linecap:butt;stroke-linejoin:miter;stroke-opacity:1" d="M 805.867,260.267 789.333,265.227 z" id="boundary" inkscape:connector-curvature="0" />
	<path style="fill:none;stroke:red;stroke-width:1px;stroke-linecap:butt;stroke-linejoin:miter;stroke-opacity:1" d="M 789.333,265.227 772.8,268.533 z" id="boundary" inkscape:connector-curvature="0" />
	<path style="fill:none;stroke:red;stroke-width:1px;stroke-linecap:butt;stroke-linejoin:miter;stroke-opacity:1" d="M 840.587,222.24 857.12,222.24 z" id="boundary" inkscape:connector-curvature="0" />
	<path style="fill:none;stroke:red;stroke-width:1px;stroke-linecap:butt;stroke-linejoin:miter;stroke-opacity:1" d="M 870.347,233.813 883.573,245.387 z" id="boundary" inkscape:connector-curvature="0" />
	<path style="fill:none;stroke:red;stroke-width:1px;stroke-linecap:butt;stroke-linejoin:miter;stroke-opacity:1" d="M 943.093,273.493 926.56,268.533 z" id="boundary" inkscape:connector-curvature="0" />
	<path style="fill:none;stroke:red;stroke-width:1px;stroke-linecap:butt;stroke-linejoin:miter;stroke-opacity:1" d="M 883.573,245.387 893.493,258.613 z" id="boundary" inkscape:connector-curvature="0" />
	<path style="fill:none;stroke:red;stroke-width:1px;stroke-linecap:butt;stroke-linejoin:miter;stroke-opacity:1" d="M 910.027,265.227 893.493,258.613 z" id="boundary" inkscape:connector-curvature="0" />
	<path style="fill:none;stroke:red;stroke-width:1px;stroke-linecap:butt;stroke-linejoin:miter;stroke-opacity:1" d="M 926.56,268.533 910.027,265.227 z" id="boundary" inkscape:connector-curvature="0" />
	<path style="fill:none;stroke:red;stroke-width:1px;stroke-linecap:butt;stroke-linejoin:miter;stroke-opacity:1" d="M 870.347,233.813 857.12,222.24 z" id="boundary" inkscape:connector-curvature="0" />
	<path style="fill:none;stroke:red;stroke-width:1px;stroke-linecap:butt;stroke-linejoin:miter;stroke-opacity:1" d="M 987.733,351.2 984.427,371.04 z" id="boundary" inkscape:connector-curvature="0" />
	<path style="fill:none;stroke:red;stroke-width:1px;stroke-linecap:butt;stroke-linejoin:miter;stroke-opacity:1" d="M 959.627,280.107 943.093,273.493 z" id="boundary" inkscape:connector-curvature="0" />
	<path style="fill:none;stroke:red;stroke-width:1px;stroke-linecap:butt;stroke-linejoin:miter;stroke-opacity:1" d="M 974.507,288.373 959.627,280.107 z" id="boundary" inkscape:connector-curvature="0" />
	<path style="fill:none;stroke:red;stroke-width:1px;stroke-linecap:butt;stroke-linejoin:miter;stroke-opacity:1" d="M 984.427,387.573 984.427,371.04 z" id="boundary" inkscape:connector-curvature="0" />
	<path style="fill:none;stroke:red;stroke-width:1px;stroke-linecap:butt;stroke-linejoin:miter;stroke-opacity:1" d="M 984.427,404.107 984.427,387.573 z" id="boundary" inkscape:connector-curvature="0" />
	<path style="fill:none;stroke:red;stroke-width:1px;stroke-linecap:butt;stroke-linejoin:miter;stroke-opacity:1" d="M 974.507,288.373 986.08,301.6 z" id="boundary" inkscape:connector-curvature="0" />
	<path style="fill:none;stroke:red;stroke-width:1px;stroke-linecap:butt;stroke-linejoin:miter;stroke-opacity:1" d="M 986.08,301.6 994.347,316.48 z" id="boundary" inkscape:connector-curvature="0" />
	<path style="fill:none;stroke:red;stroke-width:1px;stroke-linecap:butt;stroke-linejoin:miter;stroke-opacity:1" d="M 994.347,316.48 996,336.32 z" id="boundary" inkscape:connector-curvature="0" />
	<path style="fill:none;stroke:red;stroke-width:1px;stroke-linecap:butt;stroke-linejoin:miter;stroke-opacity:1" d="M 996,336.32 987.733,351.2 z" id="boundary" inkscape:connector-curvature="0" />
	<path style="fill:none;stroke:red;stroke-width:1px;stroke-linecap:butt;stroke-linejoin:miter;stroke-opacity:1" d="M 984.427,420.64 984.427,404.107 z" id="boundary" inkscape:connector-curvature="0" />
	<path style="fill:none;stroke:red;stroke-width:1px;stroke-linecap:butt;stroke-linejoin:miter;stroke-opacity:1" d="M 984.427,437.173 984.427,420.64 z" id="boundary" inkscape:connector-curvature="0" />
	<path style="fill:none;stroke:red;stroke-width:1px;stroke-linecap:butt;stroke-linejoin:miter;stroke-opacity:1" d="M 987.733,453.707 984.427,437.173 z" id="boundary" inkscape:connector-curvature="0" />
	<path style="fill:none;stroke:red;stroke-width:1px;stroke-linecap:butt;stroke-linejoin:miter;stroke-opacity:1" d="M 465.28,448.747 481.813,448.747 z" id="boundary" inkscape:connector-curvature="0" />
	<path style="fill:none;stroke:red;stroke-width:1px;stroke-linecap:butt;stroke-linejoin:miter;stroke-opacity:1" d="M 465.28,448.747 448.747,448.747 z" id="boundary" inkscape:connector-curvature="0" />
	<path style="fill:none;stroke:red;stroke-width:1px;stroke-linecap:butt;stroke-linejoin:miter;stroke-opacity:1" d="M 498.347,448.747 481.813,448.747 z" id="boundary" inkscape:connector-curvature="0" />
	<path style="fill:none;stroke:red;stroke-width:1px;stroke-linecap:butt;stroke-linejoin:miter;stroke-opacity:1" d="M 514.88,448.747 498.347,448.747 z" id="boundary" inkscape:connector-curvature="0" />
	<path style="fill:none;stroke:red;stroke-width:1px;stroke-linecap:butt;stroke-linejoin:miter;stroke-opacity:1" d="M 531.413,448.747 547.947,448.747 z" id="boundary" inkscape:connector-curvature="0" />
	<path style="fill:none;stroke:red;stroke-width:1px;stroke-linecap:butt;stroke-linejoin:miter;stroke-opacity:1" d="M 564.48,448.747 547.947,448.747 z" id="boundary" inkscape:connector-curvature="0" />
	<path style="fill:none;stroke:red;stroke-width:1px;stroke-linecap:butt;stroke-linejoin:miter;stroke-opacity:1" d="M 581.013,448.747 597.547,448.747 z" id="boundary" inkscape:connector-curvature="0" />
	<path style="fill:none;stroke:red;stroke-width:1px;stroke-linecap:butt;stroke-linejoin:miter;stroke-opacity:1" d="M 614.08,448.747 597.547,448.747 z" id="boundary" inkscape:connector-curvature="0" />
	<path style="fill:none;stroke:red;stroke-width:1px;stroke-linecap:butt;stroke-linejoin:miter;stroke-opacity:1" d="M 581.013,448.747 564.48,448.747 z" id="boundary" inkscape:connector-curvature="0" />
	<path style="fill:none;stroke:red;stroke-width:1px;stroke-linecap:butt;stroke-linejoin:miter;stroke-opacity:1" d="M 531.413,448.747 514.88,448.747 z" id="boundary" inkscape:connector-curvature="0" />
	<path style="fill:none;stroke:red;stroke-width:1px;stroke-linecap:butt;stroke-linejoin:miter;stroke-opacity:1" d="M 630.613,448.747 647.147,448.747 z" id="boundary" inkscape:connector-curvature="0" />
	<path style="fill:none;stroke:red;stroke-width:1px;stroke-linecap:butt;stroke-linejoin:miter;stroke-opacity:1" d="M 663.68,448.747 647.147,448.747 z" id="boundary" inkscape:connector-curvature="0" />
	<path style="fill:none;stroke:red;stroke-width:1px;stroke-linecap:butt;stroke-linejoin:miter;stroke-opacity:1" d="M 680.213,448.747 696.747,448.747 z" id="boundary" inkscape:connector-curvature="0" />
	<path style="fill:none;stroke:red;stroke-width:1px;stroke-linecap:butt;stroke-linejoin:miter;stroke-opacity:1" d="M 696.747,448.747 708.32,461.973 z" id="boundary" inkscape:connector-curvature="0" />
	<path style="fill:none;stroke:red;stroke-width:1px;stroke-linecap:butt;stroke-linejoin:miter;stroke-opacity:1" d="M 663.68,448.747 680.213,448.747 z" id="boundary" inkscape:connector-curvature="0" />
	<path style="fill:none;stroke:red;stroke-width:1px;stroke-linecap:butt;stroke-linejoin:miter;stroke-opacity:1" d="M 708.32,461.973 711.627,478.507 z" id="boundary" inkscape:connector-curvature="0" />
	<path style="fill:none;stroke:red;stroke-width:1px;stroke-linecap:butt;stroke-linejoin:miter;stroke-opacity:1" d="M 739.733,473.547 733.12,493.387 z" id="boundary" inkscape:connector-curvature="0" />
	<path style="fill:none;stroke:red;stroke-width:1px;stroke-linecap:butt;stroke-linejoin:miter;stroke-opacity:1" d="M 731.467,514.88 733.12,493.387 z" id="boundary" inkscape:connector-curvature="0" />
	<path style="fill:none;stroke:red;stroke-width:1px;stroke-linecap:butt;stroke-linejoin:miter;stroke-opacity:1" d="M 711.627,495.04 711.627,478.507 z" id="boundary" inkscape:connector-curvature="0" />
	<path style="fill:none;stroke:red;stroke-width:1px;stroke-linecap:butt;stroke-linejoin:miter;stroke-opacity:1" d="M 714.933,511.573 711.627,495.04 z" id="boundary" inkscape:connector-curvature="0" />
	<path style="fill:none;stroke:red;stroke-width:1px;stroke-linecap:butt;stroke-linejoin:miter;stroke-opacity:1" d="M 731.467,514.88 714.933,511.573 z" id="boundary" inkscape:connector-curvature="0" />
	<path style="fill:none;stroke:red;stroke-width:1px;stroke-linecap:butt;stroke-linejoin:miter;stroke-opacity:1" d="M 614.08,448.747 630.613,448.747 z" id="boundary" inkscape:connector-curvature="0" />
	<path style="fill:none;stroke:red;stroke-width:1px;stroke-linecap:butt;stroke-linejoin:miter;stroke-opacity:1" d="M 782.72,457.013 799.253,455.36 z" id="boundary" inkscape:connector-curvature="0" />
	<path style="fill:none;stroke:red;stroke-width:1px;stroke-linecap:butt;stroke-linejoin:miter;stroke-opacity:1" d="M 799.253,455.36 812.48,465.28 z" id="boundary" inkscape:connector-curvature="0" />
	<path style="fill:none;stroke:red;stroke-width:1px;stroke-linecap:butt;stroke-linejoin:miter;stroke-opacity:1" d="M 756.267,458.667 739.733,457.013 z" id="boundary" inkscape:connector-curvature="0" />
	<path style="fill:none;stroke:red;stroke-width:1px;stroke-linecap:butt;stroke-linejoin:miter;stroke-opacity:1" d="M 782.72,457.013 769.493,468.587 z" id="boundary" inkscape:connector-curvature="0" />
	<path style="fill:none;stroke:red;stroke-width:1px;stroke-linecap:butt;stroke-linejoin:miter;stroke-opacity:1" d="M 812.48,465.28 825.707,475.2 z" id="boundary" inkscape:connector-curvature="0" />
	<path style="fill:none;stroke:red;stroke-width:1px;stroke-linecap:butt;stroke-linejoin:miter;stroke-opacity:1" d="M 943.093,461.973 959.627,455.36 z" id="boundary" inkscape:connector-curvature="0" />
	<path style="fill:none;stroke:red;stroke-width:1px;stroke-linecap:butt;stroke-linejoin:miter;stroke-opacity:1" d="M 900.107,458.667 916.64,452.053 z" id="boundary" inkscape:connector-curvature="0" />
	<path style="fill:none;stroke:red;stroke-width:1px;stroke-linecap:butt;stroke-linejoin:miter;stroke-opacity:1" d="M 943.093,461.973 926.56,465.28 z" id="boundary" inkscape:connector-curvature="0" />
	<path style="fill:none;stroke:red;stroke-width:1px;stroke-linecap:butt;stroke-linejoin:miter;stroke-opacity:1" d="M 900.107,458.667 886.88,468.587 z" id="boundary" inkscape:connector-curvature="0" />
	<path style="fill:none;stroke:red;stroke-width:1px;stroke-linecap:butt;stroke-linejoin:miter;stroke-opacity:1" d="M 825.707,475.2 840.587,483.467 z" id="boundary" inkscape:connector-curvature="0" />
	<path style="fill:none;stroke:red;stroke-width:1px;stroke-linecap:butt;stroke-linejoin:miter;stroke-opacity:1" d="M 886.88,468.587 873.653,478.507 z" id="boundary" inkscape:connector-curvature="0" />
	<path style="fill:none;stroke:red;stroke-width:1px;stroke-linecap:butt;stroke-linejoin:miter;stroke-opacity:1" d="M 873.653,478.507 857.12,485.12 z" id="boundary" inkscape:connector-curvature="0" />
	<path style="fill:none;stroke:red;stroke-width:1px;stroke-linecap:butt;stroke-linejoin:miter;stroke-opacity:1" d="M 857.12,485.12 840.587,483.467 z" id="boundary" inkscape:connector-curvature="0" />
	<path style="fill:none;stroke:red;stroke-width:1px;stroke-linecap:butt;stroke-linejoin:miter;stroke-opacity:1" d="M 966.24,488.427 966.24,471.893 z" id="boundary" inkscape:connector-curvature="0" />
	<path style="fill:none;stroke:red;stroke-width:1px;stroke-linecap:butt;stroke-linejoin:miter;stroke-opacity:1" d="M 994.347,470.24 986.08,495.04 z" id="boundary" inkscape:connector-curvature="0" />
	<path style="fill:none;stroke:red;stroke-width:1px;stroke-linecap:butt;stroke-linejoin:miter;stroke-opacity:1" d="M 966.24,488.427 966.24,504.96 z" id="boundary" inkscape:connector-curvature="0" />
	<path style="fill:none;stroke:red;stroke-width:1px;stroke-linecap:butt;stroke-linejoin:miter;stroke-opacity:1" d="M 986.08,495.04 979.467,514.88 z" id="boundary" inkscape:connector-curvature="0" />
	<path style="fill:none;stroke:red;stroke-width:1px;stroke-linecap:butt;stroke-linejoin:miter;stroke-opacity:1" d="M 979.467,514.88 966.24,504.96 z" id="boundary" inkscape:connector-curvature="0" />
	<path style="fill:none;stroke:red;stroke-width:1px;stroke-linecap:butt;stroke-linejoin:miter;stroke-opacity:1" d="M 987.733,453.707 994.347,470.24 z" id="boundary" inkscape:connector-curvature="0" />
	<circle cx="4" cy="380.96" r="4" fill="#0" id="circle0"/>
	<circle cx="4" cy="397.493" r="4" fill="#0" id="circle1"/>
	<circle cx="4" cy="414.027" r="4" fill="#0" id="circle2"/>
	<circle cx="7.30667" cy="123.04" r="4" fill="#0" id="circle3"/>
	<circle cx="7.30667" cy="139.573" r="4" fill="#0" id="circle4"/>
	<circle cx="7.30667" cy="308.213" r="4" fill="#0" id="circle5"/>
	<circle cx="7.30667" cy="324.747" r="4" fill="#0" id="circle6"/>
	<circle cx="7.30667" cy="341.28" r="4" fill="#0" id="circle7"/>
	<circle cx="7.30667" cy="357.813" r="4" fill="#0" id="circle8"/>
	<circle cx="7.30667" cy="430.56" r="4" fill="#0" id="circle9"/>
	<circle cx="8.96" cy="447.093" r="4" fill="#0" id="circle10"/>
	<circle cx="10.6133" cy="156.107" r="4" fill="#0" id="circle11"/>
	<circle cx="10.6133" cy="172.64" r="4" fill="#0" id="circle12"/>
	<circle cx="10.6133" cy="189.173" r="4" fill="#0" id="circle13"/>
	<circle cx="10.6133" cy="265.227" r="4" fill="#0" id="circle14"/>
	<circle cx="10.6133" cy="281.76" r="4" fill="#0" id="circle15"/>
	<circle cx="13.92" cy="205.707" r="4" fill="#0" id="circle16"/>
	<circle cx="13.92" cy="222.24" r="4" fill="#0" id="circle17"/>
	<circle cx="13.92" cy="238.773" r="4" fill="#0" id="circle18"/>
	<circle cx="13.92" cy="463.627" r="4" fill="#0" id="circle19"/>
	<circle cx="13.92" cy="480.16" r="4" fill="#0" id="circle20"/>
	<circle cx="13.92" cy="496.693" r="4" fill="#0" id="circle21"/>
	<circle cx="15.5733" cy="108.16" r="4" fill="#0" id="circle22"/>
	<circle cx="22.1867" cy="511.573" r="4" fill="#0" id="circle23"/>
	<circle cx="28.8" cy="94.9333" r="4" fill="#0" id="circle24"/>
	<circle cx="35.4133" cy="486.773" r="4" fill="#0" id="circle25"/>
	<circle cx="38.72" cy="447.093" r="4" fill="#0" id="circle26"/>
	<circle cx="38.72" cy="463.627" r="4" fill="#0" id="circle27"/>
	<circle cx="38.72" cy="503.307" r="4" fill="#0" id="circle28"/>
	<circle cx="43.68" cy="86.6667" r="4" fill="#0" id="circle29"/>
	<circle cx="55.2533" cy="445.44" r="4" fill="#0" id="circle30"/>
	<circle cx="56.9067" cy="76.7467" r="4" fill="#0" id="circle31"/>
	<circle cx="71.7867" cy="448.747" r="4" fill="#0" id="circle32"/>
	<circle cx="73.44" cy="70.1333" r="4" fill="#0" id="circle33"/>
	<circle cx="88.32" cy="448.747" r="4" fill="#0" id="circle34"/>
	<circle cx="89.9733" cy="63.52" r="4" fill="#0" id="circle35"/>
	<circle cx="103.2" cy="50.2933" r="4" fill="#0" id="circle36"/>
	<circle cx="104.853" cy="448.747" r="4" fill="#0" id="circle37"/>
	<circle cx="116.427" cy="37.0667" r="4" fill="#0" id="circle38"/>
	<circle cx="121.387" cy="448.747" r="4" fill="#0" id="circle39"/>
	<circle cx="126.347" cy="20.5333" r="4" fill="#0" id="circle40"/>
	<circle cx="132.96" cy="4" r="4" fill="#0" id="circle41"/>
	<circle cx="137.92" cy="448.747" r="4" fill="#0" id="circle42"/>
	<circle cx="149.493" cy="4" r="4" fill="#0" id="circle43"/>
	<circle cx="154.453" cy="448.747" r="4" fill="#0" id="circle44"/>
	<circle cx="162.72" cy="15.5733" r="4" fill="#0" id="circle45"/>
	<circle cx="167.68" cy="32.1067" r="4" fill="#0" id="circle46"/>
	<circle cx="170.987" cy="448.747" r="4" fill="#0" id="circle47"/>
	<circle cx="180.907" cy="42.0267" r="4" fill="#0" id="circle48"/>
	<circle cx="187.52" cy="448.747" r="4" fill="#0" id="circle49"/>
	<circle cx="190.827" cy="55.2533" r="4" fill="#0" id="circle50"/>
	<circle cx="200.747" cy="68.48" r="4" fill="#0" id="circle51"/>
	<circle cx="204.053" cy="448.747" r="4" fill="#0" id="circle52"/>
	<circle cx="215.627" cy="76.7467" r="4" fill="#0" id="circle53"/>
	<circle cx="220.587" cy="448.747" r="4" fill="#0" id="circle54"/>
	<circle cx="230.507" cy="85.0133" r="4" fill="#0" id="circle55"/>
	<circle cx="237.12" cy="448.747" r="4" fill="#0" id="circle56"/>
	<circle cx="242.08" cy="465.28" r="4" fill="#0" id="circle57"/>
	<circle cx="242.08" cy="493.387" r="4" fill="#0" id="circle58"/>
	<circle cx="243.733" cy="94.9333" r="4" fill="#0" id="circle59"/>
	<circle cx="247.04" cy="509.92" r="4" fill="#0" id="circle60"/>
	<circle cx="256.96" cy="104.853" r="4" fill="#0" id="circle61"/>
	<circle cx="260.267" cy="159.413" r="4" fill="#0" id="circle62"/>
	<circle cx="260.267" cy="175.947" r="4" fill="#0" id="circle63"/>
	<circle cx="263.573" cy="486.773" r="4" fill="#0" id="circle64"/>
	<circle cx="263.573" cy="513.227" r="4" fill="#0" id="circle65"/>
	<circle cx="266.88" cy="118.08" r="4" fill="#0" id="circle66"/>
	<circle cx="266.88" cy="450.4" r="4" fill="#0" id="circle67"/>
	<circle cx="266.88" cy="466.933" r="4" fill="#0" id="circle68"/>
	<circle cx="270.187" cy="134.613" r="4" fill="#0" id="circle69"/>
	<circle cx="273.493" cy="185.867" r="4" fill="#0" id="circle70"/>
	<circle cx="283.413" cy="448.747" r="4" fill="#0" id="circle71"/>
	<circle cx="290.027" cy="192.48" r="4" fill="#0" id="circle72"/>
	<circle cx="299.947" cy="448.747" r="4" fill="#0" id="circle73"/>
	<circle cx="304.907" cy="200.747" r="4" fill="#0" id="circle74"/>
	<circle cx="316.48" cy="448.747" r="4" fill="#0" id="circle75"/>
	<circle cx="321.44" cy="205.707" r="4" fill="#0" id="circle76"/>
	<circle cx="333.013" cy="448.747" r="4" fill="#0" id="circle77"/>
	<circle cx="337.973" cy="202.4" r="4" fill="#0" id="circle78"/>
	<circle cx="349.547" cy="448.747" r="4" fill="#0" id="circle79"/>
	<circle cx="354.507" cy="202.4" r="4" fill="#0" id="circle80"/>
	<circle cx="366.08" cy="448.747" r="4" fill="#0" id="circle81"/>
	<circle cx="371.04" cy="205.707" r="4" fill="#0" id="circle82"/>
	<circle cx="382.613" cy="448.747" r="4" fill="#0" id="circle83"/>
	<circle cx="387.573" cy="212.32" r="4" fill="#0" id="circle84"/>
	<circle cx="399.147" cy="448.747" r="4" fill="#0" id="circle85"/>
	<circle cx="404.107" cy="218.933" r="4" fill="#0" id="circle86"/>
	<circle cx="415.68" cy="448.747" r="4" fill="#0" id="circle87"/>
	<circle cx="418.987" cy="227.2" r="4" fill="#0" id="circle88"/>
	<circle cx="432.213" cy="237.12" r="4" fill="#0" id="circle89"/>
	<circle cx="432.213" cy="448.747" r="4" fill="#0" id="circle90"/>
	<circle cx="445.44" cy="248.693" r="4" fill="#0" id="circle91"/>
	<circle cx="448.747" cy="448.747" r="4" fill="#0" id="circle92"/>
	<circle cx="457.013" cy="261.92" r="4" fill="#0" id="circle93"/>
	<circle cx="465.28" cy="448.747" r="4" fill="#0" id="circle94"/>
	<circle cx="470.24" cy="273.493" r="4" fill="#0" id="circle95"/>
	<circle cx="478.507" cy="288.373" r="4" fill="#0" id="circle96"/>
	<circle cx="481.813" cy="448.747" r="4" fill="#0" id="circle97"/>
	<circle cx="495.04" cy="294.987" r="4" fill="#0" id="circle98"/>
	<circle cx="498.347" cy="448.747" r="4" fill="#0" id="circle99"/>
	<circle cx="511.573" cy="294.987" r="4" fill="#0" id="circle100"/>
	<circle cx="514.88" cy="448.747" r="4" fill="#0" id="circle101"/>
	<circle cx="528.107" cy="294.987" r="4" fill="#0" id="circle102"/>
	<circle cx="531.413" cy="448.747" r="4" fill="#0" id="circle103"/>
	<circle cx="544.64" cy="294.987" r="4" fill="#0" id="circle104"/>
	<circle cx="547.947" cy="448.747" r="4" fill="#0" id="circle105"/>
	<circle cx="561.173" cy="294.987" r="4" fill="#0" id="circle106"/>
	<circle cx="564.48" cy="448.747" r="4" fill="#0" id="circle107"/>
	<circle cx="577.707" cy="294.987" r="4" fill="#0" id="circle108"/>
	<circle cx="581.013" cy="448.747" r="4" fill="#0" id="circle109"/>
	<circle cx="594.24" cy="294.987" r="4" fill="#0" id="circle110"/>
	<circle cx="597.547" cy="448.747" r="4" fill="#0" id="circle111"/>
	<circle cx="610.773" cy="294.987" r="4" fill="#0" id="circle112"/>
	<circle cx="614.08" cy="448.747" r="4" fill="#0" id="circle113"/>
	<circle cx="627.307" cy="294.987" r="4" fill="#0" id="circle114"/>
	<circle cx="630.613" cy="448.747" r="4" fill="#0" id="circle115"/>
	<circle cx="643.84" cy="294.987" r="4" fill="#0" id="circle116"/>
	<circle cx="647.147" cy="448.747" r="4" fill="#0" id="circle117"/>
	<circle cx="660.373" cy="294.987" r="4" fill="#0" id="circle118"/>
	<circle cx="663.68" cy="448.747" r="4" fill="#0" id="circle119"/>
	<circle cx="676.907" cy="294.987" r="4" fill="#0" id="circle120"/>
	<circle cx="680.213" cy="448.747" r="4" fill="#0" id="circle121"/>
	<circle cx="693.44" cy="298.293" r="4" fill="#0" id="circle122"/>
	<circle cx="696.747" cy="448.747" r="4" fill="#0" id="circle123"/>
	<circle cx="708.32" cy="461.973" r="4" fill="#0" id="circle124"/>
	<circle cx="709.973" cy="298.293" r="4" fill="#0" id="circle125"/>
	<circle cx="711.627" cy="478.507" r="4" fill="#0" id="circle126"/>
	<circle cx="711.627" cy="495.04" r="4" fill="#0" id="circle127"/>
	<circle cx="714.933" cy="511.573" r="4" fill="#0" id="circle128"/>
	<circle cx="724.853" cy="288.373" r="4" fill="#0" id="circle129"/>
	<circle cx="731.467" cy="514.88" r="4" fill="#0" id="circle130"/>
	<circle cx="733.12" cy="493.387" r="4" fill="#0" id="circle131"/>
	<circle cx="739.733" cy="280.107" r="4" fill="#0" id="circle132"/>
	<circle cx="739.733" cy="457.013" r="4" fill="#0" id="circle133"/>
	<circle cx="739.733" cy="473.547" r="4" fill="#0" id="circle134"/>
	<circle cx="756.267" cy="273.493" r="4" fill="#0" id="circle135"/>
	<circle cx="756.267" cy="458.667" r="4" fill="#0" id="circle136"/>
	<circle cx="769.493" cy="468.587" r="4" fill="#0" id="circle137"/>
	<circle cx="772.8" cy="268.533" r="4" fill="#0" id="circle138"/>
	<circle cx="782.72" cy="457.013" r="4" fill="#0" id="circle139"/>
	<circle cx="789.333" cy="265.227" r="4" fill="#0" id="circle140"/>
	<circle cx="799.253" cy="455.36" r="4" fill="#0" id="circle141"/>
	<circle cx="805.867" cy="260.267" r="4" fill="#0" id="circle142"/>
	<circle cx="812.48" cy="465.28" r="4" fill="#0" id="circle143"/>
	<circle cx="814.133" cy="245.387" r="4" fill="#0" id="circle144"/>
	<circle cx="825.707" cy="475.2" r="4" fill="#0" id="circle145"/>
	<circle cx="827.36" cy="235.467" r="4" fill="#0" id="circle146"/>
	<circle cx="840.587" cy="222.24" r="4" fill="#0" id="circle147"/>
	<circle cx="840.587" cy="483.467" r="4" fill="#0" id="circle148"/>
	<circle cx="857.12" cy="222.24" r="4" fill="#0" id="circle149"/>
	<circle cx="857.12" cy="485.12" r="4" fill="#0" id="circle150"/>
	<circle cx="870.347" cy="233.813" r="4" fill="#0" id="circle151"/>
	<circle cx="873.653" cy="478.507" r="4" fill="#0" id="circle152"/>
	<circle cx="883.573" cy="245.387" r="4" fill="#0" id="circle153"/>
	<circle cx="886.88" cy="468.587" r="4" fill="#0" id="circle154"/>
	<circle cx="893.493" cy="258.613" r="4" fill="#0" id="circle155"/>
	<circle cx="900.107" cy="458.667" r="4" fill="#0" id="circle156"/>
	<circle cx="910.027" cy="265.227" r="4" fill="#0" id="circle157"/>
	<circle cx="916.64" cy="452.053" r="4" fill="#0" id="circle158"/>
	<circle cx="926.56" cy="268.533" r="4" fill="#0" id="circle159"/>
	<circle cx="926.56" cy="465.28" r="4" fill="#0" id="circle160"/>
	<circle cx="943.093" cy="273.493" r="4" fill="#0" id="circle161"/>
	<circle cx="943.093" cy="461.973" r="4" fill="#0" id="circle162"/>
	<circle cx="959.627" cy="280.107" r="4" fill="#0" id="circle163"/>
	<circle cx="959.627" cy="455.36" r="4" fill="#0" id="circle164"/>
	<circle cx="966.24" cy="471.893" r="4" fill="#0" id="circle165"/>
	<circle cx="966.24" cy="488.427" r="4" fill="#0" id="circle166"/>
	<circle cx="966.24" cy="504.96" r="4" fill="#0" id="circle167"/>
	<circle cx="974.507" cy="288.373" r="4" fill="#0" id="circle168"/>
	<circle cx="979.467" cy="514.88" r="4" fill="#0" id="circle169"/>
	<circle cx="984.427" cy="371.04" r="4" fill="#0" id="circle170"/>
	<circle cx="984.427" cy="387.573" r="4" fill="#0" id="circle171"/>
	<circle cx="984.427" cy="404.107" r="4" fill="#0" id="circle172"/>
	<circle cx="984.427" cy="420.64" r="4" fill="#0" id="circle173"/>
	<circle cx="984.427" cy="437.173" r="4" fill="#0" id="circle174"/>
	<circle cx="986.08" cy="301.6" r="4" fill="#0" id="circle175"/>
	<circle cx="986.08" cy="495.04" r="4" fill="#0" id="circle176"/>
	<circle cx="987.733" cy="351.2" r="4" fill="#0" id="circle177"/>
	<circle cx="987.733" cy="453.707" r="4" fill="#0" id="circle178"/>
	<circle cx="994.347" cy="316.48" r="4" fill="#0" id="circle179"/>
	<circle cx="994.347" cy="470.24" r="4" fill="#0" id="circle180"/>
	<circle cx="996" cy="336.32" r="4" fill="#0" id="circle181"/>
	</g>
</svg>