<?xml version="1.0" encoding="UTF-8" standalone="no"?>
<!-- Created with CurveBenchmark -->
<svg
	xmlns:dc="http://purl.org/dc/elements/1.1/"
	xmlns:cc="http://creativecommons.org/ns#"
	xmlns:rdf="http://www.w3.org/1999/02/22-rdf-syntax-ns#"
	xmlns:svg="http://www.w3.org/2000/svg"
	xmlns="http://www.w3.org/2000/svg"
	xmlns:sodipodi="http://sodipodi.sourceforge.net/DTD/sodipodi-0.dtd"
	xmlns:inkscape="http://www.inkscape.org/namespaces/inkscape"
	width="1000"
	height="1000"
	id="svg2"
	version="1.1"
	sodipodi:docname="manifold/gathan1-fish0722.png.txt">
<defs
	id="defs4" />
<metadata
	id="metadata7">
	<rdf:RDF>
		<cc:Work
			rdf:about="">
			<dc:format>image/svg+xml</dc:format>
			<dc:type
				rdf:resource="http://purl.org/dc/dcmitype/StillImage" />
			<dc:title></dc:title>
		</cc:Work>
	</rdf:RDF>
</metadata>
<g
	inkscape:label="Layer 1"
	inkscape:groupmode="layer"
	id="layer1">
	<path style="fill:none;stroke:red;stroke-width:1px;stroke-linecap:butt;stroke-linejoin:miter;stroke-opacity:1" d="M 219.464,138.484 233.924,138.484 z" id="boundary" inkscape:connector-curvature="0" />
	<path style="fill:none;stroke:red;stroke-width:1px;stroke-linecap:butt;stroke-linejoin:miter;stroke-opacity:1" d="M 206.449,145.714 219.464,138.484 z" id="boundary" inkscape:connector-curvature="0" />
	<path style="fill:none;stroke:red;stroke-width:1px;stroke-linecap:butt;stroke-linejoin:miter;stroke-opacity:1" d="M 178.974,152.945 191.988,145.714 z" id="boundary" inkscape:connector-curvature="0" />
	<path style="fill:none;stroke:red;stroke-width:1px;stroke-linecap:butt;stroke-linejoin:miter;stroke-opacity:1" d="M 191.988,145.714 206.449,145.714 z" id="boundary" inkscape:connector-curvature="0" />
	<path style="fill:none;stroke:red;stroke-width:1px;stroke-linecap:butt;stroke-linejoin:miter;stroke-opacity:1" d="M 165.959,160.175 178.974,152.945 z" id="boundary" inkscape:connector-curvature="0" />
	<path style="fill:none;stroke:red;stroke-width:1px;stroke-linecap:butt;stroke-linejoin:miter;stroke-opacity:1" d="M 297.551,109.563 290.321,124.023 z" id="boundary" inkscape:connector-curvature="0" />
	<path style="fill:none;stroke:red;stroke-width:1px;stroke-linecap:butt;stroke-linejoin:miter;stroke-opacity:1" d="M 290.321,124.023 275.86,124.023 z" id="boundary" inkscape:connector-curvature="0" />
	<path style="fill:none;stroke:red;stroke-width:1px;stroke-linecap:butt;stroke-linejoin:miter;stroke-opacity:1" d="M 275.86,124.023 261.399,131.254 z" id="boundary" inkscape:connector-curvature="0" />
	<path style="fill:none;stroke:red;stroke-width:1px;stroke-linecap:butt;stroke-linejoin:miter;stroke-opacity:1" d="M 248.385,138.484 261.399,131.254 z" id="boundary" inkscape:connector-curvature="0" />
	<path style="fill:none;stroke:red;stroke-width:1px;stroke-linecap:butt;stroke-linejoin:miter;stroke-opacity:1" d="M 248.385,138.484 233.924,138.484 z" id="boundary" inkscape:connector-curvature="0" />
	<path style="fill:none;stroke:red;stroke-width:1px;stroke-linecap:butt;stroke-linejoin:miter;stroke-opacity:1" d="M 304.781,95.102 297.551,109.563 z" id="boundary" inkscape:connector-curvature="0" />
	<path style="fill:none;stroke:red;stroke-width:1px;stroke-linecap:butt;stroke-linejoin:miter;stroke-opacity:1" d="M 57.5044,196.327 70.519,189.096 z" id="boundary" inkscape:connector-curvature="0" />
	<path style="fill:none;stroke:red;stroke-width:1px;stroke-linecap:butt;stroke-linejoin:miter;stroke-opacity:1" d="M 96.5481,174.636 84.9796,184.758 z" id="boundary" inkscape:connector-curvature="0" />
	<path style="fill:none;stroke:red;stroke-width:1px;stroke-linecap:butt;stroke-linejoin:miter;stroke-opacity:1" d="M 84.9796,184.758 70.519,189.096 z" id="boundary" inkscape:connector-curvature="0" />
	<path style="fill:none;stroke:red;stroke-width:1px;stroke-linecap:butt;stroke-linejoin:miter;stroke-opacity:1" d="M 30.0292,203.557 15.5685,203.557 z" id="boundary" inkscape:connector-curvature="0" />
	<path style="fill:none;stroke:red;stroke-width:1px;stroke-linecap:butt;stroke-linejoin:miter;stroke-opacity:1" d="M 43.0437,196.327 30.0292,203.557 z" id="boundary" inkscape:connector-curvature="0" />
	<path style="fill:none;stroke:red;stroke-width:1px;stroke-linecap:butt;stroke-linejoin:miter;stroke-opacity:1" d="M 57.5044,196.327 43.0437,196.327 z" id="boundary" inkscape:connector-curvature="0" />
	<path style="fill:none;stroke:red;stroke-width:1px;stroke-linecap:butt;stroke-linejoin:miter;stroke-opacity:1" d="M 138.484,167.405 124.023,167.405 z" id="boundary" inkscape:connector-curvature="0" />
	<path style="fill:none;stroke:red;stroke-width:1px;stroke-linecap:butt;stroke-linejoin:miter;stroke-opacity:1" d="M 151.499,160.175 138.484,167.405 z" id="boundary" inkscape:connector-curvature="0" />
	<path style="fill:none;stroke:red;stroke-width:1px;stroke-linecap:butt;stroke-linejoin:miter;stroke-opacity:1" d="M 165.959,160.175 151.499,160.175 z" id="boundary" inkscape:connector-curvature="0" />
	<path style="fill:none;stroke:red;stroke-width:1px;stroke-linecap:butt;stroke-linejoin:miter;stroke-opacity:1" d="M 124.023,167.405 111.009,174.636 z" id="boundary" inkscape:connector-curvature="0" />
	<path style="fill:none;stroke:red;stroke-width:1px;stroke-linecap:butt;stroke-linejoin:miter;stroke-opacity:1" d="M 111.009,174.636 96.5481,174.636 z" id="boundary" inkscape:connector-curvature="0" />
	<path style="fill:none;stroke:red;stroke-width:1px;stroke-linecap:butt;stroke-linejoin:miter;stroke-opacity:1" d="M 345.271,32.9213 356.84,22.7988 z" id="boundary" inkscape:connector-curvature="0" />
	<path style="fill:none;stroke:red;stroke-width:1px;stroke-linecap:butt;stroke-linejoin:miter;stroke-opacity:1" d="M 369.854,15.5685 356.84,22.7988 z" id="boundary" inkscape:connector-curvature="0" />
	<path style="fill:none;stroke:red;stroke-width:1px;stroke-linecap:butt;stroke-linejoin:miter;stroke-opacity:1" d="M 381.423,4 369.854,15.5685 z" id="boundary" inkscape:connector-curvature="0" />
	<path style="fill:none;stroke:red;stroke-width:1px;stroke-linecap:butt;stroke-linejoin:miter;stroke-opacity:1" d="M 322.134,56.0583 333.703,44.4898 z" id="boundary" inkscape:connector-curvature="0" />
	<path style="fill:none;stroke:red;stroke-width:1px;stroke-linecap:butt;stroke-linejoin:miter;stroke-opacity:1" d="M 345.271,32.9213 333.703,44.4898 z" id="boundary" inkscape:connector-curvature="0" />
	<path style="fill:none;stroke:red;stroke-width:1px;stroke-linecap:butt;stroke-linejoin:miter;stroke-opacity:1" d="M 381.423,4 395.883,5.44606 z" id="boundary" inkscape:connector-curvature="0" />
	<path style="fill:none;stroke:red;stroke-width:1px;stroke-linecap:butt;stroke-linejoin:miter;stroke-opacity:1" d="M 395.883,5.44606 403.114,18.4606 z" id="boundary" inkscape:connector-curvature="0" />
	<path style="fill:none;stroke:red;stroke-width:1px;stroke-linecap:butt;stroke-linejoin:miter;stroke-opacity:1" d="M 395.883,38.7055 403.114,18.4606 z" id="boundary" inkscape:connector-curvature="0" />
	<path style="fill:none;stroke:red;stroke-width:1px;stroke-linecap:butt;stroke-linejoin:miter;stroke-opacity:1" d="M 395.883,53.1662 395.883,38.7055 z" id="boundary" inkscape:connector-curvature="0" />
	<path style="fill:none;stroke:red;stroke-width:1px;stroke-linecap:butt;stroke-linejoin:miter;stroke-opacity:1" d="M 395.883,53.1662 395.883,67.6268 z" id="boundary" inkscape:connector-curvature="0" />
	<path style="fill:none;stroke:red;stroke-width:1px;stroke-linecap:butt;stroke-linejoin:miter;stroke-opacity:1" d="M 314.904,70.519 322.134,56.0583 z" id="boundary" inkscape:connector-curvature="0" />
	<path style="fill:none;stroke:red;stroke-width:1px;stroke-linecap:butt;stroke-linejoin:miter;stroke-opacity:1" d="M 395.883,67.6268 395.883,82.0875 z" id="boundary" inkscape:connector-curvature="0" />
	<path style="fill:none;stroke:red;stroke-width:1px;stroke-linecap:butt;stroke-linejoin:miter;stroke-opacity:1" d="M 304.781,95.102 314.904,70.519 z" id="boundary" inkscape:connector-curvature="0" />
	<path style="fill:none;stroke:red;stroke-width:1px;stroke-linecap:butt;stroke-linejoin:miter;stroke-opacity:1" d="M 395.883,82.0875 395.883,96.5481 z" id="boundary" inkscape:connector-curvature="0" />
	<path style="fill:none;stroke:red;stroke-width:1px;stroke-linecap:butt;stroke-linejoin:miter;stroke-opacity:1" d="M 395.883,96.5481 398.776,111.009 z" id="boundary" inkscape:connector-curvature="0" />
	<path style="fill:none;stroke:red;stroke-width:1px;stroke-linecap:butt;stroke-linejoin:miter;stroke-opacity:1" d="M 410.344,121.131 420.466,132.7 z" id="boundary" inkscape:connector-curvature="0" />
	<path style="fill:none;stroke:red;stroke-width:1px;stroke-linecap:butt;stroke-linejoin:miter;stroke-opacity:1" d="M 410.344,121.131 398.776,111.009 z" id="boundary" inkscape:connector-curvature="0" />
	<path style="fill:none;stroke:red;stroke-width:1px;stroke-linecap:butt;stroke-linejoin:miter;stroke-opacity:1" d="M 434.927,138.484 420.466,132.7 z" id="boundary" inkscape:connector-curvature="0" />
	<path style="fill:none;stroke:red;stroke-width:1px;stroke-linecap:butt;stroke-linejoin:miter;stroke-opacity:1" d="M 434.927,138.484 449.388,138.484 z" id="boundary" inkscape:connector-curvature="0" />
	<path style="fill:none;stroke:red;stroke-width:1px;stroke-linecap:butt;stroke-linejoin:miter;stroke-opacity:1" d="M 449.388,138.484 462.402,145.714 z" id="boundary" inkscape:connector-curvature="0" />
	<path style="fill:none;stroke:red;stroke-width:1px;stroke-linecap:butt;stroke-linejoin:miter;stroke-opacity:1" d="M 476.863,145.714 462.402,145.714 z" id="boundary" inkscape:connector-curvature="0" />
	<path style="fill:none;stroke:red;stroke-width:1px;stroke-linecap:butt;stroke-linejoin:miter;stroke-opacity:1" d="M 18.4606,219.464 4,215.125 z" id="boundary" inkscape:connector-curvature="0" />
	<path style="fill:none;stroke:red;stroke-width:1px;stroke-linecap:butt;stroke-linejoin:miter;stroke-opacity:1" d="M 4,215.125 15.5685,203.557 z" id="boundary" inkscape:connector-curvature="0" />
	<path style="fill:none;stroke:red;stroke-width:1px;stroke-linecap:butt;stroke-linejoin:miter;stroke-opacity:1" d="M 18.4606,219.464 31.4752,226.694 z" id="boundary" inkscape:connector-curvature="0" />
	<path style="fill:none;stroke:red;stroke-width:1px;stroke-linecap:butt;stroke-linejoin:miter;stroke-opacity:1" d="M 31.4752,226.694 44.4898,233.924 z" id="boundary" inkscape:connector-curvature="0" />
	<path style="fill:none;stroke:red;stroke-width:1px;stroke-linecap:butt;stroke-linejoin:miter;stroke-opacity:1" d="M 58.9504,233.924 70.519,244.047 z" id="boundary" inkscape:connector-curvature="0" />
	<path style="fill:none;stroke:red;stroke-width:1px;stroke-linecap:butt;stroke-linejoin:miter;stroke-opacity:1" d="M 44.4898,233.924 58.9504,233.924 z" id="boundary" inkscape:connector-curvature="0" />
	<path style="fill:none;stroke:red;stroke-width:1px;stroke-linecap:butt;stroke-linejoin:miter;stroke-opacity:1" d="M 84.9796,248.385 99.4402,248.385 z" id="boundary" inkscape:connector-curvature="0" />
	<path style="fill:none;stroke:red;stroke-width:1px;stroke-linecap:butt;stroke-linejoin:miter;stroke-opacity:1" d="M 99.4402,248.385 112.455,255.615 z" id="boundary" inkscape:connector-curvature="0" />
	<path style="fill:none;stroke:red;stroke-width:1px;stroke-linecap:butt;stroke-linejoin:miter;stroke-opacity:1" d="M 84.9796,248.385 70.519,244.047 z" id="boundary" inkscape:connector-curvature="0" />
	<path style="fill:none;stroke:red;stroke-width:1px;stroke-linecap:butt;stroke-linejoin:miter;stroke-opacity:1" d="M 126.915,255.615 112.455,255.615 z" id="boundary" inkscape:connector-curvature="0" />
	<path style="fill:none;stroke:red;stroke-width:1px;stroke-linecap:butt;stroke-linejoin:miter;stroke-opacity:1" d="M 139.93,262.845 152.945,270.076 z" id="boundary" inkscape:connector-curvature="0" />
	<path style="fill:none;stroke:red;stroke-width:1px;stroke-linecap:butt;stroke-linejoin:miter;stroke-opacity:1" d="M 139.93,262.845 126.915,255.615 z" id="boundary" inkscape:connector-curvature="0" />
	<path style="fill:none;stroke:red;stroke-width:1px;stroke-linecap:butt;stroke-linejoin:miter;stroke-opacity:1" d="M 152.945,270.076 167.405,270.076 z" id="boundary" inkscape:connector-curvature="0" />
	<path style="fill:none;stroke:red;stroke-width:1px;stroke-linecap:butt;stroke-linejoin:miter;stroke-opacity:1" d="M 167.405,270.076 181.866,270.076 z" id="boundary" inkscape:connector-curvature="0" />
	<path style="fill:none;stroke:red;stroke-width:1px;stroke-linecap:butt;stroke-linejoin:miter;stroke-opacity:1" d="M 206.449,287.429 196.327,275.86 z" id="boundary" inkscape:connector-curvature="0" />
	<path style="fill:none;stroke:red;stroke-width:1px;stroke-linecap:butt;stroke-linejoin:miter;stroke-opacity:1" d="M 213.679,300.443 206.449,287.429 z" id="boundary" inkscape:connector-curvature="0" />
	<path style="fill:none;stroke:red;stroke-width:1px;stroke-linecap:butt;stroke-linejoin:miter;stroke-opacity:1" d="M 213.679,300.443 213.679,314.904 z" id="boundary" inkscape:connector-curvature="0" />
	<path style="fill:none;stroke:red;stroke-width:1px;stroke-linecap:butt;stroke-linejoin:miter;stroke-opacity:1" d="M 213.679,314.904 220.91,327.918 z" id="boundary" inkscape:connector-curvature="0" />
	<path style="fill:none;stroke:red;stroke-width:1px;stroke-linecap:butt;stroke-linejoin:miter;stroke-opacity:1" d="M 220.91,327.918 220.91,342.379 z" id="boundary" inkscape:connector-curvature="0" />
	<path style="fill:none;stroke:red;stroke-width:1px;stroke-linecap:butt;stroke-linejoin:miter;stroke-opacity:1" d="M 229.586,353.948 220.91,342.379 z" id="boundary" inkscape:connector-curvature="0" />
	<path style="fill:none;stroke:red;stroke-width:1px;stroke-linecap:butt;stroke-linejoin:miter;stroke-opacity:1" d="M 181.866,270.076 196.327,275.86 z" id="boundary" inkscape:connector-curvature="0" />
	<path style="fill:none;stroke:red;stroke-width:1px;stroke-linecap:butt;stroke-linejoin:miter;stroke-opacity:1" d="M 313.458,284.536 327.918,284.536 z" id="boundary" inkscape:connector-curvature="0" />
	<path style="fill:none;stroke:red;stroke-width:1px;stroke-linecap:butt;stroke-linejoin:miter;stroke-opacity:1" d="M 342.379,284.536 356.84,284.536 z" id="boundary" inkscape:connector-curvature="0" />
	<path style="fill:none;stroke:red;stroke-width:1px;stroke-linecap:butt;stroke-linejoin:miter;stroke-opacity:1" d="M 371.3,284.536 356.84,284.536 z" id="boundary" inkscape:connector-curvature="0" />
	<path style="fill:none;stroke:red;stroke-width:1px;stroke-linecap:butt;stroke-linejoin:miter;stroke-opacity:1" d="M 342.379,284.536 327.918,284.536 z" id="boundary" inkscape:connector-curvature="0" />
	<path style="fill:none;stroke:red;stroke-width:1px;stroke-linecap:butt;stroke-linejoin:miter;stroke-opacity:1" d="M 398.776,277.306 385.761,284.536 z" id="boundary" inkscape:connector-curvature="0" />
	<path style="fill:none;stroke:red;stroke-width:1px;stroke-linecap:butt;stroke-linejoin:miter;stroke-opacity:1" d="M 385.761,284.536 371.3,284.536 z" id="boundary" inkscape:connector-curvature="0" />
	<path style="fill:none;stroke:red;stroke-width:1px;stroke-linecap:butt;stroke-linejoin:miter;stroke-opacity:1" d="M 413.236,277.306 427.697,277.306 z" id="boundary" inkscape:connector-curvature="0" />
	<path style="fill:none;stroke:red;stroke-width:1px;stroke-linecap:butt;stroke-linejoin:miter;stroke-opacity:1" d="M 442.157,277.306 427.697,277.306 z" id="boundary" inkscape:connector-curvature="0" />
	<path style="fill:none;stroke:red;stroke-width:1px;stroke-linecap:butt;stroke-linejoin:miter;stroke-opacity:1" d="M 413.236,277.306 398.776,277.306 z" id="boundary" inkscape:connector-curvature="0" />
	<path style="fill:none;stroke:red;stroke-width:1px;stroke-linecap:butt;stroke-linejoin:miter;stroke-opacity:1" d="M 313.458,284.536 298.997,288.875 z" id="boundary" inkscape:connector-curvature="0" />
	<path style="fill:none;stroke:red;stroke-width:1px;stroke-linecap:butt;stroke-linejoin:miter;stroke-opacity:1" d="M 236.816,366.962 229.586,353.948 z" id="boundary" inkscape:connector-curvature="0" />
	<path style="fill:none;stroke:red;stroke-width:1px;stroke-linecap:butt;stroke-linejoin:miter;stroke-opacity:1" d="M 272.968,342.379 268.63,362.624 z" id="boundary" inkscape:connector-curvature="0" />
	<path style="fill:none;stroke:red;stroke-width:1px;stroke-linecap:butt;stroke-linejoin:miter;stroke-opacity:1" d="M 246.939,378.531 236.816,366.962 z" id="boundary" inkscape:connector-curvature="0" />
	<path style="fill:none;stroke:red;stroke-width:1px;stroke-linecap:butt;stroke-linejoin:miter;stroke-opacity:1" d="M 268.63,362.624 261.399,377.085 z" id="boundary" inkscape:connector-curvature="0" />
	<path style="fill:none;stroke:red;stroke-width:1px;stroke-linecap:butt;stroke-linejoin:miter;stroke-opacity:1" d="M 261.399,377.085 246.939,378.531 z" id="boundary" inkscape:connector-curvature="0" />
	<path style="fill:none;stroke:red;stroke-width:1px;stroke-linecap:butt;stroke-linejoin:miter;stroke-opacity:1" d="M 287.429,298.997 298.997,288.875 z" id="boundary" inkscape:connector-curvature="0" />
	<path style="fill:none;stroke:red;stroke-width:1px;stroke-linecap:butt;stroke-linejoin:miter;stroke-opacity:1" d="M 280.198,313.458 287.429,298.997 z" id="boundary" inkscape:connector-curvature="0" />
	<path style="fill:none;stroke:red;stroke-width:1px;stroke-linecap:butt;stroke-linejoin:miter;stroke-opacity:1" d="M 272.968,327.918 280.198,313.458 z" id="boundary" inkscape:connector-curvature="0" />
	<path style="fill:none;stroke:red;stroke-width:1px;stroke-linecap:butt;stroke-linejoin:miter;stroke-opacity:1" d="M 272.968,342.379 272.968,327.918 z" id="boundary" inkscape:connector-curvature="0" />
	<path style="fill:none;stroke:red;stroke-width:1px;stroke-linecap:butt;stroke-linejoin:miter;stroke-opacity:1" d="M 442.157,277.306 456.618,277.306 z" id="boundary" inkscape:connector-curvature="0" />
	<path style="fill:none;stroke:red;stroke-width:1px;stroke-linecap:butt;stroke-linejoin:miter;stroke-opacity:1" d="M 456.618,277.306 471.079,283.09 z" id="boundary" inkscape:connector-curvature="0" />
	<path style="fill:none;stroke:red;stroke-width:1px;stroke-linecap:butt;stroke-linejoin:miter;stroke-opacity:1" d="M 491.324,145.714 476.863,145.714 z" id="boundary" inkscape:connector-curvature="0" />
	<path style="fill:none;stroke:red;stroke-width:1px;stroke-linecap:butt;stroke-linejoin:miter;stroke-opacity:1" d="M 533.259,157.283 518.799,152.945 z" id="boundary" inkscape:connector-curvature="0" />
	<path style="fill:none;stroke:red;stroke-width:1px;stroke-linecap:butt;stroke-linejoin:miter;stroke-opacity:1" d="M 518.799,152.945 505.784,145.714 z" id="boundary" inkscape:connector-curvature="0" />
	<path style="fill:none;stroke:red;stroke-width:1px;stroke-linecap:butt;stroke-linejoin:miter;stroke-opacity:1" d="M 491.324,145.714 505.784,145.714 z" id="boundary" inkscape:connector-curvature="0" />
	<path style="fill:none;stroke:red;stroke-width:1px;stroke-linecap:butt;stroke-linejoin:miter;stroke-opacity:1" d="M 805.12,152.945 818.134,145.714 z" id="boundary" inkscape:connector-curvature="0" />
	<path style="fill:none;stroke:red;stroke-width:1px;stroke-linecap:butt;stroke-linejoin:miter;stroke-opacity:1" d="M 831.149,138.484 818.134,145.714 z" id="boundary" inkscape:connector-curvature="0" />
	<path style="fill:none;stroke:red;stroke-width:1px;stroke-linecap:butt;stroke-linejoin:miter;stroke-opacity:1" d="M 547.72,160.175 562.181,160.175 z" id="boundary" inkscape:connector-curvature="0" />
	<path style="fill:none;stroke:red;stroke-width:1px;stroke-linecap:butt;stroke-linejoin:miter;stroke-opacity:1" d="M 562.181,160.175 575.195,167.405 z" id="boundary" inkscape:connector-curvature="0" />
	<path style="fill:none;stroke:red;stroke-width:1px;stroke-linecap:butt;stroke-linejoin:miter;stroke-opacity:1" d="M 547.72,160.175 533.259,157.283 z" id="boundary" inkscape:connector-curvature="0" />
	<path style="fill:none;stroke:red;stroke-width:1px;stroke-linecap:butt;stroke-linejoin:miter;stroke-opacity:1" d="M 805.12,152.945 792.105,160.175 z" id="boundary" inkscape:connector-curvature="0" />
	<path style="fill:none;stroke:red;stroke-width:1px;stroke-linecap:butt;stroke-linejoin:miter;stroke-opacity:1" d="M 792.105,160.175 777.644,164.513 z" id="boundary" inkscape:connector-curvature="0" />
	<path style="fill:none;stroke:red;stroke-width:1px;stroke-linecap:butt;stroke-linejoin:miter;stroke-opacity:1" d="M 647.499,167.405 633.038,167.405 z" id="boundary" inkscape:connector-curvature="0" />
	<path style="fill:none;stroke:red;stroke-width:1px;stroke-linecap:butt;stroke-linejoin:miter;stroke-opacity:1" d="M 575.195,167.405 589.656,167.405 z" id="boundary" inkscape:connector-curvature="0" />
	<path style="fill:none;stroke:red;stroke-width:1px;stroke-linecap:butt;stroke-linejoin:miter;stroke-opacity:1" d="M 604.117,167.405 618.577,167.405 z" id="boundary" inkscape:connector-curvature="0" />
	<path style="fill:none;stroke:red;stroke-width:1px;stroke-linecap:butt;stroke-linejoin:miter;stroke-opacity:1" d="M 618.577,167.405 633.038,167.405 z" id="boundary" inkscape:connector-curvature="0" />
	<path style="fill:none;stroke:red;stroke-width:1px;stroke-linecap:butt;stroke-linejoin:miter;stroke-opacity:1" d="M 604.117,167.405 589.656,167.405 z" id="boundary" inkscape:connector-curvature="0" />
	<path style="fill:none;stroke:red;stroke-width:1px;stroke-linecap:butt;stroke-linejoin:miter;stroke-opacity:1" d="M 661.959,170.297 647.499,167.405 z" id="boundary" inkscape:connector-curvature="0" />
	<path style="fill:none;stroke:red;stroke-width:1px;stroke-linecap:butt;stroke-linejoin:miter;stroke-opacity:1" d="M 676.42,174.636 661.959,170.297 z" id="boundary" inkscape:connector-curvature="0" />
	<path style="fill:none;stroke:red;stroke-width:1px;stroke-linecap:butt;stroke-linejoin:miter;stroke-opacity:1" d="M 763.184,171.743 748.723,178.974 z" id="boundary" inkscape:connector-curvature="0" />
	<path style="fill:none;stroke:red;stroke-width:1px;stroke-linecap:butt;stroke-linejoin:miter;stroke-opacity:1" d="M 777.644,164.513 763.184,171.743 z" id="boundary" inkscape:connector-curvature="0" />
	<path style="fill:none;stroke:red;stroke-width:1px;stroke-linecap:butt;stroke-linejoin:miter;stroke-opacity:1" d="M 687.988,183.312 676.42,174.636 z" id="boundary" inkscape:connector-curvature="0" />
	<path style="fill:none;stroke:red;stroke-width:1px;stroke-linecap:butt;stroke-linejoin:miter;stroke-opacity:1" d="M 926.589,102.332 912.128,109.563 z" id="boundary" inkscape:connector-curvature="0" />
	<path style="fill:none;stroke:red;stroke-width:1px;stroke-linecap:butt;stroke-linejoin:miter;stroke-opacity:1" d="M 912.128,109.563 897.668,109.563 z" id="boundary" inkscape:connector-curvature="0" />
	<path style="fill:none;stroke:red;stroke-width:1px;stroke-linecap:butt;stroke-linejoin:miter;stroke-opacity:1" d="M 871.638,124.023 884.653,116.793 z" id="boundary" inkscape:connector-curvature="0" />
	<path style="fill:none;stroke:red;stroke-width:1px;stroke-linecap:butt;stroke-linejoin:miter;stroke-opacity:1" d="M 871.638,124.023 857.178,128.362 z" id="boundary" inkscape:connector-curvature="0" />
	<path style="fill:none;stroke:red;stroke-width:1px;stroke-linecap:butt;stroke-linejoin:miter;stroke-opacity:1" d="M 884.653,116.793 897.668,109.563 z" id="boundary" inkscape:connector-curvature="0" />
	<path style="fill:none;stroke:red;stroke-width:1px;stroke-linecap:butt;stroke-linejoin:miter;stroke-opacity:1" d="M 941.05,102.332 954.064,95.102 z" id="boundary" inkscape:connector-curvature="0" />
	<path style="fill:none;stroke:red;stroke-width:1px;stroke-linecap:butt;stroke-linejoin:miter;stroke-opacity:1" d="M 968.525,95.102 954.064,95.102 z" id="boundary" inkscape:connector-curvature="0" />
	<path style="fill:none;stroke:red;stroke-width:1px;stroke-linecap:butt;stroke-linejoin:miter;stroke-opacity:1" d="M 968.525,95.102 982.985,95.102 z" id="boundary" inkscape:connector-curvature="0" />
	<path style="fill:none;stroke:red;stroke-width:1px;stroke-linecap:butt;stroke-linejoin:miter;stroke-opacity:1" d="M 926.589,102.332 941.05,102.332 z" id="boundary" inkscape:connector-curvature="0" />
	<path style="fill:none;stroke:red;stroke-width:1px;stroke-linecap:butt;stroke-linejoin:miter;stroke-opacity:1" d="M 982.985,95.102 996,102.332 z" id="boundary" inkscape:connector-curvature="0" />
	<path style="fill:none;stroke:red;stroke-width:1px;stroke-linecap:butt;stroke-linejoin:miter;stroke-opacity:1" d="M 996,102.332 991.662,124.023 z" id="boundary" inkscape:connector-curvature="0" />
	<path style="fill:none;stroke:red;stroke-width:1px;stroke-linecap:butt;stroke-linejoin:miter;stroke-opacity:1" d="M 857.178,128.362 845.609,138.484 z" id="boundary" inkscape:connector-curvature="0" />
	<path style="fill:none;stroke:red;stroke-width:1px;stroke-linecap:butt;stroke-linejoin:miter;stroke-opacity:1" d="M 845.609,138.484 831.149,138.484 z" id="boundary" inkscape:connector-curvature="0" />
	<path style="fill:none;stroke:red;stroke-width:1px;stroke-linecap:butt;stroke-linejoin:miter;stroke-opacity:1" d="M 904.898,174.636 919.359,167.405 z" id="boundary" inkscape:connector-curvature="0" />
	<path style="fill:none;stroke:red;stroke-width:1px;stroke-linecap:butt;stroke-linejoin:miter;stroke-opacity:1" d="M 984.431,138.484 969.971,145.714 z" id="boundary" inkscape:connector-curvature="0" />
	<path style="fill:none;stroke:red;stroke-width:1px;stroke-linecap:butt;stroke-linejoin:miter;stroke-opacity:1" d="M 969.971,145.714 955.51,147.16 z" id="boundary" inkscape:connector-curvature="0" />
	<path style="fill:none;stroke:red;stroke-width:1px;stroke-linecap:butt;stroke-linejoin:miter;stroke-opacity:1" d="M 933.819,160.175 941.05,147.16 z" id="boundary" inkscape:connector-curvature="0" />
	<path style="fill:none;stroke:red;stroke-width:1px;stroke-linecap:butt;stroke-linejoin:miter;stroke-opacity:1" d="M 941.05,147.16 955.51,147.16 z" id="boundary" inkscape:connector-curvature="0" />
	<path style="fill:none;stroke:red;stroke-width:1px;stroke-linecap:butt;stroke-linejoin:miter;stroke-opacity:1" d="M 933.819,160.175 919.359,167.405 z" id="boundary" inkscape:connector-curvature="0" />
	<path style="fill:none;stroke:red;stroke-width:1px;stroke-linecap:butt;stroke-linejoin:miter;stroke-opacity:1" d="M 991.662,124.023 984.431,138.484 z" id="boundary" inkscape:connector-curvature="0" />
	<path style="fill:none;stroke:red;stroke-width:1px;stroke-linecap:butt;stroke-linejoin:miter;stroke-opacity:1" d="M 904.898,174.636 890.437,181.866 z" id="boundary" inkscape:connector-curvature="0" />
	<path style="fill:none;stroke:red;stroke-width:1px;stroke-linecap:butt;stroke-linejoin:miter;stroke-opacity:1" d="M 660.513,267.184 670.636,255.615 z" id="boundary" inkscape:connector-curvature="0" />
	<path style="fill:none;stroke:red;stroke-width:1px;stroke-linecap:butt;stroke-linejoin:miter;stroke-opacity:1" d="M 605.563,277.306 591.102,272.968 z" id="boundary" inkscape:connector-curvature="0" />
	<path style="fill:none;stroke:red;stroke-width:1px;stroke-linecap:butt;stroke-linejoin:miter;stroke-opacity:1" d="M 547.72,277.306 562.181,270.076 z" id="boundary" inkscape:connector-curvature="0" />
	<path style="fill:none;stroke:red;stroke-width:1px;stroke-linecap:butt;stroke-linejoin:miter;stroke-opacity:1" d="M 562.181,270.076 576.641,270.076 z" id="boundary" inkscape:connector-curvature="0" />
	<path style="fill:none;stroke:red;stroke-width:1px;stroke-linecap:butt;stroke-linejoin:miter;stroke-opacity:1" d="M 591.102,272.968 576.641,270.076 z" id="boundary" inkscape:connector-curvature="0" />
	<path style="fill:none;stroke:red;stroke-width:1px;stroke-linecap:butt;stroke-linejoin:miter;stroke-opacity:1" d="M 683.65,248.385 670.636,255.615 z" id="boundary" inkscape:connector-curvature="0" />
	<path style="fill:none;stroke:red;stroke-width:1px;stroke-linecap:butt;stroke-linejoin:miter;stroke-opacity:1" d="M 695.219,196.327 687.988,183.312 z" id="boundary" inkscape:connector-curvature="0" />
	<path style="fill:none;stroke:red;stroke-width:1px;stroke-linecap:butt;stroke-linejoin:miter;stroke-opacity:1" d="M 709.679,196.327 695.219,196.327 z" id="boundary" inkscape:connector-curvature="0" />
	<path style="fill:none;stroke:red;stroke-width:1px;stroke-linecap:butt;stroke-linejoin:miter;stroke-opacity:1" d="M 683.65,248.385 698.111,248.385 z" id="boundary" inkscape:connector-curvature="0" />
	<path style="fill:none;stroke:red;stroke-width:1px;stroke-linecap:butt;stroke-linejoin:miter;stroke-opacity:1" d="M 698.111,248.385 706.787,259.953 z" id="boundary" inkscape:connector-curvature="0" />
	<path style="fill:none;stroke:red;stroke-width:1px;stroke-linecap:butt;stroke-linejoin:miter;stroke-opacity:1" d="M 648.945,277.306 660.513,267.184 z" id="boundary" inkscape:connector-curvature="0" />
	<path style="fill:none;stroke:red;stroke-width:1px;stroke-linecap:butt;stroke-linejoin:miter;stroke-opacity:1" d="M 484.093,290.321 495.662,298.997 z" id="boundary" inkscape:connector-curvature="0" />
	<path style="fill:none;stroke:red;stroke-width:1px;stroke-linecap:butt;stroke-linejoin:miter;stroke-opacity:1" d="M 510.122,298.997 524.583,298.997 z" id="boundary" inkscape:connector-curvature="0" />
	<path style="fill:none;stroke:red;stroke-width:1px;stroke-linecap:butt;stroke-linejoin:miter;stroke-opacity:1" d="M 510.122,298.997 495.662,298.997 z" id="boundary" inkscape:connector-curvature="0" />
	<path style="fill:none;stroke:red;stroke-width:1px;stroke-linecap:butt;stroke-linejoin:miter;stroke-opacity:1" d="M 536.152,290.321 524.583,298.997 z" id="boundary" inkscape:connector-curvature="0" />
	<path style="fill:none;stroke:red;stroke-width:1px;stroke-linecap:butt;stroke-linejoin:miter;stroke-opacity:1" d="M 484.093,290.321 471.079,283.09 z" id="boundary" inkscape:connector-curvature="0" />
	<path style="fill:none;stroke:red;stroke-width:1px;stroke-linecap:butt;stroke-linejoin:miter;stroke-opacity:1" d="M 536.152,290.321 547.72,277.306 z" id="boundary" inkscape:connector-curvature="0" />
	<path style="fill:none;stroke:red;stroke-width:1px;stroke-linecap:butt;stroke-linejoin:miter;stroke-opacity:1" d="M 634.484,277.306 620.023,280.198 z" id="boundary" inkscape:connector-curvature="0" />
	<path style="fill:none;stroke:red;stroke-width:1px;stroke-linecap:butt;stroke-linejoin:miter;stroke-opacity:1" d="M 620.023,280.198 605.563,277.306 z" id="boundary" inkscape:connector-curvature="0" />
	<path style="fill:none;stroke:red;stroke-width:1px;stroke-linecap:butt;stroke-linejoin:miter;stroke-opacity:1" d="M 634.484,277.306 648.945,277.306 z" id="boundary" inkscape:connector-curvature="0" />
	<path style="fill:none;stroke:red;stroke-width:1px;stroke-linecap:butt;stroke-linejoin:miter;stroke-opacity:1" d="M 706.787,259.953 718.356,270.076 z" id="boundary" inkscape:connector-curvature="0" />
	<path style="fill:none;stroke:red;stroke-width:1px;stroke-linecap:butt;stroke-linejoin:miter;stroke-opacity:1" d="M 737.155,189.096 724.14,196.327 z" id="boundary" inkscape:connector-curvature="0" />
	<path style="fill:none;stroke:red;stroke-width:1px;stroke-linecap:butt;stroke-linejoin:miter;stroke-opacity:1" d="M 724.14,196.327 709.679,196.327 z" id="boundary" inkscape:connector-curvature="0" />
	<path style="fill:none;stroke:red;stroke-width:1px;stroke-linecap:butt;stroke-linejoin:miter;stroke-opacity:1" d="M 800.781,233.924 786.321,241.155 z" id="boundary" inkscape:connector-curvature="0" />
	<path style="fill:none;stroke:red;stroke-width:1px;stroke-linecap:butt;stroke-linejoin:miter;stroke-opacity:1" d="M 800.781,233.924 812.35,223.802 z" id="boundary" inkscape:connector-curvature="0" />
	<path style="fill:none;stroke:red;stroke-width:1px;stroke-linecap:butt;stroke-linejoin:miter;stroke-opacity:1" d="M 812.35,223.802 826.81,216.571 z" id="boundary" inkscape:connector-curvature="0" />
	<path style="fill:none;stroke:red;stroke-width:1px;stroke-linecap:butt;stroke-linejoin:miter;stroke-opacity:1" d="M 737.155,189.096 748.723,178.974 z" id="boundary" inkscape:connector-curvature="0" />
	<path style="fill:none;stroke:red;stroke-width:1px;stroke-linecap:butt;stroke-linejoin:miter;stroke-opacity:1" d="M 877.423,190.542 862.962,194.88 z" id="boundary" inkscape:connector-curvature="0" />
	<path style="fill:none;stroke:red;stroke-width:1px;stroke-linecap:butt;stroke-linejoin:miter;stroke-opacity:1" d="M 836.933,205.003 826.81,216.571 z" id="boundary" inkscape:connector-curvature="0" />
	<path style="fill:none;stroke:red;stroke-width:1px;stroke-linecap:butt;stroke-linejoin:miter;stroke-opacity:1" d="M 877.423,190.542 890.437,181.866 z" id="boundary" inkscape:connector-curvature="0" />
	<path style="fill:none;stroke:red;stroke-width:1px;stroke-linecap:butt;stroke-linejoin:miter;stroke-opacity:1" d="M 851.394,205.003 862.962,194.88 z" id="boundary" inkscape:connector-curvature="0" />
	<path style="fill:none;stroke:red;stroke-width:1px;stroke-linecap:butt;stroke-linejoin:miter;stroke-opacity:1" d="M 836.933,205.003 851.394,205.003 z" id="boundary" inkscape:connector-curvature="0" />
	<path style="fill:none;stroke:red;stroke-width:1px;stroke-linecap:butt;stroke-linejoin:miter;stroke-opacity:1" d="M 728.478,281.644 735.708,294.659 z" id="boundary" inkscape:connector-curvature="0" />
	<path style="fill:none;stroke:red;stroke-width:1px;stroke-linecap:butt;stroke-linejoin:miter;stroke-opacity:1" d="M 760.292,312.012 745.831,306.227 z" id="boundary" inkscape:connector-curvature="0" />
	<path style="fill:none;stroke:red;stroke-width:1px;stroke-linecap:butt;stroke-linejoin:miter;stroke-opacity:1" d="M 745.831,306.227 735.708,294.659 z" id="boundary" inkscape:connector-curvature="0" />
	<path style="fill:none;stroke:red;stroke-width:1px;stroke-linecap:butt;stroke-linejoin:miter;stroke-opacity:1" d="M 760.292,312.012 773.306,319.242 z" id="boundary" inkscape:connector-curvature="0" />
	<path style="fill:none;stroke:red;stroke-width:1px;stroke-linecap:butt;stroke-linejoin:miter;stroke-opacity:1" d="M 728.478,281.644 718.356,270.076 z" id="boundary" inkscape:connector-curvature="0" />
	<path style="fill:none;stroke:red;stroke-width:1px;stroke-linecap:butt;stroke-linejoin:miter;stroke-opacity:1" d="M 779.09,255.615 786.321,241.155 z" id="boundary" inkscape:connector-curvature="0" />
	<path style="fill:none;stroke:red;stroke-width:1px;stroke-linecap:butt;stroke-linejoin:miter;stroke-opacity:1" d="M 779.09,270.076 779.09,255.615 z" id="boundary" inkscape:connector-curvature="0" />
	<path style="fill:none;stroke:red;stroke-width:1px;stroke-linecap:butt;stroke-linejoin:miter;stroke-opacity:1" d="M 779.09,270.076 781.983,284.536 z" id="boundary" inkscape:connector-curvature="0" />
	<path style="fill:none;stroke:red;stroke-width:1px;stroke-linecap:butt;stroke-linejoin:miter;stroke-opacity:1" d="M 786.321,298.997 773.306,319.242 z" id="boundary" inkscape:connector-curvature="0" />
	<path style="fill:none;stroke:red;stroke-width:1px;stroke-linecap:butt;stroke-linejoin:miter;stroke-opacity:1" d="M 781.983,284.536 786.321,298.997 z" id="boundary" inkscape:connector-curvature="0" />
	<circle cx="4" cy="215.125" r="4" fill="#0" id="circle0"/>
	<circle cx="15.5685" cy="203.557" r="4" fill="#0" id="circle1"/>
	<circle cx="18.4606" cy="219.464" r="4" fill="#0" id="circle2"/>
	<circle cx="30.0292" cy="203.557" r="4" fill="#0" id="circle3"/>
	<circle cx="31.4752" cy="226.694" r="4" fill="#0" id="circle4"/>
	<circle cx="43.0437" cy="196.327" r="4" fill="#0" id="circle5"/>
	<circle cx="44.4898" cy="233.924" r="4" fill="#0" id="circle6"/>
	<circle cx="57.5044" cy="196.327" r="4" fill="#0" id="circle7"/>
	<circle cx="58.9504" cy="233.924" r="4" fill="#0" id="circle8"/>
	<circle cx="70.519" cy="189.096" r="4" fill="#0" id="circle9"/>
	<circle cx="70.519" cy="244.047" r="4" fill="#0" id="circle10"/>
	<circle cx="84.9796" cy="184.758" r="4" fill="#0" id="circle11"/>
	<circle cx="84.9796" cy="248.385" r="4" fill="#0" id="circle12"/>
	<circle cx="96.5481" cy="174.636" r="4" fill="#0" id="circle13"/>
	<circle cx="99.4402" cy="248.385" r="4" fill="#0" id="circle14"/>
	<circle cx="111.009" cy="174.636" r="4" fill="#0" id="circle15"/>
	<circle cx="112.455" cy="255.615" r="4" fill="#0" id="circle16"/>
	<circle cx="124.023" cy="167.405" r="4" fill="#0" id="circle17"/>
	<circle cx="126.915" cy="255.615" r="4" fill="#0" id="circle18"/>
	<circle cx="138.484" cy="167.405" r="4" fill="#0" id="circle19"/>
	<circle cx="139.93" cy="262.845" r="4" fill="#0" id="circle20"/>
	<circle cx="151.499" cy="160.175" r="4" fill="#0" id="circle21"/>
	<circle cx="152.945" cy="270.076" r="4" fill="#0" id="circle22"/>
	<circle cx="165.959" cy="160.175" r="4" fill="#0" id="circle23"/>
	<circle cx="167.405" cy="270.076" r="4" fill="#0" id="circle24"/>
	<circle cx="178.974" cy="152.945" r="4" fill="#0" id="circle25"/>
	<circle cx="181.866" cy="270.076" r="4" fill="#0" id="circle26"/>
	<circle cx="191.988" cy="145.714" r="4" fill="#0" id="circle27"/>
	<circle cx="196.327" cy="275.86" r="4" fill="#0" id="circle28"/>
	<circle cx="206.449" cy="145.714" r="4" fill="#0" id="circle29"/>
	<circle cx="206.449" cy="287.429" r="4" fill="#0" id="circle30"/>
	<circle cx="213.679" cy="300.443" r="4" fill="#0" id="circle31"/>
	<circle cx="213.679" cy="314.904" r="4" fill="#0" id="circle32"/>
	<circle cx="219.464" cy="138.484" r="4" fill="#0" id="circle33"/>
	<circle cx="220.91" cy="327.918" r="4" fill="#0" id="circle34"/>
	<circle cx="220.91" cy="342.379" r="4" fill="#0" id="circle35"/>
	<circle cx="229.586" cy="353.948" r="4" fill="#0" id="circle36"/>
	<circle cx="233.924" cy="138.484" r="4" fill="#0" id="circle37"/>
	<circle cx="236.816" cy="366.962" r="4" fill="#0" id="circle38"/>
	<circle cx="246.939" cy="378.531" r="4" fill="#0" id="circle39"/>
	<circle cx="248.385" cy="138.484" r="4" fill="#0" id="circle40"/>
	<circle cx="261.399" cy="131.254" r="4" fill="#0" id="circle41"/>
	<circle cx="261.399" cy="377.085" r="4" fill="#0" id="circle42"/>
	<circle cx="268.63" cy="362.624" r="4" fill="#0" id="circle43"/>
	<circle cx="272.968" cy="327.918" r="4" fill="#0" id="circle44"/>
	<circle cx="272.968" cy="342.379" r="4" fill="#0" id="circle45"/>
	<circle cx="275.86" cy="124.023" r="4" fill="#0" id="circle46"/>
	<circle cx="280.198" cy="313.458" r="4" fill="#0" id="circle47"/>
	<circle cx="287.429" cy="298.997" r="4" fill="#0" id="circle48"/>
	<circle cx="290.321" cy="124.023" r="4" fill="#0" id="circle49"/>
	<circle cx="297.551" cy="109.563" r="4" fill="#0" id="circle50"/>
	<circle cx="298.997" cy="288.875" r="4" fill="#0" id="circle51"/>
	<circle cx="304.781" cy="95.102" r="4" fill="#0" id="circle52"/>
	<circle cx="313.458" cy="284.536" r="4" fill="#0" id="circle53"/>
	<circle cx="314.904" cy="70.519" r="4" fill="#0" id="circle54"/>
	<circle cx="322.134" cy="56.0583" r="4" fill="#0" id="circle55"/>
	<circle cx="327.918" cy="284.536" r="4" fill="#0" id="circle56"/>
	<circle cx="333.703" cy="44.4898" r="4" fill="#0" id="circle57"/>
	<circle cx="342.379" cy="284.536" r="4" fill="#0" id="circle58"/>
	<circle cx="345.271" cy="32.9213" r="4" fill="#0" id="circle59"/>
	<circle cx="356.84" cy="22.7988" r="4" fill="#0" id="circle60"/>
	<circle cx="356.84" cy="284.536" r="4" fill="#0" id="circle61"/>
	<circle cx="369.854" cy="15.5685" r="4" fill="#0" id="circle62"/>
	<circle cx="371.3" cy="284.536" r="4" fill="#0" id="circle63"/>
	<circle cx="381.423" cy="4" r="4" fill="#0" id="circle64"/>
	<circle cx="385.761" cy="284.536" r="4" fill="#0" id="circle65"/>
	<circle cx="395.883" cy="5.44606" r="4" fill="#0" id="circle66"/>
	<circle cx="395.883" cy="38.7055" r="4" fill="#0" id="circle67"/>
	<circle cx="395.883" cy="53.1662" r="4" fill="#0" id="circle68"/>
	<circle cx="395.883" cy="67.6268" r="4" fill="#0" id="circle69"/>
	<circle cx="395.883" cy="82.0875" r="4" fill="#0" id="circle70"/>
	<circle cx="395.883" cy="96.5481" r="4" fill="#0" id="circle71"/>
	<circle cx="398.776" cy="111.009" r="4" fill="#0" id="circle72"/>
	<circle cx="398.776" cy="277.306" r="4" fill="#0" id="circle73"/>
	<circle cx="403.114" cy="18.4606" r="4" fill="#0" id="circle74"/>
	<circle cx="410.344" cy="121.131" r="4" fill="#0" id="circle75"/>
	<circle cx="413.236" cy="277.306" r="4" fill="#0" id="circle76"/>
	<circle cx="420.466" cy="132.7" r="4" fill="#0" id="circle77"/>
	<circle cx="427.697" cy="277.306" r="4" fill="#0" id="circle78"/>
	<circle cx="434.927" cy="138.484" r="4" fill="#0" id="circle79"/>
	<circle cx="442.157" cy="277.306" r="4" fill="#0" id="circle80"/>
	<circle cx="449.388" cy="138.484" r="4" fill="#0" id="circle81"/>
	<circle cx="456.618" cy="277.306" r="4" fill="#0" id="circle82"/>
	<circle cx="462.402" cy="145.714" r="4" fill="#0" id="circle83"/>
	<circle cx="471.079" cy="283.09" r="4" fill="#0" id="circle84"/>
	<circle cx="476.863" cy="145.714" r="4" fill="#0" id="circle85"/>
	<circle cx="484.093" cy="290.321" r="4" fill="#0" id="circle86"/>
	<circle cx="491.324" cy="145.714" r="4" fill="#0" id="circle87"/>
	<circle cx="495.662" cy="298.997" r="4" fill="#0" id="circle88"/>
	<circle cx="505.784" cy="145.714" r="4" fill="#0" id="circle89"/>
	<circle cx="510.122" cy="298.997" r="4" fill="#0" id="circle90"/>
	<circle cx="518.799" cy="152.945" r="4" fill="#0" id="circle91"/>
	<circle cx="524.583" cy="298.997" r="4" fill="#0" id="circle92"/>
	<circle cx="533.259" cy="157.283" r="4" fill="#0" id="circle93"/>
	<circle cx="536.152" cy="290.321" r="4" fill="#0" id="circle94"/>
	<circle cx="547.72" cy="160.175" r="4" fill="#0" id="circle95"/>
	<circle cx="547.72" cy="277.306" r="4" fill="#0" id="circle96"/>
	<circle cx="562.181" cy="160.175" r="4" fill="#0" id="circle97"/>
	<circle cx="562.181" cy="270.076" r="4" fill="#0" id="circle98"/>
	<circle cx="575.195" cy="167.405" r="4" fill="#0" id="circle99"/>
	<circle cx="576.641" cy="270.076" r="4" fill="#0" id="circle100"/>
	<circle cx="589.656" cy="167.405" r="4" fill="#0" id="circle101"/>
	<circle cx="591.102" cy="272.968" r="4" fill="#0" id="circle102"/>
	<circle cx="604.117" cy="167.405" r="4" fill="#0" id="circle103"/>
	<circle cx="605.563" cy="277.306" r="4" fill="#0" id="circle104"/>
	<circle cx="618.577" cy="167.405" r="4" fill="#0" id="circle105"/>
	<circle cx="620.023" cy="280.198" r="4" fill="#0" id="circle106"/>
	<circle cx="633.038" cy="167.405" r="4" fill="#0" id="circle107"/>
	<circle cx="634.484" cy="277.306" r="4" fill="#0" id="circle108"/>
	<circle cx="647.499" cy="167.405" r="4" fill="#0" id="circle109"/>
	<circle cx="648.945" cy="277.306" r="4" fill="#0" id="circle110"/>
	<circle cx="660.513" cy="267.184" r="4" fill="#0" id="circle111"/>
	<circle cx="661.959" cy="170.297" r="4" fill="#0" id="circle112"/>
	<circle cx="670.636" cy="255.615" r="4" fill="#0" id="circle113"/>
	<circle cx="676.42" cy="174.636" r="4" fill="#0" id="circle114"/>
	<circle cx="683.65" cy="248.385" r="4" fill="#0" id="circle115"/>
	<circle cx="687.988" cy="183.312" r="4" fill="#0" id="circle116"/>
	<circle cx="695.219" cy="196.327" r="4" fill="#0" id="circle117"/>
	<circle cx="698.111" cy="248.385" r="4" fill="#0" id="circle118"/>
	<circle cx="706.787" cy="259.953" r="4" fill="#0" id="circle119"/>
	<circle cx="709.679" cy="196.327" r="4" fill="#0" id="circle120"/>
	<circle cx="718.356" cy="270.076" r="4" fill="#0" id="circle121"/>
	<circle cx="724.14" cy="196.327" r="4" fill="#0" id="circle122"/>
	<circle cx="728.478" cy="281.644" r="4" fill="#0" id="circle123"/>
	<circle cx="735.708" cy="294.659" r="4" fill="#0" id="circle124"/>
	<circle cx="737.155" cy="189.096" r="4" fill="#0" id="circle125"/>
	<circle cx="745.831" cy="306.227" r="4" fill="#0" id="circle126"/>
	<circle cx="748.723" cy="178.974" r="4" fill="#0" id="circle127"/>
	<circle cx="760.292" cy="312.012" r="4" fill="#0" id="circle128"/>
	<circle cx="763.184" cy="171.743" r="4" fill="#0" id="circle129"/>
	<circle cx="773.306" cy="319.242" r="4" fill="#0" id="circle130"/>
	<circle cx="777.644" cy="164.513" r="4" fill="#0" id="circle131"/>
	<circle cx="779.09" cy="255.615" r="4" fill="#0" id="circle132"/>
	<circle cx="779.09" cy="270.076" r="4" fill="#0" id="circle133"/>
	<circle cx="781.983" cy="284.536" r="4" fill="#0" id="circle134"/>
	<circle cx="786.321" cy="241.155" r="4" fill="#0" id="circle135"/>
	<circle cx="786.321" cy="298.997" r="4" fill="#0" id="circle136"/>
	<circle cx="792.105" cy="160.175" r="4" fill="#0" id="circle137"/>
	<circle cx="800.781" cy="233.924" r="4" fill="#0" id="circle138"/>
	<circle cx="805.12" cy="152.945" r="4" fill="#0" id="circle139"/>
	<circle cx="812.35" cy="223.802" r="4" fill="#0" id="circle140"/>
	<circle cx="818.134" cy="145.714" r="4" fill="#0" id="circle141"/>
	<circle cx="826.81" cy="216.571" r="4" fill="#0" id="circle142"/>
	<circle cx="831.149" cy="138.484" r="4" fill="#0" id="circle143"/>
	<circle cx="836.933" cy="205.003" r="4" fill="#0" id="circle144"/>
	<circle cx="845.609" cy="138.484" r="4" fill="#0" id="circle145"/>
	<circle cx="851.394" cy="205.003" r="4" fill="#0" id="circle146"/>
	<circle cx="857.178" cy="128.362" r="4" fill="#0" id="circle147"/>
	<circle cx="862.962" cy="194.88" r="4" fill="#0" id="circle148"/>
	<circle cx="871.638" cy="124.023" r="4" fill="#0" id="circle149"/>
	<circle cx="877.423" cy="190.542" r="4" fill="#0" id="circle150"/>
	<circle cx="884.653" cy="116.793" r="4" fill="#0" id="circle151"/>
	<circle cx="890.437" cy="181.866" r="4" fill="#0" id="circle152"/>
	<circle cx="897.668" cy="109.563" r="4" fill="#0" id="circle153"/>
	<circle cx="904.898" cy="174.636" r="4" fill="#0" id="circle154"/>
	<circle cx="912.128" cy="109.563" r="4" fill="#0" id="circle155"/>
	<circle cx="919.359" cy="167.405" r="4" fill="#0" id="circle156"/>
	<circle cx="926.589" cy="102.332" r="4" fill="#0" id="circle157"/>
	<circle cx="933.819" cy="160.175" r="4" fill="#0" id="circle158"/>
	<circle cx="941.05" cy="102.332" r="4" fill="#0" id="circle159"/>
	<circle cx="941.05" cy="147.16" r="4" fill="#0" id="circle160"/>
	<circle cx="954.064" cy="95.102" r="4" fill="#0" id="circle161"/>
	<circle cx="955.51" cy="147.16" r="4" fill="#0" id="circle162"/>
	<circle cx="968.525" cy="95.102" r="4" fill="#0" id="circle163"/>
	<circle cx="969.971" cy="145.714" r="4" fill="#0" id="circle164"/>
	<circle cx="982.985" cy="95.102" r="4" fill="#0" id="circle165"/>
	<circle cx="984.431" cy="138.484" r="4" fill="#0" id="circle166"/>
	<circle cx="991.662" cy="124.023" r="4" fill="#0" id="circle167"/>
	<circle cx="996" cy="102.332" r="4" fill="#0" id="circle168"/>
	</g>
</svg>