<?xml version="1.0" encoding="UTF-8" standalone="no"?>
<!-- Created with CurveBenchmark -->
<svg
	xmlns:dc="http://purl.org/dc/elements/1.1/"
	xmlns:cc="http://creativecommons.org/ns#"
	xmlns:rdf="http://www.w3.org/1999/02/22-rdf-syntax-ns#"
	xmlns:svg="http://www.w3.org/2000/svg"
	xmlns="http://www.w3.org/2000/svg"
	xmlns:sodipodi="http://sodipodi.sourceforge.net/DTD/sodipodi-0.dtd"
	xmlns:inkscape="http://www.inkscape.org/namespaces/inkscape"
	width="1000"
	height="1000"
	id="svg2"
	version="1.1"
	sodipodi:docname="manifold/gathang-bed145.png.txt">
<defs
	id="defs4" />
<metadata
	id="metadata7">
	<rdf:RDF>
		<cc:Work
			rdf:about="">
			<dc:format>image/svg+xml</dc:format>
			<dc:type
				rdf:resource="http://purl.org/dc/dcmitype/StillImage" />
			<dc:title></dc:title>
		</cc:Work>
	</rdf:RDF>
</metadata>
<g
	inkscape:label="Layer 1"
	inkscape:groupmode="layer"
	id="layer1">
	<path style="fill:none;stroke:red;stroke-width:1px;stroke-linecap:butt;stroke-linejoin:miter;stroke-opacity:1" d="M 26.4278,110.963 43.68,102.337 z" id="boundary" inkscape:connector-curvature="0" />
	<path style="fill:none;stroke:red;stroke-width:1px;stroke-linecap:butt;stroke-linejoin:miter;stroke-opacity:1" d="M 59.207,93.7113 43.68,102.337 z" id="boundary" inkscape:connector-curvature="0" />
	<path style="fill:none;stroke:red;stroke-width:1px;stroke-linecap:butt;stroke-linejoin:miter;stroke-opacity:1" d="M 7.45043,155.819 4,138.567 z" id="boundary" inkscape:connector-curvature="0" />
	<path style="fill:none;stroke:red;stroke-width:1px;stroke-linecap:butt;stroke-linejoin:miter;stroke-opacity:1" d="M 4,138.567 12.6261,123.04 z" id="boundary" inkscape:connector-curvature="0" />
	<path style="fill:none;stroke:red;stroke-width:1px;stroke-linecap:butt;stroke-linejoin:miter;stroke-opacity:1" d="M 12.6261,123.04 26.4278,110.963 z" id="boundary" inkscape:connector-curvature="0" />
	<path style="fill:none;stroke:red;stroke-width:1px;stroke-linecap:butt;stroke-linejoin:miter;stroke-opacity:1" d="M 59.207,93.7113 76.4591,90.2609 z" id="boundary" inkscape:connector-curvature="0" />
	<path style="fill:none;stroke:red;stroke-width:1px;stroke-linecap:butt;stroke-linejoin:miter;stroke-opacity:1" d="M 110.963,79.9096 128.216,76.4591 z" id="boundary" inkscape:connector-curvature="0" />
	<path style="fill:none;stroke:red;stroke-width:1px;stroke-linecap:butt;stroke-linejoin:miter;stroke-opacity:1" d="M 145.468,73.0087 128.216,76.4591 z" id="boundary" inkscape:connector-curvature="0" />
	<path style="fill:none;stroke:red;stroke-width:1px;stroke-linecap:butt;stroke-linejoin:miter;stroke-opacity:1" d="M 162.72,66.1078 145.468,73.0087 z" id="boundary" inkscape:connector-curvature="0" />
	<path style="fill:none;stroke:red;stroke-width:1px;stroke-linecap:butt;stroke-linejoin:miter;stroke-opacity:1" d="M 76.4591,90.2609 93.7113,83.36 z" id="boundary" inkscape:connector-curvature="0" />
	<path style="fill:none;stroke:red;stroke-width:1px;stroke-linecap:butt;stroke-linejoin:miter;stroke-opacity:1" d="M 93.7113,83.36 110.963,79.9096 z" id="boundary" inkscape:connector-curvature="0" />
	<path style="fill:none;stroke:red;stroke-width:1px;stroke-linecap:butt;stroke-linejoin:miter;stroke-opacity:1" d="M 14.3513,173.071 7.45043,155.819 z" id="boundary" inkscape:connector-curvature="0" />
	<path style="fill:none;stroke:red;stroke-width:1px;stroke-linecap:butt;stroke-linejoin:miter;stroke-opacity:1" d="M 10.9009,317.99 14.3513,293.837 z" id="boundary" inkscape:connector-curvature="0" />
	<path style="fill:none;stroke:red;stroke-width:1px;stroke-linecap:butt;stroke-linejoin:miter;stroke-opacity:1" d="M 10.9009,317.99 7.45043,349.043 z" id="boundary" inkscape:connector-curvature="0" />
	<path style="fill:none;stroke:red;stroke-width:1px;stroke-linecap:butt;stroke-linejoin:miter;stroke-opacity:1" d="M 14.3513,293.837 17.8017,276.584 z" id="boundary" inkscape:connector-curvature="0" />
	<path style="fill:none;stroke:red;stroke-width:1px;stroke-linecap:butt;stroke-linejoin:miter;stroke-opacity:1" d="M 17.8017,190.323 17.8017,207.576 z" id="boundary" inkscape:connector-curvature="0" />
	<path style="fill:none;stroke:red;stroke-width:1px;stroke-linecap:butt;stroke-linejoin:miter;stroke-opacity:1" d="M 14.3513,173.071 17.8017,190.323 z" id="boundary" inkscape:connector-curvature="0" />
	<path style="fill:none;stroke:red;stroke-width:1px;stroke-linecap:butt;stroke-linejoin:miter;stroke-opacity:1" d="M 17.8017,224.828 17.8017,207.576 z" id="boundary" inkscape:connector-curvature="0" />
	<path style="fill:none;stroke:red;stroke-width:1px;stroke-linecap:butt;stroke-linejoin:miter;stroke-opacity:1" d="M 17.8017,242.08 17.8017,259.332 z" id="boundary" inkscape:connector-curvature="0" />
	<path style="fill:none;stroke:red;stroke-width:1px;stroke-linecap:butt;stroke-linejoin:miter;stroke-opacity:1" d="M 17.8017,276.584 17.8017,259.332 z" id="boundary" inkscape:connector-curvature="0" />
	<path style="fill:none;stroke:red;stroke-width:1px;stroke-linecap:butt;stroke-linejoin:miter;stroke-opacity:1" d="M 17.8017,242.08 17.8017,224.828 z" id="boundary" inkscape:connector-curvature="0" />
	<path style="fill:none;stroke:red;stroke-width:1px;stroke-linecap:butt;stroke-linejoin:miter;stroke-opacity:1" d="M 7.45043,349.043 7.45043,366.296 z" id="boundary" inkscape:connector-curvature="0" />
	<path style="fill:none;stroke:red;stroke-width:1px;stroke-linecap:butt;stroke-linejoin:miter;stroke-opacity:1" d="M 238.63,7.45043 255.882,4 z" id="boundary" inkscape:connector-curvature="0" />
	<path style="fill:none;stroke:red;stroke-width:1px;stroke-linecap:butt;stroke-linejoin:miter;stroke-opacity:1" d="M 224.828,28.153 238.63,7.45043 z" id="boundary" inkscape:connector-curvature="0" />
	<path style="fill:none;stroke:red;stroke-width:1px;stroke-linecap:butt;stroke-linejoin:miter;stroke-opacity:1" d="M 224.828,28.153 209.301,40.2296 z" id="boundary" inkscape:connector-curvature="0" />
	<path style="fill:none;stroke:red;stroke-width:1px;stroke-linecap:butt;stroke-linejoin:miter;stroke-opacity:1" d="M 209.301,40.2296 192.049,45.4052 z" id="boundary" inkscape:connector-curvature="0" />
	<path style="fill:none;stroke:red;stroke-width:1px;stroke-linecap:butt;stroke-linejoin:miter;stroke-opacity:1" d="M 178.247,57.4817 192.049,45.4052 z" id="boundary" inkscape:connector-curvature="0" />
	<path style="fill:none;stroke:red;stroke-width:1px;stroke-linecap:butt;stroke-linejoin:miter;stroke-opacity:1" d="M 273.134,9.17565 281.76,24.7026 z" id="boundary" inkscape:connector-curvature="0" />
	<path style="fill:none;stroke:red;stroke-width:1px;stroke-linecap:butt;stroke-linejoin:miter;stroke-opacity:1" d="M 255.882,4 273.134,9.17565 z" id="boundary" inkscape:connector-curvature="0" />
	<path style="fill:none;stroke:red;stroke-width:1px;stroke-linecap:butt;stroke-linejoin:miter;stroke-opacity:1" d="M 295.562,35.0539 281.76,24.7026 z" id="boundary" inkscape:connector-curvature="0" />
	<path style="fill:none;stroke:red;stroke-width:1px;stroke-linecap:butt;stroke-linejoin:miter;stroke-opacity:1" d="M 295.562,35.0539 312.814,41.9548 z" id="boundary" inkscape:connector-curvature="0" />
	<path style="fill:none;stroke:red;stroke-width:1px;stroke-linecap:butt;stroke-linejoin:miter;stroke-opacity:1" d="M 326.616,52.3061 312.814,41.9548 z" id="boundary" inkscape:connector-curvature="0" />
	<path style="fill:none;stroke:red;stroke-width:1px;stroke-linecap:butt;stroke-linejoin:miter;stroke-opacity:1" d="M 326.616,52.3061 336.967,66.1078 z" id="boundary" inkscape:connector-curvature="0" />
	<path style="fill:none;stroke:red;stroke-width:1px;stroke-linecap:butt;stroke-linejoin:miter;stroke-opacity:1" d="M 162.72,66.1078 178.247,57.4817 z" id="boundary" inkscape:connector-curvature="0" />
	<path style="fill:none;stroke:red;stroke-width:1px;stroke-linecap:butt;stroke-linejoin:miter;stroke-opacity:1" d="M 354.219,69.5583 336.967,66.1078 z" id="boundary" inkscape:connector-curvature="0" />
	<path style="fill:none;stroke:red;stroke-width:1px;stroke-linecap:butt;stroke-linejoin:miter;stroke-opacity:1" d="M 371.471,73.0087 354.219,69.5583 z" id="boundary" inkscape:connector-curvature="0" />
	<path style="fill:none;stroke:red;stroke-width:1px;stroke-linecap:butt;stroke-linejoin:miter;stroke-opacity:1" d="M 423.228,86.8104 405.976,83.36 z" id="boundary" inkscape:connector-curvature="0" />
	<path style="fill:none;stroke:red;stroke-width:1px;stroke-linecap:butt;stroke-linejoin:miter;stroke-opacity:1" d="M 405.976,83.36 388.723,76.4591 z" id="boundary" inkscape:connector-curvature="0" />
	<path style="fill:none;stroke:red;stroke-width:1px;stroke-linecap:butt;stroke-linejoin:miter;stroke-opacity:1" d="M 371.471,73.0087 388.723,76.4591 z" id="boundary" inkscape:connector-curvature="0" />
	<path style="fill:none;stroke:red;stroke-width:1px;stroke-linecap:butt;stroke-linejoin:miter;stroke-opacity:1" d="M 457.732,100.612 440.48,93.7113 z" id="boundary" inkscape:connector-curvature="0" />
	<path style="fill:none;stroke:red;stroke-width:1px;stroke-linecap:butt;stroke-linejoin:miter;stroke-opacity:1" d="M 474.984,107.513 457.732,100.612 z" id="boundary" inkscape:connector-curvature="0" />
	<path style="fill:none;stroke:red;stroke-width:1px;stroke-linecap:butt;stroke-linejoin:miter;stroke-opacity:1" d="M 423.228,86.8104 440.48,93.7113 z" id="boundary" inkscape:connector-curvature="0" />
	<path style="fill:none;stroke:red;stroke-width:1px;stroke-linecap:butt;stroke-linejoin:miter;stroke-opacity:1" d="M 7.45043,366.296 7.45043,383.548 z" id="boundary" inkscape:connector-curvature="0" />
	<path style="fill:none;stroke:red;stroke-width:1px;stroke-linecap:butt;stroke-linejoin:miter;stroke-opacity:1" d="M 7.45043,400.8 7.45043,418.052 z" id="boundary" inkscape:connector-curvature="0" />
	<path style="fill:none;stroke:red;stroke-width:1px;stroke-linecap:butt;stroke-linejoin:miter;stroke-opacity:1" d="M 7.45043,435.304 7.45043,418.052 z" id="boundary" inkscape:connector-curvature="0" />
	<path style="fill:none;stroke:red;stroke-width:1px;stroke-linecap:butt;stroke-linejoin:miter;stroke-opacity:1" d="M 7.45043,400.8 7.45043,383.548 z" id="boundary" inkscape:connector-curvature="0" />
	<path style="fill:none;stroke:red;stroke-width:1px;stroke-linecap:butt;stroke-linejoin:miter;stroke-opacity:1" d="M 50.5809,464.633 33.3287,469.809 z" id="boundary" inkscape:connector-curvature="0" />
	<path style="fill:none;stroke:red;stroke-width:1px;stroke-linecap:butt;stroke-linejoin:miter;stroke-opacity:1" d="M 7.45043,452.557 7.45043,435.304 z" id="boundary" inkscape:connector-curvature="0" />
	<path style="fill:none;stroke:red;stroke-width:1px;stroke-linecap:butt;stroke-linejoin:miter;stroke-opacity:1" d="M 67.833,464.633 85.0852,464.633 z" id="boundary" inkscape:connector-curvature="0" />
	<path style="fill:none;stroke:red;stroke-width:1px;stroke-linecap:butt;stroke-linejoin:miter;stroke-opacity:1" d="M 67.833,464.633 50.5809,464.633 z" id="boundary" inkscape:connector-curvature="0" />
	<path style="fill:none;stroke:red;stroke-width:1px;stroke-linecap:butt;stroke-linejoin:miter;stroke-opacity:1" d="M 85.0852,464.633 102.337,464.633 z" id="boundary" inkscape:connector-curvature="0" />
	<path style="fill:none;stroke:red;stroke-width:1px;stroke-linecap:butt;stroke-linejoin:miter;stroke-opacity:1" d="M 119.59,464.633 102.337,464.633 z" id="boundary" inkscape:connector-curvature="0" />
	<path style="fill:none;stroke:red;stroke-width:1px;stroke-linecap:butt;stroke-linejoin:miter;stroke-opacity:1" d="M 9.17565,469.809 10.9009,487.061 z" id="boundary" inkscape:connector-curvature="0" />
	<path style="fill:none;stroke:red;stroke-width:1px;stroke-linecap:butt;stroke-linejoin:miter;stroke-opacity:1" d="M 10.9009,487.061 10.9009,504.313 z" id="boundary" inkscape:connector-curvature="0" />
	<path style="fill:none;stroke:red;stroke-width:1px;stroke-linecap:butt;stroke-linejoin:miter;stroke-opacity:1" d="M 33.3287,504.313 28.153,533.642 z" id="boundary" inkscape:connector-curvature="0" />
	<path style="fill:none;stroke:red;stroke-width:1px;stroke-linecap:butt;stroke-linejoin:miter;stroke-opacity:1" d="M 28.153,533.642 14.3513,521.565 z" id="boundary" inkscape:connector-curvature="0" />
	<path style="fill:none;stroke:red;stroke-width:1px;stroke-linecap:butt;stroke-linejoin:miter;stroke-opacity:1" d="M 14.3513,521.565 10.9009,504.313 z" id="boundary" inkscape:connector-curvature="0" />
	<path style="fill:none;stroke:red;stroke-width:1px;stroke-linecap:butt;stroke-linejoin:miter;stroke-opacity:1" d="M 7.45043,452.557 9.17565,469.809 z" id="boundary" inkscape:connector-curvature="0" />
	<path style="fill:none;stroke:red;stroke-width:1px;stroke-linecap:butt;stroke-linejoin:miter;stroke-opacity:1" d="M 119.59,464.633 136.842,464.633 z" id="boundary" inkscape:connector-curvature="0" />
	<path style="fill:none;stroke:red;stroke-width:1px;stroke-linecap:butt;stroke-linejoin:miter;stroke-opacity:1" d="M 136.842,464.633 154.094,464.633 z" id="boundary" inkscape:connector-curvature="0" />
	<path style="fill:none;stroke:red;stroke-width:1px;stroke-linecap:butt;stroke-linejoin:miter;stroke-opacity:1" d="M 33.3287,469.809 33.3287,487.061 z" id="boundary" inkscape:connector-curvature="0" />
	<path style="fill:none;stroke:red;stroke-width:1px;stroke-linecap:butt;stroke-linejoin:miter;stroke-opacity:1" d="M 33.3287,504.313 33.3287,487.061 z" id="boundary" inkscape:connector-curvature="0" />
	<path style="fill:none;stroke:red;stroke-width:1px;stroke-linecap:butt;stroke-linejoin:miter;stroke-opacity:1" d="M 154.094,464.633 171.346,464.633 z" id="boundary" inkscape:connector-curvature="0" />
	<path style="fill:none;stroke:red;stroke-width:1px;stroke-linecap:butt;stroke-linejoin:miter;stroke-opacity:1" d="M 188.598,464.633 205.85,464.633 z" id="boundary" inkscape:connector-curvature="0" />
	<path style="fill:none;stroke:red;stroke-width:1px;stroke-linecap:butt;stroke-linejoin:miter;stroke-opacity:1" d="M 223.103,464.633 240.355,464.633 z" id="boundary" inkscape:connector-curvature="0" />
	<path style="fill:none;stroke:red;stroke-width:1px;stroke-linecap:butt;stroke-linejoin:miter;stroke-opacity:1" d="M 223.103,464.633 205.85,464.633 z" id="boundary" inkscape:connector-curvature="0" />
	<path style="fill:none;stroke:red;stroke-width:1px;stroke-linecap:butt;stroke-linejoin:miter;stroke-opacity:1" d="M 188.598,464.633 171.346,464.633 z" id="boundary" inkscape:connector-curvature="0" />
	<path style="fill:none;stroke:red;stroke-width:1px;stroke-linecap:butt;stroke-linejoin:miter;stroke-opacity:1" d="M 257.607,464.633 274.859,464.633 z" id="boundary" inkscape:connector-curvature="0" />
	<path style="fill:none;stroke:red;stroke-width:1px;stroke-linecap:butt;stroke-linejoin:miter;stroke-opacity:1" d="M 257.607,464.633 240.355,464.633 z" id="boundary" inkscape:connector-curvature="0" />
	<path style="fill:none;stroke:red;stroke-width:1px;stroke-linecap:butt;stroke-linejoin:miter;stroke-opacity:1" d="M 292.111,464.633 309.363,464.633 z" id="boundary" inkscape:connector-curvature="0" />
	<path style="fill:none;stroke:red;stroke-width:1px;stroke-linecap:butt;stroke-linejoin:miter;stroke-opacity:1" d="M 292.111,464.633 274.859,464.633 z" id="boundary" inkscape:connector-curvature="0" />
	<path style="fill:none;stroke:red;stroke-width:1px;stroke-linecap:butt;stroke-linejoin:miter;stroke-opacity:1" d="M 309.363,464.633 326.616,464.633 z" id="boundary" inkscape:connector-curvature="0" />
	<path style="fill:none;stroke:red;stroke-width:1px;stroke-linecap:butt;stroke-linejoin:miter;stroke-opacity:1" d="M 343.868,464.633 361.12,464.633 z" id="boundary" inkscape:connector-curvature="0" />
	<path style="fill:none;stroke:red;stroke-width:1px;stroke-linecap:butt;stroke-linejoin:miter;stroke-opacity:1" d="M 343.868,464.633 326.616,464.633 z" id="boundary" inkscape:connector-curvature="0" />
	<path style="fill:none;stroke:red;stroke-width:1px;stroke-linecap:butt;stroke-linejoin:miter;stroke-opacity:1" d="M 378.372,464.633 395.624,464.633 z" id="boundary" inkscape:connector-curvature="0" />
	<path style="fill:none;stroke:red;stroke-width:1px;stroke-linecap:butt;stroke-linejoin:miter;stroke-opacity:1" d="M 378.372,464.633 361.12,464.633 z" id="boundary" inkscape:connector-curvature="0" />
	<path style="fill:none;stroke:red;stroke-width:1px;stroke-linecap:butt;stroke-linejoin:miter;stroke-opacity:1" d="M 395.624,464.633 412.877,464.633 z" id="boundary" inkscape:connector-curvature="0" />
	<path style="fill:none;stroke:red;stroke-width:1px;stroke-linecap:butt;stroke-linejoin:miter;stroke-opacity:1" d="M 430.129,464.633 447.381,464.633 z" id="boundary" inkscape:connector-curvature="0" />
	<path style="fill:none;stroke:red;stroke-width:1px;stroke-linecap:butt;stroke-linejoin:miter;stroke-opacity:1" d="M 447.381,464.633 445.656,483.61 z" id="boundary" inkscape:connector-curvature="0" />
	<path style="fill:none;stroke:red;stroke-width:1px;stroke-linecap:butt;stroke-linejoin:miter;stroke-opacity:1" d="M 430.129,464.633 412.877,464.633 z" id="boundary" inkscape:connector-curvature="0" />
	<path style="fill:none;stroke:red;stroke-width:1px;stroke-linecap:butt;stroke-linejoin:miter;stroke-opacity:1" d="M 449.106,500.863 445.656,483.61 z" id="boundary" inkscape:connector-curvature="0" />
	<path style="fill:none;stroke:red;stroke-width:1px;stroke-linecap:butt;stroke-linejoin:miter;stroke-opacity:1" d="M 462.908,535.367 449.106,525.016 z" id="boundary" inkscape:connector-curvature="0" />
	<path style="fill:none;stroke:red;stroke-width:1px;stroke-linecap:butt;stroke-linejoin:miter;stroke-opacity:1" d="M 449.106,525.016 449.106,500.863 z" id="boundary" inkscape:connector-curvature="0" />
	<path style="fill:none;stroke:red;stroke-width:1px;stroke-linecap:butt;stroke-linejoin:miter;stroke-opacity:1" d="M 492.237,162.72 481.885,176.522 z" id="boundary" inkscape:connector-curvature="0" />
	<path style="fill:none;stroke:red;stroke-width:1px;stroke-linecap:butt;stroke-linejoin:miter;stroke-opacity:1" d="M 488.786,117.864 499.137,131.666 z" id="boundary" inkscape:connector-curvature="0" />
	<path style="fill:none;stroke:red;stroke-width:1px;stroke-linecap:butt;stroke-linejoin:miter;stroke-opacity:1" d="M 481.885,193.774 481.885,211.026 z" id="boundary" inkscape:connector-curvature="0" />
	<path style="fill:none;stroke:red;stroke-width:1px;stroke-linecap:butt;stroke-linejoin:miter;stroke-opacity:1" d="M 481.885,193.774 481.885,176.522 z" id="boundary" inkscape:connector-curvature="0" />
	<path style="fill:none;stroke:red;stroke-width:1px;stroke-linecap:butt;stroke-linejoin:miter;stroke-opacity:1" d="M 495.687,221.377 481.885,211.026 z" id="boundary" inkscape:connector-curvature="0" />
	<path style="fill:none;stroke:red;stroke-width:1px;stroke-linecap:butt;stroke-linejoin:miter;stroke-opacity:1" d="M 474.984,107.513 488.786,117.864 z" id="boundary" inkscape:connector-curvature="0" />
	<path style="fill:none;stroke:red;stroke-width:1px;stroke-linecap:butt;stroke-linejoin:miter;stroke-opacity:1" d="M 492.237,162.72 502.588,148.918 z" id="boundary" inkscape:connector-curvature="0" />
	<path style="fill:none;stroke:red;stroke-width:1px;stroke-linecap:butt;stroke-linejoin:miter;stroke-opacity:1" d="M 495.687,221.377 512.939,228.278 z" id="boundary" inkscape:connector-curvature="0" />
	<path style="fill:none;stroke:red;stroke-width:1px;stroke-linecap:butt;stroke-linejoin:miter;stroke-opacity:1" d="M 512.939,228.278 526.741,238.63 z" id="boundary" inkscape:connector-curvature="0" />
	<path style="fill:none;stroke:red;stroke-width:1px;stroke-linecap:butt;stroke-linejoin:miter;stroke-opacity:1" d="M 526.741,238.63 538.817,252.431 z" id="boundary" inkscape:connector-curvature="0" />
	<path style="fill:none;stroke:red;stroke-width:1px;stroke-linecap:butt;stroke-linejoin:miter;stroke-opacity:1" d="M 499.137,131.666 502.588,148.918 z" id="boundary" inkscape:connector-curvature="0" />
	<path style="fill:none;stroke:red;stroke-width:1px;stroke-linecap:butt;stroke-linejoin:miter;stroke-opacity:1" d="M 538.817,252.431 552.619,262.783 z" id="boundary" inkscape:connector-curvature="0" />
	<path style="fill:none;stroke:red;stroke-width:1px;stroke-linecap:butt;stroke-linejoin:miter;stroke-opacity:1" d="M 552.619,262.783 562.97,276.584 z" id="boundary" inkscape:connector-curvature="0" />
	<path style="fill:none;stroke:red;stroke-width:1px;stroke-linecap:butt;stroke-linejoin:miter;stroke-opacity:1" d="M 580.223,280.035 562.97,276.584 z" id="boundary" inkscape:connector-curvature="0" />
	<path style="fill:none;stroke:red;stroke-width:1px;stroke-linecap:butt;stroke-linejoin:miter;stroke-opacity:1" d="M 597.475,276.584 580.223,280.035 z" id="boundary" inkscape:connector-curvature="0" />
	<path style="fill:none;stroke:red;stroke-width:1px;stroke-linecap:butt;stroke-linejoin:miter;stroke-opacity:1" d="M 597.475,276.584 614.727,276.584 z" id="boundary" inkscape:connector-curvature="0" />
	<path style="fill:none;stroke:red;stroke-width:1px;stroke-linecap:butt;stroke-linejoin:miter;stroke-opacity:1" d="M 676.835,248.981 694.087,242.08 z" id="boundary" inkscape:connector-curvature="0" />
	<path style="fill:none;stroke:red;stroke-width:1px;stroke-linecap:butt;stroke-linejoin:miter;stroke-opacity:1" d="M 663.033,259.332 676.835,248.981 z" id="boundary" inkscape:connector-curvature="0" />
	<path style="fill:none;stroke:red;stroke-width:1px;stroke-linecap:butt;stroke-linejoin:miter;stroke-opacity:1" d="M 663.033,259.332 645.781,259.332 z" id="boundary" inkscape:connector-curvature="0" />
	<path style="fill:none;stroke:red;stroke-width:1px;stroke-linecap:butt;stroke-linejoin:miter;stroke-opacity:1" d="M 645.781,259.332 631.979,273.134 z" id="boundary" inkscape:connector-curvature="0" />
	<path style="fill:none;stroke:red;stroke-width:1px;stroke-linecap:butt;stroke-linejoin:miter;stroke-opacity:1" d="M 631.979,273.134 614.727,276.584 z" id="boundary" inkscape:connector-curvature="0" />
	<path style="fill:none;stroke:red;stroke-width:1px;stroke-linecap:butt;stroke-linejoin:miter;stroke-opacity:1" d="M 707.889,231.729 694.087,242.08 z" id="boundary" inkscape:connector-curvature="0" />
	<path style="fill:none;stroke:red;stroke-width:1px;stroke-linecap:butt;stroke-linejoin:miter;stroke-opacity:1" d="M 725.141,235.179 740.668,243.805 z" id="boundary" inkscape:connector-curvature="0" />
	<path style="fill:none;stroke:red;stroke-width:1px;stroke-linecap:butt;stroke-linejoin:miter;stroke-opacity:1" d="M 725.141,235.179 707.889,231.729 z" id="boundary" inkscape:connector-curvature="0" />
	<path style="fill:none;stroke:red;stroke-width:1px;stroke-linecap:butt;stroke-linejoin:miter;stroke-opacity:1" d="M 773.447,259.332 756.195,252.431 z" id="boundary" inkscape:connector-curvature="0" />
	<path style="fill:none;stroke:red;stroke-width:1px;stroke-linecap:butt;stroke-linejoin:miter;stroke-opacity:1" d="M 756.195,252.431 740.668,243.805 z" id="boundary" inkscape:connector-curvature="0" />
	<path style="fill:none;stroke:red;stroke-width:1px;stroke-linecap:butt;stroke-linejoin:miter;stroke-opacity:1" d="M 788.974,267.958 806.226,273.134 z" id="boundary" inkscape:connector-curvature="0" />
	<path style="fill:none;stroke:red;stroke-width:1px;stroke-linecap:butt;stroke-linejoin:miter;stroke-opacity:1" d="M 788.974,267.958 773.447,259.332 z" id="boundary" inkscape:connector-curvature="0" />
	<path style="fill:none;stroke:red;stroke-width:1px;stroke-linecap:butt;stroke-linejoin:miter;stroke-opacity:1" d="M 823.478,276.584 840.73,276.584 z" id="boundary" inkscape:connector-curvature="0" />
	<path style="fill:none;stroke:red;stroke-width:1px;stroke-linecap:butt;stroke-linejoin:miter;stroke-opacity:1" d="M 840.73,276.584 857.983,280.035 z" id="boundary" inkscape:connector-curvature="0" />
	<path style="fill:none;stroke:red;stroke-width:1px;stroke-linecap:butt;stroke-linejoin:miter;stroke-opacity:1" d="M 823.478,276.584 806.226,273.134 z" id="boundary" inkscape:connector-curvature="0" />
	<path style="fill:none;stroke:red;stroke-width:1px;stroke-linecap:butt;stroke-linejoin:miter;stroke-opacity:1" d="M 875.235,283.485 892.487,283.485 z" id="boundary" inkscape:connector-curvature="0" />
	<path style="fill:none;stroke:red;stroke-width:1px;stroke-linecap:butt;stroke-linejoin:miter;stroke-opacity:1" d="M 892.487,283.485 909.739,286.936 z" id="boundary" inkscape:connector-curvature="0" />
	<path style="fill:none;stroke:red;stroke-width:1px;stroke-linecap:butt;stroke-linejoin:miter;stroke-opacity:1" d="M 875.235,283.485 857.983,280.035 z" id="boundary" inkscape:connector-curvature="0" />
	<path style="fill:none;stroke:red;stroke-width:1px;stroke-linecap:butt;stroke-linejoin:miter;stroke-opacity:1" d="M 944.243,297.287 926.991,293.837 z" id="boundary" inkscape:connector-curvature="0" />
	<path style="fill:none;stroke:red;stroke-width:1px;stroke-linecap:butt;stroke-linejoin:miter;stroke-opacity:1" d="M 926.991,293.837 909.739,286.936 z" id="boundary" inkscape:connector-curvature="0" />
	<path style="fill:none;stroke:red;stroke-width:1px;stroke-linecap:butt;stroke-linejoin:miter;stroke-opacity:1" d="M 961.496,304.188 977.023,312.814 z" id="boundary" inkscape:connector-curvature="0" />
	<path style="fill:none;stroke:red;stroke-width:1px;stroke-linecap:butt;stroke-linejoin:miter;stroke-opacity:1" d="M 977.023,312.814 990.824,323.165 z" id="boundary" inkscape:connector-curvature="0" />
	<path style="fill:none;stroke:red;stroke-width:1px;stroke-linecap:butt;stroke-linejoin:miter;stroke-opacity:1" d="M 990.824,323.165 996,349.043 z" id="boundary" inkscape:connector-curvature="0" />
	<path style="fill:none;stroke:red;stroke-width:1px;stroke-linecap:butt;stroke-linejoin:miter;stroke-opacity:1" d="M 978.748,393.899 982.198,369.746 z" id="boundary" inkscape:connector-curvature="0" />
	<path style="fill:none;stroke:red;stroke-width:1px;stroke-linecap:butt;stroke-linejoin:miter;stroke-opacity:1" d="M 982.198,369.746 996,349.043 z" id="boundary" inkscape:connector-curvature="0" />
	<path style="fill:none;stroke:red;stroke-width:1px;stroke-linecap:butt;stroke-linejoin:miter;stroke-opacity:1" d="M 978.748,411.151 978.748,393.899 z" id="boundary" inkscape:connector-curvature="0" />
	<path style="fill:none;stroke:red;stroke-width:1px;stroke-linecap:butt;stroke-linejoin:miter;stroke-opacity:1" d="M 944.243,297.287 961.496,304.188 z" id="boundary" inkscape:connector-curvature="0" />
	<path style="fill:none;stroke:red;stroke-width:1px;stroke-linecap:butt;stroke-linejoin:miter;stroke-opacity:1" d="M 495.687,493.962 495.687,476.71 z" id="boundary" inkscape:connector-curvature="0" />
	<path style="fill:none;stroke:red;stroke-width:1px;stroke-linecap:butt;stroke-linejoin:miter;stroke-opacity:1" d="M 495.687,476.71 512.939,474.984 z" id="boundary" inkscape:connector-curvature="0" />
	<path style="fill:none;stroke:red;stroke-width:1px;stroke-linecap:butt;stroke-linejoin:miter;stroke-opacity:1" d="M 564.696,480.16 547.443,485.336 z" id="boundary" inkscape:connector-curvature="0" />
	<path style="fill:none;stroke:red;stroke-width:1px;stroke-linecap:butt;stroke-linejoin:miter;stroke-opacity:1" d="M 547.443,485.336 530.191,478.435 z" id="boundary" inkscape:connector-curvature="0" />
	<path style="fill:none;stroke:red;stroke-width:1px;stroke-linecap:butt;stroke-linejoin:miter;stroke-opacity:1" d="M 580.223,471.534 564.696,480.16 z" id="boundary" inkscape:connector-curvature="0" />
	<path style="fill:none;stroke:red;stroke-width:1px;stroke-linecap:butt;stroke-linejoin:miter;stroke-opacity:1" d="M 512.939,474.984 530.191,478.435 z" id="boundary" inkscape:connector-curvature="0" />
	<path style="fill:none;stroke:red;stroke-width:1px;stroke-linecap:butt;stroke-linejoin:miter;stroke-opacity:1" d="M 597.475,469.809 614.727,474.984 z" id="boundary" inkscape:connector-curvature="0" />
	<path style="fill:none;stroke:red;stroke-width:1px;stroke-linecap:butt;stroke-linejoin:miter;stroke-opacity:1" d="M 614.727,474.984 631.979,481.885 z" id="boundary" inkscape:connector-curvature="0" />
	<path style="fill:none;stroke:red;stroke-width:1px;stroke-linecap:butt;stroke-linejoin:miter;stroke-opacity:1" d="M 649.231,488.786 631.979,481.885 z" id="boundary" inkscape:connector-curvature="0" />
	<path style="fill:none;stroke:red;stroke-width:1px;stroke-linecap:butt;stroke-linejoin:miter;stroke-opacity:1" d="M 666.483,495.687 649.231,488.786 z" id="boundary" inkscape:connector-curvature="0" />
	<path style="fill:none;stroke:red;stroke-width:1px;stroke-linecap:butt;stroke-linejoin:miter;stroke-opacity:1" d="M 580.223,471.534 597.475,469.809 z" id="boundary" inkscape:connector-curvature="0" />
	<path style="fill:none;stroke:red;stroke-width:1px;stroke-linecap:butt;stroke-linejoin:miter;stroke-opacity:1" d="M 497.412,528.466 492.237,511.214 z" id="boundary" inkscape:connector-curvature="0" />
	<path style="fill:none;stroke:red;stroke-width:1px;stroke-linecap:butt;stroke-linejoin:miter;stroke-opacity:1" d="M 497.412,528.466 480.16,533.642 z" id="boundary" inkscape:connector-curvature="0" />
	<path style="fill:none;stroke:red;stroke-width:1px;stroke-linecap:butt;stroke-linejoin:miter;stroke-opacity:1" d="M 480.16,533.642 462.908,535.367 z" id="boundary" inkscape:connector-curvature="0" />
	<path style="fill:none;stroke:red;stroke-width:1px;stroke-linecap:butt;stroke-linejoin:miter;stroke-opacity:1" d="M 492.237,511.214 495.687,493.962 z" id="boundary" inkscape:connector-curvature="0" />
	<path style="fill:none;stroke:red;stroke-width:1px;stroke-linecap:butt;stroke-linejoin:miter;stroke-opacity:1" d="M 666.483,495.687 683.736,502.588 z" id="boundary" inkscape:connector-curvature="0" />
	<path style="fill:none;stroke:red;stroke-width:1px;stroke-linecap:butt;stroke-linejoin:miter;stroke-opacity:1" d="M 785.523,487.061 769.997,495.687 z" id="boundary" inkscape:connector-curvature="0" />
	<path style="fill:none;stroke:red;stroke-width:1px;stroke-linecap:butt;stroke-linejoin:miter;stroke-opacity:1" d="M 752.744,502.588 769.997,495.687 z" id="boundary" inkscape:connector-curvature="0" />
	<path style="fill:none;stroke:red;stroke-width:1px;stroke-linecap:butt;stroke-linejoin:miter;stroke-opacity:1" d="M 700.988,506.038 718.24,506.038 z" id="boundary" inkscape:connector-curvature="0" />
	<path style="fill:none;stroke:red;stroke-width:1px;stroke-linecap:butt;stroke-linejoin:miter;stroke-opacity:1" d="M 700.988,506.038 683.736,502.588 z" id="boundary" inkscape:connector-curvature="0" />
	<path style="fill:none;stroke:red;stroke-width:1px;stroke-linecap:butt;stroke-linejoin:miter;stroke-opacity:1" d="M 735.492,506.038 718.24,506.038 z" id="boundary" inkscape:connector-curvature="0" />
	<path style="fill:none;stroke:red;stroke-width:1px;stroke-linecap:butt;stroke-linejoin:miter;stroke-opacity:1" d="M 752.744,502.588 735.492,506.038 z" id="boundary" inkscape:connector-curvature="0" />
	<path style="fill:none;stroke:red;stroke-width:1px;stroke-linecap:butt;stroke-linejoin:miter;stroke-opacity:1" d="M 820.028,473.259 837.28,469.809 z" id="boundary" inkscape:connector-curvature="0" />
	<path style="fill:none;stroke:red;stroke-width:1px;stroke-linecap:butt;stroke-linejoin:miter;stroke-opacity:1" d="M 837.28,469.809 854.532,471.534 z" id="boundary" inkscape:connector-curvature="0" />
	<path style="fill:none;stroke:red;stroke-width:1px;stroke-linecap:butt;stroke-linejoin:miter;stroke-opacity:1" d="M 854.532,471.534 868.334,481.885 z" id="boundary" inkscape:connector-curvature="0" />
	<path style="fill:none;stroke:red;stroke-width:1px;stroke-linecap:butt;stroke-linejoin:miter;stroke-opacity:1" d="M 937.343,474.984 920.09,474.984 z" id="boundary" inkscape:connector-curvature="0" />
	<path style="fill:none;stroke:red;stroke-width:1px;stroke-linecap:butt;stroke-linejoin:miter;stroke-opacity:1" d="M 920.09,474.984 902.838,480.16 z" id="boundary" inkscape:connector-curvature="0" />
	<path style="fill:none;stroke:red;stroke-width:1px;stroke-linecap:butt;stroke-linejoin:miter;stroke-opacity:1" d="M 975.297,431.854 978.748,411.151 z" id="boundary" inkscape:connector-curvature="0" />
	<path style="fill:none;stroke:red;stroke-width:1px;stroke-linecap:butt;stroke-linejoin:miter;stroke-opacity:1" d="M 978.748,449.106 975.297,431.854 z" id="boundary" inkscape:connector-curvature="0" />
	<path style="fill:none;stroke:red;stroke-width:1px;stroke-linecap:butt;stroke-linejoin:miter;stroke-opacity:1" d="M 954.595,474.984 937.343,474.984 z" id="boundary" inkscape:connector-curvature="0" />
	<path style="fill:none;stroke:red;stroke-width:1px;stroke-linecap:butt;stroke-linejoin:miter;stroke-opacity:1" d="M 978.748,449.106 980.473,466.358 z" id="boundary" inkscape:connector-curvature="0" />
	<path style="fill:none;stroke:red;stroke-width:1px;stroke-linecap:butt;stroke-linejoin:miter;stroke-opacity:1" d="M 987.374,483.61 980.473,466.358 z" id="boundary" inkscape:connector-curvature="0" />
	<path style="fill:none;stroke:red;stroke-width:1px;stroke-linecap:butt;stroke-linejoin:miter;stroke-opacity:1" d="M 964.946,488.786 954.595,474.984 z" id="boundary" inkscape:connector-curvature="0" />
	<path style="fill:none;stroke:red;stroke-width:1px;stroke-linecap:butt;stroke-linejoin:miter;stroke-opacity:1" d="M 820.028,473.259 802.776,480.16 z" id="boundary" inkscape:connector-curvature="0" />
	<path style="fill:none;stroke:red;stroke-width:1px;stroke-linecap:butt;stroke-linejoin:miter;stroke-opacity:1" d="M 868.334,481.885 885.586,485.336 z" id="boundary" inkscape:connector-curvature="0" />
	<path style="fill:none;stroke:red;stroke-width:1px;stroke-linecap:butt;stroke-linejoin:miter;stroke-opacity:1" d="M 785.523,487.061 802.776,480.16 z" id="boundary" inkscape:connector-curvature="0" />
	<path style="fill:none;stroke:red;stroke-width:1px;stroke-linecap:butt;stroke-linejoin:miter;stroke-opacity:1" d="M 902.838,480.16 885.586,485.336 z" id="boundary" inkscape:connector-curvature="0" />
	<path style="fill:none;stroke:red;stroke-width:1px;stroke-linecap:butt;stroke-linejoin:miter;stroke-opacity:1" d="M 963.221,511.214 964.946,488.786 z" id="boundary" inkscape:connector-curvature="0" />
	<path style="fill:none;stroke:red;stroke-width:1px;stroke-linecap:butt;stroke-linejoin:miter;stroke-opacity:1" d="M 987.374,483.61 982.198,511.214 z" id="boundary" inkscape:connector-curvature="0" />
	<path style="fill:none;stroke:red;stroke-width:1px;stroke-linecap:butt;stroke-linejoin:miter;stroke-opacity:1" d="M 982.198,511.214 982.198,533.642 z" id="boundary" inkscape:connector-curvature="0" />
	<path style="fill:none;stroke:red;stroke-width:1px;stroke-linecap:butt;stroke-linejoin:miter;stroke-opacity:1" d="M 982.198,533.642 964.946,528.466 z" id="boundary" inkscape:connector-curvature="0" />
	<path style="fill:none;stroke:red;stroke-width:1px;stroke-linecap:butt;stroke-linejoin:miter;stroke-opacity:1" d="M 964.946,528.466 963.221,511.214 z" id="boundary" inkscape:connector-curvature="0" />
	<circle cx="4" cy="138.567" r="4" fill="#0" id="circle0"/>
	<circle cx="7.45043" cy="155.819" r="4" fill="#0" id="circle1"/>
	<circle cx="7.45043" cy="349.043" r="4" fill="#0" id="circle2"/>
	<circle cx="7.45043" cy="366.296" r="4" fill="#0" id="circle3"/>
	<circle cx="7.45043" cy="383.548" r="4" fill="#0" id="circle4"/>
	<circle cx="7.45043" cy="400.8" r="4" fill="#0" id="circle5"/>
	<circle cx="7.45043" cy="418.052" r="4" fill="#0" id="circle6"/>
	<circle cx="7.45043" cy="435.304" r="4" fill="#0" id="circle7"/>
	<circle cx="7.45043" cy="452.557" r="4" fill="#0" id="circle8"/>
	<circle cx="9.17565" cy="469.809" r="4" fill="#0" id="circle9"/>
	<circle cx="10.9009" cy="317.99" r="4" fill="#0" id="circle10"/>
	<circle cx="10.9009" cy="487.061" r="4" fill="#0" id="circle11"/>
	<circle cx="10.9009" cy="504.313" r="4" fill="#0" id="circle12"/>
	<circle cx="12.6261" cy="123.04" r="4" fill="#0" id="circle13"/>
	<circle cx="14.3513" cy="173.071" r="4" fill="#0" id="circle14"/>
	<circle cx="14.3513" cy="293.837" r="4" fill="#0" id="circle15"/>
	<circle cx="14.3513" cy="521.565" r="4" fill="#0" id="circle16"/>
	<circle cx="17.8017" cy="190.323" r="4" fill="#0" id="circle17"/>
	<circle cx="17.8017" cy="207.576" r="4" fill="#0" id="circle18"/>
	<circle cx="17.8017" cy="224.828" r="4" fill="#0" id="circle19"/>
	<circle cx="17.8017" cy="242.08" r="4" fill="#0" id="circle20"/>
	<circle cx="17.8017" cy="259.332" r="4" fill="#0" id="circle21"/>
	<circle cx="17.8017" cy="276.584" r="4" fill="#0" id="circle22"/>
	<circle cx="26.4278" cy="110.963" r="4" fill="#0" id="circle23"/>
	<circle cx="28.153" cy="533.642" r="4" fill="#0" id="circle24"/>
	<circle cx="33.3287" cy="469.809" r="4" fill="#0" id="circle25"/>
	<circle cx="33.3287" cy="487.061" r="4" fill="#0" id="circle26"/>
	<circle cx="33.3287" cy="504.313" r="4" fill="#0" id="circle27"/>
	<circle cx="43.68" cy="102.337" r="4" fill="#0" id="circle28"/>
	<circle cx="50.5809" cy="464.633" r="4" fill="#0" id="circle29"/>
	<circle cx="59.207" cy="93.7113" r="4" fill="#0" id="circle30"/>
	<circle cx="67.833" cy="464.633" r="4" fill="#0" id="circle31"/>
	<circle cx="76.4591" cy="90.2609" r="4" fill="#0" id="circle32"/>
	<circle cx="85.0852" cy="464.633" r="4" fill="#0" id="circle33"/>
	<circle cx="93.7113" cy="83.36" r="4" fill="#0" id="circle34"/>
	<circle cx="102.337" cy="464.633" r="4" fill="#0" id="circle35"/>
	<circle cx="110.963" cy="79.9096" r="4" fill="#0" id="circle36"/>
	<circle cx="119.59" cy="464.633" r="4" fill="#0" id="circle37"/>
	<circle cx="128.216" cy="76.4591" r="4" fill="#0" id="circle38"/>
	<circle cx="136.842" cy="464.633" r="4" fill="#0" id="circle39"/>
	<circle cx="145.468" cy="73.0087" r="4" fill="#0" id="circle40"/>
	<circle cx="154.094" cy="464.633" r="4" fill="#0" id="circle41"/>
	<circle cx="162.72" cy="66.1078" r="4" fill="#0" id="circle42"/>
	<circle cx="171.346" cy="464.633" r="4" fill="#0" id="circle43"/>
	<circle cx="178.247" cy="57.4817" r="4" fill="#0" id="circle44"/>
	<circle cx="188.598" cy="464.633" r="4" fill="#0" id="circle45"/>
	<circle cx="192.049" cy="45.4052" r="4" fill="#0" id="circle46"/>
	<circle cx="205.85" cy="464.633" r="4" fill="#0" id="circle47"/>
	<circle cx="209.301" cy="40.2296" r="4" fill="#0" id="circle48"/>
	<circle cx="223.103" cy="464.633" r="4" fill="#0" id="circle49"/>
	<circle cx="224.828" cy="28.153" r="4" fill="#0" id="circle50"/>
	<circle cx="238.63" cy="7.45043" r="4" fill="#0" id="circle51"/>
	<circle cx="240.355" cy="464.633" r="4" fill="#0" id="circle52"/>
	<circle cx="255.882" cy="4" r="4" fill="#0" id="circle53"/>
	<circle cx="257.607" cy="464.633" r="4" fill="#0" id="circle54"/>
	<circle cx="273.134" cy="9.17565" r="4" fill="#0" id="circle55"/>
	<circle cx="274.859" cy="464.633" r="4" fill="#0" id="circle56"/>
	<circle cx="281.76" cy="24.7026" r="4" fill="#0" id="circle57"/>
	<circle cx="292.111" cy="464.633" r="4" fill="#0" id="circle58"/>
	<circle cx="295.562" cy="35.0539" r="4" fill="#0" id="circle59"/>
	<circle cx="309.363" cy="464.633" r="4" fill="#0" id="circle60"/>
	<circle cx="312.814" cy="41.9548" r="4" fill="#0" id="circle61"/>
	<circle cx="326.616" cy="52.3061" r="4" fill="#0" id="circle62"/>
	<circle cx="326.616" cy="464.633" r="4" fill="#0" id="circle63"/>
	<circle cx="336.967" cy="66.1078" r="4" fill="#0" id="circle64"/>
	<circle cx="343.868" cy="464.633" r="4" fill="#0" id="circle65"/>
	<circle cx="354.219" cy="69.5583" r="4" fill="#0" id="circle66"/>
	<circle cx="361.12" cy="464.633" r="4" fill="#0" id="circle67"/>
	<circle cx="371.471" cy="73.0087" r="4" fill="#0" id="circle68"/>
	<circle cx="378.372" cy="464.633" r="4" fill="#0" id="circle69"/>
	<circle cx="388.723" cy="76.4591" r="4" fill="#0" id="circle70"/>
	<circle cx="395.624" cy="464.633" r="4" fill="#0" id="circle71"/>
	<circle cx="405.976" cy="83.36" r="4" fill="#0" id="circle72"/>
	<circle cx="412.877" cy="464.633" r="4" fill="#0" id="circle73"/>
	<circle cx="423.228" cy="86.8104" r="4" fill="#0" id="circle74"/>
	<circle cx="430.129" cy="464.633" r="4" fill="#0" id="circle75"/>
	<circle cx="440.48" cy="93.7113" r="4" fill="#0" id="circle76"/>
	<circle cx="445.656" cy="483.61" r="4" fill="#0" id="circle77"/>
	<circle cx="447.381" cy="464.633" r="4" fill="#0" id="circle78"/>
	<circle cx="449.106" cy="500.863" r="4" fill="#0" id="circle79"/>
	<circle cx="449.106" cy="525.016" r="4" fill="#0" id="circle80"/>
	<circle cx="457.732" cy="100.612" r="4" fill="#0" id="circle81"/>
	<circle cx="462.908" cy="535.367" r="4" fill="#0" id="circle82"/>
	<circle cx="474.984" cy="107.513" r="4" fill="#0" id="circle83"/>
	<circle cx="480.16" cy="533.642" r="4" fill="#0" id="circle84"/>
	<circle cx="481.885" cy="176.522" r="4" fill="#0" id="circle85"/>
	<circle cx="481.885" cy="193.774" r="4" fill="#0" id="circle86"/>
	<circle cx="481.885" cy="211.026" r="4" fill="#0" id="circle87"/>
	<circle cx="488.786" cy="117.864" r="4" fill="#0" id="circle88"/>
	<circle cx="492.237" cy="162.72" r="4" fill="#0" id="circle89"/>
	<circle cx="492.237" cy="511.214" r="4" fill="#0" id="circle90"/>
	<circle cx="495.687" cy="221.377" r="4" fill="#0" id="circle91"/>
	<circle cx="495.687" cy="476.71" r="4" fill="#0" id="circle92"/>
	<circle cx="495.687" cy="493.962" r="4" fill="#0" id="circle93"/>
	<circle cx="497.412" cy="528.466" r="4" fill="#0" id="circle94"/>
	<circle cx="499.137" cy="131.666" r="4" fill="#0" id="circle95"/>
	<circle cx="502.588" cy="148.918" r="4" fill="#0" id="circle96"/>
	<circle cx="512.939" cy="228.278" r="4" fill="#0" id="circle97"/>
	<circle cx="512.939" cy="474.984" r="4" fill="#0" id="circle98"/>
	<circle cx="526.741" cy="238.63" r="4" fill="#0" id="circle99"/>
	<circle cx="530.191" cy="478.435" r="4" fill="#0" id="circle100"/>
	<circle cx="538.817" cy="252.431" r="4" fill="#0" id="circle101"/>
	<circle cx="547.443" cy="485.336" r="4" fill="#0" id="circle102"/>
	<circle cx="552.619" cy="262.783" r="4" fill="#0" id="circle103"/>
	<circle cx="562.97" cy="276.584" r="4" fill="#0" id="circle104"/>
	<circle cx="564.696" cy="480.16" r="4" fill="#0" id="circle105"/>
	<circle cx="580.223" cy="280.035" r="4" fill="#0" id="circle106"/>
	<circle cx="580.223" cy="471.534" r="4" fill="#0" id="circle107"/>
	<circle cx="597.475" cy="276.584" r="4" fill="#0" id="circle108"/>
	<circle cx="597.475" cy="469.809" r="4" fill="#0" id="circle109"/>
	<circle cx="614.727" cy="276.584" r="4" fill="#0" id="circle110"/>
	<circle cx="614.727" cy="474.984" r="4" fill="#0" id="circle111"/>
	<circle cx="631.979" cy="273.134" r="4" fill="#0" id="circle112"/>
	<circle cx="631.979" cy="481.885" r="4" fill="#0" id="circle113"/>
	<circle cx="645.781" cy="259.332" r="4" fill="#0" id="circle114"/>
	<circle cx="649.231" cy="488.786" r="4" fill="#0" id="circle115"/>
	<circle cx="663.033" cy="259.332" r="4" fill="#0" id="circle116"/>
	<circle cx="666.483" cy="495.687" r="4" fill="#0" id="circle117"/>
	<circle cx="676.835" cy="248.981" r="4" fill="#0" id="circle118"/>
	<circle cx="683.736" cy="502.588" r="4" fill="#0" id="circle119"/>
	<circle cx="694.087" cy="242.08" r="4" fill="#0" id="circle120"/>
	<circle cx="700.988" cy="506.038" r="4" fill="#0" id="circle121"/>
	<circle cx="707.889" cy="231.729" r="4" fill="#0" id="circle122"/>
	<circle cx="718.24" cy="506.038" r="4" fill="#0" id="circle123"/>
	<circle cx="725.141" cy="235.179" r="4" fill="#0" id="circle124"/>
	<circle cx="735.492" cy="506.038" r="4" fill="#0" id="circle125"/>
	<circle cx="740.668" cy="243.805" r="4" fill="#0" id="circle126"/>
	<circle cx="752.744" cy="502.588" r="4" fill="#0" id="circle127"/>
	<circle cx="756.195" cy="252.431" r="4" fill="#0" id="circle128"/>
	<circle cx="769.997" cy="495.687" r="4" fill="#0" id="circle129"/>
	<circle cx="773.447" cy="259.332" r="4" fill="#0" id="circle130"/>
	<circle cx="785.523" cy="487.061" r="4" fill="#0" id="circle131"/>
	<circle cx="788.974" cy="267.958" r="4" fill="#0" id="circle132"/>
	<circle cx="802.776" cy="480.16" r="4" fill="#0" id="circle133"/>
	<circle cx="806.226" cy="273.134" r="4" fill="#0" id="circle134"/>
	<circle cx="820.028" cy="473.259" r="4" fill="#0" id="circle135"/>
	<circle cx="823.478" cy="276.584" r="4" fill="#0" id="circle136"/>
	<circle cx="837.28" cy="469.809" r="4" fill="#0" id="circle137"/>
	<circle cx="840.73" cy="276.584" r="4" fill="#0" id="circle138"/>
	<circle cx="854.532" cy="471.534" r="4" fill="#0" id="circle139"/>
	<circle cx="857.983" cy="280.035" r="4" fill="#0" id="circle140"/>
	<circle cx="868.334" cy="481.885" r="4" fill="#0" id="circle141"/>
	<circle cx="875.235" cy="283.485" r="4" fill="#0" id="circle142"/>
	<circle cx="885.586" cy="485.336" r="4" fill="#0" id="circle143"/>
	<circle cx="892.487" cy="283.485" r="4" fill="#0" id="circle144"/>
	<circle cx="902.838" cy="480.16" r="4" fill="#0" id="circle145"/>
	<circle cx="909.739" cy="286.936" r="4" fill="#0" id="circle146"/>
	<circle cx="920.09" cy="474.984" r="4" fill="#0" id="circle147"/>
	<circle cx="926.991" cy="293.837" r="4" fill="#0" id="circle148"/>
	<circle cx="937.343" cy="474.984" r="4" fill="#0" id="circle149"/>
	<circle cx="944.243" cy="297.287" r="4" fill="#0" id="circle150"/>
	<circle cx="954.595" cy="474.984" r="4" fill="#0" id="circle151"/>
	<circle cx="961.496" cy="304.188" r="4" fill="#0" id="circle152"/>
	<circle cx="963.221" cy="511.214" r="4" fill="#0" id="circle153"/>
	<circle cx="964.946" cy="488.786" r="4" fill="#0" id="circle154"/>
	<circle cx="964.946" cy="528.466" r="4" fill="#0" id="circle155"/>
	<circle cx="975.297" cy="431.854" r="4" fill="#0" id="circle156"/>
	<circle cx="977.023" cy="312.814" r="4" fill="#0" id="circle157"/>
	<circle cx="978.748" cy="393.899" r="4" fill="#0" id="circle158"/>
	<circle cx="978.748" cy="411.151" r="4" fill="#0" id="circle159"/>
	<circle cx="978.748" cy="449.106" r="4" fill="#0" id="circle160"/>
	<circle cx="980.473" cy="466.358" r="4" fill="#0" id="circle161"/>
	<circle cx="982.198" cy="369.746" r="4" fill="#0" id="circle162"/>
	<circle cx="982.198" cy="511.214" r="4" fill="#0" id="circle163"/>
	<circle cx="982.198" cy="533.642" r="4" fill="#0" id="circle164"/>
	<circle cx="987.374" cy="483.61" r="4" fill="#0" id="circle165"/>
	<circle cx="990.824" cy="323.165" r="4" fill="#0" id="circle166"/>
	<circle cx="996" cy="349.043" r="4" fill="#0" id="circle167"/>
	</g>
</svg>