<?xml version="1.0" encoding="UTF-8" standalone="no"?>
<!-- Created with CurveBenchmark -->
<svg
	xmlns:dc="http://purl.org/dc/elements/1.1/"
	xmlns:cc="http://creativecommons.org/ns#"
	xmlns:rdf="http://www.w3.org/1999/02/22-rdf-syntax-ns#"
	xmlns:svg="http://www.w3.org/2000/svg"
	xmlns="http://www.w3.org/2000/svg"
	xmlns:sodipodi="http://sodipodi.sourceforge.net/DTD/sodipodi-0.dtd"
	xmlns:inkscape="http://www.inkscape.org/namespaces/inkscape"
	width="1000"
	height="1000"
	id="svg2"
	version="1.1"
	sodipodi:docname="manifold/gathan1-bell-1.png.txt">
<defs
	id="defs4" />
<metadata
	id="metadata7">
	<rdf:RDF>
		<cc:Work
			rdf:about="">
			<dc:format>image/svg+xml</dc:format>
			<dc:type
				rdf:resource="http://purl.org/dc/dcmitype/StillImage" />
			<dc:title></dc:title>
		</cc:Work>
	</rdf:RDF>
</metadata>
<g
	inkscape:label="Layer 1"
	inkscape:groupmode="layer"
	id="layer1">
	<path style="fill:none;stroke:red;stroke-width:1px;stroke-linecap:butt;stroke-linejoin:miter;stroke-opacity:1" d="M 9.0101,90.1737 9.0101,100.194 z" id="boundary" inkscape:connector-curvature="0" />
	<path style="fill:none;stroke:red;stroke-width:1px;stroke-linecap:butt;stroke-linejoin:miter;stroke-opacity:1" d="M 9.0101,100.194 4,115.224 z" id="boundary" inkscape:connector-curvature="0" />
	<path style="fill:none;stroke:red;stroke-width:1px;stroke-linecap:butt;stroke-linejoin:miter;stroke-opacity:1" d="M 9.0101,90.1737 14.0202,80.1535 z" id="boundary" inkscape:connector-curvature="0" />
	<path style="fill:none;stroke:red;stroke-width:1px;stroke-linecap:butt;stroke-linejoin:miter;stroke-opacity:1" d="M 19.0303,65.1232 14.0202,80.1535 z" id="boundary" inkscape:connector-curvature="0" />
	<path style="fill:none;stroke:red;stroke-width:1px;stroke-linecap:butt;stroke-linejoin:miter;stroke-opacity:1" d="M 9.0101,124.242 4,115.224 z" id="boundary" inkscape:connector-curvature="0" />
	<path style="fill:none;stroke:red;stroke-width:1px;stroke-linecap:butt;stroke-linejoin:miter;stroke-opacity:1" d="M 9.0101,124.242 9.0101,134.263 z" id="boundary" inkscape:connector-curvature="0" />
	<path style="fill:none;stroke:red;stroke-width:1px;stroke-linecap:butt;stroke-linejoin:miter;stroke-opacity:1" d="M 12.0162,154.303 9.0101,144.283 z" id="boundary" inkscape:connector-curvature="0" />
	<path style="fill:none;stroke:red;stroke-width:1px;stroke-linecap:butt;stroke-linejoin:miter;stroke-opacity:1" d="M 9.0101,144.283 9.0101,134.263 z" id="boundary" inkscape:connector-curvature="0" />
	<path style="fill:none;stroke:red;stroke-width:1px;stroke-linecap:butt;stroke-linejoin:miter;stroke-opacity:1" d="M 17.0263,163.321 12.0162,154.303 z" id="boundary" inkscape:connector-curvature="0" />
	<path style="fill:none;stroke:red;stroke-width:1px;stroke-linecap:butt;stroke-linejoin:miter;stroke-opacity:1" d="M 19.0303,65.1232 24.0404,55.103 z" id="boundary" inkscape:connector-curvature="0" />
	<path style="fill:none;stroke:red;stroke-width:1px;stroke-linecap:butt;stroke-linejoin:miter;stroke-opacity:1" d="M 24.0404,55.103 32.0566,48.0889 z" id="boundary" inkscape:connector-curvature="0" />
	<path style="fill:none;stroke:red;stroke-width:1px;stroke-linecap:butt;stroke-linejoin:miter;stroke-opacity:1" d="M 34.0606,175.345 24.0404,171.337 z" id="boundary" inkscape:connector-curvature="0" />
	<path style="fill:none;stroke:red;stroke-width:1px;stroke-linecap:butt;stroke-linejoin:miter;stroke-opacity:1" d="M 24.0404,171.337 17.0263,163.321 z" id="boundary" inkscape:connector-curvature="0" />
	<path style="fill:none;stroke:red;stroke-width:1px;stroke-linecap:butt;stroke-linejoin:miter;stroke-opacity:1" d="M 39.0707,40.0727 32.0566,48.0889 z" id="boundary" inkscape:connector-curvature="0" />
	<path style="fill:none;stroke:red;stroke-width:1px;stroke-linecap:butt;stroke-linejoin:miter;stroke-opacity:1" d="M 19.0303,235.467 27.0465,228.453 z" id="boundary" inkscape:connector-curvature="0" />
	<path style="fill:none;stroke:red;stroke-width:1px;stroke-linecap:butt;stroke-linejoin:miter;stroke-opacity:1" d="M 19.0303,245.487 19.0303,235.467 z" id="boundary" inkscape:connector-curvature="0" />
	<path style="fill:none;stroke:red;stroke-width:1px;stroke-linecap:butt;stroke-linejoin:miter;stroke-opacity:1" d="M 50.0929,187.37 40.0727,183.362 z" id="boundary" inkscape:connector-curvature="0" />
	<path style="fill:none;stroke:red;stroke-width:1px;stroke-linecap:butt;stroke-linejoin:miter;stroke-opacity:1" d="M 40.0727,183.362 34.0606,175.345 z" id="boundary" inkscape:connector-curvature="0" />
	<path style="fill:none;stroke:red;stroke-width:1px;stroke-linecap:butt;stroke-linejoin:miter;stroke-opacity:1" d="M 34.0606,220.436 42.0768,213.422 z" id="boundary" inkscape:connector-curvature="0" />
	<path style="fill:none;stroke:red;stroke-width:1px;stroke-linecap:butt;stroke-linejoin:miter;stroke-opacity:1" d="M 34.0606,220.436 27.0465,228.453 z" id="boundary" inkscape:connector-curvature="0" />
	<path style="fill:none;stroke:red;stroke-width:1px;stroke-linecap:butt;stroke-linejoin:miter;stroke-opacity:1" d="M 39.0707,40.0727 47.0869,34.0606 z" id="boundary" inkscape:connector-curvature="0" />
	<path style="fill:none;stroke:red;stroke-width:1px;stroke-linecap:butt;stroke-linejoin:miter;stroke-opacity:1" d="M 8.00808,285.568 4,275.547 z" id="boundary" inkscape:connector-curvature="0" />
	<path style="fill:none;stroke:red;stroke-width:1px;stroke-linecap:butt;stroke-linejoin:miter;stroke-opacity:1" d="M 4,330.659 4,320.638 z" id="boundary" inkscape:connector-curvature="0" />
	<path style="fill:none;stroke:red;stroke-width:1px;stroke-linecap:butt;stroke-linejoin:miter;stroke-opacity:1" d="M 4,310.618 12.0162,303.604 z" id="boundary" inkscape:connector-curvature="0" />
	<path style="fill:none;stroke:red;stroke-width:1px;stroke-linecap:butt;stroke-linejoin:miter;stroke-opacity:1" d="M 4,320.638 4,310.618 z" id="boundary" inkscape:connector-curvature="0" />
	<path style="fill:none;stroke:red;stroke-width:1px;stroke-linecap:butt;stroke-linejoin:miter;stroke-opacity:1" d="M 4,275.547 4,265.527 z" id="boundary" inkscape:connector-curvature="0" />
	<path style="fill:none;stroke:red;stroke-width:1px;stroke-linecap:butt;stroke-linejoin:miter;stroke-opacity:1" d="M 4,265.527 12.0162,258.513 z" id="boundary" inkscape:connector-curvature="0" />
	<path style="fill:none;stroke:red;stroke-width:1px;stroke-linecap:butt;stroke-linejoin:miter;stroke-opacity:1" d="M 4,340.679 4,330.659 z" id="boundary" inkscape:connector-curvature="0" />
	<path style="fill:none;stroke:red;stroke-width:1px;stroke-linecap:butt;stroke-linejoin:miter;stroke-opacity:1" d="M 10.0121,348.695 4,340.679 z" id="boundary" inkscape:connector-curvature="0" />
	<path style="fill:none;stroke:red;stroke-width:1px;stroke-linecap:butt;stroke-linejoin:miter;stroke-opacity:1" d="M 10.0121,393.786 4,385.77 z" id="boundary" inkscape:connector-curvature="0" />
	<path style="fill:none;stroke:red;stroke-width:1px;stroke-linecap:butt;stroke-linejoin:miter;stroke-opacity:1" d="M 4,385.77 12.0162,378.756 z" id="boundary" inkscape:connector-curvature="0" />
	<path style="fill:none;stroke:red;stroke-width:1px;stroke-linecap:butt;stroke-linejoin:miter;stroke-opacity:1" d="M 18.0283,354.707 10.0121,348.695 z" id="boundary" inkscape:connector-curvature="0" />
	<path style="fill:none;stroke:red;stroke-width:1px;stroke-linecap:butt;stroke-linejoin:miter;stroke-opacity:1" d="M 15.0222,293.584 8.00808,285.568 z" id="boundary" inkscape:connector-curvature="0" />
	<path style="fill:none;stroke:red;stroke-width:1px;stroke-linecap:butt;stroke-linejoin:miter;stroke-opacity:1" d="M 15.0222,293.584 12.0162,303.604 z" id="boundary" inkscape:connector-curvature="0" />
	<path style="fill:none;stroke:red;stroke-width:1px;stroke-linecap:butt;stroke-linejoin:miter;stroke-opacity:1" d="M 12.0162,258.513 19.0303,245.487 z" id="boundary" inkscape:connector-curvature="0" />
	<path style="fill:none;stroke:red;stroke-width:1px;stroke-linecap:butt;stroke-linejoin:miter;stroke-opacity:1" d="M 18.0283,354.707 19.0303,364.727 z" id="boundary" inkscape:connector-curvature="0" />
	<path style="fill:none;stroke:red;stroke-width:1px;stroke-linecap:butt;stroke-linejoin:miter;stroke-opacity:1" d="M 18.0283,399.798 10.0121,393.786 z" id="boundary" inkscape:connector-curvature="0" />
	<path style="fill:none;stroke:red;stroke-width:1px;stroke-linecap:butt;stroke-linejoin:miter;stroke-opacity:1" d="M 12.0162,378.756 19.0303,364.727 z" id="boundary" inkscape:connector-curvature="0" />
	<path style="fill:none;stroke:red;stroke-width:1px;stroke-linecap:butt;stroke-linejoin:miter;stroke-opacity:1" d="M 32.0566,413.826 24.0404,407.814 z" id="boundary" inkscape:connector-curvature="0" />
	<path style="fill:none;stroke:red;stroke-width:1px;stroke-linecap:butt;stroke-linejoin:miter;stroke-opacity:1" d="M 32.0566,413.826 34.0606,423.846 z" id="boundary" inkscape:connector-curvature="0" />
	<path style="fill:none;stroke:red;stroke-width:1px;stroke-linecap:butt;stroke-linejoin:miter;stroke-opacity:1" d="M 24.0404,407.814 18.0283,399.798 z" id="boundary" inkscape:connector-curvature="0" />
	<path style="fill:none;stroke:red;stroke-width:1px;stroke-linecap:butt;stroke-linejoin:miter;stroke-opacity:1" d="M 95.1838,9.0101 105.204,9.0101 z" id="boundary" inkscape:connector-curvature="0" />
	<path style="fill:none;stroke:red;stroke-width:1px;stroke-linecap:butt;stroke-linejoin:miter;stroke-opacity:1" d="M 85.1636,14.0202 95.1838,9.0101 z" id="boundary" inkscape:connector-curvature="0" />
	<path style="fill:none;stroke:red;stroke-width:1px;stroke-linecap:butt;stroke-linejoin:miter;stroke-opacity:1" d="M 114.222,4 105.204,9.0101 z" id="boundary" inkscape:connector-curvature="0" />
	<path style="fill:none;stroke:red;stroke-width:1px;stroke-linecap:butt;stroke-linejoin:miter;stroke-opacity:1" d="M 114.222,4 124.242,4 z" id="boundary" inkscape:connector-curvature="0" />
	<path style="fill:none;stroke:red;stroke-width:1px;stroke-linecap:butt;stroke-linejoin:miter;stroke-opacity:1" d="M 56.1051,29.0505 65.1232,24.0404 z" id="boundary" inkscape:connector-curvature="0" />
	<path style="fill:none;stroke:red;stroke-width:1px;stroke-linecap:butt;stroke-linejoin:miter;stroke-opacity:1" d="M 65.1232,24.0404 75.1434,19.0303 z" id="boundary" inkscape:connector-curvature="0" />
	<path style="fill:none;stroke:red;stroke-width:1px;stroke-linecap:butt;stroke-linejoin:miter;stroke-opacity:1" d="M 75.1434,19.0303 85.1636,14.0202 z" id="boundary" inkscape:connector-curvature="0" />
	<path style="fill:none;stroke:red;stroke-width:1px;stroke-linecap:butt;stroke-linejoin:miter;stroke-opacity:1" d="M 124.242,4 134.263,4 z" id="boundary" inkscape:connector-curvature="0" />
	<path style="fill:none;stroke:red;stroke-width:1px;stroke-linecap:butt;stroke-linejoin:miter;stroke-opacity:1" d="M 134.263,4 144.283,4 z" id="boundary" inkscape:connector-curvature="0" />
	<path style="fill:none;stroke:red;stroke-width:1px;stroke-linecap:butt;stroke-linejoin:miter;stroke-opacity:1" d="M 174.343,5.00202 164.323,7.00606 z" id="boundary" inkscape:connector-curvature="0" />
	<path style="fill:none;stroke:red;stroke-width:1px;stroke-linecap:butt;stroke-linejoin:miter;stroke-opacity:1" d="M 164.323,7.00606 154.303,4 z" id="boundary" inkscape:connector-curvature="0" />
	<path style="fill:none;stroke:red;stroke-width:1px;stroke-linecap:butt;stroke-linejoin:miter;stroke-opacity:1" d="M 144.283,4 154.303,4 z" id="boundary" inkscape:connector-curvature="0" />
	<path style="fill:none;stroke:red;stroke-width:1px;stroke-linecap:butt;stroke-linejoin:miter;stroke-opacity:1" d="M 183.362,10.0121 184.364,20.0323 z" id="boundary" inkscape:connector-curvature="0" />
	<path style="fill:none;stroke:red;stroke-width:1px;stroke-linecap:butt;stroke-linejoin:miter;stroke-opacity:1" d="M 174.343,5.00202 183.362,10.0121 z" id="boundary" inkscape:connector-curvature="0" />
	<path style="fill:none;stroke:red;stroke-width:1px;stroke-linecap:butt;stroke-linejoin:miter;stroke-opacity:1" d="M 190.376,28.0485 184.364,20.0323 z" id="boundary" inkscape:connector-curvature="0" />
	<path style="fill:none;stroke:red;stroke-width:1px;stroke-linecap:butt;stroke-linejoin:miter;stroke-opacity:1" d="M 190.376,28.0485 198.392,35.0626 z" id="boundary" inkscape:connector-curvature="0" />
	<path style="fill:none;stroke:red;stroke-width:1px;stroke-linecap:butt;stroke-linejoin:miter;stroke-opacity:1" d="M 198.392,35.0626 202.4,45.0828 z" id="boundary" inkscape:connector-curvature="0" />
	<path style="fill:none;stroke:red;stroke-width:1px;stroke-linecap:butt;stroke-linejoin:miter;stroke-opacity:1" d="M 202.4,45.0828 204.404,55.103 z" id="boundary" inkscape:connector-curvature="0" />
	<path style="fill:none;stroke:red;stroke-width:1px;stroke-linecap:butt;stroke-linejoin:miter;stroke-opacity:1" d="M 204.404,55.103 210.416,63.1192 z" id="boundary" inkscape:connector-curvature="0" />
	<path style="fill:none;stroke:red;stroke-width:1px;stroke-linecap:butt;stroke-linejoin:miter;stroke-opacity:1" d="M 220.436,64.1212 210.416,63.1192 z" id="boundary" inkscape:connector-curvature="0" />
	<path style="fill:none;stroke:red;stroke-width:1px;stroke-linecap:butt;stroke-linejoin:miter;stroke-opacity:1" d="M 239.475,70.1333 229.455,69.1313 z" id="boundary" inkscape:connector-curvature="0" />
	<path style="fill:none;stroke:red;stroke-width:1px;stroke-linecap:butt;stroke-linejoin:miter;stroke-opacity:1" d="M 229.455,69.1313 220.436,64.1212 z" id="boundary" inkscape:connector-curvature="0" />
	<path style="fill:none;stroke:red;stroke-width:1px;stroke-linecap:butt;stroke-linejoin:miter;stroke-opacity:1" d="M 249.495,69.1313 239.475,70.1333 z" id="boundary" inkscape:connector-curvature="0" />
	<path style="fill:none;stroke:red;stroke-width:1px;stroke-linecap:butt;stroke-linejoin:miter;stroke-opacity:1" d="M 42.0768,213.422 49.0909,205.406 z" id="boundary" inkscape:connector-curvature="0" />
	<path style="fill:none;stroke:red;stroke-width:1px;stroke-linecap:butt;stroke-linejoin:miter;stroke-opacity:1" d="M 49.0909,205.406 57.1071,198.392 z" id="boundary" inkscape:connector-curvature="0" />
	<path style="fill:none;stroke:red;stroke-width:1px;stroke-linecap:butt;stroke-linejoin:miter;stroke-opacity:1" d="M 50.0929,187.37 62.1172,189.374 z" id="boundary" inkscape:connector-curvature="0" />
	<path style="fill:none;stroke:red;stroke-width:1px;stroke-linecap:butt;stroke-linejoin:miter;stroke-opacity:1" d="M 62.1172,189.374 57.1071,198.392 z" id="boundary" inkscape:connector-curvature="0" />
	<path style="fill:none;stroke:red;stroke-width:1px;stroke-linecap:butt;stroke-linejoin:miter;stroke-opacity:1" d="M 249.495,69.1313 259.515,69.1313 z" id="boundary" inkscape:connector-curvature="0" />
	<path style="fill:none;stroke:red;stroke-width:1px;stroke-linecap:butt;stroke-linejoin:miter;stroke-opacity:1" d="M 259.515,69.1313 269.535,72.1374 z" id="boundary" inkscape:connector-curvature="0" />
	<path style="fill:none;stroke:red;stroke-width:1px;stroke-linecap:butt;stroke-linejoin:miter;stroke-opacity:1" d="M 269.535,72.1374 278.554,67.1273 z" id="boundary" inkscape:connector-curvature="0" />
	<path style="fill:none;stroke:red;stroke-width:1px;stroke-linecap:butt;stroke-linejoin:miter;stroke-opacity:1" d="M 278.554,67.1273 288.574,70.1333 z" id="boundary" inkscape:connector-curvature="0" />
	<path style="fill:none;stroke:red;stroke-width:1px;stroke-linecap:butt;stroke-linejoin:miter;stroke-opacity:1" d="M 288.574,70.1333 298.594,74.1414 z" id="boundary" inkscape:connector-curvature="0" />
	<path style="fill:none;stroke:red;stroke-width:1px;stroke-linecap:butt;stroke-linejoin:miter;stroke-opacity:1" d="M 298.594,74.1414 308.614,75.1434 z" id="boundary" inkscape:connector-curvature="0" />
	<path style="fill:none;stroke:red;stroke-width:1px;stroke-linecap:butt;stroke-linejoin:miter;stroke-opacity:1" d="M 308.614,75.1434 318.634,79.1515 z" id="boundary" inkscape:connector-curvature="0" />
	<path style="fill:none;stroke:red;stroke-width:1px;stroke-linecap:butt;stroke-linejoin:miter;stroke-opacity:1" d="M 328.655,79.1515 318.634,79.1515 z" id="boundary" inkscape:connector-curvature="0" />
	<path style="fill:none;stroke:red;stroke-width:1px;stroke-linecap:butt;stroke-linejoin:miter;stroke-opacity:1" d="M 338.675,79.1515 328.655,79.1515 z" id="boundary" inkscape:connector-curvature="0" />
	<path style="fill:none;stroke:red;stroke-width:1px;stroke-linecap:butt;stroke-linejoin:miter;stroke-opacity:1" d="M 348.695,79.1515 338.675,79.1515 z" id="boundary" inkscape:connector-curvature="0" />
	<path style="fill:none;stroke:red;stroke-width:1px;stroke-linecap:butt;stroke-linejoin:miter;stroke-opacity:1" d="M 47.0869,34.0606 56.1051,29.0505 z" id="boundary" inkscape:connector-curvature="0" />
	<path style="fill:none;stroke:red;stroke-width:1px;stroke-linecap:butt;stroke-linejoin:miter;stroke-opacity:1" d="M 34.0606,423.846 35.0626,433.867 z" id="boundary" inkscape:connector-curvature="0" />
	<path style="fill:none;stroke:red;stroke-width:1px;stroke-linecap:butt;stroke-linejoin:miter;stroke-opacity:1" d="M 39.0707,443.887 35.0626,433.867 z" id="boundary" inkscape:connector-curvature="0" />
	<path style="fill:none;stroke:red;stroke-width:1px;stroke-linecap:butt;stroke-linejoin:miter;stroke-opacity:1" d="M 39.0707,443.887 44.0808,452.905 z" id="boundary" inkscape:connector-curvature="0" />
	<path style="fill:none;stroke:red;stroke-width:1px;stroke-linecap:butt;stroke-linejoin:miter;stroke-opacity:1" d="M 49.0909,461.923 44.0808,452.905 z" id="boundary" inkscape:connector-curvature="0" />
	<path style="fill:none;stroke:red;stroke-width:1px;stroke-linecap:butt;stroke-linejoin:miter;stroke-opacity:1" d="M 49.0909,461.923 49.0909,471.943 z" id="boundary" inkscape:connector-curvature="0" />
	<path style="fill:none;stroke:red;stroke-width:1px;stroke-linecap:butt;stroke-linejoin:miter;stroke-opacity:1" d="M 64.1212,507.014 57.1071,498.998 z" id="boundary" inkscape:connector-curvature="0" />
	<path style="fill:none;stroke:red;stroke-width:1px;stroke-linecap:butt;stroke-linejoin:miter;stroke-opacity:1" d="M 57.1071,498.998 49.0909,491.984 z" id="boundary" inkscape:connector-curvature="0" />
	<path style="fill:none;stroke:red;stroke-width:1px;stroke-linecap:butt;stroke-linejoin:miter;stroke-opacity:1" d="M 49.0909,491.984 49.0909,481.964 z" id="boundary" inkscape:connector-curvature="0" />
	<path style="fill:none;stroke:red;stroke-width:1px;stroke-linecap:butt;stroke-linejoin:miter;stroke-opacity:1" d="M 49.0909,481.964 49.0909,471.943 z" id="boundary" inkscape:connector-curvature="0" />
	<path style="fill:none;stroke:red;stroke-width:1px;stroke-linecap:butt;stroke-linejoin:miter;stroke-opacity:1" d="M 64.1212,507.014 72.1374,514.028 z" id="boundary" inkscape:connector-curvature="0" />
	<path style="fill:none;stroke:red;stroke-width:1px;stroke-linecap:butt;stroke-linejoin:miter;stroke-opacity:1" d="M 72.1374,514.028 74.1414,524.048 z" id="boundary" inkscape:connector-curvature="0" />
	<path style="fill:none;stroke:red;stroke-width:1px;stroke-linecap:butt;stroke-linejoin:miter;stroke-opacity:1" d="M 74.1414,524.048 79.1515,533.067 z" id="boundary" inkscape:connector-curvature="0" />
	<path style="fill:none;stroke:red;stroke-width:1px;stroke-linecap:butt;stroke-linejoin:miter;stroke-opacity:1" d="M 79.1515,533.067 79.1515,543.087 z" id="boundary" inkscape:connector-curvature="0" />
	<path style="fill:none;stroke:red;stroke-width:1px;stroke-linecap:butt;stroke-linejoin:miter;stroke-opacity:1" d="M 84.1616,552.105 79.1515,543.087 z" id="boundary" inkscape:connector-curvature="0" />
	<path style="fill:none;stroke:red;stroke-width:1px;stroke-linecap:butt;stroke-linejoin:miter;stroke-opacity:1" d="M 84.1616,552.105 89.1717,561.123 z" id="boundary" inkscape:connector-curvature="0" />
	<path style="fill:none;stroke:red;stroke-width:1px;stroke-linecap:butt;stroke-linejoin:miter;stroke-opacity:1" d="M 94.1818,570.141 94.1818,580.162 z" id="boundary" inkscape:connector-curvature="0" />
	<path style="fill:none;stroke:red;stroke-width:1px;stroke-linecap:butt;stroke-linejoin:miter;stroke-opacity:1" d="M 89.1717,561.123 94.1818,570.141 z" id="boundary" inkscape:connector-curvature="0" />
	<path style="fill:none;stroke:red;stroke-width:1px;stroke-linecap:butt;stroke-linejoin:miter;stroke-opacity:1" d="M 94.1818,590.182 94.1818,580.162 z" id="boundary" inkscape:connector-curvature="0" />
	<path style="fill:none;stroke:red;stroke-width:1px;stroke-linecap:butt;stroke-linejoin:miter;stroke-opacity:1" d="M 124.242,631.265 119.232,622.246 z" id="boundary" inkscape:connector-curvature="0" />
	<path style="fill:none;stroke:red;stroke-width:1px;stroke-linecap:butt;stroke-linejoin:miter;stroke-opacity:1" d="M 94.1818,590.182 97.1879,600.202 z" id="boundary" inkscape:connector-curvature="0" />
	<path style="fill:none;stroke:red;stroke-width:1px;stroke-linecap:butt;stroke-linejoin:miter;stroke-opacity:1" d="M 97.1879,600.202 104.202,608.218 z" id="boundary" inkscape:connector-curvature="0" />
	<path style="fill:none;stroke:red;stroke-width:1px;stroke-linecap:butt;stroke-linejoin:miter;stroke-opacity:1" d="M 112.218,614.23 119.232,622.246 z" id="boundary" inkscape:connector-curvature="0" />
	<path style="fill:none;stroke:red;stroke-width:1px;stroke-linecap:butt;stroke-linejoin:miter;stroke-opacity:1" d="M 104.202,608.218 112.218,614.23 z" id="boundary" inkscape:connector-curvature="0" />
	<path style="fill:none;stroke:red;stroke-width:1px;stroke-linecap:butt;stroke-linejoin:miter;stroke-opacity:1" d="M 124.242,631.265 124.242,641.285 z" id="boundary" inkscape:connector-curvature="0" />
	<path style="fill:none;stroke:red;stroke-width:1px;stroke-linecap:butt;stroke-linejoin:miter;stroke-opacity:1" d="M 124.242,641.285 129.253,650.303 z" id="boundary" inkscape:connector-curvature="0" />
	<path style="fill:none;stroke:red;stroke-width:1px;stroke-linecap:butt;stroke-linejoin:miter;stroke-opacity:1" d="M 130.255,679.362 124.242,671.345 z" id="boundary" inkscape:connector-curvature="0" />
	<path style="fill:none;stroke:red;stroke-width:1px;stroke-linecap:butt;stroke-linejoin:miter;stroke-opacity:1" d="M 132.259,664.331 129.253,650.303 z" id="boundary" inkscape:connector-curvature="0" />
	<path style="fill:none;stroke:red;stroke-width:1px;stroke-linecap:butt;stroke-linejoin:miter;stroke-opacity:1" d="M 138.271,685.374 130.255,679.362 z" id="boundary" inkscape:connector-curvature="0" />
	<path style="fill:none;stroke:red;stroke-width:1px;stroke-linecap:butt;stroke-linejoin:miter;stroke-opacity:1" d="M 139.273,695.394 142.279,705.414 z" id="boundary" inkscape:connector-curvature="0" />
	<path style="fill:none;stroke:red;stroke-width:1px;stroke-linecap:butt;stroke-linejoin:miter;stroke-opacity:1" d="M 139.273,695.394 138.271,685.374 z" id="boundary" inkscape:connector-curvature="0" />
	<path style="fill:none;stroke:red;stroke-width:1px;stroke-linecap:butt;stroke-linejoin:miter;stroke-opacity:1" d="M 142.279,705.414 149.293,713.43 z" id="boundary" inkscape:connector-curvature="0" />
	<path style="fill:none;stroke:red;stroke-width:1px;stroke-linecap:butt;stroke-linejoin:miter;stroke-opacity:1" d="M 154.303,722.448 149.293,713.43 z" id="boundary" inkscape:connector-curvature="0" />
	<path style="fill:none;stroke:red;stroke-width:1px;stroke-linecap:butt;stroke-linejoin:miter;stroke-opacity:1" d="M 154.303,722.448 154.303,732.469 z" id="boundary" inkscape:connector-curvature="0" />
	<path style="fill:none;stroke:red;stroke-width:1px;stroke-linecap:butt;stroke-linejoin:miter;stroke-opacity:1" d="M 154.303,891.79 158.311,901.81 z" id="boundary" inkscape:connector-curvature="0" />
	<path style="fill:none;stroke:red;stroke-width:1px;stroke-linecap:butt;stroke-linejoin:miter;stroke-opacity:1" d="M 154.303,936.881 154.303,926.861 z" id="boundary" inkscape:connector-curvature="0" />
	<path style="fill:none;stroke:red;stroke-width:1px;stroke-linecap:butt;stroke-linejoin:miter;stroke-opacity:1" d="M 154.303,926.861 159.313,916.84 z" id="boundary" inkscape:connector-curvature="0" />
	<path style="fill:none;stroke:red;stroke-width:1px;stroke-linecap:butt;stroke-linejoin:miter;stroke-opacity:1" d="M 154.303,881.77 162.319,874.756 z" id="boundary" inkscape:connector-curvature="0" />
	<path style="fill:none;stroke:red;stroke-width:1px;stroke-linecap:butt;stroke-linejoin:miter;stroke-opacity:1" d="M 154.303,891.79 154.303,881.77 z" id="boundary" inkscape:connector-curvature="0" />
	<path style="fill:none;stroke:red;stroke-width:1px;stroke-linecap:butt;stroke-linejoin:miter;stroke-opacity:1" d="M 162.319,739.483 154.303,732.469 z" id="boundary" inkscape:connector-curvature="0" />
	<path style="fill:none;stroke:red;stroke-width:1px;stroke-linecap:butt;stroke-linejoin:miter;stroke-opacity:1" d="M 154.303,936.881 154.303,946.901 z" id="boundary" inkscape:connector-curvature="0" />
	<path style="fill:none;stroke:red;stroke-width:1px;stroke-linecap:butt;stroke-linejoin:miter;stroke-opacity:1" d="M 164.323,831.669 164.323,841.689 z" id="boundary" inkscape:connector-curvature="0" />
	<path style="fill:none;stroke:red;stroke-width:1px;stroke-linecap:butt;stroke-linejoin:miter;stroke-opacity:1" d="M 169.333,787.58 169.333,797.6 z" id="boundary" inkscape:connector-curvature="0" />
	<path style="fill:none;stroke:red;stroke-width:1px;stroke-linecap:butt;stroke-linejoin:miter;stroke-opacity:1" d="M 164.323,831.669 169.333,817.64 z" id="boundary" inkscape:connector-curvature="0" />
	<path style="fill:none;stroke:red;stroke-width:1px;stroke-linecap:butt;stroke-linejoin:miter;stroke-opacity:1" d="M 162.319,739.483 169.333,747.499 z" id="boundary" inkscape:connector-curvature="0" />
	<path style="fill:none;stroke:red;stroke-width:1px;stroke-linecap:butt;stroke-linejoin:miter;stroke-opacity:1" d="M 169.333,747.499 169.333,757.519 z" id="boundary" inkscape:connector-curvature="0" />
	<path style="fill:none;stroke:red;stroke-width:1px;stroke-linecap:butt;stroke-linejoin:miter;stroke-opacity:1" d="M 169.333,767.539 169.333,757.519 z" id="boundary" inkscape:connector-curvature="0" />
	<path style="fill:none;stroke:red;stroke-width:1px;stroke-linecap:butt;stroke-linejoin:miter;stroke-opacity:1" d="M 164.323,851.709 164.323,841.689 z" id="boundary" inkscape:connector-curvature="0" />
	<path style="fill:none;stroke:red;stroke-width:1px;stroke-linecap:butt;stroke-linejoin:miter;stroke-opacity:1" d="M 159.313,916.84 158.311,901.81 z" id="boundary" inkscape:connector-curvature="0" />
	<path style="fill:none;stroke:red;stroke-width:1px;stroke-linecap:butt;stroke-linejoin:miter;stroke-opacity:1" d="M 164.323,861.729 162.319,874.756 z" id="boundary" inkscape:connector-curvature="0" />
	<path style="fill:none;stroke:red;stroke-width:1px;stroke-linecap:butt;stroke-linejoin:miter;stroke-opacity:1" d="M 164.323,861.729 164.323,851.709 z" id="boundary" inkscape:connector-curvature="0" />
	<path style="fill:none;stroke:red;stroke-width:1px;stroke-linecap:butt;stroke-linejoin:miter;stroke-opacity:1" d="M 169.333,767.539 169.333,777.56 z" id="boundary" inkscape:connector-curvature="0" />
	<path style="fill:none;stroke:red;stroke-width:1px;stroke-linecap:butt;stroke-linejoin:miter;stroke-opacity:1" d="M 169.333,787.58 169.333,777.56 z" id="boundary" inkscape:connector-curvature="0" />
	<path style="fill:none;stroke:red;stroke-width:1px;stroke-linecap:butt;stroke-linejoin:miter;stroke-opacity:1" d="M 169.333,807.62 169.333,797.6 z" id="boundary" inkscape:connector-curvature="0" />
	<path style="fill:none;stroke:red;stroke-width:1px;stroke-linecap:butt;stroke-linejoin:miter;stroke-opacity:1" d="M 169.333,817.64 169.333,807.62 z" id="boundary" inkscape:connector-curvature="0" />
	<path style="fill:none;stroke:red;stroke-width:1px;stroke-linecap:butt;stroke-linejoin:miter;stroke-opacity:1" d="M 332.663,935.879 342.683,933.875 z" id="boundary" inkscape:connector-curvature="0" />
	<path style="fill:none;stroke:red;stroke-width:1px;stroke-linecap:butt;stroke-linejoin:miter;stroke-opacity:1" d="M 332.663,935.879 322.642,938.885 z" id="boundary" inkscape:connector-curvature="0" />
	<path style="fill:none;stroke:red;stroke-width:1px;stroke-linecap:butt;stroke-linejoin:miter;stroke-opacity:1" d="M 314.626,945.899 322.642,938.885 z" id="boundary" inkscape:connector-curvature="0" />
	<path style="fill:none;stroke:red;stroke-width:1px;stroke-linecap:butt;stroke-linejoin:miter;stroke-opacity:1" d="M 349.697,925.859 342.683,933.875 z" id="boundary" inkscape:connector-curvature="0" />
	<path style="fill:none;stroke:red;stroke-width:1px;stroke-linecap:butt;stroke-linejoin:miter;stroke-opacity:1" d="M 304.606,950.909 314.626,945.899 z" id="boundary" inkscape:connector-curvature="0" />
	<path style="fill:none;stroke:red;stroke-width:1px;stroke-linecap:butt;stroke-linejoin:miter;stroke-opacity:1" d="M 154.303,946.901 154.303,956.921 z" id="boundary" inkscape:connector-curvature="0" />
	<path style="fill:none;stroke:red;stroke-width:1px;stroke-linecap:butt;stroke-linejoin:miter;stroke-opacity:1" d="M 159.313,975.96 154.303,966.941 z" id="boundary" inkscape:connector-curvature="0" />
	<path style="fill:none;stroke:red;stroke-width:1px;stroke-linecap:butt;stroke-linejoin:miter;stroke-opacity:1" d="M 154.303,966.941 154.303,956.921 z" id="boundary" inkscape:connector-curvature="0" />
	<path style="fill:none;stroke:red;stroke-width:1px;stroke-linecap:butt;stroke-linejoin:miter;stroke-opacity:1" d="M 165.325,983.976 159.313,975.96 z" id="boundary" inkscape:connector-curvature="0" />
	<path style="fill:none;stroke:red;stroke-width:1px;stroke-linecap:butt;stroke-linejoin:miter;stroke-opacity:1" d="M 182.36,996 173.341,990.99 z" id="boundary" inkscape:connector-curvature="0" />
	<path style="fill:none;stroke:red;stroke-width:1px;stroke-linecap:butt;stroke-linejoin:miter;stroke-opacity:1" d="M 192.38,996 201.398,990.99 z" id="boundary" inkscape:connector-curvature="0" />
	<path style="fill:none;stroke:red;stroke-width:1px;stroke-linecap:butt;stroke-linejoin:miter;stroke-opacity:1" d="M 201.398,990.99 211.418,989.988 z" id="boundary" inkscape:connector-curvature="0" />
	<path style="fill:none;stroke:red;stroke-width:1px;stroke-linecap:butt;stroke-linejoin:miter;stroke-opacity:1" d="M 192.38,996 182.36,996 z" id="boundary" inkscape:connector-curvature="0" />
	<path style="fill:none;stroke:red;stroke-width:1px;stroke-linecap:butt;stroke-linejoin:miter;stroke-opacity:1" d="M 173.341,990.99 165.325,983.976 z" id="boundary" inkscape:connector-curvature="0" />
	<path style="fill:none;stroke:red;stroke-width:1px;stroke-linecap:butt;stroke-linejoin:miter;stroke-opacity:1" d="M 219.434,980.97 211.418,989.988 z" id="boundary" inkscape:connector-curvature="0" />
	<path style="fill:none;stroke:red;stroke-width:1px;stroke-linecap:butt;stroke-linejoin:miter;stroke-opacity:1" d="M 266.529,960.929 276.549,960.929 z" id="boundary" inkscape:connector-curvature="0" />
	<path style="fill:none;stroke:red;stroke-width:1px;stroke-linecap:butt;stroke-linejoin:miter;stroke-opacity:1" d="M 257.511,965.939 266.529,960.929 z" id="boundary" inkscape:connector-curvature="0" />
	<path style="fill:none;stroke:red;stroke-width:1px;stroke-linecap:butt;stroke-linejoin:miter;stroke-opacity:1" d="M 286.57,959.927 294.586,950.909 z" id="boundary" inkscape:connector-curvature="0" />
	<path style="fill:none;stroke:red;stroke-width:1px;stroke-linecap:butt;stroke-linejoin:miter;stroke-opacity:1" d="M 294.586,950.909 304.606,950.909 z" id="boundary" inkscape:connector-curvature="0" />
	<path style="fill:none;stroke:red;stroke-width:1px;stroke-linecap:butt;stroke-linejoin:miter;stroke-opacity:1" d="M 286.57,959.927 276.549,960.929 z" id="boundary" inkscape:connector-curvature="0" />
	<path style="fill:none;stroke:red;stroke-width:1px;stroke-linecap:butt;stroke-linejoin:miter;stroke-opacity:1" d="M 219.434,980.97 229.455,980.97 z" id="boundary" inkscape:connector-curvature="0" />
	<path style="fill:none;stroke:red;stroke-width:1px;stroke-linecap:butt;stroke-linejoin:miter;stroke-opacity:1" d="M 239.475,975.96 229.455,980.97 z" id="boundary" inkscape:connector-curvature="0" />
	<path style="fill:none;stroke:red;stroke-width:1px;stroke-linecap:butt;stroke-linejoin:miter;stroke-opacity:1" d="M 239.475,975.96 247.491,968.945 z" id="boundary" inkscape:connector-curvature="0" />
	<path style="fill:none;stroke:red;stroke-width:1px;stroke-linecap:butt;stroke-linejoin:miter;stroke-opacity:1" d="M 247.491,968.945 257.511,965.939 z" id="boundary" inkscape:connector-curvature="0" />
	<path style="fill:none;stroke:red;stroke-width:1px;stroke-linecap:butt;stroke-linejoin:miter;stroke-opacity:1" d="M 348.695,79.1515 358.715,79.1515 z" id="boundary" inkscape:connector-curvature="0" />
	<path style="fill:none;stroke:red;stroke-width:1px;stroke-linecap:butt;stroke-linejoin:miter;stroke-opacity:1" d="M 358.715,79.1515 368.735,79.1515 z" id="boundary" inkscape:connector-curvature="0" />
	<path style="fill:none;stroke:red;stroke-width:1px;stroke-linecap:butt;stroke-linejoin:miter;stroke-opacity:1" d="M 377.754,84.1616 368.735,79.1515 z" id="boundary" inkscape:connector-curvature="0" />
	<path style="fill:none;stroke:red;stroke-width:1px;stroke-linecap:butt;stroke-linejoin:miter;stroke-opacity:1" d="M 377.754,84.1616 379.758,94.1818 z" id="boundary" inkscape:connector-curvature="0" />
	<path style="fill:none;stroke:red;stroke-width:1px;stroke-linecap:butt;stroke-linejoin:miter;stroke-opacity:1" d="M 379.758,94.1818 380.76,104.202 z" id="boundary" inkscape:connector-curvature="0" />
	<path style="fill:none;stroke:red;stroke-width:1px;stroke-linecap:butt;stroke-linejoin:miter;stroke-opacity:1" d="M 390.78,104.202 380.76,104.202 z" id="boundary" inkscape:connector-curvature="0" />
	<path style="fill:none;stroke:red;stroke-width:1px;stroke-linecap:butt;stroke-linejoin:miter;stroke-opacity:1" d="M 390.78,104.202 398.796,97.1879 z" id="boundary" inkscape:connector-curvature="0" />
	<path style="fill:none;stroke:red;stroke-width:1px;stroke-linecap:butt;stroke-linejoin:miter;stroke-opacity:1" d="M 398.796,97.1879 408.816,100.194 z" id="boundary" inkscape:connector-curvature="0" />
	<path style="fill:none;stroke:red;stroke-width:1px;stroke-linecap:butt;stroke-linejoin:miter;stroke-opacity:1" d="M 408.816,100.194 414.828,108.21 z" id="boundary" inkscape:connector-curvature="0" />
	<path style="fill:none;stroke:red;stroke-width:1px;stroke-linecap:butt;stroke-linejoin:miter;stroke-opacity:1" d="M 414.828,108.21 422.844,114.222 z" id="boundary" inkscape:connector-curvature="0" />
	<path style="fill:none;stroke:red;stroke-width:1px;stroke-linecap:butt;stroke-linejoin:miter;stroke-opacity:1" d="M 422.844,114.222 428.857,122.238 z" id="boundary" inkscape:connector-curvature="0" />
	<path style="fill:none;stroke:red;stroke-width:1px;stroke-linecap:butt;stroke-linejoin:miter;stroke-opacity:1" d="M 428.857,122.238 436.873,129.253 z" id="boundary" inkscape:connector-curvature="0" />
	<path style="fill:none;stroke:red;stroke-width:1px;stroke-linecap:butt;stroke-linejoin:miter;stroke-opacity:1" d="M 436.873,129.253 443.887,137.269 z" id="boundary" inkscape:connector-curvature="0" />
	<path style="fill:none;stroke:red;stroke-width:1px;stroke-linecap:butt;stroke-linejoin:miter;stroke-opacity:1" d="M 453.907,139.273 443.887,137.269 z" id="boundary" inkscape:connector-curvature="0" />
	<path style="fill:none;stroke:red;stroke-width:1px;stroke-linecap:butt;stroke-linejoin:miter;stroke-opacity:1" d="M 453.907,139.273 463.927,140.275 z" id="boundary" inkscape:connector-curvature="0" />
	<path style="fill:none;stroke:red;stroke-width:1px;stroke-linecap:butt;stroke-linejoin:miter;stroke-opacity:1" d="M 463.927,140.275 469.939,148.291 z" id="boundary" inkscape:connector-curvature="0" />
	<path style="fill:none;stroke:red;stroke-width:1px;stroke-linecap:butt;stroke-linejoin:miter;stroke-opacity:1" d="M 477.956,164.323 469.939,158.311 z" id="boundary" inkscape:connector-curvature="0" />
	<path style="fill:none;stroke:red;stroke-width:1px;stroke-linecap:butt;stroke-linejoin:miter;stroke-opacity:1" d="M 469.939,158.311 469.939,148.291 z" id="boundary" inkscape:connector-curvature="0" />
	<path style="fill:none;stroke:red;stroke-width:1px;stroke-linecap:butt;stroke-linejoin:miter;stroke-opacity:1" d="M 486.974,169.333 477.956,164.323 z" id="boundary" inkscape:connector-curvature="0" />
	<path style="fill:none;stroke:red;stroke-width:1px;stroke-linecap:butt;stroke-linejoin:miter;stroke-opacity:1" d="M 486.974,169.333 495.992,174.343 z" id="boundary" inkscape:connector-curvature="0" />
	<path style="fill:none;stroke:red;stroke-width:1px;stroke-linecap:butt;stroke-linejoin:miter;stroke-opacity:1" d="M 510.02,188.372 515.03,197.39 z" id="boundary" inkscape:connector-curvature="0" />
	<path style="fill:none;stroke:red;stroke-width:1px;stroke-linecap:butt;stroke-linejoin:miter;stroke-opacity:1" d="M 495.992,174.343 504.008,180.356 z" id="boundary" inkscape:connector-curvature="0" />
	<path style="fill:none;stroke:red;stroke-width:1px;stroke-linecap:butt;stroke-linejoin:miter;stroke-opacity:1" d="M 504.008,180.356 510.02,188.372 z" id="boundary" inkscape:connector-curvature="0" />
	<path style="fill:none;stroke:red;stroke-width:1px;stroke-linecap:butt;stroke-linejoin:miter;stroke-opacity:1" d="M 515.03,197.39 520.04,206.408 z" id="boundary" inkscape:connector-curvature="0" />
	<path style="fill:none;stroke:red;stroke-width:1px;stroke-linecap:butt;stroke-linejoin:miter;stroke-opacity:1" d="M 520.04,206.408 525.051,215.426 z" id="boundary" inkscape:connector-curvature="0" />
	<path style="fill:none;stroke:red;stroke-width:1px;stroke-linecap:butt;stroke-linejoin:miter;stroke-opacity:1" d="M 531.063,223.442 539.079,230.457 z" id="boundary" inkscape:connector-curvature="0" />
	<path style="fill:none;stroke:red;stroke-width:1px;stroke-linecap:butt;stroke-linejoin:miter;stroke-opacity:1" d="M 531.063,223.442 525.051,215.426 z" id="boundary" inkscape:connector-curvature="0" />
	<path style="fill:none;stroke:red;stroke-width:1px;stroke-linecap:butt;stroke-linejoin:miter;stroke-opacity:1" d="M 545.091,238.473 539.079,230.457 z" id="boundary" inkscape:connector-curvature="0" />
	<path style="fill:none;stroke:red;stroke-width:1px;stroke-linecap:butt;stroke-linejoin:miter;stroke-opacity:1" d="M 545.091,238.473 545.091,248.493 z" id="boundary" inkscape:connector-curvature="0" />
	<path style="fill:none;stroke:red;stroke-width:1px;stroke-linecap:butt;stroke-linejoin:miter;stroke-opacity:1" d="M 545.091,248.493 550.101,257.511 z" id="boundary" inkscape:connector-curvature="0" />
	<path style="fill:none;stroke:red;stroke-width:1px;stroke-linecap:butt;stroke-linejoin:miter;stroke-opacity:1" d="M 550.101,257.511 554.109,267.531 z" id="boundary" inkscape:connector-curvature="0" />
	<path style="fill:none;stroke:red;stroke-width:1px;stroke-linecap:butt;stroke-linejoin:miter;stroke-opacity:1" d="M 564.129,262.521 574.149,265.527 z" id="boundary" inkscape:connector-curvature="0" />
	<path style="fill:none;stroke:red;stroke-width:1px;stroke-linecap:butt;stroke-linejoin:miter;stroke-opacity:1" d="M 574.149,265.527 575.152,275.547 z" id="boundary" inkscape:connector-curvature="0" />
	<path style="fill:none;stroke:red;stroke-width:1px;stroke-linecap:butt;stroke-linejoin:miter;stroke-opacity:1" d="M 575.152,275.547 578.158,285.568 z" id="boundary" inkscape:connector-curvature="0" />
	<path style="fill:none;stroke:red;stroke-width:1px;stroke-linecap:butt;stroke-linejoin:miter;stroke-opacity:1" d="M 585.172,293.584 578.158,285.568 z" id="boundary" inkscape:connector-curvature="0" />
	<path style="fill:none;stroke:red;stroke-width:1px;stroke-linecap:butt;stroke-linejoin:miter;stroke-opacity:1" d="M 585.172,293.584 590.182,302.602 z" id="boundary" inkscape:connector-curvature="0" />
	<path style="fill:none;stroke:red;stroke-width:1px;stroke-linecap:butt;stroke-linejoin:miter;stroke-opacity:1" d="M 590.182,302.602 590.182,312.622 z" id="boundary" inkscape:connector-curvature="0" />
	<path style="fill:none;stroke:red;stroke-width:1px;stroke-linecap:butt;stroke-linejoin:miter;stroke-opacity:1" d="M 598.198,319.636 590.182,312.622 z" id="boundary" inkscape:connector-curvature="0" />
	<path style="fill:none;stroke:red;stroke-width:1px;stroke-linecap:butt;stroke-linejoin:miter;stroke-opacity:1" d="M 598.198,319.636 608.218,319.636 z" id="boundary" inkscape:connector-curvature="0" />
	<path style="fill:none;stroke:red;stroke-width:1px;stroke-linecap:butt;stroke-linejoin:miter;stroke-opacity:1" d="M 617.236,324.646 620.242,334.667 z" id="boundary" inkscape:connector-curvature="0" />
	<path style="fill:none;stroke:red;stroke-width:1px;stroke-linecap:butt;stroke-linejoin:miter;stroke-opacity:1" d="M 608.218,319.636 617.236,324.646 z" id="boundary" inkscape:connector-curvature="0" />
	<path style="fill:none;stroke:red;stroke-width:1px;stroke-linecap:butt;stroke-linejoin:miter;stroke-opacity:1" d="M 620.242,334.667 621.244,344.687 z" id="boundary" inkscape:connector-curvature="0" />
	<path style="fill:none;stroke:red;stroke-width:1px;stroke-linecap:butt;stroke-linejoin:miter;stroke-opacity:1" d="M 621.244,344.687 629.261,350.699 z" id="boundary" inkscape:connector-curvature="0" />
	<path style="fill:none;stroke:red;stroke-width:1px;stroke-linecap:butt;stroke-linejoin:miter;stroke-opacity:1" d="M 629.261,350.699 635.273,358.715 z" id="boundary" inkscape:connector-curvature="0" />
	<path style="fill:none;stroke:red;stroke-width:1px;stroke-linecap:butt;stroke-linejoin:miter;stroke-opacity:1" d="M 653.309,364.727 643.289,364.727 z" id="boundary" inkscape:connector-curvature="0" />
	<path style="fill:none;stroke:red;stroke-width:1px;stroke-linecap:butt;stroke-linejoin:miter;stroke-opacity:1" d="M 643.289,364.727 635.273,358.715 z" id="boundary" inkscape:connector-curvature="0" />
	<path style="fill:none;stroke:red;stroke-width:1px;stroke-linecap:butt;stroke-linejoin:miter;stroke-opacity:1" d="M 663.329,364.727 653.309,364.727 z" id="boundary" inkscape:connector-curvature="0" />
	<path style="fill:none;stroke:red;stroke-width:1px;stroke-linecap:butt;stroke-linejoin:miter;stroke-opacity:1" d="M 672.347,369.737 679.362,377.754 z" id="boundary" inkscape:connector-curvature="0" />
	<path style="fill:none;stroke:red;stroke-width:1px;stroke-linecap:butt;stroke-linejoin:miter;stroke-opacity:1" d="M 672.347,369.737 663.329,364.727 z" id="boundary" inkscape:connector-curvature="0" />
	<path style="fill:none;stroke:red;stroke-width:1px;stroke-linecap:butt;stroke-linejoin:miter;stroke-opacity:1" d="M 687.378,384.768 694.392,392.784 z" id="boundary" inkscape:connector-curvature="0" />
	<path style="fill:none;stroke:red;stroke-width:1px;stroke-linecap:butt;stroke-linejoin:miter;stroke-opacity:1" d="M 687.378,384.768 679.362,377.754 z" id="boundary" inkscape:connector-curvature="0" />
	<path style="fill:none;stroke:red;stroke-width:1px;stroke-linecap:butt;stroke-linejoin:miter;stroke-opacity:1" d="M 702.408,399.798 694.392,392.784 z" id="boundary" inkscape:connector-curvature="0" />
	<path style="fill:none;stroke:red;stroke-width:1px;stroke-linecap:butt;stroke-linejoin:miter;stroke-opacity:1" d="M 709.422,407.814 715.434,415.83 z" id="boundary" inkscape:connector-curvature="0" />
	<path style="fill:none;stroke:red;stroke-width:1px;stroke-linecap:butt;stroke-linejoin:miter;stroke-opacity:1" d="M 709.422,407.814 702.408,399.798 z" id="boundary" inkscape:connector-curvature="0" />
	<path style="fill:none;stroke:red;stroke-width:1px;stroke-linecap:butt;stroke-linejoin:miter;stroke-opacity:1" d="M 731.467,424.848 721.446,423.846 z" id="boundary" inkscape:connector-curvature="0" />
	<path style="fill:none;stroke:red;stroke-width:1px;stroke-linecap:butt;stroke-linejoin:miter;stroke-opacity:1" d="M 721.446,423.846 715.434,415.83 z" id="boundary" inkscape:connector-curvature="0" />
	<path style="fill:none;stroke:red;stroke-width:1px;stroke-linecap:butt;stroke-linejoin:miter;stroke-opacity:1" d="M 731.467,424.848 739.483,430.861 z" id="boundary" inkscape:connector-curvature="0" />
	<path style="fill:none;stroke:red;stroke-width:1px;stroke-linecap:butt;stroke-linejoin:miter;stroke-opacity:1" d="M 739.483,430.861 745.495,438.877 z" id="boundary" inkscape:connector-curvature="0" />
	<path style="fill:none;stroke:red;stroke-width:1px;stroke-linecap:butt;stroke-linejoin:miter;stroke-opacity:1" d="M 755.515,439.879 745.495,438.877 z" id="boundary" inkscape:connector-curvature="0" />
	<path style="fill:none;stroke:red;stroke-width:1px;stroke-linecap:butt;stroke-linejoin:miter;stroke-opacity:1" d="M 755.515,439.879 765.535,442.885 z" id="boundary" inkscape:connector-curvature="0" />
	<path style="fill:none;stroke:red;stroke-width:1px;stroke-linecap:butt;stroke-linejoin:miter;stroke-opacity:1" d="M 765.535,442.885 773.552,449.899 z" id="boundary" inkscape:connector-curvature="0" />
	<path style="fill:none;stroke:red;stroke-width:1px;stroke-linecap:butt;stroke-linejoin:miter;stroke-opacity:1" d="M 773.552,449.899 779.564,457.915 z" id="boundary" inkscape:connector-curvature="0" />
	<path style="fill:none;stroke:red;stroke-width:1px;stroke-linecap:butt;stroke-linejoin:miter;stroke-opacity:1" d="M 779.564,457.915 787.58,464.929 z" id="boundary" inkscape:connector-curvature="0" />
	<path style="fill:none;stroke:red;stroke-width:1px;stroke-linecap:butt;stroke-linejoin:miter;stroke-opacity:1" d="M 797.6,464.929 805.616,455.911 z" id="boundary" inkscape:connector-curvature="0" />
	<path style="fill:none;stroke:red;stroke-width:1px;stroke-linecap:butt;stroke-linejoin:miter;stroke-opacity:1" d="M 805.616,455.911 815.636,454.909 z" id="boundary" inkscape:connector-curvature="0" />
	<path style="fill:none;stroke:red;stroke-width:1px;stroke-linecap:butt;stroke-linejoin:miter;stroke-opacity:1" d="M 797.6,464.929 787.58,464.929 z" id="boundary" inkscape:connector-curvature="0" />
	<path style="fill:none;stroke:red;stroke-width:1px;stroke-linecap:butt;stroke-linejoin:miter;stroke-opacity:1" d="M 815.636,454.909 825.657,457.915 z" id="boundary" inkscape:connector-curvature="0" />
	<path style="fill:none;stroke:red;stroke-width:1px;stroke-linecap:butt;stroke-linejoin:miter;stroke-opacity:1" d="M 825.657,457.915 833.673,464.929 z" id="boundary" inkscape:connector-curvature="0" />
	<path style="fill:none;stroke:red;stroke-width:1px;stroke-linecap:butt;stroke-linejoin:miter;stroke-opacity:1" d="M 842.691,469.939 852.711,469.939 z" id="boundary" inkscape:connector-curvature="0" />
	<path style="fill:none;stroke:red;stroke-width:1px;stroke-linecap:butt;stroke-linejoin:miter;stroke-opacity:1" d="M 852.711,469.939 859.725,477.956 z" id="boundary" inkscape:connector-curvature="0" />
	<path style="fill:none;stroke:red;stroke-width:1px;stroke-linecap:butt;stroke-linejoin:miter;stroke-opacity:1" d="M 842.691,469.939 833.673,464.929 z" id="boundary" inkscape:connector-curvature="0" />
	<path style="fill:none;stroke:red;stroke-width:1px;stroke-linecap:butt;stroke-linejoin:miter;stroke-opacity:1" d="M 859.725,477.956 867.741,484.97 z" id="boundary" inkscape:connector-curvature="0" />
	<path style="fill:none;stroke:red;stroke-width:1px;stroke-linecap:butt;stroke-linejoin:miter;stroke-opacity:1" d="M 867.741,484.97 877.762,484.97 z" id="boundary" inkscape:connector-curvature="0" />
	<path style="fill:none;stroke:red;stroke-width:1px;stroke-linecap:butt;stroke-linejoin:miter;stroke-opacity:1" d="M 890.788,500 891.79,510.02 z" id="boundary" inkscape:connector-curvature="0" />
	<path style="fill:none;stroke:red;stroke-width:1px;stroke-linecap:butt;stroke-linejoin:miter;stroke-opacity:1" d="M 890.788,500 886.78,489.98 z" id="boundary" inkscape:connector-curvature="0" />
	<path style="fill:none;stroke:red;stroke-width:1px;stroke-linecap:butt;stroke-linejoin:miter;stroke-opacity:1" d="M 900.808,515.03 891.79,510.02 z" id="boundary" inkscape:connector-curvature="0" />
	<path style="fill:none;stroke:red;stroke-width:1px;stroke-linecap:butt;stroke-linejoin:miter;stroke-opacity:1" d="M 877.762,484.97 886.78,489.98 z" id="boundary" inkscape:connector-curvature="0" />
	<path style="fill:none;stroke:red;stroke-width:1px;stroke-linecap:butt;stroke-linejoin:miter;stroke-opacity:1" d="M 477.956,873.754 484.97,865.737 z" id="boundary" inkscape:connector-curvature="0" />
	<path style="fill:none;stroke:red;stroke-width:1px;stroke-linecap:butt;stroke-linejoin:miter;stroke-opacity:1" d="M 477.956,873.754 467.935,875.758 z" id="boundary" inkscape:connector-curvature="0" />
	<path style="fill:none;stroke:red;stroke-width:1px;stroke-linecap:butt;stroke-linejoin:miter;stroke-opacity:1" d="M 493.988,860.727 500,868.743 z" id="boundary" inkscape:connector-curvature="0" />
	<path style="fill:none;stroke:red;stroke-width:1px;stroke-linecap:butt;stroke-linejoin:miter;stroke-opacity:1" d="M 484.97,865.737 493.988,860.727 z" id="boundary" inkscape:connector-curvature="0" />
	<path style="fill:none;stroke:red;stroke-width:1px;stroke-linecap:butt;stroke-linejoin:miter;stroke-opacity:1" d="M 508.016,874.756 500,868.743 z" id="boundary" inkscape:connector-curvature="0" />
	<path style="fill:none;stroke:red;stroke-width:1px;stroke-linecap:butt;stroke-linejoin:miter;stroke-opacity:1" d="M 449.899,885.778 457.915,878.764 z" id="boundary" inkscape:connector-curvature="0" />
	<path style="fill:none;stroke:red;stroke-width:1px;stroke-linecap:butt;stroke-linejoin:miter;stroke-opacity:1" d="M 457.915,878.764 467.935,875.758 z" id="boundary" inkscape:connector-curvature="0" />
	<path style="fill:none;stroke:red;stroke-width:1px;stroke-linecap:butt;stroke-linejoin:miter;stroke-opacity:1" d="M 527.055,880.768 517.034,879.766 z" id="boundary" inkscape:connector-curvature="0" />
	<path style="fill:none;stroke:red;stroke-width:1px;stroke-linecap:butt;stroke-linejoin:miter;stroke-opacity:1" d="M 517.034,879.766 508.016,874.756 z" id="boundary" inkscape:connector-curvature="0" />
	<path style="fill:none;stroke:red;stroke-width:1px;stroke-linecap:butt;stroke-linejoin:miter;stroke-opacity:1" d="M 640.283,795.596 636.275,785.576 z" id="boundary" inkscape:connector-curvature="0" />
	<path style="fill:none;stroke:red;stroke-width:1px;stroke-linecap:butt;stroke-linejoin:miter;stroke-opacity:1" d="M 640.283,795.596 640.283,805.616 z" id="boundary" inkscape:connector-curvature="0" />
	<path style="fill:none;stroke:red;stroke-width:1px;stroke-linecap:butt;stroke-linejoin:miter;stroke-opacity:1" d="M 638.279,823.653 640.283,805.616 z" id="boundary" inkscape:connector-curvature="0" />
	<path style="fill:none;stroke:red;stroke-width:1px;stroke-linecap:butt;stroke-linejoin:miter;stroke-opacity:1" d="M 636.275,785.576 635.273,775.556 z" id="boundary" inkscape:connector-curvature="0" />
	<path style="fill:none;stroke:red;stroke-width:1px;stroke-linecap:butt;stroke-linejoin:miter;stroke-opacity:1" d="M 635.273,775.556 644.291,770.545 z" id="boundary" inkscape:connector-curvature="0" />
	<path style="fill:none;stroke:red;stroke-width:1px;stroke-linecap:butt;stroke-linejoin:miter;stroke-opacity:1" d="M 612.226,864.735 604.21,870.747 z" id="boundary" inkscape:connector-curvature="0" />
	<path style="fill:none;stroke:red;stroke-width:1px;stroke-linecap:butt;stroke-linejoin:miter;stroke-opacity:1" d="M 620.242,850.707 612.226,864.735 z" id="boundary" inkscape:connector-curvature="0" />
	<path style="fill:none;stroke:red;stroke-width:1px;stroke-linecap:butt;stroke-linejoin:miter;stroke-opacity:1" d="M 620.242,850.707 625.253,840.687 z" id="boundary" inkscape:connector-curvature="0" />
	<path style="fill:none;stroke:red;stroke-width:1px;stroke-linecap:butt;stroke-linejoin:miter;stroke-opacity:1" d="M 625.253,840.687 633.269,833.673 z" id="boundary" inkscape:connector-curvature="0" />
	<path style="fill:none;stroke:red;stroke-width:1px;stroke-linecap:butt;stroke-linejoin:miter;stroke-opacity:1" d="M 604.21,870.747 595.192,875.758 z" id="boundary" inkscape:connector-curvature="0" />
	<path style="fill:none;stroke:red;stroke-width:1px;stroke-linecap:butt;stroke-linejoin:miter;stroke-opacity:1" d="M 638.279,823.653 633.269,833.673 z" id="boundary" inkscape:connector-curvature="0" />
	<path style="fill:none;stroke:red;stroke-width:1px;stroke-linecap:butt;stroke-linejoin:miter;stroke-opacity:1" d="M 388.776,920.848 379.758,925.859 z" id="boundary" inkscape:connector-curvature="0" />
	<path style="fill:none;stroke:red;stroke-width:1px;stroke-linecap:butt;stroke-linejoin:miter;stroke-opacity:1" d="M 406.812,914.836 414.828,905.818 z" id="boundary" inkscape:connector-curvature="0" />
	<path style="fill:none;stroke:red;stroke-width:1px;stroke-linecap:butt;stroke-linejoin:miter;stroke-opacity:1" d="M 422.844,898.804 414.828,905.818 z" id="boundary" inkscape:connector-curvature="0" />
	<path style="fill:none;stroke:red;stroke-width:1px;stroke-linecap:butt;stroke-linejoin:miter;stroke-opacity:1" d="M 429.859,890.788 422.844,898.804 z" id="boundary" inkscape:connector-curvature="0" />
	<path style="fill:none;stroke:red;stroke-width:1px;stroke-linecap:butt;stroke-linejoin:miter;stroke-opacity:1" d="M 406.812,914.836 398.796,920.848 z" id="boundary" inkscape:connector-curvature="0" />
	<path style="fill:none;stroke:red;stroke-width:1px;stroke-linecap:butt;stroke-linejoin:miter;stroke-opacity:1" d="M 398.796,920.848 388.776,920.848 z" id="boundary" inkscape:connector-curvature="0" />
	<path style="fill:none;stroke:red;stroke-width:1px;stroke-linecap:butt;stroke-linejoin:miter;stroke-opacity:1" d="M 364.727,928.865 372.743,934.877 z" id="boundary" inkscape:connector-curvature="0" />
	<path style="fill:none;stroke:red;stroke-width:1px;stroke-linecap:butt;stroke-linejoin:miter;stroke-opacity:1" d="M 349.697,925.859 358.715,920.848 z" id="boundary" inkscape:connector-curvature="0" />
	<path style="fill:none;stroke:red;stroke-width:1px;stroke-linecap:butt;stroke-linejoin:miter;stroke-opacity:1" d="M 358.715,920.848 364.727,928.865 z" id="boundary" inkscape:connector-curvature="0" />
	<path style="fill:none;stroke:red;stroke-width:1px;stroke-linecap:butt;stroke-linejoin:miter;stroke-opacity:1" d="M 372.743,934.877 379.758,925.859 z" id="boundary" inkscape:connector-curvature="0" />
	<path style="fill:none;stroke:red;stroke-width:1px;stroke-linecap:butt;stroke-linejoin:miter;stroke-opacity:1" d="M 527.055,880.768 537.075,884.776 z" id="boundary" inkscape:connector-curvature="0" />
	<path style="fill:none;stroke:red;stroke-width:1px;stroke-linecap:butt;stroke-linejoin:miter;stroke-opacity:1" d="M 547.095,885.778 537.075,884.776 z" id="boundary" inkscape:connector-curvature="0" />
	<path style="fill:none;stroke:red;stroke-width:1px;stroke-linecap:butt;stroke-linejoin:miter;stroke-opacity:1" d="M 586.174,880.768 576.154,880.768 z" id="boundary" inkscape:connector-curvature="0" />
	<path style="fill:none;stroke:red;stroke-width:1px;stroke-linecap:butt;stroke-linejoin:miter;stroke-opacity:1" d="M 595.192,875.758 586.174,880.768 z" id="boundary" inkscape:connector-curvature="0" />
	<path style="fill:none;stroke:red;stroke-width:1px;stroke-linecap:butt;stroke-linejoin:miter;stroke-opacity:1" d="M 567.135,885.778 576.154,880.768 z" id="boundary" inkscape:connector-curvature="0" />
	<path style="fill:none;stroke:red;stroke-width:1px;stroke-linecap:butt;stroke-linejoin:miter;stroke-opacity:1" d="M 439.879,890.788 449.899,885.778 z" id="boundary" inkscape:connector-curvature="0" />
	<path style="fill:none;stroke:red;stroke-width:1px;stroke-linecap:butt;stroke-linejoin:miter;stroke-opacity:1" d="M 429.859,890.788 439.879,890.788 z" id="boundary" inkscape:connector-curvature="0" />
	<path style="fill:none;stroke:red;stroke-width:1px;stroke-linecap:butt;stroke-linejoin:miter;stroke-opacity:1" d="M 547.095,885.778 557.115,885.778 z" id="boundary" inkscape:connector-curvature="0" />
	<path style="fill:none;stroke:red;stroke-width:1px;stroke-linecap:butt;stroke-linejoin:miter;stroke-opacity:1" d="M 567.135,885.778 557.115,885.778 z" id="boundary" inkscape:connector-curvature="0" />
	<path style="fill:none;stroke:red;stroke-width:1px;stroke-linecap:butt;stroke-linejoin:miter;stroke-opacity:1" d="M 842.691,629.261 845.697,615.232 z" id="boundary" inkscape:connector-curvature="0" />
	<path style="fill:none;stroke:red;stroke-width:1px;stroke-linecap:butt;stroke-linejoin:miter;stroke-opacity:1" d="M 845.697,615.232 853.713,608.218 z" id="boundary" inkscape:connector-curvature="0" />
	<path style="fill:none;stroke:red;stroke-width:1px;stroke-linecap:butt;stroke-linejoin:miter;stroke-opacity:1" d="M 860.727,600.202 865.737,590.182 z" id="boundary" inkscape:connector-curvature="0" />
	<path style="fill:none;stroke:red;stroke-width:1px;stroke-linecap:butt;stroke-linejoin:miter;stroke-opacity:1" d="M 865.737,590.182 875.758,590.182 z" id="boundary" inkscape:connector-curvature="0" />
	<path style="fill:none;stroke:red;stroke-width:1px;stroke-linecap:butt;stroke-linejoin:miter;stroke-opacity:1" d="M 860.727,600.202 853.713,608.218 z" id="boundary" inkscape:connector-curvature="0" />
	<path style="fill:none;stroke:red;stroke-width:1px;stroke-linecap:butt;stroke-linejoin:miter;stroke-opacity:1" d="M 815.636,640.283 815.636,650.303 z" id="boundary" inkscape:connector-curvature="0" />
	<path style="fill:none;stroke:red;stroke-width:1px;stroke-linecap:butt;stroke-linejoin:miter;stroke-opacity:1" d="M 815.636,640.283 824.655,635.273 z" id="boundary" inkscape:connector-curvature="0" />
	<path style="fill:none;stroke:red;stroke-width:1px;stroke-linecap:butt;stroke-linejoin:miter;stroke-opacity:1" d="M 842.691,629.261 834.675,635.273 z" id="boundary" inkscape:connector-curvature="0" />
	<path style="fill:none;stroke:red;stroke-width:1px;stroke-linecap:butt;stroke-linejoin:miter;stroke-opacity:1" d="M 834.675,635.273 824.655,635.273 z" id="boundary" inkscape:connector-curvature="0" />
	<path style="fill:none;stroke:red;stroke-width:1px;stroke-linecap:butt;stroke-linejoin:miter;stroke-opacity:1" d="M 808.622,663.329 815.636,650.303 z" id="boundary" inkscape:connector-curvature="0" />
	<path style="fill:none;stroke:red;stroke-width:1px;stroke-linecap:butt;stroke-linejoin:miter;stroke-opacity:1" d="M 875.758,590.182 885.778,585.172 z" id="boundary" inkscape:connector-curvature="0" />
	<path style="fill:none;stroke:red;stroke-width:1px;stroke-linecap:butt;stroke-linejoin:miter;stroke-opacity:1" d="M 900.808,515.03 910.828,515.03 z" id="boundary" inkscape:connector-curvature="0" />
	<path style="fill:none;stroke:red;stroke-width:1px;stroke-linecap:butt;stroke-linejoin:miter;stroke-opacity:1" d="M 920.848,531.063 913.834,543.087 z" id="boundary" inkscape:connector-curvature="0" />
	<path style="fill:none;stroke:red;stroke-width:1px;stroke-linecap:butt;stroke-linejoin:miter;stroke-opacity:1" d="M 910.828,515.03 918.844,521.042 z" id="boundary" inkscape:connector-curvature="0" />
	<path style="fill:none;stroke:red;stroke-width:1px;stroke-linecap:butt;stroke-linejoin:miter;stroke-opacity:1" d="M 918.844,521.042 920.848,531.063 z" id="boundary" inkscape:connector-curvature="0" />
	<path style="fill:none;stroke:red;stroke-width:1px;stroke-linecap:butt;stroke-linejoin:miter;stroke-opacity:1" d="M 913.834,543.087 905.818,550.101 z" id="boundary" inkscape:connector-curvature="0" />
	<path style="fill:none;stroke:red;stroke-width:1px;stroke-linecap:butt;stroke-linejoin:miter;stroke-opacity:1" d="M 890.788,575.152 885.778,585.172 z" id="boundary" inkscape:connector-curvature="0" />
	<path style="fill:none;stroke:red;stroke-width:1px;stroke-linecap:butt;stroke-linejoin:miter;stroke-opacity:1" d="M 890.788,565.131 890.788,575.152 z" id="boundary" inkscape:connector-curvature="0" />
	<path style="fill:none;stroke:red;stroke-width:1px;stroke-linecap:butt;stroke-linejoin:miter;stroke-opacity:1" d="M 898.804,558.117 905.818,550.101 z" id="boundary" inkscape:connector-curvature="0" />
	<path style="fill:none;stroke:red;stroke-width:1px;stroke-linecap:butt;stroke-linejoin:miter;stroke-opacity:1" d="M 890.788,565.131 898.804,558.117 z" id="boundary" inkscape:connector-curvature="0" />
	<path style="fill:none;stroke:red;stroke-width:1px;stroke-linecap:butt;stroke-linejoin:miter;stroke-opacity:1" d="M 685.374,740.485 695.394,735.475 z" id="boundary" inkscape:connector-curvature="0" />
	<path style="fill:none;stroke:red;stroke-width:1px;stroke-linecap:butt;stroke-linejoin:miter;stroke-opacity:1" d="M 678.36,748.501 685.374,740.485 z" id="boundary" inkscape:connector-curvature="0" />
	<path style="fill:none;stroke:red;stroke-width:1px;stroke-linecap:butt;stroke-linejoin:miter;stroke-opacity:1" d="M 703.41,728.461 695.394,735.475 z" id="boundary" inkscape:connector-curvature="0" />
	<path style="fill:none;stroke:red;stroke-width:1px;stroke-linecap:butt;stroke-linejoin:miter;stroke-opacity:1" d="M 703.41,728.461 710.424,720.444 z" id="boundary" inkscape:connector-curvature="0" />
	<path style="fill:none;stroke:red;stroke-width:1px;stroke-linecap:butt;stroke-linejoin:miter;stroke-opacity:1" d="M 710.424,720.444 718.44,713.43 z" id="boundary" inkscape:connector-curvature="0" />
	<path style="fill:none;stroke:red;stroke-width:1px;stroke-linecap:butt;stroke-linejoin:miter;stroke-opacity:1" d="M 718.44,713.43 728.461,710.424 z" id="boundary" inkscape:connector-curvature="0" />
	<path style="fill:none;stroke:red;stroke-width:1px;stroke-linecap:butt;stroke-linejoin:miter;stroke-opacity:1" d="M 644.291,770.545 654.311,770.545 z" id="boundary" inkscape:connector-curvature="0" />
	<path style="fill:none;stroke:red;stroke-width:1px;stroke-linecap:butt;stroke-linejoin:miter;stroke-opacity:1" d="M 662.327,764.533 654.311,770.545 z" id="boundary" inkscape:connector-curvature="0" />
	<path style="fill:none;stroke:red;stroke-width:1px;stroke-linecap:butt;stroke-linejoin:miter;stroke-opacity:1" d="M 662.327,764.533 670.343,755.515 z" id="boundary" inkscape:connector-curvature="0" />
	<path style="fill:none;stroke:red;stroke-width:1px;stroke-linecap:butt;stroke-linejoin:miter;stroke-opacity:1" d="M 670.343,755.515 678.36,748.501 z" id="boundary" inkscape:connector-curvature="0" />
	<path style="fill:none;stroke:red;stroke-width:1px;stroke-linecap:butt;stroke-linejoin:miter;stroke-opacity:1" d="M 773.552,683.37 780.566,675.354 z" id="boundary" inkscape:connector-curvature="0" />
	<path style="fill:none;stroke:red;stroke-width:1px;stroke-linecap:butt;stroke-linejoin:miter;stroke-opacity:1" d="M 798.602,665.333 808.622,663.329 z" id="boundary" inkscape:connector-curvature="0" />
	<path style="fill:none;stroke:red;stroke-width:1px;stroke-linecap:butt;stroke-linejoin:miter;stroke-opacity:1" d="M 798.602,665.333 788.582,668.339 z" id="boundary" inkscape:connector-curvature="0" />
	<path style="fill:none;stroke:red;stroke-width:1px;stroke-linecap:butt;stroke-linejoin:miter;stroke-opacity:1" d="M 780.566,675.354 788.582,668.339 z" id="boundary" inkscape:connector-curvature="0" />
	<path style="fill:none;stroke:red;stroke-width:1px;stroke-linecap:butt;stroke-linejoin:miter;stroke-opacity:1" d="M 765.535,690.384 773.552,683.37 z" id="boundary" inkscape:connector-curvature="0" />
	<path style="fill:none;stroke:red;stroke-width:1px;stroke-linecap:butt;stroke-linejoin:miter;stroke-opacity:1" d="M 728.461,710.424 737.479,704.412 z" id="boundary" inkscape:connector-curvature="0" />
	<path style="fill:none;stroke:red;stroke-width:1px;stroke-linecap:butt;stroke-linejoin:miter;stroke-opacity:1" d="M 765.535,690.384 755.515,695.394 z" id="boundary" inkscape:connector-curvature="0" />
	<path style="fill:none;stroke:red;stroke-width:1px;stroke-linecap:butt;stroke-linejoin:miter;stroke-opacity:1" d="M 755.515,695.394 745.495,695.394 z" id="boundary" inkscape:connector-curvature="0" />
	<path style="fill:none;stroke:red;stroke-width:1px;stroke-linecap:butt;stroke-linejoin:miter;stroke-opacity:1" d="M 737.479,704.412 745.495,695.394 z" id="boundary" inkscape:connector-curvature="0" />
	<circle cx="4" cy="115.224" r="4" fill="#0" id="circle0"/>
	<circle cx="4" cy="265.527" r="4" fill="#0" id="circle1"/>
	<circle cx="4" cy="275.547" r="4" fill="#0" id="circle2"/>
	<circle cx="4" cy="310.618" r="4" fill="#0" id="circle3"/>
	<circle cx="4" cy="320.638" r="4" fill="#0" id="circle4"/>
	<circle cx="4" cy="330.659" r="4" fill="#0" id="circle5"/>
	<circle cx="4" cy="340.679" r="4" fill="#0" id="circle6"/>
	<circle cx="4" cy="385.77" r="4" fill="#0" id="circle7"/>
	<circle cx="8.00808" cy="285.568" r="4" fill="#0" id="circle8"/>
	<circle cx="9.0101" cy="90.1737" r="4" fill="#0" id="circle9"/>
	<circle cx="9.0101" cy="100.194" r="4" fill="#0" id="circle10"/>
	<circle cx="9.0101" cy="124.242" r="4" fill="#0" id="circle11"/>
	<circle cx="9.0101" cy="134.263" r="4" fill="#0" id="circle12"/>
	<circle cx="9.0101" cy="144.283" r="4" fill="#0" id="circle13"/>
	<circle cx="10.0121" cy="348.695" r="4" fill="#0" id="circle14"/>
	<circle cx="10.0121" cy="393.786" r="4" fill="#0" id="circle15"/>
	<circle cx="12.0162" cy="154.303" r="4" fill="#0" id="circle16"/>
	<circle cx="12.0162" cy="258.513" r="4" fill="#0" id="circle17"/>
	<circle cx="12.0162" cy="303.604" r="4" fill="#0" id="circle18"/>
	<circle cx="12.0162" cy="378.756" r="4" fill="#0" id="circle19"/>
	<circle cx="14.0202" cy="80.1535" r="4" fill="#0" id="circle20"/>
	<circle cx="15.0222" cy="293.584" r="4" fill="#0" id="circle21"/>
	<circle cx="17.0263" cy="163.321" r="4" fill="#0" id="circle22"/>
	<circle cx="18.0283" cy="354.707" r="4" fill="#0" id="circle23"/>
	<circle cx="18.0283" cy="399.798" r="4" fill="#0" id="circle24"/>
	<circle cx="19.0303" cy="65.1232" r="4" fill="#0" id="circle25"/>
	<circle cx="19.0303" cy="235.467" r="4" fill="#0" id="circle26"/>
	<circle cx="19.0303" cy="245.487" r="4" fill="#0" id="circle27"/>
	<circle cx="19.0303" cy="364.727" r="4" fill="#0" id="circle28"/>
	<circle cx="24.0404" cy="55.103" r="4" fill="#0" id="circle29"/>
	<circle cx="24.0404" cy="171.337" r="4" fill="#0" id="circle30"/>
	<circle cx="24.0404" cy="407.814" r="4" fill="#0" id="circle31"/>
	<circle cx="27.0465" cy="228.453" r="4" fill="#0" id="circle32"/>
	<circle cx="32.0566" cy="48.0889" r="4" fill="#0" id="circle33"/>
	<circle cx="32.0566" cy="413.826" r="4" fill="#0" id="circle34"/>
	<circle cx="34.0606" cy="175.345" r="4" fill="#0" id="circle35"/>
	<circle cx="34.0606" cy="220.436" r="4" fill="#0" id="circle36"/>
	<circle cx="34.0606" cy="423.846" r="4" fill="#0" id="circle37"/>
	<circle cx="35.0626" cy="433.867" r="4" fill="#0" id="circle38"/>
	<circle cx="39.0707" cy="40.0727" r="4" fill="#0" id="circle39"/>
	<circle cx="39.0707" cy="443.887" r="4" fill="#0" id="circle40"/>
	<circle cx="40.0727" cy="183.362" r="4" fill="#0" id="circle41"/>
	<circle cx="42.0768" cy="213.422" r="4" fill="#0" id="circle42"/>
	<circle cx="44.0808" cy="452.905" r="4" fill="#0" id="circle43"/>
	<circle cx="47.0869" cy="34.0606" r="4" fill="#0" id="circle44"/>
	<circle cx="49.0909" cy="205.406" r="4" fill="#0" id="circle45"/>
	<circle cx="49.0909" cy="461.923" r="4" fill="#0" id="circle46"/>
	<circle cx="49.0909" cy="471.943" r="4" fill="#0" id="circle47"/>
	<circle cx="49.0909" cy="481.964" r="4" fill="#0" id="circle48"/>
	<circle cx="49.0909" cy="491.984" r="4" fill="#0" id="circle49"/>
	<circle cx="50.0929" cy="187.37" r="4" fill="#0" id="circle50"/>
	<circle cx="56.1051" cy="29.0505" r="4" fill="#0" id="circle51"/>
	<circle cx="57.1071" cy="198.392" r="4" fill="#0" id="circle52"/>
	<circle cx="57.1071" cy="498.998" r="4" fill="#0" id="circle53"/>
	<circle cx="62.1172" cy="189.374" r="4" fill="#0" id="circle54"/>
	<circle cx="64.1212" cy="507.014" r="4" fill="#0" id="circle55"/>
	<circle cx="65.1232" cy="24.0404" r="4" fill="#0" id="circle56"/>
	<circle cx="72.1374" cy="514.028" r="4" fill="#0" id="circle57"/>
	<circle cx="74.1414" cy="524.048" r="4" fill="#0" id="circle58"/>
	<circle cx="75.1434" cy="19.0303" r="4" fill="#0" id="circle59"/>
	<circle cx="79.1515" cy="533.067" r="4" fill="#0" id="circle60"/>
	<circle cx="79.1515" cy="543.087" r="4" fill="#0" id="circle61"/>
	<circle cx="84.1616" cy="552.105" r="4" fill="#0" id="circle62"/>
	<circle cx="85.1636" cy="14.0202" r="4" fill="#0" id="circle63"/>
	<circle cx="89.1717" cy="561.123" r="4" fill="#0" id="circle64"/>
	<circle cx="94.1818" cy="570.141" r="4" fill="#0" id="circle65"/>
	<circle cx="94.1818" cy="580.162" r="4" fill="#0" id="circle66"/>
	<circle cx="94.1818" cy="590.182" r="4" fill="#0" id="circle67"/>
	<circle cx="95.1838" cy="9.0101" r="4" fill="#0" id="circle68"/>
	<circle cx="97.1879" cy="600.202" r="4" fill="#0" id="circle69"/>
	<circle cx="104.202" cy="608.218" r="4" fill="#0" id="circle70"/>
	<circle cx="105.204" cy="9.0101" r="4" fill="#0" id="circle71"/>
	<circle cx="112.218" cy="614.23" r="4" fill="#0" id="circle72"/>
	<circle cx="114.222" cy="4" r="4" fill="#0" id="circle73"/>
	<circle cx="119.232" cy="622.246" r="4" fill="#0" id="circle74"/>
	<circle cx="124.242" cy="4" r="4" fill="#0" id="circle75"/>
	<circle cx="124.242" cy="631.265" r="4" fill="#0" id="circle76"/>
	<circle cx="124.242" cy="641.285" r="4" fill="#0" id="circle77"/>
	<circle cx="124.242" cy="671.345" r="4" fill="#0" id="circle78"/>
	<circle cx="129.253" cy="650.303" r="4" fill="#0" id="circle79"/>
	<circle cx="130.255" cy="679.362" r="4" fill="#0" id="circle80"/>
	<circle cx="132.259" cy="664.331" r="4" fill="#0" id="circle81"/>
	<circle cx="134.263" cy="4" r="4" fill="#0" id="circle82"/>
	<circle cx="138.271" cy="685.374" r="4" fill="#0" id="circle83"/>
	<circle cx="139.273" cy="695.394" r="4" fill="#0" id="circle84"/>
	<circle cx="142.279" cy="705.414" r="4" fill="#0" id="circle85"/>
	<circle cx="144.283" cy="4" r="4" fill="#0" id="circle86"/>
	<circle cx="149.293" cy="713.43" r="4" fill="#0" id="circle87"/>
	<circle cx="154.303" cy="4" r="4" fill="#0" id="circle88"/>
	<circle cx="154.303" cy="722.448" r="4" fill="#0" id="circle89"/>
	<circle cx="154.303" cy="732.469" r="4" fill="#0" id="circle90"/>
	<circle cx="154.303" cy="881.77" r="4" fill="#0" id="circle91"/>
	<circle cx="154.303" cy="891.79" r="4" fill="#0" id="circle92"/>
	<circle cx="154.303" cy="926.861" r="4" fill="#0" id="circle93"/>
	<circle cx="154.303" cy="936.881" r="4" fill="#0" id="circle94"/>
	<circle cx="154.303" cy="946.901" r="4" fill="#0" id="circle95"/>
	<circle cx="154.303" cy="956.921" r="4" fill="#0" id="circle96"/>
	<circle cx="154.303" cy="966.941" r="4" fill="#0" id="circle97"/>
	<circle cx="158.311" cy="901.81" r="4" fill="#0" id="circle98"/>
	<circle cx="159.313" cy="916.84" r="4" fill="#0" id="circle99"/>
	<circle cx="159.313" cy="975.96" r="4" fill="#0" id="circle100"/>
	<circle cx="162.319" cy="739.483" r="4" fill="#0" id="circle101"/>
	<circle cx="162.319" cy="874.756" r="4" fill="#0" id="circle102"/>
	<circle cx="164.323" cy="7.00606" r="4" fill="#0" id="circle103"/>
	<circle cx="164.323" cy="831.669" r="4" fill="#0" id="circle104"/>
	<circle cx="164.323" cy="841.689" r="4" fill="#0" id="circle105"/>
	<circle cx="164.323" cy="851.709" r="4" fill="#0" id="circle106"/>
	<circle cx="164.323" cy="861.729" r="4" fill="#0" id="circle107"/>
	<circle cx="165.325" cy="983.976" r="4" fill="#0" id="circle108"/>
	<circle cx="169.333" cy="747.499" r="4" fill="#0" id="circle109"/>
	<circle cx="169.333" cy="757.519" r="4" fill="#0" id="circle110"/>
	<circle cx="169.333" cy="767.539" r="4" fill="#0" id="circle111"/>
	<circle cx="169.333" cy="777.56" r="4" fill="#0" id="circle112"/>
	<circle cx="169.333" cy="787.58" r="4" fill="#0" id="circle113"/>
	<circle cx="169.333" cy="797.6" r="4" fill="#0" id="circle114"/>
	<circle cx="169.333" cy="807.62" r="4" fill="#0" id="circle115"/>
	<circle cx="169.333" cy="817.64" r="4" fill="#0" id="circle116"/>
	<circle cx="173.341" cy="990.99" r="4" fill="#0" id="circle117"/>
	<circle cx="174.343" cy="5.00202" r="4" fill="#0" id="circle118"/>
	<circle cx="182.36" cy="996" r="4" fill="#0" id="circle119"/>
	<circle cx="183.362" cy="10.0121" r="4" fill="#0" id="circle120"/>
	<circle cx="184.364" cy="20.0323" r="4" fill="#0" id="circle121"/>
	<circle cx="190.376" cy="28.0485" r="4" fill="#0" id="circle122"/>
	<circle cx="192.38" cy="996" r="4" fill="#0" id="circle123"/>
	<circle cx="198.392" cy="35.0626" r="4" fill="#0" id="circle124"/>
	<circle cx="201.398" cy="990.99" r="4" fill="#0" id="circle125"/>
	<circle cx="202.4" cy="45.0828" r="4" fill="#0" id="circle126"/>
	<circle cx="204.404" cy="55.103" r="4" fill="#0" id="circle127"/>
	<circle cx="210.416" cy="63.1192" r="4" fill="#0" id="circle128"/>
	<circle cx="211.418" cy="989.988" r="4" fill="#0" id="circle129"/>
	<circle cx="219.434" cy="980.97" r="4" fill="#0" id="circle130"/>
	<circle cx="220.436" cy="64.1212" r="4" fill="#0" id="circle131"/>
	<circle cx="229.455" cy="69.1313" r="4" fill="#0" id="circle132"/>
	<circle cx="229.455" cy="980.97" r="4" fill="#0" id="circle133"/>
	<circle cx="239.475" cy="70.1333" r="4" fill="#0" id="circle134"/>
	<circle cx="239.475" cy="975.96" r="4" fill="#0" id="circle135"/>
	<circle cx="247.491" cy="968.945" r="4" fill="#0" id="circle136"/>
	<circle cx="249.495" cy="69.1313" r="4" fill="#0" id="circle137"/>
	<circle cx="257.511" cy="965.939" r="4" fill="#0" id="circle138"/>
	<circle cx="259.515" cy="69.1313" r="4" fill="#0" id="circle139"/>
	<circle cx="266.529" cy="960.929" r="4" fill="#0" id="circle140"/>
	<circle cx="269.535" cy="72.1374" r="4" fill="#0" id="circle141"/>
	<circle cx="276.549" cy="960.929" r="4" fill="#0" id="circle142"/>
	<circle cx="278.554" cy="67.1273" r="4" fill="#0" id="circle143"/>
	<circle cx="286.57" cy="959.927" r="4" fill="#0" id="circle144"/>
	<circle cx="288.574" cy="70.1333" r="4" fill="#0" id="circle145"/>
	<circle cx="294.586" cy="950.909" r="4" fill="#0" id="circle146"/>
	<circle cx="298.594" cy="74.1414" r="4" fill="#0" id="circle147"/>
	<circle cx="304.606" cy="950.909" r="4" fill="#0" id="circle148"/>
	<circle cx="308.614" cy="75.1434" r="4" fill="#0" id="circle149"/>
	<circle cx="314.626" cy="945.899" r="4" fill="#0" id="circle150"/>
	<circle cx="318.634" cy="79.1515" r="4" fill="#0" id="circle151"/>
	<circle cx="322.642" cy="938.885" r="4" fill="#0" id="circle152"/>
	<circle cx="328.655" cy="79.1515" r="4" fill="#0" id="circle153"/>
	<circle cx="332.663" cy="935.879" r="4" fill="#0" id="circle154"/>
	<circle cx="338.675" cy="79.1515" r="4" fill="#0" id="circle155"/>
	<circle cx="342.683" cy="933.875" r="4" fill="#0" id="circle156"/>
	<circle cx="348.695" cy="79.1515" r="4" fill="#0" id="circle157"/>
	<circle cx="349.697" cy="925.859" r="4" fill="#0" id="circle158"/>
	<circle cx="358.715" cy="79.1515" r="4" fill="#0" id="circle159"/>
	<circle cx="358.715" cy="920.848" r="4" fill="#0" id="circle160"/>
	<circle cx="364.727" cy="928.865" r="4" fill="#0" id="circle161"/>
	<circle cx="368.735" cy="79.1515" r="4" fill="#0" id="circle162"/>
	<circle cx="372.743" cy="934.877" r="4" fill="#0" id="circle163"/>
	<circle cx="377.754" cy="84.1616" r="4" fill="#0" id="circle164"/>
	<circle cx="379.758" cy="94.1818" r="4" fill="#0" id="circle165"/>
	<circle cx="379.758" cy="925.859" r="4" fill="#0" id="circle166"/>
	<circle cx="380.76" cy="104.202" r="4" fill="#0" id="circle167"/>
	<circle cx="388.776" cy="920.848" r="4" fill="#0" id="circle168"/>
	<circle cx="390.78" cy="104.202" r="4" fill="#0" id="circle169"/>
	<circle cx="398.796" cy="97.1879" r="4" fill="#0" id="circle170"/>
	<circle cx="398.796" cy="920.848" r="4" fill="#0" id="circle171"/>
	<circle cx="406.812" cy="914.836" r="4" fill="#0" id="circle172"/>
	<circle cx="408.816" cy="100.194" r="4" fill="#0" id="circle173"/>
	<circle cx="414.828" cy="108.21" r="4" fill="#0" id="circle174"/>
	<circle cx="414.828" cy="905.818" r="4" fill="#0" id="circle175"/>
	<circle cx="422.844" cy="114.222" r="4" fill="#0" id="circle176"/>
	<circle cx="422.844" cy="898.804" r="4" fill="#0" id="circle177"/>
	<circle cx="428.857" cy="122.238" r="4" fill="#0" id="circle178"/>
	<circle cx="429.859" cy="890.788" r="4" fill="#0" id="circle179"/>
	<circle cx="436.873" cy="129.253" r="4" fill="#0" id="circle180"/>
	<circle cx="439.879" cy="890.788" r="4" fill="#0" id="circle181"/>
	<circle cx="443.887" cy="137.269" r="4" fill="#0" id="circle182"/>
	<circle cx="449.899" cy="885.778" r="4" fill="#0" id="circle183"/>
	<circle cx="453.907" cy="139.273" r="4" fill="#0" id="circle184"/>
	<circle cx="457.915" cy="878.764" r="4" fill="#0" id="circle185"/>
	<circle cx="463.927" cy="140.275" r="4" fill="#0" id="circle186"/>
	<circle cx="467.935" cy="875.758" r="4" fill="#0" id="circle187"/>
	<circle cx="469.939" cy="148.291" r="4" fill="#0" id="circle188"/>
	<circle cx="469.939" cy="158.311" r="4" fill="#0" id="circle189"/>
	<circle cx="477.956" cy="164.323" r="4" fill="#0" id="circle190"/>
	<circle cx="477.956" cy="873.754" r="4" fill="#0" id="circle191"/>
	<circle cx="484.97" cy="865.737" r="4" fill="#0" id="circle192"/>
	<circle cx="486.974" cy="169.333" r="4" fill="#0" id="circle193"/>
	<circle cx="493.988" cy="860.727" r="4" fill="#0" id="circle194"/>
	<circle cx="495.992" cy="174.343" r="4" fill="#0" id="circle195"/>
	<circle cx="500" cy="868.743" r="4" fill="#0" id="circle196"/>
	<circle cx="504.008" cy="180.356" r="4" fill="#0" id="circle197"/>
	<circle cx="508.016" cy="874.756" r="4" fill="#0" id="circle198"/>
	<circle cx="510.02" cy="188.372" r="4" fill="#0" id="circle199"/>
	<circle cx="515.03" cy="197.39" r="4" fill="#0" id="circle200"/>
	<circle cx="517.034" cy="879.766" r="4" fill="#0" id="circle201"/>
	<circle cx="520.04" cy="206.408" r="4" fill="#0" id="circle202"/>
	<circle cx="525.051" cy="215.426" r="4" fill="#0" id="circle203"/>
	<circle cx="527.055" cy="880.768" r="4" fill="#0" id="circle204"/>
	<circle cx="531.063" cy="223.442" r="4" fill="#0" id="circle205"/>
	<circle cx="537.075" cy="884.776" r="4" fill="#0" id="circle206"/>
	<circle cx="539.079" cy="230.457" r="4" fill="#0" id="circle207"/>
	<circle cx="545.091" cy="238.473" r="4" fill="#0" id="circle208"/>
	<circle cx="545.091" cy="248.493" r="4" fill="#0" id="circle209"/>
	<circle cx="547.095" cy="885.778" r="4" fill="#0" id="circle210"/>
	<circle cx="550.101" cy="257.511" r="4" fill="#0" id="circle211"/>
	<circle cx="554.109" cy="267.531" r="4" fill="#0" id="circle212"/>
	<circle cx="557.115" cy="885.778" r="4" fill="#0" id="circle213"/>
	<circle cx="564.129" cy="262.521" r="4" fill="#0" id="circle214"/>
	<circle cx="567.135" cy="885.778" r="4" fill="#0" id="circle215"/>
	<circle cx="574.149" cy="265.527" r="4" fill="#0" id="circle216"/>
	<circle cx="575.152" cy="275.547" r="4" fill="#0" id="circle217"/>
	<circle cx="576.154" cy="880.768" r="4" fill="#0" id="circle218"/>
	<circle cx="578.158" cy="285.568" r="4" fill="#0" id="circle219"/>
	<circle cx="585.172" cy="293.584" r="4" fill="#0" id="circle220"/>
	<circle cx="586.174" cy="880.768" r="4" fill="#0" id="circle221"/>
	<circle cx="590.182" cy="302.602" r="4" fill="#0" id="circle222"/>
	<circle cx="590.182" cy="312.622" r="4" fill="#0" id="circle223"/>
	<circle cx="595.192" cy="875.758" r="4" fill="#0" id="circle224"/>
	<circle cx="598.198" cy="319.636" r="4" fill="#0" id="circle225"/>
	<circle cx="604.21" cy="870.747" r="4" fill="#0" id="circle226"/>
	<circle cx="608.218" cy="319.636" r="4" fill="#0" id="circle227"/>
	<circle cx="612.226" cy="864.735" r="4" fill="#0" id="circle228"/>
	<circle cx="617.236" cy="324.646" r="4" fill="#0" id="circle229"/>
	<circle cx="620.242" cy="334.667" r="4" fill="#0" id="circle230"/>
	<circle cx="620.242" cy="850.707" r="4" fill="#0" id="circle231"/>
	<circle cx="621.244" cy="344.687" r="4" fill="#0" id="circle232"/>
	<circle cx="625.253" cy="840.687" r="4" fill="#0" id="circle233"/>
	<circle cx="629.261" cy="350.699" r="4" fill="#0" id="circle234"/>
	<circle cx="633.269" cy="833.673" r="4" fill="#0" id="circle235"/>
	<circle cx="635.273" cy="358.715" r="4" fill="#0" id="circle236"/>
	<circle cx="635.273" cy="775.556" r="4" fill="#0" id="circle237"/>
	<circle cx="636.275" cy="785.576" r="4" fill="#0" id="circle238"/>
	<circle cx="638.279" cy="823.653" r="4" fill="#0" id="circle239"/>
	<circle cx="640.283" cy="795.596" r="4" fill="#0" id="circle240"/>
	<circle cx="640.283" cy="805.616" r="4" fill="#0" id="circle241"/>
	<circle cx="643.289" cy="364.727" r="4" fill="#0" id="circle242"/>
	<circle cx="644.291" cy="770.545" r="4" fill="#0" id="circle243"/>
	<circle cx="653.309" cy="364.727" r="4" fill="#0" id="circle244"/>
	<circle cx="654.311" cy="770.545" r="4" fill="#0" id="circle245"/>
	<circle cx="662.327" cy="764.533" r="4" fill="#0" id="circle246"/>
	<circle cx="663.329" cy="364.727" r="4" fill="#0" id="circle247"/>
	<circle cx="670.343" cy="755.515" r="4" fill="#0" id="circle248"/>
	<circle cx="672.347" cy="369.737" r="4" fill="#0" id="circle249"/>
	<circle cx="678.36" cy="748.501" r="4" fill="#0" id="circle250"/>
	<circle cx="679.362" cy="377.754" r="4" fill="#0" id="circle251"/>
	<circle cx="685.374" cy="740.485" r="4" fill="#0" id="circle252"/>
	<circle cx="687.378" cy="384.768" r="4" fill="#0" id="circle253"/>
	<circle cx="694.392" cy="392.784" r="4" fill="#0" id="circle254"/>
	<circle cx="695.394" cy="735.475" r="4" fill="#0" id="circle255"/>
	<circle cx="702.408" cy="399.798" r="4" fill="#0" id="circle256"/>
	<circle cx="703.41" cy="728.461" r="4" fill="#0" id="circle257"/>
	<circle cx="709.422" cy="407.814" r="4" fill="#0" id="circle258"/>
	<circle cx="710.424" cy="720.444" r="4" fill="#0" id="circle259"/>
	<circle cx="715.434" cy="415.83" r="4" fill="#0" id="circle260"/>
	<circle cx="718.44" cy="713.43" r="4" fill="#0" id="circle261"/>
	<circle cx="721.446" cy="423.846" r="4" fill="#0" id="circle262"/>
	<circle cx="728.461" cy="710.424" r="4" fill="#0" id="circle263"/>
	<circle cx="731.467" cy="424.848" r="4" fill="#0" id="circle264"/>
	<circle cx="737.479" cy="704.412" r="4" fill="#0" id="circle265"/>
	<circle cx="739.483" cy="430.861" r="4" fill="#0" id="circle266"/>
	<circle cx="745.495" cy="438.877" r="4" fill="#0" id="circle267"/>
	<circle cx="745.495" cy="695.394" r="4" fill="#0" id="circle268"/>
	<circle cx="755.515" cy="439.879" r="4" fill="#0" id="circle269"/>
	<circle cx="755.515" cy="695.394" r="4" fill="#0" id="circle270"/>
	<circle cx="765.535" cy="442.885" r="4" fill="#0" id="circle271"/>
	<circle cx="765.535" cy="690.384" r="4" fill="#0" id="circle272"/>
	<circle cx="773.552" cy="449.899" r="4" fill="#0" id="circle273"/>
	<circle cx="773.552" cy="683.37" r="4" fill="#0" id="circle274"/>
	<circle cx="779.564" cy="457.915" r="4" fill="#0" id="circle275"/>
	<circle cx="780.566" cy="675.354" r="4" fill="#0" id="circle276"/>
	<circle cx="787.58" cy="464.929" r="4" fill="#0" id="circle277"/>
	<circle cx="788.582" cy="668.339" r="4" fill="#0" id="circle278"/>
	<circle cx="797.6" cy="464.929" r="4" fill="#0" id="circle279"/>
	<circle cx="798.602" cy="665.333" r="4" fill="#0" id="circle280"/>
	<circle cx="805.616" cy="455.911" r="4" fill="#0" id="circle281"/>
	<circle cx="808.622" cy="663.329" r="4" fill="#0" id="circle282"/>
	<circle cx="815.636" cy="454.909" r="4" fill="#0" id="circle283"/>
	<circle cx="815.636" cy="640.283" r="4" fill="#0" id="circle284"/>
	<circle cx="815.636" cy="650.303" r="4" fill="#0" id="circle285"/>
	<circle cx="824.655" cy="635.273" r="4" fill="#0" id="circle286"/>
	<circle cx="825.657" cy="457.915" r="4" fill="#0" id="circle287"/>
	<circle cx="833.673" cy="464.929" r="4" fill="#0" id="circle288"/>
	<circle cx="834.675" cy="635.273" r="4" fill="#0" id="circle289"/>
	<circle cx="842.691" cy="469.939" r="4" fill="#0" id="circle290"/>
	<circle cx="842.691" cy="629.261" r="4" fill="#0" id="circle291"/>
	<circle cx="845.697" cy="615.232" r="4" fill="#0" id="circle292"/>
	<circle cx="852.711" cy="469.939" r="4" fill="#0" id="circle293"/>
	<circle cx="853.713" cy="608.218" r="4" fill="#0" id="circle294"/>
	<circle cx="859.725" cy="477.956" r="4" fill="#0" id="circle295"/>
	<circle cx="860.727" cy="600.202" r="4" fill="#0" id="circle296"/>
	<circle cx="865.737" cy="590.182" r="4" fill="#0" id="circle297"/>
	<circle cx="867.741" cy="484.97" r="4" fill="#0" id="circle298"/>
	<circle cx="875.758" cy="590.182" r="4" fill="#0" id="circle299"/>
	<circle cx="877.762" cy="484.97" r="4" fill="#0" id="circle300"/>
	<circle cx="885.778" cy="585.172" r="4" fill="#0" id="circle301"/>
	<circle cx="886.78" cy="489.98" r="4" fill="#0" id="circle302"/>
	<circle cx="890.788" cy="500" r="4" fill="#0" id="circle303"/>
	<circle cx="890.788" cy="565.131" r="4" fill="#0" id="circle304"/>
	<circle cx="890.788" cy="575.152" r="4" fill="#0" id="circle305"/>
	<circle cx="891.79" cy="510.02" r="4" fill="#0" id="circle306"/>
	<circle cx="898.804" cy="558.117" r="4" fill="#0" id="circle307"/>
	<circle cx="900.808" cy="515.03" r="4" fill="#0" id="circle308"/>
	<circle cx="905.818" cy="550.101" r="4" fill="#0" id="circle309"/>
	<circle cx="910.828" cy="515.03" r="4" fill="#0" id="circle310"/>
	<circle cx="913.834" cy="543.087" r="4" fill="#0" id="circle311"/>
	<circle cx="918.844" cy="521.042" r="4" fill="#0" id="circle312"/>
	<circle cx="920.848" cy="531.063" r="4" fill="#0" id="circle313"/>
	</g>
</svg>