<?xml version="1.0" encoding="UTF-8" standalone="no"?>
<!-- Created with CurveBenchmark -->
<svg
	xmlns:dc="http://purl.org/dc/elements/1.1/"
	xmlns:cc="http://creativecommons.org/ns#"
	xmlns:rdf="http://www.w3.org/1999/02/22-rdf-syntax-ns#"
	xmlns:svg="http://www.w3.org/2000/svg"
	xmlns="http://www.w3.org/2000/svg"
	xmlns:sodipodi="http://sodipodi.sourceforge.net/DTD/sodipodi-0.dtd"
	xmlns:inkscape="http://www.inkscape.org/namespaces/inkscape"
	width="1000"
	height="1000"
	id="svg2"
	version="1.1"
	sodipodi:docname="manifold/gathang-guitar355.png.txt">
<defs
	id="defs4" />
<metadata
	id="metadata7">
	<rdf:RDF>
		<cc:Work
			rdf:about="">
			<dc:format>image/svg+xml</dc:format>
			<dc:type
				rdf:resource="http://purl.org/dc/dcmitype/StillImage" />
			<dc:title></dc:title>
		</cc:Work>
	</rdf:RDF>
</metadata>
<g
	inkscape:label="Layer 1"
	inkscape:groupmode="layer"
	id="layer1">
	<path style="fill:none;stroke:red;stroke-width:1px;stroke-linecap:butt;stroke-linejoin:miter;stroke-opacity:1" d="M 158.78,28.6241 158.78,63.8014 z" id="boundary" inkscape:connector-curvature="0" />
	<path style="fill:none;stroke:red;stroke-width:1px;stroke-linecap:butt;stroke-linejoin:miter;stroke-opacity:1" d="M 179.887,127.121 158.78,98.9787 z" id="boundary" inkscape:connector-curvature="0" />
	<path style="fill:none;stroke:red;stroke-width:1px;stroke-linecap:butt;stroke-linejoin:miter;stroke-opacity:1" d="M 179.887,197.475 172.851,260.794 z" id="boundary" inkscape:connector-curvature="0" />
	<path style="fill:none;stroke:red;stroke-width:1px;stroke-linecap:butt;stroke-linejoin:miter;stroke-opacity:1" d="M 158.78,28.6241 186.922,7.51773 z" id="boundary" inkscape:connector-curvature="0" />
	<path style="fill:none;stroke:red;stroke-width:1px;stroke-linecap:butt;stroke-linejoin:miter;stroke-opacity:1" d="M 158.78,63.8014 158.78,98.9787 z" id="boundary" inkscape:connector-curvature="0" />
	<path style="fill:none;stroke:red;stroke-width:1px;stroke-linecap:butt;stroke-linejoin:miter;stroke-opacity:1" d="M 98.9787,510.553 134.156,500 z" id="boundary" inkscape:connector-curvature="0" />
	<path style="fill:none;stroke:red;stroke-width:1px;stroke-linecap:butt;stroke-linejoin:miter;stroke-opacity:1" d="M 172.851,295.972 172.851,331.149 z" id="boundary" inkscape:connector-curvature="0" />
	<path style="fill:none;stroke:red;stroke-width:1px;stroke-linecap:butt;stroke-linejoin:miter;stroke-opacity:1" d="M 172.851,436.681 169.333,496.482 z" id="boundary" inkscape:connector-curvature="0" />
	<path style="fill:none;stroke:red;stroke-width:1px;stroke-linecap:butt;stroke-linejoin:miter;stroke-opacity:1" d="M 169.333,496.482 134.156,500 z" id="boundary" inkscape:connector-curvature="0" />
	<path style="fill:none;stroke:red;stroke-width:1px;stroke-linecap:butt;stroke-linejoin:miter;stroke-opacity:1" d="M 172.851,260.794 172.851,295.972 z" id="boundary" inkscape:connector-curvature="0" />
	<path style="fill:none;stroke:red;stroke-width:1px;stroke-linecap:butt;stroke-linejoin:miter;stroke-opacity:1" d="M 98.9787,510.553 70.8369,531.66 z" id="boundary" inkscape:connector-curvature="0" />
	<path style="fill:none;stroke:red;stroke-width:1px;stroke-linecap:butt;stroke-linejoin:miter;stroke-opacity:1" d="M 179.887,162.298 179.887,197.475 z" id="boundary" inkscape:connector-curvature="0" />
	<path style="fill:none;stroke:red;stroke-width:1px;stroke-linecap:butt;stroke-linejoin:miter;stroke-opacity:1" d="M 179.887,162.298 179.887,127.121 z" id="boundary" inkscape:connector-curvature="0" />
	<path style="fill:none;stroke:red;stroke-width:1px;stroke-linecap:butt;stroke-linejoin:miter;stroke-opacity:1" d="M 172.851,331.149 172.851,366.326 z" id="boundary" inkscape:connector-curvature="0" />
	<path style="fill:none;stroke:red;stroke-width:1px;stroke-linecap:butt;stroke-linejoin:miter;stroke-opacity:1" d="M 172.851,401.504 172.851,366.326 z" id="boundary" inkscape:connector-curvature="0" />
	<path style="fill:none;stroke:red;stroke-width:1px;stroke-linecap:butt;stroke-linejoin:miter;stroke-opacity:1" d="M 172.851,436.681 172.851,401.504 z" id="boundary" inkscape:connector-curvature="0" />
	<path style="fill:none;stroke:red;stroke-width:1px;stroke-linecap:butt;stroke-linejoin:miter;stroke-opacity:1" d="M 11.0355,795.489 25.1064,760.312 z" id="boundary" inkscape:connector-curvature="0" />
	<path style="fill:none;stroke:red;stroke-width:1px;stroke-linecap:butt;stroke-linejoin:miter;stroke-opacity:1" d="M 25.1064,760.312 46.2128,732.17 z" id="boundary" inkscape:connector-curvature="0" />
	<path style="fill:none;stroke:red;stroke-width:1px;stroke-linecap:butt;stroke-linejoin:miter;stroke-opacity:1" d="M 11.0355,795.489 4,830.667 z" id="boundary" inkscape:connector-curvature="0" />
	<path style="fill:none;stroke:red;stroke-width:1px;stroke-linecap:butt;stroke-linejoin:miter;stroke-opacity:1" d="M 11.0355,865.844 4,830.667 z" id="boundary" inkscape:connector-curvature="0" />
	<path style="fill:none;stroke:red;stroke-width:1px;stroke-linecap:butt;stroke-linejoin:miter;stroke-opacity:1" d="M 42.695,929.163 21.5887,901.021 z" id="boundary" inkscape:connector-curvature="0" />
	<path style="fill:none;stroke:red;stroke-width:1px;stroke-linecap:butt;stroke-linejoin:miter;stroke-opacity:1" d="M 21.5887,901.021 11.0355,865.844 z" id="boundary" inkscape:connector-curvature="0" />
	<path style="fill:none;stroke:red;stroke-width:1px;stroke-linecap:butt;stroke-linejoin:miter;stroke-opacity:1" d="M 70.8369,953.787 42.695,929.163 z" id="boundary" inkscape:connector-curvature="0" />
	<path style="fill:none;stroke:red;stroke-width:1px;stroke-linecap:butt;stroke-linejoin:miter;stroke-opacity:1" d="M 53.2482,563.319 56.766,598.496 z" id="boundary" inkscape:connector-curvature="0" />
	<path style="fill:none;stroke:red;stroke-width:1px;stroke-linecap:butt;stroke-linejoin:miter;stroke-opacity:1" d="M 70.8369,633.674 67.3191,696.993 z" id="boundary" inkscape:connector-curvature="0" />
	<path style="fill:none;stroke:red;stroke-width:1px;stroke-linecap:butt;stroke-linejoin:miter;stroke-opacity:1" d="M 67.3191,696.993 46.2128,732.17 z" id="boundary" inkscape:connector-curvature="0" />
	<path style="fill:none;stroke:red;stroke-width:1px;stroke-linecap:butt;stroke-linejoin:miter;stroke-opacity:1" d="M 70.8369,633.674 56.766,598.496 z" id="boundary" inkscape:connector-curvature="0" />
	<path style="fill:none;stroke:red;stroke-width:1px;stroke-linecap:butt;stroke-linejoin:miter;stroke-opacity:1" d="M 53.2482,563.319 70.8369,531.66 z" id="boundary" inkscape:connector-curvature="0" />
	<path style="fill:none;stroke:red;stroke-width:1px;stroke-linecap:butt;stroke-linejoin:miter;stroke-opacity:1" d="M 102.496,971.376 70.8369,953.787 z" id="boundary" inkscape:connector-curvature="0" />
	<path style="fill:none;stroke:red;stroke-width:1px;stroke-linecap:butt;stroke-linejoin:miter;stroke-opacity:1" d="M 137.674,981.929 102.496,971.376 z" id="boundary" inkscape:connector-curvature="0" />
	<path style="fill:none;stroke:red;stroke-width:1px;stroke-linecap:butt;stroke-linejoin:miter;stroke-opacity:1" d="M 172.851,988.965 137.674,981.929 z" id="boundary" inkscape:connector-curvature="0" />
	<path style="fill:none;stroke:red;stroke-width:1px;stroke-linecap:butt;stroke-linejoin:miter;stroke-opacity:1" d="M 243.206,988.965 208.028,996 z" id="boundary" inkscape:connector-curvature="0" />
	<path style="fill:none;stroke:red;stroke-width:1px;stroke-linecap:butt;stroke-linejoin:miter;stroke-opacity:1" d="M 208.028,996 172.851,988.965 z" id="boundary" inkscape:connector-curvature="0" />
	<path style="fill:none;stroke:red;stroke-width:1px;stroke-linecap:butt;stroke-linejoin:miter;stroke-opacity:1" d="M 222.099,4 239.688,42.695 z" id="boundary" inkscape:connector-curvature="0" />
	<path style="fill:none;stroke:red;stroke-width:1px;stroke-linecap:butt;stroke-linejoin:miter;stroke-opacity:1" d="M 186.922,7.51773 222.099,4 z" id="boundary" inkscape:connector-curvature="0" />
	<path style="fill:none;stroke:red;stroke-width:1px;stroke-linecap:butt;stroke-linejoin:miter;stroke-opacity:1" d="M 225.617,127.121 225.617,162.298 z" id="boundary" inkscape:connector-curvature="0" />
	<path style="fill:none;stroke:red;stroke-width:1px;stroke-linecap:butt;stroke-linejoin:miter;stroke-opacity:1" d="M 225.617,127.121 253.759,106.014 z" id="boundary" inkscape:connector-curvature="0" />
	<path style="fill:none;stroke:red;stroke-width:1px;stroke-linecap:butt;stroke-linejoin:miter;stroke-opacity:1" d="M 225.617,197.475 225.617,162.298 z" id="boundary" inkscape:connector-curvature="0" />
	<path style="fill:none;stroke:red;stroke-width:1px;stroke-linecap:butt;stroke-linejoin:miter;stroke-opacity:1" d="M 232.652,267.83 232.652,303.007 z" id="boundary" inkscape:connector-curvature="0" />
	<path style="fill:none;stroke:red;stroke-width:1px;stroke-linecap:butt;stroke-linejoin:miter;stroke-opacity:1" d="M 232.652,267.83 225.617,232.652 z" id="boundary" inkscape:connector-curvature="0" />
	<path style="fill:none;stroke:red;stroke-width:1px;stroke-linecap:butt;stroke-linejoin:miter;stroke-opacity:1" d="M 225.617,232.652 225.617,197.475 z" id="boundary" inkscape:connector-curvature="0" />
	<path style="fill:none;stroke:red;stroke-width:1px;stroke-linecap:butt;stroke-linejoin:miter;stroke-opacity:1" d="M 232.652,303.007 232.652,338.184 z" id="boundary" inkscape:connector-curvature="0" />
	<path style="fill:none;stroke:red;stroke-width:1px;stroke-linecap:butt;stroke-linejoin:miter;stroke-opacity:1" d="M 232.652,338.184 232.652,373.362 z" id="boundary" inkscape:connector-curvature="0" />
	<path style="fill:none;stroke:red;stroke-width:1px;stroke-linecap:butt;stroke-linejoin:miter;stroke-opacity:1" d="M 232.652,77.8723 253.759,106.014 z" id="boundary" inkscape:connector-curvature="0" />
	<path style="fill:none;stroke:red;stroke-width:1px;stroke-linecap:butt;stroke-linejoin:miter;stroke-opacity:1" d="M 232.652,373.362 232.652,408.539 z" id="boundary" inkscape:connector-curvature="0" />
	<path style="fill:none;stroke:red;stroke-width:1px;stroke-linecap:butt;stroke-linejoin:miter;stroke-opacity:1" d="M 359.291,570.355 334.667,542.213 z" id="boundary" inkscape:connector-curvature="0" />
	<path style="fill:none;stroke:red;stroke-width:1px;stroke-linecap:butt;stroke-linejoin:miter;stroke-opacity:1" d="M 232.652,77.8723 239.688,42.695 z" id="boundary" inkscape:connector-curvature="0" />
	<path style="fill:none;stroke:red;stroke-width:1px;stroke-linecap:butt;stroke-linejoin:miter;stroke-opacity:1" d="M 232.652,443.716 232.652,478.894 z" id="boundary" inkscape:connector-curvature="0" />
	<path style="fill:none;stroke:red;stroke-width:1px;stroke-linecap:butt;stroke-linejoin:miter;stroke-opacity:1" d="M 246.723,549.248 239.688,514.071 z" id="boundary" inkscape:connector-curvature="0" />
	<path style="fill:none;stroke:red;stroke-width:1px;stroke-linecap:butt;stroke-linejoin:miter;stroke-opacity:1" d="M 239.688,514.071 232.652,478.894 z" id="boundary" inkscape:connector-curvature="0" />
	<path style="fill:none;stroke:red;stroke-width:1px;stroke-linecap:butt;stroke-linejoin:miter;stroke-opacity:1" d="M 334.667,542.213 306.525,570.355 z" id="boundary" inkscape:connector-curvature="0" />
	<path style="fill:none;stroke:red;stroke-width:1px;stroke-linecap:butt;stroke-linejoin:miter;stroke-opacity:1" d="M 246.723,549.248 271.348,577.39 z" id="boundary" inkscape:connector-curvature="0" />
	<path style="fill:none;stroke:red;stroke-width:1px;stroke-linecap:butt;stroke-linejoin:miter;stroke-opacity:1" d="M 232.652,443.716 232.652,408.539 z" id="boundary" inkscape:connector-curvature="0" />
	<path style="fill:none;stroke:red;stroke-width:1px;stroke-linecap:butt;stroke-linejoin:miter;stroke-opacity:1" d="M 271.348,577.39 306.525,570.355 z" id="boundary" inkscape:connector-curvature="0" />
	<path style="fill:none;stroke:red;stroke-width:1px;stroke-linecap:butt;stroke-linejoin:miter;stroke-opacity:1" d="M 331.149,654.78 338.184,689.957 z" id="boundary" inkscape:connector-curvature="0" />
	<path style="fill:none;stroke:red;stroke-width:1px;stroke-linecap:butt;stroke-linejoin:miter;stroke-opacity:1" d="M 331.149,654.78 348.738,623.121 z" id="boundary" inkscape:connector-curvature="0" />
	<path style="fill:none;stroke:red;stroke-width:1px;stroke-linecap:butt;stroke-linejoin:miter;stroke-opacity:1" d="M 338.184,689.957 355.773,721.617 z" id="boundary" inkscape:connector-curvature="0" />
	<path style="fill:none;stroke:red;stroke-width:1px;stroke-linecap:butt;stroke-linejoin:miter;stroke-opacity:1" d="M 278.383,981.929 243.206,988.965 z" id="boundary" inkscape:connector-curvature="0" />
	<path style="fill:none;stroke:red;stroke-width:1px;stroke-linecap:butt;stroke-linejoin:miter;stroke-opacity:1" d="M 341.702,946.752 313.56,967.858 z" id="boundary" inkscape:connector-curvature="0" />
	<path style="fill:none;stroke:red;stroke-width:1px;stroke-linecap:butt;stroke-linejoin:miter;stroke-opacity:1" d="M 313.56,967.858 278.383,981.929 z" id="boundary" inkscape:connector-curvature="0" />
	<path style="fill:none;stroke:red;stroke-width:1px;stroke-linecap:butt;stroke-linejoin:miter;stroke-opacity:1" d="M 373.362,753.277 355.773,721.617 z" id="boundary" inkscape:connector-curvature="0" />
	<path style="fill:none;stroke:red;stroke-width:1px;stroke-linecap:butt;stroke-linejoin:miter;stroke-opacity:1" d="M 348.738,623.121 359.291,570.355 z" id="boundary" inkscape:connector-curvature="0" />
	<path style="fill:none;stroke:red;stroke-width:1px;stroke-linecap:butt;stroke-linejoin:miter;stroke-opacity:1" d="M 390.95,784.936 373.362,753.277 z" id="boundary" inkscape:connector-curvature="0" />
	<path style="fill:none;stroke:red;stroke-width:1px;stroke-linecap:butt;stroke-linejoin:miter;stroke-opacity:1" d="M 369.844,918.61 341.702,946.752 z" id="boundary" inkscape:connector-curvature="0" />
	<path style="fill:none;stroke:red;stroke-width:1px;stroke-linecap:butt;stroke-linejoin:miter;stroke-opacity:1" d="M 390.95,784.936 401.504,820.113 z" id="boundary" inkscape:connector-curvature="0" />
	<path style="fill:none;stroke:red;stroke-width:1px;stroke-linecap:butt;stroke-linejoin:miter;stroke-opacity:1" d="M 401.504,855.291 390.95,890.468 z" id="boundary" inkscape:connector-curvature="0" />
	<path style="fill:none;stroke:red;stroke-width:1px;stroke-linecap:butt;stroke-linejoin:miter;stroke-opacity:1" d="M 390.95,890.468 369.844,918.61 z" id="boundary" inkscape:connector-curvature="0" />
	<path style="fill:none;stroke:red;stroke-width:1px;stroke-linecap:butt;stroke-linejoin:miter;stroke-opacity:1" d="M 401.504,820.113 401.504,855.291 z" id="boundary" inkscape:connector-curvature="0" />
	<circle cx="4" cy="830.667" r="4" fill="#0" id="circle0"/>
	<circle cx="11.0355" cy="795.489" r="4" fill="#0" id="circle1"/>
	<circle cx="11.0355" cy="865.844" r="4" fill="#0" id="circle2"/>
	<circle cx="21.5887" cy="901.021" r="4" fill="#0" id="circle3"/>
	<circle cx="25.1064" cy="760.312" r="4" fill="#0" id="circle4"/>
	<circle cx="42.695" cy="929.163" r="4" fill="#0" id="circle5"/>
	<circle cx="46.2128" cy="732.17" r="4" fill="#0" id="circle6"/>
	<circle cx="53.2482" cy="563.319" r="4" fill="#0" id="circle7"/>
	<circle cx="56.766" cy="598.496" r="4" fill="#0" id="circle8"/>
	<circle cx="67.3191" cy="696.993" r="4" fill="#0" id="circle9"/>
	<circle cx="70.8369" cy="531.66" r="4" fill="#0" id="circle10"/>
	<circle cx="70.8369" cy="633.674" r="4" fill="#0" id="circle11"/>
	<circle cx="70.8369" cy="953.787" r="4" fill="#0" id="circle12"/>
	<circle cx="98.9787" cy="510.553" r="4" fill="#0" id="circle13"/>
	<circle cx="102.496" cy="971.376" r="4" fill="#0" id="circle14"/>
	<circle cx="134.156" cy="500" r="4" fill="#0" id="circle15"/>
	<circle cx="137.674" cy="981.929" r="4" fill="#0" id="circle16"/>
	<circle cx="158.78" cy="28.6241" r="4" fill="#0" id="circle17"/>
	<circle cx="158.78" cy="63.8014" r="4" fill="#0" id="circle18"/>
	<circle cx="158.78" cy="98.9787" r="4" fill="#0" id="circle19"/>
	<circle cx="169.333" cy="496.482" r="4" fill="#0" id="circle20"/>
	<circle cx="172.851" cy="260.794" r="4" fill="#0" id="circle21"/>
	<circle cx="172.851" cy="295.972" r="4" fill="#0" id="circle22"/>
	<circle cx="172.851" cy="331.149" r="4" fill="#0" id="circle23"/>
	<circle cx="172.851" cy="366.326" r="4" fill="#0" id="circle24"/>
	<circle cx="172.851" cy="401.504" r="4" fill="#0" id="circle25"/>
	<circle cx="172.851" cy="436.681" r="4" fill="#0" id="circle26"/>
	<circle cx="172.851" cy="988.965" r="4" fill="#0" id="circle27"/>
	<circle cx="179.887" cy="127.121" r="4" fill="#0" id="circle28"/>
	<circle cx="179.887" cy="162.298" r="4" fill="#0" id="circle29"/>
	<circle cx="179.887" cy="197.475" r="4" fill="#0" id="circle30"/>
	<circle cx="186.922" cy="7.51773" r="4" fill="#0" id="circle31"/>
	<circle cx="208.028" cy="996" r="4" fill="#0" id="circle32"/>
	<circle cx="222.099" cy="4" r="4" fill="#0" id="circle33"/>
	<circle cx="225.617" cy="127.121" r="4" fill="#0" id="circle34"/>
	<circle cx="225.617" cy="162.298" r="4" fill="#0" id="circle35"/>
	<circle cx="225.617" cy="197.475" r="4" fill="#0" id="circle36"/>
	<circle cx="225.617" cy="232.652" r="4" fill="#0" id="circle37"/>
	<circle cx="232.652" cy="77.8723" r="4" fill="#0" id="circle38"/>
	<circle cx="232.652" cy="267.83" r="4" fill="#0" id="circle39"/>
	<circle cx="232.652" cy="303.007" r="4" fill="#0" id="circle40"/>
	<circle cx="232.652" cy="338.184" r="4" fill="#0" id="circle41"/>
	<circle cx="232.652" cy="373.362" r="4" fill="#0" id="circle42"/>
	<circle cx="232.652" cy="408.539" r="4" fill="#0" id="circle43"/>
	<circle cx="232.652" cy="443.716" r="4" fill="#0" id="circle44"/>
	<circle cx="232.652" cy="478.894" r="4" fill="#0" id="circle45"/>
	<circle cx="239.688" cy="42.695" r="4" fill="#0" id="circle46"/>
	<circle cx="239.688" cy="514.071" r="4" fill="#0" id="circle47"/>
	<circle cx="243.206" cy="988.965" r="4" fill="#0" id="circle48"/>
	<circle cx="246.723" cy="549.248" r="4" fill="#0" id="circle49"/>
	<circle cx="253.759" cy="106.014" r="4" fill="#0" id="circle50"/>
	<circle cx="271.348" cy="577.39" r="4" fill="#0" id="circle51"/>
	<circle cx="278.383" cy="981.929" r="4" fill="#0" id="circle52"/>
	<circle cx="306.525" cy="570.355" r="4" fill="#0" id="circle53"/>
	<circle cx="313.56" cy="967.858" r="4" fill="#0" id="circle54"/>
	<circle cx="331.149" cy="654.78" r="4" fill="#0" id="circle55"/>
	<circle cx="334.667" cy="542.213" r="4" fill="#0" id="circle56"/>
	<circle cx="338.184" cy="689.957" r="4" fill="#0" id="circle57"/>
	<circle cx="341.702" cy="946.752" r="4" fill="#0" id="circle58"/>
	<circle cx="348.738" cy="623.121" r="4" fill="#0" id="circle59"/>
	<circle cx="355.773" cy="721.617" r="4" fill="#0" id="circle60"/>
	<circle cx="359.291" cy="570.355" r="4" fill="#0" id="circle61"/>
	<circle cx="369.844" cy="918.61" r="4" fill="#0" id="circle62"/>
	<circle cx="373.362" cy="753.277" r="4" fill="#0" id="circle63"/>
	<circle cx="390.95" cy="784.936" r="4" fill="#0" id="circle64"/>
	<circle cx="390.95" cy="890.468" r="4" fill="#0" id="circle65"/>
	<circle cx="401.504" cy="820.113" r="4" fill="#0" id="circle66"/>
	<circle cx="401.504" cy="855.291" r="4" fill="#0" id="circle67"/>
	</g>
</svg>