<?xml version="1.0" encoding="UTF-8" standalone="no"?>
<!-- Created with CurveBenchmark -->
<svg
	xmlns:dc="http://purl.org/dc/elements/1.1/"
	xmlns:cc="http://creativecommons.org/ns#"
	xmlns:rdf="http://www.w3.org/1999/02/22-rdf-syntax-ns#"
	xmlns:svg="http://www.w3.org/2000/svg"
	xmlns="http://www.w3.org/2000/svg"
	xmlns:sodipodi="http://sodipodi.sourceforge.net/DTD/sodipodi-0.dtd"
	xmlns:inkscape="http://www.inkscape.org/namespaces/inkscape"
	width="1000"
	height="1000"
	id="svg2"
	version="1.1"
	sodipodi:docname="manifold/gathan1-children06.png.txt">
<defs
	id="defs4" />
<metadata
	id="metadata7">
	<rdf:RDF>
		<cc:Work
			rdf:about="">
			<dc:format>image/svg+xml</dc:format>
			<dc:type
				rdf:resource="http://purl.org/dc/dcmitype/StillImage" />
			<dc:title></dc:title>
		</cc:Work>
	</rdf:RDF>
</metadata>
<g
	inkscape:label="Layer 1"
	inkscape:groupmode="layer"
	id="layer1">
	<path style="fill:none;stroke:red;stroke-width:1px;stroke-linecap:butt;stroke-linejoin:miter;stroke-opacity:1" d="M 20.6443,92.2148 20.6443,108.859 z" id="boundary" inkscape:connector-curvature="0" />
	<path style="fill:none;stroke:red;stroke-width:1px;stroke-linecap:butt;stroke-linejoin:miter;stroke-opacity:1" d="M 28.9664,123.839 20.6443,108.859 z" id="boundary" inkscape:connector-curvature="0" />
	<path style="fill:none;stroke:red;stroke-width:1px;stroke-linecap:butt;stroke-linejoin:miter;stroke-opacity:1" d="M 12.3221,291.946 20.6443,275.302 z" id="boundary" inkscape:connector-curvature="0" />
	<path style="fill:none;stroke:red;stroke-width:1px;stroke-linecap:butt;stroke-linejoin:miter;stroke-opacity:1" d="M 20.6443,275.302 33.9597,261.987 z" id="boundary" inkscape:connector-curvature="0" />
	<path style="fill:none;stroke:red;stroke-width:1px;stroke-linecap:butt;stroke-linejoin:miter;stroke-opacity:1" d="M 12.3221,291.946 4,308.591 z" id="boundary" inkscape:connector-curvature="0" />
	<path style="fill:none;stroke:red;stroke-width:1px;stroke-linecap:butt;stroke-linejoin:miter;stroke-opacity:1" d="M 28.9664,123.839 37.2886,138.819 z" id="boundary" inkscape:connector-curvature="0" />
	<path style="fill:none;stroke:red;stroke-width:1px;stroke-linecap:butt;stroke-linejoin:miter;stroke-opacity:1" d="M 28.9664,67.2483 37.2886,50.604 z" id="boundary" inkscape:connector-curvature="0" />
	<path style="fill:none;stroke:red;stroke-width:1px;stroke-linecap:butt;stroke-linejoin:miter;stroke-opacity:1" d="M 37.2886,50.604 50.604,37.2886 z" id="boundary" inkscape:connector-curvature="0" />
	<path style="fill:none;stroke:red;stroke-width:1px;stroke-linecap:butt;stroke-linejoin:miter;stroke-opacity:1" d="M 20.6443,92.2148 28.9664,67.2483 z" id="boundary" inkscape:connector-curvature="0" />
	<path style="fill:none;stroke:red;stroke-width:1px;stroke-linecap:butt;stroke-linejoin:miter;stroke-opacity:1" d="M 4,325.235 4,308.591 z" id="boundary" inkscape:connector-curvature="0" />
	<path style="fill:none;stroke:red;stroke-width:1px;stroke-linecap:butt;stroke-linejoin:miter;stroke-opacity:1" d="M 4,358.523 4,341.879 z" id="boundary" inkscape:connector-curvature="0" />
	<path style="fill:none;stroke:red;stroke-width:1px;stroke-linecap:butt;stroke-linejoin:miter;stroke-opacity:1" d="M 4,341.879 4,325.235 z" id="boundary" inkscape:connector-curvature="0" />
	<path style="fill:none;stroke:red;stroke-width:1px;stroke-linecap:butt;stroke-linejoin:miter;stroke-opacity:1" d="M 4,375.168 12.3221,390.148 z" id="boundary" inkscape:connector-curvature="0" />
	<path style="fill:none;stroke:red;stroke-width:1px;stroke-linecap:butt;stroke-linejoin:miter;stroke-opacity:1" d="M 12.3221,390.148 12.3221,406.792 z" id="boundary" inkscape:connector-curvature="0" />
	<path style="fill:none;stroke:red;stroke-width:1px;stroke-linecap:butt;stroke-linejoin:miter;stroke-opacity:1" d="M 4,375.168 4,358.523 z" id="boundary" inkscape:connector-curvature="0" />
	<path style="fill:none;stroke:red;stroke-width:1px;stroke-linecap:butt;stroke-linejoin:miter;stroke-opacity:1" d="M 12.3221,406.792 12.3221,423.436 z" id="boundary" inkscape:connector-curvature="0" />
	<path style="fill:none;stroke:red;stroke-width:1px;stroke-linecap:butt;stroke-linejoin:miter;stroke-opacity:1" d="M 12.3221,423.436 4,441.745 z" id="boundary" inkscape:connector-curvature="0" />
	<path style="fill:none;stroke:red;stroke-width:1px;stroke-linecap:butt;stroke-linejoin:miter;stroke-opacity:1" d="M 12.3221,456.725 4,441.745 z" id="boundary" inkscape:connector-curvature="0" />
	<path style="fill:none;stroke:red;stroke-width:1px;stroke-linecap:butt;stroke-linejoin:miter;stroke-opacity:1" d="M 33.9597,261.987 50.604,253.664 z" id="boundary" inkscape:connector-curvature="0" />
	<path style="fill:none;stroke:red;stroke-width:1px;stroke-linecap:butt;stroke-linejoin:miter;stroke-opacity:1" d="M 80.5638,20.6443 95.5436,12.3221 z" id="boundary" inkscape:connector-curvature="0" />
	<path style="fill:none;stroke:red;stroke-width:1px;stroke-linecap:butt;stroke-linejoin:miter;stroke-opacity:1" d="M 65.5839,28.9664 80.5638,20.6443 z" id="boundary" inkscape:connector-curvature="0" />
	<path style="fill:none;stroke:red;stroke-width:1px;stroke-linecap:butt;stroke-linejoin:miter;stroke-opacity:1" d="M 110.523,4 127.168,4 z" id="boundary" inkscape:connector-curvature="0" />
	<path style="fill:none;stroke:red;stroke-width:1px;stroke-linecap:butt;stroke-linejoin:miter;stroke-opacity:1" d="M 95.5436,12.3221 110.523,4 z" id="boundary" inkscape:connector-curvature="0" />
	<path style="fill:none;stroke:red;stroke-width:1px;stroke-linecap:butt;stroke-linejoin:miter;stroke-opacity:1" d="M 127.168,4 143.812,4 z" id="boundary" inkscape:connector-curvature="0" />
	<path style="fill:none;stroke:red;stroke-width:1px;stroke-linecap:butt;stroke-linejoin:miter;stroke-opacity:1" d="M 143.812,4 160.456,4 z" id="boundary" inkscape:connector-curvature="0" />
	<path style="fill:none;stroke:red;stroke-width:1px;stroke-linecap:butt;stroke-linejoin:miter;stroke-opacity:1" d="M 45.6107,153.799 55.5973,167.114 z" id="boundary" inkscape:connector-curvature="0" />
	<path style="fill:none;stroke:red;stroke-width:1px;stroke-linecap:butt;stroke-linejoin:miter;stroke-opacity:1" d="M 45.6107,153.799 37.2886,138.819 z" id="boundary" inkscape:connector-curvature="0" />
	<path style="fill:none;stroke:red;stroke-width:1px;stroke-linecap:butt;stroke-linejoin:miter;stroke-opacity:1" d="M 63.9195,240.349 50.604,253.664 z" id="boundary" inkscape:connector-curvature="0" />
	<path style="fill:none;stroke:red;stroke-width:1px;stroke-linecap:butt;stroke-linejoin:miter;stroke-opacity:1" d="M 70.5772,197.074 67.2483,180.43 z" id="boundary" inkscape:connector-curvature="0" />
	<path style="fill:none;stroke:red;stroke-width:1px;stroke-linecap:butt;stroke-linejoin:miter;stroke-opacity:1" d="M 78.8993,212.054 70.5772,197.074 z" id="boundary" inkscape:connector-curvature="0" />
	<path style="fill:none;stroke:red;stroke-width:1px;stroke-linecap:butt;stroke-linejoin:miter;stroke-opacity:1" d="M 78.8993,212.054 77.2349,228.698 z" id="boundary" inkscape:connector-curvature="0" />
	<path style="fill:none;stroke:red;stroke-width:1px;stroke-linecap:butt;stroke-linejoin:miter;stroke-opacity:1" d="M 77.2349,228.698 63.9195,240.349 z" id="boundary" inkscape:connector-curvature="0" />
	<path style="fill:none;stroke:red;stroke-width:1px;stroke-linecap:butt;stroke-linejoin:miter;stroke-opacity:1" d="M 55.5973,167.114 67.2483,180.43 z" id="boundary" inkscape:connector-curvature="0" />
	<path style="fill:none;stroke:red;stroke-width:1px;stroke-linecap:butt;stroke-linejoin:miter;stroke-opacity:1" d="M 50.604,37.2886 65.5839,28.9664 z" id="boundary" inkscape:connector-curvature="0" />
	<path style="fill:none;stroke:red;stroke-width:1px;stroke-linecap:butt;stroke-linejoin:miter;stroke-opacity:1" d="M 12.3221,456.725 12.3221,473.369 z" id="boundary" inkscape:connector-curvature="0" />
	<path style="fill:none;stroke:red;stroke-width:1px;stroke-linecap:butt;stroke-linejoin:miter;stroke-opacity:1" d="M 12.3221,490.013 20.6443,504.993 z" id="boundary" inkscape:connector-curvature="0" />
	<path style="fill:none;stroke:red;stroke-width:1px;stroke-linecap:butt;stroke-linejoin:miter;stroke-opacity:1" d="M 20.6443,504.993 20.6443,521.638 z" id="boundary" inkscape:connector-curvature="0" />
	<path style="fill:none;stroke:red;stroke-width:1px;stroke-linecap:butt;stroke-linejoin:miter;stroke-opacity:1" d="M 12.3221,490.013 12.3221,473.369 z" id="boundary" inkscape:connector-curvature="0" />
	<path style="fill:none;stroke:red;stroke-width:1px;stroke-linecap:butt;stroke-linejoin:miter;stroke-opacity:1" d="M 20.6443,521.638 20.6443,538.282 z" id="boundary" inkscape:connector-curvature="0" />
	<path style="fill:none;stroke:red;stroke-width:1px;stroke-linecap:butt;stroke-linejoin:miter;stroke-opacity:1" d="M 28.9664,553.262 20.6443,538.282 z" id="boundary" inkscape:connector-curvature="0" />
	<path style="fill:none;stroke:red;stroke-width:1px;stroke-linecap:butt;stroke-linejoin:miter;stroke-opacity:1" d="M 28.9664,553.262 37.2886,568.242 z" id="boundary" inkscape:connector-curvature="0" />
	<path style="fill:none;stroke:red;stroke-width:1px;stroke-linecap:butt;stroke-linejoin:miter;stroke-opacity:1" d="M 37.2886,568.242 37.2886,584.886 z" id="boundary" inkscape:connector-curvature="0" />
	<path style="fill:none;stroke:red;stroke-width:1px;stroke-linecap:butt;stroke-linejoin:miter;stroke-opacity:1" d="M 95.5436,699.732 83.8926,686.416 z" id="boundary" inkscape:connector-curvature="0" />
	<path style="fill:none;stroke:red;stroke-width:1px;stroke-linecap:butt;stroke-linejoin:miter;stroke-opacity:1" d="M 28.9664,599.866 37.2886,584.886 z" id="boundary" inkscape:connector-curvature="0" />
	<path style="fill:none;stroke:red;stroke-width:1px;stroke-linecap:butt;stroke-linejoin:miter;stroke-opacity:1" d="M 37.2886,614.846 28.9664,599.866 z" id="boundary" inkscape:connector-curvature="0" />
	<path style="fill:none;stroke:red;stroke-width:1px;stroke-linecap:butt;stroke-linejoin:miter;stroke-opacity:1" d="M 37.2886,614.846 45.6107,629.826 z" id="boundary" inkscape:connector-curvature="0" />
	<path style="fill:none;stroke:red;stroke-width:1px;stroke-linecap:butt;stroke-linejoin:miter;stroke-opacity:1" d="M 53.9329,644.805 45.6107,629.826 z" id="boundary" inkscape:connector-curvature="0" />
	<path style="fill:none;stroke:red;stroke-width:1px;stroke-linecap:butt;stroke-linejoin:miter;stroke-opacity:1" d="M 53.9329,644.805 62.255,659.785 z" id="boundary" inkscape:connector-curvature="0" />
	<path style="fill:none;stroke:red;stroke-width:1px;stroke-linecap:butt;stroke-linejoin:miter;stroke-opacity:1" d="M 95.5436,791.275 87.2215,816.242 z" id="boundary" inkscape:connector-curvature="0" />
	<path style="fill:none;stroke:red;stroke-width:1px;stroke-linecap:butt;stroke-linejoin:miter;stroke-opacity:1" d="M 83.8926,686.416 70.5772,674.765 z" id="boundary" inkscape:connector-curvature="0" />
	<path style="fill:none;stroke:red;stroke-width:1px;stroke-linecap:butt;stroke-linejoin:miter;stroke-opacity:1" d="M 70.5772,674.765 62.255,659.785 z" id="boundary" inkscape:connector-curvature="0" />
	<path style="fill:none;stroke:red;stroke-width:1px;stroke-linecap:butt;stroke-linejoin:miter;stroke-opacity:1" d="M 95.5436,831.221 95.5436,847.866 z" id="boundary" inkscape:connector-curvature="0" />
	<path style="fill:none;stroke:red;stroke-width:1px;stroke-linecap:butt;stroke-linejoin:miter;stroke-opacity:1" d="M 87.2215,816.242 95.5436,831.221 z" id="boundary" inkscape:connector-curvature="0" />
	<path style="fill:none;stroke:red;stroke-width:1px;stroke-linecap:butt;stroke-linejoin:miter;stroke-opacity:1" d="M 103.866,862.846 95.5436,847.866 z" id="boundary" inkscape:connector-curvature="0" />
	<path style="fill:none;stroke:red;stroke-width:1px;stroke-linecap:butt;stroke-linejoin:miter;stroke-opacity:1" d="M 103.866,714.711 103.866,731.356 z" id="boundary" inkscape:connector-curvature="0" />
	<path style="fill:none;stroke:red;stroke-width:1px;stroke-linecap:butt;stroke-linejoin:miter;stroke-opacity:1" d="M 95.5436,699.732 103.866,714.711 z" id="boundary" inkscape:connector-curvature="0" />
	<path style="fill:none;stroke:red;stroke-width:1px;stroke-linecap:butt;stroke-linejoin:miter;stroke-opacity:1" d="M 103.866,748 103.866,731.356 z" id="boundary" inkscape:connector-curvature="0" />
	<path style="fill:none;stroke:red;stroke-width:1px;stroke-linecap:butt;stroke-linejoin:miter;stroke-opacity:1" d="M 103.866,748 103.866,764.644 z" id="boundary" inkscape:connector-curvature="0" />
	<path style="fill:none;stroke:red;stroke-width:1px;stroke-linecap:butt;stroke-linejoin:miter;stroke-opacity:1" d="M 103.866,764.644 95.5436,791.275 z" id="boundary" inkscape:connector-curvature="0" />
	<path style="fill:none;stroke:red;stroke-width:1px;stroke-linecap:butt;stroke-linejoin:miter;stroke-opacity:1" d="M 103.866,862.846 103.866,879.49 z" id="boundary" inkscape:connector-curvature="0" />
	<path style="fill:none;stroke:red;stroke-width:1px;stroke-linecap:butt;stroke-linejoin:miter;stroke-opacity:1" d="M 103.866,879.49 112.188,894.47 z" id="boundary" inkscape:connector-curvature="0" />
	<path style="fill:none;stroke:red;stroke-width:1px;stroke-linecap:butt;stroke-linejoin:miter;stroke-opacity:1" d="M 112.188,894.47 103.866,924.43 z" id="boundary" inkscape:connector-curvature="0" />
	<path style="fill:none;stroke:red;stroke-width:1px;stroke-linecap:butt;stroke-linejoin:miter;stroke-opacity:1" d="M 103.866,924.43 103.866,941.074 z" id="boundary" inkscape:connector-curvature="0" />
	<path style="fill:none;stroke:red;stroke-width:1px;stroke-linecap:butt;stroke-linejoin:miter;stroke-opacity:1" d="M 112.188,956.054 103.866,941.074 z" id="boundary" inkscape:connector-curvature="0" />
	<path style="fill:none;stroke:red;stroke-width:1px;stroke-linecap:butt;stroke-linejoin:miter;stroke-opacity:1" d="M 120.51,971.034 112.188,956.054 z" id="boundary" inkscape:connector-curvature="0" />
	<path style="fill:none;stroke:red;stroke-width:1px;stroke-linecap:butt;stroke-linejoin:miter;stroke-opacity:1" d="M 147.141,991.007 130.497,984.349 z" id="boundary" inkscape:connector-curvature="0" />
	<path style="fill:none;stroke:red;stroke-width:1px;stroke-linecap:butt;stroke-linejoin:miter;stroke-opacity:1" d="M 130.497,984.349 120.51,971.034 z" id="boundary" inkscape:connector-curvature="0" />
	<path style="fill:none;stroke:red;stroke-width:1px;stroke-linecap:butt;stroke-linejoin:miter;stroke-opacity:1" d="M 163.785,996 147.141,991.007 z" id="boundary" inkscape:connector-curvature="0" />
	<path style="fill:none;stroke:red;stroke-width:1px;stroke-linecap:butt;stroke-linejoin:miter;stroke-opacity:1" d="M 180.43,996 163.785,996 z" id="boundary" inkscape:connector-curvature="0" />
	<path style="fill:none;stroke:red;stroke-width:1px;stroke-linecap:butt;stroke-linejoin:miter;stroke-opacity:1" d="M 160.456,4 177.101,4 z" id="boundary" inkscape:connector-curvature="0" />
	<path style="fill:none;stroke:red;stroke-width:1px;stroke-linecap:butt;stroke-linejoin:miter;stroke-opacity:1" d="M 177.101,4 192.081,12.3221 z" id="boundary" inkscape:connector-curvature="0" />
	<path style="fill:none;stroke:red;stroke-width:1px;stroke-linecap:butt;stroke-linejoin:miter;stroke-opacity:1" d="M 192.081,12.3221 208.725,12.3221 z" id="boundary" inkscape:connector-curvature="0" />
	<path style="fill:none;stroke:red;stroke-width:1px;stroke-linecap:butt;stroke-linejoin:miter;stroke-opacity:1" d="M 208.725,12.3221 223.705,20.6443 z" id="boundary" inkscape:connector-curvature="0" />
	<path style="fill:none;stroke:red;stroke-width:1px;stroke-linecap:butt;stroke-linejoin:miter;stroke-opacity:1" d="M 223.705,20.6443 237.02,32.2953 z" id="boundary" inkscape:connector-curvature="0" />
	<path style="fill:none;stroke:red;stroke-width:1px;stroke-linecap:butt;stroke-linejoin:miter;stroke-opacity:1" d="M 237.02,32.2953 247.007,45.6107 z" id="boundary" inkscape:connector-curvature="0" />
	<path style="fill:none;stroke:red;stroke-width:1px;stroke-linecap:butt;stroke-linejoin:miter;stroke-opacity:1" d="M 247.007,45.6107 260.322,55.5973 z" id="boundary" inkscape:connector-curvature="0" />
	<path style="fill:none;stroke:red;stroke-width:1px;stroke-linecap:butt;stroke-linejoin:miter;stroke-opacity:1" d="M 260.322,55.5973 266.98,72.2416 z" id="boundary" inkscape:connector-curvature="0" />
	<path style="fill:none;stroke:red;stroke-width:1px;stroke-linecap:butt;stroke-linejoin:miter;stroke-opacity:1" d="M 271.973,88.8859 271.973,105.53 z" id="boundary" inkscape:connector-curvature="0" />
	<path style="fill:none;stroke:red;stroke-width:1px;stroke-linecap:butt;stroke-linejoin:miter;stroke-opacity:1" d="M 266.98,72.2416 271.973,88.8859 z" id="boundary" inkscape:connector-curvature="0" />
	<path style="fill:none;stroke:red;stroke-width:1px;stroke-linecap:butt;stroke-linejoin:miter;stroke-opacity:1" d="M 271.973,260.322 263.651,245.342 z" id="boundary" inkscape:connector-curvature="0" />
	<path style="fill:none;stroke:red;stroke-width:1px;stroke-linecap:butt;stroke-linejoin:miter;stroke-opacity:1" d="M 263.651,205.396 255.329,230.362 z" id="boundary" inkscape:connector-curvature="0" />
	<path style="fill:none;stroke:red;stroke-width:1px;stroke-linecap:butt;stroke-linejoin:miter;stroke-opacity:1" d="M 263.651,245.342 255.329,230.362 z" id="boundary" inkscape:connector-curvature="0" />
	<path style="fill:none;stroke:red;stroke-width:1px;stroke-linecap:butt;stroke-linejoin:miter;stroke-opacity:1" d="M 271.973,122.174 271.973,138.819 z" id="boundary" inkscape:connector-curvature="0" />
	<path style="fill:none;stroke:red;stroke-width:1px;stroke-linecap:butt;stroke-linejoin:miter;stroke-opacity:1" d="M 271.973,105.53 271.973,122.174 z" id="boundary" inkscape:connector-curvature="0" />
	<path style="fill:none;stroke:red;stroke-width:1px;stroke-linecap:butt;stroke-linejoin:miter;stroke-opacity:1" d="M 271.973,138.819 271.973,155.463 z" id="boundary" inkscape:connector-curvature="0" />
	<path style="fill:none;stroke:red;stroke-width:1px;stroke-linecap:butt;stroke-linejoin:miter;stroke-opacity:1" d="M 271.973,172.107 271.973,155.463 z" id="boundary" inkscape:connector-curvature="0" />
	<path style="fill:none;stroke:red;stroke-width:1px;stroke-linecap:butt;stroke-linejoin:miter;stroke-opacity:1" d="M 271.973,188.752 271.973,172.107 z" id="boundary" inkscape:connector-curvature="0" />
	<path style="fill:none;stroke:red;stroke-width:1px;stroke-linecap:butt;stroke-linejoin:miter;stroke-opacity:1" d="M 271.973,188.752 263.651,205.396 z" id="boundary" inkscape:connector-curvature="0" />
	<path style="fill:none;stroke:red;stroke-width:1px;stroke-linecap:butt;stroke-linejoin:miter;stroke-opacity:1" d="M 271.973,260.322 280.295,275.302 z" id="boundary" inkscape:connector-curvature="0" />
	<path style="fill:none;stroke:red;stroke-width:1px;stroke-linecap:butt;stroke-linejoin:miter;stroke-opacity:1" d="M 280.295,275.302 280.295,291.946 z" id="boundary" inkscape:connector-curvature="0" />
	<path style="fill:none;stroke:red;stroke-width:1px;stroke-linecap:butt;stroke-linejoin:miter;stroke-opacity:1" d="M 280.295,291.946 288.617,306.926 z" id="boundary" inkscape:connector-curvature="0" />
	<path style="fill:none;stroke:red;stroke-width:1px;stroke-linecap:butt;stroke-linejoin:miter;stroke-opacity:1" d="M 288.617,306.926 293.611,323.57 z" id="boundary" inkscape:connector-curvature="0" />
	<path style="fill:none;stroke:red;stroke-width:1px;stroke-linecap:butt;stroke-linejoin:miter;stroke-opacity:1" d="M 293.611,323.57 296.94,340.215 z" id="boundary" inkscape:connector-curvature="0" />
	<path style="fill:none;stroke:red;stroke-width:1px;stroke-linecap:butt;stroke-linejoin:miter;stroke-opacity:1" d="M 288.617,380.161 296.94,356.859 z" id="boundary" inkscape:connector-curvature="0" />
	<path style="fill:none;stroke:red;stroke-width:1px;stroke-linecap:butt;stroke-linejoin:miter;stroke-opacity:1" d="M 296.94,395.141 288.617,380.161 z" id="boundary" inkscape:connector-curvature="0" />
	<path style="fill:none;stroke:red;stroke-width:1px;stroke-linecap:butt;stroke-linejoin:miter;stroke-opacity:1" d="M 296.94,340.215 296.94,356.859 z" id="boundary" inkscape:connector-curvature="0" />
	<path style="fill:none;stroke:red;stroke-width:1px;stroke-linecap:butt;stroke-linejoin:miter;stroke-opacity:1" d="M 296.94,395.141 296.94,411.785 z" id="boundary" inkscape:connector-curvature="0" />
	<path style="fill:none;stroke:red;stroke-width:1px;stroke-linecap:butt;stroke-linejoin:miter;stroke-opacity:1" d="M 296.94,411.785 305.262,426.765 z" id="boundary" inkscape:connector-curvature="0" />
	<path style="fill:none;stroke:red;stroke-width:1px;stroke-linecap:butt;stroke-linejoin:miter;stroke-opacity:1" d="M 313.584,441.745 313.584,458.389 z" id="boundary" inkscape:connector-curvature="0" />
	<path style="fill:none;stroke:red;stroke-width:1px;stroke-linecap:butt;stroke-linejoin:miter;stroke-opacity:1" d="M 305.262,426.765 313.584,441.745 z" id="boundary" inkscape:connector-curvature="0" />
	<path style="fill:none;stroke:red;stroke-width:1px;stroke-linecap:butt;stroke-linejoin:miter;stroke-opacity:1" d="M 321.906,473.369 313.584,458.389 z" id="boundary" inkscape:connector-curvature="0" />
	<path style="fill:none;stroke:red;stroke-width:1px;stroke-linecap:butt;stroke-linejoin:miter;stroke-opacity:1" d="M 321.906,473.369 330.228,488.349 z" id="boundary" inkscape:connector-curvature="0" />
	<path style="fill:none;stroke:red;stroke-width:1px;stroke-linecap:butt;stroke-linejoin:miter;stroke-opacity:1" d="M 330.228,488.349 330.228,504.993 z" id="boundary" inkscape:connector-curvature="0" />
	<path style="fill:none;stroke:red;stroke-width:1px;stroke-linecap:butt;stroke-linejoin:miter;stroke-opacity:1" d="M 338.55,536.617 330.228,521.638 z" id="boundary" inkscape:connector-curvature="0" />
	<path style="fill:none;stroke:red;stroke-width:1px;stroke-linecap:butt;stroke-linejoin:miter;stroke-opacity:1" d="M 330.228,521.638 330.228,504.993 z" id="boundary" inkscape:connector-curvature="0" />
	<path style="fill:none;stroke:red;stroke-width:1px;stroke-linecap:butt;stroke-linejoin:miter;stroke-opacity:1" d="M 338.55,536.617 338.55,553.262 z" id="boundary" inkscape:connector-curvature="0" />
	<path style="fill:none;stroke:red;stroke-width:1px;stroke-linecap:butt;stroke-linejoin:miter;stroke-opacity:1" d="M 255.329,879.49 255.329,862.846 z" id="boundary" inkscape:connector-curvature="0" />
	<path style="fill:none;stroke:red;stroke-width:1px;stroke-linecap:butt;stroke-linejoin:miter;stroke-opacity:1" d="M 263.651,846.201 255.329,862.846 z" id="boundary" inkscape:connector-curvature="0" />
	<path style="fill:none;stroke:red;stroke-width:1px;stroke-linecap:butt;stroke-linejoin:miter;stroke-opacity:1" d="M 275.302,902.792 258.658,896.134 z" id="boundary" inkscape:connector-curvature="0" />
	<path style="fill:none;stroke:red;stroke-width:1px;stroke-linecap:butt;stroke-linejoin:miter;stroke-opacity:1" d="M 258.658,896.134 255.329,879.49 z" id="boundary" inkscape:connector-curvature="0" />
	<path style="fill:none;stroke:red;stroke-width:1px;stroke-linecap:butt;stroke-linejoin:miter;stroke-opacity:1" d="M 280.295,762.98 280.295,779.624 z" id="boundary" inkscape:connector-curvature="0" />
	<path style="fill:none;stroke:red;stroke-width:1px;stroke-linecap:butt;stroke-linejoin:miter;stroke-opacity:1" d="M 280.295,779.624 271.973,804.591 z" id="boundary" inkscape:connector-curvature="0" />
	<path style="fill:none;stroke:red;stroke-width:1px;stroke-linecap:butt;stroke-linejoin:miter;stroke-opacity:1" d="M 271.973,804.591 271.973,821.235 z" id="boundary" inkscape:connector-curvature="0" />
	<path style="fill:none;stroke:red;stroke-width:1px;stroke-linecap:butt;stroke-linejoin:miter;stroke-opacity:1" d="M 271.973,821.235 263.651,846.201 z" id="boundary" inkscape:connector-curvature="0" />
	<path style="fill:none;stroke:red;stroke-width:1px;stroke-linecap:butt;stroke-linejoin:miter;stroke-opacity:1" d="M 197.074,996 180.43,996 z" id="boundary" inkscape:connector-curvature="0" />
	<path style="fill:none;stroke:red;stroke-width:1px;stroke-linecap:butt;stroke-linejoin:miter;stroke-opacity:1" d="M 230.362,996 213.718,996 z" id="boundary" inkscape:connector-curvature="0" />
	<path style="fill:none;stroke:red;stroke-width:1px;stroke-linecap:butt;stroke-linejoin:miter;stroke-opacity:1" d="M 213.718,996 197.074,996 z" id="boundary" inkscape:connector-curvature="0" />
	<path style="fill:none;stroke:red;stroke-width:1px;stroke-linecap:butt;stroke-linejoin:miter;stroke-opacity:1" d="M 303.597,919.436 286.953,916.107 z" id="boundary" inkscape:connector-curvature="0" />
	<path style="fill:none;stroke:red;stroke-width:1px;stroke-linecap:butt;stroke-linejoin:miter;stroke-opacity:1" d="M 286.953,916.107 275.302,902.792 z" id="boundary" inkscape:connector-curvature="0" />
	<path style="fill:none;stroke:red;stroke-width:1px;stroke-linecap:butt;stroke-linejoin:miter;stroke-opacity:1" d="M 263.651,996 247.007,996 z" id="boundary" inkscape:connector-curvature="0" />
	<path style="fill:none;stroke:red;stroke-width:1px;stroke-linecap:butt;stroke-linejoin:miter;stroke-opacity:1" d="M 293.611,984.349 280.295,996 z" id="boundary" inkscape:connector-curvature="0" />
	<path style="fill:none;stroke:red;stroke-width:1px;stroke-linecap:butt;stroke-linejoin:miter;stroke-opacity:1" d="M 280.295,996 263.651,996 z" id="boundary" inkscape:connector-curvature="0" />
	<path style="fill:none;stroke:red;stroke-width:1px;stroke-linecap:butt;stroke-linejoin:miter;stroke-opacity:1" d="M 247.007,996 230.362,996 z" id="boundary" inkscape:connector-curvature="0" />
	<path style="fill:none;stroke:red;stroke-width:1px;stroke-linecap:butt;stroke-linejoin:miter;stroke-opacity:1" d="M 280.295,762.98 288.617,746.336 z" id="boundary" inkscape:connector-curvature="0" />
	<path style="fill:none;stroke:red;stroke-width:1px;stroke-linecap:butt;stroke-linejoin:miter;stroke-opacity:1" d="M 310.255,659.785 318.577,643.141 z" id="boundary" inkscape:connector-curvature="0" />
	<path style="fill:none;stroke:red;stroke-width:1px;stroke-linecap:butt;stroke-linejoin:miter;stroke-opacity:1" d="M 310.255,659.785 296.94,671.436 z" id="boundary" inkscape:connector-curvature="0" />
	<path style="fill:none;stroke:red;stroke-width:1px;stroke-linecap:butt;stroke-linejoin:miter;stroke-opacity:1" d="M 296.94,703.06 288.617,688.081 z" id="boundary" inkscape:connector-curvature="0" />
	<path style="fill:none;stroke:red;stroke-width:1px;stroke-linecap:butt;stroke-linejoin:miter;stroke-opacity:1" d="M 288.617,688.081 296.94,671.436 z" id="boundary" inkscape:connector-curvature="0" />
	<path style="fill:none;stroke:red;stroke-width:1px;stroke-linecap:butt;stroke-linejoin:miter;stroke-opacity:1" d="M 338.55,553.262 346.872,568.242 z" id="boundary" inkscape:connector-curvature="0" />
	<path style="fill:none;stroke:red;stroke-width:1px;stroke-linecap:butt;stroke-linejoin:miter;stroke-opacity:1" d="M 346.872,568.242 338.55,588.215 z" id="boundary" inkscape:connector-curvature="0" />
	<path style="fill:none;stroke:red;stroke-width:1px;stroke-linecap:butt;stroke-linejoin:miter;stroke-opacity:1" d="M 326.899,626.497 330.228,604.859 z" id="boundary" inkscape:connector-curvature="0" />
	<path style="fill:none;stroke:red;stroke-width:1px;stroke-linecap:butt;stroke-linejoin:miter;stroke-opacity:1" d="M 330.228,604.859 338.55,588.215 z" id="boundary" inkscape:connector-curvature="0" />
	<path style="fill:none;stroke:red;stroke-width:1px;stroke-linecap:butt;stroke-linejoin:miter;stroke-opacity:1" d="M 326.899,626.497 318.577,643.141 z" id="boundary" inkscape:connector-curvature="0" />
	<path style="fill:none;stroke:red;stroke-width:1px;stroke-linecap:butt;stroke-linejoin:miter;stroke-opacity:1" d="M 296.94,719.705 288.617,746.336 z" id="boundary" inkscape:connector-curvature="0" />
	<path style="fill:none;stroke:red;stroke-width:1px;stroke-linecap:butt;stroke-linejoin:miter;stroke-opacity:1" d="M 296.94,719.705 296.94,703.06 z" id="boundary" inkscape:connector-curvature="0" />
	<path style="fill:none;stroke:red;stroke-width:1px;stroke-linecap:butt;stroke-linejoin:miter;stroke-opacity:1" d="M 303.597,919.436 320.242,922.765 z" id="boundary" inkscape:connector-curvature="0" />
	<path style="fill:none;stroke:red;stroke-width:1px;stroke-linecap:butt;stroke-linejoin:miter;stroke-opacity:1" d="M 320.242,922.765 330.228,936.081 z" id="boundary" inkscape:connector-curvature="0" />
	<path style="fill:none;stroke:red;stroke-width:1px;stroke-linecap:butt;stroke-linejoin:miter;stroke-opacity:1" d="M 330.228,936.081 326.899,967.705 z" id="boundary" inkscape:connector-curvature="0" />
	<path style="fill:none;stroke:red;stroke-width:1px;stroke-linecap:butt;stroke-linejoin:miter;stroke-opacity:1" d="M 326.899,967.705 310.255,976.027 z" id="boundary" inkscape:connector-curvature="0" />
	<path style="fill:none;stroke:red;stroke-width:1px;stroke-linecap:butt;stroke-linejoin:miter;stroke-opacity:1" d="M 310.255,976.027 293.611,984.349 z" id="boundary" inkscape:connector-curvature="0" />
	<circle cx="4" cy="308.591" r="4" fill="#0" id="circle0"/>
	<circle cx="4" cy="325.235" r="4" fill="#0" id="circle1"/>
	<circle cx="4" cy="341.879" r="4" fill="#0" id="circle2"/>
	<circle cx="4" cy="358.523" r="4" fill="#0" id="circle3"/>
	<circle cx="4" cy="375.168" r="4" fill="#0" id="circle4"/>
	<circle cx="4" cy="441.745" r="4" fill="#0" id="circle5"/>
	<circle cx="12.3221" cy="291.946" r="4" fill="#0" id="circle6"/>
	<circle cx="12.3221" cy="390.148" r="4" fill="#0" id="circle7"/>
	<circle cx="12.3221" cy="406.792" r="4" fill="#0" id="circle8"/>
	<circle cx="12.3221" cy="423.436" r="4" fill="#0" id="circle9"/>
	<circle cx="12.3221" cy="456.725" r="4" fill="#0" id="circle10"/>
	<circle cx="12.3221" cy="473.369" r="4" fill="#0" id="circle11"/>
	<circle cx="12.3221" cy="490.013" r="4" fill="#0" id="circle12"/>
	<circle cx="20.6443" cy="92.2148" r="4" fill="#0" id="circle13"/>
	<circle cx="20.6443" cy="108.859" r="4" fill="#0" id="circle14"/>
	<circle cx="20.6443" cy="275.302" r="4" fill="#0" id="circle15"/>
	<circle cx="20.6443" cy="504.993" r="4" fill="#0" id="circle16"/>
	<circle cx="20.6443" cy="521.638" r="4" fill="#0" id="circle17"/>
	<circle cx="20.6443" cy="538.282" r="4" fill="#0" id="circle18"/>
	<circle cx="28.9664" cy="67.2483" r="4" fill="#0" id="circle19"/>
	<circle cx="28.9664" cy="123.839" r="4" fill="#0" id="circle20"/>
	<circle cx="28.9664" cy="553.262" r="4" fill="#0" id="circle21"/>
	<circle cx="28.9664" cy="599.866" r="4" fill="#0" id="circle22"/>
	<circle cx="33.9597" cy="261.987" r="4" fill="#0" id="circle23"/>
	<circle cx="37.2886" cy="50.604" r="4" fill="#0" id="circle24"/>
	<circle cx="37.2886" cy="138.819" r="4" fill="#0" id="circle25"/>
	<circle cx="37.2886" cy="568.242" r="4" fill="#0" id="circle26"/>
	<circle cx="37.2886" cy="584.886" r="4" fill="#0" id="circle27"/>
	<circle cx="37.2886" cy="614.846" r="4" fill="#0" id="circle28"/>
	<circle cx="45.6107" cy="153.799" r="4" fill="#0" id="circle29"/>
	<circle cx="45.6107" cy="629.826" r="4" fill="#0" id="circle30"/>
	<circle cx="50.604" cy="37.2886" r="4" fill="#0" id="circle31"/>
	<circle cx="50.604" cy="253.664" r="4" fill="#0" id="circle32"/>
	<circle cx="53.9329" cy="644.805" r="4" fill="#0" id="circle33"/>
	<circle cx="55.5973" cy="167.114" r="4" fill="#0" id="circle34"/>
	<circle cx="62.255" cy="659.785" r="4" fill="#0" id="circle35"/>
	<circle cx="63.9195" cy="240.349" r="4" fill="#0" id="circle36"/>
	<circle cx="65.5839" cy="28.9664" r="4" fill="#0" id="circle37"/>
	<circle cx="67.2483" cy="180.43" r="4" fill="#0" id="circle38"/>
	<circle cx="70.5772" cy="197.074" r="4" fill="#0" id="circle39"/>
	<circle cx="70.5772" cy="674.765" r="4" fill="#0" id="circle40"/>
	<circle cx="77.2349" cy="228.698" r="4" fill="#0" id="circle41"/>
	<circle cx="78.8993" cy="212.054" r="4" fill="#0" id="circle42"/>
	<circle cx="80.5638" cy="20.6443" r="4" fill="#0" id="circle43"/>
	<circle cx="83.8926" cy="686.416" r="4" fill="#0" id="circle44"/>
	<circle cx="87.2215" cy="816.242" r="4" fill="#0" id="circle45"/>
	<circle cx="95.5436" cy="12.3221" r="4" fill="#0" id="circle46"/>
	<circle cx="95.5436" cy="699.732" r="4" fill="#0" id="circle47"/>
	<circle cx="95.5436" cy="791.275" r="4" fill="#0" id="circle48"/>
	<circle cx="95.5436" cy="831.221" r="4" fill="#0" id="circle49"/>
	<circle cx="95.5436" cy="847.866" r="4" fill="#0" id="circle50"/>
	<circle cx="103.866" cy="714.711" r="4" fill="#0" id="circle51"/>
	<circle cx="103.866" cy="731.356" r="4" fill="#0" id="circle52"/>
	<circle cx="103.866" cy="748" r="4" fill="#0" id="circle53"/>
	<circle cx="103.866" cy="764.644" r="4" fill="#0" id="circle54"/>
	<circle cx="103.866" cy="862.846" r="4" fill="#0" id="circle55"/>
	<circle cx="103.866" cy="879.49" r="4" fill="#0" id="circle56"/>
	<circle cx="103.866" cy="924.43" r="4" fill="#0" id="circle57"/>
	<circle cx="103.866" cy="941.074" r="4" fill="#0" id="circle58"/>
	<circle cx="110.523" cy="4" r="4" fill="#0" id="circle59"/>
	<circle cx="112.188" cy="894.47" r="4" fill="#0" id="circle60"/>
	<circle cx="112.188" cy="956.054" r="4" fill="#0" id="circle61"/>
	<circle cx="120.51" cy="971.034" r="4" fill="#0" id="circle62"/>
	<circle cx="127.168" cy="4" r="4" fill="#0" id="circle63"/>
	<circle cx="130.497" cy="984.349" r="4" fill="#0" id="circle64"/>
	<circle cx="143.812" cy="4" r="4" fill="#0" id="circle65"/>
	<circle cx="147.141" cy="991.007" r="4" fill="#0" id="circle66"/>
	<circle cx="160.456" cy="4" r="4" fill="#0" id="circle67"/>
	<circle cx="163.785" cy="996" r="4" fill="#0" id="circle68"/>
	<circle cx="177.101" cy="4" r="4" fill="#0" id="circle69"/>
	<circle cx="180.43" cy="996" r="4" fill="#0" id="circle70"/>
	<circle cx="192.081" cy="12.3221" r="4" fill="#0" id="circle71"/>
	<circle cx="197.074" cy="996" r="4" fill="#0" id="circle72"/>
	<circle cx="208.725" cy="12.3221" r="4" fill="#0" id="circle73"/>
	<circle cx="213.718" cy="996" r="4" fill="#0" id="circle74"/>
	<circle cx="223.705" cy="20.6443" r="4" fill="#0" id="circle75"/>
	<circle cx="230.362" cy="996" r="4" fill="#0" id="circle76"/>
	<circle cx="237.02" cy="32.2953" r="4" fill="#0" id="circle77"/>
	<circle cx="247.007" cy="45.6107" r="4" fill="#0" id="circle78"/>
	<circle cx="247.007" cy="996" r="4" fill="#0" id="circle79"/>
	<circle cx="255.329" cy="230.362" r="4" fill="#0" id="circle80"/>
	<circle cx="255.329" cy="862.846" r="4" fill="#0" id="circle81"/>
	<circle cx="255.329" cy="879.49" r="4" fill="#0" id="circle82"/>
	<circle cx="258.658" cy="896.134" r="4" fill="#0" id="circle83"/>
	<circle cx="260.322" cy="55.5973" r="4" fill="#0" id="circle84"/>
	<circle cx="263.651" cy="205.396" r="4" fill="#0" id="circle85"/>
	<circle cx="263.651" cy="245.342" r="4" fill="#0" id="circle86"/>
	<circle cx="263.651" cy="846.201" r="4" fill="#0" id="circle87"/>
	<circle cx="263.651" cy="996" r="4" fill="#0" id="circle88"/>
	<circle cx="266.98" cy="72.2416" r="4" fill="#0" id="circle89"/>
	<circle cx="271.973" cy="88.8859" r="4" fill="#0" id="circle90"/>
	<circle cx="271.973" cy="105.53" r="4" fill="#0" id="circle91"/>
	<circle cx="271.973" cy="122.174" r="4" fill="#0" id="circle92"/>
	<circle cx="271.973" cy="138.819" r="4" fill="#0" id="circle93"/>
	<circle cx="271.973" cy="155.463" r="4" fill="#0" id="circle94"/>
	<circle cx="271.973" cy="172.107" r="4" fill="#0" id="circle95"/>
	<circle cx="271.973" cy="188.752" r="4" fill="#0" id="circle96"/>
	<circle cx="271.973" cy="260.322" r="4" fill="#0" id="circle97"/>
	<circle cx="271.973" cy="804.591" r="4" fill="#0" id="circle98"/>
	<circle cx="271.973" cy="821.235" r="4" fill="#0" id="circle99"/>
	<circle cx="275.302" cy="902.792" r="4" fill="#0" id="circle100"/>
	<circle cx="280.295" cy="275.302" r="4" fill="#0" id="circle101"/>
	<circle cx="280.295" cy="291.946" r="4" fill="#0" id="circle102"/>
	<circle cx="280.295" cy="762.98" r="4" fill="#0" id="circle103"/>
	<circle cx="280.295" cy="779.624" r="4" fill="#0" id="circle104"/>
	<circle cx="280.295" cy="996" r="4" fill="#0" id="circle105"/>
	<circle cx="286.953" cy="916.107" r="4" fill="#0" id="circle106"/>
	<circle cx="288.617" cy="306.926" r="4" fill="#0" id="circle107"/>
	<circle cx="288.617" cy="380.161" r="4" fill="#0" id="circle108"/>
	<circle cx="288.617" cy="688.081" r="4" fill="#0" id="circle109"/>
	<circle cx="288.617" cy="746.336" r="4" fill="#0" id="circle110"/>
	<circle cx="293.611" cy="323.57" r="4" fill="#0" id="circle111"/>
	<circle cx="293.611" cy="984.349" r="4" fill="#0" id="circle112"/>
	<circle cx="296.94" cy="340.215" r="4" fill="#0" id="circle113"/>
	<circle cx="296.94" cy="356.859" r="4" fill="#0" id="circle114"/>
	<circle cx="296.94" cy="395.141" r="4" fill="#0" id="circle115"/>
	<circle cx="296.94" cy="411.785" r="4" fill="#0" id="circle116"/>
	<circle cx="296.94" cy="671.436" r="4" fill="#0" id="circle117"/>
	<circle cx="296.94" cy="703.06" r="4" fill="#0" id="circle118"/>
	<circle cx="296.94" cy="719.705" r="4" fill="#0" id="circle119"/>
	<circle cx="303.597" cy="919.436" r="4" fill="#0" id="circle120"/>
	<circle cx="305.262" cy="426.765" r="4" fill="#0" id="circle121"/>
	<circle cx="310.255" cy="659.785" r="4" fill="#0" id="circle122"/>
	<circle cx="310.255" cy="976.027" r="4" fill="#0" id="circle123"/>
	<circle cx="313.584" cy="441.745" r="4" fill="#0" id="circle124"/>
	<circle cx="313.584" cy="458.389" r="4" fill="#0" id="circle125"/>
	<circle cx="318.577" cy="643.141" r="4" fill="#0" id="circle126"/>
	<circle cx="320.242" cy="922.765" r="4" fill="#0" id="circle127"/>
	<circle cx="321.906" cy="473.369" r="4" fill="#0" id="circle128"/>
	<circle cx="326.899" cy="626.497" r="4" fill="#0" id="circle129"/>
	<circle cx="326.899" cy="967.705" r="4" fill="#0" id="circle130"/>
	<circle cx="330.228" cy="488.349" r="4" fill="#0" id="circle131"/>
	<circle cx="330.228" cy="504.993" r="4" fill="#0" id="circle132"/>
	<circle cx="330.228" cy="521.638" r="4" fill="#0" id="circle133"/>
	<circle cx="330.228" cy="604.859" r="4" fill="#0" id="circle134"/>
	<circle cx="330.228" cy="936.081" r="4" fill="#0" id="circle135"/>
	<circle cx="338.55" cy="536.617" r="4" fill="#0" id="circle136"/>
	<circle cx="338.55" cy="553.262" r="4" fill="#0" id="circle137"/>
	<circle cx="338.55" cy="588.215" r="4" fill="#0" id="circle138"/>
	<circle cx="346.872" cy="568.242" r="4" fill="#0" id="circle139"/>
	</g>
</svg>