<?xml version="1.0" encoding="UTF-8" standalone="no"?>
<!-- Created with CurveBenchmark -->
<svg
	xmlns:dc="http://purl.org/dc/elements/1.1/"
	xmlns:cc="http://creativecommons.org/ns#"
	xmlns:rdf="http://www.w3.org/1999/02/22-rdf-syntax-ns#"
	xmlns:svg="http://www.w3.org/2000/svg"
	xmlns="http://www.w3.org/2000/svg"
	xmlns:sodipodi="http://sodipodi.sourceforge.net/DTD/sodipodi-0.dtd"
	xmlns:inkscape="http://www.inkscape.org/namespaces/inkscape"
	width="1000"
	height="1000"
	id="svg2"
	version="1.1"
	sodipodi:docname="manifold/gathang-bed335.png.txt">
<defs
	id="defs4" />
<metadata
	id="metadata7">
	<rdf:RDF>
		<cc:Work
			rdf:about="">
			<dc:format>image/svg+xml</dc:format>
			<dc:type
				rdf:resource="http://purl.org/dc/dcmitype/StillImage" />
			<dc:title></dc:title>
		</cc:Work>
	</rdf:RDF>
</metadata>
<g
	inkscape:label="Layer 1"
	inkscape:groupmode="layer"
	id="layer1">
	<path style="fill:none;stroke:red;stroke-width:1px;stroke-linecap:butt;stroke-linejoin:miter;stroke-opacity:1" d="M 195.052,294.252 176.681,297.926 z" id="boundary" inkscape:connector-curvature="0" />
	<path style="fill:none;stroke:red;stroke-width:1px;stroke-linecap:butt;stroke-linejoin:miter;stroke-opacity:1" d="M 176.681,297.926 158.311,297.926 z" id="boundary" inkscape:connector-curvature="0" />
	<path style="fill:none;stroke:red;stroke-width:1px;stroke-linecap:butt;stroke-linejoin:miter;stroke-opacity:1" d="M 158.311,297.926 139.941,301.6 z" id="boundary" inkscape:connector-curvature="0" />
	<path style="fill:none;stroke:red;stroke-width:1px;stroke-linecap:butt;stroke-linejoin:miter;stroke-opacity:1" d="M 139.941,301.6 121.57,301.6 z" id="boundary" inkscape:connector-curvature="0" />
	<path style="fill:none;stroke:red;stroke-width:1px;stroke-linecap:butt;stroke-linejoin:miter;stroke-opacity:1" d="M 103.2,305.274 121.57,301.6 z" id="boundary" inkscape:connector-curvature="0" />
	<path style="fill:none;stroke:red;stroke-width:1px;stroke-linecap:butt;stroke-linejoin:miter;stroke-opacity:1" d="M 195.052,294.252 213.422,294.252 z" id="boundary" inkscape:connector-curvature="0" />
	<path style="fill:none;stroke:red;stroke-width:1px;stroke-linecap:butt;stroke-linejoin:miter;stroke-opacity:1" d="M 264.859,272.207 283.23,264.859 z" id="boundary" inkscape:connector-curvature="0" />
	<path style="fill:none;stroke:red;stroke-width:1px;stroke-linecap:butt;stroke-linejoin:miter;stroke-opacity:1" d="M 250.163,283.23 264.859,272.207 z" id="boundary" inkscape:connector-curvature="0" />
	<path style="fill:none;stroke:red;stroke-width:1px;stroke-linecap:butt;stroke-linejoin:miter;stroke-opacity:1" d="M 231.793,290.578 213.422,294.252 z" id="boundary" inkscape:connector-curvature="0" />
	<path style="fill:none;stroke:red;stroke-width:1px;stroke-linecap:butt;stroke-linejoin:miter;stroke-opacity:1" d="M 250.163,283.23 231.793,290.578 z" id="boundary" inkscape:connector-curvature="0" />
	<path style="fill:none;stroke:red;stroke-width:1px;stroke-linecap:butt;stroke-linejoin:miter;stroke-opacity:1" d="M 4,353.037 15.0222,338.341 z" id="boundary" inkscape:connector-curvature="0" />
	<path style="fill:none;stroke:red;stroke-width:1px;stroke-linecap:butt;stroke-linejoin:miter;stroke-opacity:1" d="M 4,371.407 4,353.037 z" id="boundary" inkscape:connector-curvature="0" />
	<path style="fill:none;stroke:red;stroke-width:1px;stroke-linecap:butt;stroke-linejoin:miter;stroke-opacity:1" d="M 4,371.407 13.1852,387.941 z" id="boundary" inkscape:connector-curvature="0" />
	<path style="fill:none;stroke:red;stroke-width:1px;stroke-linecap:butt;stroke-linejoin:miter;stroke-opacity:1" d="M 22.3704,404.474 13.1852,387.941 z" id="boundary" inkscape:connector-curvature="0" />
	<path style="fill:none;stroke:red;stroke-width:1px;stroke-linecap:butt;stroke-linejoin:miter;stroke-opacity:1" d="M 22.3704,404.474 22.3704,422.844 z" id="boundary" inkscape:connector-curvature="0" />
	<path style="fill:none;stroke:red;stroke-width:1px;stroke-linecap:butt;stroke-linejoin:miter;stroke-opacity:1" d="M 15.0222,338.341 31.5556,329.156 z" id="boundary" inkscape:connector-curvature="0" />
	<path style="fill:none;stroke:red;stroke-width:1px;stroke-linecap:butt;stroke-linejoin:miter;stroke-opacity:1" d="M 84.8296,308.948 103.2,305.274 z" id="boundary" inkscape:connector-curvature="0" />
	<path style="fill:none;stroke:red;stroke-width:1px;stroke-linecap:butt;stroke-linejoin:miter;stroke-opacity:1" d="M 48.0889,319.97 66.4593,316.296 z" id="boundary" inkscape:connector-curvature="0" />
	<path style="fill:none;stroke:red;stroke-width:1px;stroke-linecap:butt;stroke-linejoin:miter;stroke-opacity:1" d="M 84.8296,308.948 66.4593,316.296 z" id="boundary" inkscape:connector-curvature="0" />
	<path style="fill:none;stroke:red;stroke-width:1px;stroke-linecap:butt;stroke-linejoin:miter;stroke-opacity:1" d="M 31.5556,329.156 48.0889,319.97 z" id="boundary" inkscape:connector-curvature="0" />
	<path style="fill:none;stroke:red;stroke-width:1px;stroke-linecap:butt;stroke-linejoin:miter;stroke-opacity:1" d="M 422.844,125.244 437.541,114.222 z" id="boundary" inkscape:connector-curvature="0" />
	<path style="fill:none;stroke:red;stroke-width:1px;stroke-linecap:butt;stroke-linejoin:miter;stroke-opacity:1" d="M 411.822,158.311 411.822,139.941 z" id="boundary" inkscape:connector-curvature="0" />
	<path style="fill:none;stroke:red;stroke-width:1px;stroke-linecap:butt;stroke-linejoin:miter;stroke-opacity:1" d="M 411.822,139.941 422.844,125.244 z" id="boundary" inkscape:connector-curvature="0" />
	<path style="fill:none;stroke:red;stroke-width:1px;stroke-linecap:butt;stroke-linejoin:miter;stroke-opacity:1" d="M 421.007,174.844 411.822,158.311 z" id="boundary" inkscape:connector-curvature="0" />
	<path style="fill:none;stroke:red;stroke-width:1px;stroke-linecap:butt;stroke-linejoin:miter;stroke-opacity:1" d="M 437.541,114.222 455.911,106.874 z" id="boundary" inkscape:connector-curvature="0" />
	<path style="fill:none;stroke:red;stroke-width:1px;stroke-linecap:butt;stroke-linejoin:miter;stroke-opacity:1" d="M 301.6,257.511 283.23,264.859 z" id="boundary" inkscape:connector-curvature="0" />
	<path style="fill:none;stroke:red;stroke-width:1px;stroke-linecap:butt;stroke-linejoin:miter;stroke-opacity:1" d="M 492.652,92.1778 511.022,88.5037 z" id="boundary" inkscape:connector-curvature="0" />
	<path style="fill:none;stroke:red;stroke-width:1px;stroke-linecap:butt;stroke-linejoin:miter;stroke-opacity:1" d="M 529.393,84.8296 511.022,88.5037 z" id="boundary" inkscape:connector-curvature="0" />
	<path style="fill:none;stroke:red;stroke-width:1px;stroke-linecap:butt;stroke-linejoin:miter;stroke-opacity:1" d="M 547.763,77.4815 529.393,84.8296 z" id="boundary" inkscape:connector-curvature="0" />
	<path style="fill:none;stroke:red;stroke-width:1px;stroke-linecap:butt;stroke-linejoin:miter;stroke-opacity:1" d="M 455.911,106.874 474.281,99.5259 z" id="boundary" inkscape:connector-curvature="0" />
	<path style="fill:none;stroke:red;stroke-width:1px;stroke-linecap:butt;stroke-linejoin:miter;stroke-opacity:1" d="M 492.652,92.1778 474.281,99.5259 z" id="boundary" inkscape:connector-curvature="0" />
	<path style="fill:none;stroke:red;stroke-width:1px;stroke-linecap:butt;stroke-linejoin:miter;stroke-opacity:1" d="M 426.519,193.215 421.007,174.844 z" id="boundary" inkscape:connector-curvature="0" />
	<path style="fill:none;stroke:red;stroke-width:1px;stroke-linecap:butt;stroke-linejoin:miter;stroke-opacity:1" d="M 319.97,250.163 338.341,246.489 z" id="boundary" inkscape:connector-curvature="0" />
	<path style="fill:none;stroke:red;stroke-width:1px;stroke-linecap:butt;stroke-linejoin:miter;stroke-opacity:1" d="M 338.341,246.489 354.874,255.674 z" id="boundary" inkscape:connector-curvature="0" />
	<path style="fill:none;stroke:red;stroke-width:1px;stroke-linecap:butt;stroke-linejoin:miter;stroke-opacity:1" d="M 301.6,257.511 319.97,250.163 z" id="boundary" inkscape:connector-curvature="0" />
	<path style="fill:none;stroke:red;stroke-width:1px;stroke-linecap:butt;stroke-linejoin:miter;stroke-opacity:1" d="M 373.244,261.185 354.874,255.674 z" id="boundary" inkscape:connector-curvature="0" />
	<path style="fill:none;stroke:red;stroke-width:1px;stroke-linecap:butt;stroke-linejoin:miter;stroke-opacity:1" d="M 373.244,261.185 389.778,270.37 z" id="boundary" inkscape:connector-curvature="0" />
	<path style="fill:none;stroke:red;stroke-width:1px;stroke-linecap:butt;stroke-linejoin:miter;stroke-opacity:1" d="M 430.193,211.585 430.193,229.956 z" id="boundary" inkscape:connector-curvature="0" />
	<path style="fill:none;stroke:red;stroke-width:1px;stroke-linecap:butt;stroke-linejoin:miter;stroke-opacity:1" d="M 430.193,211.585 426.519,193.215 z" id="boundary" inkscape:connector-curvature="0" />
	<path style="fill:none;stroke:red;stroke-width:1px;stroke-linecap:butt;stroke-linejoin:miter;stroke-opacity:1" d="M 430.193,229.956 419.17,253.837 z" id="boundary" inkscape:connector-curvature="0" />
	<path style="fill:none;stroke:red;stroke-width:1px;stroke-linecap:butt;stroke-linejoin:miter;stroke-opacity:1" d="M 419.17,253.837 408.148,268.533 z" id="boundary" inkscape:connector-curvature="0" />
	<path style="fill:none;stroke:red;stroke-width:1px;stroke-linecap:butt;stroke-linejoin:miter;stroke-opacity:1" d="M 408.148,268.533 389.778,270.37 z" id="boundary" inkscape:connector-curvature="0" />
	<path style="fill:none;stroke:red;stroke-width:1px;stroke-linecap:butt;stroke-linejoin:miter;stroke-opacity:1" d="M 22.3704,422.844 26.0444,441.215 z" id="boundary" inkscape:connector-curvature="0" />
	<path style="fill:none;stroke:red;stroke-width:1px;stroke-linecap:butt;stroke-linejoin:miter;stroke-opacity:1" d="M 26.0444,441.215 26.0444,459.585 z" id="boundary" inkscape:connector-curvature="0" />
	<path style="fill:none;stroke:red;stroke-width:1px;stroke-linecap:butt;stroke-linejoin:miter;stroke-opacity:1" d="M 22.3704,492.652 26.0444,459.585 z" id="boundary" inkscape:connector-curvature="0" />
	<path style="fill:none;stroke:red;stroke-width:1px;stroke-linecap:butt;stroke-linejoin:miter;stroke-opacity:1" d="M 70.1333,505.511 51.763,505.511 z" id="boundary" inkscape:connector-curvature="0" />
	<path style="fill:none;stroke:red;stroke-width:1px;stroke-linecap:butt;stroke-linejoin:miter;stroke-opacity:1" d="M 51.763,505.511 42.5778,522.044 z" id="boundary" inkscape:connector-curvature="0" />
	<path style="fill:none;stroke:red;stroke-width:1px;stroke-linecap:butt;stroke-linejoin:miter;stroke-opacity:1" d="M 106.874,509.185 88.5037,505.511 z" id="boundary" inkscape:connector-curvature="0" />
	<path style="fill:none;stroke:red;stroke-width:1px;stroke-linecap:butt;stroke-linejoin:miter;stroke-opacity:1" d="M 22.3704,492.652 15.0222,514.696 z" id="boundary" inkscape:connector-curvature="0" />
	<path style="fill:none;stroke:red;stroke-width:1px;stroke-linecap:butt;stroke-linejoin:miter;stroke-opacity:1" d="M 158.311,509.185 176.681,501.837 z" id="boundary" inkscape:connector-curvature="0" />
	<path style="fill:none;stroke:red;stroke-width:1px;stroke-linecap:butt;stroke-linejoin:miter;stroke-opacity:1" d="M 176.681,501.837 195.052,501.837 z" id="boundary" inkscape:connector-curvature="0" />
	<path style="fill:none;stroke:red;stroke-width:1px;stroke-linecap:butt;stroke-linejoin:miter;stroke-opacity:1" d="M 70.1333,505.511 88.5037,505.511 z" id="boundary" inkscape:connector-curvature="0" />
	<path style="fill:none;stroke:red;stroke-width:1px;stroke-linecap:butt;stroke-linejoin:miter;stroke-opacity:1" d="M 195.052,501.837 213.422,505.511 z" id="boundary" inkscape:connector-curvature="0" />
	<path style="fill:none;stroke:red;stroke-width:1px;stroke-linecap:butt;stroke-linejoin:miter;stroke-opacity:1" d="M 15.0222,533.067 15.0222,514.696 z" id="boundary" inkscape:connector-curvature="0" />
	<path style="fill:none;stroke:red;stroke-width:1px;stroke-linecap:butt;stroke-linejoin:miter;stroke-opacity:1" d="M 15.0222,558.785 15.0222,533.067 z" id="boundary" inkscape:connector-curvature="0" />
	<path style="fill:none;stroke:red;stroke-width:1px;stroke-linecap:butt;stroke-linejoin:miter;stroke-opacity:1" d="M 29.7185,571.644 15.0222,558.785 z" id="boundary" inkscape:connector-curvature="0" />
	<path style="fill:none;stroke:red;stroke-width:1px;stroke-linecap:butt;stroke-linejoin:miter;stroke-opacity:1" d="M 42.5778,540.415 29.7185,571.644 z" id="boundary" inkscape:connector-curvature="0" />
	<path style="fill:none;stroke:red;stroke-width:1px;stroke-linecap:butt;stroke-linejoin:miter;stroke-opacity:1" d="M 42.5778,522.044 42.5778,540.415 z" id="boundary" inkscape:connector-curvature="0" />
	<path style="fill:none;stroke:red;stroke-width:1px;stroke-linecap:butt;stroke-linejoin:miter;stroke-opacity:1" d="M 125.244,516.533 106.874,509.185 z" id="boundary" inkscape:connector-curvature="0" />
	<path style="fill:none;stroke:red;stroke-width:1px;stroke-linecap:butt;stroke-linejoin:miter;stroke-opacity:1" d="M 125.244,516.533 143.615,520.207 z" id="boundary" inkscape:connector-curvature="0" />
	<path style="fill:none;stroke:red;stroke-width:1px;stroke-linecap:butt;stroke-linejoin:miter;stroke-opacity:1" d="M 158.311,509.185 143.615,520.207 z" id="boundary" inkscape:connector-curvature="0" />
	<path style="fill:none;stroke:red;stroke-width:1px;stroke-linecap:butt;stroke-linejoin:miter;stroke-opacity:1" d="M 213.422,505.511 231.793,512.859 z" id="boundary" inkscape:connector-curvature="0" />
	<path style="fill:none;stroke:red;stroke-width:1px;stroke-linecap:butt;stroke-linejoin:miter;stroke-opacity:1" d="M 231.793,512.859 250.163,520.207 z" id="boundary" inkscape:connector-curvature="0" />
	<path style="fill:none;stroke:red;stroke-width:1px;stroke-linecap:butt;stroke-linejoin:miter;stroke-opacity:1" d="M 268.533,527.556 250.163,520.207 z" id="boundary" inkscape:connector-curvature="0" />
	<path style="fill:none;stroke:red;stroke-width:1px;stroke-linecap:butt;stroke-linejoin:miter;stroke-opacity:1" d="M 415.496,529.393 397.126,523.881 z" id="boundary" inkscape:connector-curvature="0" />
	<path style="fill:none;stroke:red;stroke-width:1px;stroke-linecap:butt;stroke-linejoin:miter;stroke-opacity:1" d="M 448.563,505.511 439.378,522.044 z" id="boundary" inkscape:connector-curvature="0" />
	<path style="fill:none;stroke:red;stroke-width:1px;stroke-linecap:butt;stroke-linejoin:miter;stroke-opacity:1" d="M 439.378,522.044 415.496,529.393 z" id="boundary" inkscape:connector-curvature="0" />
	<path style="fill:none;stroke:red;stroke-width:1px;stroke-linecap:butt;stroke-linejoin:miter;stroke-opacity:1" d="M 466.933,501.837 485.304,501.837 z" id="boundary" inkscape:connector-curvature="0" />
	<path style="fill:none;stroke:red;stroke-width:1px;stroke-linecap:butt;stroke-linejoin:miter;stroke-opacity:1" d="M 466.933,501.837 448.563,505.511 z" id="boundary" inkscape:connector-curvature="0" />
	<path style="fill:none;stroke:red;stroke-width:1px;stroke-linecap:butt;stroke-linejoin:miter;stroke-opacity:1" d="M 485.304,501.837 503.674,505.511 z" id="boundary" inkscape:connector-curvature="0" />
	<path style="fill:none;stroke:red;stroke-width:1px;stroke-linecap:butt;stroke-linejoin:miter;stroke-opacity:1" d="M 503.674,505.511 518.37,516.533 z" id="boundary" inkscape:connector-curvature="0" />
	<path style="fill:none;stroke:red;stroke-width:1px;stroke-linecap:butt;stroke-linejoin:miter;stroke-opacity:1" d="M 536.741,516.533 518.37,516.533 z" id="boundary" inkscape:connector-curvature="0" />
	<path style="fill:none;stroke:red;stroke-width:1px;stroke-linecap:butt;stroke-linejoin:miter;stroke-opacity:1" d="M 305.274,536.741 286.904,533.067 z" id="boundary" inkscape:connector-curvature="0" />
	<path style="fill:none;stroke:red;stroke-width:1px;stroke-linecap:butt;stroke-linejoin:miter;stroke-opacity:1" d="M 286.904,533.067 268.533,527.556 z" id="boundary" inkscape:connector-curvature="0" />
	<path style="fill:none;stroke:red;stroke-width:1px;stroke-linecap:butt;stroke-linejoin:miter;stroke-opacity:1" d="M 323.644,538.578 305.274,536.741 z" id="boundary" inkscape:connector-curvature="0" />
	<path style="fill:none;stroke:red;stroke-width:1px;stroke-linecap:butt;stroke-linejoin:miter;stroke-opacity:1" d="M 360.385,534.904 342.015,538.578 z" id="boundary" inkscape:connector-curvature="0" />
	<path style="fill:none;stroke:red;stroke-width:1px;stroke-linecap:butt;stroke-linejoin:miter;stroke-opacity:1" d="M 342.015,538.578 323.644,538.578 z" id="boundary" inkscape:connector-curvature="0" />
	<path style="fill:none;stroke:red;stroke-width:1px;stroke-linecap:butt;stroke-linejoin:miter;stroke-opacity:1" d="M 378.756,531.23 397.126,523.881 z" id="boundary" inkscape:connector-curvature="0" />
	<path style="fill:none;stroke:red;stroke-width:1px;stroke-linecap:butt;stroke-linejoin:miter;stroke-opacity:1" d="M 378.756,531.23 360.385,534.904 z" id="boundary" inkscape:connector-curvature="0" />
	<path style="fill:none;stroke:red;stroke-width:1px;stroke-linecap:butt;stroke-linejoin:miter;stroke-opacity:1" d="M 680.03,7.67407 698.4,4 z" id="boundary" inkscape:connector-curvature="0" />
	<path style="fill:none;stroke:red;stroke-width:1px;stroke-linecap:butt;stroke-linejoin:miter;stroke-opacity:1" d="M 665.333,26.0444 680.03,7.67407 z" id="boundary" inkscape:connector-curvature="0" />
	<path style="fill:none;stroke:red;stroke-width:1px;stroke-linecap:butt;stroke-linejoin:miter;stroke-opacity:1" d="M 665.333,26.0444 648.8,38.9037 z" id="boundary" inkscape:connector-curvature="0" />
	<path style="fill:none;stroke:red;stroke-width:1px;stroke-linecap:butt;stroke-linejoin:miter;stroke-opacity:1" d="M 648.8,38.9037 630.43,46.2519 z" id="boundary" inkscape:connector-curvature="0" />
	<path style="fill:none;stroke:red;stroke-width:1px;stroke-linecap:butt;stroke-linejoin:miter;stroke-opacity:1" d="M 729.63,20.5333 738.815,37.0667 z" id="boundary" inkscape:connector-curvature="0" />
	<path style="fill:none;stroke:red;stroke-width:1px;stroke-linecap:butt;stroke-linejoin:miter;stroke-opacity:1" d="M 729.63,20.5333 716.77,5.83704 z" id="boundary" inkscape:connector-curvature="0" />
	<path style="fill:none;stroke:red;stroke-width:1px;stroke-linecap:butt;stroke-linejoin:miter;stroke-opacity:1" d="M 757.185,42.5778 738.815,37.0667 z" id="boundary" inkscape:connector-curvature="0" />
	<path style="fill:none;stroke:red;stroke-width:1px;stroke-linecap:butt;stroke-linejoin:miter;stroke-opacity:1" d="M 775.556,48.0889 757.185,42.5778 z" id="boundary" inkscape:connector-curvature="0" />
	<path style="fill:none;stroke:red;stroke-width:1px;stroke-linecap:butt;stroke-linejoin:miter;stroke-opacity:1" d="M 698.4,4 716.77,5.83704 z" id="boundary" inkscape:connector-curvature="0" />
	<path style="fill:none;stroke:red;stroke-width:1px;stroke-linecap:butt;stroke-linejoin:miter;stroke-opacity:1" d="M 775.556,48.0889 790.252,60.9481 z" id="boundary" inkscape:connector-curvature="0" />
	<path style="fill:none;stroke:red;stroke-width:1px;stroke-linecap:butt;stroke-linejoin:miter;stroke-opacity:1" d="M 613.896,55.437 602.874,70.1333 z" id="boundary" inkscape:connector-curvature="0" />
	<path style="fill:none;stroke:red;stroke-width:1px;stroke-linecap:butt;stroke-linejoin:miter;stroke-opacity:1" d="M 602.874,70.1333 584.504,70.1333 z" id="boundary" inkscape:connector-curvature="0" />
	<path style="fill:none;stroke:red;stroke-width:1px;stroke-linecap:butt;stroke-linejoin:miter;stroke-opacity:1" d="M 584.504,70.1333 566.133,73.8074 z" id="boundary" inkscape:connector-curvature="0" />
	<path style="fill:none;stroke:red;stroke-width:1px;stroke-linecap:butt;stroke-linejoin:miter;stroke-opacity:1" d="M 566.133,73.8074 547.763,77.4815 z" id="boundary" inkscape:connector-curvature="0" />
	<path style="fill:none;stroke:red;stroke-width:1px;stroke-linecap:butt;stroke-linejoin:miter;stroke-opacity:1" d="M 613.896,55.437 630.43,46.2519 z" id="boundary" inkscape:connector-curvature="0" />
	<path style="fill:none;stroke:red;stroke-width:1px;stroke-linecap:butt;stroke-linejoin:miter;stroke-opacity:1" d="M 808.622,68.2963 790.252,60.9481 z" id="boundary" inkscape:connector-curvature="0" />
	<path style="fill:none;stroke:red;stroke-width:1px;stroke-linecap:butt;stroke-linejoin:miter;stroke-opacity:1" d="M 826.993,70.1333 845.363,73.8074 z" id="boundary" inkscape:connector-curvature="0" />
	<path style="fill:none;stroke:red;stroke-width:1px;stroke-linecap:butt;stroke-linejoin:miter;stroke-opacity:1" d="M 826.993,70.1333 808.622,68.2963 z" id="boundary" inkscape:connector-curvature="0" />
	<path style="fill:none;stroke:red;stroke-width:1px;stroke-linecap:butt;stroke-linejoin:miter;stroke-opacity:1" d="M 863.733,79.3185 845.363,73.8074 z" id="boundary" inkscape:connector-curvature="0" />
	<path style="fill:none;stroke:red;stroke-width:1px;stroke-linecap:butt;stroke-linejoin:miter;stroke-opacity:1" d="M 882.104,84.8296 900.474,88.5037 z" id="boundary" inkscape:connector-curvature="0" />
	<path style="fill:none;stroke:red;stroke-width:1px;stroke-linecap:butt;stroke-linejoin:miter;stroke-opacity:1" d="M 882.104,84.8296 863.733,79.3185 z" id="boundary" inkscape:connector-curvature="0" />
	<path style="fill:none;stroke:red;stroke-width:1px;stroke-linecap:butt;stroke-linejoin:miter;stroke-opacity:1" d="M 918.844,94.0148 937.215,99.5259 z" id="boundary" inkscape:connector-curvature="0" />
	<path style="fill:none;stroke:red;stroke-width:1px;stroke-linecap:butt;stroke-linejoin:miter;stroke-opacity:1" d="M 955.585,106.874 937.215,99.5259 z" id="boundary" inkscape:connector-curvature="0" />
	<path style="fill:none;stroke:red;stroke-width:1px;stroke-linecap:butt;stroke-linejoin:miter;stroke-opacity:1" d="M 900.474,88.5037 918.844,94.0148 z" id="boundary" inkscape:connector-curvature="0" />
	<path style="fill:none;stroke:red;stroke-width:1px;stroke-linecap:butt;stroke-linejoin:miter;stroke-opacity:1" d="M 972.119,116.059 986.815,127.081 z" id="boundary" inkscape:connector-curvature="0" />
	<path style="fill:none;stroke:red;stroke-width:1px;stroke-linecap:butt;stroke-linejoin:miter;stroke-opacity:1" d="M 994.163,161.985 983.141,180.356 z" id="boundary" inkscape:connector-curvature="0" />
	<path style="fill:none;stroke:red;stroke-width:1px;stroke-linecap:butt;stroke-linejoin:miter;stroke-opacity:1" d="M 986.815,127.081 996,143.615 z" id="boundary" inkscape:connector-curvature="0" />
	<path style="fill:none;stroke:red;stroke-width:1px;stroke-linecap:butt;stroke-linejoin:miter;stroke-opacity:1" d="M 996,143.615 994.163,161.985 z" id="boundary" inkscape:connector-curvature="0" />
	<path style="fill:none;stroke:red;stroke-width:1px;stroke-linecap:butt;stroke-linejoin:miter;stroke-opacity:1" d="M 983.141,198.726 983.141,180.356 z" id="boundary" inkscape:connector-curvature="0" />
	<path style="fill:none;stroke:red;stroke-width:1px;stroke-linecap:butt;stroke-linejoin:miter;stroke-opacity:1" d="M 955.585,106.874 972.119,116.059 z" id="boundary" inkscape:connector-curvature="0" />
	<path style="fill:none;stroke:red;stroke-width:1px;stroke-linecap:butt;stroke-linejoin:miter;stroke-opacity:1" d="M 979.467,217.096 979.467,235.467 z" id="boundary" inkscape:connector-curvature="0" />
	<path style="fill:none;stroke:red;stroke-width:1px;stroke-linecap:butt;stroke-linejoin:miter;stroke-opacity:1" d="M 979.467,217.096 983.141,198.726 z" id="boundary" inkscape:connector-curvature="0" />
	<path style="fill:none;stroke:red;stroke-width:1px;stroke-linecap:butt;stroke-linejoin:miter;stroke-opacity:1" d="M 979.467,253.837 979.467,272.207 z" id="boundary" inkscape:connector-curvature="0" />
	<path style="fill:none;stroke:red;stroke-width:1px;stroke-linecap:butt;stroke-linejoin:miter;stroke-opacity:1" d="M 979.467,290.578 979.467,272.207 z" id="boundary" inkscape:connector-curvature="0" />
	<path style="fill:none;stroke:red;stroke-width:1px;stroke-linecap:butt;stroke-linejoin:miter;stroke-opacity:1" d="M 983.141,308.948 979.467,290.578 z" id="boundary" inkscape:connector-curvature="0" />
	<path style="fill:none;stroke:red;stroke-width:1px;stroke-linecap:butt;stroke-linejoin:miter;stroke-opacity:1" d="M 979.467,235.467 979.467,253.837 z" id="boundary" inkscape:connector-curvature="0" />
	<path style="fill:none;stroke:red;stroke-width:1px;stroke-linecap:butt;stroke-linejoin:miter;stroke-opacity:1" d="M 984.978,327.319 983.141,308.948 z" id="boundary" inkscape:connector-curvature="0" />
	<path style="fill:none;stroke:red;stroke-width:1px;stroke-linecap:butt;stroke-linejoin:miter;stroke-opacity:1" d="M 986.815,345.689 990.489,364.059 z" id="boundary" inkscape:connector-curvature="0" />
	<path style="fill:none;stroke:red;stroke-width:1px;stroke-linecap:butt;stroke-linejoin:miter;stroke-opacity:1" d="M 990.489,364.059 990.489,382.43 z" id="boundary" inkscape:connector-curvature="0" />
	<path style="fill:none;stroke:red;stroke-width:1px;stroke-linecap:butt;stroke-linejoin:miter;stroke-opacity:1" d="M 986.815,345.689 984.978,327.319 z" id="boundary" inkscape:connector-curvature="0" />
	<path style="fill:none;stroke:red;stroke-width:1px;stroke-linecap:butt;stroke-linejoin:miter;stroke-opacity:1" d="M 992.326,400.8 990.489,382.43 z" id="boundary" inkscape:connector-curvature="0" />
	<path style="fill:none;stroke:red;stroke-width:1px;stroke-linecap:butt;stroke-linejoin:miter;stroke-opacity:1" d="M 656.148,500 674.519,498.163 z" id="boundary" inkscape:connector-curvature="0" />
	<path style="fill:none;stroke:red;stroke-width:1px;stroke-linecap:butt;stroke-linejoin:miter;stroke-opacity:1" d="M 656.148,518.37 656.148,500 z" id="boundary" inkscape:connector-curvature="0" />
	<path style="fill:none;stroke:red;stroke-width:1px;stroke-linecap:butt;stroke-linejoin:miter;stroke-opacity:1" d="M 692.889,498.163 674.519,498.163 z" id="boundary" inkscape:connector-curvature="0" />
	<path style="fill:none;stroke:red;stroke-width:1px;stroke-linecap:butt;stroke-linejoin:miter;stroke-opacity:1" d="M 591.852,505.511 573.481,505.511 z" id="boundary" inkscape:connector-curvature="0" />
	<path style="fill:none;stroke:red;stroke-width:1px;stroke-linecap:butt;stroke-linejoin:miter;stroke-opacity:1" d="M 692.889,498.163 711.259,498.163 z" id="boundary" inkscape:connector-curvature="0" />
	<path style="fill:none;stroke:red;stroke-width:1px;stroke-linecap:butt;stroke-linejoin:miter;stroke-opacity:1" d="M 711.259,498.163 729.63,498.163 z" id="boundary" inkscape:connector-curvature="0" />
	<path style="fill:none;stroke:red;stroke-width:1px;stroke-linecap:butt;stroke-linejoin:miter;stroke-opacity:1" d="M 748,498.163 729.63,498.163 z" id="boundary" inkscape:connector-curvature="0" />
	<path style="fill:none;stroke:red;stroke-width:1px;stroke-linecap:butt;stroke-linejoin:miter;stroke-opacity:1" d="M 748,498.163 766.37,498.163 z" id="boundary" inkscape:connector-curvature="0" />
	<path style="fill:none;stroke:red;stroke-width:1px;stroke-linecap:butt;stroke-linejoin:miter;stroke-opacity:1" d="M 784.741,498.163 766.37,498.163 z" id="boundary" inkscape:connector-curvature="0" />
	<path style="fill:none;stroke:red;stroke-width:1px;stroke-linecap:butt;stroke-linejoin:miter;stroke-opacity:1" d="M 803.111,498.163 784.741,498.163 z" id="boundary" inkscape:connector-curvature="0" />
	<path style="fill:none;stroke:red;stroke-width:1px;stroke-linecap:butt;stroke-linejoin:miter;stroke-opacity:1" d="M 591.852,505.511 610.222,505.511 z" id="boundary" inkscape:connector-curvature="0" />
	<path style="fill:none;stroke:red;stroke-width:1px;stroke-linecap:butt;stroke-linejoin:miter;stroke-opacity:1" d="M 536.741,516.533 555.111,512.859 z" id="boundary" inkscape:connector-curvature="0" />
	<path style="fill:none;stroke:red;stroke-width:1px;stroke-linecap:butt;stroke-linejoin:miter;stroke-opacity:1" d="M 555.111,512.859 573.481,505.511 z" id="boundary" inkscape:connector-curvature="0" />
	<path style="fill:none;stroke:red;stroke-width:1px;stroke-linecap:butt;stroke-linejoin:miter;stroke-opacity:1" d="M 610.222,505.511 624.919,518.37 z" id="boundary" inkscape:connector-curvature="0" />
	<path style="fill:none;stroke:red;stroke-width:1px;stroke-linecap:butt;stroke-linejoin:miter;stroke-opacity:1" d="M 624.919,518.37 624.919,536.741 z" id="boundary" inkscape:connector-curvature="0" />
	<path style="fill:none;stroke:red;stroke-width:1px;stroke-linecap:butt;stroke-linejoin:miter;stroke-opacity:1" d="M 656.148,518.37 652.474,544.089 z" id="boundary" inkscape:connector-curvature="0" />
	<path style="fill:none;stroke:red;stroke-width:1px;stroke-linecap:butt;stroke-linejoin:miter;stroke-opacity:1" d="M 652.474,544.089 637.778,571.644 z" id="boundary" inkscape:connector-curvature="0" />
	<path style="fill:none;stroke:red;stroke-width:1px;stroke-linecap:butt;stroke-linejoin:miter;stroke-opacity:1" d="M 637.778,571.644 628.593,555.111 z" id="boundary" inkscape:connector-curvature="0" />
	<path style="fill:none;stroke:red;stroke-width:1px;stroke-linecap:butt;stroke-linejoin:miter;stroke-opacity:1" d="M 628.593,555.111 624.919,536.741 z" id="boundary" inkscape:connector-curvature="0" />
	<path style="fill:none;stroke:red;stroke-width:1px;stroke-linecap:butt;stroke-linejoin:miter;stroke-opacity:1" d="M 858.222,498.163 839.852,498.163 z" id="boundary" inkscape:connector-curvature="0" />
	<path style="fill:none;stroke:red;stroke-width:1px;stroke-linecap:butt;stroke-linejoin:miter;stroke-opacity:1" d="M 839.852,498.163 821.481,498.163 z" id="boundary" inkscape:connector-curvature="0" />
	<path style="fill:none;stroke:red;stroke-width:1px;stroke-linecap:butt;stroke-linejoin:miter;stroke-opacity:1" d="M 876.593,498.163 858.222,498.163 z" id="boundary" inkscape:connector-curvature="0" />
	<path style="fill:none;stroke:red;stroke-width:1px;stroke-linecap:butt;stroke-linejoin:miter;stroke-opacity:1" d="M 992.326,400.8 994.163,419.17 z" id="boundary" inkscape:connector-curvature="0" />
	<path style="fill:none;stroke:red;stroke-width:1px;stroke-linecap:butt;stroke-linejoin:miter;stroke-opacity:1" d="M 950.074,494.489 931.704,498.163 z" id="boundary" inkscape:connector-curvature="0" />
	<path style="fill:none;stroke:red;stroke-width:1px;stroke-linecap:butt;stroke-linejoin:miter;stroke-opacity:1" d="M 994.163,419.17 994.163,437.541 z" id="boundary" inkscape:connector-curvature="0" />
	<path style="fill:none;stroke:red;stroke-width:1px;stroke-linecap:butt;stroke-linejoin:miter;stroke-opacity:1" d="M 994.163,455.911 990.489,485.304 z" id="boundary" inkscape:connector-curvature="0" />
	<path style="fill:none;stroke:red;stroke-width:1px;stroke-linecap:butt;stroke-linejoin:miter;stroke-opacity:1" d="M 994.163,437.541 994.163,455.911 z" id="boundary" inkscape:connector-curvature="0" />
	<path style="fill:none;stroke:red;stroke-width:1px;stroke-linecap:butt;stroke-linejoin:miter;stroke-opacity:1" d="M 990.489,503.674 990.489,485.304 z" id="boundary" inkscape:connector-curvature="0" />
	<path style="fill:none;stroke:red;stroke-width:1px;stroke-linecap:butt;stroke-linejoin:miter;stroke-opacity:1" d="M 894.963,498.163 876.593,498.163 z" id="boundary" inkscape:connector-curvature="0" />
	<path style="fill:none;stroke:red;stroke-width:1px;stroke-linecap:butt;stroke-linejoin:miter;stroke-opacity:1" d="M 821.481,498.163 803.111,498.163 z" id="boundary" inkscape:connector-curvature="0" />
	<path style="fill:none;stroke:red;stroke-width:1px;stroke-linecap:butt;stroke-linejoin:miter;stroke-opacity:1" d="M 962.933,509.185 950.074,494.489 z" id="boundary" inkscape:connector-curvature="0" />
	<path style="fill:none;stroke:red;stroke-width:1px;stroke-linecap:butt;stroke-linejoin:miter;stroke-opacity:1" d="M 894.963,498.163 913.333,498.163 z" id="boundary" inkscape:connector-curvature="0" />
	<path style="fill:none;stroke:red;stroke-width:1px;stroke-linecap:butt;stroke-linejoin:miter;stroke-opacity:1" d="M 962.933,509.185 962.933,527.556 z" id="boundary" inkscape:connector-curvature="0" />
	<path style="fill:none;stroke:red;stroke-width:1px;stroke-linecap:butt;stroke-linejoin:miter;stroke-opacity:1" d="M 913.333,498.163 931.704,498.163 z" id="boundary" inkscape:connector-curvature="0" />
	<path style="fill:none;stroke:red;stroke-width:1px;stroke-linecap:butt;stroke-linejoin:miter;stroke-opacity:1" d="M 962.933,527.556 966.607,545.926 z" id="boundary" inkscape:connector-curvature="0" />
	<path style="fill:none;stroke:red;stroke-width:1px;stroke-linecap:butt;stroke-linejoin:miter;stroke-opacity:1" d="M 990.489,522.044 986.815,547.763 z" id="boundary" inkscape:connector-curvature="0" />
	<path style="fill:none;stroke:red;stroke-width:1px;stroke-linecap:butt;stroke-linejoin:miter;stroke-opacity:1" d="M 990.489,503.674 990.489,522.044 z" id="boundary" inkscape:connector-curvature="0" />
	<path style="fill:none;stroke:red;stroke-width:1px;stroke-linecap:butt;stroke-linejoin:miter;stroke-opacity:1" d="M 986.815,547.763 984.978,567.97 z" id="boundary" inkscape:connector-curvature="0" />
	<path style="fill:none;stroke:red;stroke-width:1px;stroke-linecap:butt;stroke-linejoin:miter;stroke-opacity:1" d="M 984.978,567.97 966.607,564.296 z" id="boundary" inkscape:connector-curvature="0" />
	<path style="fill:none;stroke:red;stroke-width:1px;stroke-linecap:butt;stroke-linejoin:miter;stroke-opacity:1" d="M 966.607,564.296 966.607,545.926 z" id="boundary" inkscape:connector-curvature="0" />
	<circle cx="4" cy="353.037" r="4" fill="#0" id="circle0"/>
	<circle cx="4" cy="371.407" r="4" fill="#0" id="circle1"/>
	<circle cx="13.1852" cy="387.941" r="4" fill="#0" id="circle2"/>
	<circle cx="15.0222" cy="338.341" r="4" fill="#0" id="circle3"/>
	<circle cx="15.0222" cy="514.696" r="4" fill="#0" id="circle4"/>
	<circle cx="15.0222" cy="533.067" r="4" fill="#0" id="circle5"/>
	<circle cx="15.0222" cy="558.785" r="4" fill="#0" id="circle6"/>
	<circle cx="22.3704" cy="404.474" r="4" fill="#0" id="circle7"/>
	<circle cx="22.3704" cy="422.844" r="4" fill="#0" id="circle8"/>
	<circle cx="22.3704" cy="492.652" r="4" fill="#0" id="circle9"/>
	<circle cx="26.0444" cy="441.215" r="4" fill="#0" id="circle10"/>
	<circle cx="26.0444" cy="459.585" r="4" fill="#0" id="circle11"/>
	<circle cx="29.7185" cy="571.644" r="4" fill="#0" id="circle12"/>
	<circle cx="31.5556" cy="329.156" r="4" fill="#0" id="circle13"/>
	<circle cx="42.5778" cy="522.044" r="4" fill="#0" id="circle14"/>
	<circle cx="42.5778" cy="540.415" r="4" fill="#0" id="circle15"/>
	<circle cx="48.0889" cy="319.97" r="4" fill="#0" id="circle16"/>
	<circle cx="51.763" cy="505.511" r="4" fill="#0" id="circle17"/>
	<circle cx="66.4593" cy="316.296" r="4" fill="#0" id="circle18"/>
	<circle cx="70.1333" cy="505.511" r="4" fill="#0" id="circle19"/>
	<circle cx="84.8296" cy="308.948" r="4" fill="#0" id="circle20"/>
	<circle cx="88.5037" cy="505.511" r="4" fill="#0" id="circle21"/>
	<circle cx="103.2" cy="305.274" r="4" fill="#0" id="circle22"/>
	<circle cx="106.874" cy="509.185" r="4" fill="#0" id="circle23"/>
	<circle cx="121.57" cy="301.6" r="4" fill="#0" id="circle24"/>
	<circle cx="125.244" cy="516.533" r="4" fill="#0" id="circle25"/>
	<circle cx="139.941" cy="301.6" r="4" fill="#0" id="circle26"/>
	<circle cx="143.615" cy="520.207" r="4" fill="#0" id="circle27"/>
	<circle cx="158.311" cy="297.926" r="4" fill="#0" id="circle28"/>
	<circle cx="158.311" cy="509.185" r="4" fill="#0" id="circle29"/>
	<circle cx="176.681" cy="297.926" r="4" fill="#0" id="circle30"/>
	<circle cx="176.681" cy="501.837" r="4" fill="#0" id="circle31"/>
	<circle cx="195.052" cy="294.252" r="4" fill="#0" id="circle32"/>
	<circle cx="195.052" cy="501.837" r="4" fill="#0" id="circle33"/>
	<circle cx="213.422" cy="294.252" r="4" fill="#0" id="circle34"/>
	<circle cx="213.422" cy="505.511" r="4" fill="#0" id="circle35"/>
	<circle cx="231.793" cy="290.578" r="4" fill="#0" id="circle36"/>
	<circle cx="231.793" cy="512.859" r="4" fill="#0" id="circle37"/>
	<circle cx="250.163" cy="283.23" r="4" fill="#0" id="circle38"/>
	<circle cx="250.163" cy="520.207" r="4" fill="#0" id="circle39"/>
	<circle cx="264.859" cy="272.207" r="4" fill="#0" id="circle40"/>
	<circle cx="268.533" cy="527.556" r="4" fill="#0" id="circle41"/>
	<circle cx="283.23" cy="264.859" r="4" fill="#0" id="circle42"/>
	<circle cx="286.904" cy="533.067" r="4" fill="#0" id="circle43"/>
	<circle cx="301.6" cy="257.511" r="4" fill="#0" id="circle44"/>
	<circle cx="305.274" cy="536.741" r="4" fill="#0" id="circle45"/>
	<circle cx="319.97" cy="250.163" r="4" fill="#0" id="circle46"/>
	<circle cx="323.644" cy="538.578" r="4" fill="#0" id="circle47"/>
	<circle cx="338.341" cy="246.489" r="4" fill="#0" id="circle48"/>
	<circle cx="342.015" cy="538.578" r="4" fill="#0" id="circle49"/>
	<circle cx="354.874" cy="255.674" r="4" fill="#0" id="circle50"/>
	<circle cx="360.385" cy="534.904" r="4" fill="#0" id="circle51"/>
	<circle cx="373.244" cy="261.185" r="4" fill="#0" id="circle52"/>
	<circle cx="378.756" cy="531.23" r="4" fill="#0" id="circle53"/>
	<circle cx="389.778" cy="270.37" r="4" fill="#0" id="circle54"/>
	<circle cx="397.126" cy="523.881" r="4" fill="#0" id="circle55"/>
	<circle cx="408.148" cy="268.533" r="4" fill="#0" id="circle56"/>
	<circle cx="411.822" cy="139.941" r="4" fill="#0" id="circle57"/>
	<circle cx="411.822" cy="158.311" r="4" fill="#0" id="circle58"/>
	<circle cx="415.496" cy="529.393" r="4" fill="#0" id="circle59"/>
	<circle cx="415.496" cy="555.111" r="4" fill="#0" id="circle60"/>
	<circle cx="419.17" cy="253.837" r="4" fill="#0" id="circle61"/>
	<circle cx="421.007" cy="174.844" r="4" fill="#0" id="circle62"/>
	<circle cx="422.844" cy="125.244" r="4" fill="#0" id="circle63"/>
	<circle cx="424.681" cy="571.644" r="4" fill="#0" id="circle64"/>
	<circle cx="426.519" cy="193.215" r="4" fill="#0" id="circle65"/>
	<circle cx="430.193" cy="211.585" r="4" fill="#0" id="circle66"/>
	<circle cx="430.193" cy="229.956" r="4" fill="#0" id="circle67"/>
	<circle cx="437.541" cy="114.222" r="4" fill="#0" id="circle68"/>
	<circle cx="439.378" cy="522.044" r="4" fill="#0" id="circle69"/>
	<circle cx="439.378" cy="540.415" r="4" fill="#0" id="circle70"/>
	<circle cx="439.378" cy="558.785" r="4" fill="#0" id="circle71"/>
	<circle cx="448.563" cy="505.511" r="4" fill="#0" id="circle72"/>
	<circle cx="455.911" cy="106.874" r="4" fill="#0" id="circle73"/>
	<circle cx="466.933" cy="501.837" r="4" fill="#0" id="circle74"/>
	<circle cx="474.281" cy="99.5259" r="4" fill="#0" id="circle75"/>
	<circle cx="485.304" cy="501.837" r="4" fill="#0" id="circle76"/>
	<circle cx="492.652" cy="92.1778" r="4" fill="#0" id="circle77"/>
	<circle cx="503.674" cy="505.511" r="4" fill="#0" id="circle78"/>
	<circle cx="511.022" cy="88.5037" r="4" fill="#0" id="circle79"/>
	<circle cx="518.37" cy="516.533" r="4" fill="#0" id="circle80"/>
	<circle cx="529.393" cy="84.8296" r="4" fill="#0" id="circle81"/>
	<circle cx="536.741" cy="516.533" r="4" fill="#0" id="circle82"/>
	<circle cx="547.763" cy="77.4815" r="4" fill="#0" id="circle83"/>
	<circle cx="555.111" cy="512.859" r="4" fill="#0" id="circle84"/>
	<circle cx="566.133" cy="73.8074" r="4" fill="#0" id="circle85"/>
	<circle cx="573.481" cy="505.511" r="4" fill="#0" id="circle86"/>
	<circle cx="584.504" cy="70.1333" r="4" fill="#0" id="circle87"/>
	<circle cx="591.852" cy="505.511" r="4" fill="#0" id="circle88"/>
	<circle cx="602.874" cy="70.1333" r="4" fill="#0" id="circle89"/>
	<circle cx="610.222" cy="505.511" r="4" fill="#0" id="circle90"/>
	<circle cx="613.896" cy="55.437" r="4" fill="#0" id="circle91"/>
	<circle cx="624.919" cy="518.37" r="4" fill="#0" id="circle92"/>
	<circle cx="624.919" cy="536.741" r="4" fill="#0" id="circle93"/>
	<circle cx="628.593" cy="555.111" r="4" fill="#0" id="circle94"/>
	<circle cx="630.43" cy="46.2519" r="4" fill="#0" id="circle95"/>
	<circle cx="637.778" cy="571.644" r="4" fill="#0" id="circle96"/>
	<circle cx="648.8" cy="38.9037" r="4" fill="#0" id="circle97"/>
	<circle cx="652.474" cy="544.089" r="4" fill="#0" id="circle98"/>
	<circle cx="656.148" cy="500" r="4" fill="#0" id="circle99"/>
	<circle cx="656.148" cy="518.37" r="4" fill="#0" id="circle100"/>
	<circle cx="665.333" cy="26.0444" r="4" fill="#0" id="circle101"/>
	<circle cx="674.519" cy="498.163" r="4" fill="#0" id="circle102"/>
	<circle cx="680.03" cy="7.67407" r="4" fill="#0" id="circle103"/>
	<circle cx="692.889" cy="498.163" r="4" fill="#0" id="circle104"/>
	<circle cx="698.4" cy="4" r="4" fill="#0" id="circle105"/>
	<circle cx="711.259" cy="498.163" r="4" fill="#0" id="circle106"/>
	<circle cx="716.77" cy="5.83704" r="4" fill="#0" id="circle107"/>
	<circle cx="729.63" cy="20.5333" r="4" fill="#0" id="circle108"/>
	<circle cx="729.63" cy="498.163" r="4" fill="#0" id="circle109"/>
	<circle cx="738.815" cy="37.0667" r="4" fill="#0" id="circle110"/>
	<circle cx="748" cy="498.163" r="4" fill="#0" id="circle111"/>
	<circle cx="757.185" cy="42.5778" r="4" fill="#0" id="circle112"/>
	<circle cx="766.37" cy="498.163" r="4" fill="#0" id="circle113"/>
	<circle cx="775.556" cy="48.0889" r="4" fill="#0" id="circle114"/>
	<circle cx="784.741" cy="498.163" r="4" fill="#0" id="circle115"/>
	<circle cx="790.252" cy="60.9481" r="4" fill="#0" id="circle116"/>
	<circle cx="803.111" cy="498.163" r="4" fill="#0" id="circle117"/>
	<circle cx="808.622" cy="68.2963" r="4" fill="#0" id="circle118"/>
	<circle cx="821.481" cy="498.163" r="4" fill="#0" id="circle119"/>
	<circle cx="826.993" cy="70.1333" r="4" fill="#0" id="circle120"/>
	<circle cx="839.852" cy="498.163" r="4" fill="#0" id="circle121"/>
	<circle cx="845.363" cy="73.8074" r="4" fill="#0" id="circle122"/>
	<circle cx="858.222" cy="498.163" r="4" fill="#0" id="circle123"/>
	<circle cx="863.733" cy="79.3185" r="4" fill="#0" id="circle124"/>
	<circle cx="876.593" cy="498.163" r="4" fill="#0" id="circle125"/>
	<circle cx="882.104" cy="84.8296" r="4" fill="#0" id="circle126"/>
	<circle cx="894.963" cy="498.163" r="4" fill="#0" id="circle127"/>
	<circle cx="900.474" cy="88.5037" r="4" fill="#0" id="circle128"/>
	<circle cx="913.333" cy="498.163" r="4" fill="#0" id="circle129"/>
	<circle cx="918.844" cy="94.0148" r="4" fill="#0" id="circle130"/>
	<circle cx="931.704" cy="498.163" r="4" fill="#0" id="circle131"/>
	<circle cx="937.215" cy="99.5259" r="4" fill="#0" id="circle132"/>
	<circle cx="950.074" cy="494.489" r="4" fill="#0" id="circle133"/>
	<circle cx="955.585" cy="106.874" r="4" fill="#0" id="circle134"/>
	<circle cx="962.933" cy="509.185" r="4" fill="#0" id="circle135"/>
	<circle cx="962.933" cy="527.556" r="4" fill="#0" id="circle136"/>
	<circle cx="966.607" cy="545.926" r="4" fill="#0" id="circle137"/>
	<circle cx="966.607" cy="564.296" r="4" fill="#0" id="circle138"/>
	<circle cx="972.119" cy="116.059" r="4" fill="#0" id="circle139"/>
	<circle cx="979.467" cy="217.096" r="4" fill="#0" id="circle140"/>
	<circle cx="979.467" cy="235.467" r="4" fill="#0" id="circle141"/>
	<circle cx="979.467" cy="253.837" r="4" fill="#0" id="circle142"/>
	<circle cx="979.467" cy="272.207" r="4" fill="#0" id="circle143"/>
	<circle cx="979.467" cy="290.578" r="4" fill="#0" id="circle144"/>
	<circle cx="983.141" cy="180.356" r="4" fill="#0" id="circle145"/>
	<circle cx="983.141" cy="198.726" r="4" fill="#0" id="circle146"/>
	<circle cx="983.141" cy="308.948" r="4" fill="#0" id="circle147"/>
	<circle cx="984.978" cy="327.319" r="4" fill="#0" id="circle148"/>
	<circle cx="984.978" cy="567.97" r="4" fill="#0" id="circle149"/>
	<circle cx="986.815" cy="127.081" r="4" fill="#0" id="circle150"/>
	<circle cx="986.815" cy="345.689" r="4" fill="#0" id="circle151"/>
	<circle cx="986.815" cy="547.763" r="4" fill="#0" id="circle152"/>
	<circle cx="990.489" cy="364.059" r="4" fill="#0" id="circle153"/>
	<circle cx="990.489" cy="382.43" r="4" fill="#0" id="circle154"/>
	<circle cx="990.489" cy="485.304" r="4" fill="#0" id="circle155"/>
	<circle cx="990.489" cy="503.674" r="4" fill="#0" id="circle156"/>
	<circle cx="990.489" cy="522.044" r="4" fill="#0" id="circle157"/>
	<circle cx="992.326" cy="400.8" r="4" fill="#0" id="circle158"/>
	<circle cx="994.163" cy="161.985" r="4" fill="#0" id="circle159"/>
	<circle cx="994.163" cy="419.17" r="4" fill="#0" id="circle160"/>
	<circle cx="994.163" cy="437.541" r="4" fill="#0" id="circle161"/>
	<circle cx="994.163" cy="455.911" r="4" fill="#0" id="circle162"/>
	<circle cx="996" cy="143.615" r="4" fill="#0" id="circle163"/>
	</g>
</svg>