<?xml version="1.0" encoding="UTF-8" standalone="no"?>
<!-- Created with CurveBenchmark -->
<svg
	xmlns:dc="http://purl.org/dc/elements/1.1/"
	xmlns:cc="http://creativecommons.org/ns#"
	xmlns:rdf="http://www.w3.org/1999/02/22-rdf-syntax-ns#"
	xmlns:svg="http://www.w3.org/2000/svg"
	xmlns="http://www.w3.org/2000/svg"
	xmlns:sodipodi="http://sodipodi.sourceforge.net/DTD/sodipodi-0.dtd"
	xmlns:inkscape="http://www.inkscape.org/namespaces/inkscape"
	width="1000"
	height="1000"
	id="svg2"
	version="1.1"
	sodipodi:docname="manifold/gathang-flatfish02.png.txt">
<defs
	id="defs4" />
<metadata
	id="metadata7">
	<rdf:RDF>
		<cc:Work
			rdf:about="">
			<dc:format>image/svg+xml</dc:format>
			<dc:type
				rdf:resource="http://purl.org/dc/dcmitype/StillImage" />
			<dc:title></dc:title>
		</cc:Work>
	</rdf:RDF>
</metadata>
<g
	inkscape:label="Layer 1"
	inkscape:groupmode="layer"
	id="layer1">
	<path style="fill:none;stroke:red;stroke-width:1px;stroke-linecap:butt;stroke-linejoin:miter;stroke-opacity:1" d="M 120.793,129.663 131.142,117.836 z" id="boundary" inkscape:connector-curvature="0" />
	<path style="fill:none;stroke:red;stroke-width:1px;stroke-linecap:butt;stroke-linejoin:miter;stroke-opacity:1" d="M 169.58,92.7034 156.274,100.095 z" id="boundary" inkscape:connector-curvature="0" />
	<path style="fill:none;stroke:red;stroke-width:1px;stroke-linecap:butt;stroke-linejoin:miter;stroke-opacity:1" d="M 131.142,117.836 142.969,107.487 z" id="boundary" inkscape:connector-curvature="0" />
	<path style="fill:none;stroke:red;stroke-width:1px;stroke-linecap:butt;stroke-linejoin:miter;stroke-opacity:1" d="M 142.969,107.487 156.274,100.095 z" id="boundary" inkscape:connector-curvature="0" />
	<path style="fill:none;stroke:red;stroke-width:1px;stroke-linecap:butt;stroke-linejoin:miter;stroke-opacity:1" d="M 196.191,77.9195 209.496,70.5276 z" id="boundary" inkscape:connector-curvature="0" />
	<path style="fill:none;stroke:red;stroke-width:1px;stroke-linecap:butt;stroke-linejoin:miter;stroke-opacity:1" d="M 236.107,55.7437 222.802,63.1356 z" id="boundary" inkscape:connector-curvature="0" />
	<path style="fill:none;stroke:red;stroke-width:1px;stroke-linecap:butt;stroke-linejoin:miter;stroke-opacity:1" d="M 196.191,77.9195 182.885,85.3115 z" id="boundary" inkscape:connector-curvature="0" />
	<path style="fill:none;stroke:red;stroke-width:1px;stroke-linecap:butt;stroke-linejoin:miter;stroke-opacity:1" d="M 169.58,92.7034 182.885,85.3115 z" id="boundary" inkscape:connector-curvature="0" />
	<path style="fill:none;stroke:red;stroke-width:1px;stroke-linecap:butt;stroke-linejoin:miter;stroke-opacity:1" d="M 222.802,63.1356 209.496,70.5276 z" id="boundary" inkscape:connector-curvature="0" />
	<path style="fill:none;stroke:red;stroke-width:1px;stroke-linecap:butt;stroke-linejoin:miter;stroke-opacity:1" d="M 23.2191,174.015 36.5246,166.623 z" id="boundary" inkscape:connector-curvature="0" />
	<path style="fill:none;stroke:red;stroke-width:1px;stroke-linecap:butt;stroke-linejoin:miter;stroke-opacity:1" d="M 49.8301,159.231 36.5246,166.623 z" id="boundary" inkscape:connector-curvature="0" />
	<path style="fill:none;stroke:red;stroke-width:1px;stroke-linecap:butt;stroke-linejoin:miter;stroke-opacity:1" d="M 63.1356,148.882 49.8301,159.231 z" id="boundary" inkscape:connector-curvature="0" />
	<path style="fill:none;stroke:red;stroke-width:1px;stroke-linecap:butt;stroke-linejoin:miter;stroke-opacity:1" d="M 4,208.018 11.392,185.842 z" id="boundary" inkscape:connector-curvature="0" />
	<path style="fill:none;stroke:red;stroke-width:1px;stroke-linecap:butt;stroke-linejoin:miter;stroke-opacity:1" d="M 11.392,185.842 23.2191,174.015 z" id="boundary" inkscape:connector-curvature="0" />
	<path style="fill:none;stroke:red;stroke-width:1px;stroke-linecap:butt;stroke-linejoin:miter;stroke-opacity:1" d="M 120.793,129.663 107.487,137.055 z" id="boundary" inkscape:connector-curvature="0" />
	<path style="fill:none;stroke:red;stroke-width:1px;stroke-linecap:butt;stroke-linejoin:miter;stroke-opacity:1" d="M 107.487,137.055 92.7034,137.055 z" id="boundary" inkscape:connector-curvature="0" />
	<path style="fill:none;stroke:red;stroke-width:1px;stroke-linecap:butt;stroke-linejoin:miter;stroke-opacity:1" d="M 63.1356,148.882 77.9195,141.49 z" id="boundary" inkscape:connector-curvature="0" />
	<path style="fill:none;stroke:red;stroke-width:1px;stroke-linecap:butt;stroke-linejoin:miter;stroke-opacity:1" d="M 77.9195,141.49 92.7034,137.055 z" id="boundary" inkscape:connector-curvature="0" />
	<path style="fill:none;stroke:red;stroke-width:1px;stroke-linecap:butt;stroke-linejoin:miter;stroke-opacity:1" d="M 249.413,48.3517 236.107,55.7437 z" id="boundary" inkscape:connector-curvature="0" />
	<path style="fill:none;stroke:red;stroke-width:1px;stroke-linecap:butt;stroke-linejoin:miter;stroke-opacity:1" d="M 363.249,4 378.033,4 z" id="boundary" inkscape:connector-curvature="0" />
	<path style="fill:none;stroke:red;stroke-width:1px;stroke-linecap:butt;stroke-linejoin:miter;stroke-opacity:1" d="M 348.465,11.392 363.249,4 z" id="boundary" inkscape:connector-curvature="0" />
	<path style="fill:none;stroke:red;stroke-width:1px;stroke-linecap:butt;stroke-linejoin:miter;stroke-opacity:1" d="M 392.817,4 407.601,4 z" id="boundary" inkscape:connector-curvature="0" />
	<path style="fill:none;stroke:red;stroke-width:1px;stroke-linecap:butt;stroke-linejoin:miter;stroke-opacity:1" d="M 378.033,4 392.817,4 z" id="boundary" inkscape:connector-curvature="0" />
	<path style="fill:none;stroke:red;stroke-width:1px;stroke-linecap:butt;stroke-linejoin:miter;stroke-opacity:1" d="M 407.601,4 422.385,4 z" id="boundary" inkscape:connector-curvature="0" />
	<path style="fill:none;stroke:red;stroke-width:1px;stroke-linecap:butt;stroke-linejoin:miter;stroke-opacity:1" d="M 437.168,4 451.952,4 z" id="boundary" inkscape:connector-curvature="0" />
	<path style="fill:none;stroke:red;stroke-width:1px;stroke-linecap:butt;stroke-linejoin:miter;stroke-opacity:1" d="M 422.385,4 437.168,4 z" id="boundary" inkscape:connector-curvature="0" />
	<path style="fill:none;stroke:red;stroke-width:1px;stroke-linecap:butt;stroke-linejoin:miter;stroke-opacity:1" d="M 293.765,33.5678 307.07,26.1759 z" id="boundary" inkscape:connector-curvature="0" />
	<path style="fill:none;stroke:red;stroke-width:1px;stroke-linecap:butt;stroke-linejoin:miter;stroke-opacity:1" d="M 293.765,33.5678 278.981,36.5246 z" id="boundary" inkscape:connector-curvature="0" />
	<path style="fill:none;stroke:red;stroke-width:1px;stroke-linecap:butt;stroke-linejoin:miter;stroke-opacity:1" d="M 278.981,36.5246 264.197,43.9165 z" id="boundary" inkscape:connector-curvature="0" />
	<path style="fill:none;stroke:red;stroke-width:1px;stroke-linecap:butt;stroke-linejoin:miter;stroke-opacity:1" d="M 264.197,43.9165 249.413,48.3517 z" id="boundary" inkscape:connector-curvature="0" />
	<path style="fill:none;stroke:red;stroke-width:1px;stroke-linecap:butt;stroke-linejoin:miter;stroke-opacity:1" d="M 320.376,18.7839 307.07,26.1759 z" id="boundary" inkscape:connector-curvature="0" />
	<path style="fill:none;stroke:red;stroke-width:1px;stroke-linecap:butt;stroke-linejoin:miter;stroke-opacity:1" d="M 466.736,4 481.52,4 z" id="boundary" inkscape:connector-curvature="0" />
	<path style="fill:none;stroke:red;stroke-width:1px;stroke-linecap:butt;stroke-linejoin:miter;stroke-opacity:1" d="M 348.465,11.392 335.159,18.7839 z" id="boundary" inkscape:connector-curvature="0" />
	<path style="fill:none;stroke:red;stroke-width:1px;stroke-linecap:butt;stroke-linejoin:miter;stroke-opacity:1" d="M 335.159,18.7839 320.376,18.7839 z" id="boundary" inkscape:connector-curvature="0" />
	<path style="fill:none;stroke:red;stroke-width:1px;stroke-linecap:butt;stroke-linejoin:miter;stroke-opacity:1" d="M 451.952,4 466.736,4 z" id="boundary" inkscape:connector-curvature="0" />
	<path style="fill:none;stroke:red;stroke-width:1px;stroke-linecap:butt;stroke-linejoin:miter;stroke-opacity:1" d="M 481.52,4 496.304,4 z" id="boundary" inkscape:connector-curvature="0" />
	<path style="fill:none;stroke:red;stroke-width:1px;stroke-linecap:butt;stroke-linejoin:miter;stroke-opacity:1" d="M 4,222.802 18.7839,227.237 z" id="boundary" inkscape:connector-curvature="0" />
	<path style="fill:none;stroke:red;stroke-width:1px;stroke-linecap:butt;stroke-linejoin:miter;stroke-opacity:1" d="M 18.7839,227.237 32.0894,234.629 z" id="boundary" inkscape:connector-curvature="0" />
	<path style="fill:none;stroke:red;stroke-width:1px;stroke-linecap:butt;stroke-linejoin:miter;stroke-opacity:1" d="M 4,222.802 4,208.018 z" id="boundary" inkscape:connector-curvature="0" />
	<path style="fill:none;stroke:red;stroke-width:1px;stroke-linecap:butt;stroke-linejoin:miter;stroke-opacity:1" d="M 45.3949,242.021 32.0894,234.629 z" id="boundary" inkscape:connector-curvature="0" />
	<path style="fill:none;stroke:red;stroke-width:1px;stroke-linecap:butt;stroke-linejoin:miter;stroke-opacity:1" d="M 45.3949,242.021 57.2221,252.37 z" id="boundary" inkscape:connector-curvature="0" />
	<path style="fill:none;stroke:red;stroke-width:1px;stroke-linecap:butt;stroke-linejoin:miter;stroke-opacity:1" d="M 57.2221,252.37 67.5708,264.197 z" id="boundary" inkscape:connector-curvature="0" />
	<path style="fill:none;stroke:red;stroke-width:1px;stroke-linecap:butt;stroke-linejoin:miter;stroke-opacity:1" d="M 82.3547,270.11 67.5708,264.197 z" id="boundary" inkscape:connector-curvature="0" />
	<path style="fill:none;stroke:red;stroke-width:1px;stroke-linecap:butt;stroke-linejoin:miter;stroke-opacity:1" d="M 95.6602,277.502 82.3547,270.11 z" id="boundary" inkscape:connector-curvature="0" />
	<path style="fill:none;stroke:red;stroke-width:1px;stroke-linecap:butt;stroke-linejoin:miter;stroke-opacity:1" d="M 95.6602,277.502 110.444,283.416 z" id="boundary" inkscape:connector-curvature="0" />
	<path style="fill:none;stroke:red;stroke-width:1px;stroke-linecap:butt;stroke-linejoin:miter;stroke-opacity:1" d="M 110.444,283.416 122.271,293.765 z" id="boundary" inkscape:connector-curvature="0" />
	<path style="fill:none;stroke:red;stroke-width:1px;stroke-linecap:butt;stroke-linejoin:miter;stroke-opacity:1" d="M 148.882,308.548 135.577,301.156 z" id="boundary" inkscape:connector-curvature="0" />
	<path style="fill:none;stroke:red;stroke-width:1px;stroke-linecap:butt;stroke-linejoin:miter;stroke-opacity:1" d="M 122.271,293.765 135.577,301.156 z" id="boundary" inkscape:connector-curvature="0" />
	<path style="fill:none;stroke:red;stroke-width:1px;stroke-linecap:butt;stroke-linejoin:miter;stroke-opacity:1" d="M 148.882,308.548 162.188,315.94 z" id="boundary" inkscape:connector-curvature="0" />
	<path style="fill:none;stroke:red;stroke-width:1px;stroke-linecap:butt;stroke-linejoin:miter;stroke-opacity:1" d="M 188.799,330.724 175.493,323.332 z" id="boundary" inkscape:connector-curvature="0" />
	<path style="fill:none;stroke:red;stroke-width:1px;stroke-linecap:butt;stroke-linejoin:miter;stroke-opacity:1" d="M 162.188,315.94 175.493,323.332 z" id="boundary" inkscape:connector-curvature="0" />
	<path style="fill:none;stroke:red;stroke-width:1px;stroke-linecap:butt;stroke-linejoin:miter;stroke-opacity:1" d="M 188.799,330.724 202.104,338.116 z" id="boundary" inkscape:connector-curvature="0" />
	<path style="fill:none;stroke:red;stroke-width:1px;stroke-linecap:butt;stroke-linejoin:miter;stroke-opacity:1" d="M 259.762,352.9 244.978,352.9 z" id="boundary" inkscape:connector-curvature="0" />
	<path style="fill:none;stroke:red;stroke-width:1px;stroke-linecap:butt;stroke-linejoin:miter;stroke-opacity:1" d="M 244.978,352.9 230.194,351.422 z" id="boundary" inkscape:connector-curvature="0" />
	<path style="fill:none;stroke:red;stroke-width:1px;stroke-linecap:butt;stroke-linejoin:miter;stroke-opacity:1" d="M 230.194,351.422 215.41,345.508 z" id="boundary" inkscape:connector-curvature="0" />
	<path style="fill:none;stroke:red;stroke-width:1px;stroke-linecap:butt;stroke-linejoin:miter;stroke-opacity:1" d="M 215.41,345.508 202.104,338.116 z" id="boundary" inkscape:connector-curvature="0" />
	<path style="fill:none;stroke:red;stroke-width:1px;stroke-linecap:butt;stroke-linejoin:miter;stroke-opacity:1" d="M 273.067,360.292 284.894,369.162 z" id="boundary" inkscape:connector-curvature="0" />
	<path style="fill:none;stroke:red;stroke-width:1px;stroke-linecap:butt;stroke-linejoin:miter;stroke-opacity:1" d="M 273.067,360.292 259.762,352.9 z" id="boundary" inkscape:connector-curvature="0" />
	<path style="fill:none;stroke:red;stroke-width:1px;stroke-linecap:butt;stroke-linejoin:miter;stroke-opacity:1" d="M 310.027,386.903 295.243,380.99 z" id="boundary" inkscape:connector-curvature="0" />
	<path style="fill:none;stroke:red;stroke-width:1px;stroke-linecap:butt;stroke-linejoin:miter;stroke-opacity:1" d="M 295.243,380.99 284.894,369.162 z" id="boundary" inkscape:connector-curvature="0" />
	<path style="fill:none;stroke:red;stroke-width:1px;stroke-linecap:butt;stroke-linejoin:miter;stroke-opacity:1" d="M 310.027,386.903 321.854,397.252 z" id="boundary" inkscape:connector-curvature="0" />
	<path style="fill:none;stroke:red;stroke-width:1px;stroke-linecap:butt;stroke-linejoin:miter;stroke-opacity:1" d="M 321.854,397.252 335.159,404.644 z" id="boundary" inkscape:connector-curvature="0" />
	<path style="fill:none;stroke:red;stroke-width:1px;stroke-linecap:butt;stroke-linejoin:miter;stroke-opacity:1" d="M 348.465,412.036 363.249,417.949 z" id="boundary" inkscape:connector-curvature="0" />
	<path style="fill:none;stroke:red;stroke-width:1px;stroke-linecap:butt;stroke-linejoin:miter;stroke-opacity:1" d="M 363.249,417.949 376.554,425.341 z" id="boundary" inkscape:connector-curvature="0" />
	<path style="fill:none;stroke:red;stroke-width:1px;stroke-linecap:butt;stroke-linejoin:miter;stroke-opacity:1" d="M 348.465,412.036 335.159,404.644 z" id="boundary" inkscape:connector-curvature="0" />
	<path style="fill:none;stroke:red;stroke-width:1px;stroke-linecap:butt;stroke-linejoin:miter;stroke-opacity:1" d="M 391.338,426.82 376.554,425.341 z" id="boundary" inkscape:connector-curvature="0" />
	<path style="fill:none;stroke:red;stroke-width:1px;stroke-linecap:butt;stroke-linejoin:miter;stroke-opacity:1" d="M 391.338,426.82 404.644,434.212 z" id="boundary" inkscape:connector-curvature="0" />
	<path style="fill:none;stroke:red;stroke-width:1px;stroke-linecap:butt;stroke-linejoin:miter;stroke-opacity:1" d="M 419.428,434.212 404.644,434.212 z" id="boundary" inkscape:connector-curvature="0" />
	<path style="fill:none;stroke:red;stroke-width:1px;stroke-linecap:butt;stroke-linejoin:miter;stroke-opacity:1" d="M 434.212,437.168 419.428,434.212 z" id="boundary" inkscape:connector-curvature="0" />
	<path style="fill:none;stroke:red;stroke-width:1px;stroke-linecap:butt;stroke-linejoin:miter;stroke-opacity:1" d="M 448.996,441.604 434.212,437.168 z" id="boundary" inkscape:connector-curvature="0" />
	<path style="fill:none;stroke:red;stroke-width:1px;stroke-linecap:butt;stroke-linejoin:miter;stroke-opacity:1" d="M 448.996,441.604 462.301,448.996 z" id="boundary" inkscape:connector-curvature="0" />
	<path style="fill:none;stroke:red;stroke-width:1px;stroke-linecap:butt;stroke-linejoin:miter;stroke-opacity:1" d="M 505.174,441.604 519.958,441.604 z" id="boundary" inkscape:connector-curvature="0" />
	<path style="fill:none;stroke:red;stroke-width:1px;stroke-linecap:butt;stroke-linejoin:miter;stroke-opacity:1" d="M 491.869,448.996 505.174,441.604 z" id="boundary" inkscape:connector-curvature="0" />
	<path style="fill:none;stroke:red;stroke-width:1px;stroke-linecap:butt;stroke-linejoin:miter;stroke-opacity:1" d="M 477.085,448.996 462.301,448.996 z" id="boundary" inkscape:connector-curvature="0" />
	<path style="fill:none;stroke:red;stroke-width:1px;stroke-linecap:butt;stroke-linejoin:miter;stroke-opacity:1" d="M 491.869,448.996 477.085,448.996 z" id="boundary" inkscape:connector-curvature="0" />
	<path style="fill:none;stroke:red;stroke-width:1px;stroke-linecap:butt;stroke-linejoin:miter;stroke-opacity:1" d="M 533.264,434.212 519.958,441.604 z" id="boundary" inkscape:connector-curvature="0" />
	<path style="fill:none;stroke:red;stroke-width:1px;stroke-linecap:butt;stroke-linejoin:miter;stroke-opacity:1" d="M 496.304,4 511.088,4 z" id="boundary" inkscape:connector-curvature="0" />
	<path style="fill:none;stroke:red;stroke-width:1px;stroke-linecap:butt;stroke-linejoin:miter;stroke-opacity:1" d="M 511.088,4 524.393,11.392 z" id="boundary" inkscape:connector-curvature="0" />
	<path style="fill:none;stroke:red;stroke-width:1px;stroke-linecap:butt;stroke-linejoin:miter;stroke-opacity:1" d="M 537.699,18.7839 524.393,11.392 z" id="boundary" inkscape:connector-curvature="0" />
	<path style="fill:none;stroke:red;stroke-width:1px;stroke-linecap:butt;stroke-linejoin:miter;stroke-opacity:1" d="M 552.483,23.2191 537.699,18.7839 z" id="boundary" inkscape:connector-curvature="0" />
	<path style="fill:none;stroke:red;stroke-width:1px;stroke-linecap:butt;stroke-linejoin:miter;stroke-opacity:1" d="M 552.483,23.2191 567.267,26.1759 z" id="boundary" inkscape:connector-curvature="0" />
	<path style="fill:none;stroke:red;stroke-width:1px;stroke-linecap:butt;stroke-linejoin:miter;stroke-opacity:1" d="M 567.267,26.1759 580.572,33.5678 z" id="boundary" inkscape:connector-curvature="0" />
	<path style="fill:none;stroke:red;stroke-width:1px;stroke-linecap:butt;stroke-linejoin:miter;stroke-opacity:1" d="M 592.399,42.4382 604.227,52.7869 z" id="boundary" inkscape:connector-curvature="0" />
	<path style="fill:none;stroke:red;stroke-width:1px;stroke-linecap:butt;stroke-linejoin:miter;stroke-opacity:1" d="M 592.399,42.4382 580.572,33.5678 z" id="boundary" inkscape:connector-curvature="0" />
	<path style="fill:none;stroke:red;stroke-width:1px;stroke-linecap:butt;stroke-linejoin:miter;stroke-opacity:1" d="M 617.532,60.1788 604.227,52.7869 z" id="boundary" inkscape:connector-curvature="0" />
	<path style="fill:none;stroke:red;stroke-width:1px;stroke-linecap:butt;stroke-linejoin:miter;stroke-opacity:1" d="M 632.316,66.0924 617.532,60.1788 z" id="boundary" inkscape:connector-curvature="0" />
	<path style="fill:none;stroke:red;stroke-width:1px;stroke-linecap:butt;stroke-linejoin:miter;stroke-opacity:1" d="M 632.316,66.0924 641.186,77.9195 z" id="boundary" inkscape:connector-curvature="0" />
	<path style="fill:none;stroke:red;stroke-width:1px;stroke-linecap:butt;stroke-linejoin:miter;stroke-opacity:1" d="M 641.186,77.9195 653.013,86.7899 z" id="boundary" inkscape:connector-curvature="0" />
	<path style="fill:none;stroke:red;stroke-width:1px;stroke-linecap:butt;stroke-linejoin:miter;stroke-opacity:1" d="M 653.013,86.7899 663.362,98.617 z" id="boundary" inkscape:connector-curvature="0" />
	<path style="fill:none;stroke:red;stroke-width:1px;stroke-linecap:butt;stroke-linejoin:miter;stroke-opacity:1" d="M 675.189,107.487 663.362,98.617 z" id="boundary" inkscape:connector-curvature="0" />
	<path style="fill:none;stroke:red;stroke-width:1px;stroke-linecap:butt;stroke-linejoin:miter;stroke-opacity:1" d="M 688.495,114.879 675.189,107.487 z" id="boundary" inkscape:connector-curvature="0" />
	<path style="fill:none;stroke:red;stroke-width:1px;stroke-linecap:butt;stroke-linejoin:miter;stroke-opacity:1" d="M 688.495,114.879 698.844,126.706 z" id="boundary" inkscape:connector-curvature="0" />
	<path style="fill:none;stroke:red;stroke-width:1px;stroke-linecap:butt;stroke-linejoin:miter;stroke-opacity:1" d="M 698.844,126.706 713.627,132.62 z" id="boundary" inkscape:connector-curvature="0" />
	<path style="fill:none;stroke:red;stroke-width:1px;stroke-linecap:butt;stroke-linejoin:miter;stroke-opacity:1" d="M 749.109,160.709 737.282,151.839 z" id="boundary" inkscape:connector-curvature="0" />
	<path style="fill:none;stroke:red;stroke-width:1px;stroke-linecap:butt;stroke-linejoin:miter;stroke-opacity:1" d="M 737.282,151.839 726.933,140.012 z" id="boundary" inkscape:connector-curvature="0" />
	<path style="fill:none;stroke:red;stroke-width:1px;stroke-linecap:butt;stroke-linejoin:miter;stroke-opacity:1" d="M 713.627,132.62 726.933,140.012 z" id="boundary" inkscape:connector-curvature="0" />
	<path style="fill:none;stroke:red;stroke-width:1px;stroke-linecap:butt;stroke-linejoin:miter;stroke-opacity:1" d="M 749.109,160.709 759.458,172.537 z" id="boundary" inkscape:connector-curvature="0" />
	<path style="fill:none;stroke:red;stroke-width:1px;stroke-linecap:butt;stroke-linejoin:miter;stroke-opacity:1" d="M 904.34,144.447 919.124,144.447 z" id="boundary" inkscape:connector-curvature="0" />
	<path style="fill:none;stroke:red;stroke-width:1px;stroke-linecap:butt;stroke-linejoin:miter;stroke-opacity:1" d="M 891.034,151.839 904.34,144.447 z" id="boundary" inkscape:connector-curvature="0" />
	<path style="fill:none;stroke:red;stroke-width:1px;stroke-linecap:butt;stroke-linejoin:miter;stroke-opacity:1" d="M 861.466,163.666 876.25,156.274 z" id="boundary" inkscape:connector-curvature="0" />
	<path style="fill:none;stroke:red;stroke-width:1px;stroke-linecap:butt;stroke-linejoin:miter;stroke-opacity:1" d="M 891.034,151.839 876.25,156.274 z" id="boundary" inkscape:connector-curvature="0" />
	<path style="fill:none;stroke:red;stroke-width:1px;stroke-linecap:butt;stroke-linejoin:miter;stroke-opacity:1" d="M 947.213,137.055 961.997,137.055 z" id="boundary" inkscape:connector-curvature="0" />
	<path style="fill:none;stroke:red;stroke-width:1px;stroke-linecap:butt;stroke-linejoin:miter;stroke-opacity:1" d="M 933.908,144.447 947.213,137.055 z" id="boundary" inkscape:connector-curvature="0" />
	<path style="fill:none;stroke:red;stroke-width:1px;stroke-linecap:butt;stroke-linejoin:miter;stroke-opacity:1" d="M 961.997,137.055 975.303,144.447 z" id="boundary" inkscape:connector-curvature="0" />
	<path style="fill:none;stroke:red;stroke-width:1px;stroke-linecap:butt;stroke-linejoin:miter;stroke-opacity:1" d="M 975.303,144.447 981.216,159.231 z" id="boundary" inkscape:connector-curvature="0" />
	<path style="fill:none;stroke:red;stroke-width:1px;stroke-linecap:butt;stroke-linejoin:miter;stroke-opacity:1" d="M 988.608,172.537 981.216,159.231 z" id="boundary" inkscape:connector-curvature="0" />
	<path style="fill:none;stroke:red;stroke-width:1px;stroke-linecap:butt;stroke-linejoin:miter;stroke-opacity:1" d="M 919.124,144.447 933.908,144.447 z" id="boundary" inkscape:connector-curvature="0" />
	<path style="fill:none;stroke:red;stroke-width:1px;stroke-linecap:butt;stroke-linejoin:miter;stroke-opacity:1" d="M 802.331,166.623 817.115,166.623 z" id="boundary" inkscape:connector-curvature="0" />
	<path style="fill:none;stroke:red;stroke-width:1px;stroke-linecap:butt;stroke-linejoin:miter;stroke-opacity:1" d="M 789.025,174.015 802.331,166.623 z" id="boundary" inkscape:connector-curvature="0" />
	<path style="fill:none;stroke:red;stroke-width:1px;stroke-linecap:butt;stroke-linejoin:miter;stroke-opacity:1" d="M 774.241,174.015 759.458,172.537 z" id="boundary" inkscape:connector-curvature="0" />
	<path style="fill:none;stroke:red;stroke-width:1px;stroke-linecap:butt;stroke-linejoin:miter;stroke-opacity:1" d="M 789.025,174.015 774.241,174.015 z" id="boundary" inkscape:connector-curvature="0" />
	<path style="fill:none;stroke:red;stroke-width:1px;stroke-linecap:butt;stroke-linejoin:miter;stroke-opacity:1" d="M 846.683,166.623 831.899,166.623 z" id="boundary" inkscape:connector-curvature="0" />
	<path style="fill:none;stroke:red;stroke-width:1px;stroke-linecap:butt;stroke-linejoin:miter;stroke-opacity:1" d="M 831.899,166.623 817.115,166.623 z" id="boundary" inkscape:connector-curvature="0" />
	<path style="fill:none;stroke:red;stroke-width:1px;stroke-linecap:butt;stroke-linejoin:miter;stroke-opacity:1" d="M 846.683,166.623 861.466,163.666 z" id="boundary" inkscape:connector-curvature="0" />
	<path style="fill:none;stroke:red;stroke-width:1px;stroke-linecap:butt;stroke-linejoin:miter;stroke-opacity:1" d="M 988.608,187.32 988.608,172.537 z" id="boundary" inkscape:connector-curvature="0" />
	<path style="fill:none;stroke:red;stroke-width:1px;stroke-linecap:butt;stroke-linejoin:miter;stroke-opacity:1" d="M 996,200.626 988.608,187.32 z" id="boundary" inkscape:connector-curvature="0" />
	<path style="fill:none;stroke:red;stroke-width:1px;stroke-linecap:butt;stroke-linejoin:miter;stroke-opacity:1" d="M 685.538,323.332 700.322,315.94 z" id="boundary" inkscape:connector-curvature="0" />
	<path style="fill:none;stroke:red;stroke-width:1px;stroke-linecap:butt;stroke-linejoin:miter;stroke-opacity:1" d="M 675.189,335.159 685.538,323.332 z" id="boundary" inkscape:connector-curvature="0" />
	<path style="fill:none;stroke:red;stroke-width:1px;stroke-linecap:butt;stroke-linejoin:miter;stroke-opacity:1" d="M 660.405,342.551 675.189,335.159 z" id="boundary" inkscape:connector-curvature="0" />
	<path style="fill:none;stroke:red;stroke-width:1px;stroke-linecap:butt;stroke-linejoin:miter;stroke-opacity:1" d="M 700.322,315.94 715.106,308.548 z" id="boundary" inkscape:connector-curvature="0" />
	<path style="fill:none;stroke:red;stroke-width:1px;stroke-linecap:butt;stroke-linejoin:miter;stroke-opacity:1" d="M 763.893,264.197 750.587,271.589 z" id="boundary" inkscape:connector-curvature="0" />
	<path style="fill:none;stroke:red;stroke-width:1px;stroke-linecap:butt;stroke-linejoin:miter;stroke-opacity:1" d="M 737.282,278.981 726.933,298.2 z" id="boundary" inkscape:connector-curvature="0" />
	<path style="fill:none;stroke:red;stroke-width:1px;stroke-linecap:butt;stroke-linejoin:miter;stroke-opacity:1" d="M 726.933,298.2 715.106,308.548 z" id="boundary" inkscape:connector-curvature="0" />
	<path style="fill:none;stroke:red;stroke-width:1px;stroke-linecap:butt;stroke-linejoin:miter;stroke-opacity:1" d="M 737.282,278.981 750.587,271.589 z" id="boundary" inkscape:connector-curvature="0" />
	<path style="fill:none;stroke:red;stroke-width:1px;stroke-linecap:butt;stroke-linejoin:miter;stroke-opacity:1" d="M 763.893,264.197 778.677,264.197 z" id="boundary" inkscape:connector-curvature="0" />
	<path style="fill:none;stroke:red;stroke-width:1px;stroke-linecap:butt;stroke-linejoin:miter;stroke-opacity:1" d="M 660.405,342.551 645.621,349.943 z" id="boundary" inkscape:connector-curvature="0" />
	<path style="fill:none;stroke:red;stroke-width:1px;stroke-linecap:butt;stroke-linejoin:miter;stroke-opacity:1" d="M 574.659,412.036 587.964,404.644 z" id="boundary" inkscape:connector-curvature="0" />
	<path style="fill:none;stroke:red;stroke-width:1px;stroke-linecap:butt;stroke-linejoin:miter;stroke-opacity:1" d="M 599.791,395.773 587.964,404.644 z" id="boundary" inkscape:connector-curvature="0" />
	<path style="fill:none;stroke:red;stroke-width:1px;stroke-linecap:butt;stroke-linejoin:miter;stroke-opacity:1" d="M 533.264,434.212 546.569,426.82 z" id="boundary" inkscape:connector-curvature="0" />
	<path style="fill:none;stroke:red;stroke-width:1px;stroke-linecap:butt;stroke-linejoin:miter;stroke-opacity:1" d="M 559.875,419.428 546.569,426.82 z" id="boundary" inkscape:connector-curvature="0" />
	<path style="fill:none;stroke:red;stroke-width:1px;stroke-linecap:butt;stroke-linejoin:miter;stroke-opacity:1" d="M 559.875,419.428 574.659,412.036 z" id="boundary" inkscape:connector-curvature="0" />
	<path style="fill:none;stroke:red;stroke-width:1px;stroke-linecap:butt;stroke-linejoin:miter;stroke-opacity:1" d="M 638.23,364.727 645.621,349.943 z" id="boundary" inkscape:connector-curvature="0" />
	<path style="fill:none;stroke:red;stroke-width:1px;stroke-linecap:butt;stroke-linejoin:miter;stroke-opacity:1" d="M 638.23,364.727 626.402,375.076 z" id="boundary" inkscape:connector-curvature="0" />
	<path style="fill:none;stroke:red;stroke-width:1px;stroke-linecap:butt;stroke-linejoin:miter;stroke-opacity:1" d="M 626.402,375.076 614.575,388.382 z" id="boundary" inkscape:connector-curvature="0" />
	<path style="fill:none;stroke:red;stroke-width:1px;stroke-linecap:butt;stroke-linejoin:miter;stroke-opacity:1" d="M 614.575,388.382 599.791,395.773 z" id="boundary" inkscape:connector-curvature="0" />
	<path style="fill:none;stroke:red;stroke-width:1px;stroke-linecap:butt;stroke-linejoin:miter;stroke-opacity:1" d="M 793.461,264.197 808.244,264.197 z" id="boundary" inkscape:connector-curvature="0" />
	<path style="fill:none;stroke:red;stroke-width:1px;stroke-linecap:butt;stroke-linejoin:miter;stroke-opacity:1" d="M 793.461,264.197 778.677,264.197 z" id="boundary" inkscape:connector-curvature="0" />
	<path style="fill:none;stroke:red;stroke-width:1px;stroke-linecap:butt;stroke-linejoin:miter;stroke-opacity:1" d="M 823.028,264.197 808.244,264.197 z" id="boundary" inkscape:connector-curvature="0" />
	<path style="fill:none;stroke:red;stroke-width:1px;stroke-linecap:butt;stroke-linejoin:miter;stroke-opacity:1" d="M 837.812,264.197 823.028,264.197 z" id="boundary" inkscape:connector-curvature="0" />
	<path style="fill:none;stroke:red;stroke-width:1px;stroke-linecap:butt;stroke-linejoin:miter;stroke-opacity:1" d="M 852.596,264.197 837.812,264.197 z" id="boundary" inkscape:connector-curvature="0" />
	<path style="fill:none;stroke:red;stroke-width:1px;stroke-linecap:butt;stroke-linejoin:miter;stroke-opacity:1" d="M 996,215.41 996,230.194 z" id="boundary" inkscape:connector-curvature="0" />
	<path style="fill:none;stroke:red;stroke-width:1px;stroke-linecap:butt;stroke-linejoin:miter;stroke-opacity:1" d="M 996,230.194 996,244.978 z" id="boundary" inkscape:connector-curvature="0" />
	<path style="fill:none;stroke:red;stroke-width:1px;stroke-linecap:butt;stroke-linejoin:miter;stroke-opacity:1" d="M 996,244.978 996,259.762 z" id="boundary" inkscape:connector-curvature="0" />
	<path style="fill:none;stroke:red;stroke-width:1px;stroke-linecap:butt;stroke-linejoin:miter;stroke-opacity:1" d="M 996,259.762 984.173,271.589 z" id="boundary" inkscape:connector-curvature="0" />
	<path style="fill:none;stroke:red;stroke-width:1px;stroke-linecap:butt;stroke-linejoin:miter;stroke-opacity:1" d="M 852.596,264.197 865.902,271.589 z" id="boundary" inkscape:connector-curvature="0" />
	<path style="fill:none;stroke:red;stroke-width:1px;stroke-linecap:butt;stroke-linejoin:miter;stroke-opacity:1" d="M 880.686,271.589 865.902,271.589 z" id="boundary" inkscape:connector-curvature="0" />
	<path style="fill:none;stroke:red;stroke-width:1px;stroke-linecap:butt;stroke-linejoin:miter;stroke-opacity:1" d="M 880.686,271.589 895.469,271.589 z" id="boundary" inkscape:connector-curvature="0" />
	<path style="fill:none;stroke:red;stroke-width:1px;stroke-linecap:butt;stroke-linejoin:miter;stroke-opacity:1" d="M 895.469,271.589 910.253,271.589 z" id="boundary" inkscape:connector-curvature="0" />
	<path style="fill:none;stroke:red;stroke-width:1px;stroke-linecap:butt;stroke-linejoin:miter;stroke-opacity:1" d="M 925.037,271.589 939.821,271.589 z" id="boundary" inkscape:connector-curvature="0" />
	<path style="fill:none;stroke:red;stroke-width:1px;stroke-linecap:butt;stroke-linejoin:miter;stroke-opacity:1" d="M 925.037,271.589 910.253,271.589 z" id="boundary" inkscape:connector-curvature="0" />
	<path style="fill:none;stroke:red;stroke-width:1px;stroke-linecap:butt;stroke-linejoin:miter;stroke-opacity:1" d="M 954.605,271.589 969.389,271.589 z" id="boundary" inkscape:connector-curvature="0" />
	<path style="fill:none;stroke:red;stroke-width:1px;stroke-linecap:butt;stroke-linejoin:miter;stroke-opacity:1" d="M 954.605,271.589 939.821,271.589 z" id="boundary" inkscape:connector-curvature="0" />
	<path style="fill:none;stroke:red;stroke-width:1px;stroke-linecap:butt;stroke-linejoin:miter;stroke-opacity:1" d="M 969.389,271.589 984.173,271.589 z" id="boundary" inkscape:connector-curvature="0" />
	<path style="fill:none;stroke:red;stroke-width:1px;stroke-linecap:butt;stroke-linejoin:miter;stroke-opacity:1" d="M 996,200.626 996,215.41 z" id="boundary" inkscape:connector-curvature="0" />
	<circle cx="4" cy="208.018" r="4" fill="#0" id="circle0"/>
	<circle cx="4" cy="222.802" r="4" fill="#0" id="circle1"/>
	<circle cx="11.392" cy="185.842" r="4" fill="#0" id="circle2"/>
	<circle cx="18.7839" cy="227.237" r="4" fill="#0" id="circle3"/>
	<circle cx="23.2191" cy="174.015" r="4" fill="#0" id="circle4"/>
	<circle cx="32.0894" cy="234.629" r="4" fill="#0" id="circle5"/>
	<circle cx="36.5246" cy="166.623" r="4" fill="#0" id="circle6"/>
	<circle cx="45.3949" cy="242.021" r="4" fill="#0" id="circle7"/>
	<circle cx="49.8301" cy="159.231" r="4" fill="#0" id="circle8"/>
	<circle cx="57.2221" cy="252.37" r="4" fill="#0" id="circle9"/>
	<circle cx="63.1356" cy="148.882" r="4" fill="#0" id="circle10"/>
	<circle cx="67.5708" cy="264.197" r="4" fill="#0" id="circle11"/>
	<circle cx="77.9195" cy="141.49" r="4" fill="#0" id="circle12"/>
	<circle cx="82.3547" cy="270.11" r="4" fill="#0" id="circle13"/>
	<circle cx="92.7034" cy="137.055" r="4" fill="#0" id="circle14"/>
	<circle cx="95.6602" cy="277.502" r="4" fill="#0" id="circle15"/>
	<circle cx="107.487" cy="137.055" r="4" fill="#0" id="circle16"/>
	<circle cx="110.444" cy="283.416" r="4" fill="#0" id="circle17"/>
	<circle cx="120.793" cy="129.663" r="4" fill="#0" id="circle18"/>
	<circle cx="122.271" cy="293.765" r="4" fill="#0" id="circle19"/>
	<circle cx="131.142" cy="117.836" r="4" fill="#0" id="circle20"/>
	<circle cx="135.577" cy="301.156" r="4" fill="#0" id="circle21"/>
	<circle cx="142.969" cy="107.487" r="4" fill="#0" id="circle22"/>
	<circle cx="148.882" cy="308.548" r="4" fill="#0" id="circle23"/>
	<circle cx="156.274" cy="100.095" r="4" fill="#0" id="circle24"/>
	<circle cx="162.188" cy="315.94" r="4" fill="#0" id="circle25"/>
	<circle cx="169.58" cy="92.7034" r="4" fill="#0" id="circle26"/>
	<circle cx="175.493" cy="323.332" r="4" fill="#0" id="circle27"/>
	<circle cx="182.885" cy="85.3115" r="4" fill="#0" id="circle28"/>
	<circle cx="188.799" cy="330.724" r="4" fill="#0" id="circle29"/>
	<circle cx="196.191" cy="77.9195" r="4" fill="#0" id="circle30"/>
	<circle cx="202.104" cy="338.116" r="4" fill="#0" id="circle31"/>
	<circle cx="209.496" cy="70.5276" r="4" fill="#0" id="circle32"/>
	<circle cx="215.41" cy="345.508" r="4" fill="#0" id="circle33"/>
	<circle cx="222.802" cy="63.1356" r="4" fill="#0" id="circle34"/>
	<circle cx="230.194" cy="351.422" r="4" fill="#0" id="circle35"/>
	<circle cx="236.107" cy="55.7437" r="4" fill="#0" id="circle36"/>
	<circle cx="244.978" cy="352.9" r="4" fill="#0" id="circle37"/>
	<circle cx="249.413" cy="48.3517" r="4" fill="#0" id="circle38"/>
	<circle cx="259.762" cy="352.9" r="4" fill="#0" id="circle39"/>
	<circle cx="264.197" cy="43.9165" r="4" fill="#0" id="circle40"/>
	<circle cx="273.067" cy="360.292" r="4" fill="#0" id="circle41"/>
	<circle cx="278.981" cy="36.5246" r="4" fill="#0" id="circle42"/>
	<circle cx="284.894" cy="369.162" r="4" fill="#0" id="circle43"/>
	<circle cx="293.765" cy="33.5678" r="4" fill="#0" id="circle44"/>
	<circle cx="295.243" cy="380.99" r="4" fill="#0" id="circle45"/>
	<circle cx="307.07" cy="26.1759" r="4" fill="#0" id="circle46"/>
	<circle cx="310.027" cy="386.903" r="4" fill="#0" id="circle47"/>
	<circle cx="320.376" cy="18.7839" r="4" fill="#0" id="circle48"/>
	<circle cx="321.854" cy="397.252" r="4" fill="#0" id="circle49"/>
	<circle cx="335.159" cy="18.7839" r="4" fill="#0" id="circle50"/>
	<circle cx="335.159" cy="404.644" r="4" fill="#0" id="circle51"/>
	<circle cx="348.465" cy="11.392" r="4" fill="#0" id="circle52"/>
	<circle cx="348.465" cy="412.036" r="4" fill="#0" id="circle53"/>
	<circle cx="363.249" cy="4" r="4" fill="#0" id="circle54"/>
	<circle cx="363.249" cy="417.949" r="4" fill="#0" id="circle55"/>
	<circle cx="376.554" cy="425.341" r="4" fill="#0" id="circle56"/>
	<circle cx="378.033" cy="4" r="4" fill="#0" id="circle57"/>
	<circle cx="391.338" cy="426.82" r="4" fill="#0" id="circle58"/>
	<circle cx="392.817" cy="4" r="4" fill="#0" id="circle59"/>
	<circle cx="404.644" cy="434.212" r="4" fill="#0" id="circle60"/>
	<circle cx="407.601" cy="4" r="4" fill="#0" id="circle61"/>
	<circle cx="419.428" cy="434.212" r="4" fill="#0" id="circle62"/>
	<circle cx="422.385" cy="4" r="4" fill="#0" id="circle63"/>
	<circle cx="434.212" cy="437.168" r="4" fill="#0" id="circle64"/>
	<circle cx="437.168" cy="4" r="4" fill="#0" id="circle65"/>
	<circle cx="448.996" cy="441.604" r="4" fill="#0" id="circle66"/>
	<circle cx="451.952" cy="4" r="4" fill="#0" id="circle67"/>
	<circle cx="462.301" cy="448.996" r="4" fill="#0" id="circle68"/>
	<circle cx="466.736" cy="4" r="4" fill="#0" id="circle69"/>
	<circle cx="477.085" cy="448.996" r="4" fill="#0" id="circle70"/>
	<circle cx="481.52" cy="4" r="4" fill="#0" id="circle71"/>
	<circle cx="491.869" cy="448.996" r="4" fill="#0" id="circle72"/>
	<circle cx="496.304" cy="4" r="4" fill="#0" id="circle73"/>
	<circle cx="505.174" cy="441.604" r="4" fill="#0" id="circle74"/>
	<circle cx="511.088" cy="4" r="4" fill="#0" id="circle75"/>
	<circle cx="519.958" cy="441.604" r="4" fill="#0" id="circle76"/>
	<circle cx="524.393" cy="11.392" r="4" fill="#0" id="circle77"/>
	<circle cx="533.264" cy="434.212" r="4" fill="#0" id="circle78"/>
	<circle cx="537.699" cy="18.7839" r="4" fill="#0" id="circle79"/>
	<circle cx="546.569" cy="426.82" r="4" fill="#0" id="circle80"/>
	<circle cx="552.483" cy="23.2191" r="4" fill="#0" id="circle81"/>
	<circle cx="559.875" cy="419.428" r="4" fill="#0" id="circle82"/>
	<circle cx="567.267" cy="26.1759" r="4" fill="#0" id="circle83"/>
	<circle cx="574.659" cy="412.036" r="4" fill="#0" id="circle84"/>
	<circle cx="580.572" cy="33.5678" r="4" fill="#0" id="circle85"/>
	<circle cx="587.964" cy="404.644" r="4" fill="#0" id="circle86"/>
	<circle cx="592.399" cy="42.4382" r="4" fill="#0" id="circle87"/>
	<circle cx="599.791" cy="395.773" r="4" fill="#0" id="circle88"/>
	<circle cx="604.227" cy="52.7869" r="4" fill="#0" id="circle89"/>
	<circle cx="614.575" cy="388.382" r="4" fill="#0" id="circle90"/>
	<circle cx="617.532" cy="60.1788" r="4" fill="#0" id="circle91"/>
	<circle cx="626.402" cy="375.076" r="4" fill="#0" id="circle92"/>
	<circle cx="632.316" cy="66.0924" r="4" fill="#0" id="circle93"/>
	<circle cx="638.23" cy="364.727" r="4" fill="#0" id="circle94"/>
	<circle cx="641.186" cy="77.9195" r="4" fill="#0" id="circle95"/>
	<circle cx="645.621" cy="349.943" r="4" fill="#0" id="circle96"/>
	<circle cx="653.013" cy="86.7899" r="4" fill="#0" id="circle97"/>
	<circle cx="660.405" cy="342.551" r="4" fill="#0" id="circle98"/>
	<circle cx="663.362" cy="98.617" r="4" fill="#0" id="circle99"/>
	<circle cx="675.189" cy="107.487" r="4" fill="#0" id="circle100"/>
	<circle cx="675.189" cy="335.159" r="4" fill="#0" id="circle101"/>
	<circle cx="685.538" cy="323.332" r="4" fill="#0" id="circle102"/>
	<circle cx="688.495" cy="114.879" r="4" fill="#0" id="circle103"/>
	<circle cx="698.844" cy="126.706" r="4" fill="#0" id="circle104"/>
	<circle cx="700.322" cy="315.94" r="4" fill="#0" id="circle105"/>
	<circle cx="713.627" cy="132.62" r="4" fill="#0" id="circle106"/>
	<circle cx="715.106" cy="308.548" r="4" fill="#0" id="circle107"/>
	<circle cx="726.933" cy="140.012" r="4" fill="#0" id="circle108"/>
	<circle cx="726.933" cy="298.2" r="4" fill="#0" id="circle109"/>
	<circle cx="737.282" cy="151.839" r="4" fill="#0" id="circle110"/>
	<circle cx="737.282" cy="278.981" r="4" fill="#0" id="circle111"/>
	<circle cx="749.109" cy="160.709" r="4" fill="#0" id="circle112"/>
	<circle cx="750.587" cy="271.589" r="4" fill="#0" id="circle113"/>
	<circle cx="759.458" cy="172.537" r="4" fill="#0" id="circle114"/>
	<circle cx="763.893" cy="264.197" r="4" fill="#0" id="circle115"/>
	<circle cx="774.241" cy="174.015" r="4" fill="#0" id="circle116"/>
	<circle cx="778.677" cy="264.197" r="4" fill="#0" id="circle117"/>
	<circle cx="789.025" cy="174.015" r="4" fill="#0" id="circle118"/>
	<circle cx="793.461" cy="264.197" r="4" fill="#0" id="circle119"/>
	<circle cx="802.331" cy="166.623" r="4" fill="#0" id="circle120"/>
	<circle cx="808.244" cy="264.197" r="4" fill="#0" id="circle121"/>
	<circle cx="817.115" cy="166.623" r="4" fill="#0" id="circle122"/>
	<circle cx="823.028" cy="264.197" r="4" fill="#0" id="circle123"/>
	<circle cx="831.899" cy="166.623" r="4" fill="#0" id="circle124"/>
	<circle cx="837.812" cy="264.197" r="4" fill="#0" id="circle125"/>
	<circle cx="846.683" cy="166.623" r="4" fill="#0" id="circle126"/>
	<circle cx="852.596" cy="264.197" r="4" fill="#0" id="circle127"/>
	<circle cx="861.466" cy="163.666" r="4" fill="#0" id="circle128"/>
	<circle cx="865.902" cy="271.589" r="4" fill="#0" id="circle129"/>
	<circle cx="876.25" cy="156.274" r="4" fill="#0" id="circle130"/>
	<circle cx="880.686" cy="271.589" r="4" fill="#0" id="circle131"/>
	<circle cx="891.034" cy="151.839" r="4" fill="#0" id="circle132"/>
	<circle cx="895.469" cy="271.589" r="4" fill="#0" id="circle133"/>
	<circle cx="904.34" cy="144.447" r="4" fill="#0" id="circle134"/>
	<circle cx="910.253" cy="271.589" r="4" fill="#0" id="circle135"/>
	<circle cx="919.124" cy="144.447" r="4" fill="#0" id="circle136"/>
	<circle cx="925.037" cy="271.589" r="4" fill="#0" id="circle137"/>
	<circle cx="933.908" cy="144.447" r="4" fill="#0" id="circle138"/>
	<circle cx="939.821" cy="271.589" r="4" fill="#0" id="circle139"/>
	<circle cx="947.213" cy="137.055" r="4" fill="#0" id="circle140"/>
	<circle cx="954.605" cy="271.589" r="4" fill="#0" id="circle141"/>
	<circle cx="961.997" cy="137.055" r="4" fill="#0" id="circle142"/>
	<circle cx="969.389" cy="271.589" r="4" fill="#0" id="circle143"/>
	<circle cx="975.303" cy="144.447" r="4" fill="#0" id="circle144"/>
	<circle cx="981.216" cy="159.231" r="4" fill="#0" id="circle145"/>
	<circle cx="984.173" cy="271.589" r="4" fill="#0" id="circle146"/>
	<circle cx="988.608" cy="172.537" r="4" fill="#0" id="circle147"/>
	<circle cx="988.608" cy="187.32" r="4" fill="#0" id="circle148"/>
	<circle cx="996" cy="200.626" r="4" fill="#0" id="circle149"/>
	<circle cx="996" cy="215.41" r="4" fill="#0" id="circle150"/>
	<circle cx="996" cy="230.194" r="4" fill="#0" id="circle151"/>
	<circle cx="996" cy="244.978" r="4" fill="#0" id="circle152"/>
	<circle cx="996" cy="259.762" r="4" fill="#0" id="circle153"/>
	</g>
</svg>