<?xml version="1.0" encoding="UTF-8" standalone="no"?>
<!-- Created with CurveBenchmark -->
<svg
	xmlns:dc="http://purl.org/dc/elements/1.1/"
	xmlns:cc="http://creativecommons.org/ns#"
	xmlns:rdf="http://www.w3.org/1999/02/22-rdf-syntax-ns#"
	xmlns:svg="http://www.w3.org/2000/svg"
	xmlns="http://www.w3.org/2000/svg"
	xmlns:sodipodi="http://sodipodi.sourceforge.net/DTD/sodipodi-0.dtd"
	xmlns:inkscape="http://www.inkscape.org/namespaces/inkscape"
	width="1000"
	height="1000"
	id="svg2"
	version="1.1"
	sodipodi:docname="manifold/gathan1-television060.png.txt">
<defs
	id="defs4" />
<metadata
	id="metadata7">
	<rdf:RDF>
		<cc:Work
			rdf:about="">
			<dc:format>image/svg+xml</dc:format>
			<dc:type
				rdf:resource="http://purl.org/dc/dcmitype/StillImage" />
			<dc:title></dc:title>
		</cc:Work>
	</rdf:RDF>
</metadata>
<g
	inkscape:label="Layer 1"
	inkscape:groupmode="layer"
	id="layer1">
	<path style="fill:none;stroke:red;stroke-width:1px;stroke-linecap:butt;stroke-linejoin:miter;stroke-opacity:1" d="M 215.731,11.8419 215.731,51.0514 z" id="boundary" inkscape:connector-curvature="0" />
	<path style="fill:none;stroke:red;stroke-width:1px;stroke-linecap:butt;stroke-linejoin:miter;stroke-opacity:1" d="M 215.731,11.8419 254.941,4 z" id="boundary" inkscape:connector-curvature="0" />
	<path style="fill:none;stroke:red;stroke-width:1px;stroke-linecap:butt;stroke-linejoin:miter;stroke-opacity:1" d="M 215.731,90.2609 215.731,129.47 z" id="boundary" inkscape:connector-curvature="0" />
	<path style="fill:none;stroke:red;stroke-width:1px;stroke-linecap:butt;stroke-linejoin:miter;stroke-opacity:1" d="M 215.731,90.2609 215.731,51.0514 z" id="boundary" inkscape:connector-curvature="0" />
	<path style="fill:none;stroke:red;stroke-width:1px;stroke-linecap:butt;stroke-linejoin:miter;stroke-opacity:1" d="M 215.731,168.68 215.731,207.889 z" id="boundary" inkscape:connector-curvature="0" />
	<path style="fill:none;stroke:red;stroke-width:1px;stroke-linecap:butt;stroke-linejoin:miter;stroke-opacity:1" d="M 215.731,247.099 215.731,286.308 z" id="boundary" inkscape:connector-curvature="0" />
	<path style="fill:none;stroke:red;stroke-width:1px;stroke-linecap:butt;stroke-linejoin:miter;stroke-opacity:1" d="M 215.731,325.518 215.731,286.308 z" id="boundary" inkscape:connector-curvature="0" />
	<path style="fill:none;stroke:red;stroke-width:1px;stroke-linecap:butt;stroke-linejoin:miter;stroke-opacity:1" d="M 415.7,525.486 376.49,525.486 z" id="boundary" inkscape:connector-curvature="0" />
	<path style="fill:none;stroke:red;stroke-width:1px;stroke-linecap:butt;stroke-linejoin:miter;stroke-opacity:1" d="M 215.731,247.099 215.731,207.889 z" id="boundary" inkscape:connector-curvature="0" />
	<path style="fill:none;stroke:red;stroke-width:1px;stroke-linecap:butt;stroke-linejoin:miter;stroke-opacity:1" d="M 215.731,168.68 215.731,129.47 z" id="boundary" inkscape:connector-curvature="0" />
	<path style="fill:none;stroke:red;stroke-width:1px;stroke-linecap:butt;stroke-linejoin:miter;stroke-opacity:1" d="M 86.3399,654.877 125.549,654.877 z" id="boundary" inkscape:connector-curvature="0" />
	<path style="fill:none;stroke:red;stroke-width:1px;stroke-linecap:butt;stroke-linejoin:miter;stroke-opacity:1" d="M 66.7352,690.166 35.3676,662.719 z" id="boundary" inkscape:connector-curvature="0" />
	<path style="fill:none;stroke:red;stroke-width:1px;stroke-linecap:butt;stroke-linejoin:miter;stroke-opacity:1" d="M 35.3676,662.719 86.3399,654.877 z" id="boundary" inkscape:connector-curvature="0" />
	<path style="fill:none;stroke:red;stroke-width:1px;stroke-linecap:butt;stroke-linejoin:miter;stroke-opacity:1" d="M 203.968,654.877 164.759,654.877 z" id="boundary" inkscape:connector-curvature="0" />
	<path style="fill:none;stroke:red;stroke-width:1px;stroke-linecap:butt;stroke-linejoin:miter;stroke-opacity:1" d="M 125.549,654.877 164.759,654.877 z" id="boundary" inkscape:connector-curvature="0" />
	<path style="fill:none;stroke:red;stroke-width:1px;stroke-linecap:butt;stroke-linejoin:miter;stroke-opacity:1" d="M 215.731,364.727 215.731,403.937 z" id="boundary" inkscape:connector-curvature="0" />
	<path style="fill:none;stroke:red;stroke-width:1px;stroke-linecap:butt;stroke-linejoin:miter;stroke-opacity:1" d="M 215.731,325.518 215.731,364.727 z" id="boundary" inkscape:connector-curvature="0" />
	<path style="fill:none;stroke:red;stroke-width:1px;stroke-linecap:butt;stroke-linejoin:miter;stroke-opacity:1" d="M 215.731,403.937 215.731,443.146 z" id="boundary" inkscape:connector-curvature="0" />
	<path style="fill:none;stroke:red;stroke-width:1px;stroke-linecap:butt;stroke-linejoin:miter;stroke-opacity:1" d="M 215.731,482.356 215.731,443.146 z" id="boundary" inkscape:connector-curvature="0" />
	<path style="fill:none;stroke:red;stroke-width:1px;stroke-linecap:butt;stroke-linejoin:miter;stroke-opacity:1" d="M 243.178,654.877 203.968,654.877 z" id="boundary" inkscape:connector-curvature="0" />
	<path style="fill:none;stroke:red;stroke-width:1px;stroke-linecap:butt;stroke-linejoin:miter;stroke-opacity:1" d="M 258.862,525.486 219.652,521.565 z" id="boundary" inkscape:connector-curvature="0" />
	<path style="fill:none;stroke:red;stroke-width:1px;stroke-linecap:butt;stroke-linejoin:miter;stroke-opacity:1" d="M 219.652,521.565 215.731,482.356 z" id="boundary" inkscape:connector-curvature="0" />
	<path style="fill:none;stroke:red;stroke-width:1px;stroke-linecap:butt;stroke-linejoin:miter;stroke-opacity:1" d="M 298.071,525.486 258.862,525.486 z" id="boundary" inkscape:connector-curvature="0" />
	<path style="fill:none;stroke:red;stroke-width:1px;stroke-linecap:butt;stroke-linejoin:miter;stroke-opacity:1" d="M 333.36,4 372.569,4 z" id="boundary" inkscape:connector-curvature="0" />
	<path style="fill:none;stroke:red;stroke-width:1px;stroke-linecap:butt;stroke-linejoin:miter;stroke-opacity:1" d="M 294.15,4 333.36,4 z" id="boundary" inkscape:connector-curvature="0" />
	<path style="fill:none;stroke:red;stroke-width:1px;stroke-linecap:butt;stroke-linejoin:miter;stroke-opacity:1" d="M 254.941,4 294.15,4 z" id="boundary" inkscape:connector-curvature="0" />
	<path style="fill:none;stroke:red;stroke-width:1px;stroke-linecap:butt;stroke-linejoin:miter;stroke-opacity:1" d="M 282.387,654.877 243.178,654.877 z" id="boundary" inkscape:connector-curvature="0" />
	<path style="fill:none;stroke:red;stroke-width:1px;stroke-linecap:butt;stroke-linejoin:miter;stroke-opacity:1" d="M 321.597,654.877 282.387,654.877 z" id="boundary" inkscape:connector-curvature="0" />
	<path style="fill:none;stroke:red;stroke-width:1px;stroke-linecap:butt;stroke-linejoin:miter;stroke-opacity:1" d="M 337.281,525.486 376.49,525.486 z" id="boundary" inkscape:connector-curvature="0" />
	<path style="fill:none;stroke:red;stroke-width:1px;stroke-linecap:butt;stroke-linejoin:miter;stroke-opacity:1" d="M 360.806,654.877 321.597,654.877 z" id="boundary" inkscape:connector-curvature="0" />
	<path style="fill:none;stroke:red;stroke-width:1px;stroke-linecap:butt;stroke-linejoin:miter;stroke-opacity:1" d="M 298.071,525.486 337.281,525.486 z" id="boundary" inkscape:connector-curvature="0" />
	<path style="fill:none;stroke:red;stroke-width:1px;stroke-linecap:butt;stroke-linejoin:miter;stroke-opacity:1" d="M 372.569,4 411.779,4 z" id="boundary" inkscape:connector-curvature="0" />
	<path style="fill:none;stroke:red;stroke-width:1px;stroke-linecap:butt;stroke-linejoin:miter;stroke-opacity:1" d="M 54.9723,815.636 35.3676,780.348 z" id="boundary" inkscape:connector-curvature="0" />
	<path style="fill:none;stroke:red;stroke-width:1px;stroke-linecap:butt;stroke-linejoin:miter;stroke-opacity:1" d="M 200.047,897.976 160.838,897.976 z" id="boundary" inkscape:connector-curvature="0" />
	<path style="fill:none;stroke:red;stroke-width:1px;stroke-linecap:butt;stroke-linejoin:miter;stroke-opacity:1" d="M 4,913.66 43.2095,897.976 z" id="boundary" inkscape:connector-curvature="0" />
	<path style="fill:none;stroke:red;stroke-width:1px;stroke-linecap:butt;stroke-linejoin:miter;stroke-opacity:1" d="M 4,952.87 4,913.66 z" id="boundary" inkscape:connector-curvature="0" />
	<path style="fill:none;stroke:red;stroke-width:1px;stroke-linecap:butt;stroke-linejoin:miter;stroke-opacity:1" d="M 35.3676,980.316 4,952.87 z" id="boundary" inkscape:connector-curvature="0" />
	<path style="fill:none;stroke:red;stroke-width:1px;stroke-linecap:butt;stroke-linejoin:miter;stroke-opacity:1" d="M 74.5771,996 35.3676,980.316 z" id="boundary" inkscape:connector-curvature="0" />
	<path style="fill:none;stroke:red;stroke-width:1px;stroke-linecap:butt;stroke-linejoin:miter;stroke-opacity:1" d="M 43.2095,897.976 82.419,897.976 z" id="boundary" inkscape:connector-curvature="0" />
	<path style="fill:none;stroke:red;stroke-width:1px;stroke-linecap:butt;stroke-linejoin:miter;stroke-opacity:1" d="M 82.419,897.976 121.628,897.976 z" id="boundary" inkscape:connector-curvature="0" />
	<path style="fill:none;stroke:red;stroke-width:1px;stroke-linecap:butt;stroke-linejoin:miter;stroke-opacity:1" d="M 152.996,980.316 113.787,980.316 z" id="boundary" inkscape:connector-curvature="0" />
	<path style="fill:none;stroke:red;stroke-width:1px;stroke-linecap:butt;stroke-linejoin:miter;stroke-opacity:1" d="M 121.628,897.976 160.838,897.976 z" id="boundary" inkscape:connector-curvature="0" />
	<path style="fill:none;stroke:red;stroke-width:1px;stroke-linecap:butt;stroke-linejoin:miter;stroke-opacity:1" d="M 192.206,980.316 152.996,980.316 z" id="boundary" inkscape:connector-curvature="0" />
	<path style="fill:none;stroke:red;stroke-width:1px;stroke-linecap:butt;stroke-linejoin:miter;stroke-opacity:1" d="M 74.5771,996 113.787,980.316 z" id="boundary" inkscape:connector-curvature="0" />
	<path style="fill:none;stroke:red;stroke-width:1px;stroke-linecap:butt;stroke-linejoin:miter;stroke-opacity:1" d="M 200.047,897.976 239.257,897.976 z" id="boundary" inkscape:connector-curvature="0" />
	<path style="fill:none;stroke:red;stroke-width:1px;stroke-linecap:butt;stroke-linejoin:miter;stroke-opacity:1" d="M 192.206,980.316 231.415,980.316 z" id="boundary" inkscape:connector-curvature="0" />
	<path style="fill:none;stroke:red;stroke-width:1px;stroke-linecap:butt;stroke-linejoin:miter;stroke-opacity:1" d="M 270.625,980.316 231.415,980.316 z" id="boundary" inkscape:connector-curvature="0" />
	<path style="fill:none;stroke:red;stroke-width:1px;stroke-linecap:butt;stroke-linejoin:miter;stroke-opacity:1" d="M 270.625,980.316 309.834,988.158 z" id="boundary" inkscape:connector-curvature="0" />
	<path style="fill:none;stroke:red;stroke-width:1px;stroke-linecap:butt;stroke-linejoin:miter;stroke-opacity:1" d="M 239.257,897.976 278.466,897.976 z" id="boundary" inkscape:connector-curvature="0" />
	<path style="fill:none;stroke:red;stroke-width:1px;stroke-linecap:butt;stroke-linejoin:miter;stroke-opacity:1" d="M 317.676,897.976 278.466,897.976 z" id="boundary" inkscape:connector-curvature="0" />
	<path style="fill:none;stroke:red;stroke-width:1px;stroke-linecap:butt;stroke-linejoin:miter;stroke-opacity:1" d="M 349.043,980.316 309.834,988.158 z" id="boundary" inkscape:connector-curvature="0" />
	<path style="fill:none;stroke:red;stroke-width:1px;stroke-linecap:butt;stroke-linejoin:miter;stroke-opacity:1" d="M 317.676,897.976 356.885,897.976 z" id="boundary" inkscape:connector-curvature="0" />
	<path style="fill:none;stroke:red;stroke-width:1px;stroke-linecap:butt;stroke-linejoin:miter;stroke-opacity:1" d="M 388.253,980.316 349.043,980.316 z" id="boundary" inkscape:connector-curvature="0" />
	<path style="fill:none;stroke:red;stroke-width:1px;stroke-linecap:butt;stroke-linejoin:miter;stroke-opacity:1" d="M 396.095,897.976 356.885,897.976 z" id="boundary" inkscape:connector-curvature="0" />
	<path style="fill:none;stroke:red;stroke-width:1px;stroke-linecap:butt;stroke-linejoin:miter;stroke-opacity:1" d="M 450.988,4 490.198,4 z" id="boundary" inkscape:connector-curvature="0" />
	<path style="fill:none;stroke:red;stroke-width:1px;stroke-linecap:butt;stroke-linejoin:miter;stroke-opacity:1" d="M 415.7,525.486 443.146,556.854 z" id="boundary" inkscape:connector-curvature="0" />
	<path style="fill:none;stroke:red;stroke-width:1px;stroke-linecap:butt;stroke-linejoin:miter;stroke-opacity:1" d="M 490.198,4 529.407,4 z" id="boundary" inkscape:connector-curvature="0" />
	<path style="fill:none;stroke:red;stroke-width:1px;stroke-linecap:butt;stroke-linejoin:miter;stroke-opacity:1" d="M 568.617,4 607.826,4 z" id="boundary" inkscape:connector-curvature="0" />
	<path style="fill:none;stroke:red;stroke-width:1px;stroke-linecap:butt;stroke-linejoin:miter;stroke-opacity:1" d="M 607.826,4 647.036,4 z" id="boundary" inkscape:connector-curvature="0" />
	<path style="fill:none;stroke:red;stroke-width:1px;stroke-linecap:butt;stroke-linejoin:miter;stroke-opacity:1" d="M 529.407,4 568.617,4 z" id="boundary" inkscape:connector-curvature="0" />
	<path style="fill:none;stroke:red;stroke-width:1px;stroke-linecap:butt;stroke-linejoin:miter;stroke-opacity:1" d="M 658.798,525.486 619.589,529.407 z" id="boundary" inkscape:connector-curvature="0" />
	<path style="fill:none;stroke:red;stroke-width:1px;stroke-linecap:butt;stroke-linejoin:miter;stroke-opacity:1" d="M 400.016,654.877 360.806,654.877 z" id="boundary" inkscape:connector-curvature="0" />
	<path style="fill:none;stroke:red;stroke-width:1px;stroke-linecap:butt;stroke-linejoin:miter;stroke-opacity:1" d="M 443.146,596.063 439.225,650.957 z" id="boundary" inkscape:connector-curvature="0" />
	<path style="fill:none;stroke:red;stroke-width:1px;stroke-linecap:butt;stroke-linejoin:miter;stroke-opacity:1" d="M 419.621,690.166 443.146,721.534 z" id="boundary" inkscape:connector-curvature="0" />
	<path style="fill:none;stroke:red;stroke-width:1px;stroke-linecap:butt;stroke-linejoin:miter;stroke-opacity:1" d="M 443.146,556.854 443.146,596.063 z" id="boundary" inkscape:connector-curvature="0" />
	<path style="fill:none;stroke:red;stroke-width:1px;stroke-linecap:butt;stroke-linejoin:miter;stroke-opacity:1" d="M 619.589,568.617 619.589,529.407 z" id="boundary" inkscape:connector-curvature="0" />
	<path style="fill:none;stroke:red;stroke-width:1px;stroke-linecap:butt;stroke-linejoin:miter;stroke-opacity:1" d="M 619.589,607.826 619.589,647.036 z" id="boundary" inkscape:connector-curvature="0" />
	<path style="fill:none;stroke:red;stroke-width:1px;stroke-linecap:butt;stroke-linejoin:miter;stroke-opacity:1" d="M 619.589,568.617 619.589,607.826 z" id="boundary" inkscape:connector-curvature="0" />
	<path style="fill:none;stroke:red;stroke-width:1px;stroke-linecap:butt;stroke-linejoin:miter;stroke-opacity:1" d="M 619.589,647.036 619.589,694.087 z" id="boundary" inkscape:connector-curvature="0" />
	<path style="fill:none;stroke:red;stroke-width:1px;stroke-linecap:butt;stroke-linejoin:miter;stroke-opacity:1" d="M 658.798,525.486 698.008,525.486 z" id="boundary" inkscape:connector-curvature="0" />
	<path style="fill:none;stroke:red;stroke-width:1px;stroke-linecap:butt;stroke-linejoin:miter;stroke-opacity:1" d="M 411.779,4 450.988,4 z" id="boundary" inkscape:connector-curvature="0" />
	<path style="fill:none;stroke:red;stroke-width:1px;stroke-linecap:butt;stroke-linejoin:miter;stroke-opacity:1" d="M 713.692,35.3676 713.692,74.5771 z" id="boundary" inkscape:connector-curvature="0" />
	<path style="fill:none;stroke:red;stroke-width:1px;stroke-linecap:butt;stroke-linejoin:miter;stroke-opacity:1" d="M 713.692,74.5771 713.692,113.787 z" id="boundary" inkscape:connector-curvature="0" />
	<path style="fill:none;stroke:red;stroke-width:1px;stroke-linecap:butt;stroke-linejoin:miter;stroke-opacity:1" d="M 713.692,152.996 713.692,113.787 z" id="boundary" inkscape:connector-curvature="0" />
	<path style="fill:none;stroke:red;stroke-width:1px;stroke-linecap:butt;stroke-linejoin:miter;stroke-opacity:1" d="M 713.692,192.206 713.692,152.996 z" id="boundary" inkscape:connector-curvature="0" />
	<path style="fill:none;stroke:red;stroke-width:1px;stroke-linecap:butt;stroke-linejoin:miter;stroke-opacity:1" d="M 713.692,192.206 713.692,231.415 z" id="boundary" inkscape:connector-curvature="0" />
	<path style="fill:none;stroke:red;stroke-width:1px;stroke-linecap:butt;stroke-linejoin:miter;stroke-opacity:1" d="M 713.692,270.625 713.692,231.415 z" id="boundary" inkscape:connector-curvature="0" />
	<path style="fill:none;stroke:red;stroke-width:1px;stroke-linecap:butt;stroke-linejoin:miter;stroke-opacity:1" d="M 713.692,270.625 713.692,309.834 z" id="boundary" inkscape:connector-curvature="0" />
	<path style="fill:none;stroke:red;stroke-width:1px;stroke-linecap:butt;stroke-linejoin:miter;stroke-opacity:1" d="M 713.692,349.043 713.692,309.834 z" id="boundary" inkscape:connector-curvature="0" />
	<path style="fill:none;stroke:red;stroke-width:1px;stroke-linecap:butt;stroke-linejoin:miter;stroke-opacity:1" d="M 713.692,388.253 713.692,349.043 z" id="boundary" inkscape:connector-curvature="0" />
	<path style="fill:none;stroke:red;stroke-width:1px;stroke-linecap:butt;stroke-linejoin:miter;stroke-opacity:1" d="M 737.217,654.877 698.008,654.877 z" id="boundary" inkscape:connector-curvature="0" />
	<path style="fill:none;stroke:red;stroke-width:1px;stroke-linecap:butt;stroke-linejoin:miter;stroke-opacity:1" d="M 658.798,654.877 698.008,654.877 z" id="boundary" inkscape:connector-curvature="0" />
	<path style="fill:none;stroke:red;stroke-width:1px;stroke-linecap:butt;stroke-linejoin:miter;stroke-opacity:1" d="M 713.692,427.462 713.692,466.672 z" id="boundary" inkscape:connector-curvature="0" />
	<path style="fill:none;stroke:red;stroke-width:1px;stroke-linecap:butt;stroke-linejoin:miter;stroke-opacity:1" d="M 713.692,388.253 713.692,427.462 z" id="boundary" inkscape:connector-curvature="0" />
	<path style="fill:none;stroke:red;stroke-width:1px;stroke-linecap:butt;stroke-linejoin:miter;stroke-opacity:1" d="M 713.692,466.672 698.008,525.486 z" id="boundary" inkscape:connector-curvature="0" />
	<path style="fill:none;stroke:red;stroke-width:1px;stroke-linecap:butt;stroke-linejoin:miter;stroke-opacity:1" d="M 737.217,654.877 756.822,690.166 z" id="boundary" inkscape:connector-curvature="0" />
	<path style="fill:none;stroke:red;stroke-width:1px;stroke-linecap:butt;stroke-linejoin:miter;stroke-opacity:1" d="M 647.036,4 686.245,4 z" id="boundary" inkscape:connector-curvature="0" />
	<path style="fill:none;stroke:red;stroke-width:1px;stroke-linecap:butt;stroke-linejoin:miter;stroke-opacity:1" d="M 686.245,4 713.692,35.3676 z" id="boundary" inkscape:connector-curvature="0" />
	<path style="fill:none;stroke:red;stroke-width:1px;stroke-linecap:butt;stroke-linejoin:miter;stroke-opacity:1" d="M 443.146,721.534 427.462,780.348 z" id="boundary" inkscape:connector-curvature="0" />
	<path style="fill:none;stroke:red;stroke-width:1px;stroke-linecap:butt;stroke-linejoin:miter;stroke-opacity:1" d="M 427.462,780.348 443.146,835.241 z" id="boundary" inkscape:connector-curvature="0" />
	<path style="fill:none;stroke:red;stroke-width:1px;stroke-linecap:butt;stroke-linejoin:miter;stroke-opacity:1" d="M 619.589,733.296 619.589,772.506 z" id="boundary" inkscape:connector-curvature="0" />
	<path style="fill:none;stroke:red;stroke-width:1px;stroke-linecap:butt;stroke-linejoin:miter;stroke-opacity:1" d="M 619.589,772.506 619.589,819.557 z" id="boundary" inkscape:connector-curvature="0" />
	<path style="fill:none;stroke:red;stroke-width:1px;stroke-linecap:butt;stroke-linejoin:miter;stroke-opacity:1" d="M 619.589,858.767 619.589,819.557 z" id="boundary" inkscape:connector-curvature="0" />
	<path style="fill:none;stroke:red;stroke-width:1px;stroke-linecap:butt;stroke-linejoin:miter;stroke-opacity:1" d="M 619.589,694.087 619.589,733.296 z" id="boundary" inkscape:connector-curvature="0" />
	<path style="fill:none;stroke:red;stroke-width:1px;stroke-linecap:butt;stroke-linejoin:miter;stroke-opacity:1" d="M 396.095,897.976 435.304,897.976 z" id="boundary" inkscape:connector-curvature="0" />
	<path style="fill:none;stroke:red;stroke-width:1px;stroke-linecap:butt;stroke-linejoin:miter;stroke-opacity:1" d="M 443.146,835.241 435.304,897.976 z" id="boundary" inkscape:connector-curvature="0" />
	<path style="fill:none;stroke:red;stroke-width:1px;stroke-linecap:butt;stroke-linejoin:miter;stroke-opacity:1" d="M 427.462,980.316 388.253,980.316 z" id="boundary" inkscape:connector-curvature="0" />
	<path style="fill:none;stroke:red;stroke-width:1px;stroke-linecap:butt;stroke-linejoin:miter;stroke-opacity:1" d="M 466.672,980.316 427.462,980.316 z" id="boundary" inkscape:connector-curvature="0" />
	<path style="fill:none;stroke:red;stroke-width:1px;stroke-linecap:butt;stroke-linejoin:miter;stroke-opacity:1" d="M 505.881,980.316 466.672,980.316 z" id="boundary" inkscape:connector-curvature="0" />
	<path style="fill:none;stroke:red;stroke-width:1px;stroke-linecap:butt;stroke-linejoin:miter;stroke-opacity:1" d="M 619.589,858.767 623.51,897.976 z" id="boundary" inkscape:connector-curvature="0" />
	<path style="fill:none;stroke:red;stroke-width:1px;stroke-linecap:butt;stroke-linejoin:miter;stroke-opacity:1" d="M 662.719,897.976 623.51,897.976 z" id="boundary" inkscape:connector-curvature="0" />
	<path style="fill:none;stroke:red;stroke-width:1px;stroke-linecap:butt;stroke-linejoin:miter;stroke-opacity:1" d="M 505.881,980.316 545.091,980.316 z" id="boundary" inkscape:connector-curvature="0" />
	<path style="fill:none;stroke:red;stroke-width:1px;stroke-linecap:butt;stroke-linejoin:miter;stroke-opacity:1" d="M 545.091,980.316 584.3,992.079 z" id="boundary" inkscape:connector-curvature="0" />
	<path style="fill:none;stroke:red;stroke-width:1px;stroke-linecap:butt;stroke-linejoin:miter;stroke-opacity:1" d="M 623.51,980.316 584.3,992.079 z" id="boundary" inkscape:connector-curvature="0" />
	<path style="fill:none;stroke:red;stroke-width:1px;stroke-linecap:butt;stroke-linejoin:miter;stroke-opacity:1" d="M 701.929,897.976 662.719,897.976 z" id="boundary" inkscape:connector-curvature="0" />
	<path style="fill:none;stroke:red;stroke-width:1px;stroke-linecap:butt;stroke-linejoin:miter;stroke-opacity:1" d="M 717.613,815.636 737.217,780.348 z" id="boundary" inkscape:connector-curvature="0" />
	<path style="fill:none;stroke:red;stroke-width:1px;stroke-linecap:butt;stroke-linejoin:miter;stroke-opacity:1" d="M 741.138,897.976 780.348,897.976 z" id="boundary" inkscape:connector-curvature="0" />
	<path style="fill:none;stroke:red;stroke-width:1px;stroke-linecap:butt;stroke-linejoin:miter;stroke-opacity:1" d="M 819.557,897.976 780.348,897.976 z" id="boundary" inkscape:connector-curvature="0" />
	<path style="fill:none;stroke:red;stroke-width:1px;stroke-linecap:butt;stroke-linejoin:miter;stroke-opacity:1" d="M 858.767,897.976 819.557,897.976 z" id="boundary" inkscape:connector-curvature="0" />
	<path style="fill:none;stroke:red;stroke-width:1px;stroke-linecap:butt;stroke-linejoin:miter;stroke-opacity:1" d="M 741.138,897.976 701.929,897.976 z" id="boundary" inkscape:connector-curvature="0" />
	<path style="fill:none;stroke:red;stroke-width:1px;stroke-linecap:butt;stroke-linejoin:miter;stroke-opacity:1" d="M 623.51,980.316 662.719,980.316 z" id="boundary" inkscape:connector-curvature="0" />
	<path style="fill:none;stroke:red;stroke-width:1px;stroke-linecap:butt;stroke-linejoin:miter;stroke-opacity:1" d="M 701.929,980.316 741.138,980.316 z" id="boundary" inkscape:connector-curvature="0" />
	<path style="fill:none;stroke:red;stroke-width:1px;stroke-linecap:butt;stroke-linejoin:miter;stroke-opacity:1" d="M 780.348,980.316 741.138,980.316 z" id="boundary" inkscape:connector-curvature="0" />
	<path style="fill:none;stroke:red;stroke-width:1px;stroke-linecap:butt;stroke-linejoin:miter;stroke-opacity:1" d="M 701.929,980.316 662.719,980.316 z" id="boundary" inkscape:connector-curvature="0" />
	<path style="fill:none;stroke:red;stroke-width:1px;stroke-linecap:butt;stroke-linejoin:miter;stroke-opacity:1" d="M 858.767,897.976 897.976,909.739 z" id="boundary" inkscape:connector-curvature="0" />
	<path style="fill:none;stroke:red;stroke-width:1px;stroke-linecap:butt;stroke-linejoin:miter;stroke-opacity:1" d="M 858.767,980.316 819.557,980.316 z" id="boundary" inkscape:connector-curvature="0" />
	<path style="fill:none;stroke:red;stroke-width:1px;stroke-linecap:butt;stroke-linejoin:miter;stroke-opacity:1" d="M 897.976,909.739 897.976,972.474 z" id="boundary" inkscape:connector-curvature="0" />
	<path style="fill:none;stroke:red;stroke-width:1px;stroke-linecap:butt;stroke-linejoin:miter;stroke-opacity:1" d="M 897.976,972.474 858.767,980.316 z" id="boundary" inkscape:connector-curvature="0" />
	<path style="fill:none;stroke:red;stroke-width:1px;stroke-linecap:butt;stroke-linejoin:miter;stroke-opacity:1" d="M 819.557,980.316 780.348,980.316 z" id="boundary" inkscape:connector-curvature="0" />
	<circle cx="4" cy="913.66" r="4" fill="#0" id="circle0"/>
	<circle cx="4" cy="952.87" r="4" fill="#0" id="circle1"/>
	<circle cx="35.3676" cy="662.719" r="4" fill="#0" id="circle2"/>
	<circle cx="35.3676" cy="780.348" r="4" fill="#0" id="circle3"/>
	<circle cx="35.3676" cy="980.316" r="4" fill="#0" id="circle4"/>
	<circle cx="43.2095" cy="897.976" r="4" fill="#0" id="circle5"/>
	<circle cx="54.9723" cy="815.636" r="4" fill="#0" id="circle6"/>
	<circle cx="66.7352" cy="690.166" r="4" fill="#0" id="circle7"/>
	<circle cx="74.5771" cy="780.348" r="4" fill="#0" id="circle8"/>
	<circle cx="74.5771" cy="996" r="4" fill="#0" id="circle9"/>
	<circle cx="82.419" cy="897.976" r="4" fill="#0" id="circle10"/>
	<circle cx="86.3399" cy="654.877" r="4" fill="#0" id="circle11"/>
	<circle cx="94.1818" cy="815.636" r="4" fill="#0" id="circle12"/>
	<circle cx="105.945" cy="690.166" r="4" fill="#0" id="circle13"/>
	<circle cx="113.787" cy="780.348" r="4" fill="#0" id="circle14"/>
	<circle cx="113.787" cy="980.316" r="4" fill="#0" id="circle15"/>
	<circle cx="121.628" cy="897.976" r="4" fill="#0" id="circle16"/>
	<circle cx="125.549" cy="654.877" r="4" fill="#0" id="circle17"/>
	<circle cx="133.391" cy="815.636" r="4" fill="#0" id="circle18"/>
	<circle cx="145.154" cy="690.166" r="4" fill="#0" id="circle19"/>
	<circle cx="152.996" cy="780.348" r="4" fill="#0" id="circle20"/>
	<circle cx="152.996" cy="980.316" r="4" fill="#0" id="circle21"/>
	<circle cx="160.838" cy="897.976" r="4" fill="#0" id="circle22"/>
	<circle cx="164.759" cy="654.877" r="4" fill="#0" id="circle23"/>
	<circle cx="172.601" cy="815.636" r="4" fill="#0" id="circle24"/>
	<circle cx="184.364" cy="690.166" r="4" fill="#0" id="circle25"/>
	<circle cx="192.206" cy="780.348" r="4" fill="#0" id="circle26"/>
	<circle cx="192.206" cy="980.316" r="4" fill="#0" id="circle27"/>
	<circle cx="200.047" cy="897.976" r="4" fill="#0" id="circle28"/>
	<circle cx="203.968" cy="654.877" r="4" fill="#0" id="circle29"/>
	<circle cx="211.81" cy="815.636" r="4" fill="#0" id="circle30"/>
	<circle cx="215.731" cy="11.8419" r="4" fill="#0" id="circle31"/>
	<circle cx="215.731" cy="51.0514" r="4" fill="#0" id="circle32"/>
	<circle cx="215.731" cy="90.2609" r="4" fill="#0" id="circle33"/>
	<circle cx="215.731" cy="129.47" r="4" fill="#0" id="circle34"/>
	<circle cx="215.731" cy="168.68" r="4" fill="#0" id="circle35"/>
	<circle cx="215.731" cy="207.889" r="4" fill="#0" id="circle36"/>
	<circle cx="215.731" cy="247.099" r="4" fill="#0" id="circle37"/>
	<circle cx="215.731" cy="286.308" r="4" fill="#0" id="circle38"/>
	<circle cx="215.731" cy="325.518" r="4" fill="#0" id="circle39"/>
	<circle cx="215.731" cy="364.727" r="4" fill="#0" id="circle40"/>
	<circle cx="215.731" cy="403.937" r="4" fill="#0" id="circle41"/>
	<circle cx="215.731" cy="443.146" r="4" fill="#0" id="circle42"/>
	<circle cx="215.731" cy="482.356" r="4" fill="#0" id="circle43"/>
	<circle cx="219.652" cy="521.565" r="4" fill="#0" id="circle44"/>
	<circle cx="223.573" cy="690.166" r="4" fill="#0" id="circle45"/>
	<circle cx="231.415" cy="780.348" r="4" fill="#0" id="circle46"/>
	<circle cx="231.415" cy="980.316" r="4" fill="#0" id="circle47"/>
	<circle cx="239.257" cy="897.976" r="4" fill="#0" id="circle48"/>
	<circle cx="243.178" cy="654.877" r="4" fill="#0" id="circle49"/>
	<circle cx="251.02" cy="815.636" r="4" fill="#0" id="circle50"/>
	<circle cx="254.941" cy="4" r="4" fill="#0" id="circle51"/>
	<circle cx="258.862" cy="525.486" r="4" fill="#0" id="circle52"/>
	<circle cx="262.783" cy="690.166" r="4" fill="#0" id="circle53"/>
	<circle cx="270.625" cy="780.348" r="4" fill="#0" id="circle54"/>
	<circle cx="270.625" cy="980.316" r="4" fill="#0" id="circle55"/>
	<circle cx="278.466" cy="897.976" r="4" fill="#0" id="circle56"/>
	<circle cx="282.387" cy="654.877" r="4" fill="#0" id="circle57"/>
	<circle cx="290.229" cy="815.636" r="4" fill="#0" id="circle58"/>
	<circle cx="294.15" cy="4" r="4" fill="#0" id="circle59"/>
	<circle cx="298.071" cy="525.486" r="4" fill="#0" id="circle60"/>
	<circle cx="301.992" cy="690.166" r="4" fill="#0" id="circle61"/>
	<circle cx="309.834" cy="780.348" r="4" fill="#0" id="circle62"/>
	<circle cx="309.834" cy="988.158" r="4" fill="#0" id="circle63"/>
	<circle cx="317.676" cy="897.976" r="4" fill="#0" id="circle64"/>
	<circle cx="321.597" cy="654.877" r="4" fill="#0" id="circle65"/>
	<circle cx="329.439" cy="815.636" r="4" fill="#0" id="circle66"/>
	<circle cx="333.36" cy="4" r="4" fill="#0" id="circle67"/>
	<circle cx="337.281" cy="525.486" r="4" fill="#0" id="circle68"/>
	<circle cx="341.202" cy="690.166" r="4" fill="#0" id="circle69"/>
	<circle cx="349.043" cy="780.348" r="4" fill="#0" id="circle70"/>
	<circle cx="349.043" cy="980.316" r="4" fill="#0" id="circle71"/>
	<circle cx="356.885" cy="897.976" r="4" fill="#0" id="circle72"/>
	<circle cx="360.806" cy="654.877" r="4" fill="#0" id="circle73"/>
	<circle cx="368.648" cy="815.636" r="4" fill="#0" id="circle74"/>
	<circle cx="372.569" cy="4" r="4" fill="#0" id="circle75"/>
	<circle cx="376.49" cy="525.486" r="4" fill="#0" id="circle76"/>
	<circle cx="380.411" cy="690.166" r="4" fill="#0" id="circle77"/>
	<circle cx="388.253" cy="780.348" r="4" fill="#0" id="circle78"/>
	<circle cx="388.253" cy="980.316" r="4" fill="#0" id="circle79"/>
	<circle cx="396.095" cy="897.976" r="4" fill="#0" id="circle80"/>
	<circle cx="400.016" cy="654.877" r="4" fill="#0" id="circle81"/>
	<circle cx="407.858" cy="815.636" r="4" fill="#0" id="circle82"/>
	<circle cx="411.779" cy="4" r="4" fill="#0" id="circle83"/>
	<circle cx="415.7" cy="525.486" r="4" fill="#0" id="circle84"/>
	<circle cx="419.621" cy="690.166" r="4" fill="#0" id="circle85"/>
	<circle cx="427.462" cy="780.348" r="4" fill="#0" id="circle86"/>
	<circle cx="427.462" cy="980.316" r="4" fill="#0" id="circle87"/>
	<circle cx="435.304" cy="897.976" r="4" fill="#0" id="circle88"/>
	<circle cx="439.225" cy="650.957" r="4" fill="#0" id="circle89"/>
	<circle cx="443.146" cy="556.854" r="4" fill="#0" id="circle90"/>
	<circle cx="443.146" cy="596.063" r="4" fill="#0" id="circle91"/>
	<circle cx="443.146" cy="721.534" r="4" fill="#0" id="circle92"/>
	<circle cx="443.146" cy="835.241" r="4" fill="#0" id="circle93"/>
	<circle cx="450.988" cy="4" r="4" fill="#0" id="circle94"/>
	<circle cx="466.672" cy="980.316" r="4" fill="#0" id="circle95"/>
	<circle cx="490.198" cy="4" r="4" fill="#0" id="circle96"/>
	<circle cx="505.881" cy="980.316" r="4" fill="#0" id="circle97"/>
	<circle cx="529.407" cy="4" r="4" fill="#0" id="circle98"/>
	<circle cx="545.091" cy="980.316" r="4" fill="#0" id="circle99"/>
	<circle cx="568.617" cy="4" r="4" fill="#0" id="circle100"/>
	<circle cx="584.3" cy="992.079" r="4" fill="#0" id="circle101"/>
	<circle cx="607.826" cy="4" r="4" fill="#0" id="circle102"/>
	<circle cx="619.589" cy="529.407" r="4" fill="#0" id="circle103"/>
	<circle cx="619.589" cy="568.617" r="4" fill="#0" id="circle104"/>
	<circle cx="619.589" cy="607.826" r="4" fill="#0" id="circle105"/>
	<circle cx="619.589" cy="647.036" r="4" fill="#0" id="circle106"/>
	<circle cx="619.589" cy="694.087" r="4" fill="#0" id="circle107"/>
	<circle cx="619.589" cy="733.296" r="4" fill="#0" id="circle108"/>
	<circle cx="619.589" cy="772.506" r="4" fill="#0" id="circle109"/>
	<circle cx="619.589" cy="819.557" r="4" fill="#0" id="circle110"/>
	<circle cx="619.589" cy="858.767" r="4" fill="#0" id="circle111"/>
	<circle cx="623.51" cy="897.976" r="4" fill="#0" id="circle112"/>
	<circle cx="623.51" cy="980.316" r="4" fill="#0" id="circle113"/>
	<circle cx="647.036" cy="4" r="4" fill="#0" id="circle114"/>
	<circle cx="658.798" cy="525.486" r="4" fill="#0" id="circle115"/>
	<circle cx="658.798" cy="654.877" r="4" fill="#0" id="circle116"/>
	<circle cx="658.798" cy="780.348" r="4" fill="#0" id="circle117"/>
	<circle cx="662.719" cy="897.976" r="4" fill="#0" id="circle118"/>
	<circle cx="662.719" cy="980.316" r="4" fill="#0" id="circle119"/>
	<circle cx="678.403" cy="690.166" r="4" fill="#0" id="circle120"/>
	<circle cx="678.403" cy="815.636" r="4" fill="#0" id="circle121"/>
	<circle cx="686.245" cy="4" r="4" fill="#0" id="circle122"/>
	<circle cx="698.008" cy="525.486" r="4" fill="#0" id="circle123"/>
	<circle cx="698.008" cy="654.877" r="4" fill="#0" id="circle124"/>
	<circle cx="698.008" cy="780.348" r="4" fill="#0" id="circle125"/>
	<circle cx="701.929" cy="897.976" r="4" fill="#0" id="circle126"/>
	<circle cx="701.929" cy="980.316" r="4" fill="#0" id="circle127"/>
	<circle cx="713.692" cy="35.3676" r="4" fill="#0" id="circle128"/>
	<circle cx="713.692" cy="74.5771" r="4" fill="#0" id="circle129"/>
	<circle cx="713.692" cy="113.787" r="4" fill="#0" id="circle130"/>
	<circle cx="713.692" cy="152.996" r="4" fill="#0" id="circle131"/>
	<circle cx="713.692" cy="192.206" r="4" fill="#0" id="circle132"/>
	<circle cx="713.692" cy="231.415" r="4" fill="#0" id="circle133"/>
	<circle cx="713.692" cy="270.625" r="4" fill="#0" id="circle134"/>
	<circle cx="713.692" cy="309.834" r="4" fill="#0" id="circle135"/>
	<circle cx="713.692" cy="349.043" r="4" fill="#0" id="circle136"/>
	<circle cx="713.692" cy="388.253" r="4" fill="#0" id="circle137"/>
	<circle cx="713.692" cy="427.462" r="4" fill="#0" id="circle138"/>
	<circle cx="713.692" cy="466.672" r="4" fill="#0" id="circle139"/>
	<circle cx="717.613" cy="690.166" r="4" fill="#0" id="circle140"/>
	<circle cx="717.613" cy="815.636" r="4" fill="#0" id="circle141"/>
	<circle cx="737.217" cy="654.877" r="4" fill="#0" id="circle142"/>
	<circle cx="737.217" cy="780.348" r="4" fill="#0" id="circle143"/>
	<circle cx="741.138" cy="897.976" r="4" fill="#0" id="circle144"/>
	<circle cx="741.138" cy="980.316" r="4" fill="#0" id="circle145"/>
	<circle cx="756.822" cy="690.166" r="4" fill="#0" id="circle146"/>
	<circle cx="780.348" cy="897.976" r="4" fill="#0" id="circle147"/>
	<circle cx="780.348" cy="980.316" r="4" fill="#0" id="circle148"/>
	<circle cx="819.557" cy="897.976" r="4" fill="#0" id="circle149"/>
	<circle cx="819.557" cy="980.316" r="4" fill="#0" id="circle150"/>
	<circle cx="858.767" cy="897.976" r="4" fill="#0" id="circle151"/>
	<circle cx="858.767" cy="980.316" r="4" fill="#0" id="circle152"/>
	<circle cx="897.976" cy="909.739" r="4" fill="#0" id="circle153"/>
	<circle cx="897.976" cy="972.474" r="4" fill="#0" id="circle154"/>
	</g>
</svg>