<?xml version="1.0" encoding="UTF-8" standalone="no"?>
<!-- Created with CurveBenchmark -->
<svg
	xmlns:dc="http://purl.org/dc/elements/1.1/"
	xmlns:cc="http://creativecommons.org/ns#"
	xmlns:rdf="http://www.w3.org/1999/02/22-rdf-syntax-ns#"
	xmlns:svg="http://www.w3.org/2000/svg"
	xmlns="http://www.w3.org/2000/svg"
	xmlns:sodipodi="http://sodipodi.sourceforge.net/DTD/sodipodi-0.dtd"
	xmlns:inkscape="http://www.inkscape.org/namespaces/inkscape"
	width="1000"
	height="1000"
	id="svg2"
	version="1.1"
	sodipodi:docname="manifold/gathan1-key07.png.txt">
<defs
	id="defs4" />
<metadata
	id="metadata7">
	<rdf:RDF>
		<cc:Work
			rdf:about="">
			<dc:format>image/svg+xml</dc:format>
			<dc:type
				rdf:resource="http://purl.org/dc/dcmitype/StillImage" />
			<dc:title></dc:title>
		</cc:Work>
	</rdf:RDF>
</metadata>
<g
	inkscape:label="Layer 1"
	inkscape:groupmode="layer"
	id="layer1">
	<path style="fill:none;stroke:red;stroke-width:1px;stroke-linecap:butt;stroke-linejoin:miter;stroke-opacity:1" d="M 68.7761,16.9552 50.2687,18.806 z" id="boundary" inkscape:connector-curvature="0" />
	<path style="fill:none;stroke:red;stroke-width:1px;stroke-linecap:butt;stroke-linejoin:miter;stroke-opacity:1" d="M 50.2687,18.806 31.7612,18.806 z" id="boundary" inkscape:connector-curvature="0" />
	<path style="fill:none;stroke:red;stroke-width:1px;stroke-linecap:butt;stroke-linejoin:miter;stroke-opacity:1" d="M 87.2836,13.2537 68.7761,16.9552 z" id="boundary" inkscape:connector-curvature="0" />
	<path style="fill:none;stroke:red;stroke-width:1px;stroke-linecap:butt;stroke-linejoin:miter;stroke-opacity:1" d="M 13.2537,37.3134 31.7612,18.806 z" id="boundary" inkscape:connector-curvature="0" />
	<path style="fill:none;stroke:red;stroke-width:1px;stroke-linecap:butt;stroke-linejoin:miter;stroke-opacity:1" d="M 124.299,4 142.806,4 z" id="boundary" inkscape:connector-curvature="0" />
	<path style="fill:none;stroke:red;stroke-width:1px;stroke-linecap:butt;stroke-linejoin:miter;stroke-opacity:1" d="M 105.791,9.55224 124.299,4 z" id="boundary" inkscape:connector-curvature="0" />
	<path style="fill:none;stroke:red;stroke-width:1px;stroke-linecap:butt;stroke-linejoin:miter;stroke-opacity:1" d="M 87.2836,13.2537 105.791,9.55224 z" id="boundary" inkscape:connector-curvature="0" />
	<path style="fill:none;stroke:red;stroke-width:1px;stroke-linecap:butt;stroke-linejoin:miter;stroke-opacity:1" d="M 142.806,4 161.313,4 z" id="boundary" inkscape:connector-curvature="0" />
	<path style="fill:none;stroke:red;stroke-width:1px;stroke-linecap:butt;stroke-linejoin:miter;stroke-opacity:1" d="M 4,55.8209 13.2537,37.3134 z" id="boundary" inkscape:connector-curvature="0" />
	<path style="fill:none;stroke:red;stroke-width:1px;stroke-linecap:butt;stroke-linejoin:miter;stroke-opacity:1" d="M 4,74.3284 4,55.8209 z" id="boundary" inkscape:connector-curvature="0" />
	<path style="fill:none;stroke:red;stroke-width:1px;stroke-linecap:butt;stroke-linejoin:miter;stroke-opacity:1" d="M 4,111.343 4,92.8358 z" id="boundary" inkscape:connector-curvature="0" />
	<path style="fill:none;stroke:red;stroke-width:1px;stroke-linecap:butt;stroke-linejoin:miter;stroke-opacity:1" d="M 4,92.8358 4,74.3284 z" id="boundary" inkscape:connector-curvature="0" />
	<path style="fill:none;stroke:red;stroke-width:1px;stroke-linecap:butt;stroke-linejoin:miter;stroke-opacity:1" d="M 4,148.358 4,129.851 z" id="boundary" inkscape:connector-curvature="0" />
	<path style="fill:none;stroke:red;stroke-width:1px;stroke-linecap:butt;stroke-linejoin:miter;stroke-opacity:1" d="M 13.2537,202.03 4,185.373 z" id="boundary" inkscape:connector-curvature="0" />
	<path style="fill:none;stroke:red;stroke-width:1px;stroke-linecap:butt;stroke-linejoin:miter;stroke-opacity:1" d="M 4,185.373 4,166.866 z" id="boundary" inkscape:connector-curvature="0" />
	<path style="fill:none;stroke:red;stroke-width:1px;stroke-linecap:butt;stroke-linejoin:miter;stroke-opacity:1" d="M 4,166.866 4,148.358 z" id="boundary" inkscape:connector-curvature="0" />
	<path style="fill:none;stroke:red;stroke-width:1px;stroke-linecap:butt;stroke-linejoin:miter;stroke-opacity:1" d="M 13.2537,202.03 4,222.388 z" id="boundary" inkscape:connector-curvature="0" />
	<path style="fill:none;stroke:red;stroke-width:1px;stroke-linecap:butt;stroke-linejoin:miter;stroke-opacity:1" d="M 4,129.851 4,111.343 z" id="boundary" inkscape:connector-curvature="0" />
	<path style="fill:none;stroke:red;stroke-width:1px;stroke-linecap:butt;stroke-linejoin:miter;stroke-opacity:1" d="M 198.328,7.70149 179.821,4 z" id="boundary" inkscape:connector-curvature="0" />
	<path style="fill:none;stroke:red;stroke-width:1px;stroke-linecap:butt;stroke-linejoin:miter;stroke-opacity:1" d="M 216.836,7.70149 198.328,7.70149 z" id="boundary" inkscape:connector-curvature="0" />
	<path style="fill:none;stroke:red;stroke-width:1px;stroke-linecap:butt;stroke-linejoin:miter;stroke-opacity:1" d="M 216.836,7.70149 235.343,13.2537 z" id="boundary" inkscape:connector-curvature="0" />
	<path style="fill:none;stroke:red;stroke-width:1px;stroke-linecap:butt;stroke-linejoin:miter;stroke-opacity:1" d="M 253.851,9.55224 235.343,13.2537 z" id="boundary" inkscape:connector-curvature="0" />
	<path style="fill:none;stroke:red;stroke-width:1px;stroke-linecap:butt;stroke-linejoin:miter;stroke-opacity:1" d="M 253.851,9.55224 272.358,4 z" id="boundary" inkscape:connector-curvature="0" />
	<path style="fill:none;stroke:red;stroke-width:1px;stroke-linecap:butt;stroke-linejoin:miter;stroke-opacity:1" d="M 272.358,4 290.866,4 z" id="boundary" inkscape:connector-curvature="0" />
	<path style="fill:none;stroke:red;stroke-width:1px;stroke-linecap:butt;stroke-linejoin:miter;stroke-opacity:1" d="M 290.866,4 309.373,4 z" id="boundary" inkscape:connector-curvature="0" />
	<path style="fill:none;stroke:red;stroke-width:1px;stroke-linecap:butt;stroke-linejoin:miter;stroke-opacity:1" d="M 309.373,4 327.881,7.70149 z" id="boundary" inkscape:connector-curvature="0" />
	<path style="fill:none;stroke:red;stroke-width:1px;stroke-linecap:butt;stroke-linejoin:miter;stroke-opacity:1" d="M 327.881,7.70149 335.284,26.209 z" id="boundary" inkscape:connector-curvature="0" />
	<path style="fill:none;stroke:red;stroke-width:1px;stroke-linecap:butt;stroke-linejoin:miter;stroke-opacity:1" d="M 338.985,61.3731 338.985,79.8806 z" id="boundary" inkscape:connector-curvature="0" />
	<path style="fill:none;stroke:red;stroke-width:1px;stroke-linecap:butt;stroke-linejoin:miter;stroke-opacity:1" d="M 335.284,26.209 344.537,42.8657 z" id="boundary" inkscape:connector-curvature="0" />
	<path style="fill:none;stroke:red;stroke-width:1px;stroke-linecap:butt;stroke-linejoin:miter;stroke-opacity:1" d="M 344.537,42.8657 338.985,61.3731 z" id="boundary" inkscape:connector-curvature="0" />
	<path style="fill:none;stroke:red;stroke-width:1px;stroke-linecap:butt;stroke-linejoin:miter;stroke-opacity:1" d="M 338.985,79.8806 338.985,98.3881 z" id="boundary" inkscape:connector-curvature="0" />
	<path style="fill:none;stroke:red;stroke-width:1px;stroke-linecap:butt;stroke-linejoin:miter;stroke-opacity:1" d="M 338.985,98.3881 338.985,116.896 z" id="boundary" inkscape:connector-curvature="0" />
	<path style="fill:none;stroke:red;stroke-width:1px;stroke-linecap:butt;stroke-linejoin:miter;stroke-opacity:1" d="M 401.91,142.806 383.403,142.806 z" id="boundary" inkscape:connector-curvature="0" />
	<path style="fill:none;stroke:red;stroke-width:1px;stroke-linecap:butt;stroke-linejoin:miter;stroke-opacity:1" d="M 364.896,142.806 348.239,133.552 z" id="boundary" inkscape:connector-curvature="0" />
	<path style="fill:none;stroke:red;stroke-width:1px;stroke-linecap:butt;stroke-linejoin:miter;stroke-opacity:1" d="M 348.239,133.552 338.985,116.896 z" id="boundary" inkscape:connector-curvature="0" />
	<path style="fill:none;stroke:red;stroke-width:1px;stroke-linecap:butt;stroke-linejoin:miter;stroke-opacity:1" d="M 383.403,142.806 364.896,142.806 z" id="boundary" inkscape:connector-curvature="0" />
	<path style="fill:none;stroke:red;stroke-width:1px;stroke-linecap:butt;stroke-linejoin:miter;stroke-opacity:1" d="M 161.313,4 179.821,4 z" id="boundary" inkscape:connector-curvature="0" />
	<path style="fill:none;stroke:red;stroke-width:1px;stroke-linecap:butt;stroke-linejoin:miter;stroke-opacity:1" d="M 4,222.388 13.2537,239.045 z" id="boundary" inkscape:connector-curvature="0" />
	<path style="fill:none;stroke:red;stroke-width:1px;stroke-linecap:butt;stroke-linejoin:miter;stroke-opacity:1" d="M 13.2537,239.045 4,268.657 z" id="boundary" inkscape:connector-curvature="0" />
	<path style="fill:none;stroke:red;stroke-width:1px;stroke-linecap:butt;stroke-linejoin:miter;stroke-opacity:1" d="M 4,287.164 13.2537,303.821 z" id="boundary" inkscape:connector-curvature="0" />
	<path style="fill:none;stroke:red;stroke-width:1px;stroke-linecap:butt;stroke-linejoin:miter;stroke-opacity:1" d="M 13.2537,303.821 4,324.179 z" id="boundary" inkscape:connector-curvature="0" />
	<path style="fill:none;stroke:red;stroke-width:1px;stroke-linecap:butt;stroke-linejoin:miter;stroke-opacity:1" d="M 4,287.164 4,268.657 z" id="boundary" inkscape:connector-curvature="0" />
	<path style="fill:none;stroke:red;stroke-width:1px;stroke-linecap:butt;stroke-linejoin:miter;stroke-opacity:1" d="M 4,342.687 4,324.179 z" id="boundary" inkscape:connector-curvature="0" />
	<path style="fill:none;stroke:red;stroke-width:1px;stroke-linecap:butt;stroke-linejoin:miter;stroke-opacity:1" d="M 13.2537,379.701 4,361.194 z" id="boundary" inkscape:connector-curvature="0" />
	<path style="fill:none;stroke:red;stroke-width:1px;stroke-linecap:butt;stroke-linejoin:miter;stroke-opacity:1" d="M 4,361.194 4,342.687 z" id="boundary" inkscape:connector-curvature="0" />
	<path style="fill:none;stroke:red;stroke-width:1px;stroke-linecap:butt;stroke-linejoin:miter;stroke-opacity:1" d="M 13.2537,379.701 4,398.209 z" id="boundary" inkscape:connector-curvature="0" />
	<path style="fill:none;stroke:red;stroke-width:1px;stroke-linecap:butt;stroke-linejoin:miter;stroke-opacity:1" d="M 120.597,477.791 102.09,475.94 z" id="boundary" inkscape:connector-curvature="0" />
	<path style="fill:none;stroke:red;stroke-width:1px;stroke-linecap:butt;stroke-linejoin:miter;stroke-opacity:1" d="M 35.4627,466.687 18.806,457.433 z" id="boundary" inkscape:connector-curvature="0" />
	<path style="fill:none;stroke:red;stroke-width:1px;stroke-linecap:butt;stroke-linejoin:miter;stroke-opacity:1" d="M 18.806,457.433 4,444.478 z" id="boundary" inkscape:connector-curvature="0" />
	<path style="fill:none;stroke:red;stroke-width:1px;stroke-linecap:butt;stroke-linejoin:miter;stroke-opacity:1" d="M 4,444.478 4,416.716 z" id="boundary" inkscape:connector-curvature="0" />
	<path style="fill:none;stroke:red;stroke-width:1px;stroke-linecap:butt;stroke-linejoin:miter;stroke-opacity:1" d="M 4,416.716 4,398.209 z" id="boundary" inkscape:connector-curvature="0" />
	<path style="fill:none;stroke:red;stroke-width:1px;stroke-linecap:butt;stroke-linejoin:miter;stroke-opacity:1" d="M 66.9254,468.537 50.2687,477.791 z" id="boundary" inkscape:connector-curvature="0" />
	<path style="fill:none;stroke:red;stroke-width:1px;stroke-linecap:butt;stroke-linejoin:miter;stroke-opacity:1" d="M 50.2687,477.791 35.4627,466.687 z" id="boundary" inkscape:connector-curvature="0" />
	<path style="fill:none;stroke:red;stroke-width:1px;stroke-linecap:butt;stroke-linejoin:miter;stroke-opacity:1" d="M 66.9254,468.537 83.5821,477.791 z" id="boundary" inkscape:connector-curvature="0" />
	<path style="fill:none;stroke:red;stroke-width:1px;stroke-linecap:butt;stroke-linejoin:miter;stroke-opacity:1" d="M 102.09,475.94 83.5821,477.791 z" id="boundary" inkscape:connector-curvature="0" />
	<path style="fill:none;stroke:red;stroke-width:1px;stroke-linecap:butt;stroke-linejoin:miter;stroke-opacity:1" d="M 329.731,413.015 329.731,440.776 z" id="boundary" inkscape:connector-curvature="0" />
	<path style="fill:none;stroke:red;stroke-width:1px;stroke-linecap:butt;stroke-linejoin:miter;stroke-opacity:1" d="M 329.731,413.015 338.985,394.507 z" id="boundary" inkscape:connector-curvature="0" />
	<path style="fill:none;stroke:red;stroke-width:1px;stroke-linecap:butt;stroke-linejoin:miter;stroke-opacity:1" d="M 305.672,475.94 324.179,466.687 z" id="boundary" inkscape:connector-curvature="0" />
	<path style="fill:none;stroke:red;stroke-width:1px;stroke-linecap:butt;stroke-linejoin:miter;stroke-opacity:1" d="M 329.731,440.776 324.179,466.687 z" id="boundary" inkscape:connector-curvature="0" />
	<path style="fill:none;stroke:red;stroke-width:1px;stroke-linecap:butt;stroke-linejoin:miter;stroke-opacity:1" d="M 385.254,357.493 366.746,361.194 z" id="boundary" inkscape:connector-curvature="0" />
	<path style="fill:none;stroke:red;stroke-width:1px;stroke-linecap:butt;stroke-linejoin:miter;stroke-opacity:1" d="M 366.746,361.194 348.239,357.493 z" id="boundary" inkscape:connector-curvature="0" />
	<path style="fill:none;stroke:red;stroke-width:1px;stroke-linecap:butt;stroke-linejoin:miter;stroke-opacity:1" d="M 338.985,394.507 338.985,376 z" id="boundary" inkscape:connector-curvature="0" />
	<path style="fill:none;stroke:red;stroke-width:1px;stroke-linecap:butt;stroke-linejoin:miter;stroke-opacity:1" d="M 338.985,376 348.239,357.493 z" id="boundary" inkscape:connector-curvature="0" />
	<path style="fill:none;stroke:red;stroke-width:1px;stroke-linecap:butt;stroke-linejoin:miter;stroke-opacity:1" d="M 305.672,475.94 287.164,477.791 z" id="boundary" inkscape:connector-curvature="0" />
	<path style="fill:none;stroke:red;stroke-width:1px;stroke-linecap:butt;stroke-linejoin:miter;stroke-opacity:1" d="M 139.104,477.791 120.597,477.791 z" id="boundary" inkscape:connector-curvature="0" />
	<path style="fill:none;stroke:red;stroke-width:1px;stroke-linecap:butt;stroke-linejoin:miter;stroke-opacity:1" d="M 176.119,477.791 157.612,477.791 z" id="boundary" inkscape:connector-curvature="0" />
	<path style="fill:none;stroke:red;stroke-width:1px;stroke-linecap:butt;stroke-linejoin:miter;stroke-opacity:1" d="M 194.627,477.791 176.119,477.791 z" id="boundary" inkscape:connector-curvature="0" />
	<path style="fill:none;stroke:red;stroke-width:1px;stroke-linecap:butt;stroke-linejoin:miter;stroke-opacity:1" d="M 157.612,477.791 139.104,477.791 z" id="boundary" inkscape:connector-curvature="0" />
	<path style="fill:none;stroke:red;stroke-width:1px;stroke-linecap:butt;stroke-linejoin:miter;stroke-opacity:1" d="M 231.642,477.791 213.134,477.791 z" id="boundary" inkscape:connector-curvature="0" />
	<path style="fill:none;stroke:red;stroke-width:1px;stroke-linecap:butt;stroke-linejoin:miter;stroke-opacity:1" d="M 268.657,477.791 250.149,477.791 z" id="boundary" inkscape:connector-curvature="0" />
	<path style="fill:none;stroke:red;stroke-width:1px;stroke-linecap:butt;stroke-linejoin:miter;stroke-opacity:1" d="M 287.164,477.791 268.657,477.791 z" id="boundary" inkscape:connector-curvature="0" />
	<path style="fill:none;stroke:red;stroke-width:1px;stroke-linecap:butt;stroke-linejoin:miter;stroke-opacity:1" d="M 250.149,477.791 231.642,477.791 z" id="boundary" inkscape:connector-curvature="0" />
	<path style="fill:none;stroke:red;stroke-width:1px;stroke-linecap:butt;stroke-linejoin:miter;stroke-opacity:1" d="M 213.134,477.791 194.627,477.791 z" id="boundary" inkscape:connector-curvature="0" />
	<path style="fill:none;stroke:red;stroke-width:1px;stroke-linecap:butt;stroke-linejoin:miter;stroke-opacity:1" d="M 401.91,348.239 385.254,357.493 z" id="boundary" inkscape:connector-curvature="0" />
	<path style="fill:none;stroke:red;stroke-width:1px;stroke-linecap:butt;stroke-linejoin:miter;stroke-opacity:1" d="M 401.91,142.806 420.418,142.806 z" id="boundary" inkscape:connector-curvature="0" />
	<path style="fill:none;stroke:red;stroke-width:1px;stroke-linecap:butt;stroke-linejoin:miter;stroke-opacity:1" d="M 438.925,146.507 450.03,161.313 z" id="boundary" inkscape:connector-curvature="0" />
	<path style="fill:none;stroke:red;stroke-width:1px;stroke-linecap:butt;stroke-linejoin:miter;stroke-opacity:1" d="M 420.418,142.806 438.925,146.507 z" id="boundary" inkscape:connector-curvature="0" />
	<path style="fill:none;stroke:red;stroke-width:1px;stroke-linecap:butt;stroke-linejoin:miter;stroke-opacity:1" d="M 450.03,161.313 450.03,179.821 z" id="boundary" inkscape:connector-curvature="0" />
	<path style="fill:none;stroke:red;stroke-width:1px;stroke-linecap:butt;stroke-linejoin:miter;stroke-opacity:1" d="M 579.582,179.821 561.075,179.821 z" id="boundary" inkscape:connector-curvature="0" />
	<path style="fill:none;stroke:red;stroke-width:1px;stroke-linecap:butt;stroke-linejoin:miter;stroke-opacity:1" d="M 450.03,179.821 468.537,179.821 z" id="boundary" inkscape:connector-curvature="0" />
	<path style="fill:none;stroke:red;stroke-width:1px;stroke-linecap:butt;stroke-linejoin:miter;stroke-opacity:1" d="M 487.045,179.821 468.537,179.821 z" id="boundary" inkscape:connector-curvature="0" />
	<path style="fill:none;stroke:red;stroke-width:1px;stroke-linecap:butt;stroke-linejoin:miter;stroke-opacity:1" d="M 685.075,170.567 668.418,179.821 z" id="boundary" inkscape:connector-curvature="0" />
	<path style="fill:none;stroke:red;stroke-width:1px;stroke-linecap:butt;stroke-linejoin:miter;stroke-opacity:1" d="M 668.418,179.821 651.761,170.567 z" id="boundary" inkscape:connector-curvature="0" />
	<path style="fill:none;stroke:red;stroke-width:1px;stroke-linecap:butt;stroke-linejoin:miter;stroke-opacity:1" d="M 505.552,179.821 487.045,179.821 z" id="boundary" inkscape:connector-curvature="0" />
	<path style="fill:none;stroke:red;stroke-width:1px;stroke-linecap:butt;stroke-linejoin:miter;stroke-opacity:1" d="M 505.552,179.821 524.06,179.821 z" id="boundary" inkscape:connector-curvature="0" />
	<path style="fill:none;stroke:red;stroke-width:1px;stroke-linecap:butt;stroke-linejoin:miter;stroke-opacity:1" d="M 542.567,179.821 561.075,179.821 z" id="boundary" inkscape:connector-curvature="0" />
	<path style="fill:none;stroke:red;stroke-width:1px;stroke-linecap:butt;stroke-linejoin:miter;stroke-opacity:1" d="M 542.567,179.821 524.06,179.821 z" id="boundary" inkscape:connector-curvature="0" />
	<path style="fill:none;stroke:red;stroke-width:1px;stroke-linecap:butt;stroke-linejoin:miter;stroke-opacity:1" d="M 579.582,179.821 598.09,179.821 z" id="boundary" inkscape:connector-curvature="0" />
	<path style="fill:none;stroke:red;stroke-width:1px;stroke-linecap:butt;stroke-linejoin:miter;stroke-opacity:1" d="M 616.597,179.821 635.104,179.821 z" id="boundary" inkscape:connector-curvature="0" />
	<path style="fill:none;stroke:red;stroke-width:1px;stroke-linecap:butt;stroke-linejoin:miter;stroke-opacity:1" d="M 651.761,170.567 635.104,179.821 z" id="boundary" inkscape:connector-curvature="0" />
	<path style="fill:none;stroke:red;stroke-width:1px;stroke-linecap:butt;stroke-linejoin:miter;stroke-opacity:1" d="M 616.597,179.821 598.09,179.821 z" id="boundary" inkscape:connector-curvature="0" />
	<path style="fill:none;stroke:red;stroke-width:1px;stroke-linecap:butt;stroke-linejoin:miter;stroke-opacity:1" d="M 685.075,170.567 701.731,179.821 z" id="boundary" inkscape:connector-curvature="0" />
	<path style="fill:none;stroke:red;stroke-width:1px;stroke-linecap:butt;stroke-linejoin:miter;stroke-opacity:1" d="M 701.731,179.821 720.239,179.821 z" id="boundary" inkscape:connector-curvature="0" />
	<path style="fill:none;stroke:red;stroke-width:1px;stroke-linecap:butt;stroke-linejoin:miter;stroke-opacity:1" d="M 738.746,179.821 757.254,179.821 z" id="boundary" inkscape:connector-curvature="0" />
	<path style="fill:none;stroke:red;stroke-width:1px;stroke-linecap:butt;stroke-linejoin:miter;stroke-opacity:1" d="M 738.746,179.821 720.239,179.821 z" id="boundary" inkscape:connector-curvature="0" />
	<path style="fill:none;stroke:red;stroke-width:1px;stroke-linecap:butt;stroke-linejoin:miter;stroke-opacity:1" d="M 829.433,170.567 812.776,179.821 z" id="boundary" inkscape:connector-curvature="0" />
	<path style="fill:none;stroke:red;stroke-width:1px;stroke-linecap:butt;stroke-linejoin:miter;stroke-opacity:1" d="M 812.776,179.821 794.269,172.418 z" id="boundary" inkscape:connector-curvature="0" />
	<path style="fill:none;stroke:red;stroke-width:1px;stroke-linecap:butt;stroke-linejoin:miter;stroke-opacity:1" d="M 775.761,179.821 794.269,172.418 z" id="boundary" inkscape:connector-curvature="0" />
	<path style="fill:none;stroke:red;stroke-width:1px;stroke-linecap:butt;stroke-linejoin:miter;stroke-opacity:1" d="M 829.433,170.567 846.09,179.821 z" id="boundary" inkscape:connector-curvature="0" />
	<path style="fill:none;stroke:red;stroke-width:1px;stroke-linecap:butt;stroke-linejoin:miter;stroke-opacity:1" d="M 864.597,179.821 846.09,179.821 z" id="boundary" inkscape:connector-curvature="0" />
	<path style="fill:none;stroke:red;stroke-width:1px;stroke-linecap:butt;stroke-linejoin:miter;stroke-opacity:1" d="M 775.761,179.821 757.254,179.821 z" id="boundary" inkscape:connector-curvature="0" />
	<path style="fill:none;stroke:red;stroke-width:1px;stroke-linecap:butt;stroke-linejoin:miter;stroke-opacity:1" d="M 864.597,179.821 883.104,179.821 z" id="boundary" inkscape:connector-curvature="0" />
	<path style="fill:none;stroke:red;stroke-width:1px;stroke-linecap:butt;stroke-linejoin:miter;stroke-opacity:1" d="M 901.612,179.821 920.119,179.821 z" id="boundary" inkscape:connector-curvature="0" />
	<path style="fill:none;stroke:red;stroke-width:1px;stroke-linecap:butt;stroke-linejoin:miter;stroke-opacity:1" d="M 901.612,179.821 883.104,179.821 z" id="boundary" inkscape:connector-curvature="0" />
	<path style="fill:none;stroke:red;stroke-width:1px;stroke-linecap:butt;stroke-linejoin:miter;stroke-opacity:1" d="M 938.627,179.821 957.134,179.821 z" id="boundary" inkscape:connector-curvature="0" />
	<path style="fill:none;stroke:red;stroke-width:1px;stroke-linecap:butt;stroke-linejoin:miter;stroke-opacity:1" d="M 957.134,179.821 971.94,190.925 z" id="boundary" inkscape:connector-curvature="0" />
	<path style="fill:none;stroke:red;stroke-width:1px;stroke-linecap:butt;stroke-linejoin:miter;stroke-opacity:1" d="M 971.94,190.925 990.448,198.328 z" id="boundary" inkscape:connector-curvature="0" />
	<path style="fill:none;stroke:red;stroke-width:1px;stroke-linecap:butt;stroke-linejoin:miter;stroke-opacity:1" d="M 990.448,198.328 996,216.836 z" id="boundary" inkscape:connector-curvature="0" />
	<path style="fill:none;stroke:red;stroke-width:1px;stroke-linecap:butt;stroke-linejoin:miter;stroke-opacity:1" d="M 920.119,179.821 938.627,179.821 z" id="boundary" inkscape:connector-curvature="0" />
	<path style="fill:none;stroke:red;stroke-width:1px;stroke-linecap:butt;stroke-linejoin:miter;stroke-opacity:1" d="M 996,216.836 996,235.343 z" id="boundary" inkscape:connector-curvature="0" />
	<path style="fill:none;stroke:red;stroke-width:1px;stroke-linecap:butt;stroke-linejoin:miter;stroke-opacity:1" d="M 490.746,311.224 509.254,311.224 z" id="boundary" inkscape:connector-curvature="0" />
	<path style="fill:none;stroke:red;stroke-width:1px;stroke-linecap:butt;stroke-linejoin:miter;stroke-opacity:1" d="M 509.254,311.224 527.761,318.627 z" id="boundary" inkscape:connector-curvature="0" />
	<path style="fill:none;stroke:red;stroke-width:1px;stroke-linecap:butt;stroke-linejoin:miter;stroke-opacity:1" d="M 546.269,311.224 564.776,311.224 z" id="boundary" inkscape:connector-curvature="0" />
	<path style="fill:none;stroke:red;stroke-width:1px;stroke-linecap:butt;stroke-linejoin:miter;stroke-opacity:1" d="M 564.776,311.224 583.284,318.627 z" id="boundary" inkscape:connector-curvature="0" />
	<path style="fill:none;stroke:red;stroke-width:1px;stroke-linecap:butt;stroke-linejoin:miter;stroke-opacity:1" d="M 546.269,311.224 527.761,318.627 z" id="boundary" inkscape:connector-curvature="0" />
	<path style="fill:none;stroke:red;stroke-width:1px;stroke-linecap:butt;stroke-linejoin:miter;stroke-opacity:1" d="M 601.791,311.224 620.299,311.224 z" id="boundary" inkscape:connector-curvature="0" />
	<path style="fill:none;stroke:red;stroke-width:1px;stroke-linecap:butt;stroke-linejoin:miter;stroke-opacity:1" d="M 620.299,311.224 636.955,320.478 z" id="boundary" inkscape:connector-curvature="0" />
	<path style="fill:none;stroke:red;stroke-width:1px;stroke-linecap:butt;stroke-linejoin:miter;stroke-opacity:1" d="M 673.97,320.478 655.463,316.776 z" id="boundary" inkscape:connector-curvature="0" />
	<path style="fill:none;stroke:red;stroke-width:1px;stroke-linecap:butt;stroke-linejoin:miter;stroke-opacity:1" d="M 690.627,311.224 673.97,320.478 z" id="boundary" inkscape:connector-curvature="0" />
	<path style="fill:none;stroke:red;stroke-width:1px;stroke-linecap:butt;stroke-linejoin:miter;stroke-opacity:1" d="M 709.134,311.224 690.627,311.224 z" id="boundary" inkscape:connector-curvature="0" />
	<path style="fill:none;stroke:red;stroke-width:1px;stroke-linecap:butt;stroke-linejoin:miter;stroke-opacity:1" d="M 601.791,311.224 583.284,318.627 z" id="boundary" inkscape:connector-curvature="0" />
	<path style="fill:none;stroke:red;stroke-width:1px;stroke-linecap:butt;stroke-linejoin:miter;stroke-opacity:1" d="M 655.463,316.776 636.955,320.478 z" id="boundary" inkscape:connector-curvature="0" />
	<path style="fill:none;stroke:red;stroke-width:1px;stroke-linecap:butt;stroke-linejoin:miter;stroke-opacity:1" d="M 438.925,342.687 453.731,327.881 z" id="boundary" inkscape:connector-curvature="0" />
	<path style="fill:none;stroke:red;stroke-width:1px;stroke-linecap:butt;stroke-linejoin:miter;stroke-opacity:1" d="M 453.731,327.881 472.239,318.627 z" id="boundary" inkscape:connector-curvature="0" />
	<path style="fill:none;stroke:red;stroke-width:1px;stroke-linecap:butt;stroke-linejoin:miter;stroke-opacity:1" d="M 401.91,348.239 420.418,351.94 z" id="boundary" inkscape:connector-curvature="0" />
	<path style="fill:none;stroke:red;stroke-width:1px;stroke-linecap:butt;stroke-linejoin:miter;stroke-opacity:1" d="M 438.925,342.687 420.418,351.94 z" id="boundary" inkscape:connector-curvature="0" />
	<path style="fill:none;stroke:red;stroke-width:1px;stroke-linecap:butt;stroke-linejoin:miter;stroke-opacity:1" d="M 472.239,318.627 490.746,311.224 z" id="boundary" inkscape:connector-curvature="0" />
	<path style="fill:none;stroke:red;stroke-width:1px;stroke-linecap:butt;stroke-linejoin:miter;stroke-opacity:1" d="M 709.134,311.224 727.642,314.925 z" id="boundary" inkscape:connector-curvature="0" />
	<path style="fill:none;stroke:red;stroke-width:1px;stroke-linecap:butt;stroke-linejoin:miter;stroke-opacity:1" d="M 820.179,311.224 801.672,314.925 z" id="boundary" inkscape:connector-curvature="0" />
	<path style="fill:none;stroke:red;stroke-width:1px;stroke-linecap:butt;stroke-linejoin:miter;stroke-opacity:1" d="M 801.672,314.925 783.164,311.224 z" id="boundary" inkscape:connector-curvature="0" />
	<path style="fill:none;stroke:red;stroke-width:1px;stroke-linecap:butt;stroke-linejoin:miter;stroke-opacity:1" d="M 875.701,301.97 857.194,311.224 z" id="boundary" inkscape:connector-curvature="0" />
	<path style="fill:none;stroke:red;stroke-width:1px;stroke-linecap:butt;stroke-linejoin:miter;stroke-opacity:1" d="M 783.164,311.224 764.657,314.925 z" id="boundary" inkscape:connector-curvature="0" />
	<path style="fill:none;stroke:red;stroke-width:1px;stroke-linecap:butt;stroke-linejoin:miter;stroke-opacity:1" d="M 764.657,314.925 746.149,311.224 z" id="boundary" inkscape:connector-curvature="0" />
	<path style="fill:none;stroke:red;stroke-width:1px;stroke-linecap:butt;stroke-linejoin:miter;stroke-opacity:1" d="M 986.746,264.955 996,235.343 z" id="boundary" inkscape:connector-curvature="0" />
	<path style="fill:none;stroke:red;stroke-width:1px;stroke-linecap:butt;stroke-linejoin:miter;stroke-opacity:1" d="M 996,281.612 986.746,264.955 z" id="boundary" inkscape:connector-curvature="0" />
	<path style="fill:none;stroke:red;stroke-width:1px;stroke-linecap:butt;stroke-linejoin:miter;stroke-opacity:1" d="M 996,281.612 990.448,300.119 z" id="boundary" inkscape:connector-curvature="0" />
	<path style="fill:none;stroke:red;stroke-width:1px;stroke-linecap:butt;stroke-linejoin:miter;stroke-opacity:1" d="M 990.448,300.119 971.94,301.97 z" id="boundary" inkscape:connector-curvature="0" />
	<path style="fill:none;stroke:red;stroke-width:1px;stroke-linecap:butt;stroke-linejoin:miter;stroke-opacity:1" d="M 962.687,318.627 971.94,301.97 z" id="boundary" inkscape:connector-curvature="0" />
	<path style="fill:none;stroke:red;stroke-width:1px;stroke-linecap:butt;stroke-linejoin:miter;stroke-opacity:1" d="M 746.149,311.224 727.642,314.925 z" id="boundary" inkscape:connector-curvature="0" />
	<path style="fill:none;stroke:red;stroke-width:1px;stroke-linecap:butt;stroke-linejoin:miter;stroke-opacity:1" d="M 857.194,311.224 838.687,314.925 z" id="boundary" inkscape:connector-curvature="0" />
	<path style="fill:none;stroke:red;stroke-width:1px;stroke-linecap:butt;stroke-linejoin:miter;stroke-opacity:1" d="M 838.687,314.925 820.179,311.224 z" id="boundary" inkscape:connector-curvature="0" />
	<path style="fill:none;stroke:red;stroke-width:1px;stroke-linecap:butt;stroke-linejoin:miter;stroke-opacity:1" d="M 892.358,311.224 910.866,311.224 z" id="boundary" inkscape:connector-curvature="0" />
	<path style="fill:none;stroke:red;stroke-width:1px;stroke-linecap:butt;stroke-linejoin:miter;stroke-opacity:1" d="M 910.866,311.224 927.522,320.478 z" id="boundary" inkscape:connector-curvature="0" />
	<path style="fill:none;stroke:red;stroke-width:1px;stroke-linecap:butt;stroke-linejoin:miter;stroke-opacity:1" d="M 892.358,311.224 875.701,301.97 z" id="boundary" inkscape:connector-curvature="0" />
	<path style="fill:none;stroke:red;stroke-width:1px;stroke-linecap:butt;stroke-linejoin:miter;stroke-opacity:1" d="M 927.522,320.478 944.179,311.224 z" id="boundary" inkscape:connector-curvature="0" />
	<path style="fill:none;stroke:red;stroke-width:1px;stroke-linecap:butt;stroke-linejoin:miter;stroke-opacity:1" d="M 944.179,311.224 962.687,318.627 z" id="boundary" inkscape:connector-curvature="0" />
	<circle cx="4" cy="55.8209" r="4" fill="#0" id="circle0"/>
	<circle cx="4" cy="74.3284" r="4" fill="#0" id="circle1"/>
	<circle cx="4" cy="92.8358" r="4" fill="#0" id="circle2"/>
	<circle cx="4" cy="111.343" r="4" fill="#0" id="circle3"/>
	<circle cx="4" cy="129.851" r="4" fill="#0" id="circle4"/>
	<circle cx="4" cy="148.358" r="4" fill="#0" id="circle5"/>
	<circle cx="4" cy="166.866" r="4" fill="#0" id="circle6"/>
	<circle cx="4" cy="185.373" r="4" fill="#0" id="circle7"/>
	<circle cx="4" cy="222.388" r="4" fill="#0" id="circle8"/>
	<circle cx="4" cy="268.657" r="4" fill="#0" id="circle9"/>
	<circle cx="4" cy="287.164" r="4" fill="#0" id="circle10"/>
	<circle cx="4" cy="324.179" r="4" fill="#0" id="circle11"/>
	<circle cx="4" cy="342.687" r="4" fill="#0" id="circle12"/>
	<circle cx="4" cy="361.194" r="4" fill="#0" id="circle13"/>
	<circle cx="4" cy="398.209" r="4" fill="#0" id="circle14"/>
	<circle cx="4" cy="416.716" r="4" fill="#0" id="circle15"/>
	<circle cx="4" cy="444.478" r="4" fill="#0" id="circle16"/>
	<circle cx="13.2537" cy="37.3134" r="4" fill="#0" id="circle17"/>
	<circle cx="13.2537" cy="202.03" r="4" fill="#0" id="circle18"/>
	<circle cx="13.2537" cy="239.045" r="4" fill="#0" id="circle19"/>
	<circle cx="13.2537" cy="303.821" r="4" fill="#0" id="circle20"/>
	<circle cx="13.2537" cy="379.701" r="4" fill="#0" id="circle21"/>
	<circle cx="18.806" cy="457.433" r="4" fill="#0" id="circle22"/>
	<circle cx="31.7612" cy="18.806" r="4" fill="#0" id="circle23"/>
	<circle cx="35.4627" cy="466.687" r="4" fill="#0" id="circle24"/>
	<circle cx="50.2687" cy="18.806" r="4" fill="#0" id="circle25"/>
	<circle cx="50.2687" cy="477.791" r="4" fill="#0" id="circle26"/>
	<circle cx="66.9254" cy="468.537" r="4" fill="#0" id="circle27"/>
	<circle cx="68.7761" cy="16.9552" r="4" fill="#0" id="circle28"/>
	<circle cx="83.5821" cy="477.791" r="4" fill="#0" id="circle29"/>
	<circle cx="87.2836" cy="13.2537" r="4" fill="#0" id="circle30"/>
	<circle cx="102.09" cy="475.94" r="4" fill="#0" id="circle31"/>
	<circle cx="105.791" cy="9.55224" r="4" fill="#0" id="circle32"/>
	<circle cx="120.597" cy="477.791" r="4" fill="#0" id="circle33"/>
	<circle cx="124.299" cy="4" r="4" fill="#0" id="circle34"/>
	<circle cx="139.104" cy="477.791" r="4" fill="#0" id="circle35"/>
	<circle cx="142.806" cy="4" r="4" fill="#0" id="circle36"/>
	<circle cx="157.612" cy="477.791" r="4" fill="#0" id="circle37"/>
	<circle cx="161.313" cy="4" r="4" fill="#0" id="circle38"/>
	<circle cx="176.119" cy="477.791" r="4" fill="#0" id="circle39"/>
	<circle cx="179.821" cy="4" r="4" fill="#0" id="circle40"/>
	<circle cx="194.627" cy="477.791" r="4" fill="#0" id="circle41"/>
	<circle cx="198.328" cy="7.70149" r="4" fill="#0" id="circle42"/>
	<circle cx="213.134" cy="477.791" r="4" fill="#0" id="circle43"/>
	<circle cx="216.836" cy="7.70149" r="4" fill="#0" id="circle44"/>
	<circle cx="231.642" cy="477.791" r="4" fill="#0" id="circle45"/>
	<circle cx="235.343" cy="13.2537" r="4" fill="#0" id="circle46"/>
	<circle cx="250.149" cy="477.791" r="4" fill="#0" id="circle47"/>
	<circle cx="253.851" cy="9.55224" r="4" fill="#0" id="circle48"/>
	<circle cx="268.657" cy="477.791" r="4" fill="#0" id="circle49"/>
	<circle cx="272.358" cy="4" r="4" fill="#0" id="circle50"/>
	<circle cx="287.164" cy="477.791" r="4" fill="#0" id="circle51"/>
	<circle cx="290.866" cy="4" r="4" fill="#0" id="circle52"/>
	<circle cx="305.672" cy="475.94" r="4" fill="#0" id="circle53"/>
	<circle cx="309.373" cy="4" r="4" fill="#0" id="circle54"/>
	<circle cx="324.179" cy="466.687" r="4" fill="#0" id="circle55"/>
	<circle cx="327.881" cy="7.70149" r="4" fill="#0" id="circle56"/>
	<circle cx="329.731" cy="413.015" r="4" fill="#0" id="circle57"/>
	<circle cx="329.731" cy="440.776" r="4" fill="#0" id="circle58"/>
	<circle cx="335.284" cy="26.209" r="4" fill="#0" id="circle59"/>
	<circle cx="338.985" cy="61.3731" r="4" fill="#0" id="circle60"/>
	<circle cx="338.985" cy="79.8806" r="4" fill="#0" id="circle61"/>
	<circle cx="338.985" cy="98.3881" r="4" fill="#0" id="circle62"/>
	<circle cx="338.985" cy="116.896" r="4" fill="#0" id="circle63"/>
	<circle cx="338.985" cy="376" r="4" fill="#0" id="circle64"/>
	<circle cx="338.985" cy="394.507" r="4" fill="#0" id="circle65"/>
	<circle cx="344.537" cy="42.8657" r="4" fill="#0" id="circle66"/>
	<circle cx="348.239" cy="133.552" r="4" fill="#0" id="circle67"/>
	<circle cx="348.239" cy="357.493" r="4" fill="#0" id="circle68"/>
	<circle cx="364.896" cy="142.806" r="4" fill="#0" id="circle69"/>
	<circle cx="366.746" cy="361.194" r="4" fill="#0" id="circle70"/>
	<circle cx="383.403" cy="142.806" r="4" fill="#0" id="circle71"/>
	<circle cx="385.254" cy="357.493" r="4" fill="#0" id="circle72"/>
	<circle cx="401.91" cy="142.806" r="4" fill="#0" id="circle73"/>
	<circle cx="401.91" cy="348.239" r="4" fill="#0" id="circle74"/>
	<circle cx="420.418" cy="142.806" r="4" fill="#0" id="circle75"/>
	<circle cx="420.418" cy="351.94" r="4" fill="#0" id="circle76"/>
	<circle cx="438.925" cy="146.507" r="4" fill="#0" id="circle77"/>
	<circle cx="438.925" cy="342.687" r="4" fill="#0" id="circle78"/>
	<circle cx="450.03" cy="161.313" r="4" fill="#0" id="circle79"/>
	<circle cx="450.03" cy="179.821" r="4" fill="#0" id="circle80"/>
	<circle cx="453.731" cy="327.881" r="4" fill="#0" id="circle81"/>
	<circle cx="468.537" cy="179.821" r="4" fill="#0" id="circle82"/>
	<circle cx="472.239" cy="318.627" r="4" fill="#0" id="circle83"/>
	<circle cx="487.045" cy="179.821" r="4" fill="#0" id="circle84"/>
	<circle cx="490.746" cy="311.224" r="4" fill="#0" id="circle85"/>
	<circle cx="505.552" cy="179.821" r="4" fill="#0" id="circle86"/>
	<circle cx="509.254" cy="311.224" r="4" fill="#0" id="circle87"/>
	<circle cx="524.06" cy="179.821" r="4" fill="#0" id="circle88"/>
	<circle cx="527.761" cy="318.627" r="4" fill="#0" id="circle89"/>
	<circle cx="542.567" cy="179.821" r="4" fill="#0" id="circle90"/>
	<circle cx="546.269" cy="311.224" r="4" fill="#0" id="circle91"/>
	<circle cx="561.075" cy="179.821" r="4" fill="#0" id="circle92"/>
	<circle cx="564.776" cy="311.224" r="4" fill="#0" id="circle93"/>
	<circle cx="579.582" cy="179.821" r="4" fill="#0" id="circle94"/>
	<circle cx="583.284" cy="318.627" r="4" fill="#0" id="circle95"/>
	<circle cx="598.09" cy="179.821" r="4" fill="#0" id="circle96"/>
	<circle cx="601.791" cy="311.224" r="4" fill="#0" id="circle97"/>
	<circle cx="616.597" cy="179.821" r="4" fill="#0" id="circle98"/>
	<circle cx="620.299" cy="311.224" r="4" fill="#0" id="circle99"/>
	<circle cx="635.104" cy="179.821" r="4" fill="#0" id="circle100"/>
	<circle cx="636.955" cy="320.478" r="4" fill="#0" id="circle101"/>
	<circle cx="651.761" cy="170.567" r="4" fill="#0" id="circle102"/>
	<circle cx="655.463" cy="316.776" r="4" fill="#0" id="circle103"/>
	<circle cx="668.418" cy="179.821" r="4" fill="#0" id="circle104"/>
	<circle cx="673.97" cy="320.478" r="4" fill="#0" id="circle105"/>
	<circle cx="685.075" cy="170.567" r="4" fill="#0" id="circle106"/>
	<circle cx="690.627" cy="311.224" r="4" fill="#0" id="circle107"/>
	<circle cx="701.731" cy="179.821" r="4" fill="#0" id="circle108"/>
	<circle cx="709.134" cy="311.224" r="4" fill="#0" id="circle109"/>
	<circle cx="720.239" cy="179.821" r="4" fill="#0" id="circle110"/>
	<circle cx="727.642" cy="314.925" r="4" fill="#0" id="circle111"/>
	<circle cx="738.746" cy="179.821" r="4" fill="#0" id="circle112"/>
	<circle cx="746.149" cy="311.224" r="4" fill="#0" id="circle113"/>
	<circle cx="757.254" cy="179.821" r="4" fill="#0" id="circle114"/>
	<circle cx="764.657" cy="314.925" r="4" fill="#0" id="circle115"/>
	<circle cx="775.761" cy="179.821" r="4" fill="#0" id="circle116"/>
	<circle cx="783.164" cy="311.224" r="4" fill="#0" id="circle117"/>
	<circle cx="794.269" cy="172.418" r="4" fill="#0" id="circle118"/>
	<circle cx="801.672" cy="314.925" r="4" fill="#0" id="circle119"/>
	<circle cx="812.776" cy="179.821" r="4" fill="#0" id="circle120"/>
	<circle cx="820.179" cy="311.224" r="4" fill="#0" id="circle121"/>
	<circle cx="829.433" cy="170.567" r="4" fill="#0" id="circle122"/>
	<circle cx="838.687" cy="314.925" r="4" fill="#0" id="circle123"/>
	<circle cx="846.09" cy="179.821" r="4" fill="#0" id="circle124"/>
	<circle cx="857.194" cy="311.224" r="4" fill="#0" id="circle125"/>
	<circle cx="864.597" cy="179.821" r="4" fill="#0" id="circle126"/>
	<circle cx="875.701" cy="301.97" r="4" fill="#0" id="circle127"/>
	<circle cx="883.104" cy="179.821" r="4" fill="#0" id="circle128"/>
	<circle cx="892.358" cy="311.224" r="4" fill="#0" id="circle129"/>
	<circle cx="901.612" cy="179.821" r="4" fill="#0" id="circle130"/>
	<circle cx="910.866" cy="311.224" r="4" fill="#0" id="circle131"/>
	<circle cx="920.119" cy="179.821" r="4" fill="#0" id="circle132"/>
	<circle cx="927.522" cy="320.478" r="4" fill="#0" id="circle133"/>
	<circle cx="938.627" cy="179.821" r="4" fill="#0" id="circle134"/>
	<circle cx="944.179" cy="311.224" r="4" fill="#0" id="circle135"/>
	<circle cx="957.134" cy="179.821" r="4" fill="#0" id="circle136"/>
	<circle cx="962.687" cy="318.627" r="4" fill="#0" id="circle137"/>
	<circle cx="971.94" cy="190.925" r="4" fill="#0" id="circle138"/>
	<circle cx="971.94" cy="301.97" r="4" fill="#0" id="circle139"/>
	<circle cx="986.746" cy="264.955" r="4" fill="#0" id="circle140"/>
	<circle cx="990.448" cy="198.328" r="4" fill="#0" id="circle141"/>
	<circle cx="990.448" cy="300.119" r="4" fill="#0" id="circle142"/>
	<circle cx="996" cy="216.836" r="4" fill="#0" id="circle143"/>
	<circle cx="996" cy="235.343" r="4" fill="#0" id="circle144"/>
	<circle cx="996" cy="281.612" r="4" fill="#0" id="circle145"/>
	</g>
</svg>