<?xml version="1.0" encoding="UTF-8" standalone="no"?>
<!-- Created with CurveBenchmark -->
<svg
	xmlns:dc="http://purl.org/dc/elements/1.1/"
	xmlns:cc="http://creativecommons.org/ns#"
	xmlns:rdf="http://www.w3.org/1999/02/22-rdf-syntax-ns#"
	xmlns:svg="http://www.w3.org/2000/svg"
	xmlns="http://www.w3.org/2000/svg"
	xmlns:sodipodi="http://sodipodi.sourceforge.net/DTD/sodipodi-0.dtd"
	xmlns:inkscape="http://www.inkscape.org/namespaces/inkscape"
	width="1000"
	height="1000"
	id="svg2"
	version="1.1"
	sodipodi:docname="manifold/gathan1-desertcottontail.png.txt">
<defs
	id="defs4" />
<metadata
	id="metadata7">
	<rdf:RDF>
		<cc:Work
			rdf:about="">
			<dc:format>image/svg+xml</dc:format>
			<dc:type
				rdf:resource="http://purl.org/dc/dcmitype/StillImage" />
			<dc:title></dc:title>
		</cc:Work>
	</rdf:RDF>
</metadata>
<g
	inkscape:label="Layer 1"
	inkscape:groupmode="layer"
	id="layer1">
	<path style="fill:none;stroke:red;stroke-width:1px;stroke-linecap:butt;stroke-linejoin:miter;stroke-opacity:1" d="M 134.526,86.6667 134.526,108.421 z" id="boundary" inkscape:connector-curvature="0" />
	<path style="fill:none;stroke:red;stroke-width:1px;stroke-linecap:butt;stroke-linejoin:miter;stroke-opacity:1" d="M 134.526,130.175 134.526,151.93 z" id="boundary" inkscape:connector-curvature="0" />
	<path style="fill:none;stroke:red;stroke-width:1px;stroke-linecap:butt;stroke-linejoin:miter;stroke-opacity:1" d="M 145.404,171.509 134.526,151.93 z" id="boundary" inkscape:connector-curvature="0" />
	<path style="fill:none;stroke:red;stroke-width:1px;stroke-linecap:butt;stroke-linejoin:miter;stroke-opacity:1" d="M 134.526,108.421 134.526,130.175 z" id="boundary" inkscape:connector-curvature="0" />
	<path style="fill:none;stroke:red;stroke-width:1px;stroke-linecap:butt;stroke-linejoin:miter;stroke-opacity:1" d="M 145.404,171.509 145.404,193.263 z" id="boundary" inkscape:connector-curvature="0" />
	<path style="fill:none;stroke:red;stroke-width:1px;stroke-linecap:butt;stroke-linejoin:miter;stroke-opacity:1" d="M 156.281,212.842 145.404,193.263 z" id="boundary" inkscape:connector-curvature="0" />
	<path style="fill:none;stroke:red;stroke-width:1px;stroke-linecap:butt;stroke-linejoin:miter;stroke-opacity:1" d="M 154.105,243.298 136.702,258.526 z" id="boundary" inkscape:connector-curvature="0" />
	<path style="fill:none;stroke:red;stroke-width:1px;stroke-linecap:butt;stroke-linejoin:miter;stroke-opacity:1" d="M 156.281,212.842 154.105,243.298 z" id="boundary" inkscape:connector-curvature="0" />
	<path style="fill:none;stroke:red;stroke-width:1px;stroke-linecap:butt;stroke-linejoin:miter;stroke-opacity:1" d="M 134.526,86.6667 145.404,54.0351 z" id="boundary" inkscape:connector-curvature="0" />
	<path style="fill:none;stroke:red;stroke-width:1px;stroke-linecap:butt;stroke-linejoin:miter;stroke-opacity:1" d="M 136.702,258.526 114.947,269.404 z" id="boundary" inkscape:connector-curvature="0" />
	<path style="fill:none;stroke:red;stroke-width:1px;stroke-linecap:butt;stroke-linejoin:miter;stroke-opacity:1" d="M 14.8772,293.333 47.5088,282.456 z" id="boundary" inkscape:connector-curvature="0" />
	<path style="fill:none;stroke:red;stroke-width:1px;stroke-linecap:butt;stroke-linejoin:miter;stroke-opacity:1" d="M 25.7544,334.667 14.8772,315.088 z" id="boundary" inkscape:connector-curvature="0" />
	<path style="fill:none;stroke:red;stroke-width:1px;stroke-linecap:butt;stroke-linejoin:miter;stroke-opacity:1" d="M 14.8772,315.088 14.8772,293.333 z" id="boundary" inkscape:connector-curvature="0" />
	<path style="fill:none;stroke:red;stroke-width:1px;stroke-linecap:butt;stroke-linejoin:miter;stroke-opacity:1" d="M 114.947,269.404 101.895,286.807 z" id="boundary" inkscape:connector-curvature="0" />
	<path style="fill:none;stroke:red;stroke-width:1px;stroke-linecap:butt;stroke-linejoin:miter;stroke-opacity:1" d="M 101.895,286.807 80.1404,282.456 z" id="boundary" inkscape:connector-curvature="0" />
	<path style="fill:none;stroke:red;stroke-width:1px;stroke-linecap:butt;stroke-linejoin:miter;stroke-opacity:1" d="M 80.1404,282.456 47.5088,282.456 z" id="boundary" inkscape:connector-curvature="0" />
	<path style="fill:none;stroke:red;stroke-width:1px;stroke-linecap:butt;stroke-linejoin:miter;stroke-opacity:1" d="M 47.5088,334.667 36.6316,354.246 z" id="boundary" inkscape:connector-curvature="0" />
	<path style="fill:none;stroke:red;stroke-width:1px;stroke-linecap:butt;stroke-linejoin:miter;stroke-opacity:1" d="M 36.6316,354.246 25.7544,334.667 z" id="boundary" inkscape:connector-curvature="0" />
	<path style="fill:none;stroke:red;stroke-width:1px;stroke-linecap:butt;stroke-linejoin:miter;stroke-opacity:1" d="M 156.281,32.2807 145.404,54.0351 z" id="boundary" inkscape:connector-curvature="0" />
	<path style="fill:none;stroke:red;stroke-width:1px;stroke-linecap:butt;stroke-linejoin:miter;stroke-opacity:1" d="M 193.263,4 215.018,4 z" id="boundary" inkscape:connector-curvature="0" />
	<path style="fill:none;stroke:red;stroke-width:1px;stroke-linecap:butt;stroke-linejoin:miter;stroke-opacity:1" d="M 173.684,14.8772 193.263,4 z" id="boundary" inkscape:connector-curvature="0" />
	<path style="fill:none;stroke:red;stroke-width:1px;stroke-linecap:butt;stroke-linejoin:miter;stroke-opacity:1" d="M 156.281,32.2807 173.684,14.8772 z" id="boundary" inkscape:connector-curvature="0" />
	<path style="fill:none;stroke:red;stroke-width:1px;stroke-linecap:butt;stroke-linejoin:miter;stroke-opacity:1" d="M 215.018,4 234.596,14.8772 z" id="boundary" inkscape:connector-curvature="0" />
	<path style="fill:none;stroke:red;stroke-width:1px;stroke-linecap:butt;stroke-linejoin:miter;stroke-opacity:1" d="M 256.351,8.35088 278.105,4 z" id="boundary" inkscape:connector-curvature="0" />
	<path style="fill:none;stroke:red;stroke-width:1px;stroke-linecap:butt;stroke-linejoin:miter;stroke-opacity:1" d="M 234.596,14.8772 256.351,8.35088 z" id="boundary" inkscape:connector-curvature="0" />
	<path style="fill:none;stroke:red;stroke-width:1px;stroke-linecap:butt;stroke-linejoin:miter;stroke-opacity:1" d="M 278.105,4 299.86,10.5263 z" id="boundary" inkscape:connector-curvature="0" />
	<path style="fill:none;stroke:red;stroke-width:1px;stroke-linecap:butt;stroke-linejoin:miter;stroke-opacity:1" d="M 299.86,10.5263 315.088,27.9298 z" id="boundary" inkscape:connector-curvature="0" />
	<path style="fill:none;stroke:red;stroke-width:1px;stroke-linecap:butt;stroke-linejoin:miter;stroke-opacity:1" d="M 315.088,27.9298 321.614,49.6842 z" id="boundary" inkscape:connector-curvature="0" />
	<path style="fill:none;stroke:red;stroke-width:1px;stroke-linecap:butt;stroke-linejoin:miter;stroke-opacity:1" d="M 321.614,71.4386 321.614,93.193 z" id="boundary" inkscape:connector-curvature="0" />
	<path style="fill:none;stroke:red;stroke-width:1px;stroke-linecap:butt;stroke-linejoin:miter;stroke-opacity:1" d="M 310.737,180.211 310.737,201.965 z" id="boundary" inkscape:connector-curvature="0" />
	<path style="fill:none;stroke:red;stroke-width:1px;stroke-linecap:butt;stroke-linejoin:miter;stroke-opacity:1" d="M 343.368,221.544 321.614,221.544 z" id="boundary" inkscape:connector-curvature="0" />
	<path style="fill:none;stroke:red;stroke-width:1px;stroke-linecap:butt;stroke-linejoin:miter;stroke-opacity:1" d="M 321.614,221.544 310.737,201.965 z" id="boundary" inkscape:connector-curvature="0" />
	<path style="fill:none;stroke:red;stroke-width:1px;stroke-linecap:butt;stroke-linejoin:miter;stroke-opacity:1" d="M 321.614,93.193 321.614,114.947 z" id="boundary" inkscape:connector-curvature="0" />
	<path style="fill:none;stroke:red;stroke-width:1px;stroke-linecap:butt;stroke-linejoin:miter;stroke-opacity:1" d="M 321.614,49.6842 321.614,71.4386 z" id="boundary" inkscape:connector-curvature="0" />
	<path style="fill:none;stroke:red;stroke-width:1px;stroke-linecap:butt;stroke-linejoin:miter;stroke-opacity:1" d="M 325.965,136.702 321.614,114.947 z" id="boundary" inkscape:connector-curvature="0" />
	<path style="fill:none;stroke:red;stroke-width:1px;stroke-linecap:butt;stroke-linejoin:miter;stroke-opacity:1" d="M 310.737,180.211 321.614,158.456 z" id="boundary" inkscape:connector-curvature="0" />
	<path style="fill:none;stroke:red;stroke-width:1px;stroke-linecap:butt;stroke-linejoin:miter;stroke-opacity:1" d="M 325.965,136.702 321.614,158.456 z" id="boundary" inkscape:connector-curvature="0" />
	<path style="fill:none;stroke:red;stroke-width:1px;stroke-linecap:butt;stroke-linejoin:miter;stroke-opacity:1" d="M 4,423.86 14.8772,443.439 z" id="boundary" inkscape:connector-curvature="0" />
	<path style="fill:none;stroke:red;stroke-width:1px;stroke-linecap:butt;stroke-linejoin:miter;stroke-opacity:1" d="M 14.8772,443.439 14.8772,465.193 z" id="boundary" inkscape:connector-curvature="0" />
	<path style="fill:none;stroke:red;stroke-width:1px;stroke-linecap:butt;stroke-linejoin:miter;stroke-opacity:1" d="M 14.8772,465.193 14.8772,486.947 z" id="boundary" inkscape:connector-curvature="0" />
	<path style="fill:none;stroke:red;stroke-width:1px;stroke-linecap:butt;stroke-linejoin:miter;stroke-opacity:1" d="M 25.7544,506.526 14.8772,486.947 z" id="boundary" inkscape:connector-curvature="0" />
	<path style="fill:none;stroke:red;stroke-width:1px;stroke-linecap:butt;stroke-linejoin:miter;stroke-opacity:1" d="M 25.7544,412.982 25.7544,391.228 z" id="boundary" inkscape:connector-curvature="0" />
	<path style="fill:none;stroke:red;stroke-width:1px;stroke-linecap:butt;stroke-linejoin:miter;stroke-opacity:1" d="M 25.7544,391.228 4,423.86 z" id="boundary" inkscape:connector-curvature="0" />
	<path style="fill:none;stroke:red;stroke-width:1px;stroke-linecap:butt;stroke-linejoin:miter;stroke-opacity:1" d="M 38.807,523.93 25.7544,506.526 z" id="boundary" inkscape:connector-curvature="0" />
	<path style="fill:none;stroke:red;stroke-width:1px;stroke-linecap:butt;stroke-linejoin:miter;stroke-opacity:1" d="M 56.2105,539.158 38.807,523.93 z" id="boundary" inkscape:connector-curvature="0" />
	<path style="fill:none;stroke:red;stroke-width:1px;stroke-linecap:butt;stroke-linejoin:miter;stroke-opacity:1" d="M 69.2632,565.263 56.2105,539.158 z" id="boundary" inkscape:connector-curvature="0" />
	<path style="fill:none;stroke:red;stroke-width:1px;stroke-linecap:butt;stroke-linejoin:miter;stroke-opacity:1" d="M 91.0175,582.667 69.2632,565.263 z" id="boundary" inkscape:connector-curvature="0" />
	<path style="fill:none;stroke:red;stroke-width:1px;stroke-linecap:butt;stroke-linejoin:miter;stroke-opacity:1" d="M 112.772,587.018 91.0175,582.667 z" id="boundary" inkscape:connector-curvature="0" />
	<path style="fill:none;stroke:red;stroke-width:1px;stroke-linecap:butt;stroke-linejoin:miter;stroke-opacity:1" d="M 112.772,587.018 134.526,597.895 z" id="boundary" inkscape:connector-curvature="0" />
	<path style="fill:none;stroke:red;stroke-width:1px;stroke-linecap:butt;stroke-linejoin:miter;stroke-opacity:1" d="M 91.0175,560.912 130.175,569.614 z" id="boundary" inkscape:connector-curvature="0" />
	<path style="fill:none;stroke:red;stroke-width:1px;stroke-linecap:butt;stroke-linejoin:miter;stroke-opacity:1" d="M 130.175,569.614 151.93,569.614 z" id="boundary" inkscape:connector-curvature="0" />
	<path style="fill:none;stroke:red;stroke-width:1px;stroke-linecap:butt;stroke-linejoin:miter;stroke-opacity:1" d="M 171.509,580.491 188.912,593.544 z" id="boundary" inkscape:connector-curvature="0" />
	<path style="fill:none;stroke:red;stroke-width:1px;stroke-linecap:butt;stroke-linejoin:miter;stroke-opacity:1" d="M 151.93,569.614 171.509,580.491 z" id="boundary" inkscape:connector-curvature="0" />
	<path style="fill:none;stroke:red;stroke-width:1px;stroke-linecap:butt;stroke-linejoin:miter;stroke-opacity:1" d="M 223.719,600.07 241.123,615.298 z" id="boundary" inkscape:connector-curvature="0" />
	<path style="fill:none;stroke:red;stroke-width:1px;stroke-linecap:butt;stroke-linejoin:miter;stroke-opacity:1" d="M 223.719,600.07 208.491,582.667 z" id="boundary" inkscape:connector-curvature="0" />
	<path style="fill:none;stroke:red;stroke-width:1px;stroke-linecap:butt;stroke-linejoin:miter;stroke-opacity:1" d="M 241.123,615.298 260.702,626.175 z" id="boundary" inkscape:connector-curvature="0" />
	<path style="fill:none;stroke:red;stroke-width:1px;stroke-linecap:butt;stroke-linejoin:miter;stroke-opacity:1" d="M 280.281,637.053 297.684,650.105 z" id="boundary" inkscape:connector-curvature="0" />
	<path style="fill:none;stroke:red;stroke-width:1px;stroke-linecap:butt;stroke-linejoin:miter;stroke-opacity:1" d="M 297.684,650.105 308.561,669.684 z" id="boundary" inkscape:connector-curvature="0" />
	<path style="fill:none;stroke:red;stroke-width:1px;stroke-linecap:butt;stroke-linejoin:miter;stroke-opacity:1" d="M 288.982,700.14 267.228,700.14 z" id="boundary" inkscape:connector-curvature="0" />
	<path style="fill:none;stroke:red;stroke-width:1px;stroke-linecap:butt;stroke-linejoin:miter;stroke-opacity:1" d="M 349.895,730.596 332.491,745.825 z" id="boundary" inkscape:connector-curvature="0" />
	<path style="fill:none;stroke:red;stroke-width:1px;stroke-linecap:butt;stroke-linejoin:miter;stroke-opacity:1" d="M 308.561,669.684 310.737,693.614 z" id="boundary" inkscape:connector-curvature="0" />
	<path style="fill:none;stroke:red;stroke-width:1px;stroke-linecap:butt;stroke-linejoin:miter;stroke-opacity:1" d="M 310.737,693.614 288.982,700.14 z" id="boundary" inkscape:connector-curvature="0" />
	<path style="fill:none;stroke:red;stroke-width:1px;stroke-linecap:butt;stroke-linejoin:miter;stroke-opacity:1" d="M 260.702,626.175 280.281,637.053 z" id="boundary" inkscape:connector-curvature="0" />
	<path style="fill:none;stroke:red;stroke-width:1px;stroke-linecap:butt;stroke-linejoin:miter;stroke-opacity:1" d="M 267.228,700.14 247.649,711.018 z" id="boundary" inkscape:connector-curvature="0" />
	<path style="fill:none;stroke:red;stroke-width:1px;stroke-linecap:butt;stroke-linejoin:miter;stroke-opacity:1" d="M 228.07,721.895 247.649,711.018 z" id="boundary" inkscape:connector-curvature="0" />
	<path style="fill:none;stroke:red;stroke-width:1px;stroke-linecap:butt;stroke-linejoin:miter;stroke-opacity:1" d="M 228.07,754.526 210.667,739.298 z" id="boundary" inkscape:connector-curvature="0" />
	<path style="fill:none;stroke:red;stroke-width:1px;stroke-linecap:butt;stroke-linejoin:miter;stroke-opacity:1" d="M 210.667,739.298 228.07,721.895 z" id="boundary" inkscape:connector-curvature="0" />
	<path style="fill:none;stroke:red;stroke-width:1px;stroke-linecap:butt;stroke-linejoin:miter;stroke-opacity:1" d="M 247.649,765.404 228.07,754.526 z" id="boundary" inkscape:connector-curvature="0" />
	<path style="fill:none;stroke:red;stroke-width:1px;stroke-linecap:butt;stroke-linejoin:miter;stroke-opacity:1" d="M 269.404,767.579 247.649,765.404 z" id="boundary" inkscape:connector-curvature="0" />
	<path style="fill:none;stroke:red;stroke-width:1px;stroke-linecap:butt;stroke-linejoin:miter;stroke-opacity:1" d="M 332.491,745.825 310.737,756.702 z" id="boundary" inkscape:connector-curvature="0" />
	<path style="fill:none;stroke:red;stroke-width:1px;stroke-linecap:butt;stroke-linejoin:miter;stroke-opacity:1" d="M 269.404,767.579 288.982,756.702 z" id="boundary" inkscape:connector-curvature="0" />
	<path style="fill:none;stroke:red;stroke-width:1px;stroke-linecap:butt;stroke-linejoin:miter;stroke-opacity:1" d="M 288.982,756.702 310.737,756.702 z" id="boundary" inkscape:connector-curvature="0" />
	<path style="fill:none;stroke:red;stroke-width:1px;stroke-linecap:butt;stroke-linejoin:miter;stroke-opacity:1" d="M 467.368,167.158 489.123,167.158 z" id="boundary" inkscape:connector-curvature="0" />
	<path style="fill:none;stroke:red;stroke-width:1px;stroke-linecap:butt;stroke-linejoin:miter;stroke-opacity:1" d="M 445.614,178.035 467.368,167.158 z" id="boundary" inkscape:connector-curvature="0" />
	<path style="fill:none;stroke:red;stroke-width:1px;stroke-linecap:butt;stroke-linejoin:miter;stroke-opacity:1" d="M 423.86,188.912 445.614,178.035 z" id="boundary" inkscape:connector-curvature="0" />
	<path style="fill:none;stroke:red;stroke-width:1px;stroke-linecap:butt;stroke-linejoin:miter;stroke-opacity:1" d="M 489.123,167.158 510.877,167.158 z" id="boundary" inkscape:connector-curvature="0" />
	<path style="fill:none;stroke:red;stroke-width:1px;stroke-linecap:butt;stroke-linejoin:miter;stroke-opacity:1" d="M 532.632,156.281 510.877,167.158 z" id="boundary" inkscape:connector-curvature="0" />
	<path style="fill:none;stroke:red;stroke-width:1px;stroke-linecap:butt;stroke-linejoin:miter;stroke-opacity:1" d="M 532.632,156.281 554.386,156.281 z" id="boundary" inkscape:connector-curvature="0" />
	<path style="fill:none;stroke:red;stroke-width:1px;stroke-linecap:butt;stroke-linejoin:miter;stroke-opacity:1" d="M 554.386,156.281 573.965,167.158 z" id="boundary" inkscape:connector-curvature="0" />
	<path style="fill:none;stroke:red;stroke-width:1px;stroke-linecap:butt;stroke-linejoin:miter;stroke-opacity:1" d="M 573.965,167.158 595.719,167.158 z" id="boundary" inkscape:connector-curvature="0" />
	<path style="fill:none;stroke:red;stroke-width:1px;stroke-linecap:butt;stroke-linejoin:miter;stroke-opacity:1" d="M 595.719,167.158 615.298,178.035 z" id="boundary" inkscape:connector-curvature="0" />
	<path style="fill:none;stroke:red;stroke-width:1px;stroke-linecap:butt;stroke-linejoin:miter;stroke-opacity:1" d="M 637.053,173.684 615.298,178.035 z" id="boundary" inkscape:connector-curvature="0" />
	<path style="fill:none;stroke:red;stroke-width:1px;stroke-linecap:butt;stroke-linejoin:miter;stroke-opacity:1" d="M 404.281,199.789 423.86,188.912 z" id="boundary" inkscape:connector-curvature="0" />
	<path style="fill:none;stroke:red;stroke-width:1px;stroke-linecap:butt;stroke-linejoin:miter;stroke-opacity:1" d="M 404.281,199.789 384.702,210.667 z" id="boundary" inkscape:connector-curvature="0" />
	<path style="fill:none;stroke:red;stroke-width:1px;stroke-linecap:butt;stroke-linejoin:miter;stroke-opacity:1" d="M 365.123,221.544 343.368,221.544 z" id="boundary" inkscape:connector-curvature="0" />
	<path style="fill:none;stroke:red;stroke-width:1px;stroke-linecap:butt;stroke-linejoin:miter;stroke-opacity:1" d="M 384.702,210.667 365.123,221.544 z" id="boundary" inkscape:connector-curvature="0" />
	<path style="fill:none;stroke:red;stroke-width:1px;stroke-linecap:butt;stroke-linejoin:miter;stroke-opacity:1" d="M 658.807,178.035 680.561,184.561 z" id="boundary" inkscape:connector-curvature="0" />
	<path style="fill:none;stroke:red;stroke-width:1px;stroke-linecap:butt;stroke-linejoin:miter;stroke-opacity:1" d="M 637.053,173.684 658.807,178.035 z" id="boundary" inkscape:connector-curvature="0" />
	<path style="fill:none;stroke:red;stroke-width:1px;stroke-linecap:butt;stroke-linejoin:miter;stroke-opacity:1" d="M 680.561,184.561 702.316,188.912 z" id="boundary" inkscape:connector-curvature="0" />
	<path style="fill:none;stroke:red;stroke-width:1px;stroke-linecap:butt;stroke-linejoin:miter;stroke-opacity:1" d="M 702.316,188.912 721.895,199.789 z" id="boundary" inkscape:connector-curvature="0" />
	<path style="fill:none;stroke:red;stroke-width:1px;stroke-linecap:butt;stroke-linejoin:miter;stroke-opacity:1" d="M 743.649,204.14 721.895,199.789 z" id="boundary" inkscape:connector-curvature="0" />
	<path style="fill:none;stroke:red;stroke-width:1px;stroke-linecap:butt;stroke-linejoin:miter;stroke-opacity:1" d="M 763.228,215.018 743.649,204.14 z" id="boundary" inkscape:connector-curvature="0" />
	<path style="fill:none;stroke:red;stroke-width:1px;stroke-linecap:butt;stroke-linejoin:miter;stroke-opacity:1" d="M 784.982,223.719 763.228,215.018 z" id="boundary" inkscape:connector-curvature="0" />
	<path style="fill:none;stroke:red;stroke-width:1px;stroke-linecap:butt;stroke-linejoin:miter;stroke-opacity:1" d="M 784.982,223.719 800.211,241.123 z" id="boundary" inkscape:connector-curvature="0" />
	<path style="fill:none;stroke:red;stroke-width:1px;stroke-linecap:butt;stroke-linejoin:miter;stroke-opacity:1" d="M 821.965,249.825 800.211,241.123 z" id="boundary" inkscape:connector-curvature="0" />
	<path style="fill:none;stroke:red;stroke-width:1px;stroke-linecap:butt;stroke-linejoin:miter;stroke-opacity:1" d="M 839.368,265.053 821.965,249.825 z" id="boundary" inkscape:connector-curvature="0" />
	<path style="fill:none;stroke:red;stroke-width:1px;stroke-linecap:butt;stroke-linejoin:miter;stroke-opacity:1" d="M 858.947,275.93 839.368,265.053 z" id="boundary" inkscape:connector-curvature="0" />
	<path style="fill:none;stroke:red;stroke-width:1px;stroke-linecap:butt;stroke-linejoin:miter;stroke-opacity:1" d="M 874.175,293.333 887.228,310.737 z" id="boundary" inkscape:connector-curvature="0" />
	<path style="fill:none;stroke:red;stroke-width:1px;stroke-linecap:butt;stroke-linejoin:miter;stroke-opacity:1" d="M 858.947,275.93 874.175,293.333 z" id="boundary" inkscape:connector-curvature="0" />
	<path style="fill:none;stroke:red;stroke-width:1px;stroke-linecap:butt;stroke-linejoin:miter;stroke-opacity:1" d="M 887.228,310.737 898.105,330.316 z" id="boundary" inkscape:connector-curvature="0" />
	<path style="fill:none;stroke:red;stroke-width:1px;stroke-linecap:butt;stroke-linejoin:miter;stroke-opacity:1" d="M 919.86,369.474 930.737,389.053 z" id="boundary" inkscape:connector-curvature="0" />
	<path style="fill:none;stroke:red;stroke-width:1px;stroke-linecap:butt;stroke-linejoin:miter;stroke-opacity:1" d="M 930.737,389.053 937.263,410.807 z" id="boundary" inkscape:connector-curvature="0" />
	<path style="fill:none;stroke:red;stroke-width:1px;stroke-linecap:butt;stroke-linejoin:miter;stroke-opacity:1" d="M 948.14,430.386 937.263,410.807 z" id="boundary" inkscape:connector-curvature="0" />
	<path style="fill:none;stroke:red;stroke-width:1px;stroke-linecap:butt;stroke-linejoin:miter;stroke-opacity:1" d="M 908.982,349.895 919.86,369.474 z" id="boundary" inkscape:connector-curvature="0" />
	<path style="fill:none;stroke:red;stroke-width:1px;stroke-linecap:butt;stroke-linejoin:miter;stroke-opacity:1" d="M 948.14,430.386 952.491,452.14 z" id="boundary" inkscape:connector-curvature="0" />
	<path style="fill:none;stroke:red;stroke-width:1px;stroke-linecap:butt;stroke-linejoin:miter;stroke-opacity:1" d="M 963.368,471.719 952.491,452.14 z" id="boundary" inkscape:connector-curvature="0" />
	<path style="fill:none;stroke:red;stroke-width:1px;stroke-linecap:butt;stroke-linejoin:miter;stroke-opacity:1" d="M 974.246,513.053 963.368,493.474 z" id="boundary" inkscape:connector-curvature="0" />
	<path style="fill:none;stroke:red;stroke-width:1px;stroke-linecap:butt;stroke-linejoin:miter;stroke-opacity:1" d="M 963.368,493.474 963.368,471.719 z" id="boundary" inkscape:connector-curvature="0" />
	<path style="fill:none;stroke:red;stroke-width:1px;stroke-linecap:butt;stroke-linejoin:miter;stroke-opacity:1" d="M 898.105,330.316 908.982,349.895 z" id="boundary" inkscape:connector-curvature="0" />
	<path style="fill:none;stroke:red;stroke-width:1px;stroke-linecap:butt;stroke-linejoin:miter;stroke-opacity:1" d="M 974.246,513.053 974.246,534.807 z" id="boundary" inkscape:connector-curvature="0" />
	<path style="fill:none;stroke:red;stroke-width:1px;stroke-linecap:butt;stroke-linejoin:miter;stroke-opacity:1" d="M 412.982,713.193 393.404,724.07 z" id="boundary" inkscape:connector-curvature="0" />
	<path style="fill:none;stroke:red;stroke-width:1px;stroke-linecap:butt;stroke-linejoin:miter;stroke-opacity:1" d="M 393.404,724.07 371.649,724.07 z" id="boundary" inkscape:connector-curvature="0" />
	<path style="fill:none;stroke:red;stroke-width:1px;stroke-linecap:butt;stroke-linejoin:miter;stroke-opacity:1" d="M 412.982,713.193 434.737,713.193 z" id="boundary" inkscape:connector-curvature="0" />
	<path style="fill:none;stroke:red;stroke-width:1px;stroke-linecap:butt;stroke-linejoin:miter;stroke-opacity:1" d="M 371.649,724.07 349.895,730.596 z" id="boundary" inkscape:connector-curvature="0" />
	<path style="fill:none;stroke:red;stroke-width:1px;stroke-linecap:butt;stroke-linejoin:miter;stroke-opacity:1" d="M 434.737,713.193 456.491,713.193 z" id="boundary" inkscape:connector-curvature="0" />
	<path style="fill:none;stroke:red;stroke-width:1px;stroke-linecap:butt;stroke-linejoin:miter;stroke-opacity:1" d="M 478.246,713.193 506.526,713.193 z" id="boundary" inkscape:connector-curvature="0" />
	<path style="fill:none;stroke:red;stroke-width:1px;stroke-linecap:butt;stroke-linejoin:miter;stroke-opacity:1" d="M 456.491,713.193 478.246,713.193 z" id="boundary" inkscape:connector-curvature="0" />
	<path style="fill:none;stroke:red;stroke-width:1px;stroke-linecap:butt;stroke-linejoin:miter;stroke-opacity:1" d="M 493.474,730.596 495.649,752.351 z" id="boundary" inkscape:connector-curvature="0" />
	<path style="fill:none;stroke:red;stroke-width:1px;stroke-linecap:butt;stroke-linejoin:miter;stroke-opacity:1" d="M 495.649,752.351 517.404,761.053 z" id="boundary" inkscape:connector-curvature="0" />
	<path style="fill:none;stroke:red;stroke-width:1px;stroke-linecap:butt;stroke-linejoin:miter;stroke-opacity:1" d="M 539.158,767.579 517.404,761.053 z" id="boundary" inkscape:connector-curvature="0" />
	<path style="fill:none;stroke:red;stroke-width:1px;stroke-linecap:butt;stroke-linejoin:miter;stroke-opacity:1" d="M 560.912,767.579 539.158,767.579 z" id="boundary" inkscape:connector-curvature="0" />
	<path style="fill:none;stroke:red;stroke-width:1px;stroke-linecap:butt;stroke-linejoin:miter;stroke-opacity:1" d="M 582.667,767.579 560.912,767.579 z" id="boundary" inkscape:connector-curvature="0" />
	<path style="fill:none;stroke:red;stroke-width:1px;stroke-linecap:butt;stroke-linejoin:miter;stroke-opacity:1" d="M 604.421,767.579 582.667,767.579 z" id="boundary" inkscape:connector-curvature="0" />
	<path style="fill:none;stroke:red;stroke-width:1px;stroke-linecap:butt;stroke-linejoin:miter;stroke-opacity:1" d="M 647.93,767.579 626.175,767.579 z" id="boundary" inkscape:connector-curvature="0" />
	<path style="fill:none;stroke:red;stroke-width:1px;stroke-linecap:butt;stroke-linejoin:miter;stroke-opacity:1" d="M 669.684,767.579 647.93,767.579 z" id="boundary" inkscape:connector-curvature="0" />
	<path style="fill:none;stroke:red;stroke-width:1px;stroke-linecap:butt;stroke-linejoin:miter;stroke-opacity:1" d="M 626.175,767.579 604.421,767.579 z" id="boundary" inkscape:connector-curvature="0" />
	<path style="fill:none;stroke:red;stroke-width:1px;stroke-linecap:butt;stroke-linejoin:miter;stroke-opacity:1" d="M 713.193,756.702 691.439,767.579 z" id="boundary" inkscape:connector-curvature="0" />
	<path style="fill:none;stroke:red;stroke-width:1px;stroke-linecap:butt;stroke-linejoin:miter;stroke-opacity:1" d="M 691.439,767.579 669.684,767.579 z" id="boundary" inkscape:connector-curvature="0" />
	<path style="fill:none;stroke:red;stroke-width:1px;stroke-linecap:butt;stroke-linejoin:miter;stroke-opacity:1" d="M 974.246,556.561 974.246,534.807 z" id="boundary" inkscape:connector-curvature="0" />
	<path style="fill:none;stroke:red;stroke-width:1px;stroke-linecap:butt;stroke-linejoin:miter;stroke-opacity:1" d="M 963.368,680.561 948.14,697.965 z" id="boundary" inkscape:connector-curvature="0" />
	<path style="fill:none;stroke:red;stroke-width:1px;stroke-linecap:butt;stroke-linejoin:miter;stroke-opacity:1" d="M 948.14,697.965 926.386,708.842 z" id="boundary" inkscape:connector-curvature="0" />
	<path style="fill:none;stroke:red;stroke-width:1px;stroke-linecap:butt;stroke-linejoin:miter;stroke-opacity:1" d="M 963.368,680.561 980.772,665.333 z" id="boundary" inkscape:connector-curvature="0" />
	<path style="fill:none;stroke:red;stroke-width:1px;stroke-linecap:butt;stroke-linejoin:miter;stroke-opacity:1" d="M 974.246,556.561 974.246,578.316 z" id="boundary" inkscape:connector-curvature="0" />
	<path style="fill:none;stroke:red;stroke-width:1px;stroke-linecap:butt;stroke-linejoin:miter;stroke-opacity:1" d="M 926.386,708.842 904.632,713.193 z" id="boundary" inkscape:connector-curvature="0" />
	<path style="fill:none;stroke:red;stroke-width:1px;stroke-linecap:butt;stroke-linejoin:miter;stroke-opacity:1" d="M 996,587.018 996,615.298 z" id="boundary" inkscape:connector-curvature="0" />
	<path style="fill:none;stroke:red;stroke-width:1px;stroke-linecap:butt;stroke-linejoin:miter;stroke-opacity:1" d="M 991.649,643.579 980.772,665.333 z" id="boundary" inkscape:connector-curvature="0" />
	<path style="fill:none;stroke:red;stroke-width:1px;stroke-linecap:butt;stroke-linejoin:miter;stroke-opacity:1" d="M 996,615.298 991.649,643.579 z" id="boundary" inkscape:connector-curvature="0" />
	<path style="fill:none;stroke:red;stroke-width:1px;stroke-linecap:butt;stroke-linejoin:miter;stroke-opacity:1" d="M 800.211,734.947 778.456,745.825 z" id="boundary" inkscape:connector-curvature="0" />
	<path style="fill:none;stroke:red;stroke-width:1px;stroke-linecap:butt;stroke-linejoin:miter;stroke-opacity:1" d="M 778.456,745.825 756.702,745.825 z" id="boundary" inkscape:connector-curvature="0" />
	<path style="fill:none;stroke:red;stroke-width:1px;stroke-linecap:butt;stroke-linejoin:miter;stroke-opacity:1" d="M 819.789,724.07 800.211,734.947 z" id="boundary" inkscape:connector-curvature="0" />
	<path style="fill:none;stroke:red;stroke-width:1px;stroke-linecap:butt;stroke-linejoin:miter;stroke-opacity:1" d="M 756.702,745.825 734.947,756.702 z" id="boundary" inkscape:connector-curvature="0" />
	<path style="fill:none;stroke:red;stroke-width:1px;stroke-linecap:butt;stroke-linejoin:miter;stroke-opacity:1" d="M 734.947,756.702 713.193,756.702 z" id="boundary" inkscape:connector-curvature="0" />
	<path style="fill:none;stroke:red;stroke-width:1px;stroke-linecap:butt;stroke-linejoin:miter;stroke-opacity:1" d="M 861.123,713.193 882.877,713.193 z" id="boundary" inkscape:connector-curvature="0" />
	<path style="fill:none;stroke:red;stroke-width:1px;stroke-linecap:butt;stroke-linejoin:miter;stroke-opacity:1" d="M 841.544,724.07 861.123,713.193 z" id="boundary" inkscape:connector-curvature="0" />
	<path style="fill:none;stroke:red;stroke-width:1px;stroke-linecap:butt;stroke-linejoin:miter;stroke-opacity:1" d="M 841.544,724.07 819.789,724.07 z" id="boundary" inkscape:connector-curvature="0" />
	<path style="fill:none;stroke:red;stroke-width:1px;stroke-linecap:butt;stroke-linejoin:miter;stroke-opacity:1" d="M 882.877,713.193 904.632,713.193 z" id="boundary" inkscape:connector-curvature="0" />
	<circle cx="4" cy="423.86" r="4" fill="#0" id="circle0"/>
	<circle cx="14.8772" cy="293.333" r="4" fill="#0" id="circle1"/>
	<circle cx="14.8772" cy="315.088" r="4" fill="#0" id="circle2"/>
	<circle cx="14.8772" cy="443.439" r="4" fill="#0" id="circle3"/>
	<circle cx="14.8772" cy="465.193" r="4" fill="#0" id="circle4"/>
	<circle cx="14.8772" cy="486.947" r="4" fill="#0" id="circle5"/>
	<circle cx="25.7544" cy="334.667" r="4" fill="#0" id="circle6"/>
	<circle cx="25.7544" cy="391.228" r="4" fill="#0" id="circle7"/>
	<circle cx="25.7544" cy="412.982" r="4" fill="#0" id="circle8"/>
	<circle cx="25.7544" cy="506.526" r="4" fill="#0" id="circle9"/>
	<circle cx="36.6316" cy="312.912" r="4" fill="#0" id="circle10"/>
	<circle cx="36.6316" cy="354.246" r="4" fill="#0" id="circle11"/>
	<circle cx="38.807" cy="523.93" r="4" fill="#0" id="circle12"/>
	<circle cx="47.5088" cy="282.456" r="4" fill="#0" id="circle13"/>
	<circle cx="47.5088" cy="334.667" r="4" fill="#0" id="circle14"/>
	<circle cx="56.2105" cy="539.158" r="4" fill="#0" id="circle15"/>
	<circle cx="60.5614" cy="299.86" r="4" fill="#0" id="circle16"/>
	<circle cx="69.2632" cy="565.263" r="4" fill="#0" id="circle17"/>
	<circle cx="80.1404" cy="282.456" r="4" fill="#0" id="circle18"/>
	<circle cx="91.0175" cy="560.912" r="4" fill="#0" id="circle19"/>
	<circle cx="91.0175" cy="582.667" r="4" fill="#0" id="circle20"/>
	<circle cx="101.895" cy="286.807" r="4" fill="#0" id="circle21"/>
	<circle cx="112.772" cy="587.018" r="4" fill="#0" id="circle22"/>
	<circle cx="114.947" cy="269.404" r="4" fill="#0" id="circle23"/>
	<circle cx="130.175" cy="569.614" r="4" fill="#0" id="circle24"/>
	<circle cx="134.526" cy="86.6667" r="4" fill="#0" id="circle25"/>
	<circle cx="134.526" cy="108.421" r="4" fill="#0" id="circle26"/>
	<circle cx="134.526" cy="130.175" r="4" fill="#0" id="circle27"/>
	<circle cx="134.526" cy="151.93" r="4" fill="#0" id="circle28"/>
	<circle cx="134.526" cy="597.895" r="4" fill="#0" id="circle29"/>
	<circle cx="136.702" cy="258.526" r="4" fill="#0" id="circle30"/>
	<circle cx="145.404" cy="54.0351" r="4" fill="#0" id="circle31"/>
	<circle cx="145.404" cy="171.509" r="4" fill="#0" id="circle32"/>
	<circle cx="145.404" cy="193.263" r="4" fill="#0" id="circle33"/>
	<circle cx="151.93" cy="569.614" r="4" fill="#0" id="circle34"/>
	<circle cx="154.105" cy="243.298" r="4" fill="#0" id="circle35"/>
	<circle cx="156.281" cy="32.2807" r="4" fill="#0" id="circle36"/>
	<circle cx="156.281" cy="212.842" r="4" fill="#0" id="circle37"/>
	<circle cx="171.509" cy="580.491" r="4" fill="#0" id="circle38"/>
	<circle cx="173.684" cy="14.8772" r="4" fill="#0" id="circle39"/>
	<circle cx="188.912" cy="593.544" r="4" fill="#0" id="circle40"/>
	<circle cx="193.263" cy="4" r="4" fill="#0" id="circle41"/>
	<circle cx="208.491" cy="582.667" r="4" fill="#0" id="circle42"/>
	<circle cx="210.667" cy="739.298" r="4" fill="#0" id="circle43"/>
	<circle cx="215.018" cy="4" r="4" fill="#0" id="circle44"/>
	<circle cx="223.719" cy="600.07" r="4" fill="#0" id="circle45"/>
	<circle cx="228.07" cy="721.895" r="4" fill="#0" id="circle46"/>
	<circle cx="228.07" cy="754.526" r="4" fill="#0" id="circle47"/>
	<circle cx="234.596" cy="14.8772" r="4" fill="#0" id="circle48"/>
	<circle cx="241.123" cy="615.298" r="4" fill="#0" id="circle49"/>
	<circle cx="247.649" cy="711.018" r="4" fill="#0" id="circle50"/>
	<circle cx="247.649" cy="765.404" r="4" fill="#0" id="circle51"/>
	<circle cx="256.351" cy="8.35088" r="4" fill="#0" id="circle52"/>
	<circle cx="260.702" cy="626.175" r="4" fill="#0" id="circle53"/>
	<circle cx="267.228" cy="700.14" r="4" fill="#0" id="circle54"/>
	<circle cx="269.404" cy="767.579" r="4" fill="#0" id="circle55"/>
	<circle cx="278.105" cy="4" r="4" fill="#0" id="circle56"/>
	<circle cx="280.281" cy="637.053" r="4" fill="#0" id="circle57"/>
	<circle cx="288.982" cy="700.14" r="4" fill="#0" id="circle58"/>
	<circle cx="288.982" cy="756.702" r="4" fill="#0" id="circle59"/>
	<circle cx="297.684" cy="650.105" r="4" fill="#0" id="circle60"/>
	<circle cx="299.86" cy="10.5263" r="4" fill="#0" id="circle61"/>
	<circle cx="308.561" cy="669.684" r="4" fill="#0" id="circle62"/>
	<circle cx="310.737" cy="180.211" r="4" fill="#0" id="circle63"/>
	<circle cx="310.737" cy="201.965" r="4" fill="#0" id="circle64"/>
	<circle cx="310.737" cy="693.614" r="4" fill="#0" id="circle65"/>
	<circle cx="310.737" cy="756.702" r="4" fill="#0" id="circle66"/>
	<circle cx="315.088" cy="27.9298" r="4" fill="#0" id="circle67"/>
	<circle cx="321.614" cy="49.6842" r="4" fill="#0" id="circle68"/>
	<circle cx="321.614" cy="71.4386" r="4" fill="#0" id="circle69"/>
	<circle cx="321.614" cy="93.193" r="4" fill="#0" id="circle70"/>
	<circle cx="321.614" cy="114.947" r="4" fill="#0" id="circle71"/>
	<circle cx="321.614" cy="158.456" r="4" fill="#0" id="circle72"/>
	<circle cx="321.614" cy="221.544" r="4" fill="#0" id="circle73"/>
	<circle cx="325.965" cy="136.702" r="4" fill="#0" id="circle74"/>
	<circle cx="332.491" cy="745.825" r="4" fill="#0" id="circle75"/>
	<circle cx="343.368" cy="221.544" r="4" fill="#0" id="circle76"/>
	<circle cx="349.895" cy="730.596" r="4" fill="#0" id="circle77"/>
	<circle cx="365.123" cy="221.544" r="4" fill="#0" id="circle78"/>
	<circle cx="371.649" cy="724.07" r="4" fill="#0" id="circle79"/>
	<circle cx="384.702" cy="210.667" r="4" fill="#0" id="circle80"/>
	<circle cx="393.404" cy="724.07" r="4" fill="#0" id="circle81"/>
	<circle cx="404.281" cy="199.789" r="4" fill="#0" id="circle82"/>
	<circle cx="412.982" cy="713.193" r="4" fill="#0" id="circle83"/>
	<circle cx="423.86" cy="188.912" r="4" fill="#0" id="circle84"/>
	<circle cx="434.737" cy="713.193" r="4" fill="#0" id="circle85"/>
	<circle cx="445.614" cy="178.035" r="4" fill="#0" id="circle86"/>
	<circle cx="456.491" cy="713.193" r="4" fill="#0" id="circle87"/>
	<circle cx="467.368" cy="167.158" r="4" fill="#0" id="circle88"/>
	<circle cx="478.246" cy="713.193" r="4" fill="#0" id="circle89"/>
	<circle cx="489.123" cy="167.158" r="4" fill="#0" id="circle90"/>
	<circle cx="493.474" cy="730.596" r="4" fill="#0" id="circle91"/>
	<circle cx="495.649" cy="752.351" r="4" fill="#0" id="circle92"/>
	<circle cx="506.526" cy="713.193" r="4" fill="#0" id="circle93"/>
	<circle cx="510.877" cy="167.158" r="4" fill="#0" id="circle94"/>
	<circle cx="517.404" cy="761.053" r="4" fill="#0" id="circle95"/>
	<circle cx="532.632" cy="156.281" r="4" fill="#0" id="circle96"/>
	<circle cx="539.158" cy="767.579" r="4" fill="#0" id="circle97"/>
	<circle cx="554.386" cy="156.281" r="4" fill="#0" id="circle98"/>
	<circle cx="560.912" cy="767.579" r="4" fill="#0" id="circle99"/>
	<circle cx="573.965" cy="167.158" r="4" fill="#0" id="circle100"/>
	<circle cx="582.667" cy="767.579" r="4" fill="#0" id="circle101"/>
	<circle cx="595.719" cy="167.158" r="4" fill="#0" id="circle102"/>
	<circle cx="604.421" cy="767.579" r="4" fill="#0" id="circle103"/>
	<circle cx="615.298" cy="178.035" r="4" fill="#0" id="circle104"/>
	<circle cx="626.175" cy="767.579" r="4" fill="#0" id="circle105"/>
	<circle cx="637.053" cy="173.684" r="4" fill="#0" id="circle106"/>
	<circle cx="647.93" cy="767.579" r="4" fill="#0" id="circle107"/>
	<circle cx="658.807" cy="178.035" r="4" fill="#0" id="circle108"/>
	<circle cx="669.684" cy="767.579" r="4" fill="#0" id="circle109"/>
	<circle cx="680.561" cy="184.561" r="4" fill="#0" id="circle110"/>
	<circle cx="691.439" cy="767.579" r="4" fill="#0" id="circle111"/>
	<circle cx="702.316" cy="188.912" r="4" fill="#0" id="circle112"/>
	<circle cx="713.193" cy="756.702" r="4" fill="#0" id="circle113"/>
	<circle cx="721.895" cy="199.789" r="4" fill="#0" id="circle114"/>
	<circle cx="734.947" cy="756.702" r="4" fill="#0" id="circle115"/>
	<circle cx="743.649" cy="204.14" r="4" fill="#0" id="circle116"/>
	<circle cx="756.702" cy="745.825" r="4" fill="#0" id="circle117"/>
	<circle cx="763.228" cy="215.018" r="4" fill="#0" id="circle118"/>
	<circle cx="778.456" cy="745.825" r="4" fill="#0" id="circle119"/>
	<circle cx="784.982" cy="223.719" r="4" fill="#0" id="circle120"/>
	<circle cx="800.211" cy="241.123" r="4" fill="#0" id="circle121"/>
	<circle cx="800.211" cy="734.947" r="4" fill="#0" id="circle122"/>
	<circle cx="819.789" cy="724.07" r="4" fill="#0" id="circle123"/>
	<circle cx="821.965" cy="249.825" r="4" fill="#0" id="circle124"/>
	<circle cx="839.368" cy="265.053" r="4" fill="#0" id="circle125"/>
	<circle cx="841.544" cy="724.07" r="4" fill="#0" id="circle126"/>
	<circle cx="858.947" cy="275.93" r="4" fill="#0" id="circle127"/>
	<circle cx="861.123" cy="713.193" r="4" fill="#0" id="circle128"/>
	<circle cx="874.175" cy="293.333" r="4" fill="#0" id="circle129"/>
	<circle cx="882.877" cy="713.193" r="4" fill="#0" id="circle130"/>
	<circle cx="887.228" cy="310.737" r="4" fill="#0" id="circle131"/>
	<circle cx="898.105" cy="330.316" r="4" fill="#0" id="circle132"/>
	<circle cx="904.632" cy="713.193" r="4" fill="#0" id="circle133"/>
	<circle cx="908.982" cy="349.895" r="4" fill="#0" id="circle134"/>
	<circle cx="919.86" cy="369.474" r="4" fill="#0" id="circle135"/>
	<circle cx="926.386" cy="708.842" r="4" fill="#0" id="circle136"/>
	<circle cx="930.737" cy="389.053" r="4" fill="#0" id="circle137"/>
	<circle cx="937.263" cy="410.807" r="4" fill="#0" id="circle138"/>
	<circle cx="948.14" cy="430.386" r="4" fill="#0" id="circle139"/>
	<circle cx="948.14" cy="697.965" r="4" fill="#0" id="circle140"/>
	<circle cx="952.491" cy="452.14" r="4" fill="#0" id="circle141"/>
	<circle cx="963.368" cy="471.719" r="4" fill="#0" id="circle142"/>
	<circle cx="963.368" cy="493.474" r="4" fill="#0" id="circle143"/>
	<circle cx="963.368" cy="680.561" r="4" fill="#0" id="circle144"/>
	<circle cx="974.246" cy="513.053" r="4" fill="#0" id="circle145"/>
	<circle cx="974.246" cy="534.807" r="4" fill="#0" id="circle146"/>
	<circle cx="974.246" cy="556.561" r="4" fill="#0" id="circle147"/>
	<circle cx="974.246" cy="578.316" r="4" fill="#0" id="circle148"/>
	<circle cx="980.772" cy="665.333" r="4" fill="#0" id="circle149"/>
	<circle cx="991.649" cy="643.579" r="4" fill="#0" id="circle150"/>
	<circle cx="996" cy="587.018" r="4" fill="#0" id="circle151"/>
	<circle cx="996" cy="615.298" r="4" fill="#0" id="circle152"/>
	</g>
</svg>