<?xml version="1.0" encoding="UTF-8" standalone="no"?>
<!-- Created with CurveBenchmark -->
<svg
	xmlns:dc="http://purl.org/dc/elements/1.1/"
	xmlns:cc="http://creativecommons.org/ns#"
	xmlns:rdf="http://www.w3.org/1999/02/22-rdf-syntax-ns#"
	xmlns:svg="http://www.w3.org/2000/svg"
	xmlns="http://www.w3.org/2000/svg"
	xmlns:sodipodi="http://sodipodi.sourceforge.net/DTD/sodipodi-0.dtd"
	xmlns:inkscape="http://www.inkscape.org/namespaces/inkscape"
	width="1000"
	height="1000"
	id="svg2"
	version="1.1"
	sodipodi:docname="manifold/gathang-fish100.png.txt">
<defs
	id="defs4" />
<metadata
	id="metadata7">
	<rdf:RDF>
		<cc:Work
			rdf:about="">
			<dc:format>image/svg+xml</dc:format>
			<dc:type
				rdf:resource="http://purl.org/dc/dcmitype/StillImage" />
			<dc:title></dc:title>
		</cc:Work>
	</rdf:RDF>
</metadata>
<g
	inkscape:label="Layer 1"
	inkscape:groupmode="layer"
	id="layer1">
	<path style="fill:none;stroke:red;stroke-width:1px;stroke-linecap:butt;stroke-linejoin:miter;stroke-opacity:1" d="M 104.456,267.696 104.456,330.481 z" id="boundary" inkscape:connector-curvature="0" />
	<path style="fill:none;stroke:red;stroke-width:1px;stroke-linecap:butt;stroke-linejoin:miter;stroke-opacity:1" d="M 41.6709,506.278 4,556.506 z" id="boundary" inkscape:connector-curvature="0" />
	<path style="fill:none;stroke:red;stroke-width:1px;stroke-linecap:butt;stroke-linejoin:miter;stroke-opacity:1" d="M 104.456,393.266 104.456,500 z" id="boundary" inkscape:connector-curvature="0" />
	<path style="fill:none;stroke:red;stroke-width:1px;stroke-linecap:butt;stroke-linejoin:miter;stroke-opacity:1" d="M 104.456,500 41.6709,506.278 z" id="boundary" inkscape:connector-curvature="0" />
	<path style="fill:none;stroke:red;stroke-width:1px;stroke-linecap:butt;stroke-linejoin:miter;stroke-opacity:1" d="M 167.241,286.532 104.456,393.266 z" id="boundary" inkscape:connector-curvature="0" />
	<path style="fill:none;stroke:red;stroke-width:1px;stroke-linecap:butt;stroke-linejoin:miter;stroke-opacity:1" d="M 317.924,54.2278 292.81,117.013 z" id="boundary" inkscape:connector-curvature="0" />
	<path style="fill:none;stroke:red;stroke-width:1px;stroke-linecap:butt;stroke-linejoin:miter;stroke-opacity:1" d="M 292.81,117.013 230.025,167.241 z" id="boundary" inkscape:connector-curvature="0" />
	<path style="fill:none;stroke:red;stroke-width:1px;stroke-linecap:butt;stroke-linejoin:miter;stroke-opacity:1" d="M 230.025,167.241 104.456,267.696 z" id="boundary" inkscape:connector-curvature="0" />
	<path style="fill:none;stroke:red;stroke-width:1px;stroke-linecap:butt;stroke-linejoin:miter;stroke-opacity:1" d="M 204.911,230.025 167.241,286.532 z" id="boundary" inkscape:connector-curvature="0" />
	<path style="fill:none;stroke:red;stroke-width:1px;stroke-linecap:butt;stroke-linejoin:miter;stroke-opacity:1" d="M 355.595,4 317.924,54.2278 z" id="boundary" inkscape:connector-curvature="0" />
	<path style="fill:none;stroke:red;stroke-width:1px;stroke-linecap:butt;stroke-linejoin:miter;stroke-opacity:1" d="M 4,619.291 4,556.506 z" id="boundary" inkscape:connector-curvature="0" />
	<path style="fill:none;stroke:red;stroke-width:1px;stroke-linecap:butt;stroke-linejoin:miter;stroke-opacity:1" d="M 22.8354,682.076 4,619.291 z" id="boundary" inkscape:connector-curvature="0" />
	<path style="fill:none;stroke:red;stroke-width:1px;stroke-linecap:butt;stroke-linejoin:miter;stroke-opacity:1" d="M 73.0633,726.025 22.8354,682.076 z" id="boundary" inkscape:connector-curvature="0" />
	<path style="fill:none;stroke:red;stroke-width:1px;stroke-linecap:butt;stroke-linejoin:miter;stroke-opacity:1" d="M 186.076,901.823 154.684,958.329 z" id="boundary" inkscape:connector-curvature="0" />
	<path style="fill:none;stroke:red;stroke-width:1px;stroke-linecap:butt;stroke-linejoin:miter;stroke-opacity:1" d="M 211.19,839.038 186.076,901.823 z" id="boundary" inkscape:connector-curvature="0" />
	<path style="fill:none;stroke:red;stroke-width:1px;stroke-linecap:butt;stroke-linejoin:miter;stroke-opacity:1" d="M 73.0633,726.025 135.848,751.139 z" id="boundary" inkscape:connector-curvature="0" />
	<path style="fill:none;stroke:red;stroke-width:1px;stroke-linecap:butt;stroke-linejoin:miter;stroke-opacity:1" d="M 211.19,839.038 198.633,776.253 z" id="boundary" inkscape:connector-curvature="0" />
	<path style="fill:none;stroke:red;stroke-width:1px;stroke-linecap:butt;stroke-linejoin:miter;stroke-opacity:1" d="M 198.633,776.253 135.848,751.139 z" id="boundary" inkscape:connector-curvature="0" />
	<path style="fill:none;stroke:red;stroke-width:1px;stroke-linecap:butt;stroke-linejoin:miter;stroke-opacity:1" d="M 311.646,832.759 280.253,889.266 z" id="boundary" inkscape:connector-curvature="0" />
	<path style="fill:none;stroke:red;stroke-width:1px;stroke-linecap:butt;stroke-linejoin:miter;stroke-opacity:1" d="M 204.911,996 242.582,939.494 z" id="boundary" inkscape:connector-curvature="0" />
	<path style="fill:none;stroke:red;stroke-width:1px;stroke-linecap:butt;stroke-linejoin:miter;stroke-opacity:1" d="M 204.911,996 154.684,958.329 z" id="boundary" inkscape:connector-curvature="0" />
	<path style="fill:none;stroke:red;stroke-width:1px;stroke-linecap:butt;stroke-linejoin:miter;stroke-opacity:1" d="M 280.253,889.266 242.582,939.494 z" id="boundary" inkscape:connector-curvature="0" />
	<path style="fill:none;stroke:red;stroke-width:1px;stroke-linecap:butt;stroke-linejoin:miter;stroke-opacity:1" d="M 361.873,788.81 311.646,832.759 z" id="boundary" inkscape:connector-curvature="0" />
	<path style="fill:none;stroke:red;stroke-width:1px;stroke-linecap:butt;stroke-linejoin:miter;stroke-opacity:1" d="M 399.544,54.2278 412.101,117.013 z" id="boundary" inkscape:connector-curvature="0" />
	<path style="fill:none;stroke:red;stroke-width:1px;stroke-linecap:butt;stroke-linejoin:miter;stroke-opacity:1" d="M 456.051,230.025 412.101,179.797 z" id="boundary" inkscape:connector-curvature="0" />
	<path style="fill:none;stroke:red;stroke-width:1px;stroke-linecap:butt;stroke-linejoin:miter;stroke-opacity:1" d="M 412.101,179.797 412.101,117.013 z" id="boundary" inkscape:connector-curvature="0" />
	<path style="fill:none;stroke:red;stroke-width:1px;stroke-linecap:butt;stroke-linejoin:miter;stroke-opacity:1" d="M 506.278,267.696 456.051,230.025 z" id="boundary" inkscape:connector-curvature="0" />
	<path style="fill:none;stroke:red;stroke-width:1px;stroke-linecap:butt;stroke-linejoin:miter;stroke-opacity:1" d="M 506.278,267.696 556.506,305.367 z" id="boundary" inkscape:connector-curvature="0" />
	<path style="fill:none;stroke:red;stroke-width:1px;stroke-linecap:butt;stroke-linejoin:miter;stroke-opacity:1" d="M 606.734,349.316 556.506,305.367 z" id="boundary" inkscape:connector-curvature="0" />
	<path style="fill:none;stroke:red;stroke-width:1px;stroke-linecap:butt;stroke-linejoin:miter;stroke-opacity:1" d="M 606.734,349.316 619.291,412.101 z" id="boundary" inkscape:connector-curvature="0" />
	<path style="fill:none;stroke:red;stroke-width:1px;stroke-linecap:butt;stroke-linejoin:miter;stroke-opacity:1" d="M 663.241,525.114 625.57,474.886 z" id="boundary" inkscape:connector-curvature="0" />
	<path style="fill:none;stroke:red;stroke-width:1px;stroke-linecap:butt;stroke-linejoin:miter;stroke-opacity:1" d="M 625.57,474.886 619.291,412.101 z" id="boundary" inkscape:connector-curvature="0" />
	<path style="fill:none;stroke:red;stroke-width:1px;stroke-linecap:butt;stroke-linejoin:miter;stroke-opacity:1" d="M 663.241,525.114 663.241,587.899 z" id="boundary" inkscape:connector-curvature="0" />
	<path style="fill:none;stroke:red;stroke-width:1px;stroke-linecap:butt;stroke-linejoin:miter;stroke-opacity:1" d="M 493.722,763.696 418.38,820.203 z" id="boundary" inkscape:connector-curvature="0" />
	<path style="fill:none;stroke:red;stroke-width:1px;stroke-linecap:butt;stroke-linejoin:miter;stroke-opacity:1" d="M 418.38,820.203 361.873,788.81 z" id="boundary" inkscape:connector-curvature="0" />
	<path style="fill:none;stroke:red;stroke-width:1px;stroke-linecap:butt;stroke-linejoin:miter;stroke-opacity:1" d="M 481.165,933.215 443.494,882.987 z" id="boundary" inkscape:connector-curvature="0" />
	<path style="fill:none;stroke:red;stroke-width:1px;stroke-linecap:butt;stroke-linejoin:miter;stroke-opacity:1" d="M 512.557,826.481 537.671,889.266 z" id="boundary" inkscape:connector-curvature="0" />
	<path style="fill:none;stroke:red;stroke-width:1px;stroke-linecap:butt;stroke-linejoin:miter;stroke-opacity:1" d="M 493.722,763.696 556.506,751.139 z" id="boundary" inkscape:connector-curvature="0" />
	<path style="fill:none;stroke:red;stroke-width:1px;stroke-linecap:butt;stroke-linejoin:miter;stroke-opacity:1" d="M 481.165,933.215 512.557,989.722 z" id="boundary" inkscape:connector-curvature="0" />
	<path style="fill:none;stroke:red;stroke-width:1px;stroke-linecap:butt;stroke-linejoin:miter;stroke-opacity:1" d="M 644.405,663.241 613.013,719.747 z" id="boundary" inkscape:connector-curvature="0" />
	<path style="fill:none;stroke:red;stroke-width:1px;stroke-linecap:butt;stroke-linejoin:miter;stroke-opacity:1" d="M 613.013,719.747 556.506,751.139 z" id="boundary" inkscape:connector-curvature="0" />
	<path style="fill:none;stroke:red;stroke-width:1px;stroke-linecap:butt;stroke-linejoin:miter;stroke-opacity:1" d="M 537.671,889.266 512.557,989.722 z" id="boundary" inkscape:connector-curvature="0" />
	<path style="fill:none;stroke:red;stroke-width:1px;stroke-linecap:butt;stroke-linejoin:miter;stroke-opacity:1" d="M 663.241,587.899 644.405,663.241 z" id="boundary" inkscape:connector-curvature="0" />
	<path style="fill:none;stroke:red;stroke-width:1px;stroke-linecap:butt;stroke-linejoin:miter;stroke-opacity:1" d="M 355.595,4 399.544,54.2278 z" id="boundary" inkscape:connector-curvature="0" />
	<circle cx="4" cy="556.506" r="4" fill="#0" id="circle0"/>
	<circle cx="4" cy="619.291" r="4" fill="#0" id="circle1"/>
	<circle cx="22.8354" cy="682.076" r="4" fill="#0" id="circle2"/>
	<circle cx="41.6709" cy="506.278" r="4" fill="#0" id="circle3"/>
	<circle cx="73.0633" cy="726.025" r="4" fill="#0" id="circle4"/>
	<circle cx="104.456" cy="267.696" r="4" fill="#0" id="circle5"/>
	<circle cx="104.456" cy="330.481" r="4" fill="#0" id="circle6"/>
	<circle cx="104.456" cy="393.266" r="4" fill="#0" id="circle7"/>
	<circle cx="104.456" cy="500" r="4" fill="#0" id="circle8"/>
	<circle cx="135.848" cy="751.139" r="4" fill="#0" id="circle9"/>
	<circle cx="154.684" cy="958.329" r="4" fill="#0" id="circle10"/>
	<circle cx="167.241" cy="286.532" r="4" fill="#0" id="circle11"/>
	<circle cx="186.076" cy="901.823" r="4" fill="#0" id="circle12"/>
	<circle cx="198.633" cy="776.253" r="4" fill="#0" id="circle13"/>
	<circle cx="204.911" cy="230.025" r="4" fill="#0" id="circle14"/>
	<circle cx="204.911" cy="996" r="4" fill="#0" id="circle15"/>
	<circle cx="211.19" cy="839.038" r="4" fill="#0" id="circle16"/>
	<circle cx="230.025" cy="167.241" r="4" fill="#0" id="circle17"/>
	<circle cx="242.582" cy="939.494" r="4" fill="#0" id="circle18"/>
	<circle cx="280.253" cy="889.266" r="4" fill="#0" id="circle19"/>
	<circle cx="292.81" cy="117.013" r="4" fill="#0" id="circle20"/>
	<circle cx="311.646" cy="832.759" r="4" fill="#0" id="circle21"/>
	<circle cx="317.924" cy="54.2278" r="4" fill="#0" id="circle22"/>
	<circle cx="355.595" cy="4" r="4" fill="#0" id="circle23"/>
	<circle cx="361.873" cy="788.81" r="4" fill="#0" id="circle24"/>
	<circle cx="399.544" cy="54.2278" r="4" fill="#0" id="circle25"/>
	<circle cx="412.101" cy="117.013" r="4" fill="#0" id="circle26"/>
	<circle cx="412.101" cy="179.797" r="4" fill="#0" id="circle27"/>
	<circle cx="418.38" cy="820.203" r="4" fill="#0" id="circle28"/>
	<circle cx="443.494" cy="882.987" r="4" fill="#0" id="circle29"/>
	<circle cx="456.051" cy="230.025" r="4" fill="#0" id="circle30"/>
	<circle cx="481.165" cy="933.215" r="4" fill="#0" id="circle31"/>
	<circle cx="493.722" cy="763.696" r="4" fill="#0" id="circle32"/>
	<circle cx="506.278" cy="267.696" r="4" fill="#0" id="circle33"/>
	<circle cx="512.557" cy="826.481" r="4" fill="#0" id="circle34"/>
	<circle cx="512.557" cy="989.722" r="4" fill="#0" id="circle35"/>
	<circle cx="537.671" cy="889.266" r="4" fill="#0" id="circle36"/>
	<circle cx="556.506" cy="305.367" r="4" fill="#0" id="circle37"/>
	<circle cx="556.506" cy="751.139" r="4" fill="#0" id="circle38"/>
	<circle cx="606.734" cy="349.316" r="4" fill="#0" id="circle39"/>
	<circle cx="613.013" cy="719.747" r="4" fill="#0" id="circle40"/>
	<circle cx="619.291" cy="412.101" r="4" fill="#0" id="circle41"/>
	<circle cx="625.57" cy="474.886" r="4" fill="#0" id="circle42"/>
	<circle cx="644.405" cy="663.241" r="4" fill="#0" id="circle43"/>
	<circle cx="663.241" cy="525.114" r="4" fill="#0" id="circle44"/>
	<circle cx="663.241" cy="587.899" r="4" fill="#0" id="circle45"/>
	</g>
</svg>