<?xml version="1.0" encoding="UTF-8" standalone="no"?>
<!-- Created with CurveBenchmark -->
<svg
	xmlns:dc="http://purl.org/dc/elements/1.1/"
	xmlns:cc="http://creativecommons.org/ns#"
	xmlns:rdf="http://www.w3.org/1999/02/22-rdf-syntax-ns#"
	xmlns:svg="http://www.w3.org/2000/svg"
	xmlns="http://www.w3.org/2000/svg"
	xmlns:sodipodi="http://sodipodi.sourceforge.net/DTD/sodipodi-0.dtd"
	xmlns:inkscape="http://www.inkscape.org/namespaces/inkscape"
	width="1000"
	height="1000"
	id="svg2"
	version="1.1"
	sodipodi:docname="manifold/gathan1-sink295.png.txt">
<defs
	id="defs4" />
<metadata
	id="metadata7">
	<rdf:RDF>
		<cc:Work
			rdf:about="">
			<dc:format>image/svg+xml</dc:format>
			<dc:type
				rdf:resource="http://purl.org/dc/dcmitype/StillImage" />
			<dc:title></dc:title>
		</cc:Work>
	</rdf:RDF>
</metadata>
<g
	inkscape:label="Layer 1"
	inkscape:groupmode="layer"
	id="layer1">
	<path style="fill:none;stroke:red;stroke-width:1px;stroke-linecap:butt;stroke-linejoin:miter;stroke-opacity:1" d="M 23.9397,143.578 73.7889,143.578 z" id="boundary" inkscape:connector-curvature="0" />
	<path style="fill:none;stroke:red;stroke-width:1px;stroke-linecap:butt;stroke-linejoin:miter;stroke-opacity:1" d="M 23.9397,193.427 23.9397,143.578 z" id="boundary" inkscape:connector-curvature="0" />
	<path style="fill:none;stroke:red;stroke-width:1px;stroke-linecap:butt;stroke-linejoin:miter;stroke-opacity:1" d="M 123.638,143.578 73.7889,143.578 z" id="boundary" inkscape:connector-curvature="0" />
	<path style="fill:none;stroke:red;stroke-width:1px;stroke-linecap:butt;stroke-linejoin:miter;stroke-opacity:1" d="M 4,273.186 23.9397,193.427 z" id="boundary" inkscape:connector-curvature="0" />
	<path style="fill:none;stroke:red;stroke-width:1px;stroke-linecap:butt;stroke-linejoin:miter;stroke-opacity:1" d="M 48.8643,298.111 4,273.186 z" id="boundary" inkscape:connector-curvature="0" />
	<path style="fill:none;stroke:red;stroke-width:1px;stroke-linecap:butt;stroke-linejoin:miter;stroke-opacity:1" d="M 48.8643,298.111 98.7136,298.111 z" id="boundary" inkscape:connector-curvature="0" />
	<path style="fill:none;stroke:red;stroke-width:1px;stroke-linecap:butt;stroke-linejoin:miter;stroke-opacity:1" d="M 98.7136,298.111 128.623,337.99 z" id="boundary" inkscape:connector-curvature="0" />
	<path style="fill:none;stroke:red;stroke-width:1px;stroke-linecap:butt;stroke-linejoin:miter;stroke-opacity:1" d="M 123.638,143.578 173.487,143.578 z" id="boundary" inkscape:connector-curvature="0" />
	<path style="fill:none;stroke:red;stroke-width:1px;stroke-linecap:butt;stroke-linejoin:miter;stroke-opacity:1" d="M 223.337,143.578 173.487,143.578 z" id="boundary" inkscape:connector-curvature="0" />
	<path style="fill:none;stroke:red;stroke-width:1px;stroke-linecap:butt;stroke-linejoin:miter;stroke-opacity:1" d="M 342.975,4 342.975,53.8492 z" id="boundary" inkscape:connector-curvature="0" />
	<path style="fill:none;stroke:red;stroke-width:1px;stroke-linecap:butt;stroke-linejoin:miter;stroke-opacity:1" d="M 342.975,4 387.839,28.9246 z" id="boundary" inkscape:connector-curvature="0" />
	<path style="fill:none;stroke:red;stroke-width:1px;stroke-linecap:butt;stroke-linejoin:miter;stroke-opacity:1" d="M 273.186,143.578 223.337,143.578 z" id="boundary" inkscape:connector-curvature="0" />
	<path style="fill:none;stroke:red;stroke-width:1px;stroke-linecap:butt;stroke-linejoin:miter;stroke-opacity:1" d="M 128.623,337.99 163.518,377.869 z" id="boundary" inkscape:connector-curvature="0" />
	<path style="fill:none;stroke:red;stroke-width:1px;stroke-linecap:butt;stroke-linejoin:miter;stroke-opacity:1" d="M 203.397,407.779 163.518,377.869 z" id="boundary" inkscape:connector-curvature="0" />
	<path style="fill:none;stroke:red;stroke-width:1px;stroke-linecap:butt;stroke-linejoin:miter;stroke-opacity:1" d="M 323.035,143.578 273.186,143.578 z" id="boundary" inkscape:connector-curvature="0" />
	<path style="fill:none;stroke:red;stroke-width:1px;stroke-linecap:butt;stroke-linejoin:miter;stroke-opacity:1" d="M 323.035,143.578 387.839,143.578 z" id="boundary" inkscape:connector-curvature="0" />
	<path style="fill:none;stroke:red;stroke-width:1px;stroke-linecap:butt;stroke-linejoin:miter;stroke-opacity:1" d="M 203.397,407.779 253.246,427.719 z" id="boundary" inkscape:connector-curvature="0" />
	<path style="fill:none;stroke:red;stroke-width:1px;stroke-linecap:butt;stroke-linejoin:miter;stroke-opacity:1" d="M 253.246,427.719 263.216,477.568 z" id="boundary" inkscape:connector-curvature="0" />
	<path style="fill:none;stroke:red;stroke-width:1px;stroke-linecap:butt;stroke-linejoin:miter;stroke-opacity:1" d="M 263.216,477.568 263.216,527.417 z" id="boundary" inkscape:connector-curvature="0" />
	<path style="fill:none;stroke:red;stroke-width:1px;stroke-linecap:butt;stroke-linejoin:miter;stroke-opacity:1" d="M 278.171,996 228.322,996 z" id="boundary" inkscape:connector-curvature="0" />
	<path style="fill:none;stroke:red;stroke-width:1px;stroke-linecap:butt;stroke-linejoin:miter;stroke-opacity:1" d="M 228.322,996 203.397,951.136 z" id="boundary" inkscape:connector-curvature="0" />
	<path style="fill:none;stroke:red;stroke-width:1px;stroke-linecap:butt;stroke-linejoin:miter;stroke-opacity:1" d="M 203.397,951.136 233.307,901.286 z" id="boundary" inkscape:connector-curvature="0" />
	<path style="fill:none;stroke:red;stroke-width:1px;stroke-linecap:butt;stroke-linejoin:miter;stroke-opacity:1" d="M 263.216,676.965 263.216,726.814 z" id="boundary" inkscape:connector-curvature="0" />
	<path style="fill:none;stroke:red;stroke-width:1px;stroke-linecap:butt;stroke-linejoin:miter;stroke-opacity:1" d="M 263.216,527.417 263.216,577.266 z" id="boundary" inkscape:connector-curvature="0" />
	<path style="fill:none;stroke:red;stroke-width:1px;stroke-linecap:butt;stroke-linejoin:miter;stroke-opacity:1" d="M 263.216,577.266 263.216,627.116 z" id="boundary" inkscape:connector-curvature="0" />
	<path style="fill:none;stroke:red;stroke-width:1px;stroke-linecap:butt;stroke-linejoin:miter;stroke-opacity:1" d="M 263.216,676.965 263.216,627.116 z" id="boundary" inkscape:connector-curvature="0" />
	<path style="fill:none;stroke:red;stroke-width:1px;stroke-linecap:butt;stroke-linejoin:miter;stroke-opacity:1" d="M 263.216,776.663 263.216,726.814 z" id="boundary" inkscape:connector-curvature="0" />
	<path style="fill:none;stroke:red;stroke-width:1px;stroke-linecap:butt;stroke-linejoin:miter;stroke-opacity:1" d="M 263.216,776.663 263.216,826.513 z" id="boundary" inkscape:connector-curvature="0" />
	<path style="fill:none;stroke:red;stroke-width:1px;stroke-linecap:butt;stroke-linejoin:miter;stroke-opacity:1" d="M 263.216,826.513 233.307,901.286 z" id="boundary" inkscape:connector-curvature="0" />
	<path style="fill:none;stroke:red;stroke-width:1px;stroke-linecap:butt;stroke-linejoin:miter;stroke-opacity:1" d="M 328.02,996 278.171,996 z" id="boundary" inkscape:connector-curvature="0" />
	<path style="fill:none;stroke:red;stroke-width:1px;stroke-linecap:butt;stroke-linejoin:miter;stroke-opacity:1" d="M 342.975,53.8492 352.945,103.698 z" id="boundary" inkscape:connector-curvature="0" />
	<path style="fill:none;stroke:red;stroke-width:1px;stroke-linecap:butt;stroke-linejoin:miter;stroke-opacity:1" d="M 437.688,143.578 387.839,143.578 z" id="boundary" inkscape:connector-curvature="0" />
	<path style="fill:none;stroke:red;stroke-width:1px;stroke-linecap:butt;stroke-linejoin:miter;stroke-opacity:1" d="M 437.688,143.578 487.538,143.578 z" id="boundary" inkscape:connector-curvature="0" />
	<path style="fill:none;stroke:red;stroke-width:1px;stroke-linecap:butt;stroke-linejoin:miter;stroke-opacity:1" d="M 607.176,303.095 577.266,352.945 z" id="boundary" inkscape:connector-curvature="0" />
	<path style="fill:none;stroke:red;stroke-width:1px;stroke-linecap:butt;stroke-linejoin:miter;stroke-opacity:1" d="M 487.538,143.578 537.387,143.578 z" id="boundary" inkscape:connector-curvature="0" />
	<path style="fill:none;stroke:red;stroke-width:1px;stroke-linecap:butt;stroke-linejoin:miter;stroke-opacity:1" d="M 587.236,143.578 537.387,143.578 z" id="boundary" inkscape:connector-curvature="0" />
	<path style="fill:none;stroke:red;stroke-width:1px;stroke-linecap:butt;stroke-linejoin:miter;stroke-opacity:1" d="M 577.266,352.945 537.387,392.824 z" id="boundary" inkscape:connector-curvature="0" />
	<path style="fill:none;stroke:red;stroke-width:1px;stroke-linecap:butt;stroke-linejoin:miter;stroke-opacity:1" d="M 587.236,143.578 637.085,143.578 z" id="boundary" inkscape:connector-curvature="0" />
	<path style="fill:none;stroke:red;stroke-width:1px;stroke-linecap:butt;stroke-linejoin:miter;stroke-opacity:1" d="M 686.935,143.578 716.844,183.457 z" id="boundary" inkscape:connector-curvature="0" />
	<path style="fill:none;stroke:red;stroke-width:1px;stroke-linecap:butt;stroke-linejoin:miter;stroke-opacity:1" d="M 637.085,143.578 686.935,143.578 z" id="boundary" inkscape:connector-curvature="0" />
	<path style="fill:none;stroke:red;stroke-width:1px;stroke-linecap:butt;stroke-linejoin:miter;stroke-opacity:1" d="M 716.844,183.457 716.844,233.307 z" id="boundary" inkscape:connector-curvature="0" />
	<path style="fill:none;stroke:red;stroke-width:1px;stroke-linecap:butt;stroke-linejoin:miter;stroke-opacity:1" d="M 657.025,298.111 706.874,298.111 z" id="boundary" inkscape:connector-curvature="0" />
	<path style="fill:none;stroke:red;stroke-width:1px;stroke-linecap:butt;stroke-linejoin:miter;stroke-opacity:1" d="M 657.025,298.111 607.176,303.095 z" id="boundary" inkscape:connector-curvature="0" />
	<path style="fill:none;stroke:red;stroke-width:1px;stroke-linecap:butt;stroke-linejoin:miter;stroke-opacity:1" d="M 716.844,233.307 706.874,298.111 z" id="boundary" inkscape:connector-curvature="0" />
	<path style="fill:none;stroke:red;stroke-width:1px;stroke-linecap:butt;stroke-linejoin:miter;stroke-opacity:1" d="M 447.658,492.523 447.658,542.372 z" id="boundary" inkscape:connector-curvature="0" />
	<path style="fill:none;stroke:red;stroke-width:1px;stroke-linecap:butt;stroke-linejoin:miter;stroke-opacity:1" d="M 447.658,492.523 447.658,442.673 z" id="boundary" inkscape:connector-curvature="0" />
	<path style="fill:none;stroke:red;stroke-width:1px;stroke-linecap:butt;stroke-linejoin:miter;stroke-opacity:1" d="M 447.658,442.673 492.523,417.749 z" id="boundary" inkscape:connector-curvature="0" />
	<path style="fill:none;stroke:red;stroke-width:1px;stroke-linecap:butt;stroke-linejoin:miter;stroke-opacity:1" d="M 447.658,592.221 447.658,642.07 z" id="boundary" inkscape:connector-curvature="0" />
	<path style="fill:none;stroke:red;stroke-width:1px;stroke-linecap:butt;stroke-linejoin:miter;stroke-opacity:1" d="M 447.658,592.221 447.658,542.372 z" id="boundary" inkscape:connector-curvature="0" />
	<path style="fill:none;stroke:red;stroke-width:1px;stroke-linecap:butt;stroke-linejoin:miter;stroke-opacity:1" d="M 427.719,996 377.869,996 z" id="boundary" inkscape:connector-curvature="0" />
	<path style="fill:none;stroke:red;stroke-width:1px;stroke-linecap:butt;stroke-linejoin:miter;stroke-opacity:1" d="M 447.658,691.92 447.658,741.769 z" id="boundary" inkscape:connector-curvature="0" />
	<path style="fill:none;stroke:red;stroke-width:1px;stroke-linecap:butt;stroke-linejoin:miter;stroke-opacity:1" d="M 447.658,642.07 447.658,691.92 z" id="boundary" inkscape:connector-curvature="0" />
	<path style="fill:none;stroke:red;stroke-width:1px;stroke-linecap:butt;stroke-linejoin:miter;stroke-opacity:1" d="M 447.658,741.769 447.658,791.618 z" id="boundary" inkscape:connector-curvature="0" />
	<path style="fill:none;stroke:red;stroke-width:1px;stroke-linecap:butt;stroke-linejoin:miter;stroke-opacity:1" d="M 447.658,791.618 447.658,841.467 z" id="boundary" inkscape:connector-curvature="0" />
	<path style="fill:none;stroke:red;stroke-width:1px;stroke-linecap:butt;stroke-linejoin:miter;stroke-opacity:1" d="M 537.387,392.824 492.523,417.749 z" id="boundary" inkscape:connector-curvature="0" />
	<path style="fill:none;stroke:red;stroke-width:1px;stroke-linecap:butt;stroke-linejoin:miter;stroke-opacity:1" d="M 462.613,891.317 487.538,936.181 z" id="boundary" inkscape:connector-curvature="0" />
	<path style="fill:none;stroke:red;stroke-width:1px;stroke-linecap:butt;stroke-linejoin:miter;stroke-opacity:1" d="M 462.613,891.317 447.658,841.467 z" id="boundary" inkscape:connector-curvature="0" />
	<path style="fill:none;stroke:red;stroke-width:1px;stroke-linecap:butt;stroke-linejoin:miter;stroke-opacity:1" d="M 477.568,996 487.538,936.181 z" id="boundary" inkscape:connector-curvature="0" />
	<path style="fill:none;stroke:red;stroke-width:1px;stroke-linecap:butt;stroke-linejoin:miter;stroke-opacity:1" d="M 477.568,996 427.719,996 z" id="boundary" inkscape:connector-curvature="0" />
	<path style="fill:none;stroke:red;stroke-width:1px;stroke-linecap:butt;stroke-linejoin:miter;stroke-opacity:1" d="M 377.869,996 328.02,996 z" id="boundary" inkscape:connector-curvature="0" />
	<circle cx="4" cy="273.186" r="4" fill="#0" id="circle0"/>
	<circle cx="23.9397" cy="143.578" r="4" fill="#0" id="circle1"/>
	<circle cx="23.9397" cy="193.427" r="4" fill="#0" id="circle2"/>
	<circle cx="48.8643" cy="298.111" r="4" fill="#0" id="circle3"/>
	<circle cx="73.7889" cy="143.578" r="4" fill="#0" id="circle4"/>
	<circle cx="98.7136" cy="298.111" r="4" fill="#0" id="circle5"/>
	<circle cx="123.638" cy="143.578" r="4" fill="#0" id="circle6"/>
	<circle cx="128.623" cy="337.99" r="4" fill="#0" id="circle7"/>
	<circle cx="163.518" cy="377.869" r="4" fill="#0" id="circle8"/>
	<circle cx="173.487" cy="143.578" r="4" fill="#0" id="circle9"/>
	<circle cx="203.397" cy="407.779" r="4" fill="#0" id="circle10"/>
	<circle cx="203.397" cy="951.136" r="4" fill="#0" id="circle11"/>
	<circle cx="223.337" cy="143.578" r="4" fill="#0" id="circle12"/>
	<circle cx="228.322" cy="996" r="4" fill="#0" id="circle13"/>
	<circle cx="233.307" cy="901.286" r="4" fill="#0" id="circle14"/>
	<circle cx="253.246" cy="427.719" r="4" fill="#0" id="circle15"/>
	<circle cx="263.216" cy="477.568" r="4" fill="#0" id="circle16"/>
	<circle cx="263.216" cy="527.417" r="4" fill="#0" id="circle17"/>
	<circle cx="263.216" cy="577.266" r="4" fill="#0" id="circle18"/>
	<circle cx="263.216" cy="627.116" r="4" fill="#0" id="circle19"/>
	<circle cx="263.216" cy="676.965" r="4" fill="#0" id="circle20"/>
	<circle cx="263.216" cy="726.814" r="4" fill="#0" id="circle21"/>
	<circle cx="263.216" cy="776.663" r="4" fill="#0" id="circle22"/>
	<circle cx="263.216" cy="826.513" r="4" fill="#0" id="circle23"/>
	<circle cx="273.186" cy="143.578" r="4" fill="#0" id="circle24"/>
	<circle cx="278.171" cy="996" r="4" fill="#0" id="circle25"/>
	<circle cx="323.035" cy="143.578" r="4" fill="#0" id="circle26"/>
	<circle cx="328.02" cy="996" r="4" fill="#0" id="circle27"/>
	<circle cx="342.975" cy="4" r="4" fill="#0" id="circle28"/>
	<circle cx="342.975" cy="53.8492" r="4" fill="#0" id="circle29"/>
	<circle cx="352.945" cy="103.698" r="4" fill="#0" id="circle30"/>
	<circle cx="377.869" cy="996" r="4" fill="#0" id="circle31"/>
	<circle cx="387.839" cy="28.9246" r="4" fill="#0" id="circle32"/>
	<circle cx="387.839" cy="143.578" r="4" fill="#0" id="circle33"/>
	<circle cx="427.719" cy="996" r="4" fill="#0" id="circle34"/>
	<circle cx="437.688" cy="143.578" r="4" fill="#0" id="circle35"/>
	<circle cx="447.658" cy="442.673" r="4" fill="#0" id="circle36"/>
	<circle cx="447.658" cy="492.523" r="4" fill="#0" id="circle37"/>
	<circle cx="447.658" cy="542.372" r="4" fill="#0" id="circle38"/>
	<circle cx="447.658" cy="592.221" r="4" fill="#0" id="circle39"/>
	<circle cx="447.658" cy="642.07" r="4" fill="#0" id="circle40"/>
	<circle cx="447.658" cy="691.92" r="4" fill="#0" id="circle41"/>
	<circle cx="447.658" cy="741.769" r="4" fill="#0" id="circle42"/>
	<circle cx="447.658" cy="791.618" r="4" fill="#0" id="circle43"/>
	<circle cx="447.658" cy="841.467" r="4" fill="#0" id="circle44"/>
	<circle cx="462.613" cy="891.317" r="4" fill="#0" id="circle45"/>
	<circle cx="477.568" cy="996" r="4" fill="#0" id="circle46"/>
	<circle cx="487.538" cy="143.578" r="4" fill="#0" id="circle47"/>
	<circle cx="487.538" cy="936.181" r="4" fill="#0" id="circle48"/>
	<circle cx="492.523" cy="417.749" r="4" fill="#0" id="circle49"/>
	<circle cx="537.387" cy="143.578" r="4" fill="#0" id="circle50"/>
	<circle cx="537.387" cy="392.824" r="4" fill="#0" id="circle51"/>
	<circle cx="577.266" cy="352.945" r="4" fill="#0" id="circle52"/>
	<circle cx="587.236" cy="143.578" r="4" fill="#0" id="circle53"/>
	<circle cx="607.176" cy="303.095" r="4" fill="#0" id="circle54"/>
	<circle cx="637.085" cy="143.578" r="4" fill="#0" id="circle55"/>
	<circle cx="657.025" cy="298.111" r="4" fill="#0" id="circle56"/>
	<circle cx="686.935" cy="143.578" r="4" fill="#0" id="circle57"/>
	<circle cx="706.874" cy="298.111" r="4" fill="#0" id="circle58"/>
	<circle cx="716.844" cy="183.457" r="4" fill="#0" id="circle59"/>
	<circle cx="716.844" cy="233.307" r="4" fill="#0" id="circle60"/>
	</g>
</svg>