<?xml version="1.0" encoding="UTF-8" standalone="no"?>
<!-- Created with CurveBenchmark -->
<svg
	xmlns:dc="http://purl.org/dc/elements/1.1/"
	xmlns:cc="http://creativecommons.org/ns#"
	xmlns:rdf="http://www.w3.org/1999/02/22-rdf-syntax-ns#"
	xmlns:svg="http://www.w3.org/2000/svg"
	xmlns="http://www.w3.org/2000/svg"
	xmlns:sodipodi="http://sodipodi.sourceforge.net/DTD/sodipodi-0.dtd"
	xmlns:inkscape="http://www.inkscape.org/namespaces/inkscape"
	width="1000"
	height="1000"
	id="svg2"
	version="1.1"
	sodipodi:docname="manifold/gathan1-flatfish10.png.txt">
<defs
	id="defs4" />
<metadata
	id="metadata7">
	<rdf:RDF>
		<cc:Work
			rdf:about="">
			<dc:format>image/svg+xml</dc:format>
			<dc:type
				rdf:resource="http://purl.org/dc/dcmitype/StillImage" />
			<dc:title></dc:title>
		</cc:Work>
	</rdf:RDF>
</metadata>
<g
	inkscape:label="Layer 1"
	inkscape:groupmode="layer"
	id="layer1">
	<path style="fill:none;stroke:red;stroke-width:1px;stroke-linecap:butt;stroke-linejoin:miter;stroke-opacity:1" d="M 131.142,95.6602 142.969,85.3115 z" id="boundary" inkscape:connector-curvature="0" />
	<path style="fill:none;stroke:red;stroke-width:1px;stroke-linecap:butt;stroke-linejoin:miter;stroke-opacity:1" d="M 131.142,95.6602 119.314,107.487 z" id="boundary" inkscape:connector-curvature="0" />
	<path style="fill:none;stroke:red;stroke-width:1px;stroke-linecap:butt;stroke-linejoin:miter;stroke-opacity:1" d="M 119.314,107.487 106.009,114.879 z" id="boundary" inkscape:connector-curvature="0" />
	<path style="fill:none;stroke:red;stroke-width:1px;stroke-linecap:butt;stroke-linejoin:miter;stroke-opacity:1" d="M 94.1818,125.228 106.009,114.879 z" id="boundary" inkscape:connector-curvature="0" />
	<path style="fill:none;stroke:red;stroke-width:1px;stroke-linecap:butt;stroke-linejoin:miter;stroke-opacity:1" d="M 142.969,85.3115 156.274,77.9195 z" id="boundary" inkscape:connector-curvature="0" />
	<path style="fill:none;stroke:red;stroke-width:1px;stroke-linecap:butt;stroke-linejoin:miter;stroke-opacity:1" d="M 156.274,77.9195 171.058,77.9195 z" id="boundary" inkscape:connector-curvature="0" />
	<path style="fill:none;stroke:red;stroke-width:1px;stroke-linecap:butt;stroke-linejoin:miter;stroke-opacity:1" d="M 199.148,64.614 210.975,55.7437 z" id="boundary" inkscape:connector-curvature="0" />
	<path style="fill:none;stroke:red;stroke-width:1px;stroke-linecap:butt;stroke-linejoin:miter;stroke-opacity:1" d="M 224.28,48.3517 210.975,55.7437 z" id="boundary" inkscape:connector-curvature="0" />
	<path style="fill:none;stroke:red;stroke-width:1px;stroke-linecap:butt;stroke-linejoin:miter;stroke-opacity:1" d="M 171.058,77.9195 184.364,70.5276 z" id="boundary" inkscape:connector-curvature="0" />
	<path style="fill:none;stroke:red;stroke-width:1px;stroke-linecap:butt;stroke-linejoin:miter;stroke-opacity:1" d="M 184.364,70.5276 199.148,64.614 z" id="boundary" inkscape:connector-curvature="0" />
	<path style="fill:none;stroke:red;stroke-width:1px;stroke-linecap:butt;stroke-linejoin:miter;stroke-opacity:1" d="M 11.392,208.018 23.2191,196.191 z" id="boundary" inkscape:connector-curvature="0" />
	<path style="fill:none;stroke:red;stroke-width:1px;stroke-linecap:butt;stroke-linejoin:miter;stroke-opacity:1" d="M 38.003,188.799 23.2191,196.191 z" id="boundary" inkscape:connector-curvature="0" />
	<path style="fill:none;stroke:red;stroke-width:1px;stroke-linecap:butt;stroke-linejoin:miter;stroke-opacity:1" d="M 4,237.586 4,222.802 z" id="boundary" inkscape:connector-curvature="0" />
	<path style="fill:none;stroke:red;stroke-width:1px;stroke-linecap:butt;stroke-linejoin:miter;stroke-opacity:1" d="M 11.392,250.891 4,237.586 z" id="boundary" inkscape:connector-curvature="0" />
	<path style="fill:none;stroke:red;stroke-width:1px;stroke-linecap:butt;stroke-linejoin:miter;stroke-opacity:1" d="M 4,222.802 11.392,208.018 z" id="boundary" inkscape:connector-curvature="0" />
	<path style="fill:none;stroke:red;stroke-width:1px;stroke-linecap:butt;stroke-linejoin:miter;stroke-opacity:1" d="M 82.3547,137.055 94.1818,125.228 z" id="boundary" inkscape:connector-curvature="0" />
	<path style="fill:none;stroke:red;stroke-width:1px;stroke-linecap:butt;stroke-linejoin:miter;stroke-opacity:1" d="M 63.1356,163.666 52.7869,181.407 z" id="boundary" inkscape:connector-curvature="0" />
	<path style="fill:none;stroke:red;stroke-width:1px;stroke-linecap:butt;stroke-linejoin:miter;stroke-opacity:1" d="M 52.7869,181.407 38.003,188.799 z" id="boundary" inkscape:connector-curvature="0" />
	<path style="fill:none;stroke:red;stroke-width:1px;stroke-linecap:butt;stroke-linejoin:miter;stroke-opacity:1" d="M 70.5276,148.882 63.1356,163.666 z" id="boundary" inkscape:connector-curvature="0" />
	<path style="fill:none;stroke:red;stroke-width:1px;stroke-linecap:butt;stroke-linejoin:miter;stroke-opacity:1" d="M 70.5276,148.882 82.3547,137.055 z" id="boundary" inkscape:connector-curvature="0" />
	<path style="fill:none;stroke:red;stroke-width:1px;stroke-linecap:butt;stroke-linejoin:miter;stroke-opacity:1" d="M 224.28,48.3517 239.064,48.3517 z" id="boundary" inkscape:connector-curvature="0" />
	<path style="fill:none;stroke:red;stroke-width:1px;stroke-linecap:butt;stroke-linejoin:miter;stroke-opacity:1" d="M 425.341,4 412.036,11.392 z" id="boundary" inkscape:connector-curvature="0" />
	<path style="fill:none;stroke:red;stroke-width:1px;stroke-linecap:butt;stroke-linejoin:miter;stroke-opacity:1" d="M 412.036,11.392 397.252,11.392 z" id="boundary" inkscape:connector-curvature="0" />
	<path style="fill:none;stroke:red;stroke-width:1px;stroke-linecap:butt;stroke-linejoin:miter;stroke-opacity:1" d="M 367.684,11.392 382.468,11.392 z" id="boundary" inkscape:connector-curvature="0" />
	<path style="fill:none;stroke:red;stroke-width:1px;stroke-linecap:butt;stroke-linejoin:miter;stroke-opacity:1" d="M 352.9,14.3487 367.684,11.392 z" id="boundary" inkscape:connector-curvature="0" />
	<path style="fill:none;stroke:red;stroke-width:1px;stroke-linecap:butt;stroke-linejoin:miter;stroke-opacity:1" d="M 397.252,11.392 382.468,11.392 z" id="boundary" inkscape:connector-curvature="0" />
	<path style="fill:none;stroke:red;stroke-width:1px;stroke-linecap:butt;stroke-linejoin:miter;stroke-opacity:1" d="M 425.341,4 440.125,4 z" id="boundary" inkscape:connector-curvature="0" />
	<path style="fill:none;stroke:red;stroke-width:1px;stroke-linecap:butt;stroke-linejoin:miter;stroke-opacity:1" d="M 440.125,4 454.909,4 z" id="boundary" inkscape:connector-curvature="0" />
	<path style="fill:none;stroke:red;stroke-width:1px;stroke-linecap:butt;stroke-linejoin:miter;stroke-opacity:1" d="M 454.909,4 469.693,4 z" id="boundary" inkscape:connector-curvature="0" />
	<path style="fill:none;stroke:red;stroke-width:1px;stroke-linecap:butt;stroke-linejoin:miter;stroke-opacity:1" d="M 469.693,4 484.477,4 z" id="boundary" inkscape:connector-curvature="0" />
	<path style="fill:none;stroke:red;stroke-width:1px;stroke-linecap:butt;stroke-linejoin:miter;stroke-opacity:1" d="M 267.154,40.9598 280.459,33.5678 z" id="boundary" inkscape:connector-curvature="0" />
	<path style="fill:none;stroke:red;stroke-width:1px;stroke-linecap:butt;stroke-linejoin:miter;stroke-opacity:1" d="M 267.154,40.9598 253.848,48.3517 z" id="boundary" inkscape:connector-curvature="0" />
	<path style="fill:none;stroke:red;stroke-width:1px;stroke-linecap:butt;stroke-linejoin:miter;stroke-opacity:1" d="M 253.848,48.3517 239.064,48.3517 z" id="boundary" inkscape:connector-curvature="0" />
	<path style="fill:none;stroke:red;stroke-width:1px;stroke-linecap:butt;stroke-linejoin:miter;stroke-opacity:1" d="M 280.459,33.5678 295.243,27.6542 z" id="boundary" inkscape:connector-curvature="0" />
	<path style="fill:none;stroke:red;stroke-width:1px;stroke-linecap:butt;stroke-linejoin:miter;stroke-opacity:1" d="M 295.243,27.6542 310.027,26.1759 z" id="boundary" inkscape:connector-curvature="0" />
	<path style="fill:none;stroke:red;stroke-width:1px;stroke-linecap:butt;stroke-linejoin:miter;stroke-opacity:1" d="M 338.116,18.7839 352.9,14.3487 z" id="boundary" inkscape:connector-curvature="0" />
	<path style="fill:none;stroke:red;stroke-width:1px;stroke-linecap:butt;stroke-linejoin:miter;stroke-opacity:1" d="M 310.027,26.1759 323.332,18.7839 z" id="boundary" inkscape:connector-curvature="0" />
	<path style="fill:none;stroke:red;stroke-width:1px;stroke-linecap:butt;stroke-linejoin:miter;stroke-opacity:1" d="M 323.332,18.7839 338.116,18.7839 z" id="boundary" inkscape:connector-curvature="0" />
	<path style="fill:none;stroke:red;stroke-width:1px;stroke-linecap:butt;stroke-linejoin:miter;stroke-opacity:1" d="M 484.477,4 499.261,4 z" id="boundary" inkscape:connector-curvature="0" />
	<path style="fill:none;stroke:red;stroke-width:1px;stroke-linecap:butt;stroke-linejoin:miter;stroke-opacity:1" d="M 21.7407,262.718 11.392,250.891 z" id="boundary" inkscape:connector-curvature="0" />
	<path style="fill:none;stroke:red;stroke-width:1px;stroke-linecap:butt;stroke-linejoin:miter;stroke-opacity:1" d="M 54.2653,293.765 42.4382,283.416 z" id="boundary" inkscape:connector-curvature="0" />
	<path style="fill:none;stroke:red;stroke-width:1px;stroke-linecap:butt;stroke-linejoin:miter;stroke-opacity:1" d="M 42.4382,283.416 33.5678,271.589 z" id="boundary" inkscape:connector-curvature="0" />
	<path style="fill:none;stroke:red;stroke-width:1px;stroke-linecap:butt;stroke-linejoin:miter;stroke-opacity:1" d="M 21.7407,262.718 33.5678,271.589 z" id="boundary" inkscape:connector-curvature="0" />
	<path style="fill:none;stroke:red;stroke-width:1px;stroke-linecap:butt;stroke-linejoin:miter;stroke-opacity:1" d="M 67.5708,301.156 80.8763,308.548 z" id="boundary" inkscape:connector-curvature="0" />
	<path style="fill:none;stroke:red;stroke-width:1px;stroke-linecap:butt;stroke-linejoin:miter;stroke-opacity:1" d="M 67.5708,301.156 54.2653,293.765 z" id="boundary" inkscape:connector-curvature="0" />
	<path style="fill:none;stroke:red;stroke-width:1px;stroke-linecap:butt;stroke-linejoin:miter;stroke-opacity:1" d="M 114.879,338.116 103.052,329.246 z" id="boundary" inkscape:connector-curvature="0" />
	<path style="fill:none;stroke:red;stroke-width:1px;stroke-linecap:butt;stroke-linejoin:miter;stroke-opacity:1" d="M 103.052,329.246 92.7034,317.419 z" id="boundary" inkscape:connector-curvature="0" />
	<path style="fill:none;stroke:red;stroke-width:1px;stroke-linecap:butt;stroke-linejoin:miter;stroke-opacity:1" d="M 80.8763,308.548 92.7034,317.419 z" id="boundary" inkscape:connector-curvature="0" />
	<path style="fill:none;stroke:red;stroke-width:1px;stroke-linecap:butt;stroke-linejoin:miter;stroke-opacity:1" d="M 215.41,404.644 202.104,397.252 z" id="boundary" inkscape:connector-curvature="0" />
	<path style="fill:none;stroke:red;stroke-width:1px;stroke-linecap:butt;stroke-linejoin:miter;stroke-opacity:1" d="M 114.879,338.116 123.75,349.943 z" id="boundary" inkscape:connector-curvature="0" />
	<path style="fill:none;stroke:red;stroke-width:1px;stroke-linecap:butt;stroke-linejoin:miter;stroke-opacity:1" d="M 123.75,349.943 138.534,355.857 z" id="boundary" inkscape:connector-curvature="0" />
	<path style="fill:none;stroke:red;stroke-width:1px;stroke-linecap:butt;stroke-linejoin:miter;stroke-opacity:1" d="M 138.534,355.857 148.882,367.684 z" id="boundary" inkscape:connector-curvature="0" />
	<path style="fill:none;stroke:red;stroke-width:1px;stroke-linecap:butt;stroke-linejoin:miter;stroke-opacity:1" d="M 148.882,367.684 162.188,375.076 z" id="boundary" inkscape:connector-curvature="0" />
	<path style="fill:none;stroke:red;stroke-width:1px;stroke-linecap:butt;stroke-linejoin:miter;stroke-opacity:1" d="M 162.188,375.076 174.015,383.946 z" id="boundary" inkscape:connector-curvature="0" />
	<path style="fill:none;stroke:red;stroke-width:1px;stroke-linecap:butt;stroke-linejoin:miter;stroke-opacity:1" d="M 188.799,389.86 174.015,383.946 z" id="boundary" inkscape:connector-curvature="0" />
	<path style="fill:none;stroke:red;stroke-width:1px;stroke-linecap:butt;stroke-linejoin:miter;stroke-opacity:1" d="M 227.237,414.993 237.586,426.82 z" id="boundary" inkscape:connector-curvature="0" />
	<path style="fill:none;stroke:red;stroke-width:1px;stroke-linecap:butt;stroke-linejoin:miter;stroke-opacity:1" d="M 227.237,414.993 215.41,404.644 z" id="boundary" inkscape:connector-curvature="0" />
	<path style="fill:none;stroke:red;stroke-width:1px;stroke-linecap:butt;stroke-linejoin:miter;stroke-opacity:1" d="M 249.413,437.168 237.586,426.82 z" id="boundary" inkscape:connector-curvature="0" />
	<path style="fill:none;stroke:red;stroke-width:1px;stroke-linecap:butt;stroke-linejoin:miter;stroke-opacity:1" d="M 188.799,389.86 202.104,397.252 z" id="boundary" inkscape:connector-curvature="0" />
	<path style="fill:none;stroke:red;stroke-width:1px;stroke-linecap:butt;stroke-linejoin:miter;stroke-opacity:1" d="M 249.413,437.168 259.762,448.996 z" id="boundary" inkscape:connector-curvature="0" />
	<path style="fill:none;stroke:red;stroke-width:1px;stroke-linecap:butt;stroke-linejoin:miter;stroke-opacity:1" d="M 273.067,456.387 259.762,448.996 z" id="boundary" inkscape:connector-curvature="0" />
	<path style="fill:none;stroke:red;stroke-width:1px;stroke-linecap:butt;stroke-linejoin:miter;stroke-opacity:1" d="M 286.373,463.779 273.067,456.387 z" id="boundary" inkscape:connector-curvature="0" />
	<path style="fill:none;stroke:red;stroke-width:1px;stroke-linecap:butt;stroke-linejoin:miter;stroke-opacity:1" d="M 314.462,471.171 299.678,471.171 z" id="boundary" inkscape:connector-curvature="0" />
	<path style="fill:none;stroke:red;stroke-width:1px;stroke-linecap:butt;stroke-linejoin:miter;stroke-opacity:1" d="M 299.678,471.171 286.373,463.779 z" id="boundary" inkscape:connector-curvature="0" />
	<path style="fill:none;stroke:red;stroke-width:1px;stroke-linecap:butt;stroke-linejoin:miter;stroke-opacity:1" d="M 314.462,471.171 327.768,478.563 z" id="boundary" inkscape:connector-curvature="0" />
	<path style="fill:none;stroke:red;stroke-width:1px;stroke-linecap:butt;stroke-linejoin:miter;stroke-opacity:1" d="M 342.551,478.563 327.768,478.563 z" id="boundary" inkscape:connector-curvature="0" />
	<path style="fill:none;stroke:red;stroke-width:1px;stroke-linecap:butt;stroke-linejoin:miter;stroke-opacity:1" d="M 370.641,485.955 355.857,485.955 z" id="boundary" inkscape:connector-curvature="0" />
	<path style="fill:none;stroke:red;stroke-width:1px;stroke-linecap:butt;stroke-linejoin:miter;stroke-opacity:1" d="M 355.857,485.955 342.551,478.563 z" id="boundary" inkscape:connector-curvature="0" />
	<path style="fill:none;stroke:red;stroke-width:1px;stroke-linecap:butt;stroke-linejoin:miter;stroke-opacity:1" d="M 370.641,485.955 383.946,493.347 z" id="boundary" inkscape:connector-curvature="0" />
	<path style="fill:none;stroke:red;stroke-width:1px;stroke-linecap:butt;stroke-linejoin:miter;stroke-opacity:1" d="M 398.73,497.782 383.946,493.347 z" id="boundary" inkscape:connector-curvature="0" />
	<path style="fill:none;stroke:red;stroke-width:1px;stroke-linecap:butt;stroke-linejoin:miter;stroke-opacity:1" d="M 413.514,500.739 428.298,500.739 z" id="boundary" inkscape:connector-curvature="0" />
	<path style="fill:none;stroke:red;stroke-width:1px;stroke-linecap:butt;stroke-linejoin:miter;stroke-opacity:1" d="M 428.298,500.739 440.125,509.61 z" id="boundary" inkscape:connector-curvature="0" />
	<path style="fill:none;stroke:red;stroke-width:1px;stroke-linecap:butt;stroke-linejoin:miter;stroke-opacity:1" d="M 413.514,500.739 398.73,497.782 z" id="boundary" inkscape:connector-curvature="0" />
	<path style="fill:none;stroke:red;stroke-width:1px;stroke-linecap:butt;stroke-linejoin:miter;stroke-opacity:1" d="M 440.125,509.61 454.909,515.523 z" id="boundary" inkscape:connector-curvature="0" />
	<path style="fill:none;stroke:red;stroke-width:1px;stroke-linecap:butt;stroke-linejoin:miter;stroke-opacity:1" d="M 469.693,515.523 454.909,515.523 z" id="boundary" inkscape:connector-curvature="0" />
	<path style="fill:none;stroke:red;stroke-width:1px;stroke-linecap:butt;stroke-linejoin:miter;stroke-opacity:1" d="M 499.261,515.523 484.477,515.523 z" id="boundary" inkscape:connector-curvature="0" />
	<path style="fill:none;stroke:red;stroke-width:1px;stroke-linecap:butt;stroke-linejoin:miter;stroke-opacity:1" d="M 514.045,515.523 499.261,515.523 z" id="boundary" inkscape:connector-curvature="0" />
	<path style="fill:none;stroke:red;stroke-width:1px;stroke-linecap:butt;stroke-linejoin:miter;stroke-opacity:1" d="M 484.477,515.523 469.693,515.523 z" id="boundary" inkscape:connector-curvature="0" />
	<path style="fill:none;stroke:red;stroke-width:1px;stroke-linecap:butt;stroke-linejoin:miter;stroke-opacity:1" d="M 499.261,4 514.045,4 z" id="boundary" inkscape:connector-curvature="0" />
	<path style="fill:none;stroke:red;stroke-width:1px;stroke-linecap:butt;stroke-linejoin:miter;stroke-opacity:1" d="M 528.829,4 543.613,4 z" id="boundary" inkscape:connector-curvature="0" />
	<path style="fill:none;stroke:red;stroke-width:1px;stroke-linecap:butt;stroke-linejoin:miter;stroke-opacity:1" d="M 586.486,12.8703 571.702,11.392 z" id="boundary" inkscape:connector-curvature="0" />
	<path style="fill:none;stroke:red;stroke-width:1px;stroke-linecap:butt;stroke-linejoin:miter;stroke-opacity:1" d="M 571.702,11.392 558.396,4 z" id="boundary" inkscape:connector-curvature="0" />
	<path style="fill:none;stroke:red;stroke-width:1px;stroke-linecap:butt;stroke-linejoin:miter;stroke-opacity:1" d="M 586.486,12.8703 599.791,20.2623 z" id="boundary" inkscape:connector-curvature="0" />
	<path style="fill:none;stroke:red;stroke-width:1px;stroke-linecap:butt;stroke-linejoin:miter;stroke-opacity:1" d="M 543.613,4 558.396,4 z" id="boundary" inkscape:connector-curvature="0" />
	<path style="fill:none;stroke:red;stroke-width:1px;stroke-linecap:butt;stroke-linejoin:miter;stroke-opacity:1" d="M 599.791,20.2623 614.575,26.1759 z" id="boundary" inkscape:connector-curvature="0" />
	<path style="fill:none;stroke:red;stroke-width:1px;stroke-linecap:butt;stroke-linejoin:miter;stroke-opacity:1" d="M 627.881,33.5678 641.186,40.9598 z" id="boundary" inkscape:connector-curvature="0" />
	<path style="fill:none;stroke:red;stroke-width:1px;stroke-linecap:butt;stroke-linejoin:miter;stroke-opacity:1" d="M 653.013,49.8301 641.186,40.9598 z" id="boundary" inkscape:connector-curvature="0" />
	<path style="fill:none;stroke:red;stroke-width:1px;stroke-linecap:butt;stroke-linejoin:miter;stroke-opacity:1" d="M 614.575,26.1759 627.881,33.5678 z" id="boundary" inkscape:connector-curvature="0" />
	<path style="fill:none;stroke:red;stroke-width:1px;stroke-linecap:butt;stroke-linejoin:miter;stroke-opacity:1" d="M 653.013,49.8301 658.927,64.614 z" id="boundary" inkscape:connector-curvature="0" />
	<path style="fill:none;stroke:red;stroke-width:1px;stroke-linecap:butt;stroke-linejoin:miter;stroke-opacity:1" d="M 658.927,64.614 670.754,74.9627 z" id="boundary" inkscape:connector-curvature="0" />
	<path style="fill:none;stroke:red;stroke-width:1px;stroke-linecap:butt;stroke-linejoin:miter;stroke-opacity:1" d="M 670.754,74.9627 676.668,89.7466 z" id="boundary" inkscape:connector-curvature="0" />
	<path style="fill:none;stroke:red;stroke-width:1px;stroke-linecap:butt;stroke-linejoin:miter;stroke-opacity:1" d="M 676.668,89.7466 688.495,100.095 z" id="boundary" inkscape:connector-curvature="0" />
	<path style="fill:none;stroke:red;stroke-width:1px;stroke-linecap:butt;stroke-linejoin:miter;stroke-opacity:1" d="M 688.495,100.095 698.844,111.923 z" id="boundary" inkscape:connector-curvature="0" />
	<path style="fill:none;stroke:red;stroke-width:1px;stroke-linecap:butt;stroke-linejoin:miter;stroke-opacity:1" d="M 710.671,122.271 698.844,111.923 z" id="boundary" inkscape:connector-curvature="0" />
	<path style="fill:none;stroke:red;stroke-width:1px;stroke-linecap:butt;stroke-linejoin:miter;stroke-opacity:1" d="M 721.019,134.098 710.671,122.271 z" id="boundary" inkscape:connector-curvature="0" />
	<path style="fill:none;stroke:red;stroke-width:1px;stroke-linecap:butt;stroke-linejoin:miter;stroke-opacity:1" d="M 732.846,144.447 721.019,134.098 z" id="boundary" inkscape:connector-curvature="0" />
	<path style="fill:none;stroke:red;stroke-width:1px;stroke-linecap:butt;stroke-linejoin:miter;stroke-opacity:1" d="M 749.109,168.101 737.282,159.231 z" id="boundary" inkscape:connector-curvature="0" />
	<path style="fill:none;stroke:red;stroke-width:1px;stroke-linecap:butt;stroke-linejoin:miter;stroke-opacity:1" d="M 737.282,159.231 732.846,144.447 z" id="boundary" inkscape:connector-curvature="0" />
	<path style="fill:none;stroke:red;stroke-width:1px;stroke-linecap:butt;stroke-linejoin:miter;stroke-opacity:1" d="M 749.109,168.101 759.458,179.928 z" id="boundary" inkscape:connector-curvature="0" />
	<path style="fill:none;stroke:red;stroke-width:1px;stroke-linecap:butt;stroke-linejoin:miter;stroke-opacity:1" d="M 923.559,166.623 910.253,174.015 z" id="boundary" inkscape:connector-curvature="0" />
	<path style="fill:none;stroke:red;stroke-width:1px;stroke-linecap:butt;stroke-linejoin:miter;stroke-opacity:1" d="M 867.38,181.407 882.164,181.407 z" id="boundary" inkscape:connector-curvature="0" />
	<path style="fill:none;stroke:red;stroke-width:1px;stroke-linecap:butt;stroke-linejoin:miter;stroke-opacity:1" d="M 854.075,188.799 867.38,181.407 z" id="boundary" inkscape:connector-curvature="0" />
	<path style="fill:none;stroke:red;stroke-width:1px;stroke-linecap:butt;stroke-linejoin:miter;stroke-opacity:1" d="M 896.948,181.407 882.164,181.407 z" id="boundary" inkscape:connector-curvature="0" />
	<path style="fill:none;stroke:red;stroke-width:1px;stroke-linecap:butt;stroke-linejoin:miter;stroke-opacity:1" d="M 910.253,174.015 896.948,181.407 z" id="boundary" inkscape:connector-curvature="0" />
	<path style="fill:none;stroke:red;stroke-width:1px;stroke-linecap:butt;stroke-linejoin:miter;stroke-opacity:1" d="M 839.291,193.234 824.507,196.191 z" id="boundary" inkscape:connector-curvature="0" />
	<path style="fill:none;stroke:red;stroke-width:1px;stroke-linecap:butt;stroke-linejoin:miter;stroke-opacity:1" d="M 938.343,166.623 923.559,166.623 z" id="boundary" inkscape:connector-curvature="0" />
	<path style="fill:none;stroke:red;stroke-width:1px;stroke-linecap:butt;stroke-linejoin:miter;stroke-opacity:1" d="M 953.127,166.623 967.911,166.623 z" id="boundary" inkscape:connector-curvature="0" />
	<path style="fill:none;stroke:red;stroke-width:1px;stroke-linecap:butt;stroke-linejoin:miter;stroke-opacity:1" d="M 967.911,166.623 973.824,181.407 z" id="boundary" inkscape:connector-curvature="0" />
	<path style="fill:none;stroke:red;stroke-width:1px;stroke-linecap:butt;stroke-linejoin:miter;stroke-opacity:1" d="M 981.216,194.712 973.824,181.407 z" id="boundary" inkscape:connector-curvature="0" />
	<path style="fill:none;stroke:red;stroke-width:1px;stroke-linecap:butt;stroke-linejoin:miter;stroke-opacity:1" d="M 938.343,166.623 953.127,166.623 z" id="boundary" inkscape:connector-curvature="0" />
	<path style="fill:none;stroke:red;stroke-width:1px;stroke-linecap:butt;stroke-linejoin:miter;stroke-opacity:1" d="M 771.285,190.277 759.458,179.928 z" id="boundary" inkscape:connector-curvature="0" />
	<path style="fill:none;stroke:red;stroke-width:1px;stroke-linecap:butt;stroke-linejoin:miter;stroke-opacity:1" d="M 796.417,203.583 781.633,202.104 z" id="boundary" inkscape:connector-curvature="0" />
	<path style="fill:none;stroke:red;stroke-width:1px;stroke-linecap:butt;stroke-linejoin:miter;stroke-opacity:1" d="M 781.633,202.104 771.285,190.277 z" id="boundary" inkscape:connector-curvature="0" />
	<path style="fill:none;stroke:red;stroke-width:1px;stroke-linecap:butt;stroke-linejoin:miter;stroke-opacity:1" d="M 824.507,196.191 811.201,203.583 z" id="boundary" inkscape:connector-curvature="0" />
	<path style="fill:none;stroke:red;stroke-width:1px;stroke-linecap:butt;stroke-linejoin:miter;stroke-opacity:1" d="M 811.201,203.583 796.417,203.583 z" id="boundary" inkscape:connector-curvature="0" />
	<path style="fill:none;stroke:red;stroke-width:1px;stroke-linecap:butt;stroke-linejoin:miter;stroke-opacity:1" d="M 839.291,193.234 854.075,188.799 z" id="boundary" inkscape:connector-curvature="0" />
	<path style="fill:none;stroke:red;stroke-width:1px;stroke-linecap:butt;stroke-linejoin:miter;stroke-opacity:1" d="M 988.608,208.018 981.216,194.712 z" id="boundary" inkscape:connector-curvature="0" />
	<path style="fill:none;stroke:red;stroke-width:1px;stroke-linecap:butt;stroke-linejoin:miter;stroke-opacity:1" d="M 994.522,222.802 996,237.586 z" id="boundary" inkscape:connector-curvature="0" />
	<path style="fill:none;stroke:red;stroke-width:1px;stroke-linecap:butt;stroke-linejoin:miter;stroke-opacity:1" d="M 988.608,208.018 994.522,222.802 z" id="boundary" inkscape:connector-curvature="0" />
	<path style="fill:none;stroke:red;stroke-width:1px;stroke-linecap:butt;stroke-linejoin:miter;stroke-opacity:1" d="M 688.495,395.773 703.279,388.382 z" id="boundary" inkscape:connector-curvature="0" />
	<path style="fill:none;stroke:red;stroke-width:1px;stroke-linecap:butt;stroke-linejoin:miter;stroke-opacity:1" d="M 676.668,404.644 688.495,395.773 z" id="boundary" inkscape:connector-curvature="0" />
	<path style="fill:none;stroke:red;stroke-width:1px;stroke-linecap:butt;stroke-linejoin:miter;stroke-opacity:1" d="M 715.106,375.076 703.279,388.382 z" id="boundary" inkscape:connector-curvature="0" />
	<path style="fill:none;stroke:red;stroke-width:1px;stroke-linecap:butt;stroke-linejoin:miter;stroke-opacity:1" d="M 653.013,423.863 663.362,412.036 z" id="boundary" inkscape:connector-curvature="0" />
	<path style="fill:none;stroke:red;stroke-width:1px;stroke-linecap:butt;stroke-linejoin:miter;stroke-opacity:1" d="M 663.362,412.036 676.668,404.644 z" id="boundary" inkscape:connector-curvature="0" />
	<path style="fill:none;stroke:red;stroke-width:1px;stroke-linecap:butt;stroke-linejoin:miter;stroke-opacity:1" d="M 653.013,423.863 641.186,434.212 z" id="boundary" inkscape:connector-curvature="0" />
	<path style="fill:none;stroke:red;stroke-width:1px;stroke-linecap:butt;stroke-linejoin:miter;stroke-opacity:1" d="M 749.109,342.551 759.458,323.332 z" id="boundary" inkscape:connector-curvature="0" />
	<path style="fill:none;stroke:red;stroke-width:1px;stroke-linecap:butt;stroke-linejoin:miter;stroke-opacity:1" d="M 759.458,323.332 774.241,315.94 z" id="boundary" inkscape:connector-curvature="0" />
	<path style="fill:none;stroke:red;stroke-width:1px;stroke-linecap:butt;stroke-linejoin:miter;stroke-opacity:1" d="M 749.109,342.551 737.282,352.9 z" id="boundary" inkscape:connector-curvature="0" />
	<path style="fill:none;stroke:red;stroke-width:1px;stroke-linecap:butt;stroke-linejoin:miter;stroke-opacity:1" d="M 737.282,352.9 726.933,364.727 z" id="boundary" inkscape:connector-curvature="0" />
	<path style="fill:none;stroke:red;stroke-width:1px;stroke-linecap:butt;stroke-linejoin:miter;stroke-opacity:1" d="M 726.933,364.727 715.106,375.076 z" id="boundary" inkscape:connector-curvature="0" />
	<path style="fill:none;stroke:red;stroke-width:1px;stroke-linecap:butt;stroke-linejoin:miter;stroke-opacity:1" d="M 573.18,500.739 585.007,491.869 z" id="boundary" inkscape:connector-curvature="0" />
	<path style="fill:none;stroke:red;stroke-width:1px;stroke-linecap:butt;stroke-linejoin:miter;stroke-opacity:1" d="M 573.18,500.739 558.396,503.696 z" id="boundary" inkscape:connector-curvature="0" />
	<path style="fill:none;stroke:red;stroke-width:1px;stroke-linecap:butt;stroke-linejoin:miter;stroke-opacity:1" d="M 543.613,511.088 528.829,515.523 z" id="boundary" inkscape:connector-curvature="0" />
	<path style="fill:none;stroke:red;stroke-width:1px;stroke-linecap:butt;stroke-linejoin:miter;stroke-opacity:1" d="M 528.829,515.523 514.045,515.523 z" id="boundary" inkscape:connector-curvature="0" />
	<path style="fill:none;stroke:red;stroke-width:1px;stroke-linecap:butt;stroke-linejoin:miter;stroke-opacity:1" d="M 596.835,478.563 585.007,491.869 z" id="boundary" inkscape:connector-curvature="0" />
	<path style="fill:none;stroke:red;stroke-width:1px;stroke-linecap:butt;stroke-linejoin:miter;stroke-opacity:1" d="M 543.613,511.088 558.396,503.696 z" id="boundary" inkscape:connector-curvature="0" />
	<path style="fill:none;stroke:red;stroke-width:1px;stroke-linecap:butt;stroke-linejoin:miter;stroke-opacity:1" d="M 630.838,446.039 641.186,434.212 z" id="boundary" inkscape:connector-curvature="0" />
	<path style="fill:none;stroke:red;stroke-width:1px;stroke-linecap:butt;stroke-linejoin:miter;stroke-opacity:1" d="M 630.838,446.039 619.01,456.387 z" id="boundary" inkscape:connector-curvature="0" />
	<path style="fill:none;stroke:red;stroke-width:1px;stroke-linecap:butt;stroke-linejoin:miter;stroke-opacity:1" d="M 619.01,456.387 608.662,468.215 z" id="boundary" inkscape:connector-curvature="0" />
	<path style="fill:none;stroke:red;stroke-width:1px;stroke-linecap:butt;stroke-linejoin:miter;stroke-opacity:1" d="M 608.662,468.215 596.835,478.563 z" id="boundary" inkscape:connector-curvature="0" />
	<path style="fill:none;stroke:red;stroke-width:1px;stroke-linecap:butt;stroke-linejoin:miter;stroke-opacity:1" d="M 789.025,315.94 774.241,315.94 z" id="boundary" inkscape:connector-curvature="0" />
	<path style="fill:none;stroke:red;stroke-width:1px;stroke-linecap:butt;stroke-linejoin:miter;stroke-opacity:1" d="M 831.899,323.332 817.115,323.332 z" id="boundary" inkscape:connector-curvature="0" />
	<path style="fill:none;stroke:red;stroke-width:1px;stroke-linecap:butt;stroke-linejoin:miter;stroke-opacity:1" d="M 817.115,323.332 803.809,315.94 z" id="boundary" inkscape:connector-curvature="0" />
	<path style="fill:none;stroke:red;stroke-width:1px;stroke-linecap:butt;stroke-linejoin:miter;stroke-opacity:1" d="M 831.899,323.332 845.204,330.724 z" id="boundary" inkscape:connector-curvature="0" />
	<path style="fill:none;stroke:red;stroke-width:1px;stroke-linecap:butt;stroke-linejoin:miter;stroke-opacity:1" d="M 789.025,315.94 803.809,315.94 z" id="boundary" inkscape:connector-curvature="0" />
	<path style="fill:none;stroke:red;stroke-width:1px;stroke-linecap:butt;stroke-linejoin:miter;stroke-opacity:1" d="M 996,252.37 996,267.154 z" id="boundary" inkscape:connector-curvature="0" />
	<path style="fill:none;stroke:red;stroke-width:1px;stroke-linecap:butt;stroke-linejoin:miter;stroke-opacity:1" d="M 996,267.154 988.608,293.765 z" id="boundary" inkscape:connector-curvature="0" />
	<path style="fill:none;stroke:red;stroke-width:1px;stroke-linecap:butt;stroke-linejoin:miter;stroke-opacity:1" d="M 981.216,308.548 988.608,293.765 z" id="boundary" inkscape:connector-curvature="0" />
	<path style="fill:none;stroke:red;stroke-width:1px;stroke-linecap:butt;stroke-linejoin:miter;stroke-opacity:1" d="M 973.824,330.724 981.216,308.548 z" id="boundary" inkscape:connector-curvature="0" />
	<path style="fill:none;stroke:red;stroke-width:1px;stroke-linecap:butt;stroke-linejoin:miter;stroke-opacity:1" d="M 874.772,330.724 859.988,330.724 z" id="boundary" inkscape:connector-curvature="0" />
	<path style="fill:none;stroke:red;stroke-width:1px;stroke-linecap:butt;stroke-linejoin:miter;stroke-opacity:1" d="M 996,237.586 996,252.37 z" id="boundary" inkscape:connector-curvature="0" />
	<path style="fill:none;stroke:red;stroke-width:1px;stroke-linecap:butt;stroke-linejoin:miter;stroke-opacity:1" d="M 845.204,330.724 859.988,330.724 z" id="boundary" inkscape:connector-curvature="0" />
	<path style="fill:none;stroke:red;stroke-width:1px;stroke-linecap:butt;stroke-linejoin:miter;stroke-opacity:1" d="M 917.645,345.508 902.861,344.03 z" id="boundary" inkscape:connector-curvature="0" />
	<path style="fill:none;stroke:red;stroke-width:1px;stroke-linecap:butt;stroke-linejoin:miter;stroke-opacity:1" d="M 902.861,344.03 888.077,338.116 z" id="boundary" inkscape:connector-curvature="0" />
	<path style="fill:none;stroke:red;stroke-width:1px;stroke-linecap:butt;stroke-linejoin:miter;stroke-opacity:1" d="M 888.077,338.116 874.772,330.724 z" id="boundary" inkscape:connector-curvature="0" />
	<path style="fill:none;stroke:red;stroke-width:1px;stroke-linecap:butt;stroke-linejoin:miter;stroke-opacity:1" d="M 932.429,345.508 917.645,345.508 z" id="boundary" inkscape:connector-curvature="0" />
	<path style="fill:none;stroke:red;stroke-width:1px;stroke-linecap:butt;stroke-linejoin:miter;stroke-opacity:1" d="M 959.04,345.508 945.735,352.9 z" id="boundary" inkscape:connector-curvature="0" />
	<path style="fill:none;stroke:red;stroke-width:1px;stroke-linecap:butt;stroke-linejoin:miter;stroke-opacity:1" d="M 945.735,352.9 932.429,345.508 z" id="boundary" inkscape:connector-curvature="0" />
	<path style="fill:none;stroke:red;stroke-width:1px;stroke-linecap:butt;stroke-linejoin:miter;stroke-opacity:1" d="M 973.824,330.724 959.04,345.508 z" id="boundary" inkscape:connector-curvature="0" />
	<path style="fill:none;stroke:red;stroke-width:1px;stroke-linecap:butt;stroke-linejoin:miter;stroke-opacity:1" d="M 514.045,4 528.829,4 z" id="boundary" inkscape:connector-curvature="0" />
	<circle cx="4" cy="222.802" r="4" fill="#0" id="circle0"/>
	<circle cx="4" cy="237.586" r="4" fill="#0" id="circle1"/>
	<circle cx="11.392" cy="208.018" r="4" fill="#0" id="circle2"/>
	<circle cx="11.392" cy="250.891" r="4" fill="#0" id="circle3"/>
	<circle cx="21.7407" cy="262.718" r="4" fill="#0" id="circle4"/>
	<circle cx="23.2191" cy="196.191" r="4" fill="#0" id="circle5"/>
	<circle cx="33.5678" cy="271.589" r="4" fill="#0" id="circle6"/>
	<circle cx="38.003" cy="188.799" r="4" fill="#0" id="circle7"/>
	<circle cx="42.4382" cy="283.416" r="4" fill="#0" id="circle8"/>
	<circle cx="52.7869" cy="181.407" r="4" fill="#0" id="circle9"/>
	<circle cx="54.2653" cy="293.765" r="4" fill="#0" id="circle10"/>
	<circle cx="63.1356" cy="163.666" r="4" fill="#0" id="circle11"/>
	<circle cx="67.5708" cy="301.156" r="4" fill="#0" id="circle12"/>
	<circle cx="70.5276" cy="148.882" r="4" fill="#0" id="circle13"/>
	<circle cx="80.8763" cy="308.548" r="4" fill="#0" id="circle14"/>
	<circle cx="82.3547" cy="137.055" r="4" fill="#0" id="circle15"/>
	<circle cx="92.7034" cy="317.419" r="4" fill="#0" id="circle16"/>
	<circle cx="94.1818" cy="125.228" r="4" fill="#0" id="circle17"/>
	<circle cx="103.052" cy="329.246" r="4" fill="#0" id="circle18"/>
	<circle cx="106.009" cy="114.879" r="4" fill="#0" id="circle19"/>
	<circle cx="114.879" cy="338.116" r="4" fill="#0" id="circle20"/>
	<circle cx="119.314" cy="107.487" r="4" fill="#0" id="circle21"/>
	<circle cx="123.75" cy="349.943" r="4" fill="#0" id="circle22"/>
	<circle cx="131.142" cy="95.6602" r="4" fill="#0" id="circle23"/>
	<circle cx="138.534" cy="355.857" r="4" fill="#0" id="circle24"/>
	<circle cx="142.969" cy="85.3115" r="4" fill="#0" id="circle25"/>
	<circle cx="148.882" cy="367.684" r="4" fill="#0" id="circle26"/>
	<circle cx="156.274" cy="77.9195" r="4" fill="#0" id="circle27"/>
	<circle cx="162.188" cy="375.076" r="4" fill="#0" id="circle28"/>
	<circle cx="171.058" cy="77.9195" r="4" fill="#0" id="circle29"/>
	<circle cx="174.015" cy="383.946" r="4" fill="#0" id="circle30"/>
	<circle cx="184.364" cy="70.5276" r="4" fill="#0" id="circle31"/>
	<circle cx="188.799" cy="389.86" r="4" fill="#0" id="circle32"/>
	<circle cx="199.148" cy="64.614" r="4" fill="#0" id="circle33"/>
	<circle cx="202.104" cy="397.252" r="4" fill="#0" id="circle34"/>
	<circle cx="210.975" cy="55.7437" r="4" fill="#0" id="circle35"/>
	<circle cx="215.41" cy="404.644" r="4" fill="#0" id="circle36"/>
	<circle cx="224.28" cy="48.3517" r="4" fill="#0" id="circle37"/>
	<circle cx="227.237" cy="414.993" r="4" fill="#0" id="circle38"/>
	<circle cx="237.586" cy="426.82" r="4" fill="#0" id="circle39"/>
	<circle cx="239.064" cy="48.3517" r="4" fill="#0" id="circle40"/>
	<circle cx="249.413" cy="437.168" r="4" fill="#0" id="circle41"/>
	<circle cx="253.848" cy="48.3517" r="4" fill="#0" id="circle42"/>
	<circle cx="259.762" cy="448.996" r="4" fill="#0" id="circle43"/>
	<circle cx="267.154" cy="40.9598" r="4" fill="#0" id="circle44"/>
	<circle cx="273.067" cy="456.387" r="4" fill="#0" id="circle45"/>
	<circle cx="280.459" cy="33.5678" r="4" fill="#0" id="circle46"/>
	<circle cx="286.373" cy="463.779" r="4" fill="#0" id="circle47"/>
	<circle cx="295.243" cy="27.6542" r="4" fill="#0" id="circle48"/>
	<circle cx="299.678" cy="471.171" r="4" fill="#0" id="circle49"/>
	<circle cx="310.027" cy="26.1759" r="4" fill="#0" id="circle50"/>
	<circle cx="314.462" cy="471.171" r="4" fill="#0" id="circle51"/>
	<circle cx="323.332" cy="18.7839" r="4" fill="#0" id="circle52"/>
	<circle cx="327.768" cy="478.563" r="4" fill="#0" id="circle53"/>
	<circle cx="338.116" cy="18.7839" r="4" fill="#0" id="circle54"/>
	<circle cx="342.551" cy="478.563" r="4" fill="#0" id="circle55"/>
	<circle cx="352.9" cy="14.3487" r="4" fill="#0" id="circle56"/>
	<circle cx="355.857" cy="485.955" r="4" fill="#0" id="circle57"/>
	<circle cx="367.684" cy="11.392" r="4" fill="#0" id="circle58"/>
	<circle cx="370.641" cy="485.955" r="4" fill="#0" id="circle59"/>
	<circle cx="382.468" cy="11.392" r="4" fill="#0" id="circle60"/>
	<circle cx="383.946" cy="493.347" r="4" fill="#0" id="circle61"/>
	<circle cx="397.252" cy="11.392" r="4" fill="#0" id="circle62"/>
	<circle cx="398.73" cy="497.782" r="4" fill="#0" id="circle63"/>
	<circle cx="412.036" cy="11.392" r="4" fill="#0" id="circle64"/>
	<circle cx="413.514" cy="500.739" r="4" fill="#0" id="circle65"/>
	<circle cx="425.341" cy="4" r="4" fill="#0" id="circle66"/>
	<circle cx="428.298" cy="500.739" r="4" fill="#0" id="circle67"/>
	<circle cx="440.125" cy="4" r="4" fill="#0" id="circle68"/>
	<circle cx="440.125" cy="509.61" r="4" fill="#0" id="circle69"/>
	<circle cx="454.909" cy="4" r="4" fill="#0" id="circle70"/>
	<circle cx="454.909" cy="515.523" r="4" fill="#0" id="circle71"/>
	<circle cx="469.693" cy="4" r="4" fill="#0" id="circle72"/>
	<circle cx="469.693" cy="515.523" r="4" fill="#0" id="circle73"/>
	<circle cx="484.477" cy="4" r="4" fill="#0" id="circle74"/>
	<circle cx="484.477" cy="515.523" r="4" fill="#0" id="circle75"/>
	<circle cx="499.261" cy="4" r="4" fill="#0" id="circle76"/>
	<circle cx="499.261" cy="515.523" r="4" fill="#0" id="circle77"/>
	<circle cx="514.045" cy="4" r="4" fill="#0" id="circle78"/>
	<circle cx="514.045" cy="515.523" r="4" fill="#0" id="circle79"/>
	<circle cx="528.829" cy="4" r="4" fill="#0" id="circle80"/>
	<circle cx="528.829" cy="515.523" r="4" fill="#0" id="circle81"/>
	<circle cx="543.613" cy="4" r="4" fill="#0" id="circle82"/>
	<circle cx="543.613" cy="511.088" r="4" fill="#0" id="circle83"/>
	<circle cx="558.396" cy="4" r="4" fill="#0" id="circle84"/>
	<circle cx="558.396" cy="503.696" r="4" fill="#0" id="circle85"/>
	<circle cx="571.702" cy="11.392" r="4" fill="#0" id="circle86"/>
	<circle cx="573.18" cy="500.739" r="4" fill="#0" id="circle87"/>
	<circle cx="585.007" cy="491.869" r="4" fill="#0" id="circle88"/>
	<circle cx="586.486" cy="12.8703" r="4" fill="#0" id="circle89"/>
	<circle cx="596.835" cy="478.563" r="4" fill="#0" id="circle90"/>
	<circle cx="599.791" cy="20.2623" r="4" fill="#0" id="circle91"/>
	<circle cx="608.662" cy="468.215" r="4" fill="#0" id="circle92"/>
	<circle cx="614.575" cy="26.1759" r="4" fill="#0" id="circle93"/>
	<circle cx="619.01" cy="456.387" r="4" fill="#0" id="circle94"/>
	<circle cx="627.881" cy="33.5678" r="4" fill="#0" id="circle95"/>
	<circle cx="630.838" cy="446.039" r="4" fill="#0" id="circle96"/>
	<circle cx="641.186" cy="40.9598" r="4" fill="#0" id="circle97"/>
	<circle cx="641.186" cy="434.212" r="4" fill="#0" id="circle98"/>
	<circle cx="653.013" cy="49.8301" r="4" fill="#0" id="circle99"/>
	<circle cx="653.013" cy="423.863" r="4" fill="#0" id="circle100"/>
	<circle cx="658.927" cy="64.614" r="4" fill="#0" id="circle101"/>
	<circle cx="663.362" cy="412.036" r="4" fill="#0" id="circle102"/>
	<circle cx="670.754" cy="74.9627" r="4" fill="#0" id="circle103"/>
	<circle cx="676.668" cy="89.7466" r="4" fill="#0" id="circle104"/>
	<circle cx="676.668" cy="404.644" r="4" fill="#0" id="circle105"/>
	<circle cx="688.495" cy="100.095" r="4" fill="#0" id="circle106"/>
	<circle cx="688.495" cy="395.773" r="4" fill="#0" id="circle107"/>
	<circle cx="698.844" cy="111.923" r="4" fill="#0" id="circle108"/>
	<circle cx="703.279" cy="388.382" r="4" fill="#0" id="circle109"/>
	<circle cx="710.671" cy="122.271" r="4" fill="#0" id="circle110"/>
	<circle cx="715.106" cy="375.076" r="4" fill="#0" id="circle111"/>
	<circle cx="721.019" cy="134.098" r="4" fill="#0" id="circle112"/>
	<circle cx="726.933" cy="364.727" r="4" fill="#0" id="circle113"/>
	<circle cx="732.846" cy="144.447" r="4" fill="#0" id="circle114"/>
	<circle cx="737.282" cy="159.231" r="4" fill="#0" id="circle115"/>
	<circle cx="737.282" cy="352.9" r="4" fill="#0" id="circle116"/>
	<circle cx="749.109" cy="168.101" r="4" fill="#0" id="circle117"/>
	<circle cx="749.109" cy="342.551" r="4" fill="#0" id="circle118"/>
	<circle cx="759.458" cy="179.928" r="4" fill="#0" id="circle119"/>
	<circle cx="759.458" cy="323.332" r="4" fill="#0" id="circle120"/>
	<circle cx="771.285" cy="190.277" r="4" fill="#0" id="circle121"/>
	<circle cx="774.241" cy="315.94" r="4" fill="#0" id="circle122"/>
	<circle cx="781.633" cy="202.104" r="4" fill="#0" id="circle123"/>
	<circle cx="789.025" cy="315.94" r="4" fill="#0" id="circle124"/>
	<circle cx="796.417" cy="203.583" r="4" fill="#0" id="circle125"/>
	<circle cx="803.809" cy="315.94" r="4" fill="#0" id="circle126"/>
	<circle cx="811.201" cy="203.583" r="4" fill="#0" id="circle127"/>
	<circle cx="817.115" cy="323.332" r="4" fill="#0" id="circle128"/>
	<circle cx="824.507" cy="196.191" r="4" fill="#0" id="circle129"/>
	<circle cx="831.899" cy="323.332" r="4" fill="#0" id="circle130"/>
	<circle cx="839.291" cy="193.234" r="4" fill="#0" id="circle131"/>
	<circle cx="845.204" cy="330.724" r="4" fill="#0" id="circle132"/>
	<circle cx="854.075" cy="188.799" r="4" fill="#0" id="circle133"/>
	<circle cx="859.988" cy="330.724" r="4" fill="#0" id="circle134"/>
	<circle cx="867.38" cy="181.407" r="4" fill="#0" id="circle135"/>
	<circle cx="874.772" cy="330.724" r="4" fill="#0" id="circle136"/>
	<circle cx="882.164" cy="181.407" r="4" fill="#0" id="circle137"/>
	<circle cx="888.077" cy="338.116" r="4" fill="#0" id="circle138"/>
	<circle cx="896.948" cy="181.407" r="4" fill="#0" id="circle139"/>
	<circle cx="902.861" cy="344.03" r="4" fill="#0" id="circle140"/>
	<circle cx="910.253" cy="174.015" r="4" fill="#0" id="circle141"/>
	<circle cx="917.645" cy="345.508" r="4" fill="#0" id="circle142"/>
	<circle cx="923.559" cy="166.623" r="4" fill="#0" id="circle143"/>
	<circle cx="932.429" cy="345.508" r="4" fill="#0" id="circle144"/>
	<circle cx="938.343" cy="166.623" r="4" fill="#0" id="circle145"/>
	<circle cx="945.735" cy="352.9" r="4" fill="#0" id="circle146"/>
	<circle cx="953.127" cy="166.623" r="4" fill="#0" id="circle147"/>
	<circle cx="959.04" cy="345.508" r="4" fill="#0" id="circle148"/>
	<circle cx="967.911" cy="166.623" r="4" fill="#0" id="circle149"/>
	<circle cx="973.824" cy="181.407" r="4" fill="#0" id="circle150"/>
	<circle cx="973.824" cy="330.724" r="4" fill="#0" id="circle151"/>
	<circle cx="981.216" cy="194.712" r="4" fill="#0" id="circle152"/>
	<circle cx="981.216" cy="308.548" r="4" fill="#0" id="circle153"/>
	<circle cx="988.608" cy="208.018" r="4" fill="#0" id="circle154"/>
	<circle cx="988.608" cy="293.765" r="4" fill="#0" id="circle155"/>
	<circle cx="994.522" cy="222.802" r="4" fill="#0" id="circle156"/>
	<circle cx="996" cy="237.586" r="4" fill="#0" id="circle157"/>
	<circle cx="996" cy="252.37" r="4" fill="#0" id="circle158"/>
	<circle cx="996" cy="267.154" r="4" fill="#0" id="circle159"/>
	</g>
</svg>