<?xml version="1.0" encoding="UTF-8" standalone="no"?>
<!-- Created with CurveBenchmark -->
<svg
	xmlns:dc="http://purl.org/dc/elements/1.1/"
	xmlns:cc="http://creativecommons.org/ns#"
	xmlns:rdf="http://www.w3.org/1999/02/22-rdf-syntax-ns#"
	xmlns:svg="http://www.w3.org/2000/svg"
	xmlns="http://www.w3.org/2000/svg"
	xmlns:sodipodi="http://sodipodi.sourceforge.net/DTD/sodipodi-0.dtd"
	xmlns:inkscape="http://www.inkscape.org/namespaces/inkscape"
	width="1000"
	height="1000"
	id="svg2"
	version="1.1"
	sodipodi:docname="manifold/gathan1-bird32.png.txt">
<defs
	id="defs4" />
<metadata
	id="metadata7">
	<rdf:RDF>
		<cc:Work
			rdf:about="">
			<dc:format>image/svg+xml</dc:format>
			<dc:type
				rdf:resource="http://purl.org/dc/dcmitype/StillImage" />
			<dc:title></dc:title>
		</cc:Work>
	</rdf:RDF>
</metadata>
<g
	inkscape:label="Layer 1"
	inkscape:groupmode="layer"
	id="layer1">
	<path style="fill:none;stroke:red;stroke-width:1px;stroke-linecap:butt;stroke-linejoin:miter;stroke-opacity:1" d="M 53.1089,66.2046 36.7393,74.3894 z" id="boundary" inkscape:connector-curvature="0" />
	<path style="fill:none;stroke:red;stroke-width:1px;stroke-linecap:butt;stroke-linejoin:miter;stroke-opacity:1" d="M 36.7393,74.3894 20.3696,77.6634 z" id="boundary" inkscape:connector-curvature="0" />
	<path style="fill:none;stroke:red;stroke-width:1px;stroke-linecap:butt;stroke-linejoin:miter;stroke-opacity:1" d="M 4,82.5743 13.8218,95.67 z" id="boundary" inkscape:connector-curvature="0" />
	<path style="fill:none;stroke:red;stroke-width:1px;stroke-linecap:butt;stroke-linejoin:miter;stroke-opacity:1" d="M 4,82.5743 20.3696,77.6634 z" id="boundary" inkscape:connector-curvature="0" />
	<path style="fill:none;stroke:red;stroke-width:1px;stroke-linecap:butt;stroke-linejoin:miter;stroke-opacity:1" d="M 30.1914,98.9439 41.6502,112.04 z" id="boundary" inkscape:connector-curvature="0" />
	<path style="fill:none;stroke:red;stroke-width:1px;stroke-linecap:butt;stroke-linejoin:miter;stroke-opacity:1" d="M 13.8218,95.67 30.1914,98.9439 z" id="boundary" inkscape:connector-curvature="0" />
	<path style="fill:none;stroke:red;stroke-width:1px;stroke-linecap:butt;stroke-linejoin:miter;stroke-opacity:1" d="M 58.0198,118.587 41.6502,112.04 z" id="boundary" inkscape:connector-curvature="0" />
	<path style="fill:none;stroke:red;stroke-width:1px;stroke-linecap:butt;stroke-linejoin:miter;stroke-opacity:1" d="M 74.3894,120.224 58.0198,118.587 z" id="boundary" inkscape:connector-curvature="0" />
	<path style="fill:none;stroke:red;stroke-width:1px;stroke-linecap:butt;stroke-linejoin:miter;stroke-opacity:1" d="M 53.1089,66.2046 69.4785,61.2937 z" id="boundary" inkscape:connector-curvature="0" />
	<path style="fill:none;stroke:red;stroke-width:1px;stroke-linecap:butt;stroke-linejoin:miter;stroke-opacity:1" d="M 84.2112,53.1089 100.581,53.1089 z" id="boundary" inkscape:connector-curvature="0" />
	<path style="fill:none;stroke:red;stroke-width:1px;stroke-linecap:butt;stroke-linejoin:miter;stroke-opacity:1" d="M 69.4785,61.2937 84.2112,53.1089 z" id="boundary" inkscape:connector-curvature="0" />
	<path style="fill:none;stroke:red;stroke-width:1px;stroke-linecap:butt;stroke-linejoin:miter;stroke-opacity:1" d="M 112.04,40.0132 100.581,53.1089 z" id="boundary" inkscape:connector-curvature="0" />
	<path style="fill:none;stroke:red;stroke-width:1px;stroke-linecap:butt;stroke-linejoin:miter;stroke-opacity:1" d="M 74.3894,120.224 82.5743,134.957 z" id="boundary" inkscape:connector-curvature="0" />
	<path style="fill:none;stroke:red;stroke-width:1px;stroke-linecap:butt;stroke-linejoin:miter;stroke-opacity:1" d="M 94.033,148.053 102.218,162.785 z" id="boundary" inkscape:connector-curvature="0" />
	<path style="fill:none;stroke:red;stroke-width:1px;stroke-linecap:butt;stroke-linejoin:miter;stroke-opacity:1" d="M 82.5743,134.957 94.033,148.053 z" id="boundary" inkscape:connector-curvature="0" />
	<path style="fill:none;stroke:red;stroke-width:1px;stroke-linecap:butt;stroke-linejoin:miter;stroke-opacity:1" d="M 110.403,177.518 102.218,162.785 z" id="boundary" inkscape:connector-curvature="0" />
	<path style="fill:none;stroke:red;stroke-width:1px;stroke-linecap:butt;stroke-linejoin:miter;stroke-opacity:1" d="M 85.8482,401.782 85.8482,385.413 z" id="boundary" inkscape:connector-curvature="0" />
	<path style="fill:none;stroke:red;stroke-width:1px;stroke-linecap:butt;stroke-linejoin:miter;stroke-opacity:1" d="M 94.033,416.515 85.8482,401.782 z" id="boundary" inkscape:connector-curvature="0" />
	<path style="fill:none;stroke:red;stroke-width:1px;stroke-linecap:butt;stroke-linejoin:miter;stroke-opacity:1" d="M 94.033,360.858 85.8482,385.413 z" id="boundary" inkscape:connector-curvature="0" />
	<path style="fill:none;stroke:red;stroke-width:1px;stroke-linecap:butt;stroke-linejoin:miter;stroke-opacity:1" d="M 94.033,416.515 85.8482,434.521 z" id="boundary" inkscape:connector-curvature="0" />
	<path style="fill:none;stroke:red;stroke-width:1px;stroke-linecap:butt;stroke-linejoin:miter;stroke-opacity:1" d="M 77.6634,459.076 85.8482,434.521 z" id="boundary" inkscape:connector-curvature="0" />
	<path style="fill:none;stroke:red;stroke-width:1px;stroke-linecap:butt;stroke-linejoin:miter;stroke-opacity:1" d="M 85.8482,473.809 77.6634,459.076 z" id="boundary" inkscape:connector-curvature="0" />
	<path style="fill:none;stroke:red;stroke-width:1px;stroke-linecap:butt;stroke-linejoin:miter;stroke-opacity:1" d="M 85.8482,473.809 85.8482,490.178 z" id="boundary" inkscape:connector-curvature="0" />
	<path style="fill:none;stroke:red;stroke-width:1px;stroke-linecap:butt;stroke-linejoin:miter;stroke-opacity:1" d="M 94.033,504.911 85.8482,490.178 z" id="boundary" inkscape:connector-curvature="0" />
	<path style="fill:none;stroke:red;stroke-width:1px;stroke-linecap:butt;stroke-linejoin:miter;stroke-opacity:1" d="M 102.218,303.564 102.218,319.934 z" id="boundary" inkscape:connector-curvature="0" />
	<path style="fill:none;stroke:red;stroke-width:1px;stroke-linecap:butt;stroke-linejoin:miter;stroke-opacity:1" d="M 102.218,303.564 102.218,287.195 z" id="boundary" inkscape:connector-curvature="0" />
	<path style="fill:none;stroke:red;stroke-width:1px;stroke-linecap:butt;stroke-linejoin:miter;stroke-opacity:1" d="M 102.218,287.195 110.403,262.64 z" id="boundary" inkscape:connector-curvature="0" />
	<path style="fill:none;stroke:red;stroke-width:1px;stroke-linecap:butt;stroke-linejoin:miter;stroke-opacity:1" d="M 110.403,193.888 110.403,177.518 z" id="boundary" inkscape:connector-curvature="0" />
	<path style="fill:none;stroke:red;stroke-width:1px;stroke-linecap:butt;stroke-linejoin:miter;stroke-opacity:1" d="M 118.587,208.62 110.403,193.888 z" id="boundary" inkscape:connector-curvature="0" />
	<path style="fill:none;stroke:red;stroke-width:1px;stroke-linecap:butt;stroke-linejoin:miter;stroke-opacity:1" d="M 102.218,519.644 94.033,504.911 z" id="boundary" inkscape:connector-curvature="0" />
	<path style="fill:none;stroke:red;stroke-width:1px;stroke-linecap:butt;stroke-linejoin:miter;stroke-opacity:1" d="M 94.033,360.858 102.218,336.304 z" id="boundary" inkscape:connector-curvature="0" />
	<path style="fill:none;stroke:red;stroke-width:1px;stroke-linecap:butt;stroke-linejoin:miter;stroke-opacity:1" d="M 102.218,336.304 102.218,319.934 z" id="boundary" inkscape:connector-curvature="0" />
	<path style="fill:none;stroke:red;stroke-width:1px;stroke-linecap:butt;stroke-linejoin:miter;stroke-opacity:1" d="M 154.601,20.3696 167.696,8.91089 z" id="boundary" inkscape:connector-curvature="0" />
	<path style="fill:none;stroke:red;stroke-width:1px;stroke-linecap:butt;stroke-linejoin:miter;stroke-opacity:1" d="M 167.696,8.91089 184.066,4 z" id="boundary" inkscape:connector-curvature="0" />
	<path style="fill:none;stroke:red;stroke-width:1px;stroke-linecap:butt;stroke-linejoin:miter;stroke-opacity:1" d="M 184.066,4 200.436,4 z" id="boundary" inkscape:connector-curvature="0" />
	<path style="fill:none;stroke:red;stroke-width:1px;stroke-linecap:butt;stroke-linejoin:miter;stroke-opacity:1" d="M 128.409,36.7393 112.04,40.0132 z" id="boundary" inkscape:connector-curvature="0" />
	<path style="fill:none;stroke:red;stroke-width:1px;stroke-linecap:butt;stroke-linejoin:miter;stroke-opacity:1" d="M 138.231,22.0066 128.409,36.7393 z" id="boundary" inkscape:connector-curvature="0" />
	<path style="fill:none;stroke:red;stroke-width:1px;stroke-linecap:butt;stroke-linejoin:miter;stroke-opacity:1" d="M 138.231,22.0066 154.601,20.3696 z" id="boundary" inkscape:connector-curvature="0" />
	<path style="fill:none;stroke:red;stroke-width:1px;stroke-linecap:butt;stroke-linejoin:miter;stroke-opacity:1" d="M 246.271,20.3696 251.182,36.7393 z" id="boundary" inkscape:connector-curvature="0" />
	<path style="fill:none;stroke:red;stroke-width:1px;stroke-linecap:butt;stroke-linejoin:miter;stroke-opacity:1" d="M 231.538,12.1848 246.271,20.3696 z" id="boundary" inkscape:connector-curvature="0" />
	<path style="fill:none;stroke:red;stroke-width:1px;stroke-linecap:butt;stroke-linejoin:miter;stroke-opacity:1" d="M 264.277,46.5611 251.182,36.7393 z" id="boundary" inkscape:connector-curvature="0" />
	<path style="fill:none;stroke:red;stroke-width:1px;stroke-linecap:butt;stroke-linejoin:miter;stroke-opacity:1" d="M 264.277,46.5611 275.736,59.6568 z" id="boundary" inkscape:connector-curvature="0" />
	<path style="fill:none;stroke:red;stroke-width:1px;stroke-linecap:butt;stroke-linejoin:miter;stroke-opacity:1" d="M 275.736,59.6568 283.921,74.3894 z" id="boundary" inkscape:connector-curvature="0" />
	<path style="fill:none;stroke:red;stroke-width:1px;stroke-linecap:butt;stroke-linejoin:miter;stroke-opacity:1" d="M 283.921,74.3894 290.469,90.7591 z" id="boundary" inkscape:connector-curvature="0" />
	<path style="fill:none;stroke:red;stroke-width:1px;stroke-linecap:butt;stroke-linejoin:miter;stroke-opacity:1" d="M 298.653,105.492 290.469,90.7591 z" id="boundary" inkscape:connector-curvature="0" />
	<path style="fill:none;stroke:red;stroke-width:1px;stroke-linecap:butt;stroke-linejoin:miter;stroke-opacity:1" d="M 200.436,4 216.805,4 z" id="boundary" inkscape:connector-curvature="0" />
	<path style="fill:none;stroke:red;stroke-width:1px;stroke-linecap:butt;stroke-linejoin:miter;stroke-opacity:1" d="M 216.805,4 231.538,12.1848 z" id="boundary" inkscape:connector-curvature="0" />
	<path style="fill:none;stroke:red;stroke-width:1px;stroke-linecap:butt;stroke-linejoin:miter;stroke-opacity:1" d="M 298.653,105.492 305.201,121.861 z" id="boundary" inkscape:connector-curvature="0" />
	<path style="fill:none;stroke:red;stroke-width:1px;stroke-linecap:butt;stroke-linejoin:miter;stroke-opacity:1" d="M 308.475,138.231 305.201,121.861 z" id="boundary" inkscape:connector-curvature="0" />
	<path style="fill:none;stroke:red;stroke-width:1px;stroke-linecap:butt;stroke-linejoin:miter;stroke-opacity:1" d="M 308.475,154.601 308.475,170.97 z" id="boundary" inkscape:connector-curvature="0" />
	<path style="fill:none;stroke:red;stroke-width:1px;stroke-linecap:butt;stroke-linejoin:miter;stroke-opacity:1" d="M 110.403,246.271 110.403,262.64 z" id="boundary" inkscape:connector-curvature="0" />
	<path style="fill:none;stroke:red;stroke-width:1px;stroke-linecap:butt;stroke-linejoin:miter;stroke-opacity:1" d="M 110.403,246.271 118.587,224.99 z" id="boundary" inkscape:connector-curvature="0" />
	<path style="fill:none;stroke:red;stroke-width:1px;stroke-linecap:butt;stroke-linejoin:miter;stroke-opacity:1" d="M 118.587,224.99 118.587,208.62 z" id="boundary" inkscape:connector-curvature="0" />
	<path style="fill:none;stroke:red;stroke-width:1px;stroke-linecap:butt;stroke-linejoin:miter;stroke-opacity:1" d="M 308.475,138.231 308.475,154.601 z" id="boundary" inkscape:connector-curvature="0" />
	<path style="fill:none;stroke:red;stroke-width:1px;stroke-linecap:butt;stroke-linejoin:miter;stroke-opacity:1" d="M 318.297,184.066 308.475,170.97 z" id="boundary" inkscape:connector-curvature="0" />
	<path style="fill:none;stroke:red;stroke-width:1px;stroke-linecap:butt;stroke-linejoin:miter;stroke-opacity:1" d="M 318.297,184.066 324.845,200.436 z" id="boundary" inkscape:connector-curvature="0" />
	<path style="fill:none;stroke:red;stroke-width:1px;stroke-linecap:butt;stroke-linejoin:miter;stroke-opacity:1" d="M 333.03,215.168 324.845,200.436 z" id="boundary" inkscape:connector-curvature="0" />
	<path style="fill:none;stroke:red;stroke-width:1px;stroke-linecap:butt;stroke-linejoin:miter;stroke-opacity:1" d="M 333.03,215.168 341.215,229.901 z" id="boundary" inkscape:connector-curvature="0" />
	<path style="fill:none;stroke:red;stroke-width:1px;stroke-linecap:butt;stroke-linejoin:miter;stroke-opacity:1" d="M 341.215,229.901 341.215,246.271 z" id="boundary" inkscape:connector-curvature="0" />
	<path style="fill:none;stroke:red;stroke-width:1px;stroke-linecap:butt;stroke-linejoin:miter;stroke-opacity:1" d="M 341.215,246.271 341.215,262.64 z" id="boundary" inkscape:connector-curvature="0" />
	<path style="fill:none;stroke:red;stroke-width:1px;stroke-linecap:butt;stroke-linejoin:miter;stroke-opacity:1" d="M 349.399,277.373 341.215,262.64 z" id="boundary" inkscape:connector-curvature="0" />
	<path style="fill:none;stroke:red;stroke-width:1px;stroke-linecap:butt;stroke-linejoin:miter;stroke-opacity:1" d="M 105.492,552.383 102.218,536.013 z" id="boundary" inkscape:connector-curvature="0" />
	<path style="fill:none;stroke:red;stroke-width:1px;stroke-linecap:butt;stroke-linejoin:miter;stroke-opacity:1" d="M 102.218,536.013 102.218,519.644 z" id="boundary" inkscape:connector-curvature="0" />
	<path style="fill:none;stroke:red;stroke-width:1px;stroke-linecap:butt;stroke-linejoin:miter;stroke-opacity:1" d="M 110.403,568.752 113.677,585.122 z" id="boundary" inkscape:connector-curvature="0" />
	<path style="fill:none;stroke:red;stroke-width:1px;stroke-linecap:butt;stroke-linejoin:miter;stroke-opacity:1" d="M 105.492,552.383 110.403,568.752 z" id="boundary" inkscape:connector-curvature="0" />
	<path style="fill:none;stroke:red;stroke-width:1px;stroke-linecap:butt;stroke-linejoin:miter;stroke-opacity:1" d="M 126.772,594.944 113.677,585.122 z" id="boundary" inkscape:connector-curvature="0" />
	<path style="fill:none;stroke:red;stroke-width:1px;stroke-linecap:butt;stroke-linejoin:miter;stroke-opacity:1" d="M 126.772,594.944 136.594,608.04 z" id="boundary" inkscape:connector-curvature="0" />
	<path style="fill:none;stroke:red;stroke-width:1px;stroke-linecap:butt;stroke-linejoin:miter;stroke-opacity:1" d="M 149.69,619.498 136.594,608.04 z" id="boundary" inkscape:connector-curvature="0" />
	<path style="fill:none;stroke:red;stroke-width:1px;stroke-linecap:butt;stroke-linejoin:miter;stroke-opacity:1" d="M 159.512,632.594 167.696,647.327 z" id="boundary" inkscape:connector-curvature="0" />
	<path style="fill:none;stroke:red;stroke-width:1px;stroke-linecap:butt;stroke-linejoin:miter;stroke-opacity:1" d="M 159.512,632.594 149.69,619.498 z" id="boundary" inkscape:connector-curvature="0" />
	<path style="fill:none;stroke:red;stroke-width:1px;stroke-linecap:butt;stroke-linejoin:miter;stroke-opacity:1" d="M 167.696,647.327 175.881,662.059 z" id="boundary" inkscape:connector-curvature="0" />
	<path style="fill:none;stroke:red;stroke-width:1px;stroke-linecap:butt;stroke-linejoin:miter;stroke-opacity:1" d="M 187.34,675.155 200.436,684.977 z" id="boundary" inkscape:connector-curvature="0" />
	<path style="fill:none;stroke:red;stroke-width:1px;stroke-linecap:butt;stroke-linejoin:miter;stroke-opacity:1" d="M 216.805,684.977 200.436,684.977 z" id="boundary" inkscape:connector-curvature="0" />
	<path style="fill:none;stroke:red;stroke-width:1px;stroke-linecap:butt;stroke-linejoin:miter;stroke-opacity:1" d="M 216.805,684.977 221.716,701.347 z" id="boundary" inkscape:connector-curvature="0" />
	<path style="fill:none;stroke:red;stroke-width:1px;stroke-linecap:butt;stroke-linejoin:miter;stroke-opacity:1" d="M 234.812,712.805 221.716,701.347 z" id="boundary" inkscape:connector-curvature="0" />
	<path style="fill:none;stroke:red;stroke-width:1px;stroke-linecap:butt;stroke-linejoin:miter;stroke-opacity:1" d="M 187.34,675.155 175.881,662.059 z" id="boundary" inkscape:connector-curvature="0" />
	<path style="fill:none;stroke:red;stroke-width:1px;stroke-linecap:butt;stroke-linejoin:miter;stroke-opacity:1" d="M 184.066,961.624 200.436,961.624 z" id="boundary" inkscape:connector-curvature="0" />
	<path style="fill:none;stroke:red;stroke-width:1px;stroke-linecap:butt;stroke-linejoin:miter;stroke-opacity:1" d="M 216.805,961.624 200.436,961.624 z" id="boundary" inkscape:connector-curvature="0" />
	<path style="fill:none;stroke:red;stroke-width:1px;stroke-linecap:butt;stroke-linejoin:miter;stroke-opacity:1" d="M 167.696,966.535 184.066,961.624 z" id="boundary" inkscape:connector-curvature="0" />
	<path style="fill:none;stroke:red;stroke-width:1px;stroke-linecap:butt;stroke-linejoin:miter;stroke-opacity:1" d="M 177.518,979.63 167.696,966.535 z" id="boundary" inkscape:connector-curvature="0" />
	<path style="fill:none;stroke:red;stroke-width:1px;stroke-linecap:butt;stroke-linejoin:miter;stroke-opacity:1" d="M 192.251,987.815 208.62,987.815 z" id="boundary" inkscape:connector-curvature="0" />
	<path style="fill:none;stroke:red;stroke-width:1px;stroke-linecap:butt;stroke-linejoin:miter;stroke-opacity:1" d="M 192.251,987.815 177.518,979.63 z" id="boundary" inkscape:connector-curvature="0" />
	<path style="fill:none;stroke:red;stroke-width:1px;stroke-linecap:butt;stroke-linejoin:miter;stroke-opacity:1" d="M 224.99,987.815 208.62,987.815 z" id="boundary" inkscape:connector-curvature="0" />
	<path style="fill:none;stroke:red;stroke-width:1px;stroke-linecap:butt;stroke-linejoin:miter;stroke-opacity:1" d="M 216.805,961.624 233.175,961.624 z" id="boundary" inkscape:connector-curvature="0" />
	<path style="fill:none;stroke:red;stroke-width:1px;stroke-linecap:butt;stroke-linejoin:miter;stroke-opacity:1" d="M 257.729,734.086 241.36,729.175 z" id="boundary" inkscape:connector-curvature="0" />
	<path style="fill:none;stroke:red;stroke-width:1px;stroke-linecap:butt;stroke-linejoin:miter;stroke-opacity:1" d="M 241.36,729.175 234.812,712.805 z" id="boundary" inkscape:connector-curvature="0" />
	<path style="fill:none;stroke:red;stroke-width:1px;stroke-linecap:butt;stroke-linejoin:miter;stroke-opacity:1" d="M 249.545,961.624 233.175,961.624 z" id="boundary" inkscape:connector-curvature="0" />
	<path style="fill:none;stroke:red;stroke-width:1px;stroke-linecap:butt;stroke-linejoin:miter;stroke-opacity:1" d="M 224.99,987.815 241.36,987.815 z" id="boundary" inkscape:connector-curvature="0" />
	<path style="fill:none;stroke:red;stroke-width:1px;stroke-linecap:butt;stroke-linejoin:miter;stroke-opacity:1" d="M 257.729,987.815 241.36,987.815 z" id="boundary" inkscape:connector-curvature="0" />
	<path style="fill:none;stroke:red;stroke-width:1px;stroke-linecap:butt;stroke-linejoin:miter;stroke-opacity:1" d="M 249.545,961.624 265.914,961.624 z" id="boundary" inkscape:connector-curvature="0" />
	<path style="fill:none;stroke:red;stroke-width:1px;stroke-linecap:butt;stroke-linejoin:miter;stroke-opacity:1" d="M 257.729,734.086 272.462,742.271 z" id="boundary" inkscape:connector-curvature="0" />
	<path style="fill:none;stroke:red;stroke-width:1px;stroke-linecap:butt;stroke-linejoin:miter;stroke-opacity:1" d="M 303.564,750.455 287.195,750.455 z" id="boundary" inkscape:connector-curvature="0" />
	<path style="fill:none;stroke:red;stroke-width:1px;stroke-linecap:butt;stroke-linejoin:miter;stroke-opacity:1" d="M 287.195,750.455 272.462,742.271 z" id="boundary" inkscape:connector-curvature="0" />
	<path style="fill:none;stroke:red;stroke-width:1px;stroke-linecap:butt;stroke-linejoin:miter;stroke-opacity:1" d="M 303.564,750.455 311.749,765.188 z" id="boundary" inkscape:connector-curvature="0" />
	<path style="fill:none;stroke:red;stroke-width:1px;stroke-linecap:butt;stroke-linejoin:miter;stroke-opacity:1" d="M 315.023,860.132 306.838,876.502 z" id="boundary" inkscape:connector-curvature="0" />
	<path style="fill:none;stroke:red;stroke-width:1px;stroke-linecap:butt;stroke-linejoin:miter;stroke-opacity:1" d="M 290.469,901.056 306.838,876.502 z" id="boundary" inkscape:connector-curvature="0" />
	<path style="fill:none;stroke:red;stroke-width:1px;stroke-linecap:butt;stroke-linejoin:miter;stroke-opacity:1" d="M 323.208,778.284 311.749,765.188 z" id="boundary" inkscape:connector-curvature="0" />
	<path style="fill:none;stroke:red;stroke-width:1px;stroke-linecap:butt;stroke-linejoin:miter;stroke-opacity:1" d="M 290.469,901.056 290.469,917.426 z" id="boundary" inkscape:connector-curvature="0" />
	<path style="fill:none;stroke:red;stroke-width:1px;stroke-linecap:butt;stroke-linejoin:miter;stroke-opacity:1" d="M 323.208,778.284 331.393,793.017 z" id="boundary" inkscape:connector-curvature="0" />
	<path style="fill:none;stroke:red;stroke-width:1px;stroke-linecap:butt;stroke-linejoin:miter;stroke-opacity:1" d="M 323.208,843.762 331.393,827.393 z" id="boundary" inkscape:connector-curvature="0" />
	<path style="fill:none;stroke:red;stroke-width:1px;stroke-linecap:butt;stroke-linejoin:miter;stroke-opacity:1" d="M 339.578,807.749 331.393,827.393 z" id="boundary" inkscape:connector-curvature="0" />
	<path style="fill:none;stroke:red;stroke-width:1px;stroke-linecap:butt;stroke-linejoin:miter;stroke-opacity:1" d="M 331.393,793.017 339.578,807.749 z" id="boundary" inkscape:connector-curvature="0" />
	<path style="fill:none;stroke:red;stroke-width:1px;stroke-linecap:butt;stroke-linejoin:miter;stroke-opacity:1" d="M 315.023,860.132 323.208,843.762 z" id="boundary" inkscape:connector-curvature="0" />
	<path style="fill:none;stroke:red;stroke-width:1px;stroke-linecap:butt;stroke-linejoin:miter;stroke-opacity:1" d="M 324.845,889.597 341.215,873.228 z" id="boundary" inkscape:connector-curvature="0" />
	<path style="fill:none;stroke:red;stroke-width:1px;stroke-linecap:butt;stroke-linejoin:miter;stroke-opacity:1" d="M 321.571,910.878 324.845,889.597 z" id="boundary" inkscape:connector-curvature="0" />
	<path style="fill:none;stroke:red;stroke-width:1px;stroke-linecap:butt;stroke-linejoin:miter;stroke-opacity:1" d="M 349.399,856.858 341.215,873.228 z" id="boundary" inkscape:connector-curvature="0" />
	<path style="fill:none;stroke:red;stroke-width:1px;stroke-linecap:butt;stroke-linejoin:miter;stroke-opacity:1" d="M 290.469,933.795 280.647,953.439 z" id="boundary" inkscape:connector-curvature="0" />
	<path style="fill:none;stroke:red;stroke-width:1px;stroke-linecap:butt;stroke-linejoin:miter;stroke-opacity:1" d="M 280.647,953.439 265.914,961.624 z" id="boundary" inkscape:connector-curvature="0" />
	<path style="fill:none;stroke:red;stroke-width:1px;stroke-linecap:butt;stroke-linejoin:miter;stroke-opacity:1" d="M 274.099,987.815 257.729,987.815 z" id="boundary" inkscape:connector-curvature="0" />
	<path style="fill:none;stroke:red;stroke-width:1px;stroke-linecap:butt;stroke-linejoin:miter;stroke-opacity:1" d="M 290.469,987.815 306.838,987.815 z" id="boundary" inkscape:connector-curvature="0" />
	<path style="fill:none;stroke:red;stroke-width:1px;stroke-linecap:butt;stroke-linejoin:miter;stroke-opacity:1" d="M 290.469,987.815 274.099,987.815 z" id="boundary" inkscape:connector-curvature="0" />
	<path style="fill:none;stroke:red;stroke-width:1px;stroke-linecap:butt;stroke-linejoin:miter;stroke-opacity:1" d="M 290.469,933.795 290.469,917.426 z" id="boundary" inkscape:connector-curvature="0" />
	<path style="fill:none;stroke:red;stroke-width:1px;stroke-linecap:butt;stroke-linejoin:miter;stroke-opacity:1" d="M 308.475,922.337 308.475,938.706 z" id="boundary" inkscape:connector-curvature="0" />
	<path style="fill:none;stroke:red;stroke-width:1px;stroke-linecap:butt;stroke-linejoin:miter;stroke-opacity:1" d="M 308.475,922.337 321.571,910.878 z" id="boundary" inkscape:connector-curvature="0" />
	<path style="fill:none;stroke:red;stroke-width:1px;stroke-linecap:butt;stroke-linejoin:miter;stroke-opacity:1" d="M 324.845,961.624 308.475,955.076 z" id="boundary" inkscape:connector-curvature="0" />
	<path style="fill:none;stroke:red;stroke-width:1px;stroke-linecap:butt;stroke-linejoin:miter;stroke-opacity:1" d="M 308.475,955.076 308.475,938.706 z" id="boundary" inkscape:connector-curvature="0" />
	<path style="fill:none;stroke:red;stroke-width:1px;stroke-linecap:butt;stroke-linejoin:miter;stroke-opacity:1" d="M 339.578,982.904 323.208,987.815 z" id="boundary" inkscape:connector-curvature="0" />
	<path style="fill:none;stroke:red;stroke-width:1px;stroke-linecap:butt;stroke-linejoin:miter;stroke-opacity:1" d="M 323.208,987.815 306.838,987.815 z" id="boundary" inkscape:connector-curvature="0" />
	<path style="fill:none;stroke:red;stroke-width:1px;stroke-linecap:butt;stroke-linejoin:miter;stroke-opacity:1" d="M 339.578,982.904 341.215,961.624 z" id="boundary" inkscape:connector-curvature="0" />
	<path style="fill:none;stroke:red;stroke-width:1px;stroke-linecap:butt;stroke-linejoin:miter;stroke-opacity:1" d="M 324.845,961.624 341.215,961.624 z" id="boundary" inkscape:connector-curvature="0" />
	<path style="fill:none;stroke:red;stroke-width:1px;stroke-linecap:butt;stroke-linejoin:miter;stroke-opacity:1" d="M 365.769,306.838 354.31,293.743 z" id="boundary" inkscape:connector-curvature="0" />
	<path style="fill:none;stroke:red;stroke-width:1px;stroke-linecap:butt;stroke-linejoin:miter;stroke-opacity:1" d="M 354.31,293.743 349.399,277.373 z" id="boundary" inkscape:connector-curvature="0" />
	<path style="fill:none;stroke:red;stroke-width:1px;stroke-linecap:butt;stroke-linejoin:miter;stroke-opacity:1" d="M 365.769,306.838 373.954,321.571 z" id="boundary" inkscape:connector-curvature="0" />
	<path style="fill:none;stroke:red;stroke-width:1px;stroke-linecap:butt;stroke-linejoin:miter;stroke-opacity:1" d="M 373.954,321.571 382.139,336.304 z" id="boundary" inkscape:connector-curvature="0" />
	<path style="fill:none;stroke:red;stroke-width:1px;stroke-linecap:butt;stroke-linejoin:miter;stroke-opacity:1" d="M 393.597,349.399 382.139,336.304 z" id="boundary" inkscape:connector-curvature="0" />
	<path style="fill:none;stroke:red;stroke-width:1px;stroke-linecap:butt;stroke-linejoin:miter;stroke-opacity:1" d="M 393.597,349.399 406.693,360.858 z" id="boundary" inkscape:connector-curvature="0" />
	<path style="fill:none;stroke:red;stroke-width:1px;stroke-linecap:butt;stroke-linejoin:miter;stroke-opacity:1" d="M 406.693,360.858 418.152,373.954 z" id="boundary" inkscape:connector-curvature="0" />
	<path style="fill:none;stroke:red;stroke-width:1px;stroke-linecap:butt;stroke-linejoin:miter;stroke-opacity:1" d="M 418.152,373.954 431.248,385.413 z" id="boundary" inkscape:connector-curvature="0" />
	<path style="fill:none;stroke:red;stroke-width:1px;stroke-linecap:butt;stroke-linejoin:miter;stroke-opacity:1" d="M 442.706,398.508 450.891,413.241 z" id="boundary" inkscape:connector-curvature="0" />
	<path style="fill:none;stroke:red;stroke-width:1px;stroke-linecap:butt;stroke-linejoin:miter;stroke-opacity:1" d="M 431.248,385.413 442.706,398.508 z" id="boundary" inkscape:connector-curvature="0" />
	<path style="fill:none;stroke:red;stroke-width:1px;stroke-linecap:butt;stroke-linejoin:miter;stroke-opacity:1" d="M 462.35,426.337 450.891,413.241 z" id="boundary" inkscape:connector-curvature="0" />
	<path style="fill:none;stroke:red;stroke-width:1px;stroke-linecap:butt;stroke-linejoin:miter;stroke-opacity:1" d="M 462.35,426.337 470.535,441.069 z" id="boundary" inkscape:connector-curvature="0" />
	<path style="fill:none;stroke:red;stroke-width:1px;stroke-linecap:butt;stroke-linejoin:miter;stroke-opacity:1" d="M 480.356,454.165 470.535,441.069 z" id="boundary" inkscape:connector-curvature="0" />
	<path style="fill:none;stroke:red;stroke-width:1px;stroke-linecap:butt;stroke-linejoin:miter;stroke-opacity:1" d="M 480.356,454.165 488.541,468.898 z" id="boundary" inkscape:connector-curvature="0" />
	<path style="fill:none;stroke:red;stroke-width:1px;stroke-linecap:butt;stroke-linejoin:miter;stroke-opacity:1" d="M 504.911,475.446 488.541,468.898 z" id="boundary" inkscape:connector-curvature="0" />
	<path style="fill:none;stroke:red;stroke-width:1px;stroke-linecap:butt;stroke-linejoin:miter;stroke-opacity:1" d="M 511.459,491.815 504.911,475.446 z" id="boundary" inkscape:connector-curvature="0" />
	<path style="fill:none;stroke:red;stroke-width:1px;stroke-linecap:butt;stroke-linejoin:miter;stroke-opacity:1" d="M 521.281,504.911 511.459,491.815 z" id="boundary" inkscape:connector-curvature="0" />
	<path style="fill:none;stroke:red;stroke-width:1px;stroke-linecap:butt;stroke-linejoin:miter;stroke-opacity:1" d="M 529.465,519.644 537.65,534.376 z" id="boundary" inkscape:connector-curvature="0" />
	<path style="fill:none;stroke:red;stroke-width:1px;stroke-linecap:butt;stroke-linejoin:miter;stroke-opacity:1" d="M 511.459,775.01 496.726,783.195 z" id="boundary" inkscape:connector-curvature="0" />
	<path style="fill:none;stroke:red;stroke-width:1px;stroke-linecap:butt;stroke-linejoin:miter;stroke-opacity:1" d="M 496.726,783.195 488.541,799.564 z" id="boundary" inkscape:connector-curvature="0" />
	<path style="fill:none;stroke:red;stroke-width:1px;stroke-linecap:butt;stroke-linejoin:miter;stroke-opacity:1" d="M 496.726,830.667 488.541,815.934 z" id="boundary" inkscape:connector-curvature="0" />
	<path style="fill:none;stroke:red;stroke-width:1px;stroke-linecap:butt;stroke-linejoin:miter;stroke-opacity:1" d="M 488.541,815.934 488.541,799.564 z" id="boundary" inkscape:connector-curvature="0" />
	<path style="fill:none;stroke:red;stroke-width:1px;stroke-linecap:butt;stroke-linejoin:miter;stroke-opacity:1" d="M 382.139,824.119 365.769,824.119 z" id="boundary" inkscape:connector-curvature="0" />
	<path style="fill:none;stroke:red;stroke-width:1px;stroke-linecap:butt;stroke-linejoin:miter;stroke-opacity:1" d="M 511.459,775.01 527.828,775.01 z" id="boundary" inkscape:connector-curvature="0" />
	<path style="fill:none;stroke:red;stroke-width:1px;stroke-linecap:butt;stroke-linejoin:miter;stroke-opacity:1" d="M 529.465,519.644 521.281,504.911 z" id="boundary" inkscape:connector-curvature="0" />
	<path style="fill:none;stroke:red;stroke-width:1px;stroke-linecap:butt;stroke-linejoin:miter;stroke-opacity:1" d="M 537.65,534.376 554.02,540.924 z" id="boundary" inkscape:connector-curvature="0" />
	<path style="fill:none;stroke:red;stroke-width:1px;stroke-linecap:butt;stroke-linejoin:miter;stroke-opacity:1" d="M 554.02,540.924 565.479,554.02 z" id="boundary" inkscape:connector-curvature="0" />
	<path style="fill:none;stroke:red;stroke-width:1px;stroke-linecap:butt;stroke-linejoin:miter;stroke-opacity:1" d="M 544.198,775.01 527.828,775.01 z" id="boundary" inkscape:connector-curvature="0" />
	<path style="fill:none;stroke:red;stroke-width:1px;stroke-linecap:butt;stroke-linejoin:miter;stroke-opacity:1" d="M 560.568,775.01 544.198,775.01 z" id="boundary" inkscape:connector-curvature="0" />
	<path style="fill:none;stroke:red;stroke-width:1px;stroke-linecap:butt;stroke-linejoin:miter;stroke-opacity:1" d="M 578.574,565.479 565.479,554.02 z" id="boundary" inkscape:connector-curvature="0" />
	<path style="fill:none;stroke:red;stroke-width:1px;stroke-linecap:butt;stroke-linejoin:miter;stroke-opacity:1" d="M 560.568,775.01 575.3,783.195 z" id="boundary" inkscape:connector-curvature="0" />
	<path style="fill:none;stroke:red;stroke-width:1px;stroke-linecap:butt;stroke-linejoin:miter;stroke-opacity:1" d="M 594.944,594.944 585.122,581.848 z" id="boundary" inkscape:connector-curvature="0" />
	<path style="fill:none;stroke:red;stroke-width:1px;stroke-linecap:butt;stroke-linejoin:miter;stroke-opacity:1" d="M 585.122,581.848 578.574,565.479 z" id="boundary" inkscape:connector-curvature="0" />
	<path style="fill:none;stroke:red;stroke-width:1px;stroke-linecap:butt;stroke-linejoin:miter;stroke-opacity:1" d="M 594.944,594.944 603.129,609.677 z" id="boundary" inkscape:connector-curvature="0" />
	<path style="fill:none;stroke:red;stroke-width:1px;stroke-linecap:butt;stroke-linejoin:miter;stroke-opacity:1" d="M 603.129,609.677 616.224,619.498 z" id="boundary" inkscape:connector-curvature="0" />
	<path style="fill:none;stroke:red;stroke-width:1px;stroke-linecap:butt;stroke-linejoin:miter;stroke-opacity:1" d="M 616.224,619.498 622.772,635.868 z" id="boundary" inkscape:connector-curvature="0" />
	<path style="fill:none;stroke:red;stroke-width:1px;stroke-linecap:butt;stroke-linejoin:miter;stroke-opacity:1" d="M 622.772,635.868 635.868,647.327 z" id="boundary" inkscape:connector-curvature="0" />
	<path style="fill:none;stroke:red;stroke-width:1px;stroke-linecap:butt;stroke-linejoin:miter;stroke-opacity:1" d="M 635.868,647.327 642.416,663.696 z" id="boundary" inkscape:connector-curvature="0" />
	<path style="fill:none;stroke:red;stroke-width:1px;stroke-linecap:butt;stroke-linejoin:miter;stroke-opacity:1" d="M 642.416,663.696 655.512,675.155 z" id="boundary" inkscape:connector-curvature="0" />
	<path style="fill:none;stroke:red;stroke-width:1px;stroke-linecap:butt;stroke-linejoin:miter;stroke-opacity:1" d="M 655.512,675.155 660.422,691.525 z" id="boundary" inkscape:connector-curvature="0" />
	<path style="fill:none;stroke:red;stroke-width:1px;stroke-linecap:butt;stroke-linejoin:miter;stroke-opacity:1" d="M 684.977,712.805 668.607,706.257 z" id="boundary" inkscape:connector-curvature="0" />
	<path style="fill:none;stroke:red;stroke-width:1px;stroke-linecap:butt;stroke-linejoin:miter;stroke-opacity:1" d="M 668.607,706.257 660.422,691.525 z" id="boundary" inkscape:connector-curvature="0" />
	<path style="fill:none;stroke:red;stroke-width:1px;stroke-linecap:butt;stroke-linejoin:miter;stroke-opacity:1" d="M 684.977,712.805 691.525,729.175 z" id="boundary" inkscape:connector-curvature="0" />
	<path style="fill:none;stroke:red;stroke-width:1px;stroke-linecap:butt;stroke-linejoin:miter;stroke-opacity:1" d="M 707.894,735.723 691.525,729.175 z" id="boundary" inkscape:connector-curvature="0" />
	<path style="fill:none;stroke:red;stroke-width:1px;stroke-linecap:butt;stroke-linejoin:miter;stroke-opacity:1" d="M 707.894,735.723 717.716,748.818 z" id="boundary" inkscape:connector-curvature="0" />
	<path style="fill:none;stroke:red;stroke-width:1px;stroke-linecap:butt;stroke-linejoin:miter;stroke-opacity:1" d="M 730.812,758.64 717.716,748.818 z" id="boundary" inkscape:connector-curvature="0" />
	<path style="fill:none;stroke:red;stroke-width:1px;stroke-linecap:butt;stroke-linejoin:miter;stroke-opacity:1" d="M 575.3,783.195 591.67,783.195 z" id="boundary" inkscape:connector-curvature="0" />
	<path style="fill:none;stroke:red;stroke-width:1px;stroke-linecap:butt;stroke-linejoin:miter;stroke-opacity:1" d="M 591.67,783.195 606.403,791.38 z" id="boundary" inkscape:connector-curvature="0" />
	<path style="fill:none;stroke:red;stroke-width:1px;stroke-linecap:butt;stroke-linejoin:miter;stroke-opacity:1" d="M 622.772,797.927 606.403,791.38 z" id="boundary" inkscape:connector-curvature="0" />
	<path style="fill:none;stroke:red;stroke-width:1px;stroke-linecap:butt;stroke-linejoin:miter;stroke-opacity:1" d="M 637.505,806.112 622.772,797.927 z" id="boundary" inkscape:connector-curvature="0" />
	<path style="fill:none;stroke:red;stroke-width:1px;stroke-linecap:butt;stroke-linejoin:miter;stroke-opacity:1" d="M 653.875,807.749 637.505,806.112 z" id="boundary" inkscape:connector-curvature="0" />
	<path style="fill:none;stroke:red;stroke-width:1px;stroke-linecap:butt;stroke-linejoin:miter;stroke-opacity:1" d="M 653.875,807.749 670.244,812.66 z" id="boundary" inkscape:connector-curvature="0" />
	<path style="fill:none;stroke:red;stroke-width:1px;stroke-linecap:butt;stroke-linejoin:miter;stroke-opacity:1" d="M 730.812,758.64 742.271,771.736 z" id="boundary" inkscape:connector-curvature="0" />
	<path style="fill:none;stroke:red;stroke-width:1px;stroke-linecap:butt;stroke-linejoin:miter;stroke-opacity:1" d="M 755.366,783.195 742.271,771.736 z" id="boundary" inkscape:connector-curvature="0" />
	<path style="fill:none;stroke:red;stroke-width:1px;stroke-linecap:butt;stroke-linejoin:miter;stroke-opacity:1" d="M 719.353,824.119 702.983,820.845 z" id="boundary" inkscape:connector-curvature="0" />
	<path style="fill:none;stroke:red;stroke-width:1px;stroke-linecap:butt;stroke-linejoin:miter;stroke-opacity:1" d="M 766.825,796.29 755.366,783.195 z" id="boundary" inkscape:connector-curvature="0" />
	<path style="fill:none;stroke:red;stroke-width:1px;stroke-linecap:butt;stroke-linejoin:miter;stroke-opacity:1" d="M 779.921,807.749 766.825,796.29 z" id="boundary" inkscape:connector-curvature="0" />
	<path style="fill:none;stroke:red;stroke-width:1px;stroke-linecap:butt;stroke-linejoin:miter;stroke-opacity:1" d="M 670.244,812.66 686.614,815.934 z" id="boundary" inkscape:connector-curvature="0" />
	<path style="fill:none;stroke:red;stroke-width:1px;stroke-linecap:butt;stroke-linejoin:miter;stroke-opacity:1" d="M 702.983,820.845 686.614,815.934 z" id="boundary" inkscape:connector-curvature="0" />
	<path style="fill:none;stroke:red;stroke-width:1px;stroke-linecap:butt;stroke-linejoin:miter;stroke-opacity:1" d="M 807.749,827.393 791.38,820.845 z" id="boundary" inkscape:connector-curvature="0" />
	<path style="fill:none;stroke:red;stroke-width:1px;stroke-linecap:butt;stroke-linejoin:miter;stroke-opacity:1" d="M 791.38,820.845 779.921,807.749 z" id="boundary" inkscape:connector-curvature="0" />
	<path style="fill:none;stroke:red;stroke-width:1px;stroke-linecap:butt;stroke-linejoin:miter;stroke-opacity:1" d="M 382.139,824.119 396.871,832.304 z" id="boundary" inkscape:connector-curvature="0" />
	<path style="fill:none;stroke:red;stroke-width:1px;stroke-linecap:butt;stroke-linejoin:miter;stroke-opacity:1" d="M 362.495,845.399 349.399,856.858 z" id="boundary" inkscape:connector-curvature="0" />
	<path style="fill:none;stroke:red;stroke-width:1px;stroke-linecap:butt;stroke-linejoin:miter;stroke-opacity:1" d="M 396.871,832.304 405.056,847.036 z" id="boundary" inkscape:connector-curvature="0" />
	<path style="fill:none;stroke:red;stroke-width:1px;stroke-linecap:butt;stroke-linejoin:miter;stroke-opacity:1" d="M 405.056,847.036 414.878,860.132 z" id="boundary" inkscape:connector-curvature="0" />
	<path style="fill:none;stroke:red;stroke-width:1px;stroke-linecap:butt;stroke-linejoin:miter;stroke-opacity:1" d="M 414.878,860.132 426.337,873.228 z" id="boundary" inkscape:connector-curvature="0" />
	<path style="fill:none;stroke:red;stroke-width:1px;stroke-linecap:butt;stroke-linejoin:miter;stroke-opacity:1" d="M 426.337,873.228 439.432,884.686 z" id="boundary" inkscape:connector-curvature="0" />
	<path style="fill:none;stroke:red;stroke-width:1px;stroke-linecap:butt;stroke-linejoin:miter;stroke-opacity:1" d="M 496.726,830.667 504.911,845.399 z" id="boundary" inkscape:connector-curvature="0" />
	<path style="fill:none;stroke:red;stroke-width:1px;stroke-linecap:butt;stroke-linejoin:miter;stroke-opacity:1" d="M 521.281,874.865 513.096,860.132 z" id="boundary" inkscape:connector-curvature="0" />
	<path style="fill:none;stroke:red;stroke-width:1px;stroke-linecap:butt;stroke-linejoin:miter;stroke-opacity:1" d="M 513.096,860.132 504.911,845.399 z" id="boundary" inkscape:connector-curvature="0" />
	<path style="fill:none;stroke:red;stroke-width:1px;stroke-linecap:butt;stroke-linejoin:miter;stroke-opacity:1" d="M 454.165,892.871 439.432,884.686 z" id="boundary" inkscape:connector-curvature="0" />
	<path style="fill:none;stroke:red;stroke-width:1px;stroke-linecap:butt;stroke-linejoin:miter;stroke-opacity:1" d="M 462.35,907.604 454.165,892.871 z" id="boundary" inkscape:connector-curvature="0" />
	<path style="fill:none;stroke:red;stroke-width:1px;stroke-linecap:butt;stroke-linejoin:miter;stroke-opacity:1" d="M 537.65,904.33 526.191,891.234 z" id="boundary" inkscape:connector-curvature="0" />
	<path style="fill:none;stroke:red;stroke-width:1px;stroke-linecap:butt;stroke-linejoin:miter;stroke-opacity:1" d="M 526.191,891.234 521.281,874.865 z" id="boundary" inkscape:connector-curvature="0" />
	<path style="fill:none;stroke:red;stroke-width:1px;stroke-linecap:butt;stroke-linejoin:miter;stroke-opacity:1" d="M 719.353,824.119 732.449,833.941 z" id="boundary" inkscape:connector-curvature="0" />
	<path style="fill:none;stroke:red;stroke-width:1px;stroke-linecap:butt;stroke-linejoin:miter;stroke-opacity:1" d="M 493.452,946.891 480.356,935.432 z" id="boundary" inkscape:connector-curvature="0" />
	<path style="fill:none;stroke:red;stroke-width:1px;stroke-linecap:butt;stroke-linejoin:miter;stroke-opacity:1" d="M 480.356,935.432 470.535,922.337 z" id="boundary" inkscape:connector-curvature="0" />
	<path style="fill:none;stroke:red;stroke-width:1px;stroke-linecap:butt;stroke-linejoin:miter;stroke-opacity:1" d="M 462.35,907.604 470.535,922.337 z" id="boundary" inkscape:connector-curvature="0" />
	<path style="fill:none;stroke:red;stroke-width:1px;stroke-linecap:butt;stroke-linejoin:miter;stroke-opacity:1" d="M 493.452,946.891 504.911,959.987 z" id="boundary" inkscape:connector-curvature="0" />
	<path style="fill:none;stroke:red;stroke-width:1px;stroke-linecap:butt;stroke-linejoin:miter;stroke-opacity:1" d="M 518.007,971.446 504.911,959.987 z" id="boundary" inkscape:connector-curvature="0" />
	<path style="fill:none;stroke:red;stroke-width:1px;stroke-linecap:butt;stroke-linejoin:miter;stroke-opacity:1" d="M 518.007,971.446 529.465,984.541 z" id="boundary" inkscape:connector-curvature="0" />
	<path style="fill:none;stroke:red;stroke-width:1px;stroke-linecap:butt;stroke-linejoin:miter;stroke-opacity:1" d="M 537.65,920.7 537.65,904.33 z" id="boundary" inkscape:connector-curvature="0" />
	<path style="fill:none;stroke:red;stroke-width:1px;stroke-linecap:butt;stroke-linejoin:miter;stroke-opacity:1" d="M 545.835,935.432 537.65,920.7 z" id="boundary" inkscape:connector-curvature="0" />
	<path style="fill:none;stroke:red;stroke-width:1px;stroke-linecap:butt;stroke-linejoin:miter;stroke-opacity:1" d="M 558.931,946.891 562.205,963.261 z" id="boundary" inkscape:connector-curvature="0" />
	<path style="fill:none;stroke:red;stroke-width:1px;stroke-linecap:butt;stroke-linejoin:miter;stroke-opacity:1" d="M 558.931,946.891 545.835,935.432 z" id="boundary" inkscape:connector-curvature="0" />
	<path style="fill:none;stroke:red;stroke-width:1px;stroke-linecap:butt;stroke-linejoin:miter;stroke-opacity:1" d="M 558.931,996 542.561,996 z" id="boundary" inkscape:connector-curvature="0" />
	<path style="fill:none;stroke:red;stroke-width:1px;stroke-linecap:butt;stroke-linejoin:miter;stroke-opacity:1" d="M 562.205,963.261 570.389,977.993 z" id="boundary" inkscape:connector-curvature="0" />
	<path style="fill:none;stroke:red;stroke-width:1px;stroke-linecap:butt;stroke-linejoin:miter;stroke-opacity:1" d="M 570.389,977.993 558.931,996 z" id="boundary" inkscape:connector-curvature="0" />
	<path style="fill:none;stroke:red;stroke-width:1px;stroke-linecap:butt;stroke-linejoin:miter;stroke-opacity:1" d="M 542.561,996 529.465,984.541 z" id="boundary" inkscape:connector-curvature="0" />
	<path style="fill:none;stroke:red;stroke-width:1px;stroke-linecap:butt;stroke-linejoin:miter;stroke-opacity:1" d="M 743.908,847.036 732.449,833.941 z" id="boundary" inkscape:connector-curvature="0" />
	<path style="fill:none;stroke:red;stroke-width:1px;stroke-linecap:butt;stroke-linejoin:miter;stroke-opacity:1" d="M 757.003,856.858 743.908,847.036 z" id="boundary" inkscape:connector-curvature="0" />
	<path style="fill:none;stroke:red;stroke-width:1px;stroke-linecap:butt;stroke-linejoin:miter;stroke-opacity:1" d="M 757.003,856.858 771.736,865.043 z" id="boundary" inkscape:connector-curvature="0" />
	<path style="fill:none;stroke:red;stroke-width:1px;stroke-linecap:butt;stroke-linejoin:miter;stroke-opacity:1" d="M 771.736,865.043 783.195,878.139 z" id="boundary" inkscape:connector-curvature="0" />
	<path style="fill:none;stroke:red;stroke-width:1px;stroke-linecap:butt;stroke-linejoin:miter;stroke-opacity:1" d="M 783.195,878.139 796.29,889.597 z" id="boundary" inkscape:connector-curvature="0" />
	<path style="fill:none;stroke:red;stroke-width:1px;stroke-linecap:butt;stroke-linejoin:miter;stroke-opacity:1" d="M 807.749,827.393 819.208,840.488 z" id="boundary" inkscape:connector-curvature="0" />
	<path style="fill:none;stroke:red;stroke-width:1px;stroke-linecap:butt;stroke-linejoin:miter;stroke-opacity:1" d="M 811.023,897.782 796.29,889.597 z" id="boundary" inkscape:connector-curvature="0" />
	<path style="fill:none;stroke:red;stroke-width:1px;stroke-linecap:butt;stroke-linejoin:miter;stroke-opacity:1" d="M 832.304,851.947 819.208,840.488 z" id="boundary" inkscape:connector-curvature="0" />
	<path style="fill:none;stroke:red;stroke-width:1px;stroke-linecap:butt;stroke-linejoin:miter;stroke-opacity:1" d="M 847.036,860.132 832.304,851.947 z" id="boundary" inkscape:connector-curvature="0" />
	<path style="fill:none;stroke:red;stroke-width:1px;stroke-linecap:butt;stroke-linejoin:miter;stroke-opacity:1" d="M 855.221,874.865 847.036,860.132 z" id="boundary" inkscape:connector-curvature="0" />
	<path style="fill:none;stroke:red;stroke-width:1px;stroke-linecap:butt;stroke-linejoin:miter;stroke-opacity:1" d="M 811.023,897.782 824.119,909.241 z" id="boundary" inkscape:connector-curvature="0" />
	<path style="fill:none;stroke:red;stroke-width:1px;stroke-linecap:butt;stroke-linejoin:miter;stroke-opacity:1" d="M 835.578,922.337 824.119,909.241 z" id="boundary" inkscape:connector-curvature="0" />
	<path style="fill:none;stroke:red;stroke-width:1px;stroke-linecap:butt;stroke-linejoin:miter;stroke-opacity:1" d="M 881.413,892.871 865.043,887.96 z" id="boundary" inkscape:connector-curvature="0" />
	<path style="fill:none;stroke:red;stroke-width:1px;stroke-linecap:butt;stroke-linejoin:miter;stroke-opacity:1" d="M 865.043,887.96 855.221,874.865 z" id="boundary" inkscape:connector-curvature="0" />
	<path style="fill:none;stroke:red;stroke-width:1px;stroke-linecap:butt;stroke-linejoin:miter;stroke-opacity:1" d="M 881.413,892.871 887.96,909.241 z" id="boundary" inkscape:connector-curvature="0" />
	<path style="fill:none;stroke:red;stroke-width:1px;stroke-linecap:butt;stroke-linejoin:miter;stroke-opacity:1" d="M 835.578,922.337 851.947,928.884 z" id="boundary" inkscape:connector-curvature="0" />
	<path style="fill:none;stroke:red;stroke-width:1px;stroke-linecap:butt;stroke-linejoin:miter;stroke-opacity:1" d="M 851.947,928.884 865.043,938.706 z" id="boundary" inkscape:connector-curvature="0" />
	<path style="fill:none;stroke:red;stroke-width:1px;stroke-linecap:butt;stroke-linejoin:miter;stroke-opacity:1" d="M 901.056,920.7 887.96,909.241 z" id="boundary" inkscape:connector-curvature="0" />
	<path style="fill:none;stroke:red;stroke-width:1px;stroke-linecap:butt;stroke-linejoin:miter;stroke-opacity:1" d="M 865.043,938.706 879.776,946.891 z" id="boundary" inkscape:connector-curvature="0" />
	<path style="fill:none;stroke:red;stroke-width:1px;stroke-linecap:butt;stroke-linejoin:miter;stroke-opacity:1" d="M 879.776,946.891 884.686,963.261 z" id="boundary" inkscape:connector-curvature="0" />
	<path style="fill:none;stroke:red;stroke-width:1px;stroke-linecap:butt;stroke-linejoin:miter;stroke-opacity:1" d="M 884.686,963.261 901.056,963.261 z" id="boundary" inkscape:connector-curvature="0" />
	<path style="fill:none;stroke:red;stroke-width:1px;stroke-linecap:butt;stroke-linejoin:miter;stroke-opacity:1" d="M 901.056,963.261 915.789,971.446 z" id="boundary" inkscape:connector-curvature="0" />
	<path style="fill:none;stroke:red;stroke-width:1px;stroke-linecap:butt;stroke-linejoin:miter;stroke-opacity:1" d="M 901.056,920.7 912.515,933.795 z" id="boundary" inkscape:connector-curvature="0" />
	<path style="fill:none;stroke:red;stroke-width:1px;stroke-linecap:butt;stroke-linejoin:miter;stroke-opacity:1" d="M 912.515,933.795 928.884,937.069 z" id="boundary" inkscape:connector-curvature="0" />
	<path style="fill:none;stroke:red;stroke-width:1px;stroke-linecap:butt;stroke-linejoin:miter;stroke-opacity:1" d="M 928.884,937.069 941.98,946.891 z" id="boundary" inkscape:connector-curvature="0" />
	<path style="fill:none;stroke:red;stroke-width:1px;stroke-linecap:butt;stroke-linejoin:miter;stroke-opacity:1" d="M 950.165,961.624 941.98,946.891 z" id="boundary" inkscape:connector-curvature="0" />
	<path style="fill:none;stroke:red;stroke-width:1px;stroke-linecap:butt;stroke-linejoin:miter;stroke-opacity:1" d="M 963.261,971.446 950.165,961.624 z" id="boundary" inkscape:connector-curvature="0" />
	<path style="fill:none;stroke:red;stroke-width:1px;stroke-linecap:butt;stroke-linejoin:miter;stroke-opacity:1" d="M 915.789,971.446 930.521,979.63 z" id="boundary" inkscape:connector-curvature="0" />
	<path style="fill:none;stroke:red;stroke-width:1px;stroke-linecap:butt;stroke-linejoin:miter;stroke-opacity:1" d="M 946.891,982.904 930.521,979.63 z" id="boundary" inkscape:connector-curvature="0" />
	<path style="fill:none;stroke:red;stroke-width:1px;stroke-linecap:butt;stroke-linejoin:miter;stroke-opacity:1" d="M 963.261,971.446 946.891,982.904 z" id="boundary" inkscape:connector-curvature="0" />
	<circle cx="4" cy="82.5743" r="4" fill="#0" id="circle0"/>
	<circle cx="13.8218" cy="95.67" r="4" fill="#0" id="circle1"/>
	<circle cx="20.3696" cy="77.6634" r="4" fill="#0" id="circle2"/>
	<circle cx="30.1914" cy="98.9439" r="4" fill="#0" id="circle3"/>
	<circle cx="36.7393" cy="74.3894" r="4" fill="#0" id="circle4"/>
	<circle cx="41.6502" cy="112.04" r="4" fill="#0" id="circle5"/>
	<circle cx="53.1089" cy="66.2046" r="4" fill="#0" id="circle6"/>
	<circle cx="58.0198" cy="118.587" r="4" fill="#0" id="circle7"/>
	<circle cx="69.4785" cy="61.2937" r="4" fill="#0" id="circle8"/>
	<circle cx="74.3894" cy="120.224" r="4" fill="#0" id="circle9"/>
	<circle cx="77.6634" cy="459.076" r="4" fill="#0" id="circle10"/>
	<circle cx="82.5743" cy="134.957" r="4" fill="#0" id="circle11"/>
	<circle cx="84.2112" cy="53.1089" r="4" fill="#0" id="circle12"/>
	<circle cx="85.8482" cy="385.413" r="4" fill="#0" id="circle13"/>
	<circle cx="85.8482" cy="401.782" r="4" fill="#0" id="circle14"/>
	<circle cx="85.8482" cy="434.521" r="4" fill="#0" id="circle15"/>
	<circle cx="85.8482" cy="473.809" r="4" fill="#0" id="circle16"/>
	<circle cx="85.8482" cy="490.178" r="4" fill="#0" id="circle17"/>
	<circle cx="94.033" cy="148.053" r="4" fill="#0" id="circle18"/>
	<circle cx="94.033" cy="360.858" r="4" fill="#0" id="circle19"/>
	<circle cx="94.033" cy="416.515" r="4" fill="#0" id="circle20"/>
	<circle cx="94.033" cy="504.911" r="4" fill="#0" id="circle21"/>
	<circle cx="100.581" cy="53.1089" r="4" fill="#0" id="circle22"/>
	<circle cx="102.218" cy="162.785" r="4" fill="#0" id="circle23"/>
	<circle cx="102.218" cy="287.195" r="4" fill="#0" id="circle24"/>
	<circle cx="102.218" cy="303.564" r="4" fill="#0" id="circle25"/>
	<circle cx="102.218" cy="319.934" r="4" fill="#0" id="circle26"/>
	<circle cx="102.218" cy="336.304" r="4" fill="#0" id="circle27"/>
	<circle cx="102.218" cy="519.644" r="4" fill="#0" id="circle28"/>
	<circle cx="102.218" cy="536.013" r="4" fill="#0" id="circle29"/>
	<circle cx="105.492" cy="552.383" r="4" fill="#0" id="circle30"/>
	<circle cx="110.403" cy="177.518" r="4" fill="#0" id="circle31"/>
	<circle cx="110.403" cy="193.888" r="4" fill="#0" id="circle32"/>
	<circle cx="110.403" cy="246.271" r="4" fill="#0" id="circle33"/>
	<circle cx="110.403" cy="262.64" r="4" fill="#0" id="circle34"/>
	<circle cx="110.403" cy="568.752" r="4" fill="#0" id="circle35"/>
	<circle cx="112.04" cy="40.0132" r="4" fill="#0" id="circle36"/>
	<circle cx="113.677" cy="585.122" r="4" fill="#0" id="circle37"/>
	<circle cx="118.587" cy="208.62" r="4" fill="#0" id="circle38"/>
	<circle cx="118.587" cy="224.99" r="4" fill="#0" id="circle39"/>
	<circle cx="126.772" cy="594.944" r="4" fill="#0" id="circle40"/>
	<circle cx="128.409" cy="36.7393" r="4" fill="#0" id="circle41"/>
	<circle cx="136.594" cy="608.04" r="4" fill="#0" id="circle42"/>
	<circle cx="138.231" cy="22.0066" r="4" fill="#0" id="circle43"/>
	<circle cx="149.69" cy="619.498" r="4" fill="#0" id="circle44"/>
	<circle cx="154.601" cy="20.3696" r="4" fill="#0" id="circle45"/>
	<circle cx="159.512" cy="632.594" r="4" fill="#0" id="circle46"/>
	<circle cx="167.696" cy="8.91089" r="4" fill="#0" id="circle47"/>
	<circle cx="167.696" cy="647.327" r="4" fill="#0" id="circle48"/>
	<circle cx="167.696" cy="966.535" r="4" fill="#0" id="circle49"/>
	<circle cx="175.881" cy="662.059" r="4" fill="#0" id="circle50"/>
	<circle cx="177.518" cy="979.63" r="4" fill="#0" id="circle51"/>
	<circle cx="184.066" cy="4" r="4" fill="#0" id="circle52"/>
	<circle cx="184.066" cy="961.624" r="4" fill="#0" id="circle53"/>
	<circle cx="187.34" cy="675.155" r="4" fill="#0" id="circle54"/>
	<circle cx="192.251" cy="987.815" r="4" fill="#0" id="circle55"/>
	<circle cx="200.436" cy="4" r="4" fill="#0" id="circle56"/>
	<circle cx="200.436" cy="684.977" r="4" fill="#0" id="circle57"/>
	<circle cx="200.436" cy="961.624" r="4" fill="#0" id="circle58"/>
	<circle cx="208.62" cy="987.815" r="4" fill="#0" id="circle59"/>
	<circle cx="216.805" cy="4" r="4" fill="#0" id="circle60"/>
	<circle cx="216.805" cy="684.977" r="4" fill="#0" id="circle61"/>
	<circle cx="216.805" cy="961.624" r="4" fill="#0" id="circle62"/>
	<circle cx="221.716" cy="701.347" r="4" fill="#0" id="circle63"/>
	<circle cx="224.99" cy="987.815" r="4" fill="#0" id="circle64"/>
	<circle cx="231.538" cy="12.1848" r="4" fill="#0" id="circle65"/>
	<circle cx="233.175" cy="961.624" r="4" fill="#0" id="circle66"/>
	<circle cx="234.812" cy="712.805" r="4" fill="#0" id="circle67"/>
	<circle cx="241.36" cy="729.175" r="4" fill="#0" id="circle68"/>
	<circle cx="241.36" cy="987.815" r="4" fill="#0" id="circle69"/>
	<circle cx="246.271" cy="20.3696" r="4" fill="#0" id="circle70"/>
	<circle cx="249.545" cy="961.624" r="4" fill="#0" id="circle71"/>
	<circle cx="251.182" cy="36.7393" r="4" fill="#0" id="circle72"/>
	<circle cx="257.729" cy="734.086" r="4" fill="#0" id="circle73"/>
	<circle cx="257.729" cy="987.815" r="4" fill="#0" id="circle74"/>
	<circle cx="264.277" cy="46.5611" r="4" fill="#0" id="circle75"/>
	<circle cx="265.914" cy="961.624" r="4" fill="#0" id="circle76"/>
	<circle cx="272.462" cy="742.271" r="4" fill="#0" id="circle77"/>
	<circle cx="274.099" cy="987.815" r="4" fill="#0" id="circle78"/>
	<circle cx="275.736" cy="59.6568" r="4" fill="#0" id="circle79"/>
	<circle cx="280.647" cy="953.439" r="4" fill="#0" id="circle80"/>
	<circle cx="283.921" cy="74.3894" r="4" fill="#0" id="circle81"/>
	<circle cx="287.195" cy="750.455" r="4" fill="#0" id="circle82"/>
	<circle cx="290.469" cy="90.7591" r="4" fill="#0" id="circle83"/>
	<circle cx="290.469" cy="901.056" r="4" fill="#0" id="circle84"/>
	<circle cx="290.469" cy="917.426" r="4" fill="#0" id="circle85"/>
	<circle cx="290.469" cy="933.795" r="4" fill="#0" id="circle86"/>
	<circle cx="290.469" cy="987.815" r="4" fill="#0" id="circle87"/>
	<circle cx="298.653" cy="105.492" r="4" fill="#0" id="circle88"/>
	<circle cx="303.564" cy="750.455" r="4" fill="#0" id="circle89"/>
	<circle cx="305.201" cy="121.861" r="4" fill="#0" id="circle90"/>
	<circle cx="306.838" cy="876.502" r="4" fill="#0" id="circle91"/>
	<circle cx="306.838" cy="892.871" r="4" fill="#0" id="circle92"/>
	<circle cx="306.838" cy="987.815" r="4" fill="#0" id="circle93"/>
	<circle cx="308.475" cy="138.231" r="4" fill="#0" id="circle94"/>
	<circle cx="308.475" cy="154.601" r="4" fill="#0" id="circle95"/>
	<circle cx="308.475" cy="170.97" r="4" fill="#0" id="circle96"/>
	<circle cx="308.475" cy="922.337" r="4" fill="#0" id="circle97"/>
	<circle cx="308.475" cy="938.706" r="4" fill="#0" id="circle98"/>
	<circle cx="308.475" cy="955.076" r="4" fill="#0" id="circle99"/>
	<circle cx="311.749" cy="765.188" r="4" fill="#0" id="circle100"/>
	<circle cx="315.023" cy="860.132" r="4" fill="#0" id="circle101"/>
	<circle cx="318.297" cy="184.066" r="4" fill="#0" id="circle102"/>
	<circle cx="321.571" cy="910.878" r="4" fill="#0" id="circle103"/>
	<circle cx="323.208" cy="778.284" r="4" fill="#0" id="circle104"/>
	<circle cx="323.208" cy="843.762" r="4" fill="#0" id="circle105"/>
	<circle cx="323.208" cy="987.815" r="4" fill="#0" id="circle106"/>
	<circle cx="324.845" cy="200.436" r="4" fill="#0" id="circle107"/>
	<circle cx="324.845" cy="889.597" r="4" fill="#0" id="circle108"/>
	<circle cx="324.845" cy="961.624" r="4" fill="#0" id="circle109"/>
	<circle cx="331.393" cy="793.017" r="4" fill="#0" id="circle110"/>
	<circle cx="331.393" cy="827.393" r="4" fill="#0" id="circle111"/>
	<circle cx="333.03" cy="215.168" r="4" fill="#0" id="circle112"/>
	<circle cx="339.578" cy="807.749" r="4" fill="#0" id="circle113"/>
	<circle cx="339.578" cy="982.904" r="4" fill="#0" id="circle114"/>
	<circle cx="341.215" cy="229.901" r="4" fill="#0" id="circle115"/>
	<circle cx="341.215" cy="246.271" r="4" fill="#0" id="circle116"/>
	<circle cx="341.215" cy="262.64" r="4" fill="#0" id="circle117"/>
	<circle cx="341.215" cy="873.228" r="4" fill="#0" id="circle118"/>
	<circle cx="341.215" cy="961.624" r="4" fill="#0" id="circle119"/>
	<circle cx="349.399" cy="277.373" r="4" fill="#0" id="circle120"/>
	<circle cx="349.399" cy="856.858" r="4" fill="#0" id="circle121"/>
	<circle cx="354.31" cy="293.743" r="4" fill="#0" id="circle122"/>
	<circle cx="362.495" cy="845.399" r="4" fill="#0" id="circle123"/>
	<circle cx="365.769" cy="306.838" r="4" fill="#0" id="circle124"/>
	<circle cx="365.769" cy="824.119" r="4" fill="#0" id="circle125"/>
	<circle cx="373.954" cy="321.571" r="4" fill="#0" id="circle126"/>
	<circle cx="382.139" cy="336.304" r="4" fill="#0" id="circle127"/>
	<circle cx="382.139" cy="824.119" r="4" fill="#0" id="circle128"/>
	<circle cx="393.597" cy="349.399" r="4" fill="#0" id="circle129"/>
	<circle cx="396.871" cy="832.304" r="4" fill="#0" id="circle130"/>
	<circle cx="405.056" cy="847.036" r="4" fill="#0" id="circle131"/>
	<circle cx="406.693" cy="360.858" r="4" fill="#0" id="circle132"/>
	<circle cx="414.878" cy="860.132" r="4" fill="#0" id="circle133"/>
	<circle cx="418.152" cy="373.954" r="4" fill="#0" id="circle134"/>
	<circle cx="426.337" cy="873.228" r="4" fill="#0" id="circle135"/>
	<circle cx="431.248" cy="385.413" r="4" fill="#0" id="circle136"/>
	<circle cx="439.432" cy="884.686" r="4" fill="#0" id="circle137"/>
	<circle cx="442.706" cy="398.508" r="4" fill="#0" id="circle138"/>
	<circle cx="450.891" cy="413.241" r="4" fill="#0" id="circle139"/>
	<circle cx="454.165" cy="892.871" r="4" fill="#0" id="circle140"/>
	<circle cx="462.35" cy="426.337" r="4" fill="#0" id="circle141"/>
	<circle cx="462.35" cy="907.604" r="4" fill="#0" id="circle142"/>
	<circle cx="470.535" cy="441.069" r="4" fill="#0" id="circle143"/>
	<circle cx="470.535" cy="922.337" r="4" fill="#0" id="circle144"/>
	<circle cx="480.356" cy="454.165" r="4" fill="#0" id="circle145"/>
	<circle cx="480.356" cy="935.432" r="4" fill="#0" id="circle146"/>
	<circle cx="488.541" cy="468.898" r="4" fill="#0" id="circle147"/>
	<circle cx="488.541" cy="799.564" r="4" fill="#0" id="circle148"/>
	<circle cx="488.541" cy="815.934" r="4" fill="#0" id="circle149"/>
	<circle cx="493.452" cy="946.891" r="4" fill="#0" id="circle150"/>
	<circle cx="496.726" cy="783.195" r="4" fill="#0" id="circle151"/>
	<circle cx="496.726" cy="830.667" r="4" fill="#0" id="circle152"/>
	<circle cx="504.911" cy="475.446" r="4" fill="#0" id="circle153"/>
	<circle cx="504.911" cy="845.399" r="4" fill="#0" id="circle154"/>
	<circle cx="504.911" cy="959.987" r="4" fill="#0" id="circle155"/>
	<circle cx="511.459" cy="491.815" r="4" fill="#0" id="circle156"/>
	<circle cx="511.459" cy="775.01" r="4" fill="#0" id="circle157"/>
	<circle cx="513.096" cy="860.132" r="4" fill="#0" id="circle158"/>
	<circle cx="518.007" cy="971.446" r="4" fill="#0" id="circle159"/>
	<circle cx="521.281" cy="504.911" r="4" fill="#0" id="circle160"/>
	<circle cx="521.281" cy="874.865" r="4" fill="#0" id="circle161"/>
	<circle cx="526.191" cy="891.234" r="4" fill="#0" id="circle162"/>
	<circle cx="527.828" cy="775.01" r="4" fill="#0" id="circle163"/>
	<circle cx="529.465" cy="519.644" r="4" fill="#0" id="circle164"/>
	<circle cx="529.465" cy="984.541" r="4" fill="#0" id="circle165"/>
	<circle cx="537.65" cy="534.376" r="4" fill="#0" id="circle166"/>
	<circle cx="537.65" cy="904.33" r="4" fill="#0" id="circle167"/>
	<circle cx="537.65" cy="920.7" r="4" fill="#0" id="circle168"/>
	<circle cx="542.561" cy="996" r="4" fill="#0" id="circle169"/>
	<circle cx="544.198" cy="775.01" r="4" fill="#0" id="circle170"/>
	<circle cx="545.835" cy="935.432" r="4" fill="#0" id="circle171"/>
	<circle cx="554.02" cy="540.924" r="4" fill="#0" id="circle172"/>
	<circle cx="558.931" cy="946.891" r="4" fill="#0" id="circle173"/>
	<circle cx="558.931" cy="996" r="4" fill="#0" id="circle174"/>
	<circle cx="560.568" cy="775.01" r="4" fill="#0" id="circle175"/>
	<circle cx="562.205" cy="963.261" r="4" fill="#0" id="circle176"/>
	<circle cx="565.479" cy="554.02" r="4" fill="#0" id="circle177"/>
	<circle cx="570.389" cy="977.993" r="4" fill="#0" id="circle178"/>
	<circle cx="575.3" cy="783.195" r="4" fill="#0" id="circle179"/>
	<circle cx="578.574" cy="565.479" r="4" fill="#0" id="circle180"/>
	<circle cx="585.122" cy="581.848" r="4" fill="#0" id="circle181"/>
	<circle cx="591.67" cy="783.195" r="4" fill="#0" id="circle182"/>
	<circle cx="594.944" cy="594.944" r="4" fill="#0" id="circle183"/>
	<circle cx="603.129" cy="609.677" r="4" fill="#0" id="circle184"/>
	<circle cx="606.403" cy="791.38" r="4" fill="#0" id="circle185"/>
	<circle cx="616.224" cy="619.498" r="4" fill="#0" id="circle186"/>
	<circle cx="622.772" cy="635.868" r="4" fill="#0" id="circle187"/>
	<circle cx="622.772" cy="797.927" r="4" fill="#0" id="circle188"/>
	<circle cx="635.868" cy="647.327" r="4" fill="#0" id="circle189"/>
	<circle cx="637.505" cy="806.112" r="4" fill="#0" id="circle190"/>
	<circle cx="642.416" cy="663.696" r="4" fill="#0" id="circle191"/>
	<circle cx="653.875" cy="807.749" r="4" fill="#0" id="circle192"/>
	<circle cx="655.512" cy="675.155" r="4" fill="#0" id="circle193"/>
	<circle cx="660.422" cy="691.525" r="4" fill="#0" id="circle194"/>
	<circle cx="668.607" cy="706.257" r="4" fill="#0" id="circle195"/>
	<circle cx="670.244" cy="812.66" r="4" fill="#0" id="circle196"/>
	<circle cx="684.977" cy="712.805" r="4" fill="#0" id="circle197"/>
	<circle cx="686.614" cy="815.934" r="4" fill="#0" id="circle198"/>
	<circle cx="691.525" cy="729.175" r="4" fill="#0" id="circle199"/>
	<circle cx="702.983" cy="820.845" r="4" fill="#0" id="circle200"/>
	<circle cx="707.894" cy="735.723" r="4" fill="#0" id="circle201"/>
	<circle cx="717.716" cy="748.818" r="4" fill="#0" id="circle202"/>
	<circle cx="719.353" cy="824.119" r="4" fill="#0" id="circle203"/>
	<circle cx="730.812" cy="758.64" r="4" fill="#0" id="circle204"/>
	<circle cx="732.449" cy="833.941" r="4" fill="#0" id="circle205"/>
	<circle cx="742.271" cy="771.736" r="4" fill="#0" id="circle206"/>
	<circle cx="743.908" cy="847.036" r="4" fill="#0" id="circle207"/>
	<circle cx="755.366" cy="783.195" r="4" fill="#0" id="circle208"/>
	<circle cx="757.003" cy="856.858" r="4" fill="#0" id="circle209"/>
	<circle cx="766.825" cy="796.29" r="4" fill="#0" id="circle210"/>
	<circle cx="771.736" cy="865.043" r="4" fill="#0" id="circle211"/>
	<circle cx="779.921" cy="807.749" r="4" fill="#0" id="circle212"/>
	<circle cx="783.195" cy="878.139" r="4" fill="#0" id="circle213"/>
	<circle cx="791.38" cy="820.845" r="4" fill="#0" id="circle214"/>
	<circle cx="796.29" cy="889.597" r="4" fill="#0" id="circle215"/>
	<circle cx="807.749" cy="827.393" r="4" fill="#0" id="circle216"/>
	<circle cx="811.023" cy="897.782" r="4" fill="#0" id="circle217"/>
	<circle cx="819.208" cy="840.488" r="4" fill="#0" id="circle218"/>
	<circle cx="824.119" cy="909.241" r="4" fill="#0" id="circle219"/>
	<circle cx="832.304" cy="851.947" r="4" fill="#0" id="circle220"/>
	<circle cx="835.578" cy="922.337" r="4" fill="#0" id="circle221"/>
	<circle cx="847.036" cy="860.132" r="4" fill="#0" id="circle222"/>
	<circle cx="851.947" cy="928.884" r="4" fill="#0" id="circle223"/>
	<circle cx="855.221" cy="874.865" r="4" fill="#0" id="circle224"/>
	<circle cx="865.043" cy="887.96" r="4" fill="#0" id="circle225"/>
	<circle cx="865.043" cy="938.706" r="4" fill="#0" id="circle226"/>
	<circle cx="879.776" cy="946.891" r="4" fill="#0" id="circle227"/>
	<circle cx="881.413" cy="892.871" r="4" fill="#0" id="circle228"/>
	<circle cx="884.686" cy="963.261" r="4" fill="#0" id="circle229"/>
	<circle cx="887.96" cy="909.241" r="4" fill="#0" id="circle230"/>
	<circle cx="901.056" cy="920.7" r="4" fill="#0" id="circle231"/>
	<circle cx="901.056" cy="963.261" r="4" fill="#0" id="circle232"/>
	<circle cx="912.515" cy="933.795" r="4" fill="#0" id="circle233"/>
	<circle cx="915.789" cy="971.446" r="4" fill="#0" id="circle234"/>
	<circle cx="928.884" cy="937.069" r="4" fill="#0" id="circle235"/>
	<circle cx="930.521" cy="979.63" r="4" fill="#0" id="circle236"/>
	<circle cx="941.98" cy="946.891" r="4" fill="#0" id="circle237"/>
	<circle cx="946.891" cy="982.904" r="4" fill="#0" id="circle238"/>
	<circle cx="950.165" cy="961.624" r="4" fill="#0" id="circle239"/>
	<circle cx="963.261" cy="971.446" r="4" fill="#0" id="circle240"/>
	</g>
</svg>