<?xml version="1.0" encoding="UTF-8" standalone="no"?>
<!-- Created with CurveBenchmark -->
<svg
	xmlns:dc="http://purl.org/dc/elements/1.1/"
	xmlns:cc="http://creativecommons.org/ns#"
	xmlns:rdf="http://www.w3.org/1999/02/22-rdf-syntax-ns#"
	xmlns:svg="http://www.w3.org/2000/svg"
	xmlns="http://www.w3.org/2000/svg"
	xmlns:sodipodi="http://sodipodi.sourceforge.net/DTD/sodipodi-0.dtd"
	xmlns:inkscape="http://www.inkscape.org/namespaces/inkscape"
	width="1000"
	height="1000"
	id="svg2"
	version="1.1"
	sodipodi:docname="manifold/gathang-woodenspoonbinary55.png.txt">
<defs
	id="defs4" />
<metadata
	id="metadata7">
	<rdf:RDF>
		<cc:Work
			rdf:about="">
			<dc:format>image/svg+xml</dc:format>
			<dc:type
				rdf:resource="http://purl.org/dc/dcmitype/StillImage" />
			<dc:title></dc:title>
		</cc:Work>
	</rdf:RDF>
</metadata>
<g
	inkscape:label="Layer 1"
	inkscape:groupmode="layer"
	id="layer1">
	<path style="fill:none;stroke:red;stroke-width:1px;stroke-linecap:butt;stroke-linejoin:miter;stroke-opacity:1" d="M 92.6819,86.4948 92.6819,107.119 z" id="boundary" inkscape:connector-curvature="0" />
	<path style="fill:none;stroke:red;stroke-width:1px;stroke-linecap:butt;stroke-linejoin:miter;stroke-opacity:1" d="M 92.6819,127.742 92.6819,148.366 z" id="boundary" inkscape:connector-curvature="0" />
	<path style="fill:none;stroke:red;stroke-width:1px;stroke-linecap:butt;stroke-linejoin:miter;stroke-opacity:1" d="M 92.6819,168.99 92.6819,148.366 z" id="boundary" inkscape:connector-curvature="0" />
	<path style="fill:none;stroke:red;stroke-width:1px;stroke-linecap:butt;stroke-linejoin:miter;stroke-opacity:1" d="M 92.6819,127.742 92.6819,107.119 z" id="boundary" inkscape:connector-curvature="0" />
	<path style="fill:none;stroke:red;stroke-width:1px;stroke-linecap:butt;stroke-linejoin:miter;stroke-opacity:1" d="M 90.6195,255.609 90.6195,276.233 z" id="boundary" inkscape:connector-curvature="0" />
	<path style="fill:none;stroke:red;stroke-width:1px;stroke-linecap:butt;stroke-linejoin:miter;stroke-opacity:1" d="M 90.6195,296.857 90.6195,276.233 z" id="boundary" inkscape:connector-curvature="0" />
	<path style="fill:none;stroke:red;stroke-width:1px;stroke-linecap:butt;stroke-linejoin:miter;stroke-opacity:1" d="M 90.6195,317.48 90.6195,338.104 z" id="boundary" inkscape:connector-curvature="0" />
	<path style="fill:none;stroke:red;stroke-width:1px;stroke-linecap:butt;stroke-linejoin:miter;stroke-opacity:1" d="M 90.6195,358.728 90.6195,338.104 z" id="boundary" inkscape:connector-curvature="0" />
	<path style="fill:none;stroke:red;stroke-width:1px;stroke-linecap:butt;stroke-linejoin:miter;stroke-opacity:1" d="M 92.6819,379.351 90.6195,358.728 z" id="boundary" inkscape:connector-curvature="0" />
	<path style="fill:none;stroke:red;stroke-width:1px;stroke-linecap:butt;stroke-linejoin:miter;stroke-opacity:1" d="M 90.6195,296.857 90.6195,317.48 z" id="boundary" inkscape:connector-curvature="0" />
	<path style="fill:none;stroke:red;stroke-width:1px;stroke-linecap:butt;stroke-linejoin:miter;stroke-opacity:1" d="M 92.6819,168.99 92.6819,189.613 z" id="boundary" inkscape:connector-curvature="0" />
	<path style="fill:none;stroke:red;stroke-width:1px;stroke-linecap:butt;stroke-linejoin:miter;stroke-opacity:1" d="M 92.6819,189.613 92.6819,210.237 z" id="boundary" inkscape:connector-curvature="0" />
	<path style="fill:none;stroke:red;stroke-width:1px;stroke-linecap:butt;stroke-linejoin:miter;stroke-opacity:1" d="M 92.6819,230.861 92.6819,210.237 z" id="boundary" inkscape:connector-curvature="0" />
	<path style="fill:none;stroke:red;stroke-width:1px;stroke-linecap:butt;stroke-linejoin:miter;stroke-opacity:1" d="M 92.6819,230.861 90.6195,255.609 z" id="boundary" inkscape:connector-curvature="0" />
	<path style="fill:none;stroke:red;stroke-width:1px;stroke-linecap:butt;stroke-linejoin:miter;stroke-opacity:1" d="M 92.6819,399.975 92.6819,379.351 z" id="boundary" inkscape:connector-curvature="0" />
	<path style="fill:none;stroke:red;stroke-width:1px;stroke-linecap:butt;stroke-linejoin:miter;stroke-opacity:1" d="M 92.6819,86.4948 96.8067,59.684 z" id="boundary" inkscape:connector-curvature="0" />
	<path style="fill:none;stroke:red;stroke-width:1px;stroke-linecap:butt;stroke-linejoin:miter;stroke-opacity:1" d="M 92.6819,399.975 94.7443,420.599 z" id="boundary" inkscape:connector-curvature="0" />
	<path style="fill:none;stroke:red;stroke-width:1px;stroke-linecap:butt;stroke-linejoin:miter;stroke-opacity:1" d="M 94.7443,420.599 94.7443,441.222 z" id="boundary" inkscape:connector-curvature="0" />
	<path style="fill:none;stroke:red;stroke-width:1px;stroke-linecap:butt;stroke-linejoin:miter;stroke-opacity:1" d="M 94.7443,441.222 94.7443,461.846 z" id="boundary" inkscape:connector-curvature="0" />
	<path style="fill:none;stroke:red;stroke-width:1px;stroke-linecap:butt;stroke-linejoin:miter;stroke-opacity:1" d="M 94.7443,503.094 94.7443,482.47 z" id="boundary" inkscape:connector-curvature="0" />
	<path style="fill:none;stroke:red;stroke-width:1px;stroke-linecap:butt;stroke-linejoin:miter;stroke-opacity:1" d="M 90.6195,531.967 94.7443,503.094 z" id="boundary" inkscape:connector-curvature="0" />
	<path style="fill:none;stroke:red;stroke-width:1px;stroke-linecap:butt;stroke-linejoin:miter;stroke-opacity:1" d="M 94.7443,461.846 94.7443,482.47 z" id="boundary" inkscape:connector-curvature="0" />
	<path style="fill:none;stroke:red;stroke-width:1px;stroke-linecap:butt;stroke-linejoin:miter;stroke-opacity:1" d="M 4,839.26 4,818.636 z" id="boundary" inkscape:connector-curvature="0" />
	<path style="fill:none;stroke:red;stroke-width:1px;stroke-linecap:butt;stroke-linejoin:miter;stroke-opacity:1" d="M 8.12474,793.888 4,818.636 z" id="boundary" inkscape:connector-curvature="0" />
	<path style="fill:none;stroke:red;stroke-width:1px;stroke-linecap:butt;stroke-linejoin:miter;stroke-opacity:1" d="M 22.5613,744.391 14.3119,767.077 z" id="boundary" inkscape:connector-curvature="0" />
	<path style="fill:none;stroke:red;stroke-width:1px;stroke-linecap:butt;stroke-linejoin:miter;stroke-opacity:1" d="M 30.8108,721.705 22.5613,744.391 z" id="boundary" inkscape:connector-curvature="0" />
	<path style="fill:none;stroke:red;stroke-width:1px;stroke-linecap:butt;stroke-linejoin:miter;stroke-opacity:1" d="M 39.0603,696.956 30.8108,721.705 z" id="boundary" inkscape:connector-curvature="0" />
	<path style="fill:none;stroke:red;stroke-width:1px;stroke-linecap:butt;stroke-linejoin:miter;stroke-opacity:1" d="M 4,859.884 4,839.26 z" id="boundary" inkscape:connector-curvature="0" />
	<path style="fill:none;stroke:red;stroke-width:1px;stroke-linecap:butt;stroke-linejoin:miter;stroke-opacity:1" d="M 14.3119,767.077 8.12474,793.888 z" id="boundary" inkscape:connector-curvature="0" />
	<path style="fill:none;stroke:red;stroke-width:1px;stroke-linecap:butt;stroke-linejoin:miter;stroke-opacity:1" d="M 8.12474,901.131 4,880.507 z" id="boundary" inkscape:connector-curvature="0" />
	<path style="fill:none;stroke:red;stroke-width:1px;stroke-linecap:butt;stroke-linejoin:miter;stroke-opacity:1" d="M 4,880.507 4,859.884 z" id="boundary" inkscape:connector-curvature="0" />
	<path style="fill:none;stroke:red;stroke-width:1px;stroke-linecap:butt;stroke-linejoin:miter;stroke-opacity:1" d="M 22.5613,940.316 12.2495,921.755 z" id="boundary" inkscape:connector-curvature="0" />
	<path style="fill:none;stroke:red;stroke-width:1px;stroke-linecap:butt;stroke-linejoin:miter;stroke-opacity:1" d="M 12.2495,921.755 8.12474,901.131 z" id="boundary" inkscape:connector-curvature="0" />
	<path style="fill:none;stroke:red;stroke-width:1px;stroke-linecap:butt;stroke-linejoin:miter;stroke-opacity:1" d="M 34.9356,956.815 22.5613,940.316 z" id="boundary" inkscape:connector-curvature="0" />
	<path style="fill:none;stroke:red;stroke-width:1px;stroke-linecap:butt;stroke-linejoin:miter;stroke-opacity:1" d="M 49.3721,672.208 57.6216,651.584 z" id="boundary" inkscape:connector-curvature="0" />
	<path style="fill:none;stroke:red;stroke-width:1px;stroke-linecap:butt;stroke-linejoin:miter;stroke-opacity:1" d="M 65.8711,630.96 57.6216,651.584 z" id="boundary" inkscape:connector-curvature="0" />
	<path style="fill:none;stroke:red;stroke-width:1px;stroke-linecap:butt;stroke-linejoin:miter;stroke-opacity:1" d="M 76.183,606.212 65.8711,630.96 z" id="boundary" inkscape:connector-curvature="0" />
	<path style="fill:none;stroke:red;stroke-width:1px;stroke-linecap:butt;stroke-linejoin:miter;stroke-opacity:1" d="M 82.3701,581.464 76.183,606.212 z" id="boundary" inkscape:connector-curvature="0" />
	<path style="fill:none;stroke:red;stroke-width:1px;stroke-linecap:butt;stroke-linejoin:miter;stroke-opacity:1" d="M 90.6195,531.967 88.5572,552.59 z" id="boundary" inkscape:connector-curvature="0" />
	<path style="fill:none;stroke:red;stroke-width:1px;stroke-linecap:butt;stroke-linejoin:miter;stroke-opacity:1" d="M 88.5572,552.59 82.3701,581.464 z" id="boundary" inkscape:connector-curvature="0" />
	<path style="fill:none;stroke:red;stroke-width:1px;stroke-linecap:butt;stroke-linejoin:miter;stroke-opacity:1" d="M 49.3721,672.208 39.0603,696.956 z" id="boundary" inkscape:connector-curvature="0" />
	<path style="fill:none;stroke:red;stroke-width:1px;stroke-linecap:butt;stroke-linejoin:miter;stroke-opacity:1" d="M 111.243,993.938 90.6195,989.813 z" id="boundary" inkscape:connector-curvature="0" />
	<path style="fill:none;stroke:red;stroke-width:1px;stroke-linecap:butt;stroke-linejoin:miter;stroke-opacity:1" d="M 90.6195,989.813 69.9958,981.563 z" id="boundary" inkscape:connector-curvature="0" />
	<path style="fill:none;stroke:red;stroke-width:1px;stroke-linecap:butt;stroke-linejoin:miter;stroke-opacity:1" d="M 69.9958,981.563 51.4345,971.252 z" id="boundary" inkscape:connector-curvature="0" />
	<path style="fill:none;stroke:red;stroke-width:1px;stroke-linecap:butt;stroke-linejoin:miter;stroke-opacity:1" d="M 51.4345,971.252 34.9356,956.815 z" id="boundary" inkscape:connector-curvature="0" />
	<path style="fill:none;stroke:red;stroke-width:1px;stroke-linecap:butt;stroke-linejoin:miter;stroke-opacity:1" d="M 96.8067,59.684 105.056,39.0603 z" id="boundary" inkscape:connector-curvature="0" />
	<path style="fill:none;stroke:red;stroke-width:1px;stroke-linecap:butt;stroke-linejoin:miter;stroke-opacity:1" d="M 119.493,22.5613 135.992,10.1871 z" id="boundary" inkscape:connector-curvature="0" />
	<path style="fill:none;stroke:red;stroke-width:1px;stroke-linecap:butt;stroke-linejoin:miter;stroke-opacity:1" d="M 135.992,10.1871 156.615,4 z" id="boundary" inkscape:connector-curvature="0" />
	<path style="fill:none;stroke:red;stroke-width:1px;stroke-linecap:butt;stroke-linejoin:miter;stroke-opacity:1" d="M 156.615,4 175.177,14.3119 z" id="boundary" inkscape:connector-curvature="0" />
	<path style="fill:none;stroke:red;stroke-width:1px;stroke-linecap:butt;stroke-linejoin:miter;stroke-opacity:1" d="M 175.177,333.979 175.177,354.603 z" id="boundary" inkscape:connector-curvature="0" />
	<path style="fill:none;stroke:red;stroke-width:1px;stroke-linecap:butt;stroke-linejoin:miter;stroke-opacity:1" d="M 177.239,226.736 175.177,265.921 z" id="boundary" inkscape:connector-curvature="0" />
	<path style="fill:none;stroke:red;stroke-width:1px;stroke-linecap:butt;stroke-linejoin:miter;stroke-opacity:1" d="M 173.114,406.162 173.114,385.538 z" id="boundary" inkscape:connector-curvature="0" />
	<path style="fill:none;stroke:red;stroke-width:1px;stroke-linecap:butt;stroke-linejoin:miter;stroke-opacity:1" d="M 173.114,385.538 175.177,354.603 z" id="boundary" inkscape:connector-curvature="0" />
	<path style="fill:none;stroke:red;stroke-width:1px;stroke-linecap:butt;stroke-linejoin:miter;stroke-opacity:1" d="M 168.99,463.909 171.052,484.532 z" id="boundary" inkscape:connector-curvature="0" />
	<path style="fill:none;stroke:red;stroke-width:1px;stroke-linecap:butt;stroke-linejoin:miter;stroke-opacity:1" d="M 171.052,484.532 168.99,511.343 z" id="boundary" inkscape:connector-curvature="0" />
	<path style="fill:none;stroke:red;stroke-width:1px;stroke-linecap:butt;stroke-linejoin:miter;stroke-opacity:1" d="M 173.114,552.59 168.99,531.967 z" id="boundary" inkscape:connector-curvature="0" />
	<path style="fill:none;stroke:red;stroke-width:1px;stroke-linecap:butt;stroke-linejoin:miter;stroke-opacity:1" d="M 168.99,531.967 168.99,511.343 z" id="boundary" inkscape:connector-curvature="0" />
	<path style="fill:none;stroke:red;stroke-width:1px;stroke-linecap:butt;stroke-linejoin:miter;stroke-opacity:1" d="M 168.99,463.909 173.114,426.786 z" id="boundary" inkscape:connector-curvature="0" />
	<path style="fill:none;stroke:red;stroke-width:1px;stroke-linecap:butt;stroke-linejoin:miter;stroke-opacity:1" d="M 173.114,426.786 173.114,406.162 z" id="boundary" inkscape:connector-curvature="0" />
	<path style="fill:none;stroke:red;stroke-width:1px;stroke-linecap:butt;stroke-linejoin:miter;stroke-opacity:1" d="M 175.177,265.921 175.177,286.545 z" id="boundary" inkscape:connector-curvature="0" />
	<path style="fill:none;stroke:red;stroke-width:1px;stroke-linecap:butt;stroke-linejoin:miter;stroke-opacity:1" d="M 179.301,164.865 183.426,140.116 z" id="boundary" inkscape:connector-curvature="0" />
	<path style="fill:none;stroke:red;stroke-width:1px;stroke-linecap:butt;stroke-linejoin:miter;stroke-opacity:1" d="M 179.301,185.489 179.301,164.865 z" id="boundary" inkscape:connector-curvature="0" />
	<path style="fill:none;stroke:red;stroke-width:1px;stroke-linecap:butt;stroke-linejoin:miter;stroke-opacity:1" d="M 179.301,185.489 177.239,206.112 z" id="boundary" inkscape:connector-curvature="0" />
	<path style="fill:none;stroke:red;stroke-width:1px;stroke-linecap:butt;stroke-linejoin:miter;stroke-opacity:1" d="M 189.613,63.8087 185.489,100.931 z" id="boundary" inkscape:connector-curvature="0" />
	<path style="fill:none;stroke:red;stroke-width:1px;stroke-linecap:butt;stroke-linejoin:miter;stroke-opacity:1" d="M 185.489,100.931 183.426,140.116 z" id="boundary" inkscape:connector-curvature="0" />
	<path style="fill:none;stroke:red;stroke-width:1px;stroke-linecap:butt;stroke-linejoin:miter;stroke-opacity:1" d="M 189.613,63.8087 189.613,30.8108 z" id="boundary" inkscape:connector-curvature="0" />
	<path style="fill:none;stroke:red;stroke-width:1px;stroke-linecap:butt;stroke-linejoin:miter;stroke-opacity:1" d="M 175.177,14.3119 189.613,30.8108 z" id="boundary" inkscape:connector-curvature="0" />
	<path style="fill:none;stroke:red;stroke-width:1px;stroke-linecap:butt;stroke-linejoin:miter;stroke-opacity:1" d="M 175.177,286.545 177.239,307.168 z" id="boundary" inkscape:connector-curvature="0" />
	<path style="fill:none;stroke:red;stroke-width:1px;stroke-linecap:butt;stroke-linejoin:miter;stroke-opacity:1" d="M 177.239,307.168 175.177,333.979 z" id="boundary" inkscape:connector-curvature="0" />
	<path style="fill:none;stroke:red;stroke-width:1px;stroke-linecap:butt;stroke-linejoin:miter;stroke-opacity:1" d="M 177.239,226.736 177.239,206.112 z" id="boundary" inkscape:connector-curvature="0" />
	<path style="fill:none;stroke:red;stroke-width:1px;stroke-linecap:butt;stroke-linejoin:miter;stroke-opacity:1" d="M 183.426,593.838 177.239,573.214 z" id="boundary" inkscape:connector-curvature="0" />
	<path style="fill:none;stroke:red;stroke-width:1px;stroke-linecap:butt;stroke-linejoin:miter;stroke-opacity:1" d="M 177.239,573.214 173.114,552.59 z" id="boundary" inkscape:connector-curvature="0" />
	<path style="fill:none;stroke:red;stroke-width:1px;stroke-linecap:butt;stroke-linejoin:miter;stroke-opacity:1" d="M 183.426,593.838 189.613,614.462 z" id="boundary" inkscape:connector-curvature="0" />
	<path style="fill:none;stroke:red;stroke-width:1px;stroke-linecap:butt;stroke-linejoin:miter;stroke-opacity:1" d="M 197.863,635.085 204.05,655.709 z" id="boundary" inkscape:connector-curvature="0" />
	<path style="fill:none;stroke:red;stroke-width:1px;stroke-linecap:butt;stroke-linejoin:miter;stroke-opacity:1" d="M 197.863,635.085 189.613,614.462 z" id="boundary" inkscape:connector-curvature="0" />
	<path style="fill:none;stroke:red;stroke-width:1px;stroke-linecap:butt;stroke-linejoin:miter;stroke-opacity:1" d="M 214.362,674.27 204.05,655.709 z" id="boundary" inkscape:connector-curvature="0" />
	<path style="fill:none;stroke:red;stroke-width:1px;stroke-linecap:butt;stroke-linejoin:miter;stroke-opacity:1" d="M 224.674,692.832 214.362,674.27 z" id="boundary" inkscape:connector-curvature="0" />
	<path style="fill:none;stroke:red;stroke-width:1px;stroke-linecap:butt;stroke-linejoin:miter;stroke-opacity:1" d="M 152.491,991.875 131.867,996 z" id="boundary" inkscape:connector-curvature="0" />
	<path style="fill:none;stroke:red;stroke-width:1px;stroke-linecap:butt;stroke-linejoin:miter;stroke-opacity:1" d="M 131.867,996 111.243,993.938 z" id="boundary" inkscape:connector-curvature="0" />
	<path style="fill:none;stroke:red;stroke-width:1px;stroke-linecap:butt;stroke-linejoin:miter;stroke-opacity:1" d="M 193.738,981.563 173.114,987.751 z" id="boundary" inkscape:connector-curvature="0" />
	<path style="fill:none;stroke:red;stroke-width:1px;stroke-linecap:butt;stroke-linejoin:miter;stroke-opacity:1" d="M 228.798,952.69 212.299,971.252 z" id="boundary" inkscape:connector-curvature="0" />
	<path style="fill:none;stroke:red;stroke-width:1px;stroke-linecap:butt;stroke-linejoin:miter;stroke-opacity:1" d="M 212.299,971.252 193.738,981.563 z" id="boundary" inkscape:connector-curvature="0" />
	<path style="fill:none;stroke:red;stroke-width:1px;stroke-linecap:butt;stroke-linejoin:miter;stroke-opacity:1" d="M 173.114,987.751 152.491,991.875 z" id="boundary" inkscape:connector-curvature="0" />
	<path style="fill:none;stroke:red;stroke-width:1px;stroke-linecap:butt;stroke-linejoin:miter;stroke-opacity:1" d="M 230.861,713.455 237.048,734.079 z" id="boundary" inkscape:connector-curvature="0" />
	<path style="fill:none;stroke:red;stroke-width:1px;stroke-linecap:butt;stroke-linejoin:miter;stroke-opacity:1" d="M 230.861,713.455 224.674,692.832 z" id="boundary" inkscape:connector-curvature="0" />
	<path style="fill:none;stroke:red;stroke-width:1px;stroke-linecap:butt;stroke-linejoin:miter;stroke-opacity:1" d="M 237.048,734.079 241.173,754.703 z" id="boundary" inkscape:connector-curvature="0" />
	<path style="fill:none;stroke:red;stroke-width:1px;stroke-linecap:butt;stroke-linejoin:miter;stroke-opacity:1" d="M 241.173,754.703 249.422,775.326 z" id="boundary" inkscape:connector-curvature="0" />
	<path style="fill:none;stroke:red;stroke-width:1px;stroke-linecap:butt;stroke-linejoin:miter;stroke-opacity:1" d="M 249.422,775.326 253.547,795.95 z" id="boundary" inkscape:connector-curvature="0" />
	<path style="fill:none;stroke:red;stroke-width:1px;stroke-linecap:butt;stroke-linejoin:miter;stroke-opacity:1" d="M 257.672,816.574 259.734,837.198 z" id="boundary" inkscape:connector-curvature="0" />
	<path style="fill:none;stroke:red;stroke-width:1px;stroke-linecap:butt;stroke-linejoin:miter;stroke-opacity:1" d="M 253.547,795.95 257.672,816.574 z" id="boundary" inkscape:connector-curvature="0" />
	<path style="fill:none;stroke:red;stroke-width:1px;stroke-linecap:butt;stroke-linejoin:miter;stroke-opacity:1" d="M 241.173,934.129 228.798,952.69 z" id="boundary" inkscape:connector-curvature="0" />
	<path style="fill:none;stroke:red;stroke-width:1px;stroke-linecap:butt;stroke-linejoin:miter;stroke-opacity:1" d="M 251.484,909.38 241.173,934.129 z" id="boundary" inkscape:connector-curvature="0" />
	<path style="fill:none;stroke:red;stroke-width:1px;stroke-linecap:butt;stroke-linejoin:miter;stroke-opacity:1" d="M 257.672,876.383 251.484,909.38 z" id="boundary" inkscape:connector-curvature="0" />
	<path style="fill:none;stroke:red;stroke-width:1px;stroke-linecap:butt;stroke-linejoin:miter;stroke-opacity:1" d="M 259.734,837.198 257.672,876.383 z" id="boundary" inkscape:connector-curvature="0" />
	<path style="fill:none;stroke:red;stroke-width:1px;stroke-linecap:butt;stroke-linejoin:miter;stroke-opacity:1" d="M 105.056,39.0603 119.493,22.5613 z" id="boundary" inkscape:connector-curvature="0" />
	<circle cx="4" cy="818.636" r="4" fill="#0" id="circle0"/>
	<circle cx="4" cy="839.26" r="4" fill="#0" id="circle1"/>
	<circle cx="4" cy="859.884" r="4" fill="#0" id="circle2"/>
	<circle cx="4" cy="880.507" r="4" fill="#0" id="circle3"/>
	<circle cx="8.12474" cy="793.888" r="4" fill="#0" id="circle4"/>
	<circle cx="8.12474" cy="901.131" r="4" fill="#0" id="circle5"/>
	<circle cx="12.2495" cy="921.755" r="4" fill="#0" id="circle6"/>
	<circle cx="14.3119" cy="767.077" r="4" fill="#0" id="circle7"/>
	<circle cx="22.5613" cy="744.391" r="4" fill="#0" id="circle8"/>
	<circle cx="22.5613" cy="940.316" r="4" fill="#0" id="circle9"/>
	<circle cx="30.8108" cy="721.705" r="4" fill="#0" id="circle10"/>
	<circle cx="34.9356" cy="956.815" r="4" fill="#0" id="circle11"/>
	<circle cx="39.0603" cy="696.956" r="4" fill="#0" id="circle12"/>
	<circle cx="49.3721" cy="672.208" r="4" fill="#0" id="circle13"/>
	<circle cx="51.4345" cy="971.252" r="4" fill="#0" id="circle14"/>
	<circle cx="57.6216" cy="651.584" r="4" fill="#0" id="circle15"/>
	<circle cx="65.8711" cy="630.96" r="4" fill="#0" id="circle16"/>
	<circle cx="69.9958" cy="981.563" r="4" fill="#0" id="circle17"/>
	<circle cx="76.183" cy="606.212" r="4" fill="#0" id="circle18"/>
	<circle cx="82.3701" cy="581.464" r="4" fill="#0" id="circle19"/>
	<circle cx="88.5572" cy="552.59" r="4" fill="#0" id="circle20"/>
	<circle cx="90.6195" cy="255.609" r="4" fill="#0" id="circle21"/>
	<circle cx="90.6195" cy="276.233" r="4" fill="#0" id="circle22"/>
	<circle cx="90.6195" cy="296.857" r="4" fill="#0" id="circle23"/>
	<circle cx="90.6195" cy="317.48" r="4" fill="#0" id="circle24"/>
	<circle cx="90.6195" cy="338.104" r="4" fill="#0" id="circle25"/>
	<circle cx="90.6195" cy="358.728" r="4" fill="#0" id="circle26"/>
	<circle cx="90.6195" cy="531.967" r="4" fill="#0" id="circle27"/>
	<circle cx="90.6195" cy="989.813" r="4" fill="#0" id="circle28"/>
	<circle cx="92.6819" cy="86.4948" r="4" fill="#0" id="circle29"/>
	<circle cx="92.6819" cy="107.119" r="4" fill="#0" id="circle30"/>
	<circle cx="92.6819" cy="127.742" r="4" fill="#0" id="circle31"/>
	<circle cx="92.6819" cy="148.366" r="4" fill="#0" id="circle32"/>
	<circle cx="92.6819" cy="168.99" r="4" fill="#0" id="circle33"/>
	<circle cx="92.6819" cy="189.613" r="4" fill="#0" id="circle34"/>
	<circle cx="92.6819" cy="210.237" r="4" fill="#0" id="circle35"/>
	<circle cx="92.6819" cy="230.861" r="4" fill="#0" id="circle36"/>
	<circle cx="92.6819" cy="379.351" r="4" fill="#0" id="circle37"/>
	<circle cx="92.6819" cy="399.975" r="4" fill="#0" id="circle38"/>
	<circle cx="94.7443" cy="420.599" r="4" fill="#0" id="circle39"/>
	<circle cx="94.7443" cy="441.222" r="4" fill="#0" id="circle40"/>
	<circle cx="94.7443" cy="461.846" r="4" fill="#0" id="circle41"/>
	<circle cx="94.7443" cy="482.47" r="4" fill="#0" id="circle42"/>
	<circle cx="94.7443" cy="503.094" r="4" fill="#0" id="circle43"/>
	<circle cx="96.8067" cy="59.684" r="4" fill="#0" id="circle44"/>
	<circle cx="105.056" cy="39.0603" r="4" fill="#0" id="circle45"/>
	<circle cx="111.243" cy="993.938" r="4" fill="#0" id="circle46"/>
	<circle cx="119.493" cy="22.5613" r="4" fill="#0" id="circle47"/>
	<circle cx="131.867" cy="996" r="4" fill="#0" id="circle48"/>
	<circle cx="135.992" cy="10.1871" r="4" fill="#0" id="circle49"/>
	<circle cx="152.491" cy="991.875" r="4" fill="#0" id="circle50"/>
	<circle cx="156.615" cy="4" r="4" fill="#0" id="circle51"/>
	<circle cx="168.99" cy="463.909" r="4" fill="#0" id="circle52"/>
	<circle cx="168.99" cy="511.343" r="4" fill="#0" id="circle53"/>
	<circle cx="168.99" cy="531.967" r="4" fill="#0" id="circle54"/>
	<circle cx="171.052" cy="484.532" r="4" fill="#0" id="circle55"/>
	<circle cx="173.114" cy="385.538" r="4" fill="#0" id="circle56"/>
	<circle cx="173.114" cy="406.162" r="4" fill="#0" id="circle57"/>
	<circle cx="173.114" cy="426.786" r="4" fill="#0" id="circle58"/>
	<circle cx="173.114" cy="552.59" r="4" fill="#0" id="circle59"/>
	<circle cx="173.114" cy="987.751" r="4" fill="#0" id="circle60"/>
	<circle cx="175.177" cy="14.3119" r="4" fill="#0" id="circle61"/>
	<circle cx="175.177" cy="265.921" r="4" fill="#0" id="circle62"/>
	<circle cx="175.177" cy="286.545" r="4" fill="#0" id="circle63"/>
	<circle cx="175.177" cy="333.979" r="4" fill="#0" id="circle64"/>
	<circle cx="175.177" cy="354.603" r="4" fill="#0" id="circle65"/>
	<circle cx="177.239" cy="206.112" r="4" fill="#0" id="circle66"/>
	<circle cx="177.239" cy="226.736" r="4" fill="#0" id="circle67"/>
	<circle cx="177.239" cy="307.168" r="4" fill="#0" id="circle68"/>
	<circle cx="177.239" cy="573.214" r="4" fill="#0" id="circle69"/>
	<circle cx="179.301" cy="164.865" r="4" fill="#0" id="circle70"/>
	<circle cx="179.301" cy="185.489" r="4" fill="#0" id="circle71"/>
	<circle cx="183.426" cy="140.116" r="4" fill="#0" id="circle72"/>
	<circle cx="183.426" cy="593.838" r="4" fill="#0" id="circle73"/>
	<circle cx="185.489" cy="100.931" r="4" fill="#0" id="circle74"/>
	<circle cx="189.613" cy="30.8108" r="4" fill="#0" id="circle75"/>
	<circle cx="189.613" cy="63.8087" r="4" fill="#0" id="circle76"/>
	<circle cx="189.613" cy="614.462" r="4" fill="#0" id="circle77"/>
	<circle cx="193.738" cy="981.563" r="4" fill="#0" id="circle78"/>
	<circle cx="197.863" cy="635.085" r="4" fill="#0" id="circle79"/>
	<circle cx="204.05" cy="655.709" r="4" fill="#0" id="circle80"/>
	<circle cx="212.299" cy="971.252" r="4" fill="#0" id="circle81"/>
	<circle cx="214.362" cy="674.27" r="4" fill="#0" id="circle82"/>
	<circle cx="224.674" cy="692.832" r="4" fill="#0" id="circle83"/>
	<circle cx="228.798" cy="952.69" r="4" fill="#0" id="circle84"/>
	<circle cx="230.861" cy="713.455" r="4" fill="#0" id="circle85"/>
	<circle cx="237.048" cy="734.079" r="4" fill="#0" id="circle86"/>
	<circle cx="241.173" cy="754.703" r="4" fill="#0" id="circle87"/>
	<circle cx="241.173" cy="934.129" r="4" fill="#0" id="circle88"/>
	<circle cx="249.422" cy="775.326" r="4" fill="#0" id="circle89"/>
	<circle cx="251.484" cy="909.38" r="4" fill="#0" id="circle90"/>
	<circle cx="253.547" cy="795.95" r="4" fill="#0" id="circle91"/>
	<circle cx="257.672" cy="816.574" r="4" fill="#0" id="circle92"/>
	<circle cx="257.672" cy="876.383" r="4" fill="#0" id="circle93"/>
	<circle cx="259.734" cy="837.198" r="4" fill="#0" id="circle94"/>
	</g>
</svg>