<?xml version="1.0" encoding="UTF-8" standalone="no"?>
<!-- Created with CurveBenchmark -->
<svg
	xmlns:dc="http://purl.org/dc/elements/1.1/"
	xmlns:cc="http://creativecommons.org/ns#"
	xmlns:rdf="http://www.w3.org/1999/02/22-rdf-syntax-ns#"
	xmlns:svg="http://www.w3.org/2000/svg"
	xmlns="http://www.w3.org/2000/svg"
	xmlns:sodipodi="http://sodipodi.sourceforge.net/DTD/sodipodi-0.dtd"
	xmlns:inkscape="http://www.inkscape.org/namespaces/inkscape"
	width="1000"
	height="1000"
	id="svg2"
	version="1.1"
	sodipodi:docname="manifold/gathan1-Misk02.png.txt">
<defs
	id="defs4" />
<metadata
	id="metadata7">
	<rdf:RDF>
		<cc:Work
			rdf:about="">
			<dc:format>image/svg+xml</dc:format>
			<dc:type
				rdf:resource="http://purl.org/dc/dcmitype/StillImage" />
			<dc:title></dc:title>
		</cc:Work>
	</rdf:RDF>
</metadata>
<g
	inkscape:label="Layer 1"
	inkscape:groupmode="layer"
	id="layer1">
	<path style="fill:none;stroke:red;stroke-width:1px;stroke-linecap:butt;stroke-linejoin:miter;stroke-opacity:1" d="M 155.755,315.498 139.781,315.498 z" id="boundary" inkscape:connector-curvature="0" />
	<path style="fill:none;stroke:red;stroke-width:1px;stroke-linecap:butt;stroke-linejoin:miter;stroke-opacity:1" d="M 170.132,307.51 155.755,315.498 z" id="boundary" inkscape:connector-curvature="0" />
	<path style="fill:none;stroke:red;stroke-width:1px;stroke-linecap:butt;stroke-linejoin:miter;stroke-opacity:1" d="M 139.781,315.498 123.807,318.692 z" id="boundary" inkscape:connector-curvature="0" />
	<path style="fill:none;stroke:red;stroke-width:1px;stroke-linecap:butt;stroke-linejoin:miter;stroke-opacity:1" d="M 123.807,318.692 107.833,315.498 z" id="boundary" inkscape:connector-curvature="0" />
	<path style="fill:none;stroke:red;stroke-width:1px;stroke-linecap:butt;stroke-linejoin:miter;stroke-opacity:1" d="M 91.8583,312.303 107.833,315.498 z" id="boundary" inkscape:connector-curvature="0" />
	<path style="fill:none;stroke:red;stroke-width:1px;stroke-linecap:butt;stroke-linejoin:miter;stroke-opacity:1" d="M 91.8583,328.277 91.8583,312.303 z" id="boundary" inkscape:connector-curvature="0" />
	<path style="fill:none;stroke:red;stroke-width:1px;stroke-linecap:butt;stroke-linejoin:miter;stroke-opacity:1" d="M 99.8454,342.654 91.8583,328.277 z" id="boundary" inkscape:connector-curvature="0" />
	<path style="fill:none;stroke:red;stroke-width:1px;stroke-linecap:butt;stroke-linejoin:miter;stroke-opacity:1" d="M 227.639,200.483 227.639,184.509 z" id="boundary" inkscape:connector-curvature="0" />
	<path style="fill:none;stroke:red;stroke-width:1px;stroke-linecap:butt;stroke-linejoin:miter;stroke-opacity:1" d="M 227.639,184.509 235.626,160.548 z" id="boundary" inkscape:connector-curvature="0" />
	<path style="fill:none;stroke:red;stroke-width:1px;stroke-linecap:butt;stroke-linejoin:miter;stroke-opacity:1" d="M 227.639,200.483 227.639,216.457 z" id="boundary" inkscape:connector-curvature="0" />
	<path style="fill:none;stroke:red;stroke-width:1px;stroke-linecap:butt;stroke-linejoin:miter;stroke-opacity:1" d="M 170.132,307.51 186.106,307.51 z" id="boundary" inkscape:connector-curvature="0" />
	<path style="fill:none;stroke:red;stroke-width:1px;stroke-linecap:butt;stroke-linejoin:miter;stroke-opacity:1" d="M 200.483,299.523 186.106,307.51 z" id="boundary" inkscape:connector-curvature="0" />
	<path style="fill:none;stroke:red;stroke-width:1px;stroke-linecap:butt;stroke-linejoin:miter;stroke-opacity:1" d="M 219.652,272.367 216.457,291.536 z" id="boundary" inkscape:connector-curvature="0" />
	<path style="fill:none;stroke:red;stroke-width:1px;stroke-linecap:butt;stroke-linejoin:miter;stroke-opacity:1" d="M 216.457,291.536 200.483,299.523 z" id="boundary" inkscape:connector-curvature="0" />
	<path style="fill:none;stroke:red;stroke-width:1px;stroke-linecap:butt;stroke-linejoin:miter;stroke-opacity:1" d="M 219.652,272.367 227.639,248.406 z" id="boundary" inkscape:connector-curvature="0" />
	<path style="fill:none;stroke:red;stroke-width:1px;stroke-linecap:butt;stroke-linejoin:miter;stroke-opacity:1" d="M 91.8583,472.045 83.8712,496.006 z" id="boundary" inkscape:connector-curvature="0" />
	<path style="fill:none;stroke:red;stroke-width:1px;stroke-linecap:butt;stroke-linejoin:miter;stroke-opacity:1" d="M 83.8712,496.006 75.8841,519.968 z" id="boundary" inkscape:connector-curvature="0" />
	<path style="fill:none;stroke:red;stroke-width:1px;stroke-linecap:butt;stroke-linejoin:miter;stroke-opacity:1" d="M 99.8454,358.628 99.8454,374.602 z" id="boundary" inkscape:connector-curvature="0" />
	<path style="fill:none;stroke:red;stroke-width:1px;stroke-linecap:butt;stroke-linejoin:miter;stroke-opacity:1" d="M 91.8583,472.045 99.8454,454.473 z" id="boundary" inkscape:connector-curvature="0" />
	<path style="fill:none;stroke:red;stroke-width:1px;stroke-linecap:butt;stroke-linejoin:miter;stroke-opacity:1" d="M 75.8841,519.968 67.8969,543.929 z" id="boundary" inkscape:connector-curvature="0" />
	<path style="fill:none;stroke:red;stroke-width:1px;stroke-linecap:butt;stroke-linejoin:miter;stroke-opacity:1" d="M 67.8969,543.929 59.9098,559.903 z" id="boundary" inkscape:connector-curvature="0" />
	<path style="fill:none;stroke:red;stroke-width:1px;stroke-linecap:butt;stroke-linejoin:miter;stroke-opacity:1" d="M 99.8454,342.654 99.8454,358.628 z" id="boundary" inkscape:connector-curvature="0" />
	<path style="fill:none;stroke:red;stroke-width:1px;stroke-linecap:butt;stroke-linejoin:miter;stroke-opacity:1" d="M 99.8454,374.602 99.8454,390.576 z" id="boundary" inkscape:connector-curvature="0" />
	<path style="fill:none;stroke:red;stroke-width:1px;stroke-linecap:butt;stroke-linejoin:miter;stroke-opacity:1" d="M 99.8454,406.551 99.8454,422.525 z" id="boundary" inkscape:connector-curvature="0" />
	<path style="fill:none;stroke:red;stroke-width:1px;stroke-linecap:butt;stroke-linejoin:miter;stroke-opacity:1" d="M 99.8454,438.499 99.8454,454.473 z" id="boundary" inkscape:connector-curvature="0" />
	<path style="fill:none;stroke:red;stroke-width:1px;stroke-linecap:butt;stroke-linejoin:miter;stroke-opacity:1" d="M 99.8454,438.499 99.8454,422.525 z" id="boundary" inkscape:connector-curvature="0" />
	<path style="fill:none;stroke:red;stroke-width:1px;stroke-linecap:butt;stroke-linejoin:miter;stroke-opacity:1" d="M 99.8454,406.551 99.8454,390.576 z" id="boundary" inkscape:connector-curvature="0" />
	<path style="fill:none;stroke:red;stroke-width:1px;stroke-linecap:butt;stroke-linejoin:miter;stroke-opacity:1" d="M 59.9098,559.903 51.9227,575.878 z" id="boundary" inkscape:connector-curvature="0" />
	<path style="fill:none;stroke:red;stroke-width:1px;stroke-linecap:butt;stroke-linejoin:miter;stroke-opacity:1" d="M 301.121,4 317.095,4 z" id="boundary" inkscape:connector-curvature="0" />
	<path style="fill:none;stroke:red;stroke-width:1px;stroke-linecap:butt;stroke-linejoin:miter;stroke-opacity:1" d="M 251.601,48.7279 259.588,32.7536 z" id="boundary" inkscape:connector-curvature="0" />
	<path style="fill:none;stroke:red;stroke-width:1px;stroke-linecap:butt;stroke-linejoin:miter;stroke-opacity:1" d="M 259.588,32.7536 272.367,19.9742 z" id="boundary" inkscape:connector-curvature="0" />
	<path style="fill:none;stroke:red;stroke-width:1px;stroke-linecap:butt;stroke-linejoin:miter;stroke-opacity:1" d="M 272.367,19.9742 285.147,7.19485 z" id="boundary" inkscape:connector-curvature="0" />
	<path style="fill:none;stroke:red;stroke-width:1px;stroke-linecap:butt;stroke-linejoin:miter;stroke-opacity:1" d="M 285.147,7.19485 301.121,4 z" id="boundary" inkscape:connector-curvature="0" />
	<path style="fill:none;stroke:red;stroke-width:1px;stroke-linecap:butt;stroke-linejoin:miter;stroke-opacity:1" d="M 317.095,4 333.069,4 z" id="boundary" inkscape:connector-curvature="0" />
	<path style="fill:none;stroke:red;stroke-width:1px;stroke-linecap:butt;stroke-linejoin:miter;stroke-opacity:1" d="M 333.069,4 347.446,11.9871 z" id="boundary" inkscape:connector-curvature="0" />
	<path style="fill:none;stroke:red;stroke-width:1px;stroke-linecap:butt;stroke-linejoin:miter;stroke-opacity:1" d="M 347.446,11.9871 363.42,8.79227 z" id="boundary" inkscape:connector-curvature="0" />
	<path style="fill:none;stroke:red;stroke-width:1px;stroke-linecap:butt;stroke-linejoin:miter;stroke-opacity:1" d="M 363.42,8.79227 379.395,11.9871 z" id="boundary" inkscape:connector-curvature="0" />
	<path style="fill:none;stroke:red;stroke-width:1px;stroke-linecap:butt;stroke-linejoin:miter;stroke-opacity:1" d="M 379.395,11.9871 395.369,15.182 z" id="boundary" inkscape:connector-curvature="0" />
	<path style="fill:none;stroke:red;stroke-width:1px;stroke-linecap:butt;stroke-linejoin:miter;stroke-opacity:1" d="M 395.369,15.182 411.343,15.182 z" id="boundary" inkscape:connector-curvature="0" />
	<path style="fill:none;stroke:red;stroke-width:1px;stroke-linecap:butt;stroke-linejoin:miter;stroke-opacity:1" d="M 411.343,15.182 427.317,19.9742 z" id="boundary" inkscape:connector-curvature="0" />
	<path style="fill:none;stroke:red;stroke-width:1px;stroke-linecap:butt;stroke-linejoin:miter;stroke-opacity:1" d="M 427.317,19.9742 441.694,27.9614 z" id="boundary" inkscape:connector-curvature="0" />
	<path style="fill:none;stroke:red;stroke-width:1px;stroke-linecap:butt;stroke-linejoin:miter;stroke-opacity:1" d="M 441.694,27.9614 456.071,35.9485 z" id="boundary" inkscape:connector-curvature="0" />
	<path style="fill:none;stroke:red;stroke-width:1px;stroke-linecap:butt;stroke-linejoin:miter;stroke-opacity:1" d="M 235.626,128.599 235.626,144.573 z" id="boundary" inkscape:connector-curvature="0" />
	<path style="fill:none;stroke:red;stroke-width:1px;stroke-linecap:butt;stroke-linejoin:miter;stroke-opacity:1" d="M 235.626,128.599 235.626,112.625 z" id="boundary" inkscape:connector-curvature="0" />
	<path style="fill:none;stroke:red;stroke-width:1px;stroke-linecap:butt;stroke-linejoin:miter;stroke-opacity:1" d="M 235.626,112.625 243.614,88.6634 z" id="boundary" inkscape:connector-curvature="0" />
	<path style="fill:none;stroke:red;stroke-width:1px;stroke-linecap:butt;stroke-linejoin:miter;stroke-opacity:1" d="M 235.626,144.573 235.626,160.548 z" id="boundary" inkscape:connector-curvature="0" />
	<path style="fill:none;stroke:red;stroke-width:1px;stroke-linecap:butt;stroke-linejoin:miter;stroke-opacity:1" d="M 227.639,216.457 227.639,232.432 z" id="boundary" inkscape:connector-curvature="0" />
	<path style="fill:none;stroke:red;stroke-width:1px;stroke-linecap:butt;stroke-linejoin:miter;stroke-opacity:1" d="M 227.639,248.406 227.639,232.432 z" id="boundary" inkscape:connector-curvature="0" />
	<path style="fill:none;stroke:red;stroke-width:1px;stroke-linecap:butt;stroke-linejoin:miter;stroke-opacity:1" d="M 470.448,43.9356 456.071,35.9485 z" id="boundary" inkscape:connector-curvature="0" />
	<path style="fill:none;stroke:red;stroke-width:1px;stroke-linecap:butt;stroke-linejoin:miter;stroke-opacity:1" d="M 243.614,72.6892 243.614,88.6634 z" id="boundary" inkscape:connector-curvature="0" />
	<path style="fill:none;stroke:red;stroke-width:1px;stroke-linecap:butt;stroke-linejoin:miter;stroke-opacity:1" d="M 243.614,72.6892 251.601,48.7279 z" id="boundary" inkscape:connector-curvature="0" />
	<path style="fill:none;stroke:red;stroke-width:1px;stroke-linecap:butt;stroke-linejoin:miter;stroke-opacity:1" d="M 497.604,61.5072 484.824,51.9227 z" id="boundary" inkscape:connector-curvature="0" />
	<path style="fill:none;stroke:red;stroke-width:1px;stroke-linecap:butt;stroke-linejoin:miter;stroke-opacity:1" d="M 511.981,69.4944 497.604,61.5072 z" id="boundary" inkscape:connector-curvature="0" />
	<path style="fill:none;stroke:red;stroke-width:1px;stroke-linecap:butt;stroke-linejoin:miter;stroke-opacity:1" d="M 470.448,43.9356 484.824,51.9227 z" id="boundary" inkscape:connector-curvature="0" />
	<path style="fill:none;stroke:red;stroke-width:1px;stroke-linecap:butt;stroke-linejoin:miter;stroke-opacity:1" d="M 11.9871,647.762 11.9871,663.736 z" id="boundary" inkscape:connector-curvature="0" />
	<path style="fill:none;stroke:red;stroke-width:1px;stroke-linecap:butt;stroke-linejoin:miter;stroke-opacity:1" d="M 11.9871,663.736 4,679.71 z" id="boundary" inkscape:connector-curvature="0" />
	<path style="fill:none;stroke:red;stroke-width:1px;stroke-linecap:butt;stroke-linejoin:miter;stroke-opacity:1" d="M 11.9871,647.762 24.7665,634.982 z" id="boundary" inkscape:connector-curvature="0" />
	<path style="fill:none;stroke:red;stroke-width:1px;stroke-linecap:butt;stroke-linejoin:miter;stroke-opacity:1" d="M 4,695.684 4,679.71 z" id="boundary" inkscape:connector-curvature="0" />
	<path style="fill:none;stroke:red;stroke-width:1px;stroke-linecap:butt;stroke-linejoin:miter;stroke-opacity:1" d="M 11.9871,726.035 4,711.659 z" id="boundary" inkscape:connector-curvature="0" />
	<path style="fill:none;stroke:red;stroke-width:1px;stroke-linecap:butt;stroke-linejoin:miter;stroke-opacity:1" d="M 4,711.659 4,695.684 z" id="boundary" inkscape:connector-curvature="0" />
	<path style="fill:none;stroke:red;stroke-width:1px;stroke-linecap:butt;stroke-linejoin:miter;stroke-opacity:1" d="M 11.9871,726.035 11.9871,742.01 z" id="boundary" inkscape:connector-curvature="0" />
	<path style="fill:none;stroke:red;stroke-width:1px;stroke-linecap:butt;stroke-linejoin:miter;stroke-opacity:1" d="M 40.7407,603.034 32.7536,619.008 z" id="boundary" inkscape:connector-curvature="0" />
	<path style="fill:none;stroke:red;stroke-width:1px;stroke-linecap:butt;stroke-linejoin:miter;stroke-opacity:1" d="M 32.7536,619.008 24.7665,634.982 z" id="boundary" inkscape:connector-curvature="0" />
	<path style="fill:none;stroke:red;stroke-width:1px;stroke-linecap:butt;stroke-linejoin:miter;stroke-opacity:1" d="M 11.9871,742.01 23.1691,754.789 z" id="boundary" inkscape:connector-curvature="0" />
	<path style="fill:none;stroke:red;stroke-width:1px;stroke-linecap:butt;stroke-linejoin:miter;stroke-opacity:1" d="M 23.1691,754.789 31.1562,769.166 z" id="boundary" inkscape:connector-curvature="0" />
	<path style="fill:none;stroke:red;stroke-width:1px;stroke-linecap:butt;stroke-linejoin:miter;stroke-opacity:1" d="M 40.7407,603.034 51.9227,575.878 z" id="boundary" inkscape:connector-curvature="0" />
	<path style="fill:none;stroke:red;stroke-width:1px;stroke-linecap:butt;stroke-linejoin:miter;stroke-opacity:1" d="M 43.9356,780.348 59.9098,780.348 z" id="boundary" inkscape:connector-curvature="0" />
	<path style="fill:none;stroke:red;stroke-width:1px;stroke-linecap:butt;stroke-linejoin:miter;stroke-opacity:1" d="M 43.9356,780.348 31.1562,769.166 z" id="boundary" inkscape:connector-curvature="0" />
	<path style="fill:none;stroke:red;stroke-width:1px;stroke-linecap:butt;stroke-linejoin:miter;stroke-opacity:1" d="M 75.8841,780.348 59.9098,780.348 z" id="boundary" inkscape:connector-curvature="0" />
	<path style="fill:none;stroke:red;stroke-width:1px;stroke-linecap:butt;stroke-linejoin:miter;stroke-opacity:1" d="M 91.8583,780.348 106.235,788.335 z" id="boundary" inkscape:connector-curvature="0" />
	<path style="fill:none;stroke:red;stroke-width:1px;stroke-linecap:butt;stroke-linejoin:miter;stroke-opacity:1" d="M 106.235,788.335 112.625,804.309 z" id="boundary" inkscape:connector-curvature="0" />
	<path style="fill:none;stroke:red;stroke-width:1px;stroke-linecap:butt;stroke-linejoin:miter;stroke-opacity:1" d="M 123.807,817.089 112.625,804.309 z" id="boundary" inkscape:connector-curvature="0" />
	<path style="fill:none;stroke:red;stroke-width:1px;stroke-linecap:butt;stroke-linejoin:miter;stroke-opacity:1" d="M 75.8841,780.348 91.8583,780.348 z" id="boundary" inkscape:connector-curvature="0" />
	<path style="fill:none;stroke:red;stroke-width:1px;stroke-linecap:butt;stroke-linejoin:miter;stroke-opacity:1" d="M 123.807,817.089 131.794,831.465 z" id="boundary" inkscape:connector-curvature="0" />
	<path style="fill:none;stroke:red;stroke-width:1px;stroke-linecap:butt;stroke-linejoin:miter;stroke-opacity:1" d="M 139.781,845.842 131.794,831.465 z" id="boundary" inkscape:connector-curvature="0" />
	<path style="fill:none;stroke:red;stroke-width:1px;stroke-linecap:butt;stroke-linejoin:miter;stroke-opacity:1" d="M 147.768,860.219 157.353,872.998 z" id="boundary" inkscape:connector-curvature="0" />
	<path style="fill:none;stroke:red;stroke-width:1px;stroke-linecap:butt;stroke-linejoin:miter;stroke-opacity:1" d="M 157.353,872.998 165.34,887.375 z" id="boundary" inkscape:connector-curvature="0" />
	<path style="fill:none;stroke:red;stroke-width:1px;stroke-linecap:butt;stroke-linejoin:miter;stroke-opacity:1" d="M 147.768,860.219 139.781,845.842 z" id="boundary" inkscape:connector-curvature="0" />
	<path style="fill:none;stroke:red;stroke-width:1px;stroke-linecap:butt;stroke-linejoin:miter;stroke-opacity:1" d="M 165.34,887.375 179.717,895.362 z" id="boundary" inkscape:connector-curvature="0" />
	<path style="fill:none;stroke:red;stroke-width:1px;stroke-linecap:butt;stroke-linejoin:miter;stroke-opacity:1" d="M 179.717,895.362 192.496,906.544 z" id="boundary" inkscape:connector-curvature="0" />
	<path style="fill:none;stroke:red;stroke-width:1px;stroke-linecap:butt;stroke-linejoin:miter;stroke-opacity:1" d="M 206.873,914.531 192.496,906.544 z" id="boundary" inkscape:connector-curvature="0" />
	<path style="fill:none;stroke:red;stroke-width:1px;stroke-linecap:butt;stroke-linejoin:miter;stroke-opacity:1" d="M 238.821,916.129 222.847,920.921 z" id="boundary" inkscape:connector-curvature="0" />
	<path style="fill:none;stroke:red;stroke-width:1px;stroke-linecap:butt;stroke-linejoin:miter;stroke-opacity:1" d="M 222.847,920.921 206.873,914.531 z" id="boundary" inkscape:connector-curvature="0" />
	<path style="fill:none;stroke:red;stroke-width:1px;stroke-linecap:butt;stroke-linejoin:miter;stroke-opacity:1" d="M 253.198,924.116 267.575,932.103 z" id="boundary" inkscape:connector-curvature="0" />
	<path style="fill:none;stroke:red;stroke-width:1px;stroke-linecap:butt;stroke-linejoin:miter;stroke-opacity:1" d="M 238.821,916.129 253.198,924.116 z" id="boundary" inkscape:connector-curvature="0" />
	<path style="fill:none;stroke:red;stroke-width:1px;stroke-linecap:butt;stroke-linejoin:miter;stroke-opacity:1" d="M 283.549,932.103 267.575,932.103 z" id="boundary" inkscape:connector-curvature="0" />
	<path style="fill:none;stroke:red;stroke-width:1px;stroke-linecap:butt;stroke-linejoin:miter;stroke-opacity:1" d="M 468.85,748.399 476.837,732.425 z" id="boundary" inkscape:connector-curvature="0" />
	<path style="fill:none;stroke:red;stroke-width:1px;stroke-linecap:butt;stroke-linejoin:miter;stroke-opacity:1" d="M 476.837,732.425 489.617,721.243 z" id="boundary" inkscape:connector-curvature="0" />
	<path style="fill:none;stroke:red;stroke-width:1px;stroke-linecap:butt;stroke-linejoin:miter;stroke-opacity:1" d="M 297.926,940.09 283.549,932.103 z" id="boundary" inkscape:connector-curvature="0" />
	<path style="fill:none;stroke:red;stroke-width:1px;stroke-linecap:butt;stroke-linejoin:miter;stroke-opacity:1" d="M 460.863,772.361 476.837,778.75 z" id="boundary" inkscape:connector-curvature="0" />
	<path style="fill:none;stroke:red;stroke-width:1px;stroke-linecap:butt;stroke-linejoin:miter;stroke-opacity:1" d="M 460.863,772.361 468.85,748.399 z" id="boundary" inkscape:connector-curvature="0" />
	<path style="fill:none;stroke:red;stroke-width:1px;stroke-linecap:butt;stroke-linejoin:miter;stroke-opacity:1" d="M 492.812,783.543 476.837,778.75 z" id="boundary" inkscape:connector-curvature="0" />
	<path style="fill:none;stroke:red;stroke-width:1px;stroke-linecap:butt;stroke-linejoin:miter;stroke-opacity:1" d="M 508.786,786.738 492.812,783.543 z" id="boundary" inkscape:connector-curvature="0" />
	<path style="fill:none;stroke:red;stroke-width:1px;stroke-linecap:butt;stroke-linejoin:miter;stroke-opacity:1" d="M 312.303,948.077 297.926,940.09 z" id="boundary" inkscape:connector-curvature="0" />
	<path style="fill:none;stroke:red;stroke-width:1px;stroke-linecap:butt;stroke-linejoin:miter;stroke-opacity:1" d="M 328.277,954.467 312.303,948.077 z" id="boundary" inkscape:connector-curvature="0" />
	<path style="fill:none;stroke:red;stroke-width:1px;stroke-linecap:butt;stroke-linejoin:miter;stroke-opacity:1" d="M 328.277,954.467 342.654,962.454 z" id="boundary" inkscape:connector-curvature="0" />
	<path style="fill:none;stroke:red;stroke-width:1px;stroke-linecap:butt;stroke-linejoin:miter;stroke-opacity:1" d="M 342.654,962.454 358.628,964.052 z" id="boundary" inkscape:connector-curvature="0" />
	<path style="fill:none;stroke:red;stroke-width:1px;stroke-linecap:butt;stroke-linejoin:miter;stroke-opacity:1" d="M 358.628,964.052 373.005,972.039 z" id="boundary" inkscape:connector-curvature="0" />
	<path style="fill:none;stroke:red;stroke-width:1px;stroke-linecap:butt;stroke-linejoin:miter;stroke-opacity:1" d="M 373.005,972.039 387.382,980.026 z" id="boundary" inkscape:connector-curvature="0" />
	<path style="fill:none;stroke:red;stroke-width:1px;stroke-linecap:butt;stroke-linejoin:miter;stroke-opacity:1" d="M 403.356,980.026 387.382,980.026 z" id="boundary" inkscape:connector-curvature="0" />
	<path style="fill:none;stroke:red;stroke-width:1px;stroke-linecap:butt;stroke-linejoin:miter;stroke-opacity:1" d="M 403.356,980.026 419.33,980.026 z" id="boundary" inkscape:connector-curvature="0" />
	<path style="fill:none;stroke:red;stroke-width:1px;stroke-linecap:butt;stroke-linejoin:miter;stroke-opacity:1" d="M 419.33,980.026 433.707,988.013 z" id="boundary" inkscape:connector-curvature="0" />
	<path style="fill:none;stroke:red;stroke-width:1px;stroke-linecap:butt;stroke-linejoin:miter;stroke-opacity:1" d="M 433.707,988.013 448.084,996 z" id="boundary" inkscape:connector-curvature="0" />
	<path style="fill:none;stroke:red;stroke-width:1px;stroke-linecap:butt;stroke-linejoin:miter;stroke-opacity:1" d="M 448.084,996 462.461,988.013 z" id="boundary" inkscape:connector-curvature="0" />
	<path style="fill:none;stroke:red;stroke-width:1px;stroke-linecap:butt;stroke-linejoin:miter;stroke-opacity:1" d="M 462.461,988.013 478.435,988.013 z" id="boundary" inkscape:connector-curvature="0" />
	<path style="fill:none;stroke:red;stroke-width:1px;stroke-linecap:butt;stroke-linejoin:miter;stroke-opacity:1" d="M 478.435,988.013 494.409,992.805 z" id="boundary" inkscape:connector-curvature="0" />
	<path style="fill:none;stroke:red;stroke-width:1px;stroke-linecap:butt;stroke-linejoin:miter;stroke-opacity:1" d="M 510.383,988.013 494.409,992.805 z" id="boundary" inkscape:connector-curvature="0" />
	<path style="fill:none;stroke:red;stroke-width:1px;stroke-linecap:butt;stroke-linejoin:miter;stroke-opacity:1" d="M 497.604,705.269 489.617,721.243 z" id="boundary" inkscape:connector-curvature="0" />
	<path style="fill:none;stroke:red;stroke-width:1px;stroke-linecap:butt;stroke-linejoin:miter;stroke-opacity:1" d="M 532.747,93.4557 519.968,83.8712 z" id="boundary" inkscape:connector-curvature="0" />
	<path style="fill:none;stroke:red;stroke-width:1px;stroke-linecap:butt;stroke-linejoin:miter;stroke-opacity:1" d="M 519.968,83.8712 511.981,69.4944 z" id="boundary" inkscape:connector-curvature="0" />
	<path style="fill:none;stroke:red;stroke-width:1px;stroke-linecap:butt;stroke-linejoin:miter;stroke-opacity:1" d="M 545.527,103.04 532.747,93.4557 z" id="boundary" inkscape:connector-curvature="0" />
	<path style="fill:none;stroke:red;stroke-width:1px;stroke-linecap:butt;stroke-linejoin:miter;stroke-opacity:1" d="M 567.89,125.404 555.111,115.82 z" id="boundary" inkscape:connector-curvature="0" />
	<path style="fill:none;stroke:red;stroke-width:1px;stroke-linecap:butt;stroke-linejoin:miter;stroke-opacity:1" d="M 555.111,115.82 545.527,103.04 z" id="boundary" inkscape:connector-curvature="0" />
	<path style="fill:none;stroke:red;stroke-width:1px;stroke-linecap:butt;stroke-linejoin:miter;stroke-opacity:1" d="M 583.865,131.794 567.89,125.404 z" id="boundary" inkscape:connector-curvature="0" />
	<path style="fill:none;stroke:red;stroke-width:1px;stroke-linecap:butt;stroke-linejoin:miter;stroke-opacity:1" d="M 595.047,144.573 583.865,131.794 z" id="boundary" inkscape:connector-curvature="0" />
	<path style="fill:none;stroke:red;stroke-width:1px;stroke-linecap:butt;stroke-linejoin:miter;stroke-opacity:1" d="M 611.021,150.963 595.047,144.573 z" id="boundary" inkscape:connector-curvature="0" />
	<path style="fill:none;stroke:red;stroke-width:1px;stroke-linecap:butt;stroke-linejoin:miter;stroke-opacity:1" d="M 658.944,152.56 642.969,155.755 z" id="boundary" inkscape:connector-curvature="0" />
	<path style="fill:none;stroke:red;stroke-width:1px;stroke-linecap:butt;stroke-linejoin:miter;stroke-opacity:1" d="M 658.944,152.56 674.918,152.56 z" id="boundary" inkscape:connector-curvature="0" />
	<path style="fill:none;stroke:red;stroke-width:1px;stroke-linecap:butt;stroke-linejoin:miter;stroke-opacity:1" d="M 690.892,147.768 674.918,152.56 z" id="boundary" inkscape:connector-curvature="0" />
	<path style="fill:none;stroke:red;stroke-width:1px;stroke-linecap:butt;stroke-linejoin:miter;stroke-opacity:1" d="M 705.269,139.781 690.892,147.768 z" id="boundary" inkscape:connector-curvature="0" />
	<path style="fill:none;stroke:red;stroke-width:1px;stroke-linecap:butt;stroke-linejoin:miter;stroke-opacity:1" d="M 721.243,139.781 705.269,139.781 z" id="boundary" inkscape:connector-curvature="0" />
	<path style="fill:none;stroke:red;stroke-width:1px;stroke-linecap:butt;stroke-linejoin:miter;stroke-opacity:1" d="M 682.905,436.902 668.528,444.889 z" id="boundary" inkscape:connector-curvature="0" />
	<path style="fill:none;stroke:red;stroke-width:1px;stroke-linecap:butt;stroke-linejoin:miter;stroke-opacity:1" d="M 642.969,155.755 626.995,155.755 z" id="boundary" inkscape:connector-curvature="0" />
	<path style="fill:none;stroke:red;stroke-width:1px;stroke-linecap:butt;stroke-linejoin:miter;stroke-opacity:1" d="M 626.995,155.755 611.021,150.963 z" id="boundary" inkscape:connector-curvature="0" />
	<path style="fill:none;stroke:red;stroke-width:1px;stroke-linecap:butt;stroke-linejoin:miter;stroke-opacity:1" d="M 668.528,460.863 668.528,444.889 z" id="boundary" inkscape:connector-curvature="0" />
	<path style="fill:none;stroke:red;stroke-width:1px;stroke-linecap:butt;stroke-linejoin:miter;stroke-opacity:1" d="M 668.528,460.863 676.515,475.24 z" id="boundary" inkscape:connector-curvature="0" />
	<path style="fill:none;stroke:red;stroke-width:1px;stroke-linecap:butt;stroke-linejoin:miter;stroke-opacity:1" d="M 676.515,475.24 676.515,491.214 z" id="boundary" inkscape:connector-curvature="0" />
	<path style="fill:none;stroke:red;stroke-width:1px;stroke-linecap:butt;stroke-linejoin:miter;stroke-opacity:1" d="M 689.295,500.799 676.515,491.214 z" id="boundary" inkscape:connector-curvature="0" />
	<path style="fill:none;stroke:red;stroke-width:1px;stroke-linecap:butt;stroke-linejoin:miter;stroke-opacity:1" d="M 697.282,428.915 682.905,436.902 z" id="boundary" inkscape:connector-curvature="0" />
	<path style="fill:none;stroke:red;stroke-width:1px;stroke-linecap:butt;stroke-linejoin:miter;stroke-opacity:1" d="M 711.659,420.928 697.282,428.915 z" id="boundary" inkscape:connector-curvature="0" />
	<path style="fill:none;stroke:red;stroke-width:1px;stroke-linecap:butt;stroke-linejoin:miter;stroke-opacity:1" d="M 689.295,500.799 695.684,516.773 z" id="boundary" inkscape:connector-curvature="0" />
	<path style="fill:none;stroke:red;stroke-width:1px;stroke-linecap:butt;stroke-linejoin:miter;stroke-opacity:1" d="M 708.464,527.955 695.684,516.773 z" id="boundary" inkscape:connector-curvature="0" />
	<path style="fill:none;stroke:red;stroke-width:1px;stroke-linecap:butt;stroke-linejoin:miter;stroke-opacity:1" d="M 719.646,540.734 708.464,527.955 z" id="boundary" inkscape:connector-curvature="0" />
	<path style="fill:none;stroke:red;stroke-width:1px;stroke-linecap:butt;stroke-linejoin:miter;stroke-opacity:1" d="M 711.659,420.928 726.035,412.94 z" id="boundary" inkscape:connector-curvature="0" />
	<path style="fill:none;stroke:red;stroke-width:1px;stroke-linecap:butt;stroke-linejoin:miter;stroke-opacity:1" d="M 740.412,221.25 732.425,237.224 z" id="boundary" inkscape:connector-curvature="0" />
	<path style="fill:none;stroke:red;stroke-width:1px;stroke-linecap:butt;stroke-linejoin:miter;stroke-opacity:1" d="M 737.217,139.781 721.243,139.781 z" id="boundary" inkscape:connector-curvature="0" />
	<path style="fill:none;stroke:red;stroke-width:1px;stroke-linecap:butt;stroke-linejoin:miter;stroke-opacity:1" d="M 748.399,291.536 737.217,278.757 z" id="boundary" inkscape:connector-curvature="0" />
	<path style="fill:none;stroke:red;stroke-width:1px;stroke-linecap:butt;stroke-linejoin:miter;stroke-opacity:1" d="M 764.374,296.329 748.399,291.536 z" id="boundary" inkscape:connector-curvature="0" />
	<path style="fill:none;stroke:red;stroke-width:1px;stroke-linecap:butt;stroke-linejoin:miter;stroke-opacity:1" d="M 732.425,237.224 724.438,253.198 z" id="boundary" inkscape:connector-curvature="0" />
	<path style="fill:none;stroke:red;stroke-width:1px;stroke-linecap:butt;stroke-linejoin:miter;stroke-opacity:1" d="M 737.217,278.757 724.438,269.172 z" id="boundary" inkscape:connector-curvature="0" />
	<path style="fill:none;stroke:red;stroke-width:1px;stroke-linecap:butt;stroke-linejoin:miter;stroke-opacity:1" d="M 724.438,269.172 724.438,253.198 z" id="boundary" inkscape:connector-curvature="0" />
	<path style="fill:none;stroke:red;stroke-width:1px;stroke-linecap:butt;stroke-linejoin:miter;stroke-opacity:1" d="M 751.594,147.768 764.374,157.353 z" id="boundary" inkscape:connector-curvature="0" />
	<path style="fill:none;stroke:red;stroke-width:1px;stroke-linecap:butt;stroke-linejoin:miter;stroke-opacity:1" d="M 764.374,157.353 756.386,173.327 z" id="boundary" inkscape:connector-curvature="0" />
	<path style="fill:none;stroke:red;stroke-width:1px;stroke-linecap:butt;stroke-linejoin:miter;stroke-opacity:1" d="M 756.386,189.301 756.386,173.327 z" id="boundary" inkscape:connector-curvature="0" />
	<path style="fill:none;stroke:red;stroke-width:1px;stroke-linecap:butt;stroke-linejoin:miter;stroke-opacity:1" d="M 748.399,205.275 740.412,221.25 z" id="boundary" inkscape:connector-curvature="0" />
	<path style="fill:none;stroke:red;stroke-width:1px;stroke-linecap:butt;stroke-linejoin:miter;stroke-opacity:1" d="M 748.399,205.275 756.386,189.301 z" id="boundary" inkscape:connector-curvature="0" />
	<path style="fill:none;stroke:red;stroke-width:1px;stroke-linecap:butt;stroke-linejoin:miter;stroke-opacity:1" d="M 737.217,139.781 751.594,147.768 z" id="boundary" inkscape:connector-curvature="0" />
	<path style="fill:none;stroke:red;stroke-width:1px;stroke-linecap:butt;stroke-linejoin:miter;stroke-opacity:1" d="M 751.594,387.382 738.815,400.161 z" id="boundary" inkscape:connector-curvature="0" />
	<path style="fill:none;stroke:red;stroke-width:1px;stroke-linecap:butt;stroke-linejoin:miter;stroke-opacity:1" d="M 738.815,400.161 726.035,412.94 z" id="boundary" inkscape:connector-curvature="0" />
	<path style="fill:none;stroke:red;stroke-width:1px;stroke-linecap:butt;stroke-linejoin:miter;stroke-opacity:1" d="M 732.425,551.916 719.646,540.734 z" id="boundary" inkscape:connector-curvature="0" />
	<path style="fill:none;stroke:red;stroke-width:1px;stroke-linecap:butt;stroke-linejoin:miter;stroke-opacity:1" d="M 743.607,564.696 751.594,579.072 z" id="boundary" inkscape:connector-curvature="0" />
	<path style="fill:none;stroke:red;stroke-width:1px;stroke-linecap:butt;stroke-linejoin:miter;stroke-opacity:1" d="M 732.425,551.916 743.607,564.696 z" id="boundary" inkscape:connector-curvature="0" />
	<path style="fill:none;stroke:red;stroke-width:1px;stroke-linecap:butt;stroke-linejoin:miter;stroke-opacity:1" d="M 764.374,588.657 751.594,579.072 z" id="boundary" inkscape:connector-curvature="0" />
	<path style="fill:none;stroke:red;stroke-width:1px;stroke-linecap:butt;stroke-linejoin:miter;stroke-opacity:1" d="M 764.374,296.329 770.763,312.303 z" id="boundary" inkscape:connector-curvature="0" />
	<path style="fill:none;stroke:red;stroke-width:1px;stroke-linecap:butt;stroke-linejoin:miter;stroke-opacity:1" d="M 770.763,312.303 778.75,326.68 z" id="boundary" inkscape:connector-curvature="0" />
	<path style="fill:none;stroke:red;stroke-width:1px;stroke-linecap:butt;stroke-linejoin:miter;stroke-opacity:1" d="M 778.75,326.68 772.361,349.043 z" id="boundary" inkscape:connector-curvature="0" />
	<path style="fill:none;stroke:red;stroke-width:1px;stroke-linecap:butt;stroke-linejoin:miter;stroke-opacity:1" d="M 772.361,349.043 764.374,373.005 z" id="boundary" inkscape:connector-curvature="0" />
	<path style="fill:none;stroke:red;stroke-width:1px;stroke-linecap:butt;stroke-linejoin:miter;stroke-opacity:1" d="M 764.374,373.005 751.594,387.382 z" id="boundary" inkscape:connector-curvature="0" />
	<path style="fill:none;stroke:red;stroke-width:1px;stroke-linecap:butt;stroke-linejoin:miter;stroke-opacity:1" d="M 772.361,619.008 764.374,604.631 z" id="boundary" inkscape:connector-curvature="0" />
	<path style="fill:none;stroke:red;stroke-width:1px;stroke-linecap:butt;stroke-linejoin:miter;stroke-opacity:1" d="M 764.374,604.631 764.374,588.657 z" id="boundary" inkscape:connector-curvature="0" />
	<path style="fill:none;stroke:red;stroke-width:1px;stroke-linecap:butt;stroke-linejoin:miter;stroke-opacity:1" d="M 772.361,634.982 772.361,619.008 z" id="boundary" inkscape:connector-curvature="0" />
	<path style="fill:none;stroke:red;stroke-width:1px;stroke-linecap:butt;stroke-linejoin:miter;stroke-opacity:1" d="M 513.578,697.282 524.76,684.502 z" id="boundary" inkscape:connector-curvature="0" />
	<path style="fill:none;stroke:red;stroke-width:1px;stroke-linecap:butt;stroke-linejoin:miter;stroke-opacity:1" d="M 524.76,684.502 540.734,684.502 z" id="boundary" inkscape:connector-curvature="0" />
	<path style="fill:none;stroke:red;stroke-width:1px;stroke-linecap:butt;stroke-linejoin:miter;stroke-opacity:1" d="M 513.578,697.282 497.604,705.269 z" id="boundary" inkscape:connector-curvature="0" />
	<path style="fill:none;stroke:red;stroke-width:1px;stroke-linecap:butt;stroke-linejoin:miter;stroke-opacity:1" d="M 555.111,676.515 540.734,684.502 z" id="boundary" inkscape:connector-curvature="0" />
	<path style="fill:none;stroke:red;stroke-width:1px;stroke-linecap:butt;stroke-linejoin:miter;stroke-opacity:1" d="M 540.734,794.725 524.76,791.53 z" id="boundary" inkscape:connector-curvature="0" />
	<path style="fill:none;stroke:red;stroke-width:1px;stroke-linecap:butt;stroke-linejoin:miter;stroke-opacity:1" d="M 524.76,791.53 508.786,786.738 z" id="boundary" inkscape:connector-curvature="0" />
	<path style="fill:none;stroke:red;stroke-width:1px;stroke-linecap:butt;stroke-linejoin:miter;stroke-opacity:1" d="M 585.462,684.502 569.488,684.502 z" id="boundary" inkscape:connector-curvature="0" />
	<path style="fill:none;stroke:red;stroke-width:1px;stroke-linecap:butt;stroke-linejoin:miter;stroke-opacity:1" d="M 569.488,684.502 555.111,676.515 z" id="boundary" inkscape:connector-curvature="0" />
	<path style="fill:none;stroke:red;stroke-width:1px;stroke-linecap:butt;stroke-linejoin:miter;stroke-opacity:1" d="M 601.436,684.502 585.462,684.502 z" id="boundary" inkscape:connector-curvature="0" />
	<path style="fill:none;stroke:red;stroke-width:1px;stroke-linecap:butt;stroke-linejoin:miter;stroke-opacity:1" d="M 540.734,794.725 555.111,802.712 z" id="boundary" inkscape:connector-curvature="0" />
	<path style="fill:none;stroke:red;stroke-width:1px;stroke-linecap:butt;stroke-linejoin:miter;stroke-opacity:1" d="M 571.085,802.712 555.111,802.712 z" id="boundary" inkscape:connector-curvature="0" />
	<path style="fill:none;stroke:red;stroke-width:1px;stroke-linecap:butt;stroke-linejoin:miter;stroke-opacity:1" d="M 615.813,692.49 601.436,684.502 z" id="boundary" inkscape:connector-curvature="0" />
	<path style="fill:none;stroke:red;stroke-width:1px;stroke-linecap:butt;stroke-linejoin:miter;stroke-opacity:1" d="M 572.683,972.039 556.709,972.039 z" id="boundary" inkscape:connector-curvature="0" />
	<path style="fill:none;stroke:red;stroke-width:1px;stroke-linecap:butt;stroke-linejoin:miter;stroke-opacity:1" d="M 587.06,964.052 572.683,972.039 z" id="boundary" inkscape:connector-curvature="0" />
	<path style="fill:none;stroke:red;stroke-width:1px;stroke-linecap:butt;stroke-linejoin:miter;stroke-opacity:1" d="M 556.709,972.039 540.734,980.026 z" id="boundary" inkscape:connector-curvature="0" />
	<path style="fill:none;stroke:red;stroke-width:1px;stroke-linecap:butt;stroke-linejoin:miter;stroke-opacity:1" d="M 540.734,980.026 526.357,988.013 z" id="boundary" inkscape:connector-curvature="0" />
	<path style="fill:none;stroke:red;stroke-width:1px;stroke-linecap:butt;stroke-linejoin:miter;stroke-opacity:1" d="M 526.357,988.013 510.383,988.013 z" id="boundary" inkscape:connector-curvature="0" />
	<path style="fill:none;stroke:red;stroke-width:1px;stroke-linecap:butt;stroke-linejoin:miter;stroke-opacity:1" d="M 571.085,802.712 585.462,810.699 z" id="boundary" inkscape:connector-curvature="0" />
	<path style="fill:none;stroke:red;stroke-width:1px;stroke-linecap:butt;stroke-linejoin:miter;stroke-opacity:1" d="M 585.462,810.699 601.436,812.296 z" id="boundary" inkscape:connector-curvature="0" />
	<path style="fill:none;stroke:red;stroke-width:1px;stroke-linecap:butt;stroke-linejoin:miter;stroke-opacity:1" d="M 601.436,812.296 617.411,818.686 z" id="boundary" inkscape:connector-curvature="0" />
	<path style="fill:none;stroke:red;stroke-width:1px;stroke-linecap:butt;stroke-linejoin:miter;stroke-opacity:1" d="M 587.06,964.052 603.034,959.259 z" id="boundary" inkscape:connector-curvature="0" />
	<path style="fill:none;stroke:red;stroke-width:1px;stroke-linecap:butt;stroke-linejoin:miter;stroke-opacity:1" d="M 615.813,948.077 603.034,959.259 z" id="boundary" inkscape:connector-curvature="0" />
	<path style="fill:none;stroke:red;stroke-width:1px;stroke-linecap:butt;stroke-linejoin:miter;stroke-opacity:1" d="M 630.19,940.09 615.813,948.077 z" id="boundary" inkscape:connector-curvature="0" />
	<path style="fill:none;stroke:red;stroke-width:1px;stroke-linecap:butt;stroke-linejoin:miter;stroke-opacity:1" d="M 630.19,940.09 646.164,940.09 z" id="boundary" inkscape:connector-curvature="0" />
	<path style="fill:none;stroke:red;stroke-width:1px;stroke-linecap:butt;stroke-linejoin:miter;stroke-opacity:1" d="M 617.411,818.686 631.787,826.673 z" id="boundary" inkscape:connector-curvature="0" />
	<path style="fill:none;stroke:red;stroke-width:1px;stroke-linecap:butt;stroke-linejoin:miter;stroke-opacity:1" d="M 615.813,692.49 631.787,698.879 z" id="boundary" inkscape:connector-curvature="0" />
	<path style="fill:none;stroke:red;stroke-width:1px;stroke-linecap:butt;stroke-linejoin:miter;stroke-opacity:1" d="M 662.138,708.464 646.164,706.866 z" id="boundary" inkscape:connector-curvature="0" />
	<path style="fill:none;stroke:red;stroke-width:1px;stroke-linecap:butt;stroke-linejoin:miter;stroke-opacity:1" d="M 646.164,706.866 631.787,698.879 z" id="boundary" inkscape:connector-curvature="0" />
	<path style="fill:none;stroke:red;stroke-width:1px;stroke-linecap:butt;stroke-linejoin:miter;stroke-opacity:1" d="M 662.138,708.464 676.515,716.451 z" id="boundary" inkscape:connector-curvature="0" />
	<path style="fill:none;stroke:red;stroke-width:1px;stroke-linecap:butt;stroke-linejoin:miter;stroke-opacity:1" d="M 692.49,719.646 676.515,716.451 z" id="boundary" inkscape:connector-curvature="0" />
	<path style="fill:none;stroke:red;stroke-width:1px;stroke-linecap:butt;stroke-linejoin:miter;stroke-opacity:1" d="M 722.841,724.438 706.866,727.633 z" id="boundary" inkscape:connector-curvature="0" />
	<path style="fill:none;stroke:red;stroke-width:1px;stroke-linecap:butt;stroke-linejoin:miter;stroke-opacity:1" d="M 706.866,727.633 692.49,719.646 z" id="boundary" inkscape:connector-curvature="0" />
	<path style="fill:none;stroke:red;stroke-width:1px;stroke-linecap:butt;stroke-linejoin:miter;stroke-opacity:1" d="M 772.361,652.554 772.361,668.528 z" id="boundary" inkscape:connector-curvature="0" />
	<path style="fill:none;stroke:red;stroke-width:1px;stroke-linecap:butt;stroke-linejoin:miter;stroke-opacity:1" d="M 772.361,652.554 772.361,634.982 z" id="boundary" inkscape:connector-curvature="0" />
	<path style="fill:none;stroke:red;stroke-width:1px;stroke-linecap:butt;stroke-linejoin:miter;stroke-opacity:1" d="M 772.361,668.528 772.361,684.502 z" id="boundary" inkscape:connector-curvature="0" />
	<path style="fill:none;stroke:red;stroke-width:1px;stroke-linecap:butt;stroke-linejoin:miter;stroke-opacity:1" d="M 738.815,724.438 754.789,719.646 z" id="boundary" inkscape:connector-curvature="0" />
	<path style="fill:none;stroke:red;stroke-width:1px;stroke-linecap:butt;stroke-linejoin:miter;stroke-opacity:1" d="M 767.568,706.866 754.789,719.646 z" id="boundary" inkscape:connector-curvature="0" />
	<path style="fill:none;stroke:red;stroke-width:1px;stroke-linecap:butt;stroke-linejoin:miter;stroke-opacity:1" d="M 772.361,684.502 767.568,706.866 z" id="boundary" inkscape:connector-curvature="0" />
	<path style="fill:none;stroke:red;stroke-width:1px;stroke-linecap:butt;stroke-linejoin:miter;stroke-opacity:1" d="M 738.815,724.438 722.841,724.438 z" id="boundary" inkscape:connector-curvature="0" />
	<path style="fill:none;stroke:red;stroke-width:1px;stroke-linecap:butt;stroke-linejoin:miter;stroke-opacity:1" d="M 631.787,826.673 647.762,826.673 z" id="boundary" inkscape:connector-curvature="0" />
	<path style="fill:none;stroke:red;stroke-width:1px;stroke-linecap:butt;stroke-linejoin:miter;stroke-opacity:1" d="M 647.762,826.673 662.138,834.66 z" id="boundary" inkscape:connector-curvature="0" />
	<path style="fill:none;stroke:red;stroke-width:1px;stroke-linecap:butt;stroke-linejoin:miter;stroke-opacity:1" d="M 660.541,932.103 646.164,940.09 z" id="boundary" inkscape:connector-curvature="0" />
	<path style="fill:none;stroke:red;stroke-width:1px;stroke-linecap:butt;stroke-linejoin:miter;stroke-opacity:1" d="M 687.697,914.531 674.918,924.116 z" id="boundary" inkscape:connector-curvature="0" />
	<path style="fill:none;stroke:red;stroke-width:1px;stroke-linecap:butt;stroke-linejoin:miter;stroke-opacity:1" d="M 674.918,924.116 660.541,932.103 z" id="boundary" inkscape:connector-curvature="0" />
	<path style="fill:none;stroke:red;stroke-width:1px;stroke-linecap:butt;stroke-linejoin:miter;stroke-opacity:1" d="M 662.138,834.66 676.515,842.647 z" id="boundary" inkscape:connector-curvature="0" />
	<path style="fill:none;stroke:red;stroke-width:1px;stroke-linecap:butt;stroke-linejoin:miter;stroke-opacity:1" d="M 690.892,850.634 676.515,842.647 z" id="boundary" inkscape:connector-curvature="0" />
	<path style="fill:none;stroke:red;stroke-width:1px;stroke-linecap:butt;stroke-linejoin:miter;stroke-opacity:1" d="M 703.671,860.219 690.892,850.634 z" id="boundary" inkscape:connector-curvature="0" />
	<path style="fill:none;stroke:red;stroke-width:1px;stroke-linecap:butt;stroke-linejoin:miter;stroke-opacity:1" d="M 687.697,914.531 703.671,906.544 z" id="boundary" inkscape:connector-curvature="0" />
	<path style="fill:none;stroke:red;stroke-width:1px;stroke-linecap:butt;stroke-linejoin:miter;stroke-opacity:1" d="M 716.451,892.167 703.671,906.544 z" id="boundary" inkscape:connector-curvature="0" />
	<path style="fill:none;stroke:red;stroke-width:1px;stroke-linecap:butt;stroke-linejoin:miter;stroke-opacity:1" d="M 716.451,892.167 716.451,871.401 z" id="boundary" inkscape:connector-curvature="0" />
	<path style="fill:none;stroke:red;stroke-width:1px;stroke-linecap:butt;stroke-linejoin:miter;stroke-opacity:1" d="M 703.671,860.219 716.451,871.401 z" id="boundary" inkscape:connector-curvature="0" />
	<circle cx="4" cy="679.71" r="4" fill="#0" id="circle0"/>
	<circle cx="4" cy="695.684" r="4" fill="#0" id="circle1"/>
	<circle cx="4" cy="711.659" r="4" fill="#0" id="circle2"/>
	<circle cx="11.9871" cy="647.762" r="4" fill="#0" id="circle3"/>
	<circle cx="11.9871" cy="663.736" r="4" fill="#0" id="circle4"/>
	<circle cx="11.9871" cy="726.035" r="4" fill="#0" id="circle5"/>
	<circle cx="11.9871" cy="742.01" r="4" fill="#0" id="circle6"/>
	<circle cx="23.1691" cy="754.789" r="4" fill="#0" id="circle7"/>
	<circle cx="24.7665" cy="634.982" r="4" fill="#0" id="circle8"/>
	<circle cx="31.1562" cy="769.166" r="4" fill="#0" id="circle9"/>
	<circle cx="32.7536" cy="619.008" r="4" fill="#0" id="circle10"/>
	<circle cx="40.7407" cy="603.034" r="4" fill="#0" id="circle11"/>
	<circle cx="43.9356" cy="780.348" r="4" fill="#0" id="circle12"/>
	<circle cx="51.9227" cy="575.878" r="4" fill="#0" id="circle13"/>
	<circle cx="59.9098" cy="559.903" r="4" fill="#0" id="circle14"/>
	<circle cx="59.9098" cy="780.348" r="4" fill="#0" id="circle15"/>
	<circle cx="67.8969" cy="543.929" r="4" fill="#0" id="circle16"/>
	<circle cx="75.8841" cy="519.968" r="4" fill="#0" id="circle17"/>
	<circle cx="75.8841" cy="780.348" r="4" fill="#0" id="circle18"/>
	<circle cx="83.8712" cy="496.006" r="4" fill="#0" id="circle19"/>
	<circle cx="91.8583" cy="312.303" r="4" fill="#0" id="circle20"/>
	<circle cx="91.8583" cy="328.277" r="4" fill="#0" id="circle21"/>
	<circle cx="91.8583" cy="472.045" r="4" fill="#0" id="circle22"/>
	<circle cx="91.8583" cy="780.348" r="4" fill="#0" id="circle23"/>
	<circle cx="99.8454" cy="342.654" r="4" fill="#0" id="circle24"/>
	<circle cx="99.8454" cy="358.628" r="4" fill="#0" id="circle25"/>
	<circle cx="99.8454" cy="374.602" r="4" fill="#0" id="circle26"/>
	<circle cx="99.8454" cy="390.576" r="4" fill="#0" id="circle27"/>
	<circle cx="99.8454" cy="406.551" r="4" fill="#0" id="circle28"/>
	<circle cx="99.8454" cy="422.525" r="4" fill="#0" id="circle29"/>
	<circle cx="99.8454" cy="438.499" r="4" fill="#0" id="circle30"/>
	<circle cx="99.8454" cy="454.473" r="4" fill="#0" id="circle31"/>
	<circle cx="106.235" cy="788.335" r="4" fill="#0" id="circle32"/>
	<circle cx="107.833" cy="315.498" r="4" fill="#0" id="circle33"/>
	<circle cx="112.625" cy="804.309" r="4" fill="#0" id="circle34"/>
	<circle cx="123.807" cy="318.692" r="4" fill="#0" id="circle35"/>
	<circle cx="123.807" cy="817.089" r="4" fill="#0" id="circle36"/>
	<circle cx="131.794" cy="831.465" r="4" fill="#0" id="circle37"/>
	<circle cx="139.781" cy="315.498" r="4" fill="#0" id="circle38"/>
	<circle cx="139.781" cy="845.842" r="4" fill="#0" id="circle39"/>
	<circle cx="147.768" cy="860.219" r="4" fill="#0" id="circle40"/>
	<circle cx="155.755" cy="315.498" r="4" fill="#0" id="circle41"/>
	<circle cx="157.353" cy="872.998" r="4" fill="#0" id="circle42"/>
	<circle cx="165.34" cy="887.375" r="4" fill="#0" id="circle43"/>
	<circle cx="170.132" cy="307.51" r="4" fill="#0" id="circle44"/>
	<circle cx="179.717" cy="895.362" r="4" fill="#0" id="circle45"/>
	<circle cx="186.106" cy="307.51" r="4" fill="#0" id="circle46"/>
	<circle cx="192.496" cy="906.544" r="4" fill="#0" id="circle47"/>
	<circle cx="200.483" cy="299.523" r="4" fill="#0" id="circle48"/>
	<circle cx="206.873" cy="914.531" r="4" fill="#0" id="circle49"/>
	<circle cx="216.457" cy="291.536" r="4" fill="#0" id="circle50"/>
	<circle cx="219.652" cy="272.367" r="4" fill="#0" id="circle51"/>
	<circle cx="222.847" cy="920.921" r="4" fill="#0" id="circle52"/>
	<circle cx="227.639" cy="184.509" r="4" fill="#0" id="circle53"/>
	<circle cx="227.639" cy="200.483" r="4" fill="#0" id="circle54"/>
	<circle cx="227.639" cy="216.457" r="4" fill="#0" id="circle55"/>
	<circle cx="227.639" cy="232.432" r="4" fill="#0" id="circle56"/>
	<circle cx="227.639" cy="248.406" r="4" fill="#0" id="circle57"/>
	<circle cx="235.626" cy="112.625" r="4" fill="#0" id="circle58"/>
	<circle cx="235.626" cy="128.599" r="4" fill="#0" id="circle59"/>
	<circle cx="235.626" cy="144.573" r="4" fill="#0" id="circle60"/>
	<circle cx="235.626" cy="160.548" r="4" fill="#0" id="circle61"/>
	<circle cx="238.821" cy="916.129" r="4" fill="#0" id="circle62"/>
	<circle cx="243.614" cy="72.6892" r="4" fill="#0" id="circle63"/>
	<circle cx="243.614" cy="88.6634" r="4" fill="#0" id="circle64"/>
	<circle cx="251.601" cy="48.7279" r="4" fill="#0" id="circle65"/>
	<circle cx="253.198" cy="924.116" r="4" fill="#0" id="circle66"/>
	<circle cx="259.588" cy="32.7536" r="4" fill="#0" id="circle67"/>
	<circle cx="267.575" cy="932.103" r="4" fill="#0" id="circle68"/>
	<circle cx="272.367" cy="19.9742" r="4" fill="#0" id="circle69"/>
	<circle cx="283.549" cy="932.103" r="4" fill="#0" id="circle70"/>
	<circle cx="285.147" cy="7.19485" r="4" fill="#0" id="circle71"/>
	<circle cx="297.926" cy="940.09" r="4" fill="#0" id="circle72"/>
	<circle cx="301.121" cy="4" r="4" fill="#0" id="circle73"/>
	<circle cx="312.303" cy="948.077" r="4" fill="#0" id="circle74"/>
	<circle cx="317.095" cy="4" r="4" fill="#0" id="circle75"/>
	<circle cx="328.277" cy="954.467" r="4" fill="#0" id="circle76"/>
	<circle cx="333.069" cy="4" r="4" fill="#0" id="circle77"/>
	<circle cx="342.654" cy="962.454" r="4" fill="#0" id="circle78"/>
	<circle cx="347.446" cy="11.9871" r="4" fill="#0" id="circle79"/>
	<circle cx="358.628" cy="964.052" r="4" fill="#0" id="circle80"/>
	<circle cx="363.42" cy="8.79227" r="4" fill="#0" id="circle81"/>
	<circle cx="373.005" cy="972.039" r="4" fill="#0" id="circle82"/>
	<circle cx="379.395" cy="11.9871" r="4" fill="#0" id="circle83"/>
	<circle cx="387.382" cy="980.026" r="4" fill="#0" id="circle84"/>
	<circle cx="395.369" cy="15.182" r="4" fill="#0" id="circle85"/>
	<circle cx="403.356" cy="980.026" r="4" fill="#0" id="circle86"/>
	<circle cx="411.343" cy="15.182" r="4" fill="#0" id="circle87"/>
	<circle cx="419.33" cy="980.026" r="4" fill="#0" id="circle88"/>
	<circle cx="427.317" cy="19.9742" r="4" fill="#0" id="circle89"/>
	<circle cx="433.707" cy="988.013" r="4" fill="#0" id="circle90"/>
	<circle cx="441.694" cy="27.9614" r="4" fill="#0" id="circle91"/>
	<circle cx="448.084" cy="996" r="4" fill="#0" id="circle92"/>
	<circle cx="456.071" cy="35.9485" r="4" fill="#0" id="circle93"/>
	<circle cx="460.863" cy="772.361" r="4" fill="#0" id="circle94"/>
	<circle cx="462.461" cy="988.013" r="4" fill="#0" id="circle95"/>
	<circle cx="468.85" cy="748.399" r="4" fill="#0" id="circle96"/>
	<circle cx="470.448" cy="43.9356" r="4" fill="#0" id="circle97"/>
	<circle cx="476.837" cy="732.425" r="4" fill="#0" id="circle98"/>
	<circle cx="476.837" cy="778.75" r="4" fill="#0" id="circle99"/>
	<circle cx="478.435" cy="988.013" r="4" fill="#0" id="circle100"/>
	<circle cx="484.824" cy="51.9227" r="4" fill="#0" id="circle101"/>
	<circle cx="489.617" cy="721.243" r="4" fill="#0" id="circle102"/>
	<circle cx="492.812" cy="783.543" r="4" fill="#0" id="circle103"/>
	<circle cx="494.409" cy="992.805" r="4" fill="#0" id="circle104"/>
	<circle cx="497.604" cy="61.5072" r="4" fill="#0" id="circle105"/>
	<circle cx="497.604" cy="705.269" r="4" fill="#0" id="circle106"/>
	<circle cx="508.786" cy="786.738" r="4" fill="#0" id="circle107"/>
	<circle cx="510.383" cy="988.013" r="4" fill="#0" id="circle108"/>
	<circle cx="511.981" cy="69.4944" r="4" fill="#0" id="circle109"/>
	<circle cx="513.578" cy="697.282" r="4" fill="#0" id="circle110"/>
	<circle cx="519.968" cy="83.8712" r="4" fill="#0" id="circle111"/>
	<circle cx="524.76" cy="684.502" r="4" fill="#0" id="circle112"/>
	<circle cx="524.76" cy="791.53" r="4" fill="#0" id="circle113"/>
	<circle cx="526.357" cy="988.013" r="4" fill="#0" id="circle114"/>
	<circle cx="532.747" cy="93.4557" r="4" fill="#0" id="circle115"/>
	<circle cx="540.734" cy="684.502" r="4" fill="#0" id="circle116"/>
	<circle cx="540.734" cy="794.725" r="4" fill="#0" id="circle117"/>
	<circle cx="540.734" cy="980.026" r="4" fill="#0" id="circle118"/>
	<circle cx="545.527" cy="103.04" r="4" fill="#0" id="circle119"/>
	<circle cx="555.111" cy="115.82" r="4" fill="#0" id="circle120"/>
	<circle cx="555.111" cy="676.515" r="4" fill="#0" id="circle121"/>
	<circle cx="555.111" cy="802.712" r="4" fill="#0" id="circle122"/>
	<circle cx="556.709" cy="972.039" r="4" fill="#0" id="circle123"/>
	<circle cx="567.89" cy="125.404" r="4" fill="#0" id="circle124"/>
	<circle cx="569.488" cy="684.502" r="4" fill="#0" id="circle125"/>
	<circle cx="571.085" cy="802.712" r="4" fill="#0" id="circle126"/>
	<circle cx="572.683" cy="972.039" r="4" fill="#0" id="circle127"/>
	<circle cx="583.865" cy="131.794" r="4" fill="#0" id="circle128"/>
	<circle cx="585.462" cy="684.502" r="4" fill="#0" id="circle129"/>
	<circle cx="585.462" cy="810.699" r="4" fill="#0" id="circle130"/>
	<circle cx="587.06" cy="964.052" r="4" fill="#0" id="circle131"/>
	<circle cx="595.047" cy="144.573" r="4" fill="#0" id="circle132"/>
	<circle cx="601.436" cy="684.502" r="4" fill="#0" id="circle133"/>
	<circle cx="601.436" cy="812.296" r="4" fill="#0" id="circle134"/>
	<circle cx="603.034" cy="959.259" r="4" fill="#0" id="circle135"/>
	<circle cx="611.021" cy="150.963" r="4" fill="#0" id="circle136"/>
	<circle cx="615.813" cy="692.49" r="4" fill="#0" id="circle137"/>
	<circle cx="615.813" cy="948.077" r="4" fill="#0" id="circle138"/>
	<circle cx="617.411" cy="818.686" r="4" fill="#0" id="circle139"/>
	<circle cx="626.995" cy="155.755" r="4" fill="#0" id="circle140"/>
	<circle cx="630.19" cy="940.09" r="4" fill="#0" id="circle141"/>
	<circle cx="631.787" cy="698.879" r="4" fill="#0" id="circle142"/>
	<circle cx="631.787" cy="826.673" r="4" fill="#0" id="circle143"/>
	<circle cx="642.969" cy="155.755" r="4" fill="#0" id="circle144"/>
	<circle cx="646.164" cy="706.866" r="4" fill="#0" id="circle145"/>
	<circle cx="646.164" cy="940.09" r="4" fill="#0" id="circle146"/>
	<circle cx="647.762" cy="826.673" r="4" fill="#0" id="circle147"/>
	<circle cx="658.944" cy="152.56" r="4" fill="#0" id="circle148"/>
	<circle cx="660.541" cy="932.103" r="4" fill="#0" id="circle149"/>
	<circle cx="662.138" cy="708.464" r="4" fill="#0" id="circle150"/>
	<circle cx="662.138" cy="834.66" r="4" fill="#0" id="circle151"/>
	<circle cx="668.528" cy="444.889" r="4" fill="#0" id="circle152"/>
	<circle cx="668.528" cy="460.863" r="4" fill="#0" id="circle153"/>
	<circle cx="674.918" cy="152.56" r="4" fill="#0" id="circle154"/>
	<circle cx="674.918" cy="924.116" r="4" fill="#0" id="circle155"/>
	<circle cx="676.515" cy="475.24" r="4" fill="#0" id="circle156"/>
	<circle cx="676.515" cy="491.214" r="4" fill="#0" id="circle157"/>
	<circle cx="676.515" cy="716.451" r="4" fill="#0" id="circle158"/>
	<circle cx="676.515" cy="842.647" r="4" fill="#0" id="circle159"/>
	<circle cx="682.905" cy="436.902" r="4" fill="#0" id="circle160"/>
	<circle cx="687.697" cy="914.531" r="4" fill="#0" id="circle161"/>
	<circle cx="689.295" cy="500.799" r="4" fill="#0" id="circle162"/>
	<circle cx="690.892" cy="147.768" r="4" fill="#0" id="circle163"/>
	<circle cx="690.892" cy="850.634" r="4" fill="#0" id="circle164"/>
	<circle cx="692.49" cy="719.646" r="4" fill="#0" id="circle165"/>
	<circle cx="695.684" cy="516.773" r="4" fill="#0" id="circle166"/>
	<circle cx="697.282" cy="428.915" r="4" fill="#0" id="circle167"/>
	<circle cx="703.671" cy="860.219" r="4" fill="#0" id="circle168"/>
	<circle cx="703.671" cy="906.544" r="4" fill="#0" id="circle169"/>
	<circle cx="705.269" cy="139.781" r="4" fill="#0" id="circle170"/>
	<circle cx="706.866" cy="727.633" r="4" fill="#0" id="circle171"/>
	<circle cx="708.464" cy="527.955" r="4" fill="#0" id="circle172"/>
	<circle cx="711.659" cy="420.928" r="4" fill="#0" id="circle173"/>
	<circle cx="716.451" cy="871.401" r="4" fill="#0" id="circle174"/>
	<circle cx="716.451" cy="892.167" r="4" fill="#0" id="circle175"/>
	<circle cx="719.646" cy="540.734" r="4" fill="#0" id="circle176"/>
	<circle cx="721.243" cy="139.781" r="4" fill="#0" id="circle177"/>
	<circle cx="722.841" cy="724.438" r="4" fill="#0" id="circle178"/>
	<circle cx="724.438" cy="253.198" r="4" fill="#0" id="circle179"/>
	<circle cx="724.438" cy="269.172" r="4" fill="#0" id="circle180"/>
	<circle cx="726.035" cy="412.94" r="4" fill="#0" id="circle181"/>
	<circle cx="732.425" cy="237.224" r="4" fill="#0" id="circle182"/>
	<circle cx="732.425" cy="551.916" r="4" fill="#0" id="circle183"/>
	<circle cx="737.217" cy="139.781" r="4" fill="#0" id="circle184"/>
	<circle cx="737.217" cy="278.757" r="4" fill="#0" id="circle185"/>
	<circle cx="738.815" cy="400.161" r="4" fill="#0" id="circle186"/>
	<circle cx="738.815" cy="724.438" r="4" fill="#0" id="circle187"/>
	<circle cx="740.412" cy="221.25" r="4" fill="#0" id="circle188"/>
	<circle cx="743.607" cy="564.696" r="4" fill="#0" id="circle189"/>
	<circle cx="748.399" cy="205.275" r="4" fill="#0" id="circle190"/>
	<circle cx="748.399" cy="291.536" r="4" fill="#0" id="circle191"/>
	<circle cx="751.594" cy="147.768" r="4" fill="#0" id="circle192"/>
	<circle cx="751.594" cy="387.382" r="4" fill="#0" id="circle193"/>
	<circle cx="751.594" cy="579.072" r="4" fill="#0" id="circle194"/>
	<circle cx="754.789" cy="719.646" r="4" fill="#0" id="circle195"/>
	<circle cx="756.386" cy="173.327" r="4" fill="#0" id="circle196"/>
	<circle cx="756.386" cy="189.301" r="4" fill="#0" id="circle197"/>
	<circle cx="764.374" cy="157.353" r="4" fill="#0" id="circle198"/>
	<circle cx="764.374" cy="296.329" r="4" fill="#0" id="circle199"/>
	<circle cx="764.374" cy="373.005" r="4" fill="#0" id="circle200"/>
	<circle cx="764.374" cy="588.657" r="4" fill="#0" id="circle201"/>
	<circle cx="764.374" cy="604.631" r="4" fill="#0" id="circle202"/>
	<circle cx="767.568" cy="706.866" r="4" fill="#0" id="circle203"/>
	<circle cx="770.763" cy="312.303" r="4" fill="#0" id="circle204"/>
	<circle cx="772.361" cy="349.043" r="4" fill="#0" id="circle205"/>
	<circle cx="772.361" cy="619.008" r="4" fill="#0" id="circle206"/>
	<circle cx="772.361" cy="634.982" r="4" fill="#0" id="circle207"/>
	<circle cx="772.361" cy="652.554" r="4" fill="#0" id="circle208"/>
	<circle cx="772.361" cy="668.528" r="4" fill="#0" id="circle209"/>
	<circle cx="772.361" cy="684.502" r="4" fill="#0" id="circle210"/>
	<circle cx="778.75" cy="326.68" r="4" fill="#0" id="circle211"/>
	</g>
</svg>