<?xml version="1.0" encoding="UTF-8" standalone="no"?>
<!-- Created with CurveBenchmark -->
<svg
	xmlns:dc="http://purl.org/dc/elements/1.1/"
	xmlns:cc="http://creativecommons.org/ns#"
	xmlns:rdf="http://www.w3.org/1999/02/22-rdf-syntax-ns#"
	xmlns:svg="http://www.w3.org/2000/svg"
	xmlns="http://www.w3.org/2000/svg"
	xmlns:sodipodi="http://sodipodi.sourceforge.net/DTD/sodipodi-0.dtd"
	xmlns:inkscape="http://www.inkscape.org/namespaces/inkscape"
	width="1000"
	height="1000"
	id="svg2"
	version="1.1"
	sodipodi:docname="manifold/gathan1-flatfish29.png.txt">
<defs
	id="defs4" />
<metadata
	id="metadata7">
	<rdf:RDF>
		<cc:Work
			rdf:about="">
			<dc:format>image/svg+xml</dc:format>
			<dc:type
				rdf:resource="http://purl.org/dc/dcmitype/StillImage" />
			<dc:title></dc:title>
		</cc:Work>
	</rdf:RDF>
</metadata>
<g
	inkscape:label="Layer 1"
	inkscape:groupmode="layer"
	id="layer1">
	<path style="fill:none;stroke:red;stroke-width:1px;stroke-linecap:butt;stroke-linejoin:miter;stroke-opacity:1" d="M 54.785,229.147 63.2491,212.218 z" id="boundary" inkscape:connector-curvature="0" />
	<path style="fill:none;stroke:red;stroke-width:1px;stroke-linecap:butt;stroke-linejoin:miter;stroke-opacity:1" d="M 63.2491,212.218 80.1775,203.754 z" id="boundary" inkscape:connector-curvature="0" />
	<path style="fill:none;stroke:red;stroke-width:1px;stroke-linecap:butt;stroke-linejoin:miter;stroke-opacity:1" d="M 88.6416,186.826 80.1775,203.754 z" id="boundary" inkscape:connector-curvature="0" />
	<path style="fill:none;stroke:red;stroke-width:1px;stroke-linecap:butt;stroke-linejoin:miter;stroke-opacity:1" d="M 46.3208,246.075 54.785,229.147 z" id="boundary" inkscape:connector-curvature="0" />
	<path style="fill:none;stroke:red;stroke-width:1px;stroke-linecap:butt;stroke-linejoin:miter;stroke-opacity:1" d="M 39.5495,293.474 29.3925,279.932 z" id="boundary" inkscape:connector-curvature="0" />
	<path style="fill:none;stroke:red;stroke-width:1px;stroke-linecap:butt;stroke-linejoin:miter;stroke-opacity:1" d="M 29.3925,279.932 37.8567,263.003 z" id="boundary" inkscape:connector-curvature="0" />
	<path style="fill:none;stroke:red;stroke-width:1px;stroke-linecap:butt;stroke-linejoin:miter;stroke-opacity:1" d="M 37.8567,263.003 46.3208,246.075 z" id="boundary" inkscape:connector-curvature="0" />
	<path style="fill:none;stroke:red;stroke-width:1px;stroke-linecap:butt;stroke-linejoin:miter;stroke-opacity:1" d="M 127.577,156.355 142.812,147.891 z" id="boundary" inkscape:connector-curvature="0" />
	<path style="fill:none;stroke:red;stroke-width:1px;stroke-linecap:butt;stroke-linejoin:miter;stroke-opacity:1" d="M 119.113,173.283 127.577,156.355 z" id="boundary" inkscape:connector-curvature="0" />
	<path style="fill:none;stroke:red;stroke-width:1px;stroke-linecap:butt;stroke-linejoin:miter;stroke-opacity:1" d="M 158.048,139.427 142.812,147.891 z" id="boundary" inkscape:connector-curvature="0" />
	<path style="fill:none;stroke:red;stroke-width:1px;stroke-linecap:butt;stroke-linejoin:miter;stroke-opacity:1" d="M 88.6416,186.826 102.184,173.283 z" id="boundary" inkscape:connector-curvature="0" />
	<path style="fill:none;stroke:red;stroke-width:1px;stroke-linecap:butt;stroke-linejoin:miter;stroke-opacity:1" d="M 102.184,173.283 119.113,173.283 z" id="boundary" inkscape:connector-curvature="0" />
	<path style="fill:none;stroke:red;stroke-width:1px;stroke-linecap:butt;stroke-linejoin:miter;stroke-opacity:1" d="M 4,423.823 12.4642,406.894 z" id="boundary" inkscape:connector-curvature="0" />
	<path style="fill:none;stroke:red;stroke-width:1px;stroke-linecap:butt;stroke-linejoin:miter;stroke-opacity:1" d="M 4,440.751 4,423.823 z" id="boundary" inkscape:connector-curvature="0" />
	<path style="fill:none;stroke:red;stroke-width:1px;stroke-linecap:butt;stroke-linejoin:miter;stroke-opacity:1" d="M 4,457.679 4,440.751 z" id="boundary" inkscape:connector-curvature="0" />
	<path style="fill:none;stroke:red;stroke-width:1px;stroke-linecap:butt;stroke-linejoin:miter;stroke-opacity:1" d="M 4,474.608 4,457.679 z" id="boundary" inkscape:connector-curvature="0" />
	<path style="fill:none;stroke:red;stroke-width:1px;stroke-linecap:butt;stroke-linejoin:miter;stroke-opacity:1" d="M 4,500 4,474.608 z" id="boundary" inkscape:connector-curvature="0" />
	<path style="fill:none;stroke:red;stroke-width:1px;stroke-linecap:butt;stroke-linejoin:miter;stroke-opacity:1" d="M 12.4642,406.894 20.9283,389.966 z" id="boundary" inkscape:connector-curvature="0" />
	<path style="fill:none;stroke:red;stroke-width:1px;stroke-linecap:butt;stroke-linejoin:miter;stroke-opacity:1" d="M 39.5495,293.474 54.785,301.939 z" id="boundary" inkscape:connector-curvature="0" />
	<path style="fill:none;stroke:red;stroke-width:1px;stroke-linecap:butt;stroke-linejoin:miter;stroke-opacity:1" d="M 54.785,301.939 46.3208,330.717 z" id="boundary" inkscape:connector-curvature="0" />
	<path style="fill:none;stroke:red;stroke-width:1px;stroke-linecap:butt;stroke-linejoin:miter;stroke-opacity:1" d="M 46.3208,330.717 37.8567,347.645 z" id="boundary" inkscape:connector-curvature="0" />
	<path style="fill:none;stroke:red;stroke-width:1px;stroke-linecap:butt;stroke-linejoin:miter;stroke-opacity:1" d="M 29.3925,373.038 20.9283,389.966 z" id="boundary" inkscape:connector-curvature="0" />
	<path style="fill:none;stroke:red;stroke-width:1px;stroke-linecap:butt;stroke-linejoin:miter;stroke-opacity:1" d="M 37.8567,347.645 29.3925,373.038 z" id="boundary" inkscape:connector-curvature="0" />
	<path style="fill:none;stroke:red;stroke-width:1px;stroke-linecap:butt;stroke-linejoin:miter;stroke-opacity:1" d="M 158.048,139.427 173.283,130.962 z" id="boundary" inkscape:connector-curvature="0" />
	<path style="fill:none;stroke:red;stroke-width:1px;stroke-linecap:butt;stroke-linejoin:miter;stroke-opacity:1" d="M 403.509,51.3993 386.58,54.785 z" id="boundary" inkscape:connector-curvature="0" />
	<path style="fill:none;stroke:red;stroke-width:1px;stroke-linecap:butt;stroke-linejoin:miter;stroke-opacity:1" d="M 403.509,51.3993 420.437,54.785 z" id="boundary" inkscape:connector-curvature="0" />
	<path style="fill:none;stroke:red;stroke-width:1px;stroke-linecap:butt;stroke-linejoin:miter;stroke-opacity:1" d="M 344.259,58.1706 361.188,49.7065 z" id="boundary" inkscape:connector-curvature="0" />
	<path style="fill:none;stroke:red;stroke-width:1px;stroke-linecap:butt;stroke-linejoin:miter;stroke-opacity:1" d="M 344.259,58.1706 332.41,71.7133 z" id="boundary" inkscape:connector-curvature="0" />
	<path style="fill:none;stroke:red;stroke-width:1px;stroke-linecap:butt;stroke-linejoin:miter;stroke-opacity:1" d="M 332.41,71.7133 317.174,63.2491 z" id="boundary" inkscape:connector-curvature="0" />
	<path style="fill:none;stroke:red;stroke-width:1px;stroke-linecap:butt;stroke-linejoin:miter;stroke-opacity:1" d="M 386.58,54.785 371.345,63.2491 z" id="boundary" inkscape:connector-curvature="0" />
	<path style="fill:none;stroke:red;stroke-width:1px;stroke-linecap:butt;stroke-linejoin:miter;stroke-opacity:1" d="M 435.672,46.3208 420.437,54.785 z" id="boundary" inkscape:connector-curvature="0" />
	<path style="fill:none;stroke:red;stroke-width:1px;stroke-linecap:butt;stroke-linejoin:miter;stroke-opacity:1" d="M 317.174,63.2491 300.246,68.3276 z" id="boundary" inkscape:connector-curvature="0" />
	<path style="fill:none;stroke:red;stroke-width:1px;stroke-linecap:butt;stroke-linejoin:miter;stroke-opacity:1" d="M 452.601,49.7065 469.529,54.785 z" id="boundary" inkscape:connector-curvature="0" />
	<path style="fill:none;stroke:red;stroke-width:1px;stroke-linecap:butt;stroke-linejoin:miter;stroke-opacity:1" d="M 452.601,49.7065 435.672,46.3208 z" id="boundary" inkscape:connector-curvature="0" />
	<path style="fill:none;stroke:red;stroke-width:1px;stroke-linecap:butt;stroke-linejoin:miter;stroke-opacity:1" d="M 486.457,58.1706 503.386,54.785 z" id="boundary" inkscape:connector-curvature="0" />
	<path style="fill:none;stroke:red;stroke-width:1px;stroke-linecap:butt;stroke-linejoin:miter;stroke-opacity:1" d="M 486.457,58.1706 469.529,54.785 z" id="boundary" inkscape:connector-curvature="0" />
	<path style="fill:none;stroke:red;stroke-width:1px;stroke-linecap:butt;stroke-linejoin:miter;stroke-opacity:1" d="M 520.314,54.785 503.386,54.785 z" id="boundary" inkscape:connector-curvature="0" />
	<path style="fill:none;stroke:red;stroke-width:1px;stroke-linecap:butt;stroke-linejoin:miter;stroke-opacity:1" d="M 520.314,54.785 530.471,68.3276 z" id="boundary" inkscape:connector-curvature="0" />
	<path style="fill:none;stroke:red;stroke-width:1px;stroke-linecap:butt;stroke-linejoin:miter;stroke-opacity:1" d="M 218.99,105.57 232.532,93.7201 z" id="boundary" inkscape:connector-curvature="0" />
	<path style="fill:none;stroke:red;stroke-width:1px;stroke-linecap:butt;stroke-linejoin:miter;stroke-opacity:1" d="M 218.99,105.57 203.754,114.034 z" id="boundary" inkscape:connector-curvature="0" />
	<path style="fill:none;stroke:red;stroke-width:1px;stroke-linecap:butt;stroke-linejoin:miter;stroke-opacity:1" d="M 232.532,93.7201 249.461,85.256 z" id="boundary" inkscape:connector-curvature="0" />
	<path style="fill:none;stroke:red;stroke-width:1px;stroke-linecap:butt;stroke-linejoin:miter;stroke-opacity:1" d="M 249.461,85.256 266.389,85.256 z" id="boundary" inkscape:connector-curvature="0" />
	<path style="fill:none;stroke:red;stroke-width:1px;stroke-linecap:butt;stroke-linejoin:miter;stroke-opacity:1" d="M 188.519,122.498 173.283,130.962 z" id="boundary" inkscape:connector-curvature="0" />
	<path style="fill:none;stroke:red;stroke-width:1px;stroke-linecap:butt;stroke-linejoin:miter;stroke-opacity:1" d="M 203.754,114.034 188.519,122.498 z" id="boundary" inkscape:connector-curvature="0" />
	<path style="fill:none;stroke:red;stroke-width:1px;stroke-linecap:butt;stroke-linejoin:miter;stroke-opacity:1" d="M 547.399,63.2491 530.471,68.3276 z" id="boundary" inkscape:connector-curvature="0" />
	<path style="fill:none;stroke:red;stroke-width:1px;stroke-linecap:butt;stroke-linejoin:miter;stroke-opacity:1" d="M 266.389,85.256 283.317,76.7918 z" id="boundary" inkscape:connector-curvature="0" />
	<path style="fill:none;stroke:red;stroke-width:1px;stroke-linecap:butt;stroke-linejoin:miter;stroke-opacity:1" d="M 283.317,76.7918 300.246,68.3276 z" id="boundary" inkscape:connector-curvature="0" />
	<path style="fill:none;stroke:red;stroke-width:1px;stroke-linecap:butt;stroke-linejoin:miter;stroke-opacity:1" d="M 564.328,63.2491 547.399,63.2491 z" id="boundary" inkscape:connector-curvature="0" />
	<path style="fill:none;stroke:red;stroke-width:1px;stroke-linecap:butt;stroke-linejoin:miter;stroke-opacity:1" d="M 4,550.785 4,533.857 z" id="boundary" inkscape:connector-curvature="0" />
	<path style="fill:none;stroke:red;stroke-width:1px;stroke-linecap:butt;stroke-linejoin:miter;stroke-opacity:1" d="M 17.5427,596.491 4,584.642 z" id="boundary" inkscape:connector-curvature="0" />
	<path style="fill:none;stroke:red;stroke-width:1px;stroke-linecap:butt;stroke-linejoin:miter;stroke-opacity:1" d="M 4,584.642 4,567.713 z" id="boundary" inkscape:connector-curvature="0" />
	<path style="fill:none;stroke:red;stroke-width:1px;stroke-linecap:butt;stroke-linejoin:miter;stroke-opacity:1" d="M 4,567.713 4,550.785 z" id="boundary" inkscape:connector-curvature="0" />
	<path style="fill:none;stroke:red;stroke-width:1px;stroke-linecap:butt;stroke-linejoin:miter;stroke-opacity:1" d="M 17.5427,596.491 24.314,613.42 z" id="boundary" inkscape:connector-curvature="0" />
	<path style="fill:none;stroke:red;stroke-width:1px;stroke-linecap:butt;stroke-linejoin:miter;stroke-opacity:1" d="M 4,533.857 4,516.928 z" id="boundary" inkscape:connector-curvature="0" />
	<path style="fill:none;stroke:red;stroke-width:1px;stroke-linecap:butt;stroke-linejoin:miter;stroke-opacity:1" d="M 49.7065,632.041 32.7782,628.655 z" id="boundary" inkscape:connector-curvature="0" />
	<path style="fill:none;stroke:red;stroke-width:1px;stroke-linecap:butt;stroke-linejoin:miter;stroke-opacity:1" d="M 32.7782,628.655 24.314,613.42 z" id="boundary" inkscape:connector-curvature="0" />
	<path style="fill:none;stroke:red;stroke-width:1px;stroke-linecap:butt;stroke-linejoin:miter;stroke-opacity:1" d="M 49.7065,632.041 64.942,640.505 z" id="boundary" inkscape:connector-curvature="0" />
	<path style="fill:none;stroke:red;stroke-width:1px;stroke-linecap:butt;stroke-linejoin:miter;stroke-opacity:1" d="M 64.942,640.505 81.8703,640.505 z" id="boundary" inkscape:connector-curvature="0" />
	<path style="fill:none;stroke:red;stroke-width:1px;stroke-linecap:butt;stroke-linejoin:miter;stroke-opacity:1" d="M 81.8703,640.505 97.1058,648.969 z" id="boundary" inkscape:connector-curvature="0" />
	<path style="fill:none;stroke:red;stroke-width:1px;stroke-linecap:butt;stroke-linejoin:miter;stroke-opacity:1" d="M 114.034,643.891 97.1058,648.969 z" id="boundary" inkscape:connector-curvature="0" />
	<path style="fill:none;stroke:red;stroke-width:1px;stroke-linecap:butt;stroke-linejoin:miter;stroke-opacity:1" d="M 4,516.928 4,500 z" id="boundary" inkscape:connector-curvature="0" />
	<path style="fill:none;stroke:red;stroke-width:1px;stroke-linecap:butt;stroke-linejoin:miter;stroke-opacity:1" d="M 114.034,643.891 127.577,655.741 z" id="boundary" inkscape:connector-curvature="0" />
	<path style="fill:none;stroke:red;stroke-width:1px;stroke-linecap:butt;stroke-linejoin:miter;stroke-opacity:1" d="M 144.505,648.969 127.577,655.741 z" id="boundary" inkscape:connector-curvature="0" />
	<path style="fill:none;stroke:red;stroke-width:1px;stroke-linecap:butt;stroke-linejoin:miter;stroke-opacity:1" d="M 161.433,648.969 144.505,648.969 z" id="boundary" inkscape:connector-curvature="0" />
	<path style="fill:none;stroke:red;stroke-width:1px;stroke-linecap:butt;stroke-linejoin:miter;stroke-opacity:1" d="M 161.433,648.969 178.362,655.741 z" id="boundary" inkscape:connector-curvature="0" />
	<path style="fill:none;stroke:red;stroke-width:1px;stroke-linecap:butt;stroke-linejoin:miter;stroke-opacity:1" d="M 195.29,655.741 178.362,655.741 z" id="boundary" inkscape:connector-curvature="0" />
	<path style="fill:none;stroke:red;stroke-width:1px;stroke-linecap:butt;stroke-linejoin:miter;stroke-opacity:1" d="M 195.29,655.741 210.526,664.205 z" id="boundary" inkscape:connector-curvature="0" />
	<path style="fill:none;stroke:red;stroke-width:1px;stroke-linecap:butt;stroke-linejoin:miter;stroke-opacity:1" d="M 259.618,657.433 274.853,648.969 z" id="boundary" inkscape:connector-curvature="0" />
	<path style="fill:none;stroke:red;stroke-width:1px;stroke-linecap:butt;stroke-linejoin:miter;stroke-opacity:1" d="M 274.853,648.969 285.01,662.512 z" id="boundary" inkscape:connector-curvature="0" />
	<path style="fill:none;stroke:red;stroke-width:1px;stroke-linecap:butt;stroke-linejoin:miter;stroke-opacity:1" d="M 244.382,665.898 259.618,657.433 z" id="boundary" inkscape:connector-curvature="0" />
	<path style="fill:none;stroke:red;stroke-width:1px;stroke-linecap:butt;stroke-linejoin:miter;stroke-opacity:1" d="M 227.454,665.898 210.526,664.205 z" id="boundary" inkscape:connector-curvature="0" />
	<path style="fill:none;stroke:red;stroke-width:1px;stroke-linecap:butt;stroke-linejoin:miter;stroke-opacity:1" d="M 244.382,665.898 227.454,665.898 z" id="boundary" inkscape:connector-curvature="0" />
	<path style="fill:none;stroke:red;stroke-width:1px;stroke-linecap:butt;stroke-linejoin:miter;stroke-opacity:1" d="M 285.01,662.512 298.553,674.362 z" id="boundary" inkscape:connector-curvature="0" />
	<path style="fill:none;stroke:red;stroke-width:1px;stroke-linecap:butt;stroke-linejoin:miter;stroke-opacity:1" d="M 403.509,672.669 395.044,657.433 z" id="boundary" inkscape:connector-curvature="0" />
	<path style="fill:none;stroke:red;stroke-width:1px;stroke-linecap:butt;stroke-linejoin:miter;stroke-opacity:1" d="M 395.044,657.433 410.28,648.969 z" id="boundary" inkscape:connector-curvature="0" />
	<path style="fill:none;stroke:red;stroke-width:1px;stroke-linecap:butt;stroke-linejoin:miter;stroke-opacity:1" d="M 457.679,648.969 442.444,657.433 z" id="boundary" inkscape:connector-curvature="0" />
	<path style="fill:none;stroke:red;stroke-width:1px;stroke-linecap:butt;stroke-linejoin:miter;stroke-opacity:1" d="M 417.051,682.826 403.509,672.669 z" id="boundary" inkscape:connector-curvature="0" />
	<path style="fill:none;stroke:red;stroke-width:1px;stroke-linecap:butt;stroke-linejoin:miter;stroke-opacity:1" d="M 410.28,648.969 425.515,657.433 z" id="boundary" inkscape:connector-curvature="0" />
	<path style="fill:none;stroke:red;stroke-width:1px;stroke-linecap:butt;stroke-linejoin:miter;stroke-opacity:1" d="M 442.444,657.433 425.515,657.433 z" id="boundary" inkscape:connector-curvature="0" />
	<path style="fill:none;stroke:red;stroke-width:1px;stroke-linecap:butt;stroke-linejoin:miter;stroke-opacity:1" d="M 457.679,648.969 474.608,648.969 z" id="boundary" inkscape:connector-curvature="0" />
	<path style="fill:none;stroke:red;stroke-width:1px;stroke-linecap:butt;stroke-linejoin:miter;stroke-opacity:1" d="M 522.007,632.041 530.471,615.113 z" id="boundary" inkscape:connector-curvature="0" />
	<path style="fill:none;stroke:red;stroke-width:1px;stroke-linecap:butt;stroke-linejoin:miter;stroke-opacity:1" d="M 530.471,615.113 545.706,623.577 z" id="boundary" inkscape:connector-curvature="0" />
	<path style="fill:none;stroke:red;stroke-width:1px;stroke-linecap:butt;stroke-linejoin:miter;stroke-opacity:1" d="M 522.007,632.041 506.771,640.505 z" id="boundary" inkscape:connector-curvature="0" />
	<path style="fill:none;stroke:red;stroke-width:1px;stroke-linecap:butt;stroke-linejoin:miter;stroke-opacity:1" d="M 562.635,618.498 545.706,623.577 z" id="boundary" inkscape:connector-curvature="0" />
	<path style="fill:none;stroke:red;stroke-width:1px;stroke-linecap:butt;stroke-linejoin:miter;stroke-opacity:1" d="M 474.608,648.969 489.843,640.505 z" id="boundary" inkscape:connector-curvature="0" />
	<path style="fill:none;stroke:red;stroke-width:1px;stroke-linecap:butt;stroke-linejoin:miter;stroke-opacity:1" d="M 489.843,640.505 506.771,640.505 z" id="boundary" inkscape:connector-curvature="0" />
	<path style="fill:none;stroke:red;stroke-width:1px;stroke-linecap:butt;stroke-linejoin:miter;stroke-opacity:1" d="M 298.553,674.362 315.481,674.362 z" id="boundary" inkscape:connector-curvature="0" />
	<path style="fill:none;stroke:red;stroke-width:1px;stroke-linecap:butt;stroke-linejoin:miter;stroke-opacity:1" d="M 330.717,682.826 315.481,674.362 z" id="boundary" inkscape:connector-curvature="0" />
	<path style="fill:none;stroke:red;stroke-width:1px;stroke-linecap:butt;stroke-linejoin:miter;stroke-opacity:1" d="M 330.717,682.826 339.181,698.061 z" id="boundary" inkscape:connector-curvature="0" />
	<path style="fill:none;stroke:red;stroke-width:1px;stroke-linecap:butt;stroke-linejoin:miter;stroke-opacity:1" d="M 367.959,716.683 351.031,711.604 z" id="boundary" inkscape:connector-curvature="0" />
	<path style="fill:none;stroke:red;stroke-width:1px;stroke-linecap:butt;stroke-linejoin:miter;stroke-opacity:1" d="M 351.031,711.604 339.181,698.061 z" id="boundary" inkscape:connector-curvature="0" />
	<path style="fill:none;stroke:red;stroke-width:1px;stroke-linecap:butt;stroke-linejoin:miter;stroke-opacity:1" d="M 367.959,716.683 383.195,725.147 z" id="boundary" inkscape:connector-curvature="0" />
	<path style="fill:none;stroke:red;stroke-width:1px;stroke-linecap:butt;stroke-linejoin:miter;stroke-opacity:1" d="M 437.365,703.14 420.437,708.218 z" id="boundary" inkscape:connector-curvature="0" />
	<path style="fill:none;stroke:red;stroke-width:1px;stroke-linecap:butt;stroke-linejoin:miter;stroke-opacity:1" d="M 383.195,725.147 398.43,733.611 z" id="boundary" inkscape:connector-curvature="0" />
	<path style="fill:none;stroke:red;stroke-width:1px;stroke-linecap:butt;stroke-linejoin:miter;stroke-opacity:1" d="M 411.973,723.454 420.437,708.218 z" id="boundary" inkscape:connector-curvature="0" />
	<path style="fill:none;stroke:red;stroke-width:1px;stroke-linecap:butt;stroke-linejoin:miter;stroke-opacity:1" d="M 411.973,723.454 398.43,733.611 z" id="boundary" inkscape:connector-curvature="0" />
	<path style="fill:none;stroke:red;stroke-width:1px;stroke-linecap:butt;stroke-linejoin:miter;stroke-opacity:1" d="M 596.491,75.099 579.563,71.7133 z" id="boundary" inkscape:connector-curvature="0" />
	<path style="fill:none;stroke:red;stroke-width:1px;stroke-linecap:butt;stroke-linejoin:miter;stroke-opacity:1" d="M 579.563,71.7133 564.328,63.2491 z" id="boundary" inkscape:connector-curvature="0" />
	<path style="fill:none;stroke:red;stroke-width:1px;stroke-linecap:butt;stroke-linejoin:miter;stroke-opacity:1" d="M 647.276,88.6416 630.348,83.5631 z" id="boundary" inkscape:connector-curvature="0" />
	<path style="fill:none;stroke:red;stroke-width:1px;stroke-linecap:butt;stroke-linejoin:miter;stroke-opacity:1" d="M 613.42,80.1775 630.348,83.5631 z" id="boundary" inkscape:connector-curvature="0" />
	<path style="fill:none;stroke:red;stroke-width:1px;stroke-linecap:butt;stroke-linejoin:miter;stroke-opacity:1" d="M 613.42,80.1775 596.491,75.099 z" id="boundary" inkscape:connector-curvature="0" />
	<path style="fill:none;stroke:red;stroke-width:1px;stroke-linecap:butt;stroke-linejoin:miter;stroke-opacity:1" d="M 770.853,54.785 757.311,68.3276 z" id="boundary" inkscape:connector-curvature="0" />
	<path style="fill:none;stroke:red;stroke-width:1px;stroke-linecap:butt;stroke-linejoin:miter;stroke-opacity:1" d="M 647.276,88.6416 657.433,102.184 z" id="boundary" inkscape:connector-curvature="0" />
	<path style="fill:none;stroke:red;stroke-width:1px;stroke-linecap:butt;stroke-linejoin:miter;stroke-opacity:1" d="M 731.918,110.648 740.382,93.7201 z" id="boundary" inkscape:connector-curvature="0" />
	<path style="fill:none;stroke:red;stroke-width:1px;stroke-linecap:butt;stroke-linejoin:miter;stroke-opacity:1" d="M 740.382,93.7201 757.311,85.256 z" id="boundary" inkscape:connector-curvature="0" />
	<path style="fill:none;stroke:red;stroke-width:1px;stroke-linecap:butt;stroke-linejoin:miter;stroke-opacity:1" d="M 665.898,117.42 657.433,102.184 z" id="boundary" inkscape:connector-curvature="0" />
	<path style="fill:none;stroke:red;stroke-width:1px;stroke-linecap:butt;stroke-linejoin:miter;stroke-opacity:1" d="M 731.918,110.648 714.99,119.113 z" id="boundary" inkscape:connector-curvature="0" />
	<path style="fill:none;stroke:red;stroke-width:1px;stroke-linecap:butt;stroke-linejoin:miter;stroke-opacity:1" d="M 706.526,136.041 714.99,119.113 z" id="boundary" inkscape:connector-curvature="0" />
	<path style="fill:none;stroke:red;stroke-width:1px;stroke-linecap:butt;stroke-linejoin:miter;stroke-opacity:1" d="M 757.311,68.3276 757.311,85.256 z" id="boundary" inkscape:connector-curvature="0" />
	<path style="fill:none;stroke:red;stroke-width:1px;stroke-linecap:butt;stroke-linejoin:miter;stroke-opacity:1" d="M 665.898,117.42 657.433,132.655 z" id="boundary" inkscape:connector-curvature="0" />
	<path style="fill:none;stroke:red;stroke-width:1px;stroke-linecap:butt;stroke-linejoin:miter;stroke-opacity:1" d="M 657.433,132.655 657.433,149.584 z" id="boundary" inkscape:connector-curvature="0" />
	<path style="fill:none;stroke:red;stroke-width:1px;stroke-linecap:butt;stroke-linejoin:miter;stroke-opacity:1" d="M 657.433,149.584 648.969,166.512 z" id="boundary" inkscape:connector-curvature="0" />
	<path style="fill:none;stroke:red;stroke-width:1px;stroke-linecap:butt;stroke-linejoin:miter;stroke-opacity:1" d="M 645.584,188.519 648.969,166.512 z" id="boundary" inkscape:connector-curvature="0" />
	<path style="fill:none;stroke:red;stroke-width:1px;stroke-linecap:butt;stroke-linejoin:miter;stroke-opacity:1" d="M 632.041,200.369 645.584,188.519 z" id="boundary" inkscape:connector-curvature="0" />
	<path style="fill:none;stroke:red;stroke-width:1px;stroke-linecap:butt;stroke-linejoin:miter;stroke-opacity:1" d="M 648.969,207.14 632.041,200.369 z" id="boundary" inkscape:connector-curvature="0" />
	<path style="fill:none;stroke:red;stroke-width:1px;stroke-linecap:butt;stroke-linejoin:miter;stroke-opacity:1" d="M 706.526,136.041 706.526,152.969 z" id="boundary" inkscape:connector-curvature="0" />
	<path style="fill:none;stroke:red;stroke-width:1px;stroke-linecap:butt;stroke-linejoin:miter;stroke-opacity:1" d="M 706.526,152.969 686.212,173.283 z" id="boundary" inkscape:connector-curvature="0" />
	<path style="fill:none;stroke:red;stroke-width:1px;stroke-linecap:butt;stroke-linejoin:miter;stroke-opacity:1" d="M 686.212,173.283 679.44,190.212 z" id="boundary" inkscape:connector-curvature="0" />
	<path style="fill:none;stroke:red;stroke-width:1px;stroke-linecap:butt;stroke-linejoin:miter;stroke-opacity:1" d="M 679.44,190.212 662.512,191.904 z" id="boundary" inkscape:connector-curvature="0" />
	<path style="fill:none;stroke:red;stroke-width:1px;stroke-linecap:butt;stroke-linejoin:miter;stroke-opacity:1" d="M 835.181,56.4778 826.717,73.4061 z" id="boundary" inkscape:connector-curvature="0" />
	<path style="fill:none;stroke:red;stroke-width:1px;stroke-linecap:butt;stroke-linejoin:miter;stroke-opacity:1" d="M 811.481,22.6212 801.324,37.8567 z" id="boundary" inkscape:connector-curvature="0" />
	<path style="fill:none;stroke:red;stroke-width:1px;stroke-linecap:butt;stroke-linejoin:miter;stroke-opacity:1" d="M 801.324,37.8567 784.396,41.2423 z" id="boundary" inkscape:connector-curvature="0" />
	<path style="fill:none;stroke:red;stroke-width:1px;stroke-linecap:butt;stroke-linejoin:miter;stroke-opacity:1" d="M 770.853,54.785 784.396,41.2423 z" id="boundary" inkscape:connector-curvature="0" />
	<path style="fill:none;stroke:red;stroke-width:1px;stroke-linecap:butt;stroke-linejoin:miter;stroke-opacity:1" d="M 826.717,73.4061 826.717,90.3345 z" id="boundary" inkscape:connector-curvature="0" />
	<path style="fill:none;stroke:red;stroke-width:1px;stroke-linecap:butt;stroke-linejoin:miter;stroke-opacity:1" d="M 811.481,22.6212 828.41,14.157 z" id="boundary" inkscape:connector-curvature="0" />
	<path style="fill:none;stroke:red;stroke-width:1px;stroke-linecap:butt;stroke-linejoin:miter;stroke-opacity:1" d="M 845.338,5.69283 862.266,4 z" id="boundary" inkscape:connector-curvature="0" />
	<path style="fill:none;stroke:red;stroke-width:1px;stroke-linecap:butt;stroke-linejoin:miter;stroke-opacity:1" d="M 862.266,4 874.116,19.2355 z" id="boundary" inkscape:connector-curvature="0" />
	<path style="fill:none;stroke:red;stroke-width:1px;stroke-linecap:butt;stroke-linejoin:miter;stroke-opacity:1" d="M 874.116,19.2355 857.188,27.6997 z" id="boundary" inkscape:connector-curvature="0" />
	<path style="fill:none;stroke:red;stroke-width:1px;stroke-linecap:butt;stroke-linejoin:miter;stroke-opacity:1" d="M 848.724,44.628 835.181,56.4778 z" id="boundary" inkscape:connector-curvature="0" />
	<path style="fill:none;stroke:red;stroke-width:1px;stroke-linecap:butt;stroke-linejoin:miter;stroke-opacity:1" d="M 857.188,27.6997 848.724,44.628 z" id="boundary" inkscape:connector-curvature="0" />
	<path style="fill:none;stroke:red;stroke-width:1px;stroke-linecap:butt;stroke-linejoin:miter;stroke-opacity:1" d="M 828.41,14.157 845.338,5.69283 z" id="boundary" inkscape:connector-curvature="0" />
	<path style="fill:none;stroke:red;stroke-width:1px;stroke-linecap:butt;stroke-linejoin:miter;stroke-opacity:1" d="M 826.717,90.3345 826.717,107.263 z" id="boundary" inkscape:connector-curvature="0" />
	<path style="fill:none;stroke:red;stroke-width:1px;stroke-linecap:butt;stroke-linejoin:miter;stroke-opacity:1" d="M 826.717,107.263 826.717,124.191 z" id="boundary" inkscape:connector-curvature="0" />
	<path style="fill:none;stroke:red;stroke-width:1px;stroke-linecap:butt;stroke-linejoin:miter;stroke-opacity:1" d="M 826.717,124.191 835.181,139.427 z" id="boundary" inkscape:connector-curvature="0" />
	<path style="fill:none;stroke:red;stroke-width:1px;stroke-linecap:butt;stroke-linejoin:miter;stroke-opacity:1" d="M 843.645,154.662 835.181,139.427 z" id="boundary" inkscape:connector-curvature="0" />
	<path style="fill:none;stroke:red;stroke-width:1px;stroke-linecap:butt;stroke-linejoin:miter;stroke-opacity:1" d="M 843.645,154.662 843.645,171.59 z" id="boundary" inkscape:connector-curvature="0" />
	<path style="fill:none;stroke:red;stroke-width:1px;stroke-linecap:butt;stroke-linejoin:miter;stroke-opacity:1" d="M 867.345,195.29 852.109,186.826 z" id="boundary" inkscape:connector-curvature="0" />
	<path style="fill:none;stroke:red;stroke-width:1px;stroke-linecap:butt;stroke-linejoin:miter;stroke-opacity:1" d="M 852.109,186.826 843.645,171.59 z" id="boundary" inkscape:connector-curvature="0" />
	<path style="fill:none;stroke:red;stroke-width:1px;stroke-linecap:butt;stroke-linejoin:miter;stroke-opacity:1" d="M 867.345,195.29 877.502,208.833 z" id="boundary" inkscape:connector-curvature="0" />
	<path style="fill:none;stroke:red;stroke-width:1px;stroke-linecap:butt;stroke-linejoin:miter;stroke-opacity:1" d="M 891.044,218.99 877.502,208.833 z" id="boundary" inkscape:connector-curvature="0" />
	<path style="fill:none;stroke:red;stroke-width:1px;stroke-linecap:butt;stroke-linejoin:miter;stroke-opacity:1" d="M 891.044,218.99 907.973,225.761 z" id="boundary" inkscape:connector-curvature="0" />
	<path style="fill:none;stroke:red;stroke-width:1px;stroke-linecap:butt;stroke-linejoin:miter;stroke-opacity:1" d="M 907.973,225.761 916.437,240.997 z" id="boundary" inkscape:connector-curvature="0" />
	<path style="fill:none;stroke:red;stroke-width:1px;stroke-linecap:butt;stroke-linejoin:miter;stroke-opacity:1" d="M 948.601,232.532 931.672,232.532 z" id="boundary" inkscape:connector-curvature="0" />
	<path style="fill:none;stroke:red;stroke-width:1px;stroke-linecap:butt;stroke-linejoin:miter;stroke-opacity:1" d="M 931.672,232.532 916.437,240.997 z" id="boundary" inkscape:connector-curvature="0" />
	<path style="fill:none;stroke:red;stroke-width:1px;stroke-linecap:butt;stroke-linejoin:miter;stroke-opacity:1" d="M 716.683,293.474 699.754,310.403 z" id="boundary" inkscape:connector-curvature="0" />
	<path style="fill:none;stroke:red;stroke-width:1px;stroke-linecap:butt;stroke-linejoin:miter;stroke-opacity:1" d="M 699.754,310.403 682.826,310.403 z" id="boundary" inkscape:connector-curvature="0" />
	<path style="fill:none;stroke:red;stroke-width:1px;stroke-linecap:butt;stroke-linejoin:miter;stroke-opacity:1" d="M 682.826,327.331 682.826,310.403 z" id="boundary" inkscape:connector-curvature="0" />
	<path style="fill:none;stroke:red;stroke-width:1px;stroke-linecap:butt;stroke-linejoin:miter;stroke-opacity:1" d="M 699.754,334.102 682.826,327.331 z" id="boundary" inkscape:connector-curvature="0" />
	<path style="fill:none;stroke:red;stroke-width:1px;stroke-linecap:butt;stroke-linejoin:miter;stroke-opacity:1" d="M 716.683,334.102 699.754,334.102 z" id="boundary" inkscape:connector-curvature="0" />
	<path style="fill:none;stroke:red;stroke-width:1px;stroke-linecap:butt;stroke-linejoin:miter;stroke-opacity:1" d="M 716.683,334.102 731.918,342.567 z" id="boundary" inkscape:connector-curvature="0" />
	<path style="fill:none;stroke:red;stroke-width:1px;stroke-linecap:butt;stroke-linejoin:miter;stroke-opacity:1" d="M 716.683,293.474 731.918,301.939 z" id="boundary" inkscape:connector-curvature="0" />
	<path style="fill:none;stroke:red;stroke-width:1px;stroke-linecap:butt;stroke-linejoin:miter;stroke-opacity:1" d="M 731.918,301.939 748.846,301.939 z" id="boundary" inkscape:connector-curvature="0" />
	<path style="fill:none;stroke:red;stroke-width:1px;stroke-linecap:butt;stroke-linejoin:miter;stroke-opacity:1" d="M 748.846,301.939 765.775,296.86 z" id="boundary" inkscape:connector-curvature="0" />
	<path style="fill:none;stroke:red;stroke-width:1px;stroke-linecap:butt;stroke-linejoin:miter;stroke-opacity:1" d="M 748.846,337.488 731.918,342.567 z" id="boundary" inkscape:connector-curvature="0" />
	<path style="fill:none;stroke:red;stroke-width:1px;stroke-linecap:butt;stroke-linejoin:miter;stroke-opacity:1" d="M 742.075,437.365 725.147,454.294 z" id="boundary" inkscape:connector-curvature="0" />
	<path style="fill:none;stroke:red;stroke-width:1px;stroke-linecap:butt;stroke-linejoin:miter;stroke-opacity:1" d="M 748.846,337.488 759.003,351.031 z" id="boundary" inkscape:connector-curvature="0" />
	<path style="fill:none;stroke:red;stroke-width:1px;stroke-linecap:butt;stroke-linejoin:miter;stroke-opacity:1" d="M 725.147,454.294 716.683,471.222 z" id="boundary" inkscape:connector-curvature="0" />
	<path style="fill:none;stroke:red;stroke-width:1px;stroke-linecap:butt;stroke-linejoin:miter;stroke-opacity:1" d="M 648.969,547.399 638.812,567.713 z" id="boundary" inkscape:connector-curvature="0" />
	<path style="fill:none;stroke:red;stroke-width:1px;stroke-linecap:butt;stroke-linejoin:miter;stroke-opacity:1" d="M 638.812,567.713 625.27,581.256 z" id="boundary" inkscape:connector-curvature="0" />
	<path style="fill:none;stroke:red;stroke-width:1px;stroke-linecap:butt;stroke-linejoin:miter;stroke-opacity:1" d="M 625.27,581.256 610.034,589.72 z" id="boundary" inkscape:connector-curvature="0" />
	<path style="fill:none;stroke:red;stroke-width:1px;stroke-linecap:butt;stroke-linejoin:miter;stroke-opacity:1" d="M 596.491,601.57 610.034,589.72 z" id="boundary" inkscape:connector-curvature="0" />
	<path style="fill:none;stroke:red;stroke-width:1px;stroke-linecap:butt;stroke-linejoin:miter;stroke-opacity:1" d="M 562.635,618.498 579.563,610.034 z" id="boundary" inkscape:connector-curvature="0" />
	<path style="fill:none;stroke:red;stroke-width:1px;stroke-linecap:butt;stroke-linejoin:miter;stroke-opacity:1" d="M 596.491,601.57 579.563,610.034 z" id="boundary" inkscape:connector-curvature="0" />
	<path style="fill:none;stroke:red;stroke-width:1px;stroke-linecap:butt;stroke-linejoin:miter;stroke-opacity:1" d="M 716.683,471.222 716.683,488.15 z" id="boundary" inkscape:connector-curvature="0" />
	<path style="fill:none;stroke:red;stroke-width:1px;stroke-linecap:butt;stroke-linejoin:miter;stroke-opacity:1" d="M 716.683,488.15 699.754,496.614 z" id="boundary" inkscape:connector-curvature="0" />
	<path style="fill:none;stroke:red;stroke-width:1px;stroke-linecap:butt;stroke-linejoin:miter;stroke-opacity:1" d="M 699.754,496.614 687.904,510.157 z" id="boundary" inkscape:connector-curvature="0" />
	<path style="fill:none;stroke:red;stroke-width:1px;stroke-linecap:butt;stroke-linejoin:miter;stroke-opacity:1" d="M 648.969,547.399 665.898,538.935 z" id="boundary" inkscape:connector-curvature="0" />
	<path style="fill:none;stroke:red;stroke-width:1px;stroke-linecap:butt;stroke-linejoin:miter;stroke-opacity:1" d="M 679.44,527.085 687.904,510.157 z" id="boundary" inkscape:connector-curvature="0" />
	<path style="fill:none;stroke:red;stroke-width:1px;stroke-linecap:butt;stroke-linejoin:miter;stroke-opacity:1" d="M 679.44,527.085 665.898,538.935 z" id="boundary" inkscape:connector-curvature="0" />
	<path style="fill:none;stroke:red;stroke-width:1px;stroke-linecap:butt;stroke-linejoin:miter;stroke-opacity:1" d="M 742.075,437.365 755.618,425.515 z" id="boundary" inkscape:connector-curvature="0" />
	<path style="fill:none;stroke:red;stroke-width:1px;stroke-linecap:butt;stroke-linejoin:miter;stroke-opacity:1" d="M 943.522,268.082 926.594,271.468 z" id="boundary" inkscape:connector-curvature="0" />
	<path style="fill:none;stroke:red;stroke-width:1px;stroke-linecap:butt;stroke-linejoin:miter;stroke-opacity:1" d="M 909.666,276.546 926.594,271.468 z" id="boundary" inkscape:connector-curvature="0" />
	<path style="fill:none;stroke:red;stroke-width:1px;stroke-linecap:butt;stroke-linejoin:miter;stroke-opacity:1" d="M 892.737,279.932 875.809,279.932 z" id="boundary" inkscape:connector-curvature="0" />
	<path style="fill:none;stroke:red;stroke-width:1px;stroke-linecap:butt;stroke-linejoin:miter;stroke-opacity:1" d="M 909.666,276.546 892.737,279.932 z" id="boundary" inkscape:connector-curvature="0" />
	<path style="fill:none;stroke:red;stroke-width:1px;stroke-linecap:butt;stroke-linejoin:miter;stroke-opacity:1" d="M 875.809,279.932 860.573,288.396 z" id="boundary" inkscape:connector-curvature="0" />
	<path style="fill:none;stroke:red;stroke-width:1px;stroke-linecap:butt;stroke-linejoin:miter;stroke-opacity:1" d="M 948.601,232.532 965.529,232.532 z" id="boundary" inkscape:connector-curvature="0" />
	<path style="fill:none;stroke:red;stroke-width:1px;stroke-linecap:butt;stroke-linejoin:miter;stroke-opacity:1" d="M 982.457,232.532 965.529,232.532 z" id="boundary" inkscape:connector-curvature="0" />
	<path style="fill:none;stroke:red;stroke-width:1px;stroke-linecap:butt;stroke-linejoin:miter;stroke-opacity:1" d="M 977.379,254.539 960.451,263.003 z" id="boundary" inkscape:connector-curvature="0" />
	<path style="fill:none;stroke:red;stroke-width:1px;stroke-linecap:butt;stroke-linejoin:miter;stroke-opacity:1" d="M 982.457,232.532 996,242.689 z" id="boundary" inkscape:connector-curvature="0" />
	<path style="fill:none;stroke:red;stroke-width:1px;stroke-linecap:butt;stroke-linejoin:miter;stroke-opacity:1" d="M 996,242.689 977.379,254.539 z" id="boundary" inkscape:connector-curvature="0" />
	<path style="fill:none;stroke:red;stroke-width:1px;stroke-linecap:butt;stroke-linejoin:miter;stroke-opacity:1" d="M 960.451,263.003 943.522,268.082 z" id="boundary" inkscape:connector-curvature="0" />
	<path style="fill:none;stroke:red;stroke-width:1px;stroke-linecap:butt;stroke-linejoin:miter;stroke-opacity:1" d="M 775.932,356.109 759.003,351.031 z" id="boundary" inkscape:connector-curvature="0" />
	<path style="fill:none;stroke:red;stroke-width:1px;stroke-linecap:butt;stroke-linejoin:miter;stroke-opacity:1" d="M 765.775,296.86 782.703,293.474 z" id="boundary" inkscape:connector-curvature="0" />
	<path style="fill:none;stroke:red;stroke-width:1px;stroke-linecap:butt;stroke-linejoin:miter;stroke-opacity:1" d="M 755.618,425.515 759.003,395.044 z" id="boundary" inkscape:connector-curvature="0" />
	<path style="fill:none;stroke:red;stroke-width:1px;stroke-linecap:butt;stroke-linejoin:miter;stroke-opacity:1" d="M 759.003,395.044 775.932,386.58 z" id="boundary" inkscape:connector-curvature="0" />
	<path style="fill:none;stroke:red;stroke-width:1px;stroke-linecap:butt;stroke-linejoin:miter;stroke-opacity:1" d="M 775.932,386.58 784.396,371.345 z" id="boundary" inkscape:connector-curvature="0" />
	<path style="fill:none;stroke:red;stroke-width:1px;stroke-linecap:butt;stroke-linejoin:miter;stroke-opacity:1" d="M 775.932,356.109 784.396,371.345 z" id="boundary" inkscape:connector-curvature="0" />
	<path style="fill:none;stroke:red;stroke-width:1px;stroke-linecap:butt;stroke-linejoin:miter;stroke-opacity:1" d="M 816.56,288.396 799.631,288.396 z" id="boundary" inkscape:connector-curvature="0" />
	<path style="fill:none;stroke:red;stroke-width:1px;stroke-linecap:butt;stroke-linejoin:miter;stroke-opacity:1" d="M 847.031,276.546 833.488,288.396 z" id="boundary" inkscape:connector-curvature="0" />
	<path style="fill:none;stroke:red;stroke-width:1px;stroke-linecap:butt;stroke-linejoin:miter;stroke-opacity:1" d="M 833.488,288.396 816.56,288.396 z" id="boundary" inkscape:connector-curvature="0" />
	<path style="fill:none;stroke:red;stroke-width:1px;stroke-linecap:butt;stroke-linejoin:miter;stroke-opacity:1" d="M 782.703,293.474 799.631,288.396 z" id="boundary" inkscape:connector-curvature="0" />
	<circle cx="4" cy="423.823" r="4" fill="#0" id="circle0"/>
	<circle cx="4" cy="440.751" r="4" fill="#0" id="circle1"/>
	<circle cx="4" cy="457.679" r="4" fill="#0" id="circle2"/>
	<circle cx="4" cy="474.608" r="4" fill="#0" id="circle3"/>
	<circle cx="4" cy="500" r="4" fill="#0" id="circle4"/>
	<circle cx="4" cy="516.928" r="4" fill="#0" id="circle5"/>
	<circle cx="4" cy="533.857" r="4" fill="#0" id="circle6"/>
	<circle cx="4" cy="550.785" r="4" fill="#0" id="circle7"/>
	<circle cx="4" cy="567.713" r="4" fill="#0" id="circle8"/>
	<circle cx="4" cy="584.642" r="4" fill="#0" id="circle9"/>
	<circle cx="12.4642" cy="406.894" r="4" fill="#0" id="circle10"/>
	<circle cx="17.5427" cy="596.491" r="4" fill="#0" id="circle11"/>
	<circle cx="20.9283" cy="389.966" r="4" fill="#0" id="circle12"/>
	<circle cx="24.314" cy="613.42" r="4" fill="#0" id="circle13"/>
	<circle cx="29.3925" cy="279.932" r="4" fill="#0" id="circle14"/>
	<circle cx="29.3925" cy="373.038" r="4" fill="#0" id="circle15"/>
	<circle cx="32.7782" cy="628.655" r="4" fill="#0" id="circle16"/>
	<circle cx="37.8567" cy="263.003" r="4" fill="#0" id="circle17"/>
	<circle cx="37.8567" cy="347.645" r="4" fill="#0" id="circle18"/>
	<circle cx="39.5495" cy="293.474" r="4" fill="#0" id="circle19"/>
	<circle cx="46.3208" cy="246.075" r="4" fill="#0" id="circle20"/>
	<circle cx="46.3208" cy="330.717" r="4" fill="#0" id="circle21"/>
	<circle cx="49.7065" cy="632.041" r="4" fill="#0" id="circle22"/>
	<circle cx="54.785" cy="229.147" r="4" fill="#0" id="circle23"/>
	<circle cx="54.785" cy="301.939" r="4" fill="#0" id="circle24"/>
	<circle cx="63.2491" cy="212.218" r="4" fill="#0" id="circle25"/>
	<circle cx="64.942" cy="640.505" r="4" fill="#0" id="circle26"/>
	<circle cx="80.1775" cy="203.754" r="4" fill="#0" id="circle27"/>
	<circle cx="81.8703" cy="640.505" r="4" fill="#0" id="circle28"/>
	<circle cx="88.6416" cy="186.826" r="4" fill="#0" id="circle29"/>
	<circle cx="97.1058" cy="648.969" r="4" fill="#0" id="circle30"/>
	<circle cx="102.184" cy="173.283" r="4" fill="#0" id="circle31"/>
	<circle cx="114.034" cy="643.891" r="4" fill="#0" id="circle32"/>
	<circle cx="119.113" cy="173.283" r="4" fill="#0" id="circle33"/>
	<circle cx="127.577" cy="156.355" r="4" fill="#0" id="circle34"/>
	<circle cx="127.577" cy="655.741" r="4" fill="#0" id="circle35"/>
	<circle cx="142.812" cy="147.891" r="4" fill="#0" id="circle36"/>
	<circle cx="144.505" cy="648.969" r="4" fill="#0" id="circle37"/>
	<circle cx="158.048" cy="139.427" r="4" fill="#0" id="circle38"/>
	<circle cx="161.433" cy="648.969" r="4" fill="#0" id="circle39"/>
	<circle cx="173.283" cy="130.962" r="4" fill="#0" id="circle40"/>
	<circle cx="178.362" cy="655.741" r="4" fill="#0" id="circle41"/>
	<circle cx="188.519" cy="122.498" r="4" fill="#0" id="circle42"/>
	<circle cx="195.29" cy="655.741" r="4" fill="#0" id="circle43"/>
	<circle cx="203.754" cy="114.034" r="4" fill="#0" id="circle44"/>
	<circle cx="210.526" cy="664.205" r="4" fill="#0" id="circle45"/>
	<circle cx="218.99" cy="105.57" r="4" fill="#0" id="circle46"/>
	<circle cx="227.454" cy="665.898" r="4" fill="#0" id="circle47"/>
	<circle cx="232.532" cy="93.7201" r="4" fill="#0" id="circle48"/>
	<circle cx="244.382" cy="665.898" r="4" fill="#0" id="circle49"/>
	<circle cx="249.461" cy="85.256" r="4" fill="#0" id="circle50"/>
	<circle cx="259.618" cy="657.433" r="4" fill="#0" id="circle51"/>
	<circle cx="266.389" cy="85.256" r="4" fill="#0" id="circle52"/>
	<circle cx="274.853" cy="648.969" r="4" fill="#0" id="circle53"/>
	<circle cx="283.317" cy="76.7918" r="4" fill="#0" id="circle54"/>
	<circle cx="285.01" cy="662.512" r="4" fill="#0" id="circle55"/>
	<circle cx="298.553" cy="674.362" r="4" fill="#0" id="circle56"/>
	<circle cx="300.246" cy="68.3276" r="4" fill="#0" id="circle57"/>
	<circle cx="315.481" cy="674.362" r="4" fill="#0" id="circle58"/>
	<circle cx="317.174" cy="63.2491" r="4" fill="#0" id="circle59"/>
	<circle cx="330.717" cy="682.826" r="4" fill="#0" id="circle60"/>
	<circle cx="332.41" cy="71.7133" r="4" fill="#0" id="circle61"/>
	<circle cx="339.181" cy="698.061" r="4" fill="#0" id="circle62"/>
	<circle cx="344.259" cy="58.1706" r="4" fill="#0" id="circle63"/>
	<circle cx="351.031" cy="711.604" r="4" fill="#0" id="circle64"/>
	<circle cx="361.188" cy="49.7065" r="4" fill="#0" id="circle65"/>
	<circle cx="367.959" cy="716.683" r="4" fill="#0" id="circle66"/>
	<circle cx="371.345" cy="63.2491" r="4" fill="#0" id="circle67"/>
	<circle cx="383.195" cy="725.147" r="4" fill="#0" id="circle68"/>
	<circle cx="386.58" cy="54.785" r="4" fill="#0" id="circle69"/>
	<circle cx="395.044" cy="657.433" r="4" fill="#0" id="circle70"/>
	<circle cx="398.43" cy="733.611" r="4" fill="#0" id="circle71"/>
	<circle cx="403.509" cy="51.3993" r="4" fill="#0" id="circle72"/>
	<circle cx="403.509" cy="672.669" r="4" fill="#0" id="circle73"/>
	<circle cx="403.509" cy="708.218" r="4" fill="#0" id="circle74"/>
	<circle cx="410.28" cy="648.969" r="4" fill="#0" id="circle75"/>
	<circle cx="411.973" cy="723.454" r="4" fill="#0" id="circle76"/>
	<circle cx="417.051" cy="682.826" r="4" fill="#0" id="circle77"/>
	<circle cx="420.437" cy="54.785" r="4" fill="#0" id="circle78"/>
	<circle cx="420.437" cy="708.218" r="4" fill="#0" id="circle79"/>
	<circle cx="425.515" cy="657.433" r="4" fill="#0" id="circle80"/>
	<circle cx="435.672" cy="46.3208" r="4" fill="#0" id="circle81"/>
	<circle cx="437.365" cy="703.14" r="4" fill="#0" id="circle82"/>
	<circle cx="442.444" cy="657.433" r="4" fill="#0" id="circle83"/>
	<circle cx="452.601" cy="49.7065" r="4" fill="#0" id="circle84"/>
	<circle cx="457.679" cy="648.969" r="4" fill="#0" id="circle85"/>
	<circle cx="469.529" cy="54.785" r="4" fill="#0" id="circle86"/>
	<circle cx="474.608" cy="648.969" r="4" fill="#0" id="circle87"/>
	<circle cx="486.457" cy="58.1706" r="4" fill="#0" id="circle88"/>
	<circle cx="489.843" cy="640.505" r="4" fill="#0" id="circle89"/>
	<circle cx="503.386" cy="54.785" r="4" fill="#0" id="circle90"/>
	<circle cx="506.771" cy="640.505" r="4" fill="#0" id="circle91"/>
	<circle cx="520.314" cy="54.785" r="4" fill="#0" id="circle92"/>
	<circle cx="522.007" cy="632.041" r="4" fill="#0" id="circle93"/>
	<circle cx="530.471" cy="68.3276" r="4" fill="#0" id="circle94"/>
	<circle cx="530.471" cy="615.113" r="4" fill="#0" id="circle95"/>
	<circle cx="545.706" cy="623.577" r="4" fill="#0" id="circle96"/>
	<circle cx="547.399" cy="63.2491" r="4" fill="#0" id="circle97"/>
	<circle cx="562.635" cy="618.498" r="4" fill="#0" id="circle98"/>
	<circle cx="564.328" cy="63.2491" r="4" fill="#0" id="circle99"/>
	<circle cx="579.563" cy="71.7133" r="4" fill="#0" id="circle100"/>
	<circle cx="579.563" cy="610.034" r="4" fill="#0" id="circle101"/>
	<circle cx="596.491" cy="75.099" r="4" fill="#0" id="circle102"/>
	<circle cx="596.491" cy="601.57" r="4" fill="#0" id="circle103"/>
	<circle cx="610.034" cy="589.72" r="4" fill="#0" id="circle104"/>
	<circle cx="613.42" cy="80.1775" r="4" fill="#0" id="circle105"/>
	<circle cx="625.27" cy="581.256" r="4" fill="#0" id="circle106"/>
	<circle cx="630.348" cy="83.5631" r="4" fill="#0" id="circle107"/>
	<circle cx="632.041" cy="200.369" r="4" fill="#0" id="circle108"/>
	<circle cx="638.812" cy="567.713" r="4" fill="#0" id="circle109"/>
	<circle cx="645.584" cy="188.519" r="4" fill="#0" id="circle110"/>
	<circle cx="647.276" cy="88.6416" r="4" fill="#0" id="circle111"/>
	<circle cx="648.969" cy="166.512" r="4" fill="#0" id="circle112"/>
	<circle cx="648.969" cy="207.14" r="4" fill="#0" id="circle113"/>
	<circle cx="648.969" cy="547.399" r="4" fill="#0" id="circle114"/>
	<circle cx="657.433" cy="102.184" r="4" fill="#0" id="circle115"/>
	<circle cx="657.433" cy="132.655" r="4" fill="#0" id="circle116"/>
	<circle cx="657.433" cy="149.584" r="4" fill="#0" id="circle117"/>
	<circle cx="662.512" cy="191.904" r="4" fill="#0" id="circle118"/>
	<circle cx="665.898" cy="117.42" r="4" fill="#0" id="circle119"/>
	<circle cx="665.898" cy="538.935" r="4" fill="#0" id="circle120"/>
	<circle cx="679.44" cy="190.212" r="4" fill="#0" id="circle121"/>
	<circle cx="679.44" cy="527.085" r="4" fill="#0" id="circle122"/>
	<circle cx="682.826" cy="310.403" r="4" fill="#0" id="circle123"/>
	<circle cx="682.826" cy="327.331" r="4" fill="#0" id="circle124"/>
	<circle cx="686.212" cy="173.283" r="4" fill="#0" id="circle125"/>
	<circle cx="687.904" cy="510.157" r="4" fill="#0" id="circle126"/>
	<circle cx="689.597" cy="152.969" r="4" fill="#0" id="circle127"/>
	<circle cx="699.754" cy="310.403" r="4" fill="#0" id="circle128"/>
	<circle cx="699.754" cy="334.102" r="4" fill="#0" id="circle129"/>
	<circle cx="699.754" cy="496.614" r="4" fill="#0" id="circle130"/>
	<circle cx="706.526" cy="136.041" r="4" fill="#0" id="circle131"/>
	<circle cx="706.526" cy="152.969" r="4" fill="#0" id="circle132"/>
	<circle cx="714.99" cy="119.113" r="4" fill="#0" id="circle133"/>
	<circle cx="716.683" cy="293.474" r="4" fill="#0" id="circle134"/>
	<circle cx="716.683" cy="334.102" r="4" fill="#0" id="circle135"/>
	<circle cx="716.683" cy="471.222" r="4" fill="#0" id="circle136"/>
	<circle cx="716.683" cy="488.15" r="4" fill="#0" id="circle137"/>
	<circle cx="725.147" cy="454.294" r="4" fill="#0" id="circle138"/>
	<circle cx="731.918" cy="110.648" r="4" fill="#0" id="circle139"/>
	<circle cx="731.918" cy="301.939" r="4" fill="#0" id="circle140"/>
	<circle cx="731.918" cy="342.567" r="4" fill="#0" id="circle141"/>
	<circle cx="740.382" cy="93.7201" r="4" fill="#0" id="circle142"/>
	<circle cx="742.075" cy="437.365" r="4" fill="#0" id="circle143"/>
	<circle cx="748.846" cy="301.939" r="4" fill="#0" id="circle144"/>
	<circle cx="748.846" cy="337.488" r="4" fill="#0" id="circle145"/>
	<circle cx="755.618" cy="425.515" r="4" fill="#0" id="circle146"/>
	<circle cx="757.311" cy="68.3276" r="4" fill="#0" id="circle147"/>
	<circle cx="757.311" cy="85.256" r="4" fill="#0" id="circle148"/>
	<circle cx="759.003" cy="351.031" r="4" fill="#0" id="circle149"/>
	<circle cx="759.003" cy="395.044" r="4" fill="#0" id="circle150"/>
	<circle cx="765.775" cy="296.86" r="4" fill="#0" id="circle151"/>
	<circle cx="770.853" cy="54.785" r="4" fill="#0" id="circle152"/>
	<circle cx="775.932" cy="356.109" r="4" fill="#0" id="circle153"/>
	<circle cx="775.932" cy="386.58" r="4" fill="#0" id="circle154"/>
	<circle cx="782.703" cy="293.474" r="4" fill="#0" id="circle155"/>
	<circle cx="784.396" cy="41.2423" r="4" fill="#0" id="circle156"/>
	<circle cx="784.396" cy="371.345" r="4" fill="#0" id="circle157"/>
	<circle cx="799.631" cy="288.396" r="4" fill="#0" id="circle158"/>
	<circle cx="801.324" cy="37.8567" r="4" fill="#0" id="circle159"/>
	<circle cx="811.481" cy="22.6212" r="4" fill="#0" id="circle160"/>
	<circle cx="816.56" cy="288.396" r="4" fill="#0" id="circle161"/>
	<circle cx="826.717" cy="73.4061" r="4" fill="#0" id="circle162"/>
	<circle cx="826.717" cy="90.3345" r="4" fill="#0" id="circle163"/>
	<circle cx="826.717" cy="107.263" r="4" fill="#0" id="circle164"/>
	<circle cx="826.717" cy="124.191" r="4" fill="#0" id="circle165"/>
	<circle cx="828.41" cy="14.157" r="4" fill="#0" id="circle166"/>
	<circle cx="833.488" cy="288.396" r="4" fill="#0" id="circle167"/>
	<circle cx="835.181" cy="56.4778" r="4" fill="#0" id="circle168"/>
	<circle cx="835.181" cy="139.427" r="4" fill="#0" id="circle169"/>
	<circle cx="843.645" cy="154.662" r="4" fill="#0" id="circle170"/>
	<circle cx="843.645" cy="171.59" r="4" fill="#0" id="circle171"/>
	<circle cx="845.338" cy="5.69283" r="4" fill="#0" id="circle172"/>
	<circle cx="847.031" cy="276.546" r="4" fill="#0" id="circle173"/>
	<circle cx="848.724" cy="44.628" r="4" fill="#0" id="circle174"/>
	<circle cx="852.109" cy="186.826" r="4" fill="#0" id="circle175"/>
	<circle cx="857.188" cy="27.6997" r="4" fill="#0" id="circle176"/>
	<circle cx="860.573" cy="288.396" r="4" fill="#0" id="circle177"/>
	<circle cx="862.266" cy="4" r="4" fill="#0" id="circle178"/>
	<circle cx="867.345" cy="195.29" r="4" fill="#0" id="circle179"/>
	<circle cx="874.116" cy="19.2355" r="4" fill="#0" id="circle180"/>
	<circle cx="875.809" cy="279.932" r="4" fill="#0" id="circle181"/>
	<circle cx="877.502" cy="208.833" r="4" fill="#0" id="circle182"/>
	<circle cx="891.044" cy="218.99" r="4" fill="#0" id="circle183"/>
	<circle cx="892.737" cy="279.932" r="4" fill="#0" id="circle184"/>
	<circle cx="907.973" cy="225.761" r="4" fill="#0" id="circle185"/>
	<circle cx="909.666" cy="276.546" r="4" fill="#0" id="circle186"/>
	<circle cx="916.437" cy="240.997" r="4" fill="#0" id="circle187"/>
	<circle cx="926.594" cy="271.468" r="4" fill="#0" id="circle188"/>
	<circle cx="931.672" cy="232.532" r="4" fill="#0" id="circle189"/>
	<circle cx="943.522" cy="268.082" r="4" fill="#0" id="circle190"/>
	<circle cx="948.601" cy="232.532" r="4" fill="#0" id="circle191"/>
	<circle cx="960.451" cy="263.003" r="4" fill="#0" id="circle192"/>
	<circle cx="965.529" cy="232.532" r="4" fill="#0" id="circle193"/>
	<circle cx="977.379" cy="254.539" r="4" fill="#0" id="circle194"/>
	<circle cx="982.457" cy="232.532" r="4" fill="#0" id="circle195"/>
	<circle cx="996" cy="242.689" r="4" fill="#0" id="circle196"/>
	</g>
</svg>