<?xml version="1.0" encoding="UTF-8" standalone="no"?>
<!-- Created with CurveBenchmark -->
<svg
	xmlns:dc="http://purl.org/dc/elements/1.1/"
	xmlns:cc="http://creativecommons.org/ns#"
	xmlns:rdf="http://www.w3.org/1999/02/22-rdf-syntax-ns#"
	xmlns:svg="http://www.w3.org/2000/svg"
	xmlns="http://www.w3.org/2000/svg"
	xmlns:sodipodi="http://sodipodi.sourceforge.net/DTD/sodipodi-0.dtd"
	xmlns:inkscape="http://www.inkscape.org/namespaces/inkscape"
	width="1000"
	height="1000"
	id="svg2"
	version="1.1"
	sodipodi:docname="manifold/gathan1-television105.png.txt">
<defs
	id="defs4" />
<metadata
	id="metadata7">
	<rdf:RDF>
		<cc:Work
			rdf:about="">
			<dc:format>image/svg+xml</dc:format>
			<dc:type
				rdf:resource="http://purl.org/dc/dcmitype/StillImage" />
			<dc:title></dc:title>
		</cc:Work>
	</rdf:RDF>
</metadata>
<g
	inkscape:label="Layer 1"
	inkscape:groupmode="layer"
	id="layer1">
	<path style="fill:none;stroke:red;stroke-width:1px;stroke-linecap:butt;stroke-linejoin:miter;stroke-opacity:1" d="M 207.889,27.5257 207.889,66.7352 z" id="boundary" inkscape:connector-curvature="0" />
	<path style="fill:none;stroke:red;stroke-width:1px;stroke-linecap:butt;stroke-linejoin:miter;stroke-opacity:1" d="M 70.6561,654.877 19.6838,662.719 z" id="boundary" inkscape:connector-curvature="0" />
	<path style="fill:none;stroke:red;stroke-width:1px;stroke-linecap:butt;stroke-linejoin:miter;stroke-opacity:1" d="M 207.889,27.5257 239.257,4 z" id="boundary" inkscape:connector-curvature="0" />
	<path style="fill:none;stroke:red;stroke-width:1px;stroke-linecap:butt;stroke-linejoin:miter;stroke-opacity:1" d="M 207.889,66.7352 207.889,105.945 z" id="boundary" inkscape:connector-curvature="0" />
	<path style="fill:none;stroke:red;stroke-width:1px;stroke-linecap:butt;stroke-linejoin:miter;stroke-opacity:1" d="M 207.889,105.945 207.889,145.154 z" id="boundary" inkscape:connector-curvature="0" />
	<path style="fill:none;stroke:red;stroke-width:1px;stroke-linecap:butt;stroke-linejoin:miter;stroke-opacity:1" d="M 207.889,184.364 207.889,223.573 z" id="boundary" inkscape:connector-curvature="0" />
	<path style="fill:none;stroke:red;stroke-width:1px;stroke-linecap:butt;stroke-linejoin:miter;stroke-opacity:1" d="M 207.889,184.364 207.889,145.154 z" id="boundary" inkscape:connector-curvature="0" />
	<path style="fill:none;stroke:red;stroke-width:1px;stroke-linecap:butt;stroke-linejoin:miter;stroke-opacity:1" d="M 109.866,654.877 70.6561,654.877 z" id="boundary" inkscape:connector-curvature="0" />
	<path style="fill:none;stroke:red;stroke-width:1px;stroke-linecap:butt;stroke-linejoin:miter;stroke-opacity:1" d="M 51.0514,690.166 19.6838,662.719 z" id="boundary" inkscape:connector-curvature="0" />
	<path style="fill:none;stroke:red;stroke-width:1px;stroke-linecap:butt;stroke-linejoin:miter;stroke-opacity:1" d="M 149.075,654.877 188.285,654.877 z" id="boundary" inkscape:connector-curvature="0" />
	<path style="fill:none;stroke:red;stroke-width:1px;stroke-linecap:butt;stroke-linejoin:miter;stroke-opacity:1" d="M 109.866,654.877 149.075,654.877 z" id="boundary" inkscape:connector-curvature="0" />
	<path style="fill:none;stroke:red;stroke-width:1px;stroke-linecap:butt;stroke-linejoin:miter;stroke-opacity:1" d="M 207.889,223.573 207.889,262.783 z" id="boundary" inkscape:connector-curvature="0" />
	<path style="fill:none;stroke:red;stroke-width:1px;stroke-linecap:butt;stroke-linejoin:miter;stroke-opacity:1" d="M 207.889,262.783 207.889,301.992 z" id="boundary" inkscape:connector-curvature="0" />
	<path style="fill:none;stroke:red;stroke-width:1px;stroke-linecap:butt;stroke-linejoin:miter;stroke-opacity:1" d="M 207.889,341.202 207.889,301.992 z" id="boundary" inkscape:connector-curvature="0" />
	<path style="fill:none;stroke:red;stroke-width:1px;stroke-linecap:butt;stroke-linejoin:miter;stroke-opacity:1" d="M 207.889,380.411 207.889,341.202 z" id="boundary" inkscape:connector-curvature="0" />
	<path style="fill:none;stroke:red;stroke-width:1px;stroke-linecap:butt;stroke-linejoin:miter;stroke-opacity:1" d="M 207.889,419.621 207.889,380.411 z" id="boundary" inkscape:connector-curvature="0" />
	<path style="fill:none;stroke:red;stroke-width:1px;stroke-linecap:butt;stroke-linejoin:miter;stroke-opacity:1" d="M 317.676,525.486 278.466,525.486 z" id="boundary" inkscape:connector-curvature="0" />
	<path style="fill:none;stroke:red;stroke-width:1px;stroke-linecap:butt;stroke-linejoin:miter;stroke-opacity:1" d="M 239.257,4 278.466,4 z" id="boundary" inkscape:connector-curvature="0" />
	<path style="fill:none;stroke:red;stroke-width:1px;stroke-linecap:butt;stroke-linejoin:miter;stroke-opacity:1" d="M 207.889,458.83 207.889,498.04 z" id="boundary" inkscape:connector-curvature="0" />
	<path style="fill:none;stroke:red;stroke-width:1px;stroke-linecap:butt;stroke-linejoin:miter;stroke-opacity:1" d="M 227.494,654.877 188.285,654.877 z" id="boundary" inkscape:connector-curvature="0" />
	<path style="fill:none;stroke:red;stroke-width:1px;stroke-linecap:butt;stroke-linejoin:miter;stroke-opacity:1" d="M 239.257,525.486 207.889,498.04 z" id="boundary" inkscape:connector-curvature="0" />
	<path style="fill:none;stroke:red;stroke-width:1px;stroke-linecap:butt;stroke-linejoin:miter;stroke-opacity:1" d="M 239.257,525.486 278.466,525.486 z" id="boundary" inkscape:connector-curvature="0" />
	<path style="fill:none;stroke:red;stroke-width:1px;stroke-linecap:butt;stroke-linejoin:miter;stroke-opacity:1" d="M 227.494,654.877 266.704,654.877 z" id="boundary" inkscape:connector-curvature="0" />
	<path style="fill:none;stroke:red;stroke-width:1px;stroke-linecap:butt;stroke-linejoin:miter;stroke-opacity:1" d="M 207.889,458.83 207.889,419.621 z" id="boundary" inkscape:connector-curvature="0" />
	<path style="fill:none;stroke:red;stroke-width:1px;stroke-linecap:butt;stroke-linejoin:miter;stroke-opacity:1" d="M 278.466,4 317.676,4 z" id="boundary" inkscape:connector-curvature="0" />
	<path style="fill:none;stroke:red;stroke-width:1px;stroke-linecap:butt;stroke-linejoin:miter;stroke-opacity:1" d="M 39.2885,815.636 19.6838,780.348 z" id="boundary" inkscape:connector-curvature="0" />
	<path style="fill:none;stroke:red;stroke-width:1px;stroke-linecap:butt;stroke-linejoin:miter;stroke-opacity:1" d="M 4,905.818 43.2095,897.976 z" id="boundary" inkscape:connector-curvature="0" />
	<path style="fill:none;stroke:red;stroke-width:1px;stroke-linecap:butt;stroke-linejoin:miter;stroke-opacity:1" d="M 4,945.028 4,905.818 z" id="boundary" inkscape:connector-curvature="0" />
	<path style="fill:none;stroke:red;stroke-width:1px;stroke-linecap:butt;stroke-linejoin:miter;stroke-opacity:1" d="M 23.6047,980.316 4,945.028 z" id="boundary" inkscape:connector-curvature="0" />
	<path style="fill:none;stroke:red;stroke-width:1px;stroke-linecap:butt;stroke-linejoin:miter;stroke-opacity:1" d="M 62.8142,996 23.6047,980.316 z" id="boundary" inkscape:connector-curvature="0" />
	<path style="fill:none;stroke:red;stroke-width:1px;stroke-linecap:butt;stroke-linejoin:miter;stroke-opacity:1" d="M 82.419,897.976 121.628,897.976 z" id="boundary" inkscape:connector-curvature="0" />
	<path style="fill:none;stroke:red;stroke-width:1px;stroke-linecap:butt;stroke-linejoin:miter;stroke-opacity:1" d="M 62.8142,996 102.024,980.316 z" id="boundary" inkscape:connector-curvature="0" />
	<path style="fill:none;stroke:red;stroke-width:1px;stroke-linecap:butt;stroke-linejoin:miter;stroke-opacity:1" d="M 102.024,980.316 141.233,980.316 z" id="boundary" inkscape:connector-curvature="0" />
	<path style="fill:none;stroke:red;stroke-width:1px;stroke-linecap:butt;stroke-linejoin:miter;stroke-opacity:1" d="M 43.2095,897.976 82.419,897.976 z" id="boundary" inkscape:connector-curvature="0" />
	<path style="fill:none;stroke:red;stroke-width:1px;stroke-linecap:butt;stroke-linejoin:miter;stroke-opacity:1" d="M 160.838,897.976 200.047,897.976 z" id="boundary" inkscape:connector-curvature="0" />
	<path style="fill:none;stroke:red;stroke-width:1px;stroke-linecap:butt;stroke-linejoin:miter;stroke-opacity:1" d="M 141.233,980.316 180.443,980.316 z" id="boundary" inkscape:connector-curvature="0" />
	<path style="fill:none;stroke:red;stroke-width:1px;stroke-linecap:butt;stroke-linejoin:miter;stroke-opacity:1" d="M 219.652,980.316 180.443,980.316 z" id="boundary" inkscape:connector-curvature="0" />
	<path style="fill:none;stroke:red;stroke-width:1px;stroke-linecap:butt;stroke-linejoin:miter;stroke-opacity:1" d="M 121.628,897.976 160.838,897.976 z" id="boundary" inkscape:connector-curvature="0" />
	<path style="fill:none;stroke:red;stroke-width:1px;stroke-linecap:butt;stroke-linejoin:miter;stroke-opacity:1" d="M 239.257,897.976 278.466,897.976 z" id="boundary" inkscape:connector-curvature="0" />
	<path style="fill:none;stroke:red;stroke-width:1px;stroke-linecap:butt;stroke-linejoin:miter;stroke-opacity:1" d="M 258.862,980.316 219.652,980.316 z" id="boundary" inkscape:connector-curvature="0" />
	<path style="fill:none;stroke:red;stroke-width:1px;stroke-linecap:butt;stroke-linejoin:miter;stroke-opacity:1" d="M 298.071,980.316 258.862,980.316 z" id="boundary" inkscape:connector-curvature="0" />
	<path style="fill:none;stroke:red;stroke-width:1px;stroke-linecap:butt;stroke-linejoin:miter;stroke-opacity:1" d="M 200.047,897.976 239.257,897.976 z" id="boundary" inkscape:connector-curvature="0" />
	<path style="fill:none;stroke:red;stroke-width:1px;stroke-linecap:butt;stroke-linejoin:miter;stroke-opacity:1" d="M 305.913,654.877 266.704,654.877 z" id="boundary" inkscape:connector-curvature="0" />
	<path style="fill:none;stroke:red;stroke-width:1px;stroke-linecap:butt;stroke-linejoin:miter;stroke-opacity:1" d="M 494.119,278.466 494.119,317.676 z" id="boundary" inkscape:connector-curvature="0" />
	<path style="fill:none;stroke:red;stroke-width:1px;stroke-linecap:butt;stroke-linejoin:miter;stroke-opacity:1" d="M 396.095,4 435.304,4 z" id="boundary" inkscape:connector-curvature="0" />
	<path style="fill:none;stroke:red;stroke-width:1px;stroke-linecap:butt;stroke-linejoin:miter;stroke-opacity:1" d="M 486.277,466.672 486.277,427.462 z" id="boundary" inkscape:connector-curvature="0" />
	<path style="fill:none;stroke:red;stroke-width:1px;stroke-linecap:butt;stroke-linejoin:miter;stroke-opacity:1" d="M 486.277,427.462 494.119,356.885 z" id="boundary" inkscape:connector-curvature="0" />
	<path style="fill:none;stroke:red;stroke-width:1px;stroke-linecap:butt;stroke-linejoin:miter;stroke-opacity:1" d="M 435.304,4 474.514,4 z" id="boundary" inkscape:connector-curvature="0" />
	<path style="fill:none;stroke:red;stroke-width:1px;stroke-linecap:butt;stroke-linejoin:miter;stroke-opacity:1" d="M 474.514,4 494.119,39.2885 z" id="boundary" inkscape:connector-curvature="0" />
	<path style="fill:none;stroke:red;stroke-width:1px;stroke-linecap:butt;stroke-linejoin:miter;stroke-opacity:1" d="M 356.885,4 396.095,4 z" id="boundary" inkscape:connector-curvature="0" />
	<path style="fill:none;stroke:red;stroke-width:1px;stroke-linecap:butt;stroke-linejoin:miter;stroke-opacity:1" d="M 356.885,568.617 356.885,607.826 z" id="boundary" inkscape:connector-curvature="0" />
	<path style="fill:none;stroke:red;stroke-width:1px;stroke-linecap:butt;stroke-linejoin:miter;stroke-opacity:1" d="M 356.885,568.617 356.885,529.407 z" id="boundary" inkscape:connector-curvature="0" />
	<path style="fill:none;stroke:red;stroke-width:1px;stroke-linecap:butt;stroke-linejoin:miter;stroke-opacity:1" d="M 345.123,654.877 356.885,607.826 z" id="boundary" inkscape:connector-curvature="0" />
	<path style="fill:none;stroke:red;stroke-width:1px;stroke-linecap:butt;stroke-linejoin:miter;stroke-opacity:1" d="M 317.676,525.486 356.885,529.407 z" id="boundary" inkscape:connector-curvature="0" />
	<path style="fill:none;stroke:red;stroke-width:1px;stroke-linecap:butt;stroke-linejoin:miter;stroke-opacity:1" d="M 356.885,713.692 325.518,690.166 z" id="boundary" inkscape:connector-curvature="0" />
	<path style="fill:none;stroke:red;stroke-width:1px;stroke-linecap:butt;stroke-linejoin:miter;stroke-opacity:1" d="M 486.277,466.672 486.277,505.881 z" id="boundary" inkscape:connector-curvature="0" />
	<path style="fill:none;stroke:red;stroke-width:1px;stroke-linecap:butt;stroke-linejoin:miter;stroke-opacity:1" d="M 317.676,4 356.885,4 z" id="boundary" inkscape:connector-curvature="0" />
	<path style="fill:none;stroke:red;stroke-width:1px;stroke-linecap:butt;stroke-linejoin:miter;stroke-opacity:1" d="M 494.119,78.498 494.119,39.2885 z" id="boundary" inkscape:connector-curvature="0" />
	<path style="fill:none;stroke:red;stroke-width:1px;stroke-linecap:butt;stroke-linejoin:miter;stroke-opacity:1" d="M 509.802,117.708 494.119,78.498 z" id="boundary" inkscape:connector-curvature="0" />
	<path style="fill:none;stroke:red;stroke-width:1px;stroke-linecap:butt;stroke-linejoin:miter;stroke-opacity:1" d="M 494.119,239.257 494.119,278.466 z" id="boundary" inkscape:connector-curvature="0" />
	<path style="fill:none;stroke:red;stroke-width:1px;stroke-linecap:butt;stroke-linejoin:miter;stroke-opacity:1" d="M 509.802,196.126 494.119,239.257 z" id="boundary" inkscape:connector-curvature="0" />
	<path style="fill:none;stroke:red;stroke-width:1px;stroke-linecap:butt;stroke-linejoin:miter;stroke-opacity:1" d="M 509.802,156.917 509.802,196.126 z" id="boundary" inkscape:connector-curvature="0" />
	<path style="fill:none;stroke:red;stroke-width:1px;stroke-linecap:butt;stroke-linejoin:miter;stroke-opacity:1" d="M 509.802,117.708 509.802,156.917 z" id="boundary" inkscape:connector-curvature="0" />
	<path style="fill:none;stroke:red;stroke-width:1px;stroke-linecap:butt;stroke-linejoin:miter;stroke-opacity:1" d="M 494.119,317.676 494.119,356.885 z" id="boundary" inkscape:connector-curvature="0" />
	<path style="fill:none;stroke:red;stroke-width:1px;stroke-linecap:butt;stroke-linejoin:miter;stroke-opacity:1" d="M 486.277,505.881 486.277,545.091 z" id="boundary" inkscape:connector-curvature="0" />
	<path style="fill:none;stroke:red;stroke-width:1px;stroke-linecap:butt;stroke-linejoin:miter;stroke-opacity:1" d="M 486.277,584.3 486.277,623.51 z" id="boundary" inkscape:connector-curvature="0" />
	<path style="fill:none;stroke:red;stroke-width:1px;stroke-linecap:butt;stroke-linejoin:miter;stroke-opacity:1" d="M 509.802,654.877 486.277,623.51 z" id="boundary" inkscape:connector-curvature="0" />
	<path style="fill:none;stroke:red;stroke-width:1px;stroke-linecap:butt;stroke-linejoin:miter;stroke-opacity:1" d="M 486.277,584.3 486.277,545.091 z" id="boundary" inkscape:connector-curvature="0" />
	<path style="fill:none;stroke:red;stroke-width:1px;stroke-linecap:butt;stroke-linejoin:miter;stroke-opacity:1" d="M 529.407,690.166 509.802,654.877 z" id="boundary" inkscape:connector-curvature="0" />
	<path style="fill:none;stroke:red;stroke-width:1px;stroke-linecap:butt;stroke-linejoin:miter;stroke-opacity:1" d="M 333.36,780.348 352.964,815.636 z" id="boundary" inkscape:connector-curvature="0" />
	<path style="fill:none;stroke:red;stroke-width:1px;stroke-linecap:butt;stroke-linejoin:miter;stroke-opacity:1" d="M 317.676,897.976 278.466,897.976 z" id="boundary" inkscape:connector-curvature="0" />
	<path style="fill:none;stroke:red;stroke-width:1px;stroke-linecap:butt;stroke-linejoin:miter;stroke-opacity:1" d="M 486.277,694.087 486.277,733.296 z" id="boundary" inkscape:connector-curvature="0" />
	<path style="fill:none;stroke:red;stroke-width:1px;stroke-linecap:butt;stroke-linejoin:miter;stroke-opacity:1" d="M 356.885,854.846 352.964,815.636 z" id="boundary" inkscape:connector-curvature="0" />
	<path style="fill:none;stroke:red;stroke-width:1px;stroke-linecap:butt;stroke-linejoin:miter;stroke-opacity:1" d="M 376.49,980.316 337.281,996 z" id="boundary" inkscape:connector-curvature="0" />
	<path style="fill:none;stroke:red;stroke-width:1px;stroke-linecap:butt;stroke-linejoin:miter;stroke-opacity:1" d="M 298.071,980.316 337.281,996 z" id="boundary" inkscape:connector-curvature="0" />
	<path style="fill:none;stroke:red;stroke-width:1px;stroke-linecap:butt;stroke-linejoin:miter;stroke-opacity:1" d="M 356.885,854.846 356.885,894.055 z" id="boundary" inkscape:connector-curvature="0" />
	<path style="fill:none;stroke:red;stroke-width:1px;stroke-linecap:butt;stroke-linejoin:miter;stroke-opacity:1" d="M 356.885,894.055 317.676,897.976 z" id="boundary" inkscape:connector-curvature="0" />
	<path style="fill:none;stroke:red;stroke-width:1px;stroke-linecap:butt;stroke-linejoin:miter;stroke-opacity:1" d="M 415.7,980.316 376.49,980.316 z" id="boundary" inkscape:connector-curvature="0" />
	<path style="fill:none;stroke:red;stroke-width:1px;stroke-linecap:butt;stroke-linejoin:miter;stroke-opacity:1" d="M 415.7,980.316 454.909,980.316 z" id="boundary" inkscape:connector-curvature="0" />
	<path style="fill:none;stroke:red;stroke-width:1px;stroke-linecap:butt;stroke-linejoin:miter;stroke-opacity:1" d="M 454.909,980.316 494.119,980.316 z" id="boundary" inkscape:connector-curvature="0" />
	<path style="fill:none;stroke:red;stroke-width:1px;stroke-linecap:butt;stroke-linejoin:miter;stroke-opacity:1" d="M 486.277,733.296 486.277,772.506 z" id="boundary" inkscape:connector-curvature="0" />
	<path style="fill:none;stroke:red;stroke-width:1px;stroke-linecap:butt;stroke-linejoin:miter;stroke-opacity:1" d="M 486.277,772.506 486.277,819.557 z" id="boundary" inkscape:connector-curvature="0" />
	<path style="fill:none;stroke:red;stroke-width:1px;stroke-linecap:butt;stroke-linejoin:miter;stroke-opacity:1" d="M 486.277,858.767 486.277,819.557 z" id="boundary" inkscape:connector-curvature="0" />
	<path style="fill:none;stroke:red;stroke-width:1px;stroke-linecap:butt;stroke-linejoin:miter;stroke-opacity:1" d="M 529.407,897.976 490.198,897.976 z" id="boundary" inkscape:connector-curvature="0" />
	<path style="fill:none;stroke:red;stroke-width:1px;stroke-linecap:butt;stroke-linejoin:miter;stroke-opacity:1" d="M 490.198,897.976 486.277,858.767 z" id="boundary" inkscape:connector-curvature="0" />
	<path style="fill:none;stroke:red;stroke-width:1px;stroke-linecap:butt;stroke-linejoin:miter;stroke-opacity:1" d="M 529.407,897.976 568.617,897.976 z" id="boundary" inkscape:connector-curvature="0" />
	<path style="fill:none;stroke:red;stroke-width:1px;stroke-linecap:butt;stroke-linejoin:miter;stroke-opacity:1" d="M 607.826,897.976 568.617,897.976 z" id="boundary" inkscape:connector-curvature="0" />
	<path style="fill:none;stroke:red;stroke-width:1px;stroke-linecap:butt;stroke-linejoin:miter;stroke-opacity:1" d="M 533.328,980.316 494.119,980.316 z" id="boundary" inkscape:connector-curvature="0" />
	<path style="fill:none;stroke:red;stroke-width:1px;stroke-linecap:butt;stroke-linejoin:miter;stroke-opacity:1" d="M 533.328,980.316 572.538,980.316 z" id="boundary" inkscape:connector-curvature="0" />
	<path style="fill:none;stroke:red;stroke-width:1px;stroke-linecap:butt;stroke-linejoin:miter;stroke-opacity:1" d="M 572.538,980.316 611.747,988.158 z" id="boundary" inkscape:connector-curvature="0" />
	<path style="fill:none;stroke:red;stroke-width:1px;stroke-linecap:butt;stroke-linejoin:miter;stroke-opacity:1" d="M 666.64,933.265 647.036,897.976 z" id="boundary" inkscape:connector-curvature="0" />
	<path style="fill:none;stroke:red;stroke-width:1px;stroke-linecap:butt;stroke-linejoin:miter;stroke-opacity:1" d="M 650.957,980.316 611.747,988.158 z" id="boundary" inkscape:connector-curvature="0" />
	<path style="fill:none;stroke:red;stroke-width:1px;stroke-linecap:butt;stroke-linejoin:miter;stroke-opacity:1" d="M 666.64,933.265 650.957,980.316 z" id="boundary" inkscape:connector-curvature="0" />
	<path style="fill:none;stroke:red;stroke-width:1px;stroke-linecap:butt;stroke-linejoin:miter;stroke-opacity:1" d="M 607.826,897.976 647.036,897.976 z" id="boundary" inkscape:connector-curvature="0" />
	<path style="fill:none;stroke:red;stroke-width:1px;stroke-linecap:butt;stroke-linejoin:miter;stroke-opacity:1" d="M 529.407,690.166 525.486,780.348 z" id="boundary" inkscape:connector-curvature="0" />
	<circle cx="4" cy="905.818" r="4" fill="#0" id="circle0"/>
	<circle cx="4" cy="945.028" r="4" fill="#0" id="circle1"/>
	<circle cx="19.6838" cy="662.719" r="4" fill="#0" id="circle2"/>
	<circle cx="19.6838" cy="780.348" r="4" fill="#0" id="circle3"/>
	<circle cx="23.6047" cy="980.316" r="4" fill="#0" id="circle4"/>
	<circle cx="39.2885" cy="815.636" r="4" fill="#0" id="circle5"/>
	<circle cx="43.2095" cy="897.976" r="4" fill="#0" id="circle6"/>
	<circle cx="51.0514" cy="690.166" r="4" fill="#0" id="circle7"/>
	<circle cx="58.8933" cy="780.348" r="4" fill="#0" id="circle8"/>
	<circle cx="62.8142" cy="996" r="4" fill="#0" id="circle9"/>
	<circle cx="70.6561" cy="654.877" r="4" fill="#0" id="circle10"/>
	<circle cx="78.498" cy="815.636" r="4" fill="#0" id="circle11"/>
	<circle cx="82.419" cy="897.976" r="4" fill="#0" id="circle12"/>
	<circle cx="90.2609" cy="690.166" r="4" fill="#0" id="circle13"/>
	<circle cx="98.1028" cy="780.348" r="4" fill="#0" id="circle14"/>
	<circle cx="102.024" cy="980.316" r="4" fill="#0" id="circle15"/>
	<circle cx="109.866" cy="654.877" r="4" fill="#0" id="circle16"/>
	<circle cx="117.708" cy="815.636" r="4" fill="#0" id="circle17"/>
	<circle cx="121.628" cy="897.976" r="4" fill="#0" id="circle18"/>
	<circle cx="129.47" cy="690.166" r="4" fill="#0" id="circle19"/>
	<circle cx="137.312" cy="780.348" r="4" fill="#0" id="circle20"/>
	<circle cx="141.233" cy="980.316" r="4" fill="#0" id="circle21"/>
	<circle cx="149.075" cy="654.877" r="4" fill="#0" id="circle22"/>
	<circle cx="156.917" cy="815.636" r="4" fill="#0" id="circle23"/>
	<circle cx="160.838" cy="897.976" r="4" fill="#0" id="circle24"/>
	<circle cx="168.68" cy="690.166" r="4" fill="#0" id="circle25"/>
	<circle cx="176.522" cy="780.348" r="4" fill="#0" id="circle26"/>
	<circle cx="180.443" cy="980.316" r="4" fill="#0" id="circle27"/>
	<circle cx="188.285" cy="654.877" r="4" fill="#0" id="circle28"/>
	<circle cx="196.126" cy="815.636" r="4" fill="#0" id="circle29"/>
	<circle cx="200.047" cy="897.976" r="4" fill="#0" id="circle30"/>
	<circle cx="207.889" cy="27.5257" r="4" fill="#0" id="circle31"/>
	<circle cx="207.889" cy="66.7352" r="4" fill="#0" id="circle32"/>
	<circle cx="207.889" cy="105.945" r="4" fill="#0" id="circle33"/>
	<circle cx="207.889" cy="145.154" r="4" fill="#0" id="circle34"/>
	<circle cx="207.889" cy="184.364" r="4" fill="#0" id="circle35"/>
	<circle cx="207.889" cy="223.573" r="4" fill="#0" id="circle36"/>
	<circle cx="207.889" cy="262.783" r="4" fill="#0" id="circle37"/>
	<circle cx="207.889" cy="301.992" r="4" fill="#0" id="circle38"/>
	<circle cx="207.889" cy="341.202" r="4" fill="#0" id="circle39"/>
	<circle cx="207.889" cy="380.411" r="4" fill="#0" id="circle40"/>
	<circle cx="207.889" cy="419.621" r="4" fill="#0" id="circle41"/>
	<circle cx="207.889" cy="458.83" r="4" fill="#0" id="circle42"/>
	<circle cx="207.889" cy="498.04" r="4" fill="#0" id="circle43"/>
	<circle cx="207.889" cy="690.166" r="4" fill="#0" id="circle44"/>
	<circle cx="215.731" cy="780.348" r="4" fill="#0" id="circle45"/>
	<circle cx="219.652" cy="980.316" r="4" fill="#0" id="circle46"/>
	<circle cx="227.494" cy="654.877" r="4" fill="#0" id="circle47"/>
	<circle cx="235.336" cy="815.636" r="4" fill="#0" id="circle48"/>
	<circle cx="239.257" cy="4" r="4" fill="#0" id="circle49"/>
	<circle cx="239.257" cy="525.486" r="4" fill="#0" id="circle50"/>
	<circle cx="239.257" cy="897.976" r="4" fill="#0" id="circle51"/>
	<circle cx="247.099" cy="690.166" r="4" fill="#0" id="circle52"/>
	<circle cx="254.941" cy="780.348" r="4" fill="#0" id="circle53"/>
	<circle cx="258.862" cy="980.316" r="4" fill="#0" id="circle54"/>
	<circle cx="266.704" cy="654.877" r="4" fill="#0" id="circle55"/>
	<circle cx="274.545" cy="815.636" r="4" fill="#0" id="circle56"/>
	<circle cx="278.466" cy="4" r="4" fill="#0" id="circle57"/>
	<circle cx="278.466" cy="525.486" r="4" fill="#0" id="circle58"/>
	<circle cx="278.466" cy="897.976" r="4" fill="#0" id="circle59"/>
	<circle cx="286.308" cy="690.166" r="4" fill="#0" id="circle60"/>
	<circle cx="294.15" cy="780.348" r="4" fill="#0" id="circle61"/>
	<circle cx="298.071" cy="980.316" r="4" fill="#0" id="circle62"/>
	<circle cx="305.913" cy="654.877" r="4" fill="#0" id="circle63"/>
	<circle cx="313.755" cy="815.636" r="4" fill="#0" id="circle64"/>
	<circle cx="317.676" cy="4" r="4" fill="#0" id="circle65"/>
	<circle cx="317.676" cy="525.486" r="4" fill="#0" id="circle66"/>
	<circle cx="317.676" cy="897.976" r="4" fill="#0" id="circle67"/>
	<circle cx="325.518" cy="690.166" r="4" fill="#0" id="circle68"/>
	<circle cx="333.36" cy="780.348" r="4" fill="#0" id="circle69"/>
	<circle cx="337.281" cy="996" r="4" fill="#0" id="circle70"/>
	<circle cx="345.123" cy="654.877" r="4" fill="#0" id="circle71"/>
	<circle cx="352.964" cy="815.636" r="4" fill="#0" id="circle72"/>
	<circle cx="356.885" cy="4" r="4" fill="#0" id="circle73"/>
	<circle cx="356.885" cy="529.407" r="4" fill="#0" id="circle74"/>
	<circle cx="356.885" cy="568.617" r="4" fill="#0" id="circle75"/>
	<circle cx="356.885" cy="607.826" r="4" fill="#0" id="circle76"/>
	<circle cx="356.885" cy="713.692" r="4" fill="#0" id="circle77"/>
	<circle cx="356.885" cy="854.846" r="4" fill="#0" id="circle78"/>
	<circle cx="356.885" cy="894.055" r="4" fill="#0" id="circle79"/>
	<circle cx="376.49" cy="980.316" r="4" fill="#0" id="circle80"/>
	<circle cx="396.095" cy="4" r="4" fill="#0" id="circle81"/>
	<circle cx="415.7" cy="980.316" r="4" fill="#0" id="circle82"/>
	<circle cx="435.304" cy="4" r="4" fill="#0" id="circle83"/>
	<circle cx="454.909" cy="980.316" r="4" fill="#0" id="circle84"/>
	<circle cx="474.514" cy="4" r="4" fill="#0" id="circle85"/>
	<circle cx="486.277" cy="427.462" r="4" fill="#0" id="circle86"/>
	<circle cx="486.277" cy="466.672" r="4" fill="#0" id="circle87"/>
	<circle cx="486.277" cy="505.881" r="4" fill="#0" id="circle88"/>
	<circle cx="486.277" cy="545.091" r="4" fill="#0" id="circle89"/>
	<circle cx="486.277" cy="584.3" r="4" fill="#0" id="circle90"/>
	<circle cx="486.277" cy="623.51" r="4" fill="#0" id="circle91"/>
	<circle cx="486.277" cy="694.087" r="4" fill="#0" id="circle92"/>
	<circle cx="486.277" cy="733.296" r="4" fill="#0" id="circle93"/>
	<circle cx="486.277" cy="772.506" r="4" fill="#0" id="circle94"/>
	<circle cx="486.277" cy="819.557" r="4" fill="#0" id="circle95"/>
	<circle cx="486.277" cy="858.767" r="4" fill="#0" id="circle96"/>
	<circle cx="490.198" cy="897.976" r="4" fill="#0" id="circle97"/>
	<circle cx="494.119" cy="39.2885" r="4" fill="#0" id="circle98"/>
	<circle cx="494.119" cy="78.498" r="4" fill="#0" id="circle99"/>
	<circle cx="494.119" cy="239.257" r="4" fill="#0" id="circle100"/>
	<circle cx="494.119" cy="278.466" r="4" fill="#0" id="circle101"/>
	<circle cx="494.119" cy="317.676" r="4" fill="#0" id="circle102"/>
	<circle cx="494.119" cy="356.885" r="4" fill="#0" id="circle103"/>
	<circle cx="494.119" cy="980.316" r="4" fill="#0" id="circle104"/>
	<circle cx="509.802" cy="117.708" r="4" fill="#0" id="circle105"/>
	<circle cx="509.802" cy="156.917" r="4" fill="#0" id="circle106"/>
	<circle cx="509.802" cy="196.126" r="4" fill="#0" id="circle107"/>
	<circle cx="509.802" cy="654.877" r="4" fill="#0" id="circle108"/>
	<circle cx="525.486" cy="780.348" r="4" fill="#0" id="circle109"/>
	<circle cx="529.407" cy="690.166" r="4" fill="#0" id="circle110"/>
	<circle cx="529.407" cy="897.976" r="4" fill="#0" id="circle111"/>
	<circle cx="533.328" cy="980.316" r="4" fill="#0" id="circle112"/>
	<circle cx="568.617" cy="897.976" r="4" fill="#0" id="circle113"/>
	<circle cx="572.538" cy="980.316" r="4" fill="#0" id="circle114"/>
	<circle cx="607.826" cy="897.976" r="4" fill="#0" id="circle115"/>
	<circle cx="611.747" cy="988.158" r="4" fill="#0" id="circle116"/>
	<circle cx="647.036" cy="897.976" r="4" fill="#0" id="circle117"/>
	<circle cx="650.957" cy="980.316" r="4" fill="#0" id="circle118"/>
	<circle cx="666.64" cy="933.265" r="4" fill="#0" id="circle119"/>
	</g>
</svg>