<?xml version="1.0" encoding="UTF-8" standalone="no"?>
<!-- Created with CurveBenchmark -->
<svg
	xmlns:dc="http://purl.org/dc/elements/1.1/"
	xmlns:cc="http://creativecommons.org/ns#"
	xmlns:rdf="http://www.w3.org/1999/02/22-rdf-syntax-ns#"
	xmlns:svg="http://www.w3.org/2000/svg"
	xmlns="http://www.w3.org/2000/svg"
	xmlns:sodipodi="http://sodipodi.sourceforge.net/DTD/sodipodi-0.dtd"
	xmlns:inkscape="http://www.inkscape.org/namespaces/inkscape"
	width="1000"
	height="1000"
	id="svg2"
	version="1.1"
	sodipodi:docname="manifold/gathan1-dino17.png.txt">
<defs
	id="defs4" />
<metadata
	id="metadata7">
	<rdf:RDF>
		<cc:Work
			rdf:about="">
			<dc:format>image/svg+xml</dc:format>
			<dc:type
				rdf:resource="http://purl.org/dc/dcmitype/StillImage" />
			<dc:title></dc:title>
		</cc:Work>
	</rdf:RDF>
</metadata>
<g
	inkscape:label="Layer 1"
	inkscape:groupmode="layer"
	id="layer1">
	<path style="fill:none;stroke:red;stroke-width:1px;stroke-linecap:butt;stroke-linejoin:miter;stroke-opacity:1" d="M 4,85.6659 4,73.6562 z" id="boundary" inkscape:connector-curvature="0" />
	<path style="fill:none;stroke:red;stroke-width:1px;stroke-linecap:butt;stroke-linejoin:miter;stroke-opacity:1" d="M 4,73.6562 13.6077,64.0484 z" id="boundary" inkscape:connector-curvature="0" />
	<path style="fill:none;stroke:red;stroke-width:1px;stroke-linecap:butt;stroke-linejoin:miter;stroke-opacity:1" d="M 13.6077,64.0484 24.4165,58.0436 z" id="boundary" inkscape:connector-curvature="0" />
	<path style="fill:none;stroke:red;stroke-width:1px;stroke-linecap:butt;stroke-linejoin:miter;stroke-opacity:1" d="M 35.2252,52.0387 24.4165,58.0436 z" id="boundary" inkscape:connector-curvature="0" />
	<path style="fill:none;stroke:red;stroke-width:1px;stroke-linecap:butt;stroke-linejoin:miter;stroke-opacity:1" d="M 46.0339,46.0339 35.2252,52.0387 z" id="boundary" inkscape:connector-curvature="0" />
	<path style="fill:none;stroke:red;stroke-width:1px;stroke-linecap:butt;stroke-linejoin:miter;stroke-opacity:1" d="M 56.8426,119.293 44.8329,119.293 z" id="boundary" inkscape:connector-curvature="0" />
	<path style="fill:none;stroke:red;stroke-width:1px;stroke-linecap:butt;stroke-linejoin:miter;stroke-opacity:1" d="M 22.0145,113.288 10.0048,108.484 z" id="boundary" inkscape:connector-curvature="0" />
	<path style="fill:none;stroke:red;stroke-width:1px;stroke-linecap:butt;stroke-linejoin:miter;stroke-opacity:1" d="M 10.0048,108.484 4,97.6755 z" id="boundary" inkscape:connector-curvature="0" />
	<path style="fill:none;stroke:red;stroke-width:1px;stroke-linecap:butt;stroke-linejoin:miter;stroke-opacity:1" d="M 4,97.6755 4,85.6659 z" id="boundary" inkscape:connector-curvature="0" />
	<path style="fill:none;stroke:red;stroke-width:1px;stroke-linecap:butt;stroke-linejoin:miter;stroke-opacity:1" d="M 44.8329,119.293 32.8232,119.293 z" id="boundary" inkscape:connector-curvature="0" />
	<path style="fill:none;stroke:red;stroke-width:1px;stroke-linecap:butt;stroke-linejoin:miter;stroke-opacity:1" d="M 32.8232,119.293 22.0145,113.288 z" id="boundary" inkscape:connector-curvature="0" />
	<path style="fill:none;stroke:red;stroke-width:1px;stroke-linecap:butt;stroke-linejoin:miter;stroke-opacity:1" d="M 98.8765,16.0097 109.685,10.0048 z" id="boundary" inkscape:connector-curvature="0" />
	<path style="fill:none;stroke:red;stroke-width:1px;stroke-linecap:butt;stroke-linejoin:miter;stroke-opacity:1" d="M 109.685,10.0048 121.695,10.0048 z" id="boundary" inkscape:connector-curvature="0" />
	<path style="fill:none;stroke:red;stroke-width:1px;stroke-linecap:butt;stroke-linejoin:miter;stroke-opacity:1" d="M 133.705,10.0048 121.695,10.0048 z" id="boundary" inkscape:connector-curvature="0" />
	<path style="fill:none;stroke:red;stroke-width:1px;stroke-linecap:butt;stroke-linejoin:miter;stroke-opacity:1" d="M 144.513,4 133.705,10.0048 z" id="boundary" inkscape:connector-curvature="0" />
	<path style="fill:none;stroke:red;stroke-width:1px;stroke-linecap:butt;stroke-linejoin:miter;stroke-opacity:1" d="M 167.332,13.6077 155.322,10.0048 z" id="boundary" inkscape:connector-curvature="0" />
	<path style="fill:none;stroke:red;stroke-width:1px;stroke-linecap:butt;stroke-linejoin:miter;stroke-opacity:1" d="M 155.322,10.0048 144.513,4 z" id="boundary" inkscape:connector-curvature="0" />
	<path style="fill:none;stroke:red;stroke-width:1px;stroke-linecap:butt;stroke-linejoin:miter;stroke-opacity:1" d="M 46.0339,46.0339 56.8426,40.0291 z" id="boundary" inkscape:connector-curvature="0" />
	<path style="fill:none;stroke:red;stroke-width:1px;stroke-linecap:butt;stroke-linejoin:miter;stroke-opacity:1" d="M 67.6513,34.0242 56.8426,40.0291 z" id="boundary" inkscape:connector-curvature="0" />
	<path style="fill:none;stroke:red;stroke-width:1px;stroke-linecap:butt;stroke-linejoin:miter;stroke-opacity:1" d="M 77.2591,24.4165 67.6513,34.0242 z" id="boundary" inkscape:connector-curvature="0" />
	<path style="fill:none;stroke:red;stroke-width:1px;stroke-linecap:butt;stroke-linejoin:miter;stroke-opacity:1" d="M 68.8523,119.293 56.8426,119.293 z" id="boundary" inkscape:connector-curvature="0" />
	<path style="fill:none;stroke:red;stroke-width:1px;stroke-linecap:butt;stroke-linejoin:miter;stroke-opacity:1" d="M 77.2591,24.4165 86.8668,16.0097 z" id="boundary" inkscape:connector-curvature="0" />
	<path style="fill:none;stroke:red;stroke-width:1px;stroke-linecap:butt;stroke-linejoin:miter;stroke-opacity:1" d="M 86.8668,16.0097 98.8765,16.0097 z" id="boundary" inkscape:connector-curvature="0" />
	<path style="fill:none;stroke:red;stroke-width:1px;stroke-linecap:butt;stroke-linejoin:miter;stroke-opacity:1" d="M 79.661,125.298 68.8523,119.293 z" id="boundary" inkscape:connector-curvature="0" />
	<path style="fill:none;stroke:red;stroke-width:1px;stroke-linecap:butt;stroke-linejoin:miter;stroke-opacity:1" d="M 91.6707,125.298 79.661,125.298 z" id="boundary" inkscape:connector-curvature="0" />
	<path style="fill:none;stroke:red;stroke-width:1px;stroke-linecap:butt;stroke-linejoin:miter;stroke-opacity:1" d="M 91.6707,125.298 103.68,125.298 z" id="boundary" inkscape:connector-curvature="0" />
	<path style="fill:none;stroke:red;stroke-width:1px;stroke-linecap:butt;stroke-linejoin:miter;stroke-opacity:1" d="M 103.68,125.298 114.489,131.303 z" id="boundary" inkscape:connector-curvature="0" />
	<path style="fill:none;stroke:red;stroke-width:1px;stroke-linecap:butt;stroke-linejoin:miter;stroke-opacity:1" d="M 125.298,137.308 137.308,139.709 z" id="boundary" inkscape:connector-curvature="0" />
	<path style="fill:none;stroke:red;stroke-width:1px;stroke-linecap:butt;stroke-linejoin:miter;stroke-opacity:1" d="M 137.308,139.709 145.714,149.317 z" id="boundary" inkscape:connector-curvature="0" />
	<path style="fill:none;stroke:red;stroke-width:1px;stroke-linecap:butt;stroke-linejoin:miter;stroke-opacity:1" d="M 125.298,137.308 114.489,131.303 z" id="boundary" inkscape:connector-curvature="0" />
	<path style="fill:none;stroke:red;stroke-width:1px;stroke-linecap:butt;stroke-linejoin:miter;stroke-opacity:1" d="M 145.714,149.317 148.116,161.327 z" id="boundary" inkscape:connector-curvature="0" />
	<path style="fill:none;stroke:red;stroke-width:1px;stroke-linecap:butt;stroke-linejoin:miter;stroke-opacity:1" d="M 148.116,161.327 154.121,172.136 z" id="boundary" inkscape:connector-curvature="0" />
	<path style="fill:none;stroke:red;stroke-width:1px;stroke-linecap:butt;stroke-linejoin:miter;stroke-opacity:1" d="M 154.121,172.136 154.121,184.145 z" id="boundary" inkscape:connector-curvature="0" />
	<path style="fill:none;stroke:red;stroke-width:1px;stroke-linecap:butt;stroke-linejoin:miter;stroke-opacity:1" d="M 156.523,196.155 154.121,184.145 z" id="boundary" inkscape:connector-curvature="0" />
	<path style="fill:none;stroke:red;stroke-width:1px;stroke-linecap:butt;stroke-linejoin:miter;stroke-opacity:1" d="M 160.126,208.165 162.528,220.174 z" id="boundary" inkscape:connector-curvature="0" />
	<path style="fill:none;stroke:red;stroke-width:1px;stroke-linecap:butt;stroke-linejoin:miter;stroke-opacity:1" d="M 160.126,208.165 156.523,196.155 z" id="boundary" inkscape:connector-curvature="0" />
	<path style="fill:none;stroke:red;stroke-width:1px;stroke-linecap:butt;stroke-linejoin:miter;stroke-opacity:1" d="M 166.131,232.184 162.528,220.174 z" id="boundary" inkscape:connector-curvature="0" />
	<path style="fill:none;stroke:red;stroke-width:1px;stroke-linecap:butt;stroke-linejoin:miter;stroke-opacity:1" d="M 168.533,256.203 166.131,244.194 z" id="boundary" inkscape:connector-curvature="0" />
	<path style="fill:none;stroke:red;stroke-width:1px;stroke-linecap:butt;stroke-linejoin:miter;stroke-opacity:1" d="M 172.136,268.213 168.533,256.203 z" id="boundary" inkscape:connector-curvature="0" />
	<path style="fill:none;stroke:red;stroke-width:1px;stroke-linecap:butt;stroke-linejoin:miter;stroke-opacity:1" d="M 166.131,232.184 166.131,244.194 z" id="boundary" inkscape:connector-curvature="0" />
	<path style="fill:none;stroke:red;stroke-width:1px;stroke-linecap:butt;stroke-linejoin:miter;stroke-opacity:1" d="M 172.136,268.213 172.136,280.223 z" id="boundary" inkscape:connector-curvature="0" />
	<path style="fill:none;stroke:red;stroke-width:1px;stroke-linecap:butt;stroke-linejoin:miter;stroke-opacity:1" d="M 172.136,280.223 172.136,292.232 z" id="boundary" inkscape:connector-curvature="0" />
	<path style="fill:none;stroke:red;stroke-width:1px;stroke-linecap:butt;stroke-linejoin:miter;stroke-opacity:1" d="M 155.322,498.799 164.93,490.392 z" id="boundary" inkscape:connector-curvature="0" />
	<path style="fill:none;stroke:red;stroke-width:1px;stroke-linecap:butt;stroke-linejoin:miter;stroke-opacity:1" d="M 172.136,292.232 172.136,304.242 z" id="boundary" inkscape:connector-curvature="0" />
	<path style="fill:none;stroke:red;stroke-width:1px;stroke-linecap:butt;stroke-linejoin:miter;stroke-opacity:1" d="M 172.136,304.242 172.136,316.252 z" id="boundary" inkscape:connector-curvature="0" />
	<path style="fill:none;stroke:red;stroke-width:1px;stroke-linecap:butt;stroke-linejoin:miter;stroke-opacity:1" d="M 167.332,13.6077 178.14,19.6126 z" id="boundary" inkscape:connector-curvature="0" />
	<path style="fill:none;stroke:red;stroke-width:1px;stroke-linecap:butt;stroke-linejoin:miter;stroke-opacity:1" d="M 155.322,498.799 143.312,504.804 z" id="boundary" inkscape:connector-curvature="0" />
	<path style="fill:none;stroke:red;stroke-width:1px;stroke-linecap:butt;stroke-linejoin:miter;stroke-opacity:1" d="M 178.14,19.6126 190.15,24.4165 z" id="boundary" inkscape:connector-curvature="0" />
	<path style="fill:none;stroke:red;stroke-width:1px;stroke-linecap:butt;stroke-linejoin:miter;stroke-opacity:1" d="M 190.15,24.4165 197.356,34.0242 z" id="boundary" inkscape:connector-curvature="0" />
	<path style="fill:none;stroke:red;stroke-width:1px;stroke-linecap:butt;stroke-linejoin:miter;stroke-opacity:1" d="M 197.356,34.0242 203.361,44.8329 z" id="boundary" inkscape:connector-curvature="0" />
	<path style="fill:none;stroke:red;stroke-width:1px;stroke-linecap:butt;stroke-linejoin:miter;stroke-opacity:1" d="M 209.366,55.6416 203.361,44.8329 z" id="boundary" inkscape:connector-curvature="0" />
	<path style="fill:none;stroke:red;stroke-width:1px;stroke-linecap:butt;stroke-linejoin:miter;stroke-opacity:1" d="M 221.375,90.4697 215.37,79.661 z" id="boundary" inkscape:connector-curvature="0" />
	<path style="fill:none;stroke:red;stroke-width:1px;stroke-linecap:butt;stroke-linejoin:miter;stroke-opacity:1" d="M 215.37,79.661 214.169,67.6513 z" id="boundary" inkscape:connector-curvature="0" />
	<path style="fill:none;stroke:red;stroke-width:1px;stroke-linecap:butt;stroke-linejoin:miter;stroke-opacity:1" d="M 227.38,101.278 221.375,90.4697 z" id="boundary" inkscape:connector-curvature="0" />
	<path style="fill:none;stroke:red;stroke-width:1px;stroke-linecap:butt;stroke-linejoin:miter;stroke-opacity:1" d="M 209.366,55.6416 214.169,67.6513 z" id="boundary" inkscape:connector-curvature="0" />
	<path style="fill:none;stroke:red;stroke-width:1px;stroke-linecap:butt;stroke-linejoin:miter;stroke-opacity:1" d="M 233.385,124.097 227.38,113.288 z" id="boundary" inkscape:connector-curvature="0" />
	<path style="fill:none;stroke:red;stroke-width:1px;stroke-linecap:butt;stroke-linejoin:miter;stroke-opacity:1" d="M 227.38,113.288 227.38,101.278 z" id="boundary" inkscape:connector-curvature="0" />
	<path style="fill:none;stroke:red;stroke-width:1px;stroke-linecap:butt;stroke-linejoin:miter;stroke-opacity:1" d="M 233.385,124.097 233.385,136.107 z" id="boundary" inkscape:connector-curvature="0" />
	<path style="fill:none;stroke:red;stroke-width:1px;stroke-linecap:butt;stroke-linejoin:miter;stroke-opacity:1" d="M 233.385,136.107 239.39,146.915 z" id="boundary" inkscape:connector-curvature="0" />
	<path style="fill:none;stroke:red;stroke-width:1px;stroke-linecap:butt;stroke-linejoin:miter;stroke-opacity:1" d="M 239.39,146.915 239.39,158.925 z" id="boundary" inkscape:connector-curvature="0" />
	<path style="fill:none;stroke:red;stroke-width:1px;stroke-linecap:butt;stroke-linejoin:miter;stroke-opacity:1" d="M 239.39,158.925 239.39,170.935 z" id="boundary" inkscape:connector-curvature="0" />
	<path style="fill:none;stroke:red;stroke-width:1px;stroke-linecap:butt;stroke-linejoin:miter;stroke-opacity:1" d="M 245.395,181.743 251.4,192.552 z" id="boundary" inkscape:connector-curvature="0" />
	<path style="fill:none;stroke:red;stroke-width:1px;stroke-linecap:butt;stroke-linejoin:miter;stroke-opacity:1" d="M 245.395,181.743 239.39,170.935 z" id="boundary" inkscape:connector-curvature="0" />
	<path style="fill:none;stroke:red;stroke-width:1px;stroke-linecap:butt;stroke-linejoin:miter;stroke-opacity:1" d="M 251.4,192.552 255.002,204.562 z" id="boundary" inkscape:connector-curvature="0" />
	<path style="fill:none;stroke:red;stroke-width:1px;stroke-linecap:butt;stroke-linejoin:miter;stroke-opacity:1" d="M 257.404,216.571 257.404,228.581 z" id="boundary" inkscape:connector-curvature="0" />
	<path style="fill:none;stroke:red;stroke-width:1px;stroke-linecap:butt;stroke-linejoin:miter;stroke-opacity:1" d="M 255.002,204.562 257.404,216.571 z" id="boundary" inkscape:connector-curvature="0" />
	<path style="fill:none;stroke:red;stroke-width:1px;stroke-linecap:butt;stroke-linejoin:miter;stroke-opacity:1" d="M 261.007,240.591 269.414,250.199 z" id="boundary" inkscape:connector-curvature="0" />
	<path style="fill:none;stroke:red;stroke-width:1px;stroke-linecap:butt;stroke-linejoin:miter;stroke-opacity:1" d="M 269.414,250.199 269.414,262.208 z" id="boundary" inkscape:connector-curvature="0" />
	<path style="fill:none;stroke:red;stroke-width:1px;stroke-linecap:butt;stroke-linejoin:miter;stroke-opacity:1" d="M 261.007,240.591 257.404,228.581 z" id="boundary" inkscape:connector-curvature="0" />
	<path style="fill:none;stroke:red;stroke-width:1px;stroke-linecap:butt;stroke-linejoin:miter;stroke-opacity:1" d="M 275.419,273.017 269.414,262.208 z" id="boundary" inkscape:connector-curvature="0" />
	<path style="fill:none;stroke:red;stroke-width:1px;stroke-linecap:butt;stroke-linejoin:miter;stroke-opacity:1" d="M 172.136,316.252 172.136,328.262 z" id="boundary" inkscape:connector-curvature="0" />
	<path style="fill:none;stroke:red;stroke-width:1px;stroke-linecap:butt;stroke-linejoin:miter;stroke-opacity:1" d="M 172.136,340.271 172.136,328.262 z" id="boundary" inkscape:connector-curvature="0" />
	<path style="fill:none;stroke:red;stroke-width:1px;stroke-linecap:butt;stroke-linejoin:miter;stroke-opacity:1" d="M 178.14,363.09 172.136,352.281 z" id="boundary" inkscape:connector-curvature="0" />
	<path style="fill:none;stroke:red;stroke-width:1px;stroke-linecap:butt;stroke-linejoin:miter;stroke-opacity:1" d="M 172.136,352.281 172.136,340.271 z" id="boundary" inkscape:connector-curvature="0" />
	<path style="fill:none;stroke:red;stroke-width:1px;stroke-linecap:butt;stroke-linejoin:miter;stroke-opacity:1" d="M 178.14,363.09 178.14,375.099 z" id="boundary" inkscape:connector-curvature="0" />
	<path style="fill:none;stroke:red;stroke-width:1px;stroke-linecap:butt;stroke-linejoin:miter;stroke-opacity:1" d="M 178.14,387.109 178.14,399.119 z" id="boundary" inkscape:connector-curvature="0" />
	<path style="fill:none;stroke:red;stroke-width:1px;stroke-linecap:butt;stroke-linejoin:miter;stroke-opacity:1" d="M 178.14,375.099 178.14,387.109 z" id="boundary" inkscape:connector-curvature="0" />
	<path style="fill:none;stroke:red;stroke-width:1px;stroke-linecap:butt;stroke-linejoin:miter;stroke-opacity:1" d="M 182.944,472.378 173.337,480.785 z" id="boundary" inkscape:connector-curvature="0" />
	<path style="fill:none;stroke:red;stroke-width:1px;stroke-linecap:butt;stroke-linejoin:miter;stroke-opacity:1" d="M 184.145,409.927 178.14,399.119 z" id="boundary" inkscape:connector-curvature="0" />
	<path style="fill:none;stroke:red;stroke-width:1px;stroke-linecap:butt;stroke-linejoin:miter;stroke-opacity:1" d="M 184.145,409.927 184.145,421.937 z" id="boundary" inkscape:connector-curvature="0" />
	<path style="fill:none;stroke:red;stroke-width:1px;stroke-linecap:butt;stroke-linejoin:miter;stroke-opacity:1" d="M 173.337,480.785 164.93,490.392 z" id="boundary" inkscape:connector-curvature="0" />
	<path style="fill:none;stroke:red;stroke-width:1px;stroke-linecap:butt;stroke-linejoin:miter;stroke-opacity:1" d="M 285.027,281.424 293.433,291.031 z" id="boundary" inkscape:connector-curvature="0" />
	<path style="fill:none;stroke:red;stroke-width:1px;stroke-linecap:butt;stroke-linejoin:miter;stroke-opacity:1" d="M 305.443,295.835 293.433,291.031 z" id="boundary" inkscape:connector-curvature="0" />
	<path style="fill:none;stroke:red;stroke-width:1px;stroke-linecap:butt;stroke-linejoin:miter;stroke-opacity:1" d="M 305.443,295.835 316.252,301.84 z" id="boundary" inkscape:connector-curvature="0" />
	<path style="fill:none;stroke:red;stroke-width:1px;stroke-linecap:butt;stroke-linejoin:miter;stroke-opacity:1" d="M 316.252,301.84 325.86,310.247 z" id="boundary" inkscape:connector-curvature="0" />
	<path style="fill:none;stroke:red;stroke-width:1px;stroke-linecap:butt;stroke-linejoin:miter;stroke-opacity:1" d="M 337.869,310.247 325.86,310.247 z" id="boundary" inkscape:connector-curvature="0" />
	<path style="fill:none;stroke:red;stroke-width:1px;stroke-linecap:butt;stroke-linejoin:miter;stroke-opacity:1" d="M 285.027,281.424 275.419,273.017 z" id="boundary" inkscape:connector-curvature="0" />
	<path style="fill:none;stroke:red;stroke-width:1px;stroke-linecap:butt;stroke-linejoin:miter;stroke-opacity:1" d="M 184.145,421.937 190.15,432.746 z" id="boundary" inkscape:connector-curvature="0" />
	<path style="fill:none;stroke:red;stroke-width:1px;stroke-linecap:butt;stroke-linejoin:miter;stroke-opacity:1" d="M 190.15,432.746 190.15,444.755 z" id="boundary" inkscape:connector-curvature="0" />
	<path style="fill:none;stroke:red;stroke-width:1px;stroke-linecap:butt;stroke-linejoin:miter;stroke-opacity:1" d="M 190.15,444.755 190.15,456.765 z" id="boundary" inkscape:connector-curvature="0" />
	<path style="fill:none;stroke:red;stroke-width:1px;stroke-linecap:butt;stroke-linejoin:miter;stroke-opacity:1" d="M 190.15,456.765 182.944,472.378 z" id="boundary" inkscape:connector-curvature="0" />
	<path style="fill:none;stroke:red;stroke-width:1px;stroke-linecap:butt;stroke-linejoin:miter;stroke-opacity:1" d="M 349.879,310.247 337.869,310.247 z" id="boundary" inkscape:connector-curvature="0" />
	<path style="fill:none;stroke:red;stroke-width:1px;stroke-linecap:butt;stroke-linejoin:miter;stroke-opacity:1" d="M 103.68,538.431 113.288,528.823 z" id="boundary" inkscape:connector-curvature="0" />
	<path style="fill:none;stroke:red;stroke-width:1px;stroke-linecap:butt;stroke-linejoin:miter;stroke-opacity:1" d="M 143.312,504.804 133.705,514.412 z" id="boundary" inkscape:connector-curvature="0" />
	<path style="fill:none;stroke:red;stroke-width:1px;stroke-linecap:butt;stroke-linejoin:miter;stroke-opacity:1" d="M 133.705,514.412 122.896,520.416 z" id="boundary" inkscape:connector-curvature="0" />
	<path style="fill:none;stroke:red;stroke-width:1px;stroke-linecap:butt;stroke-linejoin:miter;stroke-opacity:1" d="M 152.92,555.245 143.312,563.651 z" id="boundary" inkscape:connector-curvature="0" />
	<path style="fill:none;stroke:red;stroke-width:1px;stroke-linecap:butt;stroke-linejoin:miter;stroke-opacity:1" d="M 122.896,520.416 113.288,528.823 z" id="boundary" inkscape:connector-curvature="0" />
	<path style="fill:none;stroke:red;stroke-width:1px;stroke-linecap:butt;stroke-linejoin:miter;stroke-opacity:1" d="M 82.063,584.068 88.0678,566.053 z" id="boundary" inkscape:connector-curvature="0" />
	<path style="fill:none;stroke:red;stroke-width:1px;stroke-linecap:butt;stroke-linejoin:miter;stroke-opacity:1" d="M 94.0726,548.039 88.0678,566.053 z" id="boundary" inkscape:connector-curvature="0" />
	<path style="fill:none;stroke:red;stroke-width:1px;stroke-linecap:butt;stroke-linejoin:miter;stroke-opacity:1" d="M 94.0726,548.039 103.68,538.431 z" id="boundary" inkscape:connector-curvature="0" />
	<path style="fill:none;stroke:red;stroke-width:1px;stroke-linecap:butt;stroke-linejoin:miter;stroke-opacity:1" d="M 143.312,563.651 145.714,575.661 z" id="boundary" inkscape:connector-curvature="0" />
	<path style="fill:none;stroke:red;stroke-width:1px;stroke-linecap:butt;stroke-linejoin:miter;stroke-opacity:1" d="M 152.92,555.245 161.327,545.637 z" id="boundary" inkscape:connector-curvature="0" />
	<path style="fill:none;stroke:red;stroke-width:1px;stroke-linecap:butt;stroke-linejoin:miter;stroke-opacity:1" d="M 170.935,537.23 161.327,545.637 z" id="boundary" inkscape:connector-curvature="0" />
	<path style="fill:none;stroke:red;stroke-width:1px;stroke-linecap:butt;stroke-linejoin:miter;stroke-opacity:1" d="M 170.935,537.23 178.14,527.622 z" id="boundary" inkscape:connector-curvature="0" />
	<path style="fill:none;stroke:red;stroke-width:1px;stroke-linecap:butt;stroke-linejoin:miter;stroke-opacity:1" d="M 188.949,521.617 178.14,527.622 z" id="boundary" inkscape:connector-curvature="0" />
	<path style="fill:none;stroke:red;stroke-width:1px;stroke-linecap:butt;stroke-linejoin:miter;stroke-opacity:1" d="M 216.571,556.446 205.763,562.45 z" id="boundary" inkscape:connector-curvature="0" />
	<path style="fill:none;stroke:red;stroke-width:1px;stroke-linecap:butt;stroke-linejoin:miter;stroke-opacity:1" d="M 191.351,582.867 182.944,592.475 z" id="boundary" inkscape:connector-curvature="0" />
	<path style="fill:none;stroke:red;stroke-width:1px;stroke-linecap:butt;stroke-linejoin:miter;stroke-opacity:1" d="M 200.959,574.46 191.351,582.867 z" id="boundary" inkscape:connector-curvature="0" />
	<path style="fill:none;stroke:red;stroke-width:1px;stroke-linecap:butt;stroke-linejoin:miter;stroke-opacity:1" d="M 205.763,562.45 200.959,574.46 z" id="boundary" inkscape:connector-curvature="0" />
	<path style="fill:none;stroke:red;stroke-width:1px;stroke-linecap:butt;stroke-linejoin:miter;stroke-opacity:1" d="M 221.375,617.695 209.366,623.7 z" id="boundary" inkscape:connector-curvature="0" />
	<path style="fill:none;stroke:red;stroke-width:1px;stroke-linecap:butt;stroke-linejoin:miter;stroke-opacity:1" d="M 188.949,521.617 199.758,515.613 z" id="boundary" inkscape:connector-curvature="0" />
	<path style="fill:none;stroke:red;stroke-width:1px;stroke-linecap:butt;stroke-linejoin:miter;stroke-opacity:1" d="M 182.944,592.475 173.337,600.881 z" id="boundary" inkscape:connector-curvature="0" />
	<path style="fill:none;stroke:red;stroke-width:1px;stroke-linecap:butt;stroke-linejoin:miter;stroke-opacity:1" d="M 96.4746,604.484 88.0678,594.877 z" id="boundary" inkscape:connector-curvature="0" />
	<path style="fill:none;stroke:red;stroke-width:1px;stroke-linecap:butt;stroke-linejoin:miter;stroke-opacity:1" d="M 88.0678,594.877 82.063,584.068 z" id="boundary" inkscape:connector-curvature="0" />
	<path style="fill:none;stroke:red;stroke-width:1px;stroke-linecap:butt;stroke-linejoin:miter;stroke-opacity:1" d="M 118.092,599.68 107.283,593.676 z" id="boundary" inkscape:connector-curvature="0" />
	<path style="fill:none;stroke:red;stroke-width:1px;stroke-linecap:butt;stroke-linejoin:miter;stroke-opacity:1" d="M 163.729,610.489 154.121,620.097 z" id="boundary" inkscape:connector-curvature="0" />
	<path style="fill:none;stroke:red;stroke-width:1px;stroke-linecap:butt;stroke-linejoin:miter;stroke-opacity:1" d="M 128.901,605.685 118.092,599.68 z" id="boundary" inkscape:connector-curvature="0" />
	<path style="fill:none;stroke:red;stroke-width:1px;stroke-linecap:butt;stroke-linejoin:miter;stroke-opacity:1" d="M 151.719,593.676 140.91,599.68 z" id="boundary" inkscape:connector-curvature="0" />
	<path style="fill:none;stroke:red;stroke-width:1px;stroke-linecap:butt;stroke-linejoin:miter;stroke-opacity:1" d="M 154.121,620.097 148.116,632.107 z" id="boundary" inkscape:connector-curvature="0" />
	<path style="fill:none;stroke:red;stroke-width:1px;stroke-linecap:butt;stroke-linejoin:miter;stroke-opacity:1" d="M 148.116,632.107 148.116,644.116 z" id="boundary" inkscape:connector-curvature="0" />
	<path style="fill:none;stroke:red;stroke-width:1px;stroke-linecap:butt;stroke-linejoin:miter;stroke-opacity:1" d="M 148.116,656.126 148.116,644.116 z" id="boundary" inkscape:connector-curvature="0" />
	<path style="fill:none;stroke:red;stroke-width:1px;stroke-linecap:butt;stroke-linejoin:miter;stroke-opacity:1" d="M 148.116,656.126 154.121,666.935 z" id="boundary" inkscape:connector-curvature="0" />
	<path style="fill:none;stroke:red;stroke-width:1px;stroke-linecap:butt;stroke-linejoin:miter;stroke-opacity:1" d="M 167.332,641.714 167.332,653.724 z" id="boundary" inkscape:connector-curvature="0" />
	<path style="fill:none;stroke:red;stroke-width:1px;stroke-linecap:butt;stroke-linejoin:miter;stroke-opacity:1" d="M 209.366,623.7 209.366,635.709 z" id="boundary" inkscape:connector-curvature="0" />
	<path style="fill:none;stroke:red;stroke-width:1px;stroke-linecap:butt;stroke-linejoin:miter;stroke-opacity:1" d="M 163.729,610.489 173.337,600.881 z" id="boundary" inkscape:connector-curvature="0" />
	<path style="fill:none;stroke:red;stroke-width:1px;stroke-linecap:butt;stroke-linejoin:miter;stroke-opacity:1" d="M 160.126,677.743 154.121,666.935 z" id="boundary" inkscape:connector-curvature="0" />
	<path style="fill:none;stroke:red;stroke-width:1px;stroke-linecap:butt;stroke-linejoin:miter;stroke-opacity:1" d="M 185.346,669.337 160.126,677.743 z" id="boundary" inkscape:connector-curvature="0" />
	<path style="fill:none;stroke:red;stroke-width:1px;stroke-linecap:butt;stroke-linejoin:miter;stroke-opacity:1" d="M 197.356,659.729 185.346,669.337 z" id="boundary" inkscape:connector-curvature="0" />
	<path style="fill:none;stroke:red;stroke-width:1px;stroke-linecap:butt;stroke-linejoin:miter;stroke-opacity:1" d="M 197.356,659.729 209.366,659.729 z" id="boundary" inkscape:connector-curvature="0" />
	<path style="fill:none;stroke:red;stroke-width:1px;stroke-linecap:butt;stroke-linejoin:miter;stroke-opacity:1" d="M 209.366,635.709 215.37,646.518 z" id="boundary" inkscape:connector-curvature="0" />
	<path style="fill:none;stroke:red;stroke-width:1px;stroke-linecap:butt;stroke-linejoin:miter;stroke-opacity:1" d="M 210.567,509.608 222.576,509.608 z" id="boundary" inkscape:connector-curvature="0" />
	<path style="fill:none;stroke:red;stroke-width:1px;stroke-linecap:butt;stroke-linejoin:miter;stroke-opacity:1" d="M 222.576,509.608 232.184,516.814 z" id="boundary" inkscape:connector-curvature="0" />
	<path style="fill:none;stroke:red;stroke-width:1px;stroke-linecap:butt;stroke-linejoin:miter;stroke-opacity:1" d="M 210.567,509.608 199.758,515.613 z" id="boundary" inkscape:connector-curvature="0" />
	<path style="fill:none;stroke:red;stroke-width:1px;stroke-linecap:butt;stroke-linejoin:miter;stroke-opacity:1" d="M 232.184,516.814 238.189,527.622 z" id="boundary" inkscape:connector-curvature="0" />
	<path style="fill:none;stroke:red;stroke-width:1px;stroke-linecap:butt;stroke-linejoin:miter;stroke-opacity:1" d="M 216.571,556.446 226.179,548.039 z" id="boundary" inkscape:connector-curvature="0" />
	<path style="fill:none;stroke:red;stroke-width:1px;stroke-linecap:butt;stroke-linejoin:miter;stroke-opacity:1" d="M 221.375,659.729 209.366,659.729 z" id="boundary" inkscape:connector-curvature="0" />
	<path style="fill:none;stroke:red;stroke-width:1px;stroke-linecap:butt;stroke-linejoin:miter;stroke-opacity:1" d="M 215.37,646.518 221.375,659.729 z" id="boundary" inkscape:connector-curvature="0" />
	<path style="fill:none;stroke:red;stroke-width:1px;stroke-linecap:butt;stroke-linejoin:miter;stroke-opacity:1" d="M 233.385,593.676 230.983,609.288 z" id="boundary" inkscape:connector-curvature="0" />
	<path style="fill:none;stroke:red;stroke-width:1px;stroke-linecap:butt;stroke-linejoin:miter;stroke-opacity:1" d="M 230.983,609.288 221.375,617.695 z" id="boundary" inkscape:connector-curvature="0" />
	<path style="fill:none;stroke:red;stroke-width:1px;stroke-linecap:butt;stroke-linejoin:miter;stroke-opacity:1" d="M 233.385,593.676 242.993,585.269 z" id="boundary" inkscape:connector-curvature="0" />
	<path style="fill:none;stroke:red;stroke-width:1px;stroke-linecap:butt;stroke-linejoin:miter;stroke-opacity:1" d="M 238.189,527.622 238.189,544.436 z" id="boundary" inkscape:connector-curvature="0" />
	<path style="fill:none;stroke:red;stroke-width:1px;stroke-linecap:butt;stroke-linejoin:miter;stroke-opacity:1" d="M 238.189,544.436 226.179,548.039 z" id="boundary" inkscape:connector-curvature="0" />
	<path style="fill:none;stroke:red;stroke-width:1px;stroke-linecap:butt;stroke-linejoin:miter;stroke-opacity:1" d="M 255.002,581.666 242.993,585.269 z" id="boundary" inkscape:connector-curvature="0" />
	<path style="fill:none;stroke:red;stroke-width:1px;stroke-linecap:butt;stroke-linejoin:miter;stroke-opacity:1" d="M 265.811,575.661 255.002,581.666 z" id="boundary" inkscape:connector-curvature="0" />
	<path style="fill:none;stroke:red;stroke-width:1px;stroke-linecap:butt;stroke-linejoin:miter;stroke-opacity:1" d="M 277.821,580.465 286.228,590.073 z" id="boundary" inkscape:connector-curvature="0" />
	<path style="fill:none;stroke:red;stroke-width:1px;stroke-linecap:butt;stroke-linejoin:miter;stroke-opacity:1" d="M 265.811,575.661 277.821,580.465 z" id="boundary" inkscape:connector-curvature="0" />
	<path style="fill:none;stroke:red;stroke-width:1px;stroke-linecap:butt;stroke-linejoin:miter;stroke-opacity:1" d="M 286.228,590.073 292.232,600.881 z" id="boundary" inkscape:connector-curvature="0" />
	<path style="fill:none;stroke:red;stroke-width:1px;stroke-linecap:butt;stroke-linejoin:miter;stroke-opacity:1" d="M 298.237,611.69 301.84,623.7 z" id="boundary" inkscape:connector-curvature="0" />
	<path style="fill:none;stroke:red;stroke-width:1px;stroke-linecap:butt;stroke-linejoin:miter;stroke-opacity:1" d="M 307.845,634.508 301.84,623.7 z" id="boundary" inkscape:connector-curvature="0" />
	<path style="fill:none;stroke:red;stroke-width:1px;stroke-linecap:butt;stroke-linejoin:miter;stroke-opacity:1" d="M 292.232,600.881 298.237,611.69 z" id="boundary" inkscape:connector-curvature="0" />
	<path style="fill:none;stroke:red;stroke-width:1px;stroke-linecap:butt;stroke-linejoin:miter;stroke-opacity:1" d="M 322.257,653.724 312.649,646.518 z" id="boundary" inkscape:connector-curvature="0" />
	<path style="fill:none;stroke:red;stroke-width:1px;stroke-linecap:butt;stroke-linejoin:miter;stroke-opacity:1" d="M 312.649,646.518 307.845,634.508 z" id="boundary" inkscape:connector-curvature="0" />
	<path style="fill:none;stroke:red;stroke-width:1px;stroke-linecap:butt;stroke-linejoin:miter;stroke-opacity:1" d="M 322.257,653.724 328.262,664.533 z" id="boundary" inkscape:connector-curvature="0" />
	<path style="fill:none;stroke:red;stroke-width:1px;stroke-linecap:butt;stroke-linejoin:miter;stroke-opacity:1" d="M 318.654,851.884 312.649,862.692 z" id="boundary" inkscape:connector-curvature="0" />
	<path style="fill:none;stroke:red;stroke-width:1px;stroke-linecap:butt;stroke-linejoin:miter;stroke-opacity:1" d="M 312.649,862.692 301.84,868.697 z" id="boundary" inkscape:connector-curvature="0" />
	<path style="fill:none;stroke:red;stroke-width:1px;stroke-linecap:butt;stroke-linejoin:miter;stroke-opacity:1" d="M 301.84,868.697 292.232,878.305 z" id="boundary" inkscape:connector-curvature="0" />
	<path style="fill:none;stroke:red;stroke-width:1px;stroke-linecap:butt;stroke-linejoin:miter;stroke-opacity:1" d="M 328.262,836.271 318.654,851.884 z" id="boundary" inkscape:connector-curvature="0" />
	<path style="fill:none;stroke:red;stroke-width:1px;stroke-linecap:butt;stroke-linejoin:miter;stroke-opacity:1" d="M 334.266,824.262 328.262,836.271 z" id="boundary" inkscape:connector-curvature="0" />
	<path style="fill:none;stroke:red;stroke-width:1px;stroke-linecap:butt;stroke-linejoin:miter;stroke-opacity:1" d="M 352.281,899.923 340.271,902.324 z" id="boundary" inkscape:connector-curvature="0" />
	<path style="fill:none;stroke:red;stroke-width:1px;stroke-linecap:butt;stroke-linejoin:miter;stroke-opacity:1" d="M 293.433,899.923 286.228,890.315 z" id="boundary" inkscape:connector-curvature="0" />
	<path style="fill:none;stroke:red;stroke-width:1px;stroke-linecap:butt;stroke-linejoin:miter;stroke-opacity:1" d="M 305.443,893.918 293.433,899.923 z" id="boundary" inkscape:connector-curvature="0" />
	<path style="fill:none;stroke:red;stroke-width:1px;stroke-linecap:butt;stroke-linejoin:miter;stroke-opacity:1" d="M 292.232,878.305 286.228,890.315 z" id="boundary" inkscape:connector-curvature="0" />
	<path style="fill:none;stroke:red;stroke-width:1px;stroke-linecap:butt;stroke-linejoin:miter;stroke-opacity:1" d="M 317.453,887.913 322.257,899.923 z" id="boundary" inkscape:connector-curvature="0" />
	<path style="fill:none;stroke:red;stroke-width:1px;stroke-linecap:butt;stroke-linejoin:miter;stroke-opacity:1" d="M 322.257,899.923 329.462,909.53 z" id="boundary" inkscape:connector-curvature="0" />
	<path style="fill:none;stroke:red;stroke-width:1px;stroke-linecap:butt;stroke-linejoin:miter;stroke-opacity:1" d="M 337.869,671.738 346.276,681.346 z" id="boundary" inkscape:connector-curvature="0" />
	<path style="fill:none;stroke:red;stroke-width:1px;stroke-linecap:butt;stroke-linejoin:miter;stroke-opacity:1" d="M 346.276,681.346 346.276,693.356 z" id="boundary" inkscape:connector-curvature="0" />
	<path style="fill:none;stroke:red;stroke-width:1px;stroke-linecap:butt;stroke-linejoin:miter;stroke-opacity:1" d="M 346.276,693.356 346.276,705.366 z" id="boundary" inkscape:connector-curvature="0" />
	<path style="fill:none;stroke:red;stroke-width:1px;stroke-linecap:butt;stroke-linejoin:miter;stroke-opacity:1" d="M 346.276,705.366 346.276,717.375 z" id="boundary" inkscape:connector-curvature="0" />
	<path style="fill:none;stroke:red;stroke-width:1px;stroke-linecap:butt;stroke-linejoin:miter;stroke-opacity:1" d="M 352.281,728.184 346.276,717.375 z" id="boundary" inkscape:connector-curvature="0" />
	<path style="fill:none;stroke:red;stroke-width:1px;stroke-linecap:butt;stroke-linejoin:miter;stroke-opacity:1" d="M 340.271,902.324 329.462,909.53 z" id="boundary" inkscape:connector-curvature="0" />
	<path style="fill:none;stroke:red;stroke-width:1px;stroke-linecap:butt;stroke-linejoin:miter;stroke-opacity:1" d="M 346.276,800.242 343.874,814.654 z" id="boundary" inkscape:connector-curvature="0" />
	<path style="fill:none;stroke:red;stroke-width:1px;stroke-linecap:butt;stroke-linejoin:miter;stroke-opacity:1" d="M 343.874,814.654 334.266,824.262 z" id="boundary" inkscape:connector-curvature="0" />
	<path style="fill:none;stroke:red;stroke-width:1px;stroke-linecap:butt;stroke-linejoin:miter;stroke-opacity:1" d="M 346.276,788.232 346.276,800.242 z" id="boundary" inkscape:connector-curvature="0" />
	<path style="fill:none;stroke:red;stroke-width:1px;stroke-linecap:butt;stroke-linejoin:miter;stroke-opacity:1" d="M 346.276,776.223 346.276,788.232 z" id="boundary" inkscape:connector-curvature="0" />
	<path style="fill:none;stroke:red;stroke-width:1px;stroke-linecap:butt;stroke-linejoin:miter;stroke-opacity:1" d="M 346.276,776.223 352.281,764.213 z" id="boundary" inkscape:connector-curvature="0" />
	<path style="fill:none;stroke:red;stroke-width:1px;stroke-linecap:butt;stroke-linejoin:miter;stroke-opacity:1" d="M 328.262,664.533 337.869,671.738 z" id="boundary" inkscape:connector-curvature="0" />
	<path style="fill:none;stroke:red;stroke-width:1px;stroke-linecap:butt;stroke-linejoin:miter;stroke-opacity:1" d="M 349.879,310.247 360.688,316.252 z" id="boundary" inkscape:connector-curvature="0" />
	<path style="fill:none;stroke:red;stroke-width:1px;stroke-linecap:butt;stroke-linejoin:miter;stroke-opacity:1" d="M 360.688,316.252 372.697,316.252 z" id="boundary" inkscape:connector-curvature="0" />
	<path style="fill:none;stroke:red;stroke-width:1px;stroke-linecap:butt;stroke-linejoin:miter;stroke-opacity:1" d="M 384.707,316.252 396.717,316.252 z" id="boundary" inkscape:connector-curvature="0" />
	<path style="fill:none;stroke:red;stroke-width:1px;stroke-linecap:butt;stroke-linejoin:miter;stroke-opacity:1" d="M 396.717,316.252 407.525,322.257 z" id="boundary" inkscape:connector-curvature="0" />
	<path style="fill:none;stroke:red;stroke-width:1px;stroke-linecap:butt;stroke-linejoin:miter;stroke-opacity:1" d="M 419.535,325.86 407.525,322.257 z" id="boundary" inkscape:connector-curvature="0" />
	<path style="fill:none;stroke:red;stroke-width:1px;stroke-linecap:butt;stroke-linejoin:miter;stroke-opacity:1" d="M 372.697,316.252 384.707,316.252 z" id="boundary" inkscape:connector-curvature="0" />
	<path style="fill:none;stroke:red;stroke-width:1px;stroke-linecap:butt;stroke-linejoin:miter;stroke-opacity:1" d="M 419.535,325.86 431.545,328.262 z" id="boundary" inkscape:connector-curvature="0" />
	<path style="fill:none;stroke:red;stroke-width:1px;stroke-linecap:butt;stroke-linejoin:miter;stroke-opacity:1" d="M 431.545,328.262 442.354,334.266 z" id="boundary" inkscape:connector-curvature="0" />
	<path style="fill:none;stroke:red;stroke-width:1px;stroke-linecap:butt;stroke-linejoin:miter;stroke-opacity:1" d="M 454.363,336.668 442.354,334.266 z" id="boundary" inkscape:connector-curvature="0" />
	<path style="fill:none;stroke:red;stroke-width:1px;stroke-linecap:butt;stroke-linejoin:miter;stroke-opacity:1" d="M 477.182,347.477 465.172,342.673 z" id="boundary" inkscape:connector-curvature="0" />
	<path style="fill:none;stroke:red;stroke-width:1px;stroke-linecap:butt;stroke-linejoin:miter;stroke-opacity:1" d="M 465.172,342.673 454.363,336.668 z" id="boundary" inkscape:connector-curvature="0" />
	<path style="fill:none;stroke:red;stroke-width:1px;stroke-linecap:butt;stroke-linejoin:miter;stroke-opacity:1" d="M 477.182,347.477 485.588,357.085 z" id="boundary" inkscape:connector-curvature="0" />
	<path style="fill:none;stroke:red;stroke-width:1px;stroke-linecap:butt;stroke-linejoin:miter;stroke-opacity:1" d="M 506.005,371.496 495.196,365.492 z" id="boundary" inkscape:connector-curvature="0" />
	<path style="fill:none;stroke:red;stroke-width:1px;stroke-linecap:butt;stroke-linejoin:miter;stroke-opacity:1" d="M 495.196,365.492 485.588,357.085 z" id="boundary" inkscape:connector-curvature="0" />
	<path style="fill:none;stroke:red;stroke-width:1px;stroke-linecap:butt;stroke-linejoin:miter;stroke-opacity:1" d="M 506.005,371.496 515.613,379.903 z" id="boundary" inkscape:connector-curvature="0" />
	<path style="fill:none;stroke:red;stroke-width:1px;stroke-linecap:butt;stroke-linejoin:miter;stroke-opacity:1" d="M 515.613,379.903 526.421,385.908 z" id="boundary" inkscape:connector-curvature="0" />
	<path style="fill:none;stroke:red;stroke-width:1px;stroke-linecap:butt;stroke-linejoin:miter;stroke-opacity:1" d="M 526.421,385.908 532.426,396.717 z" id="boundary" inkscape:connector-curvature="0" />
	<path style="fill:none;stroke:red;stroke-width:1px;stroke-linecap:butt;stroke-linejoin:miter;stroke-opacity:1" d="M 532.426,396.717 539.632,406.324 z" id="boundary" inkscape:connector-curvature="0" />
	<path style="fill:none;stroke:red;stroke-width:1px;stroke-linecap:butt;stroke-linejoin:miter;stroke-opacity:1" d="M 549.24,413.53 539.632,406.324 z" id="boundary" inkscape:connector-curvature="0" />
	<path style="fill:none;stroke:red;stroke-width:1px;stroke-linecap:butt;stroke-linejoin:miter;stroke-opacity:1" d="M 560.048,419.535 549.24,413.53 z" id="boundary" inkscape:connector-curvature="0" />
	<path style="fill:none;stroke:red;stroke-width:1px;stroke-linecap:butt;stroke-linejoin:miter;stroke-opacity:1" d="M 560.048,419.535 566.053,430.344 z" id="boundary" inkscape:connector-curvature="0" />
	<path style="fill:none;stroke:red;stroke-width:1px;stroke-linecap:butt;stroke-linejoin:miter;stroke-opacity:1" d="M 574.46,439.952 566.053,430.344 z" id="boundary" inkscape:connector-curvature="0" />
	<path style="fill:none;stroke:red;stroke-width:1px;stroke-linecap:butt;stroke-linejoin:miter;stroke-opacity:1" d="M 584.068,448.358 574.46,439.952 z" id="boundary" inkscape:connector-curvature="0" />
	<path style="fill:none;stroke:red;stroke-width:1px;stroke-linecap:butt;stroke-linejoin:miter;stroke-opacity:1" d="M 593.676,455.564 584.068,448.358 z" id="boundary" inkscape:connector-curvature="0" />
	<path style="fill:none;stroke:red;stroke-width:1px;stroke-linecap:butt;stroke-linejoin:miter;stroke-opacity:1" d="M 352.281,728.184 352.281,740.194 z" id="boundary" inkscape:connector-curvature="0" />
	<path style="fill:none;stroke:red;stroke-width:1px;stroke-linecap:butt;stroke-linejoin:miter;stroke-opacity:1" d="M 352.281,764.213 352.281,752.203 z" id="boundary" inkscape:connector-curvature="0" />
	<path style="fill:none;stroke:red;stroke-width:1px;stroke-linecap:butt;stroke-linejoin:miter;stroke-opacity:1" d="M 352.281,752.203 352.281,740.194 z" id="boundary" inkscape:connector-curvature="0" />
	<path style="fill:none;stroke:red;stroke-width:1px;stroke-linecap:butt;stroke-linejoin:miter;stroke-opacity:1" d="M 424.339,761.811 413.53,767.816 z" id="boundary" inkscape:connector-curvature="0" />
	<path style="fill:none;stroke:red;stroke-width:1px;stroke-linecap:butt;stroke-linejoin:miter;stroke-opacity:1" d="M 401.521,809.85 401.521,797.84 z" id="boundary" inkscape:connector-curvature="0" />
	<path style="fill:none;stroke:red;stroke-width:1px;stroke-linecap:butt;stroke-linejoin:miter;stroke-opacity:1" d="M 407.525,785.831 401.521,797.84 z" id="boundary" inkscape:connector-curvature="0" />
	<path style="fill:none;stroke:red;stroke-width:1px;stroke-linecap:butt;stroke-linejoin:miter;stroke-opacity:1" d="M 430.344,772.62 437.55,782.228 z" id="boundary" inkscape:connector-curvature="0" />
	<path style="fill:none;stroke:red;stroke-width:1px;stroke-linecap:butt;stroke-linejoin:miter;stroke-opacity:1" d="M 424.339,761.811 430.344,772.62 z" id="boundary" inkscape:connector-curvature="0" />
	<path style="fill:none;stroke:red;stroke-width:1px;stroke-linecap:butt;stroke-linejoin:miter;stroke-opacity:1" d="M 407.525,785.831 413.53,767.816 z" id="boundary" inkscape:connector-curvature="0" />
	<path style="fill:none;stroke:red;stroke-width:1px;stroke-linecap:butt;stroke-linejoin:miter;stroke-opacity:1" d="M 437.55,782.228 442.354,794.237 z" id="boundary" inkscape:connector-curvature="0" />
	<path style="fill:none;stroke:red;stroke-width:1px;stroke-linecap:butt;stroke-linejoin:miter;stroke-opacity:1" d="M 605.685,477.182 611.69,487.99 z" id="boundary" inkscape:connector-curvature="0" />
	<path style="fill:none;stroke:red;stroke-width:1px;stroke-linecap:butt;stroke-linejoin:miter;stroke-opacity:1" d="M 599.68,466.373 605.685,477.182 z" id="boundary" inkscape:connector-curvature="0" />
	<path style="fill:none;stroke:red;stroke-width:1px;stroke-linecap:butt;stroke-linejoin:miter;stroke-opacity:1" d="M 599.68,466.373 593.676,455.564 z" id="boundary" inkscape:connector-curvature="0" />
	<path style="fill:none;stroke:red;stroke-width:1px;stroke-linecap:butt;stroke-linejoin:miter;stroke-opacity:1" d="M 622.499,493.995 611.69,487.99 z" id="boundary" inkscape:connector-curvature="0" />
	<path style="fill:none;stroke:red;stroke-width:1px;stroke-linecap:butt;stroke-linejoin:miter;stroke-opacity:1" d="M 509.608,797.84 509.608,809.85 z" id="boundary" inkscape:connector-curvature="0" />
	<path style="fill:none;stroke:red;stroke-width:1px;stroke-linecap:butt;stroke-linejoin:miter;stroke-opacity:1" d="M 442.354,806.247 442.354,794.237 z" id="boundary" inkscape:connector-curvature="0" />
	<path style="fill:none;stroke:red;stroke-width:1px;stroke-linecap:butt;stroke-linejoin:miter;stroke-opacity:1" d="M 509.608,797.84 521.617,797.84 z" id="boundary" inkscape:connector-curvature="0" />
	<path style="fill:none;stroke:red;stroke-width:1px;stroke-linecap:butt;stroke-linejoin:miter;stroke-opacity:1" d="M 407.525,820.659 401.521,809.85 z" id="boundary" inkscape:connector-curvature="0" />
	<path style="fill:none;stroke:red;stroke-width:1px;stroke-linecap:butt;stroke-linejoin:miter;stroke-opacity:1" d="M 521.617,797.84 532.426,803.845 z" id="boundary" inkscape:connector-curvature="0" />
	<path style="fill:none;stroke:red;stroke-width:1px;stroke-linecap:butt;stroke-linejoin:miter;stroke-opacity:1" d="M 543.235,809.85 532.426,803.845 z" id="boundary" inkscape:connector-curvature="0" />
	<path style="fill:none;stroke:red;stroke-width:1px;stroke-linecap:butt;stroke-linejoin:miter;stroke-opacity:1" d="M 509.608,821.86 509.608,809.85 z" id="boundary" inkscape:connector-curvature="0" />
	<path style="fill:none;stroke:red;stroke-width:1px;stroke-linecap:butt;stroke-linejoin:miter;stroke-opacity:1" d="M 622.499,493.995 629.705,503.603 z" id="boundary" inkscape:connector-curvature="0" />
	<path style="fill:none;stroke:red;stroke-width:1px;stroke-linecap:butt;stroke-linejoin:miter;stroke-opacity:1" d="M 629.705,503.603 635.709,514.412 z" id="boundary" inkscape:connector-curvature="0" />
	<path style="fill:none;stroke:red;stroke-width:1px;stroke-linecap:butt;stroke-linejoin:miter;stroke-opacity:1" d="M 635.709,514.412 635.709,526.421 z" id="boundary" inkscape:connector-curvature="0" />
	<path style="fill:none;stroke:red;stroke-width:1px;stroke-linecap:butt;stroke-linejoin:miter;stroke-opacity:1" d="M 635.709,526.421 645.317,533.627 z" id="boundary" inkscape:connector-curvature="0" />
	<path style="fill:none;stroke:red;stroke-width:1px;stroke-linecap:butt;stroke-linejoin:miter;stroke-opacity:1" d="M 645.317,533.627 650.121,545.637 z" id="boundary" inkscape:connector-curvature="0" />
	<path style="fill:none;stroke:red;stroke-width:1px;stroke-linecap:butt;stroke-linejoin:miter;stroke-opacity:1" d="M 656.126,556.446 650.121,545.637 z" id="boundary" inkscape:connector-curvature="0" />
	<path style="fill:none;stroke:red;stroke-width:1px;stroke-linecap:butt;stroke-linejoin:miter;stroke-opacity:1" d="M 665.734,579.264 659.729,568.455 z" id="boundary" inkscape:connector-curvature="0" />
	<path style="fill:none;stroke:red;stroke-width:1px;stroke-linecap:butt;stroke-linejoin:miter;stroke-opacity:1" d="M 659.729,568.455 656.126,556.446 z" id="boundary" inkscape:connector-curvature="0" />
	<path style="fill:none;stroke:red;stroke-width:1px;stroke-linecap:butt;stroke-linejoin:miter;stroke-opacity:1" d="M 671.738,590.073 665.734,579.264 z" id="boundary" inkscape:connector-curvature="0" />
	<path style="fill:none;stroke:red;stroke-width:1px;stroke-linecap:butt;stroke-linejoin:miter;stroke-opacity:1" d="M 671.738,590.073 676.542,602.082 z" id="boundary" inkscape:connector-curvature="0" />
	<path style="fill:none;stroke:red;stroke-width:1px;stroke-linecap:butt;stroke-linejoin:miter;stroke-opacity:1" d="M 676.542,602.082 677.743,614.092 z" id="boundary" inkscape:connector-curvature="0" />
	<path style="fill:none;stroke:red;stroke-width:1px;stroke-linecap:butt;stroke-linejoin:miter;stroke-opacity:1" d="M 677.743,614.092 677.743,626.102 z" id="boundary" inkscape:connector-curvature="0" />
	<path style="fill:none;stroke:red;stroke-width:1px;stroke-linecap:butt;stroke-linejoin:miter;stroke-opacity:1" d="M 683.748,636.91 677.743,626.102 z" id="boundary" inkscape:connector-curvature="0" />
	<path style="fill:none;stroke:red;stroke-width:1px;stroke-linecap:butt;stroke-linejoin:miter;stroke-opacity:1" d="M 689.753,647.719 683.748,636.91 z" id="boundary" inkscape:connector-curvature="0" />
	<path style="fill:none;stroke:red;stroke-width:1px;stroke-linecap:butt;stroke-linejoin:miter;stroke-opacity:1" d="M 701.763,681.346 695.758,670.538 z" id="boundary" inkscape:connector-curvature="0" />
	<path style="fill:none;stroke:red;stroke-width:1px;stroke-linecap:butt;stroke-linejoin:miter;stroke-opacity:1" d="M 695.758,670.538 695.758,658.528 z" id="boundary" inkscape:connector-curvature="0" />
	<path style="fill:none;stroke:red;stroke-width:1px;stroke-linecap:butt;stroke-linejoin:miter;stroke-opacity:1" d="M 707.768,692.155 701.763,681.346 z" id="boundary" inkscape:connector-curvature="0" />
	<path style="fill:none;stroke:red;stroke-width:1px;stroke-linecap:butt;stroke-linejoin:miter;stroke-opacity:1" d="M 689.753,647.719 695.758,658.528 z" id="boundary" inkscape:connector-curvature="0" />
	<path style="fill:none;stroke:red;stroke-width:1px;stroke-linecap:butt;stroke-linejoin:miter;stroke-opacity:1" d="M 719.777,713.772 712.571,704.165 z" id="boundary" inkscape:connector-curvature="0" />
	<path style="fill:none;stroke:red;stroke-width:1px;stroke-linecap:butt;stroke-linejoin:miter;stroke-opacity:1" d="M 712.571,704.165 707.768,692.155 z" id="boundary" inkscape:connector-curvature="0" />
	<path style="fill:none;stroke:red;stroke-width:1px;stroke-linecap:butt;stroke-linejoin:miter;stroke-opacity:1" d="M 719.777,713.772 725.782,724.581 z" id="boundary" inkscape:connector-curvature="0" />
	<path style="fill:none;stroke:red;stroke-width:1px;stroke-linecap:butt;stroke-linejoin:miter;stroke-opacity:1" d="M 735.39,731.787 725.782,724.581 z" id="boundary" inkscape:connector-curvature="0" />
	<path style="fill:none;stroke:red;stroke-width:1px;stroke-linecap:butt;stroke-linejoin:miter;stroke-opacity:1" d="M 977.985,738.993 968.378,748.6 z" id="boundary" inkscape:connector-curvature="0" />
	<path style="fill:none;stroke:red;stroke-width:1px;stroke-linecap:butt;stroke-linejoin:miter;stroke-opacity:1" d="M 735.39,731.787 740.194,743.797 z" id="boundary" inkscape:connector-curvature="0" />
	<path style="fill:none;stroke:red;stroke-width:1px;stroke-linecap:butt;stroke-linejoin:miter;stroke-opacity:1" d="M 754.605,764.213 746.199,754.605 z" id="boundary" inkscape:connector-curvature="0" />
	<path style="fill:none;stroke:red;stroke-width:1px;stroke-linecap:butt;stroke-linejoin:miter;stroke-opacity:1" d="M 746.199,754.605 740.194,743.797 z" id="boundary" inkscape:connector-curvature="0" />
	<path style="fill:none;stroke:red;stroke-width:1px;stroke-linecap:butt;stroke-linejoin:miter;stroke-opacity:1" d="M 764.213,772.62 754.605,764.213 z" id="boundary" inkscape:connector-curvature="0" />
	<path style="fill:none;stroke:red;stroke-width:1px;stroke-linecap:butt;stroke-linejoin:miter;stroke-opacity:1" d="M 764.213,772.62 772.62,782.228 z" id="boundary" inkscape:connector-curvature="0" />
	<path style="fill:none;stroke:red;stroke-width:1px;stroke-linecap:butt;stroke-linejoin:miter;stroke-opacity:1" d="M 779.826,791.835 772.62,782.228 z" id="boundary" inkscape:connector-curvature="0" />
	<path style="fill:none;stroke:red;stroke-width:1px;stroke-linecap:butt;stroke-linejoin:miter;stroke-opacity:1" d="M 785.831,802.644 797.84,802.644 z" id="boundary" inkscape:connector-curvature="0" />
	<path style="fill:none;stroke:red;stroke-width:1px;stroke-linecap:butt;stroke-linejoin:miter;stroke-opacity:1" d="M 797.84,802.644 809.85,806.247 z" id="boundary" inkscape:connector-curvature="0" />
	<path style="fill:none;stroke:red;stroke-width:1px;stroke-linecap:butt;stroke-linejoin:miter;stroke-opacity:1" d="M 785.831,802.644 779.826,791.835 z" id="boundary" inkscape:connector-curvature="0" />
	<path style="fill:none;stroke:red;stroke-width:1px;stroke-linecap:butt;stroke-linejoin:miter;stroke-opacity:1" d="M 956.368,772.62 950.363,784.63 z" id="boundary" inkscape:connector-curvature="0" />
	<path style="fill:none;stroke:red;stroke-width:1px;stroke-linecap:butt;stroke-linejoin:miter;stroke-opacity:1" d="M 821.86,808.649 809.85,806.247 z" id="boundary" inkscape:connector-curvature="0" />
	<path style="fill:none;stroke:red;stroke-width:1px;stroke-linecap:butt;stroke-linejoin:miter;stroke-opacity:1" d="M 821.86,808.649 831.467,815.855 z" id="boundary" inkscape:connector-curvature="0" />
	<path style="fill:none;stroke:red;stroke-width:1px;stroke-linecap:butt;stroke-linejoin:miter;stroke-opacity:1" d="M 956.368,772.62 962.373,760.61 z" id="boundary" inkscape:connector-curvature="0" />
	<path style="fill:none;stroke:red;stroke-width:1px;stroke-linecap:butt;stroke-linejoin:miter;stroke-opacity:1" d="M 968.378,748.6 962.373,760.61 z" id="boundary" inkscape:connector-curvature="0" />
	<path style="fill:none;stroke:red;stroke-width:1px;stroke-linecap:butt;stroke-linejoin:miter;stroke-opacity:1" d="M 996,753.404 996,765.414 z" id="boundary" inkscape:connector-curvature="0" />
	<path style="fill:none;stroke:red;stroke-width:1px;stroke-linecap:butt;stroke-linejoin:miter;stroke-opacity:1" d="M 989.995,742.596 996,753.404 z" id="boundary" inkscape:connector-curvature="0" />
	<path style="fill:none;stroke:red;stroke-width:1px;stroke-linecap:butt;stroke-linejoin:miter;stroke-opacity:1" d="M 996,765.414 996,777.424 z" id="boundary" inkscape:connector-curvature="0" />
	<path style="fill:none;stroke:red;stroke-width:1px;stroke-linecap:butt;stroke-linejoin:miter;stroke-opacity:1" d="M 938.354,808.649 944.358,796.639 z" id="boundary" inkscape:connector-curvature="0" />
	<path style="fill:none;stroke:red;stroke-width:1px;stroke-linecap:butt;stroke-linejoin:miter;stroke-opacity:1" d="M 938.354,808.649 926.344,814.654 z" id="boundary" inkscape:connector-curvature="0" />
	<path style="fill:none;stroke:red;stroke-width:1px;stroke-linecap:butt;stroke-linejoin:miter;stroke-opacity:1" d="M 950.363,784.63 944.358,796.639 z" id="boundary" inkscape:connector-curvature="0" />
	<path style="fill:none;stroke:red;stroke-width:1px;stroke-linecap:butt;stroke-linejoin:miter;stroke-opacity:1" d="M 996,789.433 996,801.443 z" id="boundary" inkscape:connector-curvature="0" />
	<path style="fill:none;stroke:red;stroke-width:1px;stroke-linecap:butt;stroke-linejoin:miter;stroke-opacity:1" d="M 996,777.424 996,789.433 z" id="boundary" inkscape:connector-curvature="0" />
	<path style="fill:none;stroke:red;stroke-width:1px;stroke-linecap:butt;stroke-linejoin:miter;stroke-opacity:1" d="M 977.985,738.993 989.995,742.596 z" id="boundary" inkscape:connector-curvature="0" />
	<path style="fill:none;stroke:red;stroke-width:1px;stroke-linecap:butt;stroke-linejoin:miter;stroke-opacity:1" d="M 996,801.443 989.995,815.855 z" id="boundary" inkscape:connector-curvature="0" />
	<path style="fill:none;stroke:red;stroke-width:1px;stroke-linecap:butt;stroke-linejoin:miter;stroke-opacity:1" d="M 407.525,832.668 407.525,844.678 z" id="boundary" inkscape:connector-curvature="0" />
	<path style="fill:none;stroke:red;stroke-width:1px;stroke-linecap:butt;stroke-linejoin:miter;stroke-opacity:1" d="M 413.53,855.487 407.525,844.678 z" id="boundary" inkscape:connector-curvature="0" />
	<path style="fill:none;stroke:red;stroke-width:1px;stroke-linecap:butt;stroke-linejoin:miter;stroke-opacity:1" d="M 437.55,853.085 431.545,865.094 z" id="boundary" inkscape:connector-curvature="0" />
	<path style="fill:none;stroke:red;stroke-width:1px;stroke-linecap:butt;stroke-linejoin:miter;stroke-opacity:1" d="M 407.525,832.668 407.525,820.659 z" id="boundary" inkscape:connector-curvature="0" />
	<path style="fill:none;stroke:red;stroke-width:1px;stroke-linecap:butt;stroke-linejoin:miter;stroke-opacity:1" d="M 395.516,869.898 383.506,875.903 z" id="boundary" inkscape:connector-curvature="0" />
	<path style="fill:none;stroke:red;stroke-width:1px;stroke-linecap:butt;stroke-linejoin:miter;stroke-opacity:1" d="M 425.54,877.104 419.535,889.114 z" id="boundary" inkscape:connector-curvature="0" />
	<path style="fill:none;stroke:red;stroke-width:1px;stroke-linecap:butt;stroke-linejoin:miter;stroke-opacity:1" d="M 431.545,865.094 425.54,877.104 z" id="boundary" inkscape:connector-curvature="0" />
	<path style="fill:none;stroke:red;stroke-width:1px;stroke-linecap:butt;stroke-linejoin:miter;stroke-opacity:1" d="M 395.516,869.898 407.525,869.898 z" id="boundary" inkscape:connector-curvature="0" />
	<path style="fill:none;stroke:red;stroke-width:1px;stroke-linecap:butt;stroke-linejoin:miter;stroke-opacity:1" d="M 419.535,889.114 409.927,898.722 z" id="boundary" inkscape:connector-curvature="0" />
	<path style="fill:none;stroke:red;stroke-width:1px;stroke-linecap:butt;stroke-linejoin:miter;stroke-opacity:1" d="M 442.354,824.262 442.354,806.247 z" id="boundary" inkscape:connector-curvature="0" />
	<path style="fill:none;stroke:red;stroke-width:1px;stroke-linecap:butt;stroke-linejoin:miter;stroke-opacity:1" d="M 503.603,833.869 509.608,821.86 z" id="boundary" inkscape:connector-curvature="0" />
	<path style="fill:none;stroke:red;stroke-width:1px;stroke-linecap:butt;stroke-linejoin:miter;stroke-opacity:1" d="M 442.354,836.271 442.354,824.262 z" id="boundary" inkscape:connector-curvature="0" />
	<path style="fill:none;stroke:red;stroke-width:1px;stroke-linecap:butt;stroke-linejoin:miter;stroke-opacity:1" d="M 551.642,819.458 563.651,824.262 z" id="boundary" inkscape:connector-curvature="0" />
	<path style="fill:none;stroke:red;stroke-width:1px;stroke-linecap:butt;stroke-linejoin:miter;stroke-opacity:1" d="M 563.651,824.262 572.058,833.869 z" id="boundary" inkscape:connector-curvature="0" />
	<path style="fill:none;stroke:red;stroke-width:1px;stroke-linecap:butt;stroke-linejoin:miter;stroke-opacity:1" d="M 551.642,819.458 543.235,809.85 z" id="boundary" inkscape:connector-curvature="0" />
	<path style="fill:none;stroke:red;stroke-width:1px;stroke-linecap:butt;stroke-linejoin:miter;stroke-opacity:1" d="M 584.068,838.673 572.058,833.869 z" id="boundary" inkscape:connector-curvature="0" />
	<path style="fill:none;stroke:red;stroke-width:1px;stroke-linecap:butt;stroke-linejoin:miter;stroke-opacity:1" d="M 437.55,853.085 442.354,836.271 z" id="boundary" inkscape:connector-curvature="0" />
	<path style="fill:none;stroke:red;stroke-width:1px;stroke-linecap:butt;stroke-linejoin:miter;stroke-opacity:1" d="M 503.603,833.869 503.603,845.879 z" id="boundary" inkscape:connector-curvature="0" />
	<path style="fill:none;stroke:red;stroke-width:1px;stroke-linecap:butt;stroke-linejoin:miter;stroke-opacity:1" d="M 509.608,856.688 509.608,868.697 z" id="boundary" inkscape:connector-curvature="0" />
	<path style="fill:none;stroke:red;stroke-width:1px;stroke-linecap:butt;stroke-linejoin:miter;stroke-opacity:1" d="M 503.603,845.879 509.608,856.688 z" id="boundary" inkscape:connector-curvature="0" />
	<path style="fill:none;stroke:red;stroke-width:1px;stroke-linecap:butt;stroke-linejoin:miter;stroke-opacity:1" d="M 509.608,880.707 509.608,868.697 z" id="boundary" inkscape:connector-curvature="0" />
	<path style="fill:none;stroke:red;stroke-width:1px;stroke-linecap:butt;stroke-linejoin:miter;stroke-opacity:1" d="M 509.608,899.923 509.608,880.707 z" id="boundary" inkscape:connector-curvature="0" />
	<path style="fill:none;stroke:red;stroke-width:1px;stroke-linecap:butt;stroke-linejoin:miter;stroke-opacity:1" d="M 352.281,899.923 359.487,909.53 z" id="boundary" inkscape:connector-curvature="0" />
	<path style="fill:none;stroke:red;stroke-width:1px;stroke-linecap:butt;stroke-linejoin:miter;stroke-opacity:1" d="M 371.496,905.927 359.487,909.53 z" id="boundary" inkscape:connector-curvature="0" />
	<path style="fill:none;stroke:red;stroke-width:1px;stroke-linecap:butt;stroke-linejoin:miter;stroke-opacity:1" d="M 400.32,908.329 388.31,914.334 z" id="boundary" inkscape:connector-curvature="0" />
	<path style="fill:none;stroke:red;stroke-width:1px;stroke-linecap:butt;stroke-linejoin:miter;stroke-opacity:1" d="M 381.104,897.521 371.496,905.927 z" id="boundary" inkscape:connector-curvature="0" />
	<path style="fill:none;stroke:red;stroke-width:1px;stroke-linecap:butt;stroke-linejoin:miter;stroke-opacity:1" d="M 418.334,944.358 406.324,941.956 z" id="boundary" inkscape:connector-curvature="0" />
	<path style="fill:none;stroke:red;stroke-width:1px;stroke-linecap:butt;stroke-linejoin:miter;stroke-opacity:1" d="M 409.927,898.722 400.32,908.329 z" id="boundary" inkscape:connector-curvature="0" />
	<path style="fill:none;stroke:red;stroke-width:1px;stroke-linecap:butt;stroke-linejoin:miter;stroke-opacity:1" d="M 382.305,938.354 382.305,926.344 z" id="boundary" inkscape:connector-curvature="0" />
	<path style="fill:none;stroke:red;stroke-width:1px;stroke-linecap:butt;stroke-linejoin:miter;stroke-opacity:1" d="M 394.315,938.354 382.305,938.354 z" id="boundary" inkscape:connector-curvature="0" />
	<path style="fill:none;stroke:red;stroke-width:1px;stroke-linecap:butt;stroke-linejoin:miter;stroke-opacity:1" d="M 388.31,914.334 382.305,926.344 z" id="boundary" inkscape:connector-curvature="0" />
	<path style="fill:none;stroke:red;stroke-width:1px;stroke-linecap:butt;stroke-linejoin:miter;stroke-opacity:1" d="M 394.315,938.354 406.324,941.956 z" id="boundary" inkscape:connector-curvature="0" />
	<path style="fill:none;stroke:red;stroke-width:1px;stroke-linecap:butt;stroke-linejoin:miter;stroke-opacity:1" d="M 479.584,905.927 479.584,917.937 z" id="boundary" inkscape:connector-curvature="0" />
	<path style="fill:none;stroke:red;stroke-width:1px;stroke-linecap:butt;stroke-linejoin:miter;stroke-opacity:1" d="M 479.584,917.937 472.378,935.952 z" id="boundary" inkscape:connector-curvature="0" />
	<path style="fill:none;stroke:red;stroke-width:1px;stroke-linecap:butt;stroke-linejoin:miter;stroke-opacity:1" d="M 472.378,935.952 461.569,941.956 z" id="boundary" inkscape:connector-curvature="0" />
	<path style="fill:none;stroke:red;stroke-width:1px;stroke-linecap:butt;stroke-linejoin:miter;stroke-opacity:1" d="M 479.584,905.927 491.593,905.927 z" id="boundary" inkscape:connector-curvature="0" />
	<path style="fill:none;stroke:red;stroke-width:1px;stroke-linecap:butt;stroke-linejoin:miter;stroke-opacity:1" d="M 509.608,899.923 498.799,915.535 z" id="boundary" inkscape:connector-curvature="0" />
	<path style="fill:none;stroke:red;stroke-width:1px;stroke-linecap:butt;stroke-linejoin:miter;stroke-opacity:1" d="M 418.334,944.358 430.344,941.956 z" id="boundary" inkscape:connector-curvature="0" />
	<path style="fill:none;stroke:red;stroke-width:1px;stroke-linecap:butt;stroke-linejoin:miter;stroke-opacity:1" d="M 430.344,941.956 441.153,947.961 z" id="boundary" inkscape:connector-curvature="0" />
	<path style="fill:none;stroke:red;stroke-width:1px;stroke-linecap:butt;stroke-linejoin:miter;stroke-opacity:1" d="M 441.153,947.961 445.956,959.971 z" id="boundary" inkscape:connector-curvature="0" />
	<path style="fill:none;stroke:red;stroke-width:1px;stroke-linecap:butt;stroke-linejoin:miter;stroke-opacity:1" d="M 456.765,953.966 445.956,959.971 z" id="boundary" inkscape:connector-curvature="0" />
	<path style="fill:none;stroke:red;stroke-width:1px;stroke-linecap:butt;stroke-linejoin:miter;stroke-opacity:1" d="M 461.569,941.956 456.765,953.966 z" id="boundary" inkscape:connector-curvature="0" />
	<path style="fill:none;stroke:red;stroke-width:1px;stroke-linecap:butt;stroke-linejoin:miter;stroke-opacity:1" d="M 584.068,838.673 593.676,845.879 z" id="boundary" inkscape:connector-curvature="0" />
	<path style="fill:none;stroke:red;stroke-width:1px;stroke-linecap:butt;stroke-linejoin:miter;stroke-opacity:1" d="M 616.494,851.884 604.484,851.884 z" id="boundary" inkscape:connector-curvature="0" />
	<path style="fill:none;stroke:red;stroke-width:1px;stroke-linecap:butt;stroke-linejoin:miter;stroke-opacity:1" d="M 604.484,851.884 593.676,845.879 z" id="boundary" inkscape:connector-curvature="0" />
	<path style="fill:none;stroke:red;stroke-width:1px;stroke-linecap:butt;stroke-linejoin:miter;stroke-opacity:1" d="M 627.303,857.889 616.494,851.884 z" id="boundary" inkscape:connector-curvature="0" />
	<path style="fill:none;stroke:red;stroke-width:1px;stroke-linecap:butt;stroke-linejoin:miter;stroke-opacity:1" d="M 647.719,869.898 635.709,867.496 z" id="boundary" inkscape:connector-curvature="0" />
	<path style="fill:none;stroke:red;stroke-width:1px;stroke-linecap:butt;stroke-linejoin:miter;stroke-opacity:1" d="M 635.709,867.496 627.303,857.889 z" id="boundary" inkscape:connector-curvature="0" />
	<path style="fill:none;stroke:red;stroke-width:1px;stroke-linecap:butt;stroke-linejoin:miter;stroke-opacity:1" d="M 659.729,872.3 647.719,869.898 z" id="boundary" inkscape:connector-curvature="0" />
	<path style="fill:none;stroke:red;stroke-width:1px;stroke-linecap:butt;stroke-linejoin:miter;stroke-opacity:1" d="M 680.145,881.908 668.136,881.908 z" id="boundary" inkscape:connector-curvature="0" />
	<path style="fill:none;stroke:red;stroke-width:1px;stroke-linecap:butt;stroke-linejoin:miter;stroke-opacity:1" d="M 668.136,881.908 659.729,872.3 z" id="boundary" inkscape:connector-curvature="0" />
	<path style="fill:none;stroke:red;stroke-width:1px;stroke-linecap:butt;stroke-linejoin:miter;stroke-opacity:1" d="M 680.145,881.908 692.155,886.712 z" id="boundary" inkscape:connector-curvature="0" />
	<path style="fill:none;stroke:red;stroke-width:1px;stroke-linecap:butt;stroke-linejoin:miter;stroke-opacity:1" d="M 855.487,820.659 867.496,820.659 z" id="boundary" inkscape:connector-curvature="0" />
	<path style="fill:none;stroke:red;stroke-width:1px;stroke-linecap:butt;stroke-linejoin:miter;stroke-opacity:1" d="M 879.506,820.659 867.496,820.659 z" id="boundary" inkscape:connector-curvature="0" />
	<path style="fill:none;stroke:red;stroke-width:1px;stroke-linecap:butt;stroke-linejoin:miter;stroke-opacity:1" d="M 903.525,820.659 891.516,820.659 z" id="boundary" inkscape:connector-curvature="0" />
	<path style="fill:none;stroke:red;stroke-width:1px;stroke-linecap:butt;stroke-linejoin:miter;stroke-opacity:1" d="M 891.516,820.659 879.506,820.659 z" id="boundary" inkscape:connector-curvature="0" />
	<path style="fill:none;stroke:red;stroke-width:1px;stroke-linecap:butt;stroke-linejoin:miter;stroke-opacity:1" d="M 926.344,814.654 915.535,820.659 z" id="boundary" inkscape:connector-curvature="0" />
	<path style="fill:none;stroke:red;stroke-width:1px;stroke-linecap:butt;stroke-linejoin:miter;stroke-opacity:1" d="M 915.535,820.659 903.525,820.659 z" id="boundary" inkscape:connector-curvature="0" />
	<path style="fill:none;stroke:red;stroke-width:1px;stroke-linecap:butt;stroke-linejoin:miter;stroke-opacity:1" d="M 843.477,820.659 831.467,815.855 z" id="boundary" inkscape:connector-curvature="0" />
	<path style="fill:none;stroke:red;stroke-width:1px;stroke-linecap:butt;stroke-linejoin:miter;stroke-opacity:1" d="M 855.487,820.659 843.477,820.659 z" id="boundary" inkscape:connector-curvature="0" />
	<path style="fill:none;stroke:red;stroke-width:1px;stroke-linecap:butt;stroke-linejoin:miter;stroke-opacity:1" d="M 983.99,851.884 977.985,869.898 z" id="boundary" inkscape:connector-curvature="0" />
	<path style="fill:none;stroke:red;stroke-width:1px;stroke-linecap:butt;stroke-linejoin:miter;stroke-opacity:1" d="M 977.985,869.898 965.976,875.903 z" id="boundary" inkscape:connector-curvature="0" />
	<path style="fill:none;stroke:red;stroke-width:1px;stroke-linecap:butt;stroke-linejoin:miter;stroke-opacity:1" d="M 956.368,892.717 965.976,875.903 z" id="boundary" inkscape:connector-curvature="0" />
	<path style="fill:none;stroke:red;stroke-width:1px;stroke-linecap:butt;stroke-linejoin:miter;stroke-opacity:1" d="M 989.995,827.864 989.995,839.874 z" id="boundary" inkscape:connector-curvature="0" />
	<path style="fill:none;stroke:red;stroke-width:1px;stroke-linecap:butt;stroke-linejoin:miter;stroke-opacity:1" d="M 989.995,839.874 983.99,851.884 z" id="boundary" inkscape:connector-curvature="0" />
	<path style="fill:none;stroke:red;stroke-width:1px;stroke-linecap:butt;stroke-linejoin:miter;stroke-opacity:1" d="M 989.995,827.864 989.995,815.855 z" id="boundary" inkscape:connector-curvature="0" />
	<path style="fill:none;stroke:red;stroke-width:1px;stroke-linecap:butt;stroke-linejoin:miter;stroke-opacity:1" d="M 702.964,892.717 692.155,886.712 z" id="boundary" inkscape:connector-curvature="0" />
	<path style="fill:none;stroke:red;stroke-width:1px;stroke-linecap:butt;stroke-linejoin:miter;stroke-opacity:1" d="M 714.973,897.521 702.964,892.717 z" id="boundary" inkscape:connector-curvature="0" />
	<path style="fill:none;stroke:red;stroke-width:1px;stroke-linecap:butt;stroke-linejoin:miter;stroke-opacity:1" d="M 714.973,897.521 725.782,903.525 z" id="boundary" inkscape:connector-curvature="0" />
	<path style="fill:none;stroke:red;stroke-width:1px;stroke-linecap:butt;stroke-linejoin:miter;stroke-opacity:1" d="M 725.782,903.525 737.792,905.927 z" id="boundary" inkscape:connector-curvature="0" />
	<path style="fill:none;stroke:red;stroke-width:1px;stroke-linecap:butt;stroke-linejoin:miter;stroke-opacity:1" d="M 737.792,905.927 748.6,911.932 z" id="boundary" inkscape:connector-curvature="0" />
	<path style="fill:none;stroke:red;stroke-width:1px;stroke-linecap:butt;stroke-linejoin:miter;stroke-opacity:1" d="M 748.6,911.932 759.409,917.937 z" id="boundary" inkscape:connector-curvature="0" />
	<path style="fill:none;stroke:red;stroke-width:1px;stroke-linecap:butt;stroke-linejoin:miter;stroke-opacity:1" d="M 806.247,923.942 794.237,923.942 z" id="boundary" inkscape:connector-curvature="0" />
	<path style="fill:none;stroke:red;stroke-width:1px;stroke-linecap:butt;stroke-linejoin:miter;stroke-opacity:1" d="M 759.409,917.937 771.419,917.937 z" id="boundary" inkscape:connector-curvature="0" />
	<path style="fill:none;stroke:red;stroke-width:1px;stroke-linecap:butt;stroke-linejoin:miter;stroke-opacity:1" d="M 771.419,917.937 782.228,923.942 z" id="boundary" inkscape:connector-curvature="0" />
	<path style="fill:none;stroke:red;stroke-width:1px;stroke-linecap:butt;stroke-linejoin:miter;stroke-opacity:1" d="M 794.237,923.942 782.228,923.942 z" id="boundary" inkscape:connector-curvature="0" />
	<path style="fill:none;stroke:red;stroke-width:1px;stroke-linecap:butt;stroke-linejoin:miter;stroke-opacity:1" d="M 806.247,923.942 818.257,928.746 z" id="boundary" inkscape:connector-curvature="0" />
	<path style="fill:none;stroke:red;stroke-width:1px;stroke-linecap:butt;stroke-linejoin:miter;stroke-opacity:1" d="M 830.266,929.947 818.257,928.746 z" id="boundary" inkscape:connector-curvature="0" />
	<path style="fill:none;stroke:red;stroke-width:1px;stroke-linecap:butt;stroke-linejoin:miter;stroke-opacity:1" d="M 899.923,917.937 911.932,911.932 z" id="boundary" inkscape:connector-curvature="0" />
	<path style="fill:none;stroke:red;stroke-width:1px;stroke-linecap:butt;stroke-linejoin:miter;stroke-opacity:1" d="M 911.932,911.932 923.942,911.932 z" id="boundary" inkscape:connector-curvature="0" />
	<path style="fill:none;stroke:red;stroke-width:1px;stroke-linecap:butt;stroke-linejoin:miter;stroke-opacity:1" d="M 934.751,905.927 923.942,911.932 z" id="boundary" inkscape:connector-curvature="0" />
	<path style="fill:none;stroke:red;stroke-width:1px;stroke-linecap:butt;stroke-linejoin:miter;stroke-opacity:1" d="M 889.114,923.942 899.923,917.937 z" id="boundary" inkscape:connector-curvature="0" />
	<path style="fill:none;stroke:red;stroke-width:1px;stroke-linecap:butt;stroke-linejoin:miter;stroke-opacity:1" d="M 934.751,905.927 944.358,898.722 z" id="boundary" inkscape:connector-curvature="0" />
	<path style="fill:none;stroke:red;stroke-width:1px;stroke-linecap:butt;stroke-linejoin:miter;stroke-opacity:1" d="M 944.358,898.722 956.368,892.717 z" id="boundary" inkscape:connector-curvature="0" />
	<path style="fill:none;stroke:red;stroke-width:1px;stroke-linecap:butt;stroke-linejoin:miter;stroke-opacity:1" d="M 830.266,929.947 842.276,929.947 z" id="boundary" inkscape:connector-curvature="0" />
	<path style="fill:none;stroke:red;stroke-width:1px;stroke-linecap:butt;stroke-linejoin:miter;stroke-opacity:1" d="M 854.286,929.947 842.276,929.947 z" id="boundary" inkscape:connector-curvature="0" />
	<path style="fill:none;stroke:red;stroke-width:1px;stroke-linecap:butt;stroke-linejoin:miter;stroke-opacity:1" d="M 866.295,929.947 877.104,923.942 z" id="boundary" inkscape:connector-curvature="0" />
	<path style="fill:none;stroke:red;stroke-width:1px;stroke-linecap:butt;stroke-linejoin:miter;stroke-opacity:1" d="M 877.104,923.942 889.114,923.942 z" id="boundary" inkscape:connector-curvature="0" />
	<path style="fill:none;stroke:red;stroke-width:1px;stroke-linecap:butt;stroke-linejoin:miter;stroke-opacity:1" d="M 866.295,929.947 854.286,929.947 z" id="boundary" inkscape:connector-curvature="0" />
	<circle cx="4" cy="73.6562" r="4" fill="#0" id="circle0"/>
	<circle cx="4" cy="85.6659" r="4" fill="#0" id="circle1"/>
	<circle cx="4" cy="97.6755" r="4" fill="#0" id="circle2"/>
	<circle cx="10.0048" cy="108.484" r="4" fill="#0" id="circle3"/>
	<circle cx="13.6077" cy="64.0484" r="4" fill="#0" id="circle4"/>
	<circle cx="22.0145" cy="113.288" r="4" fill="#0" id="circle5"/>
	<circle cx="24.4165" cy="58.0436" r="4" fill="#0" id="circle6"/>
	<circle cx="32.8232" cy="119.293" r="4" fill="#0" id="circle7"/>
	<circle cx="35.2252" cy="52.0387" r="4" fill="#0" id="circle8"/>
	<circle cx="44.8329" cy="119.293" r="4" fill="#0" id="circle9"/>
	<circle cx="46.0339" cy="46.0339" r="4" fill="#0" id="circle10"/>
	<circle cx="56.8426" cy="40.0291" r="4" fill="#0" id="circle11"/>
	<circle cx="56.8426" cy="119.293" r="4" fill="#0" id="circle12"/>
	<circle cx="67.6513" cy="34.0242" r="4" fill="#0" id="circle13"/>
	<circle cx="68.8523" cy="119.293" r="4" fill="#0" id="circle14"/>
	<circle cx="77.2591" cy="24.4165" r="4" fill="#0" id="circle15"/>
	<circle cx="79.661" cy="125.298" r="4" fill="#0" id="circle16"/>
	<circle cx="82.063" cy="584.068" r="4" fill="#0" id="circle17"/>
	<circle cx="86.8668" cy="16.0097" r="4" fill="#0" id="circle18"/>
	<circle cx="88.0678" cy="566.053" r="4" fill="#0" id="circle19"/>
	<circle cx="88.0678" cy="594.877" r="4" fill="#0" id="circle20"/>
	<circle cx="91.6707" cy="125.298" r="4" fill="#0" id="circle21"/>
	<circle cx="94.0726" cy="548.039" r="4" fill="#0" id="circle22"/>
	<circle cx="96.4746" cy="604.484" r="4" fill="#0" id="circle23"/>
	<circle cx="98.8765" cy="16.0097" r="4" fill="#0" id="circle24"/>
	<circle cx="103.68" cy="125.298" r="4" fill="#0" id="circle25"/>
	<circle cx="103.68" cy="538.431" r="4" fill="#0" id="circle26"/>
	<circle cx="107.283" cy="593.676" r="4" fill="#0" id="circle27"/>
	<circle cx="109.685" cy="10.0048" r="4" fill="#0" id="circle28"/>
	<circle cx="113.288" cy="528.823" r="4" fill="#0" id="circle29"/>
	<circle cx="114.489" cy="131.303" r="4" fill="#0" id="circle30"/>
	<circle cx="118.092" cy="599.68" r="4" fill="#0" id="circle31"/>
	<circle cx="121.695" cy="10.0048" r="4" fill="#0" id="circle32"/>
	<circle cx="122.896" cy="520.416" r="4" fill="#0" id="circle33"/>
	<circle cx="125.298" cy="137.308" r="4" fill="#0" id="circle34"/>
	<circle cx="125.298" cy="581.666" r="4" fill="#0" id="circle35"/>
	<circle cx="128.901" cy="605.685" r="4" fill="#0" id="circle36"/>
	<circle cx="131.303" cy="592.475" r="4" fill="#0" id="circle37"/>
	<circle cx="133.705" cy="10.0048" r="4" fill="#0" id="circle38"/>
	<circle cx="133.705" cy="514.412" r="4" fill="#0" id="circle39"/>
	<circle cx="137.308" cy="139.709" r="4" fill="#0" id="circle40"/>
	<circle cx="140.91" cy="599.68" r="4" fill="#0" id="circle41"/>
	<circle cx="143.312" cy="504.804" r="4" fill="#0" id="circle42"/>
	<circle cx="143.312" cy="563.651" r="4" fill="#0" id="circle43"/>
	<circle cx="144.513" cy="4" r="4" fill="#0" id="circle44"/>
	<circle cx="145.714" cy="149.317" r="4" fill="#0" id="circle45"/>
	<circle cx="145.714" cy="575.661" r="4" fill="#0" id="circle46"/>
	<circle cx="148.116" cy="161.327" r="4" fill="#0" id="circle47"/>
	<circle cx="148.116" cy="632.107" r="4" fill="#0" id="circle48"/>
	<circle cx="148.116" cy="644.116" r="4" fill="#0" id="circle49"/>
	<circle cx="148.116" cy="656.126" r="4" fill="#0" id="circle50"/>
	<circle cx="151.719" cy="593.676" r="4" fill="#0" id="circle51"/>
	<circle cx="152.92" cy="555.245" r="4" fill="#0" id="circle52"/>
	<circle cx="154.121" cy="172.136" r="4" fill="#0" id="circle53"/>
	<circle cx="154.121" cy="184.145" r="4" fill="#0" id="circle54"/>
	<circle cx="154.121" cy="620.097" r="4" fill="#0" id="circle55"/>
	<circle cx="154.121" cy="666.935" r="4" fill="#0" id="circle56"/>
	<circle cx="155.322" cy="10.0048" r="4" fill="#0" id="circle57"/>
	<circle cx="155.322" cy="498.799" r="4" fill="#0" id="circle58"/>
	<circle cx="156.523" cy="196.155" r="4" fill="#0" id="circle59"/>
	<circle cx="157.724" cy="580.465" r="4" fill="#0" id="circle60"/>
	<circle cx="160.126" cy="208.165" r="4" fill="#0" id="circle61"/>
	<circle cx="160.126" cy="677.743" r="4" fill="#0" id="circle62"/>
	<circle cx="161.327" cy="545.637" r="4" fill="#0" id="circle63"/>
	<circle cx="162.528" cy="220.174" r="4" fill="#0" id="circle64"/>
	<circle cx="163.729" cy="610.489" r="4" fill="#0" id="circle65"/>
	<circle cx="164.93" cy="490.392" r="4" fill="#0" id="circle66"/>
	<circle cx="166.131" cy="232.184" r="4" fill="#0" id="circle67"/>
	<circle cx="166.131" cy="244.194" r="4" fill="#0" id="circle68"/>
	<circle cx="167.332" cy="13.6077" r="4" fill="#0" id="circle69"/>
	<circle cx="167.332" cy="641.714" r="4" fill="#0" id="circle70"/>
	<circle cx="167.332" cy="653.724" r="4" fill="#0" id="circle71"/>
	<circle cx="167.332" cy="665.734" r="4" fill="#0" id="circle72"/>
	<circle cx="168.533" cy="256.203" r="4" fill="#0" id="circle73"/>
	<circle cx="170.935" cy="537.23" r="4" fill="#0" id="circle74"/>
	<circle cx="172.136" cy="268.213" r="4" fill="#0" id="circle75"/>
	<circle cx="172.136" cy="280.223" r="4" fill="#0" id="circle76"/>
	<circle cx="172.136" cy="292.232" r="4" fill="#0" id="circle77"/>
	<circle cx="172.136" cy="304.242" r="4" fill="#0" id="circle78"/>
	<circle cx="172.136" cy="316.252" r="4" fill="#0" id="circle79"/>
	<circle cx="172.136" cy="328.262" r="4" fill="#0" id="circle80"/>
	<circle cx="172.136" cy="340.271" r="4" fill="#0" id="circle81"/>
	<circle cx="172.136" cy="352.281" r="4" fill="#0" id="circle82"/>
	<circle cx="173.337" cy="480.785" r="4" fill="#0" id="circle83"/>
	<circle cx="173.337" cy="600.881" r="4" fill="#0" id="circle84"/>
	<circle cx="178.14" cy="19.6126" r="4" fill="#0" id="circle85"/>
	<circle cx="178.14" cy="363.09" r="4" fill="#0" id="circle86"/>
	<circle cx="178.14" cy="375.099" r="4" fill="#0" id="circle87"/>
	<circle cx="178.14" cy="387.109" r="4" fill="#0" id="circle88"/>
	<circle cx="178.14" cy="399.119" r="4" fill="#0" id="circle89"/>
	<circle cx="178.14" cy="527.622" r="4" fill="#0" id="circle90"/>
	<circle cx="178.14" cy="659.729" r="4" fill="#0" id="circle91"/>
	<circle cx="182.944" cy="472.378" r="4" fill="#0" id="circle92"/>
	<circle cx="182.944" cy="592.475" r="4" fill="#0" id="circle93"/>
	<circle cx="184.145" cy="409.927" r="4" fill="#0" id="circle94"/>
	<circle cx="184.145" cy="421.937" r="4" fill="#0" id="circle95"/>
	<circle cx="185.346" cy="669.337" r="4" fill="#0" id="circle96"/>
	<circle cx="188.949" cy="521.617" r="4" fill="#0" id="circle97"/>
	<circle cx="190.15" cy="24.4165" r="4" fill="#0" id="circle98"/>
	<circle cx="190.15" cy="432.746" r="4" fill="#0" id="circle99"/>
	<circle cx="190.15" cy="444.755" r="4" fill="#0" id="circle100"/>
	<circle cx="190.15" cy="456.765" r="4" fill="#0" id="circle101"/>
	<circle cx="191.351" cy="582.867" r="4" fill="#0" id="circle102"/>
	<circle cx="197.356" cy="34.0242" r="4" fill="#0" id="circle103"/>
	<circle cx="197.356" cy="659.729" r="4" fill="#0" id="circle104"/>
	<circle cx="199.758" cy="515.613" r="4" fill="#0" id="circle105"/>
	<circle cx="200.959" cy="574.46" r="4" fill="#0" id="circle106"/>
	<circle cx="203.361" cy="44.8329" r="4" fill="#0" id="circle107"/>
	<circle cx="205.763" cy="562.45" r="4" fill="#0" id="circle108"/>
	<circle cx="209.366" cy="55.6416" r="4" fill="#0" id="circle109"/>
	<circle cx="209.366" cy="623.7" r="4" fill="#0" id="circle110"/>
	<circle cx="209.366" cy="635.709" r="4" fill="#0" id="circle111"/>
	<circle cx="209.366" cy="659.729" r="4" fill="#0" id="circle112"/>
	<circle cx="210.567" cy="509.608" r="4" fill="#0" id="circle113"/>
	<circle cx="214.169" cy="67.6513" r="4" fill="#0" id="circle114"/>
	<circle cx="215.37" cy="79.661" r="4" fill="#0" id="circle115"/>
	<circle cx="215.37" cy="646.518" r="4" fill="#0" id="circle116"/>
	<circle cx="216.571" cy="556.446" r="4" fill="#0" id="circle117"/>
	<circle cx="221.375" cy="90.4697" r="4" fill="#0" id="circle118"/>
	<circle cx="221.375" cy="617.695" r="4" fill="#0" id="circle119"/>
	<circle cx="221.375" cy="659.729" r="4" fill="#0" id="circle120"/>
	<circle cx="222.576" cy="509.608" r="4" fill="#0" id="circle121"/>
	<circle cx="226.179" cy="548.039" r="4" fill="#0" id="circle122"/>
	<circle cx="227.38" cy="101.278" r="4" fill="#0" id="circle123"/>
	<circle cx="227.38" cy="113.288" r="4" fill="#0" id="circle124"/>
	<circle cx="230.983" cy="609.288" r="4" fill="#0" id="circle125"/>
	<circle cx="232.184" cy="516.814" r="4" fill="#0" id="circle126"/>
	<circle cx="233.385" cy="124.097" r="4" fill="#0" id="circle127"/>
	<circle cx="233.385" cy="136.107" r="4" fill="#0" id="circle128"/>
	<circle cx="233.385" cy="593.676" r="4" fill="#0" id="circle129"/>
	<circle cx="238.189" cy="527.622" r="4" fill="#0" id="circle130"/>
	<circle cx="238.189" cy="544.436" r="4" fill="#0" id="circle131"/>
	<circle cx="239.39" cy="146.915" r="4" fill="#0" id="circle132"/>
	<circle cx="239.39" cy="158.925" r="4" fill="#0" id="circle133"/>
	<circle cx="239.39" cy="170.935" r="4" fill="#0" id="circle134"/>
	<circle cx="242.993" cy="585.269" r="4" fill="#0" id="circle135"/>
	<circle cx="245.395" cy="181.743" r="4" fill="#0" id="circle136"/>
	<circle cx="251.4" cy="192.552" r="4" fill="#0" id="circle137"/>
	<circle cx="255.002" cy="204.562" r="4" fill="#0" id="circle138"/>
	<circle cx="255.002" cy="581.666" r="4" fill="#0" id="circle139"/>
	<circle cx="257.404" cy="216.571" r="4" fill="#0" id="circle140"/>
	<circle cx="257.404" cy="228.581" r="4" fill="#0" id="circle141"/>
	<circle cx="261.007" cy="240.591" r="4" fill="#0" id="circle142"/>
	<circle cx="265.811" cy="575.661" r="4" fill="#0" id="circle143"/>
	<circle cx="269.414" cy="250.199" r="4" fill="#0" id="circle144"/>
	<circle cx="269.414" cy="262.208" r="4" fill="#0" id="circle145"/>
	<circle cx="275.419" cy="273.017" r="4" fill="#0" id="circle146"/>
	<circle cx="277.821" cy="580.465" r="4" fill="#0" id="circle147"/>
	<circle cx="285.027" cy="281.424" r="4" fill="#0" id="circle148"/>
	<circle cx="286.228" cy="590.073" r="4" fill="#0" id="circle149"/>
	<circle cx="286.228" cy="890.315" r="4" fill="#0" id="circle150"/>
	<circle cx="292.232" cy="600.881" r="4" fill="#0" id="circle151"/>
	<circle cx="292.232" cy="878.305" r="4" fill="#0" id="circle152"/>
	<circle cx="293.433" cy="291.031" r="4" fill="#0" id="circle153"/>
	<circle cx="293.433" cy="899.923" r="4" fill="#0" id="circle154"/>
	<circle cx="298.237" cy="611.69" r="4" fill="#0" id="circle155"/>
	<circle cx="301.84" cy="623.7" r="4" fill="#0" id="circle156"/>
	<circle cx="301.84" cy="868.697" r="4" fill="#0" id="circle157"/>
	<circle cx="305.443" cy="295.835" r="4" fill="#0" id="circle158"/>
	<circle cx="305.443" cy="893.918" r="4" fill="#0" id="circle159"/>
	<circle cx="307.845" cy="634.508" r="4" fill="#0" id="circle160"/>
	<circle cx="312.649" cy="646.518" r="4" fill="#0" id="circle161"/>
	<circle cx="312.649" cy="862.692" r="4" fill="#0" id="circle162"/>
	<circle cx="316.252" cy="301.84" r="4" fill="#0" id="circle163"/>
	<circle cx="317.453" cy="887.913" r="4" fill="#0" id="circle164"/>
	<circle cx="318.654" cy="851.884" r="4" fill="#0" id="circle165"/>
	<circle cx="322.257" cy="653.724" r="4" fill="#0" id="circle166"/>
	<circle cx="322.257" cy="899.923" r="4" fill="#0" id="circle167"/>
	<circle cx="325.86" cy="310.247" r="4" fill="#0" id="circle168"/>
	<circle cx="328.262" cy="664.533" r="4" fill="#0" id="circle169"/>
	<circle cx="328.262" cy="836.271" r="4" fill="#0" id="circle170"/>
	<circle cx="329.462" cy="909.53" r="4" fill="#0" id="circle171"/>
	<circle cx="334.266" cy="824.262" r="4" fill="#0" id="circle172"/>
	<circle cx="337.869" cy="310.247" r="4" fill="#0" id="circle173"/>
	<circle cx="337.869" cy="671.738" r="4" fill="#0" id="circle174"/>
	<circle cx="340.271" cy="902.324" r="4" fill="#0" id="circle175"/>
	<circle cx="343.874" cy="814.654" r="4" fill="#0" id="circle176"/>
	<circle cx="346.276" cy="681.346" r="4" fill="#0" id="circle177"/>
	<circle cx="346.276" cy="693.356" r="4" fill="#0" id="circle178"/>
	<circle cx="346.276" cy="705.366" r="4" fill="#0" id="circle179"/>
	<circle cx="346.276" cy="717.375" r="4" fill="#0" id="circle180"/>
	<circle cx="346.276" cy="776.223" r="4" fill="#0" id="circle181"/>
	<circle cx="346.276" cy="788.232" r="4" fill="#0" id="circle182"/>
	<circle cx="346.276" cy="800.242" r="4" fill="#0" id="circle183"/>
	<circle cx="349.879" cy="310.247" r="4" fill="#0" id="circle184"/>
	<circle cx="352.281" cy="728.184" r="4" fill="#0" id="circle185"/>
	<circle cx="352.281" cy="740.194" r="4" fill="#0" id="circle186"/>
	<circle cx="352.281" cy="752.203" r="4" fill="#0" id="circle187"/>
	<circle cx="352.281" cy="764.213" r="4" fill="#0" id="circle188"/>
	<circle cx="352.281" cy="899.923" r="4" fill="#0" id="circle189"/>
	<circle cx="359.487" cy="909.53" r="4" fill="#0" id="circle190"/>
	<circle cx="360.688" cy="316.252" r="4" fill="#0" id="circle191"/>
	<circle cx="371.496" cy="905.927" r="4" fill="#0" id="circle192"/>
	<circle cx="372.697" cy="316.252" r="4" fill="#0" id="circle193"/>
	<circle cx="381.104" cy="897.521" r="4" fill="#0" id="circle194"/>
	<circle cx="382.305" cy="926.344" r="4" fill="#0" id="circle195"/>
	<circle cx="382.305" cy="938.354" r="4" fill="#0" id="circle196"/>
	<circle cx="383.506" cy="875.903" r="4" fill="#0" id="circle197"/>
	<circle cx="384.707" cy="316.252" r="4" fill="#0" id="circle198"/>
	<circle cx="388.31" cy="914.334" r="4" fill="#0" id="circle199"/>
	<circle cx="394.315" cy="938.354" r="4" fill="#0" id="circle200"/>
	<circle cx="395.516" cy="869.898" r="4" fill="#0" id="circle201"/>
	<circle cx="396.717" cy="316.252" r="4" fill="#0" id="circle202"/>
	<circle cx="400.32" cy="908.329" r="4" fill="#0" id="circle203"/>
	<circle cx="401.521" cy="797.84" r="4" fill="#0" id="circle204"/>
	<circle cx="401.521" cy="809.85" r="4" fill="#0" id="circle205"/>
	<circle cx="406.324" cy="941.956" r="4" fill="#0" id="circle206"/>
	<circle cx="407.525" cy="322.257" r="4" fill="#0" id="circle207"/>
	<circle cx="407.525" cy="785.831" r="4" fill="#0" id="circle208"/>
	<circle cx="407.525" cy="820.659" r="4" fill="#0" id="circle209"/>
	<circle cx="407.525" cy="832.668" r="4" fill="#0" id="circle210"/>
	<circle cx="407.525" cy="844.678" r="4" fill="#0" id="circle211"/>
	<circle cx="407.525" cy="869.898" r="4" fill="#0" id="circle212"/>
	<circle cx="409.927" cy="898.722" r="4" fill="#0" id="circle213"/>
	<circle cx="409.927" cy="953.966" r="4" fill="#0" id="circle214"/>
	<circle cx="413.53" cy="767.816" r="4" fill="#0" id="circle215"/>
	<circle cx="413.53" cy="855.487" r="4" fill="#0" id="circle216"/>
	<circle cx="418.334" cy="944.358" r="4" fill="#0" id="circle217"/>
	<circle cx="419.535" cy="325.86" r="4" fill="#0" id="circle218"/>
	<circle cx="419.535" cy="889.114" r="4" fill="#0" id="circle219"/>
	<circle cx="424.339" cy="761.811" r="4" fill="#0" id="circle220"/>
	<circle cx="425.54" cy="877.104" r="4" fill="#0" id="circle221"/>
	<circle cx="430.344" cy="772.62" r="4" fill="#0" id="circle222"/>
	<circle cx="430.344" cy="941.956" r="4" fill="#0" id="circle223"/>
	<circle cx="431.545" cy="328.262" r="4" fill="#0" id="circle224"/>
	<circle cx="431.545" cy="865.094" r="4" fill="#0" id="circle225"/>
	<circle cx="437.55" cy="782.228" r="4" fill="#0" id="circle226"/>
	<circle cx="437.55" cy="853.085" r="4" fill="#0" id="circle227"/>
	<circle cx="441.153" cy="947.961" r="4" fill="#0" id="circle228"/>
	<circle cx="442.354" cy="334.266" r="4" fill="#0" id="circle229"/>
	<circle cx="442.354" cy="794.237" r="4" fill="#0" id="circle230"/>
	<circle cx="442.354" cy="806.247" r="4" fill="#0" id="circle231"/>
	<circle cx="442.354" cy="824.262" r="4" fill="#0" id="circle232"/>
	<circle cx="442.354" cy="836.271" r="4" fill="#0" id="circle233"/>
	<circle cx="445.956" cy="959.971" r="4" fill="#0" id="circle234"/>
	<circle cx="454.363" cy="336.668" r="4" fill="#0" id="circle235"/>
	<circle cx="456.765" cy="953.966" r="4" fill="#0" id="circle236"/>
	<circle cx="461.569" cy="941.956" r="4" fill="#0" id="circle237"/>
	<circle cx="465.172" cy="342.673" r="4" fill="#0" id="circle238"/>
	<circle cx="472.378" cy="935.952" r="4" fill="#0" id="circle239"/>
	<circle cx="477.182" cy="347.477" r="4" fill="#0" id="circle240"/>
	<circle cx="479.584" cy="905.927" r="4" fill="#0" id="circle241"/>
	<circle cx="479.584" cy="917.937" r="4" fill="#0" id="circle242"/>
	<circle cx="485.588" cy="357.085" r="4" fill="#0" id="circle243"/>
	<circle cx="491.593" cy="905.927" r="4" fill="#0" id="circle244"/>
	<circle cx="495.196" cy="365.492" r="4" fill="#0" id="circle245"/>
	<circle cx="498.799" cy="915.535" r="4" fill="#0" id="circle246"/>
	<circle cx="503.603" cy="833.869" r="4" fill="#0" id="circle247"/>
	<circle cx="503.603" cy="845.879" r="4" fill="#0" id="circle248"/>
	<circle cx="506.005" cy="371.496" r="4" fill="#0" id="circle249"/>
	<circle cx="509.608" cy="797.84" r="4" fill="#0" id="circle250"/>
	<circle cx="509.608" cy="809.85" r="4" fill="#0" id="circle251"/>
	<circle cx="509.608" cy="821.86" r="4" fill="#0" id="circle252"/>
	<circle cx="509.608" cy="856.688" r="4" fill="#0" id="circle253"/>
	<circle cx="509.608" cy="868.697" r="4" fill="#0" id="circle254"/>
	<circle cx="509.608" cy="880.707" r="4" fill="#0" id="circle255"/>
	<circle cx="509.608" cy="899.923" r="4" fill="#0" id="circle256"/>
	<circle cx="515.613" cy="379.903" r="4" fill="#0" id="circle257"/>
	<circle cx="521.617" cy="797.84" r="4" fill="#0" id="circle258"/>
	<circle cx="526.421" cy="385.908" r="4" fill="#0" id="circle259"/>
	<circle cx="532.426" cy="396.717" r="4" fill="#0" id="circle260"/>
	<circle cx="532.426" cy="803.845" r="4" fill="#0" id="circle261"/>
	<circle cx="539.632" cy="406.324" r="4" fill="#0" id="circle262"/>
	<circle cx="543.235" cy="809.85" r="4" fill="#0" id="circle263"/>
	<circle cx="549.24" cy="413.53" r="4" fill="#0" id="circle264"/>
	<circle cx="551.642" cy="819.458" r="4" fill="#0" id="circle265"/>
	<circle cx="560.048" cy="419.535" r="4" fill="#0" id="circle266"/>
	<circle cx="563.651" cy="824.262" r="4" fill="#0" id="circle267"/>
	<circle cx="566.053" cy="430.344" r="4" fill="#0" id="circle268"/>
	<circle cx="572.058" cy="833.869" r="4" fill="#0" id="circle269"/>
	<circle cx="574.46" cy="439.952" r="4" fill="#0" id="circle270"/>
	<circle cx="584.068" cy="448.358" r="4" fill="#0" id="circle271"/>
	<circle cx="584.068" cy="838.673" r="4" fill="#0" id="circle272"/>
	<circle cx="593.676" cy="455.564" r="4" fill="#0" id="circle273"/>
	<circle cx="593.676" cy="845.879" r="4" fill="#0" id="circle274"/>
	<circle cx="599.68" cy="466.373" r="4" fill="#0" id="circle275"/>
	<circle cx="604.484" cy="851.884" r="4" fill="#0" id="circle276"/>
	<circle cx="605.685" cy="477.182" r="4" fill="#0" id="circle277"/>
	<circle cx="611.69" cy="487.99" r="4" fill="#0" id="circle278"/>
	<circle cx="616.494" cy="851.884" r="4" fill="#0" id="circle279"/>
	<circle cx="622.499" cy="493.995" r="4" fill="#0" id="circle280"/>
	<circle cx="627.303" cy="857.889" r="4" fill="#0" id="circle281"/>
	<circle cx="629.705" cy="503.603" r="4" fill="#0" id="circle282"/>
	<circle cx="635.709" cy="514.412" r="4" fill="#0" id="circle283"/>
	<circle cx="635.709" cy="526.421" r="4" fill="#0" id="circle284"/>
	<circle cx="635.709" cy="867.496" r="4" fill="#0" id="circle285"/>
	<circle cx="645.317" cy="533.627" r="4" fill="#0" id="circle286"/>
	<circle cx="647.719" cy="869.898" r="4" fill="#0" id="circle287"/>
	<circle cx="650.121" cy="545.637" r="4" fill="#0" id="circle288"/>
	<circle cx="656.126" cy="556.446" r="4" fill="#0" id="circle289"/>
	<circle cx="659.729" cy="568.455" r="4" fill="#0" id="circle290"/>
	<circle cx="659.729" cy="872.3" r="4" fill="#0" id="circle291"/>
	<circle cx="665.734" cy="579.264" r="4" fill="#0" id="circle292"/>
	<circle cx="668.136" cy="881.908" r="4" fill="#0" id="circle293"/>
	<circle cx="671.738" cy="590.073" r="4" fill="#0" id="circle294"/>
	<circle cx="676.542" cy="602.082" r="4" fill="#0" id="circle295"/>
	<circle cx="677.743" cy="614.092" r="4" fill="#0" id="circle296"/>
	<circle cx="677.743" cy="626.102" r="4" fill="#0" id="circle297"/>
	<circle cx="680.145" cy="881.908" r="4" fill="#0" id="circle298"/>
	<circle cx="683.748" cy="636.91" r="4" fill="#0" id="circle299"/>
	<circle cx="689.753" cy="647.719" r="4" fill="#0" id="circle300"/>
	<circle cx="692.155" cy="886.712" r="4" fill="#0" id="circle301"/>
	<circle cx="695.758" cy="658.528" r="4" fill="#0" id="circle302"/>
	<circle cx="695.758" cy="670.538" r="4" fill="#0" id="circle303"/>
	<circle cx="701.763" cy="681.346" r="4" fill="#0" id="circle304"/>
	<circle cx="702.964" cy="892.717" r="4" fill="#0" id="circle305"/>
	<circle cx="707.768" cy="692.155" r="4" fill="#0" id="circle306"/>
	<circle cx="712.571" cy="704.165" r="4" fill="#0" id="circle307"/>
	<circle cx="714.973" cy="897.521" r="4" fill="#0" id="circle308"/>
	<circle cx="719.777" cy="713.772" r="4" fill="#0" id="circle309"/>
	<circle cx="725.782" cy="724.581" r="4" fill="#0" id="circle310"/>
	<circle cx="725.782" cy="903.525" r="4" fill="#0" id="circle311"/>
	<circle cx="735.39" cy="731.787" r="4" fill="#0" id="circle312"/>
	<circle cx="737.792" cy="905.927" r="4" fill="#0" id="circle313"/>
	<circle cx="740.194" cy="743.797" r="4" fill="#0" id="circle314"/>
	<circle cx="746.199" cy="754.605" r="4" fill="#0" id="circle315"/>
	<circle cx="748.6" cy="911.932" r="4" fill="#0" id="circle316"/>
	<circle cx="754.605" cy="764.213" r="4" fill="#0" id="circle317"/>
	<circle cx="759.409" cy="917.937" r="4" fill="#0" id="circle318"/>
	<circle cx="764.213" cy="772.62" r="4" fill="#0" id="circle319"/>
	<circle cx="771.419" cy="917.937" r="4" fill="#0" id="circle320"/>
	<circle cx="772.62" cy="782.228" r="4" fill="#0" id="circle321"/>
	<circle cx="779.826" cy="791.835" r="4" fill="#0" id="circle322"/>
	<circle cx="782.228" cy="923.942" r="4" fill="#0" id="circle323"/>
	<circle cx="785.831" cy="802.644" r="4" fill="#0" id="circle324"/>
	<circle cx="794.237" cy="923.942" r="4" fill="#0" id="circle325"/>
	<circle cx="797.84" cy="802.644" r="4" fill="#0" id="circle326"/>
	<circle cx="806.247" cy="923.942" r="4" fill="#0" id="circle327"/>
	<circle cx="809.85" cy="806.247" r="4" fill="#0" id="circle328"/>
	<circle cx="818.257" cy="928.746" r="4" fill="#0" id="circle329"/>
	<circle cx="821.86" cy="808.649" r="4" fill="#0" id="circle330"/>
	<circle cx="830.266" cy="929.947" r="4" fill="#0" id="circle331"/>
	<circle cx="831.467" cy="815.855" r="4" fill="#0" id="circle332"/>
	<circle cx="842.276" cy="929.947" r="4" fill="#0" id="circle333"/>
	<circle cx="843.477" cy="820.659" r="4" fill="#0" id="circle334"/>
	<circle cx="854.286" cy="929.947" r="4" fill="#0" id="circle335"/>
	<circle cx="855.487" cy="820.659" r="4" fill="#0" id="circle336"/>
	<circle cx="866.295" cy="929.947" r="4" fill="#0" id="circle337"/>
	<circle cx="867.496" cy="820.659" r="4" fill="#0" id="circle338"/>
	<circle cx="877.104" cy="923.942" r="4" fill="#0" id="circle339"/>
	<circle cx="879.506" cy="820.659" r="4" fill="#0" id="circle340"/>
	<circle cx="889.114" cy="923.942" r="4" fill="#0" id="circle341"/>
	<circle cx="891.516" cy="820.659" r="4" fill="#0" id="circle342"/>
	<circle cx="899.923" cy="917.937" r="4" fill="#0" id="circle343"/>
	<circle cx="903.525" cy="820.659" r="4" fill="#0" id="circle344"/>
	<circle cx="911.932" cy="911.932" r="4" fill="#0" id="circle345"/>
	<circle cx="915.535" cy="820.659" r="4" fill="#0" id="circle346"/>
	<circle cx="923.942" cy="911.932" r="4" fill="#0" id="circle347"/>
	<circle cx="926.344" cy="814.654" r="4" fill="#0" id="circle348"/>
	<circle cx="934.751" cy="905.927" r="4" fill="#0" id="circle349"/>
	<circle cx="938.354" cy="808.649" r="4" fill="#0" id="circle350"/>
	<circle cx="944.358" cy="796.639" r="4" fill="#0" id="circle351"/>
	<circle cx="944.358" cy="898.722" r="4" fill="#0" id="circle352"/>
	<circle cx="950.363" cy="784.63" r="4" fill="#0" id="circle353"/>
	<circle cx="956.368" cy="772.62" r="4" fill="#0" id="circle354"/>
	<circle cx="956.368" cy="892.717" r="4" fill="#0" id="circle355"/>
	<circle cx="962.373" cy="760.61" r="4" fill="#0" id="circle356"/>
	<circle cx="965.976" cy="875.903" r="4" fill="#0" id="circle357"/>
	<circle cx="968.378" cy="748.6" r="4" fill="#0" id="circle358"/>
	<circle cx="977.985" cy="738.993" r="4" fill="#0" id="circle359"/>
	<circle cx="977.985" cy="869.898" r="4" fill="#0" id="circle360"/>
	<circle cx="983.99" cy="851.884" r="4" fill="#0" id="circle361"/>
	<circle cx="989.995" cy="742.596" r="4" fill="#0" id="circle362"/>
	<circle cx="989.995" cy="815.855" r="4" fill="#0" id="circle363"/>
	<circle cx="989.995" cy="827.864" r="4" fill="#0" id="circle364"/>
	<circle cx="989.995" cy="839.874" r="4" fill="#0" id="circle365"/>
	<circle cx="996" cy="753.404" r="4" fill="#0" id="circle366"/>
	<circle cx="996" cy="765.414" r="4" fill="#0" id="circle367"/>
	<circle cx="996" cy="777.424" r="4" fill="#0" id="circle368"/>
	<circle cx="996" cy="789.433" r="4" fill="#0" id="circle369"/>
	<circle cx="996" cy="801.443" r="4" fill="#0" id="circle370"/>
	</g>
</svg>