<?xml version="1.0" encoding="UTF-8" standalone="no"?>
<!-- Created with CurveBenchmark -->
<svg
	xmlns:dc="http://purl.org/dc/elements/1.1/"
	xmlns:cc="http://creativecommons.org/ns#"
	xmlns:rdf="http://www.w3.org/1999/02/22-rdf-syntax-ns#"
	xmlns:svg="http://www.w3.org/2000/svg"
	xmlns="http://www.w3.org/2000/svg"
	xmlns:sodipodi="http://sodipodi.sourceforge.net/DTD/sodipodi-0.dtd"
	xmlns:inkscape="http://www.inkscape.org/namespaces/inkscape"
	width="1000"
	height="1000"
	id="svg2"
	version="1.1"
	sodipodi:docname="manifold/gathang-woodenspoonbinary60.png.txt">
<defs
	id="defs4" />
<metadata
	id="metadata7">
	<rdf:RDF>
		<cc:Work
			rdf:about="">
			<dc:format>image/svg+xml</dc:format>
			<dc:type
				rdf:resource="http://purl.org/dc/dcmitype/StillImage" />
			<dc:title></dc:title>
		</cc:Work>
	</rdf:RDF>
</metadata>
<g
	inkscape:label="Layer 1"
	inkscape:groupmode="layer"
	id="layer1">
	<path style="fill:none;stroke:red;stroke-width:1px;stroke-linecap:butt;stroke-linejoin:miter;stroke-opacity:1" d="M 343.753,394.375 334.991,400.216 z" id="boundary" inkscape:connector-curvature="0" />
	<path style="fill:none;stroke:red;stroke-width:1px;stroke-linecap:butt;stroke-linejoin:miter;stroke-opacity:1" d="M 334.991,400.216 326.23,405.083 z" id="boundary" inkscape:connector-curvature="0" />
	<path style="fill:none;stroke:red;stroke-width:1px;stroke-linecap:butt;stroke-linejoin:miter;stroke-opacity:1" d="M 326.23,405.083 317.468,409.951 z" id="boundary" inkscape:connector-curvature="0" />
	<path style="fill:none;stroke:red;stroke-width:1px;stroke-linecap:butt;stroke-linejoin:miter;stroke-opacity:1" d="M 291.184,425.527 299.945,420.659 z" id="boundary" inkscape:connector-curvature="0" />
	<path style="fill:none;stroke:red;stroke-width:1px;stroke-linecap:butt;stroke-linejoin:miter;stroke-opacity:1" d="M 308.707,415.792 317.468,409.951 z" id="boundary" inkscape:connector-curvature="0" />
	<path style="fill:none;stroke:red;stroke-width:1px;stroke-linecap:butt;stroke-linejoin:miter;stroke-opacity:1" d="M 308.707,415.792 299.945,420.659 z" id="boundary" inkscape:connector-curvature="0" />
	<path style="fill:none;stroke:red;stroke-width:1px;stroke-linecap:butt;stroke-linejoin:miter;stroke-opacity:1" d="M 291.184,425.527 282.422,430.395 z" id="boundary" inkscape:connector-curvature="0" />
	<path style="fill:none;stroke:red;stroke-width:1px;stroke-linecap:butt;stroke-linejoin:miter;stroke-opacity:1" d="M 361.276,384.64 370.037,379.772 z" id="boundary" inkscape:connector-curvature="0" />
	<path style="fill:none;stroke:red;stroke-width:1px;stroke-linecap:butt;stroke-linejoin:miter;stroke-opacity:1" d="M 378.799,374.905 370.037,379.772 z" id="boundary" inkscape:connector-curvature="0" />
	<path style="fill:none;stroke:red;stroke-width:1px;stroke-linecap:butt;stroke-linejoin:miter;stroke-opacity:1" d="M 387.56,369.064 378.799,374.905 z" id="boundary" inkscape:connector-curvature="0" />
	<path style="fill:none;stroke:red;stroke-width:1px;stroke-linecap:butt;stroke-linejoin:miter;stroke-opacity:1" d="M 394.375,411.898 385.613,416.765 z" id="boundary" inkscape:connector-curvature="0" />
	<path style="fill:none;stroke:red;stroke-width:1px;stroke-linecap:butt;stroke-linejoin:miter;stroke-opacity:1" d="M 343.753,394.375 352.514,389.507 z" id="boundary" inkscape:connector-curvature="0" />
	<path style="fill:none;stroke:red;stroke-width:1px;stroke-linecap:butt;stroke-linejoin:miter;stroke-opacity:1" d="M 376.852,422.606 368.09,427.474 z" id="boundary" inkscape:connector-curvature="0" />
	<path style="fill:none;stroke:red;stroke-width:1px;stroke-linecap:butt;stroke-linejoin:miter;stroke-opacity:1" d="M 376.852,422.606 385.613,416.765 z" id="boundary" inkscape:connector-curvature="0" />
	<path style="fill:none;stroke:red;stroke-width:1px;stroke-linecap:butt;stroke-linejoin:miter;stroke-opacity:1" d="M 352.514,389.507 361.276,384.64 z" id="boundary" inkscape:connector-curvature="0" />
	<path style="fill:none;stroke:red;stroke-width:1px;stroke-linecap:butt;stroke-linejoin:miter;stroke-opacity:1" d="M 368.09,427.474 359.329,432.342 z" id="boundary" inkscape:connector-curvature="0" />
	<path style="fill:none;stroke:red;stroke-width:1px;stroke-linecap:butt;stroke-linejoin:miter;stroke-opacity:1" d="M 256.137,445.971 264.899,440.13 z" id="boundary" inkscape:connector-curvature="0" />
	<path style="fill:none;stroke:red;stroke-width:1px;stroke-linecap:butt;stroke-linejoin:miter;stroke-opacity:1" d="M 256.137,445.971 247.376,450.838 z" id="boundary" inkscape:connector-curvature="0" />
	<path style="fill:none;stroke:red;stroke-width:1px;stroke-linecap:butt;stroke-linejoin:miter;stroke-opacity:1" d="M 273.66,435.262 264.899,440.13 z" id="boundary" inkscape:connector-curvature="0" />
	<path style="fill:none;stroke:red;stroke-width:1px;stroke-linecap:butt;stroke-linejoin:miter;stroke-opacity:1" d="M 221.091,465.441 229.853,460.573 z" id="boundary" inkscape:connector-curvature="0" />
	<path style="fill:none;stroke:red;stroke-width:1px;stroke-linecap:butt;stroke-linejoin:miter;stroke-opacity:1" d="M 238.614,455.706 247.376,450.838 z" id="boundary" inkscape:connector-curvature="0" />
	<path style="fill:none;stroke:red;stroke-width:1px;stroke-linecap:butt;stroke-linejoin:miter;stroke-opacity:1" d="M 238.614,455.706 229.853,460.573 z" id="boundary" inkscape:connector-curvature="0" />
	<path style="fill:none;stroke:red;stroke-width:1px;stroke-linecap:butt;stroke-linejoin:miter;stroke-opacity:1" d="M 333.044,447.918 324.283,452.785 z" id="boundary" inkscape:connector-curvature="0" />
	<path style="fill:none;stroke:red;stroke-width:1px;stroke-linecap:butt;stroke-linejoin:miter;stroke-opacity:1" d="M 341.806,443.05 333.044,447.918 z" id="boundary" inkscape:connector-curvature="0" />
	<path style="fill:none;stroke:red;stroke-width:1px;stroke-linecap:butt;stroke-linejoin:miter;stroke-opacity:1" d="M 350.567,437.209 359.329,432.342 z" id="boundary" inkscape:connector-curvature="0" />
	<path style="fill:none;stroke:red;stroke-width:1px;stroke-linecap:butt;stroke-linejoin:miter;stroke-opacity:1" d="M 341.806,443.05 350.567,437.209 z" id="boundary" inkscape:connector-curvature="0" />
	<path style="fill:none;stroke:red;stroke-width:1px;stroke-linecap:butt;stroke-linejoin:miter;stroke-opacity:1" d="M 306.76,462.52 315.521,457.653 z" id="boundary" inkscape:connector-curvature="0" />
	<path style="fill:none;stroke:red;stroke-width:1px;stroke-linecap:butt;stroke-linejoin:miter;stroke-opacity:1" d="M 297.998,468.361 306.76,462.52 z" id="boundary" inkscape:connector-curvature="0" />
	<path style="fill:none;stroke:red;stroke-width:1px;stroke-linecap:butt;stroke-linejoin:miter;stroke-opacity:1" d="M 324.283,452.785 315.521,457.653 z" id="boundary" inkscape:connector-curvature="0" />
	<path style="fill:none;stroke:red;stroke-width:1px;stroke-linecap:butt;stroke-linejoin:miter;stroke-opacity:1" d="M 273.66,435.262 282.422,430.395 z" id="boundary" inkscape:connector-curvature="0" />
	<path style="fill:none;stroke:red;stroke-width:1px;stroke-linecap:butt;stroke-linejoin:miter;stroke-opacity:1" d="M 440.13,337.912 448.891,333.044 z" id="boundary" inkscape:connector-curvature="0" />
	<path style="fill:none;stroke:red;stroke-width:1px;stroke-linecap:butt;stroke-linejoin:miter;stroke-opacity:1" d="M 457.653,328.177 448.891,333.044 z" id="boundary" inkscape:connector-curvature="0" />
	<path style="fill:none;stroke:red;stroke-width:1px;stroke-linecap:butt;stroke-linejoin:miter;stroke-opacity:1" d="M 466.414,323.309 457.653,328.177 z" id="boundary" inkscape:connector-curvature="0" />
	<path style="fill:none;stroke:red;stroke-width:1px;stroke-linecap:butt;stroke-linejoin:miter;stroke-opacity:1" d="M 475.176,317.468 466.414,323.309 z" id="boundary" inkscape:connector-curvature="0" />
	<path style="fill:none;stroke:red;stroke-width:1px;stroke-linecap:butt;stroke-linejoin:miter;stroke-opacity:1" d="M 431.368,342.779 440.13,337.912 z" id="boundary" inkscape:connector-curvature="0" />
	<path style="fill:none;stroke:red;stroke-width:1px;stroke-linecap:butt;stroke-linejoin:miter;stroke-opacity:1" d="M 422.606,348.62 413.845,354.461 z" id="boundary" inkscape:connector-curvature="0" />
	<path style="fill:none;stroke:red;stroke-width:1px;stroke-linecap:butt;stroke-linejoin:miter;stroke-opacity:1" d="M 413.845,354.461 405.083,359.329 z" id="boundary" inkscape:connector-curvature="0" />
	<path style="fill:none;stroke:red;stroke-width:1px;stroke-linecap:butt;stroke-linejoin:miter;stroke-opacity:1" d="M 422.606,348.62 431.368,342.779 z" id="boundary" inkscape:connector-curvature="0" />
	<path style="fill:none;stroke:red;stroke-width:1px;stroke-linecap:butt;stroke-linejoin:miter;stroke-opacity:1" d="M 483.937,312.601 492.699,307.733 z" id="boundary" inkscape:connector-curvature="0" />
	<path style="fill:none;stroke:red;stroke-width:1px;stroke-linecap:butt;stroke-linejoin:miter;stroke-opacity:1" d="M 526.771,334.991 518.01,340.832 z" id="boundary" inkscape:connector-curvature="0" />
	<path style="fill:none;stroke:red;stroke-width:1px;stroke-linecap:butt;stroke-linejoin:miter;stroke-opacity:1" d="M 510.222,297.998 501.46,302.866 z" id="boundary" inkscape:connector-curvature="0" />
	<path style="fill:none;stroke:red;stroke-width:1px;stroke-linecap:butt;stroke-linejoin:miter;stroke-opacity:1" d="M 501.46,302.866 492.699,307.733 z" id="boundary" inkscape:connector-curvature="0" />
	<path style="fill:none;stroke:red;stroke-width:1px;stroke-linecap:butt;stroke-linejoin:miter;stroke-opacity:1" d="M 475.176,317.468 483.937,312.601 z" id="boundary" inkscape:connector-curvature="0" />
	<path style="fill:none;stroke:red;stroke-width:1px;stroke-linecap:butt;stroke-linejoin:miter;stroke-opacity:1" d="M 509.248,345.7 518.01,340.832 z" id="boundary" inkscape:connector-curvature="0" />
	<path style="fill:none;stroke:red;stroke-width:1px;stroke-linecap:butt;stroke-linejoin:miter;stroke-opacity:1" d="M 509.248,345.7 500.487,350.567 z" id="boundary" inkscape:connector-curvature="0" />
	<path style="fill:none;stroke:red;stroke-width:1px;stroke-linecap:butt;stroke-linejoin:miter;stroke-opacity:1" d="M 491.725,356.408 500.487,350.567 z" id="boundary" inkscape:connector-curvature="0" />
	<path style="fill:none;stroke:red;stroke-width:1px;stroke-linecap:butt;stroke-linejoin:miter;stroke-opacity:1" d="M 387.56,369.064 396.322,364.196 z" id="boundary" inkscape:connector-curvature="0" />
	<path style="fill:none;stroke:red;stroke-width:1px;stroke-linecap:butt;stroke-linejoin:miter;stroke-opacity:1" d="M 405.083,359.329 396.322,364.196 z" id="boundary" inkscape:connector-curvature="0" />
	<path style="fill:none;stroke:red;stroke-width:1px;stroke-linecap:butt;stroke-linejoin:miter;stroke-opacity:1" d="M 394.375,411.898 403.136,406.057 z" id="boundary" inkscape:connector-curvature="0" />
	<path style="fill:none;stroke:red;stroke-width:1px;stroke-linecap:butt;stroke-linejoin:miter;stroke-opacity:1" d="M 403.136,406.057 411.898,401.189 z" id="boundary" inkscape:connector-curvature="0" />
	<path style="fill:none;stroke:red;stroke-width:1px;stroke-linecap:butt;stroke-linejoin:miter;stroke-opacity:1" d="M 411.898,401.189 420.659,396.322 z" id="boundary" inkscape:connector-curvature="0" />
	<path style="fill:none;stroke:red;stroke-width:1px;stroke-linecap:butt;stroke-linejoin:miter;stroke-opacity:1" d="M 420.659,396.322 429.421,391.454 z" id="boundary" inkscape:connector-curvature="0" />
	<path style="fill:none;stroke:red;stroke-width:1px;stroke-linecap:butt;stroke-linejoin:miter;stroke-opacity:1" d="M 456.679,375.878 465.441,371.011 z" id="boundary" inkscape:connector-curvature="0" />
	<path style="fill:none;stroke:red;stroke-width:1px;stroke-linecap:butt;stroke-linejoin:miter;stroke-opacity:1" d="M 456.679,375.878 447.918,380.746 z" id="boundary" inkscape:connector-curvature="0" />
	<path style="fill:none;stroke:red;stroke-width:1px;stroke-linecap:butt;stroke-linejoin:miter;stroke-opacity:1" d="M 474.202,366.143 482.964,361.276 z" id="boundary" inkscape:connector-curvature="0" />
	<path style="fill:none;stroke:red;stroke-width:1px;stroke-linecap:butt;stroke-linejoin:miter;stroke-opacity:1" d="M 474.202,366.143 465.441,371.011 z" id="boundary" inkscape:connector-curvature="0" />
	<path style="fill:none;stroke:red;stroke-width:1px;stroke-linecap:butt;stroke-linejoin:miter;stroke-opacity:1" d="M 429.421,391.454 438.183,385.613 z" id="boundary" inkscape:connector-curvature="0" />
	<path style="fill:none;stroke:red;stroke-width:1px;stroke-linecap:butt;stroke-linejoin:miter;stroke-opacity:1" d="M 438.183,385.613 447.918,380.746 z" id="boundary" inkscape:connector-curvature="0" />
	<path style="fill:none;stroke:red;stroke-width:1px;stroke-linecap:butt;stroke-linejoin:miter;stroke-opacity:1" d="M 491.725,356.408 482.964,361.276 z" id="boundary" inkscape:connector-curvature="0" />
	<path style="fill:none;stroke:red;stroke-width:1px;stroke-linecap:butt;stroke-linejoin:miter;stroke-opacity:1" d="M 221.091,465.441 212.33,470.308 z" id="boundary" inkscape:connector-curvature="0" />
	<path style="fill:none;stroke:red;stroke-width:1px;stroke-linecap:butt;stroke-linejoin:miter;stroke-opacity:1" d="M 64.3572,557.923 72.1452,551.109 z" id="boundary" inkscape:connector-curvature="0" />
	<path style="fill:none;stroke:red;stroke-width:1px;stroke-linecap:butt;stroke-linejoin:miter;stroke-opacity:1" d="M 64.3572,557.923 56.5692,563.764 z" id="boundary" inkscape:connector-curvature="0" />
	<path style="fill:none;stroke:red;stroke-width:1px;stroke-linecap:butt;stroke-linejoin:miter;stroke-opacity:1" d="M 80.9068,546.241 72.1452,551.109 z" id="boundary" inkscape:connector-curvature="0" />
	<path style="fill:none;stroke:red;stroke-width:1px;stroke-linecap:butt;stroke-linejoin:miter;stroke-opacity:1" d="M 89.6683,540.4 80.9068,546.241 z" id="boundary" inkscape:connector-curvature="0" />
	<path style="fill:none;stroke:red;stroke-width:1px;stroke-linecap:butt;stroke-linejoin:miter;stroke-opacity:1" d="M 31.2581,579.341 40.0196,574.473 z" id="boundary" inkscape:connector-curvature="0" />
	<path style="fill:none;stroke:red;stroke-width:1px;stroke-linecap:butt;stroke-linejoin:miter;stroke-opacity:1" d="M 48.7812,569.605 56.5692,563.764 z" id="boundary" inkscape:connector-curvature="0" />
	<path style="fill:none;stroke:red;stroke-width:1px;stroke-linecap:butt;stroke-linejoin:miter;stroke-opacity:1" d="M 48.7812,569.605 40.0196,574.473 z" id="boundary" inkscape:connector-curvature="0" />
	<path style="fill:none;stroke:red;stroke-width:1px;stroke-linecap:butt;stroke-linejoin:miter;stroke-opacity:1" d="M 31.2581,579.341 21.5231,582.261 z" id="boundary" inkscape:connector-curvature="0" />
	<path style="fill:none;stroke:red;stroke-width:1px;stroke-linecap:butt;stroke-linejoin:miter;stroke-opacity:1" d="M 98.4298,535.533 107.191,530.665 z" id="boundary" inkscape:connector-curvature="0" />
	<path style="fill:none;stroke:red;stroke-width:1px;stroke-linecap:butt;stroke-linejoin:miter;stroke-opacity:1" d="M 107.191,530.665 115.953,525.798 z" id="boundary" inkscape:connector-curvature="0" />
	<path style="fill:none;stroke:red;stroke-width:1px;stroke-linecap:butt;stroke-linejoin:miter;stroke-opacity:1" d="M 124.714,520.93 115.953,525.798 z" id="boundary" inkscape:connector-curvature="0" />
	<path style="fill:none;stroke:red;stroke-width:1px;stroke-linecap:butt;stroke-linejoin:miter;stroke-opacity:1" d="M 131.529,563.764 122.767,568.632 z" id="boundary" inkscape:connector-curvature="0" />
	<path style="fill:none;stroke:red;stroke-width:1px;stroke-linecap:butt;stroke-linejoin:miter;stroke-opacity:1" d="M 114.006,573.5 105.244,578.367 z" id="boundary" inkscape:connector-curvature="0" />
	<path style="fill:none;stroke:red;stroke-width:1px;stroke-linecap:butt;stroke-linejoin:miter;stroke-opacity:1" d="M 114.006,573.5 122.767,568.632 z" id="boundary" inkscape:connector-curvature="0" />
	<path style="fill:none;stroke:red;stroke-width:1px;stroke-linecap:butt;stroke-linejoin:miter;stroke-opacity:1" d="M 89.6683,540.4 98.4298,535.533 z" id="boundary" inkscape:connector-curvature="0" />
	<path style="fill:none;stroke:red;stroke-width:1px;stroke-linecap:butt;stroke-linejoin:miter;stroke-opacity:1" d="M 105.244,578.367 96.4828,583.235 z" id="boundary" inkscape:connector-curvature="0" />
	<path style="fill:none;stroke:red;stroke-width:1px;stroke-linecap:butt;stroke-linejoin:miter;stroke-opacity:1" d="M 4.9735,602.705 4,592.97 z" id="boundary" inkscape:connector-curvature="0" />
	<path style="fill:none;stroke:red;stroke-width:1px;stroke-linecap:butt;stroke-linejoin:miter;stroke-opacity:1" d="M 4,592.97 11.788,585.182 z" id="boundary" inkscape:connector-curvature="0" />
	<path style="fill:none;stroke:red;stroke-width:1px;stroke-linecap:butt;stroke-linejoin:miter;stroke-opacity:1" d="M 21.5231,582.261 11.788,585.182 z" id="boundary" inkscape:connector-curvature="0" />
	<path style="fill:none;stroke:red;stroke-width:1px;stroke-linecap:butt;stroke-linejoin:miter;stroke-opacity:1" d="M 8.86752,612.44 4.9735,602.705 z" id="boundary" inkscape:connector-curvature="0" />
	<path style="fill:none;stroke:red;stroke-width:1px;stroke-linecap:butt;stroke-linejoin:miter;stroke-opacity:1" d="M 34.1786,617.307 25.4171,622.175 z" id="boundary" inkscape:connector-curvature="0" />
	<path style="fill:none;stroke:red;stroke-width:1px;stroke-linecap:butt;stroke-linejoin:miter;stroke-opacity:1" d="M 25.4171,622.175 15.682,620.228 z" id="boundary" inkscape:connector-curvature="0" />
	<path style="fill:none;stroke:red;stroke-width:1px;stroke-linecap:butt;stroke-linejoin:miter;stroke-opacity:1" d="M 15.682,620.228 8.86752,612.44 z" id="boundary" inkscape:connector-curvature="0" />
	<path style="fill:none;stroke:red;stroke-width:1px;stroke-linecap:butt;stroke-linejoin:miter;stroke-opacity:1" d="M 67.2777,593.943 77.0128,591.023 z" id="boundary" inkscape:connector-curvature="0" />
	<path style="fill:none;stroke:red;stroke-width:1px;stroke-linecap:butt;stroke-linejoin:miter;stroke-opacity:1" d="M 58.5162,598.811 67.2777,593.943 z" id="boundary" inkscape:connector-curvature="0" />
	<path style="fill:none;stroke:red;stroke-width:1px;stroke-linecap:butt;stroke-linejoin:miter;stroke-opacity:1" d="M 86.7478,588.102 96.4828,583.235 z" id="boundary" inkscape:connector-curvature="0" />
	<path style="fill:none;stroke:red;stroke-width:1px;stroke-linecap:butt;stroke-linejoin:miter;stroke-opacity:1" d="M 86.7478,588.102 77.0128,591.023 z" id="boundary" inkscape:connector-curvature="0" />
	<path style="fill:none;stroke:red;stroke-width:1px;stroke-linecap:butt;stroke-linejoin:miter;stroke-opacity:1" d="M 34.1786,617.307 41.9666,611.466 z" id="boundary" inkscape:connector-curvature="0" />
	<path style="fill:none;stroke:red;stroke-width:1px;stroke-linecap:butt;stroke-linejoin:miter;stroke-opacity:1" d="M 49.7547,604.652 58.5162,598.811 z" id="boundary" inkscape:connector-curvature="0" />
	<path style="fill:none;stroke:red;stroke-width:1px;stroke-linecap:butt;stroke-linejoin:miter;stroke-opacity:1" d="M 41.9666,611.466 49.7547,604.652 z" id="boundary" inkscape:connector-curvature="0" />
	<path style="fill:none;stroke:red;stroke-width:1px;stroke-linecap:butt;stroke-linejoin:miter;stroke-opacity:1" d="M 194.807,481.017 203.568,475.176 z" id="boundary" inkscape:connector-curvature="0" />
	<path style="fill:none;stroke:red;stroke-width:1px;stroke-linecap:butt;stroke-linejoin:miter;stroke-opacity:1" d="M 194.807,481.017 186.045,485.884 z" id="boundary" inkscape:connector-curvature="0" />
	<path style="fill:none;stroke:red;stroke-width:1px;stroke-linecap:butt;stroke-linejoin:miter;stroke-opacity:1" d="M 212.33,470.308 203.568,475.176 z" id="boundary" inkscape:connector-curvature="0" />
	<path style="fill:none;stroke:red;stroke-width:1px;stroke-linecap:butt;stroke-linejoin:miter;stroke-opacity:1" d="M 159.761,500.487 168.522,495.619 z" id="boundary" inkscape:connector-curvature="0" />
	<path style="fill:none;stroke:red;stroke-width:1px;stroke-linecap:butt;stroke-linejoin:miter;stroke-opacity:1" d="M 177.284,490.752 186.045,485.884 z" id="boundary" inkscape:connector-curvature="0" />
	<path style="fill:none;stroke:red;stroke-width:1px;stroke-linecap:butt;stroke-linejoin:miter;stroke-opacity:1" d="M 177.284,490.752 168.522,495.619 z" id="boundary" inkscape:connector-curvature="0" />
	<path style="fill:none;stroke:red;stroke-width:1px;stroke-linecap:butt;stroke-linejoin:miter;stroke-opacity:1" d="M 271.713,483.937 280.475,478.096 z" id="boundary" inkscape:connector-curvature="0" />
	<path style="fill:none;stroke:red;stroke-width:1px;stroke-linecap:butt;stroke-linejoin:miter;stroke-opacity:1" d="M 280.475,478.096 289.237,473.229 z" id="boundary" inkscape:connector-curvature="0" />
	<path style="fill:none;stroke:red;stroke-width:1px;stroke-linecap:butt;stroke-linejoin:miter;stroke-opacity:1" d="M 262.952,488.805 254.19,493.672 z" id="boundary" inkscape:connector-curvature="0" />
	<path style="fill:none;stroke:red;stroke-width:1px;stroke-linecap:butt;stroke-linejoin:miter;stroke-opacity:1" d="M 289.237,473.229 297.998,468.361 z" id="boundary" inkscape:connector-curvature="0" />
	<path style="fill:none;stroke:red;stroke-width:1px;stroke-linecap:butt;stroke-linejoin:miter;stroke-opacity:1" d="M 236.667,503.407 245.429,498.54 z" id="boundary" inkscape:connector-curvature="0" />
	<path style="fill:none;stroke:red;stroke-width:1px;stroke-linecap:butt;stroke-linejoin:miter;stroke-opacity:1" d="M 254.19,493.672 245.429,498.54 z" id="boundary" inkscape:connector-curvature="0" />
	<path style="fill:none;stroke:red;stroke-width:1px;stroke-linecap:butt;stroke-linejoin:miter;stroke-opacity:1" d="M 262.952,488.805 271.713,483.937 z" id="boundary" inkscape:connector-curvature="0" />
	<path style="fill:none;stroke:red;stroke-width:1px;stroke-linecap:butt;stroke-linejoin:miter;stroke-opacity:1" d="M 236.667,503.407 227.906,508.275 z" id="boundary" inkscape:connector-curvature="0" />
	<path style="fill:none;stroke:red;stroke-width:1px;stroke-linecap:butt;stroke-linejoin:miter;stroke-opacity:1" d="M 133.476,516.063 142.237,511.195 z" id="boundary" inkscape:connector-curvature="0" />
	<path style="fill:none;stroke:red;stroke-width:1px;stroke-linecap:butt;stroke-linejoin:miter;stroke-opacity:1" d="M 150.999,506.328 142.237,511.195 z" id="boundary" inkscape:connector-curvature="0" />
	<path style="fill:none;stroke:red;stroke-width:1px;stroke-linecap:butt;stroke-linejoin:miter;stroke-opacity:1" d="M 159.761,500.487 150.999,506.328 z" id="boundary" inkscape:connector-curvature="0" />
	<path style="fill:none;stroke:red;stroke-width:1px;stroke-linecap:butt;stroke-linejoin:miter;stroke-opacity:1" d="M 166.575,543.321 157.814,549.162 z" id="boundary" inkscape:connector-curvature="0" />
	<path style="fill:none;stroke:red;stroke-width:1px;stroke-linecap:butt;stroke-linejoin:miter;stroke-opacity:1" d="M 131.529,563.764 140.29,558.897 z" id="boundary" inkscape:connector-curvature="0" />
	<path style="fill:none;stroke:red;stroke-width:1px;stroke-linecap:butt;stroke-linejoin:miter;stroke-opacity:1" d="M 149.052,554.029 157.814,549.162 z" id="boundary" inkscape:connector-curvature="0" />
	<path style="fill:none;stroke:red;stroke-width:1px;stroke-linecap:butt;stroke-linejoin:miter;stroke-opacity:1" d="M 149.052,554.029 140.29,558.897 z" id="boundary" inkscape:connector-curvature="0" />
	<path style="fill:none;stroke:red;stroke-width:1px;stroke-linecap:butt;stroke-linejoin:miter;stroke-opacity:1" d="M 124.714,520.93 133.476,516.063 z" id="boundary" inkscape:connector-curvature="0" />
	<path style="fill:none;stroke:red;stroke-width:1px;stroke-linecap:butt;stroke-linejoin:miter;stroke-opacity:1" d="M 201.621,523.851 210.383,518.01 z" id="boundary" inkscape:connector-curvature="0" />
	<path style="fill:none;stroke:red;stroke-width:1px;stroke-linecap:butt;stroke-linejoin:miter;stroke-opacity:1" d="M 210.383,518.01 219.144,513.142 z" id="boundary" inkscape:connector-curvature="0" />
	<path style="fill:none;stroke:red;stroke-width:1px;stroke-linecap:butt;stroke-linejoin:miter;stroke-opacity:1" d="M 192.86,528.718 184.098,533.586 z" id="boundary" inkscape:connector-curvature="0" />
	<path style="fill:none;stroke:red;stroke-width:1px;stroke-linecap:butt;stroke-linejoin:miter;stroke-opacity:1" d="M 219.144,513.142 227.906,508.275 z" id="boundary" inkscape:connector-curvature="0" />
	<path style="fill:none;stroke:red;stroke-width:1px;stroke-linecap:butt;stroke-linejoin:miter;stroke-opacity:1" d="M 166.575,543.321 175.337,538.453 z" id="boundary" inkscape:connector-curvature="0" />
	<path style="fill:none;stroke:red;stroke-width:1px;stroke-linecap:butt;stroke-linejoin:miter;stroke-opacity:1" d="M 184.098,533.586 175.337,538.453 z" id="boundary" inkscape:connector-curvature="0" />
	<path style="fill:none;stroke:red;stroke-width:1px;stroke-linecap:butt;stroke-linejoin:miter;stroke-opacity:1" d="M 192.86,528.718 201.621,523.851 z" id="boundary" inkscape:connector-curvature="0" />
	<path style="fill:none;stroke:red;stroke-width:1px;stroke-linecap:butt;stroke-linejoin:miter;stroke-opacity:1" d="M 796.432,45.8606 804.22,40.0196 z" id="boundary" inkscape:connector-curvature="0" />
	<path style="fill:none;stroke:red;stroke-width:1px;stroke-linecap:butt;stroke-linejoin:miter;stroke-opacity:1" d="M 804.22,40.0196 812.981,35.1521 z" id="boundary" inkscape:connector-curvature="0" />
	<path style="fill:none;stroke:red;stroke-width:1px;stroke-linecap:butt;stroke-linejoin:miter;stroke-opacity:1" d="M 788.644,52.6752 796.432,45.8606 z" id="boundary" inkscape:connector-curvature="0" />
	<path style="fill:none;stroke:red;stroke-width:1px;stroke-linecap:butt;stroke-linejoin:miter;stroke-opacity:1" d="M 758.465,80.9068 765.28,73.1187 z" id="boundary" inkscape:connector-curvature="0" />
	<path style="fill:none;stroke:red;stroke-width:1px;stroke-linecap:butt;stroke-linejoin:miter;stroke-opacity:1" d="M 765.28,73.1187 773.068,66.3042 z" id="boundary" inkscape:connector-curvature="0" />
	<path style="fill:none;stroke:red;stroke-width:1px;stroke-linecap:butt;stroke-linejoin:miter;stroke-opacity:1" d="M 780.856,59.4897 788.644,52.6752 z" id="boundary" inkscape:connector-curvature="0" />
	<path style="fill:none;stroke:red;stroke-width:1px;stroke-linecap:butt;stroke-linejoin:miter;stroke-opacity:1" d="M 780.856,59.4897 773.068,66.3042 z" id="boundary" inkscape:connector-curvature="0" />
	<path style="fill:none;stroke:red;stroke-width:1px;stroke-linecap:butt;stroke-linejoin:miter;stroke-opacity:1" d="M 858.736,12.7615 868.471,9.84102 z" id="boundary" inkscape:connector-curvature="0" />
	<path style="fill:none;stroke:red;stroke-width:1px;stroke-linecap:butt;stroke-linejoin:miter;stroke-opacity:1" d="M 849.001,16.6555 858.736,12.7615 z" id="boundary" inkscape:connector-curvature="0" />
	<path style="fill:none;stroke:red;stroke-width:1px;stroke-linecap:butt;stroke-linejoin:miter;stroke-opacity:1" d="M 839.266,20.5496 849.001,16.6555 z" id="boundary" inkscape:connector-curvature="0" />
	<path style="fill:none;stroke:red;stroke-width:1px;stroke-linecap:butt;stroke-linejoin:miter;stroke-opacity:1" d="M 830.504,25.4171 839.266,20.5496 z" id="boundary" inkscape:connector-curvature="0" />
	<path style="fill:none;stroke:red;stroke-width:1px;stroke-linecap:butt;stroke-linejoin:miter;stroke-opacity:1" d="M 821.743,30.2846 830.504,25.4171 z" id="boundary" inkscape:connector-curvature="0" />
	<path style="fill:none;stroke:red;stroke-width:1px;stroke-linecap:butt;stroke-linejoin:miter;stroke-opacity:1" d="M 812.981,35.1521 821.743,30.2846 z" id="boundary" inkscape:connector-curvature="0" />
	<path style="fill:none;stroke:red;stroke-width:1px;stroke-linecap:butt;stroke-linejoin:miter;stroke-opacity:1" d="M 708.816,146.132 702.975,154.893 z" id="boundary" inkscape:connector-curvature="0" />
	<path style="fill:none;stroke:red;stroke-width:1px;stroke-linecap:butt;stroke-linejoin:miter;stroke-opacity:1" d="M 702.975,154.893 697.134,162.681 z" id="boundary" inkscape:connector-curvature="0" />
	<path style="fill:none;stroke:red;stroke-width:1px;stroke-linecap:butt;stroke-linejoin:miter;stroke-opacity:1" d="M 708.816,146.132 714.658,137.37 z" id="boundary" inkscape:connector-curvature="0" />
	<path style="fill:none;stroke:red;stroke-width:1px;stroke-linecap:butt;stroke-linejoin:miter;stroke-opacity:1" d="M 671.823,193.833 678.638,186.045 z" id="boundary" inkscape:connector-curvature="0" />
	<path style="fill:none;stroke:red;stroke-width:1px;stroke-linecap:butt;stroke-linejoin:miter;stroke-opacity:1" d="M 685.452,178.257 691.293,170.469 z" id="boundary" inkscape:connector-curvature="0" />
	<path style="fill:none;stroke:red;stroke-width:1px;stroke-linecap:butt;stroke-linejoin:miter;stroke-opacity:1" d="M 685.452,178.257 678.638,186.045 z" id="boundary" inkscape:connector-curvature="0" />
	<path style="fill:none;stroke:red;stroke-width:1px;stroke-linecap:butt;stroke-linejoin:miter;stroke-opacity:1" d="M 697.134,162.681 691.293,170.469 z" id="boundary" inkscape:connector-curvature="0" />
	<path style="fill:none;stroke:red;stroke-width:1px;stroke-linecap:butt;stroke-linejoin:miter;stroke-opacity:1" d="M 732.181,113.032 738.022,105.244 z" id="boundary" inkscape:connector-curvature="0" />
	<path style="fill:none;stroke:red;stroke-width:1px;stroke-linecap:butt;stroke-linejoin:miter;stroke-opacity:1" d="M 744.836,97.4563 738.022,105.244 z" id="boundary" inkscape:connector-curvature="0" />
	<path style="fill:none;stroke:red;stroke-width:1px;stroke-linecap:butt;stroke-linejoin:miter;stroke-opacity:1" d="M 751.651,88.6948 744.836,97.4563 z" id="boundary" inkscape:connector-curvature="0" />
	<path style="fill:none;stroke:red;stroke-width:1px;stroke-linecap:butt;stroke-linejoin:miter;stroke-opacity:1" d="M 751.651,88.6948 758.465,80.9068 z" id="boundary" inkscape:connector-curvature="0" />
	<path style="fill:none;stroke:red;stroke-width:1px;stroke-linecap:butt;stroke-linejoin:miter;stroke-opacity:1" d="M 714.658,137.37 720.499,128.608 z" id="boundary" inkscape:connector-curvature="0" />
	<path style="fill:none;stroke:red;stroke-width:1px;stroke-linecap:butt;stroke-linejoin:miter;stroke-opacity:1" d="M 732.181,113.032 726.34,120.82 z" id="boundary" inkscape:connector-curvature="0" />
	<path style="fill:none;stroke:red;stroke-width:1px;stroke-linecap:butt;stroke-linejoin:miter;stroke-opacity:1" d="M 726.34,120.82 720.499,128.608 z" id="boundary" inkscape:connector-curvature="0" />
	<path style="fill:none;stroke:red;stroke-width:1px;stroke-linecap:butt;stroke-linejoin:miter;stroke-opacity:1" d="M 671.823,193.833 664.035,200.648 z" id="boundary" inkscape:connector-curvature="0" />
	<path style="fill:none;stroke:red;stroke-width:1px;stroke-linecap:butt;stroke-linejoin:miter;stroke-opacity:1" d="M 868.471,9.84102 878.206,7.89401 z" id="boundary" inkscape:connector-curvature="0" />
	<path style="fill:none;stroke:red;stroke-width:1px;stroke-linecap:butt;stroke-linejoin:miter;stroke-opacity:1" d="M 897.676,4.9735 907.411,4 z" id="boundary" inkscape:connector-curvature="0" />
	<path style="fill:none;stroke:red;stroke-width:1px;stroke-linecap:butt;stroke-linejoin:miter;stroke-opacity:1" d="M 907.411,4 917.146,4 z" id="boundary" inkscape:connector-curvature="0" />
	<path style="fill:none;stroke:red;stroke-width:1px;stroke-linecap:butt;stroke-linejoin:miter;stroke-opacity:1" d="M 887.941,5.94701 897.676,4.9735 z" id="boundary" inkscape:connector-curvature="0" />
	<path style="fill:none;stroke:red;stroke-width:1px;stroke-linecap:butt;stroke-linejoin:miter;stroke-opacity:1" d="M 917.146,4 926.881,4.9735 z" id="boundary" inkscape:connector-curvature="0" />
	<path style="fill:none;stroke:red;stroke-width:1px;stroke-linecap:butt;stroke-linejoin:miter;stroke-opacity:1" d="M 926.881,4.9735 936.616,6.92051 z" id="boundary" inkscape:connector-curvature="0" />
	<path style="fill:none;stroke:red;stroke-width:1px;stroke-linecap:butt;stroke-linejoin:miter;stroke-opacity:1" d="M 936.616,6.92051 946.351,10.8145 z" id="boundary" inkscape:connector-curvature="0" />
	<path style="fill:none;stroke:red;stroke-width:1px;stroke-linecap:butt;stroke-linejoin:miter;stroke-opacity:1" d="M 956.086,14.7085 963.874,20.5496 z" id="boundary" inkscape:connector-curvature="0" />
	<path style="fill:none;stroke:red;stroke-width:1px;stroke-linecap:butt;stroke-linejoin:miter;stroke-opacity:1" d="M 963.874,20.5496 971.662,26.3906 z" id="boundary" inkscape:connector-curvature="0" />
	<path style="fill:none;stroke:red;stroke-width:1px;stroke-linecap:butt;stroke-linejoin:miter;stroke-opacity:1" d="M 971.662,26.3906 979.45,33.2051 z" id="boundary" inkscape:connector-curvature="0" />
	<path style="fill:none;stroke:red;stroke-width:1px;stroke-linecap:butt;stroke-linejoin:miter;stroke-opacity:1" d="M 985.291,40.9931 990.159,49.7547 z" id="boundary" inkscape:connector-curvature="0" />
	<path style="fill:none;stroke:red;stroke-width:1px;stroke-linecap:butt;stroke-linejoin:miter;stroke-opacity:1" d="M 990.159,49.7547 993.079,59.4897 z" id="boundary" inkscape:connector-curvature="0" />
	<path style="fill:none;stroke:red;stroke-width:1px;stroke-linecap:butt;stroke-linejoin:miter;stroke-opacity:1" d="M 979.45,33.2051 985.291,40.9931 z" id="boundary" inkscape:connector-curvature="0" />
	<path style="fill:none;stroke:red;stroke-width:1px;stroke-linecap:butt;stroke-linejoin:miter;stroke-opacity:1" d="M 946.351,10.8145 956.086,14.7085 z" id="boundary" inkscape:connector-curvature="0" />
	<path style="fill:none;stroke:red;stroke-width:1px;stroke-linecap:butt;stroke-linejoin:miter;stroke-opacity:1" d="M 993.079,59.4897 996,69.2247 z" id="boundary" inkscape:connector-curvature="0" />
	<path style="fill:none;stroke:red;stroke-width:1px;stroke-linecap:butt;stroke-linejoin:miter;stroke-opacity:1" d="M 959.007,156.84 951.219,164.628 z" id="boundary" inkscape:connector-curvature="0" />
	<path style="fill:none;stroke:red;stroke-width:1px;stroke-linecap:butt;stroke-linejoin:miter;stroke-opacity:1" d="M 951.219,164.628 943.431,171.443 z" id="boundary" inkscape:connector-curvature="0" />
	<path style="fill:none;stroke:red;stroke-width:1px;stroke-linecap:butt;stroke-linejoin:miter;stroke-opacity:1" d="M 927.855,183.125 920.067,188.966 z" id="boundary" inkscape:connector-curvature="0" />
	<path style="fill:none;stroke:red;stroke-width:1px;stroke-linecap:butt;stroke-linejoin:miter;stroke-opacity:1" d="M 935.643,177.284 927.855,183.125 z" id="boundary" inkscape:connector-curvature="0" />
	<path style="fill:none;stroke:red;stroke-width:1px;stroke-linecap:butt;stroke-linejoin:miter;stroke-opacity:1" d="M 943.431,171.443 935.643,177.284 z" id="boundary" inkscape:connector-curvature="0" />
	<path style="fill:none;stroke:red;stroke-width:1px;stroke-linecap:butt;stroke-linejoin:miter;stroke-opacity:1" d="M 920.067,188.966 911.305,194.807 z" id="boundary" inkscape:connector-curvature="0" />
	<path style="fill:none;stroke:red;stroke-width:1px;stroke-linecap:butt;stroke-linejoin:miter;stroke-opacity:1" d="M 989.185,112.059 984.318,122.767 z" id="boundary" inkscape:connector-curvature="0" />
	<path style="fill:none;stroke:red;stroke-width:1px;stroke-linecap:butt;stroke-linejoin:miter;stroke-opacity:1" d="M 993.079,100.377 989.185,112.059 z" id="boundary" inkscape:connector-curvature="0" />
	<path style="fill:none;stroke:red;stroke-width:1px;stroke-linecap:butt;stroke-linejoin:miter;stroke-opacity:1" d="M 996,84.8008 993.079,100.377 z" id="boundary" inkscape:connector-curvature="0" />
	<path style="fill:none;stroke:red;stroke-width:1px;stroke-linecap:butt;stroke-linejoin:miter;stroke-opacity:1" d="M 996,69.2247 996,84.8008 z" id="boundary" inkscape:connector-curvature="0" />
	<path style="fill:none;stroke:red;stroke-width:1px;stroke-linecap:butt;stroke-linejoin:miter;stroke-opacity:1" d="M 972.636,140.29 966.795,148.079 z" id="boundary" inkscape:connector-curvature="0" />
	<path style="fill:none;stroke:red;stroke-width:1px;stroke-linecap:butt;stroke-linejoin:miter;stroke-opacity:1" d="M 978.477,132.502 972.636,140.29 z" id="boundary" inkscape:connector-curvature="0" />
	<path style="fill:none;stroke:red;stroke-width:1px;stroke-linecap:butt;stroke-linejoin:miter;stroke-opacity:1" d="M 984.318,122.767 978.477,132.502 z" id="boundary" inkscape:connector-curvature="0" />
	<path style="fill:none;stroke:red;stroke-width:1px;stroke-linecap:butt;stroke-linejoin:miter;stroke-opacity:1" d="M 966.795,148.079 959.007,156.84 z" id="boundary" inkscape:connector-curvature="0" />
	<path style="fill:none;stroke:red;stroke-width:1px;stroke-linecap:butt;stroke-linejoin:miter;stroke-opacity:1" d="M 878.206,7.89401 887.941,5.94701 z" id="boundary" inkscape:connector-curvature="0" />
	<path style="fill:none;stroke:red;stroke-width:1px;stroke-linecap:butt;stroke-linejoin:miter;stroke-opacity:1" d="M 911.305,194.807 902.544,199.674 z" id="boundary" inkscape:connector-curvature="0" />
	<path style="fill:none;stroke:red;stroke-width:1px;stroke-linecap:butt;stroke-linejoin:miter;stroke-opacity:1" d="M 580.314,258.084 589.076,253.217 z" id="boundary" inkscape:connector-curvature="0" />
	<path style="fill:none;stroke:red;stroke-width:1px;stroke-linecap:butt;stroke-linejoin:miter;stroke-opacity:1" d="M 597.837,248.349 589.076,253.217 z" id="boundary" inkscape:connector-curvature="0" />
	<path style="fill:none;stroke:red;stroke-width:1px;stroke-linecap:butt;stroke-linejoin:miter;stroke-opacity:1" d="M 545.268,277.554 554.029,272.687 z" id="boundary" inkscape:connector-curvature="0" />
	<path style="fill:none;stroke:red;stroke-width:1px;stroke-linecap:butt;stroke-linejoin:miter;stroke-opacity:1" d="M 562.791,267.819 554.029,272.687 z" id="boundary" inkscape:connector-curvature="0" />
	<path style="fill:none;stroke:red;stroke-width:1px;stroke-linecap:butt;stroke-linejoin:miter;stroke-opacity:1" d="M 562.791,267.819 571.553,262.952 z" id="boundary" inkscape:connector-curvature="0" />
	<path style="fill:none;stroke:red;stroke-width:1px;stroke-linecap:butt;stroke-linejoin:miter;stroke-opacity:1" d="M 580.314,258.084 571.553,262.952 z" id="boundary" inkscape:connector-curvature="0" />
	<path style="fill:none;stroke:red;stroke-width:1px;stroke-linecap:butt;stroke-linejoin:miter;stroke-opacity:1" d="M 651.38,265.872 641.645,269.766 z" id="boundary" inkscape:connector-curvature="0" />
	<path style="fill:none;stroke:red;stroke-width:1px;stroke-linecap:butt;stroke-linejoin:miter;stroke-opacity:1" d="M 631.91,226.932 624.122,232.773 z" id="boundary" inkscape:connector-curvature="0" />
	<path style="fill:none;stroke:red;stroke-width:1px;stroke-linecap:butt;stroke-linejoin:miter;stroke-opacity:1" d="M 631.91,226.932 640.671,221.091 z" id="boundary" inkscape:connector-curvature="0" />
	<path style="fill:none;stroke:red;stroke-width:1px;stroke-linecap:butt;stroke-linejoin:miter;stroke-opacity:1" d="M 656.247,207.462 648.459,215.25 z" id="boundary" inkscape:connector-curvature="0" />
	<path style="fill:none;stroke:red;stroke-width:1px;stroke-linecap:butt;stroke-linejoin:miter;stroke-opacity:1" d="M 648.459,215.25 640.671,221.091 z" id="boundary" inkscape:connector-curvature="0" />
	<path style="fill:none;stroke:red;stroke-width:1px;stroke-linecap:butt;stroke-linejoin:miter;stroke-opacity:1" d="M 606.599,243.482 597.837,248.349 z" id="boundary" inkscape:connector-curvature="0" />
	<path style="fill:none;stroke:red;stroke-width:1px;stroke-linecap:butt;stroke-linejoin:miter;stroke-opacity:1" d="M 606.599,243.482 615.36,238.614 z" id="boundary" inkscape:connector-curvature="0" />
	<path style="fill:none;stroke:red;stroke-width:1px;stroke-linecap:butt;stroke-linejoin:miter;stroke-opacity:1" d="M 624.122,232.773 615.36,238.614 z" id="boundary" inkscape:connector-curvature="0" />
	<path style="fill:none;stroke:red;stroke-width:1px;stroke-linecap:butt;stroke-linejoin:miter;stroke-opacity:1" d="M 641.645,269.766 632.883,274.634 z" id="boundary" inkscape:connector-curvature="0" />
	<path style="fill:none;stroke:red;stroke-width:1px;stroke-linecap:butt;stroke-linejoin:miter;stroke-opacity:1" d="M 632.883,274.634 624.122,279.501 z" id="boundary" inkscape:connector-curvature="0" />
	<path style="fill:none;stroke:red;stroke-width:1px;stroke-linecap:butt;stroke-linejoin:miter;stroke-opacity:1" d="M 536.506,282.422 527.745,288.263 z" id="boundary" inkscape:connector-curvature="0" />
	<path style="fill:none;stroke:red;stroke-width:1px;stroke-linecap:butt;stroke-linejoin:miter;stroke-opacity:1" d="M 527.745,288.263 518.983,293.131 z" id="boundary" inkscape:connector-curvature="0" />
	<path style="fill:none;stroke:red;stroke-width:1px;stroke-linecap:butt;stroke-linejoin:miter;stroke-opacity:1" d="M 518.983,293.131 510.222,297.998 z" id="boundary" inkscape:connector-curvature="0" />
	<path style="fill:none;stroke:red;stroke-width:1px;stroke-linecap:butt;stroke-linejoin:miter;stroke-opacity:1" d="M 535.533,330.124 544.294,325.256 z" id="boundary" inkscape:connector-curvature="0" />
	<path style="fill:none;stroke:red;stroke-width:1px;stroke-linecap:butt;stroke-linejoin:miter;stroke-opacity:1" d="M 535.533,330.124 526.771,334.991 z" id="boundary" inkscape:connector-curvature="0" />
	<path style="fill:none;stroke:red;stroke-width:1px;stroke-linecap:butt;stroke-linejoin:miter;stroke-opacity:1" d="M 544.294,325.256 553.056,320.389 z" id="boundary" inkscape:connector-curvature="0" />
	<path style="fill:none;stroke:red;stroke-width:1px;stroke-linecap:butt;stroke-linejoin:miter;stroke-opacity:1" d="M 561.817,315.521 553.056,320.389 z" id="boundary" inkscape:connector-curvature="0" />
	<path style="fill:none;stroke:red;stroke-width:1px;stroke-linecap:butt;stroke-linejoin:miter;stroke-opacity:1" d="M 597.837,295.078 589.076,299.945 z" id="boundary" inkscape:connector-curvature="0" />
	<path style="fill:none;stroke:red;stroke-width:1px;stroke-linecap:butt;stroke-linejoin:miter;stroke-opacity:1" d="M 615.36,285.342 624.122,279.501 z" id="boundary" inkscape:connector-curvature="0" />
	<path style="fill:none;stroke:red;stroke-width:1px;stroke-linecap:butt;stroke-linejoin:miter;stroke-opacity:1" d="M 606.599,290.21 597.837,295.078 z" id="boundary" inkscape:connector-curvature="0" />
	<path style="fill:none;stroke:red;stroke-width:1px;stroke-linecap:butt;stroke-linejoin:miter;stroke-opacity:1" d="M 589.076,299.945 580.314,305.786 z" id="boundary" inkscape:connector-curvature="0" />
	<path style="fill:none;stroke:red;stroke-width:1px;stroke-linecap:butt;stroke-linejoin:miter;stroke-opacity:1" d="M 561.817,315.521 571.553,310.654 z" id="boundary" inkscape:connector-curvature="0" />
	<path style="fill:none;stroke:red;stroke-width:1px;stroke-linecap:butt;stroke-linejoin:miter;stroke-opacity:1" d="M 536.506,282.422 545.268,277.554 z" id="boundary" inkscape:connector-curvature="0" />
	<path style="fill:none;stroke:red;stroke-width:1px;stroke-linecap:butt;stroke-linejoin:miter;stroke-opacity:1" d="M 580.314,305.786 571.553,310.654 z" id="boundary" inkscape:connector-curvature="0" />
	<path style="fill:none;stroke:red;stroke-width:1px;stroke-linecap:butt;stroke-linejoin:miter;stroke-opacity:1" d="M 606.599,290.21 615.36,285.342 z" id="boundary" inkscape:connector-curvature="0" />
	<path style="fill:none;stroke:red;stroke-width:1px;stroke-linecap:butt;stroke-linejoin:miter;stroke-opacity:1" d="M 656.247,207.462 664.035,200.648 z" id="boundary" inkscape:connector-curvature="0" />
	<path style="fill:none;stroke:red;stroke-width:1px;stroke-linecap:butt;stroke-linejoin:miter;stroke-opacity:1" d="M 817.849,228.879 808.114,231.8 z" id="boundary" inkscape:connector-curvature="0" />
	<path style="fill:none;stroke:red;stroke-width:1px;stroke-linecap:butt;stroke-linejoin:miter;stroke-opacity:1" d="M 827.584,227.906 817.849,228.879 z" id="boundary" inkscape:connector-curvature="0" />
	<path style="fill:none;stroke:red;stroke-width:1px;stroke-linecap:butt;stroke-linejoin:miter;stroke-opacity:1" d="M 785.723,237.641 798.379,234.72 z" id="boundary" inkscape:connector-curvature="0" />
	<path style="fill:none;stroke:red;stroke-width:1px;stroke-linecap:butt;stroke-linejoin:miter;stroke-opacity:1" d="M 808.114,231.8 798.379,234.72 z" id="boundary" inkscape:connector-curvature="0" />
	<path style="fill:none;stroke:red;stroke-width:1px;stroke-linecap:butt;stroke-linejoin:miter;stroke-opacity:1" d="M 827.584,227.906 837.319,229.853 z" id="boundary" inkscape:connector-curvature="0" />
	<path style="fill:none;stroke:red;stroke-width:1px;stroke-linecap:butt;stroke-linejoin:miter;stroke-opacity:1" d="M 748.73,249.323 738.995,251.27 z" id="boundary" inkscape:connector-curvature="0" />
	<path style="fill:none;stroke:red;stroke-width:1px;stroke-linecap:butt;stroke-linejoin:miter;stroke-opacity:1" d="M 874.312,213.303 884.047,209.409 z" id="boundary" inkscape:connector-curvature="0" />
	<path style="fill:none;stroke:red;stroke-width:1px;stroke-linecap:butt;stroke-linejoin:miter;stroke-opacity:1" d="M 893.782,204.542 884.047,209.409 z" id="boundary" inkscape:connector-curvature="0" />
	<path style="fill:none;stroke:red;stroke-width:1px;stroke-linecap:butt;stroke-linejoin:miter;stroke-opacity:1" d="M 874.312,213.303 864.577,217.197 z" id="boundary" inkscape:connector-curvature="0" />
	<path style="fill:none;stroke:red;stroke-width:1px;stroke-linecap:butt;stroke-linejoin:miter;stroke-opacity:1" d="M 837.319,229.853 845.107,223.038 z" id="boundary" inkscape:connector-curvature="0" />
	<path style="fill:none;stroke:red;stroke-width:1px;stroke-linecap:butt;stroke-linejoin:miter;stroke-opacity:1" d="M 845.107,223.038 854.842,220.118 z" id="boundary" inkscape:connector-curvature="0" />
	<path style="fill:none;stroke:red;stroke-width:1px;stroke-linecap:butt;stroke-linejoin:miter;stroke-opacity:1" d="M 854.842,220.118 864.577,217.197 z" id="boundary" inkscape:connector-curvature="0" />
	<path style="fill:none;stroke:red;stroke-width:1px;stroke-linecap:butt;stroke-linejoin:miter;stroke-opacity:1" d="M 902.544,199.674 893.782,204.542 z" id="boundary" inkscape:connector-curvature="0" />
	<path style="fill:none;stroke:red;stroke-width:1px;stroke-linecap:butt;stroke-linejoin:miter;stroke-opacity:1" d="M 690.32,256.137 680.585,256.137 z" id="boundary" inkscape:connector-curvature="0" />
	<path style="fill:none;stroke:red;stroke-width:1px;stroke-linecap:butt;stroke-linejoin:miter;stroke-opacity:1" d="M 709.79,254.19 700.055,258.084 z" id="boundary" inkscape:connector-curvature="0" />
	<path style="fill:none;stroke:red;stroke-width:1px;stroke-linecap:butt;stroke-linejoin:miter;stroke-opacity:1" d="M 700.055,258.084 690.32,256.137 z" id="boundary" inkscape:connector-curvature="0" />
	<path style="fill:none;stroke:red;stroke-width:1px;stroke-linecap:butt;stroke-linejoin:miter;stroke-opacity:1" d="M 651.38,265.872 661.115,261.005 z" id="boundary" inkscape:connector-curvature="0" />
	<path style="fill:none;stroke:red;stroke-width:1px;stroke-linecap:butt;stroke-linejoin:miter;stroke-opacity:1" d="M 661.115,261.005 670.85,257.111 z" id="boundary" inkscape:connector-curvature="0" />
	<path style="fill:none;stroke:red;stroke-width:1px;stroke-linecap:butt;stroke-linejoin:miter;stroke-opacity:1" d="M 670.85,257.111 680.585,256.137 z" id="boundary" inkscape:connector-curvature="0" />
	<path style="fill:none;stroke:red;stroke-width:1px;stroke-linecap:butt;stroke-linejoin:miter;stroke-opacity:1" d="M 709.79,254.19 719.525,255.164 z" id="boundary" inkscape:connector-curvature="0" />
	<path style="fill:none;stroke:red;stroke-width:1px;stroke-linecap:butt;stroke-linejoin:miter;stroke-opacity:1" d="M 768.2,247.376 758.465,251.27 z" id="boundary" inkscape:connector-curvature="0" />
	<path style="fill:none;stroke:red;stroke-width:1px;stroke-linecap:butt;stroke-linejoin:miter;stroke-opacity:1" d="M 758.465,251.27 748.73,249.323 z" id="boundary" inkscape:connector-curvature="0" />
	<path style="fill:none;stroke:red;stroke-width:1px;stroke-linecap:butt;stroke-linejoin:miter;stroke-opacity:1" d="M 768.2,247.376 777.935,243.482 z" id="boundary" inkscape:connector-curvature="0" />
	<path style="fill:none;stroke:red;stroke-width:1px;stroke-linecap:butt;stroke-linejoin:miter;stroke-opacity:1" d="M 777.935,243.482 785.723,237.641 z" id="boundary" inkscape:connector-curvature="0" />
	<path style="fill:none;stroke:red;stroke-width:1px;stroke-linecap:butt;stroke-linejoin:miter;stroke-opacity:1" d="M 719.525,255.164 729.26,252.243 z" id="boundary" inkscape:connector-curvature="0" />
	<path style="fill:none;stroke:red;stroke-width:1px;stroke-linecap:butt;stroke-linejoin:miter;stroke-opacity:1" d="M 729.26,252.243 738.995,251.27 z" id="boundary" inkscape:connector-curvature="0" />
	<circle cx="4" cy="592.97" r="4" fill="#0" id="circle0"/>
	<circle cx="4.9735" cy="602.705" r="4" fill="#0" id="circle1"/>
	<circle cx="8.86752" cy="612.44" r="4" fill="#0" id="circle2"/>
	<circle cx="11.788" cy="585.182" r="4" fill="#0" id="circle3"/>
	<circle cx="15.682" cy="620.228" r="4" fill="#0" id="circle4"/>
	<circle cx="21.5231" cy="582.261" r="4" fill="#0" id="circle5"/>
	<circle cx="25.4171" cy="622.175" r="4" fill="#0" id="circle6"/>
	<circle cx="31.2581" cy="579.341" r="4" fill="#0" id="circle7"/>
	<circle cx="34.1786" cy="617.307" r="4" fill="#0" id="circle8"/>
	<circle cx="40.0196" cy="574.473" r="4" fill="#0" id="circle9"/>
	<circle cx="41.9666" cy="611.466" r="4" fill="#0" id="circle10"/>
	<circle cx="48.7812" cy="569.605" r="4" fill="#0" id="circle11"/>
	<circle cx="49.7547" cy="604.652" r="4" fill="#0" id="circle12"/>
	<circle cx="56.5692" cy="563.764" r="4" fill="#0" id="circle13"/>
	<circle cx="58.5162" cy="598.811" r="4" fill="#0" id="circle14"/>
	<circle cx="64.3572" cy="557.923" r="4" fill="#0" id="circle15"/>
	<circle cx="67.2777" cy="593.943" r="4" fill="#0" id="circle16"/>
	<circle cx="72.1452" cy="551.109" r="4" fill="#0" id="circle17"/>
	<circle cx="77.0128" cy="591.023" r="4" fill="#0" id="circle18"/>
	<circle cx="80.9068" cy="546.241" r="4" fill="#0" id="circle19"/>
	<circle cx="86.7478" cy="588.102" r="4" fill="#0" id="circle20"/>
	<circle cx="89.6683" cy="540.4" r="4" fill="#0" id="circle21"/>
	<circle cx="96.4828" cy="583.235" r="4" fill="#0" id="circle22"/>
	<circle cx="98.4298" cy="535.533" r="4" fill="#0" id="circle23"/>
	<circle cx="105.244" cy="578.367" r="4" fill="#0" id="circle24"/>
	<circle cx="107.191" cy="530.665" r="4" fill="#0" id="circle25"/>
	<circle cx="114.006" cy="573.5" r="4" fill="#0" id="circle26"/>
	<circle cx="115.953" cy="525.798" r="4" fill="#0" id="circle27"/>
	<circle cx="122.767" cy="568.632" r="4" fill="#0" id="circle28"/>
	<circle cx="124.714" cy="520.93" r="4" fill="#0" id="circle29"/>
	<circle cx="131.529" cy="563.764" r="4" fill="#0" id="circle30"/>
	<circle cx="133.476" cy="516.063" r="4" fill="#0" id="circle31"/>
	<circle cx="140.29" cy="558.897" r="4" fill="#0" id="circle32"/>
	<circle cx="142.237" cy="511.195" r="4" fill="#0" id="circle33"/>
	<circle cx="149.052" cy="554.029" r="4" fill="#0" id="circle34"/>
	<circle cx="150.999" cy="506.328" r="4" fill="#0" id="circle35"/>
	<circle cx="157.814" cy="549.162" r="4" fill="#0" id="circle36"/>
	<circle cx="159.761" cy="500.487" r="4" fill="#0" id="circle37"/>
	<circle cx="166.575" cy="543.321" r="4" fill="#0" id="circle38"/>
	<circle cx="168.522" cy="495.619" r="4" fill="#0" id="circle39"/>
	<circle cx="175.337" cy="538.453" r="4" fill="#0" id="circle40"/>
	<circle cx="177.284" cy="490.752" r="4" fill="#0" id="circle41"/>
	<circle cx="184.098" cy="533.586" r="4" fill="#0" id="circle42"/>
	<circle cx="186.045" cy="485.884" r="4" fill="#0" id="circle43"/>
	<circle cx="192.86" cy="528.718" r="4" fill="#0" id="circle44"/>
	<circle cx="194.807" cy="481.017" r="4" fill="#0" id="circle45"/>
	<circle cx="201.621" cy="523.851" r="4" fill="#0" id="circle46"/>
	<circle cx="203.568" cy="475.176" r="4" fill="#0" id="circle47"/>
	<circle cx="210.383" cy="518.01" r="4" fill="#0" id="circle48"/>
	<circle cx="212.33" cy="470.308" r="4" fill="#0" id="circle49"/>
	<circle cx="219.144" cy="513.142" r="4" fill="#0" id="circle50"/>
	<circle cx="221.091" cy="465.441" r="4" fill="#0" id="circle51"/>
	<circle cx="227.906" cy="508.275" r="4" fill="#0" id="circle52"/>
	<circle cx="229.853" cy="460.573" r="4" fill="#0" id="circle53"/>
	<circle cx="236.667" cy="503.407" r="4" fill="#0" id="circle54"/>
	<circle cx="238.614" cy="455.706" r="4" fill="#0" id="circle55"/>
	<circle cx="245.429" cy="498.54" r="4" fill="#0" id="circle56"/>
	<circle cx="247.376" cy="450.838" r="4" fill="#0" id="circle57"/>
	<circle cx="254.19" cy="493.672" r="4" fill="#0" id="circle58"/>
	<circle cx="256.137" cy="445.971" r="4" fill="#0" id="circle59"/>
	<circle cx="262.952" cy="488.805" r="4" fill="#0" id="circle60"/>
	<circle cx="264.899" cy="440.13" r="4" fill="#0" id="circle61"/>
	<circle cx="271.713" cy="483.937" r="4" fill="#0" id="circle62"/>
	<circle cx="273.66" cy="435.262" r="4" fill="#0" id="circle63"/>
	<circle cx="280.475" cy="478.096" r="4" fill="#0" id="circle64"/>
	<circle cx="282.422" cy="430.395" r="4" fill="#0" id="circle65"/>
	<circle cx="289.237" cy="473.229" r="4" fill="#0" id="circle66"/>
	<circle cx="291.184" cy="425.527" r="4" fill="#0" id="circle67"/>
	<circle cx="297.998" cy="468.361" r="4" fill="#0" id="circle68"/>
	<circle cx="299.945" cy="420.659" r="4" fill="#0" id="circle69"/>
	<circle cx="306.76" cy="462.52" r="4" fill="#0" id="circle70"/>
	<circle cx="308.707" cy="415.792" r="4" fill="#0" id="circle71"/>
	<circle cx="315.521" cy="457.653" r="4" fill="#0" id="circle72"/>
	<circle cx="317.468" cy="409.951" r="4" fill="#0" id="circle73"/>
	<circle cx="324.283" cy="452.785" r="4" fill="#0" id="circle74"/>
	<circle cx="326.23" cy="405.083" r="4" fill="#0" id="circle75"/>
	<circle cx="333.044" cy="447.918" r="4" fill="#0" id="circle76"/>
	<circle cx="334.991" cy="400.216" r="4" fill="#0" id="circle77"/>
	<circle cx="341.806" cy="443.05" r="4" fill="#0" id="circle78"/>
	<circle cx="343.753" cy="394.375" r="4" fill="#0" id="circle79"/>
	<circle cx="350.567" cy="437.209" r="4" fill="#0" id="circle80"/>
	<circle cx="352.514" cy="389.507" r="4" fill="#0" id="circle81"/>
	<circle cx="359.329" cy="432.342" r="4" fill="#0" id="circle82"/>
	<circle cx="361.276" cy="384.64" r="4" fill="#0" id="circle83"/>
	<circle cx="368.09" cy="427.474" r="4" fill="#0" id="circle84"/>
	<circle cx="370.037" cy="379.772" r="4" fill="#0" id="circle85"/>
	<circle cx="376.852" cy="422.606" r="4" fill="#0" id="circle86"/>
	<circle cx="378.799" cy="374.905" r="4" fill="#0" id="circle87"/>
	<circle cx="385.613" cy="416.765" r="4" fill="#0" id="circle88"/>
	<circle cx="387.56" cy="369.064" r="4" fill="#0" id="circle89"/>
	<circle cx="394.375" cy="411.898" r="4" fill="#0" id="circle90"/>
	<circle cx="396.322" cy="364.196" r="4" fill="#0" id="circle91"/>
	<circle cx="403.136" cy="406.057" r="4" fill="#0" id="circle92"/>
	<circle cx="405.083" cy="359.329" r="4" fill="#0" id="circle93"/>
	<circle cx="411.898" cy="401.189" r="4" fill="#0" id="circle94"/>
	<circle cx="413.845" cy="354.461" r="4" fill="#0" id="circle95"/>
	<circle cx="420.659" cy="396.322" r="4" fill="#0" id="circle96"/>
	<circle cx="422.606" cy="348.62" r="4" fill="#0" id="circle97"/>
	<circle cx="429.421" cy="391.454" r="4" fill="#0" id="circle98"/>
	<circle cx="431.368" cy="342.779" r="4" fill="#0" id="circle99"/>
	<circle cx="438.183" cy="385.613" r="4" fill="#0" id="circle100"/>
	<circle cx="440.13" cy="337.912" r="4" fill="#0" id="circle101"/>
	<circle cx="447.918" cy="380.746" r="4" fill="#0" id="circle102"/>
	<circle cx="448.891" cy="333.044" r="4" fill="#0" id="circle103"/>
	<circle cx="456.679" cy="375.878" r="4" fill="#0" id="circle104"/>
	<circle cx="457.653" cy="328.177" r="4" fill="#0" id="circle105"/>
	<circle cx="465.441" cy="371.011" r="4" fill="#0" id="circle106"/>
	<circle cx="466.414" cy="323.309" r="4" fill="#0" id="circle107"/>
	<circle cx="474.202" cy="366.143" r="4" fill="#0" id="circle108"/>
	<circle cx="475.176" cy="317.468" r="4" fill="#0" id="circle109"/>
	<circle cx="482.964" cy="361.276" r="4" fill="#0" id="circle110"/>
	<circle cx="483.937" cy="312.601" r="4" fill="#0" id="circle111"/>
	<circle cx="491.725" cy="356.408" r="4" fill="#0" id="circle112"/>
	<circle cx="492.699" cy="307.733" r="4" fill="#0" id="circle113"/>
	<circle cx="500.487" cy="350.567" r="4" fill="#0" id="circle114"/>
	<circle cx="501.46" cy="302.866" r="4" fill="#0" id="circle115"/>
	<circle cx="509.248" cy="345.7" r="4" fill="#0" id="circle116"/>
	<circle cx="510.222" cy="297.998" r="4" fill="#0" id="circle117"/>
	<circle cx="518.01" cy="340.832" r="4" fill="#0" id="circle118"/>
	<circle cx="518.983" cy="293.131" r="4" fill="#0" id="circle119"/>
	<circle cx="526.771" cy="334.991" r="4" fill="#0" id="circle120"/>
	<circle cx="527.745" cy="288.263" r="4" fill="#0" id="circle121"/>
	<circle cx="535.533" cy="330.124" r="4" fill="#0" id="circle122"/>
	<circle cx="536.506" cy="282.422" r="4" fill="#0" id="circle123"/>
	<circle cx="544.294" cy="325.256" r="4" fill="#0" id="circle124"/>
	<circle cx="545.268" cy="277.554" r="4" fill="#0" id="circle125"/>
	<circle cx="553.056" cy="320.389" r="4" fill="#0" id="circle126"/>
	<circle cx="554.029" cy="272.687" r="4" fill="#0" id="circle127"/>
	<circle cx="561.817" cy="315.521" r="4" fill="#0" id="circle128"/>
	<circle cx="562.791" cy="267.819" r="4" fill="#0" id="circle129"/>
	<circle cx="571.553" cy="262.952" r="4" fill="#0" id="circle130"/>
	<circle cx="571.553" cy="310.654" r="4" fill="#0" id="circle131"/>
	<circle cx="580.314" cy="258.084" r="4" fill="#0" id="circle132"/>
	<circle cx="580.314" cy="305.786" r="4" fill="#0" id="circle133"/>
	<circle cx="589.076" cy="253.217" r="4" fill="#0" id="circle134"/>
	<circle cx="589.076" cy="299.945" r="4" fill="#0" id="circle135"/>
	<circle cx="597.837" cy="248.349" r="4" fill="#0" id="circle136"/>
	<circle cx="597.837" cy="295.078" r="4" fill="#0" id="circle137"/>
	<circle cx="606.599" cy="243.482" r="4" fill="#0" id="circle138"/>
	<circle cx="606.599" cy="290.21" r="4" fill="#0" id="circle139"/>
	<circle cx="615.36" cy="238.614" r="4" fill="#0" id="circle140"/>
	<circle cx="615.36" cy="285.342" r="4" fill="#0" id="circle141"/>
	<circle cx="624.122" cy="232.773" r="4" fill="#0" id="circle142"/>
	<circle cx="624.122" cy="279.501" r="4" fill="#0" id="circle143"/>
	<circle cx="631.91" cy="226.932" r="4" fill="#0" id="circle144"/>
	<circle cx="632.883" cy="274.634" r="4" fill="#0" id="circle145"/>
	<circle cx="640.671" cy="221.091" r="4" fill="#0" id="circle146"/>
	<circle cx="641.645" cy="269.766" r="4" fill="#0" id="circle147"/>
	<circle cx="648.459" cy="215.25" r="4" fill="#0" id="circle148"/>
	<circle cx="651.38" cy="265.872" r="4" fill="#0" id="circle149"/>
	<circle cx="656.247" cy="207.462" r="4" fill="#0" id="circle150"/>
	<circle cx="661.115" cy="261.005" r="4" fill="#0" id="circle151"/>
	<circle cx="664.035" cy="200.648" r="4" fill="#0" id="circle152"/>
	<circle cx="670.85" cy="257.111" r="4" fill="#0" id="circle153"/>
	<circle cx="671.823" cy="193.833" r="4" fill="#0" id="circle154"/>
	<circle cx="678.638" cy="186.045" r="4" fill="#0" id="circle155"/>
	<circle cx="680.585" cy="256.137" r="4" fill="#0" id="circle156"/>
	<circle cx="685.452" cy="178.257" r="4" fill="#0" id="circle157"/>
	<circle cx="690.32" cy="256.137" r="4" fill="#0" id="circle158"/>
	<circle cx="691.293" cy="170.469" r="4" fill="#0" id="circle159"/>
	<circle cx="697.134" cy="162.681" r="4" fill="#0" id="circle160"/>
	<circle cx="700.055" cy="258.084" r="4" fill="#0" id="circle161"/>
	<circle cx="702.975" cy="154.893" r="4" fill="#0" id="circle162"/>
	<circle cx="708.816" cy="146.132" r="4" fill="#0" id="circle163"/>
	<circle cx="709.79" cy="254.19" r="4" fill="#0" id="circle164"/>
	<circle cx="714.658" cy="137.37" r="4" fill="#0" id="circle165"/>
	<circle cx="719.525" cy="255.164" r="4" fill="#0" id="circle166"/>
	<circle cx="720.499" cy="128.608" r="4" fill="#0" id="circle167"/>
	<circle cx="726.34" cy="120.82" r="4" fill="#0" id="circle168"/>
	<circle cx="729.26" cy="252.243" r="4" fill="#0" id="circle169"/>
	<circle cx="732.181" cy="113.032" r="4" fill="#0" id="circle170"/>
	<circle cx="738.022" cy="105.244" r="4" fill="#0" id="circle171"/>
	<circle cx="738.995" cy="251.27" r="4" fill="#0" id="circle172"/>
	<circle cx="744.836" cy="97.4563" r="4" fill="#0" id="circle173"/>
	<circle cx="748.73" cy="249.323" r="4" fill="#0" id="circle174"/>
	<circle cx="751.651" cy="88.6948" r="4" fill="#0" id="circle175"/>
	<circle cx="758.465" cy="80.9068" r="4" fill="#0" id="circle176"/>
	<circle cx="758.465" cy="251.27" r="4" fill="#0" id="circle177"/>
	<circle cx="765.28" cy="73.1187" r="4" fill="#0" id="circle178"/>
	<circle cx="768.2" cy="247.376" r="4" fill="#0" id="circle179"/>
	<circle cx="773.068" cy="66.3042" r="4" fill="#0" id="circle180"/>
	<circle cx="777.935" cy="243.482" r="4" fill="#0" id="circle181"/>
	<circle cx="780.856" cy="59.4897" r="4" fill="#0" id="circle182"/>
	<circle cx="785.723" cy="237.641" r="4" fill="#0" id="circle183"/>
	<circle cx="788.644" cy="52.6752" r="4" fill="#0" id="circle184"/>
	<circle cx="793.511" cy="243.482" r="4" fill="#0" id="circle185"/>
	<circle cx="796.432" cy="45.8606" r="4" fill="#0" id="circle186"/>
	<circle cx="798.379" cy="234.72" r="4" fill="#0" id="circle187"/>
	<circle cx="804.22" cy="40.0196" r="4" fill="#0" id="circle188"/>
	<circle cx="808.114" cy="231.8" r="4" fill="#0" id="circle189"/>
	<circle cx="812.981" cy="35.1521" r="4" fill="#0" id="circle190"/>
	<circle cx="817.849" cy="228.879" r="4" fill="#0" id="circle191"/>
	<circle cx="821.743" cy="30.2846" r="4" fill="#0" id="circle192"/>
	<circle cx="827.584" cy="227.906" r="4" fill="#0" id="circle193"/>
	<circle cx="830.504" cy="25.4171" r="4" fill="#0" id="circle194"/>
	<circle cx="837.319" cy="229.853" r="4" fill="#0" id="circle195"/>
	<circle cx="839.266" cy="20.5496" r="4" fill="#0" id="circle196"/>
	<circle cx="845.107" cy="223.038" r="4" fill="#0" id="circle197"/>
	<circle cx="849.001" cy="16.6555" r="4" fill="#0" id="circle198"/>
	<circle cx="854.842" cy="220.118" r="4" fill="#0" id="circle199"/>
	<circle cx="858.736" cy="12.7615" r="4" fill="#0" id="circle200"/>
	<circle cx="864.577" cy="217.197" r="4" fill="#0" id="circle201"/>
	<circle cx="868.471" cy="9.84102" r="4" fill="#0" id="circle202"/>
	<circle cx="874.312" cy="213.303" r="4" fill="#0" id="circle203"/>
	<circle cx="878.206" cy="7.89401" r="4" fill="#0" id="circle204"/>
	<circle cx="884.047" cy="209.409" r="4" fill="#0" id="circle205"/>
	<circle cx="887.941" cy="5.94701" r="4" fill="#0" id="circle206"/>
	<circle cx="893.782" cy="204.542" r="4" fill="#0" id="circle207"/>
	<circle cx="897.676" cy="4.9735" r="4" fill="#0" id="circle208"/>
	<circle cx="902.544" cy="199.674" r="4" fill="#0" id="circle209"/>
	<circle cx="907.411" cy="4" r="4" fill="#0" id="circle210"/>
	<circle cx="911.305" cy="194.807" r="4" fill="#0" id="circle211"/>
	<circle cx="917.146" cy="4" r="4" fill="#0" id="circle212"/>
	<circle cx="920.067" cy="188.966" r="4" fill="#0" id="circle213"/>
	<circle cx="926.881" cy="4.9735" r="4" fill="#0" id="circle214"/>
	<circle cx="927.855" cy="183.125" r="4" fill="#0" id="circle215"/>
	<circle cx="935.643" cy="177.284" r="4" fill="#0" id="circle216"/>
	<circle cx="936.616" cy="6.92051" r="4" fill="#0" id="circle217"/>
	<circle cx="943.431" cy="171.443" r="4" fill="#0" id="circle218"/>
	<circle cx="946.351" cy="10.8145" r="4" fill="#0" id="circle219"/>
	<circle cx="951.219" cy="164.628" r="4" fill="#0" id="circle220"/>
	<circle cx="956.086" cy="14.7085" r="4" fill="#0" id="circle221"/>
	<circle cx="959.007" cy="156.84" r="4" fill="#0" id="circle222"/>
	<circle cx="962.901" cy="76.0393" r="4" fill="#0" id="circle223"/>
	<circle cx="963.874" cy="20.5496" r="4" fill="#0" id="circle224"/>
	<circle cx="966.795" cy="148.079" r="4" fill="#0" id="circle225"/>
	<circle cx="971.662" cy="26.3906" r="4" fill="#0" id="circle226"/>
	<circle cx="972.636" cy="140.29" r="4" fill="#0" id="circle227"/>
	<circle cx="978.477" cy="132.502" r="4" fill="#0" id="circle228"/>
	<circle cx="979.45" cy="33.2051" r="4" fill="#0" id="circle229"/>
	<circle cx="984.318" cy="122.767" r="4" fill="#0" id="circle230"/>
	<circle cx="985.291" cy="40.9931" r="4" fill="#0" id="circle231"/>
	<circle cx="989.185" cy="112.059" r="4" fill="#0" id="circle232"/>
	<circle cx="990.159" cy="49.7547" r="4" fill="#0" id="circle233"/>
	<circle cx="993.079" cy="59.4897" r="4" fill="#0" id="circle234"/>
	<circle cx="993.079" cy="100.377" r="4" fill="#0" id="circle235"/>
	<circle cx="996" cy="69.2247" r="4" fill="#0" id="circle236"/>
	<circle cx="996" cy="84.8008" r="4" fill="#0" id="circle237"/>
	</g>
</svg>