<?xml version="1.0" encoding="UTF-8" standalone="no"?>
<!-- Created with CurveBenchmark -->
<svg
	xmlns:dc="http://purl.org/dc/elements/1.1/"
	xmlns:cc="http://creativecommons.org/ns#"
	xmlns:rdf="http://www.w3.org/1999/02/22-rdf-syntax-ns#"
	xmlns:svg="http://www.w3.org/2000/svg"
	xmlns="http://www.w3.org/2000/svg"
	xmlns:sodipodi="http://sodipodi.sourceforge.net/DTD/sodipodi-0.dtd"
	xmlns:inkscape="http://www.inkscape.org/namespaces/inkscape"
	width="1000"
	height="1000"
	id="svg2"
	version="1.1"
	sodipodi:docname="manifold/gathan1-truck-20.png.txt">
<defs
	id="defs4" />
<metadata
	id="metadata7">
	<rdf:RDF>
		<cc:Work
			rdf:about="">
			<dc:format>image/svg+xml</dc:format>
			<dc:type
				rdf:resource="http://purl.org/dc/dcmitype/StillImage" />
			<dc:title></dc:title>
		</cc:Work>
	</rdf:RDF>
</metadata>
<g
	inkscape:label="Layer 1"
	inkscape:groupmode="layer"
	id="layer1">
	<path style="fill:none;stroke:red;stroke-width:1px;stroke-linecap:butt;stroke-linejoin:miter;stroke-opacity:1" d="M 65.4664,191.814 72.296,171.325 z" id="boundary" inkscape:connector-curvature="0" />
	<path style="fill:none;stroke:red;stroke-width:1px;stroke-linecap:butt;stroke-linejoin:miter;stroke-opacity:1" d="M 72.296,171.325 85.9552,157.666 z" id="boundary" inkscape:connector-curvature="0" />
	<path style="fill:none;stroke:red;stroke-width:1px;stroke-linecap:butt;stroke-linejoin:miter;stroke-opacity:1" d="M 65.4664,191.814 50.0998,200.351 z" id="boundary" inkscape:connector-curvature="0" />
	<path style="fill:none;stroke:red;stroke-width:1px;stroke-linecap:butt;stroke-linejoin:miter;stroke-opacity:1" d="M 21.074,222.547 34.7332,208.888 z" id="boundary" inkscape:connector-curvature="0" />
	<path style="fill:none;stroke:red;stroke-width:1px;stroke-linecap:butt;stroke-linejoin:miter;stroke-opacity:1" d="M 50.0998,200.351 34.7332,208.888 z" id="boundary" inkscape:connector-curvature="0" />
	<path style="fill:none;stroke:red;stroke-width:1px;stroke-linecap:butt;stroke-linejoin:miter;stroke-opacity:1" d="M 132.055,132.055 149.129,132.055 z" id="boundary" inkscape:connector-curvature="0" />
	<path style="fill:none;stroke:red;stroke-width:1px;stroke-linecap:butt;stroke-linejoin:miter;stroke-opacity:1" d="M 116.688,140.592 132.055,132.055 z" id="boundary" inkscape:connector-curvature="0" />
	<path style="fill:none;stroke:red;stroke-width:1px;stroke-linecap:butt;stroke-linejoin:miter;stroke-opacity:1" d="M 164.496,123.518 149.129,132.055 z" id="boundary" inkscape:connector-curvature="0" />
	<path style="fill:none;stroke:red;stroke-width:1px;stroke-linecap:butt;stroke-linejoin:miter;stroke-opacity:1" d="M 101.322,149.129 116.688,140.592 z" id="boundary" inkscape:connector-curvature="0" />
	<path style="fill:none;stroke:red;stroke-width:1px;stroke-linecap:butt;stroke-linejoin:miter;stroke-opacity:1" d="M 85.9552,157.666 101.322,149.129 z" id="boundary" inkscape:connector-curvature="0" />
	<path style="fill:none;stroke:red;stroke-width:1px;stroke-linecap:butt;stroke-linejoin:miter;stroke-opacity:1" d="M 4,256.695 12.537,239.621 z" id="boundary" inkscape:connector-curvature="0" />
	<path style="fill:none;stroke:red;stroke-width:1px;stroke-linecap:butt;stroke-linejoin:miter;stroke-opacity:1" d="M 17.6592,285.721 4,273.769 z" id="boundary" inkscape:connector-curvature="0" />
	<path style="fill:none;stroke:red;stroke-width:1px;stroke-linecap:butt;stroke-linejoin:miter;stroke-opacity:1" d="M 4,273.769 4,256.695 z" id="boundary" inkscape:connector-curvature="0" />
	<path style="fill:none;stroke:red;stroke-width:1px;stroke-linecap:butt;stroke-linejoin:miter;stroke-opacity:1" d="M 34.7332,287.429 17.6592,285.721 z" id="boundary" inkscape:connector-curvature="0" />
	<path style="fill:none;stroke:red;stroke-width:1px;stroke-linecap:butt;stroke-linejoin:miter;stroke-opacity:1" d="M 51.8072,287.429 34.7332,287.429 z" id="boundary" inkscape:connector-curvature="0" />
	<path style="fill:none;stroke:red;stroke-width:1px;stroke-linecap:butt;stroke-linejoin:miter;stroke-opacity:1" d="M 67.1738,278.892 51.8072,287.429 z" id="boundary" inkscape:connector-curvature="0" />
	<path style="fill:none;stroke:red;stroke-width:1px;stroke-linecap:butt;stroke-linejoin:miter;stroke-opacity:1" d="M 12.537,239.621 21.074,222.547 z" id="boundary" inkscape:connector-curvature="0" />
	<path style="fill:none;stroke:red;stroke-width:1px;stroke-linecap:butt;stroke-linejoin:miter;stroke-opacity:1" d="M 84.2478,278.892 101.322,278.892 z" id="boundary" inkscape:connector-curvature="0" />
	<path style="fill:none;stroke:red;stroke-width:1px;stroke-linecap:butt;stroke-linejoin:miter;stroke-opacity:1" d="M 118.396,278.892 101.322,278.892 z" id="boundary" inkscape:connector-curvature="0" />
	<path style="fill:none;stroke:red;stroke-width:1px;stroke-linecap:butt;stroke-linejoin:miter;stroke-opacity:1" d="M 84.2478,278.892 67.1738,278.892 z" id="boundary" inkscape:connector-curvature="0" />
	<path style="fill:none;stroke:red;stroke-width:1px;stroke-linecap:butt;stroke-linejoin:miter;stroke-opacity:1" d="M 135.47,278.892 118.396,278.892 z" id="boundary" inkscape:connector-curvature="0" />
	<path style="fill:none;stroke:red;stroke-width:1px;stroke-linecap:butt;stroke-linejoin:miter;stroke-opacity:1" d="M 265.232,106.444 282.306,106.444 z" id="boundary" inkscape:connector-curvature="0" />
	<path style="fill:none;stroke:red;stroke-width:1px;stroke-linecap:butt;stroke-linejoin:miter;stroke-opacity:1" d="M 248.158,114.981 265.232,106.444 z" id="boundary" inkscape:connector-curvature="0" />
	<path style="fill:none;stroke:red;stroke-width:1px;stroke-linecap:butt;stroke-linejoin:miter;stroke-opacity:1" d="M 299.38,106.444 282.306,106.444 z" id="boundary" inkscape:connector-curvature="0" />
	<path style="fill:none;stroke:red;stroke-width:1px;stroke-linecap:butt;stroke-linejoin:miter;stroke-opacity:1" d="M 333.528,106.444 316.454,106.444 z" id="boundary" inkscape:connector-curvature="0" />
	<path style="fill:none;stroke:red;stroke-width:1px;stroke-linecap:butt;stroke-linejoin:miter;stroke-opacity:1" d="M 350.602,106.444 333.528,106.444 z" id="boundary" inkscape:connector-curvature="0" />
	<path style="fill:none;stroke:red;stroke-width:1px;stroke-linecap:butt;stroke-linejoin:miter;stroke-opacity:1" d="M 299.38,106.444 316.454,106.444 z" id="boundary" inkscape:connector-curvature="0" />
	<path style="fill:none;stroke:red;stroke-width:1px;stroke-linecap:butt;stroke-linejoin:miter;stroke-opacity:1" d="M 418.898,106.444 401.824,106.444 z" id="boundary" inkscape:connector-curvature="0" />
	<path style="fill:none;stroke:red;stroke-width:1px;stroke-linecap:butt;stroke-linejoin:miter;stroke-opacity:1" d="M 482.072,85.9552 482.072,68.8812 z" id="boundary" inkscape:connector-curvature="0" />
	<path style="fill:none;stroke:red;stroke-width:1px;stroke-linecap:butt;stroke-linejoin:miter;stroke-opacity:1" d="M 384.75,106.444 367.676,106.444 z" id="boundary" inkscape:connector-curvature="0" />
	<path style="fill:none;stroke:red;stroke-width:1px;stroke-linecap:butt;stroke-linejoin:miter;stroke-opacity:1" d="M 401.824,106.444 384.75,106.444 z" id="boundary" inkscape:connector-curvature="0" />
	<path style="fill:none;stroke:red;stroke-width:1px;stroke-linecap:butt;stroke-linejoin:miter;stroke-opacity:1" d="M 350.602,106.444 367.676,106.444 z" id="boundary" inkscape:connector-curvature="0" />
	<path style="fill:none;stroke:red;stroke-width:1px;stroke-linecap:butt;stroke-linejoin:miter;stroke-opacity:1" d="M 214.01,114.981 231.084,114.981 z" id="boundary" inkscape:connector-curvature="0" />
	<path style="fill:none;stroke:red;stroke-width:1px;stroke-linecap:butt;stroke-linejoin:miter;stroke-opacity:1" d="M 198.644,123.518 214.01,114.981 z" id="boundary" inkscape:connector-curvature="0" />
	<path style="fill:none;stroke:red;stroke-width:1px;stroke-linecap:butt;stroke-linejoin:miter;stroke-opacity:1" d="M 164.496,123.518 181.57,123.518 z" id="boundary" inkscape:connector-curvature="0" />
	<path style="fill:none;stroke:red;stroke-width:1px;stroke-linecap:butt;stroke-linejoin:miter;stroke-opacity:1" d="M 198.644,123.518 181.57,123.518 z" id="boundary" inkscape:connector-curvature="0" />
	<path style="fill:none;stroke:red;stroke-width:1px;stroke-linecap:butt;stroke-linejoin:miter;stroke-opacity:1" d="M 231.084,114.981 248.158,114.981 z" id="boundary" inkscape:connector-curvature="0" />
	<path style="fill:none;stroke:red;stroke-width:1px;stroke-linecap:butt;stroke-linejoin:miter;stroke-opacity:1" d="M 490.609,43.2702 482.072,68.8812 z" id="boundary" inkscape:connector-curvature="0" />
	<path style="fill:none;stroke:red;stroke-width:1px;stroke-linecap:butt;stroke-linejoin:miter;stroke-opacity:1" d="M 435.972,106.444 418.898,106.444 z" id="boundary" inkscape:connector-curvature="0" />
	<path style="fill:none;stroke:red;stroke-width:1px;stroke-linecap:butt;stroke-linejoin:miter;stroke-opacity:1" d="M 435.972,106.444 453.046,106.444 z" id="boundary" inkscape:connector-curvature="0" />
	<path style="fill:none;stroke:red;stroke-width:1px;stroke-linecap:butt;stroke-linejoin:miter;stroke-opacity:1" d="M 470.12,106.444 453.046,106.444 z" id="boundary" inkscape:connector-curvature="0" />
	<path style="fill:none;stroke:red;stroke-width:1px;stroke-linecap:butt;stroke-linejoin:miter;stroke-opacity:1" d="M 482.072,85.9552 470.12,106.444 z" id="boundary" inkscape:connector-curvature="0" />
	<path style="fill:none;stroke:red;stroke-width:1px;stroke-linecap:butt;stroke-linejoin:miter;stroke-opacity:1" d="M 149.129,289.136 135.47,278.892 z" id="boundary" inkscape:connector-curvature="0" />
	<path style="fill:none;stroke:red;stroke-width:1px;stroke-linecap:butt;stroke-linejoin:miter;stroke-opacity:1" d="M 487.194,483.78 470.12,483.78 z" id="boundary" inkscape:connector-curvature="0" />
	<path style="fill:none;stroke:red;stroke-width:1px;stroke-linecap:butt;stroke-linejoin:miter;stroke-opacity:1" d="M 84.2478,354.017 68.8812,362.554 z" id="boundary" inkscape:connector-curvature="0" />
	<path style="fill:none;stroke:red;stroke-width:1px;stroke-linecap:butt;stroke-linejoin:miter;stroke-opacity:1" d="M 46.685,410.361 46.685,393.287 z" id="boundary" inkscape:connector-curvature="0" />
	<path style="fill:none;stroke:red;stroke-width:1px;stroke-linecap:butt;stroke-linejoin:miter;stroke-opacity:1" d="M 46.685,393.287 55.222,376.213 z" id="boundary" inkscape:connector-curvature="0" />
	<path style="fill:none;stroke:red;stroke-width:1px;stroke-linecap:butt;stroke-linejoin:miter;stroke-opacity:1" d="M 68.8812,362.554 55.222,376.213 z" id="boundary" inkscape:connector-curvature="0" />
	<path style="fill:none;stroke:red;stroke-width:1px;stroke-linecap:butt;stroke-linejoin:miter;stroke-opacity:1" d="M 149.129,306.21 149.129,289.136 z" id="boundary" inkscape:connector-curvature="0" />
	<path style="fill:none;stroke:red;stroke-width:1px;stroke-linecap:butt;stroke-linejoin:miter;stroke-opacity:1" d="M 118.396,345.48 101.322,347.188 z" id="boundary" inkscape:connector-curvature="0" />
	<path style="fill:none;stroke:red;stroke-width:1px;stroke-linecap:butt;stroke-linejoin:miter;stroke-opacity:1" d="M 133.762,336.943 118.396,345.48 z" id="boundary" inkscape:connector-curvature="0" />
	<path style="fill:none;stroke:red;stroke-width:1px;stroke-linecap:butt;stroke-linejoin:miter;stroke-opacity:1" d="M 84.2478,354.017 101.322,347.188 z" id="boundary" inkscape:connector-curvature="0" />
	<path style="fill:none;stroke:red;stroke-width:1px;stroke-linecap:butt;stroke-linejoin:miter;stroke-opacity:1" d="M 149.129,517.928 132.055,517.928 z" id="boundary" inkscape:connector-curvature="0" />
	<path style="fill:none;stroke:red;stroke-width:1px;stroke-linecap:butt;stroke-linejoin:miter;stroke-opacity:1" d="M 46.685,410.361 46.685,427.435 z" id="boundary" inkscape:connector-curvature="0" />
	<path style="fill:none;stroke:red;stroke-width:1px;stroke-linecap:butt;stroke-linejoin:miter;stroke-opacity:1" d="M 46.685,444.509 46.685,461.583 z" id="boundary" inkscape:connector-curvature="0" />
	<path style="fill:none;stroke:red;stroke-width:1px;stroke-linecap:butt;stroke-linejoin:miter;stroke-opacity:1" d="M 46.685,478.657 46.685,461.583 z" id="boundary" inkscape:connector-curvature="0" />
	<path style="fill:none;stroke:red;stroke-width:1px;stroke-linecap:butt;stroke-linejoin:miter;stroke-opacity:1" d="M 55.222,494.024 46.685,478.657 z" id="boundary" inkscape:connector-curvature="0" />
	<path style="fill:none;stroke:red;stroke-width:1px;stroke-linecap:butt;stroke-linejoin:miter;stroke-opacity:1" d="M 46.685,444.509 46.685,427.435 z" id="boundary" inkscape:connector-curvature="0" />
	<path style="fill:none;stroke:red;stroke-width:1px;stroke-linecap:butt;stroke-linejoin:miter;stroke-opacity:1" d="M 97.9071,517.928 80.833,517.928 z" id="boundary" inkscape:connector-curvature="0" />
	<path style="fill:none;stroke:red;stroke-width:1px;stroke-linecap:butt;stroke-linejoin:miter;stroke-opacity:1" d="M 80.833,517.928 67.1738,507.683 z" id="boundary" inkscape:connector-curvature="0" />
	<path style="fill:none;stroke:red;stroke-width:1px;stroke-linecap:butt;stroke-linejoin:miter;stroke-opacity:1" d="M 67.1738,507.683 55.222,494.024 z" id="boundary" inkscape:connector-curvature="0" />
	<path style="fill:none;stroke:red;stroke-width:1px;stroke-linecap:butt;stroke-linejoin:miter;stroke-opacity:1" d="M 114.981,517.928 97.9071,517.928 z" id="boundary" inkscape:connector-curvature="0" />
	<path style="fill:none;stroke:red;stroke-width:1px;stroke-linecap:butt;stroke-linejoin:miter;stroke-opacity:1" d="M 132.055,517.928 114.981,517.928 z" id="boundary" inkscape:connector-curvature="0" />
	<path style="fill:none;stroke:red;stroke-width:1px;stroke-linecap:butt;stroke-linejoin:miter;stroke-opacity:1" d="M 149.129,306.21 149.129,323.284 z" id="boundary" inkscape:connector-curvature="0" />
	<path style="fill:none;stroke:red;stroke-width:1px;stroke-linecap:butt;stroke-linejoin:miter;stroke-opacity:1" d="M 149.129,323.284 133.762,336.943 z" id="boundary" inkscape:connector-curvature="0" />
	<path style="fill:none;stroke:red;stroke-width:1px;stroke-linecap:butt;stroke-linejoin:miter;stroke-opacity:1" d="M 282.306,483.78 265.232,483.78 z" id="boundary" inkscape:connector-curvature="0" />
	<path style="fill:none;stroke:red;stroke-width:1px;stroke-linecap:butt;stroke-linejoin:miter;stroke-opacity:1" d="M 282.306,483.78 299.38,483.78 z" id="boundary" inkscape:connector-curvature="0" />
	<path style="fill:none;stroke:red;stroke-width:1px;stroke-linecap:butt;stroke-linejoin:miter;stroke-opacity:1" d="M 316.454,483.78 299.38,483.78 z" id="boundary" inkscape:connector-curvature="0" />
	<path style="fill:none;stroke:red;stroke-width:1px;stroke-linecap:butt;stroke-linejoin:miter;stroke-opacity:1" d="M 251.573,495.731 265.232,483.78 z" id="boundary" inkscape:connector-curvature="0" />
	<path style="fill:none;stroke:red;stroke-width:1px;stroke-linecap:butt;stroke-linejoin:miter;stroke-opacity:1" d="M 333.528,483.78 350.602,483.78 z" id="boundary" inkscape:connector-curvature="0" />
	<path style="fill:none;stroke:red;stroke-width:1px;stroke-linecap:butt;stroke-linejoin:miter;stroke-opacity:1" d="M 333.528,483.78 316.454,483.78 z" id="boundary" inkscape:connector-curvature="0" />
	<path style="fill:none;stroke:red;stroke-width:1px;stroke-linecap:butt;stroke-linejoin:miter;stroke-opacity:1" d="M 367.676,483.78 384.75,483.78 z" id="boundary" inkscape:connector-curvature="0" />
	<path style="fill:none;stroke:red;stroke-width:1px;stroke-linecap:butt;stroke-linejoin:miter;stroke-opacity:1" d="M 367.676,483.78 350.602,483.78 z" id="boundary" inkscape:connector-curvature="0" />
	<path style="fill:none;stroke:red;stroke-width:1px;stroke-linecap:butt;stroke-linejoin:miter;stroke-opacity:1" d="M 384.75,483.78 401.824,483.78 z" id="boundary" inkscape:connector-curvature="0" />
	<path style="fill:none;stroke:red;stroke-width:1px;stroke-linecap:butt;stroke-linejoin:miter;stroke-opacity:1" d="M 200.351,512.806 217.425,509.391 z" id="boundary" inkscape:connector-curvature="0" />
	<path style="fill:none;stroke:red;stroke-width:1px;stroke-linecap:butt;stroke-linejoin:miter;stroke-opacity:1" d="M 183.277,517.928 200.351,512.806 z" id="boundary" inkscape:connector-curvature="0" />
	<path style="fill:none;stroke:red;stroke-width:1px;stroke-linecap:butt;stroke-linejoin:miter;stroke-opacity:1" d="M 166.203,517.928 149.129,517.928 z" id="boundary" inkscape:connector-curvature="0" />
	<path style="fill:none;stroke:red;stroke-width:1px;stroke-linecap:butt;stroke-linejoin:miter;stroke-opacity:1" d="M 183.277,517.928 166.203,517.928 z" id="boundary" inkscape:connector-curvature="0" />
	<path style="fill:none;stroke:red;stroke-width:1px;stroke-linecap:butt;stroke-linejoin:miter;stroke-opacity:1" d="M 418.898,483.78 435.972,483.78 z" id="boundary" inkscape:connector-curvature="0" />
	<path style="fill:none;stroke:red;stroke-width:1px;stroke-linecap:butt;stroke-linejoin:miter;stroke-opacity:1" d="M 418.898,483.78 401.824,483.78 z" id="boundary" inkscape:connector-curvature="0" />
	<path style="fill:none;stroke:red;stroke-width:1px;stroke-linecap:butt;stroke-linejoin:miter;stroke-opacity:1" d="M 234.499,504.269 251.573,495.731 z" id="boundary" inkscape:connector-curvature="0" />
	<path style="fill:none;stroke:red;stroke-width:1px;stroke-linecap:butt;stroke-linejoin:miter;stroke-opacity:1" d="M 234.499,504.269 217.425,509.391 z" id="boundary" inkscape:connector-curvature="0" />
	<path style="fill:none;stroke:red;stroke-width:1px;stroke-linecap:butt;stroke-linejoin:miter;stroke-opacity:1" d="M 435.972,483.78 453.046,483.78 z" id="boundary" inkscape:connector-curvature="0" />
	<path style="fill:none;stroke:red;stroke-width:1px;stroke-linecap:butt;stroke-linejoin:miter;stroke-opacity:1" d="M 453.046,483.78 470.12,483.78 z" id="boundary" inkscape:connector-curvature="0" />
	<path style="fill:none;stroke:red;stroke-width:1px;stroke-linecap:butt;stroke-linejoin:miter;stroke-opacity:1" d="M 584.516,9.1222 601.59,4 z" id="boundary" inkscape:connector-curvature="0" />
	<path style="fill:none;stroke:red;stroke-width:1px;stroke-linecap:butt;stroke-linejoin:miter;stroke-opacity:1" d="M 601.59,4 618.664,4 z" id="boundary" inkscape:connector-curvature="0" />
	<path style="fill:none;stroke:red;stroke-width:1px;stroke-linecap:butt;stroke-linejoin:miter;stroke-opacity:1" d="M 635.738,4 652.812,4 z" id="boundary" inkscape:connector-curvature="0" />
	<path style="fill:none;stroke:red;stroke-width:1px;stroke-linecap:butt;stroke-linejoin:miter;stroke-opacity:1" d="M 652.812,4 669.886,4 z" id="boundary" inkscape:connector-curvature="0" />
	<path style="fill:none;stroke:red;stroke-width:1px;stroke-linecap:butt;stroke-linejoin:miter;stroke-opacity:1" d="M 618.664,4 635.738,4 z" id="boundary" inkscape:connector-curvature="0" />
	<path style="fill:none;stroke:red;stroke-width:1px;stroke-linecap:butt;stroke-linejoin:miter;stroke-opacity:1" d="M 686.96,4 704.034,4 z" id="boundary" inkscape:connector-curvature="0" />
	<path style="fill:none;stroke:red;stroke-width:1px;stroke-linecap:butt;stroke-linejoin:miter;stroke-opacity:1" d="M 721.108,4 738.182,4 z" id="boundary" inkscape:connector-curvature="0" />
	<path style="fill:none;stroke:red;stroke-width:1px;stroke-linecap:butt;stroke-linejoin:miter;stroke-opacity:1" d="M 704.034,4 721.108,4 z" id="boundary" inkscape:connector-curvature="0" />
	<path style="fill:none;stroke:red;stroke-width:1px;stroke-linecap:butt;stroke-linejoin:miter;stroke-opacity:1" d="M 669.886,4 686.96,4 z" id="boundary" inkscape:connector-curvature="0" />
	<path style="fill:none;stroke:red;stroke-width:1px;stroke-linecap:butt;stroke-linejoin:miter;stroke-opacity:1" d="M 755.256,7.4148 765.501,21.074 z" id="boundary" inkscape:connector-curvature="0" />
	<path style="fill:none;stroke:red;stroke-width:1px;stroke-linecap:butt;stroke-linejoin:miter;stroke-opacity:1" d="M 738.182,4 755.256,7.4148 z" id="boundary" inkscape:connector-curvature="0" />
	<path style="fill:none;stroke:red;stroke-width:1px;stroke-linecap:butt;stroke-linejoin:miter;stroke-opacity:1" d="M 533.294,12.537 550.368,12.537 z" id="boundary" inkscape:connector-curvature="0" />
	<path style="fill:none;stroke:red;stroke-width:1px;stroke-linecap:butt;stroke-linejoin:miter;stroke-opacity:1" d="M 490.609,43.2702 499.146,26.1962 z" id="boundary" inkscape:connector-curvature="0" />
	<path style="fill:none;stroke:red;stroke-width:1px;stroke-linecap:butt;stroke-linejoin:miter;stroke-opacity:1" d="M 499.146,26.1962 516.22,17.6592 z" id="boundary" inkscape:connector-curvature="0" />
	<path style="fill:none;stroke:red;stroke-width:1px;stroke-linecap:butt;stroke-linejoin:miter;stroke-opacity:1" d="M 516.22,17.6592 533.294,12.537 z" id="boundary" inkscape:connector-curvature="0" />
	<path style="fill:none;stroke:red;stroke-width:1px;stroke-linecap:butt;stroke-linejoin:miter;stroke-opacity:1" d="M 550.368,12.537 567.442,12.537 z" id="boundary" inkscape:connector-curvature="0" />
	<path style="fill:none;stroke:red;stroke-width:1px;stroke-linecap:butt;stroke-linejoin:miter;stroke-opacity:1" d="M 584.516,9.1222 567.442,12.537 z" id="boundary" inkscape:connector-curvature="0" />
	<path style="fill:none;stroke:red;stroke-width:1px;stroke-linecap:butt;stroke-linejoin:miter;stroke-opacity:1" d="M 765.501,21.074 774.038,36.4406 z" id="boundary" inkscape:connector-curvature="0" />
	<path style="fill:none;stroke:red;stroke-width:1px;stroke-linecap:butt;stroke-linejoin:miter;stroke-opacity:1" d="M 774.038,99.6145 777.453,116.688 z" id="boundary" inkscape:connector-curvature="0" />
	<path style="fill:none;stroke:red;stroke-width:1px;stroke-linecap:butt;stroke-linejoin:miter;stroke-opacity:1" d="M 774.038,99.6145 782.575,68.8812 z" id="boundary" inkscape:connector-curvature="0" />
	<path style="fill:none;stroke:red;stroke-width:1px;stroke-linecap:butt;stroke-linejoin:miter;stroke-opacity:1" d="M 782.575,51.8072 782.575,68.8812 z" id="boundary" inkscape:connector-curvature="0" />
	<path style="fill:none;stroke:red;stroke-width:1px;stroke-linecap:butt;stroke-linejoin:miter;stroke-opacity:1" d="M 774.038,36.4406 782.575,51.8072 z" id="boundary" inkscape:connector-curvature="0" />
	<path style="fill:none;stroke:red;stroke-width:1px;stroke-linecap:butt;stroke-linejoin:miter;stroke-opacity:1" d="M 808.186,154.251 791.112,149.129 z" id="boundary" inkscape:connector-curvature="0" />
	<path style="fill:none;stroke:red;stroke-width:1px;stroke-linecap:butt;stroke-linejoin:miter;stroke-opacity:1" d="M 791.112,149.129 785.99,132.055 z" id="boundary" inkscape:connector-curvature="0" />
	<path style="fill:none;stroke:red;stroke-width:1px;stroke-linecap:butt;stroke-linejoin:miter;stroke-opacity:1" d="M 825.26,157.666 808.186,154.251 z" id="boundary" inkscape:connector-curvature="0" />
	<path style="fill:none;stroke:red;stroke-width:1px;stroke-linecap:butt;stroke-linejoin:miter;stroke-opacity:1" d="M 777.453,116.688 785.99,132.055 z" id="boundary" inkscape:connector-curvature="0" />
	<path style="fill:none;stroke:red;stroke-width:1px;stroke-linecap:butt;stroke-linejoin:miter;stroke-opacity:1" d="M 825.26,157.666 842.334,162.788 z" id="boundary" inkscape:connector-curvature="0" />
	<path style="fill:none;stroke:red;stroke-width:1px;stroke-linecap:butt;stroke-linejoin:miter;stroke-opacity:1" d="M 842.334,162.788 854.286,176.448 z" id="boundary" inkscape:connector-curvature="0" />
	<path style="fill:none;stroke:red;stroke-width:1px;stroke-linecap:butt;stroke-linejoin:miter;stroke-opacity:1" d="M 883.312,217.425 867.945,208.888 z" id="boundary" inkscape:connector-curvature="0" />
	<path style="fill:none;stroke:red;stroke-width:1px;stroke-linecap:butt;stroke-linejoin:miter;stroke-opacity:1" d="M 867.945,208.888 859.408,193.522 z" id="boundary" inkscape:connector-curvature="0" />
	<path style="fill:none;stroke:red;stroke-width:1px;stroke-linecap:butt;stroke-linejoin:miter;stroke-opacity:1" d="M 859.408,193.522 854.286,176.448 z" id="boundary" inkscape:connector-curvature="0" />
	<path style="fill:none;stroke:red;stroke-width:1px;stroke-linecap:butt;stroke-linejoin:miter;stroke-opacity:1" d="M 883.312,217.425 900.386,217.425 z" id="boundary" inkscape:connector-curvature="0" />
	<path style="fill:none;stroke:red;stroke-width:1px;stroke-linecap:butt;stroke-linejoin:miter;stroke-opacity:1" d="M 927.704,234.499 936.241,249.866 z" id="boundary" inkscape:connector-curvature="0" />
	<path style="fill:none;stroke:red;stroke-width:1px;stroke-linecap:butt;stroke-linejoin:miter;stroke-opacity:1" d="M 927.704,234.499 917.46,220.84 z" id="boundary" inkscape:connector-curvature="0" />
	<path style="fill:none;stroke:red;stroke-width:1px;stroke-linecap:butt;stroke-linejoin:miter;stroke-opacity:1" d="M 953.315,256.695 936.241,249.866 z" id="boundary" inkscape:connector-curvature="0" />
	<path style="fill:none;stroke:red;stroke-width:1px;stroke-linecap:butt;stroke-linejoin:miter;stroke-opacity:1" d="M 900.386,217.425 917.46,220.84 z" id="boundary" inkscape:connector-curvature="0" />
	<path style="fill:none;stroke:red;stroke-width:1px;stroke-linecap:butt;stroke-linejoin:miter;stroke-opacity:1" d="M 953.315,256.695 970.389,260.11 z" id="boundary" inkscape:connector-curvature="0" />
	<path style="fill:none;stroke:red;stroke-width:1px;stroke-linecap:butt;stroke-linejoin:miter;stroke-opacity:1" d="M 970.389,260.11 984.048,270.355 z" id="boundary" inkscape:connector-curvature="0" />
	<path style="fill:none;stroke:red;stroke-width:1px;stroke-linecap:butt;stroke-linejoin:miter;stroke-opacity:1" d="M 996,284.014 996,301.088 z" id="boundary" inkscape:connector-curvature="0" />
	<path style="fill:none;stroke:red;stroke-width:1px;stroke-linecap:butt;stroke-linejoin:miter;stroke-opacity:1" d="M 984.048,270.355 996,284.014 z" id="boundary" inkscape:connector-curvature="0" />
	<path style="fill:none;stroke:red;stroke-width:1px;stroke-linecap:butt;stroke-linejoin:miter;stroke-opacity:1" d="M 996,301.088 996,318.162 z" id="boundary" inkscape:connector-curvature="0" />
	<path style="fill:none;stroke:red;stroke-width:1px;stroke-linecap:butt;stroke-linejoin:miter;stroke-opacity:1" d="M 635.738,441.095 652.812,441.095 z" id="boundary" inkscape:connector-curvature="0" />
	<path style="fill:none;stroke:red;stroke-width:1px;stroke-linecap:butt;stroke-linejoin:miter;stroke-opacity:1" d="M 625.494,454.754 635.738,441.095 z" id="boundary" inkscape:connector-curvature="0" />
	<path style="fill:none;stroke:red;stroke-width:1px;stroke-linecap:butt;stroke-linejoin:miter;stroke-opacity:1" d="M 616.957,471.828 625.494,454.754 z" id="boundary" inkscape:connector-curvature="0" />
	<path style="fill:none;stroke:red;stroke-width:1px;stroke-linecap:butt;stroke-linejoin:miter;stroke-opacity:1" d="M 652.812,441.095 669.886,441.095 z" id="boundary" inkscape:connector-curvature="0" />
	<path style="fill:none;stroke:red;stroke-width:1px;stroke-linecap:butt;stroke-linejoin:miter;stroke-opacity:1" d="M 669.886,441.095 685.253,449.632 z" id="boundary" inkscape:connector-curvature="0" />
	<path style="fill:none;stroke:red;stroke-width:1px;stroke-linecap:butt;stroke-linejoin:miter;stroke-opacity:1" d="M 772.33,406.947 789.404,406.947 z" id="boundary" inkscape:connector-curvature="0" />
	<path style="fill:none;stroke:red;stroke-width:1px;stroke-linecap:butt;stroke-linejoin:miter;stroke-opacity:1" d="M 748.427,441.095 731.353,458.169 z" id="boundary" inkscape:connector-curvature="0" />
	<path style="fill:none;stroke:red;stroke-width:1px;stroke-linecap:butt;stroke-linejoin:miter;stroke-opacity:1" d="M 756.964,415.484 748.427,441.095 z" id="boundary" inkscape:connector-curvature="0" />
	<path style="fill:none;stroke:red;stroke-width:1px;stroke-linecap:butt;stroke-linejoin:miter;stroke-opacity:1" d="M 756.964,415.484 772.33,406.947 z" id="boundary" inkscape:connector-curvature="0" />
	<path style="fill:none;stroke:red;stroke-width:1px;stroke-linecap:butt;stroke-linejoin:miter;stroke-opacity:1" d="M 731.353,458.169 714.279,466.706 z" id="boundary" inkscape:connector-curvature="0" />
	<path style="fill:none;stroke:red;stroke-width:1px;stroke-linecap:butt;stroke-linejoin:miter;stroke-opacity:1" d="M 487.194,483.78 504.269,483.78 z" id="boundary" inkscape:connector-curvature="0" />
	<path style="fill:none;stroke:red;stroke-width:1px;stroke-linecap:butt;stroke-linejoin:miter;stroke-opacity:1" d="M 521.343,483.78 538.417,483.78 z" id="boundary" inkscape:connector-curvature="0" />
	<path style="fill:none;stroke:red;stroke-width:1px;stroke-linecap:butt;stroke-linejoin:miter;stroke-opacity:1" d="M 538.417,483.78 553.783,492.317 z" id="boundary" inkscape:connector-curvature="0" />
	<path style="fill:none;stroke:red;stroke-width:1px;stroke-linecap:butt;stroke-linejoin:miter;stroke-opacity:1" d="M 570.857,492.317 553.783,492.317 z" id="boundary" inkscape:connector-curvature="0" />
	<path style="fill:none;stroke:red;stroke-width:1px;stroke-linecap:butt;stroke-linejoin:miter;stroke-opacity:1" d="M 504.269,483.78 521.343,483.78 z" id="boundary" inkscape:connector-curvature="0" />
	<path style="fill:none;stroke:red;stroke-width:1px;stroke-linecap:butt;stroke-linejoin:miter;stroke-opacity:1" d="M 603.298,483.78 616.957,471.828 z" id="boundary" inkscape:connector-curvature="0" />
	<path style="fill:none;stroke:red;stroke-width:1px;stroke-linecap:butt;stroke-linejoin:miter;stroke-opacity:1" d="M 714.279,466.706 697.205,463.291 z" id="boundary" inkscape:connector-curvature="0" />
	<path style="fill:none;stroke:red;stroke-width:1px;stroke-linecap:butt;stroke-linejoin:miter;stroke-opacity:1" d="M 697.205,463.291 685.253,449.632 z" id="boundary" inkscape:connector-curvature="0" />
	<path style="fill:none;stroke:red;stroke-width:1px;stroke-linecap:butt;stroke-linejoin:miter;stroke-opacity:1" d="M 603.298,483.78 587.931,492.317 z" id="boundary" inkscape:connector-curvature="0" />
	<path style="fill:none;stroke:red;stroke-width:1px;stroke-linecap:butt;stroke-linejoin:miter;stroke-opacity:1" d="M 587.931,492.317 570.857,492.317 z" id="boundary" inkscape:connector-curvature="0" />
	<path style="fill:none;stroke:red;stroke-width:1px;stroke-linecap:butt;stroke-linejoin:miter;stroke-opacity:1" d="M 961.852,372.799 961.852,389.873 z" id="boundary" inkscape:connector-curvature="0" />
	<path style="fill:none;stroke:red;stroke-width:1px;stroke-linecap:butt;stroke-linejoin:miter;stroke-opacity:1" d="M 961.852,372.799 978.926,364.262 z" id="boundary" inkscape:connector-curvature="0" />
	<path style="fill:none;stroke:red;stroke-width:1px;stroke-linecap:butt;stroke-linejoin:miter;stroke-opacity:1" d="M 815.015,422.313 815.015,439.387 z" id="boundary" inkscape:connector-curvature="0" />
	<path style="fill:none;stroke:red;stroke-width:1px;stroke-linecap:butt;stroke-linejoin:miter;stroke-opacity:1" d="M 815.015,422.313 806.478,406.947 z" id="boundary" inkscape:connector-curvature="0" />
	<path style="fill:none;stroke:red;stroke-width:1px;stroke-linecap:butt;stroke-linejoin:miter;stroke-opacity:1" d="M 823.552,454.754 815.015,439.387 z" id="boundary" inkscape:connector-curvature="0" />
	<path style="fill:none;stroke:red;stroke-width:1px;stroke-linecap:butt;stroke-linejoin:miter;stroke-opacity:1" d="M 789.404,406.947 806.478,406.947 z" id="boundary" inkscape:connector-curvature="0" />
	<path style="fill:none;stroke:red;stroke-width:1px;stroke-linecap:butt;stroke-linejoin:miter;stroke-opacity:1" d="M 961.852,389.873 961.852,406.947 z" id="boundary" inkscape:connector-curvature="0" />
	<path style="fill:none;stroke:red;stroke-width:1px;stroke-linecap:butt;stroke-linejoin:miter;stroke-opacity:1" d="M 996,335.236 992.585,352.31 z" id="boundary" inkscape:connector-curvature="0" />
	<path style="fill:none;stroke:red;stroke-width:1px;stroke-linecap:butt;stroke-linejoin:miter;stroke-opacity:1" d="M 992.585,352.31 978.926,364.262 z" id="boundary" inkscape:connector-curvature="0" />
	<path style="fill:none;stroke:red;stroke-width:1px;stroke-linecap:butt;stroke-linejoin:miter;stroke-opacity:1" d="M 961.852,424.021 961.852,406.947 z" id="boundary" inkscape:connector-curvature="0" />
	<path style="fill:none;stroke:red;stroke-width:1px;stroke-linecap:butt;stroke-linejoin:miter;stroke-opacity:1" d="M 961.852,441.095 961.852,424.021 z" id="boundary" inkscape:connector-curvature="0" />
	<path style="fill:none;stroke:red;stroke-width:1px;stroke-linecap:butt;stroke-linejoin:miter;stroke-opacity:1" d="M 823.552,454.754 832.09,470.12 z" id="boundary" inkscape:connector-curvature="0" />
	<path style="fill:none;stroke:red;stroke-width:1px;stroke-linecap:butt;stroke-linejoin:miter;stroke-opacity:1" d="M 845.749,482.072 832.09,470.12 z" id="boundary" inkscape:connector-curvature="0" />
	<path style="fill:none;stroke:red;stroke-width:1px;stroke-linecap:butt;stroke-linejoin:miter;stroke-opacity:1" d="M 893.556,483.78 878.189,492.317 z" id="boundary" inkscape:connector-curvature="0" />
	<path style="fill:none;stroke:red;stroke-width:1px;stroke-linecap:butt;stroke-linejoin:miter;stroke-opacity:1" d="M 878.189,492.317 861.115,490.609 z" id="boundary" inkscape:connector-curvature="0" />
	<path style="fill:none;stroke:red;stroke-width:1px;stroke-linecap:butt;stroke-linejoin:miter;stroke-opacity:1" d="M 861.115,490.609 845.749,482.072 z" id="boundary" inkscape:connector-curvature="0" />
	<path style="fill:none;stroke:red;stroke-width:1px;stroke-linecap:butt;stroke-linejoin:miter;stroke-opacity:1" d="M 961.852,441.095 958.437,463.291 z" id="boundary" inkscape:connector-curvature="0" />
	<path style="fill:none;stroke:red;stroke-width:1px;stroke-linecap:butt;stroke-linejoin:miter;stroke-opacity:1" d="M 958.437,463.291 944.778,475.243 z" id="boundary" inkscape:connector-curvature="0" />
	<path style="fill:none;stroke:red;stroke-width:1px;stroke-linecap:butt;stroke-linejoin:miter;stroke-opacity:1" d="M 893.556,483.78 910.63,483.78 z" id="boundary" inkscape:connector-curvature="0" />
	<path style="fill:none;stroke:red;stroke-width:1px;stroke-linecap:butt;stroke-linejoin:miter;stroke-opacity:1" d="M 927.704,483.78 910.63,483.78 z" id="boundary" inkscape:connector-curvature="0" />
	<path style="fill:none;stroke:red;stroke-width:1px;stroke-linecap:butt;stroke-linejoin:miter;stroke-opacity:1" d="M 944.778,475.243 927.704,483.78 z" id="boundary" inkscape:connector-curvature="0" />
	<path style="fill:none;stroke:red;stroke-width:1px;stroke-linecap:butt;stroke-linejoin:miter;stroke-opacity:1" d="M 996,318.162 996,335.236 z" id="boundary" inkscape:connector-curvature="0" />
	<circle cx="4" cy="256.695" r="4" fill="#0" id="circle0"/>
	<circle cx="4" cy="273.769" r="4" fill="#0" id="circle1"/>
	<circle cx="12.537" cy="239.621" r="4" fill="#0" id="circle2"/>
	<circle cx="17.6592" cy="285.721" r="4" fill="#0" id="circle3"/>
	<circle cx="21.074" cy="222.547" r="4" fill="#0" id="circle4"/>
	<circle cx="34.7332" cy="208.888" r="4" fill="#0" id="circle5"/>
	<circle cx="34.7332" cy="287.429" r="4" fill="#0" id="circle6"/>
	<circle cx="46.685" cy="393.287" r="4" fill="#0" id="circle7"/>
	<circle cx="46.685" cy="410.361" r="4" fill="#0" id="circle8"/>
	<circle cx="46.685" cy="427.435" r="4" fill="#0" id="circle9"/>
	<circle cx="46.685" cy="444.509" r="4" fill="#0" id="circle10"/>
	<circle cx="46.685" cy="461.583" r="4" fill="#0" id="circle11"/>
	<circle cx="46.685" cy="478.657" r="4" fill="#0" id="circle12"/>
	<circle cx="50.0998" cy="200.351" r="4" fill="#0" id="circle13"/>
	<circle cx="51.8072" cy="287.429" r="4" fill="#0" id="circle14"/>
	<circle cx="55.222" cy="376.213" r="4" fill="#0" id="circle15"/>
	<circle cx="55.222" cy="494.024" r="4" fill="#0" id="circle16"/>
	<circle cx="65.4664" cy="191.814" r="4" fill="#0" id="circle17"/>
	<circle cx="67.1738" cy="278.892" r="4" fill="#0" id="circle18"/>
	<circle cx="67.1738" cy="507.683" r="4" fill="#0" id="circle19"/>
	<circle cx="68.8812" cy="362.554" r="4" fill="#0" id="circle20"/>
	<circle cx="72.296" cy="171.325" r="4" fill="#0" id="circle21"/>
	<circle cx="80.833" cy="517.928" r="4" fill="#0" id="circle22"/>
	<circle cx="84.2478" cy="278.892" r="4" fill="#0" id="circle23"/>
	<circle cx="84.2478" cy="354.017" r="4" fill="#0" id="circle24"/>
	<circle cx="85.9552" cy="157.666" r="4" fill="#0" id="circle25"/>
	<circle cx="97.9071" cy="517.928" r="4" fill="#0" id="circle26"/>
	<circle cx="101.322" cy="149.129" r="4" fill="#0" id="circle27"/>
	<circle cx="101.322" cy="278.892" r="4" fill="#0" id="circle28"/>
	<circle cx="101.322" cy="347.188" r="4" fill="#0" id="circle29"/>
	<circle cx="114.981" cy="517.928" r="4" fill="#0" id="circle30"/>
	<circle cx="116.688" cy="140.592" r="4" fill="#0" id="circle31"/>
	<circle cx="118.396" cy="278.892" r="4" fill="#0" id="circle32"/>
	<circle cx="118.396" cy="345.48" r="4" fill="#0" id="circle33"/>
	<circle cx="132.055" cy="132.055" r="4" fill="#0" id="circle34"/>
	<circle cx="132.055" cy="517.928" r="4" fill="#0" id="circle35"/>
	<circle cx="133.762" cy="336.943" r="4" fill="#0" id="circle36"/>
	<circle cx="135.47" cy="278.892" r="4" fill="#0" id="circle37"/>
	<circle cx="149.129" cy="132.055" r="4" fill="#0" id="circle38"/>
	<circle cx="149.129" cy="289.136" r="4" fill="#0" id="circle39"/>
	<circle cx="149.129" cy="306.21" r="4" fill="#0" id="circle40"/>
	<circle cx="149.129" cy="323.284" r="4" fill="#0" id="circle41"/>
	<circle cx="149.129" cy="517.928" r="4" fill="#0" id="circle42"/>
	<circle cx="164.496" cy="123.518" r="4" fill="#0" id="circle43"/>
	<circle cx="166.203" cy="517.928" r="4" fill="#0" id="circle44"/>
	<circle cx="181.57" cy="123.518" r="4" fill="#0" id="circle45"/>
	<circle cx="183.277" cy="517.928" r="4" fill="#0" id="circle46"/>
	<circle cx="198.644" cy="123.518" r="4" fill="#0" id="circle47"/>
	<circle cx="200.351" cy="512.806" r="4" fill="#0" id="circle48"/>
	<circle cx="214.01" cy="114.981" r="4" fill="#0" id="circle49"/>
	<circle cx="217.425" cy="509.391" r="4" fill="#0" id="circle50"/>
	<circle cx="231.084" cy="114.981" r="4" fill="#0" id="circle51"/>
	<circle cx="234.499" cy="504.269" r="4" fill="#0" id="circle52"/>
	<circle cx="248.158" cy="114.981" r="4" fill="#0" id="circle53"/>
	<circle cx="251.573" cy="495.731" r="4" fill="#0" id="circle54"/>
	<circle cx="265.232" cy="106.444" r="4" fill="#0" id="circle55"/>
	<circle cx="265.232" cy="483.78" r="4" fill="#0" id="circle56"/>
	<circle cx="282.306" cy="106.444" r="4" fill="#0" id="circle57"/>
	<circle cx="282.306" cy="483.78" r="4" fill="#0" id="circle58"/>
	<circle cx="299.38" cy="106.444" r="4" fill="#0" id="circle59"/>
	<circle cx="299.38" cy="483.78" r="4" fill="#0" id="circle60"/>
	<circle cx="316.454" cy="106.444" r="4" fill="#0" id="circle61"/>
	<circle cx="316.454" cy="483.78" r="4" fill="#0" id="circle62"/>
	<circle cx="333.528" cy="106.444" r="4" fill="#0" id="circle63"/>
	<circle cx="333.528" cy="483.78" r="4" fill="#0" id="circle64"/>
	<circle cx="350.602" cy="106.444" r="4" fill="#0" id="circle65"/>
	<circle cx="350.602" cy="483.78" r="4" fill="#0" id="circle66"/>
	<circle cx="367.676" cy="106.444" r="4" fill="#0" id="circle67"/>
	<circle cx="367.676" cy="483.78" r="4" fill="#0" id="circle68"/>
	<circle cx="384.75" cy="106.444" r="4" fill="#0" id="circle69"/>
	<circle cx="384.75" cy="483.78" r="4" fill="#0" id="circle70"/>
	<circle cx="401.824" cy="106.444" r="4" fill="#0" id="circle71"/>
	<circle cx="401.824" cy="483.78" r="4" fill="#0" id="circle72"/>
	<circle cx="418.898" cy="106.444" r="4" fill="#0" id="circle73"/>
	<circle cx="418.898" cy="483.78" r="4" fill="#0" id="circle74"/>
	<circle cx="435.972" cy="106.444" r="4" fill="#0" id="circle75"/>
	<circle cx="435.972" cy="483.78" r="4" fill="#0" id="circle76"/>
	<circle cx="453.046" cy="106.444" r="4" fill="#0" id="circle77"/>
	<circle cx="453.046" cy="483.78" r="4" fill="#0" id="circle78"/>
	<circle cx="470.12" cy="106.444" r="4" fill="#0" id="circle79"/>
	<circle cx="470.12" cy="483.78" r="4" fill="#0" id="circle80"/>
	<circle cx="482.072" cy="68.8812" r="4" fill="#0" id="circle81"/>
	<circle cx="482.072" cy="85.9552" r="4" fill="#0" id="circle82"/>
	<circle cx="487.194" cy="483.78" r="4" fill="#0" id="circle83"/>
	<circle cx="490.609" cy="43.2702" r="4" fill="#0" id="circle84"/>
	<circle cx="499.146" cy="26.1962" r="4" fill="#0" id="circle85"/>
	<circle cx="504.269" cy="483.78" r="4" fill="#0" id="circle86"/>
	<circle cx="516.22" cy="17.6592" r="4" fill="#0" id="circle87"/>
	<circle cx="521.343" cy="483.78" r="4" fill="#0" id="circle88"/>
	<circle cx="533.294" cy="12.537" r="4" fill="#0" id="circle89"/>
	<circle cx="538.417" cy="483.78" r="4" fill="#0" id="circle90"/>
	<circle cx="550.368" cy="12.537" r="4" fill="#0" id="circle91"/>
	<circle cx="553.783" cy="492.317" r="4" fill="#0" id="circle92"/>
	<circle cx="567.442" cy="12.537" r="4" fill="#0" id="circle93"/>
	<circle cx="570.857" cy="492.317" r="4" fill="#0" id="circle94"/>
	<circle cx="584.516" cy="9.1222" r="4" fill="#0" id="circle95"/>
	<circle cx="587.931" cy="492.317" r="4" fill="#0" id="circle96"/>
	<circle cx="601.59" cy="4" r="4" fill="#0" id="circle97"/>
	<circle cx="603.298" cy="483.78" r="4" fill="#0" id="circle98"/>
	<circle cx="616.957" cy="471.828" r="4" fill="#0" id="circle99"/>
	<circle cx="618.664" cy="4" r="4" fill="#0" id="circle100"/>
	<circle cx="625.494" cy="454.754" r="4" fill="#0" id="circle101"/>
	<circle cx="635.738" cy="4" r="4" fill="#0" id="circle102"/>
	<circle cx="635.738" cy="441.095" r="4" fill="#0" id="circle103"/>
	<circle cx="652.812" cy="4" r="4" fill="#0" id="circle104"/>
	<circle cx="652.812" cy="441.095" r="4" fill="#0" id="circle105"/>
	<circle cx="669.886" cy="4" r="4" fill="#0" id="circle106"/>
	<circle cx="669.886" cy="441.095" r="4" fill="#0" id="circle107"/>
	<circle cx="685.253" cy="449.632" r="4" fill="#0" id="circle108"/>
	<circle cx="686.96" cy="4" r="4" fill="#0" id="circle109"/>
	<circle cx="697.205" cy="463.291" r="4" fill="#0" id="circle110"/>
	<circle cx="704.034" cy="4" r="4" fill="#0" id="circle111"/>
	<circle cx="714.279" cy="466.706" r="4" fill="#0" id="circle112"/>
	<circle cx="721.108" cy="4" r="4" fill="#0" id="circle113"/>
	<circle cx="731.353" cy="458.169" r="4" fill="#0" id="circle114"/>
	<circle cx="738.182" cy="4" r="4" fill="#0" id="circle115"/>
	<circle cx="748.427" cy="441.095" r="4" fill="#0" id="circle116"/>
	<circle cx="755.256" cy="7.4148" r="4" fill="#0" id="circle117"/>
	<circle cx="756.964" cy="415.484" r="4" fill="#0" id="circle118"/>
	<circle cx="765.501" cy="21.074" r="4" fill="#0" id="circle119"/>
	<circle cx="772.33" cy="406.947" r="4" fill="#0" id="circle120"/>
	<circle cx="774.038" cy="36.4406" r="4" fill="#0" id="circle121"/>
	<circle cx="774.038" cy="99.6145" r="4" fill="#0" id="circle122"/>
	<circle cx="777.453" cy="116.688" r="4" fill="#0" id="circle123"/>
	<circle cx="782.575" cy="51.8072" r="4" fill="#0" id="circle124"/>
	<circle cx="782.575" cy="68.8812" r="4" fill="#0" id="circle125"/>
	<circle cx="785.99" cy="132.055" r="4" fill="#0" id="circle126"/>
	<circle cx="789.404" cy="406.947" r="4" fill="#0" id="circle127"/>
	<circle cx="791.112" cy="149.129" r="4" fill="#0" id="circle128"/>
	<circle cx="806.478" cy="406.947" r="4" fill="#0" id="circle129"/>
	<circle cx="808.186" cy="154.251" r="4" fill="#0" id="circle130"/>
	<circle cx="815.015" cy="422.313" r="4" fill="#0" id="circle131"/>
	<circle cx="815.015" cy="439.387" r="4" fill="#0" id="circle132"/>
	<circle cx="823.552" cy="454.754" r="4" fill="#0" id="circle133"/>
	<circle cx="825.26" cy="157.666" r="4" fill="#0" id="circle134"/>
	<circle cx="832.09" cy="470.12" r="4" fill="#0" id="circle135"/>
	<circle cx="842.334" cy="162.788" r="4" fill="#0" id="circle136"/>
	<circle cx="845.749" cy="482.072" r="4" fill="#0" id="circle137"/>
	<circle cx="854.286" cy="176.448" r="4" fill="#0" id="circle138"/>
	<circle cx="859.408" cy="193.522" r="4" fill="#0" id="circle139"/>
	<circle cx="861.115" cy="490.609" r="4" fill="#0" id="circle140"/>
	<circle cx="867.945" cy="208.888" r="4" fill="#0" id="circle141"/>
	<circle cx="878.189" cy="492.317" r="4" fill="#0" id="circle142"/>
	<circle cx="883.312" cy="217.425" r="4" fill="#0" id="circle143"/>
	<circle cx="893.556" cy="483.78" r="4" fill="#0" id="circle144"/>
	<circle cx="900.386" cy="217.425" r="4" fill="#0" id="circle145"/>
	<circle cx="910.63" cy="483.78" r="4" fill="#0" id="circle146"/>
	<circle cx="917.46" cy="220.84" r="4" fill="#0" id="circle147"/>
	<circle cx="927.704" cy="234.499" r="4" fill="#0" id="circle148"/>
	<circle cx="927.704" cy="483.78" r="4" fill="#0" id="circle149"/>
	<circle cx="936.241" cy="249.866" r="4" fill="#0" id="circle150"/>
	<circle cx="944.778" cy="475.243" r="4" fill="#0" id="circle151"/>
	<circle cx="953.315" cy="256.695" r="4" fill="#0" id="circle152"/>
	<circle cx="958.437" cy="463.291" r="4" fill="#0" id="circle153"/>
	<circle cx="961.852" cy="372.799" r="4" fill="#0" id="circle154"/>
	<circle cx="961.852" cy="389.873" r="4" fill="#0" id="circle155"/>
	<circle cx="961.852" cy="406.947" r="4" fill="#0" id="circle156"/>
	<circle cx="961.852" cy="424.021" r="4" fill="#0" id="circle157"/>
	<circle cx="961.852" cy="441.095" r="4" fill="#0" id="circle158"/>
	<circle cx="970.389" cy="260.11" r="4" fill="#0" id="circle159"/>
	<circle cx="978.926" cy="364.262" r="4" fill="#0" id="circle160"/>
	<circle cx="984.048" cy="270.355" r="4" fill="#0" id="circle161"/>
	<circle cx="992.585" cy="352.31" r="4" fill="#0" id="circle162"/>
	<circle cx="996" cy="284.014" r="4" fill="#0" id="circle163"/>
	<circle cx="996" cy="301.088" r="4" fill="#0" id="circle164"/>
	<circle cx="996" cy="318.162" r="4" fill="#0" id="circle165"/>
	<circle cx="996" cy="335.236" r="4" fill="#0" id="circle166"/>
	</g>
</svg>