<?xml version="1.0" encoding="UTF-8" standalone="no"?>
<!-- Created with CurveBenchmark -->
<svg
	xmlns:dc="http://purl.org/dc/elements/1.1/"
	xmlns:cc="http://creativecommons.org/ns#"
	xmlns:rdf="http://www.w3.org/1999/02/22-rdf-syntax-ns#"
	xmlns:svg="http://www.w3.org/2000/svg"
	xmlns="http://www.w3.org/2000/svg"
	xmlns:sodipodi="http://sodipodi.sourceforge.net/DTD/sodipodi-0.dtd"
	xmlns:inkscape="http://www.inkscape.org/namespaces/inkscape"
	width="1000"
	height="1000"
	id="svg2"
	version="1.1"
	sodipodi:docname="manifold/gathang-key01.png.txt">
<defs
	id="defs4" />
<metadata
	id="metadata7">
	<rdf:RDF>
		<cc:Work
			rdf:about="">
			<dc:format>image/svg+xml</dc:format>
			<dc:type
				rdf:resource="http://purl.org/dc/dcmitype/StillImage" />
			<dc:title></dc:title>
		</cc:Work>
	</rdf:RDF>
</metadata>
<g
	inkscape:label="Layer 1"
	inkscape:groupmode="layer"
	id="layer1">
	<path style="fill:none;stroke:red;stroke-width:1px;stroke-linecap:butt;stroke-linejoin:miter;stroke-opacity:1" d="M 28.0597,13.2537 46.5672,13.2537 z" id="boundary" inkscape:connector-curvature="0" />
	<path style="fill:none;stroke:red;stroke-width:1px;stroke-linecap:butt;stroke-linejoin:miter;stroke-opacity:1" d="M 13.2537,28.0597 28.0597,13.2537 z" id="boundary" inkscape:connector-curvature="0" />
	<path style="fill:none;stroke:red;stroke-width:1px;stroke-linecap:butt;stroke-linejoin:miter;stroke-opacity:1" d="M 4,46.5672 13.2537,28.0597 z" id="boundary" inkscape:connector-curvature="0" />
	<path style="fill:none;stroke:red;stroke-width:1px;stroke-linecap:butt;stroke-linejoin:miter;stroke-opacity:1" d="M 46.5672,13.2537 63.2239,22.5075 z" id="boundary" inkscape:connector-curvature="0" />
	<path style="fill:none;stroke:red;stroke-width:1px;stroke-linecap:butt;stroke-linejoin:miter;stroke-opacity:1" d="M 135.403,4 116.896,7.70149 z" id="boundary" inkscape:connector-curvature="0" />
	<path style="fill:none;stroke:red;stroke-width:1px;stroke-linecap:butt;stroke-linejoin:miter;stroke-opacity:1" d="M 98.3881,13.2537 81.7313,22.5075 z" id="boundary" inkscape:connector-curvature="0" />
	<path style="fill:none;stroke:red;stroke-width:1px;stroke-linecap:butt;stroke-linejoin:miter;stroke-opacity:1" d="M 81.7313,22.5075 63.2239,22.5075 z" id="boundary" inkscape:connector-curvature="0" />
	<path style="fill:none;stroke:red;stroke-width:1px;stroke-linecap:butt;stroke-linejoin:miter;stroke-opacity:1" d="M 98.3881,13.2537 116.896,7.70149 z" id="boundary" inkscape:connector-curvature="0" />
	<path style="fill:none;stroke:red;stroke-width:1px;stroke-linecap:butt;stroke-linejoin:miter;stroke-opacity:1" d="M 4,65.0746 4,46.5672 z" id="boundary" inkscape:connector-curvature="0" />
	<path style="fill:none;stroke:red;stroke-width:1px;stroke-linecap:butt;stroke-linejoin:miter;stroke-opacity:1" d="M 4,83.5821 4,65.0746 z" id="boundary" inkscape:connector-curvature="0" />
	<path style="fill:none;stroke:red;stroke-width:1px;stroke-linecap:butt;stroke-linejoin:miter;stroke-opacity:1" d="M 4,120.597 4,102.09 z" id="boundary" inkscape:connector-curvature="0" />
	<path style="fill:none;stroke:red;stroke-width:1px;stroke-linecap:butt;stroke-linejoin:miter;stroke-opacity:1" d="M 4,102.09 4,83.5821 z" id="boundary" inkscape:connector-curvature="0" />
	<path style="fill:none;stroke:red;stroke-width:1px;stroke-linecap:butt;stroke-linejoin:miter;stroke-opacity:1" d="M 4,157.612 4,139.104 z" id="boundary" inkscape:connector-curvature="0" />
	<path style="fill:none;stroke:red;stroke-width:1px;stroke-linecap:butt;stroke-linejoin:miter;stroke-opacity:1" d="M 4,194.627 4,176.119 z" id="boundary" inkscape:connector-curvature="0" />
	<path style="fill:none;stroke:red;stroke-width:1px;stroke-linecap:butt;stroke-linejoin:miter;stroke-opacity:1" d="M 4,213.134 4,194.627 z" id="boundary" inkscape:connector-curvature="0" />
	<path style="fill:none;stroke:red;stroke-width:1px;stroke-linecap:butt;stroke-linejoin:miter;stroke-opacity:1" d="M 4,176.119 4,157.612 z" id="boundary" inkscape:connector-curvature="0" />
	<path style="fill:none;stroke:red;stroke-width:1px;stroke-linecap:butt;stroke-linejoin:miter;stroke-opacity:1" d="M 4,139.104 4,120.597 z" id="boundary" inkscape:connector-curvature="0" />
	<path style="fill:none;stroke:red;stroke-width:1px;stroke-linecap:butt;stroke-linejoin:miter;stroke-opacity:1" d="M 135.403,4 153.91,4 z" id="boundary" inkscape:connector-curvature="0" />
	<path style="fill:none;stroke:red;stroke-width:1px;stroke-linecap:butt;stroke-linejoin:miter;stroke-opacity:1" d="M 153.91,4 172.418,4 z" id="boundary" inkscape:connector-curvature="0" />
	<path style="fill:none;stroke:red;stroke-width:1px;stroke-linecap:butt;stroke-linejoin:miter;stroke-opacity:1" d="M 172.418,4 190.925,9.55224 z" id="boundary" inkscape:connector-curvature="0" />
	<path style="fill:none;stroke:red;stroke-width:1px;stroke-linecap:butt;stroke-linejoin:miter;stroke-opacity:1" d="M 190.925,9.55224 209.433,7.70149 z" id="boundary" inkscape:connector-curvature="0" />
	<path style="fill:none;stroke:red;stroke-width:1px;stroke-linecap:butt;stroke-linejoin:miter;stroke-opacity:1" d="M 227.94,4 209.433,7.70149 z" id="boundary" inkscape:connector-curvature="0" />
	<path style="fill:none;stroke:red;stroke-width:1px;stroke-linecap:butt;stroke-linejoin:miter;stroke-opacity:1" d="M 261.254,4 244.597,13.2537 z" id="boundary" inkscape:connector-curvature="0" />
	<path style="fill:none;stroke:red;stroke-width:1px;stroke-linecap:butt;stroke-linejoin:miter;stroke-opacity:1" d="M 244.597,13.2537 227.94,4 z" id="boundary" inkscape:connector-curvature="0" />
	<path style="fill:none;stroke:red;stroke-width:1px;stroke-linecap:butt;stroke-linejoin:miter;stroke-opacity:1" d="M 261.254,4 279.761,4 z" id="boundary" inkscape:connector-curvature="0" />
	<path style="fill:none;stroke:red;stroke-width:1px;stroke-linecap:butt;stroke-linejoin:miter;stroke-opacity:1" d="M 279.761,4 298.269,5.85075 z" id="boundary" inkscape:connector-curvature="0" />
	<path style="fill:none;stroke:red;stroke-width:1px;stroke-linecap:butt;stroke-linejoin:miter;stroke-opacity:1" d="M 298.269,5.85075 311.224,20.6567 z" id="boundary" inkscape:connector-curvature="0" />
	<path style="fill:none;stroke:red;stroke-width:1px;stroke-linecap:butt;stroke-linejoin:miter;stroke-opacity:1" d="M 320.478,42.8657 324.179,61.3731 z" id="boundary" inkscape:connector-curvature="0" />
	<path style="fill:none;stroke:red;stroke-width:1px;stroke-linecap:butt;stroke-linejoin:miter;stroke-opacity:1" d="M 324.179,61.3731 329.731,79.8806 z" id="boundary" inkscape:connector-curvature="0" />
	<path style="fill:none;stroke:red;stroke-width:1px;stroke-linecap:butt;stroke-linejoin:miter;stroke-opacity:1" d="M 338.985,96.5373 329.731,79.8806 z" id="boundary" inkscape:connector-curvature="0" />
	<path style="fill:none;stroke:red;stroke-width:1px;stroke-linecap:butt;stroke-linejoin:miter;stroke-opacity:1" d="M 338.985,96.5373 338.985,115.045 z" id="boundary" inkscape:connector-curvature="0" />
	<path style="fill:none;stroke:red;stroke-width:1px;stroke-linecap:butt;stroke-linejoin:miter;stroke-opacity:1" d="M 348.239,131.701 338.985,115.045 z" id="boundary" inkscape:connector-curvature="0" />
	<path style="fill:none;stroke:red;stroke-width:1px;stroke-linecap:butt;stroke-linejoin:miter;stroke-opacity:1" d="M 381.552,142.806 363.045,142.806 z" id="boundary" inkscape:connector-curvature="0" />
	<path style="fill:none;stroke:red;stroke-width:1px;stroke-linecap:butt;stroke-linejoin:miter;stroke-opacity:1" d="M 363.045,142.806 348.239,131.701 z" id="boundary" inkscape:connector-curvature="0" />
	<path style="fill:none;stroke:red;stroke-width:1px;stroke-linecap:butt;stroke-linejoin:miter;stroke-opacity:1" d="M 4,231.642 4,213.134 z" id="boundary" inkscape:connector-curvature="0" />
	<path style="fill:none;stroke:red;stroke-width:1px;stroke-linecap:butt;stroke-linejoin:miter;stroke-opacity:1" d="M 400.06,142.806 381.552,142.806 z" id="boundary" inkscape:connector-curvature="0" />
	<path style="fill:none;stroke:red;stroke-width:1px;stroke-linecap:butt;stroke-linejoin:miter;stroke-opacity:1" d="M 320.478,42.8657 311.224,20.6567 z" id="boundary" inkscape:connector-curvature="0" />
	<path style="fill:none;stroke:red;stroke-width:1px;stroke-linecap:butt;stroke-linejoin:miter;stroke-opacity:1" d="M 4,268.657 4,250.149 z" id="boundary" inkscape:connector-curvature="0" />
	<path style="fill:none;stroke:red;stroke-width:1px;stroke-linecap:butt;stroke-linejoin:miter;stroke-opacity:1" d="M 4,305.672 4,287.164 z" id="boundary" inkscape:connector-curvature="0" />
	<path style="fill:none;stroke:red;stroke-width:1px;stroke-linecap:butt;stroke-linejoin:miter;stroke-opacity:1" d="M 4,287.164 4,268.657 z" id="boundary" inkscape:connector-curvature="0" />
	<path style="fill:none;stroke:red;stroke-width:1px;stroke-linecap:butt;stroke-linejoin:miter;stroke-opacity:1" d="M 4,342.687 4,324.179 z" id="boundary" inkscape:connector-curvature="0" />
	<path style="fill:none;stroke:red;stroke-width:1px;stroke-linecap:butt;stroke-linejoin:miter;stroke-opacity:1" d="M 4,361.194 4,342.687 z" id="boundary" inkscape:connector-curvature="0" />
	<path style="fill:none;stroke:red;stroke-width:1px;stroke-linecap:butt;stroke-linejoin:miter;stroke-opacity:1" d="M 4,379.701 4,361.194 z" id="boundary" inkscape:connector-curvature="0" />
	<path style="fill:none;stroke:red;stroke-width:1px;stroke-linecap:butt;stroke-linejoin:miter;stroke-opacity:1" d="M 4,324.179 4,305.672 z" id="boundary" inkscape:connector-curvature="0" />
	<path style="fill:none;stroke:red;stroke-width:1px;stroke-linecap:butt;stroke-linejoin:miter;stroke-opacity:1" d="M 18.806,448.179 4,435.224 z" id="boundary" inkscape:connector-curvature="0" />
	<path style="fill:none;stroke:red;stroke-width:1px;stroke-linecap:butt;stroke-linejoin:miter;stroke-opacity:1" d="M 4,435.224 4,416.716 z" id="boundary" inkscape:connector-curvature="0" />
	<path style="fill:none;stroke:red;stroke-width:1px;stroke-linecap:butt;stroke-linejoin:miter;stroke-opacity:1" d="M 4,416.716 4,398.209 z" id="boundary" inkscape:connector-curvature="0" />
	<path style="fill:none;stroke:red;stroke-width:1px;stroke-linecap:butt;stroke-linejoin:miter;stroke-opacity:1" d="M 50.2687,468.537 33.6119,459.284 z" id="boundary" inkscape:connector-curvature="0" />
	<path style="fill:none;stroke:red;stroke-width:1px;stroke-linecap:butt;stroke-linejoin:miter;stroke-opacity:1" d="M 33.6119,459.284 18.806,448.179 z" id="boundary" inkscape:connector-curvature="0" />
	<path style="fill:none;stroke:red;stroke-width:1px;stroke-linecap:butt;stroke-linejoin:miter;stroke-opacity:1" d="M 79.8806,474.09 98.3881,477.791 z" id="boundary" inkscape:connector-curvature="0" />
	<path style="fill:none;stroke:red;stroke-width:1px;stroke-linecap:butt;stroke-linejoin:miter;stroke-opacity:1" d="M 4,398.209 4,379.701 z" id="boundary" inkscape:connector-curvature="0" />
	<path style="fill:none;stroke:red;stroke-width:1px;stroke-linecap:butt;stroke-linejoin:miter;stroke-opacity:1" d="M 116.896,477.791 98.3881,477.791 z" id="boundary" inkscape:connector-curvature="0" />
	<path style="fill:none;stroke:red;stroke-width:1px;stroke-linecap:butt;stroke-linejoin:miter;stroke-opacity:1" d="M 4,250.149 4,231.642 z" id="boundary" inkscape:connector-curvature="0" />
	<path style="fill:none;stroke:red;stroke-width:1px;stroke-linecap:butt;stroke-linejoin:miter;stroke-opacity:1" d="M 327.881,453.731 313.075,468.537 z" id="boundary" inkscape:connector-curvature="0" />
	<path style="fill:none;stroke:red;stroke-width:1px;stroke-linecap:butt;stroke-linejoin:miter;stroke-opacity:1" d="M 337.134,435.224 327.881,453.731 z" id="boundary" inkscape:connector-curvature="0" />
	<path style="fill:none;stroke:red;stroke-width:1px;stroke-linecap:butt;stroke-linejoin:miter;stroke-opacity:1" d="M 205.731,468.537 189.075,477.791 z" id="boundary" inkscape:connector-curvature="0" />
	<path style="fill:none;stroke:red;stroke-width:1px;stroke-linecap:butt;stroke-linejoin:miter;stroke-opacity:1" d="M 189.075,477.791 172.418,468.537 z" id="boundary" inkscape:connector-curvature="0" />
	<path style="fill:none;stroke:red;stroke-width:1px;stroke-linecap:butt;stroke-linejoin:miter;stroke-opacity:1" d="M 372.299,363.045 363.045,381.552 z" id="boundary" inkscape:connector-curvature="0" />
	<path style="fill:none;stroke:red;stroke-width:1px;stroke-linecap:butt;stroke-linejoin:miter;stroke-opacity:1" d="M 363.045,381.552 348.239,394.507 z" id="boundary" inkscape:connector-curvature="0" />
	<path style="fill:none;stroke:red;stroke-width:1px;stroke-linecap:butt;stroke-linejoin:miter;stroke-opacity:1" d="M 348.239,394.507 346.388,416.716 z" id="boundary" inkscape:connector-curvature="0" />
	<path style="fill:none;stroke:red;stroke-width:1px;stroke-linecap:butt;stroke-linejoin:miter;stroke-opacity:1" d="M 346.388,416.716 337.134,435.224 z" id="boundary" inkscape:connector-curvature="0" />
	<path style="fill:none;stroke:red;stroke-width:1px;stroke-linecap:butt;stroke-linejoin:miter;stroke-opacity:1" d="M 372.299,363.045 396.358,353.791 z" id="boundary" inkscape:connector-curvature="0" />
	<path style="fill:none;stroke:red;stroke-width:1px;stroke-linecap:butt;stroke-linejoin:miter;stroke-opacity:1" d="M 135.403,477.791 116.896,477.791 z" id="boundary" inkscape:connector-curvature="0" />
	<path style="fill:none;stroke:red;stroke-width:1px;stroke-linecap:butt;stroke-linejoin:miter;stroke-opacity:1" d="M 153.91,477.791 172.418,468.537 z" id="boundary" inkscape:connector-curvature="0" />
	<path style="fill:none;stroke:red;stroke-width:1px;stroke-linecap:butt;stroke-linejoin:miter;stroke-opacity:1" d="M 153.91,477.791 135.403,477.791 z" id="boundary" inkscape:connector-curvature="0" />
	<path style="fill:none;stroke:red;stroke-width:1px;stroke-linecap:butt;stroke-linejoin:miter;stroke-opacity:1" d="M 240.896,477.791 222.388,477.791 z" id="boundary" inkscape:connector-curvature="0" />
	<path style="fill:none;stroke:red;stroke-width:1px;stroke-linecap:butt;stroke-linejoin:miter;stroke-opacity:1" d="M 222.388,477.791 205.731,468.537 z" id="boundary" inkscape:connector-curvature="0" />
	<path style="fill:none;stroke:red;stroke-width:1px;stroke-linecap:butt;stroke-linejoin:miter;stroke-opacity:1" d="M 277.91,477.791 259.403,477.791 z" id="boundary" inkscape:connector-curvature="0" />
	<path style="fill:none;stroke:red;stroke-width:1px;stroke-linecap:butt;stroke-linejoin:miter;stroke-opacity:1" d="M 296.418,477.791 277.91,477.791 z" id="boundary" inkscape:connector-curvature="0" />
	<path style="fill:none;stroke:red;stroke-width:1px;stroke-linecap:butt;stroke-linejoin:miter;stroke-opacity:1" d="M 313.075,468.537 296.418,477.791 z" id="boundary" inkscape:connector-curvature="0" />
	<path style="fill:none;stroke:red;stroke-width:1px;stroke-linecap:butt;stroke-linejoin:miter;stroke-opacity:1" d="M 259.403,477.791 240.896,477.791 z" id="boundary" inkscape:connector-curvature="0" />
	<path style="fill:none;stroke:red;stroke-width:1px;stroke-linecap:butt;stroke-linejoin:miter;stroke-opacity:1" d="M 400.06,142.806 418.567,144.657 z" id="boundary" inkscape:connector-curvature="0" />
	<path style="fill:none;stroke:red;stroke-width:1px;stroke-linecap:butt;stroke-linejoin:miter;stroke-opacity:1" d="M 418.567,144.657 435.224,153.91 z" id="boundary" inkscape:connector-curvature="0" />
	<path style="fill:none;stroke:red;stroke-width:1px;stroke-linecap:butt;stroke-linejoin:miter;stroke-opacity:1" d="M 453.731,161.313 435.224,153.91 z" id="boundary" inkscape:connector-curvature="0" />
	<path style="fill:none;stroke:red;stroke-width:1px;stroke-linecap:butt;stroke-linejoin:miter;stroke-opacity:1" d="M 525.91,170.567 507.403,163.164 z" id="boundary" inkscape:connector-curvature="0" />
	<path style="fill:none;stroke:red;stroke-width:1px;stroke-linecap:butt;stroke-linejoin:miter;stroke-opacity:1" d="M 670.269,165.015 651.761,166.866 z" id="boundary" inkscape:connector-curvature="0" />
	<path style="fill:none;stroke:red;stroke-width:1px;stroke-linecap:butt;stroke-linejoin:miter;stroke-opacity:1" d="M 651.761,166.866 633.254,165.015 z" id="boundary" inkscape:connector-curvature="0" />
	<path style="fill:none;stroke:red;stroke-width:1px;stroke-linecap:butt;stroke-linejoin:miter;stroke-opacity:1" d="M 705.433,161.313 688.776,170.567 z" id="boundary" inkscape:connector-curvature="0" />
	<path style="fill:none;stroke:red;stroke-width:1px;stroke-linecap:butt;stroke-linejoin:miter;stroke-opacity:1" d="M 688.776,170.567 670.269,165.015 z" id="boundary" inkscape:connector-curvature="0" />
	<path style="fill:none;stroke:red;stroke-width:1px;stroke-linecap:butt;stroke-linejoin:miter;stroke-opacity:1" d="M 507.403,163.164 488.896,170.567 z" id="boundary" inkscape:connector-curvature="0" />
	<path style="fill:none;stroke:red;stroke-width:1px;stroke-linecap:butt;stroke-linejoin:miter;stroke-opacity:1" d="M 470.388,170.567 488.896,170.567 z" id="boundary" inkscape:connector-curvature="0" />
	<path style="fill:none;stroke:red;stroke-width:1px;stroke-linecap:butt;stroke-linejoin:miter;stroke-opacity:1" d="M 470.388,170.567 453.731,161.313 z" id="boundary" inkscape:connector-curvature="0" />
	<path style="fill:none;stroke:red;stroke-width:1px;stroke-linecap:butt;stroke-linejoin:miter;stroke-opacity:1" d="M 525.91,170.567 544.418,170.567 z" id="boundary" inkscape:connector-curvature="0" />
	<path style="fill:none;stroke:red;stroke-width:1px;stroke-linecap:butt;stroke-linejoin:miter;stroke-opacity:1" d="M 561.075,161.313 544.418,170.567 z" id="boundary" inkscape:connector-curvature="0" />
	<path style="fill:none;stroke:red;stroke-width:1px;stroke-linecap:butt;stroke-linejoin:miter;stroke-opacity:1" d="M 633.254,165.015 614.746,170.567 z" id="boundary" inkscape:connector-curvature="0" />
	<path style="fill:none;stroke:red;stroke-width:1px;stroke-linecap:butt;stroke-linejoin:miter;stroke-opacity:1" d="M 614.746,170.567 596.239,166.866 z" id="boundary" inkscape:connector-curvature="0" />
	<path style="fill:none;stroke:red;stroke-width:1px;stroke-linecap:butt;stroke-linejoin:miter;stroke-opacity:1" d="M 577.731,170.567 596.239,166.866 z" id="boundary" inkscape:connector-curvature="0" />
	<path style="fill:none;stroke:red;stroke-width:1px;stroke-linecap:butt;stroke-linejoin:miter;stroke-opacity:1" d="M 561.075,161.313 577.731,170.567 z" id="boundary" inkscape:connector-curvature="0" />
	<path style="fill:none;stroke:red;stroke-width:1px;stroke-linecap:butt;stroke-linejoin:miter;stroke-opacity:1" d="M 705.433,161.313 722.09,170.567 z" id="boundary" inkscape:connector-curvature="0" />
	<path style="fill:none;stroke:red;stroke-width:1px;stroke-linecap:butt;stroke-linejoin:miter;stroke-opacity:1" d="M 757.254,161.313 775.761,163.164 z" id="boundary" inkscape:connector-curvature="0" />
	<path style="fill:none;stroke:red;stroke-width:1px;stroke-linecap:butt;stroke-linejoin:miter;stroke-opacity:1" d="M 740.597,170.567 757.254,161.313 z" id="boundary" inkscape:connector-curvature="0" />
	<path style="fill:none;stroke:red;stroke-width:1px;stroke-linecap:butt;stroke-linejoin:miter;stroke-opacity:1" d="M 722.09,170.567 740.597,170.567 z" id="boundary" inkscape:connector-curvature="0" />
	<path style="fill:none;stroke:red;stroke-width:1px;stroke-linecap:butt;stroke-linejoin:miter;stroke-opacity:1" d="M 775.761,163.164 794.269,170.567 z" id="boundary" inkscape:connector-curvature="0" />
	<path style="fill:none;stroke:red;stroke-width:1px;stroke-linecap:butt;stroke-linejoin:miter;stroke-opacity:1" d="M 812.776,163.164 831.284,163.164 z" id="boundary" inkscape:connector-curvature="0" />
	<path style="fill:none;stroke:red;stroke-width:1px;stroke-linecap:butt;stroke-linejoin:miter;stroke-opacity:1" d="M 794.269,170.567 812.776,163.164 z" id="boundary" inkscape:connector-curvature="0" />
	<path style="fill:none;stroke:red;stroke-width:1px;stroke-linecap:butt;stroke-linejoin:miter;stroke-opacity:1" d="M 849.791,163.164 868.299,170.567 z" id="boundary" inkscape:connector-curvature="0" />
	<path style="fill:none;stroke:red;stroke-width:1px;stroke-linecap:butt;stroke-linejoin:miter;stroke-opacity:1" d="M 831.284,163.164 849.791,163.164 z" id="boundary" inkscape:connector-curvature="0" />
	<path style="fill:none;stroke:red;stroke-width:1px;stroke-linecap:butt;stroke-linejoin:miter;stroke-opacity:1" d="M 886.806,163.164 868.299,170.567 z" id="boundary" inkscape:connector-curvature="0" />
	<path style="fill:none;stroke:red;stroke-width:1px;stroke-linecap:butt;stroke-linejoin:miter;stroke-opacity:1" d="M 886.806,163.164 905.313,170.567 z" id="boundary" inkscape:connector-curvature="0" />
	<path style="fill:none;stroke:red;stroke-width:1px;stroke-linecap:butt;stroke-linejoin:miter;stroke-opacity:1" d="M 923.821,170.567 942.328,170.567 z" id="boundary" inkscape:connector-curvature="0" />
	<path style="fill:none;stroke:red;stroke-width:1px;stroke-linecap:butt;stroke-linejoin:miter;stroke-opacity:1" d="M 942.328,170.567 958.985,179.821 z" id="boundary" inkscape:connector-curvature="0" />
	<path style="fill:none;stroke:red;stroke-width:1px;stroke-linecap:butt;stroke-linejoin:miter;stroke-opacity:1" d="M 923.821,170.567 905.313,170.567 z" id="boundary" inkscape:connector-curvature="0" />
	<path style="fill:none;stroke:red;stroke-width:1px;stroke-linecap:butt;stroke-linejoin:miter;stroke-opacity:1" d="M 958.985,179.821 973.791,190.925 z" id="boundary" inkscape:connector-curvature="0" />
	<path style="fill:none;stroke:red;stroke-width:1px;stroke-linecap:butt;stroke-linejoin:miter;stroke-opacity:1" d="M 973.791,190.925 981.194,209.433 z" id="boundary" inkscape:connector-curvature="0" />
	<path style="fill:none;stroke:red;stroke-width:1px;stroke-linecap:butt;stroke-linejoin:miter;stroke-opacity:1" d="M 981.194,209.433 996,222.388 z" id="boundary" inkscape:connector-curvature="0" />
	<path style="fill:none;stroke:red;stroke-width:1px;stroke-linecap:butt;stroke-linejoin:miter;stroke-opacity:1" d="M 996,222.388 996,240.896 z" id="boundary" inkscape:connector-curvature="0" />
	<path style="fill:none;stroke:red;stroke-width:1px;stroke-linecap:butt;stroke-linejoin:miter;stroke-opacity:1" d="M 996,240.896 984.896,255.701 z" id="boundary" inkscape:connector-curvature="0" />
	<path style="fill:none;stroke:red;stroke-width:1px;stroke-linecap:butt;stroke-linejoin:miter;stroke-opacity:1" d="M 516.657,311.224 498.149,316.776 z" id="boundary" inkscape:connector-curvature="0" />
	<path style="fill:none;stroke:red;stroke-width:1px;stroke-linecap:butt;stroke-linejoin:miter;stroke-opacity:1" d="M 498.149,316.776 479.642,311.224 z" id="boundary" inkscape:connector-curvature="0" />
	<path style="fill:none;stroke:red;stroke-width:1px;stroke-linecap:butt;stroke-linejoin:miter;stroke-opacity:1" d="M 572.179,311.224 553.672,316.776 z" id="boundary" inkscape:connector-curvature="0" />
	<path style="fill:none;stroke:red;stroke-width:1px;stroke-linecap:butt;stroke-linejoin:miter;stroke-opacity:1" d="M 553.672,316.776 535.164,311.224 z" id="boundary" inkscape:connector-curvature="0" />
	<path style="fill:none;stroke:red;stroke-width:1px;stroke-linecap:butt;stroke-linejoin:miter;stroke-opacity:1" d="M 535.164,311.224 516.657,311.224 z" id="boundary" inkscape:connector-curvature="0" />
	<path style="fill:none;stroke:red;stroke-width:1px;stroke-linecap:butt;stroke-linejoin:miter;stroke-opacity:1" d="M 644.358,301.97 662.866,305.672 z" id="boundary" inkscape:connector-curvature="0" />
	<path style="fill:none;stroke:red;stroke-width:1px;stroke-linecap:butt;stroke-linejoin:miter;stroke-opacity:1" d="M 625.851,311.224 644.358,301.97 z" id="boundary" inkscape:connector-curvature="0" />
	<path style="fill:none;stroke:red;stroke-width:1px;stroke-linecap:butt;stroke-linejoin:miter;stroke-opacity:1" d="M 625.851,311.224 607.343,320.478 z" id="boundary" inkscape:connector-curvature="0" />
	<path style="fill:none;stroke:red;stroke-width:1px;stroke-linecap:butt;stroke-linejoin:miter;stroke-opacity:1" d="M 607.343,320.478 590.687,311.224 z" id="boundary" inkscape:connector-curvature="0" />
	<path style="fill:none;stroke:red;stroke-width:1px;stroke-linecap:butt;stroke-linejoin:miter;stroke-opacity:1" d="M 662.866,305.672 681.373,311.224 z" id="boundary" inkscape:connector-curvature="0" />
	<path style="fill:none;stroke:red;stroke-width:1px;stroke-linecap:butt;stroke-linejoin:miter;stroke-opacity:1" d="M 590.687,311.224 572.179,311.224 z" id="boundary" inkscape:connector-curvature="0" />
	<path style="fill:none;stroke:red;stroke-width:1px;stroke-linecap:butt;stroke-linejoin:miter;stroke-opacity:1" d="M 414.866,348.239 396.358,353.791 z" id="boundary" inkscape:connector-curvature="0" />
	<path style="fill:none;stroke:red;stroke-width:1px;stroke-linecap:butt;stroke-linejoin:miter;stroke-opacity:1" d="M 433.373,348.239 414.866,348.239 z" id="boundary" inkscape:connector-curvature="0" />
	<path style="fill:none;stroke:red;stroke-width:1px;stroke-linecap:butt;stroke-linejoin:miter;stroke-opacity:1" d="M 448.179,333.433 433.373,348.239 z" id="boundary" inkscape:connector-curvature="0" />
	<path style="fill:none;stroke:red;stroke-width:1px;stroke-linecap:butt;stroke-linejoin:miter;stroke-opacity:1" d="M 448.179,333.433 462.985,320.478 z" id="boundary" inkscape:connector-curvature="0" />
	<path style="fill:none;stroke:red;stroke-width:1px;stroke-linecap:butt;stroke-linejoin:miter;stroke-opacity:1" d="M 462.985,320.478 479.642,311.224 z" id="boundary" inkscape:connector-curvature="0" />
	<path style="fill:none;stroke:red;stroke-width:1px;stroke-linecap:butt;stroke-linejoin:miter;stroke-opacity:1" d="M 681.373,311.224 698.03,320.478 z" id="boundary" inkscape:connector-curvature="0" />
	<path style="fill:none;stroke:red;stroke-width:1px;stroke-linecap:butt;stroke-linejoin:miter;stroke-opacity:1" d="M 714.687,311.224 733.194,311.224 z" id="boundary" inkscape:connector-curvature="0" />
	<path style="fill:none;stroke:red;stroke-width:1px;stroke-linecap:butt;stroke-linejoin:miter;stroke-opacity:1" d="M 733.194,311.224 749.851,320.478 z" id="boundary" inkscape:connector-curvature="0" />
	<path style="fill:none;stroke:red;stroke-width:1px;stroke-linecap:butt;stroke-linejoin:miter;stroke-opacity:1" d="M 766.507,311.224 785.015,311.224 z" id="boundary" inkscape:connector-curvature="0" />
	<path style="fill:none;stroke:red;stroke-width:1px;stroke-linecap:butt;stroke-linejoin:miter;stroke-opacity:1" d="M 749.851,320.478 766.507,311.224 z" id="boundary" inkscape:connector-curvature="0" />
	<path style="fill:none;stroke:red;stroke-width:1px;stroke-linecap:butt;stroke-linejoin:miter;stroke-opacity:1" d="M 973.791,270.507 984.896,255.701 z" id="boundary" inkscape:connector-curvature="0" />
	<path style="fill:none;stroke:red;stroke-width:1px;stroke-linecap:butt;stroke-linejoin:miter;stroke-opacity:1" d="M 973.791,270.507 958.985,283.463 z" id="boundary" inkscape:connector-curvature="0" />
	<path style="fill:none;stroke:red;stroke-width:1px;stroke-linecap:butt;stroke-linejoin:miter;stroke-opacity:1" d="M 840.537,311.224 822.03,311.224 z" id="boundary" inkscape:connector-curvature="0" />
	<path style="fill:none;stroke:red;stroke-width:1px;stroke-linecap:butt;stroke-linejoin:miter;stroke-opacity:1" d="M 947.881,305.672 958.985,283.463 z" id="boundary" inkscape:connector-curvature="0" />
	<path style="fill:none;stroke:red;stroke-width:1px;stroke-linecap:butt;stroke-linejoin:miter;stroke-opacity:1" d="M 947.881,305.672 929.373,311.224 z" id="boundary" inkscape:connector-curvature="0" />
	<path style="fill:none;stroke:red;stroke-width:1px;stroke-linecap:butt;stroke-linejoin:miter;stroke-opacity:1" d="M 822.03,311.224 803.522,316.776 z" id="boundary" inkscape:connector-curvature="0" />
	<path style="fill:none;stroke:red;stroke-width:1px;stroke-linecap:butt;stroke-linejoin:miter;stroke-opacity:1" d="M 803.522,316.776 785.015,311.224 z" id="boundary" inkscape:connector-curvature="0" />
	<path style="fill:none;stroke:red;stroke-width:1px;stroke-linecap:butt;stroke-linejoin:miter;stroke-opacity:1" d="M 698.03,320.478 714.687,311.224 z" id="boundary" inkscape:connector-curvature="0" />
	<path style="fill:none;stroke:red;stroke-width:1px;stroke-linecap:butt;stroke-linejoin:miter;stroke-opacity:1" d="M 840.537,311.224 857.194,320.478 z" id="boundary" inkscape:connector-curvature="0" />
	<path style="fill:none;stroke:red;stroke-width:1px;stroke-linecap:butt;stroke-linejoin:miter;stroke-opacity:1" d="M 873.851,311.224 892.358,311.224 z" id="boundary" inkscape:connector-curvature="0" />
	<path style="fill:none;stroke:red;stroke-width:1px;stroke-linecap:butt;stroke-linejoin:miter;stroke-opacity:1" d="M 857.194,320.478 873.851,311.224 z" id="boundary" inkscape:connector-curvature="0" />
	<path style="fill:none;stroke:red;stroke-width:1px;stroke-linecap:butt;stroke-linejoin:miter;stroke-opacity:1" d="M 910.866,311.224 929.373,311.224 z" id="boundary" inkscape:connector-curvature="0" />
	<path style="fill:none;stroke:red;stroke-width:1px;stroke-linecap:butt;stroke-linejoin:miter;stroke-opacity:1" d="M 892.358,311.224 910.866,311.224 z" id="boundary" inkscape:connector-curvature="0" />
	<circle cx="4" cy="46.5672" r="4" fill="#0" id="circle0"/>
	<circle cx="4" cy="65.0746" r="4" fill="#0" id="circle1"/>
	<circle cx="4" cy="83.5821" r="4" fill="#0" id="circle2"/>
	<circle cx="4" cy="102.09" r="4" fill="#0" id="circle3"/>
	<circle cx="4" cy="120.597" r="4" fill="#0" id="circle4"/>
	<circle cx="4" cy="139.104" r="4" fill="#0" id="circle5"/>
	<circle cx="4" cy="157.612" r="4" fill="#0" id="circle6"/>
	<circle cx="4" cy="176.119" r="4" fill="#0" id="circle7"/>
	<circle cx="4" cy="194.627" r="4" fill="#0" id="circle8"/>
	<circle cx="4" cy="213.134" r="4" fill="#0" id="circle9"/>
	<circle cx="4" cy="231.642" r="4" fill="#0" id="circle10"/>
	<circle cx="4" cy="250.149" r="4" fill="#0" id="circle11"/>
	<circle cx="4" cy="268.657" r="4" fill="#0" id="circle12"/>
	<circle cx="4" cy="287.164" r="4" fill="#0" id="circle13"/>
	<circle cx="4" cy="305.672" r="4" fill="#0" id="circle14"/>
	<circle cx="4" cy="324.179" r="4" fill="#0" id="circle15"/>
	<circle cx="4" cy="342.687" r="4" fill="#0" id="circle16"/>
	<circle cx="4" cy="361.194" r="4" fill="#0" id="circle17"/>
	<circle cx="4" cy="379.701" r="4" fill="#0" id="circle18"/>
	<circle cx="4" cy="398.209" r="4" fill="#0" id="circle19"/>
	<circle cx="4" cy="416.716" r="4" fill="#0" id="circle20"/>
	<circle cx="4" cy="435.224" r="4" fill="#0" id="circle21"/>
	<circle cx="13.2537" cy="28.0597" r="4" fill="#0" id="circle22"/>
	<circle cx="18.806" cy="448.179" r="4" fill="#0" id="circle23"/>
	<circle cx="28.0597" cy="13.2537" r="4" fill="#0" id="circle24"/>
	<circle cx="33.6119" cy="459.284" r="4" fill="#0" id="circle25"/>
	<circle cx="46.5672" cy="13.2537" r="4" fill="#0" id="circle26"/>
	<circle cx="50.2687" cy="468.537" r="4" fill="#0" id="circle27"/>
	<circle cx="63.2239" cy="22.5075" r="4" fill="#0" id="circle28"/>
	<circle cx="66.9254" cy="459.284" r="4" fill="#0" id="circle29"/>
	<circle cx="79.8806" cy="474.09" r="4" fill="#0" id="circle30"/>
	<circle cx="81.7313" cy="22.5075" r="4" fill="#0" id="circle31"/>
	<circle cx="98.3881" cy="13.2537" r="4" fill="#0" id="circle32"/>
	<circle cx="98.3881" cy="477.791" r="4" fill="#0" id="circle33"/>
	<circle cx="116.896" cy="7.70149" r="4" fill="#0" id="circle34"/>
	<circle cx="116.896" cy="477.791" r="4" fill="#0" id="circle35"/>
	<circle cx="135.403" cy="4" r="4" fill="#0" id="circle36"/>
	<circle cx="135.403" cy="477.791" r="4" fill="#0" id="circle37"/>
	<circle cx="153.91" cy="4" r="4" fill="#0" id="circle38"/>
	<circle cx="153.91" cy="477.791" r="4" fill="#0" id="circle39"/>
	<circle cx="172.418" cy="4" r="4" fill="#0" id="circle40"/>
	<circle cx="172.418" cy="468.537" r="4" fill="#0" id="circle41"/>
	<circle cx="189.075" cy="477.791" r="4" fill="#0" id="circle42"/>
	<circle cx="190.925" cy="9.55224" r="4" fill="#0" id="circle43"/>
	<circle cx="205.731" cy="468.537" r="4" fill="#0" id="circle44"/>
	<circle cx="209.433" cy="7.70149" r="4" fill="#0" id="circle45"/>
	<circle cx="222.388" cy="477.791" r="4" fill="#0" id="circle46"/>
	<circle cx="227.94" cy="4" r="4" fill="#0" id="circle47"/>
	<circle cx="240.896" cy="477.791" r="4" fill="#0" id="circle48"/>
	<circle cx="244.597" cy="13.2537" r="4" fill="#0" id="circle49"/>
	<circle cx="259.403" cy="477.791" r="4" fill="#0" id="circle50"/>
	<circle cx="261.254" cy="4" r="4" fill="#0" id="circle51"/>
	<circle cx="277.91" cy="477.791" r="4" fill="#0" id="circle52"/>
	<circle cx="279.761" cy="4" r="4" fill="#0" id="circle53"/>
	<circle cx="296.418" cy="477.791" r="4" fill="#0" id="circle54"/>
	<circle cx="298.269" cy="5.85075" r="4" fill="#0" id="circle55"/>
	<circle cx="311.224" cy="20.6567" r="4" fill="#0" id="circle56"/>
	<circle cx="313.075" cy="468.537" r="4" fill="#0" id="circle57"/>
	<circle cx="320.478" cy="42.8657" r="4" fill="#0" id="circle58"/>
	<circle cx="324.179" cy="61.3731" r="4" fill="#0" id="circle59"/>
	<circle cx="327.881" cy="453.731" r="4" fill="#0" id="circle60"/>
	<circle cx="329.731" cy="79.8806" r="4" fill="#0" id="circle61"/>
	<circle cx="337.134" cy="435.224" r="4" fill="#0" id="circle62"/>
	<circle cx="338.985" cy="96.5373" r="4" fill="#0" id="circle63"/>
	<circle cx="338.985" cy="115.045" r="4" fill="#0" id="circle64"/>
	<circle cx="346.388" cy="416.716" r="4" fill="#0" id="circle65"/>
	<circle cx="348.239" cy="131.701" r="4" fill="#0" id="circle66"/>
	<circle cx="348.239" cy="394.507" r="4" fill="#0" id="circle67"/>
	<circle cx="363.045" cy="142.806" r="4" fill="#0" id="circle68"/>
	<circle cx="363.045" cy="381.552" r="4" fill="#0" id="circle69"/>
	<circle cx="372.299" cy="363.045" r="4" fill="#0" id="circle70"/>
	<circle cx="381.552" cy="142.806" r="4" fill="#0" id="circle71"/>
	<circle cx="385.254" cy="338.985" r="4" fill="#0" id="circle72"/>
	<circle cx="396.358" cy="353.791" r="4" fill="#0" id="circle73"/>
	<circle cx="400.06" cy="142.806" r="4" fill="#0" id="circle74"/>
	<circle cx="414.866" cy="348.239" r="4" fill="#0" id="circle75"/>
	<circle cx="418.567" cy="144.657" r="4" fill="#0" id="circle76"/>
	<circle cx="433.373" cy="348.239" r="4" fill="#0" id="circle77"/>
	<circle cx="435.224" cy="153.91" r="4" fill="#0" id="circle78"/>
	<circle cx="448.179" cy="333.433" r="4" fill="#0" id="circle79"/>
	<circle cx="453.731" cy="161.313" r="4" fill="#0" id="circle80"/>
	<circle cx="462.985" cy="320.478" r="4" fill="#0" id="circle81"/>
	<circle cx="470.388" cy="170.567" r="4" fill="#0" id="circle82"/>
	<circle cx="479.642" cy="311.224" r="4" fill="#0" id="circle83"/>
	<circle cx="488.896" cy="170.567" r="4" fill="#0" id="circle84"/>
	<circle cx="498.149" cy="316.776" r="4" fill="#0" id="circle85"/>
	<circle cx="507.403" cy="163.164" r="4" fill="#0" id="circle86"/>
	<circle cx="516.657" cy="311.224" r="4" fill="#0" id="circle87"/>
	<circle cx="525.91" cy="170.567" r="4" fill="#0" id="circle88"/>
	<circle cx="535.164" cy="311.224" r="4" fill="#0" id="circle89"/>
	<circle cx="544.418" cy="170.567" r="4" fill="#0" id="circle90"/>
	<circle cx="553.672" cy="316.776" r="4" fill="#0" id="circle91"/>
	<circle cx="561.075" cy="161.313" r="4" fill="#0" id="circle92"/>
	<circle cx="572.179" cy="311.224" r="4" fill="#0" id="circle93"/>
	<circle cx="577.731" cy="170.567" r="4" fill="#0" id="circle94"/>
	<circle cx="590.687" cy="311.224" r="4" fill="#0" id="circle95"/>
	<circle cx="596.239" cy="166.866" r="4" fill="#0" id="circle96"/>
	<circle cx="607.343" cy="320.478" r="4" fill="#0" id="circle97"/>
	<circle cx="614.746" cy="170.567" r="4" fill="#0" id="circle98"/>
	<circle cx="625.851" cy="311.224" r="4" fill="#0" id="circle99"/>
	<circle cx="633.254" cy="165.015" r="4" fill="#0" id="circle100"/>
	<circle cx="644.358" cy="301.97" r="4" fill="#0" id="circle101"/>
	<circle cx="651.761" cy="166.866" r="4" fill="#0" id="circle102"/>
	<circle cx="662.866" cy="305.672" r="4" fill="#0" id="circle103"/>
	<circle cx="670.269" cy="165.015" r="4" fill="#0" id="circle104"/>
	<circle cx="681.373" cy="311.224" r="4" fill="#0" id="circle105"/>
	<circle cx="688.776" cy="170.567" r="4" fill="#0" id="circle106"/>
	<circle cx="698.03" cy="320.478" r="4" fill="#0" id="circle107"/>
	<circle cx="705.433" cy="161.313" r="4" fill="#0" id="circle108"/>
	<circle cx="714.687" cy="311.224" r="4" fill="#0" id="circle109"/>
	<circle cx="722.09" cy="170.567" r="4" fill="#0" id="circle110"/>
	<circle cx="733.194" cy="311.224" r="4" fill="#0" id="circle111"/>
	<circle cx="740.597" cy="170.567" r="4" fill="#0" id="circle112"/>
	<circle cx="749.851" cy="320.478" r="4" fill="#0" id="circle113"/>
	<circle cx="757.254" cy="161.313" r="4" fill="#0" id="circle114"/>
	<circle cx="766.507" cy="311.224" r="4" fill="#0" id="circle115"/>
	<circle cx="775.761" cy="163.164" r="4" fill="#0" id="circle116"/>
	<circle cx="785.015" cy="311.224" r="4" fill="#0" id="circle117"/>
	<circle cx="794.269" cy="170.567" r="4" fill="#0" id="circle118"/>
	<circle cx="803.522" cy="316.776" r="4" fill="#0" id="circle119"/>
	<circle cx="812.776" cy="163.164" r="4" fill="#0" id="circle120"/>
	<circle cx="822.03" cy="311.224" r="4" fill="#0" id="circle121"/>
	<circle cx="831.284" cy="163.164" r="4" fill="#0" id="circle122"/>
	<circle cx="840.537" cy="311.224" r="4" fill="#0" id="circle123"/>
	<circle cx="849.791" cy="163.164" r="4" fill="#0" id="circle124"/>
	<circle cx="857.194" cy="320.478" r="4" fill="#0" id="circle125"/>
	<circle cx="868.299" cy="170.567" r="4" fill="#0" id="circle126"/>
	<circle cx="873.851" cy="311.224" r="4" fill="#0" id="circle127"/>
	<circle cx="886.806" cy="163.164" r="4" fill="#0" id="circle128"/>
	<circle cx="892.358" cy="311.224" r="4" fill="#0" id="circle129"/>
	<circle cx="905.313" cy="170.567" r="4" fill="#0" id="circle130"/>
	<circle cx="910.866" cy="311.224" r="4" fill="#0" id="circle131"/>
	<circle cx="923.821" cy="170.567" r="4" fill="#0" id="circle132"/>
	<circle cx="929.373" cy="311.224" r="4" fill="#0" id="circle133"/>
	<circle cx="942.328" cy="170.567" r="4" fill="#0" id="circle134"/>
	<circle cx="947.881" cy="305.672" r="4" fill="#0" id="circle135"/>
	<circle cx="958.985" cy="179.821" r="4" fill="#0" id="circle136"/>
	<circle cx="958.985" cy="283.463" r="4" fill="#0" id="circle137"/>
	<circle cx="973.791" cy="190.925" r="4" fill="#0" id="circle138"/>
	<circle cx="973.791" cy="270.507" r="4" fill="#0" id="circle139"/>
	<circle cx="981.194" cy="209.433" r="4" fill="#0" id="circle140"/>
	<circle cx="984.896" cy="255.701" r="4" fill="#0" id="circle141"/>
	<circle cx="996" cy="222.388" r="4" fill="#0" id="circle142"/>
	<circle cx="996" cy="240.896" r="4" fill="#0" id="circle143"/>
	</g>
</svg>