<?xml version="1.0" encoding="UTF-8" standalone="no"?>
<!-- Created with CurveBenchmark -->
<svg
	xmlns:dc="http://purl.org/dc/elements/1.1/"
	xmlns:cc="http://creativecommons.org/ns#"
	xmlns:rdf="http://www.w3.org/1999/02/22-rdf-syntax-ns#"
	xmlns:svg="http://www.w3.org/2000/svg"
	xmlns="http://www.w3.org/2000/svg"
	xmlns:sodipodi="http://sodipodi.sourceforge.net/DTD/sodipodi-0.dtd"
	xmlns:inkscape="http://www.inkscape.org/namespaces/inkscape"
	width="1000"
	height="1000"
	id="svg2"
	version="1.1"
	sodipodi:docname="manifold/gathang-car-07.png.txt">
<defs
	id="defs4" />
<metadata
	id="metadata7">
	<rdf:RDF>
		<cc:Work
			rdf:about="">
			<dc:format>image/svg+xml</dc:format>
			<dc:type
				rdf:resource="http://purl.org/dc/dcmitype/StillImage" />
			<dc:title></dc:title>
		</cc:Work>
	</rdf:RDF>
</metadata>
<g
	inkscape:label="Layer 1"
	inkscape:groupmode="layer"
	id="layer1">
	<path style="fill:none;stroke:red;stroke-width:1px;stroke-linecap:butt;stroke-linejoin:miter;stroke-opacity:1" d="M 105.292,148.231 116.302,147.13 z" id="boundary" inkscape:connector-curvature="0" />
	<path style="fill:none;stroke:red;stroke-width:1px;stroke-linecap:butt;stroke-linejoin:miter;stroke-opacity:1" d="M 94.2819,152.635 105.292,148.231 z" id="boundary" inkscape:connector-curvature="0" />
	<path style="fill:none;stroke:red;stroke-width:1px;stroke-linecap:butt;stroke-linejoin:miter;stroke-opacity:1" d="M 127.312,147.13 116.302,147.13 z" id="boundary" inkscape:connector-curvature="0" />
	<path style="fill:none;stroke:red;stroke-width:1px;stroke-linecap:butt;stroke-linejoin:miter;stroke-opacity:1" d="M 138.322,147.13 127.312,147.13 z" id="boundary" inkscape:connector-curvature="0" />
	<path style="fill:none;stroke:red;stroke-width:1px;stroke-linecap:butt;stroke-linejoin:miter;stroke-opacity:1" d="M 138.322,147.13 149.332,147.13 z" id="boundary" inkscape:connector-curvature="0" />
	<path style="fill:none;stroke:red;stroke-width:1px;stroke-linecap:butt;stroke-linejoin:miter;stroke-opacity:1" d="M 171.352,147.13 160.342,147.13 z" id="boundary" inkscape:connector-curvature="0" />
	<path style="fill:none;stroke:red;stroke-width:1px;stroke-linecap:butt;stroke-linejoin:miter;stroke-opacity:1" d="M 160.342,147.13 149.332,147.13 z" id="boundary" inkscape:connector-curvature="0" />
	<path style="fill:none;stroke:red;stroke-width:1px;stroke-linecap:butt;stroke-linejoin:miter;stroke-opacity:1" d="M 193.372,147.13 182.362,147.13 z" id="boundary" inkscape:connector-curvature="0" />
	<path style="fill:none;stroke:red;stroke-width:1px;stroke-linecap:butt;stroke-linejoin:miter;stroke-opacity:1" d="M 204.382,147.13 193.372,147.13 z" id="boundary" inkscape:connector-curvature="0" />
	<path style="fill:none;stroke:red;stroke-width:1px;stroke-linecap:butt;stroke-linejoin:miter;stroke-opacity:1" d="M 171.352,147.13 182.362,147.13 z" id="boundary" inkscape:connector-curvature="0" />
	<path style="fill:none;stroke:red;stroke-width:1px;stroke-linecap:butt;stroke-linejoin:miter;stroke-opacity:1" d="M 226.402,147.13 215.392,147.13 z" id="boundary" inkscape:connector-curvature="0" />
	<path style="fill:none;stroke:red;stroke-width:1px;stroke-linecap:butt;stroke-linejoin:miter;stroke-opacity:1" d="M 248.422,147.13 237.412,147.13 z" id="boundary" inkscape:connector-curvature="0" />
	<path style="fill:none;stroke:red;stroke-width:1px;stroke-linecap:butt;stroke-linejoin:miter;stroke-opacity:1" d="M 237.412,147.13 226.402,147.13 z" id="boundary" inkscape:connector-curvature="0" />
	<path style="fill:none;stroke:red;stroke-width:1px;stroke-linecap:butt;stroke-linejoin:miter;stroke-opacity:1" d="M 204.382,147.13 215.392,147.13 z" id="boundary" inkscape:connector-curvature="0" />
	<path style="fill:none;stroke:red;stroke-width:1px;stroke-linecap:butt;stroke-linejoin:miter;stroke-opacity:1" d="M 4,227.503 4,216.493 z" id="boundary" inkscape:connector-curvature="0" />
	<path style="fill:none;stroke:red;stroke-width:1px;stroke-linecap:butt;stroke-linejoin:miter;stroke-opacity:1" d="M 4,216.493 9.50499,205.483 z" id="boundary" inkscape:connector-curvature="0" />
	<path style="fill:none;stroke:red;stroke-width:1px;stroke-linecap:butt;stroke-linejoin:miter;stroke-opacity:1" d="M 18.313,196.675 9.50499,205.483 z" id="boundary" inkscape:connector-curvature="0" />
	<path style="fill:none;stroke:red;stroke-width:1px;stroke-linecap:butt;stroke-linejoin:miter;stroke-opacity:1" d="M 23.818,185.665 18.313,196.675 z" id="boundary" inkscape:connector-curvature="0" />
	<path style="fill:none;stroke:red;stroke-width:1px;stroke-linecap:butt;stroke-linejoin:miter;stroke-opacity:1" d="M 4,238.513 4,227.503 z" id="boundary" inkscape:connector-curvature="0" />
	<path style="fill:none;stroke:red;stroke-width:1px;stroke-linecap:butt;stroke-linejoin:miter;stroke-opacity:1" d="M 9.50499,248.422 4,238.513 z" id="boundary" inkscape:connector-curvature="0" />
	<path style="fill:none;stroke:red;stroke-width:1px;stroke-linecap:butt;stroke-linejoin:miter;stroke-opacity:1" d="M 9.50499,248.422 9.50499,259.432 z" id="boundary" inkscape:connector-curvature="0" />
	<path style="fill:none;stroke:red;stroke-width:1px;stroke-linecap:butt;stroke-linejoin:miter;stroke-opacity:1" d="M 15.01,269.341 9.50499,259.432 z" id="boundary" inkscape:connector-curvature="0" />
	<path style="fill:none;stroke:red;stroke-width:1px;stroke-linecap:butt;stroke-linejoin:miter;stroke-opacity:1" d="M 62.3529,163.645 51.343,163.645 z" id="boundary" inkscape:connector-curvature="0" />
	<path style="fill:none;stroke:red;stroke-width:1px;stroke-linecap:butt;stroke-linejoin:miter;stroke-opacity:1" d="M 72.2619,158.14 62.3529,163.645 z" id="boundary" inkscape:connector-curvature="0" />
	<path style="fill:none;stroke:red;stroke-width:1px;stroke-linecap:butt;stroke-linejoin:miter;stroke-opacity:1" d="M 83.2719,153.736 72.2619,158.14 z" id="boundary" inkscape:connector-curvature="0" />
	<path style="fill:none;stroke:red;stroke-width:1px;stroke-linecap:butt;stroke-linejoin:miter;stroke-opacity:1" d="M 83.2719,153.736 94.2819,152.635 z" id="boundary" inkscape:connector-curvature="0" />
	<path style="fill:none;stroke:red;stroke-width:1px;stroke-linecap:butt;stroke-linejoin:miter;stroke-opacity:1" d="M 32.626,176.857 41.434,169.15 z" id="boundary" inkscape:connector-curvature="0" />
	<path style="fill:none;stroke:red;stroke-width:1px;stroke-linecap:butt;stroke-linejoin:miter;stroke-opacity:1" d="M 41.434,169.15 51.343,163.645 z" id="boundary" inkscape:connector-curvature="0" />
	<path style="fill:none;stroke:red;stroke-width:1px;stroke-linecap:butt;stroke-linejoin:miter;stroke-opacity:1" d="M 23.818,185.665 32.626,176.857 z" id="boundary" inkscape:connector-curvature="0" />
	<path style="fill:none;stroke:red;stroke-width:1px;stroke-linecap:butt;stroke-linejoin:miter;stroke-opacity:1" d="M 379.441,97.5849 368.431,97.5849 z" id="boundary" inkscape:connector-curvature="0" />
	<path style="fill:none;stroke:red;stroke-width:1px;stroke-linecap:butt;stroke-linejoin:miter;stroke-opacity:1" d="M 433.39,67.8579 433.39,56.8479 z" id="boundary" inkscape:connector-curvature="0" />
	<path style="fill:none;stroke:red;stroke-width:1px;stroke-linecap:butt;stroke-linejoin:miter;stroke-opacity:1" d="M 433.39,78.8679 433.39,67.8579 z" id="boundary" inkscape:connector-curvature="0" />
	<path style="fill:none;stroke:red;stroke-width:1px;stroke-linecap:butt;stroke-linejoin:miter;stroke-opacity:1" d="M 346.411,97.5849 357.421,97.5849 z" id="boundary" inkscape:connector-curvature="0" />
	<path style="fill:none;stroke:red;stroke-width:1px;stroke-linecap:butt;stroke-linejoin:miter;stroke-opacity:1" d="M 368.431,97.5849 357.421,97.5849 z" id="boundary" inkscape:connector-curvature="0" />
	<path style="fill:none;stroke:red;stroke-width:1px;stroke-linecap:butt;stroke-linejoin:miter;stroke-opacity:1" d="M 433.39,78.8679 433.39,89.8779 z" id="boundary" inkscape:connector-curvature="0" />
	<path style="fill:none;stroke:red;stroke-width:1px;stroke-linecap:butt;stroke-linejoin:miter;stroke-opacity:1" d="M 438.895,40.333 433.39,56.8479 z" id="boundary" inkscape:connector-curvature="0" />
	<path style="fill:none;stroke:red;stroke-width:1px;stroke-linecap:butt;stroke-linejoin:miter;stroke-opacity:1" d="M 465.319,15.01 473.026,6.202 z" id="boundary" inkscape:connector-curvature="0" />
	<path style="fill:none;stroke:red;stroke-width:1px;stroke-linecap:butt;stroke-linejoin:miter;stroke-opacity:1" d="M 473.026,6.202 484.036,4 z" id="boundary" inkscape:connector-curvature="0" />
	<path style="fill:none;stroke:red;stroke-width:1px;stroke-linecap:butt;stroke-linejoin:miter;stroke-opacity:1" d="M 484.036,4 495.046,4 z" id="boundary" inkscape:connector-curvature="0" />
	<path style="fill:none;stroke:red;stroke-width:1px;stroke-linecap:butt;stroke-linejoin:miter;stroke-opacity:1" d="M 447.703,31.525 438.895,40.333 z" id="boundary" inkscape:connector-curvature="0" />
	<path style="fill:none;stroke:red;stroke-width:1px;stroke-linecap:butt;stroke-linejoin:miter;stroke-opacity:1" d="M 456.511,22.717 465.319,15.01 z" id="boundary" inkscape:connector-curvature="0" />
	<path style="fill:none;stroke:red;stroke-width:1px;stroke-linecap:butt;stroke-linejoin:miter;stroke-opacity:1" d="M 456.511,22.717 447.703,31.525 z" id="boundary" inkscape:connector-curvature="0" />
	<path style="fill:none;stroke:red;stroke-width:1px;stroke-linecap:butt;stroke-linejoin:miter;stroke-opacity:1" d="M 346.411,97.5849 335.401,99.7869 z" id="boundary" inkscape:connector-curvature="0" />
	<path style="fill:none;stroke:red;stroke-width:1px;stroke-linecap:butt;stroke-linejoin:miter;stroke-opacity:1" d="M 431.188,103.09 433.39,89.8779 z" id="boundary" inkscape:connector-curvature="0" />
	<path style="fill:none;stroke:red;stroke-width:1px;stroke-linecap:butt;stroke-linejoin:miter;stroke-opacity:1" d="M 293.563,119.605 282.553,119.605 z" id="boundary" inkscape:connector-curvature="0" />
	<path style="fill:none;stroke:red;stroke-width:1px;stroke-linecap:butt;stroke-linejoin:miter;stroke-opacity:1" d="M 282.553,119.605 271.543,119.605 z" id="boundary" inkscape:connector-curvature="0" />
	<path style="fill:none;stroke:red;stroke-width:1px;stroke-linecap:butt;stroke-linejoin:miter;stroke-opacity:1" d="M 324.391,105.292 315.583,114.1 z" id="boundary" inkscape:connector-curvature="0" />
	<path style="fill:none;stroke:red;stroke-width:1px;stroke-linecap:butt;stroke-linejoin:miter;stroke-opacity:1" d="M 262.735,128.413 271.543,119.605 z" id="boundary" inkscape:connector-curvature="0" />
	<path style="fill:none;stroke:red;stroke-width:1px;stroke-linecap:butt;stroke-linejoin:miter;stroke-opacity:1" d="M 258.331,141.625 262.735,128.413 z" id="boundary" inkscape:connector-curvature="0" />
	<path style="fill:none;stroke:red;stroke-width:1px;stroke-linecap:butt;stroke-linejoin:miter;stroke-opacity:1" d="M 258.331,141.625 248.422,147.13 z" id="boundary" inkscape:connector-curvature="0" />
	<path style="fill:none;stroke:red;stroke-width:1px;stroke-linecap:butt;stroke-linejoin:miter;stroke-opacity:1" d="M 293.563,119.605 304.573,119.605 z" id="boundary" inkscape:connector-curvature="0" />
	<path style="fill:none;stroke:red;stroke-width:1px;stroke-linecap:butt;stroke-linejoin:miter;stroke-opacity:1" d="M 315.583,114.1 304.573,119.605 z" id="boundary" inkscape:connector-curvature="0" />
	<path style="fill:none;stroke:red;stroke-width:1px;stroke-linecap:butt;stroke-linejoin:miter;stroke-opacity:1" d="M 389.35,103.09 399.259,108.595 z" id="boundary" inkscape:connector-curvature="0" />
	<path style="fill:none;stroke:red;stroke-width:1px;stroke-linecap:butt;stroke-linejoin:miter;stroke-opacity:1" d="M 379.441,97.5849 389.35,103.09 z" id="boundary" inkscape:connector-curvature="0" />
	<path style="fill:none;stroke:red;stroke-width:1px;stroke-linecap:butt;stroke-linejoin:miter;stroke-opacity:1" d="M 431.188,103.09 421.279,108.595 z" id="boundary" inkscape:connector-curvature="0" />
	<path style="fill:none;stroke:red;stroke-width:1px;stroke-linecap:butt;stroke-linejoin:miter;stroke-opacity:1" d="M 324.391,105.292 335.401,99.7869 z" id="boundary" inkscape:connector-curvature="0" />
	<path style="fill:none;stroke:red;stroke-width:1px;stroke-linecap:butt;stroke-linejoin:miter;stroke-opacity:1" d="M 399.259,108.595 410.269,108.595 z" id="boundary" inkscape:connector-curvature="0" />
	<path style="fill:none;stroke:red;stroke-width:1px;stroke-linecap:butt;stroke-linejoin:miter;stroke-opacity:1" d="M 421.279,108.595 410.269,108.595 z" id="boundary" inkscape:connector-curvature="0" />
	<path style="fill:none;stroke:red;stroke-width:1px;stroke-linecap:butt;stroke-linejoin:miter;stroke-opacity:1" d="M 15.01,269.341 20.515,279.25 z" id="boundary" inkscape:connector-curvature="0" />
	<path style="fill:none;stroke:red;stroke-width:1px;stroke-linecap:butt;stroke-linejoin:miter;stroke-opacity:1" d="M 26.02,289.159 20.515,279.25 z" id="boundary" inkscape:connector-curvature="0" />
	<path style="fill:none;stroke:red;stroke-width:1px;stroke-linecap:butt;stroke-linejoin:miter;stroke-opacity:1" d="M 175.756,406.966 164.746,406.966 z" id="boundary" inkscape:connector-curvature="0" />
	<path style="fill:none;stroke:red;stroke-width:1px;stroke-linecap:butt;stroke-linejoin:miter;stroke-opacity:1" d="M 26.02,289.159 26.02,300.169 z" id="boundary" inkscape:connector-curvature="0" />
	<path style="fill:none;stroke:red;stroke-width:1px;stroke-linecap:butt;stroke-linejoin:miter;stroke-opacity:1" d="M 26.02,300.169 26.02,311.179 z" id="boundary" inkscape:connector-curvature="0" />
	<path style="fill:none;stroke:red;stroke-width:1px;stroke-linecap:butt;stroke-linejoin:miter;stroke-opacity:1" d="M 26.02,322.189 26.02,311.179 z" id="boundary" inkscape:connector-curvature="0" />
	<path style="fill:none;stroke:red;stroke-width:1px;stroke-linecap:butt;stroke-linejoin:miter;stroke-opacity:1" d="M 26.02,322.189 26.02,333.199 z" id="boundary" inkscape:connector-curvature="0" />
	<path style="fill:none;stroke:red;stroke-width:1px;stroke-linecap:butt;stroke-linejoin:miter;stroke-opacity:1" d="M 26.02,333.199 26.02,344.209 z" id="boundary" inkscape:connector-curvature="0" />
	<path style="fill:none;stroke:red;stroke-width:1px;stroke-linecap:butt;stroke-linejoin:miter;stroke-opacity:1" d="M 26.02,344.209 26.02,355.219 z" id="boundary" inkscape:connector-curvature="0" />
	<path style="fill:none;stroke:red;stroke-width:1px;stroke-linecap:butt;stroke-linejoin:miter;stroke-opacity:1" d="M 26.02,366.229 26.02,355.219 z" id="boundary" inkscape:connector-curvature="0" />
	<path style="fill:none;stroke:red;stroke-width:1px;stroke-linecap:butt;stroke-linejoin:miter;stroke-opacity:1" d="M 31.525,376.138 26.02,366.229 z" id="boundary" inkscape:connector-curvature="0" />
	<path style="fill:none;stroke:red;stroke-width:1px;stroke-linecap:butt;stroke-linejoin:miter;stroke-opacity:1" d="M 31.525,376.138 38.131,384.946 z" id="boundary" inkscape:connector-curvature="0" />
	<path style="fill:none;stroke:red;stroke-width:1px;stroke-linecap:butt;stroke-linejoin:miter;stroke-opacity:1" d="M 48.04,390.451 38.131,384.946 z" id="boundary" inkscape:connector-curvature="0" />
	<path style="fill:none;stroke:red;stroke-width:1px;stroke-linecap:butt;stroke-linejoin:miter;stroke-opacity:1" d="M 48.04,390.451 53.545,400.36 z" id="boundary" inkscape:connector-curvature="0" />
	<path style="fill:none;stroke:red;stroke-width:1px;stroke-linecap:butt;stroke-linejoin:miter;stroke-opacity:1" d="M 53.545,400.36 53.545,411.37 z" id="boundary" inkscape:connector-curvature="0" />
	<path style="fill:none;stroke:red;stroke-width:1px;stroke-linecap:butt;stroke-linejoin:miter;stroke-opacity:1" d="M 53.545,411.37 59.0499,421.279 z" id="boundary" inkscape:connector-curvature="0" />
	<path style="fill:none;stroke:red;stroke-width:1px;stroke-linecap:butt;stroke-linejoin:miter;stroke-opacity:1" d="M 64.5549,431.188 59.0499,421.279 z" id="boundary" inkscape:connector-curvature="0" />
	<path style="fill:none;stroke:red;stroke-width:1px;stroke-linecap:butt;stroke-linejoin:miter;stroke-opacity:1" d="M 71.1609,439.996 64.5549,431.188 z" id="boundary" inkscape:connector-curvature="0" />
	<path style="fill:none;stroke:red;stroke-width:1px;stroke-linecap:butt;stroke-linejoin:miter;stroke-opacity:1" d="M 81.0699,445.501 71.1609,439.996 z" id="boundary" inkscape:connector-curvature="0" />
	<path style="fill:none;stroke:red;stroke-width:1px;stroke-linecap:butt;stroke-linejoin:miter;stroke-opacity:1" d="M 101.989,451.006 90.9789,451.006 z" id="boundary" inkscape:connector-curvature="0" />
	<path style="fill:none;stroke:red;stroke-width:1px;stroke-linecap:butt;stroke-linejoin:miter;stroke-opacity:1" d="M 90.9789,451.006 81.0699,445.501 z" id="boundary" inkscape:connector-curvature="0" />
	<path style="fill:none;stroke:red;stroke-width:1px;stroke-linecap:butt;stroke-linejoin:miter;stroke-opacity:1" d="M 152.635,431.188 159.241,417.976 z" id="boundary" inkscape:connector-curvature="0" />
	<path style="fill:none;stroke:red;stroke-width:1px;stroke-linecap:butt;stroke-linejoin:miter;stroke-opacity:1" d="M 152.635,431.188 143.827,439.996 z" id="boundary" inkscape:connector-curvature="0" />
	<path style="fill:none;stroke:red;stroke-width:1px;stroke-linecap:butt;stroke-linejoin:miter;stroke-opacity:1" d="M 159.241,417.976 164.746,406.966 z" id="boundary" inkscape:connector-curvature="0" />
	<path style="fill:none;stroke:red;stroke-width:1px;stroke-linecap:butt;stroke-linejoin:miter;stroke-opacity:1" d="M 112.999,451.006 101.989,451.006 z" id="boundary" inkscape:connector-curvature="0" />
	<path style="fill:none;stroke:red;stroke-width:1px;stroke-linecap:butt;stroke-linejoin:miter;stroke-opacity:1" d="M 175.756,406.966 186.766,406.966 z" id="boundary" inkscape:connector-curvature="0" />
	<path style="fill:none;stroke:red;stroke-width:1px;stroke-linecap:butt;stroke-linejoin:miter;stroke-opacity:1" d="M 124.009,451.006 112.999,451.006 z" id="boundary" inkscape:connector-curvature="0" />
	<path style="fill:none;stroke:red;stroke-width:1px;stroke-linecap:butt;stroke-linejoin:miter;stroke-opacity:1" d="M 133.918,445.501 124.009,451.006 z" id="boundary" inkscape:connector-curvature="0" />
	<path style="fill:none;stroke:red;stroke-width:1px;stroke-linecap:butt;stroke-linejoin:miter;stroke-opacity:1" d="M 133.918,445.501 143.827,439.996 z" id="boundary" inkscape:connector-curvature="0" />
	<path style="fill:none;stroke:red;stroke-width:1px;stroke-linecap:butt;stroke-linejoin:miter;stroke-opacity:1" d="M 197.776,406.966 208.786,406.966 z" id="boundary" inkscape:connector-curvature="0" />
	<path style="fill:none;stroke:red;stroke-width:1px;stroke-linecap:butt;stroke-linejoin:miter;stroke-opacity:1" d="M 197.776,406.966 186.766,406.966 z" id="boundary" inkscape:connector-curvature="0" />
	<path style="fill:none;stroke:red;stroke-width:1px;stroke-linecap:butt;stroke-linejoin:miter;stroke-opacity:1" d="M 208.786,406.966 219.796,406.966 z" id="boundary" inkscape:connector-curvature="0" />
	<path style="fill:none;stroke:red;stroke-width:1px;stroke-linecap:butt;stroke-linejoin:miter;stroke-opacity:1" d="M 230.806,406.966 241.816,406.966 z" id="boundary" inkscape:connector-curvature="0" />
	<path style="fill:none;stroke:red;stroke-width:1px;stroke-linecap:butt;stroke-linejoin:miter;stroke-opacity:1" d="M 252.826,406.966 263.836,406.966 z" id="boundary" inkscape:connector-curvature="0" />
	<path style="fill:none;stroke:red;stroke-width:1px;stroke-linecap:butt;stroke-linejoin:miter;stroke-opacity:1" d="M 230.806,406.966 219.796,406.966 z" id="boundary" inkscape:connector-curvature="0" />
	<path style="fill:none;stroke:red;stroke-width:1px;stroke-linecap:butt;stroke-linejoin:miter;stroke-opacity:1" d="M 241.816,406.966 252.826,406.966 z" id="boundary" inkscape:connector-curvature="0" />
	<path style="fill:none;stroke:red;stroke-width:1px;stroke-linecap:butt;stroke-linejoin:miter;stroke-opacity:1" d="M 285.856,406.966 296.866,406.966 z" id="boundary" inkscape:connector-curvature="0" />
	<path style="fill:none;stroke:red;stroke-width:1px;stroke-linecap:butt;stroke-linejoin:miter;stroke-opacity:1" d="M 285.856,406.966 274.846,406.966 z" id="boundary" inkscape:connector-curvature="0" />
	<path style="fill:none;stroke:red;stroke-width:1px;stroke-linecap:butt;stroke-linejoin:miter;stroke-opacity:1" d="M 274.846,406.966 263.836,406.966 z" id="boundary" inkscape:connector-curvature="0" />
	<path style="fill:none;stroke:red;stroke-width:1px;stroke-linecap:butt;stroke-linejoin:miter;stroke-opacity:1" d="M 307.876,406.966 318.886,406.966 z" id="boundary" inkscape:connector-curvature="0" />
	<path style="fill:none;stroke:red;stroke-width:1px;stroke-linecap:butt;stroke-linejoin:miter;stroke-opacity:1" d="M 307.876,406.966 296.866,406.966 z" id="boundary" inkscape:connector-curvature="0" />
	<path style="fill:none;stroke:red;stroke-width:1px;stroke-linecap:butt;stroke-linejoin:miter;stroke-opacity:1" d="M 329.896,406.966 340.906,406.966 z" id="boundary" inkscape:connector-curvature="0" />
	<path style="fill:none;stroke:red;stroke-width:1px;stroke-linecap:butt;stroke-linejoin:miter;stroke-opacity:1" d="M 329.896,406.966 318.886,406.966 z" id="boundary" inkscape:connector-curvature="0" />
	<path style="fill:none;stroke:red;stroke-width:1px;stroke-linecap:butt;stroke-linejoin:miter;stroke-opacity:1" d="M 351.916,406.966 362.926,406.966 z" id="boundary" inkscape:connector-curvature="0" />
	<path style="fill:none;stroke:red;stroke-width:1px;stroke-linecap:butt;stroke-linejoin:miter;stroke-opacity:1" d="M 351.916,406.966 340.906,406.966 z" id="boundary" inkscape:connector-curvature="0" />
	<path style="fill:none;stroke:red;stroke-width:1px;stroke-linecap:butt;stroke-linejoin:miter;stroke-opacity:1" d="M 362.926,406.966 373.936,406.966 z" id="boundary" inkscape:connector-curvature="0" />
	<path style="fill:none;stroke:red;stroke-width:1px;stroke-linecap:butt;stroke-linejoin:miter;stroke-opacity:1" d="M 389.35,422.38 391.552,433.39 z" id="boundary" inkscape:connector-curvature="0" />
	<path style="fill:none;stroke:red;stroke-width:1px;stroke-linecap:butt;stroke-linejoin:miter;stroke-opacity:1" d="M 410.269,445.501 400.36,439.996 z" id="boundary" inkscape:connector-curvature="0" />
	<path style="fill:none;stroke:red;stroke-width:1px;stroke-linecap:butt;stroke-linejoin:miter;stroke-opacity:1" d="M 391.552,433.39 400.36,439.996 z" id="boundary" inkscape:connector-curvature="0" />
	<path style="fill:none;stroke:red;stroke-width:1px;stroke-linecap:butt;stroke-linejoin:miter;stroke-opacity:1" d="M 389.35,422.38 383.845,412.471 z" id="boundary" inkscape:connector-curvature="0" />
	<path style="fill:none;stroke:red;stroke-width:1px;stroke-linecap:butt;stroke-linejoin:miter;stroke-opacity:1" d="M 373.936,406.966 383.845,412.471 z" id="boundary" inkscape:connector-curvature="0" />
	<path style="fill:none;stroke:red;stroke-width:1px;stroke-linecap:butt;stroke-linejoin:miter;stroke-opacity:1" d="M 410.269,445.501 420.178,451.006 z" id="boundary" inkscape:connector-curvature="0" />
	<path style="fill:none;stroke:red;stroke-width:1px;stroke-linecap:butt;stroke-linejoin:miter;stroke-opacity:1" d="M 431.188,451.006 420.178,451.006 z" id="boundary" inkscape:connector-curvature="0" />
	<path style="fill:none;stroke:red;stroke-width:1px;stroke-linecap:butt;stroke-linejoin:miter;stroke-opacity:1" d="M 442.198,451.006 431.188,451.006 z" id="boundary" inkscape:connector-curvature="0" />
	<path style="fill:none;stroke:red;stroke-width:1px;stroke-linecap:butt;stroke-linejoin:miter;stroke-opacity:1" d="M 453.208,451.006 442.198,451.006 z" id="boundary" inkscape:connector-curvature="0" />
	<path style="fill:none;stroke:red;stroke-width:1px;stroke-linecap:butt;stroke-linejoin:miter;stroke-opacity:1" d="M 475.228,451.006 464.218,451.006 z" id="boundary" inkscape:connector-curvature="0" />
	<path style="fill:none;stroke:red;stroke-width:1px;stroke-linecap:butt;stroke-linejoin:miter;stroke-opacity:1" d="M 464.218,451.006 453.208,451.006 z" id="boundary" inkscape:connector-curvature="0" />
	<path style="fill:none;stroke:red;stroke-width:1px;stroke-linecap:butt;stroke-linejoin:miter;stroke-opacity:1" d="M 486.238,451.006 475.228,451.006 z" id="boundary" inkscape:connector-curvature="0" />
	<path style="fill:none;stroke:red;stroke-width:1px;stroke-linecap:butt;stroke-linejoin:miter;stroke-opacity:1" d="M 495.046,4 506.055,4 z" id="boundary" inkscape:connector-curvature="0" />
	<path style="fill:none;stroke:red;stroke-width:1px;stroke-linecap:butt;stroke-linejoin:miter;stroke-opacity:1" d="M 517.065,4 528.075,4 z" id="boundary" inkscape:connector-curvature="0" />
	<path style="fill:none;stroke:red;stroke-width:1px;stroke-linecap:butt;stroke-linejoin:miter;stroke-opacity:1" d="M 528.075,4 539.085,4 z" id="boundary" inkscape:connector-curvature="0" />
	<path style="fill:none;stroke:red;stroke-width:1px;stroke-linecap:butt;stroke-linejoin:miter;stroke-opacity:1" d="M 550.095,4 561.105,4 z" id="boundary" inkscape:connector-curvature="0" />
	<path style="fill:none;stroke:red;stroke-width:1px;stroke-linecap:butt;stroke-linejoin:miter;stroke-opacity:1" d="M 572.115,4 583.125,4 z" id="boundary" inkscape:connector-curvature="0" />
	<path style="fill:none;stroke:red;stroke-width:1px;stroke-linecap:butt;stroke-linejoin:miter;stroke-opacity:1" d="M 561.105,4 572.115,4 z" id="boundary" inkscape:connector-curvature="0" />
	<path style="fill:none;stroke:red;stroke-width:1px;stroke-linecap:butt;stroke-linejoin:miter;stroke-opacity:1" d="M 539.085,4 550.095,4 z" id="boundary" inkscape:connector-curvature="0" />
	<path style="fill:none;stroke:red;stroke-width:1px;stroke-linecap:butt;stroke-linejoin:miter;stroke-opacity:1" d="M 594.135,4 605.145,4 z" id="boundary" inkscape:connector-curvature="0" />
	<path style="fill:none;stroke:red;stroke-width:1px;stroke-linecap:butt;stroke-linejoin:miter;stroke-opacity:1" d="M 616.155,4 627.165,4 z" id="boundary" inkscape:connector-curvature="0" />
	<path style="fill:none;stroke:red;stroke-width:1px;stroke-linecap:butt;stroke-linejoin:miter;stroke-opacity:1" d="M 638.175,4 649.185,4 z" id="boundary" inkscape:connector-curvature="0" />
	<path style="fill:none;stroke:red;stroke-width:1px;stroke-linecap:butt;stroke-linejoin:miter;stroke-opacity:1" d="M 627.165,4 638.175,4 z" id="boundary" inkscape:connector-curvature="0" />
	<path style="fill:none;stroke:red;stroke-width:1px;stroke-linecap:butt;stroke-linejoin:miter;stroke-opacity:1" d="M 605.145,4 616.155,4 z" id="boundary" inkscape:connector-curvature="0" />
	<path style="fill:none;stroke:red;stroke-width:1px;stroke-linecap:butt;stroke-linejoin:miter;stroke-opacity:1" d="M 583.125,4 594.135,4 z" id="boundary" inkscape:connector-curvature="0" />
	<path style="fill:none;stroke:red;stroke-width:1px;stroke-linecap:butt;stroke-linejoin:miter;stroke-opacity:1" d="M 693.225,9.50499 682.215,9.50499 z" id="boundary" inkscape:connector-curvature="0" />
	<path style="fill:none;stroke:red;stroke-width:1px;stroke-linecap:butt;stroke-linejoin:miter;stroke-opacity:1" d="M 682.215,9.50499 671.205,7.303 z" id="boundary" inkscape:connector-curvature="0" />
	<path style="fill:none;stroke:red;stroke-width:1px;stroke-linecap:butt;stroke-linejoin:miter;stroke-opacity:1" d="M 671.205,7.303 660.195,4 z" id="boundary" inkscape:connector-curvature="0" />
	<path style="fill:none;stroke:red;stroke-width:1px;stroke-linecap:butt;stroke-linejoin:miter;stroke-opacity:1" d="M 693.225,9.50499 704.235,9.50499 z" id="boundary" inkscape:connector-curvature="0" />
	<path style="fill:none;stroke:red;stroke-width:1px;stroke-linecap:butt;stroke-linejoin:miter;stroke-opacity:1" d="M 704.235,9.50499 714.144,15.01 z" id="boundary" inkscape:connector-curvature="0" />
	<path style="fill:none;stroke:red;stroke-width:1px;stroke-linecap:butt;stroke-linejoin:miter;stroke-opacity:1" d="M 725.154,17.212 714.144,15.01 z" id="boundary" inkscape:connector-curvature="0" />
	<path style="fill:none;stroke:red;stroke-width:1px;stroke-linecap:butt;stroke-linejoin:miter;stroke-opacity:1" d="M 736.164,20.515 747.174,22.717 z" id="boundary" inkscape:connector-curvature="0" />
	<path style="fill:none;stroke:red;stroke-width:1px;stroke-linecap:butt;stroke-linejoin:miter;stroke-opacity:1" d="M 736.164,20.515 725.154,17.212 z" id="boundary" inkscape:connector-curvature="0" />
	<path style="fill:none;stroke:red;stroke-width:1px;stroke-linecap:butt;stroke-linejoin:miter;stroke-opacity:1" d="M 757.083,28.222 762.588,38.131 z" id="boundary" inkscape:connector-curvature="0" />
	<path style="fill:none;stroke:red;stroke-width:1px;stroke-linecap:butt;stroke-linejoin:miter;stroke-opacity:1" d="M 747.174,22.717 757.083,28.222 z" id="boundary" inkscape:connector-curvature="0" />
	<path style="fill:none;stroke:red;stroke-width:1px;stroke-linecap:butt;stroke-linejoin:miter;stroke-opacity:1" d="M 762.588,38.131 764.79,49.141 z" id="boundary" inkscape:connector-curvature="0" />
	<path style="fill:none;stroke:red;stroke-width:1px;stroke-linecap:butt;stroke-linejoin:miter;stroke-opacity:1" d="M 764.79,49.141 764.79,60.1509 z" id="boundary" inkscape:connector-curvature="0" />
	<path style="fill:none;stroke:red;stroke-width:1px;stroke-linecap:butt;stroke-linejoin:miter;stroke-opacity:1" d="M 764.79,71.1609 764.79,82.1709 z" id="boundary" inkscape:connector-curvature="0" />
	<path style="fill:none;stroke:red;stroke-width:1px;stroke-linecap:butt;stroke-linejoin:miter;stroke-opacity:1" d="M 766.992,93.1809 764.79,82.1709 z" id="boundary" inkscape:connector-curvature="0" />
	<path style="fill:none;stroke:red;stroke-width:1px;stroke-linecap:butt;stroke-linejoin:miter;stroke-opacity:1" d="M 764.79,71.1609 764.79,60.1509 z" id="boundary" inkscape:connector-curvature="0" />
	<path style="fill:none;stroke:red;stroke-width:1px;stroke-linecap:butt;stroke-linejoin:miter;stroke-opacity:1" d="M 649.185,4 660.195,4 z" id="boundary" inkscape:connector-curvature="0" />
	<path style="fill:none;stroke:red;stroke-width:1px;stroke-linecap:butt;stroke-linejoin:miter;stroke-opacity:1" d="M 775.8,114.1 770.295,104.191 z" id="boundary" inkscape:connector-curvature="0" />
	<path style="fill:none;stroke:red;stroke-width:1px;stroke-linecap:butt;stroke-linejoin:miter;stroke-opacity:1" d="M 770.295,104.191 766.992,93.1809 z" id="boundary" inkscape:connector-curvature="0" />
	<path style="fill:none;stroke:red;stroke-width:1px;stroke-linecap:butt;stroke-linejoin:miter;stroke-opacity:1" d="M 775.8,114.1 775.8,125.11 z" id="boundary" inkscape:connector-curvature="0" />
	<path style="fill:none;stroke:red;stroke-width:1px;stroke-linecap:butt;stroke-linejoin:miter;stroke-opacity:1" d="M 781.305,135.019 775.8,125.11 z" id="boundary" inkscape:connector-curvature="0" />
	<path style="fill:none;stroke:red;stroke-width:1px;stroke-linecap:butt;stroke-linejoin:miter;stroke-opacity:1" d="M 866.082,136.12 877.092,136.12 z" id="boundary" inkscape:connector-curvature="0" />
	<path style="fill:none;stroke:red;stroke-width:1px;stroke-linecap:butt;stroke-linejoin:miter;stroke-opacity:1" d="M 856.173,141.625 866.082,136.12 z" id="boundary" inkscape:connector-curvature="0" />
	<path style="fill:none;stroke:red;stroke-width:1px;stroke-linecap:butt;stroke-linejoin:miter;stroke-opacity:1" d="M 898.011,130.615 909.021,130.615 z" id="boundary" inkscape:connector-curvature="0" />
	<path style="fill:none;stroke:red;stroke-width:1px;stroke-linecap:butt;stroke-linejoin:miter;stroke-opacity:1" d="M 888.102,136.12 898.011,130.615 z" id="boundary" inkscape:connector-curvature="0" />
	<path style="fill:none;stroke:red;stroke-width:1px;stroke-linecap:butt;stroke-linejoin:miter;stroke-opacity:1" d="M 920.031,130.615 931.041,130.615 z" id="boundary" inkscape:connector-curvature="0" />
	<path style="fill:none;stroke:red;stroke-width:1px;stroke-linecap:butt;stroke-linejoin:miter;stroke-opacity:1" d="M 920.031,130.615 909.021,130.615 z" id="boundary" inkscape:connector-curvature="0" />
	<path style="fill:none;stroke:red;stroke-width:1px;stroke-linecap:butt;stroke-linejoin:miter;stroke-opacity:1" d="M 931.041,130.615 942.051,130.615 z" id="boundary" inkscape:connector-curvature="0" />
	<path style="fill:none;stroke:red;stroke-width:1px;stroke-linecap:butt;stroke-linejoin:miter;stroke-opacity:1" d="M 953.061,130.615 962.97,136.12 z" id="boundary" inkscape:connector-curvature="0" />
	<path style="fill:none;stroke:red;stroke-width:1px;stroke-linecap:butt;stroke-linejoin:miter;stroke-opacity:1" d="M 942.051,130.615 953.061,130.615 z" id="boundary" inkscape:connector-curvature="0" />
	<path style="fill:none;stroke:red;stroke-width:1px;stroke-linecap:butt;stroke-linejoin:miter;stroke-opacity:1" d="M 973.98,139.423 962.97,136.12 z" id="boundary" inkscape:connector-curvature="0" />
	<path style="fill:none;stroke:red;stroke-width:1px;stroke-linecap:butt;stroke-linejoin:miter;stroke-opacity:1" d="M 888.102,136.12 877.092,136.12 z" id="boundary" inkscape:connector-curvature="0" />
	<path style="fill:none;stroke:red;stroke-width:1px;stroke-linecap:butt;stroke-linejoin:miter;stroke-opacity:1" d="M 790.113,141.625 801.123,141.625 z" id="boundary" inkscape:connector-curvature="0" />
	<path style="fill:none;stroke:red;stroke-width:1px;stroke-linecap:butt;stroke-linejoin:miter;stroke-opacity:1" d="M 790.113,141.625 781.305,135.019 z" id="boundary" inkscape:connector-curvature="0" />
	<path style="fill:none;stroke:red;stroke-width:1px;stroke-linecap:butt;stroke-linejoin:miter;stroke-opacity:1" d="M 812.133,141.625 801.123,141.625 z" id="boundary" inkscape:connector-curvature="0" />
	<path style="fill:none;stroke:red;stroke-width:1px;stroke-linecap:butt;stroke-linejoin:miter;stroke-opacity:1" d="M 823.143,141.625 834.153,141.625 z" id="boundary" inkscape:connector-curvature="0" />
	<path style="fill:none;stroke:red;stroke-width:1px;stroke-linecap:butt;stroke-linejoin:miter;stroke-opacity:1" d="M 845.163,141.625 856.173,141.625 z" id="boundary" inkscape:connector-curvature="0" />
	<path style="fill:none;stroke:red;stroke-width:1px;stroke-linecap:butt;stroke-linejoin:miter;stroke-opacity:1" d="M 845.163,141.625 834.153,141.625 z" id="boundary" inkscape:connector-curvature="0" />
	<path style="fill:none;stroke:red;stroke-width:1px;stroke-linecap:butt;stroke-linejoin:miter;stroke-opacity:1" d="M 823.143,141.625 812.133,141.625 z" id="boundary" inkscape:connector-curvature="0" />
	<path style="fill:none;stroke:red;stroke-width:1px;stroke-linecap:butt;stroke-linejoin:miter;stroke-opacity:1" d="M 981.687,148.231 973.98,139.423 z" id="boundary" inkscape:connector-curvature="0" />
	<path style="fill:none;stroke:red;stroke-width:1px;stroke-linecap:butt;stroke-linejoin:miter;stroke-opacity:1" d="M 990.495,155.938 981.687,148.231 z" id="boundary" inkscape:connector-curvature="0" />
	<path style="fill:none;stroke:red;stroke-width:1px;stroke-linecap:butt;stroke-linejoin:miter;stroke-opacity:1" d="M 990.495,155.938 994.899,166.948 z" id="boundary" inkscape:connector-curvature="0" />
	<path style="fill:none;stroke:red;stroke-width:1px;stroke-linecap:butt;stroke-linejoin:miter;stroke-opacity:1" d="M 994.899,166.948 996,177.958 z" id="boundary" inkscape:connector-curvature="0" />
	<path style="fill:none;stroke:red;stroke-width:1px;stroke-linecap:butt;stroke-linejoin:miter;stroke-opacity:1" d="M 982.788,228.604 988.293,217.594 z" id="boundary" inkscape:connector-curvature="0" />
	<path style="fill:none;stroke:red;stroke-width:1px;stroke-linecap:butt;stroke-linejoin:miter;stroke-opacity:1" d="M 990.495,197.776 988.293,217.594 z" id="boundary" inkscape:connector-curvature="0" />
	<path style="fill:none;stroke:red;stroke-width:1px;stroke-linecap:butt;stroke-linejoin:miter;stroke-opacity:1" d="M 990.495,197.776 996,177.958 z" id="boundary" inkscape:connector-curvature="0" />
	<path style="fill:none;stroke:red;stroke-width:1px;stroke-linecap:butt;stroke-linejoin:miter;stroke-opacity:1" d="M 610.65,406.966 599.64,406.966 z" id="boundary" inkscape:connector-curvature="0" />
	<path style="fill:none;stroke:red;stroke-width:1px;stroke-linecap:butt;stroke-linejoin:miter;stroke-opacity:1" d="M 676.71,401.461 665.7,401.461 z" id="boundary" inkscape:connector-curvature="0" />
	<path style="fill:none;stroke:red;stroke-width:1px;stroke-linecap:butt;stroke-linejoin:miter;stroke-opacity:1" d="M 687.72,401.461 676.71,401.461 z" id="boundary" inkscape:connector-curvature="0" />
	<path style="fill:none;stroke:red;stroke-width:1px;stroke-linecap:butt;stroke-linejoin:miter;stroke-opacity:1" d="M 698.73,395.956 687.72,401.461 z" id="boundary" inkscape:connector-curvature="0" />
	<path style="fill:none;stroke:red;stroke-width:1px;stroke-linecap:butt;stroke-linejoin:miter;stroke-opacity:1" d="M 654.69,406.966 665.7,401.461 z" id="boundary" inkscape:connector-curvature="0" />
	<path style="fill:none;stroke:red;stroke-width:1px;stroke-linecap:butt;stroke-linejoin:miter;stroke-opacity:1" d="M 566.61,406.966 577.62,406.966 z" id="boundary" inkscape:connector-curvature="0" />
	<path style="fill:none;stroke:red;stroke-width:1px;stroke-linecap:butt;stroke-linejoin:miter;stroke-opacity:1" d="M 558.903,415.774 566.61,406.966 z" id="boundary" inkscape:connector-curvature="0" />
	<path style="fill:none;stroke:red;stroke-width:1px;stroke-linecap:butt;stroke-linejoin:miter;stroke-opacity:1" d="M 588.63,406.966 599.64,406.966 z" id="boundary" inkscape:connector-curvature="0" />
	<path style="fill:none;stroke:red;stroke-width:1px;stroke-linecap:butt;stroke-linejoin:miter;stroke-opacity:1" d="M 577.62,406.966 588.63,406.966 z" id="boundary" inkscape:connector-curvature="0" />
	<path style="fill:none;stroke:red;stroke-width:1px;stroke-linecap:butt;stroke-linejoin:miter;stroke-opacity:1" d="M 709.74,395.956 720.75,395.956 z" id="boundary" inkscape:connector-curvature="0" />
	<path style="fill:none;stroke:red;stroke-width:1px;stroke-linecap:butt;stroke-linejoin:miter;stroke-opacity:1" d="M 709.74,395.956 698.73,395.956 z" id="boundary" inkscape:connector-curvature="0" />
	<path style="fill:none;stroke:red;stroke-width:1px;stroke-linecap:butt;stroke-linejoin:miter;stroke-opacity:1" d="M 731.76,395.956 742.77,395.956 z" id="boundary" inkscape:connector-curvature="0" />
	<path style="fill:none;stroke:red;stroke-width:1px;stroke-linecap:butt;stroke-linejoin:miter;stroke-opacity:1" d="M 742.77,395.956 753.78,395.956 z" id="boundary" inkscape:connector-curvature="0" />
	<path style="fill:none;stroke:red;stroke-width:1px;stroke-linecap:butt;stroke-linejoin:miter;stroke-opacity:1" d="M 764.79,398.158 753.78,395.956 z" id="boundary" inkscape:connector-curvature="0" />
	<path style="fill:none;stroke:red;stroke-width:1px;stroke-linecap:butt;stroke-linejoin:miter;stroke-opacity:1" d="M 720.75,395.956 731.76,395.956 z" id="boundary" inkscape:connector-curvature="0" />
	<path style="fill:none;stroke:red;stroke-width:1px;stroke-linecap:butt;stroke-linejoin:miter;stroke-opacity:1" d="M 764.79,398.158 769.194,409.168 z" id="boundary" inkscape:connector-curvature="0" />
	<path style="fill:none;stroke:red;stroke-width:1px;stroke-linecap:butt;stroke-linejoin:miter;stroke-opacity:1" d="M 539.085,434.491 550.095,423.481 z" id="boundary" inkscape:connector-curvature="0" />
	<path style="fill:none;stroke:red;stroke-width:1px;stroke-linecap:butt;stroke-linejoin:miter;stroke-opacity:1" d="M 497.248,451.006 486.238,451.006 z" id="boundary" inkscape:connector-curvature="0" />
	<path style="fill:none;stroke:red;stroke-width:1px;stroke-linecap:butt;stroke-linejoin:miter;stroke-opacity:1" d="M 530.277,444.4 539.085,434.491 z" id="boundary" inkscape:connector-curvature="0" />
	<path style="fill:none;stroke:red;stroke-width:1px;stroke-linecap:butt;stroke-linejoin:miter;stroke-opacity:1" d="M 508.257,451.006 497.248,451.006 z" id="boundary" inkscape:connector-curvature="0" />
	<path style="fill:none;stroke:red;stroke-width:1px;stroke-linecap:butt;stroke-linejoin:miter;stroke-opacity:1" d="M 519.267,449.905 530.277,444.4 z" id="boundary" inkscape:connector-curvature="0" />
	<path style="fill:none;stroke:red;stroke-width:1px;stroke-linecap:butt;stroke-linejoin:miter;stroke-opacity:1" d="M 519.267,449.905 508.257,451.006 z" id="boundary" inkscape:connector-curvature="0" />
	<path style="fill:none;stroke:red;stroke-width:1px;stroke-linecap:butt;stroke-linejoin:miter;stroke-opacity:1" d="M 550.095,423.481 558.903,415.774 z" id="boundary" inkscape:connector-curvature="0" />
	<path style="fill:none;stroke:red;stroke-width:1px;stroke-linecap:butt;stroke-linejoin:miter;stroke-opacity:1" d="M 621.66,406.966 632.67,406.966 z" id="boundary" inkscape:connector-curvature="0" />
	<path style="fill:none;stroke:red;stroke-width:1px;stroke-linecap:butt;stroke-linejoin:miter;stroke-opacity:1" d="M 621.66,406.966 610.65,406.966 z" id="boundary" inkscape:connector-curvature="0" />
	<path style="fill:none;stroke:red;stroke-width:1px;stroke-linecap:butt;stroke-linejoin:miter;stroke-opacity:1" d="M 643.68,406.966 654.69,406.966 z" id="boundary" inkscape:connector-curvature="0" />
	<path style="fill:none;stroke:red;stroke-width:1px;stroke-linecap:butt;stroke-linejoin:miter;stroke-opacity:1" d="M 643.68,406.966 632.67,406.966 z" id="boundary" inkscape:connector-curvature="0" />
	<path style="fill:none;stroke:red;stroke-width:1px;stroke-linecap:butt;stroke-linejoin:miter;stroke-opacity:1" d="M 769.194,409.168 774.699,419.077 z" id="boundary" inkscape:connector-curvature="0" />
	<path style="fill:none;stroke:red;stroke-width:1px;stroke-linecap:butt;stroke-linejoin:miter;stroke-opacity:1" d="M 785.709,423.481 774.699,419.077 z" id="boundary" inkscape:connector-curvature="0" />
	<path style="fill:none;stroke:red;stroke-width:1px;stroke-linecap:butt;stroke-linejoin:miter;stroke-opacity:1" d="M 785.709,423.481 795.618,428.986 z" id="boundary" inkscape:connector-curvature="0" />
	<path style="fill:none;stroke:red;stroke-width:1px;stroke-linecap:butt;stroke-linejoin:miter;stroke-opacity:1" d="M 957.465,346.411 951.96,357.421 z" id="boundary" inkscape:connector-curvature="0" />
	<path style="fill:none;stroke:red;stroke-width:1px;stroke-linecap:butt;stroke-linejoin:miter;stroke-opacity:1" d="M 962.97,269.341 962.97,258.331 z" id="boundary" inkscape:connector-curvature="0" />
	<path style="fill:none;stroke:red;stroke-width:1px;stroke-linecap:butt;stroke-linejoin:miter;stroke-opacity:1" d="M 962.97,258.331 968.475,247.321 z" id="boundary" inkscape:connector-curvature="0" />
	<path style="fill:none;stroke:red;stroke-width:1px;stroke-linecap:butt;stroke-linejoin:miter;stroke-opacity:1" d="M 962.97,280.351 962.97,291.361 z" id="boundary" inkscape:connector-curvature="0" />
	<path style="fill:none;stroke:red;stroke-width:1px;stroke-linecap:butt;stroke-linejoin:miter;stroke-opacity:1" d="M 946.455,368.431 944.253,382.744 z" id="boundary" inkscape:connector-curvature="0" />
	<path style="fill:none;stroke:red;stroke-width:1px;stroke-linecap:butt;stroke-linejoin:miter;stroke-opacity:1" d="M 946.455,368.431 951.96,357.421 z" id="boundary" inkscape:connector-curvature="0" />
	<path style="fill:none;stroke:red;stroke-width:1px;stroke-linecap:butt;stroke-linejoin:miter;stroke-opacity:1" d="M 957.465,346.411 962.97,335.401 z" id="boundary" inkscape:connector-curvature="0" />
	<path style="fill:none;stroke:red;stroke-width:1px;stroke-linecap:butt;stroke-linejoin:miter;stroke-opacity:1" d="M 938.748,393.754 929.94,401.461 z" id="boundary" inkscape:connector-curvature="0" />
	<path style="fill:none;stroke:red;stroke-width:1px;stroke-linecap:butt;stroke-linejoin:miter;stroke-opacity:1" d="M 944.253,382.744 938.748,393.754 z" id="boundary" inkscape:connector-curvature="0" />
	<path style="fill:none;stroke:red;stroke-width:1px;stroke-linecap:butt;stroke-linejoin:miter;stroke-opacity:1" d="M 962.97,291.361 962.97,302.371 z" id="boundary" inkscape:connector-curvature="0" />
	<path style="fill:none;stroke:red;stroke-width:1px;stroke-linecap:butt;stroke-linejoin:miter;stroke-opacity:1" d="M 962.97,280.351 962.97,269.341 z" id="boundary" inkscape:connector-curvature="0" />
	<path style="fill:none;stroke:red;stroke-width:1px;stroke-linecap:butt;stroke-linejoin:miter;stroke-opacity:1" d="M 968.475,247.321 977.283,239.614 z" id="boundary" inkscape:connector-curvature="0" />
	<path style="fill:none;stroke:red;stroke-width:1px;stroke-linecap:butt;stroke-linejoin:miter;stroke-opacity:1" d="M 962.97,302.371 962.97,313.381 z" id="boundary" inkscape:connector-curvature="0" />
	<path style="fill:none;stroke:red;stroke-width:1px;stroke-linecap:butt;stroke-linejoin:miter;stroke-opacity:1" d="M 977.283,239.614 982.788,228.604 z" id="boundary" inkscape:connector-curvature="0" />
	<path style="fill:none;stroke:red;stroke-width:1px;stroke-linecap:butt;stroke-linejoin:miter;stroke-opacity:1" d="M 962.97,324.391 962.97,335.401 z" id="boundary" inkscape:connector-curvature="0" />
	<path style="fill:none;stroke:red;stroke-width:1px;stroke-linecap:butt;stroke-linejoin:miter;stroke-opacity:1" d="M 962.97,324.391 962.97,313.381 z" id="boundary" inkscape:connector-curvature="0" />
	<path style="fill:none;stroke:red;stroke-width:1px;stroke-linecap:butt;stroke-linejoin:miter;stroke-opacity:1" d="M 795.618,428.986 805.527,434.491 z" id="boundary" inkscape:connector-curvature="0" />
	<path style="fill:none;stroke:red;stroke-width:1px;stroke-linecap:butt;stroke-linejoin:miter;stroke-opacity:1" d="M 815.436,439.996 805.527,434.491 z" id="boundary" inkscape:connector-curvature="0" />
	<path style="fill:none;stroke:red;stroke-width:1px;stroke-linecap:butt;stroke-linejoin:miter;stroke-opacity:1" d="M 826.446,439.996 815.436,439.996 z" id="boundary" inkscape:connector-curvature="0" />
	<path style="fill:none;stroke:red;stroke-width:1px;stroke-linecap:butt;stroke-linejoin:miter;stroke-opacity:1" d="M 826.446,439.996 837.456,439.996 z" id="boundary" inkscape:connector-curvature="0" />
	<path style="fill:none;stroke:red;stroke-width:1px;stroke-linecap:butt;stroke-linejoin:miter;stroke-opacity:1" d="M 837.456,439.996 847.365,445.501 z" id="boundary" inkscape:connector-curvature="0" />
	<path style="fill:none;stroke:red;stroke-width:1px;stroke-linecap:butt;stroke-linejoin:miter;stroke-opacity:1" d="M 847.365,445.501 858.375,445.501 z" id="boundary" inkscape:connector-curvature="0" />
	<path style="fill:none;stroke:red;stroke-width:1px;stroke-linecap:butt;stroke-linejoin:miter;stroke-opacity:1" d="M 869.385,445.501 858.375,445.501 z" id="boundary" inkscape:connector-curvature="0" />
	<path style="fill:none;stroke:red;stroke-width:1px;stroke-linecap:butt;stroke-linejoin:miter;stroke-opacity:1" d="M 918.93,423.481 910.122,433.39 z" id="boundary" inkscape:connector-curvature="0" />
	<path style="fill:none;stroke:red;stroke-width:1px;stroke-linecap:butt;stroke-linejoin:miter;stroke-opacity:1" d="M 924.435,412.471 918.93,423.481 z" id="boundary" inkscape:connector-curvature="0" />
	<path style="fill:none;stroke:red;stroke-width:1px;stroke-linecap:butt;stroke-linejoin:miter;stroke-opacity:1" d="M 924.435,412.471 929.94,401.461 z" id="boundary" inkscape:connector-curvature="0" />
	<path style="fill:none;stroke:red;stroke-width:1px;stroke-linecap:butt;stroke-linejoin:miter;stroke-opacity:1" d="M 869.385,445.501 880.395,445.501 z" id="boundary" inkscape:connector-curvature="0" />
	<path style="fill:none;stroke:red;stroke-width:1px;stroke-linecap:butt;stroke-linejoin:miter;stroke-opacity:1" d="M 901.314,439.996 891.405,445.501 z" id="boundary" inkscape:connector-curvature="0" />
	<path style="fill:none;stroke:red;stroke-width:1px;stroke-linecap:butt;stroke-linejoin:miter;stroke-opacity:1" d="M 891.405,445.501 880.395,445.501 z" id="boundary" inkscape:connector-curvature="0" />
	<path style="fill:none;stroke:red;stroke-width:1px;stroke-linecap:butt;stroke-linejoin:miter;stroke-opacity:1" d="M 910.122,433.39 901.314,439.996 z" id="boundary" inkscape:connector-curvature="0" />
	<path style="fill:none;stroke:red;stroke-width:1px;stroke-linecap:butt;stroke-linejoin:miter;stroke-opacity:1" d="M 506.055,4 517.065,4 z" id="boundary" inkscape:connector-curvature="0" />
	<circle cx="4" cy="216.493" r="4" fill="#0" id="circle0"/>
	<circle cx="4" cy="227.503" r="4" fill="#0" id="circle1"/>
	<circle cx="4" cy="238.513" r="4" fill="#0" id="circle2"/>
	<circle cx="9.50499" cy="205.483" r="4" fill="#0" id="circle3"/>
	<circle cx="9.50499" cy="248.422" r="4" fill="#0" id="circle4"/>
	<circle cx="9.50499" cy="259.432" r="4" fill="#0" id="circle5"/>
	<circle cx="15.01" cy="269.341" r="4" fill="#0" id="circle6"/>
	<circle cx="18.313" cy="196.675" r="4" fill="#0" id="circle7"/>
	<circle cx="20.515" cy="279.25" r="4" fill="#0" id="circle8"/>
	<circle cx="23.818" cy="185.665" r="4" fill="#0" id="circle9"/>
	<circle cx="26.02" cy="289.159" r="4" fill="#0" id="circle10"/>
	<circle cx="26.02" cy="300.169" r="4" fill="#0" id="circle11"/>
	<circle cx="26.02" cy="311.179" r="4" fill="#0" id="circle12"/>
	<circle cx="26.02" cy="322.189" r="4" fill="#0" id="circle13"/>
	<circle cx="26.02" cy="333.199" r="4" fill="#0" id="circle14"/>
	<circle cx="26.02" cy="344.209" r="4" fill="#0" id="circle15"/>
	<circle cx="26.02" cy="355.219" r="4" fill="#0" id="circle16"/>
	<circle cx="26.02" cy="366.229" r="4" fill="#0" id="circle17"/>
	<circle cx="31.525" cy="376.138" r="4" fill="#0" id="circle18"/>
	<circle cx="32.626" cy="176.857" r="4" fill="#0" id="circle19"/>
	<circle cx="38.131" cy="384.946" r="4" fill="#0" id="circle20"/>
	<circle cx="41.434" cy="169.15" r="4" fill="#0" id="circle21"/>
	<circle cx="48.04" cy="390.451" r="4" fill="#0" id="circle22"/>
	<circle cx="51.343" cy="163.645" r="4" fill="#0" id="circle23"/>
	<circle cx="53.545" cy="400.36" r="4" fill="#0" id="circle24"/>
	<circle cx="53.545" cy="411.37" r="4" fill="#0" id="circle25"/>
	<circle cx="59.0499" cy="421.279" r="4" fill="#0" id="circle26"/>
	<circle cx="62.3529" cy="163.645" r="4" fill="#0" id="circle27"/>
	<circle cx="64.5549" cy="431.188" r="4" fill="#0" id="circle28"/>
	<circle cx="71.1609" cy="439.996" r="4" fill="#0" id="circle29"/>
	<circle cx="72.2619" cy="158.14" r="4" fill="#0" id="circle30"/>
	<circle cx="81.0699" cy="445.501" r="4" fill="#0" id="circle31"/>
	<circle cx="83.2719" cy="153.736" r="4" fill="#0" id="circle32"/>
	<circle cx="90.9789" cy="451.006" r="4" fill="#0" id="circle33"/>
	<circle cx="94.2819" cy="152.635" r="4" fill="#0" id="circle34"/>
	<circle cx="101.989" cy="451.006" r="4" fill="#0" id="circle35"/>
	<circle cx="105.292" cy="148.231" r="4" fill="#0" id="circle36"/>
	<circle cx="112.999" cy="451.006" r="4" fill="#0" id="circle37"/>
	<circle cx="116.302" cy="147.13" r="4" fill="#0" id="circle38"/>
	<circle cx="124.009" cy="451.006" r="4" fill="#0" id="circle39"/>
	<circle cx="127.312" cy="147.13" r="4" fill="#0" id="circle40"/>
	<circle cx="133.918" cy="445.501" r="4" fill="#0" id="circle41"/>
	<circle cx="138.322" cy="147.13" r="4" fill="#0" id="circle42"/>
	<circle cx="143.827" cy="439.996" r="4" fill="#0" id="circle43"/>
	<circle cx="149.332" cy="147.13" r="4" fill="#0" id="circle44"/>
	<circle cx="152.635" cy="431.188" r="4" fill="#0" id="circle45"/>
	<circle cx="159.241" cy="417.976" r="4" fill="#0" id="circle46"/>
	<circle cx="160.342" cy="147.13" r="4" fill="#0" id="circle47"/>
	<circle cx="164.746" cy="406.966" r="4" fill="#0" id="circle48"/>
	<circle cx="171.352" cy="147.13" r="4" fill="#0" id="circle49"/>
	<circle cx="175.756" cy="406.966" r="4" fill="#0" id="circle50"/>
	<circle cx="182.362" cy="147.13" r="4" fill="#0" id="circle51"/>
	<circle cx="186.766" cy="406.966" r="4" fill="#0" id="circle52"/>
	<circle cx="193.372" cy="147.13" r="4" fill="#0" id="circle53"/>
	<circle cx="197.776" cy="406.966" r="4" fill="#0" id="circle54"/>
	<circle cx="204.382" cy="147.13" r="4" fill="#0" id="circle55"/>
	<circle cx="208.786" cy="406.966" r="4" fill="#0" id="circle56"/>
	<circle cx="215.392" cy="147.13" r="4" fill="#0" id="circle57"/>
	<circle cx="219.796" cy="406.966" r="4" fill="#0" id="circle58"/>
	<circle cx="226.402" cy="147.13" r="4" fill="#0" id="circle59"/>
	<circle cx="230.806" cy="406.966" r="4" fill="#0" id="circle60"/>
	<circle cx="237.412" cy="147.13" r="4" fill="#0" id="circle61"/>
	<circle cx="241.816" cy="406.966" r="4" fill="#0" id="circle62"/>
	<circle cx="248.422" cy="147.13" r="4" fill="#0" id="circle63"/>
	<circle cx="252.826" cy="406.966" r="4" fill="#0" id="circle64"/>
	<circle cx="258.331" cy="141.625" r="4" fill="#0" id="circle65"/>
	<circle cx="262.735" cy="128.413" r="4" fill="#0" id="circle66"/>
	<circle cx="263.836" cy="406.966" r="4" fill="#0" id="circle67"/>
	<circle cx="271.543" cy="119.605" r="4" fill="#0" id="circle68"/>
	<circle cx="274.846" cy="406.966" r="4" fill="#0" id="circle69"/>
	<circle cx="282.553" cy="119.605" r="4" fill="#0" id="circle70"/>
	<circle cx="285.856" cy="406.966" r="4" fill="#0" id="circle71"/>
	<circle cx="293.563" cy="119.605" r="4" fill="#0" id="circle72"/>
	<circle cx="296.866" cy="406.966" r="4" fill="#0" id="circle73"/>
	<circle cx="304.573" cy="119.605" r="4" fill="#0" id="circle74"/>
	<circle cx="307.876" cy="406.966" r="4" fill="#0" id="circle75"/>
	<circle cx="315.583" cy="114.1" r="4" fill="#0" id="circle76"/>
	<circle cx="318.886" cy="406.966" r="4" fill="#0" id="circle77"/>
	<circle cx="324.391" cy="105.292" r="4" fill="#0" id="circle78"/>
	<circle cx="329.896" cy="406.966" r="4" fill="#0" id="circle79"/>
	<circle cx="335.401" cy="99.7869" r="4" fill="#0" id="circle80"/>
	<circle cx="340.906" cy="406.966" r="4" fill="#0" id="circle81"/>
	<circle cx="346.411" cy="97.5849" r="4" fill="#0" id="circle82"/>
	<circle cx="351.916" cy="406.966" r="4" fill="#0" id="circle83"/>
	<circle cx="357.421" cy="97.5849" r="4" fill="#0" id="circle84"/>
	<circle cx="362.926" cy="406.966" r="4" fill="#0" id="circle85"/>
	<circle cx="368.431" cy="97.5849" r="4" fill="#0" id="circle86"/>
	<circle cx="373.936" cy="406.966" r="4" fill="#0" id="circle87"/>
	<circle cx="379.441" cy="97.5849" r="4" fill="#0" id="circle88"/>
	<circle cx="383.845" cy="412.471" r="4" fill="#0" id="circle89"/>
	<circle cx="389.35" cy="103.09" r="4" fill="#0" id="circle90"/>
	<circle cx="389.35" cy="422.38" r="4" fill="#0" id="circle91"/>
	<circle cx="391.552" cy="433.39" r="4" fill="#0" id="circle92"/>
	<circle cx="399.259" cy="108.595" r="4" fill="#0" id="circle93"/>
	<circle cx="400.36" cy="439.996" r="4" fill="#0" id="circle94"/>
	<circle cx="410.269" cy="108.595" r="4" fill="#0" id="circle95"/>
	<circle cx="410.269" cy="445.501" r="4" fill="#0" id="circle96"/>
	<circle cx="420.178" cy="451.006" r="4" fill="#0" id="circle97"/>
	<circle cx="421.279" cy="108.595" r="4" fill="#0" id="circle98"/>
	<circle cx="431.188" cy="103.09" r="4" fill="#0" id="circle99"/>
	<circle cx="431.188" cy="451.006" r="4" fill="#0" id="circle100"/>
	<circle cx="433.39" cy="56.8479" r="4" fill="#0" id="circle101"/>
	<circle cx="433.39" cy="67.8579" r="4" fill="#0" id="circle102"/>
	<circle cx="433.39" cy="78.8679" r="4" fill="#0" id="circle103"/>
	<circle cx="433.39" cy="89.8779" r="4" fill="#0" id="circle104"/>
	<circle cx="438.895" cy="40.333" r="4" fill="#0" id="circle105"/>
	<circle cx="442.198" cy="451.006" r="4" fill="#0" id="circle106"/>
	<circle cx="447.703" cy="31.525" r="4" fill="#0" id="circle107"/>
	<circle cx="453.208" cy="451.006" r="4" fill="#0" id="circle108"/>
	<circle cx="456.511" cy="22.717" r="4" fill="#0" id="circle109"/>
	<circle cx="464.218" cy="451.006" r="4" fill="#0" id="circle110"/>
	<circle cx="465.319" cy="15.01" r="4" fill="#0" id="circle111"/>
	<circle cx="473.026" cy="6.202" r="4" fill="#0" id="circle112"/>
	<circle cx="475.228" cy="451.006" r="4" fill="#0" id="circle113"/>
	<circle cx="484.036" cy="4" r="4" fill="#0" id="circle114"/>
	<circle cx="486.238" cy="451.006" r="4" fill="#0" id="circle115"/>
	<circle cx="495.046" cy="4" r="4" fill="#0" id="circle116"/>
	<circle cx="497.248" cy="451.006" r="4" fill="#0" id="circle117"/>
	<circle cx="506.055" cy="4" r="4" fill="#0" id="circle118"/>
	<circle cx="508.257" cy="451.006" r="4" fill="#0" id="circle119"/>
	<circle cx="517.065" cy="4" r="4" fill="#0" id="circle120"/>
	<circle cx="519.267" cy="449.905" r="4" fill="#0" id="circle121"/>
	<circle cx="528.075" cy="4" r="4" fill="#0" id="circle122"/>
	<circle cx="530.277" cy="444.4" r="4" fill="#0" id="circle123"/>
	<circle cx="539.085" cy="4" r="4" fill="#0" id="circle124"/>
	<circle cx="539.085" cy="434.491" r="4" fill="#0" id="circle125"/>
	<circle cx="550.095" cy="4" r="4" fill="#0" id="circle126"/>
	<circle cx="550.095" cy="423.481" r="4" fill="#0" id="circle127"/>
	<circle cx="558.903" cy="415.774" r="4" fill="#0" id="circle128"/>
	<circle cx="561.105" cy="4" r="4" fill="#0" id="circle129"/>
	<circle cx="566.61" cy="406.966" r="4" fill="#0" id="circle130"/>
	<circle cx="572.115" cy="4" r="4" fill="#0" id="circle131"/>
	<circle cx="577.62" cy="406.966" r="4" fill="#0" id="circle132"/>
	<circle cx="583.125" cy="4" r="4" fill="#0" id="circle133"/>
	<circle cx="588.63" cy="406.966" r="4" fill="#0" id="circle134"/>
	<circle cx="594.135" cy="4" r="4" fill="#0" id="circle135"/>
	<circle cx="599.64" cy="406.966" r="4" fill="#0" id="circle136"/>
	<circle cx="605.145" cy="4" r="4" fill="#0" id="circle137"/>
	<circle cx="610.65" cy="406.966" r="4" fill="#0" id="circle138"/>
	<circle cx="616.155" cy="4" r="4" fill="#0" id="circle139"/>
	<circle cx="621.66" cy="406.966" r="4" fill="#0" id="circle140"/>
	<circle cx="627.165" cy="4" r="4" fill="#0" id="circle141"/>
	<circle cx="632.67" cy="406.966" r="4" fill="#0" id="circle142"/>
	<circle cx="638.175" cy="4" r="4" fill="#0" id="circle143"/>
	<circle cx="643.68" cy="406.966" r="4" fill="#0" id="circle144"/>
	<circle cx="649.185" cy="4" r="4" fill="#0" id="circle145"/>
	<circle cx="654.69" cy="406.966" r="4" fill="#0" id="circle146"/>
	<circle cx="660.195" cy="4" r="4" fill="#0" id="circle147"/>
	<circle cx="665.7" cy="401.461" r="4" fill="#0" id="circle148"/>
	<circle cx="671.205" cy="7.303" r="4" fill="#0" id="circle149"/>
	<circle cx="676.71" cy="401.461" r="4" fill="#0" id="circle150"/>
	<circle cx="682.215" cy="9.50499" r="4" fill="#0" id="circle151"/>
	<circle cx="687.72" cy="401.461" r="4" fill="#0" id="circle152"/>
	<circle cx="693.225" cy="9.50499" r="4" fill="#0" id="circle153"/>
	<circle cx="698.73" cy="395.956" r="4" fill="#0" id="circle154"/>
	<circle cx="704.235" cy="9.50499" r="4" fill="#0" id="circle155"/>
	<circle cx="709.74" cy="395.956" r="4" fill="#0" id="circle156"/>
	<circle cx="714.144" cy="15.01" r="4" fill="#0" id="circle157"/>
	<circle cx="720.75" cy="395.956" r="4" fill="#0" id="circle158"/>
	<circle cx="725.154" cy="17.212" r="4" fill="#0" id="circle159"/>
	<circle cx="731.76" cy="395.956" r="4" fill="#0" id="circle160"/>
	<circle cx="736.164" cy="20.515" r="4" fill="#0" id="circle161"/>
	<circle cx="742.77" cy="395.956" r="4" fill="#0" id="circle162"/>
	<circle cx="747.174" cy="22.717" r="4" fill="#0" id="circle163"/>
	<circle cx="753.78" cy="395.956" r="4" fill="#0" id="circle164"/>
	<circle cx="757.083" cy="28.222" r="4" fill="#0" id="circle165"/>
	<circle cx="762.588" cy="38.131" r="4" fill="#0" id="circle166"/>
	<circle cx="764.79" cy="49.141" r="4" fill="#0" id="circle167"/>
	<circle cx="764.79" cy="60.1509" r="4" fill="#0" id="circle168"/>
	<circle cx="764.79" cy="71.1609" r="4" fill="#0" id="circle169"/>
	<circle cx="764.79" cy="82.1709" r="4" fill="#0" id="circle170"/>
	<circle cx="764.79" cy="398.158" r="4" fill="#0" id="circle171"/>
	<circle cx="766.992" cy="93.1809" r="4" fill="#0" id="circle172"/>
	<circle cx="769.194" cy="409.168" r="4" fill="#0" id="circle173"/>
	<circle cx="770.295" cy="104.191" r="4" fill="#0" id="circle174"/>
	<circle cx="774.699" cy="419.077" r="4" fill="#0" id="circle175"/>
	<circle cx="775.8" cy="114.1" r="4" fill="#0" id="circle176"/>
	<circle cx="775.8" cy="125.11" r="4" fill="#0" id="circle177"/>
	<circle cx="781.305" cy="135.019" r="4" fill="#0" id="circle178"/>
	<circle cx="785.709" cy="423.481" r="4" fill="#0" id="circle179"/>
	<circle cx="790.113" cy="141.625" r="4" fill="#0" id="circle180"/>
	<circle cx="795.618" cy="428.986" r="4" fill="#0" id="circle181"/>
	<circle cx="801.123" cy="141.625" r="4" fill="#0" id="circle182"/>
	<circle cx="805.527" cy="434.491" r="4" fill="#0" id="circle183"/>
	<circle cx="812.133" cy="141.625" r="4" fill="#0" id="circle184"/>
	<circle cx="815.436" cy="439.996" r="4" fill="#0" id="circle185"/>
	<circle cx="823.143" cy="141.625" r="4" fill="#0" id="circle186"/>
	<circle cx="826.446" cy="439.996" r="4" fill="#0" id="circle187"/>
	<circle cx="834.153" cy="141.625" r="4" fill="#0" id="circle188"/>
	<circle cx="837.456" cy="439.996" r="4" fill="#0" id="circle189"/>
	<circle cx="845.163" cy="141.625" r="4" fill="#0" id="circle190"/>
	<circle cx="847.365" cy="445.501" r="4" fill="#0" id="circle191"/>
	<circle cx="856.173" cy="141.625" r="4" fill="#0" id="circle192"/>
	<circle cx="858.375" cy="445.501" r="4" fill="#0" id="circle193"/>
	<circle cx="866.082" cy="136.12" r="4" fill="#0" id="circle194"/>
	<circle cx="869.385" cy="445.501" r="4" fill="#0" id="circle195"/>
	<circle cx="877.092" cy="136.12" r="4" fill="#0" id="circle196"/>
	<circle cx="880.395" cy="445.501" r="4" fill="#0" id="circle197"/>
	<circle cx="888.102" cy="136.12" r="4" fill="#0" id="circle198"/>
	<circle cx="891.405" cy="445.501" r="4" fill="#0" id="circle199"/>
	<circle cx="898.011" cy="130.615" r="4" fill="#0" id="circle200"/>
	<circle cx="901.314" cy="439.996" r="4" fill="#0" id="circle201"/>
	<circle cx="909.021" cy="130.615" r="4" fill="#0" id="circle202"/>
	<circle cx="910.122" cy="433.39" r="4" fill="#0" id="circle203"/>
	<circle cx="918.93" cy="423.481" r="4" fill="#0" id="circle204"/>
	<circle cx="920.031" cy="130.615" r="4" fill="#0" id="circle205"/>
	<circle cx="924.435" cy="412.471" r="4" fill="#0" id="circle206"/>
	<circle cx="929.94" cy="401.461" r="4" fill="#0" id="circle207"/>
	<circle cx="931.041" cy="130.615" r="4" fill="#0" id="circle208"/>
	<circle cx="938.748" cy="393.754" r="4" fill="#0" id="circle209"/>
	<circle cx="942.051" cy="130.615" r="4" fill="#0" id="circle210"/>
	<circle cx="944.253" cy="382.744" r="4" fill="#0" id="circle211"/>
	<circle cx="946.455" cy="368.431" r="4" fill="#0" id="circle212"/>
	<circle cx="951.96" cy="357.421" r="4" fill="#0" id="circle213"/>
	<circle cx="953.061" cy="130.615" r="4" fill="#0" id="circle214"/>
	<circle cx="957.465" cy="346.411" r="4" fill="#0" id="circle215"/>
	<circle cx="962.97" cy="136.12" r="4" fill="#0" id="circle216"/>
	<circle cx="962.97" cy="258.331" r="4" fill="#0" id="circle217"/>
	<circle cx="962.97" cy="269.341" r="4" fill="#0" id="circle218"/>
	<circle cx="962.97" cy="280.351" r="4" fill="#0" id="circle219"/>
	<circle cx="962.97" cy="291.361" r="4" fill="#0" id="circle220"/>
	<circle cx="962.97" cy="302.371" r="4" fill="#0" id="circle221"/>
	<circle cx="962.97" cy="313.381" r="4" fill="#0" id="circle222"/>
	<circle cx="962.97" cy="324.391" r="4" fill="#0" id="circle223"/>
	<circle cx="962.97" cy="335.401" r="4" fill="#0" id="circle224"/>
	<circle cx="968.475" cy="247.321" r="4" fill="#0" id="circle225"/>
	<circle cx="973.98" cy="139.423" r="4" fill="#0" id="circle226"/>
	<circle cx="977.283" cy="239.614" r="4" fill="#0" id="circle227"/>
	<circle cx="981.687" cy="148.231" r="4" fill="#0" id="circle228"/>
	<circle cx="982.788" cy="228.604" r="4" fill="#0" id="circle229"/>
	<circle cx="988.293" cy="217.594" r="4" fill="#0" id="circle230"/>
	<circle cx="990.495" cy="155.938" r="4" fill="#0" id="circle231"/>
	<circle cx="990.495" cy="197.776" r="4" fill="#0" id="circle232"/>
	<circle cx="994.899" cy="166.948" r="4" fill="#0" id="circle233"/>
	<circle cx="996" cy="177.958" r="4" fill="#0" id="circle234"/>
	</g>
</svg>