<?xml version="1.0" encoding="UTF-8" standalone="no"?>
<!-- Created with CurveBenchmark -->
<svg
	xmlns:dc="http://purl.org/dc/elements/1.1/"
	xmlns:cc="http://creativecommons.org/ns#"
	xmlns:rdf="http://www.w3.org/1999/02/22-rdf-syntax-ns#"
	xmlns:svg="http://www.w3.org/2000/svg"
	xmlns="http://www.w3.org/2000/svg"
	xmlns:sodipodi="http://sodipodi.sourceforge.net/DTD/sodipodi-0.dtd"
	xmlns:inkscape="http://www.inkscape.org/namespaces/inkscape"
	width="1000"
	height="1000"
	id="svg2"
	version="1.1"
	sodipodi:docname="manifold/gathan1-sink150.png.txt">
<defs
	id="defs4" />
<metadata
	id="metadata7">
	<rdf:RDF>
		<cc:Work
			rdf:about="">
			<dc:format>image/svg+xml</dc:format>
			<dc:type
				rdf:resource="http://purl.org/dc/dcmitype/StillImage" />
			<dc:title></dc:title>
		</cc:Work>
	</rdf:RDF>
</metadata>
<g
	inkscape:label="Layer 1"
	inkscape:groupmode="layer"
	id="layer1">
	<path style="fill:none;stroke:red;stroke-width:1px;stroke-linecap:butt;stroke-linejoin:miter;stroke-opacity:1" d="M 33.3202,258.108 82.1872,258.108 z" id="boundary" inkscape:connector-curvature="0" />
	<path style="fill:none;stroke:red;stroke-width:1px;stroke-linecap:butt;stroke-linejoin:miter;stroke-opacity:1" d="M 131.054,238.562 82.1872,258.108 z" id="boundary" inkscape:connector-curvature="0" />
	<path style="fill:none;stroke:red;stroke-width:1px;stroke-linecap:butt;stroke-linejoin:miter;stroke-opacity:1" d="M 4,297.202 52.867,311.862 z" id="boundary" inkscape:connector-curvature="0" />
	<path style="fill:none;stroke:red;stroke-width:1px;stroke-linecap:butt;stroke-linejoin:miter;stroke-opacity:1" d="M 4,297.202 33.3202,258.108 z" id="boundary" inkscape:connector-curvature="0" />
	<path style="fill:none;stroke:red;stroke-width:1px;stroke-linecap:butt;stroke-linejoin:miter;stroke-opacity:1" d="M 101.734,311.862 150.601,311.862 z" id="boundary" inkscape:connector-curvature="0" />
	<path style="fill:none;stroke:red;stroke-width:1px;stroke-linecap:butt;stroke-linejoin:miter;stroke-opacity:1" d="M 150.601,311.862 189.695,341.182 z" id="boundary" inkscape:connector-curvature="0" />
	<path style="fill:none;stroke:red;stroke-width:1px;stroke-linecap:butt;stroke-linejoin:miter;stroke-opacity:1" d="M 101.734,311.862 52.867,311.862 z" id="boundary" inkscape:connector-curvature="0" />
	<path style="fill:none;stroke:red;stroke-width:1px;stroke-linecap:butt;stroke-linejoin:miter;stroke-opacity:1" d="M 150.601,160.374 199.468,160.374 z" id="boundary" inkscape:connector-curvature="0" />
	<path style="fill:none;stroke:red;stroke-width:1px;stroke-linecap:butt;stroke-linejoin:miter;stroke-opacity:1" d="M 248.335,160.374 199.468,160.374 z" id="boundary" inkscape:connector-curvature="0" />
	<path style="fill:none;stroke:red;stroke-width:1px;stroke-linecap:butt;stroke-linejoin:miter;stroke-opacity:1" d="M 443.803,170.148 394.936,160.374 z" id="boundary" inkscape:connector-curvature="0" />
	<path style="fill:none;stroke:red;stroke-width:1px;stroke-linecap:butt;stroke-linejoin:miter;stroke-opacity:1" d="M 438.916,87.0739 414.483,43.0936 z" id="boundary" inkscape:connector-curvature="0" />
	<path style="fill:none;stroke:red;stroke-width:1px;stroke-linecap:butt;stroke-linejoin:miter;stroke-opacity:1" d="M 443.803,4 414.483,43.0936 z" id="boundary" inkscape:connector-curvature="0" />
	<path style="fill:none;stroke:red;stroke-width:1px;stroke-linecap:butt;stroke-linejoin:miter;stroke-opacity:1" d="M 248.335,160.374 297.202,160.374 z" id="boundary" inkscape:connector-curvature="0" />
	<path style="fill:none;stroke:red;stroke-width:1px;stroke-linecap:butt;stroke-linejoin:miter;stroke-opacity:1" d="M 219.015,380.276 189.695,341.182 z" id="boundary" inkscape:connector-curvature="0" />
	<path style="fill:none;stroke:red;stroke-width:1px;stroke-linecap:butt;stroke-linejoin:miter;stroke-opacity:1" d="M 346.069,160.374 297.202,160.374 z" id="boundary" inkscape:connector-curvature="0" />
	<path style="fill:none;stroke:red;stroke-width:1px;stroke-linecap:butt;stroke-linejoin:miter;stroke-opacity:1" d="M 394.936,160.374 346.069,160.374 z" id="boundary" inkscape:connector-curvature="0" />
	<path style="fill:none;stroke:red;stroke-width:1px;stroke-linecap:butt;stroke-linejoin:miter;stroke-opacity:1" d="M 219.015,380.276 258.108,414.483 z" id="boundary" inkscape:connector-curvature="0" />
	<path style="fill:none;stroke:red;stroke-width:1px;stroke-linecap:butt;stroke-linejoin:miter;stroke-opacity:1" d="M 287.429,453.576 287.429,502.443 z" id="boundary" inkscape:connector-curvature="0" />
	<path style="fill:none;stroke:red;stroke-width:1px;stroke-linecap:butt;stroke-linejoin:miter;stroke-opacity:1" d="M 258.108,414.483 287.429,453.576 z" id="boundary" inkscape:connector-curvature="0" />
	<path style="fill:none;stroke:red;stroke-width:1px;stroke-linecap:butt;stroke-linejoin:miter;stroke-opacity:1" d="M 287.429,502.443 287.429,551.31 z" id="boundary" inkscape:connector-curvature="0" />
	<path style="fill:none;stroke:red;stroke-width:1px;stroke-linecap:butt;stroke-linejoin:miter;stroke-opacity:1" d="M 302.089,996 253.222,996 z" id="boundary" inkscape:connector-curvature="0" />
	<path style="fill:none;stroke:red;stroke-width:1px;stroke-linecap:butt;stroke-linejoin:miter;stroke-opacity:1" d="M 253.222,996 228.788,952.02 z" id="boundary" inkscape:connector-curvature="0" />
	<path style="fill:none;stroke:red;stroke-width:1px;stroke-linecap:butt;stroke-linejoin:miter;stroke-opacity:1" d="M 228.788,952.02 258.108,903.153 z" id="boundary" inkscape:connector-curvature="0" />
	<path style="fill:none;stroke:red;stroke-width:1px;stroke-linecap:butt;stroke-linejoin:miter;stroke-opacity:1" d="M 287.429,697.911 287.429,746.778 z" id="boundary" inkscape:connector-curvature="0" />
	<path style="fill:none;stroke:red;stroke-width:1px;stroke-linecap:butt;stroke-linejoin:miter;stroke-opacity:1" d="M 287.429,551.31 287.429,600.177 z" id="boundary" inkscape:connector-curvature="0" />
	<path style="fill:none;stroke:red;stroke-width:1px;stroke-linecap:butt;stroke-linejoin:miter;stroke-opacity:1" d="M 287.429,600.177 287.429,649.044 z" id="boundary" inkscape:connector-curvature="0" />
	<path style="fill:none;stroke:red;stroke-width:1px;stroke-linecap:butt;stroke-linejoin:miter;stroke-opacity:1" d="M 287.429,697.911 287.429,649.044 z" id="boundary" inkscape:connector-curvature="0" />
	<path style="fill:none;stroke:red;stroke-width:1px;stroke-linecap:butt;stroke-linejoin:miter;stroke-opacity:1" d="M 287.429,795.645 287.429,746.778 z" id="boundary" inkscape:connector-curvature="0" />
	<path style="fill:none;stroke:red;stroke-width:1px;stroke-linecap:butt;stroke-linejoin:miter;stroke-opacity:1" d="M 287.429,795.645 287.429,844.512 z" id="boundary" inkscape:connector-curvature="0" />
	<path style="fill:none;stroke:red;stroke-width:1px;stroke-linecap:butt;stroke-linejoin:miter;stroke-opacity:1" d="M 287.429,844.512 258.108,903.153 z" id="boundary" inkscape:connector-curvature="0" />
	<path style="fill:none;stroke:red;stroke-width:1px;stroke-linecap:butt;stroke-linejoin:miter;stroke-opacity:1" d="M 350.956,996 302.089,996 z" id="boundary" inkscape:connector-curvature="0" />
	<path style="fill:none;stroke:red;stroke-width:1px;stroke-linecap:butt;stroke-linejoin:miter;stroke-opacity:1" d="M 399.823,996 350.956,996 z" id="boundary" inkscape:connector-curvature="0" />
	<path style="fill:none;stroke:red;stroke-width:1px;stroke-linecap:butt;stroke-linejoin:miter;stroke-opacity:1" d="M 443.803,4 482.897,33.3202 z" id="boundary" inkscape:connector-curvature="0" />
	<path style="fill:none;stroke:red;stroke-width:1px;stroke-linecap:butt;stroke-linejoin:miter;stroke-opacity:1" d="M 492.67,82.1872 492.67,131.054 z" id="boundary" inkscape:connector-curvature="0" />
	<path style="fill:none;stroke:red;stroke-width:1px;stroke-linecap:butt;stroke-linejoin:miter;stroke-opacity:1" d="M 580.631,170.148 531.764,165.261 z" id="boundary" inkscape:connector-curvature="0" />
	<path style="fill:none;stroke:red;stroke-width:1px;stroke-linecap:butt;stroke-linejoin:miter;stroke-opacity:1" d="M 492.67,131.054 531.764,165.261 z" id="boundary" inkscape:connector-curvature="0" />
	<path style="fill:none;stroke:red;stroke-width:1px;stroke-linecap:butt;stroke-linejoin:miter;stroke-opacity:1" d="M 492.67,82.1872 482.897,33.3202 z" id="boundary" inkscape:connector-curvature="0" />
	<path style="fill:none;stroke:red;stroke-width:1px;stroke-linecap:butt;stroke-linejoin:miter;stroke-opacity:1" d="M 580.631,170.148 629.498,170.148 z" id="boundary" inkscape:connector-curvature="0" />
	<path style="fill:none;stroke:red;stroke-width:1px;stroke-linecap:butt;stroke-linejoin:miter;stroke-opacity:1" d="M 629.498,170.148 678.365,160.374 z" id="boundary" inkscape:connector-curvature="0" />
	<path style="fill:none;stroke:red;stroke-width:1px;stroke-linecap:butt;stroke-linejoin:miter;stroke-opacity:1" d="M 663.704,311.862 624.611,346.069 z" id="boundary" inkscape:connector-curvature="0" />
	<path style="fill:none;stroke:red;stroke-width:1px;stroke-linecap:butt;stroke-linejoin:miter;stroke-opacity:1" d="M 678.365,160.374 727.232,160.374 z" id="boundary" inkscape:connector-curvature="0" />
	<path style="fill:none;stroke:red;stroke-width:1px;stroke-linecap:butt;stroke-linejoin:miter;stroke-opacity:1" d="M 727.232,160.374 776.099,160.374 z" id="boundary" inkscape:connector-curvature="0" />
	<path style="fill:none;stroke:red;stroke-width:1px;stroke-linecap:butt;stroke-linejoin:miter;stroke-opacity:1" d="M 824.966,165.261 776.099,160.374 z" id="boundary" inkscape:connector-curvature="0" />
	<path style="fill:none;stroke:red;stroke-width:1px;stroke-linecap:butt;stroke-linejoin:miter;stroke-opacity:1" d="M 824.966,165.261 829.852,214.128 z" id="boundary" inkscape:connector-curvature="0" />
	<path style="fill:none;stroke:red;stroke-width:1px;stroke-linecap:butt;stroke-linejoin:miter;stroke-opacity:1" d="M 712.571,311.862 761.438,311.862 z" id="boundary" inkscape:connector-curvature="0" />
	<path style="fill:none;stroke:red;stroke-width:1px;stroke-linecap:butt;stroke-linejoin:miter;stroke-opacity:1" d="M 829.852,262.995 810.305,311.862 z" id="boundary" inkscape:connector-curvature="0" />
	<path style="fill:none;stroke:red;stroke-width:1px;stroke-linecap:butt;stroke-linejoin:miter;stroke-opacity:1" d="M 810.305,311.862 761.438,311.862 z" id="boundary" inkscape:connector-curvature="0" />
	<path style="fill:none;stroke:red;stroke-width:1px;stroke-linecap:butt;stroke-linejoin:miter;stroke-opacity:1" d="M 829.852,214.128 829.852,262.995 z" id="boundary" inkscape:connector-curvature="0" />
	<path style="fill:none;stroke:red;stroke-width:1px;stroke-linecap:butt;stroke-linejoin:miter;stroke-opacity:1" d="M 712.571,311.862 663.704,311.862 z" id="boundary" inkscape:connector-curvature="0" />
	<path style="fill:none;stroke:red;stroke-width:1px;stroke-linecap:butt;stroke-linejoin:miter;stroke-opacity:1" d="M 458.463,502.443 458.463,551.31 z" id="boundary" inkscape:connector-curvature="0" />
	<path style="fill:none;stroke:red;stroke-width:1px;stroke-linecap:butt;stroke-linejoin:miter;stroke-opacity:1" d="M 458.463,502.443 458.463,453.576 z" id="boundary" inkscape:connector-curvature="0" />
	<path style="fill:none;stroke:red;stroke-width:1px;stroke-linecap:butt;stroke-linejoin:miter;stroke-opacity:1" d="M 458.463,453.576 507.33,438.916 z" id="boundary" inkscape:connector-curvature="0" />
	<path style="fill:none;stroke:red;stroke-width:1px;stroke-linecap:butt;stroke-linejoin:miter;stroke-opacity:1" d="M 458.463,600.177 458.463,649.044 z" id="boundary" inkscape:connector-curvature="0" />
	<path style="fill:none;stroke:red;stroke-width:1px;stroke-linecap:butt;stroke-linejoin:miter;stroke-opacity:1" d="M 458.463,600.177 458.463,551.31 z" id="boundary" inkscape:connector-curvature="0" />
	<path style="fill:none;stroke:red;stroke-width:1px;stroke-linecap:butt;stroke-linejoin:miter;stroke-opacity:1" d="M 458.463,697.911 458.463,746.778 z" id="boundary" inkscape:connector-curvature="0" />
	<path style="fill:none;stroke:red;stroke-width:1px;stroke-linecap:butt;stroke-linejoin:miter;stroke-opacity:1" d="M 458.463,649.044 458.463,697.911 z" id="boundary" inkscape:connector-curvature="0" />
	<path style="fill:none;stroke:red;stroke-width:1px;stroke-linecap:butt;stroke-linejoin:miter;stroke-opacity:1" d="M 458.463,746.778 458.463,795.645 z" id="boundary" inkscape:connector-curvature="0" />
	<path style="fill:none;stroke:red;stroke-width:1px;stroke-linecap:butt;stroke-linejoin:miter;stroke-opacity:1" d="M 458.463,795.645 458.463,844.512 z" id="boundary" inkscape:connector-curvature="0" />
	<path style="fill:none;stroke:red;stroke-width:1px;stroke-linecap:butt;stroke-linejoin:miter;stroke-opacity:1" d="M 556.197,424.256 595.291,385.163 z" id="boundary" inkscape:connector-curvature="0" />
	<path style="fill:none;stroke:red;stroke-width:1px;stroke-linecap:butt;stroke-linejoin:miter;stroke-opacity:1" d="M 556.197,424.256 507.33,438.916 z" id="boundary" inkscape:connector-curvature="0" />
	<path style="fill:none;stroke:red;stroke-width:1px;stroke-linecap:butt;stroke-linejoin:miter;stroke-opacity:1" d="M 595.291,385.163 624.611,346.069 z" id="boundary" inkscape:connector-curvature="0" />
	<path style="fill:none;stroke:red;stroke-width:1px;stroke-linecap:butt;stroke-linejoin:miter;stroke-opacity:1" d="M 458.463,844.512 473.123,893.379 z" id="boundary" inkscape:connector-curvature="0" />
	<path style="fill:none;stroke:red;stroke-width:1px;stroke-linecap:butt;stroke-linejoin:miter;stroke-opacity:1" d="M 497.557,937.36 497.557,996 z" id="boundary" inkscape:connector-curvature="0" />
	<path style="fill:none;stroke:red;stroke-width:1px;stroke-linecap:butt;stroke-linejoin:miter;stroke-opacity:1" d="M 497.557,996 448.69,996 z" id="boundary" inkscape:connector-curvature="0" />
	<path style="fill:none;stroke:red;stroke-width:1px;stroke-linecap:butt;stroke-linejoin:miter;stroke-opacity:1" d="M 497.557,937.36 473.123,893.379 z" id="boundary" inkscape:connector-curvature="0" />
	<path style="fill:none;stroke:red;stroke-width:1px;stroke-linecap:butt;stroke-linejoin:miter;stroke-opacity:1" d="M 448.69,996 399.823,996 z" id="boundary" inkscape:connector-curvature="0" />
	<circle cx="4" cy="297.202" r="4" fill="#0" id="circle0"/>
	<circle cx="33.3202" cy="258.108" r="4" fill="#0" id="circle1"/>
	<circle cx="52.867" cy="311.862" r="4" fill="#0" id="circle2"/>
	<circle cx="82.1872" cy="258.108" r="4" fill="#0" id="circle3"/>
	<circle cx="101.734" cy="311.862" r="4" fill="#0" id="circle4"/>
	<circle cx="131.054" cy="238.562" r="4" fill="#0" id="circle5"/>
	<circle cx="150.601" cy="160.374" r="4" fill="#0" id="circle6"/>
	<circle cx="150.601" cy="311.862" r="4" fill="#0" id="circle7"/>
	<circle cx="189.695" cy="341.182" r="4" fill="#0" id="circle8"/>
	<circle cx="199.468" cy="160.374" r="4" fill="#0" id="circle9"/>
	<circle cx="219.015" cy="380.276" r="4" fill="#0" id="circle10"/>
	<circle cx="228.788" cy="952.02" r="4" fill="#0" id="circle11"/>
	<circle cx="248.335" cy="160.374" r="4" fill="#0" id="circle12"/>
	<circle cx="253.222" cy="996" r="4" fill="#0" id="circle13"/>
	<circle cx="258.108" cy="414.483" r="4" fill="#0" id="circle14"/>
	<circle cx="258.108" cy="903.153" r="4" fill="#0" id="circle15"/>
	<circle cx="287.429" cy="453.576" r="4" fill="#0" id="circle16"/>
	<circle cx="287.429" cy="502.443" r="4" fill="#0" id="circle17"/>
	<circle cx="287.429" cy="551.31" r="4" fill="#0" id="circle18"/>
	<circle cx="287.429" cy="600.177" r="4" fill="#0" id="circle19"/>
	<circle cx="287.429" cy="649.044" r="4" fill="#0" id="circle20"/>
	<circle cx="287.429" cy="697.911" r="4" fill="#0" id="circle21"/>
	<circle cx="287.429" cy="746.778" r="4" fill="#0" id="circle22"/>
	<circle cx="287.429" cy="795.645" r="4" fill="#0" id="circle23"/>
	<circle cx="287.429" cy="844.512" r="4" fill="#0" id="circle24"/>
	<circle cx="297.202" cy="160.374" r="4" fill="#0" id="circle25"/>
	<circle cx="302.089" cy="996" r="4" fill="#0" id="circle26"/>
	<circle cx="346.069" cy="160.374" r="4" fill="#0" id="circle27"/>
	<circle cx="350.956" cy="996" r="4" fill="#0" id="circle28"/>
	<circle cx="394.936" cy="160.374" r="4" fill="#0" id="circle29"/>
	<circle cx="399.823" cy="996" r="4" fill="#0" id="circle30"/>
	<circle cx="414.483" cy="43.0936" r="4" fill="#0" id="circle31"/>
	<circle cx="438.916" cy="87.0739" r="4" fill="#0" id="circle32"/>
	<circle cx="443.803" cy="4" r="4" fill="#0" id="circle33"/>
	<circle cx="443.803" cy="170.148" r="4" fill="#0" id="circle34"/>
	<circle cx="448.69" cy="996" r="4" fill="#0" id="circle35"/>
	<circle cx="458.463" cy="453.576" r="4" fill="#0" id="circle36"/>
	<circle cx="458.463" cy="502.443" r="4" fill="#0" id="circle37"/>
	<circle cx="458.463" cy="551.31" r="4" fill="#0" id="circle38"/>
	<circle cx="458.463" cy="600.177" r="4" fill="#0" id="circle39"/>
	<circle cx="458.463" cy="649.044" r="4" fill="#0" id="circle40"/>
	<circle cx="458.463" cy="697.911" r="4" fill="#0" id="circle41"/>
	<circle cx="458.463" cy="746.778" r="4" fill="#0" id="circle42"/>
	<circle cx="458.463" cy="795.645" r="4" fill="#0" id="circle43"/>
	<circle cx="458.463" cy="844.512" r="4" fill="#0" id="circle44"/>
	<circle cx="473.123" cy="893.379" r="4" fill="#0" id="circle45"/>
	<circle cx="482.897" cy="33.3202" r="4" fill="#0" id="circle46"/>
	<circle cx="492.67" cy="82.1872" r="4" fill="#0" id="circle47"/>
	<circle cx="492.67" cy="131.054" r="4" fill="#0" id="circle48"/>
	<circle cx="497.557" cy="937.36" r="4" fill="#0" id="circle49"/>
	<circle cx="497.557" cy="996" r="4" fill="#0" id="circle50"/>
	<circle cx="507.33" cy="438.916" r="4" fill="#0" id="circle51"/>
	<circle cx="531.764" cy="165.261" r="4" fill="#0" id="circle52"/>
	<circle cx="556.197" cy="424.256" r="4" fill="#0" id="circle53"/>
	<circle cx="580.631" cy="170.148" r="4" fill="#0" id="circle54"/>
	<circle cx="595.291" cy="385.163" r="4" fill="#0" id="circle55"/>
	<circle cx="624.611" cy="346.069" r="4" fill="#0" id="circle56"/>
	<circle cx="629.498" cy="170.148" r="4" fill="#0" id="circle57"/>
	<circle cx="663.704" cy="311.862" r="4" fill="#0" id="circle58"/>
	<circle cx="678.365" cy="160.374" r="4" fill="#0" id="circle59"/>
	<circle cx="712.571" cy="311.862" r="4" fill="#0" id="circle60"/>
	<circle cx="727.232" cy="160.374" r="4" fill="#0" id="circle61"/>
	<circle cx="761.438" cy="311.862" r="4" fill="#0" id="circle62"/>
	<circle cx="776.099" cy="160.374" r="4" fill="#0" id="circle63"/>
	<circle cx="810.305" cy="311.862" r="4" fill="#0" id="circle64"/>
	<circle cx="824.966" cy="165.261" r="4" fill="#0" id="circle65"/>
	<circle cx="829.852" cy="214.128" r="4" fill="#0" id="circle66"/>
	<circle cx="829.852" cy="262.995" r="4" fill="#0" id="circle67"/>
	</g>
</svg>