<?xml version="1.0" encoding="UTF-8" standalone="no"?>
<!-- Created with CurveBenchmark -->
<svg
	xmlns:dc="http://purl.org/dc/elements/1.1/"
	xmlns:cc="http://creativecommons.org/ns#"
	xmlns:rdf="http://www.w3.org/1999/02/22-rdf-syntax-ns#"
	xmlns:svg="http://www.w3.org/2000/svg"
	xmlns="http://www.w3.org/2000/svg"
	xmlns:sodipodi="http://sodipodi.sourceforge.net/DTD/sodipodi-0.dtd"
	xmlns:inkscape="http://www.inkscape.org/namespaces/inkscape"
	width="1000"
	height="1000"
	id="svg2"
	version="1.1"
	sodipodi:docname="manifold/gathang-television020.png.txt">
<defs
	id="defs4" />
<metadata
	id="metadata7">
	<rdf:RDF>
		<cc:Work
			rdf:about="">
			<dc:format>image/svg+xml</dc:format>
			<dc:type
				rdf:resource="http://purl.org/dc/dcmitype/StillImage" />
			<dc:title></dc:title>
		</cc:Work>
	</rdf:RDF>
</metadata>
<g
	inkscape:label="Layer 1"
	inkscape:groupmode="layer"
	id="layer1">
	<path style="fill:none;stroke:red;stroke-width:1px;stroke-linecap:butt;stroke-linejoin:miter;stroke-opacity:1" d="M 127.593,17.0098 127.593,49.5344 z" id="boundary" inkscape:connector-curvature="0" />
	<path style="fill:none;stroke:red;stroke-width:1px;stroke-linecap:butt;stroke-linejoin:miter;stroke-opacity:1" d="M 127.593,17.0098 160.118,4 z" id="boundary" inkscape:connector-curvature="0" />
	<path style="fill:none;stroke:red;stroke-width:1px;stroke-linecap:butt;stroke-linejoin:miter;stroke-opacity:1" d="M 127.593,82.059 127.593,49.5344 z" id="boundary" inkscape:connector-curvature="0" />
	<path style="fill:none;stroke:red;stroke-width:1px;stroke-linecap:butt;stroke-linejoin:miter;stroke-opacity:1" d="M 127.593,114.584 127.593,147.108 z" id="boundary" inkscape:connector-curvature="0" />
	<path style="fill:none;stroke:red;stroke-width:1px;stroke-linecap:butt;stroke-linejoin:miter;stroke-opacity:1" d="M 127.593,179.633 127.593,147.108 z" id="boundary" inkscape:connector-curvature="0" />
	<path style="fill:none;stroke:red;stroke-width:1px;stroke-linecap:butt;stroke-linejoin:miter;stroke-opacity:1" d="M 127.593,114.584 127.593,82.059 z" id="boundary" inkscape:connector-curvature="0" />
	<path style="fill:none;stroke:red;stroke-width:1px;stroke-linecap:butt;stroke-linejoin:miter;stroke-opacity:1" d="M 160.118,4 192.643,4 z" id="boundary" inkscape:connector-curvature="0" />
	<path style="fill:none;stroke:red;stroke-width:1px;stroke-linecap:butt;stroke-linejoin:miter;stroke-opacity:1" d="M 134.098,244.682 127.593,212.157 z" id="boundary" inkscape:connector-curvature="0" />
	<path style="fill:none;stroke:red;stroke-width:1px;stroke-linecap:butt;stroke-linejoin:miter;stroke-opacity:1" d="M 127.593,212.157 127.593,179.633 z" id="boundary" inkscape:connector-curvature="0" />
	<path style="fill:none;stroke:red;stroke-width:1px;stroke-linecap:butt;stroke-linejoin:miter;stroke-opacity:1" d="M 134.098,244.682 134.098,277.207 z" id="boundary" inkscape:connector-curvature="0" />
	<path style="fill:none;stroke:red;stroke-width:1px;stroke-linecap:butt;stroke-linejoin:miter;stroke-opacity:1" d="M 134.098,309.731 134.098,277.207 z" id="boundary" inkscape:connector-curvature="0" />
	<path style="fill:none;stroke:red;stroke-width:1px;stroke-linecap:butt;stroke-linejoin:miter;stroke-opacity:1" d="M 134.098,374.78 134.098,342.256 z" id="boundary" inkscape:connector-curvature="0" />
	<path style="fill:none;stroke:red;stroke-width:1px;stroke-linecap:butt;stroke-linejoin:miter;stroke-opacity:1" d="M 134.098,342.256 134.098,309.731 z" id="boundary" inkscape:connector-curvature="0" />
	<path style="fill:none;stroke:red;stroke-width:1px;stroke-linecap:butt;stroke-linejoin:miter;stroke-opacity:1" d="M 134.098,374.78 134.098,407.305 z" id="boundary" inkscape:connector-curvature="0" />
	<path style="fill:none;stroke:red;stroke-width:1px;stroke-linecap:butt;stroke-linejoin:miter;stroke-opacity:1" d="M 91.8164,543.908 49.5344,550.413 z" id="boundary" inkscape:connector-curvature="0" />
	<path style="fill:none;stroke:red;stroke-width:1px;stroke-linecap:butt;stroke-linejoin:miter;stroke-opacity:1" d="M 124.341,543.908 91.8164,543.908 z" id="boundary" inkscape:connector-curvature="0" />
	<path style="fill:none;stroke:red;stroke-width:1px;stroke-linecap:butt;stroke-linejoin:miter;stroke-opacity:1" d="M 49.5344,550.413 75.5541,573.18 z" id="boundary" inkscape:connector-curvature="0" />
	<path style="fill:none;stroke:red;stroke-width:1px;stroke-linecap:butt;stroke-linejoin:miter;stroke-opacity:1" d="M 140.603,573.18 108.079,573.18 z" id="boundary" inkscape:connector-curvature="0" />
	<path style="fill:none;stroke:red;stroke-width:1px;stroke-linecap:butt;stroke-linejoin:miter;stroke-opacity:1" d="M 108.079,573.18 75.5541,573.18 z" id="boundary" inkscape:connector-curvature="0" />
	<path style="fill:none;stroke:red;stroke-width:1px;stroke-linecap:butt;stroke-linejoin:miter;stroke-opacity:1" d="M 134.098,407.305 150.361,436.577 z" id="boundary" inkscape:connector-curvature="0" />
	<path style="fill:none;stroke:red;stroke-width:1px;stroke-linecap:butt;stroke-linejoin:miter;stroke-opacity:1" d="M 150.361,436.577 182.885,436.577 z" id="boundary" inkscape:connector-curvature="0" />
	<path style="fill:none;stroke:red;stroke-width:1px;stroke-linecap:butt;stroke-linejoin:miter;stroke-opacity:1" d="M 189.39,543.908 156.866,543.908 z" id="boundary" inkscape:connector-curvature="0" />
	<path style="fill:none;stroke:red;stroke-width:1px;stroke-linecap:butt;stroke-linejoin:miter;stroke-opacity:1" d="M 124.341,543.908 156.866,543.908 z" id="boundary" inkscape:connector-curvature="0" />
	<path style="fill:none;stroke:red;stroke-width:1px;stroke-linecap:butt;stroke-linejoin:miter;stroke-opacity:1" d="M 140.603,573.18 173.128,573.18 z" id="boundary" inkscape:connector-curvature="0" />
	<path style="fill:none;stroke:red;stroke-width:1px;stroke-linecap:butt;stroke-linejoin:miter;stroke-opacity:1" d="M 205.652,573.18 173.128,573.18 z" id="boundary" inkscape:connector-curvature="0" />
	<path style="fill:none;stroke:red;stroke-width:1px;stroke-linecap:butt;stroke-linejoin:miter;stroke-opacity:1" d="M 189.39,543.908 221.915,543.908 z" id="boundary" inkscape:connector-curvature="0" />
	<path style="fill:none;stroke:red;stroke-width:1px;stroke-linecap:butt;stroke-linejoin:miter;stroke-opacity:1" d="M 182.885,436.577 215.41,436.577 z" id="boundary" inkscape:connector-curvature="0" />
	<path style="fill:none;stroke:red;stroke-width:1px;stroke-linecap:butt;stroke-linejoin:miter;stroke-opacity:1" d="M 192.643,4 225.167,4 z" id="boundary" inkscape:connector-curvature="0" />
	<path style="fill:none;stroke:red;stroke-width:1px;stroke-linecap:butt;stroke-linejoin:miter;stroke-opacity:1" d="M 257.692,4 290.216,4 z" id="boundary" inkscape:connector-curvature="0" />
	<path style="fill:none;stroke:red;stroke-width:1px;stroke-linecap:butt;stroke-linejoin:miter;stroke-opacity:1" d="M 290.216,4 322.741,4 z" id="boundary" inkscape:connector-curvature="0" />
	<path style="fill:none;stroke:red;stroke-width:1px;stroke-linecap:butt;stroke-linejoin:miter;stroke-opacity:1" d="M 215.41,436.577 247.934,436.577 z" id="boundary" inkscape:connector-curvature="0" />
	<path style="fill:none;stroke:red;stroke-width:1px;stroke-linecap:butt;stroke-linejoin:miter;stroke-opacity:1" d="M 280.459,436.577 247.934,436.577 z" id="boundary" inkscape:connector-curvature="0" />
	<path style="fill:none;stroke:red;stroke-width:1px;stroke-linecap:butt;stroke-linejoin:miter;stroke-opacity:1" d="M 312.984,436.577 280.459,436.577 z" id="boundary" inkscape:connector-curvature="0" />
	<path style="fill:none;stroke:red;stroke-width:1px;stroke-linecap:butt;stroke-linejoin:miter;stroke-opacity:1" d="M 225.167,4 257.692,4 z" id="boundary" inkscape:connector-curvature="0" />
	<path style="fill:none;stroke:red;stroke-width:1px;stroke-linecap:butt;stroke-linejoin:miter;stroke-opacity:1" d="M 355.266,4 387.79,4 z" id="boundary" inkscape:connector-curvature="0" />
	<path style="fill:none;stroke:red;stroke-width:1px;stroke-linecap:butt;stroke-linejoin:miter;stroke-opacity:1" d="M 312.984,436.577 345.508,436.577 z" id="boundary" inkscape:connector-curvature="0" />
	<path style="fill:none;stroke:red;stroke-width:1px;stroke-linecap:butt;stroke-linejoin:miter;stroke-opacity:1" d="M 387.79,4 420.315,4 z" id="boundary" inkscape:connector-curvature="0" />
	<path style="fill:none;stroke:red;stroke-width:1px;stroke-linecap:butt;stroke-linejoin:miter;stroke-opacity:1" d="M 378.033,436.577 345.508,436.577 z" id="boundary" inkscape:connector-curvature="0" />
	<path style="fill:none;stroke:red;stroke-width:1px;stroke-linecap:butt;stroke-linejoin:miter;stroke-opacity:1" d="M 410.557,436.577 378.033,436.577 z" id="boundary" inkscape:connector-curvature="0" />
	<path style="fill:none;stroke:red;stroke-width:1px;stroke-linecap:butt;stroke-linejoin:miter;stroke-opacity:1" d="M 322.741,4 355.266,4 z" id="boundary" inkscape:connector-curvature="0" />
	<path style="fill:none;stroke:red;stroke-width:1px;stroke-linecap:butt;stroke-linejoin:miter;stroke-opacity:1" d="M 221.915,543.908 254.439,543.908 z" id="boundary" inkscape:connector-curvature="0" />
	<path style="fill:none;stroke:red;stroke-width:1px;stroke-linecap:butt;stroke-linejoin:miter;stroke-opacity:1" d="M 286.964,543.908 254.439,543.908 z" id="boundary" inkscape:connector-curvature="0" />
	<path style="fill:none;stroke:red;stroke-width:1px;stroke-linecap:butt;stroke-linejoin:miter;stroke-opacity:1" d="M 238.177,573.18 270.702,573.18 z" id="boundary" inkscape:connector-curvature="0" />
	<path style="fill:none;stroke:red;stroke-width:1px;stroke-linecap:butt;stroke-linejoin:miter;stroke-opacity:1" d="M 335.751,573.18 303.226,573.18 z" id="boundary" inkscape:connector-curvature="0" />
	<path style="fill:none;stroke:red;stroke-width:1px;stroke-linecap:butt;stroke-linejoin:miter;stroke-opacity:1" d="M 303.226,573.18 270.702,573.18 z" id="boundary" inkscape:connector-curvature="0" />
	<path style="fill:none;stroke:red;stroke-width:1px;stroke-linecap:butt;stroke-linejoin:miter;stroke-opacity:1" d="M 286.964,543.908 319.489,543.908 z" id="boundary" inkscape:connector-curvature="0" />
	<path style="fill:none;stroke:red;stroke-width:1px;stroke-linecap:butt;stroke-linejoin:miter;stroke-opacity:1" d="M 238.177,573.18 205.652,573.18 z" id="boundary" inkscape:connector-curvature="0" />
	<path style="fill:none;stroke:red;stroke-width:1px;stroke-linecap:butt;stroke-linejoin:miter;stroke-opacity:1" d="M 426.82,465.849 426.82,498.374 z" id="boundary" inkscape:connector-curvature="0" />
	<path style="fill:none;stroke:red;stroke-width:1px;stroke-linecap:butt;stroke-linejoin:miter;stroke-opacity:1" d="M 426.82,465.849 410.557,436.577 z" id="boundary" inkscape:connector-curvature="0" />
	<path style="fill:none;stroke:red;stroke-width:1px;stroke-linecap:butt;stroke-linejoin:miter;stroke-opacity:1" d="M 368.275,573.18 335.751,573.18 z" id="boundary" inkscape:connector-curvature="0" />
	<path style="fill:none;stroke:red;stroke-width:1px;stroke-linecap:butt;stroke-linejoin:miter;stroke-opacity:1" d="M 319.489,543.908 352.013,543.908 z" id="boundary" inkscape:connector-curvature="0" />
	<path style="fill:none;stroke:red;stroke-width:1px;stroke-linecap:butt;stroke-linejoin:miter;stroke-opacity:1" d="M 352.013,543.908 384.538,543.908 z" id="boundary" inkscape:connector-curvature="0" />
	<path style="fill:none;stroke:red;stroke-width:1px;stroke-linecap:butt;stroke-linejoin:miter;stroke-opacity:1" d="M 426.82,498.374 417.062,543.908 z" id="boundary" inkscape:connector-curvature="0" />
	<path style="fill:none;stroke:red;stroke-width:1px;stroke-linecap:butt;stroke-linejoin:miter;stroke-opacity:1" d="M 426.82,592.695 417.062,543.908 z" id="boundary" inkscape:connector-curvature="0" />
	<path style="fill:none;stroke:red;stroke-width:1px;stroke-linecap:butt;stroke-linejoin:miter;stroke-opacity:1" d="M 420.315,4 452.839,4 z" id="boundary" inkscape:connector-curvature="0" />
	<path style="fill:none;stroke:red;stroke-width:1px;stroke-linecap:butt;stroke-linejoin:miter;stroke-opacity:1" d="M 49.5344,647.987 82.059,647.987 z" id="boundary" inkscape:connector-curvature="0" />
	<path style="fill:none;stroke:red;stroke-width:1px;stroke-linecap:butt;stroke-linejoin:miter;stroke-opacity:1" d="M 65.7967,677.259 49.5344,647.987 z" id="boundary" inkscape:connector-curvature="0" />
	<path style="fill:none;stroke:red;stroke-width:1px;stroke-linecap:butt;stroke-linejoin:miter;stroke-opacity:1" d="M 114.584,647.987 82.059,647.987 z" id="boundary" inkscape:connector-curvature="0" />
	<path style="fill:none;stroke:red;stroke-width:1px;stroke-linecap:butt;stroke-linejoin:miter;stroke-opacity:1" d="M 69.0492,745.561 36.5246,745.561 z" id="boundary" inkscape:connector-curvature="0" />
	<path style="fill:none;stroke:red;stroke-width:1px;stroke-linecap:butt;stroke-linejoin:miter;stroke-opacity:1" d="M 98.3213,677.259 65.7967,677.259 z" id="boundary" inkscape:connector-curvature="0" />
	<path style="fill:none;stroke:red;stroke-width:1px;stroke-linecap:butt;stroke-linejoin:miter;stroke-opacity:1" d="M 130.846,677.259 98.3213,677.259 z" id="boundary" inkscape:connector-curvature="0" />
	<path style="fill:none;stroke:red;stroke-width:1px;stroke-linecap:butt;stroke-linejoin:miter;stroke-opacity:1" d="M 36.5246,745.561 4,752.066 z" id="boundary" inkscape:connector-curvature="0" />
	<path style="fill:none;stroke:red;stroke-width:1px;stroke-linecap:butt;stroke-linejoin:miter;stroke-opacity:1" d="M 147.108,647.987 179.633,647.987 z" id="boundary" inkscape:connector-curvature="0" />
	<path style="fill:none;stroke:red;stroke-width:1px;stroke-linecap:butt;stroke-linejoin:miter;stroke-opacity:1" d="M 212.157,647.987 179.633,647.987 z" id="boundary" inkscape:connector-curvature="0" />
	<path style="fill:none;stroke:red;stroke-width:1px;stroke-linecap:butt;stroke-linejoin:miter;stroke-opacity:1" d="M 163.37,677.259 130.846,677.259 z" id="boundary" inkscape:connector-curvature="0" />
	<path style="fill:none;stroke:red;stroke-width:1px;stroke-linecap:butt;stroke-linejoin:miter;stroke-opacity:1" d="M 163.37,677.259 195.895,677.259 z" id="boundary" inkscape:connector-curvature="0" />
	<path style="fill:none;stroke:red;stroke-width:1px;stroke-linecap:butt;stroke-linejoin:miter;stroke-opacity:1" d="M 228.42,677.259 195.895,677.259 z" id="boundary" inkscape:connector-curvature="0" />
	<path style="fill:none;stroke:red;stroke-width:1px;stroke-linecap:butt;stroke-linejoin:miter;stroke-opacity:1" d="M 212.157,647.987 244.682,647.987 z" id="boundary" inkscape:connector-curvature="0" />
	<path style="fill:none;stroke:red;stroke-width:1px;stroke-linecap:butt;stroke-linejoin:miter;stroke-opacity:1" d="M 114.584,647.987 147.108,647.987 z" id="boundary" inkscape:connector-curvature="0" />
	<path style="fill:none;stroke:red;stroke-width:1px;stroke-linecap:butt;stroke-linejoin:miter;stroke-opacity:1" d="M 4,784.59 4,752.066 z" id="boundary" inkscape:connector-curvature="0" />
	<path style="fill:none;stroke:red;stroke-width:1px;stroke-linecap:butt;stroke-linejoin:miter;stroke-opacity:1" d="M 101.574,745.561 69.0492,745.561 z" id="boundary" inkscape:connector-curvature="0" />
	<path style="fill:none;stroke:red;stroke-width:1px;stroke-linecap:butt;stroke-linejoin:miter;stroke-opacity:1" d="M 20.2623,813.862 4,784.59 z" id="boundary" inkscape:connector-curvature="0" />
	<path style="fill:none;stroke:red;stroke-width:1px;stroke-linecap:butt;stroke-linejoin:miter;stroke-opacity:1" d="M 52.7869,826.872 85.3115,813.862 z" id="boundary" inkscape:connector-curvature="0" />
	<path style="fill:none;stroke:red;stroke-width:1px;stroke-linecap:butt;stroke-linejoin:miter;stroke-opacity:1" d="M 85.3115,813.862 117.836,820.367 z" id="boundary" inkscape:connector-curvature="0" />
	<path style="fill:none;stroke:red;stroke-width:1px;stroke-linecap:butt;stroke-linejoin:miter;stroke-opacity:1" d="M 52.7869,826.872 20.2623,813.862 z" id="boundary" inkscape:connector-curvature="0" />
	<path style="fill:none;stroke:red;stroke-width:1px;stroke-linecap:butt;stroke-linejoin:miter;stroke-opacity:1" d="M 134.098,745.561 166.623,745.561 z" id="boundary" inkscape:connector-curvature="0" />
	<path style="fill:none;stroke:red;stroke-width:1px;stroke-linecap:butt;stroke-linejoin:miter;stroke-opacity:1" d="M 199.148,745.561 166.623,745.561 z" id="boundary" inkscape:connector-curvature="0" />
	<path style="fill:none;stroke:red;stroke-width:1px;stroke-linecap:butt;stroke-linejoin:miter;stroke-opacity:1" d="M 117.836,820.367 150.361,817.115 z" id="boundary" inkscape:connector-curvature="0" />
	<path style="fill:none;stroke:red;stroke-width:1px;stroke-linecap:butt;stroke-linejoin:miter;stroke-opacity:1" d="M 182.885,813.862 215.41,813.862 z" id="boundary" inkscape:connector-curvature="0" />
	<path style="fill:none;stroke:red;stroke-width:1px;stroke-linecap:butt;stroke-linejoin:miter;stroke-opacity:1" d="M 150.361,817.115 182.885,813.862 z" id="boundary" inkscape:connector-curvature="0" />
	<path style="fill:none;stroke:red;stroke-width:1px;stroke-linecap:butt;stroke-linejoin:miter;stroke-opacity:1" d="M 199.148,745.561 231.672,745.561 z" id="boundary" inkscape:connector-curvature="0" />
	<path style="fill:none;stroke:red;stroke-width:1px;stroke-linecap:butt;stroke-linejoin:miter;stroke-opacity:1" d="M 101.574,745.561 134.098,745.561 z" id="boundary" inkscape:connector-curvature="0" />
	<path style="fill:none;stroke:red;stroke-width:1px;stroke-linecap:butt;stroke-linejoin:miter;stroke-opacity:1" d="M 215.41,813.862 247.934,813.862 z" id="boundary" inkscape:connector-curvature="0" />
	<path style="fill:none;stroke:red;stroke-width:1px;stroke-linecap:butt;stroke-linejoin:miter;stroke-opacity:1" d="M 244.682,647.987 277.207,647.987 z" id="boundary" inkscape:connector-curvature="0" />
	<path style="fill:none;stroke:red;stroke-width:1px;stroke-linecap:butt;stroke-linejoin:miter;stroke-opacity:1" d="M 309.731,647.987 277.207,647.987 z" id="boundary" inkscape:connector-curvature="0" />
	<path style="fill:none;stroke:red;stroke-width:1px;stroke-linecap:butt;stroke-linejoin:miter;stroke-opacity:1" d="M 260.944,677.259 293.469,677.259 z" id="boundary" inkscape:connector-curvature="0" />
	<path style="fill:none;stroke:red;stroke-width:1px;stroke-linecap:butt;stroke-linejoin:miter;stroke-opacity:1" d="M 325.993,677.259 293.469,677.259 z" id="boundary" inkscape:connector-curvature="0" />
	<path style="fill:none;stroke:red;stroke-width:1px;stroke-linecap:butt;stroke-linejoin:miter;stroke-opacity:1" d="M 309.731,647.987 342.256,647.987 z" id="boundary" inkscape:connector-curvature="0" />
	<path style="fill:none;stroke:red;stroke-width:1px;stroke-linecap:butt;stroke-linejoin:miter;stroke-opacity:1" d="M 228.42,677.259 260.944,677.259 z" id="boundary" inkscape:connector-curvature="0" />
	<path style="fill:none;stroke:red;stroke-width:1px;stroke-linecap:butt;stroke-linejoin:miter;stroke-opacity:1" d="M 368.275,573.18 400.8,573.18 z" id="boundary" inkscape:connector-curvature="0" />
	<path style="fill:none;stroke:red;stroke-width:1px;stroke-linecap:butt;stroke-linejoin:miter;stroke-opacity:1" d="M 426.82,592.695 400.8,573.18 z" id="boundary" inkscape:connector-curvature="0" />
	<path style="fill:none;stroke:red;stroke-width:1px;stroke-linecap:butt;stroke-linejoin:miter;stroke-opacity:1" d="M 358.518,677.259 325.993,677.259 z" id="boundary" inkscape:connector-curvature="0" />
	<path style="fill:none;stroke:red;stroke-width:1px;stroke-linecap:butt;stroke-linejoin:miter;stroke-opacity:1" d="M 342.256,647.987 374.78,647.987 z" id="boundary" inkscape:connector-curvature="0" />
	<path style="fill:none;stroke:red;stroke-width:1px;stroke-linecap:butt;stroke-linejoin:miter;stroke-opacity:1" d="M 391.043,677.259 358.518,677.259 z" id="boundary" inkscape:connector-curvature="0" />
	<path style="fill:none;stroke:red;stroke-width:1px;stroke-linecap:butt;stroke-linejoin:miter;stroke-opacity:1" d="M 407.305,647.987 374.78,647.987 z" id="boundary" inkscape:connector-curvature="0" />
	<path style="fill:none;stroke:red;stroke-width:1px;stroke-linecap:butt;stroke-linejoin:miter;stroke-opacity:1" d="M 423.567,677.259 407.305,647.987 z" id="boundary" inkscape:connector-curvature="0" />
	<path style="fill:none;stroke:red;stroke-width:1px;stroke-linecap:butt;stroke-linejoin:miter;stroke-opacity:1" d="M 231.672,745.561 264.197,745.561 z" id="boundary" inkscape:connector-curvature="0" />
	<path style="fill:none;stroke:red;stroke-width:1px;stroke-linecap:butt;stroke-linejoin:miter;stroke-opacity:1" d="M 296.721,745.561 264.197,745.561 z" id="boundary" inkscape:connector-curvature="0" />
	<path style="fill:none;stroke:red;stroke-width:1px;stroke-linecap:butt;stroke-linejoin:miter;stroke-opacity:1" d="M 247.934,813.862 280.459,813.862 z" id="boundary" inkscape:connector-curvature="0" />
	<path style="fill:none;stroke:red;stroke-width:1px;stroke-linecap:butt;stroke-linejoin:miter;stroke-opacity:1" d="M 345.508,813.862 312.984,813.862 z" id="boundary" inkscape:connector-curvature="0" />
	<path style="fill:none;stroke:red;stroke-width:1px;stroke-linecap:butt;stroke-linejoin:miter;stroke-opacity:1" d="M 312.984,813.862 280.459,813.862 z" id="boundary" inkscape:connector-curvature="0" />
	<path style="fill:none;stroke:red;stroke-width:1px;stroke-linecap:butt;stroke-linejoin:miter;stroke-opacity:1" d="M 296.721,745.561 329.246,745.561 z" id="boundary" inkscape:connector-curvature="0" />
	<path style="fill:none;stroke:red;stroke-width:1px;stroke-linecap:butt;stroke-linejoin:miter;stroke-opacity:1" d="M 394.295,745.561 361.77,745.561 z" id="boundary" inkscape:connector-curvature="0" />
	<path style="fill:none;stroke:red;stroke-width:1px;stroke-linecap:butt;stroke-linejoin:miter;stroke-opacity:1" d="M 361.77,745.561 329.246,745.561 z" id="boundary" inkscape:connector-curvature="0" />
	<path style="fill:none;stroke:red;stroke-width:1px;stroke-linecap:butt;stroke-linejoin:miter;stroke-opacity:1" d="M 345.508,813.862 378.033,813.862 z" id="boundary" inkscape:connector-curvature="0" />
	<path style="fill:none;stroke:red;stroke-width:1px;stroke-linecap:butt;stroke-linejoin:miter;stroke-opacity:1" d="M 410.557,813.862 378.033,813.862 z" id="boundary" inkscape:connector-curvature="0" />
	<path style="fill:none;stroke:red;stroke-width:1px;stroke-linecap:butt;stroke-linejoin:miter;stroke-opacity:1" d="M 394.295,745.561 426.82,742.308 z" id="boundary" inkscape:connector-curvature="0" />
	<path style="fill:none;stroke:red;stroke-width:1px;stroke-linecap:butt;stroke-linejoin:miter;stroke-opacity:1" d="M 423.567,677.259 426.82,709.784 z" id="boundary" inkscape:connector-curvature="0" />
	<path style="fill:none;stroke:red;stroke-width:1px;stroke-linecap:butt;stroke-linejoin:miter;stroke-opacity:1" d="M 410.557,813.862 443.082,813.862 z" id="boundary" inkscape:connector-curvature="0" />
	<path style="fill:none;stroke:red;stroke-width:1px;stroke-linecap:butt;stroke-linejoin:miter;stroke-opacity:1" d="M 485.364,4 517.889,4 z" id="boundary" inkscape:connector-curvature="0" />
	<path style="fill:none;stroke:red;stroke-width:1px;stroke-linecap:butt;stroke-linejoin:miter;stroke-opacity:1" d="M 550.413,4 582.938,4 z" id="boundary" inkscape:connector-curvature="0" />
	<path style="fill:none;stroke:red;stroke-width:1px;stroke-linecap:butt;stroke-linejoin:miter;stroke-opacity:1" d="M 582.938,4 615.462,4 z" id="boundary" inkscape:connector-curvature="0" />
	<path style="fill:none;stroke:red;stroke-width:1px;stroke-linecap:butt;stroke-linejoin:miter;stroke-opacity:1" d="M 517.889,4 550.413,4 z" id="boundary" inkscape:connector-curvature="0" />
	<path style="fill:none;stroke:red;stroke-width:1px;stroke-linecap:butt;stroke-linejoin:miter;stroke-opacity:1" d="M 647.987,4 680.511,4 z" id="boundary" inkscape:connector-curvature="0" />
	<path style="fill:none;stroke:red;stroke-width:1px;stroke-linecap:butt;stroke-linejoin:miter;stroke-opacity:1" d="M 651.239,436.577 683.764,436.577 z" id="boundary" inkscape:connector-curvature="0" />
	<path style="fill:none;stroke:red;stroke-width:1px;stroke-linecap:butt;stroke-linejoin:miter;stroke-opacity:1" d="M 748.813,436.577 716.289,436.577 z" id="boundary" inkscape:connector-curvature="0" />
	<path style="fill:none;stroke:red;stroke-width:1px;stroke-linecap:butt;stroke-linejoin:miter;stroke-opacity:1" d="M 716.289,436.577 683.764,436.577 z" id="boundary" inkscape:connector-curvature="0" />
	<path style="fill:none;stroke:red;stroke-width:1px;stroke-linecap:butt;stroke-linejoin:miter;stroke-opacity:1" d="M 680.511,4 713.036,4 z" id="boundary" inkscape:connector-curvature="0" />
	<path style="fill:none;stroke:red;stroke-width:1px;stroke-linecap:butt;stroke-linejoin:miter;stroke-opacity:1" d="M 615.462,4 647.987,4 z" id="boundary" inkscape:connector-curvature="0" />
	<path style="fill:none;stroke:red;stroke-width:1px;stroke-linecap:butt;stroke-linejoin:miter;stroke-opacity:1" d="M 651.239,436.577 618.715,439.83 z" id="boundary" inkscape:connector-curvature="0" />
	<path style="fill:none;stroke:red;stroke-width:1px;stroke-linecap:butt;stroke-linejoin:miter;stroke-opacity:1" d="M 618.715,439.83 618.715,472.354 z" id="boundary" inkscape:connector-curvature="0" />
	<path style="fill:none;stroke:red;stroke-width:1px;stroke-linecap:butt;stroke-linejoin:miter;stroke-opacity:1" d="M 618.715,504.879 618.715,472.354 z" id="boundary" inkscape:connector-curvature="0" />
	<path style="fill:none;stroke:red;stroke-width:1px;stroke-linecap:butt;stroke-linejoin:miter;stroke-opacity:1" d="M 683.764,543.908 651.239,543.908 z" id="boundary" inkscape:connector-curvature="0" />
	<path style="fill:none;stroke:red;stroke-width:1px;stroke-linecap:butt;stroke-linejoin:miter;stroke-opacity:1" d="M 618.715,537.403 618.715,576.433 z" id="boundary" inkscape:connector-curvature="0" />
	<path style="fill:none;stroke:red;stroke-width:1px;stroke-linecap:butt;stroke-linejoin:miter;stroke-opacity:1" d="M 618.715,537.403 618.715,504.879 z" id="boundary" inkscape:connector-curvature="0" />
	<path style="fill:none;stroke:red;stroke-width:1px;stroke-linecap:butt;stroke-linejoin:miter;stroke-opacity:1" d="M 618.715,608.957 618.715,576.433 z" id="boundary" inkscape:connector-curvature="0" />
	<path style="fill:none;stroke:red;stroke-width:1px;stroke-linecap:butt;stroke-linejoin:miter;stroke-opacity:1" d="M 716.289,543.908 683.764,543.908 z" id="boundary" inkscape:connector-curvature="0" />
	<path style="fill:none;stroke:red;stroke-width:1px;stroke-linecap:butt;stroke-linejoin:miter;stroke-opacity:1" d="M 748.813,543.908 716.289,543.908 z" id="boundary" inkscape:connector-curvature="0" />
	<path style="fill:none;stroke:red;stroke-width:1px;stroke-linecap:butt;stroke-linejoin:miter;stroke-opacity:1" d="M 667.502,573.18 700.026,573.18 z" id="boundary" inkscape:connector-curvature="0" />
	<path style="fill:none;stroke:red;stroke-width:1px;stroke-linecap:butt;stroke-linejoin:miter;stroke-opacity:1" d="M 732.551,573.18 700.026,573.18 z" id="boundary" inkscape:connector-curvature="0" />
	<path style="fill:none;stroke:red;stroke-width:1px;stroke-linecap:butt;stroke-linejoin:miter;stroke-opacity:1" d="M 765.075,573.18 732.551,573.18 z" id="boundary" inkscape:connector-curvature="0" />
	<path style="fill:none;stroke:red;stroke-width:1px;stroke-linecap:butt;stroke-linejoin:miter;stroke-opacity:1" d="M 748.813,543.908 781.338,543.908 z" id="boundary" inkscape:connector-curvature="0" />
	<path style="fill:none;stroke:red;stroke-width:1px;stroke-linecap:butt;stroke-linejoin:miter;stroke-opacity:1" d="M 748.813,436.577 781.338,436.577 z" id="boundary" inkscape:connector-curvature="0" />
	<path style="fill:none;stroke:red;stroke-width:1px;stroke-linecap:butt;stroke-linejoin:miter;stroke-opacity:1" d="M 713.036,4 745.561,4 z" id="boundary" inkscape:connector-curvature="0" />
	<path style="fill:none;stroke:red;stroke-width:1px;stroke-linecap:butt;stroke-linejoin:miter;stroke-opacity:1" d="M 778.085,4 810.61,4 z" id="boundary" inkscape:connector-curvature="0" />
	<path style="fill:none;stroke:red;stroke-width:1px;stroke-linecap:butt;stroke-linejoin:miter;stroke-opacity:1" d="M 810.61,4 843.134,4 z" id="boundary" inkscape:connector-curvature="0" />
	<path style="fill:none;stroke:red;stroke-width:1px;stroke-linecap:butt;stroke-linejoin:miter;stroke-opacity:1" d="M 872.407,20.2623 872.407,52.7869 z" id="boundary" inkscape:connector-curvature="0" />
	<path style="fill:none;stroke:red;stroke-width:1px;stroke-linecap:butt;stroke-linejoin:miter;stroke-opacity:1" d="M 843.134,4 872.407,20.2623 z" id="boundary" inkscape:connector-curvature="0" />
	<path style="fill:none;stroke:red;stroke-width:1px;stroke-linecap:butt;stroke-linejoin:miter;stroke-opacity:1" d="M 872.407,85.3115 872.407,52.7869 z" id="boundary" inkscape:connector-curvature="0" />
	<path style="fill:none;stroke:red;stroke-width:1px;stroke-linecap:butt;stroke-linejoin:miter;stroke-opacity:1" d="M 872.407,117.836 872.407,85.3115 z" id="boundary" inkscape:connector-curvature="0" />
	<path style="fill:none;stroke:red;stroke-width:1px;stroke-linecap:butt;stroke-linejoin:miter;stroke-opacity:1" d="M 872.407,117.836 872.407,150.361 z" id="boundary" inkscape:connector-curvature="0" />
	<path style="fill:none;stroke:red;stroke-width:1px;stroke-linecap:butt;stroke-linejoin:miter;stroke-opacity:1" d="M 872.407,182.885 872.407,150.361 z" id="boundary" inkscape:connector-curvature="0" />
	<path style="fill:none;stroke:red;stroke-width:1px;stroke-linecap:butt;stroke-linejoin:miter;stroke-opacity:1" d="M 872.407,215.41 872.407,182.885 z" id="boundary" inkscape:connector-curvature="0" />
	<path style="fill:none;stroke:red;stroke-width:1px;stroke-linecap:butt;stroke-linejoin:miter;stroke-opacity:1" d="M 872.407,215.41 872.407,247.934 z" id="boundary" inkscape:connector-curvature="0" />
	<path style="fill:none;stroke:red;stroke-width:1px;stroke-linecap:butt;stroke-linejoin:miter;stroke-opacity:1" d="M 872.407,280.459 872.407,247.934 z" id="boundary" inkscape:connector-curvature="0" />
	<path style="fill:none;stroke:red;stroke-width:1px;stroke-linecap:butt;stroke-linejoin:miter;stroke-opacity:1" d="M 872.407,280.459 872.407,312.984 z" id="boundary" inkscape:connector-curvature="0" />
	<path style="fill:none;stroke:red;stroke-width:1px;stroke-linecap:butt;stroke-linejoin:miter;stroke-opacity:1" d="M 872.407,345.508 872.407,312.984 z" id="boundary" inkscape:connector-curvature="0" />
	<path style="fill:none;stroke:red;stroke-width:1px;stroke-linecap:butt;stroke-linejoin:miter;stroke-opacity:1" d="M 781.338,436.577 813.862,436.577 z" id="boundary" inkscape:connector-curvature="0" />
	<path style="fill:none;stroke:red;stroke-width:1px;stroke-linecap:butt;stroke-linejoin:miter;stroke-opacity:1" d="M 846.387,436.577 813.862,436.577 z" id="boundary" inkscape:connector-curvature="0" />
	<path style="fill:none;stroke:red;stroke-width:1px;stroke-linecap:butt;stroke-linejoin:miter;stroke-opacity:1" d="M 797.6,573.18 765.075,573.18 z" id="boundary" inkscape:connector-curvature="0" />
	<path style="fill:none;stroke:red;stroke-width:1px;stroke-linecap:butt;stroke-linejoin:miter;stroke-opacity:1" d="M 781.338,543.908 813.862,543.908 z" id="boundary" inkscape:connector-curvature="0" />
	<path style="fill:none;stroke:red;stroke-width:1px;stroke-linecap:butt;stroke-linejoin:miter;stroke-opacity:1" d="M 830.125,573.18 797.6,573.18 z" id="boundary" inkscape:connector-curvature="0" />
	<path style="fill:none;stroke:red;stroke-width:1px;stroke-linecap:butt;stroke-linejoin:miter;stroke-opacity:1" d="M 813.862,543.908 846.387,543.908 z" id="boundary" inkscape:connector-curvature="0" />
	<path style="fill:none;stroke:red;stroke-width:1px;stroke-linecap:butt;stroke-linejoin:miter;stroke-opacity:1" d="M 872.407,410.557 846.387,436.577 z" id="boundary" inkscape:connector-curvature="0" />
	<path style="fill:none;stroke:red;stroke-width:1px;stroke-linecap:butt;stroke-linejoin:miter;stroke-opacity:1" d="M 872.407,378.033 872.407,410.557 z" id="boundary" inkscape:connector-curvature="0" />
	<path style="fill:none;stroke:red;stroke-width:1px;stroke-linecap:butt;stroke-linejoin:miter;stroke-opacity:1" d="M 862.649,573.18 830.125,573.18 z" id="boundary" inkscape:connector-curvature="0" />
	<path style="fill:none;stroke:red;stroke-width:1px;stroke-linecap:butt;stroke-linejoin:miter;stroke-opacity:1" d="M 846.387,543.908 878.911,543.908 z" id="boundary" inkscape:connector-curvature="0" />
	<path style="fill:none;stroke:red;stroke-width:1px;stroke-linecap:butt;stroke-linejoin:miter;stroke-opacity:1" d="M 878.911,543.908 895.174,573.18 z" id="boundary" inkscape:connector-curvature="0" />
	<path style="fill:none;stroke:red;stroke-width:1px;stroke-linecap:butt;stroke-linejoin:miter;stroke-opacity:1" d="M 872.407,378.033 872.407,345.508 z" id="boundary" inkscape:connector-curvature="0" />
	<path style="fill:none;stroke:red;stroke-width:1px;stroke-linecap:butt;stroke-linejoin:miter;stroke-opacity:1" d="M 745.561,4 778.085,4 z" id="boundary" inkscape:connector-curvature="0" />
	<path style="fill:none;stroke:red;stroke-width:1px;stroke-linecap:butt;stroke-linejoin:miter;stroke-opacity:1" d="M 618.715,641.482 618.715,680.511 z" id="boundary" inkscape:connector-curvature="0" />
	<path style="fill:none;stroke:red;stroke-width:1px;stroke-linecap:butt;stroke-linejoin:miter;stroke-opacity:1" d="M 618.715,641.482 618.715,608.957 z" id="boundary" inkscape:connector-curvature="0" />
	<path style="fill:none;stroke:red;stroke-width:1px;stroke-linecap:butt;stroke-linejoin:miter;stroke-opacity:1" d="M 426.82,742.308 426.82,709.784 z" id="boundary" inkscape:connector-curvature="0" />
	<path style="fill:none;stroke:red;stroke-width:1px;stroke-linecap:butt;stroke-linejoin:miter;stroke-opacity:1" d="M 618.715,680.511 618.715,713.036 z" id="boundary" inkscape:connector-curvature="0" />
	<path style="fill:none;stroke:red;stroke-width:1px;stroke-linecap:butt;stroke-linejoin:miter;stroke-opacity:1" d="M 651.239,647.987 683.764,647.987 z" id="boundary" inkscape:connector-curvature="0" />
	<path style="fill:none;stroke:red;stroke-width:1px;stroke-linecap:butt;stroke-linejoin:miter;stroke-opacity:1" d="M 683.764,647.987 716.289,647.987 z" id="boundary" inkscape:connector-curvature="0" />
	<path style="fill:none;stroke:red;stroke-width:1px;stroke-linecap:butt;stroke-linejoin:miter;stroke-opacity:1" d="M 700.026,677.259 667.502,677.259 z" id="boundary" inkscape:connector-curvature="0" />
	<path style="fill:none;stroke:red;stroke-width:1px;stroke-linecap:butt;stroke-linejoin:miter;stroke-opacity:1" d="M 752.066,745.561 719.541,745.561 z" id="boundary" inkscape:connector-curvature="0" />
	<path style="fill:none;stroke:red;stroke-width:1px;stroke-linecap:butt;stroke-linejoin:miter;stroke-opacity:1" d="M 732.551,677.259 700.026,677.259 z" id="boundary" inkscape:connector-curvature="0" />
	<path style="fill:none;stroke:red;stroke-width:1px;stroke-linecap:butt;stroke-linejoin:miter;stroke-opacity:1" d="M 716.289,647.987 748.813,647.987 z" id="boundary" inkscape:connector-curvature="0" />
	<path style="fill:none;stroke:red;stroke-width:1px;stroke-linecap:butt;stroke-linejoin:miter;stroke-opacity:1" d="M 475.607,813.862 443.082,813.862 z" id="boundary" inkscape:connector-curvature="0" />
	<path style="fill:none;stroke:red;stroke-width:1px;stroke-linecap:butt;stroke-linejoin:miter;stroke-opacity:1" d="M 618.715,713.036 621.967,745.561 z" id="boundary" inkscape:connector-curvature="0" />
	<path style="fill:none;stroke:red;stroke-width:1px;stroke-linecap:butt;stroke-linejoin:miter;stroke-opacity:1" d="M 508.131,813.862 475.607,813.862 z" id="boundary" inkscape:connector-curvature="0" />
	<path style="fill:none;stroke:red;stroke-width:1px;stroke-linecap:butt;stroke-linejoin:miter;stroke-opacity:1" d="M 508.131,813.862 540.656,813.862 z" id="boundary" inkscape:connector-curvature="0" />
	<path style="fill:none;stroke:red;stroke-width:1px;stroke-linecap:butt;stroke-linejoin:miter;stroke-opacity:1" d="M 573.18,813.862 605.705,813.862 z" id="boundary" inkscape:connector-curvature="0" />
	<path style="fill:none;stroke:red;stroke-width:1px;stroke-linecap:butt;stroke-linejoin:miter;stroke-opacity:1" d="M 573.18,813.862 540.656,813.862 z" id="boundary" inkscape:connector-curvature="0" />
	<path style="fill:none;stroke:red;stroke-width:1px;stroke-linecap:butt;stroke-linejoin:miter;stroke-opacity:1" d="M 638.23,813.862 605.705,813.862 z" id="boundary" inkscape:connector-curvature="0" />
	<path style="fill:none;stroke:red;stroke-width:1px;stroke-linecap:butt;stroke-linejoin:miter;stroke-opacity:1" d="M 654.492,745.561 687.016,745.561 z" id="boundary" inkscape:connector-curvature="0" />
	<path style="fill:none;stroke:red;stroke-width:1px;stroke-linecap:butt;stroke-linejoin:miter;stroke-opacity:1" d="M 719.541,745.561 687.016,745.561 z" id="boundary" inkscape:connector-curvature="0" />
	<path style="fill:none;stroke:red;stroke-width:1px;stroke-linecap:butt;stroke-linejoin:miter;stroke-opacity:1" d="M 638.23,813.862 670.754,813.862 z" id="boundary" inkscape:connector-curvature="0" />
	<path style="fill:none;stroke:red;stroke-width:1px;stroke-linecap:butt;stroke-linejoin:miter;stroke-opacity:1" d="M 703.279,813.862 735.803,813.862 z" id="boundary" inkscape:connector-curvature="0" />
	<path style="fill:none;stroke:red;stroke-width:1px;stroke-linecap:butt;stroke-linejoin:miter;stroke-opacity:1" d="M 703.279,813.862 670.754,813.862 z" id="boundary" inkscape:connector-curvature="0" />
	<path style="fill:none;stroke:red;stroke-width:1px;stroke-linecap:butt;stroke-linejoin:miter;stroke-opacity:1" d="M 621.967,745.561 654.492,745.561 z" id="boundary" inkscape:connector-curvature="0" />
	<path style="fill:none;stroke:red;stroke-width:1px;stroke-linecap:butt;stroke-linejoin:miter;stroke-opacity:1" d="M 765.075,677.259 732.551,677.259 z" id="boundary" inkscape:connector-curvature="0" />
	<path style="fill:none;stroke:red;stroke-width:1px;stroke-linecap:butt;stroke-linejoin:miter;stroke-opacity:1" d="M 797.6,677.259 765.075,677.259 z" id="boundary" inkscape:connector-curvature="0" />
	<path style="fill:none;stroke:red;stroke-width:1px;stroke-linecap:butt;stroke-linejoin:miter;stroke-opacity:1" d="M 748.813,647.987 781.338,647.987 z" id="boundary" inkscape:connector-curvature="0" />
	<path style="fill:none;stroke:red;stroke-width:1px;stroke-linecap:butt;stroke-linejoin:miter;stroke-opacity:1" d="M 781.338,647.987 813.862,647.987 z" id="boundary" inkscape:connector-curvature="0" />
	<path style="fill:none;stroke:red;stroke-width:1px;stroke-linecap:butt;stroke-linejoin:miter;stroke-opacity:1" d="M 784.59,745.561 752.066,745.561 z" id="boundary" inkscape:connector-curvature="0" />
	<path style="fill:none;stroke:red;stroke-width:1px;stroke-linecap:butt;stroke-linejoin:miter;stroke-opacity:1" d="M 817.115,745.561 784.59,745.561 z" id="boundary" inkscape:connector-curvature="0" />
	<path style="fill:none;stroke:red;stroke-width:1px;stroke-linecap:butt;stroke-linejoin:miter;stroke-opacity:1" d="M 830.125,677.259 797.6,677.259 z" id="boundary" inkscape:connector-curvature="0" />
	<path style="fill:none;stroke:red;stroke-width:1px;stroke-linecap:butt;stroke-linejoin:miter;stroke-opacity:1" d="M 846.387,647.987 878.911,647.987 z" id="boundary" inkscape:connector-curvature="0" />
	<path style="fill:none;stroke:red;stroke-width:1px;stroke-linecap:butt;stroke-linejoin:miter;stroke-opacity:1" d="M 846.387,647.987 813.862,647.987 z" id="boundary" inkscape:connector-curvature="0" />
	<path style="fill:none;stroke:red;stroke-width:1px;stroke-linecap:butt;stroke-linejoin:miter;stroke-opacity:1" d="M 911.436,647.987 895.174,677.259 z" id="boundary" inkscape:connector-curvature="0" />
	<path style="fill:none;stroke:red;stroke-width:1px;stroke-linecap:butt;stroke-linejoin:miter;stroke-opacity:1" d="M 849.639,745.561 817.115,745.561 z" id="boundary" inkscape:connector-curvature="0" />
	<path style="fill:none;stroke:red;stroke-width:1px;stroke-linecap:butt;stroke-linejoin:miter;stroke-opacity:1" d="M 830.125,677.259 862.649,677.259 z" id="boundary" inkscape:connector-curvature="0" />
	<path style="fill:none;stroke:red;stroke-width:1px;stroke-linecap:butt;stroke-linejoin:miter;stroke-opacity:1" d="M 895.174,677.259 862.649,677.259 z" id="boundary" inkscape:connector-curvature="0" />
	<path style="fill:none;stroke:red;stroke-width:1px;stroke-linecap:butt;stroke-linejoin:miter;stroke-opacity:1" d="M 800.852,813.862 768.328,813.862 z" id="boundary" inkscape:connector-curvature="0" />
	<path style="fill:none;stroke:red;stroke-width:1px;stroke-linecap:butt;stroke-linejoin:miter;stroke-opacity:1" d="M 882.164,745.561 849.639,745.561 z" id="boundary" inkscape:connector-curvature="0" />
	<path style="fill:none;stroke:red;stroke-width:1px;stroke-linecap:butt;stroke-linejoin:miter;stroke-opacity:1" d="M 800.852,813.862 833.377,813.862 z" id="boundary" inkscape:connector-curvature="0" />
	<path style="fill:none;stroke:red;stroke-width:1px;stroke-linecap:butt;stroke-linejoin:miter;stroke-opacity:1" d="M 833.377,813.862 865.902,826.872 z" id="boundary" inkscape:connector-curvature="0" />
	<path style="fill:none;stroke:red;stroke-width:1px;stroke-linecap:butt;stroke-linejoin:miter;stroke-opacity:1" d="M 865.902,826.872 898.426,813.862 z" id="boundary" inkscape:connector-curvature="0" />
	<path style="fill:none;stroke:red;stroke-width:1px;stroke-linecap:butt;stroke-linejoin:miter;stroke-opacity:1" d="M 898.426,813.862 930.951,813.862 z" id="boundary" inkscape:connector-curvature="0" />
	<path style="fill:none;stroke:red;stroke-width:1px;stroke-linecap:butt;stroke-linejoin:miter;stroke-opacity:1" d="M 882.164,745.561 914.689,745.561 z" id="boundary" inkscape:connector-curvature="0" />
	<path style="fill:none;stroke:red;stroke-width:1px;stroke-linecap:butt;stroke-linejoin:miter;stroke-opacity:1" d="M 735.803,813.862 768.328,813.862 z" id="boundary" inkscape:connector-curvature="0" />
	<path style="fill:none;stroke:red;stroke-width:1px;stroke-linecap:butt;stroke-linejoin:miter;stroke-opacity:1" d="M 914.689,745.561 947.213,745.561 z" id="boundary" inkscape:connector-curvature="0" />
	<path style="fill:none;stroke:red;stroke-width:1px;stroke-linecap:butt;stroke-linejoin:miter;stroke-opacity:1" d="M 979.738,745.561 947.213,745.561 z" id="boundary" inkscape:connector-curvature="0" />
	<path style="fill:none;stroke:red;stroke-width:1px;stroke-linecap:butt;stroke-linejoin:miter;stroke-opacity:1" d="M 979.738,745.561 996,774.833 z" id="boundary" inkscape:connector-curvature="0" />
	<path style="fill:none;stroke:red;stroke-width:1px;stroke-linecap:butt;stroke-linejoin:miter;stroke-opacity:1" d="M 930.951,813.862 963.475,813.862 z" id="boundary" inkscape:connector-curvature="0" />
	<path style="fill:none;stroke:red;stroke-width:1px;stroke-linecap:butt;stroke-linejoin:miter;stroke-opacity:1" d="M 996,774.833 996,807.357 z" id="boundary" inkscape:connector-curvature="0" />
	<path style="fill:none;stroke:red;stroke-width:1px;stroke-linecap:butt;stroke-linejoin:miter;stroke-opacity:1" d="M 996,807.357 963.475,813.862 z" id="boundary" inkscape:connector-curvature="0" />
	<path style="fill:none;stroke:red;stroke-width:1px;stroke-linecap:butt;stroke-linejoin:miter;stroke-opacity:1" d="M 911.436,647.987 895.174,573.18 z" id="boundary" inkscape:connector-curvature="0" />
	<path style="fill:none;stroke:red;stroke-width:1px;stroke-linecap:butt;stroke-linejoin:miter;stroke-opacity:1" d="M 452.839,4 485.364,4 z" id="boundary" inkscape:connector-curvature="0" />
	<circle cx="4" cy="752.066" r="4" fill="#0" id="circle0"/>
	<circle cx="4" cy="784.59" r="4" fill="#0" id="circle1"/>
	<circle cx="20.2623" cy="813.862" r="4" fill="#0" id="circle2"/>
	<circle cx="36.5246" cy="745.561" r="4" fill="#0" id="circle3"/>
	<circle cx="49.5344" cy="550.413" r="4" fill="#0" id="circle4"/>
	<circle cx="49.5344" cy="647.987" r="4" fill="#0" id="circle5"/>
	<circle cx="52.7869" cy="826.872" r="4" fill="#0" id="circle6"/>
	<circle cx="65.7967" cy="677.259" r="4" fill="#0" id="circle7"/>
	<circle cx="69.0492" cy="745.561" r="4" fill="#0" id="circle8"/>
	<circle cx="75.5541" cy="573.18" r="4" fill="#0" id="circle9"/>
	<circle cx="82.059" cy="647.987" r="4" fill="#0" id="circle10"/>
	<circle cx="85.3115" cy="813.862" r="4" fill="#0" id="circle11"/>
	<circle cx="91.8164" cy="543.908" r="4" fill="#0" id="circle12"/>
	<circle cx="98.3213" cy="677.259" r="4" fill="#0" id="circle13"/>
	<circle cx="101.574" cy="745.561" r="4" fill="#0" id="circle14"/>
	<circle cx="108.079" cy="573.18" r="4" fill="#0" id="circle15"/>
	<circle cx="114.584" cy="647.987" r="4" fill="#0" id="circle16"/>
	<circle cx="117.836" cy="820.367" r="4" fill="#0" id="circle17"/>
	<circle cx="124.341" cy="543.908" r="4" fill="#0" id="circle18"/>
	<circle cx="127.593" cy="17.0098" r="4" fill="#0" id="circle19"/>
	<circle cx="127.593" cy="49.5344" r="4" fill="#0" id="circle20"/>
	<circle cx="127.593" cy="82.059" r="4" fill="#0" id="circle21"/>
	<circle cx="127.593" cy="114.584" r="4" fill="#0" id="circle22"/>
	<circle cx="127.593" cy="147.108" r="4" fill="#0" id="circle23"/>
	<circle cx="127.593" cy="179.633" r="4" fill="#0" id="circle24"/>
	<circle cx="127.593" cy="212.157" r="4" fill="#0" id="circle25"/>
	<circle cx="130.846" cy="677.259" r="4" fill="#0" id="circle26"/>
	<circle cx="134.098" cy="244.682" r="4" fill="#0" id="circle27"/>
	<circle cx="134.098" cy="277.207" r="4" fill="#0" id="circle28"/>
	<circle cx="134.098" cy="309.731" r="4" fill="#0" id="circle29"/>
	<circle cx="134.098" cy="342.256" r="4" fill="#0" id="circle30"/>
	<circle cx="134.098" cy="374.78" r="4" fill="#0" id="circle31"/>
	<circle cx="134.098" cy="407.305" r="4" fill="#0" id="circle32"/>
	<circle cx="134.098" cy="745.561" r="4" fill="#0" id="circle33"/>
	<circle cx="140.603" cy="573.18" r="4" fill="#0" id="circle34"/>
	<circle cx="147.108" cy="647.987" r="4" fill="#0" id="circle35"/>
	<circle cx="150.361" cy="436.577" r="4" fill="#0" id="circle36"/>
	<circle cx="150.361" cy="817.115" r="4" fill="#0" id="circle37"/>
	<circle cx="156.866" cy="543.908" r="4" fill="#0" id="circle38"/>
	<circle cx="160.118" cy="4" r="4" fill="#0" id="circle39"/>
	<circle cx="163.37" cy="677.259" r="4" fill="#0" id="circle40"/>
	<circle cx="166.623" cy="745.561" r="4" fill="#0" id="circle41"/>
	<circle cx="173.128" cy="573.18" r="4" fill="#0" id="circle42"/>
	<circle cx="179.633" cy="647.987" r="4" fill="#0" id="circle43"/>
	<circle cx="182.885" cy="436.577" r="4" fill="#0" id="circle44"/>
	<circle cx="182.885" cy="813.862" r="4" fill="#0" id="circle45"/>
	<circle cx="189.39" cy="543.908" r="4" fill="#0" id="circle46"/>
	<circle cx="192.643" cy="4" r="4" fill="#0" id="circle47"/>
	<circle cx="195.895" cy="677.259" r="4" fill="#0" id="circle48"/>
	<circle cx="199.148" cy="745.561" r="4" fill="#0" id="circle49"/>
	<circle cx="205.652" cy="573.18" r="4" fill="#0" id="circle50"/>
	<circle cx="212.157" cy="647.987" r="4" fill="#0" id="circle51"/>
	<circle cx="215.41" cy="436.577" r="4" fill="#0" id="circle52"/>
	<circle cx="215.41" cy="813.862" r="4" fill="#0" id="circle53"/>
	<circle cx="221.915" cy="543.908" r="4" fill="#0" id="circle54"/>
	<circle cx="225.167" cy="4" r="4" fill="#0" id="circle55"/>
	<circle cx="228.42" cy="677.259" r="4" fill="#0" id="circle56"/>
	<circle cx="231.672" cy="745.561" r="4" fill="#0" id="circle57"/>
	<circle cx="238.177" cy="573.18" r="4" fill="#0" id="circle58"/>
	<circle cx="244.682" cy="647.987" r="4" fill="#0" id="circle59"/>
	<circle cx="247.934" cy="436.577" r="4" fill="#0" id="circle60"/>
	<circle cx="247.934" cy="813.862" r="4" fill="#0" id="circle61"/>
	<circle cx="254.439" cy="543.908" r="4" fill="#0" id="circle62"/>
	<circle cx="257.692" cy="4" r="4" fill="#0" id="circle63"/>
	<circle cx="260.944" cy="677.259" r="4" fill="#0" id="circle64"/>
	<circle cx="264.197" cy="745.561" r="4" fill="#0" id="circle65"/>
	<circle cx="270.702" cy="573.18" r="4" fill="#0" id="circle66"/>
	<circle cx="277.207" cy="647.987" r="4" fill="#0" id="circle67"/>
	<circle cx="280.459" cy="436.577" r="4" fill="#0" id="circle68"/>
	<circle cx="280.459" cy="813.862" r="4" fill="#0" id="circle69"/>
	<circle cx="286.964" cy="543.908" r="4" fill="#0" id="circle70"/>
	<circle cx="290.216" cy="4" r="4" fill="#0" id="circle71"/>
	<circle cx="293.469" cy="677.259" r="4" fill="#0" id="circle72"/>
	<circle cx="296.721" cy="745.561" r="4" fill="#0" id="circle73"/>
	<circle cx="303.226" cy="573.18" r="4" fill="#0" id="circle74"/>
	<circle cx="309.731" cy="647.987" r="4" fill="#0" id="circle75"/>
	<circle cx="312.984" cy="436.577" r="4" fill="#0" id="circle76"/>
	<circle cx="312.984" cy="813.862" r="4" fill="#0" id="circle77"/>
	<circle cx="319.489" cy="543.908" r="4" fill="#0" id="circle78"/>
	<circle cx="322.741" cy="4" r="4" fill="#0" id="circle79"/>
	<circle cx="325.993" cy="677.259" r="4" fill="#0" id="circle80"/>
	<circle cx="329.246" cy="745.561" r="4" fill="#0" id="circle81"/>
	<circle cx="335.751" cy="573.18" r="4" fill="#0" id="circle82"/>
	<circle cx="342.256" cy="647.987" r="4" fill="#0" id="circle83"/>
	<circle cx="345.508" cy="436.577" r="4" fill="#0" id="circle84"/>
	<circle cx="345.508" cy="813.862" r="4" fill="#0" id="circle85"/>
	<circle cx="352.013" cy="543.908" r="4" fill="#0" id="circle86"/>
	<circle cx="355.266" cy="4" r="4" fill="#0" id="circle87"/>
	<circle cx="358.518" cy="677.259" r="4" fill="#0" id="circle88"/>
	<circle cx="361.77" cy="745.561" r="4" fill="#0" id="circle89"/>
	<circle cx="368.275" cy="573.18" r="4" fill="#0" id="circle90"/>
	<circle cx="374.78" cy="647.987" r="4" fill="#0" id="circle91"/>
	<circle cx="378.033" cy="436.577" r="4" fill="#0" id="circle92"/>
	<circle cx="378.033" cy="813.862" r="4" fill="#0" id="circle93"/>
	<circle cx="384.538" cy="543.908" r="4" fill="#0" id="circle94"/>
	<circle cx="387.79" cy="4" r="4" fill="#0" id="circle95"/>
	<circle cx="391.043" cy="677.259" r="4" fill="#0" id="circle96"/>
	<circle cx="394.295" cy="745.561" r="4" fill="#0" id="circle97"/>
	<circle cx="400.8" cy="573.18" r="4" fill="#0" id="circle98"/>
	<circle cx="407.305" cy="647.987" r="4" fill="#0" id="circle99"/>
	<circle cx="410.557" cy="436.577" r="4" fill="#0" id="circle100"/>
	<circle cx="410.557" cy="813.862" r="4" fill="#0" id="circle101"/>
	<circle cx="417.062" cy="543.908" r="4" fill="#0" id="circle102"/>
	<circle cx="420.315" cy="4" r="4" fill="#0" id="circle103"/>
	<circle cx="423.567" cy="677.259" r="4" fill="#0" id="circle104"/>
	<circle cx="426.82" cy="465.849" r="4" fill="#0" id="circle105"/>
	<circle cx="426.82" cy="498.374" r="4" fill="#0" id="circle106"/>
	<circle cx="426.82" cy="592.695" r="4" fill="#0" id="circle107"/>
	<circle cx="426.82" cy="709.784" r="4" fill="#0" id="circle108"/>
	<circle cx="426.82" cy="742.308" r="4" fill="#0" id="circle109"/>
	<circle cx="443.082" cy="813.862" r="4" fill="#0" id="circle110"/>
	<circle cx="452.839" cy="4" r="4" fill="#0" id="circle111"/>
	<circle cx="475.607" cy="813.862" r="4" fill="#0" id="circle112"/>
	<circle cx="485.364" cy="4" r="4" fill="#0" id="circle113"/>
	<circle cx="508.131" cy="813.862" r="4" fill="#0" id="circle114"/>
	<circle cx="517.889" cy="4" r="4" fill="#0" id="circle115"/>
	<circle cx="540.656" cy="813.862" r="4" fill="#0" id="circle116"/>
	<circle cx="550.413" cy="4" r="4" fill="#0" id="circle117"/>
	<circle cx="573.18" cy="813.862" r="4" fill="#0" id="circle118"/>
	<circle cx="582.938" cy="4" r="4" fill="#0" id="circle119"/>
	<circle cx="605.705" cy="813.862" r="4" fill="#0" id="circle120"/>
	<circle cx="615.462" cy="4" r="4" fill="#0" id="circle121"/>
	<circle cx="618.715" cy="439.83" r="4" fill="#0" id="circle122"/>
	<circle cx="618.715" cy="472.354" r="4" fill="#0" id="circle123"/>
	<circle cx="618.715" cy="504.879" r="4" fill="#0" id="circle124"/>
	<circle cx="618.715" cy="537.403" r="4" fill="#0" id="circle125"/>
	<circle cx="618.715" cy="576.433" r="4" fill="#0" id="circle126"/>
	<circle cx="618.715" cy="608.957" r="4" fill="#0" id="circle127"/>
	<circle cx="618.715" cy="641.482" r="4" fill="#0" id="circle128"/>
	<circle cx="618.715" cy="680.511" r="4" fill="#0" id="circle129"/>
	<circle cx="618.715" cy="713.036" r="4" fill="#0" id="circle130"/>
	<circle cx="621.967" cy="745.561" r="4" fill="#0" id="circle131"/>
	<circle cx="638.23" cy="813.862" r="4" fill="#0" id="circle132"/>
	<circle cx="647.987" cy="4" r="4" fill="#0" id="circle133"/>
	<circle cx="651.239" cy="436.577" r="4" fill="#0" id="circle134"/>
	<circle cx="651.239" cy="543.908" r="4" fill="#0" id="circle135"/>
	<circle cx="651.239" cy="647.987" r="4" fill="#0" id="circle136"/>
	<circle cx="654.492" cy="745.561" r="4" fill="#0" id="circle137"/>
	<circle cx="667.502" cy="573.18" r="4" fill="#0" id="circle138"/>
	<circle cx="667.502" cy="677.259" r="4" fill="#0" id="circle139"/>
	<circle cx="670.754" cy="813.862" r="4" fill="#0" id="circle140"/>
	<circle cx="680.511" cy="4" r="4" fill="#0" id="circle141"/>
	<circle cx="683.764" cy="436.577" r="4" fill="#0" id="circle142"/>
	<circle cx="683.764" cy="543.908" r="4" fill="#0" id="circle143"/>
	<circle cx="683.764" cy="647.987" r="4" fill="#0" id="circle144"/>
	<circle cx="687.016" cy="745.561" r="4" fill="#0" id="circle145"/>
	<circle cx="700.026" cy="573.18" r="4" fill="#0" id="circle146"/>
	<circle cx="700.026" cy="677.259" r="4" fill="#0" id="circle147"/>
	<circle cx="703.279" cy="813.862" r="4" fill="#0" id="circle148"/>
	<circle cx="713.036" cy="4" r="4" fill="#0" id="circle149"/>
	<circle cx="716.289" cy="436.577" r="4" fill="#0" id="circle150"/>
	<circle cx="716.289" cy="543.908" r="4" fill="#0" id="circle151"/>
	<circle cx="716.289" cy="647.987" r="4" fill="#0" id="circle152"/>
	<circle cx="719.541" cy="745.561" r="4" fill="#0" id="circle153"/>
	<circle cx="732.551" cy="573.18" r="4" fill="#0" id="circle154"/>
	<circle cx="732.551" cy="677.259" r="4" fill="#0" id="circle155"/>
	<circle cx="735.803" cy="813.862" r="4" fill="#0" id="circle156"/>
	<circle cx="745.561" cy="4" r="4" fill="#0" id="circle157"/>
	<circle cx="748.813" cy="436.577" r="4" fill="#0" id="circle158"/>
	<circle cx="748.813" cy="543.908" r="4" fill="#0" id="circle159"/>
	<circle cx="748.813" cy="647.987" r="4" fill="#0" id="circle160"/>
	<circle cx="752.066" cy="745.561" r="4" fill="#0" id="circle161"/>
	<circle cx="765.075" cy="573.18" r="4" fill="#0" id="circle162"/>
	<circle cx="765.075" cy="677.259" r="4" fill="#0" id="circle163"/>
	<circle cx="768.328" cy="813.862" r="4" fill="#0" id="circle164"/>
	<circle cx="778.085" cy="4" r="4" fill="#0" id="circle165"/>
	<circle cx="781.338" cy="436.577" r="4" fill="#0" id="circle166"/>
	<circle cx="781.338" cy="543.908" r="4" fill="#0" id="circle167"/>
	<circle cx="781.338" cy="647.987" r="4" fill="#0" id="circle168"/>
	<circle cx="784.59" cy="745.561" r="4" fill="#0" id="circle169"/>
	<circle cx="797.6" cy="573.18" r="4" fill="#0" id="circle170"/>
	<circle cx="797.6" cy="677.259" r="4" fill="#0" id="circle171"/>
	<circle cx="800.852" cy="813.862" r="4" fill="#0" id="circle172"/>
	<circle cx="810.61" cy="4" r="4" fill="#0" id="circle173"/>
	<circle cx="813.862" cy="436.577" r="4" fill="#0" id="circle174"/>
	<circle cx="813.862" cy="543.908" r="4" fill="#0" id="circle175"/>
	<circle cx="813.862" cy="647.987" r="4" fill="#0" id="circle176"/>
	<circle cx="817.115" cy="745.561" r="4" fill="#0" id="circle177"/>
	<circle cx="830.125" cy="573.18" r="4" fill="#0" id="circle178"/>
	<circle cx="830.125" cy="677.259" r="4" fill="#0" id="circle179"/>
	<circle cx="833.377" cy="813.862" r="4" fill="#0" id="circle180"/>
	<circle cx="843.134" cy="4" r="4" fill="#0" id="circle181"/>
	<circle cx="846.387" cy="436.577" r="4" fill="#0" id="circle182"/>
	<circle cx="846.387" cy="543.908" r="4" fill="#0" id="circle183"/>
	<circle cx="846.387" cy="647.987" r="4" fill="#0" id="circle184"/>
	<circle cx="849.639" cy="745.561" r="4" fill="#0" id="circle185"/>
	<circle cx="862.649" cy="573.18" r="4" fill="#0" id="circle186"/>
	<circle cx="862.649" cy="677.259" r="4" fill="#0" id="circle187"/>
	<circle cx="865.902" cy="826.872" r="4" fill="#0" id="circle188"/>
	<circle cx="872.407" cy="20.2623" r="4" fill="#0" id="circle189"/>
	<circle cx="872.407" cy="52.7869" r="4" fill="#0" id="circle190"/>
	<circle cx="872.407" cy="85.3115" r="4" fill="#0" id="circle191"/>
	<circle cx="872.407" cy="117.836" r="4" fill="#0" id="circle192"/>
	<circle cx="872.407" cy="150.361" r="4" fill="#0" id="circle193"/>
	<circle cx="872.407" cy="182.885" r="4" fill="#0" id="circle194"/>
	<circle cx="872.407" cy="215.41" r="4" fill="#0" id="circle195"/>
	<circle cx="872.407" cy="247.934" r="4" fill="#0" id="circle196"/>
	<circle cx="872.407" cy="280.459" r="4" fill="#0" id="circle197"/>
	<circle cx="872.407" cy="312.984" r="4" fill="#0" id="circle198"/>
	<circle cx="872.407" cy="345.508" r="4" fill="#0" id="circle199"/>
	<circle cx="872.407" cy="378.033" r="4" fill="#0" id="circle200"/>
	<circle cx="872.407" cy="410.557" r="4" fill="#0" id="circle201"/>
	<circle cx="878.911" cy="543.908" r="4" fill="#0" id="circle202"/>
	<circle cx="878.911" cy="647.987" r="4" fill="#0" id="circle203"/>
	<circle cx="882.164" cy="745.561" r="4" fill="#0" id="circle204"/>
	<circle cx="895.174" cy="573.18" r="4" fill="#0" id="circle205"/>
	<circle cx="895.174" cy="677.259" r="4" fill="#0" id="circle206"/>
	<circle cx="898.426" cy="813.862" r="4" fill="#0" id="circle207"/>
	<circle cx="911.436" cy="647.987" r="4" fill="#0" id="circle208"/>
	<circle cx="914.689" cy="745.561" r="4" fill="#0" id="circle209"/>
	<circle cx="930.951" cy="813.862" r="4" fill="#0" id="circle210"/>
	<circle cx="947.213" cy="745.561" r="4" fill="#0" id="circle211"/>
	<circle cx="963.475" cy="813.862" r="4" fill="#0" id="circle212"/>
	<circle cx="979.738" cy="745.561" r="4" fill="#0" id="circle213"/>
	<circle cx="996" cy="774.833" r="4" fill="#0" id="circle214"/>
	<circle cx="996" cy="807.357" r="4" fill="#0" id="circle215"/>
	</g>
</svg>