<?xml version="1.0" encoding="UTF-8" standalone="no"?>
<!-- Created with CurveBenchmark -->
<svg
	xmlns:dc="http://purl.org/dc/elements/1.1/"
	xmlns:cc="http://creativecommons.org/ns#"
	xmlns:rdf="http://www.w3.org/1999/02/22-rdf-syntax-ns#"
	xmlns:svg="http://www.w3.org/2000/svg"
	xmlns="http://www.w3.org/2000/svg"
	xmlns:sodipodi="http://sodipodi.sourceforge.net/DTD/sodipodi-0.dtd"
	xmlns:inkscape="http://www.inkscape.org/namespaces/inkscape"
	width="1000"
	height="1000"
	id="svg2"
	version="1.1"
	sodipodi:docname="manifold/gathan1-fish0719.png.txt">
<defs
	id="defs4" />
<metadata
	id="metadata7">
	<rdf:RDF>
		<cc:Work
			rdf:about="">
			<dc:format>image/svg+xml</dc:format>
			<dc:type
				rdf:resource="http://purl.org/dc/dcmitype/StillImage" />
			<dc:title></dc:title>
		</cc:Work>
	</rdf:RDF>
</metadata>
<g
	inkscape:label="Layer 1"
	inkscape:groupmode="layer"
	id="layer1">
	<path style="fill:none;stroke:red;stroke-width:1px;stroke-linecap:butt;stroke-linejoin:miter;stroke-opacity:1" d="M 104.982,145.078 118.347,137.653 z" id="boundary" inkscape:connector-curvature="0" />
	<path style="fill:none;stroke:red;stroke-width:1px;stroke-linecap:butt;stroke-linejoin:miter;stroke-opacity:1" d="M 162.898,130.228 148.048,130.228 z" id="boundary" inkscape:connector-curvature="0" />
	<path style="fill:none;stroke:red;stroke-width:1px;stroke-linecap:butt;stroke-linejoin:miter;stroke-opacity:1" d="M 176.263,122.802 162.898,130.228 z" id="boundary" inkscape:connector-curvature="0" />
	<path style="fill:none;stroke:red;stroke-width:1px;stroke-linecap:butt;stroke-linejoin:miter;stroke-opacity:1" d="M 133.198,131.713 118.347,137.653 z" id="boundary" inkscape:connector-curvature="0" />
	<path style="fill:none;stroke:red;stroke-width:1px;stroke-linecap:butt;stroke-linejoin:miter;stroke-opacity:1" d="M 90.1317,145.078 75.2814,145.078 z" id="boundary" inkscape:connector-curvature="0" />
	<path style="fill:none;stroke:red;stroke-width:1px;stroke-linecap:butt;stroke-linejoin:miter;stroke-opacity:1" d="M 133.198,131.713 148.048,130.228 z" id="boundary" inkscape:connector-curvature="0" />
	<path style="fill:none;stroke:red;stroke-width:1px;stroke-linecap:butt;stroke-linejoin:miter;stroke-opacity:1" d="M 234.18,107.952 220.814,115.377 z" id="boundary" inkscape:connector-curvature="0" />
	<path style="fill:none;stroke:red;stroke-width:1px;stroke-linecap:butt;stroke-linejoin:miter;stroke-opacity:1" d="M 220.814,115.377 205.964,115.377 z" id="boundary" inkscape:connector-curvature="0" />
	<path style="fill:none;stroke:red;stroke-width:1px;stroke-linecap:butt;stroke-linejoin:miter;stroke-opacity:1" d="M 176.263,122.802 191.114,118.347 z" id="boundary" inkscape:connector-curvature="0" />
	<path style="fill:none;stroke:red;stroke-width:1px;stroke-linecap:butt;stroke-linejoin:miter;stroke-opacity:1" d="M 191.114,118.347 205.964,115.377 z" id="boundary" inkscape:connector-curvature="0" />
	<path style="fill:none;stroke:red;stroke-width:1px;stroke-linecap:butt;stroke-linejoin:miter;stroke-opacity:1" d="M 234.18,107.952 249.03,104.982 z" id="boundary" inkscape:connector-curvature="0" />
	<path style="fill:none;stroke:red;stroke-width:1px;stroke-linecap:butt;stroke-linejoin:miter;stroke-opacity:1" d="M 18.8503,167.353 32.2156,159.928 z" id="boundary" inkscape:connector-curvature="0" />
	<path style="fill:none;stroke:red;stroke-width:1px;stroke-linecap:butt;stroke-linejoin:miter;stroke-opacity:1" d="M 18.8503,167.353 4,171.808 z" id="boundary" inkscape:connector-curvature="0" />
	<path style="fill:none;stroke:red;stroke-width:1px;stroke-linecap:butt;stroke-linejoin:miter;stroke-opacity:1" d="M 18.8503,191.114 4,186.659 z" id="boundary" inkscape:connector-curvature="0" />
	<path style="fill:none;stroke:red;stroke-width:1px;stroke-linecap:butt;stroke-linejoin:miter;stroke-opacity:1" d="M 4,186.659 4,171.808 z" id="boundary" inkscape:connector-curvature="0" />
	<path style="fill:none;stroke:red;stroke-width:1px;stroke-linecap:butt;stroke-linejoin:miter;stroke-opacity:1" d="M 18.8503,191.114 32.2156,198.539 z" id="boundary" inkscape:connector-curvature="0" />
	<path style="fill:none;stroke:red;stroke-width:1px;stroke-linecap:butt;stroke-linejoin:miter;stroke-opacity:1" d="M 60.4311,205.964 47.0659,198.539 z" id="boundary" inkscape:connector-curvature="0" />
	<path style="fill:none;stroke:red;stroke-width:1px;stroke-linecap:butt;stroke-linejoin:miter;stroke-opacity:1" d="M 60.4311,152.503 75.2814,145.078 z" id="boundary" inkscape:connector-curvature="0" />
	<path style="fill:none;stroke:red;stroke-width:1px;stroke-linecap:butt;stroke-linejoin:miter;stroke-opacity:1" d="M 104.982,145.078 90.1317,145.078 z" id="boundary" inkscape:connector-curvature="0" />
	<path style="fill:none;stroke:red;stroke-width:1px;stroke-linecap:butt;stroke-linejoin:miter;stroke-opacity:1" d="M 47.0659,198.539 32.2156,198.539 z" id="boundary" inkscape:connector-curvature="0" />
	<path style="fill:none;stroke:red;stroke-width:1px;stroke-linecap:butt;stroke-linejoin:miter;stroke-opacity:1" d="M 32.2156,159.928 47.0659,159.928 z" id="boundary" inkscape:connector-curvature="0" />
	<path style="fill:none;stroke:red;stroke-width:1px;stroke-linecap:butt;stroke-linejoin:miter;stroke-opacity:1" d="M 47.0659,159.928 60.4311,152.503 z" id="boundary" inkscape:connector-curvature="0" />
	<path style="fill:none;stroke:red;stroke-width:1px;stroke-linecap:butt;stroke-linejoin:miter;stroke-opacity:1" d="M 361.892,29.2455 376.743,21.8204 z" id="boundary" inkscape:connector-curvature="0" />
	<path style="fill:none;stroke:red;stroke-width:1px;stroke-linecap:butt;stroke-linejoin:miter;stroke-opacity:1" d="M 388.623,11.4251 376.743,21.8204 z" id="boundary" inkscape:connector-curvature="0" />
	<path style="fill:none;stroke:red;stroke-width:1px;stroke-linecap:butt;stroke-linejoin:miter;stroke-opacity:1" d="M 344.072,55.976 350.012,41.1257 z" id="boundary" inkscape:connector-curvature="0" />
	<path style="fill:none;stroke:red;stroke-width:1px;stroke-linecap:butt;stroke-linejoin:miter;stroke-opacity:1" d="M 344.072,55.976 332.192,66.3713 z" id="boundary" inkscape:connector-curvature="0" />
	<path style="fill:none;stroke:red;stroke-width:1px;stroke-linecap:butt;stroke-linejoin:miter;stroke-opacity:1" d="M 350.012,41.1257 361.892,29.2455 z" id="boundary" inkscape:connector-curvature="0" />
	<path style="fill:none;stroke:red;stroke-width:1px;stroke-linecap:butt;stroke-linejoin:miter;stroke-opacity:1" d="M 406.443,18.8503 406.443,33.7006 z" id="boundary" inkscape:connector-curvature="0" />
	<path style="fill:none;stroke:red;stroke-width:1px;stroke-linecap:butt;stroke-linejoin:miter;stroke-opacity:1" d="M 406.443,33.7006 406.443,48.5509 z" id="boundary" inkscape:connector-curvature="0" />
	<path style="fill:none;stroke:red;stroke-width:1px;stroke-linecap:butt;stroke-linejoin:miter;stroke-opacity:1" d="M 406.443,63.4012 406.443,48.5509 z" id="boundary" inkscape:connector-curvature="0" />
	<path style="fill:none;stroke:red;stroke-width:1px;stroke-linecap:butt;stroke-linejoin:miter;stroke-opacity:1" d="M 401.988,4 406.443,18.8503 z" id="boundary" inkscape:connector-curvature="0" />
	<path style="fill:none;stroke:red;stroke-width:1px;stroke-linecap:butt;stroke-linejoin:miter;stroke-opacity:1" d="M 388.623,11.4251 401.988,4 z" id="boundary" inkscape:connector-curvature="0" />
	<path style="fill:none;stroke:red;stroke-width:1px;stroke-linecap:butt;stroke-linejoin:miter;stroke-opacity:1" d="M 406.443,63.4012 406.443,78.2515 z" id="boundary" inkscape:connector-curvature="0" />
	<path style="fill:none;stroke:red;stroke-width:1px;stroke-linecap:butt;stroke-linejoin:miter;stroke-opacity:1" d="M 292.096,93.1018 305.461,85.6766 z" id="boundary" inkscape:connector-curvature="0" />
	<path style="fill:none;stroke:red;stroke-width:1px;stroke-linecap:butt;stroke-linejoin:miter;stroke-opacity:1" d="M 249.03,104.982 263.88,100.527 z" id="boundary" inkscape:connector-curvature="0" />
	<path style="fill:none;stroke:red;stroke-width:1px;stroke-linecap:butt;stroke-linejoin:miter;stroke-opacity:1" d="M 263.88,100.527 278.731,100.527 z" id="boundary" inkscape:connector-curvature="0" />
	<path style="fill:none;stroke:red;stroke-width:1px;stroke-linecap:butt;stroke-linejoin:miter;stroke-opacity:1" d="M 292.096,93.1018 278.731,100.527 z" id="boundary" inkscape:connector-curvature="0" />
	<path style="fill:none;stroke:red;stroke-width:1px;stroke-linecap:butt;stroke-linejoin:miter;stroke-opacity:1" d="M 320.311,78.2515 332.192,66.3713 z" id="boundary" inkscape:connector-curvature="0" />
	<path style="fill:none;stroke:red;stroke-width:1px;stroke-linecap:butt;stroke-linejoin:miter;stroke-opacity:1" d="M 320.311,78.2515 305.461,85.6766 z" id="boundary" inkscape:connector-curvature="0" />
	<path style="fill:none;stroke:red;stroke-width:1px;stroke-linecap:butt;stroke-linejoin:miter;stroke-opacity:1" d="M 406.443,78.2515 413.868,91.6168 z" id="boundary" inkscape:connector-curvature="0" />
	<path style="fill:none;stroke:red;stroke-width:1px;stroke-linecap:butt;stroke-linejoin:miter;stroke-opacity:1" d="M 425.749,100.527 413.868,91.6168 z" id="boundary" inkscape:connector-curvature="0" />
	<path style="fill:none;stroke:red;stroke-width:1px;stroke-linecap:butt;stroke-linejoin:miter;stroke-opacity:1" d="M 439.114,107.952 425.749,100.527 z" id="boundary" inkscape:connector-curvature="0" />
	<path style="fill:none;stroke:red;stroke-width:1px;stroke-linecap:butt;stroke-linejoin:miter;stroke-opacity:1" d="M 73.7964,213.389 87.1617,220.814 z" id="boundary" inkscape:connector-curvature="0" />
	<path style="fill:none;stroke:red;stroke-width:1px;stroke-linecap:butt;stroke-linejoin:miter;stroke-opacity:1" d="M 115.377,228.24 100.527,228.24 z" id="boundary" inkscape:connector-curvature="0" />
	<path style="fill:none;stroke:red;stroke-width:1px;stroke-linecap:butt;stroke-linejoin:miter;stroke-opacity:1" d="M 100.527,228.24 87.1617,220.814 z" id="boundary" inkscape:connector-curvature="0" />
	<path style="fill:none;stroke:red;stroke-width:1px;stroke-linecap:butt;stroke-linejoin:miter;stroke-opacity:1" d="M 73.7964,213.389 60.4311,205.964 z" id="boundary" inkscape:connector-curvature="0" />
	<path style="fill:none;stroke:red;stroke-width:1px;stroke-linecap:butt;stroke-linejoin:miter;stroke-opacity:1" d="M 130.228,228.24 145.078,228.24 z" id="boundary" inkscape:connector-curvature="0" />
	<path style="fill:none;stroke:red;stroke-width:1px;stroke-linecap:butt;stroke-linejoin:miter;stroke-opacity:1" d="M 145.078,228.24 158.443,235.665 z" id="boundary" inkscape:connector-curvature="0" />
	<path style="fill:none;stroke:red;stroke-width:1px;stroke-linecap:butt;stroke-linejoin:miter;stroke-opacity:1" d="M 130.228,228.24 115.377,228.24 z" id="boundary" inkscape:connector-curvature="0" />
	<path style="fill:none;stroke:red;stroke-width:1px;stroke-linecap:butt;stroke-linejoin:miter;stroke-opacity:1" d="M 158.443,235.665 173.293,235.665 z" id="boundary" inkscape:connector-curvature="0" />
	<path style="fill:none;stroke:red;stroke-width:1px;stroke-linecap:butt;stroke-linejoin:miter;stroke-opacity:1" d="M 173.293,235.665 188.144,235.665 z" id="boundary" inkscape:connector-curvature="0" />
	<path style="fill:none;stroke:red;stroke-width:1px;stroke-linecap:butt;stroke-linejoin:miter;stroke-opacity:1" d="M 216.359,243.09 226.754,254.97 z" id="boundary" inkscape:connector-curvature="0" />
	<path style="fill:none;stroke:red;stroke-width:1px;stroke-linecap:butt;stroke-linejoin:miter;stroke-opacity:1" d="M 216.359,243.09 202.994,235.665 z" id="boundary" inkscape:connector-curvature="0" />
	<path style="fill:none;stroke:red;stroke-width:1px;stroke-linecap:butt;stroke-linejoin:miter;stroke-opacity:1" d="M 226.754,254.97 234.18,268.335 z" id="boundary" inkscape:connector-curvature="0" />
	<path style="fill:none;stroke:red;stroke-width:1px;stroke-linecap:butt;stroke-linejoin:miter;stroke-opacity:1" d="M 234.18,268.335 234.18,283.186 z" id="boundary" inkscape:connector-curvature="0" />
	<path style="fill:none;stroke:red;stroke-width:1px;stroke-linecap:butt;stroke-linejoin:miter;stroke-opacity:1" d="M 234.18,283.186 234.18,298.036 z" id="boundary" inkscape:connector-curvature="0" />
	<path style="fill:none;stroke:red;stroke-width:1px;stroke-linecap:butt;stroke-linejoin:miter;stroke-opacity:1" d="M 234.18,298.036 241.605,311.401 z" id="boundary" inkscape:connector-curvature="0" />
	<path style="fill:none;stroke:red;stroke-width:1px;stroke-linecap:butt;stroke-linejoin:miter;stroke-opacity:1" d="M 241.605,311.401 241.605,326.251 z" id="boundary" inkscape:connector-curvature="0" />
	<path style="fill:none;stroke:red;stroke-width:1px;stroke-linecap:butt;stroke-linejoin:miter;stroke-opacity:1" d="M 249.03,339.617 241.605,326.251 z" id="boundary" inkscape:connector-curvature="0" />
	<path style="fill:none;stroke:red;stroke-width:1px;stroke-linecap:butt;stroke-linejoin:miter;stroke-opacity:1" d="M 260.91,367.832 253.485,354.467 z" id="boundary" inkscape:connector-curvature="0" />
	<path style="fill:none;stroke:red;stroke-width:1px;stroke-linecap:butt;stroke-linejoin:miter;stroke-opacity:1" d="M 253.485,354.467 249.03,339.617 z" id="boundary" inkscape:connector-curvature="0" />
	<path style="fill:none;stroke:red;stroke-width:1px;stroke-linecap:butt;stroke-linejoin:miter;stroke-opacity:1" d="M 188.144,235.665 202.994,235.665 z" id="boundary" inkscape:connector-curvature="0" />
	<path style="fill:none;stroke:red;stroke-width:1px;stroke-linecap:butt;stroke-linejoin:miter;stroke-opacity:1" d="M 317.341,250.515 332.192,250.515 z" id="boundary" inkscape:connector-curvature="0" />
	<path style="fill:none;stroke:red;stroke-width:1px;stroke-linecap:butt;stroke-linejoin:miter;stroke-opacity:1" d="M 347.042,250.515 361.892,250.515 z" id="boundary" inkscape:connector-curvature="0" />
	<path style="fill:none;stroke:red;stroke-width:1px;stroke-linecap:butt;stroke-linejoin:miter;stroke-opacity:1" d="M 376.743,250.515 361.892,250.515 z" id="boundary" inkscape:connector-curvature="0" />
	<path style="fill:none;stroke:red;stroke-width:1px;stroke-linecap:butt;stroke-linejoin:miter;stroke-opacity:1" d="M 347.042,250.515 332.192,250.515 z" id="boundary" inkscape:connector-curvature="0" />
	<path style="fill:none;stroke:red;stroke-width:1px;stroke-linecap:butt;stroke-linejoin:miter;stroke-opacity:1" d="M 421.293,243.09 436.144,243.09 z" id="boundary" inkscape:connector-curvature="0" />
	<path style="fill:none;stroke:red;stroke-width:1px;stroke-linecap:butt;stroke-linejoin:miter;stroke-opacity:1" d="M 406.443,250.515 421.293,243.09 z" id="boundary" inkscape:connector-curvature="0" />
	<path style="fill:none;stroke:red;stroke-width:1px;stroke-linecap:butt;stroke-linejoin:miter;stroke-opacity:1" d="M 406.443,250.515 391.593,250.515 z" id="boundary" inkscape:connector-curvature="0" />
	<path style="fill:none;stroke:red;stroke-width:1px;stroke-linecap:butt;stroke-linejoin:miter;stroke-opacity:1" d="M 436.144,243.09 450.994,243.09 z" id="boundary" inkscape:connector-curvature="0" />
	<path style="fill:none;stroke:red;stroke-width:1px;stroke-linecap:butt;stroke-linejoin:miter;stroke-opacity:1" d="M 391.593,250.515 376.743,250.515 z" id="boundary" inkscape:connector-curvature="0" />
	<path style="fill:none;stroke:red;stroke-width:1px;stroke-linecap:butt;stroke-linejoin:miter;stroke-opacity:1" d="M 295.066,302.491 295.066,317.341 z" id="boundary" inkscape:connector-curvature="0" />
	<path style="fill:none;stroke:red;stroke-width:1px;stroke-linecap:butt;stroke-linejoin:miter;stroke-opacity:1" d="M 295.066,302.491 295.066,287.641 z" id="boundary" inkscape:connector-curvature="0" />
	<path style="fill:none;stroke:red;stroke-width:1px;stroke-linecap:butt;stroke-linejoin:miter;stroke-opacity:1" d="M 292.096,381.198 280.216,391.593 z" id="boundary" inkscape:connector-curvature="0" />
	<path style="fill:none;stroke:red;stroke-width:1px;stroke-linecap:butt;stroke-linejoin:miter;stroke-opacity:1" d="M 280.216,391.593 271.305,379.713 z" id="boundary" inkscape:connector-curvature="0" />
	<path style="fill:none;stroke:red;stroke-width:1px;stroke-linecap:butt;stroke-linejoin:miter;stroke-opacity:1" d="M 295.066,361.892 292.096,381.198 z" id="boundary" inkscape:connector-curvature="0" />
	<path style="fill:none;stroke:red;stroke-width:1px;stroke-linecap:butt;stroke-linejoin:miter;stroke-opacity:1" d="M 260.91,367.832 271.305,379.713 z" id="boundary" inkscape:connector-curvature="0" />
	<path style="fill:none;stroke:red;stroke-width:1px;stroke-linecap:butt;stroke-linejoin:miter;stroke-opacity:1" d="M 295.066,317.341 295.066,332.192 z" id="boundary" inkscape:connector-curvature="0" />
	<path style="fill:none;stroke:red;stroke-width:1px;stroke-linecap:butt;stroke-linejoin:miter;stroke-opacity:1" d="M 295.066,287.641 302.491,272.79 z" id="boundary" inkscape:connector-curvature="0" />
	<path style="fill:none;stroke:red;stroke-width:1px;stroke-linecap:butt;stroke-linejoin:miter;stroke-opacity:1" d="M 302.491,272.79 317.341,265.365 z" id="boundary" inkscape:connector-curvature="0" />
	<path style="fill:none;stroke:red;stroke-width:1px;stroke-linecap:butt;stroke-linejoin:miter;stroke-opacity:1" d="M 295.066,347.042 295.066,361.892 z" id="boundary" inkscape:connector-curvature="0" />
	<path style="fill:none;stroke:red;stroke-width:1px;stroke-linecap:butt;stroke-linejoin:miter;stroke-opacity:1" d="M 295.066,347.042 295.066,332.192 z" id="boundary" inkscape:connector-curvature="0" />
	<path style="fill:none;stroke:red;stroke-width:1px;stroke-linecap:butt;stroke-linejoin:miter;stroke-opacity:1" d="M 439.114,107.952 452.479,115.377 z" id="boundary" inkscape:connector-curvature="0" />
	<path style="fill:none;stroke:red;stroke-width:1px;stroke-linecap:butt;stroke-linejoin:miter;stroke-opacity:1" d="M 452.479,115.377 467.329,115.377 z" id="boundary" inkscape:connector-curvature="0" />
	<path style="fill:none;stroke:red;stroke-width:1px;stroke-linecap:butt;stroke-linejoin:miter;stroke-opacity:1" d="M 467.329,115.377 480.695,122.802 z" id="boundary" inkscape:connector-curvature="0" />
	<path style="fill:none;stroke:red;stroke-width:1px;stroke-linecap:butt;stroke-linejoin:miter;stroke-opacity:1" d="M 480.695,122.802 495.545,122.802 z" id="boundary" inkscape:connector-curvature="0" />
	<path style="fill:none;stroke:red;stroke-width:1px;stroke-linecap:butt;stroke-linejoin:miter;stroke-opacity:1" d="M 510.395,122.802 495.545,122.802 z" id="boundary" inkscape:connector-curvature="0" />
	<path style="fill:none;stroke:red;stroke-width:1px;stroke-linecap:butt;stroke-linejoin:miter;stroke-opacity:1" d="M 510.395,122.802 523.76,130.228 z" id="boundary" inkscape:connector-curvature="0" />
	<path style="fill:none;stroke:red;stroke-width:1px;stroke-linecap:butt;stroke-linejoin:miter;stroke-opacity:1" d="M 465.844,243.09 450.994,243.09 z" id="boundary" inkscape:connector-curvature="0" />
	<path style="fill:none;stroke:red;stroke-width:1px;stroke-linecap:butt;stroke-linejoin:miter;stroke-opacity:1" d="M 523.76,130.228 538.611,130.228 z" id="boundary" inkscape:connector-curvature="0" />
	<path style="fill:none;stroke:red;stroke-width:1px;stroke-linecap:butt;stroke-linejoin:miter;stroke-opacity:1" d="M 581.677,137.653 566.826,137.653 z" id="boundary" inkscape:connector-curvature="0" />
	<path style="fill:none;stroke:red;stroke-width:1px;stroke-linecap:butt;stroke-linejoin:miter;stroke-opacity:1" d="M 566.826,137.653 553.461,130.228 z" id="boundary" inkscape:connector-curvature="0" />
	<path style="fill:none;stroke:red;stroke-width:1px;stroke-linecap:butt;stroke-linejoin:miter;stroke-opacity:1" d="M 581.677,137.653 595.042,145.078 z" id="boundary" inkscape:connector-curvature="0" />
	<path style="fill:none;stroke:red;stroke-width:1px;stroke-linecap:butt;stroke-linejoin:miter;stroke-opacity:1" d="M 538.611,130.228 553.461,130.228 z" id="boundary" inkscape:connector-curvature="0" />
	<path style="fill:none;stroke:red;stroke-width:1px;stroke-linecap:butt;stroke-linejoin:miter;stroke-opacity:1" d="M 624.743,145.078 639.593,137.653 z" id="boundary" inkscape:connector-curvature="0" />
	<path style="fill:none;stroke:red;stroke-width:1px;stroke-linecap:butt;stroke-linejoin:miter;stroke-opacity:1" d="M 595.042,145.078 609.892,145.078 z" id="boundary" inkscape:connector-curvature="0" />
	<path style="fill:none;stroke:red;stroke-width:1px;stroke-linecap:butt;stroke-linejoin:miter;stroke-opacity:1" d="M 624.743,145.078 609.892,145.078 z" id="boundary" inkscape:connector-curvature="0" />
	<path style="fill:none;stroke:red;stroke-width:1px;stroke-linecap:butt;stroke-linejoin:miter;stroke-opacity:1" d="M 639.593,137.653 654.443,137.653 z" id="boundary" inkscape:connector-curvature="0" />
	<path style="fill:none;stroke:red;stroke-width:1px;stroke-linecap:butt;stroke-linejoin:miter;stroke-opacity:1" d="M 654.443,137.653 664.838,149.533 z" id="boundary" inkscape:connector-curvature="0" />
	<path style="fill:none;stroke:red;stroke-width:1px;stroke-linecap:butt;stroke-linejoin:miter;stroke-opacity:1" d="M 690.084,167.353 676.719,159.928 z" id="boundary" inkscape:connector-curvature="0" />
	<path style="fill:none;stroke:red;stroke-width:1px;stroke-linecap:butt;stroke-linejoin:miter;stroke-opacity:1" d="M 676.719,159.928 664.838,149.533 z" id="boundary" inkscape:connector-curvature="0" />
	<path style="fill:none;stroke:red;stroke-width:1px;stroke-linecap:butt;stroke-linejoin:miter;stroke-opacity:1" d="M 703.449,174.778 718.299,174.778 z" id="boundary" inkscape:connector-curvature="0" />
	<path style="fill:none;stroke:red;stroke-width:1px;stroke-linecap:butt;stroke-linejoin:miter;stroke-opacity:1" d="M 703.449,174.778 690.084,167.353 z" id="boundary" inkscape:connector-curvature="0" />
	<path style="fill:none;stroke:red;stroke-width:1px;stroke-linecap:butt;stroke-linejoin:miter;stroke-opacity:1" d="M 733.15,174.778 718.299,174.778 z" id="boundary" inkscape:connector-curvature="0" />
	<path style="fill:none;stroke:red;stroke-width:1px;stroke-linecap:butt;stroke-linejoin:miter;stroke-opacity:1" d="M 847.497,145.078 862.347,145.078 z" id="boundary" inkscape:connector-curvature="0" />
	<path style="fill:none;stroke:red;stroke-width:1px;stroke-linecap:butt;stroke-linejoin:miter;stroke-opacity:1" d="M 834.132,152.503 847.497,145.078 z" id="boundary" inkscape:connector-curvature="0" />
	<path style="fill:none;stroke:red;stroke-width:1px;stroke-linecap:butt;stroke-linejoin:miter;stroke-opacity:1" d="M 877.198,145.078 892.048,145.078 z" id="boundary" inkscape:connector-curvature="0" />
	<path style="fill:none;stroke:red;stroke-width:1px;stroke-linecap:butt;stroke-linejoin:miter;stroke-opacity:1" d="M 877.198,145.078 862.347,145.078 z" id="boundary" inkscape:connector-curvature="0" />
	<path style="fill:none;stroke:red;stroke-width:1px;stroke-linecap:butt;stroke-linejoin:miter;stroke-opacity:1" d="M 892.048,145.078 906.898,145.078 z" id="boundary" inkscape:connector-curvature="0" />
	<path style="fill:none;stroke:red;stroke-width:1px;stroke-linecap:butt;stroke-linejoin:miter;stroke-opacity:1" d="M 921.749,145.078 936.599,145.078 z" id="boundary" inkscape:connector-curvature="0" />
	<path style="fill:none;stroke:red;stroke-width:1px;stroke-linecap:butt;stroke-linejoin:miter;stroke-opacity:1" d="M 921.749,145.078 906.898,145.078 z" id="boundary" inkscape:connector-curvature="0" />
	<path style="fill:none;stroke:red;stroke-width:1px;stroke-linecap:butt;stroke-linejoin:miter;stroke-opacity:1" d="M 951.449,145.078 966.299,145.078 z" id="boundary" inkscape:connector-curvature="0" />
	<path style="fill:none;stroke:red;stroke-width:1px;stroke-linecap:butt;stroke-linejoin:miter;stroke-opacity:1" d="M 951.449,145.078 936.599,145.078 z" id="boundary" inkscape:connector-curvature="0" />
	<path style="fill:none;stroke:red;stroke-width:1px;stroke-linecap:butt;stroke-linejoin:miter;stroke-opacity:1" d="M 966.299,145.078 981.15,145.078 z" id="boundary" inkscape:connector-curvature="0" />
	<path style="fill:none;stroke:red;stroke-width:1px;stroke-linecap:butt;stroke-linejoin:miter;stroke-opacity:1" d="M 776.216,164.383 791.066,159.928 z" id="boundary" inkscape:connector-curvature="0" />
	<path style="fill:none;stroke:red;stroke-width:1px;stroke-linecap:butt;stroke-linejoin:miter;stroke-opacity:1" d="M 805.916,159.928 791.066,159.928 z" id="boundary" inkscape:connector-curvature="0" />
	<path style="fill:none;stroke:red;stroke-width:1px;stroke-linecap:butt;stroke-linejoin:miter;stroke-opacity:1" d="M 819.281,152.503 805.916,159.928 z" id="boundary" inkscape:connector-curvature="0" />
	<path style="fill:none;stroke:red;stroke-width:1px;stroke-linecap:butt;stroke-linejoin:miter;stroke-opacity:1" d="M 748,174.778 761.365,167.353 z" id="boundary" inkscape:connector-curvature="0" />
	<path style="fill:none;stroke:red;stroke-width:1px;stroke-linecap:butt;stroke-linejoin:miter;stroke-opacity:1" d="M 748,174.778 733.15,174.778 z" id="boundary" inkscape:connector-curvature="0" />
	<path style="fill:none;stroke:red;stroke-width:1px;stroke-linecap:butt;stroke-linejoin:miter;stroke-opacity:1" d="M 776.216,164.383 761.365,167.353 z" id="boundary" inkscape:connector-curvature="0" />
	<path style="fill:none;stroke:red;stroke-width:1px;stroke-linecap:butt;stroke-linejoin:miter;stroke-opacity:1" d="M 834.132,152.503 819.281,152.503 z" id="boundary" inkscape:connector-curvature="0" />
	<path style="fill:none;stroke:red;stroke-width:1px;stroke-linecap:butt;stroke-linejoin:miter;stroke-opacity:1" d="M 981.15,145.078 996,145.078 z" id="boundary" inkscape:connector-curvature="0" />
	<path style="fill:none;stroke:red;stroke-width:1px;stroke-linecap:butt;stroke-linejoin:miter;stroke-opacity:1" d="M 996,145.078 991.545,164.383 z" id="boundary" inkscape:connector-curvature="0" />
	<path style="fill:none;stroke:red;stroke-width:1px;stroke-linecap:butt;stroke-linejoin:miter;stroke-opacity:1" d="M 952.934,176.263 938.084,176.263 z" id="boundary" inkscape:connector-curvature="0" />
	<path style="fill:none;stroke:red;stroke-width:1px;stroke-linecap:butt;stroke-linejoin:miter;stroke-opacity:1" d="M 991.545,164.383 979.665,176.263 z" id="boundary" inkscape:connector-curvature="0" />
	<path style="fill:none;stroke:red;stroke-width:1px;stroke-linecap:butt;stroke-linejoin:miter;stroke-opacity:1" d="M 952.934,176.263 966.299,183.689 z" id="boundary" inkscape:connector-curvature="0" />
	<path style="fill:none;stroke:red;stroke-width:1px;stroke-linecap:butt;stroke-linejoin:miter;stroke-opacity:1" d="M 938.084,176.263 923.234,180.719 z" id="boundary" inkscape:connector-curvature="0" />
	<path style="fill:none;stroke:red;stroke-width:1px;stroke-linecap:butt;stroke-linejoin:miter;stroke-opacity:1" d="M 577.222,228.24 592.072,228.24 z" id="boundary" inkscape:connector-curvature="0" />
	<path style="fill:none;stroke:red;stroke-width:1px;stroke-linecap:butt;stroke-linejoin:miter;stroke-opacity:1" d="M 566.826,240.12 577.222,228.24 z" id="boundary" inkscape:connector-curvature="0" />
	<path style="fill:none;stroke:red;stroke-width:1px;stroke-linecap:butt;stroke-linejoin:miter;stroke-opacity:1" d="M 480.695,243.09 465.844,243.09 z" id="boundary" inkscape:connector-curvature="0" />
	<path style="fill:none;stroke:red;stroke-width:1px;stroke-linecap:butt;stroke-linejoin:miter;stroke-opacity:1" d="M 592.072,228.24 605.437,235.665 z" id="boundary" inkscape:connector-curvature="0" />
	<path style="fill:none;stroke:red;stroke-width:1px;stroke-linecap:butt;stroke-linejoin:miter;stroke-opacity:1" d="M 559.401,254.97 566.826,240.12 z" id="boundary" inkscape:connector-curvature="0" />
	<path style="fill:none;stroke:red;stroke-width:1px;stroke-linecap:butt;stroke-linejoin:miter;stroke-opacity:1" d="M 620.287,235.665 605.437,235.665 z" id="boundary" inkscape:connector-curvature="0" />
	<path style="fill:none;stroke:red;stroke-width:1px;stroke-linecap:butt;stroke-linejoin:miter;stroke-opacity:1" d="M 693.054,228.24 707.904,228.24 z" id="boundary" inkscape:connector-curvature="0" />
	<path style="fill:none;stroke:red;stroke-width:1px;stroke-linecap:butt;stroke-linejoin:miter;stroke-opacity:1" d="M 707.904,228.24 718.299,240.12 z" id="boundary" inkscape:connector-curvature="0" />
	<path style="fill:none;stroke:red;stroke-width:1px;stroke-linecap:butt;stroke-linejoin:miter;stroke-opacity:1" d="M 678.204,232.695 666.323,243.09 z" id="boundary" inkscape:connector-curvature="0" />
	<path style="fill:none;stroke:red;stroke-width:1px;stroke-linecap:butt;stroke-linejoin:miter;stroke-opacity:1" d="M 678.204,232.695 693.054,228.24 z" id="boundary" inkscape:connector-curvature="0" />
	<path style="fill:none;stroke:red;stroke-width:1px;stroke-linecap:butt;stroke-linejoin:miter;stroke-opacity:1" d="M 620.287,235.665 629.198,247.545 z" id="boundary" inkscape:connector-curvature="0" />
	<path style="fill:none;stroke:red;stroke-width:1px;stroke-linecap:butt;stroke-linejoin:miter;stroke-opacity:1" d="M 480.695,243.09 495.545,246.06 z" id="boundary" inkscape:connector-curvature="0" />
	<path style="fill:none;stroke:red;stroke-width:1px;stroke-linecap:butt;stroke-linejoin:miter;stroke-opacity:1" d="M 495.545,246.06 505.94,257.94 z" id="boundary" inkscape:connector-curvature="0" />
	<path style="fill:none;stroke:red;stroke-width:1px;stroke-linecap:butt;stroke-linejoin:miter;stroke-opacity:1" d="M 547.521,265.365 532.671,272.79 z" id="boundary" inkscape:connector-curvature="0" />
	<path style="fill:none;stroke:red;stroke-width:1px;stroke-linecap:butt;stroke-linejoin:miter;stroke-opacity:1" d="M 532.671,272.79 517.82,268.335 z" id="boundary" inkscape:connector-curvature="0" />
	<path style="fill:none;stroke:red;stroke-width:1px;stroke-linecap:butt;stroke-linejoin:miter;stroke-opacity:1" d="M 517.82,268.335 505.94,257.94 z" id="boundary" inkscape:connector-curvature="0" />
	<path style="fill:none;stroke:red;stroke-width:1px;stroke-linecap:butt;stroke-linejoin:miter;stroke-opacity:1" d="M 641.078,257.94 629.198,247.545 z" id="boundary" inkscape:connector-curvature="0" />
	<path style="fill:none;stroke:red;stroke-width:1px;stroke-linecap:butt;stroke-linejoin:miter;stroke-opacity:1" d="M 547.521,265.365 559.401,254.97 z" id="boundary" inkscape:connector-curvature="0" />
	<path style="fill:none;stroke:red;stroke-width:1px;stroke-linecap:butt;stroke-linejoin:miter;stroke-opacity:1" d="M 655.928,257.94 641.078,257.94 z" id="boundary" inkscape:connector-curvature="0" />
	<path style="fill:none;stroke:red;stroke-width:1px;stroke-linecap:butt;stroke-linejoin:miter;stroke-opacity:1" d="M 666.323,243.09 655.928,257.94 z" id="boundary" inkscape:connector-curvature="0" />
	<path style="fill:none;stroke:red;stroke-width:1px;stroke-linecap:butt;stroke-linejoin:miter;stroke-opacity:1" d="M 718.299,240.12 730.18,250.515 z" id="boundary" inkscape:connector-curvature="0" />
	<path style="fill:none;stroke:red;stroke-width:1px;stroke-linecap:butt;stroke-linejoin:miter;stroke-opacity:1" d="M 863.832,202.994 851.952,213.389 z" id="boundary" inkscape:connector-curvature="0" />
	<path style="fill:none;stroke:red;stroke-width:1px;stroke-linecap:butt;stroke-linejoin:miter;stroke-opacity:1" d="M 851.952,213.389 837.102,213.389 z" id="boundary" inkscape:connector-curvature="0" />
	<path style="fill:none;stroke:red;stroke-width:1px;stroke-linecap:butt;stroke-linejoin:miter;stroke-opacity:1" d="M 807.401,228.24 822.251,220.814 z" id="boundary" inkscape:connector-curvature="0" />
	<path style="fill:none;stroke:red;stroke-width:1px;stroke-linecap:butt;stroke-linejoin:miter;stroke-opacity:1" d="M 822.251,220.814 837.102,213.389 z" id="boundary" inkscape:connector-curvature="0" />
	<path style="fill:none;stroke:red;stroke-width:1px;stroke-linecap:butt;stroke-linejoin:miter;stroke-opacity:1" d="M 863.832,202.994 878.683,195.569 z" id="boundary" inkscape:connector-curvature="0" />
	<path style="fill:none;stroke:red;stroke-width:1px;stroke-linecap:butt;stroke-linejoin:miter;stroke-opacity:1" d="M 807.401,228.24 799.976,243.09 z" id="boundary" inkscape:connector-curvature="0" />
	<path style="fill:none;stroke:red;stroke-width:1px;stroke-linecap:butt;stroke-linejoin:miter;stroke-opacity:1" d="M 979.665,176.263 966.299,183.689 z" id="boundary" inkscape:connector-curvature="0" />
	<path style="fill:none;stroke:red;stroke-width:1px;stroke-linecap:butt;stroke-linejoin:miter;stroke-opacity:1" d="M 908.383,188.144 923.234,180.719 z" id="boundary" inkscape:connector-curvature="0" />
	<path style="fill:none;stroke:red;stroke-width:1px;stroke-linecap:butt;stroke-linejoin:miter;stroke-opacity:1" d="M 893.533,191.114 908.383,188.144 z" id="boundary" inkscape:connector-curvature="0" />
	<path style="fill:none;stroke:red;stroke-width:1px;stroke-linecap:butt;stroke-linejoin:miter;stroke-opacity:1" d="M 893.533,191.114 878.683,195.569 z" id="boundary" inkscape:connector-curvature="0" />
	<path style="fill:none;stroke:red;stroke-width:1px;stroke-linecap:butt;stroke-linejoin:miter;stroke-opacity:1" d="M 730.18,250.515 739.09,262.395 z" id="boundary" inkscape:connector-curvature="0" />
	<path style="fill:none;stroke:red;stroke-width:1px;stroke-linecap:butt;stroke-linejoin:miter;stroke-opacity:1" d="M 750.97,272.79 739.09,262.395 z" id="boundary" inkscape:connector-curvature="0" />
	<path style="fill:none;stroke:red;stroke-width:1px;stroke-linecap:butt;stroke-linejoin:miter;stroke-opacity:1" d="M 776.216,290.611 762.85,283.186 z" id="boundary" inkscape:connector-curvature="0" />
	<path style="fill:none;stroke:red;stroke-width:1px;stroke-linecap:butt;stroke-linejoin:miter;stroke-opacity:1" d="M 762.85,283.186 750.97,272.79 z" id="boundary" inkscape:connector-curvature="0" />
	<path style="fill:none;stroke:red;stroke-width:1px;stroke-linecap:butt;stroke-linejoin:miter;stroke-opacity:1" d="M 802.946,257.94 799.976,243.09 z" id="boundary" inkscape:connector-curvature="0" />
	<path style="fill:none;stroke:red;stroke-width:1px;stroke-linecap:butt;stroke-linejoin:miter;stroke-opacity:1" d="M 810.371,271.305 802.946,257.94 z" id="boundary" inkscape:connector-curvature="0" />
	<path style="fill:none;stroke:red;stroke-width:1px;stroke-linecap:butt;stroke-linejoin:miter;stroke-opacity:1" d="M 791.066,295.066 776.216,290.611 z" id="boundary" inkscape:connector-curvature="0" />
	<path style="fill:none;stroke:red;stroke-width:1px;stroke-linecap:butt;stroke-linejoin:miter;stroke-opacity:1" d="M 814.826,286.156 804.431,302.491 z" id="boundary" inkscape:connector-curvature="0" />
	<path style="fill:none;stroke:red;stroke-width:1px;stroke-linecap:butt;stroke-linejoin:miter;stroke-opacity:1" d="M 804.431,302.491 791.066,295.066 z" id="boundary" inkscape:connector-curvature="0" />
	<path style="fill:none;stroke:red;stroke-width:1px;stroke-linecap:butt;stroke-linejoin:miter;stroke-opacity:1" d="M 810.371,271.305 814.826,286.156 z" id="boundary" inkscape:connector-curvature="0" />
	<circle cx="4" cy="171.808" r="4" fill="#0" id="circle0"/>
	<circle cx="4" cy="186.659" r="4" fill="#0" id="circle1"/>
	<circle cx="18.8503" cy="167.353" r="4" fill="#0" id="circle2"/>
	<circle cx="18.8503" cy="191.114" r="4" fill="#0" id="circle3"/>
	<circle cx="32.2156" cy="159.928" r="4" fill="#0" id="circle4"/>
	<circle cx="32.2156" cy="198.539" r="4" fill="#0" id="circle5"/>
	<circle cx="47.0659" cy="159.928" r="4" fill="#0" id="circle6"/>
	<circle cx="47.0659" cy="198.539" r="4" fill="#0" id="circle7"/>
	<circle cx="60.4311" cy="152.503" r="4" fill="#0" id="circle8"/>
	<circle cx="60.4311" cy="205.964" r="4" fill="#0" id="circle9"/>
	<circle cx="73.7964" cy="213.389" r="4" fill="#0" id="circle10"/>
	<circle cx="75.2814" cy="145.078" r="4" fill="#0" id="circle11"/>
	<circle cx="87.1617" cy="220.814" r="4" fill="#0" id="circle12"/>
	<circle cx="90.1317" cy="145.078" r="4" fill="#0" id="circle13"/>
	<circle cx="100.527" cy="228.24" r="4" fill="#0" id="circle14"/>
	<circle cx="104.982" cy="145.078" r="4" fill="#0" id="circle15"/>
	<circle cx="115.377" cy="228.24" r="4" fill="#0" id="circle16"/>
	<circle cx="118.347" cy="137.653" r="4" fill="#0" id="circle17"/>
	<circle cx="130.228" cy="228.24" r="4" fill="#0" id="circle18"/>
	<circle cx="133.198" cy="131.713" r="4" fill="#0" id="circle19"/>
	<circle cx="145.078" cy="228.24" r="4" fill="#0" id="circle20"/>
	<circle cx="148.048" cy="130.228" r="4" fill="#0" id="circle21"/>
	<circle cx="158.443" cy="235.665" r="4" fill="#0" id="circle22"/>
	<circle cx="162.898" cy="130.228" r="4" fill="#0" id="circle23"/>
	<circle cx="173.293" cy="235.665" r="4" fill="#0" id="circle24"/>
	<circle cx="176.263" cy="122.802" r="4" fill="#0" id="circle25"/>
	<circle cx="188.144" cy="235.665" r="4" fill="#0" id="circle26"/>
	<circle cx="191.114" cy="118.347" r="4" fill="#0" id="circle27"/>
	<circle cx="202.994" cy="235.665" r="4" fill="#0" id="circle28"/>
	<circle cx="205.964" cy="115.377" r="4" fill="#0" id="circle29"/>
	<circle cx="216.359" cy="243.09" r="4" fill="#0" id="circle30"/>
	<circle cx="220.814" cy="115.377" r="4" fill="#0" id="circle31"/>
	<circle cx="226.754" cy="254.97" r="4" fill="#0" id="circle32"/>
	<circle cx="234.18" cy="107.952" r="4" fill="#0" id="circle33"/>
	<circle cx="234.18" cy="268.335" r="4" fill="#0" id="circle34"/>
	<circle cx="234.18" cy="283.186" r="4" fill="#0" id="circle35"/>
	<circle cx="234.18" cy="298.036" r="4" fill="#0" id="circle36"/>
	<circle cx="241.605" cy="311.401" r="4" fill="#0" id="circle37"/>
	<circle cx="241.605" cy="326.251" r="4" fill="#0" id="circle38"/>
	<circle cx="249.03" cy="104.982" r="4" fill="#0" id="circle39"/>
	<circle cx="249.03" cy="339.617" r="4" fill="#0" id="circle40"/>
	<circle cx="253.485" cy="354.467" r="4" fill="#0" id="circle41"/>
	<circle cx="260.91" cy="367.832" r="4" fill="#0" id="circle42"/>
	<circle cx="263.88" cy="100.527" r="4" fill="#0" id="circle43"/>
	<circle cx="271.305" cy="379.713" r="4" fill="#0" id="circle44"/>
	<circle cx="278.731" cy="100.527" r="4" fill="#0" id="circle45"/>
	<circle cx="280.216" cy="391.593" r="4" fill="#0" id="circle46"/>
	<circle cx="292.096" cy="93.1018" r="4" fill="#0" id="circle47"/>
	<circle cx="292.096" cy="381.198" r="4" fill="#0" id="circle48"/>
	<circle cx="295.066" cy="287.641" r="4" fill="#0" id="circle49"/>
	<circle cx="295.066" cy="302.491" r="4" fill="#0" id="circle50"/>
	<circle cx="295.066" cy="317.341" r="4" fill="#0" id="circle51"/>
	<circle cx="295.066" cy="332.192" r="4" fill="#0" id="circle52"/>
	<circle cx="295.066" cy="347.042" r="4" fill="#0" id="circle53"/>
	<circle cx="295.066" cy="361.892" r="4" fill="#0" id="circle54"/>
	<circle cx="302.491" cy="272.79" r="4" fill="#0" id="circle55"/>
	<circle cx="305.461" cy="85.6766" r="4" fill="#0" id="circle56"/>
	<circle cx="317.341" cy="250.515" r="4" fill="#0" id="circle57"/>
	<circle cx="317.341" cy="265.365" r="4" fill="#0" id="circle58"/>
	<circle cx="320.311" cy="78.2515" r="4" fill="#0" id="circle59"/>
	<circle cx="332.192" cy="66.3713" r="4" fill="#0" id="circle60"/>
	<circle cx="332.192" cy="250.515" r="4" fill="#0" id="circle61"/>
	<circle cx="344.072" cy="55.976" r="4" fill="#0" id="circle62"/>
	<circle cx="347.042" cy="250.515" r="4" fill="#0" id="circle63"/>
	<circle cx="350.012" cy="41.1257" r="4" fill="#0" id="circle64"/>
	<circle cx="361.892" cy="29.2455" r="4" fill="#0" id="circle65"/>
	<circle cx="361.892" cy="250.515" r="4" fill="#0" id="circle66"/>
	<circle cx="376.743" cy="21.8204" r="4" fill="#0" id="circle67"/>
	<circle cx="376.743" cy="250.515" r="4" fill="#0" id="circle68"/>
	<circle cx="388.623" cy="11.4251" r="4" fill="#0" id="circle69"/>
	<circle cx="391.593" cy="250.515" r="4" fill="#0" id="circle70"/>
	<circle cx="401.988" cy="4" r="4" fill="#0" id="circle71"/>
	<circle cx="406.443" cy="18.8503" r="4" fill="#0" id="circle72"/>
	<circle cx="406.443" cy="33.7006" r="4" fill="#0" id="circle73"/>
	<circle cx="406.443" cy="48.5509" r="4" fill="#0" id="circle74"/>
	<circle cx="406.443" cy="63.4012" r="4" fill="#0" id="circle75"/>
	<circle cx="406.443" cy="78.2515" r="4" fill="#0" id="circle76"/>
	<circle cx="406.443" cy="250.515" r="4" fill="#0" id="circle77"/>
	<circle cx="413.868" cy="91.6168" r="4" fill="#0" id="circle78"/>
	<circle cx="421.293" cy="243.09" r="4" fill="#0" id="circle79"/>
	<circle cx="425.749" cy="100.527" r="4" fill="#0" id="circle80"/>
	<circle cx="436.144" cy="243.09" r="4" fill="#0" id="circle81"/>
	<circle cx="439.114" cy="107.952" r="4" fill="#0" id="circle82"/>
	<circle cx="450.994" cy="243.09" r="4" fill="#0" id="circle83"/>
	<circle cx="452.479" cy="115.377" r="4" fill="#0" id="circle84"/>
	<circle cx="465.844" cy="243.09" r="4" fill="#0" id="circle85"/>
	<circle cx="467.329" cy="115.377" r="4" fill="#0" id="circle86"/>
	<circle cx="480.695" cy="122.802" r="4" fill="#0" id="circle87"/>
	<circle cx="480.695" cy="243.09" r="4" fill="#0" id="circle88"/>
	<circle cx="495.545" cy="122.802" r="4" fill="#0" id="circle89"/>
	<circle cx="495.545" cy="246.06" r="4" fill="#0" id="circle90"/>
	<circle cx="505.94" cy="257.94" r="4" fill="#0" id="circle91"/>
	<circle cx="510.395" cy="122.802" r="4" fill="#0" id="circle92"/>
	<circle cx="517.82" cy="268.335" r="4" fill="#0" id="circle93"/>
	<circle cx="523.76" cy="130.228" r="4" fill="#0" id="circle94"/>
	<circle cx="532.671" cy="272.79" r="4" fill="#0" id="circle95"/>
	<circle cx="538.611" cy="130.228" r="4" fill="#0" id="circle96"/>
	<circle cx="547.521" cy="265.365" r="4" fill="#0" id="circle97"/>
	<circle cx="553.461" cy="130.228" r="4" fill="#0" id="circle98"/>
	<circle cx="559.401" cy="254.97" r="4" fill="#0" id="circle99"/>
	<circle cx="566.826" cy="137.653" r="4" fill="#0" id="circle100"/>
	<circle cx="566.826" cy="240.12" r="4" fill="#0" id="circle101"/>
	<circle cx="577.222" cy="228.24" r="4" fill="#0" id="circle102"/>
	<circle cx="581.677" cy="137.653" r="4" fill="#0" id="circle103"/>
	<circle cx="592.072" cy="228.24" r="4" fill="#0" id="circle104"/>
	<circle cx="595.042" cy="145.078" r="4" fill="#0" id="circle105"/>
	<circle cx="605.437" cy="235.665" r="4" fill="#0" id="circle106"/>
	<circle cx="609.892" cy="145.078" r="4" fill="#0" id="circle107"/>
	<circle cx="620.287" cy="235.665" r="4" fill="#0" id="circle108"/>
	<circle cx="624.743" cy="145.078" r="4" fill="#0" id="circle109"/>
	<circle cx="629.198" cy="247.545" r="4" fill="#0" id="circle110"/>
	<circle cx="639.593" cy="137.653" r="4" fill="#0" id="circle111"/>
	<circle cx="641.078" cy="257.94" r="4" fill="#0" id="circle112"/>
	<circle cx="654.443" cy="137.653" r="4" fill="#0" id="circle113"/>
	<circle cx="655.928" cy="257.94" r="4" fill="#0" id="circle114"/>
	<circle cx="664.838" cy="149.533" r="4" fill="#0" id="circle115"/>
	<circle cx="666.323" cy="243.09" r="4" fill="#0" id="circle116"/>
	<circle cx="676.719" cy="159.928" r="4" fill="#0" id="circle117"/>
	<circle cx="678.204" cy="232.695" r="4" fill="#0" id="circle118"/>
	<circle cx="690.084" cy="167.353" r="4" fill="#0" id="circle119"/>
	<circle cx="693.054" cy="228.24" r="4" fill="#0" id="circle120"/>
	<circle cx="703.449" cy="174.778" r="4" fill="#0" id="circle121"/>
	<circle cx="707.904" cy="228.24" r="4" fill="#0" id="circle122"/>
	<circle cx="718.299" cy="174.778" r="4" fill="#0" id="circle123"/>
	<circle cx="718.299" cy="240.12" r="4" fill="#0" id="circle124"/>
	<circle cx="730.18" cy="250.515" r="4" fill="#0" id="circle125"/>
	<circle cx="733.15" cy="174.778" r="4" fill="#0" id="circle126"/>
	<circle cx="739.09" cy="262.395" r="4" fill="#0" id="circle127"/>
	<circle cx="748" cy="174.778" r="4" fill="#0" id="circle128"/>
	<circle cx="750.97" cy="272.79" r="4" fill="#0" id="circle129"/>
	<circle cx="761.365" cy="167.353" r="4" fill="#0" id="circle130"/>
	<circle cx="762.85" cy="283.186" r="4" fill="#0" id="circle131"/>
	<circle cx="776.216" cy="164.383" r="4" fill="#0" id="circle132"/>
	<circle cx="776.216" cy="290.611" r="4" fill="#0" id="circle133"/>
	<circle cx="791.066" cy="159.928" r="4" fill="#0" id="circle134"/>
	<circle cx="791.066" cy="295.066" r="4" fill="#0" id="circle135"/>
	<circle cx="799.976" cy="243.09" r="4" fill="#0" id="circle136"/>
	<circle cx="802.946" cy="257.94" r="4" fill="#0" id="circle137"/>
	<circle cx="804.431" cy="302.491" r="4" fill="#0" id="circle138"/>
	<circle cx="805.916" cy="159.928" r="4" fill="#0" id="circle139"/>
	<circle cx="807.401" cy="228.24" r="4" fill="#0" id="circle140"/>
	<circle cx="810.371" cy="271.305" r="4" fill="#0" id="circle141"/>
	<circle cx="814.826" cy="286.156" r="4" fill="#0" id="circle142"/>
	<circle cx="819.281" cy="152.503" r="4" fill="#0" id="circle143"/>
	<circle cx="822.251" cy="220.814" r="4" fill="#0" id="circle144"/>
	<circle cx="834.132" cy="152.503" r="4" fill="#0" id="circle145"/>
	<circle cx="837.102" cy="213.389" r="4" fill="#0" id="circle146"/>
	<circle cx="847.497" cy="145.078" r="4" fill="#0" id="circle147"/>
	<circle cx="851.952" cy="213.389" r="4" fill="#0" id="circle148"/>
	<circle cx="862.347" cy="145.078" r="4" fill="#0" id="circle149"/>
	<circle cx="863.832" cy="202.994" r="4" fill="#0" id="circle150"/>
	<circle cx="877.198" cy="145.078" r="4" fill="#0" id="circle151"/>
	<circle cx="878.683" cy="195.569" r="4" fill="#0" id="circle152"/>
	<circle cx="892.048" cy="145.078" r="4" fill="#0" id="circle153"/>
	<circle cx="893.533" cy="191.114" r="4" fill="#0" id="circle154"/>
	<circle cx="906.898" cy="145.078" r="4" fill="#0" id="circle155"/>
	<circle cx="908.383" cy="188.144" r="4" fill="#0" id="circle156"/>
	<circle cx="921.749" cy="145.078" r="4" fill="#0" id="circle157"/>
	<circle cx="923.234" cy="180.719" r="4" fill="#0" id="circle158"/>
	<circle cx="936.599" cy="145.078" r="4" fill="#0" id="circle159"/>
	<circle cx="938.084" cy="176.263" r="4" fill="#0" id="circle160"/>
	<circle cx="951.449" cy="145.078" r="4" fill="#0" id="circle161"/>
	<circle cx="952.934" cy="176.263" r="4" fill="#0" id="circle162"/>
	<circle cx="966.299" cy="145.078" r="4" fill="#0" id="circle163"/>
	<circle cx="966.299" cy="183.689" r="4" fill="#0" id="circle164"/>
	<circle cx="979.665" cy="176.263" r="4" fill="#0" id="circle165"/>
	<circle cx="981.15" cy="145.078" r="4" fill="#0" id="circle166"/>
	<circle cx="991.545" cy="164.383" r="4" fill="#0" id="circle167"/>
	<circle cx="996" cy="145.078" r="4" fill="#0" id="circle168"/>
	</g>
</svg>