<?xml version="1.0" encoding="UTF-8" standalone="no"?>
<!-- Created with CurveBenchmark -->
<svg
	xmlns:dc="http://purl.org/dc/elements/1.1/"
	xmlns:cc="http://creativecommons.org/ns#"
	xmlns:rdf="http://www.w3.org/1999/02/22-rdf-syntax-ns#"
	xmlns:svg="http://www.w3.org/2000/svg"
	xmlns="http://www.w3.org/2000/svg"
	xmlns:sodipodi="http://sodipodi.sourceforge.net/DTD/sodipodi-0.dtd"
	xmlns:inkscape="http://www.inkscape.org/namespaces/inkscape"
	width="1000"
	height="1000"
	id="svg2"
	version="1.1"
	sodipodi:docname="manifold/gathang-children-11.png.txt">
<defs
	id="defs4" />
<metadata
	id="metadata7">
	<rdf:RDF>
		<cc:Work
			rdf:about="">
			<dc:format>image/svg+xml</dc:format>
			<dc:type
				rdf:resource="http://purl.org/dc/dcmitype/StillImage" />
			<dc:title></dc:title>
		</cc:Work>
	</rdf:RDF>
</metadata>
<g
	inkscape:label="Layer 1"
	inkscape:groupmode="layer"
	id="layer1">
	<path style="fill:none;stroke:red;stroke-width:1px;stroke-linecap:butt;stroke-linejoin:miter;stroke-opacity:1" d="M 21.9061,79.2058 21.9061,91.1432 z" id="boundary" inkscape:connector-curvature="0" />
	<path style="fill:none;stroke:red;stroke-width:1px;stroke-linecap:butt;stroke-linejoin:miter;stroke-opacity:1" d="M 21.9061,79.2058 27.8748,67.2684 z" id="boundary" inkscape:connector-curvature="0" />
	<path style="fill:none;stroke:red;stroke-width:1px;stroke-linecap:butt;stroke-linejoin:miter;stroke-opacity:1" d="M 21.9061,103.081 21.9061,91.1432 z" id="boundary" inkscape:connector-curvature="0" />
	<path style="fill:none;stroke:red;stroke-width:1px;stroke-linecap:butt;stroke-linejoin:miter;stroke-opacity:1" d="M 4,317.954 4,306.017 z" id="boundary" inkscape:connector-curvature="0" />
	<path style="fill:none;stroke:red;stroke-width:1px;stroke-linecap:butt;stroke-linejoin:miter;stroke-opacity:1" d="M 4,306.017 9.96871,294.079 z" id="boundary" inkscape:connector-curvature="0" />
	<path style="fill:none;stroke:red;stroke-width:1px;stroke-linecap:butt;stroke-linejoin:miter;stroke-opacity:1" d="M 15.9374,282.142 9.96871,294.079 z" id="boundary" inkscape:connector-curvature="0" />
	<path style="fill:none;stroke:red;stroke-width:1px;stroke-linecap:butt;stroke-linejoin:miter;stroke-opacity:1" d="M 21.9061,103.081 21.9061,115.018 z" id="boundary" inkscape:connector-curvature="0" />
	<path style="fill:none;stroke:red;stroke-width:1px;stroke-linecap:butt;stroke-linejoin:miter;stroke-opacity:1" d="M 27.8748,125.762 21.9061,115.018 z" id="boundary" inkscape:connector-curvature="0" />
	<path style="fill:none;stroke:red;stroke-width:1px;stroke-linecap:butt;stroke-linejoin:miter;stroke-opacity:1" d="M 33.8436,148.443 27.8748,137.699 z" id="boundary" inkscape:connector-curvature="0" />
	<path style="fill:none;stroke:red;stroke-width:1px;stroke-linecap:butt;stroke-linejoin:miter;stroke-opacity:1" d="M 27.8748,137.699 27.8748,125.762 z" id="boundary" inkscape:connector-curvature="0" />
	<path style="fill:none;stroke:red;stroke-width:1px;stroke-linecap:butt;stroke-linejoin:miter;stroke-opacity:1" d="M 31.4561,260.655 21.9061,270.205 z" id="boundary" inkscape:connector-curvature="0" />
	<path style="fill:none;stroke:red;stroke-width:1px;stroke-linecap:butt;stroke-linejoin:miter;stroke-opacity:1" d="M 21.9061,270.205 15.9374,282.142 z" id="boundary" inkscape:connector-curvature="0" />
	<path style="fill:none;stroke:red;stroke-width:1px;stroke-linecap:butt;stroke-linejoin:miter;stroke-opacity:1" d="M 15.9374,387.191 9.96871,376.448 z" id="boundary" inkscape:connector-curvature="0" />
	<path style="fill:none;stroke:red;stroke-width:1px;stroke-linecap:butt;stroke-linejoin:miter;stroke-opacity:1" d="M 9.96871,376.448 4,365.704 z" id="boundary" inkscape:connector-curvature="0" />
	<path style="fill:none;stroke:red;stroke-width:1px;stroke-linecap:butt;stroke-linejoin:miter;stroke-opacity:1" d="M 4,365.704 4,353.767 z" id="boundary" inkscape:connector-curvature="0" />
	<path style="fill:none;stroke:red;stroke-width:1px;stroke-linecap:butt;stroke-linejoin:miter;stroke-opacity:1" d="M 4,353.767 4,341.829 z" id="boundary" inkscape:connector-curvature="0" />
	<path style="fill:none;stroke:red;stroke-width:1px;stroke-linecap:butt;stroke-linejoin:miter;stroke-opacity:1" d="M 4,329.892 4,317.954 z" id="boundary" inkscape:connector-curvature="0" />
	<path style="fill:none;stroke:red;stroke-width:1px;stroke-linecap:butt;stroke-linejoin:miter;stroke-opacity:1" d="M 15.9374,387.191 15.9374,399.129 z" id="boundary" inkscape:connector-curvature="0" />
	<path style="fill:none;stroke:red;stroke-width:1px;stroke-linecap:butt;stroke-linejoin:miter;stroke-opacity:1" d="M 15.9374,411.066 15.9374,399.129 z" id="boundary" inkscape:connector-curvature="0" />
	<path style="fill:none;stroke:red;stroke-width:1px;stroke-linecap:butt;stroke-linejoin:miter;stroke-opacity:1" d="M 15.9374,423.004 15.9374,434.941 z" id="boundary" inkscape:connector-curvature="0" />
	<path style="fill:none;stroke:red;stroke-width:1px;stroke-linecap:butt;stroke-linejoin:miter;stroke-opacity:1" d="M 15.9374,446.878 15.9374,458.816 z" id="boundary" inkscape:connector-curvature="0" />
	<path style="fill:none;stroke:red;stroke-width:1px;stroke-linecap:butt;stroke-linejoin:miter;stroke-opacity:1" d="M 21.9061,469.56 15.9374,458.816 z" id="boundary" inkscape:connector-curvature="0" />
	<path style="fill:none;stroke:red;stroke-width:1px;stroke-linecap:butt;stroke-linejoin:miter;stroke-opacity:1" d="M 15.9374,446.878 15.9374,434.941 z" id="boundary" inkscape:connector-curvature="0" />
	<path style="fill:none;stroke:red;stroke-width:1px;stroke-linecap:butt;stroke-linejoin:miter;stroke-opacity:1" d="M 15.9374,411.066 15.9374,423.004 z" id="boundary" inkscape:connector-curvature="0" />
	<path style="fill:none;stroke:red;stroke-width:1px;stroke-linecap:butt;stroke-linejoin:miter;stroke-opacity:1" d="M 4,341.829 4,329.892 z" id="boundary" inkscape:connector-curvature="0" />
	<path style="fill:none;stroke:red;stroke-width:1px;stroke-linecap:butt;stroke-linejoin:miter;stroke-opacity:1" d="M 31.4561,260.655 42.1998,254.686 z" id="boundary" inkscape:connector-curvature="0" />
	<path style="fill:none;stroke:red;stroke-width:1px;stroke-linecap:butt;stroke-linejoin:miter;stroke-opacity:1" d="M 73.2371,21.9061 83.9807,15.9374 z" id="boundary" inkscape:connector-curvature="0" />
	<path style="fill:none;stroke:red;stroke-width:1px;stroke-linecap:butt;stroke-linejoin:miter;stroke-opacity:1" d="M 83.9807,15.9374 94.7244,9.96871 z" id="boundary" inkscape:connector-curvature="0" />
	<path style="fill:none;stroke:red;stroke-width:1px;stroke-linecap:butt;stroke-linejoin:miter;stroke-opacity:1" d="M 52.9434,36.231 62.4934,27.8748 z" id="boundary" inkscape:connector-curvature="0" />
	<path style="fill:none;stroke:red;stroke-width:1px;stroke-linecap:butt;stroke-linejoin:miter;stroke-opacity:1" d="M 62.4934,27.8748 73.2371,21.9061 z" id="boundary" inkscape:connector-curvature="0" />
	<path style="fill:none;stroke:red;stroke-width:1px;stroke-linecap:butt;stroke-linejoin:miter;stroke-opacity:1" d="M 94.7244,9.96871 105.468,4 z" id="boundary" inkscape:connector-curvature="0" />
	<path style="fill:none;stroke:red;stroke-width:1px;stroke-linecap:butt;stroke-linejoin:miter;stroke-opacity:1" d="M 105.468,4 117.406,4 z" id="boundary" inkscape:connector-curvature="0" />
	<path style="fill:none;stroke:red;stroke-width:1px;stroke-linecap:butt;stroke-linejoin:miter;stroke-opacity:1" d="M 129.343,4 141.28,4 z" id="boundary" inkscape:connector-curvature="0" />
	<path style="fill:none;stroke:red;stroke-width:1px;stroke-linecap:butt;stroke-linejoin:miter;stroke-opacity:1" d="M 153.218,4 165.155,4 z" id="boundary" inkscape:connector-curvature="0" />
	<path style="fill:none;stroke:red;stroke-width:1px;stroke-linecap:butt;stroke-linejoin:miter;stroke-opacity:1" d="M 165.155,4 177.093,6.38748 z" id="boundary" inkscape:connector-curvature="0" />
	<path style="fill:none;stroke:red;stroke-width:1px;stroke-linecap:butt;stroke-linejoin:miter;stroke-opacity:1" d="M 141.28,4 153.218,4 z" id="boundary" inkscape:connector-curvature="0" />
	<path style="fill:none;stroke:red;stroke-width:1px;stroke-linecap:butt;stroke-linejoin:miter;stroke-opacity:1" d="M 117.406,4 129.343,4 z" id="boundary" inkscape:connector-curvature="0" />
	<path style="fill:none;stroke:red;stroke-width:1px;stroke-linecap:butt;stroke-linejoin:miter;stroke-opacity:1" d="M 43.3935,45.781 52.9434,36.231 z" id="boundary" inkscape:connector-curvature="0" />
	<path style="fill:none;stroke:red;stroke-width:1px;stroke-linecap:butt;stroke-linejoin:miter;stroke-opacity:1" d="M 50.556,166.349 41.006,157.993 z" id="boundary" inkscape:connector-curvature="0" />
	<path style="fill:none;stroke:red;stroke-width:1px;stroke-linecap:butt;stroke-linejoin:miter;stroke-opacity:1" d="M 27.8748,67.2684 33.8436,55.3309 z" id="boundary" inkscape:connector-curvature="0" />
	<path style="fill:none;stroke:red;stroke-width:1px;stroke-linecap:butt;stroke-linejoin:miter;stroke-opacity:1" d="M 33.8436,55.3309 43.3935,45.781 z" id="boundary" inkscape:connector-curvature="0" />
	<path style="fill:none;stroke:red;stroke-width:1px;stroke-linecap:butt;stroke-linejoin:miter;stroke-opacity:1" d="M 41.006,157.993 33.8436,148.443 z" id="boundary" inkscape:connector-curvature="0" />
	<path style="fill:none;stroke:red;stroke-width:1px;stroke-linecap:butt;stroke-linejoin:miter;stroke-opacity:1" d="M 51.7497,246.33 42.1998,254.686 z" id="boundary" inkscape:connector-curvature="0" />
	<path style="fill:none;stroke:red;stroke-width:1px;stroke-linecap:butt;stroke-linejoin:miter;stroke-opacity:1" d="M 58.9122,175.899 68.4621,184.255 z" id="boundary" inkscape:connector-curvature="0" />
	<path style="fill:none;stroke:red;stroke-width:1px;stroke-linecap:butt;stroke-linejoin:miter;stroke-opacity:1" d="M 68.4621,184.255 73.2371,196.193 z" id="boundary" inkscape:connector-curvature="0" />
	<path style="fill:none;stroke:red;stroke-width:1px;stroke-linecap:butt;stroke-linejoin:miter;stroke-opacity:1" d="M 58.9122,175.899 50.556,166.349 z" id="boundary" inkscape:connector-curvature="0" />
	<path style="fill:none;stroke:red;stroke-width:1px;stroke-linecap:butt;stroke-linejoin:miter;stroke-opacity:1" d="M 61.2996,236.78 51.7497,246.33 z" id="boundary" inkscape:connector-curvature="0" />
	<path style="fill:none;stroke:red;stroke-width:1px;stroke-linecap:butt;stroke-linejoin:miter;stroke-opacity:1" d="M 70.8496,227.23 75.6245,208.13 z" id="boundary" inkscape:connector-curvature="0" />
	<path style="fill:none;stroke:red;stroke-width:1px;stroke-linecap:butt;stroke-linejoin:miter;stroke-opacity:1" d="M 70.8496,227.23 61.2996,236.78 z" id="boundary" inkscape:connector-curvature="0" />
	<path style="fill:none;stroke:red;stroke-width:1px;stroke-linecap:butt;stroke-linejoin:miter;stroke-opacity:1" d="M 73.2371,196.193 75.6245,208.13 z" id="boundary" inkscape:connector-curvature="0" />
	<path style="fill:none;stroke:red;stroke-width:1px;stroke-linecap:butt;stroke-linejoin:miter;stroke-opacity:1" d="M 27.8748,492.241 21.9061,481.497 z" id="boundary" inkscape:connector-curvature="0" />
	<path style="fill:none;stroke:red;stroke-width:1px;stroke-linecap:butt;stroke-linejoin:miter;stroke-opacity:1" d="M 21.9061,481.497 21.9061,469.56 z" id="boundary" inkscape:connector-curvature="0" />
	<path style="fill:none;stroke:red;stroke-width:1px;stroke-linecap:butt;stroke-linejoin:miter;stroke-opacity:1" d="M 27.8748,492.241 29.0686,504.178 z" id="boundary" inkscape:connector-curvature="0" />
	<path style="fill:none;stroke:red;stroke-width:1px;stroke-linecap:butt;stroke-linejoin:miter;stroke-opacity:1" d="M 33.8436,516.116 29.0686,504.178 z" id="boundary" inkscape:connector-curvature="0" />
	<path style="fill:none;stroke:red;stroke-width:1px;stroke-linecap:butt;stroke-linejoin:miter;stroke-opacity:1" d="M 39.8123,526.859 33.8436,516.116 z" id="boundary" inkscape:connector-curvature="0" />
	<path style="fill:none;stroke:red;stroke-width:1px;stroke-linecap:butt;stroke-linejoin:miter;stroke-opacity:1" d="M 39.8123,526.859 39.8123,538.797 z" id="boundary" inkscape:connector-curvature="0" />
	<path style="fill:none;stroke:red;stroke-width:1px;stroke-linecap:butt;stroke-linejoin:miter;stroke-opacity:1" d="M 39.8123,538.797 39.8123,550.734 z" id="boundary" inkscape:connector-curvature="0" />
	<path style="fill:none;stroke:red;stroke-width:1px;stroke-linecap:butt;stroke-linejoin:miter;stroke-opacity:1" d="M 39.8123,562.671 39.8123,550.734 z" id="boundary" inkscape:connector-curvature="0" />
	<path style="fill:none;stroke:red;stroke-width:1px;stroke-linecap:butt;stroke-linejoin:miter;stroke-opacity:1" d="M 39.8123,574.609 45.781,585.353 z" id="boundary" inkscape:connector-curvature="0" />
	<path style="fill:none;stroke:red;stroke-width:1px;stroke-linecap:butt;stroke-linejoin:miter;stroke-opacity:1" d="M 45.781,585.353 45.781,597.29 z" id="boundary" inkscape:connector-curvature="0" />
	<path style="fill:none;stroke:red;stroke-width:1px;stroke-linecap:butt;stroke-linejoin:miter;stroke-opacity:1" d="M 39.8123,574.609 39.8123,562.671 z" id="boundary" inkscape:connector-curvature="0" />
	<path style="fill:none;stroke:red;stroke-width:1px;stroke-linecap:butt;stroke-linejoin:miter;stroke-opacity:1" d="M 45.781,597.29 45.781,609.227 z" id="boundary" inkscape:connector-curvature="0" />
	<path style="fill:none;stroke:red;stroke-width:1px;stroke-linecap:butt;stroke-linejoin:miter;stroke-opacity:1" d="M 51.7497,631.909 45.781,621.165 z" id="boundary" inkscape:connector-curvature="0" />
	<path style="fill:none;stroke:red;stroke-width:1px;stroke-linecap:butt;stroke-linejoin:miter;stroke-opacity:1" d="M 45.781,621.165 45.781,609.227 z" id="boundary" inkscape:connector-curvature="0" />
	<path style="fill:none;stroke:red;stroke-width:1px;stroke-linecap:butt;stroke-linejoin:miter;stroke-opacity:1" d="M 51.7497,631.909 51.7497,643.846 z" id="boundary" inkscape:connector-curvature="0" />
	<path style="fill:none;stroke:red;stroke-width:1px;stroke-linecap:butt;stroke-linejoin:miter;stroke-opacity:1" d="M 57.7184,654.59 51.7497,643.846 z" id="boundary" inkscape:connector-curvature="0" />
	<path style="fill:none;stroke:red;stroke-width:1px;stroke-linecap:butt;stroke-linejoin:miter;stroke-opacity:1" d="M 64.8809,664.14 57.7184,654.59 z" id="boundary" inkscape:connector-curvature="0" />
	<path style="fill:none;stroke:red;stroke-width:1px;stroke-linecap:butt;stroke-linejoin:miter;stroke-opacity:1" d="M 64.8809,664.14 69.6558,676.077 z" id="boundary" inkscape:connector-curvature="0" />
	<path style="fill:none;stroke:red;stroke-width:1px;stroke-linecap:butt;stroke-linejoin:miter;stroke-opacity:1" d="M 93.5307,777.545 87.562,789.483 z" id="boundary" inkscape:connector-curvature="0" />
	<path style="fill:none;stroke:red;stroke-width:1px;stroke-linecap:butt;stroke-linejoin:miter;stroke-opacity:1" d="M 79.2058,684.433 69.6558,676.077 z" id="boundary" inkscape:connector-curvature="0" />
	<path style="fill:none;stroke:red;stroke-width:1px;stroke-linecap:butt;stroke-linejoin:miter;stroke-opacity:1" d="M 87.562,789.483 87.562,801.42 z" id="boundary" inkscape:connector-curvature="0" />
	<path style="fill:none;stroke:red;stroke-width:1px;stroke-linecap:butt;stroke-linejoin:miter;stroke-opacity:1" d="M 87.562,813.357 87.562,825.295 z" id="boundary" inkscape:connector-curvature="0" />
	<path style="fill:none;stroke:red;stroke-width:1px;stroke-linecap:butt;stroke-linejoin:miter;stroke-opacity:1" d="M 87.562,813.357 87.562,801.42 z" id="boundary" inkscape:connector-curvature="0" />
	<path style="fill:none;stroke:red;stroke-width:1px;stroke-linecap:butt;stroke-linejoin:miter;stroke-opacity:1" d="M 79.2058,684.433 87.562,693.983 z" id="boundary" inkscape:connector-curvature="0" />
	<path style="fill:none;stroke:red;stroke-width:1px;stroke-linecap:butt;stroke-linejoin:miter;stroke-opacity:1" d="M 97.1119,702.339 87.562,693.983 z" id="boundary" inkscape:connector-curvature="0" />
	<path style="fill:none;stroke:red;stroke-width:1px;stroke-linecap:butt;stroke-linejoin:miter;stroke-opacity:1" d="M 87.562,825.295 87.562,837.232 z" id="boundary" inkscape:connector-curvature="0" />
	<path style="fill:none;stroke:red;stroke-width:1px;stroke-linecap:butt;stroke-linejoin:miter;stroke-opacity:1" d="M 99.4994,759.639 93.5307,777.545 z" id="boundary" inkscape:connector-curvature="0" />
	<path style="fill:none;stroke:red;stroke-width:1px;stroke-linecap:butt;stroke-linejoin:miter;stroke-opacity:1" d="M 87.562,837.232 93.5307,847.976 z" id="boundary" inkscape:connector-curvature="0" />
	<path style="fill:none;stroke:red;stroke-width:1px;stroke-linecap:butt;stroke-linejoin:miter;stroke-opacity:1" d="M 99.4994,858.72 93.5307,847.976 z" id="boundary" inkscape:connector-curvature="0" />
	<path style="fill:none;stroke:red;stroke-width:1px;stroke-linecap:butt;stroke-linejoin:miter;stroke-opacity:1" d="M 99.4994,858.72 99.4994,870.657 z" id="boundary" inkscape:connector-curvature="0" />
	<path style="fill:none;stroke:red;stroke-width:1px;stroke-linecap:butt;stroke-linejoin:miter;stroke-opacity:1" d="M 105.468,723.827 105.468,735.764 z" id="boundary" inkscape:connector-curvature="0" />
	<path style="fill:none;stroke:red;stroke-width:1px;stroke-linecap:butt;stroke-linejoin:miter;stroke-opacity:1" d="M 105.468,747.702 105.468,735.764 z" id="boundary" inkscape:connector-curvature="0" />
	<path style="fill:none;stroke:red;stroke-width:1px;stroke-linecap:butt;stroke-linejoin:miter;stroke-opacity:1" d="M 105.468,747.702 99.4994,759.639 z" id="boundary" inkscape:connector-curvature="0" />
	<path style="fill:none;stroke:red;stroke-width:1px;stroke-linecap:butt;stroke-linejoin:miter;stroke-opacity:1" d="M 105.468,881.401 99.4994,870.657 z" id="boundary" inkscape:connector-curvature="0" />
	<path style="fill:none;stroke:red;stroke-width:1px;stroke-linecap:butt;stroke-linejoin:miter;stroke-opacity:1" d="M 107.856,893.338 105.468,881.401 z" id="boundary" inkscape:connector-curvature="0" />
	<path style="fill:none;stroke:red;stroke-width:1px;stroke-linecap:butt;stroke-linejoin:miter;stroke-opacity:1" d="M 97.1119,702.339 105.468,711.889 z" id="boundary" inkscape:connector-curvature="0" />
	<path style="fill:none;stroke:red;stroke-width:1px;stroke-linecap:butt;stroke-linejoin:miter;stroke-opacity:1" d="M 105.468,711.889 105.468,723.827 z" id="boundary" inkscape:connector-curvature="0" />
	<path style="fill:none;stroke:red;stroke-width:1px;stroke-linecap:butt;stroke-linejoin:miter;stroke-opacity:1" d="M 105.468,926.763 105.468,914.826 z" id="boundary" inkscape:connector-curvature="0" />
	<path style="fill:none;stroke:red;stroke-width:1px;stroke-linecap:butt;stroke-linejoin:miter;stroke-opacity:1" d="M 105.468,926.763 99.4994,938.7 z" id="boundary" inkscape:connector-curvature="0" />
	<path style="fill:none;stroke:red;stroke-width:1px;stroke-linecap:butt;stroke-linejoin:miter;stroke-opacity:1" d="M 99.4994,938.7 99.4994,950.638 z" id="boundary" inkscape:connector-curvature="0" />
	<path style="fill:none;stroke:red;stroke-width:1px;stroke-linecap:butt;stroke-linejoin:miter;stroke-opacity:1" d="M 109.049,970.931 99.4994,962.575 z" id="boundary" inkscape:connector-curvature="0" />
	<path style="fill:none;stroke:red;stroke-width:1px;stroke-linecap:butt;stroke-linejoin:miter;stroke-opacity:1" d="M 99.4994,962.575 99.4994,950.638 z" id="boundary" inkscape:connector-curvature="0" />
	<path style="fill:none;stroke:red;stroke-width:1px;stroke-linecap:butt;stroke-linejoin:miter;stroke-opacity:1" d="M 107.856,893.338 105.468,914.826 z" id="boundary" inkscape:connector-curvature="0" />
	<path style="fill:none;stroke:red;stroke-width:1px;stroke-linecap:butt;stroke-linejoin:miter;stroke-opacity:1" d="M 141.28,984.063 129.343,984.063 z" id="boundary" inkscape:connector-curvature="0" />
	<path style="fill:none;stroke:red;stroke-width:1px;stroke-linecap:butt;stroke-linejoin:miter;stroke-opacity:1" d="M 129.343,984.063 118.599,978.094 z" id="boundary" inkscape:connector-curvature="0" />
	<path style="fill:none;stroke:red;stroke-width:1px;stroke-linecap:butt;stroke-linejoin:miter;stroke-opacity:1" d="M 118.599,978.094 109.049,970.931 z" id="boundary" inkscape:connector-curvature="0" />
	<path style="fill:none;stroke:red;stroke-width:1px;stroke-linecap:butt;stroke-linejoin:miter;stroke-opacity:1" d="M 141.28,984.063 152.024,990.031 z" id="boundary" inkscape:connector-curvature="0" />
	<path style="fill:none;stroke:red;stroke-width:1px;stroke-linecap:butt;stroke-linejoin:miter;stroke-opacity:1" d="M 163.961,990.031 152.024,990.031 z" id="boundary" inkscape:connector-curvature="0" />
	<path style="fill:none;stroke:red;stroke-width:1px;stroke-linecap:butt;stroke-linejoin:miter;stroke-opacity:1" d="M 163.961,990.031 174.705,996 z" id="boundary" inkscape:connector-curvature="0" />
	<path style="fill:none;stroke:red;stroke-width:1px;stroke-linecap:butt;stroke-linejoin:miter;stroke-opacity:1" d="M 186.643,996 174.705,996 z" id="boundary" inkscape:connector-curvature="0" />
	<path style="fill:none;stroke:red;stroke-width:1px;stroke-linecap:butt;stroke-linejoin:miter;stroke-opacity:1" d="M 199.774,15.9374 210.517,21.9061 z" id="boundary" inkscape:connector-curvature="0" />
	<path style="fill:none;stroke:red;stroke-width:1px;stroke-linecap:butt;stroke-linejoin:miter;stroke-opacity:1" d="M 199.774,15.9374 189.03,9.96871 z" id="boundary" inkscape:connector-curvature="0" />
	<path style="fill:none;stroke:red;stroke-width:1px;stroke-linecap:butt;stroke-linejoin:miter;stroke-opacity:1" d="M 222.455,21.9061 210.517,21.9061 z" id="boundary" inkscape:connector-curvature="0" />
	<path style="fill:none;stroke:red;stroke-width:1px;stroke-linecap:butt;stroke-linejoin:miter;stroke-opacity:1" d="M 233.199,27.8748 242.748,36.231 z" id="boundary" inkscape:connector-curvature="0" />
	<path style="fill:none;stroke:red;stroke-width:1px;stroke-linecap:butt;stroke-linejoin:miter;stroke-opacity:1" d="M 222.455,21.9061 233.199,27.8748 z" id="boundary" inkscape:connector-curvature="0" />
	<path style="fill:none;stroke:red;stroke-width:1px;stroke-linecap:butt;stroke-linejoin:miter;stroke-opacity:1" d="M 242.748,36.231 249.911,45.781 z" id="boundary" inkscape:connector-curvature="0" />
	<path style="fill:none;stroke:red;stroke-width:1px;stroke-linecap:butt;stroke-linejoin:miter;stroke-opacity:1" d="M 249.911,45.781 259.461,52.9434 z" id="boundary" inkscape:connector-curvature="0" />
	<path style="fill:none;stroke:red;stroke-width:1px;stroke-linecap:butt;stroke-linejoin:miter;stroke-opacity:1" d="M 259.461,52.9434 264.236,64.8809 z" id="boundary" inkscape:connector-curvature="0" />
	<path style="fill:none;stroke:red;stroke-width:1px;stroke-linecap:butt;stroke-linejoin:miter;stroke-opacity:1" d="M 270.205,75.6245 264.236,64.8809 z" id="boundary" inkscape:connector-curvature="0" />
	<path style="fill:none;stroke:red;stroke-width:1px;stroke-linecap:butt;stroke-linejoin:miter;stroke-opacity:1" d="M 270.205,75.6245 273.786,87.562 z" id="boundary" inkscape:connector-curvature="0" />
	<path style="fill:none;stroke:red;stroke-width:1px;stroke-linecap:butt;stroke-linejoin:miter;stroke-opacity:1" d="M 273.786,87.562 273.786,99.4994 z" id="boundary" inkscape:connector-curvature="0" />
	<path style="fill:none;stroke:red;stroke-width:1px;stroke-linecap:butt;stroke-linejoin:miter;stroke-opacity:1" d="M 261.848,196.193 261.848,208.13 z" id="boundary" inkscape:connector-curvature="0" />
	<path style="fill:none;stroke:red;stroke-width:1px;stroke-linecap:butt;stroke-linejoin:miter;stroke-opacity:1" d="M 261.848,208.13 255.88,220.067 z" id="boundary" inkscape:connector-curvature="0" />
	<path style="fill:none;stroke:red;stroke-width:1px;stroke-linecap:butt;stroke-linejoin:miter;stroke-opacity:1" d="M 255.88,220.067 249.911,232.005 z" id="boundary" inkscape:connector-curvature="0" />
	<path style="fill:none;stroke:red;stroke-width:1px;stroke-linecap:butt;stroke-linejoin:miter;stroke-opacity:1" d="M 261.848,196.193 267.817,184.255 z" id="boundary" inkscape:connector-curvature="0" />
	<path style="fill:none;stroke:red;stroke-width:1px;stroke-linecap:butt;stroke-linejoin:miter;stroke-opacity:1" d="M 271.398,261.848 261.848,253.492 z" id="boundary" inkscape:connector-curvature="0" />
	<path style="fill:none;stroke:red;stroke-width:1px;stroke-linecap:butt;stroke-linejoin:miter;stroke-opacity:1" d="M 255.88,242.748 261.848,253.492 z" id="boundary" inkscape:connector-curvature="0" />
	<path style="fill:none;stroke:red;stroke-width:1px;stroke-linecap:butt;stroke-linejoin:miter;stroke-opacity:1" d="M 255.88,242.748 249.911,232.005 z" id="boundary" inkscape:connector-curvature="0" />
	<path style="fill:none;stroke:red;stroke-width:1px;stroke-linecap:butt;stroke-linejoin:miter;stroke-opacity:1" d="M 273.786,111.437 273.786,123.374 z" id="boundary" inkscape:connector-curvature="0" />
	<path style="fill:none;stroke:red;stroke-width:1px;stroke-linecap:butt;stroke-linejoin:miter;stroke-opacity:1" d="M 273.786,123.374 267.817,136.505 z" id="boundary" inkscape:connector-curvature="0" />
	<path style="fill:none;stroke:red;stroke-width:1px;stroke-linecap:butt;stroke-linejoin:miter;stroke-opacity:1" d="M 273.786,99.4994 273.786,111.437 z" id="boundary" inkscape:connector-curvature="0" />
	<path style="fill:none;stroke:red;stroke-width:1px;stroke-linecap:butt;stroke-linejoin:miter;stroke-opacity:1" d="M 267.817,148.443 267.817,136.505 z" id="boundary" inkscape:connector-curvature="0" />
	<path style="fill:none;stroke:red;stroke-width:1px;stroke-linecap:butt;stroke-linejoin:miter;stroke-opacity:1" d="M 267.817,148.443 270.205,160.38 z" id="boundary" inkscape:connector-curvature="0" />
	<path style="fill:none;stroke:red;stroke-width:1px;stroke-linecap:butt;stroke-linejoin:miter;stroke-opacity:1" d="M 267.817,184.255 273.786,172.318 z" id="boundary" inkscape:connector-curvature="0" />
	<path style="fill:none;stroke:red;stroke-width:1px;stroke-linecap:butt;stroke-linejoin:miter;stroke-opacity:1" d="M 270.205,160.38 273.786,172.318 z" id="boundary" inkscape:connector-curvature="0" />
	<path style="fill:none;stroke:red;stroke-width:1px;stroke-linecap:butt;stroke-linejoin:miter;stroke-opacity:1" d="M 279.755,271.398 271.398,261.848 z" id="boundary" inkscape:connector-curvature="0" />
	<path style="fill:none;stroke:red;stroke-width:1px;stroke-linecap:butt;stroke-linejoin:miter;stroke-opacity:1" d="M 285.723,282.142 279.755,271.398 z" id="boundary" inkscape:connector-curvature="0" />
	<path style="fill:none;stroke:red;stroke-width:1px;stroke-linecap:butt;stroke-linejoin:miter;stroke-opacity:1" d="M 285.723,282.142 285.723,294.079 z" id="boundary" inkscape:connector-curvature="0" />
	<path style="fill:none;stroke:red;stroke-width:1px;stroke-linecap:butt;stroke-linejoin:miter;stroke-opacity:1" d="M 290.498,317.954 285.723,306.017 z" id="boundary" inkscape:connector-curvature="0" />
	<path style="fill:none;stroke:red;stroke-width:1px;stroke-linecap:butt;stroke-linejoin:miter;stroke-opacity:1" d="M 285.723,306.017 285.723,294.079 z" id="boundary" inkscape:connector-curvature="0" />
	<path style="fill:none;stroke:red;stroke-width:1px;stroke-linecap:butt;stroke-linejoin:miter;stroke-opacity:1" d="M 290.498,317.954 291.692,329.892 z" id="boundary" inkscape:connector-curvature="0" />
	<path style="fill:none;stroke:red;stroke-width:1px;stroke-linecap:butt;stroke-linejoin:miter;stroke-opacity:1" d="M 291.692,329.892 297.661,340.635 z" id="boundary" inkscape:connector-curvature="0" />
	<path style="fill:none;stroke:red;stroke-width:1px;stroke-linecap:butt;stroke-linejoin:miter;stroke-opacity:1" d="M 297.661,340.635 297.661,352.573 z" id="boundary" inkscape:connector-curvature="0" />
	<path style="fill:none;stroke:red;stroke-width:1px;stroke-linecap:butt;stroke-linejoin:miter;stroke-opacity:1" d="M 297.661,352.573 291.692,369.285 z" id="boundary" inkscape:connector-curvature="0" />
	<path style="fill:none;stroke:red;stroke-width:1px;stroke-linecap:butt;stroke-linejoin:miter;stroke-opacity:1" d="M 291.692,381.223 291.692,369.285 z" id="boundary" inkscape:connector-curvature="0" />
	<path style="fill:none;stroke:red;stroke-width:1px;stroke-linecap:butt;stroke-linejoin:miter;stroke-opacity:1" d="M 294.079,393.16 291.692,381.223 z" id="boundary" inkscape:connector-curvature="0" />
	<path style="fill:none;stroke:red;stroke-width:1px;stroke-linecap:butt;stroke-linejoin:miter;stroke-opacity:1" d="M 300.048,403.904 294.079,393.16 z" id="boundary" inkscape:connector-curvature="0" />
	<path style="fill:none;stroke:red;stroke-width:1px;stroke-linecap:butt;stroke-linejoin:miter;stroke-opacity:1" d="M 309.598,426.585 303.629,415.841 z" id="boundary" inkscape:connector-curvature="0" />
	<path style="fill:none;stroke:red;stroke-width:1px;stroke-linecap:butt;stroke-linejoin:miter;stroke-opacity:1" d="M 303.629,415.841 300.048,403.904 z" id="boundary" inkscape:connector-curvature="0" />
	<path style="fill:none;stroke:red;stroke-width:1px;stroke-linecap:butt;stroke-linejoin:miter;stroke-opacity:1" d="M 320.342,461.203 315.567,449.266 z" id="boundary" inkscape:connector-curvature="0" />
	<path style="fill:none;stroke:red;stroke-width:1px;stroke-linecap:butt;stroke-linejoin:miter;stroke-opacity:1" d="M 315.567,449.266 315.567,437.329 z" id="boundary" inkscape:connector-curvature="0" />
	<path style="fill:none;stroke:red;stroke-width:1px;stroke-linecap:butt;stroke-linejoin:miter;stroke-opacity:1" d="M 320.342,461.203 321.535,473.141 z" id="boundary" inkscape:connector-curvature="0" />
	<path style="fill:none;stroke:red;stroke-width:1px;stroke-linecap:butt;stroke-linejoin:miter;stroke-opacity:1" d="M 309.598,426.585 315.567,437.329 z" id="boundary" inkscape:connector-curvature="0" />
	<path style="fill:none;stroke:red;stroke-width:1px;stroke-linecap:butt;stroke-linejoin:miter;stroke-opacity:1" d="M 321.535,473.141 327.504,483.884 z" id="boundary" inkscape:connector-curvature="0" />
	<path style="fill:none;stroke:red;stroke-width:1px;stroke-linecap:butt;stroke-linejoin:miter;stroke-opacity:1" d="M 327.504,483.884 331.085,495.822 z" id="boundary" inkscape:connector-curvature="0" />
	<path style="fill:none;stroke:red;stroke-width:1px;stroke-linecap:butt;stroke-linejoin:miter;stroke-opacity:1" d="M 331.085,495.822 333.473,507.759 z" id="boundary" inkscape:connector-curvature="0" />
	<path style="fill:none;stroke:red;stroke-width:1px;stroke-linecap:butt;stroke-linejoin:miter;stroke-opacity:1" d="M 333.473,507.759 339.442,518.503 z" id="boundary" inkscape:connector-curvature="0" />
	<path style="fill:none;stroke:red;stroke-width:1px;stroke-linecap:butt;stroke-linejoin:miter;stroke-opacity:1" d="M 339.442,518.503 339.442,530.44 z" id="boundary" inkscape:connector-curvature="0" />
	<path style="fill:none;stroke:red;stroke-width:1px;stroke-linecap:butt;stroke-linejoin:miter;stroke-opacity:1" d="M 339.442,530.44 345.41,541.184 z" id="boundary" inkscape:connector-curvature="0" />
	<path style="fill:none;stroke:red;stroke-width:1px;stroke-linecap:butt;stroke-linejoin:miter;stroke-opacity:1" d="M 351.379,551.928 345.41,541.184 z" id="boundary" inkscape:connector-curvature="0" />
	<path style="fill:none;stroke:red;stroke-width:1px;stroke-linecap:butt;stroke-linejoin:miter;stroke-opacity:1" d="M 267.817,816.939 261.848,834.845 z" id="boundary" inkscape:connector-curvature="0" />
	<path style="fill:none;stroke:red;stroke-width:1px;stroke-linecap:butt;stroke-linejoin:miter;stroke-opacity:1" d="M 261.848,834.845 255.88,852.751 z" id="boundary" inkscape:connector-curvature="0" />
	<path style="fill:none;stroke:red;stroke-width:1px;stroke-linecap:butt;stroke-linejoin:miter;stroke-opacity:1" d="M 292.886,923.182 282.142,917.213 z" id="boundary" inkscape:connector-curvature="0" />
	<path style="fill:none;stroke:red;stroke-width:1px;stroke-linecap:butt;stroke-linejoin:miter;stroke-opacity:1" d="M 249.911,882.594 249.911,870.657 z" id="boundary" inkscape:connector-curvature="0" />
	<path style="fill:none;stroke:red;stroke-width:1px;stroke-linecap:butt;stroke-linejoin:miter;stroke-opacity:1" d="M 255.88,852.751 249.911,870.657 z" id="boundary" inkscape:connector-curvature="0" />
	<path style="fill:none;stroke:red;stroke-width:1px;stroke-linecap:butt;stroke-linejoin:miter;stroke-opacity:1" d="M 249.911,882.594 252.298,894.532 z" id="boundary" inkscape:connector-curvature="0" />
	<path style="fill:none;stroke:red;stroke-width:1px;stroke-linecap:butt;stroke-linejoin:miter;stroke-opacity:1" d="M 273.786,769.189 273.786,781.126 z" id="boundary" inkscape:connector-curvature="0" />
	<path style="fill:none;stroke:red;stroke-width:1px;stroke-linecap:butt;stroke-linejoin:miter;stroke-opacity:1" d="M 285.723,745.314 279.755,757.252 z" id="boundary" inkscape:connector-curvature="0" />
	<path style="fill:none;stroke:red;stroke-width:1px;stroke-linecap:butt;stroke-linejoin:miter;stroke-opacity:1" d="M 273.786,769.189 279.755,757.252 z" id="boundary" inkscape:connector-curvature="0" />
	<path style="fill:none;stroke:red;stroke-width:1px;stroke-linecap:butt;stroke-linejoin:miter;stroke-opacity:1" d="M 285.723,745.314 291.692,733.377 z" id="boundary" inkscape:connector-curvature="0" />
	<path style="fill:none;stroke:red;stroke-width:1px;stroke-linecap:butt;stroke-linejoin:miter;stroke-opacity:1" d="M 273.786,781.126 273.786,793.064 z" id="boundary" inkscape:connector-curvature="0" />
	<path style="fill:none;stroke:red;stroke-width:1px;stroke-linecap:butt;stroke-linejoin:miter;stroke-opacity:1" d="M 273.786,805.001 273.786,793.064 z" id="boundary" inkscape:connector-curvature="0" />
	<path style="fill:none;stroke:red;stroke-width:1px;stroke-linecap:butt;stroke-linejoin:miter;stroke-opacity:1" d="M 273.786,805.001 267.817,816.939 z" id="boundary" inkscape:connector-curvature="0" />
	<path style="fill:none;stroke:red;stroke-width:1px;stroke-linecap:butt;stroke-linejoin:miter;stroke-opacity:1" d="M 198.58,996 186.643,996 z" id="boundary" inkscape:connector-curvature="0" />
	<path style="fill:none;stroke:red;stroke-width:1px;stroke-linecap:butt;stroke-linejoin:miter;stroke-opacity:1" d="M 210.517,996 198.58,996 z" id="boundary" inkscape:connector-curvature="0" />
	<path style="fill:none;stroke:red;stroke-width:1px;stroke-linecap:butt;stroke-linejoin:miter;stroke-opacity:1" d="M 234.392,996 222.455,996 z" id="boundary" inkscape:connector-curvature="0" />
	<path style="fill:none;stroke:red;stroke-width:1px;stroke-linecap:butt;stroke-linejoin:miter;stroke-opacity:1" d="M 246.33,996 234.392,996 z" id="boundary" inkscape:connector-curvature="0" />
	<path style="fill:none;stroke:red;stroke-width:1px;stroke-linecap:butt;stroke-linejoin:miter;stroke-opacity:1" d="M 222.455,996 210.517,996 z" id="boundary" inkscape:connector-curvature="0" />
	<path style="fill:none;stroke:red;stroke-width:1px;stroke-linecap:butt;stroke-linejoin:miter;stroke-opacity:1" d="M 261.848,902.888 271.398,911.244 z" id="boundary" inkscape:connector-curvature="0" />
	<path style="fill:none;stroke:red;stroke-width:1px;stroke-linecap:butt;stroke-linejoin:miter;stroke-opacity:1" d="M 261.848,902.888 252.298,894.532 z" id="boundary" inkscape:connector-curvature="0" />
	<path style="fill:none;stroke:red;stroke-width:1px;stroke-linecap:butt;stroke-linejoin:miter;stroke-opacity:1" d="M 258.267,996 269.011,990.031 z" id="boundary" inkscape:connector-curvature="0" />
	<path style="fill:none;stroke:red;stroke-width:1px;stroke-linecap:butt;stroke-linejoin:miter;stroke-opacity:1" d="M 258.267,996 246.33,996 z" id="boundary" inkscape:connector-curvature="0" />
	<path style="fill:none;stroke:red;stroke-width:1px;stroke-linecap:butt;stroke-linejoin:miter;stroke-opacity:1" d="M 291.692,978.094 279.755,984.063 z" id="boundary" inkscape:connector-curvature="0" />
	<path style="fill:none;stroke:red;stroke-width:1px;stroke-linecap:butt;stroke-linejoin:miter;stroke-opacity:1" d="M 279.755,984.063 269.011,990.031 z" id="boundary" inkscape:connector-curvature="0" />
	<path style="fill:none;stroke:red;stroke-width:1px;stroke-linecap:butt;stroke-linejoin:miter;stroke-opacity:1" d="M 271.398,911.244 282.142,917.213 z" id="boundary" inkscape:connector-curvature="0" />
	<path style="fill:none;stroke:red;stroke-width:1px;stroke-linecap:butt;stroke-linejoin:miter;stroke-opacity:1" d="M 291.692,685.627 291.692,697.564 z" id="boundary" inkscape:connector-curvature="0" />
	<path style="fill:none;stroke:red;stroke-width:1px;stroke-linecap:butt;stroke-linejoin:miter;stroke-opacity:1" d="M 291.692,673.69 291.692,685.627 z" id="boundary" inkscape:connector-curvature="0" />
	<path style="fill:none;stroke:red;stroke-width:1px;stroke-linecap:butt;stroke-linejoin:miter;stroke-opacity:1" d="M 319.148,647.427 309.598,655.783 z" id="boundary" inkscape:connector-curvature="0" />
	<path style="fill:none;stroke:red;stroke-width:1px;stroke-linecap:butt;stroke-linejoin:miter;stroke-opacity:1" d="M 321.535,630.715 319.148,647.427 z" id="boundary" inkscape:connector-curvature="0" />
	<path style="fill:none;stroke:red;stroke-width:1px;stroke-linecap:butt;stroke-linejoin:miter;stroke-opacity:1" d="M 309.598,655.783 301.242,665.333 z" id="boundary" inkscape:connector-curvature="0" />
	<path style="fill:none;stroke:red;stroke-width:1px;stroke-linecap:butt;stroke-linejoin:miter;stroke-opacity:1" d="M 315.567,619.971 321.535,630.715 z" id="boundary" inkscape:connector-curvature="0" />
	<path style="fill:none;stroke:red;stroke-width:1px;stroke-linecap:butt;stroke-linejoin:miter;stroke-opacity:1" d="M 291.692,673.69 301.242,665.333 z" id="boundary" inkscape:connector-curvature="0" />
	<path style="fill:none;stroke:red;stroke-width:1px;stroke-linecap:butt;stroke-linejoin:miter;stroke-opacity:1" d="M 291.692,697.564 291.692,709.502 z" id="boundary" inkscape:connector-curvature="0" />
	<path style="fill:none;stroke:red;stroke-width:1px;stroke-linecap:butt;stroke-linejoin:miter;stroke-opacity:1" d="M 351.379,563.865 351.379,575.803 z" id="boundary" inkscape:connector-curvature="0" />
	<path style="fill:none;stroke:red;stroke-width:1px;stroke-linecap:butt;stroke-linejoin:miter;stroke-opacity:1" d="M 351.379,575.803 345.41,590.128 z" id="boundary" inkscape:connector-curvature="0" />
	<path style="fill:none;stroke:red;stroke-width:1px;stroke-linecap:butt;stroke-linejoin:miter;stroke-opacity:1" d="M 325.117,611.615 333.473,602.065 z" id="boundary" inkscape:connector-curvature="0" />
	<path style="fill:none;stroke:red;stroke-width:1px;stroke-linecap:butt;stroke-linejoin:miter;stroke-opacity:1" d="M 315.567,619.971 325.117,611.615 z" id="boundary" inkscape:connector-curvature="0" />
	<path style="fill:none;stroke:red;stroke-width:1px;stroke-linecap:butt;stroke-linejoin:miter;stroke-opacity:1" d="M 333.473,602.065 345.41,590.128 z" id="boundary" inkscape:connector-curvature="0" />
	<path style="fill:none;stroke:red;stroke-width:1px;stroke-linecap:butt;stroke-linejoin:miter;stroke-opacity:1" d="M 351.379,551.928 351.379,563.865 z" id="boundary" inkscape:connector-curvature="0" />
	<path style="fill:none;stroke:red;stroke-width:1px;stroke-linecap:butt;stroke-linejoin:miter;stroke-opacity:1" d="M 291.692,709.502 291.692,721.439 z" id="boundary" inkscape:connector-curvature="0" />
	<path style="fill:none;stroke:red;stroke-width:1px;stroke-linecap:butt;stroke-linejoin:miter;stroke-opacity:1" d="M 291.692,733.377 291.692,721.439 z" id="boundary" inkscape:connector-curvature="0" />
	<path style="fill:none;stroke:red;stroke-width:1px;stroke-linecap:butt;stroke-linejoin:miter;stroke-opacity:1" d="M 292.886,923.182 303.629,929.15 z" id="boundary" inkscape:connector-curvature="0" />
	<path style="fill:none;stroke:red;stroke-width:1px;stroke-linecap:butt;stroke-linejoin:miter;stroke-opacity:1" d="M 303.629,929.15 314.373,935.119 z" id="boundary" inkscape:connector-curvature="0" />
	<path style="fill:none;stroke:red;stroke-width:1px;stroke-linecap:butt;stroke-linejoin:miter;stroke-opacity:1" d="M 314.373,935.119 326.31,937.507 z" id="boundary" inkscape:connector-curvature="0" />
	<path style="fill:none;stroke:red;stroke-width:1px;stroke-linecap:butt;stroke-linejoin:miter;stroke-opacity:1" d="M 326.31,937.507 333.473,947.057 z" id="boundary" inkscape:connector-curvature="0" />
	<path style="fill:none;stroke:red;stroke-width:1px;stroke-linecap:butt;stroke-linejoin:miter;stroke-opacity:1" d="M 303.629,978.094 315.567,978.094 z" id="boundary" inkscape:connector-curvature="0" />
	<path style="fill:none;stroke:red;stroke-width:1px;stroke-linecap:butt;stroke-linejoin:miter;stroke-opacity:1" d="M 327.504,972.125 315.567,978.094 z" id="boundary" inkscape:connector-curvature="0" />
	<path style="fill:none;stroke:red;stroke-width:1px;stroke-linecap:butt;stroke-linejoin:miter;stroke-opacity:1" d="M 333.473,947.057 337.054,963.769 z" id="boundary" inkscape:connector-curvature="0" />
	<path style="fill:none;stroke:red;stroke-width:1px;stroke-linecap:butt;stroke-linejoin:miter;stroke-opacity:1" d="M 337.054,963.769 327.504,972.125 z" id="boundary" inkscape:connector-curvature="0" />
	<path style="fill:none;stroke:red;stroke-width:1px;stroke-linecap:butt;stroke-linejoin:miter;stroke-opacity:1" d="M 303.629,978.094 291.692,978.094 z" id="boundary" inkscape:connector-curvature="0" />
	<path style="fill:none;stroke:red;stroke-width:1px;stroke-linecap:butt;stroke-linejoin:miter;stroke-opacity:1" d="M 177.093,6.38748 189.03,9.96871 z" id="boundary" inkscape:connector-curvature="0" />
	<circle cx="4" cy="306.017" r="4" fill="#0" id="circle0"/>
	<circle cx="4" cy="317.954" r="4" fill="#0" id="circle1"/>
	<circle cx="4" cy="329.892" r="4" fill="#0" id="circle2"/>
	<circle cx="4" cy="341.829" r="4" fill="#0" id="circle3"/>
	<circle cx="4" cy="353.767" r="4" fill="#0" id="circle4"/>
	<circle cx="4" cy="365.704" r="4" fill="#0" id="circle5"/>
	<circle cx="9.96871" cy="294.079" r="4" fill="#0" id="circle6"/>
	<circle cx="9.96871" cy="376.448" r="4" fill="#0" id="circle7"/>
	<circle cx="15.9374" cy="282.142" r="4" fill="#0" id="circle8"/>
	<circle cx="15.9374" cy="387.191" r="4" fill="#0" id="circle9"/>
	<circle cx="15.9374" cy="399.129" r="4" fill="#0" id="circle10"/>
	<circle cx="15.9374" cy="411.066" r="4" fill="#0" id="circle11"/>
	<circle cx="15.9374" cy="423.004" r="4" fill="#0" id="circle12"/>
	<circle cx="15.9374" cy="434.941" r="4" fill="#0" id="circle13"/>
	<circle cx="15.9374" cy="446.878" r="4" fill="#0" id="circle14"/>
	<circle cx="15.9374" cy="458.816" r="4" fill="#0" id="circle15"/>
	<circle cx="21.9061" cy="79.2058" r="4" fill="#0" id="circle16"/>
	<circle cx="21.9061" cy="91.1432" r="4" fill="#0" id="circle17"/>
	<circle cx="21.9061" cy="103.081" r="4" fill="#0" id="circle18"/>
	<circle cx="21.9061" cy="115.018" r="4" fill="#0" id="circle19"/>
	<circle cx="21.9061" cy="270.205" r="4" fill="#0" id="circle20"/>
	<circle cx="21.9061" cy="469.56" r="4" fill="#0" id="circle21"/>
	<circle cx="21.9061" cy="481.497" r="4" fill="#0" id="circle22"/>
	<circle cx="27.8748" cy="67.2684" r="4" fill="#0" id="circle23"/>
	<circle cx="27.8748" cy="125.762" r="4" fill="#0" id="circle24"/>
	<circle cx="27.8748" cy="137.699" r="4" fill="#0" id="circle25"/>
	<circle cx="27.8748" cy="492.241" r="4" fill="#0" id="circle26"/>
	<circle cx="29.0686" cy="504.178" r="4" fill="#0" id="circle27"/>
	<circle cx="31.4561" cy="260.655" r="4" fill="#0" id="circle28"/>
	<circle cx="33.8436" cy="55.3309" r="4" fill="#0" id="circle29"/>
	<circle cx="33.8436" cy="148.443" r="4" fill="#0" id="circle30"/>
	<circle cx="33.8436" cy="516.116" r="4" fill="#0" id="circle31"/>
	<circle cx="39.8123" cy="526.859" r="4" fill="#0" id="circle32"/>
	<circle cx="39.8123" cy="538.797" r="4" fill="#0" id="circle33"/>
	<circle cx="39.8123" cy="550.734" r="4" fill="#0" id="circle34"/>
	<circle cx="39.8123" cy="562.671" r="4" fill="#0" id="circle35"/>
	<circle cx="39.8123" cy="574.609" r="4" fill="#0" id="circle36"/>
	<circle cx="41.006" cy="157.993" r="4" fill="#0" id="circle37"/>
	<circle cx="42.1998" cy="254.686" r="4" fill="#0" id="circle38"/>
	<circle cx="43.3935" cy="45.781" r="4" fill="#0" id="circle39"/>
	<circle cx="45.781" cy="585.353" r="4" fill="#0" id="circle40"/>
	<circle cx="45.781" cy="597.29" r="4" fill="#0" id="circle41"/>
	<circle cx="45.781" cy="609.227" r="4" fill="#0" id="circle42"/>
	<circle cx="45.781" cy="621.165" r="4" fill="#0" id="circle43"/>
	<circle cx="50.556" cy="166.349" r="4" fill="#0" id="circle44"/>
	<circle cx="51.7497" cy="246.33" r="4" fill="#0" id="circle45"/>
	<circle cx="51.7497" cy="631.909" r="4" fill="#0" id="circle46"/>
	<circle cx="51.7497" cy="643.846" r="4" fill="#0" id="circle47"/>
	<circle cx="52.9434" cy="36.231" r="4" fill="#0" id="circle48"/>
	<circle cx="57.7184" cy="654.59" r="4" fill="#0" id="circle49"/>
	<circle cx="58.9122" cy="175.899" r="4" fill="#0" id="circle50"/>
	<circle cx="61.2996" cy="236.78" r="4" fill="#0" id="circle51"/>
	<circle cx="62.4934" cy="27.8748" r="4" fill="#0" id="circle52"/>
	<circle cx="64.8809" cy="664.14" r="4" fill="#0" id="circle53"/>
	<circle cx="68.4621" cy="184.255" r="4" fill="#0" id="circle54"/>
	<circle cx="69.6558" cy="676.077" r="4" fill="#0" id="circle55"/>
	<circle cx="70.8496" cy="227.23" r="4" fill="#0" id="circle56"/>
	<circle cx="73.2371" cy="21.9061" r="4" fill="#0" id="circle57"/>
	<circle cx="73.2371" cy="196.193" r="4" fill="#0" id="circle58"/>
	<circle cx="75.6245" cy="208.13" r="4" fill="#0" id="circle59"/>
	<circle cx="79.2058" cy="684.433" r="4" fill="#0" id="circle60"/>
	<circle cx="83.9807" cy="15.9374" r="4" fill="#0" id="circle61"/>
	<circle cx="87.562" cy="693.983" r="4" fill="#0" id="circle62"/>
	<circle cx="87.562" cy="789.483" r="4" fill="#0" id="circle63"/>
	<circle cx="87.562" cy="801.42" r="4" fill="#0" id="circle64"/>
	<circle cx="87.562" cy="813.357" r="4" fill="#0" id="circle65"/>
	<circle cx="87.562" cy="825.295" r="4" fill="#0" id="circle66"/>
	<circle cx="87.562" cy="837.232" r="4" fill="#0" id="circle67"/>
	<circle cx="93.5307" cy="777.545" r="4" fill="#0" id="circle68"/>
	<circle cx="93.5307" cy="847.976" r="4" fill="#0" id="circle69"/>
	<circle cx="94.7244" cy="9.96871" r="4" fill="#0" id="circle70"/>
	<circle cx="97.1119" cy="702.339" r="4" fill="#0" id="circle71"/>
	<circle cx="99.4994" cy="759.639" r="4" fill="#0" id="circle72"/>
	<circle cx="99.4994" cy="858.72" r="4" fill="#0" id="circle73"/>
	<circle cx="99.4994" cy="870.657" r="4" fill="#0" id="circle74"/>
	<circle cx="99.4994" cy="938.7" r="4" fill="#0" id="circle75"/>
	<circle cx="99.4994" cy="950.638" r="4" fill="#0" id="circle76"/>
	<circle cx="99.4994" cy="962.575" r="4" fill="#0" id="circle77"/>
	<circle cx="105.468" cy="4" r="4" fill="#0" id="circle78"/>
	<circle cx="105.468" cy="711.889" r="4" fill="#0" id="circle79"/>
	<circle cx="105.468" cy="723.827" r="4" fill="#0" id="circle80"/>
	<circle cx="105.468" cy="735.764" r="4" fill="#0" id="circle81"/>
	<circle cx="105.468" cy="747.702" r="4" fill="#0" id="circle82"/>
	<circle cx="105.468" cy="881.401" r="4" fill="#0" id="circle83"/>
	<circle cx="105.468" cy="914.826" r="4" fill="#0" id="circle84"/>
	<circle cx="105.468" cy="926.763" r="4" fill="#0" id="circle85"/>
	<circle cx="107.856" cy="893.338" r="4" fill="#0" id="circle86"/>
	<circle cx="109.049" cy="970.931" r="4" fill="#0" id="circle87"/>
	<circle cx="117.406" cy="4" r="4" fill="#0" id="circle88"/>
	<circle cx="118.599" cy="978.094" r="4" fill="#0" id="circle89"/>
	<circle cx="129.343" cy="4" r="4" fill="#0" id="circle90"/>
	<circle cx="129.343" cy="984.063" r="4" fill="#0" id="circle91"/>
	<circle cx="141.28" cy="4" r="4" fill="#0" id="circle92"/>
	<circle cx="141.28" cy="984.063" r="4" fill="#0" id="circle93"/>
	<circle cx="152.024" cy="990.031" r="4" fill="#0" id="circle94"/>
	<circle cx="153.218" cy="4" r="4" fill="#0" id="circle95"/>
	<circle cx="163.961" cy="990.031" r="4" fill="#0" id="circle96"/>
	<circle cx="165.155" cy="4" r="4" fill="#0" id="circle97"/>
	<circle cx="174.705" cy="996" r="4" fill="#0" id="circle98"/>
	<circle cx="177.093" cy="6.38748" r="4" fill="#0" id="circle99"/>
	<circle cx="186.643" cy="996" r="4" fill="#0" id="circle100"/>
	<circle cx="189.03" cy="9.96871" r="4" fill="#0" id="circle101"/>
	<circle cx="198.58" cy="996" r="4" fill="#0" id="circle102"/>
	<circle cx="199.774" cy="15.9374" r="4" fill="#0" id="circle103"/>
	<circle cx="210.517" cy="21.9061" r="4" fill="#0" id="circle104"/>
	<circle cx="210.517" cy="996" r="4" fill="#0" id="circle105"/>
	<circle cx="222.455" cy="21.9061" r="4" fill="#0" id="circle106"/>
	<circle cx="222.455" cy="996" r="4" fill="#0" id="circle107"/>
	<circle cx="233.199" cy="27.8748" r="4" fill="#0" id="circle108"/>
	<circle cx="234.392" cy="996" r="4" fill="#0" id="circle109"/>
	<circle cx="242.748" cy="36.231" r="4" fill="#0" id="circle110"/>
	<circle cx="246.33" cy="996" r="4" fill="#0" id="circle111"/>
	<circle cx="249.911" cy="45.781" r="4" fill="#0" id="circle112"/>
	<circle cx="249.911" cy="232.005" r="4" fill="#0" id="circle113"/>
	<circle cx="249.911" cy="870.657" r="4" fill="#0" id="circle114"/>
	<circle cx="249.911" cy="882.594" r="4" fill="#0" id="circle115"/>
	<circle cx="252.298" cy="894.532" r="4" fill="#0" id="circle116"/>
	<circle cx="255.88" cy="220.067" r="4" fill="#0" id="circle117"/>
	<circle cx="255.88" cy="242.748" r="4" fill="#0" id="circle118"/>
	<circle cx="255.88" cy="852.751" r="4" fill="#0" id="circle119"/>
	<circle cx="258.267" cy="996" r="4" fill="#0" id="circle120"/>
	<circle cx="259.461" cy="52.9434" r="4" fill="#0" id="circle121"/>
	<circle cx="261.848" cy="196.193" r="4" fill="#0" id="circle122"/>
	<circle cx="261.848" cy="208.13" r="4" fill="#0" id="circle123"/>
	<circle cx="261.848" cy="253.492" r="4" fill="#0" id="circle124"/>
	<circle cx="261.848" cy="834.845" r="4" fill="#0" id="circle125"/>
	<circle cx="261.848" cy="902.888" r="4" fill="#0" id="circle126"/>
	<circle cx="264.236" cy="64.8809" r="4" fill="#0" id="circle127"/>
	<circle cx="267.817" cy="136.505" r="4" fill="#0" id="circle128"/>
	<circle cx="267.817" cy="148.443" r="4" fill="#0" id="circle129"/>
	<circle cx="267.817" cy="184.255" r="4" fill="#0" id="circle130"/>
	<circle cx="267.817" cy="816.939" r="4" fill="#0" id="circle131"/>
	<circle cx="269.011" cy="990.031" r="4" fill="#0" id="circle132"/>
	<circle cx="270.205" cy="75.6245" r="4" fill="#0" id="circle133"/>
	<circle cx="270.205" cy="160.38" r="4" fill="#0" id="circle134"/>
	<circle cx="271.398" cy="261.848" r="4" fill="#0" id="circle135"/>
	<circle cx="271.398" cy="911.244" r="4" fill="#0" id="circle136"/>
	<circle cx="273.786" cy="87.562" r="4" fill="#0" id="circle137"/>
	<circle cx="273.786" cy="99.4994" r="4" fill="#0" id="circle138"/>
	<circle cx="273.786" cy="111.437" r="4" fill="#0" id="circle139"/>
	<circle cx="273.786" cy="123.374" r="4" fill="#0" id="circle140"/>
	<circle cx="273.786" cy="172.318" r="4" fill="#0" id="circle141"/>
	<circle cx="273.786" cy="769.189" r="4" fill="#0" id="circle142"/>
	<circle cx="273.786" cy="781.126" r="4" fill="#0" id="circle143"/>
	<circle cx="273.786" cy="793.064" r="4" fill="#0" id="circle144"/>
	<circle cx="273.786" cy="805.001" r="4" fill="#0" id="circle145"/>
	<circle cx="279.755" cy="271.398" r="4" fill="#0" id="circle146"/>
	<circle cx="279.755" cy="757.252" r="4" fill="#0" id="circle147"/>
	<circle cx="279.755" cy="984.063" r="4" fill="#0" id="circle148"/>
	<circle cx="282.142" cy="917.213" r="4" fill="#0" id="circle149"/>
	<circle cx="285.723" cy="282.142" r="4" fill="#0" id="circle150"/>
	<circle cx="285.723" cy="294.079" r="4" fill="#0" id="circle151"/>
	<circle cx="285.723" cy="306.017" r="4" fill="#0" id="circle152"/>
	<circle cx="285.723" cy="745.314" r="4" fill="#0" id="circle153"/>
	<circle cx="290.498" cy="317.954" r="4" fill="#0" id="circle154"/>
	<circle cx="291.692" cy="329.892" r="4" fill="#0" id="circle155"/>
	<circle cx="291.692" cy="369.285" r="4" fill="#0" id="circle156"/>
	<circle cx="291.692" cy="381.223" r="4" fill="#0" id="circle157"/>
	<circle cx="291.692" cy="673.69" r="4" fill="#0" id="circle158"/>
	<circle cx="291.692" cy="685.627" r="4" fill="#0" id="circle159"/>
	<circle cx="291.692" cy="697.564" r="4" fill="#0" id="circle160"/>
	<circle cx="291.692" cy="709.502" r="4" fill="#0" id="circle161"/>
	<circle cx="291.692" cy="721.439" r="4" fill="#0" id="circle162"/>
	<circle cx="291.692" cy="733.377" r="4" fill="#0" id="circle163"/>
	<circle cx="291.692" cy="978.094" r="4" fill="#0" id="circle164"/>
	<circle cx="292.886" cy="923.182" r="4" fill="#0" id="circle165"/>
	<circle cx="294.079" cy="393.16" r="4" fill="#0" id="circle166"/>
	<circle cx="297.661" cy="340.635" r="4" fill="#0" id="circle167"/>
	<circle cx="297.661" cy="352.573" r="4" fill="#0" id="circle168"/>
	<circle cx="300.048" cy="403.904" r="4" fill="#0" id="circle169"/>
	<circle cx="301.242" cy="665.333" r="4" fill="#0" id="circle170"/>
	<circle cx="303.629" cy="415.841" r="4" fill="#0" id="circle171"/>
	<circle cx="303.629" cy="929.15" r="4" fill="#0" id="circle172"/>
	<circle cx="303.629" cy="978.094" r="4" fill="#0" id="circle173"/>
	<circle cx="309.598" cy="426.585" r="4" fill="#0" id="circle174"/>
	<circle cx="309.598" cy="655.783" r="4" fill="#0" id="circle175"/>
	<circle cx="314.373" cy="935.119" r="4" fill="#0" id="circle176"/>
	<circle cx="315.567" cy="437.329" r="4" fill="#0" id="circle177"/>
	<circle cx="315.567" cy="449.266" r="4" fill="#0" id="circle178"/>
	<circle cx="315.567" cy="619.971" r="4" fill="#0" id="circle179"/>
	<circle cx="315.567" cy="978.094" r="4" fill="#0" id="circle180"/>
	<circle cx="319.148" cy="647.427" r="4" fill="#0" id="circle181"/>
	<circle cx="320.342" cy="461.203" r="4" fill="#0" id="circle182"/>
	<circle cx="321.535" cy="473.141" r="4" fill="#0" id="circle183"/>
	<circle cx="321.535" cy="630.715" r="4" fill="#0" id="circle184"/>
	<circle cx="325.117" cy="611.615" r="4" fill="#0" id="circle185"/>
	<circle cx="326.31" cy="937.507" r="4" fill="#0" id="circle186"/>
	<circle cx="327.504" cy="483.884" r="4" fill="#0" id="circle187"/>
	<circle cx="327.504" cy="972.125" r="4" fill="#0" id="circle188"/>
	<circle cx="331.085" cy="495.822" r="4" fill="#0" id="circle189"/>
	<circle cx="333.473" cy="507.759" r="4" fill="#0" id="circle190"/>
	<circle cx="333.473" cy="602.065" r="4" fill="#0" id="circle191"/>
	<circle cx="333.473" cy="947.057" r="4" fill="#0" id="circle192"/>
	<circle cx="337.054" cy="963.769" r="4" fill="#0" id="circle193"/>
	<circle cx="339.442" cy="518.503" r="4" fill="#0" id="circle194"/>
	<circle cx="339.442" cy="530.44" r="4" fill="#0" id="circle195"/>
	<circle cx="345.41" cy="541.184" r="4" fill="#0" id="circle196"/>
	<circle cx="345.41" cy="590.128" r="4" fill="#0" id="circle197"/>
	<circle cx="351.379" cy="551.928" r="4" fill="#0" id="circle198"/>
	<circle cx="351.379" cy="563.865" r="4" fill="#0" id="circle199"/>
	<circle cx="351.379" cy="575.803" r="4" fill="#0" id="circle200"/>
	</g>
</svg>