<?xml version="1.0" encoding="UTF-8" standalone="no"?>
<!-- Created with CurveBenchmark -->
<svg
	xmlns:dc="http://purl.org/dc/elements/1.1/"
	xmlns:cc="http://creativecommons.org/ns#"
	xmlns:rdf="http://www.w3.org/1999/02/22-rdf-syntax-ns#"
	xmlns:svg="http://www.w3.org/2000/svg"
	xmlns="http://www.w3.org/2000/svg"
	xmlns:sodipodi="http://sodipodi.sourceforge.net/DTD/sodipodi-0.dtd"
	xmlns:inkscape="http://www.inkscape.org/namespaces/inkscape"
	width="1000"
	height="1000"
	id="svg2"
	version="1.1"
	sodipodi:docname="manifold/gathan1-sink325.png.txt">
<defs
	id="defs4" />
<metadata
	id="metadata7">
	<rdf:RDF>
		<cc:Work
			rdf:about="">
			<dc:format>image/svg+xml</dc:format>
			<dc:type
				rdf:resource="http://purl.org/dc/dcmitype/StillImage" />
			<dc:title></dc:title>
		</cc:Work>
	</rdf:RDF>
</metadata>
<g
	inkscape:label="Layer 1"
	inkscape:groupmode="layer"
	id="layer1">
	<path style="fill:none;stroke:red;stroke-width:1px;stroke-linecap:butt;stroke-linejoin:miter;stroke-opacity:1" d="M 13.7734,160.374 13.7734,209.241 z" id="boundary" inkscape:connector-curvature="0" />
	<path style="fill:none;stroke:red;stroke-width:1px;stroke-linecap:butt;stroke-linejoin:miter;stroke-opacity:1" d="M 13.7734,209.241 4,297.202 z" id="boundary" inkscape:connector-curvature="0" />
	<path style="fill:none;stroke:red;stroke-width:1px;stroke-linecap:butt;stroke-linejoin:miter;stroke-opacity:1" d="M 13.7734,160.374 62.6404,160.374 z" id="boundary" inkscape:connector-curvature="0" />
	<path style="fill:none;stroke:red;stroke-width:1px;stroke-linecap:butt;stroke-linejoin:miter;stroke-opacity:1" d="M 62.6404,160.374 111.507,160.374 z" id="boundary" inkscape:connector-curvature="0" />
	<path style="fill:none;stroke:red;stroke-width:1px;stroke-linecap:butt;stroke-linejoin:miter;stroke-opacity:1" d="M 4,297.202 52.867,311.862 z" id="boundary" inkscape:connector-curvature="0" />
	<path style="fill:none;stroke:red;stroke-width:1px;stroke-linecap:butt;stroke-linejoin:miter;stroke-opacity:1" d="M 101.734,311.862 150.601,311.862 z" id="boundary" inkscape:connector-curvature="0" />
	<path style="fill:none;stroke:red;stroke-width:1px;stroke-linecap:butt;stroke-linejoin:miter;stroke-opacity:1" d="M 150.601,311.862 189.695,341.182 z" id="boundary" inkscape:connector-curvature="0" />
	<path style="fill:none;stroke:red;stroke-width:1px;stroke-linecap:butt;stroke-linejoin:miter;stroke-opacity:1" d="M 101.734,311.862 52.867,311.862 z" id="boundary" inkscape:connector-curvature="0" />
	<path style="fill:none;stroke:red;stroke-width:1px;stroke-linecap:butt;stroke-linejoin:miter;stroke-opacity:1" d="M 111.507,160.374 160.374,160.374 z" id="boundary" inkscape:connector-curvature="0" />
	<path style="fill:none;stroke:red;stroke-width:1px;stroke-linecap:butt;stroke-linejoin:miter;stroke-opacity:1" d="M 326.522,43.0936 326.522,91.9606 z" id="boundary" inkscape:connector-curvature="0" />
	<path style="fill:none;stroke:red;stroke-width:1px;stroke-linecap:butt;stroke-linejoin:miter;stroke-opacity:1" d="M 326.522,43.0936 355.842,4 z" id="boundary" inkscape:connector-curvature="0" />
	<path style="fill:none;stroke:red;stroke-width:1px;stroke-linecap:butt;stroke-linejoin:miter;stroke-opacity:1" d="M 355.842,4 390.049,43.0936 z" id="boundary" inkscape:connector-curvature="0" />
	<path style="fill:none;stroke:red;stroke-width:1px;stroke-linecap:butt;stroke-linejoin:miter;stroke-opacity:1" d="M 160.374,160.374 209.241,160.374 z" id="boundary" inkscape:connector-curvature="0" />
	<path style="fill:none;stroke:red;stroke-width:1px;stroke-linecap:butt;stroke-linejoin:miter;stroke-opacity:1" d="M 209.241,160.374 258.108,160.374 z" id="boundary" inkscape:connector-curvature="0" />
	<path style="fill:none;stroke:red;stroke-width:1px;stroke-linecap:butt;stroke-linejoin:miter;stroke-opacity:1" d="M 306.975,160.374 258.108,160.374 z" id="boundary" inkscape:connector-curvature="0" />
	<path style="fill:none;stroke:red;stroke-width:1px;stroke-linecap:butt;stroke-linejoin:miter;stroke-opacity:1" d="M 219.015,380.276 189.695,341.182 z" id="boundary" inkscape:connector-curvature="0" />
	<path style="fill:none;stroke:red;stroke-width:1px;stroke-linecap:butt;stroke-linejoin:miter;stroke-opacity:1" d="M 219.015,380.276 258.108,409.596 z" id="boundary" inkscape:connector-curvature="0" />
	<path style="fill:none;stroke:red;stroke-width:1px;stroke-linecap:butt;stroke-linejoin:miter;stroke-opacity:1" d="M 346.069,448.69 297.202,438.916 z" id="boundary" inkscape:connector-curvature="0" />
	<path style="fill:none;stroke:red;stroke-width:1px;stroke-linecap:butt;stroke-linejoin:miter;stroke-opacity:1" d="M 297.202,438.916 258.108,409.596 z" id="boundary" inkscape:connector-curvature="0" />
	<path style="fill:none;stroke:red;stroke-width:1px;stroke-linecap:butt;stroke-linejoin:miter;stroke-opacity:1" d="M 390.049,996 341.182,996 z" id="boundary" inkscape:connector-curvature="0" />
	<path style="fill:none;stroke:red;stroke-width:1px;stroke-linecap:butt;stroke-linejoin:miter;stroke-opacity:1" d="M 341.182,996 316.749,952.02 z" id="boundary" inkscape:connector-curvature="0" />
	<path style="fill:none;stroke:red;stroke-width:1px;stroke-linecap:butt;stroke-linejoin:miter;stroke-opacity:1" d="M 346.069,903.153 316.749,952.02 z" id="boundary" inkscape:connector-curvature="0" />
	<path style="fill:none;stroke:red;stroke-width:1px;stroke-linecap:butt;stroke-linejoin:miter;stroke-opacity:1" d="M 346.069,448.69 365.616,497.557 z" id="boundary" inkscape:connector-curvature="0" />
	<path style="fill:none;stroke:red;stroke-width:1px;stroke-linecap:butt;stroke-linejoin:miter;stroke-opacity:1" d="M 365.616,497.557 365.616,546.424 z" id="boundary" inkscape:connector-curvature="0" />
	<path style="fill:none;stroke:red;stroke-width:1px;stroke-linecap:butt;stroke-linejoin:miter;stroke-opacity:1" d="M 365.616,595.291 365.616,644.158 z" id="boundary" inkscape:connector-curvature="0" />
	<path style="fill:none;stroke:red;stroke-width:1px;stroke-linecap:butt;stroke-linejoin:miter;stroke-opacity:1" d="M 365.616,595.291 365.616,546.424 z" id="boundary" inkscape:connector-curvature="0" />
	<path style="fill:none;stroke:red;stroke-width:1px;stroke-linecap:butt;stroke-linejoin:miter;stroke-opacity:1" d="M 365.616,693.025 365.616,741.892 z" id="boundary" inkscape:connector-curvature="0" />
	<path style="fill:none;stroke:red;stroke-width:1px;stroke-linecap:butt;stroke-linejoin:miter;stroke-opacity:1" d="M 365.616,790.759 365.616,839.626 z" id="boundary" inkscape:connector-curvature="0" />
	<path style="fill:none;stroke:red;stroke-width:1px;stroke-linecap:butt;stroke-linejoin:miter;stroke-opacity:1" d="M 365.616,839.626 346.069,903.153 z" id="boundary" inkscape:connector-curvature="0" />
	<path style="fill:none;stroke:red;stroke-width:1px;stroke-linecap:butt;stroke-linejoin:miter;stroke-opacity:1" d="M 365.616,790.759 365.616,741.892 z" id="boundary" inkscape:connector-curvature="0" />
	<path style="fill:none;stroke:red;stroke-width:1px;stroke-linecap:butt;stroke-linejoin:miter;stroke-opacity:1" d="M 365.616,693.025 365.616,644.158 z" id="boundary" inkscape:connector-curvature="0" />
	<path style="fill:none;stroke:red;stroke-width:1px;stroke-linecap:butt;stroke-linejoin:miter;stroke-opacity:1" d="M 360.729,131.054 399.823,160.374 z" id="boundary" inkscape:connector-curvature="0" />
	<path style="fill:none;stroke:red;stroke-width:1px;stroke-linecap:butt;stroke-linejoin:miter;stroke-opacity:1" d="M 399.823,160.374 448.69,160.374 z" id="boundary" inkscape:connector-curvature="0" />
	<path style="fill:none;stroke:red;stroke-width:1px;stroke-linecap:butt;stroke-linejoin:miter;stroke-opacity:1" d="M 448.69,160.374 497.557,160.374 z" id="boundary" inkscape:connector-curvature="0" />
	<path style="fill:none;stroke:red;stroke-width:1px;stroke-linecap:butt;stroke-linejoin:miter;stroke-opacity:1" d="M 546.424,160.374 497.557,160.374 z" id="boundary" inkscape:connector-curvature="0" />
	<path style="fill:none;stroke:red;stroke-width:1px;stroke-linecap:butt;stroke-linejoin:miter;stroke-opacity:1" d="M 658.818,331.409 629.498,370.502 z" id="boundary" inkscape:connector-curvature="0" />
	<path style="fill:none;stroke:red;stroke-width:1px;stroke-linecap:butt;stroke-linejoin:miter;stroke-opacity:1" d="M 595.291,160.374 546.424,160.374 z" id="boundary" inkscape:connector-curvature="0" />
	<path style="fill:none;stroke:red;stroke-width:1px;stroke-linecap:butt;stroke-linejoin:miter;stroke-opacity:1" d="M 595.291,160.374 644.158,160.374 z" id="boundary" inkscape:connector-curvature="0" />
	<path style="fill:none;stroke:red;stroke-width:1px;stroke-linecap:butt;stroke-linejoin:miter;stroke-opacity:1" d="M 693.025,160.374 644.158,160.374 z" id="boundary" inkscape:connector-curvature="0" />
	<path style="fill:none;stroke:red;stroke-width:1px;stroke-linecap:butt;stroke-linejoin:miter;stroke-opacity:1" d="M 629.498,370.502 590.404,409.596 z" id="boundary" inkscape:connector-curvature="0" />
	<path style="fill:none;stroke:red;stroke-width:1px;stroke-linecap:butt;stroke-linejoin:miter;stroke-opacity:1" d="M 697.911,209.241 693.025,160.374 z" id="boundary" inkscape:connector-curvature="0" />
	<path style="fill:none;stroke:red;stroke-width:1px;stroke-linecap:butt;stroke-linejoin:miter;stroke-opacity:1" d="M 717.458,258.108 697.911,209.241 z" id="boundary" inkscape:connector-curvature="0" />
	<path style="fill:none;stroke:red;stroke-width:1px;stroke-linecap:butt;stroke-linejoin:miter;stroke-opacity:1" d="M 707.685,311.862 756.552,311.862 z" id="boundary" inkscape:connector-curvature="0" />
	<path style="fill:none;stroke:red;stroke-width:1px;stroke-linecap:butt;stroke-linejoin:miter;stroke-opacity:1" d="M 707.685,311.862 658.818,331.409 z" id="boundary" inkscape:connector-curvature="0" />
	<path style="fill:none;stroke:red;stroke-width:1px;stroke-linecap:butt;stroke-linejoin:miter;stroke-opacity:1" d="M 756.552,311.862 805.419,311.862 z" id="boundary" inkscape:connector-curvature="0" />
	<path style="fill:none;stroke:red;stroke-width:1px;stroke-linecap:butt;stroke-linejoin:miter;stroke-opacity:1" d="M 766.325,258.108 805.419,311.862 z" id="boundary" inkscape:connector-curvature="0" />
	<path style="fill:none;stroke:red;stroke-width:1px;stroke-linecap:butt;stroke-linejoin:miter;stroke-opacity:1" d="M 546.424,482.897 546.424,531.764 z" id="boundary" inkscape:connector-curvature="0" />
	<path style="fill:none;stroke:red;stroke-width:1px;stroke-linecap:butt;stroke-linejoin:miter;stroke-opacity:1" d="M 546.424,482.897 546.424,434.03 z" id="boundary" inkscape:connector-curvature="0" />
	<path style="fill:none;stroke:red;stroke-width:1px;stroke-linecap:butt;stroke-linejoin:miter;stroke-opacity:1" d="M 546.424,434.03 590.404,409.596 z" id="boundary" inkscape:connector-curvature="0" />
	<path style="fill:none;stroke:red;stroke-width:1px;stroke-linecap:butt;stroke-linejoin:miter;stroke-opacity:1" d="M 546.424,580.631 546.424,629.498 z" id="boundary" inkscape:connector-curvature="0" />
	<path style="fill:none;stroke:red;stroke-width:1px;stroke-linecap:butt;stroke-linejoin:miter;stroke-opacity:1" d="M 546.424,531.764 546.424,580.631 z" id="boundary" inkscape:connector-curvature="0" />
	<path style="fill:none;stroke:red;stroke-width:1px;stroke-linecap:butt;stroke-linejoin:miter;stroke-opacity:1" d="M 438.916,996 390.049,996 z" id="boundary" inkscape:connector-curvature="0" />
	<path style="fill:none;stroke:red;stroke-width:1px;stroke-linecap:butt;stroke-linejoin:miter;stroke-opacity:1" d="M 536.65,996 487.783,996 z" id="boundary" inkscape:connector-curvature="0" />
	<path style="fill:none;stroke:red;stroke-width:1px;stroke-linecap:butt;stroke-linejoin:miter;stroke-opacity:1" d="M 487.783,996 438.916,996 z" id="boundary" inkscape:connector-curvature="0" />
	<path style="fill:none;stroke:red;stroke-width:1px;stroke-linecap:butt;stroke-linejoin:miter;stroke-opacity:1" d="M 546.424,629.498 546.424,678.365 z" id="boundary" inkscape:connector-curvature="0" />
	<path style="fill:none;stroke:red;stroke-width:1px;stroke-linecap:butt;stroke-linejoin:miter;stroke-opacity:1" d="M 546.424,678.365 546.424,727.232 z" id="boundary" inkscape:connector-curvature="0" />
	<path style="fill:none;stroke:red;stroke-width:1px;stroke-linecap:butt;stroke-linejoin:miter;stroke-opacity:1" d="M 546.424,727.232 546.424,776.099 z" id="boundary" inkscape:connector-curvature="0" />
	<path style="fill:none;stroke:red;stroke-width:1px;stroke-linecap:butt;stroke-linejoin:miter;stroke-opacity:1" d="M 546.424,824.966 546.424,873.833 z" id="boundary" inkscape:connector-curvature="0" />
	<path style="fill:none;stroke:red;stroke-width:1px;stroke-linecap:butt;stroke-linejoin:miter;stroke-opacity:1" d="M 546.424,824.966 546.424,776.099 z" id="boundary" inkscape:connector-curvature="0" />
	<path style="fill:none;stroke:red;stroke-width:1px;stroke-linecap:butt;stroke-linejoin:miter;stroke-opacity:1" d="M 565.97,922.7 585.517,996 z" id="boundary" inkscape:connector-curvature="0" />
	<path style="fill:none;stroke:red;stroke-width:1px;stroke-linecap:butt;stroke-linejoin:miter;stroke-opacity:1" d="M 585.517,996 536.65,996 z" id="boundary" inkscape:connector-curvature="0" />
	<path style="fill:none;stroke:red;stroke-width:1px;stroke-linecap:butt;stroke-linejoin:miter;stroke-opacity:1" d="M 565.97,922.7 546.424,873.833 z" id="boundary" inkscape:connector-curvature="0" />
	<circle cx="4" cy="297.202" r="4" fill="#0" id="circle0"/>
	<circle cx="13.7734" cy="160.374" r="4" fill="#0" id="circle1"/>
	<circle cx="13.7734" cy="209.241" r="4" fill="#0" id="circle2"/>
	<circle cx="52.867" cy="311.862" r="4" fill="#0" id="circle3"/>
	<circle cx="62.6404" cy="160.374" r="4" fill="#0" id="circle4"/>
	<circle cx="101.734" cy="311.862" r="4" fill="#0" id="circle5"/>
	<circle cx="111.507" cy="160.374" r="4" fill="#0" id="circle6"/>
	<circle cx="150.601" cy="311.862" r="4" fill="#0" id="circle7"/>
	<circle cx="160.374" cy="160.374" r="4" fill="#0" id="circle8"/>
	<circle cx="189.695" cy="341.182" r="4" fill="#0" id="circle9"/>
	<circle cx="209.241" cy="160.374" r="4" fill="#0" id="circle10"/>
	<circle cx="219.015" cy="380.276" r="4" fill="#0" id="circle11"/>
	<circle cx="258.108" cy="160.374" r="4" fill="#0" id="circle12"/>
	<circle cx="258.108" cy="409.596" r="4" fill="#0" id="circle13"/>
	<circle cx="297.202" cy="438.916" r="4" fill="#0" id="circle14"/>
	<circle cx="306.975" cy="160.374" r="4" fill="#0" id="circle15"/>
	<circle cx="316.749" cy="952.02" r="4" fill="#0" id="circle16"/>
	<circle cx="326.522" cy="43.0936" r="4" fill="#0" id="circle17"/>
	<circle cx="326.522" cy="91.9606" r="4" fill="#0" id="circle18"/>
	<circle cx="341.182" cy="996" r="4" fill="#0" id="circle19"/>
	<circle cx="346.069" cy="448.69" r="4" fill="#0" id="circle20"/>
	<circle cx="346.069" cy="903.153" r="4" fill="#0" id="circle21"/>
	<circle cx="355.842" cy="4" r="4" fill="#0" id="circle22"/>
	<circle cx="360.729" cy="131.054" r="4" fill="#0" id="circle23"/>
	<circle cx="365.616" cy="497.557" r="4" fill="#0" id="circle24"/>
	<circle cx="365.616" cy="546.424" r="4" fill="#0" id="circle25"/>
	<circle cx="365.616" cy="595.291" r="4" fill="#0" id="circle26"/>
	<circle cx="365.616" cy="644.158" r="4" fill="#0" id="circle27"/>
	<circle cx="365.616" cy="693.025" r="4" fill="#0" id="circle28"/>
	<circle cx="365.616" cy="741.892" r="4" fill="#0" id="circle29"/>
	<circle cx="365.616" cy="790.759" r="4" fill="#0" id="circle30"/>
	<circle cx="365.616" cy="839.626" r="4" fill="#0" id="circle31"/>
	<circle cx="390.049" cy="43.0936" r="4" fill="#0" id="circle32"/>
	<circle cx="390.049" cy="996" r="4" fill="#0" id="circle33"/>
	<circle cx="399.823" cy="160.374" r="4" fill="#0" id="circle34"/>
	<circle cx="438.916" cy="996" r="4" fill="#0" id="circle35"/>
	<circle cx="448.69" cy="160.374" r="4" fill="#0" id="circle36"/>
	<circle cx="487.783" cy="996" r="4" fill="#0" id="circle37"/>
	<circle cx="497.557" cy="160.374" r="4" fill="#0" id="circle38"/>
	<circle cx="536.65" cy="996" r="4" fill="#0" id="circle39"/>
	<circle cx="546.424" cy="160.374" r="4" fill="#0" id="circle40"/>
	<circle cx="546.424" cy="434.03" r="4" fill="#0" id="circle41"/>
	<circle cx="546.424" cy="482.897" r="4" fill="#0" id="circle42"/>
	<circle cx="546.424" cy="531.764" r="4" fill="#0" id="circle43"/>
	<circle cx="546.424" cy="580.631" r="4" fill="#0" id="circle44"/>
	<circle cx="546.424" cy="629.498" r="4" fill="#0" id="circle45"/>
	<circle cx="546.424" cy="678.365" r="4" fill="#0" id="circle46"/>
	<circle cx="546.424" cy="727.232" r="4" fill="#0" id="circle47"/>
	<circle cx="546.424" cy="776.099" r="4" fill="#0" id="circle48"/>
	<circle cx="546.424" cy="824.966" r="4" fill="#0" id="circle49"/>
	<circle cx="546.424" cy="873.833" r="4" fill="#0" id="circle50"/>
	<circle cx="565.97" cy="922.7" r="4" fill="#0" id="circle51"/>
	<circle cx="585.517" cy="996" r="4" fill="#0" id="circle52"/>
	<circle cx="590.404" cy="409.596" r="4" fill="#0" id="circle53"/>
	<circle cx="595.291" cy="160.374" r="4" fill="#0" id="circle54"/>
	<circle cx="629.498" cy="370.502" r="4" fill="#0" id="circle55"/>
	<circle cx="644.158" cy="160.374" r="4" fill="#0" id="circle56"/>
	<circle cx="658.818" cy="331.409" r="4" fill="#0" id="circle57"/>
	<circle cx="693.025" cy="160.374" r="4" fill="#0" id="circle58"/>
	<circle cx="697.911" cy="209.241" r="4" fill="#0" id="circle59"/>
	<circle cx="707.685" cy="311.862" r="4" fill="#0" id="circle60"/>
	<circle cx="717.458" cy="258.108" r="4" fill="#0" id="circle61"/>
	<circle cx="756.552" cy="311.862" r="4" fill="#0" id="circle62"/>
	<circle cx="766.325" cy="258.108" r="4" fill="#0" id="circle63"/>
	<circle cx="805.419" cy="311.862" r="4" fill="#0" id="circle64"/>
	</g>
</svg>