<?xml version="1.0" encoding="UTF-8" standalone="no"?>
<!-- Created with CurveBenchmark -->
<svg
	xmlns:dc="http://purl.org/dc/elements/1.1/"
	xmlns:cc="http://creativecommons.org/ns#"
	xmlns:rdf="http://www.w3.org/1999/02/22-rdf-syntax-ns#"
	xmlns:svg="http://www.w3.org/2000/svg"
	xmlns="http://www.w3.org/2000/svg"
	xmlns:sodipodi="http://sodipodi.sourceforge.net/DTD/sodipodi-0.dtd"
	xmlns:inkscape="http://www.inkscape.org/namespaces/inkscape"
	width="1000"
	height="1000"
	id="svg2"
	version="1.1"
	sodipodi:docname="manifold/gathan1-fork17.png.txt">
<defs
	id="defs4" />
<metadata
	id="metadata7">
	<rdf:RDF>
		<cc:Work
			rdf:about="">
			<dc:format>image/svg+xml</dc:format>
			<dc:type
				rdf:resource="http://purl.org/dc/dcmitype/StillImage" />
			<dc:title></dc:title>
		</cc:Work>
	</rdf:RDF>
</metadata>
<g
	inkscape:label="Layer 1"
	inkscape:groupmode="layer"
	id="layer1">
	<path style="fill:none;stroke:red;stroke-width:1px;stroke-linecap:butt;stroke-linejoin:miter;stroke-opacity:1" d="M 19.7211,27.5816 35.4422,27.5816 z" id="boundary" inkscape:connector-curvature="0" />
	<path style="fill:none;stroke:red;stroke-width:1px;stroke-linecap:butt;stroke-linejoin:miter;stroke-opacity:1" d="M 51.1632,27.5816 35.4422,27.5816 z" id="boundary" inkscape:connector-curvature="0" />
	<path style="fill:none;stroke:red;stroke-width:1px;stroke-linecap:butt;stroke-linejoin:miter;stroke-opacity:1" d="M 66.8843,24.4374 51.1632,27.5816 z" id="boundary" inkscape:connector-curvature="0" />
	<path style="fill:none;stroke:red;stroke-width:1px;stroke-linecap:butt;stroke-linejoin:miter;stroke-opacity:1" d="M 4,32.2979 13.4326,44.8748 z" id="boundary" inkscape:connector-curvature="0" />
	<path style="fill:none;stroke:red;stroke-width:1px;stroke-linecap:butt;stroke-linejoin:miter;stroke-opacity:1" d="M 4,32.2979 19.7211,27.5816 z" id="boundary" inkscape:connector-curvature="0" />
	<path style="fill:none;stroke:red;stroke-width:1px;stroke-linecap:butt;stroke-linejoin:miter;stroke-opacity:1" d="M 29.1537,44.8748 44.8748,44.8748 z" id="boundary" inkscape:connector-curvature="0" />
	<path style="fill:none;stroke:red;stroke-width:1px;stroke-linecap:butt;stroke-linejoin:miter;stroke-opacity:1" d="M 29.1537,44.8748 13.4326,44.8748 z" id="boundary" inkscape:connector-curvature="0" />
	<path style="fill:none;stroke:red;stroke-width:1px;stroke-linecap:butt;stroke-linejoin:miter;stroke-opacity:1" d="M 60.5959,44.8748 44.8748,44.8748 z" id="boundary" inkscape:connector-curvature="0" />
	<path style="fill:none;stroke:red;stroke-width:1px;stroke-linecap:butt;stroke-linejoin:miter;stroke-opacity:1" d="M 66.8843,24.4374 82.6054,19.7211 z" id="boundary" inkscape:connector-curvature="0" />
	<path style="fill:none;stroke:red;stroke-width:1px;stroke-linecap:butt;stroke-linejoin:miter;stroke-opacity:1" d="M 82.6054,19.7211 98.3265,19.7211 z" id="boundary" inkscape:connector-curvature="0" />
	<path style="fill:none;stroke:red;stroke-width:1px;stroke-linecap:butt;stroke-linejoin:miter;stroke-opacity:1" d="M 114.048,19.7211 98.3265,19.7211 z" id="boundary" inkscape:connector-curvature="0" />
	<path style="fill:none;stroke:red;stroke-width:1px;stroke-linecap:butt;stroke-linejoin:miter;stroke-opacity:1" d="M 60.5959,44.8748 76.317,44.8748 z" id="boundary" inkscape:connector-curvature="0" />
	<path style="fill:none;stroke:red;stroke-width:1px;stroke-linecap:butt;stroke-linejoin:miter;stroke-opacity:1" d="M 92.038,44.8748 107.759,44.8748 z" id="boundary" inkscape:connector-curvature="0" />
	<path style="fill:none;stroke:red;stroke-width:1px;stroke-linecap:butt;stroke-linejoin:miter;stroke-opacity:1" d="M 92.038,44.8748 76.317,44.8748 z" id="boundary" inkscape:connector-curvature="0" />
	<path style="fill:none;stroke:red;stroke-width:1px;stroke-linecap:butt;stroke-linejoin:miter;stroke-opacity:1" d="M 107.759,44.8748 123.48,44.8748 z" id="boundary" inkscape:connector-curvature="0" />
	<path style="fill:none;stroke:red;stroke-width:1px;stroke-linecap:butt;stroke-linejoin:miter;stroke-opacity:1" d="M 27.5816,90.4659 43.3027,90.4659 z" id="boundary" inkscape:connector-curvature="0" />
	<path style="fill:none;stroke:red;stroke-width:1px;stroke-linecap:butt;stroke-linejoin:miter;stroke-opacity:1" d="M 59.0238,90.4659 43.3027,90.4659 z" id="boundary" inkscape:connector-curvature="0" />
	<path style="fill:none;stroke:red;stroke-width:1px;stroke-linecap:butt;stroke-linejoin:miter;stroke-opacity:1" d="M 11.8605,95.1823 11.8605,110.903 z" id="boundary" inkscape:connector-curvature="0" />
	<path style="fill:none;stroke:red;stroke-width:1px;stroke-linecap:butt;stroke-linejoin:miter;stroke-opacity:1" d="M 27.5816,115.62 11.8605,110.903 z" id="boundary" inkscape:connector-curvature="0" />
	<path style="fill:none;stroke:red;stroke-width:1px;stroke-linecap:butt;stroke-linejoin:miter;stroke-opacity:1" d="M 11.8605,95.1823 27.5816,90.4659 z" id="boundary" inkscape:connector-curvature="0" />
	<path style="fill:none;stroke:red;stroke-width:1px;stroke-linecap:butt;stroke-linejoin:miter;stroke-opacity:1" d="M 43.3027,115.62 27.5816,115.62 z" id="boundary" inkscape:connector-curvature="0" />
	<path style="fill:none;stroke:red;stroke-width:1px;stroke-linecap:butt;stroke-linejoin:miter;stroke-opacity:1" d="M 74.7448,90.4659 90.4659,87.3217 z" id="boundary" inkscape:connector-curvature="0" />
	<path style="fill:none;stroke:red;stroke-width:1px;stroke-linecap:butt;stroke-linejoin:miter;stroke-opacity:1" d="M 74.7448,90.4659 59.0238,90.4659 z" id="boundary" inkscape:connector-curvature="0" />
	<path style="fill:none;stroke:red;stroke-width:1px;stroke-linecap:butt;stroke-linejoin:miter;stroke-opacity:1" d="M 90.4659,87.3217 106.187,82.6054 z" id="boundary" inkscape:connector-curvature="0" />
	<path style="fill:none;stroke:red;stroke-width:1px;stroke-linecap:butt;stroke-linejoin:miter;stroke-opacity:1" d="M 121.908,82.6054 106.187,82.6054 z" id="boundary" inkscape:connector-curvature="0" />
	<path style="fill:none;stroke:red;stroke-width:1px;stroke-linecap:butt;stroke-linejoin:miter;stroke-opacity:1" d="M 88.8938,107.759 104.615,107.759 z" id="boundary" inkscape:connector-curvature="0" />
	<path style="fill:none;stroke:red;stroke-width:1px;stroke-linecap:butt;stroke-linejoin:miter;stroke-opacity:1" d="M 145.49,19.7211 129.769,19.7211 z" id="boundary" inkscape:connector-curvature="0" />
	<path style="fill:none;stroke:red;stroke-width:1px;stroke-linecap:butt;stroke-linejoin:miter;stroke-opacity:1" d="M 159.639,11.8605 145.49,19.7211 z" id="boundary" inkscape:connector-curvature="0" />
	<path style="fill:none;stroke:red;stroke-width:1px;stroke-linecap:butt;stroke-linejoin:miter;stroke-opacity:1" d="M 129.769,19.7211 114.048,19.7211 z" id="boundary" inkscape:connector-curvature="0" />
	<path style="fill:none;stroke:red;stroke-width:1px;stroke-linecap:butt;stroke-linejoin:miter;stroke-opacity:1" d="M 175.36,11.8605 159.639,11.8605 z" id="boundary" inkscape:connector-curvature="0" />
	<path style="fill:none;stroke:red;stroke-width:1px;stroke-linecap:butt;stroke-linejoin:miter;stroke-opacity:1" d="M 139.201,44.8748 123.48,44.8748 z" id="boundary" inkscape:connector-curvature="0" />
	<path style="fill:none;stroke:red;stroke-width:1px;stroke-linecap:butt;stroke-linejoin:miter;stroke-opacity:1" d="M 154.922,37.0143 139.201,44.8748 z" id="boundary" inkscape:connector-curvature="0" />
	<path style="fill:none;stroke:red;stroke-width:1px;stroke-linecap:butt;stroke-linejoin:miter;stroke-opacity:1" d="M 170.643,37.0143 154.922,37.0143 z" id="boundary" inkscape:connector-curvature="0" />
	<path style="fill:none;stroke:red;stroke-width:1px;stroke-linecap:butt;stroke-linejoin:miter;stroke-opacity:1" d="M 186.365,37.0143 170.643,37.0143 z" id="boundary" inkscape:connector-curvature="0" />
	<path style="fill:none;stroke:red;stroke-width:1px;stroke-linecap:butt;stroke-linejoin:miter;stroke-opacity:1" d="M 191.081,11.8605 206.802,11.8605 z" id="boundary" inkscape:connector-curvature="0" />
	<path style="fill:none;stroke:red;stroke-width:1px;stroke-linecap:butt;stroke-linejoin:miter;stroke-opacity:1" d="M 222.523,11.8605 236.672,4 z" id="boundary" inkscape:connector-curvature="0" />
	<path style="fill:none;stroke:red;stroke-width:1px;stroke-linecap:butt;stroke-linejoin:miter;stroke-opacity:1" d="M 222.523,11.8605 206.802,11.8605 z" id="boundary" inkscape:connector-curvature="0" />
	<path style="fill:none;stroke:red;stroke-width:1px;stroke-linecap:butt;stroke-linejoin:miter;stroke-opacity:1" d="M 191.081,11.8605 175.36,11.8605 z" id="boundary" inkscape:connector-curvature="0" />
	<path style="fill:none;stroke:red;stroke-width:1px;stroke-linecap:butt;stroke-linejoin:miter;stroke-opacity:1" d="M 202.086,37.0143 186.365,37.0143 z" id="boundary" inkscape:connector-curvature="0" />
	<path style="fill:none;stroke:red;stroke-width:1px;stroke-linecap:butt;stroke-linejoin:miter;stroke-opacity:1" d="M 202.086,37.0143 217.807,29.1537 z" id="boundary" inkscape:connector-curvature="0" />
	<path style="fill:none;stroke:red;stroke-width:1px;stroke-linecap:butt;stroke-linejoin:miter;stroke-opacity:1" d="M 233.528,29.1537 217.807,29.1537 z" id="boundary" inkscape:connector-curvature="0" />
	<path style="fill:none;stroke:red;stroke-width:1px;stroke-linecap:butt;stroke-linejoin:miter;stroke-opacity:1" d="M 246.105,66.8843 231.956,74.7448 z" id="boundary" inkscape:connector-curvature="0" />
	<path style="fill:none;stroke:red;stroke-width:1px;stroke-linecap:butt;stroke-linejoin:miter;stroke-opacity:1" d="M 169.071,74.7448 153.35,79.4612 z" id="boundary" inkscape:connector-curvature="0" />
	<path style="fill:none;stroke:red;stroke-width:1px;stroke-linecap:butt;stroke-linejoin:miter;stroke-opacity:1" d="M 153.35,79.4612 137.629,82.6054 z" id="boundary" inkscape:connector-curvature="0" />
	<path style="fill:none;stroke:red;stroke-width:1px;stroke-linecap:butt;stroke-linejoin:miter;stroke-opacity:1" d="M 121.908,82.6054 137.629,82.6054 z" id="boundary" inkscape:connector-curvature="0" />
	<path style="fill:none;stroke:red;stroke-width:1px;stroke-linecap:butt;stroke-linejoin:miter;stroke-opacity:1" d="M 184.792,74.7448 200.513,74.7448 z" id="boundary" inkscape:connector-curvature="0" />
	<path style="fill:none;stroke:red;stroke-width:1px;stroke-linecap:butt;stroke-linejoin:miter;stroke-opacity:1" d="M 184.792,74.7448 169.071,74.7448 z" id="boundary" inkscape:connector-curvature="0" />
	<path style="fill:none;stroke:red;stroke-width:1px;stroke-linecap:butt;stroke-linejoin:miter;stroke-opacity:1" d="M 216.235,74.7448 231.956,74.7448 z" id="boundary" inkscape:connector-curvature="0" />
	<path style="fill:none;stroke:red;stroke-width:1px;stroke-linecap:butt;stroke-linejoin:miter;stroke-opacity:1" d="M 216.235,74.7448 200.513,74.7448 z" id="boundary" inkscape:connector-curvature="0" />
	<path style="fill:none;stroke:red;stroke-width:1px;stroke-linecap:butt;stroke-linejoin:miter;stroke-opacity:1" d="M 244.532,121.908 228.811,121.908 z" id="boundary" inkscape:connector-curvature="0" />
	<path style="fill:none;stroke:red;stroke-width:1px;stroke-linecap:butt;stroke-linejoin:miter;stroke-opacity:1" d="M 59.0238,137.629 43.3027,137.629 z" id="boundary" inkscape:connector-curvature="0" />
	<path style="fill:none;stroke:red;stroke-width:1px;stroke-linecap:butt;stroke-linejoin:miter;stroke-opacity:1" d="M 11.8605,150.206 11.8605,165.927 z" id="boundary" inkscape:connector-curvature="0" />
	<path style="fill:none;stroke:red;stroke-width:1px;stroke-linecap:butt;stroke-linejoin:miter;stroke-opacity:1" d="M 11.8605,150.206 27.5816,142.345 z" id="boundary" inkscape:connector-curvature="0" />
	<path style="fill:none;stroke:red;stroke-width:1px;stroke-linecap:butt;stroke-linejoin:miter;stroke-opacity:1" d="M 59.0238,162.783 43.3027,162.783 z" id="boundary" inkscape:connector-curvature="0" />
	<path style="fill:none;stroke:red;stroke-width:1px;stroke-linecap:butt;stroke-linejoin:miter;stroke-opacity:1" d="M 74.7448,137.629 90.4659,137.629 z" id="boundary" inkscape:connector-curvature="0" />
	<path style="fill:none;stroke:red;stroke-width:1px;stroke-linecap:butt;stroke-linejoin:miter;stroke-opacity:1" d="M 74.7448,137.629 59.0238,137.629 z" id="boundary" inkscape:connector-curvature="0" />
	<path style="fill:none;stroke:red;stroke-width:1px;stroke-linecap:butt;stroke-linejoin:miter;stroke-opacity:1" d="M 35.4422,192.653 19.7211,197.369 z" id="boundary" inkscape:connector-curvature="0" />
	<path style="fill:none;stroke:red;stroke-width:1px;stroke-linecap:butt;stroke-linejoin:miter;stroke-opacity:1" d="M 19.7211,197.369 19.7211,213.09 z" id="boundary" inkscape:connector-curvature="0" />
	<path style="fill:none;stroke:red;stroke-width:1px;stroke-linecap:butt;stroke-linejoin:miter;stroke-opacity:1" d="M 35.4422,217.807 19.7211,213.09 z" id="boundary" inkscape:connector-curvature="0" />
	<path style="fill:none;stroke:red;stroke-width:1px;stroke-linecap:butt;stroke-linejoin:miter;stroke-opacity:1" d="M 35.4422,217.807 51.1632,213.09 z" id="boundary" inkscape:connector-curvature="0" />
	<path style="fill:none;stroke:red;stroke-width:1px;stroke-linecap:butt;stroke-linejoin:miter;stroke-opacity:1" d="M 66.8843,209.946 51.1632,213.09 z" id="boundary" inkscape:connector-curvature="0" />
	<path style="fill:none;stroke:red;stroke-width:1px;stroke-linecap:butt;stroke-linejoin:miter;stroke-opacity:1" d="M 98.3265,184.792 114.048,184.792 z" id="boundary" inkscape:connector-curvature="0" />
	<path style="fill:none;stroke:red;stroke-width:1px;stroke-linecap:butt;stroke-linejoin:miter;stroke-opacity:1" d="M 98.3265,184.792 82.6054,184.792 z" id="boundary" inkscape:connector-curvature="0" />
	<path style="fill:none;stroke:red;stroke-width:1px;stroke-linecap:butt;stroke-linejoin:miter;stroke-opacity:1" d="M 66.8843,209.946 82.6054,209.946 z" id="boundary" inkscape:connector-curvature="0" />
	<path style="fill:none;stroke:red;stroke-width:1px;stroke-linecap:butt;stroke-linejoin:miter;stroke-opacity:1" d="M 98.3265,209.946 114.048,209.946 z" id="boundary" inkscape:connector-curvature="0" />
	<path style="fill:none;stroke:red;stroke-width:1px;stroke-linecap:butt;stroke-linejoin:miter;stroke-opacity:1" d="M 98.3265,209.946 82.6054,209.946 z" id="boundary" inkscape:connector-curvature="0" />
	<path style="fill:none;stroke:red;stroke-width:1px;stroke-linecap:butt;stroke-linejoin:miter;stroke-opacity:1" d="M 114.048,184.792 129.769,184.792 z" id="boundary" inkscape:connector-curvature="0" />
	<path style="fill:none;stroke:red;stroke-width:1px;stroke-linecap:butt;stroke-linejoin:miter;stroke-opacity:1" d="M 114.048,209.946 129.769,209.946 z" id="boundary" inkscape:connector-curvature="0" />
	<path style="fill:none;stroke:red;stroke-width:1px;stroke-linecap:butt;stroke-linejoin:miter;stroke-opacity:1" d="M 151.778,129.769 136.057,129.769 z" id="boundary" inkscape:connector-curvature="0" />
	<path style="fill:none;stroke:red;stroke-width:1px;stroke-linecap:butt;stroke-linejoin:miter;stroke-opacity:1" d="M 151.778,129.769 165.927,121.908 z" id="boundary" inkscape:connector-curvature="0" />
	<path style="fill:none;stroke:red;stroke-width:1px;stroke-linecap:butt;stroke-linejoin:miter;stroke-opacity:1" d="M 121.908,154.922 137.629,154.922 z" id="boundary" inkscape:connector-curvature="0" />
	<path style="fill:none;stroke:red;stroke-width:1px;stroke-linecap:butt;stroke-linejoin:miter;stroke-opacity:1" d="M 153.35,154.922 169.071,154.922 z" id="boundary" inkscape:connector-curvature="0" />
	<path style="fill:none;stroke:red;stroke-width:1px;stroke-linecap:butt;stroke-linejoin:miter;stroke-opacity:1" d="M 153.35,154.922 137.629,154.922 z" id="boundary" inkscape:connector-curvature="0" />
	<path style="fill:none;stroke:red;stroke-width:1px;stroke-linecap:butt;stroke-linejoin:miter;stroke-opacity:1" d="M 183.22,147.062 169.071,154.922 z" id="boundary" inkscape:connector-curvature="0" />
	<path style="fill:none;stroke:red;stroke-width:1px;stroke-linecap:butt;stroke-linejoin:miter;stroke-opacity:1" d="M 181.648,121.908 165.927,121.908 z" id="boundary" inkscape:connector-curvature="0" />
	<path style="fill:none;stroke:red;stroke-width:1px;stroke-linecap:butt;stroke-linejoin:miter;stroke-opacity:1" d="M 213.09,121.908 228.811,121.908 z" id="boundary" inkscape:connector-curvature="0" />
	<path style="fill:none;stroke:red;stroke-width:1px;stroke-linecap:butt;stroke-linejoin:miter;stroke-opacity:1" d="M 198.941,147.062 183.22,147.062 z" id="boundary" inkscape:connector-curvature="0" />
	<path style="fill:none;stroke:red;stroke-width:1px;stroke-linecap:butt;stroke-linejoin:miter;stroke-opacity:1" d="M 198.941,147.062 214.662,147.062 z" id="boundary" inkscape:connector-curvature="0" />
	<path style="fill:none;stroke:red;stroke-width:1px;stroke-linecap:butt;stroke-linejoin:miter;stroke-opacity:1" d="M 230.384,147.062 214.662,147.062 z" id="boundary" inkscape:connector-curvature="0" />
	<path style="fill:none;stroke:red;stroke-width:1px;stroke-linecap:butt;stroke-linejoin:miter;stroke-opacity:1" d="M 230.384,147.062 246.105,147.062 z" id="boundary" inkscape:connector-curvature="0" />
	<path style="fill:none;stroke:red;stroke-width:1px;stroke-linecap:butt;stroke-linejoin:miter;stroke-opacity:1" d="M 129.769,209.946 143.918,202.086 z" id="boundary" inkscape:connector-curvature="0" />
	<path style="fill:none;stroke:red;stroke-width:1px;stroke-linecap:butt;stroke-linejoin:miter;stroke-opacity:1" d="M 143.918,202.086 159.639,202.086 z" id="boundary" inkscape:connector-curvature="0" />
	<path style="fill:none;stroke:red;stroke-width:1px;stroke-linecap:butt;stroke-linejoin:miter;stroke-opacity:1" d="M 159.639,202.086 175.36,202.086 z" id="boundary" inkscape:connector-curvature="0" />
	<path style="fill:none;stroke:red;stroke-width:1px;stroke-linecap:butt;stroke-linejoin:miter;stroke-opacity:1" d="M 175.36,202.086 191.081,202.086 z" id="boundary" inkscape:connector-curvature="0" />
	<path style="fill:none;stroke:red;stroke-width:1px;stroke-linecap:butt;stroke-linejoin:miter;stroke-opacity:1" d="M 192.653,181.648 208.374,176.932 z" id="boundary" inkscape:connector-curvature="0" />
	<path style="fill:none;stroke:red;stroke-width:1px;stroke-linecap:butt;stroke-linejoin:miter;stroke-opacity:1" d="M 192.653,181.648 176.932,184.792 z" id="boundary" inkscape:connector-curvature="0" />
	<path style="fill:none;stroke:red;stroke-width:1px;stroke-linecap:butt;stroke-linejoin:miter;stroke-opacity:1" d="M 208.374,176.932 224.095,176.932 z" id="boundary" inkscape:connector-curvature="0" />
	<path style="fill:none;stroke:red;stroke-width:1px;stroke-linecap:butt;stroke-linejoin:miter;stroke-opacity:1" d="M 191.081,202.086 206.802,202.086 z" id="boundary" inkscape:connector-curvature="0" />
	<path style="fill:none;stroke:red;stroke-width:1px;stroke-linecap:butt;stroke-linejoin:miter;stroke-opacity:1" d="M 222.523,202.086 236.672,194.225 z" id="boundary" inkscape:connector-curvature="0" />
	<path style="fill:none;stroke:red;stroke-width:1px;stroke-linecap:butt;stroke-linejoin:miter;stroke-opacity:1" d="M 236.672,194.225 252.393,194.225 z" id="boundary" inkscape:connector-curvature="0" />
	<path style="fill:none;stroke:red;stroke-width:1px;stroke-linecap:butt;stroke-linejoin:miter;stroke-opacity:1" d="M 222.523,202.086 206.802,202.086 z" id="boundary" inkscape:connector-curvature="0" />
	<path style="fill:none;stroke:red;stroke-width:1px;stroke-linecap:butt;stroke-linejoin:miter;stroke-opacity:1" d="M 249.249,29.1537 233.528,29.1537 z" id="boundary" inkscape:connector-curvature="0" />
	<path style="fill:none;stroke:red;stroke-width:1px;stroke-linecap:butt;stroke-linejoin:miter;stroke-opacity:1" d="M 252.393,4 268.114,4 z" id="boundary" inkscape:connector-curvature="0" />
	<path style="fill:none;stroke:red;stroke-width:1px;stroke-linecap:butt;stroke-linejoin:miter;stroke-opacity:1" d="M 268.114,4 283.835,4 z" id="boundary" inkscape:connector-curvature="0" />
	<path style="fill:none;stroke:red;stroke-width:1px;stroke-linecap:butt;stroke-linejoin:miter;stroke-opacity:1" d="M 249.249,29.1537 263.398,37.0143 z" id="boundary" inkscape:connector-curvature="0" />
	<path style="fill:none;stroke:red;stroke-width:1px;stroke-linecap:butt;stroke-linejoin:miter;stroke-opacity:1" d="M 299.556,4 315.277,4 z" id="boundary" inkscape:connector-curvature="0" />
	<path style="fill:none;stroke:red;stroke-width:1px;stroke-linecap:butt;stroke-linejoin:miter;stroke-opacity:1" d="M 271.258,51.1632 263.398,37.0143 z" id="boundary" inkscape:connector-curvature="0" />
	<path style="fill:none;stroke:red;stroke-width:1px;stroke-linecap:butt;stroke-linejoin:miter;stroke-opacity:1" d="M 283.835,4 299.556,4 z" id="boundary" inkscape:connector-curvature="0" />
	<path style="fill:none;stroke:red;stroke-width:1px;stroke-linecap:butt;stroke-linejoin:miter;stroke-opacity:1" d="M 271.258,51.1632 261.826,66.8843 z" id="boundary" inkscape:connector-curvature="0" />
	<path style="fill:none;stroke:red;stroke-width:1px;stroke-linecap:butt;stroke-linejoin:miter;stroke-opacity:1" d="M 236.672,4 252.393,4 z" id="boundary" inkscape:connector-curvature="0" />
	<path style="fill:none;stroke:red;stroke-width:1px;stroke-linecap:butt;stroke-linejoin:miter;stroke-opacity:1" d="M 315.277,4 330.998,4 z" id="boundary" inkscape:connector-curvature="0" />
	<path style="fill:none;stroke:red;stroke-width:1px;stroke-linecap:butt;stroke-linejoin:miter;stroke-opacity:1" d="M 330.998,4 346.719,4 z" id="boundary" inkscape:connector-curvature="0" />
	<path style="fill:none;stroke:red;stroke-width:1px;stroke-linecap:butt;stroke-linejoin:miter;stroke-opacity:1" d="M 359.296,13.4326 346.719,4 z" id="boundary" inkscape:connector-curvature="0" />
	<path style="fill:none;stroke:red;stroke-width:1px;stroke-linecap:butt;stroke-linejoin:miter;stroke-opacity:1" d="M 359.296,13.4326 359.296,29.1537 z" id="boundary" inkscape:connector-curvature="0" />
	<path style="fill:none;stroke:red;stroke-width:1px;stroke-linecap:butt;stroke-linejoin:miter;stroke-opacity:1" d="M 359.296,29.1537 359.296,44.8748 z" id="boundary" inkscape:connector-curvature="0" />
	<path style="fill:none;stroke:red;stroke-width:1px;stroke-linecap:butt;stroke-linejoin:miter;stroke-opacity:1" d="M 574.675,43.3027 558.954,43.3027 z" id="boundary" inkscape:connector-curvature="0" />
	<path style="fill:none;stroke:red;stroke-width:1px;stroke-linecap:butt;stroke-linejoin:miter;stroke-opacity:1" d="M 359.296,44.8748 359.296,60.5959 z" id="boundary" inkscape:connector-curvature="0" />
	<path style="fill:none;stroke:red;stroke-width:1px;stroke-linecap:butt;stroke-linejoin:miter;stroke-opacity:1" d="M 590.396,43.3027 574.675,43.3027 z" id="boundary" inkscape:connector-curvature="0" />
	<path style="fill:none;stroke:red;stroke-width:1px;stroke-linecap:butt;stroke-linejoin:miter;stroke-opacity:1" d="M 544.805,51.1632 558.954,43.3027 z" id="boundary" inkscape:connector-curvature="0" />
	<path style="fill:none;stroke:red;stroke-width:1px;stroke-linecap:butt;stroke-linejoin:miter;stroke-opacity:1" d="M 375.017,66.8843 359.296,60.5959 z" id="boundary" inkscape:connector-curvature="0" />
	<path style="fill:none;stroke:red;stroke-width:1px;stroke-linecap:butt;stroke-linejoin:miter;stroke-opacity:1" d="M 404.887,59.0238 390.739,66.8843 z" id="boundary" inkscape:connector-curvature="0" />
	<path style="fill:none;stroke:red;stroke-width:1px;stroke-linecap:butt;stroke-linejoin:miter;stroke-opacity:1" d="M 420.609,59.0238 404.887,59.0238 z" id="boundary" inkscape:connector-curvature="0" />
	<path style="fill:none;stroke:red;stroke-width:1px;stroke-linecap:butt;stroke-linejoin:miter;stroke-opacity:1" d="M 246.105,66.8843 261.826,66.8843 z" id="boundary" inkscape:connector-curvature="0" />
	<path style="fill:none;stroke:red;stroke-width:1px;stroke-linecap:butt;stroke-linejoin:miter;stroke-opacity:1" d="M 375.017,66.8843 390.739,66.8843 z" id="boundary" inkscape:connector-curvature="0" />
	<path style="fill:none;stroke:red;stroke-width:1px;stroke-linecap:butt;stroke-linejoin:miter;stroke-opacity:1" d="M 466.2,51.1632 481.921,51.1632 z" id="boundary" inkscape:connector-curvature="0" />
	<path style="fill:none;stroke:red;stroke-width:1px;stroke-linecap:butt;stroke-linejoin:miter;stroke-opacity:1" d="M 452.051,59.0238 466.2,51.1632 z" id="boundary" inkscape:connector-curvature="0" />
	<path style="fill:none;stroke:red;stroke-width:1px;stroke-linecap:butt;stroke-linejoin:miter;stroke-opacity:1" d="M 481.921,51.1632 497.642,51.1632 z" id="boundary" inkscape:connector-curvature="0" />
	<path style="fill:none;stroke:red;stroke-width:1px;stroke-linecap:butt;stroke-linejoin:miter;stroke-opacity:1" d="M 513.363,51.1632 497.642,51.1632 z" id="boundary" inkscape:connector-curvature="0" />
	<path style="fill:none;stroke:red;stroke-width:1px;stroke-linecap:butt;stroke-linejoin:miter;stroke-opacity:1" d="M 420.609,59.0238 436.33,59.0238 z" id="boundary" inkscape:connector-curvature="0" />
	<path style="fill:none;stroke:red;stroke-width:1px;stroke-linecap:butt;stroke-linejoin:miter;stroke-opacity:1" d="M 452.051,59.0238 436.33,59.0238 z" id="boundary" inkscape:connector-curvature="0" />
	<path style="fill:none;stroke:red;stroke-width:1px;stroke-linecap:butt;stroke-linejoin:miter;stroke-opacity:1" d="M 513.363,51.1632 529.084,51.1632 z" id="boundary" inkscape:connector-curvature="0" />
	<path style="fill:none;stroke:red;stroke-width:1px;stroke-linecap:butt;stroke-linejoin:miter;stroke-opacity:1" d="M 544.805,51.1632 529.084,51.1632 z" id="boundary" inkscape:connector-curvature="0" />
	<path style="fill:none;stroke:red;stroke-width:1px;stroke-linecap:butt;stroke-linejoin:miter;stroke-opacity:1" d="M 807.347,27.5816 791.626,27.5816 z" id="boundary" inkscape:connector-curvature="0" />
	<path style="fill:none;stroke:red;stroke-width:1px;stroke-linecap:butt;stroke-linejoin:miter;stroke-opacity:1" d="M 823.068,27.5816 807.347,27.5816 z" id="boundary" inkscape:connector-curvature="0" />
	<path style="fill:none;stroke:red;stroke-width:1px;stroke-linecap:butt;stroke-linejoin:miter;stroke-opacity:1" d="M 777.477,35.4422 791.626,27.5816 z" id="boundary" inkscape:connector-curvature="0" />
	<path style="fill:none;stroke:red;stroke-width:1px;stroke-linecap:butt;stroke-linejoin:miter;stroke-opacity:1" d="M 823.068,27.5816 838.789,27.5816 z" id="boundary" inkscape:connector-curvature="0" />
	<path style="fill:none;stroke:red;stroke-width:1px;stroke-linecap:butt;stroke-linejoin:miter;stroke-opacity:1" d="M 854.51,27.5816 870.231,27.5816 z" id="boundary" inkscape:connector-curvature="0" />
	<path style="fill:none;stroke:red;stroke-width:1px;stroke-linecap:butt;stroke-linejoin:miter;stroke-opacity:1" d="M 884.38,19.7211 870.231,27.5816 z" id="boundary" inkscape:connector-curvature="0" />
	<path style="fill:none;stroke:red;stroke-width:1px;stroke-linecap:butt;stroke-linejoin:miter;stroke-opacity:1" d="M 854.51,27.5816 838.789,27.5816 z" id="boundary" inkscape:connector-curvature="0" />
	<path style="fill:none;stroke:red;stroke-width:1px;stroke-linecap:butt;stroke-linejoin:miter;stroke-opacity:1" d="M 978.707,11.8605 962.986,16.5769 z" id="boundary" inkscape:connector-curvature="0" />
	<path style="fill:none;stroke:red;stroke-width:1px;stroke-linecap:butt;stroke-linejoin:miter;stroke-opacity:1" d="M 915.823,19.7211 900.101,19.7211 z" id="boundary" inkscape:connector-curvature="0" />
	<path style="fill:none;stroke:red;stroke-width:1px;stroke-linecap:butt;stroke-linejoin:miter;stroke-opacity:1" d="M 900.101,19.7211 884.38,19.7211 z" id="boundary" inkscape:connector-curvature="0" />
	<path style="fill:none;stroke:red;stroke-width:1px;stroke-linecap:butt;stroke-linejoin:miter;stroke-opacity:1" d="M 978.707,11.8605 994.428,15.0048 z" id="boundary" inkscape:connector-curvature="0" />
	<path style="fill:none;stroke:red;stroke-width:1px;stroke-linecap:butt;stroke-linejoin:miter;stroke-opacity:1" d="M 994.428,15.0048 996,30.7258 z" id="boundary" inkscape:connector-curvature="0" />
	<path style="fill:none;stroke:red;stroke-width:1px;stroke-linecap:butt;stroke-linejoin:miter;stroke-opacity:1" d="M 915.823,19.7211 931.544,19.7211 z" id="boundary" inkscape:connector-curvature="0" />
	<path style="fill:none;stroke:red;stroke-width:1px;stroke-linecap:butt;stroke-linejoin:miter;stroke-opacity:1" d="M 931.544,19.7211 947.265,19.7211 z" id="boundary" inkscape:connector-curvature="0" />
	<path style="fill:none;stroke:red;stroke-width:1px;stroke-linecap:butt;stroke-linejoin:miter;stroke-opacity:1" d="M 959.842,68.4564 944.12,68.4564 z" id="boundary" inkscape:connector-curvature="0" />
	<path style="fill:none;stroke:red;stroke-width:1px;stroke-linecap:butt;stroke-linejoin:miter;stroke-opacity:1" d="M 962.986,16.5769 947.265,19.7211 z" id="boundary" inkscape:connector-curvature="0" />
	<path style="fill:none;stroke:red;stroke-width:1px;stroke-linecap:butt;stroke-linejoin:miter;stroke-opacity:1" d="M 996,30.7258 996,46.4469 z" id="boundary" inkscape:connector-curvature="0" />
	<path style="fill:none;stroke:red;stroke-width:1px;stroke-linecap:butt;stroke-linejoin:miter;stroke-opacity:1" d="M 590.396,43.3027 606.117,43.3027 z" id="boundary" inkscape:connector-curvature="0" />
	<path style="fill:none;stroke:red;stroke-width:1px;stroke-linecap:butt;stroke-linejoin:miter;stroke-opacity:1" d="M 621.838,43.3027 637.559,43.3027 z" id="boundary" inkscape:connector-curvature="0" />
	<path style="fill:none;stroke:red;stroke-width:1px;stroke-linecap:butt;stroke-linejoin:miter;stroke-opacity:1" d="M 621.838,43.3027 606.117,43.3027 z" id="boundary" inkscape:connector-curvature="0" />
	<path style="fill:none;stroke:red;stroke-width:1px;stroke-linecap:butt;stroke-linejoin:miter;stroke-opacity:1" d="M 653.281,43.3027 669.002,43.3027 z" id="boundary" inkscape:connector-curvature="0" />
	<path style="fill:none;stroke:red;stroke-width:1px;stroke-linecap:butt;stroke-linejoin:miter;stroke-opacity:1" d="M 684.723,43.3027 700.444,43.3027 z" id="boundary" inkscape:connector-curvature="0" />
	<path style="fill:none;stroke:red;stroke-width:1px;stroke-linecap:butt;stroke-linejoin:miter;stroke-opacity:1" d="M 684.723,43.3027 669.002,43.3027 z" id="boundary" inkscape:connector-curvature="0" />
	<path style="fill:none;stroke:red;stroke-width:1px;stroke-linecap:butt;stroke-linejoin:miter;stroke-opacity:1" d="M 653.281,43.3027 637.559,43.3027 z" id="boundary" inkscape:connector-curvature="0" />
	<path style="fill:none;stroke:red;stroke-width:1px;stroke-linecap:butt;stroke-linejoin:miter;stroke-opacity:1" d="M 716.165,43.3027 730.314,35.4422 z" id="boundary" inkscape:connector-curvature="0" />
	<path style="fill:none;stroke:red;stroke-width:1px;stroke-linecap:butt;stroke-linejoin:miter;stroke-opacity:1" d="M 746.035,35.4422 730.314,35.4422 z" id="boundary" inkscape:connector-curvature="0" />
	<path style="fill:none;stroke:red;stroke-width:1px;stroke-linecap:butt;stroke-linejoin:miter;stroke-opacity:1" d="M 746.035,35.4422 761.756,35.4422 z" id="boundary" inkscape:connector-curvature="0" />
	<path style="fill:none;stroke:red;stroke-width:1px;stroke-linecap:butt;stroke-linejoin:miter;stroke-opacity:1" d="M 777.477,35.4422 761.756,35.4422 z" id="boundary" inkscape:connector-curvature="0" />
	<path style="fill:none;stroke:red;stroke-width:1px;stroke-linecap:butt;stroke-linejoin:miter;stroke-opacity:1" d="M 700.444,43.3027 716.165,43.3027 z" id="boundary" inkscape:connector-curvature="0" />
	<path style="fill:none;stroke:red;stroke-width:1px;stroke-linecap:butt;stroke-linejoin:miter;stroke-opacity:1" d="M 996,46.4469 991.284,66.8843 z" id="boundary" inkscape:connector-curvature="0" />
	<path style="fill:none;stroke:red;stroke-width:1px;stroke-linecap:butt;stroke-linejoin:miter;stroke-opacity:1" d="M 991.284,66.8843 975.563,68.4564 z" id="boundary" inkscape:connector-curvature="0" />
	<path style="fill:none;stroke:red;stroke-width:1px;stroke-linecap:butt;stroke-linejoin:miter;stroke-opacity:1" d="M 944.12,68.4564 929.971,76.317 z" id="boundary" inkscape:connector-curvature="0" />
	<path style="fill:none;stroke:red;stroke-width:1px;stroke-linecap:butt;stroke-linejoin:miter;stroke-opacity:1" d="M 246.105,92.038 261.826,92.038 z" id="boundary" inkscape:connector-curvature="0" />
	<path style="fill:none;stroke:red;stroke-width:1px;stroke-linecap:butt;stroke-linejoin:miter;stroke-opacity:1" d="M 271.258,104.615 261.826,92.038 z" id="boundary" inkscape:connector-curvature="0" />
	<path style="fill:none;stroke:red;stroke-width:1px;stroke-linecap:butt;stroke-linejoin:miter;stroke-opacity:1" d="M 244.532,121.908 260.254,121.908 z" id="boundary" inkscape:connector-curvature="0" />
	<path style="fill:none;stroke:red;stroke-width:1px;stroke-linecap:butt;stroke-linejoin:miter;stroke-opacity:1" d="M 367.157,123.48 367.157,139.201 z" id="boundary" inkscape:connector-curvature="0" />
	<path style="fill:none;stroke:red;stroke-width:1px;stroke-linecap:butt;stroke-linejoin:miter;stroke-opacity:1" d="M 381.306,115.62 397.027,115.62 z" id="boundary" inkscape:connector-curvature="0" />
	<path style="fill:none;stroke:red;stroke-width:1px;stroke-linecap:butt;stroke-linejoin:miter;stroke-opacity:1" d="M 381.306,115.62 367.157,123.48 z" id="boundary" inkscape:connector-curvature="0" />
	<path style="fill:none;stroke:red;stroke-width:1px;stroke-linecap:butt;stroke-linejoin:miter;stroke-opacity:1" d="M 397.027,115.62 412.748,115.62 z" id="boundary" inkscape:connector-curvature="0" />
	<path style="fill:none;stroke:red;stroke-width:1px;stroke-linecap:butt;stroke-linejoin:miter;stroke-opacity:1" d="M 367.157,154.922 367.157,139.201 z" id="boundary" inkscape:connector-curvature="0" />
	<path style="fill:none;stroke:red;stroke-width:1px;stroke-linecap:butt;stroke-linejoin:miter;stroke-opacity:1" d="M 428.469,115.62 444.19,115.62 z" id="boundary" inkscape:connector-curvature="0" />
	<path style="fill:none;stroke:red;stroke-width:1px;stroke-linecap:butt;stroke-linejoin:miter;stroke-opacity:1" d="M 412.748,115.62 428.469,115.62 z" id="boundary" inkscape:connector-curvature="0" />
	<path style="fill:none;stroke:red;stroke-width:1px;stroke-linecap:butt;stroke-linejoin:miter;stroke-opacity:1" d="M 444.19,115.62 459.911,115.62 z" id="boundary" inkscape:connector-curvature="0" />
	<path style="fill:none;stroke:red;stroke-width:1px;stroke-linecap:butt;stroke-linejoin:miter;stroke-opacity:1" d="M 475.632,115.62 459.911,115.62 z" id="boundary" inkscape:connector-curvature="0" />
	<path style="fill:none;stroke:red;stroke-width:1px;stroke-linecap:butt;stroke-linejoin:miter;stroke-opacity:1" d="M 279.119,154.922 275.975,139.201 z" id="boundary" inkscape:connector-curvature="0" />
	<path style="fill:none;stroke:red;stroke-width:1px;stroke-linecap:butt;stroke-linejoin:miter;stroke-opacity:1" d="M 246.105,147.062 261.826,147.062 z" id="boundary" inkscape:connector-curvature="0" />
	<path style="fill:none;stroke:red;stroke-width:1px;stroke-linecap:butt;stroke-linejoin:miter;stroke-opacity:1" d="M 268.114,194.225 252.393,194.225 z" id="boundary" inkscape:connector-curvature="0" />
	<path style="fill:none;stroke:red;stroke-width:1px;stroke-linecap:butt;stroke-linejoin:miter;stroke-opacity:1" d="M 283.835,194.225 268.114,194.225 z" id="boundary" inkscape:connector-curvature="0" />
	<path style="fill:none;stroke:red;stroke-width:1px;stroke-linecap:butt;stroke-linejoin:miter;stroke-opacity:1" d="M 313.705,186.365 329.426,186.365 z" id="boundary" inkscape:connector-curvature="0" />
	<path style="fill:none;stroke:red;stroke-width:1px;stroke-linecap:butt;stroke-linejoin:miter;stroke-opacity:1" d="M 299.556,194.225 313.705,186.365 z" id="boundary" inkscape:connector-curvature="0" />
	<path style="fill:none;stroke:red;stroke-width:1px;stroke-linecap:butt;stroke-linejoin:miter;stroke-opacity:1" d="M 345.147,186.365 329.426,186.365 z" id="boundary" inkscape:connector-curvature="0" />
	<path style="fill:none;stroke:red;stroke-width:1px;stroke-linecap:butt;stroke-linejoin:miter;stroke-opacity:1" d="M 367.157,170.643 367.157,154.922 z" id="boundary" inkscape:connector-curvature="0" />
	<path style="fill:none;stroke:red;stroke-width:1px;stroke-linecap:butt;stroke-linejoin:miter;stroke-opacity:1" d="M 283.835,194.225 299.556,194.225 z" id="boundary" inkscape:connector-curvature="0" />
	<path style="fill:none;stroke:red;stroke-width:1px;stroke-linecap:butt;stroke-linejoin:miter;stroke-opacity:1" d="M 345.147,186.365 360.868,186.365 z" id="boundary" inkscape:connector-curvature="0" />
	<path style="fill:none;stroke:red;stroke-width:1px;stroke-linecap:butt;stroke-linejoin:miter;stroke-opacity:1" d="M 367.157,170.643 360.868,186.365 z" id="boundary" inkscape:connector-curvature="0" />
	<path style="fill:none;stroke:red;stroke-width:1px;stroke-linecap:butt;stroke-linejoin:miter;stroke-opacity:1" d="M 475.632,115.62 491.353,115.62 z" id="boundary" inkscape:connector-curvature="0" />
	<path style="fill:none;stroke:red;stroke-width:1px;stroke-linecap:butt;stroke-linejoin:miter;stroke-opacity:1" d="M 804.203,84.1775 819.924,84.1775 z" id="boundary" inkscape:connector-curvature="0" />
	<path style="fill:none;stroke:red;stroke-width:1px;stroke-linecap:butt;stroke-linejoin:miter;stroke-opacity:1" d="M 788.482,88.8938 804.203,84.1775 z" id="boundary" inkscape:connector-curvature="0" />
	<path style="fill:none;stroke:red;stroke-width:1px;stroke-linecap:butt;stroke-linejoin:miter;stroke-opacity:1" d="M 835.645,84.1775 819.924,84.1775 z" id="boundary" inkscape:connector-curvature="0" />
	<path style="fill:none;stroke:red;stroke-width:1px;stroke-linecap:butt;stroke-linejoin:miter;stroke-opacity:1" d="M 725.597,92.038 741.319,92.038 z" id="boundary" inkscape:connector-curvature="0" />
	<path style="fill:none;stroke:red;stroke-width:1px;stroke-linecap:butt;stroke-linejoin:miter;stroke-opacity:1" d="M 709.876,96.7544 725.597,92.038 z" id="boundary" inkscape:connector-curvature="0" />
	<path style="fill:none;stroke:red;stroke-width:1px;stroke-linecap:butt;stroke-linejoin:miter;stroke-opacity:1" d="M 772.761,92.038 757.04,92.038 z" id="boundary" inkscape:connector-curvature="0" />
	<path style="fill:none;stroke:red;stroke-width:1px;stroke-linecap:butt;stroke-linejoin:miter;stroke-opacity:1" d="M 757.04,92.038 741.319,92.038 z" id="boundary" inkscape:connector-curvature="0" />
	<path style="fill:none;stroke:red;stroke-width:1px;stroke-linecap:butt;stroke-linejoin:miter;stroke-opacity:1" d="M 788.482,88.8938 772.761,92.038 z" id="boundary" inkscape:connector-curvature="0" />
	<path style="fill:none;stroke:red;stroke-width:1px;stroke-linecap:butt;stroke-linejoin:miter;stroke-opacity:1" d="M 867.087,76.317 882.808,76.317 z" id="boundary" inkscape:connector-curvature="0" />
	<path style="fill:none;stroke:red;stroke-width:1px;stroke-linecap:butt;stroke-linejoin:miter;stroke-opacity:1" d="M 851.366,81.0333 867.087,76.317 z" id="boundary" inkscape:connector-curvature="0" />
	<path style="fill:none;stroke:red;stroke-width:1px;stroke-linecap:butt;stroke-linejoin:miter;stroke-opacity:1" d="M 898.529,76.317 882.808,76.317 z" id="boundary" inkscape:connector-curvature="0" />
	<path style="fill:none;stroke:red;stroke-width:1px;stroke-linecap:butt;stroke-linejoin:miter;stroke-opacity:1" d="M 975.563,68.4564 959.842,68.4564 z" id="boundary" inkscape:connector-curvature="0" />
	<path style="fill:none;stroke:red;stroke-width:1px;stroke-linecap:butt;stroke-linejoin:miter;stroke-opacity:1" d="M 898.529,76.317 914.25,76.317 z" id="boundary" inkscape:connector-curvature="0" />
	<path style="fill:none;stroke:red;stroke-width:1px;stroke-linecap:butt;stroke-linejoin:miter;stroke-opacity:1" d="M 914.25,76.317 929.971,76.317 z" id="boundary" inkscape:connector-curvature="0" />
	<path style="fill:none;stroke:red;stroke-width:1px;stroke-linecap:butt;stroke-linejoin:miter;stroke-opacity:1" d="M 835.645,84.1775 851.366,81.0333 z" id="boundary" inkscape:connector-curvature="0" />
	<path style="fill:none;stroke:red;stroke-width:1px;stroke-linecap:butt;stroke-linejoin:miter;stroke-opacity:1" d="M 631.271,99.8986 615.55,104.615 z" id="boundary" inkscape:connector-curvature="0" />
	<path style="fill:none;stroke:red;stroke-width:1px;stroke-linecap:butt;stroke-linejoin:miter;stroke-opacity:1" d="M 536.945,107.759 552.666,107.759 z" id="boundary" inkscape:connector-curvature="0" />
	<path style="fill:none;stroke:red;stroke-width:1px;stroke-linecap:butt;stroke-linejoin:miter;stroke-opacity:1" d="M 522.796,115.62 536.945,107.759 z" id="boundary" inkscape:connector-curvature="0" />
	<path style="fill:none;stroke:red;stroke-width:1px;stroke-linecap:butt;stroke-linejoin:miter;stroke-opacity:1" d="M 568.387,107.759 584.108,107.759 z" id="boundary" inkscape:connector-curvature="0" />
	<path style="fill:none;stroke:red;stroke-width:1px;stroke-linecap:butt;stroke-linejoin:miter;stroke-opacity:1" d="M 568.387,107.759 552.666,107.759 z" id="boundary" inkscape:connector-curvature="0" />
	<path style="fill:none;stroke:red;stroke-width:1px;stroke-linecap:butt;stroke-linejoin:miter;stroke-opacity:1" d="M 491.353,115.62 507.074,115.62 z" id="boundary" inkscape:connector-curvature="0" />
	<path style="fill:none;stroke:red;stroke-width:1px;stroke-linecap:butt;stroke-linejoin:miter;stroke-opacity:1" d="M 522.796,115.62 507.074,115.62 z" id="boundary" inkscape:connector-curvature="0" />
	<path style="fill:none;stroke:red;stroke-width:1px;stroke-linecap:butt;stroke-linejoin:miter;stroke-opacity:1" d="M 584.108,107.759 599.829,107.759 z" id="boundary" inkscape:connector-curvature="0" />
	<path style="fill:none;stroke:red;stroke-width:1px;stroke-linecap:butt;stroke-linejoin:miter;stroke-opacity:1" d="M 631.271,99.8986 646.992,99.8986 z" id="boundary" inkscape:connector-curvature="0" />
	<path style="fill:none;stroke:red;stroke-width:1px;stroke-linecap:butt;stroke-linejoin:miter;stroke-opacity:1" d="M 694.155,99.8986 709.876,96.7544 z" id="boundary" inkscape:connector-curvature="0" />
	<path style="fill:none;stroke:red;stroke-width:1px;stroke-linecap:butt;stroke-linejoin:miter;stroke-opacity:1" d="M 662.713,99.8986 646.992,99.8986 z" id="boundary" inkscape:connector-curvature="0" />
	<path style="fill:none;stroke:red;stroke-width:1px;stroke-linecap:butt;stroke-linejoin:miter;stroke-opacity:1" d="M 662.713,99.8986 678.434,99.8986 z" id="boundary" inkscape:connector-curvature="0" />
	<path style="fill:none;stroke:red;stroke-width:1px;stroke-linecap:butt;stroke-linejoin:miter;stroke-opacity:1" d="M 678.434,99.8986 694.155,99.8986 z" id="boundary" inkscape:connector-curvature="0" />
	<path style="fill:none;stroke:red;stroke-width:1px;stroke-linecap:butt;stroke-linejoin:miter;stroke-opacity:1" d="M 599.829,107.759 615.55,104.615 z" id="boundary" inkscape:connector-curvature="0" />
	<circle cx="4" cy="32.2979" r="4" fill="#0" id="circle0"/>
	<circle cx="11.8605" cy="95.1823" r="4" fill="#0" id="circle1"/>
	<circle cx="11.8605" cy="110.903" r="4" fill="#0" id="circle2"/>
	<circle cx="11.8605" cy="150.206" r="4" fill="#0" id="circle3"/>
	<circle cx="11.8605" cy="165.927" r="4" fill="#0" id="circle4"/>
	<circle cx="13.4326" cy="44.8748" r="4" fill="#0" id="circle5"/>
	<circle cx="19.7211" cy="27.5816" r="4" fill="#0" id="circle6"/>
	<circle cx="19.7211" cy="197.369" r="4" fill="#0" id="circle7"/>
	<circle cx="19.7211" cy="213.09" r="4" fill="#0" id="circle8"/>
	<circle cx="27.5816" cy="90.4659" r="4" fill="#0" id="circle9"/>
	<circle cx="27.5816" cy="115.62" r="4" fill="#0" id="circle10"/>
	<circle cx="27.5816" cy="142.345" r="4" fill="#0" id="circle11"/>
	<circle cx="27.5816" cy="165.927" r="4" fill="#0" id="circle12"/>
	<circle cx="29.1537" cy="44.8748" r="4" fill="#0" id="circle13"/>
	<circle cx="35.4422" cy="27.5816" r="4" fill="#0" id="circle14"/>
	<circle cx="35.4422" cy="192.653" r="4" fill="#0" id="circle15"/>
	<circle cx="35.4422" cy="217.807" r="4" fill="#0" id="circle16"/>
	<circle cx="43.3027" cy="90.4659" r="4" fill="#0" id="circle17"/>
	<circle cx="43.3027" cy="115.62" r="4" fill="#0" id="circle18"/>
	<circle cx="43.3027" cy="137.629" r="4" fill="#0" id="circle19"/>
	<circle cx="43.3027" cy="162.783" r="4" fill="#0" id="circle20"/>
	<circle cx="44.8748" cy="44.8748" r="4" fill="#0" id="circle21"/>
	<circle cx="51.1632" cy="27.5816" r="4" fill="#0" id="circle22"/>
	<circle cx="51.1632" cy="189.509" r="4" fill="#0" id="circle23"/>
	<circle cx="51.1632" cy="213.09" r="4" fill="#0" id="circle24"/>
	<circle cx="57.4517" cy="107.759" r="4" fill="#0" id="circle25"/>
	<circle cx="59.0238" cy="90.4659" r="4" fill="#0" id="circle26"/>
	<circle cx="59.0238" cy="137.629" r="4" fill="#0" id="circle27"/>
	<circle cx="59.0238" cy="162.783" r="4" fill="#0" id="circle28"/>
	<circle cx="60.5959" cy="44.8748" r="4" fill="#0" id="circle29"/>
	<circle cx="66.8843" cy="24.4374" r="4" fill="#0" id="circle30"/>
	<circle cx="66.8843" cy="184.792" r="4" fill="#0" id="circle31"/>
	<circle cx="66.8843" cy="209.946" r="4" fill="#0" id="circle32"/>
	<circle cx="73.1727" cy="107.759" r="4" fill="#0" id="circle33"/>
	<circle cx="74.7448" cy="90.4659" r="4" fill="#0" id="circle34"/>
	<circle cx="74.7448" cy="137.629" r="4" fill="#0" id="circle35"/>
	<circle cx="74.7448" cy="162.783" r="4" fill="#0" id="circle36"/>
	<circle cx="76.317" cy="44.8748" r="4" fill="#0" id="circle37"/>
	<circle cx="82.6054" cy="19.7211" r="4" fill="#0" id="circle38"/>
	<circle cx="82.6054" cy="184.792" r="4" fill="#0" id="circle39"/>
	<circle cx="82.6054" cy="209.946" r="4" fill="#0" id="circle40"/>
	<circle cx="88.8938" cy="107.759" r="4" fill="#0" id="circle41"/>
	<circle cx="90.4659" cy="87.3217" r="4" fill="#0" id="circle42"/>
	<circle cx="90.4659" cy="137.629" r="4" fill="#0" id="circle43"/>
	<circle cx="90.4659" cy="158.067" r="4" fill="#0" id="circle44"/>
	<circle cx="92.038" cy="44.8748" r="4" fill="#0" id="circle45"/>
	<circle cx="98.3265" cy="19.7211" r="4" fill="#0" id="circle46"/>
	<circle cx="98.3265" cy="184.792" r="4" fill="#0" id="circle47"/>
	<circle cx="98.3265" cy="209.946" r="4" fill="#0" id="circle48"/>
	<circle cx="104.615" cy="107.759" r="4" fill="#0" id="circle49"/>
	<circle cx="106.187" cy="82.6054" r="4" fill="#0" id="circle50"/>
	<circle cx="106.187" cy="137.629" r="4" fill="#0" id="circle51"/>
	<circle cx="106.187" cy="154.922" r="4" fill="#0" id="circle52"/>
	<circle cx="107.759" cy="44.8748" r="4" fill="#0" id="circle53"/>
	<circle cx="114.048" cy="19.7211" r="4" fill="#0" id="circle54"/>
	<circle cx="114.048" cy="184.792" r="4" fill="#0" id="circle55"/>
	<circle cx="114.048" cy="209.946" r="4" fill="#0" id="circle56"/>
	<circle cx="120.336" cy="107.759" r="4" fill="#0" id="circle57"/>
	<circle cx="120.336" cy="129.769" r="4" fill="#0" id="circle58"/>
	<circle cx="121.908" cy="82.6054" r="4" fill="#0" id="circle59"/>
	<circle cx="121.908" cy="154.922" r="4" fill="#0" id="circle60"/>
	<circle cx="123.48" cy="44.8748" r="4" fill="#0" id="circle61"/>
	<circle cx="129.769" cy="19.7211" r="4" fill="#0" id="circle62"/>
	<circle cx="129.769" cy="184.792" r="4" fill="#0" id="circle63"/>
	<circle cx="129.769" cy="209.946" r="4" fill="#0" id="circle64"/>
	<circle cx="136.057" cy="104.615" r="4" fill="#0" id="circle65"/>
	<circle cx="136.057" cy="129.769" r="4" fill="#0" id="circle66"/>
	<circle cx="137.629" cy="82.6054" r="4" fill="#0" id="circle67"/>
	<circle cx="137.629" cy="154.922" r="4" fill="#0" id="circle68"/>
	<circle cx="139.201" cy="44.8748" r="4" fill="#0" id="circle69"/>
	<circle cx="143.918" cy="202.086" r="4" fill="#0" id="circle70"/>
	<circle cx="145.49" cy="19.7211" r="4" fill="#0" id="circle71"/>
	<circle cx="145.49" cy="184.792" r="4" fill="#0" id="circle72"/>
	<circle cx="151.778" cy="99.8986" r="4" fill="#0" id="circle73"/>
	<circle cx="151.778" cy="129.769" r="4" fill="#0" id="circle74"/>
	<circle cx="153.35" cy="79.4612" r="4" fill="#0" id="circle75"/>
	<circle cx="153.35" cy="154.922" r="4" fill="#0" id="circle76"/>
	<circle cx="154.922" cy="37.0143" r="4" fill="#0" id="circle77"/>
	<circle cx="159.639" cy="11.8605" r="4" fill="#0" id="circle78"/>
	<circle cx="159.639" cy="202.086" r="4" fill="#0" id="circle79"/>
	<circle cx="161.211" cy="184.792" r="4" fill="#0" id="circle80"/>
	<circle cx="165.927" cy="121.908" r="4" fill="#0" id="circle81"/>
	<circle cx="167.499" cy="99.8986" r="4" fill="#0" id="circle82"/>
	<circle cx="169.071" cy="74.7448" r="4" fill="#0" id="circle83"/>
	<circle cx="169.071" cy="154.922" r="4" fill="#0" id="circle84"/>
	<circle cx="170.643" cy="37.0143" r="4" fill="#0" id="circle85"/>
	<circle cx="175.36" cy="11.8605" r="4" fill="#0" id="circle86"/>
	<circle cx="175.36" cy="202.086" r="4" fill="#0" id="circle87"/>
	<circle cx="176.932" cy="184.792" r="4" fill="#0" id="circle88"/>
	<circle cx="181.648" cy="121.908" r="4" fill="#0" id="circle89"/>
	<circle cx="183.22" cy="99.8986" r="4" fill="#0" id="circle90"/>
	<circle cx="183.22" cy="147.062" r="4" fill="#0" id="circle91"/>
	<circle cx="184.792" cy="74.7448" r="4" fill="#0" id="circle92"/>
	<circle cx="186.365" cy="37.0143" r="4" fill="#0" id="circle93"/>
	<circle cx="191.081" cy="11.8605" r="4" fill="#0" id="circle94"/>
	<circle cx="191.081" cy="202.086" r="4" fill="#0" id="circle95"/>
	<circle cx="192.653" cy="181.648" r="4" fill="#0" id="circle96"/>
	<circle cx="197.369" cy="121.908" r="4" fill="#0" id="circle97"/>
	<circle cx="198.941" cy="99.8986" r="4" fill="#0" id="circle98"/>
	<circle cx="198.941" cy="147.062" r="4" fill="#0" id="circle99"/>
	<circle cx="200.513" cy="74.7448" r="4" fill="#0" id="circle100"/>
	<circle cx="202.086" cy="37.0143" r="4" fill="#0" id="circle101"/>
	<circle cx="206.802" cy="11.8605" r="4" fill="#0" id="circle102"/>
	<circle cx="206.802" cy="202.086" r="4" fill="#0" id="circle103"/>
	<circle cx="208.374" cy="176.932" r="4" fill="#0" id="circle104"/>
	<circle cx="213.09" cy="121.908" r="4" fill="#0" id="circle105"/>
	<circle cx="214.662" cy="96.7544" r="4" fill="#0" id="circle106"/>
	<circle cx="214.662" cy="147.062" r="4" fill="#0" id="circle107"/>
	<circle cx="216.235" cy="74.7448" r="4" fill="#0" id="circle108"/>
	<circle cx="217.807" cy="29.1537" r="4" fill="#0" id="circle109"/>
	<circle cx="222.523" cy="11.8605" r="4" fill="#0" id="circle110"/>
	<circle cx="222.523" cy="202.086" r="4" fill="#0" id="circle111"/>
	<circle cx="224.095" cy="176.932" r="4" fill="#0" id="circle112"/>
	<circle cx="228.811" cy="121.908" r="4" fill="#0" id="circle113"/>
	<circle cx="230.384" cy="92.038" r="4" fill="#0" id="circle114"/>
	<circle cx="230.384" cy="147.062" r="4" fill="#0" id="circle115"/>
	<circle cx="231.956" cy="74.7448" r="4" fill="#0" id="circle116"/>
	<circle cx="233.528" cy="29.1537" r="4" fill="#0" id="circle117"/>
	<circle cx="236.672" cy="4" r="4" fill="#0" id="circle118"/>
	<circle cx="236.672" cy="194.225" r="4" fill="#0" id="circle119"/>
	<circle cx="239.816" cy="176.932" r="4" fill="#0" id="circle120"/>
	<circle cx="244.532" cy="121.908" r="4" fill="#0" id="circle121"/>
	<circle cx="246.105" cy="66.8843" r="4" fill="#0" id="circle122"/>
	<circle cx="246.105" cy="92.038" r="4" fill="#0" id="circle123"/>
	<circle cx="246.105" cy="147.062" r="4" fill="#0" id="circle124"/>
	<circle cx="249.249" cy="29.1537" r="4" fill="#0" id="circle125"/>
	<circle cx="252.393" cy="4" r="4" fill="#0" id="circle126"/>
	<circle cx="252.393" cy="194.225" r="4" fill="#0" id="circle127"/>
	<circle cx="255.537" cy="176.932" r="4" fill="#0" id="circle128"/>
	<circle cx="260.254" cy="121.908" r="4" fill="#0" id="circle129"/>
	<circle cx="261.826" cy="66.8843" r="4" fill="#0" id="circle130"/>
	<circle cx="261.826" cy="92.038" r="4" fill="#0" id="circle131"/>
	<circle cx="261.826" cy="147.062" r="4" fill="#0" id="circle132"/>
	<circle cx="263.398" cy="37.0143" r="4" fill="#0" id="circle133"/>
	<circle cx="268.114" cy="4" r="4" fill="#0" id="circle134"/>
	<circle cx="268.114" cy="194.225" r="4" fill="#0" id="circle135"/>
	<circle cx="271.258" cy="51.1632" r="4" fill="#0" id="circle136"/>
	<circle cx="271.258" cy="104.615" r="4" fill="#0" id="circle137"/>
	<circle cx="271.258" cy="176.932" r="4" fill="#0" id="circle138"/>
	<circle cx="275.975" cy="139.201" r="4" fill="#0" id="circle139"/>
	<circle cx="279.119" cy="154.922" r="4" fill="#0" id="circle140"/>
	<circle cx="283.835" cy="4" r="4" fill="#0" id="circle141"/>
	<circle cx="283.835" cy="194.225" r="4" fill="#0" id="circle142"/>
	<circle cx="299.556" cy="4" r="4" fill="#0" id="circle143"/>
	<circle cx="299.556" cy="194.225" r="4" fill="#0" id="circle144"/>
	<circle cx="313.705" cy="186.365" r="4" fill="#0" id="circle145"/>
	<circle cx="315.277" cy="4" r="4" fill="#0" id="circle146"/>
	<circle cx="329.426" cy="186.365" r="4" fill="#0" id="circle147"/>
	<circle cx="330.998" cy="4" r="4" fill="#0" id="circle148"/>
	<circle cx="345.147" cy="186.365" r="4" fill="#0" id="circle149"/>
	<circle cx="346.719" cy="4" r="4" fill="#0" id="circle150"/>
	<circle cx="359.296" cy="13.4326" r="4" fill="#0" id="circle151"/>
	<circle cx="359.296" cy="29.1537" r="4" fill="#0" id="circle152"/>
	<circle cx="359.296" cy="44.8748" r="4" fill="#0" id="circle153"/>
	<circle cx="359.296" cy="60.5959" r="4" fill="#0" id="circle154"/>
	<circle cx="360.868" cy="186.365" r="4" fill="#0" id="circle155"/>
	<circle cx="367.157" cy="123.48" r="4" fill="#0" id="circle156"/>
	<circle cx="367.157" cy="139.201" r="4" fill="#0" id="circle157"/>
	<circle cx="367.157" cy="154.922" r="4" fill="#0" id="circle158"/>
	<circle cx="367.157" cy="170.643" r="4" fill="#0" id="circle159"/>
	<circle cx="375.017" cy="66.8843" r="4" fill="#0" id="circle160"/>
	<circle cx="381.306" cy="115.62" r="4" fill="#0" id="circle161"/>
	<circle cx="390.739" cy="66.8843" r="4" fill="#0" id="circle162"/>
	<circle cx="397.027" cy="115.62" r="4" fill="#0" id="circle163"/>
	<circle cx="404.887" cy="59.0238" r="4" fill="#0" id="circle164"/>
	<circle cx="412.748" cy="115.62" r="4" fill="#0" id="circle165"/>
	<circle cx="420.609" cy="59.0238" r="4" fill="#0" id="circle166"/>
	<circle cx="428.469" cy="115.62" r="4" fill="#0" id="circle167"/>
	<circle cx="436.33" cy="59.0238" r="4" fill="#0" id="circle168"/>
	<circle cx="444.19" cy="115.62" r="4" fill="#0" id="circle169"/>
	<circle cx="452.051" cy="59.0238" r="4" fill="#0" id="circle170"/>
	<circle cx="459.911" cy="115.62" r="4" fill="#0" id="circle171"/>
	<circle cx="466.2" cy="51.1632" r="4" fill="#0" id="circle172"/>
	<circle cx="475.632" cy="115.62" r="4" fill="#0" id="circle173"/>
	<circle cx="481.921" cy="51.1632" r="4" fill="#0" id="circle174"/>
	<circle cx="491.353" cy="115.62" r="4" fill="#0" id="circle175"/>
	<circle cx="497.642" cy="51.1632" r="4" fill="#0" id="circle176"/>
	<circle cx="507.074" cy="115.62" r="4" fill="#0" id="circle177"/>
	<circle cx="513.363" cy="51.1632" r="4" fill="#0" id="circle178"/>
	<circle cx="522.796" cy="115.62" r="4" fill="#0" id="circle179"/>
	<circle cx="529.084" cy="51.1632" r="4" fill="#0" id="circle180"/>
	<circle cx="536.945" cy="107.759" r="4" fill="#0" id="circle181"/>
	<circle cx="544.805" cy="51.1632" r="4" fill="#0" id="circle182"/>
	<circle cx="552.666" cy="107.759" r="4" fill="#0" id="circle183"/>
	<circle cx="558.954" cy="43.3027" r="4" fill="#0" id="circle184"/>
	<circle cx="568.387" cy="107.759" r="4" fill="#0" id="circle185"/>
	<circle cx="574.675" cy="43.3027" r="4" fill="#0" id="circle186"/>
	<circle cx="584.108" cy="107.759" r="4" fill="#0" id="circle187"/>
	<circle cx="590.396" cy="43.3027" r="4" fill="#0" id="circle188"/>
	<circle cx="599.829" cy="107.759" r="4" fill="#0" id="circle189"/>
	<circle cx="606.117" cy="43.3027" r="4" fill="#0" id="circle190"/>
	<circle cx="615.55" cy="104.615" r="4" fill="#0" id="circle191"/>
	<circle cx="621.838" cy="43.3027" r="4" fill="#0" id="circle192"/>
	<circle cx="631.271" cy="99.8986" r="4" fill="#0" id="circle193"/>
	<circle cx="637.559" cy="43.3027" r="4" fill="#0" id="circle194"/>
	<circle cx="646.992" cy="99.8986" r="4" fill="#0" id="circle195"/>
	<circle cx="653.281" cy="43.3027" r="4" fill="#0" id="circle196"/>
	<circle cx="662.713" cy="99.8986" r="4" fill="#0" id="circle197"/>
	<circle cx="669.002" cy="43.3027" r="4" fill="#0" id="circle198"/>
	<circle cx="678.434" cy="99.8986" r="4" fill="#0" id="circle199"/>
	<circle cx="684.723" cy="43.3027" r="4" fill="#0" id="circle200"/>
	<circle cx="694.155" cy="99.8986" r="4" fill="#0" id="circle201"/>
	<circle cx="700.444" cy="43.3027" r="4" fill="#0" id="circle202"/>
	<circle cx="709.876" cy="96.7544" r="4" fill="#0" id="circle203"/>
	<circle cx="716.165" cy="43.3027" r="4" fill="#0" id="circle204"/>
	<circle cx="725.597" cy="92.038" r="4" fill="#0" id="circle205"/>
	<circle cx="730.314" cy="35.4422" r="4" fill="#0" id="circle206"/>
	<circle cx="741.319" cy="92.038" r="4" fill="#0" id="circle207"/>
	<circle cx="746.035" cy="35.4422" r="4" fill="#0" id="circle208"/>
	<circle cx="757.04" cy="92.038" r="4" fill="#0" id="circle209"/>
	<circle cx="761.756" cy="35.4422" r="4" fill="#0" id="circle210"/>
	<circle cx="772.761" cy="92.038" r="4" fill="#0" id="circle211"/>
	<circle cx="777.477" cy="35.4422" r="4" fill="#0" id="circle212"/>
	<circle cx="788.482" cy="88.8938" r="4" fill="#0" id="circle213"/>
	<circle cx="791.626" cy="27.5816" r="4" fill="#0" id="circle214"/>
	<circle cx="804.203" cy="84.1775" r="4" fill="#0" id="circle215"/>
	<circle cx="807.347" cy="27.5816" r="4" fill="#0" id="circle216"/>
	<circle cx="819.924" cy="84.1775" r="4" fill="#0" id="circle217"/>
	<circle cx="823.068" cy="27.5816" r="4" fill="#0" id="circle218"/>
	<circle cx="835.645" cy="84.1775" r="4" fill="#0" id="circle219"/>
	<circle cx="838.789" cy="27.5816" r="4" fill="#0" id="circle220"/>
	<circle cx="851.366" cy="81.0333" r="4" fill="#0" id="circle221"/>
	<circle cx="854.51" cy="27.5816" r="4" fill="#0" id="circle222"/>
	<circle cx="867.087" cy="76.317" r="4" fill="#0" id="circle223"/>
	<circle cx="870.231" cy="27.5816" r="4" fill="#0" id="circle224"/>
	<circle cx="882.808" cy="76.317" r="4" fill="#0" id="circle225"/>
	<circle cx="884.38" cy="19.7211" r="4" fill="#0" id="circle226"/>
	<circle cx="898.529" cy="76.317" r="4" fill="#0" id="circle227"/>
	<circle cx="900.101" cy="19.7211" r="4" fill="#0" id="circle228"/>
	<circle cx="914.25" cy="76.317" r="4" fill="#0" id="circle229"/>
	<circle cx="915.823" cy="19.7211" r="4" fill="#0" id="circle230"/>
	<circle cx="929.971" cy="76.317" r="4" fill="#0" id="circle231"/>
	<circle cx="931.544" cy="19.7211" r="4" fill="#0" id="circle232"/>
	<circle cx="944.12" cy="68.4564" r="4" fill="#0" id="circle233"/>
	<circle cx="947.265" cy="19.7211" r="4" fill="#0" id="circle234"/>
	<circle cx="959.842" cy="68.4564" r="4" fill="#0" id="circle235"/>
	<circle cx="962.986" cy="16.5769" r="4" fill="#0" id="circle236"/>
	<circle cx="975.563" cy="68.4564" r="4" fill="#0" id="circle237"/>
	<circle cx="978.707" cy="11.8605" r="4" fill="#0" id="circle238"/>
	<circle cx="991.284" cy="66.8843" r="4" fill="#0" id="circle239"/>
	<circle cx="994.428" cy="15.0048" r="4" fill="#0" id="circle240"/>
	<circle cx="996" cy="30.7258" r="4" fill="#0" id="circle241"/>
	<circle cx="996" cy="46.4469" r="4" fill="#0" id="circle242"/>
	</g>
</svg>