<?xml version="1.0" encoding="UTF-8" standalone="no"?>
<!-- Created with CurveBenchmark -->
<svg
	xmlns:dc="http://purl.org/dc/elements/1.1/"
	xmlns:cc="http://creativecommons.org/ns#"
	xmlns:rdf="http://www.w3.org/1999/02/22-rdf-syntax-ns#"
	xmlns:svg="http://www.w3.org/2000/svg"
	xmlns="http://www.w3.org/2000/svg"
	xmlns:sodipodi="http://sodipodi.sourceforge.net/DTD/sodipodi-0.dtd"
	xmlns:inkscape="http://www.inkscape.org/namespaces/inkscape"
	width="1000"
	height="1000"
	id="svg2"
	version="1.1"
	sodipodi:docname="manifold/gathang-fish335.png.txt">
<defs
	id="defs4" />
<metadata
	id="metadata7">
	<rdf:RDF>
		<cc:Work
			rdf:about="">
			<dc:format>image/svg+xml</dc:format>
			<dc:type
				rdf:resource="http://purl.org/dc/dcmitype/StillImage" />
			<dc:title></dc:title>
		</cc:Work>
	</rdf:RDF>
</metadata>
<g
	inkscape:label="Layer 1"
	inkscape:groupmode="layer"
	id="layer1">
	<path style="fill:none;stroke:red;stroke-width:1px;stroke-linecap:butt;stroke-linejoin:miter;stroke-opacity:1" d="M 86.9226,172.916 114.563,157.56 z" id="boundary" inkscape:connector-curvature="0" />
	<path style="fill:none;stroke:red;stroke-width:1px;stroke-linecap:butt;stroke-linejoin:miter;stroke-opacity:1" d="M 145.276,145.276 114.563,157.56 z" id="boundary" inkscape:connector-curvature="0" />
	<path style="fill:none;stroke:red;stroke-width:1px;stroke-linecap:butt;stroke-linejoin:miter;stroke-opacity:1" d="M 175.988,132.991 206.7,120.706 z" id="boundary" inkscape:connector-curvature="0" />
	<path style="fill:none;stroke:red;stroke-width:1px;stroke-linecap:butt;stroke-linejoin:miter;stroke-opacity:1" d="M 237.412,114.563 206.7,120.706 z" id="boundary" inkscape:connector-curvature="0" />
	<path style="fill:none;stroke:red;stroke-width:1px;stroke-linecap:butt;stroke-linejoin:miter;stroke-opacity:1" d="M 175.988,132.991 145.276,145.276 z" id="boundary" inkscape:connector-curvature="0" />
	<path style="fill:none;stroke:red;stroke-width:1px;stroke-linecap:butt;stroke-linejoin:miter;stroke-opacity:1" d="M 10.1424,249.697 4,218.985 z" id="boundary" inkscape:connector-curvature="0" />
	<path style="fill:none;stroke:red;stroke-width:1px;stroke-linecap:butt;stroke-linejoin:miter;stroke-opacity:1" d="M 4,218.985 31.6409,203.628 z" id="boundary" inkscape:connector-curvature="0" />
	<path style="fill:none;stroke:red;stroke-width:1px;stroke-linecap:butt;stroke-linejoin:miter;stroke-opacity:1" d="M 31.6409,274.266 10.1424,249.697 z" id="boundary" inkscape:connector-curvature="0" />
	<path style="fill:none;stroke:red;stroke-width:1px;stroke-linecap:butt;stroke-linejoin:miter;stroke-opacity:1" d="M 59.2817,188.272 31.6409,203.628 z" id="boundary" inkscape:connector-curvature="0" />
	<path style="fill:none;stroke:red;stroke-width:1px;stroke-linecap:butt;stroke-linejoin:miter;stroke-opacity:1" d="M 86.9226,172.916 59.2817,188.272 z" id="boundary" inkscape:connector-curvature="0" />
	<path style="fill:none;stroke:red;stroke-width:1px;stroke-linecap:butt;stroke-linejoin:miter;stroke-opacity:1" d="M 326.477,37.7833 341.833,4 z" id="boundary" inkscape:connector-curvature="0" />
	<path style="fill:none;stroke:red;stroke-width:1px;stroke-linecap:butt;stroke-linejoin:miter;stroke-opacity:1" d="M 341.833,4 372.545,7.07121 z" id="boundary" inkscape:connector-curvature="0" />
	<path style="fill:none;stroke:red;stroke-width:1px;stroke-linecap:butt;stroke-linejoin:miter;stroke-opacity:1" d="M 433.969,25.4985 403.257,19.356 z" id="boundary" inkscape:connector-curvature="0" />
	<path style="fill:none;stroke:red;stroke-width:1px;stroke-linecap:butt;stroke-linejoin:miter;stroke-opacity:1" d="M 403.257,19.356 372.545,7.07121 z" id="boundary" inkscape:connector-curvature="0" />
	<path style="fill:none;stroke:red;stroke-width:1px;stroke-linecap:butt;stroke-linejoin:miter;stroke-opacity:1" d="M 298.836,53.1393 298.836,83.8514 z" id="boundary" inkscape:connector-curvature="0" />
	<path style="fill:none;stroke:red;stroke-width:1px;stroke-linecap:butt;stroke-linejoin:miter;stroke-opacity:1" d="M 298.836,83.8514 268.124,108.421 z" id="boundary" inkscape:connector-curvature="0" />
	<path style="fill:none;stroke:red;stroke-width:1px;stroke-linecap:butt;stroke-linejoin:miter;stroke-opacity:1" d="M 268.124,108.421 237.412,114.563 z" id="boundary" inkscape:connector-curvature="0" />
	<path style="fill:none;stroke:red;stroke-width:1px;stroke-linecap:butt;stroke-linejoin:miter;stroke-opacity:1" d="M 464.681,37.7833 492.322,53.1393 z" id="boundary" inkscape:connector-curvature="0" />
	<path style="fill:none;stroke:red;stroke-width:1px;stroke-linecap:butt;stroke-linejoin:miter;stroke-opacity:1" d="M 523.034,59.2817 492.322,53.1393 z" id="boundary" inkscape:connector-curvature="0" />
	<path style="fill:none;stroke:red;stroke-width:1px;stroke-linecap:butt;stroke-linejoin:miter;stroke-opacity:1" d="M 433.969,25.4985 464.681,37.7833 z" id="boundary" inkscape:connector-curvature="0" />
	<path style="fill:none;stroke:red;stroke-width:1px;stroke-linecap:butt;stroke-linejoin:miter;stroke-opacity:1" d="M 31.6409,274.266 56.2105,295.765 z" id="boundary" inkscape:connector-curvature="0" />
	<path style="fill:none;stroke:red;stroke-width:1px;stroke-linecap:butt;stroke-linejoin:miter;stroke-opacity:1" d="M 56.2105,295.765 77.709,320.334 z" id="boundary" inkscape:connector-curvature="0" />
	<path style="fill:none;stroke:red;stroke-width:1px;stroke-linecap:butt;stroke-linejoin:miter;stroke-opacity:1" d="M 132.991,347.975 102.279,338.762 z" id="boundary" inkscape:connector-curvature="0" />
	<path style="fill:none;stroke:red;stroke-width:1px;stroke-linecap:butt;stroke-linejoin:miter;stroke-opacity:1" d="M 102.279,338.762 77.709,320.334 z" id="boundary" inkscape:connector-curvature="0" />
	<path style="fill:none;stroke:red;stroke-width:1px;stroke-linecap:butt;stroke-linejoin:miter;stroke-opacity:1" d="M 163.703,357.189 194.415,369.474 z" id="boundary" inkscape:connector-curvature="0" />
	<path style="fill:none;stroke:red;stroke-width:1px;stroke-linecap:butt;stroke-linejoin:miter;stroke-opacity:1" d="M 225.127,381.759 255.839,387.901 z" id="boundary" inkscape:connector-curvature="0" />
	<path style="fill:none;stroke:red;stroke-width:1px;stroke-linecap:butt;stroke-linejoin:miter;stroke-opacity:1" d="M 225.127,381.759 194.415,369.474 z" id="boundary" inkscape:connector-curvature="0" />
	<path style="fill:none;stroke:red;stroke-width:1px;stroke-linecap:butt;stroke-linejoin:miter;stroke-opacity:1" d="M 280.409,406.328 255.839,387.901 z" id="boundary" inkscape:connector-curvature="0" />
	<path style="fill:none;stroke:red;stroke-width:1px;stroke-linecap:butt;stroke-linejoin:miter;stroke-opacity:1" d="M 132.991,347.975 163.703,357.189 z" id="boundary" inkscape:connector-curvature="0" />
	<path style="fill:none;stroke:red;stroke-width:1px;stroke-linecap:butt;stroke-linejoin:miter;stroke-opacity:1" d="M 280.409,406.328 292.693,437.04 z" id="boundary" inkscape:connector-curvature="0" />
	<path style="fill:none;stroke:red;stroke-width:1px;stroke-linecap:butt;stroke-linejoin:miter;stroke-opacity:1" d="M 467.752,443.183 461.61,412.471 z" id="boundary" inkscape:connector-curvature="0" />
	<path style="fill:none;stroke:red;stroke-width:1px;stroke-linecap:butt;stroke-linejoin:miter;stroke-opacity:1" d="M 461.61,412.471 452.396,381.759 z" id="boundary" inkscape:connector-curvature="0" />
	<path style="fill:none;stroke:red;stroke-width:1px;stroke-linecap:butt;stroke-linejoin:miter;stroke-opacity:1" d="M 452.396,381.759 483.108,381.759 z" id="boundary" inkscape:connector-curvature="0" />
	<path style="fill:none;stroke:red;stroke-width:1px;stroke-linecap:butt;stroke-linejoin:miter;stroke-opacity:1" d="M 483.108,381.759 513.82,381.759 z" id="boundary" inkscape:connector-curvature="0" />
	<path style="fill:none;stroke:red;stroke-width:1px;stroke-linecap:butt;stroke-linejoin:miter;stroke-opacity:1" d="M 390.972,480.037 363.331,495.393 z" id="boundary" inkscape:connector-curvature="0" />
	<path style="fill:none;stroke:red;stroke-width:1px;stroke-linecap:butt;stroke-linejoin:miter;stroke-opacity:1" d="M 363.331,495.393 332.619,486.18 z" id="boundary" inkscape:connector-curvature="0" />
	<path style="fill:none;stroke:red;stroke-width:1px;stroke-linecap:butt;stroke-linejoin:miter;stroke-opacity:1" d="M 332.619,486.18 308.05,464.681 z" id="boundary" inkscape:connector-curvature="0" />
	<path style="fill:none;stroke:red;stroke-width:1px;stroke-linecap:butt;stroke-linejoin:miter;stroke-opacity:1" d="M 421.684,492.322 390.972,480.037 z" id="boundary" inkscape:connector-curvature="0" />
	<path style="fill:none;stroke:red;stroke-width:1px;stroke-linecap:butt;stroke-linejoin:miter;stroke-opacity:1" d="M 308.05,464.681 292.693,437.04 z" id="boundary" inkscape:connector-curvature="0" />
	<path style="fill:none;stroke:red;stroke-width:1px;stroke-linecap:butt;stroke-linejoin:miter;stroke-opacity:1" d="M 452.396,486.18 421.684,492.322 z" id="boundary" inkscape:connector-curvature="0" />
	<path style="fill:none;stroke:red;stroke-width:1px;stroke-linecap:butt;stroke-linejoin:miter;stroke-opacity:1" d="M 467.752,443.183 452.396,486.18 z" id="boundary" inkscape:connector-curvature="0" />
	<path style="fill:none;stroke:red;stroke-width:1px;stroke-linecap:butt;stroke-linejoin:miter;stroke-opacity:1" d="M 547.604,77.709 572.173,96.1362 z" id="boundary" inkscape:connector-curvature="0" />
	<path style="fill:none;stroke:red;stroke-width:1px;stroke-linecap:butt;stroke-linejoin:miter;stroke-opacity:1" d="M 547.604,77.709 523.034,59.2817 z" id="boundary" inkscape:connector-curvature="0" />
	<path style="fill:none;stroke:red;stroke-width:1px;stroke-linecap:butt;stroke-linejoin:miter;stroke-opacity:1" d="M 633.598,86.9226 664.31,77.709 z" id="boundary" inkscape:connector-curvature="0" />
	<path style="fill:none;stroke:red;stroke-width:1px;stroke-linecap:butt;stroke-linejoin:miter;stroke-opacity:1" d="M 664.31,77.709 695.022,89.9938 z" id="boundary" inkscape:connector-curvature="0" />
	<path style="fill:none;stroke:red;stroke-width:1px;stroke-linecap:butt;stroke-linejoin:miter;stroke-opacity:1" d="M 633.598,86.9226 602.885,99.2074 z" id="boundary" inkscape:connector-curvature="0" />
	<path style="fill:none;stroke:red;stroke-width:1px;stroke-linecap:butt;stroke-linejoin:miter;stroke-opacity:1" d="M 572.173,96.1362 602.885,99.2074 z" id="boundary" inkscape:connector-curvature="0" />
	<path style="fill:none;stroke:red;stroke-width:1px;stroke-linecap:butt;stroke-linejoin:miter;stroke-opacity:1" d="M 768.731,151.418 744.161,129.92 z" id="boundary" inkscape:connector-curvature="0" />
	<path style="fill:none;stroke:red;stroke-width:1px;stroke-linecap:butt;stroke-linejoin:miter;stroke-opacity:1" d="M 744.161,129.92 722.663,105.35 z" id="boundary" inkscape:connector-curvature="0" />
	<path style="fill:none;stroke:red;stroke-width:1px;stroke-linecap:butt;stroke-linejoin:miter;stroke-opacity:1" d="M 695.022,89.9938 722.663,105.35 z" id="boundary" inkscape:connector-curvature="0" />
	<path style="fill:none;stroke:red;stroke-width:1px;stroke-linecap:butt;stroke-linejoin:miter;stroke-opacity:1" d="M 768.731,151.418 784.087,179.059 z" id="boundary" inkscape:connector-curvature="0" />
	<path style="fill:none;stroke:red;stroke-width:1px;stroke-linecap:butt;stroke-linejoin:miter;stroke-opacity:1" d="M 900.793,151.418 931.505,139.133 z" id="boundary" inkscape:connector-curvature="0" />
	<path style="fill:none;stroke:red;stroke-width:1px;stroke-linecap:butt;stroke-linejoin:miter;stroke-opacity:1" d="M 900.793,151.418 870.08,163.703 z" id="boundary" inkscape:connector-curvature="0" />
	<path style="fill:none;stroke:red;stroke-width:1px;stroke-linecap:butt;stroke-linejoin:miter;stroke-opacity:1" d="M 962.217,132.991 992.929,129.92 z" id="boundary" inkscape:connector-curvature="0" />
	<path style="fill:none;stroke:red;stroke-width:1px;stroke-linecap:butt;stroke-linejoin:miter;stroke-opacity:1" d="M 992.929,129.92 996,160.632 z" id="boundary" inkscape:connector-curvature="0" />
	<path style="fill:none;stroke:red;stroke-width:1px;stroke-linecap:butt;stroke-linejoin:miter;stroke-opacity:1" d="M 931.505,139.133 962.217,132.991 z" id="boundary" inkscape:connector-curvature="0" />
	<path style="fill:none;stroke:red;stroke-width:1px;stroke-linecap:butt;stroke-linejoin:miter;stroke-opacity:1" d="M 996,160.632 983.715,194.415 z" id="boundary" inkscape:connector-curvature="0" />
	<path style="fill:none;stroke:red;stroke-width:1px;stroke-linecap:butt;stroke-linejoin:miter;stroke-opacity:1" d="M 842.44,179.059 811.728,194.415 z" id="boundary" inkscape:connector-curvature="0" />
	<path style="fill:none;stroke:red;stroke-width:1px;stroke-linecap:butt;stroke-linejoin:miter;stroke-opacity:1" d="M 811.728,194.415 784.087,179.059 z" id="boundary" inkscape:connector-curvature="0" />
	<path style="fill:none;stroke:red;stroke-width:1px;stroke-linecap:butt;stroke-linejoin:miter;stroke-opacity:1" d="M 983.715,194.415 977.573,225.127 z" id="boundary" inkscape:connector-curvature="0" />
	<path style="fill:none;stroke:red;stroke-width:1px;stroke-linecap:butt;stroke-linejoin:miter;stroke-opacity:1" d="M 842.44,179.059 870.08,163.703 z" id="boundary" inkscape:connector-curvature="0" />
	<path style="fill:none;stroke:red;stroke-width:1px;stroke-linecap:butt;stroke-linejoin:miter;stroke-opacity:1" d="M 977.573,225.127 977.573,255.839 z" id="boundary" inkscape:connector-curvature="0" />
	<path style="fill:none;stroke:red;stroke-width:1px;stroke-linecap:butt;stroke-linejoin:miter;stroke-opacity:1" d="M 544.533,375.616 575.245,375.616 z" id="boundary" inkscape:connector-curvature="0" />
	<path style="fill:none;stroke:red;stroke-width:1px;stroke-linecap:butt;stroke-linejoin:miter;stroke-opacity:1" d="M 664.31,387.901 636.669,372.545 z" id="boundary" inkscape:connector-curvature="0" />
	<path style="fill:none;stroke:red;stroke-width:1px;stroke-linecap:butt;stroke-linejoin:miter;stroke-opacity:1" d="M 636.669,372.545 605.957,369.474 z" id="boundary" inkscape:connector-curvature="0" />
	<path style="fill:none;stroke:red;stroke-width:1px;stroke-linecap:butt;stroke-linejoin:miter;stroke-opacity:1" d="M 695.022,394.043 664.31,387.901 z" id="boundary" inkscape:connector-curvature="0" />
	<path style="fill:none;stroke:red;stroke-width:1px;stroke-linecap:butt;stroke-linejoin:miter;stroke-opacity:1" d="M 575.245,375.616 605.957,369.474 z" id="boundary" inkscape:connector-curvature="0" />
	<path style="fill:none;stroke:red;stroke-width:1px;stroke-linecap:butt;stroke-linejoin:miter;stroke-opacity:1" d="M 725.734,394.043 695.022,394.043 z" id="boundary" inkscape:connector-curvature="0" />
	<path style="fill:none;stroke:red;stroke-width:1px;stroke-linecap:butt;stroke-linejoin:miter;stroke-opacity:1" d="M 781.015,317.263 771.802,357.189 z" id="boundary" inkscape:connector-curvature="0" />
	<path style="fill:none;stroke:red;stroke-width:1px;stroke-linecap:butt;stroke-linejoin:miter;stroke-opacity:1" d="M 725.734,394.043 756.446,384.83 z" id="boundary" inkscape:connector-curvature="0" />
	<path style="fill:none;stroke:red;stroke-width:1px;stroke-linecap:butt;stroke-linejoin:miter;stroke-opacity:1" d="M 771.802,357.189 756.446,384.83 z" id="boundary" inkscape:connector-curvature="0" />
	<path style="fill:none;stroke:red;stroke-width:1px;stroke-linecap:butt;stroke-linejoin:miter;stroke-opacity:1" d="M 513.82,381.759 544.533,375.616 z" id="boundary" inkscape:connector-curvature="0" />
	<path style="fill:none;stroke:red;stroke-width:1px;stroke-linecap:butt;stroke-linejoin:miter;stroke-opacity:1" d="M 781.015,317.263 805.585,295.765 z" id="boundary" inkscape:connector-curvature="0" />
	<path style="fill:none;stroke:red;stroke-width:1px;stroke-linecap:butt;stroke-linejoin:miter;stroke-opacity:1" d="M 805.585,295.765 836.297,308.05 z" id="boundary" inkscape:connector-curvature="0" />
	<path style="fill:none;stroke:red;stroke-width:1px;stroke-linecap:butt;stroke-linejoin:miter;stroke-opacity:1" d="M 863.938,323.406 836.297,308.05 z" id="boundary" inkscape:connector-curvature="0" />
	<path style="fill:none;stroke:red;stroke-width:1px;stroke-linecap:butt;stroke-linejoin:miter;stroke-opacity:1" d="M 983.715,286.551 977.573,255.839 z" id="boundary" inkscape:connector-curvature="0" />
	<path style="fill:none;stroke:red;stroke-width:1px;stroke-linecap:butt;stroke-linejoin:miter;stroke-opacity:1" d="M 922.291,351.046 891.579,338.762 z" id="boundary" inkscape:connector-curvature="0" />
	<path style="fill:none;stroke:red;stroke-width:1px;stroke-linecap:butt;stroke-linejoin:miter;stroke-opacity:1" d="M 891.579,338.762 863.938,323.406 z" id="boundary" inkscape:connector-curvature="0" />
	<path style="fill:none;stroke:red;stroke-width:1px;stroke-linecap:butt;stroke-linejoin:miter;stroke-opacity:1" d="M 989.858,317.263 983.715,363.331 z" id="boundary" inkscape:connector-curvature="0" />
	<path style="fill:none;stroke:red;stroke-width:1px;stroke-linecap:butt;stroke-linejoin:miter;stroke-opacity:1" d="M 983.715,363.331 953.003,363.331 z" id="boundary" inkscape:connector-curvature="0" />
	<path style="fill:none;stroke:red;stroke-width:1px;stroke-linecap:butt;stroke-linejoin:miter;stroke-opacity:1" d="M 953.003,363.331 922.291,351.046 z" id="boundary" inkscape:connector-curvature="0" />
	<path style="fill:none;stroke:red;stroke-width:1px;stroke-linecap:butt;stroke-linejoin:miter;stroke-opacity:1" d="M 983.715,286.551 989.858,317.263 z" id="boundary" inkscape:connector-curvature="0" />
	<circle cx="4" cy="218.985" r="4" fill="#0" id="circle0"/>
	<circle cx="10.1424" cy="249.697" r="4" fill="#0" id="circle1"/>
	<circle cx="31.6409" cy="203.628" r="4" fill="#0" id="circle2"/>
	<circle cx="31.6409" cy="274.266" r="4" fill="#0" id="circle3"/>
	<circle cx="56.2105" cy="295.765" r="4" fill="#0" id="circle4"/>
	<circle cx="59.2817" cy="188.272" r="4" fill="#0" id="circle5"/>
	<circle cx="77.709" cy="320.334" r="4" fill="#0" id="circle6"/>
	<circle cx="86.9226" cy="172.916" r="4" fill="#0" id="circle7"/>
	<circle cx="102.279" cy="338.762" r="4" fill="#0" id="circle8"/>
	<circle cx="114.563" cy="157.56" r="4" fill="#0" id="circle9"/>
	<circle cx="132.991" cy="347.975" r="4" fill="#0" id="circle10"/>
	<circle cx="145.276" cy="145.276" r="4" fill="#0" id="circle11"/>
	<circle cx="163.703" cy="357.189" r="4" fill="#0" id="circle12"/>
	<circle cx="175.988" cy="132.991" r="4" fill="#0" id="circle13"/>
	<circle cx="194.415" cy="369.474" r="4" fill="#0" id="circle14"/>
	<circle cx="206.7" cy="120.706" r="4" fill="#0" id="circle15"/>
	<circle cx="225.127" cy="381.759" r="4" fill="#0" id="circle16"/>
	<circle cx="237.412" cy="114.563" r="4" fill="#0" id="circle17"/>
	<circle cx="255.839" cy="387.901" r="4" fill="#0" id="circle18"/>
	<circle cx="268.124" cy="108.421" r="4" fill="#0" id="circle19"/>
	<circle cx="280.409" cy="406.328" r="4" fill="#0" id="circle20"/>
	<circle cx="292.693" cy="437.04" r="4" fill="#0" id="circle21"/>
	<circle cx="298.836" cy="53.1393" r="4" fill="#0" id="circle22"/>
	<circle cx="298.836" cy="83.8514" r="4" fill="#0" id="circle23"/>
	<circle cx="308.05" cy="464.681" r="4" fill="#0" id="circle24"/>
	<circle cx="326.477" cy="37.7833" r="4" fill="#0" id="circle25"/>
	<circle cx="332.619" cy="486.18" r="4" fill="#0" id="circle26"/>
	<circle cx="341.833" cy="4" r="4" fill="#0" id="circle27"/>
	<circle cx="363.331" cy="495.393" r="4" fill="#0" id="circle28"/>
	<circle cx="372.545" cy="7.07121" r="4" fill="#0" id="circle29"/>
	<circle cx="390.972" cy="480.037" r="4" fill="#0" id="circle30"/>
	<circle cx="403.257" cy="19.356" r="4" fill="#0" id="circle31"/>
	<circle cx="421.684" cy="492.322" r="4" fill="#0" id="circle32"/>
	<circle cx="433.969" cy="25.4985" r="4" fill="#0" id="circle33"/>
	<circle cx="452.396" cy="381.759" r="4" fill="#0" id="circle34"/>
	<circle cx="452.396" cy="486.18" r="4" fill="#0" id="circle35"/>
	<circle cx="461.61" cy="412.471" r="4" fill="#0" id="circle36"/>
	<circle cx="464.681" cy="37.7833" r="4" fill="#0" id="circle37"/>
	<circle cx="467.752" cy="443.183" r="4" fill="#0" id="circle38"/>
	<circle cx="483.108" cy="381.759" r="4" fill="#0" id="circle39"/>
	<circle cx="492.322" cy="53.1393" r="4" fill="#0" id="circle40"/>
	<circle cx="513.82" cy="381.759" r="4" fill="#0" id="circle41"/>
	<circle cx="523.034" cy="59.2817" r="4" fill="#0" id="circle42"/>
	<circle cx="544.533" cy="375.616" r="4" fill="#0" id="circle43"/>
	<circle cx="547.604" cy="77.709" r="4" fill="#0" id="circle44"/>
	<circle cx="572.173" cy="96.1362" r="4" fill="#0" id="circle45"/>
	<circle cx="575.245" cy="375.616" r="4" fill="#0" id="circle46"/>
	<circle cx="602.885" cy="99.2074" r="4" fill="#0" id="circle47"/>
	<circle cx="605.957" cy="369.474" r="4" fill="#0" id="circle48"/>
	<circle cx="633.598" cy="86.9226" r="4" fill="#0" id="circle49"/>
	<circle cx="636.669" cy="372.545" r="4" fill="#0" id="circle50"/>
	<circle cx="664.31" cy="77.709" r="4" fill="#0" id="circle51"/>
	<circle cx="664.31" cy="387.901" r="4" fill="#0" id="circle52"/>
	<circle cx="695.022" cy="89.9938" r="4" fill="#0" id="circle53"/>
	<circle cx="695.022" cy="394.043" r="4" fill="#0" id="circle54"/>
	<circle cx="722.663" cy="105.35" r="4" fill="#0" id="circle55"/>
	<circle cx="725.734" cy="394.043" r="4" fill="#0" id="circle56"/>
	<circle cx="744.161" cy="129.92" r="4" fill="#0" id="circle57"/>
	<circle cx="756.446" cy="384.83" r="4" fill="#0" id="circle58"/>
	<circle cx="768.731" cy="151.418" r="4" fill="#0" id="circle59"/>
	<circle cx="771.802" cy="357.189" r="4" fill="#0" id="circle60"/>
	<circle cx="781.015" cy="317.263" r="4" fill="#0" id="circle61"/>
	<circle cx="784.087" cy="179.059" r="4" fill="#0" id="circle62"/>
	<circle cx="805.585" cy="295.765" r="4" fill="#0" id="circle63"/>
	<circle cx="811.728" cy="194.415" r="4" fill="#0" id="circle64"/>
	<circle cx="836.297" cy="308.05" r="4" fill="#0" id="circle65"/>
	<circle cx="842.44" cy="179.059" r="4" fill="#0" id="circle66"/>
	<circle cx="863.938" cy="323.406" r="4" fill="#0" id="circle67"/>
	<circle cx="870.08" cy="163.703" r="4" fill="#0" id="circle68"/>
	<circle cx="891.579" cy="338.762" r="4" fill="#0" id="circle69"/>
	<circle cx="900.793" cy="151.418" r="4" fill="#0" id="circle70"/>
	<circle cx="922.291" cy="351.046" r="4" fill="#0" id="circle71"/>
	<circle cx="931.505" cy="139.133" r="4" fill="#0" id="circle72"/>
	<circle cx="953.003" cy="363.331" r="4" fill="#0" id="circle73"/>
	<circle cx="962.217" cy="132.991" r="4" fill="#0" id="circle74"/>
	<circle cx="977.573" cy="225.127" r="4" fill="#0" id="circle75"/>
	<circle cx="977.573" cy="255.839" r="4" fill="#0" id="circle76"/>
	<circle cx="983.715" cy="194.415" r="4" fill="#0" id="circle77"/>
	<circle cx="983.715" cy="286.551" r="4" fill="#0" id="circle78"/>
	<circle cx="983.715" cy="363.331" r="4" fill="#0" id="circle79"/>
	<circle cx="989.858" cy="317.263" r="4" fill="#0" id="circle80"/>
	<circle cx="992.929" cy="129.92" r="4" fill="#0" id="circle81"/>
	<circle cx="996" cy="160.632" r="4" fill="#0" id="circle82"/>
	</g>
</svg>