<?xml version="1.0" encoding="UTF-8" standalone="no"?>
<!-- Created with CurveBenchmark -->
<svg
	xmlns:dc="http://purl.org/dc/elements/1.1/"
	xmlns:cc="http://creativecommons.org/ns#"
	xmlns:rdf="http://www.w3.org/1999/02/22-rdf-syntax-ns#"
	xmlns:svg="http://www.w3.org/2000/svg"
	xmlns="http://www.w3.org/2000/svg"
	xmlns:sodipodi="http://sodipodi.sourceforge.net/DTD/sodipodi-0.dtd"
	xmlns:inkscape="http://www.inkscape.org/namespaces/inkscape"
	width="1000"
	height="1000"
	id="svg2"
	version="1.1"
	sodipodi:docname="manifold/gathang-television275.png.txt">
<defs
	id="defs4" />
<metadata
	id="metadata7">
	<rdf:RDF>
		<cc:Work
			rdf:about="">
			<dc:format>image/svg+xml</dc:format>
			<dc:type
				rdf:resource="http://purl.org/dc/dcmitype/StillImage" />
			<dc:title></dc:title>
		</cc:Work>
	</rdf:RDF>
</metadata>
<g
	inkscape:label="Layer 1"
	inkscape:groupmode="layer"
	id="layer1">
	<path style="fill:none;stroke:red;stroke-width:1px;stroke-linecap:butt;stroke-linejoin:miter;stroke-opacity:1" d="M 105.945,82.419 105.945,121.628 z" id="boundary" inkscape:connector-curvature="0" />
	<path style="fill:none;stroke:red;stroke-width:1px;stroke-linecap:butt;stroke-linejoin:miter;stroke-opacity:1" d="M 105.945,160.838 105.945,121.628 z" id="boundary" inkscape:connector-curvature="0" />
	<path style="fill:none;stroke:red;stroke-width:1px;stroke-linecap:butt;stroke-linejoin:miter;stroke-opacity:1" d="M 105.945,200.047 105.945,239.257 z" id="boundary" inkscape:connector-curvature="0" />
	<path style="fill:none;stroke:red;stroke-width:1px;stroke-linecap:butt;stroke-linejoin:miter;stroke-opacity:1" d="M 105.945,278.466 105.945,239.257 z" id="boundary" inkscape:connector-curvature="0" />
	<path style="fill:none;stroke:red;stroke-width:1px;stroke-linecap:butt;stroke-linejoin:miter;stroke-opacity:1" d="M 105.945,200.047 105.945,160.838 z" id="boundary" inkscape:connector-curvature="0" />
	<path style="fill:none;stroke:red;stroke-width:1px;stroke-linecap:butt;stroke-linejoin:miter;stroke-opacity:1" d="M 105.945,317.676 105.945,356.885 z" id="boundary" inkscape:connector-curvature="0" />
	<path style="fill:none;stroke:red;stroke-width:1px;stroke-linecap:butt;stroke-linejoin:miter;stroke-opacity:1" d="M 105.945,396.095 105.945,356.885 z" id="boundary" inkscape:connector-curvature="0" />
	<path style="fill:none;stroke:red;stroke-width:1px;stroke-linecap:butt;stroke-linejoin:miter;stroke-opacity:1" d="M 105.945,435.304 105.945,396.095 z" id="boundary" inkscape:connector-curvature="0" />
	<path style="fill:none;stroke:red;stroke-width:1px;stroke-linecap:butt;stroke-linejoin:miter;stroke-opacity:1" d="M 105.945,435.304 105.945,474.514 z" id="boundary" inkscape:connector-curvature="0" />
	<path style="fill:none;stroke:red;stroke-width:1px;stroke-linecap:butt;stroke-linejoin:miter;stroke-opacity:1" d="M 105.945,513.723 105.945,474.514 z" id="boundary" inkscape:connector-curvature="0" />
	<path style="fill:none;stroke:red;stroke-width:1px;stroke-linecap:butt;stroke-linejoin:miter;stroke-opacity:1" d="M 105.945,278.466 105.945,317.676 z" id="boundary" inkscape:connector-curvature="0" />
	<path style="fill:none;stroke:red;stroke-width:1px;stroke-linecap:butt;stroke-linejoin:miter;stroke-opacity:1" d="M 160.838,19.6838 200.047,4 z" id="boundary" inkscape:connector-curvature="0" />
	<path style="fill:none;stroke:red;stroke-width:1px;stroke-linecap:butt;stroke-linejoin:miter;stroke-opacity:1" d="M 105.945,82.419 160.838,19.6838 z" id="boundary" inkscape:connector-curvature="0" />
	<path style="fill:none;stroke:red;stroke-width:1px;stroke-linecap:butt;stroke-linejoin:miter;stroke-opacity:1" d="M 200.047,4 239.257,4 z" id="boundary" inkscape:connector-curvature="0" />
	<path style="fill:none;stroke:red;stroke-width:1px;stroke-linecap:butt;stroke-linejoin:miter;stroke-opacity:1" d="M 243.178,525.486 203.968,529.407 z" id="boundary" inkscape:connector-curvature="0" />
	<path style="fill:none;stroke:red;stroke-width:1px;stroke-linecap:butt;stroke-linejoin:miter;stroke-opacity:1" d="M 203.968,568.617 203.968,529.407 z" id="boundary" inkscape:connector-curvature="0" />
	<path style="fill:none;stroke:red;stroke-width:1px;stroke-linecap:butt;stroke-linejoin:miter;stroke-opacity:1" d="M 105.945,552.933 105.945,513.723 z" id="boundary" inkscape:connector-curvature="0" />
	<path style="fill:none;stroke:red;stroke-width:1px;stroke-linecap:butt;stroke-linejoin:miter;stroke-opacity:1" d="M 105.945,552.933 105.945,592.142 z" id="boundary" inkscape:connector-curvature="0" />
	<path style="fill:none;stroke:red;stroke-width:1px;stroke-linecap:butt;stroke-linejoin:miter;stroke-opacity:1" d="M 105.945,631.352 105.945,592.142 z" id="boundary" inkscape:connector-curvature="0" />
	<path style="fill:none;stroke:red;stroke-width:1px;stroke-linecap:butt;stroke-linejoin:miter;stroke-opacity:1" d="M 203.968,568.617 203.968,607.826 z" id="boundary" inkscape:connector-curvature="0" />
	<path style="fill:none;stroke:red;stroke-width:1px;stroke-linecap:butt;stroke-linejoin:miter;stroke-opacity:1" d="M 243.178,654.877 203.968,647.036 z" id="boundary" inkscape:connector-curvature="0" />
	<path style="fill:none;stroke:red;stroke-width:1px;stroke-linecap:butt;stroke-linejoin:miter;stroke-opacity:1" d="M 203.968,647.036 203.968,607.826 z" id="boundary" inkscape:connector-curvature="0" />
	<path style="fill:none;stroke:red;stroke-width:1px;stroke-linecap:butt;stroke-linejoin:miter;stroke-opacity:1" d="M 105.945,670.561 105.945,631.352 z" id="boundary" inkscape:connector-curvature="0" />
	<path style="fill:none;stroke:red;stroke-width:1px;stroke-linecap:butt;stroke-linejoin:miter;stroke-opacity:1" d="M 282.387,654.877 243.178,654.877 z" id="boundary" inkscape:connector-curvature="0" />
	<path style="fill:none;stroke:red;stroke-width:1px;stroke-linecap:butt;stroke-linejoin:miter;stroke-opacity:1" d="M 105.945,670.561 105.945,709.771 z" id="boundary" inkscape:connector-curvature="0" />
	<path style="fill:none;stroke:red;stroke-width:1px;stroke-linecap:butt;stroke-linejoin:miter;stroke-opacity:1" d="M 43.2095,897.976 4,905.818 z" id="boundary" inkscape:connector-curvature="0" />
	<path style="fill:none;stroke:red;stroke-width:1px;stroke-linecap:butt;stroke-linejoin:miter;stroke-opacity:1" d="M 105.945,709.771 105.945,748.98 z" id="boundary" inkscape:connector-curvature="0" />
	<path style="fill:none;stroke:red;stroke-width:1px;stroke-linecap:butt;stroke-linejoin:miter;stroke-opacity:1" d="M 105.945,748.98 105.945,788.19 z" id="boundary" inkscape:connector-curvature="0" />
	<path style="fill:none;stroke:red;stroke-width:1px;stroke-linecap:butt;stroke-linejoin:miter;stroke-opacity:1" d="M 105.945,827.399 105.945,788.19 z" id="boundary" inkscape:connector-curvature="0" />
	<path style="fill:none;stroke:red;stroke-width:1px;stroke-linecap:butt;stroke-linejoin:miter;stroke-opacity:1" d="M 82.419,897.976 43.2095,897.976 z" id="boundary" inkscape:connector-curvature="0" />
	<path style="fill:none;stroke:red;stroke-width:1px;stroke-linecap:butt;stroke-linejoin:miter;stroke-opacity:1" d="M 105.945,866.609 82.419,897.976 z" id="boundary" inkscape:connector-curvature="0" />
	<path style="fill:none;stroke:red;stroke-width:1px;stroke-linecap:butt;stroke-linejoin:miter;stroke-opacity:1" d="M 54.9723,984.237 15.7628,984.237 z" id="boundary" inkscape:connector-curvature="0" />
	<path style="fill:none;stroke:red;stroke-width:1px;stroke-linecap:butt;stroke-linejoin:miter;stroke-opacity:1" d="M 15.7628,984.237 4,945.028 z" id="boundary" inkscape:connector-curvature="0" />
	<path style="fill:none;stroke:red;stroke-width:1px;stroke-linecap:butt;stroke-linejoin:miter;stroke-opacity:1" d="M 4,945.028 4,905.818 z" id="boundary" inkscape:connector-curvature="0" />
	<path style="fill:none;stroke:red;stroke-width:1px;stroke-linecap:butt;stroke-linejoin:miter;stroke-opacity:1" d="M 94.1818,980.316 54.9723,984.237 z" id="boundary" inkscape:connector-curvature="0" />
	<path style="fill:none;stroke:red;stroke-width:1px;stroke-linecap:butt;stroke-linejoin:miter;stroke-opacity:1" d="M 133.391,980.316 94.1818,980.316 z" id="boundary" inkscape:connector-curvature="0" />
	<path style="fill:none;stroke:red;stroke-width:1px;stroke-linecap:butt;stroke-linejoin:miter;stroke-opacity:1" d="M 105.945,827.399 105.945,866.609 z" id="boundary" inkscape:connector-curvature="0" />
	<path style="fill:none;stroke:red;stroke-width:1px;stroke-linecap:butt;stroke-linejoin:miter;stroke-opacity:1" d="M 203.968,741.138 207.889,780.348 z" id="boundary" inkscape:connector-curvature="0" />
	<path style="fill:none;stroke:red;stroke-width:1px;stroke-linecap:butt;stroke-linejoin:miter;stroke-opacity:1" d="M 203.968,741.138 203.968,701.929 z" id="boundary" inkscape:connector-curvature="0" />
	<path style="fill:none;stroke:red;stroke-width:1px;stroke-linecap:butt;stroke-linejoin:miter;stroke-opacity:1" d="M 203.968,701.929 262.783,690.166 z" id="boundary" inkscape:connector-curvature="0" />
	<path style="fill:none;stroke:red;stroke-width:1px;stroke-linecap:butt;stroke-linejoin:miter;stroke-opacity:1" d="M 207.889,780.348 203.968,819.557 z" id="boundary" inkscape:connector-curvature="0" />
	<path style="fill:none;stroke:red;stroke-width:1px;stroke-linecap:butt;stroke-linejoin:miter;stroke-opacity:1" d="M 203.968,819.557 203.968,858.767 z" id="boundary" inkscape:connector-curvature="0" />
	<path style="fill:none;stroke:red;stroke-width:1px;stroke-linecap:butt;stroke-linejoin:miter;stroke-opacity:1" d="M 207.889,897.976 203.968,858.767 z" id="boundary" inkscape:connector-curvature="0" />
	<path style="fill:none;stroke:red;stroke-width:1px;stroke-linecap:butt;stroke-linejoin:miter;stroke-opacity:1" d="M 172.601,980.316 133.391,980.316 z" id="boundary" inkscape:connector-curvature="0" />
	<path style="fill:none;stroke:red;stroke-width:1px;stroke-linecap:butt;stroke-linejoin:miter;stroke-opacity:1" d="M 207.889,897.976 239.257,921.502 z" id="boundary" inkscape:connector-curvature="0" />
	<path style="fill:none;stroke:red;stroke-width:1px;stroke-linecap:butt;stroke-linejoin:miter;stroke-opacity:1" d="M 251.02,980.316 211.81,980.316 z" id="boundary" inkscape:connector-curvature="0" />
	<path style="fill:none;stroke:red;stroke-width:1px;stroke-linecap:butt;stroke-linejoin:miter;stroke-opacity:1" d="M 211.81,980.316 172.601,980.316 z" id="boundary" inkscape:connector-curvature="0" />
	<path style="fill:none;stroke:red;stroke-width:1px;stroke-linecap:butt;stroke-linejoin:miter;stroke-opacity:1" d="M 298.071,47.1304 298.071,86.3399 z" id="boundary" inkscape:connector-curvature="0" />
	<path style="fill:none;stroke:red;stroke-width:1px;stroke-linecap:butt;stroke-linejoin:miter;stroke-opacity:1" d="M 298.071,86.3399 298.071,125.549 z" id="boundary" inkscape:connector-curvature="0" />
	<path style="fill:none;stroke:red;stroke-width:1px;stroke-linecap:butt;stroke-linejoin:miter;stroke-opacity:1" d="M 298.071,125.549 298.071,164.759 z" id="boundary" inkscape:connector-curvature="0" />
	<path style="fill:none;stroke:red;stroke-width:1px;stroke-linecap:butt;stroke-linejoin:miter;stroke-opacity:1" d="M 298.071,203.968 298.071,164.759 z" id="boundary" inkscape:connector-curvature="0" />
	<path style="fill:none;stroke:red;stroke-width:1px;stroke-linecap:butt;stroke-linejoin:miter;stroke-opacity:1" d="M 298.071,203.968 298.071,243.178 z" id="boundary" inkscape:connector-curvature="0" />
	<path style="fill:none;stroke:red;stroke-width:1px;stroke-linecap:butt;stroke-linejoin:miter;stroke-opacity:1" d="M 243.178,525.486 282.387,505.881 z" id="boundary" inkscape:connector-curvature="0" />
	<path style="fill:none;stroke:red;stroke-width:1px;stroke-linecap:butt;stroke-linejoin:miter;stroke-opacity:1" d="M 321.597,654.877 282.387,654.877 z" id="boundary" inkscape:connector-curvature="0" />
	<path style="fill:none;stroke:red;stroke-width:1px;stroke-linecap:butt;stroke-linejoin:miter;stroke-opacity:1" d="M 301.992,690.166 262.783,690.166 z" id="boundary" inkscape:connector-curvature="0" />
	<path style="fill:none;stroke:red;stroke-width:1px;stroke-linecap:butt;stroke-linejoin:miter;stroke-opacity:1" d="M 298.071,282.387 298.071,321.597 z" id="boundary" inkscape:connector-curvature="0" />
	<path style="fill:none;stroke:red;stroke-width:1px;stroke-linecap:butt;stroke-linejoin:miter;stroke-opacity:1" d="M 298.071,282.387 298.071,243.178 z" id="boundary" inkscape:connector-curvature="0" />
	<path style="fill:none;stroke:red;stroke-width:1px;stroke-linecap:butt;stroke-linejoin:miter;stroke-opacity:1" d="M 298.071,321.597 298.071,360.806 z" id="boundary" inkscape:connector-curvature="0" />
	<path style="fill:none;stroke:red;stroke-width:1px;stroke-linecap:butt;stroke-linejoin:miter;stroke-opacity:1" d="M 298.071,360.806 298.071,400.016 z" id="boundary" inkscape:connector-curvature="0" />
	<path style="fill:none;stroke:red;stroke-width:1px;stroke-linecap:butt;stroke-linejoin:miter;stroke-opacity:1" d="M 298.071,400.016 298.071,439.225 z" id="boundary" inkscape:connector-curvature="0" />
	<path style="fill:none;stroke:red;stroke-width:1px;stroke-linecap:butt;stroke-linejoin:miter;stroke-opacity:1" d="M 439.225,654.877 400.016,654.877 z" id="boundary" inkscape:connector-curvature="0" />
	<path style="fill:none;stroke:red;stroke-width:1px;stroke-linecap:butt;stroke-linejoin:miter;stroke-opacity:1" d="M 298.071,439.225 282.387,505.881 z" id="boundary" inkscape:connector-curvature="0" />
	<path style="fill:none;stroke:red;stroke-width:1px;stroke-linecap:butt;stroke-linejoin:miter;stroke-opacity:1" d="M 321.597,654.877 360.806,654.877 z" id="boundary" inkscape:connector-curvature="0" />
	<path style="fill:none;stroke:red;stroke-width:1px;stroke-linecap:butt;stroke-linejoin:miter;stroke-opacity:1" d="M 400.016,654.877 360.806,654.877 z" id="boundary" inkscape:connector-curvature="0" />
	<path style="fill:none;stroke:red;stroke-width:1px;stroke-linecap:butt;stroke-linejoin:miter;stroke-opacity:1" d="M 301.992,690.166 341.202,690.166 z" id="boundary" inkscape:connector-curvature="0" />
	<path style="fill:none;stroke:red;stroke-width:1px;stroke-linecap:butt;stroke-linejoin:miter;stroke-opacity:1" d="M 380.411,690.166 341.202,690.166 z" id="boundary" inkscape:connector-curvature="0" />
	<path style="fill:none;stroke:red;stroke-width:1px;stroke-linecap:butt;stroke-linejoin:miter;stroke-opacity:1" d="M 439.225,654.877 458.83,690.166 z" id="boundary" inkscape:connector-curvature="0" />
	<path style="fill:none;stroke:red;stroke-width:1px;stroke-linecap:butt;stroke-linejoin:miter;stroke-opacity:1" d="M 458.83,690.166 419.621,690.166 z" id="boundary" inkscape:connector-curvature="0" />
	<path style="fill:none;stroke:red;stroke-width:1px;stroke-linecap:butt;stroke-linejoin:miter;stroke-opacity:1" d="M 419.621,690.166 380.411,690.166 z" id="boundary" inkscape:connector-curvature="0" />
	<path style="fill:none;stroke:red;stroke-width:1px;stroke-linecap:butt;stroke-linejoin:miter;stroke-opacity:1" d="M 282.387,815.636 243.178,815.636 z" id="boundary" inkscape:connector-curvature="0" />
	<path style="fill:none;stroke:red;stroke-width:1px;stroke-linecap:butt;stroke-linejoin:miter;stroke-opacity:1" d="M 262.783,780.348 301.992,780.348 z" id="boundary" inkscape:connector-curvature="0" />
	<path style="fill:none;stroke:red;stroke-width:1px;stroke-linecap:butt;stroke-linejoin:miter;stroke-opacity:1" d="M 301.992,780.348 341.202,780.348 z" id="boundary" inkscape:connector-curvature="0" />
	<path style="fill:none;stroke:red;stroke-width:1px;stroke-linecap:butt;stroke-linejoin:miter;stroke-opacity:1" d="M 321.597,815.636 360.806,815.636 z" id="boundary" inkscape:connector-curvature="0" />
	<path style="fill:none;stroke:red;stroke-width:1px;stroke-linecap:butt;stroke-linejoin:miter;stroke-opacity:1" d="M 321.597,815.636 282.387,815.636 z" id="boundary" inkscape:connector-curvature="0" />
	<path style="fill:none;stroke:red;stroke-width:1px;stroke-linecap:butt;stroke-linejoin:miter;stroke-opacity:1" d="M 290.229,980.316 251.02,980.316 z" id="boundary" inkscape:connector-curvature="0" />
	<path style="fill:none;stroke:red;stroke-width:1px;stroke-linecap:butt;stroke-linejoin:miter;stroke-opacity:1" d="M 270.625,897.976 309.834,897.976 z" id="boundary" inkscape:connector-curvature="0" />
	<path style="fill:none;stroke:red;stroke-width:1px;stroke-linecap:butt;stroke-linejoin:miter;stroke-opacity:1" d="M 290.229,980.316 329.439,996 z" id="boundary" inkscape:connector-curvature="0" />
	<path style="fill:none;stroke:red;stroke-width:1px;stroke-linecap:butt;stroke-linejoin:miter;stroke-opacity:1" d="M 309.834,897.976 349.043,897.976 z" id="boundary" inkscape:connector-curvature="0" />
	<path style="fill:none;stroke:red;stroke-width:1px;stroke-linecap:butt;stroke-linejoin:miter;stroke-opacity:1" d="M 368.648,980.316 329.439,996 z" id="boundary" inkscape:connector-curvature="0" />
	<path style="fill:none;stroke:red;stroke-width:1px;stroke-linecap:butt;stroke-linejoin:miter;stroke-opacity:1" d="M 400.016,815.636 360.806,815.636 z" id="boundary" inkscape:connector-curvature="0" />
	<path style="fill:none;stroke:red;stroke-width:1px;stroke-linecap:butt;stroke-linejoin:miter;stroke-opacity:1" d="M 341.202,780.348 380.411,780.348 z" id="boundary" inkscape:connector-curvature="0" />
	<path style="fill:none;stroke:red;stroke-width:1px;stroke-linecap:butt;stroke-linejoin:miter;stroke-opacity:1" d="M 380.411,780.348 419.621,780.348 z" id="boundary" inkscape:connector-curvature="0" />
	<path style="fill:none;stroke:red;stroke-width:1px;stroke-linecap:butt;stroke-linejoin:miter;stroke-opacity:1" d="M 419.621,780.348 458.83,780.348 z" id="boundary" inkscape:connector-curvature="0" />
	<path style="fill:none;stroke:red;stroke-width:1px;stroke-linecap:butt;stroke-linejoin:miter;stroke-opacity:1" d="M 458.83,780.348 439.225,815.636 z" id="boundary" inkscape:connector-curvature="0" />
	<path style="fill:none;stroke:red;stroke-width:1px;stroke-linecap:butt;stroke-linejoin:miter;stroke-opacity:1" d="M 439.225,815.636 400.016,815.636 z" id="boundary" inkscape:connector-curvature="0" />
	<path style="fill:none;stroke:red;stroke-width:1px;stroke-linecap:butt;stroke-linejoin:miter;stroke-opacity:1" d="M 407.858,980.316 368.648,980.316 z" id="boundary" inkscape:connector-curvature="0" />
	<path style="fill:none;stroke:red;stroke-width:1px;stroke-linecap:butt;stroke-linejoin:miter;stroke-opacity:1" d="M 349.043,897.976 388.253,897.976 z" id="boundary" inkscape:connector-curvature="0" />
	<path style="fill:none;stroke:red;stroke-width:1px;stroke-linecap:butt;stroke-linejoin:miter;stroke-opacity:1" d="M 388.253,897.976 427.462,897.976 z" id="boundary" inkscape:connector-curvature="0" />
	<path style="fill:none;stroke:red;stroke-width:1px;stroke-linecap:butt;stroke-linejoin:miter;stroke-opacity:1" d="M 407.858,980.316 447.067,984.237 z" id="boundary" inkscape:connector-curvature="0" />
	<path style="fill:none;stroke:red;stroke-width:1px;stroke-linecap:butt;stroke-linejoin:miter;stroke-opacity:1" d="M 427.462,897.976 466.672,897.976 z" id="boundary" inkscape:connector-curvature="0" />
	<path style="fill:none;stroke:red;stroke-width:1px;stroke-linecap:butt;stroke-linejoin:miter;stroke-opacity:1" d="M 466.672,897.976 478.435,937.186 z" id="boundary" inkscape:connector-curvature="0" />
	<path style="fill:none;stroke:red;stroke-width:1px;stroke-linecap:butt;stroke-linejoin:miter;stroke-opacity:1" d="M 478.435,937.186 447.067,984.237 z" id="boundary" inkscape:connector-curvature="0" />
	<path style="fill:none;stroke:red;stroke-width:1px;stroke-linecap:butt;stroke-linejoin:miter;stroke-opacity:1" d="M 278.466,11.8419 298.071,47.1304 z" id="boundary" inkscape:connector-curvature="0" />
	<path style="fill:none;stroke:red;stroke-width:1px;stroke-linecap:butt;stroke-linejoin:miter;stroke-opacity:1" d="M 239.257,4 278.466,11.8419 z" id="boundary" inkscape:connector-curvature="0" />
	<circle cx="4" cy="905.818" r="4" fill="#0" id="circle0"/>
	<circle cx="4" cy="945.028" r="4" fill="#0" id="circle1"/>
	<circle cx="15.7628" cy="984.237" r="4" fill="#0" id="circle2"/>
	<circle cx="43.2095" cy="897.976" r="4" fill="#0" id="circle3"/>
	<circle cx="54.9723" cy="984.237" r="4" fill="#0" id="circle4"/>
	<circle cx="82.419" cy="897.976" r="4" fill="#0" id="circle5"/>
	<circle cx="94.1818" cy="980.316" r="4" fill="#0" id="circle6"/>
	<circle cx="105.945" cy="82.419" r="4" fill="#0" id="circle7"/>
	<circle cx="105.945" cy="121.628" r="4" fill="#0" id="circle8"/>
	<circle cx="105.945" cy="160.838" r="4" fill="#0" id="circle9"/>
	<circle cx="105.945" cy="200.047" r="4" fill="#0" id="circle10"/>
	<circle cx="105.945" cy="239.257" r="4" fill="#0" id="circle11"/>
	<circle cx="105.945" cy="278.466" r="4" fill="#0" id="circle12"/>
	<circle cx="105.945" cy="317.676" r="4" fill="#0" id="circle13"/>
	<circle cx="105.945" cy="356.885" r="4" fill="#0" id="circle14"/>
	<circle cx="105.945" cy="396.095" r="4" fill="#0" id="circle15"/>
	<circle cx="105.945" cy="435.304" r="4" fill="#0" id="circle16"/>
	<circle cx="105.945" cy="474.514" r="4" fill="#0" id="circle17"/>
	<circle cx="105.945" cy="513.723" r="4" fill="#0" id="circle18"/>
	<circle cx="105.945" cy="552.933" r="4" fill="#0" id="circle19"/>
	<circle cx="105.945" cy="592.142" r="4" fill="#0" id="circle20"/>
	<circle cx="105.945" cy="631.352" r="4" fill="#0" id="circle21"/>
	<circle cx="105.945" cy="670.561" r="4" fill="#0" id="circle22"/>
	<circle cx="105.945" cy="709.771" r="4" fill="#0" id="circle23"/>
	<circle cx="105.945" cy="748.98" r="4" fill="#0" id="circle24"/>
	<circle cx="105.945" cy="788.19" r="4" fill="#0" id="circle25"/>
	<circle cx="105.945" cy="827.399" r="4" fill="#0" id="circle26"/>
	<circle cx="105.945" cy="866.609" r="4" fill="#0" id="circle27"/>
	<circle cx="133.391" cy="980.316" r="4" fill="#0" id="circle28"/>
	<circle cx="145.154" cy="82.419" r="4" fill="#0" id="circle29"/>
	<circle cx="160.838" cy="19.6838" r="4" fill="#0" id="circle30"/>
	<circle cx="172.601" cy="980.316" r="4" fill="#0" id="circle31"/>
	<circle cx="200.047" cy="4" r="4" fill="#0" id="circle32"/>
	<circle cx="203.968" cy="529.407" r="4" fill="#0" id="circle33"/>
	<circle cx="203.968" cy="568.617" r="4" fill="#0" id="circle34"/>
	<circle cx="203.968" cy="607.826" r="4" fill="#0" id="circle35"/>
	<circle cx="203.968" cy="647.036" r="4" fill="#0" id="circle36"/>
	<circle cx="203.968" cy="701.929" r="4" fill="#0" id="circle37"/>
	<circle cx="203.968" cy="741.138" r="4" fill="#0" id="circle38"/>
	<circle cx="203.968" cy="819.557" r="4" fill="#0" id="circle39"/>
	<circle cx="203.968" cy="858.767" r="4" fill="#0" id="circle40"/>
	<circle cx="207.889" cy="780.348" r="4" fill="#0" id="circle41"/>
	<circle cx="207.889" cy="897.976" r="4" fill="#0" id="circle42"/>
	<circle cx="211.81" cy="980.316" r="4" fill="#0" id="circle43"/>
	<circle cx="239.257" cy="4" r="4" fill="#0" id="circle44"/>
	<circle cx="239.257" cy="921.502" r="4" fill="#0" id="circle45"/>
	<circle cx="243.178" cy="525.486" r="4" fill="#0" id="circle46"/>
	<circle cx="243.178" cy="654.877" r="4" fill="#0" id="circle47"/>
	<circle cx="243.178" cy="815.636" r="4" fill="#0" id="circle48"/>
	<circle cx="251.02" cy="980.316" r="4" fill="#0" id="circle49"/>
	<circle cx="262.783" cy="690.166" r="4" fill="#0" id="circle50"/>
	<circle cx="262.783" cy="780.348" r="4" fill="#0" id="circle51"/>
	<circle cx="270.625" cy="897.976" r="4" fill="#0" id="circle52"/>
	<circle cx="278.466" cy="11.8419" r="4" fill="#0" id="circle53"/>
	<circle cx="282.387" cy="505.881" r="4" fill="#0" id="circle54"/>
	<circle cx="282.387" cy="654.877" r="4" fill="#0" id="circle55"/>
	<circle cx="282.387" cy="815.636" r="4" fill="#0" id="circle56"/>
	<circle cx="290.229" cy="980.316" r="4" fill="#0" id="circle57"/>
	<circle cx="298.071" cy="47.1304" r="4" fill="#0" id="circle58"/>
	<circle cx="298.071" cy="86.3399" r="4" fill="#0" id="circle59"/>
	<circle cx="298.071" cy="125.549" r="4" fill="#0" id="circle60"/>
	<circle cx="298.071" cy="164.759" r="4" fill="#0" id="circle61"/>
	<circle cx="298.071" cy="203.968" r="4" fill="#0" id="circle62"/>
	<circle cx="298.071" cy="243.178" r="4" fill="#0" id="circle63"/>
	<circle cx="298.071" cy="282.387" r="4" fill="#0" id="circle64"/>
	<circle cx="298.071" cy="321.597" r="4" fill="#0" id="circle65"/>
	<circle cx="298.071" cy="360.806" r="4" fill="#0" id="circle66"/>
	<circle cx="298.071" cy="400.016" r="4" fill="#0" id="circle67"/>
	<circle cx="298.071" cy="439.225" r="4" fill="#0" id="circle68"/>
	<circle cx="301.992" cy="690.166" r="4" fill="#0" id="circle69"/>
	<circle cx="301.992" cy="780.348" r="4" fill="#0" id="circle70"/>
	<circle cx="309.834" cy="897.976" r="4" fill="#0" id="circle71"/>
	<circle cx="321.597" cy="654.877" r="4" fill="#0" id="circle72"/>
	<circle cx="321.597" cy="815.636" r="4" fill="#0" id="circle73"/>
	<circle cx="329.439" cy="996" r="4" fill="#0" id="circle74"/>
	<circle cx="341.202" cy="690.166" r="4" fill="#0" id="circle75"/>
	<circle cx="341.202" cy="780.348" r="4" fill="#0" id="circle76"/>
	<circle cx="349.043" cy="897.976" r="4" fill="#0" id="circle77"/>
	<circle cx="360.806" cy="654.877" r="4" fill="#0" id="circle78"/>
	<circle cx="360.806" cy="815.636" r="4" fill="#0" id="circle79"/>
	<circle cx="368.648" cy="980.316" r="4" fill="#0" id="circle80"/>
	<circle cx="380.411" cy="690.166" r="4" fill="#0" id="circle81"/>
	<circle cx="380.411" cy="780.348" r="4" fill="#0" id="circle82"/>
	<circle cx="388.253" cy="897.976" r="4" fill="#0" id="circle83"/>
	<circle cx="400.016" cy="654.877" r="4" fill="#0" id="circle84"/>
	<circle cx="400.016" cy="815.636" r="4" fill="#0" id="circle85"/>
	<circle cx="407.858" cy="980.316" r="4" fill="#0" id="circle86"/>
	<circle cx="419.621" cy="690.166" r="4" fill="#0" id="circle87"/>
	<circle cx="419.621" cy="780.348" r="4" fill="#0" id="circle88"/>
	<circle cx="427.462" cy="897.976" r="4" fill="#0" id="circle89"/>
	<circle cx="439.225" cy="654.877" r="4" fill="#0" id="circle90"/>
	<circle cx="439.225" cy="815.636" r="4" fill="#0" id="circle91"/>
	<circle cx="447.067" cy="984.237" r="4" fill="#0" id="circle92"/>
	<circle cx="458.83" cy="690.166" r="4" fill="#0" id="circle93"/>
	<circle cx="458.83" cy="780.348" r="4" fill="#0" id="circle94"/>
	<circle cx="466.672" cy="897.976" r="4" fill="#0" id="circle95"/>
	<circle cx="478.435" cy="937.186" r="4" fill="#0" id="circle96"/>
	</g>
</svg>