<?xml version="1.0" encoding="UTF-8" standalone="no"?>
<!-- Created with CurveBenchmark -->
<svg
	xmlns:dc="http://purl.org/dc/elements/1.1/"
	xmlns:cc="http://creativecommons.org/ns#"
	xmlns:rdf="http://www.w3.org/1999/02/22-rdf-syntax-ns#"
	xmlns:svg="http://www.w3.org/2000/svg"
	xmlns="http://www.w3.org/2000/svg"
	xmlns:sodipodi="http://sodipodi.sourceforge.net/DTD/sodipodi-0.dtd"
	xmlns:inkscape="http://www.inkscape.org/namespaces/inkscape"
	width="1000"
	height="1000"
	id="svg2"
	version="1.1"
	sodipodi:docname="manifold/gathan1-bird25.png.txt">
<defs
	id="defs4" />
<metadata
	id="metadata7">
	<rdf:RDF>
		<cc:Work
			rdf:about="">
			<dc:format>image/svg+xml</dc:format>
			<dc:type
				rdf:resource="http://purl.org/dc/dcmitype/StillImage" />
			<dc:title></dc:title>
		</cc:Work>
	</rdf:RDF>
</metadata>
<g
	inkscape:label="Layer 1"
	inkscape:groupmode="layer"
	id="layer1">
	<path style="fill:none;stroke:red;stroke-width:1px;stroke-linecap:butt;stroke-linejoin:miter;stroke-opacity:1" d="M 58.6556,76.4187 72.3196,69.5868 z" id="boundary" inkscape:connector-curvature="0" />
	<path style="fill:none;stroke:red;stroke-width:1px;stroke-linecap:butt;stroke-linejoin:miter;stroke-opacity:1" d="M 58.6556,76.4187 44.9917,79.1515 z" id="boundary" inkscape:connector-curvature="0" />
	<path style="fill:none;stroke:red;stroke-width:1px;stroke-linecap:butt;stroke-linejoin:miter;stroke-opacity:1" d="M 96.9146,51.8237 85.9835,62.7548 z" id="boundary" inkscape:connector-curvature="0" />
	<path style="fill:none;stroke:red;stroke-width:1px;stroke-linecap:butt;stroke-linejoin:miter;stroke-opacity:1" d="M 85.9835,62.7548 72.3196,69.5868 z" id="boundary" inkscape:connector-curvature="0" />
	<path style="fill:none;stroke:red;stroke-width:1px;stroke-linecap:butt;stroke-linejoin:miter;stroke-opacity:1" d="M 31.3278,83.2507 44.9917,79.1515 z" id="boundary" inkscape:connector-curvature="0" />
	<path style="fill:none;stroke:red;stroke-width:1px;stroke-linecap:butt;stroke-linejoin:miter;stroke-opacity:1" d="M 17.6639,90.0826 4,96.9146 z" id="boundary" inkscape:connector-curvature="0" />
	<path style="fill:none;stroke:red;stroke-width:1px;stroke-linecap:butt;stroke-linejoin:miter;stroke-opacity:1" d="M 17.6639,90.0826 31.3278,83.2507 z" id="boundary" inkscape:connector-curvature="0" />
	<path style="fill:none;stroke:red;stroke-width:1px;stroke-linecap:butt;stroke-linejoin:miter;stroke-opacity:1" d="M 12.1983,107.846 4,96.9146 z" id="boundary" inkscape:connector-curvature="0" />
	<path style="fill:none;stroke:red;stroke-width:1px;stroke-linecap:butt;stroke-linejoin:miter;stroke-opacity:1" d="M 148.837,20.3967 162.501,13.5647 z" id="boundary" inkscape:connector-curvature="0" />
	<path style="fill:none;stroke:red;stroke-width:1px;stroke-linecap:butt;stroke-linejoin:miter;stroke-opacity:1" d="M 162.501,13.5647 176.165,10.832 z" id="boundary" inkscape:connector-curvature="0" />
	<path style="fill:none;stroke:red;stroke-width:1px;stroke-linecap:butt;stroke-linejoin:miter;stroke-opacity:1" d="M 135.174,27.2287 148.837,20.3967 z" id="boundary" inkscape:connector-curvature="0" />
	<path style="fill:none;stroke:red;stroke-width:1px;stroke-linecap:butt;stroke-linejoin:miter;stroke-opacity:1" d="M 189.829,6.73278 176.165,10.832 z" id="boundary" inkscape:connector-curvature="0" />
	<path style="fill:none;stroke:red;stroke-width:1px;stroke-linecap:butt;stroke-linejoin:miter;stroke-opacity:1" d="M 96.9146,51.8237 107.846,40.8926 z" id="boundary" inkscape:connector-curvature="0" />
	<path style="fill:none;stroke:red;stroke-width:1px;stroke-linecap:butt;stroke-linejoin:miter;stroke-opacity:1" d="M 107.846,40.8926 121.51,34.0606 z" id="boundary" inkscape:connector-curvature="0" />
	<path style="fill:none;stroke:red;stroke-width:1px;stroke-linecap:butt;stroke-linejoin:miter;stroke-opacity:1" d="M 121.51,34.0606 135.174,27.2287 z" id="boundary" inkscape:connector-curvature="0" />
	<path style="fill:none;stroke:red;stroke-width:1px;stroke-linecap:butt;stroke-linejoin:miter;stroke-opacity:1" d="M 25.8623,101.014 39.5262,101.014 z" id="boundary" inkscape:connector-curvature="0" />
	<path style="fill:none;stroke:red;stroke-width:1px;stroke-linecap:butt;stroke-linejoin:miter;stroke-opacity:1" d="M 12.1983,107.846 25.8623,101.014 z" id="boundary" inkscape:connector-curvature="0" />
	<path style="fill:none;stroke:red;stroke-width:1px;stroke-linecap:butt;stroke-linejoin:miter;stroke-opacity:1" d="M 53.1901,101.014 66.854,101.014 z" id="boundary" inkscape:connector-curvature="0" />
	<path style="fill:none;stroke:red;stroke-width:1px;stroke-linecap:butt;stroke-linejoin:miter;stroke-opacity:1" d="M 53.1901,101.014 39.5262,101.014 z" id="boundary" inkscape:connector-curvature="0" />
	<path style="fill:none;stroke:red;stroke-width:1px;stroke-linecap:butt;stroke-linejoin:miter;stroke-opacity:1" d="M 66.854,101.014 80.5179,103.747 z" id="boundary" inkscape:connector-curvature="0" />
	<path style="fill:none;stroke:red;stroke-width:1px;stroke-linecap:butt;stroke-linejoin:miter;stroke-opacity:1" d="M 80.5179,103.747 92.8154,110.579 z" id="boundary" inkscape:connector-curvature="0" />
	<path style="fill:none;stroke:red;stroke-width:1px;stroke-linecap:butt;stroke-linejoin:miter;stroke-opacity:1" d="M 92.8154,110.579 103.747,120.143 z" id="boundary" inkscape:connector-curvature="0" />
	<path style="fill:none;stroke:red;stroke-width:1px;stroke-linecap:butt;stroke-linejoin:miter;stroke-opacity:1" d="M 103.747,120.143 113.311,131.074 z" id="boundary" inkscape:connector-curvature="0" />
	<path style="fill:none;stroke:red;stroke-width:1px;stroke-linecap:butt;stroke-linejoin:miter;stroke-opacity:1" d="M 113.311,131.074 126.975,135.174 z" id="boundary" inkscape:connector-curvature="0" />
	<path style="fill:none;stroke:red;stroke-width:1px;stroke-linecap:butt;stroke-linejoin:miter;stroke-opacity:1" d="M 126.975,135.174 139.273,142.006 z" id="boundary" inkscape:connector-curvature="0" />
	<path style="fill:none;stroke:red;stroke-width:1px;stroke-linecap:butt;stroke-linejoin:miter;stroke-opacity:1" d="M 139.273,142.006 151.57,148.837 z" id="boundary" inkscape:connector-curvature="0" />
	<path style="fill:none;stroke:red;stroke-width:1px;stroke-linecap:butt;stroke-linejoin:miter;stroke-opacity:1" d="M 151.57,148.837 162.501,158.402 z" id="boundary" inkscape:connector-curvature="0" />
	<path style="fill:none;stroke:red;stroke-width:1px;stroke-linecap:butt;stroke-linejoin:miter;stroke-opacity:1" d="M 162.501,158.402 172.066,169.333 z" id="boundary" inkscape:connector-curvature="0" />
	<path style="fill:none;stroke:red;stroke-width:1px;stroke-linecap:butt;stroke-linejoin:miter;stroke-opacity:1" d="M 185.73,174.799 172.066,169.333 z" id="boundary" inkscape:connector-curvature="0" />
	<path style="fill:none;stroke:red;stroke-width:1px;stroke-linecap:butt;stroke-linejoin:miter;stroke-opacity:1" d="M 185.73,174.799 196.661,182.997 z" id="boundary" inkscape:connector-curvature="0" />
	<path style="fill:none;stroke:red;stroke-width:1px;stroke-linecap:butt;stroke-linejoin:miter;stroke-opacity:1" d="M 217.157,4 230.821,4 z" id="boundary" inkscape:connector-curvature="0" />
	<path style="fill:none;stroke:red;stroke-width:1px;stroke-linecap:butt;stroke-linejoin:miter;stroke-opacity:1" d="M 230.821,4 243.118,10.832 z" id="boundary" inkscape:connector-curvature="0" />
	<path style="fill:none;stroke:red;stroke-width:1px;stroke-linecap:butt;stroke-linejoin:miter;stroke-opacity:1" d="M 243.118,10.832 255.416,17.6639 z" id="boundary" inkscape:connector-curvature="0" />
	<path style="fill:none;stroke:red;stroke-width:1px;stroke-linecap:butt;stroke-linejoin:miter;stroke-opacity:1" d="M 269.08,19.0303 255.416,17.6639 z" id="boundary" inkscape:connector-curvature="0" />
	<path style="fill:none;stroke:red;stroke-width:1px;stroke-linecap:butt;stroke-linejoin:miter;stroke-opacity:1" d="M 269.08,19.0303 278.645,29.9614 z" id="boundary" inkscape:connector-curvature="0" />
	<path style="fill:none;stroke:red;stroke-width:1px;stroke-linecap:butt;stroke-linejoin:miter;stroke-opacity:1" d="M 278.645,29.9614 289.576,39.5262 z" id="boundary" inkscape:connector-curvature="0" />
	<path style="fill:none;stroke:red;stroke-width:1px;stroke-linecap:butt;stroke-linejoin:miter;stroke-opacity:1" d="M 289.576,39.5262 303.24,44.9917 z" id="boundary" inkscape:connector-curvature="0" />
	<path style="fill:none;stroke:red;stroke-width:1px;stroke-linecap:butt;stroke-linejoin:miter;stroke-opacity:1" d="M 342.865,44.9917 356.529,44.9917 z" id="boundary" inkscape:connector-curvature="0" />
	<path style="fill:none;stroke:red;stroke-width:1px;stroke-linecap:butt;stroke-linejoin:miter;stroke-opacity:1" d="M 330.567,51.8237 342.865,44.9917 z" id="boundary" inkscape:connector-curvature="0" />
	<path style="fill:none;stroke:red;stroke-width:1px;stroke-linecap:butt;stroke-linejoin:miter;stroke-opacity:1" d="M 316.904,46.3581 303.24,44.9917 z" id="boundary" inkscape:connector-curvature="0" />
	<path style="fill:none;stroke:red;stroke-width:1px;stroke-linecap:butt;stroke-linejoin:miter;stroke-opacity:1" d="M 370.193,44.9917 383.857,44.9917 z" id="boundary" inkscape:connector-curvature="0" />
	<path style="fill:none;stroke:red;stroke-width:1px;stroke-linecap:butt;stroke-linejoin:miter;stroke-opacity:1" d="M 370.193,44.9917 356.529,44.9917 z" id="boundary" inkscape:connector-curvature="0" />
	<path style="fill:none;stroke:red;stroke-width:1px;stroke-linecap:butt;stroke-linejoin:miter;stroke-opacity:1" d="M 397.521,44.9917 411.185,44.9917 z" id="boundary" inkscape:connector-curvature="0" />
	<path style="fill:none;stroke:red;stroke-width:1px;stroke-linecap:butt;stroke-linejoin:miter;stroke-opacity:1" d="M 411.185,44.9917 423.482,51.8237 z" id="boundary" inkscape:connector-curvature="0" />
	<path style="fill:none;stroke:red;stroke-width:1px;stroke-linecap:butt;stroke-linejoin:miter;stroke-opacity:1" d="M 397.521,44.9917 383.857,44.9917 z" id="boundary" inkscape:connector-curvature="0" />
	<path style="fill:none;stroke:red;stroke-width:1px;stroke-linecap:butt;stroke-linejoin:miter;stroke-opacity:1" d="M 208.959,189.829 196.661,182.997 z" id="boundary" inkscape:connector-curvature="0" />
	<path style="fill:none;stroke:red;stroke-width:1px;stroke-linecap:butt;stroke-linejoin:miter;stroke-opacity:1" d="M 217.157,200.76 223.989,213.058 z" id="boundary" inkscape:connector-curvature="0" />
	<path style="fill:none;stroke:red;stroke-width:1px;stroke-linecap:butt;stroke-linejoin:miter;stroke-opacity:1" d="M 217.157,200.76 208.959,189.829 z" id="boundary" inkscape:connector-curvature="0" />
	<path style="fill:none;stroke:red;stroke-width:1px;stroke-linecap:butt;stroke-linejoin:miter;stroke-opacity:1" d="M 223.989,213.058 229.455,226.722 z" id="boundary" inkscape:connector-curvature="0" />
	<path style="fill:none;stroke:red;stroke-width:1px;stroke-linecap:butt;stroke-linejoin:miter;stroke-opacity:1" d="M 240.386,236.287 229.455,226.722 z" id="boundary" inkscape:connector-curvature="0" />
	<path style="fill:none;stroke:red;stroke-width:1px;stroke-linecap:butt;stroke-linejoin:miter;stroke-opacity:1" d="M 240.386,236.287 243.118,249.95 z" id="boundary" inkscape:connector-curvature="0" />
	<path style="fill:none;stroke:red;stroke-width:1px;stroke-linecap:butt;stroke-linejoin:miter;stroke-opacity:1" d="M 249.95,262.248 243.118,249.95 z" id="boundary" inkscape:connector-curvature="0" />
	<path style="fill:none;stroke:red;stroke-width:1px;stroke-linecap:butt;stroke-linejoin:miter;stroke-opacity:1" d="M 267.713,284.11 256.782,274.545 z" id="boundary" inkscape:connector-curvature="0" />
	<path style="fill:none;stroke:red;stroke-width:1px;stroke-linecap:butt;stroke-linejoin:miter;stroke-opacity:1" d="M 256.782,274.545 249.95,262.248 z" id="boundary" inkscape:connector-curvature="0" />
	<path style="fill:none;stroke:red;stroke-width:1px;stroke-linecap:butt;stroke-linejoin:miter;stroke-opacity:1" d="M 330.567,51.8237 316.904,46.3581 z" id="boundary" inkscape:connector-curvature="0" />
	<path style="fill:none;stroke:red;stroke-width:1px;stroke-linecap:butt;stroke-linejoin:miter;stroke-opacity:1" d="M 423.482,51.8237 437.146,51.8237 z" id="boundary" inkscape:connector-curvature="0" />
	<path style="fill:none;stroke:red;stroke-width:1px;stroke-linecap:butt;stroke-linejoin:miter;stroke-opacity:1" d="M 437.146,51.8237 449.444,58.6556 z" id="boundary" inkscape:connector-curvature="0" />
	<path style="fill:none;stroke:red;stroke-width:1px;stroke-linecap:butt;stroke-linejoin:miter;stroke-opacity:1" d="M 267.713,284.11 277.278,295.041 z" id="boundary" inkscape:connector-curvature="0" />
	<path style="fill:none;stroke:red;stroke-width:1px;stroke-linecap:butt;stroke-linejoin:miter;stroke-opacity:1" d="M 288.209,304.606 277.278,295.041 z" id="boundary" inkscape:connector-curvature="0" />
	<path style="fill:none;stroke:red;stroke-width:1px;stroke-linecap:butt;stroke-linejoin:miter;stroke-opacity:1" d="M 203.493,4 217.157,4 z" id="boundary" inkscape:connector-curvature="0" />
	<path style="fill:none;stroke:red;stroke-width:1px;stroke-linecap:butt;stroke-linejoin:miter;stroke-opacity:1" d="M 189.829,6.73278 203.493,4 z" id="boundary" inkscape:connector-curvature="0" />
	<path style="fill:none;stroke:red;stroke-width:1px;stroke-linecap:butt;stroke-linejoin:miter;stroke-opacity:1" d="M 288.209,304.606 297.774,315.537 z" id="boundary" inkscape:connector-curvature="0" />
	<path style="fill:none;stroke:red;stroke-width:1px;stroke-linecap:butt;stroke-linejoin:miter;stroke-opacity:1" d="M 241.752,571.052 251.317,560.121 z" id="boundary" inkscape:connector-curvature="0" />
	<path style="fill:none;stroke:red;stroke-width:1px;stroke-linecap:butt;stroke-linejoin:miter;stroke-opacity:1" d="M 241.752,571.052 229.455,577.884 z" id="boundary" inkscape:connector-curvature="0" />
	<path style="fill:none;stroke:red;stroke-width:1px;stroke-linecap:butt;stroke-linejoin:miter;stroke-opacity:1" d="M 264.981,553.289 251.317,560.121 z" id="boundary" inkscape:connector-curvature="0" />
	<path style="fill:none;stroke:red;stroke-width:1px;stroke-linecap:butt;stroke-linejoin:miter;stroke-opacity:1" d="M 275.912,543.725 264.981,553.289 z" id="boundary" inkscape:connector-curvature="0" />
	<path style="fill:none;stroke:red;stroke-width:1px;stroke-linecap:butt;stroke-linejoin:miter;stroke-opacity:1" d="M 271.813,565.587 266.347,579.251 z" id="boundary" inkscape:connector-curvature="0" />
	<path style="fill:none;stroke:red;stroke-width:1px;stroke-linecap:butt;stroke-linejoin:miter;stroke-opacity:1" d="M 218.523,586.083 229.455,577.884 z" id="boundary" inkscape:connector-curvature="0" />
	<path style="fill:none;stroke:red;stroke-width:1px;stroke-linecap:butt;stroke-linejoin:miter;stroke-opacity:1" d="M 252.683,579.251 241.752,590.182 z" id="boundary" inkscape:connector-curvature="0" />
	<path style="fill:none;stroke:red;stroke-width:1px;stroke-linecap:butt;stroke-linejoin:miter;stroke-opacity:1" d="M 266.347,579.251 252.683,579.251 z" id="boundary" inkscape:connector-curvature="0" />
	<path style="fill:none;stroke:red;stroke-width:1px;stroke-linecap:butt;stroke-linejoin:miter;stroke-opacity:1" d="M 285.477,532.793 275.912,543.725 z" id="boundary" inkscape:connector-curvature="0" />
	<path style="fill:none;stroke:red;stroke-width:1px;stroke-linecap:butt;stroke-linejoin:miter;stroke-opacity:1" d="M 310.072,542.358 299.14,551.923 z" id="boundary" inkscape:connector-curvature="0" />
	<path style="fill:none;stroke:red;stroke-width:1px;stroke-linecap:butt;stroke-linejoin:miter;stroke-opacity:1" d="M 311.438,520.496 299.14,530.061 z" id="boundary" inkscape:connector-curvature="0" />
	<path style="fill:none;stroke:red;stroke-width:1px;stroke-linecap:butt;stroke-linejoin:miter;stroke-opacity:1" d="M 299.14,530.061 285.477,532.793 z" id="boundary" inkscape:connector-curvature="0" />
	<path style="fill:none;stroke:red;stroke-width:1px;stroke-linecap:butt;stroke-linejoin:miter;stroke-opacity:1" d="M 308.705,325.102 297.774,315.537 z" id="boundary" inkscape:connector-curvature="0" />
	<path style="fill:none;stroke:red;stroke-width:1px;stroke-linecap:butt;stroke-linejoin:miter;stroke-opacity:1" d="M 285.477,554.656 271.813,565.587 z" id="boundary" inkscape:connector-curvature="0" />
	<path style="fill:none;stroke:red;stroke-width:1px;stroke-linecap:butt;stroke-linejoin:miter;stroke-opacity:1" d="M 285.477,554.656 299.14,551.923 z" id="boundary" inkscape:connector-curvature="0" />
	<path style="fill:none;stroke:red;stroke-width:1px;stroke-linecap:butt;stroke-linejoin:miter;stroke-opacity:1" d="M 308.705,325.102 318.27,336.033 z" id="boundary" inkscape:connector-curvature="0" />
	<path style="fill:none;stroke:red;stroke-width:1px;stroke-linecap:butt;stroke-linejoin:miter;stroke-opacity:1" d="M 218.523,586.083 204.86,591.548 z" id="boundary" inkscape:connector-curvature="0" />
	<path style="fill:none;stroke:red;stroke-width:1px;stroke-linecap:butt;stroke-linejoin:miter;stroke-opacity:1" d="M 147.471,636.639 158.402,625.708 z" id="boundary" inkscape:connector-curvature="0" />
	<path style="fill:none;stroke:red;stroke-width:1px;stroke-linecap:butt;stroke-linejoin:miter;stroke-opacity:1" d="M 147.471,636.639 133.807,643.471 z" id="boundary" inkscape:connector-curvature="0" />
	<path style="fill:none;stroke:red;stroke-width:1px;stroke-linecap:butt;stroke-linejoin:miter;stroke-opacity:1" d="M 181.631,636.639 167.967,640.738 z" id="boundary" inkscape:connector-curvature="0" />
	<path style="fill:none;stroke:red;stroke-width:1px;stroke-linecap:butt;stroke-linejoin:miter;stroke-opacity:1" d="M 181.631,609.311 170.7,618.876 z" id="boundary" inkscape:connector-curvature="0" />
	<path style="fill:none;stroke:red;stroke-width:1px;stroke-linecap:butt;stroke-linejoin:miter;stroke-opacity:1" d="M 170.7,618.876 158.402,625.708 z" id="boundary" inkscape:connector-curvature="0" />
	<path style="fill:none;stroke:red;stroke-width:1px;stroke-linecap:butt;stroke-linejoin:miter;stroke-opacity:1" d="M 192.562,598.38 181.631,609.311 z" id="boundary" inkscape:connector-curvature="0" />
	<path style="fill:none;stroke:red;stroke-width:1px;stroke-linecap:butt;stroke-linejoin:miter;stroke-opacity:1" d="M 142.006,654.402 133.807,643.471 z" id="boundary" inkscape:connector-curvature="0" />
	<path style="fill:none;stroke:red;stroke-width:1px;stroke-linecap:butt;stroke-linejoin:miter;stroke-opacity:1" d="M 155.669,647.57 167.967,640.738 z" id="boundary" inkscape:connector-curvature="0" />
	<path style="fill:none;stroke:red;stroke-width:1px;stroke-linecap:butt;stroke-linejoin:miter;stroke-opacity:1" d="M 155.669,647.57 142.006,654.402 z" id="boundary" inkscape:connector-curvature="0" />
	<path style="fill:none;stroke:red;stroke-width:1px;stroke-linecap:butt;stroke-linejoin:miter;stroke-opacity:1" d="M 192.562,598.38 204.86,591.548 z" id="boundary" inkscape:connector-curvature="0" />
	<path style="fill:none;stroke:red;stroke-width:1px;stroke-linecap:butt;stroke-linejoin:miter;stroke-opacity:1" d="M 228.088,597.014 241.752,590.182 z" id="boundary" inkscape:connector-curvature="0" />
	<path style="fill:none;stroke:red;stroke-width:1px;stroke-linecap:butt;stroke-linejoin:miter;stroke-opacity:1" d="M 217.157,606.579 228.088,597.014 z" id="boundary" inkscape:connector-curvature="0" />
	<path style="fill:none;stroke:red;stroke-width:1px;stroke-linecap:butt;stroke-linejoin:miter;stroke-opacity:1" d="M 181.631,636.639 192.562,625.708 z" id="boundary" inkscape:connector-curvature="0" />
	<path style="fill:none;stroke:red;stroke-width:1px;stroke-linecap:butt;stroke-linejoin:miter;stroke-opacity:1" d="M 203.493,613.41 217.157,606.579 z" id="boundary" inkscape:connector-curvature="0" />
	<path style="fill:none;stroke:red;stroke-width:1px;stroke-linecap:butt;stroke-linejoin:miter;stroke-opacity:1" d="M 192.562,625.708 203.493,613.41 z" id="boundary" inkscape:connector-curvature="0" />
	<path style="fill:none;stroke:red;stroke-width:1px;stroke-linecap:butt;stroke-linejoin:miter;stroke-opacity:1" d="M 318.27,336.033 331.934,340.132 z" id="boundary" inkscape:connector-curvature="0" />
	<path style="fill:none;stroke:red;stroke-width:1px;stroke-linecap:butt;stroke-linejoin:miter;stroke-opacity:1" d="M 331.934,340.132 340.132,351.063 z" id="boundary" inkscape:connector-curvature="0" />
	<path style="fill:none;stroke:red;stroke-width:1px;stroke-linecap:butt;stroke-linejoin:miter;stroke-opacity:1" d="M 353.796,353.796 340.132,351.063 z" id="boundary" inkscape:connector-curvature="0" />
	<path style="fill:none;stroke:red;stroke-width:1px;stroke-linecap:butt;stroke-linejoin:miter;stroke-opacity:1" d="M 372.926,445.344 359.262,452.176 z" id="boundary" inkscape:connector-curvature="0" />
	<path style="fill:none;stroke:red;stroke-width:1px;stroke-linecap:butt;stroke-linejoin:miter;stroke-opacity:1" d="M 353.796,353.796 366.094,360.628 z" id="boundary" inkscape:connector-curvature="0" />
	<path style="fill:none;stroke:red;stroke-width:1px;stroke-linecap:butt;stroke-linejoin:miter;stroke-opacity:1" d="M 366.094,360.628 374.292,371.559 z" id="boundary" inkscape:connector-curvature="0" />
	<path style="fill:none;stroke:red;stroke-width:1px;stroke-linecap:butt;stroke-linejoin:miter;stroke-opacity:1" d="M 359.262,452.176 345.598,465.84 z" id="boundary" inkscape:connector-curvature="0" />
	<path style="fill:none;stroke:red;stroke-width:1px;stroke-linecap:butt;stroke-linejoin:miter;stroke-opacity:1" d="M 381.124,383.857 386.59,397.521 z" id="boundary" inkscape:connector-curvature="0" />
	<path style="fill:none;stroke:red;stroke-width:1px;stroke-linecap:butt;stroke-linejoin:miter;stroke-opacity:1" d="M 386.59,397.521 393.421,409.818 z" id="boundary" inkscape:connector-curvature="0" />
	<path style="fill:none;stroke:red;stroke-width:1px;stroke-linecap:butt;stroke-linejoin:miter;stroke-opacity:1" d="M 393.421,409.818 393.421,423.482 z" id="boundary" inkscape:connector-curvature="0" />
	<path style="fill:none;stroke:red;stroke-width:1px;stroke-linecap:butt;stroke-linejoin:miter;stroke-opacity:1" d="M 386.59,441.245 393.421,423.482 z" id="boundary" inkscape:connector-curvature="0" />
	<path style="fill:none;stroke:red;stroke-width:1px;stroke-linecap:butt;stroke-linejoin:miter;stroke-opacity:1" d="M 386.59,441.245 372.926,445.344 z" id="boundary" inkscape:connector-curvature="0" />
	<path style="fill:none;stroke:red;stroke-width:1px;stroke-linecap:butt;stroke-linejoin:miter;stroke-opacity:1" d="M 428.948,449.444 419.383,460.375 z" id="boundary" inkscape:connector-curvature="0" />
	<path style="fill:none;stroke:red;stroke-width:1px;stroke-linecap:butt;stroke-linejoin:miter;stroke-opacity:1" d="M 456.275,442.612 442.612,449.444 z" id="boundary" inkscape:connector-curvature="0" />
	<path style="fill:none;stroke:red;stroke-width:1px;stroke-linecap:butt;stroke-linejoin:miter;stroke-opacity:1" d="M 442.612,449.444 428.948,449.444 z" id="boundary" inkscape:connector-curvature="0" />
	<path style="fill:none;stroke:red;stroke-width:1px;stroke-linecap:butt;stroke-linejoin:miter;stroke-opacity:1" d="M 374.292,371.559 381.124,383.857 z" id="boundary" inkscape:connector-curvature="0" />
	<path style="fill:none;stroke:red;stroke-width:1px;stroke-linecap:butt;stroke-linejoin:miter;stroke-opacity:1" d="M 346.964,531.427 333.3,531.427 z" id="boundary" inkscape:connector-curvature="0" />
	<path style="fill:none;stroke:red;stroke-width:1px;stroke-linecap:butt;stroke-linejoin:miter;stroke-opacity:1" d="M 336.033,495.901 325.102,506.832 z" id="boundary" inkscape:connector-curvature="0" />
	<path style="fill:none;stroke:red;stroke-width:1px;stroke-linecap:butt;stroke-linejoin:miter;stroke-opacity:1" d="M 345.598,465.84 345.598,479.504 z" id="boundary" inkscape:connector-curvature="0" />
	<path style="fill:none;stroke:red;stroke-width:1px;stroke-linecap:butt;stroke-linejoin:miter;stroke-opacity:1" d="M 345.598,479.504 336.033,495.901 z" id="boundary" inkscape:connector-curvature="0" />
	<path style="fill:none;stroke:red;stroke-width:1px;stroke-linecap:butt;stroke-linejoin:miter;stroke-opacity:1" d="M 325.102,506.832 311.438,520.496 z" id="boundary" inkscape:connector-curvature="0" />
	<path style="fill:none;stroke:red;stroke-width:1px;stroke-linecap:butt;stroke-linejoin:miter;stroke-opacity:1" d="M 319.636,531.427 310.072,542.358 z" id="boundary" inkscape:connector-curvature="0" />
	<path style="fill:none;stroke:red;stroke-width:1px;stroke-linecap:butt;stroke-linejoin:miter;stroke-opacity:1" d="M 319.636,531.427 333.3,531.427 z" id="boundary" inkscape:connector-curvature="0" />
	<path style="fill:none;stroke:red;stroke-width:1px;stroke-linecap:butt;stroke-linejoin:miter;stroke-opacity:1" d="M 387.956,490.435 394.788,476.771 z" id="boundary" inkscape:connector-curvature="0" />
	<path style="fill:none;stroke:red;stroke-width:1px;stroke-linecap:butt;stroke-linejoin:miter;stroke-opacity:1" d="M 394.788,476.771 408.452,469.939 z" id="boundary" inkscape:connector-curvature="0" />
	<path style="fill:none;stroke:red;stroke-width:1px;stroke-linecap:butt;stroke-linejoin:miter;stroke-opacity:1" d="M 387.956,490.435 378.391,501.366 z" id="boundary" inkscape:connector-curvature="0" />
	<path style="fill:none;stroke:red;stroke-width:1px;stroke-linecap:butt;stroke-linejoin:miter;stroke-opacity:1" d="M 408.452,469.939 419.383,460.375 z" id="boundary" inkscape:connector-curvature="0" />
	<path style="fill:none;stroke:red;stroke-width:1px;stroke-linecap:butt;stroke-linejoin:miter;stroke-opacity:1" d="M 360.628,524.595 346.964,531.427 z" id="boundary" inkscape:connector-curvature="0" />
	<path style="fill:none;stroke:red;stroke-width:1px;stroke-linecap:butt;stroke-linejoin:miter;stroke-opacity:1" d="M 371.559,515.03 378.391,501.366 z" id="boundary" inkscape:connector-curvature="0" />
	<path style="fill:none;stroke:red;stroke-width:1px;stroke-linecap:butt;stroke-linejoin:miter;stroke-opacity:1" d="M 371.559,515.03 360.628,524.595 z" id="boundary" inkscape:connector-curvature="0" />
	<path style="fill:none;stroke:red;stroke-width:1px;stroke-linecap:butt;stroke-linejoin:miter;stroke-opacity:1" d="M 449.444,58.6556 460.375,66.854 z" id="boundary" inkscape:connector-curvature="0" />
	<path style="fill:none;stroke:red;stroke-width:1px;stroke-linecap:butt;stroke-linejoin:miter;stroke-opacity:1" d="M 483.603,83.2507 469.939,77.7851 z" id="boundary" inkscape:connector-curvature="0" />
	<path style="fill:none;stroke:red;stroke-width:1px;stroke-linecap:butt;stroke-linejoin:miter;stroke-opacity:1" d="M 469.939,77.7851 460.375,66.854 z" id="boundary" inkscape:connector-curvature="0" />
	<path style="fill:none;stroke:red;stroke-width:1px;stroke-linecap:butt;stroke-linejoin:miter;stroke-opacity:1" d="M 483.603,83.2507 493.168,94.1818 z" id="boundary" inkscape:connector-curvature="0" />
	<path style="fill:none;stroke:red;stroke-width:1px;stroke-linecap:butt;stroke-linejoin:miter;stroke-opacity:1" d="M 493.168,94.1818 506.832,99.6474 z" id="boundary" inkscape:connector-curvature="0" />
	<path style="fill:none;stroke:red;stroke-width:1px;stroke-linecap:butt;stroke-linejoin:miter;stroke-opacity:1" d="M 506.832,99.6474 516.397,110.579 z" id="boundary" inkscape:connector-curvature="0" />
	<path style="fill:none;stroke:red;stroke-width:1px;stroke-linecap:butt;stroke-linejoin:miter;stroke-opacity:1" d="M 527.328,120.143 516.397,110.579 z" id="boundary" inkscape:connector-curvature="0" />
	<path style="fill:none;stroke:red;stroke-width:1px;stroke-linecap:butt;stroke-linejoin:miter;stroke-opacity:1" d="M 527.328,120.143 536.893,131.074 z" id="boundary" inkscape:connector-curvature="0" />
	<path style="fill:none;stroke:red;stroke-width:1px;stroke-linecap:butt;stroke-linejoin:miter;stroke-opacity:1" d="M 536.893,131.074 550.556,136.54 z" id="boundary" inkscape:connector-curvature="0" />
	<path style="fill:none;stroke:red;stroke-width:1px;stroke-linecap:butt;stroke-linejoin:miter;stroke-opacity:1" d="M 550.556,136.54 558.755,147.471 z" id="boundary" inkscape:connector-curvature="0" />
	<path style="fill:none;stroke:red;stroke-width:1px;stroke-linecap:butt;stroke-linejoin:miter;stroke-opacity:1" d="M 558.755,147.471 569.686,155.669 z" id="boundary" inkscape:connector-curvature="0" />
	<path style="fill:none;stroke:red;stroke-width:1px;stroke-linecap:butt;stroke-linejoin:miter;stroke-opacity:1" d="M 569.686,155.669 579.251,166.601 z" id="boundary" inkscape:connector-curvature="0" />
	<path style="fill:none;stroke:red;stroke-width:1px;stroke-linecap:butt;stroke-linejoin:miter;stroke-opacity:1" d="M 579.251,166.601 592.915,172.066 z" id="boundary" inkscape:connector-curvature="0" />
	<path style="fill:none;stroke:red;stroke-width:1px;stroke-linecap:butt;stroke-linejoin:miter;stroke-opacity:1" d="M 592.915,172.066 602.479,182.997 z" id="boundary" inkscape:connector-curvature="0" />
	<path style="fill:none;stroke:red;stroke-width:1px;stroke-linecap:butt;stroke-linejoin:miter;stroke-opacity:1" d="M 613.41,192.562 602.479,182.997 z" id="boundary" inkscape:connector-curvature="0" />
	<path style="fill:none;stroke:red;stroke-width:1px;stroke-linecap:butt;stroke-linejoin:miter;stroke-opacity:1" d="M 469.939,415.284 469.939,401.62 z" id="boundary" inkscape:connector-curvature="0" />
	<path style="fill:none;stroke:red;stroke-width:1px;stroke-linecap:butt;stroke-linejoin:miter;stroke-opacity:1" d="M 469.939,401.62 482.237,394.788 z" id="boundary" inkscape:connector-curvature="0" />
	<path style="fill:none;stroke:red;stroke-width:1px;stroke-linecap:butt;stroke-linejoin:miter;stroke-opacity:1" d="M 482.237,394.788 495.901,394.788 z" id="boundary" inkscape:connector-curvature="0" />
	<path style="fill:none;stroke:red;stroke-width:1px;stroke-linecap:butt;stroke-linejoin:miter;stroke-opacity:1" d="M 508.198,401.62 495.901,394.788 z" id="boundary" inkscape:connector-curvature="0" />
	<path style="fill:none;stroke:red;stroke-width:1px;stroke-linecap:butt;stroke-linejoin:miter;stroke-opacity:1" d="M 521.862,401.62 508.198,401.62 z" id="boundary" inkscape:connector-curvature="0" />
	<path style="fill:none;stroke:red;stroke-width:1px;stroke-linecap:butt;stroke-linejoin:miter;stroke-opacity:1" d="M 467.207,433.047 469.939,415.284 z" id="boundary" inkscape:connector-curvature="0" />
	<path style="fill:none;stroke:red;stroke-width:1px;stroke-linecap:butt;stroke-linejoin:miter;stroke-opacity:1" d="M 521.862,401.62 534.16,408.452 z" id="boundary" inkscape:connector-curvature="0" />
	<path style="fill:none;stroke:red;stroke-width:1px;stroke-linecap:butt;stroke-linejoin:miter;stroke-opacity:1" d="M 547.824,408.452 534.16,408.452 z" id="boundary" inkscape:connector-curvature="0" />
	<path style="fill:none;stroke:red;stroke-width:1px;stroke-linecap:butt;stroke-linejoin:miter;stroke-opacity:1" d="M 547.824,408.452 560.121,415.284 z" id="boundary" inkscape:connector-curvature="0" />
	<path style="fill:none;stroke:red;stroke-width:1px;stroke-linecap:butt;stroke-linejoin:miter;stroke-opacity:1" d="M 560.121,415.284 573.785,415.284 z" id="boundary" inkscape:connector-curvature="0" />
	<path style="fill:none;stroke:red;stroke-width:1px;stroke-linecap:butt;stroke-linejoin:miter;stroke-opacity:1" d="M 629.807,215.791 622.975,203.493 z" id="boundary" inkscape:connector-curvature="0" />
	<path style="fill:none;stroke:red;stroke-width:1px;stroke-linecap:butt;stroke-linejoin:miter;stroke-opacity:1" d="M 587.449,415.284 573.785,415.284 z" id="boundary" inkscape:connector-curvature="0" />
	<path style="fill:none;stroke:red;stroke-width:1px;stroke-linecap:butt;stroke-linejoin:miter;stroke-opacity:1" d="M 587.449,415.284 599.747,422.116 z" id="boundary" inkscape:connector-curvature="0" />
	<path style="fill:none;stroke:red;stroke-width:1px;stroke-linecap:butt;stroke-linejoin:miter;stroke-opacity:1" d="M 613.41,422.116 599.747,422.116 z" id="boundary" inkscape:connector-curvature="0" />
	<path style="fill:none;stroke:red;stroke-width:1px;stroke-linecap:butt;stroke-linejoin:miter;stroke-opacity:1" d="M 613.41,422.116 625.708,428.948 z" id="boundary" inkscape:connector-curvature="0" />
	<path style="fill:none;stroke:red;stroke-width:1px;stroke-linecap:butt;stroke-linejoin:miter;stroke-opacity:1" d="M 629.807,215.791 639.372,226.722 z" id="boundary" inkscape:connector-curvature="0" />
	<path style="fill:none;stroke:red;stroke-width:1px;stroke-linecap:butt;stroke-linejoin:miter;stroke-opacity:1" d="M 613.41,192.562 622.975,203.493 z" id="boundary" inkscape:connector-curvature="0" />
	<path style="fill:none;stroke:red;stroke-width:1px;stroke-linecap:butt;stroke-linejoin:miter;stroke-opacity:1" d="M 653.036,226.722 639.372,226.722 z" id="boundary" inkscape:connector-curvature="0" />
	<path style="fill:none;stroke:red;stroke-width:1px;stroke-linecap:butt;stroke-linejoin:miter;stroke-opacity:1" d="M 673.532,206.226 659.868,213.058 z" id="boundary" inkscape:connector-curvature="0" />
	<path style="fill:none;stroke:red;stroke-width:1px;stroke-linecap:butt;stroke-linejoin:miter;stroke-opacity:1" d="M 668.066,237.653 661.234,251.317 z" id="boundary" inkscape:connector-curvature="0" />
	<path style="fill:none;stroke:red;stroke-width:1px;stroke-linecap:butt;stroke-linejoin:miter;stroke-opacity:1" d="M 663.967,264.981 661.234,251.317 z" id="boundary" inkscape:connector-curvature="0" />
	<path style="fill:none;stroke:red;stroke-width:1px;stroke-linecap:butt;stroke-linejoin:miter;stroke-opacity:1" d="M 678.997,228.088 668.066,237.653 z" id="boundary" inkscape:connector-curvature="0" />
	<path style="fill:none;stroke:red;stroke-width:1px;stroke-linecap:butt;stroke-linejoin:miter;stroke-opacity:1" d="M 688.562,217.157 678.997,228.088 z" id="boundary" inkscape:connector-curvature="0" />
	<path style="fill:none;stroke:red;stroke-width:1px;stroke-linecap:butt;stroke-linejoin:miter;stroke-opacity:1" d="M 698.127,188.463 709.058,177.532 z" id="boundary" inkscape:connector-curvature="0" />
	<path style="fill:none;stroke:red;stroke-width:1px;stroke-linecap:butt;stroke-linejoin:miter;stroke-opacity:1" d="M 698.127,188.463 684.463,195.295 z" id="boundary" inkscape:connector-curvature="0" />
	<path style="fill:none;stroke:red;stroke-width:1px;stroke-linecap:butt;stroke-linejoin:miter;stroke-opacity:1" d="M 719.989,167.967 719.989,187.096 z" id="boundary" inkscape:connector-curvature="0" />
	<path style="fill:none;stroke:red;stroke-width:1px;stroke-linecap:butt;stroke-linejoin:miter;stroke-opacity:1" d="M 709.058,177.532 719.989,167.967 z" id="boundary" inkscape:connector-curvature="0" />
	<path style="fill:none;stroke:red;stroke-width:1px;stroke-linecap:butt;stroke-linejoin:miter;stroke-opacity:1" d="M 719.989,187.096 709.058,196.661 z" id="boundary" inkscape:connector-curvature="0" />
	<path style="fill:none;stroke:red;stroke-width:1px;stroke-linecap:butt;stroke-linejoin:miter;stroke-opacity:1" d="M 673.532,206.226 684.463,195.295 z" id="boundary" inkscape:connector-curvature="0" />
	<path style="fill:none;stroke:red;stroke-width:1px;stroke-linecap:butt;stroke-linejoin:miter;stroke-opacity:1" d="M 699.493,207.592 688.562,217.157 z" id="boundary" inkscape:connector-curvature="0" />
	<path style="fill:none;stroke:red;stroke-width:1px;stroke-linecap:butt;stroke-linejoin:miter;stroke-opacity:1" d="M 699.493,207.592 709.058,196.661 z" id="boundary" inkscape:connector-curvature="0" />
	<path style="fill:none;stroke:red;stroke-width:1px;stroke-linecap:butt;stroke-linejoin:miter;stroke-opacity:1" d="M 668.066,278.645 670.799,292.309 z" id="boundary" inkscape:connector-curvature="0" />
	<path style="fill:none;stroke:red;stroke-width:1px;stroke-linecap:butt;stroke-linejoin:miter;stroke-opacity:1" d="M 668.066,278.645 663.967,264.981 z" id="boundary" inkscape:connector-curvature="0" />
	<path style="fill:none;stroke:red;stroke-width:1px;stroke-linecap:butt;stroke-linejoin:miter;stroke-opacity:1" d="M 681.73,301.873 670.799,292.309 z" id="boundary" inkscape:connector-curvature="0" />
	<path style="fill:none;stroke:red;stroke-width:1px;stroke-linecap:butt;stroke-linejoin:miter;stroke-opacity:1" d="M 691.295,312.804 698.127,325.102 z" id="boundary" inkscape:connector-curvature="0" />
	<path style="fill:none;stroke:red;stroke-width:1px;stroke-linecap:butt;stroke-linejoin:miter;stroke-opacity:1" d="M 681.73,301.873 691.295,312.804 z" id="boundary" inkscape:connector-curvature="0" />
	<path style="fill:none;stroke:red;stroke-width:1px;stroke-linecap:butt;stroke-linejoin:miter;stroke-opacity:1" d="M 707.691,336.033 698.127,325.102 z" id="boundary" inkscape:connector-curvature="0" />
	<path style="fill:none;stroke:red;stroke-width:1px;stroke-linecap:butt;stroke-linejoin:miter;stroke-opacity:1" d="M 707.691,336.033 718.623,345.598 z" id="boundary" inkscape:connector-curvature="0" />
	<path style="fill:none;stroke:red;stroke-width:1px;stroke-linecap:butt;stroke-linejoin:miter;stroke-opacity:1" d="M 718.623,345.598 722.722,359.262 z" id="boundary" inkscape:connector-curvature="0" />
	<path style="fill:none;stroke:red;stroke-width:1px;stroke-linecap:butt;stroke-linejoin:miter;stroke-opacity:1" d="M 638.006,435.78 625.708,428.948 z" id="boundary" inkscape:connector-curvature="0" />
	<path style="fill:none;stroke:red;stroke-width:1px;stroke-linecap:butt;stroke-linejoin:miter;stroke-opacity:1" d="M 722.722,359.262 733.653,367.46 z" id="boundary" inkscape:connector-curvature="0" />
	<path style="fill:none;stroke:red;stroke-width:1px;stroke-linecap:butt;stroke-linejoin:miter;stroke-opacity:1" d="M 743.218,378.391 754.149,387.956 z" id="boundary" inkscape:connector-curvature="0" />
	<path style="fill:none;stroke:red;stroke-width:1px;stroke-linecap:butt;stroke-linejoin:miter;stroke-opacity:1" d="M 743.218,378.391 733.653,367.46 z" id="boundary" inkscape:connector-curvature="0" />
	<path style="fill:none;stroke:red;stroke-width:1px;stroke-linecap:butt;stroke-linejoin:miter;stroke-opacity:1" d="M 763.713,398.887 774.645,408.452 z" id="boundary" inkscape:connector-curvature="0" />
	<path style="fill:none;stroke:red;stroke-width:1px;stroke-linecap:butt;stroke-linejoin:miter;stroke-opacity:1" d="M 763.713,398.887 754.149,387.956 z" id="boundary" inkscape:connector-curvature="0" />
	<path style="fill:none;stroke:red;stroke-width:1px;stroke-linecap:butt;stroke-linejoin:miter;stroke-opacity:1" d="M 774.645,408.452 784.209,419.383 z" id="boundary" inkscape:connector-curvature="0" />
	<path style="fill:none;stroke:red;stroke-width:1px;stroke-linecap:butt;stroke-linejoin:miter;stroke-opacity:1" d="M 807.438,435.78 795.14,428.948 z" id="boundary" inkscape:connector-curvature="0" />
	<path style="fill:none;stroke:red;stroke-width:1px;stroke-linecap:butt;stroke-linejoin:miter;stroke-opacity:1" d="M 795.14,428.948 784.209,419.383 z" id="boundary" inkscape:connector-curvature="0" />
	<path style="fill:none;stroke:red;stroke-width:1px;stroke-linecap:butt;stroke-linejoin:miter;stroke-opacity:1" d="M 456.275,442.612 467.207,433.047 z" id="boundary" inkscape:connector-curvature="0" />
	<path style="fill:none;stroke:red;stroke-width:1px;stroke-linecap:butt;stroke-linejoin:miter;stroke-opacity:1" d="M 638.006,435.78 643.471,449.444 z" id="boundary" inkscape:connector-curvature="0" />
	<path style="fill:none;stroke:red;stroke-width:1px;stroke-linecap:butt;stroke-linejoin:miter;stroke-opacity:1" d="M 643.471,449.444 654.402,459.008 z" id="boundary" inkscape:connector-curvature="0" />
	<path style="fill:none;stroke:red;stroke-width:1px;stroke-linecap:butt;stroke-linejoin:miter;stroke-opacity:1" d="M 654.402,459.008 663.967,469.939 z" id="boundary" inkscape:connector-curvature="0" />
	<path style="fill:none;stroke:red;stroke-width:1px;stroke-linecap:butt;stroke-linejoin:miter;stroke-opacity:1" d="M 673.532,480.871 663.967,469.939 z" id="boundary" inkscape:connector-curvature="0" />
	<path style="fill:none;stroke:red;stroke-width:1px;stroke-linecap:butt;stroke-linejoin:miter;stroke-opacity:1" d="M 673.532,480.871 680.364,493.168 z" id="boundary" inkscape:connector-curvature="0" />
	<path style="fill:none;stroke:red;stroke-width:1px;stroke-linecap:butt;stroke-linejoin:miter;stroke-opacity:1" d="M 807.438,435.78 818.369,445.344 z" id="boundary" inkscape:connector-curvature="0" />
	<path style="fill:none;stroke:red;stroke-width:1px;stroke-linecap:butt;stroke-linejoin:miter;stroke-opacity:1" d="M 818.369,445.344 823.835,459.008 z" id="boundary" inkscape:connector-curvature="0" />
	<path style="fill:none;stroke:red;stroke-width:1px;stroke-linecap:butt;stroke-linejoin:miter;stroke-opacity:1" d="M 834.766,468.573 823.835,459.008 z" id="boundary" inkscape:connector-curvature="0" />
	<path style="fill:none;stroke:red;stroke-width:1px;stroke-linecap:butt;stroke-linejoin:miter;stroke-opacity:1" d="M 855.262,489.069 844.331,479.504 z" id="boundary" inkscape:connector-curvature="0" />
	<path style="fill:none;stroke:red;stroke-width:1px;stroke-linecap:butt;stroke-linejoin:miter;stroke-opacity:1" d="M 844.331,479.504 834.766,468.573 z" id="boundary" inkscape:connector-curvature="0" />
	<path style="fill:none;stroke:red;stroke-width:1px;stroke-linecap:butt;stroke-linejoin:miter;stroke-opacity:1" d="M 711.791,523.229 700.86,513.664 z" id="boundary" inkscape:connector-curvature="0" />
	<path style="fill:none;stroke:red;stroke-width:1px;stroke-linecap:butt;stroke-linejoin:miter;stroke-opacity:1" d="M 680.364,493.168 691.295,502.733 z" id="boundary" inkscape:connector-curvature="0" />
	<path style="fill:none;stroke:red;stroke-width:1px;stroke-linecap:butt;stroke-linejoin:miter;stroke-opacity:1" d="M 691.295,502.733 700.86,513.664 z" id="boundary" inkscape:connector-curvature="0" />
	<path style="fill:none;stroke:red;stroke-width:1px;stroke-linecap:butt;stroke-linejoin:miter;stroke-opacity:1" d="M 711.791,523.229 721.355,534.16 z" id="boundary" inkscape:connector-curvature="0" />
	<path style="fill:none;stroke:red;stroke-width:1px;stroke-linecap:butt;stroke-linejoin:miter;stroke-opacity:1" d="M 721.355,534.16 728.187,546.457 z" id="boundary" inkscape:connector-curvature="0" />
	<path style="fill:none;stroke:red;stroke-width:1px;stroke-linecap:butt;stroke-linejoin:miter;stroke-opacity:1" d="M 737.752,557.388 728.187,546.457 z" id="boundary" inkscape:connector-curvature="0" />
	<path style="fill:none;stroke:red;stroke-width:1px;stroke-linecap:butt;stroke-linejoin:miter;stroke-opacity:1" d="M 748.683,565.587 756.882,576.518 z" id="boundary" inkscape:connector-curvature="0" />
	<path style="fill:none;stroke:red;stroke-width:1px;stroke-linecap:butt;stroke-linejoin:miter;stroke-opacity:1" d="M 737.752,557.388 748.683,565.587 z" id="boundary" inkscape:connector-curvature="0" />
	<path style="fill:none;stroke:red;stroke-width:1px;stroke-linecap:butt;stroke-linejoin:miter;stroke-opacity:1" d="M 756.882,576.518 767.813,586.083 z" id="boundary" inkscape:connector-curvature="0" />
	<path style="fill:none;stroke:red;stroke-width:1px;stroke-linecap:butt;stroke-linejoin:miter;stroke-opacity:1" d="M 776.011,597.014 767.813,586.083 z" id="boundary" inkscape:connector-curvature="0" />
	<path style="fill:none;stroke:red;stroke-width:1px;stroke-linecap:butt;stroke-linejoin:miter;stroke-opacity:1" d="M 776.011,597.014 777.377,610.678 z" id="boundary" inkscape:connector-curvature="0" />
	<path style="fill:none;stroke:red;stroke-width:1px;stroke-linecap:butt;stroke-linejoin:miter;stroke-opacity:1" d="M 777.377,610.678 788.309,620.242 z" id="boundary" inkscape:connector-curvature="0" />
	<path style="fill:none;stroke:red;stroke-width:1px;stroke-linecap:butt;stroke-linejoin:miter;stroke-opacity:1" d="M 800.606,627.074 807.438,639.372 z" id="boundary" inkscape:connector-curvature="0" />
	<path style="fill:none;stroke:red;stroke-width:1px;stroke-linecap:butt;stroke-linejoin:miter;stroke-opacity:1" d="M 788.309,620.242 800.606,627.074 z" id="boundary" inkscape:connector-curvature="0" />
	<path style="fill:none;stroke:red;stroke-width:1px;stroke-linecap:butt;stroke-linejoin:miter;stroke-opacity:1" d="M 817.003,650.303 807.438,639.372 z" id="boundary" inkscape:connector-curvature="0" />
	<path style="fill:none;stroke:red;stroke-width:1px;stroke-linecap:butt;stroke-linejoin:miter;stroke-opacity:1" d="M 817.003,650.303 823.835,662.601 z" id="boundary" inkscape:connector-curvature="0" />
	<path style="fill:none;stroke:red;stroke-width:1px;stroke-linecap:butt;stroke-linejoin:miter;stroke-opacity:1" d="M 833.399,673.532 823.835,662.601 z" id="boundary" inkscape:connector-curvature="0" />
	<path style="fill:none;stroke:red;stroke-width:1px;stroke-linecap:butt;stroke-linejoin:miter;stroke-opacity:1" d="M 844.331,681.73 833.399,673.532 z" id="boundary" inkscape:connector-curvature="0" />
	<path style="fill:none;stroke:red;stroke-width:1px;stroke-linecap:butt;stroke-linejoin:miter;stroke-opacity:1" d="M 844.331,681.73 852.529,692.661 z" id="boundary" inkscape:connector-curvature="0" />
	<path style="fill:none;stroke:red;stroke-width:1px;stroke-linecap:butt;stroke-linejoin:miter;stroke-opacity:1" d="M 875.758,509.565 864.826,500 z" id="boundary" inkscape:connector-curvature="0" />
	<path style="fill:none;stroke:red;stroke-width:1px;stroke-linecap:butt;stroke-linejoin:miter;stroke-opacity:1" d="M 864.826,500 855.262,489.069 z" id="boundary" inkscape:connector-curvature="0" />
	<path style="fill:none;stroke:red;stroke-width:1px;stroke-linecap:butt;stroke-linejoin:miter;stroke-opacity:1" d="M 875.758,509.565 885.322,520.496 z" id="boundary" inkscape:connector-curvature="0" />
	<path style="fill:none;stroke:red;stroke-width:1px;stroke-linecap:butt;stroke-linejoin:miter;stroke-opacity:1" d="M 896.253,530.061 905.818,540.992 z" id="boundary" inkscape:connector-curvature="0" />
	<path style="fill:none;stroke:red;stroke-width:1px;stroke-linecap:butt;stroke-linejoin:miter;stroke-opacity:1" d="M 896.253,530.061 885.322,520.496 z" id="boundary" inkscape:connector-curvature="0" />
	<path style="fill:none;stroke:red;stroke-width:1px;stroke-linecap:butt;stroke-linejoin:miter;stroke-opacity:1" d="M 916.749,550.556 926.314,561.488 z" id="boundary" inkscape:connector-curvature="0" />
	<path style="fill:none;stroke:red;stroke-width:1px;stroke-linecap:butt;stroke-linejoin:miter;stroke-opacity:1" d="M 916.749,550.556 905.818,540.992 z" id="boundary" inkscape:connector-curvature="0" />
	<path style="fill:none;stroke:red;stroke-width:1px;stroke-linecap:butt;stroke-linejoin:miter;stroke-opacity:1" d="M 934.512,572.419 941.344,584.716 z" id="boundary" inkscape:connector-curvature="0" />
	<path style="fill:none;stroke:red;stroke-width:1px;stroke-linecap:butt;stroke-linejoin:miter;stroke-opacity:1" d="M 934.512,572.419 926.314,561.488 z" id="boundary" inkscape:connector-curvature="0" />
	<path style="fill:none;stroke:red;stroke-width:1px;stroke-linecap:butt;stroke-linejoin:miter;stroke-opacity:1" d="M 941.344,584.716 952.275,592.915 z" id="boundary" inkscape:connector-curvature="0" />
	<path style="fill:none;stroke:red;stroke-width:1px;stroke-linecap:butt;stroke-linejoin:miter;stroke-opacity:1" d="M 952.275,592.915 959.107,605.212 z" id="boundary" inkscape:connector-curvature="0" />
	<path style="fill:none;stroke:red;stroke-width:1px;stroke-linecap:butt;stroke-linejoin:miter;stroke-opacity:1" d="M 959.107,605.212 971.405,612.044 z" id="boundary" inkscape:connector-curvature="0" />
	<path style="fill:none;stroke:red;stroke-width:1px;stroke-linecap:butt;stroke-linejoin:miter;stroke-opacity:1" d="M 971.405,612.044 980.97,622.975 z" id="boundary" inkscape:connector-curvature="0" />
	<path style="fill:none;stroke:red;stroke-width:1px;stroke-linecap:butt;stroke-linejoin:miter;stroke-opacity:1" d="M 989.168,633.906 980.97,622.975 z" id="boundary" inkscape:connector-curvature="0" />
	<path style="fill:none;stroke:red;stroke-width:1px;stroke-linecap:butt;stroke-linejoin:miter;stroke-opacity:1" d="M 852.529,692.661 863.46,702.226 z" id="boundary" inkscape:connector-curvature="0" />
	<path style="fill:none;stroke:red;stroke-width:1px;stroke-linecap:butt;stroke-linejoin:miter;stroke-opacity:1" d="M 863.46,702.226 873.025,713.157 z" id="boundary" inkscape:connector-curvature="0" />
	<path style="fill:none;stroke:red;stroke-width:1px;stroke-linecap:butt;stroke-linejoin:miter;stroke-opacity:1" d="M 873.025,713.157 883.956,722.722 z" id="boundary" inkscape:connector-curvature="0" />
	<path style="fill:none;stroke:red;stroke-width:1px;stroke-linecap:butt;stroke-linejoin:miter;stroke-opacity:1" d="M 897.62,722.722 883.956,722.722 z" id="boundary" inkscape:connector-curvature="0" />
	<path style="fill:none;stroke:red;stroke-width:1px;stroke-linecap:butt;stroke-linejoin:miter;stroke-opacity:1" d="M 897.62,722.722 909.917,729.554 z" id="boundary" inkscape:connector-curvature="0" />
	<path style="fill:none;stroke:red;stroke-width:1px;stroke-linecap:butt;stroke-linejoin:miter;stroke-opacity:1" d="M 923.581,729.554 935.879,722.722 z" id="boundary" inkscape:connector-curvature="0" />
	<path style="fill:none;stroke:red;stroke-width:1px;stroke-linecap:butt;stroke-linejoin:miter;stroke-opacity:1" d="M 923.581,729.554 909.917,729.554 z" id="boundary" inkscape:connector-curvature="0" />
	<path style="fill:none;stroke:red;stroke-width:1px;stroke-linecap:butt;stroke-linejoin:miter;stroke-opacity:1" d="M 946.81,711.791 935.879,722.722 z" id="boundary" inkscape:connector-curvature="0" />
	<path style="fill:none;stroke:red;stroke-width:1px;stroke-linecap:butt;stroke-linejoin:miter;stroke-opacity:1" d="M 996,673.532 996,687.196 z" id="boundary" inkscape:connector-curvature="0" />
	<path style="fill:none;stroke:red;stroke-width:1px;stroke-linecap:butt;stroke-linejoin:miter;stroke-opacity:1" d="M 996,659.868 996,673.532 z" id="boundary" inkscape:connector-curvature="0" />
	<path style="fill:none;stroke:red;stroke-width:1px;stroke-linecap:butt;stroke-linejoin:miter;stroke-opacity:1" d="M 946.81,711.791 960.474,709.058 z" id="boundary" inkscape:connector-curvature="0" />
	<path style="fill:none;stroke:red;stroke-width:1px;stroke-linecap:butt;stroke-linejoin:miter;stroke-opacity:1" d="M 972.771,702.226 960.474,709.058 z" id="boundary" inkscape:connector-curvature="0" />
	<path style="fill:none;stroke:red;stroke-width:1px;stroke-linecap:butt;stroke-linejoin:miter;stroke-opacity:1" d="M 972.771,702.226 986.435,699.493 z" id="boundary" inkscape:connector-curvature="0" />
	<path style="fill:none;stroke:red;stroke-width:1px;stroke-linecap:butt;stroke-linejoin:miter;stroke-opacity:1" d="M 996,687.196 986.435,699.493 z" id="boundary" inkscape:connector-curvature="0" />
	<path style="fill:none;stroke:red;stroke-width:1px;stroke-linecap:butt;stroke-linejoin:miter;stroke-opacity:1" d="M 989.168,633.906 996,646.204 z" id="boundary" inkscape:connector-curvature="0" />
	<path style="fill:none;stroke:red;stroke-width:1px;stroke-linecap:butt;stroke-linejoin:miter;stroke-opacity:1" d="M 996,646.204 996,659.868 z" id="boundary" inkscape:connector-curvature="0" />
	<circle cx="4" cy="96.9146" r="4" fill="#0" id="circle0"/>
	<circle cx="12.1983" cy="107.846" r="4" fill="#0" id="circle1"/>
	<circle cx="17.6639" cy="90.0826" r="4" fill="#0" id="circle2"/>
	<circle cx="25.8623" cy="101.014" r="4" fill="#0" id="circle3"/>
	<circle cx="31.3278" cy="83.2507" r="4" fill="#0" id="circle4"/>
	<circle cx="39.5262" cy="101.014" r="4" fill="#0" id="circle5"/>
	<circle cx="44.9917" cy="79.1515" r="4" fill="#0" id="circle6"/>
	<circle cx="53.1901" cy="101.014" r="4" fill="#0" id="circle7"/>
	<circle cx="58.6556" cy="76.4187" r="4" fill="#0" id="circle8"/>
	<circle cx="66.854" cy="101.014" r="4" fill="#0" id="circle9"/>
	<circle cx="72.3196" cy="69.5868" r="4" fill="#0" id="circle10"/>
	<circle cx="80.5179" cy="103.747" r="4" fill="#0" id="circle11"/>
	<circle cx="85.9835" cy="62.7548" r="4" fill="#0" id="circle12"/>
	<circle cx="92.8154" cy="110.579" r="4" fill="#0" id="circle13"/>
	<circle cx="96.9146" cy="51.8237" r="4" fill="#0" id="circle14"/>
	<circle cx="103.747" cy="120.143" r="4" fill="#0" id="circle15"/>
	<circle cx="107.846" cy="40.8926" r="4" fill="#0" id="circle16"/>
	<circle cx="113.311" cy="131.074" r="4" fill="#0" id="circle17"/>
	<circle cx="121.51" cy="34.0606" r="4" fill="#0" id="circle18"/>
	<circle cx="126.975" cy="135.174" r="4" fill="#0" id="circle19"/>
	<circle cx="133.807" cy="643.471" r="4" fill="#0" id="circle20"/>
	<circle cx="135.174" cy="27.2287" r="4" fill="#0" id="circle21"/>
	<circle cx="139.273" cy="142.006" r="4" fill="#0" id="circle22"/>
	<circle cx="142.006" cy="654.402" r="4" fill="#0" id="circle23"/>
	<circle cx="147.471" cy="636.639" r="4" fill="#0" id="circle24"/>
	<circle cx="148.837" cy="20.3967" r="4" fill="#0" id="circle25"/>
	<circle cx="151.57" cy="148.837" r="4" fill="#0" id="circle26"/>
	<circle cx="155.669" cy="647.57" r="4" fill="#0" id="circle27"/>
	<circle cx="158.402" cy="625.708" r="4" fill="#0" id="circle28"/>
	<circle cx="162.501" cy="13.5647" r="4" fill="#0" id="circle29"/>
	<circle cx="162.501" cy="158.402" r="4" fill="#0" id="circle30"/>
	<circle cx="167.967" cy="640.738" r="4" fill="#0" id="circle31"/>
	<circle cx="170.7" cy="618.876" r="4" fill="#0" id="circle32"/>
	<circle cx="172.066" cy="169.333" r="4" fill="#0" id="circle33"/>
	<circle cx="176.165" cy="10.832" r="4" fill="#0" id="circle34"/>
	<circle cx="181.631" cy="609.311" r="4" fill="#0" id="circle35"/>
	<circle cx="181.631" cy="636.639" r="4" fill="#0" id="circle36"/>
	<circle cx="185.73" cy="174.799" r="4" fill="#0" id="circle37"/>
	<circle cx="189.829" cy="6.73278" r="4" fill="#0" id="circle38"/>
	<circle cx="192.562" cy="598.38" r="4" fill="#0" id="circle39"/>
	<circle cx="192.562" cy="625.708" r="4" fill="#0" id="circle40"/>
	<circle cx="196.661" cy="182.997" r="4" fill="#0" id="circle41"/>
	<circle cx="203.493" cy="4" r="4" fill="#0" id="circle42"/>
	<circle cx="203.493" cy="613.41" r="4" fill="#0" id="circle43"/>
	<circle cx="204.86" cy="591.548" r="4" fill="#0" id="circle44"/>
	<circle cx="208.959" cy="189.829" r="4" fill="#0" id="circle45"/>
	<circle cx="217.157" cy="4" r="4" fill="#0" id="circle46"/>
	<circle cx="217.157" cy="200.76" r="4" fill="#0" id="circle47"/>
	<circle cx="217.157" cy="606.579" r="4" fill="#0" id="circle48"/>
	<circle cx="218.523" cy="586.083" r="4" fill="#0" id="circle49"/>
	<circle cx="223.989" cy="213.058" r="4" fill="#0" id="circle50"/>
	<circle cx="228.088" cy="597.014" r="4" fill="#0" id="circle51"/>
	<circle cx="229.455" cy="226.722" r="4" fill="#0" id="circle52"/>
	<circle cx="229.455" cy="577.884" r="4" fill="#0" id="circle53"/>
	<circle cx="230.821" cy="4" r="4" fill="#0" id="circle54"/>
	<circle cx="240.386" cy="236.287" r="4" fill="#0" id="circle55"/>
	<circle cx="241.752" cy="571.052" r="4" fill="#0" id="circle56"/>
	<circle cx="241.752" cy="590.182" r="4" fill="#0" id="circle57"/>
	<circle cx="243.118" cy="10.832" r="4" fill="#0" id="circle58"/>
	<circle cx="243.118" cy="249.95" r="4" fill="#0" id="circle59"/>
	<circle cx="249.95" cy="262.248" r="4" fill="#0" id="circle60"/>
	<circle cx="251.317" cy="560.121" r="4" fill="#0" id="circle61"/>
	<circle cx="252.683" cy="579.251" r="4" fill="#0" id="circle62"/>
	<circle cx="255.416" cy="17.6639" r="4" fill="#0" id="circle63"/>
	<circle cx="256.782" cy="274.545" r="4" fill="#0" id="circle64"/>
	<circle cx="264.981" cy="553.289" r="4" fill="#0" id="circle65"/>
	<circle cx="266.347" cy="579.251" r="4" fill="#0" id="circle66"/>
	<circle cx="267.713" cy="284.11" r="4" fill="#0" id="circle67"/>
	<circle cx="269.08" cy="19.0303" r="4" fill="#0" id="circle68"/>
	<circle cx="271.813" cy="565.587" r="4" fill="#0" id="circle69"/>
	<circle cx="275.912" cy="543.725" r="4" fill="#0" id="circle70"/>
	<circle cx="277.278" cy="295.041" r="4" fill="#0" id="circle71"/>
	<circle cx="278.645" cy="29.9614" r="4" fill="#0" id="circle72"/>
	<circle cx="285.477" cy="532.793" r="4" fill="#0" id="circle73"/>
	<circle cx="285.477" cy="554.656" r="4" fill="#0" id="circle74"/>
	<circle cx="288.209" cy="304.606" r="4" fill="#0" id="circle75"/>
	<circle cx="289.576" cy="39.5262" r="4" fill="#0" id="circle76"/>
	<circle cx="297.774" cy="315.537" r="4" fill="#0" id="circle77"/>
	<circle cx="299.14" cy="530.061" r="4" fill="#0" id="circle78"/>
	<circle cx="299.14" cy="551.923" r="4" fill="#0" id="circle79"/>
	<circle cx="303.24" cy="44.9917" r="4" fill="#0" id="circle80"/>
	<circle cx="308.705" cy="325.102" r="4" fill="#0" id="circle81"/>
	<circle cx="310.072" cy="542.358" r="4" fill="#0" id="circle82"/>
	<circle cx="311.438" cy="520.496" r="4" fill="#0" id="circle83"/>
	<circle cx="316.904" cy="46.3581" r="4" fill="#0" id="circle84"/>
	<circle cx="318.27" cy="336.033" r="4" fill="#0" id="circle85"/>
	<circle cx="319.636" cy="531.427" r="4" fill="#0" id="circle86"/>
	<circle cx="325.102" cy="506.832" r="4" fill="#0" id="circle87"/>
	<circle cx="330.567" cy="51.8237" r="4" fill="#0" id="circle88"/>
	<circle cx="331.934" cy="340.132" r="4" fill="#0" id="circle89"/>
	<circle cx="333.3" cy="531.427" r="4" fill="#0" id="circle90"/>
	<circle cx="336.033" cy="495.901" r="4" fill="#0" id="circle91"/>
	<circle cx="340.132" cy="351.063" r="4" fill="#0" id="circle92"/>
	<circle cx="342.865" cy="44.9917" r="4" fill="#0" id="circle93"/>
	<circle cx="345.598" cy="465.84" r="4" fill="#0" id="circle94"/>
	<circle cx="345.598" cy="479.504" r="4" fill="#0" id="circle95"/>
	<circle cx="346.964" cy="531.427" r="4" fill="#0" id="circle96"/>
	<circle cx="353.796" cy="353.796" r="4" fill="#0" id="circle97"/>
	<circle cx="356.529" cy="44.9917" r="4" fill="#0" id="circle98"/>
	<circle cx="359.262" cy="452.176" r="4" fill="#0" id="circle99"/>
	<circle cx="360.628" cy="524.595" r="4" fill="#0" id="circle100"/>
	<circle cx="366.094" cy="360.628" r="4" fill="#0" id="circle101"/>
	<circle cx="370.193" cy="44.9917" r="4" fill="#0" id="circle102"/>
	<circle cx="371.559" cy="515.03" r="4" fill="#0" id="circle103"/>
	<circle cx="372.926" cy="445.344" r="4" fill="#0" id="circle104"/>
	<circle cx="374.292" cy="371.559" r="4" fill="#0" id="circle105"/>
	<circle cx="378.391" cy="501.366" r="4" fill="#0" id="circle106"/>
	<circle cx="381.124" cy="383.857" r="4" fill="#0" id="circle107"/>
	<circle cx="383.857" cy="44.9917" r="4" fill="#0" id="circle108"/>
	<circle cx="386.59" cy="397.521" r="4" fill="#0" id="circle109"/>
	<circle cx="386.59" cy="441.245" r="4" fill="#0" id="circle110"/>
	<circle cx="387.956" cy="490.435" r="4" fill="#0" id="circle111"/>
	<circle cx="393.421" cy="409.818" r="4" fill="#0" id="circle112"/>
	<circle cx="393.421" cy="423.482" r="4" fill="#0" id="circle113"/>
	<circle cx="394.788" cy="476.771" r="4" fill="#0" id="circle114"/>
	<circle cx="397.521" cy="44.9917" r="4" fill="#0" id="circle115"/>
	<circle cx="408.452" cy="469.939" r="4" fill="#0" id="circle116"/>
	<circle cx="411.185" cy="44.9917" r="4" fill="#0" id="circle117"/>
	<circle cx="419.383" cy="460.375" r="4" fill="#0" id="circle118"/>
	<circle cx="423.482" cy="51.8237" r="4" fill="#0" id="circle119"/>
	<circle cx="428.948" cy="449.444" r="4" fill="#0" id="circle120"/>
	<circle cx="437.146" cy="51.8237" r="4" fill="#0" id="circle121"/>
	<circle cx="442.612" cy="449.444" r="4" fill="#0" id="circle122"/>
	<circle cx="449.444" cy="58.6556" r="4" fill="#0" id="circle123"/>
	<circle cx="456.275" cy="442.612" r="4" fill="#0" id="circle124"/>
	<circle cx="460.375" cy="66.854" r="4" fill="#0" id="circle125"/>
	<circle cx="467.207" cy="433.047" r="4" fill="#0" id="circle126"/>
	<circle cx="469.939" cy="77.7851" r="4" fill="#0" id="circle127"/>
	<circle cx="469.939" cy="401.62" r="4" fill="#0" id="circle128"/>
	<circle cx="469.939" cy="415.284" r="4" fill="#0" id="circle129"/>
	<circle cx="482.237" cy="394.788" r="4" fill="#0" id="circle130"/>
	<circle cx="483.603" cy="83.2507" r="4" fill="#0" id="circle131"/>
	<circle cx="493.168" cy="94.1818" r="4" fill="#0" id="circle132"/>
	<circle cx="495.901" cy="394.788" r="4" fill="#0" id="circle133"/>
	<circle cx="506.832" cy="99.6474" r="4" fill="#0" id="circle134"/>
	<circle cx="508.198" cy="401.62" r="4" fill="#0" id="circle135"/>
	<circle cx="516.397" cy="110.579" r="4" fill="#0" id="circle136"/>
	<circle cx="521.862" cy="401.62" r="4" fill="#0" id="circle137"/>
	<circle cx="527.328" cy="120.143" r="4" fill="#0" id="circle138"/>
	<circle cx="534.16" cy="408.452" r="4" fill="#0" id="circle139"/>
	<circle cx="536.893" cy="131.074" r="4" fill="#0" id="circle140"/>
	<circle cx="547.824" cy="408.452" r="4" fill="#0" id="circle141"/>
	<circle cx="550.556" cy="136.54" r="4" fill="#0" id="circle142"/>
	<circle cx="558.755" cy="147.471" r="4" fill="#0" id="circle143"/>
	<circle cx="560.121" cy="415.284" r="4" fill="#0" id="circle144"/>
	<circle cx="569.686" cy="155.669" r="4" fill="#0" id="circle145"/>
	<circle cx="573.785" cy="415.284" r="4" fill="#0" id="circle146"/>
	<circle cx="579.251" cy="166.601" r="4" fill="#0" id="circle147"/>
	<circle cx="587.449" cy="415.284" r="4" fill="#0" id="circle148"/>
	<circle cx="592.915" cy="172.066" r="4" fill="#0" id="circle149"/>
	<circle cx="599.747" cy="422.116" r="4" fill="#0" id="circle150"/>
	<circle cx="602.479" cy="182.997" r="4" fill="#0" id="circle151"/>
	<circle cx="613.41" cy="192.562" r="4" fill="#0" id="circle152"/>
	<circle cx="613.41" cy="422.116" r="4" fill="#0" id="circle153"/>
	<circle cx="622.975" cy="203.493" r="4" fill="#0" id="circle154"/>
	<circle cx="625.708" cy="428.948" r="4" fill="#0" id="circle155"/>
	<circle cx="629.807" cy="215.791" r="4" fill="#0" id="circle156"/>
	<circle cx="638.006" cy="435.78" r="4" fill="#0" id="circle157"/>
	<circle cx="639.372" cy="226.722" r="4" fill="#0" id="circle158"/>
	<circle cx="643.471" cy="449.444" r="4" fill="#0" id="circle159"/>
	<circle cx="653.036" cy="226.722" r="4" fill="#0" id="circle160"/>
	<circle cx="654.402" cy="459.008" r="4" fill="#0" id="circle161"/>
	<circle cx="659.868" cy="213.058" r="4" fill="#0" id="circle162"/>
	<circle cx="661.234" cy="251.317" r="4" fill="#0" id="circle163"/>
	<circle cx="663.967" cy="264.981" r="4" fill="#0" id="circle164"/>
	<circle cx="663.967" cy="469.939" r="4" fill="#0" id="circle165"/>
	<circle cx="668.066" cy="237.653" r="4" fill="#0" id="circle166"/>
	<circle cx="668.066" cy="278.645" r="4" fill="#0" id="circle167"/>
	<circle cx="670.799" cy="292.309" r="4" fill="#0" id="circle168"/>
	<circle cx="673.532" cy="206.226" r="4" fill="#0" id="circle169"/>
	<circle cx="673.532" cy="480.871" r="4" fill="#0" id="circle170"/>
	<circle cx="678.997" cy="228.088" r="4" fill="#0" id="circle171"/>
	<circle cx="680.364" cy="493.168" r="4" fill="#0" id="circle172"/>
	<circle cx="681.73" cy="301.873" r="4" fill="#0" id="circle173"/>
	<circle cx="684.463" cy="195.295" r="4" fill="#0" id="circle174"/>
	<circle cx="688.562" cy="217.157" r="4" fill="#0" id="circle175"/>
	<circle cx="691.295" cy="312.804" r="4" fill="#0" id="circle176"/>
	<circle cx="691.295" cy="502.733" r="4" fill="#0" id="circle177"/>
	<circle cx="698.127" cy="188.463" r="4" fill="#0" id="circle178"/>
	<circle cx="698.127" cy="325.102" r="4" fill="#0" id="circle179"/>
	<circle cx="699.493" cy="207.592" r="4" fill="#0" id="circle180"/>
	<circle cx="700.86" cy="513.664" r="4" fill="#0" id="circle181"/>
	<circle cx="707.691" cy="336.033" r="4" fill="#0" id="circle182"/>
	<circle cx="709.058" cy="177.532" r="4" fill="#0" id="circle183"/>
	<circle cx="709.058" cy="196.661" r="4" fill="#0" id="circle184"/>
	<circle cx="711.791" cy="523.229" r="4" fill="#0" id="circle185"/>
	<circle cx="718.623" cy="345.598" r="4" fill="#0" id="circle186"/>
	<circle cx="719.989" cy="167.967" r="4" fill="#0" id="circle187"/>
	<circle cx="719.989" cy="187.096" r="4" fill="#0" id="circle188"/>
	<circle cx="721.355" cy="534.16" r="4" fill="#0" id="circle189"/>
	<circle cx="722.722" cy="359.262" r="4" fill="#0" id="circle190"/>
	<circle cx="728.187" cy="546.457" r="4" fill="#0" id="circle191"/>
	<circle cx="733.653" cy="367.46" r="4" fill="#0" id="circle192"/>
	<circle cx="737.752" cy="557.388" r="4" fill="#0" id="circle193"/>
	<circle cx="743.218" cy="378.391" r="4" fill="#0" id="circle194"/>
	<circle cx="748.683" cy="565.587" r="4" fill="#0" id="circle195"/>
	<circle cx="754.149" cy="387.956" r="4" fill="#0" id="circle196"/>
	<circle cx="756.882" cy="576.518" r="4" fill="#0" id="circle197"/>
	<circle cx="763.713" cy="398.887" r="4" fill="#0" id="circle198"/>
	<circle cx="767.813" cy="586.083" r="4" fill="#0" id="circle199"/>
	<circle cx="774.645" cy="408.452" r="4" fill="#0" id="circle200"/>
	<circle cx="776.011" cy="597.014" r="4" fill="#0" id="circle201"/>
	<circle cx="777.377" cy="610.678" r="4" fill="#0" id="circle202"/>
	<circle cx="784.209" cy="419.383" r="4" fill="#0" id="circle203"/>
	<circle cx="788.309" cy="620.242" r="4" fill="#0" id="circle204"/>
	<circle cx="795.14" cy="428.948" r="4" fill="#0" id="circle205"/>
	<circle cx="800.606" cy="627.074" r="4" fill="#0" id="circle206"/>
	<circle cx="807.438" cy="435.78" r="4" fill="#0" id="circle207"/>
	<circle cx="807.438" cy="639.372" r="4" fill="#0" id="circle208"/>
	<circle cx="817.003" cy="650.303" r="4" fill="#0" id="circle209"/>
	<circle cx="818.369" cy="445.344" r="4" fill="#0" id="circle210"/>
	<circle cx="823.835" cy="459.008" r="4" fill="#0" id="circle211"/>
	<circle cx="823.835" cy="662.601" r="4" fill="#0" id="circle212"/>
	<circle cx="833.399" cy="673.532" r="4" fill="#0" id="circle213"/>
	<circle cx="834.766" cy="468.573" r="4" fill="#0" id="circle214"/>
	<circle cx="844.331" cy="479.504" r="4" fill="#0" id="circle215"/>
	<circle cx="844.331" cy="681.73" r="4" fill="#0" id="circle216"/>
	<circle cx="852.529" cy="692.661" r="4" fill="#0" id="circle217"/>
	<circle cx="855.262" cy="489.069" r="4" fill="#0" id="circle218"/>
	<circle cx="863.46" cy="702.226" r="4" fill="#0" id="circle219"/>
	<circle cx="864.826" cy="500" r="4" fill="#0" id="circle220"/>
	<circle cx="873.025" cy="713.157" r="4" fill="#0" id="circle221"/>
	<circle cx="875.758" cy="509.565" r="4" fill="#0" id="circle222"/>
	<circle cx="883.956" cy="722.722" r="4" fill="#0" id="circle223"/>
	<circle cx="885.322" cy="520.496" r="4" fill="#0" id="circle224"/>
	<circle cx="896.253" cy="530.061" r="4" fill="#0" id="circle225"/>
	<circle cx="897.62" cy="722.722" r="4" fill="#0" id="circle226"/>
	<circle cx="905.818" cy="540.992" r="4" fill="#0" id="circle227"/>
	<circle cx="909.917" cy="729.554" r="4" fill="#0" id="circle228"/>
	<circle cx="916.749" cy="550.556" r="4" fill="#0" id="circle229"/>
	<circle cx="923.581" cy="729.554" r="4" fill="#0" id="circle230"/>
	<circle cx="926.314" cy="561.488" r="4" fill="#0" id="circle231"/>
	<circle cx="934.512" cy="572.419" r="4" fill="#0" id="circle232"/>
	<circle cx="935.879" cy="722.722" r="4" fill="#0" id="circle233"/>
	<circle cx="941.344" cy="584.716" r="4" fill="#0" id="circle234"/>
	<circle cx="946.81" cy="711.791" r="4" fill="#0" id="circle235"/>
	<circle cx="952.275" cy="592.915" r="4" fill="#0" id="circle236"/>
	<circle cx="959.107" cy="605.212" r="4" fill="#0" id="circle237"/>
	<circle cx="960.474" cy="709.058" r="4" fill="#0" id="circle238"/>
	<circle cx="971.405" cy="612.044" r="4" fill="#0" id="circle239"/>
	<circle cx="972.771" cy="702.226" r="4" fill="#0" id="circle240"/>
	<circle cx="980.97" cy="622.975" r="4" fill="#0" id="circle241"/>
	<circle cx="986.435" cy="699.493" r="4" fill="#0" id="circle242"/>
	<circle cx="989.168" cy="633.906" r="4" fill="#0" id="circle243"/>
	<circle cx="996" cy="646.204" r="4" fill="#0" id="circle244"/>
	<circle cx="996" cy="659.868" r="4" fill="#0" id="circle245"/>
	<circle cx="996" cy="673.532" r="4" fill="#0" id="circle246"/>
	<circle cx="996" cy="687.196" r="4" fill="#0" id="circle247"/>
	</g>
</svg>