<?xml version="1.0" encoding="UTF-8" standalone="no"?>
<!-- Created with CurveBenchmark -->
<svg
	xmlns:dc="http://purl.org/dc/elements/1.1/"
	xmlns:cc="http://creativecommons.org/ns#"
	xmlns:rdf="http://www.w3.org/1999/02/22-rdf-syntax-ns#"
	xmlns:svg="http://www.w3.org/2000/svg"
	xmlns="http://www.w3.org/2000/svg"
	xmlns:sodipodi="http://sodipodi.sourceforge.net/DTD/sodipodi-0.dtd"
	xmlns:inkscape="http://www.inkscape.org/namespaces/inkscape"
	width="1000"
	height="1000"
	id="svg2"
	version="1.1"
	sodipodi:docname="manifold/gathang-bird105.png.txt">
<defs
	id="defs4" />
<metadata
	id="metadata7">
	<rdf:RDF>
		<cc:Work
			rdf:about="">
			<dc:format>image/svg+xml</dc:format>
			<dc:type
				rdf:resource="http://purl.org/dc/dcmitype/StillImage" />
			<dc:title></dc:title>
		</cc:Work>
	</rdf:RDF>
</metadata>
<g
	inkscape:label="Layer 1"
	inkscape:groupmode="layer"
	id="layer1">
	<path style="fill:none;stroke:red;stroke-width:1px;stroke-linecap:butt;stroke-linejoin:miter;stroke-opacity:1" d="M 11.7804,190.729 19.5608,128.486 z" id="boundary" inkscape:connector-curvature="0" />
	<path style="fill:none;stroke:red;stroke-width:1px;stroke-linecap:butt;stroke-linejoin:miter;stroke-opacity:1" d="M 19.5608,128.486 39.0118,93.4745 z" id="boundary" inkscape:connector-curvature="0" />
	<path style="fill:none;stroke:red;stroke-width:1px;stroke-linecap:butt;stroke-linejoin:miter;stroke-opacity:1" d="M 11.7804,190.729 4,229.631 z" id="boundary" inkscape:connector-curvature="0" />
	<path style="fill:none;stroke:red;stroke-width:1px;stroke-linecap:butt;stroke-linejoin:miter;stroke-opacity:1" d="M 39.0118,93.4745 58.4627,50.6824 z" id="boundary" inkscape:connector-curvature="0" />
	<path style="fill:none;stroke:red;stroke-width:1px;stroke-linecap:butt;stroke-linejoin:miter;stroke-opacity:1" d="M 58.4627,50.6824 89.5843,27.3412 z" id="boundary" inkscape:connector-curvature="0" />
	<path style="fill:none;stroke:red;stroke-width:1px;stroke-linecap:butt;stroke-linejoin:miter;stroke-opacity:1" d="M 4,268.533 4,229.631 z" id="boundary" inkscape:connector-curvature="0" />
	<path style="fill:none;stroke:red;stroke-width:1px;stroke-linecap:butt;stroke-linejoin:miter;stroke-opacity:1" d="M 35.1216,295.765 4,268.533 z" id="boundary" inkscape:connector-curvature="0" />
	<path style="fill:none;stroke:red;stroke-width:1px;stroke-linecap:butt;stroke-linejoin:miter;stroke-opacity:1" d="M 35.1216,295.765 66.2431,319.106 z" id="boundary" inkscape:connector-curvature="0" />
	<path style="fill:none;stroke:red;stroke-width:1px;stroke-linecap:butt;stroke-linejoin:miter;stroke-opacity:1" d="M 66.2431,319.106 81.8039,358.008 z" id="boundary" inkscape:connector-curvature="0" />
	<path style="fill:none;stroke:red;stroke-width:1px;stroke-linecap:butt;stroke-linejoin:miter;stroke-opacity:1" d="M 81.8039,358.008 89.5843,396.91 z" id="boundary" inkscape:connector-curvature="0" />
	<path style="fill:none;stroke:red;stroke-width:1px;stroke-linecap:butt;stroke-linejoin:miter;stroke-opacity:1" d="M 89.5843,27.3412 128.486,11.7804 z" id="boundary" inkscape:connector-curvature="0" />
	<path style="fill:none;stroke:red;stroke-width:1px;stroke-linecap:butt;stroke-linejoin:miter;stroke-opacity:1" d="M 163.498,431.922 163.498,393.02 z" id="boundary" inkscape:connector-curvature="0" />
	<path style="fill:none;stroke:red;stroke-width:1px;stroke-linecap:butt;stroke-linejoin:miter;stroke-opacity:1" d="M 163.498,470.824 163.498,431.922 z" id="boundary" inkscape:connector-curvature="0" />
	<path style="fill:none;stroke:red;stroke-width:1px;stroke-linecap:butt;stroke-linejoin:miter;stroke-opacity:1" d="M 97.3647,435.812 89.5843,396.91 z" id="boundary" inkscape:connector-curvature="0" />
	<path style="fill:none;stroke:red;stroke-width:1px;stroke-linecap:butt;stroke-linejoin:miter;stroke-opacity:1" d="M 105.145,513.616 97.3647,474.714 z" id="boundary" inkscape:connector-curvature="0" />
	<path style="fill:none;stroke:red;stroke-width:1px;stroke-linecap:butt;stroke-linejoin:miter;stroke-opacity:1" d="M 97.3647,474.714 97.3647,435.812 z" id="boundary" inkscape:connector-curvature="0" />
	<path style="fill:none;stroke:red;stroke-width:1px;stroke-linecap:butt;stroke-linejoin:miter;stroke-opacity:1" d="M 163.498,470.824 163.498,509.725 z" id="boundary" inkscape:connector-curvature="0" />
	<path style="fill:none;stroke:red;stroke-width:1px;stroke-linecap:butt;stroke-linejoin:miter;stroke-opacity:1" d="M 163.498,548.627 163.498,509.725 z" id="boundary" inkscape:connector-curvature="0" />
	<path style="fill:none;stroke:red;stroke-width:1px;stroke-linecap:butt;stroke-linejoin:miter;stroke-opacity:1" d="M 112.925,552.518 105.145,513.616 z" id="boundary" inkscape:connector-curvature="0" />
	<path style="fill:none;stroke:red;stroke-width:1px;stroke-linecap:butt;stroke-linejoin:miter;stroke-opacity:1" d="M 163.498,587.529 163.498,548.627 z" id="boundary" inkscape:connector-curvature="0" />
	<path style="fill:none;stroke:red;stroke-width:1px;stroke-linecap:butt;stroke-linejoin:miter;stroke-opacity:1" d="M 112.925,552.518 120.706,591.42 z" id="boundary" inkscape:connector-curvature="0" />
	<path style="fill:none;stroke:red;stroke-width:1px;stroke-linecap:butt;stroke-linejoin:miter;stroke-opacity:1" d="M 120.706,591.42 120.706,630.322 z" id="boundary" inkscape:connector-curvature="0" />
	<path style="fill:none;stroke:red;stroke-width:1px;stroke-linecap:butt;stroke-linejoin:miter;stroke-opacity:1" d="M 120.706,630.322 120.706,669.224 z" id="boundary" inkscape:connector-curvature="0" />
	<path style="fill:none;stroke:red;stroke-width:1px;stroke-linecap:butt;stroke-linejoin:miter;stroke-opacity:1" d="M 171.278,665.333 163.498,719.796 z" id="boundary" inkscape:connector-curvature="0" />
	<path style="fill:none;stroke:red;stroke-width:1px;stroke-linecap:butt;stroke-linejoin:miter;stroke-opacity:1" d="M 120.706,669.224 120.706,708.125 z" id="boundary" inkscape:connector-curvature="0" />
	<path style="fill:none;stroke:red;stroke-width:1px;stroke-linecap:butt;stroke-linejoin:miter;stroke-opacity:1" d="M 85.6941,992.11 58.4627,960.988 z" id="boundary" inkscape:connector-curvature="0" />
	<path style="fill:none;stroke:red;stroke-width:1px;stroke-linecap:butt;stroke-linejoin:miter;stroke-opacity:1" d="M 58.4627,960.988 97.3647,945.427 z" id="boundary" inkscape:connector-curvature="0" />
	<path style="fill:none;stroke:red;stroke-width:1px;stroke-linecap:butt;stroke-linejoin:miter;stroke-opacity:1" d="M 112.925,852.063 112.925,890.965 z" id="boundary" inkscape:connector-curvature="0" />
	<path style="fill:none;stroke:red;stroke-width:1px;stroke-linecap:butt;stroke-linejoin:miter;stroke-opacity:1" d="M 124.596,996 85.6941,992.11 z" id="boundary" inkscape:connector-curvature="0" />
	<path style="fill:none;stroke:red;stroke-width:1px;stroke-linecap:butt;stroke-linejoin:miter;stroke-opacity:1" d="M 120.706,785.929 112.925,852.063 z" id="boundary" inkscape:connector-curvature="0" />
	<path style="fill:none;stroke:red;stroke-width:1px;stroke-linecap:butt;stroke-linejoin:miter;stroke-opacity:1" d="M 155.718,937.647 97.3647,945.427 z" id="boundary" inkscape:connector-curvature="0" />
	<path style="fill:none;stroke:red;stroke-width:1px;stroke-linecap:butt;stroke-linejoin:miter;stroke-opacity:1" d="M 120.706,708.125 120.706,747.027 z" id="boundary" inkscape:connector-curvature="0" />
	<path style="fill:none;stroke:red;stroke-width:1px;stroke-linecap:butt;stroke-linejoin:miter;stroke-opacity:1" d="M 120.706,747.027 120.706,785.929 z" id="boundary" inkscape:connector-curvature="0" />
	<path style="fill:none;stroke:red;stroke-width:1px;stroke-linecap:butt;stroke-linejoin:miter;stroke-opacity:1" d="M 163.498,587.529 167.388,626.431 z" id="boundary" inkscape:connector-curvature="0" />
	<path style="fill:none;stroke:red;stroke-width:1px;stroke-linecap:butt;stroke-linejoin:miter;stroke-opacity:1" d="M 163.498,758.698 163.498,719.796 z" id="boundary" inkscape:connector-curvature="0" />
	<path style="fill:none;stroke:red;stroke-width:1px;stroke-linecap:butt;stroke-linejoin:miter;stroke-opacity:1" d="M 163.498,758.698 163.498,797.6 z" id="boundary" inkscape:connector-curvature="0" />
	<path style="fill:none;stroke:red;stroke-width:1px;stroke-linecap:butt;stroke-linejoin:miter;stroke-opacity:1" d="M 155.718,859.843 155.718,898.745 z" id="boundary" inkscape:connector-curvature="0" />
	<path style="fill:none;stroke:red;stroke-width:1px;stroke-linecap:butt;stroke-linejoin:miter;stroke-opacity:1" d="M 155.718,937.647 194.62,953.208 z" id="boundary" inkscape:connector-curvature="0" />
	<path style="fill:none;stroke:red;stroke-width:1px;stroke-linecap:butt;stroke-linejoin:miter;stroke-opacity:1" d="M 155.718,859.843 163.498,797.6 z" id="boundary" inkscape:connector-curvature="0" />
	<path style="fill:none;stroke:red;stroke-width:1px;stroke-linecap:butt;stroke-linejoin:miter;stroke-opacity:1" d="M 159.608,976.549 124.596,996 z" id="boundary" inkscape:connector-curvature="0" />
	<path style="fill:none;stroke:red;stroke-width:1px;stroke-linecap:butt;stroke-linejoin:miter;stroke-opacity:1" d="M 159.608,976.549 210.18,992.11 z" id="boundary" inkscape:connector-curvature="0" />
	<path style="fill:none;stroke:red;stroke-width:1px;stroke-linecap:butt;stroke-linejoin:miter;stroke-opacity:1" d="M 128.486,11.7804 167.388,4 z" id="boundary" inkscape:connector-curvature="0" />
	<path style="fill:none;stroke:red;stroke-width:1px;stroke-linecap:butt;stroke-linejoin:miter;stroke-opacity:1" d="M 326.886,147.937 334.667,186.839 z" id="boundary" inkscape:connector-curvature="0" />
	<path style="fill:none;stroke:red;stroke-width:1px;stroke-linecap:butt;stroke-linejoin:miter;stroke-opacity:1" d="M 202.4,420.251 214.071,459.153 z" id="boundary" inkscape:connector-curvature="0" />
	<path style="fill:none;stroke:red;stroke-width:1px;stroke-linecap:butt;stroke-linejoin:miter;stroke-opacity:1" d="M 245.192,19.5608 276.314,42.902 z" id="boundary" inkscape:connector-curvature="0" />
	<path style="fill:none;stroke:red;stroke-width:1px;stroke-linecap:butt;stroke-linejoin:miter;stroke-opacity:1" d="M 214.071,459.153 214.071,498.055 z" id="boundary" inkscape:connector-curvature="0" />
	<path style="fill:none;stroke:red;stroke-width:1px;stroke-linecap:butt;stroke-linejoin:miter;stroke-opacity:1" d="M 214.071,498.055 214.071,536.957 z" id="boundary" inkscape:connector-curvature="0" />
	<path style="fill:none;stroke:red;stroke-width:1px;stroke-linecap:butt;stroke-linejoin:miter;stroke-opacity:1" d="M 214.071,575.859 214.071,536.957 z" id="boundary" inkscape:connector-curvature="0" />
	<path style="fill:none;stroke:red;stroke-width:1px;stroke-linecap:butt;stroke-linejoin:miter;stroke-opacity:1" d="M 272.424,470.824 272.424,509.725 z" id="boundary" inkscape:connector-curvature="0" />
	<path style="fill:none;stroke:red;stroke-width:1px;stroke-linecap:butt;stroke-linejoin:miter;stroke-opacity:1" d="M 272.424,470.824 311.325,435.812 z" id="boundary" inkscape:connector-curvature="0" />
	<path style="fill:none;stroke:red;stroke-width:1px;stroke-linecap:butt;stroke-linejoin:miter;stroke-opacity:1" d="M 272.424,509.725 264.643,579.749 z" id="boundary" inkscape:connector-curvature="0" />
	<path style="fill:none;stroke:red;stroke-width:1px;stroke-linecap:butt;stroke-linejoin:miter;stroke-opacity:1" d="M 214.071,575.859 221.851,614.761 z" id="boundary" inkscape:connector-curvature="0" />
	<path style="fill:none;stroke:red;stroke-width:1px;stroke-linecap:butt;stroke-linejoin:miter;stroke-opacity:1" d="M 319.106,109.035 326.886,147.937 z" id="boundary" inkscape:connector-curvature="0" />
	<path style="fill:none;stroke:red;stroke-width:1px;stroke-linecap:butt;stroke-linejoin:miter;stroke-opacity:1" d="M 299.655,74.0235 319.106,109.035 z" id="boundary" inkscape:connector-curvature="0" />
	<path style="fill:none;stroke:red;stroke-width:1px;stroke-linecap:butt;stroke-linejoin:miter;stroke-opacity:1" d="M 334.667,186.839 342.447,225.741 z" id="boundary" inkscape:connector-curvature="0" />
	<path style="fill:none;stroke:red;stroke-width:1px;stroke-linecap:butt;stroke-linejoin:miter;stroke-opacity:1" d="M 342.447,225.741 342.447,264.643 z" id="boundary" inkscape:connector-curvature="0" />
	<path style="fill:none;stroke:red;stroke-width:1px;stroke-linecap:butt;stroke-linejoin:miter;stroke-opacity:1" d="M 334.667,400.8 311.325,435.812 z" id="boundary" inkscape:connector-curvature="0" />
	<path style="fill:none;stroke:red;stroke-width:1px;stroke-linecap:butt;stroke-linejoin:miter;stroke-opacity:1" d="M 334.667,361.898 334.667,400.8 z" id="boundary" inkscape:connector-curvature="0" />
	<path style="fill:none;stroke:red;stroke-width:1px;stroke-linecap:butt;stroke-linejoin:miter;stroke-opacity:1" d="M 334.667,361.898 350.227,303.545 z" id="boundary" inkscape:connector-curvature="0" />
	<path style="fill:none;stroke:red;stroke-width:1px;stroke-linecap:butt;stroke-linejoin:miter;stroke-opacity:1" d="M 350.227,303.545 342.447,264.643 z" id="boundary" inkscape:connector-curvature="0" />
	<path style="fill:none;stroke:red;stroke-width:1px;stroke-linecap:butt;stroke-linejoin:miter;stroke-opacity:1" d="M 276.314,42.902 299.655,74.0235 z" id="boundary" inkscape:connector-curvature="0" />
	<path style="fill:none;stroke:red;stroke-width:1px;stroke-linecap:butt;stroke-linejoin:miter;stroke-opacity:1" d="M 171.278,665.333 167.388,626.431 z" id="boundary" inkscape:connector-curvature="0" />
	<path style="fill:none;stroke:red;stroke-width:1px;stroke-linecap:butt;stroke-linejoin:miter;stroke-opacity:1" d="M 221.851,704.235 214.071,665.333 z" id="boundary" inkscape:connector-curvature="0" />
	<path style="fill:none;stroke:red;stroke-width:1px;stroke-linecap:butt;stroke-linejoin:miter;stroke-opacity:1" d="M 221.851,614.761 214.071,665.333 z" id="boundary" inkscape:connector-curvature="0" />
	<path style="fill:none;stroke:red;stroke-width:1px;stroke-linecap:butt;stroke-linejoin:miter;stroke-opacity:1" d="M 221.851,704.235 214.071,766.478 z" id="boundary" inkscape:connector-curvature="0" />
	<path style="fill:none;stroke:red;stroke-width:1px;stroke-linecap:butt;stroke-linejoin:miter;stroke-opacity:1" d="M 214.071,766.478 214.071,805.38 z" id="boundary" inkscape:connector-curvature="0" />
	<path style="fill:none;stroke:red;stroke-width:1px;stroke-linecap:butt;stroke-linejoin:miter;stroke-opacity:1" d="M 214.071,805.38 214.071,844.282 z" id="boundary" inkscape:connector-curvature="0" />
	<path style="fill:none;stroke:red;stroke-width:1px;stroke-linecap:butt;stroke-linejoin:miter;stroke-opacity:1" d="M 214.071,844.282 214.071,883.184 z" id="boundary" inkscape:connector-curvature="0" />
	<path style="fill:none;stroke:red;stroke-width:1px;stroke-linecap:butt;stroke-linejoin:miter;stroke-opacity:1" d="M 214.071,883.184 194.62,953.208 z" id="boundary" inkscape:connector-curvature="0" />
	<path style="fill:none;stroke:red;stroke-width:1px;stroke-linecap:butt;stroke-linejoin:miter;stroke-opacity:1" d="M 264.643,618.651 264.643,657.553 z" id="boundary" inkscape:connector-curvature="0" />
	<path style="fill:none;stroke:red;stroke-width:1px;stroke-linecap:butt;stroke-linejoin:miter;stroke-opacity:1" d="M 264.643,618.651 264.643,579.749 z" id="boundary" inkscape:connector-curvature="0" />
	<path style="fill:none;stroke:red;stroke-width:1px;stroke-linecap:butt;stroke-linejoin:miter;stroke-opacity:1" d="M 264.643,696.455 264.643,735.357 z" id="boundary" inkscape:connector-curvature="0" />
	<path style="fill:none;stroke:red;stroke-width:1px;stroke-linecap:butt;stroke-linejoin:miter;stroke-opacity:1" d="M 264.643,696.455 264.643,657.553 z" id="boundary" inkscape:connector-curvature="0" />
	<path style="fill:none;stroke:red;stroke-width:1px;stroke-linecap:butt;stroke-linejoin:miter;stroke-opacity:1" d="M 264.643,735.357 256.863,789.82 z" id="boundary" inkscape:connector-curvature="0" />
	<path style="fill:none;stroke:red;stroke-width:1px;stroke-linecap:butt;stroke-linejoin:miter;stroke-opacity:1" d="M 256.863,828.722 256.863,867.624 z" id="boundary" inkscape:connector-curvature="0" />
	<path style="fill:none;stroke:red;stroke-width:1px;stroke-linecap:butt;stroke-linejoin:miter;stroke-opacity:1" d="M 256.863,789.82 256.863,828.722 z" id="boundary" inkscape:connector-curvature="0" />
	<path style="fill:none;stroke:red;stroke-width:1px;stroke-linecap:butt;stroke-linejoin:miter;stroke-opacity:1" d="M 256.863,867.624 256.863,906.525 z" id="boundary" inkscape:connector-curvature="0" />
	<path style="fill:none;stroke:red;stroke-width:1px;stroke-linecap:butt;stroke-linejoin:miter;stroke-opacity:1" d="M 256.863,906.525 256.863,945.427 z" id="boundary" inkscape:connector-curvature="0" />
	<path style="fill:none;stroke:red;stroke-width:1px;stroke-linecap:butt;stroke-linejoin:miter;stroke-opacity:1" d="M 256.863,945.427 249.082,992.11 z" id="boundary" inkscape:connector-curvature="0" />
	<path style="fill:none;stroke:red;stroke-width:1px;stroke-linecap:butt;stroke-linejoin:miter;stroke-opacity:1" d="M 249.082,992.11 210.18,992.11 z" id="boundary" inkscape:connector-curvature="0" />
	<path style="fill:none;stroke:red;stroke-width:1px;stroke-linecap:butt;stroke-linejoin:miter;stroke-opacity:1" d="M 167.388,4 206.29,4 z" id="boundary" inkscape:connector-curvature="0" />
	<path style="fill:none;stroke:red;stroke-width:1px;stroke-linecap:butt;stroke-linejoin:miter;stroke-opacity:1" d="M 206.29,4 245.192,19.5608 z" id="boundary" inkscape:connector-curvature="0" />
	<circle cx="4" cy="229.631" r="4" fill="#0" id="circle0"/>
	<circle cx="4" cy="268.533" r="4" fill="#0" id="circle1"/>
	<circle cx="11.7804" cy="190.729" r="4" fill="#0" id="circle2"/>
	<circle cx="19.5608" cy="128.486" r="4" fill="#0" id="circle3"/>
	<circle cx="35.1216" cy="295.765" r="4" fill="#0" id="circle4"/>
	<circle cx="39.0118" cy="93.4745" r="4" fill="#0" id="circle5"/>
	<circle cx="58.4627" cy="50.6824" r="4" fill="#0" id="circle6"/>
	<circle cx="58.4627" cy="960.988" r="4" fill="#0" id="circle7"/>
	<circle cx="66.2431" cy="319.106" r="4" fill="#0" id="circle8"/>
	<circle cx="81.8039" cy="358.008" r="4" fill="#0" id="circle9"/>
	<circle cx="85.6941" cy="992.11" r="4" fill="#0" id="circle10"/>
	<circle cx="89.5843" cy="27.3412" r="4" fill="#0" id="circle11"/>
	<circle cx="89.5843" cy="396.91" r="4" fill="#0" id="circle12"/>
	<circle cx="97.3647" cy="435.812" r="4" fill="#0" id="circle13"/>
	<circle cx="97.3647" cy="474.714" r="4" fill="#0" id="circle14"/>
	<circle cx="97.3647" cy="945.427" r="4" fill="#0" id="circle15"/>
	<circle cx="105.145" cy="513.616" r="4" fill="#0" id="circle16"/>
	<circle cx="112.925" cy="552.518" r="4" fill="#0" id="circle17"/>
	<circle cx="112.925" cy="852.063" r="4" fill="#0" id="circle18"/>
	<circle cx="112.925" cy="890.965" r="4" fill="#0" id="circle19"/>
	<circle cx="120.706" cy="591.42" r="4" fill="#0" id="circle20"/>
	<circle cx="120.706" cy="630.322" r="4" fill="#0" id="circle21"/>
	<circle cx="120.706" cy="669.224" r="4" fill="#0" id="circle22"/>
	<circle cx="120.706" cy="708.125" r="4" fill="#0" id="circle23"/>
	<circle cx="120.706" cy="747.027" r="4" fill="#0" id="circle24"/>
	<circle cx="120.706" cy="785.929" r="4" fill="#0" id="circle25"/>
	<circle cx="124.596" cy="996" r="4" fill="#0" id="circle26"/>
	<circle cx="128.486" cy="11.7804" r="4" fill="#0" id="circle27"/>
	<circle cx="155.718" cy="859.843" r="4" fill="#0" id="circle28"/>
	<circle cx="155.718" cy="898.745" r="4" fill="#0" id="circle29"/>
	<circle cx="155.718" cy="937.647" r="4" fill="#0" id="circle30"/>
	<circle cx="159.608" cy="976.549" r="4" fill="#0" id="circle31"/>
	<circle cx="163.498" cy="393.02" r="4" fill="#0" id="circle32"/>
	<circle cx="163.498" cy="431.922" r="4" fill="#0" id="circle33"/>
	<circle cx="163.498" cy="470.824" r="4" fill="#0" id="circle34"/>
	<circle cx="163.498" cy="509.725" r="4" fill="#0" id="circle35"/>
	<circle cx="163.498" cy="548.627" r="4" fill="#0" id="circle36"/>
	<circle cx="163.498" cy="587.529" r="4" fill="#0" id="circle37"/>
	<circle cx="163.498" cy="719.796" r="4" fill="#0" id="circle38"/>
	<circle cx="163.498" cy="758.698" r="4" fill="#0" id="circle39"/>
	<circle cx="163.498" cy="797.6" r="4" fill="#0" id="circle40"/>
	<circle cx="167.388" cy="4" r="4" fill="#0" id="circle41"/>
	<circle cx="167.388" cy="626.431" r="4" fill="#0" id="circle42"/>
	<circle cx="171.278" cy="665.333" r="4" fill="#0" id="circle43"/>
	<circle cx="194.62" cy="953.208" r="4" fill="#0" id="circle44"/>
	<circle cx="202.4" cy="420.251" r="4" fill="#0" id="circle45"/>
	<circle cx="206.29" cy="4" r="4" fill="#0" id="circle46"/>
	<circle cx="210.18" cy="992.11" r="4" fill="#0" id="circle47"/>
	<circle cx="214.071" cy="459.153" r="4" fill="#0" id="circle48"/>
	<circle cx="214.071" cy="498.055" r="4" fill="#0" id="circle49"/>
	<circle cx="214.071" cy="536.957" r="4" fill="#0" id="circle50"/>
	<circle cx="214.071" cy="575.859" r="4" fill="#0" id="circle51"/>
	<circle cx="214.071" cy="665.333" r="4" fill="#0" id="circle52"/>
	<circle cx="214.071" cy="766.478" r="4" fill="#0" id="circle53"/>
	<circle cx="214.071" cy="805.38" r="4" fill="#0" id="circle54"/>
	<circle cx="214.071" cy="844.282" r="4" fill="#0" id="circle55"/>
	<circle cx="214.071" cy="883.184" r="4" fill="#0" id="circle56"/>
	<circle cx="221.851" cy="614.761" r="4" fill="#0" id="circle57"/>
	<circle cx="221.851" cy="704.235" r="4" fill="#0" id="circle58"/>
	<circle cx="245.192" cy="19.5608" r="4" fill="#0" id="circle59"/>
	<circle cx="249.082" cy="992.11" r="4" fill="#0" id="circle60"/>
	<circle cx="256.863" cy="789.82" r="4" fill="#0" id="circle61"/>
	<circle cx="256.863" cy="828.722" r="4" fill="#0" id="circle62"/>
	<circle cx="256.863" cy="867.624" r="4" fill="#0" id="circle63"/>
	<circle cx="256.863" cy="906.525" r="4" fill="#0" id="circle64"/>
	<circle cx="256.863" cy="945.427" r="4" fill="#0" id="circle65"/>
	<circle cx="264.643" cy="579.749" r="4" fill="#0" id="circle66"/>
	<circle cx="264.643" cy="618.651" r="4" fill="#0" id="circle67"/>
	<circle cx="264.643" cy="657.553" r="4" fill="#0" id="circle68"/>
	<circle cx="264.643" cy="696.455" r="4" fill="#0" id="circle69"/>
	<circle cx="264.643" cy="735.357" r="4" fill="#0" id="circle70"/>
	<circle cx="272.424" cy="431.922" r="4" fill="#0" id="circle71"/>
	<circle cx="272.424" cy="470.824" r="4" fill="#0" id="circle72"/>
	<circle cx="272.424" cy="509.725" r="4" fill="#0" id="circle73"/>
	<circle cx="276.314" cy="42.902" r="4" fill="#0" id="circle74"/>
	<circle cx="299.655" cy="74.0235" r="4" fill="#0" id="circle75"/>
	<circle cx="311.325" cy="435.812" r="4" fill="#0" id="circle76"/>
	<circle cx="319.106" cy="109.035" r="4" fill="#0" id="circle77"/>
	<circle cx="326.886" cy="147.937" r="4" fill="#0" id="circle78"/>
	<circle cx="334.667" cy="186.839" r="4" fill="#0" id="circle79"/>
	<circle cx="334.667" cy="361.898" r="4" fill="#0" id="circle80"/>
	<circle cx="334.667" cy="400.8" r="4" fill="#0" id="circle81"/>
	<circle cx="342.447" cy="225.741" r="4" fill="#0" id="circle82"/>
	<circle cx="342.447" cy="264.643" r="4" fill="#0" id="circle83"/>
	<circle cx="350.227" cy="303.545" r="4" fill="#0" id="circle84"/>
	</g>
</svg>