<?xml version="1.0" encoding="UTF-8" standalone="no"?>
<!-- Created with CurveBenchmark -->
<svg
	xmlns:dc="http://purl.org/dc/elements/1.1/"
	xmlns:cc="http://creativecommons.org/ns#"
	xmlns:rdf="http://www.w3.org/1999/02/22-rdf-syntax-ns#"
	xmlns:svg="http://www.w3.org/2000/svg"
	xmlns="http://www.w3.org/2000/svg"
	xmlns:sodipodi="http://sodipodi.sourceforge.net/DTD/sodipodi-0.dtd"
	xmlns:inkscape="http://www.inkscape.org/namespaces/inkscape"
	width="1000"
	height="1000"
	id="svg2"
	version="1.1"
	sodipodi:docname="manifold/gathan1-bird45.png.txt">
<defs
	id="defs4" />
<metadata
	id="metadata7">
	<rdf:RDF>
		<cc:Work
			rdf:about="">
			<dc:format>image/svg+xml</dc:format>
			<dc:type
				rdf:resource="http://purl.org/dc/dcmitype/StillImage" />
			<dc:title></dc:title>
		</cc:Work>
	</rdf:RDF>
</metadata>
<g
	inkscape:label="Layer 1"
	inkscape:groupmode="layer"
	id="layer1">
	<path style="fill:none;stroke:red;stroke-width:1px;stroke-linecap:butt;stroke-linejoin:miter;stroke-opacity:1" d="M 13.4777,60.8662 4,48.2293 z" id="boundary" inkscape:connector-curvature="0" />
	<path style="fill:none;stroke:red;stroke-width:1px;stroke-linecap:butt;stroke-linejoin:miter;stroke-opacity:1" d="M 4,48.2293 16.6369,35.5924 z" id="boundary" inkscape:connector-curvature="0" />
	<path style="fill:none;stroke:red;stroke-width:1px;stroke-linecap:butt;stroke-linejoin:miter;stroke-opacity:1" d="M 32.4331,35.5924 45.0701,22.9554 z" id="boundary" inkscape:connector-curvature="0" />
	<path style="fill:none;stroke:red;stroke-width:1px;stroke-linecap:butt;stroke-linejoin:miter;stroke-opacity:1" d="M 32.4331,35.5924 16.6369,35.5924 z" id="boundary" inkscape:connector-curvature="0" />
	<path style="fill:none;stroke:red;stroke-width:1px;stroke-linecap:butt;stroke-linejoin:miter;stroke-opacity:1" d="M 60.8662,15.0573 45.0701,22.9554 z" id="boundary" inkscape:connector-curvature="0" />
	<path style="fill:none;stroke:red;stroke-width:1px;stroke-linecap:butt;stroke-linejoin:miter;stroke-opacity:1" d="M 13.4777,60.8662 27.6943,68.7643 z" id="boundary" inkscape:connector-curvature="0" />
	<path style="fill:none;stroke:red;stroke-width:1px;stroke-linecap:butt;stroke-linejoin:miter;stroke-opacity:1" d="M 41.9108,60.8662 56.1274,68.7643 z" id="boundary" inkscape:connector-curvature="0" />
	<path style="fill:none;stroke:red;stroke-width:1px;stroke-linecap:butt;stroke-linejoin:miter;stroke-opacity:1" d="M 90.879,4 106.675,4 z" id="boundary" inkscape:connector-curvature="0" />
	<path style="fill:none;stroke:red;stroke-width:1px;stroke-linecap:butt;stroke-linejoin:miter;stroke-opacity:1" d="M 76.6624,11.8981 90.879,4 z" id="boundary" inkscape:connector-curvature="0" />
	<path style="fill:none;stroke:red;stroke-width:1px;stroke-linecap:butt;stroke-linejoin:miter;stroke-opacity:1" d="M 122.471,4 138.268,4 z" id="boundary" inkscape:connector-curvature="0" />
	<path style="fill:none;stroke:red;stroke-width:1px;stroke-linecap:butt;stroke-linejoin:miter;stroke-opacity:1" d="M 106.675,4 122.471,4 z" id="boundary" inkscape:connector-curvature="0" />
	<path style="fill:none;stroke:red;stroke-width:1px;stroke-linecap:butt;stroke-linejoin:miter;stroke-opacity:1" d="M 60.8662,15.0573 76.6624,11.8981 z" id="boundary" inkscape:connector-curvature="0" />
	<path style="fill:none;stroke:red;stroke-width:1px;stroke-linecap:butt;stroke-linejoin:miter;stroke-opacity:1" d="M 71.9236,75.0828 56.1274,68.7643 z" id="boundary" inkscape:connector-curvature="0" />
	<path style="fill:none;stroke:red;stroke-width:1px;stroke-linecap:butt;stroke-linejoin:miter;stroke-opacity:1" d="M 138.268,4 154.064,7.15924 z" id="boundary" inkscape:connector-curvature="0" />
	<path style="fill:none;stroke:red;stroke-width:1px;stroke-linecap:butt;stroke-linejoin:miter;stroke-opacity:1" d="M 154.064,7.15924 163.541,19.7962 z" id="boundary" inkscape:connector-curvature="0" />
	<path style="fill:none;stroke:red;stroke-width:1px;stroke-linecap:butt;stroke-linejoin:miter;stroke-opacity:1" d="M 71.9236,75.0828 75.0828,90.879 z" id="boundary" inkscape:connector-curvature="0" />
	<path style="fill:none;stroke:red;stroke-width:1px;stroke-linecap:butt;stroke-linejoin:miter;stroke-opacity:1" d="M 75.0828,90.879 84.5605,103.516 z" id="boundary" inkscape:connector-curvature="0" />
	<path style="fill:none;stroke:red;stroke-width:1px;stroke-linecap:butt;stroke-linejoin:miter;stroke-opacity:1" d="M 84.5605,103.516 90.879,119.312 z" id="boundary" inkscape:connector-curvature="0" />
	<path style="fill:none;stroke:red;stroke-width:1px;stroke-linecap:butt;stroke-linejoin:miter;stroke-opacity:1" d="M 90.879,119.312 106.675,124.051 z" id="boundary" inkscape:connector-curvature="0" />
	<path style="fill:none;stroke:red;stroke-width:1px;stroke-linecap:butt;stroke-linejoin:miter;stroke-opacity:1" d="M 106.675,124.051 111.414,139.847 z" id="boundary" inkscape:connector-curvature="0" />
	<path style="fill:none;stroke:red;stroke-width:1px;stroke-linecap:butt;stroke-linejoin:miter;stroke-opacity:1" d="M 106.675,182.497 106.675,198.293 z" id="boundary" inkscape:connector-curvature="0" />
	<path style="fill:none;stroke:red;stroke-width:1px;stroke-linecap:butt;stroke-linejoin:miter;stroke-opacity:1" d="M 114.573,212.51 106.675,198.293 z" id="boundary" inkscape:connector-curvature="0" />
	<path style="fill:none;stroke:red;stroke-width:1px;stroke-linecap:butt;stroke-linejoin:miter;stroke-opacity:1" d="M 114.573,155.643 111.414,139.847 z" id="boundary" inkscape:connector-curvature="0" />
	<path style="fill:none;stroke:red;stroke-width:1px;stroke-linecap:butt;stroke-linejoin:miter;stroke-opacity:1" d="M 122.471,226.726 114.573,212.51 z" id="boundary" inkscape:connector-curvature="0" />
	<path style="fill:none;stroke:red;stroke-width:1px;stroke-linecap:butt;stroke-linejoin:miter;stroke-opacity:1" d="M 114.573,155.643 106.675,182.497 z" id="boundary" inkscape:connector-curvature="0" />
	<path style="fill:none;stroke:red;stroke-width:1px;stroke-linecap:butt;stroke-linejoin:miter;stroke-opacity:1" d="M 122.471,226.726 122.471,242.522 z" id="boundary" inkscape:connector-curvature="0" />
	<path style="fill:none;stroke:red;stroke-width:1px;stroke-linecap:butt;stroke-linejoin:miter;stroke-opacity:1" d="M 122.471,258.318 122.471,242.522 z" id="boundary" inkscape:connector-curvature="0" />
	<path style="fill:none;stroke:red;stroke-width:1px;stroke-linecap:butt;stroke-linejoin:miter;stroke-opacity:1" d="M 122.471,258.318 122.471,274.115 z" id="boundary" inkscape:connector-curvature="0" />
	<path style="fill:none;stroke:red;stroke-width:1px;stroke-linecap:butt;stroke-linejoin:miter;stroke-opacity:1" d="M 130.369,288.331 122.471,274.115 z" id="boundary" inkscape:connector-curvature="0" />
	<path style="fill:none;stroke:red;stroke-width:1px;stroke-linecap:butt;stroke-linejoin:miter;stroke-opacity:1" d="M 130.369,288.331 139.847,300.968 z" id="boundary" inkscape:connector-curvature="0" />
	<path style="fill:none;stroke:red;stroke-width:1px;stroke-linecap:butt;stroke-linejoin:miter;stroke-opacity:1" d="M 139.847,300.968 146.166,316.764 z" id="boundary" inkscape:connector-curvature="0" />
	<path style="fill:none;stroke:red;stroke-width:1px;stroke-linecap:butt;stroke-linejoin:miter;stroke-opacity:1" d="M 146.166,316.764 154.064,330.981 z" id="boundary" inkscape:connector-curvature="0" />
	<path style="fill:none;stroke:red;stroke-width:1px;stroke-linecap:butt;stroke-linejoin:miter;stroke-opacity:1" d="M 154.064,330.981 161.962,345.197 z" id="boundary" inkscape:connector-curvature="0" />
	<path style="fill:none;stroke:red;stroke-width:1px;stroke-linecap:butt;stroke-linejoin:miter;stroke-opacity:1" d="M 163.541,19.7962 171.439,34.0127 z" id="boundary" inkscape:connector-curvature="0" />
	<path style="fill:none;stroke:red;stroke-width:1px;stroke-linecap:butt;stroke-linejoin:miter;stroke-opacity:1" d="M 171.439,34.0127 179.338,48.2293 z" id="boundary" inkscape:connector-curvature="0" />
	<path style="fill:none;stroke:red;stroke-width:1px;stroke-linecap:butt;stroke-linejoin:miter;stroke-opacity:1" d="M 179.338,48.2293 179.338,64.0255 z" id="boundary" inkscape:connector-curvature="0" />
	<path style="fill:none;stroke:red;stroke-width:1px;stroke-linecap:butt;stroke-linejoin:miter;stroke-opacity:1" d="M 179.338,64.0255 179.338,79.8217 z" id="boundary" inkscape:connector-curvature="0" />
	<path style="fill:none;stroke:red;stroke-width:1px;stroke-linecap:butt;stroke-linejoin:miter;stroke-opacity:1" d="M 179.338,79.8217 179.338,95.6178 z" id="boundary" inkscape:connector-curvature="0" />
	<path style="fill:none;stroke:red;stroke-width:1px;stroke-linecap:butt;stroke-linejoin:miter;stroke-opacity:1" d="M 185.656,111.414 187.236,127.21 z" id="boundary" inkscape:connector-curvature="0" />
	<path style="fill:none;stroke:red;stroke-width:1px;stroke-linecap:butt;stroke-linejoin:miter;stroke-opacity:1" d="M 185.656,111.414 179.338,95.6178 z" id="boundary" inkscape:connector-curvature="0" />
	<path style="fill:none;stroke:red;stroke-width:1px;stroke-linecap:butt;stroke-linejoin:miter;stroke-opacity:1" d="M 193.554,143.006 195.134,158.803 z" id="boundary" inkscape:connector-curvature="0" />
	<path style="fill:none;stroke:red;stroke-width:1px;stroke-linecap:butt;stroke-linejoin:miter;stroke-opacity:1" d="M 193.554,143.006 187.236,127.21 z" id="boundary" inkscape:connector-curvature="0" />
	<path style="fill:none;stroke:red;stroke-width:1px;stroke-linecap:butt;stroke-linejoin:miter;stroke-opacity:1" d="M 195.134,158.803 201.452,174.599 z" id="boundary" inkscape:connector-curvature="0" />
	<path style="fill:none;stroke:red;stroke-width:1px;stroke-linecap:butt;stroke-linejoin:miter;stroke-opacity:1" d="M 201.452,174.599 217.248,177.758 z" id="boundary" inkscape:connector-curvature="0" />
	<path style="fill:none;stroke:red;stroke-width:1px;stroke-linecap:butt;stroke-linejoin:miter;stroke-opacity:1" d="M 217.248,177.758 231.465,185.656 z" id="boundary" inkscape:connector-curvature="0" />
	<path style="fill:none;stroke:red;stroke-width:1px;stroke-linecap:butt;stroke-linejoin:miter;stroke-opacity:1" d="M 308.866,177.758 324.662,177.758 z" id="boundary" inkscape:connector-curvature="0" />
	<path style="fill:none;stroke:red;stroke-width:1px;stroke-linecap:butt;stroke-linejoin:miter;stroke-opacity:1" d="M 293.07,185.656 308.866,177.758 z" id="boundary" inkscape:connector-curvature="0" />
	<path style="fill:none;stroke:red;stroke-width:1px;stroke-linecap:butt;stroke-linejoin:miter;stroke-opacity:1" d="M 277.274,185.656 261.478,193.554 z" id="boundary" inkscape:connector-curvature="0" />
	<path style="fill:none;stroke:red;stroke-width:1px;stroke-linecap:butt;stroke-linejoin:miter;stroke-opacity:1" d="M 293.07,185.656 277.274,185.656 z" id="boundary" inkscape:connector-curvature="0" />
	<path style="fill:none;stroke:red;stroke-width:1px;stroke-linecap:butt;stroke-linejoin:miter;stroke-opacity:1" d="M 370.471,185.656 354.675,185.656 z" id="boundary" inkscape:connector-curvature="0" />
	<path style="fill:none;stroke:red;stroke-width:1px;stroke-linecap:butt;stroke-linejoin:miter;stroke-opacity:1" d="M 354.675,185.656 340.459,177.758 z" id="boundary" inkscape:connector-curvature="0" />
	<path style="fill:none;stroke:red;stroke-width:1px;stroke-linecap:butt;stroke-linejoin:miter;stroke-opacity:1" d="M 324.662,177.758 340.459,177.758 z" id="boundary" inkscape:connector-curvature="0" />
	<path style="fill:none;stroke:red;stroke-width:1px;stroke-linecap:butt;stroke-linejoin:miter;stroke-opacity:1" d="M 231.465,185.656 245.682,193.554 z" id="boundary" inkscape:connector-curvature="0" />
	<path style="fill:none;stroke:red;stroke-width:1px;stroke-linecap:butt;stroke-linejoin:miter;stroke-opacity:1" d="M 171.439,357.834 177.758,373.631 z" id="boundary" inkscape:connector-curvature="0" />
	<path style="fill:none;stroke:red;stroke-width:1px;stroke-linecap:butt;stroke-linejoin:miter;stroke-opacity:1" d="M 177.758,373.631 177.758,389.427 z" id="boundary" inkscape:connector-curvature="0" />
	<path style="fill:none;stroke:red;stroke-width:1px;stroke-linecap:butt;stroke-linejoin:miter;stroke-opacity:1" d="M 177.758,389.427 179.338,405.223 z" id="boundary" inkscape:connector-curvature="0" />
	<path style="fill:none;stroke:red;stroke-width:1px;stroke-linecap:butt;stroke-linejoin:miter;stroke-opacity:1" d="M 185.656,421.019 179.338,405.223 z" id="boundary" inkscape:connector-curvature="0" />
	<path style="fill:none;stroke:red;stroke-width:1px;stroke-linecap:butt;stroke-linejoin:miter;stroke-opacity:1" d="M 177.758,458.93 177.758,474.726 z" id="boundary" inkscape:connector-curvature="0" />
	<path style="fill:none;stroke:red;stroke-width:1px;stroke-linecap:butt;stroke-linejoin:miter;stroke-opacity:1" d="M 177.758,474.726 169.86,490.522 z" id="boundary" inkscape:connector-curvature="0" />
	<path style="fill:none;stroke:red;stroke-width:1px;stroke-linecap:butt;stroke-linejoin:miter;stroke-opacity:1" d="M 185.656,436.815 177.758,458.93 z" id="boundary" inkscape:connector-curvature="0" />
	<path style="fill:none;stroke:red;stroke-width:1px;stroke-linecap:butt;stroke-linejoin:miter;stroke-opacity:1" d="M 185.656,436.815 185.656,421.019 z" id="boundary" inkscape:connector-curvature="0" />
	<path style="fill:none;stroke:red;stroke-width:1px;stroke-linecap:butt;stroke-linejoin:miter;stroke-opacity:1" d="M 161.962,345.197 171.439,357.834 z" id="boundary" inkscape:connector-curvature="0" />
	<path style="fill:none;stroke:red;stroke-width:1px;stroke-linecap:butt;stroke-linejoin:miter;stroke-opacity:1" d="M 261.478,193.554 245.682,193.554 z" id="boundary" inkscape:connector-curvature="0" />
	<path style="fill:none;stroke:red;stroke-width:1px;stroke-linecap:butt;stroke-linejoin:miter;stroke-opacity:1" d="M 384.688,193.554 370.471,185.656 z" id="boundary" inkscape:connector-curvature="0" />
	<path style="fill:none;stroke:red;stroke-width:1px;stroke-linecap:butt;stroke-linejoin:miter;stroke-opacity:1" d="M 400.484,193.554 384.688,193.554 z" id="boundary" inkscape:connector-curvature="0" />
	<path style="fill:none;stroke:red;stroke-width:1px;stroke-linecap:butt;stroke-linejoin:miter;stroke-opacity:1" d="M 203.032,479.465 218.828,482.624 z" id="boundary" inkscape:connector-curvature="0" />
	<path style="fill:none;stroke:red;stroke-width:1px;stroke-linecap:butt;stroke-linejoin:miter;stroke-opacity:1" d="M 225.146,498.42 218.828,482.624 z" id="boundary" inkscape:connector-curvature="0" />
	<path style="fill:none;stroke:red;stroke-width:1px;stroke-linecap:butt;stroke-linejoin:miter;stroke-opacity:1" d="M 237.783,509.478 225.146,498.42 z" id="boundary" inkscape:connector-curvature="0" />
	<path style="fill:none;stroke:red;stroke-width:1px;stroke-linecap:butt;stroke-linejoin:miter;stroke-opacity:1" d="M 195.134,511.057 195.134,495.261 z" id="boundary" inkscape:connector-curvature="0" />
	<path style="fill:none;stroke:red;stroke-width:1px;stroke-linecap:butt;stroke-linejoin:miter;stroke-opacity:1" d="M 169.86,490.522 161.962,506.318 z" id="boundary" inkscape:connector-curvature="0" />
	<path style="fill:none;stroke:red;stroke-width:1px;stroke-linecap:butt;stroke-linejoin:miter;stroke-opacity:1" d="M 161.962,506.318 161.962,522.115 z" id="boundary" inkscape:connector-curvature="0" />
	<path style="fill:none;stroke:red;stroke-width:1px;stroke-linecap:butt;stroke-linejoin:miter;stroke-opacity:1" d="M 195.134,511.057 195.134,526.854 z" id="boundary" inkscape:connector-curvature="0" />
	<path style="fill:none;stroke:red;stroke-width:1px;stroke-linecap:butt;stroke-linejoin:miter;stroke-opacity:1" d="M 161.962,537.911 161.962,522.115 z" id="boundary" inkscape:connector-curvature="0" />
	<path style="fill:none;stroke:red;stroke-width:1px;stroke-linecap:butt;stroke-linejoin:miter;stroke-opacity:1" d="M 161.962,537.911 161.962,553.707 z" id="boundary" inkscape:connector-curvature="0" />
	<path style="fill:none;stroke:red;stroke-width:1px;stroke-linecap:butt;stroke-linejoin:miter;stroke-opacity:1" d="M 195.134,542.65 195.134,558.446 z" id="boundary" inkscape:connector-curvature="0" />
	<path style="fill:none;stroke:red;stroke-width:1px;stroke-linecap:butt;stroke-linejoin:miter;stroke-opacity:1" d="M 161.962,569.503 161.962,553.707 z" id="boundary" inkscape:connector-curvature="0" />
	<path style="fill:none;stroke:red;stroke-width:1px;stroke-linecap:butt;stroke-linejoin:miter;stroke-opacity:1" d="M 195.134,526.854 195.134,542.65 z" id="boundary" inkscape:connector-curvature="0" />
	<path style="fill:none;stroke:red;stroke-width:1px;stroke-linecap:butt;stroke-linejoin:miter;stroke-opacity:1" d="M 248.841,522.115 256.739,536.331 z" id="boundary" inkscape:connector-curvature="0" />
	<path style="fill:none;stroke:red;stroke-width:1px;stroke-linecap:butt;stroke-linejoin:miter;stroke-opacity:1" d="M 256.739,536.331 267.796,548.968 z" id="boundary" inkscape:connector-curvature="0" />
	<path style="fill:none;stroke:red;stroke-width:1px;stroke-linecap:butt;stroke-linejoin:miter;stroke-opacity:1" d="M 280.433,558.446 267.796,548.968 z" id="boundary" inkscape:connector-curvature="0" />
	<path style="fill:none;stroke:red;stroke-width:1px;stroke-linecap:butt;stroke-linejoin:miter;stroke-opacity:1" d="M 195.134,558.446 195.134,574.242 z" id="boundary" inkscape:connector-curvature="0" />
	<path style="fill:none;stroke:red;stroke-width:1px;stroke-linecap:butt;stroke-linejoin:miter;stroke-opacity:1" d="M 294.65,566.344 280.433,558.446 z" id="boundary" inkscape:connector-curvature="0" />
	<path style="fill:none;stroke:red;stroke-width:1px;stroke-linecap:butt;stroke-linejoin:miter;stroke-opacity:1" d="M 308.866,574.242 294.65,566.344 z" id="boundary" inkscape:connector-curvature="0" />
	<path style="fill:none;stroke:red;stroke-width:1px;stroke-linecap:butt;stroke-linejoin:miter;stroke-opacity:1" d="M 198.293,590.038 195.134,574.242 z" id="boundary" inkscape:connector-curvature="0" />
	<path style="fill:none;stroke:red;stroke-width:1px;stroke-linecap:butt;stroke-linejoin:miter;stroke-opacity:1" d="M 248.841,522.115 237.783,509.478 z" id="boundary" inkscape:connector-curvature="0" />
	<path style="fill:none;stroke:red;stroke-width:1px;stroke-linecap:butt;stroke-linejoin:miter;stroke-opacity:1" d="M 161.962,585.299 161.962,569.503 z" id="boundary" inkscape:connector-curvature="0" />
	<path style="fill:none;stroke:red;stroke-width:1px;stroke-linecap:butt;stroke-linejoin:miter;stroke-opacity:1" d="M 161.962,585.299 161.962,601.096 z" id="boundary" inkscape:connector-curvature="0" />
	<path style="fill:none;stroke:red;stroke-width:1px;stroke-linecap:butt;stroke-linejoin:miter;stroke-opacity:1" d="M 169.86,615.312 161.962,601.096 z" id="boundary" inkscape:connector-curvature="0" />
	<path style="fill:none;stroke:red;stroke-width:1px;stroke-linecap:butt;stroke-linejoin:miter;stroke-opacity:1" d="M 203.032,605.834 198.293,590.038 z" id="boundary" inkscape:connector-curvature="0" />
	<path style="fill:none;stroke:red;stroke-width:1px;stroke-linecap:butt;stroke-linejoin:miter;stroke-opacity:1" d="M 169.86,615.312 169.86,631.108 z" id="boundary" inkscape:connector-curvature="0" />
	<path style="fill:none;stroke:red;stroke-width:1px;stroke-linecap:butt;stroke-linejoin:miter;stroke-opacity:1" d="M 169.86,646.904 185.656,653.223 z" id="boundary" inkscape:connector-curvature="0" />
	<path style="fill:none;stroke:red;stroke-width:1px;stroke-linecap:butt;stroke-linejoin:miter;stroke-opacity:1" d="M 185.656,653.223 199.873,661.121 z" id="boundary" inkscape:connector-curvature="0" />
	<path style="fill:none;stroke:red;stroke-width:1px;stroke-linecap:butt;stroke-linejoin:miter;stroke-opacity:1" d="M 169.86,646.904 169.86,631.108 z" id="boundary" inkscape:connector-curvature="0" />
	<path style="fill:none;stroke:red;stroke-width:1px;stroke-linecap:butt;stroke-linejoin:miter;stroke-opacity:1" d="M 203.032,637.427 199.873,661.121 z" id="boundary" inkscape:connector-curvature="0" />
	<path style="fill:none;stroke:red;stroke-width:1px;stroke-linecap:butt;stroke-linejoin:miter;stroke-opacity:1" d="M 203.032,605.834 203.032,621.631 z" id="boundary" inkscape:connector-curvature="0" />
	<path style="fill:none;stroke:red;stroke-width:1px;stroke-linecap:butt;stroke-linejoin:miter;stroke-opacity:1" d="M 203.032,621.631 203.032,637.427 z" id="boundary" inkscape:connector-curvature="0" />
	<path style="fill:none;stroke:red;stroke-width:1px;stroke-linecap:butt;stroke-linejoin:miter;stroke-opacity:1" d="M 296.229,893.325 312.025,888.586 z" id="boundary" inkscape:connector-curvature="0" />
	<path style="fill:none;stroke:red;stroke-width:1px;stroke-linecap:butt;stroke-linejoin:miter;stroke-opacity:1" d="M 296.229,893.325 280.433,896.484 z" id="boundary" inkscape:connector-curvature="0" />
	<path style="fill:none;stroke:red;stroke-width:1px;stroke-linecap:butt;stroke-linejoin:miter;stroke-opacity:1" d="M 274.115,913.86 264.637,901.223 z" id="boundary" inkscape:connector-curvature="0" />
	<path style="fill:none;stroke:red;stroke-width:1px;stroke-linecap:butt;stroke-linejoin:miter;stroke-opacity:1" d="M 264.637,901.223 280.433,896.484 z" id="boundary" inkscape:connector-curvature="0" />
	<path style="fill:none;stroke:red;stroke-width:1px;stroke-linecap:butt;stroke-linejoin:miter;stroke-opacity:1" d="M 305.707,913.86 289.911,913.86 z" id="boundary" inkscape:connector-curvature="0" />
	<path style="fill:none;stroke:red;stroke-width:1px;stroke-linecap:butt;stroke-linejoin:miter;stroke-opacity:1" d="M 305.707,913.86 319.924,921.758 z" id="boundary" inkscape:connector-curvature="0" />
	<path style="fill:none;stroke:red;stroke-width:1px;stroke-linecap:butt;stroke-linejoin:miter;stroke-opacity:1" d="M 289.911,913.86 274.115,913.86 z" id="boundary" inkscape:connector-curvature="0" />
	<path style="fill:none;stroke:red;stroke-width:1px;stroke-linecap:butt;stroke-linejoin:miter;stroke-opacity:1" d="M 308.866,574.242 321.503,585.299 z" id="boundary" inkscape:connector-curvature="0" />
	<path style="fill:none;stroke:red;stroke-width:1px;stroke-linecap:butt;stroke-linejoin:miter;stroke-opacity:1" d="M 321.503,585.299 337.299,590.038 z" id="boundary" inkscape:connector-curvature="0" />
	<path style="fill:none;stroke:red;stroke-width:1px;stroke-linecap:butt;stroke-linejoin:miter;stroke-opacity:1" d="M 337.299,590.038 351.516,597.936 z" id="boundary" inkscape:connector-curvature="0" />
	<path style="fill:none;stroke:red;stroke-width:1px;stroke-linecap:butt;stroke-linejoin:miter;stroke-opacity:1" d="M 351.516,597.936 367.312,597.936 z" id="boundary" inkscape:connector-curvature="0" />
	<path style="fill:none;stroke:red;stroke-width:1px;stroke-linecap:butt;stroke-linejoin:miter;stroke-opacity:1" d="M 367.312,597.936 376.79,610.573 z" id="boundary" inkscape:connector-curvature="0" />
	<path style="fill:none;stroke:red;stroke-width:1px;stroke-linecap:butt;stroke-linejoin:miter;stroke-opacity:1" d="M 383.108,719.567 375.21,743.261 z" id="boundary" inkscape:connector-curvature="0" />
	<path style="fill:none;stroke:red;stroke-width:1px;stroke-linecap:butt;stroke-linejoin:miter;stroke-opacity:1" d="M 375.21,743.261 375.21,759.057 z" id="boundary" inkscape:connector-curvature="0" />
	<path style="fill:none;stroke:red;stroke-width:1px;stroke-linecap:butt;stroke-linejoin:miter;stroke-opacity:1" d="M 375.21,759.057 367.312,774.854 z" id="boundary" inkscape:connector-curvature="0" />
	<path style="fill:none;stroke:red;stroke-width:1px;stroke-linecap:butt;stroke-linejoin:miter;stroke-opacity:1" d="M 383.108,626.369 376.79,610.573 z" id="boundary" inkscape:connector-curvature="0" />
	<path style="fill:none;stroke:red;stroke-width:1px;stroke-linecap:butt;stroke-linejoin:miter;stroke-opacity:1" d="M 383.108,626.369 383.108,642.166 z" id="boundary" inkscape:connector-curvature="0" />
	<path style="fill:none;stroke:red;stroke-width:1px;stroke-linecap:butt;stroke-linejoin:miter;stroke-opacity:1" d="M 383.108,642.166 391.006,656.382 z" id="boundary" inkscape:connector-curvature="0" />
	<path style="fill:none;stroke:red;stroke-width:1px;stroke-linecap:butt;stroke-linejoin:miter;stroke-opacity:1" d="M 391.006,656.382 391.006,672.178 z" id="boundary" inkscape:connector-curvature="0" />
	<path style="fill:none;stroke:red;stroke-width:1px;stroke-linecap:butt;stroke-linejoin:miter;stroke-opacity:1" d="M 391.006,672.178 391.006,687.975 z" id="boundary" inkscape:connector-curvature="0" />
	<path style="fill:none;stroke:red;stroke-width:1px;stroke-linecap:butt;stroke-linejoin:miter;stroke-opacity:1" d="M 391.006,703.771 391.006,687.975 z" id="boundary" inkscape:connector-curvature="0" />
	<path style="fill:none;stroke:red;stroke-width:1px;stroke-linecap:butt;stroke-linejoin:miter;stroke-opacity:1" d="M 408.382,724.306 400.484,740.102 z" id="boundary" inkscape:connector-curvature="0" />
	<path style="fill:none;stroke:red;stroke-width:1px;stroke-linecap:butt;stroke-linejoin:miter;stroke-opacity:1" d="M 391.006,703.771 383.108,719.567 z" id="boundary" inkscape:connector-curvature="0" />
	<path style="fill:none;stroke:red;stroke-width:1px;stroke-linecap:butt;stroke-linejoin:miter;stroke-opacity:1" d="M 392.586,779.592 392.586,763.796 z" id="boundary" inkscape:connector-curvature="0" />
	<path style="fill:none;stroke:red;stroke-width:1px;stroke-linecap:butt;stroke-linejoin:miter;stroke-opacity:1" d="M 400.484,740.102 392.586,763.796 z" id="boundary" inkscape:connector-curvature="0" />
	<path style="fill:none;stroke:red;stroke-width:1px;stroke-linecap:butt;stroke-linejoin:miter;stroke-opacity:1" d="M 392.586,795.389 392.586,779.592 z" id="boundary" inkscape:connector-curvature="0" />
	<path style="fill:none;stroke:red;stroke-width:1px;stroke-linecap:butt;stroke-linejoin:miter;stroke-opacity:1" d="M 367.312,790.65 367.312,774.854 z" id="boundary" inkscape:connector-curvature="0" />
	<path style="fill:none;stroke:red;stroke-width:1px;stroke-linecap:butt;stroke-linejoin:miter;stroke-opacity:1" d="M 351.516,822.242 351.516,838.038 z" id="boundary" inkscape:connector-curvature="0" />
	<path style="fill:none;stroke:red;stroke-width:1px;stroke-linecap:butt;stroke-linejoin:miter;stroke-opacity:1" d="M 351.516,838.038 343.618,853.834 z" id="boundary" inkscape:connector-curvature="0" />
	<path style="fill:none;stroke:red;stroke-width:1px;stroke-linecap:butt;stroke-linejoin:miter;stroke-opacity:1" d="M 327.822,885.427 312.025,888.586 z" id="boundary" inkscape:connector-curvature="0" />
	<path style="fill:none;stroke:red;stroke-width:1px;stroke-linecap:butt;stroke-linejoin:miter;stroke-opacity:1" d="M 359.414,806.446 351.516,822.242 z" id="boundary" inkscape:connector-curvature="0" />
	<path style="fill:none;stroke:red;stroke-width:1px;stroke-linecap:butt;stroke-linejoin:miter;stroke-opacity:1" d="M 343.618,869.631 343.618,853.834 z" id="boundary" inkscape:connector-curvature="0" />
	<path style="fill:none;stroke:red;stroke-width:1px;stroke-linecap:butt;stroke-linejoin:miter;stroke-opacity:1" d="M 335.72,917.019 319.924,921.758 z" id="boundary" inkscape:connector-curvature="0" />
	<path style="fill:none;stroke:red;stroke-width:1px;stroke-linecap:butt;stroke-linejoin:miter;stroke-opacity:1" d="M 348.357,904.382 335.72,917.019 z" id="boundary" inkscape:connector-curvature="0" />
	<path style="fill:none;stroke:red;stroke-width:1px;stroke-linecap:butt;stroke-linejoin:miter;stroke-opacity:1" d="M 327.822,885.427 343.618,869.631 z" id="boundary" inkscape:connector-curvature="0" />
	<path style="fill:none;stroke:red;stroke-width:1px;stroke-linecap:butt;stroke-linejoin:miter;stroke-opacity:1" d="M 364.153,898.064 348.357,904.382 z" id="boundary" inkscape:connector-curvature="0" />
	<path style="fill:none;stroke:red;stroke-width:1px;stroke-linecap:butt;stroke-linejoin:miter;stroke-opacity:1" d="M 376.79,826.981 368.892,850.675 z" id="boundary" inkscape:connector-curvature="0" />
	<path style="fill:none;stroke:red;stroke-width:1px;stroke-linecap:butt;stroke-linejoin:miter;stroke-opacity:1" d="M 389.427,815.924 376.79,826.981 z" id="boundary" inkscape:connector-curvature="0" />
	<path style="fill:none;stroke:red;stroke-width:1px;stroke-linecap:butt;stroke-linejoin:miter;stroke-opacity:1" d="M 392.586,795.389 389.427,815.924 z" id="boundary" inkscape:connector-curvature="0" />
	<path style="fill:none;stroke:red;stroke-width:1px;stroke-linecap:butt;stroke-linejoin:miter;stroke-opacity:1" d="M 368.892,850.675 368.892,866.471 z" id="boundary" inkscape:connector-curvature="0" />
	<path style="fill:none;stroke:red;stroke-width:1px;stroke-linecap:butt;stroke-linejoin:miter;stroke-opacity:1" d="M 376.79,880.688 379.949,896.484 z" id="boundary" inkscape:connector-curvature="0" />
	<path style="fill:none;stroke:red;stroke-width:1px;stroke-linecap:butt;stroke-linejoin:miter;stroke-opacity:1" d="M 379.949,896.484 364.153,898.064 z" id="boundary" inkscape:connector-curvature="0" />
	<path style="fill:none;stroke:red;stroke-width:1px;stroke-linecap:butt;stroke-linejoin:miter;stroke-opacity:1" d="M 376.79,880.688 368.892,866.471 z" id="boundary" inkscape:connector-curvature="0" />
	<path style="fill:none;stroke:red;stroke-width:1px;stroke-linecap:butt;stroke-linejoin:miter;stroke-opacity:1" d="M 359.414,806.446 367.312,790.65 z" id="boundary" inkscape:connector-curvature="0" />
	<path style="fill:none;stroke:red;stroke-width:1px;stroke-linecap:butt;stroke-linejoin:miter;stroke-opacity:1" d="M 400.484,193.554 414.701,201.452 z" id="boundary" inkscape:connector-curvature="0" />
	<path style="fill:none;stroke:red;stroke-width:1px;stroke-linecap:butt;stroke-linejoin:miter;stroke-opacity:1" d="M 414.701,201.452 430.497,201.452 z" id="boundary" inkscape:connector-curvature="0" />
	<path style="fill:none;stroke:red;stroke-width:1px;stroke-linecap:butt;stroke-linejoin:miter;stroke-opacity:1" d="M 430.497,201.452 444.713,209.35 z" id="boundary" inkscape:connector-curvature="0" />
	<path style="fill:none;stroke:red;stroke-width:1px;stroke-linecap:butt;stroke-linejoin:miter;stroke-opacity:1" d="M 444.713,209.35 460.51,210.93 z" id="boundary" inkscape:connector-curvature="0" />
	<path style="fill:none;stroke:red;stroke-width:1px;stroke-linecap:butt;stroke-linejoin:miter;stroke-opacity:1" d="M 460.51,210.93 476.306,217.248 z" id="boundary" inkscape:connector-curvature="0" />
	<path style="fill:none;stroke:red;stroke-width:1px;stroke-linecap:butt;stroke-linejoin:miter;stroke-opacity:1" d="M 490.522,225.146 476.306,217.248 z" id="boundary" inkscape:connector-curvature="0" />
	<path style="fill:none;stroke:red;stroke-width:1px;stroke-linecap:butt;stroke-linejoin:miter;stroke-opacity:1" d="M 506.318,225.146 490.522,225.146 z" id="boundary" inkscape:connector-curvature="0" />
	<path style="fill:none;stroke:red;stroke-width:1px;stroke-linecap:butt;stroke-linejoin:miter;stroke-opacity:1" d="M 506.318,225.146 520.535,233.045 z" id="boundary" inkscape:connector-curvature="0" />
	<path style="fill:none;stroke:red;stroke-width:1px;stroke-linecap:butt;stroke-linejoin:miter;stroke-opacity:1" d="M 534.752,240.943 548.968,248.841 z" id="boundary" inkscape:connector-curvature="0" />
	<path style="fill:none;stroke:red;stroke-width:1px;stroke-linecap:butt;stroke-linejoin:miter;stroke-opacity:1" d="M 534.752,240.943 520.535,233.045 z" id="boundary" inkscape:connector-curvature="0" />
	<path style="fill:none;stroke:red;stroke-width:1px;stroke-linecap:butt;stroke-linejoin:miter;stroke-opacity:1" d="M 563.185,256.739 577.401,264.637 z" id="boundary" inkscape:connector-curvature="0" />
	<path style="fill:none;stroke:red;stroke-width:1px;stroke-linecap:butt;stroke-linejoin:miter;stroke-opacity:1" d="M 563.185,256.739 548.968,248.841 z" id="boundary" inkscape:connector-curvature="0" />
	<path style="fill:none;stroke:red;stroke-width:1px;stroke-linecap:butt;stroke-linejoin:miter;stroke-opacity:1" d="M 511.057,605.834 495.261,605.834 z" id="boundary" inkscape:connector-curvature="0" />
	<path style="fill:none;stroke:red;stroke-width:1px;stroke-linecap:butt;stroke-linejoin:miter;stroke-opacity:1" d="M 577.401,264.637 591.618,272.535 z" id="boundary" inkscape:connector-curvature="0" />
	<path style="fill:none;stroke:red;stroke-width:1px;stroke-linecap:butt;stroke-linejoin:miter;stroke-opacity:1" d="M 591.618,272.535 605.834,280.433 z" id="boundary" inkscape:connector-curvature="0" />
	<path style="fill:none;stroke:red;stroke-width:1px;stroke-linecap:butt;stroke-linejoin:miter;stroke-opacity:1" d="M 620.051,288.331 605.834,280.433 z" id="boundary" inkscape:connector-curvature="0" />
	<path style="fill:none;stroke:red;stroke-width:1px;stroke-linecap:butt;stroke-linejoin:miter;stroke-opacity:1" d="M 526.854,605.834 511.057,605.834 z" id="boundary" inkscape:connector-curvature="0" />
	<path style="fill:none;stroke:red;stroke-width:1px;stroke-linecap:butt;stroke-linejoin:miter;stroke-opacity:1" d="M 495.261,621.631 495.261,605.834 z" id="boundary" inkscape:connector-curvature="0" />
	<path style="fill:none;stroke:red;stroke-width:1px;stroke-linecap:butt;stroke-linejoin:miter;stroke-opacity:1" d="M 424.178,629.529 424.178,613.732 z" id="boundary" inkscape:connector-curvature="0" />
	<path style="fill:none;stroke:red;stroke-width:1px;stroke-linecap:butt;stroke-linejoin:miter;stroke-opacity:1" d="M 424.178,613.732 439.975,613.732 z" id="boundary" inkscape:connector-curvature="0" />
	<path style="fill:none;stroke:red;stroke-width:1px;stroke-linecap:butt;stroke-linejoin:miter;stroke-opacity:1" d="M 454.191,642.166 449.452,626.369 z" id="boundary" inkscape:connector-curvature="0" />
	<path style="fill:none;stroke:red;stroke-width:1px;stroke-linecap:butt;stroke-linejoin:miter;stroke-opacity:1" d="M 449.452,626.369 439.975,613.732 z" id="boundary" inkscape:connector-curvature="0" />
	<path style="fill:none;stroke:red;stroke-width:1px;stroke-linecap:butt;stroke-linejoin:miter;stroke-opacity:1" d="M 424.178,629.529 424.178,645.325 z" id="boundary" inkscape:connector-curvature="0" />
	<path style="fill:none;stroke:red;stroke-width:1px;stroke-linecap:butt;stroke-linejoin:miter;stroke-opacity:1" d="M 424.178,661.121 424.178,645.325 z" id="boundary" inkscape:connector-curvature="0" />
	<path style="fill:none;stroke:red;stroke-width:1px;stroke-linecap:butt;stroke-linejoin:miter;stroke-opacity:1" d="M 454.191,642.166 454.191,657.962 z" id="boundary" inkscape:connector-curvature="0" />
	<path style="fill:none;stroke:red;stroke-width:1px;stroke-linecap:butt;stroke-linejoin:miter;stroke-opacity:1" d="M 454.191,657.962 454.191,673.758 z" id="boundary" inkscape:connector-curvature="0" />
	<path style="fill:none;stroke:red;stroke-width:1px;stroke-linecap:butt;stroke-linejoin:miter;stroke-opacity:1" d="M 495.261,621.631 495.261,637.427 z" id="boundary" inkscape:connector-curvature="0" />
	<path style="fill:none;stroke:red;stroke-width:1px;stroke-linecap:butt;stroke-linejoin:miter;stroke-opacity:1" d="M 526.854,605.834 542.65,605.834 z" id="boundary" inkscape:connector-curvature="0" />
	<path style="fill:none;stroke:red;stroke-width:1px;stroke-linecap:butt;stroke-linejoin:miter;stroke-opacity:1" d="M 495.261,669.019 495.261,653.223 z" id="boundary" inkscape:connector-curvature="0" />
	<path style="fill:none;stroke:red;stroke-width:1px;stroke-linecap:butt;stroke-linejoin:miter;stroke-opacity:1" d="M 574.242,605.834 558.446,605.834 z" id="boundary" inkscape:connector-curvature="0" />
	<path style="fill:none;stroke:red;stroke-width:1px;stroke-linecap:butt;stroke-linejoin:miter;stroke-opacity:1" d="M 558.446,605.834 542.65,605.834 z" id="boundary" inkscape:connector-curvature="0" />
	<path style="fill:none;stroke:red;stroke-width:1px;stroke-linecap:butt;stroke-linejoin:miter;stroke-opacity:1" d="M 495.261,637.427 495.261,653.223 z" id="boundary" inkscape:connector-curvature="0" />
	<path style="fill:none;stroke:red;stroke-width:1px;stroke-linecap:butt;stroke-linejoin:miter;stroke-opacity:1" d="M 604.255,613.732 590.038,605.834 z" id="boundary" inkscape:connector-curvature="0" />
	<path style="fill:none;stroke:red;stroke-width:1px;stroke-linecap:butt;stroke-linejoin:miter;stroke-opacity:1" d="M 634.268,621.631 618.471,621.631 z" id="boundary" inkscape:connector-curvature="0" />
	<path style="fill:none;stroke:red;stroke-width:1px;stroke-linecap:butt;stroke-linejoin:miter;stroke-opacity:1" d="M 618.471,621.631 604.255,613.732 z" id="boundary" inkscape:connector-curvature="0" />
	<path style="fill:none;stroke:red;stroke-width:1px;stroke-linecap:butt;stroke-linejoin:miter;stroke-opacity:1" d="M 574.242,605.834 590.038,605.834 z" id="boundary" inkscape:connector-curvature="0" />
	<path style="fill:none;stroke:red;stroke-width:1px;stroke-linecap:butt;stroke-linejoin:miter;stroke-opacity:1" d="M 620.051,288.331 632.688,297.809 z" id="boundary" inkscape:connector-curvature="0" />
	<path style="fill:none;stroke:red;stroke-width:1px;stroke-linecap:butt;stroke-linejoin:miter;stroke-opacity:1" d="M 424.178,661.121 424.178,676.917 z" id="boundary" inkscape:connector-curvature="0" />
	<path style="fill:none;stroke:red;stroke-width:1px;stroke-linecap:butt;stroke-linejoin:miter;stroke-opacity:1" d="M 645.325,308.866 657.962,319.924 z" id="boundary" inkscape:connector-curvature="0" />
	<path style="fill:none;stroke:red;stroke-width:1px;stroke-linecap:butt;stroke-linejoin:miter;stroke-opacity:1" d="M 686.395,335.72 672.178,327.822 z" id="boundary" inkscape:connector-curvature="0" />
	<path style="fill:none;stroke:red;stroke-width:1px;stroke-linecap:butt;stroke-linejoin:miter;stroke-opacity:1" d="M 657.962,319.924 672.178,327.822 z" id="boundary" inkscape:connector-curvature="0" />
	<path style="fill:none;stroke:red;stroke-width:1px;stroke-linecap:butt;stroke-linejoin:miter;stroke-opacity:1" d="M 645.325,308.866 632.688,297.809 z" id="boundary" inkscape:connector-curvature="0" />
	<path style="fill:none;stroke:red;stroke-width:1px;stroke-linecap:butt;stroke-linejoin:miter;stroke-opacity:1" d="M 686.395,335.72 699.032,346.777 z" id="boundary" inkscape:connector-curvature="0" />
	<path style="fill:none;stroke:red;stroke-width:1px;stroke-linecap:butt;stroke-linejoin:miter;stroke-opacity:1" d="M 699.032,346.777 705.35,362.573 z" id="boundary" inkscape:connector-curvature="0" />
	<path style="fill:none;stroke:red;stroke-width:1px;stroke-linecap:butt;stroke-linejoin:miter;stroke-opacity:1" d="M 705.35,362.573 716.408,375.21 z" id="boundary" inkscape:connector-curvature="0" />
	<path style="fill:none;stroke:red;stroke-width:1px;stroke-linecap:butt;stroke-linejoin:miter;stroke-opacity:1" d="M 716.408,375.21 724.306,389.427 z" id="boundary" inkscape:connector-curvature="0" />
	<path style="fill:none;stroke:red;stroke-width:1px;stroke-linecap:butt;stroke-linejoin:miter;stroke-opacity:1" d="M 736.943,400.484 724.306,389.427 z" id="boundary" inkscape:connector-curvature="0" />
	<path style="fill:none;stroke:red;stroke-width:1px;stroke-linecap:butt;stroke-linejoin:miter;stroke-opacity:1" d="M 736.943,400.484 743.261,416.28 z" id="boundary" inkscape:connector-curvature="0" />
	<path style="fill:none;stroke:red;stroke-width:1px;stroke-linecap:butt;stroke-linejoin:miter;stroke-opacity:1" d="M 751.159,430.497 743.261,416.28 z" id="boundary" inkscape:connector-curvature="0" />
	<path style="fill:none;stroke:red;stroke-width:1px;stroke-linecap:butt;stroke-linejoin:miter;stroke-opacity:1" d="M 751.159,430.497 755.898,446.293 z" id="boundary" inkscape:connector-curvature="0" />
	<path style="fill:none;stroke:red;stroke-width:1px;stroke-linecap:butt;stroke-linejoin:miter;stroke-opacity:1" d="M 768.535,455.771 755.898,446.293 z" id="boundary" inkscape:connector-curvature="0" />
	<path style="fill:none;stroke:red;stroke-width:1px;stroke-linecap:butt;stroke-linejoin:miter;stroke-opacity:1" d="M 768.535,455.771 774.854,471.567 z" id="boundary" inkscape:connector-curvature="0" />
	<path style="fill:none;stroke:red;stroke-width:1px;stroke-linecap:butt;stroke-linejoin:miter;stroke-opacity:1" d="M 782.752,485.783 774.854,471.567 z" id="boundary" inkscape:connector-curvature="0" />
	<path style="fill:none;stroke:red;stroke-width:1px;stroke-linecap:butt;stroke-linejoin:miter;stroke-opacity:1" d="M 795.389,515.796 787.49,501.58 z" id="boundary" inkscape:connector-curvature="0" />
	<path style="fill:none;stroke:red;stroke-width:1px;stroke-linecap:butt;stroke-linejoin:miter;stroke-opacity:1" d="M 787.49,501.58 782.752,485.783 z" id="boundary" inkscape:connector-curvature="0" />
	<path style="fill:none;stroke:red;stroke-width:1px;stroke-linecap:butt;stroke-linejoin:miter;stroke-opacity:1" d="M 803.287,530.013 795.389,515.796 z" id="boundary" inkscape:connector-curvature="0" />
	<path style="fill:none;stroke:red;stroke-width:1px;stroke-linecap:butt;stroke-linejoin:miter;stroke-opacity:1" d="M 648.484,629.529 634.268,621.631 z" id="boundary" inkscape:connector-curvature="0" />
	<path style="fill:none;stroke:red;stroke-width:1px;stroke-linecap:butt;stroke-linejoin:miter;stroke-opacity:1" d="M 803.287,530.013 803.287,545.809 z" id="boundary" inkscape:connector-curvature="0" />
	<path style="fill:none;stroke:red;stroke-width:1px;stroke-linecap:butt;stroke-linejoin:miter;stroke-opacity:1" d="M 811.185,560.025 803.287,545.809 z" id="boundary" inkscape:connector-curvature="0" />
	<path style="fill:none;stroke:red;stroke-width:1px;stroke-linecap:butt;stroke-linejoin:miter;stroke-opacity:1" d="M 819.083,574.242 811.185,560.025 z" id="boundary" inkscape:connector-curvature="0" />
	<path style="fill:none;stroke:red;stroke-width:1px;stroke-linecap:butt;stroke-linejoin:miter;stroke-opacity:1" d="M 662.701,637.427 648.484,629.529 z" id="boundary" inkscape:connector-curvature="0" />
	<path style="fill:none;stroke:red;stroke-width:1px;stroke-linecap:butt;stroke-linejoin:miter;stroke-opacity:1" d="M 702.191,661.121 686.395,659.541 z" id="boundary" inkscape:connector-curvature="0" />
	<path style="fill:none;stroke:red;stroke-width:1px;stroke-linecap:butt;stroke-linejoin:miter;stroke-opacity:1" d="M 686.395,659.541 675.338,646.904 z" id="boundary" inkscape:connector-curvature="0" />
	<path style="fill:none;stroke:red;stroke-width:1px;stroke-linecap:butt;stroke-linejoin:miter;stroke-opacity:1" d="M 675.338,646.904 662.701,637.427 z" id="boundary" inkscape:connector-curvature="0" />
	<path style="fill:none;stroke:red;stroke-width:1px;stroke-linecap:butt;stroke-linejoin:miter;stroke-opacity:1" d="M 826.981,588.459 819.083,574.242 z" id="boundary" inkscape:connector-curvature="0" />
	<path style="fill:none;stroke:red;stroke-width:1px;stroke-linecap:butt;stroke-linejoin:miter;stroke-opacity:1" d="M 826.981,588.459 834.879,602.675 z" id="boundary" inkscape:connector-curvature="0" />
	<path style="fill:none;stroke:red;stroke-width:1px;stroke-linecap:butt;stroke-linejoin:miter;stroke-opacity:1" d="M 842.777,616.892 834.879,602.675 z" id="boundary" inkscape:connector-curvature="0" />
	<path style="fill:none;stroke:red;stroke-width:1px;stroke-linecap:butt;stroke-linejoin:miter;stroke-opacity:1" d="M 856.994,624.79 842.777,616.892 z" id="boundary" inkscape:connector-curvature="0" />
	<path style="fill:none;stroke:red;stroke-width:1px;stroke-linecap:butt;stroke-linejoin:miter;stroke-opacity:1" d="M 856.994,624.79 864.892,639.006 z" id="boundary" inkscape:connector-curvature="0" />
	<path style="fill:none;stroke:red;stroke-width:1px;stroke-linecap:butt;stroke-linejoin:miter;stroke-opacity:1" d="M 874.369,651.643 890.166,656.382 z" id="boundary" inkscape:connector-curvature="0" />
	<path style="fill:none;stroke:red;stroke-width:1px;stroke-linecap:butt;stroke-linejoin:miter;stroke-opacity:1" d="M 890.166,656.382 902.803,667.439 z" id="boundary" inkscape:connector-curvature="0" />
	<path style="fill:none;stroke:red;stroke-width:1px;stroke-linecap:butt;stroke-linejoin:miter;stroke-opacity:1" d="M 874.369,651.643 864.892,639.006 z" id="boundary" inkscape:connector-curvature="0" />
	<path style="fill:none;stroke:red;stroke-width:1px;stroke-linecap:butt;stroke-linejoin:miter;stroke-opacity:1" d="M 917.019,675.338 902.803,667.439 z" id="boundary" inkscape:connector-curvature="0" />
	<path style="fill:none;stroke:red;stroke-width:1px;stroke-linecap:butt;stroke-linejoin:miter;stroke-opacity:1" d="M 702.191,661.121 714.828,670.599 z" id="boundary" inkscape:connector-curvature="0" />
	<path style="fill:none;stroke:red;stroke-width:1px;stroke-linecap:butt;stroke-linejoin:miter;stroke-opacity:1" d="M 416.28,692.713 424.178,676.917 z" id="boundary" inkscape:connector-curvature="0" />
	<path style="fill:none;stroke:red;stroke-width:1px;stroke-linecap:butt;stroke-linejoin:miter;stroke-opacity:1" d="M 454.191,673.758 455.771,689.554 z" id="boundary" inkscape:connector-curvature="0" />
	<path style="fill:none;stroke:red;stroke-width:1px;stroke-linecap:butt;stroke-linejoin:miter;stroke-opacity:1" d="M 462.089,705.35 455.771,689.554 z" id="boundary" inkscape:connector-curvature="0" />
	<path style="fill:none;stroke:red;stroke-width:1px;stroke-linecap:butt;stroke-linejoin:miter;stroke-opacity:1" d="M 416.28,708.51 416.28,692.713 z" id="boundary" inkscape:connector-curvature="0" />
	<path style="fill:none;stroke:red;stroke-width:1px;stroke-linecap:butt;stroke-linejoin:miter;stroke-opacity:1" d="M 408.382,724.306 416.28,708.51 z" id="boundary" inkscape:connector-curvature="0" />
	<path style="fill:none;stroke:red;stroke-width:1px;stroke-linecap:butt;stroke-linejoin:miter;stroke-opacity:1" d="M 462.089,705.35 462.089,721.146 z" id="boundary" inkscape:connector-curvature="0" />
	<path style="fill:none;stroke:red;stroke-width:1px;stroke-linecap:butt;stroke-linejoin:miter;stroke-opacity:1" d="M 462.089,736.943 462.089,721.146 z" id="boundary" inkscape:connector-curvature="0" />
	<path style="fill:none;stroke:red;stroke-width:1px;stroke-linecap:butt;stroke-linejoin:miter;stroke-opacity:1" d="M 462.089,736.943 462.089,752.739 z" id="boundary" inkscape:connector-curvature="0" />
	<path style="fill:none;stroke:red;stroke-width:1px;stroke-linecap:butt;stroke-linejoin:miter;stroke-opacity:1" d="M 495.261,684.815 487.363,700.611 z" id="boundary" inkscape:connector-curvature="0" />
	<path style="fill:none;stroke:red;stroke-width:1px;stroke-linecap:butt;stroke-linejoin:miter;stroke-opacity:1" d="M 487.363,700.611 495.261,714.828 z" id="boundary" inkscape:connector-curvature="0" />
	<path style="fill:none;stroke:red;stroke-width:1px;stroke-linecap:butt;stroke-linejoin:miter;stroke-opacity:1" d="M 495.261,730.624 495.261,714.828 z" id="boundary" inkscape:connector-curvature="0" />
	<path style="fill:none;stroke:red;stroke-width:1px;stroke-linecap:butt;stroke-linejoin:miter;stroke-opacity:1" d="M 462.089,752.739 462.089,768.535 z" id="boundary" inkscape:connector-curvature="0" />
	<path style="fill:none;stroke:red;stroke-width:1px;stroke-linecap:butt;stroke-linejoin:miter;stroke-opacity:1" d="M 495.261,762.217 495.261,746.42 z" id="boundary" inkscape:connector-curvature="0" />
	<path style="fill:none;stroke:red;stroke-width:1px;stroke-linecap:butt;stroke-linejoin:miter;stroke-opacity:1" d="M 495.261,778.013 495.261,762.217 z" id="boundary" inkscape:connector-curvature="0" />
	<path style="fill:none;stroke:red;stroke-width:1px;stroke-linecap:butt;stroke-linejoin:miter;stroke-opacity:1" d="M 495.261,730.624 495.261,746.42 z" id="boundary" inkscape:connector-curvature="0" />
	<path style="fill:none;stroke:red;stroke-width:1px;stroke-linecap:butt;stroke-linejoin:miter;stroke-opacity:1" d="M 495.261,669.019 495.261,684.815 z" id="boundary" inkscape:connector-curvature="0" />
	<path style="fill:none;stroke:red;stroke-width:1px;stroke-linecap:butt;stroke-linejoin:miter;stroke-opacity:1" d="M 462.089,768.535 462.089,784.331 z" id="boundary" inkscape:connector-curvature="0" />
	<path style="fill:none;stroke:red;stroke-width:1px;stroke-linecap:butt;stroke-linejoin:miter;stroke-opacity:1" d="M 463.669,800.127 469.987,815.924 z" id="boundary" inkscape:connector-curvature="0" />
	<path style="fill:none;stroke:red;stroke-width:1px;stroke-linecap:butt;stroke-linejoin:miter;stroke-opacity:1" d="M 469.987,815.924 469.987,831.72 z" id="boundary" inkscape:connector-curvature="0" />
	<path style="fill:none;stroke:red;stroke-width:1px;stroke-linecap:butt;stroke-linejoin:miter;stroke-opacity:1" d="M 463.669,800.127 462.089,784.331 z" id="boundary" inkscape:connector-curvature="0" />
	<path style="fill:none;stroke:red;stroke-width:1px;stroke-linecap:butt;stroke-linejoin:miter;stroke-opacity:1" d="M 469.987,831.72 469.987,847.516 z" id="boundary" inkscape:connector-curvature="0" />
	<path style="fill:none;stroke:red;stroke-width:1px;stroke-linecap:butt;stroke-linejoin:miter;stroke-opacity:1" d="M 446.293,893.325 446.293,909.121 z" id="boundary" inkscape:connector-curvature="0" />
	<path style="fill:none;stroke:red;stroke-width:1px;stroke-linecap:butt;stroke-linejoin:miter;stroke-opacity:1" d="M 446.293,893.325 462.089,885.427 z" id="boundary" inkscape:connector-curvature="0" />
	<path style="fill:none;stroke:red;stroke-width:1px;stroke-linecap:butt;stroke-linejoin:miter;stroke-opacity:1" d="M 469.987,924.917 454.191,923.338 z" id="boundary" inkscape:connector-curvature="0" />
	<path style="fill:none;stroke:red;stroke-width:1px;stroke-linecap:butt;stroke-linejoin:miter;stroke-opacity:1" d="M 454.191,923.338 446.293,909.121 z" id="boundary" inkscape:connector-curvature="0" />
	<path style="fill:none;stroke:red;stroke-width:1px;stroke-linecap:butt;stroke-linejoin:miter;stroke-opacity:1" d="M 469.987,863.312 462.089,885.427 z" id="boundary" inkscape:connector-curvature="0" />
	<path style="fill:none;stroke:red;stroke-width:1px;stroke-linecap:butt;stroke-linejoin:miter;stroke-opacity:1" d="M 469.987,847.516 469.987,863.312 z" id="boundary" inkscape:connector-curvature="0" />
	<path style="fill:none;stroke:red;stroke-width:1px;stroke-linecap:butt;stroke-linejoin:miter;stroke-opacity:1" d="M 495.261,793.809 495.261,809.605 z" id="boundary" inkscape:connector-curvature="0" />
	<path style="fill:none;stroke:red;stroke-width:1px;stroke-linecap:butt;stroke-linejoin:miter;stroke-opacity:1" d="M 495.261,825.401 495.261,841.197 z" id="boundary" inkscape:connector-curvature="0" />
	<path style="fill:none;stroke:red;stroke-width:1px;stroke-linecap:butt;stroke-linejoin:miter;stroke-opacity:1" d="M 503.159,855.414 495.261,841.197 z" id="boundary" inkscape:connector-curvature="0" />
	<path style="fill:none;stroke:red;stroke-width:1px;stroke-linecap:butt;stroke-linejoin:miter;stroke-opacity:1" d="M 495.261,825.401 495.261,809.605 z" id="boundary" inkscape:connector-curvature="0" />
	<path style="fill:none;stroke:red;stroke-width:1px;stroke-linecap:butt;stroke-linejoin:miter;stroke-opacity:1" d="M 482.624,912.28 469.987,924.917 z" id="boundary" inkscape:connector-curvature="0" />
	<path style="fill:none;stroke:red;stroke-width:1px;stroke-linecap:butt;stroke-linejoin:miter;stroke-opacity:1" d="M 498.42,904.382 482.624,912.28 z" id="boundary" inkscape:connector-curvature="0" />
	<path style="fill:none;stroke:red;stroke-width:1px;stroke-linecap:butt;stroke-linejoin:miter;stroke-opacity:1" d="M 495.261,793.809 495.261,778.013 z" id="boundary" inkscape:connector-curvature="0" />
	<path style="fill:none;stroke:red;stroke-width:1px;stroke-linecap:butt;stroke-linejoin:miter;stroke-opacity:1" d="M 714.828,670.599 730.624,676.917 z" id="boundary" inkscape:connector-curvature="0" />
	<path style="fill:none;stroke:red;stroke-width:1px;stroke-linecap:butt;stroke-linejoin:miter;stroke-opacity:1" d="M 730.624,676.917 735.363,692.713 z" id="boundary" inkscape:connector-curvature="0" />
	<path style="fill:none;stroke:red;stroke-width:1px;stroke-linecap:butt;stroke-linejoin:miter;stroke-opacity:1" d="M 746.42,705.35 735.363,692.713 z" id="boundary" inkscape:connector-curvature="0" />
	<path style="fill:none;stroke:red;stroke-width:1px;stroke-linecap:butt;stroke-linejoin:miter;stroke-opacity:1" d="M 746.42,705.35 754.318,719.567 z" id="boundary" inkscape:connector-curvature="0" />
	<path style="fill:none;stroke:red;stroke-width:1px;stroke-linecap:butt;stroke-linejoin:miter;stroke-opacity:1" d="M 754.318,719.567 766.955,730.624 z" id="boundary" inkscape:connector-curvature="0" />
	<path style="fill:none;stroke:red;stroke-width:1px;stroke-linecap:butt;stroke-linejoin:miter;stroke-opacity:1" d="M 766.955,730.624 778.013,743.261 z" id="boundary" inkscape:connector-curvature="0" />
	<path style="fill:none;stroke:red;stroke-width:1px;stroke-linecap:butt;stroke-linejoin:miter;stroke-opacity:1" d="M 778.013,743.261 790.65,754.318 z" id="boundary" inkscape:connector-curvature="0" />
	<path style="fill:none;stroke:red;stroke-width:1px;stroke-linecap:butt;stroke-linejoin:miter;stroke-opacity:1" d="M 790.65,754.318 801.707,766.955 z" id="boundary" inkscape:connector-curvature="0" />
	<path style="fill:none;stroke:red;stroke-width:1px;stroke-linecap:butt;stroke-linejoin:miter;stroke-opacity:1" d="M 928.076,687.975 917.019,675.338 z" id="boundary" inkscape:connector-curvature="0" />
	<path style="fill:none;stroke:red;stroke-width:1px;stroke-linecap:butt;stroke-linejoin:miter;stroke-opacity:1" d="M 937.554,700.611 950.191,710.089 z" id="boundary" inkscape:connector-curvature="0" />
	<path style="fill:none;stroke:red;stroke-width:1px;stroke-linecap:butt;stroke-linejoin:miter;stroke-opacity:1" d="M 950.191,710.089 959.669,722.726 z" id="boundary" inkscape:connector-curvature="0" />
	<path style="fill:none;stroke:red;stroke-width:1px;stroke-linecap:butt;stroke-linejoin:miter;stroke-opacity:1" d="M 937.554,700.611 928.076,687.975 z" id="boundary" inkscape:connector-curvature="0" />
	<path style="fill:none;stroke:red;stroke-width:1px;stroke-linecap:butt;stroke-linejoin:miter;stroke-opacity:1" d="M 825.401,790.65 814.344,778.013 z" id="boundary" inkscape:connector-curvature="0" />
	<path style="fill:none;stroke:red;stroke-width:1px;stroke-linecap:butt;stroke-linejoin:miter;stroke-opacity:1" d="M 972.306,732.204 984.943,743.261 z" id="boundary" inkscape:connector-curvature="0" />
	<path style="fill:none;stroke:red;stroke-width:1px;stroke-linecap:butt;stroke-linejoin:miter;stroke-opacity:1" d="M 959.669,722.726 972.306,732.204 z" id="boundary" inkscape:connector-curvature="0" />
	<path style="fill:none;stroke:red;stroke-width:1px;stroke-linecap:butt;stroke-linejoin:miter;stroke-opacity:1" d="M 984.943,743.261 992.841,757.478 z" id="boundary" inkscape:connector-curvature="0" />
	<path style="fill:none;stroke:red;stroke-width:1px;stroke-linecap:butt;stroke-linejoin:miter;stroke-opacity:1" d="M 814.344,778.013 801.707,766.955 z" id="boundary" inkscape:connector-curvature="0" />
	<path style="fill:none;stroke:red;stroke-width:1px;stroke-linecap:butt;stroke-linejoin:miter;stroke-opacity:1" d="M 825.401,790.65 838.038,801.707 z" id="boundary" inkscape:connector-curvature="0" />
	<path style="fill:none;stroke:red;stroke-width:1px;stroke-linecap:butt;stroke-linejoin:miter;stroke-opacity:1" d="M 852.255,809.605 864.892,819.083 z" id="boundary" inkscape:connector-curvature="0" />
	<path style="fill:none;stroke:red;stroke-width:1px;stroke-linecap:butt;stroke-linejoin:miter;stroke-opacity:1" d="M 838.038,801.707 852.255,809.605 z" id="boundary" inkscape:connector-curvature="0" />
	<path style="fill:none;stroke:red;stroke-width:1px;stroke-linecap:butt;stroke-linejoin:miter;stroke-opacity:1" d="M 880.688,819.083 864.892,819.083 z" id="boundary" inkscape:connector-curvature="0" />
	<path style="fill:none;stroke:red;stroke-width:1px;stroke-linecap:butt;stroke-linejoin:miter;stroke-opacity:1" d="M 514.217,898.064 498.42,904.382 z" id="boundary" inkscape:connector-curvature="0" />
	<path style="fill:none;stroke:red;stroke-width:1px;stroke-linecap:butt;stroke-linejoin:miter;stroke-opacity:1" d="M 511.057,869.631 503.159,855.414 z" id="boundary" inkscape:connector-curvature="0" />
	<path style="fill:none;stroke:red;stroke-width:1px;stroke-linecap:butt;stroke-linejoin:miter;stroke-opacity:1" d="M 525.274,877.529 511.057,869.631 z" id="boundary" inkscape:connector-curvature="0" />
	<path style="fill:none;stroke:red;stroke-width:1px;stroke-linecap:butt;stroke-linejoin:miter;stroke-opacity:1" d="M 525.274,877.529 530.013,896.484 z" id="boundary" inkscape:connector-curvature="0" />
	<path style="fill:none;stroke:red;stroke-width:1px;stroke-linecap:butt;stroke-linejoin:miter;stroke-opacity:1" d="M 530.013,896.484 514.217,898.064 z" id="boundary" inkscape:connector-curvature="0" />
	<path style="fill:none;stroke:red;stroke-width:1px;stroke-linecap:butt;stroke-linejoin:miter;stroke-opacity:1" d="M 942.293,811.185 926.497,811.185 z" id="boundary" inkscape:connector-curvature="0" />
	<path style="fill:none;stroke:red;stroke-width:1px;stroke-linecap:butt;stroke-linejoin:miter;stroke-opacity:1" d="M 996,785.911 988.102,801.707 z" id="boundary" inkscape:connector-curvature="0" />
	<path style="fill:none;stroke:red;stroke-width:1px;stroke-linecap:butt;stroke-linejoin:miter;stroke-opacity:1" d="M 988.102,801.707 972.306,803.287 z" id="boundary" inkscape:connector-curvature="0" />
	<path style="fill:none;stroke:red;stroke-width:1px;stroke-linecap:butt;stroke-linejoin:miter;stroke-opacity:1" d="M 896.484,819.083 880.688,819.083 z" id="boundary" inkscape:connector-curvature="0" />
	<path style="fill:none;stroke:red;stroke-width:1px;stroke-linecap:butt;stroke-linejoin:miter;stroke-opacity:1" d="M 958.089,811.185 972.306,803.287 z" id="boundary" inkscape:connector-curvature="0" />
	<path style="fill:none;stroke:red;stroke-width:1px;stroke-linecap:butt;stroke-linejoin:miter;stroke-opacity:1" d="M 942.293,811.185 958.089,811.185 z" id="boundary" inkscape:connector-curvature="0" />
	<path style="fill:none;stroke:red;stroke-width:1px;stroke-linecap:butt;stroke-linejoin:miter;stroke-opacity:1" d="M 912.28,819.083 896.484,819.083 z" id="boundary" inkscape:connector-curvature="0" />
	<path style="fill:none;stroke:red;stroke-width:1px;stroke-linecap:butt;stroke-linejoin:miter;stroke-opacity:1" d="M 926.497,811.185 912.28,819.083 z" id="boundary" inkscape:connector-curvature="0" />
	<path style="fill:none;stroke:red;stroke-width:1px;stroke-linecap:butt;stroke-linejoin:miter;stroke-opacity:1" d="M 992.841,757.478 996,785.911 z" id="boundary" inkscape:connector-curvature="0" />
	<circle cx="4" cy="48.2293" r="4" fill="#0" id="circle0"/>
	<circle cx="13.4777" cy="60.8662" r="4" fill="#0" id="circle1"/>
	<circle cx="16.6369" cy="35.5924" r="4" fill="#0" id="circle2"/>
	<circle cx="27.6943" cy="68.7643" r="4" fill="#0" id="circle3"/>
	<circle cx="32.4331" cy="35.5924" r="4" fill="#0" id="circle4"/>
	<circle cx="41.9108" cy="60.8662" r="4" fill="#0" id="circle5"/>
	<circle cx="45.0701" cy="22.9554" r="4" fill="#0" id="circle6"/>
	<circle cx="56.1274" cy="68.7643" r="4" fill="#0" id="circle7"/>
	<circle cx="60.8662" cy="15.0573" r="4" fill="#0" id="circle8"/>
	<circle cx="71.9236" cy="75.0828" r="4" fill="#0" id="circle9"/>
	<circle cx="75.0828" cy="90.879" r="4" fill="#0" id="circle10"/>
	<circle cx="76.6624" cy="11.8981" r="4" fill="#0" id="circle11"/>
	<circle cx="84.5605" cy="103.516" r="4" fill="#0" id="circle12"/>
	<circle cx="90.879" cy="4" r="4" fill="#0" id="circle13"/>
	<circle cx="90.879" cy="119.312" r="4" fill="#0" id="circle14"/>
	<circle cx="106.675" cy="4" r="4" fill="#0" id="circle15"/>
	<circle cx="106.675" cy="124.051" r="4" fill="#0" id="circle16"/>
	<circle cx="106.675" cy="182.497" r="4" fill="#0" id="circle17"/>
	<circle cx="106.675" cy="198.293" r="4" fill="#0" id="circle18"/>
	<circle cx="111.414" cy="139.847" r="4" fill="#0" id="circle19"/>
	<circle cx="114.573" cy="155.643" r="4" fill="#0" id="circle20"/>
	<circle cx="114.573" cy="212.51" r="4" fill="#0" id="circle21"/>
	<circle cx="122.471" cy="4" r="4" fill="#0" id="circle22"/>
	<circle cx="122.471" cy="226.726" r="4" fill="#0" id="circle23"/>
	<circle cx="122.471" cy="242.522" r="4" fill="#0" id="circle24"/>
	<circle cx="122.471" cy="258.318" r="4" fill="#0" id="circle25"/>
	<circle cx="122.471" cy="274.115" r="4" fill="#0" id="circle26"/>
	<circle cx="130.369" cy="288.331" r="4" fill="#0" id="circle27"/>
	<circle cx="138.268" cy="4" r="4" fill="#0" id="circle28"/>
	<circle cx="139.847" cy="300.968" r="4" fill="#0" id="circle29"/>
	<circle cx="146.166" cy="316.764" r="4" fill="#0" id="circle30"/>
	<circle cx="154.064" cy="7.15924" r="4" fill="#0" id="circle31"/>
	<circle cx="154.064" cy="330.981" r="4" fill="#0" id="circle32"/>
	<circle cx="161.962" cy="345.197" r="4" fill="#0" id="circle33"/>
	<circle cx="161.962" cy="506.318" r="4" fill="#0" id="circle34"/>
	<circle cx="161.962" cy="522.115" r="4" fill="#0" id="circle35"/>
	<circle cx="161.962" cy="537.911" r="4" fill="#0" id="circle36"/>
	<circle cx="161.962" cy="553.707" r="4" fill="#0" id="circle37"/>
	<circle cx="161.962" cy="569.503" r="4" fill="#0" id="circle38"/>
	<circle cx="161.962" cy="585.299" r="4" fill="#0" id="circle39"/>
	<circle cx="161.962" cy="601.096" r="4" fill="#0" id="circle40"/>
	<circle cx="163.541" cy="19.7962" r="4" fill="#0" id="circle41"/>
	<circle cx="169.86" cy="490.522" r="4" fill="#0" id="circle42"/>
	<circle cx="169.86" cy="615.312" r="4" fill="#0" id="circle43"/>
	<circle cx="169.86" cy="631.108" r="4" fill="#0" id="circle44"/>
	<circle cx="169.86" cy="646.904" r="4" fill="#0" id="circle45"/>
	<circle cx="171.439" cy="34.0127" r="4" fill="#0" id="circle46"/>
	<circle cx="171.439" cy="357.834" r="4" fill="#0" id="circle47"/>
	<circle cx="177.758" cy="373.631" r="4" fill="#0" id="circle48"/>
	<circle cx="177.758" cy="389.427" r="4" fill="#0" id="circle49"/>
	<circle cx="177.758" cy="458.93" r="4" fill="#0" id="circle50"/>
	<circle cx="177.758" cy="474.726" r="4" fill="#0" id="circle51"/>
	<circle cx="179.338" cy="48.2293" r="4" fill="#0" id="circle52"/>
	<circle cx="179.338" cy="64.0255" r="4" fill="#0" id="circle53"/>
	<circle cx="179.338" cy="79.8217" r="4" fill="#0" id="circle54"/>
	<circle cx="179.338" cy="95.6178" r="4" fill="#0" id="circle55"/>
	<circle cx="179.338" cy="405.223" r="4" fill="#0" id="circle56"/>
	<circle cx="185.656" cy="111.414" r="4" fill="#0" id="circle57"/>
	<circle cx="185.656" cy="421.019" r="4" fill="#0" id="circle58"/>
	<circle cx="185.656" cy="436.815" r="4" fill="#0" id="circle59"/>
	<circle cx="185.656" cy="653.223" r="4" fill="#0" id="circle60"/>
	<circle cx="187.236" cy="127.21" r="4" fill="#0" id="circle61"/>
	<circle cx="193.554" cy="143.006" r="4" fill="#0" id="circle62"/>
	<circle cx="195.134" cy="158.803" r="4" fill="#0" id="circle63"/>
	<circle cx="195.134" cy="495.261" r="4" fill="#0" id="circle64"/>
	<circle cx="195.134" cy="511.057" r="4" fill="#0" id="circle65"/>
	<circle cx="195.134" cy="526.854" r="4" fill="#0" id="circle66"/>
	<circle cx="195.134" cy="542.65" r="4" fill="#0" id="circle67"/>
	<circle cx="195.134" cy="558.446" r="4" fill="#0" id="circle68"/>
	<circle cx="195.134" cy="574.242" r="4" fill="#0" id="circle69"/>
	<circle cx="198.293" cy="590.038" r="4" fill="#0" id="circle70"/>
	<circle cx="199.873" cy="661.121" r="4" fill="#0" id="circle71"/>
	<circle cx="201.452" cy="174.599" r="4" fill="#0" id="circle72"/>
	<circle cx="203.032" cy="479.465" r="4" fill="#0" id="circle73"/>
	<circle cx="203.032" cy="605.834" r="4" fill="#0" id="circle74"/>
	<circle cx="203.032" cy="621.631" r="4" fill="#0" id="circle75"/>
	<circle cx="203.032" cy="637.427" r="4" fill="#0" id="circle76"/>
	<circle cx="217.248" cy="177.758" r="4" fill="#0" id="circle77"/>
	<circle cx="218.828" cy="482.624" r="4" fill="#0" id="circle78"/>
	<circle cx="225.146" cy="498.42" r="4" fill="#0" id="circle79"/>
	<circle cx="231.465" cy="185.656" r="4" fill="#0" id="circle80"/>
	<circle cx="237.783" cy="509.478" r="4" fill="#0" id="circle81"/>
	<circle cx="245.682" cy="193.554" r="4" fill="#0" id="circle82"/>
	<circle cx="248.841" cy="522.115" r="4" fill="#0" id="circle83"/>
	<circle cx="256.739" cy="536.331" r="4" fill="#0" id="circle84"/>
	<circle cx="261.478" cy="193.554" r="4" fill="#0" id="circle85"/>
	<circle cx="264.637" cy="901.223" r="4" fill="#0" id="circle86"/>
	<circle cx="267.796" cy="548.968" r="4" fill="#0" id="circle87"/>
	<circle cx="274.115" cy="913.86" r="4" fill="#0" id="circle88"/>
	<circle cx="277.274" cy="185.656" r="4" fill="#0" id="circle89"/>
	<circle cx="280.433" cy="558.446" r="4" fill="#0" id="circle90"/>
	<circle cx="280.433" cy="896.484" r="4" fill="#0" id="circle91"/>
	<circle cx="289.911" cy="913.86" r="4" fill="#0" id="circle92"/>
	<circle cx="293.07" cy="185.656" r="4" fill="#0" id="circle93"/>
	<circle cx="294.65" cy="566.344" r="4" fill="#0" id="circle94"/>
	<circle cx="296.229" cy="893.325" r="4" fill="#0" id="circle95"/>
	<circle cx="305.707" cy="913.86" r="4" fill="#0" id="circle96"/>
	<circle cx="308.866" cy="177.758" r="4" fill="#0" id="circle97"/>
	<circle cx="308.866" cy="574.242" r="4" fill="#0" id="circle98"/>
	<circle cx="312.025" cy="888.586" r="4" fill="#0" id="circle99"/>
	<circle cx="319.924" cy="921.758" r="4" fill="#0" id="circle100"/>
	<circle cx="321.503" cy="585.299" r="4" fill="#0" id="circle101"/>
	<circle cx="324.662" cy="177.758" r="4" fill="#0" id="circle102"/>
	<circle cx="327.822" cy="885.427" r="4" fill="#0" id="circle103"/>
	<circle cx="335.72" cy="917.019" r="4" fill="#0" id="circle104"/>
	<circle cx="337.299" cy="590.038" r="4" fill="#0" id="circle105"/>
	<circle cx="340.459" cy="177.758" r="4" fill="#0" id="circle106"/>
	<circle cx="343.618" cy="853.834" r="4" fill="#0" id="circle107"/>
	<circle cx="343.618" cy="869.631" r="4" fill="#0" id="circle108"/>
	<circle cx="348.357" cy="904.382" r="4" fill="#0" id="circle109"/>
	<circle cx="351.516" cy="597.936" r="4" fill="#0" id="circle110"/>
	<circle cx="351.516" cy="822.242" r="4" fill="#0" id="circle111"/>
	<circle cx="351.516" cy="838.038" r="4" fill="#0" id="circle112"/>
	<circle cx="354.675" cy="185.656" r="4" fill="#0" id="circle113"/>
	<circle cx="359.414" cy="806.446" r="4" fill="#0" id="circle114"/>
	<circle cx="364.153" cy="898.064" r="4" fill="#0" id="circle115"/>
	<circle cx="367.312" cy="597.936" r="4" fill="#0" id="circle116"/>
	<circle cx="367.312" cy="774.854" r="4" fill="#0" id="circle117"/>
	<circle cx="367.312" cy="790.65" r="4" fill="#0" id="circle118"/>
	<circle cx="368.892" cy="850.675" r="4" fill="#0" id="circle119"/>
	<circle cx="368.892" cy="866.471" r="4" fill="#0" id="circle120"/>
	<circle cx="370.471" cy="185.656" r="4" fill="#0" id="circle121"/>
	<circle cx="375.21" cy="743.261" r="4" fill="#0" id="circle122"/>
	<circle cx="375.21" cy="759.057" r="4" fill="#0" id="circle123"/>
	<circle cx="376.79" cy="610.573" r="4" fill="#0" id="circle124"/>
	<circle cx="376.79" cy="826.981" r="4" fill="#0" id="circle125"/>
	<circle cx="376.79" cy="880.688" r="4" fill="#0" id="circle126"/>
	<circle cx="379.949" cy="896.484" r="4" fill="#0" id="circle127"/>
	<circle cx="383.108" cy="626.369" r="4" fill="#0" id="circle128"/>
	<circle cx="383.108" cy="642.166" r="4" fill="#0" id="circle129"/>
	<circle cx="383.108" cy="719.567" r="4" fill="#0" id="circle130"/>
	<circle cx="384.688" cy="193.554" r="4" fill="#0" id="circle131"/>
	<circle cx="389.427" cy="815.924" r="4" fill="#0" id="circle132"/>
	<circle cx="391.006" cy="656.382" r="4" fill="#0" id="circle133"/>
	<circle cx="391.006" cy="672.178" r="4" fill="#0" id="circle134"/>
	<circle cx="391.006" cy="687.975" r="4" fill="#0" id="circle135"/>
	<circle cx="391.006" cy="703.771" r="4" fill="#0" id="circle136"/>
	<circle cx="392.586" cy="763.796" r="4" fill="#0" id="circle137"/>
	<circle cx="392.586" cy="779.592" r="4" fill="#0" id="circle138"/>
	<circle cx="392.586" cy="795.389" r="4" fill="#0" id="circle139"/>
	<circle cx="400.484" cy="193.554" r="4" fill="#0" id="circle140"/>
	<circle cx="400.484" cy="740.102" r="4" fill="#0" id="circle141"/>
	<circle cx="408.382" cy="724.306" r="4" fill="#0" id="circle142"/>
	<circle cx="414.701" cy="201.452" r="4" fill="#0" id="circle143"/>
	<circle cx="416.28" cy="692.713" r="4" fill="#0" id="circle144"/>
	<circle cx="416.28" cy="708.51" r="4" fill="#0" id="circle145"/>
	<circle cx="424.178" cy="613.732" r="4" fill="#0" id="circle146"/>
	<circle cx="424.178" cy="629.529" r="4" fill="#0" id="circle147"/>
	<circle cx="424.178" cy="645.325" r="4" fill="#0" id="circle148"/>
	<circle cx="424.178" cy="661.121" r="4" fill="#0" id="circle149"/>
	<circle cx="424.178" cy="676.917" r="4" fill="#0" id="circle150"/>
	<circle cx="430.497" cy="201.452" r="4" fill="#0" id="circle151"/>
	<circle cx="439.975" cy="613.732" r="4" fill="#0" id="circle152"/>
	<circle cx="444.713" cy="209.35" r="4" fill="#0" id="circle153"/>
	<circle cx="446.293" cy="893.325" r="4" fill="#0" id="circle154"/>
	<circle cx="446.293" cy="909.121" r="4" fill="#0" id="circle155"/>
	<circle cx="449.452" cy="626.369" r="4" fill="#0" id="circle156"/>
	<circle cx="454.191" cy="642.166" r="4" fill="#0" id="circle157"/>
	<circle cx="454.191" cy="657.962" r="4" fill="#0" id="circle158"/>
	<circle cx="454.191" cy="673.758" r="4" fill="#0" id="circle159"/>
	<circle cx="454.191" cy="923.338" r="4" fill="#0" id="circle160"/>
	<circle cx="455.771" cy="689.554" r="4" fill="#0" id="circle161"/>
	<circle cx="460.51" cy="210.93" r="4" fill="#0" id="circle162"/>
	<circle cx="462.089" cy="705.35" r="4" fill="#0" id="circle163"/>
	<circle cx="462.089" cy="721.146" r="4" fill="#0" id="circle164"/>
	<circle cx="462.089" cy="736.943" r="4" fill="#0" id="circle165"/>
	<circle cx="462.089" cy="752.739" r="4" fill="#0" id="circle166"/>
	<circle cx="462.089" cy="768.535" r="4" fill="#0" id="circle167"/>
	<circle cx="462.089" cy="784.331" r="4" fill="#0" id="circle168"/>
	<circle cx="462.089" cy="885.427" r="4" fill="#0" id="circle169"/>
	<circle cx="463.669" cy="800.127" r="4" fill="#0" id="circle170"/>
	<circle cx="469.987" cy="815.924" r="4" fill="#0" id="circle171"/>
	<circle cx="469.987" cy="831.72" r="4" fill="#0" id="circle172"/>
	<circle cx="469.987" cy="847.516" r="4" fill="#0" id="circle173"/>
	<circle cx="469.987" cy="863.312" r="4" fill="#0" id="circle174"/>
	<circle cx="469.987" cy="924.917" r="4" fill="#0" id="circle175"/>
	<circle cx="476.306" cy="217.248" r="4" fill="#0" id="circle176"/>
	<circle cx="482.624" cy="912.28" r="4" fill="#0" id="circle177"/>
	<circle cx="487.363" cy="700.611" r="4" fill="#0" id="circle178"/>
	<circle cx="490.522" cy="225.146" r="4" fill="#0" id="circle179"/>
	<circle cx="495.261" cy="605.834" r="4" fill="#0" id="circle180"/>
	<circle cx="495.261" cy="621.631" r="4" fill="#0" id="circle181"/>
	<circle cx="495.261" cy="637.427" r="4" fill="#0" id="circle182"/>
	<circle cx="495.261" cy="653.223" r="4" fill="#0" id="circle183"/>
	<circle cx="495.261" cy="669.019" r="4" fill="#0" id="circle184"/>
	<circle cx="495.261" cy="684.815" r="4" fill="#0" id="circle185"/>
	<circle cx="495.261" cy="714.828" r="4" fill="#0" id="circle186"/>
	<circle cx="495.261" cy="730.624" r="4" fill="#0" id="circle187"/>
	<circle cx="495.261" cy="746.42" r="4" fill="#0" id="circle188"/>
	<circle cx="495.261" cy="762.217" r="4" fill="#0" id="circle189"/>
	<circle cx="495.261" cy="778.013" r="4" fill="#0" id="circle190"/>
	<circle cx="495.261" cy="793.809" r="4" fill="#0" id="circle191"/>
	<circle cx="495.261" cy="809.605" r="4" fill="#0" id="circle192"/>
	<circle cx="495.261" cy="825.401" r="4" fill="#0" id="circle193"/>
	<circle cx="495.261" cy="841.197" r="4" fill="#0" id="circle194"/>
	<circle cx="498.42" cy="904.382" r="4" fill="#0" id="circle195"/>
	<circle cx="503.159" cy="855.414" r="4" fill="#0" id="circle196"/>
	<circle cx="506.318" cy="225.146" r="4" fill="#0" id="circle197"/>
	<circle cx="511.057" cy="605.834" r="4" fill="#0" id="circle198"/>
	<circle cx="511.057" cy="869.631" r="4" fill="#0" id="circle199"/>
	<circle cx="514.217" cy="898.064" r="4" fill="#0" id="circle200"/>
	<circle cx="520.535" cy="233.045" r="4" fill="#0" id="circle201"/>
	<circle cx="525.274" cy="877.529" r="4" fill="#0" id="circle202"/>
	<circle cx="526.854" cy="605.834" r="4" fill="#0" id="circle203"/>
	<circle cx="530.013" cy="896.484" r="4" fill="#0" id="circle204"/>
	<circle cx="534.752" cy="240.943" r="4" fill="#0" id="circle205"/>
	<circle cx="542.65" cy="605.834" r="4" fill="#0" id="circle206"/>
	<circle cx="548.968" cy="248.841" r="4" fill="#0" id="circle207"/>
	<circle cx="558.446" cy="605.834" r="4" fill="#0" id="circle208"/>
	<circle cx="563.185" cy="256.739" r="4" fill="#0" id="circle209"/>
	<circle cx="574.242" cy="605.834" r="4" fill="#0" id="circle210"/>
	<circle cx="577.401" cy="264.637" r="4" fill="#0" id="circle211"/>
	<circle cx="590.038" cy="605.834" r="4" fill="#0" id="circle212"/>
	<circle cx="591.618" cy="272.535" r="4" fill="#0" id="circle213"/>
	<circle cx="604.255" cy="613.732" r="4" fill="#0" id="circle214"/>
	<circle cx="605.834" cy="280.433" r="4" fill="#0" id="circle215"/>
	<circle cx="618.471" cy="621.631" r="4" fill="#0" id="circle216"/>
	<circle cx="620.051" cy="288.331" r="4" fill="#0" id="circle217"/>
	<circle cx="632.688" cy="297.809" r="4" fill="#0" id="circle218"/>
	<circle cx="634.268" cy="621.631" r="4" fill="#0" id="circle219"/>
	<circle cx="645.325" cy="308.866" r="4" fill="#0" id="circle220"/>
	<circle cx="648.484" cy="629.529" r="4" fill="#0" id="circle221"/>
	<circle cx="657.962" cy="319.924" r="4" fill="#0" id="circle222"/>
	<circle cx="662.701" cy="637.427" r="4" fill="#0" id="circle223"/>
	<circle cx="672.178" cy="327.822" r="4" fill="#0" id="circle224"/>
	<circle cx="675.338" cy="646.904" r="4" fill="#0" id="circle225"/>
	<circle cx="686.395" cy="335.72" r="4" fill="#0" id="circle226"/>
	<circle cx="686.395" cy="659.541" r="4" fill="#0" id="circle227"/>
	<circle cx="699.032" cy="346.777" r="4" fill="#0" id="circle228"/>
	<circle cx="702.191" cy="661.121" r="4" fill="#0" id="circle229"/>
	<circle cx="705.35" cy="362.573" r="4" fill="#0" id="circle230"/>
	<circle cx="714.828" cy="670.599" r="4" fill="#0" id="circle231"/>
	<circle cx="716.408" cy="375.21" r="4" fill="#0" id="circle232"/>
	<circle cx="724.306" cy="389.427" r="4" fill="#0" id="circle233"/>
	<circle cx="730.624" cy="676.917" r="4" fill="#0" id="circle234"/>
	<circle cx="735.363" cy="692.713" r="4" fill="#0" id="circle235"/>
	<circle cx="736.943" cy="400.484" r="4" fill="#0" id="circle236"/>
	<circle cx="743.261" cy="416.28" r="4" fill="#0" id="circle237"/>
	<circle cx="746.42" cy="705.35" r="4" fill="#0" id="circle238"/>
	<circle cx="751.159" cy="430.497" r="4" fill="#0" id="circle239"/>
	<circle cx="754.318" cy="719.567" r="4" fill="#0" id="circle240"/>
	<circle cx="755.898" cy="446.293" r="4" fill="#0" id="circle241"/>
	<circle cx="766.955" cy="730.624" r="4" fill="#0" id="circle242"/>
	<circle cx="768.535" cy="455.771" r="4" fill="#0" id="circle243"/>
	<circle cx="774.854" cy="471.567" r="4" fill="#0" id="circle244"/>
	<circle cx="778.013" cy="743.261" r="4" fill="#0" id="circle245"/>
	<circle cx="782.752" cy="485.783" r="4" fill="#0" id="circle246"/>
	<circle cx="787.49" cy="501.58" r="4" fill="#0" id="circle247"/>
	<circle cx="790.65" cy="754.318" r="4" fill="#0" id="circle248"/>
	<circle cx="795.389" cy="515.796" r="4" fill="#0" id="circle249"/>
	<circle cx="801.707" cy="766.955" r="4" fill="#0" id="circle250"/>
	<circle cx="803.287" cy="530.013" r="4" fill="#0" id="circle251"/>
	<circle cx="803.287" cy="545.809" r="4" fill="#0" id="circle252"/>
	<circle cx="811.185" cy="560.025" r="4" fill="#0" id="circle253"/>
	<circle cx="814.344" cy="778.013" r="4" fill="#0" id="circle254"/>
	<circle cx="819.083" cy="574.242" r="4" fill="#0" id="circle255"/>
	<circle cx="825.401" cy="790.65" r="4" fill="#0" id="circle256"/>
	<circle cx="826.981" cy="588.459" r="4" fill="#0" id="circle257"/>
	<circle cx="834.879" cy="602.675" r="4" fill="#0" id="circle258"/>
	<circle cx="838.038" cy="801.707" r="4" fill="#0" id="circle259"/>
	<circle cx="842.777" cy="616.892" r="4" fill="#0" id="circle260"/>
	<circle cx="852.255" cy="809.605" r="4" fill="#0" id="circle261"/>
	<circle cx="856.994" cy="624.79" r="4" fill="#0" id="circle262"/>
	<circle cx="864.892" cy="639.006" r="4" fill="#0" id="circle263"/>
	<circle cx="864.892" cy="819.083" r="4" fill="#0" id="circle264"/>
	<circle cx="874.369" cy="651.643" r="4" fill="#0" id="circle265"/>
	<circle cx="880.688" cy="819.083" r="4" fill="#0" id="circle266"/>
	<circle cx="890.166" cy="656.382" r="4" fill="#0" id="circle267"/>
	<circle cx="896.484" cy="819.083" r="4" fill="#0" id="circle268"/>
	<circle cx="902.803" cy="667.439" r="4" fill="#0" id="circle269"/>
	<circle cx="912.28" cy="819.083" r="4" fill="#0" id="circle270"/>
	<circle cx="917.019" cy="675.338" r="4" fill="#0" id="circle271"/>
	<circle cx="926.497" cy="811.185" r="4" fill="#0" id="circle272"/>
	<circle cx="928.076" cy="687.975" r="4" fill="#0" id="circle273"/>
	<circle cx="937.554" cy="700.611" r="4" fill="#0" id="circle274"/>
	<circle cx="942.293" cy="811.185" r="4" fill="#0" id="circle275"/>
	<circle cx="950.191" cy="710.089" r="4" fill="#0" id="circle276"/>
	<circle cx="958.089" cy="811.185" r="4" fill="#0" id="circle277"/>
	<circle cx="959.669" cy="722.726" r="4" fill="#0" id="circle278"/>
	<circle cx="972.306" cy="732.204" r="4" fill="#0" id="circle279"/>
	<circle cx="972.306" cy="803.287" r="4" fill="#0" id="circle280"/>
	<circle cx="984.943" cy="743.261" r="4" fill="#0" id="circle281"/>
	<circle cx="988.102" cy="801.707" r="4" fill="#0" id="circle282"/>
	<circle cx="992.841" cy="757.478" r="4" fill="#0" id="circle283"/>
	<circle cx="996" cy="785.911" r="4" fill="#0" id="circle284"/>
	</g>
</svg>