<?xml version="1.0" encoding="UTF-8" standalone="no"?>
<!-- Created with CurveBenchmark -->
<svg
	xmlns:dc="http://purl.org/dc/elements/1.1/"
	xmlns:cc="http://creativecommons.org/ns#"
	xmlns:rdf="http://www.w3.org/1999/02/22-rdf-syntax-ns#"
	xmlns:svg="http://www.w3.org/2000/svg"
	xmlns="http://www.w3.org/2000/svg"
	xmlns:sodipodi="http://sodipodi.sourceforge.net/DTD/sodipodi-0.dtd"
	xmlns:inkscape="http://www.inkscape.org/namespaces/inkscape"
	width="1000"
	height="1000"
	id="svg2"
	version="1.1"
	sodipodi:docname="manifold/gathan1-brick03.png.txt">
<defs
	id="defs4" />
<metadata
	id="metadata7">
	<rdf:RDF>
		<cc:Work
			rdf:about="">
			<dc:format>image/svg+xml</dc:format>
			<dc:type
				rdf:resource="http://purl.org/dc/dcmitype/StillImage" />
			<dc:title></dc:title>
		</cc:Work>
	</rdf:RDF>
</metadata>
<g
	inkscape:label="Layer 1"
	inkscape:groupmode="layer"
	id="layer1">
	<path style="fill:none;stroke:red;stroke-width:1px;stroke-linecap:butt;stroke-linejoin:miter;stroke-opacity:1" d="M 89.6814,66.833 89.6814,85.8733 z" id="boundary" inkscape:connector-curvature="0" />
	<path style="fill:none;stroke:red;stroke-width:1px;stroke-linecap:butt;stroke-linejoin:miter;stroke-opacity:1" d="M 89.6814,66.833 99.2015,47.7927 z" id="boundary" inkscape:connector-curvature="0" />
	<path style="fill:none;stroke:red;stroke-width:1px;stroke-linecap:butt;stroke-linejoin:miter;stroke-opacity:1" d="M 99.2015,47.7927 108.722,28.7524 z" id="boundary" inkscape:connector-curvature="0" />
	<path style="fill:none;stroke:red;stroke-width:1px;stroke-linecap:butt;stroke-linejoin:miter;stroke-opacity:1" d="M 108.722,28.7524 127.762,19.2322 z" id="boundary" inkscape:connector-curvature="0" />
	<path style="fill:none;stroke:red;stroke-width:1px;stroke-linecap:butt;stroke-linejoin:miter;stroke-opacity:1" d="M 165.843,4 184.883,4 z" id="boundary" inkscape:connector-curvature="0" />
	<path style="fill:none;stroke:red;stroke-width:1px;stroke-linecap:butt;stroke-linejoin:miter;stroke-opacity:1" d="M 146.802,9.71209 165.843,4 z" id="boundary" inkscape:connector-curvature="0" />
	<path style="fill:none;stroke:red;stroke-width:1px;stroke-linecap:butt;stroke-linejoin:miter;stroke-opacity:1" d="M 127.762,19.2322 146.802,9.71209 z" id="boundary" inkscape:connector-curvature="0" />
	<path style="fill:none;stroke:red;stroke-width:1px;stroke-linecap:butt;stroke-linejoin:miter;stroke-opacity:1" d="M 89.6814,104.914 89.6814,85.8733 z" id="boundary" inkscape:connector-curvature="0" />
	<path style="fill:none;stroke:red;stroke-width:1px;stroke-linecap:butt;stroke-linejoin:miter;stroke-opacity:1" d="M 43.9846,198.211 63.025,188.691 z" id="boundary" inkscape:connector-curvature="0" />
	<path style="fill:none;stroke:red;stroke-width:1px;stroke-linecap:butt;stroke-linejoin:miter;stroke-opacity:1" d="M 28.7524,213.443 43.9846,198.211 z" id="boundary" inkscape:connector-curvature="0" />
	<path style="fill:none;stroke:red;stroke-width:1px;stroke-linecap:butt;stroke-linejoin:miter;stroke-opacity:1" d="M 13.5202,228.676 28.7524,213.443 z" id="boundary" inkscape:connector-curvature="0" />
	<path style="fill:none;stroke:red;stroke-width:1px;stroke-linecap:butt;stroke-linejoin:miter;stroke-opacity:1" d="M 89.6814,123.954 89.6814,142.994 z" id="boundary" inkscape:connector-curvature="0" />
	<path style="fill:none;stroke:red;stroke-width:1px;stroke-linecap:butt;stroke-linejoin:miter;stroke-opacity:1" d="M 89.6814,123.954 89.6814,104.914 z" id="boundary" inkscape:connector-curvature="0" />
	<path style="fill:none;stroke:red;stroke-width:1px;stroke-linecap:butt;stroke-linejoin:miter;stroke-opacity:1" d="M 78.2572,175.363 89.6814,142.994 z" id="boundary" inkscape:connector-curvature="0" />
	<path style="fill:none;stroke:red;stroke-width:1px;stroke-linecap:butt;stroke-linejoin:miter;stroke-opacity:1" d="M 78.2572,175.363 63.025,188.691 z" id="boundary" inkscape:connector-curvature="0" />
	<path style="fill:none;stroke:red;stroke-width:1px;stroke-linecap:butt;stroke-linejoin:miter;stroke-opacity:1" d="M 13.5202,228.676 4,247.716 z" id="boundary" inkscape:connector-curvature="0" />
	<path style="fill:none;stroke:red;stroke-width:1px;stroke-linecap:butt;stroke-linejoin:miter;stroke-opacity:1" d="M 203.923,4 222.964,7.80806 z" id="boundary" inkscape:connector-curvature="0" />
	<path style="fill:none;stroke:red;stroke-width:1px;stroke-linecap:butt;stroke-linejoin:miter;stroke-opacity:1" d="M 222.964,7.80806 240.1,17.3282 z" id="boundary" inkscape:connector-curvature="0" />
	<path style="fill:none;stroke:red;stroke-width:1px;stroke-linecap:butt;stroke-linejoin:miter;stroke-opacity:1" d="M 240.1,17.3282 259.14,24.9443 z" id="boundary" inkscape:connector-curvature="0" />
	<path style="fill:none;stroke:red;stroke-width:1px;stroke-linecap:butt;stroke-linejoin:miter;stroke-opacity:1" d="M 259.14,24.9443 276.276,34.4645 z" id="boundary" inkscape:connector-curvature="0" />
	<path style="fill:none;stroke:red;stroke-width:1px;stroke-linecap:butt;stroke-linejoin:miter;stroke-opacity:1" d="M 295.317,42.0806 312.453,51.6008 z" id="boundary" inkscape:connector-curvature="0" />
	<path style="fill:none;stroke:red;stroke-width:1px;stroke-linecap:butt;stroke-linejoin:miter;stroke-opacity:1" d="M 295.317,42.0806 276.276,34.4645 z" id="boundary" inkscape:connector-curvature="0" />
	<path style="fill:none;stroke:red;stroke-width:1px;stroke-linecap:butt;stroke-linejoin:miter;stroke-opacity:1" d="M 312.453,51.6008 329.589,61.1209 z" id="boundary" inkscape:connector-curvature="0" />
	<path style="fill:none;stroke:red;stroke-width:1px;stroke-linecap:butt;stroke-linejoin:miter;stroke-opacity:1" d="M 348.63,66.833 329.589,61.1209 z" id="boundary" inkscape:connector-curvature="0" />
	<path style="fill:none;stroke:red;stroke-width:1px;stroke-linecap:butt;stroke-linejoin:miter;stroke-opacity:1" d="M 184.883,4 203.923,4 z" id="boundary" inkscape:connector-curvature="0" />
	<path style="fill:none;stroke:red;stroke-width:1px;stroke-linecap:butt;stroke-linejoin:miter;stroke-opacity:1" d="M 348.63,66.833 365.766,76.3532 z" id="boundary" inkscape:connector-curvature="0" />
	<path style="fill:none;stroke:red;stroke-width:1px;stroke-linecap:butt;stroke-linejoin:miter;stroke-opacity:1" d="M 384.806,80.1612 365.766,76.3532 z" id="boundary" inkscape:connector-curvature="0" />
	<path style="fill:none;stroke:red;stroke-width:1px;stroke-linecap:butt;stroke-linejoin:miter;stroke-opacity:1" d="M 384.806,80.1612 403.846,83.9693 z" id="boundary" inkscape:connector-curvature="0" />
	<path style="fill:none;stroke:red;stroke-width:1px;stroke-linecap:butt;stroke-linejoin:miter;stroke-opacity:1" d="M 441.927,89.6814 422.887,89.6814 z" id="boundary" inkscape:connector-curvature="0" />
	<path style="fill:none;stroke:red;stroke-width:1px;stroke-linecap:butt;stroke-linejoin:miter;stroke-opacity:1" d="M 422.887,89.6814 403.846,83.9693 z" id="boundary" inkscape:connector-curvature="0" />
	<path style="fill:none;stroke:red;stroke-width:1px;stroke-linecap:butt;stroke-linejoin:miter;stroke-opacity:1" d="M 518.088,80.1612 499.048,85.8733 z" id="boundary" inkscape:connector-curvature="0" />
	<path style="fill:none;stroke:red;stroke-width:1px;stroke-linecap:butt;stroke-linejoin:miter;stroke-opacity:1" d="M 460.967,89.6814 441.927,89.6814 z" id="boundary" inkscape:connector-curvature="0" />
	<path style="fill:none;stroke:red;stroke-width:1px;stroke-linecap:butt;stroke-linejoin:miter;stroke-opacity:1" d="M 480.008,89.6814 460.967,89.6814 z" id="boundary" inkscape:connector-curvature="0" />
	<path style="fill:none;stroke:red;stroke-width:1px;stroke-linecap:butt;stroke-linejoin:miter;stroke-opacity:1" d="M 499.048,85.8733 480.008,89.6814 z" id="boundary" inkscape:connector-curvature="0" />
	<path style="fill:none;stroke:red;stroke-width:1px;stroke-linecap:butt;stroke-linejoin:miter;stroke-opacity:1" d="M 4,266.756 4,247.716 z" id="boundary" inkscape:connector-curvature="0" />
	<path style="fill:none;stroke:red;stroke-width:1px;stroke-linecap:butt;stroke-linejoin:miter;stroke-opacity:1" d="M 4,304.837 4,285.797 z" id="boundary" inkscape:connector-curvature="0" />
	<path style="fill:none;stroke:red;stroke-width:1px;stroke-linecap:butt;stroke-linejoin:miter;stroke-opacity:1" d="M 4,285.797 4,266.756 z" id="boundary" inkscape:connector-curvature="0" />
	<path style="fill:none;stroke:red;stroke-width:1px;stroke-linecap:butt;stroke-linejoin:miter;stroke-opacity:1" d="M 4,342.917 4,323.877 z" id="boundary" inkscape:connector-curvature="0" />
	<path style="fill:none;stroke:red;stroke-width:1px;stroke-linecap:butt;stroke-linejoin:miter;stroke-opacity:1" d="M 87.7774,358.15 106.818,358.15 z" id="boundary" inkscape:connector-curvature="0" />
	<path style="fill:none;stroke:red;stroke-width:1px;stroke-linecap:butt;stroke-linejoin:miter;stroke-opacity:1" d="M 70.6411,367.67 87.7774,358.15 z" id="boundary" inkscape:connector-curvature="0" />
	<path style="fill:none;stroke:red;stroke-width:1px;stroke-linecap:butt;stroke-linejoin:miter;stroke-opacity:1" d="M 4,323.877 4,304.837 z" id="boundary" inkscape:connector-curvature="0" />
	<path style="fill:none;stroke:red;stroke-width:1px;stroke-linecap:butt;stroke-linejoin:miter;stroke-opacity:1" d="M 13.5202,360.054 4,342.917 z" id="boundary" inkscape:connector-curvature="0" />
	<path style="fill:none;stroke:red;stroke-width:1px;stroke-linecap:butt;stroke-linejoin:miter;stroke-opacity:1" d="M 32.5605,367.67 13.5202,360.054 z" id="boundary" inkscape:connector-curvature="0" />
	<path style="fill:none;stroke:red;stroke-width:1px;stroke-linecap:butt;stroke-linejoin:miter;stroke-opacity:1" d="M 51.6008,367.67 70.6411,367.67 z" id="boundary" inkscape:connector-curvature="0" />
	<path style="fill:none;stroke:red;stroke-width:1px;stroke-linecap:butt;stroke-linejoin:miter;stroke-opacity:1" d="M 51.6008,367.67 32.5605,367.67 z" id="boundary" inkscape:connector-curvature="0" />
	<path style="fill:none;stroke:red;stroke-width:1px;stroke-linecap:butt;stroke-linejoin:miter;stroke-opacity:1" d="M 125.858,358.15 106.818,358.15 z" id="boundary" inkscape:connector-curvature="0" />
	<path style="fill:none;stroke:red;stroke-width:1px;stroke-linecap:butt;stroke-linejoin:miter;stroke-opacity:1" d="M 144.898,358.15 163.939,358.15 z" id="boundary" inkscape:connector-curvature="0" />
	<path style="fill:none;stroke:red;stroke-width:1px;stroke-linecap:butt;stroke-linejoin:miter;stroke-opacity:1" d="M 144.898,358.15 125.858,358.15 z" id="boundary" inkscape:connector-curvature="0" />
	<path style="fill:none;stroke:red;stroke-width:1px;stroke-linecap:butt;stroke-linejoin:miter;stroke-opacity:1" d="M 163.939,358.15 182.979,358.15 z" id="boundary" inkscape:connector-curvature="0" />
	<path style="fill:none;stroke:red;stroke-width:1px;stroke-linecap:butt;stroke-linejoin:miter;stroke-opacity:1" d="M 182.979,358.15 200.115,367.67 z" id="boundary" inkscape:connector-curvature="0" />
	<path style="fill:none;stroke:red;stroke-width:1px;stroke-linecap:butt;stroke-linejoin:miter;stroke-opacity:1" d="M 200.115,367.67 219.155,367.67 z" id="boundary" inkscape:connector-curvature="0" />
	<path style="fill:none;stroke:red;stroke-width:1px;stroke-linecap:butt;stroke-linejoin:miter;stroke-opacity:1" d="M 236.292,377.19 245.812,394.326 z" id="boundary" inkscape:connector-curvature="0" />
	<path style="fill:none;stroke:red;stroke-width:1px;stroke-linecap:butt;stroke-linejoin:miter;stroke-opacity:1" d="M 219.155,367.67 236.292,377.19 z" id="boundary" inkscape:connector-curvature="0" />
	<path style="fill:none;stroke:red;stroke-width:1px;stroke-linecap:butt;stroke-linejoin:miter;stroke-opacity:1" d="M 261.044,405.75 245.812,394.326 z" id="boundary" inkscape:connector-curvature="0" />
	<path style="fill:none;stroke:red;stroke-width:1px;stroke-linecap:butt;stroke-linejoin:miter;stroke-opacity:1" d="M 261.044,405.75 278.18,415.271 z" id="boundary" inkscape:connector-curvature="0" />
	<path style="fill:none;stroke:red;stroke-width:1px;stroke-linecap:butt;stroke-linejoin:miter;stroke-opacity:1" d="M 278.18,415.271 291.509,430.503 z" id="boundary" inkscape:connector-curvature="0" />
	<path style="fill:none;stroke:red;stroke-width:1px;stroke-linecap:butt;stroke-linejoin:miter;stroke-opacity:1" d="M 405.75,424.791 424.791,424.791 z" id="boundary" inkscape:connector-curvature="0" />
	<path style="fill:none;stroke:red;stroke-width:1px;stroke-linecap:butt;stroke-linejoin:miter;stroke-opacity:1" d="M 386.71,434.311 405.75,424.791 z" id="boundary" inkscape:connector-curvature="0" />
	<path style="fill:none;stroke:red;stroke-width:1px;stroke-linecap:butt;stroke-linejoin:miter;stroke-opacity:1" d="M 310.549,434.311 291.509,430.503 z" id="boundary" inkscape:connector-curvature="0" />
	<path style="fill:none;stroke:red;stroke-width:1px;stroke-linecap:butt;stroke-linejoin:miter;stroke-opacity:1" d="M 329.589,434.311 348.63,434.311 z" id="boundary" inkscape:connector-curvature="0" />
	<path style="fill:none;stroke:red;stroke-width:1px;stroke-linecap:butt;stroke-linejoin:miter;stroke-opacity:1" d="M 329.589,434.311 310.549,434.311 z" id="boundary" inkscape:connector-curvature="0" />
	<path style="fill:none;stroke:red;stroke-width:1px;stroke-linecap:butt;stroke-linejoin:miter;stroke-opacity:1" d="M 443.831,424.791 462.871,424.791 z" id="boundary" inkscape:connector-curvature="0" />
	<path style="fill:none;stroke:red;stroke-width:1px;stroke-linecap:butt;stroke-linejoin:miter;stroke-opacity:1" d="M 443.831,424.791 424.791,424.791 z" id="boundary" inkscape:connector-curvature="0" />
	<path style="fill:none;stroke:red;stroke-width:1px;stroke-linecap:butt;stroke-linejoin:miter;stroke-opacity:1" d="M 386.71,434.311 367.67,434.311 z" id="boundary" inkscape:connector-curvature="0" />
	<path style="fill:none;stroke:red;stroke-width:1px;stroke-linecap:butt;stroke-linejoin:miter;stroke-opacity:1" d="M 462.871,424.791 481.912,424.791 z" id="boundary" inkscape:connector-curvature="0" />
	<path style="fill:none;stroke:red;stroke-width:1px;stroke-linecap:butt;stroke-linejoin:miter;stroke-opacity:1" d="M 367.67,434.311 348.63,434.311 z" id="boundary" inkscape:connector-curvature="0" />
	<path style="fill:none;stroke:red;stroke-width:1px;stroke-linecap:butt;stroke-linejoin:miter;stroke-opacity:1" d="M 499.048,415.271 481.912,424.791 z" id="boundary" inkscape:connector-curvature="0" />
	<path style="fill:none;stroke:red;stroke-width:1px;stroke-linecap:butt;stroke-linejoin:miter;stroke-opacity:1" d="M 609.482,51.6008 628.522,51.6008 z" id="boundary" inkscape:connector-curvature="0" />
	<path style="fill:none;stroke:red;stroke-width:1px;stroke-linecap:butt;stroke-linejoin:miter;stroke-opacity:1" d="M 590.441,61.1209 609.482,51.6008 z" id="boundary" inkscape:connector-curvature="0" />
	<path style="fill:none;stroke:red;stroke-width:1px;stroke-linecap:butt;stroke-linejoin:miter;stroke-opacity:1" d="M 571.401,61.1209 590.441,61.1209 z" id="boundary" inkscape:connector-curvature="0" />
	<path style="fill:none;stroke:red;stroke-width:1px;stroke-linecap:butt;stroke-linejoin:miter;stroke-opacity:1" d="M 554.265,70.6411 571.401,61.1209 z" id="boundary" inkscape:connector-curvature="0" />
	<path style="fill:none;stroke:red;stroke-width:1px;stroke-linecap:butt;stroke-linejoin:miter;stroke-opacity:1" d="M 628.522,51.6008 647.562,51.6008 z" id="boundary" inkscape:connector-curvature="0" />
	<path style="fill:none;stroke:red;stroke-width:1px;stroke-linecap:butt;stroke-linejoin:miter;stroke-opacity:1" d="M 666.603,51.6008 647.562,51.6008 z" id="boundary" inkscape:connector-curvature="0" />
	<path style="fill:none;stroke:red;stroke-width:1px;stroke-linecap:butt;stroke-linejoin:miter;stroke-opacity:1" d="M 666.603,51.6008 685.643,51.6008 z" id="boundary" inkscape:connector-curvature="0" />
	<path style="fill:none;stroke:red;stroke-width:1px;stroke-linecap:butt;stroke-linejoin:miter;stroke-opacity:1" d="M 704.683,51.6008 685.643,51.6008 z" id="boundary" inkscape:connector-curvature="0" />
	<path style="fill:none;stroke:red;stroke-width:1px;stroke-linecap:butt;stroke-linejoin:miter;stroke-opacity:1" d="M 704.683,51.6008 721.82,61.1209 z" id="boundary" inkscape:connector-curvature="0" />
	<path style="fill:none;stroke:red;stroke-width:1px;stroke-linecap:butt;stroke-linejoin:miter;stroke-opacity:1" d="M 537.129,80.1612 554.265,70.6411 z" id="boundary" inkscape:connector-curvature="0" />
	<path style="fill:none;stroke:red;stroke-width:1px;stroke-linecap:butt;stroke-linejoin:miter;stroke-opacity:1" d="M 721.82,61.1209 738.956,70.6411 z" id="boundary" inkscape:connector-curvature="0" />
	<path style="fill:none;stroke:red;stroke-width:1px;stroke-linecap:butt;stroke-linejoin:miter;stroke-opacity:1" d="M 537.129,80.1612 518.088,80.1612 z" id="boundary" inkscape:connector-curvature="0" />
	<path style="fill:none;stroke:red;stroke-width:1px;stroke-linecap:butt;stroke-linejoin:miter;stroke-opacity:1" d="M 738.956,70.6411 756.092,80.1612 z" id="boundary" inkscape:connector-curvature="0" />
	<path style="fill:none;stroke:red;stroke-width:1px;stroke-linecap:butt;stroke-linejoin:miter;stroke-opacity:1" d="M 756.092,80.1612 773.228,89.6814 z" id="boundary" inkscape:connector-curvature="0" />
	<path style="fill:none;stroke:red;stroke-width:1px;stroke-linecap:butt;stroke-linejoin:miter;stroke-opacity:1" d="M 790.365,99.2015 773.228,89.6814 z" id="boundary" inkscape:connector-curvature="0" />
	<path style="fill:none;stroke:red;stroke-width:1px;stroke-linecap:butt;stroke-linejoin:miter;stroke-opacity:1" d="M 807.501,108.722 826.541,108.722 z" id="boundary" inkscape:connector-curvature="0" />
	<path style="fill:none;stroke:red;stroke-width:1px;stroke-linecap:butt;stroke-linejoin:miter;stroke-opacity:1" d="M 807.501,108.722 790.365,99.2015 z" id="boundary" inkscape:connector-curvature="0" />
	<path style="fill:none;stroke:red;stroke-width:1px;stroke-linecap:butt;stroke-linejoin:miter;stroke-opacity:1" d="M 845.582,108.722 864.622,108.722 z" id="boundary" inkscape:connector-curvature="0" />
	<path style="fill:none;stroke:red;stroke-width:1px;stroke-linecap:butt;stroke-linejoin:miter;stroke-opacity:1" d="M 845.582,108.722 826.541,108.722 z" id="boundary" inkscape:connector-curvature="0" />
	<path style="fill:none;stroke:red;stroke-width:1px;stroke-linecap:butt;stroke-linejoin:miter;stroke-opacity:1" d="M 883.662,108.722 902.702,108.722 z" id="boundary" inkscape:connector-curvature="0" />
	<path style="fill:none;stroke:red;stroke-width:1px;stroke-linecap:butt;stroke-linejoin:miter;stroke-opacity:1" d="M 921.743,108.722 940.783,108.722 z" id="boundary" inkscape:connector-curvature="0" />
	<path style="fill:none;stroke:red;stroke-width:1px;stroke-linecap:butt;stroke-linejoin:miter;stroke-opacity:1" d="M 921.743,108.722 902.702,108.722 z" id="boundary" inkscape:connector-curvature="0" />
	<path style="fill:none;stroke:red;stroke-width:1px;stroke-linecap:butt;stroke-linejoin:miter;stroke-opacity:1" d="M 883.662,108.722 864.622,108.722 z" id="boundary" inkscape:connector-curvature="0" />
	<path style="fill:none;stroke:red;stroke-width:1px;stroke-linecap:butt;stroke-linejoin:miter;stroke-opacity:1" d="M 996,186.787 996,205.827 z" id="boundary" inkscape:connector-curvature="0" />
	<path style="fill:none;stroke:red;stroke-width:1px;stroke-linecap:butt;stroke-linejoin:miter;stroke-opacity:1" d="M 976.96,118.242 992.192,129.666 z" id="boundary" inkscape:connector-curvature="0" />
	<path style="fill:none;stroke:red;stroke-width:1px;stroke-linecap:butt;stroke-linejoin:miter;stroke-opacity:1" d="M 992.192,129.666 996,148.706 z" id="boundary" inkscape:connector-curvature="0" />
	<path style="fill:none;stroke:red;stroke-width:1px;stroke-linecap:butt;stroke-linejoin:miter;stroke-opacity:1" d="M 959.823,108.722 976.96,118.242 z" id="boundary" inkscape:connector-curvature="0" />
	<path style="fill:none;stroke:red;stroke-width:1px;stroke-linecap:butt;stroke-linejoin:miter;stroke-opacity:1" d="M 940.783,108.722 959.823,108.722 z" id="boundary" inkscape:connector-curvature="0" />
	<path style="fill:none;stroke:red;stroke-width:1px;stroke-linecap:butt;stroke-linejoin:miter;stroke-opacity:1" d="M 996,167.747 996,186.787 z" id="boundary" inkscape:connector-curvature="0" />
	<path style="fill:none;stroke:red;stroke-width:1px;stroke-linecap:butt;stroke-linejoin:miter;stroke-opacity:1" d="M 996,205.827 992.192,240.1 z" id="boundary" inkscape:connector-curvature="0" />
	<path style="fill:none;stroke:red;stroke-width:1px;stroke-linecap:butt;stroke-linejoin:miter;stroke-opacity:1" d="M 992.192,240.1 976.96,253.428 z" id="boundary" inkscape:connector-curvature="0" />
	<path style="fill:none;stroke:red;stroke-width:1px;stroke-linecap:butt;stroke-linejoin:miter;stroke-opacity:1" d="M 996,148.706 996,167.747 z" id="boundary" inkscape:connector-curvature="0" />
	<path style="fill:none;stroke:red;stroke-width:1px;stroke-linecap:butt;stroke-linejoin:miter;stroke-opacity:1" d="M 967.44,272.468 976.96,253.428 z" id="boundary" inkscape:connector-curvature="0" />
	<path style="fill:none;stroke:red;stroke-width:1px;stroke-linecap:butt;stroke-linejoin:miter;stroke-opacity:1" d="M 575.209,396.23 594.25,396.23 z" id="boundary" inkscape:connector-curvature="0" />
	<path style="fill:none;stroke:red;stroke-width:1px;stroke-linecap:butt;stroke-linejoin:miter;stroke-opacity:1" d="M 556.169,400.038 575.209,396.23 z" id="boundary" inkscape:connector-curvature="0" />
	<path style="fill:none;stroke:red;stroke-width:1px;stroke-linecap:butt;stroke-linejoin:miter;stroke-opacity:1" d="M 537.129,405.75 556.169,400.038 z" id="boundary" inkscape:connector-curvature="0" />
	<path style="fill:none;stroke:red;stroke-width:1px;stroke-linecap:butt;stroke-linejoin:miter;stroke-opacity:1" d="M 537.129,405.75 518.088,409.559 z" id="boundary" inkscape:connector-curvature="0" />
	<path style="fill:none;stroke:red;stroke-width:1px;stroke-linecap:butt;stroke-linejoin:miter;stroke-opacity:1" d="M 594.25,396.23 613.29,396.23 z" id="boundary" inkscape:connector-curvature="0" />
	<path style="fill:none;stroke:red;stroke-width:1px;stroke-linecap:butt;stroke-linejoin:miter;stroke-opacity:1" d="M 632.33,396.23 613.29,396.23 z" id="boundary" inkscape:connector-curvature="0" />
	<path style="fill:none;stroke:red;stroke-width:1px;stroke-linecap:butt;stroke-linejoin:miter;stroke-opacity:1" d="M 632.33,396.23 651.37,396.23 z" id="boundary" inkscape:connector-curvature="0" />
	<path style="fill:none;stroke:red;stroke-width:1px;stroke-linecap:butt;stroke-linejoin:miter;stroke-opacity:1" d="M 670.411,396.23 651.37,396.23 z" id="boundary" inkscape:connector-curvature="0" />
	<path style="fill:none;stroke:red;stroke-width:1px;stroke-linecap:butt;stroke-linejoin:miter;stroke-opacity:1" d="M 670.411,396.23 687.547,405.75 z" id="boundary" inkscape:connector-curvature="0" />
	<path style="fill:none;stroke:red;stroke-width:1px;stroke-linecap:butt;stroke-linejoin:miter;stroke-opacity:1" d="M 687.547,405.75 704.683,415.271 z" id="boundary" inkscape:connector-curvature="0" />
	<path style="fill:none;stroke:red;stroke-width:1px;stroke-linecap:butt;stroke-linejoin:miter;stroke-opacity:1" d="M 723.724,422.887 704.683,415.271 z" id="boundary" inkscape:connector-curvature="0" />
	<path style="fill:none;stroke:red;stroke-width:1px;stroke-linecap:butt;stroke-linejoin:miter;stroke-opacity:1" d="M 518.088,409.559 499.048,415.271 z" id="boundary" inkscape:connector-curvature="0" />
	<path style="fill:none;stroke:red;stroke-width:1px;stroke-linecap:butt;stroke-linejoin:miter;stroke-opacity:1" d="M 723.724,422.887 740.86,432.407 z" id="boundary" inkscape:connector-curvature="0" />
	<path style="fill:none;stroke:red;stroke-width:1px;stroke-linecap:butt;stroke-linejoin:miter;stroke-opacity:1" d="M 740.86,432.407 756.092,443.831 z" id="boundary" inkscape:connector-curvature="0" />
	<path style="fill:none;stroke:red;stroke-width:1px;stroke-linecap:butt;stroke-linejoin:miter;stroke-opacity:1" d="M 756.092,443.831 773.228,453.351 z" id="boundary" inkscape:connector-curvature="0" />
	<path style="fill:none;stroke:red;stroke-width:1px;stroke-linecap:butt;stroke-linejoin:miter;stroke-opacity:1" d="M 790.365,462.871 773.228,453.351 z" id="boundary" inkscape:connector-curvature="0" />
	<path style="fill:none;stroke:red;stroke-width:1px;stroke-linecap:butt;stroke-linejoin:miter;stroke-opacity:1" d="M 790.365,462.871 807.501,472.392 z" id="boundary" inkscape:connector-curvature="0" />
	<path style="fill:none;stroke:red;stroke-width:1px;stroke-linecap:butt;stroke-linejoin:miter;stroke-opacity:1" d="M 910.319,329.589 919.839,310.549 z" id="boundary" inkscape:connector-curvature="0" />
	<path style="fill:none;stroke:red;stroke-width:1px;stroke-linecap:butt;stroke-linejoin:miter;stroke-opacity:1" d="M 910.319,348.63 910.319,329.589 z" id="boundary" inkscape:connector-curvature="0" />
	<path style="fill:none;stroke:red;stroke-width:1px;stroke-linecap:butt;stroke-linejoin:miter;stroke-opacity:1" d="M 919.839,384.806 910.319,367.67 z" id="boundary" inkscape:connector-curvature="0" />
	<path style="fill:none;stroke:red;stroke-width:1px;stroke-linecap:butt;stroke-linejoin:miter;stroke-opacity:1" d="M 910.319,367.67 910.319,348.63 z" id="boundary" inkscape:connector-curvature="0" />
	<path style="fill:none;stroke:red;stroke-width:1px;stroke-linecap:butt;stroke-linejoin:miter;stroke-opacity:1" d="M 948.399,281.988 967.44,272.468 z" id="boundary" inkscape:connector-curvature="0" />
	<path style="fill:none;stroke:red;stroke-width:1px;stroke-linecap:butt;stroke-linejoin:miter;stroke-opacity:1" d="M 948.399,281.988 929.359,291.509 z" id="boundary" inkscape:connector-curvature="0" />
	<path style="fill:none;stroke:red;stroke-width:1px;stroke-linecap:butt;stroke-linejoin:miter;stroke-opacity:1" d="M 919.839,310.549 929.359,291.509 z" id="boundary" inkscape:connector-curvature="0" />
	<path style="fill:none;stroke:red;stroke-width:1px;stroke-linecap:butt;stroke-linejoin:miter;stroke-opacity:1" d="M 929.359,401.942 919.839,384.806 z" id="boundary" inkscape:connector-curvature="0" />
	<path style="fill:none;stroke:red;stroke-width:1px;stroke-linecap:butt;stroke-linejoin:miter;stroke-opacity:1" d="M 826.541,472.392 807.501,472.392 z" id="boundary" inkscape:connector-curvature="0" />
	<path style="fill:none;stroke:red;stroke-width:1px;stroke-linecap:butt;stroke-linejoin:miter;stroke-opacity:1" d="M 845.582,472.392 826.541,472.392 z" id="boundary" inkscape:connector-curvature="0" />
	<path style="fill:none;stroke:red;stroke-width:1px;stroke-linecap:butt;stroke-linejoin:miter;stroke-opacity:1" d="M 862.718,462.871 845.582,472.392 z" id="boundary" inkscape:connector-curvature="0" />
	<path style="fill:none;stroke:red;stroke-width:1px;stroke-linecap:butt;stroke-linejoin:miter;stroke-opacity:1" d="M 862.718,462.871 881.758,462.871 z" id="boundary" inkscape:connector-curvature="0" />
	<path style="fill:none;stroke:red;stroke-width:1px;stroke-linecap:butt;stroke-linejoin:miter;stroke-opacity:1" d="M 881.758,462.871 898.894,453.351 z" id="boundary" inkscape:connector-curvature="0" />
	<path style="fill:none;stroke:red;stroke-width:1px;stroke-linecap:butt;stroke-linejoin:miter;stroke-opacity:1" d="M 898.894,453.351 917.935,453.351 z" id="boundary" inkscape:connector-curvature="0" />
	<path style="fill:none;stroke:red;stroke-width:1px;stroke-linecap:butt;stroke-linejoin:miter;stroke-opacity:1" d="M 929.359,420.983 917.935,453.351 z" id="boundary" inkscape:connector-curvature="0" />
	<path style="fill:none;stroke:red;stroke-width:1px;stroke-linecap:butt;stroke-linejoin:miter;stroke-opacity:1" d="M 929.359,401.942 929.359,420.983 z" id="boundary" inkscape:connector-curvature="0" />
	<circle cx="4" cy="247.716" r="4" fill="#0" id="circle0"/>
	<circle cx="4" cy="266.756" r="4" fill="#0" id="circle1"/>
	<circle cx="4" cy="285.797" r="4" fill="#0" id="circle2"/>
	<circle cx="4" cy="304.837" r="4" fill="#0" id="circle3"/>
	<circle cx="4" cy="323.877" r="4" fill="#0" id="circle4"/>
	<circle cx="4" cy="342.917" r="4" fill="#0" id="circle5"/>
	<circle cx="13.5202" cy="228.676" r="4" fill="#0" id="circle6"/>
	<circle cx="13.5202" cy="360.054" r="4" fill="#0" id="circle7"/>
	<circle cx="28.7524" cy="213.443" r="4" fill="#0" id="circle8"/>
	<circle cx="32.5605" cy="367.67" r="4" fill="#0" id="circle9"/>
	<circle cx="43.9846" cy="198.211" r="4" fill="#0" id="circle10"/>
	<circle cx="51.6008" cy="367.67" r="4" fill="#0" id="circle11"/>
	<circle cx="63.025" cy="188.691" r="4" fill="#0" id="circle12"/>
	<circle cx="70.6411" cy="367.67" r="4" fill="#0" id="circle13"/>
	<circle cx="78.2572" cy="175.363" r="4" fill="#0" id="circle14"/>
	<circle cx="87.7774" cy="358.15" r="4" fill="#0" id="circle15"/>
	<circle cx="89.6814" cy="66.833" r="4" fill="#0" id="circle16"/>
	<circle cx="89.6814" cy="85.8733" r="4" fill="#0" id="circle17"/>
	<circle cx="89.6814" cy="104.914" r="4" fill="#0" id="circle18"/>
	<circle cx="89.6814" cy="123.954" r="4" fill="#0" id="circle19"/>
	<circle cx="89.6814" cy="142.994" r="4" fill="#0" id="circle20"/>
	<circle cx="99.2015" cy="47.7927" r="4" fill="#0" id="circle21"/>
	<circle cx="106.818" cy="358.15" r="4" fill="#0" id="circle22"/>
	<circle cx="108.722" cy="28.7524" r="4" fill="#0" id="circle23"/>
	<circle cx="125.858" cy="358.15" r="4" fill="#0" id="circle24"/>
	<circle cx="127.762" cy="19.2322" r="4" fill="#0" id="circle25"/>
	<circle cx="144.898" cy="358.15" r="4" fill="#0" id="circle26"/>
	<circle cx="146.802" cy="9.71209" r="4" fill="#0" id="circle27"/>
	<circle cx="163.939" cy="358.15" r="4" fill="#0" id="circle28"/>
	<circle cx="165.843" cy="4" r="4" fill="#0" id="circle29"/>
	<circle cx="182.979" cy="358.15" r="4" fill="#0" id="circle30"/>
	<circle cx="184.883" cy="4" r="4" fill="#0" id="circle31"/>
	<circle cx="200.115" cy="367.67" r="4" fill="#0" id="circle32"/>
	<circle cx="203.923" cy="4" r="4" fill="#0" id="circle33"/>
	<circle cx="219.155" cy="367.67" r="4" fill="#0" id="circle34"/>
	<circle cx="222.964" cy="7.80806" r="4" fill="#0" id="circle35"/>
	<circle cx="236.292" cy="377.19" r="4" fill="#0" id="circle36"/>
	<circle cx="240.1" cy="17.3282" r="4" fill="#0" id="circle37"/>
	<circle cx="245.812" cy="394.326" r="4" fill="#0" id="circle38"/>
	<circle cx="259.14" cy="24.9443" r="4" fill="#0" id="circle39"/>
	<circle cx="261.044" cy="405.75" r="4" fill="#0" id="circle40"/>
	<circle cx="276.276" cy="34.4645" r="4" fill="#0" id="circle41"/>
	<circle cx="278.18" cy="415.271" r="4" fill="#0" id="circle42"/>
	<circle cx="291.509" cy="430.503" r="4" fill="#0" id="circle43"/>
	<circle cx="295.317" cy="42.0806" r="4" fill="#0" id="circle44"/>
	<circle cx="310.549" cy="434.311" r="4" fill="#0" id="circle45"/>
	<circle cx="312.453" cy="51.6008" r="4" fill="#0" id="circle46"/>
	<circle cx="329.589" cy="61.1209" r="4" fill="#0" id="circle47"/>
	<circle cx="329.589" cy="434.311" r="4" fill="#0" id="circle48"/>
	<circle cx="348.63" cy="66.833" r="4" fill="#0" id="circle49"/>
	<circle cx="348.63" cy="434.311" r="4" fill="#0" id="circle50"/>
	<circle cx="365.766" cy="76.3532" r="4" fill="#0" id="circle51"/>
	<circle cx="367.67" cy="434.311" r="4" fill="#0" id="circle52"/>
	<circle cx="384.806" cy="80.1612" r="4" fill="#0" id="circle53"/>
	<circle cx="386.71" cy="434.311" r="4" fill="#0" id="circle54"/>
	<circle cx="403.846" cy="83.9693" r="4" fill="#0" id="circle55"/>
	<circle cx="405.75" cy="424.791" r="4" fill="#0" id="circle56"/>
	<circle cx="422.887" cy="89.6814" r="4" fill="#0" id="circle57"/>
	<circle cx="424.791" cy="424.791" r="4" fill="#0" id="circle58"/>
	<circle cx="441.927" cy="89.6814" r="4" fill="#0" id="circle59"/>
	<circle cx="443.831" cy="424.791" r="4" fill="#0" id="circle60"/>
	<circle cx="460.967" cy="89.6814" r="4" fill="#0" id="circle61"/>
	<circle cx="462.871" cy="424.791" r="4" fill="#0" id="circle62"/>
	<circle cx="480.008" cy="89.6814" r="4" fill="#0" id="circle63"/>
	<circle cx="481.912" cy="424.791" r="4" fill="#0" id="circle64"/>
	<circle cx="499.048" cy="85.8733" r="4" fill="#0" id="circle65"/>
	<circle cx="499.048" cy="415.271" r="4" fill="#0" id="circle66"/>
	<circle cx="518.088" cy="80.1612" r="4" fill="#0" id="circle67"/>
	<circle cx="518.088" cy="409.559" r="4" fill="#0" id="circle68"/>
	<circle cx="537.129" cy="80.1612" r="4" fill="#0" id="circle69"/>
	<circle cx="537.129" cy="405.75" r="4" fill="#0" id="circle70"/>
	<circle cx="554.265" cy="70.6411" r="4" fill="#0" id="circle71"/>
	<circle cx="556.169" cy="400.038" r="4" fill="#0" id="circle72"/>
	<circle cx="571.401" cy="61.1209" r="4" fill="#0" id="circle73"/>
	<circle cx="575.209" cy="396.23" r="4" fill="#0" id="circle74"/>
	<circle cx="590.441" cy="61.1209" r="4" fill="#0" id="circle75"/>
	<circle cx="594.25" cy="396.23" r="4" fill="#0" id="circle76"/>
	<circle cx="609.482" cy="51.6008" r="4" fill="#0" id="circle77"/>
	<circle cx="613.29" cy="396.23" r="4" fill="#0" id="circle78"/>
	<circle cx="628.522" cy="51.6008" r="4" fill="#0" id="circle79"/>
	<circle cx="632.33" cy="396.23" r="4" fill="#0" id="circle80"/>
	<circle cx="647.562" cy="51.6008" r="4" fill="#0" id="circle81"/>
	<circle cx="651.37" cy="396.23" r="4" fill="#0" id="circle82"/>
	<circle cx="666.603" cy="51.6008" r="4" fill="#0" id="circle83"/>
	<circle cx="670.411" cy="396.23" r="4" fill="#0" id="circle84"/>
	<circle cx="685.643" cy="51.6008" r="4" fill="#0" id="circle85"/>
	<circle cx="687.547" cy="405.75" r="4" fill="#0" id="circle86"/>
	<circle cx="704.683" cy="51.6008" r="4" fill="#0" id="circle87"/>
	<circle cx="704.683" cy="415.271" r="4" fill="#0" id="circle88"/>
	<circle cx="721.82" cy="61.1209" r="4" fill="#0" id="circle89"/>
	<circle cx="723.724" cy="422.887" r="4" fill="#0" id="circle90"/>
	<circle cx="738.956" cy="70.6411" r="4" fill="#0" id="circle91"/>
	<circle cx="740.86" cy="432.407" r="4" fill="#0" id="circle92"/>
	<circle cx="756.092" cy="80.1612" r="4" fill="#0" id="circle93"/>
	<circle cx="756.092" cy="443.831" r="4" fill="#0" id="circle94"/>
	<circle cx="773.228" cy="89.6814" r="4" fill="#0" id="circle95"/>
	<circle cx="773.228" cy="453.351" r="4" fill="#0" id="circle96"/>
	<circle cx="790.365" cy="99.2015" r="4" fill="#0" id="circle97"/>
	<circle cx="790.365" cy="462.871" r="4" fill="#0" id="circle98"/>
	<circle cx="807.501" cy="108.722" r="4" fill="#0" id="circle99"/>
	<circle cx="807.501" cy="472.392" r="4" fill="#0" id="circle100"/>
	<circle cx="826.541" cy="108.722" r="4" fill="#0" id="circle101"/>
	<circle cx="826.541" cy="472.392" r="4" fill="#0" id="circle102"/>
	<circle cx="845.582" cy="108.722" r="4" fill="#0" id="circle103"/>
	<circle cx="845.582" cy="472.392" r="4" fill="#0" id="circle104"/>
	<circle cx="862.718" cy="462.871" r="4" fill="#0" id="circle105"/>
	<circle cx="864.622" cy="108.722" r="4" fill="#0" id="circle106"/>
	<circle cx="881.758" cy="462.871" r="4" fill="#0" id="circle107"/>
	<circle cx="883.662" cy="108.722" r="4" fill="#0" id="circle108"/>
	<circle cx="898.894" cy="453.351" r="4" fill="#0" id="circle109"/>
	<circle cx="902.702" cy="108.722" r="4" fill="#0" id="circle110"/>
	<circle cx="910.319" cy="329.589" r="4" fill="#0" id="circle111"/>
	<circle cx="910.319" cy="348.63" r="4" fill="#0" id="circle112"/>
	<circle cx="910.319" cy="367.67" r="4" fill="#0" id="circle113"/>
	<circle cx="917.935" cy="453.351" r="4" fill="#0" id="circle114"/>
	<circle cx="919.839" cy="310.549" r="4" fill="#0" id="circle115"/>
	<circle cx="919.839" cy="384.806" r="4" fill="#0" id="circle116"/>
	<circle cx="921.743" cy="108.722" r="4" fill="#0" id="circle117"/>
	<circle cx="929.359" cy="291.509" r="4" fill="#0" id="circle118"/>
	<circle cx="929.359" cy="401.942" r="4" fill="#0" id="circle119"/>
	<circle cx="929.359" cy="420.983" r="4" fill="#0" id="circle120"/>
	<circle cx="940.783" cy="108.722" r="4" fill="#0" id="circle121"/>
	<circle cx="948.399" cy="281.988" r="4" fill="#0" id="circle122"/>
	<circle cx="959.823" cy="108.722" r="4" fill="#0" id="circle123"/>
	<circle cx="967.44" cy="272.468" r="4" fill="#0" id="circle124"/>
	<circle cx="976.96" cy="118.242" r="4" fill="#0" id="circle125"/>
	<circle cx="976.96" cy="253.428" r="4" fill="#0" id="circle126"/>
	<circle cx="992.192" cy="129.666" r="4" fill="#0" id="circle127"/>
	<circle cx="992.192" cy="240.1" r="4" fill="#0" id="circle128"/>
	<circle cx="996" cy="148.706" r="4" fill="#0" id="circle129"/>
	<circle cx="996" cy="167.747" r="4" fill="#0" id="circle130"/>
	<circle cx="996" cy="186.787" r="4" fill="#0" id="circle131"/>
	<circle cx="996" cy="205.827" r="4" fill="#0" id="circle132"/>
	</g>
</svg>