<?xml version="1.0" encoding="UTF-8" standalone="no"?>
<!-- Created with CurveBenchmark -->
<svg
	xmlns:dc="http://purl.org/dc/elements/1.1/"
	xmlns:cc="http://creativecommons.org/ns#"
	xmlns:rdf="http://www.w3.org/1999/02/22-rdf-syntax-ns#"
	xmlns:svg="http://www.w3.org/2000/svg"
	xmlns="http://www.w3.org/2000/svg"
	xmlns:sodipodi="http://sodipodi.sourceforge.net/DTD/sodipodi-0.dtd"
	xmlns:inkscape="http://www.inkscape.org/namespaces/inkscape"
	width="1000"
	height="1000"
	id="svg2"
	version="1.1"
	sodipodi:docname="manifold/gathang-fish090.png.txt">
<defs
	id="defs4" />
<metadata
	id="metadata7">
	<rdf:RDF>
		<cc:Work
			rdf:about="">
			<dc:format>image/svg+xml</dc:format>
			<dc:type
				rdf:resource="http://purl.org/dc/dcmitype/StillImage" />
			<dc:title></dc:title>
		</cc:Work>
	</rdf:RDF>
</metadata>
<g
	inkscape:label="Layer 1"
	inkscape:groupmode="layer"
	id="layer1">
	<path style="fill:none;stroke:red;stroke-width:1px;stroke-linecap:butt;stroke-linejoin:miter;stroke-opacity:1" d="M 158.597,364.727 132.831,442.026 z" id="boundary" inkscape:connector-curvature="0" />
	<path style="fill:none;stroke:red;stroke-width:1px;stroke-linecap:butt;stroke-linejoin:miter;stroke-opacity:1" d="M 4,545.091 55.5325,506.442 z" id="boundary" inkscape:connector-curvature="0" />
	<path style="fill:none;stroke:red;stroke-width:1px;stroke-linecap:butt;stroke-linejoin:miter;stroke-opacity:1" d="M 132.831,442.026 119.948,532.208 z" id="boundary" inkscape:connector-curvature="0" />
	<path style="fill:none;stroke:red;stroke-width:1px;stroke-linecap:butt;stroke-linejoin:miter;stroke-opacity:1" d="M 4,609.506 4,545.091 z" id="boundary" inkscape:connector-curvature="0" />
	<path style="fill:none;stroke:red;stroke-width:1px;stroke-linecap:butt;stroke-linejoin:miter;stroke-opacity:1" d="M 197.247,300.312 158.597,364.727 z" id="boundary" inkscape:connector-curvature="0" />
	<path style="fill:none;stroke:red;stroke-width:1px;stroke-linecap:butt;stroke-linejoin:miter;stroke-opacity:1" d="M 326.078,4 326.078,68.4156 z" id="boundary" inkscape:connector-curvature="0" />
	<path style="fill:none;stroke:red;stroke-width:1px;stroke-linecap:butt;stroke-linejoin:miter;stroke-opacity:1" d="M 197.247,300.312 248.779,248.779 z" id="boundary" inkscape:connector-curvature="0" />
	<path style="fill:none;stroke:red;stroke-width:1px;stroke-linecap:butt;stroke-linejoin:miter;stroke-opacity:1" d="M 313.195,223.013 248.779,248.779 z" id="boundary" inkscape:connector-curvature="0" />
	<path style="fill:none;stroke:red;stroke-width:1px;stroke-linecap:butt;stroke-linejoin:miter;stroke-opacity:1" d="M 49.0909,731.896 16.8831,673.922 z" id="boundary" inkscape:connector-curvature="0" />
	<path style="fill:none;stroke:red;stroke-width:1px;stroke-linecap:butt;stroke-linejoin:miter;stroke-opacity:1" d="M 49.0909,731.896 100.623,770.545 z" id="boundary" inkscape:connector-curvature="0" />
	<path style="fill:none;stroke:red;stroke-width:1px;stroke-linecap:butt;stroke-linejoin:miter;stroke-opacity:1" d="M 165.039,751.221 100.623,770.545 z" id="boundary" inkscape:connector-curvature="0" />
	<path style="fill:none;stroke:red;stroke-width:1px;stroke-linecap:butt;stroke-linejoin:miter;stroke-opacity:1" d="M 177.922,925.143 145.714,983.117 z" id="boundary" inkscape:connector-curvature="0" />
	<path style="fill:none;stroke:red;stroke-width:1px;stroke-linecap:butt;stroke-linejoin:miter;stroke-opacity:1" d="M 16.8831,673.922 4,609.506 z" id="boundary" inkscape:connector-curvature="0" />
	<path style="fill:none;stroke:red;stroke-width:1px;stroke-linecap:butt;stroke-linejoin:miter;stroke-opacity:1" d="M 165.039,751.221 229.455,770.545 z" id="boundary" inkscape:connector-curvature="0" />
	<path style="fill:none;stroke:red;stroke-width:1px;stroke-linecap:butt;stroke-linejoin:miter;stroke-opacity:1" d="M 229.455,770.545 210.13,841.403 z" id="boundary" inkscape:connector-curvature="0" />
	<path style="fill:none;stroke:red;stroke-width:1px;stroke-linecap:butt;stroke-linejoin:miter;stroke-opacity:1" d="M 177.922,925.143 210.13,841.403 z" id="boundary" inkscape:connector-curvature="0" />
	<path style="fill:none;stroke:red;stroke-width:1px;stroke-linecap:butt;stroke-linejoin:miter;stroke-opacity:1" d="M 326.078,68.4156 326.078,132.831 z" id="boundary" inkscape:connector-curvature="0" />
	<path style="fill:none;stroke:red;stroke-width:1px;stroke-linecap:butt;stroke-linejoin:miter;stroke-opacity:1" d="M 371.169,184.364 409.818,235.896 z" id="boundary" inkscape:connector-curvature="0" />
	<path style="fill:none;stroke:red;stroke-width:1px;stroke-linecap:butt;stroke-linejoin:miter;stroke-opacity:1" d="M 371.169,184.364 326.078,132.831 z" id="boundary" inkscape:connector-curvature="0" />
	<path style="fill:none;stroke:red;stroke-width:1px;stroke-linecap:butt;stroke-linejoin:miter;stroke-opacity:1" d="M 506.442,326.078 454.909,287.429 z" id="boundary" inkscape:connector-curvature="0" />
	<path style="fill:none;stroke:red;stroke-width:1px;stroke-linecap:butt;stroke-linejoin:miter;stroke-opacity:1" d="M 454.909,287.429 409.818,235.896 z" id="boundary" inkscape:connector-curvature="0" />
	<path style="fill:none;stroke:red;stroke-width:1px;stroke-linecap:butt;stroke-linejoin:miter;stroke-opacity:1" d="M 506.442,326.078 538.649,384.052 z" id="boundary" inkscape:connector-curvature="0" />
	<path style="fill:none;stroke:red;stroke-width:1px;stroke-linecap:butt;stroke-linejoin:miter;stroke-opacity:1" d="M 538.649,384.052 551.532,448.468 z" id="boundary" inkscape:connector-curvature="0" />
	<path style="fill:none;stroke:red;stroke-width:1px;stroke-linecap:butt;stroke-linejoin:miter;stroke-opacity:1" d="M 564.416,512.883 628.831,506.442 z" id="boundary" inkscape:connector-curvature="0" />
	<path style="fill:none;stroke:red;stroke-width:1px;stroke-linecap:butt;stroke-linejoin:miter;stroke-opacity:1" d="M 564.416,512.883 551.532,448.468 z" id="boundary" inkscape:connector-curvature="0" />
	<path style="fill:none;stroke:red;stroke-width:1px;stroke-linecap:butt;stroke-linejoin:miter;stroke-opacity:1" d="M 680.364,545.091 628.831,506.442 z" id="boundary" inkscape:connector-curvature="0" />
	<path style="fill:none;stroke:red;stroke-width:1px;stroke-linecap:butt;stroke-linejoin:miter;stroke-opacity:1" d="M 680.364,545.091 686.805,615.948 z" id="boundary" inkscape:connector-curvature="0" />
	<path style="fill:none;stroke:red;stroke-width:1px;stroke-linecap:butt;stroke-linejoin:miter;stroke-opacity:1" d="M 454.909,770.545 403.377,815.636 z" id="boundary" inkscape:connector-curvature="0" />
	<path style="fill:none;stroke:red;stroke-width:1px;stroke-linecap:butt;stroke-linejoin:miter;stroke-opacity:1" d="M 403.377,815.636 338.961,815.636 z" id="boundary" inkscape:connector-curvature="0" />
	<path style="fill:none;stroke:red;stroke-width:1px;stroke-linecap:butt;stroke-linejoin:miter;stroke-opacity:1" d="M 435.584,873.61 338.961,815.636 z" id="boundary" inkscape:connector-curvature="0" />
	<path style="fill:none;stroke:red;stroke-width:1px;stroke-linecap:butt;stroke-linejoin:miter;stroke-opacity:1" d="M 467.792,931.584 435.584,873.61 z" id="boundary" inkscape:connector-curvature="0" />
	<path style="fill:none;stroke:red;stroke-width:1px;stroke-linecap:butt;stroke-linejoin:miter;stroke-opacity:1" d="M 454.909,770.545 519.325,751.221 z" id="boundary" inkscape:connector-curvature="0" />
	<path style="fill:none;stroke:red;stroke-width:1px;stroke-linecap:butt;stroke-linejoin:miter;stroke-opacity:1" d="M 467.792,931.584 493.558,996 z" id="boundary" inkscape:connector-curvature="0" />
	<path style="fill:none;stroke:red;stroke-width:1px;stroke-linecap:butt;stroke-linejoin:miter;stroke-opacity:1" d="M 673.922,680.364 641.714,738.338 z" id="boundary" inkscape:connector-curvature="0" />
	<path style="fill:none;stroke:red;stroke-width:1px;stroke-linecap:butt;stroke-linejoin:miter;stroke-opacity:1" d="M 519.325,751.221 583.74,770.545 z" id="boundary" inkscape:connector-curvature="0" />
	<path style="fill:none;stroke:red;stroke-width:1px;stroke-linecap:butt;stroke-linejoin:miter;stroke-opacity:1" d="M 641.714,738.338 583.74,770.545 z" id="boundary" inkscape:connector-curvature="0" />
	<path style="fill:none;stroke:red;stroke-width:1px;stroke-linecap:butt;stroke-linejoin:miter;stroke-opacity:1" d="M 686.805,615.948 673.922,680.364 z" id="boundary" inkscape:connector-curvature="0" />
	<circle cx="4" cy="545.091" r="4" fill="#0" id="circle0"/>
	<circle cx="4" cy="609.506" r="4" fill="#0" id="circle1"/>
	<circle cx="16.8831" cy="673.922" r="4" fill="#0" id="circle2"/>
	<circle cx="49.0909" cy="731.896" r="4" fill="#0" id="circle3"/>
	<circle cx="55.5325" cy="506.442" r="4" fill="#0" id="circle4"/>
	<circle cx="100.623" cy="770.545" r="4" fill="#0" id="circle5"/>
	<circle cx="119.948" cy="532.208" r="4" fill="#0" id="circle6"/>
	<circle cx="132.831" cy="442.026" r="4" fill="#0" id="circle7"/>
	<circle cx="145.714" cy="983.117" r="4" fill="#0" id="circle8"/>
	<circle cx="158.597" cy="364.727" r="4" fill="#0" id="circle9"/>
	<circle cx="165.039" cy="751.221" r="4" fill="#0" id="circle10"/>
	<circle cx="177.922" cy="925.143" r="4" fill="#0" id="circle11"/>
	<circle cx="197.247" cy="300.312" r="4" fill="#0" id="circle12"/>
	<circle cx="210.13" cy="841.403" r="4" fill="#0" id="circle13"/>
	<circle cx="229.455" cy="770.545" r="4" fill="#0" id="circle14"/>
	<circle cx="242.338" cy="899.377" r="4" fill="#0" id="circle15"/>
	<circle cx="248.779" cy="248.779" r="4" fill="#0" id="circle16"/>
	<circle cx="274.545" cy="834.961" r="4" fill="#0" id="circle17"/>
	<circle cx="313.195" cy="223.013" r="4" fill="#0" id="circle18"/>
	<circle cx="326.078" cy="4" r="4" fill="#0" id="circle19"/>
	<circle cx="326.078" cy="68.4156" r="4" fill="#0" id="circle20"/>
	<circle cx="326.078" cy="132.831" r="4" fill="#0" id="circle21"/>
	<circle cx="338.961" cy="815.636" r="4" fill="#0" id="circle22"/>
	<circle cx="371.169" cy="184.364" r="4" fill="#0" id="circle23"/>
	<circle cx="403.377" cy="815.636" r="4" fill="#0" id="circle24"/>
	<circle cx="409.818" cy="235.896" r="4" fill="#0" id="circle25"/>
	<circle cx="435.584" cy="873.61" r="4" fill="#0" id="circle26"/>
	<circle cx="454.909" cy="287.429" r="4" fill="#0" id="circle27"/>
	<circle cx="454.909" cy="770.545" r="4" fill="#0" id="circle28"/>
	<circle cx="467.792" cy="931.584" r="4" fill="#0" id="circle29"/>
	<circle cx="493.558" cy="996" r="4" fill="#0" id="circle30"/>
	<circle cx="506.442" cy="326.078" r="4" fill="#0" id="circle31"/>
	<circle cx="519.325" cy="751.221" r="4" fill="#0" id="circle32"/>
	<circle cx="538.649" cy="384.052" r="4" fill="#0" id="circle33"/>
	<circle cx="551.532" cy="448.468" r="4" fill="#0" id="circle34"/>
	<circle cx="564.416" cy="512.883" r="4" fill="#0" id="circle35"/>
	<circle cx="583.74" cy="770.545" r="4" fill="#0" id="circle36"/>
	<circle cx="628.831" cy="506.442" r="4" fill="#0" id="circle37"/>
	<circle cx="641.714" cy="738.338" r="4" fill="#0" id="circle38"/>
	<circle cx="673.922" cy="680.364" r="4" fill="#0" id="circle39"/>
	<circle cx="680.364" cy="545.091" r="4" fill="#0" id="circle40"/>
	<circle cx="686.805" cy="615.948" r="4" fill="#0" id="circle41"/>
	</g>
</svg>