<?xml version="1.0" encoding="UTF-8" standalone="no"?>
<!-- Created with CurveBenchmark -->
<svg
	xmlns:dc="http://purl.org/dc/elements/1.1/"
	xmlns:cc="http://creativecommons.org/ns#"
	xmlns:rdf="http://www.w3.org/1999/02/22-rdf-syntax-ns#"
	xmlns:svg="http://www.w3.org/2000/svg"
	xmlns="http://www.w3.org/2000/svg"
	xmlns:sodipodi="http://sodipodi.sourceforge.net/DTD/sodipodi-0.dtd"
	xmlns:inkscape="http://www.inkscape.org/namespaces/inkscape"
	width="1000"
	height="1000"
	id="svg2"
	version="1.1"
	sodipodi:docname="manifold/gathang-bird56.png.txt">
<defs
	id="defs4" />
<metadata
	id="metadata7">
	<rdf:RDF>
		<cc:Work
			rdf:about="">
			<dc:format>image/svg+xml</dc:format>
			<dc:type
				rdf:resource="http://purl.org/dc/dcmitype/StillImage" />
			<dc:title></dc:title>
		</cc:Work>
	</rdf:RDF>
</metadata>
<g
	inkscape:label="Layer 1"
	inkscape:groupmode="layer"
	id="layer1">
	<path style="fill:none;stroke:red;stroke-width:1px;stroke-linecap:butt;stroke-linejoin:miter;stroke-opacity:1" d="M 146.755,91.4009 161.322,84.1175 z" id="boundary" inkscape:connector-curvature="0" />
	<path style="fill:none;stroke:red;stroke-width:1px;stroke-linecap:butt;stroke-linejoin:miter;stroke-opacity:1" d="M 175.888,76.8341 161.322,84.1175 z" id="boundary" inkscape:connector-curvature="0" />
	<path style="fill:none;stroke:red;stroke-width:1px;stroke-linecap:butt;stroke-linejoin:miter;stroke-opacity:1" d="M 180.258,107.424 165.692,107.424 z" id="boundary" inkscape:connector-curvature="0" />
	<path style="fill:none;stroke:red;stroke-width:1px;stroke-linecap:butt;stroke-linejoin:miter;stroke-opacity:1" d="M 104.511,113.251 117.621,105.968 z" id="boundary" inkscape:connector-curvature="0" />
	<path style="fill:none;stroke:red;stroke-width:1px;stroke-linecap:butt;stroke-linejoin:miter;stroke-opacity:1" d="M 117.621,105.968 132.188,98.6843 z" id="boundary" inkscape:connector-curvature="0" />
	<path style="fill:none;stroke:red;stroke-width:1px;stroke-linecap:butt;stroke-linejoin:miter;stroke-opacity:1" d="M 132.188,98.6843 146.755,91.4009 z" id="boundary" inkscape:connector-curvature="0" />
	<path style="fill:none;stroke:red;stroke-width:1px;stroke-linecap:butt;stroke-linejoin:miter;stroke-opacity:1" d="M 165.692,107.424 151.125,114.708 z" id="boundary" inkscape:connector-curvature="0" />
	<path style="fill:none;stroke:red;stroke-width:1px;stroke-linecap:butt;stroke-linejoin:miter;stroke-opacity:1" d="M 190.455,69.5507 205.022,62.2673 z" id="boundary" inkscape:connector-curvature="0" />
	<path style="fill:none;stroke:red;stroke-width:1px;stroke-linecap:butt;stroke-linejoin:miter;stroke-opacity:1" d="M 215.219,44.7871 205.022,62.2673 z" id="boundary" inkscape:connector-curvature="0" />
	<path style="fill:none;stroke:red;stroke-width:1px;stroke-linecap:butt;stroke-linejoin:miter;stroke-opacity:1" d="M 222.502,22.9369 215.219,44.7871 z" id="boundary" inkscape:connector-curvature="0" />
	<path style="fill:none;stroke:red;stroke-width:1px;stroke-linecap:butt;stroke-linejoin:miter;stroke-opacity:1" d="M 190.455,69.5507 175.888,76.8341 z" id="boundary" inkscape:connector-curvature="0" />
	<path style="fill:none;stroke:red;stroke-width:1px;stroke-linecap:butt;stroke-linejoin:miter;stroke-opacity:1" d="M 180.258,107.424 193.369,100.141 z" id="boundary" inkscape:connector-curvature="0" />
	<path style="fill:none;stroke:red;stroke-width:1px;stroke-linecap:butt;stroke-linejoin:miter;stroke-opacity:1" d="M 193.369,100.141 207.935,100.141 z" id="boundary" inkscape:connector-curvature="0" />
	<path style="fill:none;stroke:red;stroke-width:1px;stroke-linecap:butt;stroke-linejoin:miter;stroke-opacity:1" d="M 222.502,100.141 207.935,100.141 z" id="boundary" inkscape:connector-curvature="0" />
	<path style="fill:none;stroke:red;stroke-width:1px;stroke-linecap:butt;stroke-linejoin:miter;stroke-opacity:1" d="M 222.502,22.9369 234.156,11.2834 z" id="boundary" inkscape:connector-curvature="0" />
	<path style="fill:none;stroke:red;stroke-width:1px;stroke-linecap:butt;stroke-linejoin:miter;stroke-opacity:1" d="M 46.2438,164.235 56.4405,152.581 z" id="boundary" inkscape:connector-curvature="0" />
	<path style="fill:none;stroke:red;stroke-width:1px;stroke-linecap:butt;stroke-linejoin:miter;stroke-opacity:1" d="M 46.2438,164.235 34.5903,174.432 z" id="boundary" inkscape:connector-curvature="0" />
	<path style="fill:none;stroke:red;stroke-width:1px;stroke-linecap:butt;stroke-linejoin:miter;stroke-opacity:1" d="M 56.4405,152.581 68.094,142.385 z" id="boundary" inkscape:connector-curvature="0" />
	<path style="fill:none;stroke:red;stroke-width:1px;stroke-linecap:butt;stroke-linejoin:miter;stroke-opacity:1" d="M 82.6608,155.495 71.0073,165.692 z" id="boundary" inkscape:connector-curvature="0" />
	<path style="fill:none;stroke:red;stroke-width:1px;stroke-linecap:butt;stroke-linejoin:miter;stroke-opacity:1" d="M 71.0073,165.692 60.8106,177.345 z" id="boundary" inkscape:connector-curvature="0" />
	<path style="fill:none;stroke:red;stroke-width:1px;stroke-linecap:butt;stroke-linejoin:miter;stroke-opacity:1" d="M 22.9369,186.085 34.5903,174.432 z" id="boundary" inkscape:connector-curvature="0" />
	<path style="fill:none;stroke:red;stroke-width:1px;stroke-linecap:butt;stroke-linejoin:miter;stroke-opacity:1" d="M 97.2276,148.211 111.794,140.928 z" id="boundary" inkscape:connector-curvature="0" />
	<path style="fill:none;stroke:red;stroke-width:1px;stroke-linecap:butt;stroke-linejoin:miter;stroke-opacity:1" d="M 60.8106,177.345 49.1571,187.542 z" id="boundary" inkscape:connector-curvature="0" />
	<path style="fill:none;stroke:red;stroke-width:1px;stroke-linecap:butt;stroke-linejoin:miter;stroke-opacity:1" d="M 49.1571,187.542 34.5903,202.109 z" id="boundary" inkscape:connector-curvature="0" />
	<path style="fill:none;stroke:red;stroke-width:1px;stroke-linecap:butt;stroke-linejoin:miter;stroke-opacity:1" d="M 92.8576,123.448 104.511,113.251 z" id="boundary" inkscape:connector-curvature="0" />
	<path style="fill:none;stroke:red;stroke-width:1px;stroke-linecap:butt;stroke-linejoin:miter;stroke-opacity:1" d="M 121.991,129.275 111.794,140.928 z" id="boundary" inkscape:connector-curvature="0" />
	<path style="fill:none;stroke:red;stroke-width:1px;stroke-linecap:butt;stroke-linejoin:miter;stroke-opacity:1" d="M 136.558,121.991 151.125,114.708 z" id="boundary" inkscape:connector-curvature="0" />
	<path style="fill:none;stroke:red;stroke-width:1px;stroke-linecap:butt;stroke-linejoin:miter;stroke-opacity:1" d="M 136.558,121.991 121.991,129.275 z" id="boundary" inkscape:connector-curvature="0" />
	<path style="fill:none;stroke:red;stroke-width:1px;stroke-linecap:butt;stroke-linejoin:miter;stroke-opacity:1" d="M 68.094,142.385 81.2041,135.101 z" id="boundary" inkscape:connector-curvature="0" />
	<path style="fill:none;stroke:red;stroke-width:1px;stroke-linecap:butt;stroke-linejoin:miter;stroke-opacity:1" d="M 97.2276,148.211 82.6608,155.495 z" id="boundary" inkscape:connector-curvature="0" />
	<path style="fill:none;stroke:red;stroke-width:1px;stroke-linecap:butt;stroke-linejoin:miter;stroke-opacity:1" d="M 81.2041,135.101 92.8576,123.448 z" id="boundary" inkscape:connector-curvature="0" />
	<path style="fill:none;stroke:red;stroke-width:1px;stroke-linecap:butt;stroke-linejoin:miter;stroke-opacity:1" d="M 222.502,100.141 235.612,107.424 z" id="boundary" inkscape:connector-curvature="0" />
	<path style="fill:none;stroke:red;stroke-width:1px;stroke-linecap:butt;stroke-linejoin:miter;stroke-opacity:1" d="M 248.722,4 263.289,4 z" id="boundary" inkscape:connector-curvature="0" />
	<path style="fill:none;stroke:red;stroke-width:1px;stroke-linecap:butt;stroke-linejoin:miter;stroke-opacity:1" d="M 234.156,11.2834 248.722,4 z" id="boundary" inkscape:connector-curvature="0" />
	<path style="fill:none;stroke:red;stroke-width:1px;stroke-linecap:butt;stroke-linejoin:miter;stroke-opacity:1" d="M 250.179,107.424 235.612,107.424 z" id="boundary" inkscape:connector-curvature="0" />
	<path style="fill:none;stroke:red;stroke-width:1px;stroke-linecap:butt;stroke-linejoin:miter;stroke-opacity:1" d="M 277.856,4 292.423,4 z" id="boundary" inkscape:connector-curvature="0" />
	<path style="fill:none;stroke:red;stroke-width:1px;stroke-linecap:butt;stroke-linejoin:miter;stroke-opacity:1" d="M 263.289,4 277.856,4 z" id="boundary" inkscape:connector-curvature="0" />
	<path style="fill:none;stroke:red;stroke-width:1px;stroke-linecap:butt;stroke-linejoin:miter;stroke-opacity:1" d="M 292.423,4 306.99,4 z" id="boundary" inkscape:connector-curvature="0" />
	<path style="fill:none;stroke:red;stroke-width:1px;stroke-linecap:butt;stroke-linejoin:miter;stroke-opacity:1" d="M 306.99,4 320.1,11.2834 z" id="boundary" inkscape:connector-curvature="0" />
	<path style="fill:none;stroke:red;stroke-width:1px;stroke-linecap:butt;stroke-linejoin:miter;stroke-opacity:1" d="M 331.753,21.4802 320.1,11.2834 z" id="boundary" inkscape:connector-curvature="0" />
	<path style="fill:none;stroke:red;stroke-width:1px;stroke-linecap:butt;stroke-linejoin:miter;stroke-opacity:1" d="M 331.753,21.4802 340.493,33.1336 z" id="boundary" inkscape:connector-curvature="0" />
	<path style="fill:none;stroke:red;stroke-width:1px;stroke-linecap:butt;stroke-linejoin:miter;stroke-opacity:1" d="M 547.342,207.935 532.775,207.935 z" id="boundary" inkscape:connector-curvature="0" />
	<path style="fill:none;stroke:red;stroke-width:1px;stroke-linecap:butt;stroke-linejoin:miter;stroke-opacity:1" d="M 347.777,46.2438 340.493,33.1336 z" id="boundary" inkscape:connector-curvature="0" />
	<path style="fill:none;stroke:red;stroke-width:1px;stroke-linecap:butt;stroke-linejoin:miter;stroke-opacity:1" d="M 347.777,46.2438 347.777,60.8106 z" id="boundary" inkscape:connector-curvature="0" />
	<path style="fill:none;stroke:red;stroke-width:1px;stroke-linecap:butt;stroke-linejoin:miter;stroke-opacity:1" d="M 347.777,60.8106 355.06,73.9207 z" id="boundary" inkscape:connector-curvature="0" />
	<path style="fill:none;stroke:red;stroke-width:1px;stroke-linecap:butt;stroke-linejoin:miter;stroke-opacity:1" d="M 355.06,73.9207 355.06,88.4875 z" id="boundary" inkscape:connector-curvature="0" />
	<path style="fill:none;stroke:red;stroke-width:1px;stroke-linecap:butt;stroke-linejoin:miter;stroke-opacity:1" d="M 360.887,103.054 355.06,88.4875 z" id="boundary" inkscape:connector-curvature="0" />
	<path style="fill:none;stroke:red;stroke-width:1px;stroke-linecap:butt;stroke-linejoin:miter;stroke-opacity:1" d="M 446.831,200.652 432.264,194.825 z" id="boundary" inkscape:connector-curvature="0" />
	<path style="fill:none;stroke:red;stroke-width:1px;stroke-linecap:butt;stroke-linejoin:miter;stroke-opacity:1" d="M 260.376,119.078 266.203,133.645 z" id="boundary" inkscape:connector-curvature="0" />
	<path style="fill:none;stroke:red;stroke-width:1px;stroke-linecap:butt;stroke-linejoin:miter;stroke-opacity:1" d="M 260.376,119.078 250.179,107.424 z" id="boundary" inkscape:connector-curvature="0" />
	<path style="fill:none;stroke:red;stroke-width:1px;stroke-linecap:butt;stroke-linejoin:miter;stroke-opacity:1" d="M 266.203,148.211 266.203,133.645 z" id="boundary" inkscape:connector-curvature="0" />
	<path style="fill:none;stroke:red;stroke-width:1px;stroke-linecap:butt;stroke-linejoin:miter;stroke-opacity:1" d="M 360.887,103.054 362.344,117.621 z" id="boundary" inkscape:connector-curvature="0" />
	<path style="fill:none;stroke:red;stroke-width:1px;stroke-linecap:butt;stroke-linejoin:miter;stroke-opacity:1" d="M 258.919,175.888 258.919,190.455 z" id="boundary" inkscape:connector-curvature="0" />
	<path style="fill:none;stroke:red;stroke-width:1px;stroke-linecap:butt;stroke-linejoin:miter;stroke-opacity:1" d="M 258.919,175.888 266.203,162.778 z" id="boundary" inkscape:connector-curvature="0" />
	<path style="fill:none;stroke:red;stroke-width:1px;stroke-linecap:butt;stroke-linejoin:miter;stroke-opacity:1" d="M 266.203,148.211 266.203,162.778 z" id="boundary" inkscape:connector-curvature="0" />
	<path style="fill:none;stroke:red;stroke-width:1px;stroke-linecap:butt;stroke-linejoin:miter;stroke-opacity:1" d="M 266.203,203.565 258.919,190.455 z" id="boundary" inkscape:connector-curvature="0" />
	<path style="fill:none;stroke:red;stroke-width:1px;stroke-linecap:butt;stroke-linejoin:miter;stroke-opacity:1" d="M 362.344,117.621 362.344,132.188 z" id="boundary" inkscape:connector-curvature="0" />
	<path style="fill:none;stroke:red;stroke-width:1px;stroke-linecap:butt;stroke-linejoin:miter;stroke-opacity:1" d="M 362.344,132.188 369.627,145.298 z" id="boundary" inkscape:connector-curvature="0" />
	<path style="fill:none;stroke:red;stroke-width:1px;stroke-linecap:butt;stroke-linejoin:miter;stroke-opacity:1" d="M 369.627,145.298 369.627,159.865 z" id="boundary" inkscape:connector-curvature="0" />
	<path style="fill:none;stroke:red;stroke-width:1px;stroke-linecap:butt;stroke-linejoin:miter;stroke-opacity:1" d="M 378.367,171.518 369.627,159.865 z" id="boundary" inkscape:connector-curvature="0" />
	<path style="fill:none;stroke:red;stroke-width:1px;stroke-linecap:butt;stroke-linejoin:miter;stroke-opacity:1" d="M 390.021,181.715 378.367,171.518 z" id="boundary" inkscape:connector-curvature="0" />
	<path style="fill:none;stroke:red;stroke-width:1px;stroke-linecap:butt;stroke-linejoin:miter;stroke-opacity:1" d="M 403.131,188.999 390.021,181.715 z" id="boundary" inkscape:connector-curvature="0" />
	<path style="fill:none;stroke:red;stroke-width:1px;stroke-linecap:butt;stroke-linejoin:miter;stroke-opacity:1" d="M 403.131,188.999 417.698,193.369 z" id="boundary" inkscape:connector-curvature="0" />
	<path style="fill:none;stroke:red;stroke-width:1px;stroke-linecap:butt;stroke-linejoin:miter;stroke-opacity:1" d="M 432.264,194.825 417.698,193.369 z" id="boundary" inkscape:connector-curvature="0" />
	<path style="fill:none;stroke:red;stroke-width:1px;stroke-linecap:butt;stroke-linejoin:miter;stroke-opacity:1" d="M 11.2834,197.739 22.9369,186.085 z" id="boundary" inkscape:connector-curvature="0" />
	<path style="fill:none;stroke:red;stroke-width:1px;stroke-linecap:butt;stroke-linejoin:miter;stroke-opacity:1" d="M 266.203,203.565 266.203,218.132 z" id="boundary" inkscape:connector-curvature="0" />
	<path style="fill:none;stroke:red;stroke-width:1px;stroke-linecap:butt;stroke-linejoin:miter;stroke-opacity:1" d="M 34.5903,202.109 24.3935,213.762 z" id="boundary" inkscape:connector-curvature="0" />
	<path style="fill:none;stroke:red;stroke-width:1px;stroke-linecap:butt;stroke-linejoin:miter;stroke-opacity:1" d="M 12.7401,223.959 4,212.305 z" id="boundary" inkscape:connector-curvature="0" />
	<path style="fill:none;stroke:red;stroke-width:1px;stroke-linecap:butt;stroke-linejoin:miter;stroke-opacity:1" d="M 24.3935,213.762 12.7401,223.959 z" id="boundary" inkscape:connector-curvature="0" />
	<path style="fill:none;stroke:red;stroke-width:1px;stroke-linecap:butt;stroke-linejoin:miter;stroke-opacity:1" d="M 4,212.305 11.2834,197.739 z" id="boundary" inkscape:connector-curvature="0" />
	<path style="fill:none;stroke:red;stroke-width:1px;stroke-linecap:butt;stroke-linejoin:miter;stroke-opacity:1" d="M 273.486,245.809 277.856,260.376 z" id="boundary" inkscape:connector-curvature="0" />
	<path style="fill:none;stroke:red;stroke-width:1px;stroke-linecap:butt;stroke-linejoin:miter;stroke-opacity:1" d="M 273.486,231.242 266.203,218.132 z" id="boundary" inkscape:connector-curvature="0" />
	<path style="fill:none;stroke:red;stroke-width:1px;stroke-linecap:butt;stroke-linejoin:miter;stroke-opacity:1" d="M 273.486,231.242 273.486,245.809 z" id="boundary" inkscape:connector-curvature="0" />
	<path style="fill:none;stroke:red;stroke-width:1px;stroke-linecap:butt;stroke-linejoin:miter;stroke-opacity:1" d="M 459.941,207.935 446.831,200.652 z" id="boundary" inkscape:connector-curvature="0" />
	<path style="fill:none;stroke:red;stroke-width:1px;stroke-linecap:butt;stroke-linejoin:miter;stroke-opacity:1" d="M 474.508,207.935 459.941,207.935 z" id="boundary" inkscape:connector-curvature="0" />
	<path style="fill:none;stroke:red;stroke-width:1px;stroke-linecap:butt;stroke-linejoin:miter;stroke-opacity:1" d="M 302.62,314.273 295.336,301.163 z" id="boundary" inkscape:connector-curvature="0" />
	<path style="fill:none;stroke:red;stroke-width:1px;stroke-linecap:butt;stroke-linejoin:miter;stroke-opacity:1" d="M 277.856,260.376 285.14,273.486 z" id="boundary" inkscape:connector-curvature="0" />
	<path style="fill:none;stroke:red;stroke-width:1px;stroke-linecap:butt;stroke-linejoin:miter;stroke-opacity:1" d="M 285.14,273.486 288.053,288.053 z" id="boundary" inkscape:connector-curvature="0" />
	<path style="fill:none;stroke:red;stroke-width:1px;stroke-linecap:butt;stroke-linejoin:miter;stroke-opacity:1" d="M 288.053,288.053 295.336,301.163 z" id="boundary" inkscape:connector-curvature="0" />
	<path style="fill:none;stroke:red;stroke-width:1px;stroke-linecap:butt;stroke-linejoin:miter;stroke-opacity:1" d="M 309.903,327.383 317.186,340.493 z" id="boundary" inkscape:connector-curvature="0" />
	<path style="fill:none;stroke:red;stroke-width:1px;stroke-linecap:butt;stroke-linejoin:miter;stroke-opacity:1" d="M 309.903,327.383 302.62,314.273 z" id="boundary" inkscape:connector-curvature="0" />
	<path style="fill:none;stroke:red;stroke-width:1px;stroke-linecap:butt;stroke-linejoin:miter;stroke-opacity:1" d="M 324.47,353.604 333.21,365.257 z" id="boundary" inkscape:connector-curvature="0" />
	<path style="fill:none;stroke:red;stroke-width:1px;stroke-linecap:butt;stroke-linejoin:miter;stroke-opacity:1" d="M 324.47,353.604 317.186,340.493 z" id="boundary" inkscape:connector-curvature="0" />
	<path style="fill:none;stroke:red;stroke-width:1px;stroke-linecap:butt;stroke-linejoin:miter;stroke-opacity:1" d="M 343.407,376.91 333.21,365.257 z" id="boundary" inkscape:connector-curvature="0" />
	<path style="fill:none;stroke:red;stroke-width:1px;stroke-linecap:butt;stroke-linejoin:miter;stroke-opacity:1" d="M 355.06,387.107 365.257,398.761 z" id="boundary" inkscape:connector-curvature="0" />
	<path style="fill:none;stroke:red;stroke-width:1px;stroke-linecap:butt;stroke-linejoin:miter;stroke-opacity:1" d="M 343.407,376.91 355.06,387.107 z" id="boundary" inkscape:connector-curvature="0" />
	<path style="fill:none;stroke:red;stroke-width:1px;stroke-linecap:butt;stroke-linejoin:miter;stroke-opacity:1" d="M 387.107,420.611 376.91,408.957 z" id="boundary" inkscape:connector-curvature="0" />
	<path style="fill:none;stroke:red;stroke-width:1px;stroke-linecap:butt;stroke-linejoin:miter;stroke-opacity:1" d="M 398.761,430.808 411.871,438.091 z" id="boundary" inkscape:connector-curvature="0" />
	<path style="fill:none;stroke:red;stroke-width:1px;stroke-linecap:butt;stroke-linejoin:miter;stroke-opacity:1" d="M 411.871,438.091 423.524,448.288 z" id="boundary" inkscape:connector-curvature="0" />
	<path style="fill:none;stroke:red;stroke-width:1px;stroke-linecap:butt;stroke-linejoin:miter;stroke-opacity:1" d="M 398.761,430.808 387.107,420.611 z" id="boundary" inkscape:connector-curvature="0" />
	<path style="fill:none;stroke:red;stroke-width:1px;stroke-linecap:butt;stroke-linejoin:miter;stroke-opacity:1" d="M 376.91,408.957 365.257,398.761 z" id="boundary" inkscape:connector-curvature="0" />
	<path style="fill:none;stroke:red;stroke-width:1px;stroke-linecap:butt;stroke-linejoin:miter;stroke-opacity:1" d="M 433.721,459.941 423.524,448.288 z" id="boundary" inkscape:connector-curvature="0" />
	<path style="fill:none;stroke:red;stroke-width:1px;stroke-linecap:butt;stroke-linejoin:miter;stroke-opacity:1" d="M 448.288,464.311 433.721,459.941 z" id="boundary" inkscape:connector-curvature="0" />
	<path style="fill:none;stroke:red;stroke-width:1px;stroke-linecap:butt;stroke-linejoin:miter;stroke-opacity:1" d="M 459.941,768.758 448.288,780.411 z" id="boundary" inkscape:connector-curvature="0" />
	<path style="fill:none;stroke:red;stroke-width:1px;stroke-linecap:butt;stroke-linejoin:miter;stroke-opacity:1" d="M 448.288,464.311 461.398,471.595 z" id="boundary" inkscape:connector-curvature="0" />
	<path style="fill:none;stroke:red;stroke-width:1px;stroke-linecap:butt;stroke-linejoin:miter;stroke-opacity:1" d="M 489.075,207.935 503.642,207.935 z" id="boundary" inkscape:connector-curvature="0" />
	<path style="fill:none;stroke:red;stroke-width:1px;stroke-linecap:butt;stroke-linejoin:miter;stroke-opacity:1" d="M 474.508,207.935 489.075,207.935 z" id="boundary" inkscape:connector-curvature="0" />
	<path style="fill:none;stroke:red;stroke-width:1px;stroke-linecap:butt;stroke-linejoin:miter;stroke-opacity:1" d="M 503.642,207.935 518.209,207.935 z" id="boundary" inkscape:connector-curvature="0" />
	<path style="fill:none;stroke:red;stroke-width:1px;stroke-linecap:butt;stroke-linejoin:miter;stroke-opacity:1" d="M 474.508,478.878 489.075,484.705 z" id="boundary" inkscape:connector-curvature="0" />
	<path style="fill:none;stroke:red;stroke-width:1px;stroke-linecap:butt;stroke-linejoin:miter;stroke-opacity:1" d="M 489.075,484.705 499.272,496.358 z" id="boundary" inkscape:connector-curvature="0" />
	<path style="fill:none;stroke:red;stroke-width:1px;stroke-linecap:butt;stroke-linejoin:miter;stroke-opacity:1" d="M 474.508,478.878 461.398,471.595 z" id="boundary" inkscape:connector-curvature="0" />
	<path style="fill:none;stroke:red;stroke-width:1px;stroke-linecap:butt;stroke-linejoin:miter;stroke-opacity:1" d="M 499.272,496.358 506.555,509.468 z" id="boundary" inkscape:connector-curvature="0" />
	<path style="fill:none;stroke:red;stroke-width:1px;stroke-linecap:butt;stroke-linejoin:miter;stroke-opacity:1" d="M 513.838,522.579 506.555,509.468 z" id="boundary" inkscape:connector-curvature="0" />
	<path style="fill:none;stroke:red;stroke-width:1px;stroke-linecap:butt;stroke-linejoin:miter;stroke-opacity:1" d="M 518.209,207.935 532.775,207.935 z" id="boundary" inkscape:connector-curvature="0" />
	<path style="fill:none;stroke:red;stroke-width:1px;stroke-linecap:butt;stroke-linejoin:miter;stroke-opacity:1" d="M 522.579,534.232 513.838,522.579 z" id="boundary" inkscape:connector-curvature="0" />
	<path style="fill:none;stroke:red;stroke-width:1px;stroke-linecap:butt;stroke-linejoin:miter;stroke-opacity:1" d="M 534.232,544.429 522.579,534.232 z" id="boundary" inkscape:connector-curvature="0" />
	<path style="fill:none;stroke:red;stroke-width:1px;stroke-linecap:butt;stroke-linejoin:miter;stroke-opacity:1" d="M 537.145,675.53 529.862,697.38 z" id="boundary" inkscape:connector-curvature="0" />
	<path style="fill:none;stroke:red;stroke-width:1px;stroke-linecap:butt;stroke-linejoin:miter;stroke-opacity:1" d="M 521.122,656.593 513.838,678.443 z" id="boundary" inkscape:connector-curvature="0" />
	<path style="fill:none;stroke:red;stroke-width:1px;stroke-linecap:butt;stroke-linejoin:miter;stroke-opacity:1" d="M 521.122,656.593 528.405,634.743 z" id="boundary" inkscape:connector-curvature="0" />
	<path style="fill:none;stroke:red;stroke-width:1px;stroke-linecap:butt;stroke-linejoin:miter;stroke-opacity:1" d="M 459.941,768.758 474.508,761.474 z" id="boundary" inkscape:connector-curvature="0" />
	<path style="fill:none;stroke:red;stroke-width:1px;stroke-linecap:butt;stroke-linejoin:miter;stroke-opacity:1" d="M 512.382,767.301 500.728,777.498 z" id="boundary" inkscape:connector-curvature="0" />
	<path style="fill:none;stroke:red;stroke-width:1px;stroke-linecap:butt;stroke-linejoin:miter;stroke-opacity:1" d="M 499.272,729.427 489.075,754.191 z" id="boundary" inkscape:connector-curvature="0" />
	<path style="fill:none;stroke:red;stroke-width:1px;stroke-linecap:butt;stroke-linejoin:miter;stroke-opacity:1" d="M 489.075,754.191 474.508,761.474 z" id="boundary" inkscape:connector-curvature="0" />
	<path style="fill:none;stroke:red;stroke-width:1px;stroke-linecap:butt;stroke-linejoin:miter;stroke-opacity:1" d="M 474.508,792.065 459.941,790.608 z" id="boundary" inkscape:connector-curvature="0" />
	<path style="fill:none;stroke:red;stroke-width:1px;stroke-linecap:butt;stroke-linejoin:miter;stroke-opacity:1" d="M 489.075,790.608 500.728,777.498 z" id="boundary" inkscape:connector-curvature="0" />
	<path style="fill:none;stroke:red;stroke-width:1px;stroke-linecap:butt;stroke-linejoin:miter;stroke-opacity:1" d="M 489.075,790.608 474.508,792.065 z" id="boundary" inkscape:connector-curvature="0" />
	<path style="fill:none;stroke:red;stroke-width:1px;stroke-linecap:butt;stroke-linejoin:miter;stroke-opacity:1" d="M 459.941,790.608 448.288,780.411 z" id="boundary" inkscape:connector-curvature="0" />
	<path style="fill:none;stroke:red;stroke-width:1px;stroke-linecap:butt;stroke-linejoin:miter;stroke-opacity:1" d="M 506.555,700.294 506.555,714.86 z" id="boundary" inkscape:connector-curvature="0" />
	<path style="fill:none;stroke:red;stroke-width:1px;stroke-linecap:butt;stroke-linejoin:miter;stroke-opacity:1" d="M 506.555,714.86 499.272,729.427 z" id="boundary" inkscape:connector-curvature="0" />
	<path style="fill:none;stroke:red;stroke-width:1px;stroke-linecap:butt;stroke-linejoin:miter;stroke-opacity:1" d="M 529.862,697.38 529.862,711.947 z" id="boundary" inkscape:connector-curvature="0" />
	<path style="fill:none;stroke:red;stroke-width:1px;stroke-linecap:butt;stroke-linejoin:miter;stroke-opacity:1" d="M 506.555,700.294 513.838,678.443 z" id="boundary" inkscape:connector-curvature="0" />
	<path style="fill:none;stroke:red;stroke-width:1px;stroke-linecap:butt;stroke-linejoin:miter;stroke-opacity:1" d="M 529.862,711.947 529.862,726.514 z" id="boundary" inkscape:connector-curvature="0" />
	<path style="fill:none;stroke:red;stroke-width:1px;stroke-linecap:butt;stroke-linejoin:miter;stroke-opacity:1" d="M 512.382,767.301 522.579,755.648 z" id="boundary" inkscape:connector-curvature="0" />
	<path style="fill:none;stroke:red;stroke-width:1px;stroke-linecap:butt;stroke-linejoin:miter;stroke-opacity:1" d="M 529.862,741.081 522.579,755.648 z" id="boundary" inkscape:connector-curvature="0" />
	<path style="fill:none;stroke:red;stroke-width:1px;stroke-linecap:butt;stroke-linejoin:miter;stroke-opacity:1" d="M 529.862,741.081 529.862,726.514 z" id="boundary" inkscape:connector-curvature="0" />
	<path style="fill:none;stroke:red;stroke-width:1px;stroke-linecap:butt;stroke-linejoin:miter;stroke-opacity:1" d="M 534.232,544.429 535.689,558.996 z" id="boundary" inkscape:connector-curvature="0" />
	<path style="fill:none;stroke:red;stroke-width:1px;stroke-linecap:butt;stroke-linejoin:miter;stroke-opacity:1" d="M 547.342,207.935 561.909,207.935 z" id="boundary" inkscape:connector-curvature="0" />
	<path style="fill:none;stroke:red;stroke-width:1px;stroke-linecap:butt;stroke-linejoin:miter;stroke-opacity:1" d="M 576.476,207.935 561.909,207.935 z" id="boundary" inkscape:connector-curvature="0" />
	<path style="fill:none;stroke:red;stroke-width:1px;stroke-linecap:butt;stroke-linejoin:miter;stroke-opacity:1" d="M 576.476,207.935 589.586,215.219 z" id="boundary" inkscape:connector-curvature="0" />
	<path style="fill:none;stroke:red;stroke-width:1px;stroke-linecap:butt;stroke-linejoin:miter;stroke-opacity:1" d="M 589.586,215.219 604.153,215.219 z" id="boundary" inkscape:connector-curvature="0" />
	<path style="fill:none;stroke:red;stroke-width:1px;stroke-linecap:butt;stroke-linejoin:miter;stroke-opacity:1" d="M 618.72,215.219 631.83,222.502 z" id="boundary" inkscape:connector-curvature="0" />
	<path style="fill:none;stroke:red;stroke-width:1px;stroke-linecap:butt;stroke-linejoin:miter;stroke-opacity:1" d="M 604.153,215.219 618.72,215.219 z" id="boundary" inkscape:connector-curvature="0" />
	<path style="fill:none;stroke:red;stroke-width:1px;stroke-linecap:butt;stroke-linejoin:miter;stroke-opacity:1" d="M 646.396,222.502 631.83,222.502 z" id="boundary" inkscape:connector-curvature="0" />
	<path style="fill:none;stroke:red;stroke-width:1px;stroke-linecap:butt;stroke-linejoin:miter;stroke-opacity:1" d="M 646.396,222.502 659.507,229.786 z" id="boundary" inkscape:connector-curvature="0" />
	<path style="fill:none;stroke:red;stroke-width:1px;stroke-linecap:butt;stroke-linejoin:miter;stroke-opacity:1" d="M 672.617,237.069 687.184,238.526 z" id="boundary" inkscape:connector-curvature="0" />
	<path style="fill:none;stroke:red;stroke-width:1px;stroke-linecap:butt;stroke-linejoin:miter;stroke-opacity:1" d="M 687.184,238.526 700.294,245.809 z" id="boundary" inkscape:connector-curvature="0" />
	<path style="fill:none;stroke:red;stroke-width:1px;stroke-linecap:butt;stroke-linejoin:miter;stroke-opacity:1" d="M 672.617,237.069 659.507,229.786 z" id="boundary" inkscape:connector-curvature="0" />
	<path style="fill:none;stroke:red;stroke-width:1px;stroke-linecap:butt;stroke-linejoin:miter;stroke-opacity:1" d="M 700.294,245.809 711.947,256.006 z" id="boundary" inkscape:connector-curvature="0" />
	<path style="fill:none;stroke:red;stroke-width:1px;stroke-linecap:butt;stroke-linejoin:miter;stroke-opacity:1" d="M 726.514,258.919 711.947,256.006 z" id="boundary" inkscape:connector-curvature="0" />
	<path style="fill:none;stroke:red;stroke-width:1px;stroke-linecap:butt;stroke-linejoin:miter;stroke-opacity:1" d="M 726.514,258.919 739.624,266.203 z" id="boundary" inkscape:connector-curvature="0" />
	<path style="fill:none;stroke:red;stroke-width:1px;stroke-linecap:butt;stroke-linejoin:miter;stroke-opacity:1" d="M 754.191,269.116 739.624,266.203 z" id="boundary" inkscape:connector-curvature="0" />
	<path style="fill:none;stroke:red;stroke-width:1px;stroke-linecap:butt;stroke-linejoin:miter;stroke-opacity:1" d="M 717.774,474.508 710.49,489.075 z" id="boundary" inkscape:connector-curvature="0" />
	<path style="fill:none;stroke:red;stroke-width:1px;stroke-linecap:butt;stroke-linejoin:miter;stroke-opacity:1" d="M 710.49,489.075 695.924,493.445 z" id="boundary" inkscape:connector-curvature="0" />
	<path style="fill:none;stroke:red;stroke-width:1px;stroke-linecap:butt;stroke-linejoin:miter;stroke-opacity:1" d="M 729.427,464.311 717.774,474.508 z" id="boundary" inkscape:connector-curvature="0" />
	<path style="fill:none;stroke:red;stroke-width:1px;stroke-linecap:butt;stroke-linejoin:miter;stroke-opacity:1" d="M 729.427,464.311 743.994,462.855 z" id="boundary" inkscape:connector-curvature="0" />
	<path style="fill:none;stroke:red;stroke-width:1px;stroke-linecap:butt;stroke-linejoin:miter;stroke-opacity:1" d="M 550.256,493.445 563.366,500.728 z" id="boundary" inkscape:connector-curvature="0" />
	<path style="fill:none;stroke:red;stroke-width:1px;stroke-linecap:butt;stroke-linejoin:miter;stroke-opacity:1" d="M 537.145,515.295 537.145,500.728 z" id="boundary" inkscape:connector-curvature="0" />
	<path style="fill:none;stroke:red;stroke-width:1px;stroke-linecap:butt;stroke-linejoin:miter;stroke-opacity:1" d="M 537.145,500.728 550.256,493.445 z" id="boundary" inkscape:connector-curvature="0" />
	<path style="fill:none;stroke:red;stroke-width:1px;stroke-linecap:butt;stroke-linejoin:miter;stroke-opacity:1" d="M 577.932,500.728 563.366,500.728 z" id="boundary" inkscape:connector-curvature="0" />
	<path style="fill:none;stroke:red;stroke-width:1px;stroke-linecap:butt;stroke-linejoin:miter;stroke-opacity:1" d="M 754.191,269.116 767.301,276.399 z" id="boundary" inkscape:connector-curvature="0" />
	<path style="fill:none;stroke:red;stroke-width:1px;stroke-linecap:butt;stroke-linejoin:miter;stroke-opacity:1" d="M 767.301,276.399 777.498,288.053 z" id="boundary" inkscape:connector-curvature="0" />
	<path style="fill:none;stroke:red;stroke-width:1px;stroke-linecap:butt;stroke-linejoin:miter;stroke-opacity:1" d="M 792.065,288.053 777.498,288.053 z" id="boundary" inkscape:connector-curvature="0" />
	<path style="fill:none;stroke:red;stroke-width:1px;stroke-linecap:butt;stroke-linejoin:miter;stroke-opacity:1" d="M 758.561,457.028 743.994,462.855 z" id="boundary" inkscape:connector-curvature="0" />
	<path style="fill:none;stroke:red;stroke-width:1px;stroke-linecap:butt;stroke-linejoin:miter;stroke-opacity:1" d="M 758.561,457.028 771.671,449.744 z" id="boundary" inkscape:connector-curvature="0" />
	<path style="fill:none;stroke:red;stroke-width:1px;stroke-linecap:butt;stroke-linejoin:miter;stroke-opacity:1" d="M 784.781,442.461 771.671,449.744 z" id="boundary" inkscape:connector-curvature="0" />
	<path style="fill:none;stroke:red;stroke-width:1px;stroke-linecap:butt;stroke-linejoin:miter;stroke-opacity:1" d="M 792.065,288.053 805.175,295.336 z" id="boundary" inkscape:connector-curvature="0" />
	<path style="fill:none;stroke:red;stroke-width:1px;stroke-linecap:butt;stroke-linejoin:miter;stroke-opacity:1" d="M 784.781,442.461 799.348,442.461 z" id="boundary" inkscape:connector-curvature="0" />
	<path style="fill:none;stroke:red;stroke-width:1px;stroke-linecap:butt;stroke-linejoin:miter;stroke-opacity:1" d="M 818.285,302.62 805.175,295.336 z" id="boundary" inkscape:connector-curvature="0" />
	<path style="fill:none;stroke:red;stroke-width:1px;stroke-linecap:butt;stroke-linejoin:miter;stroke-opacity:1" d="M 831.395,309.903 818.285,302.62 z" id="boundary" inkscape:connector-curvature="0" />
	<path style="fill:none;stroke:red;stroke-width:1px;stroke-linecap:butt;stroke-linejoin:miter;stroke-opacity:1" d="M 845.962,309.903 831.395,309.903 z" id="boundary" inkscape:connector-curvature="0" />
	<path style="fill:none;stroke:red;stroke-width:1px;stroke-linecap:butt;stroke-linejoin:miter;stroke-opacity:1" d="M 845.962,309.903 859.072,317.186 z" id="boundary" inkscape:connector-curvature="0" />
	<path style="fill:none;stroke:red;stroke-width:1px;stroke-linecap:butt;stroke-linejoin:miter;stroke-opacity:1" d="M 873.639,317.186 859.072,317.186 z" id="boundary" inkscape:connector-curvature="0" />
	<path style="fill:none;stroke:red;stroke-width:1px;stroke-linecap:butt;stroke-linejoin:miter;stroke-opacity:1" d="M 873.639,317.186 886.749,324.47 z" id="boundary" inkscape:connector-curvature="0" />
	<path style="fill:none;stroke:red;stroke-width:1px;stroke-linecap:butt;stroke-linejoin:miter;stroke-opacity:1" d="M 901.316,324.47 886.749,324.47 z" id="boundary" inkscape:connector-curvature="0" />
	<path style="fill:none;stroke:red;stroke-width:1px;stroke-linecap:butt;stroke-linejoin:miter;stroke-opacity:1" d="M 901.316,324.47 915.883,324.47 z" id="boundary" inkscape:connector-curvature="0" />
	<path style="fill:none;stroke:red;stroke-width:1px;stroke-linecap:butt;stroke-linejoin:miter;stroke-opacity:1" d="M 930.449,324.47 945.016,324.47 z" id="boundary" inkscape:connector-curvature="0" />
	<path style="fill:none;stroke:red;stroke-width:1px;stroke-linecap:butt;stroke-linejoin:miter;stroke-opacity:1" d="M 930.449,324.47 915.883,324.47 z" id="boundary" inkscape:connector-curvature="0" />
	<path style="fill:none;stroke:red;stroke-width:1px;stroke-linecap:butt;stroke-linejoin:miter;stroke-opacity:1" d="M 959.583,324.47 974.15,324.47 z" id="boundary" inkscape:connector-curvature="0" />
	<path style="fill:none;stroke:red;stroke-width:1px;stroke-linecap:butt;stroke-linejoin:miter;stroke-opacity:1" d="M 959.583,324.47 945.016,324.47 z" id="boundary" inkscape:connector-curvature="0" />
	<path style="fill:none;stroke:red;stroke-width:1px;stroke-linecap:butt;stroke-linejoin:miter;stroke-opacity:1" d="M 988.717,328.84 996,347.777 z" id="boundary" inkscape:connector-curvature="0" />
	<path style="fill:none;stroke:red;stroke-width:1px;stroke-linecap:butt;stroke-linejoin:miter;stroke-opacity:1" d="M 974.15,324.47 988.717,328.84 z" id="boundary" inkscape:connector-curvature="0" />
	<path style="fill:none;stroke:red;stroke-width:1px;stroke-linecap:butt;stroke-linejoin:miter;stroke-opacity:1" d="M 853.245,420.611 867.812,420.611 z" id="boundary" inkscape:connector-curvature="0" />
	<path style="fill:none;stroke:red;stroke-width:1px;stroke-linecap:butt;stroke-linejoin:miter;stroke-opacity:1" d="M 840.135,427.894 853.245,420.611 z" id="boundary" inkscape:connector-curvature="0" />
	<path style="fill:none;stroke:red;stroke-width:1px;stroke-linecap:butt;stroke-linejoin:miter;stroke-opacity:1" d="M 880.922,413.327 867.812,420.611 z" id="boundary" inkscape:connector-curvature="0" />
	<path style="fill:none;stroke:red;stroke-width:1px;stroke-linecap:butt;stroke-linejoin:miter;stroke-opacity:1" d="M 880.922,413.327 894.032,406.044 z" id="boundary" inkscape:connector-curvature="0" />
	<path style="fill:none;stroke:red;stroke-width:1px;stroke-linecap:butt;stroke-linejoin:miter;stroke-opacity:1" d="M 894.032,406.044 908.599,406.044 z" id="boundary" inkscape:connector-curvature="0" />
	<path style="fill:none;stroke:red;stroke-width:1px;stroke-linecap:butt;stroke-linejoin:miter;stroke-opacity:1" d="M 799.348,442.461 812.458,435.178 z" id="boundary" inkscape:connector-curvature="0" />
	<path style="fill:none;stroke:red;stroke-width:1px;stroke-linecap:butt;stroke-linejoin:miter;stroke-opacity:1" d="M 825.568,427.894 840.135,427.894 z" id="boundary" inkscape:connector-curvature="0" />
	<path style="fill:none;stroke:red;stroke-width:1px;stroke-linecap:butt;stroke-linejoin:miter;stroke-opacity:1" d="M 812.458,435.178 825.568,427.894 z" id="boundary" inkscape:connector-curvature="0" />
	<path style="fill:none;stroke:red;stroke-width:1px;stroke-linecap:butt;stroke-linejoin:miter;stroke-opacity:1" d="M 962.496,384.194 977.063,384.194 z" id="boundary" inkscape:connector-curvature="0" />
	<path style="fill:none;stroke:red;stroke-width:1px;stroke-linecap:butt;stroke-linejoin:miter;stroke-opacity:1" d="M 947.93,390.021 962.496,384.194 z" id="boundary" inkscape:connector-curvature="0" />
	<path style="fill:none;stroke:red;stroke-width:1px;stroke-linecap:butt;stroke-linejoin:miter;stroke-opacity:1" d="M 996,362.344 990.173,376.91 z" id="boundary" inkscape:connector-curvature="0" />
	<path style="fill:none;stroke:red;stroke-width:1px;stroke-linecap:butt;stroke-linejoin:miter;stroke-opacity:1" d="M 990.173,376.91 977.063,384.194 z" id="boundary" inkscape:connector-curvature="0" />
	<path style="fill:none;stroke:red;stroke-width:1px;stroke-linecap:butt;stroke-linejoin:miter;stroke-opacity:1" d="M 908.599,406.044 921.709,398.761 z" id="boundary" inkscape:connector-curvature="0" />
	<path style="fill:none;stroke:red;stroke-width:1px;stroke-linecap:butt;stroke-linejoin:miter;stroke-opacity:1" d="M 921.709,398.761 936.276,398.761 z" id="boundary" inkscape:connector-curvature="0" />
	<path style="fill:none;stroke:red;stroke-width:1px;stroke-linecap:butt;stroke-linejoin:miter;stroke-opacity:1" d="M 936.276,398.761 947.93,390.021 z" id="boundary" inkscape:connector-curvature="0" />
	<path style="fill:none;stroke:red;stroke-width:1px;stroke-linecap:butt;stroke-linejoin:miter;stroke-opacity:1" d="M 996,347.777 996,362.344 z" id="boundary" inkscape:connector-curvature="0" />
	<path style="fill:none;stroke:red;stroke-width:1px;stroke-linecap:butt;stroke-linejoin:miter;stroke-opacity:1" d="M 544.429,528.405 537.145,515.295 z" id="boundary" inkscape:connector-curvature="0" />
	<path style="fill:none;stroke:red;stroke-width:1px;stroke-linecap:butt;stroke-linejoin:miter;stroke-opacity:1" d="M 577.932,500.728 591.043,508.012 z" id="boundary" inkscape:connector-curvature="0" />
	<path style="fill:none;stroke:red;stroke-width:1px;stroke-linecap:butt;stroke-linejoin:miter;stroke-opacity:1" d="M 551.712,541.515 544.429,528.405 z" id="boundary" inkscape:connector-curvature="0" />
	<path style="fill:none;stroke:red;stroke-width:1px;stroke-linecap:butt;stroke-linejoin:miter;stroke-opacity:1" d="M 551.712,541.515 551.712,556.082 z" id="boundary" inkscape:connector-curvature="0" />
	<path style="fill:none;stroke:red;stroke-width:1px;stroke-linecap:butt;stroke-linejoin:miter;stroke-opacity:1" d="M 542.972,572.106 535.689,558.996 z" id="boundary" inkscape:connector-curvature="0" />
	<path style="fill:none;stroke:red;stroke-width:1px;stroke-linecap:butt;stroke-linejoin:miter;stroke-opacity:1" d="M 563.366,566.279 551.712,556.082 z" id="boundary" inkscape:connector-curvature="0" />
	<path style="fill:none;stroke:red;stroke-width:1px;stroke-linecap:butt;stroke-linejoin:miter;stroke-opacity:1" d="M 591.043,508.012 605.609,508.012 z" id="boundary" inkscape:connector-curvature="0" />
	<path style="fill:none;stroke:red;stroke-width:1px;stroke-linecap:butt;stroke-linejoin:miter;stroke-opacity:1" d="M 566.279,580.846 563.366,566.279 z" id="boundary" inkscape:connector-curvature="0" />
	<path style="fill:none;stroke:red;stroke-width:1px;stroke-linecap:butt;stroke-linejoin:miter;stroke-opacity:1" d="M 620.176,508.012 605.609,508.012 z" id="boundary" inkscape:connector-curvature="0" />
	<path style="fill:none;stroke:red;stroke-width:1px;stroke-linecap:butt;stroke-linejoin:miter;stroke-opacity:1" d="M 634.743,508.012 649.31,508.012 z" id="boundary" inkscape:connector-curvature="0" />
	<path style="fill:none;stroke:red;stroke-width:1px;stroke-linecap:butt;stroke-linejoin:miter;stroke-opacity:1" d="M 649.31,508.012 660.963,518.209 z" id="boundary" inkscape:connector-curvature="0" />
	<path style="fill:none;stroke:red;stroke-width:1px;stroke-linecap:butt;stroke-linejoin:miter;stroke-opacity:1" d="M 634.743,508.012 620.176,508.012 z" id="boundary" inkscape:connector-curvature="0" />
	<path style="fill:none;stroke:red;stroke-width:1px;stroke-linecap:butt;stroke-linejoin:miter;stroke-opacity:1" d="M 660.963,518.209 671.16,529.862 z" id="boundary" inkscape:connector-curvature="0" />
	<path style="fill:none;stroke:red;stroke-width:1px;stroke-linecap:butt;stroke-linejoin:miter;stroke-opacity:1" d="M 671.16,529.862 674.073,544.429 z" id="boundary" inkscape:connector-curvature="0" />
	<path style="fill:none;stroke:red;stroke-width:1px;stroke-linecap:butt;stroke-linejoin:miter;stroke-opacity:1" d="M 674.073,544.429 674.073,558.996 z" id="boundary" inkscape:connector-curvature="0" />
	<path style="fill:none;stroke:red;stroke-width:1px;stroke-linecap:butt;stroke-linejoin:miter;stroke-opacity:1" d="M 535.689,605.609 535.689,620.176 z" id="boundary" inkscape:connector-curvature="0" />
	<path style="fill:none;stroke:red;stroke-width:1px;stroke-linecap:butt;stroke-linejoin:miter;stroke-opacity:1" d="M 535.689,620.176 528.405,634.743 z" id="boundary" inkscape:connector-curvature="0" />
	<path style="fill:none;stroke:red;stroke-width:1px;stroke-linecap:butt;stroke-linejoin:miter;stroke-opacity:1" d="M 558.996,609.979 551.712,631.83 z" id="boundary" inkscape:connector-curvature="0" />
	<path style="fill:none;stroke:red;stroke-width:1px;stroke-linecap:butt;stroke-linejoin:miter;stroke-opacity:1" d="M 542.972,586.673 535.689,605.609 z" id="boundary" inkscape:connector-curvature="0" />
	<path style="fill:none;stroke:red;stroke-width:1px;stroke-linecap:butt;stroke-linejoin:miter;stroke-opacity:1" d="M 542.972,572.106 542.972,586.673 z" id="boundary" inkscape:connector-curvature="0" />
	<path style="fill:none;stroke:red;stroke-width:1px;stroke-linecap:butt;stroke-linejoin:miter;stroke-opacity:1" d="M 544.429,660.963 537.145,675.53 z" id="boundary" inkscape:connector-curvature="0" />
	<path style="fill:none;stroke:red;stroke-width:1px;stroke-linecap:butt;stroke-linejoin:miter;stroke-opacity:1" d="M 544.429,646.396 544.429,660.963 z" id="boundary" inkscape:connector-curvature="0" />
	<path style="fill:none;stroke:red;stroke-width:1px;stroke-linecap:butt;stroke-linejoin:miter;stroke-opacity:1" d="M 544.429,646.396 551.712,631.83 z" id="boundary" inkscape:connector-curvature="0" />
	<path style="fill:none;stroke:red;stroke-width:1px;stroke-linecap:butt;stroke-linejoin:miter;stroke-opacity:1" d="M 566.279,595.413 558.996,609.979 z" id="boundary" inkscape:connector-curvature="0" />
	<path style="fill:none;stroke:red;stroke-width:1px;stroke-linecap:butt;stroke-linejoin:miter;stroke-opacity:1" d="M 566.279,580.846 566.279,595.413 z" id="boundary" inkscape:connector-curvature="0" />
	<path style="fill:none;stroke:red;stroke-width:1px;stroke-linecap:butt;stroke-linejoin:miter;stroke-opacity:1" d="M 652.223,773.128 652.223,787.695 z" id="boundary" inkscape:connector-curvature="0" />
	<path style="fill:none;stroke:red;stroke-width:1px;stroke-linecap:butt;stroke-linejoin:miter;stroke-opacity:1" d="M 666.79,792.065 652.223,787.695 z" id="boundary" inkscape:connector-curvature="0" />
	<path style="fill:none;stroke:red;stroke-width:1px;stroke-linecap:butt;stroke-linejoin:miter;stroke-opacity:1" d="M 652.223,773.128 663.877,761.474 z" id="boundary" inkscape:connector-curvature="0" />
	<path style="fill:none;stroke:red;stroke-width:1px;stroke-linecap:butt;stroke-linejoin:miter;stroke-opacity:1" d="M 681.357,792.065 666.79,792.065 z" id="boundary" inkscape:connector-curvature="0" />
	<path style="fill:none;stroke:red;stroke-width:1px;stroke-linecap:butt;stroke-linejoin:miter;stroke-opacity:1" d="M 671.16,746.907 663.877,761.474 z" id="boundary" inkscape:connector-curvature="0" />
	<path style="fill:none;stroke:red;stroke-width:1px;stroke-linecap:butt;stroke-linejoin:miter;stroke-opacity:1" d="M 674.073,558.996 674.073,573.562 z" id="boundary" inkscape:connector-curvature="0" />
	<path style="fill:none;stroke:red;stroke-width:1px;stroke-linecap:butt;stroke-linejoin:miter;stroke-opacity:1" d="M 690.097,513.838 697.38,526.949 z" id="boundary" inkscape:connector-curvature="0" />
	<path style="fill:none;stroke:red;stroke-width:1px;stroke-linecap:butt;stroke-linejoin:miter;stroke-opacity:1" d="M 682.814,500.728 690.097,513.838 z" id="boundary" inkscape:connector-curvature="0" />
	<path style="fill:none;stroke:red;stroke-width:1px;stroke-linecap:butt;stroke-linejoin:miter;stroke-opacity:1" d="M 697.38,541.515 697.38,556.082 z" id="boundary" inkscape:connector-curvature="0" />
	<path style="fill:none;stroke:red;stroke-width:1px;stroke-linecap:butt;stroke-linejoin:miter;stroke-opacity:1" d="M 682.814,500.728 695.924,493.445 z" id="boundary" inkscape:connector-curvature="0" />
	<path style="fill:none;stroke:red;stroke-width:1px;stroke-linecap:butt;stroke-linejoin:miter;stroke-opacity:1" d="M 674.073,588.129 674.073,573.562 z" id="boundary" inkscape:connector-curvature="0" />
	<path style="fill:none;stroke:red;stroke-width:1px;stroke-linecap:butt;stroke-linejoin:miter;stroke-opacity:1" d="M 681.357,601.239 674.073,588.129 z" id="boundary" inkscape:connector-curvature="0" />
	<path style="fill:none;stroke:red;stroke-width:1px;stroke-linecap:butt;stroke-linejoin:miter;stroke-opacity:1" d="M 688.64,614.349 688.64,628.916 z" id="boundary" inkscape:connector-curvature="0" />
	<path style="fill:none;stroke:red;stroke-width:1px;stroke-linecap:butt;stroke-linejoin:miter;stroke-opacity:1" d="M 681.357,601.239 688.64,614.349 z" id="boundary" inkscape:connector-curvature="0" />
	<path style="fill:none;stroke:red;stroke-width:1px;stroke-linecap:butt;stroke-linejoin:miter;stroke-opacity:1" d="M 688.64,628.916 688.64,643.483 z" id="boundary" inkscape:connector-curvature="0" />
	<path style="fill:none;stroke:red;stroke-width:1px;stroke-linecap:butt;stroke-linejoin:miter;stroke-opacity:1" d="M 697.38,526.949 697.38,541.515 z" id="boundary" inkscape:connector-curvature="0" />
	<path style="fill:none;stroke:red;stroke-width:1px;stroke-linecap:butt;stroke-linejoin:miter;stroke-opacity:1" d="M 697.38,556.082 697.38,570.649 z" id="boundary" inkscape:connector-curvature="0" />
	<path style="fill:none;stroke:red;stroke-width:1px;stroke-linecap:butt;stroke-linejoin:miter;stroke-opacity:1" d="M 697.38,570.649 697.38,585.216 z" id="boundary" inkscape:connector-curvature="0" />
	<path style="fill:none;stroke:red;stroke-width:1px;stroke-linecap:butt;stroke-linejoin:miter;stroke-opacity:1" d="M 704.664,598.326 697.38,585.216 z" id="boundary" inkscape:connector-curvature="0" />
	<path style="fill:none;stroke:red;stroke-width:1px;stroke-linecap:butt;stroke-linejoin:miter;stroke-opacity:1" d="M 704.664,598.326 704.664,612.893 z" id="boundary" inkscape:connector-curvature="0" />
	<path style="fill:none;stroke:red;stroke-width:1px;stroke-linecap:butt;stroke-linejoin:miter;stroke-opacity:1" d="M 710.49,642.026 704.664,627.46 z" id="boundary" inkscape:connector-curvature="0" />
	<path style="fill:none;stroke:red;stroke-width:1px;stroke-linecap:butt;stroke-linejoin:miter;stroke-opacity:1" d="M 704.664,627.46 704.664,612.893 z" id="boundary" inkscape:connector-curvature="0" />
	<path style="fill:none;stroke:red;stroke-width:1px;stroke-linecap:butt;stroke-linejoin:miter;stroke-opacity:1" d="M 695.924,672.617 690.097,658.05 z" id="boundary" inkscape:connector-curvature="0" />
	<path style="fill:none;stroke:red;stroke-width:1px;stroke-linecap:butt;stroke-linejoin:miter;stroke-opacity:1" d="M 695.924,672.617 695.924,687.184 z" id="boundary" inkscape:connector-curvature="0" />
	<path style="fill:none;stroke:red;stroke-width:1px;stroke-linecap:butt;stroke-linejoin:miter;stroke-opacity:1" d="M 690.097,658.05 688.64,643.483 z" id="boundary" inkscape:connector-curvature="0" />
	<path style="fill:none;stroke:red;stroke-width:1px;stroke-linecap:butt;stroke-linejoin:miter;stroke-opacity:1" d="M 693.01,783.325 681.357,792.065 z" id="boundary" inkscape:connector-curvature="0" />
	<path style="fill:none;stroke:red;stroke-width:1px;stroke-linecap:butt;stroke-linejoin:miter;stroke-opacity:1" d="M 671.16,746.907 682.814,735.254 z" id="boundary" inkscape:connector-curvature="0" />
	<path style="fill:none;stroke:red;stroke-width:1px;stroke-linecap:butt;stroke-linejoin:miter;stroke-opacity:1" d="M 700.294,768.758 693.01,783.325 z" id="boundary" inkscape:connector-curvature="0" />
	<path style="fill:none;stroke:red;stroke-width:1px;stroke-linecap:butt;stroke-linejoin:miter;stroke-opacity:1" d="M 682.814,735.254 688.64,714.86 z" id="boundary" inkscape:connector-curvature="0" />
	<path style="fill:none;stroke:red;stroke-width:1px;stroke-linecap:butt;stroke-linejoin:miter;stroke-opacity:1" d="M 695.924,687.184 695.924,701.75 z" id="boundary" inkscape:connector-curvature="0" />
	<path style="fill:none;stroke:red;stroke-width:1px;stroke-linecap:butt;stroke-linejoin:miter;stroke-opacity:1" d="M 695.924,701.75 688.64,714.86 z" id="boundary" inkscape:connector-curvature="0" />
	<path style="fill:none;stroke:red;stroke-width:1px;stroke-linecap:butt;stroke-linejoin:miter;stroke-opacity:1" d="M 717.774,671.16 719.231,685.727 z" id="boundary" inkscape:connector-curvature="0" />
	<path style="fill:none;stroke:red;stroke-width:1px;stroke-linecap:butt;stroke-linejoin:miter;stroke-opacity:1" d="M 711.947,656.593 717.774,671.16 z" id="boundary" inkscape:connector-curvature="0" />
	<path style="fill:none;stroke:red;stroke-width:1px;stroke-linecap:butt;stroke-linejoin:miter;stroke-opacity:1" d="M 711.947,656.593 710.49,642.026 z" id="boundary" inkscape:connector-curvature="0" />
	<path style="fill:none;stroke:red;stroke-width:1px;stroke-linecap:butt;stroke-linejoin:miter;stroke-opacity:1" d="M 719.231,685.727 711.947,711.947 z" id="boundary" inkscape:connector-curvature="0" />
	<path style="fill:none;stroke:red;stroke-width:1px;stroke-linecap:butt;stroke-linejoin:miter;stroke-opacity:1" d="M 700.294,768.758 704.664,741.081 z" id="boundary" inkscape:connector-curvature="0" />
	<path style="fill:none;stroke:red;stroke-width:1px;stroke-linecap:butt;stroke-linejoin:miter;stroke-opacity:1" d="M 704.664,741.081 711.947,726.514 z" id="boundary" inkscape:connector-curvature="0" />
	<path style="fill:none;stroke:red;stroke-width:1px;stroke-linecap:butt;stroke-linejoin:miter;stroke-opacity:1" d="M 711.947,726.514 711.947,711.947 z" id="boundary" inkscape:connector-curvature="0" />
	<circle cx="4" cy="212.305" r="4" fill="#0" id="circle0"/>
	<circle cx="11.2834" cy="197.739" r="4" fill="#0" id="circle1"/>
	<circle cx="12.7401" cy="223.959" r="4" fill="#0" id="circle2"/>
	<circle cx="22.9369" cy="186.085" r="4" fill="#0" id="circle3"/>
	<circle cx="24.3935" cy="213.762" r="4" fill="#0" id="circle4"/>
	<circle cx="34.5903" cy="174.432" r="4" fill="#0" id="circle5"/>
	<circle cx="34.5903" cy="202.109" r="4" fill="#0" id="circle6"/>
	<circle cx="46.2438" cy="164.235" r="4" fill="#0" id="circle7"/>
	<circle cx="49.1571" cy="187.542" r="4" fill="#0" id="circle8"/>
	<circle cx="56.4405" cy="152.581" r="4" fill="#0" id="circle9"/>
	<circle cx="60.8106" cy="177.345" r="4" fill="#0" id="circle10"/>
	<circle cx="68.094" cy="142.385" r="4" fill="#0" id="circle11"/>
	<circle cx="71.0073" cy="165.692" r="4" fill="#0" id="circle12"/>
	<circle cx="81.2041" cy="135.101" r="4" fill="#0" id="circle13"/>
	<circle cx="82.6608" cy="155.495" r="4" fill="#0" id="circle14"/>
	<circle cx="92.8576" cy="123.448" r="4" fill="#0" id="circle15"/>
	<circle cx="97.2276" cy="148.211" r="4" fill="#0" id="circle16"/>
	<circle cx="104.511" cy="113.251" r="4" fill="#0" id="circle17"/>
	<circle cx="111.794" cy="140.928" r="4" fill="#0" id="circle18"/>
	<circle cx="117.621" cy="105.968" r="4" fill="#0" id="circle19"/>
	<circle cx="121.991" cy="129.275" r="4" fill="#0" id="circle20"/>
	<circle cx="132.188" cy="98.6843" r="4" fill="#0" id="circle21"/>
	<circle cx="136.558" cy="121.991" r="4" fill="#0" id="circle22"/>
	<circle cx="146.755" cy="91.4009" r="4" fill="#0" id="circle23"/>
	<circle cx="151.125" cy="114.708" r="4" fill="#0" id="circle24"/>
	<circle cx="161.322" cy="84.1175" r="4" fill="#0" id="circle25"/>
	<circle cx="165.692" cy="107.424" r="4" fill="#0" id="circle26"/>
	<circle cx="175.888" cy="76.8341" r="4" fill="#0" id="circle27"/>
	<circle cx="180.258" cy="107.424" r="4" fill="#0" id="circle28"/>
	<circle cx="190.455" cy="69.5507" r="4" fill="#0" id="circle29"/>
	<circle cx="193.369" cy="100.141" r="4" fill="#0" id="circle30"/>
	<circle cx="205.022" cy="62.2673" r="4" fill="#0" id="circle31"/>
	<circle cx="207.935" cy="100.141" r="4" fill="#0" id="circle32"/>
	<circle cx="215.219" cy="44.7871" r="4" fill="#0" id="circle33"/>
	<circle cx="222.502" cy="22.9369" r="4" fill="#0" id="circle34"/>
	<circle cx="222.502" cy="100.141" r="4" fill="#0" id="circle35"/>
	<circle cx="234.156" cy="11.2834" r="4" fill="#0" id="circle36"/>
	<circle cx="235.612" cy="107.424" r="4" fill="#0" id="circle37"/>
	<circle cx="248.722" cy="4" r="4" fill="#0" id="circle38"/>
	<circle cx="250.179" cy="107.424" r="4" fill="#0" id="circle39"/>
	<circle cx="258.919" cy="175.888" r="4" fill="#0" id="circle40"/>
	<circle cx="258.919" cy="190.455" r="4" fill="#0" id="circle41"/>
	<circle cx="260.376" cy="119.078" r="4" fill="#0" id="circle42"/>
	<circle cx="263.289" cy="4" r="4" fill="#0" id="circle43"/>
	<circle cx="266.203" cy="133.645" r="4" fill="#0" id="circle44"/>
	<circle cx="266.203" cy="148.211" r="4" fill="#0" id="circle45"/>
	<circle cx="266.203" cy="162.778" r="4" fill="#0" id="circle46"/>
	<circle cx="266.203" cy="203.565" r="4" fill="#0" id="circle47"/>
	<circle cx="266.203" cy="218.132" r="4" fill="#0" id="circle48"/>
	<circle cx="273.486" cy="231.242" r="4" fill="#0" id="circle49"/>
	<circle cx="273.486" cy="245.809" r="4" fill="#0" id="circle50"/>
	<circle cx="277.856" cy="4" r="4" fill="#0" id="circle51"/>
	<circle cx="277.856" cy="260.376" r="4" fill="#0" id="circle52"/>
	<circle cx="285.14" cy="273.486" r="4" fill="#0" id="circle53"/>
	<circle cx="288.053" cy="288.053" r="4" fill="#0" id="circle54"/>
	<circle cx="292.423" cy="4" r="4" fill="#0" id="circle55"/>
	<circle cx="295.336" cy="301.163" r="4" fill="#0" id="circle56"/>
	<circle cx="302.62" cy="314.273" r="4" fill="#0" id="circle57"/>
	<circle cx="306.99" cy="4" r="4" fill="#0" id="circle58"/>
	<circle cx="309.903" cy="327.383" r="4" fill="#0" id="circle59"/>
	<circle cx="317.186" cy="340.493" r="4" fill="#0" id="circle60"/>
	<circle cx="320.1" cy="11.2834" r="4" fill="#0" id="circle61"/>
	<circle cx="324.47" cy="353.604" r="4" fill="#0" id="circle62"/>
	<circle cx="331.753" cy="21.4802" r="4" fill="#0" id="circle63"/>
	<circle cx="333.21" cy="365.257" r="4" fill="#0" id="circle64"/>
	<circle cx="340.493" cy="33.1336" r="4" fill="#0" id="circle65"/>
	<circle cx="343.407" cy="376.91" r="4" fill="#0" id="circle66"/>
	<circle cx="347.777" cy="46.2438" r="4" fill="#0" id="circle67"/>
	<circle cx="347.777" cy="60.8106" r="4" fill="#0" id="circle68"/>
	<circle cx="355.06" cy="73.9207" r="4" fill="#0" id="circle69"/>
	<circle cx="355.06" cy="88.4875" r="4" fill="#0" id="circle70"/>
	<circle cx="355.06" cy="387.107" r="4" fill="#0" id="circle71"/>
	<circle cx="360.887" cy="103.054" r="4" fill="#0" id="circle72"/>
	<circle cx="362.344" cy="117.621" r="4" fill="#0" id="circle73"/>
	<circle cx="362.344" cy="132.188" r="4" fill="#0" id="circle74"/>
	<circle cx="365.257" cy="398.761" r="4" fill="#0" id="circle75"/>
	<circle cx="369.627" cy="145.298" r="4" fill="#0" id="circle76"/>
	<circle cx="369.627" cy="159.865" r="4" fill="#0" id="circle77"/>
	<circle cx="376.91" cy="408.957" r="4" fill="#0" id="circle78"/>
	<circle cx="378.367" cy="171.518" r="4" fill="#0" id="circle79"/>
	<circle cx="387.107" cy="420.611" r="4" fill="#0" id="circle80"/>
	<circle cx="390.021" cy="181.715" r="4" fill="#0" id="circle81"/>
	<circle cx="398.761" cy="430.808" r="4" fill="#0" id="circle82"/>
	<circle cx="403.131" cy="188.999" r="4" fill="#0" id="circle83"/>
	<circle cx="411.871" cy="438.091" r="4" fill="#0" id="circle84"/>
	<circle cx="417.698" cy="193.369" r="4" fill="#0" id="circle85"/>
	<circle cx="423.524" cy="448.288" r="4" fill="#0" id="circle86"/>
	<circle cx="432.264" cy="194.825" r="4" fill="#0" id="circle87"/>
	<circle cx="433.721" cy="459.941" r="4" fill="#0" id="circle88"/>
	<circle cx="446.831" cy="200.652" r="4" fill="#0" id="circle89"/>
	<circle cx="448.288" cy="464.311" r="4" fill="#0" id="circle90"/>
	<circle cx="448.288" cy="780.411" r="4" fill="#0" id="circle91"/>
	<circle cx="459.941" cy="207.935" r="4" fill="#0" id="circle92"/>
	<circle cx="459.941" cy="768.758" r="4" fill="#0" id="circle93"/>
	<circle cx="459.941" cy="790.608" r="4" fill="#0" id="circle94"/>
	<circle cx="461.398" cy="471.595" r="4" fill="#0" id="circle95"/>
	<circle cx="474.508" cy="207.935" r="4" fill="#0" id="circle96"/>
	<circle cx="474.508" cy="478.878" r="4" fill="#0" id="circle97"/>
	<circle cx="474.508" cy="761.474" r="4" fill="#0" id="circle98"/>
	<circle cx="474.508" cy="792.065" r="4" fill="#0" id="circle99"/>
	<circle cx="489.075" cy="207.935" r="4" fill="#0" id="circle100"/>
	<circle cx="489.075" cy="484.705" r="4" fill="#0" id="circle101"/>
	<circle cx="489.075" cy="754.191" r="4" fill="#0" id="circle102"/>
	<circle cx="489.075" cy="790.608" r="4" fill="#0" id="circle103"/>
	<circle cx="499.272" cy="496.358" r="4" fill="#0" id="circle104"/>
	<circle cx="499.272" cy="729.427" r="4" fill="#0" id="circle105"/>
	<circle cx="500.728" cy="777.498" r="4" fill="#0" id="circle106"/>
	<circle cx="503.642" cy="207.935" r="4" fill="#0" id="circle107"/>
	<circle cx="506.555" cy="509.468" r="4" fill="#0" id="circle108"/>
	<circle cx="506.555" cy="700.294" r="4" fill="#0" id="circle109"/>
	<circle cx="506.555" cy="714.86" r="4" fill="#0" id="circle110"/>
	<circle cx="512.382" cy="767.301" r="4" fill="#0" id="circle111"/>
	<circle cx="513.838" cy="522.579" r="4" fill="#0" id="circle112"/>
	<circle cx="513.838" cy="678.443" r="4" fill="#0" id="circle113"/>
	<circle cx="518.209" cy="207.935" r="4" fill="#0" id="circle114"/>
	<circle cx="521.122" cy="656.593" r="4" fill="#0" id="circle115"/>
	<circle cx="522.579" cy="534.232" r="4" fill="#0" id="circle116"/>
	<circle cx="522.579" cy="755.648" r="4" fill="#0" id="circle117"/>
	<circle cx="528.405" cy="634.743" r="4" fill="#0" id="circle118"/>
	<circle cx="529.862" cy="697.38" r="4" fill="#0" id="circle119"/>
	<circle cx="529.862" cy="711.947" r="4" fill="#0" id="circle120"/>
	<circle cx="529.862" cy="726.514" r="4" fill="#0" id="circle121"/>
	<circle cx="529.862" cy="741.081" r="4" fill="#0" id="circle122"/>
	<circle cx="532.775" cy="207.935" r="4" fill="#0" id="circle123"/>
	<circle cx="534.232" cy="544.429" r="4" fill="#0" id="circle124"/>
	<circle cx="535.689" cy="558.996" r="4" fill="#0" id="circle125"/>
	<circle cx="535.689" cy="605.609" r="4" fill="#0" id="circle126"/>
	<circle cx="535.689" cy="620.176" r="4" fill="#0" id="circle127"/>
	<circle cx="537.145" cy="500.728" r="4" fill="#0" id="circle128"/>
	<circle cx="537.145" cy="515.295" r="4" fill="#0" id="circle129"/>
	<circle cx="537.145" cy="675.53" r="4" fill="#0" id="circle130"/>
	<circle cx="542.972" cy="572.106" r="4" fill="#0" id="circle131"/>
	<circle cx="542.972" cy="586.673" r="4" fill="#0" id="circle132"/>
	<circle cx="544.429" cy="528.405" r="4" fill="#0" id="circle133"/>
	<circle cx="544.429" cy="646.396" r="4" fill="#0" id="circle134"/>
	<circle cx="544.429" cy="660.963" r="4" fill="#0" id="circle135"/>
	<circle cx="547.342" cy="207.935" r="4" fill="#0" id="circle136"/>
	<circle cx="550.256" cy="493.445" r="4" fill="#0" id="circle137"/>
	<circle cx="551.712" cy="541.515" r="4" fill="#0" id="circle138"/>
	<circle cx="551.712" cy="556.082" r="4" fill="#0" id="circle139"/>
	<circle cx="551.712" cy="631.83" r="4" fill="#0" id="circle140"/>
	<circle cx="558.996" cy="609.979" r="4" fill="#0" id="circle141"/>
	<circle cx="561.909" cy="207.935" r="4" fill="#0" id="circle142"/>
	<circle cx="563.366" cy="500.728" r="4" fill="#0" id="circle143"/>
	<circle cx="563.366" cy="566.279" r="4" fill="#0" id="circle144"/>
	<circle cx="566.279" cy="580.846" r="4" fill="#0" id="circle145"/>
	<circle cx="566.279" cy="595.413" r="4" fill="#0" id="circle146"/>
	<circle cx="576.476" cy="207.935" r="4" fill="#0" id="circle147"/>
	<circle cx="577.932" cy="500.728" r="4" fill="#0" id="circle148"/>
	<circle cx="589.586" cy="215.219" r="4" fill="#0" id="circle149"/>
	<circle cx="591.043" cy="508.012" r="4" fill="#0" id="circle150"/>
	<circle cx="604.153" cy="215.219" r="4" fill="#0" id="circle151"/>
	<circle cx="605.609" cy="508.012" r="4" fill="#0" id="circle152"/>
	<circle cx="618.72" cy="215.219" r="4" fill="#0" id="circle153"/>
	<circle cx="620.176" cy="508.012" r="4" fill="#0" id="circle154"/>
	<circle cx="631.83" cy="222.502" r="4" fill="#0" id="circle155"/>
	<circle cx="634.743" cy="508.012" r="4" fill="#0" id="circle156"/>
	<circle cx="646.396" cy="222.502" r="4" fill="#0" id="circle157"/>
	<circle cx="649.31" cy="508.012" r="4" fill="#0" id="circle158"/>
	<circle cx="652.223" cy="773.128" r="4" fill="#0" id="circle159"/>
	<circle cx="652.223" cy="787.695" r="4" fill="#0" id="circle160"/>
	<circle cx="659.507" cy="229.786" r="4" fill="#0" id="circle161"/>
	<circle cx="660.963" cy="518.209" r="4" fill="#0" id="circle162"/>
	<circle cx="663.877" cy="761.474" r="4" fill="#0" id="circle163"/>
	<circle cx="666.79" cy="792.065" r="4" fill="#0" id="circle164"/>
	<circle cx="671.16" cy="529.862" r="4" fill="#0" id="circle165"/>
	<circle cx="671.16" cy="746.907" r="4" fill="#0" id="circle166"/>
	<circle cx="672.617" cy="237.069" r="4" fill="#0" id="circle167"/>
	<circle cx="674.073" cy="544.429" r="4" fill="#0" id="circle168"/>
	<circle cx="674.073" cy="558.996" r="4" fill="#0" id="circle169"/>
	<circle cx="674.073" cy="573.562" r="4" fill="#0" id="circle170"/>
	<circle cx="674.073" cy="588.129" r="4" fill="#0" id="circle171"/>
	<circle cx="681.357" cy="601.239" r="4" fill="#0" id="circle172"/>
	<circle cx="681.357" cy="792.065" r="4" fill="#0" id="circle173"/>
	<circle cx="682.814" cy="500.728" r="4" fill="#0" id="circle174"/>
	<circle cx="682.814" cy="735.254" r="4" fill="#0" id="circle175"/>
	<circle cx="687.184" cy="238.526" r="4" fill="#0" id="circle176"/>
	<circle cx="688.64" cy="614.349" r="4" fill="#0" id="circle177"/>
	<circle cx="688.64" cy="628.916" r="4" fill="#0" id="circle178"/>
	<circle cx="688.64" cy="643.483" r="4" fill="#0" id="circle179"/>
	<circle cx="688.64" cy="714.86" r="4" fill="#0" id="circle180"/>
	<circle cx="690.097" cy="513.838" r="4" fill="#0" id="circle181"/>
	<circle cx="690.097" cy="658.05" r="4" fill="#0" id="circle182"/>
	<circle cx="693.01" cy="783.325" r="4" fill="#0" id="circle183"/>
	<circle cx="695.924" cy="493.445" r="4" fill="#0" id="circle184"/>
	<circle cx="695.924" cy="672.617" r="4" fill="#0" id="circle185"/>
	<circle cx="695.924" cy="687.184" r="4" fill="#0" id="circle186"/>
	<circle cx="695.924" cy="701.75" r="4" fill="#0" id="circle187"/>
	<circle cx="697.38" cy="526.949" r="4" fill="#0" id="circle188"/>
	<circle cx="697.38" cy="541.515" r="4" fill="#0" id="circle189"/>
	<circle cx="697.38" cy="556.082" r="4" fill="#0" id="circle190"/>
	<circle cx="697.38" cy="570.649" r="4" fill="#0" id="circle191"/>
	<circle cx="697.38" cy="585.216" r="4" fill="#0" id="circle192"/>
	<circle cx="700.294" cy="245.809" r="4" fill="#0" id="circle193"/>
	<circle cx="700.294" cy="768.758" r="4" fill="#0" id="circle194"/>
	<circle cx="704.664" cy="598.326" r="4" fill="#0" id="circle195"/>
	<circle cx="704.664" cy="612.893" r="4" fill="#0" id="circle196"/>
	<circle cx="704.664" cy="627.46" r="4" fill="#0" id="circle197"/>
	<circle cx="704.664" cy="741.081" r="4" fill="#0" id="circle198"/>
	<circle cx="710.49" cy="489.075" r="4" fill="#0" id="circle199"/>
	<circle cx="710.49" cy="642.026" r="4" fill="#0" id="circle200"/>
	<circle cx="711.947" cy="256.006" r="4" fill="#0" id="circle201"/>
	<circle cx="711.947" cy="656.593" r="4" fill="#0" id="circle202"/>
	<circle cx="711.947" cy="711.947" r="4" fill="#0" id="circle203"/>
	<circle cx="711.947" cy="726.514" r="4" fill="#0" id="circle204"/>
	<circle cx="717.774" cy="474.508" r="4" fill="#0" id="circle205"/>
	<circle cx="717.774" cy="671.16" r="4" fill="#0" id="circle206"/>
	<circle cx="719.231" cy="685.727" r="4" fill="#0" id="circle207"/>
	<circle cx="726.514" cy="258.919" r="4" fill="#0" id="circle208"/>
	<circle cx="729.427" cy="464.311" r="4" fill="#0" id="circle209"/>
	<circle cx="739.624" cy="266.203" r="4" fill="#0" id="circle210"/>
	<circle cx="743.994" cy="462.855" r="4" fill="#0" id="circle211"/>
	<circle cx="754.191" cy="269.116" r="4" fill="#0" id="circle212"/>
	<circle cx="758.561" cy="457.028" r="4" fill="#0" id="circle213"/>
	<circle cx="767.301" cy="276.399" r="4" fill="#0" id="circle214"/>
	<circle cx="771.671" cy="449.744" r="4" fill="#0" id="circle215"/>
	<circle cx="777.498" cy="288.053" r="4" fill="#0" id="circle216"/>
	<circle cx="784.781" cy="442.461" r="4" fill="#0" id="circle217"/>
	<circle cx="792.065" cy="288.053" r="4" fill="#0" id="circle218"/>
	<circle cx="799.348" cy="442.461" r="4" fill="#0" id="circle219"/>
	<circle cx="805.175" cy="295.336" r="4" fill="#0" id="circle220"/>
	<circle cx="812.458" cy="435.178" r="4" fill="#0" id="circle221"/>
	<circle cx="818.285" cy="302.62" r="4" fill="#0" id="circle222"/>
	<circle cx="825.568" cy="427.894" r="4" fill="#0" id="circle223"/>
	<circle cx="831.395" cy="309.903" r="4" fill="#0" id="circle224"/>
	<circle cx="840.135" cy="427.894" r="4" fill="#0" id="circle225"/>
	<circle cx="845.962" cy="309.903" r="4" fill="#0" id="circle226"/>
	<circle cx="853.245" cy="420.611" r="4" fill="#0" id="circle227"/>
	<circle cx="859.072" cy="317.186" r="4" fill="#0" id="circle228"/>
	<circle cx="867.812" cy="420.611" r="4" fill="#0" id="circle229"/>
	<circle cx="873.639" cy="317.186" r="4" fill="#0" id="circle230"/>
	<circle cx="880.922" cy="413.327" r="4" fill="#0" id="circle231"/>
	<circle cx="886.749" cy="324.47" r="4" fill="#0" id="circle232"/>
	<circle cx="894.032" cy="406.044" r="4" fill="#0" id="circle233"/>
	<circle cx="901.316" cy="324.47" r="4" fill="#0" id="circle234"/>
	<circle cx="908.599" cy="406.044" r="4" fill="#0" id="circle235"/>
	<circle cx="915.883" cy="324.47" r="4" fill="#0" id="circle236"/>
	<circle cx="921.709" cy="398.761" r="4" fill="#0" id="circle237"/>
	<circle cx="930.449" cy="324.47" r="4" fill="#0" id="circle238"/>
	<circle cx="936.276" cy="398.761" r="4" fill="#0" id="circle239"/>
	<circle cx="945.016" cy="324.47" r="4" fill="#0" id="circle240"/>
	<circle cx="947.93" cy="390.021" r="4" fill="#0" id="circle241"/>
	<circle cx="959.583" cy="324.47" r="4" fill="#0" id="circle242"/>
	<circle cx="962.496" cy="384.194" r="4" fill="#0" id="circle243"/>
	<circle cx="974.15" cy="324.47" r="4" fill="#0" id="circle244"/>
	<circle cx="977.063" cy="384.194" r="4" fill="#0" id="circle245"/>
	<circle cx="988.717" cy="328.84" r="4" fill="#0" id="circle246"/>
	<circle cx="990.173" cy="376.91" r="4" fill="#0" id="circle247"/>
	<circle cx="996" cy="347.777" r="4" fill="#0" id="circle248"/>
	<circle cx="996" cy="362.344" r="4" fill="#0" id="circle249"/>
	</g>
</svg>