<?xml version="1.0" encoding="UTF-8" standalone="no"?>
<!-- Created with CurveBenchmark -->
<svg
	xmlns:dc="http://purl.org/dc/elements/1.1/"
	xmlns:cc="http://creativecommons.org/ns#"
	xmlns:rdf="http://www.w3.org/1999/02/22-rdf-syntax-ns#"
	xmlns:svg="http://www.w3.org/2000/svg"
	xmlns="http://www.w3.org/2000/svg"
	xmlns:sodipodi="http://sodipodi.sourceforge.net/DTD/sodipodi-0.dtd"
	xmlns:inkscape="http://www.inkscape.org/namespaces/inkscape"
	width="1000"
	height="1000"
	id="svg2"
	version="1.1"
	sodipodi:docname="manifold/gathan1-Heart05.png.txt">
<defs
	id="defs4" />
<metadata
	id="metadata7">
	<rdf:RDF>
		<cc:Work
			rdf:about="">
			<dc:format>image/svg+xml</dc:format>
			<dc:type
				rdf:resource="http://purl.org/dc/dcmitype/StillImage" />
			<dc:title></dc:title>
		</cc:Work>
	</rdf:RDF>
</metadata>
<g
	inkscape:label="Layer 1"
	inkscape:groupmode="layer"
	id="layer1">
	<path style="fill:none;stroke:red;stroke-width:1px;stroke-linecap:butt;stroke-linejoin:miter;stroke-opacity:1" d="M 88.8669,37.9468 103.954,22.8593 z" id="boundary" inkscape:connector-curvature="0" />
	<path style="fill:none;stroke:red;stroke-width:1px;stroke-linecap:butt;stroke-linejoin:miter;stroke-opacity:1" d="M 60.5779,66.2357 70.0076,47.3764 z" id="boundary" inkscape:connector-curvature="0" />
	<path style="fill:none;stroke:red;stroke-width:1px;stroke-linecap:butt;stroke-linejoin:miter;stroke-opacity:1" d="M 70.0076,47.3764 88.8669,37.9468 z" id="boundary" inkscape:connector-curvature="0" />
	<path style="fill:none;stroke:red;stroke-width:1px;stroke-linecap:butt;stroke-linejoin:miter;stroke-opacity:1" d="M 103.954,22.8593 120.928,13.4297 z" id="boundary" inkscape:connector-curvature="0" />
	<path style="fill:none;stroke:red;stroke-width:1px;stroke-linecap:butt;stroke-linejoin:miter;stroke-opacity:1" d="M 120.928,13.4297 139.787,13.4297 z" id="boundary" inkscape:connector-curvature="0" />
	<path style="fill:none;stroke:red;stroke-width:1px;stroke-linecap:butt;stroke-linejoin:miter;stroke-opacity:1" d="M 156.76,4 175.62,4 z" id="boundary" inkscape:connector-curvature="0" />
	<path style="fill:none;stroke:red;stroke-width:1px;stroke-linecap:butt;stroke-linejoin:miter;stroke-opacity:1" d="M 139.787,13.4297 156.76,4 z" id="boundary" inkscape:connector-curvature="0" />
	<path style="fill:none;stroke:red;stroke-width:1px;stroke-linecap:butt;stroke-linejoin:miter;stroke-opacity:1" d="M 175.62,4 194.479,4 z" id="boundary" inkscape:connector-curvature="0" />
	<path style="fill:none;stroke:red;stroke-width:1px;stroke-linecap:butt;stroke-linejoin:miter;stroke-opacity:1" d="M 194.479,4 213.338,4 z" id="boundary" inkscape:connector-curvature="0" />
	<path style="fill:none;stroke:red;stroke-width:1px;stroke-linecap:butt;stroke-linejoin:miter;stroke-opacity:1" d="M 4,179.392 13.4297,160.532 z" id="boundary" inkscape:connector-curvature="0" />
	<path style="fill:none;stroke:red;stroke-width:1px;stroke-linecap:butt;stroke-linejoin:miter;stroke-opacity:1" d="M 4,198.251 4,179.392 z" id="boundary" inkscape:connector-curvature="0" />
	<path style="fill:none;stroke:red;stroke-width:1px;stroke-linecap:butt;stroke-linejoin:miter;stroke-opacity:1" d="M 4,217.11 4,198.251 z" id="boundary" inkscape:connector-curvature="0" />
	<path style="fill:none;stroke:red;stroke-width:1px;stroke-linecap:butt;stroke-linejoin:miter;stroke-opacity:1" d="M 13.4297,160.532 22.8593,141.673 z" id="boundary" inkscape:connector-curvature="0" />
	<path style="fill:none;stroke:red;stroke-width:1px;stroke-linecap:butt;stroke-linejoin:miter;stroke-opacity:1" d="M 47.3764,88.8669 60.5779,66.2357 z" id="boundary" inkscape:connector-curvature="0" />
	<path style="fill:none;stroke:red;stroke-width:1px;stroke-linecap:butt;stroke-linejoin:miter;stroke-opacity:1" d="M 47.3764,88.8669 32.289,103.954 z" id="boundary" inkscape:connector-curvature="0" />
	<path style="fill:none;stroke:red;stroke-width:1px;stroke-linecap:butt;stroke-linejoin:miter;stroke-opacity:1" d="M 22.8593,122.814 32.289,103.954 z" id="boundary" inkscape:connector-curvature="0" />
	<path style="fill:none;stroke:red;stroke-width:1px;stroke-linecap:butt;stroke-linejoin:miter;stroke-opacity:1" d="M 22.8593,141.673 22.8593,122.814 z" id="boundary" inkscape:connector-curvature="0" />
	<path style="fill:none;stroke:red;stroke-width:1px;stroke-linecap:butt;stroke-linejoin:miter;stroke-opacity:1" d="M 4,235.97 4,217.11 z" id="boundary" inkscape:connector-curvature="0" />
	<path style="fill:none;stroke:red;stroke-width:1px;stroke-linecap:butt;stroke-linejoin:miter;stroke-opacity:1" d="M 232.198,4 251.057,4 z" id="boundary" inkscape:connector-curvature="0" />
	<path style="fill:none;stroke:red;stroke-width:1px;stroke-linecap:butt;stroke-linejoin:miter;stroke-opacity:1" d="M 251.057,4 269.916,9.65779 z" id="boundary" inkscape:connector-curvature="0" />
	<path style="fill:none;stroke:red;stroke-width:1px;stroke-linecap:butt;stroke-linejoin:miter;stroke-opacity:1" d="M 269.916,9.65779 286.89,19.0875 z" id="boundary" inkscape:connector-curvature="0" />
	<path style="fill:none;stroke:red;stroke-width:1px;stroke-linecap:butt;stroke-linejoin:miter;stroke-opacity:1" d="M 305.749,26.6312 286.89,19.0875 z" id="boundary" inkscape:connector-curvature="0" />
	<path style="fill:none;stroke:red;stroke-width:1px;stroke-linecap:butt;stroke-linejoin:miter;stroke-opacity:1" d="M 322.722,36.0608 305.749,26.6312 z" id="boundary" inkscape:connector-curvature="0" />
	<path style="fill:none;stroke:red;stroke-width:1px;stroke-linecap:butt;stroke-linejoin:miter;stroke-opacity:1" d="M 341.582,43.6046 322.722,36.0608 z" id="boundary" inkscape:connector-curvature="0" />
	<path style="fill:none;stroke:red;stroke-width:1px;stroke-linecap:butt;stroke-linejoin:miter;stroke-opacity:1" d="M 341.582,43.6046 358.555,53.0342 z" id="boundary" inkscape:connector-curvature="0" />
	<path style="fill:none;stroke:red;stroke-width:1px;stroke-linecap:butt;stroke-linejoin:miter;stroke-opacity:1" d="M 358.555,53.0342 373.643,66.2357 z" id="boundary" inkscape:connector-curvature="0" />
	<path style="fill:none;stroke:red;stroke-width:1px;stroke-linecap:butt;stroke-linejoin:miter;stroke-opacity:1" d="M 373.643,66.2357 386.844,81.3232 z" id="boundary" inkscape:connector-curvature="0" />
	<path style="fill:none;stroke:red;stroke-width:1px;stroke-linecap:butt;stroke-linejoin:miter;stroke-opacity:1" d="M 386.844,81.3232 405.703,88.8669 z" id="boundary" inkscape:connector-curvature="0" />
	<path style="fill:none;stroke:red;stroke-width:1px;stroke-linecap:butt;stroke-linejoin:miter;stroke-opacity:1" d="M 405.703,88.8669 411.361,107.726 z" id="boundary" inkscape:connector-curvature="0" />
	<path style="fill:none;stroke:red;stroke-width:1px;stroke-linecap:butt;stroke-linejoin:miter;stroke-opacity:1" d="M 411.361,107.726 420.791,124.7 z" id="boundary" inkscape:connector-curvature="0" />
	<path style="fill:none;stroke:red;stroke-width:1px;stroke-linecap:butt;stroke-linejoin:miter;stroke-opacity:1" d="M 430.221,141.673 420.791,124.7 z" id="boundary" inkscape:connector-curvature="0" />
	<path style="fill:none;stroke:red;stroke-width:1px;stroke-linecap:butt;stroke-linejoin:miter;stroke-opacity:1" d="M 439.65,158.646 430.221,141.673 z" id="boundary" inkscape:connector-curvature="0" />
	<path style="fill:none;stroke:red;stroke-width:1px;stroke-linecap:butt;stroke-linejoin:miter;stroke-opacity:1" d="M 449.08,175.62 439.65,158.646 z" id="boundary" inkscape:connector-curvature="0" />
	<path style="fill:none;stroke:red;stroke-width:1px;stroke-linecap:butt;stroke-linejoin:miter;stroke-opacity:1" d="M 449.08,175.62 458.51,192.593 z" id="boundary" inkscape:connector-curvature="0" />
	<path style="fill:none;stroke:red;stroke-width:1px;stroke-linecap:butt;stroke-linejoin:miter;stroke-opacity:1" d="M 467.939,209.567 458.51,192.593 z" id="boundary" inkscape:connector-curvature="0" />
	<path style="fill:none;stroke:red;stroke-width:1px;stroke-linecap:butt;stroke-linejoin:miter;stroke-opacity:1" d="M 477.369,226.54 467.939,209.567 z" id="boundary" inkscape:connector-curvature="0" />
	<path style="fill:none;stroke:red;stroke-width:1px;stroke-linecap:butt;stroke-linejoin:miter;stroke-opacity:1" d="M 213.338,4 232.198,4 z" id="boundary" inkscape:connector-curvature="0" />
	<path style="fill:none;stroke:red;stroke-width:1px;stroke-linecap:butt;stroke-linejoin:miter;stroke-opacity:1" d="M 477.369,226.54 484.913,245.399 z" id="boundary" inkscape:connector-curvature="0" />
	<path style="fill:none;stroke:red;stroke-width:1px;stroke-linecap:butt;stroke-linejoin:miter;stroke-opacity:1" d="M 4,292.548 4,273.688 z" id="boundary" inkscape:connector-curvature="0" />
	<path style="fill:none;stroke:red;stroke-width:1px;stroke-linecap:butt;stroke-linejoin:miter;stroke-opacity:1" d="M 4,273.688 4,254.829 z" id="boundary" inkscape:connector-curvature="0" />
	<path style="fill:none;stroke:red;stroke-width:1px;stroke-linecap:butt;stroke-linejoin:miter;stroke-opacity:1" d="M 4,311.407 13.4297,328.38 z" id="boundary" inkscape:connector-curvature="0" />
	<path style="fill:none;stroke:red;stroke-width:1px;stroke-linecap:butt;stroke-linejoin:miter;stroke-opacity:1" d="M 4,311.407 4,292.548 z" id="boundary" inkscape:connector-curvature="0" />
	<path style="fill:none;stroke:red;stroke-width:1px;stroke-linecap:butt;stroke-linejoin:miter;stroke-opacity:1" d="M 37.9468,381.186 28.5171,364.213 z" id="boundary" inkscape:connector-curvature="0" />
	<path style="fill:none;stroke:red;stroke-width:1px;stroke-linecap:butt;stroke-linejoin:miter;stroke-opacity:1" d="M 28.5171,364.213 22.8593,345.354 z" id="boundary" inkscape:connector-curvature="0" />
	<path style="fill:none;stroke:red;stroke-width:1px;stroke-linecap:butt;stroke-linejoin:miter;stroke-opacity:1" d="M 37.9468,381.186 45.4905,400.046 z" id="boundary" inkscape:connector-curvature="0" />
	<path style="fill:none;stroke:red;stroke-width:1px;stroke-linecap:butt;stroke-linejoin:miter;stroke-opacity:1" d="M 13.4297,328.38 22.8593,345.354 z" id="boundary" inkscape:connector-curvature="0" />
	<path style="fill:none;stroke:red;stroke-width:1px;stroke-linecap:butt;stroke-linejoin:miter;stroke-opacity:1" d="M 45.4905,400.046 54.9202,417.019 z" id="boundary" inkscape:connector-curvature="0" />
	<path style="fill:none;stroke:red;stroke-width:1px;stroke-linecap:butt;stroke-linejoin:miter;stroke-opacity:1" d="M 54.9202,417.019 62.4639,435.878 z" id="boundary" inkscape:connector-curvature="0" />
	<path style="fill:none;stroke:red;stroke-width:1px;stroke-linecap:butt;stroke-linejoin:miter;stroke-opacity:1" d="M 77.5513,449.08 62.4639,435.878 z" id="boundary" inkscape:connector-curvature="0" />
	<path style="fill:none;stroke:red;stroke-width:1px;stroke-linecap:butt;stroke-linejoin:miter;stroke-opacity:1" d="M 94.5247,458.51 77.5513,449.08 z" id="boundary" inkscape:connector-curvature="0" />
	<path style="fill:none;stroke:red;stroke-width:1px;stroke-linecap:butt;stroke-linejoin:miter;stroke-opacity:1" d="M 94.5247,458.51 109.612,471.711 z" id="boundary" inkscape:connector-curvature="0" />
	<path style="fill:none;stroke:red;stroke-width:1px;stroke-linecap:butt;stroke-linejoin:miter;stroke-opacity:1" d="M 109.612,471.711 122.814,486.798 z" id="boundary" inkscape:connector-curvature="0" />
	<path style="fill:none;stroke:red;stroke-width:1px;stroke-linecap:butt;stroke-linejoin:miter;stroke-opacity:1" d="M 137.901,500 154.875,509.43 z" id="boundary" inkscape:connector-curvature="0" />
	<path style="fill:none;stroke:red;stroke-width:1px;stroke-linecap:butt;stroke-linejoin:miter;stroke-opacity:1" d="M 154.875,509.43 169.962,522.631 z" id="boundary" inkscape:connector-curvature="0" />
	<path style="fill:none;stroke:red;stroke-width:1px;stroke-linecap:butt;stroke-linejoin:miter;stroke-opacity:1" d="M 137.901,500 122.814,486.798 z" id="boundary" inkscape:connector-curvature="0" />
	<path style="fill:none;stroke:red;stroke-width:1px;stroke-linecap:butt;stroke-linejoin:miter;stroke-opacity:1" d="M 169.962,522.631 183.163,537.719 z" id="boundary" inkscape:connector-curvature="0" />
	<path style="fill:none;stroke:red;stroke-width:1px;stroke-linecap:butt;stroke-linejoin:miter;stroke-opacity:1" d="M 4,254.829 4,235.97 z" id="boundary" inkscape:connector-curvature="0" />
	<path style="fill:none;stroke:red;stroke-width:1px;stroke-linecap:butt;stroke-linejoin:miter;stroke-opacity:1" d="M 183.163,537.719 202.023,543.376 z" id="boundary" inkscape:connector-curvature="0" />
	<path style="fill:none;stroke:red;stroke-width:1px;stroke-linecap:butt;stroke-linejoin:miter;stroke-opacity:1" d="M 202.023,543.376 218.996,552.806 z" id="boundary" inkscape:connector-curvature="0" />
	<path style="fill:none;stroke:red;stroke-width:1px;stroke-linecap:butt;stroke-linejoin:miter;stroke-opacity:1" d="M 218.996,552.806 237.856,552.806 z" id="boundary" inkscape:connector-curvature="0" />
	<path style="fill:none;stroke:red;stroke-width:1px;stroke-linecap:butt;stroke-linejoin:miter;stroke-opacity:1" d="M 237.856,552.806 254.829,562.236 z" id="boundary" inkscape:connector-curvature="0" />
	<path style="fill:none;stroke:red;stroke-width:1px;stroke-linecap:butt;stroke-linejoin:miter;stroke-opacity:1" d="M 271.802,571.665 290.662,571.665 z" id="boundary" inkscape:connector-curvature="0" />
	<path style="fill:none;stroke:red;stroke-width:1px;stroke-linecap:butt;stroke-linejoin:miter;stroke-opacity:1" d="M 290.662,571.665 309.521,577.323 z" id="boundary" inkscape:connector-curvature="0" />
	<path style="fill:none;stroke:red;stroke-width:1px;stroke-linecap:butt;stroke-linejoin:miter;stroke-opacity:1" d="M 271.802,571.665 254.829,562.236 z" id="boundary" inkscape:connector-curvature="0" />
	<path style="fill:none;stroke:red;stroke-width:1px;stroke-linecap:butt;stroke-linejoin:miter;stroke-opacity:1" d="M 328.38,581.095 309.521,577.323 z" id="boundary" inkscape:connector-curvature="0" />
	<path style="fill:none;stroke:red;stroke-width:1px;stroke-linecap:butt;stroke-linejoin:miter;stroke-opacity:1" d="M 328.38,581.095 347.24,586.753 z" id="boundary" inkscape:connector-curvature="0" />
	<path style="fill:none;stroke:red;stroke-width:1px;stroke-linecap:butt;stroke-linejoin:miter;stroke-opacity:1" d="M 347.24,586.753 364.213,596.183 z" id="boundary" inkscape:connector-curvature="0" />
	<path style="fill:none;stroke:red;stroke-width:1px;stroke-linecap:butt;stroke-linejoin:miter;stroke-opacity:1" d="M 364.213,596.183 383.072,599.954 z" id="boundary" inkscape:connector-curvature="0" />
	<path style="fill:none;stroke:red;stroke-width:1px;stroke-linecap:butt;stroke-linejoin:miter;stroke-opacity:1" d="M 383.072,599.954 401.932,603.726 z" id="boundary" inkscape:connector-curvature="0" />
	<path style="fill:none;stroke:red;stroke-width:1px;stroke-linecap:butt;stroke-linejoin:miter;stroke-opacity:1" d="M 401.932,603.726 418.905,613.156 z" id="boundary" inkscape:connector-curvature="0" />
	<path style="fill:none;stroke:red;stroke-width:1px;stroke-linecap:butt;stroke-linejoin:miter;stroke-opacity:1" d="M 418.905,613.156 437.764,618.814 z" id="boundary" inkscape:connector-curvature="0" />
	<path style="fill:none;stroke:red;stroke-width:1px;stroke-linecap:butt;stroke-linejoin:miter;stroke-opacity:1" d="M 437.764,618.814 449.08,633.901 z" id="boundary" inkscape:connector-curvature="0" />
	<path style="fill:none;stroke:red;stroke-width:1px;stroke-linecap:butt;stroke-linejoin:miter;stroke-opacity:1" d="M 481.141,656.532 464.167,647.103 z" id="boundary" inkscape:connector-curvature="0" />
	<path style="fill:none;stroke:red;stroke-width:1px;stroke-linecap:butt;stroke-linejoin:miter;stroke-opacity:1" d="M 464.167,647.103 449.08,633.901 z" id="boundary" inkscape:connector-curvature="0" />
	<path style="fill:none;stroke:red;stroke-width:1px;stroke-linecap:butt;stroke-linejoin:miter;stroke-opacity:1" d="M 484.913,245.399 494.342,262.373 z" id="boundary" inkscape:connector-curvature="0" />
	<path style="fill:none;stroke:red;stroke-width:1px;stroke-linecap:butt;stroke-linejoin:miter;stroke-opacity:1" d="M 481.141,656.532 496.228,669.734 z" id="boundary" inkscape:connector-curvature="0" />
	<path style="fill:none;stroke:red;stroke-width:1px;stroke-linecap:butt;stroke-linejoin:miter;stroke-opacity:1" d="M 647.103,54.9202 665.962,45.4905 z" id="boundary" inkscape:connector-curvature="0" />
	<path style="fill:none;stroke:red;stroke-width:1px;stroke-linecap:butt;stroke-linejoin:miter;stroke-opacity:1" d="M 637.673,73.7795 647.103,54.9202 z" id="boundary" inkscape:connector-curvature="0" />
	<path style="fill:none;stroke:red;stroke-width:1px;stroke-linecap:butt;stroke-linejoin:miter;stroke-opacity:1" d="M 624.471,88.8669 637.673,73.7795 z" id="boundary" inkscape:connector-curvature="0" />
	<path style="fill:none;stroke:red;stroke-width:1px;stroke-linecap:butt;stroke-linejoin:miter;stroke-opacity:1" d="M 665.962,45.4905 684.821,36.0608 z" id="boundary" inkscape:connector-curvature="0" />
	<path style="fill:none;stroke:red;stroke-width:1px;stroke-linecap:butt;stroke-linejoin:miter;stroke-opacity:1" d="M 624.471,88.8669 609.384,102.068 z" id="boundary" inkscape:connector-curvature="0" />
	<path style="fill:none;stroke:red;stroke-width:1px;stroke-linecap:butt;stroke-linejoin:miter;stroke-opacity:1" d="M 722.54,22.8593 741.399,22.8593 z" id="boundary" inkscape:connector-curvature="0" />
	<path style="fill:none;stroke:red;stroke-width:1px;stroke-linecap:butt;stroke-linejoin:miter;stroke-opacity:1" d="M 703.681,26.6312 722.54,22.8593 z" id="boundary" inkscape:connector-curvature="0" />
	<path style="fill:none;stroke:red;stroke-width:1px;stroke-linecap:butt;stroke-linejoin:miter;stroke-opacity:1" d="M 684.821,36.0608 703.681,26.6312 z" id="boundary" inkscape:connector-curvature="0" />
	<path style="fill:none;stroke:red;stroke-width:1px;stroke-linecap:butt;stroke-linejoin:miter;stroke-opacity:1" d="M 741.399,22.8593 760.259,22.8593 z" id="boundary" inkscape:connector-curvature="0" />
	<path style="fill:none;stroke:red;stroke-width:1px;stroke-linecap:butt;stroke-linejoin:miter;stroke-opacity:1" d="M 541.49,207.681 556.578,192.593 z" id="boundary" inkscape:connector-curvature="0" />
	<path style="fill:none;stroke:red;stroke-width:1px;stroke-linecap:butt;stroke-linejoin:miter;stroke-opacity:1" d="M 532.061,226.54 541.49,207.681 z" id="boundary" inkscape:connector-curvature="0" />
	<path style="fill:none;stroke:red;stroke-width:1px;stroke-linecap:butt;stroke-linejoin:miter;stroke-opacity:1" d="M 532.061,226.54 522.631,254.829 z" id="boundary" inkscape:connector-curvature="0" />
	<path style="fill:none;stroke:red;stroke-width:1px;stroke-linecap:butt;stroke-linejoin:miter;stroke-opacity:1" d="M 505.658,277.46 494.342,262.373 z" id="boundary" inkscape:connector-curvature="0" />
	<path style="fill:none;stroke:red;stroke-width:1px;stroke-linecap:butt;stroke-linejoin:miter;stroke-opacity:1" d="M 522.631,254.829 505.658,277.46 z" id="boundary" inkscape:connector-curvature="0" />
	<path style="fill:none;stroke:red;stroke-width:1px;stroke-linecap:butt;stroke-linejoin:miter;stroke-opacity:1" d="M 556.578,192.593 566.008,173.734 z" id="boundary" inkscape:connector-curvature="0" />
	<path style="fill:none;stroke:red;stroke-width:1px;stroke-linecap:butt;stroke-linejoin:miter;stroke-opacity:1" d="M 594.297,117.156 609.384,102.068 z" id="boundary" inkscape:connector-curvature="0" />
	<path style="fill:none;stroke:red;stroke-width:1px;stroke-linecap:butt;stroke-linejoin:miter;stroke-opacity:1" d="M 584.867,136.015 594.297,117.156 z" id="boundary" inkscape:connector-curvature="0" />
	<path style="fill:none;stroke:red;stroke-width:1px;stroke-linecap:butt;stroke-linejoin:miter;stroke-opacity:1" d="M 575.437,154.875 584.867,136.015 z" id="boundary" inkscape:connector-curvature="0" />
	<path style="fill:none;stroke:red;stroke-width:1px;stroke-linecap:butt;stroke-linejoin:miter;stroke-opacity:1" d="M 575.437,154.875 566.008,173.734 z" id="boundary" inkscape:connector-curvature="0" />
	<path style="fill:none;stroke:red;stroke-width:1px;stroke-linecap:butt;stroke-linejoin:miter;stroke-opacity:1" d="M 779.118,22.8593 797.977,22.8593 z" id="boundary" inkscape:connector-curvature="0" />
	<path style="fill:none;stroke:red;stroke-width:1px;stroke-linecap:butt;stroke-linejoin:miter;stroke-opacity:1" d="M 797.977,22.8593 814.951,32.289 z" id="boundary" inkscape:connector-curvature="0" />
	<path style="fill:none;stroke:red;stroke-width:1px;stroke-linecap:butt;stroke-linejoin:miter;stroke-opacity:1" d="M 814.951,32.289 831.924,41.7186 z" id="boundary" inkscape:connector-curvature="0" />
	<path style="fill:none;stroke:red;stroke-width:1px;stroke-linecap:butt;stroke-linejoin:miter;stroke-opacity:1" d="M 850.783,41.7186 831.924,41.7186 z" id="boundary" inkscape:connector-curvature="0" />
	<path style="fill:none;stroke:red;stroke-width:1px;stroke-linecap:butt;stroke-linejoin:miter;stroke-opacity:1" d="M 867.757,51.1483 880.958,66.2357 z" id="boundary" inkscape:connector-curvature="0" />
	<path style="fill:none;stroke:red;stroke-width:1px;stroke-linecap:butt;stroke-linejoin:miter;stroke-opacity:1" d="M 913.019,88.8669 896.046,79.4373 z" id="boundary" inkscape:connector-curvature="0" />
	<path style="fill:none;stroke:red;stroke-width:1px;stroke-linecap:butt;stroke-linejoin:miter;stroke-opacity:1" d="M 896.046,79.4373 880.958,66.2357 z" id="boundary" inkscape:connector-curvature="0" />
	<path style="fill:none;stroke:red;stroke-width:1px;stroke-linecap:butt;stroke-linejoin:miter;stroke-opacity:1" d="M 929.992,98.2966 913.019,88.8669 z" id="boundary" inkscape:connector-curvature="0" />
	<path style="fill:none;stroke:red;stroke-width:1px;stroke-linecap:butt;stroke-linejoin:miter;stroke-opacity:1" d="M 850.783,41.7186 867.757,51.1483 z" id="boundary" inkscape:connector-curvature="0" />
	<path style="fill:none;stroke:red;stroke-width:1px;stroke-linecap:butt;stroke-linejoin:miter;stroke-opacity:1" d="M 929.992,98.2966 945.08,109.612 z" id="boundary" inkscape:connector-curvature="0" />
	<path style="fill:none;stroke:red;stroke-width:1px;stroke-linecap:butt;stroke-linejoin:miter;stroke-opacity:1" d="M 945.08,109.612 952.624,128.471 z" id="boundary" inkscape:connector-curvature="0" />
	<path style="fill:none;stroke:red;stroke-width:1px;stroke-linecap:butt;stroke-linejoin:miter;stroke-opacity:1" d="M 952.624,128.471 967.711,141.673 z" id="boundary" inkscape:connector-curvature="0" />
	<path style="fill:none;stroke:red;stroke-width:1px;stroke-linecap:butt;stroke-linejoin:miter;stroke-opacity:1" d="M 967.711,141.673 967.711,160.532 z" id="boundary" inkscape:connector-curvature="0" />
	<path style="fill:none;stroke:red;stroke-width:1px;stroke-linecap:butt;stroke-linejoin:miter;stroke-opacity:1" d="M 977.141,177.506 967.711,160.532 z" id="boundary" inkscape:connector-curvature="0" />
	<path style="fill:none;stroke:red;stroke-width:1px;stroke-linecap:butt;stroke-linejoin:miter;stroke-opacity:1" d="M 977.141,177.506 986.57,194.479 z" id="boundary" inkscape:connector-curvature="0" />
	<path style="fill:none;stroke:red;stroke-width:1px;stroke-linecap:butt;stroke-linejoin:miter;stroke-opacity:1" d="M 996,211.452 996,230.312 z" id="boundary" inkscape:connector-curvature="0" />
	<path style="fill:none;stroke:red;stroke-width:1px;stroke-linecap:butt;stroke-linejoin:miter;stroke-opacity:1" d="M 986.57,194.479 996,211.452 z" id="boundary" inkscape:connector-curvature="0" />
	<path style="fill:none;stroke:red;stroke-width:1px;stroke-linecap:butt;stroke-linejoin:miter;stroke-opacity:1" d="M 996,230.312 996,249.171 z" id="boundary" inkscape:connector-curvature="0" />
	<path style="fill:none;stroke:red;stroke-width:1px;stroke-linecap:butt;stroke-linejoin:miter;stroke-opacity:1" d="M 760.259,22.8593 779.118,22.8593 z" id="boundary" inkscape:connector-curvature="0" />
	<path style="fill:none;stroke:red;stroke-width:1px;stroke-linecap:butt;stroke-linejoin:miter;stroke-opacity:1" d="M 996,249.171 996,268.03 z" id="boundary" inkscape:connector-curvature="0" />
	<path style="fill:none;stroke:red;stroke-width:1px;stroke-linecap:butt;stroke-linejoin:miter;stroke-opacity:1" d="M 684.821,618.814 665.962,618.814 z" id="boundary" inkscape:connector-curvature="0" />
	<path style="fill:none;stroke:red;stroke-width:1px;stroke-linecap:butt;stroke-linejoin:miter;stroke-opacity:1" d="M 684.821,618.814 703.681,618.814 z" id="boundary" inkscape:connector-curvature="0" />
	<path style="fill:none;stroke:red;stroke-width:1px;stroke-linecap:butt;stroke-linejoin:miter;stroke-opacity:1" d="M 647.103,628.243 665.962,618.814 z" id="boundary" inkscape:connector-curvature="0" />
	<path style="fill:none;stroke:red;stroke-width:1px;stroke-linecap:butt;stroke-linejoin:miter;stroke-opacity:1" d="M 816.837,599.954 797.977,609.384 z" id="boundary" inkscape:connector-curvature="0" />
	<path style="fill:none;stroke:red;stroke-width:1px;stroke-linecap:butt;stroke-linejoin:miter;stroke-opacity:1" d="M 797.977,609.384 779.118,609.384 z" id="boundary" inkscape:connector-curvature="0" />
	<path style="fill:none;stroke:red;stroke-width:1px;stroke-linecap:butt;stroke-linejoin:miter;stroke-opacity:1" d="M 722.54,618.814 703.681,618.814 z" id="boundary" inkscape:connector-curvature="0" />
	<path style="fill:none;stroke:red;stroke-width:1px;stroke-linecap:butt;stroke-linejoin:miter;stroke-opacity:1" d="M 741.399,618.814 722.54,618.814 z" id="boundary" inkscape:connector-curvature="0" />
	<path style="fill:none;stroke:red;stroke-width:1px;stroke-linecap:butt;stroke-linejoin:miter;stroke-opacity:1" d="M 760.259,618.814 741.399,618.814 z" id="boundary" inkscape:connector-curvature="0" />
	<path style="fill:none;stroke:red;stroke-width:1px;stroke-linecap:butt;stroke-linejoin:miter;stroke-opacity:1" d="M 779.118,609.384 760.259,618.814 z" id="boundary" inkscape:connector-curvature="0" />
	<path style="fill:none;stroke:red;stroke-width:1px;stroke-linecap:butt;stroke-linejoin:miter;stroke-opacity:1" d="M 835.696,590.525 816.837,599.954 z" id="boundary" inkscape:connector-curvature="0" />
	<path style="fill:none;stroke:red;stroke-width:1px;stroke-linecap:butt;stroke-linejoin:miter;stroke-opacity:1" d="M 552.806,656.532 571.665,647.103 z" id="boundary" inkscape:connector-curvature="0" />
	<path style="fill:none;stroke:red;stroke-width:1px;stroke-linecap:butt;stroke-linejoin:miter;stroke-opacity:1" d="M 552.806,656.532 533.947,665.962 z" id="boundary" inkscape:connector-curvature="0" />
	<path style="fill:none;stroke:red;stroke-width:1px;stroke-linecap:butt;stroke-linejoin:miter;stroke-opacity:1" d="M 533.947,665.962 515.087,675.392 z" id="boundary" inkscape:connector-curvature="0" />
	<path style="fill:none;stroke:red;stroke-width:1px;stroke-linecap:butt;stroke-linejoin:miter;stroke-opacity:1" d="M 515.087,675.392 496.228,669.734 z" id="boundary" inkscape:connector-curvature="0" />
	<path style="fill:none;stroke:red;stroke-width:1px;stroke-linecap:butt;stroke-linejoin:miter;stroke-opacity:1" d="M 628.243,628.243 609.384,628.243 z" id="boundary" inkscape:connector-curvature="0" />
	<path style="fill:none;stroke:red;stroke-width:1px;stroke-linecap:butt;stroke-linejoin:miter;stroke-opacity:1" d="M 628.243,628.243 647.103,628.243 z" id="boundary" inkscape:connector-curvature="0" />
	<path style="fill:none;stroke:red;stroke-width:1px;stroke-linecap:butt;stroke-linejoin:miter;stroke-opacity:1" d="M 590.525,637.673 609.384,628.243 z" id="boundary" inkscape:connector-curvature="0" />
	<path style="fill:none;stroke:red;stroke-width:1px;stroke-linecap:butt;stroke-linejoin:miter;stroke-opacity:1" d="M 571.665,647.103 590.525,637.673 z" id="boundary" inkscape:connector-curvature="0" />
	<path style="fill:none;stroke:red;stroke-width:1px;stroke-linecap:butt;stroke-linejoin:miter;stroke-opacity:1" d="M 977.141,392.502 986.57,364.213 z" id="boundary" inkscape:connector-curvature="0" />
	<path style="fill:none;stroke:red;stroke-width:1px;stroke-linecap:butt;stroke-linejoin:miter;stroke-opacity:1" d="M 977.141,411.361 977.141,392.502 z" id="boundary" inkscape:connector-curvature="0" />
	<path style="fill:none;stroke:red;stroke-width:1px;stroke-linecap:butt;stroke-linejoin:miter;stroke-opacity:1" d="M 977.141,411.361 967.711,430.221 z" id="boundary" inkscape:connector-curvature="0" />
	<path style="fill:none;stroke:red;stroke-width:1px;stroke-linecap:butt;stroke-linejoin:miter;stroke-opacity:1" d="M 986.57,364.213 996,343.468 z" id="boundary" inkscape:connector-curvature="0" />
	<path style="fill:none;stroke:red;stroke-width:1px;stroke-linecap:butt;stroke-linejoin:miter;stroke-opacity:1" d="M 996,305.749 996,324.608 z" id="boundary" inkscape:connector-curvature="0" />
	<path style="fill:none;stroke:red;stroke-width:1px;stroke-linecap:butt;stroke-linejoin:miter;stroke-opacity:1" d="M 996,324.608 996,343.468 z" id="boundary" inkscape:connector-curvature="0" />
	<path style="fill:none;stroke:red;stroke-width:1px;stroke-linecap:butt;stroke-linejoin:miter;stroke-opacity:1" d="M 967.711,430.221 958.281,449.08 z" id="boundary" inkscape:connector-curvature="0" />
	<path style="fill:none;stroke:red;stroke-width:1px;stroke-linecap:butt;stroke-linejoin:miter;stroke-opacity:1" d="M 882.844,552.806 897.932,539.605 z" id="boundary" inkscape:connector-curvature="0" />
	<path style="fill:none;stroke:red;stroke-width:1px;stroke-linecap:butt;stroke-linejoin:miter;stroke-opacity:1" d="M 869.643,567.894 882.844,552.806 z" id="boundary" inkscape:connector-curvature="0" />
	<path style="fill:none;stroke:red;stroke-width:1px;stroke-linecap:butt;stroke-linejoin:miter;stroke-opacity:1" d="M 911.133,515.087 897.932,539.605 z" id="boundary" inkscape:connector-curvature="0" />
	<path style="fill:none;stroke:red;stroke-width:1px;stroke-linecap:butt;stroke-linejoin:miter;stroke-opacity:1" d="M 869.643,567.894 854.555,581.095 z" id="boundary" inkscape:connector-curvature="0" />
	<path style="fill:none;stroke:red;stroke-width:1px;stroke-linecap:butt;stroke-linejoin:miter;stroke-opacity:1" d="M 854.555,581.095 835.696,590.525 z" id="boundary" inkscape:connector-curvature="0" />
	<path style="fill:none;stroke:red;stroke-width:1px;stroke-linecap:butt;stroke-linejoin:miter;stroke-opacity:1" d="M 958.281,449.08 948.852,467.939 z" id="boundary" inkscape:connector-curvature="0" />
	<path style="fill:none;stroke:red;stroke-width:1px;stroke-linecap:butt;stroke-linejoin:miter;stroke-opacity:1" d="M 926.221,501.886 911.133,515.087 z" id="boundary" inkscape:connector-curvature="0" />
	<path style="fill:none;stroke:red;stroke-width:1px;stroke-linecap:butt;stroke-linejoin:miter;stroke-opacity:1" d="M 948.852,467.939 939.422,486.798 z" id="boundary" inkscape:connector-curvature="0" />
	<path style="fill:none;stroke:red;stroke-width:1px;stroke-linecap:butt;stroke-linejoin:miter;stroke-opacity:1" d="M 939.422,486.798 926.221,501.886 z" id="boundary" inkscape:connector-curvature="0" />
	<path style="fill:none;stroke:red;stroke-width:1px;stroke-linecap:butt;stroke-linejoin:miter;stroke-opacity:1" d="M 996,286.89 996,305.749 z" id="boundary" inkscape:connector-curvature="0" />
	<path style="fill:none;stroke:red;stroke-width:1px;stroke-linecap:butt;stroke-linejoin:miter;stroke-opacity:1" d="M 996,268.03 996,286.89 z" id="boundary" inkscape:connector-curvature="0" />
	<circle cx="4" cy="179.392" r="4" fill="#0" id="circle0"/>
	<circle cx="4" cy="198.251" r="4" fill="#0" id="circle1"/>
	<circle cx="4" cy="217.11" r="4" fill="#0" id="circle2"/>
	<circle cx="4" cy="235.97" r="4" fill="#0" id="circle3"/>
	<circle cx="4" cy="254.829" r="4" fill="#0" id="circle4"/>
	<circle cx="4" cy="273.688" r="4" fill="#0" id="circle5"/>
	<circle cx="4" cy="292.548" r="4" fill="#0" id="circle6"/>
	<circle cx="4" cy="311.407" r="4" fill="#0" id="circle7"/>
	<circle cx="13.4297" cy="160.532" r="4" fill="#0" id="circle8"/>
	<circle cx="13.4297" cy="328.38" r="4" fill="#0" id="circle9"/>
	<circle cx="22.8593" cy="122.814" r="4" fill="#0" id="circle10"/>
	<circle cx="22.8593" cy="141.673" r="4" fill="#0" id="circle11"/>
	<circle cx="22.8593" cy="345.354" r="4" fill="#0" id="circle12"/>
	<circle cx="28.5171" cy="364.213" r="4" fill="#0" id="circle13"/>
	<circle cx="32.289" cy="103.954" r="4" fill="#0" id="circle14"/>
	<circle cx="37.9468" cy="381.186" r="4" fill="#0" id="circle15"/>
	<circle cx="45.4905" cy="400.046" r="4" fill="#0" id="circle16"/>
	<circle cx="47.3764" cy="88.8669" r="4" fill="#0" id="circle17"/>
	<circle cx="54.9202" cy="417.019" r="4" fill="#0" id="circle18"/>
	<circle cx="60.5779" cy="66.2357" r="4" fill="#0" id="circle19"/>
	<circle cx="62.4639" cy="435.878" r="4" fill="#0" id="circle20"/>
	<circle cx="70.0076" cy="47.3764" r="4" fill="#0" id="circle21"/>
	<circle cx="77.5513" cy="449.08" r="4" fill="#0" id="circle22"/>
	<circle cx="88.8669" cy="37.9468" r="4" fill="#0" id="circle23"/>
	<circle cx="94.5247" cy="458.51" r="4" fill="#0" id="circle24"/>
	<circle cx="103.954" cy="22.8593" r="4" fill="#0" id="circle25"/>
	<circle cx="109.612" cy="471.711" r="4" fill="#0" id="circle26"/>
	<circle cx="120.928" cy="13.4297" r="4" fill="#0" id="circle27"/>
	<circle cx="122.814" cy="486.798" r="4" fill="#0" id="circle28"/>
	<circle cx="137.901" cy="500" r="4" fill="#0" id="circle29"/>
	<circle cx="139.787" cy="13.4297" r="4" fill="#0" id="circle30"/>
	<circle cx="154.875" cy="509.43" r="4" fill="#0" id="circle31"/>
	<circle cx="156.76" cy="4" r="4" fill="#0" id="circle32"/>
	<circle cx="169.962" cy="522.631" r="4" fill="#0" id="circle33"/>
	<circle cx="175.62" cy="4" r="4" fill="#0" id="circle34"/>
	<circle cx="183.163" cy="537.719" r="4" fill="#0" id="circle35"/>
	<circle cx="194.479" cy="4" r="4" fill="#0" id="circle36"/>
	<circle cx="202.023" cy="543.376" r="4" fill="#0" id="circle37"/>
	<circle cx="213.338" cy="4" r="4" fill="#0" id="circle38"/>
	<circle cx="218.996" cy="552.806" r="4" fill="#0" id="circle39"/>
	<circle cx="232.198" cy="4" r="4" fill="#0" id="circle40"/>
	<circle cx="237.856" cy="552.806" r="4" fill="#0" id="circle41"/>
	<circle cx="251.057" cy="4" r="4" fill="#0" id="circle42"/>
	<circle cx="254.829" cy="562.236" r="4" fill="#0" id="circle43"/>
	<circle cx="269.916" cy="9.65779" r="4" fill="#0" id="circle44"/>
	<circle cx="271.802" cy="571.665" r="4" fill="#0" id="circle45"/>
	<circle cx="286.89" cy="19.0875" r="4" fill="#0" id="circle46"/>
	<circle cx="290.662" cy="571.665" r="4" fill="#0" id="circle47"/>
	<circle cx="305.749" cy="26.6312" r="4" fill="#0" id="circle48"/>
	<circle cx="309.521" cy="577.323" r="4" fill="#0" id="circle49"/>
	<circle cx="322.722" cy="36.0608" r="4" fill="#0" id="circle50"/>
	<circle cx="328.38" cy="581.095" r="4" fill="#0" id="circle51"/>
	<circle cx="341.582" cy="43.6046" r="4" fill="#0" id="circle52"/>
	<circle cx="347.24" cy="586.753" r="4" fill="#0" id="circle53"/>
	<circle cx="358.555" cy="53.0342" r="4" fill="#0" id="circle54"/>
	<circle cx="364.213" cy="596.183" r="4" fill="#0" id="circle55"/>
	<circle cx="373.643" cy="66.2357" r="4" fill="#0" id="circle56"/>
	<circle cx="383.072" cy="599.954" r="4" fill="#0" id="circle57"/>
	<circle cx="386.844" cy="81.3232" r="4" fill="#0" id="circle58"/>
	<circle cx="401.932" cy="603.726" r="4" fill="#0" id="circle59"/>
	<circle cx="405.703" cy="88.8669" r="4" fill="#0" id="circle60"/>
	<circle cx="411.361" cy="107.726" r="4" fill="#0" id="circle61"/>
	<circle cx="418.905" cy="613.156" r="4" fill="#0" id="circle62"/>
	<circle cx="420.791" cy="124.7" r="4" fill="#0" id="circle63"/>
	<circle cx="430.221" cy="141.673" r="4" fill="#0" id="circle64"/>
	<circle cx="437.764" cy="618.814" r="4" fill="#0" id="circle65"/>
	<circle cx="439.65" cy="158.646" r="4" fill="#0" id="circle66"/>
	<circle cx="449.08" cy="175.62" r="4" fill="#0" id="circle67"/>
	<circle cx="449.08" cy="633.901" r="4" fill="#0" id="circle68"/>
	<circle cx="458.51" cy="192.593" r="4" fill="#0" id="circle69"/>
	<circle cx="464.167" cy="647.103" r="4" fill="#0" id="circle70"/>
	<circle cx="467.939" cy="209.567" r="4" fill="#0" id="circle71"/>
	<circle cx="477.369" cy="226.54" r="4" fill="#0" id="circle72"/>
	<circle cx="481.141" cy="656.532" r="4" fill="#0" id="circle73"/>
	<circle cx="484.913" cy="245.399" r="4" fill="#0" id="circle74"/>
	<circle cx="494.342" cy="262.373" r="4" fill="#0" id="circle75"/>
	<circle cx="496.228" cy="669.734" r="4" fill="#0" id="circle76"/>
	<circle cx="505.658" cy="277.46" r="4" fill="#0" id="circle77"/>
	<circle cx="515.087" cy="675.392" r="4" fill="#0" id="circle78"/>
	<circle cx="522.631" cy="254.829" r="4" fill="#0" id="circle79"/>
	<circle cx="532.061" cy="226.54" r="4" fill="#0" id="circle80"/>
	<circle cx="533.947" cy="665.962" r="4" fill="#0" id="circle81"/>
	<circle cx="541.49" cy="207.681" r="4" fill="#0" id="circle82"/>
	<circle cx="552.806" cy="656.532" r="4" fill="#0" id="circle83"/>
	<circle cx="556.578" cy="192.593" r="4" fill="#0" id="circle84"/>
	<circle cx="566.008" cy="173.734" r="4" fill="#0" id="circle85"/>
	<circle cx="571.665" cy="647.103" r="4" fill="#0" id="circle86"/>
	<circle cx="575.437" cy="154.875" r="4" fill="#0" id="circle87"/>
	<circle cx="584.867" cy="136.015" r="4" fill="#0" id="circle88"/>
	<circle cx="590.525" cy="637.673" r="4" fill="#0" id="circle89"/>
	<circle cx="594.297" cy="117.156" r="4" fill="#0" id="circle90"/>
	<circle cx="609.384" cy="102.068" r="4" fill="#0" id="circle91"/>
	<circle cx="609.384" cy="628.243" r="4" fill="#0" id="circle92"/>
	<circle cx="624.471" cy="88.8669" r="4" fill="#0" id="circle93"/>
	<circle cx="628.243" cy="628.243" r="4" fill="#0" id="circle94"/>
	<circle cx="637.673" cy="73.7795" r="4" fill="#0" id="circle95"/>
	<circle cx="647.103" cy="54.9202" r="4" fill="#0" id="circle96"/>
	<circle cx="647.103" cy="628.243" r="4" fill="#0" id="circle97"/>
	<circle cx="665.962" cy="45.4905" r="4" fill="#0" id="circle98"/>
	<circle cx="665.962" cy="618.814" r="4" fill="#0" id="circle99"/>
	<circle cx="684.821" cy="36.0608" r="4" fill="#0" id="circle100"/>
	<circle cx="684.821" cy="618.814" r="4" fill="#0" id="circle101"/>
	<circle cx="703.681" cy="26.6312" r="4" fill="#0" id="circle102"/>
	<circle cx="703.681" cy="618.814" r="4" fill="#0" id="circle103"/>
	<circle cx="722.54" cy="22.8593" r="4" fill="#0" id="circle104"/>
	<circle cx="722.54" cy="618.814" r="4" fill="#0" id="circle105"/>
	<circle cx="741.399" cy="22.8593" r="4" fill="#0" id="circle106"/>
	<circle cx="741.399" cy="618.814" r="4" fill="#0" id="circle107"/>
	<circle cx="760.259" cy="22.8593" r="4" fill="#0" id="circle108"/>
	<circle cx="760.259" cy="618.814" r="4" fill="#0" id="circle109"/>
	<circle cx="779.118" cy="22.8593" r="4" fill="#0" id="circle110"/>
	<circle cx="779.118" cy="609.384" r="4" fill="#0" id="circle111"/>
	<circle cx="797.977" cy="22.8593" r="4" fill="#0" id="circle112"/>
	<circle cx="797.977" cy="609.384" r="4" fill="#0" id="circle113"/>
	<circle cx="814.951" cy="32.289" r="4" fill="#0" id="circle114"/>
	<circle cx="816.837" cy="599.954" r="4" fill="#0" id="circle115"/>
	<circle cx="831.924" cy="41.7186" r="4" fill="#0" id="circle116"/>
	<circle cx="835.696" cy="590.525" r="4" fill="#0" id="circle117"/>
	<circle cx="850.783" cy="41.7186" r="4" fill="#0" id="circle118"/>
	<circle cx="854.555" cy="581.095" r="4" fill="#0" id="circle119"/>
	<circle cx="867.757" cy="51.1483" r="4" fill="#0" id="circle120"/>
	<circle cx="869.643" cy="567.894" r="4" fill="#0" id="circle121"/>
	<circle cx="880.958" cy="66.2357" r="4" fill="#0" id="circle122"/>
	<circle cx="882.844" cy="552.806" r="4" fill="#0" id="circle123"/>
	<circle cx="896.046" cy="79.4373" r="4" fill="#0" id="circle124"/>
	<circle cx="897.932" cy="539.605" r="4" fill="#0" id="circle125"/>
	<circle cx="911.133" cy="515.087" r="4" fill="#0" id="circle126"/>
	<circle cx="913.019" cy="88.8669" r="4" fill="#0" id="circle127"/>
	<circle cx="926.221" cy="501.886" r="4" fill="#0" id="circle128"/>
	<circle cx="929.992" cy="98.2966" r="4" fill="#0" id="circle129"/>
	<circle cx="939.422" cy="486.798" r="4" fill="#0" id="circle130"/>
	<circle cx="945.08" cy="109.612" r="4" fill="#0" id="circle131"/>
	<circle cx="948.852" cy="467.939" r="4" fill="#0" id="circle132"/>
	<circle cx="952.624" cy="128.471" r="4" fill="#0" id="circle133"/>
	<circle cx="958.281" cy="449.08" r="4" fill="#0" id="circle134"/>
	<circle cx="967.711" cy="141.673" r="4" fill="#0" id="circle135"/>
	<circle cx="967.711" cy="160.532" r="4" fill="#0" id="circle136"/>
	<circle cx="967.711" cy="430.221" r="4" fill="#0" id="circle137"/>
	<circle cx="977.141" cy="177.506" r="4" fill="#0" id="circle138"/>
	<circle cx="977.141" cy="392.502" r="4" fill="#0" id="circle139"/>
	<circle cx="977.141" cy="411.361" r="4" fill="#0" id="circle140"/>
	<circle cx="986.57" cy="194.479" r="4" fill="#0" id="circle141"/>
	<circle cx="986.57" cy="364.213" r="4" fill="#0" id="circle142"/>
	<circle cx="996" cy="211.452" r="4" fill="#0" id="circle143"/>
	<circle cx="996" cy="230.312" r="4" fill="#0" id="circle144"/>
	<circle cx="996" cy="249.171" r="4" fill="#0" id="circle145"/>
	<circle cx="996" cy="268.03" r="4" fill="#0" id="circle146"/>
	<circle cx="996" cy="286.89" r="4" fill="#0" id="circle147"/>
	<circle cx="996" cy="305.749" r="4" fill="#0" id="circle148"/>
	<circle cx="996" cy="324.608" r="4" fill="#0" id="circle149"/>
	<circle cx="996" cy="343.468" r="4" fill="#0" id="circle150"/>
	</g>
</svg>