<?xml version="1.0" encoding="UTF-8" standalone="no"?>
<!-- Created with CurveBenchmark -->
<svg
	xmlns:dc="http://purl.org/dc/elements/1.1/"
	xmlns:cc="http://creativecommons.org/ns#"
	xmlns:rdf="http://www.w3.org/1999/02/22-rdf-syntax-ns#"
	xmlns:svg="http://www.w3.org/2000/svg"
	xmlns="http://www.w3.org/2000/svg"
	xmlns:sodipodi="http://sodipodi.sourceforge.net/DTD/sodipodi-0.dtd"
	xmlns:inkscape="http://www.inkscape.org/namespaces/inkscape"
	width="1000"
	height="1000"
	id="svg2"
	version="1.1"
	sodipodi:docname="manifold/gathang-dino03.png.txt">
<defs
	id="defs4" />
<metadata
	id="metadata7">
	<rdf:RDF>
		<cc:Work
			rdf:about="">
			<dc:format>image/svg+xml</dc:format>
			<dc:type
				rdf:resource="http://purl.org/dc/dcmitype/StillImage" />
			<dc:title></dc:title>
		</cc:Work>
	</rdf:RDF>
</metadata>
<g
	inkscape:label="Layer 1"
	inkscape:groupmode="layer"
	id="layer1">
	<path style="fill:none;stroke:red;stroke-width:1px;stroke-linecap:butt;stroke-linejoin:miter;stroke-opacity:1" d="M 21.8137,61.8945 30.7205,54.101 z" id="boundary" inkscape:connector-curvature="0" />
	<path style="fill:none;stroke:red;stroke-width:1px;stroke-linecap:butt;stroke-linejoin:miter;stroke-opacity:1" d="M 65.2346,71.9147 54.101,71.9147 z" id="boundary" inkscape:connector-curvature="0" />
	<path style="fill:none;stroke:red;stroke-width:1px;stroke-linecap:butt;stroke-linejoin:miter;stroke-opacity:1" d="M 46.3075,37.4007 40.7407,48.5342 z" id="boundary" inkscape:connector-curvature="0" />
	<path style="fill:none;stroke:red;stroke-width:1px;stroke-linecap:butt;stroke-linejoin:miter;stroke-opacity:1" d="M 40.7407,48.5342 30.7205,54.101 z" id="boundary" inkscape:connector-curvature="0" />
	<path style="fill:none;stroke:red;stroke-width:1px;stroke-linecap:butt;stroke-linejoin:miter;stroke-opacity:1" d="M 4,79.7082 12.9068,70.8013 z" id="boundary" inkscape:connector-curvature="0" />
	<path style="fill:none;stroke:red;stroke-width:1px;stroke-linecap:butt;stroke-linejoin:miter;stroke-opacity:1" d="M 12.9068,70.8013 21.8137,61.8945 z" id="boundary" inkscape:connector-curvature="0" />
	<path style="fill:none;stroke:red;stroke-width:1px;stroke-linecap:butt;stroke-linejoin:miter;stroke-opacity:1" d="M 44.0808,77.4815 32.9473,83.0483 z" id="boundary" inkscape:connector-curvature="0" />
	<path style="fill:none;stroke:red;stroke-width:1px;stroke-linecap:butt;stroke-linejoin:miter;stroke-opacity:1" d="M 44.0808,77.4815 54.101,71.9147 z" id="boundary" inkscape:connector-curvature="0" />
	<path style="fill:none;stroke:red;stroke-width:1px;stroke-linecap:butt;stroke-linejoin:miter;stroke-opacity:1" d="M 32.9473,83.0483 24.0404,93.0685 z" id="boundary" inkscape:connector-curvature="0" />
	<path style="fill:none;stroke:red;stroke-width:1px;stroke-linecap:butt;stroke-linejoin:miter;stroke-opacity:1" d="M 46.3075,37.4007 55.2144,28.4938 z" id="boundary" inkscape:connector-curvature="0" />
	<path style="fill:none;stroke:red;stroke-width:1px;stroke-linecap:butt;stroke-linejoin:miter;stroke-opacity:1" d="M 84.1616,9.56678 94.1818,4 z" id="boundary" inkscape:connector-curvature="0" />
	<path style="fill:none;stroke:red;stroke-width:1px;stroke-linecap:butt;stroke-linejoin:miter;stroke-opacity:1" d="M 94.1818,4 105.315,4 z" id="boundary" inkscape:connector-curvature="0" />
	<path style="fill:none;stroke:red;stroke-width:1px;stroke-linecap:butt;stroke-linejoin:miter;stroke-opacity:1" d="M 105.315,4 116.449,4 z" id="boundary" inkscape:connector-curvature="0" />
	<path style="fill:none;stroke:red;stroke-width:1px;stroke-linecap:butt;stroke-linejoin:miter;stroke-opacity:1" d="M 116.449,4 127.582,7.34007 z" id="boundary" inkscape:connector-curvature="0" />
	<path style="fill:none;stroke:red;stroke-width:1px;stroke-linecap:butt;stroke-linejoin:miter;stroke-opacity:1" d="M 138.716,9.56678 127.582,7.34007 z" id="boundary" inkscape:connector-curvature="0" />
	<path style="fill:none;stroke:red;stroke-width:1px;stroke-linecap:butt;stroke-linejoin:miter;stroke-opacity:1" d="M 55.2144,28.4938 64.1212,20.7003 z" id="boundary" inkscape:connector-curvature="0" />
	<path style="fill:none;stroke:red;stroke-width:1px;stroke-linecap:butt;stroke-linejoin:miter;stroke-opacity:1" d="M 64.1212,20.7003 74.1414,15.1336 z" id="boundary" inkscape:connector-curvature="0" />
	<path style="fill:none;stroke:red;stroke-width:1px;stroke-linecap:butt;stroke-linejoin:miter;stroke-opacity:1" d="M 74.1414,15.1336 84.1616,9.56678 z" id="boundary" inkscape:connector-curvature="0" />
	<path style="fill:none;stroke:red;stroke-width:1px;stroke-linecap:butt;stroke-linejoin:miter;stroke-opacity:1" d="M 144.283,90.8418 135.376,83.0483 z" id="boundary" inkscape:connector-curvature="0" />
	<path style="fill:none;stroke:red;stroke-width:1px;stroke-linecap:butt;stroke-linejoin:miter;stroke-opacity:1" d="M 65.2346,71.9147 59.6678,85.275 z" id="boundary" inkscape:connector-curvature="0" />
	<path style="fill:none;stroke:red;stroke-width:1px;stroke-linecap:butt;stroke-linejoin:miter;stroke-opacity:1" d="M 4,90.8418 12.9068,98.6352 z" id="boundary" inkscape:connector-curvature="0" />
	<path style="fill:none;stroke:red;stroke-width:1px;stroke-linecap:butt;stroke-linejoin:miter;stroke-opacity:1" d="M 12.9068,98.6352 20.7003,113.109 z" id="boundary" inkscape:connector-curvature="0" />
	<path style="fill:none;stroke:red;stroke-width:1px;stroke-linecap:butt;stroke-linejoin:miter;stroke-opacity:1" d="M 50.7609,93.0685 40.7407,98.6352 z" id="boundary" inkscape:connector-curvature="0" />
	<path style="fill:none;stroke:red;stroke-width:1px;stroke-linecap:butt;stroke-linejoin:miter;stroke-opacity:1" d="M 4,90.8418 4,79.7082 z" id="boundary" inkscape:connector-curvature="0" />
	<path style="fill:none;stroke:red;stroke-width:1px;stroke-linecap:butt;stroke-linejoin:miter;stroke-opacity:1" d="M 40.7407,98.6352 29.6072,104.202 z" id="boundary" inkscape:connector-curvature="0" />
	<path style="fill:none;stroke:red;stroke-width:1px;stroke-linecap:butt;stroke-linejoin:miter;stroke-opacity:1" d="M 29.6072,120.902 20.7003,113.109 z" id="boundary" inkscape:connector-curvature="0" />
	<path style="fill:none;stroke:red;stroke-width:1px;stroke-linecap:butt;stroke-linejoin:miter;stroke-opacity:1" d="M 40.7407,120.902 29.6072,120.902 z" id="boundary" inkscape:connector-curvature="0" />
	<path style="fill:none;stroke:red;stroke-width:1px;stroke-linecap:butt;stroke-linejoin:miter;stroke-opacity:1" d="M 49.6476,110.882 40.7407,120.902 z" id="boundary" inkscape:connector-curvature="0" />
	<path style="fill:none;stroke:red;stroke-width:1px;stroke-linecap:butt;stroke-linejoin:miter;stroke-opacity:1" d="M 49.6476,110.882 60.7811,105.315 z" id="boundary" inkscape:connector-curvature="0" />
	<path style="fill:none;stroke:red;stroke-width:1px;stroke-linecap:butt;stroke-linejoin:miter;stroke-opacity:1" d="M 91.9551,91.9551 80.8215,94.1818 z" id="boundary" inkscape:connector-curvature="0" />
	<path style="fill:none;stroke:red;stroke-width:1px;stroke-linecap:butt;stroke-linejoin:miter;stroke-opacity:1" d="M 103.089,88.615 91.9551,91.9551 z" id="boundary" inkscape:connector-curvature="0" />
	<path style="fill:none;stroke:red;stroke-width:1px;stroke-linecap:butt;stroke-linejoin:miter;stroke-opacity:1" d="M 114.222,88.615 103.089,88.615 z" id="boundary" inkscape:connector-curvature="0" />
	<path style="fill:none;stroke:red;stroke-width:1px;stroke-linecap:butt;stroke-linejoin:miter;stroke-opacity:1" d="M 125.356,88.615 135.376,83.0483 z" id="boundary" inkscape:connector-curvature="0" />
	<path style="fill:none;stroke:red;stroke-width:1px;stroke-linecap:butt;stroke-linejoin:miter;stroke-opacity:1" d="M 125.356,88.615 114.222,88.615 z" id="boundary" inkscape:connector-curvature="0" />
	<path style="fill:none;stroke:red;stroke-width:1px;stroke-linecap:butt;stroke-linejoin:miter;stroke-opacity:1" d="M 70.8013,99.7486 60.7811,105.315 z" id="boundary" inkscape:connector-curvature="0" />
	<path style="fill:none;stroke:red;stroke-width:1px;stroke-linecap:butt;stroke-linejoin:miter;stroke-opacity:1" d="M 80.8215,94.1818 70.8013,99.7486 z" id="boundary" inkscape:connector-curvature="0" />
	<path style="fill:none;stroke:red;stroke-width:1px;stroke-linecap:butt;stroke-linejoin:miter;stroke-opacity:1" d="M 135.376,254.505 124.242,260.072 z" id="boundary" inkscape:connector-curvature="0" />
	<path style="fill:none;stroke:red;stroke-width:1px;stroke-linecap:butt;stroke-linejoin:miter;stroke-opacity:1" d="M 144.283,90.8418 148.736,101.975 z" id="boundary" inkscape:connector-curvature="0" />
	<path style="fill:none;stroke:red;stroke-width:1px;stroke-linecap:butt;stroke-linejoin:miter;stroke-opacity:1" d="M 50.7609,93.0685 59.6678,85.275 z" id="boundary" inkscape:connector-curvature="0" />
	<path style="fill:none;stroke:red;stroke-width:1px;stroke-linecap:butt;stroke-linejoin:miter;stroke-opacity:1" d="M 124.242,260.072 113.109,265.639 z" id="boundary" inkscape:connector-curvature="0" />
	<path style="fill:none;stroke:red;stroke-width:1px;stroke-linecap:butt;stroke-linejoin:miter;stroke-opacity:1" d="M 138.716,9.56678 147.623,16.2469 z" id="boundary" inkscape:connector-curvature="0" />
	<path style="fill:none;stroke:red;stroke-width:1px;stroke-linecap:butt;stroke-linejoin:miter;stroke-opacity:1" d="M 155.416,25.1538 164.323,32.9473 z" id="boundary" inkscape:connector-curvature="0" />
	<path style="fill:none;stroke:red;stroke-width:1px;stroke-linecap:butt;stroke-linejoin:miter;stroke-opacity:1" d="M 155.416,25.1538 147.623,16.2469 z" id="boundary" inkscape:connector-curvature="0" />
	<path style="fill:none;stroke:red;stroke-width:1px;stroke-linecap:butt;stroke-linejoin:miter;stroke-opacity:1" d="M 181.024,49.6476 172.117,41.8541 z" id="boundary" inkscape:connector-curvature="0" />
	<path style="fill:none;stroke:red;stroke-width:1px;stroke-linecap:butt;stroke-linejoin:miter;stroke-opacity:1" d="M 172.117,41.8541 164.323,32.9473 z" id="boundary" inkscape:connector-curvature="0" />
	<path style="fill:none;stroke:red;stroke-width:1px;stroke-linecap:butt;stroke-linejoin:miter;stroke-opacity:1" d="M 368.067,132.036 356.934,132.036 z" id="boundary" inkscape:connector-curvature="0" />
	<path style="fill:none;stroke:red;stroke-width:1px;stroke-linecap:butt;stroke-linejoin:miter;stroke-opacity:1" d="M 181.024,49.6476 188.817,58.5544 z" id="boundary" inkscape:connector-curvature="0" />
	<path style="fill:none;stroke:red;stroke-width:1px;stroke-linecap:butt;stroke-linejoin:miter;stroke-opacity:1" d="M 148.736,101.975 154.303,111.996 z" id="boundary" inkscape:connector-curvature="0" />
	<path style="fill:none;stroke:red;stroke-width:1px;stroke-linecap:butt;stroke-linejoin:miter;stroke-opacity:1" d="M 154.303,111.996 154.303,123.129 z" id="boundary" inkscape:connector-curvature="0" />
	<path style="fill:none;stroke:red;stroke-width:1px;stroke-linecap:butt;stroke-linejoin:miter;stroke-opacity:1" d="M 159.87,133.149 154.303,123.129 z" id="boundary" inkscape:connector-curvature="0" />
	<path style="fill:none;stroke:red;stroke-width:1px;stroke-linecap:butt;stroke-linejoin:miter;stroke-opacity:1" d="M 194.384,68.5746 188.817,58.5544 z" id="boundary" inkscape:connector-curvature="0" />
	<path style="fill:none;stroke:red;stroke-width:1px;stroke-linecap:butt;stroke-linejoin:miter;stroke-opacity:1" d="M 194.384,68.5746 199.951,78.5948 z" id="boundary" inkscape:connector-curvature="0" />
	<path style="fill:none;stroke:red;stroke-width:1px;stroke-linecap:butt;stroke-linejoin:miter;stroke-opacity:1" d="M 205.517,88.615 199.951,78.5948 z" id="boundary" inkscape:connector-curvature="0" />
	<path style="fill:none;stroke:red;stroke-width:1px;stroke-linecap:butt;stroke-linejoin:miter;stroke-opacity:1" d="M 219.991,116.449 211.084,109.769 z" id="boundary" inkscape:connector-curvature="0" />
	<path style="fill:none;stroke:red;stroke-width:1px;stroke-linecap:butt;stroke-linejoin:miter;stroke-opacity:1" d="M 211.084,109.769 211.084,98.6352 z" id="boundary" inkscape:connector-curvature="0" />
	<path style="fill:none;stroke:red;stroke-width:1px;stroke-linecap:butt;stroke-linejoin:miter;stroke-opacity:1" d="M 205.517,88.615 211.084,98.6352 z" id="boundary" inkscape:connector-curvature="0" />
	<path style="fill:none;stroke:red;stroke-width:1px;stroke-linecap:butt;stroke-linejoin:miter;stroke-opacity:1" d="M 238.918,129.809 227.785,125.356 z" id="boundary" inkscape:connector-curvature="0" />
	<path style="fill:none;stroke:red;stroke-width:1px;stroke-linecap:butt;stroke-linejoin:miter;stroke-opacity:1" d="M 227.785,125.356 219.991,116.449 z" id="boundary" inkscape:connector-curvature="0" />
	<path style="fill:none;stroke:red;stroke-width:1px;stroke-linecap:butt;stroke-linejoin:miter;stroke-opacity:1" d="M 250.052,132.036 238.918,129.809 z" id="boundary" inkscape:connector-curvature="0" />
	<path style="fill:none;stroke:red;stroke-width:1px;stroke-linecap:butt;stroke-linejoin:miter;stroke-opacity:1" d="M 334.667,132.036 345.8,132.036 z" id="boundary" inkscape:connector-curvature="0" />
	<path style="fill:none;stroke:red;stroke-width:1px;stroke-linecap:butt;stroke-linejoin:miter;stroke-opacity:1" d="M 324.646,137.603 334.667,132.036 z" id="boundary" inkscape:connector-curvature="0" />
	<path style="fill:none;stroke:red;stroke-width:1px;stroke-linecap:butt;stroke-linejoin:miter;stroke-opacity:1" d="M 345.8,132.036 356.934,132.036 z" id="boundary" inkscape:connector-curvature="0" />
	<path style="fill:none;stroke:red;stroke-width:1px;stroke-linecap:butt;stroke-linejoin:miter;stroke-opacity:1" d="M 250.052,132.036 260.072,137.603 z" id="boundary" inkscape:connector-curvature="0" />
	<path style="fill:none;stroke:red;stroke-width:1px;stroke-linecap:butt;stroke-linejoin:miter;stroke-opacity:1" d="M 159.87,144.283 159.87,155.416 z" id="boundary" inkscape:connector-curvature="0" />
	<path style="fill:none;stroke:red;stroke-width:1px;stroke-linecap:butt;stroke-linejoin:miter;stroke-opacity:1" d="M 159.87,155.416 165.437,165.437 z" id="boundary" inkscape:connector-curvature="0" />
	<path style="fill:none;stroke:red;stroke-width:1px;stroke-linecap:butt;stroke-linejoin:miter;stroke-opacity:1" d="M 165.437,165.437 167.663,176.57 z" id="boundary" inkscape:connector-curvature="0" />
	<path style="fill:none;stroke:red;stroke-width:1px;stroke-linecap:butt;stroke-linejoin:miter;stroke-opacity:1" d="M 171.003,187.704 167.663,176.57 z" id="boundary" inkscape:connector-curvature="0" />
	<path style="fill:none;stroke:red;stroke-width:1px;stroke-linecap:butt;stroke-linejoin:miter;stroke-opacity:1" d="M 135.376,254.505 146.51,248.938 z" id="boundary" inkscape:connector-curvature="0" />
	<path style="fill:none;stroke:red;stroke-width:1px;stroke-linecap:butt;stroke-linejoin:miter;stroke-opacity:1" d="M 157.643,248.938 146.51,248.938 z" id="boundary" inkscape:connector-curvature="0" />
	<path style="fill:none;stroke:red;stroke-width:1px;stroke-linecap:butt;stroke-linejoin:miter;stroke-opacity:1" d="M 167.663,243.371 157.643,248.938 z" id="boundary" inkscape:connector-curvature="0" />
	<path style="fill:none;stroke:red;stroke-width:1px;stroke-linecap:butt;stroke-linejoin:miter;stroke-opacity:1" d="M 171.003,187.704 176.57,197.724 z" id="boundary" inkscape:connector-curvature="0" />
	<path style="fill:none;stroke:red;stroke-width:1px;stroke-linecap:butt;stroke-linejoin:miter;stroke-opacity:1" d="M 159.87,144.283 159.87,133.149 z" id="boundary" inkscape:connector-curvature="0" />
	<path style="fill:none;stroke:red;stroke-width:1px;stroke-linecap:butt;stroke-linejoin:miter;stroke-opacity:1" d="M 260.072,137.603 271.205,137.603 z" id="boundary" inkscape:connector-curvature="0" />
	<path style="fill:none;stroke:red;stroke-width:1px;stroke-linecap:butt;stroke-linejoin:miter;stroke-opacity:1" d="M 271.205,137.603 281.226,143.169 z" id="boundary" inkscape:connector-curvature="0" />
	<path style="fill:none;stroke:red;stroke-width:1px;stroke-linecap:butt;stroke-linejoin:miter;stroke-opacity:1" d="M 292.359,143.169 281.226,143.169 z" id="boundary" inkscape:connector-curvature="0" />
	<path style="fill:none;stroke:red;stroke-width:1px;stroke-linecap:butt;stroke-linejoin:miter;stroke-opacity:1" d="M 303.493,143.169 313.513,137.603 z" id="boundary" inkscape:connector-curvature="0" />
	<path style="fill:none;stroke:red;stroke-width:1px;stroke-linecap:butt;stroke-linejoin:miter;stroke-opacity:1" d="M 313.513,137.603 324.646,137.603 z" id="boundary" inkscape:connector-curvature="0" />
	<path style="fill:none;stroke:red;stroke-width:1px;stroke-linecap:butt;stroke-linejoin:miter;stroke-opacity:1" d="M 178.797,238.918 167.663,243.371 z" id="boundary" inkscape:connector-curvature="0" />
	<path style="fill:none;stroke:red;stroke-width:1px;stroke-linecap:butt;stroke-linejoin:miter;stroke-opacity:1" d="M 176.57,197.724 182.137,207.744 z" id="boundary" inkscape:connector-curvature="0" />
	<path style="fill:none;stroke:red;stroke-width:1px;stroke-linecap:butt;stroke-linejoin:miter;stroke-opacity:1" d="M 182.137,207.744 182.137,218.878 z" id="boundary" inkscape:connector-curvature="0" />
	<path style="fill:none;stroke:red;stroke-width:1px;stroke-linecap:butt;stroke-linejoin:miter;stroke-opacity:1" d="M 187.704,228.898 182.137,218.878 z" id="boundary" inkscape:connector-curvature="0" />
	<path style="fill:none;stroke:red;stroke-width:1px;stroke-linecap:butt;stroke-linejoin:miter;stroke-opacity:1" d="M 187.704,228.898 178.797,238.918 z" id="boundary" inkscape:connector-curvature="0" />
	<path style="fill:none;stroke:red;stroke-width:1px;stroke-linecap:butt;stroke-linejoin:miter;stroke-opacity:1" d="M 303.493,143.169 292.359,143.169 z" id="boundary" inkscape:connector-curvature="0" />
	<path style="fill:none;stroke:red;stroke-width:1px;stroke-linecap:butt;stroke-linejoin:miter;stroke-opacity:1" d="M 79.7082,282.339 90.8418,276.772 z" id="boundary" inkscape:connector-curvature="0" />
	<path style="fill:none;stroke:red;stroke-width:1px;stroke-linecap:butt;stroke-linejoin:miter;stroke-opacity:1" d="M 101.975,271.205 113.109,265.639 z" id="boundary" inkscape:connector-curvature="0" />
	<path style="fill:none;stroke:red;stroke-width:1px;stroke-linecap:butt;stroke-linejoin:miter;stroke-opacity:1" d="M 132.036,280.112 120.902,285.679 z" id="boundary" inkscape:connector-curvature="0" />
	<path style="fill:none;stroke:red;stroke-width:1px;stroke-linecap:butt;stroke-linejoin:miter;stroke-opacity:1" d="M 90.8418,276.772 101.975,271.205 z" id="boundary" inkscape:connector-curvature="0" />
	<path style="fill:none;stroke:red;stroke-width:1px;stroke-linecap:butt;stroke-linejoin:miter;stroke-opacity:1" d="M 120.902,285.679 109.769,291.246 z" id="boundary" inkscape:connector-curvature="0" />
	<path style="fill:none;stroke:red;stroke-width:1px;stroke-linecap:butt;stroke-linejoin:miter;stroke-opacity:1" d="M 59.6678,296.813 68.5746,287.906 z" id="boundary" inkscape:connector-curvature="0" />
	<path style="fill:none;stroke:red;stroke-width:1px;stroke-linecap:butt;stroke-linejoin:miter;stroke-opacity:1" d="M 68.5746,287.906 79.7082,282.339 z" id="boundary" inkscape:connector-curvature="0" />
	<path style="fill:none;stroke:red;stroke-width:1px;stroke-linecap:butt;stroke-linejoin:miter;stroke-opacity:1" d="M 98.6352,294.586 109.769,291.246 z" id="boundary" inkscape:connector-curvature="0" />
	<path style="fill:none;stroke:red;stroke-width:1px;stroke-linecap:butt;stroke-linejoin:miter;stroke-opacity:1" d="M 98.6352,294.586 88.615,300.153 z" id="boundary" inkscape:connector-curvature="0" />
	<path style="fill:none;stroke:red;stroke-width:1px;stroke-linecap:butt;stroke-linejoin:miter;stroke-opacity:1" d="M 66.3479,305.719 59.6678,296.813 z" id="boundary" inkscape:connector-curvature="0" />
	<path style="fill:none;stroke:red;stroke-width:1px;stroke-linecap:butt;stroke-linejoin:miter;stroke-opacity:1" d="M 140.943,271.205 152.076,266.752 z" id="boundary" inkscape:connector-curvature="0" />
	<path style="fill:none;stroke:red;stroke-width:1px;stroke-linecap:butt;stroke-linejoin:miter;stroke-opacity:1" d="M 140.943,271.205 132.036,280.112 z" id="boundary" inkscape:connector-curvature="0" />
	<path style="fill:none;stroke:red;stroke-width:1px;stroke-linecap:butt;stroke-linejoin:miter;stroke-opacity:1" d="M 163.21,266.752 174.343,266.752 z" id="boundary" inkscape:connector-curvature="0" />
	<path style="fill:none;stroke:red;stroke-width:1px;stroke-linecap:butt;stroke-linejoin:miter;stroke-opacity:1" d="M 174.343,266.752 168.777,276.772 z" id="boundary" inkscape:connector-curvature="0" />
	<path style="fill:none;stroke:red;stroke-width:1px;stroke-linecap:butt;stroke-linejoin:miter;stroke-opacity:1" d="M 163.21,266.752 152.076,266.752 z" id="boundary" inkscape:connector-curvature="0" />
	<path style="fill:none;stroke:red;stroke-width:1px;stroke-linecap:butt;stroke-linejoin:miter;stroke-opacity:1" d="M 168.777,276.772 156.53,282.339 z" id="boundary" inkscape:connector-curvature="0" />
	<path style="fill:none;stroke:red;stroke-width:1px;stroke-linecap:butt;stroke-linejoin:miter;stroke-opacity:1" d="M 146.51,287.906 135.376,293.473 z" id="boundary" inkscape:connector-curvature="0" />
	<path style="fill:none;stroke:red;stroke-width:1px;stroke-linecap:butt;stroke-linejoin:miter;stroke-opacity:1" d="M 209.971,291.246 198.837,296.813 z" id="boundary" inkscape:connector-curvature="0" />
	<path style="fill:none;stroke:red;stroke-width:1px;stroke-linecap:butt;stroke-linejoin:miter;stroke-opacity:1" d="M 146.51,287.906 156.53,282.339 z" id="boundary" inkscape:connector-curvature="0" />
	<path style="fill:none;stroke:red;stroke-width:1px;stroke-linecap:butt;stroke-linejoin:miter;stroke-opacity:1" d="M 135.376,293.473 126.469,302.379 z" id="boundary" inkscape:connector-curvature="0" />
	<path style="fill:none;stroke:red;stroke-width:1px;stroke-linecap:butt;stroke-linejoin:miter;stroke-opacity:1" d="M 198.837,296.813 187.704,300.153 z" id="boundary" inkscape:connector-curvature="0" />
	<path style="fill:none;stroke:red;stroke-width:1px;stroke-linecap:butt;stroke-linejoin:miter;stroke-opacity:1" d="M 66.3479,305.719 79.7082,311.286 z" id="boundary" inkscape:connector-curvature="0" />
	<path style="fill:none;stroke:red;stroke-width:1px;stroke-linecap:butt;stroke-linejoin:miter;stroke-opacity:1" d="M 126.469,302.379 115.336,313.513 z" id="boundary" inkscape:connector-curvature="0" />
	<path style="fill:none;stroke:red;stroke-width:1px;stroke-linecap:butt;stroke-linejoin:miter;stroke-opacity:1" d="M 79.7082,311.286 88.615,300.153 z" id="boundary" inkscape:connector-curvature="0" />
	<path style="fill:none;stroke:red;stroke-width:1px;stroke-linecap:butt;stroke-linejoin:miter;stroke-opacity:1" d="M 115.336,313.513 115.336,324.646 z" id="boundary" inkscape:connector-curvature="0" />
	<path style="fill:none;stroke:red;stroke-width:1px;stroke-linecap:butt;stroke-linejoin:miter;stroke-opacity:1" d="M 115.336,324.646 115.336,335.78 z" id="boundary" inkscape:connector-curvature="0" />
	<path style="fill:none;stroke:red;stroke-width:1px;stroke-linecap:butt;stroke-linejoin:miter;stroke-opacity:1" d="M 128.696,354.707 120.902,345.8 z" id="boundary" inkscape:connector-curvature="0" />
	<path style="fill:none;stroke:red;stroke-width:1px;stroke-linecap:butt;stroke-linejoin:miter;stroke-opacity:1" d="M 120.902,345.8 115.336,335.78 z" id="boundary" inkscape:connector-curvature="0" />
	<path style="fill:none;stroke:red;stroke-width:1px;stroke-linecap:butt;stroke-linejoin:miter;stroke-opacity:1" d="M 138.716,327.987 140.943,339.12 z" id="boundary" inkscape:connector-curvature="0" />
	<path style="fill:none;stroke:red;stroke-width:1px;stroke-linecap:butt;stroke-linejoin:miter;stroke-opacity:1" d="M 147.623,320.193 138.716,327.987 z" id="boundary" inkscape:connector-curvature="0" />
	<path style="fill:none;stroke:red;stroke-width:1px;stroke-linecap:butt;stroke-linejoin:miter;stroke-opacity:1" d="M 147.623,320.193 155.416,311.286 z" id="boundary" inkscape:connector-curvature="0" />
	<path style="fill:none;stroke:red;stroke-width:1px;stroke-linecap:butt;stroke-linejoin:miter;stroke-opacity:1" d="M 165.437,305.719 176.57,302.379 z" id="boundary" inkscape:connector-curvature="0" />
	<path style="fill:none;stroke:red;stroke-width:1px;stroke-linecap:butt;stroke-linejoin:miter;stroke-opacity:1" d="M 165.437,305.719 155.416,311.286 z" id="boundary" inkscape:connector-curvature="0" />
	<path style="fill:none;stroke:red;stroke-width:1px;stroke-linecap:butt;stroke-linejoin:miter;stroke-opacity:1" d="M 176.57,302.379 187.704,300.153 z" id="boundary" inkscape:connector-curvature="0" />
	<path style="fill:none;stroke:red;stroke-width:1px;stroke-linecap:butt;stroke-linejoin:miter;stroke-opacity:1" d="M 150.963,361.387 139.829,359.16 z" id="boundary" inkscape:connector-curvature="0" />
	<path style="fill:none;stroke:red;stroke-width:1px;stroke-linecap:butt;stroke-linejoin:miter;stroke-opacity:1" d="M 139.829,359.16 128.696,354.707 z" id="boundary" inkscape:connector-curvature="0" />
	<path style="fill:none;stroke:red;stroke-width:1px;stroke-linecap:butt;stroke-linejoin:miter;stroke-opacity:1" d="M 140.943,339.12 152.076,338.007 z" id="boundary" inkscape:connector-curvature="0" />
	<path style="fill:none;stroke:red;stroke-width:1px;stroke-linecap:butt;stroke-linejoin:miter;stroke-opacity:1" d="M 152.076,338.007 163.21,338.007 z" id="boundary" inkscape:connector-curvature="0" />
	<path style="fill:none;stroke:red;stroke-width:1px;stroke-linecap:butt;stroke-linejoin:miter;stroke-opacity:1" d="M 163.21,338.007 160.983,350.254 z" id="boundary" inkscape:connector-curvature="0" />
	<path style="fill:none;stroke:red;stroke-width:1px;stroke-linecap:butt;stroke-linejoin:miter;stroke-opacity:1" d="M 160.983,350.254 150.963,361.387 z" id="boundary" inkscape:connector-curvature="0" />
	<path style="fill:none;stroke:red;stroke-width:1px;stroke-linecap:butt;stroke-linejoin:miter;stroke-opacity:1" d="M 209.971,291.246 221.104,289.019 z" id="boundary" inkscape:connector-curvature="0" />
	<path style="fill:none;stroke:red;stroke-width:1px;stroke-linecap:butt;stroke-linejoin:miter;stroke-opacity:1" d="M 227.785,277.886 233.351,266.752 z" id="boundary" inkscape:connector-curvature="0" />
	<path style="fill:none;stroke:red;stroke-width:1px;stroke-linecap:butt;stroke-linejoin:miter;stroke-opacity:1" d="M 233.351,266.752 244.485,266.752 z" id="boundary" inkscape:connector-curvature="0" />
	<path style="fill:none;stroke:red;stroke-width:1px;stroke-linecap:butt;stroke-linejoin:miter;stroke-opacity:1" d="M 227.785,277.886 221.104,289.019 z" id="boundary" inkscape:connector-curvature="0" />
	<path style="fill:none;stroke:red;stroke-width:1px;stroke-linecap:butt;stroke-linejoin:miter;stroke-opacity:1" d="M 244.485,266.752 255.618,268.979 z" id="boundary" inkscape:connector-curvature="0" />
	<path style="fill:none;stroke:red;stroke-width:1px;stroke-linecap:butt;stroke-linejoin:miter;stroke-opacity:1" d="M 255.618,268.979 263.412,277.886 z" id="boundary" inkscape:connector-curvature="0" />
	<path style="fill:none;stroke:red;stroke-width:1px;stroke-linecap:butt;stroke-linejoin:miter;stroke-opacity:1" d="M 273.432,283.452 263.412,277.886 z" id="boundary" inkscape:connector-curvature="0" />
	<path style="fill:none;stroke:red;stroke-width:1px;stroke-linecap:butt;stroke-linejoin:miter;stroke-opacity:1" d="M 287.906,300.153 291.246,311.286 z" id="boundary" inkscape:connector-curvature="0" />
	<path style="fill:none;stroke:red;stroke-width:1px;stroke-linecap:butt;stroke-linejoin:miter;stroke-opacity:1" d="M 301.266,316.853 291.246,311.286 z" id="boundary" inkscape:connector-curvature="0" />
	<path style="fill:none;stroke:red;stroke-width:1px;stroke-linecap:butt;stroke-linejoin:miter;stroke-opacity:1" d="M 273.432,283.452 282.339,290.132 z" id="boundary" inkscape:connector-curvature="0" />
	<path style="fill:none;stroke:red;stroke-width:1px;stroke-linecap:butt;stroke-linejoin:miter;stroke-opacity:1" d="M 282.339,290.132 287.906,300.153 z" id="boundary" inkscape:connector-curvature="0" />
	<path style="fill:none;stroke:red;stroke-width:1px;stroke-linecap:butt;stroke-linejoin:miter;stroke-opacity:1" d="M 301.266,316.853 310.173,323.533 z" id="boundary" inkscape:connector-curvature="0" />
	<path style="fill:none;stroke:red;stroke-width:1px;stroke-linecap:butt;stroke-linejoin:miter;stroke-opacity:1" d="M 310.173,323.533 315.74,333.553 z" id="boundary" inkscape:connector-curvature="0" />
	<path style="fill:none;stroke:red;stroke-width:1px;stroke-linecap:butt;stroke-linejoin:miter;stroke-opacity:1" d="M 341.347,355.82 331.327,350.254 z" id="boundary" inkscape:connector-curvature="0" />
	<path style="fill:none;stroke:red;stroke-width:1px;stroke-linecap:butt;stroke-linejoin:miter;stroke-opacity:1" d="M 331.327,350.254 322.42,342.46 z" id="boundary" inkscape:connector-curvature="0" />
	<path style="fill:none;stroke:red;stroke-width:1px;stroke-linecap:butt;stroke-linejoin:miter;stroke-opacity:1" d="M 315.74,333.553 322.42,342.46 z" id="boundary" inkscape:connector-curvature="0" />
	<path style="fill:none;stroke:red;stroke-width:1px;stroke-linecap:butt;stroke-linejoin:miter;stroke-opacity:1" d="M 341.347,355.82 350.254,363.614 z" id="boundary" inkscape:connector-curvature="0" />
	<path style="fill:none;stroke:red;stroke-width:1px;stroke-linecap:butt;stroke-linejoin:miter;stroke-opacity:1" d="M 360.274,369.181 350.254,363.614 z" id="boundary" inkscape:connector-curvature="0" />
	<path style="fill:none;stroke:red;stroke-width:1px;stroke-linecap:butt;stroke-linejoin:miter;stroke-opacity:1" d="M 362.501,438.209 351.367,438.209 z" id="boundary" inkscape:connector-curvature="0" />
	<path style="fill:none;stroke:red;stroke-width:1px;stroke-linecap:butt;stroke-linejoin:miter;stroke-opacity:1" d="M 351.367,438.209 341.347,432.642 z" id="boundary" inkscape:connector-curvature="0" />
	<path style="fill:none;stroke:red;stroke-width:1px;stroke-linecap:butt;stroke-linejoin:miter;stroke-opacity:1" d="M 360.274,369.181 369.181,376.974 z" id="boundary" inkscape:connector-curvature="0" />
	<path style="fill:none;stroke:red;stroke-width:1px;stroke-linecap:butt;stroke-linejoin:miter;stroke-opacity:1" d="M 341.347,432.642 332.44,441.549 z" id="boundary" inkscape:connector-curvature="0" />
	<path style="fill:none;stroke:red;stroke-width:1px;stroke-linecap:butt;stroke-linejoin:miter;stroke-opacity:1" d="M 311.286,478.29 304.606,469.383 z" id="boundary" inkscape:connector-curvature="0" />
	<path style="fill:none;stroke:red;stroke-width:1px;stroke-linecap:butt;stroke-linejoin:miter;stroke-opacity:1" d="M 304.606,469.383 315.74,463.816 z" id="boundary" inkscape:connector-curvature="0" />
	<path style="fill:none;stroke:red;stroke-width:1px;stroke-linecap:butt;stroke-linejoin:miter;stroke-opacity:1" d="M 338.007,460.476 326.873,460.476 z" id="boundary" inkscape:connector-curvature="0" />
	<path style="fill:none;stroke:red;stroke-width:1px;stroke-linecap:butt;stroke-linejoin:miter;stroke-opacity:1" d="M 326.873,460.476 315.74,463.816 z" id="boundary" inkscape:connector-curvature="0" />
	<path style="fill:none;stroke:red;stroke-width:1px;stroke-linecap:butt;stroke-linejoin:miter;stroke-opacity:1" d="M 322.42,478.29 311.286,478.29 z" id="boundary" inkscape:connector-curvature="0" />
	<path style="fill:none;stroke:red;stroke-width:1px;stroke-linecap:butt;stroke-linejoin:miter;stroke-opacity:1" d="M 322.42,478.29 333.553,478.29 z" id="boundary" inkscape:connector-curvature="0" />
	<path style="fill:none;stroke:red;stroke-width:1px;stroke-linecap:butt;stroke-linejoin:miter;stroke-opacity:1" d="M 343.574,550.658 332.44,547.318 z" id="boundary" inkscape:connector-curvature="0" />
	<path style="fill:none;stroke:red;stroke-width:1px;stroke-linecap:butt;stroke-linejoin:miter;stroke-opacity:1" d="M 344.687,472.723 333.553,478.29 z" id="boundary" inkscape:connector-curvature="0" />
	<path style="fill:none;stroke:red;stroke-width:1px;stroke-linecap:butt;stroke-linejoin:miter;stroke-opacity:1" d="M 338.007,460.476 349.14,460.476 z" id="boundary" inkscape:connector-curvature="0" />
	<path style="fill:none;stroke:red;stroke-width:1px;stroke-linecap:butt;stroke-linejoin:miter;stroke-opacity:1" d="M 344.687,472.723 355.82,472.723 z" id="boundary" inkscape:connector-curvature="0" />
	<path style="fill:none;stroke:red;stroke-width:1px;stroke-linecap:butt;stroke-linejoin:miter;stroke-opacity:1" d="M 366.954,472.723 355.82,472.723 z" id="boundary" inkscape:connector-curvature="0" />
	<path style="fill:none;stroke:red;stroke-width:1px;stroke-linecap:butt;stroke-linejoin:miter;stroke-opacity:1" d="M 354.707,508.35 365.841,505.01 z" id="boundary" inkscape:connector-curvature="0" />
	<path style="fill:none;stroke:red;stroke-width:1px;stroke-linecap:butt;stroke-linejoin:miter;stroke-opacity:1" d="M 354.707,508.35 343.574,513.917 z" id="boundary" inkscape:connector-curvature="0" />
	<path style="fill:none;stroke:red;stroke-width:1px;stroke-linecap:butt;stroke-linejoin:miter;stroke-opacity:1" d="M 350.254,522.824 343.574,513.917 z" id="boundary" inkscape:connector-curvature="0" />
	<path style="fill:none;stroke:red;stroke-width:1px;stroke-linecap:butt;stroke-linejoin:miter;stroke-opacity:1" d="M 364.727,556.224 353.594,556.224 z" id="boundary" inkscape:connector-curvature="0" />
	<path style="fill:none;stroke:red;stroke-width:1px;stroke-linecap:butt;stroke-linejoin:miter;stroke-opacity:1" d="M 361.387,525.051 352.48,538.411 z" id="boundary" inkscape:connector-curvature="0" />
	<path style="fill:none;stroke:red;stroke-width:1px;stroke-linecap:butt;stroke-linejoin:miter;stroke-opacity:1" d="M 353.594,556.224 343.574,550.658 z" id="boundary" inkscape:connector-curvature="0" />
	<path style="fill:none;stroke:red;stroke-width:1px;stroke-linecap:butt;stroke-linejoin:miter;stroke-opacity:1" d="M 368.067,132.036 379.201,132.036 z" id="boundary" inkscape:connector-curvature="0" />
	<path style="fill:none;stroke:red;stroke-width:1px;stroke-linecap:butt;stroke-linejoin:miter;stroke-opacity:1" d="M 410.375,143.169 399.241,139.829 z" id="boundary" inkscape:connector-curvature="0" />
	<path style="fill:none;stroke:red;stroke-width:1px;stroke-linecap:butt;stroke-linejoin:miter;stroke-opacity:1" d="M 399.241,139.829 390.334,132.036 z" id="boundary" inkscape:connector-curvature="0" />
	<path style="fill:none;stroke:red;stroke-width:1px;stroke-linecap:butt;stroke-linejoin:miter;stroke-opacity:1" d="M 379.201,132.036 390.334,132.036 z" id="boundary" inkscape:connector-curvature="0" />
	<path style="fill:none;stroke:red;stroke-width:1px;stroke-linecap:butt;stroke-linejoin:miter;stroke-opacity:1" d="M 410.375,143.169 420.395,148.736 z" id="boundary" inkscape:connector-curvature="0" />
	<path style="fill:none;stroke:red;stroke-width:1px;stroke-linecap:butt;stroke-linejoin:miter;stroke-opacity:1" d="M 430.415,154.303 420.395,148.736 z" id="boundary" inkscape:connector-curvature="0" />
	<path style="fill:none;stroke:red;stroke-width:1px;stroke-linecap:butt;stroke-linejoin:miter;stroke-opacity:1" d="M 517.257,154.303 528.391,154.303 z" id="boundary" inkscape:connector-curvature="0" />
	<path style="fill:none;stroke:red;stroke-width:1px;stroke-linecap:butt;stroke-linejoin:miter;stroke-opacity:1" d="M 507.237,159.87 517.257,154.303 z" id="boundary" inkscape:connector-curvature="0" />
	<path style="fill:none;stroke:red;stroke-width:1px;stroke-linecap:butt;stroke-linejoin:miter;stroke-opacity:1" d="M 539.524,154.303 528.391,154.303 z" id="boundary" inkscape:connector-curvature="0" />
	<path style="fill:none;stroke:red;stroke-width:1px;stroke-linecap:butt;stroke-linejoin:miter;stroke-opacity:1" d="M 550.658,154.303 539.524,154.303 z" id="boundary" inkscape:connector-curvature="0" />
	<path style="fill:none;stroke:red;stroke-width:1px;stroke-linecap:butt;stroke-linejoin:miter;stroke-opacity:1" d="M 550.658,154.303 561.791,154.303 z" id="boundary" inkscape:connector-curvature="0" />
	<path style="fill:none;stroke:red;stroke-width:1px;stroke-linecap:butt;stroke-linejoin:miter;stroke-opacity:1" d="M 572.925,154.303 584.058,154.303 z" id="boundary" inkscape:connector-curvature="0" />
	<path style="fill:none;stroke:red;stroke-width:1px;stroke-linecap:butt;stroke-linejoin:miter;stroke-opacity:1" d="M 572.925,154.303 561.791,154.303 z" id="boundary" inkscape:connector-curvature="0" />
	<path style="fill:none;stroke:red;stroke-width:1px;stroke-linecap:butt;stroke-linejoin:miter;stroke-opacity:1" d="M 584.058,154.303 595.192,154.303 z" id="boundary" inkscape:connector-curvature="0" />
	<path style="fill:none;stroke:red;stroke-width:1px;stroke-linecap:butt;stroke-linejoin:miter;stroke-opacity:1" d="M 606.325,154.303 617.459,154.303 z" id="boundary" inkscape:connector-curvature="0" />
	<path style="fill:none;stroke:red;stroke-width:1px;stroke-linecap:butt;stroke-linejoin:miter;stroke-opacity:1" d="M 606.325,154.303 595.192,154.303 z" id="boundary" inkscape:connector-curvature="0" />
	<path style="fill:none;stroke:red;stroke-width:1px;stroke-linecap:butt;stroke-linejoin:miter;stroke-opacity:1" d="M 617.459,154.303 628.593,154.303 z" id="boundary" inkscape:connector-curvature="0" />
	<path style="fill:none;stroke:red;stroke-width:1px;stroke-linecap:butt;stroke-linejoin:miter;stroke-opacity:1" d="M 639.726,154.303 650.86,154.303 z" id="boundary" inkscape:connector-curvature="0" />
	<path style="fill:none;stroke:red;stroke-width:1px;stroke-linecap:butt;stroke-linejoin:miter;stroke-opacity:1" d="M 639.726,154.303 628.593,154.303 z" id="boundary" inkscape:connector-curvature="0" />
	<path style="fill:none;stroke:red;stroke-width:1px;stroke-linecap:butt;stroke-linejoin:miter;stroke-opacity:1" d="M 650.86,154.303 661.993,154.303 z" id="boundary" inkscape:connector-curvature="0" />
	<path style="fill:none;stroke:red;stroke-width:1px;stroke-linecap:butt;stroke-linejoin:miter;stroke-opacity:1" d="M 440.435,159.87 451.569,159.87 z" id="boundary" inkscape:connector-curvature="0" />
	<path style="fill:none;stroke:red;stroke-width:1px;stroke-linecap:butt;stroke-linejoin:miter;stroke-opacity:1" d="M 440.435,159.87 430.415,154.303 z" id="boundary" inkscape:connector-curvature="0" />
	<path style="fill:none;stroke:red;stroke-width:1px;stroke-linecap:butt;stroke-linejoin:miter;stroke-opacity:1" d="M 473.836,159.87 462.703,159.87 z" id="boundary" inkscape:connector-curvature="0" />
	<path style="fill:none;stroke:red;stroke-width:1px;stroke-linecap:butt;stroke-linejoin:miter;stroke-opacity:1" d="M 462.703,159.87 451.569,159.87 z" id="boundary" inkscape:connector-curvature="0" />
	<path style="fill:none;stroke:red;stroke-width:1px;stroke-linecap:butt;stroke-linejoin:miter;stroke-opacity:1" d="M 484.97,159.87 473.836,159.87 z" id="boundary" inkscape:connector-curvature="0" />
	<path style="fill:none;stroke:red;stroke-width:1px;stroke-linecap:butt;stroke-linejoin:miter;stroke-opacity:1" d="M 661.993,154.303 673.127,154.303 z" id="boundary" inkscape:connector-curvature="0" />
	<path style="fill:none;stroke:red;stroke-width:1px;stroke-linecap:butt;stroke-linejoin:miter;stroke-opacity:1" d="M 484.97,159.87 496.103,159.87 z" id="boundary" inkscape:connector-curvature="0" />
	<path style="fill:none;stroke:red;stroke-width:1px;stroke-linecap:butt;stroke-linejoin:miter;stroke-opacity:1" d="M 676.467,199.951 665.333,199.951 z" id="boundary" inkscape:connector-curvature="0" />
	<path style="fill:none;stroke:red;stroke-width:1px;stroke-linecap:butt;stroke-linejoin:miter;stroke-opacity:1" d="M 655.313,205.517 665.333,199.951 z" id="boundary" inkscape:connector-curvature="0" />
	<path style="fill:none;stroke:red;stroke-width:1px;stroke-linecap:butt;stroke-linejoin:miter;stroke-opacity:1" d="M 496.103,159.87 507.237,159.87 z" id="boundary" inkscape:connector-curvature="0" />
	<path style="fill:none;stroke:red;stroke-width:1px;stroke-linecap:butt;stroke-linejoin:miter;stroke-opacity:1" d="M 673.127,154.303 684.26,154.303 z" id="boundary" inkscape:connector-curvature="0" />
	<path style="fill:none;stroke:red;stroke-width:1px;stroke-linecap:butt;stroke-linejoin:miter;stroke-opacity:1" d="M 684.26,154.303 695.394,157.643 z" id="boundary" inkscape:connector-curvature="0" />
	<path style="fill:none;stroke:red;stroke-width:1px;stroke-linecap:butt;stroke-linejoin:miter;stroke-opacity:1" d="M 706.527,159.87 717.661,159.87 z" id="boundary" inkscape:connector-curvature="0" />
	<path style="fill:none;stroke:red;stroke-width:1px;stroke-linecap:butt;stroke-linejoin:miter;stroke-opacity:1" d="M 706.527,159.87 695.394,157.643 z" id="boundary" inkscape:connector-curvature="0" />
	<path style="fill:none;stroke:red;stroke-width:1px;stroke-linecap:butt;stroke-linejoin:miter;stroke-opacity:1" d="M 728.795,159.87 717.661,159.87 z" id="boundary" inkscape:connector-curvature="0" />
	<path style="fill:none;stroke:red;stroke-width:1px;stroke-linecap:butt;stroke-linejoin:miter;stroke-opacity:1" d="M 739.928,159.87 728.795,159.87 z" id="boundary" inkscape:connector-curvature="0" />
	<path style="fill:none;stroke:red;stroke-width:1px;stroke-linecap:butt;stroke-linejoin:miter;stroke-opacity:1" d="M 687.6,199.951 698.734,199.951 z" id="boundary" inkscape:connector-curvature="0" />
	<path style="fill:none;stroke:red;stroke-width:1px;stroke-linecap:butt;stroke-linejoin:miter;stroke-opacity:1" d="M 709.868,199.951 698.734,199.951 z" id="boundary" inkscape:connector-curvature="0" />
	<path style="fill:none;stroke:red;stroke-width:1px;stroke-linecap:butt;stroke-linejoin:miter;stroke-opacity:1" d="M 732.135,199.951 721.001,199.951 z" id="boundary" inkscape:connector-curvature="0" />
	<path style="fill:none;stroke:red;stroke-width:1px;stroke-linecap:butt;stroke-linejoin:miter;stroke-opacity:1" d="M 721.001,199.951 709.868,199.951 z" id="boundary" inkscape:connector-curvature="0" />
	<path style="fill:none;stroke:red;stroke-width:1px;stroke-linecap:butt;stroke-linejoin:miter;stroke-opacity:1" d="M 743.268,199.951 732.135,199.951 z" id="boundary" inkscape:connector-curvature="0" />
	<path style="fill:none;stroke:red;stroke-width:1px;stroke-linecap:butt;stroke-linejoin:miter;stroke-opacity:1" d="M 687.6,199.951 676.467,199.951 z" id="boundary" inkscape:connector-curvature="0" />
	<path style="fill:none;stroke:red;stroke-width:1px;stroke-linecap:butt;stroke-linejoin:miter;stroke-opacity:1" d="M 751.062,163.21 762.195,165.437 z" id="boundary" inkscape:connector-curvature="0" />
	<path style="fill:none;stroke:red;stroke-width:1px;stroke-linecap:butt;stroke-linejoin:miter;stroke-opacity:1" d="M 773.329,165.437 762.195,165.437 z" id="boundary" inkscape:connector-curvature="0" />
	<path style="fill:none;stroke:red;stroke-width:1px;stroke-linecap:butt;stroke-linejoin:miter;stroke-opacity:1" d="M 773.329,165.437 784.462,165.437 z" id="boundary" inkscape:connector-curvature="0" />
	<path style="fill:none;stroke:red;stroke-width:1px;stroke-linecap:butt;stroke-linejoin:miter;stroke-opacity:1" d="M 751.062,163.21 739.928,159.87 z" id="boundary" inkscape:connector-curvature="0" />
	<path style="fill:none;stroke:red;stroke-width:1px;stroke-linecap:butt;stroke-linejoin:miter;stroke-opacity:1" d="M 784.462,165.437 795.596,165.437 z" id="boundary" inkscape:connector-curvature="0" />
	<path style="fill:none;stroke:red;stroke-width:1px;stroke-linecap:butt;stroke-linejoin:miter;stroke-opacity:1" d="M 806.73,165.437 817.863,165.437 z" id="boundary" inkscape:connector-curvature="0" />
	<path style="fill:none;stroke:red;stroke-width:1px;stroke-linecap:butt;stroke-linejoin:miter;stroke-opacity:1" d="M 806.73,165.437 795.596,165.437 z" id="boundary" inkscape:connector-curvature="0" />
	<path style="fill:none;stroke:red;stroke-width:1px;stroke-linecap:butt;stroke-linejoin:miter;stroke-opacity:1" d="M 851.264,171.003 840.13,171.003 z" id="boundary" inkscape:connector-curvature="0" />
	<path style="fill:none;stroke:red;stroke-width:1px;stroke-linecap:butt;stroke-linejoin:miter;stroke-opacity:1" d="M 840.13,171.003 828.997,168.777 z" id="boundary" inkscape:connector-curvature="0" />
	<path style="fill:none;stroke:red;stroke-width:1px;stroke-linecap:butt;stroke-linejoin:miter;stroke-opacity:1" d="M 828.997,168.777 817.863,165.437 z" id="boundary" inkscape:connector-curvature="0" />
	<path style="fill:none;stroke:red;stroke-width:1px;stroke-linecap:butt;stroke-linejoin:miter;stroke-opacity:1" d="M 862.397,171.003 851.264,171.003 z" id="boundary" inkscape:connector-curvature="0" />
	<path style="fill:none;stroke:red;stroke-width:1px;stroke-linecap:butt;stroke-linejoin:miter;stroke-opacity:1" d="M 862.397,171.003 873.531,171.003 z" id="boundary" inkscape:connector-curvature="0" />
	<path style="fill:none;stroke:red;stroke-width:1px;stroke-linecap:butt;stroke-linejoin:miter;stroke-opacity:1" d="M 906.932,176.57 895.798,176.57 z" id="boundary" inkscape:connector-curvature="0" />
	<path style="fill:none;stroke:red;stroke-width:1px;stroke-linecap:butt;stroke-linejoin:miter;stroke-opacity:1" d="M 895.798,176.57 884.664,174.343 z" id="boundary" inkscape:connector-curvature="0" />
	<path style="fill:none;stroke:red;stroke-width:1px;stroke-linecap:butt;stroke-linejoin:miter;stroke-opacity:1" d="M 884.664,174.343 873.531,171.003 z" id="boundary" inkscape:connector-curvature="0" />
	<path style="fill:none;stroke:red;stroke-width:1px;stroke-linecap:butt;stroke-linejoin:miter;stroke-opacity:1" d="M 876.871,199.951 865.737,199.951 z" id="boundary" inkscape:connector-curvature="0" />
	<path style="fill:none;stroke:red;stroke-width:1px;stroke-linecap:butt;stroke-linejoin:miter;stroke-opacity:1" d="M 918.065,176.57 906.932,176.57 z" id="boundary" inkscape:connector-curvature="0" />
	<path style="fill:none;stroke:red;stroke-width:1px;stroke-linecap:butt;stroke-linejoin:miter;stroke-opacity:1" d="M 918.065,176.57 929.199,176.57 z" id="boundary" inkscape:connector-curvature="0" />
	<path style="fill:none;stroke:red;stroke-width:1px;stroke-linecap:butt;stroke-linejoin:miter;stroke-opacity:1" d="M 940.332,176.57 929.199,176.57 z" id="boundary" inkscape:connector-curvature="0" />
	<path style="fill:none;stroke:red;stroke-width:1px;stroke-linecap:butt;stroke-linejoin:miter;stroke-opacity:1" d="M 951.466,176.57 962.599,176.57 z" id="boundary" inkscape:connector-curvature="0" />
	<path style="fill:none;stroke:red;stroke-width:1px;stroke-linecap:butt;stroke-linejoin:miter;stroke-opacity:1" d="M 973.733,176.57 962.599,176.57 z" id="boundary" inkscape:connector-curvature="0" />
	<path style="fill:none;stroke:red;stroke-width:1px;stroke-linecap:butt;stroke-linejoin:miter;stroke-opacity:1" d="M 951.466,176.57 940.332,176.57 z" id="boundary" inkscape:connector-curvature="0" />
	<path style="fill:none;stroke:red;stroke-width:1px;stroke-linecap:butt;stroke-linejoin:miter;stroke-opacity:1" d="M 984.866,176.57 973.733,176.57 z" id="boundary" inkscape:connector-curvature="0" />
	<path style="fill:none;stroke:red;stroke-width:1px;stroke-linecap:butt;stroke-linejoin:miter;stroke-opacity:1" d="M 743.268,199.951 754.402,199.951 z" id="boundary" inkscape:connector-curvature="0" />
	<path style="fill:none;stroke:red;stroke-width:1px;stroke-linecap:butt;stroke-linejoin:miter;stroke-opacity:1" d="M 765.535,199.951 776.669,199.951 z" id="boundary" inkscape:connector-curvature="0" />
	<path style="fill:none;stroke:red;stroke-width:1px;stroke-linecap:butt;stroke-linejoin:miter;stroke-opacity:1" d="M 787.802,199.951 776.669,199.951 z" id="boundary" inkscape:connector-curvature="0" />
	<path style="fill:none;stroke:red;stroke-width:1px;stroke-linecap:butt;stroke-linejoin:miter;stroke-opacity:1" d="M 765.535,199.951 754.402,199.951 z" id="boundary" inkscape:connector-curvature="0" />
	<path style="fill:none;stroke:red;stroke-width:1px;stroke-linecap:butt;stroke-linejoin:miter;stroke-opacity:1" d="M 798.936,199.951 810.07,199.951 z" id="boundary" inkscape:connector-curvature="0" />
	<path style="fill:none;stroke:red;stroke-width:1px;stroke-linecap:butt;stroke-linejoin:miter;stroke-opacity:1" d="M 821.203,199.951 832.337,199.951 z" id="boundary" inkscape:connector-curvature="0" />
	<path style="fill:none;stroke:red;stroke-width:1px;stroke-linecap:butt;stroke-linejoin:miter;stroke-opacity:1" d="M 843.47,199.951 832.337,199.951 z" id="boundary" inkscape:connector-curvature="0" />
	<path style="fill:none;stroke:red;stroke-width:1px;stroke-linecap:butt;stroke-linejoin:miter;stroke-opacity:1" d="M 821.203,199.951 810.07,199.951 z" id="boundary" inkscape:connector-curvature="0" />
	<path style="fill:none;stroke:red;stroke-width:1px;stroke-linecap:butt;stroke-linejoin:miter;stroke-opacity:1" d="M 798.936,199.951 787.802,199.951 z" id="boundary" inkscape:connector-curvature="0" />
	<path style="fill:none;stroke:red;stroke-width:1px;stroke-linecap:butt;stroke-linejoin:miter;stroke-opacity:1" d="M 964.826,188.817 954.806,194.384 z" id="boundary" inkscape:connector-curvature="0" />
	<path style="fill:none;stroke:red;stroke-width:1px;stroke-linecap:butt;stroke-linejoin:miter;stroke-opacity:1" d="M 932.539,194.384 921.405,194.384 z" id="boundary" inkscape:connector-curvature="0" />
	<path style="fill:none;stroke:red;stroke-width:1px;stroke-linecap:butt;stroke-linejoin:miter;stroke-opacity:1" d="M 984.866,176.57 996,179.91 z" id="boundary" inkscape:connector-curvature="0" />
	<path style="fill:none;stroke:red;stroke-width:1px;stroke-linecap:butt;stroke-linejoin:miter;stroke-opacity:1" d="M 996,179.91 975.96,187.704 z" id="boundary" inkscape:connector-curvature="0" />
	<path style="fill:none;stroke:red;stroke-width:1px;stroke-linecap:butt;stroke-linejoin:miter;stroke-opacity:1" d="M 975.96,187.704 964.826,188.817 z" id="boundary" inkscape:connector-curvature="0" />
	<path style="fill:none;stroke:red;stroke-width:1px;stroke-linecap:butt;stroke-linejoin:miter;stroke-opacity:1" d="M 921.405,194.384 910.272,197.724 z" id="boundary" inkscape:connector-curvature="0" />
	<path style="fill:none;stroke:red;stroke-width:1px;stroke-linecap:butt;stroke-linejoin:miter;stroke-opacity:1" d="M 865.737,199.951 854.604,199.951 z" id="boundary" inkscape:connector-curvature="0" />
	<path style="fill:none;stroke:red;stroke-width:1px;stroke-linecap:butt;stroke-linejoin:miter;stroke-opacity:1" d="M 910.272,197.724 899.138,199.951 z" id="boundary" inkscape:connector-curvature="0" />
	<path style="fill:none;stroke:red;stroke-width:1px;stroke-linecap:butt;stroke-linejoin:miter;stroke-opacity:1" d="M 932.539,194.384 943.672,194.384 z" id="boundary" inkscape:connector-curvature="0" />
	<path style="fill:none;stroke:red;stroke-width:1px;stroke-linecap:butt;stroke-linejoin:miter;stroke-opacity:1" d="M 954.806,194.384 943.672,194.384 z" id="boundary" inkscape:connector-curvature="0" />
	<path style="fill:none;stroke:red;stroke-width:1px;stroke-linecap:butt;stroke-linejoin:miter;stroke-opacity:1" d="M 854.604,199.951 843.47,199.951 z" id="boundary" inkscape:connector-curvature="0" />
	<path style="fill:none;stroke:red;stroke-width:1px;stroke-linecap:butt;stroke-linejoin:miter;stroke-opacity:1" d="M 383.654,332.44 392.561,339.12 z" id="boundary" inkscape:connector-curvature="0" />
	<path style="fill:none;stroke:red;stroke-width:1px;stroke-linecap:butt;stroke-linejoin:miter;stroke-opacity:1" d="M 378.088,322.42 383.654,332.44 z" id="boundary" inkscape:connector-curvature="0" />
	<path style="fill:none;stroke:red;stroke-width:1px;stroke-linecap:butt;stroke-linejoin:miter;stroke-opacity:1" d="M 383.654,311.286 394.788,305.719 z" id="boundary" inkscape:connector-curvature="0" />
	<path style="fill:none;stroke:red;stroke-width:1px;stroke-linecap:butt;stroke-linejoin:miter;stroke-opacity:1" d="M 378.088,322.42 383.654,311.286 z" id="boundary" inkscape:connector-curvature="0" />
	<path style="fill:none;stroke:red;stroke-width:1px;stroke-linecap:butt;stroke-linejoin:miter;stroke-opacity:1" d="M 379.201,382.541 369.181,376.974 z" id="boundary" inkscape:connector-curvature="0" />
	<path style="fill:none;stroke:red;stroke-width:1px;stroke-linecap:butt;stroke-linejoin:miter;stroke-opacity:1" d="M 384.768,417.055 379.201,428.189 z" id="boundary" inkscape:connector-curvature="0" />
	<path style="fill:none;stroke:red;stroke-width:1px;stroke-linecap:butt;stroke-linejoin:miter;stroke-opacity:1" d="M 390.334,405.921 384.768,417.055 z" id="boundary" inkscape:connector-curvature="0" />
	<path style="fill:none;stroke:red;stroke-width:1px;stroke-linecap:butt;stroke-linejoin:miter;stroke-opacity:1" d="M 379.201,382.541 388.108,389.221 z" id="boundary" inkscape:connector-curvature="0" />
	<path style="fill:none;stroke:red;stroke-width:1px;stroke-linecap:butt;stroke-linejoin:miter;stroke-opacity:1" d="M 388.108,389.221 390.334,405.921 z" id="boundary" inkscape:connector-curvature="0" />
	<path style="fill:none;stroke:red;stroke-width:1px;stroke-linecap:butt;stroke-linejoin:miter;stroke-opacity:1" d="M 392.561,339.12 400.355,348.027 z" id="boundary" inkscape:connector-curvature="0" />
	<path style="fill:none;stroke:red;stroke-width:1px;stroke-linecap:butt;stroke-linejoin:miter;stroke-opacity:1" d="M 379.201,428.189 373.634,438.209 z" id="boundary" inkscape:connector-curvature="0" />
	<path style="fill:none;stroke:red;stroke-width:1px;stroke-linecap:butt;stroke-linejoin:miter;stroke-opacity:1" d="M 373.634,438.209 362.501,438.209 z" id="boundary" inkscape:connector-curvature="0" />
	<path style="fill:none;stroke:red;stroke-width:1px;stroke-linecap:butt;stroke-linejoin:miter;stroke-opacity:1" d="M 400.355,348.027 409.262,355.82 z" id="boundary" inkscape:connector-curvature="0" />
	<path style="fill:none;stroke:red;stroke-width:1px;stroke-linecap:butt;stroke-linejoin:miter;stroke-opacity:1" d="M 394.788,305.719 403.695,297.926 z" id="boundary" inkscape:connector-curvature="0" />
	<path style="fill:none;stroke:red;stroke-width:1px;stroke-linecap:butt;stroke-linejoin:miter;stroke-opacity:1" d="M 403.695,297.926 411.488,289.019 z" id="boundary" inkscape:connector-curvature="0" />
	<path style="fill:none;stroke:red;stroke-width:1px;stroke-linecap:butt;stroke-linejoin:miter;stroke-opacity:1" d="M 411.488,289.019 422.622,289.019 z" id="boundary" inkscape:connector-curvature="0" />
	<path style="fill:none;stroke:red;stroke-width:1px;stroke-linecap:butt;stroke-linejoin:miter;stroke-opacity:1" d="M 432.642,283.452 422.622,289.019 z" id="boundary" inkscape:connector-curvature="0" />
	<path style="fill:none;stroke:red;stroke-width:1px;stroke-linecap:butt;stroke-linejoin:miter;stroke-opacity:1" d="M 405.921,417.055 400.355,428.189 z" id="boundary" inkscape:connector-curvature="0" />
	<path style="fill:none;stroke:red;stroke-width:1px;stroke-linecap:butt;stroke-linejoin:miter;stroke-opacity:1" d="M 409.262,355.82 413.715,366.954 z" id="boundary" inkscape:connector-curvature="0" />
	<path style="fill:none;stroke:red;stroke-width:1px;stroke-linecap:butt;stroke-linejoin:miter;stroke-opacity:1" d="M 411.488,405.921 405.921,417.055 z" id="boundary" inkscape:connector-curvature="0" />
	<path style="fill:none;stroke:red;stroke-width:1px;stroke-linecap:butt;stroke-linejoin:miter;stroke-opacity:1" d="M 411.488,405.921 422.622,408.148 z" id="boundary" inkscape:connector-curvature="0" />
	<path style="fill:none;stroke:red;stroke-width:1px;stroke-linecap:butt;stroke-linejoin:miter;stroke-opacity:1" d="M 413.715,366.954 422.622,374.747 z" id="boundary" inkscape:connector-curvature="0" />
	<path style="fill:none;stroke:red;stroke-width:1px;stroke-linecap:butt;stroke-linejoin:miter;stroke-opacity:1" d="M 427.075,419.282 421.508,435.982 z" id="boundary" inkscape:connector-curvature="0" />
	<path style="fill:none;stroke:red;stroke-width:1px;stroke-linecap:butt;stroke-linejoin:miter;stroke-opacity:1" d="M 400.355,428.189 400.355,439.322 z" id="boundary" inkscape:connector-curvature="0" />
	<path style="fill:none;stroke:red;stroke-width:1px;stroke-linecap:butt;stroke-linejoin:miter;stroke-opacity:1" d="M 421.508,447.116 421.508,435.982 z" id="boundary" inkscape:connector-curvature="0" />
	<path style="fill:none;stroke:red;stroke-width:1px;stroke-linecap:butt;stroke-linejoin:miter;stroke-opacity:1" d="M 375.861,510.577 365.841,505.01 z" id="boundary" inkscape:connector-curvature="0" />
	<path style="fill:none;stroke:red;stroke-width:1px;stroke-linecap:butt;stroke-linejoin:miter;stroke-opacity:1" d="M 383.654,456.022 375.861,464.929 z" id="boundary" inkscape:connector-curvature="0" />
	<path style="fill:none;stroke:red;stroke-width:1px;stroke-linecap:butt;stroke-linejoin:miter;stroke-opacity:1" d="M 392.561,448.229 383.654,456.022 z" id="boundary" inkscape:connector-curvature="0" />
	<path style="fill:none;stroke:red;stroke-width:1px;stroke-linecap:butt;stroke-linejoin:miter;stroke-opacity:1" d="M 375.861,464.929 366.954,472.723 z" id="boundary" inkscape:connector-curvature="0" />
	<path style="fill:none;stroke:red;stroke-width:1px;stroke-linecap:butt;stroke-linejoin:miter;stroke-opacity:1" d="M 375.861,553.998 364.727,556.224 z" id="boundary" inkscape:connector-curvature="0" />
	<path style="fill:none;stroke:red;stroke-width:1px;stroke-linecap:butt;stroke-linejoin:miter;stroke-opacity:1" d="M 375.861,510.577 386.994,511.69 z" id="boundary" inkscape:connector-curvature="0" />
	<path style="fill:none;stroke:red;stroke-width:1px;stroke-linecap:butt;stroke-linejoin:miter;stroke-opacity:1" d="M 386.994,548.431 375.861,553.998 z" id="boundary" inkscape:connector-curvature="0" />
	<path style="fill:none;stroke:red;stroke-width:1px;stroke-linecap:butt;stroke-linejoin:miter;stroke-opacity:1" d="M 398.128,542.864 386.994,548.431 z" id="boundary" inkscape:connector-curvature="0" />
	<path style="fill:none;stroke:red;stroke-width:1px;stroke-linecap:butt;stroke-linejoin:miter;stroke-opacity:1" d="M 392.561,448.229 400.355,439.322 z" id="boundary" inkscape:connector-curvature="0" />
	<path style="fill:none;stroke:red;stroke-width:1px;stroke-linecap:butt;stroke-linejoin:miter;stroke-opacity:1" d="M 415.942,469.383 415.942,458.249 z" id="boundary" inkscape:connector-curvature="0" />
	<path style="fill:none;stroke:red;stroke-width:1px;stroke-linecap:butt;stroke-linejoin:miter;stroke-opacity:1" d="M 421.508,447.116 415.942,458.249 z" id="boundary" inkscape:connector-curvature="0" />
	<path style="fill:none;stroke:red;stroke-width:1px;stroke-linecap:butt;stroke-linejoin:miter;stroke-opacity:1" d="M 410.375,480.516 415.942,469.383 z" id="boundary" inkscape:connector-curvature="0" />
	<path style="fill:none;stroke:red;stroke-width:1px;stroke-linecap:butt;stroke-linejoin:miter;stroke-opacity:1" d="M 409.262,537.297 398.128,542.864 z" id="boundary" inkscape:connector-curvature="0" />
	<path style="fill:none;stroke:red;stroke-width:1px;stroke-linecap:butt;stroke-linejoin:miter;stroke-opacity:1" d="M 398.128,510.577 386.994,511.69 z" id="boundary" inkscape:connector-curvature="0" />
	<path style="fill:none;stroke:red;stroke-width:1px;stroke-linecap:butt;stroke-linejoin:miter;stroke-opacity:1" d="M 404.808,491.65 398.128,510.577 z" id="boundary" inkscape:connector-curvature="0" />
	<path style="fill:none;stroke:red;stroke-width:1px;stroke-linecap:butt;stroke-linejoin:miter;stroke-opacity:1" d="M 425.962,520.597 417.055,528.391 z" id="boundary" inkscape:connector-curvature="0" />
	<path style="fill:none;stroke:red;stroke-width:1px;stroke-linecap:butt;stroke-linejoin:miter;stroke-opacity:1" d="M 417.055,528.391 409.262,537.297 z" id="boundary" inkscape:connector-curvature="0" />
	<path style="fill:none;stroke:red;stroke-width:1px;stroke-linecap:butt;stroke-linejoin:miter;stroke-opacity:1" d="M 404.808,491.65 410.375,480.516 z" id="boundary" inkscape:connector-curvature="0" />
	<path style="fill:none;stroke:red;stroke-width:1px;stroke-linecap:butt;stroke-linejoin:miter;stroke-opacity:1" d="M 525.051,237.805 536.184,233.351 z" id="boundary" inkscape:connector-curvature="0" />
	<path style="fill:none;stroke:red;stroke-width:1px;stroke-linecap:butt;stroke-linejoin:miter;stroke-opacity:1" d="M 567.358,222.218 557.338,227.785 z" id="boundary" inkscape:connector-curvature="0" />
	<path style="fill:none;stroke:red;stroke-width:1px;stroke-linecap:butt;stroke-linejoin:miter;stroke-opacity:1" d="M 557.338,227.785 546.204,227.785 z" id="boundary" inkscape:connector-curvature="0" />
	<path style="fill:none;stroke:red;stroke-width:1px;stroke-linecap:butt;stroke-linejoin:miter;stroke-opacity:1" d="M 567.358,222.218 578.492,222.218 z" id="boundary" inkscape:connector-curvature="0" />
	<path style="fill:none;stroke:red;stroke-width:1px;stroke-linecap:butt;stroke-linejoin:miter;stroke-opacity:1" d="M 536.184,233.351 546.204,227.785 z" id="boundary" inkscape:connector-curvature="0" />
	<path style="fill:none;stroke:red;stroke-width:1px;stroke-linecap:butt;stroke-linejoin:miter;stroke-opacity:1" d="M 525.051,237.805 513.917,238.918 z" id="boundary" inkscape:connector-curvature="0" />
	<path style="fill:none;stroke:red;stroke-width:1px;stroke-linecap:butt;stroke-linejoin:miter;stroke-opacity:1" d="M 461.589,266.752 470.496,258.958 z" id="boundary" inkscape:connector-curvature="0" />
	<path style="fill:none;stroke:red;stroke-width:1px;stroke-linecap:butt;stroke-linejoin:miter;stroke-opacity:1" d="M 470.496,258.958 481.63,253.392 z" id="boundary" inkscape:connector-curvature="0" />
	<path style="fill:none;stroke:red;stroke-width:1px;stroke-linecap:butt;stroke-linejoin:miter;stroke-opacity:1" d="M 503.897,244.485 492.763,247.825 z" id="boundary" inkscape:connector-curvature="0" />
	<path style="fill:none;stroke:red;stroke-width:1px;stroke-linecap:butt;stroke-linejoin:miter;stroke-opacity:1" d="M 513.917,238.918 503.897,244.485 z" id="boundary" inkscape:connector-curvature="0" />
	<path style="fill:none;stroke:red;stroke-width:1px;stroke-linecap:butt;stroke-linejoin:miter;stroke-opacity:1" d="M 481.63,253.392 492.763,247.825 z" id="boundary" inkscape:connector-curvature="0" />
	<path style="fill:none;stroke:red;stroke-width:1px;stroke-linecap:butt;stroke-linejoin:miter;stroke-opacity:1" d="M 644.18,205.517 655.313,205.517 z" id="boundary" inkscape:connector-curvature="0" />
	<path style="fill:none;stroke:red;stroke-width:1px;stroke-linecap:butt;stroke-linejoin:miter;stroke-opacity:1" d="M 633.046,207.744 644.18,205.517 z" id="boundary" inkscape:connector-curvature="0" />
	<path style="fill:none;stroke:red;stroke-width:1px;stroke-linecap:butt;stroke-linejoin:miter;stroke-opacity:1" d="M 888.004,199.951 876.871,199.951 z" id="boundary" inkscape:connector-curvature="0" />
	<path style="fill:none;stroke:red;stroke-width:1px;stroke-linecap:butt;stroke-linejoin:miter;stroke-opacity:1" d="M 899.138,199.951 888.004,199.951 z" id="boundary" inkscape:connector-curvature="0" />
	<path style="fill:none;stroke:red;stroke-width:1px;stroke-linecap:butt;stroke-linejoin:miter;stroke-opacity:1" d="M 578.492,222.218 588.512,216.651 z" id="boundary" inkscape:connector-curvature="0" />
	<path style="fill:none;stroke:red;stroke-width:1px;stroke-linecap:butt;stroke-linejoin:miter;stroke-opacity:1" d="M 588.512,216.651 599.645,216.651 z" id="boundary" inkscape:connector-curvature="0" />
	<path style="fill:none;stroke:red;stroke-width:1px;stroke-linecap:butt;stroke-linejoin:miter;stroke-opacity:1" d="M 621.912,211.084 610.779,213.311 z" id="boundary" inkscape:connector-curvature="0" />
	<path style="fill:none;stroke:red;stroke-width:1px;stroke-linecap:butt;stroke-linejoin:miter;stroke-opacity:1" d="M 610.779,213.311 599.645,216.651 z" id="boundary" inkscape:connector-curvature="0" />
	<path style="fill:none;stroke:red;stroke-width:1px;stroke-linecap:butt;stroke-linejoin:miter;stroke-opacity:1" d="M 621.912,211.084 633.046,207.744 z" id="boundary" inkscape:connector-curvature="0" />
	<path style="fill:none;stroke:red;stroke-width:1px;stroke-linecap:butt;stroke-linejoin:miter;stroke-opacity:1" d="M 422.622,374.747 430.415,383.654 z" id="boundary" inkscape:connector-curvature="0" />
	<path style="fill:none;stroke:red;stroke-width:1px;stroke-linecap:butt;stroke-linejoin:miter;stroke-opacity:1" d="M 427.075,419.282 422.622,408.148 z" id="boundary" inkscape:connector-curvature="0" />
	<path style="fill:none;stroke:red;stroke-width:1px;stroke-linecap:butt;stroke-linejoin:miter;stroke-opacity:1" d="M 430.415,383.654 439.322,391.448 z" id="boundary" inkscape:connector-curvature="0" />
	<path style="fill:none;stroke:red;stroke-width:1px;stroke-linecap:butt;stroke-linejoin:miter;stroke-opacity:1" d="M 444.889,439.322 447.116,450.456 z" id="boundary" inkscape:connector-curvature="0" />
	<path style="fill:none;stroke:red;stroke-width:1px;stroke-linecap:butt;stroke-linejoin:miter;stroke-opacity:1" d="M 432.642,283.452 443.776,283.452 z" id="boundary" inkscape:connector-curvature="0" />
	<path style="fill:none;stroke:red;stroke-width:1px;stroke-linecap:butt;stroke-linejoin:miter;stroke-opacity:1" d="M 425.962,520.597 428.189,506.123 z" id="boundary" inkscape:connector-curvature="0" />
	<path style="fill:none;stroke:red;stroke-width:1px;stroke-linecap:butt;stroke-linejoin:miter;stroke-opacity:1" d="M 428.189,506.123 433.755,494.99 z" id="boundary" inkscape:connector-curvature="0" />
	<path style="fill:none;stroke:red;stroke-width:1px;stroke-linecap:butt;stroke-linejoin:miter;stroke-opacity:1" d="M 433.755,483.856 433.755,494.99 z" id="boundary" inkscape:connector-curvature="0" />
	<path style="fill:none;stroke:red;stroke-width:1px;stroke-linecap:butt;stroke-linejoin:miter;stroke-opacity:1" d="M 433.755,483.856 433.755,472.723 z" id="boundary" inkscape:connector-curvature="0" />
	<path style="fill:none;stroke:red;stroke-width:1px;stroke-linecap:butt;stroke-linejoin:miter;stroke-opacity:1" d="M 433.755,472.723 443.776,467.156 z" id="boundary" inkscape:connector-curvature="0" />
	<path style="fill:none;stroke:red;stroke-width:1px;stroke-linecap:butt;stroke-linejoin:miter;stroke-opacity:1" d="M 443.776,283.452 453.796,277.886 z" id="boundary" inkscape:connector-curvature="0" />
	<path style="fill:none;stroke:red;stroke-width:1px;stroke-linecap:butt;stroke-linejoin:miter;stroke-opacity:1" d="M 447.116,400.355 439.322,391.448 z" id="boundary" inkscape:connector-curvature="0" />
	<path style="fill:none;stroke:red;stroke-width:1px;stroke-linecap:butt;stroke-linejoin:miter;stroke-opacity:1" d="M 453.796,277.886 461.589,266.752 z" id="boundary" inkscape:connector-curvature="0" />
	<path style="fill:none;stroke:red;stroke-width:1px;stroke-linecap:butt;stroke-linejoin:miter;stroke-opacity:1" d="M 447.116,400.355 452.682,410.375 z" id="boundary" inkscape:connector-curvature="0" />
	<path style="fill:none;stroke:red;stroke-width:1px;stroke-linecap:butt;stroke-linejoin:miter;stroke-opacity:1" d="M 444.889,439.322 450.456,428.189 z" id="boundary" inkscape:connector-curvature="0" />
	<path style="fill:none;stroke:red;stroke-width:1px;stroke-linecap:butt;stroke-linejoin:miter;stroke-opacity:1" d="M 447.116,450.456 452.682,460.476 z" id="boundary" inkscape:connector-curvature="0" />
	<path style="fill:none;stroke:red;stroke-width:1px;stroke-linecap:butt;stroke-linejoin:miter;stroke-opacity:1" d="M 452.682,460.476 443.776,467.156 z" id="boundary" inkscape:connector-curvature="0" />
	<path style="fill:none;stroke:red;stroke-width:1px;stroke-linecap:butt;stroke-linejoin:miter;stroke-opacity:1" d="M 450.456,428.189 452.682,410.375 z" id="boundary" inkscape:connector-curvature="0" />
	<circle cx="4" cy="79.7082" r="4" fill="#0" id="circle0"/>
	<circle cx="4" cy="90.8418" r="4" fill="#0" id="circle1"/>
	<circle cx="12.9068" cy="70.8013" r="4" fill="#0" id="circle2"/>
	<circle cx="12.9068" cy="98.6352" r="4" fill="#0" id="circle3"/>
	<circle cx="20.7003" cy="113.109" r="4" fill="#0" id="circle4"/>
	<circle cx="21.8137" cy="61.8945" r="4" fill="#0" id="circle5"/>
	<circle cx="24.0404" cy="93.0685" r="4" fill="#0" id="circle6"/>
	<circle cx="29.6072" cy="104.202" r="4" fill="#0" id="circle7"/>
	<circle cx="29.6072" cy="120.902" r="4" fill="#0" id="circle8"/>
	<circle cx="30.7205" cy="54.101" r="4" fill="#0" id="circle9"/>
	<circle cx="32.9473" cy="83.0483" r="4" fill="#0" id="circle10"/>
	<circle cx="40.7407" cy="48.5342" r="4" fill="#0" id="circle11"/>
	<circle cx="40.7407" cy="98.6352" r="4" fill="#0" id="circle12"/>
	<circle cx="40.7407" cy="120.902" r="4" fill="#0" id="circle13"/>
	<circle cx="44.0808" cy="77.4815" r="4" fill="#0" id="circle14"/>
	<circle cx="46.3075" cy="37.4007" r="4" fill="#0" id="circle15"/>
	<circle cx="49.6476" cy="110.882" r="4" fill="#0" id="circle16"/>
	<circle cx="50.7609" cy="93.0685" r="4" fill="#0" id="circle17"/>
	<circle cx="54.101" cy="71.9147" r="4" fill="#0" id="circle18"/>
	<circle cx="55.2144" cy="28.4938" r="4" fill="#0" id="circle19"/>
	<circle cx="59.6678" cy="85.275" r="4" fill="#0" id="circle20"/>
	<circle cx="59.6678" cy="296.813" r="4" fill="#0" id="circle21"/>
	<circle cx="60.7811" cy="105.315" r="4" fill="#0" id="circle22"/>
	<circle cx="64.1212" cy="20.7003" r="4" fill="#0" id="circle23"/>
	<circle cx="65.2346" cy="71.9147" r="4" fill="#0" id="circle24"/>
	<circle cx="66.3479" cy="305.719" r="4" fill="#0" id="circle25"/>
	<circle cx="68.5746" cy="287.906" r="4" fill="#0" id="circle26"/>
	<circle cx="70.8013" cy="99.7486" r="4" fill="#0" id="circle27"/>
	<circle cx="74.1414" cy="15.1336" r="4" fill="#0" id="circle28"/>
	<circle cx="76.3681" cy="300.153" r="4" fill="#0" id="circle29"/>
	<circle cx="79.7082" cy="282.339" r="4" fill="#0" id="circle30"/>
	<circle cx="79.7082" cy="311.286" r="4" fill="#0" id="circle31"/>
	<circle cx="80.8215" cy="94.1818" r="4" fill="#0" id="circle32"/>
	<circle cx="84.1616" cy="9.56678" r="4" fill="#0" id="circle33"/>
	<circle cx="88.615" cy="300.153" r="4" fill="#0" id="circle34"/>
	<circle cx="90.8418" cy="276.772" r="4" fill="#0" id="circle35"/>
	<circle cx="91.9551" cy="91.9551" r="4" fill="#0" id="circle36"/>
	<circle cx="94.1818" cy="4" r="4" fill="#0" id="circle37"/>
	<circle cx="98.6352" cy="294.586" r="4" fill="#0" id="circle38"/>
	<circle cx="101.975" cy="271.205" r="4" fill="#0" id="circle39"/>
	<circle cx="103.089" cy="88.615" r="4" fill="#0" id="circle40"/>
	<circle cx="105.315" cy="4" r="4" fill="#0" id="circle41"/>
	<circle cx="109.769" cy="291.246" r="4" fill="#0" id="circle42"/>
	<circle cx="113.109" cy="265.639" r="4" fill="#0" id="circle43"/>
	<circle cx="114.222" cy="88.615" r="4" fill="#0" id="circle44"/>
	<circle cx="115.336" cy="313.513" r="4" fill="#0" id="circle45"/>
	<circle cx="115.336" cy="324.646" r="4" fill="#0" id="circle46"/>
	<circle cx="115.336" cy="335.78" r="4" fill="#0" id="circle47"/>
	<circle cx="116.449" cy="4" r="4" fill="#0" id="circle48"/>
	<circle cx="120.902" cy="285.679" r="4" fill="#0" id="circle49"/>
	<circle cx="120.902" cy="345.8" r="4" fill="#0" id="circle50"/>
	<circle cx="124.242" cy="260.072" r="4" fill="#0" id="circle51"/>
	<circle cx="125.356" cy="88.615" r="4" fill="#0" id="circle52"/>
	<circle cx="126.469" cy="302.379" r="4" fill="#0" id="circle53"/>
	<circle cx="127.582" cy="7.34007" r="4" fill="#0" id="circle54"/>
	<circle cx="128.696" cy="354.707" r="4" fill="#0" id="circle55"/>
	<circle cx="132.036" cy="280.112" r="4" fill="#0" id="circle56"/>
	<circle cx="135.376" cy="83.0483" r="4" fill="#0" id="circle57"/>
	<circle cx="135.376" cy="254.505" r="4" fill="#0" id="circle58"/>
	<circle cx="135.376" cy="293.473" r="4" fill="#0" id="circle59"/>
	<circle cx="138.716" cy="9.56678" r="4" fill="#0" id="circle60"/>
	<circle cx="138.716" cy="327.987" r="4" fill="#0" id="circle61"/>
	<circle cx="139.829" cy="359.16" r="4" fill="#0" id="circle62"/>
	<circle cx="140.943" cy="271.205" r="4" fill="#0" id="circle63"/>
	<circle cx="140.943" cy="339.12" r="4" fill="#0" id="circle64"/>
	<circle cx="144.283" cy="90.8418" r="4" fill="#0" id="circle65"/>
	<circle cx="146.51" cy="248.938" r="4" fill="#0" id="circle66"/>
	<circle cx="146.51" cy="287.906" r="4" fill="#0" id="circle67"/>
	<circle cx="147.623" cy="16.2469" r="4" fill="#0" id="circle68"/>
	<circle cx="147.623" cy="320.193" r="4" fill="#0" id="circle69"/>
	<circle cx="148.736" cy="101.975" r="4" fill="#0" id="circle70"/>
	<circle cx="150.963" cy="361.387" r="4" fill="#0" id="circle71"/>
	<circle cx="152.076" cy="266.752" r="4" fill="#0" id="circle72"/>
	<circle cx="152.076" cy="338.007" r="4" fill="#0" id="circle73"/>
	<circle cx="154.303" cy="111.996" r="4" fill="#0" id="circle74"/>
	<circle cx="154.303" cy="123.129" r="4" fill="#0" id="circle75"/>
	<circle cx="155.416" cy="25.1538" r="4" fill="#0" id="circle76"/>
	<circle cx="155.416" cy="311.286" r="4" fill="#0" id="circle77"/>
	<circle cx="156.53" cy="282.339" r="4" fill="#0" id="circle78"/>
	<circle cx="157.643" cy="248.938" r="4" fill="#0" id="circle79"/>
	<circle cx="159.87" cy="133.149" r="4" fill="#0" id="circle80"/>
	<circle cx="159.87" cy="144.283" r="4" fill="#0" id="circle81"/>
	<circle cx="159.87" cy="155.416" r="4" fill="#0" id="circle82"/>
	<circle cx="160.983" cy="350.254" r="4" fill="#0" id="circle83"/>
	<circle cx="163.21" cy="266.752" r="4" fill="#0" id="circle84"/>
	<circle cx="163.21" cy="338.007" r="4" fill="#0" id="circle85"/>
	<circle cx="164.323" cy="32.9473" r="4" fill="#0" id="circle86"/>
	<circle cx="165.437" cy="165.437" r="4" fill="#0" id="circle87"/>
	<circle cx="165.437" cy="305.719" r="4" fill="#0" id="circle88"/>
	<circle cx="167.663" cy="176.57" r="4" fill="#0" id="circle89"/>
	<circle cx="167.663" cy="243.371" r="4" fill="#0" id="circle90"/>
	<circle cx="168.777" cy="276.772" r="4" fill="#0" id="circle91"/>
	<circle cx="171.003" cy="187.704" r="4" fill="#0" id="circle92"/>
	<circle cx="172.117" cy="41.8541" r="4" fill="#0" id="circle93"/>
	<circle cx="174.343" cy="266.752" r="4" fill="#0" id="circle94"/>
	<circle cx="176.57" cy="197.724" r="4" fill="#0" id="circle95"/>
	<circle cx="176.57" cy="302.379" r="4" fill="#0" id="circle96"/>
	<circle cx="178.797" cy="238.918" r="4" fill="#0" id="circle97"/>
	<circle cx="181.024" cy="49.6476" r="4" fill="#0" id="circle98"/>
	<circle cx="182.137" cy="207.744" r="4" fill="#0" id="circle99"/>
	<circle cx="182.137" cy="218.878" r="4" fill="#0" id="circle100"/>
	<circle cx="187.704" cy="228.898" r="4" fill="#0" id="circle101"/>
	<circle cx="187.704" cy="300.153" r="4" fill="#0" id="circle102"/>
	<circle cx="188.817" cy="58.5544" r="4" fill="#0" id="circle103"/>
	<circle cx="194.384" cy="68.5746" r="4" fill="#0" id="circle104"/>
	<circle cx="198.837" cy="296.813" r="4" fill="#0" id="circle105"/>
	<circle cx="199.951" cy="78.5948" r="4" fill="#0" id="circle106"/>
	<circle cx="205.517" cy="88.615" r="4" fill="#0" id="circle107"/>
	<circle cx="209.971" cy="291.246" r="4" fill="#0" id="circle108"/>
	<circle cx="211.084" cy="98.6352" r="4" fill="#0" id="circle109"/>
	<circle cx="211.084" cy="109.769" r="4" fill="#0" id="circle110"/>
	<circle cx="219.991" cy="116.449" r="4" fill="#0" id="circle111"/>
	<circle cx="221.104" cy="289.019" r="4" fill="#0" id="circle112"/>
	<circle cx="227.785" cy="125.356" r="4" fill="#0" id="circle113"/>
	<circle cx="227.785" cy="277.886" r="4" fill="#0" id="circle114"/>
	<circle cx="233.351" cy="266.752" r="4" fill="#0" id="circle115"/>
	<circle cx="238.918" cy="129.809" r="4" fill="#0" id="circle116"/>
	<circle cx="244.485" cy="266.752" r="4" fill="#0" id="circle117"/>
	<circle cx="250.052" cy="132.036" r="4" fill="#0" id="circle118"/>
	<circle cx="255.618" cy="268.979" r="4" fill="#0" id="circle119"/>
	<circle cx="260.072" cy="137.603" r="4" fill="#0" id="circle120"/>
	<circle cx="263.412" cy="277.886" r="4" fill="#0" id="circle121"/>
	<circle cx="271.205" cy="137.603" r="4" fill="#0" id="circle122"/>
	<circle cx="273.432" cy="283.452" r="4" fill="#0" id="circle123"/>
	<circle cx="281.226" cy="143.169" r="4" fill="#0" id="circle124"/>
	<circle cx="282.339" cy="290.132" r="4" fill="#0" id="circle125"/>
	<circle cx="287.906" cy="300.153" r="4" fill="#0" id="circle126"/>
	<circle cx="291.246" cy="311.286" r="4" fill="#0" id="circle127"/>
	<circle cx="292.359" cy="143.169" r="4" fill="#0" id="circle128"/>
	<circle cx="301.266" cy="316.853" r="4" fill="#0" id="circle129"/>
	<circle cx="303.493" cy="143.169" r="4" fill="#0" id="circle130"/>
	<circle cx="304.606" cy="469.383" r="4" fill="#0" id="circle131"/>
	<circle cx="310.173" cy="323.533" r="4" fill="#0" id="circle132"/>
	<circle cx="311.286" cy="478.29" r="4" fill="#0" id="circle133"/>
	<circle cx="313.513" cy="137.603" r="4" fill="#0" id="circle134"/>
	<circle cx="315.74" cy="333.553" r="4" fill="#0" id="circle135"/>
	<circle cx="315.74" cy="463.816" r="4" fill="#0" id="circle136"/>
	<circle cx="322.42" cy="342.46" r="4" fill="#0" id="circle137"/>
	<circle cx="322.42" cy="478.29" r="4" fill="#0" id="circle138"/>
	<circle cx="324.646" cy="137.603" r="4" fill="#0" id="circle139"/>
	<circle cx="326.873" cy="460.476" r="4" fill="#0" id="circle140"/>
	<circle cx="331.327" cy="350.254" r="4" fill="#0" id="circle141"/>
	<circle cx="332.44" cy="441.549" r="4" fill="#0" id="circle142"/>
	<circle cx="332.44" cy="547.318" r="4" fill="#0" id="circle143"/>
	<circle cx="333.553" cy="478.29" r="4" fill="#0" id="circle144"/>
	<circle cx="334.667" cy="132.036" r="4" fill="#0" id="circle145"/>
	<circle cx="338.007" cy="460.476" r="4" fill="#0" id="circle146"/>
	<circle cx="341.347" cy="355.82" r="4" fill="#0" id="circle147"/>
	<circle cx="341.347" cy="432.642" r="4" fill="#0" id="circle148"/>
	<circle cx="341.347" cy="538.411" r="4" fill="#0" id="circle149"/>
	<circle cx="343.574" cy="450.456" r="4" fill="#0" id="circle150"/>
	<circle cx="343.574" cy="513.917" r="4" fill="#0" id="circle151"/>
	<circle cx="343.574" cy="550.658" r="4" fill="#0" id="circle152"/>
	<circle cx="344.687" cy="472.723" r="4" fill="#0" id="circle153"/>
	<circle cx="345.8" cy="132.036" r="4" fill="#0" id="circle154"/>
	<circle cx="349.14" cy="460.476" r="4" fill="#0" id="circle155"/>
	<circle cx="350.254" cy="363.614" r="4" fill="#0" id="circle156"/>
	<circle cx="350.254" cy="522.824" r="4" fill="#0" id="circle157"/>
	<circle cx="351.367" cy="438.209" r="4" fill="#0" id="circle158"/>
	<circle cx="352.48" cy="538.411" r="4" fill="#0" id="circle159"/>
	<circle cx="353.594" cy="556.224" r="4" fill="#0" id="circle160"/>
	<circle cx="354.707" cy="508.35" r="4" fill="#0" id="circle161"/>
	<circle cx="355.82" cy="472.723" r="4" fill="#0" id="circle162"/>
	<circle cx="356.934" cy="132.036" r="4" fill="#0" id="circle163"/>
	<circle cx="360.274" cy="369.181" r="4" fill="#0" id="circle164"/>
	<circle cx="361.387" cy="525.051" r="4" fill="#0" id="circle165"/>
	<circle cx="362.501" cy="438.209" r="4" fill="#0" id="circle166"/>
	<circle cx="364.727" cy="556.224" r="4" fill="#0" id="circle167"/>
	<circle cx="365.841" cy="505.01" r="4" fill="#0" id="circle168"/>
	<circle cx="366.954" cy="472.723" r="4" fill="#0" id="circle169"/>
	<circle cx="368.067" cy="132.036" r="4" fill="#0" id="circle170"/>
	<circle cx="369.181" cy="376.974" r="4" fill="#0" id="circle171"/>
	<circle cx="373.634" cy="438.209" r="4" fill="#0" id="circle172"/>
	<circle cx="375.861" cy="464.929" r="4" fill="#0" id="circle173"/>
	<circle cx="375.861" cy="510.577" r="4" fill="#0" id="circle174"/>
	<circle cx="375.861" cy="553.998" r="4" fill="#0" id="circle175"/>
	<circle cx="378.088" cy="322.42" r="4" fill="#0" id="circle176"/>
	<circle cx="379.201" cy="132.036" r="4" fill="#0" id="circle177"/>
	<circle cx="379.201" cy="382.541" r="4" fill="#0" id="circle178"/>
	<circle cx="379.201" cy="428.189" r="4" fill="#0" id="circle179"/>
	<circle cx="383.654" cy="311.286" r="4" fill="#0" id="circle180"/>
	<circle cx="383.654" cy="332.44" r="4" fill="#0" id="circle181"/>
	<circle cx="383.654" cy="456.022" r="4" fill="#0" id="circle182"/>
	<circle cx="384.768" cy="417.055" r="4" fill="#0" id="circle183"/>
	<circle cx="386.994" cy="511.69" r="4" fill="#0" id="circle184"/>
	<circle cx="386.994" cy="548.431" r="4" fill="#0" id="circle185"/>
	<circle cx="388.108" cy="389.221" r="4" fill="#0" id="circle186"/>
	<circle cx="390.334" cy="132.036" r="4" fill="#0" id="circle187"/>
	<circle cx="390.334" cy="405.921" r="4" fill="#0" id="circle188"/>
	<circle cx="392.561" cy="339.12" r="4" fill="#0" id="circle189"/>
	<circle cx="392.561" cy="448.229" r="4" fill="#0" id="circle190"/>
	<circle cx="394.788" cy="305.719" r="4" fill="#0" id="circle191"/>
	<circle cx="398.128" cy="510.577" r="4" fill="#0" id="circle192"/>
	<circle cx="398.128" cy="542.864" r="4" fill="#0" id="circle193"/>
	<circle cx="399.241" cy="139.829" r="4" fill="#0" id="circle194"/>
	<circle cx="400.355" cy="348.027" r="4" fill="#0" id="circle195"/>
	<circle cx="400.355" cy="428.189" r="4" fill="#0" id="circle196"/>
	<circle cx="400.355" cy="439.322" r="4" fill="#0" id="circle197"/>
	<circle cx="403.695" cy="297.926" r="4" fill="#0" id="circle198"/>
	<circle cx="404.808" cy="491.65" r="4" fill="#0" id="circle199"/>
	<circle cx="405.921" cy="417.055" r="4" fill="#0" id="circle200"/>
	<circle cx="409.262" cy="355.82" r="4" fill="#0" id="circle201"/>
	<circle cx="409.262" cy="537.297" r="4" fill="#0" id="circle202"/>
	<circle cx="410.375" cy="143.169" r="4" fill="#0" id="circle203"/>
	<circle cx="410.375" cy="480.516" r="4" fill="#0" id="circle204"/>
	<circle cx="411.488" cy="289.019" r="4" fill="#0" id="circle205"/>
	<circle cx="411.488" cy="405.921" r="4" fill="#0" id="circle206"/>
	<circle cx="413.715" cy="366.954" r="4" fill="#0" id="circle207"/>
	<circle cx="415.942" cy="458.249" r="4" fill="#0" id="circle208"/>
	<circle cx="415.942" cy="469.383" r="4" fill="#0" id="circle209"/>
	<circle cx="417.055" cy="528.391" r="4" fill="#0" id="circle210"/>
	<circle cx="420.395" cy="148.736" r="4" fill="#0" id="circle211"/>
	<circle cx="421.508" cy="435.982" r="4" fill="#0" id="circle212"/>
	<circle cx="421.508" cy="447.116" r="4" fill="#0" id="circle213"/>
	<circle cx="422.622" cy="289.019" r="4" fill="#0" id="circle214"/>
	<circle cx="422.622" cy="374.747" r="4" fill="#0" id="circle215"/>
	<circle cx="422.622" cy="408.148" r="4" fill="#0" id="circle216"/>
	<circle cx="425.962" cy="520.597" r="4" fill="#0" id="circle217"/>
	<circle cx="427.075" cy="419.282" r="4" fill="#0" id="circle218"/>
	<circle cx="428.189" cy="506.123" r="4" fill="#0" id="circle219"/>
	<circle cx="430.415" cy="154.303" r="4" fill="#0" id="circle220"/>
	<circle cx="430.415" cy="383.654" r="4" fill="#0" id="circle221"/>
	<circle cx="432.642" cy="283.452" r="4" fill="#0" id="circle222"/>
	<circle cx="433.755" cy="472.723" r="4" fill="#0" id="circle223"/>
	<circle cx="433.755" cy="483.856" r="4" fill="#0" id="circle224"/>
	<circle cx="433.755" cy="494.99" r="4" fill="#0" id="circle225"/>
	<circle cx="439.322" cy="391.448" r="4" fill="#0" id="circle226"/>
	<circle cx="440.435" cy="159.87" r="4" fill="#0" id="circle227"/>
	<circle cx="443.776" cy="283.452" r="4" fill="#0" id="circle228"/>
	<circle cx="443.776" cy="467.156" r="4" fill="#0" id="circle229"/>
	<circle cx="444.889" cy="439.322" r="4" fill="#0" id="circle230"/>
	<circle cx="447.116" cy="400.355" r="4" fill="#0" id="circle231"/>
	<circle cx="447.116" cy="450.456" r="4" fill="#0" id="circle232"/>
	<circle cx="450.456" cy="428.189" r="4" fill="#0" id="circle233"/>
	<circle cx="451.569" cy="159.87" r="4" fill="#0" id="circle234"/>
	<circle cx="452.682" cy="410.375" r="4" fill="#0" id="circle235"/>
	<circle cx="452.682" cy="460.476" r="4" fill="#0" id="circle236"/>
	<circle cx="453.796" cy="277.886" r="4" fill="#0" id="circle237"/>
	<circle cx="461.589" cy="266.752" r="4" fill="#0" id="circle238"/>
	<circle cx="462.703" cy="159.87" r="4" fill="#0" id="circle239"/>
	<circle cx="470.496" cy="258.958" r="4" fill="#0" id="circle240"/>
	<circle cx="473.836" cy="159.87" r="4" fill="#0" id="circle241"/>
	<circle cx="481.63" cy="253.392" r="4" fill="#0" id="circle242"/>
	<circle cx="484.97" cy="159.87" r="4" fill="#0" id="circle243"/>
	<circle cx="492.763" cy="247.825" r="4" fill="#0" id="circle244"/>
	<circle cx="496.103" cy="159.87" r="4" fill="#0" id="circle245"/>
	<circle cx="503.897" cy="244.485" r="4" fill="#0" id="circle246"/>
	<circle cx="507.237" cy="159.87" r="4" fill="#0" id="circle247"/>
	<circle cx="513.917" cy="238.918" r="4" fill="#0" id="circle248"/>
	<circle cx="517.257" cy="154.303" r="4" fill="#0" id="circle249"/>
	<circle cx="525.051" cy="237.805" r="4" fill="#0" id="circle250"/>
	<circle cx="528.391" cy="154.303" r="4" fill="#0" id="circle251"/>
	<circle cx="536.184" cy="233.351" r="4" fill="#0" id="circle252"/>
	<circle cx="539.524" cy="154.303" r="4" fill="#0" id="circle253"/>
	<circle cx="546.204" cy="227.785" r="4" fill="#0" id="circle254"/>
	<circle cx="550.658" cy="154.303" r="4" fill="#0" id="circle255"/>
	<circle cx="557.338" cy="227.785" r="4" fill="#0" id="circle256"/>
	<circle cx="561.791" cy="154.303" r="4" fill="#0" id="circle257"/>
	<circle cx="567.358" cy="222.218" r="4" fill="#0" id="circle258"/>
	<circle cx="572.925" cy="154.303" r="4" fill="#0" id="circle259"/>
	<circle cx="578.492" cy="222.218" r="4" fill="#0" id="circle260"/>
	<circle cx="584.058" cy="154.303" r="4" fill="#0" id="circle261"/>
	<circle cx="588.512" cy="216.651" r="4" fill="#0" id="circle262"/>
	<circle cx="595.192" cy="154.303" r="4" fill="#0" id="circle263"/>
	<circle cx="599.645" cy="216.651" r="4" fill="#0" id="circle264"/>
	<circle cx="606.325" cy="154.303" r="4" fill="#0" id="circle265"/>
	<circle cx="610.779" cy="213.311" r="4" fill="#0" id="circle266"/>
	<circle cx="617.459" cy="154.303" r="4" fill="#0" id="circle267"/>
	<circle cx="621.912" cy="211.084" r="4" fill="#0" id="circle268"/>
	<circle cx="628.593" cy="154.303" r="4" fill="#0" id="circle269"/>
	<circle cx="633.046" cy="207.744" r="4" fill="#0" id="circle270"/>
	<circle cx="639.726" cy="154.303" r="4" fill="#0" id="circle271"/>
	<circle cx="644.18" cy="205.517" r="4" fill="#0" id="circle272"/>
	<circle cx="650.86" cy="154.303" r="4" fill="#0" id="circle273"/>
	<circle cx="655.313" cy="205.517" r="4" fill="#0" id="circle274"/>
	<circle cx="661.993" cy="154.303" r="4" fill="#0" id="circle275"/>
	<circle cx="665.333" cy="199.951" r="4" fill="#0" id="circle276"/>
	<circle cx="673.127" cy="154.303" r="4" fill="#0" id="circle277"/>
	<circle cx="676.467" cy="199.951" r="4" fill="#0" id="circle278"/>
	<circle cx="684.26" cy="154.303" r="4" fill="#0" id="circle279"/>
	<circle cx="687.6" cy="199.951" r="4" fill="#0" id="circle280"/>
	<circle cx="695.394" cy="157.643" r="4" fill="#0" id="circle281"/>
	<circle cx="698.734" cy="199.951" r="4" fill="#0" id="circle282"/>
	<circle cx="706.527" cy="159.87" r="4" fill="#0" id="circle283"/>
	<circle cx="709.868" cy="199.951" r="4" fill="#0" id="circle284"/>
	<circle cx="717.661" cy="159.87" r="4" fill="#0" id="circle285"/>
	<circle cx="721.001" cy="199.951" r="4" fill="#0" id="circle286"/>
	<circle cx="728.795" cy="159.87" r="4" fill="#0" id="circle287"/>
	<circle cx="732.135" cy="199.951" r="4" fill="#0" id="circle288"/>
	<circle cx="739.928" cy="159.87" r="4" fill="#0" id="circle289"/>
	<circle cx="743.268" cy="199.951" r="4" fill="#0" id="circle290"/>
	<circle cx="751.062" cy="163.21" r="4" fill="#0" id="circle291"/>
	<circle cx="754.402" cy="199.951" r="4" fill="#0" id="circle292"/>
	<circle cx="762.195" cy="165.437" r="4" fill="#0" id="circle293"/>
	<circle cx="765.535" cy="199.951" r="4" fill="#0" id="circle294"/>
	<circle cx="773.329" cy="165.437" r="4" fill="#0" id="circle295"/>
	<circle cx="776.669" cy="199.951" r="4" fill="#0" id="circle296"/>
	<circle cx="784.462" cy="165.437" r="4" fill="#0" id="circle297"/>
	<circle cx="787.802" cy="199.951" r="4" fill="#0" id="circle298"/>
	<circle cx="795.596" cy="165.437" r="4" fill="#0" id="circle299"/>
	<circle cx="798.936" cy="199.951" r="4" fill="#0" id="circle300"/>
	<circle cx="806.73" cy="165.437" r="4" fill="#0" id="circle301"/>
	<circle cx="810.07" cy="199.951" r="4" fill="#0" id="circle302"/>
	<circle cx="817.863" cy="165.437" r="4" fill="#0" id="circle303"/>
	<circle cx="821.203" cy="199.951" r="4" fill="#0" id="circle304"/>
	<circle cx="828.997" cy="168.777" r="4" fill="#0" id="circle305"/>
	<circle cx="832.337" cy="199.951" r="4" fill="#0" id="circle306"/>
	<circle cx="840.13" cy="171.003" r="4" fill="#0" id="circle307"/>
	<circle cx="843.47" cy="199.951" r="4" fill="#0" id="circle308"/>
	<circle cx="851.264" cy="171.003" r="4" fill="#0" id="circle309"/>
	<circle cx="854.604" cy="199.951" r="4" fill="#0" id="circle310"/>
	<circle cx="862.397" cy="171.003" r="4" fill="#0" id="circle311"/>
	<circle cx="865.737" cy="199.951" r="4" fill="#0" id="circle312"/>
	<circle cx="873.531" cy="171.003" r="4" fill="#0" id="circle313"/>
	<circle cx="876.871" cy="199.951" r="4" fill="#0" id="circle314"/>
	<circle cx="884.664" cy="174.343" r="4" fill="#0" id="circle315"/>
	<circle cx="888.004" cy="199.951" r="4" fill="#0" id="circle316"/>
	<circle cx="895.798" cy="176.57" r="4" fill="#0" id="circle317"/>
	<circle cx="899.138" cy="199.951" r="4" fill="#0" id="circle318"/>
	<circle cx="906.932" cy="176.57" r="4" fill="#0" id="circle319"/>
	<circle cx="910.272" cy="197.724" r="4" fill="#0" id="circle320"/>
	<circle cx="918.065" cy="176.57" r="4" fill="#0" id="circle321"/>
	<circle cx="921.405" cy="194.384" r="4" fill="#0" id="circle322"/>
	<circle cx="929.199" cy="176.57" r="4" fill="#0" id="circle323"/>
	<circle cx="932.539" cy="194.384" r="4" fill="#0" id="circle324"/>
	<circle cx="940.332" cy="176.57" r="4" fill="#0" id="circle325"/>
	<circle cx="943.672" cy="194.384" r="4" fill="#0" id="circle326"/>
	<circle cx="951.466" cy="176.57" r="4" fill="#0" id="circle327"/>
	<circle cx="954.806" cy="194.384" r="4" fill="#0" id="circle328"/>
	<circle cx="962.599" cy="176.57" r="4" fill="#0" id="circle329"/>
	<circle cx="964.826" cy="188.817" r="4" fill="#0" id="circle330"/>
	<circle cx="973.733" cy="176.57" r="4" fill="#0" id="circle331"/>
	<circle cx="975.96" cy="187.704" r="4" fill="#0" id="circle332"/>
	<circle cx="984.866" cy="176.57" r="4" fill="#0" id="circle333"/>
	<circle cx="996" cy="179.91" r="4" fill="#0" id="circle334"/>
	</g>
</svg>