<?xml version="1.0" encoding="UTF-8" standalone="no"?>
<!-- Created with CurveBenchmark -->
<svg
	xmlns:dc="http://purl.org/dc/elements/1.1/"
	xmlns:cc="http://creativecommons.org/ns#"
	xmlns:rdf="http://www.w3.org/1999/02/22-rdf-syntax-ns#"
	xmlns:svg="http://www.w3.org/2000/svg"
	xmlns="http://www.w3.org/2000/svg"
	xmlns:sodipodi="http://sodipodi.sourceforge.net/DTD/sodipodi-0.dtd"
	xmlns:inkscape="http://www.inkscape.org/namespaces/inkscape"
	width="1000"
	height="1000"
	id="svg2"
	version="1.1"
	sodipodi:docname="manifold/gathan1-hammer135.png.txt">
<defs
	id="defs4" />
<metadata
	id="metadata7">
	<rdf:RDF>
		<cc:Work
			rdf:about="">
			<dc:format>image/svg+xml</dc:format>
			<dc:type
				rdf:resource="http://purl.org/dc/dcmitype/StillImage" />
			<dc:title></dc:title>
		</cc:Work>
	</rdf:RDF>
</metadata>
<g
	inkscape:label="Layer 1"
	inkscape:groupmode="layer"
	id="layer1">
	<path style="fill:none;stroke:red;stroke-width:1px;stroke-linecap:butt;stroke-linejoin:miter;stroke-opacity:1" d="M 4,55.7565 4,27.0029 z" id="boundary" inkscape:connector-curvature="0" />
	<path style="fill:none;stroke:red;stroke-width:1px;stroke-linecap:butt;stroke-linejoin:miter;stroke-opacity:1" d="M 78.7594,12.6261 50.0058,4 z" id="boundary" inkscape:connector-curvature="0" />
	<path style="fill:none;stroke:red;stroke-width:1px;stroke-linecap:butt;stroke-linejoin:miter;stroke-opacity:1" d="M 107.513,4 78.7594,12.6261 z" id="boundary" inkscape:connector-curvature="0" />
	<path style="fill:none;stroke:red;stroke-width:1px;stroke-linecap:butt;stroke-linejoin:miter;stroke-opacity:1" d="M 4,27.0029 21.2522,4 z" id="boundary" inkscape:connector-curvature="0" />
	<path style="fill:none;stroke:red;stroke-width:1px;stroke-linecap:butt;stroke-linejoin:miter;stroke-opacity:1" d="M 21.2522,4 50.0058,4 z" id="boundary" inkscape:connector-curvature="0" />
	<path style="fill:none;stroke:red;stroke-width:1px;stroke-linecap:butt;stroke-linejoin:miter;stroke-opacity:1" d="M 18.3768,81.6348 47.1304,93.1362 z" id="boundary" inkscape:connector-curvature="0" />
	<path style="fill:none;stroke:red;stroke-width:1px;stroke-linecap:butt;stroke-linejoin:miter;stroke-opacity:1" d="M 75.8841,78.7594 47.1304,93.1362 z" id="boundary" inkscape:connector-curvature="0" />
	<path style="fill:none;stroke:red;stroke-width:1px;stroke-linecap:butt;stroke-linejoin:miter;stroke-opacity:1" d="M 90.2609,104.638 96.0116,133.391 z" id="boundary" inkscape:connector-curvature="0" />
	<path style="fill:none;stroke:red;stroke-width:1px;stroke-linecap:butt;stroke-linejoin:miter;stroke-opacity:1" d="M 90.2609,104.638 75.8841,78.7594 z" id="boundary" inkscape:connector-curvature="0" />
	<path style="fill:none;stroke:red;stroke-width:1px;stroke-linecap:butt;stroke-linejoin:miter;stroke-opacity:1" d="M 18.3768,81.6348 4,55.7565 z" id="boundary" inkscape:connector-curvature="0" />
	<path style="fill:none;stroke:red;stroke-width:1px;stroke-linecap:butt;stroke-linejoin:miter;stroke-opacity:1" d="M 96.0116,133.391 107.513,162.145 z" id="boundary" inkscape:connector-curvature="0" />
	<path style="fill:none;stroke:red;stroke-width:1px;stroke-linecap:butt;stroke-linejoin:miter;stroke-opacity:1" d="M 107.513,4 136.267,4 z" id="boundary" inkscape:connector-curvature="0" />
	<path style="fill:none;stroke:red;stroke-width:1px;stroke-linecap:butt;stroke-linejoin:miter;stroke-opacity:1" d="M 136.267,4 165.02,4 z" id="boundary" inkscape:connector-curvature="0" />
	<path style="fill:none;stroke:red;stroke-width:1px;stroke-linecap:butt;stroke-linejoin:miter;stroke-opacity:1" d="M 113.264,190.899 107.513,162.145 z" id="boundary" inkscape:connector-curvature="0" />
	<path style="fill:none;stroke:red;stroke-width:1px;stroke-linecap:butt;stroke-linejoin:miter;stroke-opacity:1" d="M 119.014,219.652 113.264,190.899 z" id="boundary" inkscape:connector-curvature="0" />
	<path style="fill:none;stroke:red;stroke-width:1px;stroke-linecap:butt;stroke-linejoin:miter;stroke-opacity:1" d="M 124.765,277.159 119.014,248.406 z" id="boundary" inkscape:connector-curvature="0" />
	<path style="fill:none;stroke:red;stroke-width:1px;stroke-linecap:butt;stroke-linejoin:miter;stroke-opacity:1" d="M 119.014,248.406 119.014,219.652 z" id="boundary" inkscape:connector-curvature="0" />
	<path style="fill:none;stroke:red;stroke-width:1px;stroke-linecap:butt;stroke-linejoin:miter;stroke-opacity:1" d="M 124.765,277.159 124.765,305.913 z" id="boundary" inkscape:connector-curvature="0" />
	<path style="fill:none;stroke:red;stroke-width:1px;stroke-linecap:butt;stroke-linejoin:miter;stroke-opacity:1" d="M 124.765,305.913 124.765,334.667 z" id="boundary" inkscape:connector-curvature="0" />
	<path style="fill:none;stroke:red;stroke-width:1px;stroke-linecap:butt;stroke-linejoin:miter;stroke-opacity:1" d="M 124.765,363.42 124.765,334.667 z" id="boundary" inkscape:connector-curvature="0" />
	<path style="fill:none;stroke:red;stroke-width:1px;stroke-linecap:butt;stroke-linejoin:miter;stroke-opacity:1" d="M 119.014,412.301 124.765,363.42 z" id="boundary" inkscape:connector-curvature="0" />
	<path style="fill:none;stroke:red;stroke-width:1px;stroke-linecap:butt;stroke-linejoin:miter;stroke-opacity:1" d="M 96.0116,521.565 96.0116,550.319 z" id="boundary" inkscape:connector-curvature="0" />
	<path style="fill:none;stroke:red;stroke-width:1px;stroke-linecap:butt;stroke-linejoin:miter;stroke-opacity:1" d="M 96.0116,521.565 96.0116,492.812 z" id="boundary" inkscape:connector-curvature="0" />
	<path style="fill:none;stroke:red;stroke-width:1px;stroke-linecap:butt;stroke-linejoin:miter;stroke-opacity:1" d="M 96.0116,579.072 96.0116,607.826 z" id="boundary" inkscape:connector-curvature="0" />
	<path style="fill:none;stroke:red;stroke-width:1px;stroke-linecap:butt;stroke-linejoin:miter;stroke-opacity:1" d="M 96.0116,579.072 96.0116,550.319 z" id="boundary" inkscape:connector-curvature="0" />
	<path style="fill:none;stroke:red;stroke-width:1px;stroke-linecap:butt;stroke-linejoin:miter;stroke-opacity:1" d="M 96.0116,607.826 96.0116,636.58 z" id="boundary" inkscape:connector-curvature="0" />
	<path style="fill:none;stroke:red;stroke-width:1px;stroke-linecap:butt;stroke-linejoin:miter;stroke-opacity:1" d="M 90.2609,947.119 90.2609,975.872 z" id="boundary" inkscape:connector-curvature="0" />
	<path style="fill:none;stroke:red;stroke-width:1px;stroke-linecap:butt;stroke-linejoin:miter;stroke-opacity:1" d="M 113.264,996 90.2609,975.872 z" id="boundary" inkscape:connector-curvature="0" />
	<path style="fill:none;stroke:red;stroke-width:1px;stroke-linecap:butt;stroke-linejoin:miter;stroke-opacity:1" d="M 96.0116,665.333 96.0116,694.087 z" id="boundary" inkscape:connector-curvature="0" />
	<path style="fill:none;stroke:red;stroke-width:1px;stroke-linecap:butt;stroke-linejoin:miter;stroke-opacity:1" d="M 96.0116,665.333 96.0116,636.58 z" id="boundary" inkscape:connector-curvature="0" />
	<path style="fill:none;stroke:red;stroke-width:1px;stroke-linecap:butt;stroke-linejoin:miter;stroke-opacity:1" d="M 96.0116,722.841 96.0116,694.087 z" id="boundary" inkscape:connector-curvature="0" />
	<path style="fill:none;stroke:red;stroke-width:1px;stroke-linecap:butt;stroke-linejoin:miter;stroke-opacity:1" d="M 96.0116,722.841 96.0116,751.594 z" id="boundary" inkscape:connector-curvature="0" />
	<path style="fill:none;stroke:red;stroke-width:1px;stroke-linecap:butt;stroke-linejoin:miter;stroke-opacity:1" d="M 96.0116,751.594 96.0116,780.348 z" id="boundary" inkscape:connector-curvature="0" />
	<path style="fill:none;stroke:red;stroke-width:1px;stroke-linecap:butt;stroke-linejoin:miter;stroke-opacity:1" d="M 96.0116,809.101 96.0116,780.348 z" id="boundary" inkscape:connector-curvature="0" />
	<path style="fill:none;stroke:red;stroke-width:1px;stroke-linecap:butt;stroke-linejoin:miter;stroke-opacity:1" d="M 107.513,458.307 96.0116,492.812 z" id="boundary" inkscape:connector-curvature="0" />
	<path style="fill:none;stroke:red;stroke-width:1px;stroke-linecap:butt;stroke-linejoin:miter;stroke-opacity:1" d="M 96.0116,809.101 96.0116,837.855 z" id="boundary" inkscape:connector-curvature="0" />
	<path style="fill:none;stroke:red;stroke-width:1px;stroke-linecap:butt;stroke-linejoin:miter;stroke-opacity:1" d="M 96.0116,866.609 96.0116,837.855 z" id="boundary" inkscape:connector-curvature="0" />
	<path style="fill:none;stroke:red;stroke-width:1px;stroke-linecap:butt;stroke-linejoin:miter;stroke-opacity:1" d="M 96.0116,895.362 96.0116,866.609 z" id="boundary" inkscape:connector-curvature="0" />
	<path style="fill:none;stroke:red;stroke-width:1px;stroke-linecap:butt;stroke-linejoin:miter;stroke-opacity:1" d="M 142.017,996 113.264,996 z" id="boundary" inkscape:connector-curvature="0" />
	<path style="fill:none;stroke:red;stroke-width:1px;stroke-linecap:butt;stroke-linejoin:miter;stroke-opacity:1" d="M 90.2609,947.119 96.0116,895.362 z" id="boundary" inkscape:connector-curvature="0" />
	<path style="fill:none;stroke:red;stroke-width:1px;stroke-linecap:butt;stroke-linejoin:miter;stroke-opacity:1" d="M 170.771,996 142.017,996 z" id="boundary" inkscape:connector-curvature="0" />
	<path style="fill:none;stroke:red;stroke-width:1px;stroke-linecap:butt;stroke-linejoin:miter;stroke-opacity:1" d="M 107.513,458.307 119.014,412.301 z" id="boundary" inkscape:connector-curvature="0" />
	<path style="fill:none;stroke:red;stroke-width:1px;stroke-linecap:butt;stroke-linejoin:miter;stroke-opacity:1" d="M 202.4,205.275 202.4,234.029 z" id="boundary" inkscape:connector-curvature="0" />
	<path style="fill:none;stroke:red;stroke-width:1px;stroke-linecap:butt;stroke-linejoin:miter;stroke-opacity:1" d="M 213.901,165.02 202.4,205.275 z" id="boundary" inkscape:connector-curvature="0" />
	<path style="fill:none;stroke:red;stroke-width:1px;stroke-linecap:butt;stroke-linejoin:miter;stroke-opacity:1" d="M 225.403,124.765 213.901,165.02 z" id="boundary" inkscape:connector-curvature="0" />
	<path style="fill:none;stroke:red;stroke-width:1px;stroke-linecap:butt;stroke-linejoin:miter;stroke-opacity:1" d="M 193.774,4 222.528,4 z" id="boundary" inkscape:connector-curvature="0" />
	<path style="fill:none;stroke:red;stroke-width:1px;stroke-linecap:butt;stroke-linejoin:miter;stroke-opacity:1" d="M 222.528,4 248.406,18.3768 z" id="boundary" inkscape:connector-curvature="0" />
	<path style="fill:none;stroke:red;stroke-width:1px;stroke-linecap:butt;stroke-linejoin:miter;stroke-opacity:1" d="M 196.649,280.035 202.4,234.029 z" id="boundary" inkscape:connector-curvature="0" />
	<path style="fill:none;stroke:red;stroke-width:1px;stroke-linecap:butt;stroke-linejoin:miter;stroke-opacity:1" d="M 196.649,280.035 196.649,308.788 z" id="boundary" inkscape:connector-curvature="0" />
	<path style="fill:none;stroke:red;stroke-width:1px;stroke-linecap:butt;stroke-linejoin:miter;stroke-opacity:1" d="M 199.525,395.049 196.649,366.296 z" id="boundary" inkscape:connector-curvature="0" />
	<path style="fill:none;stroke:red;stroke-width:1px;stroke-linecap:butt;stroke-linejoin:miter;stroke-opacity:1" d="M 196.649,337.542 196.649,308.788 z" id="boundary" inkscape:connector-curvature="0" />
	<path style="fill:none;stroke:red;stroke-width:1px;stroke-linecap:butt;stroke-linejoin:miter;stroke-opacity:1" d="M 199.525,395.049 202.4,423.803 z" id="boundary" inkscape:connector-curvature="0" />
	<path style="fill:none;stroke:red;stroke-width:1px;stroke-linecap:butt;stroke-linejoin:miter;stroke-opacity:1" d="M 196.649,337.542 196.649,366.296 z" id="boundary" inkscape:connector-curvature="0" />
	<path style="fill:none;stroke:red;stroke-width:1px;stroke-linecap:butt;stroke-linejoin:miter;stroke-opacity:1" d="M 248.406,18.3768 271.409,35.629 z" id="boundary" inkscape:connector-curvature="0" />
	<path style="fill:none;stroke:red;stroke-width:1px;stroke-linecap:butt;stroke-linejoin:miter;stroke-opacity:1" d="M 288.661,58.6319 305.913,81.6348 z" id="boundary" inkscape:connector-curvature="0" />
	<path style="fill:none;stroke:red;stroke-width:1px;stroke-linecap:butt;stroke-linejoin:miter;stroke-opacity:1" d="M 271.409,35.629 288.661,58.6319 z" id="boundary" inkscape:connector-curvature="0" />
	<path style="fill:none;stroke:red;stroke-width:1px;stroke-linecap:butt;stroke-linejoin:miter;stroke-opacity:1" d="M 305.913,81.6348 317.414,110.388 z" id="boundary" inkscape:connector-curvature="0" />
	<path style="fill:none;stroke:red;stroke-width:1px;stroke-linecap:butt;stroke-linejoin:miter;stroke-opacity:1" d="M 248.406,144.893 225.403,124.765 z" id="boundary" inkscape:connector-curvature="0" />
	<path style="fill:none;stroke:red;stroke-width:1px;stroke-linecap:butt;stroke-linejoin:miter;stroke-opacity:1" d="M 285.786,179.397 257.032,173.646 z" id="boundary" inkscape:connector-curvature="0" />
	<path style="fill:none;stroke:red;stroke-width:1px;stroke-linecap:butt;stroke-linejoin:miter;stroke-opacity:1" d="M 328.916,139.142 314.539,179.397 z" id="boundary" inkscape:connector-curvature="0" />
	<path style="fill:none;stroke:red;stroke-width:1px;stroke-linecap:butt;stroke-linejoin:miter;stroke-opacity:1" d="M 314.539,179.397 285.786,179.397 z" id="boundary" inkscape:connector-curvature="0" />
	<path style="fill:none;stroke:red;stroke-width:1px;stroke-linecap:butt;stroke-linejoin:miter;stroke-opacity:1" d="M 317.414,110.388 328.916,139.142 z" id="boundary" inkscape:connector-curvature="0" />
	<path style="fill:none;stroke:red;stroke-width:1px;stroke-linecap:butt;stroke-linejoin:miter;stroke-opacity:1" d="M 208.151,452.557 219.652,481.31 z" id="boundary" inkscape:connector-curvature="0" />
	<path style="fill:none;stroke:red;stroke-width:1px;stroke-linecap:butt;stroke-linejoin:miter;stroke-opacity:1" d="M 208.151,452.557 202.4,423.803 z" id="boundary" inkscape:connector-curvature="0" />
	<path style="fill:none;stroke:red;stroke-width:1px;stroke-linecap:butt;stroke-linejoin:miter;stroke-opacity:1" d="M 225.403,510.064 225.403,538.817 z" id="boundary" inkscape:connector-curvature="0" />
	<path style="fill:none;stroke:red;stroke-width:1px;stroke-linecap:butt;stroke-linejoin:miter;stroke-opacity:1" d="M 225.403,510.064 219.652,481.31 z" id="boundary" inkscape:connector-curvature="0" />
	<path style="fill:none;stroke:red;stroke-width:1px;stroke-linecap:butt;stroke-linejoin:miter;stroke-opacity:1" d="M 225.403,538.817 225.403,567.571 z" id="boundary" inkscape:connector-curvature="0" />
	<path style="fill:none;stroke:red;stroke-width:1px;stroke-linecap:butt;stroke-linejoin:miter;stroke-opacity:1" d="M 199.525,996 170.771,996 z" id="boundary" inkscape:connector-curvature="0" />
	<path style="fill:none;stroke:red;stroke-width:1px;stroke-linecap:butt;stroke-linejoin:miter;stroke-opacity:1" d="M 225.403,567.571 225.403,596.325 z" id="boundary" inkscape:connector-curvature="0" />
	<path style="fill:none;stroke:red;stroke-width:1px;stroke-linecap:butt;stroke-linejoin:miter;stroke-opacity:1" d="M 225.403,596.325 225.403,625.078 z" id="boundary" inkscape:connector-curvature="0" />
	<path style="fill:none;stroke:red;stroke-width:1px;stroke-linecap:butt;stroke-linejoin:miter;stroke-opacity:1" d="M 225.403,625.078 225.403,653.832 z" id="boundary" inkscape:connector-curvature="0" />
	<path style="fill:none;stroke:red;stroke-width:1px;stroke-linecap:butt;stroke-linejoin:miter;stroke-opacity:1" d="M 225.403,653.832 225.403,682.586 z" id="boundary" inkscape:connector-curvature="0" />
	<path style="fill:none;stroke:red;stroke-width:1px;stroke-linecap:butt;stroke-linejoin:miter;stroke-opacity:1" d="M 225.403,682.586 225.403,711.339 z" id="boundary" inkscape:connector-curvature="0" />
	<path style="fill:none;stroke:red;stroke-width:1px;stroke-linecap:butt;stroke-linejoin:miter;stroke-opacity:1" d="M 225.403,711.339 225.403,740.093 z" id="boundary" inkscape:connector-curvature="0" />
	<path style="fill:none;stroke:red;stroke-width:1px;stroke-linecap:butt;stroke-linejoin:miter;stroke-opacity:1" d="M 225.403,768.846 225.403,797.6 z" id="boundary" inkscape:connector-curvature="0" />
	<path style="fill:none;stroke:red;stroke-width:1px;stroke-linecap:butt;stroke-linejoin:miter;stroke-opacity:1" d="M 225.403,768.846 225.403,740.093 z" id="boundary" inkscape:connector-curvature="0" />
	<path style="fill:none;stroke:red;stroke-width:1px;stroke-linecap:butt;stroke-linejoin:miter;stroke-opacity:1" d="M 225.403,797.6 225.403,826.354 z" id="boundary" inkscape:connector-curvature="0" />
	<path style="fill:none;stroke:red;stroke-width:1px;stroke-linecap:butt;stroke-linejoin:miter;stroke-opacity:1" d="M 225.403,855.107 225.403,883.861 z" id="boundary" inkscape:connector-curvature="0" />
	<path style="fill:none;stroke:red;stroke-width:1px;stroke-linecap:butt;stroke-linejoin:miter;stroke-opacity:1" d="M 225.403,855.107 225.403,826.354 z" id="boundary" inkscape:connector-curvature="0" />
	<path style="fill:none;stroke:red;stroke-width:1px;stroke-linecap:butt;stroke-linejoin:miter;stroke-opacity:1" d="M 225.403,883.861 225.403,912.614 z" id="boundary" inkscape:connector-curvature="0" />
	<path style="fill:none;stroke:red;stroke-width:1px;stroke-linecap:butt;stroke-linejoin:miter;stroke-opacity:1" d="M 231.154,941.368 228.278,996 z" id="boundary" inkscape:connector-curvature="0" />
	<path style="fill:none;stroke:red;stroke-width:1px;stroke-linecap:butt;stroke-linejoin:miter;stroke-opacity:1" d="M 228.278,996 199.525,996 z" id="boundary" inkscape:connector-curvature="0" />
	<path style="fill:none;stroke:red;stroke-width:1px;stroke-linecap:butt;stroke-linejoin:miter;stroke-opacity:1" d="M 231.154,941.368 225.403,912.614 z" id="boundary" inkscape:connector-curvature="0" />
	<path style="fill:none;stroke:red;stroke-width:1px;stroke-linecap:butt;stroke-linejoin:miter;stroke-opacity:1" d="M 165.02,4 193.774,4 z" id="boundary" inkscape:connector-curvature="0" />
	<circle cx="4" cy="27.0029" r="4" fill="#0" id="circle0"/>
	<circle cx="4" cy="55.7565" r="4" fill="#0" id="circle1"/>
	<circle cx="18.3768" cy="81.6348" r="4" fill="#0" id="circle2"/>
	<circle cx="21.2522" cy="4" r="4" fill="#0" id="circle3"/>
	<circle cx="47.1304" cy="93.1362" r="4" fill="#0" id="circle4"/>
	<circle cx="50.0058" cy="4" r="4" fill="#0" id="circle5"/>
	<circle cx="75.8841" cy="78.7594" r="4" fill="#0" id="circle6"/>
	<circle cx="78.7594" cy="12.6261" r="4" fill="#0" id="circle7"/>
	<circle cx="90.2609" cy="104.638" r="4" fill="#0" id="circle8"/>
	<circle cx="90.2609" cy="947.119" r="4" fill="#0" id="circle9"/>
	<circle cx="90.2609" cy="975.872" r="4" fill="#0" id="circle10"/>
	<circle cx="96.0116" cy="133.391" r="4" fill="#0" id="circle11"/>
	<circle cx="96.0116" cy="492.812" r="4" fill="#0" id="circle12"/>
	<circle cx="96.0116" cy="521.565" r="4" fill="#0" id="circle13"/>
	<circle cx="96.0116" cy="550.319" r="4" fill="#0" id="circle14"/>
	<circle cx="96.0116" cy="579.072" r="4" fill="#0" id="circle15"/>
	<circle cx="96.0116" cy="607.826" r="4" fill="#0" id="circle16"/>
	<circle cx="96.0116" cy="636.58" r="4" fill="#0" id="circle17"/>
	<circle cx="96.0116" cy="665.333" r="4" fill="#0" id="circle18"/>
	<circle cx="96.0116" cy="694.087" r="4" fill="#0" id="circle19"/>
	<circle cx="96.0116" cy="722.841" r="4" fill="#0" id="circle20"/>
	<circle cx="96.0116" cy="751.594" r="4" fill="#0" id="circle21"/>
	<circle cx="96.0116" cy="780.348" r="4" fill="#0" id="circle22"/>
	<circle cx="96.0116" cy="809.101" r="4" fill="#0" id="circle23"/>
	<circle cx="96.0116" cy="837.855" r="4" fill="#0" id="circle24"/>
	<circle cx="96.0116" cy="866.609" r="4" fill="#0" id="circle25"/>
	<circle cx="96.0116" cy="895.362" r="4" fill="#0" id="circle26"/>
	<circle cx="107.513" cy="4" r="4" fill="#0" id="circle27"/>
	<circle cx="107.513" cy="162.145" r="4" fill="#0" id="circle28"/>
	<circle cx="107.513" cy="458.307" r="4" fill="#0" id="circle29"/>
	<circle cx="113.264" cy="190.899" r="4" fill="#0" id="circle30"/>
	<circle cx="113.264" cy="996" r="4" fill="#0" id="circle31"/>
	<circle cx="119.014" cy="219.652" r="4" fill="#0" id="circle32"/>
	<circle cx="119.014" cy="248.406" r="4" fill="#0" id="circle33"/>
	<circle cx="119.014" cy="412.301" r="4" fill="#0" id="circle34"/>
	<circle cx="124.765" cy="277.159" r="4" fill="#0" id="circle35"/>
	<circle cx="124.765" cy="305.913" r="4" fill="#0" id="circle36"/>
	<circle cx="124.765" cy="334.667" r="4" fill="#0" id="circle37"/>
	<circle cx="124.765" cy="363.42" r="4" fill="#0" id="circle38"/>
	<circle cx="136.267" cy="4" r="4" fill="#0" id="circle39"/>
	<circle cx="142.017" cy="996" r="4" fill="#0" id="circle40"/>
	<circle cx="165.02" cy="4" r="4" fill="#0" id="circle41"/>
	<circle cx="170.771" cy="996" r="4" fill="#0" id="circle42"/>
	<circle cx="193.774" cy="4" r="4" fill="#0" id="circle43"/>
	<circle cx="196.649" cy="280.035" r="4" fill="#0" id="circle44"/>
	<circle cx="196.649" cy="308.788" r="4" fill="#0" id="circle45"/>
	<circle cx="196.649" cy="337.542" r="4" fill="#0" id="circle46"/>
	<circle cx="196.649" cy="366.296" r="4" fill="#0" id="circle47"/>
	<circle cx="199.525" cy="395.049" r="4" fill="#0" id="circle48"/>
	<circle cx="199.525" cy="996" r="4" fill="#0" id="circle49"/>
	<circle cx="202.4" cy="205.275" r="4" fill="#0" id="circle50"/>
	<circle cx="202.4" cy="234.029" r="4" fill="#0" id="circle51"/>
	<circle cx="202.4" cy="423.803" r="4" fill="#0" id="circle52"/>
	<circle cx="208.151" cy="452.557" r="4" fill="#0" id="circle53"/>
	<circle cx="213.901" cy="165.02" r="4" fill="#0" id="circle54"/>
	<circle cx="219.652" cy="481.31" r="4" fill="#0" id="circle55"/>
	<circle cx="222.528" cy="4" r="4" fill="#0" id="circle56"/>
	<circle cx="225.403" cy="124.765" r="4" fill="#0" id="circle57"/>
	<circle cx="225.403" cy="510.064" r="4" fill="#0" id="circle58"/>
	<circle cx="225.403" cy="538.817" r="4" fill="#0" id="circle59"/>
	<circle cx="225.403" cy="567.571" r="4" fill="#0" id="circle60"/>
	<circle cx="225.403" cy="596.325" r="4" fill="#0" id="circle61"/>
	<circle cx="225.403" cy="625.078" r="4" fill="#0" id="circle62"/>
	<circle cx="225.403" cy="653.832" r="4" fill="#0" id="circle63"/>
	<circle cx="225.403" cy="682.586" r="4" fill="#0" id="circle64"/>
	<circle cx="225.403" cy="711.339" r="4" fill="#0" id="circle65"/>
	<circle cx="225.403" cy="740.093" r="4" fill="#0" id="circle66"/>
	<circle cx="225.403" cy="768.846" r="4" fill="#0" id="circle67"/>
	<circle cx="225.403" cy="797.6" r="4" fill="#0" id="circle68"/>
	<circle cx="225.403" cy="826.354" r="4" fill="#0" id="circle69"/>
	<circle cx="225.403" cy="855.107" r="4" fill="#0" id="circle70"/>
	<circle cx="225.403" cy="883.861" r="4" fill="#0" id="circle71"/>
	<circle cx="225.403" cy="912.614" r="4" fill="#0" id="circle72"/>
	<circle cx="228.278" cy="996" r="4" fill="#0" id="circle73"/>
	<circle cx="231.154" cy="941.368" r="4" fill="#0" id="circle74"/>
	<circle cx="248.406" cy="18.3768" r="4" fill="#0" id="circle75"/>
	<circle cx="248.406" cy="144.893" r="4" fill="#0" id="circle76"/>
	<circle cx="257.032" cy="173.646" r="4" fill="#0" id="circle77"/>
	<circle cx="271.409" cy="35.629" r="4" fill="#0" id="circle78"/>
	<circle cx="285.786" cy="179.397" r="4" fill="#0" id="circle79"/>
	<circle cx="288.661" cy="58.6319" r="4" fill="#0" id="circle80"/>
	<circle cx="305.913" cy="81.6348" r="4" fill="#0" id="circle81"/>
	<circle cx="314.539" cy="179.397" r="4" fill="#0" id="circle82"/>
	<circle cx="317.414" cy="110.388" r="4" fill="#0" id="circle83"/>
	<circle cx="328.916" cy="139.142" r="4" fill="#0" id="circle84"/>
	</g>
</svg>