<?xml version="1.0" encoding="UTF-8" standalone="no"?>
<!-- Created with CurveBenchmark -->
<svg
	xmlns:dc="http://purl.org/dc/elements/1.1/"
	xmlns:cc="http://creativecommons.org/ns#"
	xmlns:rdf="http://www.w3.org/1999/02/22-rdf-syntax-ns#"
	xmlns:svg="http://www.w3.org/2000/svg"
	xmlns="http://www.w3.org/2000/svg"
	xmlns:sodipodi="http://sodipodi.sourceforge.net/DTD/sodipodi-0.dtd"
	xmlns:inkscape="http://www.inkscape.org/namespaces/inkscape"
	width="1000"
	height="1000"
	id="svg2"
	version="1.1"
	sodipodi:docname="manifold/gathang-hammer130.png.txt">
<defs
	id="defs4" />
<metadata
	id="metadata7">
	<rdf:RDF>
		<cc:Work
			rdf:about="">
			<dc:format>image/svg+xml</dc:format>
			<dc:type
				rdf:resource="http://purl.org/dc/dcmitype/StillImage" />
			<dc:title></dc:title>
		</cc:Work>
	</rdf:RDF>
</metadata>
<g
	inkscape:label="Layer 1"
	inkscape:groupmode="layer"
	id="layer1">
	<path style="fill:none;stroke:red;stroke-width:1px;stroke-linecap:butt;stroke-linejoin:miter;stroke-opacity:1" d="M 4,61.5072 4,32.7536 z" id="boundary" inkscape:connector-curvature="0" />
	<path style="fill:none;stroke:red;stroke-width:1px;stroke-linecap:butt;stroke-linejoin:miter;stroke-opacity:1" d="M 21.2522,84.5101 4,61.5072 z" id="boundary" inkscape:connector-curvature="0" />
	<path style="fill:none;stroke:red;stroke-width:1px;stroke-linecap:butt;stroke-linejoin:miter;stroke-opacity:1" d="M 78.7594,12.6261 50.0058,4 z" id="boundary" inkscape:connector-curvature="0" />
	<path style="fill:none;stroke:red;stroke-width:1px;stroke-linecap:butt;stroke-linejoin:miter;stroke-opacity:1" d="M 107.513,4 78.7594,12.6261 z" id="boundary" inkscape:connector-curvature="0" />
	<path style="fill:none;stroke:red;stroke-width:1px;stroke-linecap:butt;stroke-linejoin:miter;stroke-opacity:1" d="M 4,32.7536 21.2522,9.75072 z" id="boundary" inkscape:connector-curvature="0" />
	<path style="fill:none;stroke:red;stroke-width:1px;stroke-linecap:butt;stroke-linejoin:miter;stroke-opacity:1" d="M 21.2522,9.75072 50.0058,4 z" id="boundary" inkscape:connector-curvature="0" />
	<path style="fill:none;stroke:red;stroke-width:1px;stroke-linecap:butt;stroke-linejoin:miter;stroke-opacity:1" d="M 21.2522,84.5101 50.0058,93.1362 z" id="boundary" inkscape:connector-curvature="0" />
	<path style="fill:none;stroke:red;stroke-width:1px;stroke-linecap:butt;stroke-linejoin:miter;stroke-opacity:1" d="M 84.5101,113.264 87.3855,142.017 z" id="boundary" inkscape:connector-curvature="0" />
	<path style="fill:none;stroke:red;stroke-width:1px;stroke-linecap:butt;stroke-linejoin:miter;stroke-opacity:1" d="M 84.5101,113.264 78.7594,84.5101 z" id="boundary" inkscape:connector-curvature="0" />
	<path style="fill:none;stroke:red;stroke-width:1px;stroke-linecap:butt;stroke-linejoin:miter;stroke-opacity:1" d="M 101.762,167.896 87.3855,142.017 z" id="boundary" inkscape:connector-curvature="0" />
	<path style="fill:none;stroke:red;stroke-width:1px;stroke-linecap:butt;stroke-linejoin:miter;stroke-opacity:1" d="M 50.0058,93.1362 78.7594,84.5101 z" id="boundary" inkscape:connector-curvature="0" />
	<path style="fill:none;stroke:red;stroke-width:1px;stroke-linecap:butt;stroke-linejoin:miter;stroke-opacity:1" d="M 107.513,4 136.267,4 z" id="boundary" inkscape:connector-curvature="0" />
	<path style="fill:none;stroke:red;stroke-width:1px;stroke-linecap:butt;stroke-linejoin:miter;stroke-opacity:1" d="M 113.264,225.403 107.513,196.649 z" id="boundary" inkscape:connector-curvature="0" />
	<path style="fill:none;stroke:red;stroke-width:1px;stroke-linecap:butt;stroke-linejoin:miter;stroke-opacity:1" d="M 107.513,196.649 101.762,167.896 z" id="boundary" inkscape:connector-curvature="0" />
	<path style="fill:none;stroke:red;stroke-width:1px;stroke-linecap:butt;stroke-linejoin:miter;stroke-opacity:1" d="M 113.264,254.157 113.264,225.403 z" id="boundary" inkscape:connector-curvature="0" />
	<path style="fill:none;stroke:red;stroke-width:1px;stroke-linecap:butt;stroke-linejoin:miter;stroke-opacity:1" d="M 113.264,254.157 113.264,282.91 z" id="boundary" inkscape:connector-curvature="0" />
	<path style="fill:none;stroke:red;stroke-width:1px;stroke-linecap:butt;stroke-linejoin:miter;stroke-opacity:1" d="M 119.014,311.664 113.264,282.91 z" id="boundary" inkscape:connector-curvature="0" />
	<path style="fill:none;stroke:red;stroke-width:1px;stroke-linecap:butt;stroke-linejoin:miter;stroke-opacity:1" d="M 119.014,340.417 113.264,372.046 z" id="boundary" inkscape:connector-curvature="0" />
	<path style="fill:none;stroke:red;stroke-width:1px;stroke-linecap:butt;stroke-linejoin:miter;stroke-opacity:1" d="M 113.264,400.8 113.264,372.046 z" id="boundary" inkscape:connector-curvature="0" />
	<path style="fill:none;stroke:red;stroke-width:1px;stroke-linecap:butt;stroke-linejoin:miter;stroke-opacity:1" d="M 119.014,311.664 119.014,340.417 z" id="boundary" inkscape:connector-curvature="0" />
	<path style="fill:none;stroke:red;stroke-width:1px;stroke-linecap:butt;stroke-linejoin:miter;stroke-opacity:1" d="M 101.762,452.557 113.264,400.8 z" id="boundary" inkscape:connector-curvature="0" />
	<path style="fill:none;stroke:red;stroke-width:1px;stroke-linecap:butt;stroke-linejoin:miter;stroke-opacity:1" d="M 90.2609,510.064 90.2609,538.817 z" id="boundary" inkscape:connector-curvature="0" />
	<path style="fill:none;stroke:red;stroke-width:1px;stroke-linecap:butt;stroke-linejoin:miter;stroke-opacity:1" d="M 90.2609,510.064 90.2609,481.31 z" id="boundary" inkscape:connector-curvature="0" />
	<path style="fill:none;stroke:red;stroke-width:1px;stroke-linecap:butt;stroke-linejoin:miter;stroke-opacity:1" d="M 90.2609,567.571 90.2609,596.325 z" id="boundary" inkscape:connector-curvature="0" />
	<path style="fill:none;stroke:red;stroke-width:1px;stroke-linecap:butt;stroke-linejoin:miter;stroke-opacity:1" d="M 90.2609,567.571 90.2609,538.817 z" id="boundary" inkscape:connector-curvature="0" />
	<path style="fill:none;stroke:red;stroke-width:1px;stroke-linecap:butt;stroke-linejoin:miter;stroke-opacity:1" d="M 90.2609,481.31 101.762,452.557 z" id="boundary" inkscape:connector-curvature="0" />
	<path style="fill:none;stroke:red;stroke-width:1px;stroke-linecap:butt;stroke-linejoin:miter;stroke-opacity:1" d="M 90.2609,596.325 90.2609,625.078 z" id="boundary" inkscape:connector-curvature="0" />
	<path style="fill:none;stroke:red;stroke-width:1px;stroke-linecap:butt;stroke-linejoin:miter;stroke-opacity:1" d="M 84.5101,918.365 84.5101,947.119 z" id="boundary" inkscape:connector-curvature="0" />
	<path style="fill:none;stroke:red;stroke-width:1px;stroke-linecap:butt;stroke-linejoin:miter;stroke-opacity:1" d="M 84.5101,947.119 78.7594,987.374 z" id="boundary" inkscape:connector-curvature="0" />
	<path style="fill:none;stroke:red;stroke-width:1px;stroke-linecap:butt;stroke-linejoin:miter;stroke-opacity:1" d="M 90.2609,653.832 90.2609,682.586 z" id="boundary" inkscape:connector-curvature="0" />
	<path style="fill:none;stroke:red;stroke-width:1px;stroke-linecap:butt;stroke-linejoin:miter;stroke-opacity:1" d="M 90.2609,653.832 90.2609,625.078 z" id="boundary" inkscape:connector-curvature="0" />
	<path style="fill:none;stroke:red;stroke-width:1px;stroke-linecap:butt;stroke-linejoin:miter;stroke-opacity:1" d="M 90.2609,682.586 90.2609,711.339 z" id="boundary" inkscape:connector-curvature="0" />
	<path style="fill:none;stroke:red;stroke-width:1px;stroke-linecap:butt;stroke-linejoin:miter;stroke-opacity:1" d="M 107.513,996 78.7594,987.374 z" id="boundary" inkscape:connector-curvature="0" />
	<path style="fill:none;stroke:red;stroke-width:1px;stroke-linecap:butt;stroke-linejoin:miter;stroke-opacity:1" d="M 90.2609,711.339 90.2609,740.093 z" id="boundary" inkscape:connector-curvature="0" />
	<path style="fill:none;stroke:red;stroke-width:1px;stroke-linecap:butt;stroke-linejoin:miter;stroke-opacity:1" d="M 90.2609,797.6 90.2609,768.846 z" id="boundary" inkscape:connector-curvature="0" />
	<path style="fill:none;stroke:red;stroke-width:1px;stroke-linecap:butt;stroke-linejoin:miter;stroke-opacity:1" d="M 90.2609,768.846 90.2609,740.093 z" id="boundary" inkscape:connector-curvature="0" />
	<path style="fill:none;stroke:red;stroke-width:1px;stroke-linecap:butt;stroke-linejoin:miter;stroke-opacity:1" d="M 90.2609,797.6 90.2609,826.354 z" id="boundary" inkscape:connector-curvature="0" />
	<path style="fill:none;stroke:red;stroke-width:1px;stroke-linecap:butt;stroke-linejoin:miter;stroke-opacity:1" d="M 90.2609,855.107 90.2609,826.354 z" id="boundary" inkscape:connector-curvature="0" />
	<path style="fill:none;stroke:red;stroke-width:1px;stroke-linecap:butt;stroke-linejoin:miter;stroke-opacity:1" d="M 90.2609,883.861 90.2609,855.107 z" id="boundary" inkscape:connector-curvature="0" />
	<path style="fill:none;stroke:red;stroke-width:1px;stroke-linecap:butt;stroke-linejoin:miter;stroke-opacity:1" d="M 136.267,996 107.513,996 z" id="boundary" inkscape:connector-curvature="0" />
	<path style="fill:none;stroke:red;stroke-width:1px;stroke-linecap:butt;stroke-linejoin:miter;stroke-opacity:1" d="M 84.5101,918.365 90.2609,883.861 z" id="boundary" inkscape:connector-curvature="0" />
	<path style="fill:none;stroke:red;stroke-width:1px;stroke-linecap:butt;stroke-linejoin:miter;stroke-opacity:1" d="M 165.02,996 136.267,996 z" id="boundary" inkscape:connector-curvature="0" />
	<path style="fill:none;stroke:red;stroke-width:1px;stroke-linecap:butt;stroke-linejoin:miter;stroke-opacity:1" d="M 136.267,4 165.02,4 z" id="boundary" inkscape:connector-curvature="0" />
	<path style="fill:none;stroke:red;stroke-width:1px;stroke-linecap:butt;stroke-linejoin:miter;stroke-opacity:1" d="M 190.899,239.78 190.899,268.533 z" id="boundary" inkscape:connector-curvature="0" />
	<path style="fill:none;stroke:red;stroke-width:1px;stroke-linecap:butt;stroke-linejoin:miter;stroke-opacity:1" d="M 196.649,199.525 190.899,239.78 z" id="boundary" inkscape:connector-curvature="0" />
	<path style="fill:none;stroke:red;stroke-width:1px;stroke-linecap:butt;stroke-linejoin:miter;stroke-opacity:1" d="M 208.151,159.27 196.649,199.525 z" id="boundary" inkscape:connector-curvature="0" />
	<path style="fill:none;stroke:red;stroke-width:1px;stroke-linecap:butt;stroke-linejoin:miter;stroke-opacity:1" d="M 165.02,4 193.774,4 z" id="boundary" inkscape:connector-curvature="0" />
	<path style="fill:none;stroke:red;stroke-width:1px;stroke-linecap:butt;stroke-linejoin:miter;stroke-opacity:1" d="M 190.899,297.287 190.899,268.533 z" id="boundary" inkscape:connector-curvature="0" />
	<path style="fill:none;stroke:red;stroke-width:1px;stroke-linecap:butt;stroke-linejoin:miter;stroke-opacity:1" d="M 190.899,297.287 190.899,326.041 z" id="boundary" inkscape:connector-curvature="0" />
	<path style="fill:none;stroke:red;stroke-width:1px;stroke-linecap:butt;stroke-linejoin:miter;stroke-opacity:1" d="M 190.899,354.794 190.899,383.548 z" id="boundary" inkscape:connector-curvature="0" />
	<path style="fill:none;stroke:red;stroke-width:1px;stroke-linecap:butt;stroke-linejoin:miter;stroke-opacity:1" d="M 190.899,412.301 190.899,383.548 z" id="boundary" inkscape:connector-curvature="0" />
	<path style="fill:none;stroke:red;stroke-width:1px;stroke-linecap:butt;stroke-linejoin:miter;stroke-opacity:1" d="M 190.899,354.794 190.899,326.041 z" id="boundary" inkscape:connector-curvature="0" />
	<path style="fill:none;stroke:red;stroke-width:1px;stroke-linecap:butt;stroke-linejoin:miter;stroke-opacity:1" d="M 190.899,412.301 196.649,441.055 z" id="boundary" inkscape:connector-curvature="0" />
	<path style="fill:none;stroke:red;stroke-width:1px;stroke-linecap:butt;stroke-linejoin:miter;stroke-opacity:1" d="M 265.658,47.1304 282.91,70.1333 z" id="boundary" inkscape:connector-curvature="0" />
	<path style="fill:none;stroke:red;stroke-width:1px;stroke-linecap:butt;stroke-linejoin:miter;stroke-opacity:1" d="M 245.53,24.1275 265.658,47.1304 z" id="boundary" inkscape:connector-curvature="0" />
	<path style="fill:none;stroke:red;stroke-width:1px;stroke-linecap:butt;stroke-linejoin:miter;stroke-opacity:1" d="M 282.91,70.1333 297.287,96.0116 z" id="boundary" inkscape:connector-curvature="0" />
	<path style="fill:none;stroke:red;stroke-width:1px;stroke-linecap:butt;stroke-linejoin:miter;stroke-opacity:1" d="M 262.783,179.397 234.029,173.646 z" id="boundary" inkscape:connector-curvature="0" />
	<path style="fill:none;stroke:red;stroke-width:1px;stroke-linecap:butt;stroke-linejoin:miter;stroke-opacity:1" d="M 234.029,173.646 208.151,159.27 z" id="boundary" inkscape:connector-curvature="0" />
	<path style="fill:none;stroke:red;stroke-width:1px;stroke-linecap:butt;stroke-linejoin:miter;stroke-opacity:1" d="M 308.788,124.765 317.414,153.519 z" id="boundary" inkscape:connector-curvature="0" />
	<path style="fill:none;stroke:red;stroke-width:1px;stroke-linecap:butt;stroke-linejoin:miter;stroke-opacity:1" d="M 317.414,153.519 291.536,179.397 z" id="boundary" inkscape:connector-curvature="0" />
	<path style="fill:none;stroke:red;stroke-width:1px;stroke-linecap:butt;stroke-linejoin:miter;stroke-opacity:1" d="M 291.536,179.397 262.783,179.397 z" id="boundary" inkscape:connector-curvature="0" />
	<path style="fill:none;stroke:red;stroke-width:1px;stroke-linecap:butt;stroke-linejoin:miter;stroke-opacity:1" d="M 297.287,96.0116 308.788,124.765 z" id="boundary" inkscape:connector-curvature="0" />
	<path style="fill:none;stroke:red;stroke-width:1px;stroke-linecap:butt;stroke-linejoin:miter;stroke-opacity:1" d="M 193.774,4 222.528,4 z" id="boundary" inkscape:connector-curvature="0" />
	<path style="fill:none;stroke:red;stroke-width:1px;stroke-linecap:butt;stroke-linejoin:miter;stroke-opacity:1" d="M 222.528,4 245.53,24.1275 z" id="boundary" inkscape:connector-curvature="0" />
	<path style="fill:none;stroke:red;stroke-width:1px;stroke-linecap:butt;stroke-linejoin:miter;stroke-opacity:1" d="M 211.026,466.933 213.901,495.687 z" id="boundary" inkscape:connector-curvature="0" />
	<path style="fill:none;stroke:red;stroke-width:1px;stroke-linecap:butt;stroke-linejoin:miter;stroke-opacity:1" d="M 211.026,466.933 196.649,441.055 z" id="boundary" inkscape:connector-curvature="0" />
	<path style="fill:none;stroke:red;stroke-width:1px;stroke-linecap:butt;stroke-linejoin:miter;stroke-opacity:1" d="M 219.652,553.194 213.901,524.441 z" id="boundary" inkscape:connector-curvature="0" />
	<path style="fill:none;stroke:red;stroke-width:1px;stroke-linecap:butt;stroke-linejoin:miter;stroke-opacity:1" d="M 213.901,524.441 213.901,495.687 z" id="boundary" inkscape:connector-curvature="0" />
	<path style="fill:none;stroke:red;stroke-width:1px;stroke-linecap:butt;stroke-linejoin:miter;stroke-opacity:1" d="M 219.652,553.194 219.652,581.948 z" id="boundary" inkscape:connector-curvature="0" />
	<path style="fill:none;stroke:red;stroke-width:1px;stroke-linecap:butt;stroke-linejoin:miter;stroke-opacity:1" d="M 193.774,996 165.02,996 z" id="boundary" inkscape:connector-curvature="0" />
	<path style="fill:none;stroke:red;stroke-width:1px;stroke-linecap:butt;stroke-linejoin:miter;stroke-opacity:1" d="M 219.652,581.948 219.652,610.701 z" id="boundary" inkscape:connector-curvature="0" />
	<path style="fill:none;stroke:red;stroke-width:1px;stroke-linecap:butt;stroke-linejoin:miter;stroke-opacity:1" d="M 219.652,610.701 219.652,639.455 z" id="boundary" inkscape:connector-curvature="0" />
	<path style="fill:none;stroke:red;stroke-width:1px;stroke-linecap:butt;stroke-linejoin:miter;stroke-opacity:1" d="M 219.652,639.455 219.652,668.209 z" id="boundary" inkscape:connector-curvature="0" />
	<path style="fill:none;stroke:red;stroke-width:1px;stroke-linecap:butt;stroke-linejoin:miter;stroke-opacity:1" d="M 219.652,668.209 219.652,696.962 z" id="boundary" inkscape:connector-curvature="0" />
	<path style="fill:none;stroke:red;stroke-width:1px;stroke-linecap:butt;stroke-linejoin:miter;stroke-opacity:1" d="M 219.652,696.962 219.652,725.716 z" id="boundary" inkscape:connector-curvature="0" />
	<path style="fill:none;stroke:red;stroke-width:1px;stroke-linecap:butt;stroke-linejoin:miter;stroke-opacity:1" d="M 219.652,725.716 219.652,754.47 z" id="boundary" inkscape:connector-curvature="0" />
	<path style="fill:none;stroke:red;stroke-width:1px;stroke-linecap:butt;stroke-linejoin:miter;stroke-opacity:1" d="M 219.652,783.223 219.652,811.977 z" id="boundary" inkscape:connector-curvature="0" />
	<path style="fill:none;stroke:red;stroke-width:1px;stroke-linecap:butt;stroke-linejoin:miter;stroke-opacity:1" d="M 219.652,783.223 219.652,754.47 z" id="boundary" inkscape:connector-curvature="0" />
	<path style="fill:none;stroke:red;stroke-width:1px;stroke-linecap:butt;stroke-linejoin:miter;stroke-opacity:1" d="M 219.652,811.977 219.652,840.73 z" id="boundary" inkscape:connector-curvature="0" />
	<path style="fill:none;stroke:red;stroke-width:1px;stroke-linecap:butt;stroke-linejoin:miter;stroke-opacity:1" d="M 219.652,869.484 219.652,898.238 z" id="boundary" inkscape:connector-curvature="0" />
	<path style="fill:none;stroke:red;stroke-width:1px;stroke-linecap:butt;stroke-linejoin:miter;stroke-opacity:1" d="M 219.652,869.484 219.652,840.73 z" id="boundary" inkscape:connector-curvature="0" />
	<path style="fill:none;stroke:red;stroke-width:1px;stroke-linecap:butt;stroke-linejoin:miter;stroke-opacity:1" d="M 219.652,898.238 219.652,926.991 z" id="boundary" inkscape:connector-curvature="0" />
	<path style="fill:none;stroke:red;stroke-width:1px;stroke-linecap:butt;stroke-linejoin:miter;stroke-opacity:1" d="M 222.528,996 219.652,955.745 z" id="boundary" inkscape:connector-curvature="0" />
	<path style="fill:none;stroke:red;stroke-width:1px;stroke-linecap:butt;stroke-linejoin:miter;stroke-opacity:1" d="M 219.652,955.745 219.652,926.991 z" id="boundary" inkscape:connector-curvature="0" />
	<path style="fill:none;stroke:red;stroke-width:1px;stroke-linecap:butt;stroke-linejoin:miter;stroke-opacity:1" d="M 222.528,996 193.774,996 z" id="boundary" inkscape:connector-curvature="0" />
	<circle cx="4" cy="32.7536" r="4" fill="#0" id="circle0"/>
	<circle cx="4" cy="61.5072" r="4" fill="#0" id="circle1"/>
	<circle cx="21.2522" cy="9.75072" r="4" fill="#0" id="circle2"/>
	<circle cx="21.2522" cy="84.5101" r="4" fill="#0" id="circle3"/>
	<circle cx="50.0058" cy="4" r="4" fill="#0" id="circle4"/>
	<circle cx="50.0058" cy="93.1362" r="4" fill="#0" id="circle5"/>
	<circle cx="78.7594" cy="12.6261" r="4" fill="#0" id="circle6"/>
	<circle cx="78.7594" cy="84.5101" r="4" fill="#0" id="circle7"/>
	<circle cx="78.7594" cy="987.374" r="4" fill="#0" id="circle8"/>
	<circle cx="84.5101" cy="113.264" r="4" fill="#0" id="circle9"/>
	<circle cx="84.5101" cy="918.365" r="4" fill="#0" id="circle10"/>
	<circle cx="84.5101" cy="947.119" r="4" fill="#0" id="circle11"/>
	<circle cx="87.3855" cy="142.017" r="4" fill="#0" id="circle12"/>
	<circle cx="90.2609" cy="481.31" r="4" fill="#0" id="circle13"/>
	<circle cx="90.2609" cy="510.064" r="4" fill="#0" id="circle14"/>
	<circle cx="90.2609" cy="538.817" r="4" fill="#0" id="circle15"/>
	<circle cx="90.2609" cy="567.571" r="4" fill="#0" id="circle16"/>
	<circle cx="90.2609" cy="596.325" r="4" fill="#0" id="circle17"/>
	<circle cx="90.2609" cy="625.078" r="4" fill="#0" id="circle18"/>
	<circle cx="90.2609" cy="653.832" r="4" fill="#0" id="circle19"/>
	<circle cx="90.2609" cy="682.586" r="4" fill="#0" id="circle20"/>
	<circle cx="90.2609" cy="711.339" r="4" fill="#0" id="circle21"/>
	<circle cx="90.2609" cy="740.093" r="4" fill="#0" id="circle22"/>
	<circle cx="90.2609" cy="768.846" r="4" fill="#0" id="circle23"/>
	<circle cx="90.2609" cy="797.6" r="4" fill="#0" id="circle24"/>
	<circle cx="90.2609" cy="826.354" r="4" fill="#0" id="circle25"/>
	<circle cx="90.2609" cy="855.107" r="4" fill="#0" id="circle26"/>
	<circle cx="90.2609" cy="883.861" r="4" fill="#0" id="circle27"/>
	<circle cx="101.762" cy="167.896" r="4" fill="#0" id="circle28"/>
	<circle cx="101.762" cy="452.557" r="4" fill="#0" id="circle29"/>
	<circle cx="107.513" cy="4" r="4" fill="#0" id="circle30"/>
	<circle cx="107.513" cy="196.649" r="4" fill="#0" id="circle31"/>
	<circle cx="107.513" cy="996" r="4" fill="#0" id="circle32"/>
	<circle cx="113.264" cy="225.403" r="4" fill="#0" id="circle33"/>
	<circle cx="113.264" cy="254.157" r="4" fill="#0" id="circle34"/>
	<circle cx="113.264" cy="282.91" r="4" fill="#0" id="circle35"/>
	<circle cx="113.264" cy="372.046" r="4" fill="#0" id="circle36"/>
	<circle cx="113.264" cy="400.8" r="4" fill="#0" id="circle37"/>
	<circle cx="119.014" cy="311.664" r="4" fill="#0" id="circle38"/>
	<circle cx="119.014" cy="340.417" r="4" fill="#0" id="circle39"/>
	<circle cx="136.267" cy="4" r="4" fill="#0" id="circle40"/>
	<circle cx="136.267" cy="996" r="4" fill="#0" id="circle41"/>
	<circle cx="165.02" cy="4" r="4" fill="#0" id="circle42"/>
	<circle cx="165.02" cy="996" r="4" fill="#0" id="circle43"/>
	<circle cx="190.899" cy="239.78" r="4" fill="#0" id="circle44"/>
	<circle cx="190.899" cy="268.533" r="4" fill="#0" id="circle45"/>
	<circle cx="190.899" cy="297.287" r="4" fill="#0" id="circle46"/>
	<circle cx="190.899" cy="326.041" r="4" fill="#0" id="circle47"/>
	<circle cx="190.899" cy="354.794" r="4" fill="#0" id="circle48"/>
	<circle cx="190.899" cy="383.548" r="4" fill="#0" id="circle49"/>
	<circle cx="190.899" cy="412.301" r="4" fill="#0" id="circle50"/>
	<circle cx="193.774" cy="4" r="4" fill="#0" id="circle51"/>
	<circle cx="193.774" cy="996" r="4" fill="#0" id="circle52"/>
	<circle cx="196.649" cy="199.525" r="4" fill="#0" id="circle53"/>
	<circle cx="196.649" cy="441.055" r="4" fill="#0" id="circle54"/>
	<circle cx="208.151" cy="159.27" r="4" fill="#0" id="circle55"/>
	<circle cx="211.026" cy="466.933" r="4" fill="#0" id="circle56"/>
	<circle cx="213.901" cy="495.687" r="4" fill="#0" id="circle57"/>
	<circle cx="213.901" cy="524.441" r="4" fill="#0" id="circle58"/>
	<circle cx="219.652" cy="553.194" r="4" fill="#0" id="circle59"/>
	<circle cx="219.652" cy="581.948" r="4" fill="#0" id="circle60"/>
	<circle cx="219.652" cy="610.701" r="4" fill="#0" id="circle61"/>
	<circle cx="219.652" cy="639.455" r="4" fill="#0" id="circle62"/>
	<circle cx="219.652" cy="668.209" r="4" fill="#0" id="circle63"/>
	<circle cx="219.652" cy="696.962" r="4" fill="#0" id="circle64"/>
	<circle cx="219.652" cy="725.716" r="4" fill="#0" id="circle65"/>
	<circle cx="219.652" cy="754.47" r="4" fill="#0" id="circle66"/>
	<circle cx="219.652" cy="783.223" r="4" fill="#0" id="circle67"/>
	<circle cx="219.652" cy="811.977" r="4" fill="#0" id="circle68"/>
	<circle cx="219.652" cy="840.73" r="4" fill="#0" id="circle69"/>
	<circle cx="219.652" cy="869.484" r="4" fill="#0" id="circle70"/>
	<circle cx="219.652" cy="898.238" r="4" fill="#0" id="circle71"/>
	<circle cx="219.652" cy="926.991" r="4" fill="#0" id="circle72"/>
	<circle cx="219.652" cy="955.745" r="4" fill="#0" id="circle73"/>
	<circle cx="222.528" cy="4" r="4" fill="#0" id="circle74"/>
	<circle cx="222.528" cy="996" r="4" fill="#0" id="circle75"/>
	<circle cx="234.029" cy="173.646" r="4" fill="#0" id="circle76"/>
	<circle cx="245.53" cy="24.1275" r="4" fill="#0" id="circle77"/>
	<circle cx="262.783" cy="179.397" r="4" fill="#0" id="circle78"/>
	<circle cx="265.658" cy="47.1304" r="4" fill="#0" id="circle79"/>
	<circle cx="282.91" cy="70.1333" r="4" fill="#0" id="circle80"/>
	<circle cx="291.536" cy="179.397" r="4" fill="#0" id="circle81"/>
	<circle cx="297.287" cy="96.0116" r="4" fill="#0" id="circle82"/>
	<circle cx="308.788" cy="124.765" r="4" fill="#0" id="circle83"/>
	<circle cx="317.414" cy="153.519" r="4" fill="#0" id="circle84"/>
	</g>
</svg>