<?xml version="1.0" encoding="UTF-8" standalone="no"?>
<!-- Created with CurveBenchmark -->
<svg
	xmlns:dc="http://purl.org/dc/elements/1.1/"
	xmlns:cc="http://creativecommons.org/ns#"
	xmlns:rdf="http://www.w3.org/1999/02/22-rdf-syntax-ns#"
	xmlns:svg="http://www.w3.org/2000/svg"
	xmlns="http://www.w3.org/2000/svg"
	xmlns:sodipodi="http://sodipodi.sourceforge.net/DTD/sodipodi-0.dtd"
	xmlns:inkscape="http://www.inkscape.org/namespaces/inkscape"
	width="1000"
	height="1000"
	id="svg2"
	version="1.1"
	sodipodi:docname="manifold/gathan1-cat19.png.txt">
<defs
	id="defs4" />
<metadata
	id="metadata7">
	<rdf:RDF>
		<cc:Work
			rdf:about="">
			<dc:format>image/svg+xml</dc:format>
			<dc:type
				rdf:resource="http://purl.org/dc/dcmitype/StillImage" />
			<dc:title></dc:title>
		</cc:Work>
	</rdf:RDF>
</metadata>
<g
	inkscape:label="Layer 1"
	inkscape:groupmode="layer"
	id="layer1">
	<path style="fill:none;stroke:red;stroke-width:1px;stroke-linecap:butt;stroke-linejoin:miter;stroke-opacity:1" d="M 4,106.888 23.4129,101.065 z" id="boundary" inkscape:connector-curvature="0" />
	<path style="fill:none;stroke:red;stroke-width:1px;stroke-linecap:butt;stroke-linejoin:miter;stroke-opacity:1" d="M 4,126.301 4,106.888 z" id="boundary" inkscape:connector-curvature="0" />
	<path style="fill:none;stroke:red;stroke-width:1px;stroke-linecap:butt;stroke-linejoin:miter;stroke-opacity:1" d="M 4,145.714 4,126.301 z" id="boundary" inkscape:connector-curvature="0" />
	<path style="fill:none;stroke:red;stroke-width:1px;stroke-linecap:butt;stroke-linejoin:miter;stroke-opacity:1" d="M 13.7065,182.599 4,165.127 z" id="boundary" inkscape:connector-curvature="0" />
	<path style="fill:none;stroke:red;stroke-width:1px;stroke-linecap:butt;stroke-linejoin:miter;stroke-opacity:1" d="M 13.7065,182.599 13.7065,202.012 z" id="boundary" inkscape:connector-curvature="0" />
	<path style="fill:none;stroke:red;stroke-width:1px;stroke-linecap:butt;stroke-linejoin:miter;stroke-opacity:1" d="M 4,165.127 4,145.714 z" id="boundary" inkscape:connector-curvature="0" />
	<path style="fill:none;stroke:red;stroke-width:1px;stroke-linecap:butt;stroke-linejoin:miter;stroke-opacity:1" d="M 13.7065,202.012 13.7065,221.425 z" id="boundary" inkscape:connector-curvature="0" />
	<path style="fill:none;stroke:red;stroke-width:1px;stroke-linecap:butt;stroke-linejoin:miter;stroke-opacity:1" d="M 23.4129,101.065 35.0607,116.595 z" id="boundary" inkscape:connector-curvature="0" />
	<path style="fill:none;stroke:red;stroke-width:1px;stroke-linecap:butt;stroke-linejoin:miter;stroke-opacity:1" d="M 35.0607,116.595 52.5323,126.301 z" id="boundary" inkscape:connector-curvature="0" />
	<path style="fill:none;stroke:red;stroke-width:1px;stroke-linecap:butt;stroke-linejoin:miter;stroke-opacity:1" d="M 71.9452,134.067 52.5323,126.301 z" id="boundary" inkscape:connector-curvature="0" />
	<path style="fill:none;stroke:red;stroke-width:1px;stroke-linecap:butt;stroke-linejoin:miter;stroke-opacity:1" d="M 91.3581,139.89 71.9452,134.067 z" id="boundary" inkscape:connector-curvature="0" />
	<path style="fill:none;stroke:red;stroke-width:1px;stroke-linecap:butt;stroke-linejoin:miter;stroke-opacity:1" d="M 110.771,143.773 122.419,159.303 z" id="boundary" inkscape:connector-curvature="0" />
	<path style="fill:none;stroke:red;stroke-width:1px;stroke-linecap:butt;stroke-linejoin:miter;stroke-opacity:1" d="M 91.3581,139.89 110.771,143.773 z" id="boundary" inkscape:connector-curvature="0" />
	<path style="fill:none;stroke:red;stroke-width:1px;stroke-linecap:butt;stroke-linejoin:miter;stroke-opacity:1" d="M 141.832,159.303 122.419,159.303 z" id="boundary" inkscape:connector-curvature="0" />
	<path style="fill:none;stroke:red;stroke-width:1px;stroke-linecap:butt;stroke-linejoin:miter;stroke-opacity:1" d="M 161.245,159.303 141.832,159.303 z" id="boundary" inkscape:connector-curvature="0" />
	<path style="fill:none;stroke:red;stroke-width:1px;stroke-linecap:butt;stroke-linejoin:miter;stroke-opacity:1" d="M 180.658,159.303 161.245,159.303 z" id="boundary" inkscape:connector-curvature="0" />
	<path style="fill:none;stroke:red;stroke-width:1px;stroke-linecap:butt;stroke-linejoin:miter;stroke-opacity:1" d="M 13.7065,221.425 13.7065,240.838 z" id="boundary" inkscape:connector-curvature="0" />
	<path style="fill:none;stroke:red;stroke-width:1px;stroke-linecap:butt;stroke-linejoin:miter;stroke-opacity:1" d="M 13.7065,260.25 13.7065,240.838 z" id="boundary" inkscape:connector-curvature="0" />
	<path style="fill:none;stroke:red;stroke-width:1px;stroke-linecap:butt;stroke-linejoin:miter;stroke-opacity:1" d="M 13.7065,279.663 13.7065,299.076 z" id="boundary" inkscape:connector-curvature="0" />
	<path style="fill:none;stroke:red;stroke-width:1px;stroke-linecap:butt;stroke-linejoin:miter;stroke-opacity:1" d="M 27.2955,314.607 13.7065,299.076 z" id="boundary" inkscape:connector-curvature="0" />
	<path style="fill:none;stroke:red;stroke-width:1px;stroke-linecap:butt;stroke-linejoin:miter;stroke-opacity:1" d="M 27.2955,314.607 33.1194,334.02 z" id="boundary" inkscape:connector-curvature="0" />
	<path style="fill:none;stroke:red;stroke-width:1px;stroke-linecap:butt;stroke-linejoin:miter;stroke-opacity:1" d="M 13.7065,279.663 13.7065,260.25 z" id="boundary" inkscape:connector-curvature="0" />
	<path style="fill:none;stroke:red;stroke-width:1px;stroke-linecap:butt;stroke-linejoin:miter;stroke-opacity:1" d="M 33.1194,334.02 37.002,353.432 z" id="boundary" inkscape:connector-curvature="0" />
	<path style="fill:none;stroke:red;stroke-width:1px;stroke-linecap:butt;stroke-linejoin:miter;stroke-opacity:1" d="M 37.002,353.432 42.8258,372.845 z" id="boundary" inkscape:connector-curvature="0" />
	<path style="fill:none;stroke:red;stroke-width:1px;stroke-linecap:butt;stroke-linejoin:miter;stroke-opacity:1" d="M 42.8258,372.845 42.8258,392.258 z" id="boundary" inkscape:connector-curvature="0" />
	<path style="fill:none;stroke:red;stroke-width:1px;stroke-linecap:butt;stroke-linejoin:miter;stroke-opacity:1" d="M 68.0626,423.319 54.4736,407.789 z" id="boundary" inkscape:connector-curvature="0" />
	<path style="fill:none;stroke:red;stroke-width:1px;stroke-linecap:butt;stroke-linejoin:miter;stroke-opacity:1" d="M 42.8258,392.258 54.4736,407.789 z" id="boundary" inkscape:connector-curvature="0" />
	<path style="fill:none;stroke:red;stroke-width:1px;stroke-linecap:butt;stroke-linejoin:miter;stroke-opacity:1" d="M 71.9452,442.732 71.9452,462.145 z" id="boundary" inkscape:connector-curvature="0" />
	<path style="fill:none;stroke:red;stroke-width:1px;stroke-linecap:butt;stroke-linejoin:miter;stroke-opacity:1" d="M 71.9452,442.732 68.0626,423.319 z" id="boundary" inkscape:connector-curvature="0" />
	<path style="fill:none;stroke:red;stroke-width:1px;stroke-linecap:butt;stroke-linejoin:miter;stroke-opacity:1" d="M 71.9452,462.145 71.9452,481.558 z" id="boundary" inkscape:connector-curvature="0" />
	<path style="fill:none;stroke:red;stroke-width:1px;stroke-linecap:butt;stroke-linejoin:miter;stroke-opacity:1" d="M 71.9452,481.558 71.9452,500.971 z" id="boundary" inkscape:connector-curvature="0" />
	<path style="fill:none;stroke:red;stroke-width:1px;stroke-linecap:butt;stroke-linejoin:miter;stroke-opacity:1" d="M 271.898,120.477 256.368,136.008 z" id="boundary" inkscape:connector-curvature="0" />
	<path style="fill:none;stroke:red;stroke-width:1px;stroke-linecap:butt;stroke-linejoin:miter;stroke-opacity:1" d="M 256.368,136.008 236.955,145.714 z" id="boundary" inkscape:connector-curvature="0" />
	<path style="fill:none;stroke:red;stroke-width:1px;stroke-linecap:butt;stroke-linejoin:miter;stroke-opacity:1" d="M 281.605,101.065 271.898,120.477 z" id="boundary" inkscape:connector-curvature="0" />
	<path style="fill:none;stroke:red;stroke-width:1px;stroke-linecap:butt;stroke-linejoin:miter;stroke-opacity:1" d="M 297.135,161.245 277.722,180.658 z" id="boundary" inkscape:connector-curvature="0" />
	<path style="fill:none;stroke:red;stroke-width:1px;stroke-linecap:butt;stroke-linejoin:miter;stroke-opacity:1" d="M 180.658,159.303 200.07,159.303 z" id="boundary" inkscape:connector-curvature="0" />
	<path style="fill:none;stroke:red;stroke-width:1px;stroke-linecap:butt;stroke-linejoin:miter;stroke-opacity:1" d="M 200.07,159.303 219.483,159.303 z" id="boundary" inkscape:connector-curvature="0" />
	<path style="fill:none;stroke:red;stroke-width:1px;stroke-linecap:butt;stroke-linejoin:miter;stroke-opacity:1" d="M 219.483,159.303 236.955,145.714 z" id="boundary" inkscape:connector-curvature="0" />
	<path style="fill:none;stroke:red;stroke-width:1px;stroke-linecap:butt;stroke-linejoin:miter;stroke-opacity:1" d="M 277.722,180.658 277.722,200.07 z" id="boundary" inkscape:connector-curvature="0" />
	<path style="fill:none;stroke:red;stroke-width:1px;stroke-linecap:butt;stroke-linejoin:miter;stroke-opacity:1" d="M 281.605,101.065 301.018,101.065 z" id="boundary" inkscape:connector-curvature="0" />
	<path style="fill:none;stroke:red;stroke-width:1px;stroke-linecap:butt;stroke-linejoin:miter;stroke-opacity:1" d="M 301.018,101.065 306.841,120.477 z" id="boundary" inkscape:connector-curvature="0" />
	<path style="fill:none;stroke:red;stroke-width:1px;stroke-linecap:butt;stroke-linejoin:miter;stroke-opacity:1" d="M 306.841,120.477 306.841,139.89 z" id="boundary" inkscape:connector-curvature="0" />
	<path style="fill:none;stroke:red;stroke-width:1px;stroke-linecap:butt;stroke-linejoin:miter;stroke-opacity:1" d="M 306.841,139.89 297.135,161.245 z" id="boundary" inkscape:connector-curvature="0" />
	<path style="fill:none;stroke:red;stroke-width:1px;stroke-linecap:butt;stroke-linejoin:miter;stroke-opacity:1" d="M 277.722,200.07 277.722,219.483 z" id="boundary" inkscape:connector-curvature="0" />
	<path style="fill:none;stroke:red;stroke-width:1px;stroke-linecap:butt;stroke-linejoin:miter;stroke-opacity:1" d="M 277.722,238.896 277.722,219.483 z" id="boundary" inkscape:connector-curvature="0" />
	<path style="fill:none;stroke:red;stroke-width:1px;stroke-linecap:butt;stroke-linejoin:miter;stroke-opacity:1" d="M 277.722,238.896 277.722,258.309 z" id="boundary" inkscape:connector-curvature="0" />
	<path style="fill:none;stroke:red;stroke-width:1px;stroke-linecap:butt;stroke-linejoin:miter;stroke-opacity:1" d="M 306.841,275.781 287.429,275.781 z" id="boundary" inkscape:connector-curvature="0" />
	<path style="fill:none;stroke:red;stroke-width:1px;stroke-linecap:butt;stroke-linejoin:miter;stroke-opacity:1" d="M 287.429,275.781 277.722,258.309 z" id="boundary" inkscape:connector-curvature="0" />
	<path style="fill:none;stroke:red;stroke-width:1px;stroke-linecap:butt;stroke-linejoin:miter;stroke-opacity:1" d="M 306.841,275.781 324.313,285.487 z" id="boundary" inkscape:connector-curvature="0" />
	<path style="fill:none;stroke:red;stroke-width:1px;stroke-linecap:butt;stroke-linejoin:miter;stroke-opacity:1" d="M 343.726,285.487 324.313,285.487 z" id="boundary" inkscape:connector-curvature="0" />
	<path style="fill:none;stroke:red;stroke-width:1px;stroke-linecap:butt;stroke-linejoin:miter;stroke-opacity:1" d="M 343.726,285.487 363.139,285.487 z" id="boundary" inkscape:connector-curvature="0" />
	<path style="fill:none;stroke:red;stroke-width:1px;stroke-linecap:butt;stroke-linejoin:miter;stroke-opacity:1" d="M 382.552,285.487 363.139,285.487 z" id="boundary" inkscape:connector-curvature="0" />
	<path style="fill:none;stroke:red;stroke-width:1px;stroke-linecap:butt;stroke-linejoin:miter;stroke-opacity:1" d="M 382.552,285.487 401.965,285.487 z" id="boundary" inkscape:connector-curvature="0" />
	<path style="fill:none;stroke:red;stroke-width:1px;stroke-linecap:butt;stroke-linejoin:miter;stroke-opacity:1" d="M 421.378,285.487 440.791,285.487 z" id="boundary" inkscape:connector-curvature="0" />
	<path style="fill:none;stroke:red;stroke-width:1px;stroke-linecap:butt;stroke-linejoin:miter;stroke-opacity:1" d="M 421.378,285.487 401.965,285.487 z" id="boundary" inkscape:connector-curvature="0" />
	<path style="fill:none;stroke:red;stroke-width:1px;stroke-linecap:butt;stroke-linejoin:miter;stroke-opacity:1" d="M 460.204,285.487 479.616,285.487 z" id="boundary" inkscape:connector-curvature="0" />
	<path style="fill:none;stroke:red;stroke-width:1px;stroke-linecap:butt;stroke-linejoin:miter;stroke-opacity:1" d="M 499.029,285.487 518.442,285.487 z" id="boundary" inkscape:connector-curvature="0" />
	<path style="fill:none;stroke:red;stroke-width:1px;stroke-linecap:butt;stroke-linejoin:miter;stroke-opacity:1" d="M 499.029,285.487 479.616,285.487 z" id="boundary" inkscape:connector-curvature="0" />
	<path style="fill:none;stroke:red;stroke-width:1px;stroke-linecap:butt;stroke-linejoin:miter;stroke-opacity:1" d="M 460.204,285.487 440.791,285.487 z" id="boundary" inkscape:connector-curvature="0" />
	<path style="fill:none;stroke:red;stroke-width:1px;stroke-linecap:butt;stroke-linejoin:miter;stroke-opacity:1" d="M 537.855,285.487 518.442,285.487 z" id="boundary" inkscape:connector-curvature="0" />
	<path style="fill:none;stroke:red;stroke-width:1px;stroke-linecap:butt;stroke-linejoin:miter;stroke-opacity:1" d="M 557.268,285.487 537.855,285.487 z" id="boundary" inkscape:connector-curvature="0" />
	<path style="fill:none;stroke:red;stroke-width:1px;stroke-linecap:butt;stroke-linejoin:miter;stroke-opacity:1" d="M 71.9452,500.971 77.7691,520.384 z" id="boundary" inkscape:connector-curvature="0" />
	<path style="fill:none;stroke:red;stroke-width:1px;stroke-linecap:butt;stroke-linejoin:miter;stroke-opacity:1" d="M 77.7691,520.384 81.6517,539.796 z" id="boundary" inkscape:connector-curvature="0" />
	<path style="fill:none;stroke:red;stroke-width:1px;stroke-linecap:butt;stroke-linejoin:miter;stroke-opacity:1" d="M 87.4755,559.209 81.6517,539.796 z" id="boundary" inkscape:connector-curvature="0" />
	<path style="fill:none;stroke:red;stroke-width:1px;stroke-linecap:butt;stroke-linejoin:miter;stroke-opacity:1" d="M 87.4755,559.209 91.3581,578.622 z" id="boundary" inkscape:connector-curvature="0" />
	<path style="fill:none;stroke:red;stroke-width:1px;stroke-linecap:butt;stroke-linejoin:miter;stroke-opacity:1" d="M 97.182,598.035 112.712,611.624 z" id="boundary" inkscape:connector-curvature="0" />
	<path style="fill:none;stroke:red;stroke-width:1px;stroke-linecap:butt;stroke-linejoin:miter;stroke-opacity:1" d="M 112.712,611.624 126.301,627.155 z" id="boundary" inkscape:connector-curvature="0" />
	<path style="fill:none;stroke:red;stroke-width:1px;stroke-linecap:butt;stroke-linejoin:miter;stroke-opacity:1" d="M 97.182,598.035 91.3581,578.622 z" id="boundary" inkscape:connector-curvature="0" />
	<path style="fill:none;stroke:red;stroke-width:1px;stroke-linecap:butt;stroke-linejoin:miter;stroke-opacity:1" d="M 126.301,627.155 141.832,640.744 z" id="boundary" inkscape:connector-curvature="0" />
	<path style="fill:none;stroke:red;stroke-width:1px;stroke-linecap:butt;stroke-linejoin:miter;stroke-opacity:1" d="M 141.832,640.744 149.597,660.157 z" id="boundary" inkscape:connector-curvature="0" />
	<path style="fill:none;stroke:red;stroke-width:1px;stroke-linecap:butt;stroke-linejoin:miter;stroke-opacity:1" d="M 159.303,677.628 149.597,660.157 z" id="boundary" inkscape:connector-curvature="0" />
	<path style="fill:none;stroke:red;stroke-width:1px;stroke-linecap:butt;stroke-linejoin:miter;stroke-opacity:1" d="M 159.303,677.628 159.303,697.041 z" id="boundary" inkscape:connector-curvature="0" />
	<path style="fill:none;stroke:red;stroke-width:1px;stroke-linecap:butt;stroke-linejoin:miter;stroke-opacity:1" d="M 159.303,697.041 169.01,714.513 z" id="boundary" inkscape:connector-curvature="0" />
	<path style="fill:none;stroke:red;stroke-width:1px;stroke-linecap:butt;stroke-linejoin:miter;stroke-opacity:1" d="M 178.716,731.984 178.716,751.397 z" id="boundary" inkscape:connector-curvature="0" />
	<path style="fill:none;stroke:red;stroke-width:1px;stroke-linecap:butt;stroke-linejoin:miter;stroke-opacity:1" d="M 169.01,714.513 178.716,731.984 z" id="boundary" inkscape:connector-curvature="0" />
	<path style="fill:none;stroke:red;stroke-width:1px;stroke-linecap:butt;stroke-linejoin:miter;stroke-opacity:1" d="M 178.716,770.81 178.716,751.397 z" id="boundary" inkscape:connector-curvature="0" />
	<path style="fill:none;stroke:red;stroke-width:1px;stroke-linecap:butt;stroke-linejoin:miter;stroke-opacity:1" d="M 120.477,931.937 139.89,922.231 z" id="boundary" inkscape:connector-curvature="0" />
	<path style="fill:none;stroke:red;stroke-width:1px;stroke-linecap:butt;stroke-linejoin:miter;stroke-opacity:1" d="M 120.477,951.35 120.477,931.937 z" id="boundary" inkscape:connector-curvature="0" />
	<path style="fill:none;stroke:red;stroke-width:1px;stroke-linecap:butt;stroke-linejoin:miter;stroke-opacity:1" d="M 159.303,912.524 139.89,922.231 z" id="boundary" inkscape:connector-curvature="0" />
	<path style="fill:none;stroke:red;stroke-width:1px;stroke-linecap:butt;stroke-linejoin:miter;stroke-opacity:1" d="M 132.125,966.881 120.477,951.35 z" id="boundary" inkscape:connector-curvature="0" />
	<path style="fill:none;stroke:red;stroke-width:1px;stroke-linecap:butt;stroke-linejoin:miter;stroke-opacity:1" d="M 149.597,976.587 161.245,992.117 z" id="boundary" inkscape:connector-curvature="0" />
	<path style="fill:none;stroke:red;stroke-width:1px;stroke-linecap:butt;stroke-linejoin:miter;stroke-opacity:1" d="M 132.125,966.881 149.597,976.587 z" id="boundary" inkscape:connector-curvature="0" />
	<path style="fill:none;stroke:red;stroke-width:1px;stroke-linecap:butt;stroke-linejoin:miter;stroke-opacity:1" d="M 180.658,996 161.245,992.117 z" id="boundary" inkscape:connector-curvature="0" />
	<path style="fill:none;stroke:red;stroke-width:1px;stroke-linecap:butt;stroke-linejoin:miter;stroke-opacity:1" d="M 178.716,790.223 178.716,809.636 z" id="boundary" inkscape:connector-curvature="0" />
	<path style="fill:none;stroke:red;stroke-width:1px;stroke-linecap:butt;stroke-linejoin:miter;stroke-opacity:1" d="M 178.716,829.049 178.716,848.462 z" id="boundary" inkscape:connector-curvature="0" />
	<path style="fill:none;stroke:red;stroke-width:1px;stroke-linecap:butt;stroke-linejoin:miter;stroke-opacity:1" d="M 178.716,829.049 178.716,809.636 z" id="boundary" inkscape:connector-curvature="0" />
	<path style="fill:none;stroke:red;stroke-width:1px;stroke-linecap:butt;stroke-linejoin:miter;stroke-opacity:1" d="M 178.716,867.875 174.834,896.994 z" id="boundary" inkscape:connector-curvature="0" />
	<path style="fill:none;stroke:red;stroke-width:1px;stroke-linecap:butt;stroke-linejoin:miter;stroke-opacity:1" d="M 174.834,896.994 159.303,912.524 z" id="boundary" inkscape:connector-curvature="0" />
	<path style="fill:none;stroke:red;stroke-width:1px;stroke-linecap:butt;stroke-linejoin:miter;stroke-opacity:1" d="M 178.716,848.462 178.716,867.875 z" id="boundary" inkscape:connector-curvature="0" />
	<path style="fill:none;stroke:red;stroke-width:1px;stroke-linecap:butt;stroke-linejoin:miter;stroke-opacity:1" d="M 200.07,996 180.658,996 z" id="boundary" inkscape:connector-curvature="0" />
	<path style="fill:none;stroke:red;stroke-width:1px;stroke-linecap:butt;stroke-linejoin:miter;stroke-opacity:1" d="M 178.716,790.223 178.716,770.81 z" id="boundary" inkscape:connector-curvature="0" />
	<path style="fill:none;stroke:red;stroke-width:1px;stroke-linecap:butt;stroke-linejoin:miter;stroke-opacity:1" d="M 374.787,695.1 355.374,704.806 z" id="boundary" inkscape:connector-curvature="0" />
	<path style="fill:none;stroke:red;stroke-width:1px;stroke-linecap:butt;stroke-linejoin:miter;stroke-opacity:1" d="M 355.374,704.806 335.961,704.806 z" id="boundary" inkscape:connector-curvature="0" />
	<path style="fill:none;stroke:red;stroke-width:1px;stroke-linecap:butt;stroke-linejoin:miter;stroke-opacity:1" d="M 335.961,724.219 335.961,704.806 z" id="boundary" inkscape:connector-curvature="0" />
	<path style="fill:none;stroke:red;stroke-width:1px;stroke-linecap:butt;stroke-linejoin:miter;stroke-opacity:1" d="M 316.548,792.164 332.078,778.575 z" id="boundary" inkscape:connector-curvature="0" />
	<path style="fill:none;stroke:red;stroke-width:1px;stroke-linecap:butt;stroke-linejoin:miter;stroke-opacity:1" d="M 335.961,743.632 332.078,778.575 z" id="boundary" inkscape:connector-curvature="0" />
	<path style="fill:none;stroke:red;stroke-width:1px;stroke-linecap:butt;stroke-linejoin:miter;stroke-opacity:1" d="M 335.961,743.632 335.961,724.219 z" id="boundary" inkscape:connector-curvature="0" />
	<path style="fill:none;stroke:red;stroke-width:1px;stroke-linecap:butt;stroke-linejoin:miter;stroke-opacity:1" d="M 374.787,695.1 394.2,695.1 z" id="boundary" inkscape:connector-curvature="0" />
	<path style="fill:none;stroke:red;stroke-width:1px;stroke-linecap:butt;stroke-linejoin:miter;stroke-opacity:1" d="M 316.548,792.164 306.841,811.577 z" id="boundary" inkscape:connector-curvature="0" />
	<path style="fill:none;stroke:red;stroke-width:1px;stroke-linecap:butt;stroke-linejoin:miter;stroke-opacity:1" d="M 452.438,685.393 471.851,685.393 z" id="boundary" inkscape:connector-curvature="0" />
	<path style="fill:none;stroke:red;stroke-width:1px;stroke-linecap:butt;stroke-linejoin:miter;stroke-opacity:1" d="M 433.025,695.1 452.438,685.393 z" id="boundary" inkscape:connector-curvature="0" />
	<path style="fill:none;stroke:red;stroke-width:1px;stroke-linecap:butt;stroke-linejoin:miter;stroke-opacity:1" d="M 491.264,685.393 510.677,685.393 z" id="boundary" inkscape:connector-curvature="0" />
	<path style="fill:none;stroke:red;stroke-width:1px;stroke-linecap:butt;stroke-linejoin:miter;stroke-opacity:1" d="M 510.677,685.393 530.09,689.276 z" id="boundary" inkscape:connector-curvature="0" />
	<path style="fill:none;stroke:red;stroke-width:1px;stroke-linecap:butt;stroke-linejoin:miter;stroke-opacity:1" d="M 491.264,685.393 471.851,685.393 z" id="boundary" inkscape:connector-curvature="0" />
	<path style="fill:none;stroke:red;stroke-width:1px;stroke-linecap:butt;stroke-linejoin:miter;stroke-opacity:1" d="M 394.2,695.1 413.613,695.1 z" id="boundary" inkscape:connector-curvature="0" />
	<path style="fill:none;stroke:red;stroke-width:1px;stroke-linecap:butt;stroke-linejoin:miter;stroke-opacity:1" d="M 433.025,695.1 413.613,695.1 z" id="boundary" inkscape:connector-curvature="0" />
	<path style="fill:none;stroke:red;stroke-width:1px;stroke-linecap:butt;stroke-linejoin:miter;stroke-opacity:1" d="M 264.133,953.292 268.016,918.348 z" id="boundary" inkscape:connector-curvature="0" />
	<path style="fill:none;stroke:red;stroke-width:1px;stroke-linecap:butt;stroke-linejoin:miter;stroke-opacity:1" d="M 268.016,918.348 277.722,898.935 z" id="boundary" inkscape:connector-curvature="0" />
	<path style="fill:none;stroke:red;stroke-width:1px;stroke-linecap:butt;stroke-linejoin:miter;stroke-opacity:1" d="M 277.722,879.523 277.722,898.935 z" id="boundary" inkscape:connector-curvature="0" />
	<path style="fill:none;stroke:red;stroke-width:1px;stroke-linecap:butt;stroke-linejoin:miter;stroke-opacity:1" d="M 219.483,996 200.07,996 z" id="boundary" inkscape:connector-curvature="0" />
	<path style="fill:none;stroke:red;stroke-width:1px;stroke-linecap:butt;stroke-linejoin:miter;stroke-opacity:1" d="M 238.896,986.294 219.483,996 z" id="boundary" inkscape:connector-curvature="0" />
	<path style="fill:none;stroke:red;stroke-width:1px;stroke-linecap:butt;stroke-linejoin:miter;stroke-opacity:1" d="M 238.896,986.294 254.427,972.705 z" id="boundary" inkscape:connector-curvature="0" />
	<path style="fill:none;stroke:red;stroke-width:1px;stroke-linecap:butt;stroke-linejoin:miter;stroke-opacity:1" d="M 264.133,953.292 254.427,972.705 z" id="boundary" inkscape:connector-curvature="0" />
	<path style="fill:none;stroke:red;stroke-width:1px;stroke-linecap:butt;stroke-linejoin:miter;stroke-opacity:1" d="M 277.722,879.523 297.135,869.816 z" id="boundary" inkscape:connector-curvature="0" />
	<path style="fill:none;stroke:red;stroke-width:1px;stroke-linecap:butt;stroke-linejoin:miter;stroke-opacity:1" d="M 297.135,869.816 297.135,850.403 z" id="boundary" inkscape:connector-curvature="0" />
	<path style="fill:none;stroke:red;stroke-width:1px;stroke-linecap:butt;stroke-linejoin:miter;stroke-opacity:1" d="M 297.135,850.403 306.841,830.99 z" id="boundary" inkscape:connector-curvature="0" />
	<path style="fill:none;stroke:red;stroke-width:1px;stroke-linecap:butt;stroke-linejoin:miter;stroke-opacity:1" d="M 306.841,811.577 306.841,830.99 z" id="boundary" inkscape:connector-curvature="0" />
	<path style="fill:none;stroke:red;stroke-width:1px;stroke-linecap:butt;stroke-linejoin:miter;stroke-opacity:1" d="M 528.149,912.524 539.796,928.055 z" id="boundary" inkscape:connector-curvature="0" />
	<path style="fill:none;stroke:red;stroke-width:1px;stroke-linecap:butt;stroke-linejoin:miter;stroke-opacity:1" d="M 528.149,912.524 537.855,893.112 z" id="boundary" inkscape:connector-curvature="0" />
	<path style="fill:none;stroke:red;stroke-width:1px;stroke-linecap:butt;stroke-linejoin:miter;stroke-opacity:1" d="M 530.09,689.276 549.503,695.1 z" id="boundary" inkscape:connector-curvature="0" />
	<path style="fill:none;stroke:red;stroke-width:1px;stroke-linecap:butt;stroke-linejoin:miter;stroke-opacity:1" d="M 559.209,928.055 539.796,928.055 z" id="boundary" inkscape:connector-curvature="0" />
	<path style="fill:none;stroke:red;stroke-width:1px;stroke-linecap:butt;stroke-linejoin:miter;stroke-opacity:1" d="M 838.755,213.659 838.755,233.072 z" id="boundary" inkscape:connector-curvature="0" />
	<path style="fill:none;stroke:red;stroke-width:1px;stroke-linecap:butt;stroke-linejoin:miter;stroke-opacity:1" d="M 838.755,233.072 829.049,262.192 z" id="boundary" inkscape:connector-curvature="0" />
	<path style="fill:none;stroke:red;stroke-width:1px;stroke-linecap:butt;stroke-linejoin:miter;stroke-opacity:1" d="M 576.681,285.487 596.094,285.487 z" id="boundary" inkscape:connector-curvature="0" />
	<path style="fill:none;stroke:red;stroke-width:1px;stroke-linecap:butt;stroke-linejoin:miter;stroke-opacity:1" d="M 596.094,285.487 615.507,285.487 z" id="boundary" inkscape:connector-curvature="0" />
	<path style="fill:none;stroke:red;stroke-width:1px;stroke-linecap:butt;stroke-linejoin:miter;stroke-opacity:1" d="M 829.049,262.192 819.342,281.605 z" id="boundary" inkscape:connector-curvature="0" />
	<path style="fill:none;stroke:red;stroke-width:1px;stroke-linecap:butt;stroke-linejoin:miter;stroke-opacity:1" d="M 576.681,285.487 557.268,285.487 z" id="boundary" inkscape:connector-curvature="0" />
	<path style="fill:none;stroke:red;stroke-width:1px;stroke-linecap:butt;stroke-linejoin:miter;stroke-opacity:1" d="M 896.994,19.5303 896.994,38.9432 z" id="boundary" inkscape:connector-curvature="0" />
	<path style="fill:none;stroke:red;stroke-width:1px;stroke-linecap:butt;stroke-linejoin:miter;stroke-opacity:1" d="M 896.994,38.9432 896.994,58.3562 z" id="boundary" inkscape:connector-curvature="0" />
	<path style="fill:none;stroke:red;stroke-width:1px;stroke-linecap:butt;stroke-linejoin:miter;stroke-opacity:1" d="M 877.581,145.714 877.581,126.301 z" id="boundary" inkscape:connector-curvature="0" />
	<path style="fill:none;stroke:red;stroke-width:1px;stroke-linecap:butt;stroke-linejoin:miter;stroke-opacity:1" d="M 877.581,126.301 896.994,116.595 z" id="boundary" inkscape:connector-curvature="0" />
	<path style="fill:none;stroke:red;stroke-width:1px;stroke-linecap:butt;stroke-linejoin:miter;stroke-opacity:1" d="M 838.755,213.659 858.168,203.953 z" id="boundary" inkscape:connector-curvature="0" />
	<path style="fill:none;stroke:red;stroke-width:1px;stroke-linecap:butt;stroke-linejoin:miter;stroke-opacity:1" d="M 858.168,203.953 867.875,174.834 z" id="boundary" inkscape:connector-curvature="0" />
	<path style="fill:none;stroke:red;stroke-width:1px;stroke-linecap:butt;stroke-linejoin:miter;stroke-opacity:1" d="M 877.581,145.714 867.875,174.834 z" id="boundary" inkscape:connector-curvature="0" />
	<path style="fill:none;stroke:red;stroke-width:1px;stroke-linecap:butt;stroke-linejoin:miter;stroke-opacity:1" d="M 634.92,285.487 615.507,285.487 z" id="boundary" inkscape:connector-curvature="0" />
	<path style="fill:none;stroke:red;stroke-width:1px;stroke-linecap:butt;stroke-linejoin:miter;stroke-opacity:1" d="M 634.92,285.487 654.333,285.487 z" id="boundary" inkscape:connector-curvature="0" />
	<path style="fill:none;stroke:red;stroke-width:1px;stroke-linecap:butt;stroke-linejoin:miter;stroke-opacity:1" d="M 673.746,285.487 654.333,285.487 z" id="boundary" inkscape:connector-curvature="0" />
	<path style="fill:none;stroke:red;stroke-width:1px;stroke-linecap:butt;stroke-linejoin:miter;stroke-opacity:1" d="M 693.159,289.37 704.806,304.9 z" id="boundary" inkscape:connector-curvature="0" />
	<path style="fill:none;stroke:red;stroke-width:1px;stroke-linecap:butt;stroke-linejoin:miter;stroke-opacity:1" d="M 673.746,285.487 693.159,289.37 z" id="boundary" inkscape:connector-curvature="0" />
	<path style="fill:none;stroke:red;stroke-width:1px;stroke-linecap:butt;stroke-linejoin:miter;stroke-opacity:1" d="M 724.219,304.9 704.806,304.9 z" id="boundary" inkscape:connector-curvature="0" />
	<path style="fill:none;stroke:red;stroke-width:1px;stroke-linecap:butt;stroke-linejoin:miter;stroke-opacity:1" d="M 724.219,304.9 743.632,304.9 z" id="boundary" inkscape:connector-curvature="0" />
	<path style="fill:none;stroke:red;stroke-width:1px;stroke-linecap:butt;stroke-linejoin:miter;stroke-opacity:1" d="M 763.045,304.9 782.458,304.9 z" id="boundary" inkscape:connector-curvature="0" />
	<path style="fill:none;stroke:red;stroke-width:1px;stroke-linecap:butt;stroke-linejoin:miter;stroke-opacity:1" d="M 763.045,304.9 743.632,304.9 z" id="boundary" inkscape:connector-curvature="0" />
	<path style="fill:none;stroke:red;stroke-width:1px;stroke-linecap:butt;stroke-linejoin:miter;stroke-opacity:1" d="M 782.458,304.9 801.871,304.9 z" id="boundary" inkscape:connector-curvature="0" />
	<path style="fill:none;stroke:red;stroke-width:1px;stroke-linecap:butt;stroke-linejoin:miter;stroke-opacity:1" d="M 801.871,304.9 819.342,281.605 z" id="boundary" inkscape:connector-curvature="0" />
	<path style="fill:none;stroke:red;stroke-width:1px;stroke-linecap:butt;stroke-linejoin:miter;stroke-opacity:1" d="M 879.523,345.667 879.523,365.08 z" id="boundary" inkscape:connector-curvature="0" />
	<path style="fill:none;stroke:red;stroke-width:1px;stroke-linecap:butt;stroke-linejoin:miter;stroke-opacity:1" d="M 879.523,365.08 879.523,384.493 z" id="boundary" inkscape:connector-curvature="0" />
	<path style="fill:none;stroke:red;stroke-width:1px;stroke-linecap:butt;stroke-linejoin:miter;stroke-opacity:1" d="M 889.229,401.965 879.523,384.493 z" id="boundary" inkscape:connector-curvature="0" />
	<path style="fill:none;stroke:red;stroke-width:1px;stroke-linecap:butt;stroke-linejoin:miter;stroke-opacity:1" d="M 879.523,345.667 898.935,335.961 z" id="boundary" inkscape:connector-curvature="0" />
	<path style="fill:none;stroke:red;stroke-width:1px;stroke-linecap:butt;stroke-linejoin:miter;stroke-opacity:1" d="M 896.994,58.3562 896.994,77.7691 z" id="boundary" inkscape:connector-curvature="0" />
	<path style="fill:none;stroke:red;stroke-width:1px;stroke-linecap:butt;stroke-linejoin:miter;stroke-opacity:1" d="M 898.935,559.209 887.288,588.329 z" id="boundary" inkscape:connector-curvature="0" />
	<path style="fill:none;stroke:red;stroke-width:1px;stroke-linecap:butt;stroke-linejoin:miter;stroke-opacity:1" d="M 887.288,588.329 869.816,598.035 z" id="boundary" inkscape:connector-curvature="0" />
	<path style="fill:none;stroke:red;stroke-width:1px;stroke-linecap:butt;stroke-linejoin:miter;stroke-opacity:1" d="M 929.996,13.7065 945.526,27.2955 z" id="boundary" inkscape:connector-curvature="0" />
	<path style="fill:none;stroke:red;stroke-width:1px;stroke-linecap:butt;stroke-linejoin:miter;stroke-opacity:1" d="M 896.994,19.5303 912.524,4 z" id="boundary" inkscape:connector-curvature="0" />
	<path style="fill:none;stroke:red;stroke-width:1px;stroke-linecap:butt;stroke-linejoin:miter;stroke-opacity:1" d="M 912.524,4 929.996,13.7065 z" id="boundary" inkscape:connector-curvature="0" />
	<path style="fill:none;stroke:red;stroke-width:1px;stroke-linecap:butt;stroke-linejoin:miter;stroke-opacity:1" d="M 896.994,97.182 896.994,77.7691 z" id="boundary" inkscape:connector-curvature="0" />
	<path style="fill:none;stroke:red;stroke-width:1px;stroke-linecap:butt;stroke-linejoin:miter;stroke-opacity:1" d="M 896.994,97.182 896.994,116.595 z" id="boundary" inkscape:connector-curvature="0" />
	<path style="fill:none;stroke:red;stroke-width:1px;stroke-linecap:butt;stroke-linejoin:miter;stroke-opacity:1" d="M 947.468,163.186 937.761,180.658 z" id="boundary" inkscape:connector-curvature="0" />
	<path style="fill:none;stroke:red;stroke-width:1px;stroke-linecap:butt;stroke-linejoin:miter;stroke-opacity:1" d="M 937.761,180.658 937.761,200.07 z" id="boundary" inkscape:connector-curvature="0" />
	<path style="fill:none;stroke:red;stroke-width:1px;stroke-linecap:butt;stroke-linejoin:miter;stroke-opacity:1" d="M 937.761,200.07 937.761,219.483 z" id="boundary" inkscape:connector-curvature="0" />
	<path style="fill:none;stroke:red;stroke-width:1px;stroke-linecap:butt;stroke-linejoin:miter;stroke-opacity:1" d="M 947.468,46.7084 947.468,66.1213 z" id="boundary" inkscape:connector-curvature="0" />
	<path style="fill:none;stroke:red;stroke-width:1px;stroke-linecap:butt;stroke-linejoin:miter;stroke-opacity:1" d="M 947.468,66.1213 947.468,85.5342 z" id="boundary" inkscape:connector-curvature="0" />
	<path style="fill:none;stroke:red;stroke-width:1px;stroke-linecap:butt;stroke-linejoin:miter;stroke-opacity:1" d="M 947.468,85.5342 947.468,104.947 z" id="boundary" inkscape:connector-curvature="0" />
	<path style="fill:none;stroke:red;stroke-width:1px;stroke-linecap:butt;stroke-linejoin:miter;stroke-opacity:1" d="M 947.468,104.947 947.468,124.36 z" id="boundary" inkscape:connector-curvature="0" />
	<path style="fill:none;stroke:red;stroke-width:1px;stroke-linecap:butt;stroke-linejoin:miter;stroke-opacity:1" d="M 947.468,143.773 947.468,163.186 z" id="boundary" inkscape:connector-curvature="0" />
	<path style="fill:none;stroke:red;stroke-width:1px;stroke-linecap:butt;stroke-linejoin:miter;stroke-opacity:1" d="M 947.468,124.36 947.468,143.773 z" id="boundary" inkscape:connector-curvature="0" />
	<path style="fill:none;stroke:red;stroke-width:1px;stroke-linecap:butt;stroke-linejoin:miter;stroke-opacity:1" d="M 945.526,27.2955 947.468,46.7084 z" id="boundary" inkscape:connector-curvature="0" />
	<path style="fill:none;stroke:red;stroke-width:1px;stroke-linecap:butt;stroke-linejoin:miter;stroke-opacity:1" d="M 908.642,297.135 898.935,316.548 z" id="boundary" inkscape:connector-curvature="0" />
	<path style="fill:none;stroke:red;stroke-width:1px;stroke-linecap:butt;stroke-linejoin:miter;stroke-opacity:1" d="M 908.642,277.722 908.642,297.135 z" id="boundary" inkscape:connector-curvature="0" />
	<path style="fill:none;stroke:red;stroke-width:1px;stroke-linecap:butt;stroke-linejoin:miter;stroke-opacity:1" d="M 898.935,335.961 898.935,316.548 z" id="boundary" inkscape:connector-curvature="0" />
	<path style="fill:none;stroke:red;stroke-width:1px;stroke-linecap:butt;stroke-linejoin:miter;stroke-opacity:1" d="M 898.935,419.436 889.229,401.965 z" id="boundary" inkscape:connector-curvature="0" />
	<path style="fill:none;stroke:red;stroke-width:1px;stroke-linecap:butt;stroke-linejoin:miter;stroke-opacity:1" d="M 908.642,436.908 898.935,419.436 z" id="boundary" inkscape:connector-curvature="0" />
	<path style="fill:none;stroke:red;stroke-width:1px;stroke-linecap:butt;stroke-linejoin:miter;stroke-opacity:1" d="M 908.642,436.908 908.642,456.321 z" id="boundary" inkscape:connector-curvature="0" />
	<path style="fill:none;stroke:red;stroke-width:1px;stroke-linecap:butt;stroke-linejoin:miter;stroke-opacity:1" d="M 908.642,277.722 918.348,248.603 z" id="boundary" inkscape:connector-curvature="0" />
	<path style="fill:none;stroke:red;stroke-width:1px;stroke-linecap:butt;stroke-linejoin:miter;stroke-opacity:1" d="M 918.348,248.603 937.761,238.896 z" id="boundary" inkscape:connector-curvature="0" />
	<path style="fill:none;stroke:red;stroke-width:1px;stroke-linecap:butt;stroke-linejoin:miter;stroke-opacity:1" d="M 937.761,219.483 937.761,238.896 z" id="boundary" inkscape:connector-curvature="0" />
	<path style="fill:none;stroke:red;stroke-width:1px;stroke-linecap:butt;stroke-linejoin:miter;stroke-opacity:1" d="M 908.642,475.734 908.642,456.321 z" id="boundary" inkscape:connector-curvature="0" />
	<path style="fill:none;stroke:red;stroke-width:1px;stroke-linecap:butt;stroke-linejoin:miter;stroke-opacity:1" d="M 908.642,475.734 908.642,495.147 z" id="boundary" inkscape:connector-curvature="0" />
	<path style="fill:none;stroke:red;stroke-width:1px;stroke-linecap:butt;stroke-linejoin:miter;stroke-opacity:1" d="M 908.642,514.56 908.642,533.973 z" id="boundary" inkscape:connector-curvature="0" />
	<path style="fill:none;stroke:red;stroke-width:1px;stroke-linecap:butt;stroke-linejoin:miter;stroke-opacity:1" d="M 908.642,533.973 898.935,559.209 z" id="boundary" inkscape:connector-curvature="0" />
	<path style="fill:none;stroke:red;stroke-width:1px;stroke-linecap:butt;stroke-linejoin:miter;stroke-opacity:1" d="M 908.642,514.56 908.642,495.147 z" id="boundary" inkscape:connector-curvature="0" />
	<path style="fill:none;stroke:red;stroke-width:1px;stroke-linecap:butt;stroke-linejoin:miter;stroke-opacity:1" d="M 549.503,695.1 568.916,698.982 z" id="boundary" inkscape:connector-curvature="0" />
	<path style="fill:none;stroke:red;stroke-width:1px;stroke-linecap:butt;stroke-linejoin:miter;stroke-opacity:1" d="M 568.916,698.982 582.505,714.513 z" id="boundary" inkscape:connector-curvature="0" />
	<path style="fill:none;stroke:red;stroke-width:1px;stroke-linecap:butt;stroke-linejoin:miter;stroke-opacity:1" d="M 557.268,887.288 537.855,893.112 z" id="boundary" inkscape:connector-curvature="0" />
	<path style="fill:none;stroke:red;stroke-width:1px;stroke-linecap:butt;stroke-linejoin:miter;stroke-opacity:1" d="M 598.035,728.102 615.507,737.808 z" id="boundary" inkscape:connector-curvature="0" />
	<path style="fill:none;stroke:red;stroke-width:1px;stroke-linecap:butt;stroke-linejoin:miter;stroke-opacity:1" d="M 634.92,743.632 615.507,737.808 z" id="boundary" inkscape:connector-curvature="0" />
	<path style="fill:none;stroke:red;stroke-width:1px;stroke-linecap:butt;stroke-linejoin:miter;stroke-opacity:1" d="M 634.92,743.632 640.744,763.045 z" id="boundary" inkscape:connector-curvature="0" />
	<path style="fill:none;stroke:red;stroke-width:1px;stroke-linecap:butt;stroke-linejoin:miter;stroke-opacity:1" d="M 598.035,728.102 582.505,714.513 z" id="boundary" inkscape:connector-curvature="0" />
	<path style="fill:none;stroke:red;stroke-width:1px;stroke-linecap:butt;stroke-linejoin:miter;stroke-opacity:1" d="M 634.92,854.286 615.507,873.699 z" id="boundary" inkscape:connector-curvature="0" />
	<path style="fill:none;stroke:red;stroke-width:1px;stroke-linecap:butt;stroke-linejoin:miter;stroke-opacity:1" d="M 615.507,873.699 596.094,883.405 z" id="boundary" inkscape:connector-curvature="0" />
	<path style="fill:none;stroke:red;stroke-width:1px;stroke-linecap:butt;stroke-linejoin:miter;stroke-opacity:1" d="M 640.744,763.045 654.333,778.575 z" id="boundary" inkscape:connector-curvature="0" />
	<path style="fill:none;stroke:red;stroke-width:1px;stroke-linecap:butt;stroke-linejoin:miter;stroke-opacity:1" d="M 654.333,778.575 654.333,797.988 z" id="boundary" inkscape:connector-curvature="0" />
	<path style="fill:none;stroke:red;stroke-width:1px;stroke-linecap:butt;stroke-linejoin:miter;stroke-opacity:1" d="M 654.333,817.401 654.333,797.988 z" id="boundary" inkscape:connector-curvature="0" />
	<path style="fill:none;stroke:red;stroke-width:1px;stroke-linecap:butt;stroke-linejoin:miter;stroke-opacity:1" d="M 634.92,854.286 650.45,838.755 z" id="boundary" inkscape:connector-curvature="0" />
	<path style="fill:none;stroke:red;stroke-width:1px;stroke-linecap:butt;stroke-linejoin:miter;stroke-opacity:1" d="M 654.333,817.401 650.45,838.755 z" id="boundary" inkscape:connector-curvature="0" />
	<path style="fill:none;stroke:red;stroke-width:1px;stroke-linecap:butt;stroke-linejoin:miter;stroke-opacity:1" d="M 702.865,879.523 714.513,860.11 z" id="boundary" inkscape:connector-curvature="0" />
	<path style="fill:none;stroke:red;stroke-width:1px;stroke-linecap:butt;stroke-linejoin:miter;stroke-opacity:1" d="M 730.043,846.521 714.513,860.11 z" id="boundary" inkscape:connector-curvature="0" />
	<path style="fill:none;stroke:red;stroke-width:1px;stroke-linecap:butt;stroke-linejoin:miter;stroke-opacity:1" d="M 576.681,887.288 557.268,887.288 z" id="boundary" inkscape:connector-curvature="0" />
	<path style="fill:none;stroke:red;stroke-width:1px;stroke-linecap:butt;stroke-linejoin:miter;stroke-opacity:1" d="M 596.094,883.405 576.681,887.288 z" id="boundary" inkscape:connector-curvature="0" />
	<path style="fill:none;stroke:red;stroke-width:1px;stroke-linecap:butt;stroke-linejoin:miter;stroke-opacity:1" d="M 559.209,928.055 578.622,928.055 z" id="boundary" inkscape:connector-curvature="0" />
	<path style="fill:none;stroke:red;stroke-width:1px;stroke-linecap:butt;stroke-linejoin:miter;stroke-opacity:1" d="M 598.035,928.055 617.448,928.055 z" id="boundary" inkscape:connector-curvature="0" />
	<path style="fill:none;stroke:red;stroke-width:1px;stroke-linecap:butt;stroke-linejoin:miter;stroke-opacity:1" d="M 598.035,928.055 578.622,928.055 z" id="boundary" inkscape:connector-curvature="0" />
	<path style="fill:none;stroke:red;stroke-width:1px;stroke-linecap:butt;stroke-linejoin:miter;stroke-opacity:1" d="M 636.861,918.348 617.448,928.055 z" id="boundary" inkscape:connector-curvature="0" />
	<path style="fill:none;stroke:red;stroke-width:1px;stroke-linecap:butt;stroke-linejoin:miter;stroke-opacity:1" d="M 656.274,908.642 675.687,908.642 z" id="boundary" inkscape:connector-curvature="0" />
	<path style="fill:none;stroke:red;stroke-width:1px;stroke-linecap:butt;stroke-linejoin:miter;stroke-opacity:1" d="M 636.861,918.348 656.274,908.642 z" id="boundary" inkscape:connector-curvature="0" />
	<path style="fill:none;stroke:red;stroke-width:1px;stroke-linecap:butt;stroke-linejoin:miter;stroke-opacity:1" d="M 685.393,889.229 675.687,908.642 z" id="boundary" inkscape:connector-curvature="0" />
	<path style="fill:none;stroke:red;stroke-width:1px;stroke-linecap:butt;stroke-linejoin:miter;stroke-opacity:1" d="M 685.393,889.229 702.865,879.523 z" id="boundary" inkscape:connector-curvature="0" />
	<path style="fill:none;stroke:red;stroke-width:1px;stroke-linecap:butt;stroke-linejoin:miter;stroke-opacity:1" d="M 731.984,922.231 731.984,941.644 z" id="boundary" inkscape:connector-curvature="0" />
	<path style="fill:none;stroke:red;stroke-width:1px;stroke-linecap:butt;stroke-linejoin:miter;stroke-opacity:1" d="M 731.984,941.644 747.515,955.233 z" id="boundary" inkscape:connector-curvature="0" />
	<path style="fill:none;stroke:red;stroke-width:1px;stroke-linecap:butt;stroke-linejoin:miter;stroke-opacity:1" d="M 731.984,922.231 751.397,912.524 z" id="boundary" inkscape:connector-curvature="0" />
	<path style="fill:none;stroke:red;stroke-width:1px;stroke-linecap:butt;stroke-linejoin:miter;stroke-opacity:1" d="M 860.11,646.568 860.11,665.98 z" id="boundary" inkscape:connector-curvature="0" />
	<path style="fill:none;stroke:red;stroke-width:1px;stroke-linecap:butt;stroke-linejoin:miter;stroke-opacity:1" d="M 860.11,646.568 860.11,627.155 z" id="boundary" inkscape:connector-curvature="0" />
	<path style="fill:none;stroke:red;stroke-width:1px;stroke-linecap:butt;stroke-linejoin:miter;stroke-opacity:1" d="M 759.162,817.401 778.575,807.695 z" id="boundary" inkscape:connector-curvature="0" />
	<path style="fill:none;stroke:red;stroke-width:1px;stroke-linecap:butt;stroke-linejoin:miter;stroke-opacity:1" d="M 797.988,811.577 778.575,807.695 z" id="boundary" inkscape:connector-curvature="0" />
	<path style="fill:none;stroke:red;stroke-width:1px;stroke-linecap:butt;stroke-linejoin:miter;stroke-opacity:1" d="M 860.11,665.98 863.992,685.393 z" id="boundary" inkscape:connector-curvature="0" />
	<path style="fill:none;stroke:red;stroke-width:1px;stroke-linecap:butt;stroke-linejoin:miter;stroke-opacity:1" d="M 797.988,811.577 799.93,830.99 z" id="boundary" inkscape:connector-curvature="0" />
	<path style="fill:none;stroke:red;stroke-width:1px;stroke-linecap:butt;stroke-linejoin:miter;stroke-opacity:1" d="M 860.11,627.155 869.816,598.035 z" id="boundary" inkscape:connector-curvature="0" />
	<path style="fill:none;stroke:red;stroke-width:1px;stroke-linecap:butt;stroke-linejoin:miter;stroke-opacity:1" d="M 869.816,724.219 879.523,741.691 z" id="boundary" inkscape:connector-curvature="0" />
	<path style="fill:none;stroke:red;stroke-width:1px;stroke-linecap:butt;stroke-linejoin:miter;stroke-opacity:1" d="M 879.523,741.691 879.523,761.104 z" id="boundary" inkscape:connector-curvature="0" />
	<path style="fill:none;stroke:red;stroke-width:1px;stroke-linecap:butt;stroke-linejoin:miter;stroke-opacity:1" d="M 869.816,724.219 869.816,704.806 z" id="boundary" inkscape:connector-curvature="0" />
	<path style="fill:none;stroke:red;stroke-width:1px;stroke-linecap:butt;stroke-linejoin:miter;stroke-opacity:1" d="M 869.816,704.806 863.992,685.393 z" id="boundary" inkscape:connector-curvature="0" />
	<path style="fill:none;stroke:red;stroke-width:1px;stroke-linecap:butt;stroke-linejoin:miter;stroke-opacity:1" d="M 879.523,761.104 895.053,772.751 z" id="boundary" inkscape:connector-curvature="0" />
	<path style="fill:none;stroke:red;stroke-width:1px;stroke-linecap:butt;stroke-linejoin:miter;stroke-opacity:1" d="M 895.053,772.751 898.935,792.164 z" id="boundary" inkscape:connector-curvature="0" />
	<path style="fill:none;stroke:red;stroke-width:1px;stroke-linecap:butt;stroke-linejoin:miter;stroke-opacity:1" d="M 898.935,792.164 895.053,817.401 z" id="boundary" inkscape:connector-curvature="0" />
	<path style="fill:none;stroke:red;stroke-width:1px;stroke-linecap:butt;stroke-linejoin:miter;stroke-opacity:1" d="M 895.053,817.401 879.523,830.99 z" id="boundary" inkscape:connector-curvature="0" />
	<path style="fill:none;stroke:red;stroke-width:1px;stroke-linecap:butt;stroke-linejoin:miter;stroke-opacity:1" d="M 790.223,863.992 780.517,883.405 z" id="boundary" inkscape:connector-curvature="0" />
	<path style="fill:none;stroke:red;stroke-width:1px;stroke-linecap:butt;stroke-linejoin:miter;stroke-opacity:1" d="M 799.93,830.99 790.223,863.992 z" id="boundary" inkscape:connector-curvature="0" />
	<path style="fill:none;stroke:red;stroke-width:1px;stroke-linecap:butt;stroke-linejoin:miter;stroke-opacity:1" d="M 749.456,836.814 759.162,817.401 z" id="boundary" inkscape:connector-curvature="0" />
	<path style="fill:none;stroke:red;stroke-width:1px;stroke-linecap:butt;stroke-linejoin:miter;stroke-opacity:1" d="M 770.81,902.818 780.517,883.405 z" id="boundary" inkscape:connector-curvature="0" />
	<path style="fill:none;stroke:red;stroke-width:1px;stroke-linecap:butt;stroke-linejoin:miter;stroke-opacity:1" d="M 766.928,957.174 747.515,955.233 z" id="boundary" inkscape:connector-curvature="0" />
	<path style="fill:none;stroke:red;stroke-width:1px;stroke-linecap:butt;stroke-linejoin:miter;stroke-opacity:1" d="M 751.397,912.524 770.81,902.818 z" id="boundary" inkscape:connector-curvature="0" />
	<path style="fill:none;stroke:red;stroke-width:1px;stroke-linecap:butt;stroke-linejoin:miter;stroke-opacity:1" d="M 786.341,957.174 766.928,957.174 z" id="boundary" inkscape:connector-curvature="0" />
	<path style="fill:none;stroke:red;stroke-width:1px;stroke-linecap:butt;stroke-linejoin:miter;stroke-opacity:1" d="M 805.753,957.174 786.341,957.174 z" id="boundary" inkscape:connector-curvature="0" />
	<path style="fill:none;stroke:red;stroke-width:1px;stroke-linecap:butt;stroke-linejoin:miter;stroke-opacity:1" d="M 730.043,846.521 749.456,836.814 z" id="boundary" inkscape:connector-curvature="0" />
	<path style="fill:none;stroke:red;stroke-width:1px;stroke-linecap:butt;stroke-linejoin:miter;stroke-opacity:1" d="M 860.11,879.523 860.11,898.935 z" id="boundary" inkscape:connector-curvature="0" />
	<path style="fill:none;stroke:red;stroke-width:1px;stroke-linecap:butt;stroke-linejoin:miter;stroke-opacity:1" d="M 860.11,898.935 840.697,918.348 z" id="boundary" inkscape:connector-curvature="0" />
	<path style="fill:none;stroke:red;stroke-width:1px;stroke-linecap:butt;stroke-linejoin:miter;stroke-opacity:1" d="M 860.11,879.523 869.816,850.403 z" id="boundary" inkscape:connector-curvature="0" />
	<path style="fill:none;stroke:red;stroke-width:1px;stroke-linecap:butt;stroke-linejoin:miter;stroke-opacity:1" d="M 869.816,850.403 879.523,830.99 z" id="boundary" inkscape:connector-curvature="0" />
	<path style="fill:none;stroke:red;stroke-width:1px;stroke-linecap:butt;stroke-linejoin:miter;stroke-opacity:1" d="M 825.166,955.233 805.753,957.174 z" id="boundary" inkscape:connector-curvature="0" />
	<path style="fill:none;stroke:red;stroke-width:1px;stroke-linecap:butt;stroke-linejoin:miter;stroke-opacity:1" d="M 840.697,937.761 825.166,955.233 z" id="boundary" inkscape:connector-curvature="0" />
	<path style="fill:none;stroke:red;stroke-width:1px;stroke-linecap:butt;stroke-linejoin:miter;stroke-opacity:1" d="M 840.697,918.348 840.697,937.761 z" id="boundary" inkscape:connector-curvature="0" />
	<circle cx="4" cy="106.888" r="4" fill="#0" id="circle0"/>
	<circle cx="4" cy="126.301" r="4" fill="#0" id="circle1"/>
	<circle cx="4" cy="145.714" r="4" fill="#0" id="circle2"/>
	<circle cx="4" cy="165.127" r="4" fill="#0" id="circle3"/>
	<circle cx="13.7065" cy="182.599" r="4" fill="#0" id="circle4"/>
	<circle cx="13.7065" cy="202.012" r="4" fill="#0" id="circle5"/>
	<circle cx="13.7065" cy="221.425" r="4" fill="#0" id="circle6"/>
	<circle cx="13.7065" cy="240.838" r="4" fill="#0" id="circle7"/>
	<circle cx="13.7065" cy="260.25" r="4" fill="#0" id="circle8"/>
	<circle cx="13.7065" cy="279.663" r="4" fill="#0" id="circle9"/>
	<circle cx="13.7065" cy="299.076" r="4" fill="#0" id="circle10"/>
	<circle cx="23.4129" cy="101.065" r="4" fill="#0" id="circle11"/>
	<circle cx="27.2955" cy="314.607" r="4" fill="#0" id="circle12"/>
	<circle cx="33.1194" cy="334.02" r="4" fill="#0" id="circle13"/>
	<circle cx="35.0607" cy="116.595" r="4" fill="#0" id="circle14"/>
	<circle cx="37.002" cy="353.432" r="4" fill="#0" id="circle15"/>
	<circle cx="42.8258" cy="372.845" r="4" fill="#0" id="circle16"/>
	<circle cx="42.8258" cy="392.258" r="4" fill="#0" id="circle17"/>
	<circle cx="52.5323" cy="126.301" r="4" fill="#0" id="circle18"/>
	<circle cx="54.4736" cy="407.789" r="4" fill="#0" id="circle19"/>
	<circle cx="68.0626" cy="423.319" r="4" fill="#0" id="circle20"/>
	<circle cx="71.9452" cy="134.067" r="4" fill="#0" id="circle21"/>
	<circle cx="71.9452" cy="442.732" r="4" fill="#0" id="circle22"/>
	<circle cx="71.9452" cy="462.145" r="4" fill="#0" id="circle23"/>
	<circle cx="71.9452" cy="481.558" r="4" fill="#0" id="circle24"/>
	<circle cx="71.9452" cy="500.971" r="4" fill="#0" id="circle25"/>
	<circle cx="77.7691" cy="520.384" r="4" fill="#0" id="circle26"/>
	<circle cx="81.6517" cy="539.796" r="4" fill="#0" id="circle27"/>
	<circle cx="87.4755" cy="559.209" r="4" fill="#0" id="circle28"/>
	<circle cx="91.3581" cy="139.89" r="4" fill="#0" id="circle29"/>
	<circle cx="91.3581" cy="578.622" r="4" fill="#0" id="circle30"/>
	<circle cx="97.182" cy="598.035" r="4" fill="#0" id="circle31"/>
	<circle cx="110.771" cy="143.773" r="4" fill="#0" id="circle32"/>
	<circle cx="112.712" cy="611.624" r="4" fill="#0" id="circle33"/>
	<circle cx="120.477" cy="931.937" r="4" fill="#0" id="circle34"/>
	<circle cx="120.477" cy="951.35" r="4" fill="#0" id="circle35"/>
	<circle cx="122.419" cy="159.303" r="4" fill="#0" id="circle36"/>
	<circle cx="126.301" cy="627.155" r="4" fill="#0" id="circle37"/>
	<circle cx="132.125" cy="966.881" r="4" fill="#0" id="circle38"/>
	<circle cx="139.89" cy="922.231" r="4" fill="#0" id="circle39"/>
	<circle cx="141.832" cy="159.303" r="4" fill="#0" id="circle40"/>
	<circle cx="141.832" cy="640.744" r="4" fill="#0" id="circle41"/>
	<circle cx="149.597" cy="660.157" r="4" fill="#0" id="circle42"/>
	<circle cx="149.597" cy="976.587" r="4" fill="#0" id="circle43"/>
	<circle cx="159.303" cy="677.628" r="4" fill="#0" id="circle44"/>
	<circle cx="159.303" cy="697.041" r="4" fill="#0" id="circle45"/>
	<circle cx="159.303" cy="912.524" r="4" fill="#0" id="circle46"/>
	<circle cx="161.245" cy="159.303" r="4" fill="#0" id="circle47"/>
	<circle cx="161.245" cy="992.117" r="4" fill="#0" id="circle48"/>
	<circle cx="169.01" cy="714.513" r="4" fill="#0" id="circle49"/>
	<circle cx="174.834" cy="896.994" r="4" fill="#0" id="circle50"/>
	<circle cx="178.716" cy="731.984" r="4" fill="#0" id="circle51"/>
	<circle cx="178.716" cy="751.397" r="4" fill="#0" id="circle52"/>
	<circle cx="178.716" cy="770.81" r="4" fill="#0" id="circle53"/>
	<circle cx="178.716" cy="790.223" r="4" fill="#0" id="circle54"/>
	<circle cx="178.716" cy="809.636" r="4" fill="#0" id="circle55"/>
	<circle cx="178.716" cy="829.049" r="4" fill="#0" id="circle56"/>
	<circle cx="178.716" cy="848.462" r="4" fill="#0" id="circle57"/>
	<circle cx="178.716" cy="867.875" r="4" fill="#0" id="circle58"/>
	<circle cx="180.658" cy="159.303" r="4" fill="#0" id="circle59"/>
	<circle cx="180.658" cy="996" r="4" fill="#0" id="circle60"/>
	<circle cx="200.07" cy="159.303" r="4" fill="#0" id="circle61"/>
	<circle cx="200.07" cy="996" r="4" fill="#0" id="circle62"/>
	<circle cx="219.483" cy="159.303" r="4" fill="#0" id="circle63"/>
	<circle cx="219.483" cy="996" r="4" fill="#0" id="circle64"/>
	<circle cx="236.955" cy="145.714" r="4" fill="#0" id="circle65"/>
	<circle cx="238.896" cy="986.294" r="4" fill="#0" id="circle66"/>
	<circle cx="254.427" cy="972.705" r="4" fill="#0" id="circle67"/>
	<circle cx="256.368" cy="136.008" r="4" fill="#0" id="circle68"/>
	<circle cx="264.133" cy="953.292" r="4" fill="#0" id="circle69"/>
	<circle cx="268.016" cy="918.348" r="4" fill="#0" id="circle70"/>
	<circle cx="271.898" cy="120.477" r="4" fill="#0" id="circle71"/>
	<circle cx="277.722" cy="180.658" r="4" fill="#0" id="circle72"/>
	<circle cx="277.722" cy="200.07" r="4" fill="#0" id="circle73"/>
	<circle cx="277.722" cy="219.483" r="4" fill="#0" id="circle74"/>
	<circle cx="277.722" cy="238.896" r="4" fill="#0" id="circle75"/>
	<circle cx="277.722" cy="258.309" r="4" fill="#0" id="circle76"/>
	<circle cx="277.722" cy="879.523" r="4" fill="#0" id="circle77"/>
	<circle cx="277.722" cy="898.935" r="4" fill="#0" id="circle78"/>
	<circle cx="281.605" cy="101.065" r="4" fill="#0" id="circle79"/>
	<circle cx="287.429" cy="275.781" r="4" fill="#0" id="circle80"/>
	<circle cx="297.135" cy="161.245" r="4" fill="#0" id="circle81"/>
	<circle cx="297.135" cy="850.403" r="4" fill="#0" id="circle82"/>
	<circle cx="297.135" cy="869.816" r="4" fill="#0" id="circle83"/>
	<circle cx="301.018" cy="101.065" r="4" fill="#0" id="circle84"/>
	<circle cx="306.841" cy="120.477" r="4" fill="#0" id="circle85"/>
	<circle cx="306.841" cy="139.89" r="4" fill="#0" id="circle86"/>
	<circle cx="306.841" cy="275.781" r="4" fill="#0" id="circle87"/>
	<circle cx="306.841" cy="811.577" r="4" fill="#0" id="circle88"/>
	<circle cx="306.841" cy="830.99" r="4" fill="#0" id="circle89"/>
	<circle cx="316.548" cy="792.164" r="4" fill="#0" id="circle90"/>
	<circle cx="324.313" cy="285.487" r="4" fill="#0" id="circle91"/>
	<circle cx="332.078" cy="778.575" r="4" fill="#0" id="circle92"/>
	<circle cx="335.961" cy="704.806" r="4" fill="#0" id="circle93"/>
	<circle cx="335.961" cy="724.219" r="4" fill="#0" id="circle94"/>
	<circle cx="335.961" cy="743.632" r="4" fill="#0" id="circle95"/>
	<circle cx="343.726" cy="285.487" r="4" fill="#0" id="circle96"/>
	<circle cx="355.374" cy="704.806" r="4" fill="#0" id="circle97"/>
	<circle cx="363.139" cy="285.487" r="4" fill="#0" id="circle98"/>
	<circle cx="374.787" cy="695.1" r="4" fill="#0" id="circle99"/>
	<circle cx="382.552" cy="285.487" r="4" fill="#0" id="circle100"/>
	<circle cx="394.2" cy="695.1" r="4" fill="#0" id="circle101"/>
	<circle cx="401.965" cy="285.487" r="4" fill="#0" id="circle102"/>
	<circle cx="413.613" cy="695.1" r="4" fill="#0" id="circle103"/>
	<circle cx="421.378" cy="285.487" r="4" fill="#0" id="circle104"/>
	<circle cx="433.025" cy="695.1" r="4" fill="#0" id="circle105"/>
	<circle cx="440.791" cy="285.487" r="4" fill="#0" id="circle106"/>
	<circle cx="452.438" cy="685.393" r="4" fill="#0" id="circle107"/>
	<circle cx="460.204" cy="285.487" r="4" fill="#0" id="circle108"/>
	<circle cx="471.851" cy="685.393" r="4" fill="#0" id="circle109"/>
	<circle cx="479.616" cy="285.487" r="4" fill="#0" id="circle110"/>
	<circle cx="491.264" cy="685.393" r="4" fill="#0" id="circle111"/>
	<circle cx="499.029" cy="285.487" r="4" fill="#0" id="circle112"/>
	<circle cx="510.677" cy="685.393" r="4" fill="#0" id="circle113"/>
	<circle cx="518.442" cy="285.487" r="4" fill="#0" id="circle114"/>
	<circle cx="528.149" cy="912.524" r="4" fill="#0" id="circle115"/>
	<circle cx="530.09" cy="689.276" r="4" fill="#0" id="circle116"/>
	<circle cx="537.855" cy="285.487" r="4" fill="#0" id="circle117"/>
	<circle cx="537.855" cy="893.112" r="4" fill="#0" id="circle118"/>
	<circle cx="539.796" cy="928.055" r="4" fill="#0" id="circle119"/>
	<circle cx="549.503" cy="695.1" r="4" fill="#0" id="circle120"/>
	<circle cx="557.268" cy="285.487" r="4" fill="#0" id="circle121"/>
	<circle cx="557.268" cy="887.288" r="4" fill="#0" id="circle122"/>
	<circle cx="559.209" cy="928.055" r="4" fill="#0" id="circle123"/>
	<circle cx="568.916" cy="698.982" r="4" fill="#0" id="circle124"/>
	<circle cx="576.681" cy="285.487" r="4" fill="#0" id="circle125"/>
	<circle cx="576.681" cy="887.288" r="4" fill="#0" id="circle126"/>
	<circle cx="578.622" cy="928.055" r="4" fill="#0" id="circle127"/>
	<circle cx="582.505" cy="714.513" r="4" fill="#0" id="circle128"/>
	<circle cx="596.094" cy="285.487" r="4" fill="#0" id="circle129"/>
	<circle cx="596.094" cy="883.405" r="4" fill="#0" id="circle130"/>
	<circle cx="598.035" cy="728.102" r="4" fill="#0" id="circle131"/>
	<circle cx="598.035" cy="928.055" r="4" fill="#0" id="circle132"/>
	<circle cx="615.507" cy="285.487" r="4" fill="#0" id="circle133"/>
	<circle cx="615.507" cy="737.808" r="4" fill="#0" id="circle134"/>
	<circle cx="615.507" cy="873.699" r="4" fill="#0" id="circle135"/>
	<circle cx="617.448" cy="928.055" r="4" fill="#0" id="circle136"/>
	<circle cx="634.92" cy="285.487" r="4" fill="#0" id="circle137"/>
	<circle cx="634.92" cy="743.632" r="4" fill="#0" id="circle138"/>
	<circle cx="634.92" cy="854.286" r="4" fill="#0" id="circle139"/>
	<circle cx="636.861" cy="918.348" r="4" fill="#0" id="circle140"/>
	<circle cx="640.744" cy="763.045" r="4" fill="#0" id="circle141"/>
	<circle cx="650.45" cy="838.755" r="4" fill="#0" id="circle142"/>
	<circle cx="654.333" cy="285.487" r="4" fill="#0" id="circle143"/>
	<circle cx="654.333" cy="778.575" r="4" fill="#0" id="circle144"/>
	<circle cx="654.333" cy="797.988" r="4" fill="#0" id="circle145"/>
	<circle cx="654.333" cy="817.401" r="4" fill="#0" id="circle146"/>
	<circle cx="656.274" cy="908.642" r="4" fill="#0" id="circle147"/>
	<circle cx="673.746" cy="285.487" r="4" fill="#0" id="circle148"/>
	<circle cx="675.687" cy="908.642" r="4" fill="#0" id="circle149"/>
	<circle cx="685.393" cy="889.229" r="4" fill="#0" id="circle150"/>
	<circle cx="693.159" cy="289.37" r="4" fill="#0" id="circle151"/>
	<circle cx="702.865" cy="879.523" r="4" fill="#0" id="circle152"/>
	<circle cx="704.806" cy="304.9" r="4" fill="#0" id="circle153"/>
	<circle cx="714.513" cy="860.11" r="4" fill="#0" id="circle154"/>
	<circle cx="724.219" cy="304.9" r="4" fill="#0" id="circle155"/>
	<circle cx="730.043" cy="846.521" r="4" fill="#0" id="circle156"/>
	<circle cx="731.984" cy="922.231" r="4" fill="#0" id="circle157"/>
	<circle cx="731.984" cy="941.644" r="4" fill="#0" id="circle158"/>
	<circle cx="743.632" cy="304.9" r="4" fill="#0" id="circle159"/>
	<circle cx="747.515" cy="955.233" r="4" fill="#0" id="circle160"/>
	<circle cx="749.456" cy="836.814" r="4" fill="#0" id="circle161"/>
	<circle cx="751.397" cy="912.524" r="4" fill="#0" id="circle162"/>
	<circle cx="759.162" cy="817.401" r="4" fill="#0" id="circle163"/>
	<circle cx="763.045" cy="304.9" r="4" fill="#0" id="circle164"/>
	<circle cx="766.928" cy="957.174" r="4" fill="#0" id="circle165"/>
	<circle cx="770.81" cy="902.818" r="4" fill="#0" id="circle166"/>
	<circle cx="778.575" cy="807.695" r="4" fill="#0" id="circle167"/>
	<circle cx="780.517" cy="883.405" r="4" fill="#0" id="circle168"/>
	<circle cx="782.458" cy="304.9" r="4" fill="#0" id="circle169"/>
	<circle cx="786.341" cy="957.174" r="4" fill="#0" id="circle170"/>
	<circle cx="790.223" cy="863.992" r="4" fill="#0" id="circle171"/>
	<circle cx="797.988" cy="811.577" r="4" fill="#0" id="circle172"/>
	<circle cx="799.93" cy="830.99" r="4" fill="#0" id="circle173"/>
	<circle cx="801.871" cy="304.9" r="4" fill="#0" id="circle174"/>
	<circle cx="805.753" cy="957.174" r="4" fill="#0" id="circle175"/>
	<circle cx="819.342" cy="281.605" r="4" fill="#0" id="circle176"/>
	<circle cx="825.166" cy="955.233" r="4" fill="#0" id="circle177"/>
	<circle cx="829.049" cy="262.192" r="4" fill="#0" id="circle178"/>
	<circle cx="838.755" cy="213.659" r="4" fill="#0" id="circle179"/>
	<circle cx="838.755" cy="233.072" r="4" fill="#0" id="circle180"/>
	<circle cx="840.697" cy="918.348" r="4" fill="#0" id="circle181"/>
	<circle cx="840.697" cy="937.761" r="4" fill="#0" id="circle182"/>
	<circle cx="858.168" cy="203.953" r="4" fill="#0" id="circle183"/>
	<circle cx="860.11" cy="627.155" r="4" fill="#0" id="circle184"/>
	<circle cx="860.11" cy="646.568" r="4" fill="#0" id="circle185"/>
	<circle cx="860.11" cy="665.98" r="4" fill="#0" id="circle186"/>
	<circle cx="860.11" cy="879.523" r="4" fill="#0" id="circle187"/>
	<circle cx="860.11" cy="898.935" r="4" fill="#0" id="circle188"/>
	<circle cx="863.992" cy="685.393" r="4" fill="#0" id="circle189"/>
	<circle cx="867.875" cy="174.834" r="4" fill="#0" id="circle190"/>
	<circle cx="869.816" cy="598.035" r="4" fill="#0" id="circle191"/>
	<circle cx="869.816" cy="704.806" r="4" fill="#0" id="circle192"/>
	<circle cx="869.816" cy="724.219" r="4" fill="#0" id="circle193"/>
	<circle cx="869.816" cy="850.403" r="4" fill="#0" id="circle194"/>
	<circle cx="877.581" cy="126.301" r="4" fill="#0" id="circle195"/>
	<circle cx="877.581" cy="145.714" r="4" fill="#0" id="circle196"/>
	<circle cx="879.523" cy="345.667" r="4" fill="#0" id="circle197"/>
	<circle cx="879.523" cy="365.08" r="4" fill="#0" id="circle198"/>
	<circle cx="879.523" cy="384.493" r="4" fill="#0" id="circle199"/>
	<circle cx="879.523" cy="741.691" r="4" fill="#0" id="circle200"/>
	<circle cx="879.523" cy="761.104" r="4" fill="#0" id="circle201"/>
	<circle cx="879.523" cy="830.99" r="4" fill="#0" id="circle202"/>
	<circle cx="887.288" cy="588.329" r="4" fill="#0" id="circle203"/>
	<circle cx="889.229" cy="401.965" r="4" fill="#0" id="circle204"/>
	<circle cx="895.053" cy="772.751" r="4" fill="#0" id="circle205"/>
	<circle cx="895.053" cy="817.401" r="4" fill="#0" id="circle206"/>
	<circle cx="896.994" cy="19.5303" r="4" fill="#0" id="circle207"/>
	<circle cx="896.994" cy="38.9432" r="4" fill="#0" id="circle208"/>
	<circle cx="896.994" cy="58.3562" r="4" fill="#0" id="circle209"/>
	<circle cx="896.994" cy="77.7691" r="4" fill="#0" id="circle210"/>
	<circle cx="896.994" cy="97.182" r="4" fill="#0" id="circle211"/>
	<circle cx="896.994" cy="116.595" r="4" fill="#0" id="circle212"/>
	<circle cx="898.935" cy="316.548" r="4" fill="#0" id="circle213"/>
	<circle cx="898.935" cy="335.961" r="4" fill="#0" id="circle214"/>
	<circle cx="898.935" cy="419.436" r="4" fill="#0" id="circle215"/>
	<circle cx="898.935" cy="559.209" r="4" fill="#0" id="circle216"/>
	<circle cx="898.935" cy="792.164" r="4" fill="#0" id="circle217"/>
	<circle cx="908.642" cy="277.722" r="4" fill="#0" id="circle218"/>
	<circle cx="908.642" cy="297.135" r="4" fill="#0" id="circle219"/>
	<circle cx="908.642" cy="436.908" r="4" fill="#0" id="circle220"/>
	<circle cx="908.642" cy="456.321" r="4" fill="#0" id="circle221"/>
	<circle cx="908.642" cy="475.734" r="4" fill="#0" id="circle222"/>
	<circle cx="908.642" cy="495.147" r="4" fill="#0" id="circle223"/>
	<circle cx="908.642" cy="514.56" r="4" fill="#0" id="circle224"/>
	<circle cx="908.642" cy="533.973" r="4" fill="#0" id="circle225"/>
	<circle cx="912.524" cy="4" r="4" fill="#0" id="circle226"/>
	<circle cx="918.348" cy="248.603" r="4" fill="#0" id="circle227"/>
	<circle cx="929.996" cy="13.7065" r="4" fill="#0" id="circle228"/>
	<circle cx="937.761" cy="180.658" r="4" fill="#0" id="circle229"/>
	<circle cx="937.761" cy="200.07" r="4" fill="#0" id="circle230"/>
	<circle cx="937.761" cy="219.483" r="4" fill="#0" id="circle231"/>
	<circle cx="937.761" cy="238.896" r="4" fill="#0" id="circle232"/>
	<circle cx="945.526" cy="27.2955" r="4" fill="#0" id="circle233"/>
	<circle cx="947.468" cy="46.7084" r="4" fill="#0" id="circle234"/>
	<circle cx="947.468" cy="66.1213" r="4" fill="#0" id="circle235"/>
	<circle cx="947.468" cy="85.5342" r="4" fill="#0" id="circle236"/>
	<circle cx="947.468" cy="104.947" r="4" fill="#0" id="circle237"/>
	<circle cx="947.468" cy="124.36" r="4" fill="#0" id="circle238"/>
	<circle cx="947.468" cy="143.773" r="4" fill="#0" id="circle239"/>
	<circle cx="947.468" cy="163.186" r="4" fill="#0" id="circle240"/>
	</g>
</svg>