<?xml version="1.0" encoding="UTF-8" standalone="no"?>
<!-- Created with CurveBenchmark -->
<svg
	xmlns:dc="http://purl.org/dc/elements/1.1/"
	xmlns:cc="http://creativecommons.org/ns#"
	xmlns:rdf="http://www.w3.org/1999/02/22-rdf-syntax-ns#"
	xmlns:svg="http://www.w3.org/2000/svg"
	xmlns="http://www.w3.org/2000/svg"
	xmlns:sodipodi="http://sodipodi.sourceforge.net/DTD/sodipodi-0.dtd"
	xmlns:inkscape="http://www.inkscape.org/namespaces/inkscape"
	width="1000"
	height="1000"
	id="svg2"
	version="1.1"
	sodipodi:docname="manifold/gathang-handdeform.png.txt">
<defs
	id="defs4" />
<metadata
	id="metadata7">
	<rdf:RDF>
		<cc:Work
			rdf:about="">
			<dc:format>image/svg+xml</dc:format>
			<dc:type
				rdf:resource="http://purl.org/dc/dcmitype/StillImage" />
			<dc:title></dc:title>
		</cc:Work>
	</rdf:RDF>
</metadata>
<g
	inkscape:label="Layer 1"
	inkscape:groupmode="layer"
	id="layer1">
	<path style="fill:none;stroke:red;stroke-width:1px;stroke-linecap:butt;stroke-linejoin:miter;stroke-opacity:1" d="M 38.2726,165.843 19.2322,165.843 z" id="boundary" inkscape:connector-curvature="0" />
	<path style="fill:none;stroke:red;stroke-width:1px;stroke-linecap:butt;stroke-linejoin:miter;stroke-opacity:1" d="M 57.3129,165.843 38.2726,165.843 z" id="boundary" inkscape:connector-curvature="0" />
	<path style="fill:none;stroke:red;stroke-width:1px;stroke-linecap:butt;stroke-linejoin:miter;stroke-opacity:1" d="M 4,181.075 19.2322,165.843 z" id="boundary" inkscape:connector-curvature="0" />
	<path style="fill:none;stroke:red;stroke-width:1px;stroke-linecap:butt;stroke-linejoin:miter;stroke-opacity:1" d="M 4,200.115 4,181.075 z" id="boundary" inkscape:connector-curvature="0" />
	<path style="fill:none;stroke:red;stroke-width:1px;stroke-linecap:butt;stroke-linejoin:miter;stroke-opacity:1" d="M 57.3129,165.843 74.4491,175.363 z" id="boundary" inkscape:connector-curvature="0" />
	<path style="fill:none;stroke:red;stroke-width:1px;stroke-linecap:butt;stroke-linejoin:miter;stroke-opacity:1" d="M 89.6814,188.691 74.4491,175.363 z" id="boundary" inkscape:connector-curvature="0" />
	<path style="fill:none;stroke:red;stroke-width:1px;stroke-linecap:butt;stroke-linejoin:miter;stroke-opacity:1" d="M 89.6814,188.691 97.2975,207.731 z" id="boundary" inkscape:connector-curvature="0" />
	<path style="fill:none;stroke:red;stroke-width:1px;stroke-linecap:butt;stroke-linejoin:miter;stroke-opacity:1" d="M 156.322,28.7524 156.322,47.7927 z" id="boundary" inkscape:connector-curvature="0" />
	<path style="fill:none;stroke:red;stroke-width:1px;stroke-linecap:butt;stroke-linejoin:miter;stroke-opacity:1" d="M 156.322,47.7927 156.322,66.833 z" id="boundary" inkscape:connector-curvature="0" />
	<path style="fill:none;stroke:red;stroke-width:1px;stroke-linecap:butt;stroke-linejoin:miter;stroke-opacity:1" d="M 156.322,85.8733 156.322,66.833 z" id="boundary" inkscape:connector-curvature="0" />
	<path style="fill:none;stroke:red;stroke-width:1px;stroke-linecap:butt;stroke-linejoin:miter;stroke-opacity:1" d="M 156.322,104.914 156.322,123.954 z" id="boundary" inkscape:connector-curvature="0" />
	<path style="fill:none;stroke:red;stroke-width:1px;stroke-linecap:butt;stroke-linejoin:miter;stroke-opacity:1" d="M 156.322,142.994 156.322,162.035 z" id="boundary" inkscape:connector-curvature="0" />
	<path style="fill:none;stroke:red;stroke-width:1px;stroke-linecap:butt;stroke-linejoin:miter;stroke-opacity:1" d="M 165.843,179.171 156.322,162.035 z" id="boundary" inkscape:connector-curvature="0" />
	<path style="fill:none;stroke:red;stroke-width:1px;stroke-linecap:butt;stroke-linejoin:miter;stroke-opacity:1" d="M 156.322,142.994 156.322,123.954 z" id="boundary" inkscape:connector-curvature="0" />
	<path style="fill:none;stroke:red;stroke-width:1px;stroke-linecap:butt;stroke-linejoin:miter;stroke-opacity:1" d="M 156.322,104.914 156.322,85.8733 z" id="boundary" inkscape:connector-curvature="0" />
	<path style="fill:none;stroke:red;stroke-width:1px;stroke-linecap:butt;stroke-linejoin:miter;stroke-opacity:1" d="M 156.322,28.7524 171.555,13.5202 z" id="boundary" inkscape:connector-curvature="0" />
	<path style="fill:none;stroke:red;stroke-width:1px;stroke-linecap:butt;stroke-linejoin:miter;stroke-opacity:1" d="M 4,238.196 4,219.155 z" id="boundary" inkscape:connector-curvature="0" />
	<path style="fill:none;stroke:red;stroke-width:1px;stroke-linecap:butt;stroke-linejoin:miter;stroke-opacity:1" d="M 4,257.236 13.5202,274.372 z" id="boundary" inkscape:connector-curvature="0" />
	<path style="fill:none;stroke:red;stroke-width:1px;stroke-linecap:butt;stroke-linejoin:miter;stroke-opacity:1" d="M 13.5202,274.372 13.5202,293.413 z" id="boundary" inkscape:connector-curvature="0" />
	<path style="fill:none;stroke:red;stroke-width:1px;stroke-linecap:butt;stroke-linejoin:miter;stroke-opacity:1" d="M 4,257.236 4,238.196 z" id="boundary" inkscape:connector-curvature="0" />
	<path style="fill:none;stroke:red;stroke-width:1px;stroke-linecap:butt;stroke-linejoin:miter;stroke-opacity:1" d="M 13.5202,293.413 23.0403,310.549 z" id="boundary" inkscape:connector-curvature="0" />
	<path style="fill:none;stroke:red;stroke-width:1px;stroke-linecap:butt;stroke-linejoin:miter;stroke-opacity:1" d="M 23.0403,310.549 28.7524,329.589 z" id="boundary" inkscape:connector-curvature="0" />
	<path style="fill:none;stroke:red;stroke-width:1px;stroke-linecap:butt;stroke-linejoin:miter;stroke-opacity:1" d="M 4,219.155 4,200.115 z" id="boundary" inkscape:connector-curvature="0" />
	<path style="fill:none;stroke:red;stroke-width:1px;stroke-linecap:butt;stroke-linejoin:miter;stroke-opacity:1" d="M 101.106,226.772 97.2975,207.731 z" id="boundary" inkscape:connector-curvature="0" />
	<path style="fill:none;stroke:red;stroke-width:1px;stroke-linecap:butt;stroke-linejoin:miter;stroke-opacity:1" d="M 106.818,245.812 101.106,226.772 z" id="boundary" inkscape:connector-curvature="0" />
	<path style="fill:none;stroke:red;stroke-width:1px;stroke-linecap:butt;stroke-linejoin:miter;stroke-opacity:1" d="M 106.818,245.812 110.626,264.852 z" id="boundary" inkscape:connector-curvature="0" />
	<path style="fill:none;stroke:red;stroke-width:1px;stroke-linecap:butt;stroke-linejoin:miter;stroke-opacity:1" d="M 110.626,264.852 110.626,283.893 z" id="boundary" inkscape:connector-curvature="0" />
	<path style="fill:none;stroke:red;stroke-width:1px;stroke-linecap:butt;stroke-linejoin:miter;stroke-opacity:1" d="M 120.146,301.029 110.626,283.893 z" id="boundary" inkscape:connector-curvature="0" />
	<path style="fill:none;stroke:red;stroke-width:1px;stroke-linecap:butt;stroke-linejoin:miter;stroke-opacity:1" d="M 123.954,320.069 120.146,301.029 z" id="boundary" inkscape:connector-curvature="0" />
	<path style="fill:none;stroke:red;stroke-width:1px;stroke-linecap:butt;stroke-linejoin:miter;stroke-opacity:1" d="M 188.691,4 207.731,4 z" id="boundary" inkscape:connector-curvature="0" />
	<path style="fill:none;stroke:red;stroke-width:1px;stroke-linecap:butt;stroke-linejoin:miter;stroke-opacity:1" d="M 171.555,13.5202 188.691,4 z" id="boundary" inkscape:connector-curvature="0" />
	<path style="fill:none;stroke:red;stroke-width:1px;stroke-linecap:butt;stroke-linejoin:miter;stroke-opacity:1" d="M 207.731,4 226.772,4 z" id="boundary" inkscape:connector-curvature="0" />
	<path style="fill:none;stroke:red;stroke-width:1px;stroke-linecap:butt;stroke-linejoin:miter;stroke-opacity:1" d="M 226.772,4 242.004,17.3282 z" id="boundary" inkscape:connector-curvature="0" />
	<path style="fill:none;stroke:red;stroke-width:1px;stroke-linecap:butt;stroke-linejoin:miter;stroke-opacity:1" d="M 262.948,87.7774 262.948,106.818 z" id="boundary" inkscape:connector-curvature="0" />
	<path style="fill:none;stroke:red;stroke-width:1px;stroke-linecap:butt;stroke-linejoin:miter;stroke-opacity:1" d="M 253.428,32.5605 242.004,17.3282 z" id="boundary" inkscape:connector-curvature="0" />
	<path style="fill:none;stroke:red;stroke-width:1px;stroke-linecap:butt;stroke-linejoin:miter;stroke-opacity:1" d="M 262.948,49.6967 262.948,68.737 z" id="boundary" inkscape:connector-curvature="0" />
	<path style="fill:none;stroke:red;stroke-width:1px;stroke-linecap:butt;stroke-linejoin:miter;stroke-opacity:1" d="M 253.428,32.5605 262.948,49.6967 z" id="boundary" inkscape:connector-curvature="0" />
	<path style="fill:none;stroke:red;stroke-width:1px;stroke-linecap:butt;stroke-linejoin:miter;stroke-opacity:1" d="M 262.948,87.7774 262.948,68.737 z" id="boundary" inkscape:connector-curvature="0" />
	<path style="fill:none;stroke:red;stroke-width:1px;stroke-linecap:butt;stroke-linejoin:miter;stroke-opacity:1" d="M 262.948,125.858 262.948,106.818 z" id="boundary" inkscape:connector-curvature="0" />
	<path style="fill:none;stroke:red;stroke-width:1px;stroke-linecap:butt;stroke-linejoin:miter;stroke-opacity:1" d="M 272.468,142.994 262.948,125.858 z" id="boundary" inkscape:connector-curvature="0" />
	<path style="fill:none;stroke:red;stroke-width:1px;stroke-linecap:butt;stroke-linejoin:miter;stroke-opacity:1" d="M 272.468,142.994 272.468,162.035 z" id="boundary" inkscape:connector-curvature="0" />
	<path style="fill:none;stroke:red;stroke-width:1px;stroke-linecap:butt;stroke-linejoin:miter;stroke-opacity:1" d="M 272.468,181.075 272.468,162.035 z" id="boundary" inkscape:connector-curvature="0" />
	<path style="fill:none;stroke:red;stroke-width:1px;stroke-linecap:butt;stroke-linejoin:miter;stroke-opacity:1" d="M 175.363,196.307 165.843,179.171 z" id="boundary" inkscape:connector-curvature="0" />
	<path style="fill:none;stroke:red;stroke-width:1px;stroke-linecap:butt;stroke-linejoin:miter;stroke-opacity:1" d="M 175.363,196.307 175.363,215.347 z" id="boundary" inkscape:connector-curvature="0" />
	<path style="fill:none;stroke:red;stroke-width:1px;stroke-linecap:butt;stroke-linejoin:miter;stroke-opacity:1" d="M 175.363,234.388 175.363,215.347 z" id="boundary" inkscape:connector-curvature="0" />
	<path style="fill:none;stroke:red;stroke-width:1px;stroke-linecap:butt;stroke-linejoin:miter;stroke-opacity:1" d="M 175.363,253.428 175.363,272.468 z" id="boundary" inkscape:connector-curvature="0" />
	<path style="fill:none;stroke:red;stroke-width:1px;stroke-linecap:butt;stroke-linejoin:miter;stroke-opacity:1" d="M 175.363,291.509 175.363,310.549 z" id="boundary" inkscape:connector-curvature="0" />
	<path style="fill:none;stroke:red;stroke-width:1px;stroke-linecap:butt;stroke-linejoin:miter;stroke-opacity:1" d="M 184.883,327.685 175.363,310.549 z" id="boundary" inkscape:connector-curvature="0" />
	<path style="fill:none;stroke:red;stroke-width:1px;stroke-linecap:butt;stroke-linejoin:miter;stroke-opacity:1" d="M 175.363,291.509 175.363,272.468 z" id="boundary" inkscape:connector-curvature="0" />
	<path style="fill:none;stroke:red;stroke-width:1px;stroke-linecap:butt;stroke-linejoin:miter;stroke-opacity:1" d="M 175.363,253.428 175.363,234.388 z" id="boundary" inkscape:connector-curvature="0" />
	<path style="fill:none;stroke:red;stroke-width:1px;stroke-linecap:butt;stroke-linejoin:miter;stroke-opacity:1" d="M 272.468,181.075 272.468,200.115 z" id="boundary" inkscape:connector-curvature="0" />
	<path style="fill:none;stroke:red;stroke-width:1px;stroke-linecap:butt;stroke-linejoin:miter;stroke-opacity:1" d="M 280.084,219.155 272.468,200.115 z" id="boundary" inkscape:connector-curvature="0" />
	<path style="fill:none;stroke:red;stroke-width:1px;stroke-linecap:butt;stroke-linejoin:miter;stroke-opacity:1" d="M 280.084,219.155 281.988,238.196 z" id="boundary" inkscape:connector-curvature="0" />
	<path style="fill:none;stroke:red;stroke-width:1px;stroke-linecap:butt;stroke-linejoin:miter;stroke-opacity:1" d="M 289.605,257.236 281.988,238.196 z" id="boundary" inkscape:connector-curvature="0" />
	<path style="fill:none;stroke:red;stroke-width:1px;stroke-linecap:butt;stroke-linejoin:miter;stroke-opacity:1" d="M 291.509,276.276 291.509,295.317 z" id="boundary" inkscape:connector-curvature="0" />
	<path style="fill:none;stroke:red;stroke-width:1px;stroke-linecap:butt;stroke-linejoin:miter;stroke-opacity:1" d="M 301.029,312.453 291.509,295.317 z" id="boundary" inkscape:connector-curvature="0" />
	<path style="fill:none;stroke:red;stroke-width:1px;stroke-linecap:butt;stroke-linejoin:miter;stroke-opacity:1" d="M 291.509,276.276 289.605,257.236 z" id="boundary" inkscape:connector-curvature="0" />
	<path style="fill:none;stroke:red;stroke-width:1px;stroke-linecap:butt;stroke-linejoin:miter;stroke-opacity:1" d="M 139.186,333.397 123.954,320.069 z" id="boundary" inkscape:connector-curvature="0" />
	<path style="fill:none;stroke:red;stroke-width:1px;stroke-linecap:butt;stroke-linejoin:miter;stroke-opacity:1" d="M 301.029,312.453 301.029,331.493 z" id="boundary" inkscape:connector-curvature="0" />
	<path style="fill:none;stroke:red;stroke-width:1px;stroke-linecap:butt;stroke-linejoin:miter;stroke-opacity:1" d="M 42.0806,365.766 32.5605,348.63 z" id="boundary" inkscape:connector-curvature="0" />
	<path style="fill:none;stroke:red;stroke-width:1px;stroke-linecap:butt;stroke-linejoin:miter;stroke-opacity:1" d="M 80.1612,453.351 70.6411,436.215 z" id="boundary" inkscape:connector-curvature="0" />
	<path style="fill:none;stroke:red;stroke-width:1px;stroke-linecap:butt;stroke-linejoin:miter;stroke-opacity:1" d="M 42.0806,365.766 42.0806,384.806 z" id="boundary" inkscape:connector-curvature="0" />
	<path style="fill:none;stroke:red;stroke-width:1px;stroke-linecap:butt;stroke-linejoin:miter;stroke-opacity:1" d="M 42.0806,384.806 51.6008,401.942 z" id="boundary" inkscape:connector-curvature="0" />
	<path style="fill:none;stroke:red;stroke-width:1px;stroke-linecap:butt;stroke-linejoin:miter;stroke-opacity:1" d="M 61.1209,419.079 70.6411,436.215 z" id="boundary" inkscape:connector-curvature="0" />
	<path style="fill:none;stroke:red;stroke-width:1px;stroke-linecap:butt;stroke-linejoin:miter;stroke-opacity:1" d="M 61.1209,419.079 51.6008,401.942 z" id="boundary" inkscape:connector-curvature="0" />
	<path style="fill:none;stroke:red;stroke-width:1px;stroke-linecap:butt;stroke-linejoin:miter;stroke-opacity:1" d="M 85.8733,472.392 89.6814,491.432 z" id="boundary" inkscape:connector-curvature="0" />
	<path style="fill:none;stroke:red;stroke-width:1px;stroke-linecap:butt;stroke-linejoin:miter;stroke-opacity:1" d="M 85.8733,472.392 80.1612,453.351 z" id="boundary" inkscape:connector-curvature="0" />
	<path style="fill:none;stroke:red;stroke-width:1px;stroke-linecap:butt;stroke-linejoin:miter;stroke-opacity:1" d="M 95.3935,510.472 89.6814,491.432 z" id="boundary" inkscape:connector-curvature="0" />
	<path style="fill:none;stroke:red;stroke-width:1px;stroke-linecap:butt;stroke-linejoin:miter;stroke-opacity:1" d="M 95.3935,510.472 99.2015,529.512 z" id="boundary" inkscape:connector-curvature="0" />
	<path style="fill:none;stroke:red;stroke-width:1px;stroke-linecap:butt;stroke-linejoin:miter;stroke-opacity:1" d="M 99.2015,529.512 99.2015,548.553 z" id="boundary" inkscape:connector-curvature="0" />
	<path style="fill:none;stroke:red;stroke-width:1px;stroke-linecap:butt;stroke-linejoin:miter;stroke-opacity:1" d="M 99.2015,548.553 99.2015,567.593 z" id="boundary" inkscape:connector-curvature="0" />
	<path style="fill:none;stroke:red;stroke-width:1px;stroke-linecap:butt;stroke-linejoin:miter;stroke-opacity:1" d="M 99.2015,586.633 99.2015,567.593 z" id="boundary" inkscape:connector-curvature="0" />
	<path style="fill:none;stroke:red;stroke-width:1px;stroke-linecap:butt;stroke-linejoin:miter;stroke-opacity:1" d="M 32.5605,348.63 28.7524,329.589 z" id="boundary" inkscape:connector-curvature="0" />
	<path style="fill:none;stroke:red;stroke-width:1px;stroke-linecap:butt;stroke-linejoin:miter;stroke-opacity:1" d="M 99.2015,586.633 99.2015,605.674 z" id="boundary" inkscape:connector-curvature="0" />
	<path style="fill:none;stroke:red;stroke-width:1px;stroke-linecap:butt;stroke-linejoin:miter;stroke-opacity:1" d="M 99.2015,624.714 99.2015,605.674 z" id="boundary" inkscape:connector-curvature="0" />
	<path style="fill:none;stroke:red;stroke-width:1px;stroke-linecap:butt;stroke-linejoin:miter;stroke-opacity:1" d="M 99.2015,643.754 99.2015,662.795 z" id="boundary" inkscape:connector-curvature="0" />
	<path style="fill:none;stroke:red;stroke-width:1px;stroke-linecap:butt;stroke-linejoin:miter;stroke-opacity:1" d="M 99.2015,681.835 108.722,698.971 z" id="boundary" inkscape:connector-curvature="0" />
	<path style="fill:none;stroke:red;stroke-width:1px;stroke-linecap:butt;stroke-linejoin:miter;stroke-opacity:1" d="M 108.722,698.971 108.722,718.012 z" id="boundary" inkscape:connector-curvature="0" />
	<path style="fill:none;stroke:red;stroke-width:1px;stroke-linecap:butt;stroke-linejoin:miter;stroke-opacity:1" d="M 99.2015,681.835 99.2015,662.795 z" id="boundary" inkscape:connector-curvature="0" />
	<path style="fill:none;stroke:red;stroke-width:1px;stroke-linecap:butt;stroke-linejoin:miter;stroke-opacity:1" d="M 99.2015,643.754 99.2015,624.714 z" id="boundary" inkscape:connector-curvature="0" />
	<path style="fill:none;stroke:red;stroke-width:1px;stroke-linecap:butt;stroke-linejoin:miter;stroke-opacity:1" d="M 112.53,737.052 108.722,718.012 z" id="boundary" inkscape:connector-curvature="0" />
	<path style="fill:none;stroke:red;stroke-width:1px;stroke-linecap:butt;stroke-linejoin:miter;stroke-opacity:1" d="M 118.242,756.092 112.53,737.052 z" id="boundary" inkscape:connector-curvature="0" />
	<path style="fill:none;stroke:red;stroke-width:1px;stroke-linecap:butt;stroke-linejoin:miter;stroke-opacity:1" d="M 118.242,756.092 122.05,775.132 z" id="boundary" inkscape:connector-curvature="0" />
	<path style="fill:none;stroke:red;stroke-width:1px;stroke-linecap:butt;stroke-linejoin:miter;stroke-opacity:1" d="M 118.242,971.248 118.242,990.288 z" id="boundary" inkscape:connector-curvature="0" />
	<path style="fill:none;stroke:red;stroke-width:1px;stroke-linecap:butt;stroke-linejoin:miter;stroke-opacity:1" d="M 137.282,996 118.242,990.288 z" id="boundary" inkscape:connector-curvature="0" />
	<path style="fill:none;stroke:red;stroke-width:1px;stroke-linecap:butt;stroke-linejoin:miter;stroke-opacity:1" d="M 122.05,775.132 127.762,794.173 z" id="boundary" inkscape:connector-curvature="0" />
	<path style="fill:none;stroke:red;stroke-width:1px;stroke-linecap:butt;stroke-linejoin:miter;stroke-opacity:1" d="M 137.282,811.309 127.762,794.173 z" id="boundary" inkscape:connector-curvature="0" />
	<path style="fill:none;stroke:red;stroke-width:1px;stroke-linecap:butt;stroke-linejoin:miter;stroke-opacity:1" d="M 127.762,942.687 118.242,971.248 z" id="boundary" inkscape:connector-curvature="0" />
	<path style="fill:none;stroke:red;stroke-width:1px;stroke-linecap:butt;stroke-linejoin:miter;stroke-opacity:1" d="M 146.802,371.478 139.186,352.438 z" id="boundary" inkscape:connector-curvature="0" />
	<path style="fill:none;stroke:red;stroke-width:1px;stroke-linecap:butt;stroke-linejoin:miter;stroke-opacity:1" d="M 156.322,388.614 146.802,371.478 z" id="boundary" inkscape:connector-curvature="0" />
	<path style="fill:none;stroke:red;stroke-width:1px;stroke-linecap:butt;stroke-linejoin:miter;stroke-opacity:1" d="M 146.802,849.39 139.186,830.349 z" id="boundary" inkscape:connector-curvature="0" />
	<path style="fill:none;stroke:red;stroke-width:1px;stroke-linecap:butt;stroke-linejoin:miter;stroke-opacity:1" d="M 139.186,830.349 137.282,811.309 z" id="boundary" inkscape:connector-curvature="0" />
	<path style="fill:none;stroke:red;stroke-width:1px;stroke-linecap:butt;stroke-linejoin:miter;stroke-opacity:1" d="M 163.939,407.655 177.267,422.887 z" id="boundary" inkscape:connector-curvature="0" />
	<path style="fill:none;stroke:red;stroke-width:1px;stroke-linecap:butt;stroke-linejoin:miter;stroke-opacity:1" d="M 163.939,407.655 156.322,388.614 z" id="boundary" inkscape:connector-curvature="0" />
	<path style="fill:none;stroke:red;stroke-width:1px;stroke-linecap:butt;stroke-linejoin:miter;stroke-opacity:1" d="M 139.186,352.438 139.186,333.397 z" id="boundary" inkscape:connector-curvature="0" />
	<path style="fill:none;stroke:red;stroke-width:1px;stroke-linecap:butt;stroke-linejoin:miter;stroke-opacity:1" d="M 184.883,346.726 184.883,327.685 z" id="boundary" inkscape:connector-curvature="0" />
	<path style="fill:none;stroke:red;stroke-width:1px;stroke-linecap:butt;stroke-linejoin:miter;stroke-opacity:1" d="M 188.691,365.766 184.883,346.726 z" id="boundary" inkscape:connector-curvature="0" />
	<path style="fill:none;stroke:red;stroke-width:1px;stroke-linecap:butt;stroke-linejoin:miter;stroke-opacity:1" d="M 194.403,384.806 194.403,403.846 z" id="boundary" inkscape:connector-curvature="0" />
	<path style="fill:none;stroke:red;stroke-width:1px;stroke-linecap:butt;stroke-linejoin:miter;stroke-opacity:1" d="M 188.691,365.766 194.403,384.806 z" id="boundary" inkscape:connector-curvature="0" />
	<path style="fill:none;stroke:red;stroke-width:1px;stroke-linecap:butt;stroke-linejoin:miter;stroke-opacity:1" d="M 194.403,403.846 177.267,422.887 z" id="boundary" inkscape:connector-curvature="0" />
	<path style="fill:none;stroke:red;stroke-width:1px;stroke-linecap:butt;stroke-linejoin:miter;stroke-opacity:1" d="M 146.802,868.43 146.802,849.39 z" id="boundary" inkscape:connector-curvature="0" />
	<path style="fill:none;stroke:red;stroke-width:1px;stroke-linecap:butt;stroke-linejoin:miter;stroke-opacity:1" d="M 146.802,887.47 146.802,868.43 z" id="boundary" inkscape:connector-curvature="0" />
	<path style="fill:none;stroke:red;stroke-width:1px;stroke-linecap:butt;stroke-linejoin:miter;stroke-opacity:1" d="M 146.802,887.47 137.282,904.607 z" id="boundary" inkscape:connector-curvature="0" />
	<path style="fill:none;stroke:red;stroke-width:1px;stroke-linecap:butt;stroke-linejoin:miter;stroke-opacity:1" d="M 137.282,904.607 137.282,923.647 z" id="boundary" inkscape:connector-curvature="0" />
	<path style="fill:none;stroke:red;stroke-width:1px;stroke-linecap:butt;stroke-linejoin:miter;stroke-opacity:1" d="M 137.282,923.647 127.762,942.687 z" id="boundary" inkscape:connector-curvature="0" />
	<path style="fill:none;stroke:red;stroke-width:1px;stroke-linecap:butt;stroke-linejoin:miter;stroke-opacity:1" d="M 156.322,996 137.282,996 z" id="boundary" inkscape:connector-curvature="0" />
	<path style="fill:none;stroke:red;stroke-width:1px;stroke-linecap:butt;stroke-linejoin:miter;stroke-opacity:1" d="M 175.363,996 156.322,996 z" id="boundary" inkscape:connector-curvature="0" />
	<path style="fill:none;stroke:red;stroke-width:1px;stroke-linecap:butt;stroke-linejoin:miter;stroke-opacity:1" d="M 213.443,996 194.403,996 z" id="boundary" inkscape:connector-curvature="0" />
	<path style="fill:none;stroke:red;stroke-width:1px;stroke-linecap:butt;stroke-linejoin:miter;stroke-opacity:1" d="M 194.403,996 175.363,996 z" id="boundary" inkscape:connector-curvature="0" />
	<path style="fill:none;stroke:red;stroke-width:1px;stroke-linecap:butt;stroke-linejoin:miter;stroke-opacity:1" d="M 251.524,996 232.484,996 z" id="boundary" inkscape:connector-curvature="0" />
	<path style="fill:none;stroke:red;stroke-width:1px;stroke-linecap:butt;stroke-linejoin:miter;stroke-opacity:1" d="M 289.605,996 270.564,996 z" id="boundary" inkscape:connector-curvature="0" />
	<path style="fill:none;stroke:red;stroke-width:1px;stroke-linecap:butt;stroke-linejoin:miter;stroke-opacity:1" d="M 270.564,996 251.524,996 z" id="boundary" inkscape:connector-curvature="0" />
	<path style="fill:none;stroke:red;stroke-width:1px;stroke-linecap:butt;stroke-linejoin:miter;stroke-opacity:1" d="M 232.484,996 213.443,996 z" id="boundary" inkscape:connector-curvature="0" />
	<path style="fill:none;stroke:red;stroke-width:1px;stroke-linecap:butt;stroke-linejoin:miter;stroke-opacity:1" d="M 308.645,996 289.605,996 z" id="boundary" inkscape:connector-curvature="0" />
	<path style="fill:none;stroke:red;stroke-width:1px;stroke-linecap:butt;stroke-linejoin:miter;stroke-opacity:1" d="M 301.029,331.493 320.069,337.205 z" id="boundary" inkscape:connector-curvature="0" />
	<path style="fill:none;stroke:red;stroke-width:1px;stroke-linecap:butt;stroke-linejoin:miter;stroke-opacity:1" d="M 489.528,85.8733 489.528,104.914 z" id="boundary" inkscape:connector-curvature="0" />
	<path style="fill:none;stroke:red;stroke-width:1px;stroke-linecap:butt;stroke-linejoin:miter;stroke-opacity:1" d="M 489.528,85.8733 489.528,66.833 z" id="boundary" inkscape:connector-curvature="0" />
	<path style="fill:none;stroke:red;stroke-width:1px;stroke-linecap:butt;stroke-linejoin:miter;stroke-opacity:1" d="M 489.528,104.914 489.528,123.954 z" id="boundary" inkscape:connector-curvature="0" />
	<path style="fill:none;stroke:red;stroke-width:1px;stroke-linecap:butt;stroke-linejoin:miter;stroke-opacity:1" d="M 489.528,142.994 489.528,162.035 z" id="boundary" inkscape:connector-curvature="0" />
	<path style="fill:none;stroke:red;stroke-width:1px;stroke-linecap:butt;stroke-linejoin:miter;stroke-opacity:1" d="M 489.528,123.954 489.528,142.994 z" id="boundary" inkscape:connector-curvature="0" />
	<path style="fill:none;stroke:red;stroke-width:1px;stroke-linecap:butt;stroke-linejoin:miter;stroke-opacity:1" d="M 489.528,162.035 489.528,181.075 z" id="boundary" inkscape:connector-curvature="0" />
	<path style="fill:none;stroke:red;stroke-width:1px;stroke-linecap:butt;stroke-linejoin:miter;stroke-opacity:1" d="M 514.28,23.0403 531.417,13.5202 z" id="boundary" inkscape:connector-curvature="0" />
	<path style="fill:none;stroke:red;stroke-width:1px;stroke-linecap:butt;stroke-linejoin:miter;stroke-opacity:1" d="M 531.417,13.5202 550.457,13.5202 z" id="boundary" inkscape:connector-curvature="0" />
	<path style="fill:none;stroke:red;stroke-width:1px;stroke-linecap:butt;stroke-linejoin:miter;stroke-opacity:1" d="M 550.457,13.5202 567.593,23.0403 z" id="boundary" inkscape:connector-curvature="0" />
	<path style="fill:none;stroke:red;stroke-width:1px;stroke-linecap:butt;stroke-linejoin:miter;stroke-opacity:1" d="M 489.528,181.075 489.528,200.115 z" id="boundary" inkscape:connector-curvature="0" />
	<path style="fill:none;stroke:red;stroke-width:1px;stroke-linecap:butt;stroke-linejoin:miter;stroke-opacity:1" d="M 489.528,200.115 480.008,228.676 z" id="boundary" inkscape:connector-curvature="0" />
	<path style="fill:none;stroke:red;stroke-width:1px;stroke-linecap:butt;stroke-linejoin:miter;stroke-opacity:1" d="M 499.048,38.2726 514.28,23.0403 z" id="boundary" inkscape:connector-curvature="0" />
	<path style="fill:none;stroke:red;stroke-width:1px;stroke-linecap:butt;stroke-linejoin:miter;stroke-opacity:1" d="M 489.528,66.833 499.048,38.2726 z" id="boundary" inkscape:connector-curvature="0" />
	<path style="fill:none;stroke:red;stroke-width:1px;stroke-linecap:butt;stroke-linejoin:miter;stroke-opacity:1" d="M 480.008,247.716 480.008,228.676 z" id="boundary" inkscape:connector-curvature="0" />
	<path style="fill:none;stroke:red;stroke-width:1px;stroke-linecap:butt;stroke-linejoin:miter;stroke-opacity:1" d="M 320.069,337.205 339.109,337.205 z" id="boundary" inkscape:connector-curvature="0" />
	<path style="fill:none;stroke:red;stroke-width:1px;stroke-linecap:butt;stroke-linejoin:miter;stroke-opacity:1" d="M 339.109,337.205 356.246,346.726 z" id="boundary" inkscape:connector-curvature="0" />
	<path style="fill:none;stroke:red;stroke-width:1px;stroke-linecap:butt;stroke-linejoin:miter;stroke-opacity:1" d="M 375.286,346.726 356.246,346.726 z" id="boundary" inkscape:connector-curvature="0" />
	<path style="fill:none;stroke:red;stroke-width:1px;stroke-linecap:butt;stroke-linejoin:miter;stroke-opacity:1" d="M 375.286,346.726 392.422,356.246 z" id="boundary" inkscape:connector-curvature="0" />
	<path style="fill:none;stroke:red;stroke-width:1px;stroke-linecap:butt;stroke-linejoin:miter;stroke-opacity:1" d="M 411.463,356.246 392.422,356.246 z" id="boundary" inkscape:connector-curvature="0" />
	<path style="fill:none;stroke:red;stroke-width:1px;stroke-linecap:butt;stroke-linejoin:miter;stroke-opacity:1" d="M 411.463,356.246 430.503,356.246 z" id="boundary" inkscape:connector-curvature="0" />
	<path style="fill:none;stroke:red;stroke-width:1px;stroke-linecap:butt;stroke-linejoin:miter;stroke-opacity:1" d="M 470.488,266.756 480.008,247.716 z" id="boundary" inkscape:connector-curvature="0" />
	<path style="fill:none;stroke:red;stroke-width:1px;stroke-linecap:butt;stroke-linejoin:miter;stroke-opacity:1" d="M 470.488,285.797 470.488,266.756 z" id="boundary" inkscape:connector-curvature="0" />
	<path style="fill:none;stroke:red;stroke-width:1px;stroke-linecap:butt;stroke-linejoin:miter;stroke-opacity:1" d="M 470.488,285.797 460.967,304.837 z" id="boundary" inkscape:connector-curvature="0" />
	<path style="fill:none;stroke:red;stroke-width:1px;stroke-linecap:butt;stroke-linejoin:miter;stroke-opacity:1" d="M 460.967,323.877 449.543,356.246 z" id="boundary" inkscape:connector-curvature="0" />
	<path style="fill:none;stroke:red;stroke-width:1px;stroke-linecap:butt;stroke-linejoin:miter;stroke-opacity:1" d="M 449.543,356.246 430.503,356.246 z" id="boundary" inkscape:connector-curvature="0" />
	<path style="fill:none;stroke:red;stroke-width:1px;stroke-linecap:butt;stroke-linejoin:miter;stroke-opacity:1" d="M 460.967,304.837 460.967,323.877 z" id="boundary" inkscape:connector-curvature="0" />
	<path style="fill:none;stroke:red;stroke-width:1px;stroke-linecap:butt;stroke-linejoin:miter;stroke-opacity:1" d="M 567.593,339.109 567.593,358.15 z" id="boundary" inkscape:connector-curvature="0" />
	<path style="fill:none;stroke:red;stroke-width:1px;stroke-linecap:butt;stroke-linejoin:miter;stroke-opacity:1" d="M 586.633,196.307 586.633,215.347 z" id="boundary" inkscape:connector-curvature="0" />
	<path style="fill:none;stroke:red;stroke-width:1px;stroke-linecap:butt;stroke-linejoin:miter;stroke-opacity:1" d="M 596.154,129.666 596.154,148.706 z" id="boundary" inkscape:connector-curvature="0" />
	<path style="fill:none;stroke:red;stroke-width:1px;stroke-linecap:butt;stroke-linejoin:miter;stroke-opacity:1" d="M 586.633,196.307 596.154,167.747 z" id="boundary" inkscape:connector-curvature="0" />
	<path style="fill:none;stroke:red;stroke-width:1px;stroke-linecap:butt;stroke-linejoin:miter;stroke-opacity:1" d="M 586.633,215.347 586.633,234.388 z" id="boundary" inkscape:connector-curvature="0" />
	<path style="fill:none;stroke:red;stroke-width:1px;stroke-linecap:butt;stroke-linejoin:miter;stroke-opacity:1" d="M 586.633,253.428 586.633,272.468 z" id="boundary" inkscape:connector-curvature="0" />
	<path style="fill:none;stroke:red;stroke-width:1px;stroke-linecap:butt;stroke-linejoin:miter;stroke-opacity:1" d="M 586.633,234.388 586.633,253.428 z" id="boundary" inkscape:connector-curvature="0" />
	<path style="fill:none;stroke:red;stroke-width:1px;stroke-linecap:butt;stroke-linejoin:miter;stroke-opacity:1" d="M 586.633,272.468 577.113,301.029 z" id="boundary" inkscape:connector-curvature="0" />
	<path style="fill:none;stroke:red;stroke-width:1px;stroke-linecap:butt;stroke-linejoin:miter;stroke-opacity:1" d="M 577.113,320.069 577.113,301.029 z" id="boundary" inkscape:connector-curvature="0" />
	<path style="fill:none;stroke:red;stroke-width:1px;stroke-linecap:butt;stroke-linejoin:miter;stroke-opacity:1" d="M 577.113,320.069 567.593,339.109 z" id="boundary" inkscape:connector-curvature="0" />
	<path style="fill:none;stroke:red;stroke-width:1px;stroke-linecap:butt;stroke-linejoin:miter;stroke-opacity:1" d="M 596.154,72.5451 596.154,91.5854 z" id="boundary" inkscape:connector-curvature="0" />
	<path style="fill:none;stroke:red;stroke-width:1px;stroke-linecap:butt;stroke-linejoin:miter;stroke-opacity:1" d="M 596.154,72.5451 590.441,53.5048 z" id="boundary" inkscape:connector-curvature="0" />
	<path style="fill:none;stroke:red;stroke-width:1px;stroke-linecap:butt;stroke-linejoin:miter;stroke-opacity:1" d="M 596.154,91.5854 596.154,110.626 z" id="boundary" inkscape:connector-curvature="0" />
	<path style="fill:none;stroke:red;stroke-width:1px;stroke-linecap:butt;stroke-linejoin:miter;stroke-opacity:1" d="M 596.154,110.626 596.154,129.666 z" id="boundary" inkscape:connector-curvature="0" />
	<path style="fill:none;stroke:red;stroke-width:1px;stroke-linecap:butt;stroke-linejoin:miter;stroke-opacity:1" d="M 596.154,167.747 596.154,148.706 z" id="boundary" inkscape:connector-curvature="0" />
	<path style="fill:none;stroke:red;stroke-width:1px;stroke-linecap:butt;stroke-linejoin:miter;stroke-opacity:1" d="M 590.441,53.5048 582.825,34.4645 z" id="boundary" inkscape:connector-curvature="0" />
	<path style="fill:none;stroke:red;stroke-width:1px;stroke-linecap:butt;stroke-linejoin:miter;stroke-opacity:1" d="M 567.593,377.19 567.593,358.15 z" id="boundary" inkscape:connector-curvature="0" />
	<path style="fill:none;stroke:red;stroke-width:1px;stroke-linecap:butt;stroke-linejoin:miter;stroke-opacity:1" d="M 567.593,396.23 567.593,377.19 z" id="boundary" inkscape:connector-curvature="0" />
	<path style="fill:none;stroke:red;stroke-width:1px;stroke-linecap:butt;stroke-linejoin:miter;stroke-opacity:1" d="M 567.593,396.23 567.593,415.271 z" id="boundary" inkscape:connector-curvature="0" />
	<path style="fill:none;stroke:red;stroke-width:1px;stroke-linecap:butt;stroke-linejoin:miter;stroke-opacity:1" d="M 567.593,453.351 567.593,434.311 z" id="boundary" inkscape:connector-curvature="0" />
	<path style="fill:none;stroke:red;stroke-width:1px;stroke-linecap:butt;stroke-linejoin:miter;stroke-opacity:1" d="M 567.593,434.311 567.593,415.271 z" id="boundary" inkscape:connector-curvature="0" />
	<path style="fill:none;stroke:red;stroke-width:1px;stroke-linecap:butt;stroke-linejoin:miter;stroke-opacity:1" d="M 786.557,441.927 803.693,432.407 z" id="boundary" inkscape:connector-curvature="0" />
	<path style="fill:none;stroke:red;stroke-width:1px;stroke-linecap:butt;stroke-linejoin:miter;stroke-opacity:1" d="M 803.693,432.407 822.733,432.407 z" id="boundary" inkscape:connector-curvature="0" />
	<path style="fill:none;stroke:red;stroke-width:1px;stroke-linecap:butt;stroke-linejoin:miter;stroke-opacity:1" d="M 822.733,432.407 841.774,432.407 z" id="boundary" inkscape:connector-curvature="0" />
	<path style="fill:none;stroke:red;stroke-width:1px;stroke-linecap:butt;stroke-linejoin:miter;stroke-opacity:1" d="M 841.774,432.407 858.91,441.927 z" id="boundary" inkscape:connector-curvature="0" />
	<path style="fill:none;stroke:red;stroke-width:1px;stroke-linecap:butt;stroke-linejoin:miter;stroke-opacity:1" d="M 752.284,460.967 769.42,451.447 z" id="boundary" inkscape:connector-curvature="0" />
	<path style="fill:none;stroke:red;stroke-width:1px;stroke-linecap:butt;stroke-linejoin:miter;stroke-opacity:1" d="M 876.046,451.447 858.91,441.927 z" id="boundary" inkscape:connector-curvature="0" />
	<path style="fill:none;stroke:red;stroke-width:1px;stroke-linecap:butt;stroke-linejoin:miter;stroke-opacity:1" d="M 769.42,451.447 786.557,441.927 z" id="boundary" inkscape:connector-curvature="0" />
	<path style="fill:none;stroke:red;stroke-width:1px;stroke-linecap:butt;stroke-linejoin:miter;stroke-opacity:1" d="M 876.046,451.447 881.758,470.488 z" id="boundary" inkscape:connector-curvature="0" />
	<path style="fill:none;stroke:red;stroke-width:1px;stroke-linecap:butt;stroke-linejoin:miter;stroke-opacity:1" d="M 752.284,460.967 735.148,470.488 z" id="boundary" inkscape:connector-curvature="0" />
	<path style="fill:none;stroke:red;stroke-width:1px;stroke-linecap:butt;stroke-linejoin:miter;stroke-opacity:1" d="M 567.593,23.0403 582.825,34.4645 z" id="boundary" inkscape:connector-curvature="0" />
	<path style="fill:none;stroke:red;stroke-width:1px;stroke-linecap:butt;stroke-linejoin:miter;stroke-opacity:1" d="M 567.593,453.351 558.073,481.912 z" id="boundary" inkscape:connector-curvature="0" />
	<path style="fill:none;stroke:red;stroke-width:1px;stroke-linecap:butt;stroke-linejoin:miter;stroke-opacity:1" d="M 558.073,500.952 558.073,519.992 z" id="boundary" inkscape:connector-curvature="0" />
	<path style="fill:none;stroke:red;stroke-width:1px;stroke-linecap:butt;stroke-linejoin:miter;stroke-opacity:1" d="M 567.593,537.129 558.073,519.992 z" id="boundary" inkscape:connector-curvature="0" />
	<path style="fill:none;stroke:red;stroke-width:1px;stroke-linecap:butt;stroke-linejoin:miter;stroke-opacity:1" d="M 567.593,537.129 567.593,556.169 z" id="boundary" inkscape:connector-curvature="0" />
	<path style="fill:none;stroke:red;stroke-width:1px;stroke-linecap:butt;stroke-linejoin:miter;stroke-opacity:1" d="M 552.361,898.894 567.593,881.758 z" id="boundary" inkscape:connector-curvature="0" />
	<path style="fill:none;stroke:red;stroke-width:1px;stroke-linecap:butt;stroke-linejoin:miter;stroke-opacity:1" d="M 567.593,881.758 582.825,868.43 z" id="boundary" inkscape:connector-curvature="0" />
	<path style="fill:none;stroke:red;stroke-width:1px;stroke-linecap:butt;stroke-linejoin:miter;stroke-opacity:1" d="M 609.482,594.25 594.25,580.921 z" id="boundary" inkscape:connector-curvature="0" />
	<path style="fill:none;stroke:red;stroke-width:1px;stroke-linecap:butt;stroke-linejoin:miter;stroke-opacity:1" d="M 594.25,580.921 586.633,561.881 z" id="boundary" inkscape:connector-curvature="0" />
	<path style="fill:none;stroke:red;stroke-width:1px;stroke-linecap:butt;stroke-linejoin:miter;stroke-opacity:1" d="M 582.825,868.43 596.154,853.198 z" id="boundary" inkscape:connector-curvature="0" />
	<path style="fill:none;stroke:red;stroke-width:1px;stroke-linecap:butt;stroke-linejoin:miter;stroke-opacity:1" d="M 596.154,853.198 611.386,839.869 z" id="boundary" inkscape:connector-curvature="0" />
	<path style="fill:none;stroke:red;stroke-width:1px;stroke-linecap:butt;stroke-linejoin:miter;stroke-opacity:1" d="M 611.386,839.869 624.714,824.637 z" id="boundary" inkscape:connector-curvature="0" />
	<path style="fill:none;stroke:red;stroke-width:1px;stroke-linecap:butt;stroke-linejoin:miter;stroke-opacity:1" d="M 624.714,824.637 639.946,811.309 z" id="boundary" inkscape:connector-curvature="0" />
	<path style="fill:none;stroke:red;stroke-width:1px;stroke-linecap:butt;stroke-linejoin:miter;stroke-opacity:1" d="M 558.073,500.952 558.073,481.912 z" id="boundary" inkscape:connector-curvature="0" />
	<path style="fill:none;stroke:red;stroke-width:1px;stroke-linecap:butt;stroke-linejoin:miter;stroke-opacity:1" d="M 327.685,996 308.645,996 z" id="boundary" inkscape:connector-curvature="0" />
	<path style="fill:none;stroke:red;stroke-width:1px;stroke-linecap:butt;stroke-linejoin:miter;stroke-opacity:1" d="M 346.726,996 327.685,996 z" id="boundary" inkscape:connector-curvature="0" />
	<path style="fill:none;stroke:red;stroke-width:1px;stroke-linecap:butt;stroke-linejoin:miter;stroke-opacity:1" d="M 384.806,996 365.766,996 z" id="boundary" inkscape:connector-curvature="0" />
	<path style="fill:none;stroke:red;stroke-width:1px;stroke-linecap:butt;stroke-linejoin:miter;stroke-opacity:1" d="M 422.887,996 403.846,996 z" id="boundary" inkscape:connector-curvature="0" />
	<path style="fill:none;stroke:red;stroke-width:1px;stroke-linecap:butt;stroke-linejoin:miter;stroke-opacity:1" d="M 403.846,996 384.806,996 z" id="boundary" inkscape:connector-curvature="0" />
	<path style="fill:none;stroke:red;stroke-width:1px;stroke-linecap:butt;stroke-linejoin:miter;stroke-opacity:1" d="M 365.766,996 346.726,996 z" id="boundary" inkscape:connector-curvature="0" />
	<path style="fill:none;stroke:red;stroke-width:1px;stroke-linecap:butt;stroke-linejoin:miter;stroke-opacity:1" d="M 487.624,935.071 500.952,919.839 z" id="boundary" inkscape:connector-curvature="0" />
	<path style="fill:none;stroke:red;stroke-width:1px;stroke-linecap:butt;stroke-linejoin:miter;stroke-opacity:1" d="M 487.624,935.071 472.392,948.399 z" id="boundary" inkscape:connector-curvature="0" />
	<path style="fill:none;stroke:red;stroke-width:1px;stroke-linecap:butt;stroke-linejoin:miter;stroke-opacity:1" d="M 518.088,910.319 537.129,910.319 z" id="boundary" inkscape:connector-curvature="0" />
	<path style="fill:none;stroke:red;stroke-width:1px;stroke-linecap:butt;stroke-linejoin:miter;stroke-opacity:1" d="M 500.952,919.839 518.088,910.319 z" id="boundary" inkscape:connector-curvature="0" />
	<path style="fill:none;stroke:red;stroke-width:1px;stroke-linecap:butt;stroke-linejoin:miter;stroke-opacity:1" d="M 552.361,898.894 537.129,910.319 z" id="boundary" inkscape:connector-curvature="0" />
	<path style="fill:none;stroke:red;stroke-width:1px;stroke-linecap:butt;stroke-linejoin:miter;stroke-opacity:1" d="M 460.967,990.288 441.927,996 z" id="boundary" inkscape:connector-curvature="0" />
	<path style="fill:none;stroke:red;stroke-width:1px;stroke-linecap:butt;stroke-linejoin:miter;stroke-opacity:1" d="M 462.871,967.44 460.967,990.288 z" id="boundary" inkscape:connector-curvature="0" />
	<path style="fill:none;stroke:red;stroke-width:1px;stroke-linecap:butt;stroke-linejoin:miter;stroke-opacity:1" d="M 462.871,967.44 472.392,948.399 z" id="boundary" inkscape:connector-curvature="0" />
	<path style="fill:none;stroke:red;stroke-width:1px;stroke-linecap:butt;stroke-linejoin:miter;stroke-opacity:1" d="M 441.927,996 422.887,996 z" id="boundary" inkscape:connector-curvature="0" />
	<path style="fill:none;stroke:red;stroke-width:1px;stroke-linecap:butt;stroke-linejoin:miter;stroke-opacity:1" d="M 706.587,499.048 719.916,483.816 z" id="boundary" inkscape:connector-curvature="0" />
	<path style="fill:none;stroke:red;stroke-width:1px;stroke-linecap:butt;stroke-linejoin:miter;stroke-opacity:1" d="M 691.355,512.376 678.027,527.608 z" id="boundary" inkscape:connector-curvature="0" />
	<path style="fill:none;stroke:red;stroke-width:1px;stroke-linecap:butt;stroke-linejoin:miter;stroke-opacity:1" d="M 691.355,512.376 706.587,499.048 z" id="boundary" inkscape:connector-curvature="0" />
	<path style="fill:none;stroke:red;stroke-width:1px;stroke-linecap:butt;stroke-linejoin:miter;stroke-opacity:1" d="M 653.274,559.977 662.795,540.937 z" id="boundary" inkscape:connector-curvature="0" />
	<path style="fill:none;stroke:red;stroke-width:1px;stroke-linecap:butt;stroke-linejoin:miter;stroke-opacity:1" d="M 662.795,540.937 678.027,527.608 z" id="boundary" inkscape:connector-curvature="0" />
	<path style="fill:none;stroke:red;stroke-width:1px;stroke-linecap:butt;stroke-linejoin:miter;stroke-opacity:1" d="M 653.274,559.977 638.042,575.209 z" id="boundary" inkscape:connector-curvature="0" />
	<path style="fill:none;stroke:red;stroke-width:1px;stroke-linecap:butt;stroke-linejoin:miter;stroke-opacity:1" d="M 719.916,483.816 735.148,470.488 z" id="boundary" inkscape:connector-curvature="0" />
	<path style="fill:none;stroke:red;stroke-width:1px;stroke-linecap:butt;stroke-linejoin:miter;stroke-opacity:1" d="M 881.758,470.488 881.758,489.528 z" id="boundary" inkscape:connector-curvature="0" />
	<path style="fill:none;stroke:red;stroke-width:1px;stroke-linecap:butt;stroke-linejoin:miter;stroke-opacity:1" d="M 881.758,489.528 868.43,506.664 z" id="boundary" inkscape:connector-curvature="0" />
	<path style="fill:none;stroke:red;stroke-width:1px;stroke-linecap:butt;stroke-linejoin:miter;stroke-opacity:1" d="M 868.43,506.664 849.39,516.184 z" id="boundary" inkscape:connector-curvature="0" />
	<path style="fill:none;stroke:red;stroke-width:1px;stroke-linecap:butt;stroke-linejoin:miter;stroke-opacity:1" d="M 815.117,548.553 834.157,529.512 z" id="boundary" inkscape:connector-curvature="0" />
	<path style="fill:none;stroke:red;stroke-width:1px;stroke-linecap:butt;stroke-linejoin:miter;stroke-opacity:1" d="M 815.117,548.553 801.789,563.785 z" id="boundary" inkscape:connector-curvature="0" />
	<path style="fill:none;stroke:red;stroke-width:1px;stroke-linecap:butt;stroke-linejoin:miter;stroke-opacity:1" d="M 834.157,529.512 849.39,516.184 z" id="boundary" inkscape:connector-curvature="0" />
	<path style="fill:none;stroke:red;stroke-width:1px;stroke-linecap:butt;stroke-linejoin:miter;stroke-opacity:1" d="M 792.269,582.825 801.789,563.785 z" id="boundary" inkscape:connector-curvature="0" />
	<path style="fill:none;stroke:red;stroke-width:1px;stroke-linecap:butt;stroke-linejoin:miter;stroke-opacity:1" d="M 638.042,575.209 628.522,594.25 z" id="boundary" inkscape:connector-curvature="0" />
	<path style="fill:none;stroke:red;stroke-width:1px;stroke-linecap:butt;stroke-linejoin:miter;stroke-opacity:1" d="M 628.522,594.25 609.482,594.25 z" id="boundary" inkscape:connector-curvature="0" />
	<path style="fill:none;stroke:red;stroke-width:1px;stroke-linecap:butt;stroke-linejoin:miter;stroke-opacity:1" d="M 639.946,811.309 653.274,786.557 z" id="boundary" inkscape:connector-curvature="0" />
	<path style="fill:none;stroke:red;stroke-width:1px;stroke-linecap:butt;stroke-linejoin:miter;stroke-opacity:1" d="M 662.795,767.516 678.027,754.188 z" id="boundary" inkscape:connector-curvature="0" />
	<path style="fill:none;stroke:red;stroke-width:1px;stroke-linecap:butt;stroke-linejoin:miter;stroke-opacity:1" d="M 653.274,786.557 662.795,767.516 z" id="boundary" inkscape:connector-curvature="0" />
	<path style="fill:none;stroke:red;stroke-width:1px;stroke-linecap:butt;stroke-linejoin:miter;stroke-opacity:1" d="M 691.355,729.436 678.027,754.188 z" id="boundary" inkscape:connector-curvature="0" />
	<path style="fill:none;stroke:red;stroke-width:1px;stroke-linecap:butt;stroke-linejoin:miter;stroke-opacity:1" d="M 691.355,729.436 706.587,716.107 z" id="boundary" inkscape:connector-curvature="0" />
	<path style="fill:none;stroke:red;stroke-width:1px;stroke-linecap:butt;stroke-linejoin:miter;stroke-opacity:1" d="M 748.476,634.234 763.708,620.906 z" id="boundary" inkscape:connector-curvature="0" />
	<path style="fill:none;stroke:red;stroke-width:1px;stroke-linecap:butt;stroke-linejoin:miter;stroke-opacity:1" d="M 735.148,658.987 748.476,634.234 z" id="boundary" inkscape:connector-curvature="0" />
	<path style="fill:none;stroke:red;stroke-width:1px;stroke-linecap:butt;stroke-linejoin:miter;stroke-opacity:1" d="M 777.036,596.154 792.269,582.825 z" id="boundary" inkscape:connector-curvature="0" />
	<path style="fill:none;stroke:red;stroke-width:1px;stroke-linecap:butt;stroke-linejoin:miter;stroke-opacity:1" d="M 763.708,620.906 777.036,596.154 z" id="boundary" inkscape:connector-curvature="0" />
	<path style="fill:none;stroke:red;stroke-width:1px;stroke-linecap:butt;stroke-linejoin:miter;stroke-opacity:1" d="M 706.587,716.107 710.395,691.355 z" id="boundary" inkscape:connector-curvature="0" />
	<path style="fill:none;stroke:red;stroke-width:1px;stroke-linecap:butt;stroke-linejoin:miter;stroke-opacity:1" d="M 710.395,691.355 725.628,678.027 z" id="boundary" inkscape:connector-curvature="0" />
	<path style="fill:none;stroke:red;stroke-width:1px;stroke-linecap:butt;stroke-linejoin:miter;stroke-opacity:1" d="M 725.628,678.027 735.148,658.987 z" id="boundary" inkscape:connector-curvature="0" />
	<circle cx="4" cy="181.075" r="4" fill="#0" id="circle0"/>
	<circle cx="4" cy="200.115" r="4" fill="#0" id="circle1"/>
	<circle cx="4" cy="219.155" r="4" fill="#0" id="circle2"/>
	<circle cx="4" cy="238.196" r="4" fill="#0" id="circle3"/>
	<circle cx="4" cy="257.236" r="4" fill="#0" id="circle4"/>
	<circle cx="13.5202" cy="274.372" r="4" fill="#0" id="circle5"/>
	<circle cx="13.5202" cy="293.413" r="4" fill="#0" id="circle6"/>
	<circle cx="19.2322" cy="165.843" r="4" fill="#0" id="circle7"/>
	<circle cx="23.0403" cy="310.549" r="4" fill="#0" id="circle8"/>
	<circle cx="28.7524" cy="329.589" r="4" fill="#0" id="circle9"/>
	<circle cx="32.5605" cy="348.63" r="4" fill="#0" id="circle10"/>
	<circle cx="38.2726" cy="165.843" r="4" fill="#0" id="circle11"/>
	<circle cx="42.0806" cy="365.766" r="4" fill="#0" id="circle12"/>
	<circle cx="42.0806" cy="384.806" r="4" fill="#0" id="circle13"/>
	<circle cx="51.6008" cy="401.942" r="4" fill="#0" id="circle14"/>
	<circle cx="57.3129" cy="165.843" r="4" fill="#0" id="circle15"/>
	<circle cx="61.1209" cy="419.079" r="4" fill="#0" id="circle16"/>
	<circle cx="70.6411" cy="436.215" r="4" fill="#0" id="circle17"/>
	<circle cx="74.4491" cy="175.363" r="4" fill="#0" id="circle18"/>
	<circle cx="80.1612" cy="453.351" r="4" fill="#0" id="circle19"/>
	<circle cx="85.8733" cy="472.392" r="4" fill="#0" id="circle20"/>
	<circle cx="89.6814" cy="188.691" r="4" fill="#0" id="circle21"/>
	<circle cx="89.6814" cy="491.432" r="4" fill="#0" id="circle22"/>
	<circle cx="95.3935" cy="510.472" r="4" fill="#0" id="circle23"/>
	<circle cx="97.2975" cy="207.731" r="4" fill="#0" id="circle24"/>
	<circle cx="99.2015" cy="529.512" r="4" fill="#0" id="circle25"/>
	<circle cx="99.2015" cy="548.553" r="4" fill="#0" id="circle26"/>
	<circle cx="99.2015" cy="567.593" r="4" fill="#0" id="circle27"/>
	<circle cx="99.2015" cy="586.633" r="4" fill="#0" id="circle28"/>
	<circle cx="99.2015" cy="605.674" r="4" fill="#0" id="circle29"/>
	<circle cx="99.2015" cy="624.714" r="4" fill="#0" id="circle30"/>
	<circle cx="99.2015" cy="643.754" r="4" fill="#0" id="circle31"/>
	<circle cx="99.2015" cy="662.795" r="4" fill="#0" id="circle32"/>
	<circle cx="99.2015" cy="681.835" r="4" fill="#0" id="circle33"/>
	<circle cx="101.106" cy="226.772" r="4" fill="#0" id="circle34"/>
	<circle cx="106.818" cy="245.812" r="4" fill="#0" id="circle35"/>
	<circle cx="108.722" cy="698.971" r="4" fill="#0" id="circle36"/>
	<circle cx="108.722" cy="718.012" r="4" fill="#0" id="circle37"/>
	<circle cx="110.626" cy="264.852" r="4" fill="#0" id="circle38"/>
	<circle cx="110.626" cy="283.893" r="4" fill="#0" id="circle39"/>
	<circle cx="112.53" cy="737.052" r="4" fill="#0" id="circle40"/>
	<circle cx="118.242" cy="756.092" r="4" fill="#0" id="circle41"/>
	<circle cx="118.242" cy="971.248" r="4" fill="#0" id="circle42"/>
	<circle cx="118.242" cy="990.288" r="4" fill="#0" id="circle43"/>
	<circle cx="120.146" cy="301.029" r="4" fill="#0" id="circle44"/>
	<circle cx="122.05" cy="775.132" r="4" fill="#0" id="circle45"/>
	<circle cx="123.954" cy="320.069" r="4" fill="#0" id="circle46"/>
	<circle cx="127.762" cy="794.173" r="4" fill="#0" id="circle47"/>
	<circle cx="127.762" cy="942.687" r="4" fill="#0" id="circle48"/>
	<circle cx="137.282" cy="811.309" r="4" fill="#0" id="circle49"/>
	<circle cx="137.282" cy="904.607" r="4" fill="#0" id="circle50"/>
	<circle cx="137.282" cy="923.647" r="4" fill="#0" id="circle51"/>
	<circle cx="137.282" cy="996" r="4" fill="#0" id="circle52"/>
	<circle cx="139.186" cy="333.397" r="4" fill="#0" id="circle53"/>
	<circle cx="139.186" cy="352.438" r="4" fill="#0" id="circle54"/>
	<circle cx="139.186" cy="830.349" r="4" fill="#0" id="circle55"/>
	<circle cx="146.802" cy="371.478" r="4" fill="#0" id="circle56"/>
	<circle cx="146.802" cy="849.39" r="4" fill="#0" id="circle57"/>
	<circle cx="146.802" cy="868.43" r="4" fill="#0" id="circle58"/>
	<circle cx="146.802" cy="887.47" r="4" fill="#0" id="circle59"/>
	<circle cx="156.322" cy="28.7524" r="4" fill="#0" id="circle60"/>
	<circle cx="156.322" cy="47.7927" r="4" fill="#0" id="circle61"/>
	<circle cx="156.322" cy="66.833" r="4" fill="#0" id="circle62"/>
	<circle cx="156.322" cy="85.8733" r="4" fill="#0" id="circle63"/>
	<circle cx="156.322" cy="104.914" r="4" fill="#0" id="circle64"/>
	<circle cx="156.322" cy="123.954" r="4" fill="#0" id="circle65"/>
	<circle cx="156.322" cy="142.994" r="4" fill="#0" id="circle66"/>
	<circle cx="156.322" cy="162.035" r="4" fill="#0" id="circle67"/>
	<circle cx="156.322" cy="388.614" r="4" fill="#0" id="circle68"/>
	<circle cx="156.322" cy="996" r="4" fill="#0" id="circle69"/>
	<circle cx="163.939" cy="407.655" r="4" fill="#0" id="circle70"/>
	<circle cx="165.843" cy="179.171" r="4" fill="#0" id="circle71"/>
	<circle cx="171.555" cy="13.5202" r="4" fill="#0" id="circle72"/>
	<circle cx="175.363" cy="196.307" r="4" fill="#0" id="circle73"/>
	<circle cx="175.363" cy="215.347" r="4" fill="#0" id="circle74"/>
	<circle cx="175.363" cy="234.388" r="4" fill="#0" id="circle75"/>
	<circle cx="175.363" cy="253.428" r="4" fill="#0" id="circle76"/>
	<circle cx="175.363" cy="272.468" r="4" fill="#0" id="circle77"/>
	<circle cx="175.363" cy="291.509" r="4" fill="#0" id="circle78"/>
	<circle cx="175.363" cy="310.549" r="4" fill="#0" id="circle79"/>
	<circle cx="175.363" cy="996" r="4" fill="#0" id="circle80"/>
	<circle cx="177.267" cy="422.887" r="4" fill="#0" id="circle81"/>
	<circle cx="184.883" cy="327.685" r="4" fill="#0" id="circle82"/>
	<circle cx="184.883" cy="346.726" r="4" fill="#0" id="circle83"/>
	<circle cx="188.691" cy="4" r="4" fill="#0" id="circle84"/>
	<circle cx="188.691" cy="365.766" r="4" fill="#0" id="circle85"/>
	<circle cx="194.403" cy="384.806" r="4" fill="#0" id="circle86"/>
	<circle cx="194.403" cy="403.846" r="4" fill="#0" id="circle87"/>
	<circle cx="194.403" cy="996" r="4" fill="#0" id="circle88"/>
	<circle cx="207.731" cy="4" r="4" fill="#0" id="circle89"/>
	<circle cx="213.443" cy="996" r="4" fill="#0" id="circle90"/>
	<circle cx="226.772" cy="4" r="4" fill="#0" id="circle91"/>
	<circle cx="232.484" cy="996" r="4" fill="#0" id="circle92"/>
	<circle cx="242.004" cy="17.3282" r="4" fill="#0" id="circle93"/>
	<circle cx="251.524" cy="996" r="4" fill="#0" id="circle94"/>
	<circle cx="253.428" cy="32.5605" r="4" fill="#0" id="circle95"/>
	<circle cx="262.948" cy="49.6967" r="4" fill="#0" id="circle96"/>
	<circle cx="262.948" cy="68.737" r="4" fill="#0" id="circle97"/>
	<circle cx="262.948" cy="87.7774" r="4" fill="#0" id="circle98"/>
	<circle cx="262.948" cy="106.818" r="4" fill="#0" id="circle99"/>
	<circle cx="262.948" cy="125.858" r="4" fill="#0" id="circle100"/>
	<circle cx="270.564" cy="996" r="4" fill="#0" id="circle101"/>
	<circle cx="272.468" cy="142.994" r="4" fill="#0" id="circle102"/>
	<circle cx="272.468" cy="162.035" r="4" fill="#0" id="circle103"/>
	<circle cx="272.468" cy="181.075" r="4" fill="#0" id="circle104"/>
	<circle cx="272.468" cy="200.115" r="4" fill="#0" id="circle105"/>
	<circle cx="280.084" cy="219.155" r="4" fill="#0" id="circle106"/>
	<circle cx="281.988" cy="238.196" r="4" fill="#0" id="circle107"/>
	<circle cx="289.605" cy="257.236" r="4" fill="#0" id="circle108"/>
	<circle cx="289.605" cy="996" r="4" fill="#0" id="circle109"/>
	<circle cx="291.509" cy="276.276" r="4" fill="#0" id="circle110"/>
	<circle cx="291.509" cy="295.317" r="4" fill="#0" id="circle111"/>
	<circle cx="301.029" cy="312.453" r="4" fill="#0" id="circle112"/>
	<circle cx="301.029" cy="331.493" r="4" fill="#0" id="circle113"/>
	<circle cx="308.645" cy="996" r="4" fill="#0" id="circle114"/>
	<circle cx="320.069" cy="337.205" r="4" fill="#0" id="circle115"/>
	<circle cx="327.685" cy="996" r="4" fill="#0" id="circle116"/>
	<circle cx="339.109" cy="337.205" r="4" fill="#0" id="circle117"/>
	<circle cx="346.726" cy="996" r="4" fill="#0" id="circle118"/>
	<circle cx="356.246" cy="346.726" r="4" fill="#0" id="circle119"/>
	<circle cx="365.766" cy="996" r="4" fill="#0" id="circle120"/>
	<circle cx="375.286" cy="346.726" r="4" fill="#0" id="circle121"/>
	<circle cx="384.806" cy="996" r="4" fill="#0" id="circle122"/>
	<circle cx="392.422" cy="356.246" r="4" fill="#0" id="circle123"/>
	<circle cx="403.846" cy="996" r="4" fill="#0" id="circle124"/>
	<circle cx="411.463" cy="356.246" r="4" fill="#0" id="circle125"/>
	<circle cx="422.887" cy="996" r="4" fill="#0" id="circle126"/>
	<circle cx="430.503" cy="356.246" r="4" fill="#0" id="circle127"/>
	<circle cx="441.927" cy="996" r="4" fill="#0" id="circle128"/>
	<circle cx="449.543" cy="356.246" r="4" fill="#0" id="circle129"/>
	<circle cx="460.967" cy="304.837" r="4" fill="#0" id="circle130"/>
	<circle cx="460.967" cy="323.877" r="4" fill="#0" id="circle131"/>
	<circle cx="460.967" cy="990.288" r="4" fill="#0" id="circle132"/>
	<circle cx="462.871" cy="967.44" r="4" fill="#0" id="circle133"/>
	<circle cx="470.488" cy="266.756" r="4" fill="#0" id="circle134"/>
	<circle cx="470.488" cy="285.797" r="4" fill="#0" id="circle135"/>
	<circle cx="472.392" cy="948.399" r="4" fill="#0" id="circle136"/>
	<circle cx="480.008" cy="228.676" r="4" fill="#0" id="circle137"/>
	<circle cx="480.008" cy="247.716" r="4" fill="#0" id="circle138"/>
	<circle cx="487.624" cy="935.071" r="4" fill="#0" id="circle139"/>
	<circle cx="489.528" cy="66.833" r="4" fill="#0" id="circle140"/>
	<circle cx="489.528" cy="85.8733" r="4" fill="#0" id="circle141"/>
	<circle cx="489.528" cy="104.914" r="4" fill="#0" id="circle142"/>
	<circle cx="489.528" cy="123.954" r="4" fill="#0" id="circle143"/>
	<circle cx="489.528" cy="142.994" r="4" fill="#0" id="circle144"/>
	<circle cx="489.528" cy="162.035" r="4" fill="#0" id="circle145"/>
	<circle cx="489.528" cy="181.075" r="4" fill="#0" id="circle146"/>
	<circle cx="489.528" cy="200.115" r="4" fill="#0" id="circle147"/>
	<circle cx="499.048" cy="38.2726" r="4" fill="#0" id="circle148"/>
	<circle cx="500.952" cy="919.839" r="4" fill="#0" id="circle149"/>
	<circle cx="514.28" cy="23.0403" r="4" fill="#0" id="circle150"/>
	<circle cx="518.088" cy="910.319" r="4" fill="#0" id="circle151"/>
	<circle cx="531.417" cy="13.5202" r="4" fill="#0" id="circle152"/>
	<circle cx="537.129" cy="910.319" r="4" fill="#0" id="circle153"/>
	<circle cx="550.457" cy="13.5202" r="4" fill="#0" id="circle154"/>
	<circle cx="552.361" cy="898.894" r="4" fill="#0" id="circle155"/>
	<circle cx="558.073" cy="481.912" r="4" fill="#0" id="circle156"/>
	<circle cx="558.073" cy="500.952" r="4" fill="#0" id="circle157"/>
	<circle cx="558.073" cy="519.992" r="4" fill="#0" id="circle158"/>
	<circle cx="567.593" cy="23.0403" r="4" fill="#0" id="circle159"/>
	<circle cx="567.593" cy="339.109" r="4" fill="#0" id="circle160"/>
	<circle cx="567.593" cy="358.15" r="4" fill="#0" id="circle161"/>
	<circle cx="567.593" cy="377.19" r="4" fill="#0" id="circle162"/>
	<circle cx="567.593" cy="396.23" r="4" fill="#0" id="circle163"/>
	<circle cx="567.593" cy="415.271" r="4" fill="#0" id="circle164"/>
	<circle cx="567.593" cy="434.311" r="4" fill="#0" id="circle165"/>
	<circle cx="567.593" cy="453.351" r="4" fill="#0" id="circle166"/>
	<circle cx="567.593" cy="537.129" r="4" fill="#0" id="circle167"/>
	<circle cx="567.593" cy="556.169" r="4" fill="#0" id="circle168"/>
	<circle cx="567.593" cy="881.758" r="4" fill="#0" id="circle169"/>
	<circle cx="577.113" cy="301.029" r="4" fill="#0" id="circle170"/>
	<circle cx="577.113" cy="320.069" r="4" fill="#0" id="circle171"/>
	<circle cx="582.825" cy="34.4645" r="4" fill="#0" id="circle172"/>
	<circle cx="582.825" cy="868.43" r="4" fill="#0" id="circle173"/>
	<circle cx="586.633" cy="196.307" r="4" fill="#0" id="circle174"/>
	<circle cx="586.633" cy="215.347" r="4" fill="#0" id="circle175"/>
	<circle cx="586.633" cy="234.388" r="4" fill="#0" id="circle176"/>
	<circle cx="586.633" cy="253.428" r="4" fill="#0" id="circle177"/>
	<circle cx="586.633" cy="272.468" r="4" fill="#0" id="circle178"/>
	<circle cx="586.633" cy="561.881" r="4" fill="#0" id="circle179"/>
	<circle cx="590.441" cy="53.5048" r="4" fill="#0" id="circle180"/>
	<circle cx="594.25" cy="580.921" r="4" fill="#0" id="circle181"/>
	<circle cx="596.154" cy="72.5451" r="4" fill="#0" id="circle182"/>
	<circle cx="596.154" cy="91.5854" r="4" fill="#0" id="circle183"/>
	<circle cx="596.154" cy="110.626" r="4" fill="#0" id="circle184"/>
	<circle cx="596.154" cy="129.666" r="4" fill="#0" id="circle185"/>
	<circle cx="596.154" cy="148.706" r="4" fill="#0" id="circle186"/>
	<circle cx="596.154" cy="167.747" r="4" fill="#0" id="circle187"/>
	<circle cx="596.154" cy="853.198" r="4" fill="#0" id="circle188"/>
	<circle cx="609.482" cy="594.25" r="4" fill="#0" id="circle189"/>
	<circle cx="611.386" cy="839.869" r="4" fill="#0" id="circle190"/>
	<circle cx="624.714" cy="824.637" r="4" fill="#0" id="circle191"/>
	<circle cx="628.522" cy="594.25" r="4" fill="#0" id="circle192"/>
	<circle cx="638.042" cy="575.209" r="4" fill="#0" id="circle193"/>
	<circle cx="639.946" cy="811.309" r="4" fill="#0" id="circle194"/>
	<circle cx="653.274" cy="559.977" r="4" fill="#0" id="circle195"/>
	<circle cx="653.274" cy="786.557" r="4" fill="#0" id="circle196"/>
	<circle cx="662.795" cy="540.937" r="4" fill="#0" id="circle197"/>
	<circle cx="662.795" cy="767.516" r="4" fill="#0" id="circle198"/>
	<circle cx="678.027" cy="527.608" r="4" fill="#0" id="circle199"/>
	<circle cx="678.027" cy="754.188" r="4" fill="#0" id="circle200"/>
	<circle cx="691.355" cy="512.376" r="4" fill="#0" id="circle201"/>
	<circle cx="691.355" cy="729.436" r="4" fill="#0" id="circle202"/>
	<circle cx="706.587" cy="499.048" r="4" fill="#0" id="circle203"/>
	<circle cx="706.587" cy="716.107" r="4" fill="#0" id="circle204"/>
	<circle cx="710.395" cy="691.355" r="4" fill="#0" id="circle205"/>
	<circle cx="719.916" cy="483.816" r="4" fill="#0" id="circle206"/>
	<circle cx="725.628" cy="678.027" r="4" fill="#0" id="circle207"/>
	<circle cx="735.148" cy="470.488" r="4" fill="#0" id="circle208"/>
	<circle cx="735.148" cy="658.987" r="4" fill="#0" id="circle209"/>
	<circle cx="748.476" cy="634.234" r="4" fill="#0" id="circle210"/>
	<circle cx="752.284" cy="460.967" r="4" fill="#0" id="circle211"/>
	<circle cx="763.708" cy="620.906" r="4" fill="#0" id="circle212"/>
	<circle cx="769.42" cy="451.447" r="4" fill="#0" id="circle213"/>
	<circle cx="777.036" cy="596.154" r="4" fill="#0" id="circle214"/>
	<circle cx="786.557" cy="441.927" r="4" fill="#0" id="circle215"/>
	<circle cx="792.269" cy="582.825" r="4" fill="#0" id="circle216"/>
	<circle cx="801.789" cy="563.785" r="4" fill="#0" id="circle217"/>
	<circle cx="803.693" cy="432.407" r="4" fill="#0" id="circle218"/>
	<circle cx="815.117" cy="548.553" r="4" fill="#0" id="circle219"/>
	<circle cx="822.733" cy="432.407" r="4" fill="#0" id="circle220"/>
	<circle cx="834.157" cy="529.512" r="4" fill="#0" id="circle221"/>
	<circle cx="841.774" cy="432.407" r="4" fill="#0" id="circle222"/>
	<circle cx="849.39" cy="516.184" r="4" fill="#0" id="circle223"/>
	<circle cx="858.91" cy="441.927" r="4" fill="#0" id="circle224"/>
	<circle cx="868.43" cy="506.664" r="4" fill="#0" id="circle225"/>
	<circle cx="876.046" cy="451.447" r="4" fill="#0" id="circle226"/>
	<circle cx="881.758" cy="470.488" r="4" fill="#0" id="circle227"/>
	<circle cx="881.758" cy="489.528" r="4" fill="#0" id="circle228"/>
	</g>
</svg>