<?xml version="1.0" encoding="UTF-8" standalone="no"?>
<!-- Created with CurveBenchmark -->
<svg
	xmlns:dc="http://purl.org/dc/elements/1.1/"
	xmlns:cc="http://creativecommons.org/ns#"
	xmlns:rdf="http://www.w3.org/1999/02/22-rdf-syntax-ns#"
	xmlns:svg="http://www.w3.org/2000/svg"
	xmlns="http://www.w3.org/2000/svg"
	xmlns:sodipodi="http://sodipodi.sourceforge.net/DTD/sodipodi-0.dtd"
	xmlns:inkscape="http://www.inkscape.org/namespaces/inkscape"
	width="1000"
	height="1000"
	id="svg2"
	version="1.1"
	sodipodi:docname="manifold/gathan1-bed355.png.txt">
<defs
	id="defs4" />
<metadata
	id="metadata7">
	<rdf:RDF>
		<cc:Work
			rdf:about="">
			<dc:format>image/svg+xml</dc:format>
			<dc:type
				rdf:resource="http://purl.org/dc/dcmitype/StillImage" />
			<dc:title></dc:title>
		</cc:Work>
	</rdf:RDF>
</metadata>
<g
	inkscape:label="Layer 1"
	inkscape:groupmode="layer"
	id="layer1">
	<path style="fill:none;stroke:red;stroke-width:1px;stroke-linecap:butt;stroke-linejoin:miter;stroke-opacity:1" d="M 163.299,182.608 163.299,206.745 z" id="boundary" inkscape:connector-curvature="0" />
	<path style="fill:none;stroke:red;stroke-width:1px;stroke-linecap:butt;stroke-linejoin:miter;stroke-opacity:1" d="M 163.299,182.608 177.781,163.299 z" id="boundary" inkscape:connector-curvature="0" />
	<path style="fill:none;stroke:red;stroke-width:1px;stroke-linecap:butt;stroke-linejoin:miter;stroke-opacity:1" d="M 160.886,399.835 136.749,404.662 z" id="boundary" inkscape:connector-curvature="0" />
	<path style="fill:none;stroke:red;stroke-width:1px;stroke-linecap:butt;stroke-linejoin:miter;stroke-opacity:1" d="M 136.749,404.662 112.613,409.489 z" id="boundary" inkscape:connector-curvature="0" />
	<path style="fill:none;stroke:red;stroke-width:1px;stroke-linecap:butt;stroke-linejoin:miter;stroke-opacity:1" d="M 182.608,252.603 175.367,228.467 z" id="boundary" inkscape:connector-curvature="0" />
	<path style="fill:none;stroke:red;stroke-width:1px;stroke-linecap:butt;stroke-linejoin:miter;stroke-opacity:1" d="M 175.367,228.467 163.299,206.745 z" id="boundary" inkscape:connector-curvature="0" />
	<path style="fill:none;stroke:red;stroke-width:1px;stroke-linecap:butt;stroke-linejoin:miter;stroke-opacity:1" d="M 187.436,349.148 185.022,392.594 z" id="boundary" inkscape:connector-curvature="0" />
	<path style="fill:none;stroke:red;stroke-width:1px;stroke-linecap:butt;stroke-linejoin:miter;stroke-opacity:1" d="M 185.022,392.594 160.886,399.835 z" id="boundary" inkscape:connector-curvature="0" />
	<path style="fill:none;stroke:red;stroke-width:1px;stroke-linecap:butt;stroke-linejoin:miter;stroke-opacity:1" d="M 177.781,163.299 197.09,148.818 z" id="boundary" inkscape:connector-curvature="0" />
	<path style="fill:none;stroke:red;stroke-width:1px;stroke-linecap:butt;stroke-linejoin:miter;stroke-opacity:1" d="M 4,462.589 18.4818,443.28 z" id="boundary" inkscape:connector-curvature="0" />
	<path style="fill:none;stroke:red;stroke-width:1px;stroke-linecap:butt;stroke-linejoin:miter;stroke-opacity:1" d="M 4,486.725 4,462.589 z" id="boundary" inkscape:connector-curvature="0" />
	<path style="fill:none;stroke:red;stroke-width:1px;stroke-linecap:butt;stroke-linejoin:miter;stroke-opacity:1" d="M 4,486.725 16.0681,508.448 z" id="boundary" inkscape:connector-curvature="0" />
	<path style="fill:none;stroke:red;stroke-width:1px;stroke-linecap:butt;stroke-linejoin:miter;stroke-opacity:1" d="M 18.4818,443.28 40.2044,431.212 z" id="boundary" inkscape:connector-curvature="0" />
	<path style="fill:none;stroke:red;stroke-width:1px;stroke-linecap:butt;stroke-linejoin:miter;stroke-opacity:1" d="M 88.4769,414.316 112.613,409.489 z" id="boundary" inkscape:connector-curvature="0" />
	<path style="fill:none;stroke:red;stroke-width:1px;stroke-linecap:butt;stroke-linejoin:miter;stroke-opacity:1" d="M 28.1363,530.17 16.0681,508.448 z" id="boundary" inkscape:connector-curvature="0" />
	<path style="fill:none;stroke:red;stroke-width:1px;stroke-linecap:butt;stroke-linejoin:miter;stroke-opacity:1" d="M 40.2044,431.212 64.3406,421.557 z" id="boundary" inkscape:connector-curvature="0" />
	<path style="fill:none;stroke:red;stroke-width:1px;stroke-linecap:butt;stroke-linejoin:miter;stroke-opacity:1" d="M 64.3406,421.557 88.4769,414.316 z" id="boundary" inkscape:connector-curvature="0" />
	<path style="fill:none;stroke:red;stroke-width:1px;stroke-linecap:butt;stroke-linejoin:miter;stroke-opacity:1" d="M 28.1363,530.17 28.1363,554.307 z" id="boundary" inkscape:connector-curvature="0" />
	<path style="fill:none;stroke:red;stroke-width:1px;stroke-linecap:butt;stroke-linejoin:miter;stroke-opacity:1" d="M 366.044,100.545 390.18,95.7178 z" id="boundary" inkscape:connector-curvature="0" />
	<path style="fill:none;stroke:red;stroke-width:1px;stroke-linecap:butt;stroke-linejoin:miter;stroke-opacity:1" d="M 317.771,110.2 341.908,105.372 z" id="boundary" inkscape:connector-curvature="0" />
	<path style="fill:none;stroke:red;stroke-width:1px;stroke-linecap:butt;stroke-linejoin:miter;stroke-opacity:1" d="M 341.908,105.372 366.044,100.545 z" id="boundary" inkscape:connector-curvature="0" />
	<path style="fill:none;stroke:red;stroke-width:1px;stroke-linecap:butt;stroke-linejoin:miter;stroke-opacity:1" d="M 481.898,57.0998 506.034,47.4453 z" id="boundary" inkscape:connector-curvature="0" />
	<path style="fill:none;stroke:red;stroke-width:1px;stroke-linecap:butt;stroke-linejoin:miter;stroke-opacity:1" d="M 457.762,66.7543 438.453,86.0633 z" id="boundary" inkscape:connector-curvature="0" />
	<path style="fill:none;stroke:red;stroke-width:1px;stroke-linecap:butt;stroke-linejoin:miter;stroke-opacity:1" d="M 438.453,86.0633 414.316,90.8905 z" id="boundary" inkscape:connector-curvature="0" />
	<path style="fill:none;stroke:red;stroke-width:1px;stroke-linecap:butt;stroke-linejoin:miter;stroke-opacity:1" d="M 414.316,90.8905 390.18,95.7178 z" id="boundary" inkscape:connector-curvature="0" />
	<path style="fill:none;stroke:red;stroke-width:1px;stroke-linecap:butt;stroke-linejoin:miter;stroke-opacity:1" d="M 457.762,66.7543 481.898,57.0998 z" id="boundary" inkscape:connector-curvature="0" />
	<path style="fill:none;stroke:red;stroke-width:1px;stroke-linecap:butt;stroke-linejoin:miter;stroke-opacity:1" d="M 187.436,276.74 187.436,300.876 z" id="boundary" inkscape:connector-curvature="0" />
	<path style="fill:none;stroke:red;stroke-width:1px;stroke-linecap:butt;stroke-linejoin:miter;stroke-opacity:1" d="M 182.608,252.603 187.436,276.74 z" id="boundary" inkscape:connector-curvature="0" />
	<path style="fill:none;stroke:red;stroke-width:1px;stroke-linecap:butt;stroke-linejoin:miter;stroke-opacity:1" d="M 187.436,325.012 187.436,349.148 z" id="boundary" inkscape:connector-curvature="0" />
	<path style="fill:none;stroke:red;stroke-width:1px;stroke-linecap:butt;stroke-linejoin:miter;stroke-opacity:1" d="M 187.436,325.012 187.436,300.876 z" id="boundary" inkscape:connector-curvature="0" />
	<path style="fill:none;stroke:red;stroke-width:1px;stroke-linecap:butt;stroke-linejoin:miter;stroke-opacity:1" d="M 293.635,115.027 317.771,110.2 z" id="boundary" inkscape:connector-curvature="0" />
	<path style="fill:none;stroke:red;stroke-width:1px;stroke-linecap:butt;stroke-linejoin:miter;stroke-opacity:1" d="M 269.499,124.681 293.635,115.027 z" id="boundary" inkscape:connector-curvature="0" />
	<path style="fill:none;stroke:red;stroke-width:1px;stroke-linecap:butt;stroke-linejoin:miter;stroke-opacity:1" d="M 269.499,124.681 245.363,129.509 z" id="boundary" inkscape:connector-curvature="0" />
	<path style="fill:none;stroke:red;stroke-width:1px;stroke-linecap:butt;stroke-linejoin:miter;stroke-opacity:1" d="M 221.226,139.163 245.363,129.509 z" id="boundary" inkscape:connector-curvature="0" />
	<path style="fill:none;stroke:red;stroke-width:1px;stroke-linecap:butt;stroke-linejoin:miter;stroke-opacity:1" d="M 197.09,148.818 221.226,139.163 z" id="boundary" inkscape:connector-curvature="0" />
	<path style="fill:none;stroke:red;stroke-width:1px;stroke-linecap:butt;stroke-linejoin:miter;stroke-opacity:1" d="M 28.1363,578.443 28.1363,554.307 z" id="boundary" inkscape:connector-curvature="0" />
	<path style="fill:none;stroke:red;stroke-width:1px;stroke-linecap:butt;stroke-linejoin:miter;stroke-opacity:1" d="M 28.1363,631.543 28.1363,655.679 z" id="boundary" inkscape:connector-curvature="0" />
	<path style="fill:none;stroke:red;stroke-width:1px;stroke-linecap:butt;stroke-linejoin:miter;stroke-opacity:1" d="M 28.1363,655.679 18.4818,679.815 z" id="boundary" inkscape:connector-curvature="0" />
	<path style="fill:none;stroke:red;stroke-width:1px;stroke-linecap:butt;stroke-linejoin:miter;stroke-opacity:1" d="M 28.1363,578.443 32.9635,602.579 z" id="boundary" inkscape:connector-curvature="0" />
	<path style="fill:none;stroke:red;stroke-width:1px;stroke-linecap:butt;stroke-linejoin:miter;stroke-opacity:1" d="M 32.9635,602.579 28.1363,631.543 z" id="boundary" inkscape:connector-curvature="0" />
	<path style="fill:none;stroke:red;stroke-width:1px;stroke-linecap:butt;stroke-linejoin:miter;stroke-opacity:1" d="M 102.959,662.92 78.8224,662.92 z" id="boundary" inkscape:connector-curvature="0" />
	<path style="fill:none;stroke:red;stroke-width:1px;stroke-linecap:butt;stroke-linejoin:miter;stroke-opacity:1" d="M 127.095,662.92 102.959,662.92 z" id="boundary" inkscape:connector-curvature="0" />
	<path style="fill:none;stroke:red;stroke-width:1px;stroke-linecap:butt;stroke-linejoin:miter;stroke-opacity:1" d="M 78.8224,662.92 59.5134,679.815 z" id="boundary" inkscape:connector-curvature="0" />
	<path style="fill:none;stroke:red;stroke-width:1px;stroke-linecap:butt;stroke-linejoin:miter;stroke-opacity:1" d="M 18.4818,679.815 23.309,703.951 z" id="boundary" inkscape:connector-curvature="0" />
	<path style="fill:none;stroke:red;stroke-width:1px;stroke-linecap:butt;stroke-linejoin:miter;stroke-opacity:1" d="M 23.309,703.951 23.309,728.088 z" id="boundary" inkscape:connector-curvature="0" />
	<path style="fill:none;stroke:red;stroke-width:1px;stroke-linecap:butt;stroke-linejoin:miter;stroke-opacity:1" d="M 57.0998,735.328 35.3771,749.81 z" id="boundary" inkscape:connector-curvature="0" />
	<path style="fill:none;stroke:red;stroke-width:1px;stroke-linecap:butt;stroke-linejoin:miter;stroke-opacity:1" d="M 35.3771,749.81 23.309,728.088 z" id="boundary" inkscape:connector-curvature="0" />
	<path style="fill:none;stroke:red;stroke-width:1px;stroke-linecap:butt;stroke-linejoin:miter;stroke-opacity:1" d="M 59.5134,703.951 59.5134,679.815 z" id="boundary" inkscape:connector-curvature="0" />
	<path style="fill:none;stroke:red;stroke-width:1px;stroke-linecap:butt;stroke-linejoin:miter;stroke-opacity:1" d="M 57.0998,735.328 59.5134,703.951 z" id="boundary" inkscape:connector-curvature="0" />
	<path style="fill:none;stroke:red;stroke-width:1px;stroke-linecap:butt;stroke-linejoin:miter;stroke-opacity:1" d="M 168.127,687.056 151.231,667.747 z" id="boundary" inkscape:connector-curvature="0" />
	<path style="fill:none;stroke:red;stroke-width:1px;stroke-linecap:butt;stroke-linejoin:miter;stroke-opacity:1" d="M 127.095,662.92 151.231,667.747 z" id="boundary" inkscape:connector-curvature="0" />
	<path style="fill:none;stroke:red;stroke-width:1px;stroke-linecap:butt;stroke-linejoin:miter;stroke-opacity:1" d="M 168.127,687.056 168.127,711.192 z" id="boundary" inkscape:connector-curvature="0" />
	<path style="fill:none;stroke:red;stroke-width:1px;stroke-linecap:butt;stroke-linejoin:miter;stroke-opacity:1" d="M 218.813,667.747 242.949,658.092 z" id="boundary" inkscape:connector-curvature="0" />
	<path style="fill:none;stroke:red;stroke-width:1px;stroke-linecap:butt;stroke-linejoin:miter;stroke-opacity:1" d="M 199.504,708.779 199.504,684.642 z" id="boundary" inkscape:connector-curvature="0" />
	<path style="fill:none;stroke:red;stroke-width:1px;stroke-linecap:butt;stroke-linejoin:miter;stroke-opacity:1" d="M 199.504,684.642 218.813,667.747 z" id="boundary" inkscape:connector-curvature="0" />
	<path style="fill:none;stroke:red;stroke-width:1px;stroke-linecap:butt;stroke-linejoin:miter;stroke-opacity:1" d="M 242.949,658.092 267.085,658.092 z" id="boundary" inkscape:connector-curvature="0" />
	<path style="fill:none;stroke:red;stroke-width:1px;stroke-linecap:butt;stroke-linejoin:miter;stroke-opacity:1" d="M 291.221,662.92 315.358,667.747 z" id="boundary" inkscape:connector-curvature="0" />
	<path style="fill:none;stroke:red;stroke-width:1px;stroke-linecap:butt;stroke-linejoin:miter;stroke-opacity:1" d="M 291.221,662.92 267.085,658.092 z" id="boundary" inkscape:connector-curvature="0" />
	<path style="fill:none;stroke:red;stroke-width:1px;stroke-linecap:butt;stroke-linejoin:miter;stroke-opacity:1" d="M 339.494,677.401 363.63,682.229 z" id="boundary" inkscape:connector-curvature="0" />
	<path style="fill:none;stroke:red;stroke-width:1px;stroke-linecap:butt;stroke-linejoin:miter;stroke-opacity:1" d="M 363.63,682.229 387.766,691.883 z" id="boundary" inkscape:connector-curvature="0" />
	<path style="fill:none;stroke:red;stroke-width:1px;stroke-linecap:butt;stroke-linejoin:miter;stroke-opacity:1" d="M 339.494,677.401 315.358,667.747 z" id="boundary" inkscape:connector-curvature="0" />
	<path style="fill:none;stroke:red;stroke-width:1px;stroke-linecap:butt;stroke-linejoin:miter;stroke-opacity:1" d="M 411.903,696.71 387.766,691.883 z" id="boundary" inkscape:connector-curvature="0" />
	<path style="fill:none;stroke:red;stroke-width:1px;stroke-linecap:butt;stroke-linejoin:miter;stroke-opacity:1" d="M 168.127,735.328 168.127,711.192 z" id="boundary" inkscape:connector-curvature="0" />
	<path style="fill:none;stroke:red;stroke-width:1px;stroke-linecap:butt;stroke-linejoin:miter;stroke-opacity:1" d="M 168.127,735.328 187.436,749.81 z" id="boundary" inkscape:connector-curvature="0" />
	<path style="fill:none;stroke:red;stroke-width:1px;stroke-linecap:butt;stroke-linejoin:miter;stroke-opacity:1" d="M 199.504,708.779 187.436,749.81 z" id="boundary" inkscape:connector-curvature="0" />
	<path style="fill:none;stroke:red;stroke-width:1px;stroke-linecap:butt;stroke-linejoin:miter;stroke-opacity:1" d="M 436.039,706.365 411.903,696.71 z" id="boundary" inkscape:connector-curvature="0" />
	<path style="fill:none;stroke:red;stroke-width:1px;stroke-linecap:butt;stroke-linejoin:miter;stroke-opacity:1" d="M 460.175,706.365 436.039,706.365 z" id="boundary" inkscape:connector-curvature="0" />
	<path style="fill:none;stroke:red;stroke-width:1px;stroke-linecap:butt;stroke-linejoin:miter;stroke-opacity:1" d="M 460.175,706.365 484.311,706.365 z" id="boundary" inkscape:connector-curvature="0" />
	<path style="fill:none;stroke:red;stroke-width:1px;stroke-linecap:butt;stroke-linejoin:miter;stroke-opacity:1" d="M 484.311,706.365 508.448,706.365 z" id="boundary" inkscape:connector-curvature="0" />
	<path style="fill:none;stroke:red;stroke-width:1px;stroke-linecap:butt;stroke-linejoin:miter;stroke-opacity:1" d="M 532.584,701.538 508.448,706.365 z" id="boundary" inkscape:connector-curvature="0" />
	<path style="fill:none;stroke:red;stroke-width:1px;stroke-linecap:butt;stroke-linejoin:miter;stroke-opacity:1" d="M 530.17,32.9635 549.479,8.82725 z" id="boundary" inkscape:connector-curvature="0" />
	<path style="fill:none;stroke:red;stroke-width:1px;stroke-linecap:butt;stroke-linejoin:miter;stroke-opacity:1" d="M 549.479,8.82725 573.616,4 z" id="boundary" inkscape:connector-curvature="0" />
	<path style="fill:none;stroke:red;stroke-width:1px;stroke-linecap:butt;stroke-linejoin:miter;stroke-opacity:1" d="M 530.17,32.9635 506.034,47.4453 z" id="boundary" inkscape:connector-curvature="0" />
	<path style="fill:none;stroke:red;stroke-width:1px;stroke-linecap:butt;stroke-linejoin:miter;stroke-opacity:1" d="M 573.616,4 597.752,6.41363 z" id="boundary" inkscape:connector-curvature="0" />
	<path style="fill:none;stroke:red;stroke-width:1px;stroke-linecap:butt;stroke-linejoin:miter;stroke-opacity:1" d="M 597.752,6.41363 614.647,25.7226 z" id="boundary" inkscape:connector-curvature="0" />
	<path style="fill:none;stroke:red;stroke-width:1px;stroke-linecap:butt;stroke-linejoin:miter;stroke-opacity:1" d="M 614.647,25.7226 626.715,47.4453 z" id="boundary" inkscape:connector-curvature="0" />
	<path style="fill:none;stroke:red;stroke-width:1px;stroke-linecap:butt;stroke-linejoin:miter;stroke-opacity:1" d="M 650.852,52.2725 626.715,47.4453 z" id="boundary" inkscape:connector-curvature="0" />
	<path style="fill:none;stroke:red;stroke-width:1px;stroke-linecap:butt;stroke-linejoin:miter;stroke-opacity:1" d="M 674.988,59.5134 650.852,52.2725 z" id="boundary" inkscape:connector-curvature="0" />
	<path style="fill:none;stroke:red;stroke-width:1px;stroke-linecap:butt;stroke-linejoin:miter;stroke-opacity:1" d="M 674.988,59.5134 696.71,71.5815 z" id="boundary" inkscape:connector-curvature="0" />
	<path style="fill:none;stroke:red;stroke-width:1px;stroke-linecap:butt;stroke-linejoin:miter;stroke-opacity:1" d="M 696.71,71.5815 716.019,86.0633 z" id="boundary" inkscape:connector-curvature="0" />
	<path style="fill:none;stroke:red;stroke-width:1px;stroke-linecap:butt;stroke-linejoin:miter;stroke-opacity:1" d="M 740.156,90.8905 716.019,86.0633 z" id="boundary" inkscape:connector-curvature="0" />
	<path style="fill:none;stroke:red;stroke-width:1px;stroke-linecap:butt;stroke-linejoin:miter;stroke-opacity:1" d="M 740.156,90.8905 764.292,95.7178 z" id="boundary" inkscape:connector-curvature="0" />
	<path style="fill:none;stroke:red;stroke-width:1px;stroke-linecap:butt;stroke-linejoin:miter;stroke-opacity:1" d="M 788.428,100.545 812.564,105.372 z" id="boundary" inkscape:connector-curvature="0" />
	<path style="fill:none;stroke:red;stroke-width:1px;stroke-linecap:butt;stroke-linejoin:miter;stroke-opacity:1" d="M 788.428,100.545 764.292,95.7178 z" id="boundary" inkscape:connector-curvature="0" />
	<path style="fill:none;stroke:red;stroke-width:1px;stroke-linecap:butt;stroke-linejoin:miter;stroke-opacity:1" d="M 836.701,110.2 860.837,115.027 z" id="boundary" inkscape:connector-curvature="0" />
	<path style="fill:none;stroke:red;stroke-width:1px;stroke-linecap:butt;stroke-linejoin:miter;stroke-opacity:1" d="M 860.837,115.027 884.973,124.681 z" id="boundary" inkscape:connector-curvature="0" />
	<path style="fill:none;stroke:red;stroke-width:1px;stroke-linecap:butt;stroke-linejoin:miter;stroke-opacity:1" d="M 836.701,110.2 812.564,105.372 z" id="boundary" inkscape:connector-curvature="0" />
	<path style="fill:none;stroke:red;stroke-width:1px;stroke-linecap:butt;stroke-linejoin:miter;stroke-opacity:1" d="M 909.109,129.509 884.973,124.681 z" id="boundary" inkscape:connector-curvature="0" />
	<path style="fill:none;stroke:red;stroke-width:1px;stroke-linecap:butt;stroke-linejoin:miter;stroke-opacity:1" d="M 976.691,230.881 971.864,259.844 z" id="boundary" inkscape:connector-curvature="0" />
	<path style="fill:none;stroke:red;stroke-width:1px;stroke-linecap:butt;stroke-linejoin:miter;stroke-opacity:1" d="M 909.109,129.509 933.246,139.163 z" id="boundary" inkscape:connector-curvature="0" />
	<path style="fill:none;stroke:red;stroke-width:1px;stroke-linecap:butt;stroke-linejoin:miter;stroke-opacity:1" d="M 933.246,139.163 957.382,148.818 z" id="boundary" inkscape:connector-curvature="0" />
	<path style="fill:none;stroke:red;stroke-width:1px;stroke-linecap:butt;stroke-linejoin:miter;stroke-opacity:1" d="M 971.864,259.844 971.864,283.981 z" id="boundary" inkscape:connector-curvature="0" />
	<path style="fill:none;stroke:red;stroke-width:1px;stroke-linecap:butt;stroke-linejoin:miter;stroke-opacity:1" d="M 979.105,160.886 996,180.195 z" id="boundary" inkscape:connector-curvature="0" />
	<path style="fill:none;stroke:red;stroke-width:1px;stroke-linecap:butt;stroke-linejoin:miter;stroke-opacity:1" d="M 996,180.195 996,204.331 z" id="boundary" inkscape:connector-curvature="0" />
	<path style="fill:none;stroke:red;stroke-width:1px;stroke-linecap:butt;stroke-linejoin:miter;stroke-opacity:1" d="M 976.691,230.881 996,204.331 z" id="boundary" inkscape:connector-curvature="0" />
	<path style="fill:none;stroke:red;stroke-width:1px;stroke-linecap:butt;stroke-linejoin:miter;stroke-opacity:1" d="M 971.864,308.117 971.864,283.981 z" id="boundary" inkscape:connector-curvature="0" />
	<path style="fill:none;stroke:red;stroke-width:1px;stroke-linecap:butt;stroke-linejoin:miter;stroke-opacity:1" d="M 957.382,148.818 979.105,160.886 z" id="boundary" inkscape:connector-curvature="0" />
	<path style="fill:none;stroke:red;stroke-width:1px;stroke-linecap:butt;stroke-linejoin:miter;stroke-opacity:1" d="M 971.864,308.117 971.864,332.253 z" id="boundary" inkscape:connector-curvature="0" />
	<path style="fill:none;stroke:red;stroke-width:1px;stroke-linecap:butt;stroke-linejoin:miter;stroke-opacity:1" d="M 971.864,356.389 971.864,380.526 z" id="boundary" inkscape:connector-curvature="0" />
	<path style="fill:none;stroke:red;stroke-width:1px;stroke-linecap:butt;stroke-linejoin:miter;stroke-opacity:1" d="M 974.277,404.662 971.864,380.526 z" id="boundary" inkscape:connector-curvature="0" />
	<path style="fill:none;stroke:red;stroke-width:1px;stroke-linecap:butt;stroke-linejoin:miter;stroke-opacity:1" d="M 971.864,356.389 971.864,332.253 z" id="boundary" inkscape:connector-curvature="0" />
	<path style="fill:none;stroke:red;stroke-width:1px;stroke-linecap:butt;stroke-linejoin:miter;stroke-opacity:1" d="M 976.691,428.798 974.277,404.662 z" id="boundary" inkscape:connector-curvature="0" />
	<path style="fill:none;stroke:red;stroke-width:1px;stroke-linecap:butt;stroke-linejoin:miter;stroke-opacity:1" d="M 981.518,452.934 976.691,428.798 z" id="boundary" inkscape:connector-curvature="0" />
	<path style="fill:none;stroke:red;stroke-width:1px;stroke-linecap:butt;stroke-linejoin:miter;stroke-opacity:1" d="M 991.173,501.207 983.932,477.071 z" id="boundary" inkscape:connector-curvature="0" />
	<path style="fill:none;stroke:red;stroke-width:1px;stroke-linecap:butt;stroke-linejoin:miter;stroke-opacity:1" d="M 983.932,477.071 981.518,452.934 z" id="boundary" inkscape:connector-curvature="0" />
	<path style="fill:none;stroke:red;stroke-width:1px;stroke-linecap:butt;stroke-linejoin:miter;stroke-opacity:1" d="M 991.173,525.343 991.173,501.207 z" id="boundary" inkscape:connector-curvature="0" />
	<path style="fill:none;stroke:red;stroke-width:1px;stroke-linecap:butt;stroke-linejoin:miter;stroke-opacity:1" d="M 653.265,662.92 677.401,658.092 z" id="boundary" inkscape:connector-curvature="0" />
	<path style="fill:none;stroke:red;stroke-width:1px;stroke-linecap:butt;stroke-linejoin:miter;stroke-opacity:1" d="M 701.538,658.092 677.401,658.092 z" id="boundary" inkscape:connector-curvature="0" />
	<path style="fill:none;stroke:red;stroke-width:1px;stroke-linecap:butt;stroke-linejoin:miter;stroke-opacity:1" d="M 604.993,677.401 629.129,667.747 z" id="boundary" inkscape:connector-curvature="0" />
	<path style="fill:none;stroke:red;stroke-width:1px;stroke-linecap:butt;stroke-linejoin:miter;stroke-opacity:1" d="M 629.129,667.747 653.265,662.92 z" id="boundary" inkscape:connector-curvature="0" />
	<path style="fill:none;stroke:red;stroke-width:1px;stroke-linecap:butt;stroke-linejoin:miter;stroke-opacity:1" d="M 701.538,658.092 725.674,667.747 z" id="boundary" inkscape:connector-curvature="0" />
	<path style="fill:none;stroke:red;stroke-width:1px;stroke-linecap:butt;stroke-linejoin:miter;stroke-opacity:1" d="M 817.392,665.333 841.528,662.92 z" id="boundary" inkscape:connector-curvature="0" />
	<path style="fill:none;stroke:red;stroke-width:1px;stroke-linecap:butt;stroke-linejoin:miter;stroke-opacity:1" d="M 865.664,662.92 841.528,662.92 z" id="boundary" inkscape:connector-curvature="0" />
	<path style="fill:none;stroke:red;stroke-width:1px;stroke-linecap:butt;stroke-linejoin:miter;stroke-opacity:1" d="M 817.392,665.333 793.255,670.161 z" id="boundary" inkscape:connector-curvature="0" />
	<path style="fill:none;stroke:red;stroke-width:1px;stroke-linecap:butt;stroke-linejoin:miter;stroke-opacity:1" d="M 725.674,667.747 744.983,682.229 z" id="boundary" inkscape:connector-curvature="0" />
	<path style="fill:none;stroke:red;stroke-width:1px;stroke-linecap:butt;stroke-linejoin:miter;stroke-opacity:1" d="M 604.993,677.401 580.856,684.642 z" id="boundary" inkscape:connector-curvature="0" />
	<path style="fill:none;stroke:red;stroke-width:1px;stroke-linecap:butt;stroke-linejoin:miter;stroke-opacity:1" d="M 532.584,701.538 556.72,691.883 z" id="boundary" inkscape:connector-curvature="0" />
	<path style="fill:none;stroke:red;stroke-width:1px;stroke-linecap:butt;stroke-linejoin:miter;stroke-opacity:1" d="M 556.72,691.883 580.856,684.642 z" id="boundary" inkscape:connector-curvature="0" />
	<path style="fill:none;stroke:red;stroke-width:1px;stroke-linecap:butt;stroke-linejoin:miter;stroke-opacity:1" d="M 865.664,662.92 889.8,667.747 z" id="boundary" inkscape:connector-curvature="0" />
	<path style="fill:none;stroke:red;stroke-width:1px;stroke-linecap:butt;stroke-linejoin:miter;stroke-opacity:1" d="M 889.8,667.747 897.041,691.883 z" id="boundary" inkscape:connector-curvature="0" />
	<path style="fill:none;stroke:red;stroke-width:1px;stroke-linecap:butt;stroke-linejoin:miter;stroke-opacity:1" d="M 744.983,682.229 769.119,677.401 z" id="boundary" inkscape:connector-curvature="0" />
	<path style="fill:none;stroke:red;stroke-width:1px;stroke-linecap:butt;stroke-linejoin:miter;stroke-opacity:1" d="M 769.119,677.401 793.255,670.161 z" id="boundary" inkscape:connector-curvature="0" />
	<path style="fill:none;stroke:red;stroke-width:1px;stroke-linecap:butt;stroke-linejoin:miter;stroke-opacity:1" d="M 897.041,691.883 897.041,716.019 z" id="boundary" inkscape:connector-curvature="0" />
	<path style="fill:none;stroke:red;stroke-width:1px;stroke-linecap:butt;stroke-linejoin:miter;stroke-opacity:1" d="M 986.345,631.543 986.345,655.679 z" id="boundary" inkscape:connector-curvature="0" />
	<path style="fill:none;stroke:red;stroke-width:1px;stroke-linecap:butt;stroke-linejoin:miter;stroke-opacity:1" d="M 991.173,597.752 986.345,631.543 z" id="boundary" inkscape:connector-curvature="0" />
	<path style="fill:none;stroke:red;stroke-width:1px;stroke-linecap:butt;stroke-linejoin:miter;stroke-opacity:1" d="M 986.345,655.679 991.173,679.815 z" id="boundary" inkscape:connector-curvature="0" />
	<path style="fill:none;stroke:red;stroke-width:1px;stroke-linecap:butt;stroke-linejoin:miter;stroke-opacity:1" d="M 938.073,679.815 933.246,655.679 z" id="boundary" inkscape:connector-curvature="0" />
	<path style="fill:none;stroke:red;stroke-width:1px;stroke-linecap:butt;stroke-linejoin:miter;stroke-opacity:1" d="M 991.173,549.479 991.173,573.616 z" id="boundary" inkscape:connector-curvature="0" />
	<path style="fill:none;stroke:red;stroke-width:1px;stroke-linecap:butt;stroke-linejoin:miter;stroke-opacity:1" d="M 991.173,549.479 991.173,525.343 z" id="boundary" inkscape:connector-curvature="0" />
	<path style="fill:none;stroke:red;stroke-width:1px;stroke-linecap:butt;stroke-linejoin:miter;stroke-opacity:1" d="M 991.173,573.616 991.173,597.752 z" id="boundary" inkscape:connector-curvature="0" />
	<path style="fill:none;stroke:red;stroke-width:1px;stroke-linecap:butt;stroke-linejoin:miter;stroke-opacity:1" d="M 954.968,699.124 938.073,679.815 z" id="boundary" inkscape:connector-curvature="0" />
	<path style="fill:none;stroke:red;stroke-width:1px;stroke-linecap:butt;stroke-linejoin:miter;stroke-opacity:1" d="M 901.869,740.156 897.041,716.019 z" id="boundary" inkscape:connector-curvature="0" />
	<path style="fill:none;stroke:red;stroke-width:1px;stroke-linecap:butt;stroke-linejoin:miter;stroke-opacity:1" d="M 901.869,740.156 926.005,749.81 z" id="boundary" inkscape:connector-curvature="0" />
	<path style="fill:none;stroke:red;stroke-width:1px;stroke-linecap:butt;stroke-linejoin:miter;stroke-opacity:1" d="M 991.173,679.815 986.345,708.779 z" id="boundary" inkscape:connector-curvature="0" />
	<path style="fill:none;stroke:red;stroke-width:1px;stroke-linecap:butt;stroke-linejoin:miter;stroke-opacity:1" d="M 986.345,732.915 967.036,747.397 z" id="boundary" inkscape:connector-curvature="0" />
	<path style="fill:none;stroke:red;stroke-width:1px;stroke-linecap:butt;stroke-linejoin:miter;stroke-opacity:1" d="M 986.345,708.779 986.345,732.915 z" id="boundary" inkscape:connector-curvature="0" />
	<path style="fill:none;stroke:red;stroke-width:1px;stroke-linecap:butt;stroke-linejoin:miter;stroke-opacity:1" d="M 967.036,747.397 926.005,749.81 z" id="boundary" inkscape:connector-curvature="0" />
	<circle cx="4" cy="462.589" r="4" fill="#0" id="circle0"/>
	<circle cx="4" cy="486.725" r="4" fill="#0" id="circle1"/>
	<circle cx="16.0681" cy="508.448" r="4" fill="#0" id="circle2"/>
	<circle cx="18.4818" cy="443.28" r="4" fill="#0" id="circle3"/>
	<circle cx="18.4818" cy="679.815" r="4" fill="#0" id="circle4"/>
	<circle cx="23.309" cy="703.951" r="4" fill="#0" id="circle5"/>
	<circle cx="23.309" cy="728.088" r="4" fill="#0" id="circle6"/>
	<circle cx="28.1363" cy="530.17" r="4" fill="#0" id="circle7"/>
	<circle cx="28.1363" cy="554.307" r="4" fill="#0" id="circle8"/>
	<circle cx="28.1363" cy="578.443" r="4" fill="#0" id="circle9"/>
	<circle cx="28.1363" cy="631.543" r="4" fill="#0" id="circle10"/>
	<circle cx="28.1363" cy="655.679" r="4" fill="#0" id="circle11"/>
	<circle cx="32.9635" cy="602.579" r="4" fill="#0" id="circle12"/>
	<circle cx="35.3771" cy="749.81" r="4" fill="#0" id="circle13"/>
	<circle cx="40.2044" cy="431.212" r="4" fill="#0" id="circle14"/>
	<circle cx="57.0998" cy="735.328" r="4" fill="#0" id="circle15"/>
	<circle cx="59.5134" cy="679.815" r="4" fill="#0" id="circle16"/>
	<circle cx="59.5134" cy="703.951" r="4" fill="#0" id="circle17"/>
	<circle cx="64.3406" cy="421.557" r="4" fill="#0" id="circle18"/>
	<circle cx="78.8224" cy="662.92" r="4" fill="#0" id="circle19"/>
	<circle cx="88.4769" cy="414.316" r="4" fill="#0" id="circle20"/>
	<circle cx="102.959" cy="662.92" r="4" fill="#0" id="circle21"/>
	<circle cx="112.613" cy="409.489" r="4" fill="#0" id="circle22"/>
	<circle cx="127.095" cy="662.92" r="4" fill="#0" id="circle23"/>
	<circle cx="136.749" cy="404.662" r="4" fill="#0" id="circle24"/>
	<circle cx="151.231" cy="667.747" r="4" fill="#0" id="circle25"/>
	<circle cx="160.886" cy="399.835" r="4" fill="#0" id="circle26"/>
	<circle cx="163.299" cy="182.608" r="4" fill="#0" id="circle27"/>
	<circle cx="163.299" cy="206.745" r="4" fill="#0" id="circle28"/>
	<circle cx="168.127" cy="687.056" r="4" fill="#0" id="circle29"/>
	<circle cx="168.127" cy="711.192" r="4" fill="#0" id="circle30"/>
	<circle cx="168.127" cy="735.328" r="4" fill="#0" id="circle31"/>
	<circle cx="175.367" cy="228.467" r="4" fill="#0" id="circle32"/>
	<circle cx="177.781" cy="163.299" r="4" fill="#0" id="circle33"/>
	<circle cx="182.608" cy="252.603" r="4" fill="#0" id="circle34"/>
	<circle cx="185.022" cy="392.594" r="4" fill="#0" id="circle35"/>
	<circle cx="187.436" cy="276.74" r="4" fill="#0" id="circle36"/>
	<circle cx="187.436" cy="300.876" r="4" fill="#0" id="circle37"/>
	<circle cx="187.436" cy="325.012" r="4" fill="#0" id="circle38"/>
	<circle cx="187.436" cy="349.148" r="4" fill="#0" id="circle39"/>
	<circle cx="187.436" cy="749.81" r="4" fill="#0" id="circle40"/>
	<circle cx="197.09" cy="148.818" r="4" fill="#0" id="circle41"/>
	<circle cx="199.504" cy="684.642" r="4" fill="#0" id="circle42"/>
	<circle cx="199.504" cy="708.779" r="4" fill="#0" id="circle43"/>
	<circle cx="218.813" cy="667.747" r="4" fill="#0" id="circle44"/>
	<circle cx="221.226" cy="139.163" r="4" fill="#0" id="circle45"/>
	<circle cx="242.949" cy="658.092" r="4" fill="#0" id="circle46"/>
	<circle cx="245.363" cy="129.509" r="4" fill="#0" id="circle47"/>
	<circle cx="267.085" cy="658.092" r="4" fill="#0" id="circle48"/>
	<circle cx="269.499" cy="124.681" r="4" fill="#0" id="circle49"/>
	<circle cx="291.221" cy="662.92" r="4" fill="#0" id="circle50"/>
	<circle cx="293.635" cy="115.027" r="4" fill="#0" id="circle51"/>
	<circle cx="315.358" cy="667.747" r="4" fill="#0" id="circle52"/>
	<circle cx="317.771" cy="110.2" r="4" fill="#0" id="circle53"/>
	<circle cx="339.494" cy="677.401" r="4" fill="#0" id="circle54"/>
	<circle cx="341.908" cy="105.372" r="4" fill="#0" id="circle55"/>
	<circle cx="363.63" cy="682.229" r="4" fill="#0" id="circle56"/>
	<circle cx="366.044" cy="100.545" r="4" fill="#0" id="circle57"/>
	<circle cx="387.766" cy="691.883" r="4" fill="#0" id="circle58"/>
	<circle cx="390.18" cy="95.7178" r="4" fill="#0" id="circle59"/>
	<circle cx="411.903" cy="696.71" r="4" fill="#0" id="circle60"/>
	<circle cx="414.316" cy="90.8905" r="4" fill="#0" id="circle61"/>
	<circle cx="436.039" cy="706.365" r="4" fill="#0" id="circle62"/>
	<circle cx="438.453" cy="86.0633" r="4" fill="#0" id="circle63"/>
	<circle cx="457.762" cy="66.7543" r="4" fill="#0" id="circle64"/>
	<circle cx="460.175" cy="706.365" r="4" fill="#0" id="circle65"/>
	<circle cx="481.898" cy="57.0998" r="4" fill="#0" id="circle66"/>
	<circle cx="484.311" cy="706.365" r="4" fill="#0" id="circle67"/>
	<circle cx="506.034" cy="47.4453" r="4" fill="#0" id="circle68"/>
	<circle cx="508.448" cy="706.365" r="4" fill="#0" id="circle69"/>
	<circle cx="530.17" cy="32.9635" r="4" fill="#0" id="circle70"/>
	<circle cx="532.584" cy="701.538" r="4" fill="#0" id="circle71"/>
	<circle cx="549.479" cy="8.82725" r="4" fill="#0" id="circle72"/>
	<circle cx="556.72" cy="691.883" r="4" fill="#0" id="circle73"/>
	<circle cx="573.616" cy="4" r="4" fill="#0" id="circle74"/>
	<circle cx="580.856" cy="684.642" r="4" fill="#0" id="circle75"/>
	<circle cx="597.752" cy="6.41363" r="4" fill="#0" id="circle76"/>
	<circle cx="604.993" cy="677.401" r="4" fill="#0" id="circle77"/>
	<circle cx="614.647" cy="25.7226" r="4" fill="#0" id="circle78"/>
	<circle cx="626.715" cy="47.4453" r="4" fill="#0" id="circle79"/>
	<circle cx="629.129" cy="667.747" r="4" fill="#0" id="circle80"/>
	<circle cx="650.852" cy="52.2725" r="4" fill="#0" id="circle81"/>
	<circle cx="653.265" cy="662.92" r="4" fill="#0" id="circle82"/>
	<circle cx="674.988" cy="59.5134" r="4" fill="#0" id="circle83"/>
	<circle cx="677.401" cy="658.092" r="4" fill="#0" id="circle84"/>
	<circle cx="696.71" cy="71.5815" r="4" fill="#0" id="circle85"/>
	<circle cx="701.538" cy="658.092" r="4" fill="#0" id="circle86"/>
	<circle cx="716.019" cy="86.0633" r="4" fill="#0" id="circle87"/>
	<circle cx="725.674" cy="667.747" r="4" fill="#0" id="circle88"/>
	<circle cx="740.156" cy="90.8905" r="4" fill="#0" id="circle89"/>
	<circle cx="744.983" cy="682.229" r="4" fill="#0" id="circle90"/>
	<circle cx="764.292" cy="95.7178" r="4" fill="#0" id="circle91"/>
	<circle cx="769.119" cy="677.401" r="4" fill="#0" id="circle92"/>
	<circle cx="788.428" cy="100.545" r="4" fill="#0" id="circle93"/>
	<circle cx="793.255" cy="670.161" r="4" fill="#0" id="circle94"/>
	<circle cx="812.564" cy="105.372" r="4" fill="#0" id="circle95"/>
	<circle cx="817.392" cy="665.333" r="4" fill="#0" id="circle96"/>
	<circle cx="836.701" cy="110.2" r="4" fill="#0" id="circle97"/>
	<circle cx="841.528" cy="662.92" r="4" fill="#0" id="circle98"/>
	<circle cx="860.837" cy="115.027" r="4" fill="#0" id="circle99"/>
	<circle cx="865.664" cy="662.92" r="4" fill="#0" id="circle100"/>
	<circle cx="884.973" cy="124.681" r="4" fill="#0" id="circle101"/>
	<circle cx="889.8" cy="667.747" r="4" fill="#0" id="circle102"/>
	<circle cx="897.041" cy="691.883" r="4" fill="#0" id="circle103"/>
	<circle cx="897.041" cy="716.019" r="4" fill="#0" id="circle104"/>
	<circle cx="901.869" cy="740.156" r="4" fill="#0" id="circle105"/>
	<circle cx="909.109" cy="129.509" r="4" fill="#0" id="circle106"/>
	<circle cx="926.005" cy="749.81" r="4" fill="#0" id="circle107"/>
	<circle cx="928.418" cy="718.433" r="4" fill="#0" id="circle108"/>
	<circle cx="933.246" cy="139.163" r="4" fill="#0" id="circle109"/>
	<circle cx="933.246" cy="655.679" r="4" fill="#0" id="circle110"/>
	<circle cx="938.073" cy="679.815" r="4" fill="#0" id="circle111"/>
	<circle cx="954.968" cy="699.124" r="4" fill="#0" id="circle112"/>
	<circle cx="957.382" cy="148.818" r="4" fill="#0" id="circle113"/>
	<circle cx="959.796" cy="723.26" r="4" fill="#0" id="circle114"/>
	<circle cx="967.036" cy="747.397" r="4" fill="#0" id="circle115"/>
	<circle cx="971.864" cy="259.844" r="4" fill="#0" id="circle116"/>
	<circle cx="971.864" cy="283.981" r="4" fill="#0" id="circle117"/>
	<circle cx="971.864" cy="308.117" r="4" fill="#0" id="circle118"/>
	<circle cx="971.864" cy="332.253" r="4" fill="#0" id="circle119"/>
	<circle cx="971.864" cy="356.389" r="4" fill="#0" id="circle120"/>
	<circle cx="971.864" cy="380.526" r="4" fill="#0" id="circle121"/>
	<circle cx="974.277" cy="404.662" r="4" fill="#0" id="circle122"/>
	<circle cx="976.691" cy="230.881" r="4" fill="#0" id="circle123"/>
	<circle cx="976.691" cy="428.798" r="4" fill="#0" id="circle124"/>
	<circle cx="979.105" cy="160.886" r="4" fill="#0" id="circle125"/>
	<circle cx="981.518" cy="452.934" r="4" fill="#0" id="circle126"/>
	<circle cx="983.932" cy="477.071" r="4" fill="#0" id="circle127"/>
	<circle cx="986.345" cy="631.543" r="4" fill="#0" id="circle128"/>
	<circle cx="986.345" cy="655.679" r="4" fill="#0" id="circle129"/>
	<circle cx="986.345" cy="708.779" r="4" fill="#0" id="circle130"/>
	<circle cx="986.345" cy="732.915" r="4" fill="#0" id="circle131"/>
	<circle cx="991.173" cy="501.207" r="4" fill="#0" id="circle132"/>
	<circle cx="991.173" cy="525.343" r="4" fill="#0" id="circle133"/>
	<circle cx="991.173" cy="549.479" r="4" fill="#0" id="circle134"/>
	<circle cx="991.173" cy="573.616" r="4" fill="#0" id="circle135"/>
	<circle cx="991.173" cy="597.752" r="4" fill="#0" id="circle136"/>
	<circle cx="991.173" cy="679.815" r="4" fill="#0" id="circle137"/>
	<circle cx="996" cy="180.195" r="4" fill="#0" id="circle138"/>
	<circle cx="996" cy="204.331" r="4" fill="#0" id="circle139"/>
	</g>
</svg>