<?xml version="1.0" encoding="UTF-8" standalone="no"?>
<!-- Created with CurveBenchmark -->
<svg
	xmlns:dc="http://purl.org/dc/elements/1.1/"
	xmlns:cc="http://creativecommons.org/ns#"
	xmlns:rdf="http://www.w3.org/1999/02/22-rdf-syntax-ns#"
	xmlns:svg="http://www.w3.org/2000/svg"
	xmlns="http://www.w3.org/2000/svg"
	xmlns:sodipodi="http://sodipodi.sourceforge.net/DTD/sodipodi-0.dtd"
	xmlns:inkscape="http://www.inkscape.org/namespaces/inkscape"
	width="1000"
	height="1000"
	id="svg2"
	version="1.1"
	sodipodi:docname="manifold/gathan1-Heart20.png.txt">
<defs
	id="defs4" />
<metadata
	id="metadata7">
	<rdf:RDF>
		<cc:Work
			rdf:about="">
			<dc:format>image/svg+xml</dc:format>
			<dc:type
				rdf:resource="http://purl.org/dc/dcmitype/StillImage" />
			<dc:title></dc:title>
		</cc:Work>
	</rdf:RDF>
</metadata>
<g
	inkscape:label="Layer 1"
	inkscape:groupmode="layer"
	id="layer1">
	<path style="fill:none;stroke:red;stroke-width:1px;stroke-linecap:butt;stroke-linejoin:miter;stroke-opacity:1" d="M 52.062,38.6047 71.2868,28.9922 z" id="boundary" inkscape:connector-curvature="0" />
	<path style="fill:none;stroke:red;stroke-width:1px;stroke-linecap:butt;stroke-linejoin:miter;stroke-opacity:1" d="M 13.6124,86.6667 23.2248,67.4419 z" id="boundary" inkscape:connector-curvature="0" />
	<path style="fill:none;stroke:red;stroke-width:1px;stroke-linecap:butt;stroke-linejoin:miter;stroke-opacity:1" d="M 23.2248,67.4419 32.8372,48.2171 z" id="boundary" inkscape:connector-curvature="0" />
	<path style="fill:none;stroke:red;stroke-width:1px;stroke-linecap:butt;stroke-linejoin:miter;stroke-opacity:1" d="M 32.8372,48.2171 52.062,38.6047 z" id="boundary" inkscape:connector-curvature="0" />
	<path style="fill:none;stroke:red;stroke-width:1px;stroke-linecap:butt;stroke-linejoin:miter;stroke-opacity:1" d="M 128.961,4 148.186,4 z" id="boundary" inkscape:connector-curvature="0" />
	<path style="fill:none;stroke:red;stroke-width:1px;stroke-linecap:butt;stroke-linejoin:miter;stroke-opacity:1" d="M 109.736,9.76744 128.961,4 z" id="boundary" inkscape:connector-curvature="0" />
	<path style="fill:none;stroke:red;stroke-width:1px;stroke-linecap:butt;stroke-linejoin:miter;stroke-opacity:1" d="M 90.5116,19.3798 109.736,9.76744 z" id="boundary" inkscape:connector-curvature="0" />
	<path style="fill:none;stroke:red;stroke-width:1px;stroke-linecap:butt;stroke-linejoin:miter;stroke-opacity:1" d="M 71.2868,28.9922 90.5116,19.3798 z" id="boundary" inkscape:connector-curvature="0" />
	<path style="fill:none;stroke:red;stroke-width:1px;stroke-linecap:butt;stroke-linejoin:miter;stroke-opacity:1" d="M 148.186,4 167.411,4 z" id="boundary" inkscape:connector-curvature="0" />
	<path style="fill:none;stroke:red;stroke-width:1px;stroke-linecap:butt;stroke-linejoin:miter;stroke-opacity:1" d="M 4,105.891 13.6124,86.6667 z" id="boundary" inkscape:connector-curvature="0" />
	<path style="fill:none;stroke:red;stroke-width:1px;stroke-linecap:butt;stroke-linejoin:miter;stroke-opacity:1" d="M 4,125.116 4,105.891 z" id="boundary" inkscape:connector-curvature="0" />
	<path style="fill:none;stroke:red;stroke-width:1px;stroke-linecap:butt;stroke-linejoin:miter;stroke-opacity:1" d="M 4,163.566 4,144.341 z" id="boundary" inkscape:connector-curvature="0" />
	<path style="fill:none;stroke:red;stroke-width:1px;stroke-linecap:butt;stroke-linejoin:miter;stroke-opacity:1" d="M 4,182.791 4,163.566 z" id="boundary" inkscape:connector-curvature="0" />
	<path style="fill:none;stroke:red;stroke-width:1px;stroke-linecap:butt;stroke-linejoin:miter;stroke-opacity:1" d="M 13.6124,200.093 4,182.791 z" id="boundary" inkscape:connector-curvature="0" />
	<path style="fill:none;stroke:red;stroke-width:1px;stroke-linecap:butt;stroke-linejoin:miter;stroke-opacity:1" d="M 4,144.341 4,125.116 z" id="boundary" inkscape:connector-curvature="0" />
	<path style="fill:none;stroke:red;stroke-width:1px;stroke-linecap:butt;stroke-linejoin:miter;stroke-opacity:1" d="M 13.6124,200.093 23.2248,217.395 z" id="boundary" inkscape:connector-curvature="0" />
	<path style="fill:none;stroke:red;stroke-width:1px;stroke-linecap:butt;stroke-linejoin:miter;stroke-opacity:1" d="M 23.2248,217.395 32.8372,234.698 z" id="boundary" inkscape:connector-curvature="0" />
	<path style="fill:none;stroke:red;stroke-width:1px;stroke-linecap:butt;stroke-linejoin:miter;stroke-opacity:1" d="M 67.4419,282.76 52.062,269.302 z" id="boundary" inkscape:connector-curvature="0" />
	<path style="fill:none;stroke:red;stroke-width:1px;stroke-linecap:butt;stroke-linejoin:miter;stroke-opacity:1" d="M 52.062,269.302 42.4496,252 z" id="boundary" inkscape:connector-curvature="0" />
	<path style="fill:none;stroke:red;stroke-width:1px;stroke-linecap:butt;stroke-linejoin:miter;stroke-opacity:1" d="M 42.4496,252 32.8372,234.698 z" id="boundary" inkscape:connector-curvature="0" />
	<path style="fill:none;stroke:red;stroke-width:1px;stroke-linecap:butt;stroke-linejoin:miter;stroke-opacity:1" d="M 167.411,4 186.636,4 z" id="boundary" inkscape:connector-curvature="0" />
	<path style="fill:none;stroke:red;stroke-width:1px;stroke-linecap:butt;stroke-linejoin:miter;stroke-opacity:1" d="M 186.636,4 205.86,4 z" id="boundary" inkscape:connector-curvature="0" />
	<path style="fill:none;stroke:red;stroke-width:1px;stroke-linecap:butt;stroke-linejoin:miter;stroke-opacity:1" d="M 225.085,4 242.388,13.6124 z" id="boundary" inkscape:connector-curvature="0" />
	<path style="fill:none;stroke:red;stroke-width:1px;stroke-linecap:butt;stroke-linejoin:miter;stroke-opacity:1" d="M 205.86,4 225.085,4 z" id="boundary" inkscape:connector-curvature="0" />
	<path style="fill:none;stroke:red;stroke-width:1px;stroke-linecap:butt;stroke-linejoin:miter;stroke-opacity:1" d="M 259.69,23.2248 242.388,13.6124 z" id="boundary" inkscape:connector-curvature="0" />
	<path style="fill:none;stroke:red;stroke-width:1px;stroke-linecap:butt;stroke-linejoin:miter;stroke-opacity:1" d="M 276.992,32.8372 294.295,42.4496 z" id="boundary" inkscape:connector-curvature="0" />
	<path style="fill:none;stroke:red;stroke-width:1px;stroke-linecap:butt;stroke-linejoin:miter;stroke-opacity:1" d="M 313.519,48.2171 294.295,42.4496 z" id="boundary" inkscape:connector-curvature="0" />
	<path style="fill:none;stroke:red;stroke-width:1px;stroke-linecap:butt;stroke-linejoin:miter;stroke-opacity:1" d="M 313.519,48.2171 330.822,57.8295 z" id="boundary" inkscape:connector-curvature="0" />
	<path style="fill:none;stroke:red;stroke-width:1px;stroke-linecap:butt;stroke-linejoin:miter;stroke-opacity:1" d="M 342.357,73.2093 330.822,57.8295 z" id="boundary" inkscape:connector-curvature="0" />
	<path style="fill:none;stroke:red;stroke-width:1px;stroke-linecap:butt;stroke-linejoin:miter;stroke-opacity:1" d="M 276.992,32.8372 259.69,23.2248 z" id="boundary" inkscape:connector-curvature="0" />
	<path style="fill:none;stroke:red;stroke-width:1px;stroke-linecap:butt;stroke-linejoin:miter;stroke-opacity:1" d="M 342.357,73.2093 346.202,92.4341 z" id="boundary" inkscape:connector-curvature="0" />
	<path style="fill:none;stroke:red;stroke-width:1px;stroke-linecap:butt;stroke-linejoin:miter;stroke-opacity:1" d="M 346.202,92.4341 351.969,111.659 z" id="boundary" inkscape:connector-curvature="0" />
	<path style="fill:none;stroke:red;stroke-width:1px;stroke-linecap:butt;stroke-linejoin:miter;stroke-opacity:1" d="M 351.969,111.659 351.969,130.884 z" id="boundary" inkscape:connector-curvature="0" />
	<path style="fill:none;stroke:red;stroke-width:1px;stroke-linecap:butt;stroke-linejoin:miter;stroke-opacity:1" d="M 351.969,130.884 351.969,150.109 z" id="boundary" inkscape:connector-curvature="0" />
	<path style="fill:none;stroke:red;stroke-width:1px;stroke-linecap:butt;stroke-linejoin:miter;stroke-opacity:1" d="M 351.969,188.558 351.969,169.333 z" id="boundary" inkscape:connector-curvature="0" />
	<path style="fill:none;stroke:red;stroke-width:1px;stroke-linecap:butt;stroke-linejoin:miter;stroke-opacity:1" d="M 351.969,150.109 351.969,169.333 z" id="boundary" inkscape:connector-curvature="0" />
	<path style="fill:none;stroke:red;stroke-width:1px;stroke-linecap:butt;stroke-linejoin:miter;stroke-opacity:1" d="M 80.8992,298.14 67.4419,282.76 z" id="boundary" inkscape:connector-curvature="0" />
	<path style="fill:none;stroke:red;stroke-width:1px;stroke-linecap:butt;stroke-linejoin:miter;stroke-opacity:1" d="M 351.969,207.783 351.969,188.558 z" id="boundary" inkscape:connector-curvature="0" />
	<path style="fill:none;stroke:red;stroke-width:1px;stroke-linecap:butt;stroke-linejoin:miter;stroke-opacity:1" d="M 351.969,227.008 351.969,207.783 z" id="boundary" inkscape:connector-curvature="0" />
	<path style="fill:none;stroke:red;stroke-width:1px;stroke-linecap:butt;stroke-linejoin:miter;stroke-opacity:1" d="M 361.581,244.31 351.969,227.008 z" id="boundary" inkscape:connector-curvature="0" />
	<path style="fill:none;stroke:red;stroke-width:1px;stroke-linecap:butt;stroke-linejoin:miter;stroke-opacity:1" d="M 371.194,261.612 361.581,244.31 z" id="boundary" inkscape:connector-curvature="0" />
	<path style="fill:none;stroke:red;stroke-width:1px;stroke-linecap:butt;stroke-linejoin:miter;stroke-opacity:1" d="M 394.264,294.295 380.806,278.915 z" id="boundary" inkscape:connector-curvature="0" />
	<path style="fill:none;stroke:red;stroke-width:1px;stroke-linecap:butt;stroke-linejoin:miter;stroke-opacity:1" d="M 380.806,278.915 371.194,261.612 z" id="boundary" inkscape:connector-curvature="0" />
	<path style="fill:none;stroke:red;stroke-width:1px;stroke-linecap:butt;stroke-linejoin:miter;stroke-opacity:1" d="M 90.5116,315.442 100.124,332.744 z" id="boundary" inkscape:connector-curvature="0" />
	<path style="fill:none;stroke:red;stroke-width:1px;stroke-linecap:butt;stroke-linejoin:miter;stroke-opacity:1" d="M 90.5116,315.442 80.8992,298.14 z" id="boundary" inkscape:connector-curvature="0" />
	<path style="fill:none;stroke:red;stroke-width:1px;stroke-linecap:butt;stroke-linejoin:miter;stroke-opacity:1" d="M 100.124,332.744 117.426,342.357 z" id="boundary" inkscape:connector-curvature="0" />
	<path style="fill:none;stroke:red;stroke-width:1px;stroke-linecap:butt;stroke-linejoin:miter;stroke-opacity:1" d="M 117.426,342.357 125.116,361.581 z" id="boundary" inkscape:connector-curvature="0" />
	<path style="fill:none;stroke:red;stroke-width:1px;stroke-linecap:butt;stroke-linejoin:miter;stroke-opacity:1" d="M 140.496,375.039 125.116,361.581 z" id="boundary" inkscape:connector-curvature="0" />
	<path style="fill:none;stroke:red;stroke-width:1px;stroke-linecap:butt;stroke-linejoin:miter;stroke-opacity:1" d="M 140.496,375.039 153.953,390.419 z" id="boundary" inkscape:connector-curvature="0" />
	<path style="fill:none;stroke:red;stroke-width:1px;stroke-linecap:butt;stroke-linejoin:miter;stroke-opacity:1" d="M 169.333,403.876 153.953,390.419 z" id="boundary" inkscape:connector-curvature="0" />
	<path style="fill:none;stroke:red;stroke-width:1px;stroke-linecap:butt;stroke-linejoin:miter;stroke-opacity:1" d="M 186.636,440.403 177.023,423.101 z" id="boundary" inkscape:connector-curvature="0" />
	<path style="fill:none;stroke:red;stroke-width:1px;stroke-linecap:butt;stroke-linejoin:miter;stroke-opacity:1" d="M 177.023,423.101 169.333,403.876 z" id="boundary" inkscape:connector-curvature="0" />
	<path style="fill:none;stroke:red;stroke-width:1px;stroke-linecap:butt;stroke-linejoin:miter;stroke-opacity:1" d="M 186.636,440.403 186.636,459.628 z" id="boundary" inkscape:connector-curvature="0" />
	<path style="fill:none;stroke:red;stroke-width:1px;stroke-linecap:butt;stroke-linejoin:miter;stroke-opacity:1" d="M 167.411,509.612 157.798,528.837 z" id="boundary" inkscape:connector-curvature="0" />
	<path style="fill:none;stroke:red;stroke-width:1px;stroke-linecap:butt;stroke-linejoin:miter;stroke-opacity:1" d="M 157.798,565.364 148.186,548.062 z" id="boundary" inkscape:connector-curvature="0" />
	<path style="fill:none;stroke:red;stroke-width:1px;stroke-linecap:butt;stroke-linejoin:miter;stroke-opacity:1" d="M 148.186,548.062 157.798,528.837 z" id="boundary" inkscape:connector-curvature="0" />
	<path style="fill:none;stroke:red;stroke-width:1px;stroke-linecap:butt;stroke-linejoin:miter;stroke-opacity:1" d="M 184.713,592.279 167.411,582.667 z" id="boundary" inkscape:connector-curvature="0" />
	<path style="fill:none;stroke:red;stroke-width:1px;stroke-linecap:butt;stroke-linejoin:miter;stroke-opacity:1" d="M 167.411,582.667 157.798,565.364 z" id="boundary" inkscape:connector-curvature="0" />
	<path style="fill:none;stroke:red;stroke-width:1px;stroke-linecap:butt;stroke-linejoin:miter;stroke-opacity:1" d="M 202.016,601.891 184.713,592.279 z" id="boundary" inkscape:connector-curvature="0" />
	<path style="fill:none;stroke:red;stroke-width:1px;stroke-linecap:butt;stroke-linejoin:miter;stroke-opacity:1" d="M 177.023,490.388 167.411,509.612 z" id="boundary" inkscape:connector-curvature="0" />
	<path style="fill:none;stroke:red;stroke-width:1px;stroke-linecap:butt;stroke-linejoin:miter;stroke-opacity:1" d="M 227.008,630.729 211.628,619.194 z" id="boundary" inkscape:connector-curvature="0" />
	<path style="fill:none;stroke:red;stroke-width:1px;stroke-linecap:butt;stroke-linejoin:miter;stroke-opacity:1" d="M 211.628,619.194 202.016,601.891 z" id="boundary" inkscape:connector-curvature="0" />
	<path style="fill:none;stroke:red;stroke-width:1px;stroke-linecap:butt;stroke-linejoin:miter;stroke-opacity:1" d="M 244.31,640.341 227.008,630.729 z" id="boundary" inkscape:connector-curvature="0" />
	<path style="fill:none;stroke:red;stroke-width:1px;stroke-linecap:butt;stroke-linejoin:miter;stroke-opacity:1" d="M 177.023,490.388 186.636,459.628 z" id="boundary" inkscape:connector-curvature="0" />
	<path style="fill:none;stroke:red;stroke-width:1px;stroke-linecap:butt;stroke-linejoin:miter;stroke-opacity:1" d="M 244.31,640.341 255.845,655.721 z" id="boundary" inkscape:connector-curvature="0" />
	<path style="fill:none;stroke:red;stroke-width:1px;stroke-linecap:butt;stroke-linejoin:miter;stroke-opacity:1" d="M 271.225,669.178 288.527,678.791 z" id="boundary" inkscape:connector-curvature="0" />
	<path style="fill:none;stroke:red;stroke-width:1px;stroke-linecap:butt;stroke-linejoin:miter;stroke-opacity:1" d="M 288.527,678.791 303.907,692.248 z" id="boundary" inkscape:connector-curvature="0" />
	<path style="fill:none;stroke:red;stroke-width:1px;stroke-linecap:butt;stroke-linejoin:miter;stroke-opacity:1" d="M 271.225,669.178 255.845,655.721 z" id="boundary" inkscape:connector-curvature="0" />
	<path style="fill:none;stroke:red;stroke-width:1px;stroke-linecap:butt;stroke-linejoin:miter;stroke-opacity:1" d="M 321.209,701.86 303.907,692.248 z" id="boundary" inkscape:connector-curvature="0" />
	<path style="fill:none;stroke:red;stroke-width:1px;stroke-linecap:butt;stroke-linejoin:miter;stroke-opacity:1" d="M 417.333,326.977 403.876,311.597 z" id="boundary" inkscape:connector-curvature="0" />
	<path style="fill:none;stroke:red;stroke-width:1px;stroke-linecap:butt;stroke-linejoin:miter;stroke-opacity:1" d="M 432.713,340.434 417.333,326.977 z" id="boundary" inkscape:connector-curvature="0" />
	<path style="fill:none;stroke:red;stroke-width:1px;stroke-linecap:butt;stroke-linejoin:miter;stroke-opacity:1" d="M 453.86,371.194 438.481,359.659 z" id="boundary" inkscape:connector-curvature="0" />
	<path style="fill:none;stroke:red;stroke-width:1px;stroke-linecap:butt;stroke-linejoin:miter;stroke-opacity:1" d="M 438.481,359.659 432.713,340.434 z" id="boundary" inkscape:connector-curvature="0" />
	<path style="fill:none;stroke:red;stroke-width:1px;stroke-linecap:butt;stroke-linejoin:miter;stroke-opacity:1" d="M 403.876,311.597 394.264,294.295 z" id="boundary" inkscape:connector-curvature="0" />
	<path style="fill:none;stroke:red;stroke-width:1px;stroke-linecap:butt;stroke-linejoin:miter;stroke-opacity:1" d="M 336.589,715.318 350.047,730.698 z" id="boundary" inkscape:connector-curvature="0" />
	<path style="fill:none;stroke:red;stroke-width:1px;stroke-linecap:butt;stroke-linejoin:miter;stroke-opacity:1" d="M 336.589,715.318 321.209,701.86 z" id="boundary" inkscape:connector-curvature="0" />
	<path style="fill:none;stroke:red;stroke-width:1px;stroke-linecap:butt;stroke-linejoin:miter;stroke-opacity:1" d="M 350.047,730.698 369.271,736.465 z" id="boundary" inkscape:connector-curvature="0" />
	<path style="fill:none;stroke:red;stroke-width:1px;stroke-linecap:butt;stroke-linejoin:miter;stroke-opacity:1" d="M 369.271,736.465 380.806,751.845 z" id="boundary" inkscape:connector-curvature="0" />
	<path style="fill:none;stroke:red;stroke-width:1px;stroke-linecap:butt;stroke-linejoin:miter;stroke-opacity:1" d="M 380.806,751.845 396.186,765.302 z" id="boundary" inkscape:connector-curvature="0" />
	<path style="fill:none;stroke:red;stroke-width:1px;stroke-linecap:butt;stroke-linejoin:miter;stroke-opacity:1" d="M 396.186,765.302 413.488,774.915 z" id="boundary" inkscape:connector-curvature="0" />
	<path style="fill:none;stroke:red;stroke-width:1px;stroke-linecap:butt;stroke-linejoin:miter;stroke-opacity:1" d="M 428.868,788.372 413.488,774.915 z" id="boundary" inkscape:connector-curvature="0" />
	<path style="fill:none;stroke:red;stroke-width:1px;stroke-linecap:butt;stroke-linejoin:miter;stroke-opacity:1" d="M 428.868,788.372 436.558,807.597 z" id="boundary" inkscape:connector-curvature="0" />
	<path style="fill:none;stroke:red;stroke-width:1px;stroke-linecap:butt;stroke-linejoin:miter;stroke-opacity:1" d="M 436.558,807.597 451.938,821.054 z" id="boundary" inkscape:connector-curvature="0" />
	<path style="fill:none;stroke:red;stroke-width:1px;stroke-linecap:butt;stroke-linejoin:miter;stroke-opacity:1" d="M 451.938,821.054 465.395,836.434 z" id="boundary" inkscape:connector-curvature="0" />
	<path style="fill:none;stroke:red;stroke-width:1px;stroke-linecap:butt;stroke-linejoin:miter;stroke-opacity:1" d="M 484.62,842.202 465.395,836.434 z" id="boundary" inkscape:connector-curvature="0" />
	<path style="fill:none;stroke:red;stroke-width:1px;stroke-linecap:butt;stroke-linejoin:miter;stroke-opacity:1" d="M 663.411,42.4496 682.636,32.8372 z" id="boundary" inkscape:connector-curvature="0" />
	<path style="fill:none;stroke:red;stroke-width:1px;stroke-linecap:butt;stroke-linejoin:miter;stroke-opacity:1" d="M 638.419,77.0543 648.031,57.8295 z" id="boundary" inkscape:connector-curvature="0" />
	<path style="fill:none;stroke:red;stroke-width:1px;stroke-linecap:butt;stroke-linejoin:miter;stroke-opacity:1" d="M 638.419,96.2791 638.419,77.0543 z" id="boundary" inkscape:connector-curvature="0" />
	<path style="fill:none;stroke:red;stroke-width:1px;stroke-linecap:butt;stroke-linejoin:miter;stroke-opacity:1" d="M 648.031,57.8295 663.411,42.4496 z" id="boundary" inkscape:connector-curvature="0" />
	<path style="fill:none;stroke:red;stroke-width:1px;stroke-linecap:butt;stroke-linejoin:miter;stroke-opacity:1" d="M 638.419,96.2791 628.806,125.116 z" id="boundary" inkscape:connector-curvature="0" />
	<path style="fill:none;stroke:red;stroke-width:1px;stroke-linecap:butt;stroke-linejoin:miter;stroke-opacity:1" d="M 701.86,23.2248 721.085,23.2248 z" id="boundary" inkscape:connector-curvature="0" />
	<path style="fill:none;stroke:red;stroke-width:1px;stroke-linecap:butt;stroke-linejoin:miter;stroke-opacity:1" d="M 682.636,32.8372 701.86,23.2248 z" id="boundary" inkscape:connector-curvature="0" />
	<path style="fill:none;stroke:red;stroke-width:1px;stroke-linecap:butt;stroke-linejoin:miter;stroke-opacity:1" d="M 759.535,23.2248 740.31,23.2248 z" id="boundary" inkscape:connector-curvature="0" />
	<path style="fill:none;stroke:red;stroke-width:1px;stroke-linecap:butt;stroke-linejoin:miter;stroke-opacity:1" d="M 778.76,23.2248 759.535,23.2248 z" id="boundary" inkscape:connector-curvature="0" />
	<path style="fill:none;stroke:red;stroke-width:1px;stroke-linecap:butt;stroke-linejoin:miter;stroke-opacity:1" d="M 740.31,23.2248 721.085,23.2248 z" id="boundary" inkscape:connector-curvature="0" />
	<path style="fill:none;stroke:red;stroke-width:1px;stroke-linecap:butt;stroke-linejoin:miter;stroke-opacity:1" d="M 592.279,267.38 601.891,248.155 z" id="boundary" inkscape:connector-curvature="0" />
	<path style="fill:none;stroke:red;stroke-width:1px;stroke-linecap:butt;stroke-linejoin:miter;stroke-opacity:1" d="M 569.209,301.984 553.829,315.442 z" id="boundary" inkscape:connector-curvature="0" />
	<path style="fill:none;stroke:red;stroke-width:1px;stroke-linecap:butt;stroke-linejoin:miter;stroke-opacity:1" d="M 592.279,267.38 582.667,286.605 z" id="boundary" inkscape:connector-curvature="0" />
	<path style="fill:none;stroke:red;stroke-width:1px;stroke-linecap:butt;stroke-linejoin:miter;stroke-opacity:1" d="M 582.667,286.605 569.209,301.984 z" id="boundary" inkscape:connector-curvature="0" />
	<path style="fill:none;stroke:red;stroke-width:1px;stroke-linecap:butt;stroke-linejoin:miter;stroke-opacity:1" d="M 544.217,334.667 553.829,315.442 z" id="boundary" inkscape:connector-curvature="0" />
	<path style="fill:none;stroke:red;stroke-width:1px;stroke-linecap:butt;stroke-linejoin:miter;stroke-opacity:1" d="M 611.504,228.93 601.891,248.155 z" id="boundary" inkscape:connector-curvature="0" />
	<path style="fill:none;stroke:red;stroke-width:1px;stroke-linecap:butt;stroke-linejoin:miter;stroke-opacity:1" d="M 628.806,144.341 628.806,125.116 z" id="boundary" inkscape:connector-curvature="0" />
	<path style="fill:none;stroke:red;stroke-width:1px;stroke-linecap:butt;stroke-linejoin:miter;stroke-opacity:1" d="M 628.806,163.566 628.806,144.341 z" id="boundary" inkscape:connector-curvature="0" />
	<path style="fill:none;stroke:red;stroke-width:1px;stroke-linecap:butt;stroke-linejoin:miter;stroke-opacity:1" d="M 621.116,209.705 611.504,228.93 z" id="boundary" inkscape:connector-curvature="0" />
	<path style="fill:none;stroke:red;stroke-width:1px;stroke-linecap:butt;stroke-linejoin:miter;stroke-opacity:1" d="M 628.806,163.566 628.806,182.791 z" id="boundary" inkscape:connector-curvature="0" />
	<path style="fill:none;stroke:red;stroke-width:1px;stroke-linecap:butt;stroke-linejoin:miter;stroke-opacity:1" d="M 628.806,182.791 621.116,209.705 z" id="boundary" inkscape:connector-curvature="0" />
	<path style="fill:none;stroke:red;stroke-width:1px;stroke-linecap:butt;stroke-linejoin:miter;stroke-opacity:1" d="M 778.76,23.2248 796.062,32.8372 z" id="boundary" inkscape:connector-curvature="0" />
	<path style="fill:none;stroke:red;stroke-width:1px;stroke-linecap:butt;stroke-linejoin:miter;stroke-opacity:1" d="M 813.364,42.4496 796.062,32.8372 z" id="boundary" inkscape:connector-curvature="0" />
	<path style="fill:none;stroke:red;stroke-width:1px;stroke-linecap:butt;stroke-linejoin:miter;stroke-opacity:1" d="M 832.589,48.2171 813.364,42.4496 z" id="boundary" inkscape:connector-curvature="0" />
	<path style="fill:none;stroke:red;stroke-width:1px;stroke-linecap:butt;stroke-linejoin:miter;stroke-opacity:1" d="M 869.116,65.5194 849.891,57.8295 z" id="boundary" inkscape:connector-curvature="0" />
	<path style="fill:none;stroke:red;stroke-width:1px;stroke-linecap:butt;stroke-linejoin:miter;stroke-opacity:1" d="M 849.891,57.8295 832.589,48.2171 z" id="boundary" inkscape:connector-curvature="0" />
	<path style="fill:none;stroke:red;stroke-width:1px;stroke-linecap:butt;stroke-linejoin:miter;stroke-opacity:1" d="M 869.116,65.5194 886.419,75.1318 z" id="boundary" inkscape:connector-curvature="0" />
	<path style="fill:none;stroke:red;stroke-width:1px;stroke-linecap:butt;stroke-linejoin:miter;stroke-opacity:1" d="M 886.419,75.1318 905.643,82.8217 z" id="boundary" inkscape:connector-curvature="0" />
	<path style="fill:none;stroke:red;stroke-width:1px;stroke-linecap:butt;stroke-linejoin:miter;stroke-opacity:1" d="M 905.643,82.8217 919.101,98.2016 z" id="boundary" inkscape:connector-curvature="0" />
	<path style="fill:none;stroke:red;stroke-width:1px;stroke-linecap:butt;stroke-linejoin:miter;stroke-opacity:1" d="M 919.101,98.2016 934.481,109.736 z" id="boundary" inkscape:connector-curvature="0" />
	<path style="fill:none;stroke:red;stroke-width:1px;stroke-linecap:butt;stroke-linejoin:miter;stroke-opacity:1" d="M 934.481,109.736 947.938,125.116 z" id="boundary" inkscape:connector-curvature="0" />
	<path style="fill:none;stroke:red;stroke-width:1px;stroke-linecap:butt;stroke-linejoin:miter;stroke-opacity:1" d="M 947.938,125.116 957.55,142.419 z" id="boundary" inkscape:connector-curvature="0" />
	<path style="fill:none;stroke:red;stroke-width:1px;stroke-linecap:butt;stroke-linejoin:miter;stroke-opacity:1" d="M 976.775,177.023 986.388,194.326 z" id="boundary" inkscape:connector-curvature="0" />
	<path style="fill:none;stroke:red;stroke-width:1px;stroke-linecap:butt;stroke-linejoin:miter;stroke-opacity:1" d="M 986.388,194.326 986.388,213.55 z" id="boundary" inkscape:connector-curvature="0" />
	<path style="fill:none;stroke:red;stroke-width:1px;stroke-linecap:butt;stroke-linejoin:miter;stroke-opacity:1" d="M 996,230.853 986.388,213.55 z" id="boundary" inkscape:connector-curvature="0" />
	<path style="fill:none;stroke:red;stroke-width:1px;stroke-linecap:butt;stroke-linejoin:miter;stroke-opacity:1" d="M 967.163,159.721 976.775,177.023 z" id="boundary" inkscape:connector-curvature="0" />
	<path style="fill:none;stroke:red;stroke-width:1px;stroke-linecap:butt;stroke-linejoin:miter;stroke-opacity:1" d="M 996,230.853 996,250.078 z" id="boundary" inkscape:connector-curvature="0" />
	<path style="fill:none;stroke:red;stroke-width:1px;stroke-linecap:butt;stroke-linejoin:miter;stroke-opacity:1" d="M 996,250.078 996,269.302 z" id="boundary" inkscape:connector-curvature="0" />
	<path style="fill:none;stroke:red;stroke-width:1px;stroke-linecap:butt;stroke-linejoin:miter;stroke-opacity:1" d="M 996,288.527 996,307.752 z" id="boundary" inkscape:connector-curvature="0" />
	<path style="fill:none;stroke:red;stroke-width:1px;stroke-linecap:butt;stroke-linejoin:miter;stroke-opacity:1" d="M 996,269.302 996,288.527 z" id="boundary" inkscape:connector-curvature="0" />
	<path style="fill:none;stroke:red;stroke-width:1px;stroke-linecap:butt;stroke-linejoin:miter;stroke-opacity:1" d="M 957.55,142.419 967.163,159.721 z" id="boundary" inkscape:connector-curvature="0" />
	<path style="fill:none;stroke:red;stroke-width:1px;stroke-linecap:butt;stroke-linejoin:miter;stroke-opacity:1" d="M 996,307.752 996,326.977 z" id="boundary" inkscape:connector-curvature="0" />
	<path style="fill:none;stroke:red;stroke-width:1px;stroke-linecap:butt;stroke-linejoin:miter;stroke-opacity:1" d="M 996,326.977 986.388,361.581 z" id="boundary" inkscape:connector-curvature="0" />
	<path style="fill:none;stroke:red;stroke-width:1px;stroke-linecap:butt;stroke-linejoin:miter;stroke-opacity:1" d="M 524.992,373.116 511.535,388.496 z" id="boundary" inkscape:connector-curvature="0" />
	<path style="fill:none;stroke:red;stroke-width:1px;stroke-linecap:butt;stroke-linejoin:miter;stroke-opacity:1" d="M 467.318,386.574 453.86,371.194 z" id="boundary" inkscape:connector-curvature="0" />
	<path style="fill:none;stroke:red;stroke-width:1px;stroke-linecap:butt;stroke-linejoin:miter;stroke-opacity:1" d="M 496.155,401.953 476.93,403.876 z" id="boundary" inkscape:connector-curvature="0" />
	<path style="fill:none;stroke:red;stroke-width:1px;stroke-linecap:butt;stroke-linejoin:miter;stroke-opacity:1" d="M 476.93,403.876 467.318,386.574 z" id="boundary" inkscape:connector-curvature="0" />
	<path style="fill:none;stroke:red;stroke-width:1px;stroke-linecap:butt;stroke-linejoin:miter;stroke-opacity:1" d="M 511.535,388.496 496.155,401.953 z" id="boundary" inkscape:connector-curvature="0" />
	<path style="fill:none;stroke:red;stroke-width:1px;stroke-linecap:butt;stroke-linejoin:miter;stroke-opacity:1" d="M 524.992,373.116 534.605,353.891 z" id="boundary" inkscape:connector-curvature="0" />
	<path style="fill:none;stroke:red;stroke-width:1px;stroke-linecap:butt;stroke-linejoin:miter;stroke-opacity:1" d="M 682.636,734.543 698.016,717.24 z" id="boundary" inkscape:connector-curvature="0" />
	<path style="fill:none;stroke:red;stroke-width:1px;stroke-linecap:butt;stroke-linejoin:miter;stroke-opacity:1" d="M 698.016,717.24 715.318,707.628 z" id="boundary" inkscape:connector-curvature="0" />
	<path style="fill:none;stroke:red;stroke-width:1px;stroke-linecap:butt;stroke-linejoin:miter;stroke-opacity:1" d="M 730.698,696.093 715.318,707.628 z" id="boundary" inkscape:connector-curvature="0" />
	<path style="fill:none;stroke:red;stroke-width:1px;stroke-linecap:butt;stroke-linejoin:miter;stroke-opacity:1" d="M 534.605,353.891 544.217,334.667 z" id="boundary" inkscape:connector-curvature="0" />
	<path style="fill:none;stroke:red;stroke-width:1px;stroke-linecap:butt;stroke-linejoin:miter;stroke-opacity:1" d="M 682.636,734.543 663.411,744.155 z" id="boundary" inkscape:connector-curvature="0" />
	<path style="fill:none;stroke:red;stroke-width:1px;stroke-linecap:butt;stroke-linejoin:miter;stroke-opacity:1" d="M 538.45,821.054 553.829,803.752 z" id="boundary" inkscape:connector-curvature="0" />
	<path style="fill:none;stroke:red;stroke-width:1px;stroke-linecap:butt;stroke-linejoin:miter;stroke-opacity:1" d="M 553.829,803.752 571.132,794.14 z" id="boundary" inkscape:connector-curvature="0" />
	<path style="fill:none;stroke:red;stroke-width:1px;stroke-linecap:butt;stroke-linejoin:miter;stroke-opacity:1" d="M 538.45,821.054 519.225,830.667 z" id="boundary" inkscape:connector-curvature="0" />
	<path style="fill:none;stroke:red;stroke-width:1px;stroke-linecap:butt;stroke-linejoin:miter;stroke-opacity:1" d="M 519.225,830.667 503.845,846.047 z" id="boundary" inkscape:connector-curvature="0" />
	<path style="fill:none;stroke:red;stroke-width:1px;stroke-linecap:butt;stroke-linejoin:miter;stroke-opacity:1" d="M 503.845,846.047 484.62,842.202 z" id="boundary" inkscape:connector-curvature="0" />
	<path style="fill:none;stroke:red;stroke-width:1px;stroke-linecap:butt;stroke-linejoin:miter;stroke-opacity:1" d="M 624.961,763.38 644.186,753.767 z" id="boundary" inkscape:connector-curvature="0" />
	<path style="fill:none;stroke:red;stroke-width:1px;stroke-linecap:butt;stroke-linejoin:miter;stroke-opacity:1" d="M 663.411,744.155 644.186,753.767 z" id="boundary" inkscape:connector-curvature="0" />
	<path style="fill:none;stroke:red;stroke-width:1px;stroke-linecap:butt;stroke-linejoin:miter;stroke-opacity:1" d="M 588.434,784.527 571.132,794.14 z" id="boundary" inkscape:connector-curvature="0" />
	<path style="fill:none;stroke:red;stroke-width:1px;stroke-linecap:butt;stroke-linejoin:miter;stroke-opacity:1" d="M 588.434,784.527 605.736,772.992 z" id="boundary" inkscape:connector-curvature="0" />
	<path style="fill:none;stroke:red;stroke-width:1px;stroke-linecap:butt;stroke-linejoin:miter;stroke-opacity:1" d="M 605.736,772.992 624.961,763.38 z" id="boundary" inkscape:connector-curvature="0" />
	<path style="fill:none;stroke:red;stroke-width:1px;stroke-linecap:butt;stroke-linejoin:miter;stroke-opacity:1" d="M 947.938,476.93 934.481,501.922 z" id="boundary" inkscape:connector-curvature="0" />
	<path style="fill:none;stroke:red;stroke-width:1px;stroke-linecap:butt;stroke-linejoin:miter;stroke-opacity:1" d="M 934.481,501.922 919.101,515.38 z" id="boundary" inkscape:connector-curvature="0" />
	<path style="fill:none;stroke:red;stroke-width:1px;stroke-linecap:butt;stroke-linejoin:miter;stroke-opacity:1" d="M 919.101,515.38 909.488,534.605 z" id="boundary" inkscape:connector-curvature="0" />
	<path style="fill:none;stroke:red;stroke-width:1px;stroke-linecap:butt;stroke-linejoin:miter;stroke-opacity:1" d="M 909.488,534.605 896.031,549.984 z" id="boundary" inkscape:connector-curvature="0" />
	<path style="fill:none;stroke:red;stroke-width:1px;stroke-linecap:butt;stroke-linejoin:miter;stroke-opacity:1" d="M 957.55,457.705 947.938,476.93 z" id="boundary" inkscape:connector-curvature="0" />
	<path style="fill:none;stroke:red;stroke-width:1px;stroke-linecap:butt;stroke-linejoin:miter;stroke-opacity:1" d="M 986.388,361.581 986.388,380.806 z" id="boundary" inkscape:connector-curvature="0" />
	<path style="fill:none;stroke:red;stroke-width:1px;stroke-linecap:butt;stroke-linejoin:miter;stroke-opacity:1" d="M 986.388,380.806 976.775,400.031 z" id="boundary" inkscape:connector-curvature="0" />
	<path style="fill:none;stroke:red;stroke-width:1px;stroke-linecap:butt;stroke-linejoin:miter;stroke-opacity:1" d="M 976.775,419.256 976.775,400.031 z" id="boundary" inkscape:connector-curvature="0" />
	<path style="fill:none;stroke:red;stroke-width:1px;stroke-linecap:butt;stroke-linejoin:miter;stroke-opacity:1" d="M 967.163,438.481 957.55,457.705 z" id="boundary" inkscape:connector-curvature="0" />
	<path style="fill:none;stroke:red;stroke-width:1px;stroke-linecap:butt;stroke-linejoin:miter;stroke-opacity:1" d="M 976.775,419.256 967.163,438.481 z" id="boundary" inkscape:connector-curvature="0" />
	<path style="fill:none;stroke:red;stroke-width:1px;stroke-linecap:butt;stroke-linejoin:miter;stroke-opacity:1" d="M 896.031,549.984 880.651,563.442 z" id="boundary" inkscape:connector-curvature="0" />
	<path style="fill:none;stroke:red;stroke-width:1px;stroke-linecap:butt;stroke-linejoin:miter;stroke-opacity:1" d="M 782.605,659.566 797.984,648.031 z" id="boundary" inkscape:connector-curvature="0" />
	<path style="fill:none;stroke:red;stroke-width:1px;stroke-linecap:butt;stroke-linejoin:miter;stroke-opacity:1" d="M 813.364,630.729 797.984,648.031 z" id="boundary" inkscape:connector-curvature="0" />
	<path style="fill:none;stroke:red;stroke-width:1px;stroke-linecap:butt;stroke-linejoin:miter;stroke-opacity:1" d="M 765.302,669.178 749.922,686.481 z" id="boundary" inkscape:connector-curvature="0" />
	<path style="fill:none;stroke:red;stroke-width:1px;stroke-linecap:butt;stroke-linejoin:miter;stroke-opacity:1" d="M 749.922,686.481 730.698,696.093 z" id="boundary" inkscape:connector-curvature="0" />
	<path style="fill:none;stroke:red;stroke-width:1px;stroke-linecap:butt;stroke-linejoin:miter;stroke-opacity:1" d="M 765.302,669.178 782.605,659.566 z" id="boundary" inkscape:connector-curvature="0" />
	<path style="fill:none;stroke:red;stroke-width:1px;stroke-linecap:butt;stroke-linejoin:miter;stroke-opacity:1" d="M 880.651,563.442 872.961,582.667 z" id="boundary" inkscape:connector-curvature="0" />
	<path style="fill:none;stroke:red;stroke-width:1px;stroke-linecap:butt;stroke-linejoin:miter;stroke-opacity:1" d="M 872.961,582.667 855.659,592.279 z" id="boundary" inkscape:connector-curvature="0" />
	<path style="fill:none;stroke:red;stroke-width:1px;stroke-linecap:butt;stroke-linejoin:miter;stroke-opacity:1" d="M 846.047,609.581 855.659,592.279 z" id="boundary" inkscape:connector-curvature="0" />
	<path style="fill:none;stroke:red;stroke-width:1px;stroke-linecap:butt;stroke-linejoin:miter;stroke-opacity:1" d="M 830.667,621.116 813.364,630.729 z" id="boundary" inkscape:connector-curvature="0" />
	<path style="fill:none;stroke:red;stroke-width:1px;stroke-linecap:butt;stroke-linejoin:miter;stroke-opacity:1" d="M 846.047,609.581 830.667,621.116 z" id="boundary" inkscape:connector-curvature="0" />
	<circle cx="4" cy="105.891" r="4" fill="#0" id="circle0"/>
	<circle cx="4" cy="125.116" r="4" fill="#0" id="circle1"/>
	<circle cx="4" cy="144.341" r="4" fill="#0" id="circle2"/>
	<circle cx="4" cy="163.566" r="4" fill="#0" id="circle3"/>
	<circle cx="4" cy="182.791" r="4" fill="#0" id="circle4"/>
	<circle cx="13.6124" cy="86.6667" r="4" fill="#0" id="circle5"/>
	<circle cx="13.6124" cy="200.093" r="4" fill="#0" id="circle6"/>
	<circle cx="23.2248" cy="67.4419" r="4" fill="#0" id="circle7"/>
	<circle cx="23.2248" cy="217.395" r="4" fill="#0" id="circle8"/>
	<circle cx="32.8372" cy="48.2171" r="4" fill="#0" id="circle9"/>
	<circle cx="32.8372" cy="234.698" r="4" fill="#0" id="circle10"/>
	<circle cx="42.4496" cy="252" r="4" fill="#0" id="circle11"/>
	<circle cx="52.062" cy="38.6047" r="4" fill="#0" id="circle12"/>
	<circle cx="52.062" cy="269.302" r="4" fill="#0" id="circle13"/>
	<circle cx="67.4419" cy="282.76" r="4" fill="#0" id="circle14"/>
	<circle cx="71.2868" cy="28.9922" r="4" fill="#0" id="circle15"/>
	<circle cx="80.8992" cy="298.14" r="4" fill="#0" id="circle16"/>
	<circle cx="90.5116" cy="19.3798" r="4" fill="#0" id="circle17"/>
	<circle cx="90.5116" cy="315.442" r="4" fill="#0" id="circle18"/>
	<circle cx="100.124" cy="332.744" r="4" fill="#0" id="circle19"/>
	<circle cx="109.736" cy="9.76744" r="4" fill="#0" id="circle20"/>
	<circle cx="117.426" cy="342.357" r="4" fill="#0" id="circle21"/>
	<circle cx="125.116" cy="361.581" r="4" fill="#0" id="circle22"/>
	<circle cx="128.961" cy="4" r="4" fill="#0" id="circle23"/>
	<circle cx="140.496" cy="375.039" r="4" fill="#0" id="circle24"/>
	<circle cx="148.186" cy="4" r="4" fill="#0" id="circle25"/>
	<circle cx="148.186" cy="548.062" r="4" fill="#0" id="circle26"/>
	<circle cx="153.953" cy="390.419" r="4" fill="#0" id="circle27"/>
	<circle cx="157.798" cy="528.837" r="4" fill="#0" id="circle28"/>
	<circle cx="157.798" cy="565.364" r="4" fill="#0" id="circle29"/>
	<circle cx="167.411" cy="4" r="4" fill="#0" id="circle30"/>
	<circle cx="167.411" cy="509.612" r="4" fill="#0" id="circle31"/>
	<circle cx="167.411" cy="582.667" r="4" fill="#0" id="circle32"/>
	<circle cx="169.333" cy="403.876" r="4" fill="#0" id="circle33"/>
	<circle cx="177.023" cy="423.101" r="4" fill="#0" id="circle34"/>
	<circle cx="177.023" cy="490.388" r="4" fill="#0" id="circle35"/>
	<circle cx="184.713" cy="592.279" r="4" fill="#0" id="circle36"/>
	<circle cx="186.636" cy="4" r="4" fill="#0" id="circle37"/>
	<circle cx="186.636" cy="440.403" r="4" fill="#0" id="circle38"/>
	<circle cx="186.636" cy="459.628" r="4" fill="#0" id="circle39"/>
	<circle cx="202.016" cy="601.891" r="4" fill="#0" id="circle40"/>
	<circle cx="205.86" cy="4" r="4" fill="#0" id="circle41"/>
	<circle cx="211.628" cy="619.194" r="4" fill="#0" id="circle42"/>
	<circle cx="225.085" cy="4" r="4" fill="#0" id="circle43"/>
	<circle cx="227.008" cy="630.729" r="4" fill="#0" id="circle44"/>
	<circle cx="242.388" cy="13.6124" r="4" fill="#0" id="circle45"/>
	<circle cx="244.31" cy="640.341" r="4" fill="#0" id="circle46"/>
	<circle cx="255.845" cy="655.721" r="4" fill="#0" id="circle47"/>
	<circle cx="259.69" cy="23.2248" r="4" fill="#0" id="circle48"/>
	<circle cx="271.225" cy="669.178" r="4" fill="#0" id="circle49"/>
	<circle cx="276.992" cy="32.8372" r="4" fill="#0" id="circle50"/>
	<circle cx="288.527" cy="678.791" r="4" fill="#0" id="circle51"/>
	<circle cx="294.295" cy="42.4496" r="4" fill="#0" id="circle52"/>
	<circle cx="303.907" cy="692.248" r="4" fill="#0" id="circle53"/>
	<circle cx="313.519" cy="48.2171" r="4" fill="#0" id="circle54"/>
	<circle cx="321.209" cy="701.86" r="4" fill="#0" id="circle55"/>
	<circle cx="330.822" cy="57.8295" r="4" fill="#0" id="circle56"/>
	<circle cx="336.589" cy="715.318" r="4" fill="#0" id="circle57"/>
	<circle cx="342.357" cy="73.2093" r="4" fill="#0" id="circle58"/>
	<circle cx="346.202" cy="92.4341" r="4" fill="#0" id="circle59"/>
	<circle cx="350.047" cy="730.698" r="4" fill="#0" id="circle60"/>
	<circle cx="351.969" cy="111.659" r="4" fill="#0" id="circle61"/>
	<circle cx="351.969" cy="130.884" r="4" fill="#0" id="circle62"/>
	<circle cx="351.969" cy="150.109" r="4" fill="#0" id="circle63"/>
	<circle cx="351.969" cy="169.333" r="4" fill="#0" id="circle64"/>
	<circle cx="351.969" cy="188.558" r="4" fill="#0" id="circle65"/>
	<circle cx="351.969" cy="207.783" r="4" fill="#0" id="circle66"/>
	<circle cx="351.969" cy="227.008" r="4" fill="#0" id="circle67"/>
	<circle cx="361.581" cy="244.31" r="4" fill="#0" id="circle68"/>
	<circle cx="369.271" cy="736.465" r="4" fill="#0" id="circle69"/>
	<circle cx="371.194" cy="261.612" r="4" fill="#0" id="circle70"/>
	<circle cx="380.806" cy="278.915" r="4" fill="#0" id="circle71"/>
	<circle cx="380.806" cy="751.845" r="4" fill="#0" id="circle72"/>
	<circle cx="394.264" cy="294.295" r="4" fill="#0" id="circle73"/>
	<circle cx="396.186" cy="765.302" r="4" fill="#0" id="circle74"/>
	<circle cx="403.876" cy="311.597" r="4" fill="#0" id="circle75"/>
	<circle cx="413.488" cy="774.915" r="4" fill="#0" id="circle76"/>
	<circle cx="417.333" cy="326.977" r="4" fill="#0" id="circle77"/>
	<circle cx="428.868" cy="788.372" r="4" fill="#0" id="circle78"/>
	<circle cx="432.713" cy="340.434" r="4" fill="#0" id="circle79"/>
	<circle cx="436.558" cy="807.597" r="4" fill="#0" id="circle80"/>
	<circle cx="438.481" cy="359.659" r="4" fill="#0" id="circle81"/>
	<circle cx="451.938" cy="821.054" r="4" fill="#0" id="circle82"/>
	<circle cx="453.86" cy="371.194" r="4" fill="#0" id="circle83"/>
	<circle cx="465.395" cy="836.434" r="4" fill="#0" id="circle84"/>
	<circle cx="467.318" cy="386.574" r="4" fill="#0" id="circle85"/>
	<circle cx="476.93" cy="403.876" r="4" fill="#0" id="circle86"/>
	<circle cx="484.62" cy="842.202" r="4" fill="#0" id="circle87"/>
	<circle cx="496.155" cy="401.953" r="4" fill="#0" id="circle88"/>
	<circle cx="503.845" cy="846.047" r="4" fill="#0" id="circle89"/>
	<circle cx="511.535" cy="388.496" r="4" fill="#0" id="circle90"/>
	<circle cx="519.225" cy="830.667" r="4" fill="#0" id="circle91"/>
	<circle cx="524.992" cy="373.116" r="4" fill="#0" id="circle92"/>
	<circle cx="534.605" cy="353.891" r="4" fill="#0" id="circle93"/>
	<circle cx="538.45" cy="821.054" r="4" fill="#0" id="circle94"/>
	<circle cx="544.217" cy="334.667" r="4" fill="#0" id="circle95"/>
	<circle cx="553.829" cy="315.442" r="4" fill="#0" id="circle96"/>
	<circle cx="553.829" cy="803.752" r="4" fill="#0" id="circle97"/>
	<circle cx="569.209" cy="301.984" r="4" fill="#0" id="circle98"/>
	<circle cx="571.132" cy="794.14" r="4" fill="#0" id="circle99"/>
	<circle cx="582.667" cy="286.605" r="4" fill="#0" id="circle100"/>
	<circle cx="588.434" cy="784.527" r="4" fill="#0" id="circle101"/>
	<circle cx="592.279" cy="267.38" r="4" fill="#0" id="circle102"/>
	<circle cx="601.891" cy="248.155" r="4" fill="#0" id="circle103"/>
	<circle cx="605.736" cy="772.992" r="4" fill="#0" id="circle104"/>
	<circle cx="611.504" cy="228.93" r="4" fill="#0" id="circle105"/>
	<circle cx="621.116" cy="209.705" r="4" fill="#0" id="circle106"/>
	<circle cx="624.961" cy="763.38" r="4" fill="#0" id="circle107"/>
	<circle cx="628.806" cy="125.116" r="4" fill="#0" id="circle108"/>
	<circle cx="628.806" cy="144.341" r="4" fill="#0" id="circle109"/>
	<circle cx="628.806" cy="163.566" r="4" fill="#0" id="circle110"/>
	<circle cx="628.806" cy="182.791" r="4" fill="#0" id="circle111"/>
	<circle cx="638.419" cy="77.0543" r="4" fill="#0" id="circle112"/>
	<circle cx="638.419" cy="96.2791" r="4" fill="#0" id="circle113"/>
	<circle cx="644.186" cy="753.767" r="4" fill="#0" id="circle114"/>
	<circle cx="648.031" cy="57.8295" r="4" fill="#0" id="circle115"/>
	<circle cx="663.411" cy="42.4496" r="4" fill="#0" id="circle116"/>
	<circle cx="663.411" cy="744.155" r="4" fill="#0" id="circle117"/>
	<circle cx="682.636" cy="32.8372" r="4" fill="#0" id="circle118"/>
	<circle cx="682.636" cy="734.543" r="4" fill="#0" id="circle119"/>
	<circle cx="698.016" cy="717.24" r="4" fill="#0" id="circle120"/>
	<circle cx="701.86" cy="23.2248" r="4" fill="#0" id="circle121"/>
	<circle cx="715.318" cy="707.628" r="4" fill="#0" id="circle122"/>
	<circle cx="721.085" cy="23.2248" r="4" fill="#0" id="circle123"/>
	<circle cx="730.698" cy="696.093" r="4" fill="#0" id="circle124"/>
	<circle cx="740.31" cy="23.2248" r="4" fill="#0" id="circle125"/>
	<circle cx="749.922" cy="686.481" r="4" fill="#0" id="circle126"/>
	<circle cx="759.535" cy="23.2248" r="4" fill="#0" id="circle127"/>
	<circle cx="765.302" cy="669.178" r="4" fill="#0" id="circle128"/>
	<circle cx="778.76" cy="23.2248" r="4" fill="#0" id="circle129"/>
	<circle cx="782.605" cy="659.566" r="4" fill="#0" id="circle130"/>
	<circle cx="796.062" cy="32.8372" r="4" fill="#0" id="circle131"/>
	<circle cx="797.984" cy="648.031" r="4" fill="#0" id="circle132"/>
	<circle cx="813.364" cy="42.4496" r="4" fill="#0" id="circle133"/>
	<circle cx="813.364" cy="630.729" r="4" fill="#0" id="circle134"/>
	<circle cx="830.667" cy="621.116" r="4" fill="#0" id="circle135"/>
	<circle cx="832.589" cy="48.2171" r="4" fill="#0" id="circle136"/>
	<circle cx="846.047" cy="609.581" r="4" fill="#0" id="circle137"/>
	<circle cx="849.891" cy="57.8295" r="4" fill="#0" id="circle138"/>
	<circle cx="855.659" cy="592.279" r="4" fill="#0" id="circle139"/>
	<circle cx="869.116" cy="65.5194" r="4" fill="#0" id="circle140"/>
	<circle cx="872.961" cy="582.667" r="4" fill="#0" id="circle141"/>
	<circle cx="880.651" cy="563.442" r="4" fill="#0" id="circle142"/>
	<circle cx="886.419" cy="75.1318" r="4" fill="#0" id="circle143"/>
	<circle cx="896.031" cy="549.984" r="4" fill="#0" id="circle144"/>
	<circle cx="905.643" cy="82.8217" r="4" fill="#0" id="circle145"/>
	<circle cx="909.488" cy="534.605" r="4" fill="#0" id="circle146"/>
	<circle cx="919.101" cy="98.2016" r="4" fill="#0" id="circle147"/>
	<circle cx="919.101" cy="515.38" r="4" fill="#0" id="circle148"/>
	<circle cx="934.481" cy="109.736" r="4" fill="#0" id="circle149"/>
	<circle cx="934.481" cy="501.922" r="4" fill="#0" id="circle150"/>
	<circle cx="947.938" cy="125.116" r="4" fill="#0" id="circle151"/>
	<circle cx="947.938" cy="476.93" r="4" fill="#0" id="circle152"/>
	<circle cx="957.55" cy="142.419" r="4" fill="#0" id="circle153"/>
	<circle cx="957.55" cy="457.705" r="4" fill="#0" id="circle154"/>
	<circle cx="967.163" cy="159.721" r="4" fill="#0" id="circle155"/>
	<circle cx="967.163" cy="438.481" r="4" fill="#0" id="circle156"/>
	<circle cx="976.775" cy="177.023" r="4" fill="#0" id="circle157"/>
	<circle cx="976.775" cy="400.031" r="4" fill="#0" id="circle158"/>
	<circle cx="976.775" cy="419.256" r="4" fill="#0" id="circle159"/>
	<circle cx="986.388" cy="194.326" r="4" fill="#0" id="circle160"/>
	<circle cx="986.388" cy="213.55" r="4" fill="#0" id="circle161"/>
	<circle cx="986.388" cy="361.581" r="4" fill="#0" id="circle162"/>
	<circle cx="986.388" cy="380.806" r="4" fill="#0" id="circle163"/>
	<circle cx="996" cy="230.853" r="4" fill="#0" id="circle164"/>
	<circle cx="996" cy="250.078" r="4" fill="#0" id="circle165"/>
	<circle cx="996" cy="269.302" r="4" fill="#0" id="circle166"/>
	<circle cx="996" cy="288.527" r="4" fill="#0" id="circle167"/>
	<circle cx="996" cy="307.752" r="4" fill="#0" id="circle168"/>
	<circle cx="996" cy="326.977" r="4" fill="#0" id="circle169"/>
	</g>
</svg>