<?xml version="1.0" encoding="UTF-8" standalone="no"?>
<!-- Created with CurveBenchmark -->
<svg
	xmlns:dc="http://purl.org/dc/elements/1.1/"
	xmlns:cc="http://creativecommons.org/ns#"
	xmlns:rdf="http://www.w3.org/1999/02/22-rdf-syntax-ns#"
	xmlns:svg="http://www.w3.org/2000/svg"
	xmlns="http://www.w3.org/2000/svg"
	xmlns:sodipodi="http://sodipodi.sourceforge.net/DTD/sodipodi-0.dtd"
	xmlns:inkscape="http://www.inkscape.org/namespaces/inkscape"
	width="1000"
	height="1000"
	id="svg2"
	version="1.1"
	sodipodi:docname="manifold/gathang-carriage06.png.txt">
<defs
	id="defs4" />
<metadata
	id="metadata7">
	<rdf:RDF>
		<cc:Work
			rdf:about="">
			<dc:format>image/svg+xml</dc:format>
			<dc:type
				rdf:resource="http://purl.org/dc/dcmitype/StillImage" />
			<dc:title></dc:title>
		</cc:Work>
	</rdf:RDF>
</metadata>
<g
	inkscape:label="Layer 1"
	inkscape:groupmode="layer"
	id="layer1">
	<path style="fill:none;stroke:red;stroke-width:1px;stroke-linecap:butt;stroke-linejoin:miter;stroke-opacity:1" d="M 28.9664,75.5705 37.2886,58.9262 z" id="boundary" inkscape:connector-curvature="0" />
	<path style="fill:none;stroke:red;stroke-width:1px;stroke-linecap:butt;stroke-linejoin:miter;stroke-opacity:1" d="M 12.3221,108.859 25.6376,95.5436 z" id="boundary" inkscape:connector-curvature="0" />
	<path style="fill:none;stroke:red;stroke-width:1px;stroke-linecap:butt;stroke-linejoin:miter;stroke-opacity:1" d="M 28.9664,75.5705 25.6376,95.5436 z" id="boundary" inkscape:connector-curvature="0" />
	<path style="fill:none;stroke:red;stroke-width:1px;stroke-linecap:butt;stroke-linejoin:miter;stroke-opacity:1" d="M 62.255,122.174 47.2752,130.497 z" id="boundary" inkscape:connector-curvature="0" />
	<path style="fill:none;stroke:red;stroke-width:1px;stroke-linecap:butt;stroke-linejoin:miter;stroke-opacity:1" d="M 37.2886,58.9262 50.604,45.6107 z" id="boundary" inkscape:connector-curvature="0" />
	<path style="fill:none;stroke:red;stroke-width:1px;stroke-linecap:butt;stroke-linejoin:miter;stroke-opacity:1" d="M 50.604,45.6107 65.5839,53.9329 z" id="boundary" inkscape:connector-curvature="0" />
	<path style="fill:none;stroke:red;stroke-width:1px;stroke-linecap:butt;stroke-linejoin:miter;stroke-opacity:1" d="M 65.5839,53.9329 82.2282,53.9329 z" id="boundary" inkscape:connector-curvature="0" />
	<path style="fill:none;stroke:red;stroke-width:1px;stroke-linecap:butt;stroke-linejoin:miter;stroke-opacity:1" d="M 98.8725,53.9329 82.2282,53.9329 z" id="boundary" inkscape:connector-curvature="0" />
	<path style="fill:none;stroke:red;stroke-width:1px;stroke-linecap:butt;stroke-linejoin:miter;stroke-opacity:1" d="M 95.5436,122.174 78.8993,122.174 z" id="boundary" inkscape:connector-curvature="0" />
	<path style="fill:none;stroke:red;stroke-width:1px;stroke-linecap:butt;stroke-linejoin:miter;stroke-opacity:1" d="M 98.8725,53.9329 115.517,53.9329 z" id="boundary" inkscape:connector-curvature="0" />
	<path style="fill:none;stroke:red;stroke-width:1px;stroke-linecap:butt;stroke-linejoin:miter;stroke-opacity:1" d="M 115.517,53.9329 130.497,62.255 z" id="boundary" inkscape:connector-curvature="0" />
	<path style="fill:none;stroke:red;stroke-width:1px;stroke-linecap:butt;stroke-linejoin:miter;stroke-opacity:1" d="M 147.141,67.2483 130.497,62.255 z" id="boundary" inkscape:connector-curvature="0" />
	<path style="fill:none;stroke:red;stroke-width:1px;stroke-linecap:butt;stroke-linejoin:miter;stroke-opacity:1" d="M 78.8993,122.174 62.255,122.174 z" id="boundary" inkscape:connector-curvature="0" />
	<path style="fill:none;stroke:red;stroke-width:1px;stroke-linecap:butt;stroke-linejoin:miter;stroke-opacity:1" d="M 12.3221,125.503 12.3221,108.859 z" id="boundary" inkscape:connector-curvature="0" />
	<path style="fill:none;stroke:red;stroke-width:1px;stroke-linecap:butt;stroke-linejoin:miter;stroke-opacity:1" d="M 95.5436,122.174 103.866,137.154 z" id="boundary" inkscape:connector-curvature="0" />
	<path style="fill:none;stroke:red;stroke-width:1px;stroke-linecap:butt;stroke-linejoin:miter;stroke-opacity:1" d="M 37.2886,147.141 47.2752,130.497 z" id="boundary" inkscape:connector-curvature="0" />
	<path style="fill:none;stroke:red;stroke-width:1px;stroke-linecap:butt;stroke-linejoin:miter;stroke-opacity:1" d="M 20.6443,147.141 4,142.148 z" id="boundary" inkscape:connector-curvature="0" />
	<path style="fill:none;stroke:red;stroke-width:1px;stroke-linecap:butt;stroke-linejoin:miter;stroke-opacity:1" d="M 4,142.148 12.3221,125.503 z" id="boundary" inkscape:connector-curvature="0" />
	<path style="fill:none;stroke:red;stroke-width:1px;stroke-linecap:butt;stroke-linejoin:miter;stroke-opacity:1" d="M 37.2886,147.141 20.6443,147.141 z" id="boundary" inkscape:connector-curvature="0" />
	<path style="fill:none;stroke:red;stroke-width:1px;stroke-linecap:butt;stroke-linejoin:miter;stroke-opacity:1" d="M 103.866,137.154 112.188,152.134 z" id="boundary" inkscape:connector-curvature="0" />
	<path style="fill:none;stroke:red;stroke-width:1px;stroke-linecap:butt;stroke-linejoin:miter;stroke-opacity:1" d="M 112.188,152.134 112.188,168.779 z" id="boundary" inkscape:connector-curvature="0" />
	<path style="fill:none;stroke:red;stroke-width:1px;stroke-linecap:butt;stroke-linejoin:miter;stroke-opacity:1" d="M 112.188,168.779 112.188,185.423 z" id="boundary" inkscape:connector-curvature="0" />
	<path style="fill:none;stroke:red;stroke-width:1px;stroke-linecap:butt;stroke-linejoin:miter;stroke-opacity:1" d="M 112.188,185.423 112.188,202.067 z" id="boundary" inkscape:connector-curvature="0" />
	<path style="fill:none;stroke:red;stroke-width:1px;stroke-linecap:butt;stroke-linejoin:miter;stroke-opacity:1" d="M 112.188,202.067 112.188,218.711 z" id="boundary" inkscape:connector-curvature="0" />
	<path style="fill:none;stroke:red;stroke-width:1px;stroke-linecap:butt;stroke-linejoin:miter;stroke-opacity:1" d="M 112.188,218.711 103.866,242.013 z" id="boundary" inkscape:connector-curvature="0" />
	<path style="fill:none;stroke:red;stroke-width:1px;stroke-linecap:butt;stroke-linejoin:miter;stroke-opacity:1" d="M 103.866,242.013 95.5436,266.98 z" id="boundary" inkscape:connector-curvature="0" />
	<path style="fill:none;stroke:red;stroke-width:1px;stroke-linecap:butt;stroke-linejoin:miter;stroke-opacity:1" d="M 147.141,67.2483 162.121,75.5705 z" id="boundary" inkscape:connector-curvature="0" />
	<path style="fill:none;stroke:red;stroke-width:1px;stroke-linecap:butt;stroke-linejoin:miter;stroke-opacity:1" d="M 192.081,87.2215 175.436,87.2215 z" id="boundary" inkscape:connector-curvature="0" />
	<path style="fill:none;stroke:red;stroke-width:1px;stroke-linecap:butt;stroke-linejoin:miter;stroke-opacity:1" d="M 175.436,87.2215 162.121,75.5705 z" id="boundary" inkscape:connector-curvature="0" />
	<path style="fill:none;stroke:red;stroke-width:1px;stroke-linecap:butt;stroke-linejoin:miter;stroke-opacity:1" d="M 208.725,87.2215 192.081,87.2215 z" id="boundary" inkscape:connector-curvature="0" />
	<path style="fill:none;stroke:red;stroke-width:1px;stroke-linecap:butt;stroke-linejoin:miter;stroke-opacity:1" d="M 208.725,87.2215 225.369,87.2215 z" id="boundary" inkscape:connector-curvature="0" />
	<path style="fill:none;stroke:red;stroke-width:1px;stroke-linecap:butt;stroke-linejoin:miter;stroke-opacity:1" d="M 225.369,87.2215 242.013,87.2215 z" id="boundary" inkscape:connector-curvature="0" />
	<path style="fill:none;stroke:red;stroke-width:1px;stroke-linecap:butt;stroke-linejoin:miter;stroke-opacity:1" d="M 258.658,87.2215 275.302,87.2215 z" id="boundary" inkscape:connector-curvature="0" />
	<path style="fill:none;stroke:red;stroke-width:1px;stroke-linecap:butt;stroke-linejoin:miter;stroke-opacity:1" d="M 258.658,87.2215 242.013,87.2215 z" id="boundary" inkscape:connector-curvature="0" />
	<path style="fill:none;stroke:red;stroke-width:1px;stroke-linecap:butt;stroke-linejoin:miter;stroke-opacity:1" d="M 275.302,87.2215 291.946,87.2215 z" id="boundary" inkscape:connector-curvature="0" />
	<path style="fill:none;stroke:red;stroke-width:1px;stroke-linecap:butt;stroke-linejoin:miter;stroke-opacity:1" d="M 308.591,87.2215 325.235,87.2215 z" id="boundary" inkscape:connector-curvature="0" />
	<path style="fill:none;stroke:red;stroke-width:1px;stroke-linecap:butt;stroke-linejoin:miter;stroke-opacity:1" d="M 325.235,87.2215 340.215,95.5436 z" id="boundary" inkscape:connector-curvature="0" />
	<path style="fill:none;stroke:red;stroke-width:1px;stroke-linecap:butt;stroke-linejoin:miter;stroke-opacity:1" d="M 308.591,87.2215 291.946,87.2215 z" id="boundary" inkscape:connector-curvature="0" />
	<path style="fill:none;stroke:red;stroke-width:1px;stroke-linecap:butt;stroke-linejoin:miter;stroke-opacity:1" d="M 363.517,118.846 355.195,103.866 z" id="boundary" inkscape:connector-curvature="0" />
	<path style="fill:none;stroke:red;stroke-width:1px;stroke-linecap:butt;stroke-linejoin:miter;stroke-opacity:1" d="M 355.195,103.866 340.215,95.5436 z" id="boundary" inkscape:connector-curvature="0" />
	<path style="fill:none;stroke:red;stroke-width:1px;stroke-linecap:butt;stroke-linejoin:miter;stroke-opacity:1" d="M 363.517,135.49 363.517,118.846 z" id="boundary" inkscape:connector-curvature="0" />
	<path style="fill:none;stroke:red;stroke-width:1px;stroke-linecap:butt;stroke-linejoin:miter;stroke-opacity:1" d="M 486.685,125.503 478.362,142.148 z" id="boundary" inkscape:connector-curvature="0" />
	<path style="fill:none;stroke:red;stroke-width:1px;stroke-linecap:butt;stroke-linejoin:miter;stroke-opacity:1" d="M 380.161,142.148 386.819,158.792 z" id="boundary" inkscape:connector-curvature="0" />
	<path style="fill:none;stroke:red;stroke-width:1px;stroke-linecap:butt;stroke-linejoin:miter;stroke-opacity:1" d="M 386.819,158.792 388.483,180.43 z" id="boundary" inkscape:connector-curvature="0" />
	<path style="fill:none;stroke:red;stroke-width:1px;stroke-linecap:butt;stroke-linejoin:miter;stroke-opacity:1" d="M 388.483,180.43 396.805,195.409 z" id="boundary" inkscape:connector-curvature="0" />
	<path style="fill:none;stroke:red;stroke-width:1px;stroke-linecap:butt;stroke-linejoin:miter;stroke-opacity:1" d="M 410.121,205.396 396.805,195.409 z" id="boundary" inkscape:connector-curvature="0" />
	<path style="fill:none;stroke:red;stroke-width:1px;stroke-linecap:butt;stroke-linejoin:miter;stroke-opacity:1" d="M 460.054,212.054 443.409,212.054 z" id="boundary" inkscape:connector-curvature="0" />
	<path style="fill:none;stroke:red;stroke-width:1px;stroke-linecap:butt;stroke-linejoin:miter;stroke-opacity:1" d="M 443.409,212.054 426.765,212.054 z" id="boundary" inkscape:connector-curvature="0" />
	<path style="fill:none;stroke:red;stroke-width:1px;stroke-linecap:butt;stroke-linejoin:miter;stroke-opacity:1" d="M 426.765,212.054 410.121,205.396 z" id="boundary" inkscape:connector-curvature="0" />
	<path style="fill:none;stroke:red;stroke-width:1px;stroke-linecap:butt;stroke-linejoin:miter;stroke-opacity:1" d="M 478.362,175.436 475.034,203.732 z" id="boundary" inkscape:connector-curvature="0" />
	<path style="fill:none;stroke:red;stroke-width:1px;stroke-linecap:butt;stroke-linejoin:miter;stroke-opacity:1" d="M 475.034,203.732 460.054,212.054 z" id="boundary" inkscape:connector-curvature="0" />
	<path style="fill:none;stroke:red;stroke-width:1px;stroke-linecap:butt;stroke-linejoin:miter;stroke-opacity:1" d="M 303.597,238.685 286.953,242.013 z" id="boundary" inkscape:connector-curvature="0" />
	<path style="fill:none;stroke:red;stroke-width:1px;stroke-linecap:butt;stroke-linejoin:miter;stroke-opacity:1" d="M 95.5436,283.624 95.5436,266.98 z" id="boundary" inkscape:connector-curvature="0" />
	<path style="fill:none;stroke:red;stroke-width:1px;stroke-linecap:butt;stroke-linejoin:miter;stroke-opacity:1" d="M 180.43,270.309 172.107,255.329 z" id="boundary" inkscape:connector-curvature="0" />
	<path style="fill:none;stroke:red;stroke-width:1px;stroke-linecap:butt;stroke-linejoin:miter;stroke-opacity:1" d="M 172.107,255.329 187.087,247.007 z" id="boundary" inkscape:connector-curvature="0" />
	<path style="fill:none;stroke:red;stroke-width:1px;stroke-linecap:butt;stroke-linejoin:miter;stroke-opacity:1" d="M 180.43,270.309 180.43,286.953 z" id="boundary" inkscape:connector-curvature="0" />
	<path style="fill:none;stroke:red;stroke-width:1px;stroke-linecap:butt;stroke-linejoin:miter;stroke-opacity:1" d="M 180.43,286.953 180.43,303.597 z" id="boundary" inkscape:connector-curvature="0" />
	<path style="fill:none;stroke:red;stroke-width:1px;stroke-linecap:butt;stroke-linejoin:miter;stroke-opacity:1" d="M 180.43,303.597 172.107,330.228 z" id="boundary" inkscape:connector-curvature="0" />
	<path style="fill:none;stroke:red;stroke-width:1px;stroke-linecap:butt;stroke-linejoin:miter;stroke-opacity:1" d="M 95.5436,283.624 87.2215,308.591 z" id="boundary" inkscape:connector-curvature="0" />
	<path style="fill:none;stroke:red;stroke-width:1px;stroke-linecap:butt;stroke-linejoin:miter;stroke-opacity:1" d="M 203.732,247.007 187.087,247.007 z" id="boundary" inkscape:connector-curvature="0" />
	<path style="fill:none;stroke:red;stroke-width:1px;stroke-linecap:butt;stroke-linejoin:miter;stroke-opacity:1" d="M 286.953,242.013 270.309,247.007 z" id="boundary" inkscape:connector-curvature="0" />
	<path style="fill:none;stroke:red;stroke-width:1px;stroke-linecap:butt;stroke-linejoin:miter;stroke-opacity:1" d="M 203.732,247.007 220.376,247.007 z" id="boundary" inkscape:connector-curvature="0" />
	<path style="fill:none;stroke:red;stroke-width:1px;stroke-linecap:butt;stroke-linejoin:miter;stroke-opacity:1" d="M 237.02,242.013 220.376,247.007 z" id="boundary" inkscape:connector-curvature="0" />
	<path style="fill:none;stroke:red;stroke-width:1px;stroke-linecap:butt;stroke-linejoin:miter;stroke-opacity:1" d="M 270.309,247.007 253.664,247.007 z" id="boundary" inkscape:connector-curvature="0" />
	<path style="fill:none;stroke:red;stroke-width:1px;stroke-linecap:butt;stroke-linejoin:miter;stroke-opacity:1" d="M 253.664,247.007 237.02,242.013 z" id="boundary" inkscape:connector-curvature="0" />
	<path style="fill:none;stroke:red;stroke-width:1px;stroke-linecap:butt;stroke-linejoin:miter;stroke-opacity:1" d="M 78.8993,350.201 78.8993,333.557 z" id="boundary" inkscape:connector-curvature="0" />
	<path style="fill:none;stroke:red;stroke-width:1px;stroke-linecap:butt;stroke-linejoin:miter;stroke-opacity:1" d="M 87.2215,308.591 78.8993,333.557 z" id="boundary" inkscape:connector-curvature="0" />
	<path style="fill:none;stroke:red;stroke-width:1px;stroke-linecap:butt;stroke-linejoin:miter;stroke-opacity:1" d="M 125.503,380.161 108.859,380.161 z" id="boundary" inkscape:connector-curvature="0" />
	<path style="fill:none;stroke:red;stroke-width:1px;stroke-linecap:butt;stroke-linejoin:miter;stroke-opacity:1" d="M 92.2148,378.497 78.8993,366.846 z" id="boundary" inkscape:connector-curvature="0" />
	<path style="fill:none;stroke:red;stroke-width:1px;stroke-linecap:butt;stroke-linejoin:miter;stroke-opacity:1" d="M 78.8993,366.846 78.8993,350.201 z" id="boundary" inkscape:connector-curvature="0" />
	<path style="fill:none;stroke:red;stroke-width:1px;stroke-linecap:butt;stroke-linejoin:miter;stroke-opacity:1" d="M 108.859,380.161 92.2148,378.497 z" id="boundary" inkscape:connector-curvature="0" />
	<path style="fill:none;stroke:red;stroke-width:1px;stroke-linecap:butt;stroke-linejoin:miter;stroke-opacity:1" d="M 172.107,330.228 185.423,340.215 z" id="boundary" inkscape:connector-curvature="0" />
	<path style="fill:none;stroke:red;stroke-width:1px;stroke-linecap:butt;stroke-linejoin:miter;stroke-opacity:1" d="M 185.423,340.215 188.752,356.859 z" id="boundary" inkscape:connector-curvature="0" />
	<path style="fill:none;stroke:red;stroke-width:1px;stroke-linecap:butt;stroke-linejoin:miter;stroke-opacity:1" d="M 125.503,380.161 142.148,380.161 z" id="boundary" inkscape:connector-curvature="0" />
	<path style="fill:none;stroke:red;stroke-width:1px;stroke-linecap:butt;stroke-linejoin:miter;stroke-opacity:1" d="M 158.792,380.161 175.436,378.497 z" id="boundary" inkscape:connector-curvature="0" />
	<path style="fill:none;stroke:red;stroke-width:1px;stroke-linecap:butt;stroke-linejoin:miter;stroke-opacity:1" d="M 158.792,380.161 142.148,380.161 z" id="boundary" inkscape:connector-curvature="0" />
	<path style="fill:none;stroke:red;stroke-width:1px;stroke-linecap:butt;stroke-linejoin:miter;stroke-opacity:1" d="M 188.752,356.859 175.436,378.497 z" id="boundary" inkscape:connector-curvature="0" />
	<path style="fill:none;stroke:red;stroke-width:1px;stroke-linecap:butt;stroke-linejoin:miter;stroke-opacity:1" d="M 311.919,271.973 308.591,255.329 z" id="boundary" inkscape:connector-curvature="0" />
	<path style="fill:none;stroke:red;stroke-width:1px;stroke-linecap:butt;stroke-linejoin:miter;stroke-opacity:1" d="M 308.591,255.329 303.597,238.685 z" id="boundary" inkscape:connector-curvature="0" />
	<path style="fill:none;stroke:red;stroke-width:1px;stroke-linecap:butt;stroke-linejoin:miter;stroke-opacity:1" d="M 380.161,271.973 380.161,288.617 z" id="boundary" inkscape:connector-curvature="0" />
	<path style="fill:none;stroke:red;stroke-width:1px;stroke-linecap:butt;stroke-linejoin:miter;stroke-opacity:1" d="M 311.919,271.973 311.919,288.617 z" id="boundary" inkscape:connector-curvature="0" />
	<path style="fill:none;stroke:red;stroke-width:1px;stroke-linecap:butt;stroke-linejoin:miter;stroke-opacity:1" d="M 388.483,303.597 380.161,288.617 z" id="boundary" inkscape:connector-curvature="0" />
	<path style="fill:none;stroke:red;stroke-width:1px;stroke-linecap:butt;stroke-linejoin:miter;stroke-opacity:1" d="M 380.161,271.973 395.141,263.651 z" id="boundary" inkscape:connector-curvature="0" />
	<path style="fill:none;stroke:red;stroke-width:1px;stroke-linecap:butt;stroke-linejoin:miter;stroke-opacity:1" d="M 311.919,288.617 303.597,316.913 z" id="boundary" inkscape:connector-curvature="0" />
	<path style="fill:none;stroke:red;stroke-width:1px;stroke-linecap:butt;stroke-linejoin:miter;stroke-opacity:1" d="M 411.785,263.651 428.43,263.651 z" id="boundary" inkscape:connector-curvature="0" />
	<path style="fill:none;stroke:red;stroke-width:1px;stroke-linecap:butt;stroke-linejoin:miter;stroke-opacity:1" d="M 396.805,318.577 388.483,303.597 z" id="boundary" inkscape:connector-curvature="0" />
	<path style="fill:none;stroke:red;stroke-width:1px;stroke-linecap:butt;stroke-linejoin:miter;stroke-opacity:1" d="M 445.074,263.651 461.718,263.651 z" id="boundary" inkscape:connector-curvature="0" />
	<path style="fill:none;stroke:red;stroke-width:1px;stroke-linecap:butt;stroke-linejoin:miter;stroke-opacity:1" d="M 461.718,263.651 470.04,278.631 z" id="boundary" inkscape:connector-curvature="0" />
	<path style="fill:none;stroke:red;stroke-width:1px;stroke-linecap:butt;stroke-linejoin:miter;stroke-opacity:1" d="M 470.04,278.631 470.04,295.275 z" id="boundary" inkscape:connector-curvature="0" />
	<path style="fill:none;stroke:red;stroke-width:1px;stroke-linecap:butt;stroke-linejoin:miter;stroke-opacity:1" d="M 470.04,311.919 470.04,295.275 z" id="boundary" inkscape:connector-curvature="0" />
	<path style="fill:none;stroke:red;stroke-width:1px;stroke-linecap:butt;stroke-linejoin:miter;stroke-opacity:1" d="M 428.43,263.651 445.074,263.651 z" id="boundary" inkscape:connector-curvature="0" />
	<path style="fill:none;stroke:red;stroke-width:1px;stroke-linecap:butt;stroke-linejoin:miter;stroke-opacity:1" d="M 411.785,263.651 395.141,263.651 z" id="boundary" inkscape:connector-curvature="0" />
	<path style="fill:none;stroke:red;stroke-width:1px;stroke-linecap:butt;stroke-linejoin:miter;stroke-opacity:1" d="M 303.597,316.913 311.919,331.893 z" id="boundary" inkscape:connector-curvature="0" />
	<path style="fill:none;stroke:red;stroke-width:1px;stroke-linecap:butt;stroke-linejoin:miter;stroke-opacity:1" d="M 320.242,355.195 303.597,350.201 z" id="boundary" inkscape:connector-curvature="0" />
	<path style="fill:none;stroke:red;stroke-width:1px;stroke-linecap:butt;stroke-linejoin:miter;stroke-opacity:1" d="M 320.242,355.195 335.221,363.517 z" id="boundary" inkscape:connector-curvature="0" />
	<path style="fill:none;stroke:red;stroke-width:1px;stroke-linecap:butt;stroke-linejoin:miter;stroke-opacity:1" d="M 350.201,371.839 365.181,363.517 z" id="boundary" inkscape:connector-curvature="0" />
	<path style="fill:none;stroke:red;stroke-width:1px;stroke-linecap:butt;stroke-linejoin:miter;stroke-opacity:1" d="M 365.181,363.517 380.161,371.839 z" id="boundary" inkscape:connector-curvature="0" />
	<path style="fill:none;stroke:red;stroke-width:1px;stroke-linecap:butt;stroke-linejoin:miter;stroke-opacity:1" d="M 350.201,371.839 335.221,363.517 z" id="boundary" inkscape:connector-curvature="0" />
	<path style="fill:none;stroke:red;stroke-width:1px;stroke-linecap:butt;stroke-linejoin:miter;stroke-opacity:1" d="M 396.805,335.221 396.805,318.577 z" id="boundary" inkscape:connector-curvature="0" />
	<path style="fill:none;stroke:red;stroke-width:1px;stroke-linecap:butt;stroke-linejoin:miter;stroke-opacity:1" d="M 470.04,311.919 461.718,341.879 z" id="boundary" inkscape:connector-curvature="0" />
	<path style="fill:none;stroke:red;stroke-width:1px;stroke-linecap:butt;stroke-linejoin:miter;stroke-opacity:1" d="M 396.805,335.221 388.483,355.195 z" id="boundary" inkscape:connector-curvature="0" />
	<path style="fill:none;stroke:red;stroke-width:1px;stroke-linecap:butt;stroke-linejoin:miter;stroke-opacity:1" d="M 380.161,371.839 388.483,355.195 z" id="boundary" inkscape:connector-curvature="0" />
	<path style="fill:none;stroke:red;stroke-width:1px;stroke-linecap:butt;stroke-linejoin:miter;stroke-opacity:1" d="M 461.718,341.879 475.034,353.53 z" id="boundary" inkscape:connector-curvature="0" />
	<path style="fill:none;stroke:red;stroke-width:1px;stroke-linecap:butt;stroke-linejoin:miter;stroke-opacity:1" d="M 475.034,353.53 490.013,361.852 z" id="boundary" inkscape:connector-curvature="0" />
	<path style="fill:none;stroke:red;stroke-width:1px;stroke-linecap:butt;stroke-linejoin:miter;stroke-opacity:1" d="M 478.362,142.148 478.362,158.792 z" id="boundary" inkscape:connector-curvature="0" />
	<path style="fill:none;stroke:red;stroke-width:1px;stroke-linecap:butt;stroke-linejoin:miter;stroke-opacity:1" d="M 544.94,17.3154 558.255,4 z" id="boundary" inkscape:connector-curvature="0" />
	<path style="fill:none;stroke:red;stroke-width:1px;stroke-linecap:butt;stroke-linejoin:miter;stroke-opacity:1" d="M 544.94,33.9597 544.94,17.3154 z" id="boundary" inkscape:connector-curvature="0" />
	<path style="fill:none;stroke:red;stroke-width:1px;stroke-linecap:butt;stroke-linejoin:miter;stroke-opacity:1" d="M 544.94,50.604 544.94,33.9597 z" id="boundary" inkscape:connector-curvature="0" />
	<path style="fill:none;stroke:red;stroke-width:1px;stroke-linecap:butt;stroke-linejoin:miter;stroke-opacity:1" d="M 544.94,50.604 544.94,67.2483 z" id="boundary" inkscape:connector-curvature="0" />
	<path style="fill:none;stroke:red;stroke-width:1px;stroke-linecap:butt;stroke-linejoin:miter;stroke-opacity:1" d="M 544.94,83.8926 544.94,67.2483 z" id="boundary" inkscape:connector-curvature="0" />
	<path style="fill:none;stroke:red;stroke-width:1px;stroke-linecap:butt;stroke-linejoin:miter;stroke-opacity:1" d="M 558.255,4 574.899,4 z" id="boundary" inkscape:connector-curvature="0" />
	<path style="fill:none;stroke:red;stroke-width:1px;stroke-linecap:butt;stroke-linejoin:miter;stroke-opacity:1" d="M 574.899,4 591.544,4 z" id="boundary" inkscape:connector-curvature="0" />
	<path style="fill:none;stroke:red;stroke-width:1px;stroke-linecap:butt;stroke-linejoin:miter;stroke-opacity:1" d="M 591.544,4 603.195,17.3154 z" id="boundary" inkscape:connector-curvature="0" />
	<path style="fill:none;stroke:red;stroke-width:1px;stroke-linecap:butt;stroke-linejoin:miter;stroke-opacity:1" d="M 603.195,17.3154 613.181,30.6309 z" id="boundary" inkscape:connector-curvature="0" />
	<path style="fill:none;stroke:red;stroke-width:1px;stroke-linecap:butt;stroke-linejoin:miter;stroke-opacity:1" d="M 613.181,30.6309 616.51,47.2752 z" id="boundary" inkscape:connector-curvature="0" />
	<path style="fill:none;stroke:red;stroke-width:1px;stroke-linecap:butt;stroke-linejoin:miter;stroke-opacity:1" d="M 629.826,58.9262 616.51,47.2752 z" id="boundary" inkscape:connector-curvature="0" />
	<path style="fill:none;stroke:red;stroke-width:1px;stroke-linecap:butt;stroke-linejoin:miter;stroke-opacity:1" d="M 629.826,58.9262 629.826,75.5705 z" id="boundary" inkscape:connector-curvature="0" />
	<path style="fill:none;stroke:red;stroke-width:1px;stroke-linecap:butt;stroke-linejoin:miter;stroke-opacity:1" d="M 629.826,92.2148 629.826,75.5705 z" id="boundary" inkscape:connector-curvature="0" />
	<path style="fill:none;stroke:red;stroke-width:1px;stroke-linecap:butt;stroke-linejoin:miter;stroke-opacity:1" d="M 486.685,125.503 495.007,108.859 z" id="boundary" inkscape:connector-curvature="0" />
	<path style="fill:none;stroke:red;stroke-width:1px;stroke-linecap:butt;stroke-linejoin:miter;stroke-opacity:1" d="M 495.007,108.859 511.651,107.195 z" id="boundary" inkscape:connector-curvature="0" />
	<path style="fill:none;stroke:red;stroke-width:1px;stroke-linecap:butt;stroke-linejoin:miter;stroke-opacity:1" d="M 528.295,108.859 511.651,107.195 z" id="boundary" inkscape:connector-curvature="0" />
	<path style="fill:none;stroke:red;stroke-width:1px;stroke-linecap:butt;stroke-linejoin:miter;stroke-opacity:1" d="M 478.362,175.436 478.362,158.792 z" id="boundary" inkscape:connector-curvature="0" />
	<path style="fill:none;stroke:red;stroke-width:1px;stroke-linecap:butt;stroke-linejoin:miter;stroke-opacity:1" d="M 629.826,92.2148 629.826,108.859 z" id="boundary" inkscape:connector-curvature="0" />
	<path style="fill:none;stroke:red;stroke-width:1px;stroke-linecap:butt;stroke-linejoin:miter;stroke-opacity:1" d="M 544.94,100.537 544.94,83.8926 z" id="boundary" inkscape:connector-curvature="0" />
	<path style="fill:none;stroke:red;stroke-width:1px;stroke-linecap:butt;stroke-linejoin:miter;stroke-opacity:1" d="M 629.826,108.859 621.503,138.819 z" id="boundary" inkscape:connector-curvature="0" />
	<path style="fill:none;stroke:red;stroke-width:1px;stroke-linecap:butt;stroke-linejoin:miter;stroke-opacity:1" d="M 621.503,138.819 629.826,153.799 z" id="boundary" inkscape:connector-curvature="0" />
	<path style="fill:none;stroke:red;stroke-width:1px;stroke-linecap:butt;stroke-linejoin:miter;stroke-opacity:1" d="M 638.148,168.779 646.47,183.758 z" id="boundary" inkscape:connector-curvature="0" />
	<path style="fill:none;stroke:red;stroke-width:1px;stroke-linecap:butt;stroke-linejoin:miter;stroke-opacity:1" d="M 638.148,168.779 629.826,153.799 z" id="boundary" inkscape:connector-curvature="0" />
	<path style="fill:none;stroke:red;stroke-width:1px;stroke-linecap:butt;stroke-linejoin:miter;stroke-opacity:1" d="M 528.295,108.859 544.94,100.537 z" id="boundary" inkscape:connector-curvature="0" />
	<path style="fill:none;stroke:red;stroke-width:1px;stroke-linecap:butt;stroke-linejoin:miter;stroke-opacity:1" d="M 766.309,53.9329 779.624,40.6174 z" id="boundary" inkscape:connector-curvature="0" />
	<path style="fill:none;stroke:red;stroke-width:1px;stroke-linecap:butt;stroke-linejoin:miter;stroke-opacity:1" d="M 779.624,40.6174 796.268,42.2819 z" id="boundary" inkscape:connector-curvature="0" />
	<path style="fill:none;stroke:red;stroke-width:1px;stroke-linecap:butt;stroke-linejoin:miter;stroke-opacity:1" d="M 752.993,83.8926 752.993,67.2483 z" id="boundary" inkscape:connector-curvature="0" />
	<path style="fill:none;stroke:red;stroke-width:1px;stroke-linecap:butt;stroke-linejoin:miter;stroke-opacity:1" d="M 752.993,67.2483 766.309,53.9329 z" id="boundary" inkscape:connector-curvature="0" />
	<path style="fill:none;stroke:red;stroke-width:1px;stroke-linecap:butt;stroke-linejoin:miter;stroke-opacity:1" d="M 752.993,100.537 752.993,83.8926 z" id="boundary" inkscape:connector-curvature="0" />
	<path style="fill:none;stroke:red;stroke-width:1px;stroke-linecap:butt;stroke-linejoin:miter;stroke-opacity:1" d="M 796.268,42.2819 812.913,45.6107 z" id="boundary" inkscape:connector-curvature="0" />
	<path style="fill:none;stroke:red;stroke-width:1px;stroke-linecap:butt;stroke-linejoin:miter;stroke-opacity:1" d="M 812.913,45.6107 829.557,50.604 z" id="boundary" inkscape:connector-curvature="0" />
	<path style="fill:none;stroke:red;stroke-width:1px;stroke-linecap:butt;stroke-linejoin:miter;stroke-opacity:1" d="M 829.557,50.604 841.208,63.9195 z" id="boundary" inkscape:connector-curvature="0" />
	<path style="fill:none;stroke:red;stroke-width:1px;stroke-linecap:butt;stroke-linejoin:miter;stroke-opacity:1" d="M 854.523,75.5705 841.208,63.9195 z" id="boundary" inkscape:connector-curvature="0" />
	<path style="fill:none;stroke:red;stroke-width:1px;stroke-linecap:butt;stroke-linejoin:miter;stroke-opacity:1" d="M 752.993,117.181 752.993,100.537 z" id="boundary" inkscape:connector-curvature="0" />
	<path style="fill:none;stroke:red;stroke-width:1px;stroke-linecap:butt;stroke-linejoin:miter;stroke-opacity:1" d="M 866.174,88.8859 854.523,75.5705 z" id="boundary" inkscape:connector-curvature="0" />
	<path style="fill:none;stroke:red;stroke-width:1px;stroke-linecap:butt;stroke-linejoin:miter;stroke-opacity:1" d="M 879.49,100.537 896.134,98.8725 z" id="boundary" inkscape:connector-curvature="0" />
	<path style="fill:none;stroke:red;stroke-width:1px;stroke-linecap:butt;stroke-linejoin:miter;stroke-opacity:1" d="M 896.134,98.8725 912.779,103.866 z" id="boundary" inkscape:connector-curvature="0" />
	<path style="fill:none;stroke:red;stroke-width:1px;stroke-linecap:butt;stroke-linejoin:miter;stroke-opacity:1" d="M 879.49,100.537 866.174,88.8859 z" id="boundary" inkscape:connector-curvature="0" />
	<path style="fill:none;stroke:red;stroke-width:1px;stroke-linecap:butt;stroke-linejoin:miter;stroke-opacity:1" d="M 738.013,128.832 723.034,137.154 z" id="boundary" inkscape:connector-curvature="0" />
	<path style="fill:none;stroke:red;stroke-width:1px;stroke-linecap:butt;stroke-linejoin:miter;stroke-opacity:1" d="M 723.034,137.154 708.054,145.477 z" id="boundary" inkscape:connector-curvature="0" />
	<path style="fill:none;stroke:red;stroke-width:1px;stroke-linecap:butt;stroke-linejoin:miter;stroke-opacity:1" d="M 693.074,195.409 694.738,175.436 z" id="boundary" inkscape:connector-curvature="0" />
	<path style="fill:none;stroke:red;stroke-width:1px;stroke-linecap:butt;stroke-linejoin:miter;stroke-opacity:1" d="M 694.738,158.792 708.054,145.477 z" id="boundary" inkscape:connector-curvature="0" />
	<path style="fill:none;stroke:red;stroke-width:1px;stroke-linecap:butt;stroke-linejoin:miter;stroke-opacity:1" d="M 694.738,175.436 694.738,158.792 z" id="boundary" inkscape:connector-curvature="0" />
	<path style="fill:none;stroke:red;stroke-width:1px;stroke-linecap:butt;stroke-linejoin:miter;stroke-opacity:1" d="M 738.013,128.832 752.993,117.181 z" id="boundary" inkscape:connector-curvature="0" />
	<path style="fill:none;stroke:red;stroke-width:1px;stroke-linecap:butt;stroke-linejoin:miter;stroke-opacity:1" d="M 912.779,103.866 929.423,103.866 z" id="boundary" inkscape:connector-curvature="0" />
	<path style="fill:none;stroke:red;stroke-width:1px;stroke-linecap:butt;stroke-linejoin:miter;stroke-opacity:1" d="M 946.067,108.859 929.423,103.866 z" id="boundary" inkscape:connector-curvature="0" />
	<path style="fill:none;stroke:red;stroke-width:1px;stroke-linecap:butt;stroke-linejoin:miter;stroke-opacity:1" d="M 946.067,108.859 946.067,125.503 z" id="boundary" inkscape:connector-curvature="0" />
	<path style="fill:none;stroke:red;stroke-width:1px;stroke-linecap:butt;stroke-linejoin:miter;stroke-opacity:1" d="M 946.067,125.503 946.067,142.148 z" id="boundary" inkscape:connector-curvature="0" />
	<path style="fill:none;stroke:red;stroke-width:1px;stroke-linecap:butt;stroke-linejoin:miter;stroke-opacity:1" d="M 946.067,158.792 946.067,175.436 z" id="boundary" inkscape:connector-curvature="0" />
	<path style="fill:none;stroke:red;stroke-width:1px;stroke-linecap:butt;stroke-linejoin:miter;stroke-opacity:1" d="M 946.067,158.792 946.067,142.148 z" id="boundary" inkscape:connector-curvature="0" />
	<path style="fill:none;stroke:red;stroke-width:1px;stroke-linecap:butt;stroke-linejoin:miter;stroke-opacity:1" d="M 946.067,175.436 946.067,192.081 z" id="boundary" inkscape:connector-curvature="0" />
	<path style="fill:none;stroke:red;stroke-width:1px;stroke-linecap:butt;stroke-linejoin:miter;stroke-opacity:1" d="M 644.805,296.94 628.161,296.94 z" id="boundary" inkscape:connector-curvature="0" />
	<path style="fill:none;stroke:red;stroke-width:1px;stroke-linecap:butt;stroke-linejoin:miter;stroke-opacity:1" d="M 628.161,296.94 613.181,305.262 z" id="boundary" inkscape:connector-curvature="0" />
	<path style="fill:none;stroke:red;stroke-width:1px;stroke-linecap:butt;stroke-linejoin:miter;stroke-opacity:1" d="M 659.785,195.409 646.47,183.758 z" id="boundary" inkscape:connector-curvature="0" />
	<path style="fill:none;stroke:red;stroke-width:1px;stroke-linecap:butt;stroke-linejoin:miter;stroke-opacity:1" d="M 676.43,195.409 659.785,195.409 z" id="boundary" inkscape:connector-curvature="0" />
	<path style="fill:none;stroke:red;stroke-width:1px;stroke-linecap:butt;stroke-linejoin:miter;stroke-opacity:1" d="M 644.805,296.94 661.45,296.94 z" id="boundary" inkscape:connector-curvature="0" />
	<path style="fill:none;stroke:red;stroke-width:1px;stroke-linecap:butt;stroke-linejoin:miter;stroke-opacity:1" d="M 678.094,296.94 661.45,296.94 z" id="boundary" inkscape:connector-curvature="0" />
	<path style="fill:none;stroke:red;stroke-width:1px;stroke-linecap:butt;stroke-linejoin:miter;stroke-opacity:1" d="M 676.43,195.409 693.074,195.409 z" id="boundary" inkscape:connector-curvature="0" />
	<path style="fill:none;stroke:red;stroke-width:1px;stroke-linecap:butt;stroke-linejoin:miter;stroke-opacity:1" d="M 711.383,296.94 694.738,296.94 z" id="boundary" inkscape:connector-curvature="0" />
	<path style="fill:none;stroke:red;stroke-width:1px;stroke-linecap:butt;stroke-linejoin:miter;stroke-opacity:1" d="M 728.027,296.94 711.383,296.94 z" id="boundary" inkscape:connector-curvature="0" />
	<path style="fill:none;stroke:red;stroke-width:1px;stroke-linecap:butt;stroke-linejoin:miter;stroke-opacity:1" d="M 694.738,296.94 678.094,296.94 z" id="boundary" inkscape:connector-curvature="0" />
	<path style="fill:none;stroke:red;stroke-width:1px;stroke-linecap:butt;stroke-linejoin:miter;stroke-opacity:1" d="M 744.671,296.94 728.027,296.94 z" id="boundary" inkscape:connector-curvature="0" />
	<path style="fill:none;stroke:red;stroke-width:1px;stroke-linecap:butt;stroke-linejoin:miter;stroke-opacity:1" d="M 761.315,296.94 777.96,296.94 z" id="boundary" inkscape:connector-curvature="0" />
	<path style="fill:none;stroke:red;stroke-width:1px;stroke-linecap:butt;stroke-linejoin:miter;stroke-opacity:1" d="M 761.315,296.94 744.671,296.94 z" id="boundary" inkscape:connector-curvature="0" />
	<path style="fill:none;stroke:red;stroke-width:1px;stroke-linecap:butt;stroke-linejoin:miter;stroke-opacity:1" d="M 792.94,305.262 777.96,296.94 z" id="boundary" inkscape:connector-curvature="0" />
	<path style="fill:none;stroke:red;stroke-width:1px;stroke-linecap:butt;stroke-linejoin:miter;stroke-opacity:1" d="M 519.973,371.839 503.329,371.839 z" id="boundary" inkscape:connector-curvature="0" />
	<path style="fill:none;stroke:red;stroke-width:1px;stroke-linecap:butt;stroke-linejoin:miter;stroke-opacity:1" d="M 503.329,371.839 490.013,361.852 z" id="boundary" inkscape:connector-curvature="0" />
	<path style="fill:none;stroke:red;stroke-width:1px;stroke-linecap:butt;stroke-linejoin:miter;stroke-opacity:1" d="M 519.973,371.839 529.96,385.154 z" id="boundary" inkscape:connector-curvature="0" />
	<path style="fill:none;stroke:red;stroke-width:1px;stroke-linecap:butt;stroke-linejoin:miter;stroke-opacity:1" d="M 546.604,388.483 529.96,385.154 z" id="boundary" inkscape:connector-curvature="0" />
	<path style="fill:none;stroke:red;stroke-width:1px;stroke-linecap:butt;stroke-linejoin:miter;stroke-opacity:1" d="M 563.248,388.483 546.604,388.483 z" id="boundary" inkscape:connector-curvature="0" />
	<path style="fill:none;stroke:red;stroke-width:1px;stroke-linecap:butt;stroke-linejoin:miter;stroke-opacity:1" d="M 613.181,321.906 613.181,305.262 z" id="boundary" inkscape:connector-curvature="0" />
	<path style="fill:none;stroke:red;stroke-width:1px;stroke-linecap:butt;stroke-linejoin:miter;stroke-opacity:1" d="M 613.181,338.55 613.181,321.906 z" id="boundary" inkscape:connector-curvature="0" />
	<path style="fill:none;stroke:red;stroke-width:1px;stroke-linecap:butt;stroke-linejoin:miter;stroke-opacity:1" d="M 579.893,388.483 596.537,380.161 z" id="boundary" inkscape:connector-curvature="0" />
	<path style="fill:none;stroke:red;stroke-width:1px;stroke-linecap:butt;stroke-linejoin:miter;stroke-opacity:1" d="M 604.859,363.517 596.537,380.161 z" id="boundary" inkscape:connector-curvature="0" />
	<path style="fill:none;stroke:red;stroke-width:1px;stroke-linecap:butt;stroke-linejoin:miter;stroke-opacity:1" d="M 604.859,363.517 613.181,338.55 z" id="boundary" inkscape:connector-curvature="0" />
	<path style="fill:none;stroke:red;stroke-width:1px;stroke-linecap:butt;stroke-linejoin:miter;stroke-opacity:1" d="M 579.893,388.483 563.248,388.483 z" id="boundary" inkscape:connector-curvature="0" />
	<path style="fill:none;stroke:red;stroke-width:1px;stroke-linecap:butt;stroke-linejoin:miter;stroke-opacity:1" d="M 792.94,305.262 799.597,321.906 z" id="boundary" inkscape:connector-curvature="0" />
	<path style="fill:none;stroke:red;stroke-width:1px;stroke-linecap:butt;stroke-linejoin:miter;stroke-opacity:1" d="M 961.047,217.047 946.067,208.725 z" id="boundary" inkscape:connector-curvature="0" />
	<path style="fill:none;stroke:red;stroke-width:1px;stroke-linecap:butt;stroke-linejoin:miter;stroke-opacity:1" d="M 946.067,208.725 946.067,192.081 z" id="boundary" inkscape:connector-curvature="0" />
	<path style="fill:none;stroke:red;stroke-width:1px;stroke-linecap:butt;stroke-linejoin:miter;stroke-opacity:1" d="M 961.047,217.047 974.362,228.698 z" id="boundary" inkscape:connector-curvature="0" />
	<path style="fill:none;stroke:red;stroke-width:1px;stroke-linecap:butt;stroke-linejoin:miter;stroke-opacity:1" d="M 812.913,333.557 799.597,321.906 z" id="boundary" inkscape:connector-curvature="0" />
	<path style="fill:none;stroke:red;stroke-width:1px;stroke-linecap:butt;stroke-linejoin:miter;stroke-opacity:1" d="M 812.913,333.557 819.57,350.201 z" id="boundary" inkscape:connector-curvature="0" />
	<path style="fill:none;stroke:red;stroke-width:1px;stroke-linecap:butt;stroke-linejoin:miter;stroke-opacity:1" d="M 986.013,242.013 994.336,256.993 z" id="boundary" inkscape:connector-curvature="0" />
	<path style="fill:none;stroke:red;stroke-width:1px;stroke-linecap:butt;stroke-linejoin:miter;stroke-opacity:1" d="M 994.336,256.993 996,273.638 z" id="boundary" inkscape:connector-curvature="0" />
	<path style="fill:none;stroke:red;stroke-width:1px;stroke-linecap:butt;stroke-linejoin:miter;stroke-opacity:1" d="M 996,273.638 996,290.282 z" id="boundary" inkscape:connector-curvature="0" />
	<path style="fill:none;stroke:red;stroke-width:1px;stroke-linecap:butt;stroke-linejoin:miter;stroke-opacity:1" d="M 987.678,338.55 987.678,321.906 z" id="boundary" inkscape:connector-curvature="0" />
	<path style="fill:none;stroke:red;stroke-width:1px;stroke-linecap:butt;stroke-linejoin:miter;stroke-opacity:1" d="M 987.678,321.906 996,306.926 z" id="boundary" inkscape:connector-curvature="0" />
	<path style="fill:none;stroke:red;stroke-width:1px;stroke-linecap:butt;stroke-linejoin:miter;stroke-opacity:1" d="M 996,290.282 996,306.926 z" id="boundary" inkscape:connector-curvature="0" />
	<path style="fill:none;stroke:red;stroke-width:1px;stroke-linecap:butt;stroke-linejoin:miter;stroke-opacity:1" d="M 974.362,228.698 986.013,242.013 z" id="boundary" inkscape:connector-curvature="0" />
	<path style="fill:none;stroke:red;stroke-width:1px;stroke-linecap:butt;stroke-linejoin:miter;stroke-opacity:1" d="M 987.678,338.55 979.356,355.195 z" id="boundary" inkscape:connector-curvature="0" />
	<path style="fill:none;stroke:red;stroke-width:1px;stroke-linecap:butt;stroke-linejoin:miter;stroke-opacity:1" d="M 827.893,381.826 819.57,366.846 z" id="boundary" inkscape:connector-curvature="0" />
	<path style="fill:none;stroke:red;stroke-width:1px;stroke-linecap:butt;stroke-linejoin:miter;stroke-opacity:1" d="M 819.57,366.846 819.57,350.201 z" id="boundary" inkscape:connector-curvature="0" />
	<path style="fill:none;stroke:red;stroke-width:1px;stroke-linecap:butt;stroke-linejoin:miter;stroke-opacity:1" d="M 839.544,395.141 856.188,396.805 z" id="boundary" inkscape:connector-curvature="0" />
	<path style="fill:none;stroke:red;stroke-width:1px;stroke-linecap:butt;stroke-linejoin:miter;stroke-opacity:1" d="M 839.544,395.141 827.893,381.826 z" id="boundary" inkscape:connector-curvature="0" />
	<path style="fill:none;stroke:red;stroke-width:1px;stroke-linecap:butt;stroke-linejoin:miter;stroke-opacity:1" d="M 872.832,401.799 887.812,410.121 z" id="boundary" inkscape:connector-curvature="0" />
	<path style="fill:none;stroke:red;stroke-width:1px;stroke-linecap:butt;stroke-linejoin:miter;stroke-opacity:1" d="M 856.188,396.805 872.832,401.799 z" id="boundary" inkscape:connector-curvature="0" />
	<path style="fill:none;stroke:red;stroke-width:1px;stroke-linecap:butt;stroke-linejoin:miter;stroke-opacity:1" d="M 904.456,413.45 887.812,410.121 z" id="boundary" inkscape:connector-curvature="0" />
	<path style="fill:none;stroke:red;stroke-width:1px;stroke-linecap:butt;stroke-linejoin:miter;stroke-opacity:1" d="M 979.356,355.195 974.362,378.497 z" id="boundary" inkscape:connector-curvature="0" />
	<path style="fill:none;stroke:red;stroke-width:1px;stroke-linecap:butt;stroke-linejoin:miter;stroke-opacity:1" d="M 974.362,378.497 966.04,395.141 z" id="boundary" inkscape:connector-curvature="0" />
	<path style="fill:none;stroke:red;stroke-width:1px;stroke-linecap:butt;stroke-linejoin:miter;stroke-opacity:1" d="M 966.04,395.141 952.725,405.128 z" id="boundary" inkscape:connector-curvature="0" />
	<path style="fill:none;stroke:red;stroke-width:1px;stroke-linecap:butt;stroke-linejoin:miter;stroke-opacity:1" d="M 921.101,413.45 904.456,413.45 z" id="boundary" inkscape:connector-curvature="0" />
	<path style="fill:none;stroke:red;stroke-width:1px;stroke-linecap:butt;stroke-linejoin:miter;stroke-opacity:1" d="M 952.725,405.128 937.745,413.45 z" id="boundary" inkscape:connector-curvature="0" />
	<path style="fill:none;stroke:red;stroke-width:1px;stroke-linecap:butt;stroke-linejoin:miter;stroke-opacity:1" d="M 937.745,413.45 921.101,413.45 z" id="boundary" inkscape:connector-curvature="0" />
	<circle cx="4" cy="142.148" r="4" fill="#0" id="circle0"/>
	<circle cx="12.3221" cy="108.859" r="4" fill="#0" id="circle1"/>
	<circle cx="12.3221" cy="125.503" r="4" fill="#0" id="circle2"/>
	<circle cx="20.6443" cy="147.141" r="4" fill="#0" id="circle3"/>
	<circle cx="25.6376" cy="95.5436" r="4" fill="#0" id="circle4"/>
	<circle cx="28.9664" cy="75.5705" r="4" fill="#0" id="circle5"/>
	<circle cx="37.2886" cy="58.9262" r="4" fill="#0" id="circle6"/>
	<circle cx="37.2886" cy="147.141" r="4" fill="#0" id="circle7"/>
	<circle cx="47.2752" cy="130.497" r="4" fill="#0" id="circle8"/>
	<circle cx="50.604" cy="45.6107" r="4" fill="#0" id="circle9"/>
	<circle cx="62.255" cy="122.174" r="4" fill="#0" id="circle10"/>
	<circle cx="65.5839" cy="53.9329" r="4" fill="#0" id="circle11"/>
	<circle cx="78.8993" cy="122.174" r="4" fill="#0" id="circle12"/>
	<circle cx="78.8993" cy="333.557" r="4" fill="#0" id="circle13"/>
	<circle cx="78.8993" cy="350.201" r="4" fill="#0" id="circle14"/>
	<circle cx="78.8993" cy="366.846" r="4" fill="#0" id="circle15"/>
	<circle cx="82.2282" cy="53.9329" r="4" fill="#0" id="circle16"/>
	<circle cx="87.2215" cy="308.591" r="4" fill="#0" id="circle17"/>
	<circle cx="92.2148" cy="378.497" r="4" fill="#0" id="circle18"/>
	<circle cx="95.5436" cy="122.174" r="4" fill="#0" id="circle19"/>
	<circle cx="95.5436" cy="266.98" r="4" fill="#0" id="circle20"/>
	<circle cx="95.5436" cy="283.624" r="4" fill="#0" id="circle21"/>
	<circle cx="98.8725" cy="53.9329" r="4" fill="#0" id="circle22"/>
	<circle cx="103.866" cy="137.154" r="4" fill="#0" id="circle23"/>
	<circle cx="103.866" cy="242.013" r="4" fill="#0" id="circle24"/>
	<circle cx="108.859" cy="380.161" r="4" fill="#0" id="circle25"/>
	<circle cx="112.188" cy="152.134" r="4" fill="#0" id="circle26"/>
	<circle cx="112.188" cy="168.779" r="4" fill="#0" id="circle27"/>
	<circle cx="112.188" cy="185.423" r="4" fill="#0" id="circle28"/>
	<circle cx="112.188" cy="202.067" r="4" fill="#0" id="circle29"/>
	<circle cx="112.188" cy="218.711" r="4" fill="#0" id="circle30"/>
	<circle cx="115.517" cy="53.9329" r="4" fill="#0" id="circle31"/>
	<circle cx="125.503" cy="380.161" r="4" fill="#0" id="circle32"/>
	<circle cx="130.497" cy="62.255" r="4" fill="#0" id="circle33"/>
	<circle cx="142.148" cy="380.161" r="4" fill="#0" id="circle34"/>
	<circle cx="147.141" cy="67.2483" r="4" fill="#0" id="circle35"/>
	<circle cx="158.792" cy="380.161" r="4" fill="#0" id="circle36"/>
	<circle cx="162.121" cy="75.5705" r="4" fill="#0" id="circle37"/>
	<circle cx="172.107" cy="255.329" r="4" fill="#0" id="circle38"/>
	<circle cx="172.107" cy="330.228" r="4" fill="#0" id="circle39"/>
	<circle cx="175.436" cy="87.2215" r="4" fill="#0" id="circle40"/>
	<circle cx="175.436" cy="378.497" r="4" fill="#0" id="circle41"/>
	<circle cx="180.43" cy="270.309" r="4" fill="#0" id="circle42"/>
	<circle cx="180.43" cy="286.953" r="4" fill="#0" id="circle43"/>
	<circle cx="180.43" cy="303.597" r="4" fill="#0" id="circle44"/>
	<circle cx="185.423" cy="340.215" r="4" fill="#0" id="circle45"/>
	<circle cx="187.087" cy="247.007" r="4" fill="#0" id="circle46"/>
	<circle cx="188.752" cy="356.859" r="4" fill="#0" id="circle47"/>
	<circle cx="192.081" cy="87.2215" r="4" fill="#0" id="circle48"/>
	<circle cx="203.732" cy="247.007" r="4" fill="#0" id="circle49"/>
	<circle cx="208.725" cy="87.2215" r="4" fill="#0" id="circle50"/>
	<circle cx="220.376" cy="247.007" r="4" fill="#0" id="circle51"/>
	<circle cx="225.369" cy="87.2215" r="4" fill="#0" id="circle52"/>
	<circle cx="237.02" cy="242.013" r="4" fill="#0" id="circle53"/>
	<circle cx="242.013" cy="87.2215" r="4" fill="#0" id="circle54"/>
	<circle cx="253.664" cy="247.007" r="4" fill="#0" id="circle55"/>
	<circle cx="258.658" cy="87.2215" r="4" fill="#0" id="circle56"/>
	<circle cx="270.309" cy="247.007" r="4" fill="#0" id="circle57"/>
	<circle cx="275.302" cy="87.2215" r="4" fill="#0" id="circle58"/>
	<circle cx="286.953" cy="242.013" r="4" fill="#0" id="circle59"/>
	<circle cx="291.946" cy="87.2215" r="4" fill="#0" id="circle60"/>
	<circle cx="303.597" cy="238.685" r="4" fill="#0" id="circle61"/>
	<circle cx="303.597" cy="316.913" r="4" fill="#0" id="circle62"/>
	<circle cx="303.597" cy="350.201" r="4" fill="#0" id="circle63"/>
	<circle cx="308.591" cy="87.2215" r="4" fill="#0" id="circle64"/>
	<circle cx="308.591" cy="255.329" r="4" fill="#0" id="circle65"/>
	<circle cx="311.919" cy="271.973" r="4" fill="#0" id="circle66"/>
	<circle cx="311.919" cy="288.617" r="4" fill="#0" id="circle67"/>
	<circle cx="311.919" cy="331.893" r="4" fill="#0" id="circle68"/>
	<circle cx="320.242" cy="355.195" r="4" fill="#0" id="circle69"/>
	<circle cx="325.235" cy="87.2215" r="4" fill="#0" id="circle70"/>
	<circle cx="335.221" cy="363.517" r="4" fill="#0" id="circle71"/>
	<circle cx="340.215" cy="95.5436" r="4" fill="#0" id="circle72"/>
	<circle cx="350.201" cy="371.839" r="4" fill="#0" id="circle73"/>
	<circle cx="355.195" cy="103.866" r="4" fill="#0" id="circle74"/>
	<circle cx="363.517" cy="118.846" r="4" fill="#0" id="circle75"/>
	<circle cx="363.517" cy="135.49" r="4" fill="#0" id="circle76"/>
	<circle cx="365.181" cy="363.517" r="4" fill="#0" id="circle77"/>
	<circle cx="380.161" cy="142.148" r="4" fill="#0" id="circle78"/>
	<circle cx="380.161" cy="271.973" r="4" fill="#0" id="circle79"/>
	<circle cx="380.161" cy="288.617" r="4" fill="#0" id="circle80"/>
	<circle cx="380.161" cy="371.839" r="4" fill="#0" id="circle81"/>
	<circle cx="386.819" cy="158.792" r="4" fill="#0" id="circle82"/>
	<circle cx="388.483" cy="180.43" r="4" fill="#0" id="circle83"/>
	<circle cx="388.483" cy="303.597" r="4" fill="#0" id="circle84"/>
	<circle cx="388.483" cy="355.195" r="4" fill="#0" id="circle85"/>
	<circle cx="395.141" cy="263.651" r="4" fill="#0" id="circle86"/>
	<circle cx="396.805" cy="195.409" r="4" fill="#0" id="circle87"/>
	<circle cx="396.805" cy="318.577" r="4" fill="#0" id="circle88"/>
	<circle cx="396.805" cy="335.221" r="4" fill="#0" id="circle89"/>
	<circle cx="410.121" cy="205.396" r="4" fill="#0" id="circle90"/>
	<circle cx="411.785" cy="263.651" r="4" fill="#0" id="circle91"/>
	<circle cx="426.765" cy="212.054" r="4" fill="#0" id="circle92"/>
	<circle cx="428.43" cy="263.651" r="4" fill="#0" id="circle93"/>
	<circle cx="443.409" cy="212.054" r="4" fill="#0" id="circle94"/>
	<circle cx="445.074" cy="263.651" r="4" fill="#0" id="circle95"/>
	<circle cx="460.054" cy="212.054" r="4" fill="#0" id="circle96"/>
	<circle cx="461.718" cy="263.651" r="4" fill="#0" id="circle97"/>
	<circle cx="461.718" cy="341.879" r="4" fill="#0" id="circle98"/>
	<circle cx="470.04" cy="278.631" r="4" fill="#0" id="circle99"/>
	<circle cx="470.04" cy="295.275" r="4" fill="#0" id="circle100"/>
	<circle cx="470.04" cy="311.919" r="4" fill="#0" id="circle101"/>
	<circle cx="475.034" cy="203.732" r="4" fill="#0" id="circle102"/>
	<circle cx="475.034" cy="353.53" r="4" fill="#0" id="circle103"/>
	<circle cx="478.362" cy="142.148" r="4" fill="#0" id="circle104"/>
	<circle cx="478.362" cy="158.792" r="4" fill="#0" id="circle105"/>
	<circle cx="478.362" cy="175.436" r="4" fill="#0" id="circle106"/>
	<circle cx="486.685" cy="125.503" r="4" fill="#0" id="circle107"/>
	<circle cx="490.013" cy="361.852" r="4" fill="#0" id="circle108"/>
	<circle cx="495.007" cy="108.859" r="4" fill="#0" id="circle109"/>
	<circle cx="503.329" cy="371.839" r="4" fill="#0" id="circle110"/>
	<circle cx="511.651" cy="107.195" r="4" fill="#0" id="circle111"/>
	<circle cx="519.973" cy="371.839" r="4" fill="#0" id="circle112"/>
	<circle cx="528.295" cy="108.859" r="4" fill="#0" id="circle113"/>
	<circle cx="529.96" cy="385.154" r="4" fill="#0" id="circle114"/>
	<circle cx="544.94" cy="17.3154" r="4" fill="#0" id="circle115"/>
	<circle cx="544.94" cy="33.9597" r="4" fill="#0" id="circle116"/>
	<circle cx="544.94" cy="50.604" r="4" fill="#0" id="circle117"/>
	<circle cx="544.94" cy="67.2483" r="4" fill="#0" id="circle118"/>
	<circle cx="544.94" cy="83.8926" r="4" fill="#0" id="circle119"/>
	<circle cx="544.94" cy="100.537" r="4" fill="#0" id="circle120"/>
	<circle cx="546.604" cy="388.483" r="4" fill="#0" id="circle121"/>
	<circle cx="558.255" cy="4" r="4" fill="#0" id="circle122"/>
	<circle cx="563.248" cy="388.483" r="4" fill="#0" id="circle123"/>
	<circle cx="574.899" cy="4" r="4" fill="#0" id="circle124"/>
	<circle cx="579.893" cy="388.483" r="4" fill="#0" id="circle125"/>
	<circle cx="591.544" cy="4" r="4" fill="#0" id="circle126"/>
	<circle cx="596.537" cy="380.161" r="4" fill="#0" id="circle127"/>
	<circle cx="603.195" cy="17.3154" r="4" fill="#0" id="circle128"/>
	<circle cx="604.859" cy="363.517" r="4" fill="#0" id="circle129"/>
	<circle cx="613.181" cy="30.6309" r="4" fill="#0" id="circle130"/>
	<circle cx="613.181" cy="305.262" r="4" fill="#0" id="circle131"/>
	<circle cx="613.181" cy="321.906" r="4" fill="#0" id="circle132"/>
	<circle cx="613.181" cy="338.55" r="4" fill="#0" id="circle133"/>
	<circle cx="616.51" cy="47.2752" r="4" fill="#0" id="circle134"/>
	<circle cx="621.503" cy="138.819" r="4" fill="#0" id="circle135"/>
	<circle cx="628.161" cy="296.94" r="4" fill="#0" id="circle136"/>
	<circle cx="629.826" cy="58.9262" r="4" fill="#0" id="circle137"/>
	<circle cx="629.826" cy="75.5705" r="4" fill="#0" id="circle138"/>
	<circle cx="629.826" cy="92.2148" r="4" fill="#0" id="circle139"/>
	<circle cx="629.826" cy="108.859" r="4" fill="#0" id="circle140"/>
	<circle cx="629.826" cy="153.799" r="4" fill="#0" id="circle141"/>
	<circle cx="638.148" cy="168.779" r="4" fill="#0" id="circle142"/>
	<circle cx="644.805" cy="296.94" r="4" fill="#0" id="circle143"/>
	<circle cx="646.47" cy="183.758" r="4" fill="#0" id="circle144"/>
	<circle cx="659.785" cy="195.409" r="4" fill="#0" id="circle145"/>
	<circle cx="661.45" cy="296.94" r="4" fill="#0" id="circle146"/>
	<circle cx="676.43" cy="195.409" r="4" fill="#0" id="circle147"/>
	<circle cx="678.094" cy="296.94" r="4" fill="#0" id="circle148"/>
	<circle cx="693.074" cy="195.409" r="4" fill="#0" id="circle149"/>
	<circle cx="694.738" cy="158.792" r="4" fill="#0" id="circle150"/>
	<circle cx="694.738" cy="175.436" r="4" fill="#0" id="circle151"/>
	<circle cx="694.738" cy="296.94" r="4" fill="#0" id="circle152"/>
	<circle cx="708.054" cy="145.477" r="4" fill="#0" id="circle153"/>
	<circle cx="711.383" cy="296.94" r="4" fill="#0" id="circle154"/>
	<circle cx="723.034" cy="137.154" r="4" fill="#0" id="circle155"/>
	<circle cx="728.027" cy="296.94" r="4" fill="#0" id="circle156"/>
	<circle cx="738.013" cy="128.832" r="4" fill="#0" id="circle157"/>
	<circle cx="744.671" cy="296.94" r="4" fill="#0" id="circle158"/>
	<circle cx="752.993" cy="67.2483" r="4" fill="#0" id="circle159"/>
	<circle cx="752.993" cy="83.8926" r="4" fill="#0" id="circle160"/>
	<circle cx="752.993" cy="100.537" r="4" fill="#0" id="circle161"/>
	<circle cx="752.993" cy="117.181" r="4" fill="#0" id="circle162"/>
	<circle cx="761.315" cy="296.94" r="4" fill="#0" id="circle163"/>
	<circle cx="766.309" cy="53.9329" r="4" fill="#0" id="circle164"/>
	<circle cx="777.96" cy="296.94" r="4" fill="#0" id="circle165"/>
	<circle cx="779.624" cy="40.6174" r="4" fill="#0" id="circle166"/>
	<circle cx="792.94" cy="305.262" r="4" fill="#0" id="circle167"/>
	<circle cx="796.268" cy="42.2819" r="4" fill="#0" id="circle168"/>
	<circle cx="799.597" cy="321.906" r="4" fill="#0" id="circle169"/>
	<circle cx="812.913" cy="45.6107" r="4" fill="#0" id="circle170"/>
	<circle cx="812.913" cy="333.557" r="4" fill="#0" id="circle171"/>
	<circle cx="819.57" cy="350.201" r="4" fill="#0" id="circle172"/>
	<circle cx="819.57" cy="366.846" r="4" fill="#0" id="circle173"/>
	<circle cx="827.893" cy="381.826" r="4" fill="#0" id="circle174"/>
	<circle cx="829.557" cy="50.604" r="4" fill="#0" id="circle175"/>
	<circle cx="839.544" cy="395.141" r="4" fill="#0" id="circle176"/>
	<circle cx="841.208" cy="63.9195" r="4" fill="#0" id="circle177"/>
	<circle cx="854.523" cy="75.5705" r="4" fill="#0" id="circle178"/>
	<circle cx="856.188" cy="396.805" r="4" fill="#0" id="circle179"/>
	<circle cx="866.174" cy="88.8859" r="4" fill="#0" id="circle180"/>
	<circle cx="872.832" cy="401.799" r="4" fill="#0" id="circle181"/>
	<circle cx="879.49" cy="100.537" r="4" fill="#0" id="circle182"/>
	<circle cx="887.812" cy="410.121" r="4" fill="#0" id="circle183"/>
	<circle cx="896.134" cy="98.8725" r="4" fill="#0" id="circle184"/>
	<circle cx="904.456" cy="413.45" r="4" fill="#0" id="circle185"/>
	<circle cx="912.779" cy="103.866" r="4" fill="#0" id="circle186"/>
	<circle cx="921.101" cy="413.45" r="4" fill="#0" id="circle187"/>
	<circle cx="929.423" cy="103.866" r="4" fill="#0" id="circle188"/>
	<circle cx="937.745" cy="413.45" r="4" fill="#0" id="circle189"/>
	<circle cx="946.067" cy="108.859" r="4" fill="#0" id="circle190"/>
	<circle cx="946.067" cy="125.503" r="4" fill="#0" id="circle191"/>
	<circle cx="946.067" cy="142.148" r="4" fill="#0" id="circle192"/>
	<circle cx="946.067" cy="158.792" r="4" fill="#0" id="circle193"/>
	<circle cx="946.067" cy="175.436" r="4" fill="#0" id="circle194"/>
	<circle cx="946.067" cy="192.081" r="4" fill="#0" id="circle195"/>
	<circle cx="946.067" cy="208.725" r="4" fill="#0" id="circle196"/>
	<circle cx="952.725" cy="405.128" r="4" fill="#0" id="circle197"/>
	<circle cx="961.047" cy="217.047" r="4" fill="#0" id="circle198"/>
	<circle cx="966.04" cy="395.141" r="4" fill="#0" id="circle199"/>
	<circle cx="974.362" cy="228.698" r="4" fill="#0" id="circle200"/>
	<circle cx="974.362" cy="378.497" r="4" fill="#0" id="circle201"/>
	<circle cx="979.356" cy="355.195" r="4" fill="#0" id="circle202"/>
	<circle cx="986.013" cy="242.013" r="4" fill="#0" id="circle203"/>
	<circle cx="987.678" cy="321.906" r="4" fill="#0" id="circle204"/>
	<circle cx="987.678" cy="338.55" r="4" fill="#0" id="circle205"/>
	<circle cx="994.336" cy="256.993" r="4" fill="#0" id="circle206"/>
	<circle cx="996" cy="273.638" r="4" fill="#0" id="circle207"/>
	<circle cx="996" cy="290.282" r="4" fill="#0" id="circle208"/>
	<circle cx="996" cy="306.926" r="4" fill="#0" id="circle209"/>
	</g>
</svg>