<?xml version="1.0" encoding="UTF-8" standalone="no"?>
<!-- Created with CurveBenchmark -->
<svg
	xmlns:dc="http://purl.org/dc/elements/1.1/"
	xmlns:cc="http://creativecommons.org/ns#"
	xmlns:rdf="http://www.w3.org/1999/02/22-rdf-syntax-ns#"
	xmlns:svg="http://www.w3.org/2000/svg"
	xmlns="http://www.w3.org/2000/svg"
	xmlns:sodipodi="http://sodipodi.sourceforge.net/DTD/sodipodi-0.dtd"
	xmlns:inkscape="http://www.inkscape.org/namespaces/inkscape"
	width="1000"
	height="1000"
	id="svg2"
	version="1.1"
	sodipodi:docname="manifold/gathan1-cat27.png.txt">
<defs
	id="defs4" />
<metadata
	id="metadata7">
	<rdf:RDF>
		<cc:Work
			rdf:about="">
			<dc:format>image/svg+xml</dc:format>
			<dc:type
				rdf:resource="http://purl.org/dc/dcmitype/StillImage" />
			<dc:title></dc:title>
		</cc:Work>
	</rdf:RDF>
</metadata>
<g
	inkscape:label="Layer 1"
	inkscape:groupmode="layer"
	id="layer1">
	<path style="fill:none;stroke:red;stroke-width:1px;stroke-linecap:butt;stroke-linejoin:miter;stroke-opacity:1" d="M 64.9123,339.888 50.9895,352.07 z" id="boundary" inkscape:connector-curvature="0" />
	<path style="fill:none;stroke:red;stroke-width:1px;stroke-linecap:butt;stroke-linejoin:miter;stroke-opacity:1" d="M 50.9895,352.07 35.3263,360.772 z" id="boundary" inkscape:connector-curvature="0" />
	<path style="fill:none;stroke:red;stroke-width:1px;stroke-linecap:butt;stroke-linejoin:miter;stroke-opacity:1" d="M 21.4035,374.695 21.4035,392.098 z" id="boundary" inkscape:connector-curvature="0" />
	<path style="fill:none;stroke:red;stroke-width:1px;stroke-linecap:butt;stroke-linejoin:miter;stroke-opacity:1" d="M 21.4035,392.098 17.9228,412.982 z" id="boundary" inkscape:connector-curvature="0" />
	<path style="fill:none;stroke:red;stroke-width:1px;stroke-linecap:butt;stroke-linejoin:miter;stroke-opacity:1" d="M 17.9228,412.982 4,426.905 z" id="boundary" inkscape:connector-curvature="0" />
	<path style="fill:none;stroke:red;stroke-width:1px;stroke-linecap:butt;stroke-linejoin:miter;stroke-opacity:1" d="M 21.4035,374.695 35.3263,360.772 z" id="boundary" inkscape:connector-curvature="0" />
	<path style="fill:none;stroke:red;stroke-width:1px;stroke-linecap:butt;stroke-linejoin:miter;stroke-opacity:1" d="M 91.0175,305.081 91.0175,287.677 z" id="boundary" inkscape:connector-curvature="0" />
	<path style="fill:none;stroke:red;stroke-width:1px;stroke-linecap:butt;stroke-linejoin:miter;stroke-opacity:1" d="M 91.0175,287.677 108.421,282.456 z" id="boundary" inkscape:connector-curvature="0" />
	<path style="fill:none;stroke:red;stroke-width:1px;stroke-linecap:butt;stroke-linejoin:miter;stroke-opacity:1" d="M 122.344,292.898 108.421,282.456 z" id="boundary" inkscape:connector-curvature="0" />
	<path style="fill:none;stroke:red;stroke-width:1px;stroke-linecap:butt;stroke-linejoin:miter;stroke-opacity:1" d="M 78.8351,325.965 91.0175,305.081 z" id="boundary" inkscape:connector-curvature="0" />
	<path style="fill:none;stroke:red;stroke-width:1px;stroke-linecap:butt;stroke-linejoin:miter;stroke-opacity:1" d="M 136.267,305.081 150.189,317.263 z" id="boundary" inkscape:connector-curvature="0" />
	<path style="fill:none;stroke:red;stroke-width:1px;stroke-linecap:butt;stroke-linejoin:miter;stroke-opacity:1" d="M 122.344,292.898 136.267,305.081 z" id="boundary" inkscape:connector-curvature="0" />
	<path style="fill:none;stroke:red;stroke-width:1px;stroke-linecap:butt;stroke-linejoin:miter;stroke-opacity:1" d="M 64.9123,339.888 78.8351,325.965 z" id="boundary" inkscape:connector-curvature="0" />
	<path style="fill:none;stroke:red;stroke-width:1px;stroke-linecap:butt;stroke-linejoin:miter;stroke-opacity:1" d="M 4,444.309 4,426.905 z" id="boundary" inkscape:connector-curvature="0" />
	<path style="fill:none;stroke:red;stroke-width:1px;stroke-linecap:butt;stroke-linejoin:miter;stroke-opacity:1" d="M 4,461.712 4,444.309 z" id="boundary" inkscape:connector-curvature="0" />
	<path style="fill:none;stroke:red;stroke-width:1px;stroke-linecap:butt;stroke-linejoin:miter;stroke-opacity:1" d="M 17.9228,473.895 4,461.712 z" id="boundary" inkscape:connector-curvature="0" />
	<path style="fill:none;stroke:red;stroke-width:1px;stroke-linecap:butt;stroke-linejoin:miter;stroke-opacity:1" d="M 47.5088,493.039 30.1053,487.818 z" id="boundary" inkscape:connector-curvature="0" />
	<path style="fill:none;stroke:red;stroke-width:1px;stroke-linecap:butt;stroke-linejoin:miter;stroke-opacity:1" d="M 30.1053,487.818 17.9228,473.895 z" id="boundary" inkscape:connector-curvature="0" />
	<path style="fill:none;stroke:red;stroke-width:1px;stroke-linecap:butt;stroke-linejoin:miter;stroke-opacity:1" d="M 75.3544,515.663 63.1719,501.74 z" id="boundary" inkscape:connector-curvature="0" />
	<path style="fill:none;stroke:red;stroke-width:1px;stroke-linecap:butt;stroke-linejoin:miter;stroke-opacity:1" d="M 63.1719,501.74 47.5088,493.039 z" id="boundary" inkscape:connector-curvature="0" />
	<path style="fill:none;stroke:red;stroke-width:1px;stroke-linecap:butt;stroke-linejoin:miter;stroke-opacity:1" d="M 75.3544,515.663 89.2772,527.846 z" id="boundary" inkscape:connector-curvature="0" />
	<path style="fill:none;stroke:red;stroke-width:1px;stroke-linecap:butt;stroke-linejoin:miter;stroke-opacity:1" d="M 89.2772,527.846 101.46,541.768 z" id="boundary" inkscape:connector-curvature="0" />
	<path style="fill:none;stroke:red;stroke-width:1px;stroke-linecap:butt;stroke-linejoin:miter;stroke-opacity:1" d="M 101.46,541.768 115.382,553.951 z" id="boundary" inkscape:connector-curvature="0" />
	<path style="fill:none;stroke:red;stroke-width:1px;stroke-linecap:butt;stroke-linejoin:miter;stroke-opacity:1" d="M 115.382,553.951 127.565,567.874 z" id="boundary" inkscape:connector-curvature="0" />
	<path style="fill:none;stroke:red;stroke-width:1px;stroke-linecap:butt;stroke-linejoin:miter;stroke-opacity:1" d="M 141.488,580.056 127.565,567.874 z" id="boundary" inkscape:connector-curvature="0" />
	<path style="fill:none;stroke:red;stroke-width:1px;stroke-linecap:butt;stroke-linejoin:miter;stroke-opacity:1" d="M 141.488,580.056 151.93,593.979 z" id="boundary" inkscape:connector-curvature="0" />
	<path style="fill:none;stroke:red;stroke-width:1px;stroke-linecap:butt;stroke-linejoin:miter;stroke-opacity:1" d="M 150.189,317.263 165.853,325.965 z" id="boundary" inkscape:connector-curvature="0" />
	<path style="fill:none;stroke:red;stroke-width:1px;stroke-linecap:butt;stroke-linejoin:miter;stroke-opacity:1" d="M 165.853,325.965 183.256,325.965 z" id="boundary" inkscape:connector-curvature="0" />
	<path style="fill:none;stroke:red;stroke-width:1px;stroke-linecap:butt;stroke-linejoin:miter;stroke-opacity:1" d="M 183.256,325.965 195.439,339.888 z" id="boundary" inkscape:connector-curvature="0" />
	<path style="fill:none;stroke:red;stroke-width:1px;stroke-linecap:butt;stroke-linejoin:miter;stroke-opacity:1" d="M 195.439,339.888 209.361,352.07 z" id="boundary" inkscape:connector-curvature="0" />
	<path style="fill:none;stroke:red;stroke-width:1px;stroke-linecap:butt;stroke-linejoin:miter;stroke-opacity:1" d="M 225.025,360.772 240.688,369.474 z" id="boundary" inkscape:connector-curvature="0" />
	<path style="fill:none;stroke:red;stroke-width:1px;stroke-linecap:butt;stroke-linejoin:miter;stroke-opacity:1" d="M 225.025,360.772 209.361,352.07 z" id="boundary" inkscape:connector-curvature="0" />
	<path style="fill:none;stroke:red;stroke-width:1px;stroke-linecap:butt;stroke-linejoin:miter;stroke-opacity:1" d="M 240.688,369.474 254.611,379.916 z" id="boundary" inkscape:connector-curvature="0" />
	<path style="fill:none;stroke:red;stroke-width:1px;stroke-linecap:butt;stroke-linejoin:miter;stroke-opacity:1" d="M 272.014,386.877 254.611,379.916 z" id="boundary" inkscape:connector-curvature="0" />
	<path style="fill:none;stroke:red;stroke-width:1px;stroke-linecap:butt;stroke-linejoin:miter;stroke-opacity:1" d="M 289.418,386.877 272.014,386.877 z" id="boundary" inkscape:connector-curvature="0" />
	<path style="fill:none;stroke:red;stroke-width:1px;stroke-linecap:butt;stroke-linejoin:miter;stroke-opacity:1" d="M 359.032,386.877 341.628,386.877 z" id="boundary" inkscape:connector-curvature="0" />
	<path style="fill:none;stroke:red;stroke-width:1px;stroke-linecap:butt;stroke-linejoin:miter;stroke-opacity:1" d="M 341.628,386.877 324.225,386.877 z" id="boundary" inkscape:connector-curvature="0" />
	<path style="fill:none;stroke:red;stroke-width:1px;stroke-linecap:butt;stroke-linejoin:miter;stroke-opacity:1" d="M 324.225,386.877 306.821,386.877 z" id="boundary" inkscape:connector-curvature="0" />
	<path style="fill:none;stroke:red;stroke-width:1px;stroke-linecap:butt;stroke-linejoin:miter;stroke-opacity:1" d="M 306.821,386.877 289.418,386.877 z" id="boundary" inkscape:connector-curvature="0" />
	<path style="fill:none;stroke:red;stroke-width:1px;stroke-linecap:butt;stroke-linejoin:miter;stroke-opacity:1" d="M 459.972,386.877 442.568,386.877 z" id="boundary" inkscape:connector-curvature="0" />
	<path style="fill:none;stroke:red;stroke-width:1px;stroke-linecap:butt;stroke-linejoin:miter;stroke-opacity:1" d="M 374.695,395.579 359.032,386.877 z" id="boundary" inkscape:connector-curvature="0" />
	<path style="fill:none;stroke:red;stroke-width:1px;stroke-linecap:butt;stroke-linejoin:miter;stroke-opacity:1" d="M 407.761,386.877 392.098,395.579 z" id="boundary" inkscape:connector-curvature="0" />
	<path style="fill:none;stroke:red;stroke-width:1px;stroke-linecap:butt;stroke-linejoin:miter;stroke-opacity:1" d="M 392.098,395.579 374.695,395.579 z" id="boundary" inkscape:connector-curvature="0" />
	<path style="fill:none;stroke:red;stroke-width:1px;stroke-linecap:butt;stroke-linejoin:miter;stroke-opacity:1" d="M 151.93,593.979 160.632,609.642 z" id="boundary" inkscape:connector-curvature="0" />
	<path style="fill:none;stroke:red;stroke-width:1px;stroke-linecap:butt;stroke-linejoin:miter;stroke-opacity:1" d="M 169.333,625.305 160.632,609.642 z" id="boundary" inkscape:connector-curvature="0" />
	<path style="fill:none;stroke:red;stroke-width:1px;stroke-linecap:butt;stroke-linejoin:miter;stroke-opacity:1" d="M 181.516,639.228 169.333,625.305 z" id="boundary" inkscape:connector-curvature="0" />
	<path style="fill:none;stroke:red;stroke-width:1px;stroke-linecap:butt;stroke-linejoin:miter;stroke-opacity:1" d="M 407.761,386.877 425.165,386.877 z" id="boundary" inkscape:connector-curvature="0" />
	<path style="fill:none;stroke:red;stroke-width:1px;stroke-linecap:butt;stroke-linejoin:miter;stroke-opacity:1" d="M 425.165,386.877 442.568,386.877 z" id="boundary" inkscape:connector-curvature="0" />
	<path style="fill:none;stroke:red;stroke-width:1px;stroke-linecap:butt;stroke-linejoin:miter;stroke-opacity:1" d="M 459.972,386.877 477.375,386.877 z" id="boundary" inkscape:connector-curvature="0" />
	<path style="fill:none;stroke:red;stroke-width:1px;stroke-linecap:butt;stroke-linejoin:miter;stroke-opacity:1" d="M 494.779,386.877 477.375,386.877 z" id="boundary" inkscape:connector-curvature="0" />
	<path style="fill:none;stroke:red;stroke-width:1px;stroke-linecap:butt;stroke-linejoin:miter;stroke-opacity:1" d="M 494.779,386.877 512.182,386.877 z" id="boundary" inkscape:connector-curvature="0" />
	<path style="fill:none;stroke:red;stroke-width:1px;stroke-linecap:butt;stroke-linejoin:miter;stroke-opacity:1" d="M 529.586,386.877 512.182,386.877 z" id="boundary" inkscape:connector-curvature="0" />
	<path style="fill:none;stroke:red;stroke-width:1px;stroke-linecap:butt;stroke-linejoin:miter;stroke-opacity:1" d="M 545.249,378.175 529.586,386.877 z" id="boundary" inkscape:connector-curvature="0" />
	<path style="fill:none;stroke:red;stroke-width:1px;stroke-linecap:butt;stroke-linejoin:miter;stroke-opacity:1" d="M 181.516,639.228 195.439,649.67 z" id="boundary" inkscape:connector-curvature="0" />
	<path style="fill:none;stroke:red;stroke-width:1px;stroke-linecap:butt;stroke-linejoin:miter;stroke-opacity:1" d="M 195.439,649.67 205.881,663.593 z" id="boundary" inkscape:connector-curvature="0" />
	<path style="fill:none;stroke:red;stroke-width:1px;stroke-linecap:butt;stroke-linejoin:miter;stroke-opacity:1" d="M 223.284,670.554 205.881,663.593 z" id="boundary" inkscape:connector-curvature="0" />
	<path style="fill:none;stroke:red;stroke-width:1px;stroke-linecap:butt;stroke-linejoin:miter;stroke-opacity:1" d="M 252.87,691.439 235.467,684.477 z" id="boundary" inkscape:connector-curvature="0" />
	<path style="fill:none;stroke:red;stroke-width:1px;stroke-linecap:butt;stroke-linejoin:miter;stroke-opacity:1" d="M 235.467,684.477 223.284,670.554 z" id="boundary" inkscape:connector-curvature="0" />
	<path style="fill:none;stroke:red;stroke-width:1px;stroke-linecap:butt;stroke-linejoin:miter;stroke-opacity:1" d="M 252.87,691.439 265.053,705.361 z" id="boundary" inkscape:connector-curvature="0" />
	<path style="fill:none;stroke:red;stroke-width:1px;stroke-linecap:butt;stroke-linejoin:miter;stroke-opacity:1" d="M 265.053,705.361 278.975,717.544 z" id="boundary" inkscape:connector-curvature="0" />
	<path style="fill:none;stroke:red;stroke-width:1px;stroke-linecap:butt;stroke-linejoin:miter;stroke-opacity:1" d="M 278.975,717.544 282.456,734.947 z" id="boundary" inkscape:connector-curvature="0" />
	<path style="fill:none;stroke:red;stroke-width:1px;stroke-linecap:butt;stroke-linejoin:miter;stroke-opacity:1" d="M 282.456,752.351 282.456,734.947 z" id="boundary" inkscape:connector-curvature="0" />
	<path style="fill:none;stroke:red;stroke-width:1px;stroke-linecap:butt;stroke-linejoin:miter;stroke-opacity:1" d="M 282.456,752.351 282.456,769.754 z" id="boundary" inkscape:connector-curvature="0" />
	<path style="fill:none;stroke:red;stroke-width:1px;stroke-linecap:butt;stroke-linejoin:miter;stroke-opacity:1" d="M 282.456,787.158 282.456,769.754 z" id="boundary" inkscape:connector-curvature="0" />
	<path style="fill:none;stroke:red;stroke-width:1px;stroke-linecap:butt;stroke-linejoin:miter;stroke-opacity:1" d="M 282.456,804.561 282.456,787.158 z" id="boundary" inkscape:connector-curvature="0" />
	<path style="fill:none;stroke:red;stroke-width:1px;stroke-linecap:butt;stroke-linejoin:miter;stroke-opacity:1" d="M 360.772,823.705 345.109,832.407 z" id="boundary" inkscape:connector-curvature="0" />
	<path style="fill:none;stroke:red;stroke-width:1px;stroke-linecap:butt;stroke-linejoin:miter;stroke-opacity:1" d="M 247.649,861.993 261.572,848.07 z" id="boundary" inkscape:connector-curvature="0" />
	<path style="fill:none;stroke:red;stroke-width:1px;stroke-linecap:butt;stroke-linejoin:miter;stroke-opacity:1" d="M 275.495,834.147 261.572,848.07 z" id="boundary" inkscape:connector-curvature="0" />
	<path style="fill:none;stroke:red;stroke-width:1px;stroke-linecap:butt;stroke-linejoin:miter;stroke-opacity:1" d="M 282.456,804.561 275.495,834.147 z" id="boundary" inkscape:connector-curvature="0" />
	<path style="fill:none;stroke:red;stroke-width:1px;stroke-linecap:butt;stroke-linejoin:miter;stroke-opacity:1" d="M 265.053,884.618 247.649,879.396 z" id="boundary" inkscape:connector-curvature="0" />
	<path style="fill:none;stroke:red;stroke-width:1px;stroke-linecap:butt;stroke-linejoin:miter;stroke-opacity:1" d="M 247.649,879.396 247.649,861.993 z" id="boundary" inkscape:connector-curvature="0" />
	<path style="fill:none;stroke:red;stroke-width:1px;stroke-linecap:butt;stroke-linejoin:miter;stroke-opacity:1" d="M 282.456,884.618 265.053,884.618 z" id="boundary" inkscape:connector-curvature="0" />
	<path style="fill:none;stroke:red;stroke-width:1px;stroke-linecap:butt;stroke-linejoin:miter;stroke-opacity:1" d="M 282.456,884.618 298.119,893.319 z" id="boundary" inkscape:connector-curvature="0" />
	<path style="fill:none;stroke:red;stroke-width:1px;stroke-linecap:butt;stroke-linejoin:miter;stroke-opacity:1" d="M 336.407,849.811 322.484,867.214 z" id="boundary" inkscape:connector-curvature="0" />
	<path style="fill:none;stroke:red;stroke-width:1px;stroke-linecap:butt;stroke-linejoin:miter;stroke-opacity:1" d="M 322.484,867.214 313.782,882.877 z" id="boundary" inkscape:connector-curvature="0" />
	<path style="fill:none;stroke:red;stroke-width:1px;stroke-linecap:butt;stroke-linejoin:miter;stroke-opacity:1" d="M 298.119,893.319 313.782,882.877 z" id="boundary" inkscape:connector-curvature="0" />
	<path style="fill:none;stroke:red;stroke-width:1px;stroke-linecap:butt;stroke-linejoin:miter;stroke-opacity:1" d="M 334.667,896.8 343.368,912.463 z" id="boundary" inkscape:connector-curvature="0" />
	<path style="fill:none;stroke:red;stroke-width:1px;stroke-linecap:butt;stroke-linejoin:miter;stroke-opacity:1" d="M 336.407,849.811 345.109,832.407 z" id="boundary" inkscape:connector-curvature="0" />
	<path style="fill:none;stroke:red;stroke-width:1px;stroke-linecap:butt;stroke-linejoin:miter;stroke-opacity:1" d="M 343.368,912.463 360.772,919.425 z" id="boundary" inkscape:connector-curvature="0" />
	<path style="fill:none;stroke:red;stroke-width:1px;stroke-linecap:butt;stroke-linejoin:miter;stroke-opacity:1" d="M 458.232,745.389 440.828,754.091 z" id="boundary" inkscape:connector-curvature="0" />
	<path style="fill:none;stroke:red;stroke-width:1px;stroke-linecap:butt;stroke-linejoin:miter;stroke-opacity:1" d="M 473.895,736.688 458.232,745.389 z" id="boundary" inkscape:connector-curvature="0" />
	<path style="fill:none;stroke:red;stroke-width:1px;stroke-linecap:butt;stroke-linejoin:miter;stroke-opacity:1" d="M 440.828,771.495 440.828,754.091 z" id="boundary" inkscape:connector-curvature="0" />
	<path style="fill:none;stroke:red;stroke-width:1px;stroke-linecap:butt;stroke-linejoin:miter;stroke-opacity:1" d="M 440.828,771.495 440.828,788.898 z" id="boundary" inkscape:connector-curvature="0" />
	<path style="fill:none;stroke:red;stroke-width:1px;stroke-linecap:butt;stroke-linejoin:miter;stroke-opacity:1" d="M 440.828,788.898 432.126,806.302 z" id="boundary" inkscape:connector-curvature="0" />
	<path style="fill:none;stroke:red;stroke-width:1px;stroke-linecap:butt;stroke-linejoin:miter;stroke-opacity:1" d="M 473.895,736.688 489.558,745.389 z" id="boundary" inkscape:connector-curvature="0" />
	<path style="fill:none;stroke:red;stroke-width:1px;stroke-linecap:butt;stroke-linejoin:miter;stroke-opacity:1" d="M 489.558,745.389 506.961,745.389 z" id="boundary" inkscape:connector-curvature="0" />
	<path style="fill:none;stroke:red;stroke-width:1px;stroke-linecap:butt;stroke-linejoin:miter;stroke-opacity:1" d="M 506.961,745.389 522.625,754.091 z" id="boundary" inkscape:connector-curvature="0" />
	<path style="fill:none;stroke:red;stroke-width:1px;stroke-linecap:butt;stroke-linejoin:miter;stroke-opacity:1" d="M 522.625,821.965 536.547,808.042 z" id="boundary" inkscape:connector-curvature="0" />
	<path style="fill:none;stroke:red;stroke-width:1px;stroke-linecap:butt;stroke-linejoin:miter;stroke-opacity:1" d="M 550.47,795.86 536.547,808.042 z" id="boundary" inkscape:connector-curvature="0" />
	<path style="fill:none;stroke:red;stroke-width:1px;stroke-linecap:butt;stroke-linejoin:miter;stroke-opacity:1" d="M 538.288,762.793 555.691,762.793 z" id="boundary" inkscape:connector-curvature="0" />
	<path style="fill:none;stroke:red;stroke-width:1px;stroke-linecap:butt;stroke-linejoin:miter;stroke-opacity:1" d="M 522.625,754.091 538.288,762.793 z" id="boundary" inkscape:connector-curvature="0" />
	<path style="fill:none;stroke:red;stroke-width:1px;stroke-linecap:butt;stroke-linejoin:miter;stroke-opacity:1" d="M 555.691,858.512 538.288,856.772 z" id="boundary" inkscape:connector-curvature="0" />
	<path style="fill:none;stroke:red;stroke-width:1px;stroke-linecap:butt;stroke-linejoin:miter;stroke-opacity:1" d="M 522.625,821.965 508.702,835.888 z" id="boundary" inkscape:connector-curvature="0" />
	<path style="fill:none;stroke:red;stroke-width:1px;stroke-linecap:butt;stroke-linejoin:miter;stroke-opacity:1" d="M 369.474,839.368 360.772,861.993 z" id="boundary" inkscape:connector-curvature="0" />
	<path style="fill:none;stroke:red;stroke-width:1px;stroke-linecap:butt;stroke-linejoin:miter;stroke-opacity:1" d="M 369.474,839.368 360.772,823.705 z" id="boundary" inkscape:connector-curvature="0" />
	<path style="fill:none;stroke:red;stroke-width:1px;stroke-linecap:butt;stroke-linejoin:miter;stroke-opacity:1" d="M 409.502,900.281 393.839,910.723 z" id="boundary" inkscape:connector-curvature="0" />
	<path style="fill:none;stroke:red;stroke-width:1px;stroke-linecap:butt;stroke-linejoin:miter;stroke-opacity:1" d="M 360.772,861.993 348.589,882.877 z" id="boundary" inkscape:connector-curvature="0" />
	<path style="fill:none;stroke:red;stroke-width:1px;stroke-linecap:butt;stroke-linejoin:miter;stroke-opacity:1" d="M 376.435,910.723 360.772,919.425 z" id="boundary" inkscape:connector-curvature="0" />
	<path style="fill:none;stroke:red;stroke-width:1px;stroke-linecap:butt;stroke-linejoin:miter;stroke-opacity:1" d="M 376.435,910.723 393.839,910.723 z" id="boundary" inkscape:connector-curvature="0" />
	<path style="fill:none;stroke:red;stroke-width:1px;stroke-linecap:butt;stroke-linejoin:miter;stroke-opacity:1" d="M 423.425,849.811 423.425,832.407 z" id="boundary" inkscape:connector-curvature="0" />
	<path style="fill:none;stroke:red;stroke-width:1px;stroke-linecap:butt;stroke-linejoin:miter;stroke-opacity:1" d="M 432.126,806.302 423.425,832.407 z" id="boundary" inkscape:connector-curvature="0" />
	<path style="fill:none;stroke:red;stroke-width:1px;stroke-linecap:butt;stroke-linejoin:miter;stroke-opacity:1" d="M 522.625,848.07 508.702,835.888 z" id="boundary" inkscape:connector-curvature="0" />
	<path style="fill:none;stroke:red;stroke-width:1px;stroke-linecap:butt;stroke-linejoin:miter;stroke-opacity:1" d="M 409.502,900.281 418.204,882.877 z" id="boundary" inkscape:connector-curvature="0" />
	<path style="fill:none;stroke:red;stroke-width:1px;stroke-linecap:butt;stroke-linejoin:miter;stroke-opacity:1" d="M 418.204,882.877 423.425,849.811 z" id="boundary" inkscape:connector-curvature="0" />
	<path style="fill:none;stroke:red;stroke-width:1px;stroke-linecap:butt;stroke-linejoin:miter;stroke-opacity:1" d="M 522.625,848.07 538.288,856.772 z" id="boundary" inkscape:connector-curvature="0" />
	<path style="fill:none;stroke:red;stroke-width:1px;stroke-linecap:butt;stroke-linejoin:miter;stroke-opacity:1" d="M 545.249,378.175 562.653,378.175 z" id="boundary" inkscape:connector-curvature="0" />
	<path style="fill:none;stroke:red;stroke-width:1px;stroke-linecap:butt;stroke-linejoin:miter;stroke-opacity:1" d="M 830.667,209.361 830.667,226.765 z" id="boundary" inkscape:connector-curvature="0" />
	<path style="fill:none;stroke:red;stroke-width:1px;stroke-linecap:butt;stroke-linejoin:miter;stroke-opacity:1" d="M 830.667,209.361 839.368,183.256 z" id="boundary" inkscape:connector-curvature="0" />
	<path style="fill:none;stroke:red;stroke-width:1px;stroke-linecap:butt;stroke-linejoin:miter;stroke-opacity:1" d="M 830.667,226.765 830.667,244.168 z" id="boundary" inkscape:connector-curvature="0" />
	<path style="fill:none;stroke:red;stroke-width:1px;stroke-linecap:butt;stroke-linejoin:miter;stroke-opacity:1" d="M 830.667,244.168 821.965,261.572 z" id="boundary" inkscape:connector-curvature="0" />
	<path style="fill:none;stroke:red;stroke-width:1px;stroke-linecap:butt;stroke-linejoin:miter;stroke-opacity:1" d="M 797.6,338.147 804.561,313.782 z" id="boundary" inkscape:connector-curvature="0" />
	<path style="fill:none;stroke:red;stroke-width:1px;stroke-linecap:butt;stroke-linejoin:miter;stroke-opacity:1" d="M 813.263,287.677 804.561,313.782 z" id="boundary" inkscape:connector-curvature="0" />
	<path style="fill:none;stroke:red;stroke-width:1px;stroke-linecap:butt;stroke-linejoin:miter;stroke-opacity:1" d="M 821.965,261.572 813.263,287.677 z" id="boundary" inkscape:connector-curvature="0" />
	<path style="fill:none;stroke:red;stroke-width:1px;stroke-linecap:butt;stroke-linejoin:miter;stroke-opacity:1" d="M 856.772,104.94 848.07,131.046 z" id="boundary" inkscape:connector-curvature="0" />
	<path style="fill:none;stroke:red;stroke-width:1px;stroke-linecap:butt;stroke-linejoin:miter;stroke-opacity:1" d="M 848.07,148.449 848.07,131.046 z" id="boundary" inkscape:connector-curvature="0" />
	<path style="fill:none;stroke:red;stroke-width:1px;stroke-linecap:butt;stroke-linejoin:miter;stroke-opacity:1" d="M 848.07,148.449 848.07,165.853 z" id="boundary" inkscape:connector-curvature="0" />
	<path style="fill:none;stroke:red;stroke-width:1px;stroke-linecap:butt;stroke-linejoin:miter;stroke-opacity:1" d="M 848.07,165.853 839.368,183.256 z" id="boundary" inkscape:connector-curvature="0" />
	<path style="fill:none;stroke:red;stroke-width:1px;stroke-linecap:butt;stroke-linejoin:miter;stroke-opacity:1" d="M 865.474,70.1333 865.474,87.5368 z" id="boundary" inkscape:connector-curvature="0" />
	<path style="fill:none;stroke:red;stroke-width:1px;stroke-linecap:butt;stroke-linejoin:miter;stroke-opacity:1" d="M 865.474,87.5368 856.772,104.94 z" id="boundary" inkscape:connector-curvature="0" />
	<path style="fill:none;stroke:red;stroke-width:1px;stroke-linecap:butt;stroke-linejoin:miter;stroke-opacity:1" d="M 797.6,338.147 785.418,352.07 z" id="boundary" inkscape:connector-curvature="0" />
	<path style="fill:none;stroke:red;stroke-width:1px;stroke-linecap:butt;stroke-linejoin:miter;stroke-opacity:1" d="M 595.719,386.877 578.316,386.877 z" id="boundary" inkscape:connector-curvature="0" />
	<path style="fill:none;stroke:red;stroke-width:1px;stroke-linecap:butt;stroke-linejoin:miter;stroke-opacity:1" d="M 578.316,386.877 562.653,378.175 z" id="boundary" inkscape:connector-curvature="0" />
	<path style="fill:none;stroke:red;stroke-width:1px;stroke-linecap:butt;stroke-linejoin:miter;stroke-opacity:1" d="M 613.123,386.877 595.719,386.877 z" id="boundary" inkscape:connector-curvature="0" />
	<path style="fill:none;stroke:red;stroke-width:1px;stroke-linecap:butt;stroke-linejoin:miter;stroke-opacity:1" d="M 613.123,386.877 630.526,386.877 z" id="boundary" inkscape:connector-curvature="0" />
	<path style="fill:none;stroke:red;stroke-width:1px;stroke-linecap:butt;stroke-linejoin:miter;stroke-opacity:1" d="M 647.93,386.877 630.526,386.877 z" id="boundary" inkscape:connector-curvature="0" />
	<path style="fill:none;stroke:red;stroke-width:1px;stroke-linecap:butt;stroke-linejoin:miter;stroke-opacity:1" d="M 762.793,381.656 771.495,364.253 z" id="boundary" inkscape:connector-curvature="0" />
	<path style="fill:none;stroke:red;stroke-width:1px;stroke-linecap:butt;stroke-linejoin:miter;stroke-opacity:1" d="M 771.495,364.253 785.418,352.07 z" id="boundary" inkscape:connector-curvature="0" />
	<path style="fill:none;stroke:red;stroke-width:1px;stroke-linecap:butt;stroke-linejoin:miter;stroke-opacity:1" d="M 682.737,390.358 665.333,386.877 z" id="boundary" inkscape:connector-curvature="0" />
	<path style="fill:none;stroke:red;stroke-width:1px;stroke-linecap:butt;stroke-linejoin:miter;stroke-opacity:1" d="M 748.87,395.579 733.207,404.281 z" id="boundary" inkscape:connector-curvature="0" />
	<path style="fill:none;stroke:red;stroke-width:1px;stroke-linecap:butt;stroke-linejoin:miter;stroke-opacity:1" d="M 700.14,395.579 682.737,390.358 z" id="boundary" inkscape:connector-curvature="0" />
	<path style="fill:none;stroke:red;stroke-width:1px;stroke-linecap:butt;stroke-linejoin:miter;stroke-opacity:1" d="M 762.793,381.656 748.87,395.579 z" id="boundary" inkscape:connector-curvature="0" />
	<path style="fill:none;stroke:red;stroke-width:1px;stroke-linecap:butt;stroke-linejoin:miter;stroke-opacity:1" d="M 647.93,386.877 665.333,386.877 z" id="boundary" inkscape:connector-curvature="0" />
	<path style="fill:none;stroke:red;stroke-width:1px;stroke-linecap:butt;stroke-linejoin:miter;stroke-opacity:1" d="M 700.14,395.579 715.804,404.281 z" id="boundary" inkscape:connector-curvature="0" />
	<path style="fill:none;stroke:red;stroke-width:1px;stroke-linecap:butt;stroke-linejoin:miter;stroke-opacity:1" d="M 896.8,21.4035 905.502,4 z" id="boundary" inkscape:connector-curvature="0" />
	<path style="fill:none;stroke:red;stroke-width:1px;stroke-linecap:butt;stroke-linejoin:miter;stroke-opacity:1" d="M 905.502,4 922.905,4 z" id="boundary" inkscape:connector-curvature="0" />
	<path style="fill:none;stroke:red;stroke-width:1px;stroke-linecap:butt;stroke-linejoin:miter;stroke-opacity:1" d="M 896.8,21.4035 882.877,35.3263 z" id="boundary" inkscape:connector-curvature="0" />
	<path style="fill:none;stroke:red;stroke-width:1px;stroke-linecap:butt;stroke-linejoin:miter;stroke-opacity:1" d="M 865.474,70.1333 879.396,56.2105 z" id="boundary" inkscape:connector-curvature="0" />
	<path style="fill:none;stroke:red;stroke-width:1px;stroke-linecap:butt;stroke-linejoin:miter;stroke-opacity:1" d="M 882.877,35.3263 879.396,56.2105 z" id="boundary" inkscape:connector-curvature="0" />
	<path style="fill:none;stroke:red;stroke-width:1px;stroke-linecap:butt;stroke-linejoin:miter;stroke-opacity:1" d="M 922.905,4 938.568,12.7018 z" id="boundary" inkscape:connector-curvature="0" />
	<path style="fill:none;stroke:red;stroke-width:1px;stroke-linecap:butt;stroke-linejoin:miter;stroke-opacity:1" d="M 959.453,40.5474 945.53,30.1053 z" id="boundary" inkscape:connector-curvature="0" />
	<path style="fill:none;stroke:red;stroke-width:1px;stroke-linecap:butt;stroke-linejoin:miter;stroke-opacity:1" d="M 945.53,30.1053 938.568,12.7018 z" id="boundary" inkscape:connector-curvature="0" />
	<path style="fill:none;stroke:red;stroke-width:1px;stroke-linecap:butt;stroke-linejoin:miter;stroke-opacity:1" d="M 971.635,54.4702 959.453,40.5474 z" id="boundary" inkscape:connector-curvature="0" />
	<path style="fill:none;stroke:red;stroke-width:1px;stroke-linecap:butt;stroke-linejoin:miter;stroke-opacity:1" d="M 980.337,70.1333 987.298,87.5368 z" id="boundary" inkscape:connector-curvature="0" />
	<path style="fill:none;stroke:red;stroke-width:1px;stroke-linecap:butt;stroke-linejoin:miter;stroke-opacity:1" d="M 987.298,87.5368 989.039,104.94 z" id="boundary" inkscape:connector-curvature="0" />
	<path style="fill:none;stroke:red;stroke-width:1px;stroke-linecap:butt;stroke-linejoin:miter;stroke-opacity:1" d="M 996,122.344 989.039,104.94 z" id="boundary" inkscape:connector-curvature="0" />
	<path style="fill:none;stroke:red;stroke-width:1px;stroke-linecap:butt;stroke-linejoin:miter;stroke-opacity:1" d="M 971.635,54.4702 980.337,70.1333 z" id="boundary" inkscape:connector-curvature="0" />
	<path style="fill:none;stroke:red;stroke-width:1px;stroke-linecap:butt;stroke-linejoin:miter;stroke-opacity:1" d="M 954.232,284.196 954.232,301.6 z" id="boundary" inkscape:connector-curvature="0" />
	<path style="fill:none;stroke:red;stroke-width:1px;stroke-linecap:butt;stroke-linejoin:miter;stroke-opacity:1" d="M 954.232,301.6 945.53,319.004 z" id="boundary" inkscape:connector-curvature="0" />
	<path style="fill:none;stroke:red;stroke-width:1px;stroke-linecap:butt;stroke-linejoin:miter;stroke-opacity:1" d="M 945.53,319.004 933.347,332.926 z" id="boundary" inkscape:connector-curvature="0" />
	<path style="fill:none;stroke:red;stroke-width:1px;stroke-linecap:butt;stroke-linejoin:miter;stroke-opacity:1" d="M 954.232,284.196 968.154,272.014 z" id="boundary" inkscape:connector-curvature="0" />
	<path style="fill:none;stroke:red;stroke-width:1px;stroke-linecap:butt;stroke-linejoin:miter;stroke-opacity:1" d="M 907.242,385.137 915.944,367.733 z" id="boundary" inkscape:connector-curvature="0" />
	<path style="fill:none;stroke:red;stroke-width:1px;stroke-linecap:butt;stroke-linejoin:miter;stroke-opacity:1" d="M 924.646,350.33 915.944,367.733 z" id="boundary" inkscape:connector-curvature="0" />
	<path style="fill:none;stroke:red;stroke-width:1px;stroke-linecap:butt;stroke-linejoin:miter;stroke-opacity:1" d="M 924.646,350.33 933.347,332.926 z" id="boundary" inkscape:connector-curvature="0" />
	<path style="fill:none;stroke:red;stroke-width:1px;stroke-linecap:butt;stroke-linejoin:miter;stroke-opacity:1" d="M 989.039,153.67 996,122.344 z" id="boundary" inkscape:connector-curvature="0" />
	<path style="fill:none;stroke:red;stroke-width:1px;stroke-linecap:butt;stroke-linejoin:miter;stroke-opacity:1" d="M 989.039,179.775 989.039,153.67 z" id="boundary" inkscape:connector-curvature="0" />
	<path style="fill:none;stroke:red;stroke-width:1px;stroke-linecap:butt;stroke-linejoin:miter;stroke-opacity:1" d="M 989.039,179.775 980.337,205.881 z" id="boundary" inkscape:connector-curvature="0" />
	<path style="fill:none;stroke:red;stroke-width:1px;stroke-linecap:butt;stroke-linejoin:miter;stroke-opacity:1" d="M 968.154,272.014 976.856,254.611 z" id="boundary" inkscape:connector-curvature="0" />
	<path style="fill:none;stroke:red;stroke-width:1px;stroke-linecap:butt;stroke-linejoin:miter;stroke-opacity:1" d="M 980.337,223.284 976.856,254.611 z" id="boundary" inkscape:connector-curvature="0" />
	<path style="fill:none;stroke:red;stroke-width:1px;stroke-linecap:butt;stroke-linejoin:miter;stroke-opacity:1" d="M 980.337,223.284 980.337,205.881 z" id="boundary" inkscape:connector-curvature="0" />
	<path style="fill:none;stroke:red;stroke-width:1px;stroke-linecap:butt;stroke-linejoin:miter;stroke-opacity:1" d="M 684.477,762.793 667.074,771.495 z" id="boundary" inkscape:connector-curvature="0" />
	<path style="fill:none;stroke:red;stroke-width:1px;stroke-linecap:butt;stroke-linejoin:miter;stroke-opacity:1" d="M 573.095,768.014 555.691,762.793 z" id="boundary" inkscape:connector-curvature="0" />
	<path style="fill:none;stroke:red;stroke-width:1px;stroke-linecap:butt;stroke-linejoin:miter;stroke-opacity:1" d="M 667.074,771.495 654.891,794.119 z" id="boundary" inkscape:connector-curvature="0" />
	<path style="fill:none;stroke:red;stroke-width:1px;stroke-linecap:butt;stroke-linejoin:miter;stroke-opacity:1" d="M 573.095,768.014 566.133,787.158 z" id="boundary" inkscape:connector-curvature="0" />
	<path style="fill:none;stroke:red;stroke-width:1px;stroke-linecap:butt;stroke-linejoin:miter;stroke-opacity:1" d="M 654.891,794.119 640.968,806.302 z" id="boundary" inkscape:connector-curvature="0" />
	<path style="fill:none;stroke:red;stroke-width:1px;stroke-linecap:butt;stroke-linejoin:miter;stroke-opacity:1" d="M 640.968,806.302 632.267,823.705 z" id="boundary" inkscape:connector-curvature="0" />
	<path style="fill:none;stroke:red;stroke-width:1px;stroke-linecap:butt;stroke-linejoin:miter;stroke-opacity:1" d="M 550.47,795.86 566.133,787.158 z" id="boundary" inkscape:connector-curvature="0" />
	<path style="fill:none;stroke:red;stroke-width:1px;stroke-linecap:butt;stroke-linejoin:miter;stroke-opacity:1" d="M 701.881,762.793 684.477,762.793 z" id="boundary" inkscape:connector-curvature="0" />
	<path style="fill:none;stroke:red;stroke-width:1px;stroke-linecap:butt;stroke-linejoin:miter;stroke-opacity:1" d="M 733.207,404.281 715.804,404.281 z" id="boundary" inkscape:connector-curvature="0" />
	<path style="fill:none;stroke:red;stroke-width:1px;stroke-linecap:butt;stroke-linejoin:miter;stroke-opacity:1" d="M 701.881,762.793 717.544,771.495 z" id="boundary" inkscape:connector-curvature="0" />
	<path style="fill:none;stroke:red;stroke-width:1px;stroke-linecap:butt;stroke-linejoin:miter;stroke-opacity:1" d="M 717.544,771.495 726.246,787.158 z" id="boundary" inkscape:connector-curvature="0" />
	<path style="fill:none;stroke:red;stroke-width:1px;stroke-linecap:butt;stroke-linejoin:miter;stroke-opacity:1" d="M 726.246,787.158 715.804,813.263 z" id="boundary" inkscape:connector-curvature="0" />
	<path style="fill:none;stroke:red;stroke-width:1px;stroke-linecap:butt;stroke-linejoin:miter;stroke-opacity:1" d="M 752.351,870.695 734.947,875.916 z" id="boundary" inkscape:connector-curvature="0" />
	<path style="fill:none;stroke:red;stroke-width:1px;stroke-linecap:butt;stroke-linejoin:miter;stroke-opacity:1" d="M 715.804,813.263 701.881,825.446 z" id="boundary" inkscape:connector-curvature="0" />
	<path style="fill:none;stroke:red;stroke-width:1px;stroke-linecap:butt;stroke-linejoin:miter;stroke-opacity:1" d="M 620.084,837.628 606.161,849.811 z" id="boundary" inkscape:connector-curvature="0" />
	<path style="fill:none;stroke:red;stroke-width:1px;stroke-linecap:butt;stroke-linejoin:miter;stroke-opacity:1" d="M 620.084,837.628 632.267,823.705 z" id="boundary" inkscape:connector-curvature="0" />
	<path style="fill:none;stroke:red;stroke-width:1px;stroke-linecap:butt;stroke-linejoin:miter;stroke-opacity:1" d="M 573.095,858.512 590.498,858.512 z" id="boundary" inkscape:connector-curvature="0" />
	<path style="fill:none;stroke:red;stroke-width:1px;stroke-linecap:butt;stroke-linejoin:miter;stroke-opacity:1" d="M 573.095,858.512 555.691,858.512 z" id="boundary" inkscape:connector-curvature="0" />
	<path style="fill:none;stroke:red;stroke-width:1px;stroke-linecap:butt;stroke-linejoin:miter;stroke-opacity:1" d="M 606.161,849.811 590.498,858.512 z" id="boundary" inkscape:connector-curvature="0" />
	<path style="fill:none;stroke:red;stroke-width:1px;stroke-linecap:butt;stroke-linejoin:miter;stroke-opacity:1" d="M 674.035,853.291 687.958,839.368 z" id="boundary" inkscape:connector-curvature="0" />
	<path style="fill:none;stroke:red;stroke-width:1px;stroke-linecap:butt;stroke-linejoin:miter;stroke-opacity:1" d="M 682.737,868.954 674.035,853.291 z" id="boundary" inkscape:connector-curvature="0" />
	<path style="fill:none;stroke:red;stroke-width:1px;stroke-linecap:butt;stroke-linejoin:miter;stroke-opacity:1" d="M 687.958,839.368 701.881,825.446 z" id="boundary" inkscape:connector-curvature="0" />
	<path style="fill:none;stroke:red;stroke-width:1px;stroke-linecap:butt;stroke-linejoin:miter;stroke-opacity:1" d="M 682.737,868.954 700.14,875.916 z" id="boundary" inkscape:connector-curvature="0" />
	<path style="fill:none;stroke:red;stroke-width:1px;stroke-linecap:butt;stroke-linejoin:miter;stroke-opacity:1" d="M 717.544,875.916 734.947,875.916 z" id="boundary" inkscape:connector-curvature="0" />
	<path style="fill:none;stroke:red;stroke-width:1px;stroke-linecap:butt;stroke-linejoin:miter;stroke-opacity:1" d="M 717.544,875.916 700.14,875.916 z" id="boundary" inkscape:connector-curvature="0" />
	<path style="fill:none;stroke:red;stroke-width:1px;stroke-linecap:butt;stroke-linejoin:miter;stroke-opacity:1" d="M 832.407,501.74 841.109,475.635 z" id="boundary" inkscape:connector-curvature="0" />
	<path style="fill:none;stroke:red;stroke-width:1px;stroke-linecap:butt;stroke-linejoin:miter;stroke-opacity:1" d="M 835.888,519.144 832.407,501.74 z" id="boundary" inkscape:connector-curvature="0" />
	<path style="fill:none;stroke:red;stroke-width:1px;stroke-linecap:butt;stroke-linejoin:miter;stroke-opacity:1" d="M 841.109,536.547 835.888,519.144 z" id="boundary" inkscape:connector-curvature="0" />
	<path style="fill:none;stroke:red;stroke-width:1px;stroke-linecap:butt;stroke-linejoin:miter;stroke-opacity:1" d="M 841.109,536.547 841.109,553.951 z" id="boundary" inkscape:connector-curvature="0" />
	<path style="fill:none;stroke:red;stroke-width:1px;stroke-linecap:butt;stroke-linejoin:miter;stroke-opacity:1" d="M 841.109,571.354 841.109,553.951 z" id="boundary" inkscape:connector-curvature="0" />
	<path style="fill:none;stroke:red;stroke-width:1px;stroke-linecap:butt;stroke-linejoin:miter;stroke-opacity:1" d="M 841.109,475.635 849.811,458.232 z" id="boundary" inkscape:connector-curvature="0" />
	<path style="fill:none;stroke:red;stroke-width:1px;stroke-linecap:butt;stroke-linejoin:miter;stroke-opacity:1" d="M 841.109,571.354 841.109,588.758 z" id="boundary" inkscape:connector-curvature="0" />
	<path style="fill:none;stroke:red;stroke-width:1px;stroke-linecap:butt;stroke-linejoin:miter;stroke-opacity:1" d="M 872.435,428.646 884.618,414.723 z" id="boundary" inkscape:connector-curvature="0" />
	<path style="fill:none;stroke:red;stroke-width:1px;stroke-linecap:butt;stroke-linejoin:miter;stroke-opacity:1" d="M 884.618,414.723 898.54,402.54 z" id="boundary" inkscape:connector-curvature="0" />
	<path style="fill:none;stroke:red;stroke-width:1px;stroke-linecap:butt;stroke-linejoin:miter;stroke-opacity:1" d="M 858.512,440.828 849.811,458.232 z" id="boundary" inkscape:connector-curvature="0" />
	<path style="fill:none;stroke:red;stroke-width:1px;stroke-linecap:butt;stroke-linejoin:miter;stroke-opacity:1" d="M 858.512,440.828 872.435,428.646 z" id="boundary" inkscape:connector-curvature="0" />
	<path style="fill:none;stroke:red;stroke-width:1px;stroke-linecap:butt;stroke-linejoin:miter;stroke-opacity:1" d="M 841.109,606.161 841.109,588.758 z" id="boundary" inkscape:connector-curvature="0" />
	<path style="fill:none;stroke:red;stroke-width:1px;stroke-linecap:butt;stroke-linejoin:miter;stroke-opacity:1" d="M 841.109,623.565 841.109,606.161 z" id="boundary" inkscape:connector-curvature="0" />
	<path style="fill:none;stroke:red;stroke-width:1px;stroke-linecap:butt;stroke-linejoin:miter;stroke-opacity:1" d="M 788.898,780.196 802.821,768.014 z" id="boundary" inkscape:connector-curvature="0" />
	<path style="fill:none;stroke:red;stroke-width:1px;stroke-linecap:butt;stroke-linejoin:miter;stroke-opacity:1" d="M 788.898,797.6 788.898,780.196 z" id="boundary" inkscape:connector-curvature="0" />
	<path style="fill:none;stroke:red;stroke-width:1px;stroke-linecap:butt;stroke-linejoin:miter;stroke-opacity:1" d="M 806.302,745.389 802.821,768.014 z" id="boundary" inkscape:connector-curvature="0" />
	<path style="fill:none;stroke:red;stroke-width:1px;stroke-linecap:butt;stroke-linejoin:miter;stroke-opacity:1" d="M 788.898,797.6 780.196,815.004 z" id="boundary" inkscape:connector-curvature="0" />
	<path style="fill:none;stroke:red;stroke-width:1px;stroke-linecap:butt;stroke-linejoin:miter;stroke-opacity:1" d="M 766.274,856.772 752.351,870.695 z" id="boundary" inkscape:connector-curvature="0" />
	<path style="fill:none;stroke:red;stroke-width:1px;stroke-linecap:butt;stroke-linejoin:miter;stroke-opacity:1" d="M 774.975,839.368 780.196,815.004 z" id="boundary" inkscape:connector-curvature="0" />
	<path style="fill:none;stroke:red;stroke-width:1px;stroke-linecap:butt;stroke-linejoin:miter;stroke-opacity:1" d="M 774.975,839.368 766.274,856.772 z" id="boundary" inkscape:connector-curvature="0" />
	<path style="fill:none;stroke:red;stroke-width:1px;stroke-linecap:butt;stroke-linejoin:miter;stroke-opacity:1" d="M 832.407,649.67 841.109,623.565 z" id="boundary" inkscape:connector-curvature="0" />
	<path style="fill:none;stroke:red;stroke-width:1px;stroke-linecap:butt;stroke-linejoin:miter;stroke-opacity:1" d="M 832.407,667.074 832.407,649.67 z" id="boundary" inkscape:connector-curvature="0" />
	<path style="fill:none;stroke:red;stroke-width:1px;stroke-linecap:butt;stroke-linejoin:miter;stroke-opacity:1" d="M 898.54,402.54 907.242,385.137 z" id="boundary" inkscape:connector-curvature="0" />
	<path style="fill:none;stroke:red;stroke-width:1px;stroke-linecap:butt;stroke-linejoin:miter;stroke-opacity:1" d="M 832.407,667.074 823.705,693.179 z" id="boundary" inkscape:connector-curvature="0" />
	<path style="fill:none;stroke:red;stroke-width:1px;stroke-linecap:butt;stroke-linejoin:miter;stroke-opacity:1" d="M 806.302,745.389 806.302,727.986 z" id="boundary" inkscape:connector-curvature="0" />
	<path style="fill:none;stroke:red;stroke-width:1px;stroke-linecap:butt;stroke-linejoin:miter;stroke-opacity:1" d="M 806.302,727.986 820.225,715.804 z" id="boundary" inkscape:connector-curvature="0" />
	<path style="fill:none;stroke:red;stroke-width:1px;stroke-linecap:butt;stroke-linejoin:miter;stroke-opacity:1" d="M 820.225,715.804 823.705,693.179 z" id="boundary" inkscape:connector-curvature="0" />
	<circle cx="4" cy="426.905" r="4" fill="#0" id="circle0"/>
	<circle cx="4" cy="444.309" r="4" fill="#0" id="circle1"/>
	<circle cx="4" cy="461.712" r="4" fill="#0" id="circle2"/>
	<circle cx="17.9228" cy="412.982" r="4" fill="#0" id="circle3"/>
	<circle cx="17.9228" cy="473.895" r="4" fill="#0" id="circle4"/>
	<circle cx="21.4035" cy="374.695" r="4" fill="#0" id="circle5"/>
	<circle cx="21.4035" cy="392.098" r="4" fill="#0" id="circle6"/>
	<circle cx="30.1053" cy="487.818" r="4" fill="#0" id="circle7"/>
	<circle cx="35.3263" cy="360.772" r="4" fill="#0" id="circle8"/>
	<circle cx="47.5088" cy="493.039" r="4" fill="#0" id="circle9"/>
	<circle cx="50.9895" cy="352.07" r="4" fill="#0" id="circle10"/>
	<circle cx="63.1719" cy="501.74" r="4" fill="#0" id="circle11"/>
	<circle cx="64.9123" cy="339.888" r="4" fill="#0" id="circle12"/>
	<circle cx="75.3544" cy="515.663" r="4" fill="#0" id="circle13"/>
	<circle cx="78.8351" cy="325.965" r="4" fill="#0" id="circle14"/>
	<circle cx="89.2772" cy="527.846" r="4" fill="#0" id="circle15"/>
	<circle cx="91.0175" cy="287.677" r="4" fill="#0" id="circle16"/>
	<circle cx="91.0175" cy="305.081" r="4" fill="#0" id="circle17"/>
	<circle cx="101.46" cy="541.768" r="4" fill="#0" id="circle18"/>
	<circle cx="108.421" cy="282.456" r="4" fill="#0" id="circle19"/>
	<circle cx="115.382" cy="553.951" r="4" fill="#0" id="circle20"/>
	<circle cx="122.344" cy="292.898" r="4" fill="#0" id="circle21"/>
	<circle cx="127.565" cy="567.874" r="4" fill="#0" id="circle22"/>
	<circle cx="136.267" cy="305.081" r="4" fill="#0" id="circle23"/>
	<circle cx="141.488" cy="580.056" r="4" fill="#0" id="circle24"/>
	<circle cx="150.189" cy="317.263" r="4" fill="#0" id="circle25"/>
	<circle cx="151.93" cy="593.979" r="4" fill="#0" id="circle26"/>
	<circle cx="160.632" cy="609.642" r="4" fill="#0" id="circle27"/>
	<circle cx="165.853" cy="325.965" r="4" fill="#0" id="circle28"/>
	<circle cx="169.333" cy="625.305" r="4" fill="#0" id="circle29"/>
	<circle cx="181.516" cy="639.228" r="4" fill="#0" id="circle30"/>
	<circle cx="183.256" cy="325.965" r="4" fill="#0" id="circle31"/>
	<circle cx="195.439" cy="339.888" r="4" fill="#0" id="circle32"/>
	<circle cx="195.439" cy="649.67" r="4" fill="#0" id="circle33"/>
	<circle cx="205.881" cy="663.593" r="4" fill="#0" id="circle34"/>
	<circle cx="209.361" cy="352.07" r="4" fill="#0" id="circle35"/>
	<circle cx="223.284" cy="670.554" r="4" fill="#0" id="circle36"/>
	<circle cx="225.025" cy="360.772" r="4" fill="#0" id="circle37"/>
	<circle cx="235.467" cy="684.477" r="4" fill="#0" id="circle38"/>
	<circle cx="240.688" cy="369.474" r="4" fill="#0" id="circle39"/>
	<circle cx="247.649" cy="861.993" r="4" fill="#0" id="circle40"/>
	<circle cx="247.649" cy="879.396" r="4" fill="#0" id="circle41"/>
	<circle cx="252.87" cy="691.439" r="4" fill="#0" id="circle42"/>
	<circle cx="254.611" cy="379.916" r="4" fill="#0" id="circle43"/>
	<circle cx="261.572" cy="848.07" r="4" fill="#0" id="circle44"/>
	<circle cx="265.053" cy="705.361" r="4" fill="#0" id="circle45"/>
	<circle cx="265.053" cy="884.618" r="4" fill="#0" id="circle46"/>
	<circle cx="272.014" cy="386.877" r="4" fill="#0" id="circle47"/>
	<circle cx="275.495" cy="834.147" r="4" fill="#0" id="circle48"/>
	<circle cx="278.975" cy="717.544" r="4" fill="#0" id="circle49"/>
	<circle cx="282.456" cy="734.947" r="4" fill="#0" id="circle50"/>
	<circle cx="282.456" cy="752.351" r="4" fill="#0" id="circle51"/>
	<circle cx="282.456" cy="769.754" r="4" fill="#0" id="circle52"/>
	<circle cx="282.456" cy="787.158" r="4" fill="#0" id="circle53"/>
	<circle cx="282.456" cy="804.561" r="4" fill="#0" id="circle54"/>
	<circle cx="282.456" cy="884.618" r="4" fill="#0" id="circle55"/>
	<circle cx="289.418" cy="386.877" r="4" fill="#0" id="circle56"/>
	<circle cx="298.119" cy="893.319" r="4" fill="#0" id="circle57"/>
	<circle cx="306.821" cy="386.877" r="4" fill="#0" id="circle58"/>
	<circle cx="313.782" cy="882.877" r="4" fill="#0" id="circle59"/>
	<circle cx="322.484" cy="867.214" r="4" fill="#0" id="circle60"/>
	<circle cx="324.225" cy="386.877" r="4" fill="#0" id="circle61"/>
	<circle cx="334.667" cy="896.8" r="4" fill="#0" id="circle62"/>
	<circle cx="336.407" cy="849.811" r="4" fill="#0" id="circle63"/>
	<circle cx="341.628" cy="386.877" r="4" fill="#0" id="circle64"/>
	<circle cx="343.368" cy="912.463" r="4" fill="#0" id="circle65"/>
	<circle cx="345.109" cy="832.407" r="4" fill="#0" id="circle66"/>
	<circle cx="348.589" cy="882.877" r="4" fill="#0" id="circle67"/>
	<circle cx="359.032" cy="386.877" r="4" fill="#0" id="circle68"/>
	<circle cx="360.772" cy="823.705" r="4" fill="#0" id="circle69"/>
	<circle cx="360.772" cy="861.993" r="4" fill="#0" id="circle70"/>
	<circle cx="360.772" cy="919.425" r="4" fill="#0" id="circle71"/>
	<circle cx="369.474" cy="839.368" r="4" fill="#0" id="circle72"/>
	<circle cx="374.695" cy="395.579" r="4" fill="#0" id="circle73"/>
	<circle cx="376.435" cy="910.723" r="4" fill="#0" id="circle74"/>
	<circle cx="392.098" cy="395.579" r="4" fill="#0" id="circle75"/>
	<circle cx="393.839" cy="910.723" r="4" fill="#0" id="circle76"/>
	<circle cx="407.761" cy="386.877" r="4" fill="#0" id="circle77"/>
	<circle cx="409.502" cy="900.281" r="4" fill="#0" id="circle78"/>
	<circle cx="418.204" cy="882.877" r="4" fill="#0" id="circle79"/>
	<circle cx="423.425" cy="832.407" r="4" fill="#0" id="circle80"/>
	<circle cx="423.425" cy="849.811" r="4" fill="#0" id="circle81"/>
	<circle cx="425.165" cy="386.877" r="4" fill="#0" id="circle82"/>
	<circle cx="432.126" cy="806.302" r="4" fill="#0" id="circle83"/>
	<circle cx="440.828" cy="754.091" r="4" fill="#0" id="circle84"/>
	<circle cx="440.828" cy="771.495" r="4" fill="#0" id="circle85"/>
	<circle cx="440.828" cy="788.898" r="4" fill="#0" id="circle86"/>
	<circle cx="442.568" cy="386.877" r="4" fill="#0" id="circle87"/>
	<circle cx="458.232" cy="745.389" r="4" fill="#0" id="circle88"/>
	<circle cx="459.972" cy="386.877" r="4" fill="#0" id="circle89"/>
	<circle cx="473.895" cy="736.688" r="4" fill="#0" id="circle90"/>
	<circle cx="477.375" cy="386.877" r="4" fill="#0" id="circle91"/>
	<circle cx="489.558" cy="745.389" r="4" fill="#0" id="circle92"/>
	<circle cx="494.779" cy="386.877" r="4" fill="#0" id="circle93"/>
	<circle cx="506.961" cy="745.389" r="4" fill="#0" id="circle94"/>
	<circle cx="508.702" cy="835.888" r="4" fill="#0" id="circle95"/>
	<circle cx="512.182" cy="386.877" r="4" fill="#0" id="circle96"/>
	<circle cx="522.625" cy="754.091" r="4" fill="#0" id="circle97"/>
	<circle cx="522.625" cy="821.965" r="4" fill="#0" id="circle98"/>
	<circle cx="522.625" cy="848.07" r="4" fill="#0" id="circle99"/>
	<circle cx="529.586" cy="386.877" r="4" fill="#0" id="circle100"/>
	<circle cx="536.547" cy="808.042" r="4" fill="#0" id="circle101"/>
	<circle cx="538.288" cy="762.793" r="4" fill="#0" id="circle102"/>
	<circle cx="538.288" cy="856.772" r="4" fill="#0" id="circle103"/>
	<circle cx="545.249" cy="378.175" r="4" fill="#0" id="circle104"/>
	<circle cx="550.47" cy="795.86" r="4" fill="#0" id="circle105"/>
	<circle cx="555.691" cy="762.793" r="4" fill="#0" id="circle106"/>
	<circle cx="555.691" cy="858.512" r="4" fill="#0" id="circle107"/>
	<circle cx="562.653" cy="378.175" r="4" fill="#0" id="circle108"/>
	<circle cx="566.133" cy="787.158" r="4" fill="#0" id="circle109"/>
	<circle cx="573.095" cy="768.014" r="4" fill="#0" id="circle110"/>
	<circle cx="573.095" cy="858.512" r="4" fill="#0" id="circle111"/>
	<circle cx="578.316" cy="386.877" r="4" fill="#0" id="circle112"/>
	<circle cx="590.498" cy="858.512" r="4" fill="#0" id="circle113"/>
	<circle cx="595.719" cy="386.877" r="4" fill="#0" id="circle114"/>
	<circle cx="606.161" cy="849.811" r="4" fill="#0" id="circle115"/>
	<circle cx="613.123" cy="386.877" r="4" fill="#0" id="circle116"/>
	<circle cx="620.084" cy="837.628" r="4" fill="#0" id="circle117"/>
	<circle cx="630.526" cy="386.877" r="4" fill="#0" id="circle118"/>
	<circle cx="632.267" cy="823.705" r="4" fill="#0" id="circle119"/>
	<circle cx="640.968" cy="806.302" r="4" fill="#0" id="circle120"/>
	<circle cx="647.93" cy="386.877" r="4" fill="#0" id="circle121"/>
	<circle cx="654.891" cy="794.119" r="4" fill="#0" id="circle122"/>
	<circle cx="665.333" cy="386.877" r="4" fill="#0" id="circle123"/>
	<circle cx="667.074" cy="771.495" r="4" fill="#0" id="circle124"/>
	<circle cx="674.035" cy="853.291" r="4" fill="#0" id="circle125"/>
	<circle cx="682.737" cy="390.358" r="4" fill="#0" id="circle126"/>
	<circle cx="682.737" cy="868.954" r="4" fill="#0" id="circle127"/>
	<circle cx="684.477" cy="762.793" r="4" fill="#0" id="circle128"/>
	<circle cx="687.958" cy="839.368" r="4" fill="#0" id="circle129"/>
	<circle cx="700.14" cy="395.579" r="4" fill="#0" id="circle130"/>
	<circle cx="700.14" cy="875.916" r="4" fill="#0" id="circle131"/>
	<circle cx="701.881" cy="762.793" r="4" fill="#0" id="circle132"/>
	<circle cx="701.881" cy="825.446" r="4" fill="#0" id="circle133"/>
	<circle cx="715.804" cy="404.281" r="4" fill="#0" id="circle134"/>
	<circle cx="715.804" cy="813.263" r="4" fill="#0" id="circle135"/>
	<circle cx="717.544" cy="771.495" r="4" fill="#0" id="circle136"/>
	<circle cx="717.544" cy="875.916" r="4" fill="#0" id="circle137"/>
	<circle cx="726.246" cy="787.158" r="4" fill="#0" id="circle138"/>
	<circle cx="733.207" cy="404.281" r="4" fill="#0" id="circle139"/>
	<circle cx="734.947" cy="875.916" r="4" fill="#0" id="circle140"/>
	<circle cx="748.87" cy="395.579" r="4" fill="#0" id="circle141"/>
	<circle cx="752.351" cy="870.695" r="4" fill="#0" id="circle142"/>
	<circle cx="762.793" cy="381.656" r="4" fill="#0" id="circle143"/>
	<circle cx="766.274" cy="856.772" r="4" fill="#0" id="circle144"/>
	<circle cx="771.495" cy="364.253" r="4" fill="#0" id="circle145"/>
	<circle cx="774.975" cy="839.368" r="4" fill="#0" id="circle146"/>
	<circle cx="780.196" cy="815.004" r="4" fill="#0" id="circle147"/>
	<circle cx="785.418" cy="352.07" r="4" fill="#0" id="circle148"/>
	<circle cx="788.898" cy="780.196" r="4" fill="#0" id="circle149"/>
	<circle cx="788.898" cy="797.6" r="4" fill="#0" id="circle150"/>
	<circle cx="797.6" cy="338.147" r="4" fill="#0" id="circle151"/>
	<circle cx="802.821" cy="768.014" r="4" fill="#0" id="circle152"/>
	<circle cx="804.561" cy="313.782" r="4" fill="#0" id="circle153"/>
	<circle cx="806.302" cy="727.986" r="4" fill="#0" id="circle154"/>
	<circle cx="806.302" cy="745.389" r="4" fill="#0" id="circle155"/>
	<circle cx="813.263" cy="287.677" r="4" fill="#0" id="circle156"/>
	<circle cx="820.225" cy="715.804" r="4" fill="#0" id="circle157"/>
	<circle cx="821.965" cy="261.572" r="4" fill="#0" id="circle158"/>
	<circle cx="823.705" cy="693.179" r="4" fill="#0" id="circle159"/>
	<circle cx="830.667" cy="209.361" r="4" fill="#0" id="circle160"/>
	<circle cx="830.667" cy="226.765" r="4" fill="#0" id="circle161"/>
	<circle cx="830.667" cy="244.168" r="4" fill="#0" id="circle162"/>
	<circle cx="832.407" cy="501.74" r="4" fill="#0" id="circle163"/>
	<circle cx="832.407" cy="649.67" r="4" fill="#0" id="circle164"/>
	<circle cx="832.407" cy="667.074" r="4" fill="#0" id="circle165"/>
	<circle cx="835.888" cy="519.144" r="4" fill="#0" id="circle166"/>
	<circle cx="839.368" cy="183.256" r="4" fill="#0" id="circle167"/>
	<circle cx="841.109" cy="475.635" r="4" fill="#0" id="circle168"/>
	<circle cx="841.109" cy="536.547" r="4" fill="#0" id="circle169"/>
	<circle cx="841.109" cy="553.951" r="4" fill="#0" id="circle170"/>
	<circle cx="841.109" cy="571.354" r="4" fill="#0" id="circle171"/>
	<circle cx="841.109" cy="588.758" r="4" fill="#0" id="circle172"/>
	<circle cx="841.109" cy="606.161" r="4" fill="#0" id="circle173"/>
	<circle cx="841.109" cy="623.565" r="4" fill="#0" id="circle174"/>
	<circle cx="848.07" cy="131.046" r="4" fill="#0" id="circle175"/>
	<circle cx="848.07" cy="148.449" r="4" fill="#0" id="circle176"/>
	<circle cx="848.07" cy="165.853" r="4" fill="#0" id="circle177"/>
	<circle cx="849.811" cy="458.232" r="4" fill="#0" id="circle178"/>
	<circle cx="856.772" cy="104.94" r="4" fill="#0" id="circle179"/>
	<circle cx="858.512" cy="440.828" r="4" fill="#0" id="circle180"/>
	<circle cx="865.474" cy="70.1333" r="4" fill="#0" id="circle181"/>
	<circle cx="865.474" cy="87.5368" r="4" fill="#0" id="circle182"/>
	<circle cx="872.435" cy="428.646" r="4" fill="#0" id="circle183"/>
	<circle cx="879.396" cy="56.2105" r="4" fill="#0" id="circle184"/>
	<circle cx="882.877" cy="35.3263" r="4" fill="#0" id="circle185"/>
	<circle cx="884.618" cy="414.723" r="4" fill="#0" id="circle186"/>
	<circle cx="896.8" cy="21.4035" r="4" fill="#0" id="circle187"/>
	<circle cx="898.54" cy="402.54" r="4" fill="#0" id="circle188"/>
	<circle cx="905.502" cy="4" r="4" fill="#0" id="circle189"/>
	<circle cx="907.242" cy="385.137" r="4" fill="#0" id="circle190"/>
	<circle cx="915.944" cy="367.733" r="4" fill="#0" id="circle191"/>
	<circle cx="922.905" cy="4" r="4" fill="#0" id="circle192"/>
	<circle cx="924.646" cy="350.33" r="4" fill="#0" id="circle193"/>
	<circle cx="933.347" cy="332.926" r="4" fill="#0" id="circle194"/>
	<circle cx="938.568" cy="12.7018" r="4" fill="#0" id="circle195"/>
	<circle cx="945.53" cy="30.1053" r="4" fill="#0" id="circle196"/>
	<circle cx="945.53" cy="319.004" r="4" fill="#0" id="circle197"/>
	<circle cx="954.232" cy="284.196" r="4" fill="#0" id="circle198"/>
	<circle cx="954.232" cy="301.6" r="4" fill="#0" id="circle199"/>
	<circle cx="959.453" cy="40.5474" r="4" fill="#0" id="circle200"/>
	<circle cx="968.154" cy="272.014" r="4" fill="#0" id="circle201"/>
	<circle cx="971.635" cy="54.4702" r="4" fill="#0" id="circle202"/>
	<circle cx="976.856" cy="254.611" r="4" fill="#0" id="circle203"/>
	<circle cx="980.337" cy="70.1333" r="4" fill="#0" id="circle204"/>
	<circle cx="980.337" cy="205.881" r="4" fill="#0" id="circle205"/>
	<circle cx="980.337" cy="223.284" r="4" fill="#0" id="circle206"/>
	<circle cx="987.298" cy="87.5368" r="4" fill="#0" id="circle207"/>
	<circle cx="989.039" cy="104.94" r="4" fill="#0" id="circle208"/>
	<circle cx="989.039" cy="153.67" r="4" fill="#0" id="circle209"/>
	<circle cx="989.039" cy="179.775" r="4" fill="#0" id="circle210"/>
	<circle cx="996" cy="122.344" r="4" fill="#0" id="circle211"/>
	</g>
</svg>