<?xml version="1.0" encoding="UTF-8" standalone="no"?>
<!-- Created with CurveBenchmark -->
<svg
	xmlns:dc="http://purl.org/dc/elements/1.1/"
	xmlns:cc="http://creativecommons.org/ns#"
	xmlns:rdf="http://www.w3.org/1999/02/22-rdf-syntax-ns#"
	xmlns:svg="http://www.w3.org/2000/svg"
	xmlns="http://www.w3.org/2000/svg"
	xmlns:sodipodi="http://sodipodi.sourceforge.net/DTD/sodipodi-0.dtd"
	xmlns:inkscape="http://www.inkscape.org/namespaces/inkscape"
	width="1000"
	height="1000"
	id="svg2"
	version="1.1"
	sodipodi:docname="manifold/gathang-guitar100.png.txt">
<defs
	id="defs4" />
<metadata
	id="metadata7">
	<rdf:RDF>
		<cc:Work
			rdf:about="">
			<dc:format>image/svg+xml</dc:format>
			<dc:type
				rdf:resource="http://purl.org/dc/dcmitype/StillImage" />
			<dc:title></dc:title>
		</cc:Work>
	</rdf:RDF>
</metadata>
<g
	inkscape:label="Layer 1"
	inkscape:groupmode="layer"
	id="layer1">
	<path style="fill:none;stroke:red;stroke-width:1px;stroke-linecap:butt;stroke-linejoin:miter;stroke-opacity:1" d="M 67.0954,480.721 32.0424,487.731 z" id="boundary" inkscape:connector-curvature="0" />
	<path style="fill:none;stroke:red;stroke-width:1px;stroke-linecap:butt;stroke-linejoin:miter;stroke-opacity:1" d="M 88.1272,67.0954 74.106,32.0424 z" id="boundary" inkscape:connector-curvature="0" />
	<path style="fill:none;stroke:red;stroke-width:1px;stroke-linecap:butt;stroke-linejoin:miter;stroke-opacity:1" d="M 88.1272,67.0954 95.1378,102.148 z" id="boundary" inkscape:connector-curvature="0" />
	<path style="fill:none;stroke:red;stroke-width:1px;stroke-linecap:butt;stroke-linejoin:miter;stroke-opacity:1" d="M 11.0106,543.816 32.0424,487.731 z" id="boundary" inkscape:connector-curvature="0" />
	<path style="fill:none;stroke:red;stroke-width:1px;stroke-linecap:butt;stroke-linejoin:miter;stroke-opacity:1" d="M 11.0106,578.869 11.0106,543.816 z" id="boundary" inkscape:connector-curvature="0" />
	<path style="fill:none;stroke:red;stroke-width:1px;stroke-linecap:butt;stroke-linejoin:miter;stroke-opacity:1" d="M 116.17,130.191 95.1378,102.148 z" id="boundary" inkscape:connector-curvature="0" />
	<path style="fill:none;stroke:red;stroke-width:1px;stroke-linecap:butt;stroke-linejoin:miter;stroke-opacity:1" d="M 74.106,32.0424 95.1378,4 z" id="boundary" inkscape:connector-curvature="0" />
	<path style="fill:none;stroke:red;stroke-width:1px;stroke-linecap:butt;stroke-linejoin:miter;stroke-opacity:1" d="M 95.1378,4 116.17,32.0424 z" id="boundary" inkscape:connector-curvature="0" />
	<path style="fill:none;stroke:red;stroke-width:1px;stroke-linecap:butt;stroke-linejoin:miter;stroke-opacity:1" d="M 67.0954,480.721 102.148,466.7 z" id="boundary" inkscape:connector-curvature="0" />
	<path style="fill:none;stroke:red;stroke-width:1px;stroke-linecap:butt;stroke-linejoin:miter;stroke-opacity:1" d="M 109.159,417.625 102.148,466.7 z" id="boundary" inkscape:connector-curvature="0" />
	<path style="fill:none;stroke:red;stroke-width:1px;stroke-linecap:butt;stroke-linejoin:miter;stroke-opacity:1" d="M 116.17,375.562 109.159,417.625 z" id="boundary" inkscape:connector-curvature="0" />
	<path style="fill:none;stroke:red;stroke-width:1px;stroke-linecap:butt;stroke-linejoin:miter;stroke-opacity:1" d="M 116.17,165.244 116.17,130.191 z" id="boundary" inkscape:connector-curvature="0" />
	<path style="fill:none;stroke:red;stroke-width:1px;stroke-linecap:butt;stroke-linejoin:miter;stroke-opacity:1" d="M 116.17,165.244 116.17,200.297 z" id="boundary" inkscape:connector-curvature="0" />
	<path style="fill:none;stroke:red;stroke-width:1px;stroke-linecap:butt;stroke-linejoin:miter;stroke-opacity:1" d="M 116.17,32.0424 123.18,67.0954 z" id="boundary" inkscape:connector-curvature="0" />
	<path style="fill:none;stroke:red;stroke-width:1px;stroke-linecap:butt;stroke-linejoin:miter;stroke-opacity:1" d="M 11.0106,613.922 11.0106,578.869 z" id="boundary" inkscape:connector-curvature="0" />
	<path style="fill:none;stroke:red;stroke-width:1px;stroke-linecap:butt;stroke-linejoin:miter;stroke-opacity:1" d="M 4,789.187 4,754.134 z" id="boundary" inkscape:connector-curvature="0" />
	<path style="fill:none;stroke:red;stroke-width:1px;stroke-linecap:butt;stroke-linejoin:miter;stroke-opacity:1" d="M 4,859.293 4,824.24 z" id="boundary" inkscape:connector-curvature="0" />
	<path style="fill:none;stroke:red;stroke-width:1px;stroke-linecap:butt;stroke-linejoin:miter;stroke-opacity:1" d="M 4,894.346 4,859.293 z" id="boundary" inkscape:connector-curvature="0" />
	<path style="fill:none;stroke:red;stroke-width:1px;stroke-linecap:butt;stroke-linejoin:miter;stroke-opacity:1" d="M 11.0106,929.399 4,894.346 z" id="boundary" inkscape:connector-curvature="0" />
	<path style="fill:none;stroke:red;stroke-width:1px;stroke-linecap:butt;stroke-linejoin:miter;stroke-opacity:1" d="M 11.0106,613.922 11.0106,648.975 z" id="boundary" inkscape:connector-curvature="0" />
	<path style="fill:none;stroke:red;stroke-width:1px;stroke-linecap:butt;stroke-linejoin:miter;stroke-opacity:1" d="M 11.0106,648.975 11.0106,684.028 z" id="boundary" inkscape:connector-curvature="0" />
	<path style="fill:none;stroke:red;stroke-width:1px;stroke-linecap:butt;stroke-linejoin:miter;stroke-opacity:1" d="M 11.0106,719.081 11.0106,684.028 z" id="boundary" inkscape:connector-curvature="0" />
	<path style="fill:none;stroke:red;stroke-width:1px;stroke-linecap:butt;stroke-linejoin:miter;stroke-opacity:1" d="M 11.0106,719.081 4,754.134 z" id="boundary" inkscape:connector-curvature="0" />
	<path style="fill:none;stroke:red;stroke-width:1px;stroke-linecap:butt;stroke-linejoin:miter;stroke-opacity:1" d="M 18.0212,964.452 11.0106,929.399 z" id="boundary" inkscape:connector-curvature="0" />
	<path style="fill:none;stroke:red;stroke-width:1px;stroke-linecap:butt;stroke-linejoin:miter;stroke-opacity:1" d="M 46.0636,988.989 18.0212,964.452 z" id="boundary" inkscape:connector-curvature="0" />
	<path style="fill:none;stroke:red;stroke-width:1px;stroke-linecap:butt;stroke-linejoin:miter;stroke-opacity:1" d="M 81.1166,996 46.0636,988.989 z" id="boundary" inkscape:connector-curvature="0" />
	<path style="fill:none;stroke:red;stroke-width:1px;stroke-linecap:butt;stroke-linejoin:miter;stroke-opacity:1" d="M 116.17,988.989 81.1166,996 z" id="boundary" inkscape:connector-curvature="0" />
	<path style="fill:none;stroke:red;stroke-width:1px;stroke-linecap:butt;stroke-linejoin:miter;stroke-opacity:1" d="M 4,824.24 4,789.187 z" id="boundary" inkscape:connector-curvature="0" />
	<path style="fill:none;stroke:red;stroke-width:1px;stroke-linecap:butt;stroke-linejoin:miter;stroke-opacity:1" d="M 116.17,200.297 116.17,235.35 z" id="boundary" inkscape:connector-curvature="0" />
	<path style="fill:none;stroke:red;stroke-width:1px;stroke-linecap:butt;stroke-linejoin:miter;stroke-opacity:1" d="M 116.17,270.403 116.17,235.35 z" id="boundary" inkscape:connector-curvature="0" />
	<path style="fill:none;stroke:red;stroke-width:1px;stroke-linecap:butt;stroke-linejoin:miter;stroke-opacity:1" d="M 116.17,305.456 116.17,340.509 z" id="boundary" inkscape:connector-curvature="0" />
	<path style="fill:none;stroke:red;stroke-width:1px;stroke-linecap:butt;stroke-linejoin:miter;stroke-opacity:1" d="M 116.17,375.562 116.17,340.509 z" id="boundary" inkscape:connector-curvature="0" />
	<path style="fill:none;stroke:red;stroke-width:1px;stroke-linecap:butt;stroke-linejoin:miter;stroke-opacity:1" d="M 116.17,305.456 116.17,270.403 z" id="boundary" inkscape:connector-curvature="0" />
	<path style="fill:none;stroke:red;stroke-width:1px;stroke-linecap:butt;stroke-linejoin:miter;stroke-opacity:1" d="M 137.201,102.148 147.717,393.088 z" id="boundary" inkscape:connector-curvature="0" />
	<path style="fill:none;stroke:red;stroke-width:1px;stroke-linecap:butt;stroke-linejoin:miter;stroke-opacity:1" d="M 137.201,102.148 123.18,67.0954 z" id="boundary" inkscape:connector-curvature="0" />
	<path style="fill:none;stroke:red;stroke-width:1px;stroke-linecap:butt;stroke-linejoin:miter;stroke-opacity:1" d="M 147.717,428.141 147.717,393.088 z" id="boundary" inkscape:connector-curvature="0" />
	<path style="fill:none;stroke:red;stroke-width:1px;stroke-linecap:butt;stroke-linejoin:miter;stroke-opacity:1" d="M 147.717,428.141 147.717,463.194 z" id="boundary" inkscape:connector-curvature="0" />
	<path style="fill:none;stroke:red;stroke-width:1px;stroke-linecap:butt;stroke-linejoin:miter;stroke-opacity:1" d="M 147.717,498.247 154.728,533.3 z" id="boundary" inkscape:connector-curvature="0" />
	<path style="fill:none;stroke:red;stroke-width:1px;stroke-linecap:butt;stroke-linejoin:miter;stroke-opacity:1" d="M 147.717,498.247 147.717,463.194 z" id="boundary" inkscape:connector-curvature="0" />
	<path style="fill:none;stroke:red;stroke-width:1px;stroke-linecap:butt;stroke-linejoin:miter;stroke-opacity:1" d="M 161.739,568.353 154.728,533.3 z" id="boundary" inkscape:connector-curvature="0" />
	<path style="fill:none;stroke:red;stroke-width:1px;stroke-linecap:butt;stroke-linejoin:miter;stroke-opacity:1" d="M 154.728,620.933 161.739,568.353 z" id="boundary" inkscape:connector-curvature="0" />
	<path style="fill:none;stroke:red;stroke-width:1px;stroke-linecap:butt;stroke-linejoin:miter;stroke-opacity:1" d="M 154.728,655.986 154.728,620.933 z" id="boundary" inkscape:connector-curvature="0" />
	<path style="fill:none;stroke:red;stroke-width:1px;stroke-linecap:butt;stroke-linejoin:miter;stroke-opacity:1" d="M 154.728,691.039 154.728,655.986 z" id="boundary" inkscape:connector-curvature="0" />
	<path style="fill:none;stroke:red;stroke-width:1px;stroke-linecap:butt;stroke-linejoin:miter;stroke-opacity:1" d="M 161.739,726.092 154.728,691.039 z" id="boundary" inkscape:connector-curvature="0" />
	<path style="fill:none;stroke:red;stroke-width:1px;stroke-linecap:butt;stroke-linejoin:miter;stroke-opacity:1" d="M 147.717,971.463 116.17,988.989 z" id="boundary" inkscape:connector-curvature="0" />
	<path style="fill:none;stroke:red;stroke-width:1px;stroke-linecap:butt;stroke-linejoin:miter;stroke-opacity:1" d="M 161.739,936.41 147.717,971.463 z" id="boundary" inkscape:connector-curvature="0" />
	<path style="fill:none;stroke:red;stroke-width:1px;stroke-linecap:butt;stroke-linejoin:miter;stroke-opacity:1" d="M 161.739,761.145 168.749,796.198 z" id="boundary" inkscape:connector-curvature="0" />
	<path style="fill:none;stroke:red;stroke-width:1px;stroke-linecap:butt;stroke-linejoin:miter;stroke-opacity:1" d="M 161.739,761.145 161.739,726.092 z" id="boundary" inkscape:connector-curvature="0" />
	<path style="fill:none;stroke:red;stroke-width:1px;stroke-linecap:butt;stroke-linejoin:miter;stroke-opacity:1" d="M 168.749,796.198 168.749,831.251 z" id="boundary" inkscape:connector-curvature="0" />
	<path style="fill:none;stroke:red;stroke-width:1px;stroke-linecap:butt;stroke-linejoin:miter;stroke-opacity:1" d="M 161.739,901.357 161.739,936.41 z" id="boundary" inkscape:connector-curvature="0" />
	<path style="fill:none;stroke:red;stroke-width:1px;stroke-linecap:butt;stroke-linejoin:miter;stroke-opacity:1" d="M 161.739,901.357 168.749,866.304 z" id="boundary" inkscape:connector-curvature="0" />
	<path style="fill:none;stroke:red;stroke-width:1px;stroke-linecap:butt;stroke-linejoin:miter;stroke-opacity:1" d="M 168.749,831.251 168.749,866.304 z" id="boundary" inkscape:connector-curvature="0" />
	<circle cx="4" cy="754.134" r="4" fill="#0" id="circle0"/>
	<circle cx="4" cy="789.187" r="4" fill="#0" id="circle1"/>
	<circle cx="4" cy="824.24" r="4" fill="#0" id="circle2"/>
	<circle cx="4" cy="859.293" r="4" fill="#0" id="circle3"/>
	<circle cx="4" cy="894.346" r="4" fill="#0" id="circle4"/>
	<circle cx="11.0106" cy="543.816" r="4" fill="#0" id="circle5"/>
	<circle cx="11.0106" cy="578.869" r="4" fill="#0" id="circle6"/>
	<circle cx="11.0106" cy="613.922" r="4" fill="#0" id="circle7"/>
	<circle cx="11.0106" cy="648.975" r="4" fill="#0" id="circle8"/>
	<circle cx="11.0106" cy="684.028" r="4" fill="#0" id="circle9"/>
	<circle cx="11.0106" cy="719.081" r="4" fill="#0" id="circle10"/>
	<circle cx="11.0106" cy="929.399" r="4" fill="#0" id="circle11"/>
	<circle cx="18.0212" cy="964.452" r="4" fill="#0" id="circle12"/>
	<circle cx="32.0424" cy="487.731" r="4" fill="#0" id="circle13"/>
	<circle cx="46.0636" cy="988.989" r="4" fill="#0" id="circle14"/>
	<circle cx="67.0954" cy="480.721" r="4" fill="#0" id="circle15"/>
	<circle cx="74.106" cy="32.0424" r="4" fill="#0" id="circle16"/>
	<circle cx="81.1166" cy="996" r="4" fill="#0" id="circle17"/>
	<circle cx="88.1272" cy="67.0954" r="4" fill="#0" id="circle18"/>
	<circle cx="95.1378" cy="4" r="4" fill="#0" id="circle19"/>
	<circle cx="95.1378" cy="102.148" r="4" fill="#0" id="circle20"/>
	<circle cx="102.148" cy="466.7" r="4" fill="#0" id="circle21"/>
	<circle cx="109.159" cy="417.625" r="4" fill="#0" id="circle22"/>
	<circle cx="116.17" cy="32.0424" r="4" fill="#0" id="circle23"/>
	<circle cx="116.17" cy="130.191" r="4" fill="#0" id="circle24"/>
	<circle cx="116.17" cy="165.244" r="4" fill="#0" id="circle25"/>
	<circle cx="116.17" cy="200.297" r="4" fill="#0" id="circle26"/>
	<circle cx="116.17" cy="235.35" r="4" fill="#0" id="circle27"/>
	<circle cx="116.17" cy="270.403" r="4" fill="#0" id="circle28"/>
	<circle cx="116.17" cy="305.456" r="4" fill="#0" id="circle29"/>
	<circle cx="116.17" cy="340.509" r="4" fill="#0" id="circle30"/>
	<circle cx="116.17" cy="375.562" r="4" fill="#0" id="circle31"/>
	<circle cx="116.17" cy="988.989" r="4" fill="#0" id="circle32"/>
	<circle cx="123.18" cy="67.0954" r="4" fill="#0" id="circle33"/>
	<circle cx="137.201" cy="102.148" r="4" fill="#0" id="circle34"/>
	<circle cx="147.717" cy="393.088" r="4" fill="#0" id="circle35"/>
	<circle cx="147.717" cy="428.141" r="4" fill="#0" id="circle36"/>
	<circle cx="147.717" cy="463.194" r="4" fill="#0" id="circle37"/>
	<circle cx="147.717" cy="498.247" r="4" fill="#0" id="circle38"/>
	<circle cx="147.717" cy="971.463" r="4" fill="#0" id="circle39"/>
	<circle cx="154.728" cy="533.3" r="4" fill="#0" id="circle40"/>
	<circle cx="154.728" cy="620.933" r="4" fill="#0" id="circle41"/>
	<circle cx="154.728" cy="655.986" r="4" fill="#0" id="circle42"/>
	<circle cx="154.728" cy="691.039" r="4" fill="#0" id="circle43"/>
	<circle cx="161.739" cy="568.353" r="4" fill="#0" id="circle44"/>
	<circle cx="161.739" cy="726.092" r="4" fill="#0" id="circle45"/>
	<circle cx="161.739" cy="761.145" r="4" fill="#0" id="circle46"/>
	<circle cx="161.739" cy="901.357" r="4" fill="#0" id="circle47"/>
	<circle cx="161.739" cy="936.41" r="4" fill="#0" id="circle48"/>
	<circle cx="168.749" cy="796.198" r="4" fill="#0" id="circle49"/>
	<circle cx="168.749" cy="831.251" r="4" fill="#0" id="circle50"/>
	<circle cx="168.749" cy="866.304" r="4" fill="#0" id="circle51"/>
	</g>
</svg>