<?xml version="1.0" encoding="UTF-8" standalone="no"?>
<!-- Created with CurveBenchmark -->
<svg
	xmlns:dc="http://purl.org/dc/elements/1.1/"
	xmlns:cc="http://creativecommons.org/ns#"
	xmlns:rdf="http://www.w3.org/1999/02/22-rdf-syntax-ns#"
	xmlns:svg="http://www.w3.org/2000/svg"
	xmlns="http://www.w3.org/2000/svg"
	xmlns:sodipodi="http://sodipodi.sourceforge.net/DTD/sodipodi-0.dtd"
	xmlns:inkscape="http://www.inkscape.org/namespaces/inkscape"
	width="1000"
	height="1000"
	id="svg2"
	version="1.1"
	sodipodi:docname="manifold/gathan1-brick-04.png.txt">
<defs
	id="defs4" />
<metadata
	id="metadata7">
	<rdf:RDF>
		<cc:Work
			rdf:about="">
			<dc:format>image/svg+xml</dc:format>
			<dc:type
				rdf:resource="http://purl.org/dc/dcmitype/StillImage" />
			<dc:title></dc:title>
		</cc:Work>
	</rdf:RDF>
</metadata>
<g
	inkscape:label="Layer 1"
	inkscape:groupmode="layer"
	id="layer1">
	<path style="fill:none;stroke:red;stroke-width:1px;stroke-linecap:butt;stroke-linejoin:miter;stroke-opacity:1" d="M 104.058,16.3881 113.587,13.5293 z" id="boundary" inkscape:connector-curvature="0" />
	<path style="fill:none;stroke:red;stroke-width:1px;stroke-linecap:butt;stroke-linejoin:miter;stroke-opacity:1" d="M 104.058,16.3881 94.5283,18.2939 z" id="boundary" inkscape:connector-curvature="0" />
	<path style="fill:none;stroke:red;stroke-width:1px;stroke-linecap:butt;stroke-linejoin:miter;stroke-opacity:1" d="M 113.587,13.5293 123.116,11.6234 z" id="boundary" inkscape:connector-curvature="0" />
	<path style="fill:none;stroke:red;stroke-width:1px;stroke-linecap:butt;stroke-linejoin:miter;stroke-opacity:1" d="M 132.646,8.76465 123.116,11.6234 z" id="boundary" inkscape:connector-curvature="0" />
	<path style="fill:none;stroke:red;stroke-width:1px;stroke-linecap:butt;stroke-linejoin:miter;stroke-opacity:1" d="M 84.999,21.1527 89.7637,29.7291 z" id="boundary" inkscape:connector-curvature="0" />
	<path style="fill:none;stroke:red;stroke-width:1px;stroke-linecap:butt;stroke-linejoin:miter;stroke-opacity:1" d="M 89.7637,29.7291 89.7637,39.2584 z" id="boundary" inkscape:connector-curvature="0" />
	<path style="fill:none;stroke:red;stroke-width:1px;stroke-linecap:butt;stroke-linejoin:miter;stroke-opacity:1" d="M 84.999,21.1527 94.5283,18.2939 z" id="boundary" inkscape:connector-curvature="0" />
	<path style="fill:none;stroke:red;stroke-width:1px;stroke-linecap:butt;stroke-linejoin:miter;stroke-opacity:1" d="M 89.7637,39.2584 89.7637,48.7877 z" id="boundary" inkscape:connector-curvature="0" />
	<path style="fill:none;stroke:red;stroke-width:1px;stroke-linecap:butt;stroke-linejoin:miter;stroke-opacity:1" d="M 132.646,8.76465 142.175,8.76465 z" id="boundary" inkscape:connector-curvature="0" />
	<path style="fill:none;stroke:red;stroke-width:1px;stroke-linecap:butt;stroke-linejoin:miter;stroke-opacity:1" d="M 199.351,4 189.821,6.85879 z" id="boundary" inkscape:connector-curvature="0" />
	<path style="fill:none;stroke:red;stroke-width:1px;stroke-linecap:butt;stroke-linejoin:miter;stroke-opacity:1" d="M 151.704,8.76465 142.175,8.76465 z" id="boundary" inkscape:connector-curvature="0" />
	<path style="fill:none;stroke:red;stroke-width:1px;stroke-linecap:butt;stroke-linejoin:miter;stroke-opacity:1" d="M 199.351,4 208.88,4 z" id="boundary" inkscape:connector-curvature="0" />
	<path style="fill:none;stroke:red;stroke-width:1px;stroke-linecap:butt;stroke-linejoin:miter;stroke-opacity:1" d="M 180.292,8.76465 189.821,6.85879 z" id="boundary" inkscape:connector-curvature="0" />
	<path style="fill:none;stroke:red;stroke-width:1px;stroke-linecap:butt;stroke-linejoin:miter;stroke-opacity:1" d="M 161.233,8.76465 151.704,8.76465 z" id="boundary" inkscape:connector-curvature="0" />
	<path style="fill:none;stroke:red;stroke-width:1px;stroke-linecap:butt;stroke-linejoin:miter;stroke-opacity:1" d="M 161.233,8.76465 170.763,8.76465 z" id="boundary" inkscape:connector-curvature="0" />
	<path style="fill:none;stroke:red;stroke-width:1px;stroke-linecap:butt;stroke-linejoin:miter;stroke-opacity:1" d="M 180.292,8.76465 170.763,8.76465 z" id="boundary" inkscape:connector-curvature="0" />
	<path style="fill:none;stroke:red;stroke-width:1px;stroke-linecap:butt;stroke-linejoin:miter;stroke-opacity:1" d="M 68.7992,146.939 76.4227,139.316 z" id="boundary" inkscape:connector-curvature="0" />
	<path style="fill:none;stroke:red;stroke-width:1px;stroke-linecap:butt;stroke-linejoin:miter;stroke-opacity:1" d="M 76.4227,139.316 85.952,134.551 z" id="boundary" inkscape:connector-curvature="0" />
	<path style="fill:none;stroke:red;stroke-width:1px;stroke-linecap:butt;stroke-linejoin:miter;stroke-opacity:1" d="M 68.7992,146.939 60.2229,151.704 z" id="boundary" inkscape:connector-curvature="0" />
	<path style="fill:none;stroke:red;stroke-width:1px;stroke-linecap:butt;stroke-linejoin:miter;stroke-opacity:1" d="M 27.8232,178.386 35.4467,170.763 z" id="boundary" inkscape:connector-curvature="0" />
	<path style="fill:none;stroke:red;stroke-width:1px;stroke-linecap:butt;stroke-linejoin:miter;stroke-opacity:1" d="M 35.4467,170.763 44.976,165.998 z" id="boundary" inkscape:connector-curvature="0" />
	<path style="fill:none;stroke:red;stroke-width:1px;stroke-linecap:butt;stroke-linejoin:miter;stroke-opacity:1" d="M 52.5994,158.375 44.976,165.998 z" id="boundary" inkscape:connector-curvature="0" />
	<path style="fill:none;stroke:red;stroke-width:1px;stroke-linecap:butt;stroke-linejoin:miter;stroke-opacity:1" d="M 52.5994,158.375 60.2229,151.704 z" id="boundary" inkscape:connector-curvature="0" />
	<path style="fill:none;stroke:red;stroke-width:1px;stroke-linecap:butt;stroke-linejoin:miter;stroke-opacity:1" d="M 97.3871,66.8934 94.5283,57.3641 z" id="boundary" inkscape:connector-curvature="0" />
	<path style="fill:none;stroke:red;stroke-width:1px;stroke-linecap:butt;stroke-linejoin:miter;stroke-opacity:1" d="M 102.152,75.4697 104.058,84.999 z" id="boundary" inkscape:connector-curvature="0" />
	<path style="fill:none;stroke:red;stroke-width:1px;stroke-linecap:butt;stroke-linejoin:miter;stroke-opacity:1" d="M 97.3871,66.8934 102.152,75.4697 z" id="boundary" inkscape:connector-curvature="0" />
	<path style="fill:none;stroke:red;stroke-width:1px;stroke-linecap:butt;stroke-linejoin:miter;stroke-opacity:1" d="M 104.058,84.999 104.058,94.5283 z" id="boundary" inkscape:connector-curvature="0" />
	<path style="fill:none;stroke:red;stroke-width:1px;stroke-linecap:butt;stroke-linejoin:miter;stroke-opacity:1" d="M 93.5754,127.881 99.293,116.446 z" id="boundary" inkscape:connector-curvature="0" />
	<path style="fill:none;stroke:red;stroke-width:1px;stroke-linecap:butt;stroke-linejoin:miter;stroke-opacity:1" d="M 93.5754,127.881 85.952,134.551 z" id="boundary" inkscape:connector-curvature="0" />
	<path style="fill:none;stroke:red;stroke-width:1px;stroke-linecap:butt;stroke-linejoin:miter;stroke-opacity:1" d="M 104.058,94.5283 104.058,104.058 z" id="boundary" inkscape:connector-curvature="0" />
	<path style="fill:none;stroke:red;stroke-width:1px;stroke-linecap:butt;stroke-linejoin:miter;stroke-opacity:1" d="M 104.058,104.058 99.293,116.446 z" id="boundary" inkscape:connector-curvature="0" />
	<path style="fill:none;stroke:red;stroke-width:1px;stroke-linecap:butt;stroke-linejoin:miter;stroke-opacity:1" d="M 89.7637,48.7877 94.5283,57.3641 z" id="boundary" inkscape:connector-curvature="0" />
	<path style="fill:none;stroke:red;stroke-width:1px;stroke-linecap:butt;stroke-linejoin:miter;stroke-opacity:1" d="M 208.88,4 218.409,4 z" id="boundary" inkscape:connector-curvature="0" />
	<path style="fill:none;stroke:red;stroke-width:1px;stroke-linecap:butt;stroke-linejoin:miter;stroke-opacity:1" d="M 237.468,4 246.997,4 z" id="boundary" inkscape:connector-curvature="0" />
	<path style="fill:none;stroke:red;stroke-width:1px;stroke-linecap:butt;stroke-linejoin:miter;stroke-opacity:1" d="M 227.939,4 237.468,4 z" id="boundary" inkscape:connector-curvature="0" />
	<path style="fill:none;stroke:red;stroke-width:1px;stroke-linecap:butt;stroke-linejoin:miter;stroke-opacity:1" d="M 256.526,4 266.056,5.90586 z" id="boundary" inkscape:connector-curvature="0" />
	<path style="fill:none;stroke:red;stroke-width:1px;stroke-linecap:butt;stroke-linejoin:miter;stroke-opacity:1" d="M 266.056,5.90586 274.632,10.6705 z" id="boundary" inkscape:connector-curvature="0" />
	<path style="fill:none;stroke:red;stroke-width:1px;stroke-linecap:butt;stroke-linejoin:miter;stroke-opacity:1" d="M 284.161,14.4822 274.632,10.6705 z" id="boundary" inkscape:connector-curvature="0" />
	<path style="fill:none;stroke:red;stroke-width:1px;stroke-linecap:butt;stroke-linejoin:miter;stroke-opacity:1" d="M 246.997,4 256.526,4 z" id="boundary" inkscape:connector-curvature="0" />
	<path style="fill:none;stroke:red;stroke-width:1px;stroke-linecap:butt;stroke-linejoin:miter;stroke-opacity:1" d="M 284.161,14.4822 290.832,22.1057 z" id="boundary" inkscape:connector-curvature="0" />
	<path style="fill:none;stroke:red;stroke-width:1px;stroke-linecap:butt;stroke-linejoin:miter;stroke-opacity:1" d="M 290.832,22.1057 298.455,28.7762 z" id="boundary" inkscape:connector-curvature="0" />
	<path style="fill:none;stroke:red;stroke-width:1px;stroke-linecap:butt;stroke-linejoin:miter;stroke-opacity:1" d="M 307.032,33.5408 298.455,28.7762 z" id="boundary" inkscape:connector-curvature="0" />
	<path style="fill:none;stroke:red;stroke-width:1px;stroke-linecap:butt;stroke-linejoin:miter;stroke-opacity:1" d="M 307.032,33.5408 314.655,40.2113 z" id="boundary" inkscape:connector-curvature="0" />
	<path style="fill:none;stroke:red;stroke-width:1px;stroke-linecap:butt;stroke-linejoin:miter;stroke-opacity:1" d="M 314.655,40.2113 321.326,47.8348 z" id="boundary" inkscape:connector-curvature="0" />
	<path style="fill:none;stroke:red;stroke-width:1px;stroke-linecap:butt;stroke-linejoin:miter;stroke-opacity:1" d="M 321.326,47.8348 330.855,51.6465 z" id="boundary" inkscape:connector-curvature="0" />
	<path style="fill:none;stroke:red;stroke-width:1px;stroke-linecap:butt;stroke-linejoin:miter;stroke-opacity:1" d="M 330.855,51.6465 337.525,59.2699 z" id="boundary" inkscape:connector-curvature="0" />
	<path style="fill:none;stroke:red;stroke-width:1px;stroke-linecap:butt;stroke-linejoin:miter;stroke-opacity:1" d="M 337.525,59.2699 347.055,63.0817 z" id="boundary" inkscape:connector-curvature="0" />
	<path style="fill:none;stroke:red;stroke-width:1px;stroke-linecap:butt;stroke-linejoin:miter;stroke-opacity:1" d="M 347.055,63.0817 355.631,67.8463 z" id="boundary" inkscape:connector-curvature="0" />
	<path style="fill:none;stroke:red;stroke-width:1px;stroke-linecap:butt;stroke-linejoin:miter;stroke-opacity:1" d="M 355.631,67.8463 365.16,70.7051 z" id="boundary" inkscape:connector-curvature="0" />
	<path style="fill:none;stroke:red;stroke-width:1px;stroke-linecap:butt;stroke-linejoin:miter;stroke-opacity:1" d="M 365.16,70.7051 373.737,75.4697 z" id="boundary" inkscape:connector-curvature="0" />
	<path style="fill:none;stroke:red;stroke-width:1px;stroke-linecap:butt;stroke-linejoin:miter;stroke-opacity:1" d="M 392.795,75.4697 383.266,75.4697 z" id="boundary" inkscape:connector-curvature="0" />
	<path style="fill:none;stroke:red;stroke-width:1px;stroke-linecap:butt;stroke-linejoin:miter;stroke-opacity:1" d="M 383.266,75.4697 373.737,75.4697 z" id="boundary" inkscape:connector-curvature="0" />
	<path style="fill:none;stroke:red;stroke-width:1px;stroke-linecap:butt;stroke-linejoin:miter;stroke-opacity:1" d="M 402.325,75.4697 411.854,75.4697 z" id="boundary" inkscape:connector-curvature="0" />
	<path style="fill:none;stroke:red;stroke-width:1px;stroke-linecap:butt;stroke-linejoin:miter;stroke-opacity:1" d="M 402.325,75.4697 392.795,75.4697 z" id="boundary" inkscape:connector-curvature="0" />
	<path style="fill:none;stroke:red;stroke-width:1px;stroke-linecap:butt;stroke-linejoin:miter;stroke-opacity:1" d="M 421.383,75.4697 411.854,75.4697 z" id="boundary" inkscape:connector-curvature="0" />
	<path style="fill:none;stroke:red;stroke-width:1px;stroke-linecap:butt;stroke-linejoin:miter;stroke-opacity:1" d="M 421.383,75.4697 430.913,75.4697 z" id="boundary" inkscape:connector-curvature="0" />
	<path style="fill:none;stroke:red;stroke-width:1px;stroke-linecap:butt;stroke-linejoin:miter;stroke-opacity:1" d="M 440.442,75.4697 449.971,75.4697 z" id="boundary" inkscape:connector-curvature="0" />
	<path style="fill:none;stroke:red;stroke-width:1px;stroke-linecap:butt;stroke-linejoin:miter;stroke-opacity:1" d="M 440.442,75.4697 430.913,75.4697 z" id="boundary" inkscape:connector-curvature="0" />
	<path style="fill:none;stroke:red;stroke-width:1px;stroke-linecap:butt;stroke-linejoin:miter;stroke-opacity:1" d="M 459.5,75.4697 469.03,75.4697 z" id="boundary" inkscape:connector-curvature="0" />
	<path style="fill:none;stroke:red;stroke-width:1px;stroke-linecap:butt;stroke-linejoin:miter;stroke-opacity:1" d="M 469.03,75.4697 478.559,75.4697 z" id="boundary" inkscape:connector-curvature="0" />
	<path style="fill:none;stroke:red;stroke-width:1px;stroke-linecap:butt;stroke-linejoin:miter;stroke-opacity:1" d="M 488.088,75.4697 478.559,75.4697 z" id="boundary" inkscape:connector-curvature="0" />
	<path style="fill:none;stroke:red;stroke-width:1px;stroke-linecap:butt;stroke-linejoin:miter;stroke-opacity:1" d="M 459.5,75.4697 449.971,75.4697 z" id="boundary" inkscape:connector-curvature="0" />
	<path style="fill:none;stroke:red;stroke-width:1px;stroke-linecap:butt;stroke-linejoin:miter;stroke-opacity:1" d="M 497.618,75.4697 488.088,75.4697 z" id="boundary" inkscape:connector-curvature="0" />
	<path style="fill:none;stroke:red;stroke-width:1px;stroke-linecap:butt;stroke-linejoin:miter;stroke-opacity:1" d="M 218.409,4 227.939,4 z" id="boundary" inkscape:connector-curvature="0" />
	<path style="fill:none;stroke:red;stroke-width:1px;stroke-linecap:butt;stroke-linejoin:miter;stroke-opacity:1" d="M 4,197.445 8.76465,187.915 z" id="boundary" inkscape:connector-curvature="0" />
	<path style="fill:none;stroke:red;stroke-width:1px;stroke-linecap:butt;stroke-linejoin:miter;stroke-opacity:1" d="M 8.76465,206.021 4,197.445 z" id="boundary" inkscape:connector-curvature="0" />
	<path style="fill:none;stroke:red;stroke-width:1px;stroke-linecap:butt;stroke-linejoin:miter;stroke-opacity:1" d="M 8.76465,206.021 8.76465,215.55 z" id="boundary" inkscape:connector-curvature="0" />
	<path style="fill:none;stroke:red;stroke-width:1px;stroke-linecap:butt;stroke-linejoin:miter;stroke-opacity:1" d="M 8.76465,215.55 8.76465,225.08 z" id="boundary" inkscape:connector-curvature="0" />
	<path style="fill:none;stroke:red;stroke-width:1px;stroke-linecap:butt;stroke-linejoin:miter;stroke-opacity:1" d="M 8.76465,225.08 8.76465,234.609 z" id="boundary" inkscape:connector-curvature="0" />
	<path style="fill:none;stroke:red;stroke-width:1px;stroke-linecap:butt;stroke-linejoin:miter;stroke-opacity:1" d="M 13.5293,243.185 8.76465,234.609 z" id="boundary" inkscape:connector-curvature="0" />
	<path style="fill:none;stroke:red;stroke-width:1px;stroke-linecap:butt;stroke-linejoin:miter;stroke-opacity:1" d="M 13.5293,243.185 13.5293,252.715 z" id="boundary" inkscape:connector-curvature="0" />
	<path style="fill:none;stroke:red;stroke-width:1px;stroke-linecap:butt;stroke-linejoin:miter;stroke-opacity:1" d="M 13.5293,252.715 13.5293,262.244 z" id="boundary" inkscape:connector-curvature="0" />
	<path style="fill:none;stroke:red;stroke-width:1px;stroke-linecap:butt;stroke-linejoin:miter;stroke-opacity:1" d="M 8.76465,187.915 18.2939,183.151 z" id="boundary" inkscape:connector-curvature="0" />
	<path style="fill:none;stroke:red;stroke-width:1px;stroke-linecap:butt;stroke-linejoin:miter;stroke-opacity:1" d="M 16.3881,271.773 13.5293,262.244 z" id="boundary" inkscape:connector-curvature="0" />
	<path style="fill:none;stroke:red;stroke-width:1px;stroke-linecap:butt;stroke-linejoin:miter;stroke-opacity:1" d="M 27.8232,178.386 18.2939,183.151 z" id="boundary" inkscape:connector-curvature="0" />
	<path style="fill:none;stroke:red;stroke-width:1px;stroke-linecap:butt;stroke-linejoin:miter;stroke-opacity:1" d="M 51.6465,276.538 42.1172,276.538 z" id="boundary" inkscape:connector-curvature="0" />
	<path style="fill:none;stroke:red;stroke-width:1px;stroke-linecap:butt;stroke-linejoin:miter;stroke-opacity:1" d="M 33.5408,281.303 42.1172,276.538 z" id="boundary" inkscape:connector-curvature="0" />
	<path style="fill:none;stroke:red;stroke-width:1px;stroke-linecap:butt;stroke-linejoin:miter;stroke-opacity:1" d="M 61.1758,276.538 70.7051,276.538 z" id="boundary" inkscape:connector-curvature="0" />
	<path style="fill:none;stroke:red;stroke-width:1px;stroke-linecap:butt;stroke-linejoin:miter;stroke-opacity:1" d="M 61.1758,276.538 51.6465,276.538 z" id="boundary" inkscape:connector-curvature="0" />
	<path style="fill:none;stroke:red;stroke-width:1px;stroke-linecap:butt;stroke-linejoin:miter;stroke-opacity:1" d="M 24.0115,278.444 16.3881,271.773 z" id="boundary" inkscape:connector-curvature="0" />
	<path style="fill:none;stroke:red;stroke-width:1px;stroke-linecap:butt;stroke-linejoin:miter;stroke-opacity:1" d="M 80.2344,276.538 89.7637,276.538 z" id="boundary" inkscape:connector-curvature="0" />
	<path style="fill:none;stroke:red;stroke-width:1px;stroke-linecap:butt;stroke-linejoin:miter;stroke-opacity:1" d="M 80.2344,276.538 70.7051,276.538 z" id="boundary" inkscape:connector-curvature="0" />
	<path style="fill:none;stroke:red;stroke-width:1px;stroke-linecap:butt;stroke-linejoin:miter;stroke-opacity:1" d="M 99.293,276.538 89.7637,276.538 z" id="boundary" inkscape:connector-curvature="0" />
	<path style="fill:none;stroke:red;stroke-width:1px;stroke-linecap:butt;stroke-linejoin:miter;stroke-opacity:1" d="M 33.5408,281.303 24.0115,278.444 z" id="boundary" inkscape:connector-curvature="0" />
	<path style="fill:none;stroke:red;stroke-width:1px;stroke-linecap:butt;stroke-linejoin:miter;stroke-opacity:1" d="M 108.822,276.538 118.352,276.538 z" id="boundary" inkscape:connector-curvature="0" />
	<path style="fill:none;stroke:red;stroke-width:1px;stroke-linecap:butt;stroke-linejoin:miter;stroke-opacity:1" d="M 99.293,276.538 108.822,276.538 z" id="boundary" inkscape:connector-curvature="0" />
	<path style="fill:none;stroke:red;stroke-width:1px;stroke-linecap:butt;stroke-linejoin:miter;stroke-opacity:1" d="M 118.352,276.538 127.881,276.538 z" id="boundary" inkscape:connector-curvature="0" />
	<path style="fill:none;stroke:red;stroke-width:1px;stroke-linecap:butt;stroke-linejoin:miter;stroke-opacity:1" d="M 137.41,276.538 146.939,276.538 z" id="boundary" inkscape:connector-curvature="0" />
	<path style="fill:none;stroke:red;stroke-width:1px;stroke-linecap:butt;stroke-linejoin:miter;stroke-opacity:1" d="M 137.41,276.538 127.881,276.538 z" id="boundary" inkscape:connector-curvature="0" />
	<path style="fill:none;stroke:red;stroke-width:1px;stroke-linecap:butt;stroke-linejoin:miter;stroke-opacity:1" d="M 156.469,276.538 165.998,276.538 z" id="boundary" inkscape:connector-curvature="0" />
	<path style="fill:none;stroke:red;stroke-width:1px;stroke-linecap:butt;stroke-linejoin:miter;stroke-opacity:1" d="M 156.469,276.538 146.939,276.538 z" id="boundary" inkscape:connector-curvature="0" />
	<path style="fill:none;stroke:red;stroke-width:1px;stroke-linecap:butt;stroke-linejoin:miter;stroke-opacity:1" d="M 175.527,276.538 185.057,276.538 z" id="boundary" inkscape:connector-curvature="0" />
	<path style="fill:none;stroke:red;stroke-width:1px;stroke-linecap:butt;stroke-linejoin:miter;stroke-opacity:1" d="M 175.527,276.538 165.998,276.538 z" id="boundary" inkscape:connector-curvature="0" />
	<path style="fill:none;stroke:red;stroke-width:1px;stroke-linecap:butt;stroke-linejoin:miter;stroke-opacity:1" d="M 194.586,276.538 203.162,281.303 z" id="boundary" inkscape:connector-curvature="0" />
	<path style="fill:none;stroke:red;stroke-width:1px;stroke-linecap:butt;stroke-linejoin:miter;stroke-opacity:1" d="M 185.057,276.538 194.586,276.538 z" id="boundary" inkscape:connector-curvature="0" />
	<path style="fill:none;stroke:red;stroke-width:1px;stroke-linecap:butt;stroke-linejoin:miter;stroke-opacity:1" d="M 203.162,281.303 211.739,286.067 z" id="boundary" inkscape:connector-curvature="0" />
	<path style="fill:none;stroke:red;stroke-width:1px;stroke-linecap:butt;stroke-linejoin:miter;stroke-opacity:1" d="M 211.739,286.067 221.268,286.067 z" id="boundary" inkscape:connector-curvature="0" />
	<path style="fill:none;stroke:red;stroke-width:1px;stroke-linecap:butt;stroke-linejoin:miter;stroke-opacity:1" d="M 221.268,286.067 229.844,290.832 z" id="boundary" inkscape:connector-curvature="0" />
	<path style="fill:none;stroke:red;stroke-width:1px;stroke-linecap:butt;stroke-linejoin:miter;stroke-opacity:1" d="M 239.374,293.691 229.844,290.832 z" id="boundary" inkscape:connector-curvature="0" />
	<path style="fill:none;stroke:red;stroke-width:1px;stroke-linecap:butt;stroke-linejoin:miter;stroke-opacity:1" d="M 239.374,293.691 247.95,298.455 z" id="boundary" inkscape:connector-curvature="0" />
	<path style="fill:none;stroke:red;stroke-width:1px;stroke-linecap:butt;stroke-linejoin:miter;stroke-opacity:1" d="M 247.95,298.455 255.573,305.126 z" id="boundary" inkscape:connector-curvature="0" />
	<path style="fill:none;stroke:red;stroke-width:1px;stroke-linecap:butt;stroke-linejoin:miter;stroke-opacity:1" d="M 264.15,309.89 255.573,305.126 z" id="boundary" inkscape:connector-curvature="0" />
	<path style="fill:none;stroke:red;stroke-width:1px;stroke-linecap:butt;stroke-linejoin:miter;stroke-opacity:1" d="M 264.15,309.89 273.679,313.702 z" id="boundary" inkscape:connector-curvature="0" />
	<path style="fill:none;stroke:red;stroke-width:1px;stroke-linecap:butt;stroke-linejoin:miter;stroke-opacity:1" d="M 273.679,313.702 280.35,321.326 z" id="boundary" inkscape:connector-curvature="0" />
	<path style="fill:none;stroke:red;stroke-width:1px;stroke-linecap:butt;stroke-linejoin:miter;stroke-opacity:1" d="M 280.35,321.326 289.879,324.184 z" id="boundary" inkscape:connector-curvature="0" />
	<path style="fill:none;stroke:red;stroke-width:1px;stroke-linecap:butt;stroke-linejoin:miter;stroke-opacity:1" d="M 298.455,328.949 305.126,336.573 z" id="boundary" inkscape:connector-curvature="0" />
	<path style="fill:none;stroke:red;stroke-width:1px;stroke-linecap:butt;stroke-linejoin:miter;stroke-opacity:1" d="M 289.879,324.184 298.455,328.949 z" id="boundary" inkscape:connector-curvature="0" />
	<path style="fill:none;stroke:red;stroke-width:1px;stroke-linecap:butt;stroke-linejoin:miter;stroke-opacity:1" d="M 314.655,340.384 305.126,336.573 z" id="boundary" inkscape:connector-curvature="0" />
	<path style="fill:none;stroke:red;stroke-width:1px;stroke-linecap:butt;stroke-linejoin:miter;stroke-opacity:1" d="M 314.655,340.384 324.184,343.243 z" id="boundary" inkscape:connector-curvature="0" />
	<path style="fill:none;stroke:red;stroke-width:1px;stroke-linecap:butt;stroke-linejoin:miter;stroke-opacity:1" d="M 324.184,343.243 332.761,348.008 z" id="boundary" inkscape:connector-curvature="0" />
	<path style="fill:none;stroke:red;stroke-width:1px;stroke-linecap:butt;stroke-linejoin:miter;stroke-opacity:1" d="M 428.054,343.243 418.524,343.243 z" id="boundary" inkscape:connector-curvature="0" />
	<path style="fill:none;stroke:red;stroke-width:1px;stroke-linecap:butt;stroke-linejoin:miter;stroke-opacity:1" d="M 475.7,343.243 484.277,338.478 z" id="boundary" inkscape:connector-curvature="0" />
	<path style="fill:none;stroke:red;stroke-width:1px;stroke-linecap:butt;stroke-linejoin:miter;stroke-opacity:1" d="M 484.277,338.478 493.806,338.478 z" id="boundary" inkscape:connector-curvature="0" />
	<path style="fill:none;stroke:red;stroke-width:1px;stroke-linecap:butt;stroke-linejoin:miter;stroke-opacity:1" d="M 370.878,343.243 380.407,343.243 z" id="boundary" inkscape:connector-curvature="0" />
	<path style="fill:none;stroke:red;stroke-width:1px;stroke-linecap:butt;stroke-linejoin:miter;stroke-opacity:1" d="M 361.349,345.149 370.878,343.243 z" id="boundary" inkscape:connector-curvature="0" />
	<path style="fill:none;stroke:red;stroke-width:1px;stroke-linecap:butt;stroke-linejoin:miter;stroke-opacity:1" d="M 389.937,343.243 399.466,343.243 z" id="boundary" inkscape:connector-curvature="0" />
	<path style="fill:none;stroke:red;stroke-width:1px;stroke-linecap:butt;stroke-linejoin:miter;stroke-opacity:1" d="M 389.937,343.243 380.407,343.243 z" id="boundary" inkscape:connector-curvature="0" />
	<path style="fill:none;stroke:red;stroke-width:1px;stroke-linecap:butt;stroke-linejoin:miter;stroke-opacity:1" d="M 332.761,348.008 342.29,348.008 z" id="boundary" inkscape:connector-curvature="0" />
	<path style="fill:none;stroke:red;stroke-width:1px;stroke-linecap:butt;stroke-linejoin:miter;stroke-opacity:1" d="M 351.819,348.008 361.349,345.149 z" id="boundary" inkscape:connector-curvature="0" />
	<path style="fill:none;stroke:red;stroke-width:1px;stroke-linecap:butt;stroke-linejoin:miter;stroke-opacity:1" d="M 351.819,348.008 342.29,348.008 z" id="boundary" inkscape:connector-curvature="0" />
	<path style="fill:none;stroke:red;stroke-width:1px;stroke-linecap:butt;stroke-linejoin:miter;stroke-opacity:1" d="M 399.466,343.243 408.995,343.243 z" id="boundary" inkscape:connector-curvature="0" />
	<path style="fill:none;stroke:red;stroke-width:1px;stroke-linecap:butt;stroke-linejoin:miter;stroke-opacity:1" d="M 408.995,343.243 418.524,343.243 z" id="boundary" inkscape:connector-curvature="0" />
	<path style="fill:none;stroke:red;stroke-width:1px;stroke-linecap:butt;stroke-linejoin:miter;stroke-opacity:1" d="M 428.054,343.243 437.583,343.243 z" id="boundary" inkscape:connector-curvature="0" />
	<path style="fill:none;stroke:red;stroke-width:1px;stroke-linecap:butt;stroke-linejoin:miter;stroke-opacity:1" d="M 447.112,343.243 456.642,343.243 z" id="boundary" inkscape:connector-curvature="0" />
	<path style="fill:none;stroke:red;stroke-width:1px;stroke-linecap:butt;stroke-linejoin:miter;stroke-opacity:1" d="M 456.642,343.243 466.171,343.243 z" id="boundary" inkscape:connector-curvature="0" />
	<path style="fill:none;stroke:red;stroke-width:1px;stroke-linecap:butt;stroke-linejoin:miter;stroke-opacity:1" d="M 475.7,343.243 466.171,343.243 z" id="boundary" inkscape:connector-curvature="0" />
	<path style="fill:none;stroke:red;stroke-width:1px;stroke-linecap:butt;stroke-linejoin:miter;stroke-opacity:1" d="M 447.112,343.243 437.583,343.243 z" id="boundary" inkscape:connector-curvature="0" />
	<path style="fill:none;stroke:red;stroke-width:1px;stroke-linecap:butt;stroke-linejoin:miter;stroke-opacity:1" d="M 493.806,338.478 503.335,338.478 z" id="boundary" inkscape:connector-curvature="0" />
	<path style="fill:none;stroke:red;stroke-width:1px;stroke-linecap:butt;stroke-linejoin:miter;stroke-opacity:1" d="M 644.369,37.3525 635.793,42.1172 z" id="boundary" inkscape:connector-curvature="0" />
	<path style="fill:none;stroke:red;stroke-width:1px;stroke-linecap:butt;stroke-linejoin:miter;stroke-opacity:1" d="M 635.793,42.1172 626.263,42.1172 z" id="boundary" inkscape:connector-curvature="0" />
	<path style="fill:none;stroke:red;stroke-width:1px;stroke-linecap:butt;stroke-linejoin:miter;stroke-opacity:1" d="M 652.945,32.5879 644.369,37.3525 z" id="boundary" inkscape:connector-curvature="0" />
	<path style="fill:none;stroke:red;stroke-width:1px;stroke-linecap:butt;stroke-linejoin:miter;stroke-opacity:1" d="M 652.945,32.5879 662.475,32.5879 z" id="boundary" inkscape:connector-curvature="0" />
	<path style="fill:none;stroke:red;stroke-width:1px;stroke-linecap:butt;stroke-linejoin:miter;stroke-opacity:1" d="M 599.581,51.6465 608.158,46.8818 z" id="boundary" inkscape:connector-curvature="0" />
	<path style="fill:none;stroke:red;stroke-width:1px;stroke-linecap:butt;stroke-linejoin:miter;stroke-opacity:1" d="M 608.158,46.8818 617.687,46.8818 z" id="boundary" inkscape:connector-curvature="0" />
	<path style="fill:none;stroke:red;stroke-width:1px;stroke-linecap:butt;stroke-linejoin:miter;stroke-opacity:1" d="M 626.263,42.1172 617.687,46.8818 z" id="boundary" inkscape:connector-curvature="0" />
	<path style="fill:none;stroke:red;stroke-width:1px;stroke-linecap:butt;stroke-linejoin:miter;stroke-opacity:1" d="M 591.005,56.4111 599.581,51.6465 z" id="boundary" inkscape:connector-curvature="0" />
	<path style="fill:none;stroke:red;stroke-width:1px;stroke-linecap:butt;stroke-linejoin:miter;stroke-opacity:1" d="M 662.475,32.5879 672.004,32.5879 z" id="boundary" inkscape:connector-curvature="0" />
	<path style="fill:none;stroke:red;stroke-width:1px;stroke-linecap:butt;stroke-linejoin:miter;stroke-opacity:1" d="M 672.004,32.5879 681.533,32.5879 z" id="boundary" inkscape:connector-curvature="0" />
	<path style="fill:none;stroke:red;stroke-width:1px;stroke-linecap:butt;stroke-linejoin:miter;stroke-opacity:1" d="M 691.062,32.5879 700.592,32.5879 z" id="boundary" inkscape:connector-curvature="0" />
	<path style="fill:none;stroke:red;stroke-width:1px;stroke-linecap:butt;stroke-linejoin:miter;stroke-opacity:1" d="M 700.592,32.5879 709.168,37.3525 z" id="boundary" inkscape:connector-curvature="0" />
	<path style="fill:none;stroke:red;stroke-width:1px;stroke-linecap:butt;stroke-linejoin:miter;stroke-opacity:1" d="M 691.062,32.5879 681.533,32.5879 z" id="boundary" inkscape:connector-curvature="0" />
	<path style="fill:none;stroke:red;stroke-width:1px;stroke-linecap:butt;stroke-linejoin:miter;stroke-opacity:1" d="M 726.321,46.8818 717.744,42.1172 z" id="boundary" inkscape:connector-curvature="0" />
	<path style="fill:none;stroke:red;stroke-width:1px;stroke-linecap:butt;stroke-linejoin:miter;stroke-opacity:1" d="M 726.321,46.8818 732.991,54.5053 z" id="boundary" inkscape:connector-curvature="0" />
	<path style="fill:none;stroke:red;stroke-width:1px;stroke-linecap:butt;stroke-linejoin:miter;stroke-opacity:1" d="M 709.168,37.3525 717.744,42.1172 z" id="boundary" inkscape:connector-curvature="0" />
	<path style="fill:none;stroke:red;stroke-width:1px;stroke-linecap:butt;stroke-linejoin:miter;stroke-opacity:1" d="M 732.991,54.5053 740.615,61.1758 z" id="boundary" inkscape:connector-curvature="0" />
	<path style="fill:none;stroke:red;stroke-width:1px;stroke-linecap:butt;stroke-linejoin:miter;stroke-opacity:1" d="M 535.735,70.7051 526.206,70.7051 z" id="boundary" inkscape:connector-curvature="0" />
	<path style="fill:none;stroke:red;stroke-width:1px;stroke-linecap:butt;stroke-linejoin:miter;stroke-opacity:1" d="M 564.323,65.9404 572.899,61.1758 z" id="boundary" inkscape:connector-curvature="0" />
	<path style="fill:none;stroke:red;stroke-width:1px;stroke-linecap:butt;stroke-linejoin:miter;stroke-opacity:1" d="M 572.899,61.1758 582.428,61.1758 z" id="boundary" inkscape:connector-curvature="0" />
	<path style="fill:none;stroke:red;stroke-width:1px;stroke-linecap:butt;stroke-linejoin:miter;stroke-opacity:1" d="M 564.323,65.9404 554.793,65.9404 z" id="boundary" inkscape:connector-curvature="0" />
	<path style="fill:none;stroke:red;stroke-width:1px;stroke-linecap:butt;stroke-linejoin:miter;stroke-opacity:1" d="M 545.264,70.7051 554.793,65.9404 z" id="boundary" inkscape:connector-curvature="0" />
	<path style="fill:none;stroke:red;stroke-width:1px;stroke-linecap:butt;stroke-linejoin:miter;stroke-opacity:1" d="M 507.147,75.4697 516.676,75.4697 z" id="boundary" inkscape:connector-curvature="0" />
	<path style="fill:none;stroke:red;stroke-width:1px;stroke-linecap:butt;stroke-linejoin:miter;stroke-opacity:1" d="M 526.206,70.7051 516.676,75.4697 z" id="boundary" inkscape:connector-curvature="0" />
	<path style="fill:none;stroke:red;stroke-width:1px;stroke-linecap:butt;stroke-linejoin:miter;stroke-opacity:1" d="M 535.735,70.7051 545.264,70.7051 z" id="boundary" inkscape:connector-curvature="0" />
	<path style="fill:none;stroke:red;stroke-width:1px;stroke-linecap:butt;stroke-linejoin:miter;stroke-opacity:1" d="M 507.147,75.4697 497.618,75.4697 z" id="boundary" inkscape:connector-curvature="0" />
	<path style="fill:none;stroke:red;stroke-width:1px;stroke-linecap:butt;stroke-linejoin:miter;stroke-opacity:1" d="M 582.428,61.1758 591.005,56.4111 z" id="boundary" inkscape:connector-curvature="0" />
	<path style="fill:none;stroke:red;stroke-width:1px;stroke-linecap:butt;stroke-linejoin:miter;stroke-opacity:1" d="M 749.191,65.9404 740.615,61.1758 z" id="boundary" inkscape:connector-curvature="0" />
	<path style="fill:none;stroke:red;stroke-width:1px;stroke-linecap:butt;stroke-linejoin:miter;stroke-opacity:1" d="M 758.72,65.9404 749.191,65.9404 z" id="boundary" inkscape:connector-curvature="0" />
	<path style="fill:none;stroke:red;stroke-width:1px;stroke-linecap:butt;stroke-linejoin:miter;stroke-opacity:1" d="M 758.72,65.9404 768.25,65.9404 z" id="boundary" inkscape:connector-curvature="0" />
	<path style="fill:none;stroke:red;stroke-width:1px;stroke-linecap:butt;stroke-linejoin:miter;stroke-opacity:1" d="M 768.25,65.9404 776.826,70.7051 z" id="boundary" inkscape:connector-curvature="0" />
	<path style="fill:none;stroke:red;stroke-width:1px;stroke-linecap:butt;stroke-linejoin:miter;stroke-opacity:1" d="M 786.355,70.7051 776.826,70.7051 z" id="boundary" inkscape:connector-curvature="0" />
	<path style="fill:none;stroke:red;stroke-width:1px;stroke-linecap:butt;stroke-linejoin:miter;stroke-opacity:1" d="M 795.885,70.7051 786.355,70.7051 z" id="boundary" inkscape:connector-curvature="0" />
	<path style="fill:none;stroke:red;stroke-width:1px;stroke-linecap:butt;stroke-linejoin:miter;stroke-opacity:1" d="M 795.885,70.7051 805.414,70.7051 z" id="boundary" inkscape:connector-curvature="0" />
	<path style="fill:none;stroke:red;stroke-width:1px;stroke-linecap:butt;stroke-linejoin:miter;stroke-opacity:1" d="M 814.943,70.7051 824.473,70.7051 z" id="boundary" inkscape:connector-curvature="0" />
	<path style="fill:none;stroke:red;stroke-width:1px;stroke-linecap:butt;stroke-linejoin:miter;stroke-opacity:1" d="M 814.943,70.7051 805.414,70.7051 z" id="boundary" inkscape:connector-curvature="0" />
	<path style="fill:none;stroke:red;stroke-width:1px;stroke-linecap:butt;stroke-linejoin:miter;stroke-opacity:1" d="M 834.002,70.7051 843.531,70.7051 z" id="boundary" inkscape:connector-curvature="0" />
	<path style="fill:none;stroke:red;stroke-width:1px;stroke-linecap:butt;stroke-linejoin:miter;stroke-opacity:1" d="M 853.061,70.7051 862.59,70.7051 z" id="boundary" inkscape:connector-curvature="0" />
	<path style="fill:none;stroke:red;stroke-width:1px;stroke-linecap:butt;stroke-linejoin:miter;stroke-opacity:1" d="M 853.061,70.7051 843.531,70.7051 z" id="boundary" inkscape:connector-curvature="0" />
	<path style="fill:none;stroke:red;stroke-width:1px;stroke-linecap:butt;stroke-linejoin:miter;stroke-opacity:1" d="M 834.002,70.7051 824.473,70.7051 z" id="boundary" inkscape:connector-curvature="0" />
	<path style="fill:none;stroke:red;stroke-width:1px;stroke-linecap:butt;stroke-linejoin:miter;stroke-opacity:1" d="M 872.119,70.7051 881.648,70.7051 z" id="boundary" inkscape:connector-curvature="0" />
	<path style="fill:none;stroke:red;stroke-width:1px;stroke-linecap:butt;stroke-linejoin:miter;stroke-opacity:1" d="M 891.178,70.7051 900.707,70.7051 z" id="boundary" inkscape:connector-curvature="0" />
	<path style="fill:none;stroke:red;stroke-width:1px;stroke-linecap:butt;stroke-linejoin:miter;stroke-opacity:1" d="M 891.178,70.7051 881.648,70.7051 z" id="boundary" inkscape:connector-curvature="0" />
	<path style="fill:none;stroke:red;stroke-width:1px;stroke-linecap:butt;stroke-linejoin:miter;stroke-opacity:1" d="M 910.236,70.7051 919.766,70.7051 z" id="boundary" inkscape:connector-curvature="0" />
	<path style="fill:none;stroke:red;stroke-width:1px;stroke-linecap:butt;stroke-linejoin:miter;stroke-opacity:1" d="M 929.295,70.7051 938.824,70.7051 z" id="boundary" inkscape:connector-curvature="0" />
	<path style="fill:none;stroke:red;stroke-width:1px;stroke-linecap:butt;stroke-linejoin:miter;stroke-opacity:1" d="M 929.295,70.7051 919.766,70.7051 z" id="boundary" inkscape:connector-curvature="0" />
	<path style="fill:none;stroke:red;stroke-width:1px;stroke-linecap:butt;stroke-linejoin:miter;stroke-opacity:1" d="M 910.236,70.7051 900.707,70.7051 z" id="boundary" inkscape:connector-curvature="0" />
	<path style="fill:none;stroke:red;stroke-width:1px;stroke-linecap:butt;stroke-linejoin:miter;stroke-opacity:1" d="M 872.119,70.7051 862.59,70.7051 z" id="boundary" inkscape:connector-curvature="0" />
	<path style="fill:none;stroke:red;stroke-width:1px;stroke-linecap:butt;stroke-linejoin:miter;stroke-opacity:1" d="M 955.024,81.1873 962.647,87.8578 z" id="boundary" inkscape:connector-curvature="0" />
	<path style="fill:none;stroke:red;stroke-width:1px;stroke-linecap:butt;stroke-linejoin:miter;stroke-opacity:1" d="M 955.024,81.1873 948.354,73.5639 z" id="boundary" inkscape:connector-curvature="0" />
	<path style="fill:none;stroke:red;stroke-width:1px;stroke-linecap:butt;stroke-linejoin:miter;stroke-opacity:1" d="M 969.318,95.4813 962.647,87.8578 z" id="boundary" inkscape:connector-curvature="0" />
	<path style="fill:none;stroke:red;stroke-width:1px;stroke-linecap:butt;stroke-linejoin:miter;stroke-opacity:1" d="M 976.941,102.152 969.318,95.4813 z" id="boundary" inkscape:connector-curvature="0" />
	<path style="fill:none;stroke:red;stroke-width:1px;stroke-linecap:butt;stroke-linejoin:miter;stroke-opacity:1" d="M 959.789,199.351 969.318,194.586 z" id="boundary" inkscape:connector-curvature="0" />
	<path style="fill:none;stroke:red;stroke-width:1px;stroke-linecap:butt;stroke-linejoin:miter;stroke-opacity:1" d="M 955.024,208.88 959.789,199.351 z" id="boundary" inkscape:connector-curvature="0" />
	<path style="fill:none;stroke:red;stroke-width:1px;stroke-linecap:butt;stroke-linejoin:miter;stroke-opacity:1" d="M 976.941,186.01 969.318,194.586 z" id="boundary" inkscape:connector-curvature="0" />
	<path style="fill:none;stroke:red;stroke-width:1px;stroke-linecap:butt;stroke-linejoin:miter;stroke-opacity:1" d="M 976.941,111.681 976.941,102.152 z" id="boundary" inkscape:connector-curvature="0" />
	<path style="fill:none;stroke:red;stroke-width:1px;stroke-linecap:butt;stroke-linejoin:miter;stroke-opacity:1" d="M 981.706,120.257 976.941,111.681 z" id="boundary" inkscape:connector-curvature="0" />
	<path style="fill:none;stroke:red;stroke-width:1px;stroke-linecap:butt;stroke-linejoin:miter;stroke-opacity:1" d="M 938.824,70.7051 948.354,73.5639 z" id="boundary" inkscape:connector-curvature="0" />
	<path style="fill:none;stroke:red;stroke-width:1px;stroke-linecap:butt;stroke-linejoin:miter;stroke-opacity:1" d="M 981.706,120.257 986.471,128.834 z" id="boundary" inkscape:connector-curvature="0" />
	<path style="fill:none;stroke:red;stroke-width:1px;stroke-linecap:butt;stroke-linejoin:miter;stroke-opacity:1" d="M 986.471,128.834 988.377,138.363 z" id="boundary" inkscape:connector-curvature="0" />
	<path style="fill:none;stroke:red;stroke-width:1px;stroke-linecap:butt;stroke-linejoin:miter;stroke-opacity:1" d="M 988.377,138.363 993.141,146.939 z" id="boundary" inkscape:connector-curvature="0" />
	<path style="fill:none;stroke:red;stroke-width:1px;stroke-linecap:butt;stroke-linejoin:miter;stroke-opacity:1" d="M 976.941,186.01 984.565,179.339 z" id="boundary" inkscape:connector-curvature="0" />
	<path style="fill:none;stroke:red;stroke-width:1px;stroke-linecap:butt;stroke-linejoin:miter;stroke-opacity:1" d="M 991.235,171.716 984.565,179.339 z" id="boundary" inkscape:connector-curvature="0" />
	<path style="fill:none;stroke:red;stroke-width:1px;stroke-linecap:butt;stroke-linejoin:miter;stroke-opacity:1" d="M 996,156.469 991.235,171.716 z" id="boundary" inkscape:connector-curvature="0" />
	<path style="fill:none;stroke:red;stroke-width:1px;stroke-linecap:butt;stroke-linejoin:miter;stroke-opacity:1" d="M 993.141,146.939 996,156.469 z" id="boundary" inkscape:connector-curvature="0" />
	<path style="fill:none;stroke:red;stroke-width:1px;stroke-linecap:butt;stroke-linejoin:miter;stroke-opacity:1" d="M 548.123,319.42 557.652,319.42 z" id="boundary" inkscape:connector-curvature="0" />
	<path style="fill:none;stroke:red;stroke-width:1px;stroke-linecap:butt;stroke-linejoin:miter;stroke-opacity:1" d="M 538.594,324.184 548.123,319.42 z" id="boundary" inkscape:connector-curvature="0" />
	<path style="fill:none;stroke:red;stroke-width:1px;stroke-linecap:butt;stroke-linejoin:miter;stroke-opacity:1" d="M 567.182,319.42 576.711,319.42 z" id="boundary" inkscape:connector-curvature="0" />
	<path style="fill:none;stroke:red;stroke-width:1px;stroke-linecap:butt;stroke-linejoin:miter;stroke-opacity:1" d="M 567.182,319.42 557.652,319.42 z" id="boundary" inkscape:connector-curvature="0" />
	<path style="fill:none;stroke:red;stroke-width:1px;stroke-linecap:butt;stroke-linejoin:miter;stroke-opacity:1" d="M 511.912,333.714 520.488,328.949 z" id="boundary" inkscape:connector-curvature="0" />
	<path style="fill:none;stroke:red;stroke-width:1px;stroke-linecap:butt;stroke-linejoin:miter;stroke-opacity:1" d="M 520.488,328.949 530.017,328.949 z" id="boundary" inkscape:connector-curvature="0" />
	<path style="fill:none;stroke:red;stroke-width:1px;stroke-linecap:butt;stroke-linejoin:miter;stroke-opacity:1" d="M 530.017,328.949 538.594,324.184 z" id="boundary" inkscape:connector-curvature="0" />
	<path style="fill:none;stroke:red;stroke-width:1px;stroke-linecap:butt;stroke-linejoin:miter;stroke-opacity:1" d="M 503.335,338.478 511.912,333.714 z" id="boundary" inkscape:connector-curvature="0" />
	<path style="fill:none;stroke:red;stroke-width:1px;stroke-linecap:butt;stroke-linejoin:miter;stroke-opacity:1" d="M 576.711,319.42 586.24,319.42 z" id="boundary" inkscape:connector-curvature="0" />
	<path style="fill:none;stroke:red;stroke-width:1px;stroke-linecap:butt;stroke-linejoin:miter;stroke-opacity:1" d="M 586.24,319.42 595.769,319.42 z" id="boundary" inkscape:connector-curvature="0" />
	<path style="fill:none;stroke:red;stroke-width:1px;stroke-linecap:butt;stroke-linejoin:miter;stroke-opacity:1" d="M 605.299,319.42 614.828,319.42 z" id="boundary" inkscape:connector-curvature="0" />
	<path style="fill:none;stroke:red;stroke-width:1px;stroke-linecap:butt;stroke-linejoin:miter;stroke-opacity:1" d="M 614.828,319.42 623.404,324.184 z" id="boundary" inkscape:connector-curvature="0" />
	<path style="fill:none;stroke:red;stroke-width:1px;stroke-linecap:butt;stroke-linejoin:miter;stroke-opacity:1" d="M 605.299,319.42 595.769,319.42 z" id="boundary" inkscape:connector-curvature="0" />
	<path style="fill:none;stroke:red;stroke-width:1px;stroke-linecap:butt;stroke-linejoin:miter;stroke-opacity:1" d="M 623.404,324.184 632.934,324.184 z" id="boundary" inkscape:connector-curvature="0" />
	<path style="fill:none;stroke:red;stroke-width:1px;stroke-linecap:butt;stroke-linejoin:miter;stroke-opacity:1" d="M 632.934,324.184 641.51,328.949 z" id="boundary" inkscape:connector-curvature="0" />
	<path style="fill:none;stroke:red;stroke-width:1px;stroke-linecap:butt;stroke-linejoin:miter;stroke-opacity:1" d="M 651.039,328.949 641.51,328.949 z" id="boundary" inkscape:connector-curvature="0" />
	<path style="fill:none;stroke:red;stroke-width:1px;stroke-linecap:butt;stroke-linejoin:miter;stroke-opacity:1" d="M 651.039,328.949 657.71,336.573 z" id="boundary" inkscape:connector-curvature="0" />
	<path style="fill:none;stroke:red;stroke-width:1px;stroke-linecap:butt;stroke-linejoin:miter;stroke-opacity:1" d="M 657.71,336.573 665.333,343.243 z" id="boundary" inkscape:connector-curvature="0" />
	<path style="fill:none;stroke:red;stroke-width:1px;stroke-linecap:butt;stroke-linejoin:miter;stroke-opacity:1" d="M 673.91,348.008 665.333,343.243 z" id="boundary" inkscape:connector-curvature="0" />
	<path style="fill:none;stroke:red;stroke-width:1px;stroke-linecap:butt;stroke-linejoin:miter;stroke-opacity:1" d="M 673.91,348.008 681.533,354.678 z" id="boundary" inkscape:connector-curvature="0" />
	<path style="fill:none;stroke:red;stroke-width:1px;stroke-linecap:butt;stroke-linejoin:miter;stroke-opacity:1" d="M 681.533,354.678 688.204,362.302 z" id="boundary" inkscape:connector-curvature="0" />
	<path style="fill:none;stroke:red;stroke-width:1px;stroke-linecap:butt;stroke-linejoin:miter;stroke-opacity:1" d="M 696.78,367.066 688.204,362.302 z" id="boundary" inkscape:connector-curvature="0" />
	<path style="fill:none;stroke:red;stroke-width:1px;stroke-linecap:butt;stroke-linejoin:miter;stroke-opacity:1" d="M 696.78,367.066 705.356,371.831 z" id="boundary" inkscape:connector-curvature="0" />
	<path style="fill:none;stroke:red;stroke-width:1px;stroke-linecap:butt;stroke-linejoin:miter;stroke-opacity:1" d="M 714.886,373.737 705.356,371.831 z" id="boundary" inkscape:connector-curvature="0" />
	<path style="fill:none;stroke:red;stroke-width:1px;stroke-linecap:butt;stroke-linejoin:miter;stroke-opacity:1" d="M 714.886,373.737 724.415,376.596 z" id="boundary" inkscape:connector-curvature="0" />
	<path style="fill:none;stroke:red;stroke-width:1px;stroke-linecap:butt;stroke-linejoin:miter;stroke-opacity:1" d="M 733.944,376.596 724.415,376.596 z" id="boundary" inkscape:connector-curvature="0" />
	<path style="fill:none;stroke:red;stroke-width:1px;stroke-linecap:butt;stroke-linejoin:miter;stroke-opacity:1" d="M 733.944,376.596 743.474,376.596 z" id="boundary" inkscape:connector-curvature="0" />
	<path style="fill:none;stroke:red;stroke-width:1px;stroke-linecap:butt;stroke-linejoin:miter;stroke-opacity:1" d="M 743.474,376.596 752.05,381.36 z" id="boundary" inkscape:connector-curvature="0" />
	<path style="fill:none;stroke:red;stroke-width:1px;stroke-linecap:butt;stroke-linejoin:miter;stroke-opacity:1" d="M 761.579,381.36 752.05,381.36 z" id="boundary" inkscape:connector-curvature="0" />
	<path style="fill:none;stroke:red;stroke-width:1px;stroke-linecap:butt;stroke-linejoin:miter;stroke-opacity:1" d="M 780.638,381.36 771.109,381.36 z" id="boundary" inkscape:connector-curvature="0" />
	<path style="fill:none;stroke:red;stroke-width:1px;stroke-linecap:butt;stroke-linejoin:miter;stroke-opacity:1" d="M 771.109,381.36 761.579,381.36 z" id="boundary" inkscape:connector-curvature="0" />
	<path style="fill:none;stroke:red;stroke-width:1px;stroke-linecap:butt;stroke-linejoin:miter;stroke-opacity:1" d="M 924.53,238.421 924.53,247.95 z" id="boundary" inkscape:connector-curvature="0" />
	<path style="fill:none;stroke:red;stroke-width:1px;stroke-linecap:butt;stroke-linejoin:miter;stroke-opacity:1" d="M 924.53,238.421 932.154,231.75 z" id="boundary" inkscape:connector-curvature="0" />
	<path style="fill:none;stroke:red;stroke-width:1px;stroke-linecap:butt;stroke-linejoin:miter;stroke-opacity:1" d="M 924.53,257.479 924.53,267.009 z" id="boundary" inkscape:connector-curvature="0" />
	<path style="fill:none;stroke:red;stroke-width:1px;stroke-linecap:butt;stroke-linejoin:miter;stroke-opacity:1" d="M 924.53,257.479 924.53,247.95 z" id="boundary" inkscape:connector-curvature="0" />
	<path style="fill:none;stroke:red;stroke-width:1px;stroke-linecap:butt;stroke-linejoin:miter;stroke-opacity:1" d="M 924.53,276.538 924.53,286.067 z" id="boundary" inkscape:connector-curvature="0" />
	<path style="fill:none;stroke:red;stroke-width:1px;stroke-linecap:butt;stroke-linejoin:miter;stroke-opacity:1" d="M 924.53,295.597 924.53,305.126 z" id="boundary" inkscape:connector-curvature="0" />
	<path style="fill:none;stroke:red;stroke-width:1px;stroke-linecap:butt;stroke-linejoin:miter;stroke-opacity:1" d="M 924.53,295.597 924.53,286.067 z" id="boundary" inkscape:connector-curvature="0" />
	<path style="fill:none;stroke:red;stroke-width:1px;stroke-linecap:butt;stroke-linejoin:miter;stroke-opacity:1" d="M 924.53,276.538 924.53,267.009 z" id="boundary" inkscape:connector-curvature="0" />
	<path style="fill:none;stroke:red;stroke-width:1px;stroke-linecap:butt;stroke-linejoin:miter;stroke-opacity:1" d="M 932.154,231.75 938.824,219.362 z" id="boundary" inkscape:connector-curvature="0" />
	<path style="fill:none;stroke:red;stroke-width:1px;stroke-linecap:butt;stroke-linejoin:miter;stroke-opacity:1" d="M 938.824,219.362 947.401,214.598 z" id="boundary" inkscape:connector-curvature="0" />
	<path style="fill:none;stroke:red;stroke-width:1px;stroke-linecap:butt;stroke-linejoin:miter;stroke-opacity:1" d="M 947.401,214.598 955.024,208.88 z" id="boundary" inkscape:connector-curvature="0" />
	<path style="fill:none;stroke:red;stroke-width:1px;stroke-linecap:butt;stroke-linejoin:miter;stroke-opacity:1" d="M 924.53,314.655 924.53,324.184 z" id="boundary" inkscape:connector-curvature="0" />
	<path style="fill:none;stroke:red;stroke-width:1px;stroke-linecap:butt;stroke-linejoin:miter;stroke-opacity:1" d="M 924.53,314.655 924.53,305.126 z" id="boundary" inkscape:connector-curvature="0" />
	<path style="fill:none;stroke:red;stroke-width:1px;stroke-linecap:butt;stroke-linejoin:miter;stroke-opacity:1" d="M 924.53,333.714 924.53,343.243 z" id="boundary" inkscape:connector-curvature="0" />
	<path style="fill:none;stroke:red;stroke-width:1px;stroke-linecap:butt;stroke-linejoin:miter;stroke-opacity:1" d="M 924.53,333.714 924.53,324.184 z" id="boundary" inkscape:connector-curvature="0" />
	<path style="fill:none;stroke:red;stroke-width:1px;stroke-linecap:butt;stroke-linejoin:miter;stroke-opacity:1" d="M 798.744,376.596 808.273,376.596 z" id="boundary" inkscape:connector-curvature="0" />
	<path style="fill:none;stroke:red;stroke-width:1px;stroke-linecap:butt;stroke-linejoin:miter;stroke-opacity:1" d="M 790.167,381.36 798.744,376.596 z" id="boundary" inkscape:connector-curvature="0" />
	<path style="fill:none;stroke:red;stroke-width:1px;stroke-linecap:butt;stroke-linejoin:miter;stroke-opacity:1" d="M 817.802,376.596 827.331,376.596 z" id="boundary" inkscape:connector-curvature="0" />
	<path style="fill:none;stroke:red;stroke-width:1px;stroke-linecap:butt;stroke-linejoin:miter;stroke-opacity:1" d="M 817.802,376.596 808.273,376.596 z" id="boundary" inkscape:connector-curvature="0" />
	<path style="fill:none;stroke:red;stroke-width:1px;stroke-linecap:butt;stroke-linejoin:miter;stroke-opacity:1" d="M 836.861,376.596 846.39,376.596 z" id="boundary" inkscape:connector-curvature="0" />
	<path style="fill:none;stroke:red;stroke-width:1px;stroke-linecap:butt;stroke-linejoin:miter;stroke-opacity:1" d="M 827.331,376.596 836.861,376.596 z" id="boundary" inkscape:connector-curvature="0" />
	<path style="fill:none;stroke:red;stroke-width:1px;stroke-linecap:butt;stroke-linejoin:miter;stroke-opacity:1" d="M 846.39,376.596 855.919,376.596 z" id="boundary" inkscape:connector-curvature="0" />
	<path style="fill:none;stroke:red;stroke-width:1px;stroke-linecap:butt;stroke-linejoin:miter;stroke-opacity:1" d="M 864.496,371.831 855.919,376.596 z" id="boundary" inkscape:connector-curvature="0" />
	<path style="fill:none;stroke:red;stroke-width:1px;stroke-linecap:butt;stroke-linejoin:miter;stroke-opacity:1" d="M 790.167,381.36 780.638,381.36 z" id="boundary" inkscape:connector-curvature="0" />
	<path style="fill:none;stroke:red;stroke-width:1px;stroke-linecap:butt;stroke-linejoin:miter;stroke-opacity:1" d="M 892.131,367.066 901.66,367.066 z" id="boundary" inkscape:connector-curvature="0" />
	<path style="fill:none;stroke:red;stroke-width:1px;stroke-linecap:butt;stroke-linejoin:miter;stroke-opacity:1" d="M 883.554,371.831 892.131,367.066 z" id="boundary" inkscape:connector-curvature="0" />
	<path style="fill:none;stroke:red;stroke-width:1px;stroke-linecap:butt;stroke-linejoin:miter;stroke-opacity:1" d="M 911.189,367.066 901.66,367.066 z" id="boundary" inkscape:connector-curvature="0" />
	<path style="fill:none;stroke:red;stroke-width:1px;stroke-linecap:butt;stroke-linejoin:miter;stroke-opacity:1" d="M 924.53,352.772 919.766,362.302 z" id="boundary" inkscape:connector-curvature="0" />
	<path style="fill:none;stroke:red;stroke-width:1px;stroke-linecap:butt;stroke-linejoin:miter;stroke-opacity:1" d="M 919.766,362.302 911.189,367.066 z" id="boundary" inkscape:connector-curvature="0" />
	<path style="fill:none;stroke:red;stroke-width:1px;stroke-linecap:butt;stroke-linejoin:miter;stroke-opacity:1" d="M 864.496,371.831 874.025,371.831 z" id="boundary" inkscape:connector-curvature="0" />
	<path style="fill:none;stroke:red;stroke-width:1px;stroke-linecap:butt;stroke-linejoin:miter;stroke-opacity:1" d="M 883.554,371.831 874.025,371.831 z" id="boundary" inkscape:connector-curvature="0" />
	<path style="fill:none;stroke:red;stroke-width:1px;stroke-linecap:butt;stroke-linejoin:miter;stroke-opacity:1" d="M 924.53,343.243 924.53,352.772 z" id="boundary" inkscape:connector-curvature="0" />
	<circle cx="4" cy="197.445" r="4" fill="#0" id="circle0"/>
	<circle cx="8.76465" cy="187.915" r="4" fill="#0" id="circle1"/>
	<circle cx="8.76465" cy="206.021" r="4" fill="#0" id="circle2"/>
	<circle cx="8.76465" cy="215.55" r="4" fill="#0" id="circle3"/>
	<circle cx="8.76465" cy="225.08" r="4" fill="#0" id="circle4"/>
	<circle cx="8.76465" cy="234.609" r="4" fill="#0" id="circle5"/>
	<circle cx="13.5293" cy="243.185" r="4" fill="#0" id="circle6"/>
	<circle cx="13.5293" cy="252.715" r="4" fill="#0" id="circle7"/>
	<circle cx="13.5293" cy="262.244" r="4" fill="#0" id="circle8"/>
	<circle cx="16.3881" cy="271.773" r="4" fill="#0" id="circle9"/>
	<circle cx="18.2939" cy="183.151" r="4" fill="#0" id="circle10"/>
	<circle cx="24.0115" cy="278.444" r="4" fill="#0" id="circle11"/>
	<circle cx="27.8232" cy="178.386" r="4" fill="#0" id="circle12"/>
	<circle cx="33.5408" cy="281.303" r="4" fill="#0" id="circle13"/>
	<circle cx="35.4467" cy="170.763" r="4" fill="#0" id="circle14"/>
	<circle cx="42.1172" cy="276.538" r="4" fill="#0" id="circle15"/>
	<circle cx="44.976" cy="165.998" r="4" fill="#0" id="circle16"/>
	<circle cx="51.6465" cy="276.538" r="4" fill="#0" id="circle17"/>
	<circle cx="52.5994" cy="158.375" r="4" fill="#0" id="circle18"/>
	<circle cx="60.2229" cy="151.704" r="4" fill="#0" id="circle19"/>
	<circle cx="61.1758" cy="276.538" r="4" fill="#0" id="circle20"/>
	<circle cx="68.7992" cy="146.939" r="4" fill="#0" id="circle21"/>
	<circle cx="70.7051" cy="276.538" r="4" fill="#0" id="circle22"/>
	<circle cx="76.4227" cy="139.316" r="4" fill="#0" id="circle23"/>
	<circle cx="80.2344" cy="276.538" r="4" fill="#0" id="circle24"/>
	<circle cx="84.999" cy="21.1527" r="4" fill="#0" id="circle25"/>
	<circle cx="85.952" cy="134.551" r="4" fill="#0" id="circle26"/>
	<circle cx="89.7637" cy="29.7291" r="4" fill="#0" id="circle27"/>
	<circle cx="89.7637" cy="39.2584" r="4" fill="#0" id="circle28"/>
	<circle cx="89.7637" cy="48.7877" r="4" fill="#0" id="circle29"/>
	<circle cx="89.7637" cy="276.538" r="4" fill="#0" id="circle30"/>
	<circle cx="93.5754" cy="127.881" r="4" fill="#0" id="circle31"/>
	<circle cx="94.5283" cy="18.2939" r="4" fill="#0" id="circle32"/>
	<circle cx="94.5283" cy="57.3641" r="4" fill="#0" id="circle33"/>
	<circle cx="97.3871" cy="66.8934" r="4" fill="#0" id="circle34"/>
	<circle cx="99.293" cy="116.446" r="4" fill="#0" id="circle35"/>
	<circle cx="99.293" cy="276.538" r="4" fill="#0" id="circle36"/>
	<circle cx="102.152" cy="75.4697" r="4" fill="#0" id="circle37"/>
	<circle cx="104.058" cy="16.3881" r="4" fill="#0" id="circle38"/>
	<circle cx="104.058" cy="84.999" r="4" fill="#0" id="circle39"/>
	<circle cx="104.058" cy="94.5283" r="4" fill="#0" id="circle40"/>
	<circle cx="104.058" cy="104.058" r="4" fill="#0" id="circle41"/>
	<circle cx="108.822" cy="276.538" r="4" fill="#0" id="circle42"/>
	<circle cx="113.587" cy="13.5293" r="4" fill="#0" id="circle43"/>
	<circle cx="118.352" cy="276.538" r="4" fill="#0" id="circle44"/>
	<circle cx="123.116" cy="11.6234" r="4" fill="#0" id="circle45"/>
	<circle cx="127.881" cy="276.538" r="4" fill="#0" id="circle46"/>
	<circle cx="132.646" cy="8.76465" r="4" fill="#0" id="circle47"/>
	<circle cx="137.41" cy="276.538" r="4" fill="#0" id="circle48"/>
	<circle cx="142.175" cy="8.76465" r="4" fill="#0" id="circle49"/>
	<circle cx="146.939" cy="276.538" r="4" fill="#0" id="circle50"/>
	<circle cx="151.704" cy="8.76465" r="4" fill="#0" id="circle51"/>
	<circle cx="156.469" cy="276.538" r="4" fill="#0" id="circle52"/>
	<circle cx="161.233" cy="8.76465" r="4" fill="#0" id="circle53"/>
	<circle cx="165.998" cy="276.538" r="4" fill="#0" id="circle54"/>
	<circle cx="170.763" cy="8.76465" r="4" fill="#0" id="circle55"/>
	<circle cx="175.527" cy="276.538" r="4" fill="#0" id="circle56"/>
	<circle cx="180.292" cy="8.76465" r="4" fill="#0" id="circle57"/>
	<circle cx="185.057" cy="276.538" r="4" fill="#0" id="circle58"/>
	<circle cx="189.821" cy="6.85879" r="4" fill="#0" id="circle59"/>
	<circle cx="194.586" cy="276.538" r="4" fill="#0" id="circle60"/>
	<circle cx="199.351" cy="4" r="4" fill="#0" id="circle61"/>
	<circle cx="203.162" cy="281.303" r="4" fill="#0" id="circle62"/>
	<circle cx="208.88" cy="4" r="4" fill="#0" id="circle63"/>
	<circle cx="211.739" cy="286.067" r="4" fill="#0" id="circle64"/>
	<circle cx="218.409" cy="4" r="4" fill="#0" id="circle65"/>
	<circle cx="221.268" cy="286.067" r="4" fill="#0" id="circle66"/>
	<circle cx="227.939" cy="4" r="4" fill="#0" id="circle67"/>
	<circle cx="229.844" cy="290.832" r="4" fill="#0" id="circle68"/>
	<circle cx="237.468" cy="4" r="4" fill="#0" id="circle69"/>
	<circle cx="239.374" cy="293.691" r="4" fill="#0" id="circle70"/>
	<circle cx="246.997" cy="4" r="4" fill="#0" id="circle71"/>
	<circle cx="247.95" cy="298.455" r="4" fill="#0" id="circle72"/>
	<circle cx="255.573" cy="305.126" r="4" fill="#0" id="circle73"/>
	<circle cx="256.526" cy="4" r="4" fill="#0" id="circle74"/>
	<circle cx="264.15" cy="309.89" r="4" fill="#0" id="circle75"/>
	<circle cx="266.056" cy="5.90586" r="4" fill="#0" id="circle76"/>
	<circle cx="273.679" cy="313.702" r="4" fill="#0" id="circle77"/>
	<circle cx="274.632" cy="10.6705" r="4" fill="#0" id="circle78"/>
	<circle cx="280.35" cy="321.326" r="4" fill="#0" id="circle79"/>
	<circle cx="284.161" cy="14.4822" r="4" fill="#0" id="circle80"/>
	<circle cx="289.879" cy="324.184" r="4" fill="#0" id="circle81"/>
	<circle cx="290.832" cy="22.1057" r="4" fill="#0" id="circle82"/>
	<circle cx="298.455" cy="28.7762" r="4" fill="#0" id="circle83"/>
	<circle cx="298.455" cy="328.949" r="4" fill="#0" id="circle84"/>
	<circle cx="305.126" cy="336.573" r="4" fill="#0" id="circle85"/>
	<circle cx="307.032" cy="33.5408" r="4" fill="#0" id="circle86"/>
	<circle cx="314.655" cy="40.2113" r="4" fill="#0" id="circle87"/>
	<circle cx="314.655" cy="340.384" r="4" fill="#0" id="circle88"/>
	<circle cx="321.326" cy="47.8348" r="4" fill="#0" id="circle89"/>
	<circle cx="324.184" cy="343.243" r="4" fill="#0" id="circle90"/>
	<circle cx="330.855" cy="51.6465" r="4" fill="#0" id="circle91"/>
	<circle cx="332.761" cy="348.008" r="4" fill="#0" id="circle92"/>
	<circle cx="337.525" cy="59.2699" r="4" fill="#0" id="circle93"/>
	<circle cx="342.29" cy="348.008" r="4" fill="#0" id="circle94"/>
	<circle cx="347.055" cy="63.0817" r="4" fill="#0" id="circle95"/>
	<circle cx="351.819" cy="348.008" r="4" fill="#0" id="circle96"/>
	<circle cx="355.631" cy="67.8463" r="4" fill="#0" id="circle97"/>
	<circle cx="361.349" cy="345.149" r="4" fill="#0" id="circle98"/>
	<circle cx="365.16" cy="70.7051" r="4" fill="#0" id="circle99"/>
	<circle cx="370.878" cy="343.243" r="4" fill="#0" id="circle100"/>
	<circle cx="373.737" cy="75.4697" r="4" fill="#0" id="circle101"/>
	<circle cx="380.407" cy="343.243" r="4" fill="#0" id="circle102"/>
	<circle cx="383.266" cy="75.4697" r="4" fill="#0" id="circle103"/>
	<circle cx="389.937" cy="343.243" r="4" fill="#0" id="circle104"/>
	<circle cx="392.795" cy="75.4697" r="4" fill="#0" id="circle105"/>
	<circle cx="399.466" cy="343.243" r="4" fill="#0" id="circle106"/>
	<circle cx="402.325" cy="75.4697" r="4" fill="#0" id="circle107"/>
	<circle cx="408.995" cy="343.243" r="4" fill="#0" id="circle108"/>
	<circle cx="411.854" cy="75.4697" r="4" fill="#0" id="circle109"/>
	<circle cx="418.524" cy="343.243" r="4" fill="#0" id="circle110"/>
	<circle cx="421.383" cy="75.4697" r="4" fill="#0" id="circle111"/>
	<circle cx="428.054" cy="343.243" r="4" fill="#0" id="circle112"/>
	<circle cx="430.913" cy="75.4697" r="4" fill="#0" id="circle113"/>
	<circle cx="437.583" cy="343.243" r="4" fill="#0" id="circle114"/>
	<circle cx="440.442" cy="75.4697" r="4" fill="#0" id="circle115"/>
	<circle cx="447.112" cy="343.243" r="4" fill="#0" id="circle116"/>
	<circle cx="449.971" cy="75.4697" r="4" fill="#0" id="circle117"/>
	<circle cx="456.642" cy="343.243" r="4" fill="#0" id="circle118"/>
	<circle cx="459.5" cy="75.4697" r="4" fill="#0" id="circle119"/>
	<circle cx="466.171" cy="343.243" r="4" fill="#0" id="circle120"/>
	<circle cx="469.03" cy="75.4697" r="4" fill="#0" id="circle121"/>
	<circle cx="475.7" cy="343.243" r="4" fill="#0" id="circle122"/>
	<circle cx="478.559" cy="75.4697" r="4" fill="#0" id="circle123"/>
	<circle cx="484.277" cy="338.478" r="4" fill="#0" id="circle124"/>
	<circle cx="488.088" cy="75.4697" r="4" fill="#0" id="circle125"/>
	<circle cx="493.806" cy="338.478" r="4" fill="#0" id="circle126"/>
	<circle cx="497.618" cy="75.4697" r="4" fill="#0" id="circle127"/>
	<circle cx="503.335" cy="338.478" r="4" fill="#0" id="circle128"/>
	<circle cx="507.147" cy="75.4697" r="4" fill="#0" id="circle129"/>
	<circle cx="511.912" cy="333.714" r="4" fill="#0" id="circle130"/>
	<circle cx="516.676" cy="75.4697" r="4" fill="#0" id="circle131"/>
	<circle cx="520.488" cy="328.949" r="4" fill="#0" id="circle132"/>
	<circle cx="526.206" cy="70.7051" r="4" fill="#0" id="circle133"/>
	<circle cx="530.017" cy="328.949" r="4" fill="#0" id="circle134"/>
	<circle cx="535.735" cy="70.7051" r="4" fill="#0" id="circle135"/>
	<circle cx="538.594" cy="324.184" r="4" fill="#0" id="circle136"/>
	<circle cx="545.264" cy="70.7051" r="4" fill="#0" id="circle137"/>
	<circle cx="548.123" cy="319.42" r="4" fill="#0" id="circle138"/>
	<circle cx="554.793" cy="65.9404" r="4" fill="#0" id="circle139"/>
	<circle cx="557.652" cy="319.42" r="4" fill="#0" id="circle140"/>
	<circle cx="564.323" cy="65.9404" r="4" fill="#0" id="circle141"/>
	<circle cx="567.182" cy="319.42" r="4" fill="#0" id="circle142"/>
	<circle cx="572.899" cy="61.1758" r="4" fill="#0" id="circle143"/>
	<circle cx="576.711" cy="319.42" r="4" fill="#0" id="circle144"/>
	<circle cx="582.428" cy="61.1758" r="4" fill="#0" id="circle145"/>
	<circle cx="586.24" cy="319.42" r="4" fill="#0" id="circle146"/>
	<circle cx="591.005" cy="56.4111" r="4" fill="#0" id="circle147"/>
	<circle cx="595.769" cy="319.42" r="4" fill="#0" id="circle148"/>
	<circle cx="599.581" cy="51.6465" r="4" fill="#0" id="circle149"/>
	<circle cx="605.299" cy="319.42" r="4" fill="#0" id="circle150"/>
	<circle cx="608.158" cy="46.8818" r="4" fill="#0" id="circle151"/>
	<circle cx="614.828" cy="319.42" r="4" fill="#0" id="circle152"/>
	<circle cx="617.687" cy="46.8818" r="4" fill="#0" id="circle153"/>
	<circle cx="623.404" cy="324.184" r="4" fill="#0" id="circle154"/>
	<circle cx="626.263" cy="42.1172" r="4" fill="#0" id="circle155"/>
	<circle cx="632.934" cy="324.184" r="4" fill="#0" id="circle156"/>
	<circle cx="635.793" cy="42.1172" r="4" fill="#0" id="circle157"/>
	<circle cx="641.51" cy="328.949" r="4" fill="#0" id="circle158"/>
	<circle cx="644.369" cy="37.3525" r="4" fill="#0" id="circle159"/>
	<circle cx="651.039" cy="328.949" r="4" fill="#0" id="circle160"/>
	<circle cx="652.945" cy="32.5879" r="4" fill="#0" id="circle161"/>
	<circle cx="657.71" cy="336.573" r="4" fill="#0" id="circle162"/>
	<circle cx="662.475" cy="32.5879" r="4" fill="#0" id="circle163"/>
	<circle cx="665.333" cy="343.243" r="4" fill="#0" id="circle164"/>
	<circle cx="672.004" cy="32.5879" r="4" fill="#0" id="circle165"/>
	<circle cx="673.91" cy="348.008" r="4" fill="#0" id="circle166"/>
	<circle cx="681.533" cy="32.5879" r="4" fill="#0" id="circle167"/>
	<circle cx="681.533" cy="354.678" r="4" fill="#0" id="circle168"/>
	<circle cx="688.204" cy="362.302" r="4" fill="#0" id="circle169"/>
	<circle cx="691.062" cy="32.5879" r="4" fill="#0" id="circle170"/>
	<circle cx="696.78" cy="367.066" r="4" fill="#0" id="circle171"/>
	<circle cx="700.592" cy="32.5879" r="4" fill="#0" id="circle172"/>
	<circle cx="705.356" cy="371.831" r="4" fill="#0" id="circle173"/>
	<circle cx="709.168" cy="37.3525" r="4" fill="#0" id="circle174"/>
	<circle cx="714.886" cy="373.737" r="4" fill="#0" id="circle175"/>
	<circle cx="717.744" cy="42.1172" r="4" fill="#0" id="circle176"/>
	<circle cx="724.415" cy="376.596" r="4" fill="#0" id="circle177"/>
	<circle cx="726.321" cy="46.8818" r="4" fill="#0" id="circle178"/>
	<circle cx="732.991" cy="54.5053" r="4" fill="#0" id="circle179"/>
	<circle cx="733.944" cy="376.596" r="4" fill="#0" id="circle180"/>
	<circle cx="740.615" cy="61.1758" r="4" fill="#0" id="circle181"/>
	<circle cx="743.474" cy="376.596" r="4" fill="#0" id="circle182"/>
	<circle cx="749.191" cy="65.9404" r="4" fill="#0" id="circle183"/>
	<circle cx="752.05" cy="381.36" r="4" fill="#0" id="circle184"/>
	<circle cx="758.72" cy="65.9404" r="4" fill="#0" id="circle185"/>
	<circle cx="761.579" cy="381.36" r="4" fill="#0" id="circle186"/>
	<circle cx="768.25" cy="65.9404" r="4" fill="#0" id="circle187"/>
	<circle cx="771.109" cy="381.36" r="4" fill="#0" id="circle188"/>
	<circle cx="776.826" cy="70.7051" r="4" fill="#0" id="circle189"/>
	<circle cx="780.638" cy="381.36" r="4" fill="#0" id="circle190"/>
	<circle cx="786.355" cy="70.7051" r="4" fill="#0" id="circle191"/>
	<circle cx="790.167" cy="381.36" r="4" fill="#0" id="circle192"/>
	<circle cx="795.885" cy="70.7051" r="4" fill="#0" id="circle193"/>
	<circle cx="798.744" cy="376.596" r="4" fill="#0" id="circle194"/>
	<circle cx="805.414" cy="70.7051" r="4" fill="#0" id="circle195"/>
	<circle cx="808.273" cy="376.596" r="4" fill="#0" id="circle196"/>
	<circle cx="814.943" cy="70.7051" r="4" fill="#0" id="circle197"/>
	<circle cx="817.802" cy="376.596" r="4" fill="#0" id="circle198"/>
	<circle cx="824.473" cy="70.7051" r="4" fill="#0" id="circle199"/>
	<circle cx="827.331" cy="376.596" r="4" fill="#0" id="circle200"/>
	<circle cx="834.002" cy="70.7051" r="4" fill="#0" id="circle201"/>
	<circle cx="836.861" cy="376.596" r="4" fill="#0" id="circle202"/>
	<circle cx="843.531" cy="70.7051" r="4" fill="#0" id="circle203"/>
	<circle cx="846.39" cy="376.596" r="4" fill="#0" id="circle204"/>
	<circle cx="853.061" cy="70.7051" r="4" fill="#0" id="circle205"/>
	<circle cx="855.919" cy="376.596" r="4" fill="#0" id="circle206"/>
	<circle cx="862.59" cy="70.7051" r="4" fill="#0" id="circle207"/>
	<circle cx="864.496" cy="371.831" r="4" fill="#0" id="circle208"/>
	<circle cx="872.119" cy="70.7051" r="4" fill="#0" id="circle209"/>
	<circle cx="874.025" cy="371.831" r="4" fill="#0" id="circle210"/>
	<circle cx="881.648" cy="70.7051" r="4" fill="#0" id="circle211"/>
	<circle cx="883.554" cy="371.831" r="4" fill="#0" id="circle212"/>
	<circle cx="891.178" cy="70.7051" r="4" fill="#0" id="circle213"/>
	<circle cx="892.131" cy="367.066" r="4" fill="#0" id="circle214"/>
	<circle cx="900.707" cy="70.7051" r="4" fill="#0" id="circle215"/>
	<circle cx="901.66" cy="367.066" r="4" fill="#0" id="circle216"/>
	<circle cx="910.236" cy="70.7051" r="4" fill="#0" id="circle217"/>
	<circle cx="911.189" cy="367.066" r="4" fill="#0" id="circle218"/>
	<circle cx="919.766" cy="70.7051" r="4" fill="#0" id="circle219"/>
	<circle cx="919.766" cy="362.302" r="4" fill="#0" id="circle220"/>
	<circle cx="924.53" cy="238.421" r="4" fill="#0" id="circle221"/>
	<circle cx="924.53" cy="247.95" r="4" fill="#0" id="circle222"/>
	<circle cx="924.53" cy="257.479" r="4" fill="#0" id="circle223"/>
	<circle cx="924.53" cy="267.009" r="4" fill="#0" id="circle224"/>
	<circle cx="924.53" cy="276.538" r="4" fill="#0" id="circle225"/>
	<circle cx="924.53" cy="286.067" r="4" fill="#0" id="circle226"/>
	<circle cx="924.53" cy="295.597" r="4" fill="#0" id="circle227"/>
	<circle cx="924.53" cy="305.126" r="4" fill="#0" id="circle228"/>
	<circle cx="924.53" cy="314.655" r="4" fill="#0" id="circle229"/>
	<circle cx="924.53" cy="324.184" r="4" fill="#0" id="circle230"/>
	<circle cx="924.53" cy="333.714" r="4" fill="#0" id="circle231"/>
	<circle cx="924.53" cy="343.243" r="4" fill="#0" id="circle232"/>
	<circle cx="924.53" cy="352.772" r="4" fill="#0" id="circle233"/>
	<circle cx="929.295" cy="70.7051" r="4" fill="#0" id="circle234"/>
	<circle cx="932.154" cy="231.75" r="4" fill="#0" id="circle235"/>
	<circle cx="938.824" cy="70.7051" r="4" fill="#0" id="circle236"/>
	<circle cx="938.824" cy="219.362" r="4" fill="#0" id="circle237"/>
	<circle cx="947.401" cy="214.598" r="4" fill="#0" id="circle238"/>
	<circle cx="948.354" cy="73.5639" r="4" fill="#0" id="circle239"/>
	<circle cx="955.024" cy="81.1873" r="4" fill="#0" id="circle240"/>
	<circle cx="955.024" cy="208.88" r="4" fill="#0" id="circle241"/>
	<circle cx="959.789" cy="199.351" r="4" fill="#0" id="circle242"/>
	<circle cx="962.647" cy="87.8578" r="4" fill="#0" id="circle243"/>
	<circle cx="969.318" cy="95.4813" r="4" fill="#0" id="circle244"/>
	<circle cx="969.318" cy="194.586" r="4" fill="#0" id="circle245"/>
	<circle cx="976.941" cy="102.152" r="4" fill="#0" id="circle246"/>
	<circle cx="976.941" cy="111.681" r="4" fill="#0" id="circle247"/>
	<circle cx="976.941" cy="186.01" r="4" fill="#0" id="circle248"/>
	<circle cx="981.706" cy="120.257" r="4" fill="#0" id="circle249"/>
	<circle cx="984.565" cy="179.339" r="4" fill="#0" id="circle250"/>
	<circle cx="986.471" cy="128.834" r="4" fill="#0" id="circle251"/>
	<circle cx="988.377" cy="138.363" r="4" fill="#0" id="circle252"/>
	<circle cx="991.235" cy="171.716" r="4" fill="#0" id="circle253"/>
	<circle cx="993.141" cy="146.939" r="4" fill="#0" id="circle254"/>
	<circle cx="996" cy="156.469" r="4" fill="#0" id="circle255"/>
	</g>
</svg>