<?xml version="1.0" encoding="UTF-8" standalone="no"?>
<!-- Created with CurveBenchmark -->
<svg
	xmlns:dc="http://purl.org/dc/elements/1.1/"
	xmlns:cc="http://creativecommons.org/ns#"
	xmlns:rdf="http://www.w3.org/1999/02/22-rdf-syntax-ns#"
	xmlns:svg="http://www.w3.org/2000/svg"
	xmlns="http://www.w3.org/2000/svg"
	xmlns:sodipodi="http://sodipodi.sourceforge.net/DTD/sodipodi-0.dtd"
	xmlns:inkscape="http://www.inkscape.org/namespaces/inkscape"
	width="1000"
	height="1000"
	id="svg2"
	version="1.1"
	sodipodi:docname="manifold/gathan1-bed250.png.txt">
<defs
	id="defs4" />
<metadata
	id="metadata7">
	<rdf:RDF>
		<cc:Work
			rdf:about="">
			<dc:format>image/svg+xml</dc:format>
			<dc:type
				rdf:resource="http://purl.org/dc/dcmitype/StillImage" />
			<dc:title></dc:title>
		</cc:Work>
	</rdf:RDF>
</metadata>
<g
	inkscape:label="Layer 1"
	inkscape:groupmode="layer"
	id="layer1">
	<path style="fill:none;stroke:red;stroke-width:1px;stroke-linecap:butt;stroke-linejoin:miter;stroke-opacity:1" d="M 103.368,251.579 111.789,236.421 z" id="boundary" inkscape:connector-curvature="0" />
	<path style="fill:none;stroke:red;stroke-width:1px;stroke-linecap:butt;stroke-linejoin:miter;stroke-opacity:1" d="M 103.368,251.579 88.2105,260 z" id="boundary" inkscape:connector-curvature="0" />
	<path style="fill:none;stroke:red;stroke-width:1px;stroke-linecap:butt;stroke-linejoin:miter;stroke-opacity:1" d="M 88.2105,260 76.4211,273.474 z" id="boundary" inkscape:connector-curvature="0" />
	<path style="fill:none;stroke:red;stroke-width:1px;stroke-linecap:butt;stroke-linejoin:miter;stroke-opacity:1" d="M 76.4211,273.474 59.5789,278.526 z" id="boundary" inkscape:connector-curvature="0" />
	<path style="fill:none;stroke:red;stroke-width:1px;stroke-linecap:butt;stroke-linejoin:miter;stroke-opacity:1" d="M 44.4211,286.947 59.5789,278.526 z" id="boundary" inkscape:connector-curvature="0" />
	<path style="fill:none;stroke:red;stroke-width:1px;stroke-linecap:butt;stroke-linejoin:miter;stroke-opacity:1" d="M 140.421,243.158 150.526,256.632 z" id="boundary" inkscape:connector-curvature="0" />
	<path style="fill:none;stroke:red;stroke-width:1px;stroke-linecap:butt;stroke-linejoin:miter;stroke-opacity:1" d="M 140.421,243.158 128.632,229.684 z" id="boundary" inkscape:connector-curvature="0" />
	<path style="fill:none;stroke:red;stroke-width:1px;stroke-linecap:butt;stroke-linejoin:miter;stroke-opacity:1" d="M 150.526,256.632 158.947,271.789 z" id="boundary" inkscape:connector-curvature="0" />
	<path style="fill:none;stroke:red;stroke-width:1px;stroke-linecap:butt;stroke-linejoin:miter;stroke-opacity:1" d="M 158.947,271.789 175.789,273.474 z" id="boundary" inkscape:connector-curvature="0" />
	<path style="fill:none;stroke:red;stroke-width:1px;stroke-linecap:butt;stroke-linejoin:miter;stroke-opacity:1" d="M 175.789,273.474 192.632,280.211 z" id="boundary" inkscape:connector-curvature="0" />
	<path style="fill:none;stroke:red;stroke-width:1px;stroke-linecap:butt;stroke-linejoin:miter;stroke-opacity:1" d="M 207.789,288.632 192.632,280.211 z" id="boundary" inkscape:connector-curvature="0" />
	<path style="fill:none;stroke:red;stroke-width:1px;stroke-linecap:butt;stroke-linejoin:miter;stroke-opacity:1" d="M 111.789,236.421 128.632,229.684 z" id="boundary" inkscape:connector-curvature="0" />
	<path style="fill:none;stroke:red;stroke-width:1px;stroke-linecap:butt;stroke-linejoin:miter;stroke-opacity:1" d="M 5.68421,350.947 4,334.105 z" id="boundary" inkscape:connector-curvature="0" />
	<path style="fill:none;stroke:red;stroke-width:1px;stroke-linecap:butt;stroke-linejoin:miter;stroke-opacity:1" d="M 5.68421,350.947 10.7368,367.789 z" id="boundary" inkscape:connector-curvature="0" />
	<path style="fill:none;stroke:red;stroke-width:1px;stroke-linecap:butt;stroke-linejoin:miter;stroke-opacity:1" d="M 10.7368,367.789 10.7368,384.632 z" id="boundary" inkscape:connector-curvature="0" />
	<path style="fill:none;stroke:red;stroke-width:1px;stroke-linecap:butt;stroke-linejoin:miter;stroke-opacity:1" d="M 10.7368,384.632 10.7368,401.474 z" id="boundary" inkscape:connector-curvature="0" />
	<path style="fill:none;stroke:red;stroke-width:1px;stroke-linecap:butt;stroke-linejoin:miter;stroke-opacity:1" d="M 4,334.105 4,317.263 z" id="boundary" inkscape:connector-curvature="0" />
	<path style="fill:none;stroke:red;stroke-width:1px;stroke-linecap:butt;stroke-linejoin:miter;stroke-opacity:1" d="M 4,317.263 14.1053,303.789 z" id="boundary" inkscape:connector-curvature="0" />
	<path style="fill:none;stroke:red;stroke-width:1px;stroke-linecap:butt;stroke-linejoin:miter;stroke-opacity:1" d="M 44.4211,286.947 29.2632,295.368 z" id="boundary" inkscape:connector-curvature="0" />
	<path style="fill:none;stroke:red;stroke-width:1px;stroke-linecap:butt;stroke-linejoin:miter;stroke-opacity:1" d="M 14.1053,303.789 29.2632,295.368 z" id="boundary" inkscape:connector-curvature="0" />
	<path style="fill:none;stroke:red;stroke-width:1px;stroke-linecap:butt;stroke-linejoin:miter;stroke-opacity:1" d="M 14.1053,418.316 10.7368,401.474 z" id="boundary" inkscape:connector-curvature="0" />
	<path style="fill:none;stroke:red;stroke-width:1px;stroke-linecap:butt;stroke-linejoin:miter;stroke-opacity:1" d="M 14.1053,418.316 14.1053,435.158 z" id="boundary" inkscape:connector-curvature="0" />
	<path style="fill:none;stroke:red;stroke-width:1px;stroke-linecap:butt;stroke-linejoin:miter;stroke-opacity:1" d="M 207.789,288.632 222.947,297.053 z" id="boundary" inkscape:connector-curvature="0" />
	<path style="fill:none;stroke:red;stroke-width:1px;stroke-linecap:butt;stroke-linejoin:miter;stroke-opacity:1" d="M 253.263,310.526 236.421,307.158 z" id="boundary" inkscape:connector-curvature="0" />
	<path style="fill:none;stroke:red;stroke-width:1px;stroke-linecap:butt;stroke-linejoin:miter;stroke-opacity:1" d="M 236.421,307.158 222.947,297.053 z" id="boundary" inkscape:connector-curvature="0" />
	<path style="fill:none;stroke:red;stroke-width:1px;stroke-linecap:butt;stroke-linejoin:miter;stroke-opacity:1" d="M 270.105,310.526 286.947,307.158 z" id="boundary" inkscape:connector-curvature="0" />
	<path style="fill:none;stroke:red;stroke-width:1px;stroke-linecap:butt;stroke-linejoin:miter;stroke-opacity:1" d="M 303.789,307.158 286.947,307.158 z" id="boundary" inkscape:connector-curvature="0" />
	<path style="fill:none;stroke:red;stroke-width:1px;stroke-linecap:butt;stroke-linejoin:miter;stroke-opacity:1" d="M 320.632,307.158 303.789,307.158 z" id="boundary" inkscape:connector-curvature="0" />
	<path style="fill:none;stroke:red;stroke-width:1px;stroke-linecap:butt;stroke-linejoin:miter;stroke-opacity:1" d="M 578.316,453.684 561.474,453.684 z" id="boundary" inkscape:connector-curvature="0" />
	<path style="fill:none;stroke:red;stroke-width:1px;stroke-linecap:butt;stroke-linejoin:miter;stroke-opacity:1" d="M 561.474,271.789 548,285.263 z" id="boundary" inkscape:connector-curvature="0" />
	<path style="fill:none;stroke:red;stroke-width:1px;stroke-linecap:butt;stroke-linejoin:miter;stroke-opacity:1" d="M 388,307.158 371.158,307.158 z" id="boundary" inkscape:connector-curvature="0" />
	<path style="fill:none;stroke:red;stroke-width:1px;stroke-linecap:butt;stroke-linejoin:miter;stroke-opacity:1" d="M 537.895,298.737 548,285.263 z" id="boundary" inkscape:connector-curvature="0" />
	<path style="fill:none;stroke:red;stroke-width:1px;stroke-linecap:butt;stroke-linejoin:miter;stroke-opacity:1" d="M 320.632,307.158 337.474,307.158 z" id="boundary" inkscape:connector-curvature="0" />
	<path style="fill:none;stroke:red;stroke-width:1px;stroke-linecap:butt;stroke-linejoin:miter;stroke-opacity:1" d="M 354.316,307.158 337.474,307.158 z" id="boundary" inkscape:connector-curvature="0" />
	<path style="fill:none;stroke:red;stroke-width:1px;stroke-linecap:butt;stroke-linejoin:miter;stroke-opacity:1" d="M 371.158,307.158 354.316,307.158 z" id="boundary" inkscape:connector-curvature="0" />
	<path style="fill:none;stroke:red;stroke-width:1px;stroke-linecap:butt;stroke-linejoin:miter;stroke-opacity:1" d="M 404.842,307.158 388,307.158 z" id="boundary" inkscape:connector-curvature="0" />
	<path style="fill:none;stroke:red;stroke-width:1px;stroke-linecap:butt;stroke-linejoin:miter;stroke-opacity:1" d="M 421.684,307.158 404.842,307.158 z" id="boundary" inkscape:connector-curvature="0" />
	<path style="fill:none;stroke:red;stroke-width:1px;stroke-linecap:butt;stroke-linejoin:miter;stroke-opacity:1" d="M 270.105,310.526 253.263,310.526 z" id="boundary" inkscape:connector-curvature="0" />
	<path style="fill:none;stroke:red;stroke-width:1px;stroke-linecap:butt;stroke-linejoin:miter;stroke-opacity:1" d="M 438.526,307.158 421.684,307.158 z" id="boundary" inkscape:connector-curvature="0" />
	<path style="fill:none;stroke:red;stroke-width:1px;stroke-linecap:butt;stroke-linejoin:miter;stroke-opacity:1" d="M 472.211,307.158 455.368,307.158 z" id="boundary" inkscape:connector-curvature="0" />
	<path style="fill:none;stroke:red;stroke-width:1px;stroke-linecap:butt;stroke-linejoin:miter;stroke-opacity:1" d="M 489.053,307.158 472.211,307.158 z" id="boundary" inkscape:connector-curvature="0" />
	<path style="fill:none;stroke:red;stroke-width:1px;stroke-linecap:butt;stroke-linejoin:miter;stroke-opacity:1" d="M 438.526,307.158 455.368,307.158 z" id="boundary" inkscape:connector-curvature="0" />
	<path style="fill:none;stroke:red;stroke-width:1px;stroke-linecap:butt;stroke-linejoin:miter;stroke-opacity:1" d="M 505.895,307.158 489.053,307.158 z" id="boundary" inkscape:connector-curvature="0" />
	<path style="fill:none;stroke:red;stroke-width:1px;stroke-linecap:butt;stroke-linejoin:miter;stroke-opacity:1" d="M 522.737,307.158 505.895,307.158 z" id="boundary" inkscape:connector-curvature="0" />
	<path style="fill:none;stroke:red;stroke-width:1px;stroke-linecap:butt;stroke-linejoin:miter;stroke-opacity:1" d="M 537.895,298.737 522.737,307.158 z" id="boundary" inkscape:connector-curvature="0" />
	<path style="fill:none;stroke:red;stroke-width:1px;stroke-linecap:butt;stroke-linejoin:miter;stroke-opacity:1" d="M 571.579,258.316 561.474,271.789 z" id="boundary" inkscape:connector-curvature="0" />
	<path style="fill:none;stroke:red;stroke-width:1px;stroke-linecap:butt;stroke-linejoin:miter;stroke-opacity:1" d="M 10.7368,455.368 14.1053,435.158 z" id="boundary" inkscape:connector-curvature="0" />
	<path style="fill:none;stroke:red;stroke-width:1px;stroke-linecap:butt;stroke-linejoin:miter;stroke-opacity:1" d="M 10.7368,455.368 4,482.316 z" id="boundary" inkscape:connector-curvature="0" />
	<path style="fill:none;stroke:red;stroke-width:1px;stroke-linecap:butt;stroke-linejoin:miter;stroke-opacity:1" d="M 62.9474,462.105 46.1053,467.158 z" id="boundary" inkscape:connector-curvature="0" />
	<path style="fill:none;stroke:red;stroke-width:1px;stroke-linecap:butt;stroke-linejoin:miter;stroke-opacity:1" d="M 46.1053,467.158 29.2632,462.105 z" id="boundary" inkscape:connector-curvature="0" />
	<path style="fill:none;stroke:red;stroke-width:1px;stroke-linecap:butt;stroke-linejoin:miter;stroke-opacity:1" d="M 182.526,462.105 165.684,460.421 z" id="boundary" inkscape:connector-curvature="0" />
	<path style="fill:none;stroke:red;stroke-width:1px;stroke-linecap:butt;stroke-linejoin:miter;stroke-opacity:1" d="M 196,472.211 182.526,462.105 z" id="boundary" inkscape:connector-curvature="0" />
	<path style="fill:none;stroke:red;stroke-width:1px;stroke-linecap:butt;stroke-linejoin:miter;stroke-opacity:1" d="M 152.211,473.895 165.684,460.421 z" id="boundary" inkscape:connector-curvature="0" />
	<path style="fill:none;stroke:red;stroke-width:1px;stroke-linecap:butt;stroke-linejoin:miter;stroke-opacity:1" d="M 138.737,487.368 152.211,473.895 z" id="boundary" inkscape:connector-curvature="0" />
	<path style="fill:none;stroke:red;stroke-width:1px;stroke-linecap:butt;stroke-linejoin:miter;stroke-opacity:1" d="M 62.9474,462.105 79.7895,463.789 z" id="boundary" inkscape:connector-curvature="0" />
	<path style="fill:none;stroke:red;stroke-width:1px;stroke-linecap:butt;stroke-linejoin:miter;stroke-opacity:1" d="M 79.7895,463.789 91.5789,477.263 z" id="boundary" inkscape:connector-curvature="0" />
	<path style="fill:none;stroke:red;stroke-width:1px;stroke-linecap:butt;stroke-linejoin:miter;stroke-opacity:1" d="M 9.05263,499.158 4,482.316 z" id="boundary" inkscape:connector-curvature="0" />
	<path style="fill:none;stroke:red;stroke-width:1px;stroke-linecap:butt;stroke-linejoin:miter;stroke-opacity:1" d="M 4,519.368 9.05263,499.158 z" id="boundary" inkscape:connector-curvature="0" />
	<path style="fill:none;stroke:red;stroke-width:1px;stroke-linecap:butt;stroke-linejoin:miter;stroke-opacity:1" d="M 20.8421,517.684 4,519.368 z" id="boundary" inkscape:connector-curvature="0" />
	<path style="fill:none;stroke:red;stroke-width:1px;stroke-linecap:butt;stroke-linejoin:miter;stroke-opacity:1" d="M 105.053,487.368 91.5789,477.263 z" id="boundary" inkscape:connector-curvature="0" />
	<path style="fill:none;stroke:red;stroke-width:1px;stroke-linecap:butt;stroke-linejoin:miter;stroke-opacity:1" d="M 121.895,494.105 138.737,487.368 z" id="boundary" inkscape:connector-curvature="0" />
	<path style="fill:none;stroke:red;stroke-width:1px;stroke-linecap:butt;stroke-linejoin:miter;stroke-opacity:1" d="M 121.895,494.105 105.053,487.368 z" id="boundary" inkscape:connector-curvature="0" />
	<path style="fill:none;stroke:red;stroke-width:1px;stroke-linecap:butt;stroke-linejoin:miter;stroke-opacity:1" d="M 219.579,495.789 219.579,519.368 z" id="boundary" inkscape:connector-curvature="0" />
	<path style="fill:none;stroke:red;stroke-width:1px;stroke-linecap:butt;stroke-linejoin:miter;stroke-opacity:1" d="M 209.474,460.421 241.474,455.368 z" id="boundary" inkscape:connector-curvature="0" />
	<path style="fill:none;stroke:red;stroke-width:1px;stroke-linecap:butt;stroke-linejoin:miter;stroke-opacity:1" d="M 258.316,453.684 275.158,453.684 z" id="boundary" inkscape:connector-curvature="0" />
	<path style="fill:none;stroke:red;stroke-width:1px;stroke-linecap:butt;stroke-linejoin:miter;stroke-opacity:1" d="M 258.316,453.684 241.474,455.368 z" id="boundary" inkscape:connector-curvature="0" />
	<path style="fill:none;stroke:red;stroke-width:1px;stroke-linecap:butt;stroke-linejoin:miter;stroke-opacity:1" d="M 292,453.684 308.842,453.684 z" id="boundary" inkscape:connector-curvature="0" />
	<path style="fill:none;stroke:red;stroke-width:1px;stroke-linecap:butt;stroke-linejoin:miter;stroke-opacity:1" d="M 292,453.684 275.158,453.684 z" id="boundary" inkscape:connector-curvature="0" />
	<path style="fill:none;stroke:red;stroke-width:1px;stroke-linecap:butt;stroke-linejoin:miter;stroke-opacity:1" d="M 308.842,453.684 325.684,453.684 z" id="boundary" inkscape:connector-curvature="0" />
	<path style="fill:none;stroke:red;stroke-width:1px;stroke-linecap:butt;stroke-linejoin:miter;stroke-opacity:1" d="M 342.526,453.684 359.368,453.684 z" id="boundary" inkscape:connector-curvature="0" />
	<path style="fill:none;stroke:red;stroke-width:1px;stroke-linecap:butt;stroke-linejoin:miter;stroke-opacity:1" d="M 342.526,453.684 325.684,453.684 z" id="boundary" inkscape:connector-curvature="0" />
	<path style="fill:none;stroke:red;stroke-width:1px;stroke-linecap:butt;stroke-linejoin:miter;stroke-opacity:1" d="M 359.368,453.684 376.211,453.684 z" id="boundary" inkscape:connector-curvature="0" />
	<path style="fill:none;stroke:red;stroke-width:1px;stroke-linecap:butt;stroke-linejoin:miter;stroke-opacity:1" d="M 393.053,453.684 409.895,453.684 z" id="boundary" inkscape:connector-curvature="0" />
	<path style="fill:none;stroke:red;stroke-width:1px;stroke-linecap:butt;stroke-linejoin:miter;stroke-opacity:1" d="M 393.053,453.684 376.211,453.684 z" id="boundary" inkscape:connector-curvature="0" />
	<path style="fill:none;stroke:red;stroke-width:1px;stroke-linecap:butt;stroke-linejoin:miter;stroke-opacity:1" d="M 409.895,453.684 426.737,453.684 z" id="boundary" inkscape:connector-curvature="0" />
	<path style="fill:none;stroke:red;stroke-width:1px;stroke-linecap:butt;stroke-linejoin:miter;stroke-opacity:1" d="M 426.737,453.684 443.579,453.684 z" id="boundary" inkscape:connector-curvature="0" />
	<path style="fill:none;stroke:red;stroke-width:1px;stroke-linecap:butt;stroke-linejoin:miter;stroke-opacity:1" d="M 443.579,453.684 460.421,453.684 z" id="boundary" inkscape:connector-curvature="0" />
	<path style="fill:none;stroke:red;stroke-width:1px;stroke-linecap:butt;stroke-linejoin:miter;stroke-opacity:1" d="M 236.421,514.316 219.579,519.368 z" id="boundary" inkscape:connector-curvature="0" />
	<path style="fill:none;stroke:red;stroke-width:1px;stroke-linecap:butt;stroke-linejoin:miter;stroke-opacity:1" d="M 238.105,485.684 236.421,514.316 z" id="boundary" inkscape:connector-curvature="0" />
	<path style="fill:none;stroke:red;stroke-width:1px;stroke-linecap:butt;stroke-linejoin:miter;stroke-opacity:1" d="M 460.421,453.684 477.263,453.684 z" id="boundary" inkscape:connector-curvature="0" />
	<path style="fill:none;stroke:red;stroke-width:1px;stroke-linecap:butt;stroke-linejoin:miter;stroke-opacity:1" d="M 477.263,453.684 494.105,453.684 z" id="boundary" inkscape:connector-curvature="0" />
	<path style="fill:none;stroke:red;stroke-width:1px;stroke-linecap:butt;stroke-linejoin:miter;stroke-opacity:1" d="M 510.947,453.684 527.789,453.684 z" id="boundary" inkscape:connector-curvature="0" />
	<path style="fill:none;stroke:red;stroke-width:1px;stroke-linecap:butt;stroke-linejoin:miter;stroke-opacity:1" d="M 544.632,453.684 527.789,453.684 z" id="boundary" inkscape:connector-curvature="0" />
	<path style="fill:none;stroke:red;stroke-width:1px;stroke-linecap:butt;stroke-linejoin:miter;stroke-opacity:1" d="M 510.947,453.684 494.105,453.684 z" id="boundary" inkscape:connector-curvature="0" />
	<path style="fill:none;stroke:red;stroke-width:1px;stroke-linecap:butt;stroke-linejoin:miter;stroke-opacity:1" d="M 544.632,453.684 561.474,453.684 z" id="boundary" inkscape:connector-curvature="0" />
	<path style="fill:none;stroke:red;stroke-width:1px;stroke-linecap:butt;stroke-linejoin:miter;stroke-opacity:1" d="M 775.368,128.632 775.368,145.474 z" id="boundary" inkscape:connector-curvature="0" />
	<path style="fill:none;stroke:red;stroke-width:1px;stroke-linecap:butt;stroke-linejoin:miter;stroke-opacity:1" d="M 775.368,128.632 783.789,113.474 z" id="boundary" inkscape:connector-curvature="0" />
	<path style="fill:none;stroke:red;stroke-width:1px;stroke-linecap:butt;stroke-linejoin:miter;stroke-opacity:1" d="M 741.684,196 758.526,192.632 z" id="boundary" inkscape:connector-curvature="0" />
	<path style="fill:none;stroke:red;stroke-width:1px;stroke-linecap:butt;stroke-linejoin:miter;stroke-opacity:1" d="M 728.211,206.105 741.684,196 z" id="boundary" inkscape:connector-curvature="0" />
	<path style="fill:none;stroke:red;stroke-width:1px;stroke-linecap:butt;stroke-linejoin:miter;stroke-opacity:1" d="M 782.105,162.316 775.368,189.263 z" id="boundary" inkscape:connector-curvature="0" />
	<path style="fill:none;stroke:red;stroke-width:1px;stroke-linecap:butt;stroke-linejoin:miter;stroke-opacity:1" d="M 775.368,189.263 758.526,192.632 z" id="boundary" inkscape:connector-curvature="0" />
	<path style="fill:none;stroke:red;stroke-width:1px;stroke-linecap:butt;stroke-linejoin:miter;stroke-opacity:1" d="M 775.368,145.474 782.105,162.316 z" id="boundary" inkscape:connector-curvature="0" />
	<path style="fill:none;stroke:red;stroke-width:1px;stroke-linecap:butt;stroke-linejoin:miter;stroke-opacity:1" d="M 807.368,88.2105 820.842,78.1053 z" id="boundary" inkscape:connector-curvature="0" />
	<path style="fill:none;stroke:red;stroke-width:1px;stroke-linecap:butt;stroke-linejoin:miter;stroke-opacity:1" d="M 837.684,69.6842 820.842,78.1053 z" id="boundary" inkscape:connector-curvature="0" />
	<path style="fill:none;stroke:red;stroke-width:1px;stroke-linecap:butt;stroke-linejoin:miter;stroke-opacity:1" d="M 842.737,51.1579 837.684,69.6842 z" id="boundary" inkscape:connector-curvature="0" />
	<path style="fill:none;stroke:red;stroke-width:1px;stroke-linecap:butt;stroke-linejoin:miter;stroke-opacity:1" d="M 783.789,113.474 793.895,100 z" id="boundary" inkscape:connector-curvature="0" />
	<path style="fill:none;stroke:red;stroke-width:1px;stroke-linecap:butt;stroke-linejoin:miter;stroke-opacity:1" d="M 793.895,100 807.368,88.2105 z" id="boundary" inkscape:connector-curvature="0" />
	<path style="fill:none;stroke:red;stroke-width:1px;stroke-linecap:butt;stroke-linejoin:miter;stroke-opacity:1" d="M 613.684,226.316 630.526,222.947 z" id="boundary" inkscape:connector-curvature="0" />
	<path style="fill:none;stroke:red;stroke-width:1px;stroke-linecap:butt;stroke-linejoin:miter;stroke-opacity:1" d="M 598.526,234.737 613.684,226.316 z" id="boundary" inkscape:connector-curvature="0" />
	<path style="fill:none;stroke:red;stroke-width:1px;stroke-linecap:butt;stroke-linejoin:miter;stroke-opacity:1" d="M 647.368,216.211 630.526,222.947 z" id="boundary" inkscape:connector-curvature="0" />
	<path style="fill:none;stroke:red;stroke-width:1px;stroke-linecap:butt;stroke-linejoin:miter;stroke-opacity:1" d="M 585.053,244.842 598.526,234.737 z" id="boundary" inkscape:connector-curvature="0" />
	<path style="fill:none;stroke:red;stroke-width:1px;stroke-linecap:butt;stroke-linejoin:miter;stroke-opacity:1" d="M 585.053,244.842 571.579,258.316 z" id="boundary" inkscape:connector-curvature="0" />
	<path style="fill:none;stroke:red;stroke-width:1px;stroke-linecap:butt;stroke-linejoin:miter;stroke-opacity:1" d="M 681.053,212.842 664.211,212.842 z" id="boundary" inkscape:connector-curvature="0" />
	<path style="fill:none;stroke:red;stroke-width:1px;stroke-linecap:butt;stroke-linejoin:miter;stroke-opacity:1" d="M 697.895,214.526 681.053,212.842 z" id="boundary" inkscape:connector-curvature="0" />
	<path style="fill:none;stroke:red;stroke-width:1px;stroke-linecap:butt;stroke-linejoin:miter;stroke-opacity:1" d="M 647.368,216.211 664.211,212.842 z" id="boundary" inkscape:connector-curvature="0" />
	<path style="fill:none;stroke:red;stroke-width:1px;stroke-linecap:butt;stroke-linejoin:miter;stroke-opacity:1" d="M 714.737,216.211 697.895,214.526 z" id="boundary" inkscape:connector-curvature="0" />
	<path style="fill:none;stroke:red;stroke-width:1px;stroke-linecap:butt;stroke-linejoin:miter;stroke-opacity:1" d="M 728.211,206.105 714.737,216.211 z" id="boundary" inkscape:connector-curvature="0" />
	<path style="fill:none;stroke:red;stroke-width:1px;stroke-linecap:butt;stroke-linejoin:miter;stroke-opacity:1" d="M 866.316,4 883.158,4 z" id="boundary" inkscape:connector-curvature="0" />
	<path style="fill:none;stroke:red;stroke-width:1px;stroke-linecap:butt;stroke-linejoin:miter;stroke-opacity:1" d="M 862.947,20.8421 866.316,4 z" id="boundary" inkscape:connector-curvature="0" />
	<path style="fill:none;stroke:red;stroke-width:1px;stroke-linecap:butt;stroke-linejoin:miter;stroke-opacity:1" d="M 862.947,20.8421 856.211,37.6842 z" id="boundary" inkscape:connector-curvature="0" />
	<path style="fill:none;stroke:red;stroke-width:1px;stroke-linecap:butt;stroke-linejoin:miter;stroke-opacity:1" d="M 856.211,37.6842 842.737,51.1579 z" id="boundary" inkscape:connector-curvature="0" />
	<path style="fill:none;stroke:red;stroke-width:1px;stroke-linecap:butt;stroke-linejoin:miter;stroke-opacity:1" d="M 883.158,4 888.211,20.8421 z" id="boundary" inkscape:connector-curvature="0" />
	<path style="fill:none;stroke:red;stroke-width:1px;stroke-linecap:butt;stroke-linejoin:miter;stroke-opacity:1" d="M 906.737,49.4737 893.263,37.6842 z" id="boundary" inkscape:connector-curvature="0" />
	<path style="fill:none;stroke:red;stroke-width:1px;stroke-linecap:butt;stroke-linejoin:miter;stroke-opacity:1" d="M 893.263,37.6842 888.211,20.8421 z" id="boundary" inkscape:connector-curvature="0" />
	<path style="fill:none;stroke:red;stroke-width:1px;stroke-linecap:butt;stroke-linejoin:miter;stroke-opacity:1" d="M 906.737,49.4737 915.158,64.6316 z" id="boundary" inkscape:connector-curvature="0" />
	<path style="fill:none;stroke:red;stroke-width:1px;stroke-linecap:butt;stroke-linejoin:miter;stroke-opacity:1" d="M 915.158,64.6316 932,71.3684 z" id="boundary" inkscape:connector-curvature="0" />
	<path style="fill:none;stroke:red;stroke-width:1px;stroke-linecap:butt;stroke-linejoin:miter;stroke-opacity:1" d="M 948.842,78.1053 932,71.3684 z" id="boundary" inkscape:connector-curvature="0" />
	<path style="fill:none;stroke:red;stroke-width:1px;stroke-linecap:butt;stroke-linejoin:miter;stroke-opacity:1" d="M 962.316,88.2105 948.842,78.1053 z" id="boundary" inkscape:connector-curvature="0" />
	<path style="fill:none;stroke:red;stroke-width:1px;stroke-linecap:butt;stroke-linejoin:miter;stroke-opacity:1" d="M 974.105,101.684 985.895,115.158 z" id="boundary" inkscape:connector-curvature="0" />
	<path style="fill:none;stroke:red;stroke-width:1px;stroke-linecap:butt;stroke-linejoin:miter;stroke-opacity:1" d="M 989.263,158.947 989.263,175.789 z" id="boundary" inkscape:connector-curvature="0" />
	<path style="fill:none;stroke:red;stroke-width:1px;stroke-linecap:butt;stroke-linejoin:miter;stroke-opacity:1" d="M 989.263,158.947 992.632,132 z" id="boundary" inkscape:connector-curvature="0" />
	<path style="fill:none;stroke:red;stroke-width:1px;stroke-linecap:butt;stroke-linejoin:miter;stroke-opacity:1" d="M 989.263,192.632 989.263,175.789 z" id="boundary" inkscape:connector-curvature="0" />
	<path style="fill:none;stroke:red;stroke-width:1px;stroke-linecap:butt;stroke-linejoin:miter;stroke-opacity:1" d="M 985.895,115.158 992.632,132 z" id="boundary" inkscape:connector-curvature="0" />
	<path style="fill:none;stroke:red;stroke-width:1px;stroke-linecap:butt;stroke-linejoin:miter;stroke-opacity:1" d="M 989.263,192.632 989.263,209.474 z" id="boundary" inkscape:connector-curvature="0" />
	<path style="fill:none;stroke:red;stroke-width:1px;stroke-linecap:butt;stroke-linejoin:miter;stroke-opacity:1" d="M 989.263,226.316 989.263,209.474 z" id="boundary" inkscape:connector-curvature="0" />
	<path style="fill:none;stroke:red;stroke-width:1px;stroke-linecap:butt;stroke-linejoin:miter;stroke-opacity:1" d="M 989.263,243.158 989.263,226.316 z" id="boundary" inkscape:connector-curvature="0" />
	<path style="fill:none;stroke:red;stroke-width:1px;stroke-linecap:butt;stroke-linejoin:miter;stroke-opacity:1" d="M 989.263,243.158 989.263,260 z" id="boundary" inkscape:connector-curvature="0" />
	<path style="fill:none;stroke:red;stroke-width:1px;stroke-linecap:butt;stroke-linejoin:miter;stroke-opacity:1" d="M 989.263,276.842 989.263,260 z" id="boundary" inkscape:connector-curvature="0" />
	<path style="fill:none;stroke:red;stroke-width:1px;stroke-linecap:butt;stroke-linejoin:miter;stroke-opacity:1" d="M 962.316,88.2105 974.105,101.684 z" id="boundary" inkscape:connector-curvature="0" />
	<path style="fill:none;stroke:red;stroke-width:1px;stroke-linecap:butt;stroke-linejoin:miter;stroke-opacity:1" d="M 989.263,276.842 989.263,293.684 z" id="boundary" inkscape:connector-curvature="0" />
	<path style="fill:none;stroke:red;stroke-width:1px;stroke-linecap:butt;stroke-linejoin:miter;stroke-opacity:1" d="M 578.316,453.684 595.158,453.684 z" id="boundary" inkscape:connector-curvature="0" />
	<path style="fill:none;stroke:red;stroke-width:1px;stroke-linecap:butt;stroke-linejoin:miter;stroke-opacity:1" d="M 612,453.684 628.842,453.684 z" id="boundary" inkscape:connector-curvature="0" />
	<path style="fill:none;stroke:red;stroke-width:1px;stroke-linecap:butt;stroke-linejoin:miter;stroke-opacity:1" d="M 645.684,453.684 628.842,453.684 z" id="boundary" inkscape:connector-curvature="0" />
	<path style="fill:none;stroke:red;stroke-width:1px;stroke-linecap:butt;stroke-linejoin:miter;stroke-opacity:1" d="M 612,453.684 595.158,453.684 z" id="boundary" inkscape:connector-curvature="0" />
	<path style="fill:none;stroke:red;stroke-width:1px;stroke-linecap:butt;stroke-linejoin:miter;stroke-opacity:1" d="M 662.526,453.684 679.368,453.684 z" id="boundary" inkscape:connector-curvature="0" />
	<path style="fill:none;stroke:red;stroke-width:1px;stroke-linecap:butt;stroke-linejoin:miter;stroke-opacity:1" d="M 696.211,453.684 679.368,453.684 z" id="boundary" inkscape:connector-curvature="0" />
	<path style="fill:none;stroke:red;stroke-width:1px;stroke-linecap:butt;stroke-linejoin:miter;stroke-opacity:1" d="M 713.053,453.684 729.895,453.684 z" id="boundary" inkscape:connector-curvature="0" />
	<path style="fill:none;stroke:red;stroke-width:1px;stroke-linecap:butt;stroke-linejoin:miter;stroke-opacity:1" d="M 746.737,453.684 729.895,453.684 z" id="boundary" inkscape:connector-curvature="0" />
	<path style="fill:none;stroke:red;stroke-width:1px;stroke-linecap:butt;stroke-linejoin:miter;stroke-opacity:1" d="M 713.053,453.684 696.211,453.684 z" id="boundary" inkscape:connector-curvature="0" />
	<path style="fill:none;stroke:red;stroke-width:1px;stroke-linecap:butt;stroke-linejoin:miter;stroke-opacity:1" d="M 662.526,453.684 645.684,453.684 z" id="boundary" inkscape:connector-curvature="0" />
	<path style="fill:none;stroke:red;stroke-width:1px;stroke-linecap:butt;stroke-linejoin:miter;stroke-opacity:1" d="M 763.579,453.684 778.737,462.105 z" id="boundary" inkscape:connector-curvature="0" />
	<path style="fill:none;stroke:red;stroke-width:1px;stroke-linecap:butt;stroke-linejoin:miter;stroke-opacity:1" d="M 778.737,495.789 775.368,519.368 z" id="boundary" inkscape:connector-curvature="0" />
	<path style="fill:none;stroke:red;stroke-width:1px;stroke-linecap:butt;stroke-linejoin:miter;stroke-opacity:1" d="M 778.737,478.947 778.737,495.789 z" id="boundary" inkscape:connector-curvature="0" />
	<path style="fill:none;stroke:red;stroke-width:1px;stroke-linecap:butt;stroke-linejoin:miter;stroke-opacity:1" d="M 790.526,509.263 775.368,519.368 z" id="boundary" inkscape:connector-curvature="0" />
	<path style="fill:none;stroke:red;stroke-width:1px;stroke-linecap:butt;stroke-linejoin:miter;stroke-opacity:1" d="M 746.737,453.684 763.579,453.684 z" id="boundary" inkscape:connector-curvature="0" />
	<path style="fill:none;stroke:red;stroke-width:1px;stroke-linecap:butt;stroke-linejoin:miter;stroke-opacity:1" d="M 798.947,453.684 815.789,453.684 z" id="boundary" inkscape:connector-curvature="0" />
	<path style="fill:none;stroke:red;stroke-width:1px;stroke-linecap:butt;stroke-linejoin:miter;stroke-opacity:1" d="M 832.632,453.684 815.789,453.684 z" id="boundary" inkscape:connector-curvature="0" />
	<path style="fill:none;stroke:red;stroke-width:1px;stroke-linecap:butt;stroke-linejoin:miter;stroke-opacity:1" d="M 832.632,453.684 849.474,453.684 z" id="boundary" inkscape:connector-curvature="0" />
	<path style="fill:none;stroke:red;stroke-width:1px;stroke-linecap:butt;stroke-linejoin:miter;stroke-opacity:1" d="M 849.474,453.684 866.316,453.684 z" id="boundary" inkscape:connector-curvature="0" />
	<path style="fill:none;stroke:red;stroke-width:1px;stroke-linecap:butt;stroke-linejoin:miter;stroke-opacity:1" d="M 989.263,293.684 992.632,310.526 z" id="boundary" inkscape:connector-curvature="0" />
	<path style="fill:none;stroke:red;stroke-width:1px;stroke-linecap:butt;stroke-linejoin:miter;stroke-opacity:1" d="M 992.632,310.526 992.632,327.368 z" id="boundary" inkscape:connector-curvature="0" />
	<path style="fill:none;stroke:red;stroke-width:1px;stroke-linecap:butt;stroke-linejoin:miter;stroke-opacity:1" d="M 883.158,453.684 866.316,453.684 z" id="boundary" inkscape:connector-curvature="0" />
	<path style="fill:none;stroke:red;stroke-width:1px;stroke-linecap:butt;stroke-linejoin:miter;stroke-opacity:1" d="M 992.632,327.368 992.632,344.211 z" id="boundary" inkscape:connector-curvature="0" />
	<path style="fill:none;stroke:red;stroke-width:1px;stroke-linecap:butt;stroke-linejoin:miter;stroke-opacity:1" d="M 992.632,344.211 992.632,361.053 z" id="boundary" inkscape:connector-curvature="0" />
	<path style="fill:none;stroke:red;stroke-width:1px;stroke-linecap:butt;stroke-linejoin:miter;stroke-opacity:1" d="M 992.632,377.895 992.632,361.053 z" id="boundary" inkscape:connector-curvature="0" />
	<path style="fill:none;stroke:red;stroke-width:1px;stroke-linecap:butt;stroke-linejoin:miter;stroke-opacity:1" d="M 996,394.737 992.632,377.895 z" id="boundary" inkscape:connector-curvature="0" />
	<path style="fill:none;stroke:red;stroke-width:1px;stroke-linecap:butt;stroke-linejoin:miter;stroke-opacity:1" d="M 900,453.684 883.158,453.684 z" id="boundary" inkscape:connector-curvature="0" />
	<path style="fill:none;stroke:red;stroke-width:1px;stroke-linecap:butt;stroke-linejoin:miter;stroke-opacity:1" d="M 996,394.737 996,411.579 z" id="boundary" inkscape:connector-curvature="0" />
	<path style="fill:none;stroke:red;stroke-width:1px;stroke-linecap:butt;stroke-linejoin:miter;stroke-opacity:1" d="M 992.632,428.421 996,411.579 z" id="boundary" inkscape:connector-curvature="0" />
	<path style="fill:none;stroke:red;stroke-width:1px;stroke-linecap:butt;stroke-linejoin:miter;stroke-opacity:1" d="M 989.263,455.368 992.632,428.421 z" id="boundary" inkscape:connector-curvature="0" />
	<path style="fill:none;stroke:red;stroke-width:1px;stroke-linecap:butt;stroke-linejoin:miter;stroke-opacity:1" d="M 900,453.684 916.842,453.684 z" id="boundary" inkscape:connector-curvature="0" />
	<path style="fill:none;stroke:red;stroke-width:1px;stroke-linecap:butt;stroke-linejoin:miter;stroke-opacity:1" d="M 933.684,453.684 916.842,453.684 z" id="boundary" inkscape:connector-curvature="0" />
	<path style="fill:none;stroke:red;stroke-width:1px;stroke-linecap:butt;stroke-linejoin:miter;stroke-opacity:1" d="M 950.526,453.684 967.368,453.684 z" id="boundary" inkscape:connector-curvature="0" />
	<path style="fill:none;stroke:red;stroke-width:1px;stroke-linecap:butt;stroke-linejoin:miter;stroke-opacity:1" d="M 933.684,453.684 950.526,453.684 z" id="boundary" inkscape:connector-curvature="0" />
	<path style="fill:none;stroke:red;stroke-width:1px;stroke-linecap:butt;stroke-linejoin:miter;stroke-opacity:1" d="M 967.368,470.526 967.368,487.368 z" id="boundary" inkscape:connector-curvature="0" />
	<path style="fill:none;stroke:red;stroke-width:1px;stroke-linecap:butt;stroke-linejoin:miter;stroke-opacity:1" d="M 989.263,455.368 985.895,472.211 z" id="boundary" inkscape:connector-curvature="0" />
	<path style="fill:none;stroke:red;stroke-width:1px;stroke-linecap:butt;stroke-linejoin:miter;stroke-opacity:1" d="M 985.895,489.053 985.895,472.211 z" id="boundary" inkscape:connector-curvature="0" />
	<path style="fill:none;stroke:red;stroke-width:1px;stroke-linecap:butt;stroke-linejoin:miter;stroke-opacity:1" d="M 985.895,489.053 984.211,517.684 z" id="boundary" inkscape:connector-curvature="0" />
	<path style="fill:none;stroke:red;stroke-width:1px;stroke-linecap:butt;stroke-linejoin:miter;stroke-opacity:1" d="M 984.211,517.684 967.368,516 z" id="boundary" inkscape:connector-curvature="0" />
	<path style="fill:none;stroke:red;stroke-width:1px;stroke-linecap:butt;stroke-linejoin:miter;stroke-opacity:1" d="M 967.368,516 967.368,487.368 z" id="boundary" inkscape:connector-curvature="0" />
	<circle cx="4" cy="317.263" r="4" fill="#0" id="circle0"/>
	<circle cx="4" cy="334.105" r="4" fill="#0" id="circle1"/>
	<circle cx="4" cy="482.316" r="4" fill="#0" id="circle2"/>
	<circle cx="4" cy="519.368" r="4" fill="#0" id="circle3"/>
	<circle cx="5.68421" cy="350.947" r="4" fill="#0" id="circle4"/>
	<circle cx="9.05263" cy="499.158" r="4" fill="#0" id="circle5"/>
	<circle cx="10.7368" cy="367.789" r="4" fill="#0" id="circle6"/>
	<circle cx="10.7368" cy="384.632" r="4" fill="#0" id="circle7"/>
	<circle cx="10.7368" cy="401.474" r="4" fill="#0" id="circle8"/>
	<circle cx="10.7368" cy="455.368" r="4" fill="#0" id="circle9"/>
	<circle cx="14.1053" cy="303.789" r="4" fill="#0" id="circle10"/>
	<circle cx="14.1053" cy="418.316" r="4" fill="#0" id="circle11"/>
	<circle cx="14.1053" cy="435.158" r="4" fill="#0" id="circle12"/>
	<circle cx="20.8421" cy="517.684" r="4" fill="#0" id="circle13"/>
	<circle cx="22.5263" cy="482.316" r="4" fill="#0" id="circle14"/>
	<circle cx="29.2632" cy="295.368" r="4" fill="#0" id="circle15"/>
	<circle cx="29.2632" cy="462.105" r="4" fill="#0" id="circle16"/>
	<circle cx="44.4211" cy="286.947" r="4" fill="#0" id="circle17"/>
	<circle cx="46.1053" cy="467.158" r="4" fill="#0" id="circle18"/>
	<circle cx="59.5789" cy="278.526" r="4" fill="#0" id="circle19"/>
	<circle cx="62.9474" cy="462.105" r="4" fill="#0" id="circle20"/>
	<circle cx="76.4211" cy="273.474" r="4" fill="#0" id="circle21"/>
	<circle cx="79.7895" cy="463.789" r="4" fill="#0" id="circle22"/>
	<circle cx="88.2105" cy="260" r="4" fill="#0" id="circle23"/>
	<circle cx="91.5789" cy="477.263" r="4" fill="#0" id="circle24"/>
	<circle cx="103.368" cy="251.579" r="4" fill="#0" id="circle25"/>
	<circle cx="105.053" cy="487.368" r="4" fill="#0" id="circle26"/>
	<circle cx="111.789" cy="236.421" r="4" fill="#0" id="circle27"/>
	<circle cx="121.895" cy="494.105" r="4" fill="#0" id="circle28"/>
	<circle cx="128.632" cy="229.684" r="4" fill="#0" id="circle29"/>
	<circle cx="138.737" cy="487.368" r="4" fill="#0" id="circle30"/>
	<circle cx="140.421" cy="243.158" r="4" fill="#0" id="circle31"/>
	<circle cx="150.526" cy="256.632" r="4" fill="#0" id="circle32"/>
	<circle cx="152.211" cy="473.895" r="4" fill="#0" id="circle33"/>
	<circle cx="158.947" cy="271.789" r="4" fill="#0" id="circle34"/>
	<circle cx="165.684" cy="460.421" r="4" fill="#0" id="circle35"/>
	<circle cx="175.789" cy="273.474" r="4" fill="#0" id="circle36"/>
	<circle cx="182.526" cy="462.105" r="4" fill="#0" id="circle37"/>
	<circle cx="192.632" cy="280.211" r="4" fill="#0" id="circle38"/>
	<circle cx="196" cy="472.211" r="4" fill="#0" id="circle39"/>
	<circle cx="207.789" cy="288.632" r="4" fill="#0" id="circle40"/>
	<circle cx="209.474" cy="460.421" r="4" fill="#0" id="circle41"/>
	<circle cx="216.211" cy="478.947" r="4" fill="#0" id="circle42"/>
	<circle cx="219.579" cy="495.789" r="4" fill="#0" id="circle43"/>
	<circle cx="219.579" cy="519.368" r="4" fill="#0" id="circle44"/>
	<circle cx="222.947" cy="297.053" r="4" fill="#0" id="circle45"/>
	<circle cx="236.421" cy="307.158" r="4" fill="#0" id="circle46"/>
	<circle cx="236.421" cy="514.316" r="4" fill="#0" id="circle47"/>
	<circle cx="238.105" cy="485.684" r="4" fill="#0" id="circle48"/>
	<circle cx="241.474" cy="455.368" r="4" fill="#0" id="circle49"/>
	<circle cx="253.263" cy="310.526" r="4" fill="#0" id="circle50"/>
	<circle cx="258.316" cy="453.684" r="4" fill="#0" id="circle51"/>
	<circle cx="270.105" cy="310.526" r="4" fill="#0" id="circle52"/>
	<circle cx="275.158" cy="453.684" r="4" fill="#0" id="circle53"/>
	<circle cx="286.947" cy="307.158" r="4" fill="#0" id="circle54"/>
	<circle cx="292" cy="453.684" r="4" fill="#0" id="circle55"/>
	<circle cx="303.789" cy="307.158" r="4" fill="#0" id="circle56"/>
	<circle cx="308.842" cy="453.684" r="4" fill="#0" id="circle57"/>
	<circle cx="320.632" cy="307.158" r="4" fill="#0" id="circle58"/>
	<circle cx="325.684" cy="453.684" r="4" fill="#0" id="circle59"/>
	<circle cx="337.474" cy="307.158" r="4" fill="#0" id="circle60"/>
	<circle cx="342.526" cy="453.684" r="4" fill="#0" id="circle61"/>
	<circle cx="354.316" cy="307.158" r="4" fill="#0" id="circle62"/>
	<circle cx="359.368" cy="453.684" r="4" fill="#0" id="circle63"/>
	<circle cx="371.158" cy="307.158" r="4" fill="#0" id="circle64"/>
	<circle cx="376.211" cy="453.684" r="4" fill="#0" id="circle65"/>
	<circle cx="388" cy="307.158" r="4" fill="#0" id="circle66"/>
	<circle cx="393.053" cy="453.684" r="4" fill="#0" id="circle67"/>
	<circle cx="404.842" cy="307.158" r="4" fill="#0" id="circle68"/>
	<circle cx="409.895" cy="453.684" r="4" fill="#0" id="circle69"/>
	<circle cx="421.684" cy="307.158" r="4" fill="#0" id="circle70"/>
	<circle cx="426.737" cy="453.684" r="4" fill="#0" id="circle71"/>
	<circle cx="438.526" cy="307.158" r="4" fill="#0" id="circle72"/>
	<circle cx="443.579" cy="453.684" r="4" fill="#0" id="circle73"/>
	<circle cx="455.368" cy="307.158" r="4" fill="#0" id="circle74"/>
	<circle cx="460.421" cy="453.684" r="4" fill="#0" id="circle75"/>
	<circle cx="472.211" cy="307.158" r="4" fill="#0" id="circle76"/>
	<circle cx="477.263" cy="453.684" r="4" fill="#0" id="circle77"/>
	<circle cx="489.053" cy="307.158" r="4" fill="#0" id="circle78"/>
	<circle cx="494.105" cy="453.684" r="4" fill="#0" id="circle79"/>
	<circle cx="505.895" cy="307.158" r="4" fill="#0" id="circle80"/>
	<circle cx="510.947" cy="453.684" r="4" fill="#0" id="circle81"/>
	<circle cx="522.737" cy="307.158" r="4" fill="#0" id="circle82"/>
	<circle cx="527.789" cy="453.684" r="4" fill="#0" id="circle83"/>
	<circle cx="537.895" cy="298.737" r="4" fill="#0" id="circle84"/>
	<circle cx="544.632" cy="453.684" r="4" fill="#0" id="circle85"/>
	<circle cx="548" cy="285.263" r="4" fill="#0" id="circle86"/>
	<circle cx="561.474" cy="271.789" r="4" fill="#0" id="circle87"/>
	<circle cx="561.474" cy="453.684" r="4" fill="#0" id="circle88"/>
	<circle cx="571.579" cy="258.316" r="4" fill="#0" id="circle89"/>
	<circle cx="578.316" cy="453.684" r="4" fill="#0" id="circle90"/>
	<circle cx="585.053" cy="244.842" r="4" fill="#0" id="circle91"/>
	<circle cx="595.158" cy="453.684" r="4" fill="#0" id="circle92"/>
	<circle cx="598.526" cy="234.737" r="4" fill="#0" id="circle93"/>
	<circle cx="612" cy="453.684" r="4" fill="#0" id="circle94"/>
	<circle cx="613.684" cy="226.316" r="4" fill="#0" id="circle95"/>
	<circle cx="628.842" cy="453.684" r="4" fill="#0" id="circle96"/>
	<circle cx="630.526" cy="222.947" r="4" fill="#0" id="circle97"/>
	<circle cx="645.684" cy="453.684" r="4" fill="#0" id="circle98"/>
	<circle cx="647.368" cy="216.211" r="4" fill="#0" id="circle99"/>
	<circle cx="662.526" cy="453.684" r="4" fill="#0" id="circle100"/>
	<circle cx="664.211" cy="212.842" r="4" fill="#0" id="circle101"/>
	<circle cx="679.368" cy="453.684" r="4" fill="#0" id="circle102"/>
	<circle cx="681.053" cy="212.842" r="4" fill="#0" id="circle103"/>
	<circle cx="696.211" cy="453.684" r="4" fill="#0" id="circle104"/>
	<circle cx="697.895" cy="214.526" r="4" fill="#0" id="circle105"/>
	<circle cx="713.053" cy="453.684" r="4" fill="#0" id="circle106"/>
	<circle cx="714.737" cy="216.211" r="4" fill="#0" id="circle107"/>
	<circle cx="728.211" cy="206.105" r="4" fill="#0" id="circle108"/>
	<circle cx="729.895" cy="453.684" r="4" fill="#0" id="circle109"/>
	<circle cx="741.684" cy="196" r="4" fill="#0" id="circle110"/>
	<circle cx="746.737" cy="453.684" r="4" fill="#0" id="circle111"/>
	<circle cx="758.526" cy="192.632" r="4" fill="#0" id="circle112"/>
	<circle cx="763.579" cy="453.684" r="4" fill="#0" id="circle113"/>
	<circle cx="775.368" cy="128.632" r="4" fill="#0" id="circle114"/>
	<circle cx="775.368" cy="145.474" r="4" fill="#0" id="circle115"/>
	<circle cx="775.368" cy="189.263" r="4" fill="#0" id="circle116"/>
	<circle cx="775.368" cy="519.368" r="4" fill="#0" id="circle117"/>
	<circle cx="778.737" cy="462.105" r="4" fill="#0" id="circle118"/>
	<circle cx="778.737" cy="478.947" r="4" fill="#0" id="circle119"/>
	<circle cx="778.737" cy="495.789" r="4" fill="#0" id="circle120"/>
	<circle cx="782.105" cy="162.316" r="4" fill="#0" id="circle121"/>
	<circle cx="783.789" cy="113.474" r="4" fill="#0" id="circle122"/>
	<circle cx="790.526" cy="509.263" r="4" fill="#0" id="circle123"/>
	<circle cx="793.895" cy="100" r="4" fill="#0" id="circle124"/>
	<circle cx="793.895" cy="470.526" r="4" fill="#0" id="circle125"/>
	<circle cx="798.947" cy="453.684" r="4" fill="#0" id="circle126"/>
	<circle cx="807.368" cy="88.2105" r="4" fill="#0" id="circle127"/>
	<circle cx="815.789" cy="453.684" r="4" fill="#0" id="circle128"/>
	<circle cx="820.842" cy="78.1053" r="4" fill="#0" id="circle129"/>
	<circle cx="832.632" cy="453.684" r="4" fill="#0" id="circle130"/>
	<circle cx="837.684" cy="69.6842" r="4" fill="#0" id="circle131"/>
	<circle cx="842.737" cy="51.1579" r="4" fill="#0" id="circle132"/>
	<circle cx="849.474" cy="453.684" r="4" fill="#0" id="circle133"/>
	<circle cx="856.211" cy="37.6842" r="4" fill="#0" id="circle134"/>
	<circle cx="862.947" cy="20.8421" r="4" fill="#0" id="circle135"/>
	<circle cx="866.316" cy="4" r="4" fill="#0" id="circle136"/>
	<circle cx="866.316" cy="453.684" r="4" fill="#0" id="circle137"/>
	<circle cx="883.158" cy="4" r="4" fill="#0" id="circle138"/>
	<circle cx="883.158" cy="453.684" r="4" fill="#0" id="circle139"/>
	<circle cx="888.211" cy="20.8421" r="4" fill="#0" id="circle140"/>
	<circle cx="893.263" cy="37.6842" r="4" fill="#0" id="circle141"/>
	<circle cx="900" cy="453.684" r="4" fill="#0" id="circle142"/>
	<circle cx="906.737" cy="49.4737" r="4" fill="#0" id="circle143"/>
	<circle cx="915.158" cy="64.6316" r="4" fill="#0" id="circle144"/>
	<circle cx="916.842" cy="453.684" r="4" fill="#0" id="circle145"/>
	<circle cx="932" cy="71.3684" r="4" fill="#0" id="circle146"/>
	<circle cx="933.684" cy="453.684" r="4" fill="#0" id="circle147"/>
	<circle cx="948.842" cy="78.1053" r="4" fill="#0" id="circle148"/>
	<circle cx="950.526" cy="453.684" r="4" fill="#0" id="circle149"/>
	<circle cx="962.316" cy="88.2105" r="4" fill="#0" id="circle150"/>
	<circle cx="967.368" cy="453.684" r="4" fill="#0" id="circle151"/>
	<circle cx="967.368" cy="470.526" r="4" fill="#0" id="circle152"/>
	<circle cx="967.368" cy="487.368" r="4" fill="#0" id="circle153"/>
	<circle cx="967.368" cy="516" r="4" fill="#0" id="circle154"/>
	<circle cx="974.105" cy="101.684" r="4" fill="#0" id="circle155"/>
	<circle cx="984.211" cy="517.684" r="4" fill="#0" id="circle156"/>
	<circle cx="985.895" cy="115.158" r="4" fill="#0" id="circle157"/>
	<circle cx="985.895" cy="472.211" r="4" fill="#0" id="circle158"/>
	<circle cx="985.895" cy="489.053" r="4" fill="#0" id="circle159"/>
	<circle cx="989.263" cy="158.947" r="4" fill="#0" id="circle160"/>
	<circle cx="989.263" cy="175.789" r="4" fill="#0" id="circle161"/>
	<circle cx="989.263" cy="192.632" r="4" fill="#0" id="circle162"/>
	<circle cx="989.263" cy="209.474" r="4" fill="#0" id="circle163"/>
	<circle cx="989.263" cy="226.316" r="4" fill="#0" id="circle164"/>
	<circle cx="989.263" cy="243.158" r="4" fill="#0" id="circle165"/>
	<circle cx="989.263" cy="260" r="4" fill="#0" id="circle166"/>
	<circle cx="989.263" cy="276.842" r="4" fill="#0" id="circle167"/>
	<circle cx="989.263" cy="293.684" r="4" fill="#0" id="circle168"/>
	<circle cx="989.263" cy="455.368" r="4" fill="#0" id="circle169"/>
	<circle cx="992.632" cy="132" r="4" fill="#0" id="circle170"/>
	<circle cx="992.632" cy="310.526" r="4" fill="#0" id="circle171"/>
	<circle cx="992.632" cy="327.368" r="4" fill="#0" id="circle172"/>
	<circle cx="992.632" cy="344.211" r="4" fill="#0" id="circle173"/>
	<circle cx="992.632" cy="361.053" r="4" fill="#0" id="circle174"/>
	<circle cx="992.632" cy="377.895" r="4" fill="#0" id="circle175"/>
	<circle cx="992.632" cy="428.421" r="4" fill="#0" id="circle176"/>
	<circle cx="996" cy="394.737" r="4" fill="#0" id="circle177"/>
	<circle cx="996" cy="411.579" r="4" fill="#0" id="circle178"/>
	</g>
</svg>