<?xml version="1.0" encoding="UTF-8" standalone="no"?>
<!-- Created with CurveBenchmark -->
<svg
	xmlns:dc="http://purl.org/dc/elements/1.1/"
	xmlns:cc="http://creativecommons.org/ns#"
	xmlns:rdf="http://www.w3.org/1999/02/22-rdf-syntax-ns#"
	xmlns:svg="http://www.w3.org/2000/svg"
	xmlns="http://www.w3.org/2000/svg"
	xmlns:sodipodi="http://sodipodi.sourceforge.net/DTD/sodipodi-0.dtd"
	xmlns:inkscape="http://www.inkscape.org/namespaces/inkscape"
	width="1000"
	height="1000"
	id="svg2"
	version="1.1"
	sodipodi:docname="manifold/gathang-cat37.png.txt">
<defs
	id="defs4" />
<metadata
	id="metadata7">
	<rdf:RDF>
		<cc:Work
			rdf:about="">
			<dc:format>image/svg+xml</dc:format>
			<dc:type
				rdf:resource="http://purl.org/dc/dcmitype/StillImage" />
			<dc:title></dc:title>
		</cc:Work>
	</rdf:RDF>
</metadata>
<g
	inkscape:label="Layer 1"
	inkscape:groupmode="layer"
	id="layer1">
	<path style="fill:none;stroke:red;stroke-width:1px;stroke-linecap:butt;stroke-linejoin:miter;stroke-opacity:1" d="M 40.6864,536.686 55.3609,529.349 z" id="boundary" inkscape:connector-curvature="0" />
	<path style="fill:none;stroke:red;stroke-width:1px;stroke-linecap:butt;stroke-linejoin:miter;stroke-opacity:1" d="M 70.0355,522.012 55.3609,529.349 z" id="boundary" inkscape:connector-curvature="0" />
	<path style="fill:none;stroke:red;stroke-width:1px;stroke-linecap:butt;stroke-linejoin:miter;stroke-opacity:1" d="M 81.7751,510.272 70.0355,522.012 z" id="boundary" inkscape:connector-curvature="0" />
	<path style="fill:none;stroke:red;stroke-width:1px;stroke-linecap:butt;stroke-linejoin:miter;stroke-opacity:1" d="M 81.7751,510.272 96.4497,502.935 z" id="boundary" inkscape:connector-curvature="0" />
	<path style="fill:none;stroke:red;stroke-width:1px;stroke-linecap:butt;stroke-linejoin:miter;stroke-opacity:1" d="M 108.189,491.195 96.4497,502.935 z" id="boundary" inkscape:connector-curvature="0" />
	<path style="fill:none;stroke:red;stroke-width:1px;stroke-linecap:butt;stroke-linejoin:miter;stroke-opacity:1" d="M 4,566.036 15.7396,576.308 z" id="boundary" inkscape:connector-curvature="0" />
	<path style="fill:none;stroke:red;stroke-width:1px;stroke-linecap:butt;stroke-linejoin:miter;stroke-opacity:1" d="M 4,566.036 18.6746,561.633 z" id="boundary" inkscape:connector-curvature="0" />
	<path style="fill:none;stroke:red;stroke-width:1px;stroke-linecap:butt;stroke-linejoin:miter;stroke-opacity:1" d="M 18.6746,561.633 26.0118,544.024 z" id="boundary" inkscape:connector-curvature="0" />
	<path style="fill:none;stroke:red;stroke-width:1px;stroke-linecap:butt;stroke-linejoin:miter;stroke-opacity:1" d="M 40.6864,536.686 26.0118,544.024 z" id="boundary" inkscape:connector-curvature="0" />
	<path style="fill:none;stroke:red;stroke-width:1px;stroke-linecap:butt;stroke-linejoin:miter;stroke-opacity:1" d="M 30.4142,577.775 15.7396,576.308 z" id="boundary" inkscape:connector-curvature="0" />
	<path style="fill:none;stroke:red;stroke-width:1px;stroke-linecap:butt;stroke-linejoin:miter;stroke-opacity:1" d="M 181.562,461.846 166.888,461.846 z" id="boundary" inkscape:connector-curvature="0" />
	<path style="fill:none;stroke:red;stroke-width:1px;stroke-linecap:butt;stroke-linejoin:miter;stroke-opacity:1" d="M 196.237,458.911 181.562,461.846 z" id="boundary" inkscape:connector-curvature="0" />
	<path style="fill:none;stroke:red;stroke-width:1px;stroke-linecap:butt;stroke-linejoin:miter;stroke-opacity:1" d="M 240.26,454.509 225.586,458.911 z" id="boundary" inkscape:connector-curvature="0" />
	<path style="fill:none;stroke:red;stroke-width:1px;stroke-linecap:butt;stroke-linejoin:miter;stroke-opacity:1" d="M 225.586,458.911 210.911,458.911 z" id="boundary" inkscape:connector-curvature="0" />
	<path style="fill:none;stroke:red;stroke-width:1px;stroke-linecap:butt;stroke-linejoin:miter;stroke-opacity:1" d="M 196.237,458.911 210.911,458.911 z" id="boundary" inkscape:connector-curvature="0" />
	<path style="fill:none;stroke:red;stroke-width:1px;stroke-linecap:butt;stroke-linejoin:miter;stroke-opacity:1" d="M 122.864,483.858 137.538,476.521 z" id="boundary" inkscape:connector-curvature="0" />
	<path style="fill:none;stroke:red;stroke-width:1px;stroke-linecap:butt;stroke-linejoin:miter;stroke-opacity:1" d="M 122.864,483.858 108.189,491.195 z" id="boundary" inkscape:connector-curvature="0" />
	<path style="fill:none;stroke:red;stroke-width:1px;stroke-linecap:butt;stroke-linejoin:miter;stroke-opacity:1" d="M 137.538,476.521 152.213,469.183 z" id="boundary" inkscape:connector-curvature="0" />
	<path style="fill:none;stroke:red;stroke-width:1px;stroke-linecap:butt;stroke-linejoin:miter;stroke-opacity:1" d="M 152.213,469.183 166.888,461.846 z" id="boundary" inkscape:connector-curvature="0" />
	<path style="fill:none;stroke:red;stroke-width:1px;stroke-linecap:butt;stroke-linejoin:miter;stroke-opacity:1" d="M 244.663,629.136 229.988,626.201 z" id="boundary" inkscape:connector-curvature="0" />
	<path style="fill:none;stroke:red;stroke-width:1px;stroke-linecap:butt;stroke-linejoin:miter;stroke-opacity:1" d="M 43.6213,585.112 30.4142,577.775 z" id="boundary" inkscape:connector-curvature="0" />
	<path style="fill:none;stroke:red;stroke-width:1px;stroke-linecap:butt;stroke-linejoin:miter;stroke-opacity:1" d="M 58.2959,589.515 62.6982,604.189 z" id="boundary" inkscape:connector-curvature="0" />
	<path style="fill:none;stroke:red;stroke-width:1px;stroke-linecap:butt;stroke-linejoin:miter;stroke-opacity:1" d="M 43.6213,585.112 58.2959,589.515 z" id="boundary" inkscape:connector-curvature="0" />
	<path style="fill:none;stroke:red;stroke-width:1px;stroke-linecap:butt;stroke-linejoin:miter;stroke-opacity:1" d="M 62.6982,604.189 64.1657,618.864 z" id="boundary" inkscape:connector-curvature="0" />
	<path style="fill:none;stroke:red;stroke-width:1px;stroke-linecap:butt;stroke-linejoin:miter;stroke-opacity:1" d="M 64.1657,618.864 71.503,632.071 z" id="boundary" inkscape:connector-curvature="0" />
	<path style="fill:none;stroke:red;stroke-width:1px;stroke-linecap:butt;stroke-linejoin:miter;stroke-opacity:1" d="M 84.7101,639.408 71.503,632.071 z" id="boundary" inkscape:connector-curvature="0" />
	<path style="fill:none;stroke:red;stroke-width:1px;stroke-linecap:butt;stroke-linejoin:miter;stroke-opacity:1" d="M 84.7101,639.408 92.0473,652.615 z" id="boundary" inkscape:connector-curvature="0" />
	<path style="fill:none;stroke:red;stroke-width:1px;stroke-linecap:butt;stroke-linejoin:miter;stroke-opacity:1" d="M 99.3846,665.822 92.0473,652.615 z" id="boundary" inkscape:connector-curvature="0" />
	<path style="fill:none;stroke:red;stroke-width:1px;stroke-linecap:butt;stroke-linejoin:miter;stroke-opacity:1" d="M 99.3846,665.822 103.787,680.497 z" id="boundary" inkscape:connector-curvature="0" />
	<path style="fill:none;stroke:red;stroke-width:1px;stroke-linecap:butt;stroke-linejoin:miter;stroke-opacity:1" d="M 229.988,626.201 222.651,640.876 z" id="boundary" inkscape:connector-curvature="0" />
	<path style="fill:none;stroke:red;stroke-width:1px;stroke-linecap:butt;stroke-linejoin:miter;stroke-opacity:1" d="M 222.651,640.876 210.911,651.148 z" id="boundary" inkscape:connector-curvature="0" />
	<path style="fill:none;stroke:red;stroke-width:1px;stroke-linecap:butt;stroke-linejoin:miter;stroke-opacity:1" d="M 210.911,651.148 199.172,671.692 z" id="boundary" inkscape:connector-curvature="0" />
	<path style="fill:none;stroke:red;stroke-width:1px;stroke-linecap:butt;stroke-linejoin:miter;stroke-opacity:1" d="M 191.834,686.367 199.172,671.692 z" id="boundary" inkscape:connector-curvature="0" />
	<path style="fill:none;stroke:red;stroke-width:1px;stroke-linecap:butt;stroke-linejoin:miter;stroke-opacity:1" d="M 111.124,693.704 122.864,702.509 z" id="boundary" inkscape:connector-curvature="0" />
	<path style="fill:none;stroke:red;stroke-width:1px;stroke-linecap:butt;stroke-linejoin:miter;stroke-opacity:1" d="M 111.124,693.704 103.787,680.497 z" id="boundary" inkscape:connector-curvature="0" />
	<path style="fill:none;stroke:red;stroke-width:1px;stroke-linecap:butt;stroke-linejoin:miter;stroke-opacity:1" d="M 165.42,702.509 177.16,693.704 z" id="boundary" inkscape:connector-curvature="0" />
	<path style="fill:none;stroke:red;stroke-width:1px;stroke-linecap:butt;stroke-linejoin:miter;stroke-opacity:1" d="M 177.16,693.704 191.834,686.367 z" id="boundary" inkscape:connector-curvature="0" />
	<path style="fill:none;stroke:red;stroke-width:1px;stroke-linecap:butt;stroke-linejoin:miter;stroke-opacity:1" d="M 165.42,702.509 150.746,705.444 z" id="boundary" inkscape:connector-curvature="0" />
	<path style="fill:none;stroke:red;stroke-width:1px;stroke-linecap:butt;stroke-linejoin:miter;stroke-opacity:1" d="M 488.26,356.189 502.935,356.189 z" id="boundary" inkscape:connector-curvature="0" />
	<path style="fill:none;stroke:red;stroke-width:1px;stroke-linecap:butt;stroke-linejoin:miter;stroke-opacity:1" d="M 475.053,363.527 488.26,356.189 z" id="boundary" inkscape:connector-curvature="0" />
	<path style="fill:none;stroke:red;stroke-width:1px;stroke-linecap:butt;stroke-linejoin:miter;stroke-opacity:1" d="M 516.142,348.852 502.935,356.189 z" id="boundary" inkscape:connector-curvature="0" />
	<path style="fill:none;stroke:red;stroke-width:1px;stroke-linecap:butt;stroke-linejoin:miter;stroke-opacity:1" d="M 516.142,348.852 530.817,348.852 z" id="boundary" inkscape:connector-curvature="0" />
	<path style="fill:none;stroke:red;stroke-width:1px;stroke-linecap:butt;stroke-linejoin:miter;stroke-opacity:1" d="M 501.467,702.509 486.793,702.509 z" id="boundary" inkscape:connector-curvature="0" />
	<path style="fill:none;stroke:red;stroke-width:1px;stroke-linecap:butt;stroke-linejoin:miter;stroke-opacity:1" d="M 420.757,385.538 433.964,378.201 z" id="boundary" inkscape:connector-curvature="0" />
	<path style="fill:none;stroke:red;stroke-width:1px;stroke-linecap:butt;stroke-linejoin:miter;stroke-opacity:1" d="M 433.964,378.201 448.639,378.201 z" id="boundary" inkscape:connector-curvature="0" />
	<path style="fill:none;stroke:red;stroke-width:1px;stroke-linecap:butt;stroke-linejoin:miter;stroke-opacity:1" d="M 448.639,378.201 460.379,366.462 z" id="boundary" inkscape:connector-curvature="0" />
	<path style="fill:none;stroke:red;stroke-width:1px;stroke-linecap:butt;stroke-linejoin:miter;stroke-opacity:1" d="M 460.379,366.462 475.053,363.527 z" id="boundary" inkscape:connector-curvature="0" />
	<path style="fill:none;stroke:red;stroke-width:1px;stroke-linecap:butt;stroke-linejoin:miter;stroke-opacity:1" d="M 407.55,392.876 420.757,385.538 z" id="boundary" inkscape:connector-curvature="0" />
	<path style="fill:none;stroke:red;stroke-width:1px;stroke-linecap:butt;stroke-linejoin:miter;stroke-opacity:1" d="M 530.817,348.852 545.491,348.852 z" id="boundary" inkscape:connector-curvature="0" />
	<path style="fill:none;stroke:red;stroke-width:1px;stroke-linecap:butt;stroke-linejoin:miter;stroke-opacity:1" d="M 602.722,18.6746 617.396,11.3373 z" id="boundary" inkscape:connector-curvature="0" />
	<path style="fill:none;stroke:red;stroke-width:1px;stroke-linecap:butt;stroke-linejoin:miter;stroke-opacity:1" d="M 630.604,4 617.396,11.3373 z" id="boundary" inkscape:connector-curvature="0" />
	<path style="fill:none;stroke:red;stroke-width:1px;stroke-linecap:butt;stroke-linejoin:miter;stroke-opacity:1" d="M 560.166,348.852 545.491,348.852 z" id="boundary" inkscape:connector-curvature="0" />
	<path style="fill:none;stroke:red;stroke-width:1px;stroke-linecap:butt;stroke-linejoin:miter;stroke-opacity:1" d="M 605.657,34.8166 590.982,30.4142 z" id="boundary" inkscape:connector-curvature="0" />
	<path style="fill:none;stroke:red;stroke-width:1px;stroke-linecap:butt;stroke-linejoin:miter;stroke-opacity:1" d="M 590.982,30.4142 602.722,18.6746 z" id="boundary" inkscape:connector-curvature="0" />
	<path style="fill:none;stroke:red;stroke-width:1px;stroke-linecap:butt;stroke-linejoin:miter;stroke-opacity:1" d="M 605.657,34.8166 618.864,42.1538 z" id="boundary" inkscape:connector-curvature="0" />
	<path style="fill:none;stroke:red;stroke-width:1px;stroke-linecap:butt;stroke-linejoin:miter;stroke-opacity:1" d="M 560.166,348.852 574.84,348.852 z" id="boundary" inkscape:connector-curvature="0" />
	<path style="fill:none;stroke:red;stroke-width:1px;stroke-linecap:butt;stroke-linejoin:miter;stroke-opacity:1" d="M 617.396,356.189 602.722,356.189 z" id="boundary" inkscape:connector-curvature="0" />
	<path style="fill:none;stroke:red;stroke-width:1px;stroke-linecap:butt;stroke-linejoin:miter;stroke-opacity:1" d="M 602.722,356.189 589.515,348.852 z" id="boundary" inkscape:connector-curvature="0" />
	<path style="fill:none;stroke:red;stroke-width:1px;stroke-linecap:butt;stroke-linejoin:miter;stroke-opacity:1" d="M 574.84,348.852 589.515,348.852 z" id="boundary" inkscape:connector-curvature="0" />
	<path style="fill:none;stroke:red;stroke-width:1px;stroke-linecap:butt;stroke-linejoin:miter;stroke-opacity:1" d="M 240.26,454.509 254.935,451.574 z" id="boundary" inkscape:connector-curvature="0" />
	<path style="fill:none;stroke:red;stroke-width:1px;stroke-linecap:butt;stroke-linejoin:miter;stroke-opacity:1" d="M 268.142,444.237 282.817,441.302 z" id="boundary" inkscape:connector-curvature="0" />
	<path style="fill:none;stroke:red;stroke-width:1px;stroke-linecap:butt;stroke-linejoin:miter;stroke-opacity:1" d="M 254.935,451.574 268.142,444.237 z" id="boundary" inkscape:connector-curvature="0" />
	<path style="fill:none;stroke:red;stroke-width:1px;stroke-linecap:butt;stroke-linejoin:miter;stroke-opacity:1" d="M 250.533,643.811 244.663,629.136 z" id="boundary" inkscape:connector-curvature="0" />
	<path style="fill:none;stroke:red;stroke-width:1px;stroke-linecap:butt;stroke-linejoin:miter;stroke-opacity:1" d="M 253.467,658.485 253.467,673.16 z" id="boundary" inkscape:connector-curvature="0" />
	<path style="fill:none;stroke:red;stroke-width:1px;stroke-linecap:butt;stroke-linejoin:miter;stroke-opacity:1" d="M 268.142,699.574 257.87,687.834 z" id="boundary" inkscape:connector-curvature="0" />
	<path style="fill:none;stroke:red;stroke-width:1px;stroke-linecap:butt;stroke-linejoin:miter;stroke-opacity:1" d="M 257.87,687.834 253.467,673.16 z" id="boundary" inkscape:connector-curvature="0" />
	<path style="fill:none;stroke:red;stroke-width:1px;stroke-linecap:butt;stroke-linejoin:miter;stroke-opacity:1" d="M 253.467,658.485 250.533,643.811 z" id="boundary" inkscape:connector-curvature="0" />
	<path style="fill:none;stroke:red;stroke-width:1px;stroke-linecap:butt;stroke-linejoin:miter;stroke-opacity:1" d="M 282.817,441.302 297.491,436.899 z" id="boundary" inkscape:connector-curvature="0" />
	<path style="fill:none;stroke:red;stroke-width:1px;stroke-linecap:butt;stroke-linejoin:miter;stroke-opacity:1" d="M 351.787,414.888 364.994,407.55 z" id="boundary" inkscape:connector-curvature="0" />
	<path style="fill:none;stroke:red;stroke-width:1px;stroke-linecap:butt;stroke-linejoin:miter;stroke-opacity:1" d="M 392.876,397.278 378.201,400.213 z" id="boundary" inkscape:connector-curvature="0" />
	<path style="fill:none;stroke:red;stroke-width:1px;stroke-linecap:butt;stroke-linejoin:miter;stroke-opacity:1" d="M 407.55,392.876 392.876,397.278 z" id="boundary" inkscape:connector-curvature="0" />
	<path style="fill:none;stroke:red;stroke-width:1px;stroke-linecap:butt;stroke-linejoin:miter;stroke-opacity:1" d="M 364.994,407.55 378.201,400.213 z" id="boundary" inkscape:connector-curvature="0" />
	<path style="fill:none;stroke:red;stroke-width:1px;stroke-linecap:butt;stroke-linejoin:miter;stroke-opacity:1" d="M 297.491,436.899 310.698,429.562 z" id="boundary" inkscape:connector-curvature="0" />
	<path style="fill:none;stroke:red;stroke-width:1px;stroke-linecap:butt;stroke-linejoin:miter;stroke-opacity:1" d="M 310.698,429.562 325.373,429.562 z" id="boundary" inkscape:connector-curvature="0" />
	<path style="fill:none;stroke:red;stroke-width:1px;stroke-linecap:butt;stroke-linejoin:miter;stroke-opacity:1" d="M 325.373,429.562 338.58,422.225 z" id="boundary" inkscape:connector-curvature="0" />
	<path style="fill:none;stroke:red;stroke-width:1px;stroke-linecap:butt;stroke-linejoin:miter;stroke-opacity:1" d="M 338.58,422.225 351.787,414.888 z" id="boundary" inkscape:connector-curvature="0" />
	<path style="fill:none;stroke:red;stroke-width:1px;stroke-linecap:butt;stroke-linejoin:miter;stroke-opacity:1" d="M 268.142,699.574 275.479,712.781 z" id="boundary" inkscape:connector-curvature="0" />
	<path style="fill:none;stroke:red;stroke-width:1px;stroke-linecap:butt;stroke-linejoin:miter;stroke-opacity:1" d="M 486.793,702.509 472.118,706.911 z" id="boundary" inkscape:connector-curvature="0" />
	<path style="fill:none;stroke:red;stroke-width:1px;stroke-linecap:butt;stroke-linejoin:miter;stroke-opacity:1" d="M 136.071,709.846 150.746,705.444 z" id="boundary" inkscape:connector-curvature="0" />
	<path style="fill:none;stroke:red;stroke-width:1px;stroke-linecap:butt;stroke-linejoin:miter;stroke-opacity:1" d="M 136.071,709.846 122.864,702.509 z" id="boundary" inkscape:connector-curvature="0" />
	<path style="fill:none;stroke:red;stroke-width:1px;stroke-linecap:butt;stroke-linejoin:miter;stroke-opacity:1" d="M 225.586,865.396 240.26,862.462 z" id="boundary" inkscape:connector-curvature="0" />
	<path style="fill:none;stroke:red;stroke-width:1px;stroke-linecap:butt;stroke-linejoin:miter;stroke-opacity:1" d="M 225.586,865.396 210.911,872.734 z" id="boundary" inkscape:connector-curvature="0" />
	<path style="fill:none;stroke:red;stroke-width:1px;stroke-linecap:butt;stroke-linejoin:miter;stroke-opacity:1" d="M 253.467,855.124 240.26,862.462 z" id="boundary" inkscape:connector-curvature="0" />
	<path style="fill:none;stroke:red;stroke-width:1px;stroke-linecap:butt;stroke-linejoin:miter;stroke-opacity:1" d="M 188.899,894.746 200.639,884.473 z" id="boundary" inkscape:connector-curvature="0" />
	<path style="fill:none;stroke:red;stroke-width:1px;stroke-linecap:butt;stroke-linejoin:miter;stroke-opacity:1" d="M 188.899,894.746 177.16,906.485 z" id="boundary" inkscape:connector-curvature="0" />
	<path style="fill:none;stroke:red;stroke-width:1px;stroke-linecap:butt;stroke-linejoin:miter;stroke-opacity:1" d="M 200.639,884.473 210.911,872.734 z" id="boundary" inkscape:connector-curvature="0" />
	<path style="fill:none;stroke:red;stroke-width:1px;stroke-linecap:butt;stroke-linejoin:miter;stroke-opacity:1" d="M 177.16,906.485 165.42,918.225 z" id="boundary" inkscape:connector-curvature="0" />
	<path style="fill:none;stroke:red;stroke-width:1px;stroke-linecap:butt;stroke-linejoin:miter;stroke-opacity:1" d="M 275.479,712.781 287.219,723.053 z" id="boundary" inkscape:connector-curvature="0" />
	<path style="fill:none;stroke:red;stroke-width:1px;stroke-linecap:butt;stroke-linejoin:miter;stroke-opacity:1" d="M 297.491,734.793 304.828,748 z" id="boundary" inkscape:connector-curvature="0" />
	<path style="fill:none;stroke:red;stroke-width:1px;stroke-linecap:butt;stroke-linejoin:miter;stroke-opacity:1" d="M 304.828,748 312.166,761.207 z" id="boundary" inkscape:connector-curvature="0" />
	<path style="fill:none;stroke:red;stroke-width:1px;stroke-linecap:butt;stroke-linejoin:miter;stroke-opacity:1" d="M 287.219,723.053 297.491,734.793 z" id="boundary" inkscape:connector-curvature="0" />
	<path style="fill:none;stroke:red;stroke-width:1px;stroke-linecap:butt;stroke-linejoin:miter;stroke-opacity:1" d="M 313.633,885.941 301.893,906.485 z" id="boundary" inkscape:connector-curvature="0" />
	<path style="fill:none;stroke:red;stroke-width:1px;stroke-linecap:butt;stroke-linejoin:miter;stroke-opacity:1" d="M 266.675,847.787 253.467,855.124 z" id="boundary" inkscape:connector-curvature="0" />
	<path style="fill:none;stroke:red;stroke-width:1px;stroke-linecap:butt;stroke-linejoin:miter;stroke-opacity:1" d="M 276.947,836.047 266.675,847.787 z" id="boundary" inkscape:connector-curvature="0" />
	<path style="fill:none;stroke:red;stroke-width:1px;stroke-linecap:butt;stroke-linejoin:miter;stroke-opacity:1" d="M 276.947,836.047 288.686,825.775 z" id="boundary" inkscape:connector-curvature="0" />
	<path style="fill:none;stroke:red;stroke-width:1px;stroke-linecap:butt;stroke-linejoin:miter;stroke-opacity:1" d="M 288.686,825.775 298.959,814.036 z" id="boundary" inkscape:connector-curvature="0" />
	<path style="fill:none;stroke:red;stroke-width:1px;stroke-linecap:butt;stroke-linejoin:miter;stroke-opacity:1" d="M 306.296,799.361 298.959,814.036 z" id="boundary" inkscape:connector-curvature="0" />
	<path style="fill:none;stroke:red;stroke-width:1px;stroke-linecap:butt;stroke-linejoin:miter;stroke-opacity:1" d="M 290.154,915.29 301.893,906.485 z" id="boundary" inkscape:connector-curvature="0" />
	<path style="fill:none;stroke:red;stroke-width:1px;stroke-linecap:butt;stroke-linejoin:miter;stroke-opacity:1" d="M 165.42,918.225 165.42,932.899 z" id="boundary" inkscape:connector-curvature="0" />
	<path style="fill:none;stroke:red;stroke-width:1px;stroke-linecap:butt;stroke-linejoin:miter;stroke-opacity:1" d="M 172.757,946.107 165.42,932.899 z" id="boundary" inkscape:connector-curvature="0" />
	<path style="fill:none;stroke:red;stroke-width:1px;stroke-linecap:butt;stroke-linejoin:miter;stroke-opacity:1" d="M 183.03,957.846 197.704,959.314 z" id="boundary" inkscape:connector-curvature="0" />
	<path style="fill:none;stroke:red;stroke-width:1px;stroke-linecap:butt;stroke-linejoin:miter;stroke-opacity:1" d="M 183.03,957.846 172.757,946.107 z" id="boundary" inkscape:connector-curvature="0" />
	<path style="fill:none;stroke:red;stroke-width:1px;stroke-linecap:butt;stroke-linejoin:miter;stroke-opacity:1" d="M 237.325,951.976 224.118,959.314 z" id="boundary" inkscape:connector-curvature="0" />
	<path style="fill:none;stroke:red;stroke-width:1px;stroke-linecap:butt;stroke-linejoin:miter;stroke-opacity:1" d="M 224.118,959.314 210.911,951.976 z" id="boundary" inkscape:connector-curvature="0" />
	<path style="fill:none;stroke:red;stroke-width:1px;stroke-linecap:butt;stroke-linejoin:miter;stroke-opacity:1" d="M 250.533,943.172 237.325,951.976 z" id="boundary" inkscape:connector-curvature="0" />
	<path style="fill:none;stroke:red;stroke-width:1px;stroke-linecap:butt;stroke-linejoin:miter;stroke-opacity:1" d="M 197.704,959.314 210.911,951.976 z" id="boundary" inkscape:connector-curvature="0" />
	<path style="fill:none;stroke:red;stroke-width:1px;stroke-linecap:butt;stroke-linejoin:miter;stroke-opacity:1" d="M 265.207,935.834 276.947,922.627 z" id="boundary" inkscape:connector-curvature="0" />
	<path style="fill:none;stroke:red;stroke-width:1px;stroke-linecap:butt;stroke-linejoin:miter;stroke-opacity:1" d="M 265.207,935.834 250.533,943.172 z" id="boundary" inkscape:connector-curvature="0" />
	<path style="fill:none;stroke:red;stroke-width:1px;stroke-linecap:butt;stroke-linejoin:miter;stroke-opacity:1" d="M 294.556,957.846 279.882,957.846 z" id="boundary" inkscape:connector-curvature="0" />
	<path style="fill:none;stroke:red;stroke-width:1px;stroke-linecap:butt;stroke-linejoin:miter;stroke-opacity:1" d="M 276.947,922.627 290.154,915.29 z" id="boundary" inkscape:connector-curvature="0" />
	<path style="fill:none;stroke:red;stroke-width:1px;stroke-linecap:butt;stroke-linejoin:miter;stroke-opacity:1" d="M 322.438,944.639 307.763,950.509 z" id="boundary" inkscape:connector-curvature="0" />
	<path style="fill:none;stroke:red;stroke-width:1px;stroke-linecap:butt;stroke-linejoin:miter;stroke-opacity:1" d="M 307.763,950.509 294.556,957.846 z" id="boundary" inkscape:connector-curvature="0" />
	<path style="fill:none;stroke:red;stroke-width:1px;stroke-linecap:butt;stroke-linejoin:miter;stroke-opacity:1" d="M 268.142,969.586 275.479,982.793 z" id="boundary" inkscape:connector-curvature="0" />
	<path style="fill:none;stroke:red;stroke-width:1px;stroke-linecap:butt;stroke-linejoin:miter;stroke-opacity:1" d="M 304.828,988.663 290.154,988.663 z" id="boundary" inkscape:connector-curvature="0" />
	<path style="fill:none;stroke:red;stroke-width:1px;stroke-linecap:butt;stroke-linejoin:miter;stroke-opacity:1" d="M 290.154,988.663 275.479,982.793 z" id="boundary" inkscape:connector-curvature="0" />
	<path style="fill:none;stroke:red;stroke-width:1px;stroke-linecap:butt;stroke-linejoin:miter;stroke-opacity:1" d="M 319.503,988.663 304.828,988.663 z" id="boundary" inkscape:connector-curvature="0" />
	<path style="fill:none;stroke:red;stroke-width:1px;stroke-linecap:butt;stroke-linejoin:miter;stroke-opacity:1" d="M 316.568,775.882 312.166,761.207 z" id="boundary" inkscape:connector-curvature="0" />
	<path style="fill:none;stroke:red;stroke-width:1px;stroke-linecap:butt;stroke-linejoin:miter;stroke-opacity:1" d="M 460.379,717.183 460.379,731.858 z" id="boundary" inkscape:connector-curvature="0" />
	<path style="fill:none;stroke:red;stroke-width:1px;stroke-linecap:butt;stroke-linejoin:miter;stroke-opacity:1" d="M 460.379,717.183 472.118,706.911 z" id="boundary" inkscape:connector-curvature="0" />
	<path style="fill:none;stroke:red;stroke-width:1px;stroke-linecap:butt;stroke-linejoin:miter;stroke-opacity:1" d="M 450.107,794.959 453.041,768.544 z" id="boundary" inkscape:connector-curvature="0" />
	<path style="fill:none;stroke:red;stroke-width:1px;stroke-linecap:butt;stroke-linejoin:miter;stroke-opacity:1" d="M 431.03,819.905 423.692,834.58 z" id="boundary" inkscape:connector-curvature="0" />
	<path style="fill:none;stroke:red;stroke-width:1px;stroke-linecap:butt;stroke-linejoin:miter;stroke-opacity:1" d="M 450.107,794.959 442.769,809.633 z" id="boundary" inkscape:connector-curvature="0" />
	<path style="fill:none;stroke:red;stroke-width:1px;stroke-linecap:butt;stroke-linejoin:miter;stroke-opacity:1" d="M 442.769,809.633 431.03,819.905 z" id="boundary" inkscape:connector-curvature="0" />
	<path style="fill:none;stroke:red;stroke-width:1px;stroke-linecap:butt;stroke-linejoin:miter;stroke-opacity:1" d="M 416.355,856.592 423.692,834.58 z" id="boundary" inkscape:connector-curvature="0" />
	<path style="fill:none;stroke:red;stroke-width:1px;stroke-linecap:butt;stroke-linejoin:miter;stroke-opacity:1" d="M 460.379,731.858 460.379,746.533 z" id="boundary" inkscape:connector-curvature="0" />
	<path style="fill:none;stroke:red;stroke-width:1px;stroke-linecap:butt;stroke-linejoin:miter;stroke-opacity:1" d="M 460.379,746.533 453.041,768.544 z" id="boundary" inkscape:connector-curvature="0" />
	<path style="fill:none;stroke:red;stroke-width:1px;stroke-linecap:butt;stroke-linejoin:miter;stroke-opacity:1" d="M 306.296,799.361 316.568,775.882 z" id="boundary" inkscape:connector-curvature="0" />
	<path style="fill:none;stroke:red;stroke-width:1px;stroke-linecap:butt;stroke-linejoin:miter;stroke-opacity:1" d="M 501.467,702.509 516.142,702.509 z" id="boundary" inkscape:connector-curvature="0" />
	<path style="fill:none;stroke:red;stroke-width:1px;stroke-linecap:butt;stroke-linejoin:miter;stroke-opacity:1" d="M 530.817,702.509 545.491,702.509 z" id="boundary" inkscape:connector-curvature="0" />
	<path style="fill:none;stroke:red;stroke-width:1px;stroke-linecap:butt;stroke-linejoin:miter;stroke-opacity:1" d="M 560.166,702.509 545.491,702.509 z" id="boundary" inkscape:connector-curvature="0" />
	<path style="fill:none;stroke:red;stroke-width:1px;stroke-linecap:butt;stroke-linejoin:miter;stroke-opacity:1" d="M 530.817,702.509 516.142,702.509 z" id="boundary" inkscape:connector-curvature="0" />
	<path style="fill:none;stroke:red;stroke-width:1px;stroke-linecap:butt;stroke-linejoin:miter;stroke-opacity:1" d="M 602.722,709.846 588.047,709.846 z" id="boundary" inkscape:connector-curvature="0" />
	<path style="fill:none;stroke:red;stroke-width:1px;stroke-linecap:butt;stroke-linejoin:miter;stroke-opacity:1" d="M 588.047,709.846 574.84,702.509 z" id="boundary" inkscape:connector-curvature="0" />
	<path style="fill:none;stroke:red;stroke-width:1px;stroke-linecap:butt;stroke-linejoin:miter;stroke-opacity:1" d="M 617.396,709.846 602.722,709.846 z" id="boundary" inkscape:connector-curvature="0" />
	<path style="fill:none;stroke:red;stroke-width:1px;stroke-linecap:butt;stroke-linejoin:miter;stroke-opacity:1" d="M 560.166,702.509 574.84,702.509 z" id="boundary" inkscape:connector-curvature="0" />
	<path style="fill:none;stroke:red;stroke-width:1px;stroke-linecap:butt;stroke-linejoin:miter;stroke-opacity:1" d="M 313.633,885.941 328.308,878.604 z" id="boundary" inkscape:connector-curvature="0" />
	<path style="fill:none;stroke:red;stroke-width:1px;stroke-linecap:butt;stroke-linejoin:miter;stroke-opacity:1" d="M 348.852,884.473 344.45,900.615 z" id="boundary" inkscape:connector-curvature="0" />
	<path style="fill:none;stroke:red;stroke-width:1px;stroke-linecap:butt;stroke-linejoin:miter;stroke-opacity:1" d="M 348.852,884.473 341.515,871.266 z" id="boundary" inkscape:connector-curvature="0" />
	<path style="fill:none;stroke:red;stroke-width:1px;stroke-linecap:butt;stroke-linejoin:miter;stroke-opacity:1" d="M 337.112,915.29 344.45,900.615 z" id="boundary" inkscape:connector-curvature="0" />
	<path style="fill:none;stroke:red;stroke-width:1px;stroke-linecap:butt;stroke-linejoin:miter;stroke-opacity:1" d="M 328.308,878.604 341.515,871.266 z" id="boundary" inkscape:connector-curvature="0" />
	<path style="fill:none;stroke:red;stroke-width:1px;stroke-linecap:butt;stroke-linejoin:miter;stroke-opacity:1" d="M 334.178,988.663 319.503,988.663 z" id="boundary" inkscape:connector-curvature="0" />
	<path style="fill:none;stroke:red;stroke-width:1px;stroke-linecap:butt;stroke-linejoin:miter;stroke-opacity:1" d="M 322.438,944.639 329.775,929.964 z" id="boundary" inkscape:connector-curvature="0" />
	<path style="fill:none;stroke:red;stroke-width:1px;stroke-linecap:butt;stroke-linejoin:miter;stroke-opacity:1" d="M 337.112,915.29 329.775,929.964 z" id="boundary" inkscape:connector-curvature="0" />
	<path style="fill:none;stroke:red;stroke-width:1px;stroke-linecap:butt;stroke-linejoin:miter;stroke-opacity:1" d="M 348.852,988.663 334.178,988.663 z" id="boundary" inkscape:connector-curvature="0" />
	<path style="fill:none;stroke:red;stroke-width:1px;stroke-linecap:butt;stroke-linejoin:miter;stroke-opacity:1" d="M 401.68,907.953 394.343,922.627 z" id="boundary" inkscape:connector-curvature="0" />
	<path style="fill:none;stroke:red;stroke-width:1px;stroke-linecap:butt;stroke-linejoin:miter;stroke-opacity:1" d="M 394.343,922.627 387.006,937.302 z" id="boundary" inkscape:connector-curvature="0" />
	<path style="fill:none;stroke:red;stroke-width:1px;stroke-linecap:butt;stroke-linejoin:miter;stroke-opacity:1" d="M 409.018,871.266 416.355,856.592 z" id="boundary" inkscape:connector-curvature="0" />
	<path style="fill:none;stroke:red;stroke-width:1px;stroke-linecap:butt;stroke-linejoin:miter;stroke-opacity:1" d="M 401.68,907.953 401.68,893.278 z" id="boundary" inkscape:connector-curvature="0" />
	<path style="fill:none;stroke:red;stroke-width:1px;stroke-linecap:butt;stroke-linejoin:miter;stroke-opacity:1" d="M 401.68,893.278 409.018,871.266 z" id="boundary" inkscape:connector-curvature="0" />
	<path style="fill:none;stroke:red;stroke-width:1px;stroke-linecap:butt;stroke-linejoin:miter;stroke-opacity:1" d="M 348.852,988.663 363.527,984.26 z" id="boundary" inkscape:connector-curvature="0" />
	<path style="fill:none;stroke:red;stroke-width:1px;stroke-linecap:butt;stroke-linejoin:miter;stroke-opacity:1" d="M 370.864,969.586 363.527,984.26 z" id="boundary" inkscape:connector-curvature="0" />
	<path style="fill:none;stroke:red;stroke-width:1px;stroke-linecap:butt;stroke-linejoin:miter;stroke-opacity:1" d="M 370.864,969.586 378.201,954.911 z" id="boundary" inkscape:connector-curvature="0" />
	<path style="fill:none;stroke:red;stroke-width:1px;stroke-linecap:butt;stroke-linejoin:miter;stroke-opacity:1" d="M 378.201,954.911 387.006,937.302 z" id="boundary" inkscape:connector-curvature="0" />
	<path style="fill:none;stroke:red;stroke-width:1px;stroke-linecap:butt;stroke-linejoin:miter;stroke-opacity:1" d="M 617.396,356.189 630.604,363.527 z" id="boundary" inkscape:connector-curvature="0" />
	<path style="fill:none;stroke:red;stroke-width:1px;stroke-linecap:butt;stroke-linejoin:miter;stroke-opacity:1" d="M 630.604,4 645.278,4 z" id="boundary" inkscape:connector-curvature="0" />
	<path style="fill:none;stroke:red;stroke-width:1px;stroke-linecap:butt;stroke-linejoin:miter;stroke-opacity:1" d="M 659.953,4 674.627,4 z" id="boundary" inkscape:connector-curvature="0" />
	<path style="fill:none;stroke:red;stroke-width:1px;stroke-linecap:butt;stroke-linejoin:miter;stroke-opacity:1" d="M 645.278,4 659.953,4 z" id="boundary" inkscape:connector-curvature="0" />
	<path style="fill:none;stroke:red;stroke-width:1px;stroke-linecap:butt;stroke-linejoin:miter;stroke-opacity:1" d="M 632.071,49.4911 618.864,42.1538 z" id="boundary" inkscape:connector-curvature="0" />
	<path style="fill:none;stroke:red;stroke-width:1px;stroke-linecap:butt;stroke-linejoin:miter;stroke-opacity:1" d="M 646.746,49.4911 661.42,49.4911 z" id="boundary" inkscape:connector-curvature="0" />
	<path style="fill:none;stroke:red;stroke-width:1px;stroke-linecap:butt;stroke-linejoin:miter;stroke-opacity:1" d="M 646.746,49.4911 632.071,49.4911 z" id="boundary" inkscape:connector-curvature="0" />
	<path style="fill:none;stroke:red;stroke-width:1px;stroke-linecap:butt;stroke-linejoin:miter;stroke-opacity:1" d="M 661.42,49.4911 676.095,49.4911 z" id="boundary" inkscape:connector-curvature="0" />
	<path style="fill:none;stroke:red;stroke-width:1px;stroke-linecap:butt;stroke-linejoin:miter;stroke-opacity:1" d="M 676.095,49.4911 690.769,55.3609 z" id="boundary" inkscape:connector-curvature="0" />
	<path style="fill:none;stroke:red;stroke-width:1px;stroke-linecap:butt;stroke-linejoin:miter;stroke-opacity:1" d="M 674.627,4 689.302,4 z" id="boundary" inkscape:connector-curvature="0" />
	<path style="fill:none;stroke:red;stroke-width:1px;stroke-linecap:butt;stroke-linejoin:miter;stroke-opacity:1" d="M 689.302,4 703.976,4 z" id="boundary" inkscape:connector-curvature="0" />
	<path style="fill:none;stroke:red;stroke-width:1px;stroke-linecap:butt;stroke-linejoin:miter;stroke-opacity:1" d="M 718.651,64.1657 703.976,62.6982 z" id="boundary" inkscape:connector-curvature="0" />
	<path style="fill:none;stroke:red;stroke-width:1px;stroke-linecap:butt;stroke-linejoin:miter;stroke-opacity:1" d="M 703.976,4 718.651,4 z" id="boundary" inkscape:connector-curvature="0" />
	<path style="fill:none;stroke:red;stroke-width:1px;stroke-linecap:butt;stroke-linejoin:miter;stroke-opacity:1" d="M 733.325,4 748,5.46746 z" id="boundary" inkscape:connector-curvature="0" />
	<path style="fill:none;stroke:red;stroke-width:1px;stroke-linecap:butt;stroke-linejoin:miter;stroke-opacity:1" d="M 690.769,55.3609 703.976,62.6982 z" id="boundary" inkscape:connector-curvature="0" />
	<path style="fill:none;stroke:red;stroke-width:1px;stroke-linecap:butt;stroke-linejoin:miter;stroke-opacity:1" d="M 780.284,34.8166 768.544,26.0118 z" id="boundary" inkscape:connector-curvature="0" />
	<path style="fill:none;stroke:red;stroke-width:1px;stroke-linecap:butt;stroke-linejoin:miter;stroke-opacity:1" d="M 768.544,26.0118 762.675,11.3373 z" id="boundary" inkscape:connector-curvature="0" />
	<path style="fill:none;stroke:red;stroke-width:1px;stroke-linecap:butt;stroke-linejoin:miter;stroke-opacity:1" d="M 790.556,46.5562 780.284,34.8166 z" id="boundary" inkscape:connector-curvature="0" />
	<path style="fill:none;stroke:red;stroke-width:1px;stroke-linecap:butt;stroke-linejoin:miter;stroke-opacity:1" d="M 718.651,4 733.325,4 z" id="boundary" inkscape:connector-curvature="0" />
	<path style="fill:none;stroke:red;stroke-width:1px;stroke-linecap:butt;stroke-linejoin:miter;stroke-opacity:1" d="M 748,5.46746 762.675,11.3373 z" id="boundary" inkscape:connector-curvature="0" />
	<path style="fill:none;stroke:red;stroke-width:1px;stroke-linecap:butt;stroke-linejoin:miter;stroke-opacity:1" d="M 630.604,363.527 645.278,363.527 z" id="boundary" inkscape:connector-curvature="0" />
	<path style="fill:none;stroke:red;stroke-width:1px;stroke-linecap:butt;stroke-linejoin:miter;stroke-opacity:1" d="M 645.278,363.527 658.485,370.864 z" id="boundary" inkscape:connector-curvature="0" />
	<path style="fill:none;stroke:red;stroke-width:1px;stroke-linecap:butt;stroke-linejoin:miter;stroke-opacity:1" d="M 673.16,375.266 658.485,370.864 z" id="boundary" inkscape:connector-curvature="0" />
	<path style="fill:none;stroke:red;stroke-width:1px;stroke-linecap:butt;stroke-linejoin:miter;stroke-opacity:1" d="M 718.651,64.1657 731.858,71.503 z" id="boundary" inkscape:connector-curvature="0" />
	<path style="fill:none;stroke:red;stroke-width:1px;stroke-linecap:butt;stroke-linejoin:miter;stroke-opacity:1" d="M 673.16,375.266 686.367,382.604 z" id="boundary" inkscape:connector-curvature="0" />
	<path style="fill:none;stroke:red;stroke-width:1px;stroke-linecap:butt;stroke-linejoin:miter;stroke-opacity:1" d="M 701.041,388.473 686.367,382.604 z" id="boundary" inkscape:connector-curvature="0" />
	<path style="fill:none;stroke:red;stroke-width:1px;stroke-linecap:butt;stroke-linejoin:miter;stroke-opacity:1" d="M 701.041,388.473 715.716,392.876 z" id="boundary" inkscape:connector-curvature="0" />
	<path style="fill:none;stroke:red;stroke-width:1px;stroke-linecap:butt;stroke-linejoin:miter;stroke-opacity:1" d="M 715.716,392.876 728.923,400.213 z" id="boundary" inkscape:connector-curvature="0" />
	<path style="fill:none;stroke:red;stroke-width:1px;stroke-linecap:butt;stroke-linejoin:miter;stroke-opacity:1" d="M 731.858,71.503 745.065,78.8402 z" id="boundary" inkscape:connector-curvature="0" />
	<path style="fill:none;stroke:red;stroke-width:1px;stroke-linecap:butt;stroke-linejoin:miter;stroke-opacity:1" d="M 745.065,78.8402 749.467,93.5148 z" id="boundary" inkscape:connector-curvature="0" />
	<path style="fill:none;stroke:red;stroke-width:1px;stroke-linecap:butt;stroke-linejoin:miter;stroke-opacity:1" d="M 756.805,106.722 762.675,121.396 z" id="boundary" inkscape:connector-curvature="0" />
	<path style="fill:none;stroke:red;stroke-width:1px;stroke-linecap:butt;stroke-linejoin:miter;stroke-opacity:1" d="M 749.467,93.5148 756.805,106.722 z" id="boundary" inkscape:connector-curvature="0" />
	<path style="fill:none;stroke:red;stroke-width:1px;stroke-linecap:butt;stroke-linejoin:miter;stroke-opacity:1" d="M 762.675,121.396 767.077,136.071 z" id="boundary" inkscape:connector-curvature="0" />
	<path style="fill:none;stroke:red;stroke-width:1px;stroke-linecap:butt;stroke-linejoin:miter;stroke-opacity:1" d="M 767.077,136.071 774.414,149.278 z" id="boundary" inkscape:connector-curvature="0" />
	<path style="fill:none;stroke:red;stroke-width:1px;stroke-linecap:butt;stroke-linejoin:miter;stroke-opacity:1" d="M 774.414,149.278 775.882,163.953 z" id="boundary" inkscape:connector-curvature="0" />
	<path style="fill:none;stroke:red;stroke-width:1px;stroke-linecap:butt;stroke-linejoin:miter;stroke-opacity:1" d="M 743.598,400.213 728.923,400.213 z" id="boundary" inkscape:connector-curvature="0" />
	<path style="fill:none;stroke:red;stroke-width:1px;stroke-linecap:butt;stroke-linejoin:miter;stroke-opacity:1" d="M 781.751,178.627 775.882,163.953 z" id="boundary" inkscape:connector-curvature="0" />
	<path style="fill:none;stroke:red;stroke-width:1px;stroke-linecap:butt;stroke-linejoin:miter;stroke-opacity:1" d="M 797.893,59.7633 805.231,72.9704 z" id="boundary" inkscape:connector-curvature="0" />
	<path style="fill:none;stroke:red;stroke-width:1px;stroke-linecap:butt;stroke-linejoin:miter;stroke-opacity:1" d="M 797.893,59.7633 790.556,46.5562 z" id="boundary" inkscape:connector-curvature="0" />
	<path style="fill:none;stroke:red;stroke-width:1px;stroke-linecap:butt;stroke-linejoin:miter;stroke-opacity:1" d="M 814.036,84.7101 819.905,99.3846 z" id="boundary" inkscape:connector-curvature="0" />
	<path style="fill:none;stroke:red;stroke-width:1px;stroke-linecap:butt;stroke-linejoin:miter;stroke-opacity:1" d="M 814.036,84.7101 805.231,72.9704 z" id="boundary" inkscape:connector-curvature="0" />
	<path style="fill:none;stroke:red;stroke-width:1px;stroke-linecap:butt;stroke-linejoin:miter;stroke-opacity:1" d="M 789.089,191.834 796.426,205.041 z" id="boundary" inkscape:connector-curvature="0" />
	<path style="fill:none;stroke:red;stroke-width:1px;stroke-linecap:butt;stroke-linejoin:miter;stroke-opacity:1" d="M 796.426,205.041 796.426,219.716 z" id="boundary" inkscape:connector-curvature="0" />
	<path style="fill:none;stroke:red;stroke-width:1px;stroke-linecap:butt;stroke-linejoin:miter;stroke-opacity:1" d="M 803.763,232.923 796.426,219.716 z" id="boundary" inkscape:connector-curvature="0" />
	<path style="fill:none;stroke:red;stroke-width:1px;stroke-linecap:butt;stroke-linejoin:miter;stroke-opacity:1" d="M 819.905,99.3846 819.905,114.059 z" id="boundary" inkscape:connector-curvature="0" />
	<path style="fill:none;stroke:red;stroke-width:1px;stroke-linecap:butt;stroke-linejoin:miter;stroke-opacity:1" d="M 803.763,232.923 803.763,247.598 z" id="boundary" inkscape:connector-curvature="0" />
	<path style="fill:none;stroke:red;stroke-width:1px;stroke-linecap:butt;stroke-linejoin:miter;stroke-opacity:1" d="M 819.905,114.059 827.243,127.266 z" id="boundary" inkscape:connector-curvature="0" />
	<path style="fill:none;stroke:red;stroke-width:1px;stroke-linecap:butt;stroke-linejoin:miter;stroke-opacity:1" d="M 789.089,191.834 781.751,178.627 z" id="boundary" inkscape:connector-curvature="0" />
	<path style="fill:none;stroke:red;stroke-width:1px;stroke-linecap:butt;stroke-linejoin:miter;stroke-opacity:1" d="M 841.917,168.355 834.58,155.148 z" id="boundary" inkscape:connector-curvature="0" />
	<path style="fill:none;stroke:red;stroke-width:1px;stroke-linecap:butt;stroke-linejoin:miter;stroke-opacity:1" d="M 834.58,155.148 834.58,140.473 z" id="boundary" inkscape:connector-curvature="0" />
	<path style="fill:none;stroke:red;stroke-width:1px;stroke-linecap:butt;stroke-linejoin:miter;stroke-opacity:1" d="M 849.254,181.562 841.917,168.355 z" id="boundary" inkscape:connector-curvature="0" />
	<path style="fill:none;stroke:red;stroke-width:1px;stroke-linecap:butt;stroke-linejoin:miter;stroke-opacity:1" d="M 827.243,127.266 834.58,140.473 z" id="boundary" inkscape:connector-curvature="0" />
	<path style="fill:none;stroke:red;stroke-width:1px;stroke-linecap:butt;stroke-linejoin:miter;stroke-opacity:1" d="M 849.254,181.562 856.592,194.769 z" id="boundary" inkscape:connector-curvature="0" />
	<path style="fill:none;stroke:red;stroke-width:1px;stroke-linecap:butt;stroke-linejoin:miter;stroke-opacity:1" d="M 856.592,194.769 856.592,209.444 z" id="boundary" inkscape:connector-curvature="0" />
	<path style="fill:none;stroke:red;stroke-width:1px;stroke-linecap:butt;stroke-linejoin:miter;stroke-opacity:1" d="M 856.592,209.444 863.929,222.651 z" id="boundary" inkscape:connector-curvature="0" />
	<path style="fill:none;stroke:red;stroke-width:1px;stroke-linecap:butt;stroke-linejoin:miter;stroke-opacity:1" d="M 863.929,222.651 863.929,237.325 z" id="boundary" inkscape:connector-curvature="0" />
	<path style="fill:none;stroke:red;stroke-width:1px;stroke-linecap:butt;stroke-linejoin:miter;stroke-opacity:1" d="M 871.266,250.533 863.929,237.325 z" id="boundary" inkscape:connector-curvature="0" />
	<path style="fill:none;stroke:red;stroke-width:1px;stroke-linecap:butt;stroke-linejoin:miter;stroke-opacity:1" d="M 803.763,262.272 803.763,247.598 z" id="boundary" inkscape:connector-curvature="0" />
	<path style="fill:none;stroke:red;stroke-width:1px;stroke-linecap:butt;stroke-linejoin:miter;stroke-opacity:1" d="M 811.101,275.479 803.763,262.272 z" id="boundary" inkscape:connector-curvature="0" />
	<path style="fill:none;stroke:red;stroke-width:1px;stroke-linecap:butt;stroke-linejoin:miter;stroke-opacity:1" d="M 811.101,275.479 811.101,290.154 z" id="boundary" inkscape:connector-curvature="0" />
	<path style="fill:none;stroke:red;stroke-width:1px;stroke-linecap:butt;stroke-linejoin:miter;stroke-opacity:1" d="M 811.101,290.154 811.101,304.828 z" id="boundary" inkscape:connector-curvature="0" />
	<path style="fill:none;stroke:red;stroke-width:1px;stroke-linecap:butt;stroke-linejoin:miter;stroke-opacity:1" d="M 803.763,367.929 800.828,385.538 z" id="boundary" inkscape:connector-curvature="0" />
	<path style="fill:none;stroke:red;stroke-width:1px;stroke-linecap:butt;stroke-linejoin:miter;stroke-opacity:1" d="M 800.828,385.538 786.154,392.876 z" id="boundary" inkscape:connector-curvature="0" />
	<path style="fill:none;stroke:red;stroke-width:1px;stroke-linecap:butt;stroke-linejoin:miter;stroke-opacity:1" d="M 803.763,353.254 803.763,367.929 z" id="boundary" inkscape:connector-curvature="0" />
	<path style="fill:none;stroke:red;stroke-width:1px;stroke-linecap:butt;stroke-linejoin:miter;stroke-opacity:1" d="M 811.101,319.503 811.101,304.828 z" id="boundary" inkscape:connector-curvature="0" />
	<path style="fill:none;stroke:red;stroke-width:1px;stroke-linecap:butt;stroke-linejoin:miter;stroke-opacity:1" d="M 811.101,334.178 803.763,353.254 z" id="boundary" inkscape:connector-curvature="0" />
	<path style="fill:none;stroke:red;stroke-width:1px;stroke-linecap:butt;stroke-linejoin:miter;stroke-opacity:1" d="M 811.101,319.503 811.101,334.178 z" id="boundary" inkscape:connector-curvature="0" />
	<path style="fill:none;stroke:red;stroke-width:1px;stroke-linecap:butt;stroke-linejoin:miter;stroke-opacity:1" d="M 877.136,265.207 878.604,279.882 z" id="boundary" inkscape:connector-curvature="0" />
	<path style="fill:none;stroke:red;stroke-width:1px;stroke-linecap:butt;stroke-linejoin:miter;stroke-opacity:1" d="M 877.136,265.207 871.266,250.533 z" id="boundary" inkscape:connector-curvature="0" />
	<path style="fill:none;stroke:red;stroke-width:1px;stroke-linecap:butt;stroke-linejoin:miter;stroke-opacity:1" d="M 878.604,279.882 884.473,294.556 z" id="boundary" inkscape:connector-curvature="0" />
	<path style="fill:none;stroke:red;stroke-width:1px;stroke-linecap:butt;stroke-linejoin:miter;stroke-opacity:1" d="M 884.473,294.556 878.604,313.633 z" id="boundary" inkscape:connector-curvature="0" />
	<path style="fill:none;stroke:red;stroke-width:1px;stroke-linecap:butt;stroke-linejoin:miter;stroke-opacity:1" d="M 878.604,328.308 878.604,313.633 z" id="boundary" inkscape:connector-curvature="0" />
	<path style="fill:none;stroke:red;stroke-width:1px;stroke-linecap:butt;stroke-linejoin:miter;stroke-opacity:1" d="M 878.604,328.308 881.538,342.982 z" id="boundary" inkscape:connector-curvature="0" />
	<path style="fill:none;stroke:red;stroke-width:1px;stroke-linecap:butt;stroke-linejoin:miter;stroke-opacity:1" d="M 881.538,342.982 885.941,357.657 z" id="boundary" inkscape:connector-curvature="0" />
	<path style="fill:none;stroke:red;stroke-width:1px;stroke-linecap:butt;stroke-linejoin:miter;stroke-opacity:1" d="M 885.941,357.657 878.604,379.669 z" id="boundary" inkscape:connector-curvature="0" />
	<path style="fill:none;stroke:red;stroke-width:1px;stroke-linecap:butt;stroke-linejoin:miter;stroke-opacity:1" d="M 878.604,379.669 871.266,401.68 z" id="boundary" inkscape:connector-curvature="0" />
	<path style="fill:none;stroke:red;stroke-width:1px;stroke-linecap:butt;stroke-linejoin:miter;stroke-opacity:1" d="M 632.071,715.716 645.278,723.053 z" id="boundary" inkscape:connector-curvature="0" />
	<path style="fill:none;stroke:red;stroke-width:1px;stroke-linecap:butt;stroke-linejoin:miter;stroke-opacity:1" d="M 645.278,723.053 659.953,724.521 z" id="boundary" inkscape:connector-curvature="0" />
	<path style="fill:none;stroke:red;stroke-width:1px;stroke-linecap:butt;stroke-linejoin:miter;stroke-opacity:1" d="M 659.953,724.521 671.692,733.325 z" id="boundary" inkscape:connector-curvature="0" />
	<path style="fill:none;stroke:red;stroke-width:1px;stroke-linecap:butt;stroke-linejoin:miter;stroke-opacity:1" d="M 632.071,715.716 617.396,709.846 z" id="boundary" inkscape:connector-curvature="0" />
	<path style="fill:none;stroke:red;stroke-width:1px;stroke-linecap:butt;stroke-linejoin:miter;stroke-opacity:1" d="M 671.692,733.325 679.03,746.533 z" id="boundary" inkscape:connector-curvature="0" />
	<path style="fill:none;stroke:red;stroke-width:1px;stroke-linecap:butt;stroke-linejoin:miter;stroke-opacity:1" d="M 686.367,759.74 698.107,768.544 z" id="boundary" inkscape:connector-curvature="0" />
	<path style="fill:none;stroke:red;stroke-width:1px;stroke-linecap:butt;stroke-linejoin:miter;stroke-opacity:1" d="M 686.367,759.74 679.03,746.533 z" id="boundary" inkscape:connector-curvature="0" />
	<path style="fill:none;stroke:red;stroke-width:1px;stroke-linecap:butt;stroke-linejoin:miter;stroke-opacity:1" d="M 709.846,778.817 698.107,768.544 z" id="boundary" inkscape:connector-curvature="0" />
	<path style="fill:none;stroke:red;stroke-width:1px;stroke-linecap:butt;stroke-linejoin:miter;stroke-opacity:1" d="M 720.118,790.556 727.456,803.763 z" id="boundary" inkscape:connector-curvature="0" />
	<path style="fill:none;stroke:red;stroke-width:1px;stroke-linecap:butt;stroke-linejoin:miter;stroke-opacity:1" d="M 727.456,803.763 730.391,818.438 z" id="boundary" inkscape:connector-curvature="0" />
	<path style="fill:none;stroke:red;stroke-width:1px;stroke-linecap:butt;stroke-linejoin:miter;stroke-opacity:1" d="M 743.598,400.213 758.272,400.213 z" id="boundary" inkscape:connector-curvature="0" />
	<path style="fill:none;stroke:red;stroke-width:1px;stroke-linecap:butt;stroke-linejoin:miter;stroke-opacity:1" d="M 772.947,400.213 758.272,400.213 z" id="boundary" inkscape:connector-curvature="0" />
	<path style="fill:none;stroke:red;stroke-width:1px;stroke-linecap:butt;stroke-linejoin:miter;stroke-opacity:1" d="M 786.154,392.876 772.947,400.213 z" id="boundary" inkscape:connector-curvature="0" />
	<path style="fill:none;stroke:red;stroke-width:1px;stroke-linecap:butt;stroke-linejoin:miter;stroke-opacity:1" d="M 720.118,790.556 709.846,778.817 z" id="boundary" inkscape:connector-curvature="0" />
	<path style="fill:none;stroke:red;stroke-width:1px;stroke-linecap:butt;stroke-linejoin:miter;stroke-opacity:1" d="M 733.325,833.112 730.391,818.438 z" id="boundary" inkscape:connector-curvature="0" />
	<path style="fill:none;stroke:red;stroke-width:1px;stroke-linecap:butt;stroke-linejoin:miter;stroke-opacity:1" d="M 737.728,847.787 733.325,833.112 z" id="boundary" inkscape:connector-curvature="0" />
	<path style="fill:none;stroke:red;stroke-width:1px;stroke-linecap:butt;stroke-linejoin:miter;stroke-opacity:1" d="M 737.728,847.787 737.728,862.462 z" id="boundary" inkscape:connector-curvature="0" />
	<path style="fill:none;stroke:red;stroke-width:1px;stroke-linecap:butt;stroke-linejoin:miter;stroke-opacity:1" d="M 737.728,877.136 737.728,862.462 z" id="boundary" inkscape:connector-curvature="0" />
	<path style="fill:none;stroke:red;stroke-width:1px;stroke-linecap:butt;stroke-linejoin:miter;stroke-opacity:1" d="M 737.728,891.811 737.728,877.136 z" id="boundary" inkscape:connector-curvature="0" />
	<path style="fill:none;stroke:red;stroke-width:1px;stroke-linecap:butt;stroke-linejoin:miter;stroke-opacity:1" d="M 705.444,950.509 720.118,943.172 z" id="boundary" inkscape:connector-curvature="0" />
	<path style="fill:none;stroke:red;stroke-width:1px;stroke-linecap:butt;stroke-linejoin:miter;stroke-opacity:1" d="M 749.467,988.663 734.793,988.663 z" id="boundary" inkscape:connector-curvature="0" />
	<path style="fill:none;stroke:red;stroke-width:1px;stroke-linecap:butt;stroke-linejoin:miter;stroke-opacity:1" d="M 737.728,921.16 734.793,935.834 z" id="boundary" inkscape:connector-curvature="0" />
	<path style="fill:none;stroke:red;stroke-width:1px;stroke-linecap:butt;stroke-linejoin:miter;stroke-opacity:1" d="M 734.793,935.834 720.118,943.172 z" id="boundary" inkscape:connector-curvature="0" />
	<path style="fill:none;stroke:red;stroke-width:1px;stroke-linecap:butt;stroke-linejoin:miter;stroke-opacity:1" d="M 705.444,950.509 693.704,962.249 z" id="boundary" inkscape:connector-curvature="0" />
	<path style="fill:none;stroke:red;stroke-width:1px;stroke-linecap:butt;stroke-linejoin:miter;stroke-opacity:1" d="M 693.704,962.249 693.704,976.923 z" id="boundary" inkscape:connector-curvature="0" />
	<path style="fill:none;stroke:red;stroke-width:1px;stroke-linecap:butt;stroke-linejoin:miter;stroke-opacity:1" d="M 705.444,987.195 693.704,976.923 z" id="boundary" inkscape:connector-curvature="0" />
	<path style="fill:none;stroke:red;stroke-width:1px;stroke-linecap:butt;stroke-linejoin:miter;stroke-opacity:1" d="M 720.118,988.663 705.444,987.195 z" id="boundary" inkscape:connector-curvature="0" />
	<path style="fill:none;stroke:red;stroke-width:1px;stroke-linecap:butt;stroke-linejoin:miter;stroke-opacity:1" d="M 720.118,988.663 734.793,988.663 z" id="boundary" inkscape:connector-curvature="0" />
	<path style="fill:none;stroke:red;stroke-width:1px;stroke-linecap:butt;stroke-linejoin:miter;stroke-opacity:1" d="M 737.728,891.811 737.728,906.485 z" id="boundary" inkscape:connector-curvature="0" />
	<path style="fill:none;stroke:red;stroke-width:1px;stroke-linecap:butt;stroke-linejoin:miter;stroke-opacity:1" d="M 737.728,906.485 737.728,921.16 z" id="boundary" inkscape:connector-curvature="0" />
	<path style="fill:none;stroke:red;stroke-width:1px;stroke-linecap:butt;stroke-linejoin:miter;stroke-opacity:1" d="M 764.142,988.663 749.467,988.663 z" id="boundary" inkscape:connector-curvature="0" />
	<path style="fill:none;stroke:red;stroke-width:1px;stroke-linecap:butt;stroke-linejoin:miter;stroke-opacity:1" d="M 855.124,966.651 846.32,978.391 z" id="boundary" inkscape:connector-curvature="0" />
	<path style="fill:none;stroke:red;stroke-width:1px;stroke-linecap:butt;stroke-linejoin:miter;stroke-opacity:1" d="M 764.142,988.663 777.349,996 z" id="boundary" inkscape:connector-curvature="0" />
	<path style="fill:none;stroke:red;stroke-width:1px;stroke-linecap:butt;stroke-linejoin:miter;stroke-opacity:1" d="M 792.024,996 777.349,996 z" id="boundary" inkscape:connector-curvature="0" />
	<path style="fill:none;stroke:red;stroke-width:1px;stroke-linecap:butt;stroke-linejoin:miter;stroke-opacity:1" d="M 834.58,988.663 821.373,996 z" id="boundary" inkscape:connector-curvature="0" />
	<path style="fill:none;stroke:red;stroke-width:1px;stroke-linecap:butt;stroke-linejoin:miter;stroke-opacity:1" d="M 821.373,996 806.698,996 z" id="boundary" inkscape:connector-curvature="0" />
	<path style="fill:none;stroke:red;stroke-width:1px;stroke-linecap:butt;stroke-linejoin:miter;stroke-opacity:1" d="M 806.698,996 792.024,996 z" id="boundary" inkscape:connector-curvature="0" />
	<path style="fill:none;stroke:red;stroke-width:1px;stroke-linecap:butt;stroke-linejoin:miter;stroke-opacity:1" d="M 846.32,978.391 834.58,988.663 z" id="boundary" inkscape:connector-curvature="0" />
	<path style="fill:none;stroke:red;stroke-width:1px;stroke-linecap:butt;stroke-linejoin:miter;stroke-opacity:1" d="M 871.266,431.03 871.266,445.704 z" id="boundary" inkscape:connector-curvature="0" />
	<path style="fill:none;stroke:red;stroke-width:1px;stroke-linecap:butt;stroke-linejoin:miter;stroke-opacity:1" d="M 871.266,445.704 871.266,460.379 z" id="boundary" inkscape:connector-curvature="0" />
	<path style="fill:none;stroke:red;stroke-width:1px;stroke-linecap:butt;stroke-linejoin:miter;stroke-opacity:1" d="M 871.266,431.03 871.266,416.355 z" id="boundary" inkscape:connector-curvature="0" />
	<path style="fill:none;stroke:red;stroke-width:1px;stroke-linecap:butt;stroke-linejoin:miter;stroke-opacity:1" d="M 871.266,475.053 878.604,488.26 z" id="boundary" inkscape:connector-curvature="0" />
	<path style="fill:none;stroke:red;stroke-width:1px;stroke-linecap:butt;stroke-linejoin:miter;stroke-opacity:1" d="M 871.266,475.053 871.266,460.379 z" id="boundary" inkscape:connector-curvature="0" />
	<path style="fill:none;stroke:red;stroke-width:1px;stroke-linecap:butt;stroke-linejoin:miter;stroke-opacity:1" d="M 885.941,501.467 878.604,488.26 z" id="boundary" inkscape:connector-curvature="0" />
	<path style="fill:none;stroke:red;stroke-width:1px;stroke-linecap:butt;stroke-linejoin:miter;stroke-opacity:1" d="M 885.941,501.467 893.278,514.675 z" id="boundary" inkscape:connector-curvature="0" />
	<path style="fill:none;stroke:red;stroke-width:1px;stroke-linecap:butt;stroke-linejoin:miter;stroke-opacity:1" d="M 893.278,514.675 899.148,529.349 z" id="boundary" inkscape:connector-curvature="0" />
	<path style="fill:none;stroke:red;stroke-width:1px;stroke-linecap:butt;stroke-linejoin:miter;stroke-opacity:1" d="M 871.266,416.355 871.266,401.68 z" id="boundary" inkscape:connector-curvature="0" />
	<path style="fill:none;stroke:red;stroke-width:1px;stroke-linecap:butt;stroke-linejoin:miter;stroke-opacity:1" d="M 899.148,529.349 907.953,541.089 z" id="boundary" inkscape:connector-curvature="0" />
	<path style="fill:none;stroke:red;stroke-width:1px;stroke-linecap:butt;stroke-linejoin:miter;stroke-opacity:1" d="M 907.953,541.089 907.953,555.763 z" id="boundary" inkscape:connector-curvature="0" />
	<path style="fill:none;stroke:red;stroke-width:1px;stroke-linecap:butt;stroke-linejoin:miter;stroke-opacity:1" d="M 910.888,585.112 907.953,570.438 z" id="boundary" inkscape:connector-curvature="0" />
	<path style="fill:none;stroke:red;stroke-width:1px;stroke-linecap:butt;stroke-linejoin:miter;stroke-opacity:1" d="M 907.953,570.438 907.953,555.763 z" id="boundary" inkscape:connector-curvature="0" />
	<path style="fill:none;stroke:red;stroke-width:1px;stroke-linecap:butt;stroke-linejoin:miter;stroke-opacity:1" d="M 915.29,599.787 910.888,585.112 z" id="boundary" inkscape:connector-curvature="0" />
	<path style="fill:none;stroke:red;stroke-width:1px;stroke-linecap:butt;stroke-linejoin:miter;stroke-opacity:1" d="M 900.615,673.16 907.953,651.148 z" id="boundary" inkscape:connector-curvature="0" />
	<path style="fill:none;stroke:red;stroke-width:1px;stroke-linecap:butt;stroke-linejoin:miter;stroke-opacity:1" d="M 915.29,614.462 915.29,629.136 z" id="boundary" inkscape:connector-curvature="0" />
	<path style="fill:none;stroke:red;stroke-width:1px;stroke-linecap:butt;stroke-linejoin:miter;stroke-opacity:1" d="M 915.29,629.136 907.953,651.148 z" id="boundary" inkscape:connector-curvature="0" />
	<path style="fill:none;stroke:red;stroke-width:1px;stroke-linecap:butt;stroke-linejoin:miter;stroke-opacity:1" d="M 915.29,599.787 915.29,614.462 z" id="boundary" inkscape:connector-curvature="0" />
	<path style="fill:none;stroke:red;stroke-width:1px;stroke-linecap:butt;stroke-linejoin:miter;stroke-opacity:1" d="M 900.615,673.16 893.278,687.834 z" id="boundary" inkscape:connector-curvature="0" />
	<path style="fill:none;stroke:red;stroke-width:1px;stroke-linecap:butt;stroke-linejoin:miter;stroke-opacity:1" d="M 878.604,731.858 878.604,746.533 z" id="boundary" inkscape:connector-curvature="0" />
	<path style="fill:none;stroke:red;stroke-width:1px;stroke-linecap:butt;stroke-linejoin:miter;stroke-opacity:1" d="M 878.604,731.858 878.604,717.183 z" id="boundary" inkscape:connector-curvature="0" />
	<path style="fill:none;stroke:red;stroke-width:1px;stroke-linecap:butt;stroke-linejoin:miter;stroke-opacity:1" d="M 878.604,717.183 890.343,706.911 z" id="boundary" inkscape:connector-curvature="0" />
	<path style="fill:none;stroke:red;stroke-width:1px;stroke-linecap:butt;stroke-linejoin:miter;stroke-opacity:1" d="M 878.604,761.207 881.538,775.882 z" id="boundary" inkscape:connector-curvature="0" />
	<path style="fill:none;stroke:red;stroke-width:1px;stroke-linecap:butt;stroke-linejoin:miter;stroke-opacity:1" d="M 878.604,761.207 878.604,746.533 z" id="boundary" inkscape:connector-curvature="0" />
	<path style="fill:none;stroke:red;stroke-width:1px;stroke-linecap:butt;stroke-linejoin:miter;stroke-opacity:1" d="M 878.604,834.58 878.604,849.254 z" id="boundary" inkscape:connector-curvature="0" />
	<path style="fill:none;stroke:red;stroke-width:1px;stroke-linecap:butt;stroke-linejoin:miter;stroke-opacity:1" d="M 855.124,966.651 863.929,951.976 z" id="boundary" inkscape:connector-curvature="0" />
	<path style="fill:none;stroke:red;stroke-width:1px;stroke-linecap:butt;stroke-linejoin:miter;stroke-opacity:1" d="M 863.929,951.976 875.669,941.704 z" id="boundary" inkscape:connector-curvature="0" />
	<path style="fill:none;stroke:red;stroke-width:1px;stroke-linecap:butt;stroke-linejoin:miter;stroke-opacity:1" d="M 878.604,922.627 875.669,941.704 z" id="boundary" inkscape:connector-curvature="0" />
	<path style="fill:none;stroke:red;stroke-width:1px;stroke-linecap:butt;stroke-linejoin:miter;stroke-opacity:1" d="M 878.604,863.929 878.604,878.604 z" id="boundary" inkscape:connector-curvature="0" />
	<path style="fill:none;stroke:red;stroke-width:1px;stroke-linecap:butt;stroke-linejoin:miter;stroke-opacity:1" d="M 878.604,863.929 878.604,849.254 z" id="boundary" inkscape:connector-curvature="0" />
	<path style="fill:none;stroke:red;stroke-width:1px;stroke-linecap:butt;stroke-linejoin:miter;stroke-opacity:1" d="M 878.604,878.604 878.604,893.278 z" id="boundary" inkscape:connector-curvature="0" />
	<path style="fill:none;stroke:red;stroke-width:1px;stroke-linecap:butt;stroke-linejoin:miter;stroke-opacity:1" d="M 878.604,834.58 885.941,819.905 z" id="boundary" inkscape:connector-curvature="0" />
	<path style="fill:none;stroke:red;stroke-width:1px;stroke-linecap:butt;stroke-linejoin:miter;stroke-opacity:1" d="M 881.538,775.882 885.941,790.556 z" id="boundary" inkscape:connector-curvature="0" />
	<path style="fill:none;stroke:red;stroke-width:1px;stroke-linecap:butt;stroke-linejoin:miter;stroke-opacity:1" d="M 885.941,790.556 885.941,805.231 z" id="boundary" inkscape:connector-curvature="0" />
	<path style="fill:none;stroke:red;stroke-width:1px;stroke-linecap:butt;stroke-linejoin:miter;stroke-opacity:1" d="M 890.343,706.911 893.278,687.834 z" id="boundary" inkscape:connector-curvature="0" />
	<path style="fill:none;stroke:red;stroke-width:1px;stroke-linecap:butt;stroke-linejoin:miter;stroke-opacity:1" d="M 885.941,805.231 885.941,819.905 z" id="boundary" inkscape:connector-curvature="0" />
	<path style="fill:none;stroke:red;stroke-width:1px;stroke-linecap:butt;stroke-linejoin:miter;stroke-opacity:1" d="M 878.604,893.278 878.604,907.953 z" id="boundary" inkscape:connector-curvature="0" />
	<path style="fill:none;stroke:red;stroke-width:1px;stroke-linecap:butt;stroke-linejoin:miter;stroke-opacity:1" d="M 878.604,922.627 878.604,907.953 z" id="boundary" inkscape:connector-curvature="0" />
	<circle cx="4" cy="566.036" r="4" fill="#0" id="circle0"/>
	<circle cx="15.7396" cy="576.308" r="4" fill="#0" id="circle1"/>
	<circle cx="18.6746" cy="561.633" r="4" fill="#0" id="circle2"/>
	<circle cx="26.0118" cy="544.024" r="4" fill="#0" id="circle3"/>
	<circle cx="30.4142" cy="577.775" r="4" fill="#0" id="circle4"/>
	<circle cx="40.6864" cy="536.686" r="4" fill="#0" id="circle5"/>
	<circle cx="43.6213" cy="585.112" r="4" fill="#0" id="circle6"/>
	<circle cx="55.3609" cy="529.349" r="4" fill="#0" id="circle7"/>
	<circle cx="58.2959" cy="589.515" r="4" fill="#0" id="circle8"/>
	<circle cx="62.6982" cy="604.189" r="4" fill="#0" id="circle9"/>
	<circle cx="64.1657" cy="618.864" r="4" fill="#0" id="circle10"/>
	<circle cx="70.0355" cy="522.012" r="4" fill="#0" id="circle11"/>
	<circle cx="71.503" cy="632.071" r="4" fill="#0" id="circle12"/>
	<circle cx="81.7751" cy="510.272" r="4" fill="#0" id="circle13"/>
	<circle cx="84.7101" cy="639.408" r="4" fill="#0" id="circle14"/>
	<circle cx="92.0473" cy="652.615" r="4" fill="#0" id="circle15"/>
	<circle cx="96.4497" cy="502.935" r="4" fill="#0" id="circle16"/>
	<circle cx="99.3846" cy="665.822" r="4" fill="#0" id="circle17"/>
	<circle cx="103.787" cy="680.497" r="4" fill="#0" id="circle18"/>
	<circle cx="108.189" cy="491.195" r="4" fill="#0" id="circle19"/>
	<circle cx="111.124" cy="693.704" r="4" fill="#0" id="circle20"/>
	<circle cx="122.864" cy="483.858" r="4" fill="#0" id="circle21"/>
	<circle cx="122.864" cy="702.509" r="4" fill="#0" id="circle22"/>
	<circle cx="136.071" cy="709.846" r="4" fill="#0" id="circle23"/>
	<circle cx="137.538" cy="476.521" r="4" fill="#0" id="circle24"/>
	<circle cx="150.746" cy="705.444" r="4" fill="#0" id="circle25"/>
	<circle cx="152.213" cy="469.183" r="4" fill="#0" id="circle26"/>
	<circle cx="165.42" cy="702.509" r="4" fill="#0" id="circle27"/>
	<circle cx="165.42" cy="918.225" r="4" fill="#0" id="circle28"/>
	<circle cx="165.42" cy="932.899" r="4" fill="#0" id="circle29"/>
	<circle cx="166.888" cy="461.846" r="4" fill="#0" id="circle30"/>
	<circle cx="172.757" cy="946.107" r="4" fill="#0" id="circle31"/>
	<circle cx="177.16" cy="693.704" r="4" fill="#0" id="circle32"/>
	<circle cx="177.16" cy="906.485" r="4" fill="#0" id="circle33"/>
	<circle cx="181.562" cy="461.846" r="4" fill="#0" id="circle34"/>
	<circle cx="183.03" cy="957.846" r="4" fill="#0" id="circle35"/>
	<circle cx="188.899" cy="894.746" r="4" fill="#0" id="circle36"/>
	<circle cx="191.834" cy="686.367" r="4" fill="#0" id="circle37"/>
	<circle cx="196.237" cy="458.911" r="4" fill="#0" id="circle38"/>
	<circle cx="197.704" cy="959.314" r="4" fill="#0" id="circle39"/>
	<circle cx="199.172" cy="671.692" r="4" fill="#0" id="circle40"/>
	<circle cx="200.639" cy="884.473" r="4" fill="#0" id="circle41"/>
	<circle cx="210.911" cy="458.911" r="4" fill="#0" id="circle42"/>
	<circle cx="210.911" cy="651.148" r="4" fill="#0" id="circle43"/>
	<circle cx="210.911" cy="872.734" r="4" fill="#0" id="circle44"/>
	<circle cx="210.911" cy="951.976" r="4" fill="#0" id="circle45"/>
	<circle cx="222.651" cy="640.876" r="4" fill="#0" id="circle46"/>
	<circle cx="224.118" cy="959.314" r="4" fill="#0" id="circle47"/>
	<circle cx="225.586" cy="458.911" r="4" fill="#0" id="circle48"/>
	<circle cx="225.586" cy="865.396" r="4" fill="#0" id="circle49"/>
	<circle cx="229.988" cy="626.201" r="4" fill="#0" id="circle50"/>
	<circle cx="237.325" cy="951.976" r="4" fill="#0" id="circle51"/>
	<circle cx="240.26" cy="454.509" r="4" fill="#0" id="circle52"/>
	<circle cx="240.26" cy="862.462" r="4" fill="#0" id="circle53"/>
	<circle cx="244.663" cy="629.136" r="4" fill="#0" id="circle54"/>
	<circle cx="250.533" cy="643.811" r="4" fill="#0" id="circle55"/>
	<circle cx="250.533" cy="943.172" r="4" fill="#0" id="circle56"/>
	<circle cx="253.467" cy="658.485" r="4" fill="#0" id="circle57"/>
	<circle cx="253.467" cy="673.16" r="4" fill="#0" id="circle58"/>
	<circle cx="253.467" cy="855.124" r="4" fill="#0" id="circle59"/>
	<circle cx="254.935" cy="451.574" r="4" fill="#0" id="circle60"/>
	<circle cx="257.87" cy="687.834" r="4" fill="#0" id="circle61"/>
	<circle cx="265.207" cy="935.834" r="4" fill="#0" id="circle62"/>
	<circle cx="266.675" cy="847.787" r="4" fill="#0" id="circle63"/>
	<circle cx="268.142" cy="444.237" r="4" fill="#0" id="circle64"/>
	<circle cx="268.142" cy="699.574" r="4" fill="#0" id="circle65"/>
	<circle cx="268.142" cy="969.586" r="4" fill="#0" id="circle66"/>
	<circle cx="275.479" cy="712.781" r="4" fill="#0" id="circle67"/>
	<circle cx="275.479" cy="982.793" r="4" fill="#0" id="circle68"/>
	<circle cx="276.947" cy="836.047" r="4" fill="#0" id="circle69"/>
	<circle cx="276.947" cy="922.627" r="4" fill="#0" id="circle70"/>
	<circle cx="279.882" cy="957.846" r="4" fill="#0" id="circle71"/>
	<circle cx="282.817" cy="441.302" r="4" fill="#0" id="circle72"/>
	<circle cx="287.219" cy="723.053" r="4" fill="#0" id="circle73"/>
	<circle cx="288.686" cy="825.775" r="4" fill="#0" id="circle74"/>
	<circle cx="290.154" cy="915.29" r="4" fill="#0" id="circle75"/>
	<circle cx="290.154" cy="988.663" r="4" fill="#0" id="circle76"/>
	<circle cx="294.556" cy="957.846" r="4" fill="#0" id="circle77"/>
	<circle cx="297.491" cy="436.899" r="4" fill="#0" id="circle78"/>
	<circle cx="297.491" cy="734.793" r="4" fill="#0" id="circle79"/>
	<circle cx="298.959" cy="814.036" r="4" fill="#0" id="circle80"/>
	<circle cx="301.893" cy="906.485" r="4" fill="#0" id="circle81"/>
	<circle cx="304.828" cy="748" r="4" fill="#0" id="circle82"/>
	<circle cx="304.828" cy="988.663" r="4" fill="#0" id="circle83"/>
	<circle cx="306.296" cy="799.361" r="4" fill="#0" id="circle84"/>
	<circle cx="307.763" cy="950.509" r="4" fill="#0" id="circle85"/>
	<circle cx="310.698" cy="429.562" r="4" fill="#0" id="circle86"/>
	<circle cx="312.166" cy="761.207" r="4" fill="#0" id="circle87"/>
	<circle cx="313.633" cy="885.941" r="4" fill="#0" id="circle88"/>
	<circle cx="316.568" cy="775.882" r="4" fill="#0" id="circle89"/>
	<circle cx="319.503" cy="988.663" r="4" fill="#0" id="circle90"/>
	<circle cx="322.438" cy="944.639" r="4" fill="#0" id="circle91"/>
	<circle cx="325.373" cy="429.562" r="4" fill="#0" id="circle92"/>
	<circle cx="328.308" cy="878.604" r="4" fill="#0" id="circle93"/>
	<circle cx="329.775" cy="929.964" r="4" fill="#0" id="circle94"/>
	<circle cx="334.178" cy="988.663" r="4" fill="#0" id="circle95"/>
	<circle cx="337.112" cy="915.29" r="4" fill="#0" id="circle96"/>
	<circle cx="338.58" cy="422.225" r="4" fill="#0" id="circle97"/>
	<circle cx="341.515" cy="871.266" r="4" fill="#0" id="circle98"/>
	<circle cx="344.45" cy="900.615" r="4" fill="#0" id="circle99"/>
	<circle cx="348.852" cy="884.473" r="4" fill="#0" id="circle100"/>
	<circle cx="348.852" cy="988.663" r="4" fill="#0" id="circle101"/>
	<circle cx="351.787" cy="414.888" r="4" fill="#0" id="circle102"/>
	<circle cx="363.527" cy="984.26" r="4" fill="#0" id="circle103"/>
	<circle cx="364.994" cy="407.55" r="4" fill="#0" id="circle104"/>
	<circle cx="370.864" cy="969.586" r="4" fill="#0" id="circle105"/>
	<circle cx="378.201" cy="400.213" r="4" fill="#0" id="circle106"/>
	<circle cx="378.201" cy="954.911" r="4" fill="#0" id="circle107"/>
	<circle cx="387.006" cy="937.302" r="4" fill="#0" id="circle108"/>
	<circle cx="392.876" cy="397.278" r="4" fill="#0" id="circle109"/>
	<circle cx="394.343" cy="922.627" r="4" fill="#0" id="circle110"/>
	<circle cx="401.68" cy="893.278" r="4" fill="#0" id="circle111"/>
	<circle cx="401.68" cy="907.953" r="4" fill="#0" id="circle112"/>
	<circle cx="407.55" cy="392.876" r="4" fill="#0" id="circle113"/>
	<circle cx="409.018" cy="871.266" r="4" fill="#0" id="circle114"/>
	<circle cx="416.355" cy="856.592" r="4" fill="#0" id="circle115"/>
	<circle cx="420.757" cy="385.538" r="4" fill="#0" id="circle116"/>
	<circle cx="423.692" cy="834.58" r="4" fill="#0" id="circle117"/>
	<circle cx="431.03" cy="819.905" r="4" fill="#0" id="circle118"/>
	<circle cx="433.964" cy="378.201" r="4" fill="#0" id="circle119"/>
	<circle cx="442.769" cy="809.633" r="4" fill="#0" id="circle120"/>
	<circle cx="448.639" cy="378.201" r="4" fill="#0" id="circle121"/>
	<circle cx="450.107" cy="794.959" r="4" fill="#0" id="circle122"/>
	<circle cx="453.041" cy="768.544" r="4" fill="#0" id="circle123"/>
	<circle cx="460.379" cy="366.462" r="4" fill="#0" id="circle124"/>
	<circle cx="460.379" cy="717.183" r="4" fill="#0" id="circle125"/>
	<circle cx="460.379" cy="731.858" r="4" fill="#0" id="circle126"/>
	<circle cx="460.379" cy="746.533" r="4" fill="#0" id="circle127"/>
	<circle cx="472.118" cy="706.911" r="4" fill="#0" id="circle128"/>
	<circle cx="475.053" cy="363.527" r="4" fill="#0" id="circle129"/>
	<circle cx="486.793" cy="702.509" r="4" fill="#0" id="circle130"/>
	<circle cx="488.26" cy="356.189" r="4" fill="#0" id="circle131"/>
	<circle cx="501.467" cy="702.509" r="4" fill="#0" id="circle132"/>
	<circle cx="502.935" cy="356.189" r="4" fill="#0" id="circle133"/>
	<circle cx="516.142" cy="348.852" r="4" fill="#0" id="circle134"/>
	<circle cx="516.142" cy="702.509" r="4" fill="#0" id="circle135"/>
	<circle cx="530.817" cy="348.852" r="4" fill="#0" id="circle136"/>
	<circle cx="530.817" cy="702.509" r="4" fill="#0" id="circle137"/>
	<circle cx="545.491" cy="348.852" r="4" fill="#0" id="circle138"/>
	<circle cx="545.491" cy="702.509" r="4" fill="#0" id="circle139"/>
	<circle cx="560.166" cy="348.852" r="4" fill="#0" id="circle140"/>
	<circle cx="560.166" cy="702.509" r="4" fill="#0" id="circle141"/>
	<circle cx="574.84" cy="348.852" r="4" fill="#0" id="circle142"/>
	<circle cx="574.84" cy="702.509" r="4" fill="#0" id="circle143"/>
	<circle cx="588.047" cy="709.846" r="4" fill="#0" id="circle144"/>
	<circle cx="589.515" cy="348.852" r="4" fill="#0" id="circle145"/>
	<circle cx="590.982" cy="30.4142" r="4" fill="#0" id="circle146"/>
	<circle cx="602.722" cy="18.6746" r="4" fill="#0" id="circle147"/>
	<circle cx="602.722" cy="356.189" r="4" fill="#0" id="circle148"/>
	<circle cx="602.722" cy="709.846" r="4" fill="#0" id="circle149"/>
	<circle cx="605.657" cy="34.8166" r="4" fill="#0" id="circle150"/>
	<circle cx="617.396" cy="11.3373" r="4" fill="#0" id="circle151"/>
	<circle cx="617.396" cy="356.189" r="4" fill="#0" id="circle152"/>
	<circle cx="617.396" cy="709.846" r="4" fill="#0" id="circle153"/>
	<circle cx="618.864" cy="42.1538" r="4" fill="#0" id="circle154"/>
	<circle cx="630.604" cy="4" r="4" fill="#0" id="circle155"/>
	<circle cx="630.604" cy="363.527" r="4" fill="#0" id="circle156"/>
	<circle cx="632.071" cy="49.4911" r="4" fill="#0" id="circle157"/>
	<circle cx="632.071" cy="715.716" r="4" fill="#0" id="circle158"/>
	<circle cx="645.278" cy="4" r="4" fill="#0" id="circle159"/>
	<circle cx="645.278" cy="363.527" r="4" fill="#0" id="circle160"/>
	<circle cx="645.278" cy="723.053" r="4" fill="#0" id="circle161"/>
	<circle cx="646.746" cy="49.4911" r="4" fill="#0" id="circle162"/>
	<circle cx="658.485" cy="370.864" r="4" fill="#0" id="circle163"/>
	<circle cx="659.953" cy="4" r="4" fill="#0" id="circle164"/>
	<circle cx="659.953" cy="724.521" r="4" fill="#0" id="circle165"/>
	<circle cx="661.42" cy="49.4911" r="4" fill="#0" id="circle166"/>
	<circle cx="671.692" cy="733.325" r="4" fill="#0" id="circle167"/>
	<circle cx="673.16" cy="375.266" r="4" fill="#0" id="circle168"/>
	<circle cx="674.627" cy="4" r="4" fill="#0" id="circle169"/>
	<circle cx="676.095" cy="49.4911" r="4" fill="#0" id="circle170"/>
	<circle cx="679.03" cy="746.533" r="4" fill="#0" id="circle171"/>
	<circle cx="686.367" cy="382.604" r="4" fill="#0" id="circle172"/>
	<circle cx="686.367" cy="759.74" r="4" fill="#0" id="circle173"/>
	<circle cx="689.302" cy="4" r="4" fill="#0" id="circle174"/>
	<circle cx="690.769" cy="55.3609" r="4" fill="#0" id="circle175"/>
	<circle cx="693.704" cy="962.249" r="4" fill="#0" id="circle176"/>
	<circle cx="693.704" cy="976.923" r="4" fill="#0" id="circle177"/>
	<circle cx="698.107" cy="768.544" r="4" fill="#0" id="circle178"/>
	<circle cx="701.041" cy="388.473" r="4" fill="#0" id="circle179"/>
	<circle cx="703.976" cy="4" r="4" fill="#0" id="circle180"/>
	<circle cx="703.976" cy="62.6982" r="4" fill="#0" id="circle181"/>
	<circle cx="705.444" cy="950.509" r="4" fill="#0" id="circle182"/>
	<circle cx="705.444" cy="987.195" r="4" fill="#0" id="circle183"/>
	<circle cx="709.846" cy="778.817" r="4" fill="#0" id="circle184"/>
	<circle cx="715.716" cy="392.876" r="4" fill="#0" id="circle185"/>
	<circle cx="718.651" cy="4" r="4" fill="#0" id="circle186"/>
	<circle cx="718.651" cy="64.1657" r="4" fill="#0" id="circle187"/>
	<circle cx="720.118" cy="790.556" r="4" fill="#0" id="circle188"/>
	<circle cx="720.118" cy="943.172" r="4" fill="#0" id="circle189"/>
	<circle cx="720.118" cy="988.663" r="4" fill="#0" id="circle190"/>
	<circle cx="727.456" cy="803.763" r="4" fill="#0" id="circle191"/>
	<circle cx="728.923" cy="400.213" r="4" fill="#0" id="circle192"/>
	<circle cx="730.391" cy="818.438" r="4" fill="#0" id="circle193"/>
	<circle cx="731.858" cy="71.503" r="4" fill="#0" id="circle194"/>
	<circle cx="733.325" cy="4" r="4" fill="#0" id="circle195"/>
	<circle cx="733.325" cy="833.112" r="4" fill="#0" id="circle196"/>
	<circle cx="734.793" cy="935.834" r="4" fill="#0" id="circle197"/>
	<circle cx="734.793" cy="988.663" r="4" fill="#0" id="circle198"/>
	<circle cx="737.728" cy="847.787" r="4" fill="#0" id="circle199"/>
	<circle cx="737.728" cy="862.462" r="4" fill="#0" id="circle200"/>
	<circle cx="737.728" cy="877.136" r="4" fill="#0" id="circle201"/>
	<circle cx="737.728" cy="891.811" r="4" fill="#0" id="circle202"/>
	<circle cx="737.728" cy="906.485" r="4" fill="#0" id="circle203"/>
	<circle cx="737.728" cy="921.16" r="4" fill="#0" id="circle204"/>
	<circle cx="743.598" cy="400.213" r="4" fill="#0" id="circle205"/>
	<circle cx="745.065" cy="78.8402" r="4" fill="#0" id="circle206"/>
	<circle cx="748" cy="5.46746" r="4" fill="#0" id="circle207"/>
	<circle cx="749.467" cy="93.5148" r="4" fill="#0" id="circle208"/>
	<circle cx="749.467" cy="988.663" r="4" fill="#0" id="circle209"/>
	<circle cx="756.805" cy="106.722" r="4" fill="#0" id="circle210"/>
	<circle cx="758.272" cy="400.213" r="4" fill="#0" id="circle211"/>
	<circle cx="762.675" cy="11.3373" r="4" fill="#0" id="circle212"/>
	<circle cx="762.675" cy="121.396" r="4" fill="#0" id="circle213"/>
	<circle cx="764.142" cy="988.663" r="4" fill="#0" id="circle214"/>
	<circle cx="767.077" cy="136.071" r="4" fill="#0" id="circle215"/>
	<circle cx="768.544" cy="26.0118" r="4" fill="#0" id="circle216"/>
	<circle cx="772.947" cy="400.213" r="4" fill="#0" id="circle217"/>
	<circle cx="774.414" cy="149.278" r="4" fill="#0" id="circle218"/>
	<circle cx="775.882" cy="163.953" r="4" fill="#0" id="circle219"/>
	<circle cx="777.349" cy="996" r="4" fill="#0" id="circle220"/>
	<circle cx="780.284" cy="34.8166" r="4" fill="#0" id="circle221"/>
	<circle cx="781.751" cy="178.627" r="4" fill="#0" id="circle222"/>
	<circle cx="786.154" cy="392.876" r="4" fill="#0" id="circle223"/>
	<circle cx="789.089" cy="191.834" r="4" fill="#0" id="circle224"/>
	<circle cx="790.556" cy="46.5562" r="4" fill="#0" id="circle225"/>
	<circle cx="792.024" cy="996" r="4" fill="#0" id="circle226"/>
	<circle cx="796.426" cy="205.041" r="4" fill="#0" id="circle227"/>
	<circle cx="796.426" cy="219.716" r="4" fill="#0" id="circle228"/>
	<circle cx="797.893" cy="59.7633" r="4" fill="#0" id="circle229"/>
	<circle cx="800.828" cy="385.538" r="4" fill="#0" id="circle230"/>
	<circle cx="803.763" cy="232.923" r="4" fill="#0" id="circle231"/>
	<circle cx="803.763" cy="247.598" r="4" fill="#0" id="circle232"/>
	<circle cx="803.763" cy="262.272" r="4" fill="#0" id="circle233"/>
	<circle cx="803.763" cy="353.254" r="4" fill="#0" id="circle234"/>
	<circle cx="803.763" cy="367.929" r="4" fill="#0" id="circle235"/>
	<circle cx="805.231" cy="72.9704" r="4" fill="#0" id="circle236"/>
	<circle cx="806.698" cy="996" r="4" fill="#0" id="circle237"/>
	<circle cx="811.101" cy="275.479" r="4" fill="#0" id="circle238"/>
	<circle cx="811.101" cy="290.154" r="4" fill="#0" id="circle239"/>
	<circle cx="811.101" cy="304.828" r="4" fill="#0" id="circle240"/>
	<circle cx="811.101" cy="319.503" r="4" fill="#0" id="circle241"/>
	<circle cx="811.101" cy="334.178" r="4" fill="#0" id="circle242"/>
	<circle cx="814.036" cy="84.7101" r="4" fill="#0" id="circle243"/>
	<circle cx="819.905" cy="99.3846" r="4" fill="#0" id="circle244"/>
	<circle cx="819.905" cy="114.059" r="4" fill="#0" id="circle245"/>
	<circle cx="821.373" cy="996" r="4" fill="#0" id="circle246"/>
	<circle cx="827.243" cy="127.266" r="4" fill="#0" id="circle247"/>
	<circle cx="834.58" cy="140.473" r="4" fill="#0" id="circle248"/>
	<circle cx="834.58" cy="155.148" r="4" fill="#0" id="circle249"/>
	<circle cx="834.58" cy="988.663" r="4" fill="#0" id="circle250"/>
	<circle cx="841.917" cy="168.355" r="4" fill="#0" id="circle251"/>
	<circle cx="846.32" cy="978.391" r="4" fill="#0" id="circle252"/>
	<circle cx="849.254" cy="181.562" r="4" fill="#0" id="circle253"/>
	<circle cx="855.124" cy="966.651" r="4" fill="#0" id="circle254"/>
	<circle cx="856.592" cy="194.769" r="4" fill="#0" id="circle255"/>
	<circle cx="856.592" cy="209.444" r="4" fill="#0" id="circle256"/>
	<circle cx="863.929" cy="222.651" r="4" fill="#0" id="circle257"/>
	<circle cx="863.929" cy="237.325" r="4" fill="#0" id="circle258"/>
	<circle cx="863.929" cy="951.976" r="4" fill="#0" id="circle259"/>
	<circle cx="871.266" cy="250.533" r="4" fill="#0" id="circle260"/>
	<circle cx="871.266" cy="401.68" r="4" fill="#0" id="circle261"/>
	<circle cx="871.266" cy="416.355" r="4" fill="#0" id="circle262"/>
	<circle cx="871.266" cy="431.03" r="4" fill="#0" id="circle263"/>
	<circle cx="871.266" cy="445.704" r="4" fill="#0" id="circle264"/>
	<circle cx="871.266" cy="460.379" r="4" fill="#0" id="circle265"/>
	<circle cx="871.266" cy="475.053" r="4" fill="#0" id="circle266"/>
	<circle cx="875.669" cy="941.704" r="4" fill="#0" id="circle267"/>
	<circle cx="877.136" cy="265.207" r="4" fill="#0" id="circle268"/>
	<circle cx="878.604" cy="279.882" r="4" fill="#0" id="circle269"/>
	<circle cx="878.604" cy="313.633" r="4" fill="#0" id="circle270"/>
	<circle cx="878.604" cy="328.308" r="4" fill="#0" id="circle271"/>
	<circle cx="878.604" cy="379.669" r="4" fill="#0" id="circle272"/>
	<circle cx="878.604" cy="488.26" r="4" fill="#0" id="circle273"/>
	<circle cx="878.604" cy="717.183" r="4" fill="#0" id="circle274"/>
	<circle cx="878.604" cy="731.858" r="4" fill="#0" id="circle275"/>
	<circle cx="878.604" cy="746.533" r="4" fill="#0" id="circle276"/>
	<circle cx="878.604" cy="761.207" r="4" fill="#0" id="circle277"/>
	<circle cx="878.604" cy="834.58" r="4" fill="#0" id="circle278"/>
	<circle cx="878.604" cy="849.254" r="4" fill="#0" id="circle279"/>
	<circle cx="878.604" cy="863.929" r="4" fill="#0" id="circle280"/>
	<circle cx="878.604" cy="878.604" r="4" fill="#0" id="circle281"/>
	<circle cx="878.604" cy="893.278" r="4" fill="#0" id="circle282"/>
	<circle cx="878.604" cy="907.953" r="4" fill="#0" id="circle283"/>
	<circle cx="878.604" cy="922.627" r="4" fill="#0" id="circle284"/>
	<circle cx="881.538" cy="342.982" r="4" fill="#0" id="circle285"/>
	<circle cx="881.538" cy="775.882" r="4" fill="#0" id="circle286"/>
	<circle cx="884.473" cy="294.556" r="4" fill="#0" id="circle287"/>
	<circle cx="885.941" cy="357.657" r="4" fill="#0" id="circle288"/>
	<circle cx="885.941" cy="501.467" r="4" fill="#0" id="circle289"/>
	<circle cx="885.941" cy="790.556" r="4" fill="#0" id="circle290"/>
	<circle cx="885.941" cy="805.231" r="4" fill="#0" id="circle291"/>
	<circle cx="885.941" cy="819.905" r="4" fill="#0" id="circle292"/>
	<circle cx="890.343" cy="706.911" r="4" fill="#0" id="circle293"/>
	<circle cx="893.278" cy="514.675" r="4" fill="#0" id="circle294"/>
	<circle cx="893.278" cy="687.834" r="4" fill="#0" id="circle295"/>
	<circle cx="899.148" cy="529.349" r="4" fill="#0" id="circle296"/>
	<circle cx="900.615" cy="673.16" r="4" fill="#0" id="circle297"/>
	<circle cx="907.953" cy="541.089" r="4" fill="#0" id="circle298"/>
	<circle cx="907.953" cy="555.763" r="4" fill="#0" id="circle299"/>
	<circle cx="907.953" cy="570.438" r="4" fill="#0" id="circle300"/>
	<circle cx="907.953" cy="651.148" r="4" fill="#0" id="circle301"/>
	<circle cx="910.888" cy="585.112" r="4" fill="#0" id="circle302"/>
	<circle cx="915.29" cy="599.787" r="4" fill="#0" id="circle303"/>
	<circle cx="915.29" cy="614.462" r="4" fill="#0" id="circle304"/>
	<circle cx="915.29" cy="629.136" r="4" fill="#0" id="circle305"/>
	</g>
</svg>