<?xml version="1.0" encoding="UTF-8" standalone="no"?>
<!-- Created with CurveBenchmark -->
<svg
	xmlns:dc="http://purl.org/dc/elements/1.1/"
	xmlns:cc="http://creativecommons.org/ns#"
	xmlns:rdf="http://www.w3.org/1999/02/22-rdf-syntax-ns#"
	xmlns:svg="http://www.w3.org/2000/svg"
	xmlns="http://www.w3.org/2000/svg"
	xmlns:sodipodi="http://sodipodi.sourceforge.net/DTD/sodipodi-0.dtd"
	xmlns:inkscape="http://www.inkscape.org/namespaces/inkscape"
	width="1000"
	height="1000"
	id="svg2"
	version="1.1"
	sodipodi:docname="manifold/gathang-ray10.png.txt">
<defs
	id="defs4" />
<metadata
	id="metadata7">
	<rdf:RDF>
		<cc:Work
			rdf:about="">
			<dc:format>image/svg+xml</dc:format>
			<dc:type
				rdf:resource="http://purl.org/dc/dcmitype/StillImage" />
			<dc:title></dc:title>
		</cc:Work>
	</rdf:RDF>
</metadata>
<g
	inkscape:label="Layer 1"
	inkscape:groupmode="layer"
	id="layer1">
	<path style="fill:none;stroke:red;stroke-width:1px;stroke-linecap:butt;stroke-linejoin:miter;stroke-opacity:1" d="M 311.655,38.5174 311.655,53.525 z" id="boundary" inkscape:connector-curvature="0" />
	<path style="fill:none;stroke:red;stroke-width:1px;stroke-linecap:butt;stroke-linejoin:miter;stroke-opacity:1" d="M 311.655,68.5325 311.655,53.525 z" id="boundary" inkscape:connector-curvature="0" />
	<path style="fill:none;stroke:red;stroke-width:1px;stroke-linecap:butt;stroke-linejoin:miter;stroke-opacity:1" d="M 319.159,82.0393 311.655,68.5325 z" id="boundary" inkscape:connector-curvature="0" />
	<path style="fill:none;stroke:red;stroke-width:1px;stroke-linecap:butt;stroke-linejoin:miter;stroke-opacity:1" d="M 19.0076,383.691 34.0151,382.191 z" id="boundary" inkscape:connector-curvature="0" />
	<path style="fill:none;stroke:red;stroke-width:1px;stroke-linecap:butt;stroke-linejoin:miter;stroke-opacity:1" d="M 319.159,82.0393 319.159,97.0469 z" id="boundary" inkscape:connector-curvature="0" />
	<path style="fill:none;stroke:red;stroke-width:1px;stroke-linecap:butt;stroke-linejoin:miter;stroke-opacity:1" d="M 47.5219,389.694 34.0151,382.191 z" id="boundary" inkscape:connector-curvature="0" />
	<path style="fill:none;stroke:red;stroke-width:1px;stroke-linecap:butt;stroke-linejoin:miter;stroke-opacity:1" d="M 311.655,38.5174 323.661,26.5113 z" id="boundary" inkscape:connector-curvature="0" />
	<path style="fill:none;stroke:red;stroke-width:1px;stroke-linecap:butt;stroke-linejoin:miter;stroke-opacity:1" d="M 19.0076,383.691 4,391.195 z" id="boundary" inkscape:connector-curvature="0" />
	<path style="fill:none;stroke:red;stroke-width:1px;stroke-linecap:butt;stroke-linejoin:miter;stroke-opacity:1" d="M 319.159,112.054 319.159,97.0469 z" id="boundary" inkscape:connector-curvature="0" />
	<path style="fill:none;stroke:red;stroke-width:1px;stroke-linecap:butt;stroke-linejoin:miter;stroke-opacity:1" d="M 319.159,127.062 326.663,140.569 z" id="boundary" inkscape:connector-curvature="0" />
	<path style="fill:none;stroke:red;stroke-width:1px;stroke-linecap:butt;stroke-linejoin:miter;stroke-opacity:1" d="M 319.159,127.062 319.159,112.054 z" id="boundary" inkscape:connector-curvature="0" />
	<path style="fill:none;stroke:red;stroke-width:1px;stroke-linecap:butt;stroke-linejoin:miter;stroke-opacity:1" d="M 326.663,196.097 326.663,211.104 z" id="boundary" inkscape:connector-curvature="0" />
	<path style="fill:none;stroke:red;stroke-width:1px;stroke-linecap:butt;stroke-linejoin:miter;stroke-opacity:1" d="M 326.663,196.097 334.166,169.083 z" id="boundary" inkscape:connector-curvature="0" />
	<path style="fill:none;stroke:red;stroke-width:1px;stroke-linecap:butt;stroke-linejoin:miter;stroke-opacity:1" d="M 323.661,26.5113 337.168,19.0076 z" id="boundary" inkscape:connector-curvature="0" />
	<path style="fill:none;stroke:red;stroke-width:1px;stroke-linecap:butt;stroke-linejoin:miter;stroke-opacity:1" d="M 19.0076,410.705 4,406.203 z" id="boundary" inkscape:connector-curvature="0" />
	<path style="fill:none;stroke:red;stroke-width:1px;stroke-linecap:butt;stroke-linejoin:miter;stroke-opacity:1" d="M 4,406.203 4,391.195 z" id="boundary" inkscape:connector-curvature="0" />
	<path style="fill:none;stroke:red;stroke-width:1px;stroke-linecap:butt;stroke-linejoin:miter;stroke-opacity:1" d="M 32.5144,418.209 19.0076,410.705 z" id="boundary" inkscape:connector-curvature="0" />
	<path style="fill:none;stroke:red;stroke-width:1px;stroke-linecap:butt;stroke-linejoin:miter;stroke-opacity:1" d="M 55.0257,440.72 43.0197,430.215 z" id="boundary" inkscape:connector-curvature="0" />
	<path style="fill:none;stroke:red;stroke-width:1px;stroke-linecap:butt;stroke-linejoin:miter;stroke-opacity:1" d="M 55.0257,440.72 56.5265,455.728 z" id="boundary" inkscape:connector-curvature="0" />
	<path style="fill:none;stroke:red;stroke-width:1px;stroke-linecap:butt;stroke-linejoin:miter;stroke-opacity:1" d="M 43.0197,430.215 32.5144,418.209 z" id="boundary" inkscape:connector-curvature="0" />
	<path style="fill:none;stroke:red;stroke-width:1px;stroke-linecap:butt;stroke-linejoin:miter;stroke-opacity:1" d="M 73.0348,401.7 88.0424,406.203 z" id="boundary" inkscape:connector-curvature="0" />
	<path style="fill:none;stroke:red;stroke-width:1px;stroke-linecap:butt;stroke-linejoin:miter;stroke-opacity:1" d="M 47.5219,389.694 58.0272,401.7 z" id="boundary" inkscape:connector-curvature="0" />
	<path style="fill:none;stroke:red;stroke-width:1px;stroke-linecap:butt;stroke-linejoin:miter;stroke-opacity:1" d="M 88.0424,406.203 101.549,413.707 z" id="boundary" inkscape:connector-curvature="0" />
	<path style="fill:none;stroke:red;stroke-width:1px;stroke-linecap:butt;stroke-linejoin:miter;stroke-opacity:1" d="M 101.549,413.707 110.554,425.713 z" id="boundary" inkscape:connector-curvature="0" />
	<path style="fill:none;stroke:red;stroke-width:1px;stroke-linecap:butt;stroke-linejoin:miter;stroke-opacity:1" d="M 110.554,425.713 110.554,440.72 z" id="boundary" inkscape:connector-curvature="0" />
	<path style="fill:none;stroke:red;stroke-width:1px;stroke-linecap:butt;stroke-linejoin:miter;stroke-opacity:1" d="M 64.0303,469.234 56.5265,455.728 z" id="boundary" inkscape:connector-curvature="0" />
	<path style="fill:none;stroke:red;stroke-width:1px;stroke-linecap:butt;stroke-linejoin:miter;stroke-opacity:1" d="M 118.057,454.227 110.554,440.72 z" id="boundary" inkscape:connector-curvature="0" />
	<path style="fill:none;stroke:red;stroke-width:1px;stroke-linecap:butt;stroke-linejoin:miter;stroke-opacity:1" d="M 130.064,463.231 118.057,454.227 z" id="boundary" inkscape:connector-curvature="0" />
	<path style="fill:none;stroke:red;stroke-width:1px;stroke-linecap:butt;stroke-linejoin:miter;stroke-opacity:1" d="M 58.0272,401.7 73.0348,401.7 z" id="boundary" inkscape:connector-curvature="0" />
	<path style="fill:none;stroke:red;stroke-width:1px;stroke-linecap:butt;stroke-linejoin:miter;stroke-opacity:1" d="M 326.663,211.104 326.663,226.112 z" id="boundary" inkscape:connector-curvature="0" />
	<path style="fill:none;stroke:red;stroke-width:1px;stroke-linecap:butt;stroke-linejoin:miter;stroke-opacity:1" d="M 326.663,140.569 334.166,154.076 z" id="boundary" inkscape:connector-curvature="0" />
	<path style="fill:none;stroke:red;stroke-width:1px;stroke-linecap:butt;stroke-linejoin:miter;stroke-opacity:1" d="M 334.166,154.076 334.166,169.083 z" id="boundary" inkscape:connector-curvature="0" />
	<path style="fill:none;stroke:red;stroke-width:1px;stroke-linecap:butt;stroke-linejoin:miter;stroke-opacity:1" d="M 326.663,241.12 326.663,256.127 z" id="boundary" inkscape:connector-curvature="0" />
	<path style="fill:none;stroke:red;stroke-width:1px;stroke-linecap:butt;stroke-linejoin:miter;stroke-opacity:1" d="M 334.166,269.634 326.663,256.127 z" id="boundary" inkscape:connector-curvature="0" />
	<path style="fill:none;stroke:red;stroke-width:1px;stroke-linecap:butt;stroke-linejoin:miter;stroke-opacity:1" d="M 334.166,269.634 334.166,284.641 z" id="boundary" inkscape:connector-curvature="0" />
	<path style="fill:none;stroke:red;stroke-width:1px;stroke-linecap:butt;stroke-linejoin:miter;stroke-opacity:1" d="M 326.663,241.12 326.663,226.112 z" id="boundary" inkscape:connector-curvature="0" />
	<path style="fill:none;stroke:red;stroke-width:1px;stroke-linecap:butt;stroke-linejoin:miter;stroke-opacity:1" d="M 334.166,284.641 334.166,299.649 z" id="boundary" inkscape:connector-curvature="0" />
	<path style="fill:none;stroke:red;stroke-width:1px;stroke-linecap:butt;stroke-linejoin:miter;stroke-opacity:1" d="M 350.675,11.5038 365.682,11.5038 z" id="boundary" inkscape:connector-curvature="0" />
	<path style="fill:none;stroke:red;stroke-width:1px;stroke-linecap:butt;stroke-linejoin:miter;stroke-opacity:1" d="M 337.168,19.0076 350.675,11.5038 z" id="boundary" inkscape:connector-curvature="0" />
	<path style="fill:none;stroke:red;stroke-width:1px;stroke-linecap:butt;stroke-linejoin:miter;stroke-opacity:1" d="M 380.69,11.5038 365.682,11.5038 z" id="boundary" inkscape:connector-curvature="0" />
	<path style="fill:none;stroke:red;stroke-width:1px;stroke-linecap:butt;stroke-linejoin:miter;stroke-opacity:1" d="M 380.69,11.5038 395.697,11.5038 z" id="boundary" inkscape:connector-curvature="0" />
	<path style="fill:none;stroke:red;stroke-width:1px;stroke-linecap:butt;stroke-linejoin:miter;stroke-opacity:1" d="M 395.697,11.5038 409.204,19.0076 z" id="boundary" inkscape:connector-curvature="0" />
	<path style="fill:none;stroke:red;stroke-width:1px;stroke-linecap:butt;stroke-linejoin:miter;stroke-opacity:1" d="M 409.204,19.0076 424.212,19.0076 z" id="boundary" inkscape:connector-curvature="0" />
	<path style="fill:none;stroke:red;stroke-width:1px;stroke-linecap:butt;stroke-linejoin:miter;stroke-opacity:1" d="M 439.219,19.0076 424.212,19.0076 z" id="boundary" inkscape:connector-curvature="0" />
	<path style="fill:none;stroke:red;stroke-width:1px;stroke-linecap:butt;stroke-linejoin:miter;stroke-opacity:1" d="M 334.166,299.649 341.67,313.156 z" id="boundary" inkscape:connector-curvature="0" />
	<path style="fill:none;stroke:red;stroke-width:1px;stroke-linecap:butt;stroke-linejoin:miter;stroke-opacity:1" d="M 341.67,313.156 346.172,328.163 z" id="boundary" inkscape:connector-curvature="0" />
	<path style="fill:none;stroke:red;stroke-width:1px;stroke-linecap:butt;stroke-linejoin:miter;stroke-opacity:1" d="M 353.676,341.67 346.172,328.163 z" id="boundary" inkscape:connector-curvature="0" />
	<path style="fill:none;stroke:red;stroke-width:1px;stroke-linecap:butt;stroke-linejoin:miter;stroke-opacity:1" d="M 353.676,341.67 364.182,353.676 z" id="boundary" inkscape:connector-curvature="0" />
	<path style="fill:none;stroke:red;stroke-width:1px;stroke-linecap:butt;stroke-linejoin:miter;stroke-opacity:1" d="M 376.188,364.182 389.694,371.685 z" id="boundary" inkscape:connector-curvature="0" />
	<path style="fill:none;stroke:red;stroke-width:1px;stroke-linecap:butt;stroke-linejoin:miter;stroke-opacity:1" d="M 376.188,364.182 364.182,353.676 z" id="boundary" inkscape:connector-curvature="0" />
	<path style="fill:none;stroke:red;stroke-width:1px;stroke-linecap:butt;stroke-linejoin:miter;stroke-opacity:1" d="M 401.7,380.69 410.705,392.696 z" id="boundary" inkscape:connector-curvature="0" />
	<path style="fill:none;stroke:red;stroke-width:1px;stroke-linecap:butt;stroke-linejoin:miter;stroke-opacity:1" d="M 410.705,392.696 406.203,409.204 z" id="boundary" inkscape:connector-curvature="0" />
	<path style="fill:none;stroke:red;stroke-width:1px;stroke-linecap:butt;stroke-linejoin:miter;stroke-opacity:1" d="M 406.203,409.204 394.197,421.21 z" id="boundary" inkscape:connector-curvature="0" />
	<path style="fill:none;stroke:red;stroke-width:1px;stroke-linecap:butt;stroke-linejoin:miter;stroke-opacity:1" d="M 401.7,434.717 394.197,421.21 z" id="boundary" inkscape:connector-curvature="0" />
	<path style="fill:none;stroke:red;stroke-width:1px;stroke-linecap:butt;stroke-linejoin:miter;stroke-opacity:1" d="M 401.7,434.717 416.708,440.72 z" id="boundary" inkscape:connector-curvature="0" />
	<path style="fill:none;stroke:red;stroke-width:1px;stroke-linecap:butt;stroke-linejoin:miter;stroke-opacity:1" d="M 421.21,455.728 416.708,440.72 z" id="boundary" inkscape:connector-curvature="0" />
	<path style="fill:none;stroke:red;stroke-width:1px;stroke-linecap:butt;stroke-linejoin:miter;stroke-opacity:1" d="M 389.694,371.685 401.7,380.69 z" id="boundary" inkscape:connector-curvature="0" />
	<path style="fill:none;stroke:red;stroke-width:1px;stroke-linecap:butt;stroke-linejoin:miter;stroke-opacity:1" d="M 421.21,455.728 409.204,466.233 z" id="boundary" inkscape:connector-curvature="0" />
	<path style="fill:none;stroke:red;stroke-width:1px;stroke-linecap:butt;stroke-linejoin:miter;stroke-opacity:1" d="M 64.0303,469.234 71.534,482.741 z" id="boundary" inkscape:connector-curvature="0" />
	<path style="fill:none;stroke:red;stroke-width:1px;stroke-linecap:butt;stroke-linejoin:miter;stroke-opacity:1" d="M 71.534,482.741 73.0348,497.749 z" id="boundary" inkscape:connector-curvature="0" />
	<path style="fill:none;stroke:red;stroke-width:1px;stroke-linecap:butt;stroke-linejoin:miter;stroke-opacity:1" d="M 80.5386,511.256 73.0348,497.749 z" id="boundary" inkscape:connector-curvature="0" />
	<path style="fill:none;stroke:red;stroke-width:1px;stroke-linecap:butt;stroke-linejoin:miter;stroke-opacity:1" d="M 80.5386,511.256 91.0439,523.262 z" id="boundary" inkscape:connector-curvature="0" />
	<path style="fill:none;stroke:red;stroke-width:1px;stroke-linecap:butt;stroke-linejoin:miter;stroke-opacity:1" d="M 103.05,533.767 109.053,548.775 z" id="boundary" inkscape:connector-curvature="0" />
	<path style="fill:none;stroke:red;stroke-width:1px;stroke-linecap:butt;stroke-linejoin:miter;stroke-opacity:1" d="M 91.0439,523.262 103.05,533.767 z" id="boundary" inkscape:connector-curvature="0" />
	<path style="fill:none;stroke:red;stroke-width:1px;stroke-linecap:butt;stroke-linejoin:miter;stroke-opacity:1" d="M 152.575,485.743 140.569,475.238 z" id="boundary" inkscape:connector-curvature="0" />
	<path style="fill:none;stroke:red;stroke-width:1px;stroke-linecap:butt;stroke-linejoin:miter;stroke-opacity:1" d="M 140.569,475.238 130.064,463.231 z" id="boundary" inkscape:connector-curvature="0" />
	<path style="fill:none;stroke:red;stroke-width:1px;stroke-linecap:butt;stroke-linejoin:miter;stroke-opacity:1" d="M 152.575,485.743 155.576,500.75 z" id="boundary" inkscape:connector-curvature="0" />
	<path style="fill:none;stroke:red;stroke-width:1px;stroke-linecap:butt;stroke-linejoin:miter;stroke-opacity:1" d="M 155.576,500.75 155.576,515.758 z" id="boundary" inkscape:connector-curvature="0" />
	<path style="fill:none;stroke:red;stroke-width:1px;stroke-linecap:butt;stroke-linejoin:miter;stroke-opacity:1" d="M 155.576,530.766 155.576,515.758 z" id="boundary" inkscape:connector-curvature="0" />
	<path style="fill:none;stroke:red;stroke-width:1px;stroke-linecap:butt;stroke-linejoin:miter;stroke-opacity:1" d="M 121.059,559.28 109.053,548.775 z" id="boundary" inkscape:connector-curvature="0" />
	<path style="fill:none;stroke:red;stroke-width:1px;stroke-linecap:butt;stroke-linejoin:miter;stroke-opacity:1" d="M 176.587,551.776 163.08,544.272 z" id="boundary" inkscape:connector-curvature="0" />
	<path style="fill:none;stroke:red;stroke-width:1px;stroke-linecap:butt;stroke-linejoin:miter;stroke-opacity:1" d="M 163.08,544.272 155.576,530.766 z" id="boundary" inkscape:connector-curvature="0" />
	<path style="fill:none;stroke:red;stroke-width:1px;stroke-linecap:butt;stroke-linejoin:miter;stroke-opacity:1" d="M 247.123,574.287 232.115,574.287 z" id="boundary" inkscape:connector-curvature="0" />
	<path style="fill:none;stroke:red;stroke-width:1px;stroke-linecap:butt;stroke-linejoin:miter;stroke-opacity:1" d="M 131.564,571.286 121.059,559.28 z" id="boundary" inkscape:connector-curvature="0" />
	<path style="fill:none;stroke:red;stroke-width:1px;stroke-linecap:butt;stroke-linejoin:miter;stroke-opacity:1" d="M 146.572,575.788 131.564,571.286 z" id="boundary" inkscape:connector-curvature="0" />
	<path style="fill:none;stroke:red;stroke-width:1px;stroke-linecap:butt;stroke-linejoin:miter;stroke-opacity:1" d="M 146.572,575.788 151.074,590.796 z" id="boundary" inkscape:connector-curvature="0" />
	<path style="fill:none;stroke:red;stroke-width:1px;stroke-linecap:butt;stroke-linejoin:miter;stroke-opacity:1" d="M 164.581,598.3 151.074,590.796 z" id="boundary" inkscape:connector-curvature="0" />
	<path style="fill:none;stroke:red;stroke-width:1px;stroke-linecap:butt;stroke-linejoin:miter;stroke-opacity:1" d="M 178.088,605.803 164.581,598.3 z" id="boundary" inkscape:connector-curvature="0" />
	<path style="fill:none;stroke:red;stroke-width:1px;stroke-linecap:butt;stroke-linejoin:miter;stroke-opacity:1" d="M 176.587,551.776 190.094,559.28 z" id="boundary" inkscape:connector-curvature="0" />
	<path style="fill:none;stroke:red;stroke-width:1px;stroke-linecap:butt;stroke-linejoin:miter;stroke-opacity:1" d="M 191.595,613.307 178.088,605.803 z" id="boundary" inkscape:connector-curvature="0" />
	<path style="fill:none;stroke:red;stroke-width:1px;stroke-linecap:butt;stroke-linejoin:miter;stroke-opacity:1" d="M 203.601,566.784 190.094,559.28 z" id="boundary" inkscape:connector-curvature="0" />
	<path style="fill:none;stroke:red;stroke-width:1px;stroke-linecap:butt;stroke-linejoin:miter;stroke-opacity:1" d="M 217.107,574.287 203.601,566.784 z" id="boundary" inkscape:connector-curvature="0" />
	<path style="fill:none;stroke:red;stroke-width:1px;stroke-linecap:butt;stroke-linejoin:miter;stroke-opacity:1" d="M 232.115,574.287 217.107,574.287 z" id="boundary" inkscape:connector-curvature="0" />
	<path style="fill:none;stroke:red;stroke-width:1px;stroke-linecap:butt;stroke-linejoin:miter;stroke-opacity:1" d="M 205.101,620.811 191.595,613.307 z" id="boundary" inkscape:connector-curvature="0" />
	<path style="fill:none;stroke:red;stroke-width:1px;stroke-linecap:butt;stroke-linejoin:miter;stroke-opacity:1" d="M 232.115,620.811 218.608,628.315 z" id="boundary" inkscape:connector-curvature="0" />
	<path style="fill:none;stroke:red;stroke-width:1px;stroke-linecap:butt;stroke-linejoin:miter;stroke-opacity:1" d="M 218.608,628.315 205.101,620.811 z" id="boundary" inkscape:connector-curvature="0" />
	<path style="fill:none;stroke:red;stroke-width:1px;stroke-linecap:butt;stroke-linejoin:miter;stroke-opacity:1" d="M 335.667,559.28 322.16,566.784 z" id="boundary" inkscape:connector-curvature="0" />
	<path style="fill:none;stroke:red;stroke-width:1px;stroke-linecap:butt;stroke-linejoin:miter;stroke-opacity:1" d="M 322.16,566.784 307.153,566.784 z" id="boundary" inkscape:connector-curvature="0" />
	<path style="fill:none;stroke:red;stroke-width:1px;stroke-linecap:butt;stroke-linejoin:miter;stroke-opacity:1" d="M 292.145,568.284 307.153,566.784 z" id="boundary" inkscape:connector-curvature="0" />
	<path style="fill:none;stroke:red;stroke-width:1px;stroke-linecap:butt;stroke-linejoin:miter;stroke-opacity:1" d="M 247.123,574.287 262.13,574.287 z" id="boundary" inkscape:connector-curvature="0" />
	<path style="fill:none;stroke:red;stroke-width:1px;stroke-linecap:butt;stroke-linejoin:miter;stroke-opacity:1" d="M 277.138,574.287 292.145,568.284 z" id="boundary" inkscape:connector-curvature="0" />
	<path style="fill:none;stroke:red;stroke-width:1px;stroke-linecap:butt;stroke-linejoin:miter;stroke-opacity:1" d="M 277.138,574.287 262.13,574.287 z" id="boundary" inkscape:connector-curvature="0" />
	<path style="fill:none;stroke:red;stroke-width:1px;stroke-linecap:butt;stroke-linejoin:miter;stroke-opacity:1" d="M 394.197,503.752 401.7,481.241 z" id="boundary" inkscape:connector-curvature="0" />
	<path style="fill:none;stroke:red;stroke-width:1px;stroke-linecap:butt;stroke-linejoin:miter;stroke-opacity:1" d="M 401.7,481.241 409.204,466.233 z" id="boundary" inkscape:connector-curvature="0" />
	<path style="fill:none;stroke:red;stroke-width:1px;stroke-linecap:butt;stroke-linejoin:miter;stroke-opacity:1" d="M 350.675,554.778 362.681,544.272 z" id="boundary" inkscape:connector-curvature="0" />
	<path style="fill:none;stroke:red;stroke-width:1px;stroke-linecap:butt;stroke-linejoin:miter;stroke-opacity:1" d="M 350.675,554.778 335.667,559.28 z" id="boundary" inkscape:connector-curvature="0" />
	<path style="fill:none;stroke:red;stroke-width:1px;stroke-linecap:butt;stroke-linejoin:miter;stroke-opacity:1" d="M 362.681,544.272 373.186,532.266 z" id="boundary" inkscape:connector-curvature="0" />
	<path style="fill:none;stroke:red;stroke-width:1px;stroke-linecap:butt;stroke-linejoin:miter;stroke-opacity:1" d="M 386.693,518.759 373.186,532.266 z" id="boundary" inkscape:connector-curvature="0" />
	<path style="fill:none;stroke:red;stroke-width:1px;stroke-linecap:butt;stroke-linejoin:miter;stroke-opacity:1" d="M 394.197,503.752 386.693,518.759 z" id="boundary" inkscape:connector-curvature="0" />
	<path style="fill:none;stroke:red;stroke-width:1px;stroke-linecap:butt;stroke-linejoin:miter;stroke-opacity:1" d="M 433.216,583.292 419.71,590.796 z" id="boundary" inkscape:connector-curvature="0" />
	<path style="fill:none;stroke:red;stroke-width:1px;stroke-linecap:butt;stroke-linejoin:miter;stroke-opacity:1" d="M 262.13,628.315 247.123,625.313 z" id="boundary" inkscape:connector-curvature="0" />
	<path style="fill:none;stroke:red;stroke-width:1px;stroke-linecap:butt;stroke-linejoin:miter;stroke-opacity:1" d="M 247.123,625.313 232.115,620.811 z" id="boundary" inkscape:connector-curvature="0" />
	<path style="fill:none;stroke:red;stroke-width:1px;stroke-linecap:butt;stroke-linejoin:miter;stroke-opacity:1" d="M 277.138,628.315 292.145,632.817 z" id="boundary" inkscape:connector-curvature="0" />
	<path style="fill:none;stroke:red;stroke-width:1px;stroke-linecap:butt;stroke-linejoin:miter;stroke-opacity:1" d="M 262.13,628.315 277.138,628.315 z" id="boundary" inkscape:connector-curvature="0" />
	<path style="fill:none;stroke:red;stroke-width:1px;stroke-linecap:butt;stroke-linejoin:miter;stroke-opacity:1" d="M 307.153,635.818 320.66,628.315 z" id="boundary" inkscape:connector-curvature="0" />
	<path style="fill:none;stroke:red;stroke-width:1px;stroke-linecap:butt;stroke-linejoin:miter;stroke-opacity:1" d="M 307.153,635.818 292.145,632.817 z" id="boundary" inkscape:connector-curvature="0" />
	<path style="fill:none;stroke:red;stroke-width:1px;stroke-linecap:butt;stroke-linejoin:miter;stroke-opacity:1" d="M 406.203,598.3 391.195,604.303 z" id="boundary" inkscape:connector-curvature="0" />
	<path style="fill:none;stroke:red;stroke-width:1px;stroke-linecap:butt;stroke-linejoin:miter;stroke-opacity:1" d="M 379.189,616.309 391.195,604.303 z" id="boundary" inkscape:connector-curvature="0" />
	<path style="fill:none;stroke:red;stroke-width:1px;stroke-linecap:butt;stroke-linejoin:miter;stroke-opacity:1" d="M 334.166,620.811 349.174,623.812 z" id="boundary" inkscape:connector-curvature="0" />
	<path style="fill:none;stroke:red;stroke-width:1px;stroke-linecap:butt;stroke-linejoin:miter;stroke-opacity:1" d="M 320.66,628.315 334.166,620.811 z" id="boundary" inkscape:connector-curvature="0" />
	<path style="fill:none;stroke:red;stroke-width:1px;stroke-linecap:butt;stroke-linejoin:miter;stroke-opacity:1" d="M 364.182,620.811 379.189,616.309 z" id="boundary" inkscape:connector-curvature="0" />
	<path style="fill:none;stroke:red;stroke-width:1px;stroke-linecap:butt;stroke-linejoin:miter;stroke-opacity:1" d="M 364.182,620.811 349.174,623.812 z" id="boundary" inkscape:connector-curvature="0" />
	<path style="fill:none;stroke:red;stroke-width:1px;stroke-linecap:butt;stroke-linejoin:miter;stroke-opacity:1" d="M 406.203,598.3 419.71,590.796 z" id="boundary" inkscape:connector-curvature="0" />
	<path style="fill:none;stroke:red;stroke-width:1px;stroke-linecap:butt;stroke-linejoin:miter;stroke-opacity:1" d="M 748.375,11.5038 733.368,14.5053 z" id="boundary" inkscape:connector-curvature="0" />
	<path style="fill:none;stroke:red;stroke-width:1px;stroke-linecap:butt;stroke-linejoin:miter;stroke-opacity:1" d="M 454.227,19.0076 439.219,19.0076 z" id="boundary" inkscape:connector-curvature="0" />
	<path style="fill:none;stroke:red;stroke-width:1px;stroke-linecap:butt;stroke-linejoin:miter;stroke-opacity:1" d="M 454.227,19.0076 467.734,26.5113 z" id="boundary" inkscape:connector-curvature="0" />
	<path style="fill:none;stroke:red;stroke-width:1px;stroke-linecap:butt;stroke-linejoin:miter;stroke-opacity:1" d="M 467.734,26.5113 482.741,26.5113 z" id="boundary" inkscape:connector-curvature="0" />
	<path style="fill:none;stroke:red;stroke-width:1px;stroke-linecap:butt;stroke-linejoin:miter;stroke-opacity:1" d="M 733.368,14.5053 718.36,19.0076 z" id="boundary" inkscape:connector-curvature="0" />
	<path style="fill:none;stroke:red;stroke-width:1px;stroke-linecap:butt;stroke-linejoin:miter;stroke-opacity:1" d="M 497.749,26.5113 482.741,26.5113 z" id="boundary" inkscape:connector-curvature="0" />
	<path style="fill:none;stroke:red;stroke-width:1px;stroke-linecap:butt;stroke-linejoin:miter;stroke-opacity:1" d="M 497.749,26.5113 511.256,34.0151 z" id="boundary" inkscape:connector-curvature="0" />
	<path style="fill:none;stroke:red;stroke-width:1px;stroke-linecap:butt;stroke-linejoin:miter;stroke-opacity:1" d="M 704.853,26.5113 718.36,19.0076 z" id="boundary" inkscape:connector-curvature="0" />
	<path style="fill:none;stroke:red;stroke-width:1px;stroke-linecap:butt;stroke-linejoin:miter;stroke-opacity:1" d="M 763.383,11.5038 748.375,11.5038 z" id="boundary" inkscape:connector-curvature="0" />
	<path style="fill:none;stroke:red;stroke-width:1px;stroke-linecap:butt;stroke-linejoin:miter;stroke-opacity:1" d="M 778.39,11.5038 763.383,11.5038 z" id="boundary" inkscape:connector-curvature="0" />
	<path style="fill:none;stroke:red;stroke-width:1px;stroke-linecap:butt;stroke-linejoin:miter;stroke-opacity:1" d="M 793.398,11.5038 808.405,16.0061 z" id="boundary" inkscape:connector-curvature="0" />
	<path style="fill:none;stroke:red;stroke-width:1px;stroke-linecap:butt;stroke-linejoin:miter;stroke-opacity:1" d="M 778.39,11.5038 793.398,11.5038 z" id="boundary" inkscape:connector-curvature="0" />
	<path style="fill:none;stroke:red;stroke-width:1px;stroke-linecap:butt;stroke-linejoin:miter;stroke-opacity:1" d="M 838.421,19.0076 823.413,19.0076 z" id="boundary" inkscape:connector-curvature="0" />
	<path style="fill:none;stroke:red;stroke-width:1px;stroke-linecap:butt;stroke-linejoin:miter;stroke-opacity:1" d="M 823.413,19.0076 808.405,16.0061 z" id="boundary" inkscape:connector-curvature="0" />
	<path style="fill:none;stroke:red;stroke-width:1px;stroke-linecap:butt;stroke-linejoin:miter;stroke-opacity:1" d="M 511.256,34.0151 526.263,34.0151 z" id="boundary" inkscape:connector-curvature="0" />
	<path style="fill:none;stroke:red;stroke-width:1px;stroke-linecap:butt;stroke-linejoin:miter;stroke-opacity:1" d="M 541.271,34.0151 526.263,34.0151 z" id="boundary" inkscape:connector-curvature="0" />
	<path style="fill:none;stroke:red;stroke-width:1px;stroke-linecap:butt;stroke-linejoin:miter;stroke-opacity:1" d="M 556.278,34.0151 569.785,41.5189 z" id="boundary" inkscape:connector-curvature="0" />
	<path style="fill:none;stroke:red;stroke-width:1px;stroke-linecap:butt;stroke-linejoin:miter;stroke-opacity:1" d="M 541.271,34.0151 556.278,34.0151 z" id="boundary" inkscape:connector-curvature="0" />
	<path style="fill:none;stroke:red;stroke-width:1px;stroke-linecap:butt;stroke-linejoin:miter;stroke-opacity:1" d="M 584.793,41.5189 569.785,41.5189 z" id="boundary" inkscape:connector-curvature="0" />
	<path style="fill:none;stroke:red;stroke-width:1px;stroke-linecap:butt;stroke-linejoin:miter;stroke-opacity:1" d="M 599.8,41.5189 614.808,41.5189 z" id="boundary" inkscape:connector-curvature="0" />
	<path style="fill:none;stroke:red;stroke-width:1px;stroke-linecap:butt;stroke-linejoin:miter;stroke-opacity:1" d="M 599.8,41.5189 584.793,41.5189 z" id="boundary" inkscape:connector-curvature="0" />
	<path style="fill:none;stroke:red;stroke-width:1px;stroke-linecap:butt;stroke-linejoin:miter;stroke-opacity:1" d="M 659.831,34.0151 644.823,34.0151 z" id="boundary" inkscape:connector-curvature="0" />
	<path style="fill:none;stroke:red;stroke-width:1px;stroke-linecap:butt;stroke-linejoin:miter;stroke-opacity:1" d="M 644.823,34.0151 629.815,35.5159 z" id="boundary" inkscape:connector-curvature="0" />
	<path style="fill:none;stroke:red;stroke-width:1px;stroke-linecap:butt;stroke-linejoin:miter;stroke-opacity:1" d="M 674.838,34.0151 689.846,28.0121 z" id="boundary" inkscape:connector-curvature="0" />
	<path style="fill:none;stroke:red;stroke-width:1px;stroke-linecap:butt;stroke-linejoin:miter;stroke-opacity:1" d="M 689.846,28.0121 704.853,26.5113 z" id="boundary" inkscape:connector-curvature="0" />
	<path style="fill:none;stroke:red;stroke-width:1px;stroke-linecap:butt;stroke-linejoin:miter;stroke-opacity:1" d="M 614.808,41.5189 629.815,35.5159 z" id="boundary" inkscape:connector-curvature="0" />
	<path style="fill:none;stroke:red;stroke-width:1px;stroke-linecap:butt;stroke-linejoin:miter;stroke-opacity:1" d="M 659.831,34.0151 674.838,34.0151 z" id="boundary" inkscape:connector-curvature="0" />
	<path style="fill:none;stroke:red;stroke-width:1px;stroke-linecap:butt;stroke-linejoin:miter;stroke-opacity:1" d="M 868.436,14.5053 880.442,4 z" id="boundary" inkscape:connector-curvature="0" />
	<path style="fill:none;stroke:red;stroke-width:1px;stroke-linecap:butt;stroke-linejoin:miter;stroke-opacity:1" d="M 868.436,14.5053 853.428,19.0076 z" id="boundary" inkscape:connector-curvature="0" />
	<path style="fill:none;stroke:red;stroke-width:1px;stroke-linecap:butt;stroke-linejoin:miter;stroke-opacity:1" d="M 880.442,4 895.449,4 z" id="boundary" inkscape:connector-curvature="0" />
	<path style="fill:none;stroke:red;stroke-width:1px;stroke-linecap:butt;stroke-linejoin:miter;stroke-opacity:1" d="M 905.955,35.5159 905.955,50.5234 z" id="boundary" inkscape:connector-curvature="0" />
	<path style="fill:none;stroke:red;stroke-width:1px;stroke-linecap:butt;stroke-linejoin:miter;stroke-opacity:1" d="M 905.955,50.5234 905.955,65.531 z" id="boundary" inkscape:connector-curvature="0" />
	<path style="fill:none;stroke:red;stroke-width:1px;stroke-linecap:butt;stroke-linejoin:miter;stroke-opacity:1" d="M 908.956,80.5386 905.955,65.531 z" id="boundary" inkscape:connector-curvature="0" />
	<path style="fill:none;stroke:red;stroke-width:1px;stroke-linecap:butt;stroke-linejoin:miter;stroke-opacity:1" d="M 895.449,4 908.956,11.5038 z" id="boundary" inkscape:connector-curvature="0" />
	<path style="fill:none;stroke:red;stroke-width:1px;stroke-linecap:butt;stroke-linejoin:miter;stroke-opacity:1" d="M 908.956,11.5038 905.955,35.5159 z" id="boundary" inkscape:connector-curvature="0" />
	<path style="fill:none;stroke:red;stroke-width:1px;stroke-linecap:butt;stroke-linejoin:miter;stroke-opacity:1" d="M 853.428,19.0076 838.421,19.0076 z" id="boundary" inkscape:connector-curvature="0" />
	<path style="fill:none;stroke:red;stroke-width:1px;stroke-linecap:butt;stroke-linejoin:miter;stroke-opacity:1" d="M 920.962,109.053 913.458,95.5461 z" id="boundary" inkscape:connector-curvature="0" />
	<path style="fill:none;stroke:red;stroke-width:1px;stroke-linecap:butt;stroke-linejoin:miter;stroke-opacity:1" d="M 913.458,95.5461 908.956,80.5386 z" id="boundary" inkscape:connector-curvature="0" />
	<path style="fill:none;stroke:red;stroke-width:1px;stroke-linecap:butt;stroke-linejoin:miter;stroke-opacity:1" d="M 920.962,109.053 928.466,122.56 z" id="boundary" inkscape:connector-curvature="0" />
	<path style="fill:none;stroke:red;stroke-width:1px;stroke-linecap:butt;stroke-linejoin:miter;stroke-opacity:1" d="M 928.466,122.56 928.466,137.567 z" id="boundary" inkscape:connector-curvature="0" />
	<path style="fill:none;stroke:red;stroke-width:1px;stroke-linecap:butt;stroke-linejoin:miter;stroke-opacity:1" d="M 928.466,137.567 928.466,152.575 z" id="boundary" inkscape:connector-curvature="0" />
	<path style="fill:none;stroke:red;stroke-width:1px;stroke-linecap:butt;stroke-linejoin:miter;stroke-opacity:1" d="M 928.466,167.582 928.466,152.575 z" id="boundary" inkscape:connector-curvature="0" />
	<path style="fill:none;stroke:red;stroke-width:1px;stroke-linecap:butt;stroke-linejoin:miter;stroke-opacity:1" d="M 928.466,182.59 928.466,197.598 z" id="boundary" inkscape:connector-curvature="0" />
	<path style="fill:none;stroke:red;stroke-width:1px;stroke-linecap:butt;stroke-linejoin:miter;stroke-opacity:1" d="M 928.466,212.605 928.466,197.598 z" id="boundary" inkscape:connector-curvature="0" />
	<path style="fill:none;stroke:red;stroke-width:1px;stroke-linecap:butt;stroke-linejoin:miter;stroke-opacity:1" d="M 920.962,253.126 920.962,268.133 z" id="boundary" inkscape:connector-curvature="0" />
	<path style="fill:none;stroke:red;stroke-width:1px;stroke-linecap:butt;stroke-linejoin:miter;stroke-opacity:1" d="M 920.962,253.126 928.466,227.613 z" id="boundary" inkscape:connector-curvature="0" />
	<path style="fill:none;stroke:red;stroke-width:1px;stroke-linecap:butt;stroke-linejoin:miter;stroke-opacity:1" d="M 920.962,283.141 920.962,298.148 z" id="boundary" inkscape:connector-curvature="0" />
	<path style="fill:none;stroke:red;stroke-width:1px;stroke-linecap:butt;stroke-linejoin:miter;stroke-opacity:1" d="M 928.466,311.655 920.962,298.148 z" id="boundary" inkscape:connector-curvature="0" />
	<path style="fill:none;stroke:red;stroke-width:1px;stroke-linecap:butt;stroke-linejoin:miter;stroke-opacity:1" d="M 920.962,283.141 920.962,268.133 z" id="boundary" inkscape:connector-curvature="0" />
	<path style="fill:none;stroke:red;stroke-width:1px;stroke-linecap:butt;stroke-linejoin:miter;stroke-opacity:1" d="M 928.466,167.582 928.466,182.59 z" id="boundary" inkscape:connector-curvature="0" />
	<path style="fill:none;stroke:red;stroke-width:1px;stroke-linecap:butt;stroke-linejoin:miter;stroke-opacity:1" d="M 928.466,212.605 928.466,227.613 z" id="boundary" inkscape:connector-curvature="0" />
	<path style="fill:none;stroke:red;stroke-width:1px;stroke-linecap:butt;stroke-linejoin:miter;stroke-opacity:1" d="M 928.466,326.663 928.466,341.67 z" id="boundary" inkscape:connector-curvature="0" />
	<path style="fill:none;stroke:red;stroke-width:1px;stroke-linecap:butt;stroke-linejoin:miter;stroke-opacity:1" d="M 935.97,355.177 928.466,341.67 z" id="boundary" inkscape:connector-curvature="0" />
	<path style="fill:none;stroke:red;stroke-width:1px;stroke-linecap:butt;stroke-linejoin:miter;stroke-opacity:1" d="M 928.466,326.663 928.466,311.655 z" id="boundary" inkscape:connector-curvature="0" />
	<path style="fill:none;stroke:red;stroke-width:1px;stroke-linecap:butt;stroke-linejoin:miter;stroke-opacity:1" d="M 943.474,368.684 935.97,355.177 z" id="boundary" inkscape:connector-curvature="0" />
	<path style="fill:none;stroke:red;stroke-width:1px;stroke-linecap:butt;stroke-linejoin:miter;stroke-opacity:1" d="M 943.474,368.684 943.474,383.691 z" id="boundary" inkscape:connector-curvature="0" />
	<path style="fill:none;stroke:red;stroke-width:1px;stroke-linecap:butt;stroke-linejoin:miter;stroke-opacity:1" d="M 448.224,583.292 433.216,583.292 z" id="boundary" inkscape:connector-curvature="0" />
	<path style="fill:none;stroke:red;stroke-width:1px;stroke-linecap:butt;stroke-linejoin:miter;stroke-opacity:1" d="M 460.23,572.787 448.224,583.292 z" id="boundary" inkscape:connector-curvature="0" />
	<path style="fill:none;stroke:red;stroke-width:1px;stroke-linecap:butt;stroke-linejoin:miter;stroke-opacity:1" d="M 475.238,568.284 460.23,572.787 z" id="boundary" inkscape:connector-curvature="0" />
	<path style="fill:none;stroke:red;stroke-width:1px;stroke-linecap:butt;stroke-linejoin:miter;stroke-opacity:1" d="M 491.746,593.797 506.753,586.293 z" id="boundary" inkscape:connector-curvature="0" />
	<path style="fill:none;stroke:red;stroke-width:1px;stroke-linecap:butt;stroke-linejoin:miter;stroke-opacity:1" d="M 506.753,586.293 521.761,583.292 z" id="boundary" inkscape:connector-curvature="0" />
	<path style="fill:none;stroke:red;stroke-width:1px;stroke-linecap:butt;stroke-linejoin:miter;stroke-opacity:1" d="M 533.767,574.287 521.761,583.292 z" id="boundary" inkscape:connector-curvature="0" />
	<path style="fill:none;stroke:red;stroke-width:1px;stroke-linecap:butt;stroke-linejoin:miter;stroke-opacity:1" d="M 469.234,584.793 476.738,598.3 z" id="boundary" inkscape:connector-curvature="0" />
	<path style="fill:none;stroke:red;stroke-width:1px;stroke-linecap:butt;stroke-linejoin:miter;stroke-opacity:1" d="M 545.773,560.781 559.28,553.277 z" id="boundary" inkscape:connector-curvature="0" />
	<path style="fill:none;stroke:red;stroke-width:1px;stroke-linecap:butt;stroke-linejoin:miter;stroke-opacity:1" d="M 559.28,553.277 566.784,566.784 z" id="boundary" inkscape:connector-curvature="0" />
	<path style="fill:none;stroke:red;stroke-width:1px;stroke-linecap:butt;stroke-linejoin:miter;stroke-opacity:1" d="M 566.784,566.784 566.784,581.791 z" id="boundary" inkscape:connector-curvature="0" />
	<path style="fill:none;stroke:red;stroke-width:1px;stroke-linecap:butt;stroke-linejoin:miter;stroke-opacity:1" d="M 533.767,574.287 545.773,560.781 z" id="boundary" inkscape:connector-curvature="0" />
	<path style="fill:none;stroke:red;stroke-width:1px;stroke-linecap:butt;stroke-linejoin:miter;stroke-opacity:1" d="M 611.806,571.286 604.303,586.293 z" id="boundary" inkscape:connector-curvature="0" />
	<path style="fill:none;stroke:red;stroke-width:1px;stroke-linecap:butt;stroke-linejoin:miter;stroke-opacity:1" d="M 626.814,575.788 611.806,571.286 z" id="boundary" inkscape:connector-curvature="0" />
	<path style="fill:none;stroke:red;stroke-width:1px;stroke-linecap:butt;stroke-linejoin:miter;stroke-opacity:1" d="M 578.79,590.796 566.784,581.791 z" id="boundary" inkscape:connector-curvature="0" />
	<path style="fill:none;stroke:red;stroke-width:1px;stroke-linecap:butt;stroke-linejoin:miter;stroke-opacity:1" d="M 592.297,598.3 578.79,590.796 z" id="boundary" inkscape:connector-curvature="0" />
	<path style="fill:none;stroke:red;stroke-width:1px;stroke-linecap:butt;stroke-linejoin:miter;stroke-opacity:1" d="M 604.303,586.293 592.297,598.3 z" id="boundary" inkscape:connector-curvature="0" />
	<path style="fill:none;stroke:red;stroke-width:1px;stroke-linecap:butt;stroke-linejoin:miter;stroke-opacity:1" d="M 626.814,575.788 635.818,587.794 z" id="boundary" inkscape:connector-curvature="0" />
	<path style="fill:none;stroke:red;stroke-width:1px;stroke-linecap:butt;stroke-linejoin:miter;stroke-opacity:1" d="M 476.738,598.3 491.746,593.797 z" id="boundary" inkscape:connector-curvature="0" />
	<path style="fill:none;stroke:red;stroke-width:1px;stroke-linecap:butt;stroke-linejoin:miter;stroke-opacity:1" d="M 647.825,598.3 661.331,605.803 z" id="boundary" inkscape:connector-curvature="0" />
	<path style="fill:none;stroke:red;stroke-width:1px;stroke-linecap:butt;stroke-linejoin:miter;stroke-opacity:1" d="M 635.818,587.794 647.825,598.3 z" id="boundary" inkscape:connector-curvature="0" />
	<path style="fill:none;stroke:red;stroke-width:1px;stroke-linecap:butt;stroke-linejoin:miter;stroke-opacity:1" d="M 676.339,611.806 661.331,605.803 z" id="boundary" inkscape:connector-curvature="0" />
	<path style="fill:none;stroke:red;stroke-width:1px;stroke-linecap:butt;stroke-linejoin:miter;stroke-opacity:1" d="M 691.346,613.307 676.339,611.806 z" id="boundary" inkscape:connector-curvature="0" />
	<path style="fill:none;stroke:red;stroke-width:1px;stroke-linecap:butt;stroke-linejoin:miter;stroke-opacity:1" d="M 721.362,613.307 706.354,613.307 z" id="boundary" inkscape:connector-curvature="0" />
	<path style="fill:none;stroke:red;stroke-width:1px;stroke-linecap:butt;stroke-linejoin:miter;stroke-opacity:1" d="M 706.354,613.307 691.346,613.307 z" id="boundary" inkscape:connector-curvature="0" />
	<path style="fill:none;stroke:red;stroke-width:1px;stroke-linecap:butt;stroke-linejoin:miter;stroke-opacity:1" d="M 721.362,613.307 736.369,613.307 z" id="boundary" inkscape:connector-curvature="0" />
	<path style="fill:none;stroke:red;stroke-width:1px;stroke-linecap:butt;stroke-linejoin:miter;stroke-opacity:1" d="M 751.377,611.806 736.369,613.307 z" id="boundary" inkscape:connector-curvature="0" />
	<path style="fill:none;stroke:red;stroke-width:1px;stroke-linecap:butt;stroke-linejoin:miter;stroke-opacity:1" d="M 766.384,605.803 751.377,611.806 z" id="boundary" inkscape:connector-curvature="0" />
	<path style="fill:none;stroke:red;stroke-width:1px;stroke-linecap:butt;stroke-linejoin:miter;stroke-opacity:1" d="M 943.474,383.691 950.977,397.198 z" id="boundary" inkscape:connector-curvature="0" />
	<path style="fill:none;stroke:red;stroke-width:1px;stroke-linecap:butt;stroke-linejoin:miter;stroke-opacity:1" d="M 950.977,397.198 955.48,412.206 z" id="boundary" inkscape:connector-curvature="0" />
	<path style="fill:none;stroke:red;stroke-width:1px;stroke-linecap:butt;stroke-linejoin:miter;stroke-opacity:1" d="M 962.983,425.713 955.48,412.206 z" id="boundary" inkscape:connector-curvature="0" />
	<path style="fill:none;stroke:red;stroke-width:1px;stroke-linecap:butt;stroke-linejoin:miter;stroke-opacity:1" d="M 962.983,425.713 965.985,440.72 z" id="boundary" inkscape:connector-curvature="0" />
	<path style="fill:none;stroke:red;stroke-width:1px;stroke-linecap:butt;stroke-linejoin:miter;stroke-opacity:1" d="M 973.489,454.227 965.985,440.72 z" id="boundary" inkscape:connector-curvature="0" />
	<path style="fill:none;stroke:red;stroke-width:1px;stroke-linecap:butt;stroke-linejoin:miter;stroke-opacity:1" d="M 973.489,454.227 973.489,469.234 z" id="boundary" inkscape:connector-curvature="0" />
	<path style="fill:none;stroke:red;stroke-width:1px;stroke-linecap:butt;stroke-linejoin:miter;stroke-opacity:1" d="M 980.992,482.741 973.489,469.234 z" id="boundary" inkscape:connector-curvature="0" />
	<path style="fill:none;stroke:red;stroke-width:1px;stroke-linecap:butt;stroke-linejoin:miter;stroke-opacity:1" d="M 980.992,482.741 988.496,496.248 z" id="boundary" inkscape:connector-curvature="0" />
	<path style="fill:none;stroke:red;stroke-width:1px;stroke-linecap:butt;stroke-linejoin:miter;stroke-opacity:1" d="M 994.499,511.256 988.496,496.248 z" id="boundary" inkscape:connector-curvature="0" />
	<path style="fill:none;stroke:red;stroke-width:1px;stroke-linecap:butt;stroke-linejoin:miter;stroke-opacity:1" d="M 994.499,511.256 996,526.263 z" id="boundary" inkscape:connector-curvature="0" />
	<path style="fill:none;stroke:red;stroke-width:1px;stroke-linecap:butt;stroke-linejoin:miter;stroke-opacity:1" d="M 996,526.263 996,541.271 z" id="boundary" inkscape:connector-curvature="0" />
	<path style="fill:none;stroke:red;stroke-width:1px;stroke-linecap:butt;stroke-linejoin:miter;stroke-opacity:1" d="M 996,541.271 996,556.278 z" id="boundary" inkscape:connector-curvature="0" />
	<path style="fill:none;stroke:red;stroke-width:1px;stroke-linecap:butt;stroke-linejoin:miter;stroke-opacity:1" d="M 996,556.278 988.496,583.292 z" id="boundary" inkscape:connector-curvature="0" />
	<path style="fill:none;stroke:red;stroke-width:1px;stroke-linecap:butt;stroke-linejoin:miter;stroke-opacity:1" d="M 988.496,583.292 973.489,590.796 z" id="boundary" inkscape:connector-curvature="0" />
	<path style="fill:none;stroke:red;stroke-width:1px;stroke-linecap:butt;stroke-linejoin:miter;stroke-opacity:1" d="M 826.415,590.796 841.422,590.796 z" id="boundary" inkscape:connector-curvature="0" />
	<path style="fill:none;stroke:red;stroke-width:1px;stroke-linecap:butt;stroke-linejoin:miter;stroke-opacity:1" d="M 811.407,596.799 826.415,590.796 z" id="boundary" inkscape:connector-curvature="0" />
	<path style="fill:none;stroke:red;stroke-width:1px;stroke-linecap:butt;stroke-linejoin:miter;stroke-opacity:1" d="M 856.43,590.796 841.422,590.796 z" id="boundary" inkscape:connector-curvature="0" />
	<path style="fill:none;stroke:red;stroke-width:1px;stroke-linecap:butt;stroke-linejoin:miter;stroke-opacity:1" d="M 766.384,605.803 781.392,605.803 z" id="boundary" inkscape:connector-curvature="0" />
	<path style="fill:none;stroke:red;stroke-width:1px;stroke-linecap:butt;stroke-linejoin:miter;stroke-opacity:1" d="M 796.399,604.303 811.407,596.799 z" id="boundary" inkscape:connector-curvature="0" />
	<path style="fill:none;stroke:red;stroke-width:1px;stroke-linecap:butt;stroke-linejoin:miter;stroke-opacity:1" d="M 796.399,604.303 781.392,605.803 z" id="boundary" inkscape:connector-curvature="0" />
	<path style="fill:none;stroke:red;stroke-width:1px;stroke-linecap:butt;stroke-linejoin:miter;stroke-opacity:1" d="M 856.43,590.796 871.437,590.796 z" id="boundary" inkscape:connector-curvature="0" />
	<path style="fill:none;stroke:red;stroke-width:1px;stroke-linecap:butt;stroke-linejoin:miter;stroke-opacity:1" d="M 871.437,590.796 886.445,590.796 z" id="boundary" inkscape:connector-curvature="0" />
	<path style="fill:none;stroke:red;stroke-width:1px;stroke-linecap:butt;stroke-linejoin:miter;stroke-opacity:1" d="M 901.452,590.796 916.46,590.796 z" id="boundary" inkscape:connector-curvature="0" />
	<path style="fill:none;stroke:red;stroke-width:1px;stroke-linecap:butt;stroke-linejoin:miter;stroke-opacity:1" d="M 916.46,590.796 929.967,598.3 z" id="boundary" inkscape:connector-curvature="0" />
	<path style="fill:none;stroke:red;stroke-width:1px;stroke-linecap:butt;stroke-linejoin:miter;stroke-opacity:1" d="M 901.452,590.796 886.445,590.796 z" id="boundary" inkscape:connector-curvature="0" />
	<path style="fill:none;stroke:red;stroke-width:1px;stroke-linecap:butt;stroke-linejoin:miter;stroke-opacity:1" d="M 929.967,598.3 944.974,598.3 z" id="boundary" inkscape:connector-curvature="0" />
	<path style="fill:none;stroke:red;stroke-width:1px;stroke-linecap:butt;stroke-linejoin:miter;stroke-opacity:1" d="M 959.982,598.3 973.489,590.796 z" id="boundary" inkscape:connector-curvature="0" />
	<path style="fill:none;stroke:red;stroke-width:1px;stroke-linecap:butt;stroke-linejoin:miter;stroke-opacity:1" d="M 959.982,598.3 944.974,598.3 z" id="boundary" inkscape:connector-curvature="0" />
	<circle cx="4" cy="391.195" r="4" fill="#0" id="circle0"/>
	<circle cx="4" cy="406.203" r="4" fill="#0" id="circle1"/>
	<circle cx="19.0076" cy="383.691" r="4" fill="#0" id="circle2"/>
	<circle cx="19.0076" cy="410.705" r="4" fill="#0" id="circle3"/>
	<circle cx="32.5144" cy="418.209" r="4" fill="#0" id="circle4"/>
	<circle cx="34.0151" cy="382.191" r="4" fill="#0" id="circle5"/>
	<circle cx="43.0197" cy="430.215" r="4" fill="#0" id="circle6"/>
	<circle cx="47.5219" cy="389.694" r="4" fill="#0" id="circle7"/>
	<circle cx="55.0257" cy="440.72" r="4" fill="#0" id="circle8"/>
	<circle cx="56.5265" cy="455.728" r="4" fill="#0" id="circle9"/>
	<circle cx="58.0272" cy="401.7" r="4" fill="#0" id="circle10"/>
	<circle cx="64.0303" cy="469.234" r="4" fill="#0" id="circle11"/>
	<circle cx="71.534" cy="482.741" r="4" fill="#0" id="circle12"/>
	<circle cx="73.0348" cy="401.7" r="4" fill="#0" id="circle13"/>
	<circle cx="73.0348" cy="497.749" r="4" fill="#0" id="circle14"/>
	<circle cx="80.5386" cy="511.256" r="4" fill="#0" id="circle15"/>
	<circle cx="88.0424" cy="406.203" r="4" fill="#0" id="circle16"/>
	<circle cx="91.0439" cy="523.262" r="4" fill="#0" id="circle17"/>
	<circle cx="101.549" cy="413.707" r="4" fill="#0" id="circle18"/>
	<circle cx="103.05" cy="533.767" r="4" fill="#0" id="circle19"/>
	<circle cx="109.053" cy="548.775" r="4" fill="#0" id="circle20"/>
	<circle cx="110.554" cy="425.713" r="4" fill="#0" id="circle21"/>
	<circle cx="110.554" cy="440.72" r="4" fill="#0" id="circle22"/>
	<circle cx="118.057" cy="454.227" r="4" fill="#0" id="circle23"/>
	<circle cx="121.059" cy="559.28" r="4" fill="#0" id="circle24"/>
	<circle cx="130.064" cy="463.231" r="4" fill="#0" id="circle25"/>
	<circle cx="131.564" cy="571.286" r="4" fill="#0" id="circle26"/>
	<circle cx="140.569" cy="475.238" r="4" fill="#0" id="circle27"/>
	<circle cx="146.572" cy="575.788" r="4" fill="#0" id="circle28"/>
	<circle cx="151.074" cy="590.796" r="4" fill="#0" id="circle29"/>
	<circle cx="152.575" cy="485.743" r="4" fill="#0" id="circle30"/>
	<circle cx="155.576" cy="500.75" r="4" fill="#0" id="circle31"/>
	<circle cx="155.576" cy="515.758" r="4" fill="#0" id="circle32"/>
	<circle cx="155.576" cy="530.766" r="4" fill="#0" id="circle33"/>
	<circle cx="163.08" cy="544.272" r="4" fill="#0" id="circle34"/>
	<circle cx="164.581" cy="598.3" r="4" fill="#0" id="circle35"/>
	<circle cx="176.587" cy="551.776" r="4" fill="#0" id="circle36"/>
	<circle cx="178.088" cy="605.803" r="4" fill="#0" id="circle37"/>
	<circle cx="190.094" cy="559.28" r="4" fill="#0" id="circle38"/>
	<circle cx="191.595" cy="613.307" r="4" fill="#0" id="circle39"/>
	<circle cx="203.601" cy="566.784" r="4" fill="#0" id="circle40"/>
	<circle cx="205.101" cy="620.811" r="4" fill="#0" id="circle41"/>
	<circle cx="217.107" cy="574.287" r="4" fill="#0" id="circle42"/>
	<circle cx="218.608" cy="628.315" r="4" fill="#0" id="circle43"/>
	<circle cx="232.115" cy="574.287" r="4" fill="#0" id="circle44"/>
	<circle cx="232.115" cy="620.811" r="4" fill="#0" id="circle45"/>
	<circle cx="247.123" cy="574.287" r="4" fill="#0" id="circle46"/>
	<circle cx="247.123" cy="625.313" r="4" fill="#0" id="circle47"/>
	<circle cx="262.13" cy="574.287" r="4" fill="#0" id="circle48"/>
	<circle cx="262.13" cy="628.315" r="4" fill="#0" id="circle49"/>
	<circle cx="277.138" cy="574.287" r="4" fill="#0" id="circle50"/>
	<circle cx="277.138" cy="628.315" r="4" fill="#0" id="circle51"/>
	<circle cx="292.145" cy="568.284" r="4" fill="#0" id="circle52"/>
	<circle cx="292.145" cy="632.817" r="4" fill="#0" id="circle53"/>
	<circle cx="307.153" cy="566.784" r="4" fill="#0" id="circle54"/>
	<circle cx="307.153" cy="635.818" r="4" fill="#0" id="circle55"/>
	<circle cx="311.655" cy="38.5174" r="4" fill="#0" id="circle56"/>
	<circle cx="311.655" cy="53.525" r="4" fill="#0" id="circle57"/>
	<circle cx="311.655" cy="68.5325" r="4" fill="#0" id="circle58"/>
	<circle cx="319.159" cy="82.0393" r="4" fill="#0" id="circle59"/>
	<circle cx="319.159" cy="97.0469" r="4" fill="#0" id="circle60"/>
	<circle cx="319.159" cy="112.054" r="4" fill="#0" id="circle61"/>
	<circle cx="319.159" cy="127.062" r="4" fill="#0" id="circle62"/>
	<circle cx="320.66" cy="628.315" r="4" fill="#0" id="circle63"/>
	<circle cx="322.16" cy="566.784" r="4" fill="#0" id="circle64"/>
	<circle cx="323.661" cy="26.5113" r="4" fill="#0" id="circle65"/>
	<circle cx="326.663" cy="140.569" r="4" fill="#0" id="circle66"/>
	<circle cx="326.663" cy="196.097" r="4" fill="#0" id="circle67"/>
	<circle cx="326.663" cy="211.104" r="4" fill="#0" id="circle68"/>
	<circle cx="326.663" cy="226.112" r="4" fill="#0" id="circle69"/>
	<circle cx="326.663" cy="241.12" r="4" fill="#0" id="circle70"/>
	<circle cx="326.663" cy="256.127" r="4" fill="#0" id="circle71"/>
	<circle cx="334.166" cy="154.076" r="4" fill="#0" id="circle72"/>
	<circle cx="334.166" cy="169.083" r="4" fill="#0" id="circle73"/>
	<circle cx="334.166" cy="269.634" r="4" fill="#0" id="circle74"/>
	<circle cx="334.166" cy="284.641" r="4" fill="#0" id="circle75"/>
	<circle cx="334.166" cy="299.649" r="4" fill="#0" id="circle76"/>
	<circle cx="334.166" cy="620.811" r="4" fill="#0" id="circle77"/>
	<circle cx="335.667" cy="559.28" r="4" fill="#0" id="circle78"/>
	<circle cx="337.168" cy="19.0076" r="4" fill="#0" id="circle79"/>
	<circle cx="341.67" cy="313.156" r="4" fill="#0" id="circle80"/>
	<circle cx="346.172" cy="328.163" r="4" fill="#0" id="circle81"/>
	<circle cx="349.174" cy="623.812" r="4" fill="#0" id="circle82"/>
	<circle cx="350.675" cy="11.5038" r="4" fill="#0" id="circle83"/>
	<circle cx="350.675" cy="554.778" r="4" fill="#0" id="circle84"/>
	<circle cx="353.676" cy="341.67" r="4" fill="#0" id="circle85"/>
	<circle cx="362.681" cy="544.272" r="4" fill="#0" id="circle86"/>
	<circle cx="364.182" cy="353.676" r="4" fill="#0" id="circle87"/>
	<circle cx="364.182" cy="620.811" r="4" fill="#0" id="circle88"/>
	<circle cx="365.682" cy="11.5038" r="4" fill="#0" id="circle89"/>
	<circle cx="373.186" cy="532.266" r="4" fill="#0" id="circle90"/>
	<circle cx="376.188" cy="364.182" r="4" fill="#0" id="circle91"/>
	<circle cx="379.189" cy="616.309" r="4" fill="#0" id="circle92"/>
	<circle cx="380.69" cy="11.5038" r="4" fill="#0" id="circle93"/>
	<circle cx="386.693" cy="518.759" r="4" fill="#0" id="circle94"/>
	<circle cx="389.694" cy="371.685" r="4" fill="#0" id="circle95"/>
	<circle cx="391.195" cy="604.303" r="4" fill="#0" id="circle96"/>
	<circle cx="394.197" cy="421.21" r="4" fill="#0" id="circle97"/>
	<circle cx="394.197" cy="503.752" r="4" fill="#0" id="circle98"/>
	<circle cx="395.697" cy="11.5038" r="4" fill="#0" id="circle99"/>
	<circle cx="401.7" cy="380.69" r="4" fill="#0" id="circle100"/>
	<circle cx="401.7" cy="434.717" r="4" fill="#0" id="circle101"/>
	<circle cx="401.7" cy="481.241" r="4" fill="#0" id="circle102"/>
	<circle cx="406.203" cy="409.204" r="4" fill="#0" id="circle103"/>
	<circle cx="406.203" cy="598.3" r="4" fill="#0" id="circle104"/>
	<circle cx="409.204" cy="19.0076" r="4" fill="#0" id="circle105"/>
	<circle cx="409.204" cy="466.233" r="4" fill="#0" id="circle106"/>
	<circle cx="410.705" cy="392.696" r="4" fill="#0" id="circle107"/>
	<circle cx="416.708" cy="440.72" r="4" fill="#0" id="circle108"/>
	<circle cx="419.71" cy="590.796" r="4" fill="#0" id="circle109"/>
	<circle cx="421.21" cy="455.728" r="4" fill="#0" id="circle110"/>
	<circle cx="424.212" cy="19.0076" r="4" fill="#0" id="circle111"/>
	<circle cx="433.216" cy="583.292" r="4" fill="#0" id="circle112"/>
	<circle cx="439.219" cy="19.0076" r="4" fill="#0" id="circle113"/>
	<circle cx="448.224" cy="583.292" r="4" fill="#0" id="circle114"/>
	<circle cx="454.227" cy="19.0076" r="4" fill="#0" id="circle115"/>
	<circle cx="460.23" cy="572.787" r="4" fill="#0" id="circle116"/>
	<circle cx="467.734" cy="26.5113" r="4" fill="#0" id="circle117"/>
	<circle cx="469.234" cy="584.793" r="4" fill="#0" id="circle118"/>
	<circle cx="475.238" cy="568.284" r="4" fill="#0" id="circle119"/>
	<circle cx="476.738" cy="598.3" r="4" fill="#0" id="circle120"/>
	<circle cx="482.741" cy="26.5113" r="4" fill="#0" id="circle121"/>
	<circle cx="491.746" cy="593.797" r="4" fill="#0" id="circle122"/>
	<circle cx="497.749" cy="26.5113" r="4" fill="#0" id="circle123"/>
	<circle cx="506.753" cy="586.293" r="4" fill="#0" id="circle124"/>
	<circle cx="511.256" cy="34.0151" r="4" fill="#0" id="circle125"/>
	<circle cx="521.761" cy="583.292" r="4" fill="#0" id="circle126"/>
	<circle cx="526.263" cy="34.0151" r="4" fill="#0" id="circle127"/>
	<circle cx="533.767" cy="574.287" r="4" fill="#0" id="circle128"/>
	<circle cx="541.271" cy="34.0151" r="4" fill="#0" id="circle129"/>
	<circle cx="545.773" cy="560.781" r="4" fill="#0" id="circle130"/>
	<circle cx="556.278" cy="34.0151" r="4" fill="#0" id="circle131"/>
	<circle cx="559.28" cy="553.277" r="4" fill="#0" id="circle132"/>
	<circle cx="566.784" cy="566.784" r="4" fill="#0" id="circle133"/>
	<circle cx="566.784" cy="581.791" r="4" fill="#0" id="circle134"/>
	<circle cx="569.785" cy="41.5189" r="4" fill="#0" id="circle135"/>
	<circle cx="578.79" cy="590.796" r="4" fill="#0" id="circle136"/>
	<circle cx="584.793" cy="41.5189" r="4" fill="#0" id="circle137"/>
	<circle cx="592.297" cy="598.3" r="4" fill="#0" id="circle138"/>
	<circle cx="599.8" cy="41.5189" r="4" fill="#0" id="circle139"/>
	<circle cx="604.303" cy="586.293" r="4" fill="#0" id="circle140"/>
	<circle cx="611.806" cy="571.286" r="4" fill="#0" id="circle141"/>
	<circle cx="614.808" cy="41.5189" r="4" fill="#0" id="circle142"/>
	<circle cx="626.814" cy="575.788" r="4" fill="#0" id="circle143"/>
	<circle cx="629.815" cy="35.5159" r="4" fill="#0" id="circle144"/>
	<circle cx="635.818" cy="587.794" r="4" fill="#0" id="circle145"/>
	<circle cx="644.823" cy="34.0151" r="4" fill="#0" id="circle146"/>
	<circle cx="647.825" cy="598.3" r="4" fill="#0" id="circle147"/>
	<circle cx="659.831" cy="34.0151" r="4" fill="#0" id="circle148"/>
	<circle cx="661.331" cy="605.803" r="4" fill="#0" id="circle149"/>
	<circle cx="674.838" cy="34.0151" r="4" fill="#0" id="circle150"/>
	<circle cx="676.339" cy="611.806" r="4" fill="#0" id="circle151"/>
	<circle cx="689.846" cy="28.0121" r="4" fill="#0" id="circle152"/>
	<circle cx="691.346" cy="613.307" r="4" fill="#0" id="circle153"/>
	<circle cx="704.853" cy="26.5113" r="4" fill="#0" id="circle154"/>
	<circle cx="706.354" cy="613.307" r="4" fill="#0" id="circle155"/>
	<circle cx="718.36" cy="19.0076" r="4" fill="#0" id="circle156"/>
	<circle cx="721.362" cy="613.307" r="4" fill="#0" id="circle157"/>
	<circle cx="733.368" cy="14.5053" r="4" fill="#0" id="circle158"/>
	<circle cx="736.369" cy="613.307" r="4" fill="#0" id="circle159"/>
	<circle cx="748.375" cy="11.5038" r="4" fill="#0" id="circle160"/>
	<circle cx="751.377" cy="611.806" r="4" fill="#0" id="circle161"/>
	<circle cx="763.383" cy="11.5038" r="4" fill="#0" id="circle162"/>
	<circle cx="766.384" cy="605.803" r="4" fill="#0" id="circle163"/>
	<circle cx="778.39" cy="11.5038" r="4" fill="#0" id="circle164"/>
	<circle cx="781.392" cy="605.803" r="4" fill="#0" id="circle165"/>
	<circle cx="793.398" cy="11.5038" r="4" fill="#0" id="circle166"/>
	<circle cx="796.399" cy="604.303" r="4" fill="#0" id="circle167"/>
	<circle cx="808.405" cy="16.0061" r="4" fill="#0" id="circle168"/>
	<circle cx="811.407" cy="596.799" r="4" fill="#0" id="circle169"/>
	<circle cx="823.413" cy="19.0076" r="4" fill="#0" id="circle170"/>
	<circle cx="826.415" cy="590.796" r="4" fill="#0" id="circle171"/>
	<circle cx="838.421" cy="19.0076" r="4" fill="#0" id="circle172"/>
	<circle cx="841.422" cy="590.796" r="4" fill="#0" id="circle173"/>
	<circle cx="853.428" cy="19.0076" r="4" fill="#0" id="circle174"/>
	<circle cx="856.43" cy="590.796" r="4" fill="#0" id="circle175"/>
	<circle cx="868.436" cy="14.5053" r="4" fill="#0" id="circle176"/>
	<circle cx="871.437" cy="590.796" r="4" fill="#0" id="circle177"/>
	<circle cx="880.442" cy="4" r="4" fill="#0" id="circle178"/>
	<circle cx="886.445" cy="590.796" r="4" fill="#0" id="circle179"/>
	<circle cx="895.449" cy="4" r="4" fill="#0" id="circle180"/>
	<circle cx="901.452" cy="590.796" r="4" fill="#0" id="circle181"/>
	<circle cx="905.955" cy="35.5159" r="4" fill="#0" id="circle182"/>
	<circle cx="905.955" cy="50.5234" r="4" fill="#0" id="circle183"/>
	<circle cx="905.955" cy="65.531" r="4" fill="#0" id="circle184"/>
	<circle cx="908.956" cy="11.5038" r="4" fill="#0" id="circle185"/>
	<circle cx="908.956" cy="80.5386" r="4" fill="#0" id="circle186"/>
	<circle cx="913.458" cy="95.5461" r="4" fill="#0" id="circle187"/>
	<circle cx="916.46" cy="590.796" r="4" fill="#0" id="circle188"/>
	<circle cx="920.962" cy="109.053" r="4" fill="#0" id="circle189"/>
	<circle cx="920.962" cy="253.126" r="4" fill="#0" id="circle190"/>
	<circle cx="920.962" cy="268.133" r="4" fill="#0" id="circle191"/>
	<circle cx="920.962" cy="283.141" r="4" fill="#0" id="circle192"/>
	<circle cx="920.962" cy="298.148" r="4" fill="#0" id="circle193"/>
	<circle cx="928.466" cy="122.56" r="4" fill="#0" id="circle194"/>
	<circle cx="928.466" cy="137.567" r="4" fill="#0" id="circle195"/>
	<circle cx="928.466" cy="152.575" r="4" fill="#0" id="circle196"/>
	<circle cx="928.466" cy="167.582" r="4" fill="#0" id="circle197"/>
	<circle cx="928.466" cy="182.59" r="4" fill="#0" id="circle198"/>
	<circle cx="928.466" cy="197.598" r="4" fill="#0" id="circle199"/>
	<circle cx="928.466" cy="212.605" r="4" fill="#0" id="circle200"/>
	<circle cx="928.466" cy="227.613" r="4" fill="#0" id="circle201"/>
	<circle cx="928.466" cy="311.655" r="4" fill="#0" id="circle202"/>
	<circle cx="928.466" cy="326.663" r="4" fill="#0" id="circle203"/>
	<circle cx="928.466" cy="341.67" r="4" fill="#0" id="circle204"/>
	<circle cx="929.967" cy="598.3" r="4" fill="#0" id="circle205"/>
	<circle cx="935.97" cy="355.177" r="4" fill="#0" id="circle206"/>
	<circle cx="943.474" cy="368.684" r="4" fill="#0" id="circle207"/>
	<circle cx="943.474" cy="383.691" r="4" fill="#0" id="circle208"/>
	<circle cx="944.974" cy="598.3" r="4" fill="#0" id="circle209"/>
	<circle cx="950.977" cy="397.198" r="4" fill="#0" id="circle210"/>
	<circle cx="955.48" cy="412.206" r="4" fill="#0" id="circle211"/>
	<circle cx="959.982" cy="598.3" r="4" fill="#0" id="circle212"/>
	<circle cx="962.983" cy="425.713" r="4" fill="#0" id="circle213"/>
	<circle cx="965.985" cy="440.72" r="4" fill="#0" id="circle214"/>
	<circle cx="973.489" cy="454.227" r="4" fill="#0" id="circle215"/>
	<circle cx="973.489" cy="469.234" r="4" fill="#0" id="circle216"/>
	<circle cx="973.489" cy="590.796" r="4" fill="#0" id="circle217"/>
	<circle cx="980.992" cy="482.741" r="4" fill="#0" id="circle218"/>
	<circle cx="988.496" cy="496.248" r="4" fill="#0" id="circle219"/>
	<circle cx="988.496" cy="583.292" r="4" fill="#0" id="circle220"/>
	<circle cx="994.499" cy="511.256" r="4" fill="#0" id="circle221"/>
	<circle cx="996" cy="526.263" r="4" fill="#0" id="circle222"/>
	<circle cx="996" cy="541.271" r="4" fill="#0" id="circle223"/>
	<circle cx="996" cy="556.278" r="4" fill="#0" id="circle224"/>
	</g>
</svg>