<?xml version="1.0" encoding="UTF-8" standalone="no"?>
<!-- Created with CurveBenchmark -->
<svg
	xmlns:dc="http://purl.org/dc/elements/1.1/"
	xmlns:cc="http://creativecommons.org/ns#"
	xmlns:rdf="http://www.w3.org/1999/02/22-rdf-syntax-ns#"
	xmlns:svg="http://www.w3.org/2000/svg"
	xmlns="http://www.w3.org/2000/svg"
	xmlns:sodipodi="http://sodipodi.sourceforge.net/DTD/sodipodi-0.dtd"
	xmlns:inkscape="http://www.inkscape.org/namespaces/inkscape"
	width="1000"
	height="1000"
	id="svg2"
	version="1.1"
	sodipodi:docname="manifold/gathan1-ray05.png.txt">
<defs
	id="defs4" />
<metadata
	id="metadata7">
	<rdf:RDF>
		<cc:Work
			rdf:about="">
			<dc:format>image/svg+xml</dc:format>
			<dc:type
				rdf:resource="http://purl.org/dc/dcmitype/StillImage" />
			<dc:title></dc:title>
		</cc:Work>
	</rdf:RDF>
</metadata>
<g
	inkscape:label="Layer 1"
	inkscape:groupmode="layer"
	id="layer1">
	<path style="fill:none;stroke:red;stroke-width:1px;stroke-linecap:butt;stroke-linejoin:miter;stroke-opacity:1" d="M 19.7211,165.927 27.5816,150.206 z" id="boundary" inkscape:connector-curvature="0" />
	<path style="fill:none;stroke:red;stroke-width:1px;stroke-linecap:butt;stroke-linejoin:miter;stroke-opacity:1" d="M 27.5816,180.076 19.7211,165.927 z" id="boundary" inkscape:connector-curvature="0" />
	<path style="fill:none;stroke:red;stroke-width:1px;stroke-linecap:butt;stroke-linejoin:miter;stroke-opacity:1" d="M 27.5816,150.206 35.4422,134.485 z" id="boundary" inkscape:connector-curvature="0" />
	<path style="fill:none;stroke:red;stroke-width:1px;stroke-linecap:butt;stroke-linejoin:miter;stroke-opacity:1" d="M 27.5816,180.076 27.5816,195.797 z" id="boundary" inkscape:connector-curvature="0" />
	<path style="fill:none;stroke:red;stroke-width:1px;stroke-linecap:butt;stroke-linejoin:miter;stroke-opacity:1" d="M 27.5816,195.797 27.5816,211.518 z" id="boundary" inkscape:connector-curvature="0" />
	<path style="fill:none;stroke:red;stroke-width:1px;stroke-linecap:butt;stroke-linejoin:miter;stroke-opacity:1" d="M 27.5816,227.239 27.5816,211.518 z" id="boundary" inkscape:connector-curvature="0" />
	<path style="fill:none;stroke:red;stroke-width:1px;stroke-linecap:butt;stroke-linejoin:miter;stroke-opacity:1" d="M 27.5816,227.239 27.5816,242.96 z" id="boundary" inkscape:connector-curvature="0" />
	<path style="fill:none;stroke:red;stroke-width:1px;stroke-linecap:butt;stroke-linejoin:miter;stroke-opacity:1" d="M 51.1632,103.043 63.7401,90.4659 z" id="boundary" inkscape:connector-curvature="0" />
	<path style="fill:none;stroke:red;stroke-width:1px;stroke-linecap:butt;stroke-linejoin:miter;stroke-opacity:1" d="M 43.3027,118.764 51.1632,103.043 z" id="boundary" inkscape:connector-curvature="0" />
	<path style="fill:none;stroke:red;stroke-width:1px;stroke-linecap:butt;stroke-linejoin:miter;stroke-opacity:1" d="M 35.4422,257.109 27.5816,242.96 z" id="boundary" inkscape:connector-curvature="0" />
	<path style="fill:none;stroke:red;stroke-width:1px;stroke-linecap:butt;stroke-linejoin:miter;stroke-opacity:1" d="M 35.4422,134.485 43.3027,118.764 z" id="boundary" inkscape:connector-curvature="0" />
	<path style="fill:none;stroke:red;stroke-width:1px;stroke-linecap:butt;stroke-linejoin:miter;stroke-opacity:1" d="M 35.4422,257.109 35.4422,272.83 z" id="boundary" inkscape:connector-curvature="0" />
	<path style="fill:none;stroke:red;stroke-width:1px;stroke-linecap:butt;stroke-linejoin:miter;stroke-opacity:1" d="M 35.4422,272.83 40.1585,288.552 z" id="boundary" inkscape:connector-curvature="0" />
	<path style="fill:none;stroke:red;stroke-width:1px;stroke-linecap:butt;stroke-linejoin:miter;stroke-opacity:1" d="M 40.1585,288.552 43.3027,304.273 z" id="boundary" inkscape:connector-curvature="0" />
	<path style="fill:none;stroke:red;stroke-width:1px;stroke-linecap:butt;stroke-linejoin:miter;stroke-opacity:1" d="M 51.1632,318.422 43.3027,304.273 z" id="boundary" inkscape:connector-curvature="0" />
	<path style="fill:none;stroke:red;stroke-width:1px;stroke-linecap:butt;stroke-linejoin:miter;stroke-opacity:1" d="M 66.8843,364.013 59.0238,349.864 z" id="boundary" inkscape:connector-curvature="0" />
	<path style="fill:none;stroke:red;stroke-width:1px;stroke-linecap:butt;stroke-linejoin:miter;stroke-opacity:1" d="M 59.0238,349.864 54.3074,334.143 z" id="boundary" inkscape:connector-curvature="0" />
	<path style="fill:none;stroke:red;stroke-width:1px;stroke-linecap:butt;stroke-linejoin:miter;stroke-opacity:1" d="M 54.3074,334.143 51.1632,318.422 z" id="boundary" inkscape:connector-curvature="0" />
	<path style="fill:none;stroke:red;stroke-width:1px;stroke-linecap:butt;stroke-linejoin:miter;stroke-opacity:1" d="M 74.7448,395.455 68.4564,379.734 z" id="boundary" inkscape:connector-curvature="0" />
	<path style="fill:none;stroke:red;stroke-width:1px;stroke-linecap:butt;stroke-linejoin:miter;stroke-opacity:1" d="M 68.4564,379.734 66.8843,364.013 z" id="boundary" inkscape:connector-curvature="0" />
	<path style="fill:none;stroke:red;stroke-width:1px;stroke-linecap:butt;stroke-linejoin:miter;stroke-opacity:1" d="M 82.6054,409.604 74.7448,395.455 z" id="boundary" inkscape:connector-curvature="0" />
	<path style="fill:none;stroke:red;stroke-width:1px;stroke-linecap:butt;stroke-linejoin:miter;stroke-opacity:1" d="M 68.4564,683.151 81.0333,672.146 z" id="boundary" inkscape:connector-curvature="0" />
	<path style="fill:none;stroke:red;stroke-width:1px;stroke-linecap:butt;stroke-linejoin:miter;stroke-opacity:1" d="M 82.6054,425.325 82.6054,409.604 z" id="boundary" inkscape:connector-curvature="0" />
	<path style="fill:none;stroke:red;stroke-width:1px;stroke-linecap:butt;stroke-linejoin:miter;stroke-opacity:1" d="M 90.4659,439.474 82.6054,425.325 z" id="boundary" inkscape:connector-curvature="0" />
	<path style="fill:none;stroke:red;stroke-width:1px;stroke-linecap:butt;stroke-linejoin:miter;stroke-opacity:1" d="M 63.7401,90.4659 79.4612,82.6054 z" id="boundary" inkscape:connector-curvature="0" />
	<path style="fill:none;stroke:red;stroke-width:1px;stroke-linecap:butt;stroke-linejoin:miter;stroke-opacity:1" d="M 79.4612,82.6054 95.1823,82.6054 z" id="boundary" inkscape:connector-curvature="0" />
	<path style="fill:none;stroke:red;stroke-width:1px;stroke-linecap:butt;stroke-linejoin:miter;stroke-opacity:1" d="M 68.4564,683.151 60.5959,698.872 z" id="boundary" inkscape:connector-curvature="0" />
	<path style="fill:none;stroke:red;stroke-width:1px;stroke-linecap:butt;stroke-linejoin:miter;stroke-opacity:1" d="M 95.1823,82.6054 110.903,82.6054 z" id="boundary" inkscape:connector-curvature="0" />
	<path style="fill:none;stroke:red;stroke-width:1px;stroke-linecap:butt;stroke-linejoin:miter;stroke-opacity:1" d="M 125.052,74.7448 110.903,82.6054 z" id="boundary" inkscape:connector-curvature="0" />
	<path style="fill:none;stroke:red;stroke-width:1px;stroke-linecap:butt;stroke-linejoin:miter;stroke-opacity:1" d="M 98.3265,453.623 90.4659,439.474 z" id="boundary" inkscape:connector-curvature="0" />
	<path style="fill:none;stroke:red;stroke-width:1px;stroke-linecap:butt;stroke-linejoin:miter;stroke-opacity:1" d="M 110.903,483.493 103.043,469.344 z" id="boundary" inkscape:connector-curvature="0" />
	<path style="fill:none;stroke:red;stroke-width:1px;stroke-linecap:butt;stroke-linejoin:miter;stroke-opacity:1" d="M 103.043,469.344 98.3265,453.623 z" id="boundary" inkscape:connector-curvature="0" />
	<path style="fill:none;stroke:red;stroke-width:1px;stroke-linecap:butt;stroke-linejoin:miter;stroke-opacity:1" d="M 172.216,74.7448 187.937,74.7448 z" id="boundary" inkscape:connector-curvature="0" />
	<path style="fill:none;stroke:red;stroke-width:1px;stroke-linecap:butt;stroke-linejoin:miter;stroke-opacity:1" d="M 140.773,74.7448 156.494,74.7448 z" id="boundary" inkscape:connector-curvature="0" />
	<path style="fill:none;stroke:red;stroke-width:1px;stroke-linecap:butt;stroke-linejoin:miter;stroke-opacity:1" d="M 140.773,74.7448 125.052,74.7448 z" id="boundary" inkscape:connector-curvature="0" />
	<path style="fill:none;stroke:red;stroke-width:1px;stroke-linecap:butt;stroke-linejoin:miter;stroke-opacity:1" d="M 156.494,74.7448 172.216,74.7448 z" id="boundary" inkscape:connector-curvature="0" />
	<path style="fill:none;stroke:red;stroke-width:1px;stroke-linecap:butt;stroke-linejoin:miter;stroke-opacity:1" d="M 117.192,499.214 129.769,508.647 z" id="boundary" inkscape:connector-curvature="0" />
	<path style="fill:none;stroke:red;stroke-width:1px;stroke-linecap:butt;stroke-linejoin:miter;stroke-opacity:1" d="M 117.192,499.214 110.903,483.493 z" id="boundary" inkscape:connector-curvature="0" />
	<path style="fill:none;stroke:red;stroke-width:1px;stroke-linecap:butt;stroke-linejoin:miter;stroke-opacity:1" d="M 132.913,530.656 129.769,508.647 z" id="boundary" inkscape:connector-curvature="0" />
	<path style="fill:none;stroke:red;stroke-width:1px;stroke-linecap:butt;stroke-linejoin:miter;stroke-opacity:1" d="M 90.4659,582.536 98.3265,566.815 z" id="boundary" inkscape:connector-curvature="0" />
	<path style="fill:none;stroke:red;stroke-width:1px;stroke-linecap:butt;stroke-linejoin:miter;stroke-opacity:1" d="M 103.043,593.54 90.4659,582.536 z" id="boundary" inkscape:connector-curvature="0" />
	<path style="fill:none;stroke:red;stroke-width:1px;stroke-linecap:butt;stroke-linejoin:miter;stroke-opacity:1" d="M 106.187,551.094 98.3265,566.815 z" id="boundary" inkscape:connector-curvature="0" />
	<path style="fill:none;stroke:red;stroke-width:1px;stroke-linecap:butt;stroke-linejoin:miter;stroke-opacity:1" d="M 99.8986,643.848 92.038,659.569 z" id="boundary" inkscape:connector-curvature="0" />
	<path style="fill:none;stroke:red;stroke-width:1px;stroke-linecap:butt;stroke-linejoin:miter;stroke-opacity:1" d="M 106.187,624.983 99.8986,643.848 z" id="boundary" inkscape:connector-curvature="0" />
	<path style="fill:none;stroke:red;stroke-width:1px;stroke-linecap:butt;stroke-linejoin:miter;stroke-opacity:1" d="M 103.043,593.54 106.187,609.261 z" id="boundary" inkscape:connector-curvature="0" />
	<path style="fill:none;stroke:red;stroke-width:1px;stroke-linecap:butt;stroke-linejoin:miter;stroke-opacity:1" d="M 106.187,551.094 118.764,538.517 z" id="boundary" inkscape:connector-curvature="0" />
	<path style="fill:none;stroke:red;stroke-width:1px;stroke-linecap:butt;stroke-linejoin:miter;stroke-opacity:1" d="M 92.038,659.569 81.0333,672.146 z" id="boundary" inkscape:connector-curvature="0" />
	<path style="fill:none;stroke:red;stroke-width:1px;stroke-linecap:butt;stroke-linejoin:miter;stroke-opacity:1" d="M 118.764,538.517 132.913,530.656 z" id="boundary" inkscape:connector-curvature="0" />
	<path style="fill:none;stroke:red;stroke-width:1px;stroke-linecap:butt;stroke-linejoin:miter;stroke-opacity:1" d="M 197.369,673.718 183.22,681.578 z" id="boundary" inkscape:connector-curvature="0" />
	<path style="fill:none;stroke:red;stroke-width:1px;stroke-linecap:butt;stroke-linejoin:miter;stroke-opacity:1" d="M 183.22,681.578 167.499,681.578 z" id="boundary" inkscape:connector-curvature="0" />
	<path style="fill:none;stroke:red;stroke-width:1px;stroke-linecap:butt;stroke-linejoin:miter;stroke-opacity:1" d="M 106.187,624.983 106.187,609.261 z" id="boundary" inkscape:connector-curvature="0" />
	<path style="fill:none;stroke:red;stroke-width:1px;stroke-linecap:butt;stroke-linejoin:miter;stroke-opacity:1" d="M 167.499,681.578 153.35,689.439 z" id="boundary" inkscape:connector-curvature="0" />
	<path style="fill:none;stroke:red;stroke-width:1px;stroke-linecap:butt;stroke-linejoin:miter;stroke-opacity:1" d="M 213.09,673.718 197.369,673.718 z" id="boundary" inkscape:connector-curvature="0" />
	<path style="fill:none;stroke:red;stroke-width:1px;stroke-linecap:butt;stroke-linejoin:miter;stroke-opacity:1" d="M 187.937,74.7448 203.658,74.7448 z" id="boundary" inkscape:connector-curvature="0" />
	<path style="fill:none;stroke:red;stroke-width:1px;stroke-linecap:butt;stroke-linejoin:miter;stroke-opacity:1" d="M 11.8605,786.91 11.8605,771.189 z" id="boundary" inkscape:connector-curvature="0" />
	<path style="fill:none;stroke:red;stroke-width:1px;stroke-linecap:butt;stroke-linejoin:miter;stroke-opacity:1" d="M 19.7211,755.468 11.8605,771.189 z" id="boundary" inkscape:connector-curvature="0" />
	<path style="fill:none;stroke:red;stroke-width:1px;stroke-linecap:butt;stroke-linejoin:miter;stroke-opacity:1" d="M 4,810.491 11.8605,786.91 z" id="boundary" inkscape:connector-curvature="0" />
	<path style="fill:none;stroke:red;stroke-width:1px;stroke-linecap:butt;stroke-linejoin:miter;stroke-opacity:1" d="M 4,826.212 4,810.491 z" id="boundary" inkscape:connector-curvature="0" />
	<path style="fill:none;stroke:red;stroke-width:1px;stroke-linecap:butt;stroke-linejoin:miter;stroke-opacity:1" d="M 4,841.933 4,826.212 z" id="boundary" inkscape:connector-curvature="0" />
	<path style="fill:none;stroke:red;stroke-width:1px;stroke-linecap:butt;stroke-linejoin:miter;stroke-opacity:1" d="M 32.2979,742.891 44.8748,730.314 z" id="boundary" inkscape:connector-curvature="0" />
	<path style="fill:none;stroke:red;stroke-width:1px;stroke-linecap:butt;stroke-linejoin:miter;stroke-opacity:1" d="M 52.7353,714.593 44.8748,730.314 z" id="boundary" inkscape:connector-curvature="0" />
	<path style="fill:none;stroke:red;stroke-width:1px;stroke-linecap:butt;stroke-linejoin:miter;stroke-opacity:1" d="M 60.5959,698.872 52.7353,714.593 z" id="boundary" inkscape:connector-curvature="0" />
	<path style="fill:none;stroke:red;stroke-width:1px;stroke-linecap:butt;stroke-linejoin:miter;stroke-opacity:1" d="M 76.317,775.905 68.4564,791.626 z" id="boundary" inkscape:connector-curvature="0" />
	<path style="fill:none;stroke:red;stroke-width:1px;stroke-linecap:butt;stroke-linejoin:miter;stroke-opacity:1" d="M 60.5959,815.208 52.7353,830.929 z" id="boundary" inkscape:connector-curvature="0" />
	<path style="fill:none;stroke:red;stroke-width:1px;stroke-linecap:butt;stroke-linejoin:miter;stroke-opacity:1" d="M 68.4564,791.626 60.5959,815.208 z" id="boundary" inkscape:connector-curvature="0" />
	<path style="fill:none;stroke:red;stroke-width:1px;stroke-linecap:butt;stroke-linejoin:miter;stroke-opacity:1" d="M 19.7211,755.468 32.2979,742.891 z" id="boundary" inkscape:connector-curvature="0" />
	<path style="fill:none;stroke:red;stroke-width:1px;stroke-linecap:butt;stroke-linejoin:miter;stroke-opacity:1" d="M 52.7353,846.65 52.7353,830.929 z" id="boundary" inkscape:connector-curvature="0" />
	<path style="fill:none;stroke:red;stroke-width:1px;stroke-linecap:butt;stroke-linejoin:miter;stroke-opacity:1" d="M 4,857.655 11.8605,871.803 z" id="boundary" inkscape:connector-curvature="0" />
	<path style="fill:none;stroke:red;stroke-width:1px;stroke-linecap:butt;stroke-linejoin:miter;stroke-opacity:1" d="M 11.8605,871.803 11.8605,887.525 z" id="boundary" inkscape:connector-curvature="0" />
	<path style="fill:none;stroke:red;stroke-width:1px;stroke-linecap:butt;stroke-linejoin:miter;stroke-opacity:1" d="M 19.7211,901.674 11.8605,887.525 z" id="boundary" inkscape:connector-curvature="0" />
	<path style="fill:none;stroke:red;stroke-width:1px;stroke-linecap:butt;stroke-linejoin:miter;stroke-opacity:1" d="M 29.1537,914.25 19.7211,901.674 z" id="boundary" inkscape:connector-curvature="0" />
	<path style="fill:none;stroke:red;stroke-width:1px;stroke-linecap:butt;stroke-linejoin:miter;stroke-opacity:1" d="M 41.7306,925.255 29.1537,914.25 z" id="boundary" inkscape:connector-curvature="0" />
	<path style="fill:none;stroke:red;stroke-width:1px;stroke-linecap:butt;stroke-linejoin:miter;stroke-opacity:1" d="M 41.7306,925.255 48.019,940.976 z" id="boundary" inkscape:connector-curvature="0" />
	<path style="fill:none;stroke:red;stroke-width:1px;stroke-linecap:butt;stroke-linejoin:miter;stroke-opacity:1" d="M 60.5959,876.52 52.7353,862.371 z" id="boundary" inkscape:connector-curvature="0" />
	<path style="fill:none;stroke:red;stroke-width:1px;stroke-linecap:butt;stroke-linejoin:miter;stroke-opacity:1" d="M 52.7353,862.371 52.7353,846.65 z" id="boundary" inkscape:connector-curvature="0" />
	<path style="fill:none;stroke:red;stroke-width:1px;stroke-linecap:butt;stroke-linejoin:miter;stroke-opacity:1" d="M 60.5959,876.52 60.5959,892.241 z" id="boundary" inkscape:connector-curvature="0" />
	<path style="fill:none;stroke:red;stroke-width:1px;stroke-linecap:butt;stroke-linejoin:miter;stroke-opacity:1" d="M 60.5959,892.241 68.4564,906.39 z" id="boundary" inkscape:connector-curvature="0" />
	<path style="fill:none;stroke:red;stroke-width:1px;stroke-linecap:butt;stroke-linejoin:miter;stroke-opacity:1" d="M 68.4564,906.39 84.1775,912.678 z" id="boundary" inkscape:connector-curvature="0" />
	<path style="fill:none;stroke:red;stroke-width:1px;stroke-linecap:butt;stroke-linejoin:miter;stroke-opacity:1" d="M 60.5959,951.981 48.019,940.976 z" id="boundary" inkscape:connector-curvature="0" />
	<path style="fill:none;stroke:red;stroke-width:1px;stroke-linecap:butt;stroke-linejoin:miter;stroke-opacity:1" d="M 60.5959,951.981 71.6006,964.558 z" id="boundary" inkscape:connector-curvature="0" />
	<path style="fill:none;stroke:red;stroke-width:1px;stroke-linecap:butt;stroke-linejoin:miter;stroke-opacity:1" d="M 4,857.655 4,841.933 z" id="boundary" inkscape:connector-curvature="0" />
	<path style="fill:none;stroke:red;stroke-width:1px;stroke-linecap:butt;stroke-linejoin:miter;stroke-opacity:1" d="M 107.759,736.602 96.7544,749.179 z" id="boundary" inkscape:connector-curvature="0" />
	<path style="fill:none;stroke:red;stroke-width:1px;stroke-linecap:butt;stroke-linejoin:miter;stroke-opacity:1" d="M 96.7544,749.179 84.1775,760.184 z" id="boundary" inkscape:connector-curvature="0" />
	<path style="fill:none;stroke:red;stroke-width:1px;stroke-linecap:butt;stroke-linejoin:miter;stroke-opacity:1" d="M 76.317,775.905 84.1775,760.184 z" id="boundary" inkscape:connector-curvature="0" />
	<path style="fill:none;stroke:red;stroke-width:1px;stroke-linecap:butt;stroke-linejoin:miter;stroke-opacity:1" d="M 99.8986,915.823 84.1775,912.678 z" id="boundary" inkscape:connector-curvature="0" />
	<path style="fill:none;stroke:red;stroke-width:1px;stroke-linecap:butt;stroke-linejoin:miter;stroke-opacity:1" d="M 115.62,915.823 99.8986,915.823 z" id="boundary" inkscape:connector-curvature="0" />
	<path style="fill:none;stroke:red;stroke-width:1px;stroke-linecap:butt;stroke-linejoin:miter;stroke-opacity:1" d="M 128.197,709.876 139.201,697.3 z" id="boundary" inkscape:connector-curvature="0" />
	<path style="fill:none;stroke:red;stroke-width:1px;stroke-linecap:butt;stroke-linejoin:miter;stroke-opacity:1" d="M 139.201,697.3 153.35,689.439 z" id="boundary" inkscape:connector-curvature="0" />
	<path style="fill:none;stroke:red;stroke-width:1px;stroke-linecap:butt;stroke-linejoin:miter;stroke-opacity:1" d="M 107.759,736.602 115.62,720.881 z" id="boundary" inkscape:connector-curvature="0" />
	<path style="fill:none;stroke:red;stroke-width:1px;stroke-linecap:butt;stroke-linejoin:miter;stroke-opacity:1" d="M 115.62,720.881 128.197,709.876 z" id="boundary" inkscape:connector-curvature="0" />
	<path style="fill:none;stroke:red;stroke-width:1px;stroke-linecap:butt;stroke-linejoin:miter;stroke-opacity:1" d="M 136.057,940.976 123.48,929.971 z" id="boundary" inkscape:connector-curvature="0" />
	<path style="fill:none;stroke:red;stroke-width:1px;stroke-linecap:butt;stroke-linejoin:miter;stroke-opacity:1" d="M 123.48,929.971 115.62,915.823 z" id="boundary" inkscape:connector-curvature="0" />
	<path style="fill:none;stroke:red;stroke-width:1px;stroke-linecap:butt;stroke-linejoin:miter;stroke-opacity:1" d="M 71.6006,964.558 87.3217,970.846 z" id="boundary" inkscape:connector-curvature="0" />
	<path style="fill:none;stroke:red;stroke-width:1px;stroke-linecap:butt;stroke-linejoin:miter;stroke-opacity:1" d="M 101.471,978.707 87.3217,970.846 z" id="boundary" inkscape:connector-curvature="0" />
	<path style="fill:none;stroke:red;stroke-width:1px;stroke-linecap:butt;stroke-linejoin:miter;stroke-opacity:1" d="M 101.471,978.707 114.048,988.139 z" id="boundary" inkscape:connector-curvature="0" />
	<path style="fill:none;stroke:red;stroke-width:1px;stroke-linecap:butt;stroke-linejoin:miter;stroke-opacity:1" d="M 114.048,988.139 129.769,988.139 z" id="boundary" inkscape:connector-curvature="0" />
	<path style="fill:none;stroke:red;stroke-width:1px;stroke-linecap:butt;stroke-linejoin:miter;stroke-opacity:1" d="M 145.49,988.139 129.769,988.139 z" id="boundary" inkscape:connector-curvature="0" />
	<path style="fill:none;stroke:red;stroke-width:1px;stroke-linecap:butt;stroke-linejoin:miter;stroke-opacity:1" d="M 145.49,988.139 159.639,996 z" id="boundary" inkscape:connector-curvature="0" />
	<path style="fill:none;stroke:red;stroke-width:1px;stroke-linecap:butt;stroke-linejoin:miter;stroke-opacity:1" d="M 136.057,940.976 147.062,953.553 z" id="boundary" inkscape:connector-curvature="0" />
	<path style="fill:none;stroke:red;stroke-width:1px;stroke-linecap:butt;stroke-linejoin:miter;stroke-opacity:1" d="M 178.504,951.981 162.783,950.409 z" id="boundary" inkscape:connector-curvature="0" />
	<path style="fill:none;stroke:red;stroke-width:1px;stroke-linecap:butt;stroke-linejoin:miter;stroke-opacity:1" d="M 175.36,996 159.639,996 z" id="boundary" inkscape:connector-curvature="0" />
	<path style="fill:none;stroke:red;stroke-width:1px;stroke-linecap:butt;stroke-linejoin:miter;stroke-opacity:1" d="M 205.23,986.567 191.081,996 z" id="boundary" inkscape:connector-curvature="0" />
	<path style="fill:none;stroke:red;stroke-width:1px;stroke-linecap:butt;stroke-linejoin:miter;stroke-opacity:1" d="M 191.081,996 175.36,996 z" id="boundary" inkscape:connector-curvature="0" />
	<path style="fill:none;stroke:red;stroke-width:1px;stroke-linecap:butt;stroke-linejoin:miter;stroke-opacity:1" d="M 178.504,951.981 192.653,959.842 z" id="boundary" inkscape:connector-curvature="0" />
	<path style="fill:none;stroke:red;stroke-width:1px;stroke-linecap:butt;stroke-linejoin:miter;stroke-opacity:1" d="M 147.062,953.553 162.783,950.409 z" id="boundary" inkscape:connector-curvature="0" />
	<path style="fill:none;stroke:red;stroke-width:1px;stroke-linecap:butt;stroke-linejoin:miter;stroke-opacity:1" d="M 208.374,966.13 192.653,959.842 z" id="boundary" inkscape:connector-curvature="0" />
	<path style="fill:none;stroke:red;stroke-width:1px;stroke-linecap:butt;stroke-linejoin:miter;stroke-opacity:1" d="M 452.051,59.0238 467.772,59.0238 z" id="boundary" inkscape:connector-curvature="0" />
	<path style="fill:none;stroke:red;stroke-width:1px;stroke-linecap:butt;stroke-linejoin:miter;stroke-opacity:1" d="M 437.902,66.8843 452.051,59.0238 z" id="boundary" inkscape:connector-curvature="0" />
	<path style="fill:none;stroke:red;stroke-width:1px;stroke-linecap:butt;stroke-linejoin:miter;stroke-opacity:1" d="M 483.493,59.0238 467.772,59.0238 z" id="boundary" inkscape:connector-curvature="0" />
	<path style="fill:none;stroke:red;stroke-width:1px;stroke-linecap:butt;stroke-linejoin:miter;stroke-opacity:1" d="M 497.642,51.1632 483.493,59.0238 z" id="boundary" inkscape:connector-curvature="0" />
	<path style="fill:none;stroke:red;stroke-width:1px;stroke-linecap:butt;stroke-linejoin:miter;stroke-opacity:1" d="M 437.902,66.8843 422.181,66.8843 z" id="boundary" inkscape:connector-curvature="0" />
	<path style="fill:none;stroke:red;stroke-width:1px;stroke-linecap:butt;stroke-linejoin:miter;stroke-opacity:1" d="M 408.032,74.7448 422.181,66.8843 z" id="boundary" inkscape:connector-curvature="0" />
	<path style="fill:none;stroke:red;stroke-width:1px;stroke-linecap:butt;stroke-linejoin:miter;stroke-opacity:1" d="M 604.545,21.2932 588.824,27.5816 z" id="boundary" inkscape:connector-curvature="0" />
	<path style="fill:none;stroke:red;stroke-width:1px;stroke-linecap:butt;stroke-linejoin:miter;stroke-opacity:1" d="M 588.824,27.5816 574.675,35.4422 z" id="boundary" inkscape:connector-curvature="0" />
	<path style="fill:none;stroke:red;stroke-width:1px;stroke-linecap:butt;stroke-linejoin:miter;stroke-opacity:1" d="M 574.675,35.4422 558.954,35.4422 z" id="boundary" inkscape:connector-curvature="0" />
	<path style="fill:none;stroke:red;stroke-width:1px;stroke-linecap:butt;stroke-linejoin:miter;stroke-opacity:1" d="M 543.233,43.3027 558.954,35.4422 z" id="boundary" inkscape:connector-curvature="0" />
	<path style="fill:none;stroke:red;stroke-width:1px;stroke-linecap:butt;stroke-linejoin:miter;stroke-opacity:1" d="M 497.642,51.1632 513.363,51.1632 z" id="boundary" inkscape:connector-curvature="0" />
	<path style="fill:none;stroke:red;stroke-width:1px;stroke-linecap:butt;stroke-linejoin:miter;stroke-opacity:1" d="M 529.084,51.1632 543.233,43.3027 z" id="boundary" inkscape:connector-curvature="0" />
	<path style="fill:none;stroke:red;stroke-width:1px;stroke-linecap:butt;stroke-linejoin:miter;stroke-opacity:1" d="M 529.084,51.1632 513.363,51.1632 z" id="boundary" inkscape:connector-curvature="0" />
	<path style="fill:none;stroke:red;stroke-width:1px;stroke-linecap:butt;stroke-linejoin:miter;stroke-opacity:1" d="M 235.1,74.7448 219.379,74.7448 z" id="boundary" inkscape:connector-curvature="0" />
	<path style="fill:none;stroke:red;stroke-width:1px;stroke-linecap:butt;stroke-linejoin:miter;stroke-opacity:1" d="M 219.379,74.7448 203.658,74.7448 z" id="boundary" inkscape:connector-curvature="0" />
	<path style="fill:none;stroke:red;stroke-width:1px;stroke-linecap:butt;stroke-linejoin:miter;stroke-opacity:1" d="M 235.1,74.7448 250.821,74.7448 z" id="boundary" inkscape:connector-curvature="0" />
	<path style="fill:none;stroke:red;stroke-width:1px;stroke-linecap:butt;stroke-linejoin:miter;stroke-opacity:1" d="M 266.542,74.7448 250.821,74.7448 z" id="boundary" inkscape:connector-curvature="0" />
	<path style="fill:none;stroke:red;stroke-width:1px;stroke-linecap:butt;stroke-linejoin:miter;stroke-opacity:1" d="M 282.263,74.7448 297.984,74.7448 z" id="boundary" inkscape:connector-curvature="0" />
	<path style="fill:none;stroke:red;stroke-width:1px;stroke-linecap:butt;stroke-linejoin:miter;stroke-opacity:1" d="M 282.263,74.7448 266.542,74.7448 z" id="boundary" inkscape:connector-curvature="0" />
	<path style="fill:none;stroke:red;stroke-width:1px;stroke-linecap:butt;stroke-linejoin:miter;stroke-opacity:1" d="M 297.984,74.7448 313.705,74.7448 z" id="boundary" inkscape:connector-curvature="0" />
	<path style="fill:none;stroke:red;stroke-width:1px;stroke-linecap:butt;stroke-linejoin:miter;stroke-opacity:1" d="M 329.426,74.7448 345.147,74.7448 z" id="boundary" inkscape:connector-curvature="0" />
	<path style="fill:none;stroke:red;stroke-width:1px;stroke-linecap:butt;stroke-linejoin:miter;stroke-opacity:1" d="M 329.426,74.7448 313.705,74.7448 z" id="boundary" inkscape:connector-curvature="0" />
	<path style="fill:none;stroke:red;stroke-width:1px;stroke-linecap:butt;stroke-linejoin:miter;stroke-opacity:1" d="M 345.147,74.7448 360.868,74.7448 z" id="boundary" inkscape:connector-curvature="0" />
	<path style="fill:none;stroke:red;stroke-width:1px;stroke-linecap:butt;stroke-linejoin:miter;stroke-opacity:1" d="M 376.59,74.7448 360.868,74.7448 z" id="boundary" inkscape:connector-curvature="0" />
	<path style="fill:none;stroke:red;stroke-width:1px;stroke-linecap:butt;stroke-linejoin:miter;stroke-opacity:1" d="M 392.311,74.7448 408.032,74.7448 z" id="boundary" inkscape:connector-curvature="0" />
	<path style="fill:none;stroke:red;stroke-width:1px;stroke-linecap:butt;stroke-linejoin:miter;stroke-opacity:1" d="M 392.311,74.7448 376.59,74.7448 z" id="boundary" inkscape:connector-curvature="0" />
	<path style="fill:none;stroke:red;stroke-width:1px;stroke-linecap:butt;stroke-linejoin:miter;stroke-opacity:1" d="M 634.415,11.8605 620.266,19.7211 z" id="boundary" inkscape:connector-curvature="0" />
	<path style="fill:none;stroke:red;stroke-width:1px;stroke-linecap:butt;stroke-linejoin:miter;stroke-opacity:1" d="M 620.266,19.7211 604.545,21.2932 z" id="boundary" inkscape:connector-curvature="0" />
	<path style="fill:none;stroke:red;stroke-width:1px;stroke-linecap:butt;stroke-linejoin:miter;stroke-opacity:1" d="M 648.564,4 634.415,11.8605 z" id="boundary" inkscape:connector-curvature="0" />
	<path style="fill:none;stroke:red;stroke-width:1px;stroke-linecap:butt;stroke-linejoin:miter;stroke-opacity:1" d="M 657.997,84.1775 657.997,99.8986 z" id="boundary" inkscape:connector-curvature="0" />
	<path style="fill:none;stroke:red;stroke-width:1px;stroke-linecap:butt;stroke-linejoin:miter;stroke-opacity:1" d="M 657.997,84.1775 665.857,68.4564 z" id="boundary" inkscape:connector-curvature="0" />
	<path style="fill:none;stroke:red;stroke-width:1px;stroke-linecap:butt;stroke-linejoin:miter;stroke-opacity:1" d="M 657.997,99.8986 657.997,115.62 z" id="boundary" inkscape:connector-curvature="0" />
	<path style="fill:none;stroke:red;stroke-width:1px;stroke-linecap:butt;stroke-linejoin:miter;stroke-opacity:1" d="M 664.285,7.14422 673.718,19.7211 z" id="boundary" inkscape:connector-curvature="0" />
	<path style="fill:none;stroke:red;stroke-width:1px;stroke-linecap:butt;stroke-linejoin:miter;stroke-opacity:1" d="M 673.718,19.7211 665.857,37.0143 z" id="boundary" inkscape:connector-curvature="0" />
	<path style="fill:none;stroke:red;stroke-width:1px;stroke-linecap:butt;stroke-linejoin:miter;stroke-opacity:1" d="M 665.857,52.7353 665.857,37.0143 z" id="boundary" inkscape:connector-curvature="0" />
	<path style="fill:none;stroke:red;stroke-width:1px;stroke-linecap:butt;stroke-linejoin:miter;stroke-opacity:1" d="M 657.997,115.62 657.997,131.341 z" id="boundary" inkscape:connector-curvature="0" />
	<path style="fill:none;stroke:red;stroke-width:1px;stroke-linecap:butt;stroke-linejoin:miter;stroke-opacity:1" d="M 665.857,68.4564 665.857,52.7353 z" id="boundary" inkscape:connector-curvature="0" />
	<path style="fill:none;stroke:red;stroke-width:1px;stroke-linecap:butt;stroke-linejoin:miter;stroke-opacity:1" d="M 657.997,147.062 657.997,131.341 z" id="boundary" inkscape:connector-curvature="0" />
	<path style="fill:none;stroke:red;stroke-width:1px;stroke-linecap:butt;stroke-linejoin:miter;stroke-opacity:1" d="M 648.564,4 664.285,7.14422 z" id="boundary" inkscape:connector-curvature="0" />
	<path style="fill:none;stroke:red;stroke-width:1px;stroke-linecap:butt;stroke-linejoin:miter;stroke-opacity:1" d="M 657.997,147.062 657.997,162.783 z" id="boundary" inkscape:connector-curvature="0" />
	<path style="fill:none;stroke:red;stroke-width:1px;stroke-linecap:butt;stroke-linejoin:miter;stroke-opacity:1" d="M 657.997,178.504 657.997,162.783 z" id="boundary" inkscape:connector-curvature="0" />
	<path style="fill:none;stroke:red;stroke-width:1px;stroke-linecap:butt;stroke-linejoin:miter;stroke-opacity:1" d="M 657.997,194.225 657.997,209.946 z" id="boundary" inkscape:connector-curvature="0" />
	<path style="fill:none;stroke:red;stroke-width:1px;stroke-linecap:butt;stroke-linejoin:miter;stroke-opacity:1" d="M 657.997,225.667 657.997,209.946 z" id="boundary" inkscape:connector-curvature="0" />
	<path style="fill:none;stroke:red;stroke-width:1px;stroke-linecap:butt;stroke-linejoin:miter;stroke-opacity:1" d="M 657.997,194.225 657.997,178.504 z" id="boundary" inkscape:connector-curvature="0" />
	<path style="fill:none;stroke:red;stroke-width:1px;stroke-linecap:butt;stroke-linejoin:miter;stroke-opacity:1" d="M 657.997,241.388 657.997,257.109 z" id="boundary" inkscape:connector-curvature="0" />
	<path style="fill:none;stroke:red;stroke-width:1px;stroke-linecap:butt;stroke-linejoin:miter;stroke-opacity:1" d="M 657.997,272.83 657.997,257.109 z" id="boundary" inkscape:connector-curvature="0" />
	<path style="fill:none;stroke:red;stroke-width:1px;stroke-linecap:butt;stroke-linejoin:miter;stroke-opacity:1" d="M 665.857,286.979 657.997,272.83 z" id="boundary" inkscape:connector-curvature="0" />
	<path style="fill:none;stroke:red;stroke-width:1px;stroke-linecap:butt;stroke-linejoin:miter;stroke-opacity:1" d="M 665.857,286.979 665.857,302.7 z" id="boundary" inkscape:connector-curvature="0" />
	<path style="fill:none;stroke:red;stroke-width:1px;stroke-linecap:butt;stroke-linejoin:miter;stroke-opacity:1" d="M 665.857,318.422 665.857,334.143 z" id="boundary" inkscape:connector-curvature="0" />
	<path style="fill:none;stroke:red;stroke-width:1px;stroke-linecap:butt;stroke-linejoin:miter;stroke-opacity:1" d="M 665.857,318.422 665.857,302.7 z" id="boundary" inkscape:connector-curvature="0" />
	<path style="fill:none;stroke:red;stroke-width:1px;stroke-linecap:butt;stroke-linejoin:miter;stroke-opacity:1" d="M 657.997,241.388 657.997,225.667 z" id="boundary" inkscape:connector-curvature="0" />
	<path style="fill:none;stroke:red;stroke-width:1px;stroke-linecap:butt;stroke-linejoin:miter;stroke-opacity:1" d="M 665.857,334.143 665.857,349.864 z" id="boundary" inkscape:connector-curvature="0" />
	<path style="fill:none;stroke:red;stroke-width:1px;stroke-linecap:butt;stroke-linejoin:miter;stroke-opacity:1" d="M 271.258,650.136 285.407,642.276 z" id="boundary" inkscape:connector-curvature="0" />
	<path style="fill:none;stroke:red;stroke-width:1px;stroke-linecap:butt;stroke-linejoin:miter;stroke-opacity:1" d="M 285.407,642.276 301.128,642.276 z" id="boundary" inkscape:connector-curvature="0" />
	<path style="fill:none;stroke:red;stroke-width:1px;stroke-linecap:butt;stroke-linejoin:miter;stroke-opacity:1" d="M 271.258,650.136 257.109,657.997 z" id="boundary" inkscape:connector-curvature="0" />
	<path style="fill:none;stroke:red;stroke-width:1px;stroke-linecap:butt;stroke-linejoin:miter;stroke-opacity:1" d="M 301.128,642.276 315.277,650.136 z" id="boundary" inkscape:connector-curvature="0" />
	<path style="fill:none;stroke:red;stroke-width:1px;stroke-linecap:butt;stroke-linejoin:miter;stroke-opacity:1" d="M 244.532,673.718 257.109,657.997 z" id="boundary" inkscape:connector-curvature="0" />
	<path style="fill:none;stroke:red;stroke-width:1px;stroke-linecap:butt;stroke-linejoin:miter;stroke-opacity:1" d="M 315.277,650.136 327.854,661.141 z" id="boundary" inkscape:connector-curvature="0" />
	<path style="fill:none;stroke:red;stroke-width:1px;stroke-linecap:butt;stroke-linejoin:miter;stroke-opacity:1" d="M 343.575,665.857 327.854,661.141 z" id="boundary" inkscape:connector-curvature="0" />
	<path style="fill:none;stroke:red;stroke-width:1px;stroke-linecap:butt;stroke-linejoin:miter;stroke-opacity:1" d="M 343.575,665.857 359.296,665.857 z" id="boundary" inkscape:connector-curvature="0" />
	<path style="fill:none;stroke:red;stroke-width:1px;stroke-linecap:butt;stroke-linejoin:miter;stroke-opacity:1" d="M 375.017,665.857 359.296,665.857 z" id="boundary" inkscape:connector-curvature="0" />
	<path style="fill:none;stroke:red;stroke-width:1px;stroke-linecap:butt;stroke-linejoin:miter;stroke-opacity:1" d="M 390.739,665.857 406.46,665.857 z" id="boundary" inkscape:connector-curvature="0" />
	<path style="fill:none;stroke:red;stroke-width:1px;stroke-linecap:butt;stroke-linejoin:miter;stroke-opacity:1" d="M 422.181,665.857 437.902,665.857 z" id="boundary" inkscape:connector-curvature="0" />
	<path style="fill:none;stroke:red;stroke-width:1px;stroke-linecap:butt;stroke-linejoin:miter;stroke-opacity:1" d="M 437.902,665.857 453.623,669.002 z" id="boundary" inkscape:connector-curvature="0" />
	<path style="fill:none;stroke:red;stroke-width:1px;stroke-linecap:butt;stroke-linejoin:miter;stroke-opacity:1" d="M 422.181,665.857 406.46,665.857 z" id="boundary" inkscape:connector-curvature="0" />
	<path style="fill:none;stroke:red;stroke-width:1px;stroke-linecap:butt;stroke-linejoin:miter;stroke-opacity:1" d="M 390.739,665.857 375.017,665.857 z" id="boundary" inkscape:connector-curvature="0" />
	<path style="fill:none;stroke:red;stroke-width:1px;stroke-linecap:butt;stroke-linejoin:miter;stroke-opacity:1" d="M 244.532,673.718 228.811,673.718 z" id="boundary" inkscape:connector-curvature="0" />
	<path style="fill:none;stroke:red;stroke-width:1px;stroke-linecap:butt;stroke-linejoin:miter;stroke-opacity:1" d="M 228.811,673.718 213.09,673.718 z" id="boundary" inkscape:connector-curvature="0" />
	<path style="fill:none;stroke:red;stroke-width:1px;stroke-linecap:butt;stroke-linejoin:miter;stroke-opacity:1" d="M 453.623,669.002 469.344,673.718 z" id="boundary" inkscape:connector-curvature="0" />
	<path style="fill:none;stroke:red;stroke-width:1px;stroke-linecap:butt;stroke-linejoin:miter;stroke-opacity:1" d="M 208.374,966.13 205.23,986.567 z" id="boundary" inkscape:connector-curvature="0" />
	<path style="fill:none;stroke:red;stroke-width:1px;stroke-linecap:butt;stroke-linejoin:miter;stroke-opacity:1" d="M 500.786,665.857 516.507,665.857 z" id="boundary" inkscape:connector-curvature="0" />
	<path style="fill:none;stroke:red;stroke-width:1px;stroke-linecap:butt;stroke-linejoin:miter;stroke-opacity:1" d="M 485.065,673.718 500.786,665.857 z" id="boundary" inkscape:connector-curvature="0" />
	<path style="fill:none;stroke:red;stroke-width:1px;stroke-linecap:butt;stroke-linejoin:miter;stroke-opacity:1" d="M 532.228,665.857 516.507,665.857 z" id="boundary" inkscape:connector-curvature="0" />
	<path style="fill:none;stroke:red;stroke-width:1px;stroke-linecap:butt;stroke-linejoin:miter;stroke-opacity:1" d="M 469.344,673.718 485.065,673.718 z" id="boundary" inkscape:connector-curvature="0" />
	<path style="fill:none;stroke:red;stroke-width:1px;stroke-linecap:butt;stroke-linejoin:miter;stroke-opacity:1" d="M 547.949,665.857 563.67,665.857 z" id="boundary" inkscape:connector-curvature="0" />
	<path style="fill:none;stroke:red;stroke-width:1px;stroke-linecap:butt;stroke-linejoin:miter;stroke-opacity:1" d="M 532.228,665.857 547.949,665.857 z" id="boundary" inkscape:connector-curvature="0" />
	<path style="fill:none;stroke:red;stroke-width:1px;stroke-linecap:butt;stroke-linejoin:miter;stroke-opacity:1" d="M 563.67,665.857 579.391,665.857 z" id="boundary" inkscape:connector-curvature="0" />
	<path style="fill:none;stroke:red;stroke-width:1px;stroke-linecap:butt;stroke-linejoin:miter;stroke-opacity:1" d="M 665.857,349.864 673.718,364.013 z" id="boundary" inkscape:connector-curvature="0" />
	<path style="fill:none;stroke:red;stroke-width:1px;stroke-linecap:butt;stroke-linejoin:miter;stroke-opacity:1" d="M 681.578,378.162 673.718,364.013 z" id="boundary" inkscape:connector-curvature="0" />
	<path style="fill:none;stroke:red;stroke-width:1px;stroke-linecap:butt;stroke-linejoin:miter;stroke-opacity:1" d="M 681.578,378.162 681.578,393.883 z" id="boundary" inkscape:connector-curvature="0" />
	<path style="fill:none;stroke:red;stroke-width:1px;stroke-linecap:butt;stroke-linejoin:miter;stroke-opacity:1" d="M 681.578,393.883 689.439,408.032 z" id="boundary" inkscape:connector-curvature="0" />
	<path style="fill:none;stroke:red;stroke-width:1px;stroke-linecap:butt;stroke-linejoin:miter;stroke-opacity:1" d="M 689.439,408.032 694.155,423.753 z" id="boundary" inkscape:connector-curvature="0" />
	<path style="fill:none;stroke:red;stroke-width:1px;stroke-linecap:butt;stroke-linejoin:miter;stroke-opacity:1" d="M 702.016,437.902 694.155,423.753 z" id="boundary" inkscape:connector-curvature="0" />
	<path style="fill:none;stroke:red;stroke-width:1px;stroke-linecap:butt;stroke-linejoin:miter;stroke-opacity:1" d="M 713.021,467.772 705.16,453.623 z" id="boundary" inkscape:connector-curvature="0" />
	<path style="fill:none;stroke:red;stroke-width:1px;stroke-linecap:butt;stroke-linejoin:miter;stroke-opacity:1" d="M 705.16,453.623 702.016,437.902 z" id="boundary" inkscape:connector-curvature="0" />
	<path style="fill:none;stroke:red;stroke-width:1px;stroke-linecap:butt;stroke-linejoin:miter;stroke-opacity:1" d="M 713.021,467.772 713.021,483.493 z" id="boundary" inkscape:connector-curvature="0" />
	<path style="fill:none;stroke:red;stroke-width:1px;stroke-linecap:butt;stroke-linejoin:miter;stroke-opacity:1" d="M 713.021,483.493 720.881,497.642 z" id="boundary" inkscape:connector-curvature="0" />
	<path style="fill:none;stroke:red;stroke-width:1px;stroke-linecap:butt;stroke-linejoin:miter;stroke-opacity:1" d="M 728.742,511.791 728.742,527.512 z" id="boundary" inkscape:connector-curvature="0" />
	<path style="fill:none;stroke:red;stroke-width:1px;stroke-linecap:butt;stroke-linejoin:miter;stroke-opacity:1" d="M 720.881,497.642 728.742,511.791 z" id="boundary" inkscape:connector-curvature="0" />
	<path style="fill:none;stroke:red;stroke-width:1px;stroke-linecap:butt;stroke-linejoin:miter;stroke-opacity:1" d="M 728.742,527.512 728.742,543.233 z" id="boundary" inkscape:connector-curvature="0" />
	<path style="fill:none;stroke:red;stroke-width:1px;stroke-linecap:butt;stroke-linejoin:miter;stroke-opacity:1" d="M 610.834,665.857 595.113,665.857 z" id="boundary" inkscape:connector-curvature="0" />
	<path style="fill:none;stroke:red;stroke-width:1px;stroke-linecap:butt;stroke-linejoin:miter;stroke-opacity:1" d="M 595.113,665.857 579.391,665.857 z" id="boundary" inkscape:connector-curvature="0" />
	<path style="fill:none;stroke:red;stroke-width:1px;stroke-linecap:butt;stroke-linejoin:miter;stroke-opacity:1" d="M 657.997,657.997 673.718,650.136 z" id="boundary" inkscape:connector-curvature="0" />
	<path style="fill:none;stroke:red;stroke-width:1px;stroke-linecap:butt;stroke-linejoin:miter;stroke-opacity:1" d="M 626.555,665.857 642.276,665.857 z" id="boundary" inkscape:connector-curvature="0" />
	<path style="fill:none;stroke:red;stroke-width:1px;stroke-linecap:butt;stroke-linejoin:miter;stroke-opacity:1" d="M 657.997,657.997 642.276,665.857 z" id="boundary" inkscape:connector-curvature="0" />
	<path style="fill:none;stroke:red;stroke-width:1px;stroke-linecap:butt;stroke-linejoin:miter;stroke-opacity:1" d="M 626.555,665.857 610.834,665.857 z" id="boundary" inkscape:connector-curvature="0" />
	<path style="fill:none;stroke:red;stroke-width:1px;stroke-linecap:butt;stroke-linejoin:miter;stroke-opacity:1" d="M 728.742,543.233 735.03,558.954 z" id="boundary" inkscape:connector-curvature="0" />
	<path style="fill:none;stroke:red;stroke-width:1px;stroke-linecap:butt;stroke-linejoin:miter;stroke-opacity:1" d="M 735.03,558.954 728.742,587.252 z" id="boundary" inkscape:connector-curvature="0" />
	<path style="fill:none;stroke:red;stroke-width:1px;stroke-linecap:butt;stroke-linejoin:miter;stroke-opacity:1" d="M 724.025,609.261 728.742,587.252 z" id="boundary" inkscape:connector-curvature="0" />
	<path style="fill:none;stroke:red;stroke-width:1px;stroke-linecap:butt;stroke-linejoin:miter;stroke-opacity:1" d="M 687.867,642.276 702.016,634.415 z" id="boundary" inkscape:connector-curvature="0" />
	<path style="fill:none;stroke:red;stroke-width:1px;stroke-linecap:butt;stroke-linejoin:miter;stroke-opacity:1" d="M 724.025,609.261 716.165,624.983 z" id="boundary" inkscape:connector-curvature="0" />
	<path style="fill:none;stroke:red;stroke-width:1px;stroke-linecap:butt;stroke-linejoin:miter;stroke-opacity:1" d="M 716.165,624.983 702.016,634.415 z" id="boundary" inkscape:connector-curvature="0" />
	<path style="fill:none;stroke:red;stroke-width:1px;stroke-linecap:butt;stroke-linejoin:miter;stroke-opacity:1" d="M 687.867,642.276 673.718,650.136 z" id="boundary" inkscape:connector-curvature="0" />
	<circle cx="4" cy="810.491" r="4" fill="#0" id="circle0"/>
	<circle cx="4" cy="826.212" r="4" fill="#0" id="circle1"/>
	<circle cx="4" cy="841.933" r="4" fill="#0" id="circle2"/>
	<circle cx="4" cy="857.655" r="4" fill="#0" id="circle3"/>
	<circle cx="11.8605" cy="771.189" r="4" fill="#0" id="circle4"/>
	<circle cx="11.8605" cy="786.91" r="4" fill="#0" id="circle5"/>
	<circle cx="11.8605" cy="871.803" r="4" fill="#0" id="circle6"/>
	<circle cx="11.8605" cy="887.525" r="4" fill="#0" id="circle7"/>
	<circle cx="19.7211" cy="165.927" r="4" fill="#0" id="circle8"/>
	<circle cx="19.7211" cy="755.468" r="4" fill="#0" id="circle9"/>
	<circle cx="19.7211" cy="901.674" r="4" fill="#0" id="circle10"/>
	<circle cx="27.5816" cy="150.206" r="4" fill="#0" id="circle11"/>
	<circle cx="27.5816" cy="180.076" r="4" fill="#0" id="circle12"/>
	<circle cx="27.5816" cy="195.797" r="4" fill="#0" id="circle13"/>
	<circle cx="27.5816" cy="211.518" r="4" fill="#0" id="circle14"/>
	<circle cx="27.5816" cy="227.239" r="4" fill="#0" id="circle15"/>
	<circle cx="27.5816" cy="242.96" r="4" fill="#0" id="circle16"/>
	<circle cx="29.1537" cy="914.25" r="4" fill="#0" id="circle17"/>
	<circle cx="32.2979" cy="742.891" r="4" fill="#0" id="circle18"/>
	<circle cx="35.4422" cy="134.485" r="4" fill="#0" id="circle19"/>
	<circle cx="35.4422" cy="257.109" r="4" fill="#0" id="circle20"/>
	<circle cx="35.4422" cy="272.83" r="4" fill="#0" id="circle21"/>
	<circle cx="40.1585" cy="288.552" r="4" fill="#0" id="circle22"/>
	<circle cx="41.7306" cy="925.255" r="4" fill="#0" id="circle23"/>
	<circle cx="43.3027" cy="118.764" r="4" fill="#0" id="circle24"/>
	<circle cx="43.3027" cy="304.273" r="4" fill="#0" id="circle25"/>
	<circle cx="44.8748" cy="730.314" r="4" fill="#0" id="circle26"/>
	<circle cx="48.019" cy="940.976" r="4" fill="#0" id="circle27"/>
	<circle cx="51.1632" cy="103.043" r="4" fill="#0" id="circle28"/>
	<circle cx="51.1632" cy="318.422" r="4" fill="#0" id="circle29"/>
	<circle cx="52.7353" cy="714.593" r="4" fill="#0" id="circle30"/>
	<circle cx="52.7353" cy="830.929" r="4" fill="#0" id="circle31"/>
	<circle cx="52.7353" cy="846.65" r="4" fill="#0" id="circle32"/>
	<circle cx="52.7353" cy="862.371" r="4" fill="#0" id="circle33"/>
	<circle cx="54.3074" cy="334.143" r="4" fill="#0" id="circle34"/>
	<circle cx="59.0238" cy="349.864" r="4" fill="#0" id="circle35"/>
	<circle cx="60.5959" cy="698.872" r="4" fill="#0" id="circle36"/>
	<circle cx="60.5959" cy="815.208" r="4" fill="#0" id="circle37"/>
	<circle cx="60.5959" cy="876.52" r="4" fill="#0" id="circle38"/>
	<circle cx="60.5959" cy="892.241" r="4" fill="#0" id="circle39"/>
	<circle cx="60.5959" cy="951.981" r="4" fill="#0" id="circle40"/>
	<circle cx="63.7401" cy="90.4659" r="4" fill="#0" id="circle41"/>
	<circle cx="66.8843" cy="364.013" r="4" fill="#0" id="circle42"/>
	<circle cx="68.4564" cy="379.734" r="4" fill="#0" id="circle43"/>
	<circle cx="68.4564" cy="683.151" r="4" fill="#0" id="circle44"/>
	<circle cx="68.4564" cy="791.626" r="4" fill="#0" id="circle45"/>
	<circle cx="68.4564" cy="906.39" r="4" fill="#0" id="circle46"/>
	<circle cx="71.6006" cy="964.558" r="4" fill="#0" id="circle47"/>
	<circle cx="74.7448" cy="395.455" r="4" fill="#0" id="circle48"/>
	<circle cx="76.317" cy="775.905" r="4" fill="#0" id="circle49"/>
	<circle cx="79.4612" cy="82.6054" r="4" fill="#0" id="circle50"/>
	<circle cx="81.0333" cy="672.146" r="4" fill="#0" id="circle51"/>
	<circle cx="82.6054" cy="409.604" r="4" fill="#0" id="circle52"/>
	<circle cx="82.6054" cy="425.325" r="4" fill="#0" id="circle53"/>
	<circle cx="84.1775" cy="760.184" r="4" fill="#0" id="circle54"/>
	<circle cx="84.1775" cy="912.678" r="4" fill="#0" id="circle55"/>
	<circle cx="87.3217" cy="970.846" r="4" fill="#0" id="circle56"/>
	<circle cx="90.4659" cy="439.474" r="4" fill="#0" id="circle57"/>
	<circle cx="90.4659" cy="582.536" r="4" fill="#0" id="circle58"/>
	<circle cx="92.038" cy="659.569" r="4" fill="#0" id="circle59"/>
	<circle cx="95.1823" cy="82.6054" r="4" fill="#0" id="circle60"/>
	<circle cx="96.7544" cy="749.179" r="4" fill="#0" id="circle61"/>
	<circle cx="98.3265" cy="453.623" r="4" fill="#0" id="circle62"/>
	<circle cx="98.3265" cy="566.815" r="4" fill="#0" id="circle63"/>
	<circle cx="99.8986" cy="643.848" r="4" fill="#0" id="circle64"/>
	<circle cx="99.8986" cy="915.823" r="4" fill="#0" id="circle65"/>
	<circle cx="101.471" cy="978.707" r="4" fill="#0" id="circle66"/>
	<circle cx="103.043" cy="469.344" r="4" fill="#0" id="circle67"/>
	<circle cx="103.043" cy="593.54" r="4" fill="#0" id="circle68"/>
	<circle cx="106.187" cy="551.094" r="4" fill="#0" id="circle69"/>
	<circle cx="106.187" cy="609.261" r="4" fill="#0" id="circle70"/>
	<circle cx="106.187" cy="624.983" r="4" fill="#0" id="circle71"/>
	<circle cx="107.759" cy="736.602" r="4" fill="#0" id="circle72"/>
	<circle cx="110.903" cy="82.6054" r="4" fill="#0" id="circle73"/>
	<circle cx="110.903" cy="483.493" r="4" fill="#0" id="circle74"/>
	<circle cx="114.048" cy="988.139" r="4" fill="#0" id="circle75"/>
	<circle cx="115.62" cy="720.881" r="4" fill="#0" id="circle76"/>
	<circle cx="115.62" cy="915.823" r="4" fill="#0" id="circle77"/>
	<circle cx="117.192" cy="499.214" r="4" fill="#0" id="circle78"/>
	<circle cx="118.764" cy="538.517" r="4" fill="#0" id="circle79"/>
	<circle cx="123.48" cy="929.971" r="4" fill="#0" id="circle80"/>
	<circle cx="125.052" cy="74.7448" r="4" fill="#0" id="circle81"/>
	<circle cx="128.197" cy="709.876" r="4" fill="#0" id="circle82"/>
	<circle cx="129.769" cy="508.647" r="4" fill="#0" id="circle83"/>
	<circle cx="129.769" cy="988.139" r="4" fill="#0" id="circle84"/>
	<circle cx="132.913" cy="530.656" r="4" fill="#0" id="circle85"/>
	<circle cx="136.057" cy="940.976" r="4" fill="#0" id="circle86"/>
	<circle cx="139.201" cy="697.3" r="4" fill="#0" id="circle87"/>
	<circle cx="140.773" cy="74.7448" r="4" fill="#0" id="circle88"/>
	<circle cx="145.49" cy="988.139" r="4" fill="#0" id="circle89"/>
	<circle cx="147.062" cy="953.553" r="4" fill="#0" id="circle90"/>
	<circle cx="153.35" cy="689.439" r="4" fill="#0" id="circle91"/>
	<circle cx="156.494" cy="74.7448" r="4" fill="#0" id="circle92"/>
	<circle cx="159.639" cy="996" r="4" fill="#0" id="circle93"/>
	<circle cx="162.783" cy="950.409" r="4" fill="#0" id="circle94"/>
	<circle cx="167.499" cy="681.578" r="4" fill="#0" id="circle95"/>
	<circle cx="172.216" cy="74.7448" r="4" fill="#0" id="circle96"/>
	<circle cx="175.36" cy="996" r="4" fill="#0" id="circle97"/>
	<circle cx="178.504" cy="951.981" r="4" fill="#0" id="circle98"/>
	<circle cx="183.22" cy="681.578" r="4" fill="#0" id="circle99"/>
	<circle cx="187.937" cy="74.7448" r="4" fill="#0" id="circle100"/>
	<circle cx="191.081" cy="996" r="4" fill="#0" id="circle101"/>
	<circle cx="192.653" cy="959.842" r="4" fill="#0" id="circle102"/>
	<circle cx="197.369" cy="673.718" r="4" fill="#0" id="circle103"/>
	<circle cx="203.658" cy="74.7448" r="4" fill="#0" id="circle104"/>
	<circle cx="205.23" cy="986.567" r="4" fill="#0" id="circle105"/>
	<circle cx="208.374" cy="966.13" r="4" fill="#0" id="circle106"/>
	<circle cx="213.09" cy="673.718" r="4" fill="#0" id="circle107"/>
	<circle cx="219.379" cy="74.7448" r="4" fill="#0" id="circle108"/>
	<circle cx="228.811" cy="673.718" r="4" fill="#0" id="circle109"/>
	<circle cx="235.1" cy="74.7448" r="4" fill="#0" id="circle110"/>
	<circle cx="244.532" cy="673.718" r="4" fill="#0" id="circle111"/>
	<circle cx="250.821" cy="74.7448" r="4" fill="#0" id="circle112"/>
	<circle cx="257.109" cy="657.997" r="4" fill="#0" id="circle113"/>
	<circle cx="266.542" cy="74.7448" r="4" fill="#0" id="circle114"/>
	<circle cx="271.258" cy="650.136" r="4" fill="#0" id="circle115"/>
	<circle cx="282.263" cy="74.7448" r="4" fill="#0" id="circle116"/>
	<circle cx="285.407" cy="642.276" r="4" fill="#0" id="circle117"/>
	<circle cx="297.984" cy="74.7448" r="4" fill="#0" id="circle118"/>
	<circle cx="301.128" cy="642.276" r="4" fill="#0" id="circle119"/>
	<circle cx="313.705" cy="74.7448" r="4" fill="#0" id="circle120"/>
	<circle cx="315.277" cy="650.136" r="4" fill="#0" id="circle121"/>
	<circle cx="327.854" cy="661.141" r="4" fill="#0" id="circle122"/>
	<circle cx="329.426" cy="74.7448" r="4" fill="#0" id="circle123"/>
	<circle cx="343.575" cy="665.857" r="4" fill="#0" id="circle124"/>
	<circle cx="345.147" cy="74.7448" r="4" fill="#0" id="circle125"/>
	<circle cx="359.296" cy="665.857" r="4" fill="#0" id="circle126"/>
	<circle cx="360.868" cy="74.7448" r="4" fill="#0" id="circle127"/>
	<circle cx="375.017" cy="665.857" r="4" fill="#0" id="circle128"/>
	<circle cx="376.59" cy="74.7448" r="4" fill="#0" id="circle129"/>
	<circle cx="390.739" cy="665.857" r="4" fill="#0" id="circle130"/>
	<circle cx="392.311" cy="74.7448" r="4" fill="#0" id="circle131"/>
	<circle cx="406.46" cy="665.857" r="4" fill="#0" id="circle132"/>
	<circle cx="408.032" cy="74.7448" r="4" fill="#0" id="circle133"/>
	<circle cx="422.181" cy="66.8843" r="4" fill="#0" id="circle134"/>
	<circle cx="422.181" cy="665.857" r="4" fill="#0" id="circle135"/>
	<circle cx="437.902" cy="66.8843" r="4" fill="#0" id="circle136"/>
	<circle cx="437.902" cy="665.857" r="4" fill="#0" id="circle137"/>
	<circle cx="452.051" cy="59.0238" r="4" fill="#0" id="circle138"/>
	<circle cx="453.623" cy="669.002" r="4" fill="#0" id="circle139"/>
	<circle cx="467.772" cy="59.0238" r="4" fill="#0" id="circle140"/>
	<circle cx="469.344" cy="673.718" r="4" fill="#0" id="circle141"/>
	<circle cx="483.493" cy="59.0238" r="4" fill="#0" id="circle142"/>
	<circle cx="485.065" cy="673.718" r="4" fill="#0" id="circle143"/>
	<circle cx="497.642" cy="51.1632" r="4" fill="#0" id="circle144"/>
	<circle cx="500.786" cy="665.857" r="4" fill="#0" id="circle145"/>
	<circle cx="513.363" cy="51.1632" r="4" fill="#0" id="circle146"/>
	<circle cx="516.507" cy="665.857" r="4" fill="#0" id="circle147"/>
	<circle cx="529.084" cy="51.1632" r="4" fill="#0" id="circle148"/>
	<circle cx="532.228" cy="665.857" r="4" fill="#0" id="circle149"/>
	<circle cx="543.233" cy="43.3027" r="4" fill="#0" id="circle150"/>
	<circle cx="547.949" cy="665.857" r="4" fill="#0" id="circle151"/>
	<circle cx="558.954" cy="35.4422" r="4" fill="#0" id="circle152"/>
	<circle cx="563.67" cy="665.857" r="4" fill="#0" id="circle153"/>
	<circle cx="574.675" cy="35.4422" r="4" fill="#0" id="circle154"/>
	<circle cx="579.391" cy="665.857" r="4" fill="#0" id="circle155"/>
	<circle cx="588.824" cy="27.5816" r="4" fill="#0" id="circle156"/>
	<circle cx="595.113" cy="665.857" r="4" fill="#0" id="circle157"/>
	<circle cx="604.545" cy="21.2932" r="4" fill="#0" id="circle158"/>
	<circle cx="610.834" cy="665.857" r="4" fill="#0" id="circle159"/>
	<circle cx="620.266" cy="19.7211" r="4" fill="#0" id="circle160"/>
	<circle cx="626.555" cy="665.857" r="4" fill="#0" id="circle161"/>
	<circle cx="634.415" cy="11.8605" r="4" fill="#0" id="circle162"/>
	<circle cx="642.276" cy="665.857" r="4" fill="#0" id="circle163"/>
	<circle cx="648.564" cy="4" r="4" fill="#0" id="circle164"/>
	<circle cx="657.997" cy="84.1775" r="4" fill="#0" id="circle165"/>
	<circle cx="657.997" cy="99.8986" r="4" fill="#0" id="circle166"/>
	<circle cx="657.997" cy="115.62" r="4" fill="#0" id="circle167"/>
	<circle cx="657.997" cy="131.341" r="4" fill="#0" id="circle168"/>
	<circle cx="657.997" cy="147.062" r="4" fill="#0" id="circle169"/>
	<circle cx="657.997" cy="162.783" r="4" fill="#0" id="circle170"/>
	<circle cx="657.997" cy="178.504" r="4" fill="#0" id="circle171"/>
	<circle cx="657.997" cy="194.225" r="4" fill="#0" id="circle172"/>
	<circle cx="657.997" cy="209.946" r="4" fill="#0" id="circle173"/>
	<circle cx="657.997" cy="225.667" r="4" fill="#0" id="circle174"/>
	<circle cx="657.997" cy="241.388" r="4" fill="#0" id="circle175"/>
	<circle cx="657.997" cy="257.109" r="4" fill="#0" id="circle176"/>
	<circle cx="657.997" cy="272.83" r="4" fill="#0" id="circle177"/>
	<circle cx="657.997" cy="657.997" r="4" fill="#0" id="circle178"/>
	<circle cx="664.285" cy="7.14422" r="4" fill="#0" id="circle179"/>
	<circle cx="665.857" cy="37.0143" r="4" fill="#0" id="circle180"/>
	<circle cx="665.857" cy="52.7353" r="4" fill="#0" id="circle181"/>
	<circle cx="665.857" cy="68.4564" r="4" fill="#0" id="circle182"/>
	<circle cx="665.857" cy="286.979" r="4" fill="#0" id="circle183"/>
	<circle cx="665.857" cy="302.7" r="4" fill="#0" id="circle184"/>
	<circle cx="665.857" cy="318.422" r="4" fill="#0" id="circle185"/>
	<circle cx="665.857" cy="334.143" r="4" fill="#0" id="circle186"/>
	<circle cx="665.857" cy="349.864" r="4" fill="#0" id="circle187"/>
	<circle cx="673.718" cy="19.7211" r="4" fill="#0" id="circle188"/>
	<circle cx="673.718" cy="364.013" r="4" fill="#0" id="circle189"/>
	<circle cx="673.718" cy="650.136" r="4" fill="#0" id="circle190"/>
	<circle cx="681.578" cy="378.162" r="4" fill="#0" id="circle191"/>
	<circle cx="681.578" cy="393.883" r="4" fill="#0" id="circle192"/>
	<circle cx="687.867" cy="642.276" r="4" fill="#0" id="circle193"/>
	<circle cx="689.439" cy="408.032" r="4" fill="#0" id="circle194"/>
	<circle cx="694.155" cy="423.753" r="4" fill="#0" id="circle195"/>
	<circle cx="702.016" cy="437.902" r="4" fill="#0" id="circle196"/>
	<circle cx="702.016" cy="634.415" r="4" fill="#0" id="circle197"/>
	<circle cx="705.16" cy="453.623" r="4" fill="#0" id="circle198"/>
	<circle cx="713.021" cy="467.772" r="4" fill="#0" id="circle199"/>
	<circle cx="713.021" cy="483.493" r="4" fill="#0" id="circle200"/>
	<circle cx="716.165" cy="624.983" r="4" fill="#0" id="circle201"/>
	<circle cx="720.881" cy="497.642" r="4" fill="#0" id="circle202"/>
	<circle cx="724.025" cy="609.261" r="4" fill="#0" id="circle203"/>
	<circle cx="728.742" cy="511.791" r="4" fill="#0" id="circle204"/>
	<circle cx="728.742" cy="527.512" r="4" fill="#0" id="circle205"/>
	<circle cx="728.742" cy="543.233" r="4" fill="#0" id="circle206"/>
	<circle cx="728.742" cy="587.252" r="4" fill="#0" id="circle207"/>
	<circle cx="735.03" cy="558.954" r="4" fill="#0" id="circle208"/>
	</g>
</svg>