<?xml version="1.0" encoding="UTF-8" standalone="no"?>
<!-- Created with CurveBenchmark -->
<svg
	xmlns:dc="http://purl.org/dc/elements/1.1/"
	xmlns:cc="http://creativecommons.org/ns#"
	xmlns:rdf="http://www.w3.org/1999/02/22-rdf-syntax-ns#"
	xmlns:svg="http://www.w3.org/2000/svg"
	xmlns="http://www.w3.org/2000/svg"
	xmlns:sodipodi="http://sodipodi.sourceforge.net/DTD/sodipodi-0.dtd"
	xmlns:inkscape="http://www.inkscape.org/namespaces/inkscape"
	width="1000"
	height="1000"
	id="svg2"
	version="1.1"
	sodipodi:docname="manifold/gathang-ray11.png.txt">
<defs
	id="defs4" />
<metadata
	id="metadata7">
	<rdf:RDF>
		<cc:Work
			rdf:about="">
			<dc:format>image/svg+xml</dc:format>
			<dc:type
				rdf:resource="http://purl.org/dc/dcmitype/StillImage" />
			<dc:title></dc:title>
		</cc:Work>
	</rdf:RDF>
</metadata>
<g
	inkscape:label="Layer 1"
	inkscape:groupmode="layer"
	id="layer1">
	<path style="fill:none;stroke:red;stroke-width:1px;stroke-linecap:butt;stroke-linejoin:miter;stroke-opacity:1" d="M 15.4023,281.931 26.8046,270.529 z" id="boundary" inkscape:connector-curvature="0" />
	<path style="fill:none;stroke:red;stroke-width:1px;stroke-linecap:butt;stroke-linejoin:miter;stroke-opacity:1" d="M 26.8046,270.529 41.0575,263.402 z" id="boundary" inkscape:connector-curvature="0" />
	<path style="fill:none;stroke:red;stroke-width:1px;stroke-linecap:butt;stroke-linejoin:miter;stroke-opacity:1" d="M 4,293.333 15.4023,281.931 z" id="boundary" inkscape:connector-curvature="0" />
	<path style="fill:none;stroke:red;stroke-width:1px;stroke-linecap:butt;stroke-linejoin:miter;stroke-opacity:1" d="M 4,307.586 4,293.333 z" id="boundary" inkscape:connector-curvature="0" />
	<path style="fill:none;stroke:red;stroke-width:1px;stroke-linecap:butt;stroke-linejoin:miter;stroke-opacity:1" d="M 4,321.839 11.1264,334.667 z" id="boundary" inkscape:connector-curvature="0" />
	<path style="fill:none;stroke:red;stroke-width:1px;stroke-linecap:butt;stroke-linejoin:miter;stroke-opacity:1" d="M 4,321.839 4,307.586 z" id="boundary" inkscape:connector-curvature="0" />
	<path style="fill:none;stroke:red;stroke-width:1px;stroke-linecap:butt;stroke-linejoin:miter;stroke-opacity:1" d="M 18.2529,347.494 11.1264,334.667 z" id="boundary" inkscape:connector-curvature="0" />
	<path style="fill:none;stroke:red;stroke-width:1px;stroke-linecap:butt;stroke-linejoin:miter;stroke-opacity:1" d="M 98.069,234.897 112.322,227.77 z" id="boundary" inkscape:connector-curvature="0" />
	<path style="fill:none;stroke:red;stroke-width:1px;stroke-linecap:butt;stroke-linejoin:miter;stroke-opacity:1" d="M 126.575,220.644 112.322,227.77 z" id="boundary" inkscape:connector-curvature="0" />
	<path style="fill:none;stroke:red;stroke-width:1px;stroke-linecap:butt;stroke-linejoin:miter;stroke-opacity:1" d="M 140.828,213.517 126.575,220.644 z" id="boundary" inkscape:connector-curvature="0" />
	<path style="fill:none;stroke:red;stroke-width:1px;stroke-linecap:butt;stroke-linejoin:miter;stroke-opacity:1" d="M 41.0575,263.402 55.3103,256.276 z" id="boundary" inkscape:connector-curvature="0" />
	<path style="fill:none;stroke:red;stroke-width:1px;stroke-linecap:butt;stroke-linejoin:miter;stroke-opacity:1" d="M 69.5632,249.149 55.3103,256.276 z" id="boundary" inkscape:connector-curvature="0" />
	<path style="fill:none;stroke:red;stroke-width:1px;stroke-linecap:butt;stroke-linejoin:miter;stroke-opacity:1" d="M 69.5632,249.149 83.8161,242.023 z" id="boundary" inkscape:connector-curvature="0" />
	<path style="fill:none;stroke:red;stroke-width:1px;stroke-linecap:butt;stroke-linejoin:miter;stroke-opacity:1" d="M 98.069,234.897 83.8161,242.023 z" id="boundary" inkscape:connector-curvature="0" />
	<path style="fill:none;stroke:red;stroke-width:1px;stroke-linecap:butt;stroke-linejoin:miter;stroke-opacity:1" d="M 26.8046,358.897 18.2529,347.494 z" id="boundary" inkscape:connector-curvature="0" />
	<path style="fill:none;stroke:red;stroke-width:1px;stroke-linecap:butt;stroke-linejoin:miter;stroke-opacity:1" d="M 38.2069,368.874 26.8046,358.897 z" id="boundary" inkscape:connector-curvature="0" />
	<path style="fill:none;stroke:red;stroke-width:1px;stroke-linecap:butt;stroke-linejoin:miter;stroke-opacity:1" d="M 48.1839,380.276 55.3103,393.103 z" id="boundary" inkscape:connector-curvature="0" />
	<path style="fill:none;stroke:red;stroke-width:1px;stroke-linecap:butt;stroke-linejoin:miter;stroke-opacity:1" d="M 38.2069,368.874 48.1839,380.276 z" id="boundary" inkscape:connector-curvature="0" />
	<path style="fill:none;stroke:red;stroke-width:1px;stroke-linecap:butt;stroke-linejoin:miter;stroke-opacity:1" d="M 65.2874,404.506 55.3103,393.103 z" id="boundary" inkscape:connector-curvature="0" />
	<path style="fill:none;stroke:red;stroke-width:1px;stroke-linecap:butt;stroke-linejoin:miter;stroke-opacity:1" d="M 65.2874,404.506 76.6897,414.483 z" id="boundary" inkscape:connector-curvature="0" />
	<path style="fill:none;stroke:red;stroke-width:1px;stroke-linecap:butt;stroke-linejoin:miter;stroke-opacity:1" d="M 93.7931,438.713 99.4943,452.966 z" id="boundary" inkscape:connector-curvature="0" />
	<path style="fill:none;stroke:red;stroke-width:1px;stroke-linecap:butt;stroke-linejoin:miter;stroke-opacity:1" d="M 93.7931,438.713 86.6667,425.885 z" id="boundary" inkscape:connector-curvature="0" />
	<path style="fill:none;stroke:red;stroke-width:1px;stroke-linecap:butt;stroke-linejoin:miter;stroke-opacity:1" d="M 99.4943,452.966 110.897,461.517 z" id="boundary" inkscape:connector-curvature="0" />
	<path style="fill:none;stroke:red;stroke-width:1px;stroke-linecap:butt;stroke-linejoin:miter;stroke-opacity:1" d="M 110.897,461.517 119.448,472.92 z" id="boundary" inkscape:connector-curvature="0" />
	<path style="fill:none;stroke:red;stroke-width:1px;stroke-linecap:butt;stroke-linejoin:miter;stroke-opacity:1" d="M 76.6897,414.483 86.6667,425.885 z" id="boundary" inkscape:connector-curvature="0" />
	<path style="fill:none;stroke:red;stroke-width:1px;stroke-linecap:butt;stroke-linejoin:miter;stroke-opacity:1" d="M 119.448,472.92 130.851,482.897 z" id="boundary" inkscape:connector-curvature="0" />
	<path style="fill:none;stroke:red;stroke-width:1px;stroke-linecap:butt;stroke-linejoin:miter;stroke-opacity:1" d="M 130.851,482.897 140.828,494.299 z" id="boundary" inkscape:connector-curvature="0" />
	<path style="fill:none;stroke:red;stroke-width:1px;stroke-linecap:butt;stroke-linejoin:miter;stroke-opacity:1" d="M 140.828,494.299 152.23,504.276 z" id="boundary" inkscape:connector-curvature="0" />
	<path style="fill:none;stroke:red;stroke-width:1px;stroke-linecap:butt;stroke-linejoin:miter;stroke-opacity:1" d="M 152.23,504.276 160.782,515.678 z" id="boundary" inkscape:connector-curvature="0" />
	<path style="fill:none;stroke:red;stroke-width:1px;stroke-linecap:butt;stroke-linejoin:miter;stroke-opacity:1" d="M 140.828,213.517 155.08,206.391 z" id="boundary" inkscape:connector-curvature="0" />
	<path style="fill:none;stroke:red;stroke-width:1px;stroke-linecap:butt;stroke-linejoin:miter;stroke-opacity:1" d="M 357.471,46.7586 350.345,61.0115 z" id="boundary" inkscape:connector-curvature="0" />
	<path style="fill:none;stroke:red;stroke-width:1px;stroke-linecap:butt;stroke-linejoin:miter;stroke-opacity:1" d="M 350.345,61.0115 336.092,68.1379 z" id="boundary" inkscape:connector-curvature="0" />
	<path style="fill:none;stroke:red;stroke-width:1px;stroke-linecap:butt;stroke-linejoin:miter;stroke-opacity:1" d="M 360.322,29.6552 357.471,46.7586 z" id="boundary" inkscape:connector-curvature="0" />
	<path style="fill:none;stroke:red;stroke-width:1px;stroke-linecap:butt;stroke-linejoin:miter;stroke-opacity:1" d="M 321.839,75.2644 336.092,68.1379 z" id="boundary" inkscape:connector-curvature="0" />
	<path style="fill:none;stroke:red;stroke-width:1px;stroke-linecap:butt;stroke-linejoin:miter;stroke-opacity:1" d="M 279.08,118.023 286.207,103.77 z" id="boundary" inkscape:connector-curvature="0" />
	<path style="fill:none;stroke:red;stroke-width:1px;stroke-linecap:butt;stroke-linejoin:miter;stroke-opacity:1" d="M 286.207,103.77 297.609,92.3678 z" id="boundary" inkscape:connector-curvature="0" />
	<path style="fill:none;stroke:red;stroke-width:1px;stroke-linecap:butt;stroke-linejoin:miter;stroke-opacity:1" d="M 309.011,82.3908 321.839,75.2644 z" id="boundary" inkscape:connector-curvature="0" />
	<path style="fill:none;stroke:red;stroke-width:1px;stroke-linecap:butt;stroke-linejoin:miter;stroke-opacity:1" d="M 297.609,92.3678 309.011,82.3908 z" id="boundary" inkscape:connector-curvature="0" />
	<path style="fill:none;stroke:red;stroke-width:1px;stroke-linecap:butt;stroke-linejoin:miter;stroke-opacity:1" d="M 367.448,15.4023 378.851,4 z" id="boundary" inkscape:connector-curvature="0" />
	<path style="fill:none;stroke:red;stroke-width:1px;stroke-linecap:butt;stroke-linejoin:miter;stroke-opacity:1" d="M 378.851,4 391.678,11.1264 z" id="boundary" inkscape:connector-curvature="0" />
	<path style="fill:none;stroke:red;stroke-width:1px;stroke-linecap:butt;stroke-linejoin:miter;stroke-opacity:1" d="M 391.678,11.1264 404.506,18.2529 z" id="boundary" inkscape:connector-curvature="0" />
	<path style="fill:none;stroke:red;stroke-width:1px;stroke-linecap:butt;stroke-linejoin:miter;stroke-opacity:1" d="M 404.506,18.2529 404.506,32.5057 z" id="boundary" inkscape:connector-curvature="0" />
	<path style="fill:none;stroke:red;stroke-width:1px;stroke-linecap:butt;stroke-linejoin:miter;stroke-opacity:1" d="M 404.506,32.5057 411.632,45.3333 z" id="boundary" inkscape:connector-curvature="0" />
	<path style="fill:none;stroke:red;stroke-width:1px;stroke-linecap:butt;stroke-linejoin:miter;stroke-opacity:1" d="M 360.322,29.6552 367.448,15.4023 z" id="boundary" inkscape:connector-curvature="0" />
	<path style="fill:none;stroke:red;stroke-width:1px;stroke-linecap:butt;stroke-linejoin:miter;stroke-opacity:1" d="M 411.632,45.3333 423.034,55.3103 z" id="boundary" inkscape:connector-curvature="0" />
	<path style="fill:none;stroke:red;stroke-width:1px;stroke-linecap:butt;stroke-linejoin:miter;stroke-opacity:1" d="M 180.736,189.287 169.333,199.264 z" id="boundary" inkscape:connector-curvature="0" />
	<path style="fill:none;stroke:red;stroke-width:1px;stroke-linecap:butt;stroke-linejoin:miter;stroke-opacity:1" d="M 169.333,199.264 155.08,206.391 z" id="boundary" inkscape:connector-curvature="0" />
	<path style="fill:none;stroke:red;stroke-width:1px;stroke-linecap:butt;stroke-linejoin:miter;stroke-opacity:1" d="M 207.816,175.034 220.644,167.908 z" id="boundary" inkscape:connector-curvature="0" />
	<path style="fill:none;stroke:red;stroke-width:1px;stroke-linecap:butt;stroke-linejoin:miter;stroke-opacity:1" d="M 160.782,515.678 167.908,528.506 z" id="boundary" inkscape:connector-curvature="0" />
	<path style="fill:none;stroke:red;stroke-width:1px;stroke-linecap:butt;stroke-linejoin:miter;stroke-opacity:1" d="M 179.31,538.483 167.908,528.506 z" id="boundary" inkscape:connector-curvature="0" />
	<path style="fill:none;stroke:red;stroke-width:1px;stroke-linecap:butt;stroke-linejoin:miter;stroke-opacity:1" d="M 179.31,538.483 192.138,545.609 z" id="boundary" inkscape:connector-curvature="0" />
	<path style="fill:none;stroke:red;stroke-width:1px;stroke-linecap:butt;stroke-linejoin:miter;stroke-opacity:1" d="M 180.736,189.287 193.563,182.161 z" id="boundary" inkscape:connector-curvature="0" />
	<path style="fill:none;stroke:red;stroke-width:1px;stroke-linecap:butt;stroke-linejoin:miter;stroke-opacity:1" d="M 243.448,146.529 256.276,139.402 z" id="boundary" inkscape:connector-curvature="0" />
	<path style="fill:none;stroke:red;stroke-width:1px;stroke-linecap:butt;stroke-linejoin:miter;stroke-opacity:1" d="M 232.046,157.931 243.448,146.529 z" id="boundary" inkscape:connector-curvature="0" />
	<path style="fill:none;stroke:red;stroke-width:1px;stroke-linecap:butt;stroke-linejoin:miter;stroke-opacity:1" d="M 267.678,129.425 256.276,139.402 z" id="boundary" inkscape:connector-curvature="0" />
	<path style="fill:none;stroke:red;stroke-width:1px;stroke-linecap:butt;stroke-linejoin:miter;stroke-opacity:1" d="M 267.678,129.425 279.08,118.023 z" id="boundary" inkscape:connector-curvature="0" />
	<path style="fill:none;stroke:red;stroke-width:1px;stroke-linecap:butt;stroke-linejoin:miter;stroke-opacity:1" d="M 220.644,167.908 232.046,157.931 z" id="boundary" inkscape:connector-curvature="0" />
	<path style="fill:none;stroke:red;stroke-width:1px;stroke-linecap:butt;stroke-linejoin:miter;stroke-opacity:1" d="M 193.563,182.161 207.816,175.034 z" id="boundary" inkscape:connector-curvature="0" />
	<path style="fill:none;stroke:red;stroke-width:1px;stroke-linecap:butt;stroke-linejoin:miter;stroke-opacity:1" d="M 203.54,554.161 216.368,561.287 z" id="boundary" inkscape:connector-curvature="0" />
	<path style="fill:none;stroke:red;stroke-width:1px;stroke-linecap:butt;stroke-linejoin:miter;stroke-opacity:1" d="M 203.54,554.161 192.138,545.609 z" id="boundary" inkscape:connector-curvature="0" />
	<path style="fill:none;stroke:red;stroke-width:1px;stroke-linecap:butt;stroke-linejoin:miter;stroke-opacity:1" d="M 271.954,582.667 257.701,588.368 z" id="boundary" inkscape:connector-curvature="0" />
	<path style="fill:none;stroke:red;stroke-width:1px;stroke-linecap:butt;stroke-linejoin:miter;stroke-opacity:1" d="M 216.368,561.287 224.92,572.69 z" id="boundary" inkscape:connector-curvature="0" />
	<path style="fill:none;stroke:red;stroke-width:1px;stroke-linecap:butt;stroke-linejoin:miter;stroke-opacity:1" d="M 217.793,585.517 229.195,595.494 z" id="boundary" inkscape:connector-curvature="0" />
	<path style="fill:none;stroke:red;stroke-width:1px;stroke-linecap:butt;stroke-linejoin:miter;stroke-opacity:1" d="M 243.448,595.494 257.701,588.368 z" id="boundary" inkscape:connector-curvature="0" />
	<path style="fill:none;stroke:red;stroke-width:1px;stroke-linecap:butt;stroke-linejoin:miter;stroke-opacity:1" d="M 243.448,595.494 229.195,595.494 z" id="boundary" inkscape:connector-curvature="0" />
	<path style="fill:none;stroke:red;stroke-width:1px;stroke-linecap:butt;stroke-linejoin:miter;stroke-opacity:1" d="M 281.931,606.897 281.931,621.149 z" id="boundary" inkscape:connector-curvature="0" />
	<path style="fill:none;stroke:red;stroke-width:1px;stroke-linecap:butt;stroke-linejoin:miter;stroke-opacity:1" d="M 271.954,582.667 286.207,588.368 z" id="boundary" inkscape:connector-curvature="0" />
	<path style="fill:none;stroke:red;stroke-width:1px;stroke-linecap:butt;stroke-linejoin:miter;stroke-opacity:1" d="M 286.207,588.368 281.931,606.897 z" id="boundary" inkscape:connector-curvature="0" />
	<path style="fill:none;stroke:red;stroke-width:1px;stroke-linecap:butt;stroke-linejoin:miter;stroke-opacity:1" d="M 281.931,649.655 281.931,635.402 z" id="boundary" inkscape:connector-curvature="0" />
	<path style="fill:none;stroke:red;stroke-width:1px;stroke-linecap:butt;stroke-linejoin:miter;stroke-opacity:1" d="M 281.931,621.149 281.931,635.402 z" id="boundary" inkscape:connector-curvature="0" />
	<path style="fill:none;stroke:red;stroke-width:1px;stroke-linecap:butt;stroke-linejoin:miter;stroke-opacity:1" d="M 281.931,663.908 281.931,649.655 z" id="boundary" inkscape:connector-curvature="0" />
	<path style="fill:none;stroke:red;stroke-width:1px;stroke-linecap:butt;stroke-linejoin:miter;stroke-opacity:1" d="M 281.931,663.908 281.931,678.161 z" id="boundary" inkscape:connector-curvature="0" />
	<path style="fill:none;stroke:red;stroke-width:1px;stroke-linecap:butt;stroke-linejoin:miter;stroke-opacity:1" d="M 281.931,678.161 281.931,692.414 z" id="boundary" inkscape:connector-curvature="0" />
	<path style="fill:none;stroke:red;stroke-width:1px;stroke-linecap:butt;stroke-linejoin:miter;stroke-opacity:1" d="M 281.931,735.172 274.805,749.425 z" id="boundary" inkscape:connector-curvature="0" />
	<path style="fill:none;stroke:red;stroke-width:1px;stroke-linecap:butt;stroke-linejoin:miter;stroke-opacity:1" d="M 274.805,749.425 267.678,770.805 z" id="boundary" inkscape:connector-curvature="0" />
	<path style="fill:none;stroke:red;stroke-width:1px;stroke-linecap:butt;stroke-linejoin:miter;stroke-opacity:1" d="M 289.057,720.92 281.931,735.172 z" id="boundary" inkscape:connector-curvature="0" />
	<path style="fill:none;stroke:red;stroke-width:1px;stroke-linecap:butt;stroke-linejoin:miter;stroke-opacity:1" d="M 267.678,770.805 274.805,783.632 z" id="boundary" inkscape:connector-curvature="0" />
	<path style="fill:none;stroke:red;stroke-width:1px;stroke-linecap:butt;stroke-linejoin:miter;stroke-opacity:1" d="M 274.805,783.632 274.805,797.885 z" id="boundary" inkscape:connector-curvature="0" />
	<path style="fill:none;stroke:red;stroke-width:1px;stroke-linecap:butt;stroke-linejoin:miter;stroke-opacity:1" d="M 274.805,797.885 274.805,812.138 z" id="boundary" inkscape:connector-curvature="0" />
	<path style="fill:none;stroke:red;stroke-width:1px;stroke-linecap:butt;stroke-linejoin:miter;stroke-opacity:1" d="M 281.931,824.966 274.805,812.138 z" id="boundary" inkscape:connector-curvature="0" />
	<path style="fill:none;stroke:red;stroke-width:1px;stroke-linecap:butt;stroke-linejoin:miter;stroke-opacity:1" d="M 313.287,829.241 304.736,817.839 z" id="boundary" inkscape:connector-curvature="0" />
	<path style="fill:none;stroke:red;stroke-width:1px;stroke-linecap:butt;stroke-linejoin:miter;stroke-opacity:1" d="M 296.184,696.69 289.057,720.92 z" id="boundary" inkscape:connector-curvature="0" />
	<path style="fill:none;stroke:red;stroke-width:1px;stroke-linecap:butt;stroke-linejoin:miter;stroke-opacity:1" d="M 286.207,839.218 281.931,824.966 z" id="boundary" inkscape:connector-curvature="0" />
	<path style="fill:none;stroke:red;stroke-width:1px;stroke-linecap:butt;stroke-linejoin:miter;stroke-opacity:1" d="M 286.207,839.218 300.46,844.92 z" id="boundary" inkscape:connector-curvature="0" />
	<path style="fill:none;stroke:red;stroke-width:1px;stroke-linecap:butt;stroke-linejoin:miter;stroke-opacity:1" d="M 313.287,829.241 318.989,843.494 z" id="boundary" inkscape:connector-curvature="0" />
	<path style="fill:none;stroke:red;stroke-width:1px;stroke-linecap:butt;stroke-linejoin:miter;stroke-opacity:1" d="M 326.115,856.322 300.46,844.92 z" id="boundary" inkscape:connector-curvature="0" />
	<path style="fill:none;stroke:red;stroke-width:1px;stroke-linecap:butt;stroke-linejoin:miter;stroke-opacity:1" d="M 347.494,803.586 347.494,789.333 z" id="boundary" inkscape:connector-curvature="0" />
	<path style="fill:none;stroke:red;stroke-width:1px;stroke-linecap:butt;stroke-linejoin:miter;stroke-opacity:1" d="M 354.621,767.954 347.494,789.333 z" id="boundary" inkscape:connector-curvature="0" />
	<path style="fill:none;stroke:red;stroke-width:1px;stroke-linecap:butt;stroke-linejoin:miter;stroke-opacity:1" d="M 361.747,746.575 354.621,767.954 z" id="boundary" inkscape:connector-curvature="0" />
	<path style="fill:none;stroke:red;stroke-width:1px;stroke-linecap:butt;stroke-linejoin:miter;stroke-opacity:1" d="M 347.494,817.839 354.621,830.667 z" id="boundary" inkscape:connector-curvature="0" />
	<path style="fill:none;stroke:red;stroke-width:1px;stroke-linecap:butt;stroke-linejoin:miter;stroke-opacity:1" d="M 347.494,817.839 347.494,803.586 z" id="boundary" inkscape:connector-curvature="0" />
	<path style="fill:none;stroke:red;stroke-width:1px;stroke-linecap:butt;stroke-linejoin:miter;stroke-opacity:1" d="M 354.621,830.667 354.621,844.92 z" id="boundary" inkscape:connector-curvature="0" />
	<path style="fill:none;stroke:red;stroke-width:1px;stroke-linecap:butt;stroke-linejoin:miter;stroke-opacity:1" d="M 361.747,857.747 354.621,844.92 z" id="boundary" inkscape:connector-curvature="0" />
	<path style="fill:none;stroke:red;stroke-width:1px;stroke-linecap:butt;stroke-linejoin:miter;stroke-opacity:1" d="M 397.379,646.805 404.506,632.552 z" id="boundary" inkscape:connector-curvature="0" />
	<path style="fill:none;stroke:red;stroke-width:1px;stroke-linecap:butt;stroke-linejoin:miter;stroke-opacity:1" d="M 417.333,625.425 417.333,639.678 z" id="boundary" inkscape:connector-curvature="0" />
	<path style="fill:none;stroke:red;stroke-width:1px;stroke-linecap:butt;stroke-linejoin:miter;stroke-opacity:1" d="M 404.506,632.552 417.333,625.425 z" id="boundary" inkscape:connector-curvature="0" />
	<path style="fill:none;stroke:red;stroke-width:1px;stroke-linecap:butt;stroke-linejoin:miter;stroke-opacity:1" d="M 424.46,652.506 417.333,639.678 z" id="boundary" inkscape:connector-curvature="0" />
	<path style="fill:none;stroke:red;stroke-width:1px;stroke-linecap:butt;stroke-linejoin:miter;stroke-opacity:1" d="M 390.253,668.184 397.379,646.805 z" id="boundary" inkscape:connector-curvature="0" />
	<path style="fill:none;stroke:red;stroke-width:1px;stroke-linecap:butt;stroke-linejoin:miter;stroke-opacity:1" d="M 361.747,746.575 368.874,732.322 z" id="boundary" inkscape:connector-curvature="0" />
	<path style="fill:none;stroke:red;stroke-width:1px;stroke-linecap:butt;stroke-linejoin:miter;stroke-opacity:1" d="M 383.126,689.563 390.253,668.184 z" id="boundary" inkscape:connector-curvature="0" />
	<path style="fill:none;stroke:red;stroke-width:1px;stroke-linecap:butt;stroke-linejoin:miter;stroke-opacity:1" d="M 383.126,689.563 376,710.943 z" id="boundary" inkscape:connector-curvature="0" />
	<path style="fill:none;stroke:red;stroke-width:1px;stroke-linecap:butt;stroke-linejoin:miter;stroke-opacity:1" d="M 376,710.943 368.874,732.322 z" id="boundary" inkscape:connector-curvature="0" />
	<path style="fill:none;stroke:red;stroke-width:1px;stroke-linecap:butt;stroke-linejoin:miter;stroke-opacity:1" d="M 331.816,870.575 326.115,856.322 z" id="boundary" inkscape:connector-curvature="0" />
	<path style="fill:none;stroke:red;stroke-width:1px;stroke-linecap:butt;stroke-linejoin:miter;stroke-opacity:1" d="M 343.218,880.552 331.816,870.575 z" id="boundary" inkscape:connector-curvature="0" />
	<path style="fill:none;stroke:red;stroke-width:1px;stroke-linecap:butt;stroke-linejoin:miter;stroke-opacity:1" d="M 353.195,891.954 343.218,880.552 z" id="boundary" inkscape:connector-curvature="0" />
	<path style="fill:none;stroke:red;stroke-width:1px;stroke-linecap:butt;stroke-linejoin:miter;stroke-opacity:1" d="M 364.598,901.931 370.299,916.184 z" id="boundary" inkscape:connector-curvature="0" />
	<path style="fill:none;stroke:red;stroke-width:1px;stroke-linecap:butt;stroke-linejoin:miter;stroke-opacity:1" d="M 353.195,891.954 364.598,901.931 z" id="boundary" inkscape:connector-curvature="0" />
	<path style="fill:none;stroke:red;stroke-width:1px;stroke-linecap:butt;stroke-linejoin:miter;stroke-opacity:1" d="M 361.747,857.747 373.149,867.724 z" id="boundary" inkscape:connector-curvature="0" />
	<path style="fill:none;stroke:red;stroke-width:1px;stroke-linecap:butt;stroke-linejoin:miter;stroke-opacity:1" d="M 370.299,916.184 377.425,929.011 z" id="boundary" inkscape:connector-curvature="0" />
	<path style="fill:none;stroke:red;stroke-width:1px;stroke-linecap:butt;stroke-linejoin:miter;stroke-opacity:1" d="M 383.126,879.126 397.379,884.828 z" id="boundary" inkscape:connector-curvature="0" />
	<path style="fill:none;stroke:red;stroke-width:1px;stroke-linecap:butt;stroke-linejoin:miter;stroke-opacity:1" d="M 383.126,879.126 373.149,867.724 z" id="boundary" inkscape:connector-curvature="0" />
	<path style="fill:none;stroke:red;stroke-width:1px;stroke-linecap:butt;stroke-linejoin:miter;stroke-opacity:1" d="M 397.379,884.828 410.207,891.954 z" id="boundary" inkscape:connector-curvature="0" />
	<path style="fill:none;stroke:red;stroke-width:1px;stroke-linecap:butt;stroke-linejoin:miter;stroke-opacity:1" d="M 377.425,929.011 388.828,938.989 z" id="boundary" inkscape:connector-curvature="0" />
	<path style="fill:none;stroke:red;stroke-width:1px;stroke-linecap:butt;stroke-linejoin:miter;stroke-opacity:1" d="M 388.828,938.989 397.379,950.391 z" id="boundary" inkscape:connector-curvature="0" />
	<path style="fill:none;stroke:red;stroke-width:1px;stroke-linecap:butt;stroke-linejoin:miter;stroke-opacity:1" d="M 397.379,950.391 411.632,956.092 z" id="boundary" inkscape:connector-curvature="0" />
	<path style="fill:none;stroke:red;stroke-width:1px;stroke-linecap:butt;stroke-linejoin:miter;stroke-opacity:1" d="M 411.632,956.092 424.46,963.218 z" id="boundary" inkscape:connector-curvature="0" />
	<path style="fill:none;stroke:red;stroke-width:1px;stroke-linecap:butt;stroke-linejoin:miter;stroke-opacity:1" d="M 410.207,891.954 424.46,897.655 z" id="boundary" inkscape:connector-curvature="0" />
	<path style="fill:none;stroke:red;stroke-width:1px;stroke-linecap:butt;stroke-linejoin:miter;stroke-opacity:1" d="M 423.034,55.3103 433.011,66.7126 z" id="boundary" inkscape:connector-curvature="0" />
	<path style="fill:none;stroke:red;stroke-width:1px;stroke-linecap:butt;stroke-linejoin:miter;stroke-opacity:1" d="M 433.011,66.7126 447.264,72.4138 z" id="boundary" inkscape:connector-curvature="0" />
	<path style="fill:none;stroke:red;stroke-width:1px;stroke-linecap:butt;stroke-linejoin:miter;stroke-opacity:1" d="M 447.264,72.4138 458.667,82.3908 z" id="boundary" inkscape:connector-curvature="0" />
	<path style="fill:none;stroke:red;stroke-width:1px;stroke-linecap:butt;stroke-linejoin:miter;stroke-opacity:1" d="M 471.494,89.5172 458.667,82.3908 z" id="boundary" inkscape:connector-curvature="0" />
	<path style="fill:none;stroke:red;stroke-width:1px;stroke-linecap:butt;stroke-linejoin:miter;stroke-opacity:1" d="M 481.471,100.92 488.598,113.747 z" id="boundary" inkscape:connector-curvature="0" />
	<path style="fill:none;stroke:red;stroke-width:1px;stroke-linecap:butt;stroke-linejoin:miter;stroke-opacity:1" d="M 488.598,113.747 497.149,125.149 z" id="boundary" inkscape:connector-curvature="0" />
	<path style="fill:none;stroke:red;stroke-width:1px;stroke-linecap:butt;stroke-linejoin:miter;stroke-opacity:1" d="M 508.552,133.701 497.149,125.149 z" id="boundary" inkscape:connector-curvature="0" />
	<path style="fill:none;stroke:red;stroke-width:1px;stroke-linecap:butt;stroke-linejoin:miter;stroke-opacity:1" d="M 471.494,89.5172 481.471,100.92 z" id="boundary" inkscape:connector-curvature="0" />
	<path style="fill:none;stroke:red;stroke-width:1px;stroke-linecap:butt;stroke-linejoin:miter;stroke-opacity:1" d="M 529.931,153.655 518.529,145.103 z" id="boundary" inkscape:connector-curvature="0" />
	<path style="fill:none;stroke:red;stroke-width:1px;stroke-linecap:butt;stroke-linejoin:miter;stroke-opacity:1" d="M 518.529,145.103 508.552,133.701 z" id="boundary" inkscape:connector-curvature="0" />
	<path style="fill:none;stroke:red;stroke-width:1px;stroke-linecap:butt;stroke-linejoin:miter;stroke-opacity:1" d="M 542.759,160.782 529.931,153.655 z" id="boundary" inkscape:connector-curvature="0" />
	<path style="fill:none;stroke:red;stroke-width:1px;stroke-linecap:butt;stroke-linejoin:miter;stroke-opacity:1" d="M 542.759,160.782 552.736,172.184 z" id="boundary" inkscape:connector-curvature="0" />
	<path style="fill:none;stroke:red;stroke-width:1px;stroke-linecap:butt;stroke-linejoin:miter;stroke-opacity:1" d="M 564.138,182.161 576.966,189.287 z" id="boundary" inkscape:connector-curvature="0" />
	<path style="fill:none;stroke:red;stroke-width:1px;stroke-linecap:butt;stroke-linejoin:miter;stroke-opacity:1" d="M 564.138,182.161 552.736,172.184 z" id="boundary" inkscape:connector-curvature="0" />
	<path style="fill:none;stroke:red;stroke-width:1px;stroke-linecap:butt;stroke-linejoin:miter;stroke-opacity:1" d="M 490.023,582.667 504.276,582.667 z" id="boundary" inkscape:connector-curvature="0" />
	<path style="fill:none;stroke:red;stroke-width:1px;stroke-linecap:butt;stroke-linejoin:miter;stroke-opacity:1" d="M 490.023,596.92 490.023,582.667 z" id="boundary" inkscape:connector-curvature="0" />
	<path style="fill:none;stroke:red;stroke-width:1px;stroke-linecap:butt;stroke-linejoin:miter;stroke-opacity:1" d="M 518.529,582.667 504.276,582.667 z" id="boundary" inkscape:connector-curvature="0" />
	<path style="fill:none;stroke:red;stroke-width:1px;stroke-linecap:butt;stroke-linejoin:miter;stroke-opacity:1" d="M 492.874,611.172 490.023,596.92 z" id="boundary" inkscape:connector-curvature="0" />
	<path style="fill:none;stroke:red;stroke-width:1px;stroke-linecap:butt;stroke-linejoin:miter;stroke-opacity:1" d="M 518.529,582.667 532.782,582.667 z" id="boundary" inkscape:connector-curvature="0" />
	<path style="fill:none;stroke:red;stroke-width:1px;stroke-linecap:butt;stroke-linejoin:miter;stroke-opacity:1" d="M 547.034,585.517 532.782,582.667 z" id="boundary" inkscape:connector-curvature="0" />
	<path style="fill:none;stroke:red;stroke-width:1px;stroke-linecap:butt;stroke-linejoin:miter;stroke-opacity:1" d="M 500,624 492.874,611.172 z" id="boundary" inkscape:connector-curvature="0" />
	<path style="fill:none;stroke:red;stroke-width:1px;stroke-linecap:butt;stroke-linejoin:miter;stroke-opacity:1" d="M 596.92,532.782 582.667,539.908 z" id="boundary" inkscape:connector-curvature="0" />
	<path style="fill:none;stroke:red;stroke-width:1px;stroke-linecap:butt;stroke-linejoin:miter;stroke-opacity:1" d="M 608.322,522.805 596.92,532.782 z" id="boundary" inkscape:connector-curvature="0" />
	<path style="fill:none;stroke:red;stroke-width:1px;stroke-linecap:butt;stroke-linejoin:miter;stroke-opacity:1" d="M 582.667,539.908 568.414,547.034 z" id="boundary" inkscape:connector-curvature="0" />
	<path style="fill:none;stroke:red;stroke-width:1px;stroke-linecap:butt;stroke-linejoin:miter;stroke-opacity:1" d="M 589.793,196.414 604.046,200.69 z" id="boundary" inkscape:connector-curvature="0" />
	<path style="fill:none;stroke:red;stroke-width:1px;stroke-linecap:butt;stroke-linejoin:miter;stroke-opacity:1" d="M 604.046,200.69 616.874,207.816 z" id="boundary" inkscape:connector-curvature="0" />
	<path style="fill:none;stroke:red;stroke-width:1px;stroke-linecap:butt;stroke-linejoin:miter;stroke-opacity:1" d="M 576.966,189.287 589.793,196.414 z" id="boundary" inkscape:connector-curvature="0" />
	<path style="fill:none;stroke:red;stroke-width:1px;stroke-linecap:butt;stroke-linejoin:miter;stroke-opacity:1" d="M 568.414,561.287 571.264,575.54 z" id="boundary" inkscape:connector-curvature="0" />
	<path style="fill:none;stroke:red;stroke-width:1px;stroke-linecap:butt;stroke-linejoin:miter;stroke-opacity:1" d="M 568.414,547.034 568.414,561.287 z" id="boundary" inkscape:connector-curvature="0" />
	<path style="fill:none;stroke:red;stroke-width:1px;stroke-linecap:butt;stroke-linejoin:miter;stroke-opacity:1" d="M 571.264,575.54 561.287,589.793 z" id="boundary" inkscape:connector-curvature="0" />
	<path style="fill:none;stroke:red;stroke-width:1px;stroke-linecap:butt;stroke-linejoin:miter;stroke-opacity:1" d="M 561.287,589.793 547.034,585.517 z" id="boundary" inkscape:connector-curvature="0" />
	<path style="fill:none;stroke:red;stroke-width:1px;stroke-linecap:butt;stroke-linejoin:miter;stroke-opacity:1" d="M 616.874,207.816 631.126,213.517 z" id="boundary" inkscape:connector-curvature="0" />
	<path style="fill:none;stroke:red;stroke-width:1px;stroke-linecap:butt;stroke-linejoin:miter;stroke-opacity:1" d="M 643.954,220.644 631.126,213.517 z" id="boundary" inkscape:connector-curvature="0" />
	<path style="fill:none;stroke:red;stroke-width:1px;stroke-linecap:butt;stroke-linejoin:miter;stroke-opacity:1" d="M 643.954,220.644 653.931,232.046 z" id="boundary" inkscape:connector-curvature="0" />
	<path style="fill:none;stroke:red;stroke-width:1px;stroke-linecap:butt;stroke-linejoin:miter;stroke-opacity:1" d="M 653.931,232.046 668.184,236.322 z" id="boundary" inkscape:connector-curvature="0" />
	<path style="fill:none;stroke:red;stroke-width:1px;stroke-linecap:butt;stroke-linejoin:miter;stroke-opacity:1" d="M 668.184,236.322 681.011,243.448 z" id="boundary" inkscape:connector-curvature="0" />
	<path style="fill:none;stroke:red;stroke-width:1px;stroke-linecap:butt;stroke-linejoin:miter;stroke-opacity:1" d="M 681.011,243.448 695.264,249.149 z" id="boundary" inkscape:connector-curvature="0" />
	<path style="fill:none;stroke:red;stroke-width:1px;stroke-linecap:butt;stroke-linejoin:miter;stroke-opacity:1" d="M 718.069,267.678 708.092,256.276 z" id="boundary" inkscape:connector-curvature="0" />
	<path style="fill:none;stroke:red;stroke-width:1px;stroke-linecap:butt;stroke-linejoin:miter;stroke-opacity:1" d="M 732.322,271.954 718.069,267.678 z" id="boundary" inkscape:connector-curvature="0" />
	<path style="fill:none;stroke:red;stroke-width:1px;stroke-linecap:butt;stroke-linejoin:miter;stroke-opacity:1" d="M 745.149,279.08 732.322,271.954 z" id="boundary" inkscape:connector-curvature="0" />
	<path style="fill:none;stroke:red;stroke-width:1px;stroke-linecap:butt;stroke-linejoin:miter;stroke-opacity:1" d="M 708.092,256.276 695.264,249.149 z" id="boundary" inkscape:connector-curvature="0" />
	<path style="fill:none;stroke:red;stroke-width:1px;stroke-linecap:butt;stroke-linejoin:miter;stroke-opacity:1" d="M 745.149,279.08 756.552,289.057 z" id="boundary" inkscape:connector-curvature="0" />
	<path style="fill:none;stroke:red;stroke-width:1px;stroke-linecap:butt;stroke-linejoin:miter;stroke-opacity:1" d="M 767.954,314.713 760.828,340.368 z" id="boundary" inkscape:connector-curvature="0" />
	<path style="fill:none;stroke:red;stroke-width:1px;stroke-linecap:butt;stroke-linejoin:miter;stroke-opacity:1" d="M 766.529,300.46 767.954,314.713 z" id="boundary" inkscape:connector-curvature="0" />
	<path style="fill:none;stroke:red;stroke-width:1px;stroke-linecap:butt;stroke-linejoin:miter;stroke-opacity:1" d="M 756.552,289.057 766.529,300.46 z" id="boundary" inkscape:connector-curvature="0" />
	<path style="fill:none;stroke:red;stroke-width:1px;stroke-linecap:butt;stroke-linejoin:miter;stroke-opacity:1" d="M 760.828,340.368 753.701,354.621 z" id="boundary" inkscape:connector-curvature="0" />
	<path style="fill:none;stroke:red;stroke-width:1px;stroke-linecap:butt;stroke-linejoin:miter;stroke-opacity:1" d="M 675.31,447.264 665.333,458.667 z" id="boundary" inkscape:connector-curvature="0" />
	<path style="fill:none;stroke:red;stroke-width:1px;stroke-linecap:butt;stroke-linejoin:miter;stroke-opacity:1" d="M 665.333,458.667 653.931,468.644 z" id="boundary" inkscape:connector-curvature="0" />
	<path style="fill:none;stroke:red;stroke-width:1px;stroke-linecap:butt;stroke-linejoin:miter;stroke-opacity:1" d="M 643.954,487.172 653.931,468.644 z" id="boundary" inkscape:connector-curvature="0" />
	<path style="fill:none;stroke:red;stroke-width:1px;stroke-linecap:butt;stroke-linejoin:miter;stroke-opacity:1" d="M 608.322,522.805 622.575,515.678 z" id="boundary" inkscape:connector-curvature="0" />
	<path style="fill:none;stroke:red;stroke-width:1px;stroke-linecap:butt;stroke-linejoin:miter;stroke-opacity:1" d="M 632.552,497.149 622.575,515.678 z" id="boundary" inkscape:connector-curvature="0" />
	<path style="fill:none;stroke:red;stroke-width:1px;stroke-linecap:butt;stroke-linejoin:miter;stroke-opacity:1" d="M 632.552,497.149 643.954,487.172 z" id="boundary" inkscape:connector-curvature="0" />
	<path style="fill:none;stroke:red;stroke-width:1px;stroke-linecap:butt;stroke-linejoin:miter;stroke-opacity:1" d="M 675.31,447.264 686.713,437.287 z" id="boundary" inkscape:connector-curvature="0" />
	<path style="fill:none;stroke:red;stroke-width:1px;stroke-linecap:butt;stroke-linejoin:miter;stroke-opacity:1" d="M 725.195,390.253 736.598,380.276 z" id="boundary" inkscape:connector-curvature="0" />
	<path style="fill:none;stroke:red;stroke-width:1px;stroke-linecap:butt;stroke-linejoin:miter;stroke-opacity:1" d="M 746.575,368.874 753.701,354.621 z" id="boundary" inkscape:connector-curvature="0" />
	<path style="fill:none;stroke:red;stroke-width:1px;stroke-linecap:butt;stroke-linejoin:miter;stroke-opacity:1" d="M 746.575,368.874 736.598,380.276 z" id="boundary" inkscape:connector-curvature="0" />
	<path style="fill:none;stroke:red;stroke-width:1px;stroke-linecap:butt;stroke-linejoin:miter;stroke-opacity:1" d="M 725.195,390.253 715.218,401.655 z" id="boundary" inkscape:connector-curvature="0" />
	<path style="fill:none;stroke:red;stroke-width:1px;stroke-linecap:butt;stroke-linejoin:miter;stroke-opacity:1" d="M 686.713,437.287 696.69,425.885 z" id="boundary" inkscape:connector-curvature="0" />
	<path style="fill:none;stroke:red;stroke-width:1px;stroke-linecap:butt;stroke-linejoin:miter;stroke-opacity:1" d="M 696.69,425.885 708.092,415.908 z" id="boundary" inkscape:connector-curvature="0" />
	<path style="fill:none;stroke:red;stroke-width:1px;stroke-linecap:butt;stroke-linejoin:miter;stroke-opacity:1" d="M 708.092,415.908 715.218,401.655 z" id="boundary" inkscape:connector-curvature="0" />
	<path style="fill:none;stroke:red;stroke-width:1px;stroke-linecap:butt;stroke-linejoin:miter;stroke-opacity:1" d="M 431.586,665.333 433.011,679.586 z" id="boundary" inkscape:connector-curvature="0" />
	<path style="fill:none;stroke:red;stroke-width:1px;stroke-linecap:butt;stroke-linejoin:miter;stroke-opacity:1" d="M 431.586,665.333 424.46,652.506 z" id="boundary" inkscape:connector-curvature="0" />
	<path style="fill:none;stroke:red;stroke-width:1px;stroke-linecap:butt;stroke-linejoin:miter;stroke-opacity:1" d="M 438.713,693.839 433.011,679.586 z" id="boundary" inkscape:connector-curvature="0" />
	<path style="fill:none;stroke:red;stroke-width:1px;stroke-linecap:butt;stroke-linejoin:miter;stroke-opacity:1" d="M 438.713,693.839 445.839,706.667 z" id="boundary" inkscape:connector-curvature="0" />
	<path style="fill:none;stroke:red;stroke-width:1px;stroke-linecap:butt;stroke-linejoin:miter;stroke-opacity:1" d="M 445.839,706.667 445.839,720.92 z" id="boundary" inkscape:connector-curvature="0" />
	<path style="fill:none;stroke:red;stroke-width:1px;stroke-linecap:butt;stroke-linejoin:miter;stroke-opacity:1" d="M 445.839,720.92 445.839,735.172 z" id="boundary" inkscape:connector-curvature="0" />
	<path style="fill:none;stroke:red;stroke-width:1px;stroke-linecap:butt;stroke-linejoin:miter;stroke-opacity:1" d="M 475.77,689.563 488.598,682.437 z" id="boundary" inkscape:connector-curvature="0" />
	<path style="fill:none;stroke:red;stroke-width:1px;stroke-linecap:butt;stroke-linejoin:miter;stroke-opacity:1" d="M 452.966,748 445.839,735.172 z" id="boundary" inkscape:connector-curvature="0" />
	<path style="fill:none;stroke:red;stroke-width:1px;stroke-linecap:butt;stroke-linejoin:miter;stroke-opacity:1" d="M 482.897,718.069 478.621,703.816 z" id="boundary" inkscape:connector-curvature="0" />
	<path style="fill:none;stroke:red;stroke-width:1px;stroke-linecap:butt;stroke-linejoin:miter;stroke-opacity:1" d="M 478.621,703.816 501.425,689.563 z" id="boundary" inkscape:connector-curvature="0" />
	<path style="fill:none;stroke:red;stroke-width:1px;stroke-linecap:butt;stroke-linejoin:miter;stroke-opacity:1" d="M 452.966,748 452.966,762.253 z" id="boundary" inkscape:connector-curvature="0" />
	<path style="fill:none;stroke:red;stroke-width:1px;stroke-linecap:butt;stroke-linejoin:miter;stroke-opacity:1" d="M 452.966,776.506 460.092,789.333 z" id="boundary" inkscape:connector-curvature="0" />
	<path style="fill:none;stroke:red;stroke-width:1px;stroke-linecap:butt;stroke-linejoin:miter;stroke-opacity:1" d="M 460.092,789.333 460.092,803.586 z" id="boundary" inkscape:connector-curvature="0" />
	<path style="fill:none;stroke:red;stroke-width:1px;stroke-linecap:butt;stroke-linejoin:miter;stroke-opacity:1" d="M 452.966,776.506 452.966,762.253 z" id="boundary" inkscape:connector-curvature="0" />
	<path style="fill:none;stroke:red;stroke-width:1px;stroke-linecap:butt;stroke-linejoin:miter;stroke-opacity:1" d="M 438.713,901.931 424.46,897.655 z" id="boundary" inkscape:connector-curvature="0" />
	<path style="fill:none;stroke:red;stroke-width:1px;stroke-linecap:butt;stroke-linejoin:miter;stroke-opacity:1" d="M 460.092,803.586 460.092,817.839 z" id="boundary" inkscape:connector-curvature="0" />
	<path style="fill:none;stroke:red;stroke-width:1px;stroke-linecap:butt;stroke-linejoin:miter;stroke-opacity:1" d="M 451.54,909.057 438.713,901.931 z" id="boundary" inkscape:connector-curvature="0" />
	<path style="fill:none;stroke:red;stroke-width:1px;stroke-linecap:butt;stroke-linejoin:miter;stroke-opacity:1" d="M 424.46,963.218 438.713,967.494 z" id="boundary" inkscape:connector-curvature="0" />
	<path style="fill:none;stroke:red;stroke-width:1px;stroke-linecap:butt;stroke-linejoin:miter;stroke-opacity:1" d="M 450.115,958.943 438.713,967.494 z" id="boundary" inkscape:connector-curvature="0" />
	<path style="fill:none;stroke:red;stroke-width:1px;stroke-linecap:butt;stroke-linejoin:miter;stroke-opacity:1" d="M 464.368,951.816 450.115,958.943 z" id="boundary" inkscape:connector-curvature="0" />
	<path style="fill:none;stroke:red;stroke-width:1px;stroke-linecap:butt;stroke-linejoin:miter;stroke-opacity:1" d="M 460.092,817.839 460.092,832.092 z" id="boundary" inkscape:connector-curvature="0" />
	<path style="fill:none;stroke:red;stroke-width:1px;stroke-linecap:butt;stroke-linejoin:miter;stroke-opacity:1" d="M 460.092,832.092 464.368,846.345 z" id="boundary" inkscape:connector-curvature="0" />
	<path style="fill:none;stroke:red;stroke-width:1px;stroke-linecap:butt;stroke-linejoin:miter;stroke-opacity:1" d="M 465.793,910.483 451.54,909.057 z" id="boundary" inkscape:connector-curvature="0" />
	<path style="fill:none;stroke:red;stroke-width:1px;stroke-linecap:butt;stroke-linejoin:miter;stroke-opacity:1" d="M 482.897,839.218 477.195,853.471 z" id="boundary" inkscape:connector-curvature="0" />
	<path style="fill:none;stroke:red;stroke-width:1px;stroke-linecap:butt;stroke-linejoin:miter;stroke-opacity:1" d="M 477.195,853.471 464.368,846.345 z" id="boundary" inkscape:connector-curvature="0" />
	<path style="fill:none;stroke:red;stroke-width:1px;stroke-linecap:butt;stroke-linejoin:miter;stroke-opacity:1" d="M 465.793,910.483 480.046,916.184 z" id="boundary" inkscape:connector-curvature="0" />
	<path style="fill:none;stroke:red;stroke-width:1px;stroke-linecap:butt;stroke-linejoin:miter;stroke-opacity:1" d="M 480.046,916.184 492.874,923.31 z" id="boundary" inkscape:connector-curvature="0" />
	<path style="fill:none;stroke:red;stroke-width:1px;stroke-linecap:butt;stroke-linejoin:miter;stroke-opacity:1" d="M 477.195,958.943 464.368,951.816 z" id="boundary" inkscape:connector-curvature="0" />
	<path style="fill:none;stroke:red;stroke-width:1px;stroke-linecap:butt;stroke-linejoin:miter;stroke-opacity:1" d="M 482.897,718.069 490.023,730.897 z" id="boundary" inkscape:connector-curvature="0" />
	<path style="fill:none;stroke:red;stroke-width:1px;stroke-linecap:butt;stroke-linejoin:miter;stroke-opacity:1" d="M 490.023,730.897 490.023,745.149 z" id="boundary" inkscape:connector-curvature="0" />
	<path style="fill:none;stroke:red;stroke-width:1px;stroke-linecap:butt;stroke-linejoin:miter;stroke-opacity:1" d="M 497.149,757.977 490.023,745.149 z" id="boundary" inkscape:connector-curvature="0" />
	<path style="fill:none;stroke:red;stroke-width:1px;stroke-linecap:butt;stroke-linejoin:miter;stroke-opacity:1" d="M 497.149,772.23 497.149,786.483 z" id="boundary" inkscape:connector-curvature="0" />
	<path style="fill:none;stroke:red;stroke-width:1px;stroke-linecap:butt;stroke-linejoin:miter;stroke-opacity:1" d="M 497.149,757.977 497.149,772.23 z" id="boundary" inkscape:connector-curvature="0" />
	<path style="fill:none;stroke:red;stroke-width:1px;stroke-linecap:butt;stroke-linejoin:miter;stroke-opacity:1" d="M 497.149,800.736 497.149,814.989 z" id="boundary" inkscape:connector-curvature="0" />
	<path style="fill:none;stroke:red;stroke-width:1px;stroke-linecap:butt;stroke-linejoin:miter;stroke-opacity:1" d="M 497.149,786.483 497.149,800.736 z" id="boundary" inkscape:connector-curvature="0" />
	<path style="fill:none;stroke:red;stroke-width:1px;stroke-linecap:butt;stroke-linejoin:miter;stroke-opacity:1" d="M 494.299,829.241 482.897,839.218 z" id="boundary" inkscape:connector-curvature="0" />
	<path style="fill:none;stroke:red;stroke-width:1px;stroke-linecap:butt;stroke-linejoin:miter;stroke-opacity:1" d="M 511.402,651.08 511.402,665.333 z" id="boundary" inkscape:connector-curvature="0" />
	<path style="fill:none;stroke:red;stroke-width:1px;stroke-linecap:butt;stroke-linejoin:miter;stroke-opacity:1" d="M 504.276,638.253 500,624 z" id="boundary" inkscape:connector-curvature="0" />
	<path style="fill:none;stroke:red;stroke-width:1px;stroke-linecap:butt;stroke-linejoin:miter;stroke-opacity:1" d="M 511.402,651.08 504.276,638.253 z" id="boundary" inkscape:connector-curvature="0" />
	<path style="fill:none;stroke:red;stroke-width:1px;stroke-linecap:butt;stroke-linejoin:miter;stroke-opacity:1" d="M 497.149,814.989 494.299,829.241 z" id="boundary" inkscape:connector-curvature="0" />
	<path style="fill:none;stroke:red;stroke-width:1px;stroke-linecap:butt;stroke-linejoin:miter;stroke-opacity:1" d="M 514.253,681.011 501.425,689.563 z" id="boundary" inkscape:connector-curvature="0" />
	<path style="fill:none;stroke:red;stroke-width:1px;stroke-linecap:butt;stroke-linejoin:miter;stroke-opacity:1" d="M 511.402,665.333 514.253,681.011 z" id="boundary" inkscape:connector-curvature="0" />
	<path style="fill:none;stroke:red;stroke-width:1px;stroke-linecap:butt;stroke-linejoin:miter;stroke-opacity:1" d="M 518.529,937.563 505.701,930.437 z" id="boundary" inkscape:connector-curvature="0" />
	<path style="fill:none;stroke:red;stroke-width:1px;stroke-linecap:butt;stroke-linejoin:miter;stroke-opacity:1" d="M 488.598,967.494 477.195,958.943 z" id="boundary" inkscape:connector-curvature="0" />
	<path style="fill:none;stroke:red;stroke-width:1px;stroke-linecap:butt;stroke-linejoin:miter;stroke-opacity:1" d="M 492.874,923.31 505.701,930.437 z" id="boundary" inkscape:connector-curvature="0" />
	<path style="fill:none;stroke:red;stroke-width:1px;stroke-linecap:butt;stroke-linejoin:miter;stroke-opacity:1" d="M 488.598,967.494 492.874,981.747 z" id="boundary" inkscape:connector-curvature="0" />
	<path style="fill:none;stroke:red;stroke-width:1px;stroke-linecap:butt;stroke-linejoin:miter;stroke-opacity:1" d="M 505.701,988.874 492.874,981.747 z" id="boundary" inkscape:connector-curvature="0" />
	<path style="fill:none;stroke:red;stroke-width:1px;stroke-linecap:butt;stroke-linejoin:miter;stroke-opacity:1" d="M 518.529,996 505.701,988.874 z" id="boundary" inkscape:connector-curvature="0" />
	<path style="fill:none;stroke:red;stroke-width:1px;stroke-linecap:butt;stroke-linejoin:miter;stroke-opacity:1" d="M 542.759,953.241 532.782,941.839 z" id="boundary" inkscape:connector-curvature="0" />
	<path style="fill:none;stroke:red;stroke-width:1px;stroke-linecap:butt;stroke-linejoin:miter;stroke-opacity:1" d="M 554.161,963.218 542.759,953.241 z" id="boundary" inkscape:connector-curvature="0" />
	<path style="fill:none;stroke:red;stroke-width:1px;stroke-linecap:butt;stroke-linejoin:miter;stroke-opacity:1" d="M 532.782,941.839 518.529,937.563 z" id="boundary" inkscape:connector-curvature="0" />
	<path style="fill:none;stroke:red;stroke-width:1px;stroke-linecap:butt;stroke-linejoin:miter;stroke-opacity:1" d="M 554.161,963.218 561.287,976.046 z" id="boundary" inkscape:connector-curvature="0" />
	<path style="fill:none;stroke:red;stroke-width:1px;stroke-linecap:butt;stroke-linejoin:miter;stroke-opacity:1" d="M 532.782,996 518.529,996 z" id="boundary" inkscape:connector-curvature="0" />
	<path style="fill:none;stroke:red;stroke-width:1px;stroke-linecap:butt;stroke-linejoin:miter;stroke-opacity:1" d="M 561.287,996 547.034,996 z" id="boundary" inkscape:connector-curvature="0" />
	<path style="fill:none;stroke:red;stroke-width:1px;stroke-linecap:butt;stroke-linejoin:miter;stroke-opacity:1" d="M 561.287,976.046 561.287,996 z" id="boundary" inkscape:connector-curvature="0" />
	<path style="fill:none;stroke:red;stroke-width:1px;stroke-linecap:butt;stroke-linejoin:miter;stroke-opacity:1" d="M 547.034,996 532.782,996 z" id="boundary" inkscape:connector-curvature="0" />
	<circle cx="4" cy="293.333" r="4" fill="#0" id="circle0"/>
	<circle cx="4" cy="307.586" r="4" fill="#0" id="circle1"/>
	<circle cx="4" cy="321.839" r="4" fill="#0" id="circle2"/>
	<circle cx="11.1264" cy="334.667" r="4" fill="#0" id="circle3"/>
	<circle cx="15.4023" cy="281.931" r="4" fill="#0" id="circle4"/>
	<circle cx="18.2529" cy="347.494" r="4" fill="#0" id="circle5"/>
	<circle cx="26.8046" cy="270.529" r="4" fill="#0" id="circle6"/>
	<circle cx="26.8046" cy="358.897" r="4" fill="#0" id="circle7"/>
	<circle cx="38.2069" cy="368.874" r="4" fill="#0" id="circle8"/>
	<circle cx="41.0575" cy="263.402" r="4" fill="#0" id="circle9"/>
	<circle cx="48.1839" cy="380.276" r="4" fill="#0" id="circle10"/>
	<circle cx="55.3103" cy="256.276" r="4" fill="#0" id="circle11"/>
	<circle cx="55.3103" cy="393.103" r="4" fill="#0" id="circle12"/>
	<circle cx="65.2874" cy="404.506" r="4" fill="#0" id="circle13"/>
	<circle cx="69.5632" cy="249.149" r="4" fill="#0" id="circle14"/>
	<circle cx="76.6897" cy="414.483" r="4" fill="#0" id="circle15"/>
	<circle cx="83.8161" cy="242.023" r="4" fill="#0" id="circle16"/>
	<circle cx="86.6667" cy="425.885" r="4" fill="#0" id="circle17"/>
	<circle cx="93.7931" cy="438.713" r="4" fill="#0" id="circle18"/>
	<circle cx="98.069" cy="234.897" r="4" fill="#0" id="circle19"/>
	<circle cx="99.4943" cy="452.966" r="4" fill="#0" id="circle20"/>
	<circle cx="110.897" cy="461.517" r="4" fill="#0" id="circle21"/>
	<circle cx="112.322" cy="227.77" r="4" fill="#0" id="circle22"/>
	<circle cx="119.448" cy="472.92" r="4" fill="#0" id="circle23"/>
	<circle cx="126.575" cy="220.644" r="4" fill="#0" id="circle24"/>
	<circle cx="130.851" cy="482.897" r="4" fill="#0" id="circle25"/>
	<circle cx="140.828" cy="213.517" r="4" fill="#0" id="circle26"/>
	<circle cx="140.828" cy="494.299" r="4" fill="#0" id="circle27"/>
	<circle cx="152.23" cy="504.276" r="4" fill="#0" id="circle28"/>
	<circle cx="155.08" cy="206.391" r="4" fill="#0" id="circle29"/>
	<circle cx="160.782" cy="515.678" r="4" fill="#0" id="circle30"/>
	<circle cx="167.908" cy="528.506" r="4" fill="#0" id="circle31"/>
	<circle cx="169.333" cy="199.264" r="4" fill="#0" id="circle32"/>
	<circle cx="179.31" cy="538.483" r="4" fill="#0" id="circle33"/>
	<circle cx="180.736" cy="189.287" r="4" fill="#0" id="circle34"/>
	<circle cx="192.138" cy="545.609" r="4" fill="#0" id="circle35"/>
	<circle cx="193.563" cy="182.161" r="4" fill="#0" id="circle36"/>
	<circle cx="203.54" cy="554.161" r="4" fill="#0" id="circle37"/>
	<circle cx="207.816" cy="175.034" r="4" fill="#0" id="circle38"/>
	<circle cx="216.368" cy="561.287" r="4" fill="#0" id="circle39"/>
	<circle cx="217.793" cy="585.517" r="4" fill="#0" id="circle40"/>
	<circle cx="220.644" cy="167.908" r="4" fill="#0" id="circle41"/>
	<circle cx="224.92" cy="572.69" r="4" fill="#0" id="circle42"/>
	<circle cx="229.195" cy="595.494" r="4" fill="#0" id="circle43"/>
	<circle cx="232.046" cy="157.931" r="4" fill="#0" id="circle44"/>
	<circle cx="243.448" cy="146.529" r="4" fill="#0" id="circle45"/>
	<circle cx="243.448" cy="595.494" r="4" fill="#0" id="circle46"/>
	<circle cx="256.276" cy="139.402" r="4" fill="#0" id="circle47"/>
	<circle cx="257.701" cy="588.368" r="4" fill="#0" id="circle48"/>
	<circle cx="267.678" cy="129.425" r="4" fill="#0" id="circle49"/>
	<circle cx="267.678" cy="770.805" r="4" fill="#0" id="circle50"/>
	<circle cx="271.954" cy="582.667" r="4" fill="#0" id="circle51"/>
	<circle cx="274.805" cy="749.425" r="4" fill="#0" id="circle52"/>
	<circle cx="274.805" cy="783.632" r="4" fill="#0" id="circle53"/>
	<circle cx="274.805" cy="797.885" r="4" fill="#0" id="circle54"/>
	<circle cx="274.805" cy="812.138" r="4" fill="#0" id="circle55"/>
	<circle cx="279.08" cy="118.023" r="4" fill="#0" id="circle56"/>
	<circle cx="281.931" cy="606.897" r="4" fill="#0" id="circle57"/>
	<circle cx="281.931" cy="621.149" r="4" fill="#0" id="circle58"/>
	<circle cx="281.931" cy="635.402" r="4" fill="#0" id="circle59"/>
	<circle cx="281.931" cy="649.655" r="4" fill="#0" id="circle60"/>
	<circle cx="281.931" cy="663.908" r="4" fill="#0" id="circle61"/>
	<circle cx="281.931" cy="678.161" r="4" fill="#0" id="circle62"/>
	<circle cx="281.931" cy="692.414" r="4" fill="#0" id="circle63"/>
	<circle cx="281.931" cy="735.172" r="4" fill="#0" id="circle64"/>
	<circle cx="281.931" cy="824.966" r="4" fill="#0" id="circle65"/>
	<circle cx="286.207" cy="103.77" r="4" fill="#0" id="circle66"/>
	<circle cx="286.207" cy="588.368" r="4" fill="#0" id="circle67"/>
	<circle cx="286.207" cy="839.218" r="4" fill="#0" id="circle68"/>
	<circle cx="289.057" cy="720.92" r="4" fill="#0" id="circle69"/>
	<circle cx="296.184" cy="696.69" r="4" fill="#0" id="circle70"/>
	<circle cx="297.609" cy="92.3678" r="4" fill="#0" id="circle71"/>
	<circle cx="300.46" cy="844.92" r="4" fill="#0" id="circle72"/>
	<circle cx="304.736" cy="817.839" r="4" fill="#0" id="circle73"/>
	<circle cx="309.011" cy="82.3908" r="4" fill="#0" id="circle74"/>
	<circle cx="313.287" cy="829.241" r="4" fill="#0" id="circle75"/>
	<circle cx="318.989" cy="843.494" r="4" fill="#0" id="circle76"/>
	<circle cx="321.839" cy="75.2644" r="4" fill="#0" id="circle77"/>
	<circle cx="326.115" cy="856.322" r="4" fill="#0" id="circle78"/>
	<circle cx="331.816" cy="870.575" r="4" fill="#0" id="circle79"/>
	<circle cx="336.092" cy="68.1379" r="4" fill="#0" id="circle80"/>
	<circle cx="343.218" cy="880.552" r="4" fill="#0" id="circle81"/>
	<circle cx="347.494" cy="789.333" r="4" fill="#0" id="circle82"/>
	<circle cx="347.494" cy="803.586" r="4" fill="#0" id="circle83"/>
	<circle cx="347.494" cy="817.839" r="4" fill="#0" id="circle84"/>
	<circle cx="350.345" cy="61.0115" r="4" fill="#0" id="circle85"/>
	<circle cx="353.195" cy="891.954" r="4" fill="#0" id="circle86"/>
	<circle cx="354.621" cy="767.954" r="4" fill="#0" id="circle87"/>
	<circle cx="354.621" cy="830.667" r="4" fill="#0" id="circle88"/>
	<circle cx="354.621" cy="844.92" r="4" fill="#0" id="circle89"/>
	<circle cx="357.471" cy="46.7586" r="4" fill="#0" id="circle90"/>
	<circle cx="360.322" cy="29.6552" r="4" fill="#0" id="circle91"/>
	<circle cx="361.747" cy="746.575" r="4" fill="#0" id="circle92"/>
	<circle cx="361.747" cy="857.747" r="4" fill="#0" id="circle93"/>
	<circle cx="364.598" cy="901.931" r="4" fill="#0" id="circle94"/>
	<circle cx="367.448" cy="15.4023" r="4" fill="#0" id="circle95"/>
	<circle cx="368.874" cy="732.322" r="4" fill="#0" id="circle96"/>
	<circle cx="370.299" cy="916.184" r="4" fill="#0" id="circle97"/>
	<circle cx="373.149" cy="867.724" r="4" fill="#0" id="circle98"/>
	<circle cx="376" cy="710.943" r="4" fill="#0" id="circle99"/>
	<circle cx="377.425" cy="929.011" r="4" fill="#0" id="circle100"/>
	<circle cx="378.851" cy="4" r="4" fill="#0" id="circle101"/>
	<circle cx="383.126" cy="689.563" r="4" fill="#0" id="circle102"/>
	<circle cx="383.126" cy="879.126" r="4" fill="#0" id="circle103"/>
	<circle cx="388.828" cy="938.989" r="4" fill="#0" id="circle104"/>
	<circle cx="390.253" cy="668.184" r="4" fill="#0" id="circle105"/>
	<circle cx="391.678" cy="11.1264" r="4" fill="#0" id="circle106"/>
	<circle cx="397.379" cy="646.805" r="4" fill="#0" id="circle107"/>
	<circle cx="397.379" cy="884.828" r="4" fill="#0" id="circle108"/>
	<circle cx="397.379" cy="950.391" r="4" fill="#0" id="circle109"/>
	<circle cx="404.506" cy="18.2529" r="4" fill="#0" id="circle110"/>
	<circle cx="404.506" cy="32.5057" r="4" fill="#0" id="circle111"/>
	<circle cx="404.506" cy="632.552" r="4" fill="#0" id="circle112"/>
	<circle cx="410.207" cy="891.954" r="4" fill="#0" id="circle113"/>
	<circle cx="411.632" cy="45.3333" r="4" fill="#0" id="circle114"/>
	<circle cx="411.632" cy="956.092" r="4" fill="#0" id="circle115"/>
	<circle cx="417.333" cy="625.425" r="4" fill="#0" id="circle116"/>
	<circle cx="417.333" cy="639.678" r="4" fill="#0" id="circle117"/>
	<circle cx="423.034" cy="55.3103" r="4" fill="#0" id="circle118"/>
	<circle cx="424.46" cy="652.506" r="4" fill="#0" id="circle119"/>
	<circle cx="424.46" cy="897.655" r="4" fill="#0" id="circle120"/>
	<circle cx="424.46" cy="963.218" r="4" fill="#0" id="circle121"/>
	<circle cx="431.586" cy="665.333" r="4" fill="#0" id="circle122"/>
	<circle cx="433.011" cy="66.7126" r="4" fill="#0" id="circle123"/>
	<circle cx="433.011" cy="679.586" r="4" fill="#0" id="circle124"/>
	<circle cx="438.713" cy="693.839" r="4" fill="#0" id="circle125"/>
	<circle cx="438.713" cy="901.931" r="4" fill="#0" id="circle126"/>
	<circle cx="438.713" cy="967.494" r="4" fill="#0" id="circle127"/>
	<circle cx="445.839" cy="706.667" r="4" fill="#0" id="circle128"/>
	<circle cx="445.839" cy="720.92" r="4" fill="#0" id="circle129"/>
	<circle cx="445.839" cy="735.172" r="4" fill="#0" id="circle130"/>
	<circle cx="447.264" cy="72.4138" r="4" fill="#0" id="circle131"/>
	<circle cx="450.115" cy="958.943" r="4" fill="#0" id="circle132"/>
	<circle cx="451.54" cy="909.057" r="4" fill="#0" id="circle133"/>
	<circle cx="452.966" cy="748" r="4" fill="#0" id="circle134"/>
	<circle cx="452.966" cy="762.253" r="4" fill="#0" id="circle135"/>
	<circle cx="452.966" cy="776.506" r="4" fill="#0" id="circle136"/>
	<circle cx="458.667" cy="82.3908" r="4" fill="#0" id="circle137"/>
	<circle cx="460.092" cy="789.333" r="4" fill="#0" id="circle138"/>
	<circle cx="460.092" cy="803.586" r="4" fill="#0" id="circle139"/>
	<circle cx="460.092" cy="817.839" r="4" fill="#0" id="circle140"/>
	<circle cx="460.092" cy="832.092" r="4" fill="#0" id="circle141"/>
	<circle cx="464.368" cy="846.345" r="4" fill="#0" id="circle142"/>
	<circle cx="464.368" cy="951.816" r="4" fill="#0" id="circle143"/>
	<circle cx="465.793" cy="910.483" r="4" fill="#0" id="circle144"/>
	<circle cx="471.494" cy="89.5172" r="4" fill="#0" id="circle145"/>
	<circle cx="475.77" cy="675.31" r="4" fill="#0" id="circle146"/>
	<circle cx="475.77" cy="689.563" r="4" fill="#0" id="circle147"/>
	<circle cx="477.195" cy="853.471" r="4" fill="#0" id="circle148"/>
	<circle cx="477.195" cy="958.943" r="4" fill="#0" id="circle149"/>
	<circle cx="478.621" cy="703.816" r="4" fill="#0" id="circle150"/>
	<circle cx="480.046" cy="916.184" r="4" fill="#0" id="circle151"/>
	<circle cx="481.471" cy="100.92" r="4" fill="#0" id="circle152"/>
	<circle cx="482.897" cy="718.069" r="4" fill="#0" id="circle153"/>
	<circle cx="482.897" cy="839.218" r="4" fill="#0" id="circle154"/>
	<circle cx="488.598" cy="113.747" r="4" fill="#0" id="circle155"/>
	<circle cx="488.598" cy="682.437" r="4" fill="#0" id="circle156"/>
	<circle cx="488.598" cy="967.494" r="4" fill="#0" id="circle157"/>
	<circle cx="490.023" cy="582.667" r="4" fill="#0" id="circle158"/>
	<circle cx="490.023" cy="596.92" r="4" fill="#0" id="circle159"/>
	<circle cx="490.023" cy="730.897" r="4" fill="#0" id="circle160"/>
	<circle cx="490.023" cy="745.149" r="4" fill="#0" id="circle161"/>
	<circle cx="492.874" cy="611.172" r="4" fill="#0" id="circle162"/>
	<circle cx="492.874" cy="923.31" r="4" fill="#0" id="circle163"/>
	<circle cx="492.874" cy="981.747" r="4" fill="#0" id="circle164"/>
	<circle cx="494.299" cy="829.241" r="4" fill="#0" id="circle165"/>
	<circle cx="497.149" cy="125.149" r="4" fill="#0" id="circle166"/>
	<circle cx="497.149" cy="757.977" r="4" fill="#0" id="circle167"/>
	<circle cx="497.149" cy="772.23" r="4" fill="#0" id="circle168"/>
	<circle cx="497.149" cy="786.483" r="4" fill="#0" id="circle169"/>
	<circle cx="497.149" cy="800.736" r="4" fill="#0" id="circle170"/>
	<circle cx="497.149" cy="814.989" r="4" fill="#0" id="circle171"/>
	<circle cx="500" cy="624" r="4" fill="#0" id="circle172"/>
	<circle cx="501.425" cy="689.563" r="4" fill="#0" id="circle173"/>
	<circle cx="504.276" cy="582.667" r="4" fill="#0" id="circle174"/>
	<circle cx="504.276" cy="638.253" r="4" fill="#0" id="circle175"/>
	<circle cx="505.701" cy="930.437" r="4" fill="#0" id="circle176"/>
	<circle cx="505.701" cy="988.874" r="4" fill="#0" id="circle177"/>
	<circle cx="508.552" cy="133.701" r="4" fill="#0" id="circle178"/>
	<circle cx="511.402" cy="651.08" r="4" fill="#0" id="circle179"/>
	<circle cx="511.402" cy="665.333" r="4" fill="#0" id="circle180"/>
	<circle cx="514.253" cy="681.011" r="4" fill="#0" id="circle181"/>
	<circle cx="518.529" cy="145.103" r="4" fill="#0" id="circle182"/>
	<circle cx="518.529" cy="582.667" r="4" fill="#0" id="circle183"/>
	<circle cx="518.529" cy="937.563" r="4" fill="#0" id="circle184"/>
	<circle cx="518.529" cy="996" r="4" fill="#0" id="circle185"/>
	<circle cx="529.931" cy="153.655" r="4" fill="#0" id="circle186"/>
	<circle cx="532.782" cy="582.667" r="4" fill="#0" id="circle187"/>
	<circle cx="532.782" cy="941.839" r="4" fill="#0" id="circle188"/>
	<circle cx="532.782" cy="996" r="4" fill="#0" id="circle189"/>
	<circle cx="542.759" cy="160.782" r="4" fill="#0" id="circle190"/>
	<circle cx="542.759" cy="953.241" r="4" fill="#0" id="circle191"/>
	<circle cx="547.034" cy="585.517" r="4" fill="#0" id="circle192"/>
	<circle cx="547.034" cy="996" r="4" fill="#0" id="circle193"/>
	<circle cx="552.736" cy="172.184" r="4" fill="#0" id="circle194"/>
	<circle cx="554.161" cy="963.218" r="4" fill="#0" id="circle195"/>
	<circle cx="561.287" cy="589.793" r="4" fill="#0" id="circle196"/>
	<circle cx="561.287" cy="976.046" r="4" fill="#0" id="circle197"/>
	<circle cx="561.287" cy="996" r="4" fill="#0" id="circle198"/>
	<circle cx="564.138" cy="182.161" r="4" fill="#0" id="circle199"/>
	<circle cx="568.414" cy="547.034" r="4" fill="#0" id="circle200"/>
	<circle cx="568.414" cy="561.287" r="4" fill="#0" id="circle201"/>
	<circle cx="571.264" cy="575.54" r="4" fill="#0" id="circle202"/>
	<circle cx="576.966" cy="189.287" r="4" fill="#0" id="circle203"/>
	<circle cx="582.667" cy="539.908" r="4" fill="#0" id="circle204"/>
	<circle cx="589.793" cy="196.414" r="4" fill="#0" id="circle205"/>
	<circle cx="596.92" cy="532.782" r="4" fill="#0" id="circle206"/>
	<circle cx="604.046" cy="200.69" r="4" fill="#0" id="circle207"/>
	<circle cx="608.322" cy="522.805" r="4" fill="#0" id="circle208"/>
	<circle cx="616.874" cy="207.816" r="4" fill="#0" id="circle209"/>
	<circle cx="622.575" cy="515.678" r="4" fill="#0" id="circle210"/>
	<circle cx="631.126" cy="213.517" r="4" fill="#0" id="circle211"/>
	<circle cx="632.552" cy="497.149" r="4" fill="#0" id="circle212"/>
	<circle cx="643.954" cy="220.644" r="4" fill="#0" id="circle213"/>
	<circle cx="643.954" cy="487.172" r="4" fill="#0" id="circle214"/>
	<circle cx="653.931" cy="232.046" r="4" fill="#0" id="circle215"/>
	<circle cx="653.931" cy="468.644" r="4" fill="#0" id="circle216"/>
	<circle cx="665.333" cy="458.667" r="4" fill="#0" id="circle217"/>
	<circle cx="668.184" cy="236.322" r="4" fill="#0" id="circle218"/>
	<circle cx="675.31" cy="447.264" r="4" fill="#0" id="circle219"/>
	<circle cx="681.011" cy="243.448" r="4" fill="#0" id="circle220"/>
	<circle cx="686.713" cy="437.287" r="4" fill="#0" id="circle221"/>
	<circle cx="695.264" cy="249.149" r="4" fill="#0" id="circle222"/>
	<circle cx="696.69" cy="425.885" r="4" fill="#0" id="circle223"/>
	<circle cx="708.092" cy="256.276" r="4" fill="#0" id="circle224"/>
	<circle cx="708.092" cy="415.908" r="4" fill="#0" id="circle225"/>
	<circle cx="715.218" cy="401.655" r="4" fill="#0" id="circle226"/>
	<circle cx="718.069" cy="267.678" r="4" fill="#0" id="circle227"/>
	<circle cx="725.195" cy="390.253" r="4" fill="#0" id="circle228"/>
	<circle cx="732.322" cy="271.954" r="4" fill="#0" id="circle229"/>
	<circle cx="736.598" cy="380.276" r="4" fill="#0" id="circle230"/>
	<circle cx="745.149" cy="279.08" r="4" fill="#0" id="circle231"/>
	<circle cx="746.575" cy="368.874" r="4" fill="#0" id="circle232"/>
	<circle cx="753.701" cy="354.621" r="4" fill="#0" id="circle233"/>
	<circle cx="756.552" cy="289.057" r="4" fill="#0" id="circle234"/>
	<circle cx="760.828" cy="340.368" r="4" fill="#0" id="circle235"/>
	<circle cx="766.529" cy="300.46" r="4" fill="#0" id="circle236"/>
	<circle cx="767.954" cy="314.713" r="4" fill="#0" id="circle237"/>
	</g>
</svg>