<?xml version="1.0" encoding="UTF-8" standalone="no"?>
<!-- Created with CurveBenchmark -->
<svg
	xmlns:dc="http://purl.org/dc/elements/1.1/"
	xmlns:cc="http://creativecommons.org/ns#"
	xmlns:rdf="http://www.w3.org/1999/02/22-rdf-syntax-ns#"
	xmlns:svg="http://www.w3.org/2000/svg"
	xmlns="http://www.w3.org/2000/svg"
	xmlns:sodipodi="http://sodipodi.sourceforge.net/DTD/sodipodi-0.dtd"
	xmlns:inkscape="http://www.inkscape.org/namespaces/inkscape"
	width="1000"
	height="1000"
	id="svg2"
	version="1.1"
	sodipodi:docname="manifold/gathan1-fish200.png.txt">
<defs
	id="defs4" />
<metadata
	id="metadata7">
	<rdf:RDF>
		<cc:Work
			rdf:about="">
			<dc:format>image/svg+xml</dc:format>
			<dc:type
				rdf:resource="http://purl.org/dc/dcmitype/StillImage" />
			<dc:title></dc:title>
		</cc:Work>
	</rdf:RDF>
</metadata>
<g
	inkscape:label="Layer 1"
	inkscape:groupmode="layer"
	id="layer1">
	<path style="fill:none;stroke:red;stroke-width:1px;stroke-linecap:butt;stroke-linejoin:miter;stroke-opacity:1" d="M 9.95796,164.865 4,135.075 z" id="boundary" inkscape:connector-curvature="0" />
	<path style="fill:none;stroke:red;stroke-width:1px;stroke-linecap:butt;stroke-linejoin:miter;stroke-opacity:1" d="M 4,135.075 33.7898,129.117 z" id="boundary" inkscape:connector-curvature="0" />
	<path style="fill:none;stroke:red;stroke-width:1px;stroke-linecap:butt;stroke-linejoin:miter;stroke-opacity:1" d="M 63.5796,138.054 93.3694,146.991 z" id="boundary" inkscape:connector-curvature="0" />
	<path style="fill:none;stroke:red;stroke-width:1px;stroke-linecap:butt;stroke-linejoin:miter;stroke-opacity:1" d="M 146.991,176.781 120.18,161.886 z" id="boundary" inkscape:connector-curvature="0" />
	<path style="fill:none;stroke:red;stroke-width:1px;stroke-linecap:butt;stroke-linejoin:miter;stroke-opacity:1" d="M 33.7898,129.117 63.5796,138.054 z" id="boundary" inkscape:connector-curvature="0" />
	<path style="fill:none;stroke:red;stroke-width:1px;stroke-linecap:butt;stroke-linejoin:miter;stroke-opacity:1" d="M 21.8739,224.444 15.9159,194.655 z" id="boundary" inkscape:connector-curvature="0" />
	<path style="fill:none;stroke:red;stroke-width:1px;stroke-linecap:butt;stroke-linejoin:miter;stroke-opacity:1" d="M 9.95796,164.865 15.9159,194.655 z" id="boundary" inkscape:connector-curvature="0" />
	<path style="fill:none;stroke:red;stroke-width:1px;stroke-linecap:butt;stroke-linejoin:miter;stroke-opacity:1" d="M 224.444,170.823 206.571,194.655 z" id="boundary" inkscape:connector-curvature="0" />
	<path style="fill:none;stroke:red;stroke-width:1px;stroke-linecap:butt;stroke-linejoin:miter;stroke-opacity:1" d="M 206.571,194.655 176.781,188.697 z" id="boundary" inkscape:connector-curvature="0" />
	<path style="fill:none;stroke:red;stroke-width:1px;stroke-linecap:butt;stroke-linejoin:miter;stroke-opacity:1" d="M 176.781,188.697 146.991,176.781 z" id="boundary" inkscape:connector-curvature="0" />
	<path style="fill:none;stroke:red;stroke-width:1px;stroke-linecap:butt;stroke-linejoin:miter;stroke-opacity:1" d="M 93.3694,146.991 120.18,161.886 z" id="boundary" inkscape:connector-curvature="0" />
	<path style="fill:none;stroke:red;stroke-width:1px;stroke-linecap:butt;stroke-linejoin:miter;stroke-opacity:1" d="M 313.814,87.4114 343.604,81.4535 z" id="boundary" inkscape:connector-curvature="0" />
	<path style="fill:none;stroke:red;stroke-width:1px;stroke-linecap:butt;stroke-linejoin:miter;stroke-opacity:1" d="M 343.604,81.4535 373.393,93.3694 z" id="boundary" inkscape:connector-curvature="0" />
	<path style="fill:none;stroke:red;stroke-width:1px;stroke-linecap:butt;stroke-linejoin:miter;stroke-opacity:1" d="M 480.637,63.5796 456.805,81.4535 z" id="boundary" inkscape:connector-curvature="0" />
	<path style="fill:none;stroke:red;stroke-width:1px;stroke-linecap:butt;stroke-linejoin:miter;stroke-opacity:1" d="M 432.973,99.3273 456.805,81.4535 z" id="boundary" inkscape:connector-curvature="0" />
	<path style="fill:none;stroke:red;stroke-width:1px;stroke-linecap:butt;stroke-linejoin:miter;stroke-opacity:1" d="M 289.982,105.285 313.814,87.4114 z" id="boundary" inkscape:connector-curvature="0" />
	<path style="fill:none;stroke:red;stroke-width:1px;stroke-linecap:butt;stroke-linejoin:miter;stroke-opacity:1" d="M 224.444,170.823 242.318,146.991 z" id="boundary" inkscape:connector-curvature="0" />
	<path style="fill:none;stroke:red;stroke-width:1px;stroke-linecap:butt;stroke-linejoin:miter;stroke-opacity:1" d="M 266.15,123.159 242.318,146.991 z" id="boundary" inkscape:connector-curvature="0" />
	<path style="fill:none;stroke:red;stroke-width:1px;stroke-linecap:butt;stroke-linejoin:miter;stroke-opacity:1" d="M 373.393,93.3694 403.183,105.285 z" id="boundary" inkscape:connector-curvature="0" />
	<path style="fill:none;stroke:red;stroke-width:1px;stroke-linecap:butt;stroke-linejoin:miter;stroke-opacity:1" d="M 432.973,99.3273 403.183,105.285 z" id="boundary" inkscape:connector-curvature="0" />
	<path style="fill:none;stroke:red;stroke-width:1px;stroke-linecap:butt;stroke-linejoin:miter;stroke-opacity:1" d="M 266.15,123.159 289.982,105.285 z" id="boundary" inkscape:connector-curvature="0" />
	<path style="fill:none;stroke:red;stroke-width:1px;stroke-linecap:butt;stroke-linejoin:miter;stroke-opacity:1" d="M 480.637,370.414 450.847,370.414 z" id="boundary" inkscape:connector-curvature="0" />
	<path style="fill:none;stroke:red;stroke-width:1px;stroke-linecap:butt;stroke-linejoin:miter;stroke-opacity:1" d="M 21.8739,254.234 15.9159,295.94 z" id="boundary" inkscape:connector-curvature="0" />
	<path style="fill:none;stroke:red;stroke-width:1px;stroke-linecap:butt;stroke-linejoin:miter;stroke-opacity:1" d="M 15.9159,295.94 4,337.646 z" id="boundary" inkscape:connector-curvature="0" />
	<path style="fill:none;stroke:red;stroke-width:1px;stroke-linecap:butt;stroke-linejoin:miter;stroke-opacity:1" d="M 21.8739,254.234 21.8739,224.444 z" id="boundary" inkscape:connector-curvature="0" />
	<path style="fill:none;stroke:red;stroke-width:1px;stroke-linecap:butt;stroke-linejoin:miter;stroke-opacity:1" d="M 144.012,319.772 167.844,301.898 z" id="boundary" inkscape:connector-curvature="0" />
	<path style="fill:none;stroke:red;stroke-width:1px;stroke-linecap:butt;stroke-linejoin:miter;stroke-opacity:1" d="M 144.012,319.772 117.201,334.667 z" id="boundary" inkscape:connector-curvature="0" />
	<path style="fill:none;stroke:red;stroke-width:1px;stroke-linecap:butt;stroke-linejoin:miter;stroke-opacity:1" d="M 27.8318,358.498 4,337.646 z" id="boundary" inkscape:connector-curvature="0" />
	<path style="fill:none;stroke:red;stroke-width:1px;stroke-linecap:butt;stroke-linejoin:miter;stroke-opacity:1" d="M 57.6216,358.498 87.4114,346.583 z" id="boundary" inkscape:connector-curvature="0" />
	<path style="fill:none;stroke:red;stroke-width:1px;stroke-linecap:butt;stroke-linejoin:miter;stroke-opacity:1" d="M 57.6216,358.498 27.8318,358.498 z" id="boundary" inkscape:connector-curvature="0" />
	<path style="fill:none;stroke:red;stroke-width:1px;stroke-linecap:butt;stroke-linejoin:miter;stroke-opacity:1" d="M 87.4114,346.583 117.201,334.667 z" id="boundary" inkscape:connector-curvature="0" />
	<path style="fill:none;stroke:red;stroke-width:1px;stroke-linecap:butt;stroke-linejoin:miter;stroke-opacity:1" d="M 218.486,316.793 230.402,346.583 z" id="boundary" inkscape:connector-curvature="0" />
	<path style="fill:none;stroke:red;stroke-width:1px;stroke-linecap:butt;stroke-linejoin:miter;stroke-opacity:1" d="M 218.486,316.793 197.634,292.961 z" id="boundary" inkscape:connector-curvature="0" />
	<path style="fill:none;stroke:red;stroke-width:1px;stroke-linecap:butt;stroke-linejoin:miter;stroke-opacity:1" d="M 361.477,370.414 391.267,364.456 z" id="boundary" inkscape:connector-curvature="0" />
	<path style="fill:none;stroke:red;stroke-width:1px;stroke-linecap:butt;stroke-linejoin:miter;stroke-opacity:1" d="M 391.267,364.456 421.057,370.414 z" id="boundary" inkscape:connector-curvature="0" />
	<path style="fill:none;stroke:red;stroke-width:1px;stroke-linecap:butt;stroke-linejoin:miter;stroke-opacity:1" d="M 361.477,370.414 331.688,382.33 z" id="boundary" inkscape:connector-curvature="0" />
	<path style="fill:none;stroke:red;stroke-width:1px;stroke-linecap:butt;stroke-linejoin:miter;stroke-opacity:1" d="M 230.402,346.583 242.318,376.372 z" id="boundary" inkscape:connector-curvature="0" />
	<path style="fill:none;stroke:red;stroke-width:1px;stroke-linecap:butt;stroke-linejoin:miter;stroke-opacity:1" d="M 272.108,388.288 242.318,376.372 z" id="boundary" inkscape:connector-curvature="0" />
	<path style="fill:none;stroke:red;stroke-width:1px;stroke-linecap:butt;stroke-linejoin:miter;stroke-opacity:1" d="M 301.898,388.288 272.108,388.288 z" id="boundary" inkscape:connector-curvature="0" />
	<path style="fill:none;stroke:red;stroke-width:1px;stroke-linecap:butt;stroke-linejoin:miter;stroke-opacity:1" d="M 331.688,382.33 301.898,388.288 z" id="boundary" inkscape:connector-curvature="0" />
	<path style="fill:none;stroke:red;stroke-width:1px;stroke-linecap:butt;stroke-linejoin:miter;stroke-opacity:1" d="M 421.057,370.414 450.847,370.414 z" id="boundary" inkscape:connector-curvature="0" />
	<path style="fill:none;stroke:red;stroke-width:1px;stroke-linecap:butt;stroke-linejoin:miter;stroke-opacity:1" d="M 197.634,292.961 167.844,301.898 z" id="boundary" inkscape:connector-curvature="0" />
	<path style="fill:none;stroke:red;stroke-width:1px;stroke-linecap:butt;stroke-linejoin:miter;stroke-opacity:1" d="M 480.637,63.5796 510.426,57.6216 z" id="boundary" inkscape:connector-curvature="0" />
	<path style="fill:none;stroke:red;stroke-width:1px;stroke-linecap:butt;stroke-linejoin:miter;stroke-opacity:1" d="M 570.006,33.7898 599.796,24.8529 z" id="boundary" inkscape:connector-curvature="0" />
	<path style="fill:none;stroke:red;stroke-width:1px;stroke-linecap:butt;stroke-linejoin:miter;stroke-opacity:1" d="M 626.607,9.95796 599.796,24.8529 z" id="boundary" inkscape:connector-curvature="0" />
	<path style="fill:none;stroke:red;stroke-width:1px;stroke-linecap:butt;stroke-linejoin:miter;stroke-opacity:1" d="M 626.607,9.95796 656.396,4 z" id="boundary" inkscape:connector-curvature="0" />
	<path style="fill:none;stroke:red;stroke-width:1px;stroke-linecap:butt;stroke-linejoin:miter;stroke-opacity:1" d="M 656.396,4 674.27,27.8318 z" id="boundary" inkscape:connector-curvature="0" />
	<path style="fill:none;stroke:red;stroke-width:1px;stroke-linecap:butt;stroke-linejoin:miter;stroke-opacity:1" d="M 570.006,33.7898 540.216,45.7057 z" id="boundary" inkscape:connector-curvature="0" />
	<path style="fill:none;stroke:red;stroke-width:1px;stroke-linecap:butt;stroke-linejoin:miter;stroke-opacity:1" d="M 674.27,27.8318 689.165,54.6426 z" id="boundary" inkscape:connector-curvature="0" />
	<path style="fill:none;stroke:red;stroke-width:1px;stroke-linecap:butt;stroke-linejoin:miter;stroke-opacity:1" d="M 510.426,57.6216 540.216,45.7057 z" id="boundary" inkscape:connector-curvature="0" />
	<path style="fill:none;stroke:red;stroke-width:1px;stroke-linecap:butt;stroke-linejoin:miter;stroke-opacity:1" d="M 733.85,111.243 704.06,99.3273 z" id="boundary" inkscape:connector-curvature="0" />
	<path style="fill:none;stroke:red;stroke-width:1px;stroke-linecap:butt;stroke-linejoin:miter;stroke-opacity:1" d="M 704.06,99.3273 689.165,54.6426 z" id="boundary" inkscape:connector-curvature="0" />
	<path style="fill:none;stroke:red;stroke-width:1px;stroke-linecap:butt;stroke-linejoin:miter;stroke-opacity:1" d="M 763.64,117.201 733.85,111.243 z" id="boundary" inkscape:connector-curvature="0" />
	<path style="fill:none;stroke:red;stroke-width:1px;stroke-linecap:butt;stroke-linejoin:miter;stroke-opacity:1" d="M 763.64,117.201 793.429,123.159 z" id="boundary" inkscape:connector-curvature="0" />
	<path style="fill:none;stroke:red;stroke-width:1px;stroke-linecap:butt;stroke-linejoin:miter;stroke-opacity:1" d="M 882.799,152.949 853.009,146.991 z" id="boundary" inkscape:connector-curvature="0" />
	<path style="fill:none;stroke:red;stroke-width:1px;stroke-linecap:butt;stroke-linejoin:miter;stroke-opacity:1" d="M 853.009,146.991 823.219,135.075 z" id="boundary" inkscape:connector-curvature="0" />
	<path style="fill:none;stroke:red;stroke-width:1px;stroke-linecap:butt;stroke-linejoin:miter;stroke-opacity:1" d="M 823.219,135.075 793.429,123.159 z" id="boundary" inkscape:connector-curvature="0" />
	<path style="fill:none;stroke:red;stroke-width:1px;stroke-linecap:butt;stroke-linejoin:miter;stroke-opacity:1" d="M 882.799,152.949 906.631,170.823 z" id="boundary" inkscape:connector-curvature="0" />
	<path style="fill:none;stroke:red;stroke-width:1px;stroke-linecap:butt;stroke-linejoin:miter;stroke-opacity:1" d="M 906.631,170.823 936.42,182.739 z" id="boundary" inkscape:connector-curvature="0" />
	<path style="fill:none;stroke:red;stroke-width:1px;stroke-linecap:butt;stroke-linejoin:miter;stroke-opacity:1" d="M 966.21,194.655 936.42,182.739 z" id="boundary" inkscape:connector-curvature="0" />
	<path style="fill:none;stroke:red;stroke-width:1px;stroke-linecap:butt;stroke-linejoin:miter;stroke-opacity:1" d="M 996,242.318 975.147,269.129 z" id="boundary" inkscape:connector-curvature="0" />
	<path style="fill:none;stroke:red;stroke-width:1px;stroke-linecap:butt;stroke-linejoin:miter;stroke-opacity:1" d="M 966.21,194.655 993.021,209.55 z" id="boundary" inkscape:connector-curvature="0" />
	<path style="fill:none;stroke:red;stroke-width:1px;stroke-linecap:butt;stroke-linejoin:miter;stroke-opacity:1" d="M 993.021,209.55 996,242.318 z" id="boundary" inkscape:connector-curvature="0" />
	<path style="fill:none;stroke:red;stroke-width:1px;stroke-linecap:butt;stroke-linejoin:miter;stroke-opacity:1" d="M 975.147,269.129 951.315,292.961 z" id="boundary" inkscape:connector-curvature="0" />
	<path style="fill:none;stroke:red;stroke-width:1px;stroke-linecap:butt;stroke-linejoin:miter;stroke-opacity:1" d="M 480.637,370.414 510.426,376.372 z" id="boundary" inkscape:connector-curvature="0" />
	<path style="fill:none;stroke:red;stroke-width:1px;stroke-linecap:butt;stroke-linejoin:miter;stroke-opacity:1" d="M 540.216,376.372 510.426,376.372 z" id="boundary" inkscape:connector-curvature="0" />
	<path style="fill:none;stroke:red;stroke-width:1px;stroke-linecap:butt;stroke-linejoin:miter;stroke-opacity:1" d="M 546.174,406.162 546.174,435.952 z" id="boundary" inkscape:connector-curvature="0" />
	<path style="fill:none;stroke:red;stroke-width:1px;stroke-linecap:butt;stroke-linejoin:miter;stroke-opacity:1" d="M 540.216,376.372 546.174,406.162 z" id="boundary" inkscape:connector-curvature="0" />
	<path style="fill:none;stroke:red;stroke-width:1px;stroke-linecap:butt;stroke-linejoin:miter;stroke-opacity:1" d="M 546.174,435.952 552.132,465.742 z" id="boundary" inkscape:connector-curvature="0" />
	<path style="fill:none;stroke:red;stroke-width:1px;stroke-linecap:butt;stroke-linejoin:miter;stroke-opacity:1" d="M 552.132,465.742 575.964,483.616 z" id="boundary" inkscape:connector-curvature="0" />
	<path style="fill:none;stroke:red;stroke-width:1px;stroke-linecap:butt;stroke-linejoin:miter;stroke-opacity:1" d="M 605.754,477.658 575.964,483.616 z" id="boundary" inkscape:connector-curvature="0" />
	<path style="fill:none;stroke:red;stroke-width:1px;stroke-linecap:butt;stroke-linejoin:miter;stroke-opacity:1" d="M 689.165,453.826 665.333,477.658 z" id="boundary" inkscape:connector-curvature="0" />
	<path style="fill:none;stroke:red;stroke-width:1px;stroke-linecap:butt;stroke-linejoin:miter;stroke-opacity:1" d="M 665.333,477.658 635.544,483.616 z" id="boundary" inkscape:connector-curvature="0" />
	<path style="fill:none;stroke:red;stroke-width:1px;stroke-linecap:butt;stroke-linejoin:miter;stroke-opacity:1" d="M 605.754,477.658 635.544,483.616 z" id="boundary" inkscape:connector-curvature="0" />
	<path style="fill:none;stroke:red;stroke-width:1px;stroke-linecap:butt;stroke-linejoin:miter;stroke-opacity:1" d="M 841.093,352.541 870.883,343.604 z" id="boundary" inkscape:connector-curvature="0" />
	<path style="fill:none;stroke:red;stroke-width:1px;stroke-linecap:butt;stroke-linejoin:miter;stroke-opacity:1" d="M 811.303,364.456 841.093,352.541 z" id="boundary" inkscape:connector-curvature="0" />
	<path style="fill:none;stroke:red;stroke-width:1px;stroke-linecap:butt;stroke-linejoin:miter;stroke-opacity:1" d="M 927.483,316.793 900.673,331.688 z" id="boundary" inkscape:connector-curvature="0" />
	<path style="fill:none;stroke:red;stroke-width:1px;stroke-linecap:butt;stroke-linejoin:miter;stroke-opacity:1" d="M 900.673,331.688 870.883,343.604 z" id="boundary" inkscape:connector-curvature="0" />
	<path style="fill:none;stroke:red;stroke-width:1px;stroke-linecap:butt;stroke-linejoin:miter;stroke-opacity:1" d="M 811.303,364.456 781.514,376.372 z" id="boundary" inkscape:connector-curvature="0" />
	<path style="fill:none;stroke:red;stroke-width:1px;stroke-linecap:butt;stroke-linejoin:miter;stroke-opacity:1" d="M 707.039,429.994 689.165,453.826 z" id="boundary" inkscape:connector-curvature="0" />
	<path style="fill:none;stroke:red;stroke-width:1px;stroke-linecap:butt;stroke-linejoin:miter;stroke-opacity:1" d="M 721.934,391.267 707.039,429.994 z" id="boundary" inkscape:connector-curvature="0" />
	<path style="fill:none;stroke:red;stroke-width:1px;stroke-linecap:butt;stroke-linejoin:miter;stroke-opacity:1" d="M 721.934,391.267 751.724,382.33 z" id="boundary" inkscape:connector-curvature="0" />
	<path style="fill:none;stroke:red;stroke-width:1px;stroke-linecap:butt;stroke-linejoin:miter;stroke-opacity:1" d="M 781.514,376.372 751.724,382.33 z" id="boundary" inkscape:connector-curvature="0" />
	<path style="fill:none;stroke:red;stroke-width:1px;stroke-linecap:butt;stroke-linejoin:miter;stroke-opacity:1" d="M 951.315,292.961 927.483,316.793 z" id="boundary" inkscape:connector-curvature="0" />
	<circle cx="4" cy="135.075" r="4" fill="#0" id="circle0"/>
	<circle cx="4" cy="337.646" r="4" fill="#0" id="circle1"/>
	<circle cx="9.95796" cy="164.865" r="4" fill="#0" id="circle2"/>
	<circle cx="15.9159" cy="194.655" r="4" fill="#0" id="circle3"/>
	<circle cx="15.9159" cy="295.94" r="4" fill="#0" id="circle4"/>
	<circle cx="21.8739" cy="224.444" r="4" fill="#0" id="circle5"/>
	<circle cx="21.8739" cy="254.234" r="4" fill="#0" id="circle6"/>
	<circle cx="27.8318" cy="358.498" r="4" fill="#0" id="circle7"/>
	<circle cx="33.7898" cy="129.117" r="4" fill="#0" id="circle8"/>
	<circle cx="57.6216" cy="358.498" r="4" fill="#0" id="circle9"/>
	<circle cx="63.5796" cy="138.054" r="4" fill="#0" id="circle10"/>
	<circle cx="87.4114" cy="346.583" r="4" fill="#0" id="circle11"/>
	<circle cx="93.3694" cy="146.991" r="4" fill="#0" id="circle12"/>
	<circle cx="117.201" cy="334.667" r="4" fill="#0" id="circle13"/>
	<circle cx="120.18" cy="161.886" r="4" fill="#0" id="circle14"/>
	<circle cx="144.012" cy="319.772" r="4" fill="#0" id="circle15"/>
	<circle cx="146.991" cy="176.781" r="4" fill="#0" id="circle16"/>
	<circle cx="167.844" cy="301.898" r="4" fill="#0" id="circle17"/>
	<circle cx="176.781" cy="188.697" r="4" fill="#0" id="circle18"/>
	<circle cx="197.634" cy="292.961" r="4" fill="#0" id="circle19"/>
	<circle cx="206.571" cy="194.655" r="4" fill="#0" id="circle20"/>
	<circle cx="218.486" cy="316.793" r="4" fill="#0" id="circle21"/>
	<circle cx="224.444" cy="170.823" r="4" fill="#0" id="circle22"/>
	<circle cx="230.402" cy="346.583" r="4" fill="#0" id="circle23"/>
	<circle cx="242.318" cy="146.991" r="4" fill="#0" id="circle24"/>
	<circle cx="242.318" cy="376.372" r="4" fill="#0" id="circle25"/>
	<circle cx="266.15" cy="123.159" r="4" fill="#0" id="circle26"/>
	<circle cx="272.108" cy="388.288" r="4" fill="#0" id="circle27"/>
	<circle cx="289.982" cy="105.285" r="4" fill="#0" id="circle28"/>
	<circle cx="301.898" cy="388.288" r="4" fill="#0" id="circle29"/>
	<circle cx="313.814" cy="87.4114" r="4" fill="#0" id="circle30"/>
	<circle cx="331.688" cy="382.33" r="4" fill="#0" id="circle31"/>
	<circle cx="343.604" cy="81.4535" r="4" fill="#0" id="circle32"/>
	<circle cx="361.477" cy="370.414" r="4" fill="#0" id="circle33"/>
	<circle cx="373.393" cy="93.3694" r="4" fill="#0" id="circle34"/>
	<circle cx="391.267" cy="364.456" r="4" fill="#0" id="circle35"/>
	<circle cx="403.183" cy="105.285" r="4" fill="#0" id="circle36"/>
	<circle cx="421.057" cy="370.414" r="4" fill="#0" id="circle37"/>
	<circle cx="432.973" cy="99.3273" r="4" fill="#0" id="circle38"/>
	<circle cx="450.847" cy="370.414" r="4" fill="#0" id="circle39"/>
	<circle cx="456.805" cy="81.4535" r="4" fill="#0" id="circle40"/>
	<circle cx="480.637" cy="63.5796" r="4" fill="#0" id="circle41"/>
	<circle cx="480.637" cy="370.414" r="4" fill="#0" id="circle42"/>
	<circle cx="510.426" cy="57.6216" r="4" fill="#0" id="circle43"/>
	<circle cx="510.426" cy="376.372" r="4" fill="#0" id="circle44"/>
	<circle cx="540.216" cy="45.7057" r="4" fill="#0" id="circle45"/>
	<circle cx="540.216" cy="376.372" r="4" fill="#0" id="circle46"/>
	<circle cx="546.174" cy="406.162" r="4" fill="#0" id="circle47"/>
	<circle cx="546.174" cy="435.952" r="4" fill="#0" id="circle48"/>
	<circle cx="552.132" cy="465.742" r="4" fill="#0" id="circle49"/>
	<circle cx="570.006" cy="33.7898" r="4" fill="#0" id="circle50"/>
	<circle cx="575.964" cy="483.616" r="4" fill="#0" id="circle51"/>
	<circle cx="599.796" cy="24.8529" r="4" fill="#0" id="circle52"/>
	<circle cx="605.754" cy="477.658" r="4" fill="#0" id="circle53"/>
	<circle cx="626.607" cy="9.95796" r="4" fill="#0" id="circle54"/>
	<circle cx="635.544" cy="483.616" r="4" fill="#0" id="circle55"/>
	<circle cx="656.396" cy="4" r="4" fill="#0" id="circle56"/>
	<circle cx="665.333" cy="477.658" r="4" fill="#0" id="circle57"/>
	<circle cx="674.27" cy="27.8318" r="4" fill="#0" id="circle58"/>
	<circle cx="689.165" cy="54.6426" r="4" fill="#0" id="circle59"/>
	<circle cx="689.165" cy="453.826" r="4" fill="#0" id="circle60"/>
	<circle cx="704.06" cy="99.3273" r="4" fill="#0" id="circle61"/>
	<circle cx="707.039" cy="429.994" r="4" fill="#0" id="circle62"/>
	<circle cx="721.934" cy="391.267" r="4" fill="#0" id="circle63"/>
	<circle cx="733.85" cy="111.243" r="4" fill="#0" id="circle64"/>
	<circle cx="751.724" cy="382.33" r="4" fill="#0" id="circle65"/>
	<circle cx="763.64" cy="117.201" r="4" fill="#0" id="circle66"/>
	<circle cx="781.514" cy="376.372" r="4" fill="#0" id="circle67"/>
	<circle cx="793.429" cy="123.159" r="4" fill="#0" id="circle68"/>
	<circle cx="811.303" cy="364.456" r="4" fill="#0" id="circle69"/>
	<circle cx="823.219" cy="135.075" r="4" fill="#0" id="circle70"/>
	<circle cx="841.093" cy="352.541" r="4" fill="#0" id="circle71"/>
	<circle cx="853.009" cy="146.991" r="4" fill="#0" id="circle72"/>
	<circle cx="870.883" cy="343.604" r="4" fill="#0" id="circle73"/>
	<circle cx="882.799" cy="152.949" r="4" fill="#0" id="circle74"/>
	<circle cx="900.673" cy="331.688" r="4" fill="#0" id="circle75"/>
	<circle cx="906.631" cy="170.823" r="4" fill="#0" id="circle76"/>
	<circle cx="927.483" cy="316.793" r="4" fill="#0" id="circle77"/>
	<circle cx="936.42" cy="182.739" r="4" fill="#0" id="circle78"/>
	<circle cx="951.315" cy="292.961" r="4" fill="#0" id="circle79"/>
	<circle cx="966.21" cy="194.655" r="4" fill="#0" id="circle80"/>
	<circle cx="975.147" cy="269.129" r="4" fill="#0" id="circle81"/>
	<circle cx="993.021" cy="209.55" r="4" fill="#0" id="circle82"/>
	<circle cx="996" cy="242.318" r="4" fill="#0" id="circle83"/>
	</g>
</svg>