<?xml version="1.0" encoding="UTF-8" standalone="no"?>
<!-- Created with CurveBenchmark -->
<svg
	xmlns:dc="http://purl.org/dc/elements/1.1/"
	xmlns:cc="http://creativecommons.org/ns#"
	xmlns:rdf="http://www.w3.org/1999/02/22-rdf-syntax-ns#"
	xmlns:svg="http://www.w3.org/2000/svg"
	xmlns="http://www.w3.org/2000/svg"
	xmlns:sodipodi="http://sodipodi.sourceforge.net/DTD/sodipodi-0.dtd"
	xmlns:inkscape="http://www.inkscape.org/namespaces/inkscape"
	width="1000"
	height="1000"
	id="svg2"
	version="1.1"
	sodipodi:docname="manifold/gathang-brick20.png.txt">
<defs
	id="defs4" />
<metadata
	id="metadata7">
	<rdf:RDF>
		<cc:Work
			rdf:about="">
			<dc:format>image/svg+xml</dc:format>
			<dc:type
				rdf:resource="http://purl.org/dc/dcmitype/StillImage" />
			<dc:title></dc:title>
		</cc:Work>
	</rdf:RDF>
</metadata>
<g
	inkscape:label="Layer 1"
	inkscape:groupmode="layer"
	id="layer1">
	<path style="fill:none;stroke:red;stroke-width:1px;stroke-linecap:butt;stroke-linejoin:miter;stroke-opacity:1" d="M 97.4087,15.209 116.09,9.60452 z" id="boundary" inkscape:connector-curvature="0" />
	<path style="fill:none;stroke:red;stroke-width:1px;stroke-linecap:butt;stroke-linejoin:miter;stroke-opacity:1" d="M 134.772,9.60452 116.09,9.60452 z" id="boundary" inkscape:connector-curvature="0" />
	<path style="fill:none;stroke:red;stroke-width:1px;stroke-linecap:butt;stroke-linejoin:miter;stroke-opacity:1" d="M 97.4087,50.7043 88.0678,33.8908 z" id="boundary" inkscape:connector-curvature="0" />
	<path style="fill:none;stroke:red;stroke-width:1px;stroke-linecap:butt;stroke-linejoin:miter;stroke-opacity:1" d="M 88.0678,33.8908 97.4087,15.209 z" id="boundary" inkscape:connector-curvature="0" />
	<path style="fill:none;stroke:red;stroke-width:1px;stroke-linecap:butt;stroke-linejoin:miter;stroke-opacity:1" d="M 134.772,9.60452 153.454,9.60452 z" id="boundary" inkscape:connector-curvature="0" />
	<path style="fill:none;stroke:red;stroke-width:1px;stroke-linecap:butt;stroke-linejoin:miter;stroke-opacity:1" d="M 172.136,9.60452 153.454,9.60452 z" id="boundary" inkscape:connector-curvature="0" />
	<path style="fill:none;stroke:red;stroke-width:1px;stroke-linecap:butt;stroke-linejoin:miter;stroke-opacity:1" d="M 172.136,9.60452 190.817,9.60452 z" id="boundary" inkscape:connector-curvature="0" />
	<path style="fill:none;stroke:red;stroke-width:1px;stroke-linecap:butt;stroke-linejoin:miter;stroke-opacity:1" d="M 209.499,9.60452 190.817,9.60452 z" id="boundary" inkscape:connector-curvature="0" />
	<path style="fill:none;stroke:red;stroke-width:1px;stroke-linecap:butt;stroke-linejoin:miter;stroke-opacity:1" d="M 97.4087,50.7043 106.75,67.5179 z" id="boundary" inkscape:connector-curvature="0" />
	<path style="fill:none;stroke:red;stroke-width:1px;stroke-linecap:butt;stroke-linejoin:miter;stroke-opacity:1" d="M 80.5951,162.795 99.2768,153.454 z" id="boundary" inkscape:connector-curvature="0" />
	<path style="fill:none;stroke:red;stroke-width:1px;stroke-linecap:butt;stroke-linejoin:miter;stroke-opacity:1" d="M 106.75,67.5179 116.09,84.3315 z" id="boundary" inkscape:connector-curvature="0" />
	<path style="fill:none;stroke:red;stroke-width:1px;stroke-linecap:butt;stroke-linejoin:miter;stroke-opacity:1" d="M 116.09,84.3315 125.431,101.145 z" id="boundary" inkscape:connector-curvature="0" />
	<path style="fill:none;stroke:red;stroke-width:1px;stroke-linecap:butt;stroke-linejoin:miter;stroke-opacity:1" d="M 125.431,101.145 125.431,119.827 z" id="boundary" inkscape:connector-curvature="0" />
	<path style="fill:none;stroke:red;stroke-width:1px;stroke-linecap:butt;stroke-linejoin:miter;stroke-opacity:1" d="M 114.222,140.377 125.431,119.827 z" id="boundary" inkscape:connector-curvature="0" />
	<path style="fill:none;stroke:red;stroke-width:1px;stroke-linecap:butt;stroke-linejoin:miter;stroke-opacity:1" d="M 114.222,140.377 99.2768,153.454 z" id="boundary" inkscape:connector-curvature="0" />
	<path style="fill:none;stroke:red;stroke-width:1px;stroke-linecap:butt;stroke-linejoin:miter;stroke-opacity:1" d="M 209.499,9.60452 228.181,9.60452 z" id="boundary" inkscape:connector-curvature="0" />
	<path style="fill:none;stroke:red;stroke-width:1px;stroke-linecap:butt;stroke-linejoin:miter;stroke-opacity:1" d="M 80.5951,162.795 61.9134,172.136 z" id="boundary" inkscape:connector-curvature="0" />
	<path style="fill:none;stroke:red;stroke-width:1px;stroke-linecap:butt;stroke-linejoin:miter;stroke-opacity:1" d="M 246.863,9.60452 265.544,5.86817 z" id="boundary" inkscape:connector-curvature="0" />
	<path style="fill:none;stroke:red;stroke-width:1px;stroke-linecap:butt;stroke-linejoin:miter;stroke-opacity:1" d="M 284.226,4 265.544,5.86817 z" id="boundary" inkscape:connector-curvature="0" />
	<path style="fill:none;stroke:red;stroke-width:1px;stroke-linecap:butt;stroke-linejoin:miter;stroke-opacity:1" d="M 246.863,9.60452 228.181,9.60452 z" id="boundary" inkscape:connector-curvature="0" />
	<path style="fill:none;stroke:red;stroke-width:1px;stroke-linecap:butt;stroke-linejoin:miter;stroke-opacity:1" d="M 284.226,4 301.04,13.3409 z" id="boundary" inkscape:connector-curvature="0" />
	<path style="fill:none;stroke:red;stroke-width:1px;stroke-linecap:butt;stroke-linejoin:miter;stroke-opacity:1" d="M 319.721,20.8136 336.535,30.1544 z" id="boundary" inkscape:connector-curvature="0" />
	<path style="fill:none;stroke:red;stroke-width:1px;stroke-linecap:butt;stroke-linejoin:miter;stroke-opacity:1" d="M 319.721,20.8136 301.04,13.3409 z" id="boundary" inkscape:connector-curvature="0" />
	<path style="fill:none;stroke:red;stroke-width:1px;stroke-linecap:butt;stroke-linejoin:miter;stroke-opacity:1" d="M 355.217,37.6271 336.535,30.1544 z" id="boundary" inkscape:connector-curvature="0" />
	<path style="fill:none;stroke:red;stroke-width:1px;stroke-linecap:butt;stroke-linejoin:miter;stroke-opacity:1" d="M 355.217,37.6271 372.03,46.968 z" id="boundary" inkscape:connector-curvature="0" />
	<path style="fill:none;stroke:red;stroke-width:1px;stroke-linecap:butt;stroke-linejoin:miter;stroke-opacity:1" d="M 388.844,56.3089 372.03,46.968 z" id="boundary" inkscape:connector-curvature="0" />
	<path style="fill:none;stroke:red;stroke-width:1px;stroke-linecap:butt;stroke-linejoin:miter;stroke-opacity:1" d="M 407.525,56.3089 388.844,56.3089 z" id="boundary" inkscape:connector-curvature="0" />
	<path style="fill:none;stroke:red;stroke-width:1px;stroke-linecap:butt;stroke-linejoin:miter;stroke-opacity:1" d="M 426.207,56.3089 407.525,56.3089 z" id="boundary" inkscape:connector-curvature="0" />
	<path style="fill:none;stroke:red;stroke-width:1px;stroke-linecap:butt;stroke-linejoin:miter;stroke-opacity:1" d="M 461.702,46.968 480.384,46.968 z" id="boundary" inkscape:connector-curvature="0" />
	<path style="fill:none;stroke:red;stroke-width:1px;stroke-linecap:butt;stroke-linejoin:miter;stroke-opacity:1" d="M 444.889,56.3089 461.702,46.968 z" id="boundary" inkscape:connector-curvature="0" />
	<path style="fill:none;stroke:red;stroke-width:1px;stroke-linecap:butt;stroke-linejoin:miter;stroke-opacity:1" d="M 426.207,56.3089 444.889,56.3089 z" id="boundary" inkscape:connector-curvature="0" />
	<path style="fill:none;stroke:red;stroke-width:1px;stroke-linecap:butt;stroke-linejoin:miter;stroke-opacity:1" d="M 480.384,46.968 499.066,46.968 z" id="boundary" inkscape:connector-curvature="0" />
	<path style="fill:none;stroke:red;stroke-width:1px;stroke-linecap:butt;stroke-linejoin:miter;stroke-opacity:1" d="M 517.748,43.2316 499.066,46.968 z" id="boundary" inkscape:connector-curvature="0" />
	<path style="fill:none;stroke:red;stroke-width:1px;stroke-linecap:butt;stroke-linejoin:miter;stroke-opacity:1" d="M 4,230.049 13.3409,211.367 z" id="boundary" inkscape:connector-curvature="0" />
	<path style="fill:none;stroke:red;stroke-width:1px;stroke-linecap:butt;stroke-linejoin:miter;stroke-opacity:1" d="M 18.9454,261.808 4,248.731 z" id="boundary" inkscape:connector-curvature="0" />
	<path style="fill:none;stroke:red;stroke-width:1px;stroke-linecap:butt;stroke-linejoin:miter;stroke-opacity:1" d="M 4,248.731 4,230.049 z" id="boundary" inkscape:connector-curvature="0" />
	<path style="fill:none;stroke:red;stroke-width:1px;stroke-linecap:butt;stroke-linejoin:miter;stroke-opacity:1" d="M 13.3409,211.367 32.0226,202.026 z" id="boundary" inkscape:connector-curvature="0" />
	<path style="fill:none;stroke:red;stroke-width:1px;stroke-linecap:butt;stroke-linejoin:miter;stroke-opacity:1" d="M 32.0226,202.026 46.968,187.081 z" id="boundary" inkscape:connector-curvature="0" />
	<path style="fill:none;stroke:red;stroke-width:1px;stroke-linecap:butt;stroke-linejoin:miter;stroke-opacity:1" d="M 52.5725,273.017 33.8908,273.017 z" id="boundary" inkscape:connector-curvature="0" />
	<path style="fill:none;stroke:red;stroke-width:1px;stroke-linecap:butt;stroke-linejoin:miter;stroke-opacity:1" d="M 33.8908,273.017 18.9454,261.808 z" id="boundary" inkscape:connector-curvature="0" />
	<path style="fill:none;stroke:red;stroke-width:1px;stroke-linecap:butt;stroke-linejoin:miter;stroke-opacity:1" d="M 46.968,187.081 61.9134,172.136 z" id="boundary" inkscape:connector-curvature="0" />
	<path style="fill:none;stroke:red;stroke-width:1px;stroke-linecap:butt;stroke-linejoin:miter;stroke-opacity:1" d="M 52.5725,273.017 71.2542,273.017 z" id="boundary" inkscape:connector-curvature="0" />
	<path style="fill:none;stroke:red;stroke-width:1px;stroke-linecap:butt;stroke-linejoin:miter;stroke-opacity:1" d="M 89.936,273.017 108.618,273.017 z" id="boundary" inkscape:connector-curvature="0" />
	<path style="fill:none;stroke:red;stroke-width:1px;stroke-linecap:butt;stroke-linejoin:miter;stroke-opacity:1" d="M 89.936,273.017 71.2542,273.017 z" id="boundary" inkscape:connector-curvature="0" />
	<path style="fill:none;stroke:red;stroke-width:1px;stroke-linecap:butt;stroke-linejoin:miter;stroke-opacity:1" d="M 127.299,273.017 145.981,273.017 z" id="boundary" inkscape:connector-curvature="0" />
	<path style="fill:none;stroke:red;stroke-width:1px;stroke-linecap:butt;stroke-linejoin:miter;stroke-opacity:1" d="M 127.299,273.017 108.618,273.017 z" id="boundary" inkscape:connector-curvature="0" />
	<path style="fill:none;stroke:red;stroke-width:1px;stroke-linecap:butt;stroke-linejoin:miter;stroke-opacity:1" d="M 164.663,273.017 183.345,273.017 z" id="boundary" inkscape:connector-curvature="0" />
	<path style="fill:none;stroke:red;stroke-width:1px;stroke-linecap:butt;stroke-linejoin:miter;stroke-opacity:1" d="M 164.663,273.017 145.981,273.017 z" id="boundary" inkscape:connector-curvature="0" />
	<path style="fill:none;stroke:red;stroke-width:1px;stroke-linecap:butt;stroke-linejoin:miter;stroke-opacity:1" d="M 202.026,273.017 220.708,276.753 z" id="boundary" inkscape:connector-curvature="0" />
	<path style="fill:none;stroke:red;stroke-width:1px;stroke-linecap:butt;stroke-linejoin:miter;stroke-opacity:1" d="M 220.708,276.753 237.522,286.094 z" id="boundary" inkscape:connector-curvature="0" />
	<path style="fill:none;stroke:red;stroke-width:1px;stroke-linecap:butt;stroke-linejoin:miter;stroke-opacity:1" d="M 202.026,273.017 183.345,273.017 z" id="boundary" inkscape:connector-curvature="0" />
	<path style="fill:none;stroke:red;stroke-width:1px;stroke-linecap:butt;stroke-linejoin:miter;stroke-opacity:1" d="M 237.522,286.094 256.203,291.699 z" id="boundary" inkscape:connector-curvature="0" />
	<path style="fill:none;stroke:red;stroke-width:1px;stroke-linecap:butt;stroke-linejoin:miter;stroke-opacity:1" d="M 256.203,291.699 273.017,301.04 z" id="boundary" inkscape:connector-curvature="0" />
	<path style="fill:none;stroke:red;stroke-width:1px;stroke-linecap:butt;stroke-linejoin:miter;stroke-opacity:1" d="M 273.017,301.04 289.831,310.38 z" id="boundary" inkscape:connector-curvature="0" />
	<path style="fill:none;stroke:red;stroke-width:1px;stroke-linecap:butt;stroke-linejoin:miter;stroke-opacity:1" d="M 476.648,310.38 495.33,310.38 z" id="boundary" inkscape:connector-curvature="0" />
	<path style="fill:none;stroke:red;stroke-width:1px;stroke-linecap:butt;stroke-linejoin:miter;stroke-opacity:1" d="M 457.966,317.853 476.648,310.38 z" id="boundary" inkscape:connector-curvature="0" />
	<path style="fill:none;stroke:red;stroke-width:1px;stroke-linecap:butt;stroke-linejoin:miter;stroke-opacity:1" d="M 401.921,319.721 383.239,319.721 z" id="boundary" inkscape:connector-curvature="0" />
	<path style="fill:none;stroke:red;stroke-width:1px;stroke-linecap:butt;stroke-linejoin:miter;stroke-opacity:1" d="M 308.512,317.853 327.194,319.721 z" id="boundary" inkscape:connector-curvature="0" />
	<path style="fill:none;stroke:red;stroke-width:1px;stroke-linecap:butt;stroke-linejoin:miter;stroke-opacity:1" d="M 308.512,317.853 289.831,310.38 z" id="boundary" inkscape:connector-curvature="0" />
	<path style="fill:none;stroke:red;stroke-width:1px;stroke-linecap:butt;stroke-linejoin:miter;stroke-opacity:1" d="M 345.876,319.721 364.557,319.721 z" id="boundary" inkscape:connector-curvature="0" />
	<path style="fill:none;stroke:red;stroke-width:1px;stroke-linecap:butt;stroke-linejoin:miter;stroke-opacity:1" d="M 345.876,319.721 327.194,319.721 z" id="boundary" inkscape:connector-curvature="0" />
	<path style="fill:none;stroke:red;stroke-width:1px;stroke-linecap:butt;stroke-linejoin:miter;stroke-opacity:1" d="M 383.239,319.721 364.557,319.721 z" id="boundary" inkscape:connector-curvature="0" />
	<path style="fill:none;stroke:red;stroke-width:1px;stroke-linecap:butt;stroke-linejoin:miter;stroke-opacity:1" d="M 401.921,319.721 420.603,319.721 z" id="boundary" inkscape:connector-curvature="0" />
	<path style="fill:none;stroke:red;stroke-width:1px;stroke-linecap:butt;stroke-linejoin:miter;stroke-opacity:1" d="M 439.284,319.721 420.603,319.721 z" id="boundary" inkscape:connector-curvature="0" />
	<path style="fill:none;stroke:red;stroke-width:1px;stroke-linecap:butt;stroke-linejoin:miter;stroke-opacity:1" d="M 439.284,319.721 457.966,317.853 z" id="boundary" inkscape:connector-curvature="0" />
	<path style="fill:none;stroke:red;stroke-width:1px;stroke-linecap:butt;stroke-linejoin:miter;stroke-opacity:1" d="M 495.33,310.38 514.011,310.38 z" id="boundary" inkscape:connector-curvature="0" />
	<path style="fill:none;stroke:red;stroke-width:1px;stroke-linecap:butt;stroke-linejoin:miter;stroke-opacity:1" d="M 573.793,37.6271 555.111,37.6271 z" id="boundary" inkscape:connector-curvature="0" />
	<path style="fill:none;stroke:red;stroke-width:1px;stroke-linecap:butt;stroke-linejoin:miter;stroke-opacity:1" d="M 555.111,37.6271 536.429,37.6271 z" id="boundary" inkscape:connector-curvature="0" />
	<path style="fill:none;stroke:red;stroke-width:1px;stroke-linecap:butt;stroke-linejoin:miter;stroke-opacity:1" d="M 629.838,28.2863 611.156,33.8908 z" id="boundary" inkscape:connector-curvature="0" />
	<path style="fill:none;stroke:red;stroke-width:1px;stroke-linecap:butt;stroke-linejoin:miter;stroke-opacity:1" d="M 611.156,33.8908 592.475,37.6271 z" id="boundary" inkscape:connector-curvature="0" />
	<path style="fill:none;stroke:red;stroke-width:1px;stroke-linecap:butt;stroke-linejoin:miter;stroke-opacity:1" d="M 592.475,37.6271 573.793,37.6271 z" id="boundary" inkscape:connector-curvature="0" />
	<path style="fill:none;stroke:red;stroke-width:1px;stroke-linecap:butt;stroke-linejoin:miter;stroke-opacity:1" d="M 517.748,43.2316 536.429,37.6271 z" id="boundary" inkscape:connector-curvature="0" />
	<path style="fill:none;stroke:red;stroke-width:1px;stroke-linecap:butt;stroke-linejoin:miter;stroke-opacity:1" d="M 648.52,24.5499 667.202,22.6817 z" id="boundary" inkscape:connector-curvature="0" />
	<path style="fill:none;stroke:red;stroke-width:1px;stroke-linecap:butt;stroke-linejoin:miter;stroke-opacity:1" d="M 667.202,22.6817 684.015,32.0226 z" id="boundary" inkscape:connector-curvature="0" />
	<path style="fill:none;stroke:red;stroke-width:1px;stroke-linecap:butt;stroke-linejoin:miter;stroke-opacity:1" d="M 629.838,28.2863 648.52,24.5499 z" id="boundary" inkscape:connector-curvature="0" />
	<path style="fill:none;stroke:red;stroke-width:1px;stroke-linecap:butt;stroke-linejoin:miter;stroke-opacity:1" d="M 702.697,39.4953 684.015,32.0226 z" id="boundary" inkscape:connector-curvature="0" />
	<path style="fill:none;stroke:red;stroke-width:1px;stroke-linecap:butt;stroke-linejoin:miter;stroke-opacity:1" d="M 702.697,39.4953 719.51,48.8362 z" id="boundary" inkscape:connector-curvature="0" />
	<path style="fill:none;stroke:red;stroke-width:1px;stroke-linecap:butt;stroke-linejoin:miter;stroke-opacity:1" d="M 738.192,56.3089 719.51,48.8362 z" id="boundary" inkscape:connector-curvature="0" />
	<path style="fill:none;stroke:red;stroke-width:1px;stroke-linecap:butt;stroke-linejoin:miter;stroke-opacity:1" d="M 755.006,65.6497 771.819,74.9906 z" id="boundary" inkscape:connector-curvature="0" />
	<path style="fill:none;stroke:red;stroke-width:1px;stroke-linecap:butt;stroke-linejoin:miter;stroke-opacity:1" d="M 790.501,80.5951 771.819,74.9906 z" id="boundary" inkscape:connector-curvature="0" />
	<path style="fill:none;stroke:red;stroke-width:1px;stroke-linecap:butt;stroke-linejoin:miter;stroke-opacity:1" d="M 755.006,65.6497 738.192,56.3089 z" id="boundary" inkscape:connector-curvature="0" />
	<path style="fill:none;stroke:red;stroke-width:1px;stroke-linecap:butt;stroke-linejoin:miter;stroke-opacity:1" d="M 863.36,71.2542 882.041,65.6497 z" id="boundary" inkscape:connector-curvature="0" />
	<path style="fill:none;stroke:red;stroke-width:1px;stroke-linecap:butt;stroke-linejoin:miter;stroke-opacity:1" d="M 900.723,61.9134 882.041,65.6497 z" id="boundary" inkscape:connector-curvature="0" />
	<path style="fill:none;stroke:red;stroke-width:1px;stroke-linecap:butt;stroke-linejoin:miter;stroke-opacity:1" d="M 919.405,52.5725 900.723,61.9134 z" id="boundary" inkscape:connector-curvature="0" />
	<path style="fill:none;stroke:red;stroke-width:1px;stroke-linecap:butt;stroke-linejoin:miter;stroke-opacity:1" d="M 827.864,84.3315 844.678,74.9906 z" id="boundary" inkscape:connector-curvature="0" />
	<path style="fill:none;stroke:red;stroke-width:1px;stroke-linecap:butt;stroke-linejoin:miter;stroke-opacity:1" d="M 844.678,74.9906 863.36,71.2542 z" id="boundary" inkscape:connector-curvature="0" />
	<path style="fill:none;stroke:red;stroke-width:1px;stroke-linecap:butt;stroke-linejoin:miter;stroke-opacity:1" d="M 938.087,46.968 956.768,50.7043 z" id="boundary" inkscape:connector-curvature="0" />
	<path style="fill:none;stroke:red;stroke-width:1px;stroke-linecap:butt;stroke-linejoin:miter;stroke-opacity:1" d="M 956.768,50.7043 967.977,65.6497 z" id="boundary" inkscape:connector-curvature="0" />
	<path style="fill:none;stroke:red;stroke-width:1px;stroke-linecap:butt;stroke-linejoin:miter;stroke-opacity:1" d="M 919.405,52.5725 938.087,46.968 z" id="boundary" inkscape:connector-curvature="0" />
	<path style="fill:none;stroke:red;stroke-width:1px;stroke-linecap:butt;stroke-linejoin:miter;stroke-opacity:1" d="M 809.183,84.3315 790.501,80.5951 z" id="boundary" inkscape:connector-curvature="0" />
	<path style="fill:none;stroke:red;stroke-width:1px;stroke-linecap:butt;stroke-linejoin:miter;stroke-opacity:1" d="M 967.977,65.6497 977.318,82.4633 z" id="boundary" inkscape:connector-curvature="0" />
	<path style="fill:none;stroke:red;stroke-width:1px;stroke-linecap:butt;stroke-linejoin:miter;stroke-opacity:1" d="M 809.183,84.3315 827.864,84.3315 z" id="boundary" inkscape:connector-curvature="0" />
	<path style="fill:none;stroke:red;stroke-width:1px;stroke-linecap:butt;stroke-linejoin:miter;stroke-opacity:1" d="M 949.296,188.949 964.241,175.872 z" id="boundary" inkscape:connector-curvature="0" />
	<path style="fill:none;stroke:red;stroke-width:1px;stroke-linecap:butt;stroke-linejoin:miter;stroke-opacity:1" d="M 973.582,157.19 964.241,175.872 z" id="boundary" inkscape:connector-curvature="0" />
	<path style="fill:none;stroke:red;stroke-width:1px;stroke-linecap:butt;stroke-linejoin:miter;stroke-opacity:1" d="M 977.318,82.4633 986.659,99.2768 z" id="boundary" inkscape:connector-curvature="0" />
	<path style="fill:none;stroke:red;stroke-width:1px;stroke-linecap:butt;stroke-linejoin:miter;stroke-opacity:1" d="M 986.659,142.245 973.582,157.19 z" id="boundary" inkscape:connector-curvature="0" />
	<path style="fill:none;stroke:red;stroke-width:1px;stroke-linecap:butt;stroke-linejoin:miter;stroke-opacity:1" d="M 986.659,99.2768 996,116.09 z" id="boundary" inkscape:connector-curvature="0" />
	<path style="fill:none;stroke:red;stroke-width:1px;stroke-linecap:butt;stroke-linejoin:miter;stroke-opacity:1" d="M 996,116.09 986.659,142.245 z" id="boundary" inkscape:connector-curvature="0" />
	<path style="fill:none;stroke:red;stroke-width:1px;stroke-linecap:butt;stroke-linejoin:miter;stroke-opacity:1" d="M 949.296,188.949 936.218,203.895 z" id="boundary" inkscape:connector-curvature="0" />
	<path style="fill:none;stroke:red;stroke-width:1px;stroke-linecap:butt;stroke-linejoin:miter;stroke-opacity:1" d="M 532.693,310.38 514.011,310.38 z" id="boundary" inkscape:connector-curvature="0" />
	<path style="fill:none;stroke:red;stroke-width:1px;stroke-linecap:butt;stroke-linejoin:miter;stroke-opacity:1" d="M 551.375,310.38 570.056,310.38 z" id="boundary" inkscape:connector-curvature="0" />
	<path style="fill:none;stroke:red;stroke-width:1px;stroke-linecap:butt;stroke-linejoin:miter;stroke-opacity:1" d="M 551.375,310.38 532.693,310.38 z" id="boundary" inkscape:connector-curvature="0" />
	<path style="fill:none;stroke:red;stroke-width:1px;stroke-linecap:butt;stroke-linejoin:miter;stroke-opacity:1" d="M 588.738,310.38 607.42,310.38 z" id="boundary" inkscape:connector-curvature="0" />
	<path style="fill:none;stroke:red;stroke-width:1px;stroke-linecap:butt;stroke-linejoin:miter;stroke-opacity:1" d="M 626.102,310.38 644.783,310.38 z" id="boundary" inkscape:connector-curvature="0" />
	<path style="fill:none;stroke:red;stroke-width:1px;stroke-linecap:butt;stroke-linejoin:miter;stroke-opacity:1" d="M 626.102,310.38 607.42,310.38 z" id="boundary" inkscape:connector-curvature="0" />
	<path style="fill:none;stroke:red;stroke-width:1px;stroke-linecap:butt;stroke-linejoin:miter;stroke-opacity:1" d="M 588.738,310.38 570.056,310.38 z" id="boundary" inkscape:connector-curvature="0" />
	<path style="fill:none;stroke:red;stroke-width:1px;stroke-linecap:butt;stroke-linejoin:miter;stroke-opacity:1" d="M 680.279,319.721 695.224,330.93 z" id="boundary" inkscape:connector-curvature="0" />
	<path style="fill:none;stroke:red;stroke-width:1px;stroke-linecap:butt;stroke-linejoin:miter;stroke-opacity:1" d="M 695.224,330.93 708.301,345.876 z" id="boundary" inkscape:connector-curvature="0" />
	<path style="fill:none;stroke:red;stroke-width:1px;stroke-linecap:butt;stroke-linejoin:miter;stroke-opacity:1" d="M 726.983,353.348 708.301,345.876 z" id="boundary" inkscape:connector-curvature="0" />
	<path style="fill:none;stroke:red;stroke-width:1px;stroke-linecap:butt;stroke-linejoin:miter;stroke-opacity:1" d="M 644.783,310.38 663.465,310.38 z" id="boundary" inkscape:connector-curvature="0" />
	<path style="fill:none;stroke:red;stroke-width:1px;stroke-linecap:butt;stroke-linejoin:miter;stroke-opacity:1" d="M 663.465,310.38 680.279,319.721 z" id="boundary" inkscape:connector-curvature="0" />
	<path style="fill:none;stroke:red;stroke-width:1px;stroke-linecap:butt;stroke-linejoin:miter;stroke-opacity:1" d="M 726.983,353.348 741.928,366.426 z" id="boundary" inkscape:connector-curvature="0" />
	<path style="fill:none;stroke:red;stroke-width:1px;stroke-linecap:butt;stroke-linejoin:miter;stroke-opacity:1" d="M 760.61,366.426 741.928,366.426 z" id="boundary" inkscape:connector-curvature="0" />
	<path style="fill:none;stroke:red;stroke-width:1px;stroke-linecap:butt;stroke-linejoin:miter;stroke-opacity:1" d="M 779.292,366.426 760.61,366.426 z" id="boundary" inkscape:connector-curvature="0" />
	<path style="fill:none;stroke:red;stroke-width:1px;stroke-linecap:butt;stroke-linejoin:miter;stroke-opacity:1" d="M 893.25,244.994 908.196,231.917 z" id="boundary" inkscape:connector-curvature="0" />
	<path style="fill:none;stroke:red;stroke-width:1px;stroke-linecap:butt;stroke-linejoin:miter;stroke-opacity:1" d="M 896.987,263.676 893.25,244.994 z" id="boundary" inkscape:connector-curvature="0" />
	<path style="fill:none;stroke:red;stroke-width:1px;stroke-linecap:butt;stroke-linejoin:miter;stroke-opacity:1" d="M 896.987,263.676 906.328,280.49 z" id="boundary" inkscape:connector-curvature="0" />
	<path style="fill:none;stroke:red;stroke-width:1px;stroke-linecap:butt;stroke-linejoin:miter;stroke-opacity:1" d="M 908.196,231.917 921.273,216.972 z" id="boundary" inkscape:connector-curvature="0" />
	<path style="fill:none;stroke:red;stroke-width:1px;stroke-linecap:butt;stroke-linejoin:miter;stroke-opacity:1" d="M 911.932,299.171 906.328,280.49 z" id="boundary" inkscape:connector-curvature="0" />
	<path style="fill:none;stroke:red;stroke-width:1px;stroke-linecap:butt;stroke-linejoin:miter;stroke-opacity:1" d="M 911.932,299.171 921.273,315.985 z" id="boundary" inkscape:connector-curvature="0" />
	<path style="fill:none;stroke:red;stroke-width:1px;stroke-linecap:butt;stroke-linejoin:miter;stroke-opacity:1" d="M 930.614,332.798 921.273,315.985 z" id="boundary" inkscape:connector-curvature="0" />
	<path style="fill:none;stroke:red;stroke-width:1px;stroke-linecap:butt;stroke-linejoin:miter;stroke-opacity:1" d="M 921.273,216.972 936.218,203.895 z" id="boundary" inkscape:connector-curvature="0" />
	<path style="fill:none;stroke:red;stroke-width:1px;stroke-linecap:butt;stroke-linejoin:miter;stroke-opacity:1" d="M 816.655,366.426 797.974,366.426 z" id="boundary" inkscape:connector-curvature="0" />
	<path style="fill:none;stroke:red;stroke-width:1px;stroke-linecap:butt;stroke-linejoin:miter;stroke-opacity:1" d="M 854.019,366.426 835.337,366.426 z" id="boundary" inkscape:connector-curvature="0" />
	<path style="fill:none;stroke:red;stroke-width:1px;stroke-linecap:butt;stroke-linejoin:miter;stroke-opacity:1" d="M 835.337,366.426 816.655,366.426 z" id="boundary" inkscape:connector-curvature="0" />
	<path style="fill:none;stroke:red;stroke-width:1px;stroke-linecap:butt;stroke-linejoin:miter;stroke-opacity:1" d="M 928.746,351.48 930.614,332.798 z" id="boundary" inkscape:connector-curvature="0" />
	<path style="fill:none;stroke:red;stroke-width:1px;stroke-linecap:butt;stroke-linejoin:miter;stroke-opacity:1" d="M 928.746,351.48 910.064,357.085 z" id="boundary" inkscape:connector-curvature="0" />
	<path style="fill:none;stroke:red;stroke-width:1px;stroke-linecap:butt;stroke-linejoin:miter;stroke-opacity:1" d="M 872.701,366.426 891.382,360.821 z" id="boundary" inkscape:connector-curvature="0" />
	<path style="fill:none;stroke:red;stroke-width:1px;stroke-linecap:butt;stroke-linejoin:miter;stroke-opacity:1" d="M 891.382,360.821 910.064,357.085 z" id="boundary" inkscape:connector-curvature="0" />
	<path style="fill:none;stroke:red;stroke-width:1px;stroke-linecap:butt;stroke-linejoin:miter;stroke-opacity:1" d="M 872.701,366.426 854.019,366.426 z" id="boundary" inkscape:connector-curvature="0" />
	<path style="fill:none;stroke:red;stroke-width:1px;stroke-linecap:butt;stroke-linejoin:miter;stroke-opacity:1" d="M 797.974,366.426 779.292,366.426 z" id="boundary" inkscape:connector-curvature="0" />
	<circle cx="4" cy="230.049" r="4" fill="#0" id="circle0"/>
	<circle cx="4" cy="248.731" r="4" fill="#0" id="circle1"/>
	<circle cx="13.3409" cy="211.367" r="4" fill="#0" id="circle2"/>
	<circle cx="18.9454" cy="261.808" r="4" fill="#0" id="circle3"/>
	<circle cx="32.0226" cy="202.026" r="4" fill="#0" id="circle4"/>
	<circle cx="33.8908" cy="273.017" r="4" fill="#0" id="circle5"/>
	<circle cx="46.968" cy="187.081" r="4" fill="#0" id="circle6"/>
	<circle cx="52.5725" cy="273.017" r="4" fill="#0" id="circle7"/>
	<circle cx="61.9134" cy="172.136" r="4" fill="#0" id="circle8"/>
	<circle cx="71.2542" cy="273.017" r="4" fill="#0" id="circle9"/>
	<circle cx="80.5951" cy="162.795" r="4" fill="#0" id="circle10"/>
	<circle cx="88.0678" cy="33.8908" r="4" fill="#0" id="circle11"/>
	<circle cx="89.936" cy="273.017" r="4" fill="#0" id="circle12"/>
	<circle cx="97.4087" cy="15.209" r="4" fill="#0" id="circle13"/>
	<circle cx="97.4087" cy="50.7043" r="4" fill="#0" id="circle14"/>
	<circle cx="99.2768" cy="153.454" r="4" fill="#0" id="circle15"/>
	<circle cx="106.75" cy="67.5179" r="4" fill="#0" id="circle16"/>
	<circle cx="108.618" cy="273.017" r="4" fill="#0" id="circle17"/>
	<circle cx="114.222" cy="140.377" r="4" fill="#0" id="circle18"/>
	<circle cx="116.09" cy="9.60452" r="4" fill="#0" id="circle19"/>
	<circle cx="116.09" cy="84.3315" r="4" fill="#0" id="circle20"/>
	<circle cx="125.431" cy="101.145" r="4" fill="#0" id="circle21"/>
	<circle cx="125.431" cy="119.827" r="4" fill="#0" id="circle22"/>
	<circle cx="127.299" cy="273.017" r="4" fill="#0" id="circle23"/>
	<circle cx="134.772" cy="9.60452" r="4" fill="#0" id="circle24"/>
	<circle cx="145.981" cy="273.017" r="4" fill="#0" id="circle25"/>
	<circle cx="153.454" cy="9.60452" r="4" fill="#0" id="circle26"/>
	<circle cx="164.663" cy="273.017" r="4" fill="#0" id="circle27"/>
	<circle cx="172.136" cy="9.60452" r="4" fill="#0" id="circle28"/>
	<circle cx="183.345" cy="273.017" r="4" fill="#0" id="circle29"/>
	<circle cx="190.817" cy="9.60452" r="4" fill="#0" id="circle30"/>
	<circle cx="202.026" cy="273.017" r="4" fill="#0" id="circle31"/>
	<circle cx="209.499" cy="9.60452" r="4" fill="#0" id="circle32"/>
	<circle cx="220.708" cy="276.753" r="4" fill="#0" id="circle33"/>
	<circle cx="228.181" cy="9.60452" r="4" fill="#0" id="circle34"/>
	<circle cx="237.522" cy="286.094" r="4" fill="#0" id="circle35"/>
	<circle cx="246.863" cy="9.60452" r="4" fill="#0" id="circle36"/>
	<circle cx="256.203" cy="291.699" r="4" fill="#0" id="circle37"/>
	<circle cx="265.544" cy="5.86817" r="4" fill="#0" id="circle38"/>
	<circle cx="273.017" cy="301.04" r="4" fill="#0" id="circle39"/>
	<circle cx="284.226" cy="4" r="4" fill="#0" id="circle40"/>
	<circle cx="289.831" cy="310.38" r="4" fill="#0" id="circle41"/>
	<circle cx="301.04" cy="13.3409" r="4" fill="#0" id="circle42"/>
	<circle cx="308.512" cy="317.853" r="4" fill="#0" id="circle43"/>
	<circle cx="319.721" cy="20.8136" r="4" fill="#0" id="circle44"/>
	<circle cx="327.194" cy="319.721" r="4" fill="#0" id="circle45"/>
	<circle cx="336.535" cy="30.1544" r="4" fill="#0" id="circle46"/>
	<circle cx="345.876" cy="319.721" r="4" fill="#0" id="circle47"/>
	<circle cx="355.217" cy="37.6271" r="4" fill="#0" id="circle48"/>
	<circle cx="364.557" cy="319.721" r="4" fill="#0" id="circle49"/>
	<circle cx="372.03" cy="46.968" r="4" fill="#0" id="circle50"/>
	<circle cx="383.239" cy="319.721" r="4" fill="#0" id="circle51"/>
	<circle cx="388.844" cy="56.3089" r="4" fill="#0" id="circle52"/>
	<circle cx="401.921" cy="319.721" r="4" fill="#0" id="circle53"/>
	<circle cx="407.525" cy="56.3089" r="4" fill="#0" id="circle54"/>
	<circle cx="420.603" cy="319.721" r="4" fill="#0" id="circle55"/>
	<circle cx="426.207" cy="56.3089" r="4" fill="#0" id="circle56"/>
	<circle cx="439.284" cy="319.721" r="4" fill="#0" id="circle57"/>
	<circle cx="444.889" cy="56.3089" r="4" fill="#0" id="circle58"/>
	<circle cx="457.966" cy="317.853" r="4" fill="#0" id="circle59"/>
	<circle cx="461.702" cy="46.968" r="4" fill="#0" id="circle60"/>
	<circle cx="476.648" cy="310.38" r="4" fill="#0" id="circle61"/>
	<circle cx="480.384" cy="46.968" r="4" fill="#0" id="circle62"/>
	<circle cx="495.33" cy="310.38" r="4" fill="#0" id="circle63"/>
	<circle cx="499.066" cy="46.968" r="4" fill="#0" id="circle64"/>
	<circle cx="514.011" cy="310.38" r="4" fill="#0" id="circle65"/>
	<circle cx="517.748" cy="43.2316" r="4" fill="#0" id="circle66"/>
	<circle cx="532.693" cy="310.38" r="4" fill="#0" id="circle67"/>
	<circle cx="536.429" cy="37.6271" r="4" fill="#0" id="circle68"/>
	<circle cx="551.375" cy="310.38" r="4" fill="#0" id="circle69"/>
	<circle cx="555.111" cy="37.6271" r="4" fill="#0" id="circle70"/>
	<circle cx="570.056" cy="310.38" r="4" fill="#0" id="circle71"/>
	<circle cx="573.793" cy="37.6271" r="4" fill="#0" id="circle72"/>
	<circle cx="588.738" cy="310.38" r="4" fill="#0" id="circle73"/>
	<circle cx="592.475" cy="37.6271" r="4" fill="#0" id="circle74"/>
	<circle cx="607.42" cy="310.38" r="4" fill="#0" id="circle75"/>
	<circle cx="611.156" cy="33.8908" r="4" fill="#0" id="circle76"/>
	<circle cx="626.102" cy="310.38" r="4" fill="#0" id="circle77"/>
	<circle cx="629.838" cy="28.2863" r="4" fill="#0" id="circle78"/>
	<circle cx="644.783" cy="310.38" r="4" fill="#0" id="circle79"/>
	<circle cx="648.52" cy="24.5499" r="4" fill="#0" id="circle80"/>
	<circle cx="663.465" cy="310.38" r="4" fill="#0" id="circle81"/>
	<circle cx="667.202" cy="22.6817" r="4" fill="#0" id="circle82"/>
	<circle cx="680.279" cy="319.721" r="4" fill="#0" id="circle83"/>
	<circle cx="684.015" cy="32.0226" r="4" fill="#0" id="circle84"/>
	<circle cx="695.224" cy="330.93" r="4" fill="#0" id="circle85"/>
	<circle cx="702.697" cy="39.4953" r="4" fill="#0" id="circle86"/>
	<circle cx="708.301" cy="345.876" r="4" fill="#0" id="circle87"/>
	<circle cx="719.51" cy="48.8362" r="4" fill="#0" id="circle88"/>
	<circle cx="726.983" cy="353.348" r="4" fill="#0" id="circle89"/>
	<circle cx="738.192" cy="56.3089" r="4" fill="#0" id="circle90"/>
	<circle cx="741.928" cy="366.426" r="4" fill="#0" id="circle91"/>
	<circle cx="755.006" cy="65.6497" r="4" fill="#0" id="circle92"/>
	<circle cx="760.61" cy="366.426" r="4" fill="#0" id="circle93"/>
	<circle cx="771.819" cy="74.9906" r="4" fill="#0" id="circle94"/>
	<circle cx="779.292" cy="366.426" r="4" fill="#0" id="circle95"/>
	<circle cx="790.501" cy="80.5951" r="4" fill="#0" id="circle96"/>
	<circle cx="797.974" cy="366.426" r="4" fill="#0" id="circle97"/>
	<circle cx="809.183" cy="84.3315" r="4" fill="#0" id="circle98"/>
	<circle cx="816.655" cy="366.426" r="4" fill="#0" id="circle99"/>
	<circle cx="827.864" cy="84.3315" r="4" fill="#0" id="circle100"/>
	<circle cx="835.337" cy="366.426" r="4" fill="#0" id="circle101"/>
	<circle cx="844.678" cy="74.9906" r="4" fill="#0" id="circle102"/>
	<circle cx="854.019" cy="366.426" r="4" fill="#0" id="circle103"/>
	<circle cx="863.36" cy="71.2542" r="4" fill="#0" id="circle104"/>
	<circle cx="872.701" cy="366.426" r="4" fill="#0" id="circle105"/>
	<circle cx="882.041" cy="65.6497" r="4" fill="#0" id="circle106"/>
	<circle cx="891.382" cy="360.821" r="4" fill="#0" id="circle107"/>
	<circle cx="893.25" cy="244.994" r="4" fill="#0" id="circle108"/>
	<circle cx="896.987" cy="263.676" r="4" fill="#0" id="circle109"/>
	<circle cx="900.723" cy="61.9134" r="4" fill="#0" id="circle110"/>
	<circle cx="906.328" cy="280.49" r="4" fill="#0" id="circle111"/>
	<circle cx="908.196" cy="231.917" r="4" fill="#0" id="circle112"/>
	<circle cx="910.064" cy="357.085" r="4" fill="#0" id="circle113"/>
	<circle cx="911.932" cy="299.171" r="4" fill="#0" id="circle114"/>
	<circle cx="919.405" cy="52.5725" r="4" fill="#0" id="circle115"/>
	<circle cx="921.273" cy="216.972" r="4" fill="#0" id="circle116"/>
	<circle cx="921.273" cy="315.985" r="4" fill="#0" id="circle117"/>
	<circle cx="928.746" cy="351.48" r="4" fill="#0" id="circle118"/>
	<circle cx="930.614" cy="332.798" r="4" fill="#0" id="circle119"/>
	<circle cx="936.218" cy="203.895" r="4" fill="#0" id="circle120"/>
	<circle cx="938.087" cy="46.968" r="4" fill="#0" id="circle121"/>
	<circle cx="949.296" cy="188.949" r="4" fill="#0" id="circle122"/>
	<circle cx="956.768" cy="50.7043" r="4" fill="#0" id="circle123"/>
	<circle cx="964.241" cy="175.872" r="4" fill="#0" id="circle124"/>
	<circle cx="967.977" cy="65.6497" r="4" fill="#0" id="circle125"/>
	<circle cx="973.582" cy="157.19" r="4" fill="#0" id="circle126"/>
	<circle cx="977.318" cy="82.4633" r="4" fill="#0" id="circle127"/>
	<circle cx="986.659" cy="99.2768" r="4" fill="#0" id="circle128"/>
	<circle cx="986.659" cy="142.245" r="4" fill="#0" id="circle129"/>
	<circle cx="996" cy="116.09" r="4" fill="#0" id="circle130"/>
	</g>
</svg>