<?xml version="1.0" encoding="UTF-8" standalone="no"?>
<!-- Created with CurveBenchmark -->
<svg
	xmlns:dc="http://purl.org/dc/elements/1.1/"
	xmlns:cc="http://creativecommons.org/ns#"
	xmlns:rdf="http://www.w3.org/1999/02/22-rdf-syntax-ns#"
	xmlns:svg="http://www.w3.org/2000/svg"
	xmlns="http://www.w3.org/2000/svg"
	xmlns:sodipodi="http://sodipodi.sourceforge.net/DTD/sodipodi-0.dtd"
	xmlns:inkscape="http://www.inkscape.org/namespaces/inkscape"
	width="1000"
	height="1000"
	id="svg2"
	version="1.1"
	sodipodi:docname="manifold/gathan1-bed155.png.txt">
<defs
	id="defs4" />
<metadata
	id="metadata7">
	<rdf:RDF>
		<cc:Work
			rdf:about="">
			<dc:format>image/svg+xml</dc:format>
			<dc:type
				rdf:resource="http://purl.org/dc/dcmitype/StillImage" />
			<dc:title></dc:title>
		</cc:Work>
	</rdf:RDF>
</metadata>
<g
	inkscape:label="Layer 1"
	inkscape:groupmode="layer"
	id="layer1">
	<path style="fill:none;stroke:red;stroke-width:1px;stroke-linecap:butt;stroke-linejoin:miter;stroke-opacity:1" d="M 15.167,126.837 31.9174,117.531 z" id="boundary" inkscape:connector-curvature="0" />
	<path style="fill:none;stroke:red;stroke-width:1px;stroke-linecap:butt;stroke-linejoin:miter;stroke-opacity:1" d="M 4,160.338 4,141.726 z" id="boundary" inkscape:connector-curvature="0" />
	<path style="fill:none;stroke:red;stroke-width:1px;stroke-linecap:butt;stroke-linejoin:miter;stroke-opacity:1" d="M 4,141.726 15.167,126.837 z" id="boundary" inkscape:connector-curvature="0" />
	<path style="fill:none;stroke:red;stroke-width:1px;stroke-linecap:butt;stroke-linejoin:miter;stroke-opacity:1" d="M 11.4447,178.949 4,160.338 z" id="boundary" inkscape:connector-curvature="0" />
	<path style="fill:none;stroke:red;stroke-width:1px;stroke-linecap:butt;stroke-linejoin:miter;stroke-opacity:1" d="M 31.9174,117.531 48.6679,108.225 z" id="boundary" inkscape:connector-curvature="0" />
	<path style="fill:none;stroke:red;stroke-width:1px;stroke-linecap:butt;stroke-linejoin:miter;stroke-opacity:1" d="M 104.503,89.6135 123.114,85.8912 z" id="boundary" inkscape:connector-curvature="0" />
	<path style="fill:none;stroke:red;stroke-width:1px;stroke-linecap:butt;stroke-linejoin:miter;stroke-opacity:1" d="M 85.8912,97.0582 104.503,89.6135 z" id="boundary" inkscape:connector-curvature="0" />
	<path style="fill:none;stroke:red;stroke-width:1px;stroke-linecap:butt;stroke-linejoin:miter;stroke-opacity:1" d="M 15.167,197.561 11.4447,178.949 z" id="boundary" inkscape:connector-curvature="0" />
	<path style="fill:none;stroke:red;stroke-width:1px;stroke-linecap:butt;stroke-linejoin:miter;stroke-opacity:1" d="M 67.2795,100.78 48.6679,108.225 z" id="boundary" inkscape:connector-curvature="0" />
	<path style="fill:none;stroke:red;stroke-width:1px;stroke-linecap:butt;stroke-linejoin:miter;stroke-opacity:1" d="M 85.8912,97.0582 67.2795,100.78 z" id="boundary" inkscape:connector-curvature="0" />
	<path style="fill:none;stroke:red;stroke-width:1px;stroke-linecap:butt;stroke-linejoin:miter;stroke-opacity:1" d="M 11.4447,331.565 7.72233,353.899 z" id="boundary" inkscape:connector-curvature="0" />
	<path style="fill:none;stroke:red;stroke-width:1px;stroke-linecap:butt;stroke-linejoin:miter;stroke-opacity:1" d="M 7.72233,353.899 7.72233,372.51 z" id="boundary" inkscape:connector-curvature="0" />
	<path style="fill:none;stroke:red;stroke-width:1px;stroke-linecap:butt;stroke-linejoin:miter;stroke-opacity:1" d="M 7.72233,372.51 4,398.567 z" id="boundary" inkscape:connector-curvature="0" />
	<path style="fill:none;stroke:red;stroke-width:1px;stroke-linecap:butt;stroke-linejoin:miter;stroke-opacity:1" d="M 11.4447,331.565 15.167,301.786 z" id="boundary" inkscape:connector-curvature="0" />
	<path style="fill:none;stroke:red;stroke-width:1px;stroke-linecap:butt;stroke-linejoin:miter;stroke-opacity:1" d="M 15.167,197.561 15.167,216.173 z" id="boundary" inkscape:connector-curvature="0" />
	<path style="fill:none;stroke:red;stroke-width:1px;stroke-linecap:butt;stroke-linejoin:miter;stroke-opacity:1" d="M 15.167,216.173 18.8893,234.784 z" id="boundary" inkscape:connector-curvature="0" />
	<path style="fill:none;stroke:red;stroke-width:1px;stroke-linecap:butt;stroke-linejoin:miter;stroke-opacity:1" d="M 18.8893,234.784 18.8893,253.396 z" id="boundary" inkscape:connector-curvature="0" />
	<path style="fill:none;stroke:red;stroke-width:1px;stroke-linecap:butt;stroke-linejoin:miter;stroke-opacity:1" d="M 18.8893,253.396 18.8893,272.008 z" id="boundary" inkscape:connector-curvature="0" />
	<path style="fill:none;stroke:red;stroke-width:1px;stroke-linecap:butt;stroke-linejoin:miter;stroke-opacity:1" d="M 18.8893,272.008 15.167,301.786 z" id="boundary" inkscape:connector-curvature="0" />
	<path style="fill:none;stroke:red;stroke-width:1px;stroke-linecap:butt;stroke-linejoin:miter;stroke-opacity:1" d="M 123.114,85.8912 141.726,82.1689 z" id="boundary" inkscape:connector-curvature="0" />
	<path style="fill:none;stroke:red;stroke-width:1px;stroke-linecap:butt;stroke-linejoin:miter;stroke-opacity:1" d="M 262.702,31.9174 277.591,17.0281 z" id="boundary" inkscape:connector-curvature="0" />
	<path style="fill:none;stroke:red;stroke-width:1px;stroke-linecap:butt;stroke-linejoin:miter;stroke-opacity:1" d="M 292.48,4 277.591,17.0281 z" id="boundary" inkscape:connector-curvature="0" />
	<path style="fill:none;stroke:red;stroke-width:1px;stroke-linecap:butt;stroke-linejoin:miter;stroke-opacity:1" d="M 245.951,41.2233 227.34,48.6679 z" id="boundary" inkscape:connector-curvature="0" />
	<path style="fill:none;stroke:red;stroke-width:1px;stroke-linecap:butt;stroke-linejoin:miter;stroke-opacity:1" d="M 262.702,31.9174 245.951,41.2233 z" id="boundary" inkscape:connector-curvature="0" />
	<path style="fill:none;stroke:red;stroke-width:1px;stroke-linecap:butt;stroke-linejoin:miter;stroke-opacity:1" d="M 292.48,4 311.092,7.72233 z" id="boundary" inkscape:connector-curvature="0" />
	<path style="fill:none;stroke:red;stroke-width:1px;stroke-linecap:butt;stroke-linejoin:miter;stroke-opacity:1" d="M 227.34,48.6679 208.728,56.1126 z" id="boundary" inkscape:connector-curvature="0" />
	<path style="fill:none;stroke:red;stroke-width:1px;stroke-linecap:butt;stroke-linejoin:miter;stroke-opacity:1" d="M 311.092,7.72233 322.259,22.6116 z" id="boundary" inkscape:connector-curvature="0" />
	<path style="fill:none;stroke:red;stroke-width:1px;stroke-linecap:butt;stroke-linejoin:miter;stroke-opacity:1" d="M 333.426,37.5009 352.038,44.9456 z" id="boundary" inkscape:connector-curvature="0" />
	<path style="fill:none;stroke:red;stroke-width:1px;stroke-linecap:butt;stroke-linejoin:miter;stroke-opacity:1" d="M 333.426,37.5009 322.259,22.6116 z" id="boundary" inkscape:connector-curvature="0" />
	<path style="fill:none;stroke:red;stroke-width:1px;stroke-linecap:butt;stroke-linejoin:miter;stroke-opacity:1" d="M 370.649,52.3902 352.038,44.9456 z" id="boundary" inkscape:connector-curvature="0" />
	<path style="fill:none;stroke:red;stroke-width:1px;stroke-linecap:butt;stroke-linejoin:miter;stroke-opacity:1" d="M 370.649,52.3902 385.538,63.5572 z" id="boundary" inkscape:connector-curvature="0" />
	<path style="fill:none;stroke:red;stroke-width:1px;stroke-linecap:butt;stroke-linejoin:miter;stroke-opacity:1" d="M 197.561,71.0019 208.728,56.1126 z" id="boundary" inkscape:connector-curvature="0" />
	<path style="fill:none;stroke:red;stroke-width:1px;stroke-linecap:butt;stroke-linejoin:miter;stroke-opacity:1" d="M 197.561,71.0019 178.949,74.7242 z" id="boundary" inkscape:connector-curvature="0" />
	<path style="fill:none;stroke:red;stroke-width:1px;stroke-linecap:butt;stroke-linejoin:miter;stroke-opacity:1" d="M 160.338,78.4465 178.949,74.7242 z" id="boundary" inkscape:connector-curvature="0" />
	<path style="fill:none;stroke:red;stroke-width:1px;stroke-linecap:butt;stroke-linejoin:miter;stroke-opacity:1" d="M 160.338,78.4465 141.726,82.1689 z" id="boundary" inkscape:connector-curvature="0" />
	<path style="fill:none;stroke:red;stroke-width:1px;stroke-linecap:butt;stroke-linejoin:miter;stroke-opacity:1" d="M 385.538,63.5572 402.289,72.863 z" id="boundary" inkscape:connector-curvature="0" />
	<path style="fill:none;stroke:red;stroke-width:1px;stroke-linecap:butt;stroke-linejoin:miter;stroke-opacity:1" d="M 420.901,74.7242 402.289,72.863 z" id="boundary" inkscape:connector-curvature="0" />
	<path style="fill:none;stroke:red;stroke-width:1px;stroke-linecap:butt;stroke-linejoin:miter;stroke-opacity:1" d="M 458.124,84.03 439.512,80.3077 z" id="boundary" inkscape:connector-curvature="0" />
	<path style="fill:none;stroke:red;stroke-width:1px;stroke-linecap:butt;stroke-linejoin:miter;stroke-opacity:1" d="M 439.512,80.3077 420.901,74.7242 z" id="boundary" inkscape:connector-curvature="0" />
	<path style="fill:none;stroke:red;stroke-width:1px;stroke-linecap:butt;stroke-linejoin:miter;stroke-opacity:1" d="M 4,435.79 4,417.178 z" id="boundary" inkscape:connector-curvature="0" />
	<path style="fill:none;stroke:red;stroke-width:1px;stroke-linecap:butt;stroke-linejoin:miter;stroke-opacity:1" d="M 4,473.013 4,454.402 z" id="boundary" inkscape:connector-curvature="0" />
	<path style="fill:none;stroke:red;stroke-width:1px;stroke-linecap:butt;stroke-linejoin:miter;stroke-opacity:1" d="M 4,491.625 4,473.013 z" id="boundary" inkscape:connector-curvature="0" />
	<path style="fill:none;stroke:red;stroke-width:1px;stroke-linecap:butt;stroke-linejoin:miter;stroke-opacity:1" d="M 4,454.402 4,435.79 z" id="boundary" inkscape:connector-curvature="0" />
	<path style="fill:none;stroke:red;stroke-width:1px;stroke-linecap:butt;stroke-linejoin:miter;stroke-opacity:1" d="M 54.2514,500.931 72.863,500.931 z" id="boundary" inkscape:connector-curvature="0" />
	<path style="fill:none;stroke:red;stroke-width:1px;stroke-linecap:butt;stroke-linejoin:miter;stroke-opacity:1" d="M 91.4747,500.931 110.086,500.931 z" id="boundary" inkscape:connector-curvature="0" />
	<path style="fill:none;stroke:red;stroke-width:1px;stroke-linecap:butt;stroke-linejoin:miter;stroke-opacity:1" d="M 4,417.178 4,398.567 z" id="boundary" inkscape:connector-curvature="0" />
	<path style="fill:none;stroke:red;stroke-width:1px;stroke-linecap:butt;stroke-linejoin:miter;stroke-opacity:1" d="M 110.086,500.931 128.698,500.931 z" id="boundary" inkscape:connector-curvature="0" />
	<path style="fill:none;stroke:red;stroke-width:1px;stroke-linecap:butt;stroke-linejoin:miter;stroke-opacity:1" d="M 91.4747,500.931 72.863,500.931 z" id="boundary" inkscape:connector-curvature="0" />
	<path style="fill:none;stroke:red;stroke-width:1px;stroke-linecap:butt;stroke-linejoin:miter;stroke-opacity:1" d="M 54.2514,500.931 35.6398,502.792 z" id="boundary" inkscape:connector-curvature="0" />
	<path style="fill:none;stroke:red;stroke-width:1px;stroke-linecap:butt;stroke-linejoin:miter;stroke-opacity:1" d="M 7.72233,510.236 7.72233,528.848 z" id="boundary" inkscape:connector-curvature="0" />
	<path style="fill:none;stroke:red;stroke-width:1px;stroke-linecap:butt;stroke-linejoin:miter;stroke-opacity:1" d="M 4,491.625 7.72233,510.236 z" id="boundary" inkscape:connector-curvature="0" />
	<path style="fill:none;stroke:red;stroke-width:1px;stroke-linecap:butt;stroke-linejoin:miter;stroke-opacity:1" d="M 7.72233,547.46 7.72233,528.848 z" id="boundary" inkscape:connector-curvature="0" />
	<path style="fill:none;stroke:red;stroke-width:1px;stroke-linecap:butt;stroke-linejoin:miter;stroke-opacity:1" d="M 31.9174,547.46 28.1951,575.377 z" id="boundary" inkscape:connector-curvature="0" />
	<path style="fill:none;stroke:red;stroke-width:1px;stroke-linecap:butt;stroke-linejoin:miter;stroke-opacity:1" d="M 28.1951,575.377 11.4447,566.071 z" id="boundary" inkscape:connector-curvature="0" />
	<path style="fill:none;stroke:red;stroke-width:1px;stroke-linecap:butt;stroke-linejoin:miter;stroke-opacity:1" d="M 11.4447,566.071 7.72233,547.46 z" id="boundary" inkscape:connector-curvature="0" />
	<path style="fill:none;stroke:red;stroke-width:1px;stroke-linecap:butt;stroke-linejoin:miter;stroke-opacity:1" d="M 147.31,500.931 165.921,500.931 z" id="boundary" inkscape:connector-curvature="0" />
	<path style="fill:none;stroke:red;stroke-width:1px;stroke-linecap:butt;stroke-linejoin:miter;stroke-opacity:1" d="M 147.31,500.931 128.698,500.931 z" id="boundary" inkscape:connector-curvature="0" />
	<path style="fill:none;stroke:red;stroke-width:1px;stroke-linecap:butt;stroke-linejoin:miter;stroke-opacity:1" d="M 35.6398,521.403 31.9174,547.46 z" id="boundary" inkscape:connector-curvature="0" />
	<path style="fill:none;stroke:red;stroke-width:1px;stroke-linecap:butt;stroke-linejoin:miter;stroke-opacity:1" d="M 165.921,500.931 184.533,500.931 z" id="boundary" inkscape:connector-curvature="0" />
	<path style="fill:none;stroke:red;stroke-width:1px;stroke-linecap:butt;stroke-linejoin:miter;stroke-opacity:1" d="M 184.533,500.931 203.144,500.931 z" id="boundary" inkscape:connector-curvature="0" />
	<path style="fill:none;stroke:red;stroke-width:1px;stroke-linecap:butt;stroke-linejoin:miter;stroke-opacity:1" d="M 221.756,500.931 240.368,500.931 z" id="boundary" inkscape:connector-curvature="0" />
	<path style="fill:none;stroke:red;stroke-width:1px;stroke-linecap:butt;stroke-linejoin:miter;stroke-opacity:1" d="M 221.756,500.931 203.144,500.931 z" id="boundary" inkscape:connector-curvature="0" />
	<path style="fill:none;stroke:red;stroke-width:1px;stroke-linecap:butt;stroke-linejoin:miter;stroke-opacity:1" d="M 240.368,500.931 258.979,500.931 z" id="boundary" inkscape:connector-curvature="0" />
	<path style="fill:none;stroke:red;stroke-width:1px;stroke-linecap:butt;stroke-linejoin:miter;stroke-opacity:1" d="M 277.591,500.931 296.203,500.931 z" id="boundary" inkscape:connector-curvature="0" />
	<path style="fill:none;stroke:red;stroke-width:1px;stroke-linecap:butt;stroke-linejoin:miter;stroke-opacity:1" d="M 277.591,500.931 258.979,500.931 z" id="boundary" inkscape:connector-curvature="0" />
	<path style="fill:none;stroke:red;stroke-width:1px;stroke-linecap:butt;stroke-linejoin:miter;stroke-opacity:1" d="M 314.814,500.931 333.426,500.931 z" id="boundary" inkscape:connector-curvature="0" />
	<path style="fill:none;stroke:red;stroke-width:1px;stroke-linecap:butt;stroke-linejoin:miter;stroke-opacity:1" d="M 333.426,500.931 342.732,517.681 z" id="boundary" inkscape:connector-curvature="0" />
	<path style="fill:none;stroke:red;stroke-width:1px;stroke-linecap:butt;stroke-linejoin:miter;stroke-opacity:1" d="M 314.814,500.931 296.203,500.931 z" id="boundary" inkscape:connector-curvature="0" />
	<path style="fill:none;stroke:red;stroke-width:1px;stroke-linecap:butt;stroke-linejoin:miter;stroke-opacity:1" d="M 411.595,512.098 392.983,512.098 z" id="boundary" inkscape:connector-curvature="0" />
	<path style="fill:none;stroke:red;stroke-width:1px;stroke-linecap:butt;stroke-linejoin:miter;stroke-opacity:1" d="M 392.983,512.098 374.371,513.959 z" id="boundary" inkscape:connector-curvature="0" />
	<path style="fill:none;stroke:red;stroke-width:1px;stroke-linecap:butt;stroke-linejoin:miter;stroke-opacity:1" d="M 342.732,517.681 342.732,536.293 z" id="boundary" inkscape:connector-curvature="0" />
	<path style="fill:none;stroke:red;stroke-width:1px;stroke-linecap:butt;stroke-linejoin:miter;stroke-opacity:1" d="M 355.76,579.099 346.454,562.349 z" id="boundary" inkscape:connector-curvature="0" />
	<path style="fill:none;stroke:red;stroke-width:1px;stroke-linecap:butt;stroke-linejoin:miter;stroke-opacity:1" d="M 370.649,562.349 355.76,579.099 z" id="boundary" inkscape:connector-curvature="0" />
	<path style="fill:none;stroke:red;stroke-width:1px;stroke-linecap:butt;stroke-linejoin:miter;stroke-opacity:1" d="M 346.454,562.349 342.732,536.293 z" id="boundary" inkscape:connector-curvature="0" />
	<path style="fill:none;stroke:red;stroke-width:1px;stroke-linecap:butt;stroke-linejoin:miter;stroke-opacity:1" d="M 370.649,543.737 370.649,562.349 z" id="boundary" inkscape:connector-curvature="0" />
	<path style="fill:none;stroke:red;stroke-width:1px;stroke-linecap:butt;stroke-linejoin:miter;stroke-opacity:1" d="M 430.206,515.82 448.818,519.542 z" id="boundary" inkscape:connector-curvature="0" />
	<path style="fill:none;stroke:red;stroke-width:1px;stroke-linecap:butt;stroke-linejoin:miter;stroke-opacity:1" d="M 411.595,512.098 430.206,515.82 z" id="boundary" inkscape:connector-curvature="0" />
	<path style="fill:none;stroke:red;stroke-width:1px;stroke-linecap:butt;stroke-linejoin:miter;stroke-opacity:1" d="M 448.818,519.542 467.43,526.987 z" id="boundary" inkscape:connector-curvature="0" />
	<path style="fill:none;stroke:red;stroke-width:1px;stroke-linecap:butt;stroke-linejoin:miter;stroke-opacity:1" d="M 476.735,89.6135 495.347,93.3358 z" id="boundary" inkscape:connector-curvature="0" />
	<path style="fill:none;stroke:red;stroke-width:1px;stroke-linecap:butt;stroke-linejoin:miter;stroke-opacity:1" d="M 476.735,89.6135 458.124,84.03 z" id="boundary" inkscape:connector-curvature="0" />
	<path style="fill:none;stroke:red;stroke-width:1px;stroke-linecap:butt;stroke-linejoin:miter;stroke-opacity:1" d="M 495.347,93.3358 513.959,97.0582 z" id="boundary" inkscape:connector-curvature="0" />
	<path style="fill:none;stroke:red;stroke-width:1px;stroke-linecap:butt;stroke-linejoin:miter;stroke-opacity:1" d="M 532.57,104.503 513.959,97.0582 z" id="boundary" inkscape:connector-curvature="0" />
	<path style="fill:none;stroke:red;stroke-width:1px;stroke-linecap:butt;stroke-linejoin:miter;stroke-opacity:1" d="M 551.182,111.947 532.57,104.503 z" id="boundary" inkscape:connector-curvature="0" />
	<path style="fill:none;stroke:red;stroke-width:1px;stroke-linecap:butt;stroke-linejoin:miter;stroke-opacity:1" d="M 566.071,123.114 580.961,134.281 z" id="boundary" inkscape:connector-curvature="0" />
	<path style="fill:none;stroke:red;stroke-width:1px;stroke-linecap:butt;stroke-linejoin:miter;stroke-opacity:1" d="M 580.961,134.281 586.544,152.893 z" id="boundary" inkscape:connector-curvature="0" />
	<path style="fill:none;stroke:red;stroke-width:1px;stroke-linecap:butt;stroke-linejoin:miter;stroke-opacity:1" d="M 586.544,152.893 582.822,171.505 z" id="boundary" inkscape:connector-curvature="0" />
	<path style="fill:none;stroke:red;stroke-width:1px;stroke-linecap:butt;stroke-linejoin:miter;stroke-opacity:1" d="M 582.822,171.505 567.932,186.394 z" id="boundary" inkscape:connector-curvature="0" />
	<path style="fill:none;stroke:red;stroke-width:1px;stroke-linecap:butt;stroke-linejoin:miter;stroke-opacity:1" d="M 567.932,205.006 567.932,186.394 z" id="boundary" inkscape:connector-curvature="0" />
	<path style="fill:none;stroke:red;stroke-width:1px;stroke-linecap:butt;stroke-linejoin:miter;stroke-opacity:1" d="M 551.182,111.947 566.071,123.114 z" id="boundary" inkscape:connector-curvature="0" />
	<path style="fill:none;stroke:red;stroke-width:1px;stroke-linecap:butt;stroke-linejoin:miter;stroke-opacity:1" d="M 566.071,236.645 567.932,205.006 z" id="boundary" inkscape:connector-curvature="0" />
	<path style="fill:none;stroke:red;stroke-width:1px;stroke-linecap:butt;stroke-linejoin:miter;stroke-opacity:1" d="M 579.099,251.535 566.071,236.645 z" id="boundary" inkscape:connector-curvature="0" />
	<path style="fill:none;stroke:red;stroke-width:1px;stroke-linecap:butt;stroke-linejoin:miter;stroke-opacity:1" d="M 593.989,264.563 579.099,251.535 z" id="boundary" inkscape:connector-curvature="0" />
	<path style="fill:none;stroke:red;stroke-width:1px;stroke-linecap:butt;stroke-linejoin:miter;stroke-opacity:1" d="M 608.878,275.73 593.989,264.563 z" id="boundary" inkscape:connector-curvature="0" />
	<path style="fill:none;stroke:red;stroke-width:1px;stroke-linecap:butt;stroke-linejoin:miter;stroke-opacity:1" d="M 625.629,264.563 608.878,275.73 z" id="boundary" inkscape:connector-curvature="0" />
	<path style="fill:none;stroke:red;stroke-width:1px;stroke-linecap:butt;stroke-linejoin:miter;stroke-opacity:1" d="M 642.379,255.257 660.991,249.674 z" id="boundary" inkscape:connector-curvature="0" />
	<path style="fill:none;stroke:red;stroke-width:1px;stroke-linecap:butt;stroke-linejoin:miter;stroke-opacity:1" d="M 660.991,249.674 679.602,257.118 z" id="boundary" inkscape:connector-curvature="0" />
	<path style="fill:none;stroke:red;stroke-width:1px;stroke-linecap:butt;stroke-linejoin:miter;stroke-opacity:1" d="M 679.602,257.118 698.214,264.563 z" id="boundary" inkscape:connector-curvature="0" />
	<path style="fill:none;stroke:red;stroke-width:1px;stroke-linecap:butt;stroke-linejoin:miter;stroke-opacity:1" d="M 625.629,264.563 642.379,255.257 z" id="boundary" inkscape:connector-curvature="0" />
	<path style="fill:none;stroke:red;stroke-width:1px;stroke-linecap:butt;stroke-linejoin:miter;stroke-opacity:1" d="M 698.214,264.563 714.964,273.869 z" id="boundary" inkscape:connector-curvature="0" />
	<path style="fill:none;stroke:red;stroke-width:1px;stroke-linecap:butt;stroke-linejoin:miter;stroke-opacity:1" d="M 714.964,273.869 733.576,279.452 z" id="boundary" inkscape:connector-curvature="0" />
	<path style="fill:none;stroke:red;stroke-width:1px;stroke-linecap:butt;stroke-linejoin:miter;stroke-opacity:1" d="M 733.576,279.452 748.465,290.619 z" id="boundary" inkscape:connector-curvature="0" />
	<path style="fill:none;stroke:red;stroke-width:1px;stroke-linecap:butt;stroke-linejoin:miter;stroke-opacity:1" d="M 748.465,290.619 767.077,294.341 z" id="boundary" inkscape:connector-curvature="0" />
	<path style="fill:none;stroke:red;stroke-width:1px;stroke-linecap:butt;stroke-linejoin:miter;stroke-opacity:1" d="M 804.3,298.064 785.689,298.064 z" id="boundary" inkscape:connector-curvature="0" />
	<path style="fill:none;stroke:red;stroke-width:1px;stroke-linecap:butt;stroke-linejoin:miter;stroke-opacity:1" d="M 785.689,298.064 767.077,294.341 z" id="boundary" inkscape:connector-curvature="0" />
	<path style="fill:none;stroke:red;stroke-width:1px;stroke-linecap:butt;stroke-linejoin:miter;stroke-opacity:1" d="M 804.3,298.064 822.912,301.786 z" id="boundary" inkscape:connector-curvature="0" />
	<path style="fill:none;stroke:red;stroke-width:1px;stroke-linecap:butt;stroke-linejoin:miter;stroke-opacity:1" d="M 841.523,305.508 860.135,305.508 z" id="boundary" inkscape:connector-curvature="0" />
	<path style="fill:none;stroke:red;stroke-width:1px;stroke-linecap:butt;stroke-linejoin:miter;stroke-opacity:1" d="M 860.135,305.508 878.747,309.231 z" id="boundary" inkscape:connector-curvature="0" />
	<path style="fill:none;stroke:red;stroke-width:1px;stroke-linecap:butt;stroke-linejoin:miter;stroke-opacity:1" d="M 841.523,305.508 822.912,301.786 z" id="boundary" inkscape:connector-curvature="0" />
	<path style="fill:none;stroke:red;stroke-width:1px;stroke-linecap:butt;stroke-linejoin:miter;stroke-opacity:1" d="M 897.358,311.092 878.747,309.231 z" id="boundary" inkscape:connector-curvature="0" />
	<path style="fill:none;stroke:red;stroke-width:1px;stroke-linecap:butt;stroke-linejoin:miter;stroke-opacity:1" d="M 897.358,311.092 915.97,316.675 z" id="boundary" inkscape:connector-curvature="0" />
	<path style="fill:none;stroke:red;stroke-width:1px;stroke-linecap:butt;stroke-linejoin:miter;stroke-opacity:1" d="M 934.582,320.398 915.97,316.675 z" id="boundary" inkscape:connector-curvature="0" />
	<path style="fill:none;stroke:red;stroke-width:1px;stroke-linecap:butt;stroke-linejoin:miter;stroke-opacity:1" d="M 934.582,320.398 953.193,327.842 z" id="boundary" inkscape:connector-curvature="0" />
	<path style="fill:none;stroke:red;stroke-width:1px;stroke-linecap:butt;stroke-linejoin:miter;stroke-opacity:1" d="M 953.193,327.842 969.944,337.148 z" id="boundary" inkscape:connector-curvature="0" />
	<path style="fill:none;stroke:red;stroke-width:1px;stroke-linecap:butt;stroke-linejoin:miter;stroke-opacity:1" d="M 984.833,348.315 996,363.205 z" id="boundary" inkscape:connector-curvature="0" />
	<path style="fill:none;stroke:red;stroke-width:1px;stroke-linecap:butt;stroke-linejoin:miter;stroke-opacity:1" d="M 996,363.205 992.278,383.677 z" id="boundary" inkscape:connector-curvature="0" />
	<path style="fill:none;stroke:red;stroke-width:1px;stroke-linecap:butt;stroke-linejoin:miter;stroke-opacity:1" d="M 977.388,398.567 992.278,383.677 z" id="boundary" inkscape:connector-curvature="0" />
	<path style="fill:none;stroke:red;stroke-width:1px;stroke-linecap:butt;stroke-linejoin:miter;stroke-opacity:1" d="M 977.388,417.178 977.388,398.567 z" id="boundary" inkscape:connector-curvature="0" />
	<path style="fill:none;stroke:red;stroke-width:1px;stroke-linecap:butt;stroke-linejoin:miter;stroke-opacity:1" d="M 973.666,443.235 977.388,417.178 z" id="boundary" inkscape:connector-curvature="0" />
	<path style="fill:none;stroke:red;stroke-width:1px;stroke-linecap:butt;stroke-linejoin:miter;stroke-opacity:1" d="M 969.944,337.148 984.833,348.315 z" id="boundary" inkscape:connector-curvature="0" />
	<path style="fill:none;stroke:red;stroke-width:1px;stroke-linecap:butt;stroke-linejoin:miter;stroke-opacity:1" d="M 502.792,508.375 521.403,506.514 z" id="boundary" inkscape:connector-curvature="0" />
	<path style="fill:none;stroke:red;stroke-width:1px;stroke-linecap:butt;stroke-linejoin:miter;stroke-opacity:1" d="M 467.43,526.987 484.18,515.82 z" id="boundary" inkscape:connector-curvature="0" />
	<path style="fill:none;stroke:red;stroke-width:1px;stroke-linecap:butt;stroke-linejoin:miter;stroke-opacity:1" d="M 484.18,515.82 502.792,508.375 z" id="boundary" inkscape:connector-curvature="0" />
	<path style="fill:none;stroke:red;stroke-width:1px;stroke-linecap:butt;stroke-linejoin:miter;stroke-opacity:1" d="M 521.403,506.514 540.015,512.098 z" id="boundary" inkscape:connector-curvature="0" />
	<path style="fill:none;stroke:red;stroke-width:1px;stroke-linecap:butt;stroke-linejoin:miter;stroke-opacity:1" d="M 752.188,523.265 733.576,530.709 z" id="boundary" inkscape:connector-curvature="0" />
	<path style="fill:none;stroke:red;stroke-width:1px;stroke-linecap:butt;stroke-linejoin:miter;stroke-opacity:1" d="M 603.295,534.432 584.683,530.709 z" id="boundary" inkscape:connector-curvature="0" />
	<path style="fill:none;stroke:red;stroke-width:1px;stroke-linecap:butt;stroke-linejoin:miter;stroke-opacity:1" d="M 556.765,521.403 540.015,512.098 z" id="boundary" inkscape:connector-curvature="0" />
	<path style="fill:none;stroke:red;stroke-width:1px;stroke-linecap:butt;stroke-linejoin:miter;stroke-opacity:1" d="M 562.349,540.015 556.765,521.403 z" id="boundary" inkscape:connector-curvature="0" />
	<path style="fill:none;stroke:red;stroke-width:1px;stroke-linecap:butt;stroke-linejoin:miter;stroke-opacity:1" d="M 603.295,534.432 621.906,541.876 z" id="boundary" inkscape:connector-curvature="0" />
	<path style="fill:none;stroke:red;stroke-width:1px;stroke-linecap:butt;stroke-linejoin:miter;stroke-opacity:1" d="M 571.655,575.377 562.349,558.627 z" id="boundary" inkscape:connector-curvature="0" />
	<path style="fill:none;stroke:red;stroke-width:1px;stroke-linecap:butt;stroke-linejoin:miter;stroke-opacity:1" d="M 562.349,558.627 562.349,540.015 z" id="boundary" inkscape:connector-curvature="0" />
	<path style="fill:none;stroke:red;stroke-width:1px;stroke-linecap:butt;stroke-linejoin:miter;stroke-opacity:1" d="M 621.906,541.876 640.518,545.598 z" id="boundary" inkscape:connector-curvature="0" />
	<path style="fill:none;stroke:red;stroke-width:1px;stroke-linecap:butt;stroke-linejoin:miter;stroke-opacity:1" d="M 677.741,545.598 696.353,541.876 z" id="boundary" inkscape:connector-curvature="0" />
	<path style="fill:none;stroke:red;stroke-width:1px;stroke-linecap:butt;stroke-linejoin:miter;stroke-opacity:1" d="M 640.518,545.598 659.129,545.598 z" id="boundary" inkscape:connector-curvature="0" />
	<path style="fill:none;stroke:red;stroke-width:1px;stroke-linecap:butt;stroke-linejoin:miter;stroke-opacity:1" d="M 677.741,545.598 659.129,545.598 z" id="boundary" inkscape:connector-curvature="0" />
	<path style="fill:none;stroke:red;stroke-width:1px;stroke-linecap:butt;stroke-linejoin:miter;stroke-opacity:1" d="M 714.964,538.154 696.353,541.876 z" id="boundary" inkscape:connector-curvature="0" />
	<path style="fill:none;stroke:red;stroke-width:1px;stroke-linecap:butt;stroke-linejoin:miter;stroke-opacity:1" d="M 733.576,530.709 714.964,538.154 z" id="boundary" inkscape:connector-curvature="0" />
	<path style="fill:none;stroke:red;stroke-width:1px;stroke-linecap:butt;stroke-linejoin:miter;stroke-opacity:1" d="M 789.411,508.375 808.023,504.653 z" id="boundary" inkscape:connector-curvature="0" />
	<path style="fill:none;stroke:red;stroke-width:1px;stroke-linecap:butt;stroke-linejoin:miter;stroke-opacity:1" d="M 915.97,512.098 897.358,512.098 z" id="boundary" inkscape:connector-curvature="0" />
	<path style="fill:none;stroke:red;stroke-width:1px;stroke-linecap:butt;stroke-linejoin:miter;stroke-opacity:1" d="M 808.023,504.653 826.634,508.375 z" id="boundary" inkscape:connector-curvature="0" />
	<path style="fill:none;stroke:red;stroke-width:1px;stroke-linecap:butt;stroke-linejoin:miter;stroke-opacity:1" d="M 826.634,508.375 841.523,519.542 z" id="boundary" inkscape:connector-curvature="0" />
	<path style="fill:none;stroke:red;stroke-width:1px;stroke-linecap:butt;stroke-linejoin:miter;stroke-opacity:1" d="M 897.358,512.098 878.747,519.542 z" id="boundary" inkscape:connector-curvature="0" />
	<path style="fill:none;stroke:red;stroke-width:1px;stroke-linecap:butt;stroke-linejoin:miter;stroke-opacity:1" d="M 934.582,512.098 915.97,512.098 z" id="boundary" inkscape:connector-curvature="0" />
	<path style="fill:none;stroke:red;stroke-width:1px;stroke-linecap:butt;stroke-linejoin:miter;stroke-opacity:1" d="M 982.972,517.681 977.388,499.069 z" id="boundary" inkscape:connector-curvature="0" />
	<path style="fill:none;stroke:red;stroke-width:1px;stroke-linecap:butt;stroke-linejoin:miter;stroke-opacity:1" d="M 953.193,513.959 934.582,512.098 z" id="boundary" inkscape:connector-curvature="0" />
	<path style="fill:none;stroke:red;stroke-width:1px;stroke-linecap:butt;stroke-linejoin:miter;stroke-opacity:1" d="M 973.666,461.846 973.666,480.458 z" id="boundary" inkscape:connector-curvature="0" />
	<path style="fill:none;stroke:red;stroke-width:1px;stroke-linecap:butt;stroke-linejoin:miter;stroke-opacity:1" d="M 977.388,499.069 973.666,480.458 z" id="boundary" inkscape:connector-curvature="0" />
	<path style="fill:none;stroke:red;stroke-width:1px;stroke-linecap:butt;stroke-linejoin:miter;stroke-opacity:1" d="M 973.666,461.846 973.666,443.235 z" id="boundary" inkscape:connector-curvature="0" />
	<path style="fill:none;stroke:red;stroke-width:1px;stroke-linecap:butt;stroke-linejoin:miter;stroke-opacity:1" d="M 789.411,508.375 770.799,515.82 z" id="boundary" inkscape:connector-curvature="0" />
	<path style="fill:none;stroke:red;stroke-width:1px;stroke-linecap:butt;stroke-linejoin:miter;stroke-opacity:1" d="M 860.135,523.265 841.523,519.542 z" id="boundary" inkscape:connector-curvature="0" />
	<path style="fill:none;stroke:red;stroke-width:1px;stroke-linecap:butt;stroke-linejoin:miter;stroke-opacity:1" d="M 878.747,519.542 860.135,523.265 z" id="boundary" inkscape:connector-curvature="0" />
	<path style="fill:none;stroke:red;stroke-width:1px;stroke-linecap:butt;stroke-linejoin:miter;stroke-opacity:1" d="M 982.972,517.681 979.25,553.043 z" id="boundary" inkscape:connector-curvature="0" />
	<path style="fill:none;stroke:red;stroke-width:1px;stroke-linecap:butt;stroke-linejoin:miter;stroke-opacity:1" d="M 979.25,575.377 979.25,553.043 z" id="boundary" inkscape:connector-curvature="0" />
	<path style="fill:none;stroke:red;stroke-width:1px;stroke-linecap:butt;stroke-linejoin:miter;stroke-opacity:1" d="M 960.638,573.516 956.916,554.904 z" id="boundary" inkscape:connector-curvature="0" />
	<path style="fill:none;stroke:red;stroke-width:1px;stroke-linecap:butt;stroke-linejoin:miter;stroke-opacity:1" d="M 979.25,575.377 960.638,573.516 z" id="boundary" inkscape:connector-curvature="0" />
	<path style="fill:none;stroke:red;stroke-width:1px;stroke-linecap:butt;stroke-linejoin:miter;stroke-opacity:1" d="M 752.188,523.265 770.799,515.82 z" id="boundary" inkscape:connector-curvature="0" />
	<circle cx="4" cy="141.726" r="4" fill="#0" id="circle0"/>
	<circle cx="4" cy="160.338" r="4" fill="#0" id="circle1"/>
	<circle cx="4" cy="398.567" r="4" fill="#0" id="circle2"/>
	<circle cx="4" cy="417.178" r="4" fill="#0" id="circle3"/>
	<circle cx="4" cy="435.79" r="4" fill="#0" id="circle4"/>
	<circle cx="4" cy="454.402" r="4" fill="#0" id="circle5"/>
	<circle cx="4" cy="473.013" r="4" fill="#0" id="circle6"/>
	<circle cx="4" cy="491.625" r="4" fill="#0" id="circle7"/>
	<circle cx="7.72233" cy="353.899" r="4" fill="#0" id="circle8"/>
	<circle cx="7.72233" cy="372.51" r="4" fill="#0" id="circle9"/>
	<circle cx="7.72233" cy="510.236" r="4" fill="#0" id="circle10"/>
	<circle cx="7.72233" cy="528.848" r="4" fill="#0" id="circle11"/>
	<circle cx="7.72233" cy="547.46" r="4" fill="#0" id="circle12"/>
	<circle cx="11.4447" cy="178.949" r="4" fill="#0" id="circle13"/>
	<circle cx="11.4447" cy="331.565" r="4" fill="#0" id="circle14"/>
	<circle cx="11.4447" cy="566.071" r="4" fill="#0" id="circle15"/>
	<circle cx="15.167" cy="126.837" r="4" fill="#0" id="circle16"/>
	<circle cx="15.167" cy="197.561" r="4" fill="#0" id="circle17"/>
	<circle cx="15.167" cy="216.173" r="4" fill="#0" id="circle18"/>
	<circle cx="15.167" cy="301.786" r="4" fill="#0" id="circle19"/>
	<circle cx="18.8893" cy="234.784" r="4" fill="#0" id="circle20"/>
	<circle cx="18.8893" cy="253.396" r="4" fill="#0" id="circle21"/>
	<circle cx="18.8893" cy="272.008" r="4" fill="#0" id="circle22"/>
	<circle cx="28.1951" cy="575.377" r="4" fill="#0" id="circle23"/>
	<circle cx="31.9174" cy="117.531" r="4" fill="#0" id="circle24"/>
	<circle cx="31.9174" cy="547.46" r="4" fill="#0" id="circle25"/>
	<circle cx="35.6398" cy="502.792" r="4" fill="#0" id="circle26"/>
	<circle cx="35.6398" cy="521.403" r="4" fill="#0" id="circle27"/>
	<circle cx="48.6679" cy="108.225" r="4" fill="#0" id="circle28"/>
	<circle cx="54.2514" cy="500.931" r="4" fill="#0" id="circle29"/>
	<circle cx="67.2795" cy="100.78" r="4" fill="#0" id="circle30"/>
	<circle cx="72.863" cy="500.931" r="4" fill="#0" id="circle31"/>
	<circle cx="85.8912" cy="97.0582" r="4" fill="#0" id="circle32"/>
	<circle cx="91.4747" cy="500.931" r="4" fill="#0" id="circle33"/>
	<circle cx="104.503" cy="89.6135" r="4" fill="#0" id="circle34"/>
	<circle cx="110.086" cy="500.931" r="4" fill="#0" id="circle35"/>
	<circle cx="123.114" cy="85.8912" r="4" fill="#0" id="circle36"/>
	<circle cx="128.698" cy="500.931" r="4" fill="#0" id="circle37"/>
	<circle cx="141.726" cy="82.1689" r="4" fill="#0" id="circle38"/>
	<circle cx="147.31" cy="500.931" r="4" fill="#0" id="circle39"/>
	<circle cx="160.338" cy="78.4465" r="4" fill="#0" id="circle40"/>
	<circle cx="165.921" cy="500.931" r="4" fill="#0" id="circle41"/>
	<circle cx="178.949" cy="74.7242" r="4" fill="#0" id="circle42"/>
	<circle cx="184.533" cy="500.931" r="4" fill="#0" id="circle43"/>
	<circle cx="197.561" cy="71.0019" r="4" fill="#0" id="circle44"/>
	<circle cx="203.144" cy="500.931" r="4" fill="#0" id="circle45"/>
	<circle cx="208.728" cy="56.1126" r="4" fill="#0" id="circle46"/>
	<circle cx="221.756" cy="500.931" r="4" fill="#0" id="circle47"/>
	<circle cx="227.34" cy="48.6679" r="4" fill="#0" id="circle48"/>
	<circle cx="240.368" cy="500.931" r="4" fill="#0" id="circle49"/>
	<circle cx="245.951" cy="41.2233" r="4" fill="#0" id="circle50"/>
	<circle cx="258.979" cy="500.931" r="4" fill="#0" id="circle51"/>
	<circle cx="262.702" cy="31.9174" r="4" fill="#0" id="circle52"/>
	<circle cx="277.591" cy="17.0281" r="4" fill="#0" id="circle53"/>
	<circle cx="277.591" cy="500.931" r="4" fill="#0" id="circle54"/>
	<circle cx="292.48" cy="4" r="4" fill="#0" id="circle55"/>
	<circle cx="296.203" cy="500.931" r="4" fill="#0" id="circle56"/>
	<circle cx="311.092" cy="7.72233" r="4" fill="#0" id="circle57"/>
	<circle cx="314.814" cy="500.931" r="4" fill="#0" id="circle58"/>
	<circle cx="322.259" cy="22.6116" r="4" fill="#0" id="circle59"/>
	<circle cx="333.426" cy="37.5009" r="4" fill="#0" id="circle60"/>
	<circle cx="333.426" cy="500.931" r="4" fill="#0" id="circle61"/>
	<circle cx="342.732" cy="517.681" r="4" fill="#0" id="circle62"/>
	<circle cx="342.732" cy="536.293" r="4" fill="#0" id="circle63"/>
	<circle cx="346.454" cy="562.349" r="4" fill="#0" id="circle64"/>
	<circle cx="352.038" cy="44.9456" r="4" fill="#0" id="circle65"/>
	<circle cx="355.76" cy="579.099" r="4" fill="#0" id="circle66"/>
	<circle cx="370.649" cy="52.3902" r="4" fill="#0" id="circle67"/>
	<circle cx="370.649" cy="543.737" r="4" fill="#0" id="circle68"/>
	<circle cx="370.649" cy="562.349" r="4" fill="#0" id="circle69"/>
	<circle cx="374.371" cy="513.959" r="4" fill="#0" id="circle70"/>
	<circle cx="385.538" cy="63.5572" r="4" fill="#0" id="circle71"/>
	<circle cx="392.983" cy="512.098" r="4" fill="#0" id="circle72"/>
	<circle cx="402.289" cy="72.863" r="4" fill="#0" id="circle73"/>
	<circle cx="411.595" cy="512.098" r="4" fill="#0" id="circle74"/>
	<circle cx="420.901" cy="74.7242" r="4" fill="#0" id="circle75"/>
	<circle cx="430.206" cy="515.82" r="4" fill="#0" id="circle76"/>
	<circle cx="439.512" cy="80.3077" r="4" fill="#0" id="circle77"/>
	<circle cx="448.818" cy="519.542" r="4" fill="#0" id="circle78"/>
	<circle cx="458.124" cy="84.03" r="4" fill="#0" id="circle79"/>
	<circle cx="467.43" cy="526.987" r="4" fill="#0" id="circle80"/>
	<circle cx="476.735" cy="89.6135" r="4" fill="#0" id="circle81"/>
	<circle cx="484.18" cy="515.82" r="4" fill="#0" id="circle82"/>
	<circle cx="495.347" cy="93.3358" r="4" fill="#0" id="circle83"/>
	<circle cx="502.792" cy="508.375" r="4" fill="#0" id="circle84"/>
	<circle cx="513.959" cy="97.0582" r="4" fill="#0" id="circle85"/>
	<circle cx="521.403" cy="506.514" r="4" fill="#0" id="circle86"/>
	<circle cx="532.57" cy="104.503" r="4" fill="#0" id="circle87"/>
	<circle cx="540.015" cy="512.098" r="4" fill="#0" id="circle88"/>
	<circle cx="551.182" cy="111.947" r="4" fill="#0" id="circle89"/>
	<circle cx="556.765" cy="521.403" r="4" fill="#0" id="circle90"/>
	<circle cx="562.349" cy="540.015" r="4" fill="#0" id="circle91"/>
	<circle cx="562.349" cy="558.627" r="4" fill="#0" id="circle92"/>
	<circle cx="566.071" cy="123.114" r="4" fill="#0" id="circle93"/>
	<circle cx="566.071" cy="236.645" r="4" fill="#0" id="circle94"/>
	<circle cx="567.932" cy="186.394" r="4" fill="#0" id="circle95"/>
	<circle cx="567.932" cy="205.006" r="4" fill="#0" id="circle96"/>
	<circle cx="571.655" cy="575.377" r="4" fill="#0" id="circle97"/>
	<circle cx="579.099" cy="251.535" r="4" fill="#0" id="circle98"/>
	<circle cx="579.099" cy="549.321" r="4" fill="#0" id="circle99"/>
	<circle cx="580.961" cy="134.281" r="4" fill="#0" id="circle100"/>
	<circle cx="582.822" cy="171.505" r="4" fill="#0" id="circle101"/>
	<circle cx="584.683" cy="530.709" r="4" fill="#0" id="circle102"/>
	<circle cx="586.544" cy="152.893" r="4" fill="#0" id="circle103"/>
	<circle cx="593.989" cy="264.563" r="4" fill="#0" id="circle104"/>
	<circle cx="603.295" cy="534.432" r="4" fill="#0" id="circle105"/>
	<circle cx="608.878" cy="275.73" r="4" fill="#0" id="circle106"/>
	<circle cx="621.906" cy="541.876" r="4" fill="#0" id="circle107"/>
	<circle cx="625.629" cy="264.563" r="4" fill="#0" id="circle108"/>
	<circle cx="640.518" cy="545.598" r="4" fill="#0" id="circle109"/>
	<circle cx="642.379" cy="255.257" r="4" fill="#0" id="circle110"/>
	<circle cx="659.129" cy="545.598" r="4" fill="#0" id="circle111"/>
	<circle cx="660.991" cy="249.674" r="4" fill="#0" id="circle112"/>
	<circle cx="677.741" cy="545.598" r="4" fill="#0" id="circle113"/>
	<circle cx="679.602" cy="257.118" r="4" fill="#0" id="circle114"/>
	<circle cx="696.353" cy="541.876" r="4" fill="#0" id="circle115"/>
	<circle cx="698.214" cy="264.563" r="4" fill="#0" id="circle116"/>
	<circle cx="714.964" cy="273.869" r="4" fill="#0" id="circle117"/>
	<circle cx="714.964" cy="538.154" r="4" fill="#0" id="circle118"/>
	<circle cx="733.576" cy="279.452" r="4" fill="#0" id="circle119"/>
	<circle cx="733.576" cy="530.709" r="4" fill="#0" id="circle120"/>
	<circle cx="748.465" cy="290.619" r="4" fill="#0" id="circle121"/>
	<circle cx="752.188" cy="523.265" r="4" fill="#0" id="circle122"/>
	<circle cx="767.077" cy="294.341" r="4" fill="#0" id="circle123"/>
	<circle cx="770.799" cy="515.82" r="4" fill="#0" id="circle124"/>
	<circle cx="785.689" cy="298.064" r="4" fill="#0" id="circle125"/>
	<circle cx="789.411" cy="508.375" r="4" fill="#0" id="circle126"/>
	<circle cx="804.3" cy="298.064" r="4" fill="#0" id="circle127"/>
	<circle cx="808.023" cy="504.653" r="4" fill="#0" id="circle128"/>
	<circle cx="822.912" cy="301.786" r="4" fill="#0" id="circle129"/>
	<circle cx="826.634" cy="508.375" r="4" fill="#0" id="circle130"/>
	<circle cx="841.523" cy="305.508" r="4" fill="#0" id="circle131"/>
	<circle cx="841.523" cy="519.542" r="4" fill="#0" id="circle132"/>
	<circle cx="860.135" cy="305.508" r="4" fill="#0" id="circle133"/>
	<circle cx="860.135" cy="523.265" r="4" fill="#0" id="circle134"/>
	<circle cx="878.747" cy="309.231" r="4" fill="#0" id="circle135"/>
	<circle cx="878.747" cy="519.542" r="4" fill="#0" id="circle136"/>
	<circle cx="897.358" cy="311.092" r="4" fill="#0" id="circle137"/>
	<circle cx="897.358" cy="512.098" r="4" fill="#0" id="circle138"/>
	<circle cx="915.97" cy="316.675" r="4" fill="#0" id="circle139"/>
	<circle cx="915.97" cy="512.098" r="4" fill="#0" id="circle140"/>
	<circle cx="934.582" cy="320.398" r="4" fill="#0" id="circle141"/>
	<circle cx="934.582" cy="512.098" r="4" fill="#0" id="circle142"/>
	<circle cx="953.193" cy="327.842" r="4" fill="#0" id="circle143"/>
	<circle cx="953.193" cy="513.959" r="4" fill="#0" id="circle144"/>
	<circle cx="956.916" cy="554.904" r="4" fill="#0" id="circle145"/>
	<circle cx="960.638" cy="532.57" r="4" fill="#0" id="circle146"/>
	<circle cx="960.638" cy="573.516" r="4" fill="#0" id="circle147"/>
	<circle cx="969.944" cy="337.148" r="4" fill="#0" id="circle148"/>
	<circle cx="973.666" cy="443.235" r="4" fill="#0" id="circle149"/>
	<circle cx="973.666" cy="461.846" r="4" fill="#0" id="circle150"/>
	<circle cx="973.666" cy="480.458" r="4" fill="#0" id="circle151"/>
	<circle cx="977.388" cy="398.567" r="4" fill="#0" id="circle152"/>
	<circle cx="977.388" cy="417.178" r="4" fill="#0" id="circle153"/>
	<circle cx="977.388" cy="499.069" r="4" fill="#0" id="circle154"/>
	<circle cx="979.25" cy="553.043" r="4" fill="#0" id="circle155"/>
	<circle cx="979.25" cy="575.377" r="4" fill="#0" id="circle156"/>
	<circle cx="982.972" cy="517.681" r="4" fill="#0" id="circle157"/>
	<circle cx="984.833" cy="348.315" r="4" fill="#0" id="circle158"/>
	<circle cx="992.278" cy="383.677" r="4" fill="#0" id="circle159"/>
	<circle cx="996" cy="363.205" r="4" fill="#0" id="circle160"/>
	</g>
</svg>