<?xml version="1.0" encoding="UTF-8" standalone="no"?>
<!-- Created with CurveBenchmark -->
<svg
	xmlns:dc="http://purl.org/dc/elements/1.1/"
	xmlns:cc="http://creativecommons.org/ns#"
	xmlns:rdf="http://www.w3.org/1999/02/22-rdf-syntax-ns#"
	xmlns:svg="http://www.w3.org/2000/svg"
	xmlns="http://www.w3.org/2000/svg"
	xmlns:sodipodi="http://sodipodi.sourceforge.net/DTD/sodipodi-0.dtd"
	xmlns:inkscape="http://www.inkscape.org/namespaces/inkscape"
	width="1000"
	height="1000"
	id="svg2"
	version="1.1"
	sodipodi:docname="manifold/gathang-hammer280.png.txt">
<defs
	id="defs4" />
<metadata
	id="metadata7">
	<rdf:RDF>
		<cc:Work
			rdf:about="">
			<dc:format>image/svg+xml</dc:format>
			<dc:type
				rdf:resource="http://purl.org/dc/dcmitype/StillImage" />
			<dc:title></dc:title>
		</cc:Work>
	</rdf:RDF>
</metadata>
<g
	inkscape:label="Layer 1"
	inkscape:groupmode="layer"
	id="layer1">
	<path style="fill:none;stroke:red;stroke-width:1px;stroke-linecap:butt;stroke-linejoin:miter;stroke-opacity:1" d="M 55.7565,199.525 32.7536,179.397 z" id="boundary" inkscape:connector-curvature="0" />
	<path style="fill:none;stroke:red;stroke-width:1px;stroke-linecap:butt;stroke-linejoin:miter;stroke-opacity:1" d="M 15.5014,73.0087 27.0029,32.7536 z" id="boundary" inkscape:connector-curvature="0" />
	<path style="fill:none;stroke:red;stroke-width:1px;stroke-linecap:butt;stroke-linejoin:miter;stroke-opacity:1" d="M 4,170.771 4,142.017 z" id="boundary" inkscape:connector-curvature="0" />
	<path style="fill:none;stroke:red;stroke-width:1px;stroke-linecap:butt;stroke-linejoin:miter;stroke-opacity:1" d="M 32.7536,179.397 4,170.771 z" id="boundary" inkscape:connector-curvature="0" />
	<path style="fill:none;stroke:red;stroke-width:1px;stroke-linecap:butt;stroke-linejoin:miter;stroke-opacity:1" d="M 55.7565,418.052 50.0058,446.806 z" id="boundary" inkscape:connector-curvature="0" />
	<path style="fill:none;stroke:red;stroke-width:1px;stroke-linecap:butt;stroke-linejoin:miter;stroke-opacity:1" d="M 50.0058,446.806 32.7536,475.559 z" id="boundary" inkscape:connector-curvature="0" />
	<path style="fill:none;stroke:red;stroke-width:1px;stroke-linecap:butt;stroke-linejoin:miter;stroke-opacity:1" d="M 32.7536,504.313 32.7536,475.559 z" id="boundary" inkscape:connector-curvature="0" />
	<path style="fill:none;stroke:red;stroke-width:1px;stroke-linecap:butt;stroke-linejoin:miter;stroke-opacity:1" d="M 4,142.017 9.75072,101.762 z" id="boundary" inkscape:connector-curvature="0" />
	<path style="fill:none;stroke:red;stroke-width:1px;stroke-linecap:butt;stroke-linejoin:miter;stroke-opacity:1" d="M 27.0029,32.7536 38.5043,4 z" id="boundary" inkscape:connector-curvature="0" />
	<path style="fill:none;stroke:red;stroke-width:1px;stroke-linecap:butt;stroke-linejoin:miter;stroke-opacity:1" d="M 38.5043,4 67.258,4 z" id="boundary" inkscape:connector-curvature="0" />
	<path style="fill:none;stroke:red;stroke-width:1px;stroke-linecap:butt;stroke-linejoin:miter;stroke-opacity:1" d="M 55.7565,199.525 55.7565,228.278 z" id="boundary" inkscape:connector-curvature="0" />
	<path style="fill:none;stroke:red;stroke-width:1px;stroke-linecap:butt;stroke-linejoin:miter;stroke-opacity:1" d="M 58.6319,257.032 55.7565,228.278 z" id="boundary" inkscape:connector-curvature="0" />
	<path style="fill:none;stroke:red;stroke-width:1px;stroke-linecap:butt;stroke-linejoin:miter;stroke-opacity:1" d="M 61.5072,285.786 58.6319,257.032 z" id="boundary" inkscape:connector-curvature="0" />
	<path style="fill:none;stroke:red;stroke-width:1px;stroke-linecap:butt;stroke-linejoin:miter;stroke-opacity:1" d="M 9.75072,101.762 15.5014,73.0087 z" id="boundary" inkscape:connector-curvature="0" />
	<path style="fill:none;stroke:red;stroke-width:1px;stroke-linecap:butt;stroke-linejoin:miter;stroke-opacity:1" d="M 61.5072,314.539 61.5072,343.293 z" id="boundary" inkscape:connector-curvature="0" />
	<path style="fill:none;stroke:red;stroke-width:1px;stroke-linecap:butt;stroke-linejoin:miter;stroke-opacity:1" d="M 61.5072,285.786 61.5072,314.539 z" id="boundary" inkscape:connector-curvature="0" />
	<path style="fill:none;stroke:red;stroke-width:1px;stroke-linecap:butt;stroke-linejoin:miter;stroke-opacity:1" d="M 61.5072,343.293 61.5072,372.046 z" id="boundary" inkscape:connector-curvature="0" />
	<path style="fill:none;stroke:red;stroke-width:1px;stroke-linecap:butt;stroke-linejoin:miter;stroke-opacity:1" d="M 61.5072,372.046 55.7565,418.052 z" id="boundary" inkscape:connector-curvature="0" />
	<path style="fill:none;stroke:red;stroke-width:1px;stroke-linecap:butt;stroke-linejoin:miter;stroke-opacity:1" d="M 32.7536,533.067 32.7536,561.82 z" id="boundary" inkscape:connector-curvature="0" />
	<path style="fill:none;stroke:red;stroke-width:1px;stroke-linecap:butt;stroke-linejoin:miter;stroke-opacity:1" d="M 32.7536,533.067 32.7536,504.313 z" id="boundary" inkscape:connector-curvature="0" />
	<path style="fill:none;stroke:red;stroke-width:1px;stroke-linecap:butt;stroke-linejoin:miter;stroke-opacity:1" d="M 32.7536,590.574 32.7536,619.328 z" id="boundary" inkscape:connector-curvature="0" />
	<path style="fill:none;stroke:red;stroke-width:1px;stroke-linecap:butt;stroke-linejoin:miter;stroke-opacity:1" d="M 32.7536,590.574 32.7536,561.82 z" id="boundary" inkscape:connector-curvature="0" />
	<path style="fill:none;stroke:red;stroke-width:1px;stroke-linecap:butt;stroke-linejoin:miter;stroke-opacity:1" d="M 32.7536,648.081 32.7536,676.835 z" id="boundary" inkscape:connector-curvature="0" />
	<path style="fill:none;stroke:red;stroke-width:1px;stroke-linecap:butt;stroke-linejoin:miter;stroke-opacity:1" d="M 32.7536,619.328 32.7536,648.081 z" id="boundary" inkscape:connector-curvature="0" />
	<path style="fill:none;stroke:red;stroke-width:1px;stroke-linecap:butt;stroke-linejoin:miter;stroke-opacity:1" d="M 32.7536,676.835 32.7536,705.588 z" id="boundary" inkscape:connector-curvature="0" />
	<path style="fill:none;stroke:red;stroke-width:1px;stroke-linecap:butt;stroke-linejoin:miter;stroke-opacity:1" d="M 32.7536,734.342 32.7536,705.588 z" id="boundary" inkscape:connector-curvature="0" />
	<path style="fill:none;stroke:red;stroke-width:1px;stroke-linecap:butt;stroke-linejoin:miter;stroke-opacity:1" d="M 32.7536,734.342 32.7536,763.096 z" id="boundary" inkscape:connector-curvature="0" />
	<path style="fill:none;stroke:red;stroke-width:1px;stroke-linecap:butt;stroke-linejoin:miter;stroke-opacity:1" d="M 32.7536,791.849 32.7536,763.096 z" id="boundary" inkscape:connector-curvature="0" />
	<path style="fill:none;stroke:red;stroke-width:1px;stroke-linecap:butt;stroke-linejoin:miter;stroke-opacity:1" d="M 32.7536,791.849 32.7536,820.603 z" id="boundary" inkscape:connector-curvature="0" />
	<path style="fill:none;stroke:red;stroke-width:1px;stroke-linecap:butt;stroke-linejoin:miter;stroke-opacity:1" d="M 32.7536,849.357 32.7536,820.603 z" id="boundary" inkscape:connector-curvature="0" />
	<path style="fill:none;stroke:red;stroke-width:1px;stroke-linecap:butt;stroke-linejoin:miter;stroke-opacity:1" d="M 32.7536,878.11 32.7536,849.357 z" id="boundary" inkscape:connector-curvature="0" />
	<path style="fill:none;stroke:red;stroke-width:1px;stroke-linecap:butt;stroke-linejoin:miter;stroke-opacity:1" d="M 32.7536,878.11 32.7536,906.864 z" id="boundary" inkscape:connector-curvature="0" />
	<path style="fill:none;stroke:red;stroke-width:1px;stroke-linecap:butt;stroke-linejoin:miter;stroke-opacity:1" d="M 32.7536,935.617 32.7536,906.864 z" id="boundary" inkscape:connector-curvature="0" />
	<path style="fill:none;stroke:red;stroke-width:1px;stroke-linecap:butt;stroke-linejoin:miter;stroke-opacity:1" d="M 70.1333,996 41.3797,996 z" id="boundary" inkscape:connector-curvature="0" />
	<path style="fill:none;stroke:red;stroke-width:1px;stroke-linecap:butt;stroke-linejoin:miter;stroke-opacity:1" d="M 41.3797,996 27.0029,970.122 z" id="boundary" inkscape:connector-curvature="0" />
	<path style="fill:none;stroke:red;stroke-width:1px;stroke-linecap:butt;stroke-linejoin:miter;stroke-opacity:1" d="M 98.887,996 70.1333,996 z" id="boundary" inkscape:connector-curvature="0" />
	<path style="fill:none;stroke:red;stroke-width:1px;stroke-linecap:butt;stroke-linejoin:miter;stroke-opacity:1" d="M 27.0029,970.122 32.7536,935.617 z" id="boundary" inkscape:connector-curvature="0" />
	<path style="fill:none;stroke:red;stroke-width:1px;stroke-linecap:butt;stroke-linejoin:miter;stroke-opacity:1" d="M 67.258,4 96.0116,4 z" id="boundary" inkscape:connector-curvature="0" />
	<path style="fill:none;stroke:red;stroke-width:1px;stroke-linecap:butt;stroke-linejoin:miter;stroke-opacity:1" d="M 121.89,245.53 121.89,274.284 z" id="boundary" inkscape:connector-curvature="0" />
	<path style="fill:none;stroke:red;stroke-width:1px;stroke-linecap:butt;stroke-linejoin:miter;stroke-opacity:1" d="M 127.641,193.774 121.89,245.53 z" id="boundary" inkscape:connector-curvature="0" />
	<path style="fill:none;stroke:red;stroke-width:1px;stroke-linecap:butt;stroke-linejoin:miter;stroke-opacity:1" d="M 121.89,303.038 121.89,274.284 z" id="boundary" inkscape:connector-curvature="0" />
	<path style="fill:none;stroke:red;stroke-width:1px;stroke-linecap:butt;stroke-linejoin:miter;stroke-opacity:1" d="M 121.89,303.038 121.89,331.791 z" id="boundary" inkscape:connector-curvature="0" />
	<path style="fill:none;stroke:red;stroke-width:1px;stroke-linecap:butt;stroke-linejoin:miter;stroke-opacity:1" d="M 121.89,360.545 121.89,389.299 z" id="boundary" inkscape:connector-curvature="0" />
	<path style="fill:none;stroke:red;stroke-width:1px;stroke-linecap:butt;stroke-linejoin:miter;stroke-opacity:1" d="M 130.516,446.806 121.89,418.052 z" id="boundary" inkscape:connector-curvature="0" />
	<path style="fill:none;stroke:red;stroke-width:1px;stroke-linecap:butt;stroke-linejoin:miter;stroke-opacity:1" d="M 121.89,418.052 121.89,389.299 z" id="boundary" inkscape:connector-curvature="0" />
	<path style="fill:none;stroke:red;stroke-width:1px;stroke-linecap:butt;stroke-linejoin:miter;stroke-opacity:1" d="M 121.89,360.545 121.89,331.791 z" id="boundary" inkscape:connector-curvature="0" />
	<path style="fill:none;stroke:red;stroke-width:1px;stroke-linecap:butt;stroke-linejoin:miter;stroke-opacity:1" d="M 96.0116,4 124.765,4 z" id="boundary" inkscape:connector-curvature="0" />
	<path style="fill:none;stroke:red;stroke-width:1px;stroke-linecap:butt;stroke-linejoin:miter;stroke-opacity:1" d="M 139.142,124.765 144.893,84.5101 z" id="boundary" inkscape:connector-curvature="0" />
	<path style="fill:none;stroke:red;stroke-width:1px;stroke-linecap:butt;stroke-linejoin:miter;stroke-opacity:1" d="M 144.893,84.5101 162.145,61.5072 z" id="boundary" inkscape:connector-curvature="0" />
	<path style="fill:none;stroke:red;stroke-width:1px;stroke-linecap:butt;stroke-linejoin:miter;stroke-opacity:1" d="M 139.142,124.765 133.391,165.02 z" id="boundary" inkscape:connector-curvature="0" />
	<path style="fill:none;stroke:red;stroke-width:1px;stroke-linecap:butt;stroke-linejoin:miter;stroke-opacity:1" d="M 127.641,193.774 133.391,165.02 z" id="boundary" inkscape:connector-curvature="0" />
	<path style="fill:none;stroke:red;stroke-width:1px;stroke-linecap:butt;stroke-linejoin:miter;stroke-opacity:1" d="M 144.893,472.684 130.516,446.806 z" id="boundary" inkscape:connector-curvature="0" />
	<path style="fill:none;stroke:red;stroke-width:1px;stroke-linecap:butt;stroke-linejoin:miter;stroke-opacity:1" d="M 150.643,501.438 144.893,472.684 z" id="boundary" inkscape:connector-curvature="0" />
	<path style="fill:none;stroke:red;stroke-width:1px;stroke-linecap:butt;stroke-linejoin:miter;stroke-opacity:1" d="M 150.643,501.438 150.643,530.191 z" id="boundary" inkscape:connector-curvature="0" />
	<path style="fill:none;stroke:red;stroke-width:1px;stroke-linecap:butt;stroke-linejoin:miter;stroke-opacity:1" d="M 124.765,4 153.519,12.6261 z" id="boundary" inkscape:connector-curvature="0" />
	<path style="fill:none;stroke:red;stroke-width:1px;stroke-linecap:butt;stroke-linejoin:miter;stroke-opacity:1" d="M 153.519,12.6261 162.145,61.5072 z" id="boundary" inkscape:connector-curvature="0" />
	<path style="fill:none;stroke:red;stroke-width:1px;stroke-linecap:butt;stroke-linejoin:miter;stroke-opacity:1" d="M 150.643,558.945 150.643,587.699 z" id="boundary" inkscape:connector-curvature="0" />
	<path style="fill:none;stroke:red;stroke-width:1px;stroke-linecap:butt;stroke-linejoin:miter;stroke-opacity:1" d="M 150.643,558.945 150.643,530.191 z" id="boundary" inkscape:connector-curvature="0" />
	<path style="fill:none;stroke:red;stroke-width:1px;stroke-linecap:butt;stroke-linejoin:miter;stroke-opacity:1" d="M 150.643,616.452 150.643,645.206 z" id="boundary" inkscape:connector-curvature="0" />
	<path style="fill:none;stroke:red;stroke-width:1px;stroke-linecap:butt;stroke-linejoin:miter;stroke-opacity:1" d="M 150.643,616.452 150.643,587.699 z" id="boundary" inkscape:connector-curvature="0" />
	<path style="fill:none;stroke:red;stroke-width:1px;stroke-linecap:butt;stroke-linejoin:miter;stroke-opacity:1" d="M 127.641,996 98.887,996 z" id="boundary" inkscape:connector-curvature="0" />
	<path style="fill:none;stroke:red;stroke-width:1px;stroke-linecap:butt;stroke-linejoin:miter;stroke-opacity:1" d="M 150.643,673.959 150.643,702.713 z" id="boundary" inkscape:connector-curvature="0" />
	<path style="fill:none;stroke:red;stroke-width:1px;stroke-linecap:butt;stroke-linejoin:miter;stroke-opacity:1" d="M 150.643,673.959 150.643,645.206 z" id="boundary" inkscape:connector-curvature="0" />
	<path style="fill:none;stroke:red;stroke-width:1px;stroke-linecap:butt;stroke-linejoin:miter;stroke-opacity:1" d="M 150.643,702.713 150.643,731.467 z" id="boundary" inkscape:connector-curvature="0" />
	<path style="fill:none;stroke:red;stroke-width:1px;stroke-linecap:butt;stroke-linejoin:miter;stroke-opacity:1" d="M 150.643,731.467 150.643,760.22 z" id="boundary" inkscape:connector-curvature="0" />
	<path style="fill:none;stroke:red;stroke-width:1px;stroke-linecap:butt;stroke-linejoin:miter;stroke-opacity:1" d="M 150.643,760.22 150.643,788.974 z" id="boundary" inkscape:connector-curvature="0" />
	<path style="fill:none;stroke:red;stroke-width:1px;stroke-linecap:butt;stroke-linejoin:miter;stroke-opacity:1" d="M 150.643,817.728 150.643,846.481 z" id="boundary" inkscape:connector-curvature="0" />
	<path style="fill:none;stroke:red;stroke-width:1px;stroke-linecap:butt;stroke-linejoin:miter;stroke-opacity:1" d="M 150.643,817.728 150.643,788.974 z" id="boundary" inkscape:connector-curvature="0" />
	<path style="fill:none;stroke:red;stroke-width:1px;stroke-linecap:butt;stroke-linejoin:miter;stroke-opacity:1" d="M 150.643,846.481 150.643,875.235 z" id="boundary" inkscape:connector-curvature="0" />
	<path style="fill:none;stroke:red;stroke-width:1px;stroke-linecap:butt;stroke-linejoin:miter;stroke-opacity:1" d="M 150.643,903.988 150.643,932.742 z" id="boundary" inkscape:connector-curvature="0" />
	<path style="fill:none;stroke:red;stroke-width:1px;stroke-linecap:butt;stroke-linejoin:miter;stroke-opacity:1" d="M 150.643,903.988 150.643,875.235 z" id="boundary" inkscape:connector-curvature="0" />
	<path style="fill:none;stroke:red;stroke-width:1px;stroke-linecap:butt;stroke-linejoin:miter;stroke-opacity:1" d="M 156.394,990.249 150.643,961.496 z" id="boundary" inkscape:connector-curvature="0" />
	<path style="fill:none;stroke:red;stroke-width:1px;stroke-linecap:butt;stroke-linejoin:miter;stroke-opacity:1" d="M 150.643,961.496 150.643,932.742 z" id="boundary" inkscape:connector-curvature="0" />
	<path style="fill:none;stroke:red;stroke-width:1px;stroke-linecap:butt;stroke-linejoin:miter;stroke-opacity:1" d="M 156.394,990.249 127.641,996 z" id="boundary" inkscape:connector-curvature="0" />
	<circle cx="4" cy="142.017" r="4" fill="#0" id="circle0"/>
	<circle cx="4" cy="170.771" r="4" fill="#0" id="circle1"/>
	<circle cx="9.75072" cy="101.762" r="4" fill="#0" id="circle2"/>
	<circle cx="15.5014" cy="73.0087" r="4" fill="#0" id="circle3"/>
	<circle cx="27.0029" cy="32.7536" r="4" fill="#0" id="circle4"/>
	<circle cx="27.0029" cy="970.122" r="4" fill="#0" id="circle5"/>
	<circle cx="32.7536" cy="179.397" r="4" fill="#0" id="circle6"/>
	<circle cx="32.7536" cy="475.559" r="4" fill="#0" id="circle7"/>
	<circle cx="32.7536" cy="504.313" r="4" fill="#0" id="circle8"/>
	<circle cx="32.7536" cy="533.067" r="4" fill="#0" id="circle9"/>
	<circle cx="32.7536" cy="561.82" r="4" fill="#0" id="circle10"/>
	<circle cx="32.7536" cy="590.574" r="4" fill="#0" id="circle11"/>
	<circle cx="32.7536" cy="619.328" r="4" fill="#0" id="circle12"/>
	<circle cx="32.7536" cy="648.081" r="4" fill="#0" id="circle13"/>
	<circle cx="32.7536" cy="676.835" r="4" fill="#0" id="circle14"/>
	<circle cx="32.7536" cy="705.588" r="4" fill="#0" id="circle15"/>
	<circle cx="32.7536" cy="734.342" r="4" fill="#0" id="circle16"/>
	<circle cx="32.7536" cy="763.096" r="4" fill="#0" id="circle17"/>
	<circle cx="32.7536" cy="791.849" r="4" fill="#0" id="circle18"/>
	<circle cx="32.7536" cy="820.603" r="4" fill="#0" id="circle19"/>
	<circle cx="32.7536" cy="849.357" r="4" fill="#0" id="circle20"/>
	<circle cx="32.7536" cy="878.11" r="4" fill="#0" id="circle21"/>
	<circle cx="32.7536" cy="906.864" r="4" fill="#0" id="circle22"/>
	<circle cx="32.7536" cy="935.617" r="4" fill="#0" id="circle23"/>
	<circle cx="38.5043" cy="4" r="4" fill="#0" id="circle24"/>
	<circle cx="41.3797" cy="996" r="4" fill="#0" id="circle25"/>
	<circle cx="50.0058" cy="446.806" r="4" fill="#0" id="circle26"/>
	<circle cx="55.7565" cy="199.525" r="4" fill="#0" id="circle27"/>
	<circle cx="55.7565" cy="228.278" r="4" fill="#0" id="circle28"/>
	<circle cx="55.7565" cy="418.052" r="4" fill="#0" id="circle29"/>
	<circle cx="58.6319" cy="257.032" r="4" fill="#0" id="circle30"/>
	<circle cx="61.5072" cy="285.786" r="4" fill="#0" id="circle31"/>
	<circle cx="61.5072" cy="314.539" r="4" fill="#0" id="circle32"/>
	<circle cx="61.5072" cy="343.293" r="4" fill="#0" id="circle33"/>
	<circle cx="61.5072" cy="372.046" r="4" fill="#0" id="circle34"/>
	<circle cx="67.258" cy="4" r="4" fill="#0" id="circle35"/>
	<circle cx="70.1333" cy="996" r="4" fill="#0" id="circle36"/>
	<circle cx="96.0116" cy="4" r="4" fill="#0" id="circle37"/>
	<circle cx="98.887" cy="996" r="4" fill="#0" id="circle38"/>
	<circle cx="121.89" cy="245.53" r="4" fill="#0" id="circle39"/>
	<circle cx="121.89" cy="274.284" r="4" fill="#0" id="circle40"/>
	<circle cx="121.89" cy="303.038" r="4" fill="#0" id="circle41"/>
	<circle cx="121.89" cy="331.791" r="4" fill="#0" id="circle42"/>
	<circle cx="121.89" cy="360.545" r="4" fill="#0" id="circle43"/>
	<circle cx="121.89" cy="389.299" r="4" fill="#0" id="circle44"/>
	<circle cx="121.89" cy="418.052" r="4" fill="#0" id="circle45"/>
	<circle cx="124.765" cy="4" r="4" fill="#0" id="circle46"/>
	<circle cx="127.641" cy="193.774" r="4" fill="#0" id="circle47"/>
	<circle cx="127.641" cy="996" r="4" fill="#0" id="circle48"/>
	<circle cx="130.516" cy="446.806" r="4" fill="#0" id="circle49"/>
	<circle cx="133.391" cy="165.02" r="4" fill="#0" id="circle50"/>
	<circle cx="139.142" cy="124.765" r="4" fill="#0" id="circle51"/>
	<circle cx="144.893" cy="84.5101" r="4" fill="#0" id="circle52"/>
	<circle cx="144.893" cy="472.684" r="4" fill="#0" id="circle53"/>
	<circle cx="150.643" cy="501.438" r="4" fill="#0" id="circle54"/>
	<circle cx="150.643" cy="530.191" r="4" fill="#0" id="circle55"/>
	<circle cx="150.643" cy="558.945" r="4" fill="#0" id="circle56"/>
	<circle cx="150.643" cy="587.699" r="4" fill="#0" id="circle57"/>
	<circle cx="150.643" cy="616.452" r="4" fill="#0" id="circle58"/>
	<circle cx="150.643" cy="645.206" r="4" fill="#0" id="circle59"/>
	<circle cx="150.643" cy="673.959" r="4" fill="#0" id="circle60"/>
	<circle cx="150.643" cy="702.713" r="4" fill="#0" id="circle61"/>
	<circle cx="150.643" cy="731.467" r="4" fill="#0" id="circle62"/>
	<circle cx="150.643" cy="760.22" r="4" fill="#0" id="circle63"/>
	<circle cx="150.643" cy="788.974" r="4" fill="#0" id="circle64"/>
	<circle cx="150.643" cy="817.728" r="4" fill="#0" id="circle65"/>
	<circle cx="150.643" cy="846.481" r="4" fill="#0" id="circle66"/>
	<circle cx="150.643" cy="875.235" r="4" fill="#0" id="circle67"/>
	<circle cx="150.643" cy="903.988" r="4" fill="#0" id="circle68"/>
	<circle cx="150.643" cy="932.742" r="4" fill="#0" id="circle69"/>
	<circle cx="150.643" cy="961.496" r="4" fill="#0" id="circle70"/>
	<circle cx="153.519" cy="12.6261" r="4" fill="#0" id="circle71"/>
	<circle cx="156.394" cy="990.249" r="4" fill="#0" id="circle72"/>
	<circle cx="162.145" cy="61.5072" r="4" fill="#0" id="circle73"/>
	</g>
</svg>