<?xml version="1.0" encoding="UTF-8" standalone="no"?>
<!-- Created with CurveBenchmark -->
<svg
	xmlns:dc="http://purl.org/dc/elements/1.1/"
	xmlns:cc="http://creativecommons.org/ns#"
	xmlns:rdf="http://www.w3.org/1999/02/22-rdf-syntax-ns#"
	xmlns:svg="http://www.w3.org/2000/svg"
	xmlns="http://www.w3.org/2000/svg"
	xmlns:sodipodi="http://sodipodi.sourceforge.net/DTD/sodipodi-0.dtd"
	xmlns:inkscape="http://www.inkscape.org/namespaces/inkscape"
	width="1000"
	height="1000"
	id="svg2"
	version="1.1"
	sodipodi:docname="manifold/gathan1-children-20.png.txt">
<defs
	id="defs4" />
<metadata
	id="metadata7">
	<rdf:RDF>
		<cc:Work
			rdf:about="">
			<dc:format>image/svg+xml</dc:format>
			<dc:type
				rdf:resource="http://purl.org/dc/dcmitype/StillImage" />
			<dc:title></dc:title>
		</cc:Work>
	</rdf:RDF>
</metadata>
<g
	inkscape:label="Layer 1"
	inkscape:groupmode="layer"
	id="layer1">
	<path style="fill:none;stroke:red;stroke-width:1px;stroke-linecap:butt;stroke-linejoin:miter;stroke-opacity:1" d="M 15.9374,85.1745 15.9374,97.1119 z" id="boundary" inkscape:connector-curvature="0" />
	<path style="fill:none;stroke:red;stroke-width:1px;stroke-linecap:butt;stroke-linejoin:miter;stroke-opacity:1" d="M 15.9374,85.1745 21.9061,73.2371 z" id="boundary" inkscape:connector-curvature="0" />
	<path style="fill:none;stroke:red;stroke-width:1px;stroke-linecap:butt;stroke-linejoin:miter;stroke-opacity:1" d="M 15.9374,109.049 15.9374,97.1119 z" id="boundary" inkscape:connector-curvature="0" />
	<path style="fill:none;stroke:red;stroke-width:1px;stroke-linecap:butt;stroke-linejoin:miter;stroke-opacity:1" d="M 21.9061,119.793 15.9374,109.049 z" id="boundary" inkscape:connector-curvature="0" />
	<path style="fill:none;stroke:red;stroke-width:1px;stroke-linecap:butt;stroke-linejoin:miter;stroke-opacity:1" d="M 4,311.986 9.96871,300.048 z" id="boundary" inkscape:connector-curvature="0" />
	<path style="fill:none;stroke:red;stroke-width:1px;stroke-linecap:butt;stroke-linejoin:miter;stroke-opacity:1" d="M 4,323.923 4,311.986 z" id="boundary" inkscape:connector-curvature="0" />
	<path style="fill:none;stroke:red;stroke-width:1px;stroke-linecap:butt;stroke-linejoin:miter;stroke-opacity:1" d="M 15.9374,288.111 9.96871,300.048 z" id="boundary" inkscape:connector-curvature="0" />
	<path style="fill:none;stroke:red;stroke-width:1px;stroke-linecap:butt;stroke-linejoin:miter;stroke-opacity:1" d="M 21.9061,61.2996 27.8748,49.3622 z" id="boundary" inkscape:connector-curvature="0" />
	<path style="fill:none;stroke:red;stroke-width:1px;stroke-linecap:butt;stroke-linejoin:miter;stroke-opacity:1" d="M 21.9061,73.2371 21.9061,61.2996 z" id="boundary" inkscape:connector-curvature="0" />
	<path style="fill:none;stroke:red;stroke-width:1px;stroke-linecap:butt;stroke-linejoin:miter;stroke-opacity:1" d="M 21.9061,119.793 21.9061,131.73 z" id="boundary" inkscape:connector-curvature="0" />
	<path style="fill:none;stroke:red;stroke-width:1px;stroke-linecap:butt;stroke-linejoin:miter;stroke-opacity:1" d="M 27.8748,142.474 21.9061,131.73 z" id="boundary" inkscape:connector-curvature="0" />
	<path style="fill:none;stroke:red;stroke-width:1px;stroke-linecap:butt;stroke-linejoin:miter;stroke-opacity:1" d="M 21.9061,276.173 15.9374,288.111 z" id="boundary" inkscape:connector-curvature="0" />
	<path style="fill:none;stroke:red;stroke-width:1px;stroke-linecap:butt;stroke-linejoin:miter;stroke-opacity:1" d="M 21.9061,276.173 31.4561,266.623 z" id="boundary" inkscape:connector-curvature="0" />
	<path style="fill:none;stroke:red;stroke-width:1px;stroke-linecap:butt;stroke-linejoin:miter;stroke-opacity:1" d="M 4,347.798 4,335.86 z" id="boundary" inkscape:connector-curvature="0" />
	<path style="fill:none;stroke:red;stroke-width:1px;stroke-linecap:butt;stroke-linejoin:miter;stroke-opacity:1" d="M 15.9374,393.16 9.96871,382.416 z" id="boundary" inkscape:connector-curvature="0" />
	<path style="fill:none;stroke:red;stroke-width:1px;stroke-linecap:butt;stroke-linejoin:miter;stroke-opacity:1" d="M 9.96871,382.416 4,371.673 z" id="boundary" inkscape:connector-curvature="0" />
	<path style="fill:none;stroke:red;stroke-width:1px;stroke-linecap:butt;stroke-linejoin:miter;stroke-opacity:1" d="M 4,371.673 4,359.735 z" id="boundary" inkscape:connector-curvature="0" />
	<path style="fill:none;stroke:red;stroke-width:1px;stroke-linecap:butt;stroke-linejoin:miter;stroke-opacity:1" d="M 4,359.735 4,347.798 z" id="boundary" inkscape:connector-curvature="0" />
	<path style="fill:none;stroke:red;stroke-width:1px;stroke-linecap:butt;stroke-linejoin:miter;stroke-opacity:1" d="M 4,335.86 4,323.923 z" id="boundary" inkscape:connector-curvature="0" />
	<path style="fill:none;stroke:red;stroke-width:1px;stroke-linecap:butt;stroke-linejoin:miter;stroke-opacity:1" d="M 15.9374,393.16 19.5187,405.097 z" id="boundary" inkscape:connector-curvature="0" />
	<path style="fill:none;stroke:red;stroke-width:1px;stroke-linecap:butt;stroke-linejoin:miter;stroke-opacity:1" d="M 19.5187,405.097 21.9061,417.035 z" id="boundary" inkscape:connector-curvature="0" />
	<path style="fill:none;stroke:red;stroke-width:1px;stroke-linecap:butt;stroke-linejoin:miter;stroke-opacity:1" d="M 21.9061,417.035 15.9374,437.329 z" id="boundary" inkscape:connector-curvature="0" />
	<path style="fill:none;stroke:red;stroke-width:1px;stroke-linecap:butt;stroke-linejoin:miter;stroke-opacity:1" d="M 21.9061,460.01 15.9374,449.266 z" id="boundary" inkscape:connector-curvature="0" />
	<path style="fill:none;stroke:red;stroke-width:1px;stroke-linecap:butt;stroke-linejoin:miter;stroke-opacity:1" d="M 15.9374,449.266 15.9374,437.329 z" id="boundary" inkscape:connector-curvature="0" />
	<path style="fill:none;stroke:red;stroke-width:1px;stroke-linecap:butt;stroke-linejoin:miter;stroke-opacity:1" d="M 27.8748,470.753 21.9061,460.01 z" id="boundary" inkscape:connector-curvature="0" />
	<path style="fill:none;stroke:red;stroke-width:1px;stroke-linecap:butt;stroke-linejoin:miter;stroke-opacity:1" d="M 27.8748,49.3622 37.4248,39.8123 z" id="boundary" inkscape:connector-curvature="0" />
	<path style="fill:none;stroke:red;stroke-width:1px;stroke-linecap:butt;stroke-linejoin:miter;stroke-opacity:1" d="M 58.9122,24.2936 68.4621,15.9374 z" id="boundary" inkscape:connector-curvature="0" />
	<path style="fill:none;stroke:red;stroke-width:1px;stroke-linecap:butt;stroke-linejoin:miter;stroke-opacity:1" d="M 68.4621,15.9374 79.2058,9.96871 z" id="boundary" inkscape:connector-curvature="0" />
	<path style="fill:none;stroke:red;stroke-width:1px;stroke-linecap:butt;stroke-linejoin:miter;stroke-opacity:1" d="M 37.4248,39.8123 46.9747,30.2623 z" id="boundary" inkscape:connector-curvature="0" />
	<path style="fill:none;stroke:red;stroke-width:1px;stroke-linecap:butt;stroke-linejoin:miter;stroke-opacity:1" d="M 46.9747,30.2623 58.9122,24.2936 z" id="boundary" inkscape:connector-curvature="0" />
	<path style="fill:none;stroke:red;stroke-width:1px;stroke-linecap:butt;stroke-linejoin:miter;stroke-opacity:1" d="M 79.2058,9.96871 91.1432,4 z" id="boundary" inkscape:connector-curvature="0" />
	<path style="fill:none;stroke:red;stroke-width:1px;stroke-linecap:butt;stroke-linejoin:miter;stroke-opacity:1" d="M 91.1432,4 103.081,4 z" id="boundary" inkscape:connector-curvature="0" />
	<path style="fill:none;stroke:red;stroke-width:1px;stroke-linecap:butt;stroke-linejoin:miter;stroke-opacity:1" d="M 115.018,4 126.955,4 z" id="boundary" inkscape:connector-curvature="0" />
	<path style="fill:none;stroke:red;stroke-width:1px;stroke-linecap:butt;stroke-linejoin:miter;stroke-opacity:1" d="M 138.893,4 150.83,4 z" id="boundary" inkscape:connector-curvature="0" />
	<path style="fill:none;stroke:red;stroke-width:1px;stroke-linecap:butt;stroke-linejoin:miter;stroke-opacity:1" d="M 150.83,4 161.574,9.96871 z" id="boundary" inkscape:connector-curvature="0" />
	<path style="fill:none;stroke:red;stroke-width:1px;stroke-linecap:butt;stroke-linejoin:miter;stroke-opacity:1" d="M 173.511,9.96871 161.574,9.96871 z" id="boundary" inkscape:connector-curvature="0" />
	<path style="fill:none;stroke:red;stroke-width:1px;stroke-linecap:butt;stroke-linejoin:miter;stroke-opacity:1" d="M 126.955,4 138.893,4 z" id="boundary" inkscape:connector-curvature="0" />
	<path style="fill:none;stroke:red;stroke-width:1px;stroke-linecap:butt;stroke-linejoin:miter;stroke-opacity:1" d="M 103.081,4 115.018,4 z" id="boundary" inkscape:connector-curvature="0" />
	<path style="fill:none;stroke:red;stroke-width:1px;stroke-linecap:butt;stroke-linejoin:miter;stroke-opacity:1" d="M 33.8436,153.218 39.8123,163.961 z" id="boundary" inkscape:connector-curvature="0" />
	<path style="fill:none;stroke:red;stroke-width:1px;stroke-linecap:butt;stroke-linejoin:miter;stroke-opacity:1" d="M 33.8436,153.218 27.8748,142.474 z" id="boundary" inkscape:connector-curvature="0" />
	<path style="fill:none;stroke:red;stroke-width:1px;stroke-linecap:butt;stroke-linejoin:miter;stroke-opacity:1" d="M 41.006,257.073 31.4561,266.623 z" id="boundary" inkscape:connector-curvature="0" />
	<path style="fill:none;stroke:red;stroke-width:1px;stroke-linecap:butt;stroke-linejoin:miter;stroke-opacity:1" d="M 39.8123,163.961 45.781,174.705 z" id="boundary" inkscape:connector-curvature="0" />
	<path style="fill:none;stroke:red;stroke-width:1px;stroke-linecap:butt;stroke-linejoin:miter;stroke-opacity:1" d="M 50.556,248.717 41.006,257.073 z" id="boundary" inkscape:connector-curvature="0" />
	<path style="fill:none;stroke:red;stroke-width:1px;stroke-linecap:butt;stroke-linejoin:miter;stroke-opacity:1" d="M 55.3309,183.061 45.781,174.705 z" id="boundary" inkscape:connector-curvature="0" />
	<path style="fill:none;stroke:red;stroke-width:1px;stroke-linecap:butt;stroke-linejoin:miter;stroke-opacity:1" d="M 55.3309,183.061 63.6871,192.611 z" id="boundary" inkscape:connector-curvature="0" />
	<path style="fill:none;stroke:red;stroke-width:1px;stroke-linecap:butt;stroke-linejoin:miter;stroke-opacity:1" d="M 69.6558,203.355 63.6871,192.611 z" id="boundary" inkscape:connector-curvature="0" />
	<path style="fill:none;stroke:red;stroke-width:1px;stroke-linecap:butt;stroke-linejoin:miter;stroke-opacity:1" d="M 69.6558,203.355 69.6558,215.292 z" id="boundary" inkscape:connector-curvature="0" />
	<path style="fill:none;stroke:red;stroke-width:1px;stroke-linecap:butt;stroke-linejoin:miter;stroke-opacity:1" d="M 58.9122,239.167 50.556,248.717 z" id="boundary" inkscape:connector-curvature="0" />
	<path style="fill:none;stroke:red;stroke-width:1px;stroke-linecap:butt;stroke-linejoin:miter;stroke-opacity:1" d="M 58.9122,239.167 64.8809,227.23 z" id="boundary" inkscape:connector-curvature="0" />
	<path style="fill:none;stroke:red;stroke-width:1px;stroke-linecap:butt;stroke-linejoin:miter;stroke-opacity:1" d="M 69.6558,215.292 64.8809,227.23 z" id="boundary" inkscape:connector-curvature="0" />
	<path style="fill:none;stroke:red;stroke-width:1px;stroke-linecap:butt;stroke-linejoin:miter;stroke-opacity:1" d="M 31.4561,494.628 27.8748,482.691 z" id="boundary" inkscape:connector-curvature="0" />
	<path style="fill:none;stroke:red;stroke-width:1px;stroke-linecap:butt;stroke-linejoin:miter;stroke-opacity:1" d="M 27.8748,482.691 27.8748,470.753 z" id="boundary" inkscape:connector-curvature="0" />
	<path style="fill:none;stroke:red;stroke-width:1px;stroke-linecap:butt;stroke-linejoin:miter;stroke-opacity:1" d="M 31.4561,494.628 33.8436,506.566 z" id="boundary" inkscape:connector-curvature="0" />
	<path style="fill:none;stroke:red;stroke-width:1px;stroke-linecap:butt;stroke-linejoin:miter;stroke-opacity:1" d="M 33.8436,506.566 39.8123,517.309 z" id="boundary" inkscape:connector-curvature="0" />
	<path style="fill:none;stroke:red;stroke-width:1px;stroke-linecap:butt;stroke-linejoin:miter;stroke-opacity:1" d="M 39.8123,517.309 39.8123,529.247 z" id="boundary" inkscape:connector-curvature="0" />
	<path style="fill:none;stroke:red;stroke-width:1px;stroke-linecap:butt;stroke-linejoin:miter;stroke-opacity:1" d="M 39.8123,529.247 39.8123,541.184 z" id="boundary" inkscape:connector-curvature="0" />
	<path style="fill:none;stroke:red;stroke-width:1px;stroke-linecap:butt;stroke-linejoin:miter;stroke-opacity:1" d="M 42.1998,553.122 39.8123,541.184 z" id="boundary" inkscape:connector-curvature="0" />
	<path style="fill:none;stroke:red;stroke-width:1px;stroke-linecap:butt;stroke-linejoin:miter;stroke-opacity:1" d="M 45.781,565.059 42.1998,553.122 z" id="boundary" inkscape:connector-curvature="0" />
	<path style="fill:none;stroke:red;stroke-width:1px;stroke-linecap:butt;stroke-linejoin:miter;stroke-opacity:1" d="M 45.781,565.059 45.781,576.996 z" id="boundary" inkscape:connector-curvature="0" />
	<path style="fill:none;stroke:red;stroke-width:1px;stroke-linecap:butt;stroke-linejoin:miter;stroke-opacity:1" d="M 48.1685,588.934 45.781,576.996 z" id="boundary" inkscape:connector-curvature="0" />
	<path style="fill:none;stroke:red;stroke-width:1px;stroke-linecap:butt;stroke-linejoin:miter;stroke-opacity:1" d="M 51.7497,600.871 48.1685,588.934 z" id="boundary" inkscape:connector-curvature="0" />
	<path style="fill:none;stroke:red;stroke-width:1px;stroke-linecap:butt;stroke-linejoin:miter;stroke-opacity:1" d="M 51.7497,600.871 51.7497,612.809 z" id="boundary" inkscape:connector-curvature="0" />
	<path style="fill:none;stroke:red;stroke-width:1px;stroke-linecap:butt;stroke-linejoin:miter;stroke-opacity:1" d="M 51.7497,612.809 57.7184,623.552 z" id="boundary" inkscape:connector-curvature="0" />
	<path style="fill:none;stroke:red;stroke-width:1px;stroke-linecap:butt;stroke-linejoin:miter;stroke-opacity:1" d="M 63.6871,634.296 57.7184,623.552 z" id="boundary" inkscape:connector-curvature="0" />
	<path style="fill:none;stroke:red;stroke-width:1px;stroke-linecap:butt;stroke-linejoin:miter;stroke-opacity:1" d="M 63.6871,634.296 63.6871,646.233 z" id="boundary" inkscape:connector-curvature="0" />
	<path style="fill:none;stroke:red;stroke-width:1px;stroke-linecap:butt;stroke-linejoin:miter;stroke-opacity:1" d="M 63.6871,646.233 69.6558,656.977 z" id="boundary" inkscape:connector-curvature="0" />
	<path style="fill:none;stroke:red;stroke-width:1px;stroke-linecap:butt;stroke-linejoin:miter;stroke-opacity:1" d="M 75.6245,667.721 69.6558,656.977 z" id="boundary" inkscape:connector-curvature="0" />
	<path style="fill:none;stroke:red;stroke-width:1px;stroke-linecap:butt;stroke-linejoin:miter;stroke-opacity:1" d="M 75.6245,667.721 79.2058,679.658 z" id="boundary" inkscape:connector-curvature="0" />
	<path style="fill:none;stroke:red;stroke-width:1px;stroke-linecap:butt;stroke-linejoin:miter;stroke-opacity:1" d="M 93.5307,783.514 87.562,795.451 z" id="boundary" inkscape:connector-curvature="0" />
	<path style="fill:none;stroke:red;stroke-width:1px;stroke-linecap:butt;stroke-linejoin:miter;stroke-opacity:1" d="M 88.7557,688.014 79.2058,679.658 z" id="boundary" inkscape:connector-curvature="0" />
	<path style="fill:none;stroke:red;stroke-width:1px;stroke-linecap:butt;stroke-linejoin:miter;stroke-opacity:1" d="M 87.562,807.389 87.562,795.451 z" id="boundary" inkscape:connector-curvature="0" />
	<path style="fill:none;stroke:red;stroke-width:1px;stroke-linecap:butt;stroke-linejoin:miter;stroke-opacity:1" d="M 87.562,807.389 87.562,819.326 z" id="boundary" inkscape:connector-curvature="0" />
	<path style="fill:none;stroke:red;stroke-width:1px;stroke-linecap:butt;stroke-linejoin:miter;stroke-opacity:1" d="M 93.5307,842.007 87.562,831.264 z" id="boundary" inkscape:connector-curvature="0" />
	<path style="fill:none;stroke:red;stroke-width:1px;stroke-linecap:butt;stroke-linejoin:miter;stroke-opacity:1" d="M 87.562,831.264 87.562,819.326 z" id="boundary" inkscape:connector-curvature="0" />
	<path style="fill:none;stroke:red;stroke-width:1px;stroke-linecap:butt;stroke-linejoin:miter;stroke-opacity:1" d="M 99.4994,771.576 93.5307,783.514 z" id="boundary" inkscape:connector-curvature="0" />
	<path style="fill:none;stroke:red;stroke-width:1px;stroke-linecap:butt;stroke-linejoin:miter;stroke-opacity:1" d="M 88.7557,688.014 97.1119,697.564 z" id="boundary" inkscape:connector-curvature="0" />
	<path style="fill:none;stroke:red;stroke-width:1px;stroke-linecap:butt;stroke-linejoin:miter;stroke-opacity:1" d="M 105.468,759.639 99.4994,771.576 z" id="boundary" inkscape:connector-curvature="0" />
	<path style="fill:none;stroke:red;stroke-width:1px;stroke-linecap:butt;stroke-linejoin:miter;stroke-opacity:1" d="M 99.4994,864.688 93.5307,853.945 z" id="boundary" inkscape:connector-curvature="0" />
	<path style="fill:none;stroke:red;stroke-width:1px;stroke-linecap:butt;stroke-linejoin:miter;stroke-opacity:1" d="M 93.5307,853.945 93.5307,842.007 z" id="boundary" inkscape:connector-curvature="0" />
	<path style="fill:none;stroke:red;stroke-width:1px;stroke-linecap:butt;stroke-linejoin:miter;stroke-opacity:1" d="M 99.4994,864.688 103.081,876.626 z" id="boundary" inkscape:connector-curvature="0" />
	<path style="fill:none;stroke:red;stroke-width:1px;stroke-linecap:butt;stroke-linejoin:miter;stroke-opacity:1" d="M 111.437,717.858 111.437,729.795 z" id="boundary" inkscape:connector-curvature="0" />
	<path style="fill:none;stroke:red;stroke-width:1px;stroke-linecap:butt;stroke-linejoin:miter;stroke-opacity:1" d="M 111.437,741.733 111.437,729.795 z" id="boundary" inkscape:connector-curvature="0" />
	<path style="fill:none;stroke:red;stroke-width:1px;stroke-linecap:butt;stroke-linejoin:miter;stroke-opacity:1" d="M 111.437,741.733 105.468,759.639 z" id="boundary" inkscape:connector-curvature="0" />
	<path style="fill:none;stroke:red;stroke-width:1px;stroke-linecap:butt;stroke-linejoin:miter;stroke-opacity:1" d="M 105.468,888.563 103.081,876.626 z" id="boundary" inkscape:connector-curvature="0" />
	<path style="fill:none;stroke:red;stroke-width:1px;stroke-linecap:butt;stroke-linejoin:miter;stroke-opacity:1" d="M 97.1119,697.564 106.662,705.921 z" id="boundary" inkscape:connector-curvature="0" />
	<path style="fill:none;stroke:red;stroke-width:1px;stroke-linecap:butt;stroke-linejoin:miter;stroke-opacity:1" d="M 106.662,705.921 111.437,717.858 z" id="boundary" inkscape:connector-curvature="0" />
	<path style="fill:none;stroke:red;stroke-width:1px;stroke-linecap:butt;stroke-linejoin:miter;stroke-opacity:1" d="M 99.4994,914.826 99.4994,926.763 z" id="boundary" inkscape:connector-curvature="0" />
	<path style="fill:none;stroke:red;stroke-width:1px;stroke-linecap:butt;stroke-linejoin:miter;stroke-opacity:1" d="M 99.4994,926.763 93.5307,938.7 z" id="boundary" inkscape:connector-curvature="0" />
	<path style="fill:none;stroke:red;stroke-width:1px;stroke-linecap:butt;stroke-linejoin:miter;stroke-opacity:1" d="M 112.631,978.094 103.081,970.931 z" id="boundary" inkscape:connector-curvature="0" />
	<path style="fill:none;stroke:red;stroke-width:1px;stroke-linecap:butt;stroke-linejoin:miter;stroke-opacity:1" d="M 93.5307,950.638 93.5307,938.7 z" id="boundary" inkscape:connector-curvature="0" />
	<path style="fill:none;stroke:red;stroke-width:1px;stroke-linecap:butt;stroke-linejoin:miter;stroke-opacity:1" d="M 103.081,970.931 93.5307,962.575 z" id="boundary" inkscape:connector-curvature="0" />
	<path style="fill:none;stroke:red;stroke-width:1px;stroke-linecap:butt;stroke-linejoin:miter;stroke-opacity:1" d="M 93.5307,962.575 93.5307,950.638 z" id="boundary" inkscape:connector-curvature="0" />
	<path style="fill:none;stroke:red;stroke-width:1px;stroke-linecap:butt;stroke-linejoin:miter;stroke-opacity:1" d="M 99.4994,914.826 105.468,900.501 z" id="boundary" inkscape:connector-curvature="0" />
	<path style="fill:none;stroke:red;stroke-width:1px;stroke-linecap:butt;stroke-linejoin:miter;stroke-opacity:1" d="M 169.93,990.031 157.993,990.031 z" id="boundary" inkscape:connector-curvature="0" />
	<path style="fill:none;stroke:red;stroke-width:1px;stroke-linecap:butt;stroke-linejoin:miter;stroke-opacity:1" d="M 105.468,888.563 105.468,900.501 z" id="boundary" inkscape:connector-curvature="0" />
	<path style="fill:none;stroke:red;stroke-width:1px;stroke-linecap:butt;stroke-linejoin:miter;stroke-opacity:1" d="M 123.374,984.063 135.312,984.063 z" id="boundary" inkscape:connector-curvature="0" />
	<path style="fill:none;stroke:red;stroke-width:1px;stroke-linecap:butt;stroke-linejoin:miter;stroke-opacity:1" d="M 135.312,984.063 146.055,990.031 z" id="boundary" inkscape:connector-curvature="0" />
	<path style="fill:none;stroke:red;stroke-width:1px;stroke-linecap:butt;stroke-linejoin:miter;stroke-opacity:1" d="M 123.374,984.063 112.631,978.094 z" id="boundary" inkscape:connector-curvature="0" />
	<path style="fill:none;stroke:red;stroke-width:1px;stroke-linecap:butt;stroke-linejoin:miter;stroke-opacity:1" d="M 146.055,990.031 157.993,990.031 z" id="boundary" inkscape:connector-curvature="0" />
	<path style="fill:none;stroke:red;stroke-width:1px;stroke-linecap:butt;stroke-linejoin:miter;stroke-opacity:1" d="M 173.511,9.96871 185.449,9.96871 z" id="boundary" inkscape:connector-curvature="0" />
	<path style="fill:none;stroke:red;stroke-width:1px;stroke-linecap:butt;stroke-linejoin:miter;stroke-opacity:1" d="M 185.449,9.96871 196.193,15.9374 z" id="boundary" inkscape:connector-curvature="0" />
	<path style="fill:none;stroke:red;stroke-width:1px;stroke-linecap:butt;stroke-linejoin:miter;stroke-opacity:1" d="M 196.193,15.9374 205.742,23.0999 z" id="boundary" inkscape:connector-curvature="0" />
	<path style="fill:none;stroke:red;stroke-width:1px;stroke-linecap:butt;stroke-linejoin:miter;stroke-opacity:1" d="M 205.742,23.0999 216.486,29.0686 z" id="boundary" inkscape:connector-curvature="0" />
	<path style="fill:none;stroke:red;stroke-width:1px;stroke-linecap:butt;stroke-linejoin:miter;stroke-opacity:1" d="M 216.486,29.0686 226.036,37.4248 z" id="boundary" inkscape:connector-curvature="0" />
	<path style="fill:none;stroke:red;stroke-width:1px;stroke-linecap:butt;stroke-linejoin:miter;stroke-opacity:1" d="M 236.78,43.3935 226.036,37.4248 z" id="boundary" inkscape:connector-curvature="0" />
	<path style="fill:none;stroke:red;stroke-width:1px;stroke-linecap:butt;stroke-linejoin:miter;stroke-opacity:1" d="M 236.78,43.3935 246.33,51.7497 z" id="boundary" inkscape:connector-curvature="0" />
	<path style="fill:none;stroke:red;stroke-width:1px;stroke-linecap:butt;stroke-linejoin:miter;stroke-opacity:1" d="M 246.33,51.7497 249.911,63.6871 z" id="boundary" inkscape:connector-curvature="0" />
	<path style="fill:none;stroke:red;stroke-width:1px;stroke-linecap:butt;stroke-linejoin:miter;stroke-opacity:1" d="M 255.88,74.4308 249.911,63.6871 z" id="boundary" inkscape:connector-curvature="0" />
	<path style="fill:none;stroke:red;stroke-width:1px;stroke-linecap:butt;stroke-linejoin:miter;stroke-opacity:1" d="M 255.88,74.4308 261.848,85.1745 z" id="boundary" inkscape:connector-curvature="0" />
	<path style="fill:none;stroke:red;stroke-width:1px;stroke-linecap:butt;stroke-linejoin:miter;stroke-opacity:1" d="M 261.848,85.1745 261.848,97.1119 z" id="boundary" inkscape:connector-curvature="0" />
	<path style="fill:none;stroke:red;stroke-width:1px;stroke-linecap:butt;stroke-linejoin:miter;stroke-opacity:1" d="M 261.848,97.1119 261.848,109.049 z" id="boundary" inkscape:connector-curvature="0" />
	<path style="fill:none;stroke:red;stroke-width:1px;stroke-linecap:butt;stroke-linejoin:miter;stroke-opacity:1" d="M 249.911,208.13 255.88,196.193 z" id="boundary" inkscape:connector-curvature="0" />
	<path style="fill:none;stroke:red;stroke-width:1px;stroke-linecap:butt;stroke-linejoin:miter;stroke-opacity:1" d="M 249.911,220.067 249.911,208.13 z" id="boundary" inkscape:connector-curvature="0" />
	<path style="fill:none;stroke:red;stroke-width:1px;stroke-linecap:butt;stroke-linejoin:miter;stroke-opacity:1" d="M 265.43,261.848 255.88,253.492 z" id="boundary" inkscape:connector-curvature="0" />
	<path style="fill:none;stroke:red;stroke-width:1px;stroke-linecap:butt;stroke-linejoin:miter;stroke-opacity:1" d="M 249.911,220.067 243.942,232.005 z" id="boundary" inkscape:connector-curvature="0" />
	<path style="fill:none;stroke:red;stroke-width:1px;stroke-linecap:butt;stroke-linejoin:miter;stroke-opacity:1" d="M 249.911,242.748 255.88,253.492 z" id="boundary" inkscape:connector-curvature="0" />
	<path style="fill:none;stroke:red;stroke-width:1px;stroke-linecap:butt;stroke-linejoin:miter;stroke-opacity:1" d="M 249.911,242.748 243.942,232.005 z" id="boundary" inkscape:connector-curvature="0" />
	<path style="fill:none;stroke:red;stroke-width:1px;stroke-linecap:butt;stroke-linejoin:miter;stroke-opacity:1" d="M 261.848,120.987 261.848,132.924 z" id="boundary" inkscape:connector-curvature="0" />
	<path style="fill:none;stroke:red;stroke-width:1px;stroke-linecap:butt;stroke-linejoin:miter;stroke-opacity:1" d="M 261.848,120.987 261.848,109.049 z" id="boundary" inkscape:connector-curvature="0" />
	<path style="fill:none;stroke:red;stroke-width:1px;stroke-linecap:butt;stroke-linejoin:miter;stroke-opacity:1" d="M 261.848,132.924 261.848,144.862 z" id="boundary" inkscape:connector-curvature="0" />
	<path style="fill:none;stroke:red;stroke-width:1px;stroke-linecap:butt;stroke-linejoin:miter;stroke-opacity:1" d="M 261.848,156.799 261.848,144.862 z" id="boundary" inkscape:connector-curvature="0" />
	<path style="fill:none;stroke:red;stroke-width:1px;stroke-linecap:butt;stroke-linejoin:miter;stroke-opacity:1" d="M 261.848,178.286 261.848,156.799 z" id="boundary" inkscape:connector-curvature="0" />
	<path style="fill:none;stroke:red;stroke-width:1px;stroke-linecap:butt;stroke-linejoin:miter;stroke-opacity:1" d="M 261.848,178.286 255.88,196.193 z" id="boundary" inkscape:connector-curvature="0" />
	<path style="fill:none;stroke:red;stroke-width:1px;stroke-linecap:butt;stroke-linejoin:miter;stroke-opacity:1" d="M 276.173,284.529 270.205,273.786 z" id="boundary" inkscape:connector-curvature="0" />
	<path style="fill:none;stroke:red;stroke-width:1px;stroke-linecap:butt;stroke-linejoin:miter;stroke-opacity:1" d="M 270.205,273.786 265.43,261.848 z" id="boundary" inkscape:connector-curvature="0" />
	<path style="fill:none;stroke:red;stroke-width:1px;stroke-linecap:butt;stroke-linejoin:miter;stroke-opacity:1" d="M 279.755,296.467 279.755,308.404 z" id="boundary" inkscape:connector-curvature="0" />
	<path style="fill:none;stroke:red;stroke-width:1px;stroke-linecap:butt;stroke-linejoin:miter;stroke-opacity:1" d="M 276.173,284.529 279.755,296.467 z" id="boundary" inkscape:connector-curvature="0" />
	<path style="fill:none;stroke:red;stroke-width:1px;stroke-linecap:butt;stroke-linejoin:miter;stroke-opacity:1" d="M 279.755,320.342 279.755,308.404 z" id="boundary" inkscape:connector-curvature="0" />
	<path style="fill:none;stroke:red;stroke-width:1px;stroke-linecap:butt;stroke-linejoin:miter;stroke-opacity:1" d="M 285.723,331.085 279.755,320.342 z" id="boundary" inkscape:connector-curvature="0" />
	<path style="fill:none;stroke:red;stroke-width:1px;stroke-linecap:butt;stroke-linejoin:miter;stroke-opacity:1" d="M 285.723,331.085 291.692,341.829 z" id="boundary" inkscape:connector-curvature="0" />
	<path style="fill:none;stroke:red;stroke-width:1px;stroke-linecap:butt;stroke-linejoin:miter;stroke-opacity:1" d="M 291.692,341.829 291.692,353.767 z" id="boundary" inkscape:connector-curvature="0" />
	<path style="fill:none;stroke:red;stroke-width:1px;stroke-linecap:butt;stroke-linejoin:miter;stroke-opacity:1" d="M 291.692,353.767 285.723,369.285 z" id="boundary" inkscape:connector-curvature="0" />
	<path style="fill:none;stroke:red;stroke-width:1px;stroke-linecap:butt;stroke-linejoin:miter;stroke-opacity:1" d="M 285.723,381.223 285.723,369.285 z" id="boundary" inkscape:connector-curvature="0" />
	<path style="fill:none;stroke:red;stroke-width:1px;stroke-linecap:butt;stroke-linejoin:miter;stroke-opacity:1" d="M 288.111,393.16 285.723,381.223 z" id="boundary" inkscape:connector-curvature="0" />
	<path style="fill:none;stroke:red;stroke-width:1px;stroke-linecap:butt;stroke-linejoin:miter;stroke-opacity:1" d="M 294.079,403.904 288.111,393.16 z" id="boundary" inkscape:connector-curvature="0" />
	<path style="fill:none;stroke:red;stroke-width:1px;stroke-linecap:butt;stroke-linejoin:miter;stroke-opacity:1" d="M 303.629,426.585 297.661,415.841 z" id="boundary" inkscape:connector-curvature="0" />
	<path style="fill:none;stroke:red;stroke-width:1px;stroke-linecap:butt;stroke-linejoin:miter;stroke-opacity:1" d="M 297.661,415.841 294.079,403.904 z" id="boundary" inkscape:connector-curvature="0" />
	<path style="fill:none;stroke:red;stroke-width:1px;stroke-linecap:butt;stroke-linejoin:miter;stroke-opacity:1" d="M 314.373,461.203 309.598,449.266 z" id="boundary" inkscape:connector-curvature="0" />
	<path style="fill:none;stroke:red;stroke-width:1px;stroke-linecap:butt;stroke-linejoin:miter;stroke-opacity:1" d="M 309.598,449.266 309.598,437.329 z" id="boundary" inkscape:connector-curvature="0" />
	<path style="fill:none;stroke:red;stroke-width:1px;stroke-linecap:butt;stroke-linejoin:miter;stroke-opacity:1" d="M 314.373,461.203 315.567,473.141 z" id="boundary" inkscape:connector-curvature="0" />
	<path style="fill:none;stroke:red;stroke-width:1px;stroke-linecap:butt;stroke-linejoin:miter;stroke-opacity:1" d="M 303.629,426.585 309.598,437.329 z" id="boundary" inkscape:connector-curvature="0" />
	<path style="fill:none;stroke:red;stroke-width:1px;stroke-linecap:butt;stroke-linejoin:miter;stroke-opacity:1" d="M 315.567,473.141 321.535,483.884 z" id="boundary" inkscape:connector-curvature="0" />
	<path style="fill:none;stroke:red;stroke-width:1px;stroke-linecap:butt;stroke-linejoin:miter;stroke-opacity:1" d="M 321.535,483.884 325.117,495.822 z" id="boundary" inkscape:connector-curvature="0" />
	<path style="fill:none;stroke:red;stroke-width:1px;stroke-linecap:butt;stroke-linejoin:miter;stroke-opacity:1" d="M 331.085,506.566 325.117,495.822 z" id="boundary" inkscape:connector-curvature="0" />
	<path style="fill:none;stroke:red;stroke-width:1px;stroke-linecap:butt;stroke-linejoin:miter;stroke-opacity:1" d="M 331.085,506.566 333.473,518.503 z" id="boundary" inkscape:connector-curvature="0" />
	<path style="fill:none;stroke:red;stroke-width:1px;stroke-linecap:butt;stroke-linejoin:miter;stroke-opacity:1" d="M 335.86,530.44 341.829,541.184 z" id="boundary" inkscape:connector-curvature="0" />
	<path style="fill:none;stroke:red;stroke-width:1px;stroke-linecap:butt;stroke-linejoin:miter;stroke-opacity:1" d="M 341.829,541.184 345.41,553.122 z" id="boundary" inkscape:connector-curvature="0" />
	<path style="fill:none;stroke:red;stroke-width:1px;stroke-linecap:butt;stroke-linejoin:miter;stroke-opacity:1" d="M 335.86,530.44 333.473,518.503 z" id="boundary" inkscape:connector-curvature="0" />
	<path style="fill:none;stroke:red;stroke-width:1px;stroke-linecap:butt;stroke-linejoin:miter;stroke-opacity:1" d="M 265.43,905.276 254.686,899.307 z" id="boundary" inkscape:connector-curvature="0" />
	<path style="fill:none;stroke:red;stroke-width:1px;stroke-linecap:butt;stroke-linejoin:miter;stroke-opacity:1" d="M 249.911,846.782 243.942,864.688 z" id="boundary" inkscape:connector-curvature="0" />
	<path style="fill:none;stroke:red;stroke-width:1px;stroke-linecap:butt;stroke-linejoin:miter;stroke-opacity:1" d="M 255.88,828.876 249.911,846.782 z" id="boundary" inkscape:connector-curvature="0" />
	<path style="fill:none;stroke:red;stroke-width:1px;stroke-linecap:butt;stroke-linejoin:miter;stroke-opacity:1" d="M 243.942,893.338 237.974,882.594 z" id="boundary" inkscape:connector-curvature="0" />
	<path style="fill:none;stroke:red;stroke-width:1px;stroke-linecap:butt;stroke-linejoin:miter;stroke-opacity:1" d="M 237.974,882.594 243.942,864.688 z" id="boundary" inkscape:connector-curvature="0" />
	<path style="fill:none;stroke:red;stroke-width:1px;stroke-linecap:butt;stroke-linejoin:miter;stroke-opacity:1" d="M 254.686,899.307 243.942,893.338 z" id="boundary" inkscape:connector-curvature="0" />
	<path style="fill:none;stroke:red;stroke-width:1px;stroke-linecap:butt;stroke-linejoin:miter;stroke-opacity:1" d="M 267.817,769.189 273.786,757.252 z" id="boundary" inkscape:connector-curvature="0" />
	<path style="fill:none;stroke:red;stroke-width:1px;stroke-linecap:butt;stroke-linejoin:miter;stroke-opacity:1" d="M 267.817,781.126 267.817,769.189 z" id="boundary" inkscape:connector-curvature="0" />
	<path style="fill:none;stroke:red;stroke-width:1px;stroke-linecap:butt;stroke-linejoin:miter;stroke-opacity:1" d="M 279.755,745.314 273.786,757.252 z" id="boundary" inkscape:connector-curvature="0" />
	<path style="fill:none;stroke:red;stroke-width:1px;stroke-linecap:butt;stroke-linejoin:miter;stroke-opacity:1" d="M 267.817,781.126 267.817,793.064 z" id="boundary" inkscape:connector-curvature="0" />
	<path style="fill:none;stroke:red;stroke-width:1px;stroke-linecap:butt;stroke-linejoin:miter;stroke-opacity:1" d="M 267.817,793.064 261.848,810.97 z" id="boundary" inkscape:connector-curvature="0" />
	<path style="fill:none;stroke:red;stroke-width:1px;stroke-linecap:butt;stroke-linejoin:miter;stroke-opacity:1" d="M 255.88,828.876 261.848,810.97 z" id="boundary" inkscape:connector-curvature="0" />
	<path style="fill:none;stroke:red;stroke-width:1px;stroke-linecap:butt;stroke-linejoin:miter;stroke-opacity:1" d="M 192.611,996 180.674,996 z" id="boundary" inkscape:connector-curvature="0" />
	<path style="fill:none;stroke:red;stroke-width:1px;stroke-linecap:butt;stroke-linejoin:miter;stroke-opacity:1" d="M 180.674,996 169.93,990.031 z" id="boundary" inkscape:connector-curvature="0" />
	<path style="fill:none;stroke:red;stroke-width:1px;stroke-linecap:butt;stroke-linejoin:miter;stroke-opacity:1" d="M 216.486,996 204.549,996 z" id="boundary" inkscape:connector-curvature="0" />
	<path style="fill:none;stroke:red;stroke-width:1px;stroke-linecap:butt;stroke-linejoin:miter;stroke-opacity:1" d="M 228.424,996 216.486,996 z" id="boundary" inkscape:connector-curvature="0" />
	<path style="fill:none;stroke:red;stroke-width:1px;stroke-linecap:butt;stroke-linejoin:miter;stroke-opacity:1" d="M 204.549,996 192.611,996 z" id="boundary" inkscape:connector-curvature="0" />
	<path style="fill:none;stroke:red;stroke-width:1px;stroke-linecap:butt;stroke-linejoin:miter;stroke-opacity:1" d="M 265.43,905.276 276.173,911.244 z" id="boundary" inkscape:connector-curvature="0" />
	<path style="fill:none;stroke:red;stroke-width:1px;stroke-linecap:butt;stroke-linejoin:miter;stroke-opacity:1" d="M 276.173,911.244 284.529,920.794 z" id="boundary" inkscape:connector-curvature="0" />
	<path style="fill:none;stroke:red;stroke-width:1px;stroke-linecap:butt;stroke-linejoin:miter;stroke-opacity:1" d="M 296.467,925.569 284.529,920.794 z" id="boundary" inkscape:connector-curvature="0" />
	<path style="fill:none;stroke:red;stroke-width:1px;stroke-linecap:butt;stroke-linejoin:miter;stroke-opacity:1" d="M 252.298,996 240.361,996 z" id="boundary" inkscape:connector-curvature="0" />
	<path style="fill:none;stroke:red;stroke-width:1px;stroke-linecap:butt;stroke-linejoin:miter;stroke-opacity:1" d="M 264.236,994.806 273.786,984.063 z" id="boundary" inkscape:connector-curvature="0" />
	<path style="fill:none;stroke:red;stroke-width:1px;stroke-linecap:butt;stroke-linejoin:miter;stroke-opacity:1" d="M 273.786,984.063 284.529,978.094 z" id="boundary" inkscape:connector-curvature="0" />
	<path style="fill:none;stroke:red;stroke-width:1px;stroke-linecap:butt;stroke-linejoin:miter;stroke-opacity:1" d="M 264.236,994.806 252.298,996 z" id="boundary" inkscape:connector-curvature="0" />
	<path style="fill:none;stroke:red;stroke-width:1px;stroke-linecap:butt;stroke-linejoin:miter;stroke-opacity:1" d="M 240.361,996 228.424,996 z" id="boundary" inkscape:connector-curvature="0" />
	<path style="fill:none;stroke:red;stroke-width:1px;stroke-linecap:butt;stroke-linejoin:miter;stroke-opacity:1" d="M 279.755,745.314 285.723,733.377 z" id="boundary" inkscape:connector-curvature="0" />
	<path style="fill:none;stroke:red;stroke-width:1px;stroke-linecap:butt;stroke-linejoin:miter;stroke-opacity:1" d="M 307.211,659.365 315.567,649.815 z" id="boundary" inkscape:connector-curvature="0" />
	<path style="fill:none;stroke:red;stroke-width:1px;stroke-linecap:butt;stroke-linejoin:miter;stroke-opacity:1" d="M 315.567,649.815 325.117,641.458 z" id="boundary" inkscape:connector-curvature="0" />
	<path style="fill:none;stroke:red;stroke-width:1px;stroke-linecap:butt;stroke-linejoin:miter;stroke-opacity:1" d="M 307.211,659.365 295.273,665.333 z" id="boundary" inkscape:connector-curvature="0" />
	<path style="fill:none;stroke:red;stroke-width:1px;stroke-linecap:butt;stroke-linejoin:miter;stroke-opacity:1" d="M 327.504,619.971 325.117,641.458 z" id="boundary" inkscape:connector-curvature="0" />
	<path style="fill:none;stroke:red;stroke-width:1px;stroke-linecap:butt;stroke-linejoin:miter;stroke-opacity:1" d="M 285.723,697.564 285.723,685.627 z" id="boundary" inkscape:connector-curvature="0" />
	<path style="fill:none;stroke:red;stroke-width:1px;stroke-linecap:butt;stroke-linejoin:miter;stroke-opacity:1" d="M 285.723,673.69 295.273,665.333 z" id="boundary" inkscape:connector-curvature="0" />
	<path style="fill:none;stroke:red;stroke-width:1px;stroke-linecap:butt;stroke-linejoin:miter;stroke-opacity:1" d="M 285.723,685.627 285.723,673.69 z" id="boundary" inkscape:connector-curvature="0" />
	<path style="fill:none;stroke:red;stroke-width:1px;stroke-linecap:butt;stroke-linejoin:miter;stroke-opacity:1" d="M 285.723,697.564 285.723,709.502 z" id="boundary" inkscape:connector-curvature="0" />
	<path style="fill:none;stroke:red;stroke-width:1px;stroke-linecap:butt;stroke-linejoin:miter;stroke-opacity:1" d="M 345.41,553.122 351.379,563.865 z" id="boundary" inkscape:connector-curvature="0" />
	<path style="fill:none;stroke:red;stroke-width:1px;stroke-linecap:butt;stroke-linejoin:miter;stroke-opacity:1" d="M 351.379,563.865 345.41,584.159 z" id="boundary" inkscape:connector-curvature="0" />
	<path style="fill:none;stroke:red;stroke-width:1px;stroke-linecap:butt;stroke-linejoin:miter;stroke-opacity:1" d="M 327.504,608.034 337.054,599.677 z" id="boundary" inkscape:connector-curvature="0" />
	<path style="fill:none;stroke:red;stroke-width:1px;stroke-linecap:butt;stroke-linejoin:miter;stroke-opacity:1" d="M 327.504,619.971 327.504,608.034 z" id="boundary" inkscape:connector-curvature="0" />
	<path style="fill:none;stroke:red;stroke-width:1px;stroke-linecap:butt;stroke-linejoin:miter;stroke-opacity:1" d="M 345.41,584.159 337.054,599.677 z" id="boundary" inkscape:connector-curvature="0" />
	<path style="fill:none;stroke:red;stroke-width:1px;stroke-linecap:butt;stroke-linejoin:miter;stroke-opacity:1" d="M 285.723,709.502 285.723,721.439 z" id="boundary" inkscape:connector-curvature="0" />
	<path style="fill:none;stroke:red;stroke-width:1px;stroke-linecap:butt;stroke-linejoin:miter;stroke-opacity:1" d="M 285.723,733.377 285.723,721.439 z" id="boundary" inkscape:connector-curvature="0" />
	<path style="fill:none;stroke:red;stroke-width:1px;stroke-linecap:butt;stroke-linejoin:miter;stroke-opacity:1" d="M 295.273,972.125 284.529,978.094 z" id="boundary" inkscape:connector-curvature="0" />
	<path style="fill:none;stroke:red;stroke-width:1px;stroke-linecap:butt;stroke-linejoin:miter;stroke-opacity:1" d="M 295.273,972.125 307.211,972.125 z" id="boundary" inkscape:connector-curvature="0" />
	<path style="fill:none;stroke:red;stroke-width:1px;stroke-linecap:butt;stroke-linejoin:miter;stroke-opacity:1" d="M 308.404,929.15 296.467,925.569 z" id="boundary" inkscape:connector-curvature="0" />
	<path style="fill:none;stroke:red;stroke-width:1px;stroke-linecap:butt;stroke-linejoin:miter;stroke-opacity:1" d="M 320.342,931.538 308.404,929.15 z" id="boundary" inkscape:connector-curvature="0" />
	<path style="fill:none;stroke:red;stroke-width:1px;stroke-linecap:butt;stroke-linejoin:miter;stroke-opacity:1" d="M 320.342,931.538 327.504,941.088 z" id="boundary" inkscape:connector-curvature="0" />
	<path style="fill:none;stroke:red;stroke-width:1px;stroke-linecap:butt;stroke-linejoin:miter;stroke-opacity:1" d="M 307.211,972.125 319.148,969.738 z" id="boundary" inkscape:connector-curvature="0" />
	<path style="fill:none;stroke:red;stroke-width:1px;stroke-linecap:butt;stroke-linejoin:miter;stroke-opacity:1" d="M 327.504,960.188 319.148,969.738 z" id="boundary" inkscape:connector-curvature="0" />
	<path style="fill:none;stroke:red;stroke-width:1px;stroke-linecap:butt;stroke-linejoin:miter;stroke-opacity:1" d="M 327.504,960.188 327.504,941.088 z" id="boundary" inkscape:connector-curvature="0" />
	<circle cx="4" cy="311.986" r="4" fill="#0" id="circle0"/>
	<circle cx="4" cy="323.923" r="4" fill="#0" id="circle1"/>
	<circle cx="4" cy="335.86" r="4" fill="#0" id="circle2"/>
	<circle cx="4" cy="347.798" r="4" fill="#0" id="circle3"/>
	<circle cx="4" cy="359.735" r="4" fill="#0" id="circle4"/>
	<circle cx="4" cy="371.673" r="4" fill="#0" id="circle5"/>
	<circle cx="9.96871" cy="300.048" r="4" fill="#0" id="circle6"/>
	<circle cx="9.96871" cy="382.416" r="4" fill="#0" id="circle7"/>
	<circle cx="15.9374" cy="85.1745" r="4" fill="#0" id="circle8"/>
	<circle cx="15.9374" cy="97.1119" r="4" fill="#0" id="circle9"/>
	<circle cx="15.9374" cy="109.049" r="4" fill="#0" id="circle10"/>
	<circle cx="15.9374" cy="288.111" r="4" fill="#0" id="circle11"/>
	<circle cx="15.9374" cy="393.16" r="4" fill="#0" id="circle12"/>
	<circle cx="15.9374" cy="437.329" r="4" fill="#0" id="circle13"/>
	<circle cx="15.9374" cy="449.266" r="4" fill="#0" id="circle14"/>
	<circle cx="19.5187" cy="405.097" r="4" fill="#0" id="circle15"/>
	<circle cx="21.9061" cy="61.2996" r="4" fill="#0" id="circle16"/>
	<circle cx="21.9061" cy="73.2371" r="4" fill="#0" id="circle17"/>
	<circle cx="21.9061" cy="119.793" r="4" fill="#0" id="circle18"/>
	<circle cx="21.9061" cy="131.73" r="4" fill="#0" id="circle19"/>
	<circle cx="21.9061" cy="276.173" r="4" fill="#0" id="circle20"/>
	<circle cx="21.9061" cy="417.035" r="4" fill="#0" id="circle21"/>
	<circle cx="21.9061" cy="460.01" r="4" fill="#0" id="circle22"/>
	<circle cx="27.8748" cy="49.3622" r="4" fill="#0" id="circle23"/>
	<circle cx="27.8748" cy="142.474" r="4" fill="#0" id="circle24"/>
	<circle cx="27.8748" cy="470.753" r="4" fill="#0" id="circle25"/>
	<circle cx="27.8748" cy="482.691" r="4" fill="#0" id="circle26"/>
	<circle cx="31.4561" cy="266.623" r="4" fill="#0" id="circle27"/>
	<circle cx="31.4561" cy="494.628" r="4" fill="#0" id="circle28"/>
	<circle cx="33.8436" cy="153.218" r="4" fill="#0" id="circle29"/>
	<circle cx="33.8436" cy="506.566" r="4" fill="#0" id="circle30"/>
	<circle cx="37.4248" cy="39.8123" r="4" fill="#0" id="circle31"/>
	<circle cx="39.8123" cy="163.961" r="4" fill="#0" id="circle32"/>
	<circle cx="39.8123" cy="517.309" r="4" fill="#0" id="circle33"/>
	<circle cx="39.8123" cy="529.247" r="4" fill="#0" id="circle34"/>
	<circle cx="39.8123" cy="541.184" r="4" fill="#0" id="circle35"/>
	<circle cx="41.006" cy="257.073" r="4" fill="#0" id="circle36"/>
	<circle cx="42.1998" cy="553.122" r="4" fill="#0" id="circle37"/>
	<circle cx="45.781" cy="174.705" r="4" fill="#0" id="circle38"/>
	<circle cx="45.781" cy="565.059" r="4" fill="#0" id="circle39"/>
	<circle cx="45.781" cy="576.996" r="4" fill="#0" id="circle40"/>
	<circle cx="46.9747" cy="30.2623" r="4" fill="#0" id="circle41"/>
	<circle cx="48.1685" cy="588.934" r="4" fill="#0" id="circle42"/>
	<circle cx="50.556" cy="248.717" r="4" fill="#0" id="circle43"/>
	<circle cx="51.7497" cy="600.871" r="4" fill="#0" id="circle44"/>
	<circle cx="51.7497" cy="612.809" r="4" fill="#0" id="circle45"/>
	<circle cx="55.3309" cy="183.061" r="4" fill="#0" id="circle46"/>
	<circle cx="57.7184" cy="623.552" r="4" fill="#0" id="circle47"/>
	<circle cx="58.9122" cy="24.2936" r="4" fill="#0" id="circle48"/>
	<circle cx="58.9122" cy="239.167" r="4" fill="#0" id="circle49"/>
	<circle cx="63.6871" cy="192.611" r="4" fill="#0" id="circle50"/>
	<circle cx="63.6871" cy="634.296" r="4" fill="#0" id="circle51"/>
	<circle cx="63.6871" cy="646.233" r="4" fill="#0" id="circle52"/>
	<circle cx="64.8809" cy="227.23" r="4" fill="#0" id="circle53"/>
	<circle cx="68.4621" cy="15.9374" r="4" fill="#0" id="circle54"/>
	<circle cx="69.6558" cy="203.355" r="4" fill="#0" id="circle55"/>
	<circle cx="69.6558" cy="215.292" r="4" fill="#0" id="circle56"/>
	<circle cx="69.6558" cy="656.977" r="4" fill="#0" id="circle57"/>
	<circle cx="75.6245" cy="667.721" r="4" fill="#0" id="circle58"/>
	<circle cx="79.2058" cy="9.96871" r="4" fill="#0" id="circle59"/>
	<circle cx="79.2058" cy="679.658" r="4" fill="#0" id="circle60"/>
	<circle cx="87.562" cy="795.451" r="4" fill="#0" id="circle61"/>
	<circle cx="87.562" cy="807.389" r="4" fill="#0" id="circle62"/>
	<circle cx="87.562" cy="819.326" r="4" fill="#0" id="circle63"/>
	<circle cx="87.562" cy="831.264" r="4" fill="#0" id="circle64"/>
	<circle cx="88.7557" cy="688.014" r="4" fill="#0" id="circle65"/>
	<circle cx="91.1432" cy="4" r="4" fill="#0" id="circle66"/>
	<circle cx="93.5307" cy="783.514" r="4" fill="#0" id="circle67"/>
	<circle cx="93.5307" cy="842.007" r="4" fill="#0" id="circle68"/>
	<circle cx="93.5307" cy="853.945" r="4" fill="#0" id="circle69"/>
	<circle cx="93.5307" cy="938.7" r="4" fill="#0" id="circle70"/>
	<circle cx="93.5307" cy="950.638" r="4" fill="#0" id="circle71"/>
	<circle cx="93.5307" cy="962.575" r="4" fill="#0" id="circle72"/>
	<circle cx="97.1119" cy="697.564" r="4" fill="#0" id="circle73"/>
	<circle cx="99.4994" cy="771.576" r="4" fill="#0" id="circle74"/>
	<circle cx="99.4994" cy="864.688" r="4" fill="#0" id="circle75"/>
	<circle cx="99.4994" cy="914.826" r="4" fill="#0" id="circle76"/>
	<circle cx="99.4994" cy="926.763" r="4" fill="#0" id="circle77"/>
	<circle cx="103.081" cy="4" r="4" fill="#0" id="circle78"/>
	<circle cx="103.081" cy="876.626" r="4" fill="#0" id="circle79"/>
	<circle cx="103.081" cy="970.931" r="4" fill="#0" id="circle80"/>
	<circle cx="105.468" cy="759.639" r="4" fill="#0" id="circle81"/>
	<circle cx="105.468" cy="888.563" r="4" fill="#0" id="circle82"/>
	<circle cx="105.468" cy="900.501" r="4" fill="#0" id="circle83"/>
	<circle cx="106.662" cy="705.921" r="4" fill="#0" id="circle84"/>
	<circle cx="111.437" cy="717.858" r="4" fill="#0" id="circle85"/>
	<circle cx="111.437" cy="729.795" r="4" fill="#0" id="circle86"/>
	<circle cx="111.437" cy="741.733" r="4" fill="#0" id="circle87"/>
	<circle cx="112.631" cy="978.094" r="4" fill="#0" id="circle88"/>
	<circle cx="115.018" cy="4" r="4" fill="#0" id="circle89"/>
	<circle cx="123.374" cy="984.063" r="4" fill="#0" id="circle90"/>
	<circle cx="126.955" cy="4" r="4" fill="#0" id="circle91"/>
	<circle cx="135.312" cy="984.063" r="4" fill="#0" id="circle92"/>
	<circle cx="138.893" cy="4" r="4" fill="#0" id="circle93"/>
	<circle cx="146.055" cy="990.031" r="4" fill="#0" id="circle94"/>
	<circle cx="150.83" cy="4" r="4" fill="#0" id="circle95"/>
	<circle cx="157.993" cy="990.031" r="4" fill="#0" id="circle96"/>
	<circle cx="161.574" cy="9.96871" r="4" fill="#0" id="circle97"/>
	<circle cx="169.93" cy="990.031" r="4" fill="#0" id="circle98"/>
	<circle cx="173.511" cy="9.96871" r="4" fill="#0" id="circle99"/>
	<circle cx="180.674" cy="996" r="4" fill="#0" id="circle100"/>
	<circle cx="185.449" cy="9.96871" r="4" fill="#0" id="circle101"/>
	<circle cx="192.611" cy="996" r="4" fill="#0" id="circle102"/>
	<circle cx="196.193" cy="15.9374" r="4" fill="#0" id="circle103"/>
	<circle cx="204.549" cy="996" r="4" fill="#0" id="circle104"/>
	<circle cx="205.742" cy="23.0999" r="4" fill="#0" id="circle105"/>
	<circle cx="216.486" cy="29.0686" r="4" fill="#0" id="circle106"/>
	<circle cx="216.486" cy="996" r="4" fill="#0" id="circle107"/>
	<circle cx="226.036" cy="37.4248" r="4" fill="#0" id="circle108"/>
	<circle cx="228.424" cy="996" r="4" fill="#0" id="circle109"/>
	<circle cx="236.78" cy="43.3935" r="4" fill="#0" id="circle110"/>
	<circle cx="237.974" cy="882.594" r="4" fill="#0" id="circle111"/>
	<circle cx="240.361" cy="996" r="4" fill="#0" id="circle112"/>
	<circle cx="243.942" cy="232.005" r="4" fill="#0" id="circle113"/>
	<circle cx="243.942" cy="864.688" r="4" fill="#0" id="circle114"/>
	<circle cx="243.942" cy="893.338" r="4" fill="#0" id="circle115"/>
	<circle cx="246.33" cy="51.7497" r="4" fill="#0" id="circle116"/>
	<circle cx="249.911" cy="63.6871" r="4" fill="#0" id="circle117"/>
	<circle cx="249.911" cy="208.13" r="4" fill="#0" id="circle118"/>
	<circle cx="249.911" cy="220.067" r="4" fill="#0" id="circle119"/>
	<circle cx="249.911" cy="242.748" r="4" fill="#0" id="circle120"/>
	<circle cx="249.911" cy="846.782" r="4" fill="#0" id="circle121"/>
	<circle cx="252.298" cy="996" r="4" fill="#0" id="circle122"/>
	<circle cx="254.686" cy="899.307" r="4" fill="#0" id="circle123"/>
	<circle cx="255.88" cy="74.4308" r="4" fill="#0" id="circle124"/>
	<circle cx="255.88" cy="196.193" r="4" fill="#0" id="circle125"/>
	<circle cx="255.88" cy="253.492" r="4" fill="#0" id="circle126"/>
	<circle cx="255.88" cy="828.876" r="4" fill="#0" id="circle127"/>
	<circle cx="261.848" cy="85.1745" r="4" fill="#0" id="circle128"/>
	<circle cx="261.848" cy="97.1119" r="4" fill="#0" id="circle129"/>
	<circle cx="261.848" cy="109.049" r="4" fill="#0" id="circle130"/>
	<circle cx="261.848" cy="120.987" r="4" fill="#0" id="circle131"/>
	<circle cx="261.848" cy="132.924" r="4" fill="#0" id="circle132"/>
	<circle cx="261.848" cy="144.862" r="4" fill="#0" id="circle133"/>
	<circle cx="261.848" cy="156.799" r="4" fill="#0" id="circle134"/>
	<circle cx="261.848" cy="178.286" r="4" fill="#0" id="circle135"/>
	<circle cx="261.848" cy="810.97" r="4" fill="#0" id="circle136"/>
	<circle cx="264.236" cy="994.806" r="4" fill="#0" id="circle137"/>
	<circle cx="265.43" cy="261.848" r="4" fill="#0" id="circle138"/>
	<circle cx="265.43" cy="905.276" r="4" fill="#0" id="circle139"/>
	<circle cx="267.817" cy="769.189" r="4" fill="#0" id="circle140"/>
	<circle cx="267.817" cy="781.126" r="4" fill="#0" id="circle141"/>
	<circle cx="267.817" cy="793.064" r="4" fill="#0" id="circle142"/>
	<circle cx="270.205" cy="273.786" r="4" fill="#0" id="circle143"/>
	<circle cx="273.786" cy="757.252" r="4" fill="#0" id="circle144"/>
	<circle cx="273.786" cy="984.063" r="4" fill="#0" id="circle145"/>
	<circle cx="276.173" cy="284.529" r="4" fill="#0" id="circle146"/>
	<circle cx="276.173" cy="911.244" r="4" fill="#0" id="circle147"/>
	<circle cx="279.755" cy="296.467" r="4" fill="#0" id="circle148"/>
	<circle cx="279.755" cy="308.404" r="4" fill="#0" id="circle149"/>
	<circle cx="279.755" cy="320.342" r="4" fill="#0" id="circle150"/>
	<circle cx="279.755" cy="745.314" r="4" fill="#0" id="circle151"/>
	<circle cx="284.529" cy="920.794" r="4" fill="#0" id="circle152"/>
	<circle cx="284.529" cy="978.094" r="4" fill="#0" id="circle153"/>
	<circle cx="285.723" cy="331.085" r="4" fill="#0" id="circle154"/>
	<circle cx="285.723" cy="369.285" r="4" fill="#0" id="circle155"/>
	<circle cx="285.723" cy="381.223" r="4" fill="#0" id="circle156"/>
	<circle cx="285.723" cy="673.69" r="4" fill="#0" id="circle157"/>
	<circle cx="285.723" cy="685.627" r="4" fill="#0" id="circle158"/>
	<circle cx="285.723" cy="697.564" r="4" fill="#0" id="circle159"/>
	<circle cx="285.723" cy="709.502" r="4" fill="#0" id="circle160"/>
	<circle cx="285.723" cy="721.439" r="4" fill="#0" id="circle161"/>
	<circle cx="285.723" cy="733.377" r="4" fill="#0" id="circle162"/>
	<circle cx="288.111" cy="393.16" r="4" fill="#0" id="circle163"/>
	<circle cx="291.692" cy="341.829" r="4" fill="#0" id="circle164"/>
	<circle cx="291.692" cy="353.767" r="4" fill="#0" id="circle165"/>
	<circle cx="294.079" cy="403.904" r="4" fill="#0" id="circle166"/>
	<circle cx="295.273" cy="665.333" r="4" fill="#0" id="circle167"/>
	<circle cx="295.273" cy="972.125" r="4" fill="#0" id="circle168"/>
	<circle cx="296.467" cy="925.569" r="4" fill="#0" id="circle169"/>
	<circle cx="297.661" cy="415.841" r="4" fill="#0" id="circle170"/>
	<circle cx="303.629" cy="426.585" r="4" fill="#0" id="circle171"/>
	<circle cx="307.211" cy="659.365" r="4" fill="#0" id="circle172"/>
	<circle cx="307.211" cy="972.125" r="4" fill="#0" id="circle173"/>
	<circle cx="308.404" cy="929.15" r="4" fill="#0" id="circle174"/>
	<circle cx="309.598" cy="437.329" r="4" fill="#0" id="circle175"/>
	<circle cx="309.598" cy="449.266" r="4" fill="#0" id="circle176"/>
	<circle cx="314.373" cy="461.203" r="4" fill="#0" id="circle177"/>
	<circle cx="315.567" cy="473.141" r="4" fill="#0" id="circle178"/>
	<circle cx="315.567" cy="649.815" r="4" fill="#0" id="circle179"/>
	<circle cx="319.148" cy="969.738" r="4" fill="#0" id="circle180"/>
	<circle cx="320.342" cy="931.538" r="4" fill="#0" id="circle181"/>
	<circle cx="321.535" cy="483.884" r="4" fill="#0" id="circle182"/>
	<circle cx="325.117" cy="495.822" r="4" fill="#0" id="circle183"/>
	<circle cx="325.117" cy="641.458" r="4" fill="#0" id="circle184"/>
	<circle cx="327.504" cy="608.034" r="4" fill="#0" id="circle185"/>
	<circle cx="327.504" cy="619.971" r="4" fill="#0" id="circle186"/>
	<circle cx="327.504" cy="941.088" r="4" fill="#0" id="circle187"/>
	<circle cx="327.504" cy="960.188" r="4" fill="#0" id="circle188"/>
	<circle cx="331.085" cy="506.566" r="4" fill="#0" id="circle189"/>
	<circle cx="333.473" cy="518.503" r="4" fill="#0" id="circle190"/>
	<circle cx="335.86" cy="530.44" r="4" fill="#0" id="circle191"/>
	<circle cx="337.054" cy="599.677" r="4" fill="#0" id="circle192"/>
	<circle cx="341.829" cy="541.184" r="4" fill="#0" id="circle193"/>
	<circle cx="345.41" cy="553.122" r="4" fill="#0" id="circle194"/>
	<circle cx="345.41" cy="584.159" r="4" fill="#0" id="circle195"/>
	<circle cx="351.379" cy="563.865" r="4" fill="#0" id="circle196"/>
	</g>
</svg>