<?xml version="1.0" encoding="UTF-8" standalone="no"?>
<!-- Created with CurveBenchmark -->
<svg
	xmlns:dc="http://purl.org/dc/elements/1.1/"
	xmlns:cc="http://creativecommons.org/ns#"
	xmlns:rdf="http://www.w3.org/1999/02/22-rdf-syntax-ns#"
	xmlns:svg="http://www.w3.org/2000/svg"
	xmlns="http://www.w3.org/2000/svg"
	xmlns:sodipodi="http://sodipodi.sourceforge.net/DTD/sodipodi-0.dtd"
	xmlns:inkscape="http://www.inkscape.org/namespaces/inkscape"
	width="1000"
	height="1000"
	id="svg2"
	version="1.1"
	sodipodi:docname="manifold/gathang-guitar290.png.txt">
<defs
	id="defs4" />
<metadata
	id="metadata7">
	<rdf:RDF>
		<cc:Work
			rdf:about="">
			<dc:format>image/svg+xml</dc:format>
			<dc:type
				rdf:resource="http://purl.org/dc/dcmitype/StillImage" />
			<dc:title></dc:title>
		</cc:Work>
	</rdf:RDF>
</metadata>
<g
	inkscape:label="Layer 1"
	inkscape:groupmode="layer"
	id="layer1">
	<path style="fill:none;stroke:red;stroke-width:1px;stroke-linecap:butt;stroke-linejoin:miter;stroke-opacity:1" d="M 53.2482,179.887 53.2482,215.064 z" id="boundary" inkscape:connector-curvature="0" />
	<path style="fill:none;stroke:red;stroke-width:1px;stroke-linecap:butt;stroke-linejoin:miter;stroke-opacity:1" d="M 53.2482,250.241 53.2482,215.064 z" id="boundary" inkscape:connector-curvature="0" />
	<path style="fill:none;stroke:red;stroke-width:1px;stroke-linecap:butt;stroke-linejoin:miter;stroke-opacity:1" d="M 53.2482,285.418 53.2482,320.596 z" id="boundary" inkscape:connector-curvature="0" />
	<path style="fill:none;stroke:red;stroke-width:1px;stroke-linecap:butt;stroke-linejoin:miter;stroke-opacity:1" d="M 53.2482,355.773 53.2482,390.95 z" id="boundary" inkscape:connector-curvature="0" />
	<path style="fill:none;stroke:red;stroke-width:1px;stroke-linecap:butt;stroke-linejoin:miter;stroke-opacity:1" d="M 53.2482,355.773 53.2482,320.596 z" id="boundary" inkscape:connector-curvature="0" />
	<path style="fill:none;stroke:red;stroke-width:1px;stroke-linecap:butt;stroke-linejoin:miter;stroke-opacity:1" d="M 53.2482,285.418 53.2482,250.241 z" id="boundary" inkscape:connector-curvature="0" />
	<path style="fill:none;stroke:red;stroke-width:1px;stroke-linecap:butt;stroke-linejoin:miter;stroke-opacity:1" d="M 60.2837,137.674 60.2837,102.496 z" id="boundary" inkscape:connector-curvature="0" />
	<path style="fill:none;stroke:red;stroke-width:1px;stroke-linecap:butt;stroke-linejoin:miter;stroke-opacity:1" d="M 60.2837,102.496 67.3191,67.3191 z" id="boundary" inkscape:connector-curvature="0" />
	<path style="fill:none;stroke:red;stroke-width:1px;stroke-linecap:butt;stroke-linejoin:miter;stroke-opacity:1" d="M 53.2482,426.128 53.2482,461.305 z" id="boundary" inkscape:connector-curvature="0" />
	<path style="fill:none;stroke:red;stroke-width:1px;stroke-linecap:butt;stroke-linejoin:miter;stroke-opacity:1" d="M 53.2482,461.305 32.1418,517.589 z" id="boundary" inkscape:connector-curvature="0" />
	<path style="fill:none;stroke:red;stroke-width:1px;stroke-linecap:butt;stroke-linejoin:miter;stroke-opacity:1" d="M 53.2482,426.128 53.2482,390.95 z" id="boundary" inkscape:connector-curvature="0" />
	<path style="fill:none;stroke:red;stroke-width:1px;stroke-linecap:butt;stroke-linejoin:miter;stroke-opacity:1" d="M 95.461,120.085 84.9078,197.475 z" id="boundary" inkscape:connector-curvature="0" />
	<path style="fill:none;stroke:red;stroke-width:1px;stroke-linecap:butt;stroke-linejoin:miter;stroke-opacity:1" d="M 53.2482,179.887 60.2837,137.674 z" id="boundary" inkscape:connector-curvature="0" />
	<path style="fill:none;stroke:red;stroke-width:1px;stroke-linecap:butt;stroke-linejoin:miter;stroke-opacity:1" d="M 67.3191,67.3191 81.3901,32.1418 z" id="boundary" inkscape:connector-curvature="0" />
	<path style="fill:none;stroke:red;stroke-width:1px;stroke-linecap:butt;stroke-linejoin:miter;stroke-opacity:1" d="M 18.0709,552.766 18.0709,587.943 z" id="boundary" inkscape:connector-curvature="0" />
	<path style="fill:none;stroke:red;stroke-width:1px;stroke-linecap:butt;stroke-linejoin:miter;stroke-opacity:1" d="M 4,813.078 4,777.901 z" id="boundary" inkscape:connector-curvature="0" />
	<path style="fill:none;stroke:red;stroke-width:1px;stroke-linecap:butt;stroke-linejoin:miter;stroke-opacity:1" d="M 11.0355,918.61 4,883.433 z" id="boundary" inkscape:connector-curvature="0" />
	<path style="fill:none;stroke:red;stroke-width:1px;stroke-linecap:butt;stroke-linejoin:miter;stroke-opacity:1" d="M 109.532,996 74.3546,992.482 z" id="boundary" inkscape:connector-curvature="0" />
	<path style="fill:none;stroke:red;stroke-width:1px;stroke-linecap:butt;stroke-linejoin:miter;stroke-opacity:1" d="M 4,883.433 4,848.255 z" id="boundary" inkscape:connector-curvature="0" />
	<path style="fill:none;stroke:red;stroke-width:1px;stroke-linecap:butt;stroke-linejoin:miter;stroke-opacity:1" d="M 18.0709,587.943 21.5887,623.121 z" id="boundary" inkscape:connector-curvature="0" />
	<path style="fill:none;stroke:red;stroke-width:1px;stroke-linecap:butt;stroke-linejoin:miter;stroke-opacity:1" d="M 18.0709,552.766 32.1418,517.589 z" id="boundary" inkscape:connector-curvature="0" />
	<path style="fill:none;stroke:red;stroke-width:1px;stroke-linecap:butt;stroke-linejoin:miter;stroke-opacity:1" d="M 25.1064,658.298 21.5887,623.121 z" id="boundary" inkscape:connector-curvature="0" />
	<path style="fill:none;stroke:red;stroke-width:1px;stroke-linecap:butt;stroke-linejoin:miter;stroke-opacity:1" d="M 25.1064,658.298 18.0709,721.617 z" id="boundary" inkscape:connector-curvature="0" />
	<path style="fill:none;stroke:red;stroke-width:1px;stroke-linecap:butt;stroke-linejoin:miter;stroke-opacity:1" d="M 4,848.255 4,813.078 z" id="boundary" inkscape:connector-curvature="0" />
	<path style="fill:none;stroke:red;stroke-width:1px;stroke-linecap:butt;stroke-linejoin:miter;stroke-opacity:1" d="M 21.5887,953.787 11.0355,918.61 z" id="boundary" inkscape:connector-curvature="0" />
	<path style="fill:none;stroke:red;stroke-width:1px;stroke-linecap:butt;stroke-linejoin:miter;stroke-opacity:1" d="M 74.3546,992.482 39.1773,985.447 z" id="boundary" inkscape:connector-curvature="0" />
	<path style="fill:none;stroke:red;stroke-width:1px;stroke-linecap:butt;stroke-linejoin:miter;stroke-opacity:1" d="M 39.1773,985.447 21.5887,953.787 z" id="boundary" inkscape:connector-curvature="0" />
	<path style="fill:none;stroke:red;stroke-width:1px;stroke-linecap:butt;stroke-linejoin:miter;stroke-opacity:1" d="M 4,777.901 18.0709,721.617 z" id="boundary" inkscape:connector-curvature="0" />
	<path style="fill:none;stroke:red;stroke-width:1px;stroke-linecap:butt;stroke-linejoin:miter;stroke-opacity:1" d="M 84.9078,197.475 84.9078,232.652 z" id="boundary" inkscape:connector-curvature="0" />
	<path style="fill:none;stroke:red;stroke-width:1px;stroke-linecap:butt;stroke-linejoin:miter;stroke-opacity:1" d="M 91.9433,267.83 91.9433,303.007 z" id="boundary" inkscape:connector-curvature="0" />
	<path style="fill:none;stroke:red;stroke-width:1px;stroke-linecap:butt;stroke-linejoin:miter;stroke-opacity:1" d="M 91.9433,267.83 84.9078,232.652 z" id="boundary" inkscape:connector-curvature="0" />
	<path style="fill:none;stroke:red;stroke-width:1px;stroke-linecap:butt;stroke-linejoin:miter;stroke-opacity:1" d="M 91.9433,303.007 91.9433,338.184 z" id="boundary" inkscape:connector-curvature="0" />
	<path style="fill:none;stroke:red;stroke-width:1px;stroke-linecap:butt;stroke-linejoin:miter;stroke-opacity:1" d="M 91.9433,338.184 91.9433,373.362 z" id="boundary" inkscape:connector-curvature="0" />
	<path style="fill:none;stroke:red;stroke-width:1px;stroke-linecap:butt;stroke-linejoin:miter;stroke-opacity:1" d="M 91.9433,408.539 91.9433,443.716 z" id="boundary" inkscape:connector-curvature="0" />
	<path style="fill:none;stroke:red;stroke-width:1px;stroke-linecap:butt;stroke-linejoin:miter;stroke-opacity:1" d="M 91.9433,408.539 91.9433,373.362 z" id="boundary" inkscape:connector-curvature="0" />
	<path style="fill:none;stroke:red;stroke-width:1px;stroke-linecap:butt;stroke-linejoin:miter;stroke-opacity:1" d="M 91.9433,443.716 109.532,475.376 z" id="boundary" inkscape:connector-curvature="0" />
	<path style="fill:none;stroke:red;stroke-width:1px;stroke-linecap:butt;stroke-linejoin:miter;stroke-opacity:1" d="M 109.532,56.766 95.461,120.085 z" id="boundary" inkscape:connector-curvature="0" />
	<path style="fill:none;stroke:red;stroke-width:1px;stroke-linecap:butt;stroke-linejoin:miter;stroke-opacity:1" d="M 109.532,475.376 144.709,482.411 z" id="boundary" inkscape:connector-curvature="0" />
	<path style="fill:none;stroke:red;stroke-width:1px;stroke-linecap:butt;stroke-linejoin:miter;stroke-opacity:1" d="M 144.709,482.411 172.851,503.518 z" id="boundary" inkscape:connector-curvature="0" />
	<path style="fill:none;stroke:red;stroke-width:1px;stroke-linecap:butt;stroke-linejoin:miter;stroke-opacity:1" d="M 109.532,56.766 102.496,4 z" id="boundary" inkscape:connector-curvature="0" />
	<path style="fill:none;stroke:red;stroke-width:1px;stroke-linecap:butt;stroke-linejoin:miter;stroke-opacity:1" d="M 81.3901,32.1418 102.496,4 z" id="boundary" inkscape:connector-curvature="0" />
	<path style="fill:none;stroke:red;stroke-width:1px;stroke-linecap:butt;stroke-linejoin:miter;stroke-opacity:1" d="M 204.511,679.404 204.511,644.227 z" id="boundary" inkscape:connector-curvature="0" />
	<path style="fill:none;stroke:red;stroke-width:1px;stroke-linecap:butt;stroke-linejoin:miter;stroke-opacity:1" d="M 211.546,714.582 204.511,679.404 z" id="boundary" inkscape:connector-curvature="0" />
	<path style="fill:none;stroke:red;stroke-width:1px;stroke-linecap:butt;stroke-linejoin:miter;stroke-opacity:1" d="M 211.546,714.582 218.582,749.759 z" id="boundary" inkscape:connector-curvature="0" />
	<path style="fill:none;stroke:red;stroke-width:1px;stroke-linecap:butt;stroke-linejoin:miter;stroke-opacity:1" d="M 218.582,911.574 208.028,957.305 z" id="boundary" inkscape:connector-curvature="0" />
	<path style="fill:none;stroke:red;stroke-width:1px;stroke-linecap:butt;stroke-linejoin:miter;stroke-opacity:1" d="M 208.028,957.305 179.887,985.447 z" id="boundary" inkscape:connector-curvature="0" />
	<path style="fill:none;stroke:red;stroke-width:1px;stroke-linecap:butt;stroke-linejoin:miter;stroke-opacity:1" d="M 179.887,985.447 144.709,992.482 z" id="boundary" inkscape:connector-curvature="0" />
	<path style="fill:none;stroke:red;stroke-width:1px;stroke-linecap:butt;stroke-linejoin:miter;stroke-opacity:1" d="M 144.709,992.482 109.532,996 z" id="boundary" inkscape:connector-curvature="0" />
	<path style="fill:none;stroke:red;stroke-width:1px;stroke-linecap:butt;stroke-linejoin:miter;stroke-opacity:1" d="M 211.546,580.908 204.511,644.227 z" id="boundary" inkscape:connector-curvature="0" />
	<path style="fill:none;stroke:red;stroke-width:1px;stroke-linecap:butt;stroke-linejoin:miter;stroke-opacity:1" d="M 211.546,545.73 211.546,580.908 z" id="boundary" inkscape:connector-curvature="0" />
	<path style="fill:none;stroke:red;stroke-width:1px;stroke-linecap:butt;stroke-linejoin:miter;stroke-opacity:1" d="M 225.617,784.936 218.582,749.759 z" id="boundary" inkscape:connector-curvature="0" />
	<path style="fill:none;stroke:red;stroke-width:1px;stroke-linecap:butt;stroke-linejoin:miter;stroke-opacity:1" d="M 225.617,820.113 225.617,855.291 z" id="boundary" inkscape:connector-curvature="0" />
	<path style="fill:none;stroke:red;stroke-width:1px;stroke-linecap:butt;stroke-linejoin:miter;stroke-opacity:1" d="M 225.617,855.291 218.582,911.574 z" id="boundary" inkscape:connector-curvature="0" />
	<path style="fill:none;stroke:red;stroke-width:1px;stroke-linecap:butt;stroke-linejoin:miter;stroke-opacity:1" d="M 225.617,784.936 225.617,820.113 z" id="boundary" inkscape:connector-curvature="0" />
	<circle cx="4" cy="777.901" r="4" fill="#0" id="circle0"/>
	<circle cx="4" cy="813.078" r="4" fill="#0" id="circle1"/>
	<circle cx="4" cy="848.255" r="4" fill="#0" id="circle2"/>
	<circle cx="4" cy="883.433" r="4" fill="#0" id="circle3"/>
	<circle cx="11.0355" cy="918.61" r="4" fill="#0" id="circle4"/>
	<circle cx="18.0709" cy="552.766" r="4" fill="#0" id="circle5"/>
	<circle cx="18.0709" cy="587.943" r="4" fill="#0" id="circle6"/>
	<circle cx="18.0709" cy="721.617" r="4" fill="#0" id="circle7"/>
	<circle cx="21.5887" cy="623.121" r="4" fill="#0" id="circle8"/>
	<circle cx="21.5887" cy="953.787" r="4" fill="#0" id="circle9"/>
	<circle cx="25.1064" cy="658.298" r="4" fill="#0" id="circle10"/>
	<circle cx="32.1418" cy="517.589" r="4" fill="#0" id="circle11"/>
	<circle cx="39.1773" cy="985.447" r="4" fill="#0" id="circle12"/>
	<circle cx="53.2482" cy="179.887" r="4" fill="#0" id="circle13"/>
	<circle cx="53.2482" cy="215.064" r="4" fill="#0" id="circle14"/>
	<circle cx="53.2482" cy="250.241" r="4" fill="#0" id="circle15"/>
	<circle cx="53.2482" cy="285.418" r="4" fill="#0" id="circle16"/>
	<circle cx="53.2482" cy="320.596" r="4" fill="#0" id="circle17"/>
	<circle cx="53.2482" cy="355.773" r="4" fill="#0" id="circle18"/>
	<circle cx="53.2482" cy="390.95" r="4" fill="#0" id="circle19"/>
	<circle cx="53.2482" cy="426.128" r="4" fill="#0" id="circle20"/>
	<circle cx="53.2482" cy="461.305" r="4" fill="#0" id="circle21"/>
	<circle cx="60.2837" cy="102.496" r="4" fill="#0" id="circle22"/>
	<circle cx="60.2837" cy="137.674" r="4" fill="#0" id="circle23"/>
	<circle cx="67.3191" cy="67.3191" r="4" fill="#0" id="circle24"/>
	<circle cx="74.3546" cy="992.482" r="4" fill="#0" id="circle25"/>
	<circle cx="81.3901" cy="32.1418" r="4" fill="#0" id="circle26"/>
	<circle cx="84.9078" cy="197.475" r="4" fill="#0" id="circle27"/>
	<circle cx="84.9078" cy="232.652" r="4" fill="#0" id="circle28"/>
	<circle cx="91.9433" cy="267.83" r="4" fill="#0" id="circle29"/>
	<circle cx="91.9433" cy="303.007" r="4" fill="#0" id="circle30"/>
	<circle cx="91.9433" cy="338.184" r="4" fill="#0" id="circle31"/>
	<circle cx="91.9433" cy="373.362" r="4" fill="#0" id="circle32"/>
	<circle cx="91.9433" cy="408.539" r="4" fill="#0" id="circle33"/>
	<circle cx="91.9433" cy="443.716" r="4" fill="#0" id="circle34"/>
	<circle cx="95.461" cy="120.085" r="4" fill="#0" id="circle35"/>
	<circle cx="102.496" cy="4" r="4" fill="#0" id="circle36"/>
	<circle cx="109.532" cy="56.766" r="4" fill="#0" id="circle37"/>
	<circle cx="109.532" cy="475.376" r="4" fill="#0" id="circle38"/>
	<circle cx="109.532" cy="996" r="4" fill="#0" id="circle39"/>
	<circle cx="144.709" cy="482.411" r="4" fill="#0" id="circle40"/>
	<circle cx="144.709" cy="992.482" r="4" fill="#0" id="circle41"/>
	<circle cx="172.851" cy="503.518" r="4" fill="#0" id="circle42"/>
	<circle cx="176.369" cy="538.695" r="4" fill="#0" id="circle43"/>
	<circle cx="179.887" cy="985.447" r="4" fill="#0" id="circle44"/>
	<circle cx="204.511" cy="644.227" r="4" fill="#0" id="circle45"/>
	<circle cx="204.511" cy="679.404" r="4" fill="#0" id="circle46"/>
	<circle cx="208.028" cy="957.305" r="4" fill="#0" id="circle47"/>
	<circle cx="211.546" cy="545.73" r="4" fill="#0" id="circle48"/>
	<circle cx="211.546" cy="580.908" r="4" fill="#0" id="circle49"/>
	<circle cx="211.546" cy="714.582" r="4" fill="#0" id="circle50"/>
	<circle cx="218.582" cy="749.759" r="4" fill="#0" id="circle51"/>
	<circle cx="218.582" cy="911.574" r="4" fill="#0" id="circle52"/>
	<circle cx="225.617" cy="784.936" r="4" fill="#0" id="circle53"/>
	<circle cx="225.617" cy="820.113" r="4" fill="#0" id="circle54"/>
	<circle cx="225.617" cy="855.291" r="4" fill="#0" id="circle55"/>
	</g>
</svg>