<?xml version="1.0" encoding="UTF-8" standalone="no"?>
<!-- Created with CurveBenchmark -->
<svg
	xmlns:dc="http://purl.org/dc/elements/1.1/"
	xmlns:cc="http://creativecommons.org/ns#"
	xmlns:rdf="http://www.w3.org/1999/02/22-rdf-syntax-ns#"
	xmlns:svg="http://www.w3.org/2000/svg"
	xmlns="http://www.w3.org/2000/svg"
	xmlns:sodipodi="http://sodipodi.sourceforge.net/DTD/sodipodi-0.dtd"
	xmlns:inkscape="http://www.inkscape.org/namespaces/inkscape"
	width="1000"
	height="1000"
	id="svg2"
	version="1.1"
	sodipodi:docname="manifold/gathan1-stef-07.png.txt">
<defs
	id="defs4" />
<metadata
	id="metadata7">
	<rdf:RDF>
		<cc:Work
			rdf:about="">
			<dc:format>image/svg+xml</dc:format>
			<dc:type
				rdf:resource="http://purl.org/dc/dcmitype/StillImage" />
			<dc:title></dc:title>
		</cc:Work>
	</rdf:RDF>
</metadata>
<g
	inkscape:label="Layer 1"
	inkscape:groupmode="layer"
	id="layer1">
	<path style="fill:none;stroke:red;stroke-width:1px;stroke-linecap:butt;stroke-linejoin:miter;stroke-opacity:1" d="M 28.7524,32.5605 38.2726,13.5202 z" id="boundary" inkscape:connector-curvature="0" />
	<path style="fill:none;stroke:red;stroke-width:1px;stroke-linecap:butt;stroke-linejoin:miter;stroke-opacity:1" d="M 38.2726,13.5202 57.3129,4 z" id="boundary" inkscape:connector-curvature="0" />
	<path style="fill:none;stroke:red;stroke-width:1px;stroke-linecap:butt;stroke-linejoin:miter;stroke-opacity:1" d="M 57.3129,4 76.3532,4 z" id="boundary" inkscape:connector-curvature="0" />
	<path style="fill:none;stroke:red;stroke-width:1px;stroke-linecap:butt;stroke-linejoin:miter;stroke-opacity:1" d="M 4,66.833 13.5202,47.7927 z" id="boundary" inkscape:connector-curvature="0" />
	<path style="fill:none;stroke:red;stroke-width:1px;stroke-linecap:butt;stroke-linejoin:miter;stroke-opacity:1" d="M 28.7524,32.5605 13.5202,47.7927 z" id="boundary" inkscape:connector-curvature="0" />
	<path style="fill:none;stroke:red;stroke-width:1px;stroke-linecap:butt;stroke-linejoin:miter;stroke-opacity:1" d="M 131.57,13.5202 112.53,13.5202 z" id="boundary" inkscape:connector-curvature="0" />
	<path style="fill:none;stroke:red;stroke-width:1px;stroke-linecap:butt;stroke-linejoin:miter;stroke-opacity:1" d="M 112.53,13.5202 95.3935,4 z" id="boundary" inkscape:connector-curvature="0" />
	<path style="fill:none;stroke:red;stroke-width:1px;stroke-linecap:butt;stroke-linejoin:miter;stroke-opacity:1" d="M 131.57,13.5202 146.802,26.8484 z" id="boundary" inkscape:connector-curvature="0" />
	<path style="fill:none;stroke:red;stroke-width:1px;stroke-linecap:butt;stroke-linejoin:miter;stroke-opacity:1" d="M 146.802,26.8484 158.226,42.0806 z" id="boundary" inkscape:connector-curvature="0" />
	<path style="fill:none;stroke:red;stroke-width:1px;stroke-linecap:butt;stroke-linejoin:miter;stroke-opacity:1" d="M 158.226,42.0806 158.226,61.1209 z" id="boundary" inkscape:connector-curvature="0" />
	<path style="fill:none;stroke:red;stroke-width:1px;stroke-linecap:butt;stroke-linejoin:miter;stroke-opacity:1" d="M 175.363,70.6411 158.226,61.1209 z" id="boundary" inkscape:connector-curvature="0" />
	<path style="fill:none;stroke:red;stroke-width:1px;stroke-linecap:butt;stroke-linejoin:miter;stroke-opacity:1" d="M 76.3532,4 95.3935,4 z" id="boundary" inkscape:connector-curvature="0" />
	<path style="fill:none;stroke:red;stroke-width:1px;stroke-linecap:butt;stroke-linejoin:miter;stroke-opacity:1" d="M 45.8887,125.858 26.8484,118.242 z" id="boundary" inkscape:connector-curvature="0" />
	<path style="fill:none;stroke:red;stroke-width:1px;stroke-linecap:butt;stroke-linejoin:miter;stroke-opacity:1" d="M 26.8484,118.242 13.5202,103.01 z" id="boundary" inkscape:connector-curvature="0" />
	<path style="fill:none;stroke:red;stroke-width:1px;stroke-linecap:butt;stroke-linejoin:miter;stroke-opacity:1" d="M 13.5202,103.01 4,85.8733 z" id="boundary" inkscape:connector-curvature="0" />
	<path style="fill:none;stroke:red;stroke-width:1px;stroke-linecap:butt;stroke-linejoin:miter;stroke-opacity:1" d="M 4,85.8733 4,66.833 z" id="boundary" inkscape:connector-curvature="0" />
	<path style="fill:none;stroke:red;stroke-width:1px;stroke-linecap:butt;stroke-linejoin:miter;stroke-opacity:1" d="M 63.025,135.378 45.8887,125.858 z" id="boundary" inkscape:connector-curvature="0" />
	<path style="fill:none;stroke:red;stroke-width:1px;stroke-linecap:butt;stroke-linejoin:miter;stroke-opacity:1" d="M 63.025,135.378 82.0653,142.994 z" id="boundary" inkscape:connector-curvature="0" />
	<path style="fill:none;stroke:red;stroke-width:1px;stroke-linecap:butt;stroke-linejoin:miter;stroke-opacity:1" d="M 108.722,169.651 118.242,186.787 z" id="boundary" inkscape:connector-curvature="0" />
	<path style="fill:none;stroke:red;stroke-width:1px;stroke-linecap:butt;stroke-linejoin:miter;stroke-opacity:1" d="M 108.722,169.651 99.2015,152.514 z" id="boundary" inkscape:connector-curvature="0" />
	<path style="fill:none;stroke:red;stroke-width:1px;stroke-linecap:butt;stroke-linejoin:miter;stroke-opacity:1" d="M 135.378,196.307 118.242,186.787 z" id="boundary" inkscape:connector-curvature="0" />
	<path style="fill:none;stroke:red;stroke-width:1px;stroke-linecap:butt;stroke-linejoin:miter;stroke-opacity:1" d="M 135.378,196.307 152.514,205.827 z" id="boundary" inkscape:connector-curvature="0" />
	<path style="fill:none;stroke:red;stroke-width:1px;stroke-linecap:butt;stroke-linejoin:miter;stroke-opacity:1" d="M 152.514,422.887 133.474,432.407 z" id="boundary" inkscape:connector-curvature="0" />
	<path style="fill:none;stroke:red;stroke-width:1px;stroke-linecap:butt;stroke-linejoin:miter;stroke-opacity:1" d="M 169.651,413.367 152.514,422.887 z" id="boundary" inkscape:connector-curvature="0" />
	<path style="fill:none;stroke:red;stroke-width:1px;stroke-linecap:butt;stroke-linejoin:miter;stroke-opacity:1" d="M 171.555,205.827 152.514,205.827 z" id="boundary" inkscape:connector-curvature="0" />
	<path style="fill:none;stroke:red;stroke-width:1px;stroke-linecap:butt;stroke-linejoin:miter;stroke-opacity:1" d="M 82.0653,142.994 99.2015,152.514 z" id="boundary" inkscape:connector-curvature="0" />
	<path style="fill:none;stroke:red;stroke-width:1px;stroke-linecap:butt;stroke-linejoin:miter;stroke-opacity:1" d="M 133.474,432.407 118.242,447.639 z" id="boundary" inkscape:connector-curvature="0" />
	<path style="fill:none;stroke:red;stroke-width:1px;stroke-linecap:butt;stroke-linejoin:miter;stroke-opacity:1" d="M 192.499,61.1209 175.363,70.6411 z" id="boundary" inkscape:connector-curvature="0" />
	<path style="fill:none;stroke:red;stroke-width:1px;stroke-linecap:butt;stroke-linejoin:miter;stroke-opacity:1" d="M 209.635,51.6008 192.499,61.1209 z" id="boundary" inkscape:connector-curvature="0" />
	<path style="fill:none;stroke:red;stroke-width:1px;stroke-linecap:butt;stroke-linejoin:miter;stroke-opacity:1" d="M 186.787,219.155 200.115,234.388 z" id="boundary" inkscape:connector-curvature="0" />
	<path style="fill:none;stroke:red;stroke-width:1px;stroke-linecap:butt;stroke-linejoin:miter;stroke-opacity:1" d="M 186.787,219.155 171.555,205.827 z" id="boundary" inkscape:connector-curvature="0" />
	<path style="fill:none;stroke:red;stroke-width:1px;stroke-linecap:butt;stroke-linejoin:miter;stroke-opacity:1" d="M 219.155,242.004 200.115,234.388 z" id="boundary" inkscape:connector-curvature="0" />
	<path style="fill:none;stroke:red;stroke-width:1px;stroke-linecap:butt;stroke-linejoin:miter;stroke-opacity:1" d="M 209.635,51.6008 226.772,61.1209 z" id="boundary" inkscape:connector-curvature="0" />
	<path style="fill:none;stroke:red;stroke-width:1px;stroke-linecap:butt;stroke-linejoin:miter;stroke-opacity:1" d="M 245.812,61.1209 226.772,61.1209 z" id="boundary" inkscape:connector-curvature="0" />
	<path style="fill:none;stroke:red;stroke-width:1px;stroke-linecap:butt;stroke-linejoin:miter;stroke-opacity:1" d="M 264.852,61.1209 245.812,61.1209 z" id="boundary" inkscape:connector-curvature="0" />
	<path style="fill:none;stroke:red;stroke-width:1px;stroke-linecap:butt;stroke-linejoin:miter;stroke-opacity:1" d="M 264.852,61.1209 281.988,70.6411 z" id="boundary" inkscape:connector-curvature="0" />
	<path style="fill:none;stroke:red;stroke-width:1px;stroke-linecap:butt;stroke-linejoin:miter;stroke-opacity:1" d="M 281.988,70.6411 297.221,82.0653 z" id="boundary" inkscape:connector-curvature="0" />
	<path style="fill:none;stroke:red;stroke-width:1px;stroke-linecap:butt;stroke-linejoin:miter;stroke-opacity:1" d="M 234.388,253.428 219.155,242.004 z" id="boundary" inkscape:connector-curvature="0" />
	<path style="fill:none;stroke:red;stroke-width:1px;stroke-linecap:butt;stroke-linejoin:miter;stroke-opacity:1" d="M 242.004,371.478 222.964,380.998 z" id="boundary" inkscape:connector-curvature="0" />
	<path style="fill:none;stroke:red;stroke-width:1px;stroke-linecap:butt;stroke-linejoin:miter;stroke-opacity:1" d="M 222.964,380.998 203.923,390.518 z" id="boundary" inkscape:connector-curvature="0" />
	<path style="fill:none;stroke:red;stroke-width:1px;stroke-linecap:butt;stroke-linejoin:miter;stroke-opacity:1" d="M 234.388,253.428 251.524,262.948 z" id="boundary" inkscape:connector-curvature="0" />
	<path style="fill:none;stroke:red;stroke-width:1px;stroke-linecap:butt;stroke-linejoin:miter;stroke-opacity:1" d="M 186.787,403.846 169.651,413.367 z" id="boundary" inkscape:connector-curvature="0" />
	<path style="fill:none;stroke:red;stroke-width:1px;stroke-linecap:butt;stroke-linejoin:miter;stroke-opacity:1" d="M 203.923,390.518 186.787,403.846 z" id="boundary" inkscape:connector-curvature="0" />
	<path style="fill:none;stroke:red;stroke-width:1px;stroke-linecap:butt;stroke-linejoin:miter;stroke-opacity:1" d="M 251.524,262.948 268.66,272.468 z" id="boundary" inkscape:connector-curvature="0" />
	<path style="fill:none;stroke:red;stroke-width:1px;stroke-linecap:butt;stroke-linejoin:miter;stroke-opacity:1" d="M 281.988,287.701 268.66,272.468 z" id="boundary" inkscape:connector-curvature="0" />
	<path style="fill:none;stroke:red;stroke-width:1px;stroke-linecap:butt;stroke-linejoin:miter;stroke-opacity:1" d="M 242.004,371.478 261.044,361.958 z" id="boundary" inkscape:connector-curvature="0" />
	<path style="fill:none;stroke:red;stroke-width:1px;stroke-linecap:butt;stroke-linejoin:miter;stroke-opacity:1" d="M 280.084,352.438 261.044,361.958 z" id="boundary" inkscape:connector-curvature="0" />
	<path style="fill:none;stroke:red;stroke-width:1px;stroke-linecap:butt;stroke-linejoin:miter;stroke-opacity:1" d="M 299.125,342.917 280.084,352.438 z" id="boundary" inkscape:connector-curvature="0" />
	<path style="fill:none;stroke:red;stroke-width:1px;stroke-linecap:butt;stroke-linejoin:miter;stroke-opacity:1" d="M 308.645,316.261 299.125,342.917 z" id="boundary" inkscape:connector-curvature="0" />
	<path style="fill:none;stroke:red;stroke-width:1px;stroke-linecap:butt;stroke-linejoin:miter;stroke-opacity:1" d="M 297.221,301.029 308.645,316.261 z" id="boundary" inkscape:connector-curvature="0" />
	<path style="fill:none;stroke:red;stroke-width:1px;stroke-linecap:butt;stroke-linejoin:miter;stroke-opacity:1" d="M 281.988,287.701 297.221,301.029 z" id="boundary" inkscape:connector-curvature="0" />
	<path style="fill:none;stroke:red;stroke-width:1px;stroke-linecap:butt;stroke-linejoin:miter;stroke-opacity:1" d="M 299.125,453.351 280.084,453.351 z" id="boundary" inkscape:connector-curvature="0" />
	<path style="fill:none;stroke:red;stroke-width:1px;stroke-linecap:butt;stroke-linejoin:miter;stroke-opacity:1" d="M 297.221,82.0653 310.549,97.2975 z" id="boundary" inkscape:connector-curvature="0" />
	<path style="fill:none;stroke:red;stroke-width:1px;stroke-linecap:butt;stroke-linejoin:miter;stroke-opacity:1" d="M 108.722,485.72 108.722,466.679 z" id="boundary" inkscape:connector-curvature="0" />
	<path style="fill:none;stroke:red;stroke-width:1px;stroke-linecap:butt;stroke-linejoin:miter;stroke-opacity:1" d="M 118.242,502.856 108.722,485.72 z" id="boundary" inkscape:connector-curvature="0" />
	<path style="fill:none;stroke:red;stroke-width:1px;stroke-linecap:butt;stroke-linejoin:miter;stroke-opacity:1" d="M 118.242,447.639 108.722,466.679 z" id="boundary" inkscape:connector-curvature="0" />
	<path style="fill:none;stroke:red;stroke-width:1px;stroke-linecap:butt;stroke-linejoin:miter;stroke-opacity:1" d="M 118.242,502.856 118.242,521.896 z" id="boundary" inkscape:connector-curvature="0" />
	<path style="fill:none;stroke:red;stroke-width:1px;stroke-linecap:butt;stroke-linejoin:miter;stroke-opacity:1" d="M 118.242,540.937 118.242,521.896 z" id="boundary" inkscape:connector-curvature="0" />
	<path style="fill:none;stroke:red;stroke-width:1px;stroke-linecap:butt;stroke-linejoin:miter;stroke-opacity:1" d="M 118.242,559.977 118.242,540.937 z" id="boundary" inkscape:connector-curvature="0" />
	<path style="fill:none;stroke:red;stroke-width:1px;stroke-linecap:butt;stroke-linejoin:miter;stroke-opacity:1" d="M 118.242,559.977 127.762,577.113 z" id="boundary" inkscape:connector-curvature="0" />
	<path style="fill:none;stroke:red;stroke-width:1px;stroke-linecap:butt;stroke-linejoin:miter;stroke-opacity:1" d="M 127.762,577.113 127.762,596.154 z" id="boundary" inkscape:connector-curvature="0" />
	<path style="fill:none;stroke:red;stroke-width:1px;stroke-linecap:butt;stroke-linejoin:miter;stroke-opacity:1" d="M 137.282,613.29 127.762,596.154 z" id="boundary" inkscape:connector-curvature="0" />
	<path style="fill:none;stroke:red;stroke-width:1px;stroke-linecap:butt;stroke-linejoin:miter;stroke-opacity:1" d="M 137.282,613.29 146.802,630.426 z" id="boundary" inkscape:connector-curvature="0" />
	<path style="fill:none;stroke:red;stroke-width:1px;stroke-linecap:butt;stroke-linejoin:miter;stroke-opacity:1" d="M 146.802,630.426 146.802,649.466 z" id="boundary" inkscape:connector-curvature="0" />
	<path style="fill:none;stroke:red;stroke-width:1px;stroke-linecap:butt;stroke-linejoin:miter;stroke-opacity:1" d="M 156.322,666.603 146.802,649.466 z" id="boundary" inkscape:connector-curvature="0" />
	<path style="fill:none;stroke:red;stroke-width:1px;stroke-linecap:butt;stroke-linejoin:miter;stroke-opacity:1" d="M 89.6814,752.284 108.722,742.764 z" id="boundary" inkscape:connector-curvature="0" />
	<path style="fill:none;stroke:red;stroke-width:1px;stroke-linecap:butt;stroke-linejoin:miter;stroke-opacity:1" d="M 127.762,733.244 108.722,742.764 z" id="boundary" inkscape:connector-curvature="0" />
	<path style="fill:none;stroke:red;stroke-width:1px;stroke-linecap:butt;stroke-linejoin:miter;stroke-opacity:1" d="M 137.282,786.557 118.242,786.557 z" id="boundary" inkscape:connector-curvature="0" />
	<path style="fill:none;stroke:red;stroke-width:1px;stroke-linecap:butt;stroke-linejoin:miter;stroke-opacity:1" d="M 99.2015,786.557 80.1612,780.845 z" id="boundary" inkscape:connector-curvature="0" />
	<path style="fill:none;stroke:red;stroke-width:1px;stroke-linecap:butt;stroke-linejoin:miter;stroke-opacity:1" d="M 80.1612,780.845 89.6814,752.284 z" id="boundary" inkscape:connector-curvature="0" />
	<path style="fill:none;stroke:red;stroke-width:1px;stroke-linecap:butt;stroke-linejoin:miter;stroke-opacity:1" d="M 118.242,786.557 99.2015,786.557 z" id="boundary" inkscape:connector-curvature="0" />
	<path style="fill:none;stroke:red;stroke-width:1px;stroke-linecap:butt;stroke-linejoin:miter;stroke-opacity:1" d="M 156.322,685.643 156.322,704.683 z" id="boundary" inkscape:connector-curvature="0" />
	<path style="fill:none;stroke:red;stroke-width:1px;stroke-linecap:butt;stroke-linejoin:miter;stroke-opacity:1" d="M 146.802,723.724 156.322,704.683 z" id="boundary" inkscape:connector-curvature="0" />
	<path style="fill:none;stroke:red;stroke-width:1px;stroke-linecap:butt;stroke-linejoin:miter;stroke-opacity:1" d="M 146.802,723.724 127.762,733.244 z" id="boundary" inkscape:connector-curvature="0" />
	<path style="fill:none;stroke:red;stroke-width:1px;stroke-linecap:butt;stroke-linejoin:miter;stroke-opacity:1" d="M 154.418,796.077 137.282,786.557 z" id="boundary" inkscape:connector-curvature="0" />
	<path style="fill:none;stroke:red;stroke-width:1px;stroke-linecap:butt;stroke-linejoin:miter;stroke-opacity:1" d="M 154.418,796.077 171.555,805.597 z" id="boundary" inkscape:connector-curvature="0" />
	<path style="fill:none;stroke:red;stroke-width:1px;stroke-linecap:butt;stroke-linejoin:miter;stroke-opacity:1" d="M 190.595,805.597 171.555,805.597 z" id="boundary" inkscape:connector-curvature="0" />
	<path style="fill:none;stroke:red;stroke-width:1px;stroke-linecap:butt;stroke-linejoin:miter;stroke-opacity:1" d="M 156.322,685.643 156.322,666.603 z" id="boundary" inkscape:connector-curvature="0" />
	<path style="fill:none;stroke:red;stroke-width:1px;stroke-linecap:butt;stroke-linejoin:miter;stroke-opacity:1" d="M 186.787,472.392 186.787,491.432 z" id="boundary" inkscape:connector-curvature="0" />
	<path style="fill:none;stroke:red;stroke-width:1px;stroke-linecap:butt;stroke-linejoin:miter;stroke-opacity:1" d="M 186.787,472.392 205.827,462.871 z" id="boundary" inkscape:connector-curvature="0" />
	<path style="fill:none;stroke:red;stroke-width:1px;stroke-linecap:butt;stroke-linejoin:miter;stroke-opacity:1" d="M 186.787,510.472 186.787,491.432 z" id="boundary" inkscape:connector-curvature="0" />
	<path style="fill:none;stroke:red;stroke-width:1px;stroke-linecap:butt;stroke-linejoin:miter;stroke-opacity:1" d="M 186.787,529.512 186.787,548.553 z" id="boundary" inkscape:connector-curvature="0" />
	<path style="fill:none;stroke:red;stroke-width:1px;stroke-linecap:butt;stroke-linejoin:miter;stroke-opacity:1" d="M 186.787,567.593 186.787,548.553 z" id="boundary" inkscape:connector-curvature="0" />
	<path style="fill:none;stroke:red;stroke-width:1px;stroke-linecap:butt;stroke-linejoin:miter;stroke-opacity:1" d="M 190.595,586.633 186.787,567.593 z" id="boundary" inkscape:connector-curvature="0" />
	<path style="fill:none;stroke:red;stroke-width:1px;stroke-linecap:butt;stroke-linejoin:miter;stroke-opacity:1" d="M 186.787,529.512 186.787,510.472 z" id="boundary" inkscape:connector-curvature="0" />
	<path style="fill:none;stroke:red;stroke-width:1px;stroke-linecap:butt;stroke-linejoin:miter;stroke-opacity:1" d="M 224.868,462.871 205.827,462.871 z" id="boundary" inkscape:connector-curvature="0" />
	<path style="fill:none;stroke:red;stroke-width:1px;stroke-linecap:butt;stroke-linejoin:miter;stroke-opacity:1" d="M 243.908,462.871 261.044,453.351 z" id="boundary" inkscape:connector-curvature="0" />
	<path style="fill:none;stroke:red;stroke-width:1px;stroke-linecap:butt;stroke-linejoin:miter;stroke-opacity:1" d="M 261.044,453.351 280.084,453.351 z" id="boundary" inkscape:connector-curvature="0" />
	<path style="fill:none;stroke:red;stroke-width:1px;stroke-linecap:butt;stroke-linejoin:miter;stroke-opacity:1" d="M 224.868,462.871 243.908,462.871 z" id="boundary" inkscape:connector-curvature="0" />
	<path style="fill:none;stroke:red;stroke-width:1px;stroke-linecap:butt;stroke-linejoin:miter;stroke-opacity:1" d="M 196.307,605.674 190.595,586.633 z" id="boundary" inkscape:connector-curvature="0" />
	<path style="fill:none;stroke:red;stroke-width:1px;stroke-linecap:butt;stroke-linejoin:miter;stroke-opacity:1" d="M 209.635,641.85 200.115,624.714 z" id="boundary" inkscape:connector-curvature="0" />
	<path style="fill:none;stroke:red;stroke-width:1px;stroke-linecap:butt;stroke-linejoin:miter;stroke-opacity:1" d="M 200.115,624.714 196.307,605.674 z" id="boundary" inkscape:connector-curvature="0" />
	<path style="fill:none;stroke:red;stroke-width:1px;stroke-linecap:butt;stroke-linejoin:miter;stroke-opacity:1" d="M 209.635,641.85 215.347,660.891 z" id="boundary" inkscape:connector-curvature="0" />
	<path style="fill:none;stroke:red;stroke-width:1px;stroke-linecap:butt;stroke-linejoin:miter;stroke-opacity:1" d="M 209.635,813.213 190.595,805.597 z" id="boundary" inkscape:connector-curvature="0" />
	<path style="fill:none;stroke:red;stroke-width:1px;stroke-linecap:butt;stroke-linejoin:miter;stroke-opacity:1" d="M 224.868,796.077 209.635,813.213 z" id="boundary" inkscape:connector-curvature="0" />
	<path style="fill:none;stroke:red;stroke-width:1px;stroke-linecap:butt;stroke-linejoin:miter;stroke-opacity:1" d="M 215.347,679.931 224.868,697.067 z" id="boundary" inkscape:connector-curvature="0" />
	<path style="fill:none;stroke:red;stroke-width:1px;stroke-linecap:butt;stroke-linejoin:miter;stroke-opacity:1" d="M 215.347,660.891 215.347,679.931 z" id="boundary" inkscape:connector-curvature="0" />
	<path style="fill:none;stroke:red;stroke-width:1px;stroke-linecap:butt;stroke-linejoin:miter;stroke-opacity:1" d="M 224.868,697.067 224.868,716.107 z" id="boundary" inkscape:connector-curvature="0" />
	<path style="fill:none;stroke:red;stroke-width:1px;stroke-linecap:butt;stroke-linejoin:miter;stroke-opacity:1" d="M 224.868,735.148 224.868,754.188 z" id="boundary" inkscape:connector-curvature="0" />
	<path style="fill:none;stroke:red;stroke-width:1px;stroke-linecap:butt;stroke-linejoin:miter;stroke-opacity:1" d="M 234.388,771.324 224.868,754.188 z" id="boundary" inkscape:connector-curvature="0" />
	<path style="fill:none;stroke:red;stroke-width:1px;stroke-linecap:butt;stroke-linejoin:miter;stroke-opacity:1" d="M 224.868,796.077 234.388,771.324 z" id="boundary" inkscape:connector-curvature="0" />
	<path style="fill:none;stroke:red;stroke-width:1px;stroke-linecap:butt;stroke-linejoin:miter;stroke-opacity:1" d="M 224.868,735.148 224.868,716.107 z" id="boundary" inkscape:connector-curvature="0" />
	<path style="fill:none;stroke:red;stroke-width:1px;stroke-linecap:butt;stroke-linejoin:miter;stroke-opacity:1" d="M 310.549,97.2975 329.589,104.914 z" id="boundary" inkscape:connector-curvature="0" />
	<path style="fill:none;stroke:red;stroke-width:1px;stroke-linecap:butt;stroke-linejoin:miter;stroke-opacity:1" d="M 329.589,104.914 342.917,120.146 z" id="boundary" inkscape:connector-curvature="0" />
	<path style="fill:none;stroke:red;stroke-width:1px;stroke-linecap:butt;stroke-linejoin:miter;stroke-opacity:1" d="M 358.15,133.474 342.917,120.146 z" id="boundary" inkscape:connector-curvature="0" />
	<path style="fill:none;stroke:red;stroke-width:1px;stroke-linecap:butt;stroke-linejoin:miter;stroke-opacity:1" d="M 386.71,162.035 371.478,148.706 z" id="boundary" inkscape:connector-curvature="0" />
	<path style="fill:none;stroke:red;stroke-width:1px;stroke-linecap:butt;stroke-linejoin:miter;stroke-opacity:1" d="M 371.478,148.706 358.15,133.474 z" id="boundary" inkscape:connector-curvature="0" />
	<path style="fill:none;stroke:red;stroke-width:1px;stroke-linecap:butt;stroke-linejoin:miter;stroke-opacity:1" d="M 386.71,162.035 394.326,181.075 z" id="boundary" inkscape:connector-curvature="0" />
	<path style="fill:none;stroke:red;stroke-width:1px;stroke-linecap:butt;stroke-linejoin:miter;stroke-opacity:1" d="M 409.559,194.403 422.887,209.635 z" id="boundary" inkscape:connector-curvature="0" />
	<path style="fill:none;stroke:red;stroke-width:1px;stroke-linecap:butt;stroke-linejoin:miter;stroke-opacity:1" d="M 409.559,194.403 394.326,181.075 z" id="boundary" inkscape:connector-curvature="0" />
	<path style="fill:none;stroke:red;stroke-width:1px;stroke-linecap:butt;stroke-linejoin:miter;stroke-opacity:1" d="M 459.063,253.428 443.831,242.004 z" id="boundary" inkscape:connector-curvature="0" />
	<path style="fill:none;stroke:red;stroke-width:1px;stroke-linecap:butt;stroke-linejoin:miter;stroke-opacity:1" d="M 443.831,242.004 434.311,224.868 z" id="boundary" inkscape:connector-curvature="0" />
	<path style="fill:none;stroke:red;stroke-width:1px;stroke-linecap:butt;stroke-linejoin:miter;stroke-opacity:1" d="M 434.311,224.868 422.887,209.635 z" id="boundary" inkscape:connector-curvature="0" />
	<path style="fill:none;stroke:red;stroke-width:1px;stroke-linecap:butt;stroke-linejoin:miter;stroke-opacity:1" d="M 472.392,268.66 459.063,253.428 z" id="boundary" inkscape:connector-curvature="0" />
	<path style="fill:none;stroke:red;stroke-width:1px;stroke-linecap:butt;stroke-linejoin:miter;stroke-opacity:1" d="M 487.624,281.988 472.392,268.66 z" id="boundary" inkscape:connector-curvature="0" />
	<path style="fill:none;stroke:red;stroke-width:1px;stroke-linecap:butt;stroke-linejoin:miter;stroke-opacity:1" d="M 356.246,443.831 337.205,443.831 z" id="boundary" inkscape:connector-curvature="0" />
	<path style="fill:none;stroke:red;stroke-width:1px;stroke-linecap:butt;stroke-linejoin:miter;stroke-opacity:1" d="M 375.286,443.831 356.246,443.831 z" id="boundary" inkscape:connector-curvature="0" />
	<path style="fill:none;stroke:red;stroke-width:1px;stroke-linecap:butt;stroke-linejoin:miter;stroke-opacity:1" d="M 318.165,447.639 337.205,443.831 z" id="boundary" inkscape:connector-curvature="0" />
	<path style="fill:none;stroke:red;stroke-width:1px;stroke-linecap:butt;stroke-linejoin:miter;stroke-opacity:1" d="M 299.125,453.351 318.165,447.639 z" id="boundary" inkscape:connector-curvature="0" />
	<path style="fill:none;stroke:red;stroke-width:1px;stroke-linecap:butt;stroke-linejoin:miter;stroke-opacity:1" d="M 394.326,443.831 375.286,443.831 z" id="boundary" inkscape:connector-curvature="0" />
	<path style="fill:none;stroke:red;stroke-width:1px;stroke-linecap:butt;stroke-linejoin:miter;stroke-opacity:1" d="M 413.367,443.831 394.326,443.831 z" id="boundary" inkscape:connector-curvature="0" />
	<path style="fill:none;stroke:red;stroke-width:1px;stroke-linecap:butt;stroke-linejoin:miter;stroke-opacity:1" d="M 430.503,453.351 413.367,443.831 z" id="boundary" inkscape:connector-curvature="0" />
	<path style="fill:none;stroke:red;stroke-width:1px;stroke-linecap:butt;stroke-linejoin:miter;stroke-opacity:1" d="M 441.927,468.583 451.447,485.72 z" id="boundary" inkscape:connector-curvature="0" />
	<path style="fill:none;stroke:red;stroke-width:1px;stroke-linecap:butt;stroke-linejoin:miter;stroke-opacity:1" d="M 441.927,468.583 430.503,453.351 z" id="boundary" inkscape:connector-curvature="0" />
	<path style="fill:none;stroke:red;stroke-width:1px;stroke-linecap:butt;stroke-linejoin:miter;stroke-opacity:1" d="M 451.447,485.72 466.679,499.048 z" id="boundary" inkscape:connector-curvature="0" />
	<path style="fill:none;stroke:red;stroke-width:1px;stroke-linecap:butt;stroke-linejoin:miter;stroke-opacity:1" d="M 466.679,499.048 481.912,510.472 z" id="boundary" inkscape:connector-curvature="0" />
	<path style="fill:none;stroke:red;stroke-width:1px;stroke-linecap:butt;stroke-linejoin:miter;stroke-opacity:1" d="M 500.952,297.221 510.472,314.357 z" id="boundary" inkscape:connector-curvature="0" />
	<path style="fill:none;stroke:red;stroke-width:1px;stroke-linecap:butt;stroke-linejoin:miter;stroke-opacity:1" d="M 500.952,297.221 487.624,281.988 z" id="boundary" inkscape:connector-curvature="0" />
	<path style="fill:none;stroke:red;stroke-width:1px;stroke-linecap:butt;stroke-linejoin:miter;stroke-opacity:1" d="M 523.8,329.589 510.472,314.357 z" id="boundary" inkscape:connector-curvature="0" />
	<path style="fill:none;stroke:red;stroke-width:1px;stroke-linecap:butt;stroke-linejoin:miter;stroke-opacity:1" d="M 523.8,329.589 539.033,342.917 z" id="boundary" inkscape:connector-curvature="0" />
	<path style="fill:none;stroke:red;stroke-width:1px;stroke-linecap:butt;stroke-linejoin:miter;stroke-opacity:1" d="M 539.033,342.917 546.649,361.958 z" id="boundary" inkscape:connector-curvature="0" />
	<path style="fill:none;stroke:red;stroke-width:1px;stroke-linecap:butt;stroke-linejoin:miter;stroke-opacity:1" d="M 556.169,379.094 546.649,361.958 z" id="boundary" inkscape:connector-curvature="0" />
	<path style="fill:none;stroke:red;stroke-width:1px;stroke-linecap:butt;stroke-linejoin:miter;stroke-opacity:1" d="M 767.516,575.209 750.38,565.689 z" id="boundary" inkscape:connector-curvature="0" />
	<path style="fill:none;stroke:red;stroke-width:1px;stroke-linecap:butt;stroke-linejoin:miter;stroke-opacity:1" d="M 586.633,430.503 573.305,415.271 z" id="boundary" inkscape:connector-curvature="0" />
	<path style="fill:none;stroke:red;stroke-width:1px;stroke-linecap:butt;stroke-linejoin:miter;stroke-opacity:1" d="M 573.305,415.271 563.785,398.134 z" id="boundary" inkscape:connector-curvature="0" />
	<path style="fill:none;stroke:red;stroke-width:1px;stroke-linecap:butt;stroke-linejoin:miter;stroke-opacity:1" d="M 563.785,398.134 556.169,379.094 z" id="boundary" inkscape:connector-curvature="0" />
	<path style="fill:none;stroke:red;stroke-width:1px;stroke-linecap:butt;stroke-linejoin:miter;stroke-opacity:1" d="M 609.482,462.871 596.154,447.639 z" id="boundary" inkscape:connector-curvature="0" />
	<path style="fill:none;stroke:red;stroke-width:1px;stroke-linecap:butt;stroke-linejoin:miter;stroke-opacity:1" d="M 596.154,447.639 586.633,430.503 z" id="boundary" inkscape:connector-curvature="0" />
	<path style="fill:none;stroke:red;stroke-width:1px;stroke-linecap:butt;stroke-linejoin:miter;stroke-opacity:1" d="M 624.714,476.2 609.482,462.871 z" id="boundary" inkscape:connector-curvature="0" />
	<path style="fill:none;stroke:red;stroke-width:1px;stroke-linecap:butt;stroke-linejoin:miter;stroke-opacity:1" d="M 499.048,519.992 481.912,510.472 z" id="boundary" inkscape:connector-curvature="0" />
	<path style="fill:none;stroke:red;stroke-width:1px;stroke-linecap:butt;stroke-linejoin:miter;stroke-opacity:1" d="M 624.714,476.2 632.33,495.24 z" id="boundary" inkscape:connector-curvature="0" />
	<path style="fill:none;stroke:red;stroke-width:1px;stroke-linecap:butt;stroke-linejoin:miter;stroke-opacity:1" d="M 647.562,508.568 632.33,495.24 z" id="boundary" inkscape:connector-curvature="0" />
	<path style="fill:none;stroke:red;stroke-width:1px;stroke-linecap:butt;stroke-linejoin:miter;stroke-opacity:1" d="M 508.568,537.129 499.048,519.992 z" id="boundary" inkscape:connector-curvature="0" />
	<path style="fill:none;stroke:red;stroke-width:1px;stroke-linecap:butt;stroke-linejoin:miter;stroke-opacity:1" d="M 519.992,552.361 508.568,537.129 z" id="boundary" inkscape:connector-curvature="0" />
	<path style="fill:none;stroke:red;stroke-width:1px;stroke-linecap:butt;stroke-linejoin:miter;stroke-opacity:1" d="M 679.931,531.417 660.891,523.8 z" id="boundary" inkscape:connector-curvature="0" />
	<path style="fill:none;stroke:red;stroke-width:1px;stroke-linecap:butt;stroke-linejoin:miter;stroke-opacity:1" d="M 660.891,523.8 647.562,508.568 z" id="boundary" inkscape:connector-curvature="0" />
	<path style="fill:none;stroke:red;stroke-width:1px;stroke-linecap:butt;stroke-linejoin:miter;stroke-opacity:1" d="M 697.067,540.937 716.107,546.649 z" id="boundary" inkscape:connector-curvature="0" />
	<path style="fill:none;stroke:red;stroke-width:1px;stroke-linecap:butt;stroke-linejoin:miter;stroke-opacity:1" d="M 697.067,540.937 679.931,531.417 z" id="boundary" inkscape:connector-curvature="0" />
	<path style="fill:none;stroke:red;stroke-width:1px;stroke-linecap:butt;stroke-linejoin:miter;stroke-opacity:1" d="M 716.107,546.649 733.244,556.169 z" id="boundary" inkscape:connector-curvature="0" />
	<path style="fill:none;stroke:red;stroke-width:1px;stroke-linecap:butt;stroke-linejoin:miter;stroke-opacity:1" d="M 750.38,565.689 733.244,556.169 z" id="boundary" inkscape:connector-curvature="0" />
	<path style="fill:none;stroke:red;stroke-width:1px;stroke-linecap:butt;stroke-linejoin:miter;stroke-opacity:1" d="M 519.992,552.361 533.321,567.593 z" id="boundary" inkscape:connector-curvature="0" />
	<path style="fill:none;stroke:red;stroke-width:1px;stroke-linecap:butt;stroke-linejoin:miter;stroke-opacity:1" d="M 550.457,577.113 567.593,586.633 z" id="boundary" inkscape:connector-curvature="0" />
	<path style="fill:none;stroke:red;stroke-width:1px;stroke-linecap:butt;stroke-linejoin:miter;stroke-opacity:1" d="M 550.457,577.113 533.321,567.593 z" id="boundary" inkscape:connector-curvature="0" />
	<path style="fill:none;stroke:red;stroke-width:1px;stroke-linecap:butt;stroke-linejoin:miter;stroke-opacity:1" d="M 567.593,586.633 584.729,596.154 z" id="boundary" inkscape:connector-curvature="0" />
	<path style="fill:none;stroke:red;stroke-width:1px;stroke-linecap:butt;stroke-linejoin:miter;stroke-opacity:1" d="M 584.729,596.154 603.77,596.154 z" id="boundary" inkscape:connector-curvature="0" />
	<path style="fill:none;stroke:red;stroke-width:1px;stroke-linecap:butt;stroke-linejoin:miter;stroke-opacity:1" d="M 603.77,596.154 615.194,611.386 z" id="boundary" inkscape:connector-curvature="0" />
	<path style="fill:none;stroke:red;stroke-width:1px;stroke-linecap:butt;stroke-linejoin:miter;stroke-opacity:1" d="M 634.234,619.002 615.194,611.386 z" id="boundary" inkscape:connector-curvature="0" />
	<path style="fill:none;stroke:red;stroke-width:1px;stroke-linecap:butt;stroke-linejoin:miter;stroke-opacity:1" d="M 792.269,603.77 777.036,592.345 z" id="boundary" inkscape:connector-curvature="0" />
	<path style="fill:none;stroke:red;stroke-width:1px;stroke-linecap:butt;stroke-linejoin:miter;stroke-opacity:1" d="M 777.036,592.345 767.516,575.209 z" id="boundary" inkscape:connector-curvature="0" />
	<path style="fill:none;stroke:red;stroke-width:1px;stroke-linecap:butt;stroke-linejoin:miter;stroke-opacity:1" d="M 809.405,613.29 792.269,603.77 z" id="boundary" inkscape:connector-curvature="0" />
	<path style="fill:none;stroke:red;stroke-width:1px;stroke-linecap:butt;stroke-linejoin:miter;stroke-opacity:1" d="M 670.411,634.234 651.37,628.522 z" id="boundary" inkscape:connector-curvature="0" />
	<path style="fill:none;stroke:red;stroke-width:1px;stroke-linecap:butt;stroke-linejoin:miter;stroke-opacity:1" d="M 651.37,628.522 634.234,619.002 z" id="boundary" inkscape:connector-curvature="0" />
	<path style="fill:none;stroke:red;stroke-width:1px;stroke-linecap:butt;stroke-linejoin:miter;stroke-opacity:1" d="M 670.411,634.234 687.547,643.754 z" id="boundary" inkscape:connector-curvature="0" />
	<path style="fill:none;stroke:red;stroke-width:1px;stroke-linecap:butt;stroke-linejoin:miter;stroke-opacity:1" d="M 704.683,653.274 687.547,643.754 z" id="boundary" inkscape:connector-curvature="0" />
	<path style="fill:none;stroke:red;stroke-width:1px;stroke-linecap:butt;stroke-linejoin:miter;stroke-opacity:1" d="M 723.724,660.891 704.683,653.274 z" id="boundary" inkscape:connector-curvature="0" />
	<path style="fill:none;stroke:red;stroke-width:1px;stroke-linecap:butt;stroke-linejoin:miter;stroke-opacity:1" d="M 740.86,670.411 723.724,660.891 z" id="boundary" inkscape:connector-curvature="0" />
	<path style="fill:none;stroke:red;stroke-width:1px;stroke-linecap:butt;stroke-linejoin:miter;stroke-opacity:1" d="M 759.9,672.315 740.86,670.411 z" id="boundary" inkscape:connector-curvature="0" />
	<path style="fill:none;stroke:red;stroke-width:1px;stroke-linecap:butt;stroke-linejoin:miter;stroke-opacity:1" d="M 759.9,672.315 777.036,681.835 z" id="boundary" inkscape:connector-curvature="0" />
	<path style="fill:none;stroke:red;stroke-width:1px;stroke-linecap:butt;stroke-linejoin:miter;stroke-opacity:1" d="M 796.077,685.643 777.036,681.835 z" id="boundary" inkscape:connector-curvature="0" />
	<path style="fill:none;stroke:red;stroke-width:1px;stroke-linecap:butt;stroke-linejoin:miter;stroke-opacity:1" d="M 832.253,645.658 822.733,628.522 z" id="boundary" inkscape:connector-curvature="0" />
	<path style="fill:none;stroke:red;stroke-width:1px;stroke-linecap:butt;stroke-linejoin:miter;stroke-opacity:1" d="M 849.39,655.179 832.253,645.658 z" id="boundary" inkscape:connector-curvature="0" />
	<path style="fill:none;stroke:red;stroke-width:1px;stroke-linecap:butt;stroke-linejoin:miter;stroke-opacity:1" d="M 813.213,695.163 828.445,708.491 z" id="boundary" inkscape:connector-curvature="0" />
	<path style="fill:none;stroke:red;stroke-width:1px;stroke-linecap:butt;stroke-linejoin:miter;stroke-opacity:1" d="M 813.213,695.163 796.077,685.643 z" id="boundary" inkscape:connector-curvature="0" />
	<path style="fill:none;stroke:red;stroke-width:1px;stroke-linecap:butt;stroke-linejoin:miter;stroke-opacity:1" d="M 828.445,708.491 841.774,723.724 z" id="boundary" inkscape:connector-curvature="0" />
	<path style="fill:none;stroke:red;stroke-width:1px;stroke-linecap:butt;stroke-linejoin:miter;stroke-opacity:1" d="M 809.405,613.29 822.733,628.522 z" id="boundary" inkscape:connector-curvature="0" />
	<path style="fill:none;stroke:red;stroke-width:1px;stroke-linecap:butt;stroke-linejoin:miter;stroke-opacity:1" d="M 916.031,689.451 896.99,689.451 z" id="boundary" inkscape:connector-curvature="0" />
	<path style="fill:none;stroke:red;stroke-width:1px;stroke-linecap:butt;stroke-linejoin:miter;stroke-opacity:1" d="M 896.99,689.451 877.95,681.835 z" id="boundary" inkscape:connector-curvature="0" />
	<path style="fill:none;stroke:red;stroke-width:1px;stroke-linecap:butt;stroke-linejoin:miter;stroke-opacity:1" d="M 877.95,681.835 862.718,670.411 z" id="boundary" inkscape:connector-curvature="0" />
	<path style="fill:none;stroke:red;stroke-width:1px;stroke-linecap:butt;stroke-linejoin:miter;stroke-opacity:1" d="M 860.814,729.436 841.774,723.724 z" id="boundary" inkscape:connector-curvature="0" />
	<path style="fill:none;stroke:red;stroke-width:1px;stroke-linecap:butt;stroke-linejoin:miter;stroke-opacity:1" d="M 872.238,744.668 860.814,729.436 z" id="boundary" inkscape:connector-curvature="0" />
	<path style="fill:none;stroke:red;stroke-width:1px;stroke-linecap:butt;stroke-linejoin:miter;stroke-opacity:1" d="M 887.47,757.996 872.238,744.668 z" id="boundary" inkscape:connector-curvature="0" />
	<path style="fill:none;stroke:red;stroke-width:1px;stroke-linecap:butt;stroke-linejoin:miter;stroke-opacity:1" d="M 862.718,670.411 849.39,655.179 z" id="boundary" inkscape:connector-curvature="0" />
	<path style="fill:none;stroke:red;stroke-width:1px;stroke-linecap:butt;stroke-linejoin:miter;stroke-opacity:1" d="M 916.031,689.451 935.071,689.451 z" id="boundary" inkscape:connector-curvature="0" />
	<path style="fill:none;stroke:red;stroke-width:1px;stroke-linecap:butt;stroke-linejoin:miter;stroke-opacity:1" d="M 954.111,689.451 935.071,689.451 z" id="boundary" inkscape:connector-curvature="0" />
	<path style="fill:none;stroke:red;stroke-width:1px;stroke-linecap:butt;stroke-linejoin:miter;stroke-opacity:1" d="M 973.152,689.451 990.288,698.971 z" id="boundary" inkscape:connector-curvature="0" />
	<path style="fill:none;stroke:red;stroke-width:1px;stroke-linecap:butt;stroke-linejoin:miter;stroke-opacity:1" d="M 990.288,698.971 996,729.436 z" id="boundary" inkscape:connector-curvature="0" />
	<path style="fill:none;stroke:red;stroke-width:1px;stroke-linecap:butt;stroke-linejoin:miter;stroke-opacity:1" d="M 954.111,689.451 973.152,689.451 z" id="boundary" inkscape:connector-curvature="0" />
	<path style="fill:none;stroke:red;stroke-width:1px;stroke-linecap:butt;stroke-linejoin:miter;stroke-opacity:1" d="M 996,729.436 986.48,748.476 z" id="boundary" inkscape:connector-curvature="0" />
	<path style="fill:none;stroke:red;stroke-width:1px;stroke-linecap:butt;stroke-linejoin:miter;stroke-opacity:1" d="M 898.894,773.228 908.415,790.365 z" id="boundary" inkscape:connector-curvature="0" />
	<path style="fill:none;stroke:red;stroke-width:1px;stroke-linecap:butt;stroke-linejoin:miter;stroke-opacity:1" d="M 898.894,773.228 887.47,757.996 z" id="boundary" inkscape:connector-curvature="0" />
	<path style="fill:none;stroke:red;stroke-width:1px;stroke-linecap:butt;stroke-linejoin:miter;stroke-opacity:1" d="M 908.415,790.365 917.935,807.501 z" id="boundary" inkscape:connector-curvature="0" />
	<path style="fill:none;stroke:red;stroke-width:1px;stroke-linecap:butt;stroke-linejoin:miter;stroke-opacity:1" d="M 917.935,807.501 927.455,824.637 z" id="boundary" inkscape:connector-curvature="0" />
	<path style="fill:none;stroke:red;stroke-width:1px;stroke-linecap:butt;stroke-linejoin:miter;stroke-opacity:1" d="M 936.975,841.774 927.455,824.637 z" id="boundary" inkscape:connector-curvature="0" />
	<path style="fill:none;stroke:red;stroke-width:1px;stroke-linecap:butt;stroke-linejoin:miter;stroke-opacity:1" d="M 976.96,767.516 986.48,748.476 z" id="boundary" inkscape:connector-curvature="0" />
	<path style="fill:none;stroke:red;stroke-width:1px;stroke-linecap:butt;stroke-linejoin:miter;stroke-opacity:1" d="M 976.96,786.557 976.96,767.516 z" id="boundary" inkscape:connector-curvature="0" />
	<path style="fill:none;stroke:red;stroke-width:1px;stroke-linecap:butt;stroke-linejoin:miter;stroke-opacity:1" d="M 976.96,805.597 976.96,786.557 z" id="boundary" inkscape:connector-curvature="0" />
	<path style="fill:none;stroke:red;stroke-width:1px;stroke-linecap:butt;stroke-linejoin:miter;stroke-opacity:1" d="M 948.399,857.006 936.975,841.774 z" id="boundary" inkscape:connector-curvature="0" />
	<path style="fill:none;stroke:red;stroke-width:1px;stroke-linecap:butt;stroke-linejoin:miter;stroke-opacity:1" d="M 967.44,853.198 948.399,857.006 z" id="boundary" inkscape:connector-curvature="0" />
	<path style="fill:none;stroke:red;stroke-width:1px;stroke-linecap:butt;stroke-linejoin:miter;stroke-opacity:1" d="M 976.96,824.637 967.44,853.198 z" id="boundary" inkscape:connector-curvature="0" />
	<path style="fill:none;stroke:red;stroke-width:1px;stroke-linecap:butt;stroke-linejoin:miter;stroke-opacity:1" d="M 976.96,805.597 976.96,824.637 z" id="boundary" inkscape:connector-curvature="0" />
	<circle cx="4" cy="66.833" r="4" fill="#0" id="circle0"/>
	<circle cx="4" cy="85.8733" r="4" fill="#0" id="circle1"/>
	<circle cx="13.5202" cy="47.7927" r="4" fill="#0" id="circle2"/>
	<circle cx="13.5202" cy="103.01" r="4" fill="#0" id="circle3"/>
	<circle cx="26.8484" cy="118.242" r="4" fill="#0" id="circle4"/>
	<circle cx="28.7524" cy="32.5605" r="4" fill="#0" id="circle5"/>
	<circle cx="38.2726" cy="13.5202" r="4" fill="#0" id="circle6"/>
	<circle cx="45.8887" cy="125.858" r="4" fill="#0" id="circle7"/>
	<circle cx="57.3129" cy="4" r="4" fill="#0" id="circle8"/>
	<circle cx="63.025" cy="135.378" r="4" fill="#0" id="circle9"/>
	<circle cx="76.3532" cy="4" r="4" fill="#0" id="circle10"/>
	<circle cx="80.1612" cy="780.845" r="4" fill="#0" id="circle11"/>
	<circle cx="82.0653" cy="142.994" r="4" fill="#0" id="circle12"/>
	<circle cx="89.6814" cy="752.284" r="4" fill="#0" id="circle13"/>
	<circle cx="95.3935" cy="4" r="4" fill="#0" id="circle14"/>
	<circle cx="99.2015" cy="152.514" r="4" fill="#0" id="circle15"/>
	<circle cx="99.2015" cy="786.557" r="4" fill="#0" id="circle16"/>
	<circle cx="108.722" cy="169.651" r="4" fill="#0" id="circle17"/>
	<circle cx="108.722" cy="466.679" r="4" fill="#0" id="circle18"/>
	<circle cx="108.722" cy="485.72" r="4" fill="#0" id="circle19"/>
	<circle cx="108.722" cy="742.764" r="4" fill="#0" id="circle20"/>
	<circle cx="112.53" cy="13.5202" r="4" fill="#0" id="circle21"/>
	<circle cx="118.242" cy="186.787" r="4" fill="#0" id="circle22"/>
	<circle cx="118.242" cy="447.639" r="4" fill="#0" id="circle23"/>
	<circle cx="118.242" cy="502.856" r="4" fill="#0" id="circle24"/>
	<circle cx="118.242" cy="521.896" r="4" fill="#0" id="circle25"/>
	<circle cx="118.242" cy="540.937" r="4" fill="#0" id="circle26"/>
	<circle cx="118.242" cy="559.977" r="4" fill="#0" id="circle27"/>
	<circle cx="118.242" cy="786.557" r="4" fill="#0" id="circle28"/>
	<circle cx="127.762" cy="577.113" r="4" fill="#0" id="circle29"/>
	<circle cx="127.762" cy="596.154" r="4" fill="#0" id="circle30"/>
	<circle cx="127.762" cy="733.244" r="4" fill="#0" id="circle31"/>
	<circle cx="131.57" cy="13.5202" r="4" fill="#0" id="circle32"/>
	<circle cx="133.474" cy="432.407" r="4" fill="#0" id="circle33"/>
	<circle cx="135.378" cy="196.307" r="4" fill="#0" id="circle34"/>
	<circle cx="137.282" cy="613.29" r="4" fill="#0" id="circle35"/>
	<circle cx="137.282" cy="786.557" r="4" fill="#0" id="circle36"/>
	<circle cx="146.802" cy="26.8484" r="4" fill="#0" id="circle37"/>
	<circle cx="146.802" cy="630.426" r="4" fill="#0" id="circle38"/>
	<circle cx="146.802" cy="649.466" r="4" fill="#0" id="circle39"/>
	<circle cx="146.802" cy="723.724" r="4" fill="#0" id="circle40"/>
	<circle cx="152.514" cy="205.827" r="4" fill="#0" id="circle41"/>
	<circle cx="152.514" cy="422.887" r="4" fill="#0" id="circle42"/>
	<circle cx="154.418" cy="796.077" r="4" fill="#0" id="circle43"/>
	<circle cx="156.322" cy="666.603" r="4" fill="#0" id="circle44"/>
	<circle cx="156.322" cy="685.643" r="4" fill="#0" id="circle45"/>
	<circle cx="156.322" cy="704.683" r="4" fill="#0" id="circle46"/>
	<circle cx="158.226" cy="42.0806" r="4" fill="#0" id="circle47"/>
	<circle cx="158.226" cy="61.1209" r="4" fill="#0" id="circle48"/>
	<circle cx="169.651" cy="413.367" r="4" fill="#0" id="circle49"/>
	<circle cx="171.555" cy="205.827" r="4" fill="#0" id="circle50"/>
	<circle cx="171.555" cy="805.597" r="4" fill="#0" id="circle51"/>
	<circle cx="175.363" cy="70.6411" r="4" fill="#0" id="circle52"/>
	<circle cx="186.787" cy="219.155" r="4" fill="#0" id="circle53"/>
	<circle cx="186.787" cy="403.846" r="4" fill="#0" id="circle54"/>
	<circle cx="186.787" cy="472.392" r="4" fill="#0" id="circle55"/>
	<circle cx="186.787" cy="491.432" r="4" fill="#0" id="circle56"/>
	<circle cx="186.787" cy="510.472" r="4" fill="#0" id="circle57"/>
	<circle cx="186.787" cy="529.512" r="4" fill="#0" id="circle58"/>
	<circle cx="186.787" cy="548.553" r="4" fill="#0" id="circle59"/>
	<circle cx="186.787" cy="567.593" r="4" fill="#0" id="circle60"/>
	<circle cx="190.595" cy="586.633" r="4" fill="#0" id="circle61"/>
	<circle cx="190.595" cy="805.597" r="4" fill="#0" id="circle62"/>
	<circle cx="192.499" cy="61.1209" r="4" fill="#0" id="circle63"/>
	<circle cx="196.307" cy="605.674" r="4" fill="#0" id="circle64"/>
	<circle cx="200.115" cy="234.388" r="4" fill="#0" id="circle65"/>
	<circle cx="200.115" cy="624.714" r="4" fill="#0" id="circle66"/>
	<circle cx="203.923" cy="390.518" r="4" fill="#0" id="circle67"/>
	<circle cx="205.827" cy="462.871" r="4" fill="#0" id="circle68"/>
	<circle cx="209.635" cy="51.6008" r="4" fill="#0" id="circle69"/>
	<circle cx="209.635" cy="641.85" r="4" fill="#0" id="circle70"/>
	<circle cx="209.635" cy="813.213" r="4" fill="#0" id="circle71"/>
	<circle cx="215.347" cy="660.891" r="4" fill="#0" id="circle72"/>
	<circle cx="215.347" cy="679.931" r="4" fill="#0" id="circle73"/>
	<circle cx="219.155" cy="242.004" r="4" fill="#0" id="circle74"/>
	<circle cx="222.964" cy="380.998" r="4" fill="#0" id="circle75"/>
	<circle cx="224.868" cy="462.871" r="4" fill="#0" id="circle76"/>
	<circle cx="224.868" cy="697.067" r="4" fill="#0" id="circle77"/>
	<circle cx="224.868" cy="716.107" r="4" fill="#0" id="circle78"/>
	<circle cx="224.868" cy="735.148" r="4" fill="#0" id="circle79"/>
	<circle cx="224.868" cy="754.188" r="4" fill="#0" id="circle80"/>
	<circle cx="224.868" cy="796.077" r="4" fill="#0" id="circle81"/>
	<circle cx="226.772" cy="61.1209" r="4" fill="#0" id="circle82"/>
	<circle cx="234.388" cy="253.428" r="4" fill="#0" id="circle83"/>
	<circle cx="234.388" cy="771.324" r="4" fill="#0" id="circle84"/>
	<circle cx="242.004" cy="371.478" r="4" fill="#0" id="circle85"/>
	<circle cx="243.908" cy="462.871" r="4" fill="#0" id="circle86"/>
	<circle cx="245.812" cy="61.1209" r="4" fill="#0" id="circle87"/>
	<circle cx="251.524" cy="262.948" r="4" fill="#0" id="circle88"/>
	<circle cx="261.044" cy="361.958" r="4" fill="#0" id="circle89"/>
	<circle cx="261.044" cy="453.351" r="4" fill="#0" id="circle90"/>
	<circle cx="264.852" cy="61.1209" r="4" fill="#0" id="circle91"/>
	<circle cx="268.66" cy="272.468" r="4" fill="#0" id="circle92"/>
	<circle cx="280.084" cy="352.438" r="4" fill="#0" id="circle93"/>
	<circle cx="280.084" cy="453.351" r="4" fill="#0" id="circle94"/>
	<circle cx="281.988" cy="70.6411" r="4" fill="#0" id="circle95"/>
	<circle cx="281.988" cy="287.701" r="4" fill="#0" id="circle96"/>
	<circle cx="297.221" cy="82.0653" r="4" fill="#0" id="circle97"/>
	<circle cx="297.221" cy="301.029" r="4" fill="#0" id="circle98"/>
	<circle cx="299.125" cy="342.917" r="4" fill="#0" id="circle99"/>
	<circle cx="299.125" cy="453.351" r="4" fill="#0" id="circle100"/>
	<circle cx="308.645" cy="316.261" r="4" fill="#0" id="circle101"/>
	<circle cx="310.549" cy="97.2975" r="4" fill="#0" id="circle102"/>
	<circle cx="318.165" cy="447.639" r="4" fill="#0" id="circle103"/>
	<circle cx="329.589" cy="104.914" r="4" fill="#0" id="circle104"/>
	<circle cx="337.205" cy="443.831" r="4" fill="#0" id="circle105"/>
	<circle cx="342.917" cy="120.146" r="4" fill="#0" id="circle106"/>
	<circle cx="356.246" cy="443.831" r="4" fill="#0" id="circle107"/>
	<circle cx="358.15" cy="133.474" r="4" fill="#0" id="circle108"/>
	<circle cx="371.478" cy="148.706" r="4" fill="#0" id="circle109"/>
	<circle cx="375.286" cy="443.831" r="4" fill="#0" id="circle110"/>
	<circle cx="386.71" cy="162.035" r="4" fill="#0" id="circle111"/>
	<circle cx="394.326" cy="181.075" r="4" fill="#0" id="circle112"/>
	<circle cx="394.326" cy="443.831" r="4" fill="#0" id="circle113"/>
	<circle cx="409.559" cy="194.403" r="4" fill="#0" id="circle114"/>
	<circle cx="413.367" cy="443.831" r="4" fill="#0" id="circle115"/>
	<circle cx="422.887" cy="209.635" r="4" fill="#0" id="circle116"/>
	<circle cx="430.503" cy="453.351" r="4" fill="#0" id="circle117"/>
	<circle cx="434.311" cy="224.868" r="4" fill="#0" id="circle118"/>
	<circle cx="441.927" cy="468.583" r="4" fill="#0" id="circle119"/>
	<circle cx="443.831" cy="242.004" r="4" fill="#0" id="circle120"/>
	<circle cx="451.447" cy="485.72" r="4" fill="#0" id="circle121"/>
	<circle cx="459.063" cy="253.428" r="4" fill="#0" id="circle122"/>
	<circle cx="466.679" cy="499.048" r="4" fill="#0" id="circle123"/>
	<circle cx="472.392" cy="268.66" r="4" fill="#0" id="circle124"/>
	<circle cx="481.912" cy="510.472" r="4" fill="#0" id="circle125"/>
	<circle cx="487.624" cy="281.988" r="4" fill="#0" id="circle126"/>
	<circle cx="499.048" cy="519.992" r="4" fill="#0" id="circle127"/>
	<circle cx="500.952" cy="297.221" r="4" fill="#0" id="circle128"/>
	<circle cx="508.568" cy="537.129" r="4" fill="#0" id="circle129"/>
	<circle cx="510.472" cy="314.357" r="4" fill="#0" id="circle130"/>
	<circle cx="519.992" cy="552.361" r="4" fill="#0" id="circle131"/>
	<circle cx="523.8" cy="329.589" r="4" fill="#0" id="circle132"/>
	<circle cx="533.321" cy="567.593" r="4" fill="#0" id="circle133"/>
	<circle cx="539.033" cy="342.917" r="4" fill="#0" id="circle134"/>
	<circle cx="546.649" cy="361.958" r="4" fill="#0" id="circle135"/>
	<circle cx="550.457" cy="577.113" r="4" fill="#0" id="circle136"/>
	<circle cx="556.169" cy="379.094" r="4" fill="#0" id="circle137"/>
	<circle cx="563.785" cy="398.134" r="4" fill="#0" id="circle138"/>
	<circle cx="567.593" cy="586.633" r="4" fill="#0" id="circle139"/>
	<circle cx="573.305" cy="415.271" r="4" fill="#0" id="circle140"/>
	<circle cx="584.729" cy="596.154" r="4" fill="#0" id="circle141"/>
	<circle cx="586.633" cy="430.503" r="4" fill="#0" id="circle142"/>
	<circle cx="596.154" cy="447.639" r="4" fill="#0" id="circle143"/>
	<circle cx="603.77" cy="596.154" r="4" fill="#0" id="circle144"/>
	<circle cx="609.482" cy="462.871" r="4" fill="#0" id="circle145"/>
	<circle cx="615.194" cy="611.386" r="4" fill="#0" id="circle146"/>
	<circle cx="624.714" cy="476.2" r="4" fill="#0" id="circle147"/>
	<circle cx="632.33" cy="495.24" r="4" fill="#0" id="circle148"/>
	<circle cx="634.234" cy="619.002" r="4" fill="#0" id="circle149"/>
	<circle cx="647.562" cy="508.568" r="4" fill="#0" id="circle150"/>
	<circle cx="651.37" cy="628.522" r="4" fill="#0" id="circle151"/>
	<circle cx="660.891" cy="523.8" r="4" fill="#0" id="circle152"/>
	<circle cx="670.411" cy="634.234" r="4" fill="#0" id="circle153"/>
	<circle cx="679.931" cy="531.417" r="4" fill="#0" id="circle154"/>
	<circle cx="687.547" cy="643.754" r="4" fill="#0" id="circle155"/>
	<circle cx="697.067" cy="540.937" r="4" fill="#0" id="circle156"/>
	<circle cx="704.683" cy="653.274" r="4" fill="#0" id="circle157"/>
	<circle cx="716.107" cy="546.649" r="4" fill="#0" id="circle158"/>
	<circle cx="723.724" cy="660.891" r="4" fill="#0" id="circle159"/>
	<circle cx="733.244" cy="556.169" r="4" fill="#0" id="circle160"/>
	<circle cx="740.86" cy="670.411" r="4" fill="#0" id="circle161"/>
	<circle cx="750.38" cy="565.689" r="4" fill="#0" id="circle162"/>
	<circle cx="759.9" cy="672.315" r="4" fill="#0" id="circle163"/>
	<circle cx="767.516" cy="575.209" r="4" fill="#0" id="circle164"/>
	<circle cx="777.036" cy="592.345" r="4" fill="#0" id="circle165"/>
	<circle cx="777.036" cy="681.835" r="4" fill="#0" id="circle166"/>
	<circle cx="792.269" cy="603.77" r="4" fill="#0" id="circle167"/>
	<circle cx="796.077" cy="685.643" r="4" fill="#0" id="circle168"/>
	<circle cx="809.405" cy="613.29" r="4" fill="#0" id="circle169"/>
	<circle cx="813.213" cy="695.163" r="4" fill="#0" id="circle170"/>
	<circle cx="822.733" cy="628.522" r="4" fill="#0" id="circle171"/>
	<circle cx="828.445" cy="708.491" r="4" fill="#0" id="circle172"/>
	<circle cx="832.253" cy="645.658" r="4" fill="#0" id="circle173"/>
	<circle cx="841.774" cy="723.724" r="4" fill="#0" id="circle174"/>
	<circle cx="849.39" cy="655.179" r="4" fill="#0" id="circle175"/>
	<circle cx="860.814" cy="729.436" r="4" fill="#0" id="circle176"/>
	<circle cx="862.718" cy="670.411" r="4" fill="#0" id="circle177"/>
	<circle cx="872.238" cy="744.668" r="4" fill="#0" id="circle178"/>
	<circle cx="877.95" cy="681.835" r="4" fill="#0" id="circle179"/>
	<circle cx="887.47" cy="757.996" r="4" fill="#0" id="circle180"/>
	<circle cx="896.99" cy="689.451" r="4" fill="#0" id="circle181"/>
	<circle cx="898.894" cy="773.228" r="4" fill="#0" id="circle182"/>
	<circle cx="908.415" cy="790.365" r="4" fill="#0" id="circle183"/>
	<circle cx="916.031" cy="689.451" r="4" fill="#0" id="circle184"/>
	<circle cx="917.935" cy="807.501" r="4" fill="#0" id="circle185"/>
	<circle cx="927.455" cy="824.637" r="4" fill="#0" id="circle186"/>
	<circle cx="935.071" cy="689.451" r="4" fill="#0" id="circle187"/>
	<circle cx="936.975" cy="841.774" r="4" fill="#0" id="circle188"/>
	<circle cx="948.399" cy="857.006" r="4" fill="#0" id="circle189"/>
	<circle cx="954.111" cy="689.451" r="4" fill="#0" id="circle190"/>
	<circle cx="967.44" cy="853.198" r="4" fill="#0" id="circle191"/>
	<circle cx="973.152" cy="689.451" r="4" fill="#0" id="circle192"/>
	<circle cx="976.96" cy="767.516" r="4" fill="#0" id="circle193"/>
	<circle cx="976.96" cy="786.557" r="4" fill="#0" id="circle194"/>
	<circle cx="976.96" cy="805.597" r="4" fill="#0" id="circle195"/>
	<circle cx="976.96" cy="824.637" r="4" fill="#0" id="circle196"/>
	<circle cx="986.48" cy="748.476" r="4" fill="#0" id="circle197"/>
	<circle cx="990.288" cy="698.971" r="4" fill="#0" id="circle198"/>
	<circle cx="996" cy="729.436" r="4" fill="#0" id="circle199"/>
	</g>
</svg>