<?xml version="1.0" encoding="UTF-8" standalone="no"?>
<!-- Created with CurveBenchmark -->
<svg
	xmlns:dc="http://purl.org/dc/elements/1.1/"
	xmlns:cc="http://creativecommons.org/ns#"
	xmlns:rdf="http://www.w3.org/1999/02/22-rdf-syntax-ns#"
	xmlns:svg="http://www.w3.org/2000/svg"
	xmlns="http://www.w3.org/2000/svg"
	xmlns:sodipodi="http://sodipodi.sourceforge.net/DTD/sodipodi-0.dtd"
	xmlns:inkscape="http://www.inkscape.org/namespaces/inkscape"
	width="1000"
	height="1000"
	id="svg2"
	version="1.1"
	sodipodi:docname="manifold/hnncrust-bed195.png.txt">
<defs
	id="defs4" />
<metadata
	id="metadata7">
	<rdf:RDF>
		<cc:Work
			rdf:about="">
			<dc:format>image/svg+xml</dc:format>
			<dc:type
				rdf:resource="http://purl.org/dc/dcmitype/StillImage" />
			<dc:title></dc:title>
		</cc:Work>
	</rdf:RDF>
</metadata>
<g
	inkscape:label="Layer 1"
	inkscape:groupmode="layer"
	id="layer1">
	<path style="fill:none;stroke:red;stroke-width:1px;stroke-linecap:butt;stroke-linejoin:miter;stroke-opacity:1" d="M 4,407.386 14.2905,388.863 z" id="boundary" inkscape:connector-curvature="0" />
	<path style="fill:none;stroke:red;stroke-width:1px;stroke-linecap:butt;stroke-linejoin:miter;stroke-opacity:1" d="M 4,407.386 14.2905,425.909 z" id="boundary" inkscape:connector-curvature="0" />
	<path style="fill:none;stroke:red;stroke-width:1px;stroke-linecap:butt;stroke-linejoin:miter;stroke-opacity:1" d="M 14.2905,388.863 30.7552,376.515 z" id="boundary" inkscape:connector-curvature="0" />
	<path style="fill:none;stroke:red;stroke-width:1px;stroke-linecap:butt;stroke-linejoin:miter;stroke-opacity:1" d="M 14.2905,425.909 28.6971,442.373 z" id="boundary" inkscape:connector-curvature="0" />
	<path style="fill:none;stroke:red;stroke-width:1px;stroke-linecap:butt;stroke-linejoin:miter;stroke-opacity:1" d="M 16.3485,592.614 26.639,574.091 z" id="boundary" inkscape:connector-curvature="0" />
	<path style="fill:none;stroke:red;stroke-width:1px;stroke-linecap:butt;stroke-linejoin:miter;stroke-opacity:1" d="M 16.3485,592.614 38.9876,596.73 z" id="boundary" inkscape:connector-curvature="0" />
	<path style="fill:none;stroke:red;stroke-width:1px;stroke-linecap:butt;stroke-linejoin:miter;stroke-opacity:1" d="M 20.4647,629.66 41.0456,631.718 z" id="boundary" inkscape:connector-curvature="0" />
	<path style="fill:none;stroke:red;stroke-width:1px;stroke-linecap:butt;stroke-linejoin:miter;stroke-opacity:1" d="M 26.639,574.091 47.2199,567.917 z" id="boundary" inkscape:connector-curvature="0" />
	<path style="fill:none;stroke:red;stroke-width:1px;stroke-linecap:butt;stroke-linejoin:miter;stroke-opacity:1" d="M 28.6971,442.373 28.6971,462.954 z" id="boundary" inkscape:connector-curvature="0" />
	<path style="fill:none;stroke:red;stroke-width:1px;stroke-linecap:butt;stroke-linejoin:miter;stroke-opacity:1" d="M 28.6971,462.954 32.8133,483.535 z" id="boundary" inkscape:connector-curvature="0" />
	<path style="fill:none;stroke:red;stroke-width:1px;stroke-linecap:butt;stroke-linejoin:miter;stroke-opacity:1" d="M 30.7552,376.515 51.3361,368.282 z" id="boundary" inkscape:connector-curvature="0" />
	<path style="fill:none;stroke:red;stroke-width:1px;stroke-linecap:butt;stroke-linejoin:miter;stroke-opacity:1" d="M 32.8133,483.535 32.8133,504.116 z" id="boundary" inkscape:connector-curvature="0" />
	<path style="fill:none;stroke:red;stroke-width:1px;stroke-linecap:butt;stroke-linejoin:miter;stroke-opacity:1" d="M 32.8133,504.116 32.8133,524.697 z" id="boundary" inkscape:connector-curvature="0" />
	<path style="fill:none;stroke:red;stroke-width:1px;stroke-linecap:butt;stroke-linejoin:miter;stroke-opacity:1" d="M 32.8133,524.697 32.8133,545.278 z" id="boundary" inkscape:connector-curvature="0" />
	<path style="fill:none;stroke:red;stroke-width:1px;stroke-linecap:butt;stroke-linejoin:miter;stroke-opacity:1" d="M 47.2199,567.917 67.8008,561.743 z" id="boundary" inkscape:connector-curvature="0" />
	<path style="fill:none;stroke:red;stroke-width:1px;stroke-linecap:butt;stroke-linejoin:miter;stroke-opacity:1" d="M 51.3361,368.282 71.917,362.108 z" id="boundary" inkscape:connector-curvature="0" />
	<path style="fill:none;stroke:red;stroke-width:1px;stroke-linecap:butt;stroke-linejoin:miter;stroke-opacity:1" d="M 67.8008,561.743 88.3817,561.743 z" id="boundary" inkscape:connector-curvature="0" />
	<path style="fill:none;stroke:red;stroke-width:1px;stroke-linecap:butt;stroke-linejoin:miter;stroke-opacity:1" d="M 71.917,362.108 92.4979,357.992 z" id="boundary" inkscape:connector-curvature="0" />
	<path style="fill:none;stroke:red;stroke-width:1px;stroke-linecap:butt;stroke-linejoin:miter;stroke-opacity:1" d="M 88.3817,561.743 108.963,565.859 z" id="boundary" inkscape:connector-curvature="0" />
	<path style="fill:none;stroke:red;stroke-width:1px;stroke-linecap:butt;stroke-linejoin:miter;stroke-opacity:1" d="M 92.4979,357.992 113.079,353.876 z" id="boundary" inkscape:connector-curvature="0" />
	<path style="fill:none;stroke:red;stroke-width:1px;stroke-linecap:butt;stroke-linejoin:miter;stroke-opacity:1" d="M 108.963,565.859 129.544,569.975 z" id="boundary" inkscape:connector-curvature="0" />
	<path style="fill:none;stroke:red;stroke-width:1px;stroke-linecap:butt;stroke-linejoin:miter;stroke-opacity:1" d="M 113.079,353.876 133.66,349.759 z" id="boundary" inkscape:connector-curvature="0" />
	<path style="fill:none;stroke:red;stroke-width:1px;stroke-linecap:butt;stroke-linejoin:miter;stroke-opacity:1" d="M 129.544,569.975 150.124,578.207 z" id="boundary" inkscape:connector-curvature="0" />
	<path style="fill:none;stroke:red;stroke-width:1px;stroke-linecap:butt;stroke-linejoin:miter;stroke-opacity:1" d="M 133.66,349.759 154.241,341.527 z" id="boundary" inkscape:connector-curvature="0" />
	<path style="fill:none;stroke:red;stroke-width:1px;stroke-linecap:butt;stroke-linejoin:miter;stroke-opacity:1" d="M 150.124,578.207 170.705,572.033 z" id="boundary" inkscape:connector-curvature="0" />
	<path style="fill:none;stroke:red;stroke-width:1px;stroke-linecap:butt;stroke-linejoin:miter;stroke-opacity:1" d="M 154.241,341.527 174.822,341.527 z" id="boundary" inkscape:connector-curvature="0" />
	<path style="fill:none;stroke:red;stroke-width:1px;stroke-linecap:butt;stroke-linejoin:miter;stroke-opacity:1" d="M 170.705,572.033 189.228,561.743 z" id="boundary" inkscape:connector-curvature="0" />
	<path style="fill:none;stroke:red;stroke-width:1px;stroke-linecap:butt;stroke-linejoin:miter;stroke-opacity:1" d="M 174.822,341.527 195.402,337.411 z" id="boundary" inkscape:connector-curvature="0" />
	<path style="fill:none;stroke:red;stroke-width:1px;stroke-linecap:butt;stroke-linejoin:miter;stroke-opacity:1" d="M 189.228,561.743 209.809,557.627 z" id="boundary" inkscape:connector-curvature="0" />
	<path style="fill:none;stroke:red;stroke-width:1px;stroke-linecap:butt;stroke-linejoin:miter;stroke-opacity:1" d="M 195.402,337.411 215.983,337.411 z" id="boundary" inkscape:connector-curvature="0" />
	<path style="fill:none;stroke:red;stroke-width:1px;stroke-linecap:butt;stroke-linejoin:miter;stroke-opacity:1" d="M 209.809,557.627 230.39,557.627 z" id="boundary" inkscape:connector-curvature="0" />
	<path style="fill:none;stroke:red;stroke-width:1px;stroke-linecap:butt;stroke-linejoin:miter;stroke-opacity:1" d="M 215.983,337.411 236.564,333.295 z" id="boundary" inkscape:connector-curvature="0" />
	<path style="fill:none;stroke:red;stroke-width:1px;stroke-linecap:butt;stroke-linejoin:miter;stroke-opacity:1" d="M 230.39,557.627 250.971,561.743 z" id="boundary" inkscape:connector-curvature="0" />
	<path style="fill:none;stroke:red;stroke-width:1px;stroke-linecap:butt;stroke-linejoin:miter;stroke-opacity:1" d="M 236.564,333.295 257.145,333.295 z" id="boundary" inkscape:connector-curvature="0" />
	<path style="fill:none;stroke:red;stroke-width:1px;stroke-linecap:butt;stroke-linejoin:miter;stroke-opacity:1" d="M 250.971,561.743 271.552,567.917 z" id="boundary" inkscape:connector-curvature="0" />
	<path style="fill:none;stroke:red;stroke-width:1px;stroke-linecap:butt;stroke-linejoin:miter;stroke-opacity:1" d="M 257.145,333.295 277.726,333.295 z" id="boundary" inkscape:connector-curvature="0" />
	<path style="fill:none;stroke:red;stroke-width:1px;stroke-linecap:butt;stroke-linejoin:miter;stroke-opacity:1" d="M 271.552,567.917 290.075,578.207 z" id="boundary" inkscape:connector-curvature="0" />
	<path style="fill:none;stroke:red;stroke-width:1px;stroke-linecap:butt;stroke-linejoin:miter;stroke-opacity:1" d="M 277.726,333.295 298.307,323.004 z" id="boundary" inkscape:connector-curvature="0" />
	<path style="fill:none;stroke:red;stroke-width:1px;stroke-linecap:butt;stroke-linejoin:miter;stroke-opacity:1" d="M 290.075,578.207 310.656,586.44 z" id="boundary" inkscape:connector-curvature="0" />
	<path style="fill:none;stroke:red;stroke-width:1px;stroke-linecap:butt;stroke-linejoin:miter;stroke-opacity:1" d="M 298.307,323.004 316.83,312.714 z" id="boundary" inkscape:connector-curvature="0" />
	<path style="fill:none;stroke:red;stroke-width:1px;stroke-linecap:butt;stroke-linejoin:miter;stroke-opacity:1" d="M 310.656,586.44 316.83,607.021 z" id="boundary" inkscape:connector-curvature="0" />
	<path style="fill:none;stroke:red;stroke-width:1px;stroke-linecap:butt;stroke-linejoin:miter;stroke-opacity:1" d="M 312.714,152.183 312.714,172.763 z" id="boundary" inkscape:connector-curvature="0" />
	<path style="fill:none;stroke:red;stroke-width:1px;stroke-linecap:butt;stroke-linejoin:miter;stroke-opacity:1" d="M 312.714,152.183 329.178,135.718 z" id="boundary" inkscape:connector-curvature="0" />
	<path style="fill:none;stroke:red;stroke-width:1px;stroke-linecap:butt;stroke-linejoin:miter;stroke-opacity:1" d="M 312.714,172.763 323.004,191.286 z" id="boundary" inkscape:connector-curvature="0" />
	<path style="fill:none;stroke:red;stroke-width:1px;stroke-linecap:butt;stroke-linejoin:miter;stroke-opacity:1" d="M 316.83,312.714 333.295,294.191 z" id="boundary" inkscape:connector-curvature="0" />
	<path style="fill:none;stroke:red;stroke-width:1px;stroke-linecap:butt;stroke-linejoin:miter;stroke-opacity:1" d="M 316.83,607.021 333.295,594.672 z" id="boundary" inkscape:connector-curvature="0" />
	<path style="fill:none;stroke:red;stroke-width:1px;stroke-linecap:butt;stroke-linejoin:miter;stroke-opacity:1" d="M 323.004,191.286 329.178,211.867 z" id="boundary" inkscape:connector-curvature="0" />
	<path style="fill:none;stroke:red;stroke-width:1px;stroke-linecap:butt;stroke-linejoin:miter;stroke-opacity:1" d="M 329.178,135.718 349.759,127.485 z" id="boundary" inkscape:connector-curvature="0" />
	<path style="fill:none;stroke:red;stroke-width:1px;stroke-linecap:butt;stroke-linejoin:miter;stroke-opacity:1" d="M 329.178,211.867 329.178,232.448 z" id="boundary" inkscape:connector-curvature="0" />
	<path style="fill:none;stroke:red;stroke-width:1px;stroke-linecap:butt;stroke-linejoin:miter;stroke-opacity:1" d="M 329.178,232.448 333.295,253.029 z" id="boundary" inkscape:connector-curvature="0" />
	<path style="fill:none;stroke:red;stroke-width:1px;stroke-linecap:butt;stroke-linejoin:miter;stroke-opacity:1" d="M 333.295,253.029 333.295,273.61 z" id="boundary" inkscape:connector-curvature="0" />
	<path style="fill:none;stroke:red;stroke-width:1px;stroke-linecap:butt;stroke-linejoin:miter;stroke-opacity:1" d="M 333.295,273.61 333.295,294.191 z" id="boundary" inkscape:connector-curvature="0" />
	<path style="fill:none;stroke:red;stroke-width:1px;stroke-linecap:butt;stroke-linejoin:miter;stroke-opacity:1" d="M 333.295,594.672 353.876,596.73 z" id="boundary" inkscape:connector-curvature="0" />
	<path style="fill:none;stroke:red;stroke-width:1px;stroke-linecap:butt;stroke-linejoin:miter;stroke-opacity:1" d="M 349.759,127.485 370.34,119.253 z" id="boundary" inkscape:connector-curvature="0" />
	<path style="fill:none;stroke:red;stroke-width:1px;stroke-linecap:butt;stroke-linejoin:miter;stroke-opacity:1" d="M 353.876,596.73 374.456,598.788 z" id="boundary" inkscape:connector-curvature="0" />
	<path style="fill:none;stroke:red;stroke-width:1px;stroke-linecap:butt;stroke-linejoin:miter;stroke-opacity:1" d="M 370.34,119.253 390.921,111.021 z" id="boundary" inkscape:connector-curvature="0" />
	<path style="fill:none;stroke:red;stroke-width:1px;stroke-linecap:butt;stroke-linejoin:miter;stroke-opacity:1" d="M 374.456,598.788 395.037,602.905 z" id="boundary" inkscape:connector-curvature="0" />
	<path style="fill:none;stroke:red;stroke-width:1px;stroke-linecap:butt;stroke-linejoin:miter;stroke-opacity:1" d="M 390.921,111.021 411.502,102.788 z" id="boundary" inkscape:connector-curvature="0" />
	<path style="fill:none;stroke:red;stroke-width:1px;stroke-linecap:butt;stroke-linejoin:miter;stroke-opacity:1" d="M 395.037,602.905 415.618,598.788 z" id="boundary" inkscape:connector-curvature="0" />
	<path style="fill:none;stroke:red;stroke-width:1px;stroke-linecap:butt;stroke-linejoin:miter;stroke-opacity:1" d="M 411.502,102.788 432.083,98.6722 z" id="boundary" inkscape:connector-curvature="0" />
	<path style="fill:none;stroke:red;stroke-width:1px;stroke-linecap:butt;stroke-linejoin:miter;stroke-opacity:1" d="M 415.618,598.788 436.199,598.788 z" id="boundary" inkscape:connector-curvature="0" />
	<path style="fill:none;stroke:red;stroke-width:1px;stroke-linecap:butt;stroke-linejoin:miter;stroke-opacity:1" d="M 432.083,98.6722 452.664,94.556 z" id="boundary" inkscape:connector-curvature="0" />
	<path style="fill:none;stroke:red;stroke-width:1px;stroke-linecap:butt;stroke-linejoin:miter;stroke-opacity:1" d="M 436.199,598.788 456.78,590.556 z" id="boundary" inkscape:connector-curvature="0" />
	<path style="fill:none;stroke:red;stroke-width:1px;stroke-linecap:butt;stroke-linejoin:miter;stroke-opacity:1" d="M 452.664,94.556 473.245,90.4398 z" id="boundary" inkscape:connector-curvature="0" />
	<path style="fill:none;stroke:red;stroke-width:1px;stroke-linecap:butt;stroke-linejoin:miter;stroke-opacity:1" d="M 456.78,590.556 477.361,586.44 z" id="boundary" inkscape:connector-curvature="0" />
	<path style="fill:none;stroke:red;stroke-width:1px;stroke-linecap:butt;stroke-linejoin:miter;stroke-opacity:1" d="M 473.245,90.4398 493.826,86.3237 z" id="boundary" inkscape:connector-curvature="0" />
	<path style="fill:none;stroke:red;stroke-width:1px;stroke-linecap:butt;stroke-linejoin:miter;stroke-opacity:1" d="M 477.361,586.44 497.942,578.207 z" id="boundary" inkscape:connector-curvature="0" />
	<path style="fill:none;stroke:red;stroke-width:1px;stroke-linecap:butt;stroke-linejoin:miter;stroke-opacity:1" d="M 493.826,86.3237 514.407,82.2075 z" id="boundary" inkscape:connector-curvature="0" />
	<path style="fill:none;stroke:red;stroke-width:1px;stroke-linecap:butt;stroke-linejoin:miter;stroke-opacity:1" d="M 497.942,578.207 518.523,569.975 z" id="boundary" inkscape:connector-curvature="0" />
	<path style="fill:none;stroke:red;stroke-width:1px;stroke-linecap:butt;stroke-linejoin:miter;stroke-opacity:1" d="M 514.407,82.2075 534.988,82.2075 z" id="boundary" inkscape:connector-curvature="0" />
	<path style="fill:none;stroke:red;stroke-width:1px;stroke-linecap:butt;stroke-linejoin:miter;stroke-opacity:1" d="M 518.523,569.975 539.104,561.743 z" id="boundary" inkscape:connector-curvature="0" />
	<path style="fill:none;stroke:red;stroke-width:1px;stroke-linecap:butt;stroke-linejoin:miter;stroke-opacity:1" d="M 534.988,82.2075 547.336,65.7427 z" id="boundary" inkscape:connector-curvature="0" />
	<path style="fill:none;stroke:red;stroke-width:1px;stroke-linecap:butt;stroke-linejoin:miter;stroke-opacity:1" d="M 539.104,561.743 559.685,557.627 z" id="boundary" inkscape:connector-curvature="0" />
	<path style="fill:none;stroke:red;stroke-width:1px;stroke-linecap:butt;stroke-linejoin:miter;stroke-opacity:1" d="M 547.336,65.7427 563.801,53.3942 z" id="boundary" inkscape:connector-curvature="0" />
	<path style="fill:none;stroke:red;stroke-width:1px;stroke-linecap:butt;stroke-linejoin:miter;stroke-opacity:1" d="M 559.685,557.627 580.266,557.627 z" id="boundary" inkscape:connector-curvature="0" />
	<path style="fill:none;stroke:red;stroke-width:1px;stroke-linecap:butt;stroke-linejoin:miter;stroke-opacity:1" d="M 563.801,53.3942 584.382,49.278 z" id="boundary" inkscape:connector-curvature="0" />
	<path style="fill:none;stroke:red;stroke-width:1px;stroke-linecap:butt;stroke-linejoin:miter;stroke-opacity:1" d="M 580.266,557.627 600.846,561.743 z" id="boundary" inkscape:connector-curvature="0" />
	<path style="fill:none;stroke:red;stroke-width:1px;stroke-linecap:butt;stroke-linejoin:miter;stroke-opacity:1" d="M 584.382,49.278 604.963,45.1618 z" id="boundary" inkscape:connector-curvature="0" />
	<path style="fill:none;stroke:red;stroke-width:1px;stroke-linecap:butt;stroke-linejoin:miter;stroke-opacity:1" d="M 600.846,561.743 617.311,574.091 z" id="boundary" inkscape:connector-curvature="0" />
	<path style="fill:none;stroke:red;stroke-width:1px;stroke-linecap:butt;stroke-linejoin:miter;stroke-opacity:1" d="M 604.963,45.1618 617.311,28.6971 z" id="boundary" inkscape:connector-curvature="0" />
	<path style="fill:none;stroke:red;stroke-width:1px;stroke-linecap:butt;stroke-linejoin:miter;stroke-opacity:1" d="M 617.311,28.6971 633.776,8.11618 z" id="boundary" inkscape:connector-curvature="0" />
	<path style="fill:none;stroke:red;stroke-width:1px;stroke-linecap:butt;stroke-linejoin:miter;stroke-opacity:1" d="M 617.311,574.091 637.892,578.207 z" id="boundary" inkscape:connector-curvature="0" />
	<path style="fill:none;stroke:red;stroke-width:1px;stroke-linecap:butt;stroke-linejoin:miter;stroke-opacity:1" d="M 633.776,8.11618 654.357,4 z" id="boundary" inkscape:connector-curvature="0" />
	<path style="fill:none;stroke:red;stroke-width:1px;stroke-linecap:butt;stroke-linejoin:miter;stroke-opacity:1" d="M 637.892,578.207 658.473,574.091 z" id="boundary" inkscape:connector-curvature="0" />
	<path style="fill:none;stroke:red;stroke-width:1px;stroke-linecap:butt;stroke-linejoin:miter;stroke-opacity:1" d="M 654.357,4 670.822,18.4066 z" id="boundary" inkscape:connector-curvature="0" />
	<path style="fill:none;stroke:red;stroke-width:1px;stroke-linecap:butt;stroke-linejoin:miter;stroke-opacity:1" d="M 658.473,574.091 679.054,565.859 z" id="boundary" inkscape:connector-curvature="0" />
	<path style="fill:none;stroke:red;stroke-width:1px;stroke-linecap:butt;stroke-linejoin:miter;stroke-opacity:1" d="M 670.822,18.4066 685.228,34.8714 z" id="boundary" inkscape:connector-curvature="0" />
	<path style="fill:none;stroke:red;stroke-width:1px;stroke-linecap:butt;stroke-linejoin:miter;stroke-opacity:1" d="M 679.054,565.859 699.635,561.743 z" id="boundary" inkscape:connector-curvature="0" />
	<path style="fill:none;stroke:red;stroke-width:1px;stroke-linecap:butt;stroke-linejoin:miter;stroke-opacity:1" d="M 685.228,34.8714 703.751,45.1618 z" id="boundary" inkscape:connector-curvature="0" />
	<path style="fill:none;stroke:red;stroke-width:1px;stroke-linecap:butt;stroke-linejoin:miter;stroke-opacity:1" d="M 699.635,561.743 720.216,561.743 z" id="boundary" inkscape:connector-curvature="0" />
	<path style="fill:none;stroke:red;stroke-width:1px;stroke-linecap:butt;stroke-linejoin:miter;stroke-opacity:1" d="M 703.751,45.1618 724.332,53.3942 z" id="boundary" inkscape:connector-curvature="0" />
	<path style="fill:none;stroke:red;stroke-width:1px;stroke-linecap:butt;stroke-linejoin:miter;stroke-opacity:1" d="M 720.216,561.743 740.797,565.859 z" id="boundary" inkscape:connector-curvature="0" />
	<path style="fill:none;stroke:red;stroke-width:1px;stroke-linecap:butt;stroke-linejoin:miter;stroke-opacity:1" d="M 724.332,53.3942 744.913,61.6266 z" id="boundary" inkscape:connector-curvature="0" />
	<path style="fill:none;stroke:red;stroke-width:1px;stroke-linecap:butt;stroke-linejoin:miter;stroke-opacity:1" d="M 740.797,565.859 753.145,582.324 z" id="boundary" inkscape:connector-curvature="0" />
	<path style="fill:none;stroke:red;stroke-width:1px;stroke-linecap:butt;stroke-linejoin:miter;stroke-opacity:1" d="M 744.913,61.6266 757.261,78.0913 z" id="boundary" inkscape:connector-curvature="0" />
	<path style="fill:none;stroke:red;stroke-width:1px;stroke-linecap:butt;stroke-linejoin:miter;stroke-opacity:1" d="M 753.145,582.324 757.261,602.905 z" id="boundary" inkscape:connector-curvature="0" />
	<path style="fill:none;stroke:red;stroke-width:1px;stroke-linecap:butt;stroke-linejoin:miter;stroke-opacity:1" d="M 757.261,78.0913 777.842,82.2075 z" id="boundary" inkscape:connector-curvature="0" />
	<path style="fill:none;stroke:red;stroke-width:1px;stroke-linecap:butt;stroke-linejoin:miter;stroke-opacity:1" d="M 757.261,602.905 757.261,623.485 z" id="boundary" inkscape:connector-curvature="0" />
	<path style="fill:none;stroke:red;stroke-width:1px;stroke-linecap:butt;stroke-linejoin:miter;stroke-opacity:1" d="M 757.261,623.485 769.61,639.95 z" id="boundary" inkscape:connector-curvature="0" />
	<path style="fill:none;stroke:red;stroke-width:1px;stroke-linecap:butt;stroke-linejoin:miter;stroke-opacity:1" d="M 771.668,555.568 775.784,576.149 z" id="boundary" inkscape:connector-curvature="0" />
	<path style="fill:none;stroke:red;stroke-width:1px;stroke-linecap:butt;stroke-linejoin:miter;stroke-opacity:1" d="M 771.668,555.568 792.249,553.51 z" id="boundary" inkscape:connector-curvature="0" />
	<path style="fill:none;stroke:red;stroke-width:1px;stroke-linecap:butt;stroke-linejoin:miter;stroke-opacity:1" d="M 777.842,82.2075 798.423,84.2656 z" id="boundary" inkscape:connector-curvature="0" />
	<path style="fill:none;stroke:red;stroke-width:1px;stroke-linecap:butt;stroke-linejoin:miter;stroke-opacity:1" d="M 792.249,553.51 812.83,553.51 z" id="boundary" inkscape:connector-curvature="0" />
	<path style="fill:none;stroke:red;stroke-width:1px;stroke-linecap:butt;stroke-linejoin:miter;stroke-opacity:1" d="M 798.423,84.2656 819.004,86.3237 z" id="boundary" inkscape:connector-curvature="0" />
	<path style="fill:none;stroke:red;stroke-width:1px;stroke-linecap:butt;stroke-linejoin:miter;stroke-opacity:1" d="M 812.83,553.51 833.411,553.51 z" id="boundary" inkscape:connector-curvature="0" />
	<path style="fill:none;stroke:red;stroke-width:1px;stroke-linecap:butt;stroke-linejoin:miter;stroke-opacity:1" d="M 819.004,86.3237 839.585,90.4398 z" id="boundary" inkscape:connector-curvature="0" />
	<path style="fill:none;stroke:red;stroke-width:1px;stroke-linecap:butt;stroke-linejoin:miter;stroke-opacity:1" d="M 833.411,553.51 853.992,553.51 z" id="boundary" inkscape:connector-curvature="0" />
	<path style="fill:none;stroke:red;stroke-width:1px;stroke-linecap:butt;stroke-linejoin:miter;stroke-opacity:1" d="M 839.585,90.4398 860.166,94.556 z" id="boundary" inkscape:connector-curvature="0" />
	<path style="fill:none;stroke:red;stroke-width:1px;stroke-linecap:butt;stroke-linejoin:miter;stroke-opacity:1" d="M 853.992,553.51 874.573,553.51 z" id="boundary" inkscape:connector-curvature="0" />
	<path style="fill:none;stroke:red;stroke-width:1px;stroke-linecap:butt;stroke-linejoin:miter;stroke-opacity:1" d="M 860.166,94.556 880.747,100.73 z" id="boundary" inkscape:connector-curvature="0" />
	<path style="fill:none;stroke:red;stroke-width:1px;stroke-linecap:butt;stroke-linejoin:miter;stroke-opacity:1" d="M 874.573,553.51 895.154,553.51 z" id="boundary" inkscape:connector-curvature="0" />
	<path style="fill:none;stroke:red;stroke-width:1px;stroke-linecap:butt;stroke-linejoin:miter;stroke-opacity:1" d="M 880.747,100.73 901.328,104.846 z" id="boundary" inkscape:connector-curvature="0" />
	<path style="fill:none;stroke:red;stroke-width:1px;stroke-linecap:butt;stroke-linejoin:miter;stroke-opacity:1" d="M 895.154,553.51 915.734,553.51 z" id="boundary" inkscape:connector-curvature="0" />
	<path style="fill:none;stroke:red;stroke-width:1px;stroke-linecap:butt;stroke-linejoin:miter;stroke-opacity:1" d="M 901.328,104.846 921.909,111.021 z" id="boundary" inkscape:connector-curvature="0" />
	<path style="fill:none;stroke:red;stroke-width:1px;stroke-linecap:butt;stroke-linejoin:miter;stroke-opacity:1" d="M 915.734,553.51 936.315,553.51 z" id="boundary" inkscape:connector-curvature="0" />
	<path style="fill:none;stroke:red;stroke-width:1px;stroke-linecap:butt;stroke-linejoin:miter;stroke-opacity:1" d="M 921.909,111.021 940.432,121.311 z" id="boundary" inkscape:connector-curvature="0" />
	<path style="fill:none;stroke:red;stroke-width:1px;stroke-linecap:butt;stroke-linejoin:miter;stroke-opacity:1" d="M 936.315,553.51 956.896,553.51 z" id="boundary" inkscape:connector-curvature="0" />
	<path style="fill:none;stroke:red;stroke-width:1px;stroke-linecap:butt;stroke-linejoin:miter;stroke-opacity:1" d="M 940.432,121.311 961.012,127.485 z" id="boundary" inkscape:connector-curvature="0" />
	<path style="fill:none;stroke:red;stroke-width:1px;stroke-linecap:butt;stroke-linejoin:miter;stroke-opacity:1" d="M 956.896,553.51 971.303,569.975 z" id="boundary" inkscape:connector-curvature="0" />
	<path style="fill:none;stroke:red;stroke-width:1px;stroke-linecap:butt;stroke-linejoin:miter;stroke-opacity:1" d="M 961.012,127.485 981.593,135.718 z" id="boundary" inkscape:connector-curvature="0" />
	<path style="fill:none;stroke:red;stroke-width:1px;stroke-linecap:butt;stroke-linejoin:miter;stroke-opacity:1" d="M 971.303,569.975 971.303,590.556 z" id="boundary" inkscape:connector-curvature="0" />
	<path style="fill:none;stroke:red;stroke-width:1px;stroke-linecap:butt;stroke-linejoin:miter;stroke-opacity:1" d="M 971.303,590.556 975.419,611.137 z" id="boundary" inkscape:connector-curvature="0" />
	<path style="fill:none;stroke:red;stroke-width:1px;stroke-linecap:butt;stroke-linejoin:miter;stroke-opacity:1" d="M 975.419,611.137 979.535,631.718 z" id="boundary" inkscape:connector-curvature="0" />
	<path style="fill:none;stroke:red;stroke-width:1px;stroke-linecap:butt;stroke-linejoin:miter;stroke-opacity:1" d="M 977.477,292.133 981.593,267.436 z" id="boundary" inkscape:connector-curvature="0" />
	<path style="fill:none;stroke:red;stroke-width:1px;stroke-linecap:butt;stroke-linejoin:miter;stroke-opacity:1" d="M 977.477,292.133 981.593,312.714 z" id="boundary" inkscape:connector-curvature="0" />
	<path style="fill:none;stroke:red;stroke-width:1px;stroke-linecap:butt;stroke-linejoin:miter;stroke-opacity:1" d="M 981.593,135.718 996,152.183 z" id="boundary" inkscape:connector-curvature="0" />
	<path style="fill:none;stroke:red;stroke-width:1px;stroke-linecap:butt;stroke-linejoin:miter;stroke-opacity:1" d="M 981.593,205.693 981.593,226.274 z" id="boundary" inkscape:connector-curvature="0" />
	<path style="fill:none;stroke:red;stroke-width:1px;stroke-linecap:butt;stroke-linejoin:miter;stroke-opacity:1" d="M 981.593,205.693 991.884,187.17 z" id="boundary" inkscape:connector-curvature="0" />
	<path style="fill:none;stroke:red;stroke-width:1px;stroke-linecap:butt;stroke-linejoin:miter;stroke-opacity:1" d="M 981.593,226.274 981.593,246.855 z" id="boundary" inkscape:connector-curvature="0" />
	<path style="fill:none;stroke:red;stroke-width:1px;stroke-linecap:butt;stroke-linejoin:miter;stroke-opacity:1" d="M 981.593,246.855 981.593,267.436 z" id="boundary" inkscape:connector-curvature="0" />
	<path style="fill:none;stroke:red;stroke-width:1px;stroke-linecap:butt;stroke-linejoin:miter;stroke-opacity:1" d="M 981.593,312.714 981.593,333.295 z" id="boundary" inkscape:connector-curvature="0" />
	<path style="fill:none;stroke:red;stroke-width:1px;stroke-linecap:butt;stroke-linejoin:miter;stroke-opacity:1" d="M 981.593,333.295 981.593,353.876 z" id="boundary" inkscape:connector-curvature="0" />
	<path style="fill:none;stroke:red;stroke-width:1px;stroke-linecap:butt;stroke-linejoin:miter;stroke-opacity:1" d="M 981.593,353.876 985.71,374.456 z" id="boundary" inkscape:connector-curvature="0" />
	<path style="fill:none;stroke:red;stroke-width:1px;stroke-linecap:butt;stroke-linejoin:miter;stroke-opacity:1" d="M 985.71,374.456 989.826,395.037 z" id="boundary" inkscape:connector-curvature="0" />
	<path style="fill:none;stroke:red;stroke-width:1px;stroke-linecap:butt;stroke-linejoin:miter;stroke-opacity:1" d="M 989.826,395.037 989.826,415.618 z" id="boundary" inkscape:connector-curvature="0" />
	<path style="fill:none;stroke:red;stroke-width:1px;stroke-linecap:butt;stroke-linejoin:miter;stroke-opacity:1" d="M 989.826,415.618 991.884,436.199 z" id="boundary" inkscape:connector-curvature="0" />
	<path style="fill:none;stroke:red;stroke-width:1px;stroke-linecap:butt;stroke-linejoin:miter;stroke-opacity:1" d="M 991.884,187.17 996,152.183 z" id="boundary" inkscape:connector-curvature="0" />
	<path style="fill:none;stroke:red;stroke-width:1px;stroke-linecap:butt;stroke-linejoin:miter;stroke-opacity:1" d="M 991.884,436.199 993.942,456.78 z" id="boundary" inkscape:connector-curvature="0" />
	<path style="fill:none;stroke:red;stroke-width:1px;stroke-linecap:butt;stroke-linejoin:miter;stroke-opacity:1" d="M 993.942,456.78 993.942,477.361 z" id="boundary" inkscape:connector-curvature="0" />
	<path style="fill:none;stroke:red;stroke-width:1px;stroke-linecap:butt;stroke-linejoin:miter;stroke-opacity:1" d="M 993.942,477.361 993.942,497.942 z" id="boundary" inkscape:connector-curvature="0" />
	<path style="fill:none;stroke:red;stroke-width:1px;stroke-linecap:butt;stroke-linejoin:miter;stroke-opacity:1" d="M 993.942,497.942 993.942,518.523 z" id="boundary" inkscape:connector-curvature="0" />
	<path style="fill:none;stroke:red;stroke-width:1px;stroke-linecap:butt;stroke-linejoin:miter;stroke-opacity:1" d="M 993.942,518.523 993.942,539.104 z" id="boundary" inkscape:connector-curvature="0" />
	<path style="fill:none;stroke:red;stroke-width:1px;stroke-linecap:butt;stroke-linejoin:miter;stroke-opacity:1" d="M 993.942,539.104 993.942,559.685 z" id="boundary" inkscape:connector-curvature="0" />
	<path style="fill:none;stroke:red;stroke-width:1px;stroke-linecap:butt;stroke-linejoin:miter;stroke-opacity:1" d="M 993.942,559.685 993.942,580.266 z" id="boundary" inkscape:connector-curvature="0" />
	<path style="fill:none;stroke:red;stroke-width:1px;stroke-linecap:butt;stroke-linejoin:miter;stroke-opacity:1" d="M 993.942,580.266 993.942,600.846 z" id="boundary" inkscape:connector-curvature="0" />
	<circle cx="4" cy="407.386" r="4" fill="#0" id="circle0"/>
	<circle cx="14.2905" cy="388.863" r="4" fill="#0" id="circle1"/>
	<circle cx="14.2905" cy="425.909" r="4" fill="#0" id="circle2"/>
	<circle cx="16.3485" cy="592.614" r="4" fill="#0" id="circle3"/>
	<circle cx="20.4647" cy="629.66" r="4" fill="#0" id="circle4"/>
	<circle cx="26.639" cy="574.091" r="4" fill="#0" id="circle5"/>
	<circle cx="28.6971" cy="442.373" r="4" fill="#0" id="circle6"/>
	<circle cx="28.6971" cy="462.954" r="4" fill="#0" id="circle7"/>
	<circle cx="30.7552" cy="376.515" r="4" fill="#0" id="circle8"/>
	<circle cx="32.8133" cy="483.535" r="4" fill="#0" id="circle9"/>
	<circle cx="32.8133" cy="504.116" r="4" fill="#0" id="circle10"/>
	<circle cx="32.8133" cy="524.697" r="4" fill="#0" id="circle11"/>
	<circle cx="32.8133" cy="545.278" r="4" fill="#0" id="circle12"/>
	<circle cx="38.9876" cy="596.73" r="4" fill="#0" id="circle13"/>
	<circle cx="41.0456" cy="631.718" r="4" fill="#0" id="circle14"/>
	<circle cx="47.2199" cy="567.917" r="4" fill="#0" id="circle15"/>
	<circle cx="51.3361" cy="368.282" r="4" fill="#0" id="circle16"/>
	<circle cx="67.8008" cy="561.743" r="4" fill="#0" id="circle17"/>
	<circle cx="71.917" cy="362.108" r="4" fill="#0" id="circle18"/>
	<circle cx="88.3817" cy="561.743" r="4" fill="#0" id="circle19"/>
	<circle cx="92.4979" cy="357.992" r="4" fill="#0" id="circle20"/>
	<circle cx="108.963" cy="565.859" r="4" fill="#0" id="circle21"/>
	<circle cx="113.079" cy="353.876" r="4" fill="#0" id="circle22"/>
	<circle cx="129.544" cy="569.975" r="4" fill="#0" id="circle23"/>
	<circle cx="133.66" cy="349.759" r="4" fill="#0" id="circle24"/>
	<circle cx="150.124" cy="578.207" r="4" fill="#0" id="circle25"/>
	<circle cx="154.241" cy="341.527" r="4" fill="#0" id="circle26"/>
	<circle cx="170.705" cy="572.033" r="4" fill="#0" id="circle27"/>
	<circle cx="174.822" cy="341.527" r="4" fill="#0" id="circle28"/>
	<circle cx="189.228" cy="561.743" r="4" fill="#0" id="circle29"/>
	<circle cx="195.402" cy="337.411" r="4" fill="#0" id="circle30"/>
	<circle cx="209.809" cy="557.627" r="4" fill="#0" id="circle31"/>
	<circle cx="215.983" cy="337.411" r="4" fill="#0" id="circle32"/>
	<circle cx="230.39" cy="557.627" r="4" fill="#0" id="circle33"/>
	<circle cx="236.564" cy="333.295" r="4" fill="#0" id="circle34"/>
	<circle cx="250.971" cy="561.743" r="4" fill="#0" id="circle35"/>
	<circle cx="257.145" cy="333.295" r="4" fill="#0" id="circle36"/>
	<circle cx="271.552" cy="567.917" r="4" fill="#0" id="circle37"/>
	<circle cx="277.726" cy="333.295" r="4" fill="#0" id="circle38"/>
	<circle cx="290.075" cy="578.207" r="4" fill="#0" id="circle39"/>
	<circle cx="298.307" cy="323.004" r="4" fill="#0" id="circle40"/>
	<circle cx="310.656" cy="586.44" r="4" fill="#0" id="circle41"/>
	<circle cx="312.714" cy="152.183" r="4" fill="#0" id="circle42"/>
	<circle cx="312.714" cy="172.763" r="4" fill="#0" id="circle43"/>
	<circle cx="316.83" cy="312.714" r="4" fill="#0" id="circle44"/>
	<circle cx="316.83" cy="607.021" r="4" fill="#0" id="circle45"/>
	<circle cx="316.83" cy="629.66" r="4" fill="#0" id="circle46"/>
	<circle cx="323.004" cy="191.286" r="4" fill="#0" id="circle47"/>
	<circle cx="329.178" cy="135.718" r="4" fill="#0" id="circle48"/>
	<circle cx="329.178" cy="211.867" r="4" fill="#0" id="circle49"/>
	<circle cx="329.178" cy="232.448" r="4" fill="#0" id="circle50"/>
	<circle cx="333.295" cy="253.029" r="4" fill="#0" id="circle51"/>
	<circle cx="333.295" cy="273.61" r="4" fill="#0" id="circle52"/>
	<circle cx="333.295" cy="294.191" r="4" fill="#0" id="circle53"/>
	<circle cx="333.295" cy="594.672" r="4" fill="#0" id="circle54"/>
	<circle cx="349.759" cy="127.485" r="4" fill="#0" id="circle55"/>
	<circle cx="353.876" cy="596.73" r="4" fill="#0" id="circle56"/>
	<circle cx="370.34" cy="119.253" r="4" fill="#0" id="circle57"/>
	<circle cx="374.456" cy="598.788" r="4" fill="#0" id="circle58"/>
	<circle cx="390.921" cy="111.021" r="4" fill="#0" id="circle59"/>
	<circle cx="395.037" cy="602.905" r="4" fill="#0" id="circle60"/>
	<circle cx="411.502" cy="102.788" r="4" fill="#0" id="circle61"/>
	<circle cx="415.618" cy="598.788" r="4" fill="#0" id="circle62"/>
	<circle cx="432.083" cy="98.6722" r="4" fill="#0" id="circle63"/>
	<circle cx="436.199" cy="598.788" r="4" fill="#0" id="circle64"/>
	<circle cx="452.664" cy="94.556" r="4" fill="#0" id="circle65"/>
	<circle cx="456.78" cy="590.556" r="4" fill="#0" id="circle66"/>
	<circle cx="473.245" cy="90.4398" r="4" fill="#0" id="circle67"/>
	<circle cx="477.361" cy="586.44" r="4" fill="#0" id="circle68"/>
	<circle cx="493.826" cy="86.3237" r="4" fill="#0" id="circle69"/>
	<circle cx="497.942" cy="578.207" r="4" fill="#0" id="circle70"/>
	<circle cx="514.407" cy="82.2075" r="4" fill="#0" id="circle71"/>
	<circle cx="518.523" cy="569.975" r="4" fill="#0" id="circle72"/>
	<circle cx="534.988" cy="82.2075" r="4" fill="#0" id="circle73"/>
	<circle cx="539.104" cy="561.743" r="4" fill="#0" id="circle74"/>
	<circle cx="547.336" cy="65.7427" r="4" fill="#0" id="circle75"/>
	<circle cx="559.685" cy="557.627" r="4" fill="#0" id="circle76"/>
	<circle cx="563.801" cy="53.3942" r="4" fill="#0" id="circle77"/>
	<circle cx="580.266" cy="557.627" r="4" fill="#0" id="circle78"/>
	<circle cx="584.382" cy="49.278" r="4" fill="#0" id="circle79"/>
	<circle cx="600.846" cy="561.743" r="4" fill="#0" id="circle80"/>
	<circle cx="604.963" cy="45.1618" r="4" fill="#0" id="circle81"/>
	<circle cx="617.311" cy="28.6971" r="4" fill="#0" id="circle82"/>
	<circle cx="617.311" cy="574.091" r="4" fill="#0" id="circle83"/>
	<circle cx="633.776" cy="8.11618" r="4" fill="#0" id="circle84"/>
	<circle cx="637.892" cy="578.207" r="4" fill="#0" id="circle85"/>
	<circle cx="654.357" cy="4" r="4" fill="#0" id="circle86"/>
	<circle cx="658.473" cy="574.091" r="4" fill="#0" id="circle87"/>
	<circle cx="670.822" cy="18.4066" r="4" fill="#0" id="circle88"/>
	<circle cx="679.054" cy="565.859" r="4" fill="#0" id="circle89"/>
	<circle cx="685.228" cy="34.8714" r="4" fill="#0" id="circle90"/>
	<circle cx="699.635" cy="561.743" r="4" fill="#0" id="circle91"/>
	<circle cx="703.751" cy="45.1618" r="4" fill="#0" id="circle92"/>
	<circle cx="720.216" cy="561.743" r="4" fill="#0" id="circle93"/>
	<circle cx="724.332" cy="53.3942" r="4" fill="#0" id="circle94"/>
	<circle cx="740.797" cy="565.859" r="4" fill="#0" id="circle95"/>
	<circle cx="744.913" cy="61.6266" r="4" fill="#0" id="circle96"/>
	<circle cx="753.145" cy="582.324" r="4" fill="#0" id="circle97"/>
	<circle cx="757.261" cy="78.0913" r="4" fill="#0" id="circle98"/>
	<circle cx="757.261" cy="602.905" r="4" fill="#0" id="circle99"/>
	<circle cx="757.261" cy="623.485" r="4" fill="#0" id="circle100"/>
	<circle cx="769.61" cy="639.95" r="4" fill="#0" id="circle101"/>
	<circle cx="771.668" cy="555.568" r="4" fill="#0" id="circle102"/>
	<circle cx="775.784" cy="576.149" r="4" fill="#0" id="circle103"/>
	<circle cx="777.842" cy="82.2075" r="4" fill="#0" id="circle104"/>
	<circle cx="792.249" cy="553.51" r="4" fill="#0" id="circle105"/>
	<circle cx="798.423" cy="84.2656" r="4" fill="#0" id="circle106"/>
	<circle cx="812.83" cy="553.51" r="4" fill="#0" id="circle107"/>
	<circle cx="819.004" cy="86.3237" r="4" fill="#0" id="circle108"/>
	<circle cx="833.411" cy="553.51" r="4" fill="#0" id="circle109"/>
	<circle cx="839.585" cy="90.4398" r="4" fill="#0" id="circle110"/>
	<circle cx="853.992" cy="553.51" r="4" fill="#0" id="circle111"/>
	<circle cx="860.166" cy="94.556" r="4" fill="#0" id="circle112"/>
	<circle cx="874.573" cy="553.51" r="4" fill="#0" id="circle113"/>
	<circle cx="880.747" cy="100.73" r="4" fill="#0" id="circle114"/>
	<circle cx="895.154" cy="553.51" r="4" fill="#0" id="circle115"/>
	<circle cx="901.328" cy="104.846" r="4" fill="#0" id="circle116"/>
	<circle cx="915.734" cy="553.51" r="4" fill="#0" id="circle117"/>
	<circle cx="921.909" cy="111.021" r="4" fill="#0" id="circle118"/>
	<circle cx="936.315" cy="553.51" r="4" fill="#0" id="circle119"/>
	<circle cx="940.432" cy="121.311" r="4" fill="#0" id="circle120"/>
	<circle cx="956.896" cy="553.51" r="4" fill="#0" id="circle121"/>
	<circle cx="961.012" cy="127.485" r="4" fill="#0" id="circle122"/>
	<circle cx="971.303" cy="569.975" r="4" fill="#0" id="circle123"/>
	<circle cx="971.303" cy="590.556" r="4" fill="#0" id="circle124"/>
	<circle cx="975.419" cy="611.137" r="4" fill="#0" id="circle125"/>
	<circle cx="977.477" cy="292.133" r="4" fill="#0" id="circle126"/>
	<circle cx="979.535" cy="631.718" r="4" fill="#0" id="circle127"/>
	<circle cx="981.593" cy="135.718" r="4" fill="#0" id="circle128"/>
	<circle cx="981.593" cy="205.693" r="4" fill="#0" id="circle129"/>
	<circle cx="981.593" cy="226.274" r="4" fill="#0" id="circle130"/>
	<circle cx="981.593" cy="246.855" r="4" fill="#0" id="circle131"/>
	<circle cx="981.593" cy="267.436" r="4" fill="#0" id="circle132"/>
	<circle cx="981.593" cy="312.714" r="4" fill="#0" id="circle133"/>
	<circle cx="981.593" cy="333.295" r="4" fill="#0" id="circle134"/>
	<circle cx="981.593" cy="353.876" r="4" fill="#0" id="circle135"/>
	<circle cx="985.71" cy="374.456" r="4" fill="#0" id="circle136"/>
	<circle cx="989.826" cy="395.037" r="4" fill="#0" id="circle137"/>
	<circle cx="989.826" cy="415.618" r="4" fill="#0" id="circle138"/>
	<circle cx="991.884" cy="187.17" r="4" fill="#0" id="circle139"/>
	<circle cx="991.884" cy="436.199" r="4" fill="#0" id="circle140"/>
	<circle cx="993.942" cy="456.78" r="4" fill="#0" id="circle141"/>
	<circle cx="993.942" cy="477.361" r="4" fill="#0" id="circle142"/>
	<circle cx="993.942" cy="497.942" r="4" fill="#0" id="circle143"/>
	<circle cx="993.942" cy="518.523" r="4" fill="#0" id="circle144"/>
	<circle cx="993.942" cy="539.104" r="4" fill="#0" id="circle145"/>
	<circle cx="993.942" cy="559.685" r="4" fill="#0" id="circle146"/>
	<circle cx="993.942" cy="580.266" r="4" fill="#0" id="circle147"/>
	<circle cx="993.942" cy="600.846" r="4" fill="#0" id="circle148"/>
	<circle cx="996" cy="152.183" r="4" fill="#0" id="circle149"/>
	</g>
</svg>