<?xml version="1.0" encoding="UTF-8" standalone="no"?>
<!-- Created with CurveBenchmark -->
<svg
	xmlns:dc="http://purl.org/dc/elements/1.1/"
	xmlns:cc="http://creativecommons.org/ns#"
	xmlns:rdf="http://www.w3.org/1999/02/22-rdf-syntax-ns#"
	xmlns:svg="http://www.w3.org/2000/svg"
	xmlns="http://www.w3.org/2000/svg"
	xmlns:sodipodi="http://sodipodi.sourceforge.net/DTD/sodipodi-0.dtd"
	xmlns:inkscape="http://www.inkscape.org/namespaces/inkscape"
	width="1000"
	height="1000"
	id="svg2"
	version="1.1"
	sodipodi:docname="manifold/hnncrust-car-05.png.txt">
<defs
	id="defs4" />
<metadata
	id="metadata7">
	<rdf:RDF>
		<cc:Work
			rdf:about="">
			<dc:format>image/svg+xml</dc:format>
			<dc:type
				rdf:resource="http://purl.org/dc/dcmitype/StillImage" />
			<dc:title></dc:title>
		</cc:Work>
	</rdf:RDF>
</metadata>
<g
	inkscape:label="Layer 1"
	inkscape:groupmode="layer"
	id="layer1">
	<path style="fill:none;stroke:red;stroke-width:1px;stroke-linecap:butt;stroke-linejoin:miter;stroke-opacity:1" d="M 4,253.679 4,264.876 z" id="boundary" inkscape:connector-curvature="0" />
	<path style="fill:none;stroke:red;stroke-width:1px;stroke-linecap:butt;stroke-linejoin:miter;stroke-opacity:1" d="M 4,253.679 12.9571,244.722 z" id="boundary" inkscape:connector-curvature="0" />
	<path style="fill:none;stroke:red;stroke-width:1px;stroke-linecap:butt;stroke-linejoin:miter;stroke-opacity:1" d="M 4,264.876 12.9571,272.713 z" id="boundary" inkscape:connector-curvature="0" />
	<path style="fill:none;stroke:red;stroke-width:1px;stroke-linecap:butt;stroke-linejoin:miter;stroke-opacity:1" d="M 12.9571,244.722 18.5553,233.526 z" id="boundary" inkscape:connector-curvature="0" />
	<path style="fill:none;stroke:red;stroke-width:1px;stroke-linecap:butt;stroke-linejoin:miter;stroke-opacity:1" d="M 12.9571,272.713 24.1535,273.833 z" id="boundary" inkscape:connector-curvature="0" />
	<path style="fill:none;stroke:red;stroke-width:1px;stroke-linecap:butt;stroke-linejoin:miter;stroke-opacity:1" d="M 18.5553,233.526 24.1535,222.33 z" id="boundary" inkscape:connector-curvature="0" />
	<path style="fill:none;stroke:red;stroke-width:1px;stroke-linecap:butt;stroke-linejoin:miter;stroke-opacity:1" d="M 24.1535,222.33 29.7517,211.133 z" id="boundary" inkscape:connector-curvature="0" />
	<path style="fill:none;stroke:red;stroke-width:1px;stroke-linecap:butt;stroke-linejoin:miter;stroke-opacity:1" d="M 24.1535,273.833 26.3928,285.029 z" id="boundary" inkscape:connector-curvature="0" />
	<path style="fill:none;stroke:red;stroke-width:1px;stroke-linecap:butt;stroke-linejoin:miter;stroke-opacity:1" d="M 26.3928,285.029 26.3928,296.226 z" id="boundary" inkscape:connector-curvature="0" />
	<path style="fill:none;stroke:red;stroke-width:1px;stroke-linecap:butt;stroke-linejoin:miter;stroke-opacity:1" d="M 26.3928,296.226 26.3928,307.422 z" id="boundary" inkscape:connector-curvature="0" />
	<path style="fill:none;stroke:red;stroke-width:1px;stroke-linecap:butt;stroke-linejoin:miter;stroke-opacity:1" d="M 26.3928,307.422 26.3928,318.619 z" id="boundary" inkscape:connector-curvature="0" />
	<path style="fill:none;stroke:red;stroke-width:1px;stroke-linecap:butt;stroke-linejoin:miter;stroke-opacity:1" d="M 26.3928,318.619 26.3928,329.815 z" id="boundary" inkscape:connector-curvature="0" />
	<path style="fill:none;stroke:red;stroke-width:1px;stroke-linecap:butt;stroke-linejoin:miter;stroke-opacity:1" d="M 26.3928,329.815 29.7517,341.011 z" id="boundary" inkscape:connector-curvature="0" />
	<path style="fill:none;stroke:red;stroke-width:1px;stroke-linecap:butt;stroke-linejoin:miter;stroke-opacity:1" d="M 29.7517,211.133 35.3499,199.937 z" id="boundary" inkscape:connector-curvature="0" />
	<path style="fill:none;stroke:red;stroke-width:1px;stroke-linecap:butt;stroke-linejoin:miter;stroke-opacity:1" d="M 29.7517,341.011 31.991,352.208 z" id="boundary" inkscape:connector-curvature="0" />
	<path style="fill:none;stroke:red;stroke-width:1px;stroke-linecap:butt;stroke-linejoin:miter;stroke-opacity:1" d="M 31.991,352.208 37.5892,362.284 z" id="boundary" inkscape:connector-curvature="0" />
	<path style="fill:none;stroke:red;stroke-width:1px;stroke-linecap:butt;stroke-linejoin:miter;stroke-opacity:1" d="M 35.3499,199.937 40.9481,188.74 z" id="boundary" inkscape:connector-curvature="0" />
	<path style="fill:none;stroke:red;stroke-width:1px;stroke-linecap:butt;stroke-linejoin:miter;stroke-opacity:1" d="M 37.5892,362.284 46.5463,369.002 z" id="boundary" inkscape:connector-curvature="0" />
	<path style="fill:none;stroke:red;stroke-width:1px;stroke-linecap:butt;stroke-linejoin:miter;stroke-opacity:1" d="M 40.9481,188.74 51.0248,183.142 z" id="boundary" inkscape:connector-curvature="0" />
	<path style="fill:none;stroke:red;stroke-width:1px;stroke-linecap:butt;stroke-linejoin:miter;stroke-opacity:1" d="M 46.5463,369.002 48.7856,380.199 z" id="boundary" inkscape:connector-curvature="0" />
	<path style="fill:none;stroke:red;stroke-width:1px;stroke-linecap:butt;stroke-linejoin:miter;stroke-opacity:1" d="M 48.7856,380.199 48.7856,391.395 z" id="boundary" inkscape:connector-curvature="0" />
	<path style="fill:none;stroke:red;stroke-width:1px;stroke-linecap:butt;stroke-linejoin:miter;stroke-opacity:1" d="M 48.7856,391.395 52.1445,402.591 z" id="boundary" inkscape:connector-curvature="0" />
	<path style="fill:none;stroke:red;stroke-width:1px;stroke-linecap:butt;stroke-linejoin:miter;stroke-opacity:1" d="M 51.0248,183.142 61.1016,177.544 z" id="boundary" inkscape:connector-curvature="0" />
	<path style="fill:none;stroke:red;stroke-width:1px;stroke-linecap:butt;stroke-linejoin:miter;stroke-opacity:1" d="M 52.1445,402.591 57.7427,412.668 z" id="boundary" inkscape:connector-curvature="0" />
	<path style="fill:none;stroke:red;stroke-width:1px;stroke-linecap:butt;stroke-linejoin:miter;stroke-opacity:1" d="M 57.7427,412.668 67.8194,418.266 z" id="boundary" inkscape:connector-curvature="0" />
	<path style="fill:none;stroke:red;stroke-width:1px;stroke-linecap:butt;stroke-linejoin:miter;stroke-opacity:1" d="M 61.1016,177.544 71.1783,171.946 z" id="boundary" inkscape:connector-curvature="0" />
	<path style="fill:none;stroke:red;stroke-width:1px;stroke-linecap:butt;stroke-linejoin:miter;stroke-opacity:1" d="M 67.8194,418.266 76.7765,424.984 z" id="boundary" inkscape:connector-curvature="0" />
	<path style="fill:none;stroke:red;stroke-width:1px;stroke-linecap:butt;stroke-linejoin:miter;stroke-opacity:1" d="M 71.1783,171.946 82.3747,171.946 z" id="boundary" inkscape:connector-curvature="0" />
	<path style="fill:none;stroke:red;stroke-width:1px;stroke-linecap:butt;stroke-linejoin:miter;stroke-opacity:1" d="M 76.7765,424.984 83.4944,433.941 z" id="boundary" inkscape:connector-curvature="0" />
	<path style="fill:none;stroke:red;stroke-width:1px;stroke-linecap:butt;stroke-linejoin:miter;stroke-opacity:1" d="M 82.3747,171.946 92.4515,166.348 z" id="boundary" inkscape:connector-curvature="0" />
	<path style="fill:none;stroke:red;stroke-width:1px;stroke-linecap:butt;stroke-linejoin:miter;stroke-opacity:1" d="M 83.4944,433.941 92.4515,441.779 z" id="boundary" inkscape:connector-curvature="0" />
	<path style="fill:none;stroke:red;stroke-width:1px;stroke-linecap:butt;stroke-linejoin:miter;stroke-opacity:1" d="M 92.4515,166.348 103.648,166.348 z" id="boundary" inkscape:connector-curvature="0" />
	<path style="fill:none;stroke:red;stroke-width:1px;stroke-linecap:butt;stroke-linejoin:miter;stroke-opacity:1" d="M 92.4515,441.779 103.648,441.779 z" id="boundary" inkscape:connector-curvature="0" />
	<path style="fill:none;stroke:red;stroke-width:1px;stroke-linecap:butt;stroke-linejoin:miter;stroke-opacity:1" d="M 103.648,166.348 114.844,166.348 z" id="boundary" inkscape:connector-curvature="0" />
	<path style="fill:none;stroke:red;stroke-width:1px;stroke-linecap:butt;stroke-linejoin:miter;stroke-opacity:1" d="M 103.648,441.779 114.844,441.779 z" id="boundary" inkscape:connector-curvature="0" />
	<path style="fill:none;stroke:red;stroke-width:1px;stroke-linecap:butt;stroke-linejoin:miter;stroke-opacity:1" d="M 114.844,166.348 124.921,160.749 z" id="boundary" inkscape:connector-curvature="0" />
	<path style="fill:none;stroke:red;stroke-width:1px;stroke-linecap:butt;stroke-linejoin:miter;stroke-opacity:1" d="M 114.844,441.779 126.041,441.779 z" id="boundary" inkscape:connector-curvature="0" />
	<path style="fill:none;stroke:red;stroke-width:1px;stroke-linecap:butt;stroke-linejoin:miter;stroke-opacity:1" d="M 124.921,160.749 136.117,160.749 z" id="boundary" inkscape:connector-curvature="0" />
	<path style="fill:none;stroke:red;stroke-width:1px;stroke-linecap:butt;stroke-linejoin:miter;stroke-opacity:1" d="M 126.041,441.779 137.237,441.779 z" id="boundary" inkscape:connector-curvature="0" />
	<path style="fill:none;stroke:red;stroke-width:1px;stroke-linecap:butt;stroke-linejoin:miter;stroke-opacity:1" d="M 136.117,160.749 147.314,160.749 z" id="boundary" inkscape:connector-curvature="0" />
	<path style="fill:none;stroke:red;stroke-width:1px;stroke-linecap:butt;stroke-linejoin:miter;stroke-opacity:1" d="M 137.237,441.779 148.433,441.779 z" id="boundary" inkscape:connector-curvature="0" />
	<path style="fill:none;stroke:red;stroke-width:1px;stroke-linecap:butt;stroke-linejoin:miter;stroke-opacity:1" d="M 147.314,160.749 158.51,160.749 z" id="boundary" inkscape:connector-curvature="0" />
	<path style="fill:none;stroke:red;stroke-width:1px;stroke-linecap:butt;stroke-linejoin:miter;stroke-opacity:1" d="M 148.433,441.779 159.63,439.54 z" id="boundary" inkscape:connector-curvature="0" />
	<path style="fill:none;stroke:red;stroke-width:1px;stroke-linecap:butt;stroke-linejoin:miter;stroke-opacity:1" d="M 158.51,160.749 169.707,160.749 z" id="boundary" inkscape:connector-curvature="0" />
	<path style="fill:none;stroke:red;stroke-width:1px;stroke-linecap:butt;stroke-linejoin:miter;stroke-opacity:1" d="M 159.63,439.54 167.467,430.582 z" id="boundary" inkscape:connector-curvature="0" />
	<path style="fill:none;stroke:red;stroke-width:1px;stroke-linecap:butt;stroke-linejoin:miter;stroke-opacity:1" d="M 167.467,430.582 176.424,422.745 z" id="boundary" inkscape:connector-curvature="0" />
	<path style="fill:none;stroke:red;stroke-width:1px;stroke-linecap:butt;stroke-linejoin:miter;stroke-opacity:1" d="M 169.707,160.749 180.903,160.749 z" id="boundary" inkscape:connector-curvature="0" />
	<path style="fill:none;stroke:red;stroke-width:1px;stroke-linecap:butt;stroke-linejoin:miter;stroke-opacity:1" d="M 176.424,422.745 184.262,413.788 z" id="boundary" inkscape:connector-curvature="0" />
	<path style="fill:none;stroke:red;stroke-width:1px;stroke-linecap:butt;stroke-linejoin:miter;stroke-opacity:1" d="M 180.903,160.749 192.099,160.749 z" id="boundary" inkscape:connector-curvature="0" />
	<path style="fill:none;stroke:red;stroke-width:1px;stroke-linecap:butt;stroke-linejoin:miter;stroke-opacity:1" d="M 184.262,413.788 195.458,413.788 z" id="boundary" inkscape:connector-curvature="0" />
	<path style="fill:none;stroke:red;stroke-width:1px;stroke-linecap:butt;stroke-linejoin:miter;stroke-opacity:1" d="M 192.099,160.749 203.296,160.749 z" id="boundary" inkscape:connector-curvature="0" />
	<path style="fill:none;stroke:red;stroke-width:1px;stroke-linecap:butt;stroke-linejoin:miter;stroke-opacity:1" d="M 195.458,413.788 206.655,413.788 z" id="boundary" inkscape:connector-curvature="0" />
	<path style="fill:none;stroke:red;stroke-width:1px;stroke-linecap:butt;stroke-linejoin:miter;stroke-opacity:1" d="M 203.296,160.749 213.372,155.151 z" id="boundary" inkscape:connector-curvature="0" />
	<path style="fill:none;stroke:red;stroke-width:1px;stroke-linecap:butt;stroke-linejoin:miter;stroke-opacity:1" d="M 206.655,413.788 217.851,413.788 z" id="boundary" inkscape:connector-curvature="0" />
	<path style="fill:none;stroke:red;stroke-width:1px;stroke-linecap:butt;stroke-linejoin:miter;stroke-opacity:1" d="M 213.372,155.151 224.569,155.151 z" id="boundary" inkscape:connector-curvature="0" />
	<path style="fill:none;stroke:red;stroke-width:1px;stroke-linecap:butt;stroke-linejoin:miter;stroke-opacity:1" d="M 217.851,413.788 227.928,419.386 z" id="boundary" inkscape:connector-curvature="0" />
	<path style="fill:none;stroke:red;stroke-width:1px;stroke-linecap:butt;stroke-linejoin:miter;stroke-opacity:1" d="M 224.569,155.151 234.646,149.553 z" id="boundary" inkscape:connector-curvature="0" />
	<path style="fill:none;stroke:red;stroke-width:1px;stroke-linecap:butt;stroke-linejoin:miter;stroke-opacity:1" d="M 227.928,419.386 239.124,419.386 z" id="boundary" inkscape:connector-curvature="0" />
	<path style="fill:none;stroke:red;stroke-width:1px;stroke-linecap:butt;stroke-linejoin:miter;stroke-opacity:1" d="M 234.646,149.553 245.842,149.553 z" id="boundary" inkscape:connector-curvature="0" />
	<path style="fill:none;stroke:red;stroke-width:1px;stroke-linecap:butt;stroke-linejoin:miter;stroke-opacity:1" d="M 239.124,419.386 250.321,419.386 z" id="boundary" inkscape:connector-curvature="0" />
	<path style="fill:none;stroke:red;stroke-width:1px;stroke-linecap:butt;stroke-linejoin:miter;stroke-opacity:1" d="M 245.842,149.553 255.919,143.955 z" id="boundary" inkscape:connector-curvature="0" />
	<path style="fill:none;stroke:red;stroke-width:1px;stroke-linecap:butt;stroke-linejoin:miter;stroke-opacity:1" d="M 250.321,419.386 261.517,419.386 z" id="boundary" inkscape:connector-curvature="0" />
	<path style="fill:none;stroke:red;stroke-width:1px;stroke-linecap:butt;stroke-linejoin:miter;stroke-opacity:1" d="M 255.919,143.955 267.115,140.596 z" id="boundary" inkscape:connector-curvature="0" />
	<path style="fill:none;stroke:red;stroke-width:1px;stroke-linecap:butt;stroke-linejoin:miter;stroke-opacity:1" d="M 261.517,119.323 261.517,130.519 z" id="boundary" inkscape:connector-curvature="0" />
	<path style="fill:none;stroke:red;stroke-width:1px;stroke-linecap:butt;stroke-linejoin:miter;stroke-opacity:1" d="M 261.517,119.323 272.713,113.725 z" id="boundary" inkscape:connector-curvature="0" />
	<path style="fill:none;stroke:red;stroke-width:1px;stroke-linecap:butt;stroke-linejoin:miter;stroke-opacity:1" d="M 261.517,130.519 267.115,140.596 z" id="boundary" inkscape:connector-curvature="0" />
	<path style="fill:none;stroke:red;stroke-width:1px;stroke-linecap:butt;stroke-linejoin:miter;stroke-opacity:1" d="M 261.517,419.386 272.713,419.386 z" id="boundary" inkscape:connector-curvature="0" />
	<path style="fill:none;stroke:red;stroke-width:1px;stroke-linecap:butt;stroke-linejoin:miter;stroke-opacity:1" d="M 272.713,113.725 283.91,112.605 z" id="boundary" inkscape:connector-curvature="0" />
	<path style="fill:none;stroke:red;stroke-width:1px;stroke-linecap:butt;stroke-linejoin:miter;stroke-opacity:1" d="M 272.713,419.386 283.91,419.386 z" id="boundary" inkscape:connector-curvature="0" />
	<path style="fill:none;stroke:red;stroke-width:1px;stroke-linecap:butt;stroke-linejoin:miter;stroke-opacity:1" d="M 283.91,112.605 293.986,118.203 z" id="boundary" inkscape:connector-curvature="0" />
	<path style="fill:none;stroke:red;stroke-width:1px;stroke-linecap:butt;stroke-linejoin:miter;stroke-opacity:1" d="M 283.91,419.386 295.106,419.386 z" id="boundary" inkscape:connector-curvature="0" />
	<path style="fill:none;stroke:red;stroke-width:1px;stroke-linecap:butt;stroke-linejoin:miter;stroke-opacity:1" d="M 293.986,118.203 301.824,127.16 z" id="boundary" inkscape:connector-curvature="0" />
	<path style="fill:none;stroke:red;stroke-width:1px;stroke-linecap:butt;stroke-linejoin:miter;stroke-opacity:1" d="M 295.106,419.386 306.302,419.386 z" id="boundary" inkscape:connector-curvature="0" />
	<path style="fill:none;stroke:red;stroke-width:1px;stroke-linecap:butt;stroke-linejoin:miter;stroke-opacity:1" d="M 301.824,127.16 313.02,127.16 z" id="boundary" inkscape:connector-curvature="0" />
	<path style="fill:none;stroke:red;stroke-width:1px;stroke-linecap:butt;stroke-linejoin:miter;stroke-opacity:1" d="M 306.302,419.386 317.499,419.386 z" id="boundary" inkscape:connector-curvature="0" />
	<path style="fill:none;stroke:red;stroke-width:1px;stroke-linecap:butt;stroke-linejoin:miter;stroke-opacity:1" d="M 313.02,127.16 319.738,117.084 z" id="boundary" inkscape:connector-curvature="0" />
	<path style="fill:none;stroke:red;stroke-width:1px;stroke-linecap:butt;stroke-linejoin:miter;stroke-opacity:1" d="M 317.499,419.386 327.576,424.984 z" id="boundary" inkscape:connector-curvature="0" />
	<path style="fill:none;stroke:red;stroke-width:1px;stroke-linecap:butt;stroke-linejoin:miter;stroke-opacity:1" d="M 319.738,117.084 328.695,110.366 z" id="boundary" inkscape:connector-curvature="0" />
	<path style="fill:none;stroke:red;stroke-width:1px;stroke-linecap:butt;stroke-linejoin:miter;stroke-opacity:1" d="M 327.576,424.984 338.772,424.984 z" id="boundary" inkscape:connector-curvature="0" />
	<path style="fill:none;stroke:red;stroke-width:1px;stroke-linecap:butt;stroke-linejoin:miter;stroke-opacity:1" d="M 328.695,110.366 338.772,104.767 z" id="boundary" inkscape:connector-curvature="0" />
	<path style="fill:none;stroke:red;stroke-width:1px;stroke-linecap:butt;stroke-linejoin:miter;stroke-opacity:1" d="M 338.772,104.767 349.968,104.767 z" id="boundary" inkscape:connector-curvature="0" />
	<path style="fill:none;stroke:red;stroke-width:1px;stroke-linecap:butt;stroke-linejoin:miter;stroke-opacity:1" d="M 338.772,424.984 349.968,424.984 z" id="boundary" inkscape:connector-curvature="0" />
	<path style="fill:none;stroke:red;stroke-width:1px;stroke-linecap:butt;stroke-linejoin:miter;stroke-opacity:1" d="M 349.968,104.767 361.165,104.767 z" id="boundary" inkscape:connector-curvature="0" />
	<path style="fill:none;stroke:red;stroke-width:1px;stroke-linecap:butt;stroke-linejoin:miter;stroke-opacity:1" d="M 349.968,424.984 361.165,424.984 z" id="boundary" inkscape:connector-curvature="0" />
	<path style="fill:none;stroke:red;stroke-width:1px;stroke-linecap:butt;stroke-linejoin:miter;stroke-opacity:1" d="M 361.165,104.767 372.361,104.767 z" id="boundary" inkscape:connector-curvature="0" />
	<path style="fill:none;stroke:red;stroke-width:1px;stroke-linecap:butt;stroke-linejoin:miter;stroke-opacity:1" d="M 361.165,424.984 372.361,424.984 z" id="boundary" inkscape:connector-curvature="0" />
	<path style="fill:none;stroke:red;stroke-width:1px;stroke-linecap:butt;stroke-linejoin:miter;stroke-opacity:1" d="M 372.361,104.767 383.558,104.767 z" id="boundary" inkscape:connector-curvature="0" />
	<path style="fill:none;stroke:red;stroke-width:1px;stroke-linecap:butt;stroke-linejoin:miter;stroke-opacity:1" d="M 372.361,424.984 383.558,424.984 z" id="boundary" inkscape:connector-curvature="0" />
	<path style="fill:none;stroke:red;stroke-width:1px;stroke-linecap:butt;stroke-linejoin:miter;stroke-opacity:1" d="M 383.558,104.767 394.754,105.887 z" id="boundary" inkscape:connector-curvature="0" />
	<path style="fill:none;stroke:red;stroke-width:1px;stroke-linecap:butt;stroke-linejoin:miter;stroke-opacity:1" d="M 383.558,424.984 394.754,424.984 z" id="boundary" inkscape:connector-curvature="0" />
	<path style="fill:none;stroke:red;stroke-width:1px;stroke-linecap:butt;stroke-linejoin:miter;stroke-opacity:1" d="M 394.754,105.887 404.831,111.485 z" id="boundary" inkscape:connector-curvature="0" />
	<path style="fill:none;stroke:red;stroke-width:1px;stroke-linecap:butt;stroke-linejoin:miter;stroke-opacity:1" d="M 394.754,424.984 405.95,424.984 z" id="boundary" inkscape:connector-curvature="0" />
	<path style="fill:none;stroke:red;stroke-width:1px;stroke-linecap:butt;stroke-linejoin:miter;stroke-opacity:1" d="M 404.831,111.485 413.788,119.323 z" id="boundary" inkscape:connector-curvature="0" />
	<path style="fill:none;stroke:red;stroke-width:1px;stroke-linecap:butt;stroke-linejoin:miter;stroke-opacity:1" d="M 405.95,424.984 417.147,424.984 z" id="boundary" inkscape:connector-curvature="0" />
	<path style="fill:none;stroke:red;stroke-width:1px;stroke-linecap:butt;stroke-linejoin:miter;stroke-opacity:1" d="M 413.788,119.323 424.984,115.964 z" id="boundary" inkscape:connector-curvature="0" />
	<path style="fill:none;stroke:red;stroke-width:1px;stroke-linecap:butt;stroke-linejoin:miter;stroke-opacity:1" d="M 417.147,424.984 423.865,433.941 z" id="boundary" inkscape:connector-curvature="0" />
	<path style="fill:none;stroke:red;stroke-width:1px;stroke-linecap:butt;stroke-linejoin:miter;stroke-opacity:1" d="M 423.865,433.941 429.463,444.018 z" id="boundary" inkscape:connector-curvature="0" />
	<path style="fill:none;stroke:red;stroke-width:1px;stroke-linecap:butt;stroke-linejoin:miter;stroke-opacity:1" d="M 424.984,115.964 436.181,115.964 z" id="boundary" inkscape:connector-curvature="0" />
	<path style="fill:none;stroke:red;stroke-width:1px;stroke-linecap:butt;stroke-linejoin:miter;stroke-opacity:1" d="M 429.463,444.018 435.061,454.095 z" id="boundary" inkscape:connector-curvature="0" />
	<path style="fill:none;stroke:red;stroke-width:1px;stroke-linecap:butt;stroke-linejoin:miter;stroke-opacity:1" d="M 435.061,454.095 442.898,463.052 z" id="boundary" inkscape:connector-curvature="0" />
	<path style="fill:none;stroke:red;stroke-width:1px;stroke-linecap:butt;stroke-linejoin:miter;stroke-opacity:1" d="M 436.181,115.964 447.377,115.964 z" id="boundary" inkscape:connector-curvature="0" />
	<path style="fill:none;stroke:red;stroke-width:1px;stroke-linecap:butt;stroke-linejoin:miter;stroke-opacity:1" d="M 442.898,463.052 454.095,467.53 z" id="boundary" inkscape:connector-curvature="0" />
	<path style="fill:none;stroke:red;stroke-width:1px;stroke-linecap:butt;stroke-linejoin:miter;stroke-opacity:1" d="M 447.377,115.964 451.856,96.93 z" id="boundary" inkscape:connector-curvature="0" />
	<path style="fill:none;stroke:red;stroke-width:1px;stroke-linecap:butt;stroke-linejoin:miter;stroke-opacity:1" d="M 451.856,85.7336 451.856,96.93 z" id="boundary" inkscape:connector-curvature="0" />
	<path style="fill:none;stroke:red;stroke-width:1px;stroke-linecap:butt;stroke-linejoin:miter;stroke-opacity:1" d="M 451.856,85.7336 457.454,74.5372 z" id="boundary" inkscape:connector-curvature="0" />
	<path style="fill:none;stroke:red;stroke-width:1px;stroke-linecap:butt;stroke-linejoin:miter;stroke-opacity:1" d="M 454.095,467.53 465.291,469.77 z" id="boundary" inkscape:connector-curvature="0" />
	<path style="fill:none;stroke:red;stroke-width:1px;stroke-linecap:butt;stroke-linejoin:miter;stroke-opacity:1" d="M 457.454,63.3409 457.454,74.5372 z" id="boundary" inkscape:connector-curvature="0" />
	<path style="fill:none;stroke:red;stroke-width:1px;stroke-linecap:butt;stroke-linejoin:miter;stroke-opacity:1" d="M 457.454,63.3409 463.052,46.5463 z" id="boundary" inkscape:connector-curvature="0" />
	<path style="fill:none;stroke:red;stroke-width:1px;stroke-linecap:butt;stroke-linejoin:miter;stroke-opacity:1" d="M 463.052,46.5463 468.65,35.3499 z" id="boundary" inkscape:connector-curvature="0" />
	<path style="fill:none;stroke:red;stroke-width:1px;stroke-linecap:butt;stroke-linejoin:miter;stroke-opacity:1" d="M 465.291,469.77 476.488,469.77 z" id="boundary" inkscape:connector-curvature="0" />
	<path style="fill:none;stroke:red;stroke-width:1px;stroke-linecap:butt;stroke-linejoin:miter;stroke-opacity:1" d="M 468.65,35.3499 474.248,24.1535 z" id="boundary" inkscape:connector-curvature="0" />
	<path style="fill:none;stroke:red;stroke-width:1px;stroke-linecap:butt;stroke-linejoin:miter;stroke-opacity:1" d="M 474.248,24.1535 483.205,15.1964 z" id="boundary" inkscape:connector-curvature="0" />
	<path style="fill:none;stroke:red;stroke-width:1px;stroke-linecap:butt;stroke-linejoin:miter;stroke-opacity:1" d="M 476.488,469.77 487.684,469.77 z" id="boundary" inkscape:connector-curvature="0" />
	<path style="fill:none;stroke:red;stroke-width:1px;stroke-linecap:butt;stroke-linejoin:miter;stroke-opacity:1" d="M 483.205,15.1964 493.282,9.59819 z" id="boundary" inkscape:connector-curvature="0" />
	<path style="fill:none;stroke:red;stroke-width:1px;stroke-linecap:butt;stroke-linejoin:miter;stroke-opacity:1" d="M 487.684,469.77 497.761,464.172 z" id="boundary" inkscape:connector-curvature="0" />
	<path style="fill:none;stroke:red;stroke-width:1px;stroke-linecap:butt;stroke-linejoin:miter;stroke-opacity:1" d="M 493.282,9.59819 503.359,4 z" id="boundary" inkscape:connector-curvature="0" />
	<path style="fill:none;stroke:red;stroke-width:1px;stroke-linecap:butt;stroke-linejoin:miter;stroke-opacity:1" d="M 497.761,464.172 508.957,458.573 z" id="boundary" inkscape:connector-curvature="0" />
	<path style="fill:none;stroke:red;stroke-width:1px;stroke-linecap:butt;stroke-linejoin:miter;stroke-opacity:1" d="M 503.359,4 514.555,4 z" id="boundary" inkscape:connector-curvature="0" />
	<path style="fill:none;stroke:red;stroke-width:1px;stroke-linecap:butt;stroke-linejoin:miter;stroke-opacity:1" d="M 508.957,458.573 520.153,458.573 z" id="boundary" inkscape:connector-curvature="0" />
	<path style="fill:none;stroke:red;stroke-width:1px;stroke-linecap:butt;stroke-linejoin:miter;stroke-opacity:1" d="M 514.555,4 525.752,4 z" id="boundary" inkscape:connector-curvature="0" />
	<path style="fill:none;stroke:red;stroke-width:1px;stroke-linecap:butt;stroke-linejoin:miter;stroke-opacity:1" d="M 520.153,458.573 530.23,452.975 z" id="boundary" inkscape:connector-curvature="0" />
	<path style="fill:none;stroke:red;stroke-width:1px;stroke-linecap:butt;stroke-linejoin:miter;stroke-opacity:1" d="M 525.752,4 536.948,4 z" id="boundary" inkscape:connector-curvature="0" />
	<path style="fill:none;stroke:red;stroke-width:1px;stroke-linecap:butt;stroke-linejoin:miter;stroke-opacity:1" d="M 530.23,452.975 539.187,446.257 z" id="boundary" inkscape:connector-curvature="0" />
	<path style="fill:none;stroke:red;stroke-width:1px;stroke-linecap:butt;stroke-linejoin:miter;stroke-opacity:1" d="M 536.948,4 548.144,4 z" id="boundary" inkscape:connector-curvature="0" />
	<path style="fill:none;stroke:red;stroke-width:1px;stroke-linecap:butt;stroke-linejoin:miter;stroke-opacity:1" d="M 539.187,446.257 544.786,435.061 z" id="boundary" inkscape:connector-curvature="0" />
	<path style="fill:none;stroke:red;stroke-width:1px;stroke-linecap:butt;stroke-linejoin:miter;stroke-opacity:1" d="M 544.786,435.061 548.144,419.386 z" id="boundary" inkscape:connector-curvature="0" />
	<path style="fill:none;stroke:red;stroke-width:1px;stroke-linecap:butt;stroke-linejoin:miter;stroke-opacity:1" d="M 548.144,4 559.341,4 z" id="boundary" inkscape:connector-curvature="0" />
	<path style="fill:none;stroke:red;stroke-width:1px;stroke-linecap:butt;stroke-linejoin:miter;stroke-opacity:1" d="M 548.144,419.386 553.743,408.19 z" id="boundary" inkscape:connector-curvature="0" />
	<path style="fill:none;stroke:red;stroke-width:1px;stroke-linecap:butt;stroke-linejoin:miter;stroke-opacity:1" d="M 553.743,408.19 563.819,402.591 z" id="boundary" inkscape:connector-curvature="0" />
	<path style="fill:none;stroke:red;stroke-width:1px;stroke-linecap:butt;stroke-linejoin:miter;stroke-opacity:1" d="M 559.341,4 570.537,4 z" id="boundary" inkscape:connector-curvature="0" />
	<path style="fill:none;stroke:red;stroke-width:1px;stroke-linecap:butt;stroke-linejoin:miter;stroke-opacity:1" d="M 563.819,402.591 575.016,402.591 z" id="boundary" inkscape:connector-curvature="0" />
	<path style="fill:none;stroke:red;stroke-width:1px;stroke-linecap:butt;stroke-linejoin:miter;stroke-opacity:1" d="M 570.537,4 581.734,4 z" id="boundary" inkscape:connector-curvature="0" />
	<path style="fill:none;stroke:red;stroke-width:1px;stroke-linecap:butt;stroke-linejoin:miter;stroke-opacity:1" d="M 575.016,402.591 586.212,402.591 z" id="boundary" inkscape:connector-curvature="0" />
	<path style="fill:none;stroke:red;stroke-width:1px;stroke-linecap:butt;stroke-linejoin:miter;stroke-opacity:1" d="M 581.734,4 592.93,4 z" id="boundary" inkscape:connector-curvature="0" />
	<path style="fill:none;stroke:red;stroke-width:1px;stroke-linecap:butt;stroke-linejoin:miter;stroke-opacity:1" d="M 586.212,402.591 597.409,402.591 z" id="boundary" inkscape:connector-curvature="0" />
	<path style="fill:none;stroke:red;stroke-width:1px;stroke-linecap:butt;stroke-linejoin:miter;stroke-opacity:1" d="M 592.93,4 604.126,4 z" id="boundary" inkscape:connector-curvature="0" />
	<path style="fill:none;stroke:red;stroke-width:1px;stroke-linecap:butt;stroke-linejoin:miter;stroke-opacity:1" d="M 597.409,402.591 608.605,402.591 z" id="boundary" inkscape:connector-curvature="0" />
	<path style="fill:none;stroke:red;stroke-width:1px;stroke-linecap:butt;stroke-linejoin:miter;stroke-opacity:1" d="M 604.126,4 615.323,4 z" id="boundary" inkscape:connector-curvature="0" />
	<path style="fill:none;stroke:red;stroke-width:1px;stroke-linecap:butt;stroke-linejoin:miter;stroke-opacity:1" d="M 608.605,402.591 619.801,399.233 z" id="boundary" inkscape:connector-curvature="0" />
	<path style="fill:none;stroke:red;stroke-width:1px;stroke-linecap:butt;stroke-linejoin:miter;stroke-opacity:1" d="M 615.323,4 626.519,4 z" id="boundary" inkscape:connector-curvature="0" />
	<path style="fill:none;stroke:red;stroke-width:1px;stroke-linecap:butt;stroke-linejoin:miter;stroke-opacity:1" d="M 619.801,399.233 630.998,396.993 z" id="boundary" inkscape:connector-curvature="0" />
	<path style="fill:none;stroke:red;stroke-width:1px;stroke-linecap:butt;stroke-linejoin:miter;stroke-opacity:1" d="M 626.519,4 637.716,4 z" id="boundary" inkscape:connector-curvature="0" />
	<path style="fill:none;stroke:red;stroke-width:1px;stroke-linecap:butt;stroke-linejoin:miter;stroke-opacity:1" d="M 630.998,396.993 642.194,396.993 z" id="boundary" inkscape:connector-curvature="0" />
	<path style="fill:none;stroke:red;stroke-width:1px;stroke-linecap:butt;stroke-linejoin:miter;stroke-opacity:1" d="M 637.716,4 648.912,4 z" id="boundary" inkscape:connector-curvature="0" />
	<path style="fill:none;stroke:red;stroke-width:1px;stroke-linecap:butt;stroke-linejoin:miter;stroke-opacity:1" d="M 642.194,396.993 653.391,396.993 z" id="boundary" inkscape:connector-curvature="0" />
	<path style="fill:none;stroke:red;stroke-width:1px;stroke-linecap:butt;stroke-linejoin:miter;stroke-opacity:1" d="M 648.912,4 660.108,4 z" id="boundary" inkscape:connector-curvature="0" />
	<path style="fill:none;stroke:red;stroke-width:1px;stroke-linecap:butt;stroke-linejoin:miter;stroke-opacity:1" d="M 653.391,396.993 664.587,396.993 z" id="boundary" inkscape:connector-curvature="0" />
	<path style="fill:none;stroke:red;stroke-width:1px;stroke-linecap:butt;stroke-linejoin:miter;stroke-opacity:1" d="M 660.108,4 671.305,4 z" id="boundary" inkscape:connector-curvature="0" />
	<path style="fill:none;stroke:red;stroke-width:1px;stroke-linecap:butt;stroke-linejoin:miter;stroke-opacity:1" d="M 664.587,396.993 675.783,396.993 z" id="boundary" inkscape:connector-curvature="0" />
	<path style="fill:none;stroke:red;stroke-width:1px;stroke-linecap:butt;stroke-linejoin:miter;stroke-opacity:1" d="M 671.305,4 682.501,7.35892 z" id="boundary" inkscape:connector-curvature="0" />
	<path style="fill:none;stroke:red;stroke-width:1px;stroke-linecap:butt;stroke-linejoin:miter;stroke-opacity:1" d="M 675.783,396.993 686.98,396.993 z" id="boundary" inkscape:connector-curvature="0" />
	<path style="fill:none;stroke:red;stroke-width:1px;stroke-linecap:butt;stroke-linejoin:miter;stroke-opacity:1" d="M 682.501,7.35892 693.698,9.59819 z" id="boundary" inkscape:connector-curvature="0" />
	<path style="fill:none;stroke:red;stroke-width:1px;stroke-linecap:butt;stroke-linejoin:miter;stroke-opacity:1" d="M 686.98,396.993 698.176,396.993 z" id="boundary" inkscape:connector-curvature="0" />
	<path style="fill:none;stroke:red;stroke-width:1px;stroke-linecap:butt;stroke-linejoin:miter;stroke-opacity:1" d="M 693.698,9.59819 703.774,15.1964 z" id="boundary" inkscape:connector-curvature="0" />
	<path style="fill:none;stroke:red;stroke-width:1px;stroke-linecap:butt;stroke-linejoin:miter;stroke-opacity:1" d="M 698.176,396.993 709.372,396.993 z" id="boundary" inkscape:connector-curvature="0" />
	<path style="fill:none;stroke:red;stroke-width:1px;stroke-linecap:butt;stroke-linejoin:miter;stroke-opacity:1" d="M 703.774,15.1964 713.851,20.7946 z" id="boundary" inkscape:connector-curvature="0" />
	<path style="fill:none;stroke:red;stroke-width:1px;stroke-linecap:butt;stroke-linejoin:miter;stroke-opacity:1" d="M 709.372,396.993 720.569,396.993 z" id="boundary" inkscape:connector-curvature="0" />
	<path style="fill:none;stroke:red;stroke-width:1px;stroke-linecap:butt;stroke-linejoin:miter;stroke-opacity:1" d="M 713.851,20.7946 725.047,21.9142 z" id="boundary" inkscape:connector-curvature="0" />
	<path style="fill:none;stroke:red;stroke-width:1px;stroke-linecap:butt;stroke-linejoin:miter;stroke-opacity:1" d="M 720.569,396.993 731.765,396.993 z" id="boundary" inkscape:connector-curvature="0" />
	<path style="fill:none;stroke:red;stroke-width:1px;stroke-linecap:butt;stroke-linejoin:miter;stroke-opacity:1" d="M 725.047,21.9142 735.124,27.5124 z" id="boundary" inkscape:connector-curvature="0" />
	<path style="fill:none;stroke:red;stroke-width:1px;stroke-linecap:butt;stroke-linejoin:miter;stroke-opacity:1" d="M 731.765,396.993 742.962,396.993 z" id="boundary" inkscape:connector-curvature="0" />
	<path style="fill:none;stroke:red;stroke-width:1px;stroke-linecap:butt;stroke-linejoin:miter;stroke-opacity:1" d="M 735.124,27.5124 746.321,31.991 z" id="boundary" inkscape:connector-curvature="0" />
	<path style="fill:none;stroke:red;stroke-width:1px;stroke-linecap:butt;stroke-linejoin:miter;stroke-opacity:1" d="M 742.962,396.993 754.158,396.993 z" id="boundary" inkscape:connector-curvature="0" />
	<path style="fill:none;stroke:red;stroke-width:1px;stroke-linecap:butt;stroke-linejoin:miter;stroke-opacity:1" d="M 746.321,31.991 754.158,40.9481 z" id="boundary" inkscape:connector-curvature="0" />
	<path style="fill:none;stroke:red;stroke-width:1px;stroke-linecap:butt;stroke-linejoin:miter;stroke-opacity:1" d="M 754.158,40.9481 763.115,48.7856 z" id="boundary" inkscape:connector-curvature="0" />
	<path style="fill:none;stroke:red;stroke-width:1px;stroke-linecap:butt;stroke-linejoin:miter;stroke-opacity:1" d="M 754.158,396.993 765.354,396.993 z" id="boundary" inkscape:connector-curvature="0" />
	<path style="fill:none;stroke:red;stroke-width:1px;stroke-linecap:butt;stroke-linejoin:miter;stroke-opacity:1" d="M 763.115,48.7856 766.474,59.9819 z" id="boundary" inkscape:connector-curvature="0" />
	<path style="fill:none;stroke:red;stroke-width:1px;stroke-linecap:butt;stroke-linejoin:miter;stroke-opacity:1" d="M 765.354,396.993 776.551,396.993 z" id="boundary" inkscape:connector-curvature="0" />
	<path style="fill:none;stroke:red;stroke-width:1px;stroke-linecap:butt;stroke-linejoin:miter;stroke-opacity:1" d="M 766.474,59.9819 772.072,70.0587 z" id="boundary" inkscape:connector-curvature="0" />
	<path style="fill:none;stroke:red;stroke-width:1px;stroke-linecap:butt;stroke-linejoin:miter;stroke-opacity:1" d="M 772.072,70.0587 772.072,81.2551 z" id="boundary" inkscape:connector-curvature="0" />
	<path style="fill:none;stroke:red;stroke-width:1px;stroke-linecap:butt;stroke-linejoin:miter;stroke-opacity:1" d="M 772.072,81.2551 772.072,92.4515 z" id="boundary" inkscape:connector-curvature="0" />
	<path style="fill:none;stroke:red;stroke-width:1px;stroke-linecap:butt;stroke-linejoin:miter;stroke-opacity:1" d="M 772.072,92.4515 772.072,103.648 z" id="boundary" inkscape:connector-curvature="0" />
	<path style="fill:none;stroke:red;stroke-width:1px;stroke-linecap:butt;stroke-linejoin:miter;stroke-opacity:1" d="M 772.072,103.648 777.67,113.725 z" id="boundary" inkscape:connector-curvature="0" />
	<path style="fill:none;stroke:red;stroke-width:1px;stroke-linecap:butt;stroke-linejoin:miter;stroke-opacity:1" d="M 776.551,396.993 783.269,405.95 z" id="boundary" inkscape:connector-curvature="0" />
	<path style="fill:none;stroke:red;stroke-width:1px;stroke-linecap:butt;stroke-linejoin:miter;stroke-opacity:1" d="M 777.67,113.725 777.67,124.921 z" id="boundary" inkscape:connector-curvature="0" />
	<path style="fill:none;stroke:red;stroke-width:1px;stroke-linecap:butt;stroke-linejoin:miter;stroke-opacity:1" d="M 777.67,124.921 782.149,136.117 z" id="boundary" inkscape:connector-curvature="0" />
	<path style="fill:none;stroke:red;stroke-width:1px;stroke-linecap:butt;stroke-linejoin:miter;stroke-opacity:1" d="M 782.149,136.117 793.345,138.357 z" id="boundary" inkscape:connector-curvature="0" />
	<path style="fill:none;stroke:red;stroke-width:1px;stroke-linecap:butt;stroke-linejoin:miter;stroke-opacity:1" d="M 783.269,405.95 787.747,417.147 z" id="boundary" inkscape:connector-curvature="0" />
	<path style="fill:none;stroke:red;stroke-width:1px;stroke-linecap:butt;stroke-linejoin:miter;stroke-opacity:1" d="M 787.747,417.147 793.345,427.223 z" id="boundary" inkscape:connector-curvature="0" />
	<path style="fill:none;stroke:red;stroke-width:1px;stroke-linecap:butt;stroke-linejoin:miter;stroke-opacity:1" d="M 793.345,138.357 804.542,138.357 z" id="boundary" inkscape:connector-curvature="0" />
	<path style="fill:none;stroke:red;stroke-width:1px;stroke-linecap:butt;stroke-linejoin:miter;stroke-opacity:1" d="M 793.345,427.223 800.063,436.181 z" id="boundary" inkscape:connector-curvature="0" />
	<path style="fill:none;stroke:red;stroke-width:1px;stroke-linecap:butt;stroke-linejoin:miter;stroke-opacity:1" d="M 800.063,436.181 810.14,441.779 z" id="boundary" inkscape:connector-curvature="0" />
	<path style="fill:none;stroke:red;stroke-width:1px;stroke-linecap:butt;stroke-linejoin:miter;stroke-opacity:1" d="M 804.542,138.357 815.738,138.357 z" id="boundary" inkscape:connector-curvature="0" />
	<path style="fill:none;stroke:red;stroke-width:1px;stroke-linecap:butt;stroke-linejoin:miter;stroke-opacity:1" d="M 810.14,441.779 821.336,441.779 z" id="boundary" inkscape:connector-curvature="0" />
	<path style="fill:none;stroke:red;stroke-width:1px;stroke-linecap:butt;stroke-linejoin:miter;stroke-opacity:1" d="M 815.738,138.357 826.935,138.357 z" id="boundary" inkscape:connector-curvature="0" />
	<path style="fill:none;stroke:red;stroke-width:1px;stroke-linecap:butt;stroke-linejoin:miter;stroke-opacity:1" d="M 821.336,441.779 832.533,441.779 z" id="boundary" inkscape:connector-curvature="0" />
	<path style="fill:none;stroke:red;stroke-width:1px;stroke-linecap:butt;stroke-linejoin:miter;stroke-opacity:1" d="M 826.935,138.357 838.131,138.357 z" id="boundary" inkscape:connector-curvature="0" />
	<path style="fill:none;stroke:red;stroke-width:1px;stroke-linecap:butt;stroke-linejoin:miter;stroke-opacity:1" d="M 832.533,441.779 843.729,441.779 z" id="boundary" inkscape:connector-curvature="0" />
	<path style="fill:none;stroke:red;stroke-width:1px;stroke-linecap:butt;stroke-linejoin:miter;stroke-opacity:1" d="M 838.131,138.357 849.327,138.357 z" id="boundary" inkscape:connector-curvature="0" />
	<path style="fill:none;stroke:red;stroke-width:1px;stroke-linecap:butt;stroke-linejoin:miter;stroke-opacity:1" d="M 843.729,441.779 854.926,441.779 z" id="boundary" inkscape:connector-curvature="0" />
	<path style="fill:none;stroke:red;stroke-width:1px;stroke-linecap:butt;stroke-linejoin:miter;stroke-opacity:1" d="M 849.327,138.357 860.524,138.357 z" id="boundary" inkscape:connector-curvature="0" />
	<path style="fill:none;stroke:red;stroke-width:1px;stroke-linecap:butt;stroke-linejoin:miter;stroke-opacity:1" d="M 854.926,441.779 866.122,441.779 z" id="boundary" inkscape:connector-curvature="0" />
	<path style="fill:none;stroke:red;stroke-width:1px;stroke-linecap:butt;stroke-linejoin:miter;stroke-opacity:1" d="M 860.524,138.357 871.72,138.357 z" id="boundary" inkscape:connector-curvature="0" />
	<path style="fill:none;stroke:red;stroke-width:1px;stroke-linecap:butt;stroke-linejoin:miter;stroke-opacity:1" d="M 866.122,441.779 875.079,435.061 z" id="boundary" inkscape:connector-curvature="0" />
	<path style="fill:none;stroke:red;stroke-width:1px;stroke-linecap:butt;stroke-linejoin:miter;stroke-opacity:1" d="M 871.72,138.357 882.916,138.357 z" id="boundary" inkscape:connector-curvature="0" />
	<path style="fill:none;stroke:red;stroke-width:1px;stroke-linecap:butt;stroke-linejoin:miter;stroke-opacity:1" d="M 875.079,435.061 884.036,424.984 z" id="boundary" inkscape:connector-curvature="0" />
	<path style="fill:none;stroke:red;stroke-width:1px;stroke-linecap:butt;stroke-linejoin:miter;stroke-opacity:1" d="M 882.916,138.357 894.113,138.357 z" id="boundary" inkscape:connector-curvature="0" />
	<path style="fill:none;stroke:red;stroke-width:1px;stroke-linecap:butt;stroke-linejoin:miter;stroke-opacity:1" d="M 884.036,424.984 889.634,413.788 z" id="boundary" inkscape:connector-curvature="0" />
	<path style="fill:none;stroke:red;stroke-width:1px;stroke-linecap:butt;stroke-linejoin:miter;stroke-opacity:1" d="M 889.634,413.788 895.233,402.591 z" id="boundary" inkscape:connector-curvature="0" />
	<path style="fill:none;stroke:red;stroke-width:1px;stroke-linecap:butt;stroke-linejoin:miter;stroke-opacity:1" d="M 894.113,138.357 905.309,136.117 z" id="boundary" inkscape:connector-curvature="0" />
	<path style="fill:none;stroke:red;stroke-width:1px;stroke-linecap:butt;stroke-linejoin:miter;stroke-opacity:1" d="M 895.233,402.591 900.831,391.395 z" id="boundary" inkscape:connector-curvature="0" />
	<path style="fill:none;stroke:red;stroke-width:1px;stroke-linecap:butt;stroke-linejoin:miter;stroke-opacity:1" d="M 900.831,391.395 906.429,380.199 z" id="boundary" inkscape:connector-curvature="0" />
	<path style="fill:none;stroke:red;stroke-width:1px;stroke-linecap:butt;stroke-linejoin:miter;stroke-opacity:1" d="M 905.309,136.117 916.506,132.758 z" id="boundary" inkscape:connector-curvature="0" />
	<path style="fill:none;stroke:red;stroke-width:1px;stroke-linecap:butt;stroke-linejoin:miter;stroke-opacity:1" d="M 906.429,369.002 906.429,380.199 z" id="boundary" inkscape:connector-curvature="0" />
	<path style="fill:none;stroke:red;stroke-width:1px;stroke-linecap:butt;stroke-linejoin:miter;stroke-opacity:1" d="M 906.429,369.002 912.027,352.208 z" id="boundary" inkscape:connector-curvature="0" />
	<path style="fill:none;stroke:red;stroke-width:1px;stroke-linecap:butt;stroke-linejoin:miter;stroke-opacity:1" d="M 912.027,352.208 923.223,352.208 z" id="boundary" inkscape:connector-curvature="0" />
	<path style="fill:none;stroke:red;stroke-width:1px;stroke-linecap:butt;stroke-linejoin:miter;stroke-opacity:1" d="M 916.506,132.758 926.582,127.16 z" id="boundary" inkscape:connector-curvature="0" />
	<path style="fill:none;stroke:red;stroke-width:1px;stroke-linecap:butt;stroke-linejoin:miter;stroke-opacity:1" d="M 923.223,352.208 934.42,346.609 z" id="boundary" inkscape:connector-curvature="0" />
	<path style="fill:none;stroke:red;stroke-width:1px;stroke-linecap:butt;stroke-linejoin:miter;stroke-opacity:1" d="M 926.582,127.16 937.779,127.16 z" id="boundary" inkscape:connector-curvature="0" />
	<path style="fill:none;stroke:red;stroke-width:1px;stroke-linecap:butt;stroke-linejoin:miter;stroke-opacity:1" d="M 934.42,346.609 945.616,346.609 z" id="boundary" inkscape:connector-curvature="0" />
	<path style="fill:none;stroke:red;stroke-width:1px;stroke-linecap:butt;stroke-linejoin:miter;stroke-opacity:1" d="M 937.779,127.16 948.975,127.16 z" id="boundary" inkscape:connector-curvature="0" />
	<path style="fill:none;stroke:red;stroke-width:1px;stroke-linecap:butt;stroke-linejoin:miter;stroke-opacity:1" d="M 945.616,346.609 956.813,346.609 z" id="boundary" inkscape:connector-curvature="0" />
	<path style="fill:none;stroke:red;stroke-width:1px;stroke-linecap:butt;stroke-linejoin:miter;stroke-opacity:1" d="M 948.975,127.16 960.172,128.28 z" id="boundary" inkscape:connector-curvature="0" />
	<path style="fill:none;stroke:red;stroke-width:1px;stroke-linecap:butt;stroke-linejoin:miter;stroke-opacity:1" d="M 956.813,346.609 965.77,338.772 z" id="boundary" inkscape:connector-curvature="0" />
	<path style="fill:none;stroke:red;stroke-width:1px;stroke-linecap:butt;stroke-linejoin:miter;stroke-opacity:1" d="M 960.172,128.28 970.248,133.878 z" id="boundary" inkscape:connector-curvature="0" />
	<path style="fill:none;stroke:red;stroke-width:1px;stroke-linecap:butt;stroke-linejoin:miter;stroke-opacity:1" d="M 965.77,338.772 973.607,324.217 z" id="boundary" inkscape:connector-curvature="0" />
	<path style="fill:none;stroke:red;stroke-width:1px;stroke-linecap:butt;stroke-linejoin:miter;stroke-opacity:1" d="M 970.248,133.878 975.847,143.955 z" id="boundary" inkscape:connector-curvature="0" />
	<path style="fill:none;stroke:red;stroke-width:1px;stroke-linecap:butt;stroke-linejoin:miter;stroke-opacity:1" d="M 973.607,245.842 973.607,257.038 z" id="boundary" inkscape:connector-curvature="0" />
	<path style="fill:none;stroke:red;stroke-width:1px;stroke-linecap:butt;stroke-linejoin:miter;stroke-opacity:1" d="M 973.607,245.842 979.205,234.646 z" id="boundary" inkscape:connector-curvature="0" />
	<path style="fill:none;stroke:red;stroke-width:1px;stroke-linecap:butt;stroke-linejoin:miter;stroke-opacity:1" d="M 973.607,257.038 973.607,268.235 z" id="boundary" inkscape:connector-curvature="0" />
	<path style="fill:none;stroke:red;stroke-width:1px;stroke-linecap:butt;stroke-linejoin:miter;stroke-opacity:1" d="M 973.607,268.235 973.607,279.431 z" id="boundary" inkscape:connector-curvature="0" />
	<path style="fill:none;stroke:red;stroke-width:1px;stroke-linecap:butt;stroke-linejoin:miter;stroke-opacity:1" d="M 973.607,279.431 973.607,290.628 z" id="boundary" inkscape:connector-curvature="0" />
	<path style="fill:none;stroke:red;stroke-width:1px;stroke-linecap:butt;stroke-linejoin:miter;stroke-opacity:1" d="M 973.607,290.628 973.607,301.824 z" id="boundary" inkscape:connector-curvature="0" />
	<path style="fill:none;stroke:red;stroke-width:1px;stroke-linecap:butt;stroke-linejoin:miter;stroke-opacity:1" d="M 973.607,301.824 973.607,313.02 z" id="boundary" inkscape:connector-curvature="0" />
	<path style="fill:none;stroke:red;stroke-width:1px;stroke-linecap:butt;stroke-linejoin:miter;stroke-opacity:1" d="M 973.607,313.02 973.607,324.217 z" id="boundary" inkscape:connector-curvature="0" />
	<path style="fill:none;stroke:red;stroke-width:1px;stroke-linecap:butt;stroke-linejoin:miter;stroke-opacity:1" d="M 975.847,143.955 979.205,155.151 z" id="boundary" inkscape:connector-curvature="0" />
	<path style="fill:none;stroke:red;stroke-width:1px;stroke-linecap:butt;stroke-linejoin:miter;stroke-opacity:1" d="M 979.205,155.151 984.804,165.228 z" id="boundary" inkscape:connector-curvature="0" />
	<path style="fill:none;stroke:red;stroke-width:1px;stroke-linecap:butt;stroke-linejoin:miter;stroke-opacity:1" d="M 979.205,234.646 984.804,223.449 z" id="boundary" inkscape:connector-curvature="0" />
	<path style="fill:none;stroke:red;stroke-width:1px;stroke-linecap:butt;stroke-linejoin:miter;stroke-opacity:1" d="M 984.804,165.228 990.402,175.305 z" id="boundary" inkscape:connector-curvature="0" />
	<path style="fill:none;stroke:red;stroke-width:1px;stroke-linecap:butt;stroke-linejoin:miter;stroke-opacity:1" d="M 984.804,223.449 990.402,212.253 z" id="boundary" inkscape:connector-curvature="0" />
	<path style="fill:none;stroke:red;stroke-width:1px;stroke-linecap:butt;stroke-linejoin:miter;stroke-opacity:1" d="M 990.402,175.305 996,185.381 z" id="boundary" inkscape:connector-curvature="0" />
	<path style="fill:none;stroke:red;stroke-width:1px;stroke-linecap:butt;stroke-linejoin:miter;stroke-opacity:1" d="M 990.402,212.253 996,196.578 z" id="boundary" inkscape:connector-curvature="0" />
	<path style="fill:none;stroke:red;stroke-width:1px;stroke-linecap:butt;stroke-linejoin:miter;stroke-opacity:1" d="M 996,185.381 996,196.578 z" id="boundary" inkscape:connector-curvature="0" />
	<circle cx="4" cy="253.679" r="4" fill="#0" id="circle0"/>
	<circle cx="4" cy="264.876" r="4" fill="#0" id="circle1"/>
	<circle cx="12.9571" cy="244.722" r="4" fill="#0" id="circle2"/>
	<circle cx="12.9571" cy="272.713" r="4" fill="#0" id="circle3"/>
	<circle cx="18.5553" cy="233.526" r="4" fill="#0" id="circle4"/>
	<circle cx="24.1535" cy="222.33" r="4" fill="#0" id="circle5"/>
	<circle cx="24.1535" cy="273.833" r="4" fill="#0" id="circle6"/>
	<circle cx="26.3928" cy="285.029" r="4" fill="#0" id="circle7"/>
	<circle cx="26.3928" cy="296.226" r="4" fill="#0" id="circle8"/>
	<circle cx="26.3928" cy="307.422" r="4" fill="#0" id="circle9"/>
	<circle cx="26.3928" cy="318.619" r="4" fill="#0" id="circle10"/>
	<circle cx="26.3928" cy="329.815" r="4" fill="#0" id="circle11"/>
	<circle cx="29.7517" cy="211.133" r="4" fill="#0" id="circle12"/>
	<circle cx="29.7517" cy="341.011" r="4" fill="#0" id="circle13"/>
	<circle cx="31.991" cy="352.208" r="4" fill="#0" id="circle14"/>
	<circle cx="35.3499" cy="199.937" r="4" fill="#0" id="circle15"/>
	<circle cx="37.5892" cy="362.284" r="4" fill="#0" id="circle16"/>
	<circle cx="40.9481" cy="188.74" r="4" fill="#0" id="circle17"/>
	<circle cx="46.5463" cy="369.002" r="4" fill="#0" id="circle18"/>
	<circle cx="48.7856" cy="380.199" r="4" fill="#0" id="circle19"/>
	<circle cx="48.7856" cy="391.395" r="4" fill="#0" id="circle20"/>
	<circle cx="51.0248" cy="183.142" r="4" fill="#0" id="circle21"/>
	<circle cx="52.1445" cy="402.591" r="4" fill="#0" id="circle22"/>
	<circle cx="57.7427" cy="412.668" r="4" fill="#0" id="circle23"/>
	<circle cx="61.1016" cy="177.544" r="4" fill="#0" id="circle24"/>
	<circle cx="67.8194" cy="418.266" r="4" fill="#0" id="circle25"/>
	<circle cx="71.1783" cy="171.946" r="4" fill="#0" id="circle26"/>
	<circle cx="76.7765" cy="424.984" r="4" fill="#0" id="circle27"/>
	<circle cx="82.3747" cy="171.946" r="4" fill="#0" id="circle28"/>
	<circle cx="83.4944" cy="433.941" r="4" fill="#0" id="circle29"/>
	<circle cx="92.4515" cy="166.348" r="4" fill="#0" id="circle30"/>
	<circle cx="92.4515" cy="441.779" r="4" fill="#0" id="circle31"/>
	<circle cx="103.648" cy="166.348" r="4" fill="#0" id="circle32"/>
	<circle cx="103.648" cy="441.779" r="4" fill="#0" id="circle33"/>
	<circle cx="114.844" cy="166.348" r="4" fill="#0" id="circle34"/>
	<circle cx="114.844" cy="441.779" r="4" fill="#0" id="circle35"/>
	<circle cx="124.921" cy="160.749" r="4" fill="#0" id="circle36"/>
	<circle cx="126.041" cy="441.779" r="4" fill="#0" id="circle37"/>
	<circle cx="136.117" cy="160.749" r="4" fill="#0" id="circle38"/>
	<circle cx="137.237" cy="441.779" r="4" fill="#0" id="circle39"/>
	<circle cx="147.314" cy="160.749" r="4" fill="#0" id="circle40"/>
	<circle cx="148.433" cy="441.779" r="4" fill="#0" id="circle41"/>
	<circle cx="158.51" cy="160.749" r="4" fill="#0" id="circle42"/>
	<circle cx="159.63" cy="439.54" r="4" fill="#0" id="circle43"/>
	<circle cx="167.467" cy="430.582" r="4" fill="#0" id="circle44"/>
	<circle cx="169.707" cy="160.749" r="4" fill="#0" id="circle45"/>
	<circle cx="176.424" cy="422.745" r="4" fill="#0" id="circle46"/>
	<circle cx="180.903" cy="160.749" r="4" fill="#0" id="circle47"/>
	<circle cx="184.262" cy="413.788" r="4" fill="#0" id="circle48"/>
	<circle cx="192.099" cy="160.749" r="4" fill="#0" id="circle49"/>
	<circle cx="195.458" cy="413.788" r="4" fill="#0" id="circle50"/>
	<circle cx="203.296" cy="160.749" r="4" fill="#0" id="circle51"/>
	<circle cx="206.655" cy="413.788" r="4" fill="#0" id="circle52"/>
	<circle cx="213.372" cy="155.151" r="4" fill="#0" id="circle53"/>
	<circle cx="217.851" cy="413.788" r="4" fill="#0" id="circle54"/>
	<circle cx="224.569" cy="155.151" r="4" fill="#0" id="circle55"/>
	<circle cx="227.928" cy="419.386" r="4" fill="#0" id="circle56"/>
	<circle cx="234.646" cy="149.553" r="4" fill="#0" id="circle57"/>
	<circle cx="239.124" cy="419.386" r="4" fill="#0" id="circle58"/>
	<circle cx="245.842" cy="149.553" r="4" fill="#0" id="circle59"/>
	<circle cx="250.321" cy="419.386" r="4" fill="#0" id="circle60"/>
	<circle cx="255.919" cy="143.955" r="4" fill="#0" id="circle61"/>
	<circle cx="261.517" cy="119.323" r="4" fill="#0" id="circle62"/>
	<circle cx="261.517" cy="130.519" r="4" fill="#0" id="circle63"/>
	<circle cx="261.517" cy="419.386" r="4" fill="#0" id="circle64"/>
	<circle cx="267.115" cy="140.596" r="4" fill="#0" id="circle65"/>
	<circle cx="272.713" cy="113.725" r="4" fill="#0" id="circle66"/>
	<circle cx="272.713" cy="419.386" r="4" fill="#0" id="circle67"/>
	<circle cx="283.91" cy="112.605" r="4" fill="#0" id="circle68"/>
	<circle cx="283.91" cy="419.386" r="4" fill="#0" id="circle69"/>
	<circle cx="293.986" cy="118.203" r="4" fill="#0" id="circle70"/>
	<circle cx="295.106" cy="419.386" r="4" fill="#0" id="circle71"/>
	<circle cx="301.824" cy="127.16" r="4" fill="#0" id="circle72"/>
	<circle cx="306.302" cy="419.386" r="4" fill="#0" id="circle73"/>
	<circle cx="313.02" cy="127.16" r="4" fill="#0" id="circle74"/>
	<circle cx="317.499" cy="419.386" r="4" fill="#0" id="circle75"/>
	<circle cx="319.738" cy="117.084" r="4" fill="#0" id="circle76"/>
	<circle cx="327.576" cy="424.984" r="4" fill="#0" id="circle77"/>
	<circle cx="328.695" cy="110.366" r="4" fill="#0" id="circle78"/>
	<circle cx="338.772" cy="104.767" r="4" fill="#0" id="circle79"/>
	<circle cx="338.772" cy="424.984" r="4" fill="#0" id="circle80"/>
	<circle cx="349.968" cy="104.767" r="4" fill="#0" id="circle81"/>
	<circle cx="349.968" cy="424.984" r="4" fill="#0" id="circle82"/>
	<circle cx="361.165" cy="104.767" r="4" fill="#0" id="circle83"/>
	<circle cx="361.165" cy="424.984" r="4" fill="#0" id="circle84"/>
	<circle cx="372.361" cy="104.767" r="4" fill="#0" id="circle85"/>
	<circle cx="372.361" cy="424.984" r="4" fill="#0" id="circle86"/>
	<circle cx="383.558" cy="104.767" r="4" fill="#0" id="circle87"/>
	<circle cx="383.558" cy="424.984" r="4" fill="#0" id="circle88"/>
	<circle cx="394.754" cy="105.887" r="4" fill="#0" id="circle89"/>
	<circle cx="394.754" cy="424.984" r="4" fill="#0" id="circle90"/>
	<circle cx="404.831" cy="111.485" r="4" fill="#0" id="circle91"/>
	<circle cx="405.95" cy="424.984" r="4" fill="#0" id="circle92"/>
	<circle cx="413.788" cy="119.323" r="4" fill="#0" id="circle93"/>
	<circle cx="417.147" cy="424.984" r="4" fill="#0" id="circle94"/>
	<circle cx="423.865" cy="433.941" r="4" fill="#0" id="circle95"/>
	<circle cx="424.984" cy="115.964" r="4" fill="#0" id="circle96"/>
	<circle cx="429.463" cy="444.018" r="4" fill="#0" id="circle97"/>
	<circle cx="435.061" cy="454.095" r="4" fill="#0" id="circle98"/>
	<circle cx="436.181" cy="115.964" r="4" fill="#0" id="circle99"/>
	<circle cx="442.898" cy="463.052" r="4" fill="#0" id="circle100"/>
	<circle cx="447.377" cy="115.964" r="4" fill="#0" id="circle101"/>
	<circle cx="451.856" cy="85.7336" r="4" fill="#0" id="circle102"/>
	<circle cx="451.856" cy="96.93" r="4" fill="#0" id="circle103"/>
	<circle cx="454.095" cy="467.53" r="4" fill="#0" id="circle104"/>
	<circle cx="457.454" cy="63.3409" r="4" fill="#0" id="circle105"/>
	<circle cx="457.454" cy="74.5372" r="4" fill="#0" id="circle106"/>
	<circle cx="463.052" cy="46.5463" r="4" fill="#0" id="circle107"/>
	<circle cx="465.291" cy="469.77" r="4" fill="#0" id="circle108"/>
	<circle cx="468.65" cy="35.3499" r="4" fill="#0" id="circle109"/>
	<circle cx="474.248" cy="24.1535" r="4" fill="#0" id="circle110"/>
	<circle cx="476.488" cy="469.77" r="4" fill="#0" id="circle111"/>
	<circle cx="483.205" cy="15.1964" r="4" fill="#0" id="circle112"/>
	<circle cx="487.684" cy="469.77" r="4" fill="#0" id="circle113"/>
	<circle cx="493.282" cy="9.59819" r="4" fill="#0" id="circle114"/>
	<circle cx="497.761" cy="464.172" r="4" fill="#0" id="circle115"/>
	<circle cx="503.359" cy="4" r="4" fill="#0" id="circle116"/>
	<circle cx="508.957" cy="458.573" r="4" fill="#0" id="circle117"/>
	<circle cx="514.555" cy="4" r="4" fill="#0" id="circle118"/>
	<circle cx="520.153" cy="458.573" r="4" fill="#0" id="circle119"/>
	<circle cx="525.752" cy="4" r="4" fill="#0" id="circle120"/>
	<circle cx="530.23" cy="452.975" r="4" fill="#0" id="circle121"/>
	<circle cx="536.948" cy="4" r="4" fill="#0" id="circle122"/>
	<circle cx="539.187" cy="446.257" r="4" fill="#0" id="circle123"/>
	<circle cx="544.786" cy="435.061" r="4" fill="#0" id="circle124"/>
	<circle cx="548.144" cy="4" r="4" fill="#0" id="circle125"/>
	<circle cx="548.144" cy="419.386" r="4" fill="#0" id="circle126"/>
	<circle cx="553.743" cy="408.19" r="4" fill="#0" id="circle127"/>
	<circle cx="559.341" cy="4" r="4" fill="#0" id="circle128"/>
	<circle cx="563.819" cy="402.591" r="4" fill="#0" id="circle129"/>
	<circle cx="570.537" cy="4" r="4" fill="#0" id="circle130"/>
	<circle cx="575.016" cy="402.591" r="4" fill="#0" id="circle131"/>
	<circle cx="581.734" cy="4" r="4" fill="#0" id="circle132"/>
	<circle cx="586.212" cy="402.591" r="4" fill="#0" id="circle133"/>
	<circle cx="592.93" cy="4" r="4" fill="#0" id="circle134"/>
	<circle cx="597.409" cy="402.591" r="4" fill="#0" id="circle135"/>
	<circle cx="604.126" cy="4" r="4" fill="#0" id="circle136"/>
	<circle cx="608.605" cy="402.591" r="4" fill="#0" id="circle137"/>
	<circle cx="615.323" cy="4" r="4" fill="#0" id="circle138"/>
	<circle cx="619.801" cy="399.233" r="4" fill="#0" id="circle139"/>
	<circle cx="626.519" cy="4" r="4" fill="#0" id="circle140"/>
	<circle cx="630.998" cy="396.993" r="4" fill="#0" id="circle141"/>
	<circle cx="637.716" cy="4" r="4" fill="#0" id="circle142"/>
	<circle cx="642.194" cy="396.993" r="4" fill="#0" id="circle143"/>
	<circle cx="648.912" cy="4" r="4" fill="#0" id="circle144"/>
	<circle cx="653.391" cy="396.993" r="4" fill="#0" id="circle145"/>
	<circle cx="660.108" cy="4" r="4" fill="#0" id="circle146"/>
	<circle cx="664.587" cy="396.993" r="4" fill="#0" id="circle147"/>
	<circle cx="671.305" cy="4" r="4" fill="#0" id="circle148"/>
	<circle cx="675.783" cy="396.993" r="4" fill="#0" id="circle149"/>
	<circle cx="682.501" cy="7.35892" r="4" fill="#0" id="circle150"/>
	<circle cx="686.98" cy="396.993" r="4" fill="#0" id="circle151"/>
	<circle cx="693.698" cy="9.59819" r="4" fill="#0" id="circle152"/>
	<circle cx="698.176" cy="396.993" r="4" fill="#0" id="circle153"/>
	<circle cx="703.774" cy="15.1964" r="4" fill="#0" id="circle154"/>
	<circle cx="709.372" cy="396.993" r="4" fill="#0" id="circle155"/>
	<circle cx="713.851" cy="20.7946" r="4" fill="#0" id="circle156"/>
	<circle cx="720.569" cy="396.993" r="4" fill="#0" id="circle157"/>
	<circle cx="725.047" cy="21.9142" r="4" fill="#0" id="circle158"/>
	<circle cx="731.765" cy="396.993" r="4" fill="#0" id="circle159"/>
	<circle cx="735.124" cy="27.5124" r="4" fill="#0" id="circle160"/>
	<circle cx="742.962" cy="396.993" r="4" fill="#0" id="circle161"/>
	<circle cx="746.321" cy="31.991" r="4" fill="#0" id="circle162"/>
	<circle cx="754.158" cy="40.9481" r="4" fill="#0" id="circle163"/>
	<circle cx="754.158" cy="396.993" r="4" fill="#0" id="circle164"/>
	<circle cx="763.115" cy="48.7856" r="4" fill="#0" id="circle165"/>
	<circle cx="765.354" cy="396.993" r="4" fill="#0" id="circle166"/>
	<circle cx="766.474" cy="59.9819" r="4" fill="#0" id="circle167"/>
	<circle cx="772.072" cy="70.0587" r="4" fill="#0" id="circle168"/>
	<circle cx="772.072" cy="81.2551" r="4" fill="#0" id="circle169"/>
	<circle cx="772.072" cy="92.4515" r="4" fill="#0" id="circle170"/>
	<circle cx="772.072" cy="103.648" r="4" fill="#0" id="circle171"/>
	<circle cx="776.551" cy="396.993" r="4" fill="#0" id="circle172"/>
	<circle cx="777.67" cy="113.725" r="4" fill="#0" id="circle173"/>
	<circle cx="777.67" cy="124.921" r="4" fill="#0" id="circle174"/>
	<circle cx="782.149" cy="136.117" r="4" fill="#0" id="circle175"/>
	<circle cx="783.269" cy="405.95" r="4" fill="#0" id="circle176"/>
	<circle cx="787.747" cy="417.147" r="4" fill="#0" id="circle177"/>
	<circle cx="793.345" cy="138.357" r="4" fill="#0" id="circle178"/>
	<circle cx="793.345" cy="427.223" r="4" fill="#0" id="circle179"/>
	<circle cx="800.063" cy="436.181" r="4" fill="#0" id="circle180"/>
	<circle cx="804.542" cy="138.357" r="4" fill="#0" id="circle181"/>
	<circle cx="810.14" cy="441.779" r="4" fill="#0" id="circle182"/>
	<circle cx="815.738" cy="138.357" r="4" fill="#0" id="circle183"/>
	<circle cx="821.336" cy="441.779" r="4" fill="#0" id="circle184"/>
	<circle cx="826.935" cy="138.357" r="4" fill="#0" id="circle185"/>
	<circle cx="832.533" cy="441.779" r="4" fill="#0" id="circle186"/>
	<circle cx="838.131" cy="138.357" r="4" fill="#0" id="circle187"/>
	<circle cx="843.729" cy="441.779" r="4" fill="#0" id="circle188"/>
	<circle cx="849.327" cy="138.357" r="4" fill="#0" id="circle189"/>
	<circle cx="854.926" cy="441.779" r="4" fill="#0" id="circle190"/>
	<circle cx="860.524" cy="138.357" r="4" fill="#0" id="circle191"/>
	<circle cx="866.122" cy="441.779" r="4" fill="#0" id="circle192"/>
	<circle cx="871.72" cy="138.357" r="4" fill="#0" id="circle193"/>
	<circle cx="875.079" cy="435.061" r="4" fill="#0" id="circle194"/>
	<circle cx="882.916" cy="138.357" r="4" fill="#0" id="circle195"/>
	<circle cx="884.036" cy="424.984" r="4" fill="#0" id="circle196"/>
	<circle cx="889.634" cy="413.788" r="4" fill="#0" id="circle197"/>
	<circle cx="894.113" cy="138.357" r="4" fill="#0" id="circle198"/>
	<circle cx="895.233" cy="402.591" r="4" fill="#0" id="circle199"/>
	<circle cx="900.831" cy="391.395" r="4" fill="#0" id="circle200"/>
	<circle cx="905.309" cy="136.117" r="4" fill="#0" id="circle201"/>
	<circle cx="906.429" cy="369.002" r="4" fill="#0" id="circle202"/>
	<circle cx="906.429" cy="380.199" r="4" fill="#0" id="circle203"/>
	<circle cx="912.027" cy="352.208" r="4" fill="#0" id="circle204"/>
	<circle cx="916.506" cy="132.758" r="4" fill="#0" id="circle205"/>
	<circle cx="923.223" cy="352.208" r="4" fill="#0" id="circle206"/>
	<circle cx="926.582" cy="127.16" r="4" fill="#0" id="circle207"/>
	<circle cx="934.42" cy="346.609" r="4" fill="#0" id="circle208"/>
	<circle cx="937.779" cy="127.16" r="4" fill="#0" id="circle209"/>
	<circle cx="945.616" cy="346.609" r="4" fill="#0" id="circle210"/>
	<circle cx="948.975" cy="127.16" r="4" fill="#0" id="circle211"/>
	<circle cx="956.813" cy="346.609" r="4" fill="#0" id="circle212"/>
	<circle cx="960.172" cy="128.28" r="4" fill="#0" id="circle213"/>
	<circle cx="965.77" cy="338.772" r="4" fill="#0" id="circle214"/>
	<circle cx="970.248" cy="133.878" r="4" fill="#0" id="circle215"/>
	<circle cx="973.607" cy="245.842" r="4" fill="#0" id="circle216"/>
	<circle cx="973.607" cy="257.038" r="4" fill="#0" id="circle217"/>
	<circle cx="973.607" cy="268.235" r="4" fill="#0" id="circle218"/>
	<circle cx="973.607" cy="279.431" r="4" fill="#0" id="circle219"/>
	<circle cx="973.607" cy="290.628" r="4" fill="#0" id="circle220"/>
	<circle cx="973.607" cy="301.824" r="4" fill="#0" id="circle221"/>
	<circle cx="973.607" cy="313.02" r="4" fill="#0" id="circle222"/>
	<circle cx="973.607" cy="324.217" r="4" fill="#0" id="circle223"/>
	<circle cx="975.847" cy="143.955" r="4" fill="#0" id="circle224"/>
	<circle cx="979.205" cy="155.151" r="4" fill="#0" id="circle225"/>
	<circle cx="979.205" cy="234.646" r="4" fill="#0" id="circle226"/>
	<circle cx="984.804" cy="165.228" r="4" fill="#0" id="circle227"/>
	<circle cx="984.804" cy="223.449" r="4" fill="#0" id="circle228"/>
	<circle cx="990.402" cy="175.305" r="4" fill="#0" id="circle229"/>
	<circle cx="990.402" cy="212.253" r="4" fill="#0" id="circle230"/>
	<circle cx="996" cy="185.381" r="4" fill="#0" id="circle231"/>
	<circle cx="996" cy="196.578" r="4" fill="#0" id="circle232"/>
	</g>
</svg>