<?xml version="1.0" encoding="UTF-8" standalone="no"?>
<!-- Created with CurveBenchmark -->
<svg
	xmlns:dc="http://purl.org/dc/elements/1.1/"
	xmlns:cc="http://creativecommons.org/ns#"
	xmlns:rdf="http://www.w3.org/1999/02/22-rdf-syntax-ns#"
	xmlns:svg="http://www.w3.org/2000/svg"
	xmlns="http://www.w3.org/2000/svg"
	xmlns:sodipodi="http://sodipodi.sourceforge.net/DTD/sodipodi-0.dtd"
	xmlns:inkscape="http://www.inkscape.org/namespaces/inkscape"
	width="1000"
	height="1000"
	id="svg2"
	version="1.1"
	sodipodi:docname="manifold/hnncrust-fgen1cp.png.txt">
<defs
	id="defs4" />
<metadata
	id="metadata7">
	<rdf:RDF>
		<cc:Work
			rdf:about="">
			<dc:format>image/svg+xml</dc:format>
			<dc:type
				rdf:resource="http://purl.org/dc/dcmitype/StillImage" />
			<dc:title></dc:title>
		</cc:Work>
	</rdf:RDF>
</metadata>
<g
	inkscape:label="Layer 1"
	inkscape:groupmode="layer"
	id="layer1">
	<path style="fill:none;stroke:red;stroke-width:1px;stroke-linecap:butt;stroke-linejoin:miter;stroke-opacity:1" d="M 4,184.54 4,203.953 z" id="boundary" inkscape:connector-curvature="0" />
	<path style="fill:none;stroke:red;stroke-width:1px;stroke-linecap:butt;stroke-linejoin:miter;stroke-opacity:1" d="M 4,184.54 13.7065,165.127 z" id="boundary" inkscape:connector-curvature="0" />
	<path style="fill:none;stroke:red;stroke-width:1px;stroke-linecap:butt;stroke-linejoin:miter;stroke-opacity:1" d="M 4,203.953 13.7065,221.425 z" id="boundary" inkscape:connector-curvature="0" />
	<path style="fill:none;stroke:red;stroke-width:1px;stroke-linecap:butt;stroke-linejoin:miter;stroke-opacity:1" d="M 13.7065,165.127 29.2368,149.597 z" id="boundary" inkscape:connector-curvature="0" />
	<path style="fill:none;stroke:red;stroke-width:1px;stroke-linecap:butt;stroke-linejoin:miter;stroke-opacity:1" d="M 13.7065,221.425 27.2955,236.955 z" id="boundary" inkscape:connector-curvature="0" />
	<path style="fill:none;stroke:red;stroke-width:1px;stroke-linecap:butt;stroke-linejoin:miter;stroke-opacity:1" d="M 27.2955,236.955 42.8258,223.366 z" id="boundary" inkscape:connector-curvature="0" />
	<path style="fill:none;stroke:red;stroke-width:1px;stroke-linecap:butt;stroke-linejoin:miter;stroke-opacity:1" d="M 29.2368,149.597 48.6497,139.89 z" id="boundary" inkscape:connector-curvature="0" />
	<path style="fill:none;stroke:red;stroke-width:1px;stroke-linecap:butt;stroke-linejoin:miter;stroke-opacity:1" d="M 42.8258,223.366 52.5323,203.953 z" id="boundary" inkscape:connector-curvature="0" />
	<path style="fill:none;stroke:red;stroke-width:1px;stroke-linecap:butt;stroke-linejoin:miter;stroke-opacity:1" d="M 48.6497,139.89 68.0626,130.184 z" id="boundary" inkscape:connector-curvature="0" />
	<path style="fill:none;stroke:red;stroke-width:1px;stroke-linecap:butt;stroke-linejoin:miter;stroke-opacity:1" d="M 52.5323,203.953 71.9452,200.07 z" id="boundary" inkscape:connector-curvature="0" />
	<path style="fill:none;stroke:red;stroke-width:1px;stroke-linecap:butt;stroke-linejoin:miter;stroke-opacity:1" d="M 52.5323,844.579 52.5323,863.992 z" id="boundary" inkscape:connector-curvature="0" />
	<path style="fill:none;stroke:red;stroke-width:1px;stroke-linecap:butt;stroke-linejoin:miter;stroke-opacity:1" d="M 52.5323,844.579 62.2387,825.166 z" id="boundary" inkscape:connector-curvature="0" />
	<path style="fill:none;stroke:red;stroke-width:1px;stroke-linecap:butt;stroke-linejoin:miter;stroke-opacity:1" d="M 52.5323,863.992 52.5323,883.405 z" id="boundary" inkscape:connector-curvature="0" />
	<path style="fill:none;stroke:red;stroke-width:1px;stroke-linecap:butt;stroke-linejoin:miter;stroke-opacity:1" d="M 52.5323,883.405 62.2387,900.877 z" id="boundary" inkscape:connector-curvature="0" />
	<path style="fill:none;stroke:red;stroke-width:1px;stroke-linecap:butt;stroke-linejoin:miter;stroke-opacity:1" d="M 62.2387,805.753 62.2387,825.166 z" id="boundary" inkscape:connector-curvature="0" />
	<path style="fill:none;stroke:red;stroke-width:1px;stroke-linecap:butt;stroke-linejoin:miter;stroke-opacity:1" d="M 62.2387,805.753 71.9452,786.341 z" id="boundary" inkscape:connector-curvature="0" />
	<path style="fill:none;stroke:red;stroke-width:1px;stroke-linecap:butt;stroke-linejoin:miter;stroke-opacity:1" d="M 62.2387,900.877 62.2387,920.29 z" id="boundary" inkscape:connector-curvature="0" />
	<path style="fill:none;stroke:red;stroke-width:1px;stroke-linecap:butt;stroke-linejoin:miter;stroke-opacity:1" d="M 62.2387,920.29 81.6517,928.055 z" id="boundary" inkscape:connector-curvature="0" />
	<path style="fill:none;stroke:red;stroke-width:1px;stroke-linecap:butt;stroke-linejoin:miter;stroke-opacity:1" d="M 68.0626,130.184 87.4755,130.184 z" id="boundary" inkscape:connector-curvature="0" />
	<path style="fill:none;stroke:red;stroke-width:1px;stroke-linecap:butt;stroke-linejoin:miter;stroke-opacity:1" d="M 71.9452,200.07 91.3581,200.07 z" id="boundary" inkscape:connector-curvature="0" />
	<path style="fill:none;stroke:red;stroke-width:1px;stroke-linecap:butt;stroke-linejoin:miter;stroke-opacity:1" d="M 71.9452,786.341 81.6517,757.221 z" id="boundary" inkscape:connector-curvature="0" />
	<path style="fill:none;stroke:red;stroke-width:1px;stroke-linecap:butt;stroke-linejoin:miter;stroke-opacity:1" d="M 81.6517,611.624 81.6517,631.037 z" id="boundary" inkscape:connector-curvature="0" />
	<path style="fill:none;stroke:red;stroke-width:1px;stroke-linecap:butt;stroke-linejoin:miter;stroke-opacity:1" d="M 81.6517,611.624 91.3581,582.505 z" id="boundary" inkscape:connector-curvature="0" />
	<path style="fill:none;stroke:red;stroke-width:1px;stroke-linecap:butt;stroke-linejoin:miter;stroke-opacity:1" d="M 81.6517,631.037 81.6517,650.45 z" id="boundary" inkscape:connector-curvature="0" />
	<path style="fill:none;stroke:red;stroke-width:1px;stroke-linecap:butt;stroke-linejoin:miter;stroke-opacity:1" d="M 81.6517,650.45 91.3581,667.922 z" id="boundary" inkscape:connector-curvature="0" />
	<path style="fill:none;stroke:red;stroke-width:1px;stroke-linecap:butt;stroke-linejoin:miter;stroke-opacity:1" d="M 81.6517,757.221 91.3581,737.808 z" id="boundary" inkscape:connector-curvature="0" />
	<path style="fill:none;stroke:red;stroke-width:1px;stroke-linecap:butt;stroke-linejoin:miter;stroke-opacity:1" d="M 81.6517,928.055 101.065,922.231 z" id="boundary" inkscape:connector-curvature="0" />
	<path style="fill:none;stroke:red;stroke-width:1px;stroke-linecap:butt;stroke-linejoin:miter;stroke-opacity:1" d="M 87.4755,130.184 104.947,120.477 z" id="boundary" inkscape:connector-curvature="0" />
	<path style="fill:none;stroke:red;stroke-width:1px;stroke-linecap:butt;stroke-linejoin:miter;stroke-opacity:1" d="M 91.3581,200.07 110.771,200.07 z" id="boundary" inkscape:connector-curvature="0" />
	<path style="fill:none;stroke:red;stroke-width:1px;stroke-linecap:butt;stroke-linejoin:miter;stroke-opacity:1" d="M 91.3581,378.669 91.3581,398.082 z" id="boundary" inkscape:connector-curvature="0" />
	<path style="fill:none;stroke:red;stroke-width:1px;stroke-linecap:butt;stroke-linejoin:miter;stroke-opacity:1" d="M 91.3581,378.669 101.065,359.256 z" id="boundary" inkscape:connector-curvature="0" />
	<path style="fill:none;stroke:red;stroke-width:1px;stroke-linecap:butt;stroke-linejoin:miter;stroke-opacity:1" d="M 91.3581,398.082 91.3581,417.495 z" id="boundary" inkscape:connector-curvature="0" />
	<path style="fill:none;stroke:red;stroke-width:1px;stroke-linecap:butt;stroke-linejoin:miter;stroke-opacity:1" d="M 91.3581,417.495 101.065,434.967 z" id="boundary" inkscape:connector-curvature="0" />
	<path style="fill:none;stroke:red;stroke-width:1px;stroke-linecap:butt;stroke-linejoin:miter;stroke-opacity:1" d="M 91.3581,582.505 101.065,563.092 z" id="boundary" inkscape:connector-curvature="0" />
	<path style="fill:none;stroke:red;stroke-width:1px;stroke-linecap:butt;stroke-linejoin:miter;stroke-opacity:1" d="M 91.3581,667.922 91.3581,687.335 z" id="boundary" inkscape:connector-curvature="0" />
	<path style="fill:none;stroke:red;stroke-width:1px;stroke-linecap:butt;stroke-linejoin:miter;stroke-opacity:1" d="M 91.3581,687.335 91.3581,718.395 z" id="boundary" inkscape:connector-curvature="0" />
	<path style="fill:none;stroke:red;stroke-width:1px;stroke-linecap:butt;stroke-linejoin:miter;stroke-opacity:1" d="M 91.3581,718.395 91.3581,737.808 z" id="boundary" inkscape:connector-curvature="0" />
	<path style="fill:none;stroke:red;stroke-width:1px;stroke-linecap:butt;stroke-linejoin:miter;stroke-opacity:1" d="M 101.065,339.843 101.065,359.256 z" id="boundary" inkscape:connector-curvature="0" />
	<path style="fill:none;stroke:red;stroke-width:1px;stroke-linecap:butt;stroke-linejoin:miter;stroke-opacity:1" d="M 101.065,339.843 110.771,310.724 z" id="boundary" inkscape:connector-curvature="0" />
	<path style="fill:none;stroke:red;stroke-width:1px;stroke-linecap:butt;stroke-linejoin:miter;stroke-opacity:1" d="M 101.065,434.967 101.065,454.38 z" id="boundary" inkscape:connector-curvature="0" />
	<path style="fill:none;stroke:red;stroke-width:1px;stroke-linecap:butt;stroke-linejoin:miter;stroke-opacity:1" d="M 101.065,454.38 120.477,462.145 z" id="boundary" inkscape:connector-curvature="0" />
	<path style="fill:none;stroke:red;stroke-width:1px;stroke-linecap:butt;stroke-linejoin:miter;stroke-opacity:1" d="M 101.065,563.092 110.771,543.679 z" id="boundary" inkscape:connector-curvature="0" />
	<path style="fill:none;stroke:red;stroke-width:1px;stroke-linecap:butt;stroke-linejoin:miter;stroke-opacity:1" d="M 101.065,922.231 120.477,912.524 z" id="boundary" inkscape:connector-curvature="0" />
	<path style="fill:none;stroke:red;stroke-width:1px;stroke-linecap:butt;stroke-linejoin:miter;stroke-opacity:1" d="M 104.947,120.477 124.36,120.477 z" id="boundary" inkscape:connector-curvature="0" />
	<path style="fill:none;stroke:red;stroke-width:1px;stroke-linecap:butt;stroke-linejoin:miter;stroke-opacity:1" d="M 110.771,200.07 116.595,219.483 z" id="boundary" inkscape:connector-curvature="0" />
	<path style="fill:none;stroke:red;stroke-width:1px;stroke-linecap:butt;stroke-linejoin:miter;stroke-opacity:1" d="M 110.771,310.724 120.477,281.605 z" id="boundary" inkscape:connector-curvature="0" />
	<path style="fill:none;stroke:red;stroke-width:1px;stroke-linecap:butt;stroke-linejoin:miter;stroke-opacity:1" d="M 110.771,543.679 120.477,514.56 z" id="boundary" inkscape:connector-curvature="0" />
	<path style="fill:none;stroke:red;stroke-width:1px;stroke-linecap:butt;stroke-linejoin:miter;stroke-opacity:1" d="M 116.595,219.483 120.477,238.896 z" id="boundary" inkscape:connector-curvature="0" />
	<path style="fill:none;stroke:red;stroke-width:1px;stroke-linecap:butt;stroke-linejoin:miter;stroke-opacity:1" d="M 120.477,238.896 126.301,258.309 z" id="boundary" inkscape:connector-curvature="0" />
	<path style="fill:none;stroke:red;stroke-width:1px;stroke-linecap:butt;stroke-linejoin:miter;stroke-opacity:1" d="M 120.477,281.605 126.301,258.309 z" id="boundary" inkscape:connector-curvature="0" />
	<path style="fill:none;stroke:red;stroke-width:1px;stroke-linecap:butt;stroke-linejoin:miter;stroke-opacity:1" d="M 120.477,462.145 137.949,452.438 z" id="boundary" inkscape:connector-curvature="0" />
	<path style="fill:none;stroke:red;stroke-width:1px;stroke-linecap:butt;stroke-linejoin:miter;stroke-opacity:1" d="M 120.477,514.56 130.184,485.44 z" id="boundary" inkscape:connector-curvature="0" />
	<path style="fill:none;stroke:red;stroke-width:1px;stroke-linecap:butt;stroke-linejoin:miter;stroke-opacity:1" d="M 120.477,912.524 139.89,902.818 z" id="boundary" inkscape:connector-curvature="0" />
	<path style="fill:none;stroke:red;stroke-width:1px;stroke-linecap:butt;stroke-linejoin:miter;stroke-opacity:1" d="M 124.36,120.477 143.773,112.712 z" id="boundary" inkscape:connector-curvature="0" />
	<path style="fill:none;stroke:red;stroke-width:1px;stroke-linecap:butt;stroke-linejoin:miter;stroke-opacity:1" d="M 139.89,902.818 155.421,887.288 z" id="boundary" inkscape:connector-curvature="0" />
	<path style="fill:none;stroke:red;stroke-width:1px;stroke-linecap:butt;stroke-linejoin:miter;stroke-opacity:1" d="M 143.773,112.712 159.303,97.182 z" id="boundary" inkscape:connector-curvature="0" />
	<path style="fill:none;stroke:red;stroke-width:1px;stroke-linecap:butt;stroke-linejoin:miter;stroke-opacity:1" d="M 155.421,887.288 174.834,879.523 z" id="boundary" inkscape:connector-curvature="0" />
	<path style="fill:none;stroke:red;stroke-width:1px;stroke-linecap:butt;stroke-linejoin:miter;stroke-opacity:1" d="M 159.303,97.182 174.834,81.6517 z" id="boundary" inkscape:connector-curvature="0" />
	<path style="fill:none;stroke:red;stroke-width:1px;stroke-linecap:butt;stroke-linejoin:miter;stroke-opacity:1" d="M 174.834,81.6517 192.305,71.9452 z" id="boundary" inkscape:connector-curvature="0" />
	<path style="fill:none;stroke:red;stroke-width:1px;stroke-linecap:butt;stroke-linejoin:miter;stroke-opacity:1" d="M 174.834,879.523 190.364,893.112 z" id="boundary" inkscape:connector-curvature="0" />
	<path style="fill:none;stroke:red;stroke-width:1px;stroke-linecap:butt;stroke-linejoin:miter;stroke-opacity:1" d="M 190.364,893.112 198.129,912.524 z" id="boundary" inkscape:connector-curvature="0" />
	<path style="fill:none;stroke:red;stroke-width:1px;stroke-linecap:butt;stroke-linejoin:miter;stroke-opacity:1" d="M 192.305,71.9452 207.836,58.3562 z" id="boundary" inkscape:connector-curvature="0" />
	<path style="fill:none;stroke:red;stroke-width:1px;stroke-linecap:butt;stroke-linejoin:miter;stroke-opacity:1" d="M 198.129,912.524 207.836,929.996 z" id="boundary" inkscape:connector-curvature="0" />
	<path style="fill:none;stroke:red;stroke-width:1px;stroke-linecap:butt;stroke-linejoin:miter;stroke-opacity:1" d="M 207.836,58.3562 227.249,48.6497 z" id="boundary" inkscape:connector-curvature="0" />
	<path style="fill:none;stroke:red;stroke-width:1px;stroke-linecap:butt;stroke-linejoin:miter;stroke-opacity:1" d="M 207.836,929.996 221.425,945.526 z" id="boundary" inkscape:connector-curvature="0" />
	<path style="fill:none;stroke:red;stroke-width:1px;stroke-linecap:butt;stroke-linejoin:miter;stroke-opacity:1" d="M 221.425,945.526 236.955,957.174 z" id="boundary" inkscape:connector-curvature="0" />
	<path style="fill:none;stroke:red;stroke-width:1px;stroke-linecap:butt;stroke-linejoin:miter;stroke-opacity:1" d="M 227.249,48.6497 246.661,38.9432 z" id="boundary" inkscape:connector-curvature="0" />
	<path style="fill:none;stroke:red;stroke-width:1px;stroke-linecap:butt;stroke-linejoin:miter;stroke-opacity:1" d="M 236.955,957.174 254.427,966.881 z" id="boundary" inkscape:connector-curvature="0" />
	<path style="fill:none;stroke:red;stroke-width:1px;stroke-linecap:butt;stroke-linejoin:miter;stroke-opacity:1" d="M 246.661,38.9432 266.074,29.2368 z" id="boundary" inkscape:connector-curvature="0" />
	<path style="fill:none;stroke:red;stroke-width:1px;stroke-linecap:butt;stroke-linejoin:miter;stroke-opacity:1" d="M 254.427,966.881 271.898,976.587 z" id="boundary" inkscape:connector-curvature="0" />
	<path style="fill:none;stroke:red;stroke-width:1px;stroke-linecap:butt;stroke-linejoin:miter;stroke-opacity:1" d="M 266.074,29.2368 285.487,23.4129 z" id="boundary" inkscape:connector-curvature="0" />
	<path style="fill:none;stroke:red;stroke-width:1px;stroke-linecap:butt;stroke-linejoin:miter;stroke-opacity:1" d="M 271.898,976.587 291.311,984.352 z" id="boundary" inkscape:connector-curvature="0" />
	<path style="fill:none;stroke:red;stroke-width:1px;stroke-linecap:butt;stroke-linejoin:miter;stroke-opacity:1" d="M 285.487,23.4129 304.9,19.5303 z" id="boundary" inkscape:connector-curvature="0" />
	<path style="fill:none;stroke:red;stroke-width:1px;stroke-linecap:butt;stroke-linejoin:miter;stroke-opacity:1" d="M 291.311,984.352 310.724,986.294 z" id="boundary" inkscape:connector-curvature="0" />
	<path style="fill:none;stroke:red;stroke-width:1px;stroke-linecap:butt;stroke-linejoin:miter;stroke-opacity:1" d="M 304.9,19.5303 324.313,13.7065 z" id="boundary" inkscape:connector-curvature="0" />
	<path style="fill:none;stroke:red;stroke-width:1px;stroke-linecap:butt;stroke-linejoin:miter;stroke-opacity:1" d="M 310.724,986.294 330.137,994.059 z" id="boundary" inkscape:connector-curvature="0" />
	<path style="fill:none;stroke:red;stroke-width:1px;stroke-linecap:butt;stroke-linejoin:miter;stroke-opacity:1" d="M 324.313,13.7065 343.726,13.7065 z" id="boundary" inkscape:connector-curvature="0" />
	<path style="fill:none;stroke:red;stroke-width:1px;stroke-linecap:butt;stroke-linejoin:miter;stroke-opacity:1" d="M 330.137,994.059 349.55,996 z" id="boundary" inkscape:connector-curvature="0" />
	<path style="fill:none;stroke:red;stroke-width:1px;stroke-linecap:butt;stroke-linejoin:miter;stroke-opacity:1" d="M 343.726,13.7065 361.198,4 z" id="boundary" inkscape:connector-curvature="0" />
	<path style="fill:none;stroke:red;stroke-width:1px;stroke-linecap:butt;stroke-linejoin:miter;stroke-opacity:1" d="M 349.55,996 368.963,996 z" id="boundary" inkscape:connector-curvature="0" />
	<path style="fill:none;stroke:red;stroke-width:1px;stroke-linecap:butt;stroke-linejoin:miter;stroke-opacity:1" d="M 361.198,4 378.669,13.7065 z" id="boundary" inkscape:connector-curvature="0" />
	<path style="fill:none;stroke:red;stroke-width:1px;stroke-linecap:butt;stroke-linejoin:miter;stroke-opacity:1" d="M 368.963,996 388.376,994.059 z" id="boundary" inkscape:connector-curvature="0" />
	<path style="fill:none;stroke:red;stroke-width:1px;stroke-linecap:butt;stroke-linejoin:miter;stroke-opacity:1" d="M 378.669,13.7065 398.082,13.7065 z" id="boundary" inkscape:connector-curvature="0" />
	<path style="fill:none;stroke:red;stroke-width:1px;stroke-linecap:butt;stroke-linejoin:miter;stroke-opacity:1" d="M 388.376,994.059 407.789,986.294 z" id="boundary" inkscape:connector-curvature="0" />
	<path style="fill:none;stroke:red;stroke-width:1px;stroke-linecap:butt;stroke-linejoin:miter;stroke-opacity:1" d="M 398.082,13.7065 415.554,23.4129 z" id="boundary" inkscape:connector-curvature="0" />
	<path style="fill:none;stroke:red;stroke-width:1px;stroke-linecap:butt;stroke-linejoin:miter;stroke-opacity:1" d="M 407.789,986.294 427.202,984.352 z" id="boundary" inkscape:connector-curvature="0" />
	<path style="fill:none;stroke:red;stroke-width:1px;stroke-linecap:butt;stroke-linejoin:miter;stroke-opacity:1" d="M 415.554,23.4129 434.967,23.4129 z" id="boundary" inkscape:connector-curvature="0" />
	<path style="fill:none;stroke:red;stroke-width:1px;stroke-linecap:butt;stroke-linejoin:miter;stroke-opacity:1" d="M 427.202,984.352 446.614,976.587 z" id="boundary" inkscape:connector-curvature="0" />
	<path style="fill:none;stroke:red;stroke-width:1px;stroke-linecap:butt;stroke-linejoin:miter;stroke-opacity:1" d="M 434.967,23.4129 452.438,33.1194 z" id="boundary" inkscape:connector-curvature="0" />
	<path style="fill:none;stroke:red;stroke-width:1px;stroke-linecap:butt;stroke-linejoin:miter;stroke-opacity:1" d="M 446.614,976.587 464.086,966.881 z" id="boundary" inkscape:connector-curvature="0" />
	<path style="fill:none;stroke:red;stroke-width:1px;stroke-linecap:butt;stroke-linejoin:miter;stroke-opacity:1" d="M 452.438,33.1194 471.851,38.9432 z" id="boundary" inkscape:connector-curvature="0" />
	<path style="fill:none;stroke:red;stroke-width:1px;stroke-linecap:butt;stroke-linejoin:miter;stroke-opacity:1" d="M 464.086,966.881 481.558,957.174 z" id="boundary" inkscape:connector-curvature="0" />
	<path style="fill:none;stroke:red;stroke-width:1px;stroke-linecap:butt;stroke-linejoin:miter;stroke-opacity:1" d="M 471.851,38.9432 489.323,48.6497 z" id="boundary" inkscape:connector-curvature="0" />
	<path style="fill:none;stroke:red;stroke-width:1px;stroke-linecap:butt;stroke-linejoin:miter;stroke-opacity:1" d="M 481.558,957.174 497.088,943.585 z" id="boundary" inkscape:connector-curvature="0" />
	<path style="fill:none;stroke:red;stroke-width:1px;stroke-linecap:butt;stroke-linejoin:miter;stroke-opacity:1" d="M 489.323,48.6497 508.736,56.4149 z" id="boundary" inkscape:connector-curvature="0" />
	<path style="fill:none;stroke:red;stroke-width:1px;stroke-linecap:butt;stroke-linejoin:miter;stroke-opacity:1" d="M 497.088,943.585 506.795,924.172 z" id="boundary" inkscape:connector-curvature="0" />
	<path style="fill:none;stroke:red;stroke-width:1px;stroke-linecap:butt;stroke-linejoin:miter;stroke-opacity:1" d="M 506.795,924.172 520.384,898.935 z" id="boundary" inkscape:connector-curvature="0" />
	<path style="fill:none;stroke:red;stroke-width:1px;stroke-linecap:butt;stroke-linejoin:miter;stroke-opacity:1" d="M 508.736,56.4149 526.207,66.1213 z" id="boundary" inkscape:connector-curvature="0" />
	<path style="fill:none;stroke:red;stroke-width:1px;stroke-linecap:butt;stroke-linejoin:miter;stroke-opacity:1" d="M 520.384,898.935 535.914,885.346 z" id="boundary" inkscape:connector-curvature="0" />
	<path style="fill:none;stroke:red;stroke-width:1px;stroke-linecap:butt;stroke-linejoin:miter;stroke-opacity:1" d="M 526.207,66.1213 539.796,81.6517 z" id="boundary" inkscape:connector-curvature="0" />
	<path style="fill:none;stroke:red;stroke-width:1px;stroke-linecap:butt;stroke-linejoin:miter;stroke-opacity:1" d="M 535.914,885.346 545.62,865.933 z" id="boundary" inkscape:connector-curvature="0" />
	<path style="fill:none;stroke:red;stroke-width:1px;stroke-linecap:butt;stroke-linejoin:miter;stroke-opacity:1" d="M 539.796,81.6517 559.209,87.4755 z" id="boundary" inkscape:connector-curvature="0" />
	<path style="fill:none;stroke:red;stroke-width:1px;stroke-linecap:butt;stroke-linejoin:miter;stroke-opacity:1" d="M 539.796,345.667 539.796,365.08 z" id="boundary" inkscape:connector-curvature="0" />
	<path style="fill:none;stroke:red;stroke-width:1px;stroke-linecap:butt;stroke-linejoin:miter;stroke-opacity:1" d="M 539.796,345.667 555.327,332.078 z" id="boundary" inkscape:connector-curvature="0" />
	<path style="fill:none;stroke:red;stroke-width:1px;stroke-linecap:butt;stroke-linejoin:miter;stroke-opacity:1" d="M 539.796,365.08 549.503,382.552 z" id="boundary" inkscape:connector-curvature="0" />
	<path style="fill:none;stroke:red;stroke-width:1px;stroke-linecap:butt;stroke-linejoin:miter;stroke-opacity:1" d="M 545.62,865.933 555.327,846.521 z" id="boundary" inkscape:connector-curvature="0" />
	<path style="fill:none;stroke:red;stroke-width:1px;stroke-linecap:butt;stroke-linejoin:miter;stroke-opacity:1" d="M 549.503,382.552 559.209,400.023 z" id="boundary" inkscape:connector-curvature="0" />
	<path style="fill:none;stroke:red;stroke-width:1px;stroke-linecap:butt;stroke-linejoin:miter;stroke-opacity:1" d="M 555.327,332.078 568.916,306.841 z" id="boundary" inkscape:connector-curvature="0" />
	<path style="fill:none;stroke:red;stroke-width:1px;stroke-linecap:butt;stroke-linejoin:miter;stroke-opacity:1" d="M 555.327,846.521 568.916,821.284 z" id="boundary" inkscape:connector-curvature="0" />
	<path style="fill:none;stroke:red;stroke-width:1px;stroke-linecap:butt;stroke-linejoin:miter;stroke-opacity:1" d="M 559.209,87.4755 566.975,106.888 z" id="boundary" inkscape:connector-curvature="0" />
	<path style="fill:none;stroke:red;stroke-width:1px;stroke-linecap:butt;stroke-linejoin:miter;stroke-opacity:1" d="M 559.209,400.023 559.209,419.436 z" id="boundary" inkscape:connector-curvature="0" />
	<path style="fill:none;stroke:red;stroke-width:1px;stroke-linecap:butt;stroke-linejoin:miter;stroke-opacity:1" d="M 559.209,419.436 568.916,436.908 z" id="boundary" inkscape:connector-curvature="0" />
	<path style="fill:none;stroke:red;stroke-width:1px;stroke-linecap:butt;stroke-linejoin:miter;stroke-opacity:1" d="M 566.975,106.888 582.505,120.477 z" id="boundary" inkscape:connector-curvature="0" />
	<path style="fill:none;stroke:red;stroke-width:1px;stroke-linecap:butt;stroke-linejoin:miter;stroke-opacity:1" d="M 568.916,306.841 588.329,306.841 z" id="boundary" inkscape:connector-curvature="0" />
	<path style="fill:none;stroke:red;stroke-width:1px;stroke-linecap:butt;stroke-linejoin:miter;stroke-opacity:1" d="M 568.916,436.908 578.622,454.38 z" id="boundary" inkscape:connector-curvature="0" />
	<path style="fill:none;stroke:red;stroke-width:1px;stroke-linecap:butt;stroke-linejoin:miter;stroke-opacity:1" d="M 568.916,821.284 578.622,801.871 z" id="boundary" inkscape:connector-curvature="0" />
	<path style="fill:none;stroke:red;stroke-width:1px;stroke-linecap:butt;stroke-linejoin:miter;stroke-opacity:1" d="M 578.622,454.38 584.446,473.793 z" id="boundary" inkscape:connector-curvature="0" />
	<path style="fill:none;stroke:red;stroke-width:1px;stroke-linecap:butt;stroke-linejoin:miter;stroke-opacity:1" d="M 578.622,801.871 588.329,782.458 z" id="boundary" inkscape:connector-curvature="0" />
	<path style="fill:none;stroke:red;stroke-width:1px;stroke-linecap:butt;stroke-linejoin:miter;stroke-opacity:1" d="M 582.505,120.477 596.094,136.008 z" id="boundary" inkscape:connector-curvature="0" />
	<path style="fill:none;stroke:red;stroke-width:1px;stroke-linecap:butt;stroke-linejoin:miter;stroke-opacity:1" d="M 584.446,473.793 588.329,493.205 z" id="boundary" inkscape:connector-curvature="0" />
	<path style="fill:none;stroke:red;stroke-width:1px;stroke-linecap:butt;stroke-linejoin:miter;stroke-opacity:1" d="M 588.329,306.841 607.742,306.841 z" id="boundary" inkscape:connector-curvature="0" />
	<path style="fill:none;stroke:red;stroke-width:1px;stroke-linecap:butt;stroke-linejoin:miter;stroke-opacity:1" d="M 588.329,493.205 598.035,510.677 z" id="boundary" inkscape:connector-curvature="0" />
	<path style="fill:none;stroke:red;stroke-width:1px;stroke-linecap:butt;stroke-linejoin:miter;stroke-opacity:1" d="M 588.329,782.458 598.035,763.045 z" id="boundary" inkscape:connector-curvature="0" />
	<path style="fill:none;stroke:red;stroke-width:1px;stroke-linecap:butt;stroke-linejoin:miter;stroke-opacity:1" d="M 596.094,136.008 598.035,155.421 z" id="boundary" inkscape:connector-curvature="0" />
	<path style="fill:none;stroke:red;stroke-width:1px;stroke-linecap:butt;stroke-linejoin:miter;stroke-opacity:1" d="M 598.035,155.421 611.624,170.951 z" id="boundary" inkscape:connector-curvature="0" />
	<path style="fill:none;stroke:red;stroke-width:1px;stroke-linecap:butt;stroke-linejoin:miter;stroke-opacity:1" d="M 598.035,510.677 607.742,528.149 z" id="boundary" inkscape:connector-curvature="0" />
	<path style="fill:none;stroke:red;stroke-width:1px;stroke-linecap:butt;stroke-linejoin:miter;stroke-opacity:1" d="M 598.035,763.045 607.742,743.632 z" id="boundary" inkscape:connector-curvature="0" />
	<path style="fill:none;stroke:red;stroke-width:1px;stroke-linecap:butt;stroke-linejoin:miter;stroke-opacity:1" d="M 607.742,306.841 627.155,306.841 z" id="boundary" inkscape:connector-curvature="0" />
	<path style="fill:none;stroke:red;stroke-width:1px;stroke-linecap:butt;stroke-linejoin:miter;stroke-opacity:1" d="M 607.742,528.149 607.742,547.562 z" id="boundary" inkscape:connector-curvature="0" />
	<path style="fill:none;stroke:red;stroke-width:1px;stroke-linecap:butt;stroke-linejoin:miter;stroke-opacity:1" d="M 607.742,547.562 617.448,565.033 z" id="boundary" inkscape:connector-curvature="0" />
	<path style="fill:none;stroke:red;stroke-width:1px;stroke-linecap:butt;stroke-linejoin:miter;stroke-opacity:1" d="M 607.742,743.632 617.448,714.513 z" id="boundary" inkscape:connector-curvature="0" />
	<path style="fill:none;stroke:red;stroke-width:1px;stroke-linecap:butt;stroke-linejoin:miter;stroke-opacity:1" d="M 611.624,170.951 627.155,184.54 z" id="boundary" inkscape:connector-curvature="0" />
	<path style="fill:none;stroke:red;stroke-width:1px;stroke-linecap:butt;stroke-linejoin:miter;stroke-opacity:1" d="M 617.448,565.033 627.155,582.505 z" id="boundary" inkscape:connector-curvature="0" />
	<path style="fill:none;stroke:red;stroke-width:1px;stroke-linecap:butt;stroke-linejoin:miter;stroke-opacity:1" d="M 617.448,714.513 627.155,695.1 z" id="boundary" inkscape:connector-curvature="0" />
	<path style="fill:none;stroke:red;stroke-width:1px;stroke-linecap:butt;stroke-linejoin:miter;stroke-opacity:1" d="M 627.155,184.54 642.685,198.129 z" id="boundary" inkscape:connector-curvature="0" />
	<path style="fill:none;stroke:red;stroke-width:1px;stroke-linecap:butt;stroke-linejoin:miter;stroke-opacity:1" d="M 627.155,306.841 646.568,310.724 z" id="boundary" inkscape:connector-curvature="0" />
	<path style="fill:none;stroke:red;stroke-width:1px;stroke-linecap:butt;stroke-linejoin:miter;stroke-opacity:1" d="M 627.155,582.505 634.92,601.918 z" id="boundary" inkscape:connector-curvature="0" />
	<path style="fill:none;stroke:red;stroke-width:1px;stroke-linecap:butt;stroke-linejoin:miter;stroke-opacity:1" d="M 627.155,675.687 627.155,695.1 z" id="boundary" inkscape:connector-curvature="0" />
	<path style="fill:none;stroke:red;stroke-width:1px;stroke-linecap:butt;stroke-linejoin:miter;stroke-opacity:1" d="M 627.155,675.687 636.861,640.744 z" id="boundary" inkscape:connector-curvature="0" />
	<path style="fill:none;stroke:red;stroke-width:1px;stroke-linecap:butt;stroke-linejoin:miter;stroke-opacity:1" d="M 634.92,601.918 636.861,621.331 z" id="boundary" inkscape:connector-curvature="0" />
	<path style="fill:none;stroke:red;stroke-width:1px;stroke-linecap:butt;stroke-linejoin:miter;stroke-opacity:1" d="M 636.861,621.331 636.861,640.744 z" id="boundary" inkscape:connector-curvature="0" />
	<path style="fill:none;stroke:red;stroke-width:1px;stroke-linecap:butt;stroke-linejoin:miter;stroke-opacity:1" d="M 642.685,198.129 660.157,207.836 z" id="boundary" inkscape:connector-curvature="0" />
	<path style="fill:none;stroke:red;stroke-width:1px;stroke-linecap:butt;stroke-linejoin:miter;stroke-opacity:1" d="M 646.568,310.724 665.98,316.548 z" id="boundary" inkscape:connector-curvature="0" />
	<path style="fill:none;stroke:red;stroke-width:1px;stroke-linecap:butt;stroke-linejoin:miter;stroke-opacity:1" d="M 660.157,207.836 677.628,217.542 z" id="boundary" inkscape:connector-curvature="0" />
	<path style="fill:none;stroke:red;stroke-width:1px;stroke-linecap:butt;stroke-linejoin:miter;stroke-opacity:1" d="M 665.98,316.548 685.393,320.431 z" id="boundary" inkscape:connector-curvature="0" />
	<path style="fill:none;stroke:red;stroke-width:1px;stroke-linecap:butt;stroke-linejoin:miter;stroke-opacity:1" d="M 677.628,217.542 695.1,227.249 z" id="boundary" inkscape:connector-curvature="0" />
	<path style="fill:none;stroke:red;stroke-width:1px;stroke-linecap:butt;stroke-linejoin:miter;stroke-opacity:1" d="M 685.393,320.431 702.865,330.137 z" id="boundary" inkscape:connector-curvature="0" />
	<path style="fill:none;stroke:red;stroke-width:1px;stroke-linecap:butt;stroke-linejoin:miter;stroke-opacity:1" d="M 695.1,227.249 710.63,238.896 z" id="boundary" inkscape:connector-curvature="0" />
	<path style="fill:none;stroke:red;stroke-width:1px;stroke-linecap:butt;stroke-linejoin:miter;stroke-opacity:1" d="M 702.865,330.137 718.395,343.726 z" id="boundary" inkscape:connector-curvature="0" />
	<path style="fill:none;stroke:red;stroke-width:1px;stroke-linecap:butt;stroke-linejoin:miter;stroke-opacity:1" d="M 710.63,238.896 728.102,248.603 z" id="boundary" inkscape:connector-curvature="0" />
	<path style="fill:none;stroke:red;stroke-width:1px;stroke-linecap:butt;stroke-linejoin:miter;stroke-opacity:1" d="M 718.395,343.726 735.867,353.432 z" id="boundary" inkscape:connector-curvature="0" />
	<path style="fill:none;stroke:red;stroke-width:1px;stroke-linecap:butt;stroke-linejoin:miter;stroke-opacity:1" d="M 728.102,248.603 743.632,262.192 z" id="boundary" inkscape:connector-curvature="0" />
	<path style="fill:none;stroke:red;stroke-width:1px;stroke-linecap:butt;stroke-linejoin:miter;stroke-opacity:1" d="M 735.867,353.432 751.397,365.08 z" id="boundary" inkscape:connector-curvature="0" />
	<path style="fill:none;stroke:red;stroke-width:1px;stroke-linecap:butt;stroke-linejoin:miter;stroke-opacity:1" d="M 743.632,262.192 759.162,275.781 z" id="boundary" inkscape:connector-curvature="0" />
	<path style="fill:none;stroke:red;stroke-width:1px;stroke-linecap:butt;stroke-linejoin:miter;stroke-opacity:1" d="M 751.397,365.08 751.397,384.493 z" id="boundary" inkscape:connector-curvature="0" />
	<path style="fill:none;stroke:red;stroke-width:1px;stroke-linecap:butt;stroke-linejoin:miter;stroke-opacity:1" d="M 751.397,384.493 763.045,400.023 z" id="boundary" inkscape:connector-curvature="0" />
	<path style="fill:none;stroke:red;stroke-width:1px;stroke-linecap:butt;stroke-linejoin:miter;stroke-opacity:1" d="M 759.162,275.781 772.751,291.311 z" id="boundary" inkscape:connector-curvature="0" />
	<path style="fill:none;stroke:red;stroke-width:1px;stroke-linecap:butt;stroke-linejoin:miter;stroke-opacity:1" d="M 763.045,400.023 774.693,384.493 z" id="boundary" inkscape:connector-curvature="0" />
	<path style="fill:none;stroke:red;stroke-width:1px;stroke-linecap:butt;stroke-linejoin:miter;stroke-opacity:1" d="M 772.751,291.311 782.458,308.783 z" id="boundary" inkscape:connector-curvature="0" />
	<path style="fill:none;stroke:red;stroke-width:1px;stroke-linecap:butt;stroke-linejoin:miter;stroke-opacity:1" d="M 774.693,384.493 782.458,365.08 z" id="boundary" inkscape:connector-curvature="0" />
	<path style="fill:none;stroke:red;stroke-width:1px;stroke-linecap:butt;stroke-linejoin:miter;stroke-opacity:1" d="M 782.458,308.783 792.164,326.254 z" id="boundary" inkscape:connector-curvature="0" />
	<path style="fill:none;stroke:red;stroke-width:1px;stroke-linecap:butt;stroke-linejoin:miter;stroke-opacity:1" d="M 782.458,365.08 797.988,351.491 z" id="boundary" inkscape:connector-curvature="0" />
	<path style="fill:none;stroke:red;stroke-width:1px;stroke-linecap:butt;stroke-linejoin:miter;stroke-opacity:1" d="M 792.164,326.254 797.988,351.491 z" id="boundary" inkscape:connector-curvature="0" />
	<circle cx="4" cy="184.54" r="4" fill="#0" id="circle0"/>
	<circle cx="4" cy="203.953" r="4" fill="#0" id="circle1"/>
	<circle cx="13.7065" cy="165.127" r="4" fill="#0" id="circle2"/>
	<circle cx="13.7065" cy="221.425" r="4" fill="#0" id="circle3"/>
	<circle cx="27.2955" cy="236.955" r="4" fill="#0" id="circle4"/>
	<circle cx="29.2368" cy="149.597" r="4" fill="#0" id="circle5"/>
	<circle cx="42.8258" cy="223.366" r="4" fill="#0" id="circle6"/>
	<circle cx="48.6497" cy="139.89" r="4" fill="#0" id="circle7"/>
	<circle cx="52.5323" cy="203.953" r="4" fill="#0" id="circle8"/>
	<circle cx="52.5323" cy="844.579" r="4" fill="#0" id="circle9"/>
	<circle cx="52.5323" cy="863.992" r="4" fill="#0" id="circle10"/>
	<circle cx="52.5323" cy="883.405" r="4" fill="#0" id="circle11"/>
	<circle cx="62.2387" cy="805.753" r="4" fill="#0" id="circle12"/>
	<circle cx="62.2387" cy="825.166" r="4" fill="#0" id="circle13"/>
	<circle cx="62.2387" cy="900.877" r="4" fill="#0" id="circle14"/>
	<circle cx="62.2387" cy="920.29" r="4" fill="#0" id="circle15"/>
	<circle cx="68.0626" cy="130.184" r="4" fill="#0" id="circle16"/>
	<circle cx="71.9452" cy="200.07" r="4" fill="#0" id="circle17"/>
	<circle cx="71.9452" cy="786.341" r="4" fill="#0" id="circle18"/>
	<circle cx="81.6517" cy="611.624" r="4" fill="#0" id="circle19"/>
	<circle cx="81.6517" cy="631.037" r="4" fill="#0" id="circle20"/>
	<circle cx="81.6517" cy="650.45" r="4" fill="#0" id="circle21"/>
	<circle cx="81.6517" cy="757.221" r="4" fill="#0" id="circle22"/>
	<circle cx="81.6517" cy="928.055" r="4" fill="#0" id="circle23"/>
	<circle cx="87.4755" cy="130.184" r="4" fill="#0" id="circle24"/>
	<circle cx="91.3581" cy="200.07" r="4" fill="#0" id="circle25"/>
	<circle cx="91.3581" cy="378.669" r="4" fill="#0" id="circle26"/>
	<circle cx="91.3581" cy="398.082" r="4" fill="#0" id="circle27"/>
	<circle cx="91.3581" cy="417.495" r="4" fill="#0" id="circle28"/>
	<circle cx="91.3581" cy="582.505" r="4" fill="#0" id="circle29"/>
	<circle cx="91.3581" cy="667.922" r="4" fill="#0" id="circle30"/>
	<circle cx="91.3581" cy="687.335" r="4" fill="#0" id="circle31"/>
	<circle cx="91.3581" cy="718.395" r="4" fill="#0" id="circle32"/>
	<circle cx="91.3581" cy="737.808" r="4" fill="#0" id="circle33"/>
	<circle cx="101.065" cy="339.843" r="4" fill="#0" id="circle34"/>
	<circle cx="101.065" cy="359.256" r="4" fill="#0" id="circle35"/>
	<circle cx="101.065" cy="434.967" r="4" fill="#0" id="circle36"/>
	<circle cx="101.065" cy="454.38" r="4" fill="#0" id="circle37"/>
	<circle cx="101.065" cy="563.092" r="4" fill="#0" id="circle38"/>
	<circle cx="101.065" cy="922.231" r="4" fill="#0" id="circle39"/>
	<circle cx="104.947" cy="120.477" r="4" fill="#0" id="circle40"/>
	<circle cx="110.771" cy="200.07" r="4" fill="#0" id="circle41"/>
	<circle cx="110.771" cy="310.724" r="4" fill="#0" id="circle42"/>
	<circle cx="110.771" cy="543.679" r="4" fill="#0" id="circle43"/>
	<circle cx="116.595" cy="219.483" r="4" fill="#0" id="circle44"/>
	<circle cx="120.477" cy="238.896" r="4" fill="#0" id="circle45"/>
	<circle cx="120.477" cy="281.605" r="4" fill="#0" id="circle46"/>
	<circle cx="120.477" cy="462.145" r="4" fill="#0" id="circle47"/>
	<circle cx="120.477" cy="514.56" r="4" fill="#0" id="circle48"/>
	<circle cx="120.477" cy="912.524" r="4" fill="#0" id="circle49"/>
	<circle cx="124.36" cy="120.477" r="4" fill="#0" id="circle50"/>
	<circle cx="126.301" cy="258.309" r="4" fill="#0" id="circle51"/>
	<circle cx="130.184" cy="485.44" r="4" fill="#0" id="circle52"/>
	<circle cx="137.949" cy="452.438" r="4" fill="#0" id="circle53"/>
	<circle cx="139.89" cy="902.818" r="4" fill="#0" id="circle54"/>
	<circle cx="143.773" cy="112.712" r="4" fill="#0" id="circle55"/>
	<circle cx="155.421" cy="887.288" r="4" fill="#0" id="circle56"/>
	<circle cx="159.303" cy="97.182" r="4" fill="#0" id="circle57"/>
	<circle cx="174.834" cy="81.6517" r="4" fill="#0" id="circle58"/>
	<circle cx="174.834" cy="879.523" r="4" fill="#0" id="circle59"/>
	<circle cx="190.364" cy="893.112" r="4" fill="#0" id="circle60"/>
	<circle cx="192.305" cy="71.9452" r="4" fill="#0" id="circle61"/>
	<circle cx="198.129" cy="912.524" r="4" fill="#0" id="circle62"/>
	<circle cx="207.836" cy="58.3562" r="4" fill="#0" id="circle63"/>
	<circle cx="207.836" cy="929.996" r="4" fill="#0" id="circle64"/>
	<circle cx="221.425" cy="945.526" r="4" fill="#0" id="circle65"/>
	<circle cx="227.249" cy="48.6497" r="4" fill="#0" id="circle66"/>
	<circle cx="236.955" cy="957.174" r="4" fill="#0" id="circle67"/>
	<circle cx="246.661" cy="38.9432" r="4" fill="#0" id="circle68"/>
	<circle cx="254.427" cy="966.881" r="4" fill="#0" id="circle69"/>
	<circle cx="266.074" cy="29.2368" r="4" fill="#0" id="circle70"/>
	<circle cx="271.898" cy="976.587" r="4" fill="#0" id="circle71"/>
	<circle cx="285.487" cy="23.4129" r="4" fill="#0" id="circle72"/>
	<circle cx="291.311" cy="984.352" r="4" fill="#0" id="circle73"/>
	<circle cx="304.9" cy="19.5303" r="4" fill="#0" id="circle74"/>
	<circle cx="310.724" cy="986.294" r="4" fill="#0" id="circle75"/>
	<circle cx="324.313" cy="13.7065" r="4" fill="#0" id="circle76"/>
	<circle cx="330.137" cy="994.059" r="4" fill="#0" id="circle77"/>
	<circle cx="343.726" cy="13.7065" r="4" fill="#0" id="circle78"/>
	<circle cx="349.55" cy="996" r="4" fill="#0" id="circle79"/>
	<circle cx="361.198" cy="4" r="4" fill="#0" id="circle80"/>
	<circle cx="368.963" cy="996" r="4" fill="#0" id="circle81"/>
	<circle cx="378.669" cy="13.7065" r="4" fill="#0" id="circle82"/>
	<circle cx="388.376" cy="994.059" r="4" fill="#0" id="circle83"/>
	<circle cx="398.082" cy="13.7065" r="4" fill="#0" id="circle84"/>
	<circle cx="407.789" cy="986.294" r="4" fill="#0" id="circle85"/>
	<circle cx="415.554" cy="23.4129" r="4" fill="#0" id="circle86"/>
	<circle cx="427.202" cy="984.352" r="4" fill="#0" id="circle87"/>
	<circle cx="434.967" cy="23.4129" r="4" fill="#0" id="circle88"/>
	<circle cx="446.614" cy="976.587" r="4" fill="#0" id="circle89"/>
	<circle cx="452.438" cy="33.1194" r="4" fill="#0" id="circle90"/>
	<circle cx="464.086" cy="966.881" r="4" fill="#0" id="circle91"/>
	<circle cx="471.851" cy="38.9432" r="4" fill="#0" id="circle92"/>
	<circle cx="481.558" cy="957.174" r="4" fill="#0" id="circle93"/>
	<circle cx="489.323" cy="48.6497" r="4" fill="#0" id="circle94"/>
	<circle cx="497.088" cy="943.585" r="4" fill="#0" id="circle95"/>
	<circle cx="506.795" cy="924.172" r="4" fill="#0" id="circle96"/>
	<circle cx="508.736" cy="56.4149" r="4" fill="#0" id="circle97"/>
	<circle cx="520.384" cy="898.935" r="4" fill="#0" id="circle98"/>
	<circle cx="526.207" cy="66.1213" r="4" fill="#0" id="circle99"/>
	<circle cx="535.914" cy="885.346" r="4" fill="#0" id="circle100"/>
	<circle cx="539.796" cy="81.6517" r="4" fill="#0" id="circle101"/>
	<circle cx="539.796" cy="345.667" r="4" fill="#0" id="circle102"/>
	<circle cx="539.796" cy="365.08" r="4" fill="#0" id="circle103"/>
	<circle cx="545.62" cy="865.933" r="4" fill="#0" id="circle104"/>
	<circle cx="549.503" cy="382.552" r="4" fill="#0" id="circle105"/>
	<circle cx="555.327" cy="332.078" r="4" fill="#0" id="circle106"/>
	<circle cx="555.327" cy="846.521" r="4" fill="#0" id="circle107"/>
	<circle cx="559.209" cy="87.4755" r="4" fill="#0" id="circle108"/>
	<circle cx="559.209" cy="400.023" r="4" fill="#0" id="circle109"/>
	<circle cx="559.209" cy="419.436" r="4" fill="#0" id="circle110"/>
	<circle cx="566.975" cy="106.888" r="4" fill="#0" id="circle111"/>
	<circle cx="568.916" cy="306.841" r="4" fill="#0" id="circle112"/>
	<circle cx="568.916" cy="436.908" r="4" fill="#0" id="circle113"/>
	<circle cx="568.916" cy="821.284" r="4" fill="#0" id="circle114"/>
	<circle cx="578.622" cy="454.38" r="4" fill="#0" id="circle115"/>
	<circle cx="578.622" cy="801.871" r="4" fill="#0" id="circle116"/>
	<circle cx="582.505" cy="120.477" r="4" fill="#0" id="circle117"/>
	<circle cx="584.446" cy="473.793" r="4" fill="#0" id="circle118"/>
	<circle cx="588.329" cy="306.841" r="4" fill="#0" id="circle119"/>
	<circle cx="588.329" cy="493.205" r="4" fill="#0" id="circle120"/>
	<circle cx="588.329" cy="782.458" r="4" fill="#0" id="circle121"/>
	<circle cx="596.094" cy="136.008" r="4" fill="#0" id="circle122"/>
	<circle cx="598.035" cy="155.421" r="4" fill="#0" id="circle123"/>
	<circle cx="598.035" cy="510.677" r="4" fill="#0" id="circle124"/>
	<circle cx="598.035" cy="763.045" r="4" fill="#0" id="circle125"/>
	<circle cx="607.742" cy="306.841" r="4" fill="#0" id="circle126"/>
	<circle cx="607.742" cy="528.149" r="4" fill="#0" id="circle127"/>
	<circle cx="607.742" cy="547.562" r="4" fill="#0" id="circle128"/>
	<circle cx="607.742" cy="743.632" r="4" fill="#0" id="circle129"/>
	<circle cx="611.624" cy="170.951" r="4" fill="#0" id="circle130"/>
	<circle cx="617.448" cy="565.033" r="4" fill="#0" id="circle131"/>
	<circle cx="617.448" cy="714.513" r="4" fill="#0" id="circle132"/>
	<circle cx="627.155" cy="184.54" r="4" fill="#0" id="circle133"/>
	<circle cx="627.155" cy="306.841" r="4" fill="#0" id="circle134"/>
	<circle cx="627.155" cy="582.505" r="4" fill="#0" id="circle135"/>
	<circle cx="627.155" cy="675.687" r="4" fill="#0" id="circle136"/>
	<circle cx="627.155" cy="695.1" r="4" fill="#0" id="circle137"/>
	<circle cx="634.92" cy="601.918" r="4" fill="#0" id="circle138"/>
	<circle cx="636.861" cy="621.331" r="4" fill="#0" id="circle139"/>
	<circle cx="636.861" cy="640.744" r="4" fill="#0" id="circle140"/>
	<circle cx="642.685" cy="198.129" r="4" fill="#0" id="circle141"/>
	<circle cx="646.568" cy="310.724" r="4" fill="#0" id="circle142"/>
	<circle cx="660.157" cy="207.836" r="4" fill="#0" id="circle143"/>
	<circle cx="665.98" cy="316.548" r="4" fill="#0" id="circle144"/>
	<circle cx="677.628" cy="217.542" r="4" fill="#0" id="circle145"/>
	<circle cx="685.393" cy="320.431" r="4" fill="#0" id="circle146"/>
	<circle cx="695.1" cy="227.249" r="4" fill="#0" id="circle147"/>
	<circle cx="702.865" cy="330.137" r="4" fill="#0" id="circle148"/>
	<circle cx="710.63" cy="238.896" r="4" fill="#0" id="circle149"/>
	<circle cx="718.395" cy="343.726" r="4" fill="#0" id="circle150"/>
	<circle cx="728.102" cy="248.603" r="4" fill="#0" id="circle151"/>
	<circle cx="735.867" cy="353.432" r="4" fill="#0" id="circle152"/>
	<circle cx="743.632" cy="262.192" r="4" fill="#0" id="circle153"/>
	<circle cx="751.397" cy="365.08" r="4" fill="#0" id="circle154"/>
	<circle cx="751.397" cy="384.493" r="4" fill="#0" id="circle155"/>
	<circle cx="759.162" cy="275.781" r="4" fill="#0" id="circle156"/>
	<circle cx="763.045" cy="400.023" r="4" fill="#0" id="circle157"/>
	<circle cx="772.751" cy="291.311" r="4" fill="#0" id="circle158"/>
	<circle cx="774.693" cy="384.493" r="4" fill="#0" id="circle159"/>
	<circle cx="782.458" cy="308.783" r="4" fill="#0" id="circle160"/>
	<circle cx="782.458" cy="365.08" r="4" fill="#0" id="circle161"/>
	<circle cx="792.164" cy="326.254" r="4" fill="#0" id="circle162"/>
	<circle cx="797.988" cy="351.491" r="4" fill="#0" id="circle163"/>
	</g>
</svg>