<?xml version="1.0" encoding="UTF-8" standalone="no"?>
<!-- Created with CurveBenchmark -->
<svg
	xmlns:dc="http://purl.org/dc/elements/1.1/"
	xmlns:cc="http://creativecommons.org/ns#"
	xmlns:rdf="http://www.w3.org/1999/02/22-rdf-syntax-ns#"
	xmlns:svg="http://www.w3.org/2000/svg"
	xmlns="http://www.w3.org/2000/svg"
	xmlns:sodipodi="http://sodipodi.sourceforge.net/DTD/sodipodi-0.dtd"
	xmlns:inkscape="http://www.inkscape.org/namespaces/inkscape"
	width="1000"
	height="1000"
	id="svg2"
	version="1.1"
	sodipodi:docname="manifold/hnncrust-hammer27.png.txt">
<defs
	id="defs4" />
<metadata
	id="metadata7">
	<rdf:RDF>
		<cc:Work
			rdf:about="">
			<dc:format>image/svg+xml</dc:format>
			<dc:type
				rdf:resource="http://purl.org/dc/dcmitype/StillImage" />
			<dc:title></dc:title>
		</cc:Work>
	</rdf:RDF>
</metadata>
<g
	inkscape:label="Layer 1"
	inkscape:groupmode="layer"
	id="layer1">
	<path style="fill:none;stroke:red;stroke-width:1px;stroke-linecap:butt;stroke-linejoin:miter;stroke-opacity:1" d="M 4,89.4785 4,111.973 z" id="boundary" inkscape:connector-curvature="0" />
	<path style="fill:none;stroke:red;stroke-width:1px;stroke-linecap:butt;stroke-linejoin:miter;stroke-opacity:1" d="M 4,89.4785 21.9955,71.483 z" id="boundary" inkscape:connector-curvature="0" />
	<path style="fill:none;stroke:red;stroke-width:1px;stroke-linecap:butt;stroke-linejoin:miter;stroke-opacity:1" d="M 4,111.973 4,134.467 z" id="boundary" inkscape:connector-curvature="0" />
	<path style="fill:none;stroke:red;stroke-width:1px;stroke-linecap:butt;stroke-linejoin:miter;stroke-opacity:1" d="M 4,134.467 21.9955,150.213 z" id="boundary" inkscape:connector-curvature="0" />
	<path style="fill:none;stroke:red;stroke-width:1px;stroke-linecap:butt;stroke-linejoin:miter;stroke-opacity:1" d="M 21.9955,71.483 42.2404,60.2358 z" id="boundary" inkscape:connector-curvature="0" />
	<path style="fill:none;stroke:red;stroke-width:1px;stroke-linecap:butt;stroke-linejoin:miter;stroke-opacity:1" d="M 21.9955,150.213 44.4898,152.463 z" id="boundary" inkscape:connector-curvature="0" />
	<path style="fill:none;stroke:red;stroke-width:1px;stroke-linecap:butt;stroke-linejoin:miter;stroke-opacity:1" d="M 42.2404,60.2358 62.4853,48.9887 z" id="boundary" inkscape:connector-curvature="0" />
	<path style="fill:none;stroke:red;stroke-width:1px;stroke-linecap:butt;stroke-linejoin:miter;stroke-opacity:1" d="M 44.4898,152.463 66.9841,152.463 z" id="boundary" inkscape:connector-curvature="0" />
	<path style="fill:none;stroke:red;stroke-width:1px;stroke-linecap:butt;stroke-linejoin:miter;stroke-opacity:1" d="M 62.4853,48.9887 84.9796,48.9887 z" id="boundary" inkscape:connector-curvature="0" />
	<path style="fill:none;stroke:red;stroke-width:1px;stroke-linecap:butt;stroke-linejoin:miter;stroke-opacity:1" d="M 66.9841,152.463 89.4785,152.463 z" id="boundary" inkscape:connector-curvature="0" />
	<path style="fill:none;stroke:red;stroke-width:1px;stroke-linecap:butt;stroke-linejoin:miter;stroke-opacity:1" d="M 84.9796,48.9887 107.474,48.9887 z" id="boundary" inkscape:connector-curvature="0" />
	<path style="fill:none;stroke:red;stroke-width:1px;stroke-linecap:butt;stroke-linejoin:miter;stroke-opacity:1" d="M 89.4785,152.463 111.973,152.463 z" id="boundary" inkscape:connector-curvature="0" />
	<path style="fill:none;stroke:red;stroke-width:1px;stroke-linecap:butt;stroke-linejoin:miter;stroke-opacity:1" d="M 107.474,48.9887 129.968,48.9887 z" id="boundary" inkscape:connector-curvature="0" />
	<path style="fill:none;stroke:red;stroke-width:1px;stroke-linecap:butt;stroke-linejoin:miter;stroke-opacity:1" d="M 111.973,152.463 134.467,152.463 z" id="boundary" inkscape:connector-curvature="0" />
	<path style="fill:none;stroke:red;stroke-width:1px;stroke-linecap:butt;stroke-linejoin:miter;stroke-opacity:1" d="M 129.968,48.9887 152.463,48.9887 z" id="boundary" inkscape:connector-curvature="0" />
	<path style="fill:none;stroke:red;stroke-width:1px;stroke-linecap:butt;stroke-linejoin:miter;stroke-opacity:1" d="M 134.467,152.463 156.961,152.463 z" id="boundary" inkscape:connector-curvature="0" />
	<path style="fill:none;stroke:red;stroke-width:1px;stroke-linecap:butt;stroke-linejoin:miter;stroke-opacity:1" d="M 152.463,48.9887 174.957,42.2404 z" id="boundary" inkscape:connector-curvature="0" />
	<path style="fill:none;stroke:red;stroke-width:1px;stroke-linecap:butt;stroke-linejoin:miter;stroke-opacity:1" d="M 156.961,152.463 179.456,152.463 z" id="boundary" inkscape:connector-curvature="0" />
	<path style="fill:none;stroke:red;stroke-width:1px;stroke-linecap:butt;stroke-linejoin:miter;stroke-opacity:1" d="M 174.957,42.2404 197.451,37.7415 z" id="boundary" inkscape:connector-curvature="0" />
	<path style="fill:none;stroke:red;stroke-width:1px;stroke-linecap:butt;stroke-linejoin:miter;stroke-opacity:1" d="M 179.456,152.463 201.95,152.463 z" id="boundary" inkscape:connector-curvature="0" />
	<path style="fill:none;stroke:red;stroke-width:1px;stroke-linecap:butt;stroke-linejoin:miter;stroke-opacity:1" d="M 197.451,37.7415 219.946,37.7415 z" id="boundary" inkscape:connector-curvature="0" />
	<path style="fill:none;stroke:red;stroke-width:1px;stroke-linecap:butt;stroke-linejoin:miter;stroke-opacity:1" d="M 201.95,152.463 224.444,152.463 z" id="boundary" inkscape:connector-curvature="0" />
	<path style="fill:none;stroke:red;stroke-width:1px;stroke-linecap:butt;stroke-linejoin:miter;stroke-opacity:1" d="M 219.946,37.7415 242.44,37.7415 z" id="boundary" inkscape:connector-curvature="0" />
	<path style="fill:none;stroke:red;stroke-width:1px;stroke-linecap:butt;stroke-linejoin:miter;stroke-opacity:1" d="M 224.444,152.463 246.939,152.463 z" id="boundary" inkscape:connector-curvature="0" />
	<path style="fill:none;stroke:red;stroke-width:1px;stroke-linecap:butt;stroke-linejoin:miter;stroke-opacity:1" d="M 242.44,37.7415 264.934,37.7415 z" id="boundary" inkscape:connector-curvature="0" />
	<path style="fill:none;stroke:red;stroke-width:1px;stroke-linecap:butt;stroke-linejoin:miter;stroke-opacity:1" d="M 246.939,152.463 269.433,152.463 z" id="boundary" inkscape:connector-curvature="0" />
	<path style="fill:none;stroke:red;stroke-width:1px;stroke-linecap:butt;stroke-linejoin:miter;stroke-opacity:1" d="M 264.934,37.7415 287.429,37.7415 z" id="boundary" inkscape:connector-curvature="0" />
	<path style="fill:none;stroke:red;stroke-width:1px;stroke-linecap:butt;stroke-linejoin:miter;stroke-opacity:1" d="M 269.433,152.463 291.927,152.463 z" id="boundary" inkscape:connector-curvature="0" />
	<path style="fill:none;stroke:red;stroke-width:1px;stroke-linecap:butt;stroke-linejoin:miter;stroke-opacity:1" d="M 287.429,37.7415 309.923,37.7415 z" id="boundary" inkscape:connector-curvature="0" />
	<path style="fill:none;stroke:red;stroke-width:1px;stroke-linecap:butt;stroke-linejoin:miter;stroke-opacity:1" d="M 291.927,152.463 314.422,152.463 z" id="boundary" inkscape:connector-curvature="0" />
	<path style="fill:none;stroke:red;stroke-width:1px;stroke-linecap:butt;stroke-linejoin:miter;stroke-opacity:1" d="M 309.923,37.7415 332.417,37.7415 z" id="boundary" inkscape:connector-curvature="0" />
	<path style="fill:none;stroke:red;stroke-width:1px;stroke-linecap:butt;stroke-linejoin:miter;stroke-opacity:1" d="M 314.422,152.463 334.667,163.71 z" id="boundary" inkscape:connector-curvature="0" />
	<path style="fill:none;stroke:red;stroke-width:1px;stroke-linecap:butt;stroke-linejoin:miter;stroke-opacity:1" d="M 332.417,37.7415 352.662,26.4943 z" id="boundary" inkscape:connector-curvature="0" />
	<path style="fill:none;stroke:red;stroke-width:1px;stroke-linecap:butt;stroke-linejoin:miter;stroke-opacity:1" d="M 334.667,163.71 357.161,163.71 z" id="boundary" inkscape:connector-curvature="0" />
	<path style="fill:none;stroke:red;stroke-width:1px;stroke-linecap:butt;stroke-linejoin:miter;stroke-opacity:1" d="M 352.662,26.4943 375.156,26.4943 z" id="boundary" inkscape:connector-curvature="0" />
	<path style="fill:none;stroke:red;stroke-width:1px;stroke-linecap:butt;stroke-linejoin:miter;stroke-opacity:1" d="M 357.161,163.71 379.655,163.71 z" id="boundary" inkscape:connector-curvature="0" />
	<path style="fill:none;stroke:red;stroke-width:1px;stroke-linecap:butt;stroke-linejoin:miter;stroke-opacity:1" d="M 375.156,26.4943 397.651,26.4943 z" id="boundary" inkscape:connector-curvature="0" />
	<path style="fill:none;stroke:red;stroke-width:1px;stroke-linecap:butt;stroke-linejoin:miter;stroke-opacity:1" d="M 379.655,163.71 402.15,163.71 z" id="boundary" inkscape:connector-curvature="0" />
	<path style="fill:none;stroke:red;stroke-width:1px;stroke-linecap:butt;stroke-linejoin:miter;stroke-opacity:1" d="M 397.651,26.4943 420.145,26.4943 z" id="boundary" inkscape:connector-curvature="0" />
	<path style="fill:none;stroke:red;stroke-width:1px;stroke-linecap:butt;stroke-linejoin:miter;stroke-opacity:1" d="M 402.15,163.71 424.644,163.71 z" id="boundary" inkscape:connector-curvature="0" />
	<path style="fill:none;stroke:red;stroke-width:1px;stroke-linecap:butt;stroke-linejoin:miter;stroke-opacity:1" d="M 420.145,26.4943 442.639,26.4943 z" id="boundary" inkscape:connector-curvature="0" />
	<path style="fill:none;stroke:red;stroke-width:1px;stroke-linecap:butt;stroke-linejoin:miter;stroke-opacity:1" d="M 424.644,163.71 447.138,163.71 z" id="boundary" inkscape:connector-curvature="0" />
	<path style="fill:none;stroke:red;stroke-width:1px;stroke-linecap:butt;stroke-linejoin:miter;stroke-opacity:1" d="M 442.639,26.4943 465.134,26.4943 z" id="boundary" inkscape:connector-curvature="0" />
	<path style="fill:none;stroke:red;stroke-width:1px;stroke-linecap:butt;stroke-linejoin:miter;stroke-opacity:1" d="M 447.138,163.71 467.383,174.957 z" id="boundary" inkscape:connector-curvature="0" />
	<path style="fill:none;stroke:red;stroke-width:1px;stroke-linecap:butt;stroke-linejoin:miter;stroke-opacity:1" d="M 465.134,26.4943 487.628,26.4943 z" id="boundary" inkscape:connector-curvature="0" />
	<path style="fill:none;stroke:red;stroke-width:1px;stroke-linecap:butt;stroke-linejoin:miter;stroke-opacity:1" d="M 467.383,174.957 489.878,174.957 z" id="boundary" inkscape:connector-curvature="0" />
	<path style="fill:none;stroke:red;stroke-width:1px;stroke-linecap:butt;stroke-linejoin:miter;stroke-opacity:1" d="M 487.628,26.4943 507.873,37.7415 z" id="boundary" inkscape:connector-curvature="0" />
	<path style="fill:none;stroke:red;stroke-width:1px;stroke-linecap:butt;stroke-linejoin:miter;stroke-opacity:1" d="M 489.878,174.957 512.372,174.957 z" id="boundary" inkscape:connector-curvature="0" />
	<path style="fill:none;stroke:red;stroke-width:1px;stroke-linecap:butt;stroke-linejoin:miter;stroke-opacity:1" d="M 507.873,37.7415 530.367,37.7415 z" id="boundary" inkscape:connector-curvature="0" />
	<path style="fill:none;stroke:red;stroke-width:1px;stroke-linecap:butt;stroke-linejoin:miter;stroke-opacity:1" d="M 512.372,174.957 534.866,174.957 z" id="boundary" inkscape:connector-curvature="0" />
	<path style="fill:none;stroke:red;stroke-width:1px;stroke-linecap:butt;stroke-linejoin:miter;stroke-opacity:1" d="M 530.367,37.7415 552.862,37.7415 z" id="boundary" inkscape:connector-curvature="0" />
	<path style="fill:none;stroke:red;stroke-width:1px;stroke-linecap:butt;stroke-linejoin:miter;stroke-opacity:1" d="M 534.866,174.957 557.361,174.957 z" id="boundary" inkscape:connector-curvature="0" />
	<path style="fill:none;stroke:red;stroke-width:1px;stroke-linecap:butt;stroke-linejoin:miter;stroke-opacity:1" d="M 552.862,37.7415 573.107,48.9887 z" id="boundary" inkscape:connector-curvature="0" />
	<path style="fill:none;stroke:red;stroke-width:1px;stroke-linecap:butt;stroke-linejoin:miter;stroke-opacity:1" d="M 557.361,174.957 577.605,186.204 z" id="boundary" inkscape:connector-curvature="0" />
	<path style="fill:none;stroke:red;stroke-width:1px;stroke-linecap:butt;stroke-linejoin:miter;stroke-opacity:1" d="M 573.107,48.9887 595.601,48.9887 z" id="boundary" inkscape:connector-curvature="0" />
	<path style="fill:none;stroke:red;stroke-width:1px;stroke-linecap:butt;stroke-linejoin:miter;stroke-opacity:1" d="M 577.605,186.204 600.1,186.204 z" id="boundary" inkscape:connector-curvature="0" />
	<path style="fill:none;stroke:red;stroke-width:1px;stroke-linecap:butt;stroke-linejoin:miter;stroke-opacity:1" d="M 595.601,48.9887 615.846,60.2358 z" id="boundary" inkscape:connector-curvature="0" />
	<path style="fill:none;stroke:red;stroke-width:1px;stroke-linecap:butt;stroke-linejoin:miter;stroke-opacity:1" d="M 600.1,186.204 622.594,186.204 z" id="boundary" inkscape:connector-curvature="0" />
	<path style="fill:none;stroke:red;stroke-width:1px;stroke-linecap:butt;stroke-linejoin:miter;stroke-opacity:1" d="M 615.846,60.2358 638.34,60.2358 z" id="boundary" inkscape:connector-curvature="0" />
	<path style="fill:none;stroke:red;stroke-width:1px;stroke-linecap:butt;stroke-linejoin:miter;stroke-opacity:1" d="M 622.594,186.204 645.088,186.204 z" id="boundary" inkscape:connector-curvature="0" />
	<path style="fill:none;stroke:red;stroke-width:1px;stroke-linecap:butt;stroke-linejoin:miter;stroke-opacity:1" d="M 638.34,60.2358 658.585,71.483 z" id="boundary" inkscape:connector-curvature="0" />
	<path style="fill:none;stroke:red;stroke-width:1px;stroke-linecap:butt;stroke-linejoin:miter;stroke-opacity:1" d="M 645.088,186.204 665.333,197.451 z" id="boundary" inkscape:connector-curvature="0" />
	<path style="fill:none;stroke:red;stroke-width:1px;stroke-linecap:butt;stroke-linejoin:miter;stroke-opacity:1" d="M 658.585,71.483 681.079,71.483 z" id="boundary" inkscape:connector-curvature="0" />
	<path style="fill:none;stroke:red;stroke-width:1px;stroke-linecap:butt;stroke-linejoin:miter;stroke-opacity:1" d="M 665.333,197.451 687.828,197.451 z" id="boundary" inkscape:connector-curvature="0" />
	<path style="fill:none;stroke:red;stroke-width:1px;stroke-linecap:butt;stroke-linejoin:miter;stroke-opacity:1" d="M 681.079,71.483 701.324,82.7302 z" id="boundary" inkscape:connector-curvature="0" />
	<path style="fill:none;stroke:red;stroke-width:1px;stroke-linecap:butt;stroke-linejoin:miter;stroke-opacity:1" d="M 687.828,197.451 710.322,197.451 z" id="boundary" inkscape:connector-curvature="0" />
	<path style="fill:none;stroke:red;stroke-width:1px;stroke-linecap:butt;stroke-linejoin:miter;stroke-opacity:1" d="M 701.324,82.7302 723.819,82.7302 z" id="boundary" inkscape:connector-curvature="0" />
	<path style="fill:none;stroke:red;stroke-width:1px;stroke-linecap:butt;stroke-linejoin:miter;stroke-opacity:1" d="M 710.322,197.451 730.567,208.698 z" id="boundary" inkscape:connector-curvature="0" />
	<path style="fill:none;stroke:red;stroke-width:1px;stroke-linecap:butt;stroke-linejoin:miter;stroke-opacity:1" d="M 723.819,82.7302 744.063,93.9773 z" id="boundary" inkscape:connector-curvature="0" />
	<path style="fill:none;stroke:red;stroke-width:1px;stroke-linecap:butt;stroke-linejoin:miter;stroke-opacity:1" d="M 730.567,208.698 753.061,208.698 z" id="boundary" inkscape:connector-curvature="0" />
	<path style="fill:none;stroke:red;stroke-width:1px;stroke-linecap:butt;stroke-linejoin:miter;stroke-opacity:1" d="M 744.063,93.9773 766.558,93.9773 z" id="boundary" inkscape:connector-curvature="0" />
	<path style="fill:none;stroke:red;stroke-width:1px;stroke-linecap:butt;stroke-linejoin:miter;stroke-opacity:1" d="M 753.061,208.698 775.556,217.696 z" id="boundary" inkscape:connector-curvature="0" />
	<path style="fill:none;stroke:red;stroke-width:1px;stroke-linecap:butt;stroke-linejoin:miter;stroke-opacity:1" d="M 766.558,93.9773 789.052,96.2268 z" id="boundary" inkscape:connector-curvature="0" />
	<path style="fill:none;stroke:red;stroke-width:1px;stroke-linecap:butt;stroke-linejoin:miter;stroke-opacity:1" d="M 775.556,217.696 798.05,219.946 z" id="boundary" inkscape:connector-curvature="0" />
	<path style="fill:none;stroke:red;stroke-width:1px;stroke-linecap:butt;stroke-linejoin:miter;stroke-opacity:1" d="M 789.052,96.2268 811.546,105.224 z" id="boundary" inkscape:connector-curvature="0" />
	<path style="fill:none;stroke:red;stroke-width:1px;stroke-linecap:butt;stroke-linejoin:miter;stroke-opacity:1" d="M 798.05,219.946 820.544,219.946 z" id="boundary" inkscape:connector-curvature="0" />
	<path style="fill:none;stroke:red;stroke-width:1px;stroke-linecap:butt;stroke-linejoin:miter;stroke-opacity:1" d="M 811.546,105.224 834.041,107.474 z" id="boundary" inkscape:connector-curvature="0" />
	<path style="fill:none;stroke:red;stroke-width:1px;stroke-linecap:butt;stroke-linejoin:miter;stroke-opacity:1" d="M 820.544,219.946 843.039,219.946 z" id="boundary" inkscape:connector-curvature="0" />
	<path style="fill:none;stroke:red;stroke-width:1px;stroke-linecap:butt;stroke-linejoin:miter;stroke-opacity:1" d="M 825.043,269.433 825.043,291.927 z" id="boundary" inkscape:connector-curvature="0" />
	<path style="fill:none;stroke:red;stroke-width:1px;stroke-linecap:butt;stroke-linejoin:miter;stroke-opacity:1" d="M 825.043,269.433 836.29,246.939 z" id="boundary" inkscape:connector-curvature="0" />
	<path style="fill:none;stroke:red;stroke-width:1px;stroke-linecap:butt;stroke-linejoin:miter;stroke-opacity:1" d="M 825.043,291.927 836.29,312.172 z" id="boundary" inkscape:connector-curvature="0" />
	<path style="fill:none;stroke:red;stroke-width:1px;stroke-linecap:butt;stroke-linejoin:miter;stroke-opacity:1" d="M 834.041,107.474 856.535,105.224 z" id="boundary" inkscape:connector-curvature="0" />
	<path style="fill:none;stroke:red;stroke-width:1px;stroke-linecap:butt;stroke-linejoin:miter;stroke-opacity:1" d="M 836.29,246.939 843.039,219.946 z" id="boundary" inkscape:connector-curvature="0" />
	<path style="fill:none;stroke:red;stroke-width:1px;stroke-linecap:butt;stroke-linejoin:miter;stroke-opacity:1" d="M 836.29,312.172 847.537,332.417 z" id="boundary" inkscape:connector-curvature="0" />
	<path style="fill:none;stroke:red;stroke-width:1px;stroke-linecap:butt;stroke-linejoin:miter;stroke-opacity:1" d="M 847.537,332.417 867.782,343.664 z" id="boundary" inkscape:connector-curvature="0" />
	<path style="fill:none;stroke:red;stroke-width:1px;stroke-linecap:butt;stroke-linejoin:miter;stroke-opacity:1" d="M 856.535,105.224 870.032,78.2313 z" id="boundary" inkscape:connector-curvature="0" />
	<path style="fill:none;stroke:red;stroke-width:1px;stroke-linecap:butt;stroke-linejoin:miter;stroke-opacity:1" d="M 867.782,343.664 890.277,343.664 z" id="boundary" inkscape:connector-curvature="0" />
	<path style="fill:none;stroke:red;stroke-width:1px;stroke-linecap:butt;stroke-linejoin:miter;stroke-opacity:1" d="M 870.032,55.737 870.032,78.2313 z" id="boundary" inkscape:connector-curvature="0" />
	<path style="fill:none;stroke:red;stroke-width:1px;stroke-linecap:butt;stroke-linejoin:miter;stroke-opacity:1" d="M 870.032,55.737 881.279,21.9955 z" id="boundary" inkscape:connector-curvature="0" />
	<path style="fill:none;stroke:red;stroke-width:1px;stroke-linecap:butt;stroke-linejoin:miter;stroke-opacity:1" d="M 881.279,21.9955 899.274,4 z" id="boundary" inkscape:connector-curvature="0" />
	<path style="fill:none;stroke:red;stroke-width:1px;stroke-linecap:butt;stroke-linejoin:miter;stroke-opacity:1" d="M 890.277,343.664 910.522,330.168 z" id="boundary" inkscape:connector-curvature="0" />
	<path style="fill:none;stroke:red;stroke-width:1px;stroke-linecap:butt;stroke-linejoin:miter;stroke-opacity:1" d="M 899.274,4 921.769,4 z" id="boundary" inkscape:connector-curvature="0" />
	<path style="fill:none;stroke:red;stroke-width:1px;stroke-linecap:butt;stroke-linejoin:miter;stroke-opacity:1" d="M 910.522,330.168 928.517,309.923 z" id="boundary" inkscape:connector-curvature="0" />
	<path style="fill:none;stroke:red;stroke-width:1px;stroke-linecap:butt;stroke-linejoin:miter;stroke-opacity:1" d="M 921.769,4 944.263,4 z" id="boundary" inkscape:connector-curvature="0" />
	<path style="fill:none;stroke:red;stroke-width:1px;stroke-linecap:butt;stroke-linejoin:miter;stroke-opacity:1" d="M 928.517,264.934 928.517,287.429 z" id="boundary" inkscape:connector-curvature="0" />
	<path style="fill:none;stroke:red;stroke-width:1px;stroke-linecap:butt;stroke-linejoin:miter;stroke-opacity:1" d="M 928.517,264.934 946.512,249.188 z" id="boundary" inkscape:connector-curvature="0" />
	<path style="fill:none;stroke:red;stroke-width:1px;stroke-linecap:butt;stroke-linejoin:miter;stroke-opacity:1" d="M 928.517,287.429 928.517,309.923 z" id="boundary" inkscape:connector-curvature="0" />
	<path style="fill:none;stroke:red;stroke-width:1px;stroke-linecap:butt;stroke-linejoin:miter;stroke-opacity:1" d="M 944.263,4 966.757,4 z" id="boundary" inkscape:connector-curvature="0" />
	<path style="fill:none;stroke:red;stroke-width:1px;stroke-linecap:butt;stroke-linejoin:miter;stroke-opacity:1" d="M 946.512,249.188 962.259,219.946 z" id="boundary" inkscape:connector-curvature="0" />
	<path style="fill:none;stroke:red;stroke-width:1px;stroke-linecap:butt;stroke-linejoin:miter;stroke-opacity:1" d="M 962.259,219.946 973.506,186.204 z" id="boundary" inkscape:connector-curvature="0" />
	<path style="fill:none;stroke:red;stroke-width:1px;stroke-linecap:butt;stroke-linejoin:miter;stroke-opacity:1" d="M 966.757,4 982.503,21.9955 z" id="boundary" inkscape:connector-curvature="0" />
	<path style="fill:none;stroke:red;stroke-width:1px;stroke-linecap:butt;stroke-linejoin:miter;stroke-opacity:1" d="M 973.506,141.215 973.506,163.71 z" id="boundary" inkscape:connector-curvature="0" />
	<path style="fill:none;stroke:red;stroke-width:1px;stroke-linecap:butt;stroke-linejoin:miter;stroke-opacity:1" d="M 973.506,141.215 984.753,107.474 z" id="boundary" inkscape:connector-curvature="0" />
	<path style="fill:none;stroke:red;stroke-width:1px;stroke-linecap:butt;stroke-linejoin:miter;stroke-opacity:1" d="M 973.506,163.71 973.506,186.204 z" id="boundary" inkscape:connector-curvature="0" />
	<path style="fill:none;stroke:red;stroke-width:1px;stroke-linecap:butt;stroke-linejoin:miter;stroke-opacity:1" d="M 982.503,21.9955 993.751,42.2404 z" id="boundary" inkscape:connector-curvature="0" />
	<path style="fill:none;stroke:red;stroke-width:1px;stroke-linecap:butt;stroke-linejoin:miter;stroke-opacity:1" d="M 984.753,84.9796 984.753,107.474 z" id="boundary" inkscape:connector-curvature="0" />
	<path style="fill:none;stroke:red;stroke-width:1px;stroke-linecap:butt;stroke-linejoin:miter;stroke-opacity:1" d="M 984.753,84.9796 996,64.7347 z" id="boundary" inkscape:connector-curvature="0" />
	<path style="fill:none;stroke:red;stroke-width:1px;stroke-linecap:butt;stroke-linejoin:miter;stroke-opacity:1" d="M 993.751,42.2404 996,64.7347 z" id="boundary" inkscape:connector-curvature="0" />
	<circle cx="4" cy="89.4785" r="4" fill="#0" id="circle0"/>
	<circle cx="4" cy="111.973" r="4" fill="#0" id="circle1"/>
	<circle cx="4" cy="134.467" r="4" fill="#0" id="circle2"/>
	<circle cx="21.9955" cy="71.483" r="4" fill="#0" id="circle3"/>
	<circle cx="21.9955" cy="150.213" r="4" fill="#0" id="circle4"/>
	<circle cx="42.2404" cy="60.2358" r="4" fill="#0" id="circle5"/>
	<circle cx="44.4898" cy="152.463" r="4" fill="#0" id="circle6"/>
	<circle cx="62.4853" cy="48.9887" r="4" fill="#0" id="circle7"/>
	<circle cx="66.9841" cy="152.463" r="4" fill="#0" id="circle8"/>
	<circle cx="84.9796" cy="48.9887" r="4" fill="#0" id="circle9"/>
	<circle cx="89.4785" cy="152.463" r="4" fill="#0" id="circle10"/>
	<circle cx="107.474" cy="48.9887" r="4" fill="#0" id="circle11"/>
	<circle cx="111.973" cy="152.463" r="4" fill="#0" id="circle12"/>
	<circle cx="129.968" cy="48.9887" r="4" fill="#0" id="circle13"/>
	<circle cx="134.467" cy="152.463" r="4" fill="#0" id="circle14"/>
	<circle cx="152.463" cy="48.9887" r="4" fill="#0" id="circle15"/>
	<circle cx="156.961" cy="152.463" r="4" fill="#0" id="circle16"/>
	<circle cx="174.957" cy="42.2404" r="4" fill="#0" id="circle17"/>
	<circle cx="179.456" cy="152.463" r="4" fill="#0" id="circle18"/>
	<circle cx="197.451" cy="37.7415" r="4" fill="#0" id="circle19"/>
	<circle cx="201.95" cy="152.463" r="4" fill="#0" id="circle20"/>
	<circle cx="219.946" cy="37.7415" r="4" fill="#0" id="circle21"/>
	<circle cx="224.444" cy="152.463" r="4" fill="#0" id="circle22"/>
	<circle cx="242.44" cy="37.7415" r="4" fill="#0" id="circle23"/>
	<circle cx="246.939" cy="152.463" r="4" fill="#0" id="circle24"/>
	<circle cx="264.934" cy="37.7415" r="4" fill="#0" id="circle25"/>
	<circle cx="269.433" cy="152.463" r="4" fill="#0" id="circle26"/>
	<circle cx="287.429" cy="37.7415" r="4" fill="#0" id="circle27"/>
	<circle cx="291.927" cy="152.463" r="4" fill="#0" id="circle28"/>
	<circle cx="309.923" cy="37.7415" r="4" fill="#0" id="circle29"/>
	<circle cx="314.422" cy="152.463" r="4" fill="#0" id="circle30"/>
	<circle cx="332.417" cy="37.7415" r="4" fill="#0" id="circle31"/>
	<circle cx="334.667" cy="163.71" r="4" fill="#0" id="circle32"/>
	<circle cx="352.662" cy="26.4943" r="4" fill="#0" id="circle33"/>
	<circle cx="357.161" cy="163.71" r="4" fill="#0" id="circle34"/>
	<circle cx="375.156" cy="26.4943" r="4" fill="#0" id="circle35"/>
	<circle cx="379.655" cy="163.71" r="4" fill="#0" id="circle36"/>
	<circle cx="397.651" cy="26.4943" r="4" fill="#0" id="circle37"/>
	<circle cx="402.15" cy="163.71" r="4" fill="#0" id="circle38"/>
	<circle cx="420.145" cy="26.4943" r="4" fill="#0" id="circle39"/>
	<circle cx="424.644" cy="163.71" r="4" fill="#0" id="circle40"/>
	<circle cx="442.639" cy="26.4943" r="4" fill="#0" id="circle41"/>
	<circle cx="447.138" cy="163.71" r="4" fill="#0" id="circle42"/>
	<circle cx="465.134" cy="26.4943" r="4" fill="#0" id="circle43"/>
	<circle cx="467.383" cy="174.957" r="4" fill="#0" id="circle44"/>
	<circle cx="487.628" cy="26.4943" r="4" fill="#0" id="circle45"/>
	<circle cx="489.878" cy="174.957" r="4" fill="#0" id="circle46"/>
	<circle cx="507.873" cy="37.7415" r="4" fill="#0" id="circle47"/>
	<circle cx="512.372" cy="174.957" r="4" fill="#0" id="circle48"/>
	<circle cx="530.367" cy="37.7415" r="4" fill="#0" id="circle49"/>
	<circle cx="534.866" cy="174.957" r="4" fill="#0" id="circle50"/>
	<circle cx="552.862" cy="37.7415" r="4" fill="#0" id="circle51"/>
	<circle cx="557.361" cy="174.957" r="4" fill="#0" id="circle52"/>
	<circle cx="573.107" cy="48.9887" r="4" fill="#0" id="circle53"/>
	<circle cx="577.605" cy="186.204" r="4" fill="#0" id="circle54"/>
	<circle cx="595.601" cy="48.9887" r="4" fill="#0" id="circle55"/>
	<circle cx="600.1" cy="186.204" r="4" fill="#0" id="circle56"/>
	<circle cx="615.846" cy="60.2358" r="4" fill="#0" id="circle57"/>
	<circle cx="622.594" cy="186.204" r="4" fill="#0" id="circle58"/>
	<circle cx="638.34" cy="60.2358" r="4" fill="#0" id="circle59"/>
	<circle cx="645.088" cy="186.204" r="4" fill="#0" id="circle60"/>
	<circle cx="658.585" cy="71.483" r="4" fill="#0" id="circle61"/>
	<circle cx="665.333" cy="197.451" r="4" fill="#0" id="circle62"/>
	<circle cx="681.079" cy="71.483" r="4" fill="#0" id="circle63"/>
	<circle cx="687.828" cy="197.451" r="4" fill="#0" id="circle64"/>
	<circle cx="701.324" cy="82.7302" r="4" fill="#0" id="circle65"/>
	<circle cx="710.322" cy="197.451" r="4" fill="#0" id="circle66"/>
	<circle cx="723.819" cy="82.7302" r="4" fill="#0" id="circle67"/>
	<circle cx="730.567" cy="208.698" r="4" fill="#0" id="circle68"/>
	<circle cx="744.063" cy="93.9773" r="4" fill="#0" id="circle69"/>
	<circle cx="753.061" cy="208.698" r="4" fill="#0" id="circle70"/>
	<circle cx="766.558" cy="93.9773" r="4" fill="#0" id="circle71"/>
	<circle cx="775.556" cy="217.696" r="4" fill="#0" id="circle72"/>
	<circle cx="789.052" cy="96.2268" r="4" fill="#0" id="circle73"/>
	<circle cx="798.05" cy="219.946" r="4" fill="#0" id="circle74"/>
	<circle cx="811.546" cy="105.224" r="4" fill="#0" id="circle75"/>
	<circle cx="820.544" cy="219.946" r="4" fill="#0" id="circle76"/>
	<circle cx="825.043" cy="269.433" r="4" fill="#0" id="circle77"/>
	<circle cx="825.043" cy="291.927" r="4" fill="#0" id="circle78"/>
	<circle cx="834.041" cy="107.474" r="4" fill="#0" id="circle79"/>
	<circle cx="836.29" cy="246.939" r="4" fill="#0" id="circle80"/>
	<circle cx="836.29" cy="312.172" r="4" fill="#0" id="circle81"/>
	<circle cx="843.039" cy="219.946" r="4" fill="#0" id="circle82"/>
	<circle cx="847.537" cy="332.417" r="4" fill="#0" id="circle83"/>
	<circle cx="856.535" cy="105.224" r="4" fill="#0" id="circle84"/>
	<circle cx="867.782" cy="343.664" r="4" fill="#0" id="circle85"/>
	<circle cx="870.032" cy="55.737" r="4" fill="#0" id="circle86"/>
	<circle cx="870.032" cy="78.2313" r="4" fill="#0" id="circle87"/>
	<circle cx="881.279" cy="21.9955" r="4" fill="#0" id="circle88"/>
	<circle cx="890.277" cy="343.664" r="4" fill="#0" id="circle89"/>
	<circle cx="899.274" cy="4" r="4" fill="#0" id="circle90"/>
	<circle cx="910.522" cy="330.168" r="4" fill="#0" id="circle91"/>
	<circle cx="921.769" cy="4" r="4" fill="#0" id="circle92"/>
	<circle cx="928.517" cy="264.934" r="4" fill="#0" id="circle93"/>
	<circle cx="928.517" cy="287.429" r="4" fill="#0" id="circle94"/>
	<circle cx="928.517" cy="309.923" r="4" fill="#0" id="circle95"/>
	<circle cx="944.263" cy="4" r="4" fill="#0" id="circle96"/>
	<circle cx="946.512" cy="249.188" r="4" fill="#0" id="circle97"/>
	<circle cx="962.259" cy="219.946" r="4" fill="#0" id="circle98"/>
	<circle cx="966.757" cy="4" r="4" fill="#0" id="circle99"/>
	<circle cx="973.506" cy="141.215" r="4" fill="#0" id="circle100"/>
	<circle cx="973.506" cy="163.71" r="4" fill="#0" id="circle101"/>
	<circle cx="973.506" cy="186.204" r="4" fill="#0" id="circle102"/>
	<circle cx="982.503" cy="21.9955" r="4" fill="#0" id="circle103"/>
	<circle cx="984.753" cy="84.9796" r="4" fill="#0" id="circle104"/>
	<circle cx="984.753" cy="107.474" r="4" fill="#0" id="circle105"/>
	<circle cx="993.751" cy="42.2404" r="4" fill="#0" id="circle106"/>
	<circle cx="996" cy="64.7347" r="4" fill="#0" id="circle107"/>
	</g>
</svg>