<?xml version="1.0" encoding="UTF-8" standalone="no"?>
<!-- Created with CurveBenchmark -->
<svg
	xmlns:dc="http://purl.org/dc/elements/1.1/"
	xmlns:cc="http://creativecommons.org/ns#"
	xmlns:rdf="http://www.w3.org/1999/02/22-rdf-syntax-ns#"
	xmlns:svg="http://www.w3.org/2000/svg"
	xmlns="http://www.w3.org/2000/svg"
	xmlns:sodipodi="http://sodipodi.sourceforge.net/DTD/sodipodi-0.dtd"
	xmlns:inkscape="http://www.inkscape.org/namespaces/inkscape"
	width="1000"
	height="1000"
	id="svg2"
	version="1.1"
	sodipodi:docname="manifold/hnncrust-chopper11.png.txt">
<defs
	id="defs4" />
<metadata
	id="metadata7">
	<rdf:RDF>
		<cc:Work
			rdf:about="">
			<dc:format>image/svg+xml</dc:format>
			<dc:type
				rdf:resource="http://purl.org/dc/dcmitype/StillImage" />
			<dc:title></dc:title>
		</cc:Work>
	</rdf:RDF>
</metadata>
<g
	inkscape:label="Layer 1"
	inkscape:groupmode="layer"
	id="layer1">
	<path style="fill:none;stroke:red;stroke-width:1px;stroke-linecap:butt;stroke-linejoin:miter;stroke-opacity:1" d="M 4,461.985 13.0511,443.883 z" id="boundary" inkscape:connector-curvature="0" />
	<path style="fill:none;stroke:red;stroke-width:1px;stroke-linecap:butt;stroke-linejoin:miter;stroke-opacity:1" d="M 4,461.985 18.4818,474.657 z" id="boundary" inkscape:connector-curvature="0" />
	<path style="fill:none;stroke:red;stroke-width:1px;stroke-linecap:butt;stroke-linejoin:miter;stroke-opacity:1" d="M 13.0511,425.781 13.0511,443.883 z" id="boundary" inkscape:connector-curvature="0" />
	<path style="fill:none;stroke:red;stroke-width:1px;stroke-linecap:butt;stroke-linejoin:miter;stroke-opacity:1" d="M 13.0511,425.781 22.1022,407.679 z" id="boundary" inkscape:connector-curvature="0" />
	<path style="fill:none;stroke:red;stroke-width:1px;stroke-linecap:butt;stroke-linejoin:miter;stroke-opacity:1" d="M 18.4818,474.657 25.7226,492.759 z" id="boundary" inkscape:connector-curvature="0" />
	<path style="fill:none;stroke:red;stroke-width:1px;stroke-linecap:butt;stroke-linejoin:miter;stroke-opacity:1" d="M 22.1022,362.423 22.1022,389.577 z" id="boundary" inkscape:connector-curvature="0" />
	<path style="fill:none;stroke:red;stroke-width:1px;stroke-linecap:butt;stroke-linejoin:miter;stroke-opacity:1" d="M 22.1022,362.423 36.5839,347.942 z" id="boundary" inkscape:connector-curvature="0" />
	<path style="fill:none;stroke:red;stroke-width:1px;stroke-linecap:butt;stroke-linejoin:miter;stroke-opacity:1" d="M 22.1022,389.577 22.1022,407.679 z" id="boundary" inkscape:connector-curvature="0" />
	<path style="fill:none;stroke:red;stroke-width:1px;stroke-linecap:butt;stroke-linejoin:miter;stroke-opacity:1" d="M 25.7226,492.759 34.7737,509.051 z" id="boundary" inkscape:connector-curvature="0" />
	<path style="fill:none;stroke:red;stroke-width:1px;stroke-linecap:butt;stroke-linejoin:miter;stroke-opacity:1" d="M 31.1533,588.701 31.1533,606.803 z" id="boundary" inkscape:connector-curvature="0" />
	<path style="fill:none;stroke:red;stroke-width:1px;stroke-linecap:butt;stroke-linejoin:miter;stroke-opacity:1" d="M 31.1533,588.701 45.635,574.219 z" id="boundary" inkscape:connector-curvature="0" />
	<path style="fill:none;stroke:red;stroke-width:1px;stroke-linecap:butt;stroke-linejoin:miter;stroke-opacity:1" d="M 31.1533,606.803 40.2044,623.095 z" id="boundary" inkscape:connector-curvature="0" />
	<path style="fill:none;stroke:red;stroke-width:1px;stroke-linecap:butt;stroke-linejoin:miter;stroke-opacity:1" d="M 34.7737,509.051 49.2555,521.723 z" id="boundary" inkscape:connector-curvature="0" />
	<path style="fill:none;stroke:red;stroke-width:1px;stroke-linecap:butt;stroke-linejoin:miter;stroke-opacity:1" d="M 36.5839,347.942 40.2044,317.168 z" id="boundary" inkscape:connector-curvature="0" />
	<path style="fill:none;stroke:red;stroke-width:1px;stroke-linecap:butt;stroke-linejoin:miter;stroke-opacity:1" d="M 40.2044,317.168 58.3066,308.117 z" id="boundary" inkscape:connector-curvature="0" />
	<path style="fill:none;stroke:red;stroke-width:1px;stroke-linecap:butt;stroke-linejoin:miter;stroke-opacity:1" d="M 40.2044,623.095 52.8759,637.577 z" id="boundary" inkscape:connector-curvature="0" />
	<path style="fill:none;stroke:red;stroke-width:1px;stroke-linecap:butt;stroke-linejoin:miter;stroke-opacity:1" d="M 45.635,574.219 63.7372,574.219 z" id="boundary" inkscape:connector-curvature="0" />
	<path style="fill:none;stroke:red;stroke-width:1px;stroke-linecap:butt;stroke-linejoin:miter;stroke-opacity:1" d="M 49.2555,521.723 67.3577,521.723 z" id="boundary" inkscape:connector-curvature="0" />
	<path style="fill:none;stroke:red;stroke-width:1px;stroke-linecap:butt;stroke-linejoin:miter;stroke-opacity:1" d="M 52.8759,637.577 70.9781,639.387 z" id="boundary" inkscape:connector-curvature="0" />
	<path style="fill:none;stroke:red;stroke-width:1px;stroke-linecap:butt;stroke-linejoin:miter;stroke-opacity:1" d="M 58.3066,290.015 58.3066,308.117 z" id="boundary" inkscape:connector-curvature="0" />
	<path style="fill:none;stroke:red;stroke-width:1px;stroke-linecap:butt;stroke-linejoin:miter;stroke-opacity:1" d="M 58.3066,290.015 72.7883,275.533 z" id="boundary" inkscape:connector-curvature="0" />
	<path style="fill:none;stroke:red;stroke-width:1px;stroke-linecap:butt;stroke-linejoin:miter;stroke-opacity:1" d="M 63.7372,574.219 69.1679,592.321 z" id="boundary" inkscape:connector-curvature="0" />
	<path style="fill:none;stroke:red;stroke-width:1px;stroke-linecap:butt;stroke-linejoin:miter;stroke-opacity:1" d="M 67.3577,521.723 83.6496,530.774 z" id="boundary" inkscape:connector-curvature="0" />
	<path style="fill:none;stroke:red;stroke-width:1px;stroke-linecap:butt;stroke-linejoin:miter;stroke-opacity:1" d="M 69.1679,592.321 69.1679,610.423 z" id="boundary" inkscape:connector-curvature="0" />
	<path style="fill:none;stroke:red;stroke-width:1px;stroke-linecap:butt;stroke-linejoin:miter;stroke-opacity:1" d="M 69.1679,610.423 85.4599,619.474 z" id="boundary" inkscape:connector-curvature="0" />
	<path style="fill:none;stroke:red;stroke-width:1px;stroke-linecap:butt;stroke-linejoin:miter;stroke-opacity:1" d="M 70.9781,639.387 89.0803,639.387 z" id="boundary" inkscape:connector-curvature="0" />
	<path style="fill:none;stroke:red;stroke-width:1px;stroke-linecap:butt;stroke-linejoin:miter;stroke-opacity:1" d="M 72.7883,275.533 87.2701,261.051 z" id="boundary" inkscape:connector-curvature="0" />
	<path style="fill:none;stroke:red;stroke-width:1px;stroke-linecap:butt;stroke-linejoin:miter;stroke-opacity:1" d="M 83.6496,530.774 101.752,530.774 z" id="boundary" inkscape:connector-curvature="0" />
	<path style="fill:none;stroke:red;stroke-width:1px;stroke-linecap:butt;stroke-linejoin:miter;stroke-opacity:1" d="M 85.4599,619.474 103.562,619.474 z" id="boundary" inkscape:connector-curvature="0" />
	<path style="fill:none;stroke:red;stroke-width:1px;stroke-linecap:butt;stroke-linejoin:miter;stroke-opacity:1" d="M 87.2701,261.051 101.752,248.38 z" id="boundary" inkscape:connector-curvature="0" />
	<path style="fill:none;stroke:red;stroke-width:1px;stroke-linecap:butt;stroke-linejoin:miter;stroke-opacity:1" d="M 89.0803,639.387 107.182,639.387 z" id="boundary" inkscape:connector-curvature="0" />
	<path style="fill:none;stroke:red;stroke-width:1px;stroke-linecap:butt;stroke-linejoin:miter;stroke-opacity:1" d="M 101.752,248.38 118.044,239.328 z" id="boundary" inkscape:connector-curvature="0" />
	<path style="fill:none;stroke:red;stroke-width:1px;stroke-linecap:butt;stroke-linejoin:miter;stroke-opacity:1" d="M 101.752,530.774 119.854,530.774 z" id="boundary" inkscape:connector-curvature="0" />
	<path style="fill:none;stroke:red;stroke-width:1px;stroke-linecap:butt;stroke-linejoin:miter;stroke-opacity:1" d="M 103.562,619.474 121.664,615.854 z" id="boundary" inkscape:connector-curvature="0" />
	<path style="fill:none;stroke:red;stroke-width:1px;stroke-linecap:butt;stroke-linejoin:miter;stroke-opacity:1" d="M 107.182,639.387 125.285,639.387 z" id="boundary" inkscape:connector-curvature="0" />
	<path style="fill:none;stroke:red;stroke-width:1px;stroke-linecap:butt;stroke-linejoin:miter;stroke-opacity:1" d="M 118.044,239.328 132.526,224.847 z" id="boundary" inkscape:connector-curvature="0" />
	<path style="fill:none;stroke:red;stroke-width:1px;stroke-linecap:butt;stroke-linejoin:miter;stroke-opacity:1" d="M 119.854,530.774 137.956,530.774 z" id="boundary" inkscape:connector-curvature="0" />
	<path style="fill:none;stroke:red;stroke-width:1px;stroke-linecap:butt;stroke-linejoin:miter;stroke-opacity:1" d="M 121.664,615.854 139.766,606.803 z" id="boundary" inkscape:connector-curvature="0" />
	<path style="fill:none;stroke:red;stroke-width:1px;stroke-linecap:butt;stroke-linejoin:miter;stroke-opacity:1" d="M 125.285,639.387 141.577,630.336 z" id="boundary" inkscape:connector-curvature="0" />
	<path style="fill:none;stroke:red;stroke-width:1px;stroke-linecap:butt;stroke-linejoin:miter;stroke-opacity:1" d="M 132.526,224.847 150.628,215.796 z" id="boundary" inkscape:connector-curvature="0" />
	<path style="fill:none;stroke:red;stroke-width:1px;stroke-linecap:butt;stroke-linejoin:miter;stroke-opacity:1" d="M 137.956,530.774 156.058,530.774 z" id="boundary" inkscape:connector-curvature="0" />
	<path style="fill:none;stroke:red;stroke-width:1px;stroke-linecap:butt;stroke-linejoin:miter;stroke-opacity:1" d="M 139.766,606.803 157.869,597.752 z" id="boundary" inkscape:connector-curvature="0" />
	<path style="fill:none;stroke:red;stroke-width:1px;stroke-linecap:butt;stroke-linejoin:miter;stroke-opacity:1" d="M 141.577,630.336 157.869,621.285 z" id="boundary" inkscape:connector-curvature="0" />
	<path style="fill:none;stroke:red;stroke-width:1px;stroke-linecap:butt;stroke-linejoin:miter;stroke-opacity:1" d="M 150.628,215.796 168.73,206.745 z" id="boundary" inkscape:connector-curvature="0" />
	<path style="fill:none;stroke:red;stroke-width:1px;stroke-linecap:butt;stroke-linejoin:miter;stroke-opacity:1" d="M 156.058,530.774 174.161,530.774 z" id="boundary" inkscape:connector-curvature="0" />
	<path style="fill:none;stroke:red;stroke-width:1px;stroke-linecap:butt;stroke-linejoin:miter;stroke-opacity:1" d="M 157.869,597.752 175.971,588.701 z" id="boundary" inkscape:connector-curvature="0" />
	<path style="fill:none;stroke:red;stroke-width:1px;stroke-linecap:butt;stroke-linejoin:miter;stroke-opacity:1" d="M 157.869,621.285 174.161,630.336 z" id="boundary" inkscape:connector-curvature="0" />
	<path style="fill:none;stroke:red;stroke-width:1px;stroke-linecap:butt;stroke-linejoin:miter;stroke-opacity:1" d="M 168.73,206.745 186.832,197.693 z" id="boundary" inkscape:connector-curvature="0" />
	<path style="fill:none;stroke:red;stroke-width:1px;stroke-linecap:butt;stroke-linejoin:miter;stroke-opacity:1" d="M 174.161,530.774 192.263,530.774 z" id="boundary" inkscape:connector-curvature="0" />
	<path style="fill:none;stroke:red;stroke-width:1px;stroke-linecap:butt;stroke-linejoin:miter;stroke-opacity:1" d="M 174.161,630.336 190.453,621.285 z" id="boundary" inkscape:connector-curvature="0" />
	<path style="fill:none;stroke:red;stroke-width:1px;stroke-linecap:butt;stroke-linejoin:miter;stroke-opacity:1" d="M 175.971,588.701 194.073,583.27 z" id="boundary" inkscape:connector-curvature="0" />
	<path style="fill:none;stroke:red;stroke-width:1px;stroke-linecap:butt;stroke-linejoin:miter;stroke-opacity:1" d="M 186.832,197.693 204.934,188.642 z" id="boundary" inkscape:connector-curvature="0" />
	<path style="fill:none;stroke:red;stroke-width:1px;stroke-linecap:butt;stroke-linejoin:miter;stroke-opacity:1" d="M 190.453,621.285 208.555,621.285 z" id="boundary" inkscape:connector-curvature="0" />
	<path style="fill:none;stroke:red;stroke-width:1px;stroke-linecap:butt;stroke-linejoin:miter;stroke-opacity:1" d="M 192.263,530.774 203.124,545.255 z" id="boundary" inkscape:connector-curvature="0" />
	<path style="fill:none;stroke:red;stroke-width:1px;stroke-linecap:butt;stroke-linejoin:miter;stroke-opacity:1" d="M 194.073,583.27 212.175,579.65 z" id="boundary" inkscape:connector-curvature="0" />
	<path style="fill:none;stroke:red;stroke-width:1px;stroke-linecap:butt;stroke-linejoin:miter;stroke-opacity:1" d="M 203.124,545.255 203.124,563.358 z" id="boundary" inkscape:connector-curvature="0" />
	<path style="fill:none;stroke:red;stroke-width:1px;stroke-linecap:butt;stroke-linejoin:miter;stroke-opacity:1" d="M 203.124,563.358 212.175,579.65 z" id="boundary" inkscape:connector-curvature="0" />
	<path style="fill:none;stroke:red;stroke-width:1px;stroke-linecap:butt;stroke-linejoin:miter;stroke-opacity:1" d="M 204.934,188.642 223.036,179.591 z" id="boundary" inkscape:connector-curvature="0" />
	<path style="fill:none;stroke:red;stroke-width:1px;stroke-linecap:butt;stroke-linejoin:miter;stroke-opacity:1" d="M 208.555,621.285 226.657,619.474 z" id="boundary" inkscape:connector-curvature="0" />
	<path style="fill:none;stroke:red;stroke-width:1px;stroke-linecap:butt;stroke-linejoin:miter;stroke-opacity:1" d="M 223.036,179.591 241.139,175.971 z" id="boundary" inkscape:connector-curvature="0" />
	<path style="fill:none;stroke:red;stroke-width:1px;stroke-linecap:butt;stroke-linejoin:miter;stroke-opacity:1" d="M 226.657,619.474 244.759,612.234 z" id="boundary" inkscape:connector-curvature="0" />
	<path style="fill:none;stroke:red;stroke-width:1px;stroke-linecap:butt;stroke-linejoin:miter;stroke-opacity:1" d="M 241.139,175.971 257.431,166.92 z" id="boundary" inkscape:connector-curvature="0" />
	<path style="fill:none;stroke:red;stroke-width:1px;stroke-linecap:butt;stroke-linejoin:miter;stroke-opacity:1" d="M 244.759,612.234 262.861,612.234 z" id="boundary" inkscape:connector-curvature="0" />
	<path style="fill:none;stroke:red;stroke-width:1px;stroke-linecap:butt;stroke-linejoin:miter;stroke-opacity:1" d="M 257.431,166.92 275.533,166.92 z" id="boundary" inkscape:connector-curvature="0" />
	<path style="fill:none;stroke:red;stroke-width:1px;stroke-linecap:butt;stroke-linejoin:miter;stroke-opacity:1" d="M 262.861,612.234 280.964,612.234 z" id="boundary" inkscape:connector-curvature="0" />
	<path style="fill:none;stroke:red;stroke-width:1px;stroke-linecap:butt;stroke-linejoin:miter;stroke-opacity:1" d="M 275.533,166.92 293.635,166.92 z" id="boundary" inkscape:connector-curvature="0" />
	<path style="fill:none;stroke:red;stroke-width:1px;stroke-linecap:butt;stroke-linejoin:miter;stroke-opacity:1" d="M 280.964,612.234 299.066,612.234 z" id="boundary" inkscape:connector-curvature="0" />
	<path style="fill:none;stroke:red;stroke-width:1px;stroke-linecap:butt;stroke-linejoin:miter;stroke-opacity:1" d="M 293.635,166.92 311.737,166.92 z" id="boundary" inkscape:connector-curvature="0" />
	<path style="fill:none;stroke:red;stroke-width:1px;stroke-linecap:butt;stroke-linejoin:miter;stroke-opacity:1" d="M 299.066,612.234 317.168,612.234 z" id="boundary" inkscape:connector-curvature="0" />
	<path style="fill:none;stroke:red;stroke-width:1px;stroke-linecap:butt;stroke-linejoin:miter;stroke-opacity:1" d="M 311.737,166.92 329.839,166.92 z" id="boundary" inkscape:connector-curvature="0" />
	<path style="fill:none;stroke:red;stroke-width:1px;stroke-linecap:butt;stroke-linejoin:miter;stroke-opacity:1" d="M 317.168,612.234 335.27,612.234 z" id="boundary" inkscape:connector-curvature="0" />
	<path style="fill:none;stroke:red;stroke-width:1px;stroke-linecap:butt;stroke-linejoin:miter;stroke-opacity:1" d="M 320.788,54.6861 320.788,72.7883 z" id="boundary" inkscape:connector-curvature="0" />
	<path style="fill:none;stroke:red;stroke-width:1px;stroke-linecap:butt;stroke-linejoin:miter;stroke-opacity:1" d="M 320.788,54.6861 335.27,40.2044 z" id="boundary" inkscape:connector-curvature="0" />
	<path style="fill:none;stroke:red;stroke-width:1px;stroke-linecap:butt;stroke-linejoin:miter;stroke-opacity:1" d="M 320.788,72.7883 338.891,78.219 z" id="boundary" inkscape:connector-curvature="0" />
	<path style="fill:none;stroke:red;stroke-width:1px;stroke-linecap:butt;stroke-linejoin:miter;stroke-opacity:1" d="M 329.839,166.92 347.942,166.92 z" id="boundary" inkscape:connector-curvature="0" />
	<path style="fill:none;stroke:red;stroke-width:1px;stroke-linecap:butt;stroke-linejoin:miter;stroke-opacity:1" d="M 335.27,40.2044 344.321,22.1022 z" id="boundary" inkscape:connector-curvature="0" />
	<path style="fill:none;stroke:red;stroke-width:1px;stroke-linecap:butt;stroke-linejoin:miter;stroke-opacity:1" d="M 335.27,612.234 353.372,612.234 z" id="boundary" inkscape:connector-curvature="0" />
	<path style="fill:none;stroke:red;stroke-width:1px;stroke-linecap:butt;stroke-linejoin:miter;stroke-opacity:1" d="M 338.891,78.219 356.993,78.219 z" id="boundary" inkscape:connector-curvature="0" />
	<path style="fill:none;stroke:red;stroke-width:1px;stroke-linecap:butt;stroke-linejoin:miter;stroke-opacity:1" d="M 344.321,22.1022 362.423,22.1022 z" id="boundary" inkscape:connector-curvature="0" />
	<path style="fill:none;stroke:red;stroke-width:1px;stroke-linecap:butt;stroke-linejoin:miter;stroke-opacity:1" d="M 347.942,166.92 366.044,166.92 z" id="boundary" inkscape:connector-curvature="0" />
	<path style="fill:none;stroke:red;stroke-width:1px;stroke-linecap:butt;stroke-linejoin:miter;stroke-opacity:1" d="M 353.372,612.234 371.474,612.234 z" id="boundary" inkscape:connector-curvature="0" />
	<path style="fill:none;stroke:red;stroke-width:1px;stroke-linecap:butt;stroke-linejoin:miter;stroke-opacity:1" d="M 356.993,78.219 375.095,78.219 z" id="boundary" inkscape:connector-curvature="0" />
	<path style="fill:none;stroke:red;stroke-width:1px;stroke-linecap:butt;stroke-linejoin:miter;stroke-opacity:1" d="M 362.423,22.1022 380.526,13.0511 z" id="boundary" inkscape:connector-curvature="0" />
	<path style="fill:none;stroke:red;stroke-width:1px;stroke-linecap:butt;stroke-linejoin:miter;stroke-opacity:1" d="M 366.044,99.9416 376.905,114.423 z" id="boundary" inkscape:connector-curvature="0" />
	<path style="fill:none;stroke:red;stroke-width:1px;stroke-linecap:butt;stroke-linejoin:miter;stroke-opacity:1" d="M 366.044,166.92 384.146,163.299 z" id="boundary" inkscape:connector-curvature="0" />
	<path style="fill:none;stroke:red;stroke-width:1px;stroke-linecap:butt;stroke-linejoin:miter;stroke-opacity:1" d="M 371.474,612.234 389.577,612.234 z" id="boundary" inkscape:connector-curvature="0" />
	<path style="fill:none;stroke:red;stroke-width:1px;stroke-linecap:butt;stroke-linejoin:miter;stroke-opacity:1" d="M 376.905,114.423 393.197,123.474 z" id="boundary" inkscape:connector-curvature="0" />
	<path style="fill:none;stroke:red;stroke-width:1px;stroke-linecap:butt;stroke-linejoin:miter;stroke-opacity:1" d="M 380.526,13.0511 398.628,13.0511 z" id="boundary" inkscape:connector-curvature="0" />
	<path style="fill:none;stroke:red;stroke-width:1px;stroke-linecap:butt;stroke-linejoin:miter;stroke-opacity:1" d="M 384.146,163.299 393.197,141.577 z" id="boundary" inkscape:connector-curvature="0" />
	<path style="fill:none;stroke:red;stroke-width:1px;stroke-linecap:butt;stroke-linejoin:miter;stroke-opacity:1" d="M 389.577,612.234 407.679,612.234 z" id="boundary" inkscape:connector-curvature="0" />
	<path style="fill:none;stroke:red;stroke-width:1px;stroke-linecap:butt;stroke-linejoin:miter;stroke-opacity:1" d="M 393.197,123.474 393.197,141.577 z" id="boundary" inkscape:connector-curvature="0" />
	<path style="fill:none;stroke:red;stroke-width:1px;stroke-linecap:butt;stroke-linejoin:miter;stroke-opacity:1" d="M 398.628,13.0511 414.92,4 z" id="boundary" inkscape:connector-curvature="0" />
	<path style="fill:none;stroke:red;stroke-width:1px;stroke-linecap:butt;stroke-linejoin:miter;stroke-opacity:1" d="M 407.679,612.234 425.781,610.423 z" id="boundary" inkscape:connector-curvature="0" />
	<path style="fill:none;stroke:red;stroke-width:1px;stroke-linecap:butt;stroke-linejoin:miter;stroke-opacity:1" d="M 414.92,4 433.022,4 z" id="boundary" inkscape:connector-curvature="0" />
	<path style="fill:none;stroke:red;stroke-width:1px;stroke-linecap:butt;stroke-linejoin:miter;stroke-opacity:1" d="M 422.161,105.372 431.212,121.664 z" id="boundary" inkscape:connector-curvature="0" />
	<path style="fill:none;stroke:red;stroke-width:1px;stroke-linecap:butt;stroke-linejoin:miter;stroke-opacity:1" d="M 422.161,105.372 436.642,92.7007 z" id="boundary" inkscape:connector-curvature="0" />
	<path style="fill:none;stroke:red;stroke-width:1px;stroke-linecap:butt;stroke-linejoin:miter;stroke-opacity:1" d="M 425.781,610.423 440.263,585.08 z" id="boundary" inkscape:connector-curvature="0" />
	<path style="fill:none;stroke:red;stroke-width:1px;stroke-linecap:butt;stroke-linejoin:miter;stroke-opacity:1" d="M 431.212,69.1679 436.642,92.7007 z" id="boundary" inkscape:connector-curvature="0" />
	<path style="fill:none;stroke:red;stroke-width:1px;stroke-linecap:butt;stroke-linejoin:miter;stroke-opacity:1" d="M 431.212,69.1679 449.314,60.1168 z" id="boundary" inkscape:connector-curvature="0" />
	<path style="fill:none;stroke:red;stroke-width:1px;stroke-linecap:butt;stroke-linejoin:miter;stroke-opacity:1" d="M 431.212,121.664 431.212,139.766 z" id="boundary" inkscape:connector-curvature="0" />
	<path style="fill:none;stroke:red;stroke-width:1px;stroke-linecap:butt;stroke-linejoin:miter;stroke-opacity:1" d="M 431.212,139.766 449.314,139.766 z" id="boundary" inkscape:connector-curvature="0" />
	<path style="fill:none;stroke:red;stroke-width:1px;stroke-linecap:butt;stroke-linejoin:miter;stroke-opacity:1" d="M 433.022,4 451.124,4 z" id="boundary" inkscape:connector-curvature="0" />
	<path style="fill:none;stroke:red;stroke-width:1px;stroke-linecap:butt;stroke-linejoin:miter;stroke-opacity:1" d="M 440.263,566.978 440.263,585.08 z" id="boundary" inkscape:connector-curvature="0" />
	<path style="fill:none;stroke:red;stroke-width:1px;stroke-linecap:butt;stroke-linejoin:miter;stroke-opacity:1" d="M 440.263,566.978 456.555,557.927 z" id="boundary" inkscape:connector-curvature="0" />
	<path style="fill:none;stroke:red;stroke-width:1px;stroke-linecap:butt;stroke-linejoin:miter;stroke-opacity:1" d="M 449.314,60.1168 458.365,42.0146 z" id="boundary" inkscape:connector-curvature="0" />
	<path style="fill:none;stroke:red;stroke-width:1px;stroke-linecap:butt;stroke-linejoin:miter;stroke-opacity:1" d="M 449.314,139.766 467.416,139.766 z" id="boundary" inkscape:connector-curvature="0" />
	<path style="fill:none;stroke:red;stroke-width:1px;stroke-linecap:butt;stroke-linejoin:miter;stroke-opacity:1" d="M 451.124,4 465.606,16.6715 z" id="boundary" inkscape:connector-curvature="0" />
	<path style="fill:none;stroke:red;stroke-width:1px;stroke-linecap:butt;stroke-linejoin:miter;stroke-opacity:1" d="M 456.555,557.927 474.657,552.496 z" id="boundary" inkscape:connector-curvature="0" />
	<path style="fill:none;stroke:red;stroke-width:1px;stroke-linecap:butt;stroke-linejoin:miter;stroke-opacity:1" d="M 458.365,42.0146 465.606,16.6715 z" id="boundary" inkscape:connector-curvature="0" />
	<path style="fill:none;stroke:red;stroke-width:1px;stroke-linecap:butt;stroke-linejoin:miter;stroke-opacity:1" d="M 467.416,139.766 485.518,139.766 z" id="boundary" inkscape:connector-curvature="0" />
	<path style="fill:none;stroke:red;stroke-width:1px;stroke-linecap:butt;stroke-linejoin:miter;stroke-opacity:1" d="M 474.657,552.496 492.759,543.445 z" id="boundary" inkscape:connector-curvature="0" />
	<path style="fill:none;stroke:red;stroke-width:1px;stroke-linecap:butt;stroke-linejoin:miter;stroke-opacity:1" d="M 485.518,139.766 501.81,148.818 z" id="boundary" inkscape:connector-curvature="0" />
	<path style="fill:none;stroke:red;stroke-width:1px;stroke-linecap:butt;stroke-linejoin:miter;stroke-opacity:1" d="M 492.759,543.445 510.861,548.876 z" id="boundary" inkscape:connector-curvature="0" />
	<path style="fill:none;stroke:red;stroke-width:1px;stroke-linecap:butt;stroke-linejoin:miter;stroke-opacity:1" d="M 501.81,148.818 519.912,148.818 z" id="boundary" inkscape:connector-curvature="0" />
	<path style="fill:none;stroke:red;stroke-width:1px;stroke-linecap:butt;stroke-linejoin:miter;stroke-opacity:1" d="M 510.861,548.876 528.964,543.445 z" id="boundary" inkscape:connector-curvature="0" />
	<path style="fill:none;stroke:red;stroke-width:1px;stroke-linecap:butt;stroke-linejoin:miter;stroke-opacity:1" d="M 519.912,148.818 538.015,148.818 z" id="boundary" inkscape:connector-curvature="0" />
	<path style="fill:none;stroke:red;stroke-width:1px;stroke-linecap:butt;stroke-linejoin:miter;stroke-opacity:1" d="M 528.964,543.445 547.066,539.825 z" id="boundary" inkscape:connector-curvature="0" />
	<path style="fill:none;stroke:red;stroke-width:1px;stroke-linecap:butt;stroke-linejoin:miter;stroke-opacity:1" d="M 538.015,148.818 556.117,148.818 z" id="boundary" inkscape:connector-curvature="0" />
	<path style="fill:none;stroke:red;stroke-width:1px;stroke-linecap:butt;stroke-linejoin:miter;stroke-opacity:1" d="M 547.066,539.825 565.168,539.825 z" id="boundary" inkscape:connector-curvature="0" />
	<path style="fill:none;stroke:red;stroke-width:1px;stroke-linecap:butt;stroke-linejoin:miter;stroke-opacity:1" d="M 556.117,148.818 574.219,145.197 z" id="boundary" inkscape:connector-curvature="0" />
	<path style="fill:none;stroke:red;stroke-width:1px;stroke-linecap:butt;stroke-linejoin:miter;stroke-opacity:1" d="M 565.168,539.825 581.46,530.774 z" id="boundary" inkscape:connector-curvature="0" />
	<path style="fill:none;stroke:red;stroke-width:1px;stroke-linecap:butt;stroke-linejoin:miter;stroke-opacity:1" d="M 574.219,145.197 588.701,130.715 z" id="boundary" inkscape:connector-curvature="0" />
	<path style="fill:none;stroke:red;stroke-width:1px;stroke-linecap:butt;stroke-linejoin:miter;stroke-opacity:1" d="M 581.46,530.774 597.752,521.723 z" id="boundary" inkscape:connector-curvature="0" />
	<path style="fill:none;stroke:red;stroke-width:1px;stroke-linecap:butt;stroke-linejoin:miter;stroke-opacity:1" d="M 588.701,130.715 604.993,139.766 z" id="boundary" inkscape:connector-curvature="0" />
	<path style="fill:none;stroke:red;stroke-width:1px;stroke-linecap:butt;stroke-linejoin:miter;stroke-opacity:1" d="M 597.752,521.723 614.044,530.774 z" id="boundary" inkscape:connector-curvature="0" />
	<path style="fill:none;stroke:red;stroke-width:1px;stroke-linecap:butt;stroke-linejoin:miter;stroke-opacity:1" d="M 604.993,139.766 612.234,157.869 z" id="boundary" inkscape:connector-curvature="0" />
	<path style="fill:none;stroke:red;stroke-width:1px;stroke-linecap:butt;stroke-linejoin:miter;stroke-opacity:1" d="M 612.234,157.869 612.234,175.971 z" id="boundary" inkscape:connector-curvature="0" />
	<path style="fill:none;stroke:red;stroke-width:1px;stroke-linecap:butt;stroke-linejoin:miter;stroke-opacity:1" d="M 612.234,175.971 630.336,175.971 z" id="boundary" inkscape:connector-curvature="0" />
	<path style="fill:none;stroke:red;stroke-width:1px;stroke-linecap:butt;stroke-linejoin:miter;stroke-opacity:1" d="M 612.234,241.139 621.285,257.431 z" id="boundary" inkscape:connector-curvature="0" />
	<path style="fill:none;stroke:red;stroke-width:1px;stroke-linecap:butt;stroke-linejoin:miter;stroke-opacity:1" d="M 612.234,241.139 630.336,232.088 z" id="boundary" inkscape:connector-curvature="0" />
	<path style="fill:none;stroke:red;stroke-width:1px;stroke-linecap:butt;stroke-linejoin:miter;stroke-opacity:1" d="M 614.044,530.774 630.336,521.723 z" id="boundary" inkscape:connector-curvature="0" />
	<path style="fill:none;stroke:red;stroke-width:1px;stroke-linecap:butt;stroke-linejoin:miter;stroke-opacity:1" d="M 621.285,257.431 639.387,257.431 z" id="boundary" inkscape:connector-curvature="0" />
	<path style="fill:none;stroke:red;stroke-width:1px;stroke-linecap:butt;stroke-linejoin:miter;stroke-opacity:1" d="M 630.336,175.971 648.438,175.971 z" id="boundary" inkscape:connector-curvature="0" />
	<path style="fill:none;stroke:red;stroke-width:1px;stroke-linecap:butt;stroke-linejoin:miter;stroke-opacity:1" d="M 630.336,232.088 648.438,235.708 z" id="boundary" inkscape:connector-curvature="0" />
	<path style="fill:none;stroke:red;stroke-width:1px;stroke-linecap:butt;stroke-linejoin:miter;stroke-opacity:1" d="M 630.336,521.723 648.438,521.723 z" id="boundary" inkscape:connector-curvature="0" />
	<path style="fill:none;stroke:red;stroke-width:1px;stroke-linecap:butt;stroke-linejoin:miter;stroke-opacity:1" d="M 639.387,257.431 657.489,257.431 z" id="boundary" inkscape:connector-curvature="0" />
	<path style="fill:none;stroke:red;stroke-width:1px;stroke-linecap:butt;stroke-linejoin:miter;stroke-opacity:1" d="M 648.438,175.971 666.54,175.971 z" id="boundary" inkscape:connector-curvature="0" />
	<path style="fill:none;stroke:red;stroke-width:1px;stroke-linecap:butt;stroke-linejoin:miter;stroke-opacity:1" d="M 648.438,235.708 664.73,226.657 z" id="boundary" inkscape:connector-curvature="0" />
	<path style="fill:none;stroke:red;stroke-width:1px;stroke-linecap:butt;stroke-linejoin:miter;stroke-opacity:1" d="M 648.438,521.723 666.54,521.723 z" id="boundary" inkscape:connector-curvature="0" />
	<path style="fill:none;stroke:red;stroke-width:1px;stroke-linecap:butt;stroke-linejoin:miter;stroke-opacity:1" d="M 657.489,257.431 673.781,248.38 z" id="boundary" inkscape:connector-curvature="0" />
	<path style="fill:none;stroke:red;stroke-width:1px;stroke-linecap:butt;stroke-linejoin:miter;stroke-opacity:1" d="M 664.73,226.657 682.832,217.606 z" id="boundary" inkscape:connector-curvature="0" />
	<path style="fill:none;stroke:red;stroke-width:1px;stroke-linecap:butt;stroke-linejoin:miter;stroke-opacity:1" d="M 666.54,175.971 681.022,186.832 z" id="boundary" inkscape:connector-curvature="0" />
	<path style="fill:none;stroke:red;stroke-width:1px;stroke-linecap:butt;stroke-linejoin:miter;stroke-opacity:1" d="M 666.54,521.723 684.642,521.723 z" id="boundary" inkscape:connector-curvature="0" />
	<path style="fill:none;stroke:red;stroke-width:1px;stroke-linecap:butt;stroke-linejoin:miter;stroke-opacity:1" d="M 673.781,248.38 691.883,248.38 z" id="boundary" inkscape:connector-curvature="0" />
	<path style="fill:none;stroke:red;stroke-width:1px;stroke-linecap:butt;stroke-linejoin:miter;stroke-opacity:1" d="M 675.591,404.058 675.591,422.161 z" id="boundary" inkscape:connector-curvature="0" />
	<path style="fill:none;stroke:red;stroke-width:1px;stroke-linecap:butt;stroke-linejoin:miter;stroke-opacity:1" d="M 675.591,404.058 693.693,404.058 z" id="boundary" inkscape:connector-curvature="0" />
	<path style="fill:none;stroke:red;stroke-width:1px;stroke-linecap:butt;stroke-linejoin:miter;stroke-opacity:1" d="M 675.591,422.161 693.693,429.401 z" id="boundary" inkscape:connector-curvature="0" />
	<path style="fill:none;stroke:red;stroke-width:1px;stroke-linecap:butt;stroke-linejoin:miter;stroke-opacity:1" d="M 681.022,186.832 682.832,217.606 z" id="boundary" inkscape:connector-curvature="0" />
	<path style="fill:none;stroke:red;stroke-width:1px;stroke-linecap:butt;stroke-linejoin:miter;stroke-opacity:1" d="M 684.642,521.723 700.934,512.672 z" id="boundary" inkscape:connector-curvature="0" />
	<path style="fill:none;stroke:red;stroke-width:1px;stroke-linecap:butt;stroke-linejoin:miter;stroke-opacity:1" d="M 691.883,248.38 709.985,248.38 z" id="boundary" inkscape:connector-curvature="0" />
	<path style="fill:none;stroke:red;stroke-width:1px;stroke-linecap:butt;stroke-linejoin:miter;stroke-opacity:1" d="M 693.693,404.058 708.175,391.387 z" id="boundary" inkscape:connector-curvature="0" />
	<path style="fill:none;stroke:red;stroke-width:1px;stroke-linecap:butt;stroke-linejoin:miter;stroke-opacity:1" d="M 693.693,429.401 708.175,440.263 z" id="boundary" inkscape:connector-curvature="0" />
	<path style="fill:none;stroke:red;stroke-width:1px;stroke-linecap:butt;stroke-linejoin:miter;stroke-opacity:1" d="M 700.934,512.672 711.796,494.569 z" id="boundary" inkscape:connector-curvature="0" />
	<path style="fill:none;stroke:red;stroke-width:1px;stroke-linecap:butt;stroke-linejoin:miter;stroke-opacity:1" d="M 708.175,391.387 726.277,382.336 z" id="boundary" inkscape:connector-curvature="0" />
	<path style="fill:none;stroke:red;stroke-width:1px;stroke-linecap:butt;stroke-linejoin:miter;stroke-opacity:1" d="M 708.175,440.263 711.796,458.365 z" id="boundary" inkscape:connector-curvature="0" />
	<path style="fill:none;stroke:red;stroke-width:1px;stroke-linecap:butt;stroke-linejoin:miter;stroke-opacity:1" d="M 709.985,248.38 728.088,248.38 z" id="boundary" inkscape:connector-curvature="0" />
	<path style="fill:none;stroke:red;stroke-width:1px;stroke-linecap:butt;stroke-linejoin:miter;stroke-opacity:1" d="M 711.796,458.365 720.847,474.657 z" id="boundary" inkscape:connector-curvature="0" />
	<path style="fill:none;stroke:red;stroke-width:1px;stroke-linecap:butt;stroke-linejoin:miter;stroke-opacity:1" d="M 711.796,494.569 720.847,474.657 z" id="boundary" inkscape:connector-curvature="0" />
	<path style="fill:none;stroke:red;stroke-width:1px;stroke-linecap:butt;stroke-linejoin:miter;stroke-opacity:1" d="M 726.277,382.336 738.949,367.854 z" id="boundary" inkscape:connector-curvature="0" />
	<path style="fill:none;stroke:red;stroke-width:1px;stroke-linecap:butt;stroke-linejoin:miter;stroke-opacity:1" d="M 728.088,248.38 746.19,248.38 z" id="boundary" inkscape:connector-curvature="0" />
	<path style="fill:none;stroke:red;stroke-width:1px;stroke-linecap:butt;stroke-linejoin:miter;stroke-opacity:1" d="M 738.949,367.854 757.051,358.803 z" id="boundary" inkscape:connector-curvature="0" />
	<path style="fill:none;stroke:red;stroke-width:1px;stroke-linecap:butt;stroke-linejoin:miter;stroke-opacity:1" d="M 746.19,248.38 764.292,248.38 z" id="boundary" inkscape:connector-curvature="0" />
	<path style="fill:none;stroke:red;stroke-width:1px;stroke-linecap:butt;stroke-linejoin:miter;stroke-opacity:1" d="M 757.051,358.803 775.153,349.752 z" id="boundary" inkscape:connector-curvature="0" />
	<path style="fill:none;stroke:red;stroke-width:1px;stroke-linecap:butt;stroke-linejoin:miter;stroke-opacity:1" d="M 764.292,248.38 782.394,248.38 z" id="boundary" inkscape:connector-curvature="0" />
	<path style="fill:none;stroke:red;stroke-width:1px;stroke-linecap:butt;stroke-linejoin:miter;stroke-opacity:1" d="M 775.153,349.752 791.445,340.701 z" id="boundary" inkscape:connector-curvature="0" />
	<path style="fill:none;stroke:red;stroke-width:1px;stroke-linecap:butt;stroke-linejoin:miter;stroke-opacity:1" d="M 782.394,248.38 800.496,248.38 z" id="boundary" inkscape:connector-curvature="0" />
	<path style="fill:none;stroke:red;stroke-width:1px;stroke-linecap:butt;stroke-linejoin:miter;stroke-opacity:1" d="M 791.445,340.701 809.547,335.27 z" id="boundary" inkscape:connector-curvature="0" />
	<path style="fill:none;stroke:red;stroke-width:1px;stroke-linecap:butt;stroke-linejoin:miter;stroke-opacity:1" d="M 800.496,248.38 818.599,248.38 z" id="boundary" inkscape:connector-curvature="0" />
	<path style="fill:none;stroke:red;stroke-width:1px;stroke-linecap:butt;stroke-linejoin:miter;stroke-opacity:1" d="M 809.547,335.27 827.65,331.65 z" id="boundary" inkscape:connector-curvature="0" />
	<path style="fill:none;stroke:red;stroke-width:1px;stroke-linecap:butt;stroke-linejoin:miter;stroke-opacity:1" d="M 818.599,248.38 836.701,248.38 z" id="boundary" inkscape:connector-curvature="0" />
	<path style="fill:none;stroke:red;stroke-width:1px;stroke-linecap:butt;stroke-linejoin:miter;stroke-opacity:1" d="M 827.65,331.65 845.752,331.65 z" id="boundary" inkscape:connector-curvature="0" />
	<path style="fill:none;stroke:red;stroke-width:1px;stroke-linecap:butt;stroke-linejoin:miter;stroke-opacity:1" d="M 836.701,248.38 854.803,248.38 z" id="boundary" inkscape:connector-curvature="0" />
	<path style="fill:none;stroke:red;stroke-width:1px;stroke-linecap:butt;stroke-linejoin:miter;stroke-opacity:1" d="M 845.752,331.65 860.234,320.788 z" id="boundary" inkscape:connector-curvature="0" />
	<path style="fill:none;stroke:red;stroke-width:1px;stroke-linecap:butt;stroke-linejoin:miter;stroke-opacity:1" d="M 854.803,248.38 871.095,257.431 z" id="boundary" inkscape:connector-curvature="0" />
	<path style="fill:none;stroke:red;stroke-width:1px;stroke-linecap:butt;stroke-linejoin:miter;stroke-opacity:1" d="M 860.234,320.788 878.336,311.737 z" id="boundary" inkscape:connector-curvature="0" />
	<path style="fill:none;stroke:red;stroke-width:1px;stroke-linecap:butt;stroke-linejoin:miter;stroke-opacity:1" d="M 871.095,257.431 887.387,248.38 z" id="boundary" inkscape:connector-curvature="0" />
	<path style="fill:none;stroke:red;stroke-width:1px;stroke-linecap:butt;stroke-linejoin:miter;stroke-opacity:1" d="M 878.336,311.737 896.438,311.737 z" id="boundary" inkscape:connector-curvature="0" />
	<path style="fill:none;stroke:red;stroke-width:1px;stroke-linecap:butt;stroke-linejoin:miter;stroke-opacity:1" d="M 887.387,248.38 905.489,248.38 z" id="boundary" inkscape:connector-curvature="0" />
	<path style="fill:none;stroke:red;stroke-width:1px;stroke-linecap:butt;stroke-linejoin:miter;stroke-opacity:1" d="M 896.438,311.737 914.54,302.686 z" id="boundary" inkscape:connector-curvature="0" />
	<path style="fill:none;stroke:red;stroke-width:1px;stroke-linecap:butt;stroke-linejoin:miter;stroke-opacity:1" d="M 905.489,248.38 923.591,248.38 z" id="boundary" inkscape:connector-curvature="0" />
	<path style="fill:none;stroke:red;stroke-width:1px;stroke-linecap:butt;stroke-linejoin:miter;stroke-opacity:1" d="M 914.54,302.686 932.642,302.686 z" id="boundary" inkscape:connector-curvature="0" />
	<path style="fill:none;stroke:red;stroke-width:1px;stroke-linecap:butt;stroke-linejoin:miter;stroke-opacity:1" d="M 923.591,248.38 938.073,233.898 z" id="boundary" inkscape:connector-curvature="0" />
	<path style="fill:none;stroke:red;stroke-width:1px;stroke-linecap:butt;stroke-linejoin:miter;stroke-opacity:1" d="M 932.642,302.686 950.745,293.635 z" id="boundary" inkscape:connector-curvature="0" />
	<path style="fill:none;stroke:red;stroke-width:1px;stroke-linecap:butt;stroke-linejoin:miter;stroke-opacity:1" d="M 938.073,233.898 952.555,223.036 z" id="boundary" inkscape:connector-curvature="0" />
	<path style="fill:none;stroke:red;stroke-width:1px;stroke-linecap:butt;stroke-linejoin:miter;stroke-opacity:1" d="M 950.745,293.635 965.226,277.343 z" id="boundary" inkscape:connector-curvature="0" />
	<path style="fill:none;stroke:red;stroke-width:1px;stroke-linecap:butt;stroke-linejoin:miter;stroke-opacity:1" d="M 952.555,223.036 970.657,221.226 z" id="boundary" inkscape:connector-curvature="0" />
	<path style="fill:none;stroke:red;stroke-width:1px;stroke-linecap:butt;stroke-linejoin:miter;stroke-opacity:1" d="M 965.226,277.343 983.328,259.241 z" id="boundary" inkscape:connector-curvature="0" />
	<path style="fill:none;stroke:red;stroke-width:1px;stroke-linecap:butt;stroke-linejoin:miter;stroke-opacity:1" d="M 970.657,221.226 988.759,223.036 z" id="boundary" inkscape:connector-curvature="0" />
	<path style="fill:none;stroke:red;stroke-width:1px;stroke-linecap:butt;stroke-linejoin:miter;stroke-opacity:1" d="M 983.328,259.241 996,241.139 z" id="boundary" inkscape:connector-curvature="0" />
	<path style="fill:none;stroke:red;stroke-width:1px;stroke-linecap:butt;stroke-linejoin:miter;stroke-opacity:1" d="M 988.759,223.036 996,241.139 z" id="boundary" inkscape:connector-curvature="0" />
	<circle cx="4" cy="461.985" r="4" fill="#0" id="circle0"/>
	<circle cx="13.0511" cy="425.781" r="4" fill="#0" id="circle1"/>
	<circle cx="13.0511" cy="443.883" r="4" fill="#0" id="circle2"/>
	<circle cx="18.4818" cy="474.657" r="4" fill="#0" id="circle3"/>
	<circle cx="22.1022" cy="362.423" r="4" fill="#0" id="circle4"/>
	<circle cx="22.1022" cy="389.577" r="4" fill="#0" id="circle5"/>
	<circle cx="22.1022" cy="407.679" r="4" fill="#0" id="circle6"/>
	<circle cx="25.7226" cy="492.759" r="4" fill="#0" id="circle7"/>
	<circle cx="31.1533" cy="588.701" r="4" fill="#0" id="circle8"/>
	<circle cx="31.1533" cy="606.803" r="4" fill="#0" id="circle9"/>
	<circle cx="34.7737" cy="509.051" r="4" fill="#0" id="circle10"/>
	<circle cx="36.5839" cy="347.942" r="4" fill="#0" id="circle11"/>
	<circle cx="40.2044" cy="317.168" r="4" fill="#0" id="circle12"/>
	<circle cx="40.2044" cy="623.095" r="4" fill="#0" id="circle13"/>
	<circle cx="45.635" cy="574.219" r="4" fill="#0" id="circle14"/>
	<circle cx="49.2555" cy="521.723" r="4" fill="#0" id="circle15"/>
	<circle cx="52.8759" cy="637.577" r="4" fill="#0" id="circle16"/>
	<circle cx="58.3066" cy="290.015" r="4" fill="#0" id="circle17"/>
	<circle cx="58.3066" cy="308.117" r="4" fill="#0" id="circle18"/>
	<circle cx="63.7372" cy="574.219" r="4" fill="#0" id="circle19"/>
	<circle cx="67.3577" cy="521.723" r="4" fill="#0" id="circle20"/>
	<circle cx="69.1679" cy="592.321" r="4" fill="#0" id="circle21"/>
	<circle cx="69.1679" cy="610.423" r="4" fill="#0" id="circle22"/>
	<circle cx="70.9781" cy="639.387" r="4" fill="#0" id="circle23"/>
	<circle cx="72.7883" cy="275.533" r="4" fill="#0" id="circle24"/>
	<circle cx="83.6496" cy="530.774" r="4" fill="#0" id="circle25"/>
	<circle cx="85.4599" cy="619.474" r="4" fill="#0" id="circle26"/>
	<circle cx="87.2701" cy="261.051" r="4" fill="#0" id="circle27"/>
	<circle cx="89.0803" cy="639.387" r="4" fill="#0" id="circle28"/>
	<circle cx="101.752" cy="248.38" r="4" fill="#0" id="circle29"/>
	<circle cx="101.752" cy="530.774" r="4" fill="#0" id="circle30"/>
	<circle cx="103.562" cy="619.474" r="4" fill="#0" id="circle31"/>
	<circle cx="107.182" cy="639.387" r="4" fill="#0" id="circle32"/>
	<circle cx="118.044" cy="239.328" r="4" fill="#0" id="circle33"/>
	<circle cx="119.854" cy="530.774" r="4" fill="#0" id="circle34"/>
	<circle cx="121.664" cy="615.854" r="4" fill="#0" id="circle35"/>
	<circle cx="125.285" cy="639.387" r="4" fill="#0" id="circle36"/>
	<circle cx="132.526" cy="224.847" r="4" fill="#0" id="circle37"/>
	<circle cx="137.956" cy="530.774" r="4" fill="#0" id="circle38"/>
	<circle cx="139.766" cy="606.803" r="4" fill="#0" id="circle39"/>
	<circle cx="141.577" cy="630.336" r="4" fill="#0" id="circle40"/>
	<circle cx="150.628" cy="215.796" r="4" fill="#0" id="circle41"/>
	<circle cx="156.058" cy="530.774" r="4" fill="#0" id="circle42"/>
	<circle cx="157.869" cy="597.752" r="4" fill="#0" id="circle43"/>
	<circle cx="157.869" cy="621.285" r="4" fill="#0" id="circle44"/>
	<circle cx="168.73" cy="206.745" r="4" fill="#0" id="circle45"/>
	<circle cx="174.161" cy="530.774" r="4" fill="#0" id="circle46"/>
	<circle cx="174.161" cy="630.336" r="4" fill="#0" id="circle47"/>
	<circle cx="175.971" cy="588.701" r="4" fill="#0" id="circle48"/>
	<circle cx="186.832" cy="197.693" r="4" fill="#0" id="circle49"/>
	<circle cx="190.453" cy="621.285" r="4" fill="#0" id="circle50"/>
	<circle cx="192.263" cy="530.774" r="4" fill="#0" id="circle51"/>
	<circle cx="194.073" cy="583.27" r="4" fill="#0" id="circle52"/>
	<circle cx="203.124" cy="545.255" r="4" fill="#0" id="circle53"/>
	<circle cx="203.124" cy="563.358" r="4" fill="#0" id="circle54"/>
	<circle cx="204.934" cy="188.642" r="4" fill="#0" id="circle55"/>
	<circle cx="208.555" cy="621.285" r="4" fill="#0" id="circle56"/>
	<circle cx="212.175" cy="579.65" r="4" fill="#0" id="circle57"/>
	<circle cx="223.036" cy="179.591" r="4" fill="#0" id="circle58"/>
	<circle cx="226.657" cy="619.474" r="4" fill="#0" id="circle59"/>
	<circle cx="241.139" cy="175.971" r="4" fill="#0" id="circle60"/>
	<circle cx="244.759" cy="612.234" r="4" fill="#0" id="circle61"/>
	<circle cx="257.431" cy="166.92" r="4" fill="#0" id="circle62"/>
	<circle cx="262.861" cy="612.234" r="4" fill="#0" id="circle63"/>
	<circle cx="275.533" cy="166.92" r="4" fill="#0" id="circle64"/>
	<circle cx="280.964" cy="612.234" r="4" fill="#0" id="circle65"/>
	<circle cx="293.635" cy="166.92" r="4" fill="#0" id="circle66"/>
	<circle cx="299.066" cy="612.234" r="4" fill="#0" id="circle67"/>
	<circle cx="302.686" cy="63.7372" r="4" fill="#0" id="circle68"/>
	<circle cx="311.737" cy="166.92" r="4" fill="#0" id="circle69"/>
	<circle cx="317.168" cy="612.234" r="4" fill="#0" id="circle70"/>
	<circle cx="320.788" cy="54.6861" r="4" fill="#0" id="circle71"/>
	<circle cx="320.788" cy="72.7883" r="4" fill="#0" id="circle72"/>
	<circle cx="329.839" cy="166.92" r="4" fill="#0" id="circle73"/>
	<circle cx="335.27" cy="40.2044" r="4" fill="#0" id="circle74"/>
	<circle cx="335.27" cy="612.234" r="4" fill="#0" id="circle75"/>
	<circle cx="338.891" cy="78.219" r="4" fill="#0" id="circle76"/>
	<circle cx="344.321" cy="22.1022" r="4" fill="#0" id="circle77"/>
	<circle cx="347.942" cy="166.92" r="4" fill="#0" id="circle78"/>
	<circle cx="353.372" cy="612.234" r="4" fill="#0" id="circle79"/>
	<circle cx="356.993" cy="78.219" r="4" fill="#0" id="circle80"/>
	<circle cx="362.423" cy="22.1022" r="4" fill="#0" id="circle81"/>
	<circle cx="366.044" cy="99.9416" r="4" fill="#0" id="circle82"/>
	<circle cx="366.044" cy="166.92" r="4" fill="#0" id="circle83"/>
	<circle cx="371.474" cy="612.234" r="4" fill="#0" id="circle84"/>
	<circle cx="375.095" cy="78.219" r="4" fill="#0" id="circle85"/>
	<circle cx="376.905" cy="114.423" r="4" fill="#0" id="circle86"/>
	<circle cx="380.526" cy="13.0511" r="4" fill="#0" id="circle87"/>
	<circle cx="384.146" cy="163.299" r="4" fill="#0" id="circle88"/>
	<circle cx="389.577" cy="612.234" r="4" fill="#0" id="circle89"/>
	<circle cx="393.197" cy="123.474" r="4" fill="#0" id="circle90"/>
	<circle cx="393.197" cy="141.577" r="4" fill="#0" id="circle91"/>
	<circle cx="398.628" cy="13.0511" r="4" fill="#0" id="circle92"/>
	<circle cx="407.679" cy="612.234" r="4" fill="#0" id="circle93"/>
	<circle cx="414.92" cy="4" r="4" fill="#0" id="circle94"/>
	<circle cx="422.161" cy="105.372" r="4" fill="#0" id="circle95"/>
	<circle cx="425.781" cy="610.423" r="4" fill="#0" id="circle96"/>
	<circle cx="431.212" cy="69.1679" r="4" fill="#0" id="circle97"/>
	<circle cx="431.212" cy="121.664" r="4" fill="#0" id="circle98"/>
	<circle cx="431.212" cy="139.766" r="4" fill="#0" id="circle99"/>
	<circle cx="433.022" cy="4" r="4" fill="#0" id="circle100"/>
	<circle cx="436.642" cy="92.7007" r="4" fill="#0" id="circle101"/>
	<circle cx="440.263" cy="566.978" r="4" fill="#0" id="circle102"/>
	<circle cx="440.263" cy="585.08" r="4" fill="#0" id="circle103"/>
	<circle cx="449.314" cy="60.1168" r="4" fill="#0" id="circle104"/>
	<circle cx="449.314" cy="139.766" r="4" fill="#0" id="circle105"/>
	<circle cx="451.124" cy="4" r="4" fill="#0" id="circle106"/>
	<circle cx="456.555" cy="557.927" r="4" fill="#0" id="circle107"/>
	<circle cx="458.365" cy="42.0146" r="4" fill="#0" id="circle108"/>
	<circle cx="465.606" cy="16.6715" r="4" fill="#0" id="circle109"/>
	<circle cx="467.416" cy="139.766" r="4" fill="#0" id="circle110"/>
	<circle cx="474.657" cy="552.496" r="4" fill="#0" id="circle111"/>
	<circle cx="485.518" cy="139.766" r="4" fill="#0" id="circle112"/>
	<circle cx="492.759" cy="543.445" r="4" fill="#0" id="circle113"/>
	<circle cx="501.81" cy="148.818" r="4" fill="#0" id="circle114"/>
	<circle cx="510.861" cy="548.876" r="4" fill="#0" id="circle115"/>
	<circle cx="519.912" cy="148.818" r="4" fill="#0" id="circle116"/>
	<circle cx="528.964" cy="543.445" r="4" fill="#0" id="circle117"/>
	<circle cx="538.015" cy="148.818" r="4" fill="#0" id="circle118"/>
	<circle cx="547.066" cy="539.825" r="4" fill="#0" id="circle119"/>
	<circle cx="556.117" cy="148.818" r="4" fill="#0" id="circle120"/>
	<circle cx="565.168" cy="539.825" r="4" fill="#0" id="circle121"/>
	<circle cx="574.219" cy="145.197" r="4" fill="#0" id="circle122"/>
	<circle cx="581.46" cy="530.774" r="4" fill="#0" id="circle123"/>
	<circle cx="588.701" cy="130.715" r="4" fill="#0" id="circle124"/>
	<circle cx="597.752" cy="521.723" r="4" fill="#0" id="circle125"/>
	<circle cx="604.993" cy="139.766" r="4" fill="#0" id="circle126"/>
	<circle cx="612.234" cy="157.869" r="4" fill="#0" id="circle127"/>
	<circle cx="612.234" cy="175.971" r="4" fill="#0" id="circle128"/>
	<circle cx="612.234" cy="241.139" r="4" fill="#0" id="circle129"/>
	<circle cx="614.044" cy="530.774" r="4" fill="#0" id="circle130"/>
	<circle cx="621.285" cy="257.431" r="4" fill="#0" id="circle131"/>
	<circle cx="630.336" cy="175.971" r="4" fill="#0" id="circle132"/>
	<circle cx="630.336" cy="232.088" r="4" fill="#0" id="circle133"/>
	<circle cx="630.336" cy="521.723" r="4" fill="#0" id="circle134"/>
	<circle cx="639.387" cy="257.431" r="4" fill="#0" id="circle135"/>
	<circle cx="648.438" cy="175.971" r="4" fill="#0" id="circle136"/>
	<circle cx="648.438" cy="235.708" r="4" fill="#0" id="circle137"/>
	<circle cx="648.438" cy="521.723" r="4" fill="#0" id="circle138"/>
	<circle cx="657.489" cy="257.431" r="4" fill="#0" id="circle139"/>
	<circle cx="664.73" cy="226.657" r="4" fill="#0" id="circle140"/>
	<circle cx="666.54" cy="175.971" r="4" fill="#0" id="circle141"/>
	<circle cx="666.54" cy="521.723" r="4" fill="#0" id="circle142"/>
	<circle cx="673.781" cy="248.38" r="4" fill="#0" id="circle143"/>
	<circle cx="675.591" cy="404.058" r="4" fill="#0" id="circle144"/>
	<circle cx="675.591" cy="422.161" r="4" fill="#0" id="circle145"/>
	<circle cx="681.022" cy="186.832" r="4" fill="#0" id="circle146"/>
	<circle cx="682.832" cy="217.606" r="4" fill="#0" id="circle147"/>
	<circle cx="684.642" cy="521.723" r="4" fill="#0" id="circle148"/>
	<circle cx="691.883" cy="248.38" r="4" fill="#0" id="circle149"/>
	<circle cx="693.693" cy="404.058" r="4" fill="#0" id="circle150"/>
	<circle cx="693.693" cy="429.401" r="4" fill="#0" id="circle151"/>
	<circle cx="700.934" cy="512.672" r="4" fill="#0" id="circle152"/>
	<circle cx="708.175" cy="391.387" r="4" fill="#0" id="circle153"/>
	<circle cx="708.175" cy="440.263" r="4" fill="#0" id="circle154"/>
	<circle cx="709.985" cy="248.38" r="4" fill="#0" id="circle155"/>
	<circle cx="711.796" cy="458.365" r="4" fill="#0" id="circle156"/>
	<circle cx="711.796" cy="494.569" r="4" fill="#0" id="circle157"/>
	<circle cx="720.847" cy="474.657" r="4" fill="#0" id="circle158"/>
	<circle cx="726.277" cy="382.336" r="4" fill="#0" id="circle159"/>
	<circle cx="728.088" cy="248.38" r="4" fill="#0" id="circle160"/>
	<circle cx="738.949" cy="367.854" r="4" fill="#0" id="circle161"/>
	<circle cx="746.19" cy="248.38" r="4" fill="#0" id="circle162"/>
	<circle cx="757.051" cy="358.803" r="4" fill="#0" id="circle163"/>
	<circle cx="764.292" cy="248.38" r="4" fill="#0" id="circle164"/>
	<circle cx="775.153" cy="349.752" r="4" fill="#0" id="circle165"/>
	<circle cx="782.394" cy="248.38" r="4" fill="#0" id="circle166"/>
	<circle cx="791.445" cy="340.701" r="4" fill="#0" id="circle167"/>
	<circle cx="800.496" cy="248.38" r="4" fill="#0" id="circle168"/>
	<circle cx="809.547" cy="335.27" r="4" fill="#0" id="circle169"/>
	<circle cx="818.599" cy="248.38" r="4" fill="#0" id="circle170"/>
	<circle cx="827.65" cy="331.65" r="4" fill="#0" id="circle171"/>
	<circle cx="836.701" cy="248.38" r="4" fill="#0" id="circle172"/>
	<circle cx="845.752" cy="331.65" r="4" fill="#0" id="circle173"/>
	<circle cx="854.803" cy="248.38" r="4" fill="#0" id="circle174"/>
	<circle cx="860.234" cy="320.788" r="4" fill="#0" id="circle175"/>
	<circle cx="871.095" cy="257.431" r="4" fill="#0" id="circle176"/>
	<circle cx="878.336" cy="311.737" r="4" fill="#0" id="circle177"/>
	<circle cx="887.387" cy="248.38" r="4" fill="#0" id="circle178"/>
	<circle cx="896.438" cy="311.737" r="4" fill="#0" id="circle179"/>
	<circle cx="905.489" cy="248.38" r="4" fill="#0" id="circle180"/>
	<circle cx="914.54" cy="302.686" r="4" fill="#0" id="circle181"/>
	<circle cx="923.591" cy="248.38" r="4" fill="#0" id="circle182"/>
	<circle cx="932.642" cy="302.686" r="4" fill="#0" id="circle183"/>
	<circle cx="938.073" cy="233.898" r="4" fill="#0" id="circle184"/>
	<circle cx="950.745" cy="293.635" r="4" fill="#0" id="circle185"/>
	<circle cx="952.555" cy="223.036" r="4" fill="#0" id="circle186"/>
	<circle cx="965.226" cy="277.343" r="4" fill="#0" id="circle187"/>
	<circle cx="970.657" cy="221.226" r="4" fill="#0" id="circle188"/>
	<circle cx="983.328" cy="259.241" r="4" fill="#0" id="circle189"/>
	<circle cx="988.759" cy="223.036" r="4" fill="#0" id="circle190"/>
	<circle cx="996" cy="241.139" r="4" fill="#0" id="circle191"/>
	</g>
</svg>