<?xml version="1.0" encoding="UTF-8" standalone="no"?>
<!-- Created with CurveBenchmark -->
<svg
	xmlns:dc="http://purl.org/dc/elements/1.1/"
	xmlns:cc="http://creativecommons.org/ns#"
	xmlns:rdf="http://www.w3.org/1999/02/22-rdf-syntax-ns#"
	xmlns:svg="http://www.w3.org/2000/svg"
	xmlns="http://www.w3.org/2000/svg"
	xmlns:sodipodi="http://sodipodi.sourceforge.net/DTD/sodipodi-0.dtd"
	xmlns:inkscape="http://www.inkscape.org/namespaces/inkscape"
	width="1000"
	height="1000"
	id="svg2"
	version="1.1"
	sodipodi:docname="manifold/hnncrust-fish0759.png.txt">
<defs
	id="defs4" />
<metadata
	id="metadata7">
	<rdf:RDF>
		<cc:Work
			rdf:about="">
			<dc:format>image/svg+xml</dc:format>
			<dc:type
				rdf:resource="http://purl.org/dc/dcmitype/StillImage" />
			<dc:title></dc:title>
		</cc:Work>
	</rdf:RDF>
</metadata>
<g
	inkscape:label="Layer 1"
	inkscape:groupmode="layer"
	id="layer1">
	<path style="fill:none;stroke:red;stroke-width:1px;stroke-linecap:butt;stroke-linejoin:miter;stroke-opacity:1" d="M 4,134.316 10.6488,146.284 z" id="boundary" inkscape:connector-curvature="0" />
	<path style="fill:none;stroke:red;stroke-width:1px;stroke-linecap:butt;stroke-linejoin:miter;stroke-opacity:1" d="M 4,134.316 14.6381,123.678 z" id="boundary" inkscape:connector-curvature="0" />
	<path style="fill:none;stroke:red;stroke-width:1px;stroke-linecap:butt;stroke-linejoin:miter;stroke-opacity:1" d="M 10.6488,146.284 10.6488,159.582 z" id="boundary" inkscape:connector-curvature="0" />
	<path style="fill:none;stroke:red;stroke-width:1px;stroke-linecap:butt;stroke-linejoin:miter;stroke-opacity:1" d="M 10.6488,159.582 23.9464,164.901 z" id="boundary" inkscape:connector-curvature="0" />
	<path style="fill:none;stroke:red;stroke-width:1px;stroke-linecap:butt;stroke-linejoin:miter;stroke-opacity:1" d="M 14.6381,123.678 25.2761,113.04 z" id="boundary" inkscape:connector-curvature="0" />
	<path style="fill:none;stroke:red;stroke-width:1px;stroke-linecap:butt;stroke-linejoin:miter;stroke-opacity:1" d="M 23.9464,164.901 27.9357,178.198 z" id="boundary" inkscape:connector-curvature="0" />
	<path style="fill:none;stroke:red;stroke-width:1px;stroke-linecap:butt;stroke-linejoin:miter;stroke-opacity:1" d="M 25.2761,113.04 38.5737,106.391 z" id="boundary" inkscape:connector-curvature="0" />
	<path style="fill:none;stroke:red;stroke-width:1px;stroke-linecap:butt;stroke-linejoin:miter;stroke-opacity:1" d="M 27.9357,178.198 41.2332,183.517 z" id="boundary" inkscape:connector-curvature="0" />
	<path style="fill:none;stroke:red;stroke-width:1px;stroke-linecap:butt;stroke-linejoin:miter;stroke-opacity:1" d="M 38.5737,106.391 51.8713,103.732 z" id="boundary" inkscape:connector-curvature="0" />
	<path style="fill:none;stroke:red;stroke-width:1px;stroke-linecap:butt;stroke-linejoin:miter;stroke-opacity:1" d="M 41.2332,183.517 51.8713,191.496 z" id="boundary" inkscape:connector-curvature="0" />
	<path style="fill:none;stroke:red;stroke-width:1px;stroke-linecap:butt;stroke-linejoin:miter;stroke-opacity:1" d="M 51.8713,103.732 63.8391,97.0831 z" id="boundary" inkscape:connector-curvature="0" />
	<path style="fill:none;stroke:red;stroke-width:1px;stroke-linecap:butt;stroke-linejoin:miter;stroke-opacity:1" d="M 51.8713,191.496 63.8391,198.145 z" id="boundary" inkscape:connector-curvature="0" />
	<path style="fill:none;stroke:red;stroke-width:1px;stroke-linecap:butt;stroke-linejoin:miter;stroke-opacity:1" d="M 63.8391,97.0831 77.1367,94.4236 z" id="boundary" inkscape:connector-curvature="0" />
	<path style="fill:none;stroke:red;stroke-width:1px;stroke-linecap:butt;stroke-linejoin:miter;stroke-opacity:1" d="M 63.8391,198.145 77.1367,198.145 z" id="boundary" inkscape:connector-curvature="0" />
	<path style="fill:none;stroke:red;stroke-width:1px;stroke-linecap:butt;stroke-linejoin:miter;stroke-opacity:1" d="M 77.1367,94.4236 90.4343,90.4343 z" id="boundary" inkscape:connector-curvature="0" />
	<path style="fill:none;stroke:red;stroke-width:1px;stroke-linecap:butt;stroke-linejoin:miter;stroke-opacity:1" d="M 77.1367,198.145 89.1046,204.794 z" id="boundary" inkscape:connector-curvature="0" />
	<path style="fill:none;stroke:red;stroke-width:1px;stroke-linecap:butt;stroke-linejoin:miter;stroke-opacity:1" d="M 89.1046,204.794 101.072,211.442 z" id="boundary" inkscape:connector-curvature="0" />
	<path style="fill:none;stroke:red;stroke-width:1px;stroke-linecap:butt;stroke-linejoin:miter;stroke-opacity:1" d="M 90.4343,90.4343 102.402,83.7855 z" id="boundary" inkscape:connector-curvature="0" />
	<path style="fill:none;stroke:red;stroke-width:1px;stroke-linecap:butt;stroke-linejoin:miter;stroke-opacity:1" d="M 101.072,211.442 114.37,211.442 z" id="boundary" inkscape:connector-curvature="0" />
	<path style="fill:none;stroke:red;stroke-width:1px;stroke-linecap:butt;stroke-linejoin:miter;stroke-opacity:1" d="M 102.402,83.7855 115.7,83.7855 z" id="boundary" inkscape:connector-curvature="0" />
	<path style="fill:none;stroke:red;stroke-width:1px;stroke-linecap:butt;stroke-linejoin:miter;stroke-opacity:1" d="M 114.37,211.442 126.338,218.091 z" id="boundary" inkscape:connector-curvature="0" />
	<path style="fill:none;stroke:red;stroke-width:1px;stroke-linecap:butt;stroke-linejoin:miter;stroke-opacity:1" d="M 115.7,83.7855 128.997,83.7855 z" id="boundary" inkscape:connector-curvature="0" />
	<path style="fill:none;stroke:red;stroke-width:1px;stroke-linecap:butt;stroke-linejoin:miter;stroke-opacity:1" d="M 126.338,218.091 139.635,218.091 z" id="boundary" inkscape:connector-curvature="0" />
	<path style="fill:none;stroke:red;stroke-width:1px;stroke-linecap:butt;stroke-linejoin:miter;stroke-opacity:1" d="M 128.997,83.7855 140.965,77.1367 z" id="boundary" inkscape:connector-curvature="0" />
	<path style="fill:none;stroke:red;stroke-width:1px;stroke-linecap:butt;stroke-linejoin:miter;stroke-opacity:1" d="M 139.635,218.091 152.933,222.08 z" id="boundary" inkscape:connector-curvature="0" />
	<path style="fill:none;stroke:red;stroke-width:1px;stroke-linecap:butt;stroke-linejoin:miter;stroke-opacity:1" d="M 140.965,77.1367 154.263,77.1367 z" id="boundary" inkscape:connector-curvature="0" />
	<path style="fill:none;stroke:red;stroke-width:1px;stroke-linecap:butt;stroke-linejoin:miter;stroke-opacity:1" d="M 152.933,222.08 166.231,224.74 z" id="boundary" inkscape:connector-curvature="0" />
	<path style="fill:none;stroke:red;stroke-width:1px;stroke-linecap:butt;stroke-linejoin:miter;stroke-opacity:1" d="M 154.263,77.1367 167.56,77.1367 z" id="boundary" inkscape:connector-curvature="0" />
	<path style="fill:none;stroke:red;stroke-width:1px;stroke-linecap:butt;stroke-linejoin:miter;stroke-opacity:1" d="M 166.231,224.74 179.528,224.74 z" id="boundary" inkscape:connector-curvature="0" />
	<path style="fill:none;stroke:red;stroke-width:1px;stroke-linecap:butt;stroke-linejoin:miter;stroke-opacity:1" d="M 167.56,77.1367 179.528,70.4879 z" id="boundary" inkscape:connector-curvature="0" />
	<path style="fill:none;stroke:red;stroke-width:1px;stroke-linecap:butt;stroke-linejoin:miter;stroke-opacity:1" d="M 179.528,70.4879 192.826,70.4879 z" id="boundary" inkscape:connector-curvature="0" />
	<path style="fill:none;stroke:red;stroke-width:1px;stroke-linecap:butt;stroke-linejoin:miter;stroke-opacity:1" d="M 179.528,224.74 191.496,231.389 z" id="boundary" inkscape:connector-curvature="0" />
	<path style="fill:none;stroke:red;stroke-width:1px;stroke-linecap:butt;stroke-linejoin:miter;stroke-opacity:1" d="M 191.496,231.389 204.794,231.389 z" id="boundary" inkscape:connector-curvature="0" />
	<path style="fill:none;stroke:red;stroke-width:1px;stroke-linecap:butt;stroke-linejoin:miter;stroke-opacity:1" d="M 192.826,70.4879 206.123,70.4879 z" id="boundary" inkscape:connector-curvature="0" />
	<path style="fill:none;stroke:red;stroke-width:1px;stroke-linecap:butt;stroke-linejoin:miter;stroke-opacity:1" d="M 204.794,231.389 218.091,231.389 z" id="boundary" inkscape:connector-curvature="0" />
	<path style="fill:none;stroke:red;stroke-width:1px;stroke-linecap:butt;stroke-linejoin:miter;stroke-opacity:1" d="M 206.123,70.4879 218.091,63.8391 z" id="boundary" inkscape:connector-curvature="0" />
	<path style="fill:none;stroke:red;stroke-width:1px;stroke-linecap:butt;stroke-linejoin:miter;stroke-opacity:1" d="M 218.091,63.8391 231.389,63.8391 z" id="boundary" inkscape:connector-curvature="0" />
	<path style="fill:none;stroke:red;stroke-width:1px;stroke-linecap:butt;stroke-linejoin:miter;stroke-opacity:1" d="M 218.091,231.389 231.389,234.048 z" id="boundary" inkscape:connector-curvature="0" />
	<path style="fill:none;stroke:red;stroke-width:1px;stroke-linecap:butt;stroke-linejoin:miter;stroke-opacity:1" d="M 231.389,63.8391 243.357,57.1903 z" id="boundary" inkscape:connector-curvature="0" />
	<path style="fill:none;stroke:red;stroke-width:1px;stroke-linecap:butt;stroke-linejoin:miter;stroke-opacity:1" d="M 231.389,234.048 244.686,238.038 z" id="boundary" inkscape:connector-curvature="0" />
	<path style="fill:none;stroke:red;stroke-width:1px;stroke-linecap:butt;stroke-linejoin:miter;stroke-opacity:1" d="M 243.357,57.1903 256.654,57.1903 z" id="boundary" inkscape:connector-curvature="0" />
	<path style="fill:none;stroke:red;stroke-width:1px;stroke-linecap:butt;stroke-linejoin:miter;stroke-opacity:1" d="M 244.686,238.038 257.984,238.038 z" id="boundary" inkscape:connector-curvature="0" />
	<path style="fill:none;stroke:red;stroke-width:1px;stroke-linecap:butt;stroke-linejoin:miter;stroke-opacity:1" d="M 256.654,57.1903 269.952,57.1903 z" id="boundary" inkscape:connector-curvature="0" />
	<path style="fill:none;stroke:red;stroke-width:1px;stroke-linecap:butt;stroke-linejoin:miter;stroke-opacity:1" d="M 257.984,238.038 269.952,244.686 z" id="boundary" inkscape:connector-curvature="0" />
	<path style="fill:none;stroke:red;stroke-width:1px;stroke-linecap:butt;stroke-linejoin:miter;stroke-opacity:1" d="M 269.952,57.1903 281.92,50.5416 z" id="boundary" inkscape:connector-curvature="0" />
	<path style="fill:none;stroke:red;stroke-width:1px;stroke-linecap:butt;stroke-linejoin:miter;stroke-opacity:1" d="M 269.952,244.686 283.249,244.686 z" id="boundary" inkscape:connector-curvature="0" />
	<path style="fill:none;stroke:red;stroke-width:1px;stroke-linecap:butt;stroke-linejoin:miter;stroke-opacity:1" d="M 281.92,50.5416 295.217,50.5416 z" id="boundary" inkscape:connector-curvature="0" />
	<path style="fill:none;stroke:red;stroke-width:1px;stroke-linecap:butt;stroke-linejoin:miter;stroke-opacity:1" d="M 283.249,244.686 296.547,244.686 z" id="boundary" inkscape:connector-curvature="0" />
	<path style="fill:none;stroke:red;stroke-width:1px;stroke-linecap:butt;stroke-linejoin:miter;stroke-opacity:1" d="M 295.217,50.5416 308.515,50.5416 z" id="boundary" inkscape:connector-curvature="0" />
	<path style="fill:none;stroke:red;stroke-width:1px;stroke-linecap:butt;stroke-linejoin:miter;stroke-opacity:1" d="M 296.547,244.686 309.845,244.686 z" id="boundary" inkscape:connector-curvature="0" />
	<path style="fill:none;stroke:red;stroke-width:1px;stroke-linecap:butt;stroke-linejoin:miter;stroke-opacity:1" d="M 308.515,50.5416 321.812,50.5416 z" id="boundary" inkscape:connector-curvature="0" />
	<path style="fill:none;stroke:red;stroke-width:1px;stroke-linecap:butt;stroke-linejoin:miter;stroke-opacity:1" d="M 309.845,244.686 321.812,251.335 z" id="boundary" inkscape:connector-curvature="0" />
	<path style="fill:none;stroke:red;stroke-width:1px;stroke-linecap:butt;stroke-linejoin:miter;stroke-opacity:1" d="M 321.812,50.5416 335.11,50.5416 z" id="boundary" inkscape:connector-curvature="0" />
	<path style="fill:none;stroke:red;stroke-width:1px;stroke-linecap:butt;stroke-linejoin:miter;stroke-opacity:1" d="M 321.812,251.335 335.11,251.335 z" id="boundary" inkscape:connector-curvature="0" />
	<path style="fill:none;stroke:red;stroke-width:1px;stroke-linecap:butt;stroke-linejoin:miter;stroke-opacity:1" d="M 335.11,50.5416 348.408,50.5416 z" id="boundary" inkscape:connector-curvature="0" />
	<path style="fill:none;stroke:red;stroke-width:1px;stroke-linecap:butt;stroke-linejoin:miter;stroke-opacity:1" d="M 335.11,251.335 344.418,261.973 z" id="boundary" inkscape:connector-curvature="0" />
	<path style="fill:none;stroke:red;stroke-width:1px;stroke-linecap:butt;stroke-linejoin:miter;stroke-opacity:1" d="M 344.418,261.973 349.737,275.271 z" id="boundary" inkscape:connector-curvature="0" />
	<path style="fill:none;stroke:red;stroke-width:1px;stroke-linecap:butt;stroke-linejoin:miter;stroke-opacity:1" d="M 348.408,50.5416 361.705,50.5416 z" id="boundary" inkscape:connector-curvature="0" />
	<path style="fill:none;stroke:red;stroke-width:1px;stroke-linecap:butt;stroke-linejoin:miter;stroke-opacity:1" d="M 349.737,275.271 356.386,287.239 z" id="boundary" inkscape:connector-curvature="0" />
	<path style="fill:none;stroke:red;stroke-width:1px;stroke-linecap:butt;stroke-linejoin:miter;stroke-opacity:1" d="M 356.386,287.239 356.386,300.536 z" id="boundary" inkscape:connector-curvature="0" />
	<path style="fill:none;stroke:red;stroke-width:1px;stroke-linecap:butt;stroke-linejoin:miter;stroke-opacity:1" d="M 356.386,300.536 363.035,312.504 z" id="boundary" inkscape:connector-curvature="0" />
	<path style="fill:none;stroke:red;stroke-width:1px;stroke-linecap:butt;stroke-linejoin:miter;stroke-opacity:1" d="M 361.705,50.5416 375.003,50.5416 z" id="boundary" inkscape:connector-curvature="0" />
	<path style="fill:none;stroke:red;stroke-width:1px;stroke-linecap:butt;stroke-linejoin:miter;stroke-opacity:1" d="M 363.035,312.504 372.343,323.142 z" id="boundary" inkscape:connector-curvature="0" />
	<path style="fill:none;stroke:red;stroke-width:1px;stroke-linecap:butt;stroke-linejoin:miter;stroke-opacity:1" d="M 372.343,323.142 385.641,317.823 z" id="boundary" inkscape:connector-curvature="0" />
	<path style="fill:none;stroke:red;stroke-width:1px;stroke-linecap:butt;stroke-linejoin:miter;stroke-opacity:1" d="M 375.003,50.5416 388.3,50.5416 z" id="boundary" inkscape:connector-curvature="0" />
	<path style="fill:none;stroke:red;stroke-width:1px;stroke-linecap:butt;stroke-linejoin:miter;stroke-opacity:1" d="M 385.641,317.823 397.609,311.174 z" id="boundary" inkscape:connector-curvature="0" />
	<path style="fill:none;stroke:red;stroke-width:1px;stroke-linecap:butt;stroke-linejoin:miter;stroke-opacity:1" d="M 388.3,50.5416 401.598,50.5416 z" id="boundary" inkscape:connector-curvature="0" />
	<path style="fill:none;stroke:red;stroke-width:1px;stroke-linecap:butt;stroke-linejoin:miter;stroke-opacity:1" d="M 397.609,311.174 409.576,304.525 z" id="boundary" inkscape:connector-curvature="0" />
	<path style="fill:none;stroke:red;stroke-width:1px;stroke-linecap:butt;stroke-linejoin:miter;stroke-opacity:1" d="M 401.598,50.5416 414.895,50.5416 z" id="boundary" inkscape:connector-curvature="0" />
	<path style="fill:none;stroke:red;stroke-width:1px;stroke-linecap:butt;stroke-linejoin:miter;stroke-opacity:1" d="M 409.576,304.525 420.214,296.547 z" id="boundary" inkscape:connector-curvature="0" />
	<path style="fill:none;stroke:red;stroke-width:1px;stroke-linecap:butt;stroke-linejoin:miter;stroke-opacity:1" d="M 414.895,50.5416 422.874,34.5845 z" id="boundary" inkscape:connector-curvature="0" />
	<path style="fill:none;stroke:red;stroke-width:1px;stroke-linecap:butt;stroke-linejoin:miter;stroke-opacity:1" d="M 420.214,296.547 433.512,289.898 z" id="boundary" inkscape:connector-curvature="0" />
	<path style="fill:none;stroke:red;stroke-width:1px;stroke-linecap:butt;stroke-linejoin:miter;stroke-opacity:1" d="M 422.874,34.5845 433.512,23.9464 z" id="boundary" inkscape:connector-curvature="0" />
	<path style="fill:none;stroke:red;stroke-width:1px;stroke-linecap:butt;stroke-linejoin:miter;stroke-opacity:1" d="M 433.512,23.9464 440.161,10.6488 z" id="boundary" inkscape:connector-curvature="0" />
	<path style="fill:none;stroke:red;stroke-width:1px;stroke-linecap:butt;stroke-linejoin:miter;stroke-opacity:1" d="M 433.512,289.898 444.15,277.93 z" id="boundary" inkscape:connector-curvature="0" />
	<path style="fill:none;stroke:red;stroke-width:1px;stroke-linecap:butt;stroke-linejoin:miter;stroke-opacity:1" d="M 440.161,10.6488 452.129,4 z" id="boundary" inkscape:connector-curvature="0" />
	<path style="fill:none;stroke:red;stroke-width:1px;stroke-linecap:butt;stroke-linejoin:miter;stroke-opacity:1" d="M 444.15,277.93 457.448,271.282 z" id="boundary" inkscape:connector-curvature="0" />
	<path style="fill:none;stroke:red;stroke-width:1px;stroke-linecap:butt;stroke-linejoin:miter;stroke-opacity:1" d="M 452.129,4 464.097,10.6488 z" id="boundary" inkscape:connector-curvature="0" />
	<path style="fill:none;stroke:red;stroke-width:1px;stroke-linecap:butt;stroke-linejoin:miter;stroke-opacity:1" d="M 457.448,271.282 469.416,264.633 z" id="boundary" inkscape:connector-curvature="0" />
	<path style="fill:none;stroke:red;stroke-width:1px;stroke-linecap:butt;stroke-linejoin:miter;stroke-opacity:1" d="M 464.097,10.6488 470.745,22.6166 z" id="boundary" inkscape:connector-curvature="0" />
	<path style="fill:none;stroke:red;stroke-width:1px;stroke-linecap:butt;stroke-linejoin:miter;stroke-opacity:1" d="M 469.416,264.633 480.054,256.654 z" id="boundary" inkscape:connector-curvature="0" />
	<path style="fill:none;stroke:red;stroke-width:1px;stroke-linecap:butt;stroke-linejoin:miter;stroke-opacity:1" d="M 470.745,22.6166 477.394,34.5845 z" id="boundary" inkscape:connector-curvature="0" />
	<path style="fill:none;stroke:red;stroke-width:1px;stroke-linecap:butt;stroke-linejoin:miter;stroke-opacity:1" d="M 477.394,34.5845 484.043,46.5523 z" id="boundary" inkscape:connector-curvature="0" />
	<path style="fill:none;stroke:red;stroke-width:1px;stroke-linecap:butt;stroke-linejoin:miter;stroke-opacity:1" d="M 480.054,256.654 490.692,244.686 z" id="boundary" inkscape:connector-curvature="0" />
	<path style="fill:none;stroke:red;stroke-width:1px;stroke-linecap:butt;stroke-linejoin:miter;stroke-opacity:1" d="M 484.043,46.5523 492.021,57.1903 z" id="boundary" inkscape:connector-curvature="0" />
	<path style="fill:none;stroke:red;stroke-width:1px;stroke-linecap:butt;stroke-linejoin:miter;stroke-opacity:1" d="M 490.692,244.686 503.989,244.686 z" id="boundary" inkscape:connector-curvature="0" />
	<path style="fill:none;stroke:red;stroke-width:1px;stroke-linecap:butt;stroke-linejoin:miter;stroke-opacity:1" d="M 492.021,57.1903 505.319,57.1903 z" id="boundary" inkscape:connector-curvature="0" />
	<path style="fill:none;stroke:red;stroke-width:1px;stroke-linecap:butt;stroke-linejoin:miter;stroke-opacity:1" d="M 503.989,244.686 515.957,238.038 z" id="boundary" inkscape:connector-curvature="0" />
	<path style="fill:none;stroke:red;stroke-width:1px;stroke-linecap:butt;stroke-linejoin:miter;stroke-opacity:1" d="M 505.319,57.1903 517.287,63.8391 z" id="boundary" inkscape:connector-curvature="0" />
	<path style="fill:none;stroke:red;stroke-width:1px;stroke-linecap:butt;stroke-linejoin:miter;stroke-opacity:1" d="M 515.957,238.038 529.255,238.038 z" id="boundary" inkscape:connector-curvature="0" />
	<path style="fill:none;stroke:red;stroke-width:1px;stroke-linecap:butt;stroke-linejoin:miter;stroke-opacity:1" d="M 517.287,63.8391 530.584,63.8391 z" id="boundary" inkscape:connector-curvature="0" />
	<path style="fill:none;stroke:red;stroke-width:1px;stroke-linecap:butt;stroke-linejoin:miter;stroke-opacity:1" d="M 529.255,238.038 542.552,234.048 z" id="boundary" inkscape:connector-curvature="0" />
	<path style="fill:none;stroke:red;stroke-width:1px;stroke-linecap:butt;stroke-linejoin:miter;stroke-opacity:1" d="M 530.584,63.8391 543.882,63.8391 z" id="boundary" inkscape:connector-curvature="0" />
	<path style="fill:none;stroke:red;stroke-width:1px;stroke-linecap:butt;stroke-linejoin:miter;stroke-opacity:1" d="M 542.552,234.048 555.85,231.389 z" id="boundary" inkscape:connector-curvature="0" />
	<path style="fill:none;stroke:red;stroke-width:1px;stroke-linecap:butt;stroke-linejoin:miter;stroke-opacity:1" d="M 543.882,63.8391 557.18,63.8391 z" id="boundary" inkscape:connector-curvature="0" />
	<path style="fill:none;stroke:red;stroke-width:1px;stroke-linecap:butt;stroke-linejoin:miter;stroke-opacity:1" d="M 555.85,231.389 569.147,231.389 z" id="boundary" inkscape:connector-curvature="0" />
	<path style="fill:none;stroke:red;stroke-width:1px;stroke-linecap:butt;stroke-linejoin:miter;stroke-opacity:1" d="M 557.18,63.8391 569.147,70.4879 z" id="boundary" inkscape:connector-curvature="0" />
	<path style="fill:none;stroke:red;stroke-width:1px;stroke-linecap:butt;stroke-linejoin:miter;stroke-opacity:1" d="M 569.147,70.4879 582.445,70.4879 z" id="boundary" inkscape:connector-curvature="0" />
	<path style="fill:none;stroke:red;stroke-width:1px;stroke-linecap:butt;stroke-linejoin:miter;stroke-opacity:1" d="M 569.147,231.389 582.445,227.399 z" id="boundary" inkscape:connector-curvature="0" />
	<path style="fill:none;stroke:red;stroke-width:1px;stroke-linecap:butt;stroke-linejoin:miter;stroke-opacity:1" d="M 582.445,70.4879 595.743,70.4879 z" id="boundary" inkscape:connector-curvature="0" />
	<path style="fill:none;stroke:red;stroke-width:1px;stroke-linecap:butt;stroke-linejoin:miter;stroke-opacity:1" d="M 582.445,227.399 595.743,224.74 z" id="boundary" inkscape:connector-curvature="0" />
	<path style="fill:none;stroke:red;stroke-width:1px;stroke-linecap:butt;stroke-linejoin:miter;stroke-opacity:1" d="M 595.743,70.4879 609.04,70.4879 z" id="boundary" inkscape:connector-curvature="0" />
	<path style="fill:none;stroke:red;stroke-width:1px;stroke-linecap:butt;stroke-linejoin:miter;stroke-opacity:1" d="M 595.743,224.74 609.04,224.74 z" id="boundary" inkscape:connector-curvature="0" />
	<path style="fill:none;stroke:red;stroke-width:1px;stroke-linecap:butt;stroke-linejoin:miter;stroke-opacity:1" d="M 609.04,70.4879 622.338,70.4879 z" id="boundary" inkscape:connector-curvature="0" />
	<path style="fill:none;stroke:red;stroke-width:1px;stroke-linecap:butt;stroke-linejoin:miter;stroke-opacity:1" d="M 609.04,224.74 621.008,218.091 z" id="boundary" inkscape:connector-curvature="0" />
	<path style="fill:none;stroke:red;stroke-width:1px;stroke-linecap:butt;stroke-linejoin:miter;stroke-opacity:1" d="M 621.008,218.091 634.306,215.432 z" id="boundary" inkscape:connector-curvature="0" />
	<path style="fill:none;stroke:red;stroke-width:1px;stroke-linecap:butt;stroke-linejoin:miter;stroke-opacity:1" d="M 622.338,70.4879 635.635,67.8284 z" id="boundary" inkscape:connector-curvature="0" />
	<path style="fill:none;stroke:red;stroke-width:1px;stroke-linecap:butt;stroke-linejoin:miter;stroke-opacity:1" d="M 634.306,215.432 647.603,211.442 z" id="boundary" inkscape:connector-curvature="0" />
	<path style="fill:none;stroke:red;stroke-width:1px;stroke-linecap:butt;stroke-linejoin:miter;stroke-opacity:1" d="M 635.635,67.8284 648.933,63.8391 z" id="boundary" inkscape:connector-curvature="0" />
	<path style="fill:none;stroke:red;stroke-width:1px;stroke-linecap:butt;stroke-linejoin:miter;stroke-opacity:1" d="M 647.603,211.442 660.901,208.783 z" id="boundary" inkscape:connector-curvature="0" />
	<path style="fill:none;stroke:red;stroke-width:1px;stroke-linecap:butt;stroke-linejoin:miter;stroke-opacity:1" d="M 648.933,63.8391 662.231,63.8391 z" id="boundary" inkscape:connector-curvature="0" />
	<path style="fill:none;stroke:red;stroke-width:1px;stroke-linecap:butt;stroke-linejoin:miter;stroke-opacity:1" d="M 660.901,208.783 674.198,204.794 z" id="boundary" inkscape:connector-curvature="0" />
	<path style="fill:none;stroke:red;stroke-width:1px;stroke-linecap:butt;stroke-linejoin:miter;stroke-opacity:1" d="M 662.231,63.8391 675.528,66.4987 z" id="boundary" inkscape:connector-curvature="0" />
	<path style="fill:none;stroke:red;stroke-width:1px;stroke-linecap:butt;stroke-linejoin:miter;stroke-opacity:1" d="M 674.198,204.794 687.496,204.794 z" id="boundary" inkscape:connector-curvature="0" />
	<path style="fill:none;stroke:red;stroke-width:1px;stroke-linecap:butt;stroke-linejoin:miter;stroke-opacity:1" d="M 675.528,66.4987 687.496,73.1475 z" id="boundary" inkscape:connector-curvature="0" />
	<path style="fill:none;stroke:red;stroke-width:1px;stroke-linecap:butt;stroke-linejoin:miter;stroke-opacity:1" d="M 687.496,73.1475 700.794,77.1367 z" id="boundary" inkscape:connector-curvature="0" />
	<path style="fill:none;stroke:red;stroke-width:1px;stroke-linecap:butt;stroke-linejoin:miter;stroke-opacity:1" d="M 687.496,204.794 699.464,198.145 z" id="boundary" inkscape:connector-curvature="0" />
	<path style="fill:none;stroke:red;stroke-width:1px;stroke-linecap:butt;stroke-linejoin:miter;stroke-opacity:1" d="M 699.464,198.145 712.761,198.145 z" id="boundary" inkscape:connector-curvature="0" />
	<path style="fill:none;stroke:red;stroke-width:1px;stroke-linecap:butt;stroke-linejoin:miter;stroke-opacity:1" d="M 700.794,77.1367 712.761,83.7855 z" id="boundary" inkscape:connector-curvature="0" />
	<path style="fill:none;stroke:red;stroke-width:1px;stroke-linecap:butt;stroke-linejoin:miter;stroke-opacity:1" d="M 712.761,83.7855 726.059,83.7855 z" id="boundary" inkscape:connector-curvature="0" />
	<path style="fill:none;stroke:red;stroke-width:1px;stroke-linecap:butt;stroke-linejoin:miter;stroke-opacity:1" d="M 712.761,198.145 724.729,191.496 z" id="boundary" inkscape:connector-curvature="0" />
	<path style="fill:none;stroke:red;stroke-width:1px;stroke-linecap:butt;stroke-linejoin:miter;stroke-opacity:1" d="M 724.729,191.496 738.027,191.496 z" id="boundary" inkscape:connector-curvature="0" />
	<path style="fill:none;stroke:red;stroke-width:1px;stroke-linecap:butt;stroke-linejoin:miter;stroke-opacity:1" d="M 726.059,83.7855 739.357,83.7855 z" id="boundary" inkscape:connector-curvature="0" />
	<path style="fill:none;stroke:red;stroke-width:1px;stroke-linecap:butt;stroke-linejoin:miter;stroke-opacity:1" d="M 738.027,191.496 751.324,191.496 z" id="boundary" inkscape:connector-curvature="0" />
	<path style="fill:none;stroke:red;stroke-width:1px;stroke-linecap:butt;stroke-linejoin:miter;stroke-opacity:1" d="M 739.357,83.7855 752.654,83.7855 z" id="boundary" inkscape:connector-curvature="0" />
	<path style="fill:none;stroke:red;stroke-width:1px;stroke-linecap:butt;stroke-linejoin:miter;stroke-opacity:1" d="M 751.324,191.496 763.292,184.847 z" id="boundary" inkscape:connector-curvature="0" />
	<path style="fill:none;stroke:red;stroke-width:1px;stroke-linecap:butt;stroke-linejoin:miter;stroke-opacity:1" d="M 752.654,83.7855 756.643,97.0831 z" id="boundary" inkscape:connector-curvature="0" />
	<path style="fill:none;stroke:red;stroke-width:1px;stroke-linecap:butt;stroke-linejoin:miter;stroke-opacity:1" d="M 756.643,97.0831 767.282,105.062 z" id="boundary" inkscape:connector-curvature="0" />
	<path style="fill:none;stroke:red;stroke-width:1px;stroke-linecap:butt;stroke-linejoin:miter;stroke-opacity:1" d="M 763.292,184.847 776.59,184.847 z" id="boundary" inkscape:connector-curvature="0" />
	<path style="fill:none;stroke:red;stroke-width:1px;stroke-linecap:butt;stroke-linejoin:miter;stroke-opacity:1" d="M 767.282,105.062 780.579,110.381 z" id="boundary" inkscape:connector-curvature="0" />
	<path style="fill:none;stroke:red;stroke-width:1px;stroke-linecap:butt;stroke-linejoin:miter;stroke-opacity:1" d="M 776.59,184.847 789.887,184.847 z" id="boundary" inkscape:connector-curvature="0" />
	<path style="fill:none;stroke:red;stroke-width:1px;stroke-linecap:butt;stroke-linejoin:miter;stroke-opacity:1" d="M 780.579,110.381 793.877,110.381 z" id="boundary" inkscape:connector-curvature="0" />
	<path style="fill:none;stroke:red;stroke-width:1px;stroke-linecap:butt;stroke-linejoin:miter;stroke-opacity:1" d="M 789.887,184.847 803.185,184.847 z" id="boundary" inkscape:connector-curvature="0" />
	<path style="fill:none;stroke:red;stroke-width:1px;stroke-linecap:butt;stroke-linejoin:miter;stroke-opacity:1" d="M 793.877,110.381 807.174,110.381 z" id="boundary" inkscape:connector-curvature="0" />
	<path style="fill:none;stroke:red;stroke-width:1px;stroke-linecap:butt;stroke-linejoin:miter;stroke-opacity:1" d="M 803.185,184.847 816.483,184.847 z" id="boundary" inkscape:connector-curvature="0" />
	<path style="fill:none;stroke:red;stroke-width:1px;stroke-linecap:butt;stroke-linejoin:miter;stroke-opacity:1" d="M 807.174,110.381 820.472,110.381 z" id="boundary" inkscape:connector-curvature="0" />
	<path style="fill:none;stroke:red;stroke-width:1px;stroke-linecap:butt;stroke-linejoin:miter;stroke-opacity:1" d="M 816.483,184.847 829.78,184.847 z" id="boundary" inkscape:connector-curvature="0" />
	<path style="fill:none;stroke:red;stroke-width:1px;stroke-linecap:butt;stroke-linejoin:miter;stroke-opacity:1" d="M 820.472,110.381 833.769,110.381 z" id="boundary" inkscape:connector-curvature="0" />
	<path style="fill:none;stroke:red;stroke-width:1px;stroke-linecap:butt;stroke-linejoin:miter;stroke-opacity:1" d="M 829.78,184.847 843.078,187.507 z" id="boundary" inkscape:connector-curvature="0" />
	<path style="fill:none;stroke:red;stroke-width:1px;stroke-linecap:butt;stroke-linejoin:miter;stroke-opacity:1" d="M 833.769,110.381 845.737,103.732 z" id="boundary" inkscape:connector-curvature="0" />
	<path style="fill:none;stroke:red;stroke-width:1px;stroke-linecap:butt;stroke-linejoin:miter;stroke-opacity:1" d="M 843.078,187.507 856.375,191.496 z" id="boundary" inkscape:connector-curvature="0" />
	<path style="fill:none;stroke:red;stroke-width:1px;stroke-linecap:butt;stroke-linejoin:miter;stroke-opacity:1" d="M 845.737,103.732 859.035,103.732 z" id="boundary" inkscape:connector-curvature="0" />
	<path style="fill:none;stroke:red;stroke-width:1px;stroke-linecap:butt;stroke-linejoin:miter;stroke-opacity:1" d="M 856.375,191.496 868.343,198.145 z" id="boundary" inkscape:connector-curvature="0" />
	<path style="fill:none;stroke:red;stroke-width:1px;stroke-linecap:butt;stroke-linejoin:miter;stroke-opacity:1" d="M 859.035,103.732 872.332,97.0831 z" id="boundary" inkscape:connector-curvature="0" />
	<path style="fill:none;stroke:red;stroke-width:1px;stroke-linecap:butt;stroke-linejoin:miter;stroke-opacity:1" d="M 868.343,198.145 881.641,198.145 z" id="boundary" inkscape:connector-curvature="0" />
	<path style="fill:none;stroke:red;stroke-width:1px;stroke-linecap:butt;stroke-linejoin:miter;stroke-opacity:1" d="M 872.332,97.0831 885.63,97.0831 z" id="boundary" inkscape:connector-curvature="0" />
	<path style="fill:none;stroke:red;stroke-width:1px;stroke-linecap:butt;stroke-linejoin:miter;stroke-opacity:1" d="M 881.641,198.145 893.609,204.794 z" id="boundary" inkscape:connector-curvature="0" />
	<path style="fill:none;stroke:red;stroke-width:1px;stroke-linecap:butt;stroke-linejoin:miter;stroke-opacity:1" d="M 885.63,97.0831 898.928,90.4343 z" id="boundary" inkscape:connector-curvature="0" />
	<path style="fill:none;stroke:red;stroke-width:1px;stroke-linecap:butt;stroke-linejoin:miter;stroke-opacity:1" d="M 893.609,204.794 906.906,204.794 z" id="boundary" inkscape:connector-curvature="0" />
	<path style="fill:none;stroke:red;stroke-width:1px;stroke-linecap:butt;stroke-linejoin:miter;stroke-opacity:1" d="M 898.928,90.4343 912.225,90.4343 z" id="boundary" inkscape:connector-curvature="0" />
	<path style="fill:none;stroke:red;stroke-width:1px;stroke-linecap:butt;stroke-linejoin:miter;stroke-opacity:1" d="M 906.906,204.794 918.874,211.442 z" id="boundary" inkscape:connector-curvature="0" />
	<path style="fill:none;stroke:red;stroke-width:1px;stroke-linecap:butt;stroke-linejoin:miter;stroke-opacity:1" d="M 912.225,90.4343 925.523,90.4343 z" id="boundary" inkscape:connector-curvature="0" />
	<path style="fill:none;stroke:red;stroke-width:1px;stroke-linecap:butt;stroke-linejoin:miter;stroke-opacity:1" d="M 918.874,211.442 932.172,211.442 z" id="boundary" inkscape:connector-curvature="0" />
	<path style="fill:none;stroke:red;stroke-width:1px;stroke-linecap:butt;stroke-linejoin:miter;stroke-opacity:1" d="M 922.863,131.657 922.863,144.954 z" id="boundary" inkscape:connector-curvature="0" />
	<path style="fill:none;stroke:red;stroke-width:1px;stroke-linecap:butt;stroke-linejoin:miter;stroke-opacity:1" d="M 922.863,131.657 934.831,125.008 z" id="boundary" inkscape:connector-curvature="0" />
	<path style="fill:none;stroke:red;stroke-width:1px;stroke-linecap:butt;stroke-linejoin:miter;stroke-opacity:1" d="M 922.863,144.954 925.523,158.252 z" id="boundary" inkscape:connector-curvature="0" />
	<path style="fill:none;stroke:red;stroke-width:1px;stroke-linecap:butt;stroke-linejoin:miter;stroke-opacity:1" d="M 925.523,90.4343 937.491,83.7855 z" id="boundary" inkscape:connector-curvature="0" />
	<path style="fill:none;stroke:red;stroke-width:1px;stroke-linecap:butt;stroke-linejoin:miter;stroke-opacity:1" d="M 925.523,158.252 932.172,170.22 z" id="boundary" inkscape:connector-curvature="0" />
	<path style="fill:none;stroke:red;stroke-width:1px;stroke-linecap:butt;stroke-linejoin:miter;stroke-opacity:1" d="M 932.172,170.22 941.48,180.858 z" id="boundary" inkscape:connector-curvature="0" />
	<path style="fill:none;stroke:red;stroke-width:1px;stroke-linecap:butt;stroke-linejoin:miter;stroke-opacity:1" d="M 932.172,211.442 944.139,218.091 z" id="boundary" inkscape:connector-curvature="0" />
	<path style="fill:none;stroke:red;stroke-width:1px;stroke-linecap:butt;stroke-linejoin:miter;stroke-opacity:1" d="M 934.831,125.008 945.469,117.029 z" id="boundary" inkscape:connector-curvature="0" />
	<path style="fill:none;stroke:red;stroke-width:1px;stroke-linecap:butt;stroke-linejoin:miter;stroke-opacity:1" d="M 937.491,83.7855 950.788,83.7855 z" id="boundary" inkscape:connector-curvature="0" />
	<path style="fill:none;stroke:red;stroke-width:1px;stroke-linecap:butt;stroke-linejoin:miter;stroke-opacity:1" d="M 941.48,180.858 954.777,186.177 z" id="boundary" inkscape:connector-curvature="0" />
	<path style="fill:none;stroke:red;stroke-width:1px;stroke-linecap:butt;stroke-linejoin:miter;stroke-opacity:1" d="M 944.139,218.091 957.437,218.091 z" id="boundary" inkscape:connector-curvature="0" />
	<path style="fill:none;stroke:red;stroke-width:1px;stroke-linecap:butt;stroke-linejoin:miter;stroke-opacity:1" d="M 945.469,117.029 958.767,110.381 z" id="boundary" inkscape:connector-curvature="0" />
	<path style="fill:none;stroke:red;stroke-width:1px;stroke-linecap:butt;stroke-linejoin:miter;stroke-opacity:1" d="M 950.788,83.7855 964.086,83.7855 z" id="boundary" inkscape:connector-curvature="0" />
	<path style="fill:none;stroke:red;stroke-width:1px;stroke-linecap:butt;stroke-linejoin:miter;stroke-opacity:1" d="M 954.777,186.177 962.756,196.815 z" id="boundary" inkscape:connector-curvature="0" />
	<path style="fill:none;stroke:red;stroke-width:1px;stroke-linecap:butt;stroke-linejoin:miter;stroke-opacity:1" d="M 957.437,218.091 969.405,224.74 z" id="boundary" inkscape:connector-curvature="0" />
	<path style="fill:none;stroke:red;stroke-width:1px;stroke-linecap:butt;stroke-linejoin:miter;stroke-opacity:1" d="M 958.767,110.381 972.064,103.732 z" id="boundary" inkscape:connector-curvature="0" />
	<path style="fill:none;stroke:red;stroke-width:1px;stroke-linecap:butt;stroke-linejoin:miter;stroke-opacity:1" d="M 962.756,196.815 976.054,200.804 z" id="boundary" inkscape:connector-curvature="0" />
	<path style="fill:none;stroke:red;stroke-width:1px;stroke-linecap:butt;stroke-linejoin:miter;stroke-opacity:1" d="M 964.086,83.7855 977.383,83.7855 z" id="boundary" inkscape:connector-curvature="0" />
	<path style="fill:none;stroke:red;stroke-width:1px;stroke-linecap:butt;stroke-linejoin:miter;stroke-opacity:1" d="M 969.405,224.74 982.702,224.74 z" id="boundary" inkscape:connector-curvature="0" />
	<path style="fill:none;stroke:red;stroke-width:1px;stroke-linecap:butt;stroke-linejoin:miter;stroke-opacity:1" d="M 972.064,103.732 977.383,83.7855 z" id="boundary" inkscape:connector-curvature="0" />
	<path style="fill:none;stroke:red;stroke-width:1px;stroke-linecap:butt;stroke-linejoin:miter;stroke-opacity:1" d="M 976.054,200.804 985.362,211.442 z" id="boundary" inkscape:connector-curvature="0" />
	<path style="fill:none;stroke:red;stroke-width:1px;stroke-linecap:butt;stroke-linejoin:miter;stroke-opacity:1" d="M 982.702,224.74 985.362,211.442 z" id="boundary" inkscape:connector-curvature="0" />
	<circle cx="4" cy="134.316" r="4" fill="#0" id="circle0"/>
	<circle cx="10.6488" cy="146.284" r="4" fill="#0" id="circle1"/>
	<circle cx="10.6488" cy="159.582" r="4" fill="#0" id="circle2"/>
	<circle cx="14.6381" cy="123.678" r="4" fill="#0" id="circle3"/>
	<circle cx="23.9464" cy="164.901" r="4" fill="#0" id="circle4"/>
	<circle cx="25.2761" cy="113.04" r="4" fill="#0" id="circle5"/>
	<circle cx="27.9357" cy="178.198" r="4" fill="#0" id="circle6"/>
	<circle cx="38.5737" cy="106.391" r="4" fill="#0" id="circle7"/>
	<circle cx="41.2332" cy="183.517" r="4" fill="#0" id="circle8"/>
	<circle cx="51.8713" cy="103.732" r="4" fill="#0" id="circle9"/>
	<circle cx="51.8713" cy="191.496" r="4" fill="#0" id="circle10"/>
	<circle cx="63.8391" cy="97.0831" r="4" fill="#0" id="circle11"/>
	<circle cx="63.8391" cy="198.145" r="4" fill="#0" id="circle12"/>
	<circle cx="77.1367" cy="94.4236" r="4" fill="#0" id="circle13"/>
	<circle cx="77.1367" cy="198.145" r="4" fill="#0" id="circle14"/>
	<circle cx="89.1046" cy="204.794" r="4" fill="#0" id="circle15"/>
	<circle cx="90.4343" cy="90.4343" r="4" fill="#0" id="circle16"/>
	<circle cx="101.072" cy="211.442" r="4" fill="#0" id="circle17"/>
	<circle cx="102.402" cy="83.7855" r="4" fill="#0" id="circle18"/>
	<circle cx="114.37" cy="211.442" r="4" fill="#0" id="circle19"/>
	<circle cx="115.7" cy="83.7855" r="4" fill="#0" id="circle20"/>
	<circle cx="126.338" cy="218.091" r="4" fill="#0" id="circle21"/>
	<circle cx="128.997" cy="83.7855" r="4" fill="#0" id="circle22"/>
	<circle cx="139.635" cy="218.091" r="4" fill="#0" id="circle23"/>
	<circle cx="140.965" cy="77.1367" r="4" fill="#0" id="circle24"/>
	<circle cx="152.933" cy="222.08" r="4" fill="#0" id="circle25"/>
	<circle cx="154.263" cy="77.1367" r="4" fill="#0" id="circle26"/>
	<circle cx="166.231" cy="224.74" r="4" fill="#0" id="circle27"/>
	<circle cx="167.56" cy="77.1367" r="4" fill="#0" id="circle28"/>
	<circle cx="179.528" cy="70.4879" r="4" fill="#0" id="circle29"/>
	<circle cx="179.528" cy="224.74" r="4" fill="#0" id="circle30"/>
	<circle cx="191.496" cy="231.389" r="4" fill="#0" id="circle31"/>
	<circle cx="192.826" cy="70.4879" r="4" fill="#0" id="circle32"/>
	<circle cx="204.794" cy="231.389" r="4" fill="#0" id="circle33"/>
	<circle cx="206.123" cy="70.4879" r="4" fill="#0" id="circle34"/>
	<circle cx="218.091" cy="63.8391" r="4" fill="#0" id="circle35"/>
	<circle cx="218.091" cy="231.389" r="4" fill="#0" id="circle36"/>
	<circle cx="231.389" cy="63.8391" r="4" fill="#0" id="circle37"/>
	<circle cx="231.389" cy="234.048" r="4" fill="#0" id="circle38"/>
	<circle cx="243.357" cy="57.1903" r="4" fill="#0" id="circle39"/>
	<circle cx="244.686" cy="238.038" r="4" fill="#0" id="circle40"/>
	<circle cx="256.654" cy="57.1903" r="4" fill="#0" id="circle41"/>
	<circle cx="257.984" cy="238.038" r="4" fill="#0" id="circle42"/>
	<circle cx="269.952" cy="57.1903" r="4" fill="#0" id="circle43"/>
	<circle cx="269.952" cy="244.686" r="4" fill="#0" id="circle44"/>
	<circle cx="281.92" cy="50.5416" r="4" fill="#0" id="circle45"/>
	<circle cx="283.249" cy="244.686" r="4" fill="#0" id="circle46"/>
	<circle cx="295.217" cy="50.5416" r="4" fill="#0" id="circle47"/>
	<circle cx="296.547" cy="244.686" r="4" fill="#0" id="circle48"/>
	<circle cx="308.515" cy="50.5416" r="4" fill="#0" id="circle49"/>
	<circle cx="309.845" cy="244.686" r="4" fill="#0" id="circle50"/>
	<circle cx="321.812" cy="50.5416" r="4" fill="#0" id="circle51"/>
	<circle cx="321.812" cy="251.335" r="4" fill="#0" id="circle52"/>
	<circle cx="335.11" cy="50.5416" r="4" fill="#0" id="circle53"/>
	<circle cx="335.11" cy="251.335" r="4" fill="#0" id="circle54"/>
	<circle cx="344.418" cy="261.973" r="4" fill="#0" id="circle55"/>
	<circle cx="348.408" cy="50.5416" r="4" fill="#0" id="circle56"/>
	<circle cx="349.737" cy="275.271" r="4" fill="#0" id="circle57"/>
	<circle cx="356.386" cy="287.239" r="4" fill="#0" id="circle58"/>
	<circle cx="356.386" cy="300.536" r="4" fill="#0" id="circle59"/>
	<circle cx="361.705" cy="50.5416" r="4" fill="#0" id="circle60"/>
	<circle cx="363.035" cy="312.504" r="4" fill="#0" id="circle61"/>
	<circle cx="372.343" cy="323.142" r="4" fill="#0" id="circle62"/>
	<circle cx="375.003" cy="50.5416" r="4" fill="#0" id="circle63"/>
	<circle cx="385.641" cy="317.823" r="4" fill="#0" id="circle64"/>
	<circle cx="388.3" cy="50.5416" r="4" fill="#0" id="circle65"/>
	<circle cx="397.609" cy="311.174" r="4" fill="#0" id="circle66"/>
	<circle cx="401.598" cy="50.5416" r="4" fill="#0" id="circle67"/>
	<circle cx="409.576" cy="304.525" r="4" fill="#0" id="circle68"/>
	<circle cx="414.895" cy="50.5416" r="4" fill="#0" id="circle69"/>
	<circle cx="420.214" cy="296.547" r="4" fill="#0" id="circle70"/>
	<circle cx="422.874" cy="34.5845" r="4" fill="#0" id="circle71"/>
	<circle cx="433.512" cy="23.9464" r="4" fill="#0" id="circle72"/>
	<circle cx="433.512" cy="289.898" r="4" fill="#0" id="circle73"/>
	<circle cx="440.161" cy="10.6488" r="4" fill="#0" id="circle74"/>
	<circle cx="444.15" cy="277.93" r="4" fill="#0" id="circle75"/>
	<circle cx="452.129" cy="4" r="4" fill="#0" id="circle76"/>
	<circle cx="457.448" cy="271.282" r="4" fill="#0" id="circle77"/>
	<circle cx="464.097" cy="10.6488" r="4" fill="#0" id="circle78"/>
	<circle cx="469.416" cy="264.633" r="4" fill="#0" id="circle79"/>
	<circle cx="470.745" cy="22.6166" r="4" fill="#0" id="circle80"/>
	<circle cx="477.394" cy="34.5845" r="4" fill="#0" id="circle81"/>
	<circle cx="480.054" cy="256.654" r="4" fill="#0" id="circle82"/>
	<circle cx="484.043" cy="46.5523" r="4" fill="#0" id="circle83"/>
	<circle cx="490.692" cy="244.686" r="4" fill="#0" id="circle84"/>
	<circle cx="492.021" cy="57.1903" r="4" fill="#0" id="circle85"/>
	<circle cx="503.989" cy="244.686" r="4" fill="#0" id="circle86"/>
	<circle cx="505.319" cy="57.1903" r="4" fill="#0" id="circle87"/>
	<circle cx="515.957" cy="238.038" r="4" fill="#0" id="circle88"/>
	<circle cx="517.287" cy="63.8391" r="4" fill="#0" id="circle89"/>
	<circle cx="529.255" cy="238.038" r="4" fill="#0" id="circle90"/>
	<circle cx="530.584" cy="63.8391" r="4" fill="#0" id="circle91"/>
	<circle cx="542.552" cy="234.048" r="4" fill="#0" id="circle92"/>
	<circle cx="543.882" cy="63.8391" r="4" fill="#0" id="circle93"/>
	<circle cx="555.85" cy="231.389" r="4" fill="#0" id="circle94"/>
	<circle cx="557.18" cy="63.8391" r="4" fill="#0" id="circle95"/>
	<circle cx="569.147" cy="70.4879" r="4" fill="#0" id="circle96"/>
	<circle cx="569.147" cy="231.389" r="4" fill="#0" id="circle97"/>
	<circle cx="582.445" cy="70.4879" r="4" fill="#0" id="circle98"/>
	<circle cx="582.445" cy="227.399" r="4" fill="#0" id="circle99"/>
	<circle cx="595.743" cy="70.4879" r="4" fill="#0" id="circle100"/>
	<circle cx="595.743" cy="224.74" r="4" fill="#0" id="circle101"/>
	<circle cx="609.04" cy="70.4879" r="4" fill="#0" id="circle102"/>
	<circle cx="609.04" cy="224.74" r="4" fill="#0" id="circle103"/>
	<circle cx="621.008" cy="218.091" r="4" fill="#0" id="circle104"/>
	<circle cx="622.338" cy="70.4879" r="4" fill="#0" id="circle105"/>
	<circle cx="634.306" cy="215.432" r="4" fill="#0" id="circle106"/>
	<circle cx="635.635" cy="67.8284" r="4" fill="#0" id="circle107"/>
	<circle cx="647.603" cy="211.442" r="4" fill="#0" id="circle108"/>
	<circle cx="648.933" cy="63.8391" r="4" fill="#0" id="circle109"/>
	<circle cx="660.901" cy="208.783" r="4" fill="#0" id="circle110"/>
	<circle cx="662.231" cy="63.8391" r="4" fill="#0" id="circle111"/>
	<circle cx="674.198" cy="204.794" r="4" fill="#0" id="circle112"/>
	<circle cx="675.528" cy="66.4987" r="4" fill="#0" id="circle113"/>
	<circle cx="687.496" cy="73.1475" r="4" fill="#0" id="circle114"/>
	<circle cx="687.496" cy="204.794" r="4" fill="#0" id="circle115"/>
	<circle cx="699.464" cy="198.145" r="4" fill="#0" id="circle116"/>
	<circle cx="700.794" cy="77.1367" r="4" fill="#0" id="circle117"/>
	<circle cx="712.761" cy="83.7855" r="4" fill="#0" id="circle118"/>
	<circle cx="712.761" cy="198.145" r="4" fill="#0" id="circle119"/>
	<circle cx="724.729" cy="191.496" r="4" fill="#0" id="circle120"/>
	<circle cx="726.059" cy="83.7855" r="4" fill="#0" id="circle121"/>
	<circle cx="738.027" cy="191.496" r="4" fill="#0" id="circle122"/>
	<circle cx="739.357" cy="83.7855" r="4" fill="#0" id="circle123"/>
	<circle cx="751.324" cy="191.496" r="4" fill="#0" id="circle124"/>
	<circle cx="752.654" cy="83.7855" r="4" fill="#0" id="circle125"/>
	<circle cx="756.643" cy="97.0831" r="4" fill="#0" id="circle126"/>
	<circle cx="763.292" cy="184.847" r="4" fill="#0" id="circle127"/>
	<circle cx="767.282" cy="105.062" r="4" fill="#0" id="circle128"/>
	<circle cx="776.59" cy="184.847" r="4" fill="#0" id="circle129"/>
	<circle cx="780.579" cy="110.381" r="4" fill="#0" id="circle130"/>
	<circle cx="789.887" cy="184.847" r="4" fill="#0" id="circle131"/>
	<circle cx="793.877" cy="110.381" r="4" fill="#0" id="circle132"/>
	<circle cx="803.185" cy="184.847" r="4" fill="#0" id="circle133"/>
	<circle cx="807.174" cy="110.381" r="4" fill="#0" id="circle134"/>
	<circle cx="816.483" cy="184.847" r="4" fill="#0" id="circle135"/>
	<circle cx="820.472" cy="110.381" r="4" fill="#0" id="circle136"/>
	<circle cx="829.78" cy="184.847" r="4" fill="#0" id="circle137"/>
	<circle cx="833.769" cy="110.381" r="4" fill="#0" id="circle138"/>
	<circle cx="843.078" cy="187.507" r="4" fill="#0" id="circle139"/>
	<circle cx="845.737" cy="103.732" r="4" fill="#0" id="circle140"/>
	<circle cx="856.375" cy="191.496" r="4" fill="#0" id="circle141"/>
	<circle cx="859.035" cy="103.732" r="4" fill="#0" id="circle142"/>
	<circle cx="868.343" cy="198.145" r="4" fill="#0" id="circle143"/>
	<circle cx="872.332" cy="97.0831" r="4" fill="#0" id="circle144"/>
	<circle cx="881.641" cy="198.145" r="4" fill="#0" id="circle145"/>
	<circle cx="885.63" cy="97.0831" r="4" fill="#0" id="circle146"/>
	<circle cx="893.609" cy="204.794" r="4" fill="#0" id="circle147"/>
	<circle cx="898.928" cy="90.4343" r="4" fill="#0" id="circle148"/>
	<circle cx="906.906" cy="204.794" r="4" fill="#0" id="circle149"/>
	<circle cx="912.225" cy="90.4343" r="4" fill="#0" id="circle150"/>
	<circle cx="918.874" cy="211.442" r="4" fill="#0" id="circle151"/>
	<circle cx="922.863" cy="131.657" r="4" fill="#0" id="circle152"/>
	<circle cx="922.863" cy="144.954" r="4" fill="#0" id="circle153"/>
	<circle cx="925.523" cy="90.4343" r="4" fill="#0" id="circle154"/>
	<circle cx="925.523" cy="158.252" r="4" fill="#0" id="circle155"/>
	<circle cx="932.172" cy="170.22" r="4" fill="#0" id="circle156"/>
	<circle cx="932.172" cy="211.442" r="4" fill="#0" id="circle157"/>
	<circle cx="934.831" cy="125.008" r="4" fill="#0" id="circle158"/>
	<circle cx="937.491" cy="83.7855" r="4" fill="#0" id="circle159"/>
	<circle cx="941.48" cy="180.858" r="4" fill="#0" id="circle160"/>
	<circle cx="944.139" cy="218.091" r="4" fill="#0" id="circle161"/>
	<circle cx="945.469" cy="117.029" r="4" fill="#0" id="circle162"/>
	<circle cx="950.788" cy="83.7855" r="4" fill="#0" id="circle163"/>
	<circle cx="954.777" cy="186.177" r="4" fill="#0" id="circle164"/>
	<circle cx="957.437" cy="218.091" r="4" fill="#0" id="circle165"/>
	<circle cx="958.767" cy="110.381" r="4" fill="#0" id="circle166"/>
	<circle cx="962.756" cy="196.815" r="4" fill="#0" id="circle167"/>
	<circle cx="964.086" cy="83.7855" r="4" fill="#0" id="circle168"/>
	<circle cx="969.405" cy="224.74" r="4" fill="#0" id="circle169"/>
	<circle cx="972.064" cy="103.732" r="4" fill="#0" id="circle170"/>
	<circle cx="976.054" cy="200.804" r="4" fill="#0" id="circle171"/>
	<circle cx="977.383" cy="83.7855" r="4" fill="#0" id="circle172"/>
	<circle cx="982.702" cy="224.74" r="4" fill="#0" id="circle173"/>
	<circle cx="985.362" cy="211.442" r="4" fill="#0" id="circle174"/>
	<circle cx="996" cy="220.751" r="4" fill="#0" id="circle175"/>
	</g>
</svg>