<?xml version="1.0" encoding="UTF-8" standalone="no"?>
<!-- Created with CurveBenchmark -->
<svg
	xmlns:dc="http://purl.org/dc/elements/1.1/"
	xmlns:cc="http://creativecommons.org/ns#"
	xmlns:rdf="http://www.w3.org/1999/02/22-rdf-syntax-ns#"
	xmlns:svg="http://www.w3.org/2000/svg"
	xmlns="http://www.w3.org/2000/svg"
	xmlns:sodipodi="http://sodipodi.sourceforge.net/DTD/sodipodi-0.dtd"
	xmlns:inkscape="http://www.inkscape.org/namespaces/inkscape"
	width="1000"
	height="1000"
	id="svg2"
	version="1.1"
	sodipodi:docname="manifold/hnncrust-cat1.png.txt">
<defs
	id="defs4" />
<metadata
	id="metadata7">
	<rdf:RDF>
		<cc:Work
			rdf:about="">
			<dc:format>image/svg+xml</dc:format>
			<dc:type
				rdf:resource="http://purl.org/dc/dcmitype/StillImage" />
			<dc:title></dc:title>
		</cc:Work>
	</rdf:RDF>
</metadata>
<g
	inkscape:label="Layer 1"
	inkscape:groupmode="layer"
	id="layer1">
	<path style="fill:none;stroke:red;stroke-width:1px;stroke-linecap:butt;stroke-linejoin:miter;stroke-opacity:1" d="M 4,226.829 4,243.334 z" id="boundary" inkscape:connector-curvature="0" />
	<path style="fill:none;stroke:red;stroke-width:1px;stroke-linecap:butt;stroke-linejoin:miter;stroke-opacity:1" d="M 4,226.829 17.2047,213.624 z" id="boundary" inkscape:connector-curvature="0" />
	<path style="fill:none;stroke:red;stroke-width:1px;stroke-linecap:butt;stroke-linejoin:miter;stroke-opacity:1" d="M 4,243.334 4,259.84 z" id="boundary" inkscape:connector-curvature="0" />
	<path style="fill:none;stroke:red;stroke-width:1px;stroke-linecap:butt;stroke-linejoin:miter;stroke-opacity:1" d="M 4,259.84 12.2529,274.696 z" id="boundary" inkscape:connector-curvature="0" />
	<path style="fill:none;stroke:red;stroke-width:1px;stroke-linecap:butt;stroke-linejoin:miter;stroke-opacity:1" d="M 12.2529,274.696 23.807,287.9 z" id="boundary" inkscape:connector-curvature="0" />
	<path style="fill:none;stroke:red;stroke-width:1px;stroke-linecap:butt;stroke-linejoin:miter;stroke-opacity:1" d="M 17.2047,213.624 25.4576,197.118 z" id="boundary" inkscape:connector-curvature="0" />
	<path style="fill:none;stroke:red;stroke-width:1px;stroke-linecap:butt;stroke-linejoin:miter;stroke-opacity:1" d="M 23.807,287.9 37.0116,297.804 z" id="boundary" inkscape:connector-curvature="0" />
	<path style="fill:none;stroke:red;stroke-width:1px;stroke-linecap:butt;stroke-linejoin:miter;stroke-opacity:1" d="M 25.4576,197.118 28.7587,177.311 z" id="boundary" inkscape:connector-curvature="0" />
	<path style="fill:none;stroke:red;stroke-width:1px;stroke-linecap:butt;stroke-linejoin:miter;stroke-opacity:1" d="M 28.7587,144.3 28.7587,160.805 z" id="boundary" inkscape:connector-curvature="0" />
	<path style="fill:none;stroke:red;stroke-width:1px;stroke-linecap:butt;stroke-linejoin:miter;stroke-opacity:1" d="M 28.7587,144.3 41.9634,131.095 z" id="boundary" inkscape:connector-curvature="0" />
	<path style="fill:none;stroke:red;stroke-width:1px;stroke-linecap:butt;stroke-linejoin:miter;stroke-opacity:1" d="M 28.7587,160.805 28.7587,177.311 z" id="boundary" inkscape:connector-curvature="0" />
	<path style="fill:none;stroke:red;stroke-width:1px;stroke-linecap:butt;stroke-linejoin:miter;stroke-opacity:1" d="M 37.0116,297.804 53.5175,297.804 z" id="boundary" inkscape:connector-curvature="0" />
	<path style="fill:none;stroke:red;stroke-width:1px;stroke-linecap:butt;stroke-linejoin:miter;stroke-opacity:1" d="M 41.9634,131.095 58.4692,122.842 z" id="boundary" inkscape:connector-curvature="0" />
	<path style="fill:none;stroke:red;stroke-width:1px;stroke-linecap:butt;stroke-linejoin:miter;stroke-opacity:1" d="M 53.5175,45.2646 53.5175,61.7704 z" id="boundary" inkscape:connector-curvature="0" />
	<path style="fill:none;stroke:red;stroke-width:1px;stroke-linecap:butt;stroke-linejoin:miter;stroke-opacity:1" d="M 53.5175,45.2646 70.0233,43.614 z" id="boundary" inkscape:connector-curvature="0" />
	<path style="fill:none;stroke:red;stroke-width:1px;stroke-linecap:butt;stroke-linejoin:miter;stroke-opacity:1" d="M 53.5175,61.7704 53.5175,78.2762 z" id="boundary" inkscape:connector-curvature="0" />
	<path style="fill:none;stroke:red;stroke-width:1px;stroke-linecap:butt;stroke-linejoin:miter;stroke-opacity:1" d="M 53.5175,78.2762 66.7221,89.8303 z" id="boundary" inkscape:connector-curvature="0" />
	<path style="fill:none;stroke:red;stroke-width:1px;stroke-linecap:butt;stroke-linejoin:miter;stroke-opacity:1" d="M 53.5175,297.804 58.4692,314.309 z" id="boundary" inkscape:connector-curvature="0" />
	<path style="fill:none;stroke:red;stroke-width:1px;stroke-linecap:butt;stroke-linejoin:miter;stroke-opacity:1" d="M 58.4692,122.842 70.0233,106.336 z" id="boundary" inkscape:connector-curvature="0" />
	<path style="fill:none;stroke:red;stroke-width:1px;stroke-linecap:butt;stroke-linejoin:miter;stroke-opacity:1" d="M 58.4692,314.309 74.975,314.309 z" id="boundary" inkscape:connector-curvature="0" />
	<path style="fill:none;stroke:red;stroke-width:1px;stroke-linecap:butt;stroke-linejoin:miter;stroke-opacity:1" d="M 66.7221,89.8303 70.0233,106.336 z" id="boundary" inkscape:connector-curvature="0" />
	<path style="fill:none;stroke:red;stroke-width:1px;stroke-linecap:butt;stroke-linejoin:miter;stroke-opacity:1" d="M 70.0233,43.614 79.9268,56.8186 z" id="boundary" inkscape:connector-curvature="0" />
	<path style="fill:none;stroke:red;stroke-width:1px;stroke-linecap:butt;stroke-linejoin:miter;stroke-opacity:1" d="M 74.975,314.309 91.4809,314.309 z" id="boundary" inkscape:connector-curvature="0" />
	<path style="fill:none;stroke:red;stroke-width:1px;stroke-linecap:butt;stroke-linejoin:miter;stroke-opacity:1" d="M 79.9268,56.8186 94.782,65.0715 z" id="boundary" inkscape:connector-curvature="0" />
	<path style="fill:none;stroke:red;stroke-width:1px;stroke-linecap:butt;stroke-linejoin:miter;stroke-opacity:1" d="M 91.4809,314.309 107.987,314.309 z" id="boundary" inkscape:connector-curvature="0" />
	<path style="fill:none;stroke:red;stroke-width:1px;stroke-linecap:butt;stroke-linejoin:miter;stroke-opacity:1" d="M 94.782,65.0715 107.987,74.975 z" id="boundary" inkscape:connector-curvature="0" />
	<path style="fill:none;stroke:red;stroke-width:1px;stroke-linecap:butt;stroke-linejoin:miter;stroke-opacity:1" d="M 107.987,74.975 119.541,53.5175 z" id="boundary" inkscape:connector-curvature="0" />
	<path style="fill:none;stroke:red;stroke-width:1px;stroke-linecap:butt;stroke-linejoin:miter;stroke-opacity:1" d="M 107.987,314.309 124.493,320.912 z" id="boundary" inkscape:connector-curvature="0" />
	<path style="fill:none;stroke:red;stroke-width:1px;stroke-linecap:butt;stroke-linejoin:miter;stroke-opacity:1" d="M 119.541,37.0116 119.541,53.5175 z" id="boundary" inkscape:connector-curvature="0" />
	<path style="fill:none;stroke:red;stroke-width:1px;stroke-linecap:butt;stroke-linejoin:miter;stroke-opacity:1" d="M 119.541,37.0116 127.794,20.5058 z" id="boundary" inkscape:connector-curvature="0" />
	<path style="fill:none;stroke:red;stroke-width:1px;stroke-linecap:butt;stroke-linejoin:miter;stroke-opacity:1" d="M 124.493,320.912 137.697,330.815 z" id="boundary" inkscape:connector-curvature="0" />
	<path style="fill:none;stroke:red;stroke-width:1px;stroke-linecap:butt;stroke-linejoin:miter;stroke-opacity:1" d="M 127.794,4 127.794,20.5058 z" id="boundary" inkscape:connector-curvature="0" />
	<path style="fill:none;stroke:red;stroke-width:1px;stroke-linecap:butt;stroke-linejoin:miter;stroke-opacity:1" d="M 127.794,4 144.3,10.6023 z" id="boundary" inkscape:connector-curvature="0" />
	<path style="fill:none;stroke:red;stroke-width:1px;stroke-linecap:butt;stroke-linejoin:miter;stroke-opacity:1" d="M 137.697,330.815 154.203,334.116 z" id="boundary" inkscape:connector-curvature="0" />
	<path style="fill:none;stroke:red;stroke-width:1px;stroke-linecap:butt;stroke-linejoin:miter;stroke-opacity:1" d="M 144.3,10.6023 150.902,27.1082 z" id="boundary" inkscape:connector-curvature="0" />
	<path style="fill:none;stroke:red;stroke-width:1px;stroke-linecap:butt;stroke-linejoin:miter;stroke-opacity:1" d="M 150.902,27.1082 162.456,40.3128 z" id="boundary" inkscape:connector-curvature="0" />
	<path style="fill:none;stroke:red;stroke-width:1px;stroke-linecap:butt;stroke-linejoin:miter;stroke-opacity:1" d="M 154.203,334.116 169.058,342.369 z" id="boundary" inkscape:connector-curvature="0" />
	<path style="fill:none;stroke:red;stroke-width:1px;stroke-linecap:butt;stroke-linejoin:miter;stroke-opacity:1" d="M 162.456,40.3128 175.661,50.2163 z" id="boundary" inkscape:connector-curvature="0" />
	<path style="fill:none;stroke:red;stroke-width:1px;stroke-linecap:butt;stroke-linejoin:miter;stroke-opacity:1" d="M 169.058,342.369 177.311,357.225 z" id="boundary" inkscape:connector-curvature="0" />
	<path style="fill:none;stroke:red;stroke-width:1px;stroke-linecap:butt;stroke-linejoin:miter;stroke-opacity:1" d="M 175.661,50.2163 183.913,65.0715 z" id="boundary" inkscape:connector-curvature="0" />
	<path style="fill:none;stroke:red;stroke-width:1px;stroke-linecap:butt;stroke-linejoin:miter;stroke-opacity:1" d="M 177.311,357.225 193.817,363.827 z" id="boundary" inkscape:connector-curvature="0" />
	<path style="fill:none;stroke:red;stroke-width:1px;stroke-linecap:butt;stroke-linejoin:miter;stroke-opacity:1" d="M 183.913,65.0715 198.769,73.3245 z" id="boundary" inkscape:connector-curvature="0" />
	<path style="fill:none;stroke:red;stroke-width:1px;stroke-linecap:butt;stroke-linejoin:miter;stroke-opacity:1" d="M 193.817,363.827 193.817,380.333 z" id="boundary" inkscape:connector-curvature="0" />
	<path style="fill:none;stroke:red;stroke-width:1px;stroke-linecap:butt;stroke-linejoin:miter;stroke-opacity:1" d="M 193.817,380.333 198.769,396.839 z" id="boundary" inkscape:connector-curvature="0" />
	<path style="fill:none;stroke:red;stroke-width:1px;stroke-linecap:butt;stroke-linejoin:miter;stroke-opacity:1" d="M 198.769,73.3245 203.72,89.8303 z" id="boundary" inkscape:connector-curvature="0" />
	<path style="fill:none;stroke:red;stroke-width:1px;stroke-linecap:butt;stroke-linejoin:miter;stroke-opacity:1" d="M 198.769,396.839 202.07,413.344 z" id="boundary" inkscape:connector-curvature="0" />
	<path style="fill:none;stroke:red;stroke-width:1px;stroke-linecap:butt;stroke-linejoin:miter;stroke-opacity:1" d="M 202.07,413.344 207.022,429.85 z" id="boundary" inkscape:connector-curvature="0" />
	<path style="fill:none;stroke:red;stroke-width:1px;stroke-linecap:butt;stroke-linejoin:miter;stroke-opacity:1" d="M 203.72,89.8303 220.226,94.782 z" id="boundary" inkscape:connector-curvature="0" />
	<path style="fill:none;stroke:red;stroke-width:1px;stroke-linecap:butt;stroke-linejoin:miter;stroke-opacity:1" d="M 207.022,429.85 215.275,444.705 z" id="boundary" inkscape:connector-curvature="0" />
	<path style="fill:none;stroke:red;stroke-width:1px;stroke-linecap:butt;stroke-linejoin:miter;stroke-opacity:1" d="M 210.323,771.521 218.576,746.762 z" id="boundary" inkscape:connector-curvature="0" />
	<path style="fill:none;stroke:red;stroke-width:1px;stroke-linecap:butt;stroke-linejoin:miter;stroke-opacity:1" d="M 210.323,771.521 220.226,784.725 z" id="boundary" inkscape:connector-curvature="0" />
	<path style="fill:none;stroke:red;stroke-width:1px;stroke-linecap:butt;stroke-linejoin:miter;stroke-opacity:1" d="M 215.275,444.705 218.576,461.211 z" id="boundary" inkscape:connector-curvature="0" />
	<path style="fill:none;stroke:red;stroke-width:1px;stroke-linecap:butt;stroke-linejoin:miter;stroke-opacity:1" d="M 218.576,461.211 226.829,476.067 z" id="boundary" inkscape:connector-curvature="0" />
	<path style="fill:none;stroke:red;stroke-width:1px;stroke-linecap:butt;stroke-linejoin:miter;stroke-opacity:1" d="M 218.576,746.762 235.082,741.81 z" id="boundary" inkscape:connector-curvature="0" />
	<path style="fill:none;stroke:red;stroke-width:1px;stroke-linecap:butt;stroke-linejoin:miter;stroke-opacity:1" d="M 220.226,94.782 220.226,111.288 z" id="boundary" inkscape:connector-curvature="0" />
	<path style="fill:none;stroke:red;stroke-width:1px;stroke-linecap:butt;stroke-linejoin:miter;stroke-opacity:1" d="M 220.226,111.288 233.431,122.842 z" id="boundary" inkscape:connector-curvature="0" />
	<path style="fill:none;stroke:red;stroke-width:1px;stroke-linecap:butt;stroke-linejoin:miter;stroke-opacity:1" d="M 220.226,784.725 236.732,784.725 z" id="boundary" inkscape:connector-curvature="0" />
	<path style="fill:none;stroke:red;stroke-width:1px;stroke-linecap:butt;stroke-linejoin:miter;stroke-opacity:1" d="M 226.829,476.067 228.479,492.572 z" id="boundary" inkscape:connector-curvature="0" />
	<path style="fill:none;stroke:red;stroke-width:1px;stroke-linecap:butt;stroke-linejoin:miter;stroke-opacity:1" d="M 228.479,492.572 243.334,500.825 z" id="boundary" inkscape:connector-curvature="0" />
	<path style="fill:none;stroke:red;stroke-width:1px;stroke-linecap:butt;stroke-linejoin:miter;stroke-opacity:1" d="M 233.431,122.842 248.286,131.095 z" id="boundary" inkscape:connector-curvature="0" />
	<path style="fill:none;stroke:red;stroke-width:1px;stroke-linecap:butt;stroke-linejoin:miter;stroke-opacity:1" d="M 235.082,741.81 251.587,741.81 z" id="boundary" inkscape:connector-curvature="0" />
	<path style="fill:none;stroke:red;stroke-width:1px;stroke-linecap:butt;stroke-linejoin:miter;stroke-opacity:1" d="M 236.732,784.725 251.587,792.978 z" id="boundary" inkscape:connector-curvature="0" />
	<path style="fill:none;stroke:red;stroke-width:1px;stroke-linecap:butt;stroke-linejoin:miter;stroke-opacity:1" d="M 243.334,500.825 243.334,517.331 z" id="boundary" inkscape:connector-curvature="0" />
	<path style="fill:none;stroke:red;stroke-width:1px;stroke-linecap:butt;stroke-linejoin:miter;stroke-opacity:1" d="M 243.334,517.331 251.587,532.186 z" id="boundary" inkscape:connector-curvature="0" />
	<path style="fill:none;stroke:red;stroke-width:1px;stroke-linecap:butt;stroke-linejoin:miter;stroke-opacity:1" d="M 248.286,131.095 263.141,139.348 z" id="boundary" inkscape:connector-curvature="0" />
	<path style="fill:none;stroke:red;stroke-width:1px;stroke-linecap:butt;stroke-linejoin:miter;stroke-opacity:1" d="M 251.587,532.186 259.84,547.042 z" id="boundary" inkscape:connector-curvature="0" />
	<path style="fill:none;stroke:red;stroke-width:1px;stroke-linecap:butt;stroke-linejoin:miter;stroke-opacity:1" d="M 251.587,741.81 268.093,738.509 z" id="boundary" inkscape:connector-curvature="0" />
	<path style="fill:none;stroke:red;stroke-width:1px;stroke-linecap:butt;stroke-linejoin:miter;stroke-opacity:1" d="M 251.587,792.978 268.093,792.978 z" id="boundary" inkscape:connector-curvature="0" />
	<path style="fill:none;stroke:red;stroke-width:1px;stroke-linecap:butt;stroke-linejoin:miter;stroke-opacity:1" d="M 259.84,547.042 259.84,563.547 z" id="boundary" inkscape:connector-curvature="0" />
	<path style="fill:none;stroke:red;stroke-width:1px;stroke-linecap:butt;stroke-linejoin:miter;stroke-opacity:1" d="M 259.84,563.547 268.093,578.403 z" id="boundary" inkscape:connector-curvature="0" />
	<path style="fill:none;stroke:red;stroke-width:1px;stroke-linecap:butt;stroke-linejoin:miter;stroke-opacity:1" d="M 263.141,139.348 276.346,150.902 z" id="boundary" inkscape:connector-curvature="0" />
	<path style="fill:none;stroke:red;stroke-width:1px;stroke-linecap:butt;stroke-linejoin:miter;stroke-opacity:1" d="M 268.093,578.403 273.045,594.908 z" id="boundary" inkscape:connector-curvature="0" />
	<path style="fill:none;stroke:red;stroke-width:1px;stroke-linecap:butt;stroke-linejoin:miter;stroke-opacity:1" d="M 268.093,738.509 276.346,722.003 z" id="boundary" inkscape:connector-curvature="0" />
	<path style="fill:none;stroke:red;stroke-width:1px;stroke-linecap:butt;stroke-linejoin:miter;stroke-opacity:1" d="M 268.093,792.978 284.599,792.978 z" id="boundary" inkscape:connector-curvature="0" />
	<path style="fill:none;stroke:red;stroke-width:1px;stroke-linecap:butt;stroke-linejoin:miter;stroke-opacity:1" d="M 273.045,594.908 276.346,611.414 z" id="boundary" inkscape:connector-curvature="0" />
	<path style="fill:none;stroke:red;stroke-width:1px;stroke-linecap:butt;stroke-linejoin:miter;stroke-opacity:1" d="M 276.346,150.902 277.997,167.408 z" id="boundary" inkscape:connector-curvature="0" />
	<path style="fill:none;stroke:red;stroke-width:1px;stroke-linecap:butt;stroke-linejoin:miter;stroke-opacity:1" d="M 276.346,611.414 276.346,627.92 z" id="boundary" inkscape:connector-curvature="0" />
	<path style="fill:none;stroke:red;stroke-width:1px;stroke-linecap:butt;stroke-linejoin:miter;stroke-opacity:1" d="M 276.346,627.92 276.346,644.426 z" id="boundary" inkscape:connector-curvature="0" />
	<path style="fill:none;stroke:red;stroke-width:1px;stroke-linecap:butt;stroke-linejoin:miter;stroke-opacity:1" d="M 276.346,644.426 284.599,659.281 z" id="boundary" inkscape:connector-curvature="0" />
	<path style="fill:none;stroke:red;stroke-width:1px;stroke-linecap:butt;stroke-linejoin:miter;stroke-opacity:1" d="M 276.346,705.498 276.346,722.003 z" id="boundary" inkscape:connector-curvature="0" />
	<path style="fill:none;stroke:red;stroke-width:1px;stroke-linecap:butt;stroke-linejoin:miter;stroke-opacity:1" d="M 276.346,705.498 284.599,675.787 z" id="boundary" inkscape:connector-curvature="0" />
	<path style="fill:none;stroke:red;stroke-width:1px;stroke-linecap:butt;stroke-linejoin:miter;stroke-opacity:1" d="M 277.997,167.408 292.852,175.661 z" id="boundary" inkscape:connector-curvature="0" />
	<path style="fill:none;stroke:red;stroke-width:1px;stroke-linecap:butt;stroke-linejoin:miter;stroke-opacity:1" d="M 284.599,659.281 284.599,675.787 z" id="boundary" inkscape:connector-curvature="0" />
	<path style="fill:none;stroke:red;stroke-width:1px;stroke-linecap:butt;stroke-linejoin:miter;stroke-opacity:1" d="M 284.599,792.978 301.105,788.027 z" id="boundary" inkscape:connector-curvature="0" />
	<path style="fill:none;stroke:red;stroke-width:1px;stroke-linecap:butt;stroke-linejoin:miter;stroke-opacity:1" d="M 292.852,175.661 302.755,188.865 z" id="boundary" inkscape:connector-curvature="0" />
	<path style="fill:none;stroke:red;stroke-width:1px;stroke-linecap:butt;stroke-linejoin:miter;stroke-opacity:1" d="M 301.105,788.027 314.309,774.822 z" id="boundary" inkscape:connector-curvature="0" />
	<path style="fill:none;stroke:red;stroke-width:1px;stroke-linecap:butt;stroke-linejoin:miter;stroke-opacity:1" d="M 302.755,188.865 315.96,198.769 z" id="boundary" inkscape:connector-curvature="0" />
	<path style="fill:none;stroke:red;stroke-width:1px;stroke-linecap:butt;stroke-linejoin:miter;stroke-opacity:1" d="M 314.309,774.822 322.562,758.316 z" id="boundary" inkscape:connector-curvature="0" />
	<path style="fill:none;stroke:red;stroke-width:1px;stroke-linecap:butt;stroke-linejoin:miter;stroke-opacity:1" d="M 315.96,198.769 324.213,213.624 z" id="boundary" inkscape:connector-curvature="0" />
	<path style="fill:none;stroke:red;stroke-width:1px;stroke-linecap:butt;stroke-linejoin:miter;stroke-opacity:1" d="M 322.562,758.316 327.514,726.955 z" id="boundary" inkscape:connector-curvature="0" />
	<path style="fill:none;stroke:red;stroke-width:1px;stroke-linecap:butt;stroke-linejoin:miter;stroke-opacity:1" d="M 324.213,213.624 340.719,215.275 z" id="boundary" inkscape:connector-curvature="0" />
	<path style="fill:none;stroke:red;stroke-width:1px;stroke-linecap:butt;stroke-linejoin:miter;stroke-opacity:1" d="M 325.864,812.785 325.864,829.291 z" id="boundary" inkscape:connector-curvature="0" />
	<path style="fill:none;stroke:red;stroke-width:1px;stroke-linecap:butt;stroke-linejoin:miter;stroke-opacity:1" d="M 325.864,812.785 342.369,804.532 z" id="boundary" inkscape:connector-curvature="0" />
	<path style="fill:none;stroke:red;stroke-width:1px;stroke-linecap:butt;stroke-linejoin:miter;stroke-opacity:1" d="M 325.864,829.291 342.369,834.243 z" id="boundary" inkscape:connector-curvature="0" />
	<path style="fill:none;stroke:red;stroke-width:1px;stroke-linecap:butt;stroke-linejoin:miter;stroke-opacity:1" d="M 327.514,726.955 335.767,710.449 z" id="boundary" inkscape:connector-curvature="0" />
	<path style="fill:none;stroke:red;stroke-width:1px;stroke-linecap:butt;stroke-linejoin:miter;stroke-opacity:1" d="M 335.767,710.449 344.02,685.691 z" id="boundary" inkscape:connector-curvature="0" />
	<path style="fill:none;stroke:red;stroke-width:1px;stroke-linecap:butt;stroke-linejoin:miter;stroke-opacity:1" d="M 340.719,215.275 355.574,223.527 z" id="boundary" inkscape:connector-curvature="0" />
	<path style="fill:none;stroke:red;stroke-width:1px;stroke-linecap:butt;stroke-linejoin:miter;stroke-opacity:1" d="M 342.369,804.532 350.622,779.774 z" id="boundary" inkscape:connector-curvature="0" />
	<path style="fill:none;stroke:red;stroke-width:1px;stroke-linecap:butt;stroke-linejoin:miter;stroke-opacity:1" d="M 342.369,834.243 357.225,842.496 z" id="boundary" inkscape:connector-curvature="0" />
	<path style="fill:none;stroke:red;stroke-width:1px;stroke-linecap:butt;stroke-linejoin:miter;stroke-opacity:1" d="M 344.02,685.691 352.273,669.185 z" id="boundary" inkscape:connector-curvature="0" />
	<path style="fill:none;stroke:red;stroke-width:1px;stroke-linecap:butt;stroke-linejoin:miter;stroke-opacity:1" d="M 350.622,779.774 358.875,763.268 z" id="boundary" inkscape:connector-curvature="0" />
	<path style="fill:none;stroke:red;stroke-width:1px;stroke-linecap:butt;stroke-linejoin:miter;stroke-opacity:1" d="M 355.574,223.527 372.08,230.13 z" id="boundary" inkscape:connector-curvature="0" />
	<path style="fill:none;stroke:red;stroke-width:1px;stroke-linecap:butt;stroke-linejoin:miter;stroke-opacity:1" d="M 357.225,842.496 373.73,842.496 z" id="boundary" inkscape:connector-curvature="0" />
	<path style="fill:none;stroke:red;stroke-width:1px;stroke-linecap:butt;stroke-linejoin:miter;stroke-opacity:1" d="M 358.875,763.268 367.128,746.762 z" id="boundary" inkscape:connector-curvature="0" />
	<path style="fill:none;stroke:red;stroke-width:1px;stroke-linecap:butt;stroke-linejoin:miter;stroke-opacity:1" d="M 360.526,644.426 368.779,627.92 z" id="boundary" inkscape:connector-curvature="0" />
	<path style="fill:none;stroke:red;stroke-width:1px;stroke-linecap:butt;stroke-linejoin:miter;stroke-opacity:1" d="M 360.526,644.426 375.381,652.679 z" id="boundary" inkscape:connector-curvature="0" />
	<path style="fill:none;stroke:red;stroke-width:1px;stroke-linecap:butt;stroke-linejoin:miter;stroke-opacity:1" d="M 367.128,730.256 367.128,746.762 z" id="boundary" inkscape:connector-curvature="0" />
	<path style="fill:none;stroke:red;stroke-width:1px;stroke-linecap:butt;stroke-linejoin:miter;stroke-opacity:1" d="M 367.128,730.256 375.381,702.196 z" id="boundary" inkscape:connector-curvature="0" />
	<path style="fill:none;stroke:red;stroke-width:1px;stroke-linecap:butt;stroke-linejoin:miter;stroke-opacity:1" d="M 372.08,230.13 386.935,238.383 z" id="boundary" inkscape:connector-curvature="0" />
	<path style="fill:none;stroke:red;stroke-width:1px;stroke-linecap:butt;stroke-linejoin:miter;stroke-opacity:1" d="M 373.73,842.496 390.236,839.195 z" id="boundary" inkscape:connector-curvature="0" />
	<path style="fill:none;stroke:red;stroke-width:1px;stroke-linecap:butt;stroke-linejoin:miter;stroke-opacity:1" d="M 375.381,652.679 375.381,669.185 z" id="boundary" inkscape:connector-curvature="0" />
	<path style="fill:none;stroke:red;stroke-width:1px;stroke-linecap:butt;stroke-linejoin:miter;stroke-opacity:1" d="M 375.381,669.185 375.381,685.691 z" id="boundary" inkscape:connector-curvature="0" />
	<path style="fill:none;stroke:red;stroke-width:1px;stroke-linecap:butt;stroke-linejoin:miter;stroke-opacity:1" d="M 375.381,685.691 375.381,702.196 z" id="boundary" inkscape:connector-curvature="0" />
	<path style="fill:none;stroke:red;stroke-width:1px;stroke-linecap:butt;stroke-linejoin:miter;stroke-opacity:1" d="M 386.935,238.383 401.79,246.636 z" id="boundary" inkscape:connector-curvature="0" />
	<path style="fill:none;stroke:red;stroke-width:1px;stroke-linecap:butt;stroke-linejoin:miter;stroke-opacity:1" d="M 390.236,839.195 406.742,830.942 z" id="boundary" inkscape:connector-curvature="0" />
	<path style="fill:none;stroke:red;stroke-width:1px;stroke-linecap:butt;stroke-linejoin:miter;stroke-opacity:1" d="M 401.79,246.636 418.296,246.636 z" id="boundary" inkscape:connector-curvature="0" />
	<path style="fill:none;stroke:red;stroke-width:1px;stroke-linecap:butt;stroke-linejoin:miter;stroke-opacity:1" d="M 406.742,830.942 414.995,814.436 z" id="boundary" inkscape:connector-curvature="0" />
	<path style="fill:none;stroke:red;stroke-width:1px;stroke-linecap:butt;stroke-linejoin:miter;stroke-opacity:1" d="M 414.995,814.436 418.296,784.725 z" id="boundary" inkscape:connector-curvature="0" />
	<path style="fill:none;stroke:red;stroke-width:1px;stroke-linecap:butt;stroke-linejoin:miter;stroke-opacity:1" d="M 418.296,246.636 434.802,246.636 z" id="boundary" inkscape:connector-curvature="0" />
	<path style="fill:none;stroke:red;stroke-width:1px;stroke-linecap:butt;stroke-linejoin:miter;stroke-opacity:1" d="M 418.296,784.725 434.802,768.22 z" id="boundary" inkscape:connector-curvature="0" />
	<path style="fill:none;stroke:red;stroke-width:1px;stroke-linecap:butt;stroke-linejoin:miter;stroke-opacity:1" d="M 434.802,246.636 451.308,251.587 z" id="boundary" inkscape:connector-curvature="0" />
	<path style="fill:none;stroke:red;stroke-width:1px;stroke-linecap:butt;stroke-linejoin:miter;stroke-opacity:1" d="M 434.802,768.22 443.055,751.714 z" id="boundary" inkscape:connector-curvature="0" />
	<path style="fill:none;stroke:red;stroke-width:1px;stroke-linecap:butt;stroke-linejoin:miter;stroke-opacity:1" d="M 443.055,718.702 443.055,735.208 z" id="boundary" inkscape:connector-curvature="0" />
	<path style="fill:none;stroke:red;stroke-width:1px;stroke-linecap:butt;stroke-linejoin:miter;stroke-opacity:1" d="M 443.055,718.702 451.308,693.943 z" id="boundary" inkscape:connector-curvature="0" />
	<path style="fill:none;stroke:red;stroke-width:1px;stroke-linecap:butt;stroke-linejoin:miter;stroke-opacity:1" d="M 443.055,735.208 443.055,751.714 z" id="boundary" inkscape:connector-curvature="0" />
	<path style="fill:none;stroke:red;stroke-width:1px;stroke-linecap:butt;stroke-linejoin:miter;stroke-opacity:1" d="M 451.308,251.587 464.512,263.141 z" id="boundary" inkscape:connector-curvature="0" />
	<path style="fill:none;stroke:red;stroke-width:1px;stroke-linecap:butt;stroke-linejoin:miter;stroke-opacity:1" d="M 451.308,677.438 451.308,693.943 z" id="boundary" inkscape:connector-curvature="0" />
	<path style="fill:none;stroke:red;stroke-width:1px;stroke-linecap:butt;stroke-linejoin:miter;stroke-opacity:1" d="M 451.308,677.438 459.561,660.932 z" id="boundary" inkscape:connector-curvature="0" />
	<path style="fill:none;stroke:red;stroke-width:1px;stroke-linecap:butt;stroke-linejoin:miter;stroke-opacity:1" d="M 459.561,660.932 467.814,636.173 z" id="boundary" inkscape:connector-curvature="0" />
	<path style="fill:none;stroke:red;stroke-width:1px;stroke-linecap:butt;stroke-linejoin:miter;stroke-opacity:1" d="M 464.512,263.141 481.018,263.141 z" id="boundary" inkscape:connector-curvature="0" />
	<path style="fill:none;stroke:red;stroke-width:1px;stroke-linecap:butt;stroke-linejoin:miter;stroke-opacity:1" d="M 467.814,636.173 484.319,627.92 z" id="boundary" inkscape:connector-curvature="0" />
	<path style="fill:none;stroke:red;stroke-width:1px;stroke-linecap:butt;stroke-linejoin:miter;stroke-opacity:1" d="M 481.018,263.141 497.524,263.141 z" id="boundary" inkscape:connector-curvature="0" />
	<path style="fill:none;stroke:red;stroke-width:1px;stroke-linecap:butt;stroke-linejoin:miter;stroke-opacity:1" d="M 484.319,611.414 484.319,627.92 z" id="boundary" inkscape:connector-curvature="0" />
	<path style="fill:none;stroke:red;stroke-width:1px;stroke-linecap:butt;stroke-linejoin:miter;stroke-opacity:1" d="M 484.319,611.414 492.572,586.656 z" id="boundary" inkscape:connector-curvature="0" />
	<path style="fill:none;stroke:red;stroke-width:1px;stroke-linecap:butt;stroke-linejoin:miter;stroke-opacity:1" d="M 492.572,570.15 492.572,586.656 z" id="boundary" inkscape:connector-curvature="0" />
	<path style="fill:none;stroke:red;stroke-width:1px;stroke-linecap:butt;stroke-linejoin:miter;stroke-opacity:1" d="M 492.572,570.15 500.825,553.644 z" id="boundary" inkscape:connector-curvature="0" />
	<path style="fill:none;stroke:red;stroke-width:1px;stroke-linecap:butt;stroke-linejoin:miter;stroke-opacity:1" d="M 497.524,263.141 514.03,263.141 z" id="boundary" inkscape:connector-curvature="0" />
	<path style="fill:none;stroke:red;stroke-width:1px;stroke-linecap:butt;stroke-linejoin:miter;stroke-opacity:1" d="M 500.825,537.138 500.825,553.644 z" id="boundary" inkscape:connector-curvature="0" />
	<path style="fill:none;stroke:red;stroke-width:1px;stroke-linecap:butt;stroke-linejoin:miter;stroke-opacity:1" d="M 500.825,537.138 517.331,537.138 z" id="boundary" inkscape:connector-curvature="0" />
	<path style="fill:none;stroke:red;stroke-width:1px;stroke-linecap:butt;stroke-linejoin:miter;stroke-opacity:1" d="M 514.03,263.141 530.536,263.141 z" id="boundary" inkscape:connector-curvature="0" />
	<path style="fill:none;stroke:red;stroke-width:1px;stroke-linecap:butt;stroke-linejoin:miter;stroke-opacity:1" d="M 517.331,537.138 533.837,537.138 z" id="boundary" inkscape:connector-curvature="0" />
	<path style="fill:none;stroke:red;stroke-width:1px;stroke-linecap:butt;stroke-linejoin:miter;stroke-opacity:1" d="M 530.536,263.141 547.042,263.141 z" id="boundary" inkscape:connector-curvature="0" />
	<path style="fill:none;stroke:red;stroke-width:1px;stroke-linecap:butt;stroke-linejoin:miter;stroke-opacity:1" d="M 533.837,537.138 550.343,537.138 z" id="boundary" inkscape:connector-curvature="0" />
	<path style="fill:none;stroke:red;stroke-width:1px;stroke-linecap:butt;stroke-linejoin:miter;stroke-opacity:1" d="M 547.042,263.141 563.547,263.141 z" id="boundary" inkscape:connector-curvature="0" />
	<path style="fill:none;stroke:red;stroke-width:1px;stroke-linecap:butt;stroke-linejoin:miter;stroke-opacity:1" d="M 550.343,537.138 566.849,540.439 z" id="boundary" inkscape:connector-curvature="0" />
	<path style="fill:none;stroke:red;stroke-width:1px;stroke-linecap:butt;stroke-linejoin:miter;stroke-opacity:1" d="M 563.547,263.141 580.053,263.141 z" id="boundary" inkscape:connector-curvature="0" />
	<path style="fill:none;stroke:red;stroke-width:1px;stroke-linecap:butt;stroke-linejoin:miter;stroke-opacity:1" d="M 566.849,540.439 583.354,545.391 z" id="boundary" inkscape:connector-curvature="0" />
	<path style="fill:none;stroke:red;stroke-width:1px;stroke-linecap:butt;stroke-linejoin:miter;stroke-opacity:1" d="M 580.053,263.141 596.559,263.141 z" id="boundary" inkscape:connector-curvature="0" />
	<path style="fill:none;stroke:red;stroke-width:1px;stroke-linecap:butt;stroke-linejoin:miter;stroke-opacity:1" d="M 583.354,545.391 599.86,545.391 z" id="boundary" inkscape:connector-curvature="0" />
	<path style="fill:none;stroke:red;stroke-width:1px;stroke-linecap:butt;stroke-linejoin:miter;stroke-opacity:1" d="M 596.559,263.141 611.414,271.394 z" id="boundary" inkscape:connector-curvature="0" />
	<path style="fill:none;stroke:red;stroke-width:1px;stroke-linecap:butt;stroke-linejoin:miter;stroke-opacity:1" d="M 599.86,545.391 616.366,545.391 z" id="boundary" inkscape:connector-curvature="0" />
	<path style="fill:none;stroke:red;stroke-width:1px;stroke-linecap:butt;stroke-linejoin:miter;stroke-opacity:1" d="M 611.414,271.394 627.92,271.394 z" id="boundary" inkscape:connector-curvature="0" />
	<path style="fill:none;stroke:red;stroke-width:1px;stroke-linecap:butt;stroke-linejoin:miter;stroke-opacity:1" d="M 614.715,738.509 627.92,725.304 z" id="boundary" inkscape:connector-curvature="0" />
	<path style="fill:none;stroke:red;stroke-width:1px;stroke-linecap:butt;stroke-linejoin:miter;stroke-opacity:1" d="M 614.715,738.509 627.92,750.063 z" id="boundary" inkscape:connector-curvature="0" />
	<path style="fill:none;stroke:red;stroke-width:1px;stroke-linecap:butt;stroke-linejoin:miter;stroke-opacity:1" d="M 616.366,545.391 632.872,537.138 z" id="boundary" inkscape:connector-curvature="0" />
	<path style="fill:none;stroke:red;stroke-width:1px;stroke-linecap:butt;stroke-linejoin:miter;stroke-opacity:1" d="M 627.92,271.394 644.426,263.141 z" id="boundary" inkscape:connector-curvature="0" />
	<path style="fill:none;stroke:red;stroke-width:1px;stroke-linecap:butt;stroke-linejoin:miter;stroke-opacity:1" d="M 627.92,725.304 642.775,717.052 z" id="boundary" inkscape:connector-curvature="0" />
	<path style="fill:none;stroke:red;stroke-width:1px;stroke-linecap:butt;stroke-linejoin:miter;stroke-opacity:1" d="M 627.92,750.063 641.125,759.967 z" id="boundary" inkscape:connector-curvature="0" />
	<path style="fill:none;stroke:red;stroke-width:1px;stroke-linecap:butt;stroke-linejoin:miter;stroke-opacity:1" d="M 632.872,537.138 649.378,540.439 z" id="boundary" inkscape:connector-curvature="0" />
	<path style="fill:none;stroke:red;stroke-width:1px;stroke-linecap:butt;stroke-linejoin:miter;stroke-opacity:1" d="M 641.125,759.967 657.631,759.967 z" id="boundary" inkscape:connector-curvature="0" />
	<path style="fill:none;stroke:red;stroke-width:1px;stroke-linecap:butt;stroke-linejoin:miter;stroke-opacity:1" d="M 642.775,717.052 659.281,717.052 z" id="boundary" inkscape:connector-curvature="0" />
	<path style="fill:none;stroke:red;stroke-width:1px;stroke-linecap:butt;stroke-linejoin:miter;stroke-opacity:1" d="M 644.426,263.141 660.932,263.141 z" id="boundary" inkscape:connector-curvature="0" />
	<path style="fill:none;stroke:red;stroke-width:1px;stroke-linecap:butt;stroke-linejoin:miter;stroke-opacity:1" d="M 649.378,540.439 655.98,556.945 z" id="boundary" inkscape:connector-curvature="0" />
	<path style="fill:none;stroke:red;stroke-width:1px;stroke-linecap:butt;stroke-linejoin:miter;stroke-opacity:1" d="M 655.98,556.945 672.486,561.897 z" id="boundary" inkscape:connector-curvature="0" />
	<path style="fill:none;stroke:red;stroke-width:1px;stroke-linecap:butt;stroke-linejoin:miter;stroke-opacity:1" d="M 657.631,759.967 674.136,759.967 z" id="boundary" inkscape:connector-curvature="0" />
	<path style="fill:none;stroke:red;stroke-width:1px;stroke-linecap:butt;stroke-linejoin:miter;stroke-opacity:1" d="M 659.281,717.052 675.787,710.449 z" id="boundary" inkscape:connector-curvature="0" />
	<path style="fill:none;stroke:red;stroke-width:1px;stroke-linecap:butt;stroke-linejoin:miter;stroke-opacity:1" d="M 660.932,263.141 677.438,263.141 z" id="boundary" inkscape:connector-curvature="0" />
	<path style="fill:none;stroke:red;stroke-width:1px;stroke-linecap:butt;stroke-linejoin:miter;stroke-opacity:1" d="M 672.486,561.897 677.438,578.403 z" id="boundary" inkscape:connector-curvature="0" />
	<path style="fill:none;stroke:red;stroke-width:1px;stroke-linecap:butt;stroke-linejoin:miter;stroke-opacity:1" d="M 674.136,759.967 690.642,743.461 z" id="boundary" inkscape:connector-curvature="0" />
	<path style="fill:none;stroke:red;stroke-width:1px;stroke-linecap:butt;stroke-linejoin:miter;stroke-opacity:1" d="M 675.787,710.449 688.992,697.245 z" id="boundary" inkscape:connector-curvature="0" />
	<path style="fill:none;stroke:red;stroke-width:1px;stroke-linecap:butt;stroke-linejoin:miter;stroke-opacity:1" d="M 677.438,263.141 693.943,263.141 z" id="boundary" inkscape:connector-curvature="0" />
	<path style="fill:none;stroke:red;stroke-width:1px;stroke-linecap:butt;stroke-linejoin:miter;stroke-opacity:1" d="M 677.438,578.403 685.691,593.258 z" id="boundary" inkscape:connector-curvature="0" />
	<path style="fill:none;stroke:red;stroke-width:1px;stroke-linecap:butt;stroke-linejoin:miter;stroke-opacity:1" d="M 685.691,593.258 688.992,609.764 z" id="boundary" inkscape:connector-curvature="0" />
	<path style="fill:none;stroke:red;stroke-width:1px;stroke-linecap:butt;stroke-linejoin:miter;stroke-opacity:1" d="M 688.992,609.764 697.245,624.619 z" id="boundary" inkscape:connector-curvature="0" />
	<path style="fill:none;stroke:red;stroke-width:1px;stroke-linecap:butt;stroke-linejoin:miter;stroke-opacity:1" d="M 688.992,697.245 697.245,680.739 z" id="boundary" inkscape:connector-curvature="0" />
	<path style="fill:none;stroke:red;stroke-width:1px;stroke-linecap:butt;stroke-linejoin:miter;stroke-opacity:1" d="M 690.642,743.461 703.847,731.907 z" id="boundary" inkscape:connector-curvature="0" />
	<path style="fill:none;stroke:red;stroke-width:1px;stroke-linecap:butt;stroke-linejoin:miter;stroke-opacity:1" d="M 693.943,263.141 710.449,263.141 z" id="boundary" inkscape:connector-curvature="0" />
	<path style="fill:none;stroke:red;stroke-width:1px;stroke-linecap:butt;stroke-linejoin:miter;stroke-opacity:1" d="M 697.245,624.619 705.498,639.474 z" id="boundary" inkscape:connector-curvature="0" />
	<path style="fill:none;stroke:red;stroke-width:1px;stroke-linecap:butt;stroke-linejoin:miter;stroke-opacity:1" d="M 697.245,680.739 705.498,655.98 z" id="boundary" inkscape:connector-curvature="0" />
	<path style="fill:none;stroke:red;stroke-width:1px;stroke-linecap:butt;stroke-linejoin:miter;stroke-opacity:1" d="M 703.847,731.907 720.353,723.654 z" id="boundary" inkscape:connector-curvature="0" />
	<path style="fill:none;stroke:red;stroke-width:1px;stroke-linecap:butt;stroke-linejoin:miter;stroke-opacity:1" d="M 705.498,639.474 705.498,655.98 z" id="boundary" inkscape:connector-curvature="0" />
	<path style="fill:none;stroke:red;stroke-width:1px;stroke-linecap:butt;stroke-linejoin:miter;stroke-opacity:1" d="M 710.449,263.141 726.955,263.141 z" id="boundary" inkscape:connector-curvature="0" />
	<path style="fill:none;stroke:red;stroke-width:1px;stroke-linecap:butt;stroke-linejoin:miter;stroke-opacity:1" d="M 720.353,723.654 731.907,710.449 z" id="boundary" inkscape:connector-curvature="0" />
	<path style="fill:none;stroke:red;stroke-width:1px;stroke-linecap:butt;stroke-linejoin:miter;stroke-opacity:1" d="M 726.955,263.141 741.81,271.394 z" id="boundary" inkscape:connector-curvature="0" />
	<path style="fill:none;stroke:red;stroke-width:1px;stroke-linecap:butt;stroke-linejoin:miter;stroke-opacity:1" d="M 731.907,710.449 740.16,693.943 z" id="boundary" inkscape:connector-curvature="0" />
	<path style="fill:none;stroke:red;stroke-width:1px;stroke-linecap:butt;stroke-linejoin:miter;stroke-opacity:1" d="M 740.16,693.943 753.364,682.389 z" id="boundary" inkscape:connector-curvature="0" />
	<path style="fill:none;stroke:red;stroke-width:1px;stroke-linecap:butt;stroke-linejoin:miter;stroke-opacity:1" d="M 741.81,271.394 758.316,271.394 z" id="boundary" inkscape:connector-curvature="0" />
	<path style="fill:none;stroke:red;stroke-width:1px;stroke-linecap:butt;stroke-linejoin:miter;stroke-opacity:1" d="M 746.762,746.762 746.762,763.268 z" id="boundary" inkscape:connector-curvature="0" />
	<path style="fill:none;stroke:red;stroke-width:1px;stroke-linecap:butt;stroke-linejoin:miter;stroke-opacity:1" d="M 746.762,746.762 763.268,741.81 z" id="boundary" inkscape:connector-curvature="0" />
	<path style="fill:none;stroke:red;stroke-width:1px;stroke-linecap:butt;stroke-linejoin:miter;stroke-opacity:1" d="M 746.762,763.268 756.666,776.473 z" id="boundary" inkscape:connector-curvature="0" />
	<path style="fill:none;stroke:red;stroke-width:1px;stroke-linecap:butt;stroke-linejoin:miter;stroke-opacity:1" d="M 753.364,682.389 769.87,674.136 z" id="boundary" inkscape:connector-curvature="0" />
	<path style="fill:none;stroke:red;stroke-width:1px;stroke-linecap:butt;stroke-linejoin:miter;stroke-opacity:1" d="M 756.666,776.473 771.521,784.725 z" id="boundary" inkscape:connector-curvature="0" />
	<path style="fill:none;stroke:red;stroke-width:1px;stroke-linecap:butt;stroke-linejoin:miter;stroke-opacity:1" d="M 758.316,271.394 773.171,279.647 z" id="boundary" inkscape:connector-curvature="0" />
	<path style="fill:none;stroke:red;stroke-width:1px;stroke-linecap:butt;stroke-linejoin:miter;stroke-opacity:1" d="M 763.268,741.81 773.171,728.606 z" id="boundary" inkscape:connector-curvature="0" />
	<path style="fill:none;stroke:red;stroke-width:1px;stroke-linecap:butt;stroke-linejoin:miter;stroke-opacity:1" d="M 771.521,784.725 788.027,784.725 z" id="boundary" inkscape:connector-curvature="0" />
	<path style="fill:none;stroke:red;stroke-width:1px;stroke-linecap:butt;stroke-linejoin:miter;stroke-opacity:1" d="M 773.171,279.647 789.677,279.647 z" id="boundary" inkscape:connector-curvature="0" />
	<path style="fill:none;stroke:red;stroke-width:1px;stroke-linecap:butt;stroke-linejoin:miter;stroke-opacity:1" d="M 773.171,619.667 773.171,636.173 z" id="boundary" inkscape:connector-curvature="0" />
	<path style="fill:none;stroke:red;stroke-width:1px;stroke-linecap:butt;stroke-linejoin:miter;stroke-opacity:1" d="M 773.171,636.173 773.171,652.679 z" id="boundary" inkscape:connector-curvature="0" />
	<path style="fill:none;stroke:red;stroke-width:1px;stroke-linecap:butt;stroke-linejoin:miter;stroke-opacity:1" d="M 773.171,728.606 786.376,717.052 z" id="boundary" inkscape:connector-curvature="0" />
	<path style="fill:none;stroke:red;stroke-width:1px;stroke-linecap:butt;stroke-linejoin:miter;stroke-opacity:1" d="M 786.376,717.052 788.027,693.943 z" id="boundary" inkscape:connector-curvature="0" />
	<path style="fill:none;stroke:red;stroke-width:1px;stroke-linecap:butt;stroke-linejoin:miter;stroke-opacity:1" d="M 788.027,627.92 788.027,644.426 z" id="boundary" inkscape:connector-curvature="0" />
	<path style="fill:none;stroke:red;stroke-width:1px;stroke-linecap:butt;stroke-linejoin:miter;stroke-opacity:1" d="M 788.027,644.426 788.027,660.932 z" id="boundary" inkscape:connector-curvature="0" />
	<path style="fill:none;stroke:red;stroke-width:1px;stroke-linecap:butt;stroke-linejoin:miter;stroke-opacity:1" d="M 788.027,660.932 788.027,677.438 z" id="boundary" inkscape:connector-curvature="0" />
	<path style="fill:none;stroke:red;stroke-width:1px;stroke-linecap:butt;stroke-linejoin:miter;stroke-opacity:1" d="M 788.027,677.438 788.027,693.943 z" id="boundary" inkscape:connector-curvature="0" />
	<path style="fill:none;stroke:red;stroke-width:1px;stroke-linecap:butt;stroke-linejoin:miter;stroke-opacity:1" d="M 788.027,784.725 801.231,774.822 z" id="boundary" inkscape:connector-curvature="0" />
	<path style="fill:none;stroke:red;stroke-width:1px;stroke-linecap:butt;stroke-linejoin:miter;stroke-opacity:1" d="M 789.677,279.647 804.532,287.9 z" id="boundary" inkscape:connector-curvature="0" />
	<path style="fill:none;stroke:red;stroke-width:1px;stroke-linecap:butt;stroke-linejoin:miter;stroke-opacity:1" d="M 801.231,774.822 809.484,759.967 z" id="boundary" inkscape:connector-curvature="0" />
	<path style="fill:none;stroke:red;stroke-width:1px;stroke-linecap:butt;stroke-linejoin:miter;stroke-opacity:1" d="M 804.532,287.9 821.038,287.9 z" id="boundary" inkscape:connector-curvature="0" />
	<path style="fill:none;stroke:red;stroke-width:1px;stroke-linecap:butt;stroke-linejoin:miter;stroke-opacity:1" d="M 809.484,759.967 822.689,743.461 z" id="boundary" inkscape:connector-curvature="0" />
	<path style="fill:none;stroke:red;stroke-width:1px;stroke-linecap:butt;stroke-linejoin:miter;stroke-opacity:1" d="M 821.038,287.9 835.894,296.153 z" id="boundary" inkscape:connector-curvature="0" />
	<path style="fill:none;stroke:red;stroke-width:1px;stroke-linecap:butt;stroke-linejoin:miter;stroke-opacity:1" d="M 822.689,743.461 835.894,731.907 z" id="boundary" inkscape:connector-curvature="0" />
	<path style="fill:none;stroke:red;stroke-width:1px;stroke-linecap:butt;stroke-linejoin:miter;stroke-opacity:1" d="M 835.894,296.153 847.448,309.358 z" id="boundary" inkscape:connector-curvature="0" />
	<path style="fill:none;stroke:red;stroke-width:1px;stroke-linecap:butt;stroke-linejoin:miter;stroke-opacity:1" d="M 835.894,731.907 844.146,715.401 z" id="boundary" inkscape:connector-curvature="0" />
	<path style="fill:none;stroke:red;stroke-width:1px;stroke-linecap:butt;stroke-linejoin:miter;stroke-opacity:1" d="M 844.146,715.401 847.448,693.943 z" id="boundary" inkscape:connector-curvature="0" />
	<path style="fill:none;stroke:red;stroke-width:1px;stroke-linecap:butt;stroke-linejoin:miter;stroke-opacity:1" d="M 847.448,309.358 860.652,320.912 z" id="boundary" inkscape:connector-curvature="0" />
	<path style="fill:none;stroke:red;stroke-width:1px;stroke-linecap:butt;stroke-linejoin:miter;stroke-opacity:1" d="M 847.448,586.656 847.448,603.161 z" id="boundary" inkscape:connector-curvature="0" />
	<path style="fill:none;stroke:red;stroke-width:1px;stroke-linecap:butt;stroke-linejoin:miter;stroke-opacity:1" d="M 847.448,586.656 855.7,561.897 z" id="boundary" inkscape:connector-curvature="0" />
	<path style="fill:none;stroke:red;stroke-width:1px;stroke-linecap:butt;stroke-linejoin:miter;stroke-opacity:1" d="M 847.448,603.161 850.749,619.667 z" id="boundary" inkscape:connector-curvature="0" />
	<path style="fill:none;stroke:red;stroke-width:1px;stroke-linecap:butt;stroke-linejoin:miter;stroke-opacity:1" d="M 847.448,693.943 855.7,669.185 z" id="boundary" inkscape:connector-curvature="0" />
	<path style="fill:none;stroke:red;stroke-width:1px;stroke-linecap:butt;stroke-linejoin:miter;stroke-opacity:1" d="M 850.749,619.667 855.7,636.173 z" id="boundary" inkscape:connector-curvature="0" />
	<path style="fill:none;stroke:red;stroke-width:1px;stroke-linecap:butt;stroke-linejoin:miter;stroke-opacity:1" d="M 855.7,561.897 872.206,545.391 z" id="boundary" inkscape:connector-curvature="0" />
	<path style="fill:none;stroke:red;stroke-width:1px;stroke-linecap:butt;stroke-linejoin:miter;stroke-opacity:1" d="M 855.7,636.173 855.7,652.679 z" id="boundary" inkscape:connector-curvature="0" />
	<path style="fill:none;stroke:red;stroke-width:1px;stroke-linecap:butt;stroke-linejoin:miter;stroke-opacity:1" d="M 855.7,652.679 855.7,669.185 z" id="boundary" inkscape:connector-curvature="0" />
	<path style="fill:none;stroke:red;stroke-width:1px;stroke-linecap:butt;stroke-linejoin:miter;stroke-opacity:1" d="M 860.652,320.912 875.507,329.165 z" id="boundary" inkscape:connector-curvature="0" />
	<path style="fill:none;stroke:red;stroke-width:1px;stroke-linecap:butt;stroke-linejoin:miter;stroke-opacity:1" d="M 872.206,528.885 872.206,545.391 z" id="boundary" inkscape:connector-curvature="0" />
	<path style="fill:none;stroke:red;stroke-width:1px;stroke-linecap:butt;stroke-linejoin:miter;stroke-opacity:1" d="M 875.507,329.165 887.062,342.369 z" id="boundary" inkscape:connector-curvature="0" />
	<path style="fill:none;stroke:red;stroke-width:1px;stroke-linecap:butt;stroke-linejoin:miter;stroke-opacity:1" d="M 880.459,487.621 880.459,504.126 z" id="boundary" inkscape:connector-curvature="0" />
	<path style="fill:none;stroke:red;stroke-width:1px;stroke-linecap:butt;stroke-linejoin:miter;stroke-opacity:1" d="M 887.062,342.369 888.712,358.875 z" id="boundary" inkscape:connector-curvature="0" />
	<path style="fill:none;stroke:red;stroke-width:1px;stroke-linecap:butt;stroke-linejoin:miter;stroke-opacity:1" d="M 888.712,358.875 896.965,373.73 z" id="boundary" inkscape:connector-curvature="0" />
	<path style="fill:none;stroke:red;stroke-width:1px;stroke-linecap:butt;stroke-linejoin:miter;stroke-opacity:1" d="M 895.314,495.874 895.314,512.379 z" id="boundary" inkscape:connector-curvature="0" />
	<path style="fill:none;stroke:red;stroke-width:1px;stroke-linecap:butt;stroke-linejoin:miter;stroke-opacity:1" d="M 895.314,512.379 900.266,528.885 z" id="boundary" inkscape:connector-curvature="0" />
	<path style="fill:none;stroke:red;stroke-width:1px;stroke-linecap:butt;stroke-linejoin:miter;stroke-opacity:1" d="M 896.965,373.73 911.82,381.983 z" id="boundary" inkscape:connector-curvature="0" />
	<path style="fill:none;stroke:red;stroke-width:1px;stroke-linecap:butt;stroke-linejoin:miter;stroke-opacity:1" d="M 900.266,528.885 911.82,542.09 z" id="boundary" inkscape:connector-curvature="0" />
	<path style="fill:none;stroke:red;stroke-width:1px;stroke-linecap:butt;stroke-linejoin:miter;stroke-opacity:1" d="M 911.82,381.983 913.471,398.489 z" id="boundary" inkscape:connector-curvature="0" />
	<path style="fill:none;stroke:red;stroke-width:1px;stroke-linecap:butt;stroke-linejoin:miter;stroke-opacity:1" d="M 911.82,542.09 913.471,558.596 z" id="boundary" inkscape:connector-curvature="0" />
	<path style="fill:none;stroke:red;stroke-width:1px;stroke-linecap:butt;stroke-linejoin:miter;stroke-opacity:1" d="M 913.471,398.489 918.423,414.995 z" id="boundary" inkscape:connector-curvature="0" />
	<path style="fill:none;stroke:red;stroke-width:1px;stroke-linecap:butt;stroke-linejoin:miter;stroke-opacity:1" d="M 913.471,558.596 921.724,573.451 z" id="boundary" inkscape:connector-curvature="0" />
	<path style="fill:none;stroke:red;stroke-width:1px;stroke-linecap:butt;stroke-linejoin:miter;stroke-opacity:1" d="M 918.423,414.995 921.724,431.501 z" id="boundary" inkscape:connector-curvature="0" />
	<path style="fill:none;stroke:red;stroke-width:1px;stroke-linecap:butt;stroke-linejoin:miter;stroke-opacity:1" d="M 921.724,431.501 926.676,448.007 z" id="boundary" inkscape:connector-curvature="0" />
	<path style="fill:none;stroke:red;stroke-width:1px;stroke-linecap:butt;stroke-linejoin:miter;stroke-opacity:1" d="M 921.724,573.451 933.278,586.656 z" id="boundary" inkscape:connector-curvature="0" />
	<path style="fill:none;stroke:red;stroke-width:1px;stroke-linecap:butt;stroke-linejoin:miter;stroke-opacity:1" d="M 926.676,448.007 929.977,464.512 z" id="boundary" inkscape:connector-curvature="0" />
	<path style="fill:none;stroke:red;stroke-width:1px;stroke-linecap:butt;stroke-linejoin:miter;stroke-opacity:1" d="M 929.977,464.512 929.977,481.018 z" id="boundary" inkscape:connector-curvature="0" />
	<path style="fill:none;stroke:red;stroke-width:1px;stroke-linecap:butt;stroke-linejoin:miter;stroke-opacity:1" d="M 929.977,481.018 938.23,495.874 z" id="boundary" inkscape:connector-curvature="0" />
	<path style="fill:none;stroke:red;stroke-width:1px;stroke-linecap:butt;stroke-linejoin:miter;stroke-opacity:1" d="M 933.278,586.656 944.832,599.86 z" id="boundary" inkscape:connector-curvature="0" />
	<path style="fill:none;stroke:red;stroke-width:1px;stroke-linecap:butt;stroke-linejoin:miter;stroke-opacity:1" d="M 938.23,495.874 938.23,512.379 z" id="boundary" inkscape:connector-curvature="0" />
	<path style="fill:none;stroke:red;stroke-width:1px;stroke-linecap:butt;stroke-linejoin:miter;stroke-opacity:1" d="M 938.23,512.379 946.483,527.235 z" id="boundary" inkscape:connector-curvature="0" />
	<path style="fill:none;stroke:red;stroke-width:1px;stroke-linecap:butt;stroke-linejoin:miter;stroke-opacity:1" d="M 944.832,599.86 958.037,611.414 z" id="boundary" inkscape:connector-curvature="0" />
	<path style="fill:none;stroke:red;stroke-width:1px;stroke-linecap:butt;stroke-linejoin:miter;stroke-opacity:1" d="M 946.483,527.235 946.483,543.74 z" id="boundary" inkscape:connector-curvature="0" />
	<path style="fill:none;stroke:red;stroke-width:1px;stroke-linecap:butt;stroke-linejoin:miter;stroke-opacity:1" d="M 946.483,543.74 962.988,548.692 z" id="boundary" inkscape:connector-curvature="0" />
	<path style="fill:none;stroke:red;stroke-width:1px;stroke-linecap:butt;stroke-linejoin:miter;stroke-opacity:1" d="M 958.037,611.414 972.892,619.667 z" id="boundary" inkscape:connector-curvature="0" />
	<path style="fill:none;stroke:red;stroke-width:1px;stroke-linecap:butt;stroke-linejoin:miter;stroke-opacity:1" d="M 962.988,548.692 962.988,565.198 z" id="boundary" inkscape:connector-curvature="0" />
	<path style="fill:none;stroke:red;stroke-width:1px;stroke-linecap:butt;stroke-linejoin:miter;stroke-opacity:1" d="M 962.988,565.198 971.241,580.053 z" id="boundary" inkscape:connector-curvature="0" />
	<path style="fill:none;stroke:red;stroke-width:1px;stroke-linecap:butt;stroke-linejoin:miter;stroke-opacity:1" d="M 971.241,580.053 986.097,588.306 z" id="boundary" inkscape:connector-curvature="0" />
	<path style="fill:none;stroke:red;stroke-width:1px;stroke-linecap:butt;stroke-linejoin:miter;stroke-opacity:1" d="M 972.892,619.667 989.398,619.667 z" id="boundary" inkscape:connector-curvature="0" />
	<path style="fill:none;stroke:red;stroke-width:1px;stroke-linecap:butt;stroke-linejoin:miter;stroke-opacity:1" d="M 986.097,588.306 996,601.511 z" id="boundary" inkscape:connector-curvature="0" />
	<path style="fill:none;stroke:red;stroke-width:1px;stroke-linecap:butt;stroke-linejoin:miter;stroke-opacity:1" d="M 989.398,619.667 996,601.511 z" id="boundary" inkscape:connector-curvature="0" />
	<circle cx="4" cy="226.829" r="4" fill="#0" id="circle0"/>
	<circle cx="4" cy="243.334" r="4" fill="#0" id="circle1"/>
	<circle cx="4" cy="259.84" r="4" fill="#0" id="circle2"/>
	<circle cx="12.2529" cy="274.696" r="4" fill="#0" id="circle3"/>
	<circle cx="17.2047" cy="213.624" r="4" fill="#0" id="circle4"/>
	<circle cx="23.807" cy="287.9" r="4" fill="#0" id="circle5"/>
	<circle cx="25.4576" cy="197.118" r="4" fill="#0" id="circle6"/>
	<circle cx="28.7587" cy="144.3" r="4" fill="#0" id="circle7"/>
	<circle cx="28.7587" cy="160.805" r="4" fill="#0" id="circle8"/>
	<circle cx="28.7587" cy="177.311" r="4" fill="#0" id="circle9"/>
	<circle cx="37.0116" cy="297.804" r="4" fill="#0" id="circle10"/>
	<circle cx="41.9634" cy="131.095" r="4" fill="#0" id="circle11"/>
	<circle cx="53.5175" cy="45.2646" r="4" fill="#0" id="circle12"/>
	<circle cx="53.5175" cy="61.7704" r="4" fill="#0" id="circle13"/>
	<circle cx="53.5175" cy="78.2762" r="4" fill="#0" id="circle14"/>
	<circle cx="53.5175" cy="297.804" r="4" fill="#0" id="circle15"/>
	<circle cx="58.4692" cy="122.842" r="4" fill="#0" id="circle16"/>
	<circle cx="58.4692" cy="314.309" r="4" fill="#0" id="circle17"/>
	<circle cx="66.7221" cy="89.8303" r="4" fill="#0" id="circle18"/>
	<circle cx="70.0233" cy="43.614" r="4" fill="#0" id="circle19"/>
	<circle cx="70.0233" cy="106.336" r="4" fill="#0" id="circle20"/>
	<circle cx="74.975" cy="314.309" r="4" fill="#0" id="circle21"/>
	<circle cx="79.9268" cy="56.8186" r="4" fill="#0" id="circle22"/>
	<circle cx="91.4809" cy="314.309" r="4" fill="#0" id="circle23"/>
	<circle cx="94.782" cy="65.0715" r="4" fill="#0" id="circle24"/>
	<circle cx="107.987" cy="74.975" r="4" fill="#0" id="circle25"/>
	<circle cx="107.987" cy="314.309" r="4" fill="#0" id="circle26"/>
	<circle cx="119.541" cy="37.0116" r="4" fill="#0" id="circle27"/>
	<circle cx="119.541" cy="53.5175" r="4" fill="#0" id="circle28"/>
	<circle cx="124.493" cy="320.912" r="4" fill="#0" id="circle29"/>
	<circle cx="127.794" cy="4" r="4" fill="#0" id="circle30"/>
	<circle cx="127.794" cy="20.5058" r="4" fill="#0" id="circle31"/>
	<circle cx="137.697" cy="330.815" r="4" fill="#0" id="circle32"/>
	<circle cx="144.3" cy="10.6023" r="4" fill="#0" id="circle33"/>
	<circle cx="150.902" cy="27.1082" r="4" fill="#0" id="circle34"/>
	<circle cx="154.203" cy="334.116" r="4" fill="#0" id="circle35"/>
	<circle cx="162.456" cy="40.3128" r="4" fill="#0" id="circle36"/>
	<circle cx="169.058" cy="342.369" r="4" fill="#0" id="circle37"/>
	<circle cx="175.661" cy="50.2163" r="4" fill="#0" id="circle38"/>
	<circle cx="177.311" cy="357.225" r="4" fill="#0" id="circle39"/>
	<circle cx="183.913" cy="65.0715" r="4" fill="#0" id="circle40"/>
	<circle cx="193.817" cy="363.827" r="4" fill="#0" id="circle41"/>
	<circle cx="193.817" cy="380.333" r="4" fill="#0" id="circle42"/>
	<circle cx="198.769" cy="73.3245" r="4" fill="#0" id="circle43"/>
	<circle cx="198.769" cy="396.839" r="4" fill="#0" id="circle44"/>
	<circle cx="202.07" cy="413.344" r="4" fill="#0" id="circle45"/>
	<circle cx="203.72" cy="89.8303" r="4" fill="#0" id="circle46"/>
	<circle cx="207.022" cy="429.85" r="4" fill="#0" id="circle47"/>
	<circle cx="210.323" cy="771.521" r="4" fill="#0" id="circle48"/>
	<circle cx="215.275" cy="444.705" r="4" fill="#0" id="circle49"/>
	<circle cx="218.576" cy="461.211" r="4" fill="#0" id="circle50"/>
	<circle cx="218.576" cy="746.762" r="4" fill="#0" id="circle51"/>
	<circle cx="220.226" cy="94.782" r="4" fill="#0" id="circle52"/>
	<circle cx="220.226" cy="111.288" r="4" fill="#0" id="circle53"/>
	<circle cx="220.226" cy="784.725" r="4" fill="#0" id="circle54"/>
	<circle cx="226.829" cy="476.067" r="4" fill="#0" id="circle55"/>
	<circle cx="228.479" cy="492.572" r="4" fill="#0" id="circle56"/>
	<circle cx="233.431" cy="122.842" r="4" fill="#0" id="circle57"/>
	<circle cx="235.082" cy="741.81" r="4" fill="#0" id="circle58"/>
	<circle cx="236.732" cy="784.725" r="4" fill="#0" id="circle59"/>
	<circle cx="243.334" cy="500.825" r="4" fill="#0" id="circle60"/>
	<circle cx="243.334" cy="517.331" r="4" fill="#0" id="circle61"/>
	<circle cx="248.286" cy="131.095" r="4" fill="#0" id="circle62"/>
	<circle cx="251.587" cy="532.186" r="4" fill="#0" id="circle63"/>
	<circle cx="251.587" cy="741.81" r="4" fill="#0" id="circle64"/>
	<circle cx="251.587" cy="792.978" r="4" fill="#0" id="circle65"/>
	<circle cx="259.84" cy="547.042" r="4" fill="#0" id="circle66"/>
	<circle cx="259.84" cy="563.547" r="4" fill="#0" id="circle67"/>
	<circle cx="263.141" cy="139.348" r="4" fill="#0" id="circle68"/>
	<circle cx="268.093" cy="578.403" r="4" fill="#0" id="circle69"/>
	<circle cx="268.093" cy="738.509" r="4" fill="#0" id="circle70"/>
	<circle cx="268.093" cy="792.978" r="4" fill="#0" id="circle71"/>
	<circle cx="273.045" cy="594.908" r="4" fill="#0" id="circle72"/>
	<circle cx="276.346" cy="150.902" r="4" fill="#0" id="circle73"/>
	<circle cx="276.346" cy="611.414" r="4" fill="#0" id="circle74"/>
	<circle cx="276.346" cy="627.92" r="4" fill="#0" id="circle75"/>
	<circle cx="276.346" cy="644.426" r="4" fill="#0" id="circle76"/>
	<circle cx="276.346" cy="705.498" r="4" fill="#0" id="circle77"/>
	<circle cx="276.346" cy="722.003" r="4" fill="#0" id="circle78"/>
	<circle cx="277.997" cy="167.408" r="4" fill="#0" id="circle79"/>
	<circle cx="284.599" cy="659.281" r="4" fill="#0" id="circle80"/>
	<circle cx="284.599" cy="675.787" r="4" fill="#0" id="circle81"/>
	<circle cx="284.599" cy="792.978" r="4" fill="#0" id="circle82"/>
	<circle cx="292.852" cy="175.661" r="4" fill="#0" id="circle83"/>
	<circle cx="301.105" cy="788.027" r="4" fill="#0" id="circle84"/>
	<circle cx="302.755" cy="188.865" r="4" fill="#0" id="circle85"/>
	<circle cx="314.309" cy="774.822" r="4" fill="#0" id="circle86"/>
	<circle cx="315.96" cy="198.769" r="4" fill="#0" id="circle87"/>
	<circle cx="322.562" cy="758.316" r="4" fill="#0" id="circle88"/>
	<circle cx="324.213" cy="213.624" r="4" fill="#0" id="circle89"/>
	<circle cx="325.864" cy="812.785" r="4" fill="#0" id="circle90"/>
	<circle cx="325.864" cy="829.291" r="4" fill="#0" id="circle91"/>
	<circle cx="327.514" cy="726.955" r="4" fill="#0" id="circle92"/>
	<circle cx="335.767" cy="710.449" r="4" fill="#0" id="circle93"/>
	<circle cx="340.719" cy="215.275" r="4" fill="#0" id="circle94"/>
	<circle cx="342.369" cy="804.532" r="4" fill="#0" id="circle95"/>
	<circle cx="342.369" cy="834.243" r="4" fill="#0" id="circle96"/>
	<circle cx="344.02" cy="685.691" r="4" fill="#0" id="circle97"/>
	<circle cx="350.622" cy="779.774" r="4" fill="#0" id="circle98"/>
	<circle cx="352.273" cy="669.185" r="4" fill="#0" id="circle99"/>
	<circle cx="355.574" cy="223.527" r="4" fill="#0" id="circle100"/>
	<circle cx="357.225" cy="842.496" r="4" fill="#0" id="circle101"/>
	<circle cx="358.875" cy="763.268" r="4" fill="#0" id="circle102"/>
	<circle cx="360.526" cy="644.426" r="4" fill="#0" id="circle103"/>
	<circle cx="367.128" cy="730.256" r="4" fill="#0" id="circle104"/>
	<circle cx="367.128" cy="746.762" r="4" fill="#0" id="circle105"/>
	<circle cx="368.779" cy="627.92" r="4" fill="#0" id="circle106"/>
	<circle cx="372.08" cy="230.13" r="4" fill="#0" id="circle107"/>
	<circle cx="373.73" cy="842.496" r="4" fill="#0" id="circle108"/>
	<circle cx="375.381" cy="652.679" r="4" fill="#0" id="circle109"/>
	<circle cx="375.381" cy="669.185" r="4" fill="#0" id="circle110"/>
	<circle cx="375.381" cy="685.691" r="4" fill="#0" id="circle111"/>
	<circle cx="375.381" cy="702.196" r="4" fill="#0" id="circle112"/>
	<circle cx="386.935" cy="238.383" r="4" fill="#0" id="circle113"/>
	<circle cx="390.236" cy="839.195" r="4" fill="#0" id="circle114"/>
	<circle cx="401.79" cy="246.636" r="4" fill="#0" id="circle115"/>
	<circle cx="406.742" cy="830.942" r="4" fill="#0" id="circle116"/>
	<circle cx="414.995" cy="814.436" r="4" fill="#0" id="circle117"/>
	<circle cx="418.296" cy="246.636" r="4" fill="#0" id="circle118"/>
	<circle cx="418.296" cy="784.725" r="4" fill="#0" id="circle119"/>
	<circle cx="434.802" cy="246.636" r="4" fill="#0" id="circle120"/>
	<circle cx="434.802" cy="768.22" r="4" fill="#0" id="circle121"/>
	<circle cx="443.055" cy="718.702" r="4" fill="#0" id="circle122"/>
	<circle cx="443.055" cy="735.208" r="4" fill="#0" id="circle123"/>
	<circle cx="443.055" cy="751.714" r="4" fill="#0" id="circle124"/>
	<circle cx="451.308" cy="251.587" r="4" fill="#0" id="circle125"/>
	<circle cx="451.308" cy="677.438" r="4" fill="#0" id="circle126"/>
	<circle cx="451.308" cy="693.943" r="4" fill="#0" id="circle127"/>
	<circle cx="459.561" cy="660.932" r="4" fill="#0" id="circle128"/>
	<circle cx="464.512" cy="263.141" r="4" fill="#0" id="circle129"/>
	<circle cx="467.814" cy="636.173" r="4" fill="#0" id="circle130"/>
	<circle cx="481.018" cy="263.141" r="4" fill="#0" id="circle131"/>
	<circle cx="484.319" cy="611.414" r="4" fill="#0" id="circle132"/>
	<circle cx="484.319" cy="627.92" r="4" fill="#0" id="circle133"/>
	<circle cx="492.572" cy="570.15" r="4" fill="#0" id="circle134"/>
	<circle cx="492.572" cy="586.656" r="4" fill="#0" id="circle135"/>
	<circle cx="497.524" cy="263.141" r="4" fill="#0" id="circle136"/>
	<circle cx="500.825" cy="537.138" r="4" fill="#0" id="circle137"/>
	<circle cx="500.825" cy="553.644" r="4" fill="#0" id="circle138"/>
	<circle cx="514.03" cy="263.141" r="4" fill="#0" id="circle139"/>
	<circle cx="517.331" cy="537.138" r="4" fill="#0" id="circle140"/>
	<circle cx="530.536" cy="263.141" r="4" fill="#0" id="circle141"/>
	<circle cx="533.837" cy="537.138" r="4" fill="#0" id="circle142"/>
	<circle cx="547.042" cy="263.141" r="4" fill="#0" id="circle143"/>
	<circle cx="550.343" cy="537.138" r="4" fill="#0" id="circle144"/>
	<circle cx="563.547" cy="263.141" r="4" fill="#0" id="circle145"/>
	<circle cx="566.849" cy="540.439" r="4" fill="#0" id="circle146"/>
	<circle cx="580.053" cy="263.141" r="4" fill="#0" id="circle147"/>
	<circle cx="583.354" cy="545.391" r="4" fill="#0" id="circle148"/>
	<circle cx="596.559" cy="263.141" r="4" fill="#0" id="circle149"/>
	<circle cx="599.86" cy="545.391" r="4" fill="#0" id="circle150"/>
	<circle cx="611.414" cy="271.394" r="4" fill="#0" id="circle151"/>
	<circle cx="614.715" cy="738.509" r="4" fill="#0" id="circle152"/>
	<circle cx="616.366" cy="545.391" r="4" fill="#0" id="circle153"/>
	<circle cx="627.92" cy="271.394" r="4" fill="#0" id="circle154"/>
	<circle cx="627.92" cy="725.304" r="4" fill="#0" id="circle155"/>
	<circle cx="627.92" cy="750.063" r="4" fill="#0" id="circle156"/>
	<circle cx="632.872" cy="537.138" r="4" fill="#0" id="circle157"/>
	<circle cx="641.125" cy="759.967" r="4" fill="#0" id="circle158"/>
	<circle cx="642.775" cy="717.052" r="4" fill="#0" id="circle159"/>
	<circle cx="644.426" cy="263.141" r="4" fill="#0" id="circle160"/>
	<circle cx="649.378" cy="540.439" r="4" fill="#0" id="circle161"/>
	<circle cx="655.98" cy="556.945" r="4" fill="#0" id="circle162"/>
	<circle cx="657.631" cy="759.967" r="4" fill="#0" id="circle163"/>
	<circle cx="659.281" cy="717.052" r="4" fill="#0" id="circle164"/>
	<circle cx="660.932" cy="263.141" r="4" fill="#0" id="circle165"/>
	<circle cx="672.486" cy="561.897" r="4" fill="#0" id="circle166"/>
	<circle cx="674.136" cy="759.967" r="4" fill="#0" id="circle167"/>
	<circle cx="675.787" cy="710.449" r="4" fill="#0" id="circle168"/>
	<circle cx="677.438" cy="263.141" r="4" fill="#0" id="circle169"/>
	<circle cx="677.438" cy="578.403" r="4" fill="#0" id="circle170"/>
	<circle cx="685.691" cy="593.258" r="4" fill="#0" id="circle171"/>
	<circle cx="688.992" cy="609.764" r="4" fill="#0" id="circle172"/>
	<circle cx="688.992" cy="697.245" r="4" fill="#0" id="circle173"/>
	<circle cx="690.642" cy="743.461" r="4" fill="#0" id="circle174"/>
	<circle cx="693.943" cy="263.141" r="4" fill="#0" id="circle175"/>
	<circle cx="697.245" cy="624.619" r="4" fill="#0" id="circle176"/>
	<circle cx="697.245" cy="680.739" r="4" fill="#0" id="circle177"/>
	<circle cx="703.847" cy="731.907" r="4" fill="#0" id="circle178"/>
	<circle cx="705.498" cy="639.474" r="4" fill="#0" id="circle179"/>
	<circle cx="705.498" cy="655.98" r="4" fill="#0" id="circle180"/>
	<circle cx="710.449" cy="263.141" r="4" fill="#0" id="circle181"/>
	<circle cx="720.353" cy="723.654" r="4" fill="#0" id="circle182"/>
	<circle cx="726.955" cy="263.141" r="4" fill="#0" id="circle183"/>
	<circle cx="731.907" cy="710.449" r="4" fill="#0" id="circle184"/>
	<circle cx="740.16" cy="693.943" r="4" fill="#0" id="circle185"/>
	<circle cx="741.81" cy="271.394" r="4" fill="#0" id="circle186"/>
	<circle cx="746.762" cy="746.762" r="4" fill="#0" id="circle187"/>
	<circle cx="746.762" cy="763.268" r="4" fill="#0" id="circle188"/>
	<circle cx="753.364" cy="682.389" r="4" fill="#0" id="circle189"/>
	<circle cx="756.666" cy="776.473" r="4" fill="#0" id="circle190"/>
	<circle cx="758.316" cy="271.394" r="4" fill="#0" id="circle191"/>
	<circle cx="763.268" cy="741.81" r="4" fill="#0" id="circle192"/>
	<circle cx="769.87" cy="674.136" r="4" fill="#0" id="circle193"/>
	<circle cx="771.521" cy="784.725" r="4" fill="#0" id="circle194"/>
	<circle cx="773.171" cy="279.647" r="4" fill="#0" id="circle195"/>
	<circle cx="773.171" cy="619.667" r="4" fill="#0" id="circle196"/>
	<circle cx="773.171" cy="636.173" r="4" fill="#0" id="circle197"/>
	<circle cx="773.171" cy="652.679" r="4" fill="#0" id="circle198"/>
	<circle cx="773.171" cy="728.606" r="4" fill="#0" id="circle199"/>
	<circle cx="786.376" cy="717.052" r="4" fill="#0" id="circle200"/>
	<circle cx="788.027" cy="627.92" r="4" fill="#0" id="circle201"/>
	<circle cx="788.027" cy="644.426" r="4" fill="#0" id="circle202"/>
	<circle cx="788.027" cy="660.932" r="4" fill="#0" id="circle203"/>
	<circle cx="788.027" cy="677.438" r="4" fill="#0" id="circle204"/>
	<circle cx="788.027" cy="693.943" r="4" fill="#0" id="circle205"/>
	<circle cx="788.027" cy="784.725" r="4" fill="#0" id="circle206"/>
	<circle cx="789.677" cy="279.647" r="4" fill="#0" id="circle207"/>
	<circle cx="801.231" cy="774.822" r="4" fill="#0" id="circle208"/>
	<circle cx="804.532" cy="287.9" r="4" fill="#0" id="circle209"/>
	<circle cx="809.484" cy="759.967" r="4" fill="#0" id="circle210"/>
	<circle cx="821.038" cy="287.9" r="4" fill="#0" id="circle211"/>
	<circle cx="822.689" cy="743.461" r="4" fill="#0" id="circle212"/>
	<circle cx="835.894" cy="296.153" r="4" fill="#0" id="circle213"/>
	<circle cx="835.894" cy="731.907" r="4" fill="#0" id="circle214"/>
	<circle cx="844.146" cy="715.401" r="4" fill="#0" id="circle215"/>
	<circle cx="847.448" cy="309.358" r="4" fill="#0" id="circle216"/>
	<circle cx="847.448" cy="586.656" r="4" fill="#0" id="circle217"/>
	<circle cx="847.448" cy="603.161" r="4" fill="#0" id="circle218"/>
	<circle cx="847.448" cy="693.943" r="4" fill="#0" id="circle219"/>
	<circle cx="850.749" cy="619.667" r="4" fill="#0" id="circle220"/>
	<circle cx="855.7" cy="561.897" r="4" fill="#0" id="circle221"/>
	<circle cx="855.7" cy="636.173" r="4" fill="#0" id="circle222"/>
	<circle cx="855.7" cy="652.679" r="4" fill="#0" id="circle223"/>
	<circle cx="855.7" cy="669.185" r="4" fill="#0" id="circle224"/>
	<circle cx="860.652" cy="320.912" r="4" fill="#0" id="circle225"/>
	<circle cx="872.206" cy="528.885" r="4" fill="#0" id="circle226"/>
	<circle cx="872.206" cy="545.391" r="4" fill="#0" id="circle227"/>
	<circle cx="875.507" cy="329.165" r="4" fill="#0" id="circle228"/>
	<circle cx="880.459" cy="487.621" r="4" fill="#0" id="circle229"/>
	<circle cx="880.459" cy="504.126" r="4" fill="#0" id="circle230"/>
	<circle cx="887.062" cy="342.369" r="4" fill="#0" id="circle231"/>
	<circle cx="888.712" cy="358.875" r="4" fill="#0" id="circle232"/>
	<circle cx="895.314" cy="495.874" r="4" fill="#0" id="circle233"/>
	<circle cx="895.314" cy="512.379" r="4" fill="#0" id="circle234"/>
	<circle cx="896.965" cy="373.73" r="4" fill="#0" id="circle235"/>
	<circle cx="900.266" cy="528.885" r="4" fill="#0" id="circle236"/>
	<circle cx="911.82" cy="381.983" r="4" fill="#0" id="circle237"/>
	<circle cx="911.82" cy="542.09" r="4" fill="#0" id="circle238"/>
	<circle cx="913.471" cy="398.489" r="4" fill="#0" id="circle239"/>
	<circle cx="913.471" cy="558.596" r="4" fill="#0" id="circle240"/>
	<circle cx="918.423" cy="414.995" r="4" fill="#0" id="circle241"/>
	<circle cx="921.724" cy="431.501" r="4" fill="#0" id="circle242"/>
	<circle cx="921.724" cy="573.451" r="4" fill="#0" id="circle243"/>
	<circle cx="926.676" cy="448.007" r="4" fill="#0" id="circle244"/>
	<circle cx="929.977" cy="464.512" r="4" fill="#0" id="circle245"/>
	<circle cx="929.977" cy="481.018" r="4" fill="#0" id="circle246"/>
	<circle cx="933.278" cy="586.656" r="4" fill="#0" id="circle247"/>
	<circle cx="938.23" cy="495.874" r="4" fill="#0" id="circle248"/>
	<circle cx="938.23" cy="512.379" r="4" fill="#0" id="circle249"/>
	<circle cx="944.832" cy="599.86" r="4" fill="#0" id="circle250"/>
	<circle cx="946.483" cy="527.235" r="4" fill="#0" id="circle251"/>
	<circle cx="946.483" cy="543.74" r="4" fill="#0" id="circle252"/>
	<circle cx="958.037" cy="611.414" r="4" fill="#0" id="circle253"/>
	<circle cx="962.988" cy="548.692" r="4" fill="#0" id="circle254"/>
	<circle cx="962.988" cy="565.198" r="4" fill="#0" id="circle255"/>
	<circle cx="971.241" cy="580.053" r="4" fill="#0" id="circle256"/>
	<circle cx="972.892" cy="619.667" r="4" fill="#0" id="circle257"/>
	<circle cx="986.097" cy="588.306" r="4" fill="#0" id="circle258"/>
	<circle cx="989.398" cy="619.667" r="4" fill="#0" id="circle259"/>
	<circle cx="996" cy="601.511" r="4" fill="#0" id="circle260"/>
	</g>
</svg>