<?xml version="1.0" encoding="UTF-8" standalone="no"?>
<!-- Created with CurveBenchmark -->
<svg
	xmlns:dc="http://purl.org/dc/elements/1.1/"
	xmlns:cc="http://creativecommons.org/ns#"
	xmlns:rdf="http://www.w3.org/1999/02/22-rdf-syntax-ns#"
	xmlns:svg="http://www.w3.org/2000/svg"
	xmlns="http://www.w3.org/2000/svg"
	xmlns:sodipodi="http://sodipodi.sourceforge.net/DTD/sodipodi-0.dtd"
	xmlns:inkscape="http://www.inkscape.org/namespaces/inkscape"
	width="1000"
	height="1000"
	id="svg2"
	version="1.1"
	sodipodi:docname="manifold/hnncrust-fish265.png.txt">
<defs
	id="defs4" />
<metadata
	id="metadata7">
	<rdf:RDF>
		<cc:Work
			rdf:about="">
			<dc:format>image/svg+xml</dc:format>
			<dc:type
				rdf:resource="http://purl.org/dc/dcmitype/StillImage" />
			<dc:title></dc:title>
		</cc:Work>
	</rdf:RDF>
</metadata>
<g
	inkscape:label="Layer 1"
	inkscape:groupmode="layer"
	id="layer1">
	<path style="fill:none;stroke:red;stroke-width:1px;stroke-linecap:butt;stroke-linejoin:miter;stroke-opacity:1" d="M 4,540.553 4,602.943 z" id="boundary" inkscape:connector-curvature="0" />
	<path style="fill:none;stroke:red;stroke-width:1px;stroke-linecap:butt;stroke-linejoin:miter;stroke-opacity:1" d="M 4,540.553 41.434,490.642 z" id="boundary" inkscape:connector-curvature="0" />
	<path style="fill:none;stroke:red;stroke-width:1px;stroke-linecap:butt;stroke-linejoin:miter;stroke-opacity:1" d="M 4,602.943 16.478,665.333 z" id="boundary" inkscape:connector-curvature="0" />
	<path style="fill:none;stroke:red;stroke-width:1px;stroke-linecap:butt;stroke-linejoin:miter;stroke-opacity:1" d="M 16.478,665.333 53.9119,715.245 z" id="boundary" inkscape:connector-curvature="0" />
	<path style="fill:none;stroke:red;stroke-width:1px;stroke-linecap:butt;stroke-linejoin:miter;stroke-opacity:1" d="M 41.434,490.642 103.824,503.119 z" id="boundary" inkscape:connector-curvature="0" />
	<path style="fill:none;stroke:red;stroke-width:1px;stroke-linecap:butt;stroke-linejoin:miter;stroke-opacity:1" d="M 53.9119,715.245 110.063,746.44 z" id="boundary" inkscape:connector-curvature="0" />
	<path style="fill:none;stroke:red;stroke-width:1px;stroke-linecap:butt;stroke-linejoin:miter;stroke-opacity:1" d="M 103.824,503.119 153.736,440.73 z" id="boundary" inkscape:connector-curvature="0" />
	<path style="fill:none;stroke:red;stroke-width:1px;stroke-linecap:butt;stroke-linejoin:miter;stroke-opacity:1" d="M 110.063,746.44 172.453,727.723 z" id="boundary" inkscape:connector-curvature="0" />
	<path style="fill:none;stroke:red;stroke-width:1px;stroke-linecap:butt;stroke-linejoin:miter;stroke-opacity:1" d="M 141.258,964.805 166.214,902.415 z" id="boundary" inkscape:connector-curvature="0" />
	<path style="fill:none;stroke:red;stroke-width:1px;stroke-linecap:butt;stroke-linejoin:miter;stroke-opacity:1" d="M 141.258,964.805 203.648,958.566 z" id="boundary" inkscape:connector-curvature="0" />
	<path style="fill:none;stroke:red;stroke-width:1px;stroke-linecap:butt;stroke-linejoin:miter;stroke-opacity:1" d="M 153.736,440.73 178.692,353.384 z" id="boundary" inkscape:connector-curvature="0" />
	<path style="fill:none;stroke:red;stroke-width:1px;stroke-linecap:butt;stroke-linejoin:miter;stroke-opacity:1" d="M 166.214,902.415 197.409,846.264 z" id="boundary" inkscape:connector-curvature="0" />
	<path style="fill:none;stroke:red;stroke-width:1px;stroke-linecap:butt;stroke-linejoin:miter;stroke-opacity:1" d="M 178.692,353.384 203.648,278.516 z" id="boundary" inkscape:connector-curvature="0" />
	<path style="fill:none;stroke:red;stroke-width:1px;stroke-linecap:butt;stroke-linejoin:miter;stroke-opacity:1" d="M 197.409,846.264 228.604,790.113 z" id="boundary" inkscape:connector-curvature="0" />
	<path style="fill:none;stroke:red;stroke-width:1px;stroke-linecap:butt;stroke-linejoin:miter;stroke-opacity:1" d="M 203.648,278.516 253.56,241.082 z" id="boundary" inkscape:connector-curvature="0" />
	<path style="fill:none;stroke:red;stroke-width:1px;stroke-linecap:butt;stroke-linejoin:miter;stroke-opacity:1" d="M 203.648,958.566 234.843,902.415 z" id="boundary" inkscape:connector-curvature="0" />
	<path style="fill:none;stroke:red;stroke-width:1px;stroke-linecap:butt;stroke-linejoin:miter;stroke-opacity:1" d="M 228.604,790.113 272.277,840.025 z" id="boundary" inkscape:connector-curvature="0" />
	<path style="fill:none;stroke:red;stroke-width:1px;stroke-linecap:butt;stroke-linejoin:miter;stroke-opacity:1" d="M 253.56,241.082 266.038,166.214 z" id="boundary" inkscape:connector-curvature="0" />
	<path style="fill:none;stroke:red;stroke-width:1px;stroke-linecap:butt;stroke-linejoin:miter;stroke-opacity:1" d="M 266.038,166.214 303.472,91.3459 z" id="boundary" inkscape:connector-curvature="0" />
	<path style="fill:none;stroke:red;stroke-width:1px;stroke-linecap:butt;stroke-linejoin:miter;stroke-opacity:1" d="M 272.277,840.025 303.472,783.874 z" id="boundary" inkscape:connector-curvature="0" />
	<path style="fill:none;stroke:red;stroke-width:1px;stroke-linecap:butt;stroke-linejoin:miter;stroke-opacity:1" d="M 303.472,783.874 365.862,783.874 z" id="boundary" inkscape:connector-curvature="0" />
	<path style="fill:none;stroke:red;stroke-width:1px;stroke-linecap:butt;stroke-linejoin:miter;stroke-opacity:1" d="M 328.428,4 372.101,53.9119 z" id="boundary" inkscape:connector-curvature="0" />
	<path style="fill:none;stroke:red;stroke-width:1px;stroke-linecap:butt;stroke-linejoin:miter;stroke-opacity:1" d="M 365.862,783.874 415.774,821.308 z" id="boundary" inkscape:connector-curvature="0" />
	<path style="fill:none;stroke:red;stroke-width:1px;stroke-linecap:butt;stroke-linejoin:miter;stroke-opacity:1" d="M 372.101,53.9119 384.579,116.302 z" id="boundary" inkscape:connector-curvature="0" />
	<path style="fill:none;stroke:red;stroke-width:1px;stroke-linecap:butt;stroke-linejoin:miter;stroke-opacity:1" d="M 384.579,116.302 384.579,178.692 z" id="boundary" inkscape:connector-curvature="0" />
	<path style="fill:none;stroke:red;stroke-width:1px;stroke-linecap:butt;stroke-linejoin:miter;stroke-opacity:1" d="M 384.579,178.692 428.252,228.604 z" id="boundary" inkscape:connector-curvature="0" />
	<path style="fill:none;stroke:red;stroke-width:1px;stroke-linecap:butt;stroke-linejoin:miter;stroke-opacity:1" d="M 415.774,821.308 440.73,883.698 z" id="boundary" inkscape:connector-curvature="0" />
	<path style="fill:none;stroke:red;stroke-width:1px;stroke-linecap:butt;stroke-linejoin:miter;stroke-opacity:1" d="M 428.252,228.604 478.164,266.038 z" id="boundary" inkscape:connector-curvature="0" />
	<path style="fill:none;stroke:red;stroke-width:1px;stroke-linecap:butt;stroke-linejoin:miter;stroke-opacity:1" d="M 440.73,883.698 471.925,939.849 z" id="boundary" inkscape:connector-curvature="0" />
	<path style="fill:none;stroke:red;stroke-width:1px;stroke-linecap:butt;stroke-linejoin:miter;stroke-opacity:1" d="M 465.686,758.918 484.403,821.308 z" id="boundary" inkscape:connector-curvature="0" />
	<path style="fill:none;stroke:red;stroke-width:1px;stroke-linecap:butt;stroke-linejoin:miter;stroke-opacity:1" d="M 465.686,758.918 528.075,740.201 z" id="boundary" inkscape:connector-curvature="0" />
	<path style="fill:none;stroke:red;stroke-width:1px;stroke-linecap:butt;stroke-linejoin:miter;stroke-opacity:1" d="M 471.925,939.849 503.119,996 z" id="boundary" inkscape:connector-curvature="0" />
	<path style="fill:none;stroke:red;stroke-width:1px;stroke-linecap:butt;stroke-linejoin:miter;stroke-opacity:1" d="M 478.164,266.038 521.836,315.95 z" id="boundary" inkscape:connector-curvature="0" />
	<path style="fill:none;stroke:red;stroke-width:1px;stroke-linecap:butt;stroke-linejoin:miter;stroke-opacity:1" d="M 484.403,821.308 509.358,883.698 z" id="boundary" inkscape:connector-curvature="0" />
	<path style="fill:none;stroke:red;stroke-width:1px;stroke-linecap:butt;stroke-linejoin:miter;stroke-opacity:1" d="M 503.119,996 540.553,946.088 z" id="boundary" inkscape:connector-curvature="0" />
	<path style="fill:none;stroke:red;stroke-width:1px;stroke-linecap:butt;stroke-linejoin:miter;stroke-opacity:1" d="M 521.836,315.95 559.27,365.862 z" id="boundary" inkscape:connector-curvature="0" />
	<path style="fill:none;stroke:red;stroke-width:1px;stroke-linecap:butt;stroke-linejoin:miter;stroke-opacity:1" d="M 528.075,740.201 590.465,733.962 z" id="boundary" inkscape:connector-curvature="0" />
	<path style="fill:none;stroke:red;stroke-width:1px;stroke-linecap:butt;stroke-linejoin:miter;stroke-opacity:1" d="M 559.27,365.862 571.748,428.252 z" id="boundary" inkscape:connector-curvature="0" />
	<path style="fill:none;stroke:red;stroke-width:1px;stroke-linecap:butt;stroke-linejoin:miter;stroke-opacity:1" d="M 571.748,428.252 584.226,490.642 z" id="boundary" inkscape:connector-curvature="0" />
	<path style="fill:none;stroke:red;stroke-width:1px;stroke-linecap:butt;stroke-linejoin:miter;stroke-opacity:1" d="M 584.226,490.642 646.616,490.642 z" id="boundary" inkscape:connector-curvature="0" />
	<path style="fill:none;stroke:red;stroke-width:1px;stroke-linecap:butt;stroke-linejoin:miter;stroke-opacity:1" d="M 590.465,733.962 634.138,677.811 z" id="boundary" inkscape:connector-curvature="0" />
	<path style="fill:none;stroke:red;stroke-width:1px;stroke-linecap:butt;stroke-linejoin:miter;stroke-opacity:1" d="M 634.138,677.811 659.094,615.421 z" id="boundary" inkscape:connector-curvature="0" />
	<path style="fill:none;stroke:red;stroke-width:1px;stroke-linecap:butt;stroke-linejoin:miter;stroke-opacity:1" d="M 646.616,490.642 659.094,553.031 z" id="boundary" inkscape:connector-curvature="0" />
	<path style="fill:none;stroke:red;stroke-width:1px;stroke-linecap:butt;stroke-linejoin:miter;stroke-opacity:1" d="M 659.094,553.031 659.094,615.421 z" id="boundary" inkscape:connector-curvature="0" />
	<circle cx="4" cy="540.553" r="4" fill="#0" id="circle0"/>
	<circle cx="4" cy="602.943" r="4" fill="#0" id="circle1"/>
	<circle cx="16.478" cy="665.333" r="4" fill="#0" id="circle2"/>
	<circle cx="41.434" cy="490.642" r="4" fill="#0" id="circle3"/>
	<circle cx="53.9119" cy="715.245" r="4" fill="#0" id="circle4"/>
	<circle cx="103.824" cy="503.119" r="4" fill="#0" id="circle5"/>
	<circle cx="110.063" cy="746.44" r="4" fill="#0" id="circle6"/>
	<circle cx="141.258" cy="964.805" r="4" fill="#0" id="circle7"/>
	<circle cx="153.736" cy="440.73" r="4" fill="#0" id="circle8"/>
	<circle cx="166.214" cy="902.415" r="4" fill="#0" id="circle9"/>
	<circle cx="172.453" cy="727.723" r="4" fill="#0" id="circle10"/>
	<circle cx="178.692" cy="353.384" r="4" fill="#0" id="circle11"/>
	<circle cx="197.409" cy="846.264" r="4" fill="#0" id="circle12"/>
	<circle cx="203.648" cy="278.516" r="4" fill="#0" id="circle13"/>
	<circle cx="203.648" cy="958.566" r="4" fill="#0" id="circle14"/>
	<circle cx="228.604" cy="790.113" r="4" fill="#0" id="circle15"/>
	<circle cx="234.843" cy="902.415" r="4" fill="#0" id="circle16"/>
	<circle cx="253.56" cy="241.082" r="4" fill="#0" id="circle17"/>
	<circle cx="266.038" cy="166.214" r="4" fill="#0" id="circle18"/>
	<circle cx="272.277" cy="840.025" r="4" fill="#0" id="circle19"/>
	<circle cx="303.472" cy="91.3459" r="4" fill="#0" id="circle20"/>
	<circle cx="303.472" cy="783.874" r="4" fill="#0" id="circle21"/>
	<circle cx="328.428" cy="4" r="4" fill="#0" id="circle22"/>
	<circle cx="365.862" cy="783.874" r="4" fill="#0" id="circle23"/>
	<circle cx="372.101" cy="53.9119" r="4" fill="#0" id="circle24"/>
	<circle cx="384.579" cy="116.302" r="4" fill="#0" id="circle25"/>
	<circle cx="384.579" cy="178.692" r="4" fill="#0" id="circle26"/>
	<circle cx="415.774" cy="821.308" r="4" fill="#0" id="circle27"/>
	<circle cx="428.252" cy="228.604" r="4" fill="#0" id="circle28"/>
	<circle cx="440.73" cy="883.698" r="4" fill="#0" id="circle29"/>
	<circle cx="465.686" cy="758.918" r="4" fill="#0" id="circle30"/>
	<circle cx="471.925" cy="939.849" r="4" fill="#0" id="circle31"/>
	<circle cx="478.164" cy="266.038" r="4" fill="#0" id="circle32"/>
	<circle cx="484.403" cy="821.308" r="4" fill="#0" id="circle33"/>
	<circle cx="503.119" cy="996" r="4" fill="#0" id="circle34"/>
	<circle cx="509.358" cy="883.698" r="4" fill="#0" id="circle35"/>
	<circle cx="521.836" cy="315.95" r="4" fill="#0" id="circle36"/>
	<circle cx="528.075" cy="740.201" r="4" fill="#0" id="circle37"/>
	<circle cx="540.553" cy="946.088" r="4" fill="#0" id="circle38"/>
	<circle cx="559.27" cy="365.862" r="4" fill="#0" id="circle39"/>
	<circle cx="571.748" cy="428.252" r="4" fill="#0" id="circle40"/>
	<circle cx="584.226" cy="490.642" r="4" fill="#0" id="circle41"/>
	<circle cx="590.465" cy="733.962" r="4" fill="#0" id="circle42"/>
	<circle cx="634.138" cy="677.811" r="4" fill="#0" id="circle43"/>
	<circle cx="646.616" cy="490.642" r="4" fill="#0" id="circle44"/>
	<circle cx="659.094" cy="553.031" r="4" fill="#0" id="circle45"/>
	<circle cx="659.094" cy="615.421" r="4" fill="#0" id="circle46"/>
	</g>
</svg>