<?xml version="1.0" encoding="UTF-8" standalone="no"?>
<!-- Created with CurveBenchmark -->
<svg
	xmlns:dc="http://purl.org/dc/elements/1.1/"
	xmlns:cc="http://creativecommons.org/ns#"
	xmlns:rdf="http://www.w3.org/1999/02/22-rdf-syntax-ns#"
	xmlns:svg="http://www.w3.org/2000/svg"
	xmlns="http://www.w3.org/2000/svg"
	xmlns:sodipodi="http://sodipodi.sourceforge.net/DTD/sodipodi-0.dtd"
	xmlns:inkscape="http://www.inkscape.org/namespaces/inkscape"
	width="1000"
	height="1000"
	id="svg2"
	version="1.1"
	sodipodi:docname="manifold/hnncrust-brick14.png.txt">
<defs
	id="defs4" />
<metadata
	id="metadata7">
	<rdf:RDF>
		<cc:Work
			rdf:about="">
			<dc:format>image/svg+xml</dc:format>
			<dc:type
				rdf:resource="http://purl.org/dc/dcmitype/StillImage" />
			<dc:title></dc:title>
		</cc:Work>
	</rdf:RDF>
</metadata>
<g
	inkscape:label="Layer 1"
	inkscape:groupmode="layer"
	id="layer1">
	<path style="fill:none;stroke:red;stroke-width:1px;stroke-linecap:butt;stroke-linejoin:miter;stroke-opacity:1" d="M 4,215.104 4,233.785 z" id="boundary" inkscape:connector-curvature="0" />
	<path style="fill:none;stroke:red;stroke-width:1px;stroke-linecap:butt;stroke-linejoin:miter;stroke-opacity:1" d="M 4,215.104 18.9454,200.158 z" id="boundary" inkscape:connector-curvature="0" />
	<path style="fill:none;stroke:red;stroke-width:1px;stroke-linecap:butt;stroke-linejoin:miter;stroke-opacity:1" d="M 4,233.785 18.9454,246.863 z" id="boundary" inkscape:connector-curvature="0" />
	<path style="fill:none;stroke:red;stroke-width:1px;stroke-linecap:butt;stroke-linejoin:miter;stroke-opacity:1" d="M 18.9454,200.158 33.8908,185.213 z" id="boundary" inkscape:connector-curvature="0" />
	<path style="fill:none;stroke:red;stroke-width:1px;stroke-linecap:butt;stroke-linejoin:miter;stroke-opacity:1" d="M 18.9454,246.863 32.0226,261.808 z" id="boundary" inkscape:connector-curvature="0" />
	<path style="fill:none;stroke:red;stroke-width:1px;stroke-linecap:butt;stroke-linejoin:miter;stroke-opacity:1" d="M 32.0226,261.808 32.0226,280.49 z" id="boundary" inkscape:connector-curvature="0" />
	<path style="fill:none;stroke:red;stroke-width:1px;stroke-linecap:butt;stroke-linejoin:miter;stroke-opacity:1" d="M 32.0226,280.49 41.3635,297.303 z" id="boundary" inkscape:connector-curvature="0" />
	<path style="fill:none;stroke:red;stroke-width:1px;stroke-linecap:butt;stroke-linejoin:miter;stroke-opacity:1" d="M 33.8908,185.213 48.8362,172.136 z" id="boundary" inkscape:connector-curvature="0" />
	<path style="fill:none;stroke:red;stroke-width:1px;stroke-linecap:butt;stroke-linejoin:miter;stroke-opacity:1" d="M 41.3635,297.303 54.4407,312.249 z" id="boundary" inkscape:connector-curvature="0" />
	<path style="fill:none;stroke:red;stroke-width:1px;stroke-linecap:butt;stroke-linejoin:miter;stroke-opacity:1" d="M 48.8362,172.136 61.9134,157.19 z" id="boundary" inkscape:connector-curvature="0" />
	<path style="fill:none;stroke:red;stroke-width:1px;stroke-linecap:butt;stroke-linejoin:miter;stroke-opacity:1" d="M 54.4407,312.249 73.1224,314.117 z" id="boundary" inkscape:connector-curvature="0" />
	<path style="fill:none;stroke:red;stroke-width:1px;stroke-linecap:butt;stroke-linejoin:miter;stroke-opacity:1" d="M 61.9134,157.19 80.5951,147.849 z" id="boundary" inkscape:connector-curvature="0" />
	<path style="fill:none;stroke:red;stroke-width:1px;stroke-linecap:butt;stroke-linejoin:miter;stroke-opacity:1" d="M 73.1224,314.117 89.936,304.776 z" id="boundary" inkscape:connector-curvature="0" />
	<path style="fill:none;stroke:red;stroke-width:1px;stroke-linecap:butt;stroke-linejoin:miter;stroke-opacity:1" d="M 80.5951,147.849 89.936,129.168 z" id="boundary" inkscape:connector-curvature="0" />
	<path style="fill:none;stroke:red;stroke-width:1px;stroke-linecap:butt;stroke-linejoin:miter;stroke-opacity:1" d="M 88.0678,28.2863 88.0678,46.968 z" id="boundary" inkscape:connector-curvature="0" />
	<path style="fill:none;stroke:red;stroke-width:1px;stroke-linecap:butt;stroke-linejoin:miter;stroke-opacity:1" d="M 88.0678,28.2863 97.4087,9.60452 z" id="boundary" inkscape:connector-curvature="0" />
	<path style="fill:none;stroke:red;stroke-width:1px;stroke-linecap:butt;stroke-linejoin:miter;stroke-opacity:1" d="M 88.0678,46.968 88.0678,65.6497 z" id="boundary" inkscape:connector-curvature="0" />
	<path style="fill:none;stroke:red;stroke-width:1px;stroke-linecap:butt;stroke-linejoin:miter;stroke-opacity:1" d="M 88.0678,65.6497 97.4087,82.4633 z" id="boundary" inkscape:connector-curvature="0" />
	<path style="fill:none;stroke:red;stroke-width:1px;stroke-linecap:butt;stroke-linejoin:miter;stroke-opacity:1" d="M 89.936,129.168 104.881,116.09 z" id="boundary" inkscape:connector-curvature="0" />
	<path style="fill:none;stroke:red;stroke-width:1px;stroke-linecap:butt;stroke-linejoin:miter;stroke-opacity:1" d="M 89.936,304.776 108.618,295.435 z" id="boundary" inkscape:connector-curvature="0" />
	<path style="fill:none;stroke:red;stroke-width:1px;stroke-linecap:butt;stroke-linejoin:miter;stroke-opacity:1" d="M 97.4087,9.60452 116.09,4 z" id="boundary" inkscape:connector-curvature="0" />
	<path style="fill:none;stroke:red;stroke-width:1px;stroke-linecap:butt;stroke-linejoin:miter;stroke-opacity:1" d="M 97.4087,82.4633 104.881,116.09 z" id="boundary" inkscape:connector-curvature="0" />
	<path style="fill:none;stroke:red;stroke-width:1px;stroke-linecap:butt;stroke-linejoin:miter;stroke-opacity:1" d="M 108.618,295.435 127.299,295.435 z" id="boundary" inkscape:connector-curvature="0" />
	<path style="fill:none;stroke:red;stroke-width:1px;stroke-linecap:butt;stroke-linejoin:miter;stroke-opacity:1" d="M 116.09,4 134.772,4 z" id="boundary" inkscape:connector-curvature="0" />
	<path style="fill:none;stroke:red;stroke-width:1px;stroke-linecap:butt;stroke-linejoin:miter;stroke-opacity:1" d="M 127.299,295.435 145.981,286.094 z" id="boundary" inkscape:connector-curvature="0" />
	<path style="fill:none;stroke:red;stroke-width:1px;stroke-linecap:butt;stroke-linejoin:miter;stroke-opacity:1" d="M 134.772,4 153.454,4 z" id="boundary" inkscape:connector-curvature="0" />
	<path style="fill:none;stroke:red;stroke-width:1px;stroke-linecap:butt;stroke-linejoin:miter;stroke-opacity:1" d="M 145.981,286.094 164.663,286.094 z" id="boundary" inkscape:connector-curvature="0" />
	<path style="fill:none;stroke:red;stroke-width:1px;stroke-linecap:butt;stroke-linejoin:miter;stroke-opacity:1" d="M 153.454,4 172.136,4 z" id="boundary" inkscape:connector-curvature="0" />
	<path style="fill:none;stroke:red;stroke-width:1px;stroke-linecap:butt;stroke-linejoin:miter;stroke-opacity:1" d="M 164.663,286.094 183.345,286.094 z" id="boundary" inkscape:connector-curvature="0" />
	<path style="fill:none;stroke:red;stroke-width:1px;stroke-linecap:butt;stroke-linejoin:miter;stroke-opacity:1" d="M 172.136,4 190.817,4 z" id="boundary" inkscape:connector-curvature="0" />
	<path style="fill:none;stroke:red;stroke-width:1px;stroke-linecap:butt;stroke-linejoin:miter;stroke-opacity:1" d="M 183.345,286.094 202.026,289.831 z" id="boundary" inkscape:connector-curvature="0" />
	<path style="fill:none;stroke:red;stroke-width:1px;stroke-linecap:butt;stroke-linejoin:miter;stroke-opacity:1" d="M 190.817,4 209.499,4 z" id="boundary" inkscape:connector-curvature="0" />
	<path style="fill:none;stroke:red;stroke-width:1px;stroke-linecap:butt;stroke-linejoin:miter;stroke-opacity:1" d="M 202.026,289.831 218.84,299.171 z" id="boundary" inkscape:connector-curvature="0" />
	<path style="fill:none;stroke:red;stroke-width:1px;stroke-linecap:butt;stroke-linejoin:miter;stroke-opacity:1" d="M 209.499,4 228.181,4 z" id="boundary" inkscape:connector-curvature="0" />
	<path style="fill:none;stroke:red;stroke-width:1px;stroke-linecap:butt;stroke-linejoin:miter;stroke-opacity:1" d="M 218.84,299.171 237.522,304.776 z" id="boundary" inkscape:connector-curvature="0" />
	<path style="fill:none;stroke:red;stroke-width:1px;stroke-linecap:butt;stroke-linejoin:miter;stroke-opacity:1" d="M 228.181,4 246.863,4 z" id="boundary" inkscape:connector-curvature="0" />
	<path style="fill:none;stroke:red;stroke-width:1px;stroke-linecap:butt;stroke-linejoin:miter;stroke-opacity:1" d="M 237.522,304.776 254.335,314.117 z" id="boundary" inkscape:connector-curvature="0" />
	<path style="fill:none;stroke:red;stroke-width:1px;stroke-linecap:butt;stroke-linejoin:miter;stroke-opacity:1" d="M 246.863,4 265.544,7.73635 z" id="boundary" inkscape:connector-curvature="0" />
	<path style="fill:none;stroke:red;stroke-width:1px;stroke-linecap:butt;stroke-linejoin:miter;stroke-opacity:1" d="M 254.335,314.117 271.149,323.458 z" id="boundary" inkscape:connector-curvature="0" />
	<path style="fill:none;stroke:red;stroke-width:1px;stroke-linecap:butt;stroke-linejoin:miter;stroke-opacity:1" d="M 265.544,7.73635 282.358,17.0772 z" id="boundary" inkscape:connector-curvature="0" />
	<path style="fill:none;stroke:red;stroke-width:1px;stroke-linecap:butt;stroke-linejoin:miter;stroke-opacity:1" d="M 271.149,323.458 289.831,330.93 z" id="boundary" inkscape:connector-curvature="0" />
	<path style="fill:none;stroke:red;stroke-width:1px;stroke-linecap:butt;stroke-linejoin:miter;stroke-opacity:1" d="M 282.358,17.0772 301.04,24.5499 z" id="boundary" inkscape:connector-curvature="0" />
	<path style="fill:none;stroke:red;stroke-width:1px;stroke-linecap:butt;stroke-linejoin:miter;stroke-opacity:1" d="M 289.831,330.93 306.644,340.271 z" id="boundary" inkscape:connector-curvature="0" />
	<path style="fill:none;stroke:red;stroke-width:1px;stroke-linecap:butt;stroke-linejoin:miter;stroke-opacity:1" d="M 301.04,24.5499 314.117,39.4953 z" id="boundary" inkscape:connector-curvature="0" />
	<path style="fill:none;stroke:red;stroke-width:1px;stroke-linecap:butt;stroke-linejoin:miter;stroke-opacity:1" d="M 306.644,340.271 325.326,347.744 z" id="boundary" inkscape:connector-curvature="0" />
	<path style="fill:none;stroke:red;stroke-width:1px;stroke-linecap:butt;stroke-linejoin:miter;stroke-opacity:1" d="M 314.117,39.4953 323.458,56.3089 z" id="boundary" inkscape:connector-curvature="0" />
	<path style="fill:none;stroke:red;stroke-width:1px;stroke-linecap:butt;stroke-linejoin:miter;stroke-opacity:1" d="M 323.458,56.3089 340.271,65.6497 z" id="boundary" inkscape:connector-curvature="0" />
	<path style="fill:none;stroke:red;stroke-width:1px;stroke-linecap:butt;stroke-linejoin:miter;stroke-opacity:1" d="M 325.326,347.744 344.008,351.48 z" id="boundary" inkscape:connector-curvature="0" />
	<path style="fill:none;stroke:red;stroke-width:1px;stroke-linecap:butt;stroke-linejoin:miter;stroke-opacity:1" d="M 340.271,65.6497 358.953,69.3861 z" id="boundary" inkscape:connector-curvature="0" />
	<path style="fill:none;stroke:red;stroke-width:1px;stroke-linecap:butt;stroke-linejoin:miter;stroke-opacity:1" d="M 344.008,351.48 362.689,351.48 z" id="boundary" inkscape:connector-curvature="0" />
	<path style="fill:none;stroke:red;stroke-width:1px;stroke-linecap:butt;stroke-linejoin:miter;stroke-opacity:1" d="M 358.953,69.3861 377.635,69.3861 z" id="boundary" inkscape:connector-curvature="0" />
	<path style="fill:none;stroke:red;stroke-width:1px;stroke-linecap:butt;stroke-linejoin:miter;stroke-opacity:1" d="M 362.689,351.48 381.371,351.48 z" id="boundary" inkscape:connector-curvature="0" />
	<path style="fill:none;stroke:red;stroke-width:1px;stroke-linecap:butt;stroke-linejoin:miter;stroke-opacity:1" d="M 377.635,69.3861 396.316,69.3861 z" id="boundary" inkscape:connector-curvature="0" />
	<path style="fill:none;stroke:red;stroke-width:1px;stroke-linecap:butt;stroke-linejoin:miter;stroke-opacity:1" d="M 381.371,351.48 400.053,351.48 z" id="boundary" inkscape:connector-curvature="0" />
	<path style="fill:none;stroke:red;stroke-width:1px;stroke-linecap:butt;stroke-linejoin:miter;stroke-opacity:1" d="M 396.316,69.3861 414.998,69.3861 z" id="boundary" inkscape:connector-curvature="0" />
	<path style="fill:none;stroke:red;stroke-width:1px;stroke-linecap:butt;stroke-linejoin:miter;stroke-opacity:1" d="M 400.053,351.48 418.734,351.48 z" id="boundary" inkscape:connector-curvature="0" />
	<path style="fill:none;stroke:red;stroke-width:1px;stroke-linecap:butt;stroke-linejoin:miter;stroke-opacity:1" d="M 414.998,69.3861 433.68,69.3861 z" id="boundary" inkscape:connector-curvature="0" />
	<path style="fill:none;stroke:red;stroke-width:1px;stroke-linecap:butt;stroke-linejoin:miter;stroke-opacity:1" d="M 418.734,351.48 437.416,351.48 z" id="boundary" inkscape:connector-curvature="0" />
	<path style="fill:none;stroke:red;stroke-width:1px;stroke-linecap:butt;stroke-linejoin:miter;stroke-opacity:1" d="M 433.68,69.3861 452.362,69.3861 z" id="boundary" inkscape:connector-curvature="0" />
	<path style="fill:none;stroke:red;stroke-width:1px;stroke-linecap:butt;stroke-linejoin:miter;stroke-opacity:1" d="M 437.416,351.48 454.23,342.139 z" id="boundary" inkscape:connector-curvature="0" />
	<path style="fill:none;stroke:red;stroke-width:1px;stroke-linecap:butt;stroke-linejoin:miter;stroke-opacity:1" d="M 452.362,69.3861 471.043,69.3861 z" id="boundary" inkscape:connector-curvature="0" />
	<path style="fill:none;stroke:red;stroke-width:1px;stroke-linecap:butt;stroke-linejoin:miter;stroke-opacity:1" d="M 454.23,342.139 472.911,342.139 z" id="boundary" inkscape:connector-curvature="0" />
	<path style="fill:none;stroke:red;stroke-width:1px;stroke-linecap:butt;stroke-linejoin:miter;stroke-opacity:1" d="M 471.043,69.3861 489.725,69.3861 z" id="boundary" inkscape:connector-curvature="0" />
	<path style="fill:none;stroke:red;stroke-width:1px;stroke-linecap:butt;stroke-linejoin:miter;stroke-opacity:1" d="M 472.911,342.139 491.593,342.139 z" id="boundary" inkscape:connector-curvature="0" />
	<path style="fill:none;stroke:red;stroke-width:1px;stroke-linecap:butt;stroke-linejoin:miter;stroke-opacity:1" d="M 489.725,69.3861 508.407,69.3861 z" id="boundary" inkscape:connector-curvature="0" />
	<path style="fill:none;stroke:red;stroke-width:1px;stroke-linecap:butt;stroke-linejoin:miter;stroke-opacity:1" d="M 491.593,342.139 508.407,332.798 z" id="boundary" inkscape:connector-curvature="0" />
	<path style="fill:none;stroke:red;stroke-width:1px;stroke-linecap:butt;stroke-linejoin:miter;stroke-opacity:1" d="M 508.407,69.3861 527.089,69.3861 z" id="boundary" inkscape:connector-curvature="0" />
	<path style="fill:none;stroke:red;stroke-width:1px;stroke-linecap:butt;stroke-linejoin:miter;stroke-opacity:1" d="M 508.407,332.798 527.089,332.798 z" id="boundary" inkscape:connector-curvature="0" />
	<path style="fill:none;stroke:red;stroke-width:1px;stroke-linecap:butt;stroke-linejoin:miter;stroke-opacity:1" d="M 527.089,69.3861 545.77,69.3861 z" id="boundary" inkscape:connector-curvature="0" />
	<path style="fill:none;stroke:red;stroke-width:1px;stroke-linecap:butt;stroke-linejoin:miter;stroke-opacity:1" d="M 527.089,332.798 545.77,332.798 z" id="boundary" inkscape:connector-curvature="0" />
	<path style="fill:none;stroke:red;stroke-width:1px;stroke-linecap:butt;stroke-linejoin:miter;stroke-opacity:1" d="M 545.77,69.3861 564.452,69.3861 z" id="boundary" inkscape:connector-curvature="0" />
	<path style="fill:none;stroke:red;stroke-width:1px;stroke-linecap:butt;stroke-linejoin:miter;stroke-opacity:1" d="M 545.77,332.798 564.452,327.194 z" id="boundary" inkscape:connector-curvature="0" />
	<path style="fill:none;stroke:red;stroke-width:1px;stroke-linecap:butt;stroke-linejoin:miter;stroke-opacity:1" d="M 564.452,69.3861 581.266,60.0452 z" id="boundary" inkscape:connector-curvature="0" />
	<path style="fill:none;stroke:red;stroke-width:1px;stroke-linecap:butt;stroke-linejoin:miter;stroke-opacity:1" d="M 564.452,327.194 583.134,323.458 z" id="boundary" inkscape:connector-curvature="0" />
	<path style="fill:none;stroke:red;stroke-width:1px;stroke-linecap:butt;stroke-linejoin:miter;stroke-opacity:1" d="M 581.266,60.0452 598.079,50.7043 z" id="boundary" inkscape:connector-curvature="0" />
	<path style="fill:none;stroke:red;stroke-width:1px;stroke-linecap:butt;stroke-linejoin:miter;stroke-opacity:1" d="M 583.134,323.458 601.815,323.458 z" id="boundary" inkscape:connector-curvature="0" />
	<path style="fill:none;stroke:red;stroke-width:1px;stroke-linecap:butt;stroke-linejoin:miter;stroke-opacity:1" d="M 598.079,50.7043 616.761,50.7043 z" id="boundary" inkscape:connector-curvature="0" />
	<path style="fill:none;stroke:red;stroke-width:1px;stroke-linecap:butt;stroke-linejoin:miter;stroke-opacity:1" d="M 601.815,323.458 618.629,314.117 z" id="boundary" inkscape:connector-curvature="0" />
	<path style="fill:none;stroke:red;stroke-width:1px;stroke-linecap:butt;stroke-linejoin:miter;stroke-opacity:1" d="M 616.761,50.7043 635.443,50.7043 z" id="boundary" inkscape:connector-curvature="0" />
	<path style="fill:none;stroke:red;stroke-width:1px;stroke-linecap:butt;stroke-linejoin:miter;stroke-opacity:1" d="M 618.629,314.117 637.311,314.117 z" id="boundary" inkscape:connector-curvature="0" />
	<path style="fill:none;stroke:red;stroke-width:1px;stroke-linecap:butt;stroke-linejoin:miter;stroke-opacity:1" d="M 635.443,50.7043 654.124,41.3635 z" id="boundary" inkscape:connector-curvature="0" />
	<path style="fill:none;stroke:red;stroke-width:1px;stroke-linecap:butt;stroke-linejoin:miter;stroke-opacity:1" d="M 637.311,314.117 654.124,323.458 z" id="boundary" inkscape:connector-curvature="0" />
	<path style="fill:none;stroke:red;stroke-width:1px;stroke-linecap:butt;stroke-linejoin:miter;stroke-opacity:1" d="M 654.124,41.3635 672.806,41.3635 z" id="boundary" inkscape:connector-curvature="0" />
	<path style="fill:none;stroke:red;stroke-width:1px;stroke-linecap:butt;stroke-linejoin:miter;stroke-opacity:1" d="M 654.124,323.458 672.806,330.93 z" id="boundary" inkscape:connector-curvature="0" />
	<path style="fill:none;stroke:red;stroke-width:1px;stroke-linecap:butt;stroke-linejoin:miter;stroke-opacity:1" d="M 672.806,41.3635 691.488,41.3635 z" id="boundary" inkscape:connector-curvature="0" />
	<path style="fill:none;stroke:red;stroke-width:1px;stroke-linecap:butt;stroke-linejoin:miter;stroke-opacity:1" d="M 672.806,330.93 689.62,340.271 z" id="boundary" inkscape:connector-curvature="0" />
	<path style="fill:none;stroke:red;stroke-width:1px;stroke-linecap:butt;stroke-linejoin:miter;stroke-opacity:1" d="M 689.62,340.271 704.565,351.48 z" id="boundary" inkscape:connector-curvature="0" />
	<path style="fill:none;stroke:red;stroke-width:1px;stroke-linecap:butt;stroke-linejoin:miter;stroke-opacity:1" d="M 691.488,41.3635 708.301,50.7043 z" id="boundary" inkscape:connector-curvature="0" />
	<path style="fill:none;stroke:red;stroke-width:1px;stroke-linecap:butt;stroke-linejoin:miter;stroke-opacity:1" d="M 704.565,351.48 721.379,360.821 z" id="boundary" inkscape:connector-curvature="0" />
	<path style="fill:none;stroke:red;stroke-width:1px;stroke-linecap:butt;stroke-linejoin:miter;stroke-opacity:1" d="M 708.301,50.7043 725.115,60.0452 z" id="boundary" inkscape:connector-curvature="0" />
	<path style="fill:none;stroke:red;stroke-width:1px;stroke-linecap:butt;stroke-linejoin:miter;stroke-opacity:1" d="M 721.379,360.821 738.192,370.162 z" id="boundary" inkscape:connector-curvature="0" />
	<path style="fill:none;stroke:red;stroke-width:1px;stroke-linecap:butt;stroke-linejoin:miter;stroke-opacity:1" d="M 725.115,60.0452 743.797,65.6497 z" id="boundary" inkscape:connector-curvature="0" />
	<path style="fill:none;stroke:red;stroke-width:1px;stroke-linecap:butt;stroke-linejoin:miter;stroke-opacity:1" d="M 738.192,370.162 753.137,383.239 z" id="boundary" inkscape:connector-curvature="0" />
	<path style="fill:none;stroke:red;stroke-width:1px;stroke-linecap:butt;stroke-linejoin:miter;stroke-opacity:1" d="M 743.797,65.6497 760.61,74.9906 z" id="boundary" inkscape:connector-curvature="0" />
	<path style="fill:none;stroke:red;stroke-width:1px;stroke-linecap:butt;stroke-linejoin:miter;stroke-opacity:1" d="M 753.137,383.239 766.215,398.185 z" id="boundary" inkscape:connector-curvature="0" />
	<path style="fill:none;stroke:red;stroke-width:1px;stroke-linecap:butt;stroke-linejoin:miter;stroke-opacity:1" d="M 760.61,74.9906 779.292,82.4633 z" id="boundary" inkscape:connector-curvature="0" />
	<path style="fill:none;stroke:red;stroke-width:1px;stroke-linecap:butt;stroke-linejoin:miter;stroke-opacity:1" d="M 766.215,398.185 784.896,398.185 z" id="boundary" inkscape:connector-curvature="0" />
	<path style="fill:none;stroke:red;stroke-width:1px;stroke-linecap:butt;stroke-linejoin:miter;stroke-opacity:1" d="M 779.292,82.4633 796.105,91.8041 z" id="boundary" inkscape:connector-curvature="0" />
	<path style="fill:none;stroke:red;stroke-width:1px;stroke-linecap:butt;stroke-linejoin:miter;stroke-opacity:1" d="M 784.896,398.185 803.578,398.185 z" id="boundary" inkscape:connector-curvature="0" />
	<path style="fill:none;stroke:red;stroke-width:1px;stroke-linecap:butt;stroke-linejoin:miter;stroke-opacity:1" d="M 796.105,91.8041 809.183,106.75 z" id="boundary" inkscape:connector-curvature="0" />
	<path style="fill:none;stroke:red;stroke-width:1px;stroke-linecap:butt;stroke-linejoin:miter;stroke-opacity:1" d="M 803.578,398.185 822.26,398.185 z" id="boundary" inkscape:connector-curvature="0" />
	<path style="fill:none;stroke:red;stroke-width:1px;stroke-linecap:butt;stroke-linejoin:miter;stroke-opacity:1" d="M 809.183,106.75 825.996,116.09 z" id="boundary" inkscape:connector-curvature="0" />
	<path style="fill:none;stroke:red;stroke-width:1px;stroke-linecap:butt;stroke-linejoin:miter;stroke-opacity:1" d="M 822.26,398.185 840.942,396.316 z" id="boundary" inkscape:connector-curvature="0" />
	<path style="fill:none;stroke:red;stroke-width:1px;stroke-linecap:butt;stroke-linejoin:miter;stroke-opacity:1" d="M 825.996,116.09 844.678,112.354 z" id="boundary" inkscape:connector-curvature="0" />
	<path style="fill:none;stroke:red;stroke-width:1px;stroke-linecap:butt;stroke-linejoin:miter;stroke-opacity:1" d="M 840.942,396.316 859.623,388.844 z" id="boundary" inkscape:connector-curvature="0" />
	<path style="fill:none;stroke:red;stroke-width:1px;stroke-linecap:butt;stroke-linejoin:miter;stroke-opacity:1" d="M 844.678,112.354 863.36,103.013 z" id="boundary" inkscape:connector-curvature="0" />
	<path style="fill:none;stroke:red;stroke-width:1px;stroke-linecap:butt;stroke-linejoin:miter;stroke-opacity:1" d="M 859.623,388.844 878.305,386.976 z" id="boundary" inkscape:connector-curvature="0" />
	<path style="fill:none;stroke:red;stroke-width:1px;stroke-linecap:butt;stroke-linejoin:miter;stroke-opacity:1" d="M 863.36,103.013 882.041,93.6723 z" id="boundary" inkscape:connector-curvature="0" />
	<path style="fill:none;stroke:red;stroke-width:1px;stroke-linecap:butt;stroke-linejoin:miter;stroke-opacity:1" d="M 878.305,386.976 896.987,379.503 z" id="boundary" inkscape:connector-curvature="0" />
	<path style="fill:none;stroke:red;stroke-width:1px;stroke-linecap:butt;stroke-linejoin:miter;stroke-opacity:1" d="M 882.041,93.6723 900.723,88.0678 z" id="boundary" inkscape:connector-curvature="0" />
	<path style="fill:none;stroke:red;stroke-width:1px;stroke-linecap:butt;stroke-linejoin:miter;stroke-opacity:1" d="M 896.987,379.503 915.669,379.503 z" id="boundary" inkscape:connector-curvature="0" />
	<path style="fill:none;stroke:red;stroke-width:1px;stroke-linecap:butt;stroke-linejoin:miter;stroke-opacity:1" d="M 900.723,88.0678 919.405,88.0678 z" id="boundary" inkscape:connector-curvature="0" />
	<path style="fill:none;stroke:red;stroke-width:1px;stroke-linecap:butt;stroke-linejoin:miter;stroke-opacity:1" d="M 915.669,379.503 934.35,377.635 z" id="boundary" inkscape:connector-curvature="0" />
	<path style="fill:none;stroke:red;stroke-width:1px;stroke-linecap:butt;stroke-linejoin:miter;stroke-opacity:1" d="M 919.405,88.0678 936.218,78.7269 z" id="boundary" inkscape:connector-curvature="0" />
	<path style="fill:none;stroke:red;stroke-width:1px;stroke-linecap:butt;stroke-linejoin:miter;stroke-opacity:1" d="M 921.273,258.072 921.273,276.753 z" id="boundary" inkscape:connector-curvature="0" />
	<path style="fill:none;stroke:red;stroke-width:1px;stroke-linecap:butt;stroke-linejoin:miter;stroke-opacity:1" d="M 921.273,258.072 936.218,244.994 z" id="boundary" inkscape:connector-curvature="0" />
	<path style="fill:none;stroke:red;stroke-width:1px;stroke-linecap:butt;stroke-linejoin:miter;stroke-opacity:1" d="M 921.273,276.753 921.273,295.435 z" id="boundary" inkscape:connector-curvature="0" />
	<path style="fill:none;stroke:red;stroke-width:1px;stroke-linecap:butt;stroke-linejoin:miter;stroke-opacity:1" d="M 921.273,295.435 921.273,314.117 z" id="boundary" inkscape:connector-curvature="0" />
	<path style="fill:none;stroke:red;stroke-width:1px;stroke-linecap:butt;stroke-linejoin:miter;stroke-opacity:1" d="M 921.273,314.117 921.273,332.798 z" id="boundary" inkscape:connector-curvature="0" />
	<path style="fill:none;stroke:red;stroke-width:1px;stroke-linecap:butt;stroke-linejoin:miter;stroke-opacity:1" d="M 921.273,332.798 930.614,349.612 z" id="boundary" inkscape:connector-curvature="0" />
	<path style="fill:none;stroke:red;stroke-width:1px;stroke-linecap:butt;stroke-linejoin:miter;stroke-opacity:1" d="M 930.614,349.612 934.35,377.635 z" id="boundary" inkscape:connector-curvature="0" />
	<path style="fill:none;stroke:red;stroke-width:1px;stroke-linecap:butt;stroke-linejoin:miter;stroke-opacity:1" d="M 936.218,78.7269 954.9,78.7269 z" id="boundary" inkscape:connector-curvature="0" />
	<path style="fill:none;stroke:red;stroke-width:1px;stroke-linecap:butt;stroke-linejoin:miter;stroke-opacity:1" d="M 936.218,244.994 949.296,220.708 z" id="boundary" inkscape:connector-curvature="0" />
	<path style="fill:none;stroke:red;stroke-width:1px;stroke-linecap:butt;stroke-linejoin:miter;stroke-opacity:1" d="M 949.296,220.708 958.637,202.026 z" id="boundary" inkscape:connector-curvature="0" />
	<path style="fill:none;stroke:red;stroke-width:1px;stroke-linecap:butt;stroke-linejoin:miter;stroke-opacity:1" d="M 954.9,78.7269 973.582,80.5951 z" id="boundary" inkscape:connector-curvature="0" />
	<path style="fill:none;stroke:red;stroke-width:1px;stroke-linecap:butt;stroke-linejoin:miter;stroke-opacity:1" d="M 958.637,202.026 967.977,183.345 z" id="boundary" inkscape:connector-curvature="0" />
	<path style="fill:none;stroke:red;stroke-width:1px;stroke-linecap:butt;stroke-linejoin:miter;stroke-opacity:1" d="M 967.977,183.345 982.923,170.267 z" id="boundary" inkscape:connector-curvature="0" />
	<path style="fill:none;stroke:red;stroke-width:1px;stroke-linecap:butt;stroke-linejoin:miter;stroke-opacity:1" d="M 973.582,80.5951 981.055,99.2768 z" id="boundary" inkscape:connector-curvature="0" />
	<path style="fill:none;stroke:red;stroke-width:1px;stroke-linecap:butt;stroke-linejoin:miter;stroke-opacity:1" d="M 981.055,99.2768 986.659,117.959 z" id="boundary" inkscape:connector-curvature="0" />
	<path style="fill:none;stroke:red;stroke-width:1px;stroke-linecap:butt;stroke-linejoin:miter;stroke-opacity:1" d="M 982.923,170.267 996,153.454 z" id="boundary" inkscape:connector-curvature="0" />
	<path style="fill:none;stroke:red;stroke-width:1px;stroke-linecap:butt;stroke-linejoin:miter;stroke-opacity:1" d="M 986.659,117.959 996,134.772 z" id="boundary" inkscape:connector-curvature="0" />
	<path style="fill:none;stroke:red;stroke-width:1px;stroke-linecap:butt;stroke-linejoin:miter;stroke-opacity:1" d="M 996,134.772 996,153.454 z" id="boundary" inkscape:connector-curvature="0" />
	<circle cx="4" cy="215.104" r="4" fill="#0" id="circle0"/>
	<circle cx="4" cy="233.785" r="4" fill="#0" id="circle1"/>
	<circle cx="18.9454" cy="200.158" r="4" fill="#0" id="circle2"/>
	<circle cx="18.9454" cy="246.863" r="4" fill="#0" id="circle3"/>
	<circle cx="32.0226" cy="261.808" r="4" fill="#0" id="circle4"/>
	<circle cx="32.0226" cy="280.49" r="4" fill="#0" id="circle5"/>
	<circle cx="33.8908" cy="185.213" r="4" fill="#0" id="circle6"/>
	<circle cx="41.3635" cy="297.303" r="4" fill="#0" id="circle7"/>
	<circle cx="48.8362" cy="172.136" r="4" fill="#0" id="circle8"/>
	<circle cx="54.4407" cy="312.249" r="4" fill="#0" id="circle9"/>
	<circle cx="61.9134" cy="157.19" r="4" fill="#0" id="circle10"/>
	<circle cx="73.1224" cy="314.117" r="4" fill="#0" id="circle11"/>
	<circle cx="80.5951" cy="147.849" r="4" fill="#0" id="circle12"/>
	<circle cx="88.0678" cy="28.2863" r="4" fill="#0" id="circle13"/>
	<circle cx="88.0678" cy="46.968" r="4" fill="#0" id="circle14"/>
	<circle cx="88.0678" cy="65.6497" r="4" fill="#0" id="circle15"/>
	<circle cx="89.936" cy="129.168" r="4" fill="#0" id="circle16"/>
	<circle cx="89.936" cy="304.776" r="4" fill="#0" id="circle17"/>
	<circle cx="97.4087" cy="9.60452" r="4" fill="#0" id="circle18"/>
	<circle cx="97.4087" cy="82.4633" r="4" fill="#0" id="circle19"/>
	<circle cx="104.881" cy="116.09" r="4" fill="#0" id="circle20"/>
	<circle cx="108.618" cy="295.435" r="4" fill="#0" id="circle21"/>
	<circle cx="116.09" cy="4" r="4" fill="#0" id="circle22"/>
	<circle cx="127.299" cy="295.435" r="4" fill="#0" id="circle23"/>
	<circle cx="134.772" cy="4" r="4" fill="#0" id="circle24"/>
	<circle cx="145.981" cy="286.094" r="4" fill="#0" id="circle25"/>
	<circle cx="153.454" cy="4" r="4" fill="#0" id="circle26"/>
	<circle cx="164.663" cy="286.094" r="4" fill="#0" id="circle27"/>
	<circle cx="172.136" cy="4" r="4" fill="#0" id="circle28"/>
	<circle cx="183.345" cy="286.094" r="4" fill="#0" id="circle29"/>
	<circle cx="190.817" cy="4" r="4" fill="#0" id="circle30"/>
	<circle cx="202.026" cy="289.831" r="4" fill="#0" id="circle31"/>
	<circle cx="209.499" cy="4" r="4" fill="#0" id="circle32"/>
	<circle cx="218.84" cy="299.171" r="4" fill="#0" id="circle33"/>
	<circle cx="228.181" cy="4" r="4" fill="#0" id="circle34"/>
	<circle cx="237.522" cy="304.776" r="4" fill="#0" id="circle35"/>
	<circle cx="246.863" cy="4" r="4" fill="#0" id="circle36"/>
	<circle cx="254.335" cy="314.117" r="4" fill="#0" id="circle37"/>
	<circle cx="265.544" cy="7.73635" r="4" fill="#0" id="circle38"/>
	<circle cx="271.149" cy="323.458" r="4" fill="#0" id="circle39"/>
	<circle cx="282.358" cy="17.0772" r="4" fill="#0" id="circle40"/>
	<circle cx="289.831" cy="330.93" r="4" fill="#0" id="circle41"/>
	<circle cx="301.04" cy="24.5499" r="4" fill="#0" id="circle42"/>
	<circle cx="306.644" cy="340.271" r="4" fill="#0" id="circle43"/>
	<circle cx="314.117" cy="39.4953" r="4" fill="#0" id="circle44"/>
	<circle cx="323.458" cy="56.3089" r="4" fill="#0" id="circle45"/>
	<circle cx="325.326" cy="347.744" r="4" fill="#0" id="circle46"/>
	<circle cx="340.271" cy="65.6497" r="4" fill="#0" id="circle47"/>
	<circle cx="344.008" cy="351.48" r="4" fill="#0" id="circle48"/>
	<circle cx="358.953" cy="69.3861" r="4" fill="#0" id="circle49"/>
	<circle cx="362.689" cy="351.48" r="4" fill="#0" id="circle50"/>
	<circle cx="377.635" cy="69.3861" r="4" fill="#0" id="circle51"/>
	<circle cx="381.371" cy="351.48" r="4" fill="#0" id="circle52"/>
	<circle cx="396.316" cy="69.3861" r="4" fill="#0" id="circle53"/>
	<circle cx="400.053" cy="351.48" r="4" fill="#0" id="circle54"/>
	<circle cx="414.998" cy="69.3861" r="4" fill="#0" id="circle55"/>
	<circle cx="418.734" cy="351.48" r="4" fill="#0" id="circle56"/>
	<circle cx="433.68" cy="69.3861" r="4" fill="#0" id="circle57"/>
	<circle cx="437.416" cy="351.48" r="4" fill="#0" id="circle58"/>
	<circle cx="452.362" cy="69.3861" r="4" fill="#0" id="circle59"/>
	<circle cx="454.23" cy="342.139" r="4" fill="#0" id="circle60"/>
	<circle cx="471.043" cy="69.3861" r="4" fill="#0" id="circle61"/>
	<circle cx="472.911" cy="342.139" r="4" fill="#0" id="circle62"/>
	<circle cx="489.725" cy="69.3861" r="4" fill="#0" id="circle63"/>
	<circle cx="491.593" cy="342.139" r="4" fill="#0" id="circle64"/>
	<circle cx="508.407" cy="69.3861" r="4" fill="#0" id="circle65"/>
	<circle cx="508.407" cy="332.798" r="4" fill="#0" id="circle66"/>
	<circle cx="527.089" cy="69.3861" r="4" fill="#0" id="circle67"/>
	<circle cx="527.089" cy="332.798" r="4" fill="#0" id="circle68"/>
	<circle cx="545.77" cy="69.3861" r="4" fill="#0" id="circle69"/>
	<circle cx="545.77" cy="332.798" r="4" fill="#0" id="circle70"/>
	<circle cx="564.452" cy="69.3861" r="4" fill="#0" id="circle71"/>
	<circle cx="564.452" cy="327.194" r="4" fill="#0" id="circle72"/>
	<circle cx="581.266" cy="60.0452" r="4" fill="#0" id="circle73"/>
	<circle cx="583.134" cy="323.458" r="4" fill="#0" id="circle74"/>
	<circle cx="598.079" cy="50.7043" r="4" fill="#0" id="circle75"/>
	<circle cx="601.815" cy="323.458" r="4" fill="#0" id="circle76"/>
	<circle cx="616.761" cy="50.7043" r="4" fill="#0" id="circle77"/>
	<circle cx="618.629" cy="314.117" r="4" fill="#0" id="circle78"/>
	<circle cx="635.443" cy="50.7043" r="4" fill="#0" id="circle79"/>
	<circle cx="637.311" cy="314.117" r="4" fill="#0" id="circle80"/>
	<circle cx="654.124" cy="41.3635" r="4" fill="#0" id="circle81"/>
	<circle cx="654.124" cy="323.458" r="4" fill="#0" id="circle82"/>
	<circle cx="672.806" cy="41.3635" r="4" fill="#0" id="circle83"/>
	<circle cx="672.806" cy="330.93" r="4" fill="#0" id="circle84"/>
	<circle cx="689.62" cy="340.271" r="4" fill="#0" id="circle85"/>
	<circle cx="691.488" cy="41.3635" r="4" fill="#0" id="circle86"/>
	<circle cx="704.565" cy="351.48" r="4" fill="#0" id="circle87"/>
	<circle cx="708.301" cy="50.7043" r="4" fill="#0" id="circle88"/>
	<circle cx="721.379" cy="360.821" r="4" fill="#0" id="circle89"/>
	<circle cx="725.115" cy="60.0452" r="4" fill="#0" id="circle90"/>
	<circle cx="738.192" cy="370.162" r="4" fill="#0" id="circle91"/>
	<circle cx="743.797" cy="65.6497" r="4" fill="#0" id="circle92"/>
	<circle cx="753.137" cy="383.239" r="4" fill="#0" id="circle93"/>
	<circle cx="760.61" cy="74.9906" r="4" fill="#0" id="circle94"/>
	<circle cx="766.215" cy="398.185" r="4" fill="#0" id="circle95"/>
	<circle cx="779.292" cy="82.4633" r="4" fill="#0" id="circle96"/>
	<circle cx="784.896" cy="398.185" r="4" fill="#0" id="circle97"/>
	<circle cx="796.105" cy="91.8041" r="4" fill="#0" id="circle98"/>
	<circle cx="803.578" cy="398.185" r="4" fill="#0" id="circle99"/>
	<circle cx="809.183" cy="106.75" r="4" fill="#0" id="circle100"/>
	<circle cx="822.26" cy="398.185" r="4" fill="#0" id="circle101"/>
	<circle cx="825.996" cy="116.09" r="4" fill="#0" id="circle102"/>
	<circle cx="840.942" cy="396.316" r="4" fill="#0" id="circle103"/>
	<circle cx="844.678" cy="112.354" r="4" fill="#0" id="circle104"/>
	<circle cx="859.623" cy="388.844" r="4" fill="#0" id="circle105"/>
	<circle cx="863.36" cy="103.013" r="4" fill="#0" id="circle106"/>
	<circle cx="878.305" cy="386.976" r="4" fill="#0" id="circle107"/>
	<circle cx="882.041" cy="93.6723" r="4" fill="#0" id="circle108"/>
	<circle cx="896.987" cy="379.503" r="4" fill="#0" id="circle109"/>
	<circle cx="900.723" cy="88.0678" r="4" fill="#0" id="circle110"/>
	<circle cx="915.669" cy="379.503" r="4" fill="#0" id="circle111"/>
	<circle cx="919.405" cy="88.0678" r="4" fill="#0" id="circle112"/>
	<circle cx="921.273" cy="258.072" r="4" fill="#0" id="circle113"/>
	<circle cx="921.273" cy="276.753" r="4" fill="#0" id="circle114"/>
	<circle cx="921.273" cy="295.435" r="4" fill="#0" id="circle115"/>
	<circle cx="921.273" cy="314.117" r="4" fill="#0" id="circle116"/>
	<circle cx="921.273" cy="332.798" r="4" fill="#0" id="circle117"/>
	<circle cx="930.614" cy="349.612" r="4" fill="#0" id="circle118"/>
	<circle cx="934.35" cy="377.635" r="4" fill="#0" id="circle119"/>
	<circle cx="936.218" cy="78.7269" r="4" fill="#0" id="circle120"/>
	<circle cx="936.218" cy="244.994" r="4" fill="#0" id="circle121"/>
	<circle cx="949.296" cy="220.708" r="4" fill="#0" id="circle122"/>
	<circle cx="954.9" cy="78.7269" r="4" fill="#0" id="circle123"/>
	<circle cx="958.637" cy="202.026" r="4" fill="#0" id="circle124"/>
	<circle cx="967.977" cy="183.345" r="4" fill="#0" id="circle125"/>
	<circle cx="973.582" cy="80.5951" r="4" fill="#0" id="circle126"/>
	<circle cx="981.055" cy="99.2768" r="4" fill="#0" id="circle127"/>
	<circle cx="982.923" cy="170.267" r="4" fill="#0" id="circle128"/>
	<circle cx="986.659" cy="117.959" r="4" fill="#0" id="circle129"/>
	<circle cx="996" cy="134.772" r="4" fill="#0" id="circle130"/>
	<circle cx="996" cy="153.454" r="4" fill="#0" id="circle131"/>
	</g>
</svg>