<?xml version="1.0" encoding="UTF-8" standalone="no"?>
<!-- Created with CurveBenchmark -->
<svg
	xmlns:dc="http://purl.org/dc/elements/1.1/"
	xmlns:cc="http://creativecommons.org/ns#"
	xmlns:rdf="http://www.w3.org/1999/02/22-rdf-syntax-ns#"
	xmlns:svg="http://www.w3.org/2000/svg"
	xmlns="http://www.w3.org/2000/svg"
	xmlns:sodipodi="http://sodipodi.sourceforge.net/DTD/sodipodi-0.dtd"
	xmlns:inkscape="http://www.inkscape.org/namespaces/inkscape"
	width="1000"
	height="1000"
	id="svg2"
	version="1.1"
	sodipodi:docname="manifold/hnncrust-ray19.png.txt">
<defs
	id="defs4" />
<metadata
	id="metadata7">
	<rdf:RDF>
		<cc:Work
			rdf:about="">
			<dc:format>image/svg+xml</dc:format>
			<dc:type
				rdf:resource="http://purl.org/dc/dcmitype/StillImage" />
			<dc:title></dc:title>
		</cc:Work>
	</rdf:RDF>
</metadata>
<g
	inkscape:label="Layer 1"
	inkscape:groupmode="layer"
	id="layer1">
	<path style="fill:none;stroke:red;stroke-width:1px;stroke-linecap:butt;stroke-linejoin:miter;stroke-opacity:1" d="M 4,387.8 4,403.276 z" id="boundary" inkscape:connector-curvature="0" />
	<path style="fill:none;stroke:red;stroke-width:1px;stroke-linecap:butt;stroke-linejoin:miter;stroke-opacity:1" d="M 4,387.8 16.3807,375.42 z" id="boundary" inkscape:connector-curvature="0" />
	<path style="fill:none;stroke:red;stroke-width:1px;stroke-linecap:butt;stroke-linejoin:miter;stroke-opacity:1" d="M 4,403.276 11.7379,417.204 z" id="boundary" inkscape:connector-curvature="0" />
	<path style="fill:none;stroke:red;stroke-width:1px;stroke-linecap:butt;stroke-linejoin:miter;stroke-opacity:1" d="M 11.7379,417.204 19.4758,431.133 z" id="boundary" inkscape:connector-curvature="0" />
	<path style="fill:none;stroke:red;stroke-width:1px;stroke-linecap:butt;stroke-linejoin:miter;stroke-opacity:1" d="M 16.3807,375.42 28.7613,363.039 z" id="boundary" inkscape:connector-curvature="0" />
	<path style="fill:none;stroke:red;stroke-width:1px;stroke-linecap:butt;stroke-linejoin:miter;stroke-opacity:1" d="M 19.4758,431.133 28.7613,443.513 z" id="boundary" inkscape:connector-curvature="0" />
	<path style="fill:none;stroke:red;stroke-width:1px;stroke-linecap:butt;stroke-linejoin:miter;stroke-opacity:1" d="M 27.2137,836.599 27.2137,852.075 z" id="boundary" inkscape:connector-curvature="0" />
	<path style="fill:none;stroke:red;stroke-width:1px;stroke-linecap:butt;stroke-linejoin:miter;stroke-opacity:1" d="M 27.2137,836.599 34.9516,821.123 z" id="boundary" inkscape:connector-curvature="0" />
	<path style="fill:none;stroke:red;stroke-width:1px;stroke-linecap:butt;stroke-linejoin:miter;stroke-opacity:1" d="M 27.2137,852.075 27.2137,867.551 z" id="boundary" inkscape:connector-curvature="0" />
	<path style="fill:none;stroke:red;stroke-width:1px;stroke-linecap:butt;stroke-linejoin:miter;stroke-opacity:1" d="M 27.2137,867.551 27.2137,883.027 z" id="boundary" inkscape:connector-curvature="0" />
	<path style="fill:none;stroke:red;stroke-width:1px;stroke-linecap:butt;stroke-linejoin:miter;stroke-opacity:1" d="M 27.2137,883.027 39.5944,893.86 z" id="boundary" inkscape:connector-curvature="0" />
	<path style="fill:none;stroke:red;stroke-width:1px;stroke-linecap:butt;stroke-linejoin:miter;stroke-opacity:1" d="M 28.7613,363.039 41.142,352.206 z" id="boundary" inkscape:connector-curvature="0" />
	<path style="fill:none;stroke:red;stroke-width:1px;stroke-linecap:butt;stroke-linejoin:miter;stroke-opacity:1" d="M 28.7613,443.513 36.4992,457.441 z" id="boundary" inkscape:connector-curvature="0" />
	<path style="fill:none;stroke:red;stroke-width:1px;stroke-linecap:butt;stroke-linejoin:miter;stroke-opacity:1" d="M 34.9516,821.123 47.3323,808.743 z" id="boundary" inkscape:connector-curvature="0" />
	<path style="fill:none;stroke:red;stroke-width:1px;stroke-linecap:butt;stroke-linejoin:miter;stroke-opacity:1" d="M 36.4992,457.441 42.6895,472.917 z" id="boundary" inkscape:connector-curvature="0" />
	<path style="fill:none;stroke:red;stroke-width:1px;stroke-linecap:butt;stroke-linejoin:miter;stroke-opacity:1" d="M 39.5944,893.86 50.4275,906.24 z" id="boundary" inkscape:connector-curvature="0" />
	<path style="fill:none;stroke:red;stroke-width:1px;stroke-linecap:butt;stroke-linejoin:miter;stroke-opacity:1" d="M 41.142,352.206 47.3323,336.73 z" id="boundary" inkscape:connector-curvature="0" />
	<path style="fill:none;stroke:red;stroke-width:1px;stroke-linecap:butt;stroke-linejoin:miter;stroke-opacity:1" d="M 42.6895,472.917 55.0702,483.75 z" id="boundary" inkscape:connector-curvature="0" />
	<path style="fill:none;stroke:red;stroke-width:1px;stroke-linecap:butt;stroke-linejoin:miter;stroke-opacity:1" d="M 47.3323,336.73 61.2605,328.992 z" id="boundary" inkscape:connector-curvature="0" />
	<path style="fill:none;stroke:red;stroke-width:1px;stroke-linecap:butt;stroke-linejoin:miter;stroke-opacity:1" d="M 47.3323,808.743 59.7129,796.362 z" id="boundary" inkscape:connector-curvature="0" />
	<path style="fill:none;stroke:red;stroke-width:1px;stroke-linecap:butt;stroke-linejoin:miter;stroke-opacity:1" d="M 50.4275,906.24 62.8081,917.073 z" id="boundary" inkscape:connector-curvature="0" />
	<path style="fill:none;stroke:red;stroke-width:1px;stroke-linecap:butt;stroke-linejoin:miter;stroke-opacity:1" d="M 55.0702,483.75 65.9033,496.131 z" id="boundary" inkscape:connector-curvature="0" />
	<path style="fill:none;stroke:red;stroke-width:1px;stroke-linecap:butt;stroke-linejoin:miter;stroke-opacity:1" d="M 59.7129,796.362 72.0936,785.529 z" id="boundary" inkscape:connector-curvature="0" />
	<path style="fill:none;stroke:red;stroke-width:1px;stroke-linecap:butt;stroke-linejoin:miter;stroke-opacity:1" d="M 61.2605,328.992 73.6412,318.159 z" id="boundary" inkscape:connector-curvature="0" />
	<path style="fill:none;stroke:red;stroke-width:1px;stroke-linecap:butt;stroke-linejoin:miter;stroke-opacity:1" d="M 62.8081,917.073 73.6412,929.454 z" id="boundary" inkscape:connector-curvature="0" />
	<path style="fill:none;stroke:red;stroke-width:1px;stroke-linecap:butt;stroke-linejoin:miter;stroke-opacity:1" d="M 65.9033,496.131 78.2839,506.964 z" id="boundary" inkscape:connector-curvature="0" />
	<path style="fill:none;stroke:red;stroke-width:1px;stroke-linecap:butt;stroke-linejoin:miter;stroke-opacity:1" d="M 67.4509,848.98 67.4509,864.456 z" id="boundary" inkscape:connector-curvature="0" />
	<path style="fill:none;stroke:red;stroke-width:1px;stroke-linecap:butt;stroke-linejoin:miter;stroke-opacity:1" d="M 67.4509,848.98 75.1888,833.504 z" id="boundary" inkscape:connector-curvature="0" />
	<path style="fill:none;stroke:red;stroke-width:1px;stroke-linecap:butt;stroke-linejoin:miter;stroke-opacity:1" d="M 67.4509,864.456 75.1888,878.384 z" id="boundary" inkscape:connector-curvature="0" />
	<path style="fill:none;stroke:red;stroke-width:1px;stroke-linecap:butt;stroke-linejoin:miter;stroke-opacity:1" d="M 72.0936,785.529 86.0218,777.791 z" id="boundary" inkscape:connector-curvature="0" />
	<path style="fill:none;stroke:red;stroke-width:1px;stroke-linecap:butt;stroke-linejoin:miter;stroke-opacity:1" d="M 73.6412,318.159 86.0218,305.778 z" id="boundary" inkscape:connector-curvature="0" />
	<path style="fill:none;stroke:red;stroke-width:1px;stroke-linecap:butt;stroke-linejoin:miter;stroke-opacity:1" d="M 73.6412,929.454 86.0218,940.287 z" id="boundary" inkscape:connector-curvature="0" />
	<path style="fill:none;stroke:red;stroke-width:1px;stroke-linecap:butt;stroke-linejoin:miter;stroke-opacity:1" d="M 75.1888,833.504 87.5694,822.671 z" id="boundary" inkscape:connector-curvature="0" />
	<path style="fill:none;stroke:red;stroke-width:1px;stroke-linecap:butt;stroke-linejoin:miter;stroke-opacity:1" d="M 75.1888,878.384 87.5694,887.669 z" id="boundary" inkscape:connector-curvature="0" />
	<path style="fill:none;stroke:red;stroke-width:1px;stroke-linecap:butt;stroke-linejoin:miter;stroke-opacity:1" d="M 78.2839,506.964 89.117,519.345 z" id="boundary" inkscape:connector-curvature="0" />
	<path style="fill:none;stroke:red;stroke-width:1px;stroke-linecap:butt;stroke-linejoin:miter;stroke-opacity:1" d="M 86.0218,305.778 101.498,298.041 z" id="boundary" inkscape:connector-curvature="0" />
	<path style="fill:none;stroke:red;stroke-width:1px;stroke-linecap:butt;stroke-linejoin:miter;stroke-opacity:1" d="M 86.0218,777.791 101.498,770.053 z" id="boundary" inkscape:connector-curvature="0" />
	<path style="fill:none;stroke:red;stroke-width:1px;stroke-linecap:butt;stroke-linejoin:miter;stroke-opacity:1" d="M 86.0218,940.287 101.498,941.835 z" id="boundary" inkscape:connector-curvature="0" />
	<path style="fill:none;stroke:red;stroke-width:1px;stroke-linecap:butt;stroke-linejoin:miter;stroke-opacity:1" d="M 87.5694,822.671 96.8549,810.29 z" id="boundary" inkscape:connector-curvature="0" />
	<path style="fill:none;stroke:red;stroke-width:1px;stroke-linecap:butt;stroke-linejoin:miter;stroke-opacity:1" d="M 87.5694,887.669 101.498,895.407 z" id="boundary" inkscape:connector-curvature="0" />
	<path style="fill:none;stroke:red;stroke-width:1px;stroke-linecap:butt;stroke-linejoin:miter;stroke-opacity:1" d="M 89.117,519.345 101.498,530.178 z" id="boundary" inkscape:connector-curvature="0" />
	<path style="fill:none;stroke:red;stroke-width:1px;stroke-linecap:butt;stroke-linejoin:miter;stroke-opacity:1" d="M 96.8549,810.29 110.783,802.552 z" id="boundary" inkscape:connector-curvature="0" />
	<path style="fill:none;stroke:red;stroke-width:1px;stroke-linecap:butt;stroke-linejoin:miter;stroke-opacity:1" d="M 101.498,298.041 113.878,285.66 z" id="boundary" inkscape:connector-curvature="0" />
	<path style="fill:none;stroke:red;stroke-width:1px;stroke-linecap:butt;stroke-linejoin:miter;stroke-opacity:1" d="M 101.498,530.178 112.331,542.559 z" id="boundary" inkscape:connector-curvature="0" />
	<path style="fill:none;stroke:red;stroke-width:1px;stroke-linecap:butt;stroke-linejoin:miter;stroke-opacity:1" d="M 101.498,770.053 116.973,770.053 z" id="boundary" inkscape:connector-curvature="0" />
	<path style="fill:none;stroke:red;stroke-width:1px;stroke-linecap:butt;stroke-linejoin:miter;stroke-opacity:1" d="M 101.498,895.407 113.878,906.24 z" id="boundary" inkscape:connector-curvature="0" />
	<path style="fill:none;stroke:red;stroke-width:1px;stroke-linecap:butt;stroke-linejoin:miter;stroke-opacity:1" d="M 101.498,941.835 115.426,949.573 z" id="boundary" inkscape:connector-curvature="0" />
	<path style="fill:none;stroke:red;stroke-width:1px;stroke-linecap:butt;stroke-linejoin:miter;stroke-opacity:1" d="M 110.783,802.552 124.711,793.267 z" id="boundary" inkscape:connector-curvature="0" />
	<path style="fill:none;stroke:red;stroke-width:1px;stroke-linecap:butt;stroke-linejoin:miter;stroke-opacity:1" d="M 112.331,542.559 124.711,553.392 z" id="boundary" inkscape:connector-curvature="0" />
	<path style="fill:none;stroke:red;stroke-width:1px;stroke-linecap:butt;stroke-linejoin:miter;stroke-opacity:1" d="M 113.878,285.66 129.354,277.922 z" id="boundary" inkscape:connector-curvature="0" />
	<path style="fill:none;stroke:red;stroke-width:1px;stroke-linecap:butt;stroke-linejoin:miter;stroke-opacity:1" d="M 113.878,906.24 127.807,913.978 z" id="boundary" inkscape:connector-curvature="0" />
	<path style="fill:none;stroke:red;stroke-width:1px;stroke-linecap:butt;stroke-linejoin:miter;stroke-opacity:1" d="M 115.426,949.573 129.354,957.31 z" id="boundary" inkscape:connector-curvature="0" />
	<path style="fill:none;stroke:red;stroke-width:1px;stroke-linecap:butt;stroke-linejoin:miter;stroke-opacity:1" d="M 116.973,770.053 130.902,762.315 z" id="boundary" inkscape:connector-curvature="0" />
	<path style="fill:none;stroke:red;stroke-width:1px;stroke-linecap:butt;stroke-linejoin:miter;stroke-opacity:1" d="M 124.711,553.392 135.544,565.772 z" id="boundary" inkscape:connector-curvature="0" />
	<path style="fill:none;stroke:red;stroke-width:1px;stroke-linecap:butt;stroke-linejoin:miter;stroke-opacity:1" d="M 124.711,793.267 137.092,779.339 z" id="boundary" inkscape:connector-curvature="0" />
	<path style="fill:none;stroke:red;stroke-width:1px;stroke-linecap:butt;stroke-linejoin:miter;stroke-opacity:1" d="M 127.807,913.978 143.282,917.073 z" id="boundary" inkscape:connector-curvature="0" />
	<path style="fill:none;stroke:red;stroke-width:1px;stroke-linecap:butt;stroke-linejoin:miter;stroke-opacity:1" d="M 129.354,277.922 144.83,274.827 z" id="boundary" inkscape:connector-curvature="0" />
	<path style="fill:none;stroke:red;stroke-width:1px;stroke-linecap:butt;stroke-linejoin:miter;stroke-opacity:1" d="M 129.354,957.31 143.282,965.048 z" id="boundary" inkscape:connector-curvature="0" />
	<path style="fill:none;stroke:red;stroke-width:1px;stroke-linecap:butt;stroke-linejoin:miter;stroke-opacity:1" d="M 130.902,762.315 137.092,779.339 z" id="boundary" inkscape:connector-curvature="0" />
	<path style="fill:none;stroke:red;stroke-width:1px;stroke-linecap:butt;stroke-linejoin:miter;stroke-opacity:1" d="M 135.544,565.772 147.925,576.605 z" id="boundary" inkscape:connector-curvature="0" />
	<path style="fill:none;stroke:red;stroke-width:1px;stroke-linecap:butt;stroke-linejoin:miter;stroke-opacity:1" d="M 143.282,917.073 157.211,924.811 z" id="boundary" inkscape:connector-curvature="0" />
	<path style="fill:none;stroke:red;stroke-width:1px;stroke-linecap:butt;stroke-linejoin:miter;stroke-opacity:1" d="M 143.282,965.048 157.211,972.786 z" id="boundary" inkscape:connector-curvature="0" />
	<path style="fill:none;stroke:red;stroke-width:1px;stroke-linecap:butt;stroke-linejoin:miter;stroke-opacity:1" d="M 144.83,274.827 158.758,263.994 z" id="boundary" inkscape:connector-curvature="0" />
	<path style="fill:none;stroke:red;stroke-width:1px;stroke-linecap:butt;stroke-linejoin:miter;stroke-opacity:1" d="M 147.925,576.605 158.758,588.986 z" id="boundary" inkscape:connector-curvature="0" />
	<path style="fill:none;stroke:red;stroke-width:1px;stroke-linecap:butt;stroke-linejoin:miter;stroke-opacity:1" d="M 157.211,924.811 171.139,932.549 z" id="boundary" inkscape:connector-curvature="0" />
	<path style="fill:none;stroke:red;stroke-width:1px;stroke-linecap:butt;stroke-linejoin:miter;stroke-opacity:1" d="M 157.211,972.786 172.686,972.786 z" id="boundary" inkscape:connector-curvature="0" />
	<path style="fill:none;stroke:red;stroke-width:1px;stroke-linecap:butt;stroke-linejoin:miter;stroke-opacity:1" d="M 158.758,263.994 174.234,256.256 z" id="boundary" inkscape:connector-curvature="0" />
	<path style="fill:none;stroke:red;stroke-width:1px;stroke-linecap:butt;stroke-linejoin:miter;stroke-opacity:1" d="M 158.758,588.986 171.139,599.819 z" id="boundary" inkscape:connector-curvature="0" />
	<path style="fill:none;stroke:red;stroke-width:1px;stroke-linecap:butt;stroke-linejoin:miter;stroke-opacity:1" d="M 171.139,599.819 181.972,612.2 z" id="boundary" inkscape:connector-curvature="0" />
	<path style="fill:none;stroke:red;stroke-width:1px;stroke-linecap:butt;stroke-linejoin:miter;stroke-opacity:1" d="M 171.139,932.549 185.067,940.287 z" id="boundary" inkscape:connector-curvature="0" />
	<path style="fill:none;stroke:red;stroke-width:1px;stroke-linecap:butt;stroke-linejoin:miter;stroke-opacity:1" d="M 172.686,972.786 186.615,980.524 z" id="boundary" inkscape:connector-curvature="0" />
	<path style="fill:none;stroke:red;stroke-width:1px;stroke-linecap:butt;stroke-linejoin:miter;stroke-opacity:1" d="M 174.234,256.256 189.71,248.518 z" id="boundary" inkscape:connector-curvature="0" />
	<path style="fill:none;stroke:red;stroke-width:1px;stroke-linecap:butt;stroke-linejoin:miter;stroke-opacity:1" d="M 181.972,612.2 197.448,616.842 z" id="boundary" inkscape:connector-curvature="0" />
	<path style="fill:none;stroke:red;stroke-width:1px;stroke-linecap:butt;stroke-linejoin:miter;stroke-opacity:1" d="M 185.067,940.287 198.995,948.025 z" id="boundary" inkscape:connector-curvature="0" />
	<path style="fill:none;stroke:red;stroke-width:1px;stroke-linecap:butt;stroke-linejoin:miter;stroke-opacity:1" d="M 186.615,980.524 202.09,980.524 z" id="boundary" inkscape:connector-curvature="0" />
	<path style="fill:none;stroke:red;stroke-width:1px;stroke-linecap:butt;stroke-linejoin:miter;stroke-opacity:1" d="M 189.71,248.518 202.09,236.137 z" id="boundary" inkscape:connector-curvature="0" />
	<path style="fill:none;stroke:red;stroke-width:1px;stroke-linecap:butt;stroke-linejoin:miter;stroke-opacity:1" d="M 197.448,616.842 206.733,629.223 z" id="boundary" inkscape:connector-curvature="0" />
	<path style="fill:none;stroke:red;stroke-width:1px;stroke-linecap:butt;stroke-linejoin:miter;stroke-opacity:1" d="M 198.995,948.025 214.471,948.025 z" id="boundary" inkscape:connector-curvature="0" />
	<path style="fill:none;stroke:red;stroke-width:1px;stroke-linecap:butt;stroke-linejoin:miter;stroke-opacity:1" d="M 202.09,236.137 216.019,228.399 z" id="boundary" inkscape:connector-curvature="0" />
	<path style="fill:none;stroke:red;stroke-width:1px;stroke-linecap:butt;stroke-linejoin:miter;stroke-opacity:1" d="M 202.09,980.524 217.566,980.524 z" id="boundary" inkscape:connector-curvature="0" />
	<path style="fill:none;stroke:red;stroke-width:1px;stroke-linecap:butt;stroke-linejoin:miter;stroke-opacity:1" d="M 206.733,629.223 219.114,640.056 z" id="boundary" inkscape:connector-curvature="0" />
	<path style="fill:none;stroke:red;stroke-width:1px;stroke-linecap:butt;stroke-linejoin:miter;stroke-opacity:1" d="M 214.471,948.025 229.947,943.382 z" id="boundary" inkscape:connector-curvature="0" />
	<path style="fill:none;stroke:red;stroke-width:1px;stroke-linecap:butt;stroke-linejoin:miter;stroke-opacity:1" d="M 216.019,228.399 229.947,220.661 z" id="boundary" inkscape:connector-curvature="0" />
	<path style="fill:none;stroke:red;stroke-width:1px;stroke-linecap:butt;stroke-linejoin:miter;stroke-opacity:1" d="M 217.566,980.524 231.495,988.262 z" id="boundary" inkscape:connector-curvature="0" />
	<path style="fill:none;stroke:red;stroke-width:1px;stroke-linecap:butt;stroke-linejoin:miter;stroke-opacity:1" d="M 219.114,640.056 233.042,647.794 z" id="boundary" inkscape:connector-curvature="0" />
	<path style="fill:none;stroke:red;stroke-width:1px;stroke-linecap:butt;stroke-linejoin:miter;stroke-opacity:1" d="M 229.947,220.661 243.875,209.828 z" id="boundary" inkscape:connector-curvature="0" />
	<path style="fill:none;stroke:red;stroke-width:1px;stroke-linecap:butt;stroke-linejoin:miter;stroke-opacity:1" d="M 229.947,943.382 242.328,932.549 z" id="boundary" inkscape:connector-curvature="0" />
	<path style="fill:none;stroke:red;stroke-width:1px;stroke-linecap:butt;stroke-linejoin:miter;stroke-opacity:1" d="M 231.495,988.262 245.423,996 z" id="boundary" inkscape:connector-curvature="0" />
	<path style="fill:none;stroke:red;stroke-width:1px;stroke-linecap:butt;stroke-linejoin:miter;stroke-opacity:1" d="M 233.042,647.794 246.97,655.532 z" id="boundary" inkscape:connector-curvature="0" />
	<path style="fill:none;stroke:red;stroke-width:1px;stroke-linecap:butt;stroke-linejoin:miter;stroke-opacity:1" d="M 242.328,932.549 256.256,940.287 z" id="boundary" inkscape:connector-curvature="0" />
	<path style="fill:none;stroke:red;stroke-width:1px;stroke-linecap:butt;stroke-linejoin:miter;stroke-opacity:1" d="M 243.875,209.828 259.351,202.09 z" id="boundary" inkscape:connector-curvature="0" />
	<path style="fill:none;stroke:red;stroke-width:1px;stroke-linecap:butt;stroke-linejoin:miter;stroke-opacity:1" d="M 245.423,996 260.899,996 z" id="boundary" inkscape:connector-curvature="0" />
	<path style="fill:none;stroke:red;stroke-width:1px;stroke-linecap:butt;stroke-linejoin:miter;stroke-opacity:1" d="M 246.97,655.532 259.351,664.817 z" id="boundary" inkscape:connector-curvature="0" />
	<path style="fill:none;stroke:red;stroke-width:1px;stroke-linecap:butt;stroke-linejoin:miter;stroke-opacity:1" d="M 256.256,940.287 271.732,940.287 z" id="boundary" inkscape:connector-curvature="0" />
	<path style="fill:none;stroke:red;stroke-width:1px;stroke-linecap:butt;stroke-linejoin:miter;stroke-opacity:1" d="M 259.351,202.09 271.732,189.71 z" id="boundary" inkscape:connector-curvature="0" />
	<path style="fill:none;stroke:red;stroke-width:1px;stroke-linecap:butt;stroke-linejoin:miter;stroke-opacity:1" d="M 259.351,664.817 274.827,671.008 z" id="boundary" inkscape:connector-curvature="0" />
	<path style="fill:none;stroke:red;stroke-width:1px;stroke-linecap:butt;stroke-linejoin:miter;stroke-opacity:1" d="M 260.899,996 276.374,988.262 z" id="boundary" inkscape:connector-curvature="0" />
	<path style="fill:none;stroke:red;stroke-width:1px;stroke-linecap:butt;stroke-linejoin:miter;stroke-opacity:1" d="M 271.732,189.71 284.112,177.329 z" id="boundary" inkscape:connector-curvature="0" />
	<path style="fill:none;stroke:red;stroke-width:1px;stroke-linecap:butt;stroke-linejoin:miter;stroke-opacity:1" d="M 271.732,940.287 285.66,932.549 z" id="boundary" inkscape:connector-curvature="0" />
	<path style="fill:none;stroke:red;stroke-width:1px;stroke-linecap:butt;stroke-linejoin:miter;stroke-opacity:1" d="M 274.827,671.008 288.755,678.746 z" id="boundary" inkscape:connector-curvature="0" />
	<path style="fill:none;stroke:red;stroke-width:1px;stroke-linecap:butt;stroke-linejoin:miter;stroke-opacity:1" d="M 276.374,988.262 291.85,988.262 z" id="boundary" inkscape:connector-curvature="0" />
	<path style="fill:none;stroke:red;stroke-width:1px;stroke-linecap:butt;stroke-linejoin:miter;stroke-opacity:1" d="M 284.112,177.329 299.588,169.591 z" id="boundary" inkscape:connector-curvature="0" />
	<path style="fill:none;stroke:red;stroke-width:1px;stroke-linecap:butt;stroke-linejoin:miter;stroke-opacity:1" d="M 285.66,932.549 299.588,940.287 z" id="boundary" inkscape:connector-curvature="0" />
	<path style="fill:none;stroke:red;stroke-width:1px;stroke-linecap:butt;stroke-linejoin:miter;stroke-opacity:1" d="M 288.755,678.746 302.683,671.008 z" id="boundary" inkscape:connector-curvature="0" />
	<path style="fill:none;stroke:red;stroke-width:1px;stroke-linecap:butt;stroke-linejoin:miter;stroke-opacity:1" d="M 291.85,988.262 307.326,988.262 z" id="boundary" inkscape:connector-curvature="0" />
	<path style="fill:none;stroke:red;stroke-width:1px;stroke-linecap:butt;stroke-linejoin:miter;stroke-opacity:1" d="M 299.588,169.591 311.969,158.758 z" id="boundary" inkscape:connector-curvature="0" />
	<path style="fill:none;stroke:red;stroke-width:1px;stroke-linecap:butt;stroke-linejoin:miter;stroke-opacity:1" d="M 299.588,940.287 315.064,935.644 z" id="boundary" inkscape:connector-curvature="0" />
	<path style="fill:none;stroke:red;stroke-width:1px;stroke-linecap:butt;stroke-linejoin:miter;stroke-opacity:1" d="M 302.683,671.008 318.159,669.46 z" id="boundary" inkscape:connector-curvature="0" />
	<path style="fill:none;stroke:red;stroke-width:1px;stroke-linecap:butt;stroke-linejoin:miter;stroke-opacity:1" d="M 305.778,712.793 305.778,728.268 z" id="boundary" inkscape:connector-curvature="0" />
	<path style="fill:none;stroke:red;stroke-width:1px;stroke-linecap:butt;stroke-linejoin:miter;stroke-opacity:1" d="M 305.778,712.793 318.159,700.412 z" id="boundary" inkscape:connector-curvature="0" />
	<path style="fill:none;stroke:red;stroke-width:1px;stroke-linecap:butt;stroke-linejoin:miter;stroke-opacity:1" d="M 305.778,728.268 321.254,732.911 z" id="boundary" inkscape:connector-curvature="0" />
	<path style="fill:none;stroke:red;stroke-width:1px;stroke-linecap:butt;stroke-linejoin:miter;stroke-opacity:1" d="M 307.326,988.262 322.802,988.262 z" id="boundary" inkscape:connector-curvature="0" />
	<path style="fill:none;stroke:red;stroke-width:1px;stroke-linecap:butt;stroke-linejoin:miter;stroke-opacity:1" d="M 311.969,158.758 325.897,151.02 z" id="boundary" inkscape:connector-curvature="0" />
	<path style="fill:none;stroke:red;stroke-width:1px;stroke-linecap:butt;stroke-linejoin:miter;stroke-opacity:1" d="M 315.064,935.644 330.54,932.549 z" id="boundary" inkscape:connector-curvature="0" />
	<path style="fill:none;stroke:red;stroke-width:1px;stroke-linecap:butt;stroke-linejoin:miter;stroke-opacity:1" d="M 318.159,669.46 330.54,655.532 z" id="boundary" inkscape:connector-curvature="0" />
	<path style="fill:none;stroke:red;stroke-width:1px;stroke-linecap:butt;stroke-linejoin:miter;stroke-opacity:1" d="M 318.159,700.412 330.54,688.031 z" id="boundary" inkscape:connector-curvature="0" />
	<path style="fill:none;stroke:red;stroke-width:1px;stroke-linecap:butt;stroke-linejoin:miter;stroke-opacity:1" d="M 321.254,732.911 335.183,740.649 z" id="boundary" inkscape:connector-curvature="0" />
	<path style="fill:none;stroke:red;stroke-width:1px;stroke-linecap:butt;stroke-linejoin:miter;stroke-opacity:1" d="M 322.802,988.262 338.278,980.524 z" id="boundary" inkscape:connector-curvature="0" />
	<path style="fill:none;stroke:red;stroke-width:1px;stroke-linecap:butt;stroke-linejoin:miter;stroke-opacity:1" d="M 325.897,151.02 338.278,138.64 z" id="boundary" inkscape:connector-curvature="0" />
	<path style="fill:none;stroke:red;stroke-width:1px;stroke-linecap:butt;stroke-linejoin:miter;stroke-opacity:1" d="M 330.54,655.532 342.92,644.699 z" id="boundary" inkscape:connector-curvature="0" />
	<path style="fill:none;stroke:red;stroke-width:1px;stroke-linecap:butt;stroke-linejoin:miter;stroke-opacity:1" d="M 330.54,688.031 342.92,677.198 z" id="boundary" inkscape:connector-curvature="0" />
	<path style="fill:none;stroke:red;stroke-width:1px;stroke-linecap:butt;stroke-linejoin:miter;stroke-opacity:1" d="M 330.54,932.549 344.468,924.811 z" id="boundary" inkscape:connector-curvature="0" />
	<path style="fill:none;stroke:red;stroke-width:1px;stroke-linecap:butt;stroke-linejoin:miter;stroke-opacity:1" d="M 335.183,740.649 349.111,731.363 z" id="boundary" inkscape:connector-curvature="0" />
	<path style="fill:none;stroke:red;stroke-width:1px;stroke-linecap:butt;stroke-linejoin:miter;stroke-opacity:1" d="M 338.278,138.64 350.658,127.807 z" id="boundary" inkscape:connector-curvature="0" />
	<path style="fill:none;stroke:red;stroke-width:1px;stroke-linecap:butt;stroke-linejoin:miter;stroke-opacity:1" d="M 338.278,980.524 353.754,980.524 z" id="boundary" inkscape:connector-curvature="0" />
	<path style="fill:none;stroke:red;stroke-width:1px;stroke-linecap:butt;stroke-linejoin:miter;stroke-opacity:1" d="M 342.92,644.699 349.111,661.722 z" id="boundary" inkscape:connector-curvature="0" />
	<path style="fill:none;stroke:red;stroke-width:1px;stroke-linecap:butt;stroke-linejoin:miter;stroke-opacity:1" d="M 342.92,677.198 349.111,661.722 z" id="boundary" inkscape:connector-curvature="0" />
	<path style="fill:none;stroke:red;stroke-width:1px;stroke-linecap:butt;stroke-linejoin:miter;stroke-opacity:1" d="M 344.468,924.811 359.944,921.716 z" id="boundary" inkscape:connector-curvature="0" />
	<path style="fill:none;stroke:red;stroke-width:1px;stroke-linecap:butt;stroke-linejoin:miter;stroke-opacity:1" d="M 349.111,731.363 364.587,725.173 z" id="boundary" inkscape:connector-curvature="0" />
	<path style="fill:none;stroke:red;stroke-width:1px;stroke-linecap:butt;stroke-linejoin:miter;stroke-opacity:1" d="M 350.658,127.807 356.849,112.331 z" id="boundary" inkscape:connector-curvature="0" />
	<path style="fill:none;stroke:red;stroke-width:1px;stroke-linecap:butt;stroke-linejoin:miter;stroke-opacity:1" d="M 353.754,980.524 366.134,969.691 z" id="boundary" inkscape:connector-curvature="0" />
	<path style="fill:none;stroke:red;stroke-width:1px;stroke-linecap:butt;stroke-linejoin:miter;stroke-opacity:1" d="M 356.849,112.331 364.587,96.8549 z" id="boundary" inkscape:connector-curvature="0" />
	<path style="fill:none;stroke:red;stroke-width:1px;stroke-linecap:butt;stroke-linejoin:miter;stroke-opacity:1" d="M 359.944,921.716 375.42,913.978 z" id="boundary" inkscape:connector-curvature="0" />
	<path style="fill:none;stroke:red;stroke-width:1px;stroke-linecap:butt;stroke-linejoin:miter;stroke-opacity:1" d="M 364.587,96.8549 376.967,84.4743 z" id="boundary" inkscape:connector-curvature="0" />
	<path style="fill:none;stroke:red;stroke-width:1px;stroke-linecap:butt;stroke-linejoin:miter;stroke-opacity:1" d="M 364.587,725.173 367.682,740.649 z" id="boundary" inkscape:connector-curvature="0" />
	<path style="fill:none;stroke:red;stroke-width:1px;stroke-linecap:butt;stroke-linejoin:miter;stroke-opacity:1" d="M 366.134,969.691 381.61,961.953 z" id="boundary" inkscape:connector-curvature="0" />
	<path style="fill:none;stroke:red;stroke-width:1px;stroke-linecap:butt;stroke-linejoin:miter;stroke-opacity:1" d="M 367.682,740.649 375.42,754.577 z" id="boundary" inkscape:connector-curvature="0" />
	<path style="fill:none;stroke:red;stroke-width:1px;stroke-linecap:butt;stroke-linejoin:miter;stroke-opacity:1" d="M 375.42,754.577 378.515,770.053 z" id="boundary" inkscape:connector-curvature="0" />
	<path style="fill:none;stroke:red;stroke-width:1px;stroke-linecap:butt;stroke-linejoin:miter;stroke-opacity:1" d="M 375.42,913.978 387.8,901.598 z" id="boundary" inkscape:connector-curvature="0" />
	<path style="fill:none;stroke:red;stroke-width:1px;stroke-linecap:butt;stroke-linejoin:miter;stroke-opacity:1" d="M 376.967,84.4743 389.348,73.6412 z" id="boundary" inkscape:connector-curvature="0" />
	<path style="fill:none;stroke:red;stroke-width:1px;stroke-linecap:butt;stroke-linejoin:miter;stroke-opacity:1" d="M 378.515,770.053 386.253,783.981 z" id="boundary" inkscape:connector-curvature="0" />
	<path style="fill:none;stroke:red;stroke-width:1px;stroke-linecap:butt;stroke-linejoin:miter;stroke-opacity:1" d="M 381.61,961.953 397.086,954.215 z" id="boundary" inkscape:connector-curvature="0" />
	<path style="fill:none;stroke:red;stroke-width:1px;stroke-linecap:butt;stroke-linejoin:miter;stroke-opacity:1" d="M 386.253,783.981 401.729,787.076 z" id="boundary" inkscape:connector-curvature="0" />
	<path style="fill:none;stroke:red;stroke-width:1px;stroke-linecap:butt;stroke-linejoin:miter;stroke-opacity:1" d="M 387.8,901.598 395.538,886.122 z" id="boundary" inkscape:connector-curvature="0" />
	<path style="fill:none;stroke:red;stroke-width:1px;stroke-linecap:butt;stroke-linejoin:miter;stroke-opacity:1" d="M 389.348,73.6412 400.181,61.2605 z" id="boundary" inkscape:connector-curvature="0" />
	<path style="fill:none;stroke:red;stroke-width:1px;stroke-linecap:butt;stroke-linejoin:miter;stroke-opacity:1" d="M 395.538,886.122 407.919,873.741 z" id="boundary" inkscape:connector-curvature="0" />
	<path style="fill:none;stroke:red;stroke-width:1px;stroke-linecap:butt;stroke-linejoin:miter;stroke-opacity:1" d="M 397.086,954.215 412.562,946.477 z" id="boundary" inkscape:connector-curvature="0" />
	<path style="fill:none;stroke:red;stroke-width:1px;stroke-linecap:butt;stroke-linejoin:miter;stroke-opacity:1" d="M 400.181,61.2605 412.562,50.4275 z" id="boundary" inkscape:connector-curvature="0" />
	<path style="fill:none;stroke:red;stroke-width:1px;stroke-linecap:butt;stroke-linejoin:miter;stroke-opacity:1" d="M 401.729,787.076 406.371,802.552 z" id="boundary" inkscape:connector-curvature="0" />
	<path style="fill:none;stroke:red;stroke-width:1px;stroke-linecap:butt;stroke-linejoin:miter;stroke-opacity:1" d="M 406.371,802.552 420.3,810.29 z" id="boundary" inkscape:connector-curvature="0" />
	<path style="fill:none;stroke:red;stroke-width:1px;stroke-linecap:butt;stroke-linejoin:miter;stroke-opacity:1" d="M 407.919,771.601 431.133,763.863 z" id="boundary" inkscape:connector-curvature="0" />
	<path style="fill:none;stroke:red;stroke-width:1px;stroke-linecap:butt;stroke-linejoin:miter;stroke-opacity:1" d="M 407.919,873.741 420.3,862.908 z" id="boundary" inkscape:connector-curvature="0" />
	<path style="fill:none;stroke:red;stroke-width:1px;stroke-linecap:butt;stroke-linejoin:miter;stroke-opacity:1" d="M 412.562,50.4275 423.395,38.0468 z" id="boundary" inkscape:connector-curvature="0" />
	<path style="fill:none;stroke:red;stroke-width:1px;stroke-linecap:butt;stroke-linejoin:miter;stroke-opacity:1" d="M 412.562,946.477 428.037,938.739 z" id="boundary" inkscape:connector-curvature="0" />
	<path style="fill:none;stroke:red;stroke-width:1px;stroke-linecap:butt;stroke-linejoin:miter;stroke-opacity:1" d="M 420.3,810.29 429.585,822.671 z" id="boundary" inkscape:connector-curvature="0" />
	<path style="fill:none;stroke:red;stroke-width:1px;stroke-linecap:butt;stroke-linejoin:miter;stroke-opacity:1" d="M 420.3,862.908 426.49,847.432 z" id="boundary" inkscape:connector-curvature="0" />
	<path style="fill:none;stroke:red;stroke-width:1px;stroke-linecap:butt;stroke-linejoin:miter;stroke-opacity:1" d="M 423.395,38.0468 435.775,27.2137 z" id="boundary" inkscape:connector-curvature="0" />
	<path style="fill:none;stroke:red;stroke-width:1px;stroke-linecap:butt;stroke-linejoin:miter;stroke-opacity:1" d="M 426.49,847.432 429.585,822.671 z" id="boundary" inkscape:connector-curvature="0" />
	<path style="fill:none;stroke:red;stroke-width:1px;stroke-linecap:butt;stroke-linejoin:miter;stroke-opacity:1" d="M 428.037,938.739 438.871,926.359 z" id="boundary" inkscape:connector-curvature="0" />
	<path style="fill:none;stroke:red;stroke-width:1px;stroke-linecap:butt;stroke-linejoin:miter;stroke-opacity:1" d="M 435.775,27.2137 446.608,14.8331 z" id="boundary" inkscape:connector-curvature="0" />
	<path style="fill:none;stroke:red;stroke-width:1px;stroke-linecap:butt;stroke-linejoin:miter;stroke-opacity:1" d="M 438.871,926.359 451.251,915.526 z" id="boundary" inkscape:connector-curvature="0" />
	<path style="fill:none;stroke:red;stroke-width:1px;stroke-linecap:butt;stroke-linejoin:miter;stroke-opacity:1" d="M 446.608,14.8331 462.084,7.09516 z" id="boundary" inkscape:connector-curvature="0" />
	<path style="fill:none;stroke:red;stroke-width:1px;stroke-linecap:butt;stroke-linejoin:miter;stroke-opacity:1" d="M 451.251,915.526 458.989,900.05 z" id="boundary" inkscape:connector-curvature="0" />
	<path style="fill:none;stroke:red;stroke-width:1px;stroke-linecap:butt;stroke-linejoin:miter;stroke-opacity:1" d="M 458.989,900.05 466.727,884.574 z" id="boundary" inkscape:connector-curvature="0" />
	<path style="fill:none;stroke:red;stroke-width:1px;stroke-linecap:butt;stroke-linejoin:miter;stroke-opacity:1" d="M 462.084,7.09516 477.56,4 z" id="boundary" inkscape:connector-curvature="0" />
	<path style="fill:none;stroke:red;stroke-width:1px;stroke-linecap:butt;stroke-linejoin:miter;stroke-opacity:1" d="M 466.727,884.574 477.56,864.456 z" id="boundary" inkscape:connector-curvature="0" />
	<path style="fill:none;stroke:red;stroke-width:1px;stroke-linecap:butt;stroke-linejoin:miter;stroke-opacity:1" d="M 477.56,4 493.036,8.64275 z" id="boundary" inkscape:connector-curvature="0" />
	<path style="fill:none;stroke:red;stroke-width:1px;stroke-linecap:butt;stroke-linejoin:miter;stroke-opacity:1" d="M 477.56,864.456 485.298,848.98 z" id="boundary" inkscape:connector-curvature="0" />
	<path style="fill:none;stroke:red;stroke-width:1px;stroke-linecap:butt;stroke-linejoin:miter;stroke-opacity:1" d="M 485.298,848.98 493.036,833.504 z" id="boundary" inkscape:connector-curvature="0" />
	<path style="fill:none;stroke:red;stroke-width:1px;stroke-linecap:butt;stroke-linejoin:miter;stroke-opacity:1" d="M 493.036,8.64275 499.226,24.1186 z" id="boundary" inkscape:connector-curvature="0" />
	<path style="fill:none;stroke:red;stroke-width:1px;stroke-linecap:butt;stroke-linejoin:miter;stroke-opacity:1" d="M 493.036,802.552 493.036,818.028 z" id="boundary" inkscape:connector-curvature="0" />
	<path style="fill:none;stroke:red;stroke-width:1px;stroke-linecap:butt;stroke-linejoin:miter;stroke-opacity:1" d="M 493.036,802.552 500.774,787.076 z" id="boundary" inkscape:connector-curvature="0" />
	<path style="fill:none;stroke:red;stroke-width:1px;stroke-linecap:butt;stroke-linejoin:miter;stroke-opacity:1" d="M 493.036,818.028 493.036,833.504 z" id="boundary" inkscape:connector-curvature="0" />
	<path style="fill:none;stroke:red;stroke-width:1px;stroke-linecap:butt;stroke-linejoin:miter;stroke-opacity:1" d="M 499.226,24.1186 508.512,36.4992 z" id="boundary" inkscape:connector-curvature="0" />
	<path style="fill:none;stroke:red;stroke-width:1px;stroke-linecap:butt;stroke-linejoin:miter;stroke-opacity:1" d="M 500.774,787.076 514.702,794.814 z" id="boundary" inkscape:connector-curvature="0" />
	<path style="fill:none;stroke:red;stroke-width:1px;stroke-linecap:butt;stroke-linejoin:miter;stroke-opacity:1" d="M 508.512,36.4992 516.25,50.4275 z" id="boundary" inkscape:connector-curvature="0" />
	<path style="fill:none;stroke:red;stroke-width:1px;stroke-linecap:butt;stroke-linejoin:miter;stroke-opacity:1" d="M 514.702,794.814 519.345,810.29 z" id="boundary" inkscape:connector-curvature="0" />
	<path style="fill:none;stroke:red;stroke-width:1px;stroke-linecap:butt;stroke-linejoin:miter;stroke-opacity:1" d="M 516.25,50.4275 528.63,59.7129 z" id="boundary" inkscape:connector-curvature="0" />
	<path style="fill:none;stroke:red;stroke-width:1px;stroke-linecap:butt;stroke-linejoin:miter;stroke-opacity:1" d="M 519.345,810.29 534.821,808.743 z" id="boundary" inkscape:connector-curvature="0" />
	<path style="fill:none;stroke:red;stroke-width:1px;stroke-linecap:butt;stroke-linejoin:miter;stroke-opacity:1" d="M 528.63,59.7129 539.463,72.0936 z" id="boundary" inkscape:connector-curvature="0" />
	<path style="fill:none;stroke:red;stroke-width:1px;stroke-linecap:butt;stroke-linejoin:miter;stroke-opacity:1" d="M 534.821,808.743 542.559,793.267 z" id="boundary" inkscape:connector-curvature="0" />
	<path style="fill:none;stroke:red;stroke-width:1px;stroke-linecap:butt;stroke-linejoin:miter;stroke-opacity:1" d="M 539.463,72.0936 551.844,82.9267 z" id="boundary" inkscape:connector-curvature="0" />
	<path style="fill:none;stroke:red;stroke-width:1px;stroke-linecap:butt;stroke-linejoin:miter;stroke-opacity:1" d="M 542.559,793.267 554.939,779.339 z" id="boundary" inkscape:connector-curvature="0" />
	<path style="fill:none;stroke:red;stroke-width:1px;stroke-linecap:butt;stroke-linejoin:miter;stroke-opacity:1" d="M 551.844,82.9267 565.772,90.6646 z" id="boundary" inkscape:connector-curvature="0" />
	<path style="fill:none;stroke:red;stroke-width:1px;stroke-linecap:butt;stroke-linejoin:miter;stroke-opacity:1" d="M 554.939,779.339 567.32,768.505 z" id="boundary" inkscape:connector-curvature="0" />
	<path style="fill:none;stroke:red;stroke-width:1px;stroke-linecap:butt;stroke-linejoin:miter;stroke-opacity:1" d="M 565.772,90.6646 581.248,96.8549 z" id="boundary" inkscape:connector-curvature="0" />
	<path style="fill:none;stroke:red;stroke-width:1px;stroke-linecap:butt;stroke-linejoin:miter;stroke-opacity:1" d="M 567.32,768.505 570.415,748.387 z" id="boundary" inkscape:connector-curvature="0" />
	<path style="fill:none;stroke:red;stroke-width:1px;stroke-linecap:butt;stroke-linejoin:miter;stroke-opacity:1" d="M 570.415,748.387 578.153,732.911 z" id="boundary" inkscape:connector-curvature="0" />
	<path style="fill:none;stroke:red;stroke-width:1px;stroke-linecap:butt;stroke-linejoin:miter;stroke-opacity:1" d="M 578.153,732.911 585.891,717.435 z" id="boundary" inkscape:connector-curvature="0" />
	<path style="fill:none;stroke:red;stroke-width:1px;stroke-linecap:butt;stroke-linejoin:miter;stroke-opacity:1" d="M 581.248,96.8549 592.081,109.236 z" id="boundary" inkscape:connector-curvature="0" />
	<path style="fill:none;stroke:red;stroke-width:1px;stroke-linecap:butt;stroke-linejoin:miter;stroke-opacity:1" d="M 585.891,717.435 599.819,725.173 z" id="boundary" inkscape:connector-curvature="0" />
	<path style="fill:none;stroke:red;stroke-width:1px;stroke-linecap:butt;stroke-linejoin:miter;stroke-opacity:1" d="M 592.081,109.236 604.462,120.069 z" id="boundary" inkscape:connector-curvature="0" />
	<path style="fill:none;stroke:red;stroke-width:1px;stroke-linecap:butt;stroke-linejoin:miter;stroke-opacity:1" d="M 599.819,725.173 609.105,737.554 z" id="boundary" inkscape:connector-curvature="0" />
	<path style="fill:none;stroke:red;stroke-width:1px;stroke-linecap:butt;stroke-linejoin:miter;stroke-opacity:1" d="M 604.462,120.069 615.295,132.449 z" id="boundary" inkscape:connector-curvature="0" />
	<path style="fill:none;stroke:red;stroke-width:1px;stroke-linecap:butt;stroke-linejoin:miter;stroke-opacity:1" d="M 609.105,655.532 616.842,669.46 z" id="boundary" inkscape:connector-curvature="0" />
	<path style="fill:none;stroke:red;stroke-width:1px;stroke-linecap:butt;stroke-linejoin:miter;stroke-opacity:1" d="M 609.105,737.554 624.58,740.649 z" id="boundary" inkscape:connector-curvature="0" />
	<path style="fill:none;stroke:red;stroke-width:1px;stroke-linecap:butt;stroke-linejoin:miter;stroke-opacity:1" d="M 615.295,132.449 627.676,143.282 z" id="boundary" inkscape:connector-curvature="0" />
	<path style="fill:none;stroke:red;stroke-width:1px;stroke-linecap:butt;stroke-linejoin:miter;stroke-opacity:1" d="M 616.842,669.46 624.58,683.388 z" id="boundary" inkscape:connector-curvature="0" />
	<path style="fill:none;stroke:red;stroke-width:1px;stroke-linecap:butt;stroke-linejoin:miter;stroke-opacity:1" d="M 624.58,683.388 633.866,671.008 z" id="boundary" inkscape:connector-curvature="0" />
	<path style="fill:none;stroke:red;stroke-width:1px;stroke-linecap:butt;stroke-linejoin:miter;stroke-opacity:1" d="M 624.58,740.649 636.961,729.816 z" id="boundary" inkscape:connector-curvature="0" />
	<path style="fill:none;stroke:red;stroke-width:1px;stroke-linecap:butt;stroke-linejoin:miter;stroke-opacity:1" d="M 627.676,143.282 638.509,155.663 z" id="boundary" inkscape:connector-curvature="0" />
	<path style="fill:none;stroke:red;stroke-width:1px;stroke-linecap:butt;stroke-linejoin:miter;stroke-opacity:1" d="M 633.866,671.008 647.794,678.746 z" id="boundary" inkscape:connector-curvature="0" />
	<path style="fill:none;stroke:red;stroke-width:1px;stroke-linecap:butt;stroke-linejoin:miter;stroke-opacity:1" d="M 636.961,694.222 640.056,709.697 z" id="boundary" inkscape:connector-curvature="0" />
	<path style="fill:none;stroke:red;stroke-width:1px;stroke-linecap:butt;stroke-linejoin:miter;stroke-opacity:1" d="M 636.961,729.816 640.056,709.697 z" id="boundary" inkscape:connector-curvature="0" />
	<path style="fill:none;stroke:red;stroke-width:1px;stroke-linecap:butt;stroke-linejoin:miter;stroke-opacity:1" d="M 638.509,155.663 650.889,166.496 z" id="boundary" inkscape:connector-curvature="0" />
	<path style="fill:none;stroke:red;stroke-width:1px;stroke-linecap:butt;stroke-linejoin:miter;stroke-opacity:1" d="M 647.794,678.746 663.27,671.008 z" id="boundary" inkscape:connector-curvature="0" />
	<path style="fill:none;stroke:red;stroke-width:1px;stroke-linecap:butt;stroke-linejoin:miter;stroke-opacity:1" d="M 650.889,166.496 661.722,178.877 z" id="boundary" inkscape:connector-curvature="0" />
	<path style="fill:none;stroke:red;stroke-width:1px;stroke-linecap:butt;stroke-linejoin:miter;stroke-opacity:1" d="M 661.722,178.877 677.198,185.067 z" id="boundary" inkscape:connector-curvature="0" />
	<path style="fill:none;stroke:red;stroke-width:1px;stroke-linecap:butt;stroke-linejoin:miter;stroke-opacity:1" d="M 663.27,671.008 678.746,671.008 z" id="boundary" inkscape:connector-curvature="0" />
	<path style="fill:none;stroke:red;stroke-width:1px;stroke-linecap:butt;stroke-linejoin:miter;stroke-opacity:1" d="M 677.198,185.067 686.484,197.448 z" id="boundary" inkscape:connector-curvature="0" />
	<path style="fill:none;stroke:red;stroke-width:1px;stroke-linecap:butt;stroke-linejoin:miter;stroke-opacity:1" d="M 678.746,671.008 692.674,663.27 z" id="boundary" inkscape:connector-curvature="0" />
	<path style="fill:none;stroke:red;stroke-width:1px;stroke-linecap:butt;stroke-linejoin:miter;stroke-opacity:1" d="M 686.484,197.448 701.959,202.09 z" id="boundary" inkscape:connector-curvature="0" />
	<path style="fill:none;stroke:red;stroke-width:1px;stroke-linecap:butt;stroke-linejoin:miter;stroke-opacity:1" d="M 692.674,663.27 706.602,655.532 z" id="boundary" inkscape:connector-curvature="0" />
	<path style="fill:none;stroke:red;stroke-width:1px;stroke-linecap:butt;stroke-linejoin:miter;stroke-opacity:1" d="M 701.959,202.09 714.34,212.924 z" id="boundary" inkscape:connector-curvature="0" />
	<path style="fill:none;stroke:red;stroke-width:1px;stroke-linecap:butt;stroke-linejoin:miter;stroke-opacity:1" d="M 706.602,655.532 720.53,646.246 z" id="boundary" inkscape:connector-curvature="0" />
	<path style="fill:none;stroke:red;stroke-width:1px;stroke-linecap:butt;stroke-linejoin:miter;stroke-opacity:1" d="M 714.34,212.924 728.268,220.661 z" id="boundary" inkscape:connector-curvature="0" />
	<path style="fill:none;stroke:red;stroke-width:1px;stroke-linecap:butt;stroke-linejoin:miter;stroke-opacity:1" d="M 720.53,646.246 732.911,632.318 z" id="boundary" inkscape:connector-curvature="0" />
	<path style="fill:none;stroke:red;stroke-width:1px;stroke-linecap:butt;stroke-linejoin:miter;stroke-opacity:1" d="M 728.268,220.661 742.197,228.399 z" id="boundary" inkscape:connector-curvature="0" />
	<path style="fill:none;stroke:red;stroke-width:1px;stroke-linecap:butt;stroke-linejoin:miter;stroke-opacity:1" d="M 732.911,632.318 745.292,621.485 z" id="boundary" inkscape:connector-curvature="0" />
	<path style="fill:none;stroke:red;stroke-width:1px;stroke-linecap:butt;stroke-linejoin:miter;stroke-opacity:1" d="M 742.197,228.399 756.125,236.137 z" id="boundary" inkscape:connector-curvature="0" />
	<path style="fill:none;stroke:red;stroke-width:1px;stroke-linecap:butt;stroke-linejoin:miter;stroke-opacity:1" d="M 745.292,621.485 756.125,609.105 z" id="boundary" inkscape:connector-curvature="0" />
	<path style="fill:none;stroke:red;stroke-width:1px;stroke-linecap:butt;stroke-linejoin:miter;stroke-opacity:1" d="M 756.125,236.137 770.053,243.875 z" id="boundary" inkscape:connector-curvature="0" />
	<path style="fill:none;stroke:red;stroke-width:1px;stroke-linecap:butt;stroke-linejoin:miter;stroke-opacity:1" d="M 756.125,609.105 768.505,598.271 z" id="boundary" inkscape:connector-curvature="0" />
	<path style="fill:none;stroke:red;stroke-width:1px;stroke-linecap:butt;stroke-linejoin:miter;stroke-opacity:1" d="M 768.505,598.271 779.339,585.891 z" id="boundary" inkscape:connector-curvature="0" />
	<path style="fill:none;stroke:red;stroke-width:1px;stroke-linecap:butt;stroke-linejoin:miter;stroke-opacity:1" d="M 770.053,243.875 783.981,251.613 z" id="boundary" inkscape:connector-curvature="0" />
	<path style="fill:none;stroke:red;stroke-width:1px;stroke-linecap:butt;stroke-linejoin:miter;stroke-opacity:1" d="M 779.339,585.891 791.719,575.058 z" id="boundary" inkscape:connector-curvature="0" />
	<path style="fill:none;stroke:red;stroke-width:1px;stroke-linecap:butt;stroke-linejoin:miter;stroke-opacity:1" d="M 783.981,251.613 797.91,259.351 z" id="boundary" inkscape:connector-curvature="0" />
	<path style="fill:none;stroke:red;stroke-width:1px;stroke-linecap:butt;stroke-linejoin:miter;stroke-opacity:1" d="M 791.719,575.058 802.552,562.677 z" id="boundary" inkscape:connector-curvature="0" />
	<path style="fill:none;stroke:red;stroke-width:1px;stroke-linecap:butt;stroke-linejoin:miter;stroke-opacity:1" d="M 797.91,259.351 811.838,267.089 z" id="boundary" inkscape:connector-curvature="0" />
	<path style="fill:none;stroke:red;stroke-width:1px;stroke-linecap:butt;stroke-linejoin:miter;stroke-opacity:1" d="M 802.552,562.677 814.933,551.844 z" id="boundary" inkscape:connector-curvature="0" />
	<path style="fill:none;stroke:red;stroke-width:1px;stroke-linecap:butt;stroke-linejoin:miter;stroke-opacity:1" d="M 811.838,267.089 825.766,274.827 z" id="boundary" inkscape:connector-curvature="0" />
	<path style="fill:none;stroke:red;stroke-width:1px;stroke-linecap:butt;stroke-linejoin:miter;stroke-opacity:1" d="M 814.933,551.844 825.766,539.463 z" id="boundary" inkscape:connector-curvature="0" />
	<path style="fill:none;stroke:red;stroke-width:1px;stroke-linecap:butt;stroke-linejoin:miter;stroke-opacity:1" d="M 825.766,274.827 839.694,282.565 z" id="boundary" inkscape:connector-curvature="0" />
	<path style="fill:none;stroke:red;stroke-width:1px;stroke-linecap:butt;stroke-linejoin:miter;stroke-opacity:1" d="M 825.766,539.463 839.694,531.725 z" id="boundary" inkscape:connector-curvature="0" />
	<path style="fill:none;stroke:red;stroke-width:1px;stroke-linecap:butt;stroke-linejoin:miter;stroke-opacity:1" d="M 839.694,282.565 852.075,291.85 z" id="boundary" inkscape:connector-curvature="0" />
	<path style="fill:none;stroke:red;stroke-width:1px;stroke-linecap:butt;stroke-linejoin:miter;stroke-opacity:1" d="M 839.694,531.725 852.075,522.44 z" id="boundary" inkscape:connector-curvature="0" />
	<path style="fill:none;stroke:red;stroke-width:1px;stroke-linecap:butt;stroke-linejoin:miter;stroke-opacity:1" d="M 852.075,291.85 867.551,298.041 z" id="boundary" inkscape:connector-curvature="0" />
	<path style="fill:none;stroke:red;stroke-width:1px;stroke-linecap:butt;stroke-linejoin:miter;stroke-opacity:1" d="M 852.075,522.44 864.456,508.512 z" id="boundary" inkscape:connector-curvature="0" />
	<path style="fill:none;stroke:red;stroke-width:1px;stroke-linecap:butt;stroke-linejoin:miter;stroke-opacity:1" d="M 864.456,508.512 872.193,493.036 z" id="boundary" inkscape:connector-curvature="0" />
	<path style="fill:none;stroke:red;stroke-width:1px;stroke-linecap:butt;stroke-linejoin:miter;stroke-opacity:1" d="M 867.551,298.041 878.384,310.421 z" id="boundary" inkscape:connector-curvature="0" />
	<path style="fill:none;stroke:red;stroke-width:1px;stroke-linecap:butt;stroke-linejoin:miter;stroke-opacity:1" d="M 872.193,493.036 884.574,482.203 z" id="boundary" inkscape:connector-curvature="0" />
	<path style="fill:none;stroke:red;stroke-width:1px;stroke-linecap:butt;stroke-linejoin:miter;stroke-opacity:1" d="M 878.384,310.421 890.764,321.254 z" id="boundary" inkscape:connector-curvature="0" />
	<path style="fill:none;stroke:red;stroke-width:1px;stroke-linecap:butt;stroke-linejoin:miter;stroke-opacity:1" d="M 884.574,482.203 895.407,469.822 z" id="boundary" inkscape:connector-curvature="0" />
	<path style="fill:none;stroke:red;stroke-width:1px;stroke-linecap:butt;stroke-linejoin:miter;stroke-opacity:1" d="M 890.764,321.254 901.598,333.635 z" id="boundary" inkscape:connector-curvature="0" />
	<path style="fill:none;stroke:red;stroke-width:1px;stroke-linecap:butt;stroke-linejoin:miter;stroke-opacity:1" d="M 895.407,469.822 907.788,458.989 z" id="boundary" inkscape:connector-curvature="0" />
	<path style="fill:none;stroke:red;stroke-width:1px;stroke-linecap:butt;stroke-linejoin:miter;stroke-opacity:1" d="M 901.598,333.635 917.073,339.825 z" id="boundary" inkscape:connector-curvature="0" />
	<path style="fill:none;stroke:red;stroke-width:1px;stroke-linecap:butt;stroke-linejoin:miter;stroke-opacity:1" d="M 907.788,458.989 918.621,446.608 z" id="boundary" inkscape:connector-curvature="0" />
	<path style="fill:none;stroke:red;stroke-width:1px;stroke-linecap:butt;stroke-linejoin:miter;stroke-opacity:1" d="M 917.073,339.825 926.359,352.206 z" id="boundary" inkscape:connector-curvature="0" />
	<path style="fill:none;stroke:red;stroke-width:1px;stroke-linecap:butt;stroke-linejoin:miter;stroke-opacity:1" d="M 918.621,446.608 926.359,431.133 z" id="boundary" inkscape:connector-curvature="0" />
	<path style="fill:none;stroke:red;stroke-width:1px;stroke-linecap:butt;stroke-linejoin:miter;stroke-opacity:1" d="M 926.359,352.206 938.739,361.491 z" id="boundary" inkscape:connector-curvature="0" />
	<path style="fill:none;stroke:red;stroke-width:1px;stroke-linecap:butt;stroke-linejoin:miter;stroke-opacity:1" d="M 926.359,431.133 934.097,415.657 z" id="boundary" inkscape:connector-curvature="0" />
	<path style="fill:none;stroke:red;stroke-width:1px;stroke-linecap:butt;stroke-linejoin:miter;stroke-opacity:1" d="M 934.097,415.657 941.835,392.443 z" id="boundary" inkscape:connector-curvature="0" />
	<path style="fill:none;stroke:red;stroke-width:1px;stroke-linecap:butt;stroke-linejoin:miter;stroke-opacity:1" d="M 938.739,361.491 941.835,376.967 z" id="boundary" inkscape:connector-curvature="0" />
	<path style="fill:none;stroke:red;stroke-width:1px;stroke-linecap:butt;stroke-linejoin:miter;stroke-opacity:1" d="M 941.835,376.967 941.835,392.443 z" id="boundary" inkscape:connector-curvature="0" />
	<circle cx="4" cy="387.8" r="4" fill="#0" id="circle0"/>
	<circle cx="4" cy="403.276" r="4" fill="#0" id="circle1"/>
	<circle cx="11.7379" cy="417.204" r="4" fill="#0" id="circle2"/>
	<circle cx="16.3807" cy="375.42" r="4" fill="#0" id="circle3"/>
	<circle cx="19.4758" cy="431.133" r="4" fill="#0" id="circle4"/>
	<circle cx="27.2137" cy="836.599" r="4" fill="#0" id="circle5"/>
	<circle cx="27.2137" cy="852.075" r="4" fill="#0" id="circle6"/>
	<circle cx="27.2137" cy="867.551" r="4" fill="#0" id="circle7"/>
	<circle cx="27.2137" cy="883.027" r="4" fill="#0" id="circle8"/>
	<circle cx="28.7613" cy="363.039" r="4" fill="#0" id="circle9"/>
	<circle cx="28.7613" cy="443.513" r="4" fill="#0" id="circle10"/>
	<circle cx="34.9516" cy="821.123" r="4" fill="#0" id="circle11"/>
	<circle cx="36.4992" cy="457.441" r="4" fill="#0" id="circle12"/>
	<circle cx="39.5944" cy="893.86" r="4" fill="#0" id="circle13"/>
	<circle cx="41.142" cy="352.206" r="4" fill="#0" id="circle14"/>
	<circle cx="42.6895" cy="472.917" r="4" fill="#0" id="circle15"/>
	<circle cx="47.3323" cy="336.73" r="4" fill="#0" id="circle16"/>
	<circle cx="47.3323" cy="808.743" r="4" fill="#0" id="circle17"/>
	<circle cx="50.4275" cy="906.24" r="4" fill="#0" id="circle18"/>
	<circle cx="55.0702" cy="483.75" r="4" fill="#0" id="circle19"/>
	<circle cx="59.7129" cy="796.362" r="4" fill="#0" id="circle20"/>
	<circle cx="61.2605" cy="328.992" r="4" fill="#0" id="circle21"/>
	<circle cx="62.8081" cy="917.073" r="4" fill="#0" id="circle22"/>
	<circle cx="65.9033" cy="496.131" r="4" fill="#0" id="circle23"/>
	<circle cx="67.4509" cy="848.98" r="4" fill="#0" id="circle24"/>
	<circle cx="67.4509" cy="864.456" r="4" fill="#0" id="circle25"/>
	<circle cx="72.0936" cy="785.529" r="4" fill="#0" id="circle26"/>
	<circle cx="73.6412" cy="318.159" r="4" fill="#0" id="circle27"/>
	<circle cx="73.6412" cy="929.454" r="4" fill="#0" id="circle28"/>
	<circle cx="75.1888" cy="833.504" r="4" fill="#0" id="circle29"/>
	<circle cx="75.1888" cy="878.384" r="4" fill="#0" id="circle30"/>
	<circle cx="78.2839" cy="506.964" r="4" fill="#0" id="circle31"/>
	<circle cx="86.0218" cy="305.778" r="4" fill="#0" id="circle32"/>
	<circle cx="86.0218" cy="777.791" r="4" fill="#0" id="circle33"/>
	<circle cx="86.0218" cy="940.287" r="4" fill="#0" id="circle34"/>
	<circle cx="87.5694" cy="822.671" r="4" fill="#0" id="circle35"/>
	<circle cx="87.5694" cy="887.669" r="4" fill="#0" id="circle36"/>
	<circle cx="89.117" cy="519.345" r="4" fill="#0" id="circle37"/>
	<circle cx="96.8549" cy="810.29" r="4" fill="#0" id="circle38"/>
	<circle cx="101.498" cy="298.041" r="4" fill="#0" id="circle39"/>
	<circle cx="101.498" cy="530.178" r="4" fill="#0" id="circle40"/>
	<circle cx="101.498" cy="770.053" r="4" fill="#0" id="circle41"/>
	<circle cx="101.498" cy="895.407" r="4" fill="#0" id="circle42"/>
	<circle cx="101.498" cy="941.835" r="4" fill="#0" id="circle43"/>
	<circle cx="110.783" cy="802.552" r="4" fill="#0" id="circle44"/>
	<circle cx="112.331" cy="542.559" r="4" fill="#0" id="circle45"/>
	<circle cx="113.878" cy="285.66" r="4" fill="#0" id="circle46"/>
	<circle cx="113.878" cy="906.24" r="4" fill="#0" id="circle47"/>
	<circle cx="115.426" cy="949.573" r="4" fill="#0" id="circle48"/>
	<circle cx="116.973" cy="770.053" r="4" fill="#0" id="circle49"/>
	<circle cx="124.711" cy="553.392" r="4" fill="#0" id="circle50"/>
	<circle cx="124.711" cy="793.267" r="4" fill="#0" id="circle51"/>
	<circle cx="127.807" cy="913.978" r="4" fill="#0" id="circle52"/>
	<circle cx="129.354" cy="277.922" r="4" fill="#0" id="circle53"/>
	<circle cx="129.354" cy="957.31" r="4" fill="#0" id="circle54"/>
	<circle cx="130.902" cy="762.315" r="4" fill="#0" id="circle55"/>
	<circle cx="135.544" cy="565.772" r="4" fill="#0" id="circle56"/>
	<circle cx="137.092" cy="779.339" r="4" fill="#0" id="circle57"/>
	<circle cx="143.282" cy="917.073" r="4" fill="#0" id="circle58"/>
	<circle cx="143.282" cy="965.048" r="4" fill="#0" id="circle59"/>
	<circle cx="144.83" cy="274.827" r="4" fill="#0" id="circle60"/>
	<circle cx="147.925" cy="576.605" r="4" fill="#0" id="circle61"/>
	<circle cx="157.211" cy="924.811" r="4" fill="#0" id="circle62"/>
	<circle cx="157.211" cy="972.786" r="4" fill="#0" id="circle63"/>
	<circle cx="158.758" cy="263.994" r="4" fill="#0" id="circle64"/>
	<circle cx="158.758" cy="588.986" r="4" fill="#0" id="circle65"/>
	<circle cx="171.139" cy="599.819" r="4" fill="#0" id="circle66"/>
	<circle cx="171.139" cy="932.549" r="4" fill="#0" id="circle67"/>
	<circle cx="172.686" cy="972.786" r="4" fill="#0" id="circle68"/>
	<circle cx="174.234" cy="256.256" r="4" fill="#0" id="circle69"/>
	<circle cx="181.972" cy="612.2" r="4" fill="#0" id="circle70"/>
	<circle cx="185.067" cy="940.287" r="4" fill="#0" id="circle71"/>
	<circle cx="186.615" cy="980.524" r="4" fill="#0" id="circle72"/>
	<circle cx="189.71" cy="248.518" r="4" fill="#0" id="circle73"/>
	<circle cx="197.448" cy="616.842" r="4" fill="#0" id="circle74"/>
	<circle cx="198.995" cy="948.025" r="4" fill="#0" id="circle75"/>
	<circle cx="202.09" cy="236.137" r="4" fill="#0" id="circle76"/>
	<circle cx="202.09" cy="980.524" r="4" fill="#0" id="circle77"/>
	<circle cx="206.733" cy="629.223" r="4" fill="#0" id="circle78"/>
	<circle cx="214.471" cy="948.025" r="4" fill="#0" id="circle79"/>
	<circle cx="216.019" cy="228.399" r="4" fill="#0" id="circle80"/>
	<circle cx="217.566" cy="980.524" r="4" fill="#0" id="circle81"/>
	<circle cx="219.114" cy="640.056" r="4" fill="#0" id="circle82"/>
	<circle cx="229.947" cy="220.661" r="4" fill="#0" id="circle83"/>
	<circle cx="229.947" cy="943.382" r="4" fill="#0" id="circle84"/>
	<circle cx="231.495" cy="988.262" r="4" fill="#0" id="circle85"/>
	<circle cx="233.042" cy="647.794" r="4" fill="#0" id="circle86"/>
	<circle cx="242.328" cy="932.549" r="4" fill="#0" id="circle87"/>
	<circle cx="243.875" cy="209.828" r="4" fill="#0" id="circle88"/>
	<circle cx="245.423" cy="996" r="4" fill="#0" id="circle89"/>
	<circle cx="246.97" cy="655.532" r="4" fill="#0" id="circle90"/>
	<circle cx="256.256" cy="940.287" r="4" fill="#0" id="circle91"/>
	<circle cx="259.351" cy="202.09" r="4" fill="#0" id="circle92"/>
	<circle cx="259.351" cy="664.817" r="4" fill="#0" id="circle93"/>
	<circle cx="260.899" cy="996" r="4" fill="#0" id="circle94"/>
	<circle cx="271.732" cy="189.71" r="4" fill="#0" id="circle95"/>
	<circle cx="271.732" cy="940.287" r="4" fill="#0" id="circle96"/>
	<circle cx="274.827" cy="671.008" r="4" fill="#0" id="circle97"/>
	<circle cx="276.374" cy="988.262" r="4" fill="#0" id="circle98"/>
	<circle cx="284.112" cy="177.329" r="4" fill="#0" id="circle99"/>
	<circle cx="285.66" cy="932.549" r="4" fill="#0" id="circle100"/>
	<circle cx="288.755" cy="678.746" r="4" fill="#0" id="circle101"/>
	<circle cx="291.85" cy="988.262" r="4" fill="#0" id="circle102"/>
	<circle cx="299.588" cy="169.591" r="4" fill="#0" id="circle103"/>
	<circle cx="299.588" cy="940.287" r="4" fill="#0" id="circle104"/>
	<circle cx="302.683" cy="671.008" r="4" fill="#0" id="circle105"/>
	<circle cx="305.778" cy="712.793" r="4" fill="#0" id="circle106"/>
	<circle cx="305.778" cy="728.268" r="4" fill="#0" id="circle107"/>
	<circle cx="307.326" cy="988.262" r="4" fill="#0" id="circle108"/>
	<circle cx="311.969" cy="158.758" r="4" fill="#0" id="circle109"/>
	<circle cx="315.064" cy="935.644" r="4" fill="#0" id="circle110"/>
	<circle cx="318.159" cy="669.46" r="4" fill="#0" id="circle111"/>
	<circle cx="318.159" cy="700.412" r="4" fill="#0" id="circle112"/>
	<circle cx="321.254" cy="732.911" r="4" fill="#0" id="circle113"/>
	<circle cx="322.802" cy="988.262" r="4" fill="#0" id="circle114"/>
	<circle cx="325.897" cy="151.02" r="4" fill="#0" id="circle115"/>
	<circle cx="330.54" cy="655.532" r="4" fill="#0" id="circle116"/>
	<circle cx="330.54" cy="688.031" r="4" fill="#0" id="circle117"/>
	<circle cx="330.54" cy="932.549" r="4" fill="#0" id="circle118"/>
	<circle cx="335.183" cy="740.649" r="4" fill="#0" id="circle119"/>
	<circle cx="338.278" cy="138.64" r="4" fill="#0" id="circle120"/>
	<circle cx="338.278" cy="980.524" r="4" fill="#0" id="circle121"/>
	<circle cx="342.92" cy="644.699" r="4" fill="#0" id="circle122"/>
	<circle cx="342.92" cy="677.198" r="4" fill="#0" id="circle123"/>
	<circle cx="344.468" cy="924.811" r="4" fill="#0" id="circle124"/>
	<circle cx="349.111" cy="661.722" r="4" fill="#0" id="circle125"/>
	<circle cx="349.111" cy="731.363" r="4" fill="#0" id="circle126"/>
	<circle cx="350.658" cy="127.807" r="4" fill="#0" id="circle127"/>
	<circle cx="353.754" cy="980.524" r="4" fill="#0" id="circle128"/>
	<circle cx="356.849" cy="112.331" r="4" fill="#0" id="circle129"/>
	<circle cx="359.944" cy="921.716" r="4" fill="#0" id="circle130"/>
	<circle cx="364.587" cy="96.8549" r="4" fill="#0" id="circle131"/>
	<circle cx="364.587" cy="725.173" r="4" fill="#0" id="circle132"/>
	<circle cx="366.134" cy="969.691" r="4" fill="#0" id="circle133"/>
	<circle cx="367.682" cy="740.649" r="4" fill="#0" id="circle134"/>
	<circle cx="375.42" cy="754.577" r="4" fill="#0" id="circle135"/>
	<circle cx="375.42" cy="913.978" r="4" fill="#0" id="circle136"/>
	<circle cx="376.967" cy="84.4743" r="4" fill="#0" id="circle137"/>
	<circle cx="378.515" cy="770.053" r="4" fill="#0" id="circle138"/>
	<circle cx="381.61" cy="961.953" r="4" fill="#0" id="circle139"/>
	<circle cx="386.253" cy="783.981" r="4" fill="#0" id="circle140"/>
	<circle cx="387.8" cy="901.598" r="4" fill="#0" id="circle141"/>
	<circle cx="389.348" cy="73.6412" r="4" fill="#0" id="circle142"/>
	<circle cx="395.538" cy="886.122" r="4" fill="#0" id="circle143"/>
	<circle cx="397.086" cy="954.215" r="4" fill="#0" id="circle144"/>
	<circle cx="400.181" cy="61.2605" r="4" fill="#0" id="circle145"/>
	<circle cx="401.729" cy="787.076" r="4" fill="#0" id="circle146"/>
	<circle cx="406.371" cy="802.552" r="4" fill="#0" id="circle147"/>
	<circle cx="407.919" cy="771.601" r="4" fill="#0" id="circle148"/>
	<circle cx="407.919" cy="873.741" r="4" fill="#0" id="circle149"/>
	<circle cx="412.562" cy="50.4275" r="4" fill="#0" id="circle150"/>
	<circle cx="412.562" cy="946.477" r="4" fill="#0" id="circle151"/>
	<circle cx="420.3" cy="810.29" r="4" fill="#0" id="circle152"/>
	<circle cx="420.3" cy="862.908" r="4" fill="#0" id="circle153"/>
	<circle cx="423.395" cy="38.0468" r="4" fill="#0" id="circle154"/>
	<circle cx="426.49" cy="847.432" r="4" fill="#0" id="circle155"/>
	<circle cx="428.037" cy="938.739" r="4" fill="#0" id="circle156"/>
	<circle cx="429.585" cy="822.671" r="4" fill="#0" id="circle157"/>
	<circle cx="431.133" cy="763.863" r="4" fill="#0" id="circle158"/>
	<circle cx="435.775" cy="27.2137" r="4" fill="#0" id="circle159"/>
	<circle cx="438.871" cy="926.359" r="4" fill="#0" id="circle160"/>
	<circle cx="446.608" cy="14.8331" r="4" fill="#0" id="circle161"/>
	<circle cx="451.251" cy="915.526" r="4" fill="#0" id="circle162"/>
	<circle cx="458.989" cy="900.05" r="4" fill="#0" id="circle163"/>
	<circle cx="462.084" cy="7.09516" r="4" fill="#0" id="circle164"/>
	<circle cx="466.727" cy="884.574" r="4" fill="#0" id="circle165"/>
	<circle cx="477.56" cy="4" r="4" fill="#0" id="circle166"/>
	<circle cx="477.56" cy="864.456" r="4" fill="#0" id="circle167"/>
	<circle cx="485.298" cy="848.98" r="4" fill="#0" id="circle168"/>
	<circle cx="493.036" cy="8.64275" r="4" fill="#0" id="circle169"/>
	<circle cx="493.036" cy="802.552" r="4" fill="#0" id="circle170"/>
	<circle cx="493.036" cy="818.028" r="4" fill="#0" id="circle171"/>
	<circle cx="493.036" cy="833.504" r="4" fill="#0" id="circle172"/>
	<circle cx="499.226" cy="24.1186" r="4" fill="#0" id="circle173"/>
	<circle cx="500.774" cy="787.076" r="4" fill="#0" id="circle174"/>
	<circle cx="508.512" cy="36.4992" r="4" fill="#0" id="circle175"/>
	<circle cx="514.702" cy="794.814" r="4" fill="#0" id="circle176"/>
	<circle cx="516.25" cy="50.4275" r="4" fill="#0" id="circle177"/>
	<circle cx="519.345" cy="810.29" r="4" fill="#0" id="circle178"/>
	<circle cx="528.63" cy="59.7129" r="4" fill="#0" id="circle179"/>
	<circle cx="534.821" cy="808.743" r="4" fill="#0" id="circle180"/>
	<circle cx="539.463" cy="72.0936" r="4" fill="#0" id="circle181"/>
	<circle cx="542.559" cy="793.267" r="4" fill="#0" id="circle182"/>
	<circle cx="551.844" cy="82.9267" r="4" fill="#0" id="circle183"/>
	<circle cx="554.939" cy="779.339" r="4" fill="#0" id="circle184"/>
	<circle cx="565.772" cy="90.6646" r="4" fill="#0" id="circle185"/>
	<circle cx="567.32" cy="768.505" r="4" fill="#0" id="circle186"/>
	<circle cx="570.415" cy="748.387" r="4" fill="#0" id="circle187"/>
	<circle cx="578.153" cy="732.911" r="4" fill="#0" id="circle188"/>
	<circle cx="581.248" cy="96.8549" r="4" fill="#0" id="circle189"/>
	<circle cx="585.891" cy="717.435" r="4" fill="#0" id="circle190"/>
	<circle cx="592.081" cy="109.236" r="4" fill="#0" id="circle191"/>
	<circle cx="599.819" cy="725.173" r="4" fill="#0" id="circle192"/>
	<circle cx="604.462" cy="120.069" r="4" fill="#0" id="circle193"/>
	<circle cx="609.105" cy="655.532" r="4" fill="#0" id="circle194"/>
	<circle cx="609.105" cy="737.554" r="4" fill="#0" id="circle195"/>
	<circle cx="615.295" cy="132.449" r="4" fill="#0" id="circle196"/>
	<circle cx="616.842" cy="669.46" r="4" fill="#0" id="circle197"/>
	<circle cx="624.58" cy="683.388" r="4" fill="#0" id="circle198"/>
	<circle cx="624.58" cy="740.649" r="4" fill="#0" id="circle199"/>
	<circle cx="627.676" cy="143.282" r="4" fill="#0" id="circle200"/>
	<circle cx="633.866" cy="671.008" r="4" fill="#0" id="circle201"/>
	<circle cx="636.961" cy="694.222" r="4" fill="#0" id="circle202"/>
	<circle cx="636.961" cy="729.816" r="4" fill="#0" id="circle203"/>
	<circle cx="638.509" cy="155.663" r="4" fill="#0" id="circle204"/>
	<circle cx="640.056" cy="709.697" r="4" fill="#0" id="circle205"/>
	<circle cx="647.794" cy="678.746" r="4" fill="#0" id="circle206"/>
	<circle cx="650.889" cy="166.496" r="4" fill="#0" id="circle207"/>
	<circle cx="661.722" cy="178.877" r="4" fill="#0" id="circle208"/>
	<circle cx="663.27" cy="671.008" r="4" fill="#0" id="circle209"/>
	<circle cx="677.198" cy="185.067" r="4" fill="#0" id="circle210"/>
	<circle cx="678.746" cy="671.008" r="4" fill="#0" id="circle211"/>
	<circle cx="686.484" cy="197.448" r="4" fill="#0" id="circle212"/>
	<circle cx="692.674" cy="663.27" r="4" fill="#0" id="circle213"/>
	<circle cx="701.959" cy="202.09" r="4" fill="#0" id="circle214"/>
	<circle cx="706.602" cy="655.532" r="4" fill="#0" id="circle215"/>
	<circle cx="714.34" cy="212.924" r="4" fill="#0" id="circle216"/>
	<circle cx="720.53" cy="646.246" r="4" fill="#0" id="circle217"/>
	<circle cx="728.268" cy="220.661" r="4" fill="#0" id="circle218"/>
	<circle cx="732.911" cy="632.318" r="4" fill="#0" id="circle219"/>
	<circle cx="742.197" cy="228.399" r="4" fill="#0" id="circle220"/>
	<circle cx="745.292" cy="621.485" r="4" fill="#0" id="circle221"/>
	<circle cx="756.125" cy="236.137" r="4" fill="#0" id="circle222"/>
	<circle cx="756.125" cy="609.105" r="4" fill="#0" id="circle223"/>
	<circle cx="768.505" cy="598.271" r="4" fill="#0" id="circle224"/>
	<circle cx="770.053" cy="243.875" r="4" fill="#0" id="circle225"/>
	<circle cx="779.339" cy="585.891" r="4" fill="#0" id="circle226"/>
	<circle cx="783.981" cy="251.613" r="4" fill="#0" id="circle227"/>
	<circle cx="791.719" cy="575.058" r="4" fill="#0" id="circle228"/>
	<circle cx="797.91" cy="259.351" r="4" fill="#0" id="circle229"/>
	<circle cx="802.552" cy="562.677" r="4" fill="#0" id="circle230"/>
	<circle cx="811.838" cy="267.089" r="4" fill="#0" id="circle231"/>
	<circle cx="814.933" cy="551.844" r="4" fill="#0" id="circle232"/>
	<circle cx="825.766" cy="274.827" r="4" fill="#0" id="circle233"/>
	<circle cx="825.766" cy="539.463" r="4" fill="#0" id="circle234"/>
	<circle cx="839.694" cy="282.565" r="4" fill="#0" id="circle235"/>
	<circle cx="839.694" cy="531.725" r="4" fill="#0" id="circle236"/>
	<circle cx="852.075" cy="291.85" r="4" fill="#0" id="circle237"/>
	<circle cx="852.075" cy="522.44" r="4" fill="#0" id="circle238"/>
	<circle cx="864.456" cy="508.512" r="4" fill="#0" id="circle239"/>
	<circle cx="867.551" cy="298.041" r="4" fill="#0" id="circle240"/>
	<circle cx="872.193" cy="493.036" r="4" fill="#0" id="circle241"/>
	<circle cx="878.384" cy="310.421" r="4" fill="#0" id="circle242"/>
	<circle cx="884.574" cy="482.203" r="4" fill="#0" id="circle243"/>
	<circle cx="890.764" cy="321.254" r="4" fill="#0" id="circle244"/>
	<circle cx="895.407" cy="469.822" r="4" fill="#0" id="circle245"/>
	<circle cx="901.598" cy="333.635" r="4" fill="#0" id="circle246"/>
	<circle cx="907.788" cy="458.989" r="4" fill="#0" id="circle247"/>
	<circle cx="917.073" cy="339.825" r="4" fill="#0" id="circle248"/>
	<circle cx="918.621" cy="446.608" r="4" fill="#0" id="circle249"/>
	<circle cx="926.359" cy="352.206" r="4" fill="#0" id="circle250"/>
	<circle cx="926.359" cy="431.133" r="4" fill="#0" id="circle251"/>
	<circle cx="934.097" cy="415.657" r="4" fill="#0" id="circle252"/>
	<circle cx="938.739" cy="361.491" r="4" fill="#0" id="circle253"/>
	<circle cx="941.835" cy="376.967" r="4" fill="#0" id="circle254"/>
	<circle cx="941.835" cy="392.443" r="4" fill="#0" id="circle255"/>
	</g>
</svg>