<?xml version="1.0" encoding="UTF-8" standalone="no"?>
<!-- Created with CurveBenchmark -->
<svg
	xmlns:dc="http://purl.org/dc/elements/1.1/"
	xmlns:cc="http://creativecommons.org/ns#"
	xmlns:rdf="http://www.w3.org/1999/02/22-rdf-syntax-ns#"
	xmlns:svg="http://www.w3.org/2000/svg"
	xmlns="http://www.w3.org/2000/svg"
	xmlns:sodipodi="http://sodipodi.sourceforge.net/DTD/sodipodi-0.dtd"
	xmlns:inkscape="http://www.inkscape.org/namespaces/inkscape"
	width="1000"
	height="1000"
	id="svg2"
	version="1.1"
	sodipodi:docname="manifold/hnncrust-fork16.png.txt">
<defs
	id="defs4" />
<metadata
	id="metadata7">
	<rdf:RDF>
		<cc:Work
			rdf:about="">
			<dc:format>image/svg+xml</dc:format>
			<dc:type
				rdf:resource="http://purl.org/dc/dcmitype/StillImage" />
			<dc:title></dc:title>
		</cc:Work>
	</rdf:RDF>
</metadata>
<g
	inkscape:label="Layer 1"
	inkscape:groupmode="layer"
	id="layer1">
	<path style="fill:none;stroke:red;stroke-width:1px;stroke-linecap:butt;stroke-linejoin:miter;stroke-opacity:1" d="M 4,36.4065 4,54.4102 z" id="boundary" inkscape:connector-curvature="0" />
	<path style="fill:none;stroke:red;stroke-width:1px;stroke-linecap:butt;stroke-linejoin:miter;stroke-opacity:1" d="M 4,36.4065 22.0036,31.0054 z" id="boundary" inkscape:connector-curvature="0" />
	<path style="fill:none;stroke:red;stroke-width:1px;stroke-linecap:butt;stroke-linejoin:miter;stroke-opacity:1" d="M 4,54.4102 13.0018,70.6134 z" id="boundary" inkscape:connector-curvature="0" />
	<path style="fill:none;stroke:red;stroke-width:1px;stroke-linecap:butt;stroke-linejoin:miter;stroke-opacity:1" d="M 13.0018,70.6134 31.0054,77.8149 z" id="boundary" inkscape:connector-curvature="0" />
	<path style="fill:none;stroke:red;stroke-width:1px;stroke-linecap:butt;stroke-linejoin:miter;stroke-opacity:1" d="M 22.0036,31.0054 40.0073,31.0054 z" id="boundary" inkscape:connector-curvature="0" />
	<path style="fill:none;stroke:red;stroke-width:1px;stroke-linecap:butt;stroke-linejoin:miter;stroke-opacity:1" d="M 22.0036,135.426 22.0036,153.43 z" id="boundary" inkscape:connector-curvature="0" />
	<path style="fill:none;stroke:red;stroke-width:1px;stroke-linecap:butt;stroke-linejoin:miter;stroke-opacity:1" d="M 22.0036,135.426 40.0073,130.025 z" id="boundary" inkscape:connector-curvature="0" />
	<path style="fill:none;stroke:red;stroke-width:1px;stroke-linecap:butt;stroke-linejoin:miter;stroke-opacity:1" d="M 22.0036,153.43 22.0036,171.434 z" id="boundary" inkscape:connector-curvature="0" />
	<path style="fill:none;stroke:red;stroke-width:1px;stroke-linecap:butt;stroke-linejoin:miter;stroke-opacity:1" d="M 22.0036,171.434 32.8058,185.837 z" id="boundary" inkscape:connector-curvature="0" />
	<path style="fill:none;stroke:red;stroke-width:1px;stroke-linecap:butt;stroke-linejoin:miter;stroke-opacity:1" d="M 31.0054,77.8149 49.0091,77.8149 z" id="boundary" inkscape:connector-curvature="0" />
	<path style="fill:none;stroke:red;stroke-width:1px;stroke-linecap:butt;stroke-linejoin:miter;stroke-opacity:1" d="M 31.0054,243.448 31.0054,261.452 z" id="boundary" inkscape:connector-curvature="0" />
	<path style="fill:none;stroke:red;stroke-width:1px;stroke-linecap:butt;stroke-linejoin:miter;stroke-opacity:1" d="M 31.0054,243.448 49.0091,234.446 z" id="boundary" inkscape:connector-curvature="0" />
	<path style="fill:none;stroke:red;stroke-width:1px;stroke-linecap:butt;stroke-linejoin:miter;stroke-opacity:1" d="M 31.0054,261.452 31.0054,279.456 z" id="boundary" inkscape:connector-curvature="0" />
	<path style="fill:none;stroke:red;stroke-width:1px;stroke-linecap:butt;stroke-linejoin:miter;stroke-opacity:1" d="M 31.0054,279.456 49.0091,284.857 z" id="boundary" inkscape:connector-curvature="0" />
	<path style="fill:none;stroke:red;stroke-width:1px;stroke-linecap:butt;stroke-linejoin:miter;stroke-opacity:1" d="M 32.8058,185.837 50.8094,185.837 z" id="boundary" inkscape:connector-curvature="0" />
	<path style="fill:none;stroke:red;stroke-width:1px;stroke-linecap:butt;stroke-linejoin:miter;stroke-opacity:1" d="M 40.0073,31.0054 58.0109,27.4047 z" id="boundary" inkscape:connector-curvature="0" />
	<path style="fill:none;stroke:red;stroke-width:1px;stroke-linecap:butt;stroke-linejoin:miter;stroke-opacity:1" d="M 40.0073,130.025 58.0109,130.025 z" id="boundary" inkscape:connector-curvature="0" />
	<path style="fill:none;stroke:red;stroke-width:1px;stroke-linecap:butt;stroke-linejoin:miter;stroke-opacity:1" d="M 40.0073,342.468 40.0073,360.472 z" id="boundary" inkscape:connector-curvature="0" />
	<path style="fill:none;stroke:red;stroke-width:1px;stroke-linecap:butt;stroke-linejoin:miter;stroke-opacity:1" d="M 40.0073,342.468 58.0109,337.067 z" id="boundary" inkscape:connector-curvature="0" />
	<path style="fill:none;stroke:red;stroke-width:1px;stroke-linecap:butt;stroke-linejoin:miter;stroke-opacity:1" d="M 40.0073,360.472 40.0073,378.475 z" id="boundary" inkscape:connector-curvature="0" />
	<path style="fill:none;stroke:red;stroke-width:1px;stroke-linecap:butt;stroke-linejoin:miter;stroke-opacity:1" d="M 40.0073,378.475 50.8094,392.878 z" id="boundary" inkscape:connector-curvature="0" />
	<path style="fill:none;stroke:red;stroke-width:1px;stroke-linecap:butt;stroke-linejoin:miter;stroke-opacity:1" d="M 49.0091,77.8149 67.0127,77.8149 z" id="boundary" inkscape:connector-curvature="0" />
	<path style="fill:none;stroke:red;stroke-width:1px;stroke-linecap:butt;stroke-linejoin:miter;stroke-opacity:1" d="M 49.0091,234.446 67.0127,229.045 z" id="boundary" inkscape:connector-curvature="0" />
	<path style="fill:none;stroke:red;stroke-width:1px;stroke-linecap:butt;stroke-linejoin:miter;stroke-opacity:1" d="M 49.0091,284.857 67.0127,284.857 z" id="boundary" inkscape:connector-curvature="0" />
	<path style="fill:none;stroke:red;stroke-width:1px;stroke-linecap:butt;stroke-linejoin:miter;stroke-opacity:1" d="M 50.8094,185.837 68.8131,176.835 z" id="boundary" inkscape:connector-curvature="0" />
	<path style="fill:none;stroke:red;stroke-width:1px;stroke-linecap:butt;stroke-linejoin:miter;stroke-opacity:1" d="M 50.8094,392.878 68.8131,392.878 z" id="boundary" inkscape:connector-curvature="0" />
	<path style="fill:none;stroke:red;stroke-width:1px;stroke-linecap:butt;stroke-linejoin:miter;stroke-opacity:1" d="M 58.0109,27.4047 76.0145,22.0036 z" id="boundary" inkscape:connector-curvature="0" />
	<path style="fill:none;stroke:red;stroke-width:1px;stroke-linecap:butt;stroke-linejoin:miter;stroke-opacity:1" d="M 58.0109,130.025 76.0145,130.025 z" id="boundary" inkscape:connector-curvature="0" />
	<path style="fill:none;stroke:red;stroke-width:1px;stroke-linecap:butt;stroke-linejoin:miter;stroke-opacity:1" d="M 58.0109,337.067 76.0145,337.067 z" id="boundary" inkscape:connector-curvature="0" />
	<path style="fill:none;stroke:red;stroke-width:1px;stroke-linecap:butt;stroke-linejoin:miter;stroke-opacity:1" d="M 67.0127,77.8149 85.0163,77.8149 z" id="boundary" inkscape:connector-curvature="0" />
	<path style="fill:none;stroke:red;stroke-width:1px;stroke-linecap:butt;stroke-linejoin:miter;stroke-opacity:1" d="M 67.0127,229.045 85.0163,229.045 z" id="boundary" inkscape:connector-curvature="0" />
	<path style="fill:none;stroke:red;stroke-width:1px;stroke-linecap:butt;stroke-linejoin:miter;stroke-opacity:1" d="M 67.0127,284.857 85.0163,284.857 z" id="boundary" inkscape:connector-curvature="0" />
	<path style="fill:none;stroke:red;stroke-width:1px;stroke-linecap:butt;stroke-linejoin:miter;stroke-opacity:1" d="M 68.8131,176.835 86.8167,176.835 z" id="boundary" inkscape:connector-curvature="0" />
	<path style="fill:none;stroke:red;stroke-width:1px;stroke-linecap:butt;stroke-linejoin:miter;stroke-opacity:1" d="M 68.8131,392.878 86.8167,392.878 z" id="boundary" inkscape:connector-curvature="0" />
	<path style="fill:none;stroke:red;stroke-width:1px;stroke-linecap:butt;stroke-linejoin:miter;stroke-opacity:1" d="M 76.0145,22.0036 94.0181,22.0036 z" id="boundary" inkscape:connector-curvature="0" />
	<path style="fill:none;stroke:red;stroke-width:1px;stroke-linecap:butt;stroke-linejoin:miter;stroke-opacity:1" d="M 76.0145,130.025 94.0181,130.025 z" id="boundary" inkscape:connector-curvature="0" />
	<path style="fill:none;stroke:red;stroke-width:1px;stroke-linecap:butt;stroke-linejoin:miter;stroke-opacity:1" d="M 76.0145,337.067 94.0181,333.466 z" id="boundary" inkscape:connector-curvature="0" />
	<path style="fill:none;stroke:red;stroke-width:1px;stroke-linecap:butt;stroke-linejoin:miter;stroke-opacity:1" d="M 85.0163,77.8149 103.02,77.8149 z" id="boundary" inkscape:connector-curvature="0" />
	<path style="fill:none;stroke:red;stroke-width:1px;stroke-linecap:butt;stroke-linejoin:miter;stroke-opacity:1" d="M 85.0163,229.045 103.02,229.045 z" id="boundary" inkscape:connector-curvature="0" />
	<path style="fill:none;stroke:red;stroke-width:1px;stroke-linecap:butt;stroke-linejoin:miter;stroke-opacity:1" d="M 85.0163,284.857 103.02,284.857 z" id="boundary" inkscape:connector-curvature="0" />
	<path style="fill:none;stroke:red;stroke-width:1px;stroke-linecap:butt;stroke-linejoin:miter;stroke-opacity:1" d="M 86.8167,176.835 104.82,176.835 z" id="boundary" inkscape:connector-curvature="0" />
	<path style="fill:none;stroke:red;stroke-width:1px;stroke-linecap:butt;stroke-linejoin:miter;stroke-opacity:1" d="M 86.8167,392.878 104.82,392.878 z" id="boundary" inkscape:connector-curvature="0" />
	<path style="fill:none;stroke:red;stroke-width:1px;stroke-linecap:butt;stroke-linejoin:miter;stroke-opacity:1" d="M 94.0181,22.0036 112.022,22.0036 z" id="boundary" inkscape:connector-curvature="0" />
	<path style="fill:none;stroke:red;stroke-width:1px;stroke-linecap:butt;stroke-linejoin:miter;stroke-opacity:1" d="M 94.0181,130.025 112.022,126.425 z" id="boundary" inkscape:connector-curvature="0" />
	<path style="fill:none;stroke:red;stroke-width:1px;stroke-linecap:butt;stroke-linejoin:miter;stroke-opacity:1" d="M 94.0181,333.466 112.022,328.065 z" id="boundary" inkscape:connector-curvature="0" />
	<path style="fill:none;stroke:red;stroke-width:1px;stroke-linecap:butt;stroke-linejoin:miter;stroke-opacity:1" d="M 103.02,77.8149 121.024,77.8149 z" id="boundary" inkscape:connector-curvature="0" />
	<path style="fill:none;stroke:red;stroke-width:1px;stroke-linecap:butt;stroke-linejoin:miter;stroke-opacity:1" d="M 103.02,229.045 121.024,225.445 z" id="boundary" inkscape:connector-curvature="0" />
	<path style="fill:none;stroke:red;stroke-width:1px;stroke-linecap:butt;stroke-linejoin:miter;stroke-opacity:1" d="M 103.02,284.857 121.024,284.857 z" id="boundary" inkscape:connector-curvature="0" />
	<path style="fill:none;stroke:red;stroke-width:1px;stroke-linecap:butt;stroke-linejoin:miter;stroke-opacity:1" d="M 104.82,176.835 122.824,176.835 z" id="boundary" inkscape:connector-curvature="0" />
	<path style="fill:none;stroke:red;stroke-width:1px;stroke-linecap:butt;stroke-linejoin:miter;stroke-opacity:1" d="M 104.82,392.878 122.824,392.878 z" id="boundary" inkscape:connector-curvature="0" />
	<path style="fill:none;stroke:red;stroke-width:1px;stroke-linecap:butt;stroke-linejoin:miter;stroke-opacity:1" d="M 112.022,22.0036 130.025,22.0036 z" id="boundary" inkscape:connector-curvature="0" />
	<path style="fill:none;stroke:red;stroke-width:1px;stroke-linecap:butt;stroke-linejoin:miter;stroke-opacity:1" d="M 112.022,126.425 130.025,121.024 z" id="boundary" inkscape:connector-curvature="0" />
	<path style="fill:none;stroke:red;stroke-width:1px;stroke-linecap:butt;stroke-linejoin:miter;stroke-opacity:1" d="M 112.022,328.065 130.025,328.065 z" id="boundary" inkscape:connector-curvature="0" />
	<path style="fill:none;stroke:red;stroke-width:1px;stroke-linecap:butt;stroke-linejoin:miter;stroke-opacity:1" d="M 121.024,77.8149 139.027,77.8149 z" id="boundary" inkscape:connector-curvature="0" />
	<path style="fill:none;stroke:red;stroke-width:1px;stroke-linecap:butt;stroke-linejoin:miter;stroke-opacity:1" d="M 121.024,225.445 139.027,220.044 z" id="boundary" inkscape:connector-curvature="0" />
	<path style="fill:none;stroke:red;stroke-width:1px;stroke-linecap:butt;stroke-linejoin:miter;stroke-opacity:1" d="M 121.024,284.857 139.027,284.857 z" id="boundary" inkscape:connector-curvature="0" />
	<path style="fill:none;stroke:red;stroke-width:1px;stroke-linecap:butt;stroke-linejoin:miter;stroke-opacity:1" d="M 122.824,176.835 140.828,176.835 z" id="boundary" inkscape:connector-curvature="0" />
	<path style="fill:none;stroke:red;stroke-width:1px;stroke-linecap:butt;stroke-linejoin:miter;stroke-opacity:1" d="M 122.824,392.878 140.828,383.877 z" id="boundary" inkscape:connector-curvature="0" />
	<path style="fill:none;stroke:red;stroke-width:1px;stroke-linecap:butt;stroke-linejoin:miter;stroke-opacity:1" d="M 130.025,22.0036 148.029,22.0036 z" id="boundary" inkscape:connector-curvature="0" />
	<path style="fill:none;stroke:red;stroke-width:1px;stroke-linecap:butt;stroke-linejoin:miter;stroke-opacity:1" d="M 130.025,121.024 148.029,121.024 z" id="boundary" inkscape:connector-curvature="0" />
	<path style="fill:none;stroke:red;stroke-width:1px;stroke-linecap:butt;stroke-linejoin:miter;stroke-opacity:1" d="M 130.025,328.065 148.029,328.065 z" id="boundary" inkscape:connector-curvature="0" />
	<path style="fill:none;stroke:red;stroke-width:1px;stroke-linecap:butt;stroke-linejoin:miter;stroke-opacity:1" d="M 139.027,77.8149 157.031,77.8149 z" id="boundary" inkscape:connector-curvature="0" />
	<path style="fill:none;stroke:red;stroke-width:1px;stroke-linecap:butt;stroke-linejoin:miter;stroke-opacity:1" d="M 139.027,220.044 157.031,220.044 z" id="boundary" inkscape:connector-curvature="0" />
	<path style="fill:none;stroke:red;stroke-width:1px;stroke-linecap:butt;stroke-linejoin:miter;stroke-opacity:1" d="M 139.027,284.857 157.031,284.857 z" id="boundary" inkscape:connector-curvature="0" />
	<path style="fill:none;stroke:red;stroke-width:1px;stroke-linecap:butt;stroke-linejoin:miter;stroke-opacity:1" d="M 140.828,176.835 158.831,176.835 z" id="boundary" inkscape:connector-curvature="0" />
	<path style="fill:none;stroke:red;stroke-width:1px;stroke-linecap:butt;stroke-linejoin:miter;stroke-opacity:1" d="M 140.828,383.877 158.831,383.877 z" id="boundary" inkscape:connector-curvature="0" />
	<path style="fill:none;stroke:red;stroke-width:1px;stroke-linecap:butt;stroke-linejoin:miter;stroke-opacity:1" d="M 148.029,22.0036 164.232,13.0018 z" id="boundary" inkscape:connector-curvature="0" />
	<path style="fill:none;stroke:red;stroke-width:1px;stroke-linecap:butt;stroke-linejoin:miter;stroke-opacity:1" d="M 148.029,121.024 166.033,121.024 z" id="boundary" inkscape:connector-curvature="0" />
	<path style="fill:none;stroke:red;stroke-width:1px;stroke-linecap:butt;stroke-linejoin:miter;stroke-opacity:1" d="M 148.029,328.065 166.033,328.065 z" id="boundary" inkscape:connector-curvature="0" />
	<path style="fill:none;stroke:red;stroke-width:1px;stroke-linecap:butt;stroke-linejoin:miter;stroke-opacity:1" d="M 157.031,77.8149 175.034,72.4138 z" id="boundary" inkscape:connector-curvature="0" />
	<path style="fill:none;stroke:red;stroke-width:1px;stroke-linecap:butt;stroke-linejoin:miter;stroke-opacity:1" d="M 157.031,220.044 175.034,220.044 z" id="boundary" inkscape:connector-curvature="0" />
	<path style="fill:none;stroke:red;stroke-width:1px;stroke-linecap:butt;stroke-linejoin:miter;stroke-opacity:1" d="M 157.031,284.857 175.034,284.857 z" id="boundary" inkscape:connector-curvature="0" />
	<path style="fill:none;stroke:red;stroke-width:1px;stroke-linecap:butt;stroke-linejoin:miter;stroke-opacity:1" d="M 158.831,176.835 176.835,176.835 z" id="boundary" inkscape:connector-curvature="0" />
	<path style="fill:none;stroke:red;stroke-width:1px;stroke-linecap:butt;stroke-linejoin:miter;stroke-opacity:1" d="M 158.831,383.877 176.835,383.877 z" id="boundary" inkscape:connector-curvature="0" />
	<path style="fill:none;stroke:red;stroke-width:1px;stroke-linecap:butt;stroke-linejoin:miter;stroke-opacity:1" d="M 164.232,13.0018 182.236,13.0018 z" id="boundary" inkscape:connector-curvature="0" />
	<path style="fill:none;stroke:red;stroke-width:1px;stroke-linecap:butt;stroke-linejoin:miter;stroke-opacity:1" d="M 166.033,121.024 184.036,117.423 z" id="boundary" inkscape:connector-curvature="0" />
	<path style="fill:none;stroke:red;stroke-width:1px;stroke-linecap:butt;stroke-linejoin:miter;stroke-opacity:1" d="M 166.033,328.065 184.036,328.065 z" id="boundary" inkscape:connector-curvature="0" />
	<path style="fill:none;stroke:red;stroke-width:1px;stroke-linecap:butt;stroke-linejoin:miter;stroke-opacity:1" d="M 175.034,72.4138 193.038,68.8131 z" id="boundary" inkscape:connector-curvature="0" />
	<path style="fill:none;stroke:red;stroke-width:1px;stroke-linecap:butt;stroke-linejoin:miter;stroke-opacity:1" d="M 175.034,220.044 193.038,220.044 z" id="boundary" inkscape:connector-curvature="0" />
	<path style="fill:none;stroke:red;stroke-width:1px;stroke-linecap:butt;stroke-linejoin:miter;stroke-opacity:1" d="M 175.034,284.857 193.038,279.456 z" id="boundary" inkscape:connector-curvature="0" />
	<path style="fill:none;stroke:red;stroke-width:1px;stroke-linecap:butt;stroke-linejoin:miter;stroke-opacity:1" d="M 176.835,176.835 194.838,176.835 z" id="boundary" inkscape:connector-curvature="0" />
	<path style="fill:none;stroke:red;stroke-width:1px;stroke-linecap:butt;stroke-linejoin:miter;stroke-opacity:1" d="M 176.835,383.877 194.838,383.877 z" id="boundary" inkscape:connector-curvature="0" />
	<path style="fill:none;stroke:red;stroke-width:1px;stroke-linecap:butt;stroke-linejoin:miter;stroke-opacity:1" d="M 182.236,13.0018 200.24,13.0018 z" id="boundary" inkscape:connector-curvature="0" />
	<path style="fill:none;stroke:red;stroke-width:1px;stroke-linecap:butt;stroke-linejoin:miter;stroke-opacity:1" d="M 184.036,117.423 202.04,112.022 z" id="boundary" inkscape:connector-curvature="0" />
	<path style="fill:none;stroke:red;stroke-width:1px;stroke-linecap:butt;stroke-linejoin:miter;stroke-opacity:1" d="M 184.036,328.065 200.24,319.064 z" id="boundary" inkscape:connector-curvature="0" />
	<path style="fill:none;stroke:red;stroke-width:1px;stroke-linecap:butt;stroke-linejoin:miter;stroke-opacity:1" d="M 193.038,68.8131 211.042,68.8131 z" id="boundary" inkscape:connector-curvature="0" />
	<path style="fill:none;stroke:red;stroke-width:1px;stroke-linecap:butt;stroke-linejoin:miter;stroke-opacity:1" d="M 193.038,220.044 211.042,216.443 z" id="boundary" inkscape:connector-curvature="0" />
	<path style="fill:none;stroke:red;stroke-width:1px;stroke-linecap:butt;stroke-linejoin:miter;stroke-opacity:1" d="M 193.038,279.456 211.042,275.855 z" id="boundary" inkscape:connector-curvature="0" />
	<path style="fill:none;stroke:red;stroke-width:1px;stroke-linecap:butt;stroke-linejoin:miter;stroke-opacity:1" d="M 194.838,176.835 212.842,176.835 z" id="boundary" inkscape:connector-curvature="0" />
	<path style="fill:none;stroke:red;stroke-width:1px;stroke-linecap:butt;stroke-linejoin:miter;stroke-opacity:1" d="M 194.838,383.877 212.842,383.877 z" id="boundary" inkscape:connector-curvature="0" />
	<path style="fill:none;stroke:red;stroke-width:1px;stroke-linecap:butt;stroke-linejoin:miter;stroke-opacity:1" d="M 200.24,13.0018 218.243,13.0018 z" id="boundary" inkscape:connector-curvature="0" />
	<path style="fill:none;stroke:red;stroke-width:1px;stroke-linecap:butt;stroke-linejoin:miter;stroke-opacity:1" d="M 200.24,319.064 218.243,319.064 z" id="boundary" inkscape:connector-curvature="0" />
	<path style="fill:none;stroke:red;stroke-width:1px;stroke-linecap:butt;stroke-linejoin:miter;stroke-opacity:1" d="M 202.04,112.022 220.044,112.022 z" id="boundary" inkscape:connector-curvature="0" />
	<path style="fill:none;stroke:red;stroke-width:1px;stroke-linecap:butt;stroke-linejoin:miter;stroke-opacity:1" d="M 211.042,68.8131 229.045,68.8131 z" id="boundary" inkscape:connector-curvature="0" />
	<path style="fill:none;stroke:red;stroke-width:1px;stroke-linecap:butt;stroke-linejoin:miter;stroke-opacity:1" d="M 211.042,216.443 229.045,211.042 z" id="boundary" inkscape:connector-curvature="0" />
	<path style="fill:none;stroke:red;stroke-width:1px;stroke-linecap:butt;stroke-linejoin:miter;stroke-opacity:1" d="M 211.042,275.855 229.045,275.855 z" id="boundary" inkscape:connector-curvature="0" />
	<path style="fill:none;stroke:red;stroke-width:1px;stroke-linecap:butt;stroke-linejoin:miter;stroke-opacity:1" d="M 212.842,176.835 230.846,176.835 z" id="boundary" inkscape:connector-curvature="0" />
	<path style="fill:none;stroke:red;stroke-width:1px;stroke-linecap:butt;stroke-linejoin:miter;stroke-opacity:1" d="M 212.842,383.877 229.045,374.875 z" id="boundary" inkscape:connector-curvature="0" />
	<path style="fill:none;stroke:red;stroke-width:1px;stroke-linecap:butt;stroke-linejoin:miter;stroke-opacity:1" d="M 218.243,13.0018 234.446,4 z" id="boundary" inkscape:connector-curvature="0" />
	<path style="fill:none;stroke:red;stroke-width:1px;stroke-linecap:butt;stroke-linejoin:miter;stroke-opacity:1" d="M 218.243,319.064 236.247,319.064 z" id="boundary" inkscape:connector-curvature="0" />
	<path style="fill:none;stroke:red;stroke-width:1px;stroke-linecap:butt;stroke-linejoin:miter;stroke-opacity:1" d="M 220.044,112.022 238.047,112.022 z" id="boundary" inkscape:connector-curvature="0" />
	<path style="fill:none;stroke:red;stroke-width:1px;stroke-linecap:butt;stroke-linejoin:miter;stroke-opacity:1" d="M 229.045,68.8131 247.049,68.8131 z" id="boundary" inkscape:connector-curvature="0" />
	<path style="fill:none;stroke:red;stroke-width:1px;stroke-linecap:butt;stroke-linejoin:miter;stroke-opacity:1" d="M 229.045,211.042 247.049,211.042 z" id="boundary" inkscape:connector-curvature="0" />
	<path style="fill:none;stroke:red;stroke-width:1px;stroke-linecap:butt;stroke-linejoin:miter;stroke-opacity:1" d="M 229.045,275.855 247.049,275.855 z" id="boundary" inkscape:connector-curvature="0" />
	<path style="fill:none;stroke:red;stroke-width:1px;stroke-linecap:butt;stroke-linejoin:miter;stroke-opacity:1" d="M 229.045,374.875 247.049,374.875 z" id="boundary" inkscape:connector-curvature="0" />
	<path style="fill:none;stroke:red;stroke-width:1px;stroke-linecap:butt;stroke-linejoin:miter;stroke-opacity:1" d="M 230.846,176.835 247.049,185.837 z" id="boundary" inkscape:connector-curvature="0" />
	<path style="fill:none;stroke:red;stroke-width:1px;stroke-linecap:butt;stroke-linejoin:miter;stroke-opacity:1" d="M 234.446,4 252.45,4 z" id="boundary" inkscape:connector-curvature="0" />
	<path style="fill:none;stroke:red;stroke-width:1px;stroke-linecap:butt;stroke-linejoin:miter;stroke-opacity:1" d="M 236.247,319.064 254.25,319.064 z" id="boundary" inkscape:connector-curvature="0" />
	<path style="fill:none;stroke:red;stroke-width:1px;stroke-linecap:butt;stroke-linejoin:miter;stroke-opacity:1" d="M 238.047,112.022 247.049,86.8167 z" id="boundary" inkscape:connector-curvature="0" />
	<path style="fill:none;stroke:red;stroke-width:1px;stroke-linecap:butt;stroke-linejoin:miter;stroke-opacity:1" d="M 247.049,68.8131 247.049,86.8167 z" id="boundary" inkscape:connector-curvature="0" />
	<path style="fill:none;stroke:red;stroke-width:1px;stroke-linecap:butt;stroke-linejoin:miter;stroke-opacity:1" d="M 247.049,185.837 247.049,211.042 z" id="boundary" inkscape:connector-curvature="0" />
	<path style="fill:none;stroke:red;stroke-width:1px;stroke-linecap:butt;stroke-linejoin:miter;stroke-opacity:1" d="M 247.049,275.855 265.053,275.855 z" id="boundary" inkscape:connector-curvature="0" />
	<path style="fill:none;stroke:red;stroke-width:1px;stroke-linecap:butt;stroke-linejoin:miter;stroke-opacity:1" d="M 247.049,374.875 265.053,374.875 z" id="boundary" inkscape:connector-curvature="0" />
	<path style="fill:none;stroke:red;stroke-width:1px;stroke-linecap:butt;stroke-linejoin:miter;stroke-opacity:1" d="M 252.45,4 270.454,4 z" id="boundary" inkscape:connector-curvature="0" />
	<path style="fill:none;stroke:red;stroke-width:1px;stroke-linecap:butt;stroke-linejoin:miter;stroke-opacity:1" d="M 254.25,319.064 265.053,293.858 z" id="boundary" inkscape:connector-curvature="0" />
	<path style="fill:none;stroke:red;stroke-width:1px;stroke-linecap:butt;stroke-linejoin:miter;stroke-opacity:1" d="M 265.053,275.855 265.053,293.858 z" id="boundary" inkscape:connector-curvature="0" />
	<path style="fill:none;stroke:red;stroke-width:1px;stroke-linecap:butt;stroke-linejoin:miter;stroke-opacity:1" d="M 265.053,374.875 283.056,374.875 z" id="boundary" inkscape:connector-curvature="0" />
	<path style="fill:none;stroke:red;stroke-width:1px;stroke-linecap:butt;stroke-linejoin:miter;stroke-opacity:1" d="M 270.454,4 288.457,4 z" id="boundary" inkscape:connector-curvature="0" />
	<path style="fill:none;stroke:red;stroke-width:1px;stroke-linecap:butt;stroke-linejoin:miter;stroke-opacity:1" d="M 283.056,374.875 301.06,374.875 z" id="boundary" inkscape:connector-curvature="0" />
	<path style="fill:none;stroke:red;stroke-width:1px;stroke-linecap:butt;stroke-linejoin:miter;stroke-opacity:1" d="M 288.457,4 306.461,4 z" id="boundary" inkscape:connector-curvature="0" />
	<path style="fill:none;stroke:red;stroke-width:1px;stroke-linecap:butt;stroke-linejoin:miter;stroke-opacity:1" d="M 301.06,374.875 319.064,369.474 z" id="boundary" inkscape:connector-curvature="0" />
	<path style="fill:none;stroke:red;stroke-width:1px;stroke-linecap:butt;stroke-linejoin:miter;stroke-opacity:1" d="M 306.461,4 324.465,4 z" id="boundary" inkscape:connector-curvature="0" />
	<path style="fill:none;stroke:red;stroke-width:1px;stroke-linecap:butt;stroke-linejoin:miter;stroke-opacity:1" d="M 319.064,369.474 337.067,365.873 z" id="boundary" inkscape:connector-curvature="0" />
	<path style="fill:none;stroke:red;stroke-width:1px;stroke-linecap:butt;stroke-linejoin:miter;stroke-opacity:1" d="M 324.465,4 342.468,4 z" id="boundary" inkscape:connector-curvature="0" />
	<path style="fill:none;stroke:red;stroke-width:1px;stroke-linecap:butt;stroke-linejoin:miter;stroke-opacity:1" d="M 337.067,365.873 355.071,365.873 z" id="boundary" inkscape:connector-curvature="0" />
	<path style="fill:none;stroke:red;stroke-width:1px;stroke-linecap:butt;stroke-linejoin:miter;stroke-opacity:1" d="M 342.468,4 360.472,4 z" id="boundary" inkscape:connector-curvature="0" />
	<path style="fill:none;stroke:red;stroke-width:1px;stroke-linecap:butt;stroke-linejoin:miter;stroke-opacity:1" d="M 355.071,365.873 373.074,365.873 z" id="boundary" inkscape:connector-curvature="0" />
	<path style="fill:none;stroke:red;stroke-width:1px;stroke-linecap:butt;stroke-linejoin:miter;stroke-opacity:1" d="M 360.472,4 365.873,22.0036 z" id="boundary" inkscape:connector-curvature="0" />
	<path style="fill:none;stroke:red;stroke-width:1px;stroke-linecap:butt;stroke-linejoin:miter;stroke-opacity:1" d="M 365.873,22.0036 365.873,40.0073 z" id="boundary" inkscape:connector-curvature="0" />
	<path style="fill:none;stroke:red;stroke-width:1px;stroke-linecap:butt;stroke-linejoin:miter;stroke-opacity:1" d="M 365.873,40.0073 374.875,56.2105 z" id="boundary" inkscape:connector-curvature="0" />
	<path style="fill:none;stroke:red;stroke-width:1px;stroke-linecap:butt;stroke-linejoin:miter;stroke-opacity:1" d="M 373.074,365.873 389.278,356.871 z" id="boundary" inkscape:connector-curvature="0" />
	<path style="fill:none;stroke:red;stroke-width:1px;stroke-linecap:butt;stroke-linejoin:miter;stroke-opacity:1" d="M 374.875,56.2105 374.875,74.2142 z" id="boundary" inkscape:connector-curvature="0" />
	<path style="fill:none;stroke:red;stroke-width:1px;stroke-linecap:butt;stroke-linejoin:miter;stroke-opacity:1" d="M 374.875,74.2142 374.875,92.2178 z" id="boundary" inkscape:connector-curvature="0" />
	<path style="fill:none;stroke:red;stroke-width:1px;stroke-linecap:butt;stroke-linejoin:miter;stroke-opacity:1" d="M 374.875,92.2178 374.875,110.221 z" id="boundary" inkscape:connector-curvature="0" />
	<path style="fill:none;stroke:red;stroke-width:1px;stroke-linecap:butt;stroke-linejoin:miter;stroke-opacity:1" d="M 374.875,110.221 374.875,128.225 z" id="boundary" inkscape:connector-curvature="0" />
	<path style="fill:none;stroke:red;stroke-width:1px;stroke-linecap:butt;stroke-linejoin:miter;stroke-opacity:1" d="M 374.875,128.225 389.278,139.027 z" id="boundary" inkscape:connector-curvature="0" />
	<path style="fill:none;stroke:red;stroke-width:1px;stroke-linecap:butt;stroke-linejoin:miter;stroke-opacity:1" d="M 389.278,139.027 407.281,139.027 z" id="boundary" inkscape:connector-curvature="0" />
	<path style="fill:none;stroke:red;stroke-width:1px;stroke-linecap:butt;stroke-linejoin:miter;stroke-opacity:1" d="M 389.278,356.871 401.88,338.868 z" id="boundary" inkscape:connector-curvature="0" />
	<path style="fill:none;stroke:red;stroke-width:1px;stroke-linecap:butt;stroke-linejoin:miter;stroke-opacity:1" d="M 392.878,248.849 392.878,266.853 z" id="boundary" inkscape:connector-curvature="0" />
	<path style="fill:none;stroke:red;stroke-width:1px;stroke-linecap:butt;stroke-linejoin:miter;stroke-opacity:1" d="M 392.878,248.849 410.882,248.849 z" id="boundary" inkscape:connector-curvature="0" />
	<path style="fill:none;stroke:red;stroke-width:1px;stroke-linecap:butt;stroke-linejoin:miter;stroke-opacity:1" d="M 392.878,266.853 392.878,284.857 z" id="boundary" inkscape:connector-curvature="0" />
	<path style="fill:none;stroke:red;stroke-width:1px;stroke-linecap:butt;stroke-linejoin:miter;stroke-opacity:1" d="M 392.878,284.857 396.479,302.86 z" id="boundary" inkscape:connector-curvature="0" />
	<path style="fill:none;stroke:red;stroke-width:1px;stroke-linecap:butt;stroke-linejoin:miter;stroke-opacity:1" d="M 396.479,302.86 401.88,320.864 z" id="boundary" inkscape:connector-curvature="0" />
	<path style="fill:none;stroke:red;stroke-width:1px;stroke-linecap:butt;stroke-linejoin:miter;stroke-opacity:1" d="M 401.88,320.864 401.88,338.868 z" id="boundary" inkscape:connector-curvature="0" />
	<path style="fill:none;stroke:red;stroke-width:1px;stroke-linecap:butt;stroke-linejoin:miter;stroke-opacity:1" d="M 407.281,139.027 423.485,130.025 z" id="boundary" inkscape:connector-curvature="0" />
	<path style="fill:none;stroke:red;stroke-width:1px;stroke-linecap:butt;stroke-linejoin:miter;stroke-opacity:1" d="M 410.882,248.849 428.886,248.849 z" id="boundary" inkscape:connector-curvature="0" />
	<path style="fill:none;stroke:red;stroke-width:1px;stroke-linecap:butt;stroke-linejoin:miter;stroke-opacity:1" d="M 423.485,130.025 441.488,130.025 z" id="boundary" inkscape:connector-curvature="0" />
	<path style="fill:none;stroke:red;stroke-width:1px;stroke-linecap:butt;stroke-linejoin:miter;stroke-opacity:1" d="M 428.886,248.849 446.889,248.849 z" id="boundary" inkscape:connector-curvature="0" />
	<path style="fill:none;stroke:red;stroke-width:1px;stroke-linecap:butt;stroke-linejoin:miter;stroke-opacity:1" d="M 441.488,130.025 459.492,130.025 z" id="boundary" inkscape:connector-curvature="0" />
	<path style="fill:none;stroke:red;stroke-width:1px;stroke-linecap:butt;stroke-linejoin:miter;stroke-opacity:1" d="M 446.889,248.849 464.893,248.849 z" id="boundary" inkscape:connector-curvature="0" />
	<path style="fill:none;stroke:red;stroke-width:1px;stroke-linecap:butt;stroke-linejoin:miter;stroke-opacity:1" d="M 459.492,130.025 477.495,130.025 z" id="boundary" inkscape:connector-curvature="0" />
	<path style="fill:none;stroke:red;stroke-width:1px;stroke-linecap:butt;stroke-linejoin:miter;stroke-opacity:1" d="M 464.893,248.849 482.897,248.849 z" id="boundary" inkscape:connector-curvature="0" />
	<path style="fill:none;stroke:red;stroke-width:1px;stroke-linecap:butt;stroke-linejoin:miter;stroke-opacity:1" d="M 477.495,130.025 495.499,130.025 z" id="boundary" inkscape:connector-curvature="0" />
	<path style="fill:none;stroke:red;stroke-width:1px;stroke-linecap:butt;stroke-linejoin:miter;stroke-opacity:1" d="M 482.897,248.849 500.9,239.848 z" id="boundary" inkscape:connector-curvature="0" />
	<path style="fill:none;stroke:red;stroke-width:1px;stroke-linecap:butt;stroke-linejoin:miter;stroke-opacity:1" d="M 495.499,130.025 513.503,121.024 z" id="boundary" inkscape:connector-curvature="0" />
	<path style="fill:none;stroke:red;stroke-width:1px;stroke-linecap:butt;stroke-linejoin:miter;stroke-opacity:1" d="M 500.9,239.848 518.904,239.848 z" id="boundary" inkscape:connector-curvature="0" />
	<path style="fill:none;stroke:red;stroke-width:1px;stroke-linecap:butt;stroke-linejoin:miter;stroke-opacity:1" d="M 513.503,121.024 531.506,121.024 z" id="boundary" inkscape:connector-curvature="0" />
	<path style="fill:none;stroke:red;stroke-width:1px;stroke-linecap:butt;stroke-linejoin:miter;stroke-opacity:1" d="M 518.904,239.848 536.907,239.848 z" id="boundary" inkscape:connector-curvature="0" />
	<path style="fill:none;stroke:red;stroke-width:1px;stroke-linecap:butt;stroke-linejoin:miter;stroke-opacity:1" d="M 531.506,121.024 549.51,121.024 z" id="boundary" inkscape:connector-curvature="0" />
	<path style="fill:none;stroke:red;stroke-width:1px;stroke-linecap:butt;stroke-linejoin:miter;stroke-opacity:1" d="M 536.907,239.848 554.911,239.848 z" id="boundary" inkscape:connector-curvature="0" />
	<path style="fill:none;stroke:red;stroke-width:1px;stroke-linecap:butt;stroke-linejoin:miter;stroke-opacity:1" d="M 549.51,121.024 567.514,121.024 z" id="boundary" inkscape:connector-curvature="0" />
	<path style="fill:none;stroke:red;stroke-width:1px;stroke-linecap:butt;stroke-linejoin:miter;stroke-opacity:1" d="M 554.911,239.848 572.915,239.848 z" id="boundary" inkscape:connector-curvature="0" />
	<path style="fill:none;stroke:red;stroke-width:1px;stroke-linecap:butt;stroke-linejoin:miter;stroke-opacity:1" d="M 567.514,121.024 585.517,112.022 z" id="boundary" inkscape:connector-curvature="0" />
	<path style="fill:none;stroke:red;stroke-width:1px;stroke-linecap:butt;stroke-linejoin:miter;stroke-opacity:1" d="M 572.915,239.848 590.918,230.846 z" id="boundary" inkscape:connector-curvature="0" />
	<path style="fill:none;stroke:red;stroke-width:1px;stroke-linecap:butt;stroke-linejoin:miter;stroke-opacity:1" d="M 585.517,112.022 603.521,112.022 z" id="boundary" inkscape:connector-curvature="0" />
	<path style="fill:none;stroke:red;stroke-width:1px;stroke-linecap:butt;stroke-linejoin:miter;stroke-opacity:1" d="M 590.918,230.846 608.922,230.846 z" id="boundary" inkscape:connector-curvature="0" />
	<path style="fill:none;stroke:red;stroke-width:1px;stroke-linecap:butt;stroke-linejoin:miter;stroke-opacity:1" d="M 603.521,112.022 621.525,112.022 z" id="boundary" inkscape:connector-curvature="0" />
	<path style="fill:none;stroke:red;stroke-width:1px;stroke-linecap:butt;stroke-linejoin:miter;stroke-opacity:1" d="M 608.922,230.846 626.926,230.846 z" id="boundary" inkscape:connector-curvature="0" />
	<path style="fill:none;stroke:red;stroke-width:1px;stroke-linecap:butt;stroke-linejoin:miter;stroke-opacity:1" d="M 621.525,112.022 639.528,112.022 z" id="boundary" inkscape:connector-curvature="0" />
	<path style="fill:none;stroke:red;stroke-width:1px;stroke-linecap:butt;stroke-linejoin:miter;stroke-opacity:1" d="M 626.926,230.846 644.929,230.846 z" id="boundary" inkscape:connector-curvature="0" />
	<path style="fill:none;stroke:red;stroke-width:1px;stroke-linecap:butt;stroke-linejoin:miter;stroke-opacity:1" d="M 639.528,112.022 657.532,112.022 z" id="boundary" inkscape:connector-curvature="0" />
	<path style="fill:none;stroke:red;stroke-width:1px;stroke-linecap:butt;stroke-linejoin:miter;stroke-opacity:1" d="M 644.929,230.846 662.933,221.844 z" id="boundary" inkscape:connector-curvature="0" />
	<path style="fill:none;stroke:red;stroke-width:1px;stroke-linecap:butt;stroke-linejoin:miter;stroke-opacity:1" d="M 657.532,112.022 675.535,112.022 z" id="boundary" inkscape:connector-curvature="0" />
	<path style="fill:none;stroke:red;stroke-width:1px;stroke-linecap:butt;stroke-linejoin:miter;stroke-opacity:1" d="M 662.933,221.844 680.936,221.844 z" id="boundary" inkscape:connector-curvature="0" />
	<path style="fill:none;stroke:red;stroke-width:1px;stroke-linecap:butt;stroke-linejoin:miter;stroke-opacity:1" d="M 675.535,112.022 693.539,112.022 z" id="boundary" inkscape:connector-curvature="0" />
	<path style="fill:none;stroke:red;stroke-width:1px;stroke-linecap:butt;stroke-linejoin:miter;stroke-opacity:1" d="M 680.936,221.844 698.94,221.844 z" id="boundary" inkscape:connector-curvature="0" />
	<path style="fill:none;stroke:red;stroke-width:1px;stroke-linecap:butt;stroke-linejoin:miter;stroke-opacity:1" d="M 693.539,112.022 711.543,112.022 z" id="boundary" inkscape:connector-curvature="0" />
	<path style="fill:none;stroke:red;stroke-width:1px;stroke-linecap:butt;stroke-linejoin:miter;stroke-opacity:1" d="M 698.94,221.844 716.944,221.844 z" id="boundary" inkscape:connector-curvature="0" />
	<path style="fill:none;stroke:red;stroke-width:1px;stroke-linecap:butt;stroke-linejoin:miter;stroke-opacity:1" d="M 711.543,112.022 729.546,112.022 z" id="boundary" inkscape:connector-curvature="0" />
	<path style="fill:none;stroke:red;stroke-width:1px;stroke-linecap:butt;stroke-linejoin:miter;stroke-opacity:1" d="M 716.944,221.844 734.947,221.844 z" id="boundary" inkscape:connector-curvature="0" />
	<path style="fill:none;stroke:red;stroke-width:1px;stroke-linecap:butt;stroke-linejoin:miter;stroke-opacity:1" d="M 729.546,112.022 747.55,112.022 z" id="boundary" inkscape:connector-curvature="0" />
	<path style="fill:none;stroke:red;stroke-width:1px;stroke-linecap:butt;stroke-linejoin:miter;stroke-opacity:1" d="M 734.947,221.844 752.951,221.844 z" id="boundary" inkscape:connector-curvature="0" />
	<path style="fill:none;stroke:red;stroke-width:1px;stroke-linecap:butt;stroke-linejoin:miter;stroke-opacity:1" d="M 747.55,112.022 763.753,103.02 z" id="boundary" inkscape:connector-curvature="0" />
	<path style="fill:none;stroke:red;stroke-width:1px;stroke-linecap:butt;stroke-linejoin:miter;stroke-opacity:1" d="M 752.951,221.844 769.154,212.842 z" id="boundary" inkscape:connector-curvature="0" />
	<path style="fill:none;stroke:red;stroke-width:1px;stroke-linecap:butt;stroke-linejoin:miter;stroke-opacity:1" d="M 763.753,103.02 781.757,103.02 z" id="boundary" inkscape:connector-curvature="0" />
	<path style="fill:none;stroke:red;stroke-width:1px;stroke-linecap:butt;stroke-linejoin:miter;stroke-opacity:1" d="M 769.154,212.842 787.158,212.842 z" id="boundary" inkscape:connector-curvature="0" />
	<path style="fill:none;stroke:red;stroke-width:1px;stroke-linecap:butt;stroke-linejoin:miter;stroke-opacity:1" d="M 781.757,103.02 799.76,103.02 z" id="boundary" inkscape:connector-curvature="0" />
	<path style="fill:none;stroke:red;stroke-width:1px;stroke-linecap:butt;stroke-linejoin:miter;stroke-opacity:1" d="M 787.158,212.842 805.162,212.842 z" id="boundary" inkscape:connector-curvature="0" />
	<path style="fill:none;stroke:red;stroke-width:1px;stroke-linecap:butt;stroke-linejoin:miter;stroke-opacity:1" d="M 799.76,103.02 817.764,103.02 z" id="boundary" inkscape:connector-curvature="0" />
	<path style="fill:none;stroke:red;stroke-width:1px;stroke-linecap:butt;stroke-linejoin:miter;stroke-opacity:1" d="M 805.162,212.842 823.165,212.842 z" id="boundary" inkscape:connector-curvature="0" />
	<path style="fill:none;stroke:red;stroke-width:1px;stroke-linecap:butt;stroke-linejoin:miter;stroke-opacity:1" d="M 817.764,103.02 835.768,103.02 z" id="boundary" inkscape:connector-curvature="0" />
	<path style="fill:none;stroke:red;stroke-width:1px;stroke-linecap:butt;stroke-linejoin:miter;stroke-opacity:1" d="M 823.165,212.842 841.169,212.842 z" id="boundary" inkscape:connector-curvature="0" />
	<path style="fill:none;stroke:red;stroke-width:1px;stroke-linecap:butt;stroke-linejoin:miter;stroke-opacity:1" d="M 835.768,103.02 853.771,95.8185 z" id="boundary" inkscape:connector-curvature="0" />
	<path style="fill:none;stroke:red;stroke-width:1px;stroke-linecap:butt;stroke-linejoin:miter;stroke-opacity:1" d="M 841.169,212.842 859.172,212.842 z" id="boundary" inkscape:connector-curvature="0" />
	<path style="fill:none;stroke:red;stroke-width:1px;stroke-linecap:butt;stroke-linejoin:miter;stroke-opacity:1" d="M 853.771,95.8185 871.775,94.0181 z" id="boundary" inkscape:connector-curvature="0" />
	<path style="fill:none;stroke:red;stroke-width:1px;stroke-linecap:butt;stroke-linejoin:miter;stroke-opacity:1" d="M 859.172,212.842 877.176,212.842 z" id="boundary" inkscape:connector-curvature="0" />
	<path style="fill:none;stroke:red;stroke-width:1px;stroke-linecap:butt;stroke-linejoin:miter;stroke-opacity:1" d="M 871.775,94.0181 889.779,94.0181 z" id="boundary" inkscape:connector-curvature="0" />
	<path style="fill:none;stroke:red;stroke-width:1px;stroke-linecap:butt;stroke-linejoin:miter;stroke-opacity:1" d="M 877.176,212.842 895.18,212.842 z" id="boundary" inkscape:connector-curvature="0" />
	<path style="fill:none;stroke:red;stroke-width:1px;stroke-linecap:butt;stroke-linejoin:miter;stroke-opacity:1" d="M 889.779,94.0181 907.782,94.0181 z" id="boundary" inkscape:connector-curvature="0" />
	<path style="fill:none;stroke:red;stroke-width:1px;stroke-linecap:butt;stroke-linejoin:miter;stroke-opacity:1" d="M 895.18,212.842 913.183,212.842 z" id="boundary" inkscape:connector-curvature="0" />
	<path style="fill:none;stroke:red;stroke-width:1px;stroke-linecap:butt;stroke-linejoin:miter;stroke-opacity:1" d="M 907.782,94.0181 925.786,86.8167 z" id="boundary" inkscape:connector-curvature="0" />
	<path style="fill:none;stroke:red;stroke-width:1px;stroke-linecap:butt;stroke-linejoin:miter;stroke-opacity:1" d="M 913.183,212.842 929.387,203.84 z" id="boundary" inkscape:connector-curvature="0" />
	<path style="fill:none;stroke:red;stroke-width:1px;stroke-linecap:butt;stroke-linejoin:miter;stroke-opacity:1" d="M 925.786,86.8167 943.789,85.0163 z" id="boundary" inkscape:connector-curvature="0" />
	<path style="fill:none;stroke:red;stroke-width:1px;stroke-linecap:butt;stroke-linejoin:miter;stroke-opacity:1" d="M 929.387,203.84 947.39,203.84 z" id="boundary" inkscape:connector-curvature="0" />
	<path style="fill:none;stroke:red;stroke-width:1px;stroke-linecap:butt;stroke-linejoin:miter;stroke-opacity:1" d="M 943.789,85.0163 961.793,85.0163 z" id="boundary" inkscape:connector-curvature="0" />
	<path style="fill:none;stroke:red;stroke-width:1px;stroke-linecap:butt;stroke-linejoin:miter;stroke-opacity:1" d="M 947.39,203.84 965.394,203.84 z" id="boundary" inkscape:connector-curvature="0" />
	<path style="fill:none;stroke:red;stroke-width:1px;stroke-linecap:butt;stroke-linejoin:miter;stroke-opacity:1" d="M 961.793,85.0163 979.797,85.0163 z" id="boundary" inkscape:connector-curvature="0" />
	<path style="fill:none;stroke:red;stroke-width:1px;stroke-linecap:butt;stroke-linejoin:miter;stroke-opacity:1" d="M 965.394,203.84 983.397,203.84 z" id="boundary" inkscape:connector-curvature="0" />
	<path style="fill:none;stroke:red;stroke-width:1px;stroke-linecap:butt;stroke-linejoin:miter;stroke-opacity:1" d="M 979.797,85.0163 996,94.0181 z" id="boundary" inkscape:connector-curvature="0" />
	<path style="fill:none;stroke:red;stroke-width:1px;stroke-linecap:butt;stroke-linejoin:miter;stroke-opacity:1" d="M 983.397,203.84 996,184.036 z" id="boundary" inkscape:connector-curvature="0" />
	<path style="fill:none;stroke:red;stroke-width:1px;stroke-linecap:butt;stroke-linejoin:miter;stroke-opacity:1" d="M 996,94.0181 996,112.022 z" id="boundary" inkscape:connector-curvature="0" />
	<path style="fill:none;stroke:red;stroke-width:1px;stroke-linecap:butt;stroke-linejoin:miter;stroke-opacity:1" d="M 996,112.022 996,130.025 z" id="boundary" inkscape:connector-curvature="0" />
	<path style="fill:none;stroke:red;stroke-width:1px;stroke-linecap:butt;stroke-linejoin:miter;stroke-opacity:1" d="M 996,130.025 996,148.029 z" id="boundary" inkscape:connector-curvature="0" />
	<path style="fill:none;stroke:red;stroke-width:1px;stroke-linecap:butt;stroke-linejoin:miter;stroke-opacity:1" d="M 996,148.029 996,166.033 z" id="boundary" inkscape:connector-curvature="0" />
	<path style="fill:none;stroke:red;stroke-width:1px;stroke-linecap:butt;stroke-linejoin:miter;stroke-opacity:1" d="M 996,166.033 996,184.036 z" id="boundary" inkscape:connector-curvature="0" />
	<circle cx="4" cy="36.4065" r="4" fill="#0" id="circle0"/>
	<circle cx="4" cy="54.4102" r="4" fill="#0" id="circle1"/>
	<circle cx="13.0018" cy="70.6134" r="4" fill="#0" id="circle2"/>
	<circle cx="22.0036" cy="31.0054" r="4" fill="#0" id="circle3"/>
	<circle cx="22.0036" cy="135.426" r="4" fill="#0" id="circle4"/>
	<circle cx="22.0036" cy="153.43" r="4" fill="#0" id="circle5"/>
	<circle cx="22.0036" cy="171.434" r="4" fill="#0" id="circle6"/>
	<circle cx="31.0054" cy="77.8149" r="4" fill="#0" id="circle7"/>
	<circle cx="31.0054" cy="243.448" r="4" fill="#0" id="circle8"/>
	<circle cx="31.0054" cy="261.452" r="4" fill="#0" id="circle9"/>
	<circle cx="31.0054" cy="279.456" r="4" fill="#0" id="circle10"/>
	<circle cx="32.8058" cy="185.837" r="4" fill="#0" id="circle11"/>
	<circle cx="40.0073" cy="31.0054" r="4" fill="#0" id="circle12"/>
	<circle cx="40.0073" cy="130.025" r="4" fill="#0" id="circle13"/>
	<circle cx="40.0073" cy="342.468" r="4" fill="#0" id="circle14"/>
	<circle cx="40.0073" cy="360.472" r="4" fill="#0" id="circle15"/>
	<circle cx="40.0073" cy="378.475" r="4" fill="#0" id="circle16"/>
	<circle cx="49.0091" cy="77.8149" r="4" fill="#0" id="circle17"/>
	<circle cx="49.0091" cy="234.446" r="4" fill="#0" id="circle18"/>
	<circle cx="49.0091" cy="284.857" r="4" fill="#0" id="circle19"/>
	<circle cx="50.8094" cy="185.837" r="4" fill="#0" id="circle20"/>
	<circle cx="50.8094" cy="392.878" r="4" fill="#0" id="circle21"/>
	<circle cx="58.0109" cy="27.4047" r="4" fill="#0" id="circle22"/>
	<circle cx="58.0109" cy="130.025" r="4" fill="#0" id="circle23"/>
	<circle cx="58.0109" cy="337.067" r="4" fill="#0" id="circle24"/>
	<circle cx="67.0127" cy="77.8149" r="4" fill="#0" id="circle25"/>
	<circle cx="67.0127" cy="229.045" r="4" fill="#0" id="circle26"/>
	<circle cx="67.0127" cy="284.857" r="4" fill="#0" id="circle27"/>
	<circle cx="68.8131" cy="176.835" r="4" fill="#0" id="circle28"/>
	<circle cx="68.8131" cy="392.878" r="4" fill="#0" id="circle29"/>
	<circle cx="76.0145" cy="22.0036" r="4" fill="#0" id="circle30"/>
	<circle cx="76.0145" cy="130.025" r="4" fill="#0" id="circle31"/>
	<circle cx="76.0145" cy="337.067" r="4" fill="#0" id="circle32"/>
	<circle cx="85.0163" cy="77.8149" r="4" fill="#0" id="circle33"/>
	<circle cx="85.0163" cy="229.045" r="4" fill="#0" id="circle34"/>
	<circle cx="85.0163" cy="284.857" r="4" fill="#0" id="circle35"/>
	<circle cx="86.8167" cy="176.835" r="4" fill="#0" id="circle36"/>
	<circle cx="86.8167" cy="392.878" r="4" fill="#0" id="circle37"/>
	<circle cx="94.0181" cy="22.0036" r="4" fill="#0" id="circle38"/>
	<circle cx="94.0181" cy="130.025" r="4" fill="#0" id="circle39"/>
	<circle cx="94.0181" cy="333.466" r="4" fill="#0" id="circle40"/>
	<circle cx="103.02" cy="77.8149" r="4" fill="#0" id="circle41"/>
	<circle cx="103.02" cy="229.045" r="4" fill="#0" id="circle42"/>
	<circle cx="103.02" cy="284.857" r="4" fill="#0" id="circle43"/>
	<circle cx="104.82" cy="176.835" r="4" fill="#0" id="circle44"/>
	<circle cx="104.82" cy="392.878" r="4" fill="#0" id="circle45"/>
	<circle cx="112.022" cy="22.0036" r="4" fill="#0" id="circle46"/>
	<circle cx="112.022" cy="126.425" r="4" fill="#0" id="circle47"/>
	<circle cx="112.022" cy="328.065" r="4" fill="#0" id="circle48"/>
	<circle cx="121.024" cy="77.8149" r="4" fill="#0" id="circle49"/>
	<circle cx="121.024" cy="225.445" r="4" fill="#0" id="circle50"/>
	<circle cx="121.024" cy="284.857" r="4" fill="#0" id="circle51"/>
	<circle cx="122.824" cy="176.835" r="4" fill="#0" id="circle52"/>
	<circle cx="122.824" cy="392.878" r="4" fill="#0" id="circle53"/>
	<circle cx="130.025" cy="22.0036" r="4" fill="#0" id="circle54"/>
	<circle cx="130.025" cy="121.024" r="4" fill="#0" id="circle55"/>
	<circle cx="130.025" cy="328.065" r="4" fill="#0" id="circle56"/>
	<circle cx="139.027" cy="77.8149" r="4" fill="#0" id="circle57"/>
	<circle cx="139.027" cy="220.044" r="4" fill="#0" id="circle58"/>
	<circle cx="139.027" cy="284.857" r="4" fill="#0" id="circle59"/>
	<circle cx="140.828" cy="176.835" r="4" fill="#0" id="circle60"/>
	<circle cx="140.828" cy="383.877" r="4" fill="#0" id="circle61"/>
	<circle cx="148.029" cy="22.0036" r="4" fill="#0" id="circle62"/>
	<circle cx="148.029" cy="121.024" r="4" fill="#0" id="circle63"/>
	<circle cx="148.029" cy="328.065" r="4" fill="#0" id="circle64"/>
	<circle cx="157.031" cy="77.8149" r="4" fill="#0" id="circle65"/>
	<circle cx="157.031" cy="220.044" r="4" fill="#0" id="circle66"/>
	<circle cx="157.031" cy="284.857" r="4" fill="#0" id="circle67"/>
	<circle cx="158.831" cy="176.835" r="4" fill="#0" id="circle68"/>
	<circle cx="158.831" cy="383.877" r="4" fill="#0" id="circle69"/>
	<circle cx="164.232" cy="13.0018" r="4" fill="#0" id="circle70"/>
	<circle cx="166.033" cy="121.024" r="4" fill="#0" id="circle71"/>
	<circle cx="166.033" cy="328.065" r="4" fill="#0" id="circle72"/>
	<circle cx="175.034" cy="72.4138" r="4" fill="#0" id="circle73"/>
	<circle cx="175.034" cy="220.044" r="4" fill="#0" id="circle74"/>
	<circle cx="175.034" cy="284.857" r="4" fill="#0" id="circle75"/>
	<circle cx="176.835" cy="176.835" r="4" fill="#0" id="circle76"/>
	<circle cx="176.835" cy="383.877" r="4" fill="#0" id="circle77"/>
	<circle cx="182.236" cy="13.0018" r="4" fill="#0" id="circle78"/>
	<circle cx="184.036" cy="117.423" r="4" fill="#0" id="circle79"/>
	<circle cx="184.036" cy="328.065" r="4" fill="#0" id="circle80"/>
	<circle cx="193.038" cy="68.8131" r="4" fill="#0" id="circle81"/>
	<circle cx="193.038" cy="220.044" r="4" fill="#0" id="circle82"/>
	<circle cx="193.038" cy="279.456" r="4" fill="#0" id="circle83"/>
	<circle cx="194.838" cy="176.835" r="4" fill="#0" id="circle84"/>
	<circle cx="194.838" cy="383.877" r="4" fill="#0" id="circle85"/>
	<circle cx="200.24" cy="13.0018" r="4" fill="#0" id="circle86"/>
	<circle cx="200.24" cy="319.064" r="4" fill="#0" id="circle87"/>
	<circle cx="202.04" cy="112.022" r="4" fill="#0" id="circle88"/>
	<circle cx="211.042" cy="68.8131" r="4" fill="#0" id="circle89"/>
	<circle cx="211.042" cy="216.443" r="4" fill="#0" id="circle90"/>
	<circle cx="211.042" cy="275.855" r="4" fill="#0" id="circle91"/>
	<circle cx="212.842" cy="176.835" r="4" fill="#0" id="circle92"/>
	<circle cx="212.842" cy="383.877" r="4" fill="#0" id="circle93"/>
	<circle cx="218.243" cy="13.0018" r="4" fill="#0" id="circle94"/>
	<circle cx="218.243" cy="319.064" r="4" fill="#0" id="circle95"/>
	<circle cx="220.044" cy="112.022" r="4" fill="#0" id="circle96"/>
	<circle cx="229.045" cy="68.8131" r="4" fill="#0" id="circle97"/>
	<circle cx="229.045" cy="211.042" r="4" fill="#0" id="circle98"/>
	<circle cx="229.045" cy="275.855" r="4" fill="#0" id="circle99"/>
	<circle cx="229.045" cy="374.875" r="4" fill="#0" id="circle100"/>
	<circle cx="230.846" cy="176.835" r="4" fill="#0" id="circle101"/>
	<circle cx="234.446" cy="4" r="4" fill="#0" id="circle102"/>
	<circle cx="236.247" cy="319.064" r="4" fill="#0" id="circle103"/>
	<circle cx="238.047" cy="112.022" r="4" fill="#0" id="circle104"/>
	<circle cx="247.049" cy="68.8131" r="4" fill="#0" id="circle105"/>
	<circle cx="247.049" cy="86.8167" r="4" fill="#0" id="circle106"/>
	<circle cx="247.049" cy="185.837" r="4" fill="#0" id="circle107"/>
	<circle cx="247.049" cy="211.042" r="4" fill="#0" id="circle108"/>
	<circle cx="247.049" cy="275.855" r="4" fill="#0" id="circle109"/>
	<circle cx="247.049" cy="374.875" r="4" fill="#0" id="circle110"/>
	<circle cx="252.45" cy="4" r="4" fill="#0" id="circle111"/>
	<circle cx="254.25" cy="319.064" r="4" fill="#0" id="circle112"/>
	<circle cx="265.053" cy="275.855" r="4" fill="#0" id="circle113"/>
	<circle cx="265.053" cy="293.858" r="4" fill="#0" id="circle114"/>
	<circle cx="265.053" cy="374.875" r="4" fill="#0" id="circle115"/>
	<circle cx="270.454" cy="4" r="4" fill="#0" id="circle116"/>
	<circle cx="283.056" cy="374.875" r="4" fill="#0" id="circle117"/>
	<circle cx="288.457" cy="4" r="4" fill="#0" id="circle118"/>
	<circle cx="301.06" cy="374.875" r="4" fill="#0" id="circle119"/>
	<circle cx="306.461" cy="4" r="4" fill="#0" id="circle120"/>
	<circle cx="319.064" cy="369.474" r="4" fill="#0" id="circle121"/>
	<circle cx="324.465" cy="4" r="4" fill="#0" id="circle122"/>
	<circle cx="337.067" cy="365.873" r="4" fill="#0" id="circle123"/>
	<circle cx="342.468" cy="4" r="4" fill="#0" id="circle124"/>
	<circle cx="355.071" cy="365.873" r="4" fill="#0" id="circle125"/>
	<circle cx="360.472" cy="4" r="4" fill="#0" id="circle126"/>
	<circle cx="365.873" cy="22.0036" r="4" fill="#0" id="circle127"/>
	<circle cx="365.873" cy="40.0073" r="4" fill="#0" id="circle128"/>
	<circle cx="373.074" cy="365.873" r="4" fill="#0" id="circle129"/>
	<circle cx="374.875" cy="56.2105" r="4" fill="#0" id="circle130"/>
	<circle cx="374.875" cy="74.2142" r="4" fill="#0" id="circle131"/>
	<circle cx="374.875" cy="92.2178" r="4" fill="#0" id="circle132"/>
	<circle cx="374.875" cy="110.221" r="4" fill="#0" id="circle133"/>
	<circle cx="374.875" cy="128.225" r="4" fill="#0" id="circle134"/>
	<circle cx="389.278" cy="139.027" r="4" fill="#0" id="circle135"/>
	<circle cx="389.278" cy="356.871" r="4" fill="#0" id="circle136"/>
	<circle cx="392.878" cy="248.849" r="4" fill="#0" id="circle137"/>
	<circle cx="392.878" cy="266.853" r="4" fill="#0" id="circle138"/>
	<circle cx="392.878" cy="284.857" r="4" fill="#0" id="circle139"/>
	<circle cx="396.479" cy="302.86" r="4" fill="#0" id="circle140"/>
	<circle cx="401.88" cy="320.864" r="4" fill="#0" id="circle141"/>
	<circle cx="401.88" cy="338.868" r="4" fill="#0" id="circle142"/>
	<circle cx="407.281" cy="139.027" r="4" fill="#0" id="circle143"/>
	<circle cx="410.882" cy="248.849" r="4" fill="#0" id="circle144"/>
	<circle cx="423.485" cy="130.025" r="4" fill="#0" id="circle145"/>
	<circle cx="428.886" cy="248.849" r="4" fill="#0" id="circle146"/>
	<circle cx="441.488" cy="130.025" r="4" fill="#0" id="circle147"/>
	<circle cx="446.889" cy="248.849" r="4" fill="#0" id="circle148"/>
	<circle cx="459.492" cy="130.025" r="4" fill="#0" id="circle149"/>
	<circle cx="464.893" cy="248.849" r="4" fill="#0" id="circle150"/>
	<circle cx="477.495" cy="130.025" r="4" fill="#0" id="circle151"/>
	<circle cx="482.897" cy="248.849" r="4" fill="#0" id="circle152"/>
	<circle cx="495.499" cy="130.025" r="4" fill="#0" id="circle153"/>
	<circle cx="500.9" cy="239.848" r="4" fill="#0" id="circle154"/>
	<circle cx="513.503" cy="121.024" r="4" fill="#0" id="circle155"/>
	<circle cx="518.904" cy="239.848" r="4" fill="#0" id="circle156"/>
	<circle cx="531.506" cy="121.024" r="4" fill="#0" id="circle157"/>
	<circle cx="536.907" cy="239.848" r="4" fill="#0" id="circle158"/>
	<circle cx="549.51" cy="121.024" r="4" fill="#0" id="circle159"/>
	<circle cx="554.911" cy="239.848" r="4" fill="#0" id="circle160"/>
	<circle cx="567.514" cy="121.024" r="4" fill="#0" id="circle161"/>
	<circle cx="572.915" cy="239.848" r="4" fill="#0" id="circle162"/>
	<circle cx="585.517" cy="112.022" r="4" fill="#0" id="circle163"/>
	<circle cx="590.918" cy="230.846" r="4" fill="#0" id="circle164"/>
	<circle cx="603.521" cy="112.022" r="4" fill="#0" id="circle165"/>
	<circle cx="608.922" cy="230.846" r="4" fill="#0" id="circle166"/>
	<circle cx="621.525" cy="112.022" r="4" fill="#0" id="circle167"/>
	<circle cx="626.926" cy="230.846" r="4" fill="#0" id="circle168"/>
	<circle cx="639.528" cy="112.022" r="4" fill="#0" id="circle169"/>
	<circle cx="644.929" cy="230.846" r="4" fill="#0" id="circle170"/>
	<circle cx="657.532" cy="112.022" r="4" fill="#0" id="circle171"/>
	<circle cx="662.933" cy="221.844" r="4" fill="#0" id="circle172"/>
	<circle cx="675.535" cy="112.022" r="4" fill="#0" id="circle173"/>
	<circle cx="680.936" cy="221.844" r="4" fill="#0" id="circle174"/>
	<circle cx="693.539" cy="112.022" r="4" fill="#0" id="circle175"/>
	<circle cx="698.94" cy="221.844" r="4" fill="#0" id="circle176"/>
	<circle cx="711.543" cy="112.022" r="4" fill="#0" id="circle177"/>
	<circle cx="716.944" cy="221.844" r="4" fill="#0" id="circle178"/>
	<circle cx="729.546" cy="112.022" r="4" fill="#0" id="circle179"/>
	<circle cx="734.947" cy="221.844" r="4" fill="#0" id="circle180"/>
	<circle cx="747.55" cy="112.022" r="4" fill="#0" id="circle181"/>
	<circle cx="752.951" cy="221.844" r="4" fill="#0" id="circle182"/>
	<circle cx="763.753" cy="103.02" r="4" fill="#0" id="circle183"/>
	<circle cx="769.154" cy="212.842" r="4" fill="#0" id="circle184"/>
	<circle cx="781.757" cy="103.02" r="4" fill="#0" id="circle185"/>
	<circle cx="787.158" cy="212.842" r="4" fill="#0" id="circle186"/>
	<circle cx="799.76" cy="103.02" r="4" fill="#0" id="circle187"/>
	<circle cx="805.162" cy="212.842" r="4" fill="#0" id="circle188"/>
	<circle cx="817.764" cy="103.02" r="4" fill="#0" id="circle189"/>
	<circle cx="823.165" cy="212.842" r="4" fill="#0" id="circle190"/>
	<circle cx="835.768" cy="103.02" r="4" fill="#0" id="circle191"/>
	<circle cx="841.169" cy="212.842" r="4" fill="#0" id="circle192"/>
	<circle cx="853.771" cy="95.8185" r="4" fill="#0" id="circle193"/>
	<circle cx="859.172" cy="212.842" r="4" fill="#0" id="circle194"/>
	<circle cx="871.775" cy="94.0181" r="4" fill="#0" id="circle195"/>
	<circle cx="877.176" cy="212.842" r="4" fill="#0" id="circle196"/>
	<circle cx="889.779" cy="94.0181" r="4" fill="#0" id="circle197"/>
	<circle cx="895.18" cy="212.842" r="4" fill="#0" id="circle198"/>
	<circle cx="907.782" cy="94.0181" r="4" fill="#0" id="circle199"/>
	<circle cx="913.183" cy="212.842" r="4" fill="#0" id="circle200"/>
	<circle cx="925.786" cy="86.8167" r="4" fill="#0" id="circle201"/>
	<circle cx="929.387" cy="203.84" r="4" fill="#0" id="circle202"/>
	<circle cx="943.789" cy="85.0163" r="4" fill="#0" id="circle203"/>
	<circle cx="947.39" cy="203.84" r="4" fill="#0" id="circle204"/>
	<circle cx="961.793" cy="85.0163" r="4" fill="#0" id="circle205"/>
	<circle cx="965.394" cy="203.84" r="4" fill="#0" id="circle206"/>
	<circle cx="979.797" cy="85.0163" r="4" fill="#0" id="circle207"/>
	<circle cx="983.397" cy="203.84" r="4" fill="#0" id="circle208"/>
	<circle cx="996" cy="94.0181" r="4" fill="#0" id="circle209"/>
	<circle cx="996" cy="112.022" r="4" fill="#0" id="circle210"/>
	<circle cx="996" cy="130.025" r="4" fill="#0" id="circle211"/>
	<circle cx="996" cy="148.029" r="4" fill="#0" id="circle212"/>
	<circle cx="996" cy="166.033" r="4" fill="#0" id="circle213"/>
	<circle cx="996" cy="184.036" r="4" fill="#0" id="circle214"/>
	</g>
</svg>