<?xml version="1.0" encoding="UTF-8" standalone="no"?>
<!-- Created with CurveBenchmark -->
<svg
	xmlns:dc="http://purl.org/dc/elements/1.1/"
	xmlns:cc="http://creativecommons.org/ns#"
	xmlns:rdf="http://www.w3.org/1999/02/22-rdf-syntax-ns#"
	xmlns:svg="http://www.w3.org/2000/svg"
	xmlns="http://www.w3.org/2000/svg"
	xmlns:sodipodi="http://sodipodi.sourceforge.net/DTD/sodipodi-0.dtd"
	xmlns:inkscape="http://www.inkscape.org/namespaces/inkscape"
	width="1000"
	height="1000"
	id="svg2"
	version="1.1"
	sodipodi:docname="manifold/hnncrust-bird325.png.txt">
<defs
	id="defs4" />
<metadata
	id="metadata7">
	<rdf:RDF>
		<cc:Work
			rdf:about="">
			<dc:format>image/svg+xml</dc:format>
			<dc:type
				rdf:resource="http://purl.org/dc/dcmitype/StillImage" />
			<dc:title></dc:title>
		</cc:Work>
	</rdf:RDF>
</metadata>
<g
	inkscape:label="Layer 1"
	inkscape:groupmode="layer"
	id="layer1">
	<path style="fill:none;stroke:red;stroke-width:1px;stroke-linecap:butt;stroke-linejoin:miter;stroke-opacity:1" d="M 4,400.8 19.5608,354.118 z" id="boundary" inkscape:connector-curvature="0" />
	<path style="fill:none;stroke:red;stroke-width:1px;stroke-linecap:butt;stroke-linejoin:miter;stroke-opacity:1" d="M 4,400.8 35.1216,428.031 z" id="boundary" inkscape:connector-curvature="0" />
	<path style="fill:none;stroke:red;stroke-width:1px;stroke-linecap:butt;stroke-linejoin:miter;stroke-opacity:1" d="M 19.5608,354.118 35.1216,315.216 z" id="boundary" inkscape:connector-curvature="0" />
	<path style="fill:none;stroke:red;stroke-width:1px;stroke-linecap:butt;stroke-linejoin:miter;stroke-opacity:1" d="M 35.1216,315.216 58.4627,276.314 z" id="boundary" inkscape:connector-curvature="0" />
	<path style="fill:none;stroke:red;stroke-width:1px;stroke-linecap:butt;stroke-linejoin:miter;stroke-opacity:1" d="M 35.1216,428.031 74.0235,428.031 z" id="boundary" inkscape:connector-curvature="0" />
	<path style="fill:none;stroke:red;stroke-width:1px;stroke-linecap:butt;stroke-linejoin:miter;stroke-opacity:1" d="M 58.4627,276.314 81.8039,237.412 z" id="boundary" inkscape:connector-curvature="0" />
	<path style="fill:none;stroke:red;stroke-width:1px;stroke-linecap:butt;stroke-linejoin:miter;stroke-opacity:1" d="M 74.0235,428.031 112.925,435.812 z" id="boundary" inkscape:connector-curvature="0" />
	<path style="fill:none;stroke:red;stroke-width:1px;stroke-linecap:butt;stroke-linejoin:miter;stroke-opacity:1" d="M 81.8039,237.412 112.925,206.29 z" id="boundary" inkscape:connector-curvature="0" />
	<path style="fill:none;stroke:red;stroke-width:1px;stroke-linecap:butt;stroke-linejoin:miter;stroke-opacity:1" d="M 112.925,206.29 136.267,175.169 z" id="boundary" inkscape:connector-curvature="0" />
	<path style="fill:none;stroke:red;stroke-width:1px;stroke-linecap:butt;stroke-linejoin:miter;stroke-opacity:1" d="M 112.925,435.812 151.827,431.922 z" id="boundary" inkscape:connector-curvature="0" />
	<path style="fill:none;stroke:red;stroke-width:1px;stroke-linecap:butt;stroke-linejoin:miter;stroke-opacity:1" d="M 136.267,175.169 167.388,144.047 z" id="boundary" inkscape:connector-curvature="0" />
	<path style="fill:none;stroke:red;stroke-width:1px;stroke-linecap:butt;stroke-linejoin:miter;stroke-opacity:1" d="M 151.827,431.922 190.729,428.031 z" id="boundary" inkscape:connector-curvature="0" />
	<path style="fill:none;stroke:red;stroke-width:1px;stroke-linecap:butt;stroke-linejoin:miter;stroke-opacity:1" d="M 167.388,144.047 190.729,112.925 z" id="boundary" inkscape:connector-curvature="0" />
	<path style="fill:none;stroke:red;stroke-width:1px;stroke-linecap:butt;stroke-linejoin:miter;stroke-opacity:1" d="M 190.729,112.925 221.851,81.8039 z" id="boundary" inkscape:connector-curvature="0" />
	<path style="fill:none;stroke:red;stroke-width:1px;stroke-linecap:butt;stroke-linejoin:miter;stroke-opacity:1" d="M 190.729,428.031 229.631,412.471 z" id="boundary" inkscape:connector-curvature="0" />
	<path style="fill:none;stroke:red;stroke-width:1px;stroke-linecap:butt;stroke-linejoin:miter;stroke-opacity:1" d="M 221.851,81.8039 252.973,58.4627 z" id="boundary" inkscape:connector-curvature="0" />
	<path style="fill:none;stroke:red;stroke-width:1px;stroke-linecap:butt;stroke-linejoin:miter;stroke-opacity:1" d="M 229.631,412.471 260.753,389.129 z" id="boundary" inkscape:connector-curvature="0" />
	<path style="fill:none;stroke:red;stroke-width:1px;stroke-linecap:butt;stroke-linejoin:miter;stroke-opacity:1" d="M 252.973,58.4627 284.094,35.1216 z" id="boundary" inkscape:connector-curvature="0" />
	<path style="fill:none;stroke:red;stroke-width:1px;stroke-linecap:butt;stroke-linejoin:miter;stroke-opacity:1" d="M 260.753,389.129 299.655,377.459 z" id="boundary" inkscape:connector-curvature="0" />
	<path style="fill:none;stroke:red;stroke-width:1px;stroke-linecap:butt;stroke-linejoin:miter;stroke-opacity:1" d="M 284.094,35.1216 322.996,19.5608 z" id="boundary" inkscape:connector-curvature="0" />
	<path style="fill:none;stroke:red;stroke-width:1px;stroke-linecap:butt;stroke-linejoin:miter;stroke-opacity:1" d="M 299.655,377.459 299.655,416.361 z" id="boundary" inkscape:connector-curvature="0" />
	<path style="fill:none;stroke:red;stroke-width:1px;stroke-linecap:butt;stroke-linejoin:miter;stroke-opacity:1" d="M 299.655,416.361 303.545,455.263 z" id="boundary" inkscape:connector-curvature="0" />
	<path style="fill:none;stroke:red;stroke-width:1px;stroke-linecap:butt;stroke-linejoin:miter;stroke-opacity:1" d="M 303.545,455.263 307.435,494.165 z" id="boundary" inkscape:connector-curvature="0" />
	<path style="fill:none;stroke:red;stroke-width:1px;stroke-linecap:butt;stroke-linejoin:miter;stroke-opacity:1" d="M 307.435,494.165 307.435,533.067 z" id="boundary" inkscape:connector-curvature="0" />
	<path style="fill:none;stroke:red;stroke-width:1px;stroke-linecap:butt;stroke-linejoin:miter;stroke-opacity:1" d="M 307.435,533.067 307.435,571.969 z" id="boundary" inkscape:connector-curvature="0" />
	<path style="fill:none;stroke:red;stroke-width:1px;stroke-linecap:butt;stroke-linejoin:miter;stroke-opacity:1" d="M 307.435,571.969 307.435,610.871 z" id="boundary" inkscape:connector-curvature="0" />
	<path style="fill:none;stroke:red;stroke-width:1px;stroke-linecap:butt;stroke-linejoin:miter;stroke-opacity:1" d="M 307.435,610.871 307.435,649.773 z" id="boundary" inkscape:connector-curvature="0" />
	<path style="fill:none;stroke:red;stroke-width:1px;stroke-linecap:butt;stroke-linejoin:miter;stroke-opacity:1" d="M 307.435,649.773 307.435,688.675 z" id="boundary" inkscape:connector-curvature="0" />
	<path style="fill:none;stroke:red;stroke-width:1px;stroke-linecap:butt;stroke-linejoin:miter;stroke-opacity:1" d="M 307.435,688.675 311.325,727.576 z" id="boundary" inkscape:connector-curvature="0" />
	<path style="fill:none;stroke:red;stroke-width:1px;stroke-linecap:butt;stroke-linejoin:miter;stroke-opacity:1" d="M 311.325,727.576 315.216,766.478 z" id="boundary" inkscape:connector-curvature="0" />
	<path style="fill:none;stroke:red;stroke-width:1px;stroke-linecap:butt;stroke-linejoin:miter;stroke-opacity:1" d="M 315.216,766.478 322.996,805.38 z" id="boundary" inkscape:connector-curvature="0" />
	<path style="fill:none;stroke:red;stroke-width:1px;stroke-linecap:butt;stroke-linejoin:miter;stroke-opacity:1" d="M 322.996,19.5608 361.898,4 z" id="boundary" inkscape:connector-curvature="0" />
	<path style="fill:none;stroke:red;stroke-width:1px;stroke-linecap:butt;stroke-linejoin:miter;stroke-opacity:1" d="M 322.996,805.38 322.996,844.282 z" id="boundary" inkscape:connector-curvature="0" />
	<path style="fill:none;stroke:red;stroke-width:1px;stroke-linecap:butt;stroke-linejoin:miter;stroke-opacity:1" d="M 322.996,844.282 330.776,883.184 z" id="boundary" inkscape:connector-curvature="0" />
	<path style="fill:none;stroke:red;stroke-width:1px;stroke-linecap:butt;stroke-linejoin:miter;stroke-opacity:1" d="M 330.776,883.184 338.557,922.086 z" id="boundary" inkscape:connector-curvature="0" />
	<path style="fill:none;stroke:red;stroke-width:1px;stroke-linecap:butt;stroke-linejoin:miter;stroke-opacity:1" d="M 338.557,922.086 338.557,960.988 z" id="boundary" inkscape:connector-curvature="0" />
	<path style="fill:none;stroke:red;stroke-width:1px;stroke-linecap:butt;stroke-linejoin:miter;stroke-opacity:1" d="M 338.557,960.988 358.008,996 z" id="boundary" inkscape:connector-curvature="0" />
	<path style="fill:none;stroke:red;stroke-width:1px;stroke-linecap:butt;stroke-linejoin:miter;stroke-opacity:1" d="M 358.008,712.016 358.008,750.918 z" id="boundary" inkscape:connector-curvature="0" />
	<path style="fill:none;stroke:red;stroke-width:1px;stroke-linecap:butt;stroke-linejoin:miter;stroke-opacity:1" d="M 358.008,750.918 365.788,789.82 z" id="boundary" inkscape:connector-curvature="0" />
	<path style="fill:none;stroke:red;stroke-width:1px;stroke-linecap:butt;stroke-linejoin:miter;stroke-opacity:1" d="M 358.008,996 396.91,996 z" id="boundary" inkscape:connector-curvature="0" />
	<path style="fill:none;stroke:red;stroke-width:1px;stroke-linecap:butt;stroke-linejoin:miter;stroke-opacity:1" d="M 361.898,4 400.8,4 z" id="boundary" inkscape:connector-curvature="0" />
	<path style="fill:none;stroke:red;stroke-width:1px;stroke-linecap:butt;stroke-linejoin:miter;stroke-opacity:1" d="M 365.788,789.82 369.678,828.722 z" id="boundary" inkscape:connector-curvature="0" />
	<path style="fill:none;stroke:red;stroke-width:1px;stroke-linecap:butt;stroke-linejoin:miter;stroke-opacity:1" d="M 369.678,828.722 373.569,867.624 z" id="boundary" inkscape:connector-curvature="0" />
	<path style="fill:none;stroke:red;stroke-width:1px;stroke-linecap:butt;stroke-linejoin:miter;stroke-opacity:1" d="M 373.569,867.624 381.349,906.525 z" id="boundary" inkscape:connector-curvature="0" />
	<path style="fill:none;stroke:red;stroke-width:1px;stroke-linecap:butt;stroke-linejoin:miter;stroke-opacity:1" d="M 396.91,996 435.812,996 z" id="boundary" inkscape:connector-curvature="0" />
	<path style="fill:none;stroke:red;stroke-width:1px;stroke-linecap:butt;stroke-linejoin:miter;stroke-opacity:1" d="M 400.8,4 439.702,4 z" id="boundary" inkscape:connector-curvature="0" />
	<path style="fill:none;stroke:red;stroke-width:1px;stroke-linecap:butt;stroke-linejoin:miter;stroke-opacity:1" d="M 412.471,626.431 412.471,665.333 z" id="boundary" inkscape:connector-curvature="0" />
	<path style="fill:none;stroke:red;stroke-width:1px;stroke-linecap:butt;stroke-linejoin:miter;stroke-opacity:1" d="M 412.471,626.431 420.251,587.529 z" id="boundary" inkscape:connector-curvature="0" />
	<path style="fill:none;stroke:red;stroke-width:1px;stroke-linecap:butt;stroke-linejoin:miter;stroke-opacity:1" d="M 412.471,665.333 412.471,704.235 z" id="boundary" inkscape:connector-curvature="0" />
	<path style="fill:none;stroke:red;stroke-width:1px;stroke-linecap:butt;stroke-linejoin:miter;stroke-opacity:1" d="M 412.471,704.235 420.251,743.137 z" id="boundary" inkscape:connector-curvature="0" />
	<path style="fill:none;stroke:red;stroke-width:1px;stroke-linecap:butt;stroke-linejoin:miter;stroke-opacity:1" d="M 420.251,587.529 435.812,517.506 z" id="boundary" inkscape:connector-curvature="0" />
	<path style="fill:none;stroke:red;stroke-width:1px;stroke-linecap:butt;stroke-linejoin:miter;stroke-opacity:1" d="M 420.251,743.137 420.251,782.039 z" id="boundary" inkscape:connector-curvature="0" />
	<path style="fill:none;stroke:red;stroke-width:1px;stroke-linecap:butt;stroke-linejoin:miter;stroke-opacity:1" d="M 420.251,782.039 428.031,820.941 z" id="boundary" inkscape:connector-curvature="0" />
	<path style="fill:none;stroke:red;stroke-width:1px;stroke-linecap:butt;stroke-linejoin:miter;stroke-opacity:1" d="M 428.031,820.941 435.812,859.843 z" id="boundary" inkscape:connector-curvature="0" />
	<path style="fill:none;stroke:red;stroke-width:1px;stroke-linecap:butt;stroke-linejoin:miter;stroke-opacity:1" d="M 435.812,517.506 451.373,447.482 z" id="boundary" inkscape:connector-curvature="0" />
	<path style="fill:none;stroke:red;stroke-width:1px;stroke-linecap:butt;stroke-linejoin:miter;stroke-opacity:1" d="M 435.812,859.843 435.812,898.745 z" id="boundary" inkscape:connector-curvature="0" />
	<path style="fill:none;stroke:red;stroke-width:1px;stroke-linecap:butt;stroke-linejoin:miter;stroke-opacity:1" d="M 435.812,898.745 443.592,937.647 z" id="boundary" inkscape:connector-curvature="0" />
	<path style="fill:none;stroke:red;stroke-width:1px;stroke-linecap:butt;stroke-linejoin:miter;stroke-opacity:1" d="M 435.812,996 474.714,996 z" id="boundary" inkscape:connector-curvature="0" />
	<path style="fill:none;stroke:red;stroke-width:1px;stroke-linecap:butt;stroke-linejoin:miter;stroke-opacity:1" d="M 439.702,4 478.604,11.7804 z" id="boundary" inkscape:connector-curvature="0" />
	<path style="fill:none;stroke:red;stroke-width:1px;stroke-linecap:butt;stroke-linejoin:miter;stroke-opacity:1" d="M 443.592,937.647 482.494,945.427 z" id="boundary" inkscape:connector-curvature="0" />
	<path style="fill:none;stroke:red;stroke-width:1px;stroke-linecap:butt;stroke-linejoin:miter;stroke-opacity:1" d="M 451.373,447.482 459.153,408.58 z" id="boundary" inkscape:connector-curvature="0" />
	<path style="fill:none;stroke:red;stroke-width:1px;stroke-linecap:butt;stroke-linejoin:miter;stroke-opacity:1" d="M 459.153,408.58 466.933,369.678 z" id="boundary" inkscape:connector-curvature="0" />
	<path style="fill:none;stroke:red;stroke-width:1px;stroke-linecap:butt;stroke-linejoin:miter;stroke-opacity:1" d="M 466.933,369.678 474.714,322.996 z" id="boundary" inkscape:connector-curvature="0" />
	<path style="fill:none;stroke:red;stroke-width:1px;stroke-linecap:butt;stroke-linejoin:miter;stroke-opacity:1" d="M 474.714,322.996 490.275,276.314 z" id="boundary" inkscape:connector-curvature="0" />
	<path style="fill:none;stroke:red;stroke-width:1px;stroke-linecap:butt;stroke-linejoin:miter;stroke-opacity:1" d="M 474.714,996 513.616,988.22 z" id="boundary" inkscape:connector-curvature="0" />
	<path style="fill:none;stroke:red;stroke-width:1px;stroke-linecap:butt;stroke-linejoin:miter;stroke-opacity:1" d="M 478.604,11.7804 517.506,27.3412 z" id="boundary" inkscape:connector-curvature="0" />
	<path style="fill:none;stroke:red;stroke-width:1px;stroke-linecap:butt;stroke-linejoin:miter;stroke-opacity:1" d="M 490.275,276.314 509.725,241.302 z" id="boundary" inkscape:connector-curvature="0" />
	<path style="fill:none;stroke:red;stroke-width:1px;stroke-linecap:butt;stroke-linejoin:miter;stroke-opacity:1" d="M 509.725,241.302 540.847,264.643 z" id="boundary" inkscape:connector-curvature="0" />
	<path style="fill:none;stroke:red;stroke-width:1px;stroke-linecap:butt;stroke-linejoin:miter;stroke-opacity:1" d="M 513.616,988.22 552.518,988.22 z" id="boundary" inkscape:connector-curvature="0" />
	<path style="fill:none;stroke:red;stroke-width:1px;stroke-linecap:butt;stroke-linejoin:miter;stroke-opacity:1" d="M 517.506,27.3412 548.627,50.6824 z" id="boundary" inkscape:connector-curvature="0" />
	<path style="fill:none;stroke:red;stroke-width:1px;stroke-linecap:butt;stroke-linejoin:miter;stroke-opacity:1" d="M 540.847,264.643 548.627,303.545 z" id="boundary" inkscape:connector-curvature="0" />
	<path style="fill:none;stroke:red;stroke-width:1px;stroke-linecap:butt;stroke-linejoin:miter;stroke-opacity:1" d="M 548.627,50.6824 579.749,77.9137 z" id="boundary" inkscape:connector-curvature="0" />
	<path style="fill:none;stroke:red;stroke-width:1px;stroke-linecap:butt;stroke-linejoin:miter;stroke-opacity:1" d="M 548.627,303.545 556.408,342.447 z" id="boundary" inkscape:connector-curvature="0" />
	<path style="fill:none;stroke:red;stroke-width:1px;stroke-linecap:butt;stroke-linejoin:miter;stroke-opacity:1" d="M 556.408,342.447 587.529,365.788 z" id="boundary" inkscape:connector-curvature="0" />
	<path style="fill:none;stroke:red;stroke-width:1px;stroke-linecap:butt;stroke-linejoin:miter;stroke-opacity:1" d="M 587.529,365.788 626.431,373.569 z" id="boundary" inkscape:connector-curvature="0" />
	<path style="fill:none;stroke:red;stroke-width:1px;stroke-linecap:butt;stroke-linejoin:miter;stroke-opacity:1" d="M 599.2,112.925 606.98,151.827 z" id="boundary" inkscape:connector-curvature="0" />
	<path style="fill:none;stroke:red;stroke-width:1px;stroke-linecap:butt;stroke-linejoin:miter;stroke-opacity:1" d="M 599.2,112.925 638.102,116.816 z" id="boundary" inkscape:connector-curvature="0" />
	<path style="fill:none;stroke:red;stroke-width:1px;stroke-linecap:butt;stroke-linejoin:miter;stroke-opacity:1" d="M 626.431,373.569 665.333,358.008 z" id="boundary" inkscape:connector-curvature="0" />
	<path style="fill:none;stroke:red;stroke-width:1px;stroke-linecap:butt;stroke-linejoin:miter;stroke-opacity:1" d="M 638.102,116.816 669.224,85.6941 z" id="boundary" inkscape:connector-curvature="0" />
	<path style="fill:none;stroke:red;stroke-width:1px;stroke-linecap:butt;stroke-linejoin:miter;stroke-opacity:1" d="M 665.333,358.008 684.784,322.996 z" id="boundary" inkscape:connector-curvature="0" />
	<path style="fill:none;stroke:red;stroke-width:1px;stroke-linecap:butt;stroke-linejoin:miter;stroke-opacity:1" d="M 669.224,85.6941 708.125,74.0235 z" id="boundary" inkscape:connector-curvature="0" />
	<path style="fill:none;stroke:red;stroke-width:1px;stroke-linecap:butt;stroke-linejoin:miter;stroke-opacity:1" d="M 684.784,322.996 696.455,268.533 z" id="boundary" inkscape:connector-curvature="0" />
	<path style="fill:none;stroke:red;stroke-width:1px;stroke-linecap:butt;stroke-linejoin:miter;stroke-opacity:1" d="M 692.565,190.729 692.565,229.631 z" id="boundary" inkscape:connector-curvature="0" />
	<path style="fill:none;stroke:red;stroke-width:1px;stroke-linecap:butt;stroke-linejoin:miter;stroke-opacity:1" d="M 692.565,190.729 731.467,194.62 z" id="boundary" inkscape:connector-curvature="0" />
	<path style="fill:none;stroke:red;stroke-width:1px;stroke-linecap:butt;stroke-linejoin:miter;stroke-opacity:1" d="M 692.565,229.631 696.455,268.533 z" id="boundary" inkscape:connector-curvature="0" />
	<path style="fill:none;stroke:red;stroke-width:1px;stroke-linecap:butt;stroke-linejoin:miter;stroke-opacity:1" d="M 708.125,74.0235 747.027,74.0235 z" id="boundary" inkscape:connector-curvature="0" />
	<path style="fill:none;stroke:red;stroke-width:1px;stroke-linecap:butt;stroke-linejoin:miter;stroke-opacity:1" d="M 731.467,194.62 766.478,214.071 z" id="boundary" inkscape:connector-curvature="0" />
	<path style="fill:none;stroke:red;stroke-width:1px;stroke-linecap:butt;stroke-linejoin:miter;stroke-opacity:1" d="M 747.027,74.0235 785.929,89.5843 z" id="boundary" inkscape:connector-curvature="0" />
	<path style="fill:none;stroke:red;stroke-width:1px;stroke-linecap:butt;stroke-linejoin:miter;stroke-opacity:1" d="M 766.478,214.071 801.49,233.522 z" id="boundary" inkscape:connector-curvature="0" />
	<path style="fill:none;stroke:red;stroke-width:1px;stroke-linecap:butt;stroke-linejoin:miter;stroke-opacity:1" d="M 785.929,89.5843 817.051,112.925 z" id="boundary" inkscape:connector-curvature="0" />
	<path style="fill:none;stroke:red;stroke-width:1px;stroke-linecap:butt;stroke-linejoin:miter;stroke-opacity:1" d="M 801.49,233.522 828.722,264.643 z" id="boundary" inkscape:connector-curvature="0" />
	<path style="fill:none;stroke:red;stroke-width:1px;stroke-linecap:butt;stroke-linejoin:miter;stroke-opacity:1" d="M 817.051,112.925 828.722,151.827 z" id="boundary" inkscape:connector-curvature="0" />
	<path style="fill:none;stroke:red;stroke-width:1px;stroke-linecap:butt;stroke-linejoin:miter;stroke-opacity:1" d="M 828.722,151.827 848.173,186.839 z" id="boundary" inkscape:connector-curvature="0" />
	<path style="fill:none;stroke:red;stroke-width:1px;stroke-linecap:butt;stroke-linejoin:miter;stroke-opacity:1" d="M 828.722,264.643 859.843,291.875 z" id="boundary" inkscape:connector-curvature="0" />
	<path style="fill:none;stroke:red;stroke-width:1px;stroke-linecap:butt;stroke-linejoin:miter;stroke-opacity:1" d="M 848.173,186.839 867.624,221.851 z" id="boundary" inkscape:connector-curvature="0" />
	<path style="fill:none;stroke:red;stroke-width:1px;stroke-linecap:butt;stroke-linejoin:miter;stroke-opacity:1" d="M 859.843,291.875 890.965,252.973 z" id="boundary" inkscape:connector-curvature="0" />
	<path style="fill:none;stroke:red;stroke-width:1px;stroke-linecap:butt;stroke-linejoin:miter;stroke-opacity:1" d="M 867.624,221.851 890.965,252.973 z" id="boundary" inkscape:connector-curvature="0" />
	<circle cx="4" cy="400.8" r="4" fill="#0" id="circle0"/>
	<circle cx="19.5608" cy="354.118" r="4" fill="#0" id="circle1"/>
	<circle cx="35.1216" cy="315.216" r="4" fill="#0" id="circle2"/>
	<circle cx="35.1216" cy="428.031" r="4" fill="#0" id="circle3"/>
	<circle cx="58.4627" cy="276.314" r="4" fill="#0" id="circle4"/>
	<circle cx="74.0235" cy="428.031" r="4" fill="#0" id="circle5"/>
	<circle cx="81.8039" cy="237.412" r="4" fill="#0" id="circle6"/>
	<circle cx="112.925" cy="206.29" r="4" fill="#0" id="circle7"/>
	<circle cx="112.925" cy="435.812" r="4" fill="#0" id="circle8"/>
	<circle cx="136.267" cy="175.169" r="4" fill="#0" id="circle9"/>
	<circle cx="151.827" cy="431.922" r="4" fill="#0" id="circle10"/>
	<circle cx="167.388" cy="144.047" r="4" fill="#0" id="circle11"/>
	<circle cx="190.729" cy="112.925" r="4" fill="#0" id="circle12"/>
	<circle cx="190.729" cy="428.031" r="4" fill="#0" id="circle13"/>
	<circle cx="221.851" cy="81.8039" r="4" fill="#0" id="circle14"/>
	<circle cx="229.631" cy="412.471" r="4" fill="#0" id="circle15"/>
	<circle cx="252.973" cy="58.4627" r="4" fill="#0" id="circle16"/>
	<circle cx="260.753" cy="389.129" r="4" fill="#0" id="circle17"/>
	<circle cx="284.094" cy="35.1216" r="4" fill="#0" id="circle18"/>
	<circle cx="299.655" cy="377.459" r="4" fill="#0" id="circle19"/>
	<circle cx="299.655" cy="416.361" r="4" fill="#0" id="circle20"/>
	<circle cx="303.545" cy="455.263" r="4" fill="#0" id="circle21"/>
	<circle cx="307.435" cy="494.165" r="4" fill="#0" id="circle22"/>
	<circle cx="307.435" cy="533.067" r="4" fill="#0" id="circle23"/>
	<circle cx="307.435" cy="571.969" r="4" fill="#0" id="circle24"/>
	<circle cx="307.435" cy="610.871" r="4" fill="#0" id="circle25"/>
	<circle cx="307.435" cy="649.773" r="4" fill="#0" id="circle26"/>
	<circle cx="307.435" cy="688.675" r="4" fill="#0" id="circle27"/>
	<circle cx="311.325" cy="727.576" r="4" fill="#0" id="circle28"/>
	<circle cx="315.216" cy="766.478" r="4" fill="#0" id="circle29"/>
	<circle cx="322.996" cy="19.5608" r="4" fill="#0" id="circle30"/>
	<circle cx="322.996" cy="805.38" r="4" fill="#0" id="circle31"/>
	<circle cx="322.996" cy="844.282" r="4" fill="#0" id="circle32"/>
	<circle cx="330.776" cy="883.184" r="4" fill="#0" id="circle33"/>
	<circle cx="338.557" cy="922.086" r="4" fill="#0" id="circle34"/>
	<circle cx="338.557" cy="960.988" r="4" fill="#0" id="circle35"/>
	<circle cx="358.008" cy="712.016" r="4" fill="#0" id="circle36"/>
	<circle cx="358.008" cy="750.918" r="4" fill="#0" id="circle37"/>
	<circle cx="358.008" cy="996" r="4" fill="#0" id="circle38"/>
	<circle cx="361.898" cy="4" r="4" fill="#0" id="circle39"/>
	<circle cx="365.788" cy="789.82" r="4" fill="#0" id="circle40"/>
	<circle cx="369.678" cy="828.722" r="4" fill="#0" id="circle41"/>
	<circle cx="373.569" cy="867.624" r="4" fill="#0" id="circle42"/>
	<circle cx="381.349" cy="906.525" r="4" fill="#0" id="circle43"/>
	<circle cx="396.91" cy="996" r="4" fill="#0" id="circle44"/>
	<circle cx="400.8" cy="4" r="4" fill="#0" id="circle45"/>
	<circle cx="412.471" cy="626.431" r="4" fill="#0" id="circle46"/>
	<circle cx="412.471" cy="665.333" r="4" fill="#0" id="circle47"/>
	<circle cx="412.471" cy="704.235" r="4" fill="#0" id="circle48"/>
	<circle cx="420.251" cy="587.529" r="4" fill="#0" id="circle49"/>
	<circle cx="420.251" cy="743.137" r="4" fill="#0" id="circle50"/>
	<circle cx="420.251" cy="782.039" r="4" fill="#0" id="circle51"/>
	<circle cx="428.031" cy="820.941" r="4" fill="#0" id="circle52"/>
	<circle cx="435.812" cy="517.506" r="4" fill="#0" id="circle53"/>
	<circle cx="435.812" cy="859.843" r="4" fill="#0" id="circle54"/>
	<circle cx="435.812" cy="898.745" r="4" fill="#0" id="circle55"/>
	<circle cx="435.812" cy="996" r="4" fill="#0" id="circle56"/>
	<circle cx="439.702" cy="4" r="4" fill="#0" id="circle57"/>
	<circle cx="443.592" cy="937.647" r="4" fill="#0" id="circle58"/>
	<circle cx="451.373" cy="447.482" r="4" fill="#0" id="circle59"/>
	<circle cx="459.153" cy="408.58" r="4" fill="#0" id="circle60"/>
	<circle cx="466.933" cy="369.678" r="4" fill="#0" id="circle61"/>
	<circle cx="474.714" cy="322.996" r="4" fill="#0" id="circle62"/>
	<circle cx="474.714" cy="996" r="4" fill="#0" id="circle63"/>
	<circle cx="478.604" cy="11.7804" r="4" fill="#0" id="circle64"/>
	<circle cx="482.494" cy="945.427" r="4" fill="#0" id="circle65"/>
	<circle cx="490.275" cy="276.314" r="4" fill="#0" id="circle66"/>
	<circle cx="509.725" cy="241.302" r="4" fill="#0" id="circle67"/>
	<circle cx="513.616" cy="988.22" r="4" fill="#0" id="circle68"/>
	<circle cx="517.506" cy="27.3412" r="4" fill="#0" id="circle69"/>
	<circle cx="533.067" cy="953.208" r="4" fill="#0" id="circle70"/>
	<circle cx="540.847" cy="264.643" r="4" fill="#0" id="circle71"/>
	<circle cx="548.627" cy="50.6824" r="4" fill="#0" id="circle72"/>
	<circle cx="548.627" cy="303.545" r="4" fill="#0" id="circle73"/>
	<circle cx="552.518" cy="988.22" r="4" fill="#0" id="circle74"/>
	<circle cx="556.408" cy="342.447" r="4" fill="#0" id="circle75"/>
	<circle cx="579.749" cy="77.9137" r="4" fill="#0" id="circle76"/>
	<circle cx="587.529" cy="365.788" r="4" fill="#0" id="circle77"/>
	<circle cx="599.2" cy="112.925" r="4" fill="#0" id="circle78"/>
	<circle cx="606.98" cy="151.827" r="4" fill="#0" id="circle79"/>
	<circle cx="626.431" cy="373.569" r="4" fill="#0" id="circle80"/>
	<circle cx="638.102" cy="116.816" r="4" fill="#0" id="circle81"/>
	<circle cx="665.333" cy="358.008" r="4" fill="#0" id="circle82"/>
	<circle cx="669.224" cy="85.6941" r="4" fill="#0" id="circle83"/>
	<circle cx="684.784" cy="322.996" r="4" fill="#0" id="circle84"/>
	<circle cx="692.565" cy="190.729" r="4" fill="#0" id="circle85"/>
	<circle cx="692.565" cy="229.631" r="4" fill="#0" id="circle86"/>
	<circle cx="696.455" cy="268.533" r="4" fill="#0" id="circle87"/>
	<circle cx="708.125" cy="74.0235" r="4" fill="#0" id="circle88"/>
	<circle cx="731.467" cy="194.62" r="4" fill="#0" id="circle89"/>
	<circle cx="747.027" cy="74.0235" r="4" fill="#0" id="circle90"/>
	<circle cx="766.478" cy="214.071" r="4" fill="#0" id="circle91"/>
	<circle cx="785.929" cy="89.5843" r="4" fill="#0" id="circle92"/>
	<circle cx="801.49" cy="233.522" r="4" fill="#0" id="circle93"/>
	<circle cx="817.051" cy="112.925" r="4" fill="#0" id="circle94"/>
	<circle cx="828.722" cy="151.827" r="4" fill="#0" id="circle95"/>
	<circle cx="828.722" cy="264.643" r="4" fill="#0" id="circle96"/>
	<circle cx="848.173" cy="186.839" r="4" fill="#0" id="circle97"/>
	<circle cx="859.843" cy="291.875" r="4" fill="#0" id="circle98"/>
	<circle cx="867.624" cy="221.851" r="4" fill="#0" id="circle99"/>
	<circle cx="890.965" cy="252.973" r="4" fill="#0" id="circle100"/>
	</g>
</svg>