<?xml version="1.0" encoding="UTF-8" standalone="no"?>
<!-- Created with CurveBenchmark -->
<svg
	xmlns:dc="http://purl.org/dc/elements/1.1/"
	xmlns:cc="http://creativecommons.org/ns#"
	xmlns:rdf="http://www.w3.org/1999/02/22-rdf-syntax-ns#"
	xmlns:svg="http://www.w3.org/2000/svg"
	xmlns="http://www.w3.org/2000/svg"
	xmlns:sodipodi="http://sodipodi.sourceforge.net/DTD/sodipodi-0.dtd"
	xmlns:inkscape="http://www.inkscape.org/namespaces/inkscape"
	width="1000"
	height="1000"
	id="svg2"
	version="1.1"
	sodipodi:docname="manifold/hnncrust-textbox06.png.txt">
<defs
	id="defs4" />
<metadata
	id="metadata7">
	<rdf:RDF>
		<cc:Work
			rdf:about="">
			<dc:format>image/svg+xml</dc:format>
			<dc:type
				rdf:resource="http://purl.org/dc/dcmitype/StillImage" />
			<dc:title></dc:title>
		</cc:Work>
	</rdf:RDF>
</metadata>
<g
	inkscape:label="Layer 1"
	inkscape:groupmode="layer"
	id="layer1">
	<path style="fill:none;stroke:red;stroke-width:1px;stroke-linecap:butt;stroke-linejoin:miter;stroke-opacity:1" d="M 4,268.058 4,285.899 z" id="boundary" inkscape:connector-curvature="0" />
	<path style="fill:none;stroke:red;stroke-width:1px;stroke-linecap:butt;stroke-linejoin:miter;stroke-opacity:1" d="M 4,268.058 12.9209,250.216 z" id="boundary" inkscape:connector-curvature="0" />
	<path style="fill:none;stroke:red;stroke-width:1px;stroke-linecap:butt;stroke-linejoin:miter;stroke-opacity:1" d="M 4,285.899 4,303.741 z" id="boundary" inkscape:connector-curvature="0" />
	<path style="fill:none;stroke:red;stroke-width:1px;stroke-linecap:butt;stroke-linejoin:miter;stroke-opacity:1" d="M 4,303.741 4,321.583 z" id="boundary" inkscape:connector-curvature="0" />
	<path style="fill:none;stroke:red;stroke-width:1px;stroke-linecap:butt;stroke-linejoin:miter;stroke-opacity:1" d="M 4,321.583 12.9209,337.64 z" id="boundary" inkscape:connector-curvature="0" />
	<path style="fill:none;stroke:red;stroke-width:1px;stroke-linecap:butt;stroke-linejoin:miter;stroke-opacity:1" d="M 12.9209,232.374 12.9209,250.216 z" id="boundary" inkscape:connector-curvature="0" />
	<path style="fill:none;stroke:red;stroke-width:1px;stroke-linecap:butt;stroke-linejoin:miter;stroke-opacity:1" d="M 12.9209,232.374 30.7626,223.453 z" id="boundary" inkscape:connector-curvature="0" />
	<path style="fill:none;stroke:red;stroke-width:1px;stroke-linecap:butt;stroke-linejoin:miter;stroke-opacity:1" d="M 12.9209,337.64 12.9209,355.482 z" id="boundary" inkscape:connector-curvature="0" />
	<path style="fill:none;stroke:red;stroke-width:1px;stroke-linecap:butt;stroke-linejoin:miter;stroke-opacity:1" d="M 12.9209,355.482 21.8417,371.54 z" id="boundary" inkscape:connector-curvature="0" />
	<path style="fill:none;stroke:red;stroke-width:1px;stroke-linecap:butt;stroke-linejoin:miter;stroke-opacity:1" d="M 21.8417,371.54 37.8993,380.46 z" id="boundary" inkscape:connector-curvature="0" />
	<path style="fill:none;stroke:red;stroke-width:1px;stroke-linecap:butt;stroke-linejoin:miter;stroke-opacity:1" d="M 30.7626,205.612 30.7626,223.453 z" id="boundary" inkscape:connector-curvature="0" />
	<path style="fill:none;stroke:red;stroke-width:1px;stroke-linecap:butt;stroke-linejoin:miter;stroke-opacity:1" d="M 30.7626,205.612 39.6835,178.849 z" id="boundary" inkscape:connector-curvature="0" />
	<path style="fill:none;stroke:red;stroke-width:1px;stroke-linecap:butt;stroke-linejoin:miter;stroke-opacity:1" d="M 37.8993,380.46 39.6835,398.302 z" id="boundary" inkscape:connector-curvature="0" />
	<path style="fill:none;stroke:red;stroke-width:1px;stroke-linecap:butt;stroke-linejoin:miter;stroke-opacity:1" d="M 39.6835,178.849 48.6043,161.007 z" id="boundary" inkscape:connector-curvature="0" />
	<path style="fill:none;stroke:red;stroke-width:1px;stroke-linecap:butt;stroke-linejoin:miter;stroke-opacity:1" d="M 39.6835,398.302 50.3885,412.576 z" id="boundary" inkscape:connector-curvature="0" />
	<path style="fill:none;stroke:red;stroke-width:1px;stroke-linecap:butt;stroke-linejoin:miter;stroke-opacity:1" d="M 48.6043,161.007 66.446,152.086 z" id="boundary" inkscape:connector-curvature="0" />
	<path style="fill:none;stroke:red;stroke-width:1px;stroke-linecap:butt;stroke-linejoin:miter;stroke-opacity:1" d="M 50.3885,412.576 66.446,421.496 z" id="boundary" inkscape:connector-curvature="0" />
	<path style="fill:none;stroke:red;stroke-width:1px;stroke-linecap:butt;stroke-linejoin:miter;stroke-opacity:1" d="M 66.446,134.245 66.446,152.086 z" id="boundary" inkscape:connector-curvature="0" />
	<path style="fill:none;stroke:red;stroke-width:1px;stroke-linecap:butt;stroke-linejoin:miter;stroke-opacity:1" d="M 66.446,134.245 80.7194,119.971 z" id="boundary" inkscape:connector-curvature="0" />
	<path style="fill:none;stroke:red;stroke-width:1px;stroke-linecap:butt;stroke-linejoin:miter;stroke-opacity:1" d="M 66.446,421.496 75.3669,437.554 z" id="boundary" inkscape:connector-curvature="0" />
	<path style="fill:none;stroke:red;stroke-width:1px;stroke-linecap:butt;stroke-linejoin:miter;stroke-opacity:1" d="M 75.3669,437.554 93.2086,442.906 z" id="boundary" inkscape:connector-curvature="0" />
	<path style="fill:none;stroke:red;stroke-width:1px;stroke-linecap:butt;stroke-linejoin:miter;stroke-opacity:1" d="M 80.7194,119.971 94.9928,105.698 z" id="boundary" inkscape:connector-curvature="0" />
	<path style="fill:none;stroke:red;stroke-width:1px;stroke-linecap:butt;stroke-linejoin:miter;stroke-opacity:1" d="M 93.2086,442.906 103.914,457.18 z" id="boundary" inkscape:connector-curvature="0" />
	<path style="fill:none;stroke:red;stroke-width:1px;stroke-linecap:butt;stroke-linejoin:miter;stroke-opacity:1" d="M 94.9928,105.698 112.835,102.129 z" id="boundary" inkscape:connector-curvature="0" />
	<path style="fill:none;stroke:red;stroke-width:1px;stroke-linecap:butt;stroke-linejoin:miter;stroke-opacity:1" d="M 103.914,457.18 121.755,464.317 z" id="boundary" inkscape:connector-curvature="0" />
	<path style="fill:none;stroke:red;stroke-width:1px;stroke-linecap:butt;stroke-linejoin:miter;stroke-opacity:1" d="M 112.835,102.129 128.892,93.2086 z" id="boundary" inkscape:connector-curvature="0" />
	<path style="fill:none;stroke:red;stroke-width:1px;stroke-linecap:butt;stroke-linejoin:miter;stroke-opacity:1" d="M 121.755,464.317 139.597,469.669 z" id="boundary" inkscape:connector-curvature="0" />
	<path style="fill:none;stroke:red;stroke-width:1px;stroke-linecap:butt;stroke-linejoin:miter;stroke-opacity:1" d="M 128.892,93.2086 146.734,89.6403 z" id="boundary" inkscape:connector-curvature="0" />
	<path style="fill:none;stroke:red;stroke-width:1px;stroke-linecap:butt;stroke-linejoin:miter;stroke-opacity:1" d="M 139.597,469.669 150.302,483.942 z" id="boundary" inkscape:connector-curvature="0" />
	<path style="fill:none;stroke:red;stroke-width:1px;stroke-linecap:butt;stroke-linejoin:miter;stroke-opacity:1" d="M 146.734,89.6403 164.576,84.2878 z" id="boundary" inkscape:connector-curvature="0" />
	<path style="fill:none;stroke:red;stroke-width:1px;stroke-linecap:butt;stroke-linejoin:miter;stroke-opacity:1" d="M 150.302,483.942 168.144,487.511 z" id="boundary" inkscape:connector-curvature="0" />
	<path style="fill:none;stroke:red;stroke-width:1px;stroke-linecap:butt;stroke-linejoin:miter;stroke-opacity:1" d="M 164.576,84.2878 175.281,70.0144 z" id="boundary" inkscape:connector-curvature="0" />
	<path style="fill:none;stroke:red;stroke-width:1px;stroke-linecap:butt;stroke-linejoin:miter;stroke-opacity:1" d="M 168.144,487.511 184.201,496.432 z" id="boundary" inkscape:connector-curvature="0" />
	<path style="fill:none;stroke:red;stroke-width:1px;stroke-linecap:butt;stroke-linejoin:miter;stroke-opacity:1" d="M 175.281,70.0144 193.122,66.446 z" id="boundary" inkscape:connector-curvature="0" />
	<path style="fill:none;stroke:red;stroke-width:1px;stroke-linecap:butt;stroke-linejoin:miter;stroke-opacity:1" d="M 184.201,496.432 200.259,505.353 z" id="boundary" inkscape:connector-curvature="0" />
	<path style="fill:none;stroke:red;stroke-width:1px;stroke-linecap:butt;stroke-linejoin:miter;stroke-opacity:1" d="M 193.122,66.446 210.964,61.0935 z" id="boundary" inkscape:connector-curvature="0" />
	<path style="fill:none;stroke:red;stroke-width:1px;stroke-linecap:butt;stroke-linejoin:miter;stroke-opacity:1" d="M 200.259,505.353 216.317,514.273 z" id="boundary" inkscape:connector-curvature="0" />
	<path style="fill:none;stroke:red;stroke-width:1px;stroke-linecap:butt;stroke-linejoin:miter;stroke-opacity:1" d="M 210.964,61.0935 228.806,57.5252 z" id="boundary" inkscape:connector-curvature="0" />
	<path style="fill:none;stroke:red;stroke-width:1px;stroke-linecap:butt;stroke-linejoin:miter;stroke-opacity:1" d="M 216.317,514.273 232.374,523.194 z" id="boundary" inkscape:connector-curvature="0" />
	<path style="fill:none;stroke:red;stroke-width:1px;stroke-linecap:butt;stroke-linejoin:miter;stroke-opacity:1" d="M 228.806,57.5252 244.863,45.036 z" id="boundary" inkscape:connector-curvature="0" />
	<path style="fill:none;stroke:red;stroke-width:1px;stroke-linecap:butt;stroke-linejoin:miter;stroke-opacity:1" d="M 232.374,523.194 235.942,541.036 z" id="boundary" inkscape:connector-curvature="0" />
	<path style="fill:none;stroke:red;stroke-width:1px;stroke-linecap:butt;stroke-linejoin:miter;stroke-opacity:1" d="M 235.942,541.036 235.942,558.878 z" id="boundary" inkscape:connector-curvature="0" />
	<path style="fill:none;stroke:red;stroke-width:1px;stroke-linecap:butt;stroke-linejoin:miter;stroke-opacity:1" d="M 235.942,558.878 235.942,576.719 z" id="boundary" inkscape:connector-curvature="0" />
	<path style="fill:none;stroke:red;stroke-width:1px;stroke-linecap:butt;stroke-linejoin:miter;stroke-opacity:1" d="M 235.942,576.719 235.942,594.561 z" id="boundary" inkscape:connector-curvature="0" />
	<path style="fill:none;stroke:red;stroke-width:1px;stroke-linecap:butt;stroke-linejoin:miter;stroke-opacity:1" d="M 235.942,594.561 235.942,612.403 z" id="boundary" inkscape:connector-curvature="0" />
	<path style="fill:none;stroke:red;stroke-width:1px;stroke-linecap:butt;stroke-linejoin:miter;stroke-opacity:1" d="M 235.942,612.403 235.942,630.245 z" id="boundary" inkscape:connector-curvature="0" />
	<path style="fill:none;stroke:red;stroke-width:1px;stroke-linecap:butt;stroke-linejoin:miter;stroke-opacity:1" d="M 235.942,630.245 235.942,648.086 z" id="boundary" inkscape:connector-curvature="0" />
	<path style="fill:none;stroke:red;stroke-width:1px;stroke-linecap:butt;stroke-linejoin:miter;stroke-opacity:1" d="M 235.942,648.086 235.942,665.928 z" id="boundary" inkscape:connector-curvature="0" />
	<path style="fill:none;stroke:red;stroke-width:1px;stroke-linecap:butt;stroke-linejoin:miter;stroke-opacity:1" d="M 235.942,665.928 235.942,683.77 z" id="boundary" inkscape:connector-curvature="0" />
	<path style="fill:none;stroke:red;stroke-width:1px;stroke-linecap:butt;stroke-linejoin:miter;stroke-opacity:1" d="M 235.942,683.77 253.784,683.77 z" id="boundary" inkscape:connector-curvature="0" />
	<path style="fill:none;stroke:red;stroke-width:1px;stroke-linecap:butt;stroke-linejoin:miter;stroke-opacity:1" d="M 244.863,45.036 262.705,39.6835 z" id="boundary" inkscape:connector-curvature="0" />
	<path style="fill:none;stroke:red;stroke-width:1px;stroke-linecap:butt;stroke-linejoin:miter;stroke-opacity:1" d="M 253.784,683.77 264.489,665.928 z" id="boundary" inkscape:connector-curvature="0" />
	<path style="fill:none;stroke:red;stroke-width:1px;stroke-linecap:butt;stroke-linejoin:miter;stroke-opacity:1" d="M 262.705,39.6835 280.547,39.6835 z" id="boundary" inkscape:connector-curvature="0" />
	<path style="fill:none;stroke:red;stroke-width:1px;stroke-linecap:butt;stroke-linejoin:miter;stroke-opacity:1" d="M 264.489,665.928 282.331,665.928 z" id="boundary" inkscape:connector-curvature="0" />
	<path style="fill:none;stroke:red;stroke-width:1px;stroke-linecap:butt;stroke-linejoin:miter;stroke-opacity:1" d="M 280.547,39.6835 296.604,30.7626 z" id="boundary" inkscape:connector-curvature="0" />
	<path style="fill:none;stroke:red;stroke-width:1px;stroke-linecap:butt;stroke-linejoin:miter;stroke-opacity:1" d="M 282.331,665.928 296.604,653.439 z" id="boundary" inkscape:connector-curvature="0" />
	<path style="fill:none;stroke:red;stroke-width:1px;stroke-linecap:butt;stroke-linejoin:miter;stroke-opacity:1" d="M 296.604,30.7626 314.446,30.7626 z" id="boundary" inkscape:connector-curvature="0" />
	<path style="fill:none;stroke:red;stroke-width:1px;stroke-linecap:butt;stroke-linejoin:miter;stroke-opacity:1" d="M 296.604,653.439 307.309,639.165 z" id="boundary" inkscape:connector-curvature="0" />
	<path style="fill:none;stroke:red;stroke-width:1px;stroke-linecap:butt;stroke-linejoin:miter;stroke-opacity:1" d="M 307.309,639.165 323.367,630.245 z" id="boundary" inkscape:connector-curvature="0" />
	<path style="fill:none;stroke:red;stroke-width:1px;stroke-linecap:butt;stroke-linejoin:miter;stroke-opacity:1" d="M 314.446,30.7626 332.288,30.7626 z" id="boundary" inkscape:connector-curvature="0" />
	<path style="fill:none;stroke:red;stroke-width:1px;stroke-linecap:butt;stroke-linejoin:miter;stroke-opacity:1" d="M 323.367,630.245 341.209,626.676 z" id="boundary" inkscape:connector-curvature="0" />
	<path style="fill:none;stroke:red;stroke-width:1px;stroke-linecap:butt;stroke-linejoin:miter;stroke-opacity:1" d="M 332.288,30.7626 350.129,30.7626 z" id="boundary" inkscape:connector-curvature="0" />
	<path style="fill:none;stroke:red;stroke-width:1px;stroke-linecap:butt;stroke-linejoin:miter;stroke-opacity:1" d="M 341.209,626.676 350.129,608.835 z" id="boundary" inkscape:connector-curvature="0" />
	<path style="fill:none;stroke:red;stroke-width:1px;stroke-linecap:butt;stroke-linejoin:miter;stroke-opacity:1" d="M 350.129,30.7626 357.266,12.9209 z" id="boundary" inkscape:connector-curvature="0" />
	<path style="fill:none;stroke:red;stroke-width:1px;stroke-linecap:butt;stroke-linejoin:miter;stroke-opacity:1" d="M 350.129,608.835 367.971,599.914 z" id="boundary" inkscape:connector-curvature="0" />
	<path style="fill:none;stroke:red;stroke-width:1px;stroke-linecap:butt;stroke-linejoin:miter;stroke-opacity:1" d="M 357.266,12.9209 375.108,12.9209 z" id="boundary" inkscape:connector-curvature="0" />
	<path style="fill:none;stroke:red;stroke-width:1px;stroke-linecap:butt;stroke-linejoin:miter;stroke-opacity:1" d="M 367.971,599.914 378.676,585.64 z" id="boundary" inkscape:connector-curvature="0" />
	<path style="fill:none;stroke:red;stroke-width:1px;stroke-linecap:butt;stroke-linejoin:miter;stroke-opacity:1" d="M 375.108,12.9209 392.95,12.9209 z" id="boundary" inkscape:connector-curvature="0" />
	<path style="fill:none;stroke:red;stroke-width:1px;stroke-linecap:butt;stroke-linejoin:miter;stroke-opacity:1" d="M 378.676,585.64 394.734,576.719 z" id="boundary" inkscape:connector-curvature="0" />
	<path style="fill:none;stroke:red;stroke-width:1px;stroke-linecap:butt;stroke-linejoin:miter;stroke-opacity:1" d="M 392.95,12.9209 410.791,12.9209 z" id="boundary" inkscape:connector-curvature="0" />
	<path style="fill:none;stroke:red;stroke-width:1px;stroke-linecap:butt;stroke-linejoin:miter;stroke-opacity:1" d="M 394.734,576.719 410.791,567.799 z" id="boundary" inkscape:connector-curvature="0" />
	<path style="fill:none;stroke:red;stroke-width:1px;stroke-linecap:butt;stroke-linejoin:miter;stroke-opacity:1" d="M 410.791,12.9209 428.633,12.9209 z" id="boundary" inkscape:connector-curvature="0" />
	<path style="fill:none;stroke:red;stroke-width:1px;stroke-linecap:butt;stroke-linejoin:miter;stroke-opacity:1" d="M 410.791,567.799 428.633,567.799 z" id="boundary" inkscape:connector-curvature="0" />
	<path style="fill:none;stroke:red;stroke-width:1px;stroke-linecap:butt;stroke-linejoin:miter;stroke-opacity:1" d="M 428.633,12.9209 446.475,4 z" id="boundary" inkscape:connector-curvature="0" />
	<path style="fill:none;stroke:red;stroke-width:1px;stroke-linecap:butt;stroke-linejoin:miter;stroke-opacity:1" d="M 428.633,567.799 446.475,567.799 z" id="boundary" inkscape:connector-curvature="0" />
	<path style="fill:none;stroke:red;stroke-width:1px;stroke-linecap:butt;stroke-linejoin:miter;stroke-opacity:1" d="M 446.475,4 464.317,4 z" id="boundary" inkscape:connector-curvature="0" />
	<path style="fill:none;stroke:red;stroke-width:1px;stroke-linecap:butt;stroke-linejoin:miter;stroke-opacity:1" d="M 446.475,567.799 464.317,567.799 z" id="boundary" inkscape:connector-curvature="0" />
	<path style="fill:none;stroke:red;stroke-width:1px;stroke-linecap:butt;stroke-linejoin:miter;stroke-opacity:1" d="M 464.317,4 482.158,4 z" id="boundary" inkscape:connector-curvature="0" />
	<path style="fill:none;stroke:red;stroke-width:1px;stroke-linecap:butt;stroke-linejoin:miter;stroke-opacity:1" d="M 464.317,567.799 482.158,567.799 z" id="boundary" inkscape:connector-curvature="0" />
	<path style="fill:none;stroke:red;stroke-width:1px;stroke-linecap:butt;stroke-linejoin:miter;stroke-opacity:1" d="M 482.158,4 500,4 z" id="boundary" inkscape:connector-curvature="0" />
	<path style="fill:none;stroke:red;stroke-width:1px;stroke-linecap:butt;stroke-linejoin:miter;stroke-opacity:1" d="M 482.158,567.799 500,567.799 z" id="boundary" inkscape:connector-curvature="0" />
	<path style="fill:none;stroke:red;stroke-width:1px;stroke-linecap:butt;stroke-linejoin:miter;stroke-opacity:1" d="M 500,4 517.842,4 z" id="boundary" inkscape:connector-curvature="0" />
	<path style="fill:none;stroke:red;stroke-width:1px;stroke-linecap:butt;stroke-linejoin:miter;stroke-opacity:1" d="M 500,567.799 517.842,567.799 z" id="boundary" inkscape:connector-curvature="0" />
	<path style="fill:none;stroke:red;stroke-width:1px;stroke-linecap:butt;stroke-linejoin:miter;stroke-opacity:1" d="M 517.842,4 533.899,12.9209 z" id="boundary" inkscape:connector-curvature="0" />
	<path style="fill:none;stroke:red;stroke-width:1px;stroke-linecap:butt;stroke-linejoin:miter;stroke-opacity:1" d="M 517.842,567.799 532.115,549.957 z" id="boundary" inkscape:connector-curvature="0" />
	<path style="fill:none;stroke:red;stroke-width:1px;stroke-linecap:butt;stroke-linejoin:miter;stroke-opacity:1" d="M 532.115,549.957 549.957,549.957 z" id="boundary" inkscape:connector-curvature="0" />
	<path style="fill:none;stroke:red;stroke-width:1px;stroke-linecap:butt;stroke-linejoin:miter;stroke-opacity:1" d="M 533.899,12.9209 551.741,12.9209 z" id="boundary" inkscape:connector-curvature="0" />
	<path style="fill:none;stroke:red;stroke-width:1px;stroke-linecap:butt;stroke-linejoin:miter;stroke-opacity:1" d="M 549.957,549.957 567.799,549.957 z" id="boundary" inkscape:connector-curvature="0" />
	<path style="fill:none;stroke:red;stroke-width:1px;stroke-linecap:butt;stroke-linejoin:miter;stroke-opacity:1" d="M 551.741,12.9209 569.583,12.9209 z" id="boundary" inkscape:connector-curvature="0" />
	<path style="fill:none;stroke:red;stroke-width:1px;stroke-linecap:butt;stroke-linejoin:miter;stroke-opacity:1" d="M 567.799,549.957 585.64,549.957 z" id="boundary" inkscape:connector-curvature="0" />
	<path style="fill:none;stroke:red;stroke-width:1px;stroke-linecap:butt;stroke-linejoin:miter;stroke-opacity:1" d="M 569.583,12.9209 587.424,12.9209 z" id="boundary" inkscape:connector-curvature="0" />
	<path style="fill:none;stroke:red;stroke-width:1px;stroke-linecap:butt;stroke-linejoin:miter;stroke-opacity:1" d="M 585.64,549.957 603.482,549.957 z" id="boundary" inkscape:connector-curvature="0" />
	<path style="fill:none;stroke:red;stroke-width:1px;stroke-linecap:butt;stroke-linejoin:miter;stroke-opacity:1" d="M 587.424,12.9209 605.266,12.9209 z" id="boundary" inkscape:connector-curvature="0" />
	<path style="fill:none;stroke:red;stroke-width:1px;stroke-linecap:butt;stroke-linejoin:miter;stroke-opacity:1" d="M 603.482,549.957 621.324,549.957 z" id="boundary" inkscape:connector-curvature="0" />
	<path style="fill:none;stroke:red;stroke-width:1px;stroke-linecap:butt;stroke-linejoin:miter;stroke-opacity:1" d="M 605.266,12.9209 623.108,12.9209 z" id="boundary" inkscape:connector-curvature="0" />
	<path style="fill:none;stroke:red;stroke-width:1px;stroke-linecap:butt;stroke-linejoin:miter;stroke-opacity:1" d="M 621.324,549.957 639.165,541.036 z" id="boundary" inkscape:connector-curvature="0" />
	<path style="fill:none;stroke:red;stroke-width:1px;stroke-linecap:butt;stroke-linejoin:miter;stroke-opacity:1" d="M 623.108,12.9209 639.165,21.8417 z" id="boundary" inkscape:connector-curvature="0" />
	<path style="fill:none;stroke:red;stroke-width:1px;stroke-linecap:butt;stroke-linejoin:miter;stroke-opacity:1" d="M 639.165,21.8417 655.223,30.7626 z" id="boundary" inkscape:connector-curvature="0" />
	<path style="fill:none;stroke:red;stroke-width:1px;stroke-linecap:butt;stroke-linejoin:miter;stroke-opacity:1" d="M 639.165,541.036 657.007,541.036 z" id="boundary" inkscape:connector-curvature="0" />
	<path style="fill:none;stroke:red;stroke-width:1px;stroke-linecap:butt;stroke-linejoin:miter;stroke-opacity:1" d="M 655.223,30.7626 673.065,30.7626 z" id="boundary" inkscape:connector-curvature="0" />
	<path style="fill:none;stroke:red;stroke-width:1px;stroke-linecap:butt;stroke-linejoin:miter;stroke-opacity:1" d="M 657.007,541.036 674.849,541.036 z" id="boundary" inkscape:connector-curvature="0" />
	<path style="fill:none;stroke:red;stroke-width:1px;stroke-linecap:butt;stroke-linejoin:miter;stroke-opacity:1" d="M 673.065,30.7626 690.906,30.7626 z" id="boundary" inkscape:connector-curvature="0" />
	<path style="fill:none;stroke:red;stroke-width:1px;stroke-linecap:butt;stroke-linejoin:miter;stroke-opacity:1" d="M 674.849,541.036 692.691,541.036 z" id="boundary" inkscape:connector-curvature="0" />
	<path style="fill:none;stroke:red;stroke-width:1px;stroke-linecap:butt;stroke-linejoin:miter;stroke-opacity:1" d="M 690.906,30.7626 706.964,39.6835 z" id="boundary" inkscape:connector-curvature="0" />
	<path style="fill:none;stroke:red;stroke-width:1px;stroke-linecap:butt;stroke-linejoin:miter;stroke-opacity:1" d="M 692.691,541.036 701.612,523.194 z" id="boundary" inkscape:connector-curvature="0" />
	<path style="fill:none;stroke:red;stroke-width:1px;stroke-linecap:butt;stroke-linejoin:miter;stroke-opacity:1" d="M 701.612,523.194 719.453,523.194 z" id="boundary" inkscape:connector-curvature="0" />
	<path style="fill:none;stroke:red;stroke-width:1px;stroke-linecap:butt;stroke-linejoin:miter;stroke-opacity:1" d="M 706.964,39.6835 724.806,39.6835 z" id="boundary" inkscape:connector-curvature="0" />
	<path style="fill:none;stroke:red;stroke-width:1px;stroke-linecap:butt;stroke-linejoin:miter;stroke-opacity:1" d="M 719.453,523.194 737.295,523.194 z" id="boundary" inkscape:connector-curvature="0" />
	<path style="fill:none;stroke:red;stroke-width:1px;stroke-linecap:butt;stroke-linejoin:miter;stroke-opacity:1" d="M 724.806,39.6835 742.647,41.4676 z" id="boundary" inkscape:connector-curvature="0" />
	<path style="fill:none;stroke:red;stroke-width:1px;stroke-linecap:butt;stroke-linejoin:miter;stroke-opacity:1" d="M 737.295,523.194 753.353,514.273 z" id="boundary" inkscape:connector-curvature="0" />
	<path style="fill:none;stroke:red;stroke-width:1px;stroke-linecap:butt;stroke-linejoin:miter;stroke-opacity:1" d="M 742.647,41.4676 751.568,57.5252 z" id="boundary" inkscape:connector-curvature="0" />
	<path style="fill:none;stroke:red;stroke-width:1px;stroke-linecap:butt;stroke-linejoin:miter;stroke-opacity:1" d="M 751.568,57.5252 769.41,57.5252 z" id="boundary" inkscape:connector-curvature="0" />
	<path style="fill:none;stroke:red;stroke-width:1px;stroke-linecap:butt;stroke-linejoin:miter;stroke-opacity:1" d="M 753.353,514.273 771.194,514.273 z" id="boundary" inkscape:connector-curvature="0" />
	<path style="fill:none;stroke:red;stroke-width:1px;stroke-linecap:butt;stroke-linejoin:miter;stroke-opacity:1" d="M 769.41,57.5252 785.468,66.446 z" id="boundary" inkscape:connector-curvature="0" />
	<path style="fill:none;stroke:red;stroke-width:1px;stroke-linecap:butt;stroke-linejoin:miter;stroke-opacity:1" d="M 771.194,514.273 781.899,496.432 z" id="boundary" inkscape:connector-curvature="0" />
	<path style="fill:none;stroke:red;stroke-width:1px;stroke-linecap:butt;stroke-linejoin:miter;stroke-opacity:1" d="M 781.899,496.432 799.741,496.432 z" id="boundary" inkscape:connector-curvature="0" />
	<path style="fill:none;stroke:red;stroke-width:1px;stroke-linecap:butt;stroke-linejoin:miter;stroke-opacity:1" d="M 785.468,66.446 803.309,66.446 z" id="boundary" inkscape:connector-curvature="0" />
	<path style="fill:none;stroke:red;stroke-width:1px;stroke-linecap:butt;stroke-linejoin:miter;stroke-opacity:1" d="M 799.741,496.432 817.583,496.432 z" id="boundary" inkscape:connector-curvature="0" />
	<path style="fill:none;stroke:red;stroke-width:1px;stroke-linecap:butt;stroke-linejoin:miter;stroke-opacity:1" d="M 803.309,66.446 821.151,66.446 z" id="boundary" inkscape:connector-curvature="0" />
	<path style="fill:none;stroke:red;stroke-width:1px;stroke-linecap:butt;stroke-linejoin:miter;stroke-opacity:1" d="M 817.583,496.432 833.64,487.511 z" id="boundary" inkscape:connector-curvature="0" />
	<path style="fill:none;stroke:red;stroke-width:1px;stroke-linecap:butt;stroke-linejoin:miter;stroke-opacity:1" d="M 821.151,66.446 826.504,84.2878 z" id="boundary" inkscape:connector-curvature="0" />
	<path style="fill:none;stroke:red;stroke-width:1px;stroke-linecap:butt;stroke-linejoin:miter;stroke-opacity:1" d="M 826.504,84.2878 844.345,89.6403 z" id="boundary" inkscape:connector-curvature="0" />
	<path style="fill:none;stroke:red;stroke-width:1px;stroke-linecap:butt;stroke-linejoin:miter;stroke-opacity:1" d="M 833.64,487.511 844.345,469.669 z" id="boundary" inkscape:connector-curvature="0" />
	<path style="fill:none;stroke:red;stroke-width:1px;stroke-linecap:butt;stroke-linejoin:miter;stroke-opacity:1" d="M 844.345,89.6403 862.187,93.2086 z" id="boundary" inkscape:connector-curvature="0" />
	<path style="fill:none;stroke:red;stroke-width:1px;stroke-linecap:butt;stroke-linejoin:miter;stroke-opacity:1" d="M 844.345,469.669 862.187,469.669 z" id="boundary" inkscape:connector-curvature="0" />
	<path style="fill:none;stroke:red;stroke-width:1px;stroke-linecap:butt;stroke-linejoin:miter;stroke-opacity:1" d="M 862.187,93.2086 878.245,102.129 z" id="boundary" inkscape:connector-curvature="0" />
	<path style="fill:none;stroke:red;stroke-width:1px;stroke-linecap:butt;stroke-linejoin:miter;stroke-opacity:1" d="M 862.187,469.669 878.245,460.748 z" id="boundary" inkscape:connector-curvature="0" />
	<path style="fill:none;stroke:red;stroke-width:1px;stroke-linecap:butt;stroke-linejoin:miter;stroke-opacity:1" d="M 878.245,102.129 896.086,105.698 z" id="boundary" inkscape:connector-curvature="0" />
	<path style="fill:none;stroke:red;stroke-width:1px;stroke-linecap:butt;stroke-linejoin:miter;stroke-opacity:1" d="M 878.245,460.748 896.086,455.396 z" id="boundary" inkscape:connector-curvature="0" />
	<path style="fill:none;stroke:red;stroke-width:1px;stroke-linecap:butt;stroke-linejoin:miter;stroke-opacity:1" d="M 896.086,105.698 906.791,119.971 z" id="boundary" inkscape:connector-curvature="0" />
	<path style="fill:none;stroke:red;stroke-width:1px;stroke-linecap:butt;stroke-linejoin:miter;stroke-opacity:1" d="M 896.086,455.396 910.36,441.122 z" id="boundary" inkscape:connector-curvature="0" />
	<path style="fill:none;stroke:red;stroke-width:1px;stroke-linecap:butt;stroke-linejoin:miter;stroke-opacity:1" d="M 906.791,119.971 921.065,130.676 z" id="boundary" inkscape:connector-curvature="0" />
	<path style="fill:none;stroke:red;stroke-width:1px;stroke-linecap:butt;stroke-linejoin:miter;stroke-opacity:1" d="M 910.36,441.122 924.633,416.144 z" id="boundary" inkscape:connector-curvature="0" />
	<path style="fill:none;stroke:red;stroke-width:1px;stroke-linecap:butt;stroke-linejoin:miter;stroke-opacity:1" d="M 921.065,130.676 924.633,148.518 z" id="boundary" inkscape:connector-curvature="0" />
	<path style="fill:none;stroke:red;stroke-width:1px;stroke-linecap:butt;stroke-linejoin:miter;stroke-opacity:1" d="M 924.633,148.518 938.906,159.223 z" id="boundary" inkscape:connector-curvature="0" />
	<path style="fill:none;stroke:red;stroke-width:1px;stroke-linecap:butt;stroke-linejoin:miter;stroke-opacity:1" d="M 924.633,416.144 942.475,398.302 z" id="boundary" inkscape:connector-curvature="0" />
	<path style="fill:none;stroke:red;stroke-width:1px;stroke-linecap:butt;stroke-linejoin:miter;stroke-opacity:1" d="M 938.906,159.223 947.827,175.281 z" id="boundary" inkscape:connector-curvature="0" />
	<path style="fill:none;stroke:red;stroke-width:1px;stroke-linecap:butt;stroke-linejoin:miter;stroke-opacity:1" d="M 942.475,398.302 951.396,380.46 z" id="boundary" inkscape:connector-curvature="0" />
	<path style="fill:none;stroke:red;stroke-width:1px;stroke-linecap:butt;stroke-linejoin:miter;stroke-opacity:1" d="M 947.827,175.281 951.396,193.122 z" id="boundary" inkscape:connector-curvature="0" />
	<path style="fill:none;stroke:red;stroke-width:1px;stroke-linecap:butt;stroke-linejoin:miter;stroke-opacity:1" d="M 951.396,193.122 965.669,203.827 z" id="boundary" inkscape:connector-curvature="0" />
	<path style="fill:none;stroke:red;stroke-width:1px;stroke-linecap:butt;stroke-linejoin:miter;stroke-opacity:1" d="M 951.396,380.46 969.237,371.54 z" id="boundary" inkscape:connector-curvature="0" />
	<path style="fill:none;stroke:red;stroke-width:1px;stroke-linecap:butt;stroke-linejoin:miter;stroke-opacity:1" d="M 965.669,203.827 969.237,221.669 z" id="boundary" inkscape:connector-curvature="0" />
	<path style="fill:none;stroke:red;stroke-width:1px;stroke-linecap:butt;stroke-linejoin:miter;stroke-opacity:1" d="M 969.237,221.669 978.158,237.727 z" id="boundary" inkscape:connector-curvature="0" />
	<path style="fill:none;stroke:red;stroke-width:1px;stroke-linecap:butt;stroke-linejoin:miter;stroke-opacity:1" d="M 969.237,353.698 969.237,371.54 z" id="boundary" inkscape:connector-curvature="0" />
	<path style="fill:none;stroke:red;stroke-width:1px;stroke-linecap:butt;stroke-linejoin:miter;stroke-opacity:1" d="M 969.237,353.698 978.158,335.856 z" id="boundary" inkscape:connector-curvature="0" />
	<path style="fill:none;stroke:red;stroke-width:1px;stroke-linecap:butt;stroke-linejoin:miter;stroke-opacity:1" d="M 978.158,237.727 978.158,255.568 z" id="boundary" inkscape:connector-curvature="0" />
	<path style="fill:none;stroke:red;stroke-width:1px;stroke-linecap:butt;stroke-linejoin:miter;stroke-opacity:1" d="M 978.158,255.568 992.432,266.273 z" id="boundary" inkscape:connector-curvature="0" />
	<path style="fill:none;stroke:red;stroke-width:1px;stroke-linecap:butt;stroke-linejoin:miter;stroke-opacity:1" d="M 978.158,318.014 978.158,335.856 z" id="boundary" inkscape:connector-curvature="0" />
	<path style="fill:none;stroke:red;stroke-width:1px;stroke-linecap:butt;stroke-linejoin:miter;stroke-opacity:1" d="M 978.158,318.014 996,301.957 z" id="boundary" inkscape:connector-curvature="0" />
	<path style="fill:none;stroke:red;stroke-width:1px;stroke-linecap:butt;stroke-linejoin:miter;stroke-opacity:1" d="M 992.432,266.273 996,284.115 z" id="boundary" inkscape:connector-curvature="0" />
	<path style="fill:none;stroke:red;stroke-width:1px;stroke-linecap:butt;stroke-linejoin:miter;stroke-opacity:1" d="M 996,284.115 996,301.957 z" id="boundary" inkscape:connector-curvature="0" />
	<circle cx="4" cy="268.058" r="4" fill="#0" id="circle0"/>
	<circle cx="4" cy="285.899" r="4" fill="#0" id="circle1"/>
	<circle cx="4" cy="303.741" r="4" fill="#0" id="circle2"/>
	<circle cx="4" cy="321.583" r="4" fill="#0" id="circle3"/>
	<circle cx="12.9209" cy="232.374" r="4" fill="#0" id="circle4"/>
	<circle cx="12.9209" cy="250.216" r="4" fill="#0" id="circle5"/>
	<circle cx="12.9209" cy="337.64" r="4" fill="#0" id="circle6"/>
	<circle cx="12.9209" cy="355.482" r="4" fill="#0" id="circle7"/>
	<circle cx="21.8417" cy="371.54" r="4" fill="#0" id="circle8"/>
	<circle cx="30.7626" cy="205.612" r="4" fill="#0" id="circle9"/>
	<circle cx="30.7626" cy="223.453" r="4" fill="#0" id="circle10"/>
	<circle cx="37.8993" cy="380.46" r="4" fill="#0" id="circle11"/>
	<circle cx="39.6835" cy="178.849" r="4" fill="#0" id="circle12"/>
	<circle cx="39.6835" cy="398.302" r="4" fill="#0" id="circle13"/>
	<circle cx="48.6043" cy="161.007" r="4" fill="#0" id="circle14"/>
	<circle cx="50.3885" cy="412.576" r="4" fill="#0" id="circle15"/>
	<circle cx="66.446" cy="134.245" r="4" fill="#0" id="circle16"/>
	<circle cx="66.446" cy="152.086" r="4" fill="#0" id="circle17"/>
	<circle cx="66.446" cy="421.496" r="4" fill="#0" id="circle18"/>
	<circle cx="75.3669" cy="437.554" r="4" fill="#0" id="circle19"/>
	<circle cx="80.7194" cy="119.971" r="4" fill="#0" id="circle20"/>
	<circle cx="93.2086" cy="442.906" r="4" fill="#0" id="circle21"/>
	<circle cx="94.9928" cy="105.698" r="4" fill="#0" id="circle22"/>
	<circle cx="103.914" cy="457.18" r="4" fill="#0" id="circle23"/>
	<circle cx="112.835" cy="102.129" r="4" fill="#0" id="circle24"/>
	<circle cx="121.755" cy="464.317" r="4" fill="#0" id="circle25"/>
	<circle cx="128.892" cy="93.2086" r="4" fill="#0" id="circle26"/>
	<circle cx="139.597" cy="469.669" r="4" fill="#0" id="circle27"/>
	<circle cx="146.734" cy="89.6403" r="4" fill="#0" id="circle28"/>
	<circle cx="150.302" cy="483.942" r="4" fill="#0" id="circle29"/>
	<circle cx="164.576" cy="84.2878" r="4" fill="#0" id="circle30"/>
	<circle cx="168.144" cy="487.511" r="4" fill="#0" id="circle31"/>
	<circle cx="175.281" cy="70.0144" r="4" fill="#0" id="circle32"/>
	<circle cx="184.201" cy="496.432" r="4" fill="#0" id="circle33"/>
	<circle cx="193.122" cy="66.446" r="4" fill="#0" id="circle34"/>
	<circle cx="200.259" cy="505.353" r="4" fill="#0" id="circle35"/>
	<circle cx="210.964" cy="61.0935" r="4" fill="#0" id="circle36"/>
	<circle cx="216.317" cy="514.273" r="4" fill="#0" id="circle37"/>
	<circle cx="228.806" cy="57.5252" r="4" fill="#0" id="circle38"/>
	<circle cx="232.374" cy="523.194" r="4" fill="#0" id="circle39"/>
	<circle cx="235.942" cy="541.036" r="4" fill="#0" id="circle40"/>
	<circle cx="235.942" cy="558.878" r="4" fill="#0" id="circle41"/>
	<circle cx="235.942" cy="576.719" r="4" fill="#0" id="circle42"/>
	<circle cx="235.942" cy="594.561" r="4" fill="#0" id="circle43"/>
	<circle cx="235.942" cy="612.403" r="4" fill="#0" id="circle44"/>
	<circle cx="235.942" cy="630.245" r="4" fill="#0" id="circle45"/>
	<circle cx="235.942" cy="648.086" r="4" fill="#0" id="circle46"/>
	<circle cx="235.942" cy="665.928" r="4" fill="#0" id="circle47"/>
	<circle cx="235.942" cy="683.77" r="4" fill="#0" id="circle48"/>
	<circle cx="244.863" cy="45.036" r="4" fill="#0" id="circle49"/>
	<circle cx="253.784" cy="683.77" r="4" fill="#0" id="circle50"/>
	<circle cx="262.705" cy="39.6835" r="4" fill="#0" id="circle51"/>
	<circle cx="264.489" cy="665.928" r="4" fill="#0" id="circle52"/>
	<circle cx="280.547" cy="39.6835" r="4" fill="#0" id="circle53"/>
	<circle cx="282.331" cy="665.928" r="4" fill="#0" id="circle54"/>
	<circle cx="296.604" cy="30.7626" r="4" fill="#0" id="circle55"/>
	<circle cx="296.604" cy="653.439" r="4" fill="#0" id="circle56"/>
	<circle cx="307.309" cy="639.165" r="4" fill="#0" id="circle57"/>
	<circle cx="314.446" cy="30.7626" r="4" fill="#0" id="circle58"/>
	<circle cx="323.367" cy="630.245" r="4" fill="#0" id="circle59"/>
	<circle cx="332.288" cy="30.7626" r="4" fill="#0" id="circle60"/>
	<circle cx="341.209" cy="626.676" r="4" fill="#0" id="circle61"/>
	<circle cx="350.129" cy="30.7626" r="4" fill="#0" id="circle62"/>
	<circle cx="350.129" cy="608.835" r="4" fill="#0" id="circle63"/>
	<circle cx="357.266" cy="12.9209" r="4" fill="#0" id="circle64"/>
	<circle cx="367.971" cy="599.914" r="4" fill="#0" id="circle65"/>
	<circle cx="375.108" cy="12.9209" r="4" fill="#0" id="circle66"/>
	<circle cx="378.676" cy="585.64" r="4" fill="#0" id="circle67"/>
	<circle cx="392.95" cy="12.9209" r="4" fill="#0" id="circle68"/>
	<circle cx="394.734" cy="576.719" r="4" fill="#0" id="circle69"/>
	<circle cx="410.791" cy="12.9209" r="4" fill="#0" id="circle70"/>
	<circle cx="410.791" cy="567.799" r="4" fill="#0" id="circle71"/>
	<circle cx="428.633" cy="12.9209" r="4" fill="#0" id="circle72"/>
	<circle cx="428.633" cy="567.799" r="4" fill="#0" id="circle73"/>
	<circle cx="446.475" cy="4" r="4" fill="#0" id="circle74"/>
	<circle cx="446.475" cy="567.799" r="4" fill="#0" id="circle75"/>
	<circle cx="464.317" cy="4" r="4" fill="#0" id="circle76"/>
	<circle cx="464.317" cy="567.799" r="4" fill="#0" id="circle77"/>
	<circle cx="482.158" cy="4" r="4" fill="#0" id="circle78"/>
	<circle cx="482.158" cy="567.799" r="4" fill="#0" id="circle79"/>
	<circle cx="500" cy="4" r="4" fill="#0" id="circle80"/>
	<circle cx="500" cy="567.799" r="4" fill="#0" id="circle81"/>
	<circle cx="517.842" cy="4" r="4" fill="#0" id="circle82"/>
	<circle cx="517.842" cy="567.799" r="4" fill="#0" id="circle83"/>
	<circle cx="532.115" cy="549.957" r="4" fill="#0" id="circle84"/>
	<circle cx="533.899" cy="12.9209" r="4" fill="#0" id="circle85"/>
	<circle cx="549.957" cy="549.957" r="4" fill="#0" id="circle86"/>
	<circle cx="551.741" cy="12.9209" r="4" fill="#0" id="circle87"/>
	<circle cx="567.799" cy="549.957" r="4" fill="#0" id="circle88"/>
	<circle cx="569.583" cy="12.9209" r="4" fill="#0" id="circle89"/>
	<circle cx="585.64" cy="549.957" r="4" fill="#0" id="circle90"/>
	<circle cx="587.424" cy="12.9209" r="4" fill="#0" id="circle91"/>
	<circle cx="603.482" cy="549.957" r="4" fill="#0" id="circle92"/>
	<circle cx="605.266" cy="12.9209" r="4" fill="#0" id="circle93"/>
	<circle cx="621.324" cy="549.957" r="4" fill="#0" id="circle94"/>
	<circle cx="623.108" cy="12.9209" r="4" fill="#0" id="circle95"/>
	<circle cx="639.165" cy="21.8417" r="4" fill="#0" id="circle96"/>
	<circle cx="639.165" cy="541.036" r="4" fill="#0" id="circle97"/>
	<circle cx="655.223" cy="30.7626" r="4" fill="#0" id="circle98"/>
	<circle cx="657.007" cy="541.036" r="4" fill="#0" id="circle99"/>
	<circle cx="673.065" cy="30.7626" r="4" fill="#0" id="circle100"/>
	<circle cx="674.849" cy="541.036" r="4" fill="#0" id="circle101"/>
	<circle cx="690.906" cy="30.7626" r="4" fill="#0" id="circle102"/>
	<circle cx="692.691" cy="541.036" r="4" fill="#0" id="circle103"/>
	<circle cx="701.612" cy="523.194" r="4" fill="#0" id="circle104"/>
	<circle cx="706.964" cy="39.6835" r="4" fill="#0" id="circle105"/>
	<circle cx="719.453" cy="523.194" r="4" fill="#0" id="circle106"/>
	<circle cx="724.806" cy="39.6835" r="4" fill="#0" id="circle107"/>
	<circle cx="737.295" cy="523.194" r="4" fill="#0" id="circle108"/>
	<circle cx="742.647" cy="41.4676" r="4" fill="#0" id="circle109"/>
	<circle cx="751.568" cy="57.5252" r="4" fill="#0" id="circle110"/>
	<circle cx="753.353" cy="514.273" r="4" fill="#0" id="circle111"/>
	<circle cx="769.41" cy="57.5252" r="4" fill="#0" id="circle112"/>
	<circle cx="771.194" cy="514.273" r="4" fill="#0" id="circle113"/>
	<circle cx="781.899" cy="496.432" r="4" fill="#0" id="circle114"/>
	<circle cx="785.468" cy="66.446" r="4" fill="#0" id="circle115"/>
	<circle cx="799.741" cy="496.432" r="4" fill="#0" id="circle116"/>
	<circle cx="803.309" cy="66.446" r="4" fill="#0" id="circle117"/>
	<circle cx="817.583" cy="496.432" r="4" fill="#0" id="circle118"/>
	<circle cx="821.151" cy="66.446" r="4" fill="#0" id="circle119"/>
	<circle cx="826.504" cy="84.2878" r="4" fill="#0" id="circle120"/>
	<circle cx="833.64" cy="487.511" r="4" fill="#0" id="circle121"/>
	<circle cx="844.345" cy="89.6403" r="4" fill="#0" id="circle122"/>
	<circle cx="844.345" cy="469.669" r="4" fill="#0" id="circle123"/>
	<circle cx="862.187" cy="93.2086" r="4" fill="#0" id="circle124"/>
	<circle cx="862.187" cy="469.669" r="4" fill="#0" id="circle125"/>
	<circle cx="878.245" cy="102.129" r="4" fill="#0" id="circle126"/>
	<circle cx="878.245" cy="460.748" r="4" fill="#0" id="circle127"/>
	<circle cx="896.086" cy="105.698" r="4" fill="#0" id="circle128"/>
	<circle cx="896.086" cy="455.396" r="4" fill="#0" id="circle129"/>
	<circle cx="906.791" cy="119.971" r="4" fill="#0" id="circle130"/>
	<circle cx="910.36" cy="441.122" r="4" fill="#0" id="circle131"/>
	<circle cx="921.065" cy="130.676" r="4" fill="#0" id="circle132"/>
	<circle cx="924.633" cy="148.518" r="4" fill="#0" id="circle133"/>
	<circle cx="924.633" cy="416.144" r="4" fill="#0" id="circle134"/>
	<circle cx="938.906" cy="159.223" r="4" fill="#0" id="circle135"/>
	<circle cx="942.475" cy="398.302" r="4" fill="#0" id="circle136"/>
	<circle cx="947.827" cy="175.281" r="4" fill="#0" id="circle137"/>
	<circle cx="951.396" cy="193.122" r="4" fill="#0" id="circle138"/>
	<circle cx="951.396" cy="380.46" r="4" fill="#0" id="circle139"/>
	<circle cx="965.669" cy="203.827" r="4" fill="#0" id="circle140"/>
	<circle cx="969.237" cy="221.669" r="4" fill="#0" id="circle141"/>
	<circle cx="969.237" cy="353.698" r="4" fill="#0" id="circle142"/>
	<circle cx="969.237" cy="371.54" r="4" fill="#0" id="circle143"/>
	<circle cx="978.158" cy="237.727" r="4" fill="#0" id="circle144"/>
	<circle cx="978.158" cy="255.568" r="4" fill="#0" id="circle145"/>
	<circle cx="978.158" cy="318.014" r="4" fill="#0" id="circle146"/>
	<circle cx="978.158" cy="335.856" r="4" fill="#0" id="circle147"/>
	<circle cx="992.432" cy="266.273" r="4" fill="#0" id="circle148"/>
	<circle cx="996" cy="284.115" r="4" fill="#0" id="circle149"/>
	<circle cx="996" cy="301.957" r="4" fill="#0" id="circle150"/>
	</g>
</svg>