<?xml version="1.0" encoding="UTF-8" standalone="no"?>
<!-- Created with CurveBenchmark -->
<svg
	xmlns:dc="http://purl.org/dc/elements/1.1/"
	xmlns:cc="http://creativecommons.org/ns#"
	xmlns:rdf="http://www.w3.org/1999/02/22-rdf-syntax-ns#"
	xmlns:svg="http://www.w3.org/2000/svg"
	xmlns="http://www.w3.org/2000/svg"
	xmlns:sodipodi="http://sodipodi.sourceforge.net/DTD/sodipodi-0.dtd"
	xmlns:inkscape="http://www.inkscape.org/namespaces/inkscape"
	width="1000"
	height="1000"
	id="svg2"
	version="1.1"
	sodipodi:docname="manifold/hnncrust-elephant04.png.txt">
<defs
	id="defs4" />
<metadata
	id="metadata7">
	<rdf:RDF>
		<cc:Work
			rdf:about="">
			<dc:format>image/svg+xml</dc:format>
			<dc:type
				rdf:resource="http://purl.org/dc/dcmitype/StillImage" />
			<dc:title></dc:title>
		</cc:Work>
	</rdf:RDF>
</metadata>
<g
	inkscape:label="Layer 1"
	inkscape:groupmode="layer"
	id="layer1">
	<path style="fill:none;stroke:red;stroke-width:1px;stroke-linecap:butt;stroke-linejoin:miter;stroke-opacity:1" d="M 4,415.542 4,430.898 z" id="boundary" inkscape:connector-curvature="0" />
	<path style="fill:none;stroke:red;stroke-width:1px;stroke-linecap:butt;stroke-linejoin:miter;stroke-opacity:1" d="M 4,415.542 11.678,400.186 z" id="boundary" inkscape:connector-curvature="0" />
	<path style="fill:none;stroke:red;stroke-width:1px;stroke-linecap:butt;stroke-linejoin:miter;stroke-opacity:1" d="M 4,430.898 4,446.254 z" id="boundary" inkscape:connector-curvature="0" />
	<path style="fill:none;stroke:red;stroke-width:1px;stroke-linecap:butt;stroke-linejoin:miter;stroke-opacity:1" d="M 4,446.254 4,461.61 z" id="boundary" inkscape:connector-curvature="0" />
	<path style="fill:none;stroke:red;stroke-width:1px;stroke-linecap:butt;stroke-linejoin:miter;stroke-opacity:1" d="M 4,461.61 4,476.966 z" id="boundary" inkscape:connector-curvature="0" />
	<path style="fill:none;stroke:red;stroke-width:1px;stroke-linecap:butt;stroke-linejoin:miter;stroke-opacity:1" d="M 4,476.966 11.678,490.786 z" id="boundary" inkscape:connector-curvature="0" />
	<path style="fill:none;stroke:red;stroke-width:1px;stroke-linecap:butt;stroke-linejoin:miter;stroke-opacity:1" d="M 11.678,400.186 23.9628,387.901 z" id="boundary" inkscape:connector-curvature="0" />
	<path style="fill:none;stroke:red;stroke-width:1px;stroke-linecap:butt;stroke-linejoin:miter;stroke-opacity:1" d="M 11.678,490.786 19.356,504.607 z" id="boundary" inkscape:connector-curvature="0" />
	<path style="fill:none;stroke:red;stroke-width:1px;stroke-linecap:butt;stroke-linejoin:miter;stroke-opacity:1" d="M 19.356,504.607 28.5697,516.892 z" id="boundary" inkscape:connector-curvature="0" />
	<path style="fill:none;stroke:red;stroke-width:1px;stroke-linecap:butt;stroke-linejoin:miter;stroke-opacity:1" d="M 23.9628,387.901 34.7121,369.474 z" id="boundary" inkscape:connector-curvature="0" />
	<path style="fill:none;stroke:red;stroke-width:1px;stroke-linecap:butt;stroke-linejoin:miter;stroke-opacity:1" d="M 28.5697,516.892 43.9257,523.034 z" id="boundary" inkscape:connector-curvature="0" />
	<path style="fill:none;stroke:red;stroke-width:1px;stroke-linecap:butt;stroke-linejoin:miter;stroke-opacity:1" d="M 34.7121,369.474 46.9969,357.189 z" id="boundary" inkscape:connector-curvature="0" />
	<path style="fill:none;stroke:red;stroke-width:1px;stroke-linecap:butt;stroke-linejoin:miter;stroke-opacity:1" d="M 43.9257,435.505 43.9257,450.861 z" id="boundary" inkscape:connector-curvature="0" />
	<path style="fill:none;stroke:red;stroke-width:1px;stroke-linecap:butt;stroke-linejoin:miter;stroke-opacity:1" d="M 43.9257,435.505 56.2105,424.755 z" id="boundary" inkscape:connector-curvature="0" />
	<path style="fill:none;stroke:red;stroke-width:1px;stroke-linecap:butt;stroke-linejoin:miter;stroke-opacity:1" d="M 43.9257,450.861 43.9257,466.217 z" id="boundary" inkscape:connector-curvature="0" />
	<path style="fill:none;stroke:red;stroke-width:1px;stroke-linecap:butt;stroke-linejoin:miter;stroke-opacity:1" d="M 43.9257,466.217 51.6037,480.037 z" id="boundary" inkscape:connector-curvature="0" />
	<path style="fill:none;stroke:red;stroke-width:1px;stroke-linecap:butt;stroke-linejoin:miter;stroke-opacity:1" d="M 43.9257,523.034 57.7461,530.712 z" id="boundary" inkscape:connector-curvature="0" />
	<path style="fill:none;stroke:red;stroke-width:1px;stroke-linecap:butt;stroke-linejoin:miter;stroke-opacity:1" d="M 46.9969,357.189 60.8173,349.511 z" id="boundary" inkscape:connector-curvature="0" />
	<path style="fill:none;stroke:red;stroke-width:1px;stroke-linecap:butt;stroke-linejoin:miter;stroke-opacity:1" d="M 51.6037,480.037 59.2817,493.858 z" id="boundary" inkscape:connector-curvature="0" />
	<path style="fill:none;stroke:red;stroke-width:1px;stroke-linecap:butt;stroke-linejoin:miter;stroke-opacity:1" d="M 56.2105,424.755 66.9598,412.471 z" id="boundary" inkscape:connector-curvature="0" />
	<path style="fill:none;stroke:red;stroke-width:1px;stroke-linecap:butt;stroke-linejoin:miter;stroke-opacity:1" d="M 57.7461,530.712 73.1022,535.319 z" id="boundary" inkscape:connector-curvature="0" />
	<path style="fill:none;stroke:red;stroke-width:1px;stroke-linecap:butt;stroke-linejoin:miter;stroke-opacity:1" d="M 59.2817,493.858 74.6378,500 z" id="boundary" inkscape:connector-curvature="0" />
	<path style="fill:none;stroke:red;stroke-width:1px;stroke-linecap:butt;stroke-linejoin:miter;stroke-opacity:1" d="M 60.8173,349.511 73.1022,338.762 z" id="boundary" inkscape:connector-curvature="0" />
	<path style="fill:none;stroke:red;stroke-width:1px;stroke-linecap:butt;stroke-linejoin:miter;stroke-opacity:1" d="M 66.9598,412.471 79.2446,401.721 z" id="boundary" inkscape:connector-curvature="0" />
	<path style="fill:none;stroke:red;stroke-width:1px;stroke-linecap:butt;stroke-linejoin:miter;stroke-opacity:1" d="M 73.1022,338.762 85.387,326.477 z" id="boundary" inkscape:connector-curvature="0" />
	<path style="fill:none;stroke:red;stroke-width:1px;stroke-linecap:butt;stroke-linejoin:miter;stroke-opacity:1" d="M 73.1022,535.319 88.4582,535.319 z" id="boundary" inkscape:connector-curvature="0" />
	<path style="fill:none;stroke:red;stroke-width:1px;stroke-linecap:butt;stroke-linejoin:miter;stroke-opacity:1" d="M 74.6378,500 89.9938,503.071 z" id="boundary" inkscape:connector-curvature="0" />
	<path style="fill:none;stroke:red;stroke-width:1px;stroke-linecap:butt;stroke-linejoin:miter;stroke-opacity:1" d="M 79.2446,401.721 94.6006,394.043 z" id="boundary" inkscape:connector-curvature="0" />
	<path style="fill:none;stroke:red;stroke-width:1px;stroke-linecap:butt;stroke-linejoin:miter;stroke-opacity:1" d="M 85.387,326.477 100.743,318.799 z" id="boundary" inkscape:connector-curvature="0" />
	<path style="fill:none;stroke:red;stroke-width:1px;stroke-linecap:butt;stroke-linejoin:miter;stroke-opacity:1" d="M 88.4582,535.319 103.814,530.712 z" id="boundary" inkscape:connector-curvature="0" />
	<path style="fill:none;stroke:red;stroke-width:1px;stroke-linecap:butt;stroke-linejoin:miter;stroke-opacity:1" d="M 89.9938,503.071 105.35,503.071 z" id="boundary" inkscape:connector-curvature="0" />
	<path style="fill:none;stroke:red;stroke-width:1px;stroke-linecap:butt;stroke-linejoin:miter;stroke-opacity:1" d="M 94.6006,394.043 105.35,381.759 z" id="boundary" inkscape:connector-curvature="0" />
	<path style="fill:none;stroke:red;stroke-width:1px;stroke-linecap:butt;stroke-linejoin:miter;stroke-opacity:1" d="M 96.1362,423.22 111.492,427.827 z" id="boundary" inkscape:connector-curvature="0" />
	<path style="fill:none;stroke:red;stroke-width:1px;stroke-linecap:butt;stroke-linejoin:miter;stroke-opacity:1" d="M 100.743,318.799 116.099,311.121 z" id="boundary" inkscape:connector-curvature="0" />
	<path style="fill:none;stroke:red;stroke-width:1px;stroke-linecap:butt;stroke-linejoin:miter;stroke-opacity:1" d="M 103.814,530.712 119.17,527.641 z" id="boundary" inkscape:connector-curvature="0" />
	<path style="fill:none;stroke:red;stroke-width:1px;stroke-linecap:butt;stroke-linejoin:miter;stroke-opacity:1" d="M 105.35,381.759 120.706,381.759 z" id="boundary" inkscape:connector-curvature="0" />
	<path style="fill:none;stroke:red;stroke-width:1px;stroke-linecap:butt;stroke-linejoin:miter;stroke-opacity:1" d="M 105.35,503.071 119.17,495.393 z" id="boundary" inkscape:connector-curvature="0" />
	<path style="fill:none;stroke:red;stroke-width:1px;stroke-linecap:butt;stroke-linejoin:miter;stroke-opacity:1" d="M 111.492,427.827 125.313,420.149 z" id="boundary" inkscape:connector-curvature="0" />
	<path style="fill:none;stroke:red;stroke-width:1px;stroke-linecap:butt;stroke-linejoin:miter;stroke-opacity:1" d="M 116.099,311.121 129.92,303.443 z" id="boundary" inkscape:connector-curvature="0" />
	<path style="fill:none;stroke:red;stroke-width:1px;stroke-linecap:butt;stroke-linejoin:miter;stroke-opacity:1" d="M 119.17,495.393 132.991,487.715 z" id="boundary" inkscape:connector-curvature="0" />
	<path style="fill:none;stroke:red;stroke-width:1px;stroke-linecap:butt;stroke-linejoin:miter;stroke-opacity:1" d="M 119.17,527.641 132.991,519.963 z" id="boundary" inkscape:connector-curvature="0" />
	<path style="fill:none;stroke:red;stroke-width:1px;stroke-linecap:butt;stroke-linejoin:miter;stroke-opacity:1" d="M 120.706,381.759 134.526,374.08 z" id="boundary" inkscape:connector-curvature="0" />
	<path style="fill:none;stroke:red;stroke-width:1px;stroke-linecap:butt;stroke-linejoin:miter;stroke-opacity:1" d="M 123.777,403.257 137.598,395.579 z" id="boundary" inkscape:connector-curvature="0" />
	<path style="fill:none;stroke:red;stroke-width:1px;stroke-linecap:butt;stroke-linejoin:miter;stroke-opacity:1" d="M 125.313,420.149 140.669,417.077 z" id="boundary" inkscape:connector-curvature="0" />
	<path style="fill:none;stroke:red;stroke-width:1px;stroke-linecap:butt;stroke-linejoin:miter;stroke-opacity:1" d="M 129.92,303.443 142.204,292.693 z" id="boundary" inkscape:connector-curvature="0" />
	<path style="fill:none;stroke:red;stroke-width:1px;stroke-linecap:butt;stroke-linejoin:miter;stroke-opacity:1" d="M 132.991,487.715 148.347,487.715 z" id="boundary" inkscape:connector-curvature="0" />
	<path style="fill:none;stroke:red;stroke-width:1px;stroke-linecap:butt;stroke-linejoin:miter;stroke-opacity:1" d="M 132.991,519.963 146.811,512.285 z" id="boundary" inkscape:connector-curvature="0" />
	<path style="fill:none;stroke:red;stroke-width:1px;stroke-linecap:butt;stroke-linejoin:miter;stroke-opacity:1" d="M 134.526,374.08 148.347,366.402 z" id="boundary" inkscape:connector-curvature="0" />
	<path style="fill:none;stroke:red;stroke-width:1px;stroke-linecap:butt;stroke-linejoin:miter;stroke-opacity:1" d="M 137.598,395.579 152.954,389.437 z" id="boundary" inkscape:connector-curvature="0" />
	<path style="fill:none;stroke:red;stroke-width:1px;stroke-linecap:butt;stroke-linejoin:miter;stroke-opacity:1" d="M 140.669,417.077 156.025,409.399 z" id="boundary" inkscape:connector-curvature="0" />
	<path style="fill:none;stroke:red;stroke-width:1px;stroke-linecap:butt;stroke-linejoin:miter;stroke-opacity:1" d="M 142.204,292.693 154.489,280.409 z" id="boundary" inkscape:connector-curvature="0" />
	<path style="fill:none;stroke:red;stroke-width:1px;stroke-linecap:butt;stroke-linejoin:miter;stroke-opacity:1" d="M 146.811,512.285 162.167,510.749 z" id="boundary" inkscape:connector-curvature="0" />
	<path style="fill:none;stroke:red;stroke-width:1px;stroke-linecap:butt;stroke-linejoin:miter;stroke-opacity:1" d="M 148.347,366.402 162.167,358.724 z" id="boundary" inkscape:connector-curvature="0" />
	<path style="fill:none;stroke:red;stroke-width:1px;stroke-linecap:butt;stroke-linejoin:miter;stroke-opacity:1" d="M 148.347,487.715 162.167,480.037 z" id="boundary" inkscape:connector-curvature="0" />
	<path style="fill:none;stroke:red;stroke-width:1px;stroke-linecap:butt;stroke-linejoin:miter;stroke-opacity:1" d="M 152.954,389.437 165.238,380.223 z" id="boundary" inkscape:connector-curvature="0" />
	<path style="fill:none;stroke:red;stroke-width:1px;stroke-linecap:butt;stroke-linejoin:miter;stroke-opacity:1" d="M 154.489,280.409 162.167,265.053 z" id="boundary" inkscape:connector-curvature="0" />
	<path style="fill:none;stroke:red;stroke-width:1px;stroke-linecap:butt;stroke-linejoin:miter;stroke-opacity:1" d="M 156.025,409.399 171.381,401.721 z" id="boundary" inkscape:connector-curvature="0" />
	<path style="fill:none;stroke:red;stroke-width:1px;stroke-linecap:butt;stroke-linejoin:miter;stroke-opacity:1" d="M 162.167,265.053 169.845,249.697 z" id="boundary" inkscape:connector-curvature="0" />
	<path style="fill:none;stroke:red;stroke-width:1px;stroke-linecap:butt;stroke-linejoin:miter;stroke-opacity:1" d="M 162.167,358.724 175.988,351.046 z" id="boundary" inkscape:connector-curvature="0" />
	<path style="fill:none;stroke:red;stroke-width:1px;stroke-linecap:butt;stroke-linejoin:miter;stroke-opacity:1" d="M 162.167,480.037 177.523,472.359 z" id="boundary" inkscape:connector-curvature="0" />
	<path style="fill:none;stroke:red;stroke-width:1px;stroke-linecap:butt;stroke-linejoin:miter;stroke-opacity:1" d="M 162.167,510.749 177.523,504.607 z" id="boundary" inkscape:connector-curvature="0" />
	<path style="fill:none;stroke:red;stroke-width:1px;stroke-linecap:butt;stroke-linejoin:miter;stroke-opacity:1" d="M 165.238,380.223 179.059,372.545 z" id="boundary" inkscape:connector-curvature="0" />
	<path style="fill:none;stroke:red;stroke-width:1px;stroke-linecap:butt;stroke-linejoin:miter;stroke-opacity:1" d="M 169.845,249.697 177.523,234.341 z" id="boundary" inkscape:connector-curvature="0" />
	<path style="fill:none;stroke:red;stroke-width:1px;stroke-linecap:butt;stroke-linejoin:miter;stroke-opacity:1" d="M 171.381,401.721 186.737,394.043 z" id="boundary" inkscape:connector-curvature="0" />
	<path style="fill:none;stroke:red;stroke-width:1px;stroke-linecap:butt;stroke-linejoin:miter;stroke-opacity:1" d="M 175.988,351.046 189.808,343.368 z" id="boundary" inkscape:connector-curvature="0" />
	<path style="fill:none;stroke:red;stroke-width:1px;stroke-linecap:butt;stroke-linejoin:miter;stroke-opacity:1" d="M 177.523,234.341 185.201,218.985 z" id="boundary" inkscape:connector-curvature="0" />
	<path style="fill:none;stroke:red;stroke-width:1px;stroke-linecap:butt;stroke-linejoin:miter;stroke-opacity:1" d="M 177.523,472.359 191.344,480.037 z" id="boundary" inkscape:connector-curvature="0" />
	<path style="fill:none;stroke:red;stroke-width:1px;stroke-linecap:butt;stroke-linejoin:miter;stroke-opacity:1" d="M 177.523,504.607 192.879,504.607 z" id="boundary" inkscape:connector-curvature="0" />
	<path style="fill:none;stroke:red;stroke-width:1px;stroke-linecap:butt;stroke-linejoin:miter;stroke-opacity:1" d="M 179.059,372.545 189.808,360.26 z" id="boundary" inkscape:connector-curvature="0" />
	<path style="fill:none;stroke:red;stroke-width:1px;stroke-linecap:butt;stroke-linejoin:miter;stroke-opacity:1" d="M 185.201,218.985 197.486,206.7 z" id="boundary" inkscape:connector-curvature="0" />
	<path style="fill:none;stroke:red;stroke-width:1px;stroke-linecap:butt;stroke-linejoin:miter;stroke-opacity:1" d="M 186.737,394.043 197.486,381.759 z" id="boundary" inkscape:connector-curvature="0" />
	<path style="fill:none;stroke:red;stroke-width:1px;stroke-linecap:butt;stroke-linejoin:miter;stroke-opacity:1" d="M 191.344,480.037 205.164,487.715 z" id="boundary" inkscape:connector-curvature="0" />
	<path style="fill:none;stroke:red;stroke-width:1px;stroke-linecap:butt;stroke-linejoin:miter;stroke-opacity:1" d="M 192.879,504.607 208.235,503.071 z" id="boundary" inkscape:connector-curvature="0" />
	<path style="fill:none;stroke:red;stroke-width:1px;stroke-linecap:butt;stroke-linejoin:miter;stroke-opacity:1" d="M 197.486,206.7 209.771,195.95 z" id="boundary" inkscape:connector-curvature="0" />
	<path style="fill:none;stroke:red;stroke-width:1px;stroke-linecap:butt;stroke-linejoin:miter;stroke-opacity:1" d="M 197.486,381.759 211.307,374.08 z" id="boundary" inkscape:connector-curvature="0" />
	<path style="fill:none;stroke:red;stroke-width:1px;stroke-linecap:butt;stroke-linejoin:miter;stroke-opacity:1" d="M 205.164,487.715 208.235,503.071 z" id="boundary" inkscape:connector-curvature="0" />
	<path style="fill:none;stroke:red;stroke-width:1px;stroke-linecap:butt;stroke-linejoin:miter;stroke-opacity:1" d="M 209.771,195.95 223.591,188.272 z" id="boundary" inkscape:connector-curvature="0" />
	<path style="fill:none;stroke:red;stroke-width:1px;stroke-linecap:butt;stroke-linejoin:miter;stroke-opacity:1" d="M 211.307,374.08 223.591,364.867 z" id="boundary" inkscape:connector-curvature="0" />
	<path style="fill:none;stroke:red;stroke-width:1px;stroke-linecap:butt;stroke-linejoin:miter;stroke-opacity:1" d="M 223.591,188.272 234.341,169.845 z" id="boundary" inkscape:connector-curvature="0" />
	<path style="fill:none;stroke:red;stroke-width:1px;stroke-linecap:butt;stroke-linejoin:miter;stroke-opacity:1" d="M 223.591,364.867 235.876,351.046 z" id="boundary" inkscape:connector-curvature="0" />
	<path style="fill:none;stroke:red;stroke-width:1px;stroke-linecap:butt;stroke-linejoin:miter;stroke-opacity:1" d="M 234.341,169.845 246.625,157.56 z" id="boundary" inkscape:connector-curvature="0" />
	<path style="fill:none;stroke:red;stroke-width:1px;stroke-linecap:butt;stroke-linejoin:miter;stroke-opacity:1" d="M 235.876,351.046 249.697,358.724 z" id="boundary" inkscape:connector-curvature="0" />
	<path style="fill:none;stroke:red;stroke-width:1px;stroke-linecap:butt;stroke-linejoin:miter;stroke-opacity:1" d="M 246.625,157.56 258.91,145.276 z" id="boundary" inkscape:connector-curvature="0" />
	<path style="fill:none;stroke:red;stroke-width:1px;stroke-linecap:butt;stroke-linejoin:miter;stroke-opacity:1" d="M 249.697,358.724 265.053,358.724 z" id="boundary" inkscape:connector-curvature="0" />
	<path style="fill:none;stroke:red;stroke-width:1px;stroke-linecap:butt;stroke-linejoin:miter;stroke-opacity:1" d="M 258.91,145.276 274.266,137.598 z" id="boundary" inkscape:connector-curvature="0" />
	<path style="fill:none;stroke:red;stroke-width:1px;stroke-linecap:butt;stroke-linejoin:miter;stroke-opacity:1" d="M 265.053,358.724 280.409,358.724 z" id="boundary" inkscape:connector-curvature="0" />
	<path style="fill:none;stroke:red;stroke-width:1px;stroke-linecap:butt;stroke-linejoin:miter;stroke-opacity:1" d="M 274.266,137.598 289.622,134.526 z" id="boundary" inkscape:connector-curvature="0" />
	<path style="fill:none;stroke:red;stroke-width:1px;stroke-linecap:butt;stroke-linejoin:miter;stroke-opacity:1" d="M 280.409,358.724 295.765,358.724 z" id="boundary" inkscape:connector-curvature="0" />
	<path style="fill:none;stroke:red;stroke-width:1px;stroke-linecap:butt;stroke-linejoin:miter;stroke-opacity:1" d="M 289.622,134.526 304.978,134.526 z" id="boundary" inkscape:connector-curvature="0" />
	<path style="fill:none;stroke:red;stroke-width:1px;stroke-linecap:butt;stroke-linejoin:miter;stroke-opacity:1" d="M 295.765,358.724 304.978,371.009 z" id="boundary" inkscape:connector-curvature="0" />
	<path style="fill:none;stroke:red;stroke-width:1px;stroke-linecap:butt;stroke-linejoin:miter;stroke-opacity:1" d="M 304.978,134.526 320.334,129.92 z" id="boundary" inkscape:connector-curvature="0" />
	<path style="fill:none;stroke:red;stroke-width:1px;stroke-linecap:butt;stroke-linejoin:miter;stroke-opacity:1" d="M 304.978,371.009 320.334,377.152 z" id="boundary" inkscape:connector-curvature="0" />
	<path style="fill:none;stroke:red;stroke-width:1px;stroke-linecap:butt;stroke-linejoin:miter;stroke-opacity:1" d="M 320.334,129.92 332.619,119.17 z" id="boundary" inkscape:connector-curvature="0" />
	<path style="fill:none;stroke:red;stroke-width:1px;stroke-linecap:butt;stroke-linejoin:miter;stroke-opacity:1" d="M 320.334,377.152 335.69,381.759 z" id="boundary" inkscape:connector-curvature="0" />
	<path style="fill:none;stroke:red;stroke-width:1px;stroke-linecap:butt;stroke-linejoin:miter;stroke-opacity:1" d="M 332.619,119.17 341.833,100.743 z" id="boundary" inkscape:connector-curvature="0" />
	<path style="fill:none;stroke:red;stroke-width:1px;stroke-linecap:butt;stroke-linejoin:miter;stroke-opacity:1" d="M 335.69,381.759 349.511,389.437 z" id="boundary" inkscape:connector-curvature="0" />
	<path style="fill:none;stroke:red;stroke-width:1px;stroke-linecap:butt;stroke-linejoin:miter;stroke-opacity:1" d="M 341.833,100.743 357.189,96.1362 z" id="boundary" inkscape:connector-curvature="0" />
	<path style="fill:none;stroke:red;stroke-width:1px;stroke-linecap:butt;stroke-linejoin:miter;stroke-opacity:1" d="M 349.511,389.437 358.724,401.721 z" id="boundary" inkscape:connector-curvature="0" />
	<path style="fill:none;stroke:red;stroke-width:1px;stroke-linecap:butt;stroke-linejoin:miter;stroke-opacity:1" d="M 357.189,96.1362 371.009,88.4582 z" id="boundary" inkscape:connector-curvature="0" />
	<path style="fill:none;stroke:red;stroke-width:1px;stroke-linecap:butt;stroke-linejoin:miter;stroke-opacity:1" d="M 358.724,401.721 366.402,415.542 z" id="boundary" inkscape:connector-curvature="0" />
	<path style="fill:none;stroke:red;stroke-width:1px;stroke-linecap:butt;stroke-linejoin:miter;stroke-opacity:1" d="M 366.402,415.542 377.152,427.827 z" id="boundary" inkscape:connector-curvature="0" />
	<path style="fill:none;stroke:red;stroke-width:1px;stroke-linecap:butt;stroke-linejoin:miter;stroke-opacity:1" d="M 371.009,88.4582 381.759,76.1734 z" id="boundary" inkscape:connector-curvature="0" />
	<path style="fill:none;stroke:red;stroke-width:1px;stroke-linecap:butt;stroke-linejoin:miter;stroke-opacity:1" d="M 377.152,427.827 380.223,443.183 z" id="boundary" inkscape:connector-curvature="0" />
	<path style="fill:none;stroke:red;stroke-width:1px;stroke-linecap:butt;stroke-linejoin:miter;stroke-opacity:1" d="M 380.223,443.183 389.437,455.467 z" id="boundary" inkscape:connector-curvature="0" />
	<path style="fill:none;stroke:red;stroke-width:1px;stroke-linecap:butt;stroke-linejoin:miter;stroke-opacity:1" d="M 381.759,76.1734 397.115,73.1022 z" id="boundary" inkscape:connector-curvature="0" />
	<path style="fill:none;stroke:red;stroke-width:1px;stroke-linecap:butt;stroke-linejoin:miter;stroke-opacity:1" d="M 389.437,455.467 404.793,461.61 z" id="boundary" inkscape:connector-curvature="0" />
	<path style="fill:none;stroke:red;stroke-width:1px;stroke-linecap:butt;stroke-linejoin:miter;stroke-opacity:1" d="M 397.115,73.1022 412.471,73.1022 z" id="boundary" inkscape:connector-curvature="0" />
	<path style="fill:none;stroke:red;stroke-width:1px;stroke-linecap:butt;stroke-linejoin:miter;stroke-opacity:1" d="M 404.793,461.61 415.542,473.895 z" id="boundary" inkscape:connector-curvature="0" />
	<path style="fill:none;stroke:red;stroke-width:1px;stroke-linecap:butt;stroke-linejoin:miter;stroke-opacity:1" d="M 412.471,73.1022 427.827,68.4954 z" id="boundary" inkscape:connector-curvature="0" />
	<path style="fill:none;stroke:red;stroke-width:1px;stroke-linecap:butt;stroke-linejoin:miter;stroke-opacity:1" d="M 415.542,473.895 427.827,484.644 z" id="boundary" inkscape:connector-curvature="0" />
	<path style="fill:none;stroke:red;stroke-width:1px;stroke-linecap:butt;stroke-linejoin:miter;stroke-opacity:1" d="M 427.827,68.4954 443.183,73.1022 z" id="boundary" inkscape:connector-curvature="0" />
	<path style="fill:none;stroke:red;stroke-width:1px;stroke-linecap:butt;stroke-linejoin:miter;stroke-opacity:1" d="M 427.827,484.644 438.576,496.929 z" id="boundary" inkscape:connector-curvature="0" />
	<path style="fill:none;stroke:red;stroke-width:1px;stroke-linecap:butt;stroke-linejoin:miter;stroke-opacity:1" d="M 438.576,496.929 453.932,503.071 z" id="boundary" inkscape:connector-curvature="0" />
	<path style="fill:none;stroke:red;stroke-width:1px;stroke-linecap:butt;stroke-linejoin:miter;stroke-opacity:1" d="M 443.183,73.1022 457.003,65.4241 z" id="boundary" inkscape:connector-curvature="0" />
	<path style="fill:none;stroke:red;stroke-width:1px;stroke-linecap:butt;stroke-linejoin:miter;stroke-opacity:1" d="M 453.932,503.071 464.681,515.356 z" id="boundary" inkscape:connector-curvature="0" />
	<path style="fill:none;stroke:red;stroke-width:1px;stroke-linecap:butt;stroke-linejoin:miter;stroke-opacity:1" d="M 457.003,65.4241 470.824,57.7461 z" id="boundary" inkscape:connector-curvature="0" />
	<path style="fill:none;stroke:red;stroke-width:1px;stroke-linecap:butt;stroke-linejoin:miter;stroke-opacity:1" d="M 464.681,515.356 464.681,530.712 z" id="boundary" inkscape:connector-curvature="0" />
	<path style="fill:none;stroke:red;stroke-width:1px;stroke-linecap:butt;stroke-linejoin:miter;stroke-opacity:1" d="M 464.681,530.712 472.359,544.533 z" id="boundary" inkscape:connector-curvature="0" />
	<path style="fill:none;stroke:red;stroke-width:1px;stroke-linecap:butt;stroke-linejoin:miter;stroke-opacity:1" d="M 470.824,57.7461 481.573,45.4613 z" id="boundary" inkscape:connector-curvature="0" />
	<path style="fill:none;stroke:red;stroke-width:1px;stroke-linecap:butt;stroke-linejoin:miter;stroke-opacity:1" d="M 472.359,544.533 483.108,556.817 z" id="boundary" inkscape:connector-curvature="0" />
	<path style="fill:none;stroke:red;stroke-width:1px;stroke-linecap:butt;stroke-linejoin:miter;stroke-opacity:1" d="M 481.573,45.4613 493.858,34.7121 z" id="boundary" inkscape:connector-curvature="0" />
	<path style="fill:none;stroke:red;stroke-width:1px;stroke-linecap:butt;stroke-linejoin:miter;stroke-opacity:1" d="M 483.108,556.817 490.786,570.638 z" id="boundary" inkscape:connector-curvature="0" />
	<path style="fill:none;stroke:red;stroke-width:1px;stroke-linecap:butt;stroke-linejoin:miter;stroke-opacity:1" d="M 490.786,570.638 503.071,581.387 z" id="boundary" inkscape:connector-curvature="0" />
	<path style="fill:none;stroke:red;stroke-width:1px;stroke-linecap:butt;stroke-linejoin:miter;stroke-opacity:1" d="M 493.858,34.7121 507.678,27.0341 z" id="boundary" inkscape:connector-curvature="0" />
	<path style="fill:none;stroke:red;stroke-width:1px;stroke-linecap:butt;stroke-linejoin:miter;stroke-opacity:1" d="M 503.071,581.387 507.678,596.743 z" id="boundary" inkscape:connector-curvature="0" />
	<path style="fill:none;stroke:red;stroke-width:1px;stroke-linecap:butt;stroke-linejoin:miter;stroke-opacity:1" d="M 507.678,27.0341 523.034,27.0341 z" id="boundary" inkscape:connector-curvature="0" />
	<path style="fill:none;stroke:red;stroke-width:1px;stroke-linecap:butt;stroke-linejoin:miter;stroke-opacity:1" d="M 507.678,596.743 510.749,612.099 z" id="boundary" inkscape:connector-curvature="0" />
	<path style="fill:none;stroke:red;stroke-width:1px;stroke-linecap:butt;stroke-linejoin:miter;stroke-opacity:1" d="M 510.749,612.099 515.356,627.455 z" id="boundary" inkscape:connector-curvature="0" />
	<path style="fill:none;stroke:red;stroke-width:1px;stroke-linecap:butt;stroke-linejoin:miter;stroke-opacity:1" d="M 515.356,627.455 526.105,639.74 z" id="boundary" inkscape:connector-curvature="0" />
	<path style="fill:none;stroke:red;stroke-width:1px;stroke-linecap:butt;stroke-linejoin:miter;stroke-opacity:1" d="M 523.034,27.0341 536.854,19.356 z" id="boundary" inkscape:connector-curvature="0" />
	<path style="fill:none;stroke:red;stroke-width:1px;stroke-linecap:butt;stroke-linejoin:miter;stroke-opacity:1" d="M 526.105,639.74 533.783,653.56 z" id="boundary" inkscape:connector-curvature="0" />
	<path style="fill:none;stroke:red;stroke-width:1px;stroke-linecap:butt;stroke-linejoin:miter;stroke-opacity:1" d="M 526.105,668.916 533.783,653.56 z" id="boundary" inkscape:connector-curvature="0" />
	<path style="fill:none;stroke:red;stroke-width:1px;stroke-linecap:butt;stroke-linejoin:miter;stroke-opacity:1" d="M 526.105,668.916 533.783,682.737 z" id="boundary" inkscape:connector-curvature="0" />
	<path style="fill:none;stroke:red;stroke-width:1px;stroke-linecap:butt;stroke-linejoin:miter;stroke-opacity:1" d="M 526.105,699.628 526.105,714.985 z" id="boundary" inkscape:connector-curvature="0" />
	<path style="fill:none;stroke:red;stroke-width:1px;stroke-linecap:butt;stroke-linejoin:miter;stroke-opacity:1" d="M 526.105,699.628 533.783,682.737 z" id="boundary" inkscape:connector-curvature="0" />
	<path style="fill:none;stroke:red;stroke-width:1px;stroke-linecap:butt;stroke-linejoin:miter;stroke-opacity:1" d="M 526.105,714.985 533.783,728.805 z" id="boundary" inkscape:connector-curvature="0" />
	<path style="fill:none;stroke:red;stroke-width:1px;stroke-linecap:butt;stroke-linejoin:miter;stroke-opacity:1" d="M 533.783,728.805 549.139,727.269 z" id="boundary" inkscape:connector-curvature="0" />
	<path style="fill:none;stroke:red;stroke-width:1px;stroke-linecap:butt;stroke-linejoin:miter;stroke-opacity:1" d="M 536.854,19.356 552.211,19.356 z" id="boundary" inkscape:connector-curvature="0" />
	<path style="fill:none;stroke:red;stroke-width:1px;stroke-linecap:butt;stroke-linejoin:miter;stroke-opacity:1" d="M 549.139,727.269 562.96,719.591 z" id="boundary" inkscape:connector-curvature="0" />
	<path style="fill:none;stroke:red;stroke-width:1px;stroke-linecap:butt;stroke-linejoin:miter;stroke-opacity:1" d="M 552.211,19.356 567.567,13.2136 z" id="boundary" inkscape:connector-curvature="0" />
	<path style="fill:none;stroke:red;stroke-width:1px;stroke-linecap:butt;stroke-linejoin:miter;stroke-opacity:1" d="M 562.96,719.591 576.78,710.378 z" id="boundary" inkscape:connector-curvature="0" />
	<path style="fill:none;stroke:red;stroke-width:1px;stroke-linecap:butt;stroke-linejoin:miter;stroke-opacity:1" d="M 567.567,13.2136 582.923,5.5356 z" id="boundary" inkscape:connector-curvature="0" />
	<path style="fill:none;stroke:red;stroke-width:1px;stroke-linecap:butt;stroke-linejoin:miter;stroke-opacity:1" d="M 573.709,458.539 573.709,473.895 z" id="boundary" inkscape:connector-curvature="0" />
	<path style="fill:none;stroke:red;stroke-width:1px;stroke-linecap:butt;stroke-linejoin:miter;stroke-opacity:1" d="M 573.709,458.539 585.994,447.789 z" id="boundary" inkscape:connector-curvature="0" />
	<path style="fill:none;stroke:red;stroke-width:1px;stroke-linecap:butt;stroke-linejoin:miter;stroke-opacity:1" d="M 573.709,473.895 573.709,489.251 z" id="boundary" inkscape:connector-curvature="0" />
	<path style="fill:none;stroke:red;stroke-width:1px;stroke-linecap:butt;stroke-linejoin:miter;stroke-opacity:1" d="M 573.709,489.251 581.387,503.071 z" id="boundary" inkscape:connector-curvature="0" />
	<path style="fill:none;stroke:red;stroke-width:1px;stroke-linecap:butt;stroke-linejoin:miter;stroke-opacity:1" d="M 576.78,710.378 589.065,696.557 z" id="boundary" inkscape:connector-curvature="0" />
	<path style="fill:none;stroke:red;stroke-width:1px;stroke-linecap:butt;stroke-linejoin:miter;stroke-opacity:1" d="M 581.387,503.071 581.387,518.427 z" id="boundary" inkscape:connector-curvature="0" />
	<path style="fill:none;stroke:red;stroke-width:1px;stroke-linecap:butt;stroke-linejoin:miter;stroke-opacity:1" d="M 581.387,518.427 589.065,532.248 z" id="boundary" inkscape:connector-curvature="0" />
	<path style="fill:none;stroke:red;stroke-width:1px;stroke-linecap:butt;stroke-linejoin:miter;stroke-opacity:1" d="M 582.923,5.5356 598.279,4 z" id="boundary" inkscape:connector-curvature="0" />
	<path style="fill:none;stroke:red;stroke-width:1px;stroke-linecap:butt;stroke-linejoin:miter;stroke-opacity:1" d="M 585.994,447.789 601.35,440.111 z" id="boundary" inkscape:connector-curvature="0" />
	<path style="fill:none;stroke:red;stroke-width:1px;stroke-linecap:butt;stroke-linejoin:miter;stroke-opacity:1" d="M 589.065,532.248 589.065,547.604 z" id="boundary" inkscape:connector-curvature="0" />
	<path style="fill:none;stroke:red;stroke-width:1px;stroke-linecap:butt;stroke-linejoin:miter;stroke-opacity:1" d="M 589.065,547.604 589.065,562.96 z" id="boundary" inkscape:connector-curvature="0" />
	<path style="fill:none;stroke:red;stroke-width:1px;stroke-linecap:butt;stroke-linejoin:miter;stroke-opacity:1" d="M 589.065,562.96 596.743,576.78 z" id="boundary" inkscape:connector-curvature="0" />
	<path style="fill:none;stroke:red;stroke-width:1px;stroke-linecap:butt;stroke-linejoin:miter;stroke-opacity:1" d="M 589.065,696.557 601.35,685.808 z" id="boundary" inkscape:connector-curvature="0" />
	<path style="fill:none;stroke:red;stroke-width:1px;stroke-linecap:butt;stroke-linejoin:miter;stroke-opacity:1" d="M 596.743,576.78 596.743,592.136 z" id="boundary" inkscape:connector-curvature="0" />
	<path style="fill:none;stroke:red;stroke-width:1px;stroke-linecap:butt;stroke-linejoin:miter;stroke-opacity:1" d="M 596.743,592.136 604.421,605.957 z" id="boundary" inkscape:connector-curvature="0" />
	<path style="fill:none;stroke:red;stroke-width:1px;stroke-linecap:butt;stroke-linejoin:miter;stroke-opacity:1" d="M 598.279,4 613.635,4 z" id="boundary" inkscape:connector-curvature="0" />
	<path style="fill:none;stroke:red;stroke-width:1px;stroke-linecap:butt;stroke-linejoin:miter;stroke-opacity:1" d="M 601.35,440.111 610.563,427.827 z" id="boundary" inkscape:connector-curvature="0" />
	<path style="fill:none;stroke:red;stroke-width:1px;stroke-linecap:butt;stroke-linejoin:miter;stroke-opacity:1" d="M 601.35,685.808 612.099,673.523 z" id="boundary" inkscape:connector-curvature="0" />
	<path style="fill:none;stroke:red;stroke-width:1px;stroke-linecap:butt;stroke-linejoin:miter;stroke-opacity:1" d="M 604.421,605.957 604.421,627.455 z" id="boundary" inkscape:connector-curvature="0" />
	<path style="fill:none;stroke:red;stroke-width:1px;stroke-linecap:butt;stroke-linejoin:miter;stroke-opacity:1" d="M 604.421,627.455 616.706,636.669 z" id="boundary" inkscape:connector-curvature="0" />
	<path style="fill:none;stroke:red;stroke-width:1px;stroke-linecap:butt;stroke-linejoin:miter;stroke-opacity:1" d="M 610.563,427.827 625.92,427.827 z" id="boundary" inkscape:connector-curvature="0" />
	<path style="fill:none;stroke:red;stroke-width:1px;stroke-linecap:butt;stroke-linejoin:miter;stroke-opacity:1" d="M 612.099,673.523 624.384,662.774 z" id="boundary" inkscape:connector-curvature="0" />
	<path style="fill:none;stroke:red;stroke-width:1px;stroke-linecap:butt;stroke-linejoin:miter;stroke-opacity:1" d="M 613.635,4 628.991,4 z" id="boundary" inkscape:connector-curvature="0" />
	<path style="fill:none;stroke:red;stroke-width:1px;stroke-linecap:butt;stroke-linejoin:miter;stroke-opacity:1" d="M 616.706,636.669 624.384,662.774 z" id="boundary" inkscape:connector-curvature="0" />
	<path style="fill:none;stroke:red;stroke-width:1px;stroke-linecap:butt;stroke-linejoin:miter;stroke-opacity:1" d="M 625.92,427.827 639.74,435.505 z" id="boundary" inkscape:connector-curvature="0" />
	<path style="fill:none;stroke:red;stroke-width:1px;stroke-linecap:butt;stroke-linejoin:miter;stroke-opacity:1" d="M 628.991,4 644.347,4 z" id="boundary" inkscape:connector-curvature="0" />
	<path style="fill:none;stroke:red;stroke-width:1px;stroke-linecap:butt;stroke-linejoin:miter;stroke-opacity:1" d="M 639.74,435.505 653.56,443.183 z" id="boundary" inkscape:connector-curvature="0" />
	<path style="fill:none;stroke:red;stroke-width:1px;stroke-linecap:butt;stroke-linejoin:miter;stroke-opacity:1" d="M 644.347,4 659.703,4 z" id="boundary" inkscape:connector-curvature="0" />
	<path style="fill:none;stroke:red;stroke-width:1px;stroke-linecap:butt;stroke-linejoin:miter;stroke-opacity:1" d="M 653.56,443.183 668.916,443.183 z" id="boundary" inkscape:connector-curvature="0" />
	<path style="fill:none;stroke:red;stroke-width:1px;stroke-linecap:butt;stroke-linejoin:miter;stroke-opacity:1" d="M 659.703,4 675.059,4 z" id="boundary" inkscape:connector-curvature="0" />
	<path style="fill:none;stroke:red;stroke-width:1px;stroke-linecap:butt;stroke-linejoin:miter;stroke-opacity:1" d="M 668.916,443.183 682.737,450.861 z" id="boundary" inkscape:connector-curvature="0" />
	<path style="fill:none;stroke:red;stroke-width:1px;stroke-linecap:butt;stroke-linejoin:miter;stroke-opacity:1" d="M 675.059,4 688.879,11.678 z" id="boundary" inkscape:connector-curvature="0" />
	<path style="fill:none;stroke:red;stroke-width:1px;stroke-linecap:butt;stroke-linejoin:miter;stroke-opacity:1" d="M 682.737,450.861 695.022,460.074 z" id="boundary" inkscape:connector-curvature="0" />
	<path style="fill:none;stroke:red;stroke-width:1px;stroke-linecap:butt;stroke-linejoin:miter;stroke-opacity:1" d="M 688.879,11.678 704.235,16.2848 z" id="boundary" inkscape:connector-curvature="0" />
	<path style="fill:none;stroke:red;stroke-width:1px;stroke-linecap:butt;stroke-linejoin:miter;stroke-opacity:1" d="M 695.022,460.074 705.771,472.359 z" id="boundary" inkscape:connector-curvature="0" />
	<path style="fill:none;stroke:red;stroke-width:1px;stroke-linecap:butt;stroke-linejoin:miter;stroke-opacity:1" d="M 704.235,16.2848 719.591,19.356 z" id="boundary" inkscape:connector-curvature="0" />
	<path style="fill:none;stroke:red;stroke-width:1px;stroke-linecap:butt;stroke-linejoin:miter;stroke-opacity:1" d="M 705.771,472.359 718.056,481.573 z" id="boundary" inkscape:connector-curvature="0" />
	<path style="fill:none;stroke:red;stroke-width:1px;stroke-linecap:butt;stroke-linejoin:miter;stroke-opacity:1" d="M 718.056,481.573 731.876,489.251 z" id="boundary" inkscape:connector-curvature="0" />
	<path style="fill:none;stroke:red;stroke-width:1px;stroke-linecap:butt;stroke-linejoin:miter;stroke-opacity:1" d="M 719.591,19.356 734.947,23.9628 z" id="boundary" inkscape:connector-curvature="0" />
	<path style="fill:none;stroke:red;stroke-width:1px;stroke-linecap:butt;stroke-linejoin:miter;stroke-opacity:1" d="M 731.876,489.251 738.019,504.607 z" id="boundary" inkscape:connector-curvature="0" />
	<path style="fill:none;stroke:red;stroke-width:1px;stroke-linecap:butt;stroke-linejoin:miter;stroke-opacity:1" d="M 734.947,23.9628 750.303,27.0341 z" id="boundary" inkscape:connector-curvature="0" />
	<path style="fill:none;stroke:red;stroke-width:1px;stroke-linecap:butt;stroke-linejoin:miter;stroke-opacity:1" d="M 734.947,343.368 734.947,358.724 z" id="boundary" inkscape:connector-curvature="0" />
	<path style="fill:none;stroke:red;stroke-width:1px;stroke-linecap:butt;stroke-linejoin:miter;stroke-opacity:1" d="M 734.947,343.368 748.768,335.69 z" id="boundary" inkscape:connector-curvature="0" />
	<path style="fill:none;stroke:red;stroke-width:1px;stroke-linecap:butt;stroke-linejoin:miter;stroke-opacity:1" d="M 734.947,358.724 742.625,372.545 z" id="boundary" inkscape:connector-curvature="0" />
	<path style="fill:none;stroke:red;stroke-width:1px;stroke-linecap:butt;stroke-linejoin:miter;stroke-opacity:1" d="M 738.019,504.607 745.697,518.427 z" id="boundary" inkscape:connector-curvature="0" />
	<path style="fill:none;stroke:red;stroke-width:1px;stroke-linecap:butt;stroke-linejoin:miter;stroke-opacity:1" d="M 742.625,372.545 750.303,386.365 z" id="boundary" inkscape:connector-curvature="0" />
	<path style="fill:none;stroke:red;stroke-width:1px;stroke-linecap:butt;stroke-linejoin:miter;stroke-opacity:1" d="M 745.697,518.427 756.446,530.712 z" id="boundary" inkscape:connector-curvature="0" />
	<path style="fill:none;stroke:red;stroke-width:1px;stroke-linecap:butt;stroke-linejoin:miter;stroke-opacity:1" d="M 748.768,335.69 761.053,326.477 z" id="boundary" inkscape:connector-curvature="0" />
	<path style="fill:none;stroke:red;stroke-width:1px;stroke-linecap:butt;stroke-linejoin:miter;stroke-opacity:1" d="M 748.768,546.068 756.446,530.712 z" id="boundary" inkscape:connector-curvature="0" />
	<path style="fill:none;stroke:red;stroke-width:1px;stroke-linecap:butt;stroke-linejoin:miter;stroke-opacity:1" d="M 748.768,546.068 756.446,559.889 z" id="boundary" inkscape:connector-curvature="0" />
	<path style="fill:none;stroke:red;stroke-width:1px;stroke-linecap:butt;stroke-linejoin:miter;stroke-opacity:1" d="M 750.303,27.0341 764.124,34.7121 z" id="boundary" inkscape:connector-curvature="0" />
	<path style="fill:none;stroke:red;stroke-width:1px;stroke-linecap:butt;stroke-linejoin:miter;stroke-opacity:1" d="M 750.303,386.365 757.981,400.186 z" id="boundary" inkscape:connector-curvature="0" />
	<path style="fill:none;stroke:red;stroke-width:1px;stroke-linecap:butt;stroke-linejoin:miter;stroke-opacity:1" d="M 756.446,559.889 767.195,572.173 z" id="boundary" inkscape:connector-curvature="0" />
	<path style="fill:none;stroke:red;stroke-width:1px;stroke-linecap:butt;stroke-linejoin:miter;stroke-opacity:1" d="M 757.981,400.186 768.731,412.471 z" id="boundary" inkscape:connector-curvature="0" />
	<path style="fill:none;stroke:red;stroke-width:1px;stroke-linecap:butt;stroke-linejoin:miter;stroke-opacity:1" d="M 761.053,326.477 776.409,320.334 z" id="boundary" inkscape:connector-curvature="0" />
	<path style="fill:none;stroke:red;stroke-width:1px;stroke-linecap:butt;stroke-linejoin:miter;stroke-opacity:1" d="M 764.124,34.7121 776.409,43.9257 z" id="boundary" inkscape:connector-curvature="0" />
	<path style="fill:none;stroke:red;stroke-width:1px;stroke-linecap:butt;stroke-linejoin:miter;stroke-opacity:1" d="M 767.195,572.173 782.551,573.709 z" id="boundary" inkscape:connector-curvature="0" />
	<path style="fill:none;stroke:red;stroke-width:1px;stroke-linecap:butt;stroke-linejoin:miter;stroke-opacity:1" d="M 768.731,412.471 781.015,423.22 z" id="boundary" inkscape:connector-curvature="0" />
	<path style="fill:none;stroke:red;stroke-width:1px;stroke-linecap:butt;stroke-linejoin:miter;stroke-opacity:1" d="M 776.409,43.9257 791.765,50.0681 z" id="boundary" inkscape:connector-curvature="0" />
	<path style="fill:none;stroke:red;stroke-width:1px;stroke-linecap:butt;stroke-linejoin:miter;stroke-opacity:1" d="M 776.409,320.334 790.229,328.012 z" id="boundary" inkscape:connector-curvature="0" />
	<path style="fill:none;stroke:red;stroke-width:1px;stroke-linecap:butt;stroke-linejoin:miter;stroke-opacity:1" d="M 781.015,423.22 791.765,435.505 z" id="boundary" inkscape:connector-curvature="0" />
	<path style="fill:none;stroke:red;stroke-width:1px;stroke-linecap:butt;stroke-linejoin:miter;stroke-opacity:1" d="M 782.551,573.709 794.836,561.424 z" id="boundary" inkscape:connector-curvature="0" />
	<path style="fill:none;stroke:red;stroke-width:1px;stroke-linecap:butt;stroke-linejoin:miter;stroke-opacity:1" d="M 790.229,328.012 802.514,337.226 z" id="boundary" inkscape:connector-curvature="0" />
	<path style="fill:none;stroke:red;stroke-width:1px;stroke-linecap:butt;stroke-linejoin:miter;stroke-opacity:1" d="M 791.765,50.0681 802.514,62.3529 z" id="boundary" inkscape:connector-curvature="0" />
	<path style="fill:none;stroke:red;stroke-width:1px;stroke-linecap:butt;stroke-linejoin:miter;stroke-opacity:1" d="M 791.765,435.505 807.121,441.647 z" id="boundary" inkscape:connector-curvature="0" />
	<path style="fill:none;stroke:red;stroke-width:1px;stroke-linecap:butt;stroke-linejoin:miter;stroke-opacity:1" d="M 794.836,561.424 807.121,550.675 z" id="boundary" inkscape:connector-curvature="0" />
	<path style="fill:none;stroke:red;stroke-width:1px;stroke-linecap:butt;stroke-linejoin:miter;stroke-opacity:1" d="M 802.514,62.3529 817.87,68.4954 z" id="boundary" inkscape:connector-curvature="0" />
	<path style="fill:none;stroke:red;stroke-width:1px;stroke-linecap:butt;stroke-linejoin:miter;stroke-opacity:1" d="M 802.514,337.226 813.263,349.511 z" id="boundary" inkscape:connector-curvature="0" />
	<path style="fill:none;stroke:red;stroke-width:1px;stroke-linecap:butt;stroke-linejoin:miter;stroke-opacity:1" d="M 807.121,441.647 820.941,449.325 z" id="boundary" inkscape:connector-curvature="0" />
	<path style="fill:none;stroke:red;stroke-width:1px;stroke-linecap:butt;stroke-linejoin:miter;stroke-opacity:1" d="M 807.121,550.675 820.941,542.997 z" id="boundary" inkscape:connector-curvature="0" />
	<path style="fill:none;stroke:red;stroke-width:1px;stroke-linecap:butt;stroke-linejoin:miter;stroke-opacity:1" d="M 813.263,349.511 828.619,355.653 z" id="boundary" inkscape:connector-curvature="0" />
	<path style="fill:none;stroke:red;stroke-width:1px;stroke-linecap:butt;stroke-linejoin:miter;stroke-opacity:1" d="M 817.87,68.4954 827.084,80.7802 z" id="boundary" inkscape:connector-curvature="0" />
	<path style="fill:none;stroke:red;stroke-width:1px;stroke-linecap:butt;stroke-linejoin:miter;stroke-opacity:1" d="M 819.406,97.6718 822.477,113.028 z" id="boundary" inkscape:connector-curvature="0" />
	<path style="fill:none;stroke:red;stroke-width:1px;stroke-linecap:butt;stroke-linejoin:miter;stroke-opacity:1" d="M 819.406,97.6718 834.762,100.743 z" id="boundary" inkscape:connector-curvature="0" />
	<path style="fill:none;stroke:red;stroke-width:1px;stroke-linecap:butt;stroke-linejoin:miter;stroke-opacity:1" d="M 820.941,449.325 833.226,460.074 z" id="boundary" inkscape:connector-curvature="0" />
	<path style="fill:none;stroke:red;stroke-width:1px;stroke-linecap:butt;stroke-linejoin:miter;stroke-opacity:1" d="M 820.941,542.997 833.226,530.712 z" id="boundary" inkscape:connector-curvature="0" />
	<path style="fill:none;stroke:red;stroke-width:1px;stroke-linecap:butt;stroke-linejoin:miter;stroke-opacity:1" d="M 822.477,113.028 827.084,128.384 z" id="boundary" inkscape:connector-curvature="0" />
	<path style="fill:none;stroke:red;stroke-width:1px;stroke-linecap:butt;stroke-linejoin:miter;stroke-opacity:1" d="M 827.084,128.384 834.762,142.204 z" id="boundary" inkscape:connector-curvature="0" />
	<path style="fill:none;stroke:red;stroke-width:1px;stroke-linecap:butt;stroke-linejoin:miter;stroke-opacity:1" d="M 828.619,355.653 840.904,366.402 z" id="boundary" inkscape:connector-curvature="0" />
	<path style="fill:none;stroke:red;stroke-width:1px;stroke-linecap:butt;stroke-linejoin:miter;stroke-opacity:1" d="M 833.226,460.074 842.44,472.359 z" id="boundary" inkscape:connector-curvature="0" />
	<path style="fill:none;stroke:red;stroke-width:1px;stroke-linecap:butt;stroke-linejoin:miter;stroke-opacity:1" d="M 833.226,530.712 845.511,518.427 z" id="boundary" inkscape:connector-curvature="0" />
	<path style="fill:none;stroke:red;stroke-width:1px;stroke-linecap:butt;stroke-linejoin:miter;stroke-opacity:1" d="M 834.762,142.204 842.44,156.025 z" id="boundary" inkscape:connector-curvature="0" />
	<path style="fill:none;stroke:red;stroke-width:1px;stroke-linecap:butt;stroke-linejoin:miter;stroke-opacity:1" d="M 840.904,366.402 854.724,374.08 z" id="boundary" inkscape:connector-curvature="0" />
	<path style="fill:none;stroke:red;stroke-width:1px;stroke-linecap:butt;stroke-linejoin:miter;stroke-opacity:1" d="M 842.44,156.025 850.118,169.845 z" id="boundary" inkscape:connector-curvature="0" />
	<path style="fill:none;stroke:red;stroke-width:1px;stroke-linecap:butt;stroke-linejoin:miter;stroke-opacity:1" d="M 842.44,472.359 854.724,481.573 z" id="boundary" inkscape:connector-curvature="0" />
	<path style="fill:none;stroke:red;stroke-width:1px;stroke-linecap:butt;stroke-linejoin:miter;stroke-opacity:1" d="M 845.511,113.028 853.189,126.848 z" id="boundary" inkscape:connector-curvature="0" />
	<path style="fill:none;stroke:red;stroke-width:1px;stroke-linecap:butt;stroke-linejoin:miter;stroke-opacity:1" d="M 845.511,113.028 860.867,111.492 z" id="boundary" inkscape:connector-curvature="0" />
	<path style="fill:none;stroke:red;stroke-width:1px;stroke-linecap:butt;stroke-linejoin:miter;stroke-opacity:1" d="M 845.511,518.427 850.118,496.929 z" id="boundary" inkscape:connector-curvature="0" />
	<path style="fill:none;stroke:red;stroke-width:1px;stroke-linecap:butt;stroke-linejoin:miter;stroke-opacity:1" d="M 850.118,169.845 863.938,177.523 z" id="boundary" inkscape:connector-curvature="0" />
	<path style="fill:none;stroke:red;stroke-width:1px;stroke-linecap:butt;stroke-linejoin:miter;stroke-opacity:1" d="M 850.118,496.929 854.724,481.573 z" id="boundary" inkscape:connector-curvature="0" />
	<path style="fill:none;stroke:red;stroke-width:1px;stroke-linecap:butt;stroke-linejoin:miter;stroke-opacity:1" d="M 853.189,126.848 863.938,139.133 z" id="boundary" inkscape:connector-curvature="0" />
	<path style="fill:none;stroke:red;stroke-width:1px;stroke-linecap:butt;stroke-linejoin:miter;stroke-opacity:1" d="M 854.724,374.08 863.938,386.365 z" id="boundary" inkscape:connector-curvature="0" />
	<path style="fill:none;stroke:red;stroke-width:1px;stroke-linecap:butt;stroke-linejoin:miter;stroke-opacity:1" d="M 863.938,177.523 876.223,188.272 z" id="boundary" inkscape:connector-curvature="0" />
	<path style="fill:none;stroke:red;stroke-width:1px;stroke-linecap:butt;stroke-linejoin:miter;stroke-opacity:1" d="M 863.938,386.365 876.223,397.115 z" id="boundary" inkscape:connector-curvature="0" />
	<path style="fill:none;stroke:red;stroke-width:1px;stroke-linecap:butt;stroke-linejoin:miter;stroke-opacity:1" d="M 876.223,188.272 886.972,200.557 z" id="boundary" inkscape:connector-curvature="0" />
	<path style="fill:none;stroke:red;stroke-width:1px;stroke-linecap:butt;stroke-linejoin:miter;stroke-opacity:1" d="M 876.223,397.115 886.972,409.399 z" id="boundary" inkscape:connector-curvature="0" />
	<path style="fill:none;stroke:red;stroke-width:1px;stroke-linecap:butt;stroke-linejoin:miter;stroke-opacity:1" d="M 879.294,134.526 882.365,149.882 z" id="boundary" inkscape:connector-curvature="0" />
	<path style="fill:none;stroke:red;stroke-width:1px;stroke-linecap:butt;stroke-linejoin:miter;stroke-opacity:1" d="M 879.294,134.526 894.65,134.526 z" id="boundary" inkscape:connector-curvature="0" />
	<path style="fill:none;stroke:red;stroke-width:1px;stroke-linecap:butt;stroke-linejoin:miter;stroke-opacity:1" d="M 882.365,149.882 897.721,151.418 z" id="boundary" inkscape:connector-curvature="0" />
	<path style="fill:none;stroke:red;stroke-width:1px;stroke-linecap:butt;stroke-linejoin:miter;stroke-opacity:1" d="M 886.972,200.557 899.257,211.307 z" id="boundary" inkscape:connector-curvature="0" />
	<path style="fill:none;stroke:red;stroke-width:1px;stroke-linecap:butt;stroke-linejoin:miter;stroke-opacity:1" d="M 886.972,409.399 888.508,424.755 z" id="boundary" inkscape:connector-curvature="0" />
	<path style="fill:none;stroke:red;stroke-width:1px;stroke-linecap:butt;stroke-linejoin:miter;stroke-opacity:1" d="M 888.508,424.755 896.186,438.576 z" id="boundary" inkscape:connector-curvature="0" />
	<path style="fill:none;stroke:red;stroke-width:1px;stroke-linecap:butt;stroke-linejoin:miter;stroke-opacity:1" d="M 894.65,134.526 897.721,151.418 z" id="boundary" inkscape:connector-curvature="0" />
	<path style="fill:none;stroke:red;stroke-width:1px;stroke-linecap:butt;stroke-linejoin:miter;stroke-opacity:1" d="M 896.186,438.576 911.542,435.505 z" id="boundary" inkscape:connector-curvature="0" />
	<path style="fill:none;stroke:red;stroke-width:1px;stroke-linecap:butt;stroke-linejoin:miter;stroke-opacity:1" d="M 899.257,211.307 910.006,223.591 z" id="boundary" inkscape:connector-curvature="0" />
	<path style="fill:none;stroke:red;stroke-width:1px;stroke-linecap:butt;stroke-linejoin:miter;stroke-opacity:1" d="M 910.006,223.591 925.362,229.734 z" id="boundary" inkscape:connector-curvature="0" />
	<path style="fill:none;stroke:red;stroke-width:1px;stroke-linecap:butt;stroke-linejoin:miter;stroke-opacity:1" d="M 911.542,304.978 914.613,320.334 z" id="boundary" inkscape:connector-curvature="0" />
	<path style="fill:none;stroke:red;stroke-width:1px;stroke-linecap:butt;stroke-linejoin:miter;stroke-opacity:1" d="M 911.542,304.978 926.898,308.05 z" id="boundary" inkscape:connector-curvature="0" />
	<path style="fill:none;stroke:red;stroke-width:1px;stroke-linecap:butt;stroke-linejoin:miter;stroke-opacity:1" d="M 911.542,435.505 926.898,427.827 z" id="boundary" inkscape:connector-curvature="0" />
	<path style="fill:none;stroke:red;stroke-width:1px;stroke-linecap:butt;stroke-linejoin:miter;stroke-opacity:1" d="M 914.613,320.334 926.898,331.084 z" id="boundary" inkscape:connector-curvature="0" />
	<path style="fill:none;stroke:red;stroke-width:1px;stroke-linecap:butt;stroke-linejoin:miter;stroke-opacity:1" d="M 925.362,229.734 934.576,242.019 z" id="boundary" inkscape:connector-curvature="0" />
	<path style="fill:none;stroke:red;stroke-width:1px;stroke-linecap:butt;stroke-linejoin:miter;stroke-opacity:1" d="M 926.898,308.05 940.718,315.728 z" id="boundary" inkscape:connector-curvature="0" />
	<path style="fill:none;stroke:red;stroke-width:1px;stroke-linecap:butt;stroke-linejoin:miter;stroke-opacity:1" d="M 926.898,331.084 937.647,343.368 z" id="boundary" inkscape:connector-curvature="0" />
	<path style="fill:none;stroke:red;stroke-width:1px;stroke-linecap:butt;stroke-linejoin:miter;stroke-opacity:1" d="M 926.898,427.827 942.254,412.471 z" id="boundary" inkscape:connector-curvature="0" />
	<path style="fill:none;stroke:red;stroke-width:1px;stroke-linecap:butt;stroke-linejoin:miter;stroke-opacity:1" d="M 934.576,242.019 949.932,246.625 z" id="boundary" inkscape:connector-curvature="0" />
	<path style="fill:none;stroke:red;stroke-width:1px;stroke-linecap:butt;stroke-linejoin:miter;stroke-opacity:1" d="M 937.647,343.368 949.932,354.118 z" id="boundary" inkscape:connector-curvature="0" />
	<path style="fill:none;stroke:red;stroke-width:1px;stroke-linecap:butt;stroke-linejoin:miter;stroke-opacity:1" d="M 940.718,315.728 948.396,329.548 z" id="boundary" inkscape:connector-curvature="0" />
	<path style="fill:none;stroke:red;stroke-width:1px;stroke-linecap:butt;stroke-linejoin:miter;stroke-opacity:1" d="M 942.254,412.471 949.932,397.115 z" id="boundary" inkscape:connector-curvature="0" />
	<path style="fill:none;stroke:red;stroke-width:1px;stroke-linecap:butt;stroke-linejoin:miter;stroke-opacity:1" d="M 948.396,329.548 963.752,335.69 z" id="boundary" inkscape:connector-curvature="0" />
	<path style="fill:none;stroke:red;stroke-width:1px;stroke-linecap:butt;stroke-linejoin:miter;stroke-opacity:1" d="M 949.932,246.625 963.752,254.303 z" id="boundary" inkscape:connector-curvature="0" />
	<path style="fill:none;stroke:red;stroke-width:1px;stroke-linecap:butt;stroke-linejoin:miter;stroke-opacity:1" d="M 949.932,354.118 960.681,366.402 z" id="boundary" inkscape:connector-curvature="0" />
	<path style="fill:none;stroke:red;stroke-width:1px;stroke-linecap:butt;stroke-linejoin:miter;stroke-opacity:1" d="M 949.932,397.115 962.217,386.365 z" id="boundary" inkscape:connector-curvature="0" />
	<path style="fill:none;stroke:red;stroke-width:1px;stroke-linecap:butt;stroke-linejoin:miter;stroke-opacity:1" d="M 960.681,366.402 962.217,386.365 z" id="boundary" inkscape:connector-curvature="0" />
	<path style="fill:none;stroke:red;stroke-width:1px;stroke-linecap:butt;stroke-linejoin:miter;stroke-opacity:1" d="M 963.752,254.303 976.037,265.053 z" id="boundary" inkscape:connector-curvature="0" />
	<path style="fill:none;stroke:red;stroke-width:1px;stroke-linecap:butt;stroke-linejoin:miter;stroke-opacity:1" d="M 963.752,335.69 979.108,338.762 z" id="boundary" inkscape:connector-curvature="0" />
	<path style="fill:none;stroke:red;stroke-width:1px;stroke-linecap:butt;stroke-linejoin:miter;stroke-opacity:1" d="M 976.037,265.053 989.858,272.731 z" id="boundary" inkscape:connector-curvature="0" />
	<path style="fill:none;stroke:red;stroke-width:1px;stroke-linecap:butt;stroke-linejoin:miter;stroke-opacity:1" d="M 979.108,338.762 988.322,320.334 z" id="boundary" inkscape:connector-curvature="0" />
	<path style="fill:none;stroke:red;stroke-width:1px;stroke-linecap:butt;stroke-linejoin:miter;stroke-opacity:1" d="M 988.322,320.334 996,304.978 z" id="boundary" inkscape:connector-curvature="0" />
	<path style="fill:none;stroke:red;stroke-width:1px;stroke-linecap:butt;stroke-linejoin:miter;stroke-opacity:1" d="M 989.858,272.731 996,288.087 z" id="boundary" inkscape:connector-curvature="0" />
	<path style="fill:none;stroke:red;stroke-width:1px;stroke-linecap:butt;stroke-linejoin:miter;stroke-opacity:1" d="M 996,288.087 996,304.978 z" id="boundary" inkscape:connector-curvature="0" />
	<circle cx="4" cy="415.542" r="4" fill="#0" id="circle0"/>
	<circle cx="4" cy="430.898" r="4" fill="#0" id="circle1"/>
	<circle cx="4" cy="446.254" r="4" fill="#0" id="circle2"/>
	<circle cx="4" cy="461.61" r="4" fill="#0" id="circle3"/>
	<circle cx="4" cy="476.966" r="4" fill="#0" id="circle4"/>
	<circle cx="11.678" cy="400.186" r="4" fill="#0" id="circle5"/>
	<circle cx="11.678" cy="490.786" r="4" fill="#0" id="circle6"/>
	<circle cx="19.356" cy="504.607" r="4" fill="#0" id="circle7"/>
	<circle cx="23.9628" cy="387.901" r="4" fill="#0" id="circle8"/>
	<circle cx="28.5697" cy="516.892" r="4" fill="#0" id="circle9"/>
	<circle cx="34.7121" cy="369.474" r="4" fill="#0" id="circle10"/>
	<circle cx="43.9257" cy="435.505" r="4" fill="#0" id="circle11"/>
	<circle cx="43.9257" cy="450.861" r="4" fill="#0" id="circle12"/>
	<circle cx="43.9257" cy="466.217" r="4" fill="#0" id="circle13"/>
	<circle cx="43.9257" cy="523.034" r="4" fill="#0" id="circle14"/>
	<circle cx="46.9969" cy="357.189" r="4" fill="#0" id="circle15"/>
	<circle cx="51.6037" cy="480.037" r="4" fill="#0" id="circle16"/>
	<circle cx="56.2105" cy="424.755" r="4" fill="#0" id="circle17"/>
	<circle cx="57.7461" cy="530.712" r="4" fill="#0" id="circle18"/>
	<circle cx="59.2817" cy="493.858" r="4" fill="#0" id="circle19"/>
	<circle cx="60.8173" cy="349.511" r="4" fill="#0" id="circle20"/>
	<circle cx="66.9598" cy="412.471" r="4" fill="#0" id="circle21"/>
	<circle cx="73.1022" cy="338.762" r="4" fill="#0" id="circle22"/>
	<circle cx="73.1022" cy="535.319" r="4" fill="#0" id="circle23"/>
	<circle cx="74.6378" cy="500" r="4" fill="#0" id="circle24"/>
	<circle cx="79.2446" cy="401.721" r="4" fill="#0" id="circle25"/>
	<circle cx="85.387" cy="326.477" r="4" fill="#0" id="circle26"/>
	<circle cx="88.4582" cy="535.319" r="4" fill="#0" id="circle27"/>
	<circle cx="89.9938" cy="503.071" r="4" fill="#0" id="circle28"/>
	<circle cx="94.6006" cy="394.043" r="4" fill="#0" id="circle29"/>
	<circle cx="96.1362" cy="423.22" r="4" fill="#0" id="circle30"/>
	<circle cx="100.743" cy="318.799" r="4" fill="#0" id="circle31"/>
	<circle cx="103.814" cy="530.712" r="4" fill="#0" id="circle32"/>
	<circle cx="105.35" cy="381.759" r="4" fill="#0" id="circle33"/>
	<circle cx="105.35" cy="503.071" r="4" fill="#0" id="circle34"/>
	<circle cx="108.421" cy="410.935" r="4" fill="#0" id="circle35"/>
	<circle cx="111.492" cy="427.827" r="4" fill="#0" id="circle36"/>
	<circle cx="116.099" cy="311.121" r="4" fill="#0" id="circle37"/>
	<circle cx="119.17" cy="495.393" r="4" fill="#0" id="circle38"/>
	<circle cx="119.17" cy="527.641" r="4" fill="#0" id="circle39"/>
	<circle cx="120.706" cy="381.759" r="4" fill="#0" id="circle40"/>
	<circle cx="123.777" cy="403.257" r="4" fill="#0" id="circle41"/>
	<circle cx="125.313" cy="420.149" r="4" fill="#0" id="circle42"/>
	<circle cx="129.92" cy="303.443" r="4" fill="#0" id="circle43"/>
	<circle cx="132.991" cy="487.715" r="4" fill="#0" id="circle44"/>
	<circle cx="132.991" cy="519.963" r="4" fill="#0" id="circle45"/>
	<circle cx="134.526" cy="374.08" r="4" fill="#0" id="circle46"/>
	<circle cx="137.598" cy="395.579" r="4" fill="#0" id="circle47"/>
	<circle cx="140.669" cy="417.077" r="4" fill="#0" id="circle48"/>
	<circle cx="142.204" cy="292.693" r="4" fill="#0" id="circle49"/>
	<circle cx="146.811" cy="512.285" r="4" fill="#0" id="circle50"/>
	<circle cx="148.347" cy="366.402" r="4" fill="#0" id="circle51"/>
	<circle cx="148.347" cy="487.715" r="4" fill="#0" id="circle52"/>
	<circle cx="152.954" cy="389.437" r="4" fill="#0" id="circle53"/>
	<circle cx="154.489" cy="280.409" r="4" fill="#0" id="circle54"/>
	<circle cx="156.025" cy="409.399" r="4" fill="#0" id="circle55"/>
	<circle cx="162.167" cy="265.053" r="4" fill="#0" id="circle56"/>
	<circle cx="162.167" cy="358.724" r="4" fill="#0" id="circle57"/>
	<circle cx="162.167" cy="480.037" r="4" fill="#0" id="circle58"/>
	<circle cx="162.167" cy="510.749" r="4" fill="#0" id="circle59"/>
	<circle cx="165.238" cy="380.223" r="4" fill="#0" id="circle60"/>
	<circle cx="169.845" cy="249.697" r="4" fill="#0" id="circle61"/>
	<circle cx="171.381" cy="401.721" r="4" fill="#0" id="circle62"/>
	<circle cx="175.988" cy="351.046" r="4" fill="#0" id="circle63"/>
	<circle cx="177.523" cy="234.341" r="4" fill="#0" id="circle64"/>
	<circle cx="177.523" cy="472.359" r="4" fill="#0" id="circle65"/>
	<circle cx="177.523" cy="504.607" r="4" fill="#0" id="circle66"/>
	<circle cx="179.059" cy="372.545" r="4" fill="#0" id="circle67"/>
	<circle cx="185.201" cy="218.985" r="4" fill="#0" id="circle68"/>
	<circle cx="186.737" cy="394.043" r="4" fill="#0" id="circle69"/>
	<circle cx="189.808" cy="343.368" r="4" fill="#0" id="circle70"/>
	<circle cx="189.808" cy="360.26" r="4" fill="#0" id="circle71"/>
	<circle cx="191.344" cy="480.037" r="4" fill="#0" id="circle72"/>
	<circle cx="192.879" cy="504.607" r="4" fill="#0" id="circle73"/>
	<circle cx="197.486" cy="206.7" r="4" fill="#0" id="circle74"/>
	<circle cx="197.486" cy="381.759" r="4" fill="#0" id="circle75"/>
	<circle cx="205.164" cy="487.715" r="4" fill="#0" id="circle76"/>
	<circle cx="208.235" cy="503.071" r="4" fill="#0" id="circle77"/>
	<circle cx="209.771" cy="195.95" r="4" fill="#0" id="circle78"/>
	<circle cx="211.307" cy="374.08" r="4" fill="#0" id="circle79"/>
	<circle cx="223.591" cy="188.272" r="4" fill="#0" id="circle80"/>
	<circle cx="223.591" cy="364.867" r="4" fill="#0" id="circle81"/>
	<circle cx="234.341" cy="169.845" r="4" fill="#0" id="circle82"/>
	<circle cx="235.876" cy="351.046" r="4" fill="#0" id="circle83"/>
	<circle cx="246.625" cy="157.56" r="4" fill="#0" id="circle84"/>
	<circle cx="249.697" cy="358.724" r="4" fill="#0" id="circle85"/>
	<circle cx="258.91" cy="145.276" r="4" fill="#0" id="circle86"/>
	<circle cx="265.053" cy="358.724" r="4" fill="#0" id="circle87"/>
	<circle cx="274.266" cy="137.598" r="4" fill="#0" id="circle88"/>
	<circle cx="280.409" cy="358.724" r="4" fill="#0" id="circle89"/>
	<circle cx="289.622" cy="134.526" r="4" fill="#0" id="circle90"/>
	<circle cx="295.765" cy="358.724" r="4" fill="#0" id="circle91"/>
	<circle cx="304.978" cy="134.526" r="4" fill="#0" id="circle92"/>
	<circle cx="304.978" cy="371.009" r="4" fill="#0" id="circle93"/>
	<circle cx="320.334" cy="129.92" r="4" fill="#0" id="circle94"/>
	<circle cx="320.334" cy="377.152" r="4" fill="#0" id="circle95"/>
	<circle cx="332.619" cy="119.17" r="4" fill="#0" id="circle96"/>
	<circle cx="335.69" cy="381.759" r="4" fill="#0" id="circle97"/>
	<circle cx="341.833" cy="100.743" r="4" fill="#0" id="circle98"/>
	<circle cx="349.511" cy="389.437" r="4" fill="#0" id="circle99"/>
	<circle cx="357.189" cy="96.1362" r="4" fill="#0" id="circle100"/>
	<circle cx="358.724" cy="401.721" r="4" fill="#0" id="circle101"/>
	<circle cx="366.402" cy="415.542" r="4" fill="#0" id="circle102"/>
	<circle cx="371.009" cy="88.4582" r="4" fill="#0" id="circle103"/>
	<circle cx="377.152" cy="427.827" r="4" fill="#0" id="circle104"/>
	<circle cx="380.223" cy="443.183" r="4" fill="#0" id="circle105"/>
	<circle cx="381.759" cy="76.1734" r="4" fill="#0" id="circle106"/>
	<circle cx="389.437" cy="455.467" r="4" fill="#0" id="circle107"/>
	<circle cx="397.115" cy="73.1022" r="4" fill="#0" id="circle108"/>
	<circle cx="404.793" cy="461.61" r="4" fill="#0" id="circle109"/>
	<circle cx="412.471" cy="73.1022" r="4" fill="#0" id="circle110"/>
	<circle cx="415.542" cy="473.895" r="4" fill="#0" id="circle111"/>
	<circle cx="427.827" cy="68.4954" r="4" fill="#0" id="circle112"/>
	<circle cx="427.827" cy="484.644" r="4" fill="#0" id="circle113"/>
	<circle cx="438.576" cy="496.929" r="4" fill="#0" id="circle114"/>
	<circle cx="443.183" cy="73.1022" r="4" fill="#0" id="circle115"/>
	<circle cx="453.932" cy="503.071" r="4" fill="#0" id="circle116"/>
	<circle cx="457.003" cy="65.4241" r="4" fill="#0" id="circle117"/>
	<circle cx="464.681" cy="515.356" r="4" fill="#0" id="circle118"/>
	<circle cx="464.681" cy="530.712" r="4" fill="#0" id="circle119"/>
	<circle cx="470.824" cy="57.7461" r="4" fill="#0" id="circle120"/>
	<circle cx="472.359" cy="544.533" r="4" fill="#0" id="circle121"/>
	<circle cx="481.573" cy="45.4613" r="4" fill="#0" id="circle122"/>
	<circle cx="483.108" cy="556.817" r="4" fill="#0" id="circle123"/>
	<circle cx="490.786" cy="570.638" r="4" fill="#0" id="circle124"/>
	<circle cx="493.858" cy="34.7121" r="4" fill="#0" id="circle125"/>
	<circle cx="503.071" cy="581.387" r="4" fill="#0" id="circle126"/>
	<circle cx="507.678" cy="27.0341" r="4" fill="#0" id="circle127"/>
	<circle cx="507.678" cy="596.743" r="4" fill="#0" id="circle128"/>
	<circle cx="510.749" cy="612.099" r="4" fill="#0" id="circle129"/>
	<circle cx="515.356" cy="627.455" r="4" fill="#0" id="circle130"/>
	<circle cx="523.034" cy="27.0341" r="4" fill="#0" id="circle131"/>
	<circle cx="526.105" cy="639.74" r="4" fill="#0" id="circle132"/>
	<circle cx="526.105" cy="668.916" r="4" fill="#0" id="circle133"/>
	<circle cx="526.105" cy="699.628" r="4" fill="#0" id="circle134"/>
	<circle cx="526.105" cy="714.985" r="4" fill="#0" id="circle135"/>
	<circle cx="533.783" cy="653.56" r="4" fill="#0" id="circle136"/>
	<circle cx="533.783" cy="682.737" r="4" fill="#0" id="circle137"/>
	<circle cx="533.783" cy="728.805" r="4" fill="#0" id="circle138"/>
	<circle cx="536.854" cy="19.356" r="4" fill="#0" id="circle139"/>
	<circle cx="549.139" cy="727.269" r="4" fill="#0" id="circle140"/>
	<circle cx="552.211" cy="19.356" r="4" fill="#0" id="circle141"/>
	<circle cx="562.96" cy="719.591" r="4" fill="#0" id="circle142"/>
	<circle cx="567.567" cy="13.2136" r="4" fill="#0" id="circle143"/>
	<circle cx="573.709" cy="458.539" r="4" fill="#0" id="circle144"/>
	<circle cx="573.709" cy="473.895" r="4" fill="#0" id="circle145"/>
	<circle cx="573.709" cy="489.251" r="4" fill="#0" id="circle146"/>
	<circle cx="576.78" cy="710.378" r="4" fill="#0" id="circle147"/>
	<circle cx="581.387" cy="503.071" r="4" fill="#0" id="circle148"/>
	<circle cx="581.387" cy="518.427" r="4" fill="#0" id="circle149"/>
	<circle cx="582.923" cy="5.5356" r="4" fill="#0" id="circle150"/>
	<circle cx="585.994" cy="447.789" r="4" fill="#0" id="circle151"/>
	<circle cx="589.065" cy="532.248" r="4" fill="#0" id="circle152"/>
	<circle cx="589.065" cy="547.604" r="4" fill="#0" id="circle153"/>
	<circle cx="589.065" cy="562.96" r="4" fill="#0" id="circle154"/>
	<circle cx="589.065" cy="696.557" r="4" fill="#0" id="circle155"/>
	<circle cx="596.743" cy="576.78" r="4" fill="#0" id="circle156"/>
	<circle cx="596.743" cy="592.136" r="4" fill="#0" id="circle157"/>
	<circle cx="598.279" cy="4" r="4" fill="#0" id="circle158"/>
	<circle cx="601.35" cy="440.111" r="4" fill="#0" id="circle159"/>
	<circle cx="601.35" cy="685.808" r="4" fill="#0" id="circle160"/>
	<circle cx="604.421" cy="605.957" r="4" fill="#0" id="circle161"/>
	<circle cx="604.421" cy="627.455" r="4" fill="#0" id="circle162"/>
	<circle cx="610.563" cy="427.827" r="4" fill="#0" id="circle163"/>
	<circle cx="612.099" cy="673.523" r="4" fill="#0" id="circle164"/>
	<circle cx="613.635" cy="4" r="4" fill="#0" id="circle165"/>
	<circle cx="616.706" cy="636.669" r="4" fill="#0" id="circle166"/>
	<circle cx="624.384" cy="662.774" r="4" fill="#0" id="circle167"/>
	<circle cx="625.92" cy="427.827" r="4" fill="#0" id="circle168"/>
	<circle cx="628.991" cy="4" r="4" fill="#0" id="circle169"/>
	<circle cx="639.74" cy="435.505" r="4" fill="#0" id="circle170"/>
	<circle cx="644.347" cy="4" r="4" fill="#0" id="circle171"/>
	<circle cx="653.56" cy="443.183" r="4" fill="#0" id="circle172"/>
	<circle cx="659.703" cy="4" r="4" fill="#0" id="circle173"/>
	<circle cx="668.916" cy="443.183" r="4" fill="#0" id="circle174"/>
	<circle cx="675.059" cy="4" r="4" fill="#0" id="circle175"/>
	<circle cx="682.737" cy="450.861" r="4" fill="#0" id="circle176"/>
	<circle cx="688.879" cy="11.678" r="4" fill="#0" id="circle177"/>
	<circle cx="695.022" cy="460.074" r="4" fill="#0" id="circle178"/>
	<circle cx="704.235" cy="16.2848" r="4" fill="#0" id="circle179"/>
	<circle cx="705.771" cy="472.359" r="4" fill="#0" id="circle180"/>
	<circle cx="718.056" cy="481.573" r="4" fill="#0" id="circle181"/>
	<circle cx="719.591" cy="19.356" r="4" fill="#0" id="circle182"/>
	<circle cx="731.876" cy="489.251" r="4" fill="#0" id="circle183"/>
	<circle cx="734.947" cy="23.9628" r="4" fill="#0" id="circle184"/>
	<circle cx="734.947" cy="343.368" r="4" fill="#0" id="circle185"/>
	<circle cx="734.947" cy="358.724" r="4" fill="#0" id="circle186"/>
	<circle cx="738.019" cy="504.607" r="4" fill="#0" id="circle187"/>
	<circle cx="742.625" cy="372.545" r="4" fill="#0" id="circle188"/>
	<circle cx="745.697" cy="518.427" r="4" fill="#0" id="circle189"/>
	<circle cx="748.768" cy="335.69" r="4" fill="#0" id="circle190"/>
	<circle cx="748.768" cy="546.068" r="4" fill="#0" id="circle191"/>
	<circle cx="750.303" cy="27.0341" r="4" fill="#0" id="circle192"/>
	<circle cx="750.303" cy="386.365" r="4" fill="#0" id="circle193"/>
	<circle cx="756.446" cy="530.712" r="4" fill="#0" id="circle194"/>
	<circle cx="756.446" cy="559.889" r="4" fill="#0" id="circle195"/>
	<circle cx="757.981" cy="400.186" r="4" fill="#0" id="circle196"/>
	<circle cx="761.053" cy="326.477" r="4" fill="#0" id="circle197"/>
	<circle cx="764.124" cy="34.7121" r="4" fill="#0" id="circle198"/>
	<circle cx="767.195" cy="572.173" r="4" fill="#0" id="circle199"/>
	<circle cx="768.731" cy="412.471" r="4" fill="#0" id="circle200"/>
	<circle cx="776.409" cy="43.9257" r="4" fill="#0" id="circle201"/>
	<circle cx="776.409" cy="320.334" r="4" fill="#0" id="circle202"/>
	<circle cx="781.015" cy="423.22" r="4" fill="#0" id="circle203"/>
	<circle cx="782.551" cy="573.709" r="4" fill="#0" id="circle204"/>
	<circle cx="790.229" cy="328.012" r="4" fill="#0" id="circle205"/>
	<circle cx="791.765" cy="50.0681" r="4" fill="#0" id="circle206"/>
	<circle cx="791.765" cy="435.505" r="4" fill="#0" id="circle207"/>
	<circle cx="794.836" cy="561.424" r="4" fill="#0" id="circle208"/>
	<circle cx="802.514" cy="62.3529" r="4" fill="#0" id="circle209"/>
	<circle cx="802.514" cy="337.226" r="4" fill="#0" id="circle210"/>
	<circle cx="807.121" cy="441.647" r="4" fill="#0" id="circle211"/>
	<circle cx="807.121" cy="550.675" r="4" fill="#0" id="circle212"/>
	<circle cx="813.263" cy="349.511" r="4" fill="#0" id="circle213"/>
	<circle cx="817.87" cy="68.4954" r="4" fill="#0" id="circle214"/>
	<circle cx="819.406" cy="97.6718" r="4" fill="#0" id="circle215"/>
	<circle cx="820.941" cy="449.325" r="4" fill="#0" id="circle216"/>
	<circle cx="820.941" cy="542.997" r="4" fill="#0" id="circle217"/>
	<circle cx="822.477" cy="113.028" r="4" fill="#0" id="circle218"/>
	<circle cx="827.084" cy="80.7802" r="4" fill="#0" id="circle219"/>
	<circle cx="827.084" cy="128.384" r="4" fill="#0" id="circle220"/>
	<circle cx="828.619" cy="355.653" r="4" fill="#0" id="circle221"/>
	<circle cx="833.226" cy="460.074" r="4" fill="#0" id="circle222"/>
	<circle cx="833.226" cy="530.712" r="4" fill="#0" id="circle223"/>
	<circle cx="834.762" cy="100.743" r="4" fill="#0" id="circle224"/>
	<circle cx="834.762" cy="142.204" r="4" fill="#0" id="circle225"/>
	<circle cx="840.904" cy="366.402" r="4" fill="#0" id="circle226"/>
	<circle cx="842.44" cy="156.025" r="4" fill="#0" id="circle227"/>
	<circle cx="842.44" cy="472.359" r="4" fill="#0" id="circle228"/>
	<circle cx="845.511" cy="113.028" r="4" fill="#0" id="circle229"/>
	<circle cx="845.511" cy="518.427" r="4" fill="#0" id="circle230"/>
	<circle cx="850.118" cy="169.845" r="4" fill="#0" id="circle231"/>
	<circle cx="850.118" cy="496.929" r="4" fill="#0" id="circle232"/>
	<circle cx="853.189" cy="126.848" r="4" fill="#0" id="circle233"/>
	<circle cx="854.724" cy="374.08" r="4" fill="#0" id="circle234"/>
	<circle cx="854.724" cy="481.573" r="4" fill="#0" id="circle235"/>
	<circle cx="860.867" cy="111.492" r="4" fill="#0" id="circle236"/>
	<circle cx="863.938" cy="139.133" r="4" fill="#0" id="circle237"/>
	<circle cx="863.938" cy="177.523" r="4" fill="#0" id="circle238"/>
	<circle cx="863.938" cy="386.365" r="4" fill="#0" id="circle239"/>
	<circle cx="876.223" cy="188.272" r="4" fill="#0" id="circle240"/>
	<circle cx="876.223" cy="397.115" r="4" fill="#0" id="circle241"/>
	<circle cx="879.294" cy="134.526" r="4" fill="#0" id="circle242"/>
	<circle cx="882.365" cy="149.882" r="4" fill="#0" id="circle243"/>
	<circle cx="886.972" cy="200.557" r="4" fill="#0" id="circle244"/>
	<circle cx="886.972" cy="409.399" r="4" fill="#0" id="circle245"/>
	<circle cx="888.508" cy="424.755" r="4" fill="#0" id="circle246"/>
	<circle cx="894.65" cy="134.526" r="4" fill="#0" id="circle247"/>
	<circle cx="896.186" cy="438.576" r="4" fill="#0" id="circle248"/>
	<circle cx="897.721" cy="151.418" r="4" fill="#0" id="circle249"/>
	<circle cx="899.257" cy="211.307" r="4" fill="#0" id="circle250"/>
	<circle cx="910.006" cy="223.591" r="4" fill="#0" id="circle251"/>
	<circle cx="911.542" cy="304.978" r="4" fill="#0" id="circle252"/>
	<circle cx="911.542" cy="435.505" r="4" fill="#0" id="circle253"/>
	<circle cx="914.613" cy="320.334" r="4" fill="#0" id="circle254"/>
	<circle cx="925.362" cy="229.734" r="4" fill="#0" id="circle255"/>
	<circle cx="926.898" cy="308.05" r="4" fill="#0" id="circle256"/>
	<circle cx="926.898" cy="331.084" r="4" fill="#0" id="circle257"/>
	<circle cx="926.898" cy="427.827" r="4" fill="#0" id="circle258"/>
	<circle cx="934.576" cy="242.019" r="4" fill="#0" id="circle259"/>
	<circle cx="937.647" cy="343.368" r="4" fill="#0" id="circle260"/>
	<circle cx="940.718" cy="315.728" r="4" fill="#0" id="circle261"/>
	<circle cx="942.254" cy="412.471" r="4" fill="#0" id="circle262"/>
	<circle cx="948.396" cy="329.548" r="4" fill="#0" id="circle263"/>
	<circle cx="949.932" cy="246.625" r="4" fill="#0" id="circle264"/>
	<circle cx="949.932" cy="354.118" r="4" fill="#0" id="circle265"/>
	<circle cx="949.932" cy="397.115" r="4" fill="#0" id="circle266"/>
	<circle cx="960.681" cy="366.402" r="4" fill="#0" id="circle267"/>
	<circle cx="962.217" cy="386.365" r="4" fill="#0" id="circle268"/>
	<circle cx="963.752" cy="254.303" r="4" fill="#0" id="circle269"/>
	<circle cx="963.752" cy="335.69" r="4" fill="#0" id="circle270"/>
	<circle cx="976.037" cy="265.053" r="4" fill="#0" id="circle271"/>
	<circle cx="979.108" cy="338.762" r="4" fill="#0" id="circle272"/>
	<circle cx="988.322" cy="320.334" r="4" fill="#0" id="circle273"/>
	<circle cx="989.858" cy="272.731" r="4" fill="#0" id="circle274"/>
	<circle cx="996" cy="288.087" r="4" fill="#0" id="circle275"/>
	<circle cx="996" cy="304.978" r="4" fill="#0" id="circle276"/>
	</g>
</svg>