<?xml version="1.0" encoding="UTF-8" standalone="no"?>
<!-- Created with CurveBenchmark -->
<svg
	xmlns:dc="http://purl.org/dc/elements/1.1/"
	xmlns:cc="http://creativecommons.org/ns#"
	xmlns:rdf="http://www.w3.org/1999/02/22-rdf-syntax-ns#"
	xmlns:svg="http://www.w3.org/2000/svg"
	xmlns="http://www.w3.org/2000/svg"
	xmlns:sodipodi="http://sodipodi.sourceforge.net/DTD/sodipodi-0.dtd"
	xmlns:inkscape="http://www.inkscape.org/namespaces/inkscape"
	width="1000"
	height="1000"
	id="svg2"
	version="1.1"
	sodipodi:docname="manifold/hnncrust-flightbird07.png.txt">
<defs
	id="defs4" />
<metadata
	id="metadata7">
	<rdf:RDF>
		<cc:Work
			rdf:about="">
			<dc:format>image/svg+xml</dc:format>
			<dc:type
				rdf:resource="http://purl.org/dc/dcmitype/StillImage" />
			<dc:title></dc:title>
		</cc:Work>
	</rdf:RDF>
</metadata>
<g
	inkscape:label="Layer 1"
	inkscape:groupmode="layer"
	id="layer1">
	<path style="fill:none;stroke:red;stroke-width:1px;stroke-linecap:butt;stroke-linejoin:miter;stroke-opacity:1" d="M 4,814.627 13.2537,796.119 z" id="boundary" inkscape:connector-curvature="0" />
	<path style="fill:none;stroke:red;stroke-width:1px;stroke-linecap:butt;stroke-linejoin:miter;stroke-opacity:1" d="M 4,814.627 22.5075,820.179 z" id="boundary" inkscape:connector-curvature="0" />
	<path style="fill:none;stroke:red;stroke-width:1px;stroke-linecap:butt;stroke-linejoin:miter;stroke-opacity:1" d="M 13.2537,759.104 24.3582,773.91 z" id="boundary" inkscape:connector-curvature="0" />
	<path style="fill:none;stroke:red;stroke-width:1px;stroke-linecap:butt;stroke-linejoin:miter;stroke-opacity:1" d="M 13.2537,870.149 31.7612,875.701 z" id="boundary" inkscape:connector-curvature="0" />
	<path style="fill:none;stroke:red;stroke-width:1px;stroke-linecap:butt;stroke-linejoin:miter;stroke-opacity:1" d="M 22.5075,820.179 41.0149,814.627 z" id="boundary" inkscape:connector-curvature="0" />
	<path style="fill:none;stroke:red;stroke-width:1px;stroke-linecap:butt;stroke-linejoin:miter;stroke-opacity:1" d="M 24.3582,773.91 41.0149,764.657 z" id="boundary" inkscape:connector-curvature="0" />
	<path style="fill:none;stroke:red;stroke-width:1px;stroke-linecap:butt;stroke-linejoin:miter;stroke-opacity:1" d="M 31.7612,740.597 41.0149,764.657 z" id="boundary" inkscape:connector-curvature="0" />
	<path style="fill:none;stroke:red;stroke-width:1px;stroke-linecap:butt;stroke-linejoin:miter;stroke-opacity:1" d="M 31.7612,740.597 50.2687,731.343 z" id="boundary" inkscape:connector-curvature="0" />
	<path style="fill:none;stroke:red;stroke-width:1px;stroke-linecap:butt;stroke-linejoin:miter;stroke-opacity:1" d="M 31.7612,851.642 46.5672,836.836 z" id="boundary" inkscape:connector-curvature="0" />
	<path style="fill:none;stroke:red;stroke-width:1px;stroke-linecap:butt;stroke-linejoin:miter;stroke-opacity:1" d="M 41.0149,814.627 59.5224,818.328 z" id="boundary" inkscape:connector-curvature="0" />
	<path style="fill:none;stroke:red;stroke-width:1px;stroke-linecap:butt;stroke-linejoin:miter;stroke-opacity:1" d="M 50.2687,731.343 68.7761,722.09 z" id="boundary" inkscape:connector-curvature="0" />
	<path style="fill:none;stroke:red;stroke-width:1px;stroke-linecap:butt;stroke-linejoin:miter;stroke-opacity:1" d="M 50.2687,870.149 50.2687,888.657 z" id="boundary" inkscape:connector-curvature="0" />
	<path style="fill:none;stroke:red;stroke-width:1px;stroke-linecap:butt;stroke-linejoin:miter;stroke-opacity:1" d="M 50.2687,870.149 68.7761,866.448 z" id="boundary" inkscape:connector-curvature="0" />
	<path style="fill:none;stroke:red;stroke-width:1px;stroke-linecap:butt;stroke-linejoin:miter;stroke-opacity:1" d="M 50.2687,888.657 68.7761,894.209 z" id="boundary" inkscape:connector-curvature="0" />
	<path style="fill:none;stroke:red;stroke-width:1px;stroke-linecap:butt;stroke-linejoin:miter;stroke-opacity:1" d="M 52.1194,792.418 68.7761,801.672 z" id="boundary" inkscape:connector-curvature="0" />
	<path style="fill:none;stroke:red;stroke-width:1px;stroke-linecap:butt;stroke-linejoin:miter;stroke-opacity:1" d="M 59.5224,818.328 68.7761,801.672 z" id="boundary" inkscape:connector-curvature="0" />
	<path style="fill:none;stroke:red;stroke-width:1px;stroke-linecap:butt;stroke-linejoin:miter;stroke-opacity:1" d="M 68.7761,722.09 87.2836,712.836 z" id="boundary" inkscape:connector-curvature="0" />
	<path style="fill:none;stroke:red;stroke-width:1px;stroke-linecap:butt;stroke-linejoin:miter;stroke-opacity:1" d="M 68.7761,894.209 87.2836,888.657 z" id="boundary" inkscape:connector-curvature="0" />
	<path style="fill:none;stroke:red;stroke-width:1px;stroke-linecap:butt;stroke-linejoin:miter;stroke-opacity:1" d="M 87.2836,712.836 96.5373,694.328 z" id="boundary" inkscape:connector-curvature="0" />
	<path style="fill:none;stroke:red;stroke-width:1px;stroke-linecap:butt;stroke-linejoin:miter;stroke-opacity:1" d="M 87.2836,888.657 102.09,901.612 z" id="boundary" inkscape:connector-curvature="0" />
	<path style="fill:none;stroke:red;stroke-width:1px;stroke-linecap:butt;stroke-linejoin:miter;stroke-opacity:1" d="M 96.5373,694.328 115.045,685.075 z" id="boundary" inkscape:connector-curvature="0" />
	<path style="fill:none;stroke:red;stroke-width:1px;stroke-linecap:butt;stroke-linejoin:miter;stroke-opacity:1" d="M 102.09,901.612 120.597,901.612 z" id="boundary" inkscape:connector-curvature="0" />
	<path style="fill:none;stroke:red;stroke-width:1px;stroke-linecap:butt;stroke-linejoin:miter;stroke-opacity:1" d="M 115.045,685.075 129.851,670.269 z" id="boundary" inkscape:connector-curvature="0" />
	<path style="fill:none;stroke:red;stroke-width:1px;stroke-linecap:butt;stroke-linejoin:miter;stroke-opacity:1" d="M 120.597,901.612 135.403,884.955 z" id="boundary" inkscape:connector-curvature="0" />
	<path style="fill:none;stroke:red;stroke-width:1px;stroke-linecap:butt;stroke-linejoin:miter;stroke-opacity:1" d="M 129.851,670.269 146.507,661.015 z" id="boundary" inkscape:connector-curvature="0" />
	<path style="fill:none;stroke:red;stroke-width:1px;stroke-linecap:butt;stroke-linejoin:miter;stroke-opacity:1" d="M 135.403,884.955 152.06,894.209 z" id="boundary" inkscape:connector-curvature="0" />
	<path style="fill:none;stroke:red;stroke-width:1px;stroke-linecap:butt;stroke-linejoin:miter;stroke-opacity:1" d="M 146.507,661.015 165.015,653.612 z" id="boundary" inkscape:connector-curvature="0" />
	<path style="fill:none;stroke:red;stroke-width:1px;stroke-linecap:butt;stroke-linejoin:miter;stroke-opacity:1" d="M 152.06,894.209 170.567,894.209 z" id="boundary" inkscape:connector-curvature="0" />
	<path style="fill:none;stroke:red;stroke-width:1px;stroke-linecap:butt;stroke-linejoin:miter;stroke-opacity:1" d="M 165.015,653.612 174.269,635.104 z" id="boundary" inkscape:connector-curvature="0" />
	<path style="fill:none;stroke:red;stroke-width:1px;stroke-linecap:butt;stroke-linejoin:miter;stroke-opacity:1" d="M 170.567,894.209 189.075,888.657 z" id="boundary" inkscape:connector-curvature="0" />
	<path style="fill:none;stroke:red;stroke-width:1px;stroke-linecap:butt;stroke-linejoin:miter;stroke-opacity:1" d="M 174.269,635.104 192.776,633.254 z" id="boundary" inkscape:connector-curvature="0" />
	<path style="fill:none;stroke:red;stroke-width:1px;stroke-linecap:butt;stroke-linejoin:miter;stroke-opacity:1" d="M 189.075,888.657 203.881,875.701 z" id="boundary" inkscape:connector-curvature="0" />
	<path style="fill:none;stroke:red;stroke-width:1px;stroke-linecap:butt;stroke-linejoin:miter;stroke-opacity:1" d="M 192.776,633.254 209.433,624 z" id="boundary" inkscape:connector-curvature="0" />
	<path style="fill:none;stroke:red;stroke-width:1px;stroke-linecap:butt;stroke-linejoin:miter;stroke-opacity:1" d="M 203.881,875.701 220.537,866.448 z" id="boundary" inkscape:connector-curvature="0" />
	<path style="fill:none;stroke:red;stroke-width:1px;stroke-linecap:butt;stroke-linejoin:miter;stroke-opacity:1" d="M 209.433,624 226.09,614.746 z" id="boundary" inkscape:connector-curvature="0" />
	<path style="fill:none;stroke:red;stroke-width:1px;stroke-linecap:butt;stroke-linejoin:miter;stroke-opacity:1" d="M 220.537,866.448 239.045,866.448 z" id="boundary" inkscape:connector-curvature="0" />
	<path style="fill:none;stroke:red;stroke-width:1px;stroke-linecap:butt;stroke-linejoin:miter;stroke-opacity:1" d="M 226.09,614.746 244.597,614.746 z" id="boundary" inkscape:connector-curvature="0" />
	<path style="fill:none;stroke:red;stroke-width:1px;stroke-linecap:butt;stroke-linejoin:miter;stroke-opacity:1" d="M 239.045,866.448 246.448,847.94 z" id="boundary" inkscape:connector-curvature="0" />
	<path style="fill:none;stroke:red;stroke-width:1px;stroke-linecap:butt;stroke-linejoin:miter;stroke-opacity:1" d="M 244.597,614.746 261.254,605.493 z" id="boundary" inkscape:connector-curvature="0" />
	<path style="fill:none;stroke:red;stroke-width:1px;stroke-linecap:butt;stroke-linejoin:miter;stroke-opacity:1" d="M 246.448,847.94 264.955,847.94 z" id="boundary" inkscape:connector-curvature="0" />
	<path style="fill:none;stroke:red;stroke-width:1px;stroke-linecap:butt;stroke-linejoin:miter;stroke-opacity:1" d="M 261.254,605.493 279.761,605.493 z" id="boundary" inkscape:connector-curvature="0" />
	<path style="fill:none;stroke:red;stroke-width:1px;stroke-linecap:butt;stroke-linejoin:miter;stroke-opacity:1" d="M 264.955,847.94 281.612,838.687 z" id="boundary" inkscape:connector-curvature="0" />
	<path style="fill:none;stroke:red;stroke-width:1px;stroke-linecap:butt;stroke-linejoin:miter;stroke-opacity:1" d="M 279.761,605.493 290.866,583.284 z" id="boundary" inkscape:connector-curvature="0" />
	<path style="fill:none;stroke:red;stroke-width:1px;stroke-linecap:butt;stroke-linejoin:miter;stroke-opacity:1" d="M 281.612,838.687 298.269,829.433 z" id="boundary" inkscape:connector-curvature="0" />
	<path style="fill:none;stroke:red;stroke-width:1px;stroke-linecap:butt;stroke-linejoin:miter;stroke-opacity:1" d="M 290.866,583.284 309.373,577.731 z" id="boundary" inkscape:connector-curvature="0" />
	<path style="fill:none;stroke:red;stroke-width:1px;stroke-linecap:butt;stroke-linejoin:miter;stroke-opacity:1" d="M 298.269,829.433 316.776,829.433 z" id="boundary" inkscape:connector-curvature="0" />
	<path style="fill:none;stroke:red;stroke-width:1px;stroke-linecap:butt;stroke-linejoin:miter;stroke-opacity:1" d="M 309.373,577.731 326.03,568.478 z" id="boundary" inkscape:connector-curvature="0" />
	<path style="fill:none;stroke:red;stroke-width:1px;stroke-linecap:butt;stroke-linejoin:miter;stroke-opacity:1" d="M 316.776,829.433 333.433,820.179 z" id="boundary" inkscape:connector-curvature="0" />
	<path style="fill:none;stroke:red;stroke-width:1px;stroke-linecap:butt;stroke-linejoin:miter;stroke-opacity:1" d="M 326.03,568.478 338.985,553.672 z" id="boundary" inkscape:connector-curvature="0" />
	<path style="fill:none;stroke:red;stroke-width:1px;stroke-linecap:butt;stroke-linejoin:miter;stroke-opacity:1" d="M 333.433,820.179 351.94,820.179 z" id="boundary" inkscape:connector-curvature="0" />
	<path style="fill:none;stroke:red;stroke-width:1px;stroke-linecap:butt;stroke-linejoin:miter;stroke-opacity:1" d="M 338.985,553.672 357.493,549.97 z" id="boundary" inkscape:connector-curvature="0" />
	<path style="fill:none;stroke:red;stroke-width:1px;stroke-linecap:butt;stroke-linejoin:miter;stroke-opacity:1" d="M 351.94,820.179 370.448,818.328 z" id="boundary" inkscape:connector-curvature="0" />
	<path style="fill:none;stroke:red;stroke-width:1px;stroke-linecap:butt;stroke-linejoin:miter;stroke-opacity:1" d="M 357.493,549.97 374.149,527.761 z" id="boundary" inkscape:connector-curvature="0" />
	<path style="fill:none;stroke:red;stroke-width:1px;stroke-linecap:butt;stroke-linejoin:miter;stroke-opacity:1" d="M 370.448,818.328 388.955,810.925 z" id="boundary" inkscape:connector-curvature="0" />
	<path style="fill:none;stroke:red;stroke-width:1px;stroke-linecap:butt;stroke-linejoin:miter;stroke-opacity:1" d="M 374.149,527.761 392.657,518.507 z" id="boundary" inkscape:connector-curvature="0" />
	<path style="fill:none;stroke:red;stroke-width:1px;stroke-linecap:butt;stroke-linejoin:miter;stroke-opacity:1" d="M 388.955,810.925 407.463,810.925 z" id="boundary" inkscape:connector-curvature="0" />
	<path style="fill:none;stroke:red;stroke-width:1px;stroke-linecap:butt;stroke-linejoin:miter;stroke-opacity:1" d="M 392.657,518.507 407.463,503.701 z" id="boundary" inkscape:connector-curvature="0" />
	<path style="fill:none;stroke:red;stroke-width:1px;stroke-linecap:butt;stroke-linejoin:miter;stroke-opacity:1" d="M 407.463,503.701 424.119,494.448 z" id="boundary" inkscape:connector-curvature="0" />
	<path style="fill:none;stroke:red;stroke-width:1px;stroke-linecap:butt;stroke-linejoin:miter;stroke-opacity:1" d="M 407.463,810.925 425.97,809.075 z" id="boundary" inkscape:connector-curvature="0" />
	<path style="fill:none;stroke:red;stroke-width:1px;stroke-linecap:butt;stroke-linejoin:miter;stroke-opacity:1" d="M 424.119,494.448 438.925,472.239 z" id="boundary" inkscape:connector-curvature="0" />
	<path style="fill:none;stroke:red;stroke-width:1px;stroke-linecap:butt;stroke-linejoin:miter;stroke-opacity:1" d="M 425.97,809.075 435.224,792.418 z" id="boundary" inkscape:connector-curvature="0" />
	<path style="fill:none;stroke:red;stroke-width:1px;stroke-linecap:butt;stroke-linejoin:miter;stroke-opacity:1" d="M 429.672,388.955 429.672,407.463 z" id="boundary" inkscape:connector-curvature="0" />
	<path style="fill:none;stroke:red;stroke-width:1px;stroke-linecap:butt;stroke-linejoin:miter;stroke-opacity:1" d="M 429.672,388.955 448.179,383.403 z" id="boundary" inkscape:connector-curvature="0" />
	<path style="fill:none;stroke:red;stroke-width:1px;stroke-linecap:butt;stroke-linejoin:miter;stroke-opacity:1" d="M 429.672,407.463 429.672,425.97 z" id="boundary" inkscape:connector-curvature="0" />
	<path style="fill:none;stroke:red;stroke-width:1px;stroke-linecap:butt;stroke-linejoin:miter;stroke-opacity:1" d="M 429.672,425.97 438.925,442.627 z" id="boundary" inkscape:connector-curvature="0" />
	<path style="fill:none;stroke:red;stroke-width:1px;stroke-linecap:butt;stroke-linejoin:miter;stroke-opacity:1" d="M 435.224,792.418 451.881,783.164 z" id="boundary" inkscape:connector-curvature="0" />
	<path style="fill:none;stroke:red;stroke-width:1px;stroke-linecap:butt;stroke-linejoin:miter;stroke-opacity:1" d="M 438.925,442.627 438.925,472.239 z" id="boundary" inkscape:connector-curvature="0" />
	<path style="fill:none;stroke:red;stroke-width:1px;stroke-linecap:butt;stroke-linejoin:miter;stroke-opacity:1" d="M 448.179,383.403 466.687,383.403 z" id="boundary" inkscape:connector-curvature="0" />
	<path style="fill:none;stroke:red;stroke-width:1px;stroke-linecap:butt;stroke-linejoin:miter;stroke-opacity:1" d="M 451.881,783.164 468.537,773.91 z" id="boundary" inkscape:connector-curvature="0" />
	<path style="fill:none;stroke:red;stroke-width:1px;stroke-linecap:butt;stroke-linejoin:miter;stroke-opacity:1" d="M 466.687,383.403 485.194,387.104 z" id="boundary" inkscape:connector-curvature="0" />
	<path style="fill:none;stroke:red;stroke-width:1px;stroke-linecap:butt;stroke-linejoin:miter;stroke-opacity:1" d="M 468.537,773.91 483.343,760.955 z" id="boundary" inkscape:connector-curvature="0" />
	<path style="fill:none;stroke:red;stroke-width:1px;stroke-linecap:butt;stroke-linejoin:miter;stroke-opacity:1" d="M 483.343,760.955 496.299,736.896 z" id="boundary" inkscape:connector-curvature="0" />
	<path style="fill:none;stroke:red;stroke-width:1px;stroke-linecap:butt;stroke-linejoin:miter;stroke-opacity:1" d="M 485.194,387.104 503.701,392.657 z" id="boundary" inkscape:connector-curvature="0" />
	<path style="fill:none;stroke:red;stroke-width:1px;stroke-linecap:butt;stroke-linejoin:miter;stroke-opacity:1" d="M 496.299,736.896 514.806,727.642 z" id="boundary" inkscape:connector-curvature="0" />
	<path style="fill:none;stroke:red;stroke-width:1px;stroke-linecap:butt;stroke-linejoin:miter;stroke-opacity:1" d="M 503.701,392.657 520.358,401.91 z" id="boundary" inkscape:connector-curvature="0" />
	<path style="fill:none;stroke:red;stroke-width:1px;stroke-linecap:butt;stroke-linejoin:miter;stroke-opacity:1" d="M 514.806,727.642 533.313,718.388 z" id="boundary" inkscape:connector-curvature="0" />
	<path style="fill:none;stroke:red;stroke-width:1px;stroke-linecap:butt;stroke-linejoin:miter;stroke-opacity:1" d="M 520.358,401.91 533.313,387.104 z" id="boundary" inkscape:connector-curvature="0" />
	<path style="fill:none;stroke:red;stroke-width:1px;stroke-linecap:butt;stroke-linejoin:miter;stroke-opacity:1" d="M 533.313,387.104 549.97,370.448 z" id="boundary" inkscape:connector-curvature="0" />
	<path style="fill:none;stroke:red;stroke-width:1px;stroke-linecap:butt;stroke-linejoin:miter;stroke-opacity:1" d="M 533.313,718.388 551.821,709.134 z" id="boundary" inkscape:connector-curvature="0" />
	<path style="fill:none;stroke:red;stroke-width:1px;stroke-linecap:butt;stroke-linejoin:miter;stroke-opacity:1" d="M 549.97,370.448 564.776,355.642 z" id="boundary" inkscape:connector-curvature="0" />
	<path style="fill:none;stroke:red;stroke-width:1px;stroke-linecap:butt;stroke-linejoin:miter;stroke-opacity:1" d="M 551.821,709.134 561.075,690.627 z" id="boundary" inkscape:connector-curvature="0" />
	<path style="fill:none;stroke:red;stroke-width:1px;stroke-linecap:butt;stroke-linejoin:miter;stroke-opacity:1" d="M 561.075,690.627 570.328,672.119 z" id="boundary" inkscape:connector-curvature="0" />
	<path style="fill:none;stroke:red;stroke-width:1px;stroke-linecap:butt;stroke-linejoin:miter;stroke-opacity:1" d="M 564.776,355.642 583.284,346.388 z" id="boundary" inkscape:connector-curvature="0" />
	<path style="fill:none;stroke:red;stroke-width:1px;stroke-linecap:butt;stroke-linejoin:miter;stroke-opacity:1" d="M 570.328,672.119 586.985,662.866 z" id="boundary" inkscape:connector-curvature="0" />
	<path style="fill:none;stroke:red;stroke-width:1px;stroke-linecap:butt;stroke-linejoin:miter;stroke-opacity:1" d="M 583.284,346.388 601.791,337.134 z" id="boundary" inkscape:connector-curvature="0" />
	<path style="fill:none;stroke:red;stroke-width:1px;stroke-linecap:butt;stroke-linejoin:miter;stroke-opacity:1" d="M 586.985,662.866 603.642,653.612 z" id="boundary" inkscape:connector-curvature="0" />
	<path style="fill:none;stroke:red;stroke-width:1px;stroke-linecap:butt;stroke-linejoin:miter;stroke-opacity:1" d="M 601.791,337.134 605.493,314.925 z" id="boundary" inkscape:connector-curvature="0" />
	<path style="fill:none;stroke:red;stroke-width:1px;stroke-linecap:butt;stroke-linejoin:miter;stroke-opacity:1" d="M 603.642,653.612 605.493,672.119 z" id="boundary" inkscape:connector-curvature="0" />
	<path style="fill:none;stroke:red;stroke-width:1px;stroke-linecap:butt;stroke-linejoin:miter;stroke-opacity:1" d="M 605.493,314.925 620.299,300.119 z" id="boundary" inkscape:connector-curvature="0" />
	<path style="fill:none;stroke:red;stroke-width:1px;stroke-linecap:butt;stroke-linejoin:miter;stroke-opacity:1" d="M 605.493,672.119 605.493,690.627 z" id="boundary" inkscape:connector-curvature="0" />
	<path style="fill:none;stroke:red;stroke-width:1px;stroke-linecap:butt;stroke-linejoin:miter;stroke-opacity:1" d="M 605.493,690.627 605.493,709.134 z" id="boundary" inkscape:connector-curvature="0" />
	<path style="fill:none;stroke:red;stroke-width:1px;stroke-linecap:butt;stroke-linejoin:miter;stroke-opacity:1" d="M 605.493,709.134 605.493,727.642 z" id="boundary" inkscape:connector-curvature="0" />
	<path style="fill:none;stroke:red;stroke-width:1px;stroke-linecap:butt;stroke-linejoin:miter;stroke-opacity:1" d="M 605.493,727.642 605.493,746.149 z" id="boundary" inkscape:connector-curvature="0" />
	<path style="fill:none;stroke:red;stroke-width:1px;stroke-linecap:butt;stroke-linejoin:miter;stroke-opacity:1" d="M 605.493,746.149 605.493,764.657 z" id="boundary" inkscape:connector-curvature="0" />
	<path style="fill:none;stroke:red;stroke-width:1px;stroke-linecap:butt;stroke-linejoin:miter;stroke-opacity:1" d="M 605.493,764.657 605.493,783.164 z" id="boundary" inkscape:connector-curvature="0" />
	<path style="fill:none;stroke:red;stroke-width:1px;stroke-linecap:butt;stroke-linejoin:miter;stroke-opacity:1" d="M 605.493,783.164 614.746,799.821 z" id="boundary" inkscape:connector-curvature="0" />
	<path style="fill:none;stroke:red;stroke-width:1px;stroke-linecap:butt;stroke-linejoin:miter;stroke-opacity:1" d="M 614.746,799.821 614.746,818.328 z" id="boundary" inkscape:connector-curvature="0" />
	<path style="fill:none;stroke:red;stroke-width:1px;stroke-linecap:butt;stroke-linejoin:miter;stroke-opacity:1" d="M 614.746,818.328 629.552,829.433 z" id="boundary" inkscape:connector-curvature="0" />
	<path style="fill:none;stroke:red;stroke-width:1px;stroke-linecap:butt;stroke-linejoin:miter;stroke-opacity:1" d="M 620.299,300.119 638.806,290.866 z" id="boundary" inkscape:connector-curvature="0" />
	<path style="fill:none;stroke:red;stroke-width:1px;stroke-linecap:butt;stroke-linejoin:miter;stroke-opacity:1" d="M 629.552,829.433 646.209,820.179 z" id="boundary" inkscape:connector-curvature="0" />
	<path style="fill:none;stroke:red;stroke-width:1px;stroke-linecap:butt;stroke-linejoin:miter;stroke-opacity:1" d="M 638.806,290.866 651.761,259.403 z" id="boundary" inkscape:connector-curvature="0" />
	<path style="fill:none;stroke:red;stroke-width:1px;stroke-linecap:butt;stroke-linejoin:miter;stroke-opacity:1" d="M 646.209,820.179 664.716,820.179 z" id="boundary" inkscape:connector-curvature="0" />
	<path style="fill:none;stroke:red;stroke-width:1px;stroke-linecap:butt;stroke-linejoin:miter;stroke-opacity:1" d="M 651.761,259.403 670.269,240.896 z" id="boundary" inkscape:connector-curvature="0" />
	<path style="fill:none;stroke:red;stroke-width:1px;stroke-linecap:butt;stroke-linejoin:miter;stroke-opacity:1" d="M 664.716,820.179 683.224,820.179 z" id="boundary" inkscape:connector-curvature="0" />
	<path style="fill:none;stroke:red;stroke-width:1px;stroke-linecap:butt;stroke-linejoin:miter;stroke-opacity:1" d="M 670.269,240.896 679.522,222.388 z" id="boundary" inkscape:connector-curvature="0" />
	<path style="fill:none;stroke:red;stroke-width:1px;stroke-linecap:butt;stroke-linejoin:miter;stroke-opacity:1" d="M 679.522,222.388 688.776,194.627 z" id="boundary" inkscape:connector-curvature="0" />
	<path style="fill:none;stroke:red;stroke-width:1px;stroke-linecap:butt;stroke-linejoin:miter;stroke-opacity:1" d="M 683.224,820.179 701.731,820.179 z" id="boundary" inkscape:connector-curvature="0" />
	<path style="fill:none;stroke:red;stroke-width:1px;stroke-linecap:butt;stroke-linejoin:miter;stroke-opacity:1" d="M 688.776,194.627 698.03,176.119 z" id="boundary" inkscape:connector-curvature="0" />
	<path style="fill:none;stroke:red;stroke-width:1px;stroke-linecap:butt;stroke-linejoin:miter;stroke-opacity:1" d="M 698.03,176.119 716.537,166.866 z" id="boundary" inkscape:connector-curvature="0" />
	<path style="fill:none;stroke:red;stroke-width:1px;stroke-linecap:butt;stroke-linejoin:miter;stroke-opacity:1" d="M 699.881,542.567 718.388,549.97 z" id="boundary" inkscape:connector-curvature="0" />
	<path style="fill:none;stroke:red;stroke-width:1px;stroke-linecap:butt;stroke-linejoin:miter;stroke-opacity:1" d="M 701.731,820.179 718.388,810.925 z" id="boundary" inkscape:connector-curvature="0" />
	<path style="fill:none;stroke:red;stroke-width:1px;stroke-linecap:butt;stroke-linejoin:miter;stroke-opacity:1" d="M 716.537,148.358 716.537,166.866 z" id="boundary" inkscape:connector-curvature="0" />
	<path style="fill:none;stroke:red;stroke-width:1px;stroke-linecap:butt;stroke-linejoin:miter;stroke-opacity:1" d="M 716.537,148.358 731.343,133.552 z" id="boundary" inkscape:connector-curvature="0" />
	<path style="fill:none;stroke:red;stroke-width:1px;stroke-linecap:butt;stroke-linejoin:miter;stroke-opacity:1" d="M 718.388,524.06 736.896,514.806 z" id="boundary" inkscape:connector-curvature="0" />
	<path style="fill:none;stroke:red;stroke-width:1px;stroke-linecap:butt;stroke-linejoin:miter;stroke-opacity:1" d="M 718.388,549.97 736.896,549.97 z" id="boundary" inkscape:connector-curvature="0" />
	<path style="fill:none;stroke:red;stroke-width:1px;stroke-linecap:butt;stroke-linejoin:miter;stroke-opacity:1" d="M 718.388,810.925 736.896,810.925 z" id="boundary" inkscape:connector-curvature="0" />
	<path style="fill:none;stroke:red;stroke-width:1px;stroke-linecap:butt;stroke-linejoin:miter;stroke-opacity:1" d="M 731.343,133.552 748,124.299 z" id="boundary" inkscape:connector-curvature="0" />
	<path style="fill:none;stroke:red;stroke-width:1px;stroke-linecap:butt;stroke-linejoin:miter;stroke-opacity:1" d="M 736.896,514.806 755.403,505.552 z" id="boundary" inkscape:connector-curvature="0" />
	<path style="fill:none;stroke:red;stroke-width:1px;stroke-linecap:butt;stroke-linejoin:miter;stroke-opacity:1" d="M 736.896,549.97 755.403,549.97 z" id="boundary" inkscape:connector-curvature="0" />
	<path style="fill:none;stroke:red;stroke-width:1px;stroke-linecap:butt;stroke-linejoin:miter;stroke-opacity:1" d="M 736.896,810.925 755.403,792.418 z" id="boundary" inkscape:connector-curvature="0" />
	<path style="fill:none;stroke:red;stroke-width:1px;stroke-linecap:butt;stroke-linejoin:miter;stroke-opacity:1" d="M 748,124.299 762.806,102.09 z" id="boundary" inkscape:connector-curvature="0" />
	<path style="fill:none;stroke:red;stroke-width:1px;stroke-linecap:butt;stroke-linejoin:miter;stroke-opacity:1" d="M 755.403,505.552 773.91,496.299 z" id="boundary" inkscape:connector-curvature="0" />
	<path style="fill:none;stroke:red;stroke-width:1px;stroke-linecap:butt;stroke-linejoin:miter;stroke-opacity:1" d="M 755.403,549.97 773.91,549.97 z" id="boundary" inkscape:connector-curvature="0" />
	<path style="fill:none;stroke:red;stroke-width:1px;stroke-linecap:butt;stroke-linejoin:miter;stroke-opacity:1" d="M 755.403,792.418 773.91,783.164 z" id="boundary" inkscape:connector-curvature="0" />
	<path style="fill:none;stroke:red;stroke-width:1px;stroke-linecap:butt;stroke-linejoin:miter;stroke-opacity:1" d="M 762.806,102.09 777.612,87.2836 z" id="boundary" inkscape:connector-curvature="0" />
	<path style="fill:none;stroke:red;stroke-width:1px;stroke-linecap:butt;stroke-linejoin:miter;stroke-opacity:1" d="M 773.91,496.299 792.418,487.045 z" id="boundary" inkscape:connector-curvature="0" />
	<path style="fill:none;stroke:red;stroke-width:1px;stroke-linecap:butt;stroke-linejoin:miter;stroke-opacity:1" d="M 773.91,549.97 792.418,549.97 z" id="boundary" inkscape:connector-curvature="0" />
	<path style="fill:none;stroke:red;stroke-width:1px;stroke-linecap:butt;stroke-linejoin:miter;stroke-opacity:1" d="M 773.91,783.164 792.418,773.91 z" id="boundary" inkscape:connector-curvature="0" />
	<path style="fill:none;stroke:red;stroke-width:1px;stroke-linecap:butt;stroke-linejoin:miter;stroke-opacity:1" d="M 777.612,87.2836 796.119,78.0299 z" id="boundary" inkscape:connector-curvature="0" />
	<path style="fill:none;stroke:red;stroke-width:1px;stroke-linecap:butt;stroke-linejoin:miter;stroke-opacity:1" d="M 792.418,487.045 801.672,468.537 z" id="boundary" inkscape:connector-curvature="0" />
	<path style="fill:none;stroke:red;stroke-width:1px;stroke-linecap:butt;stroke-linejoin:miter;stroke-opacity:1" d="M 792.418,549.97 810.925,549.97 z" id="boundary" inkscape:connector-curvature="0" />
	<path style="fill:none;stroke:red;stroke-width:1px;stroke-linecap:butt;stroke-linejoin:miter;stroke-opacity:1" d="M 792.418,773.91 807.224,760.955 z" id="boundary" inkscape:connector-curvature="0" />
	<path style="fill:none;stroke:red;stroke-width:1px;stroke-linecap:butt;stroke-linejoin:miter;stroke-opacity:1" d="M 796.119,78.0299 805.373,59.5224 z" id="boundary" inkscape:connector-curvature="0" />
	<path style="fill:none;stroke:red;stroke-width:1px;stroke-linecap:butt;stroke-linejoin:miter;stroke-opacity:1" d="M 801.672,468.537 816.478,455.582 z" id="boundary" inkscape:connector-curvature="0" />
	<path style="fill:none;stroke:red;stroke-width:1px;stroke-linecap:butt;stroke-linejoin:miter;stroke-opacity:1" d="M 805.373,59.5224 814.627,41.0149 z" id="boundary" inkscape:connector-curvature="0" />
	<path style="fill:none;stroke:red;stroke-width:1px;stroke-linecap:butt;stroke-linejoin:miter;stroke-opacity:1" d="M 807.224,760.955 820.179,736.896 z" id="boundary" inkscape:connector-curvature="0" />
	<path style="fill:none;stroke:red;stroke-width:1px;stroke-linecap:butt;stroke-linejoin:miter;stroke-opacity:1" d="M 810.925,549.97 827.582,559.224 z" id="boundary" inkscape:connector-curvature="0" />
	<path style="fill:none;stroke:red;stroke-width:1px;stroke-linecap:butt;stroke-linejoin:miter;stroke-opacity:1" d="M 814.627,41.0149 831.284,31.7612 z" id="boundary" inkscape:connector-curvature="0" />
	<path style="fill:none;stroke:red;stroke-width:1px;stroke-linecap:butt;stroke-linejoin:miter;stroke-opacity:1" d="M 816.478,455.582 827.582,440.776 z" id="boundary" inkscape:connector-curvature="0" />
	<path style="fill:none;stroke:red;stroke-width:1px;stroke-linecap:butt;stroke-linejoin:miter;stroke-opacity:1" d="M 820.179,736.896 838.687,727.642 z" id="boundary" inkscape:connector-curvature="0" />
	<path style="fill:none;stroke:red;stroke-width:1px;stroke-linecap:butt;stroke-linejoin:miter;stroke-opacity:1" d="M 827.582,440.776 838.687,422.269 z" id="boundary" inkscape:connector-curvature="0" />
	<path style="fill:none;stroke:red;stroke-width:1px;stroke-linecap:butt;stroke-linejoin:miter;stroke-opacity:1" d="M 827.582,559.224 846.09,559.224 z" id="boundary" inkscape:connector-curvature="0" />
	<path style="fill:none;stroke:red;stroke-width:1px;stroke-linecap:butt;stroke-linejoin:miter;stroke-opacity:1" d="M 831.284,31.7612 840.537,15.1045 z" id="boundary" inkscape:connector-curvature="0" />
	<path style="fill:none;stroke:red;stroke-width:1px;stroke-linecap:butt;stroke-linejoin:miter;stroke-opacity:1" d="M 838.687,422.269 853.493,409.313 z" id="boundary" inkscape:connector-curvature="0" />
	<path style="fill:none;stroke:red;stroke-width:1px;stroke-linecap:butt;stroke-linejoin:miter;stroke-opacity:1" d="M 838.687,727.642 853.493,714.687 z" id="boundary" inkscape:connector-curvature="0" />
	<path style="fill:none;stroke:red;stroke-width:1px;stroke-linecap:butt;stroke-linejoin:miter;stroke-opacity:1" d="M 846.09,559.224 864.597,559.224 z" id="boundary" inkscape:connector-curvature="0" />
	<path style="fill:none;stroke:red;stroke-width:1px;stroke-linecap:butt;stroke-linejoin:miter;stroke-opacity:1" d="M 847.94,41.0149 864.597,31.7612 z" id="boundary" inkscape:connector-curvature="0" />
	<path style="fill:none;stroke:red;stroke-width:1px;stroke-linecap:butt;stroke-linejoin:miter;stroke-opacity:1" d="M 853.493,409.313 872,400.06 z" id="boundary" inkscape:connector-curvature="0" />
	<path style="fill:none;stroke:red;stroke-width:1px;stroke-linecap:butt;stroke-linejoin:miter;stroke-opacity:1" d="M 853.493,714.687 857.194,690.627 z" id="boundary" inkscape:connector-curvature="0" />
	<path style="fill:none;stroke:red;stroke-width:1px;stroke-linecap:butt;stroke-linejoin:miter;stroke-opacity:1" d="M 857.194,690.627 875.701,672.119 z" id="boundary" inkscape:connector-curvature="0" />
	<path style="fill:none;stroke:red;stroke-width:1px;stroke-linecap:butt;stroke-linejoin:miter;stroke-opacity:1" d="M 864.597,31.7612 881.254,22.5075 z" id="boundary" inkscape:connector-curvature="0" />
	<path style="fill:none;stroke:red;stroke-width:1px;stroke-linecap:butt;stroke-linejoin:miter;stroke-opacity:1" d="M 864.597,559.224 883.104,562.925 z" id="boundary" inkscape:connector-curvature="0" />
	<path style="fill:none;stroke:red;stroke-width:1px;stroke-linecap:butt;stroke-linejoin:miter;stroke-opacity:1" d="M 872,400.06 881.254,381.552 z" id="boundary" inkscape:connector-curvature="0" />
	<path style="fill:none;stroke:red;stroke-width:1px;stroke-linecap:butt;stroke-linejoin:miter;stroke-opacity:1" d="M 875.701,672.119 884.955,644.358 z" id="boundary" inkscape:connector-curvature="0" />
	<path style="fill:none;stroke:red;stroke-width:1px;stroke-linecap:butt;stroke-linejoin:miter;stroke-opacity:1" d="M 881.254,22.5075 894.209,7.70149 z" id="boundary" inkscape:connector-curvature="0" />
	<path style="fill:none;stroke:red;stroke-width:1px;stroke-linecap:butt;stroke-linejoin:miter;stroke-opacity:1" d="M 881.254,381.552 884.955,357.493 z" id="boundary" inkscape:connector-curvature="0" />
	<path style="fill:none;stroke:red;stroke-width:1px;stroke-linecap:butt;stroke-linejoin:miter;stroke-opacity:1" d="M 883.104,562.925 894.209,577.731 z" id="boundary" inkscape:connector-curvature="0" />
	<path style="fill:none;stroke:red;stroke-width:1px;stroke-linecap:butt;stroke-linejoin:miter;stroke-opacity:1" d="M 884.955,357.493 894.209,338.985 z" id="boundary" inkscape:connector-curvature="0" />
	<path style="fill:none;stroke:red;stroke-width:1px;stroke-linecap:butt;stroke-linejoin:miter;stroke-opacity:1" d="M 884.955,625.851 884.955,644.358 z" id="boundary" inkscape:connector-curvature="0" />
	<path style="fill:none;stroke:red;stroke-width:1px;stroke-linecap:butt;stroke-linejoin:miter;stroke-opacity:1" d="M 884.955,625.851 894.209,596.239 z" id="boundary" inkscape:connector-curvature="0" />
	<path style="fill:none;stroke:red;stroke-width:1px;stroke-linecap:butt;stroke-linejoin:miter;stroke-opacity:1" d="M 894.209,7.70149 912.716,4 z" id="boundary" inkscape:connector-curvature="0" />
	<path style="fill:none;stroke:red;stroke-width:1px;stroke-linecap:butt;stroke-linejoin:miter;stroke-opacity:1" d="M 894.209,301.97 894.209,320.478 z" id="boundary" inkscape:connector-curvature="0" />
	<path style="fill:none;stroke:red;stroke-width:1px;stroke-linecap:butt;stroke-linejoin:miter;stroke-opacity:1" d="M 894.209,301.97 912.716,283.463 z" id="boundary" inkscape:connector-curvature="0" />
	<path style="fill:none;stroke:red;stroke-width:1px;stroke-linecap:butt;stroke-linejoin:miter;stroke-opacity:1" d="M 894.209,320.478 894.209,338.985 z" id="boundary" inkscape:connector-curvature="0" />
	<path style="fill:none;stroke:red;stroke-width:1px;stroke-linecap:butt;stroke-linejoin:miter;stroke-opacity:1" d="M 894.209,577.731 894.209,596.239 z" id="boundary" inkscape:connector-curvature="0" />
	<path style="fill:none;stroke:red;stroke-width:1px;stroke-linecap:butt;stroke-linejoin:miter;stroke-opacity:1" d="M 912.716,4 912.716,22.5075 z" id="boundary" inkscape:connector-curvature="0" />
	<path style="fill:none;stroke:red;stroke-width:1px;stroke-linecap:butt;stroke-linejoin:miter;stroke-opacity:1" d="M 912.716,22.5075 912.716,41.0149 z" id="boundary" inkscape:connector-curvature="0" />
	<path style="fill:none;stroke:red;stroke-width:1px;stroke-linecap:butt;stroke-linejoin:miter;stroke-opacity:1" d="M 912.716,41.0149 931.224,41.0149 z" id="boundary" inkscape:connector-curvature="0" />
	<path style="fill:none;stroke:red;stroke-width:1px;stroke-linecap:butt;stroke-linejoin:miter;stroke-opacity:1" d="M 912.716,283.463 921.97,255.701 z" id="boundary" inkscape:connector-curvature="0" />
	<path style="fill:none;stroke:red;stroke-width:1px;stroke-linecap:butt;stroke-linejoin:miter;stroke-opacity:1" d="M 921.97,255.701 931.224,237.194 z" id="boundary" inkscape:connector-curvature="0" />
	<path style="fill:none;stroke:red;stroke-width:1px;stroke-linecap:butt;stroke-linejoin:miter;stroke-opacity:1" d="M 931.224,41.0149 947.881,31.7612 z" id="boundary" inkscape:connector-curvature="0" />
	<path style="fill:none;stroke:red;stroke-width:1px;stroke-linecap:butt;stroke-linejoin:miter;stroke-opacity:1" d="M 931.224,237.194 940.478,218.687 z" id="boundary" inkscape:connector-curvature="0" />
	<path style="fill:none;stroke:red;stroke-width:1px;stroke-linecap:butt;stroke-linejoin:miter;stroke-opacity:1" d="M 940.478,218.687 958.985,200.179 z" id="boundary" inkscape:connector-curvature="0" />
	<path style="fill:none;stroke:red;stroke-width:1px;stroke-linecap:butt;stroke-linejoin:miter;stroke-opacity:1" d="M 947.881,31.7612 964.537,22.5075 z" id="boundary" inkscape:connector-curvature="0" />
	<path style="fill:none;stroke:red;stroke-width:1px;stroke-linecap:butt;stroke-linejoin:miter;stroke-opacity:1" d="M 958.985,200.179 968.239,181.672 z" id="boundary" inkscape:connector-curvature="0" />
	<path style="fill:none;stroke:red;stroke-width:1px;stroke-linecap:butt;stroke-linejoin:miter;stroke-opacity:1" d="M 964.537,22.5075 968.239,41.0149 z" id="boundary" inkscape:connector-curvature="0" />
	<path style="fill:none;stroke:red;stroke-width:1px;stroke-linecap:butt;stroke-linejoin:miter;stroke-opacity:1" d="M 968.239,41.0149 968.239,59.5224 z" id="boundary" inkscape:connector-curvature="0" />
	<path style="fill:none;stroke:red;stroke-width:1px;stroke-linecap:butt;stroke-linejoin:miter;stroke-opacity:1" d="M 968.239,59.5224 986.746,59.5224 z" id="boundary" inkscape:connector-curvature="0" />
	<path style="fill:none;stroke:red;stroke-width:1px;stroke-linecap:butt;stroke-linejoin:miter;stroke-opacity:1" d="M 968.239,89.1343 984.896,79.8806 z" id="boundary" inkscape:connector-curvature="0" />
	<path style="fill:none;stroke:red;stroke-width:1px;stroke-linecap:butt;stroke-linejoin:miter;stroke-opacity:1" d="M 968.239,181.672 984.896,172.418 z" id="boundary" inkscape:connector-curvature="0" />
	<path style="fill:none;stroke:red;stroke-width:1px;stroke-linecap:butt;stroke-linejoin:miter;stroke-opacity:1" d="M 984.896,79.8806 994.149,96.5373 z" id="boundary" inkscape:connector-curvature="0" />
	<path style="fill:none;stroke:red;stroke-width:1px;stroke-linecap:butt;stroke-linejoin:miter;stroke-opacity:1" d="M 984.896,172.418 996,144.657 z" id="boundary" inkscape:connector-curvature="0" />
	<path style="fill:none;stroke:red;stroke-width:1px;stroke-linecap:butt;stroke-linejoin:miter;stroke-opacity:1" d="M 994.149,96.5373 996,126.149 z" id="boundary" inkscape:connector-curvature="0" />
	<path style="fill:none;stroke:red;stroke-width:1px;stroke-linecap:butt;stroke-linejoin:miter;stroke-opacity:1" d="M 996,126.149 996,144.657 z" id="boundary" inkscape:connector-curvature="0" />
	<circle cx="4" cy="814.627" r="4" fill="#0" id="circle0"/>
	<circle cx="13.2537" cy="759.104" r="4" fill="#0" id="circle1"/>
	<circle cx="13.2537" cy="796.119" r="4" fill="#0" id="circle2"/>
	<circle cx="13.2537" cy="870.149" r="4" fill="#0" id="circle3"/>
	<circle cx="22.5075" cy="820.179" r="4" fill="#0" id="circle4"/>
	<circle cx="24.3582" cy="773.91" r="4" fill="#0" id="circle5"/>
	<circle cx="31.7612" cy="740.597" r="4" fill="#0" id="circle6"/>
	<circle cx="31.7612" cy="851.642" r="4" fill="#0" id="circle7"/>
	<circle cx="31.7612" cy="875.701" r="4" fill="#0" id="circle8"/>
	<circle cx="41.0149" cy="764.657" r="4" fill="#0" id="circle9"/>
	<circle cx="41.0149" cy="814.627" r="4" fill="#0" id="circle10"/>
	<circle cx="46.5672" cy="836.836" r="4" fill="#0" id="circle11"/>
	<circle cx="50.2687" cy="731.343" r="4" fill="#0" id="circle12"/>
	<circle cx="50.2687" cy="870.149" r="4" fill="#0" id="circle13"/>
	<circle cx="50.2687" cy="888.657" r="4" fill="#0" id="circle14"/>
	<circle cx="52.1194" cy="792.418" r="4" fill="#0" id="circle15"/>
	<circle cx="59.5224" cy="818.328" r="4" fill="#0" id="circle16"/>
	<circle cx="68.7761" cy="722.09" r="4" fill="#0" id="circle17"/>
	<circle cx="68.7761" cy="801.672" r="4" fill="#0" id="circle18"/>
	<circle cx="68.7761" cy="866.448" r="4" fill="#0" id="circle19"/>
	<circle cx="68.7761" cy="894.209" r="4" fill="#0" id="circle20"/>
	<circle cx="87.2836" cy="712.836" r="4" fill="#0" id="circle21"/>
	<circle cx="87.2836" cy="888.657" r="4" fill="#0" id="circle22"/>
	<circle cx="96.5373" cy="694.328" r="4" fill="#0" id="circle23"/>
	<circle cx="102.09" cy="901.612" r="4" fill="#0" id="circle24"/>
	<circle cx="115.045" cy="685.075" r="4" fill="#0" id="circle25"/>
	<circle cx="120.597" cy="901.612" r="4" fill="#0" id="circle26"/>
	<circle cx="129.851" cy="670.269" r="4" fill="#0" id="circle27"/>
	<circle cx="135.403" cy="884.955" r="4" fill="#0" id="circle28"/>
	<circle cx="146.507" cy="661.015" r="4" fill="#0" id="circle29"/>
	<circle cx="152.06" cy="894.209" r="4" fill="#0" id="circle30"/>
	<circle cx="165.015" cy="653.612" r="4" fill="#0" id="circle31"/>
	<circle cx="170.567" cy="894.209" r="4" fill="#0" id="circle32"/>
	<circle cx="174.269" cy="635.104" r="4" fill="#0" id="circle33"/>
	<circle cx="189.075" cy="888.657" r="4" fill="#0" id="circle34"/>
	<circle cx="192.776" cy="633.254" r="4" fill="#0" id="circle35"/>
	<circle cx="203.881" cy="875.701" r="4" fill="#0" id="circle36"/>
	<circle cx="209.433" cy="624" r="4" fill="#0" id="circle37"/>
	<circle cx="220.537" cy="866.448" r="4" fill="#0" id="circle38"/>
	<circle cx="226.09" cy="614.746" r="4" fill="#0" id="circle39"/>
	<circle cx="239.045" cy="866.448" r="4" fill="#0" id="circle40"/>
	<circle cx="244.597" cy="614.746" r="4" fill="#0" id="circle41"/>
	<circle cx="246.448" cy="847.94" r="4" fill="#0" id="circle42"/>
	<circle cx="261.254" cy="605.493" r="4" fill="#0" id="circle43"/>
	<circle cx="264.955" cy="847.94" r="4" fill="#0" id="circle44"/>
	<circle cx="279.761" cy="605.493" r="4" fill="#0" id="circle45"/>
	<circle cx="281.612" cy="838.687" r="4" fill="#0" id="circle46"/>
	<circle cx="290.866" cy="583.284" r="4" fill="#0" id="circle47"/>
	<circle cx="298.269" cy="829.433" r="4" fill="#0" id="circle48"/>
	<circle cx="309.373" cy="577.731" r="4" fill="#0" id="circle49"/>
	<circle cx="316.776" cy="829.433" r="4" fill="#0" id="circle50"/>
	<circle cx="326.03" cy="568.478" r="4" fill="#0" id="circle51"/>
	<circle cx="333.433" cy="820.179" r="4" fill="#0" id="circle52"/>
	<circle cx="338.985" cy="553.672" r="4" fill="#0" id="circle53"/>
	<circle cx="351.94" cy="820.179" r="4" fill="#0" id="circle54"/>
	<circle cx="357.493" cy="549.97" r="4" fill="#0" id="circle55"/>
	<circle cx="370.448" cy="818.328" r="4" fill="#0" id="circle56"/>
	<circle cx="374.149" cy="527.761" r="4" fill="#0" id="circle57"/>
	<circle cx="388.955" cy="810.925" r="4" fill="#0" id="circle58"/>
	<circle cx="392.657" cy="518.507" r="4" fill="#0" id="circle59"/>
	<circle cx="407.463" cy="503.701" r="4" fill="#0" id="circle60"/>
	<circle cx="407.463" cy="810.925" r="4" fill="#0" id="circle61"/>
	<circle cx="424.119" cy="494.448" r="4" fill="#0" id="circle62"/>
	<circle cx="425.97" cy="809.075" r="4" fill="#0" id="circle63"/>
	<circle cx="429.672" cy="388.955" r="4" fill="#0" id="circle64"/>
	<circle cx="429.672" cy="407.463" r="4" fill="#0" id="circle65"/>
	<circle cx="429.672" cy="425.97" r="4" fill="#0" id="circle66"/>
	<circle cx="435.224" cy="792.418" r="4" fill="#0" id="circle67"/>
	<circle cx="438.925" cy="442.627" r="4" fill="#0" id="circle68"/>
	<circle cx="438.925" cy="472.239" r="4" fill="#0" id="circle69"/>
	<circle cx="448.179" cy="383.403" r="4" fill="#0" id="circle70"/>
	<circle cx="451.881" cy="783.164" r="4" fill="#0" id="circle71"/>
	<circle cx="466.687" cy="383.403" r="4" fill="#0" id="circle72"/>
	<circle cx="468.537" cy="773.91" r="4" fill="#0" id="circle73"/>
	<circle cx="483.343" cy="760.955" r="4" fill="#0" id="circle74"/>
	<circle cx="485.194" cy="387.104" r="4" fill="#0" id="circle75"/>
	<circle cx="496.299" cy="736.896" r="4" fill="#0" id="circle76"/>
	<circle cx="503.701" cy="392.657" r="4" fill="#0" id="circle77"/>
	<circle cx="514.806" cy="727.642" r="4" fill="#0" id="circle78"/>
	<circle cx="520.358" cy="401.91" r="4" fill="#0" id="circle79"/>
	<circle cx="533.313" cy="387.104" r="4" fill="#0" id="circle80"/>
	<circle cx="533.313" cy="718.388" r="4" fill="#0" id="circle81"/>
	<circle cx="549.97" cy="370.448" r="4" fill="#0" id="circle82"/>
	<circle cx="551.821" cy="709.134" r="4" fill="#0" id="circle83"/>
	<circle cx="561.075" cy="690.627" r="4" fill="#0" id="circle84"/>
	<circle cx="564.776" cy="355.642" r="4" fill="#0" id="circle85"/>
	<circle cx="570.328" cy="672.119" r="4" fill="#0" id="circle86"/>
	<circle cx="583.284" cy="346.388" r="4" fill="#0" id="circle87"/>
	<circle cx="586.985" cy="662.866" r="4" fill="#0" id="circle88"/>
	<circle cx="601.791" cy="337.134" r="4" fill="#0" id="circle89"/>
	<circle cx="603.642" cy="653.612" r="4" fill="#0" id="circle90"/>
	<circle cx="605.493" cy="314.925" r="4" fill="#0" id="circle91"/>
	<circle cx="605.493" cy="672.119" r="4" fill="#0" id="circle92"/>
	<circle cx="605.493" cy="690.627" r="4" fill="#0" id="circle93"/>
	<circle cx="605.493" cy="709.134" r="4" fill="#0" id="circle94"/>
	<circle cx="605.493" cy="727.642" r="4" fill="#0" id="circle95"/>
	<circle cx="605.493" cy="746.149" r="4" fill="#0" id="circle96"/>
	<circle cx="605.493" cy="764.657" r="4" fill="#0" id="circle97"/>
	<circle cx="605.493" cy="783.164" r="4" fill="#0" id="circle98"/>
	<circle cx="614.746" cy="799.821" r="4" fill="#0" id="circle99"/>
	<circle cx="614.746" cy="818.328" r="4" fill="#0" id="circle100"/>
	<circle cx="620.299" cy="300.119" r="4" fill="#0" id="circle101"/>
	<circle cx="629.552" cy="829.433" r="4" fill="#0" id="circle102"/>
	<circle cx="638.806" cy="290.866" r="4" fill="#0" id="circle103"/>
	<circle cx="646.209" cy="820.179" r="4" fill="#0" id="circle104"/>
	<circle cx="651.761" cy="259.403" r="4" fill="#0" id="circle105"/>
	<circle cx="664.716" cy="820.179" r="4" fill="#0" id="circle106"/>
	<circle cx="670.269" cy="240.896" r="4" fill="#0" id="circle107"/>
	<circle cx="679.522" cy="222.388" r="4" fill="#0" id="circle108"/>
	<circle cx="683.224" cy="820.179" r="4" fill="#0" id="circle109"/>
	<circle cx="688.776" cy="194.627" r="4" fill="#0" id="circle110"/>
	<circle cx="698.03" cy="176.119" r="4" fill="#0" id="circle111"/>
	<circle cx="699.881" cy="542.567" r="4" fill="#0" id="circle112"/>
	<circle cx="701.731" cy="820.179" r="4" fill="#0" id="circle113"/>
	<circle cx="716.537" cy="148.358" r="4" fill="#0" id="circle114"/>
	<circle cx="716.537" cy="166.866" r="4" fill="#0" id="circle115"/>
	<circle cx="718.388" cy="524.06" r="4" fill="#0" id="circle116"/>
	<circle cx="718.388" cy="549.97" r="4" fill="#0" id="circle117"/>
	<circle cx="718.388" cy="810.925" r="4" fill="#0" id="circle118"/>
	<circle cx="731.343" cy="133.552" r="4" fill="#0" id="circle119"/>
	<circle cx="736.896" cy="514.806" r="4" fill="#0" id="circle120"/>
	<circle cx="736.896" cy="549.97" r="4" fill="#0" id="circle121"/>
	<circle cx="736.896" cy="810.925" r="4" fill="#0" id="circle122"/>
	<circle cx="748" cy="124.299" r="4" fill="#0" id="circle123"/>
	<circle cx="755.403" cy="505.552" r="4" fill="#0" id="circle124"/>
	<circle cx="755.403" cy="549.97" r="4" fill="#0" id="circle125"/>
	<circle cx="755.403" cy="792.418" r="4" fill="#0" id="circle126"/>
	<circle cx="762.806" cy="102.09" r="4" fill="#0" id="circle127"/>
	<circle cx="773.91" cy="496.299" r="4" fill="#0" id="circle128"/>
	<circle cx="773.91" cy="549.97" r="4" fill="#0" id="circle129"/>
	<circle cx="773.91" cy="783.164" r="4" fill="#0" id="circle130"/>
	<circle cx="777.612" cy="87.2836" r="4" fill="#0" id="circle131"/>
	<circle cx="792.418" cy="487.045" r="4" fill="#0" id="circle132"/>
	<circle cx="792.418" cy="549.97" r="4" fill="#0" id="circle133"/>
	<circle cx="792.418" cy="773.91" r="4" fill="#0" id="circle134"/>
	<circle cx="796.119" cy="78.0299" r="4" fill="#0" id="circle135"/>
	<circle cx="801.672" cy="468.537" r="4" fill="#0" id="circle136"/>
	<circle cx="805.373" cy="59.5224" r="4" fill="#0" id="circle137"/>
	<circle cx="807.224" cy="760.955" r="4" fill="#0" id="circle138"/>
	<circle cx="810.925" cy="549.97" r="4" fill="#0" id="circle139"/>
	<circle cx="814.627" cy="41.0149" r="4" fill="#0" id="circle140"/>
	<circle cx="816.478" cy="455.582" r="4" fill="#0" id="circle141"/>
	<circle cx="820.179" cy="736.896" r="4" fill="#0" id="circle142"/>
	<circle cx="827.582" cy="440.776" r="4" fill="#0" id="circle143"/>
	<circle cx="827.582" cy="559.224" r="4" fill="#0" id="circle144"/>
	<circle cx="831.284" cy="31.7612" r="4" fill="#0" id="circle145"/>
	<circle cx="838.687" cy="422.269" r="4" fill="#0" id="circle146"/>
	<circle cx="838.687" cy="727.642" r="4" fill="#0" id="circle147"/>
	<circle cx="840.537" cy="15.1045" r="4" fill="#0" id="circle148"/>
	<circle cx="846.09" cy="559.224" r="4" fill="#0" id="circle149"/>
	<circle cx="847.94" cy="41.0149" r="4" fill="#0" id="circle150"/>
	<circle cx="853.493" cy="409.313" r="4" fill="#0" id="circle151"/>
	<circle cx="853.493" cy="714.687" r="4" fill="#0" id="circle152"/>
	<circle cx="857.194" cy="690.627" r="4" fill="#0" id="circle153"/>
	<circle cx="864.597" cy="31.7612" r="4" fill="#0" id="circle154"/>
	<circle cx="864.597" cy="559.224" r="4" fill="#0" id="circle155"/>
	<circle cx="872" cy="400.06" r="4" fill="#0" id="circle156"/>
	<circle cx="875.701" cy="672.119" r="4" fill="#0" id="circle157"/>
	<circle cx="881.254" cy="22.5075" r="4" fill="#0" id="circle158"/>
	<circle cx="881.254" cy="381.552" r="4" fill="#0" id="circle159"/>
	<circle cx="883.104" cy="562.925" r="4" fill="#0" id="circle160"/>
	<circle cx="884.955" cy="357.493" r="4" fill="#0" id="circle161"/>
	<circle cx="884.955" cy="625.851" r="4" fill="#0" id="circle162"/>
	<circle cx="884.955" cy="644.358" r="4" fill="#0" id="circle163"/>
	<circle cx="894.209" cy="7.70149" r="4" fill="#0" id="circle164"/>
	<circle cx="894.209" cy="301.97" r="4" fill="#0" id="circle165"/>
	<circle cx="894.209" cy="320.478" r="4" fill="#0" id="circle166"/>
	<circle cx="894.209" cy="338.985" r="4" fill="#0" id="circle167"/>
	<circle cx="894.209" cy="577.731" r="4" fill="#0" id="circle168"/>
	<circle cx="894.209" cy="596.239" r="4" fill="#0" id="circle169"/>
	<circle cx="912.716" cy="4" r="4" fill="#0" id="circle170"/>
	<circle cx="912.716" cy="22.5075" r="4" fill="#0" id="circle171"/>
	<circle cx="912.716" cy="41.0149" r="4" fill="#0" id="circle172"/>
	<circle cx="912.716" cy="283.463" r="4" fill="#0" id="circle173"/>
	<circle cx="921.97" cy="255.701" r="4" fill="#0" id="circle174"/>
	<circle cx="931.224" cy="41.0149" r="4" fill="#0" id="circle175"/>
	<circle cx="931.224" cy="237.194" r="4" fill="#0" id="circle176"/>
	<circle cx="940.478" cy="218.687" r="4" fill="#0" id="circle177"/>
	<circle cx="947.881" cy="31.7612" r="4" fill="#0" id="circle178"/>
	<circle cx="958.985" cy="200.179" r="4" fill="#0" id="circle179"/>
	<circle cx="964.537" cy="22.5075" r="4" fill="#0" id="circle180"/>
	<circle cx="968.239" cy="41.0149" r="4" fill="#0" id="circle181"/>
	<circle cx="968.239" cy="59.5224" r="4" fill="#0" id="circle182"/>
	<circle cx="968.239" cy="89.1343" r="4" fill="#0" id="circle183"/>
	<circle cx="968.239" cy="181.672" r="4" fill="#0" id="circle184"/>
	<circle cx="984.896" cy="79.8806" r="4" fill="#0" id="circle185"/>
	<circle cx="984.896" cy="172.418" r="4" fill="#0" id="circle186"/>
	<circle cx="986.746" cy="59.5224" r="4" fill="#0" id="circle187"/>
	<circle cx="994.149" cy="96.5373" r="4" fill="#0" id="circle188"/>
	<circle cx="996" cy="126.149" r="4" fill="#0" id="circle189"/>
	<circle cx="996" cy="144.657" r="4" fill="#0" id="circle190"/>
	</g>
</svg>