<?xml version="1.0" encoding="UTF-8" standalone="no"?>
<!-- Created with CurveBenchmark -->
<svg
	xmlns:dc="http://purl.org/dc/elements/1.1/"
	xmlns:cc="http://creativecommons.org/ns#"
	xmlns:rdf="http://www.w3.org/1999/02/22-rdf-syntax-ns#"
	xmlns:svg="http://www.w3.org/2000/svg"
	xmlns="http://www.w3.org/2000/svg"
	xmlns:sodipodi="http://sodipodi.sourceforge.net/DTD/sodipodi-0.dtd"
	xmlns:inkscape="http://www.inkscape.org/namespaces/inkscape"
	width="1000"
	height="1000"
	id="svg2"
	version="1.1"
	sodipodi:docname="manifold/hnncrust-fork07.png.txt">
<defs
	id="defs4" />
<metadata
	id="metadata7">
	<rdf:RDF>
		<cc:Work
			rdf:about="">
			<dc:format>image/svg+xml</dc:format>
			<dc:type
				rdf:resource="http://purl.org/dc/dcmitype/StillImage" />
			<dc:title></dc:title>
		</cc:Work>
	</rdf:RDF>
</metadata>
<g
	inkscape:label="Layer 1"
	inkscape:groupmode="layer"
	id="layer1">
	<path style="fill:none;stroke:red;stroke-width:1px;stroke-linecap:butt;stroke-linejoin:miter;stroke-opacity:1" d="M 4,367.061 13.1682,348.725 z" id="boundary" inkscape:connector-curvature="0" />
	<path style="fill:none;stroke:red;stroke-width:1px;stroke-linecap:butt;stroke-linejoin:miter;stroke-opacity:1" d="M 4,367.061 22.3364,372.562 z" id="boundary" inkscape:connector-curvature="0" />
	<path style="fill:none;stroke:red;stroke-width:1px;stroke-linecap:butt;stroke-linejoin:miter;stroke-opacity:1" d="M 13.1682,348.725 27.8373,334.055 z" id="boundary" inkscape:connector-curvature="0" />
	<path style="fill:none;stroke:red;stroke-width:1px;stroke-linecap:butt;stroke-linejoin:miter;stroke-opacity:1" d="M 22.3364,18.6691 22.3364,37.0055 z" id="boundary" inkscape:connector-curvature="0" />
	<path style="fill:none;stroke:red;stroke-width:1px;stroke-linecap:butt;stroke-linejoin:miter;stroke-opacity:1" d="M 22.3364,18.6691 37.0055,4 z" id="boundary" inkscape:connector-curvature="0" />
	<path style="fill:none;stroke:red;stroke-width:1px;stroke-linecap:butt;stroke-linejoin:miter;stroke-opacity:1" d="M 22.3364,37.0055 33.3383,51.6747 z" id="boundary" inkscape:connector-curvature="0" />
	<path style="fill:none;stroke:red;stroke-width:1px;stroke-linecap:butt;stroke-linejoin:miter;stroke-opacity:1" d="M 22.3364,128.688 22.3364,147.024 z" id="boundary" inkscape:connector-curvature="0" />
	<path style="fill:none;stroke:red;stroke-width:1px;stroke-linecap:butt;stroke-linejoin:miter;stroke-opacity:1" d="M 22.3364,128.688 40.6728,123.187 z" id="boundary" inkscape:connector-curvature="0" />
	<path style="fill:none;stroke:red;stroke-width:1px;stroke-linecap:butt;stroke-linejoin:miter;stroke-opacity:1" d="M 22.3364,147.024 33.3383,161.693 z" id="boundary" inkscape:connector-curvature="0" />
	<path style="fill:none;stroke:red;stroke-width:1px;stroke-linecap:butt;stroke-linejoin:miter;stroke-opacity:1" d="M 22.3364,238.706 22.3364,257.043 z" id="boundary" inkscape:connector-curvature="0" />
	<path style="fill:none;stroke:red;stroke-width:1px;stroke-linecap:butt;stroke-linejoin:miter;stroke-opacity:1" d="M 22.3364,238.706 40.6728,233.205 z" id="boundary" inkscape:connector-curvature="0" />
	<path style="fill:none;stroke:red;stroke-width:1px;stroke-linecap:butt;stroke-linejoin:miter;stroke-opacity:1" d="M 22.3364,257.043 33.3383,271.712 z" id="boundary" inkscape:connector-curvature="0" />
	<path style="fill:none;stroke:red;stroke-width:1px;stroke-linecap:butt;stroke-linejoin:miter;stroke-opacity:1" d="M 22.3364,372.562 27.8373,390.898 z" id="boundary" inkscape:connector-curvature="0" />
	<path style="fill:none;stroke:red;stroke-width:1px;stroke-linecap:butt;stroke-linejoin:miter;stroke-opacity:1" d="M 27.8373,334.055 46.1738,334.055 z" id="boundary" inkscape:connector-curvature="0" />
	<path style="fill:none;stroke:red;stroke-width:1px;stroke-linecap:butt;stroke-linejoin:miter;stroke-opacity:1" d="M 27.8373,390.898 44.3401,381.73 z" id="boundary" inkscape:connector-curvature="0" />
	<path style="fill:none;stroke:red;stroke-width:1px;stroke-linecap:butt;stroke-linejoin:miter;stroke-opacity:1" d="M 33.3383,51.6747 51.6747,55.342 z" id="boundary" inkscape:connector-curvature="0" />
	<path style="fill:none;stroke:red;stroke-width:1px;stroke-linecap:butt;stroke-linejoin:miter;stroke-opacity:1" d="M 33.3383,161.693 51.6747,165.36 z" id="boundary" inkscape:connector-curvature="0" />
	<path style="fill:none;stroke:red;stroke-width:1px;stroke-linecap:butt;stroke-linejoin:miter;stroke-opacity:1" d="M 33.3383,271.712 51.6747,271.712 z" id="boundary" inkscape:connector-curvature="0" />
	<path style="fill:none;stroke:red;stroke-width:1px;stroke-linecap:butt;stroke-linejoin:miter;stroke-opacity:1" d="M 37.0055,4 55.342,4 z" id="boundary" inkscape:connector-curvature="0" />
	<path style="fill:none;stroke:red;stroke-width:1px;stroke-linecap:butt;stroke-linejoin:miter;stroke-opacity:1" d="M 40.6728,123.187 59.0092,123.187 z" id="boundary" inkscape:connector-curvature="0" />
	<path style="fill:none;stroke:red;stroke-width:1px;stroke-linecap:butt;stroke-linejoin:miter;stroke-opacity:1" d="M 40.6728,233.205 59.0092,233.205 z" id="boundary" inkscape:connector-curvature="0" />
	<path style="fill:none;stroke:red;stroke-width:1px;stroke-linecap:butt;stroke-linejoin:miter;stroke-opacity:1" d="M 44.3401,381.73 62.6765,381.73 z" id="boundary" inkscape:connector-curvature="0" />
	<path style="fill:none;stroke:red;stroke-width:1px;stroke-linecap:butt;stroke-linejoin:miter;stroke-opacity:1" d="M 46.1738,334.055 64.5102,334.055 z" id="boundary" inkscape:connector-curvature="0" />
	<path style="fill:none;stroke:red;stroke-width:1px;stroke-linecap:butt;stroke-linejoin:miter;stroke-opacity:1" d="M 51.6747,55.342 70.0111,51.6747 z" id="boundary" inkscape:connector-curvature="0" />
	<path style="fill:none;stroke:red;stroke-width:1px;stroke-linecap:butt;stroke-linejoin:miter;stroke-opacity:1" d="M 51.6747,165.36 70.0111,165.36 z" id="boundary" inkscape:connector-curvature="0" />
	<path style="fill:none;stroke:red;stroke-width:1px;stroke-linecap:butt;stroke-linejoin:miter;stroke-opacity:1" d="M 51.6747,271.712 70.0111,271.712 z" id="boundary" inkscape:connector-curvature="0" />
	<path style="fill:none;stroke:red;stroke-width:1px;stroke-linecap:butt;stroke-linejoin:miter;stroke-opacity:1" d="M 55.342,4 73.6784,4 z" id="boundary" inkscape:connector-curvature="0" />
	<path style="fill:none;stroke:red;stroke-width:1px;stroke-linecap:butt;stroke-linejoin:miter;stroke-opacity:1" d="M 59.0092,123.187 77.3457,123.187 z" id="boundary" inkscape:connector-curvature="0" />
	<path style="fill:none;stroke:red;stroke-width:1px;stroke-linecap:butt;stroke-linejoin:miter;stroke-opacity:1" d="M 59.0092,233.205 77.3457,233.205 z" id="boundary" inkscape:connector-curvature="0" />
	<path style="fill:none;stroke:red;stroke-width:1px;stroke-linecap:butt;stroke-linejoin:miter;stroke-opacity:1" d="M 62.6765,381.73 81.0129,381.73 z" id="boundary" inkscape:connector-curvature="0" />
	<path style="fill:none;stroke:red;stroke-width:1px;stroke-linecap:butt;stroke-linejoin:miter;stroke-opacity:1" d="M 64.5102,334.055 82.8466,334.055 z" id="boundary" inkscape:connector-curvature="0" />
	<path style="fill:none;stroke:red;stroke-width:1px;stroke-linecap:butt;stroke-linejoin:miter;stroke-opacity:1" d="M 70.0111,51.6747 88.3475,51.6747 z" id="boundary" inkscape:connector-curvature="0" />
	<path style="fill:none;stroke:red;stroke-width:1px;stroke-linecap:butt;stroke-linejoin:miter;stroke-opacity:1" d="M 70.0111,165.36 88.3475,170.861 z" id="boundary" inkscape:connector-curvature="0" />
	<path style="fill:none;stroke:red;stroke-width:1px;stroke-linecap:butt;stroke-linejoin:miter;stroke-opacity:1" d="M 70.0111,271.712 88.3475,271.712 z" id="boundary" inkscape:connector-curvature="0" />
	<path style="fill:none;stroke:red;stroke-width:1px;stroke-linecap:butt;stroke-linejoin:miter;stroke-opacity:1" d="M 73.6784,4 92.0148,4 z" id="boundary" inkscape:connector-curvature="0" />
	<path style="fill:none;stroke:red;stroke-width:1px;stroke-linecap:butt;stroke-linejoin:miter;stroke-opacity:1" d="M 77.3457,123.187 95.6821,123.187 z" id="boundary" inkscape:connector-curvature="0" />
	<path style="fill:none;stroke:red;stroke-width:1px;stroke-linecap:butt;stroke-linejoin:miter;stroke-opacity:1" d="M 77.3457,233.205 95.6821,233.205 z" id="boundary" inkscape:connector-curvature="0" />
	<path style="fill:none;stroke:red;stroke-width:1px;stroke-linecap:butt;stroke-linejoin:miter;stroke-opacity:1" d="M 81.0129,381.73 99.3494,381.73 z" id="boundary" inkscape:connector-curvature="0" />
	<path style="fill:none;stroke:red;stroke-width:1px;stroke-linecap:butt;stroke-linejoin:miter;stroke-opacity:1" d="M 82.8466,334.055 101.183,334.055 z" id="boundary" inkscape:connector-curvature="0" />
	<path style="fill:none;stroke:red;stroke-width:1px;stroke-linecap:butt;stroke-linejoin:miter;stroke-opacity:1" d="M 88.3475,51.6747 106.684,51.6747 z" id="boundary" inkscape:connector-curvature="0" />
	<path style="fill:none;stroke:red;stroke-width:1px;stroke-linecap:butt;stroke-linejoin:miter;stroke-opacity:1" d="M 88.3475,170.861 106.684,170.861 z" id="boundary" inkscape:connector-curvature="0" />
	<path style="fill:none;stroke:red;stroke-width:1px;stroke-linecap:butt;stroke-linejoin:miter;stroke-opacity:1" d="M 88.3475,271.712 106.684,271.712 z" id="boundary" inkscape:connector-curvature="0" />
	<path style="fill:none;stroke:red;stroke-width:1px;stroke-linecap:butt;stroke-linejoin:miter;stroke-opacity:1" d="M 92.0148,4 110.351,4 z" id="boundary" inkscape:connector-curvature="0" />
	<path style="fill:none;stroke:red;stroke-width:1px;stroke-linecap:butt;stroke-linejoin:miter;stroke-opacity:1" d="M 95.6821,123.187 114.018,123.187 z" id="boundary" inkscape:connector-curvature="0" />
	<path style="fill:none;stroke:red;stroke-width:1px;stroke-linecap:butt;stroke-linejoin:miter;stroke-opacity:1" d="M 95.6821,233.205 114.018,233.205 z" id="boundary" inkscape:connector-curvature="0" />
	<path style="fill:none;stroke:red;stroke-width:1px;stroke-linecap:butt;stroke-linejoin:miter;stroke-opacity:1" d="M 99.3494,381.73 117.686,381.73 z" id="boundary" inkscape:connector-curvature="0" />
	<path style="fill:none;stroke:red;stroke-width:1px;stroke-linecap:butt;stroke-linejoin:miter;stroke-opacity:1" d="M 101.183,334.055 119.519,334.055 z" id="boundary" inkscape:connector-curvature="0" />
	<path style="fill:none;stroke:red;stroke-width:1px;stroke-linecap:butt;stroke-linejoin:miter;stroke-opacity:1" d="M 106.684,51.6747 125.02,51.6747 z" id="boundary" inkscape:connector-curvature="0" />
	<path style="fill:none;stroke:red;stroke-width:1px;stroke-linecap:butt;stroke-linejoin:miter;stroke-opacity:1" d="M 106.684,170.861 125.02,161.693 z" id="boundary" inkscape:connector-curvature="0" />
	<path style="fill:none;stroke:red;stroke-width:1px;stroke-linecap:butt;stroke-linejoin:miter;stroke-opacity:1" d="M 106.684,271.712 125.02,271.712 z" id="boundary" inkscape:connector-curvature="0" />
	<path style="fill:none;stroke:red;stroke-width:1px;stroke-linecap:butt;stroke-linejoin:miter;stroke-opacity:1" d="M 110.351,4 128.688,4 z" id="boundary" inkscape:connector-curvature="0" />
	<path style="fill:none;stroke:red;stroke-width:1px;stroke-linecap:butt;stroke-linejoin:miter;stroke-opacity:1" d="M 114.018,123.187 132.355,123.187 z" id="boundary" inkscape:connector-curvature="0" />
	<path style="fill:none;stroke:red;stroke-width:1px;stroke-linecap:butt;stroke-linejoin:miter;stroke-opacity:1" d="M 114.018,233.205 132.355,227.704 z" id="boundary" inkscape:connector-curvature="0" />
	<path style="fill:none;stroke:red;stroke-width:1px;stroke-linecap:butt;stroke-linejoin:miter;stroke-opacity:1" d="M 117.686,381.73 136.022,381.73 z" id="boundary" inkscape:connector-curvature="0" />
	<path style="fill:none;stroke:red;stroke-width:1px;stroke-linecap:butt;stroke-linejoin:miter;stroke-opacity:1" d="M 119.519,334.055 137.856,334.055 z" id="boundary" inkscape:connector-curvature="0" />
	<path style="fill:none;stroke:red;stroke-width:1px;stroke-linecap:butt;stroke-linejoin:miter;stroke-opacity:1" d="M 125.02,51.6747 141.523,60.8429 z" id="boundary" inkscape:connector-curvature="0" />
	<path style="fill:none;stroke:red;stroke-width:1px;stroke-linecap:butt;stroke-linejoin:miter;stroke-opacity:1" d="M 125.02,161.693 141.523,170.861 z" id="boundary" inkscape:connector-curvature="0" />
	<path style="fill:none;stroke:red;stroke-width:1px;stroke-linecap:butt;stroke-linejoin:miter;stroke-opacity:1" d="M 125.02,271.712 143.357,275.379 z" id="boundary" inkscape:connector-curvature="0" />
	<path style="fill:none;stroke:red;stroke-width:1px;stroke-linecap:butt;stroke-linejoin:miter;stroke-opacity:1" d="M 128.688,4 145.19,13.1682 z" id="boundary" inkscape:connector-curvature="0" />
	<path style="fill:none;stroke:red;stroke-width:1px;stroke-linecap:butt;stroke-linejoin:miter;stroke-opacity:1" d="M 132.355,123.187 150.691,123.187 z" id="boundary" inkscape:connector-curvature="0" />
	<path style="fill:none;stroke:red;stroke-width:1px;stroke-linecap:butt;stroke-linejoin:miter;stroke-opacity:1" d="M 132.355,227.704 150.691,233.205 z" id="boundary" inkscape:connector-curvature="0" />
	<path style="fill:none;stroke:red;stroke-width:1px;stroke-linecap:butt;stroke-linejoin:miter;stroke-opacity:1" d="M 136.022,381.73 154.359,381.73 z" id="boundary" inkscape:connector-curvature="0" />
	<path style="fill:none;stroke:red;stroke-width:1px;stroke-linecap:butt;stroke-linejoin:miter;stroke-opacity:1" d="M 137.856,334.055 156.192,334.055 z" id="boundary" inkscape:connector-curvature="0" />
	<path style="fill:none;stroke:red;stroke-width:1px;stroke-linecap:butt;stroke-linejoin:miter;stroke-opacity:1" d="M 141.523,60.8429 159.86,60.8429 z" id="boundary" inkscape:connector-curvature="0" />
	<path style="fill:none;stroke:red;stroke-width:1px;stroke-linecap:butt;stroke-linejoin:miter;stroke-opacity:1" d="M 141.523,170.861 159.86,170.861 z" id="boundary" inkscape:connector-curvature="0" />
	<path style="fill:none;stroke:red;stroke-width:1px;stroke-linecap:butt;stroke-linejoin:miter;stroke-opacity:1" d="M 143.357,275.379 161.693,280.88 z" id="boundary" inkscape:connector-curvature="0" />
	<path style="fill:none;stroke:red;stroke-width:1px;stroke-linecap:butt;stroke-linejoin:miter;stroke-opacity:1" d="M 145.19,13.1682 163.527,13.1682 z" id="boundary" inkscape:connector-curvature="0" />
	<path style="fill:none;stroke:red;stroke-width:1px;stroke-linecap:butt;stroke-linejoin:miter;stroke-opacity:1" d="M 150.691,123.187 169.028,126.854 z" id="boundary" inkscape:connector-curvature="0" />
	<path style="fill:none;stroke:red;stroke-width:1px;stroke-linecap:butt;stroke-linejoin:miter;stroke-opacity:1" d="M 150.691,233.205 169.028,233.205 z" id="boundary" inkscape:connector-curvature="0" />
	<path style="fill:none;stroke:red;stroke-width:1px;stroke-linecap:butt;stroke-linejoin:miter;stroke-opacity:1" d="M 154.359,381.73 172.695,381.73 z" id="boundary" inkscape:connector-curvature="0" />
	<path style="fill:none;stroke:red;stroke-width:1px;stroke-linecap:butt;stroke-linejoin:miter;stroke-opacity:1" d="M 156.192,334.055 174.529,334.055 z" id="boundary" inkscape:connector-curvature="0" />
	<path style="fill:none;stroke:red;stroke-width:1px;stroke-linecap:butt;stroke-linejoin:miter;stroke-opacity:1" d="M 159.86,60.8429 178.196,60.8429 z" id="boundary" inkscape:connector-curvature="0" />
	<path style="fill:none;stroke:red;stroke-width:1px;stroke-linecap:butt;stroke-linejoin:miter;stroke-opacity:1" d="M 159.86,170.861 178.196,170.861 z" id="boundary" inkscape:connector-curvature="0" />
	<path style="fill:none;stroke:red;stroke-width:1px;stroke-linecap:butt;stroke-linejoin:miter;stroke-opacity:1" d="M 161.693,280.88 180.03,280.88 z" id="boundary" inkscape:connector-curvature="0" />
	<path style="fill:none;stroke:red;stroke-width:1px;stroke-linecap:butt;stroke-linejoin:miter;stroke-opacity:1" d="M 163.527,13.1682 181.863,13.1682 z" id="boundary" inkscape:connector-curvature="0" />
	<path style="fill:none;stroke:red;stroke-width:1px;stroke-linecap:butt;stroke-linejoin:miter;stroke-opacity:1" d="M 169.028,126.854 187.364,126.854 z" id="boundary" inkscape:connector-curvature="0" />
	<path style="fill:none;stroke:red;stroke-width:1px;stroke-linecap:butt;stroke-linejoin:miter;stroke-opacity:1" d="M 169.028,233.205 187.364,236.872 z" id="boundary" inkscape:connector-curvature="0" />
	<path style="fill:none;stroke:red;stroke-width:1px;stroke-linecap:butt;stroke-linejoin:miter;stroke-opacity:1" d="M 172.695,381.73 191.031,381.73 z" id="boundary" inkscape:connector-curvature="0" />
	<path style="fill:none;stroke:red;stroke-width:1px;stroke-linecap:butt;stroke-linejoin:miter;stroke-opacity:1" d="M 174.529,334.055 192.865,334.055 z" id="boundary" inkscape:connector-curvature="0" />
	<path style="fill:none;stroke:red;stroke-width:1px;stroke-linecap:butt;stroke-linejoin:miter;stroke-opacity:1" d="M 178.196,60.8429 196.532,64.5102 z" id="boundary" inkscape:connector-curvature="0" />
	<path style="fill:none;stroke:red;stroke-width:1px;stroke-linecap:butt;stroke-linejoin:miter;stroke-opacity:1" d="M 178.196,170.861 194.699,180.03 z" id="boundary" inkscape:connector-curvature="0" />
	<path style="fill:none;stroke:red;stroke-width:1px;stroke-linecap:butt;stroke-linejoin:miter;stroke-opacity:1" d="M 180.03,280.88 198.366,280.88 z" id="boundary" inkscape:connector-curvature="0" />
	<path style="fill:none;stroke:red;stroke-width:1px;stroke-linecap:butt;stroke-linejoin:miter;stroke-opacity:1" d="M 181.863,13.1682 198.366,22.3364 z" id="boundary" inkscape:connector-curvature="0" />
	<path style="fill:none;stroke:red;stroke-width:1px;stroke-linecap:butt;stroke-linejoin:miter;stroke-opacity:1" d="M 187.364,126.854 205.701,126.854 z" id="boundary" inkscape:connector-curvature="0" />
	<path style="fill:none;stroke:red;stroke-width:1px;stroke-linecap:butt;stroke-linejoin:miter;stroke-opacity:1" d="M 187.364,236.872 205.701,236.872 z" id="boundary" inkscape:connector-curvature="0" />
	<path style="fill:none;stroke:red;stroke-width:1px;stroke-linecap:butt;stroke-linejoin:miter;stroke-opacity:1" d="M 191.031,381.73 209.368,381.73 z" id="boundary" inkscape:connector-curvature="0" />
	<path style="fill:none;stroke:red;stroke-width:1px;stroke-linecap:butt;stroke-linejoin:miter;stroke-opacity:1" d="M 192.865,334.055 211.201,334.055 z" id="boundary" inkscape:connector-curvature="0" />
	<path style="fill:none;stroke:red;stroke-width:1px;stroke-linecap:butt;stroke-linejoin:miter;stroke-opacity:1" d="M 194.699,180.03 211.201,170.861 z" id="boundary" inkscape:connector-curvature="0" />
	<path style="fill:none;stroke:red;stroke-width:1px;stroke-linecap:butt;stroke-linejoin:miter;stroke-opacity:1" d="M 196.532,64.5102 214.869,70.0111 z" id="boundary" inkscape:connector-curvature="0" />
	<path style="fill:none;stroke:red;stroke-width:1px;stroke-linecap:butt;stroke-linejoin:miter;stroke-opacity:1" d="M 198.366,22.3364 216.702,22.3364 z" id="boundary" inkscape:connector-curvature="0" />
	<path style="fill:none;stroke:red;stroke-width:1px;stroke-linecap:butt;stroke-linejoin:miter;stroke-opacity:1" d="M 198.366,280.88 216.702,280.88 z" id="boundary" inkscape:connector-curvature="0" />
	<path style="fill:none;stroke:red;stroke-width:1px;stroke-linecap:butt;stroke-linejoin:miter;stroke-opacity:1" d="M 205.701,126.854 224.037,132.355 z" id="boundary" inkscape:connector-curvature="0" />
	<path style="fill:none;stroke:red;stroke-width:1px;stroke-linecap:butt;stroke-linejoin:miter;stroke-opacity:1" d="M 205.701,236.872 224.037,236.872 z" id="boundary" inkscape:connector-curvature="0" />
	<path style="fill:none;stroke:red;stroke-width:1px;stroke-linecap:butt;stroke-linejoin:miter;stroke-opacity:1" d="M 209.368,381.73 227.704,381.73 z" id="boundary" inkscape:connector-curvature="0" />
	<path style="fill:none;stroke:red;stroke-width:1px;stroke-linecap:butt;stroke-linejoin:miter;stroke-opacity:1" d="M 211.201,170.861 227.704,180.03 z" id="boundary" inkscape:connector-curvature="0" />
	<path style="fill:none;stroke:red;stroke-width:1px;stroke-linecap:butt;stroke-linejoin:miter;stroke-opacity:1" d="M 211.201,334.055 229.538,334.055 z" id="boundary" inkscape:connector-curvature="0" />
	<path style="fill:none;stroke:red;stroke-width:1px;stroke-linecap:butt;stroke-linejoin:miter;stroke-opacity:1" d="M 214.869,70.0111 233.205,70.0111 z" id="boundary" inkscape:connector-curvature="0" />
	<path style="fill:none;stroke:red;stroke-width:1px;stroke-linecap:butt;stroke-linejoin:miter;stroke-opacity:1" d="M 216.702,22.3364 235.039,22.3364 z" id="boundary" inkscape:connector-curvature="0" />
	<path style="fill:none;stroke:red;stroke-width:1px;stroke-linecap:butt;stroke-linejoin:miter;stroke-opacity:1" d="M 216.702,280.88 235.039,280.88 z" id="boundary" inkscape:connector-curvature="0" />
	<path style="fill:none;stroke:red;stroke-width:1px;stroke-linecap:butt;stroke-linejoin:miter;stroke-opacity:1" d="M 224.037,132.355 242.373,136.022 z" id="boundary" inkscape:connector-curvature="0" />
	<path style="fill:none;stroke:red;stroke-width:1px;stroke-linecap:butt;stroke-linejoin:miter;stroke-opacity:1" d="M 224.037,236.872 242.373,233.205 z" id="boundary" inkscape:connector-curvature="0" />
	<path style="fill:none;stroke:red;stroke-width:1px;stroke-linecap:butt;stroke-linejoin:miter;stroke-opacity:1" d="M 227.704,180.03 246.041,180.03 z" id="boundary" inkscape:connector-curvature="0" />
	<path style="fill:none;stroke:red;stroke-width:1px;stroke-linecap:butt;stroke-linejoin:miter;stroke-opacity:1" d="M 227.704,381.73 246.041,381.73 z" id="boundary" inkscape:connector-curvature="0" />
	<path style="fill:none;stroke:red;stroke-width:1px;stroke-linecap:butt;stroke-linejoin:miter;stroke-opacity:1" d="M 229.538,334.055 246.041,343.224 z" id="boundary" inkscape:connector-curvature="0" />
	<path style="fill:none;stroke:red;stroke-width:1px;stroke-linecap:butt;stroke-linejoin:miter;stroke-opacity:1" d="M 233.205,70.0111 251.542,70.0111 z" id="boundary" inkscape:connector-curvature="0" />
	<path style="fill:none;stroke:red;stroke-width:1px;stroke-linecap:butt;stroke-linejoin:miter;stroke-opacity:1" d="M 235.039,22.3364 253.375,22.3364 z" id="boundary" inkscape:connector-curvature="0" />
	<path style="fill:none;stroke:red;stroke-width:1px;stroke-linecap:butt;stroke-linejoin:miter;stroke-opacity:1" d="M 235.039,280.88 253.375,284.547 z" id="boundary" inkscape:connector-curvature="0" />
	<path style="fill:none;stroke:red;stroke-width:1px;stroke-linecap:butt;stroke-linejoin:miter;stroke-opacity:1" d="M 242.373,136.022 260.71,137.856 z" id="boundary" inkscape:connector-curvature="0" />
	<path style="fill:none;stroke:red;stroke-width:1px;stroke-linecap:butt;stroke-linejoin:miter;stroke-opacity:1" d="M 242.373,233.205 258.876,242.373 z" id="boundary" inkscape:connector-curvature="0" />
	<path style="fill:none;stroke:red;stroke-width:1px;stroke-linecap:butt;stroke-linejoin:miter;stroke-opacity:1" d="M 246.041,180.03 264.377,180.03 z" id="boundary" inkscape:connector-curvature="0" />
	<path style="fill:none;stroke:red;stroke-width:1px;stroke-linecap:butt;stroke-linejoin:miter;stroke-opacity:1" d="M 246.041,343.224 264.377,343.224 z" id="boundary" inkscape:connector-curvature="0" />
	<path style="fill:none;stroke:red;stroke-width:1px;stroke-linecap:butt;stroke-linejoin:miter;stroke-opacity:1" d="M 246.041,381.73 264.377,381.73 z" id="boundary" inkscape:connector-curvature="0" />
	<path style="fill:none;stroke:red;stroke-width:1px;stroke-linecap:butt;stroke-linejoin:miter;stroke-opacity:1" d="M 251.542,70.0111 269.878,70.0111 z" id="boundary" inkscape:connector-curvature="0" />
	<path style="fill:none;stroke:red;stroke-width:1px;stroke-linecap:butt;stroke-linejoin:miter;stroke-opacity:1" d="M 253.375,22.3364 271.712,27.8373 z" id="boundary" inkscape:connector-curvature="0" />
	<path style="fill:none;stroke:red;stroke-width:1px;stroke-linecap:butt;stroke-linejoin:miter;stroke-opacity:1" d="M 253.375,284.547 271.712,280.88 z" id="boundary" inkscape:connector-curvature="0" />
	<path style="fill:none;stroke:red;stroke-width:1px;stroke-linecap:butt;stroke-linejoin:miter;stroke-opacity:1" d="M 258.876,242.373 277.213,242.373 z" id="boundary" inkscape:connector-curvature="0" />
	<path style="fill:none;stroke:red;stroke-width:1px;stroke-linecap:butt;stroke-linejoin:miter;stroke-opacity:1" d="M 260.71,137.856 279.046,141.523 z" id="boundary" inkscape:connector-curvature="0" />
	<path style="fill:none;stroke:red;stroke-width:1px;stroke-linecap:butt;stroke-linejoin:miter;stroke-opacity:1" d="M 264.377,180.03 282.713,180.03 z" id="boundary" inkscape:connector-curvature="0" />
	<path style="fill:none;stroke:red;stroke-width:1px;stroke-linecap:butt;stroke-linejoin:miter;stroke-opacity:1" d="M 264.377,343.224 273.545,326.721 z" id="boundary" inkscape:connector-curvature="0" />
	<path style="fill:none;stroke:red;stroke-width:1px;stroke-linecap:butt;stroke-linejoin:miter;stroke-opacity:1" d="M 264.377,381.73 282.713,381.73 z" id="boundary" inkscape:connector-curvature="0" />
	<path style="fill:none;stroke:red;stroke-width:1px;stroke-linecap:butt;stroke-linejoin:miter;stroke-opacity:1" d="M 269.878,70.0111 288.214,70.0111 z" id="boundary" inkscape:connector-curvature="0" />
	<path style="fill:none;stroke:red;stroke-width:1px;stroke-linecap:butt;stroke-linejoin:miter;stroke-opacity:1" d="M 271.712,27.8373 290.048,27.8373 z" id="boundary" inkscape:connector-curvature="0" />
	<path style="fill:none;stroke:red;stroke-width:1px;stroke-linecap:butt;stroke-linejoin:miter;stroke-opacity:1" d="M 271.712,280.88 279.046,299.216 z" id="boundary" inkscape:connector-curvature="0" />
	<path style="fill:none;stroke:red;stroke-width:1px;stroke-linecap:butt;stroke-linejoin:miter;stroke-opacity:1" d="M 273.545,326.721 279.046,299.216 z" id="boundary" inkscape:connector-curvature="0" />
	<path style="fill:none;stroke:red;stroke-width:1px;stroke-linecap:butt;stroke-linejoin:miter;stroke-opacity:1" d="M 277.213,242.373 288.214,220.37 z" id="boundary" inkscape:connector-curvature="0" />
	<path style="fill:none;stroke:red;stroke-width:1px;stroke-linecap:butt;stroke-linejoin:miter;stroke-opacity:1" d="M 279.046,141.523 297.383,128.688 z" id="boundary" inkscape:connector-curvature="0" />
	<path style="fill:none;stroke:red;stroke-width:1px;stroke-linecap:butt;stroke-linejoin:miter;stroke-opacity:1" d="M 282.713,180.03 288.214,198.366 z" id="boundary" inkscape:connector-curvature="0" />
	<path style="fill:none;stroke:red;stroke-width:1px;stroke-linecap:butt;stroke-linejoin:miter;stroke-opacity:1" d="M 282.713,381.73 301.05,381.73 z" id="boundary" inkscape:connector-curvature="0" />
	<path style="fill:none;stroke:red;stroke-width:1px;stroke-linecap:butt;stroke-linejoin:miter;stroke-opacity:1" d="M 288.214,70.0111 306.551,70.0111 z" id="boundary" inkscape:connector-curvature="0" />
	<path style="fill:none;stroke:red;stroke-width:1px;stroke-linecap:butt;stroke-linejoin:miter;stroke-opacity:1" d="M 288.214,198.366 288.214,220.37 z" id="boundary" inkscape:connector-curvature="0" />
	<path style="fill:none;stroke:red;stroke-width:1px;stroke-linecap:butt;stroke-linejoin:miter;stroke-opacity:1" d="M 290.048,27.8373 308.384,31.5046 z" id="boundary" inkscape:connector-curvature="0" />
	<path style="fill:none;stroke:red;stroke-width:1px;stroke-linecap:butt;stroke-linejoin:miter;stroke-opacity:1" d="M 297.383,110.351 297.383,128.688 z" id="boundary" inkscape:connector-curvature="0" />
	<path style="fill:none;stroke:red;stroke-width:1px;stroke-linecap:butt;stroke-linejoin:miter;stroke-opacity:1" d="M 297.383,110.351 306.551,88.3475 z" id="boundary" inkscape:connector-curvature="0" />
	<path style="fill:none;stroke:red;stroke-width:1px;stroke-linecap:butt;stroke-linejoin:miter;stroke-opacity:1" d="M 301.05,381.73 317.553,372.562 z" id="boundary" inkscape:connector-curvature="0" />
	<path style="fill:none;stroke:red;stroke-width:1px;stroke-linecap:butt;stroke-linejoin:miter;stroke-opacity:1" d="M 306.551,70.0111 306.551,88.3475 z" id="boundary" inkscape:connector-curvature="0" />
	<path style="fill:none;stroke:red;stroke-width:1px;stroke-linecap:butt;stroke-linejoin:miter;stroke-opacity:1" d="M 308.384,31.5046 326.721,27.8373 z" id="boundary" inkscape:connector-curvature="0" />
	<path style="fill:none;stroke:red;stroke-width:1px;stroke-linecap:butt;stroke-linejoin:miter;stroke-opacity:1" d="M 317.553,317.553 317.553,335.889 z" id="boundary" inkscape:connector-curvature="0" />
	<path style="fill:none;stroke:red;stroke-width:1px;stroke-linecap:butt;stroke-linejoin:miter;stroke-opacity:1" d="M 317.553,317.553 326.721,299.216 z" id="boundary" inkscape:connector-curvature="0" />
	<path style="fill:none;stroke:red;stroke-width:1px;stroke-linecap:butt;stroke-linejoin:miter;stroke-opacity:1" d="M 317.553,335.889 317.553,354.226 z" id="boundary" inkscape:connector-curvature="0" />
	<path style="fill:none;stroke:red;stroke-width:1px;stroke-linecap:butt;stroke-linejoin:miter;stroke-opacity:1" d="M 317.553,354.226 317.553,372.562 z" id="boundary" inkscape:connector-curvature="0" />
	<path style="fill:none;stroke:red;stroke-width:1px;stroke-linecap:butt;stroke-linejoin:miter;stroke-opacity:1" d="M 326.721,27.8373 345.057,31.5046 z" id="boundary" inkscape:connector-curvature="0" />
	<path style="fill:none;stroke:red;stroke-width:1px;stroke-linecap:butt;stroke-linejoin:miter;stroke-opacity:1" d="M 326.721,280.88 326.721,299.216 z" id="boundary" inkscape:connector-curvature="0" />
	<path style="fill:none;stroke:red;stroke-width:1px;stroke-linecap:butt;stroke-linejoin:miter;stroke-opacity:1" d="M 326.721,280.88 345.057,280.88 z" id="boundary" inkscape:connector-curvature="0" />
	<path style="fill:none;stroke:red;stroke-width:1px;stroke-linecap:butt;stroke-linejoin:miter;stroke-opacity:1" d="M 345.057,31.5046 354.226,48.0074 z" id="boundary" inkscape:connector-curvature="0" />
	<path style="fill:none;stroke:red;stroke-width:1px;stroke-linecap:butt;stroke-linejoin:miter;stroke-opacity:1" d="M 345.057,97.5157 354.226,66.3438 z" id="boundary" inkscape:connector-curvature="0" />
	<path style="fill:none;stroke:red;stroke-width:1px;stroke-linecap:butt;stroke-linejoin:miter;stroke-opacity:1" d="M 345.057,97.5157 354.226,114.018 z" id="boundary" inkscape:connector-curvature="0" />
	<path style="fill:none;stroke:red;stroke-width:1px;stroke-linecap:butt;stroke-linejoin:miter;stroke-opacity:1" d="M 345.057,280.88 363.394,280.88 z" id="boundary" inkscape:connector-curvature="0" />
	<path style="fill:none;stroke:red;stroke-width:1px;stroke-linecap:butt;stroke-linejoin:miter;stroke-opacity:1" d="M 354.226,48.0074 354.226,66.3438 z" id="boundary" inkscape:connector-curvature="0" />
	<path style="fill:none;stroke:red;stroke-width:1px;stroke-linecap:butt;stroke-linejoin:miter;stroke-opacity:1" d="M 354.226,114.018 372.562,114.018 z" id="boundary" inkscape:connector-curvature="0" />
	<path style="fill:none;stroke:red;stroke-width:1px;stroke-linecap:butt;stroke-linejoin:miter;stroke-opacity:1" d="M 363.394,280.88 381.73,280.88 z" id="boundary" inkscape:connector-curvature="0" />
	<path style="fill:none;stroke:red;stroke-width:1px;stroke-linecap:butt;stroke-linejoin:miter;stroke-opacity:1" d="M 372.562,114.018 390.898,114.018 z" id="boundary" inkscape:connector-curvature="0" />
	<path style="fill:none;stroke:red;stroke-width:1px;stroke-linecap:butt;stroke-linejoin:miter;stroke-opacity:1" d="M 381.73,280.88 398.233,290.048 z" id="boundary" inkscape:connector-curvature="0" />
	<path style="fill:none;stroke:red;stroke-width:1px;stroke-linecap:butt;stroke-linejoin:miter;stroke-opacity:1" d="M 390.898,114.018 409.235,119.519 z" id="boundary" inkscape:connector-curvature="0" />
	<path style="fill:none;stroke:red;stroke-width:1px;stroke-linecap:butt;stroke-linejoin:miter;stroke-opacity:1" d="M 398.233,290.048 414.736,280.88 z" id="boundary" inkscape:connector-curvature="0" />
	<path style="fill:none;stroke:red;stroke-width:1px;stroke-linecap:butt;stroke-linejoin:miter;stroke-opacity:1" d="M 409.235,119.519 427.571,114.018 z" id="boundary" inkscape:connector-curvature="0" />
	<path style="fill:none;stroke:red;stroke-width:1px;stroke-linecap:butt;stroke-linejoin:miter;stroke-opacity:1" d="M 414.736,280.88 431.238,290.048 z" id="boundary" inkscape:connector-curvature="0" />
	<path style="fill:none;stroke:red;stroke-width:1px;stroke-linecap:butt;stroke-linejoin:miter;stroke-opacity:1" d="M 427.571,114.018 444.074,123.187 z" id="boundary" inkscape:connector-curvature="0" />
	<path style="fill:none;stroke:red;stroke-width:1px;stroke-linecap:butt;stroke-linejoin:miter;stroke-opacity:1" d="M 431.238,290.048 449.575,297.383 z" id="boundary" inkscape:connector-curvature="0" />
	<path style="fill:none;stroke:red;stroke-width:1px;stroke-linecap:butt;stroke-linejoin:miter;stroke-opacity:1" d="M 444.074,123.187 460.577,114.018 z" id="boundary" inkscape:connector-curvature="0" />
	<path style="fill:none;stroke:red;stroke-width:1px;stroke-linecap:butt;stroke-linejoin:miter;stroke-opacity:1" d="M 449.575,297.383 467.911,297.383 z" id="boundary" inkscape:connector-curvature="0" />
	<path style="fill:none;stroke:red;stroke-width:1px;stroke-linecap:butt;stroke-linejoin:miter;stroke-opacity:1" d="M 460.577,114.018 478.913,114.018 z" id="boundary" inkscape:connector-curvature="0" />
	<path style="fill:none;stroke:red;stroke-width:1px;stroke-linecap:butt;stroke-linejoin:miter;stroke-opacity:1" d="M 467.911,297.383 486.248,299.216 z" id="boundary" inkscape:connector-curvature="0" />
	<path style="fill:none;stroke:red;stroke-width:1px;stroke-linecap:butt;stroke-linejoin:miter;stroke-opacity:1" d="M 478.913,114.018 497.25,114.018 z" id="boundary" inkscape:connector-curvature="0" />
	<path style="fill:none;stroke:red;stroke-width:1px;stroke-linecap:butt;stroke-linejoin:miter;stroke-opacity:1" d="M 486.248,299.216 504.584,299.216 z" id="boundary" inkscape:connector-curvature="0" />
	<path style="fill:none;stroke:red;stroke-width:1px;stroke-linecap:butt;stroke-linejoin:miter;stroke-opacity:1" d="M 497.25,114.018 515.586,114.018 z" id="boundary" inkscape:connector-curvature="0" />
	<path style="fill:none;stroke:red;stroke-width:1px;stroke-linecap:butt;stroke-linejoin:miter;stroke-opacity:1" d="M 504.584,299.216 522.921,299.216 z" id="boundary" inkscape:connector-curvature="0" />
	<path style="fill:none;stroke:red;stroke-width:1px;stroke-linecap:butt;stroke-linejoin:miter;stroke-opacity:1" d="M 515.586,114.018 533.922,114.018 z" id="boundary" inkscape:connector-curvature="0" />
	<path style="fill:none;stroke:red;stroke-width:1px;stroke-linecap:butt;stroke-linejoin:miter;stroke-opacity:1" d="M 522.921,299.216 541.257,306.551 z" id="boundary" inkscape:connector-curvature="0" />
	<path style="fill:none;stroke:red;stroke-width:1px;stroke-linecap:butt;stroke-linejoin:miter;stroke-opacity:1" d="M 533.922,114.018 550.425,104.85 z" id="boundary" inkscape:connector-curvature="0" />
	<path style="fill:none;stroke:red;stroke-width:1px;stroke-linecap:butt;stroke-linejoin:miter;stroke-opacity:1" d="M 541.257,306.551 559.593,299.216 z" id="boundary" inkscape:connector-curvature="0" />
	<path style="fill:none;stroke:red;stroke-width:1px;stroke-linecap:butt;stroke-linejoin:miter;stroke-opacity:1" d="M 550.425,104.85 568.762,104.85 z" id="boundary" inkscape:connector-curvature="0" />
	<path style="fill:none;stroke:red;stroke-width:1px;stroke-linecap:butt;stroke-linejoin:miter;stroke-opacity:1" d="M 559.593,299.216 576.096,308.384 z" id="boundary" inkscape:connector-curvature="0" />
	<path style="fill:none;stroke:red;stroke-width:1px;stroke-linecap:butt;stroke-linejoin:miter;stroke-opacity:1" d="M 568.762,104.85 587.098,104.85 z" id="boundary" inkscape:connector-curvature="0" />
	<path style="fill:none;stroke:red;stroke-width:1px;stroke-linecap:butt;stroke-linejoin:miter;stroke-opacity:1" d="M 576.096,308.384 594.433,313.885 z" id="boundary" inkscape:connector-curvature="0" />
	<path style="fill:none;stroke:red;stroke-width:1px;stroke-linecap:butt;stroke-linejoin:miter;stroke-opacity:1" d="M 587.098,104.85 605.434,104.85 z" id="boundary" inkscape:connector-curvature="0" />
	<path style="fill:none;stroke:red;stroke-width:1px;stroke-linecap:butt;stroke-linejoin:miter;stroke-opacity:1" d="M 594.433,313.885 612.769,308.384 z" id="boundary" inkscape:connector-curvature="0" />
	<path style="fill:none;stroke:red;stroke-width:1px;stroke-linecap:butt;stroke-linejoin:miter;stroke-opacity:1" d="M 605.434,104.85 623.771,104.85 z" id="boundary" inkscape:connector-curvature="0" />
	<path style="fill:none;stroke:red;stroke-width:1px;stroke-linecap:butt;stroke-linejoin:miter;stroke-opacity:1" d="M 612.769,308.384 627.438,319.386 z" id="boundary" inkscape:connector-curvature="0" />
	<path style="fill:none;stroke:red;stroke-width:1px;stroke-linecap:butt;stroke-linejoin:miter;stroke-opacity:1" d="M 623.771,104.85 642.107,104.85 z" id="boundary" inkscape:connector-curvature="0" />
	<path style="fill:none;stroke:red;stroke-width:1px;stroke-linecap:butt;stroke-linejoin:miter;stroke-opacity:1" d="M 627.438,319.386 645.774,317.553 z" id="boundary" inkscape:connector-curvature="0" />
	<path style="fill:none;stroke:red;stroke-width:1px;stroke-linecap:butt;stroke-linejoin:miter;stroke-opacity:1" d="M 642.107,104.85 660.444,104.85 z" id="boundary" inkscape:connector-curvature="0" />
	<path style="fill:none;stroke:red;stroke-width:1px;stroke-linecap:butt;stroke-linejoin:miter;stroke-opacity:1" d="M 645.774,317.553 664.111,317.553 z" id="boundary" inkscape:connector-curvature="0" />
	<path style="fill:none;stroke:red;stroke-width:1px;stroke-linecap:butt;stroke-linejoin:miter;stroke-opacity:1" d="M 660.444,104.85 678.78,104.85 z" id="boundary" inkscape:connector-curvature="0" />
	<path style="fill:none;stroke:red;stroke-width:1px;stroke-linecap:butt;stroke-linejoin:miter;stroke-opacity:1" d="M 664.111,317.553 680.614,326.721 z" id="boundary" inkscape:connector-curvature="0" />
	<path style="fill:none;stroke:red;stroke-width:1px;stroke-linecap:butt;stroke-linejoin:miter;stroke-opacity:1" d="M 678.78,104.85 697.116,104.85 z" id="boundary" inkscape:connector-curvature="0" />
	<path style="fill:none;stroke:red;stroke-width:1px;stroke-linecap:butt;stroke-linejoin:miter;stroke-opacity:1" d="M 680.614,326.721 698.95,326.721 z" id="boundary" inkscape:connector-curvature="0" />
	<path style="fill:none;stroke:red;stroke-width:1px;stroke-linecap:butt;stroke-linejoin:miter;stroke-opacity:1" d="M 697.116,104.85 713.619,114.018 z" id="boundary" inkscape:connector-curvature="0" />
	<path style="fill:none;stroke:red;stroke-width:1px;stroke-linecap:butt;stroke-linejoin:miter;stroke-opacity:1" d="M 698.95,326.721 715.453,335.889 z" id="boundary" inkscape:connector-curvature="0" />
	<path style="fill:none;stroke:red;stroke-width:1px;stroke-linecap:butt;stroke-linejoin:miter;stroke-opacity:1" d="M 713.619,114.018 730.122,104.85 z" id="boundary" inkscape:connector-curvature="0" />
	<path style="fill:none;stroke:red;stroke-width:1px;stroke-linecap:butt;stroke-linejoin:miter;stroke-opacity:1" d="M 715.453,335.889 733.789,334.055 z" id="boundary" inkscape:connector-curvature="0" />
	<path style="fill:none;stroke:red;stroke-width:1px;stroke-linecap:butt;stroke-linejoin:miter;stroke-opacity:1" d="M 730.122,104.85 746.625,114.018 z" id="boundary" inkscape:connector-curvature="0" />
	<path style="fill:none;stroke:red;stroke-width:1px;stroke-linecap:butt;stroke-linejoin:miter;stroke-opacity:1" d="M 733.789,334.055 752.126,335.889 z" id="boundary" inkscape:connector-curvature="0" />
	<path style="fill:none;stroke:red;stroke-width:1px;stroke-linecap:butt;stroke-linejoin:miter;stroke-opacity:1" d="M 746.625,114.018 764.961,117.686 z" id="boundary" inkscape:connector-curvature="0" />
	<path style="fill:none;stroke:red;stroke-width:1px;stroke-linecap:butt;stroke-linejoin:miter;stroke-opacity:1" d="M 752.126,335.889 770.462,335.889 z" id="boundary" inkscape:connector-curvature="0" />
	<path style="fill:none;stroke:red;stroke-width:1px;stroke-linecap:butt;stroke-linejoin:miter;stroke-opacity:1" d="M 764.961,117.686 783.298,123.187 z" id="boundary" inkscape:connector-curvature="0" />
	<path style="fill:none;stroke:red;stroke-width:1px;stroke-linecap:butt;stroke-linejoin:miter;stroke-opacity:1" d="M 770.462,335.889 786.965,345.057 z" id="boundary" inkscape:connector-curvature="0" />
	<path style="fill:none;stroke:red;stroke-width:1px;stroke-linecap:butt;stroke-linejoin:miter;stroke-opacity:1" d="M 783.298,123.187 801.634,126.854 z" id="boundary" inkscape:connector-curvature="0" />
	<path style="fill:none;stroke:red;stroke-width:1px;stroke-linecap:butt;stroke-linejoin:miter;stroke-opacity:1" d="M 786.965,345.057 805.301,345.057 z" id="boundary" inkscape:connector-curvature="0" />
	<path style="fill:none;stroke:red;stroke-width:1px;stroke-linecap:butt;stroke-linejoin:miter;stroke-opacity:1" d="M 801.634,126.854 819.97,126.854 z" id="boundary" inkscape:connector-curvature="0" />
	<path style="fill:none;stroke:red;stroke-width:1px;stroke-linecap:butt;stroke-linejoin:miter;stroke-opacity:1" d="M 805.301,345.057 823.638,345.057 z" id="boundary" inkscape:connector-curvature="0" />
	<path style="fill:none;stroke:red;stroke-width:1px;stroke-linecap:butt;stroke-linejoin:miter;stroke-opacity:1" d="M 819.97,126.854 838.307,132.355 z" id="boundary" inkscape:connector-curvature="0" />
	<path style="fill:none;stroke:red;stroke-width:1px;stroke-linecap:butt;stroke-linejoin:miter;stroke-opacity:1" d="M 823.638,345.057 841.974,345.057 z" id="boundary" inkscape:connector-curvature="0" />
	<path style="fill:none;stroke:red;stroke-width:1px;stroke-linecap:butt;stroke-linejoin:miter;stroke-opacity:1" d="M 838.307,132.355 854.81,141.523 z" id="boundary" inkscape:connector-curvature="0" />
	<path style="fill:none;stroke:red;stroke-width:1px;stroke-linecap:butt;stroke-linejoin:miter;stroke-opacity:1" d="M 841.974,345.057 860.311,345.057 z" id="boundary" inkscape:connector-curvature="0" />
	<path style="fill:none;stroke:red;stroke-width:1px;stroke-linecap:butt;stroke-linejoin:miter;stroke-opacity:1" d="M 854.81,141.523 871.312,150.691 z" id="boundary" inkscape:connector-curvature="0" />
	<path style="fill:none;stroke:red;stroke-width:1px;stroke-linecap:butt;stroke-linejoin:miter;stroke-opacity:1" d="M 860.311,345.057 878.647,345.057 z" id="boundary" inkscape:connector-curvature="0" />
	<path style="fill:none;stroke:red;stroke-width:1px;stroke-linecap:butt;stroke-linejoin:miter;stroke-opacity:1" d="M 871.312,150.691 889.649,150.691 z" id="boundary" inkscape:connector-curvature="0" />
	<path style="fill:none;stroke:red;stroke-width:1px;stroke-linecap:butt;stroke-linejoin:miter;stroke-opacity:1" d="M 878.647,345.057 895.15,335.889 z" id="boundary" inkscape:connector-curvature="0" />
	<path style="fill:none;stroke:red;stroke-width:1px;stroke-linecap:butt;stroke-linejoin:miter;stroke-opacity:1" d="M 889.649,150.691 906.152,159.86 z" id="boundary" inkscape:connector-curvature="0" />
	<path style="fill:none;stroke:red;stroke-width:1px;stroke-linecap:butt;stroke-linejoin:miter;stroke-opacity:1" d="M 895.15,335.889 913.486,335.889 z" id="boundary" inkscape:connector-curvature="0" />
	<path style="fill:none;stroke:red;stroke-width:1px;stroke-linecap:butt;stroke-linejoin:miter;stroke-opacity:1" d="M 906.152,159.86 922.654,169.028 z" id="boundary" inkscape:connector-curvature="0" />
	<path style="fill:none;stroke:red;stroke-width:1px;stroke-linecap:butt;stroke-linejoin:miter;stroke-opacity:1" d="M 913.486,335.889 931.823,326.721 z" id="boundary" inkscape:connector-curvature="0" />
	<path style="fill:none;stroke:red;stroke-width:1px;stroke-linecap:butt;stroke-linejoin:miter;stroke-opacity:1" d="M 922.654,169.028 939.157,178.196 z" id="boundary" inkscape:connector-curvature="0" />
	<path style="fill:none;stroke:red;stroke-width:1px;stroke-linecap:butt;stroke-linejoin:miter;stroke-opacity:1" d="M 931.823,326.721 950.159,326.721 z" id="boundary" inkscape:connector-curvature="0" />
	<path style="fill:none;stroke:red;stroke-width:1px;stroke-linecap:butt;stroke-linejoin:miter;stroke-opacity:1" d="M 939.157,178.196 957.494,181.863 z" id="boundary" inkscape:connector-curvature="0" />
	<path style="fill:none;stroke:red;stroke-width:1px;stroke-linecap:butt;stroke-linejoin:miter;stroke-opacity:1" d="M 950.159,326.721 964.828,313.885 z" id="boundary" inkscape:connector-curvature="0" />
	<path style="fill:none;stroke:red;stroke-width:1px;stroke-linecap:butt;stroke-linejoin:miter;stroke-opacity:1" d="M 957.494,181.863 968.495,196.532 z" id="boundary" inkscape:connector-curvature="0" />
	<path style="fill:none;stroke:red;stroke-width:1px;stroke-linecap:butt;stroke-linejoin:miter;stroke-opacity:1" d="M 964.828,313.885 973.996,295.549 z" id="boundary" inkscape:connector-curvature="0" />
	<path style="fill:none;stroke:red;stroke-width:1px;stroke-linecap:butt;stroke-linejoin:miter;stroke-opacity:1" d="M 968.495,196.532 986.832,202.033 z" id="boundary" inkscape:connector-curvature="0" />
	<path style="fill:none;stroke:red;stroke-width:1px;stroke-linecap:butt;stroke-linejoin:miter;stroke-opacity:1" d="M 973.996,295.549 983.165,277.213 z" id="boundary" inkscape:connector-curvature="0" />
	<path style="fill:none;stroke:red;stroke-width:1px;stroke-linecap:butt;stroke-linejoin:miter;stroke-opacity:1" d="M 983.165,277.213 992.333,258.876 z" id="boundary" inkscape:connector-curvature="0" />
	<path style="fill:none;stroke:red;stroke-width:1px;stroke-linecap:butt;stroke-linejoin:miter;stroke-opacity:1" d="M 986.832,202.033 996,218.536 z" id="boundary" inkscape:connector-curvature="0" />
	<path style="fill:none;stroke:red;stroke-width:1px;stroke-linecap:butt;stroke-linejoin:miter;stroke-opacity:1" d="M 992.333,258.876 996,236.872 z" id="boundary" inkscape:connector-curvature="0" />
	<path style="fill:none;stroke:red;stroke-width:1px;stroke-linecap:butt;stroke-linejoin:miter;stroke-opacity:1" d="M 996,218.536 996,236.872 z" id="boundary" inkscape:connector-curvature="0" />
	<circle cx="4" cy="367.061" r="4" fill="#0" id="circle0"/>
	<circle cx="13.1682" cy="348.725" r="4" fill="#0" id="circle1"/>
	<circle cx="22.3364" cy="18.6691" r="4" fill="#0" id="circle2"/>
	<circle cx="22.3364" cy="37.0055" r="4" fill="#0" id="circle3"/>
	<circle cx="22.3364" cy="128.688" r="4" fill="#0" id="circle4"/>
	<circle cx="22.3364" cy="147.024" r="4" fill="#0" id="circle5"/>
	<circle cx="22.3364" cy="238.706" r="4" fill="#0" id="circle6"/>
	<circle cx="22.3364" cy="257.043" r="4" fill="#0" id="circle7"/>
	<circle cx="22.3364" cy="372.562" r="4" fill="#0" id="circle8"/>
	<circle cx="27.8373" cy="334.055" r="4" fill="#0" id="circle9"/>
	<circle cx="27.8373" cy="390.898" r="4" fill="#0" id="circle10"/>
	<circle cx="33.3383" cy="51.6747" r="4" fill="#0" id="circle11"/>
	<circle cx="33.3383" cy="161.693" r="4" fill="#0" id="circle12"/>
	<circle cx="33.3383" cy="271.712" r="4" fill="#0" id="circle13"/>
	<circle cx="37.0055" cy="4" r="4" fill="#0" id="circle14"/>
	<circle cx="40.6728" cy="123.187" r="4" fill="#0" id="circle15"/>
	<circle cx="40.6728" cy="233.205" r="4" fill="#0" id="circle16"/>
	<circle cx="44.3401" cy="381.73" r="4" fill="#0" id="circle17"/>
	<circle cx="46.1738" cy="334.055" r="4" fill="#0" id="circle18"/>
	<circle cx="51.6747" cy="55.342" r="4" fill="#0" id="circle19"/>
	<circle cx="51.6747" cy="165.36" r="4" fill="#0" id="circle20"/>
	<circle cx="51.6747" cy="271.712" r="4" fill="#0" id="circle21"/>
	<circle cx="55.342" cy="4" r="4" fill="#0" id="circle22"/>
	<circle cx="59.0092" cy="123.187" r="4" fill="#0" id="circle23"/>
	<circle cx="59.0092" cy="233.205" r="4" fill="#0" id="circle24"/>
	<circle cx="62.6765" cy="381.73" r="4" fill="#0" id="circle25"/>
	<circle cx="64.5102" cy="334.055" r="4" fill="#0" id="circle26"/>
	<circle cx="70.0111" cy="51.6747" r="4" fill="#0" id="circle27"/>
	<circle cx="70.0111" cy="165.36" r="4" fill="#0" id="circle28"/>
	<circle cx="70.0111" cy="271.712" r="4" fill="#0" id="circle29"/>
	<circle cx="73.6784" cy="4" r="4" fill="#0" id="circle30"/>
	<circle cx="77.3457" cy="123.187" r="4" fill="#0" id="circle31"/>
	<circle cx="77.3457" cy="233.205" r="4" fill="#0" id="circle32"/>
	<circle cx="81.0129" cy="381.73" r="4" fill="#0" id="circle33"/>
	<circle cx="82.8466" cy="334.055" r="4" fill="#0" id="circle34"/>
	<circle cx="88.3475" cy="51.6747" r="4" fill="#0" id="circle35"/>
	<circle cx="88.3475" cy="170.861" r="4" fill="#0" id="circle36"/>
	<circle cx="88.3475" cy="271.712" r="4" fill="#0" id="circle37"/>
	<circle cx="92.0148" cy="4" r="4" fill="#0" id="circle38"/>
	<circle cx="95.6821" cy="123.187" r="4" fill="#0" id="circle39"/>
	<circle cx="95.6821" cy="233.205" r="4" fill="#0" id="circle40"/>
	<circle cx="99.3494" cy="381.73" r="4" fill="#0" id="circle41"/>
	<circle cx="101.183" cy="334.055" r="4" fill="#0" id="circle42"/>
	<circle cx="106.684" cy="51.6747" r="4" fill="#0" id="circle43"/>
	<circle cx="106.684" cy="170.861" r="4" fill="#0" id="circle44"/>
	<circle cx="106.684" cy="271.712" r="4" fill="#0" id="circle45"/>
	<circle cx="110.351" cy="4" r="4" fill="#0" id="circle46"/>
	<circle cx="114.018" cy="123.187" r="4" fill="#0" id="circle47"/>
	<circle cx="114.018" cy="233.205" r="4" fill="#0" id="circle48"/>
	<circle cx="117.686" cy="381.73" r="4" fill="#0" id="circle49"/>
	<circle cx="119.519" cy="334.055" r="4" fill="#0" id="circle50"/>
	<circle cx="125.02" cy="51.6747" r="4" fill="#0" id="circle51"/>
	<circle cx="125.02" cy="161.693" r="4" fill="#0" id="circle52"/>
	<circle cx="125.02" cy="271.712" r="4" fill="#0" id="circle53"/>
	<circle cx="128.688" cy="4" r="4" fill="#0" id="circle54"/>
	<circle cx="132.355" cy="123.187" r="4" fill="#0" id="circle55"/>
	<circle cx="132.355" cy="227.704" r="4" fill="#0" id="circle56"/>
	<circle cx="136.022" cy="381.73" r="4" fill="#0" id="circle57"/>
	<circle cx="137.856" cy="334.055" r="4" fill="#0" id="circle58"/>
	<circle cx="141.523" cy="60.8429" r="4" fill="#0" id="circle59"/>
	<circle cx="141.523" cy="170.861" r="4" fill="#0" id="circle60"/>
	<circle cx="143.357" cy="275.379" r="4" fill="#0" id="circle61"/>
	<circle cx="145.19" cy="13.1682" r="4" fill="#0" id="circle62"/>
	<circle cx="150.691" cy="123.187" r="4" fill="#0" id="circle63"/>
	<circle cx="150.691" cy="233.205" r="4" fill="#0" id="circle64"/>
	<circle cx="154.359" cy="381.73" r="4" fill="#0" id="circle65"/>
	<circle cx="156.192" cy="334.055" r="4" fill="#0" id="circle66"/>
	<circle cx="159.86" cy="60.8429" r="4" fill="#0" id="circle67"/>
	<circle cx="159.86" cy="170.861" r="4" fill="#0" id="circle68"/>
	<circle cx="161.693" cy="280.88" r="4" fill="#0" id="circle69"/>
	<circle cx="163.527" cy="13.1682" r="4" fill="#0" id="circle70"/>
	<circle cx="169.028" cy="126.854" r="4" fill="#0" id="circle71"/>
	<circle cx="169.028" cy="233.205" r="4" fill="#0" id="circle72"/>
	<circle cx="172.695" cy="381.73" r="4" fill="#0" id="circle73"/>
	<circle cx="174.529" cy="334.055" r="4" fill="#0" id="circle74"/>
	<circle cx="178.196" cy="60.8429" r="4" fill="#0" id="circle75"/>
	<circle cx="178.196" cy="170.861" r="4" fill="#0" id="circle76"/>
	<circle cx="180.03" cy="280.88" r="4" fill="#0" id="circle77"/>
	<circle cx="181.863" cy="13.1682" r="4" fill="#0" id="circle78"/>
	<circle cx="187.364" cy="126.854" r="4" fill="#0" id="circle79"/>
	<circle cx="187.364" cy="236.872" r="4" fill="#0" id="circle80"/>
	<circle cx="191.031" cy="381.73" r="4" fill="#0" id="circle81"/>
	<circle cx="192.865" cy="334.055" r="4" fill="#0" id="circle82"/>
	<circle cx="194.699" cy="180.03" r="4" fill="#0" id="circle83"/>
	<circle cx="196.532" cy="64.5102" r="4" fill="#0" id="circle84"/>
	<circle cx="198.366" cy="22.3364" r="4" fill="#0" id="circle85"/>
	<circle cx="198.366" cy="280.88" r="4" fill="#0" id="circle86"/>
	<circle cx="205.701" cy="126.854" r="4" fill="#0" id="circle87"/>
	<circle cx="205.701" cy="236.872" r="4" fill="#0" id="circle88"/>
	<circle cx="209.368" cy="381.73" r="4" fill="#0" id="circle89"/>
	<circle cx="211.201" cy="170.861" r="4" fill="#0" id="circle90"/>
	<circle cx="211.201" cy="334.055" r="4" fill="#0" id="circle91"/>
	<circle cx="214.869" cy="70.0111" r="4" fill="#0" id="circle92"/>
	<circle cx="216.702" cy="22.3364" r="4" fill="#0" id="circle93"/>
	<circle cx="216.702" cy="280.88" r="4" fill="#0" id="circle94"/>
	<circle cx="224.037" cy="132.355" r="4" fill="#0" id="circle95"/>
	<circle cx="224.037" cy="236.872" r="4" fill="#0" id="circle96"/>
	<circle cx="227.704" cy="180.03" r="4" fill="#0" id="circle97"/>
	<circle cx="227.704" cy="381.73" r="4" fill="#0" id="circle98"/>
	<circle cx="229.538" cy="334.055" r="4" fill="#0" id="circle99"/>
	<circle cx="233.205" cy="70.0111" r="4" fill="#0" id="circle100"/>
	<circle cx="235.039" cy="22.3364" r="4" fill="#0" id="circle101"/>
	<circle cx="235.039" cy="280.88" r="4" fill="#0" id="circle102"/>
	<circle cx="242.373" cy="136.022" r="4" fill="#0" id="circle103"/>
	<circle cx="242.373" cy="233.205" r="4" fill="#0" id="circle104"/>
	<circle cx="246.041" cy="180.03" r="4" fill="#0" id="circle105"/>
	<circle cx="246.041" cy="343.224" r="4" fill="#0" id="circle106"/>
	<circle cx="246.041" cy="381.73" r="4" fill="#0" id="circle107"/>
	<circle cx="251.542" cy="70.0111" r="4" fill="#0" id="circle108"/>
	<circle cx="253.375" cy="22.3364" r="4" fill="#0" id="circle109"/>
	<circle cx="253.375" cy="284.547" r="4" fill="#0" id="circle110"/>
	<circle cx="258.876" cy="242.373" r="4" fill="#0" id="circle111"/>
	<circle cx="260.71" cy="137.856" r="4" fill="#0" id="circle112"/>
	<circle cx="264.377" cy="180.03" r="4" fill="#0" id="circle113"/>
	<circle cx="264.377" cy="343.224" r="4" fill="#0" id="circle114"/>
	<circle cx="264.377" cy="381.73" r="4" fill="#0" id="circle115"/>
	<circle cx="269.878" cy="70.0111" r="4" fill="#0" id="circle116"/>
	<circle cx="271.712" cy="27.8373" r="4" fill="#0" id="circle117"/>
	<circle cx="271.712" cy="280.88" r="4" fill="#0" id="circle118"/>
	<circle cx="273.545" cy="326.721" r="4" fill="#0" id="circle119"/>
	<circle cx="277.213" cy="242.373" r="4" fill="#0" id="circle120"/>
	<circle cx="279.046" cy="141.523" r="4" fill="#0" id="circle121"/>
	<circle cx="279.046" cy="299.216" r="4" fill="#0" id="circle122"/>
	<circle cx="282.713" cy="180.03" r="4" fill="#0" id="circle123"/>
	<circle cx="282.713" cy="381.73" r="4" fill="#0" id="circle124"/>
	<circle cx="288.214" cy="70.0111" r="4" fill="#0" id="circle125"/>
	<circle cx="288.214" cy="198.366" r="4" fill="#0" id="circle126"/>
	<circle cx="288.214" cy="220.37" r="4" fill="#0" id="circle127"/>
	<circle cx="290.048" cy="27.8373" r="4" fill="#0" id="circle128"/>
	<circle cx="297.383" cy="110.351" r="4" fill="#0" id="circle129"/>
	<circle cx="297.383" cy="128.688" r="4" fill="#0" id="circle130"/>
	<circle cx="301.05" cy="381.73" r="4" fill="#0" id="circle131"/>
	<circle cx="306.551" cy="70.0111" r="4" fill="#0" id="circle132"/>
	<circle cx="306.551" cy="88.3475" r="4" fill="#0" id="circle133"/>
	<circle cx="308.384" cy="31.5046" r="4" fill="#0" id="circle134"/>
	<circle cx="317.553" cy="317.553" r="4" fill="#0" id="circle135"/>
	<circle cx="317.553" cy="335.889" r="4" fill="#0" id="circle136"/>
	<circle cx="317.553" cy="354.226" r="4" fill="#0" id="circle137"/>
	<circle cx="317.553" cy="372.562" r="4" fill="#0" id="circle138"/>
	<circle cx="326.721" cy="27.8373" r="4" fill="#0" id="circle139"/>
	<circle cx="326.721" cy="280.88" r="4" fill="#0" id="circle140"/>
	<circle cx="326.721" cy="299.216" r="4" fill="#0" id="circle141"/>
	<circle cx="345.057" cy="31.5046" r="4" fill="#0" id="circle142"/>
	<circle cx="345.057" cy="97.5157" r="4" fill="#0" id="circle143"/>
	<circle cx="345.057" cy="280.88" r="4" fill="#0" id="circle144"/>
	<circle cx="354.226" cy="48.0074" r="4" fill="#0" id="circle145"/>
	<circle cx="354.226" cy="66.3438" r="4" fill="#0" id="circle146"/>
	<circle cx="354.226" cy="114.018" r="4" fill="#0" id="circle147"/>
	<circle cx="363.394" cy="280.88" r="4" fill="#0" id="circle148"/>
	<circle cx="372.562" cy="114.018" r="4" fill="#0" id="circle149"/>
	<circle cx="381.73" cy="280.88" r="4" fill="#0" id="circle150"/>
	<circle cx="390.898" cy="114.018" r="4" fill="#0" id="circle151"/>
	<circle cx="398.233" cy="290.048" r="4" fill="#0" id="circle152"/>
	<circle cx="409.235" cy="119.519" r="4" fill="#0" id="circle153"/>
	<circle cx="414.736" cy="280.88" r="4" fill="#0" id="circle154"/>
	<circle cx="427.571" cy="114.018" r="4" fill="#0" id="circle155"/>
	<circle cx="431.238" cy="290.048" r="4" fill="#0" id="circle156"/>
	<circle cx="444.074" cy="123.187" r="4" fill="#0" id="circle157"/>
	<circle cx="449.575" cy="297.383" r="4" fill="#0" id="circle158"/>
	<circle cx="460.577" cy="114.018" r="4" fill="#0" id="circle159"/>
	<circle cx="467.911" cy="297.383" r="4" fill="#0" id="circle160"/>
	<circle cx="478.913" cy="114.018" r="4" fill="#0" id="circle161"/>
	<circle cx="486.248" cy="299.216" r="4" fill="#0" id="circle162"/>
	<circle cx="497.25" cy="114.018" r="4" fill="#0" id="circle163"/>
	<circle cx="504.584" cy="299.216" r="4" fill="#0" id="circle164"/>
	<circle cx="515.586" cy="114.018" r="4" fill="#0" id="circle165"/>
	<circle cx="522.921" cy="299.216" r="4" fill="#0" id="circle166"/>
	<circle cx="533.922" cy="114.018" r="4" fill="#0" id="circle167"/>
	<circle cx="541.257" cy="306.551" r="4" fill="#0" id="circle168"/>
	<circle cx="550.425" cy="104.85" r="4" fill="#0" id="circle169"/>
	<circle cx="559.593" cy="299.216" r="4" fill="#0" id="circle170"/>
	<circle cx="568.762" cy="104.85" r="4" fill="#0" id="circle171"/>
	<circle cx="576.096" cy="308.384" r="4" fill="#0" id="circle172"/>
	<circle cx="587.098" cy="104.85" r="4" fill="#0" id="circle173"/>
	<circle cx="594.433" cy="313.885" r="4" fill="#0" id="circle174"/>
	<circle cx="605.434" cy="104.85" r="4" fill="#0" id="circle175"/>
	<circle cx="612.769" cy="308.384" r="4" fill="#0" id="circle176"/>
	<circle cx="623.771" cy="104.85" r="4" fill="#0" id="circle177"/>
	<circle cx="627.438" cy="319.386" r="4" fill="#0" id="circle178"/>
	<circle cx="642.107" cy="104.85" r="4" fill="#0" id="circle179"/>
	<circle cx="645.774" cy="317.553" r="4" fill="#0" id="circle180"/>
	<circle cx="660.444" cy="104.85" r="4" fill="#0" id="circle181"/>
	<circle cx="664.111" cy="317.553" r="4" fill="#0" id="circle182"/>
	<circle cx="678.78" cy="104.85" r="4" fill="#0" id="circle183"/>
	<circle cx="680.614" cy="326.721" r="4" fill="#0" id="circle184"/>
	<circle cx="697.116" cy="104.85" r="4" fill="#0" id="circle185"/>
	<circle cx="698.95" cy="326.721" r="4" fill="#0" id="circle186"/>
	<circle cx="713.619" cy="114.018" r="4" fill="#0" id="circle187"/>
	<circle cx="715.453" cy="335.889" r="4" fill="#0" id="circle188"/>
	<circle cx="730.122" cy="104.85" r="4" fill="#0" id="circle189"/>
	<circle cx="733.789" cy="334.055" r="4" fill="#0" id="circle190"/>
	<circle cx="746.625" cy="114.018" r="4" fill="#0" id="circle191"/>
	<circle cx="752.126" cy="335.889" r="4" fill="#0" id="circle192"/>
	<circle cx="764.961" cy="117.686" r="4" fill="#0" id="circle193"/>
	<circle cx="770.462" cy="335.889" r="4" fill="#0" id="circle194"/>
	<circle cx="783.298" cy="123.187" r="4" fill="#0" id="circle195"/>
	<circle cx="786.965" cy="345.057" r="4" fill="#0" id="circle196"/>
	<circle cx="801.634" cy="126.854" r="4" fill="#0" id="circle197"/>
	<circle cx="805.301" cy="345.057" r="4" fill="#0" id="circle198"/>
	<circle cx="819.97" cy="126.854" r="4" fill="#0" id="circle199"/>
	<circle cx="823.638" cy="345.057" r="4" fill="#0" id="circle200"/>
	<circle cx="838.307" cy="132.355" r="4" fill="#0" id="circle201"/>
	<circle cx="841.974" cy="345.057" r="4" fill="#0" id="circle202"/>
	<circle cx="854.81" cy="141.523" r="4" fill="#0" id="circle203"/>
	<circle cx="860.311" cy="345.057" r="4" fill="#0" id="circle204"/>
	<circle cx="871.312" cy="150.691" r="4" fill="#0" id="circle205"/>
	<circle cx="878.647" cy="345.057" r="4" fill="#0" id="circle206"/>
	<circle cx="889.649" cy="150.691" r="4" fill="#0" id="circle207"/>
	<circle cx="895.15" cy="335.889" r="4" fill="#0" id="circle208"/>
	<circle cx="906.152" cy="159.86" r="4" fill="#0" id="circle209"/>
	<circle cx="913.486" cy="335.889" r="4" fill="#0" id="circle210"/>
	<circle cx="922.654" cy="169.028" r="4" fill="#0" id="circle211"/>
	<circle cx="931.823" cy="326.721" r="4" fill="#0" id="circle212"/>
	<circle cx="939.157" cy="178.196" r="4" fill="#0" id="circle213"/>
	<circle cx="950.159" cy="326.721" r="4" fill="#0" id="circle214"/>
	<circle cx="957.494" cy="181.863" r="4" fill="#0" id="circle215"/>
	<circle cx="964.828" cy="313.885" r="4" fill="#0" id="circle216"/>
	<circle cx="968.495" cy="196.532" r="4" fill="#0" id="circle217"/>
	<circle cx="973.996" cy="295.549" r="4" fill="#0" id="circle218"/>
	<circle cx="983.165" cy="277.213" r="4" fill="#0" id="circle219"/>
	<circle cx="986.832" cy="202.033" r="4" fill="#0" id="circle220"/>
	<circle cx="992.333" cy="258.876" r="4" fill="#0" id="circle221"/>
	<circle cx="996" cy="218.536" r="4" fill="#0" id="circle222"/>
	<circle cx="996" cy="236.872" r="4" fill="#0" id="circle223"/>
	</g>
</svg>