<?xml version="1.0" encoding="UTF-8" standalone="no"?>
<!-- Created with CurveBenchmark -->
<svg
	xmlns:dc="http://purl.org/dc/elements/1.1/"
	xmlns:cc="http://creativecommons.org/ns#"
	xmlns:rdf="http://www.w3.org/1999/02/22-rdf-syntax-ns#"
	xmlns:svg="http://www.w3.org/2000/svg"
	xmlns="http://www.w3.org/2000/svg"
	xmlns:sodipodi="http://sodipodi.sourceforge.net/DTD/sodipodi-0.dtd"
	xmlns:inkscape="http://www.inkscape.org/namespaces/inkscape"
	width="1000"
	height="1000"
	id="svg2"
	version="1.1"
	sodipodi:docname="manifold/hnncrust-truck-05.png.txt">
<defs
	id="defs4" />
<metadata
	id="metadata7">
	<rdf:RDF>
		<cc:Work
			rdf:about="">
			<dc:format>image/svg+xml</dc:format>
			<dc:type
				rdf:resource="http://purl.org/dc/dcmitype/StillImage" />
			<dc:title></dc:title>
		</cc:Work>
	</rdf:RDF>
</metadata>
<g
	inkscape:label="Layer 1"
	inkscape:groupmode="layer"
	id="layer1">
	<path style="fill:none;stroke:red;stroke-width:1px;stroke-linecap:butt;stroke-linejoin:miter;stroke-opacity:1" d="M 4,257.672 4,278.295 z" id="boundary" inkscape:connector-curvature="0" />
	<path style="fill:none;stroke:red;stroke-width:1px;stroke-linecap:butt;stroke-linejoin:miter;stroke-opacity:1" d="M 4,257.672 14.3119,237.048 z" id="boundary" inkscape:connector-curvature="0" />
	<path style="fill:none;stroke:red;stroke-width:1px;stroke-linecap:butt;stroke-linejoin:miter;stroke-opacity:1" d="M 4,278.295 4,298.919 z" id="boundary" inkscape:connector-curvature="0" />
	<path style="fill:none;stroke:red;stroke-width:1px;stroke-linecap:butt;stroke-linejoin:miter;stroke-opacity:1" d="M 4,298.919 4,319.543 z" id="boundary" inkscape:connector-curvature="0" />
	<path style="fill:none;stroke:red;stroke-width:1px;stroke-linecap:butt;stroke-linejoin:miter;stroke-opacity:1" d="M 4,319.543 20.499,333.979 z" id="boundary" inkscape:connector-curvature="0" />
	<path style="fill:none;stroke:red;stroke-width:1px;stroke-linecap:butt;stroke-linejoin:miter;stroke-opacity:1" d="M 14.3119,237.048 34.9356,226.736 z" id="boundary" inkscape:connector-curvature="0" />
	<path style="fill:none;stroke:red;stroke-width:1px;stroke-linecap:butt;stroke-linejoin:miter;stroke-opacity:1" d="M 20.499,333.979 36.9979,346.353 z" id="boundary" inkscape:connector-curvature="0" />
	<path style="fill:none;stroke:red;stroke-width:1px;stroke-linecap:butt;stroke-linejoin:miter;stroke-opacity:1" d="M 34.9356,226.736 55.5593,216.424 z" id="boundary" inkscape:connector-curvature="0" />
	<path style="fill:none;stroke:red;stroke-width:1px;stroke-linecap:butt;stroke-linejoin:miter;stroke-opacity:1" d="M 36.9979,346.353 57.6216,346.353 z" id="boundary" inkscape:connector-curvature="0" />
	<path style="fill:none;stroke:red;stroke-width:1px;stroke-linecap:butt;stroke-linejoin:miter;stroke-opacity:1" d="M 55.5593,216.424 76.183,206.112 z" id="boundary" inkscape:connector-curvature="0" />
	<path style="fill:none;stroke:red;stroke-width:1px;stroke-linecap:butt;stroke-linejoin:miter;stroke-opacity:1" d="M 55.5593,443.285 65.8711,461.846 z" id="boundary" inkscape:connector-curvature="0" />
	<path style="fill:none;stroke:red;stroke-width:1px;stroke-linecap:butt;stroke-linejoin:miter;stroke-opacity:1" d="M 55.5593,443.285 72.0582,426.786 z" id="boundary" inkscape:connector-curvature="0" />
	<path style="fill:none;stroke:red;stroke-width:1px;stroke-linecap:butt;stroke-linejoin:miter;stroke-opacity:1" d="M 57.6216,346.353 78.2453,336.042 z" id="boundary" inkscape:connector-curvature="0" />
	<path style="fill:none;stroke:red;stroke-width:1px;stroke-linecap:butt;stroke-linejoin:miter;stroke-opacity:1" d="M 65.8711,461.846 65.8711,482.47 z" id="boundary" inkscape:connector-curvature="0" />
	<path style="fill:none;stroke:red;stroke-width:1px;stroke-linecap:butt;stroke-linejoin:miter;stroke-opacity:1" d="M 65.8711,482.47 65.8711,503.094 z" id="boundary" inkscape:connector-curvature="0" />
	<path style="fill:none;stroke:red;stroke-width:1px;stroke-linecap:butt;stroke-linejoin:miter;stroke-opacity:1" d="M 65.8711,503.094 76.183,521.655 z" id="boundary" inkscape:connector-curvature="0" />
	<path style="fill:none;stroke:red;stroke-width:1px;stroke-linecap:butt;stroke-linejoin:miter;stroke-opacity:1" d="M 72.0582,426.786 90.6195,416.474 z" id="boundary" inkscape:connector-curvature="0" />
	<path style="fill:none;stroke:red;stroke-width:1px;stroke-linecap:butt;stroke-linejoin:miter;stroke-opacity:1" d="M 76.183,206.112 92.6819,189.613 z" id="boundary" inkscape:connector-curvature="0" />
	<path style="fill:none;stroke:red;stroke-width:1px;stroke-linecap:butt;stroke-linejoin:miter;stroke-opacity:1" d="M 76.183,521.655 82.3701,542.279 z" id="boundary" inkscape:connector-curvature="0" />
	<path style="fill:none;stroke:red;stroke-width:1px;stroke-linecap:butt;stroke-linejoin:miter;stroke-opacity:1" d="M 78.2453,336.042 98.869,336.042 z" id="boundary" inkscape:connector-curvature="0" />
	<path style="fill:none;stroke:red;stroke-width:1px;stroke-linecap:butt;stroke-linejoin:miter;stroke-opacity:1" d="M 82.3701,542.279 98.869,556.715 z" id="boundary" inkscape:connector-curvature="0" />
	<path style="fill:none;stroke:red;stroke-width:1px;stroke-linecap:butt;stroke-linejoin:miter;stroke-opacity:1" d="M 90.6195,416.474 109.181,406.162 z" id="boundary" inkscape:connector-curvature="0" />
	<path style="fill:none;stroke:red;stroke-width:1px;stroke-linecap:butt;stroke-linejoin:miter;stroke-opacity:1" d="M 92.6819,189.613 111.243,179.301 z" id="boundary" inkscape:connector-curvature="0" />
	<path style="fill:none;stroke:red;stroke-width:1px;stroke-linecap:butt;stroke-linejoin:miter;stroke-opacity:1" d="M 98.869,336.042 119.493,336.042 z" id="boundary" inkscape:connector-curvature="0" />
	<path style="fill:none;stroke:red;stroke-width:1px;stroke-linecap:butt;stroke-linejoin:miter;stroke-opacity:1" d="M 98.869,556.715 119.493,562.902 z" id="boundary" inkscape:connector-curvature="0" />
	<path style="fill:none;stroke:red;stroke-width:1px;stroke-linecap:butt;stroke-linejoin:miter;stroke-opacity:1" d="M 109.181,406.162 129.805,406.162 z" id="boundary" inkscape:connector-curvature="0" />
	<path style="fill:none;stroke:red;stroke-width:1px;stroke-linecap:butt;stroke-linejoin:miter;stroke-opacity:1" d="M 111.243,179.301 129.805,168.99 z" id="boundary" inkscape:connector-curvature="0" />
	<path style="fill:none;stroke:red;stroke-width:1px;stroke-linecap:butt;stroke-linejoin:miter;stroke-opacity:1" d="M 119.493,336.042 140.116,336.042 z" id="boundary" inkscape:connector-curvature="0" />
	<path style="fill:none;stroke:red;stroke-width:1px;stroke-linecap:butt;stroke-linejoin:miter;stroke-opacity:1" d="M 119.493,562.902 140.116,562.902 z" id="boundary" inkscape:connector-curvature="0" />
	<path style="fill:none;stroke:red;stroke-width:1px;stroke-linecap:butt;stroke-linejoin:miter;stroke-opacity:1" d="M 129.805,168.99 150.428,162.802 z" id="boundary" inkscape:connector-curvature="0" />
	<path style="fill:none;stroke:red;stroke-width:1px;stroke-linecap:butt;stroke-linejoin:miter;stroke-opacity:1" d="M 129.805,406.162 150.428,399.975 z" id="boundary" inkscape:connector-curvature="0" />
	<path style="fill:none;stroke:red;stroke-width:1px;stroke-linecap:butt;stroke-linejoin:miter;stroke-opacity:1" d="M 140.116,336.042 160.74,336.042 z" id="boundary" inkscape:connector-curvature="0" />
	<path style="fill:none;stroke:red;stroke-width:1px;stroke-linecap:butt;stroke-linejoin:miter;stroke-opacity:1" d="M 140.116,562.902 160.74,562.902 z" id="boundary" inkscape:connector-curvature="0" />
	<path style="fill:none;stroke:red;stroke-width:1px;stroke-linecap:butt;stroke-linejoin:miter;stroke-opacity:1" d="M 150.428,162.802 171.052,158.678 z" id="boundary" inkscape:connector-curvature="0" />
	<path style="fill:none;stroke:red;stroke-width:1px;stroke-linecap:butt;stroke-linejoin:miter;stroke-opacity:1" d="M 150.428,399.975 171.052,395.85 z" id="boundary" inkscape:connector-curvature="0" />
	<path style="fill:none;stroke:red;stroke-width:1px;stroke-linecap:butt;stroke-linejoin:miter;stroke-opacity:1" d="M 160.74,336.042 179.301,346.353 z" id="boundary" inkscape:connector-curvature="0" />
	<path style="fill:none;stroke:red;stroke-width:1px;stroke-linecap:butt;stroke-linejoin:miter;stroke-opacity:1" d="M 160.74,562.902 181.364,562.902 z" id="boundary" inkscape:connector-curvature="0" />
	<path style="fill:none;stroke:red;stroke-width:1px;stroke-linecap:butt;stroke-linejoin:miter;stroke-opacity:1" d="M 171.052,158.678 191.676,158.678 z" id="boundary" inkscape:connector-curvature="0" />
	<path style="fill:none;stroke:red;stroke-width:1px;stroke-linecap:butt;stroke-linejoin:miter;stroke-opacity:1" d="M 171.052,395.85 179.301,366.977 z" id="boundary" inkscape:connector-curvature="0" />
	<path style="fill:none;stroke:red;stroke-width:1px;stroke-linecap:butt;stroke-linejoin:miter;stroke-opacity:1" d="M 179.301,346.353 179.301,366.977 z" id="boundary" inkscape:connector-curvature="0" />
	<path style="fill:none;stroke:red;stroke-width:1px;stroke-linecap:butt;stroke-linejoin:miter;stroke-opacity:1" d="M 181.364,562.902 201.988,562.902 z" id="boundary" inkscape:connector-curvature="0" />
	<path style="fill:none;stroke:red;stroke-width:1px;stroke-linecap:butt;stroke-linejoin:miter;stroke-opacity:1" d="M 191.676,158.678 210.237,148.366 z" id="boundary" inkscape:connector-curvature="0" />
	<path style="fill:none;stroke:red;stroke-width:1px;stroke-linecap:butt;stroke-linejoin:miter;stroke-opacity:1" d="M 201.988,562.902 222.611,562.902 z" id="boundary" inkscape:connector-curvature="0" />
	<path style="fill:none;stroke:red;stroke-width:1px;stroke-linecap:butt;stroke-linejoin:miter;stroke-opacity:1" d="M 210.237,148.366 230.861,148.366 z" id="boundary" inkscape:connector-curvature="0" />
	<path style="fill:none;stroke:red;stroke-width:1px;stroke-linecap:butt;stroke-linejoin:miter;stroke-opacity:1" d="M 222.611,562.902 243.235,552.59 z" id="boundary" inkscape:connector-curvature="0" />
	<path style="fill:none;stroke:red;stroke-width:1px;stroke-linecap:butt;stroke-linejoin:miter;stroke-opacity:1" d="M 230.861,148.366 251.484,148.366 z" id="boundary" inkscape:connector-curvature="0" />
	<path style="fill:none;stroke:red;stroke-width:1px;stroke-linecap:butt;stroke-linejoin:miter;stroke-opacity:1" d="M 243.235,552.59 263.859,552.59 z" id="boundary" inkscape:connector-curvature="0" />
	<path style="fill:none;stroke:red;stroke-width:1px;stroke-linecap:butt;stroke-linejoin:miter;stroke-opacity:1" d="M 251.484,148.366 270.046,138.054 z" id="boundary" inkscape:connector-curvature="0" />
	<path style="fill:none;stroke:red;stroke-width:1px;stroke-linecap:butt;stroke-linejoin:miter;stroke-opacity:1" d="M 263.859,552.59 282.42,542.279 z" id="boundary" inkscape:connector-curvature="0" />
	<path style="fill:none;stroke:red;stroke-width:1px;stroke-linecap:butt;stroke-linejoin:miter;stroke-opacity:1" d="M 270.046,138.054 290.669,138.054 z" id="boundary" inkscape:connector-curvature="0" />
	<path style="fill:none;stroke:red;stroke-width:1px;stroke-linecap:butt;stroke-linejoin:miter;stroke-opacity:1" d="M 282.42,542.279 300.981,531.967 z" id="boundary" inkscape:connector-curvature="0" />
	<path style="fill:none;stroke:red;stroke-width:1px;stroke-linecap:butt;stroke-linejoin:miter;stroke-opacity:1" d="M 290.669,138.054 311.293,138.054 z" id="boundary" inkscape:connector-curvature="0" />
	<path style="fill:none;stroke:red;stroke-width:1px;stroke-linecap:butt;stroke-linejoin:miter;stroke-opacity:1" d="M 300.981,531.967 321.605,531.967 z" id="boundary" inkscape:connector-curvature="0" />
	<path style="fill:none;stroke:red;stroke-width:1px;stroke-linecap:butt;stroke-linejoin:miter;stroke-opacity:1" d="M 311.293,138.054 331.917,138.054 z" id="boundary" inkscape:connector-curvature="0" />
	<path style="fill:none;stroke:red;stroke-width:1px;stroke-linecap:butt;stroke-linejoin:miter;stroke-opacity:1" d="M 321.605,531.967 342.229,531.967 z" id="boundary" inkscape:connector-curvature="0" />
	<path style="fill:none;stroke:red;stroke-width:1px;stroke-linecap:butt;stroke-linejoin:miter;stroke-opacity:1" d="M 331.917,138.054 352.541,138.054 z" id="boundary" inkscape:connector-curvature="0" />
	<path style="fill:none;stroke:red;stroke-width:1px;stroke-linecap:butt;stroke-linejoin:miter;stroke-opacity:1" d="M 342.229,531.967 362.852,531.967 z" id="boundary" inkscape:connector-curvature="0" />
	<path style="fill:none;stroke:red;stroke-width:1px;stroke-linecap:butt;stroke-linejoin:miter;stroke-opacity:1" d="M 352.541,138.054 373.164,138.054 z" id="boundary" inkscape:connector-curvature="0" />
	<path style="fill:none;stroke:red;stroke-width:1px;stroke-linecap:butt;stroke-linejoin:miter;stroke-opacity:1" d="M 362.852,531.967 383.476,531.967 z" id="boundary" inkscape:connector-curvature="0" />
	<path style="fill:none;stroke:red;stroke-width:1px;stroke-linecap:butt;stroke-linejoin:miter;stroke-opacity:1" d="M 373.164,138.054 393.788,138.054 z" id="boundary" inkscape:connector-curvature="0" />
	<path style="fill:none;stroke:red;stroke-width:1px;stroke-linecap:butt;stroke-linejoin:miter;stroke-opacity:1" d="M 383.476,531.967 404.1,531.967 z" id="boundary" inkscape:connector-curvature="0" />
	<path style="fill:none;stroke:red;stroke-width:1px;stroke-linecap:butt;stroke-linejoin:miter;stroke-opacity:1" d="M 393.788,138.054 414.412,138.054 z" id="boundary" inkscape:connector-curvature="0" />
	<path style="fill:none;stroke:red;stroke-width:1px;stroke-linecap:butt;stroke-linejoin:miter;stroke-opacity:1" d="M 404.1,531.967 424.723,531.967 z" id="boundary" inkscape:connector-curvature="0" />
	<path style="fill:none;stroke:red;stroke-width:1px;stroke-linecap:butt;stroke-linejoin:miter;stroke-opacity:1" d="M 414.412,138.054 435.035,138.054 z" id="boundary" inkscape:connector-curvature="0" />
	<path style="fill:none;stroke:red;stroke-width:1px;stroke-linecap:butt;stroke-linejoin:miter;stroke-opacity:1" d="M 424.723,531.967 445.347,531.967 z" id="boundary" inkscape:connector-curvature="0" />
	<path style="fill:none;stroke:red;stroke-width:1px;stroke-linecap:butt;stroke-linejoin:miter;stroke-opacity:1" d="M 435.035,138.054 449.472,121.555 z" id="boundary" inkscape:connector-curvature="0" />
	<path style="fill:none;stroke:red;stroke-width:1px;stroke-linecap:butt;stroke-linejoin:miter;stroke-opacity:1" d="M 445.347,531.967 465.971,531.967 z" id="boundary" inkscape:connector-curvature="0" />
	<path style="fill:none;stroke:red;stroke-width:1px;stroke-linecap:butt;stroke-linejoin:miter;stroke-opacity:1" d="M 449.472,121.555 457.721,92.6819 z" id="boundary" inkscape:connector-curvature="0" />
	<path style="fill:none;stroke:red;stroke-width:1px;stroke-linecap:butt;stroke-linejoin:miter;stroke-opacity:1" d="M 457.721,72.0582 457.721,92.6819 z" id="boundary" inkscape:connector-curvature="0" />
	<path style="fill:none;stroke:red;stroke-width:1px;stroke-linecap:butt;stroke-linejoin:miter;stroke-opacity:1" d="M 457.721,72.0582 474.22,55.5593 z" id="boundary" inkscape:connector-curvature="0" />
	<path style="fill:none;stroke:red;stroke-width:1px;stroke-linecap:butt;stroke-linejoin:miter;stroke-opacity:1" d="M 465.971,531.967 484.532,542.279 z" id="boundary" inkscape:connector-curvature="0" />
	<path style="fill:none;stroke:red;stroke-width:1px;stroke-linecap:butt;stroke-linejoin:miter;stroke-opacity:1" d="M 474.22,55.5593 492.782,45.2474 z" id="boundary" inkscape:connector-curvature="0" />
	<path style="fill:none;stroke:red;stroke-width:1px;stroke-linecap:butt;stroke-linejoin:miter;stroke-opacity:1" d="M 484.532,542.279 503.094,552.59 z" id="boundary" inkscape:connector-curvature="0" />
	<path style="fill:none;stroke:red;stroke-width:1px;stroke-linecap:butt;stroke-linejoin:miter;stroke-opacity:1" d="M 492.782,45.2474 511.343,34.9356 z" id="boundary" inkscape:connector-curvature="0" />
	<path style="fill:none;stroke:red;stroke-width:1px;stroke-linecap:butt;stroke-linejoin:miter;stroke-opacity:1" d="M 503.094,552.59 523.717,552.59 z" id="boundary" inkscape:connector-curvature="0" />
	<path style="fill:none;stroke:red;stroke-width:1px;stroke-linecap:butt;stroke-linejoin:miter;stroke-opacity:1" d="M 511.343,34.9356 529.904,24.6237 z" id="boundary" inkscape:connector-curvature="0" />
	<path style="fill:none;stroke:red;stroke-width:1px;stroke-linecap:butt;stroke-linejoin:miter;stroke-opacity:1" d="M 523.717,552.59 544.341,552.59 z" id="boundary" inkscape:connector-curvature="0" />
	<path style="fill:none;stroke:red;stroke-width:1px;stroke-linecap:butt;stroke-linejoin:miter;stroke-opacity:1" d="M 529.904,24.6237 550.528,24.6237 z" id="boundary" inkscape:connector-curvature="0" />
	<path style="fill:none;stroke:red;stroke-width:1px;stroke-linecap:butt;stroke-linejoin:miter;stroke-opacity:1" d="M 544.341,552.59 562.902,542.279 z" id="boundary" inkscape:connector-curvature="0" />
	<path style="fill:none;stroke:red;stroke-width:1px;stroke-linecap:butt;stroke-linejoin:miter;stroke-opacity:1" d="M 550.528,24.6237 569.089,14.3119 z" id="boundary" inkscape:connector-curvature="0" />
	<path style="fill:none;stroke:red;stroke-width:1px;stroke-linecap:butt;stroke-linejoin:miter;stroke-opacity:1" d="M 562.902,542.279 583.526,542.279 z" id="boundary" inkscape:connector-curvature="0" />
	<path style="fill:none;stroke:red;stroke-width:1px;stroke-linecap:butt;stroke-linejoin:miter;stroke-opacity:1" d="M 569.089,14.3119 589.713,14.3119 z" id="boundary" inkscape:connector-curvature="0" />
	<path style="fill:none;stroke:red;stroke-width:1px;stroke-linecap:butt;stroke-linejoin:miter;stroke-opacity:1" d="M 583.526,542.279 604.15,542.279 z" id="boundary" inkscape:connector-curvature="0" />
	<path style="fill:none;stroke:red;stroke-width:1px;stroke-linecap:butt;stroke-linejoin:miter;stroke-opacity:1" d="M 589.713,14.3119 610.337,14.3119 z" id="boundary" inkscape:connector-curvature="0" />
	<path style="fill:none;stroke:red;stroke-width:1px;stroke-linecap:butt;stroke-linejoin:miter;stroke-opacity:1" d="M 604.15,542.279 624.773,542.279 z" id="boundary" inkscape:connector-curvature="0" />
	<path style="fill:none;stroke:red;stroke-width:1px;stroke-linecap:butt;stroke-linejoin:miter;stroke-opacity:1" d="M 610.337,14.3119 630.96,14.3119 z" id="boundary" inkscape:connector-curvature="0" />
	<path style="fill:none;stroke:red;stroke-width:1px;stroke-linecap:butt;stroke-linejoin:miter;stroke-opacity:1" d="M 624.773,542.279 643.335,531.967 z" id="boundary" inkscape:connector-curvature="0" />
	<path style="fill:none;stroke:red;stroke-width:1px;stroke-linecap:butt;stroke-linejoin:miter;stroke-opacity:1" d="M 630.96,14.3119 649.522,4 z" id="boundary" inkscape:connector-curvature="0" />
	<path style="fill:none;stroke:red;stroke-width:1px;stroke-linecap:butt;stroke-linejoin:miter;stroke-opacity:1" d="M 643.335,531.967 663.958,531.967 z" id="boundary" inkscape:connector-curvature="0" />
	<path style="fill:none;stroke:red;stroke-width:1px;stroke-linecap:butt;stroke-linejoin:miter;stroke-opacity:1" d="M 649.522,4 670.146,4 z" id="boundary" inkscape:connector-curvature="0" />
	<path style="fill:none;stroke:red;stroke-width:1px;stroke-linecap:butt;stroke-linejoin:miter;stroke-opacity:1" d="M 663.958,531.967 684.582,531.967 z" id="boundary" inkscape:connector-curvature="0" />
	<path style="fill:none;stroke:red;stroke-width:1px;stroke-linecap:butt;stroke-linejoin:miter;stroke-opacity:1" d="M 670.146,4 690.769,4 z" id="boundary" inkscape:connector-curvature="0" />
	<path style="fill:none;stroke:red;stroke-width:1px;stroke-linecap:butt;stroke-linejoin:miter;stroke-opacity:1" d="M 684.582,531.967 705.206,531.967 z" id="boundary" inkscape:connector-curvature="0" />
	<path style="fill:none;stroke:red;stroke-width:1px;stroke-linecap:butt;stroke-linejoin:miter;stroke-opacity:1" d="M 690.769,4 711.393,4 z" id="boundary" inkscape:connector-curvature="0" />
	<path style="fill:none;stroke:red;stroke-width:1px;stroke-linecap:butt;stroke-linejoin:miter;stroke-opacity:1" d="M 705.206,531.967 725.83,531.967 z" id="boundary" inkscape:connector-curvature="0" />
	<path style="fill:none;stroke:red;stroke-width:1px;stroke-linecap:butt;stroke-linejoin:miter;stroke-opacity:1" d="M 711.393,4 732.017,4 z" id="boundary" inkscape:connector-curvature="0" />
	<path style="fill:none;stroke:red;stroke-width:1px;stroke-linecap:butt;stroke-linejoin:miter;stroke-opacity:1" d="M 725.83,531.967 746.453,531.967 z" id="boundary" inkscape:connector-curvature="0" />
	<path style="fill:none;stroke:red;stroke-width:1px;stroke-linecap:butt;stroke-linejoin:miter;stroke-opacity:1" d="M 732.017,4 748.516,16.3742 z" id="boundary" inkscape:connector-curvature="0" />
	<path style="fill:none;stroke:red;stroke-width:1px;stroke-linecap:butt;stroke-linejoin:miter;stroke-opacity:1" d="M 746.453,531.967 765.015,542.279 z" id="boundary" inkscape:connector-curvature="0" />
	<path style="fill:none;stroke:red;stroke-width:1px;stroke-linecap:butt;stroke-linejoin:miter;stroke-opacity:1" d="M 748.516,16.3742 758.827,34.9356 z" id="boundary" inkscape:connector-curvature="0" />
	<path style="fill:none;stroke:red;stroke-width:1px;stroke-linecap:butt;stroke-linejoin:miter;stroke-opacity:1" d="M 758.827,34.9356 758.827,55.5593 z" id="boundary" inkscape:connector-curvature="0" />
	<path style="fill:none;stroke:red;stroke-width:1px;stroke-linecap:butt;stroke-linejoin:miter;stroke-opacity:1" d="M 758.827,55.5593 758.827,76.183 z" id="boundary" inkscape:connector-curvature="0" />
	<path style="fill:none;stroke:red;stroke-width:1px;stroke-linecap:butt;stroke-linejoin:miter;stroke-opacity:1" d="M 758.827,76.183 769.139,94.7443 z" id="boundary" inkscape:connector-curvature="0" />
	<path style="fill:none;stroke:red;stroke-width:1px;stroke-linecap:butt;stroke-linejoin:miter;stroke-opacity:1" d="M 765.015,542.279 785.638,542.279 z" id="boundary" inkscape:connector-curvature="0" />
	<path style="fill:none;stroke:red;stroke-width:1px;stroke-linecap:butt;stroke-linejoin:miter;stroke-opacity:1" d="M 769.139,94.7443 769.139,115.368 z" id="boundary" inkscape:connector-curvature="0" />
	<path style="fill:none;stroke:red;stroke-width:1px;stroke-linecap:butt;stroke-linejoin:miter;stroke-opacity:1" d="M 769.139,115.368 769.139,135.992 z" id="boundary" inkscape:connector-curvature="0" />
	<path style="fill:none;stroke:red;stroke-width:1px;stroke-linecap:butt;stroke-linejoin:miter;stroke-opacity:1" d="M 769.139,135.992 785.638,148.366 z" id="boundary" inkscape:connector-curvature="0" />
	<path style="fill:none;stroke:red;stroke-width:1px;stroke-linecap:butt;stroke-linejoin:miter;stroke-opacity:1" d="M 785.638,148.366 804.2,158.678 z" id="boundary" inkscape:connector-curvature="0" />
	<path style="fill:none;stroke:red;stroke-width:1px;stroke-linecap:butt;stroke-linejoin:miter;stroke-opacity:1" d="M 785.638,542.279 806.262,542.279 z" id="boundary" inkscape:connector-curvature="0" />
	<path style="fill:none;stroke:red;stroke-width:1px;stroke-linecap:butt;stroke-linejoin:miter;stroke-opacity:1" d="M 804.2,158.678 818.636,175.177 z" id="boundary" inkscape:connector-curvature="0" />
	<path style="fill:none;stroke:red;stroke-width:1px;stroke-linecap:butt;stroke-linejoin:miter;stroke-opacity:1" d="M 806.262,542.279 826.886,542.279 z" id="boundary" inkscape:connector-curvature="0" />
	<path style="fill:none;stroke:red;stroke-width:1px;stroke-linecap:butt;stroke-linejoin:miter;stroke-opacity:1" d="M 818.636,175.177 820.699,195.8 z" id="boundary" inkscape:connector-curvature="0" />
	<path style="fill:none;stroke:red;stroke-width:1px;stroke-linecap:butt;stroke-linejoin:miter;stroke-opacity:1" d="M 820.699,195.8 828.948,216.424 z" id="boundary" inkscape:connector-curvature="0" />
	<path style="fill:none;stroke:red;stroke-width:1px;stroke-linecap:butt;stroke-linejoin:miter;stroke-opacity:1" d="M 826.886,542.279 847.509,542.279 z" id="boundary" inkscape:connector-curvature="0" />
	<path style="fill:none;stroke:red;stroke-width:1px;stroke-linecap:butt;stroke-linejoin:miter;stroke-opacity:1" d="M 828.948,216.424 849.572,224.674 z" id="boundary" inkscape:connector-curvature="0" />
	<path style="fill:none;stroke:red;stroke-width:1px;stroke-linecap:butt;stroke-linejoin:miter;stroke-opacity:1" d="M 847.509,542.279 868.133,538.154 z" id="boundary" inkscape:connector-curvature="0" />
	<path style="fill:none;stroke:red;stroke-width:1px;stroke-linecap:butt;stroke-linejoin:miter;stroke-opacity:1" d="M 849.572,224.674 870.195,230.861 z" id="boundary" inkscape:connector-curvature="0" />
	<path style="fill:none;stroke:red;stroke-width:1px;stroke-linecap:butt;stroke-linejoin:miter;stroke-opacity:1" d="M 868.133,538.154 888.757,527.842 z" id="boundary" inkscape:connector-curvature="0" />
	<path style="fill:none;stroke:red;stroke-width:1px;stroke-linecap:butt;stroke-linejoin:miter;stroke-opacity:1" d="M 870.195,230.861 890.819,230.861 z" id="boundary" inkscape:connector-curvature="0" />
	<path style="fill:none;stroke:red;stroke-width:1px;stroke-linecap:butt;stroke-linejoin:miter;stroke-opacity:1" d="M 888.757,527.842 909.38,517.53 z" id="boundary" inkscape:connector-curvature="0" />
	<path style="fill:none;stroke:red;stroke-width:1px;stroke-linecap:butt;stroke-linejoin:miter;stroke-opacity:1" d="M 890.819,230.861 909.38,241.173 z" id="boundary" inkscape:connector-curvature="0" />
	<path style="fill:none;stroke:red;stroke-width:1px;stroke-linecap:butt;stroke-linejoin:miter;stroke-opacity:1" d="M 909.38,241.173 923.817,257.672 z" id="boundary" inkscape:connector-curvature="0" />
	<path style="fill:none;stroke:red;stroke-width:1px;stroke-linecap:butt;stroke-linejoin:miter;stroke-opacity:1" d="M 909.38,517.53 923.817,501.031 z" id="boundary" inkscape:connector-curvature="0" />
	<path style="fill:none;stroke:red;stroke-width:1px;stroke-linecap:butt;stroke-linejoin:miter;stroke-opacity:1" d="M 923.817,257.672 934.129,276.233 z" id="boundary" inkscape:connector-curvature="0" />
	<path style="fill:none;stroke:red;stroke-width:1px;stroke-linecap:butt;stroke-linejoin:miter;stroke-opacity:1" d="M 923.817,501.031 934.129,480.407 z" id="boundary" inkscape:connector-curvature="0" />
	<path style="fill:none;stroke:red;stroke-width:1px;stroke-linecap:butt;stroke-linejoin:miter;stroke-opacity:1" d="M 934.129,276.233 940.316,296.857 z" id="boundary" inkscape:connector-curvature="0" />
	<path style="fill:none;stroke:red;stroke-width:1px;stroke-linecap:butt;stroke-linejoin:miter;stroke-opacity:1" d="M 934.129,439.16 934.129,459.784 z" id="boundary" inkscape:connector-curvature="0" />
	<path style="fill:none;stroke:red;stroke-width:1px;stroke-linecap:butt;stroke-linejoin:miter;stroke-opacity:1" d="M 934.129,439.16 954.753,428.848 z" id="boundary" inkscape:connector-curvature="0" />
	<path style="fill:none;stroke:red;stroke-width:1px;stroke-linecap:butt;stroke-linejoin:miter;stroke-opacity:1" d="M 934.129,459.784 934.129,480.407 z" id="boundary" inkscape:connector-curvature="0" />
	<path style="fill:none;stroke:red;stroke-width:1px;stroke-linecap:butt;stroke-linejoin:miter;stroke-opacity:1" d="M 940.316,296.857 954.753,313.356 z" id="boundary" inkscape:connector-curvature="0" />
	<path style="fill:none;stroke:red;stroke-width:1px;stroke-linecap:butt;stroke-linejoin:miter;stroke-opacity:1" d="M 954.753,313.356 971.252,325.73 z" id="boundary" inkscape:connector-curvature="0" />
	<path style="fill:none;stroke:red;stroke-width:1px;stroke-linecap:butt;stroke-linejoin:miter;stroke-opacity:1" d="M 954.753,428.848 975.376,418.536 z" id="boundary" inkscape:connector-curvature="0" />
	<path style="fill:none;stroke:red;stroke-width:1px;stroke-linecap:butt;stroke-linejoin:miter;stroke-opacity:1" d="M 971.252,325.73 985.688,342.229 z" id="boundary" inkscape:connector-curvature="0" />
	<path style="fill:none;stroke:red;stroke-width:1px;stroke-linecap:butt;stroke-linejoin:miter;stroke-opacity:1" d="M 975.376,418.536 991.875,404.1 z" id="boundary" inkscape:connector-curvature="0" />
	<path style="fill:none;stroke:red;stroke-width:1px;stroke-linecap:butt;stroke-linejoin:miter;stroke-opacity:1" d="M 985.688,342.229 996,360.79 z" id="boundary" inkscape:connector-curvature="0" />
	<path style="fill:none;stroke:red;stroke-width:1px;stroke-linecap:butt;stroke-linejoin:miter;stroke-opacity:1" d="M 991.875,404.1 996,381.414 z" id="boundary" inkscape:connector-curvature="0" />
	<path style="fill:none;stroke:red;stroke-width:1px;stroke-linecap:butt;stroke-linejoin:miter;stroke-opacity:1" d="M 996,360.79 996,381.414 z" id="boundary" inkscape:connector-curvature="0" />
	<circle cx="4" cy="257.672" r="4" fill="#0" id="circle0"/>
	<circle cx="4" cy="278.295" r="4" fill="#0" id="circle1"/>
	<circle cx="4" cy="298.919" r="4" fill="#0" id="circle2"/>
	<circle cx="4" cy="319.543" r="4" fill="#0" id="circle3"/>
	<circle cx="14.3119" cy="237.048" r="4" fill="#0" id="circle4"/>
	<circle cx="20.499" cy="333.979" r="4" fill="#0" id="circle5"/>
	<circle cx="34.9356" cy="226.736" r="4" fill="#0" id="circle6"/>
	<circle cx="36.9979" cy="346.353" r="4" fill="#0" id="circle7"/>
	<circle cx="55.5593" cy="216.424" r="4" fill="#0" id="circle8"/>
	<circle cx="55.5593" cy="443.285" r="4" fill="#0" id="circle9"/>
	<circle cx="57.6216" cy="346.353" r="4" fill="#0" id="circle10"/>
	<circle cx="65.8711" cy="461.846" r="4" fill="#0" id="circle11"/>
	<circle cx="65.8711" cy="482.47" r="4" fill="#0" id="circle12"/>
	<circle cx="65.8711" cy="503.094" r="4" fill="#0" id="circle13"/>
	<circle cx="72.0582" cy="426.786" r="4" fill="#0" id="circle14"/>
	<circle cx="76.183" cy="206.112" r="4" fill="#0" id="circle15"/>
	<circle cx="76.183" cy="521.655" r="4" fill="#0" id="circle16"/>
	<circle cx="78.2453" cy="336.042" r="4" fill="#0" id="circle17"/>
	<circle cx="82.3701" cy="542.279" r="4" fill="#0" id="circle18"/>
	<circle cx="90.6195" cy="416.474" r="4" fill="#0" id="circle19"/>
	<circle cx="92.6819" cy="189.613" r="4" fill="#0" id="circle20"/>
	<circle cx="98.869" cy="336.042" r="4" fill="#0" id="circle21"/>
	<circle cx="98.869" cy="556.715" r="4" fill="#0" id="circle22"/>
	<circle cx="109.181" cy="406.162" r="4" fill="#0" id="circle23"/>
	<circle cx="111.243" cy="179.301" r="4" fill="#0" id="circle24"/>
	<circle cx="119.493" cy="336.042" r="4" fill="#0" id="circle25"/>
	<circle cx="119.493" cy="562.902" r="4" fill="#0" id="circle26"/>
	<circle cx="129.805" cy="168.99" r="4" fill="#0" id="circle27"/>
	<circle cx="129.805" cy="406.162" r="4" fill="#0" id="circle28"/>
	<circle cx="140.116" cy="336.042" r="4" fill="#0" id="circle29"/>
	<circle cx="140.116" cy="562.902" r="4" fill="#0" id="circle30"/>
	<circle cx="150.428" cy="162.802" r="4" fill="#0" id="circle31"/>
	<circle cx="150.428" cy="399.975" r="4" fill="#0" id="circle32"/>
	<circle cx="160.74" cy="336.042" r="4" fill="#0" id="circle33"/>
	<circle cx="160.74" cy="562.902" r="4" fill="#0" id="circle34"/>
	<circle cx="171.052" cy="158.678" r="4" fill="#0" id="circle35"/>
	<circle cx="171.052" cy="395.85" r="4" fill="#0" id="circle36"/>
	<circle cx="179.301" cy="346.353" r="4" fill="#0" id="circle37"/>
	<circle cx="179.301" cy="366.977" r="4" fill="#0" id="circle38"/>
	<circle cx="181.364" cy="562.902" r="4" fill="#0" id="circle39"/>
	<circle cx="191.676" cy="158.678" r="4" fill="#0" id="circle40"/>
	<circle cx="201.988" cy="562.902" r="4" fill="#0" id="circle41"/>
	<circle cx="210.237" cy="148.366" r="4" fill="#0" id="circle42"/>
	<circle cx="222.611" cy="562.902" r="4" fill="#0" id="circle43"/>
	<circle cx="230.861" cy="148.366" r="4" fill="#0" id="circle44"/>
	<circle cx="243.235" cy="552.59" r="4" fill="#0" id="circle45"/>
	<circle cx="251.484" cy="148.366" r="4" fill="#0" id="circle46"/>
	<circle cx="263.859" cy="552.59" r="4" fill="#0" id="circle47"/>
	<circle cx="270.046" cy="138.054" r="4" fill="#0" id="circle48"/>
	<circle cx="282.42" cy="542.279" r="4" fill="#0" id="circle49"/>
	<circle cx="290.669" cy="138.054" r="4" fill="#0" id="circle50"/>
	<circle cx="300.981" cy="531.967" r="4" fill="#0" id="circle51"/>
	<circle cx="311.293" cy="138.054" r="4" fill="#0" id="circle52"/>
	<circle cx="321.605" cy="531.967" r="4" fill="#0" id="circle53"/>
	<circle cx="331.917" cy="138.054" r="4" fill="#0" id="circle54"/>
	<circle cx="342.229" cy="531.967" r="4" fill="#0" id="circle55"/>
	<circle cx="352.541" cy="138.054" r="4" fill="#0" id="circle56"/>
	<circle cx="362.852" cy="531.967" r="4" fill="#0" id="circle57"/>
	<circle cx="373.164" cy="138.054" r="4" fill="#0" id="circle58"/>
	<circle cx="383.476" cy="531.967" r="4" fill="#0" id="circle59"/>
	<circle cx="393.788" cy="138.054" r="4" fill="#0" id="circle60"/>
	<circle cx="404.1" cy="531.967" r="4" fill="#0" id="circle61"/>
	<circle cx="414.412" cy="138.054" r="4" fill="#0" id="circle62"/>
	<circle cx="424.723" cy="531.967" r="4" fill="#0" id="circle63"/>
	<circle cx="435.035" cy="138.054" r="4" fill="#0" id="circle64"/>
	<circle cx="445.347" cy="531.967" r="4" fill="#0" id="circle65"/>
	<circle cx="449.472" cy="121.555" r="4" fill="#0" id="circle66"/>
	<circle cx="457.721" cy="72.0582" r="4" fill="#0" id="circle67"/>
	<circle cx="457.721" cy="92.6819" r="4" fill="#0" id="circle68"/>
	<circle cx="465.971" cy="531.967" r="4" fill="#0" id="circle69"/>
	<circle cx="474.22" cy="55.5593" r="4" fill="#0" id="circle70"/>
	<circle cx="484.532" cy="542.279" r="4" fill="#0" id="circle71"/>
	<circle cx="492.782" cy="45.2474" r="4" fill="#0" id="circle72"/>
	<circle cx="503.094" cy="552.59" r="4" fill="#0" id="circle73"/>
	<circle cx="511.343" cy="34.9356" r="4" fill="#0" id="circle74"/>
	<circle cx="523.717" cy="552.59" r="4" fill="#0" id="circle75"/>
	<circle cx="529.904" cy="24.6237" r="4" fill="#0" id="circle76"/>
	<circle cx="544.341" cy="552.59" r="4" fill="#0" id="circle77"/>
	<circle cx="550.528" cy="24.6237" r="4" fill="#0" id="circle78"/>
	<circle cx="562.902" cy="542.279" r="4" fill="#0" id="circle79"/>
	<circle cx="569.089" cy="14.3119" r="4" fill="#0" id="circle80"/>
	<circle cx="583.526" cy="542.279" r="4" fill="#0" id="circle81"/>
	<circle cx="589.713" cy="14.3119" r="4" fill="#0" id="circle82"/>
	<circle cx="604.15" cy="542.279" r="4" fill="#0" id="circle83"/>
	<circle cx="610.337" cy="14.3119" r="4" fill="#0" id="circle84"/>
	<circle cx="624.773" cy="542.279" r="4" fill="#0" id="circle85"/>
	<circle cx="630.96" cy="14.3119" r="4" fill="#0" id="circle86"/>
	<circle cx="643.335" cy="531.967" r="4" fill="#0" id="circle87"/>
	<circle cx="649.522" cy="4" r="4" fill="#0" id="circle88"/>
	<circle cx="663.958" cy="531.967" r="4" fill="#0" id="circle89"/>
	<circle cx="670.146" cy="4" r="4" fill="#0" id="circle90"/>
	<circle cx="684.582" cy="531.967" r="4" fill="#0" id="circle91"/>
	<circle cx="690.769" cy="4" r="4" fill="#0" id="circle92"/>
	<circle cx="705.206" cy="531.967" r="4" fill="#0" id="circle93"/>
	<circle cx="711.393" cy="4" r="4" fill="#0" id="circle94"/>
	<circle cx="725.83" cy="531.967" r="4" fill="#0" id="circle95"/>
	<circle cx="732.017" cy="4" r="4" fill="#0" id="circle96"/>
	<circle cx="746.453" cy="531.967" r="4" fill="#0" id="circle97"/>
	<circle cx="748.516" cy="16.3742" r="4" fill="#0" id="circle98"/>
	<circle cx="758.827" cy="34.9356" r="4" fill="#0" id="circle99"/>
	<circle cx="758.827" cy="55.5593" r="4" fill="#0" id="circle100"/>
	<circle cx="758.827" cy="76.183" r="4" fill="#0" id="circle101"/>
	<circle cx="765.015" cy="542.279" r="4" fill="#0" id="circle102"/>
	<circle cx="769.139" cy="94.7443" r="4" fill="#0" id="circle103"/>
	<circle cx="769.139" cy="115.368" r="4" fill="#0" id="circle104"/>
	<circle cx="769.139" cy="135.992" r="4" fill="#0" id="circle105"/>
	<circle cx="785.638" cy="148.366" r="4" fill="#0" id="circle106"/>
	<circle cx="785.638" cy="542.279" r="4" fill="#0" id="circle107"/>
	<circle cx="804.2" cy="158.678" r="4" fill="#0" id="circle108"/>
	<circle cx="806.262" cy="542.279" r="4" fill="#0" id="circle109"/>
	<circle cx="818.636" cy="175.177" r="4" fill="#0" id="circle110"/>
	<circle cx="820.699" cy="195.8" r="4" fill="#0" id="circle111"/>
	<circle cx="826.886" cy="542.279" r="4" fill="#0" id="circle112"/>
	<circle cx="828.948" cy="216.424" r="4" fill="#0" id="circle113"/>
	<circle cx="847.509" cy="542.279" r="4" fill="#0" id="circle114"/>
	<circle cx="849.572" cy="224.674" r="4" fill="#0" id="circle115"/>
	<circle cx="868.133" cy="538.154" r="4" fill="#0" id="circle116"/>
	<circle cx="870.195" cy="230.861" r="4" fill="#0" id="circle117"/>
	<circle cx="888.757" cy="527.842" r="4" fill="#0" id="circle118"/>
	<circle cx="890.819" cy="230.861" r="4" fill="#0" id="circle119"/>
	<circle cx="909.38" cy="241.173" r="4" fill="#0" id="circle120"/>
	<circle cx="909.38" cy="517.53" r="4" fill="#0" id="circle121"/>
	<circle cx="923.817" cy="257.672" r="4" fill="#0" id="circle122"/>
	<circle cx="923.817" cy="501.031" r="4" fill="#0" id="circle123"/>
	<circle cx="934.129" cy="276.233" r="4" fill="#0" id="circle124"/>
	<circle cx="934.129" cy="439.16" r="4" fill="#0" id="circle125"/>
	<circle cx="934.129" cy="459.784" r="4" fill="#0" id="circle126"/>
	<circle cx="934.129" cy="480.407" r="4" fill="#0" id="circle127"/>
	<circle cx="940.316" cy="296.857" r="4" fill="#0" id="circle128"/>
	<circle cx="954.753" cy="313.356" r="4" fill="#0" id="circle129"/>
	<circle cx="954.753" cy="428.848" r="4" fill="#0" id="circle130"/>
	<circle cx="971.252" cy="325.73" r="4" fill="#0" id="circle131"/>
	<circle cx="975.376" cy="418.536" r="4" fill="#0" id="circle132"/>
	<circle cx="985.688" cy="342.229" r="4" fill="#0" id="circle133"/>
	<circle cx="991.875" cy="404.1" r="4" fill="#0" id="circle134"/>
	<circle cx="996" cy="360.79" r="4" fill="#0" id="circle135"/>
	<circle cx="996" cy="381.414" r="4" fill="#0" id="circle136"/>
	</g>
</svg>