<?xml version="1.0" encoding="UTF-8" standalone="no"?>
<!-- Created with CurveBenchmark -->
<svg
	xmlns:dc="http://purl.org/dc/elements/1.1/"
	xmlns:cc="http://creativecommons.org/ns#"
	xmlns:rdf="http://www.w3.org/1999/02/22-rdf-syntax-ns#"
	xmlns:svg="http://www.w3.org/2000/svg"
	xmlns="http://www.w3.org/2000/svg"
	xmlns:sodipodi="http://sodipodi.sourceforge.net/DTD/sodipodi-0.dtd"
	xmlns:inkscape="http://www.inkscape.org/namespaces/inkscape"
	width="1000"
	height="1000"
	id="svg2"
	version="1.1"
	sodipodi:docname="manifold/hnncrust-teddy010.png.txt">
<defs
	id="defs4" />
<metadata
	id="metadata7">
	<rdf:RDF>
		<cc:Work
			rdf:about="">
			<dc:format>image/svg+xml</dc:format>
			<dc:type
				rdf:resource="http://purl.org/dc/dcmitype/StillImage" />
			<dc:title></dc:title>
		</cc:Work>
	</rdf:RDF>
</metadata>
<g
	inkscape:label="Layer 1"
	inkscape:groupmode="layer"
	id="layer1">
	<path style="fill:none;stroke:red;stroke-width:1px;stroke-linecap:butt;stroke-linejoin:miter;stroke-opacity:1" d="M 4,840.558 4,868.821 z" id="boundary" inkscape:connector-curvature="0" />
	<path style="fill:none;stroke:red;stroke-width:1px;stroke-linecap:butt;stroke-linejoin:miter;stroke-opacity:1" d="M 4,840.558 15.3048,795.339 z" id="boundary" inkscape:connector-curvature="0" />
	<path style="fill:none;stroke:red;stroke-width:1px;stroke-linecap:butt;stroke-linejoin:miter;stroke-opacity:1" d="M 4,868.821 9.65242,897.083 z" id="boundary" inkscape:connector-curvature="0" />
	<path style="fill:none;stroke:red;stroke-width:1px;stroke-linecap:butt;stroke-linejoin:miter;stroke-opacity:1" d="M 9.65242,897.083 9.65242,925.345 z" id="boundary" inkscape:connector-curvature="0" />
	<path style="fill:none;stroke:red;stroke-width:1px;stroke-linecap:butt;stroke-linejoin:miter;stroke-opacity:1" d="M 9.65242,925.345 26.6097,947.954 z" id="boundary" inkscape:connector-curvature="0" />
	<path style="fill:none;stroke:red;stroke-width:1px;stroke-linecap:butt;stroke-linejoin:miter;stroke-opacity:1" d="M 15.3048,795.339 26.6097,767.077 z" id="boundary" inkscape:connector-curvature="0" />
	<path style="fill:none;stroke:red;stroke-width:1px;stroke-linecap:butt;stroke-linejoin:miter;stroke-opacity:1" d="M 26.6097,767.077 49.2194,744.467 z" id="boundary" inkscape:connector-curvature="0" />
	<path style="fill:none;stroke:red;stroke-width:1px;stroke-linecap:butt;stroke-linejoin:miter;stroke-opacity:1" d="M 26.6097,947.954 46.3932,970.564 z" id="boundary" inkscape:connector-curvature="0" />
	<path style="fill:none;stroke:red;stroke-width:1px;stroke-linecap:butt;stroke-linejoin:miter;stroke-opacity:1" d="M 37.9145,535.328 43.567,501.413 z" id="boundary" inkscape:connector-curvature="0" />
	<path style="fill:none;stroke:red;stroke-width:1px;stroke-linecap:butt;stroke-linejoin:miter;stroke-opacity:1" d="M 37.9145,535.328 49.2194,563.59 z" id="boundary" inkscape:connector-curvature="0" />
	<path style="fill:none;stroke:red;stroke-width:1px;stroke-linecap:butt;stroke-linejoin:miter;stroke-opacity:1" d="M 43.567,501.413 54.8718,467.499 z" id="boundary" inkscape:connector-curvature="0" />
	<path style="fill:none;stroke:red;stroke-width:1px;stroke-linecap:butt;stroke-linejoin:miter;stroke-opacity:1" d="M 46.3932,970.564 71.8291,984.695 z" id="boundary" inkscape:connector-curvature="0" />
	<path style="fill:none;stroke:red;stroke-width:1px;stroke-linecap:butt;stroke-linejoin:miter;stroke-opacity:1" d="M 49.2194,563.59 66.1766,586.199 z" id="boundary" inkscape:connector-curvature="0" />
	<path style="fill:none;stroke:red;stroke-width:1px;stroke-linecap:butt;stroke-linejoin:miter;stroke-opacity:1" d="M 49.2194,744.467 74.6553,730.336 z" id="boundary" inkscape:connector-curvature="0" />
	<path style="fill:none;stroke:red;stroke-width:1px;stroke-linecap:butt;stroke-linejoin:miter;stroke-opacity:1" d="M 54.8718,467.499 77.4815,450.541 z" id="boundary" inkscape:connector-curvature="0" />
	<path style="fill:none;stroke:red;stroke-width:1px;stroke-linecap:butt;stroke-linejoin:miter;stroke-opacity:1" d="M 66.1766,586.199 85.9601,608.809 z" id="boundary" inkscape:connector-curvature="0" />
	<path style="fill:none;stroke:red;stroke-width:1px;stroke-linecap:butt;stroke-linejoin:miter;stroke-opacity:1" d="M 71.8291,984.695 100.091,993.174 z" id="boundary" inkscape:connector-curvature="0" />
	<path style="fill:none;stroke:red;stroke-width:1px;stroke-linecap:butt;stroke-linejoin:miter;stroke-opacity:1" d="M 74.6553,730.336 102.917,727.51 z" id="boundary" inkscape:connector-curvature="0" />
	<path style="fill:none;stroke:red;stroke-width:1px;stroke-linecap:butt;stroke-linejoin:miter;stroke-opacity:1" d="M 77.4815,450.541 105.744,444.889 z" id="boundary" inkscape:connector-curvature="0" />
	<path style="fill:none;stroke:red;stroke-width:1px;stroke-linecap:butt;stroke-linejoin:miter;stroke-opacity:1" d="M 85.9601,608.809 111.396,622.94 z" id="boundary" inkscape:connector-curvature="0" />
	<path style="fill:none;stroke:red;stroke-width:1px;stroke-linecap:butt;stroke-linejoin:miter;stroke-opacity:1" d="M 100.091,993.174 128.353,996 z" id="boundary" inkscape:connector-curvature="0" />
	<path style="fill:none;stroke:red;stroke-width:1px;stroke-linecap:butt;stroke-linejoin:miter;stroke-opacity:1" d="M 102.917,727.51 131.179,727.51 z" id="boundary" inkscape:connector-curvature="0" />
	<path style="fill:none;stroke:red;stroke-width:1px;stroke-linecap:butt;stroke-linejoin:miter;stroke-opacity:1" d="M 105.744,444.889 134.006,433.584 z" id="boundary" inkscape:connector-curvature="0" />
	<path style="fill:none;stroke:red;stroke-width:1px;stroke-linecap:butt;stroke-linejoin:miter;stroke-opacity:1" d="M 111.396,622.94 136.832,637.071 z" id="boundary" inkscape:connector-curvature="0" />
	<path style="fill:none;stroke:red;stroke-width:1px;stroke-linecap:butt;stroke-linejoin:miter;stroke-opacity:1" d="M 128.353,996 156.615,996 z" id="boundary" inkscape:connector-curvature="0" />
	<path style="fill:none;stroke:red;stroke-width:1px;stroke-linecap:butt;stroke-linejoin:miter;stroke-opacity:1" d="M 131.179,727.51 159.442,727.51 z" id="boundary" inkscape:connector-curvature="0" />
	<path style="fill:none;stroke:red;stroke-width:1px;stroke-linecap:butt;stroke-linejoin:miter;stroke-opacity:1" d="M 134.006,433.584 162.268,433.584 z" id="boundary" inkscape:connector-curvature="0" />
	<path style="fill:none;stroke:red;stroke-width:1px;stroke-linecap:butt;stroke-linejoin:miter;stroke-opacity:1" d="M 136.832,637.071 165.094,645.55 z" id="boundary" inkscape:connector-curvature="0" />
	<path style="fill:none;stroke:red;stroke-width:1px;stroke-linecap:butt;stroke-linejoin:miter;stroke-opacity:1" d="M 156.615,996 184.877,996 z" id="boundary" inkscape:connector-curvature="0" />
	<path style="fill:none;stroke:red;stroke-width:1px;stroke-linecap:butt;stroke-linejoin:miter;stroke-opacity:1" d="M 159.442,727.51 187.704,733.162 z" id="boundary" inkscape:connector-curvature="0" />
	<path style="fill:none;stroke:red;stroke-width:1px;stroke-linecap:butt;stroke-linejoin:miter;stroke-opacity:1" d="M 162.268,433.584 190.53,427.932 z" id="boundary" inkscape:connector-curvature="0" />
	<path style="fill:none;stroke:red;stroke-width:1px;stroke-linecap:butt;stroke-linejoin:miter;stroke-opacity:1" d="M 165.094,645.55 193.356,651.202 z" id="boundary" inkscape:connector-curvature="0" />
	<path style="fill:none;stroke:red;stroke-width:1px;stroke-linecap:butt;stroke-linejoin:miter;stroke-opacity:1" d="M 184.877,996 213.14,990.348 z" id="boundary" inkscape:connector-curvature="0" />
	<path style="fill:none;stroke:red;stroke-width:1px;stroke-linecap:butt;stroke-linejoin:miter;stroke-opacity:1" d="M 187.704,733.162 215.966,727.51 z" id="boundary" inkscape:connector-curvature="0" />
	<path style="fill:none;stroke:red;stroke-width:1px;stroke-linecap:butt;stroke-linejoin:miter;stroke-opacity:1" d="M 190.53,427.932 218.792,422.279 z" id="boundary" inkscape:connector-curvature="0" />
	<path style="fill:none;stroke:red;stroke-width:1px;stroke-linecap:butt;stroke-linejoin:miter;stroke-opacity:1" d="M 193.356,651.202 221.618,662.507 z" id="boundary" inkscape:connector-curvature="0" />
	<path style="fill:none;stroke:red;stroke-width:1px;stroke-linecap:butt;stroke-linejoin:miter;stroke-opacity:1" d="M 213.14,990.348 241.402,979.043 z" id="boundary" inkscape:connector-curvature="0" />
	<path style="fill:none;stroke:red;stroke-width:1px;stroke-linecap:butt;stroke-linejoin:miter;stroke-opacity:1" d="M 215.966,727.51 244.228,721.858 z" id="boundary" inkscape:connector-curvature="0" />
	<path style="fill:none;stroke:red;stroke-width:1px;stroke-linecap:butt;stroke-linejoin:miter;stroke-opacity:1" d="M 218.792,422.279 241.402,399.67 z" id="boundary" inkscape:connector-curvature="0" />
	<path style="fill:none;stroke:red;stroke-width:1px;stroke-linecap:butt;stroke-linejoin:miter;stroke-opacity:1" d="M 221.618,662.507 249.88,656.855 z" id="boundary" inkscape:connector-curvature="0" />
	<path style="fill:none;stroke:red;stroke-width:1px;stroke-linecap:butt;stroke-linejoin:miter;stroke-opacity:1" d="M 241.402,399.67 269.664,388.365 z" id="boundary" inkscape:connector-curvature="0" />
	<path style="fill:none;stroke:red;stroke-width:1px;stroke-linecap:butt;stroke-linejoin:miter;stroke-opacity:1" d="M 241.402,979.043 269.664,973.39 z" id="boundary" inkscape:connector-curvature="0" />
	<path style="fill:none;stroke:red;stroke-width:1px;stroke-linecap:butt;stroke-linejoin:miter;stroke-opacity:1" d="M 244.228,721.858 272.49,713.379 z" id="boundary" inkscape:connector-curvature="0" />
	<path style="fill:none;stroke:red;stroke-width:1px;stroke-linecap:butt;stroke-linejoin:miter;stroke-opacity:1" d="M 249.88,656.855 278.142,668.16 z" id="boundary" inkscape:connector-curvature="0" />
	<path style="fill:none;stroke:red;stroke-width:1px;stroke-linecap:butt;stroke-linejoin:miter;stroke-opacity:1" d="M 269.664,388.365 297.926,382.712 z" id="boundary" inkscape:connector-curvature="0" />
	<path style="fill:none;stroke:red;stroke-width:1px;stroke-linecap:butt;stroke-linejoin:miter;stroke-opacity:1" d="M 269.664,973.39 297.926,967.738 z" id="boundary" inkscape:connector-curvature="0" />
	<path style="fill:none;stroke:red;stroke-width:1px;stroke-linecap:butt;stroke-linejoin:miter;stroke-opacity:1" d="M 272.49,713.379 278.142,668.16 z" id="boundary" inkscape:connector-curvature="0" />
	<path style="fill:none;stroke:red;stroke-width:1px;stroke-linecap:butt;stroke-linejoin:miter;stroke-opacity:1" d="M 292.274,54.8718 292.274,83.1339 z" id="boundary" inkscape:connector-curvature="0" />
	<path style="fill:none;stroke:red;stroke-width:1px;stroke-linecap:butt;stroke-linejoin:miter;stroke-opacity:1" d="M 292.274,54.8718 314.883,32.2621 z" id="boundary" inkscape:connector-curvature="0" />
	<path style="fill:none;stroke:red;stroke-width:1px;stroke-linecap:butt;stroke-linejoin:miter;stroke-opacity:1" d="M 292.274,83.1339 295.1,111.396 z" id="boundary" inkscape:connector-curvature="0" />
	<path style="fill:none;stroke:red;stroke-width:1px;stroke-linecap:butt;stroke-linejoin:miter;stroke-opacity:1" d="M 295.1,111.396 303.578,139.658 z" id="boundary" inkscape:connector-curvature="0" />
	<path style="fill:none;stroke:red;stroke-width:1px;stroke-linecap:butt;stroke-linejoin:miter;stroke-opacity:1" d="M 297.926,286.621 303.578,241.402 z" id="boundary" inkscape:connector-curvature="0" />
	<path style="fill:none;stroke:red;stroke-width:1px;stroke-linecap:butt;stroke-linejoin:miter;stroke-opacity:1" d="M 297.926,286.621 303.578,314.883 z" id="boundary" inkscape:connector-curvature="0" />
	<path style="fill:none;stroke:red;stroke-width:1px;stroke-linecap:butt;stroke-linejoin:miter;stroke-opacity:1" d="M 297.926,382.712 326.188,377.06 z" id="boundary" inkscape:connector-curvature="0" />
	<path style="fill:none;stroke:red;stroke-width:1px;stroke-linecap:butt;stroke-linejoin:miter;stroke-opacity:1" d="M 297.926,967.738 326.188,973.39 z" id="boundary" inkscape:connector-curvature="0" />
	<path style="fill:none;stroke:red;stroke-width:1px;stroke-linecap:butt;stroke-linejoin:miter;stroke-opacity:1" d="M 303.578,139.658 314.883,167.92 z" id="boundary" inkscape:connector-curvature="0" />
	<path style="fill:none;stroke:red;stroke-width:1px;stroke-linecap:butt;stroke-linejoin:miter;stroke-opacity:1" d="M 303.578,241.402 309.231,213.14 z" id="boundary" inkscape:connector-curvature="0" />
	<path style="fill:none;stroke:red;stroke-width:1px;stroke-linecap:butt;stroke-linejoin:miter;stroke-opacity:1" d="M 303.578,314.883 317.709,340.319 z" id="boundary" inkscape:connector-curvature="0" />
	<path style="fill:none;stroke:red;stroke-width:1px;stroke-linecap:butt;stroke-linejoin:miter;stroke-opacity:1" d="M 309.231,213.14 314.883,167.92 z" id="boundary" inkscape:connector-curvature="0" />
	<path style="fill:none;stroke:red;stroke-width:1px;stroke-linecap:butt;stroke-linejoin:miter;stroke-opacity:1" d="M 314.883,32.2621 337.493,15.3048 z" id="boundary" inkscape:connector-curvature="0" />
	<path style="fill:none;stroke:red;stroke-width:1px;stroke-linecap:butt;stroke-linejoin:miter;stroke-opacity:1" d="M 317.709,340.319 326.188,377.06 z" id="boundary" inkscape:connector-curvature="0" />
	<path style="fill:none;stroke:red;stroke-width:1px;stroke-linecap:butt;stroke-linejoin:miter;stroke-opacity:1" d="M 326.188,973.39 354.45,973.39 z" id="boundary" inkscape:connector-curvature="0" />
	<path style="fill:none;stroke:red;stroke-width:1px;stroke-linecap:butt;stroke-linejoin:miter;stroke-opacity:1" d="M 337.493,15.3048 365.755,9.65242 z" id="boundary" inkscape:connector-curvature="0" />
	<path style="fill:none;stroke:red;stroke-width:1px;stroke-linecap:butt;stroke-linejoin:miter;stroke-opacity:1" d="M 354.45,973.39 382.712,979.043 z" id="boundary" inkscape:connector-curvature="0" />
	<path style="fill:none;stroke:red;stroke-width:1px;stroke-linecap:butt;stroke-linejoin:miter;stroke-opacity:1" d="M 365.755,9.65242 394.017,4 z" id="boundary" inkscape:connector-curvature="0" />
	<path style="fill:none;stroke:red;stroke-width:1px;stroke-linecap:butt;stroke-linejoin:miter;stroke-opacity:1" d="M 382.712,979.043 410.974,984.695 z" id="boundary" inkscape:connector-curvature="0" />
	<path style="fill:none;stroke:red;stroke-width:1px;stroke-linecap:butt;stroke-linejoin:miter;stroke-opacity:1" d="M 394.017,4 422.279,9.65242 z" id="boundary" inkscape:connector-curvature="0" />
	<path style="fill:none;stroke:red;stroke-width:1px;stroke-linecap:butt;stroke-linejoin:miter;stroke-opacity:1" d="M 410.974,984.695 439.236,984.695 z" id="boundary" inkscape:connector-curvature="0" />
	<path style="fill:none;stroke:red;stroke-width:1px;stroke-linecap:butt;stroke-linejoin:miter;stroke-opacity:1" d="M 422.279,9.65242 447.715,23.7835 z" id="boundary" inkscape:connector-curvature="0" />
	<path style="fill:none;stroke:red;stroke-width:1px;stroke-linecap:butt;stroke-linejoin:miter;stroke-opacity:1" d="M 439.236,984.695 467.499,990.348 z" id="boundary" inkscape:connector-curvature="0" />
	<path style="fill:none;stroke:red;stroke-width:1px;stroke-linecap:butt;stroke-linejoin:miter;stroke-opacity:1" d="M 447.715,23.7835 473.151,37.9145 z" id="boundary" inkscape:connector-curvature="0" />
	<path style="fill:none;stroke:red;stroke-width:1px;stroke-linecap:butt;stroke-linejoin:miter;stroke-opacity:1" d="M 467.499,990.348 495.761,993.174 z" id="boundary" inkscape:connector-curvature="0" />
	<path style="fill:none;stroke:red;stroke-width:1px;stroke-linecap:butt;stroke-linejoin:miter;stroke-opacity:1" d="M 473.151,37.9145 501.413,43.567 z" id="boundary" inkscape:connector-curvature="0" />
	<path style="fill:none;stroke:red;stroke-width:1px;stroke-linecap:butt;stroke-linejoin:miter;stroke-opacity:1" d="M 495.761,993.174 524.023,996 z" id="boundary" inkscape:connector-curvature="0" />
	<path style="fill:none;stroke:red;stroke-width:1px;stroke-linecap:butt;stroke-linejoin:miter;stroke-opacity:1" d="M 501.413,43.567 529.675,43.567 z" id="boundary" inkscape:connector-curvature="0" />
	<path style="fill:none;stroke:red;stroke-width:1px;stroke-linecap:butt;stroke-linejoin:miter;stroke-opacity:1" d="M 524.023,996 552.285,996 z" id="boundary" inkscape:connector-curvature="0" />
	<path style="fill:none;stroke:red;stroke-width:1px;stroke-linecap:butt;stroke-linejoin:miter;stroke-opacity:1" d="M 529.675,43.567 557.937,43.567 z" id="boundary" inkscape:connector-curvature="0" />
	<path style="fill:none;stroke:red;stroke-width:1px;stroke-linecap:butt;stroke-linejoin:miter;stroke-opacity:1" d="M 552.285,996 580.547,996 z" id="boundary" inkscape:connector-curvature="0" />
	<path style="fill:none;stroke:red;stroke-width:1px;stroke-linecap:butt;stroke-linejoin:miter;stroke-opacity:1" d="M 557.937,43.567 586.199,43.567 z" id="boundary" inkscape:connector-curvature="0" />
	<path style="fill:none;stroke:red;stroke-width:1px;stroke-linecap:butt;stroke-linejoin:miter;stroke-opacity:1" d="M 580.547,996 608.809,996 z" id="boundary" inkscape:connector-curvature="0" />
	<path style="fill:none;stroke:red;stroke-width:1px;stroke-linecap:butt;stroke-linejoin:miter;stroke-opacity:1" d="M 586.199,43.567 614.462,32.2621 z" id="boundary" inkscape:connector-curvature="0" />
	<path style="fill:none;stroke:red;stroke-width:1px;stroke-linecap:butt;stroke-linejoin:miter;stroke-opacity:1" d="M 608.809,996 637.071,996 z" id="boundary" inkscape:connector-curvature="0" />
	<path style="fill:none;stroke:red;stroke-width:1px;stroke-linecap:butt;stroke-linejoin:miter;stroke-opacity:1" d="M 614.462,32.2621 642.724,20.9573 z" id="boundary" inkscape:connector-curvature="0" />
	<path style="fill:none;stroke:red;stroke-width:1px;stroke-linecap:butt;stroke-linejoin:miter;stroke-opacity:1" d="M 637.071,996 665.333,996 z" id="boundary" inkscape:connector-curvature="0" />
	<path style="fill:none;stroke:red;stroke-width:1px;stroke-linecap:butt;stroke-linejoin:miter;stroke-opacity:1" d="M 642.724,20.9573 670.986,9.65242 z" id="boundary" inkscape:connector-curvature="0" />
	<path style="fill:none;stroke:red;stroke-width:1px;stroke-linecap:butt;stroke-linejoin:miter;stroke-opacity:1" d="M 665.333,996 693.595,996 z" id="boundary" inkscape:connector-curvature="0" />
	<path style="fill:none;stroke:red;stroke-width:1px;stroke-linecap:butt;stroke-linejoin:miter;stroke-opacity:1" d="M 670.986,9.65242 699.248,4 z" id="boundary" inkscape:connector-curvature="0" />
	<path style="fill:none;stroke:red;stroke-width:1px;stroke-linecap:butt;stroke-linejoin:miter;stroke-opacity:1" d="M 693.595,996 721.858,996 z" id="boundary" inkscape:connector-curvature="0" />
	<path style="fill:none;stroke:red;stroke-width:1px;stroke-linecap:butt;stroke-linejoin:miter;stroke-opacity:1" d="M 699.248,4 727.51,9.65242 z" id="boundary" inkscape:connector-curvature="0" />
	<path style="fill:none;stroke:red;stroke-width:1px;stroke-linecap:butt;stroke-linejoin:miter;stroke-opacity:1" d="M 716.205,374.234 733.162,351.624 z" id="boundary" inkscape:connector-curvature="0" />
	<path style="fill:none;stroke:red;stroke-width:1px;stroke-linecap:butt;stroke-linejoin:miter;stroke-opacity:1" d="M 716.205,374.234 744.467,382.712 z" id="boundary" inkscape:connector-curvature="0" />
	<path style="fill:none;stroke:red;stroke-width:1px;stroke-linecap:butt;stroke-linejoin:miter;stroke-opacity:1" d="M 721.858,996 744.467,979.043 z" id="boundary" inkscape:connector-curvature="0" />
	<path style="fill:none;stroke:red;stroke-width:1px;stroke-linecap:butt;stroke-linejoin:miter;stroke-opacity:1" d="M 724.684,676.638 724.684,704.9 z" id="boundary" inkscape:connector-curvature="0" />
	<path style="fill:none;stroke:red;stroke-width:1px;stroke-linecap:butt;stroke-linejoin:miter;stroke-opacity:1" d="M 724.684,676.638 750.12,662.507 z" id="boundary" inkscape:connector-curvature="0" />
	<path style="fill:none;stroke:red;stroke-width:1px;stroke-linecap:butt;stroke-linejoin:miter;stroke-opacity:1" d="M 724.684,704.9 730.336,733.162 z" id="boundary" inkscape:connector-curvature="0" />
	<path style="fill:none;stroke:red;stroke-width:1px;stroke-linecap:butt;stroke-linejoin:miter;stroke-opacity:1" d="M 727.51,9.65242 755.772,20.9573 z" id="boundary" inkscape:connector-curvature="0" />
	<path style="fill:none;stroke:red;stroke-width:1px;stroke-linecap:butt;stroke-linejoin:miter;stroke-opacity:1" d="M 730.336,733.162 738.815,761.425 z" id="boundary" inkscape:connector-curvature="0" />
	<path style="fill:none;stroke:red;stroke-width:1px;stroke-linecap:butt;stroke-linejoin:miter;stroke-opacity:1" d="M 733.162,351.624 744.467,323.362 z" id="boundary" inkscape:connector-curvature="0" />
	<path style="fill:none;stroke:red;stroke-width:1px;stroke-linecap:butt;stroke-linejoin:miter;stroke-opacity:1" d="M 738.815,761.425 752.946,786.86 z" id="boundary" inkscape:connector-curvature="0" />
	<path style="fill:none;stroke:red;stroke-width:1px;stroke-linecap:butt;stroke-linejoin:miter;stroke-opacity:1" d="M 744.467,323.362 752.946,292.274 z" id="boundary" inkscape:connector-curvature="0" />
	<path style="fill:none;stroke:red;stroke-width:1px;stroke-linecap:butt;stroke-linejoin:miter;stroke-opacity:1" d="M 744.467,382.712 772.729,391.191 z" id="boundary" inkscape:connector-curvature="0" />
	<path style="fill:none;stroke:red;stroke-width:1px;stroke-linecap:butt;stroke-linejoin:miter;stroke-opacity:1" d="M 744.467,979.043 767.077,962.085 z" id="boundary" inkscape:connector-curvature="0" />
	<path style="fill:none;stroke:red;stroke-width:1px;stroke-linecap:butt;stroke-linejoin:miter;stroke-opacity:1" d="M 750.12,662.507 775.556,648.376 z" id="boundary" inkscape:connector-curvature="0" />
	<path style="fill:none;stroke:red;stroke-width:1px;stroke-linecap:butt;stroke-linejoin:miter;stroke-opacity:1" d="M 752.946,292.274 758.598,241.402 z" id="boundary" inkscape:connector-curvature="0" />
	<path style="fill:none;stroke:red;stroke-width:1px;stroke-linecap:butt;stroke-linejoin:miter;stroke-opacity:1" d="M 752.946,786.86 758.598,815.123 z" id="boundary" inkscape:connector-curvature="0" />
	<path style="fill:none;stroke:red;stroke-width:1px;stroke-linecap:butt;stroke-linejoin:miter;stroke-opacity:1" d="M 755.772,20.9573 778.382,37.9145 z" id="boundary" inkscape:connector-curvature="0" />
	<path style="fill:none;stroke:red;stroke-width:1px;stroke-linecap:butt;stroke-linejoin:miter;stroke-opacity:1" d="M 758.598,184.877 758.598,213.14 z" id="boundary" inkscape:connector-curvature="0" />
	<path style="fill:none;stroke:red;stroke-width:1px;stroke-linecap:butt;stroke-linejoin:miter;stroke-opacity:1" d="M 758.598,184.877 772.729,159.442 z" id="boundary" inkscape:connector-curvature="0" />
	<path style="fill:none;stroke:red;stroke-width:1px;stroke-linecap:butt;stroke-linejoin:miter;stroke-opacity:1" d="M 758.598,213.14 758.598,241.402 z" id="boundary" inkscape:connector-curvature="0" />
	<path style="fill:none;stroke:red;stroke-width:1px;stroke-linecap:butt;stroke-linejoin:miter;stroke-opacity:1" d="M 758.598,815.123 769.903,843.385 z" id="boundary" inkscape:connector-curvature="0" />
	<path style="fill:none;stroke:red;stroke-width:1px;stroke-linecap:butt;stroke-linejoin:miter;stroke-opacity:1" d="M 767.077,962.085 769.903,930.997 z" id="boundary" inkscape:connector-curvature="0" />
	<path style="fill:none;stroke:red;stroke-width:1px;stroke-linecap:butt;stroke-linejoin:miter;stroke-opacity:1" d="M 769.903,843.385 775.556,871.647 z" id="boundary" inkscape:connector-curvature="0" />
	<path style="fill:none;stroke:red;stroke-width:1px;stroke-linecap:butt;stroke-linejoin:miter;stroke-opacity:1" d="M 769.903,930.997 775.556,899.909 z" id="boundary" inkscape:connector-curvature="0" />
	<path style="fill:none;stroke:red;stroke-width:1px;stroke-linecap:butt;stroke-linejoin:miter;stroke-opacity:1" d="M 772.729,159.442 784.034,131.179 z" id="boundary" inkscape:connector-curvature="0" />
	<path style="fill:none;stroke:red;stroke-width:1px;stroke-linecap:butt;stroke-linejoin:miter;stroke-opacity:1" d="M 772.729,391.191 798.165,405.322 z" id="boundary" inkscape:connector-curvature="0" />
	<path style="fill:none;stroke:red;stroke-width:1px;stroke-linecap:butt;stroke-linejoin:miter;stroke-opacity:1" d="M 775.556,648.376 800.991,634.245 z" id="boundary" inkscape:connector-curvature="0" />
	<path style="fill:none;stroke:red;stroke-width:1px;stroke-linecap:butt;stroke-linejoin:miter;stroke-opacity:1" d="M 775.556,871.647 775.556,899.909 z" id="boundary" inkscape:connector-curvature="0" />
	<path style="fill:none;stroke:red;stroke-width:1px;stroke-linecap:butt;stroke-linejoin:miter;stroke-opacity:1" d="M 778.382,37.9145 792.513,63.3504 z" id="boundary" inkscape:connector-curvature="0" />
	<path style="fill:none;stroke:red;stroke-width:1px;stroke-linecap:butt;stroke-linejoin:miter;stroke-opacity:1" d="M 784.034,131.179 792.513,91.6125 z" id="boundary" inkscape:connector-curvature="0" />
	<path style="fill:none;stroke:red;stroke-width:1px;stroke-linecap:butt;stroke-linejoin:miter;stroke-opacity:1" d="M 792.513,63.3504 792.513,91.6125 z" id="boundary" inkscape:connector-curvature="0" />
	<path style="fill:none;stroke:red;stroke-width:1px;stroke-linecap:butt;stroke-linejoin:miter;stroke-opacity:1" d="M 798.165,405.322 817.949,427.932 z" id="boundary" inkscape:connector-curvature="0" />
	<path style="fill:none;stroke:red;stroke-width:1px;stroke-linecap:butt;stroke-linejoin:miter;stroke-opacity:1" d="M 800.991,634.245 820.775,608.809 z" id="boundary" inkscape:connector-curvature="0" />
	<path style="fill:none;stroke:red;stroke-width:1px;stroke-linecap:butt;stroke-linejoin:miter;stroke-opacity:1" d="M 817.949,427.932 840.558,447.715 z" id="boundary" inkscape:connector-curvature="0" />
	<path style="fill:none;stroke:red;stroke-width:1px;stroke-linecap:butt;stroke-linejoin:miter;stroke-opacity:1" d="M 820.775,608.809 843.385,586.199 z" id="boundary" inkscape:connector-curvature="0" />
	<path style="fill:none;stroke:red;stroke-width:1px;stroke-linecap:butt;stroke-linejoin:miter;stroke-opacity:1" d="M 840.558,447.715 854.689,473.151 z" id="boundary" inkscape:connector-curvature="0" />
	<path style="fill:none;stroke:red;stroke-width:1px;stroke-linecap:butt;stroke-linejoin:miter;stroke-opacity:1" d="M 843.385,586.199 857.516,560.764 z" id="boundary" inkscape:connector-curvature="0" />
	<path style="fill:none;stroke:red;stroke-width:1px;stroke-linecap:butt;stroke-linejoin:miter;stroke-opacity:1" d="M 854.689,473.151 860.342,518.37 z" id="boundary" inkscape:connector-curvature="0" />
	<path style="fill:none;stroke:red;stroke-width:1px;stroke-linecap:butt;stroke-linejoin:miter;stroke-opacity:1" d="M 857.516,560.764 860.342,518.37 z" id="boundary" inkscape:connector-curvature="0" />
	<circle cx="4" cy="840.558" r="4" fill="#0" id="circle0"/>
	<circle cx="4" cy="868.821" r="4" fill="#0" id="circle1"/>
	<circle cx="9.65242" cy="897.083" r="4" fill="#0" id="circle2"/>
	<circle cx="9.65242" cy="925.345" r="4" fill="#0" id="circle3"/>
	<circle cx="15.3048" cy="795.339" r="4" fill="#0" id="circle4"/>
	<circle cx="26.6097" cy="767.077" r="4" fill="#0" id="circle5"/>
	<circle cx="26.6097" cy="947.954" r="4" fill="#0" id="circle6"/>
	<circle cx="37.9145" cy="535.328" r="4" fill="#0" id="circle7"/>
	<circle cx="43.567" cy="501.413" r="4" fill="#0" id="circle8"/>
	<circle cx="46.3932" cy="970.564" r="4" fill="#0" id="circle9"/>
	<circle cx="49.2194" cy="563.59" r="4" fill="#0" id="circle10"/>
	<circle cx="49.2194" cy="744.467" r="4" fill="#0" id="circle11"/>
	<circle cx="54.8718" cy="467.499" r="4" fill="#0" id="circle12"/>
	<circle cx="66.1766" cy="586.199" r="4" fill="#0" id="circle13"/>
	<circle cx="71.8291" cy="984.695" r="4" fill="#0" id="circle14"/>
	<circle cx="74.6553" cy="730.336" r="4" fill="#0" id="circle15"/>
	<circle cx="77.4815" cy="450.541" r="4" fill="#0" id="circle16"/>
	<circle cx="85.9601" cy="608.809" r="4" fill="#0" id="circle17"/>
	<circle cx="100.091" cy="993.174" r="4" fill="#0" id="circle18"/>
	<circle cx="102.917" cy="727.51" r="4" fill="#0" id="circle19"/>
	<circle cx="105.744" cy="444.889" r="4" fill="#0" id="circle20"/>
	<circle cx="111.396" cy="622.94" r="4" fill="#0" id="circle21"/>
	<circle cx="128.353" cy="996" r="4" fill="#0" id="circle22"/>
	<circle cx="131.179" cy="727.51" r="4" fill="#0" id="circle23"/>
	<circle cx="134.006" cy="433.584" r="4" fill="#0" id="circle24"/>
	<circle cx="136.832" cy="637.071" r="4" fill="#0" id="circle25"/>
	<circle cx="156.615" cy="996" r="4" fill="#0" id="circle26"/>
	<circle cx="159.442" cy="727.51" r="4" fill="#0" id="circle27"/>
	<circle cx="162.268" cy="433.584" r="4" fill="#0" id="circle28"/>
	<circle cx="165.094" cy="645.55" r="4" fill="#0" id="circle29"/>
	<circle cx="184.877" cy="996" r="4" fill="#0" id="circle30"/>
	<circle cx="187.704" cy="733.162" r="4" fill="#0" id="circle31"/>
	<circle cx="190.53" cy="427.932" r="4" fill="#0" id="circle32"/>
	<circle cx="193.356" cy="651.202" r="4" fill="#0" id="circle33"/>
	<circle cx="213.14" cy="990.348" r="4" fill="#0" id="circle34"/>
	<circle cx="215.966" cy="727.51" r="4" fill="#0" id="circle35"/>
	<circle cx="218.792" cy="422.279" r="4" fill="#0" id="circle36"/>
	<circle cx="221.618" cy="662.507" r="4" fill="#0" id="circle37"/>
	<circle cx="241.402" cy="399.67" r="4" fill="#0" id="circle38"/>
	<circle cx="241.402" cy="979.043" r="4" fill="#0" id="circle39"/>
	<circle cx="244.228" cy="721.858" r="4" fill="#0" id="circle40"/>
	<circle cx="249.88" cy="656.855" r="4" fill="#0" id="circle41"/>
	<circle cx="269.664" cy="388.365" r="4" fill="#0" id="circle42"/>
	<circle cx="269.664" cy="973.39" r="4" fill="#0" id="circle43"/>
	<circle cx="272.49" cy="713.379" r="4" fill="#0" id="circle44"/>
	<circle cx="278.142" cy="668.16" r="4" fill="#0" id="circle45"/>
	<circle cx="292.274" cy="54.8718" r="4" fill="#0" id="circle46"/>
	<circle cx="292.274" cy="83.1339" r="4" fill="#0" id="circle47"/>
	<circle cx="295.1" cy="111.396" r="4" fill="#0" id="circle48"/>
	<circle cx="297.926" cy="286.621" r="4" fill="#0" id="circle49"/>
	<circle cx="297.926" cy="382.712" r="4" fill="#0" id="circle50"/>
	<circle cx="297.926" cy="967.738" r="4" fill="#0" id="circle51"/>
	<circle cx="303.578" cy="139.658" r="4" fill="#0" id="circle52"/>
	<circle cx="303.578" cy="241.402" r="4" fill="#0" id="circle53"/>
	<circle cx="303.578" cy="314.883" r="4" fill="#0" id="circle54"/>
	<circle cx="309.231" cy="213.14" r="4" fill="#0" id="circle55"/>
	<circle cx="314.883" cy="32.2621" r="4" fill="#0" id="circle56"/>
	<circle cx="314.883" cy="167.92" r="4" fill="#0" id="circle57"/>
	<circle cx="317.709" cy="340.319" r="4" fill="#0" id="circle58"/>
	<circle cx="326.188" cy="377.06" r="4" fill="#0" id="circle59"/>
	<circle cx="326.188" cy="973.39" r="4" fill="#0" id="circle60"/>
	<circle cx="337.493" cy="15.3048" r="4" fill="#0" id="circle61"/>
	<circle cx="354.45" cy="973.39" r="4" fill="#0" id="circle62"/>
	<circle cx="365.755" cy="9.65242" r="4" fill="#0" id="circle63"/>
	<circle cx="382.712" cy="979.043" r="4" fill="#0" id="circle64"/>
	<circle cx="394.017" cy="4" r="4" fill="#0" id="circle65"/>
	<circle cx="410.974" cy="984.695" r="4" fill="#0" id="circle66"/>
	<circle cx="422.279" cy="9.65242" r="4" fill="#0" id="circle67"/>
	<circle cx="439.236" cy="984.695" r="4" fill="#0" id="circle68"/>
	<circle cx="447.715" cy="23.7835" r="4" fill="#0" id="circle69"/>
	<circle cx="467.499" cy="990.348" r="4" fill="#0" id="circle70"/>
	<circle cx="473.151" cy="37.9145" r="4" fill="#0" id="circle71"/>
	<circle cx="495.761" cy="993.174" r="4" fill="#0" id="circle72"/>
	<circle cx="501.413" cy="43.567" r="4" fill="#0" id="circle73"/>
	<circle cx="524.023" cy="996" r="4" fill="#0" id="circle74"/>
	<circle cx="529.675" cy="43.567" r="4" fill="#0" id="circle75"/>
	<circle cx="552.285" cy="996" r="4" fill="#0" id="circle76"/>
	<circle cx="557.937" cy="43.567" r="4" fill="#0" id="circle77"/>
	<circle cx="580.547" cy="996" r="4" fill="#0" id="circle78"/>
	<circle cx="586.199" cy="43.567" r="4" fill="#0" id="circle79"/>
	<circle cx="608.809" cy="996" r="4" fill="#0" id="circle80"/>
	<circle cx="614.462" cy="32.2621" r="4" fill="#0" id="circle81"/>
	<circle cx="637.071" cy="996" r="4" fill="#0" id="circle82"/>
	<circle cx="642.724" cy="20.9573" r="4" fill="#0" id="circle83"/>
	<circle cx="665.333" cy="996" r="4" fill="#0" id="circle84"/>
	<circle cx="670.986" cy="9.65242" r="4" fill="#0" id="circle85"/>
	<circle cx="693.595" cy="996" r="4" fill="#0" id="circle86"/>
	<circle cx="699.248" cy="4" r="4" fill="#0" id="circle87"/>
	<circle cx="716.205" cy="374.234" r="4" fill="#0" id="circle88"/>
	<circle cx="721.858" cy="996" r="4" fill="#0" id="circle89"/>
	<circle cx="724.684" cy="676.638" r="4" fill="#0" id="circle90"/>
	<circle cx="724.684" cy="704.9" r="4" fill="#0" id="circle91"/>
	<circle cx="727.51" cy="9.65242" r="4" fill="#0" id="circle92"/>
	<circle cx="730.336" cy="733.162" r="4" fill="#0" id="circle93"/>
	<circle cx="733.162" cy="351.624" r="4" fill="#0" id="circle94"/>
	<circle cx="738.815" cy="761.425" r="4" fill="#0" id="circle95"/>
	<circle cx="744.467" cy="323.362" r="4" fill="#0" id="circle96"/>
	<circle cx="744.467" cy="382.712" r="4" fill="#0" id="circle97"/>
	<circle cx="744.467" cy="979.043" r="4" fill="#0" id="circle98"/>
	<circle cx="750.12" cy="662.507" r="4" fill="#0" id="circle99"/>
	<circle cx="752.946" cy="292.274" r="4" fill="#0" id="circle100"/>
	<circle cx="752.946" cy="786.86" r="4" fill="#0" id="circle101"/>
	<circle cx="755.772" cy="20.9573" r="4" fill="#0" id="circle102"/>
	<circle cx="758.598" cy="184.877" r="4" fill="#0" id="circle103"/>
	<circle cx="758.598" cy="213.14" r="4" fill="#0" id="circle104"/>
	<circle cx="758.598" cy="241.402" r="4" fill="#0" id="circle105"/>
	<circle cx="758.598" cy="815.123" r="4" fill="#0" id="circle106"/>
	<circle cx="767.077" cy="962.085" r="4" fill="#0" id="circle107"/>
	<circle cx="769.903" cy="843.385" r="4" fill="#0" id="circle108"/>
	<circle cx="769.903" cy="930.997" r="4" fill="#0" id="circle109"/>
	<circle cx="772.729" cy="159.442" r="4" fill="#0" id="circle110"/>
	<circle cx="772.729" cy="391.191" r="4" fill="#0" id="circle111"/>
	<circle cx="775.556" cy="648.376" r="4" fill="#0" id="circle112"/>
	<circle cx="775.556" cy="871.647" r="4" fill="#0" id="circle113"/>
	<circle cx="775.556" cy="899.909" r="4" fill="#0" id="circle114"/>
	<circle cx="778.382" cy="37.9145" r="4" fill="#0" id="circle115"/>
	<circle cx="784.034" cy="131.179" r="4" fill="#0" id="circle116"/>
	<circle cx="792.513" cy="63.3504" r="4" fill="#0" id="circle117"/>
	<circle cx="792.513" cy="91.6125" r="4" fill="#0" id="circle118"/>
	<circle cx="798.165" cy="405.322" r="4" fill="#0" id="circle119"/>
	<circle cx="800.991" cy="634.245" r="4" fill="#0" id="circle120"/>
	<circle cx="817.949" cy="427.932" r="4" fill="#0" id="circle121"/>
	<circle cx="820.775" cy="608.809" r="4" fill="#0" id="circle122"/>
	<circle cx="840.558" cy="447.715" r="4" fill="#0" id="circle123"/>
	<circle cx="843.385" cy="586.199" r="4" fill="#0" id="circle124"/>
	<circle cx="854.689" cy="473.151" r="4" fill="#0" id="circle125"/>
	<circle cx="857.516" cy="560.764" r="4" fill="#0" id="circle126"/>
	<circle cx="860.342" cy="518.37" r="4" fill="#0" id="circle127"/>
	</g>
</svg>