<?xml version="1.0" encoding="UTF-8" standalone="no"?>
<!-- Created with CurveBenchmark -->
<svg
	xmlns:dc="http://purl.org/dc/elements/1.1/"
	xmlns:cc="http://creativecommons.org/ns#"
	xmlns:rdf="http://www.w3.org/1999/02/22-rdf-syntax-ns#"
	xmlns:svg="http://www.w3.org/2000/svg"
	xmlns="http://www.w3.org/2000/svg"
	xmlns:sodipodi="http://sodipodi.sourceforge.net/DTD/sodipodi-0.dtd"
	xmlns:inkscape="http://www.inkscape.org/namespaces/inkscape"
	width="1000"
	height="1000"
	id="svg2"
	version="1.1"
	sodipodi:docname="manifold/hnncrust-tool25.png.txt">
<defs
	id="defs4" />
<metadata
	id="metadata7">
	<rdf:RDF>
		<cc:Work
			rdf:about="">
			<dc:format>image/svg+xml</dc:format>
			<dc:type
				rdf:resource="http://purl.org/dc/dcmitype/StillImage" />
			<dc:title></dc:title>
		</cc:Work>
	</rdf:RDF>
</metadata>
<g
	inkscape:label="Layer 1"
	inkscape:groupmode="layer"
	id="layer1">
	<path style="fill:none;stroke:red;stroke-width:1px;stroke-linecap:butt;stroke-linejoin:miter;stroke-opacity:1" d="M 4,253.521 4,283.951 z" id="boundary" inkscape:connector-curvature="0" />
	<path style="fill:none;stroke:red;stroke-width:1px;stroke-linecap:butt;stroke-linejoin:miter;stroke-opacity:1" d="M 4,253.521 28.3436,229.178 z" id="boundary" inkscape:connector-curvature="0" />
	<path style="fill:none;stroke:red;stroke-width:1px;stroke-linecap:butt;stroke-linejoin:miter;stroke-opacity:1" d="M 4,283.951 34.4294,293.08 z" id="boundary" inkscape:connector-curvature="0" />
	<path style="fill:none;stroke:red;stroke-width:1px;stroke-linecap:butt;stroke-linejoin:miter;stroke-opacity:1" d="M 19.2147,420.883 37.4724,445.227 z" id="boundary" inkscape:connector-curvature="0" />
	<path style="fill:none;stroke:red;stroke-width:1px;stroke-linecap:butt;stroke-linejoin:miter;stroke-opacity:1" d="M 19.2147,420.883 43.5583,396.54 z" id="boundary" inkscape:connector-curvature="0" />
	<path style="fill:none;stroke:red;stroke-width:1px;stroke-linecap:butt;stroke-linejoin:miter;stroke-opacity:1" d="M 28.3436,229.178 58.773,213.963 z" id="boundary" inkscape:connector-curvature="0" />
	<path style="fill:none;stroke:red;stroke-width:1px;stroke-linecap:butt;stroke-linejoin:miter;stroke-opacity:1" d="M 34.4294,293.08 64.8589,293.08 z" id="boundary" inkscape:connector-curvature="0" />
	<path style="fill:none;stroke:red;stroke-width:1px;stroke-linecap:butt;stroke-linejoin:miter;stroke-opacity:1" d="M 37.4724,445.227 64.8589,460.442 z" id="boundary" inkscape:connector-curvature="0" />
	<path style="fill:none;stroke:red;stroke-width:1px;stroke-linecap:butt;stroke-linejoin:miter;stroke-opacity:1" d="M 43.5583,396.54 70.9448,381.325 z" id="boundary" inkscape:connector-curvature="0" />
	<path style="fill:none;stroke:red;stroke-width:1px;stroke-linecap:butt;stroke-linejoin:miter;stroke-opacity:1" d="M 58.773,213.963 89.2025,213.963 z" id="boundary" inkscape:connector-curvature="0" />
	<path style="fill:none;stroke:red;stroke-width:1px;stroke-linecap:butt;stroke-linejoin:miter;stroke-opacity:1" d="M 64.8589,293.08 95.2883,293.08 z" id="boundary" inkscape:connector-curvature="0" />
	<path style="fill:none;stroke:red;stroke-width:1px;stroke-linecap:butt;stroke-linejoin:miter;stroke-opacity:1" d="M 64.8589,460.442 95.2883,460.442 z" id="boundary" inkscape:connector-curvature="0" />
	<path style="fill:none;stroke:red;stroke-width:1px;stroke-linecap:butt;stroke-linejoin:miter;stroke-opacity:1" d="M 70.9448,381.325 101.374,381.325 z" id="boundary" inkscape:connector-curvature="0" />
	<path style="fill:none;stroke:red;stroke-width:1px;stroke-linecap:butt;stroke-linejoin:miter;stroke-opacity:1" d="M 89.2025,213.963 119.632,213.963 z" id="boundary" inkscape:connector-curvature="0" />
	<path style="fill:none;stroke:red;stroke-width:1px;stroke-linecap:butt;stroke-linejoin:miter;stroke-opacity:1" d="M 95.2883,293.08 122.675,308.294 z" id="boundary" inkscape:connector-curvature="0" />
	<path style="fill:none;stroke:red;stroke-width:1px;stroke-linecap:butt;stroke-linejoin:miter;stroke-opacity:1" d="M 95.2883,460.442 125.718,460.442 z" id="boundary" inkscape:connector-curvature="0" />
	<path style="fill:none;stroke:red;stroke-width:1px;stroke-linecap:butt;stroke-linejoin:miter;stroke-opacity:1" d="M 101.374,381.325 116.589,353.939 z" id="boundary" inkscape:connector-curvature="0" />
	<path style="fill:none;stroke:red;stroke-width:1px;stroke-linecap:butt;stroke-linejoin:miter;stroke-opacity:1" d="M 116.589,353.939 122.675,308.294 z" id="boundary" inkscape:connector-curvature="0" />
	<path style="fill:none;stroke:red;stroke-width:1px;stroke-linecap:butt;stroke-linejoin:miter;stroke-opacity:1" d="M 119.632,213.963 150.061,213.963 z" id="boundary" inkscape:connector-curvature="0" />
	<path style="fill:none;stroke:red;stroke-width:1px;stroke-linecap:butt;stroke-linejoin:miter;stroke-opacity:1" d="M 125.718,460.442 156.147,460.442 z" id="boundary" inkscape:connector-curvature="0" />
	<path style="fill:none;stroke:red;stroke-width:1px;stroke-linecap:butt;stroke-linejoin:miter;stroke-opacity:1" d="M 150.061,213.963 177.448,229.178 z" id="boundary" inkscape:connector-curvature="0" />
	<path style="fill:none;stroke:red;stroke-width:1px;stroke-linecap:butt;stroke-linejoin:miter;stroke-opacity:1" d="M 156.147,460.442 180.491,442.184 z" id="boundary" inkscape:connector-curvature="0" />
	<path style="fill:none;stroke:red;stroke-width:1px;stroke-linecap:butt;stroke-linejoin:miter;stroke-opacity:1" d="M 177.448,229.178 204.834,244.393 z" id="boundary" inkscape:connector-curvature="0" />
	<path style="fill:none;stroke:red;stroke-width:1px;stroke-linecap:butt;stroke-linejoin:miter;stroke-opacity:1" d="M 180.491,442.184 204.834,414.798 z" id="boundary" inkscape:connector-curvature="0" />
	<path style="fill:none;stroke:red;stroke-width:1px;stroke-linecap:butt;stroke-linejoin:miter;stroke-opacity:1" d="M 204.834,244.393 235.264,244.393 z" id="boundary" inkscape:connector-curvature="0" />
	<path style="fill:none;stroke:red;stroke-width:1px;stroke-linecap:butt;stroke-linejoin:miter;stroke-opacity:1" d="M 204.834,414.798 220.049,384.368 z" id="boundary" inkscape:connector-curvature="0" />
	<path style="fill:none;stroke:red;stroke-width:1px;stroke-linecap:butt;stroke-linejoin:miter;stroke-opacity:1" d="M 220.049,384.368 244.393,363.067 z" id="boundary" inkscape:connector-curvature="0" />
	<path style="fill:none;stroke:red;stroke-width:1px;stroke-linecap:butt;stroke-linejoin:miter;stroke-opacity:1" d="M 235.264,244.393 265.693,244.393 z" id="boundary" inkscape:connector-curvature="0" />
	<path style="fill:none;stroke:red;stroke-width:1px;stroke-linecap:butt;stroke-linejoin:miter;stroke-opacity:1" d="M 244.393,363.067 265.693,338.724 z" id="boundary" inkscape:connector-curvature="0" />
	<path style="fill:none;stroke:red;stroke-width:1px;stroke-linecap:butt;stroke-linejoin:miter;stroke-opacity:1" d="M 265.693,244.393 293.08,229.178 z" id="boundary" inkscape:connector-curvature="0" />
	<path style="fill:none;stroke:red;stroke-width:1px;stroke-linecap:butt;stroke-linejoin:miter;stroke-opacity:1" d="M 265.693,338.724 293.08,323.509 z" id="boundary" inkscape:connector-curvature="0" />
	<path style="fill:none;stroke:red;stroke-width:1px;stroke-linecap:butt;stroke-linejoin:miter;stroke-opacity:1" d="M 293.08,229.178 323.509,223.092 z" id="boundary" inkscape:connector-curvature="0" />
	<path style="fill:none;stroke:red;stroke-width:1px;stroke-linecap:butt;stroke-linejoin:miter;stroke-opacity:1" d="M 293.08,323.509 323.509,323.509 z" id="boundary" inkscape:connector-curvature="0" />
	<path style="fill:none;stroke:red;stroke-width:1px;stroke-linecap:butt;stroke-linejoin:miter;stroke-opacity:1" d="M 323.509,223.092 353.939,213.963 z" id="boundary" inkscape:connector-curvature="0" />
	<path style="fill:none;stroke:red;stroke-width:1px;stroke-linecap:butt;stroke-linejoin:miter;stroke-opacity:1" d="M 323.509,323.509 350.896,308.294 z" id="boundary" inkscape:connector-curvature="0" />
	<path style="fill:none;stroke:red;stroke-width:1px;stroke-linecap:butt;stroke-linejoin:miter;stroke-opacity:1" d="M 350.896,308.294 381.325,308.294 z" id="boundary" inkscape:connector-curvature="0" />
	<path style="fill:none;stroke:red;stroke-width:1px;stroke-linecap:butt;stroke-linejoin:miter;stroke-opacity:1" d="M 353.939,213.963 384.368,207.877 z" id="boundary" inkscape:connector-curvature="0" />
	<path style="fill:none;stroke:red;stroke-width:1px;stroke-linecap:butt;stroke-linejoin:miter;stroke-opacity:1" d="M 381.325,308.294 408.712,293.08 z" id="boundary" inkscape:connector-curvature="0" />
	<path style="fill:none;stroke:red;stroke-width:1px;stroke-linecap:butt;stroke-linejoin:miter;stroke-opacity:1" d="M 384.368,207.877 414.798,198.748 z" id="boundary" inkscape:connector-curvature="0" />
	<path style="fill:none;stroke:red;stroke-width:1px;stroke-linecap:butt;stroke-linejoin:miter;stroke-opacity:1" d="M 408.712,293.08 439.141,290.037 z" id="boundary" inkscape:connector-curvature="0" />
	<path style="fill:none;stroke:red;stroke-width:1px;stroke-linecap:butt;stroke-linejoin:miter;stroke-opacity:1" d="M 414.798,198.748 445.227,192.663 z" id="boundary" inkscape:connector-curvature="0" />
	<path style="fill:none;stroke:red;stroke-width:1px;stroke-linecap:butt;stroke-linejoin:miter;stroke-opacity:1" d="M 439.141,290.037 469.571,277.865 z" id="boundary" inkscape:connector-curvature="0" />
	<path style="fill:none;stroke:red;stroke-width:1px;stroke-linecap:butt;stroke-linejoin:miter;stroke-opacity:1" d="M 445.227,192.663 475.656,183.534 z" id="boundary" inkscape:connector-curvature="0" />
	<path style="fill:none;stroke:red;stroke-width:1px;stroke-linecap:butt;stroke-linejoin:miter;stroke-opacity:1" d="M 469.571,277.865 496.957,262.65 z" id="boundary" inkscape:connector-curvature="0" />
	<path style="fill:none;stroke:red;stroke-width:1px;stroke-linecap:butt;stroke-linejoin:miter;stroke-opacity:1" d="M 475.656,183.534 503.043,168.319 z" id="boundary" inkscape:connector-curvature="0" />
	<path style="fill:none;stroke:red;stroke-width:1px;stroke-linecap:butt;stroke-linejoin:miter;stroke-opacity:1" d="M 496.957,262.65 527.387,262.65 z" id="boundary" inkscape:connector-curvature="0" />
	<path style="fill:none;stroke:red;stroke-width:1px;stroke-linecap:butt;stroke-linejoin:miter;stroke-opacity:1" d="M 503.043,168.319 533.472,168.319 z" id="boundary" inkscape:connector-curvature="0" />
	<path style="fill:none;stroke:red;stroke-width:1px;stroke-linecap:butt;stroke-linejoin:miter;stroke-opacity:1" d="M 527.387,262.65 554.773,247.436 z" id="boundary" inkscape:connector-curvature="0" />
	<path style="fill:none;stroke:red;stroke-width:1px;stroke-linecap:butt;stroke-linejoin:miter;stroke-opacity:1" d="M 533.472,168.319 560.859,153.104 z" id="boundary" inkscape:connector-curvature="0" />
	<path style="fill:none;stroke:red;stroke-width:1px;stroke-linecap:butt;stroke-linejoin:miter;stroke-opacity:1" d="M 554.773,247.436 585.202,247.436 z" id="boundary" inkscape:connector-curvature="0" />
	<path style="fill:none;stroke:red;stroke-width:1px;stroke-linecap:butt;stroke-linejoin:miter;stroke-opacity:1" d="M 560.859,153.104 591.288,153.104 z" id="boundary" inkscape:connector-curvature="0" />
	<path style="fill:none;stroke:red;stroke-width:1px;stroke-linecap:butt;stroke-linejoin:miter;stroke-opacity:1" d="M 585.202,247.436 615.632,232.221 z" id="boundary" inkscape:connector-curvature="0" />
	<path style="fill:none;stroke:red;stroke-width:1px;stroke-linecap:butt;stroke-linejoin:miter;stroke-opacity:1" d="M 591.288,153.104 621.718,137.89 z" id="boundary" inkscape:connector-curvature="0" />
	<path style="fill:none;stroke:red;stroke-width:1px;stroke-linecap:butt;stroke-linejoin:miter;stroke-opacity:1" d="M 615.632,232.221 646.061,232.221 z" id="boundary" inkscape:connector-curvature="0" />
	<path style="fill:none;stroke:red;stroke-width:1px;stroke-linecap:butt;stroke-linejoin:miter;stroke-opacity:1" d="M 621.718,137.89 652.147,137.89 z" id="boundary" inkscape:connector-curvature="0" />
	<path style="fill:none;stroke:red;stroke-width:1px;stroke-linecap:butt;stroke-linejoin:miter;stroke-opacity:1" d="M 646.061,232.221 676.491,232.221 z" id="boundary" inkscape:connector-curvature="0" />
	<path style="fill:none;stroke:red;stroke-width:1px;stroke-linecap:butt;stroke-linejoin:miter;stroke-opacity:1" d="M 652.147,137.89 679.534,122.675 z" id="boundary" inkscape:connector-curvature="0" />
	<path style="fill:none;stroke:red;stroke-width:1px;stroke-linecap:butt;stroke-linejoin:miter;stroke-opacity:1" d="M 676.491,232.221 703.877,217.006 z" id="boundary" inkscape:connector-curvature="0" />
	<path style="fill:none;stroke:red;stroke-width:1px;stroke-linecap:butt;stroke-linejoin:miter;stroke-opacity:1" d="M 679.534,122.675 709.963,122.675 z" id="boundary" inkscape:connector-curvature="0" />
	<path style="fill:none;stroke:red;stroke-width:1px;stroke-linecap:butt;stroke-linejoin:miter;stroke-opacity:1" d="M 703.877,217.006 734.307,217.006 z" id="boundary" inkscape:connector-curvature="0" />
	<path style="fill:none;stroke:red;stroke-width:1px;stroke-linecap:butt;stroke-linejoin:miter;stroke-opacity:1" d="M 709.963,122.675 740.393,110.503 z" id="boundary" inkscape:connector-curvature="0" />
	<path style="fill:none;stroke:red;stroke-width:1px;stroke-linecap:butt;stroke-linejoin:miter;stroke-opacity:1" d="M 734.307,217.006 761.693,201.791 z" id="boundary" inkscape:connector-curvature="0" />
	<path style="fill:none;stroke:red;stroke-width:1px;stroke-linecap:butt;stroke-linejoin:miter;stroke-opacity:1" d="M 740.393,110.503 770.822,107.46 z" id="boundary" inkscape:connector-curvature="0" />
	<path style="fill:none;stroke:red;stroke-width:1px;stroke-linecap:butt;stroke-linejoin:miter;stroke-opacity:1" d="M 761.693,201.791 792.123,201.791 z" id="boundary" inkscape:connector-curvature="0" />
	<path style="fill:none;stroke:red;stroke-width:1px;stroke-linecap:butt;stroke-linejoin:miter;stroke-opacity:1" d="M 770.822,107.46 795.166,86.1595 z" id="boundary" inkscape:connector-curvature="0" />
	<path style="fill:none;stroke:red;stroke-width:1px;stroke-linecap:butt;stroke-linejoin:miter;stroke-opacity:1" d="M 792.123,201.791 822.552,201.791 z" id="boundary" inkscape:connector-curvature="0" />
	<path style="fill:none;stroke:red;stroke-width:1px;stroke-linecap:butt;stroke-linejoin:miter;stroke-opacity:1" d="M 795.166,86.1595 819.509,61.816 z" id="boundary" inkscape:connector-curvature="0" />
	<path style="fill:none;stroke:red;stroke-width:1px;stroke-linecap:butt;stroke-linejoin:miter;stroke-opacity:1" d="M 819.509,61.816 843.853,37.4724 z" id="boundary" inkscape:connector-curvature="0" />
	<path style="fill:none;stroke:red;stroke-width:1px;stroke-linecap:butt;stroke-linejoin:miter;stroke-opacity:1" d="M 822.552,201.791 849.939,217.006 z" id="boundary" inkscape:connector-curvature="0" />
	<path style="fill:none;stroke:red;stroke-width:1px;stroke-linecap:butt;stroke-linejoin:miter;stroke-opacity:1" d="M 843.853,37.4724 874.282,31.3865 z" id="boundary" inkscape:connector-curvature="0" />
	<path style="fill:none;stroke:red;stroke-width:1px;stroke-linecap:butt;stroke-linejoin:miter;stroke-opacity:1" d="M 849.939,217.006 880.368,217.006 z" id="boundary" inkscape:connector-curvature="0" />
	<path style="fill:none;stroke:red;stroke-width:1px;stroke-linecap:butt;stroke-linejoin:miter;stroke-opacity:1" d="M 874.282,31.3865 892.54,4 z" id="boundary" inkscape:connector-curvature="0" />
	<path style="fill:none;stroke:red;stroke-width:1px;stroke-linecap:butt;stroke-linejoin:miter;stroke-opacity:1" d="M 880.368,217.006 907.755,232.221 z" id="boundary" inkscape:connector-curvature="0" />
	<path style="fill:none;stroke:red;stroke-width:1px;stroke-linecap:butt;stroke-linejoin:miter;stroke-opacity:1" d="M 889.497,110.503 904.712,137.89 z" id="boundary" inkscape:connector-curvature="0" />
	<path style="fill:none;stroke:red;stroke-width:1px;stroke-linecap:butt;stroke-linejoin:miter;stroke-opacity:1" d="M 889.497,110.503 919.926,95.2883 z" id="boundary" inkscape:connector-curvature="0" />
	<path style="fill:none;stroke:red;stroke-width:1px;stroke-linecap:butt;stroke-linejoin:miter;stroke-opacity:1" d="M 892.54,4 922.969,16.1718 z" id="boundary" inkscape:connector-curvature="0" />
	<path style="fill:none;stroke:red;stroke-width:1px;stroke-linecap:butt;stroke-linejoin:miter;stroke-opacity:1" d="M 904.712,137.89 935.141,147.018 z" id="boundary" inkscape:connector-curvature="0" />
	<path style="fill:none;stroke:red;stroke-width:1px;stroke-linecap:butt;stroke-linejoin:miter;stroke-opacity:1" d="M 907.755,232.221 938.184,232.221 z" id="boundary" inkscape:connector-curvature="0" />
	<path style="fill:none;stroke:red;stroke-width:1px;stroke-linecap:butt;stroke-linejoin:miter;stroke-opacity:1" d="M 919.926,95.2883 950.356,95.2883 z" id="boundary" inkscape:connector-curvature="0" />
	<path style="fill:none;stroke:red;stroke-width:1px;stroke-linecap:butt;stroke-linejoin:miter;stroke-opacity:1" d="M 922.969,16.1718 953.399,16.1718 z" id="boundary" inkscape:connector-curvature="0" />
	<path style="fill:none;stroke:red;stroke-width:1px;stroke-linecap:butt;stroke-linejoin:miter;stroke-opacity:1" d="M 935.141,147.018 965.571,153.104 z" id="boundary" inkscape:connector-curvature="0" />
	<path style="fill:none;stroke:red;stroke-width:1px;stroke-linecap:butt;stroke-linejoin:miter;stroke-opacity:1" d="M 938.184,232.221 965.571,217.006 z" id="boundary" inkscape:connector-curvature="0" />
	<path style="fill:none;stroke:red;stroke-width:1px;stroke-linecap:butt;stroke-linejoin:miter;stroke-opacity:1" d="M 950.356,95.2883 980.785,95.2883 z" id="boundary" inkscape:connector-curvature="0" />
	<path style="fill:none;stroke:red;stroke-width:1px;stroke-linecap:butt;stroke-linejoin:miter;stroke-opacity:1" d="M 953.399,16.1718 980.785,31.3865 z" id="boundary" inkscape:connector-curvature="0" />
	<path style="fill:none;stroke:red;stroke-width:1px;stroke-linecap:butt;stroke-linejoin:miter;stroke-opacity:1" d="M 965.571,153.104 996,162.233 z" id="boundary" inkscape:connector-curvature="0" />
	<path style="fill:none;stroke:red;stroke-width:1px;stroke-linecap:butt;stroke-linejoin:miter;stroke-opacity:1" d="M 965.571,217.006 996,201.791 z" id="boundary" inkscape:connector-curvature="0" />
	<path style="fill:none;stroke:red;stroke-width:1px;stroke-linecap:butt;stroke-linejoin:miter;stroke-opacity:1" d="M 980.785,31.3865 980.785,61.816 z" id="boundary" inkscape:connector-curvature="0" />
	<path style="fill:none;stroke:red;stroke-width:1px;stroke-linecap:butt;stroke-linejoin:miter;stroke-opacity:1" d="M 980.785,61.816 980.785,95.2883 z" id="boundary" inkscape:connector-curvature="0" />
	<path style="fill:none;stroke:red;stroke-width:1px;stroke-linecap:butt;stroke-linejoin:miter;stroke-opacity:1" d="M 996,162.233 996,201.791 z" id="boundary" inkscape:connector-curvature="0" />
	<circle cx="4" cy="253.521" r="4" fill="#0" id="circle0"/>
	<circle cx="4" cy="283.951" r="4" fill="#0" id="circle1"/>
	<circle cx="19.2147" cy="420.883" r="4" fill="#0" id="circle2"/>
	<circle cx="28.3436" cy="229.178" r="4" fill="#0" id="circle3"/>
	<circle cx="34.4294" cy="293.08" r="4" fill="#0" id="circle4"/>
	<circle cx="37.4724" cy="445.227" r="4" fill="#0" id="circle5"/>
	<circle cx="43.5583" cy="396.54" r="4" fill="#0" id="circle6"/>
	<circle cx="58.773" cy="213.963" r="4" fill="#0" id="circle7"/>
	<circle cx="64.8589" cy="293.08" r="4" fill="#0" id="circle8"/>
	<circle cx="64.8589" cy="460.442" r="4" fill="#0" id="circle9"/>
	<circle cx="70.9448" cy="381.325" r="4" fill="#0" id="circle10"/>
	<circle cx="89.2025" cy="213.963" r="4" fill="#0" id="circle11"/>
	<circle cx="95.2883" cy="293.08" r="4" fill="#0" id="circle12"/>
	<circle cx="95.2883" cy="460.442" r="4" fill="#0" id="circle13"/>
	<circle cx="101.374" cy="381.325" r="4" fill="#0" id="circle14"/>
	<circle cx="116.589" cy="353.939" r="4" fill="#0" id="circle15"/>
	<circle cx="119.632" cy="213.963" r="4" fill="#0" id="circle16"/>
	<circle cx="122.675" cy="308.294" r="4" fill="#0" id="circle17"/>
	<circle cx="125.718" cy="460.442" r="4" fill="#0" id="circle18"/>
	<circle cx="150.061" cy="213.963" r="4" fill="#0" id="circle19"/>
	<circle cx="156.147" cy="460.442" r="4" fill="#0" id="circle20"/>
	<circle cx="177.448" cy="229.178" r="4" fill="#0" id="circle21"/>
	<circle cx="180.491" cy="442.184" r="4" fill="#0" id="circle22"/>
	<circle cx="204.834" cy="244.393" r="4" fill="#0" id="circle23"/>
	<circle cx="204.834" cy="414.798" r="4" fill="#0" id="circle24"/>
	<circle cx="220.049" cy="384.368" r="4" fill="#0" id="circle25"/>
	<circle cx="235.264" cy="244.393" r="4" fill="#0" id="circle26"/>
	<circle cx="244.393" cy="363.067" r="4" fill="#0" id="circle27"/>
	<circle cx="265.693" cy="244.393" r="4" fill="#0" id="circle28"/>
	<circle cx="265.693" cy="338.724" r="4" fill="#0" id="circle29"/>
	<circle cx="293.08" cy="229.178" r="4" fill="#0" id="circle30"/>
	<circle cx="293.08" cy="323.509" r="4" fill="#0" id="circle31"/>
	<circle cx="323.509" cy="223.092" r="4" fill="#0" id="circle32"/>
	<circle cx="323.509" cy="323.509" r="4" fill="#0" id="circle33"/>
	<circle cx="350.896" cy="308.294" r="4" fill="#0" id="circle34"/>
	<circle cx="353.939" cy="213.963" r="4" fill="#0" id="circle35"/>
	<circle cx="381.325" cy="308.294" r="4" fill="#0" id="circle36"/>
	<circle cx="384.368" cy="207.877" r="4" fill="#0" id="circle37"/>
	<circle cx="408.712" cy="293.08" r="4" fill="#0" id="circle38"/>
	<circle cx="414.798" cy="198.748" r="4" fill="#0" id="circle39"/>
	<circle cx="439.141" cy="290.037" r="4" fill="#0" id="circle40"/>
	<circle cx="445.227" cy="192.663" r="4" fill="#0" id="circle41"/>
	<circle cx="469.571" cy="277.865" r="4" fill="#0" id="circle42"/>
	<circle cx="475.656" cy="183.534" r="4" fill="#0" id="circle43"/>
	<circle cx="496.957" cy="262.65" r="4" fill="#0" id="circle44"/>
	<circle cx="503.043" cy="168.319" r="4" fill="#0" id="circle45"/>
	<circle cx="527.387" cy="262.65" r="4" fill="#0" id="circle46"/>
	<circle cx="533.472" cy="168.319" r="4" fill="#0" id="circle47"/>
	<circle cx="554.773" cy="247.436" r="4" fill="#0" id="circle48"/>
	<circle cx="560.859" cy="153.104" r="4" fill="#0" id="circle49"/>
	<circle cx="585.202" cy="247.436" r="4" fill="#0" id="circle50"/>
	<circle cx="591.288" cy="153.104" r="4" fill="#0" id="circle51"/>
	<circle cx="615.632" cy="232.221" r="4" fill="#0" id="circle52"/>
	<circle cx="621.718" cy="137.89" r="4" fill="#0" id="circle53"/>
	<circle cx="646.061" cy="232.221" r="4" fill="#0" id="circle54"/>
	<circle cx="652.147" cy="137.89" r="4" fill="#0" id="circle55"/>
	<circle cx="676.491" cy="232.221" r="4" fill="#0" id="circle56"/>
	<circle cx="679.534" cy="122.675" r="4" fill="#0" id="circle57"/>
	<circle cx="703.877" cy="217.006" r="4" fill="#0" id="circle58"/>
	<circle cx="709.963" cy="122.675" r="4" fill="#0" id="circle59"/>
	<circle cx="734.307" cy="217.006" r="4" fill="#0" id="circle60"/>
	<circle cx="740.393" cy="110.503" r="4" fill="#0" id="circle61"/>
	<circle cx="761.693" cy="201.791" r="4" fill="#0" id="circle62"/>
	<circle cx="770.822" cy="107.46" r="4" fill="#0" id="circle63"/>
	<circle cx="792.123" cy="201.791" r="4" fill="#0" id="circle64"/>
	<circle cx="795.166" cy="86.1595" r="4" fill="#0" id="circle65"/>
	<circle cx="819.509" cy="61.816" r="4" fill="#0" id="circle66"/>
	<circle cx="822.552" cy="201.791" r="4" fill="#0" id="circle67"/>
	<circle cx="843.853" cy="37.4724" r="4" fill="#0" id="circle68"/>
	<circle cx="849.939" cy="217.006" r="4" fill="#0" id="circle69"/>
	<circle cx="874.282" cy="31.3865" r="4" fill="#0" id="circle70"/>
	<circle cx="880.368" cy="217.006" r="4" fill="#0" id="circle71"/>
	<circle cx="889.497" cy="110.503" r="4" fill="#0" id="circle72"/>
	<circle cx="892.54" cy="4" r="4" fill="#0" id="circle73"/>
	<circle cx="904.712" cy="137.89" r="4" fill="#0" id="circle74"/>
	<circle cx="907.755" cy="232.221" r="4" fill="#0" id="circle75"/>
	<circle cx="919.926" cy="95.2883" r="4" fill="#0" id="circle76"/>
	<circle cx="922.969" cy="16.1718" r="4" fill="#0" id="circle77"/>
	<circle cx="935.141" cy="147.018" r="4" fill="#0" id="circle78"/>
	<circle cx="938.184" cy="232.221" r="4" fill="#0" id="circle79"/>
	<circle cx="950.356" cy="95.2883" r="4" fill="#0" id="circle80"/>
	<circle cx="953.399" cy="16.1718" r="4" fill="#0" id="circle81"/>
	<circle cx="965.571" cy="153.104" r="4" fill="#0" id="circle82"/>
	<circle cx="965.571" cy="217.006" r="4" fill="#0" id="circle83"/>
	<circle cx="980.785" cy="31.3865" r="4" fill="#0" id="circle84"/>
	<circle cx="980.785" cy="61.816" r="4" fill="#0" id="circle85"/>
	<circle cx="980.785" cy="95.2883" r="4" fill="#0" id="circle86"/>
	<circle cx="996" cy="162.233" r="4" fill="#0" id="circle87"/>
	<circle cx="996" cy="201.791" r="4" fill="#0" id="circle88"/>
	</g>
</svg>