<?xml version="1.0" encoding="UTF-8" standalone="no"?>
<!-- Created with CurveBenchmark -->
<svg
	xmlns:dc="http://purl.org/dc/elements/1.1/"
	xmlns:cc="http://creativecommons.org/ns#"
	xmlns:rdf="http://www.w3.org/1999/02/22-rdf-syntax-ns#"
	xmlns:svg="http://www.w3.org/2000/svg"
	xmlns="http://www.w3.org/2000/svg"
	xmlns:sodipodi="http://sodipodi.sourceforge.net/DTD/sodipodi-0.dtd"
	xmlns:inkscape="http://www.inkscape.org/namespaces/inkscape"
	width="1000"
	height="1000"
	id="svg2"
	version="1.1"
	sodipodi:docname="manifold/hnncrust-hammer-6.png.txt">
<defs
	id="defs4" />
<metadata
	id="metadata7">
	<rdf:RDF>
		<cc:Work
			rdf:about="">
			<dc:format>image/svg+xml</dc:format>
			<dc:type
				rdf:resource="http://purl.org/dc/dcmitype/StillImage" />
			<dc:title></dc:title>
		</cc:Work>
	</rdf:RDF>
</metadata>
<g
	inkscape:label="Layer 1"
	inkscape:groupmode="layer"
	id="layer1">
	<path style="fill:none;stroke:red;stroke-width:1px;stroke-linecap:butt;stroke-linejoin:miter;stroke-opacity:1" d="M 4,6.75301 4,15.9297 z" id="boundary" inkscape:connector-curvature="0" />
	<path style="fill:none;stroke:red;stroke-width:1px;stroke-linecap:butt;stroke-linejoin:miter;stroke-opacity:1" d="M 4,6.75301 13.1767,4 z" id="boundary" inkscape:connector-curvature="0" />
	<path style="fill:none;stroke:red;stroke-width:1px;stroke-linecap:butt;stroke-linejoin:miter;stroke-opacity:1" d="M 4,15.9297 4,25.1064 z" id="boundary" inkscape:connector-curvature="0" />
	<path style="fill:none;stroke:red;stroke-width:1px;stroke-linecap:butt;stroke-linejoin:miter;stroke-opacity:1" d="M 4,25.1064 4,34.2831 z" id="boundary" inkscape:connector-curvature="0" />
	<path style="fill:none;stroke:red;stroke-width:1px;stroke-linecap:butt;stroke-linejoin:miter;stroke-opacity:1" d="M 4,34.2831 4,43.4598 z" id="boundary" inkscape:connector-curvature="0" />
	<path style="fill:none;stroke:red;stroke-width:1px;stroke-linecap:butt;stroke-linejoin:miter;stroke-opacity:1" d="M 4,43.4598 4,52.6364 z" id="boundary" inkscape:connector-curvature="0" />
	<path style="fill:none;stroke:red;stroke-width:1px;stroke-linecap:butt;stroke-linejoin:miter;stroke-opacity:1" d="M 4,52.6364 4,61.8131 z" id="boundary" inkscape:connector-curvature="0" />
	<path style="fill:none;stroke:red;stroke-width:1px;stroke-linecap:butt;stroke-linejoin:miter;stroke-opacity:1" d="M 4,61.8131 4,70.9898 z" id="boundary" inkscape:connector-curvature="0" />
	<path style="fill:none;stroke:red;stroke-width:1px;stroke-linecap:butt;stroke-linejoin:miter;stroke-opacity:1" d="M 4,70.9898 4,80.1665 z" id="boundary" inkscape:connector-curvature="0" />
	<path style="fill:none;stroke:red;stroke-width:1px;stroke-linecap:butt;stroke-linejoin:miter;stroke-opacity:1" d="M 4,80.1665 4,89.3432 z" id="boundary" inkscape:connector-curvature="0" />
	<path style="fill:none;stroke:red;stroke-width:1px;stroke-linecap:butt;stroke-linejoin:miter;stroke-opacity:1" d="M 4,89.3432 4,98.5199 z" id="boundary" inkscape:connector-curvature="0" />
	<path style="fill:none;stroke:red;stroke-width:1px;stroke-linecap:butt;stroke-linejoin:miter;stroke-opacity:1" d="M 4,98.5199 4,107.697 z" id="boundary" inkscape:connector-curvature="0" />
	<path style="fill:none;stroke:red;stroke-width:1px;stroke-linecap:butt;stroke-linejoin:miter;stroke-opacity:1" d="M 4,107.697 4,116.873 z" id="boundary" inkscape:connector-curvature="0" />
	<path style="fill:none;stroke:red;stroke-width:1px;stroke-linecap:butt;stroke-linejoin:miter;stroke-opacity:1" d="M 4,116.873 9.50601,124.215 z" id="boundary" inkscape:connector-curvature="0" />
	<path style="fill:none;stroke:red;stroke-width:1px;stroke-linecap:butt;stroke-linejoin:miter;stroke-opacity:1" d="M 9.50601,124.215 18.6827,124.215 z" id="boundary" inkscape:connector-curvature="0" />
	<path style="fill:none;stroke:red;stroke-width:1px;stroke-linecap:butt;stroke-linejoin:miter;stroke-opacity:1" d="M 13.1767,4 22.3534,4 z" id="boundary" inkscape:connector-curvature="0" />
	<path style="fill:none;stroke:red;stroke-width:1px;stroke-linecap:butt;stroke-linejoin:miter;stroke-opacity:1" d="M 18.6827,124.215 22.3534,133.391 z" id="boundary" inkscape:connector-curvature="0" />
	<path style="fill:none;stroke:red;stroke-width:1px;stroke-linecap:butt;stroke-linejoin:miter;stroke-opacity:1" d="M 22.3534,4 31.5301,4 z" id="boundary" inkscape:connector-curvature="0" />
	<path style="fill:none;stroke:red;stroke-width:1px;stroke-linecap:butt;stroke-linejoin:miter;stroke-opacity:1" d="M 22.3534,133.391 22.3534,142.568 z" id="boundary" inkscape:connector-curvature="0" />
	<path style="fill:none;stroke:red;stroke-width:1px;stroke-linecap:butt;stroke-linejoin:miter;stroke-opacity:1" d="M 22.3534,142.568 22.3534,151.745 z" id="boundary" inkscape:connector-curvature="0" />
	<path style="fill:none;stroke:red;stroke-width:1px;stroke-linecap:butt;stroke-linejoin:miter;stroke-opacity:1" d="M 22.3534,151.745 22.3534,160.921 z" id="boundary" inkscape:connector-curvature="0" />
	<path style="fill:none;stroke:red;stroke-width:1px;stroke-linecap:butt;stroke-linejoin:miter;stroke-opacity:1" d="M 22.3534,160.921 22.3534,170.098 z" id="boundary" inkscape:connector-curvature="0" />
	<path style="fill:none;stroke:red;stroke-width:1px;stroke-linecap:butt;stroke-linejoin:miter;stroke-opacity:1" d="M 22.3534,170.098 22.3534,179.275 z" id="boundary" inkscape:connector-curvature="0" />
	<path style="fill:none;stroke:red;stroke-width:1px;stroke-linecap:butt;stroke-linejoin:miter;stroke-opacity:1" d="M 22.3534,179.275 22.3534,188.451 z" id="boundary" inkscape:connector-curvature="0" />
	<path style="fill:none;stroke:red;stroke-width:1px;stroke-linecap:butt;stroke-linejoin:miter;stroke-opacity:1" d="M 22.3534,188.451 22.3534,197.628 z" id="boundary" inkscape:connector-curvature="0" />
	<path style="fill:none;stroke:red;stroke-width:1px;stroke-linecap:butt;stroke-linejoin:miter;stroke-opacity:1" d="M 22.3534,197.628 22.3534,206.805 z" id="boundary" inkscape:connector-curvature="0" />
	<path style="fill:none;stroke:red;stroke-width:1px;stroke-linecap:butt;stroke-linejoin:miter;stroke-opacity:1" d="M 22.3534,206.805 22.3534,215.981 z" id="boundary" inkscape:connector-curvature="0" />
	<path style="fill:none;stroke:red;stroke-width:1px;stroke-linecap:butt;stroke-linejoin:miter;stroke-opacity:1" d="M 22.3534,215.981 22.3534,225.158 z" id="boundary" inkscape:connector-curvature="0" />
	<path style="fill:none;stroke:red;stroke-width:1px;stroke-linecap:butt;stroke-linejoin:miter;stroke-opacity:1" d="M 22.3534,225.158 22.3534,234.335 z" id="boundary" inkscape:connector-curvature="0" />
	<path style="fill:none;stroke:red;stroke-width:1px;stroke-linecap:butt;stroke-linejoin:miter;stroke-opacity:1" d="M 22.3534,234.335 22.3534,243.512 z" id="boundary" inkscape:connector-curvature="0" />
	<path style="fill:none;stroke:red;stroke-width:1px;stroke-linecap:butt;stroke-linejoin:miter;stroke-opacity:1" d="M 22.3534,243.512 25.1064,252.688 z" id="boundary" inkscape:connector-curvature="0" />
	<path style="fill:none;stroke:red;stroke-width:1px;stroke-linecap:butt;stroke-linejoin:miter;stroke-opacity:1" d="M 25.1064,252.688 26.9417,261.865 z" id="boundary" inkscape:connector-curvature="0" />
	<path style="fill:none;stroke:red;stroke-width:1px;stroke-linecap:butt;stroke-linejoin:miter;stroke-opacity:1" d="M 26.9417,261.865 26.9417,271.042 z" id="boundary" inkscape:connector-curvature="0" />
	<path style="fill:none;stroke:red;stroke-width:1px;stroke-linecap:butt;stroke-linejoin:miter;stroke-opacity:1" d="M 26.9417,271.042 31.5301,279.301 z" id="boundary" inkscape:connector-curvature="0" />
	<path style="fill:none;stroke:red;stroke-width:1px;stroke-linecap:butt;stroke-linejoin:miter;stroke-opacity:1" d="M 31.5301,4 40.7068,4 z" id="boundary" inkscape:connector-curvature="0" />
	<path style="fill:none;stroke:red;stroke-width:1px;stroke-linecap:butt;stroke-linejoin:miter;stroke-opacity:1" d="M 31.5301,279.301 36.1184,287.56 z" id="boundary" inkscape:connector-curvature="0" />
	<path style="fill:none;stroke:red;stroke-width:1px;stroke-linecap:butt;stroke-linejoin:miter;stroke-opacity:1" d="M 36.1184,287.56 40.7068,295.819 z" id="boundary" inkscape:connector-curvature="0" />
	<path style="fill:none;stroke:red;stroke-width:1px;stroke-linecap:butt;stroke-linejoin:miter;stroke-opacity:1" d="M 40.7068,4 49.8834,4 z" id="boundary" inkscape:connector-curvature="0" />
	<path style="fill:none;stroke:red;stroke-width:1px;stroke-linecap:butt;stroke-linejoin:miter;stroke-opacity:1" d="M 40.7068,295.819 40.7068,304.995 z" id="boundary" inkscape:connector-curvature="0" />
	<path style="fill:none;stroke:red;stroke-width:1px;stroke-linecap:butt;stroke-linejoin:miter;stroke-opacity:1" d="M 40.7068,304.995 45.2951,313.254 z" id="boundary" inkscape:connector-curvature="0" />
	<path style="fill:none;stroke:red;stroke-width:1px;stroke-linecap:butt;stroke-linejoin:miter;stroke-opacity:1" d="M 45.2951,313.254 49.8834,321.513 z" id="boundary" inkscape:connector-curvature="0" />
	<path style="fill:none;stroke:red;stroke-width:1px;stroke-linecap:butt;stroke-linejoin:miter;stroke-opacity:1" d="M 49.8834,4 59.0601,4 z" id="boundary" inkscape:connector-curvature="0" />
	<path style="fill:none;stroke:red;stroke-width:1px;stroke-linecap:butt;stroke-linejoin:miter;stroke-opacity:1" d="M 49.8834,321.513 55.3895,328.855 z" id="boundary" inkscape:connector-curvature="0" />
	<path style="fill:none;stroke:red;stroke-width:1px;stroke-linecap:butt;stroke-linejoin:miter;stroke-opacity:1" d="M 55.3895,328.855 59.9778,337.114 z" id="boundary" inkscape:connector-curvature="0" />
	<path style="fill:none;stroke:red;stroke-width:1px;stroke-linecap:butt;stroke-linejoin:miter;stroke-opacity:1" d="M 59.0601,4 68.2368,4 z" id="boundary" inkscape:connector-curvature="0" />
	<path style="fill:none;stroke:red;stroke-width:1px;stroke-linecap:butt;stroke-linejoin:miter;stroke-opacity:1" d="M 59.9778,337.114 66.4015,344.455 z" id="boundary" inkscape:connector-curvature="0" />
	<path style="fill:none;stroke:red;stroke-width:1px;stroke-linecap:butt;stroke-linejoin:miter;stroke-opacity:1" d="M 66.4015,344.455 70.9898,352.714 z" id="boundary" inkscape:connector-curvature="0" />
	<path style="fill:none;stroke:red;stroke-width:1px;stroke-linecap:butt;stroke-linejoin:miter;stroke-opacity:1" d="M 68.2368,4 77.4135,4 z" id="boundary" inkscape:connector-curvature="0" />
	<path style="fill:none;stroke:red;stroke-width:1px;stroke-linecap:butt;stroke-linejoin:miter;stroke-opacity:1" d="M 70.9898,352.714 77.4135,360.056 z" id="boundary" inkscape:connector-curvature="0" />
	<path style="fill:none;stroke:red;stroke-width:1px;stroke-linecap:butt;stroke-linejoin:miter;stroke-opacity:1" d="M 77.4135,4 86.5902,4 z" id="boundary" inkscape:connector-curvature="0" />
	<path style="fill:none;stroke:red;stroke-width:1px;stroke-linecap:butt;stroke-linejoin:miter;stroke-opacity:1" d="M 77.4135,360.056 82.0019,368.315 z" id="boundary" inkscape:connector-curvature="0" />
	<path style="fill:none;stroke:red;stroke-width:1px;stroke-linecap:butt;stroke-linejoin:miter;stroke-opacity:1" d="M 82.0019,368.315 86.5902,376.574 z" id="boundary" inkscape:connector-curvature="0" />
	<path style="fill:none;stroke:red;stroke-width:1px;stroke-linecap:butt;stroke-linejoin:miter;stroke-opacity:1" d="M 86.5902,4 95.7669,4 z" id="boundary" inkscape:connector-curvature="0" />
	<path style="fill:none;stroke:red;stroke-width:1px;stroke-linecap:butt;stroke-linejoin:miter;stroke-opacity:1" d="M 86.5902,376.574 91.1785,384.833 z" id="boundary" inkscape:connector-curvature="0" />
	<path style="fill:none;stroke:red;stroke-width:1px;stroke-linecap:butt;stroke-linejoin:miter;stroke-opacity:1" d="M 91.1785,384.833 96.6846,392.174 z" id="boundary" inkscape:connector-curvature="0" />
	<path style="fill:none;stroke:red;stroke-width:1px;stroke-linecap:butt;stroke-linejoin:miter;stroke-opacity:1" d="M 95.7669,4 104.944,4 z" id="boundary" inkscape:connector-curvature="0" />
	<path style="fill:none;stroke:red;stroke-width:1px;stroke-linecap:butt;stroke-linejoin:miter;stroke-opacity:1" d="M 96.6846,392.174 103.108,399.515 z" id="boundary" inkscape:connector-curvature="0" />
	<path style="fill:none;stroke:red;stroke-width:1px;stroke-linecap:butt;stroke-linejoin:miter;stroke-opacity:1" d="M 103.108,399.515 110.45,405.939 z" id="boundary" inkscape:connector-curvature="0" />
	<path style="fill:none;stroke:red;stroke-width:1px;stroke-linecap:butt;stroke-linejoin:miter;stroke-opacity:1" d="M 104.944,4 114.12,4 z" id="boundary" inkscape:connector-curvature="0" />
	<path style="fill:none;stroke:red;stroke-width:1px;stroke-linecap:butt;stroke-linejoin:miter;stroke-opacity:1" d="M 110.45,405.939 116.873,413.28 z" id="boundary" inkscape:connector-curvature="0" />
	<path style="fill:none;stroke:red;stroke-width:1px;stroke-linecap:butt;stroke-linejoin:miter;stroke-opacity:1" d="M 114.12,4 123.297,4 z" id="boundary" inkscape:connector-curvature="0" />
	<path style="fill:none;stroke:red;stroke-width:1px;stroke-linecap:butt;stroke-linejoin:miter;stroke-opacity:1" d="M 116.873,413.28 126.05,416.951 z" id="boundary" inkscape:connector-curvature="0" />
	<path style="fill:none;stroke:red;stroke-width:1px;stroke-linecap:butt;stroke-linejoin:miter;stroke-opacity:1" d="M 123.297,4 132.474,4 z" id="boundary" inkscape:connector-curvature="0" />
	<path style="fill:none;stroke:red;stroke-width:1px;stroke-linecap:butt;stroke-linejoin:miter;stroke-opacity:1" d="M 126.05,416.951 132.474,424.292 z" id="boundary" inkscape:connector-curvature="0" />
	<path style="fill:none;stroke:red;stroke-width:1px;stroke-linecap:butt;stroke-linejoin:miter;stroke-opacity:1" d="M 132.474,4 141.65,4 z" id="boundary" inkscape:connector-curvature="0" />
	<path style="fill:none;stroke:red;stroke-width:1px;stroke-linecap:butt;stroke-linejoin:miter;stroke-opacity:1" d="M 132.474,424.292 141.65,427.045 z" id="boundary" inkscape:connector-curvature="0" />
	<path style="fill:none;stroke:red;stroke-width:1px;stroke-linecap:butt;stroke-linejoin:miter;stroke-opacity:1" d="M 141.65,4 150.827,4 z" id="boundary" inkscape:connector-curvature="0" />
	<path style="fill:none;stroke:red;stroke-width:1px;stroke-linecap:butt;stroke-linejoin:miter;stroke-opacity:1" d="M 141.65,427.045 149.909,431.634 z" id="boundary" inkscape:connector-curvature="0" />
	<path style="fill:none;stroke:red;stroke-width:1px;stroke-linecap:butt;stroke-linejoin:miter;stroke-opacity:1" d="M 149.909,431.634 158.168,436.222 z" id="boundary" inkscape:connector-curvature="0" />
	<path style="fill:none;stroke:red;stroke-width:1px;stroke-linecap:butt;stroke-linejoin:miter;stroke-opacity:1" d="M 150.827,4 160.004,4 z" id="boundary" inkscape:connector-curvature="0" />
	<path style="fill:none;stroke:red;stroke-width:1px;stroke-linecap:butt;stroke-linejoin:miter;stroke-opacity:1" d="M 158.168,436.222 166.427,440.81 z" id="boundary" inkscape:connector-curvature="0" />
	<path style="fill:none;stroke:red;stroke-width:1px;stroke-linecap:butt;stroke-linejoin:miter;stroke-opacity:1" d="M 160.004,4 169.18,4 z" id="boundary" inkscape:connector-curvature="0" />
	<path style="fill:none;stroke:red;stroke-width:1px;stroke-linecap:butt;stroke-linejoin:miter;stroke-opacity:1" d="M 166.427,440.81 173.769,446.316 z" id="boundary" inkscape:connector-curvature="0" />
	<path style="fill:none;stroke:red;stroke-width:1px;stroke-linecap:butt;stroke-linejoin:miter;stroke-opacity:1" d="M 169.18,4 178.357,4 z" id="boundary" inkscape:connector-curvature="0" />
	<path style="fill:none;stroke:red;stroke-width:1px;stroke-linecap:butt;stroke-linejoin:miter;stroke-opacity:1" d="M 173.769,446.316 182.945,449.987 z" id="boundary" inkscape:connector-curvature="0" />
	<path style="fill:none;stroke:red;stroke-width:1px;stroke-linecap:butt;stroke-linejoin:miter;stroke-opacity:1" d="M 178.357,4 187.534,4 z" id="boundary" inkscape:connector-curvature="0" />
	<path style="fill:none;stroke:red;stroke-width:1px;stroke-linecap:butt;stroke-linejoin:miter;stroke-opacity:1" d="M 182.945,449.987 191.204,454.575 z" id="boundary" inkscape:connector-curvature="0" />
	<path style="fill:none;stroke:red;stroke-width:1px;stroke-linecap:butt;stroke-linejoin:miter;stroke-opacity:1" d="M 187.534,4 196.71,4 z" id="boundary" inkscape:connector-curvature="0" />
	<path style="fill:none;stroke:red;stroke-width:1px;stroke-linecap:butt;stroke-linejoin:miter;stroke-opacity:1" d="M 191.204,454.575 199.463,459.164 z" id="boundary" inkscape:connector-curvature="0" />
	<path style="fill:none;stroke:red;stroke-width:1px;stroke-linecap:butt;stroke-linejoin:miter;stroke-opacity:1" d="M 196.71,4 205.887,4 z" id="boundary" inkscape:connector-curvature="0" />
	<path style="fill:none;stroke:red;stroke-width:1px;stroke-linecap:butt;stroke-linejoin:miter;stroke-opacity:1" d="M 199.463,459.164 208.64,459.164 z" id="boundary" inkscape:connector-curvature="0" />
	<path style="fill:none;stroke:red;stroke-width:1px;stroke-linecap:butt;stroke-linejoin:miter;stroke-opacity:1" d="M 202.216,257.277 202.216,266.453 z" id="boundary" inkscape:connector-curvature="0" />
	<path style="fill:none;stroke:red;stroke-width:1px;stroke-linecap:butt;stroke-linejoin:miter;stroke-opacity:1" d="M 202.216,257.277 211.393,257.277 z" id="boundary" inkscape:connector-curvature="0" />
	<path style="fill:none;stroke:red;stroke-width:1px;stroke-linecap:butt;stroke-linejoin:miter;stroke-opacity:1" d="M 202.216,266.453 202.216,275.63 z" id="boundary" inkscape:connector-curvature="0" />
	<path style="fill:none;stroke:red;stroke-width:1px;stroke-linecap:butt;stroke-linejoin:miter;stroke-opacity:1" d="M 202.216,275.63 202.216,284.807 z" id="boundary" inkscape:connector-curvature="0" />
	<path style="fill:none;stroke:red;stroke-width:1px;stroke-linecap:butt;stroke-linejoin:miter;stroke-opacity:1" d="M 202.216,284.807 202.216,293.983 z" id="boundary" inkscape:connector-curvature="0" />
	<path style="fill:none;stroke:red;stroke-width:1px;stroke-linecap:butt;stroke-linejoin:miter;stroke-opacity:1" d="M 202.216,293.983 204.052,303.16 z" id="boundary" inkscape:connector-curvature="0" />
	<path style="fill:none;stroke:red;stroke-width:1px;stroke-linecap:butt;stroke-linejoin:miter;stroke-opacity:1" d="M 204.052,303.16 206.805,312.337 z" id="boundary" inkscape:connector-curvature="0" />
	<path style="fill:none;stroke:red;stroke-width:1px;stroke-linecap:butt;stroke-linejoin:miter;stroke-opacity:1" d="M 205.887,4 215.064,4 z" id="boundary" inkscape:connector-curvature="0" />
	<path style="fill:none;stroke:red;stroke-width:1px;stroke-linecap:butt;stroke-linejoin:miter;stroke-opacity:1" d="M 206.805,124.215 206.805,133.391 z" id="boundary" inkscape:connector-curvature="0" />
	<path style="fill:none;stroke:red;stroke-width:1px;stroke-linecap:butt;stroke-linejoin:miter;stroke-opacity:1" d="M 206.805,124.215 215.981,124.215 z" id="boundary" inkscape:connector-curvature="0" />
	<path style="fill:none;stroke:red;stroke-width:1px;stroke-linecap:butt;stroke-linejoin:miter;stroke-opacity:1" d="M 206.805,133.391 206.805,142.568 z" id="boundary" inkscape:connector-curvature="0" />
	<path style="fill:none;stroke:red;stroke-width:1px;stroke-linecap:butt;stroke-linejoin:miter;stroke-opacity:1" d="M 206.805,142.568 215.981,146.239 z" id="boundary" inkscape:connector-curvature="0" />
	<path style="fill:none;stroke:red;stroke-width:1px;stroke-linecap:butt;stroke-linejoin:miter;stroke-opacity:1" d="M 206.805,312.337 206.805,321.513 z" id="boundary" inkscape:connector-curvature="0" />
	<path style="fill:none;stroke:red;stroke-width:1px;stroke-linecap:butt;stroke-linejoin:miter;stroke-opacity:1" d="M 206.805,321.513 206.805,330.69 z" id="boundary" inkscape:connector-curvature="0" />
	<path style="fill:none;stroke:red;stroke-width:1px;stroke-linecap:butt;stroke-linejoin:miter;stroke-opacity:1" d="M 206.805,330.69 208.64,339.867 z" id="boundary" inkscape:connector-curvature="0" />
	<path style="fill:none;stroke:red;stroke-width:1px;stroke-linecap:butt;stroke-linejoin:miter;stroke-opacity:1" d="M 208.64,339.867 211.393,349.043 z" id="boundary" inkscape:connector-curvature="0" />
	<path style="fill:none;stroke:red;stroke-width:1px;stroke-linecap:butt;stroke-linejoin:miter;stroke-opacity:1" d="M 208.64,459.164 216.899,463.752 z" id="boundary" inkscape:connector-curvature="0" />
	<path style="fill:none;stroke:red;stroke-width:1px;stroke-linecap:butt;stroke-linejoin:miter;stroke-opacity:1" d="M 211.393,257.277 220.57,257.277 z" id="boundary" inkscape:connector-curvature="0" />
	<path style="fill:none;stroke:red;stroke-width:1px;stroke-linecap:butt;stroke-linejoin:miter;stroke-opacity:1" d="M 211.393,349.043 211.393,358.22 z" id="boundary" inkscape:connector-curvature="0" />
	<path style="fill:none;stroke:red;stroke-width:1px;stroke-linecap:butt;stroke-linejoin:miter;stroke-opacity:1" d="M 211.393,358.22 213.228,367.397 z" id="boundary" inkscape:connector-curvature="0" />
	<path style="fill:none;stroke:red;stroke-width:1px;stroke-linecap:butt;stroke-linejoin:miter;stroke-opacity:1" d="M 213.228,367.397 215.981,376.574 z" id="boundary" inkscape:connector-curvature="0" />
	<path style="fill:none;stroke:red;stroke-width:1px;stroke-linecap:butt;stroke-linejoin:miter;stroke-opacity:1" d="M 215.064,4 224.241,5.83534 z" id="boundary" inkscape:connector-curvature="0" />
	<path style="fill:none;stroke:red;stroke-width:1px;stroke-linecap:butt;stroke-linejoin:miter;stroke-opacity:1" d="M 215.981,124.215 225.158,115.956 z" id="boundary" inkscape:connector-curvature="0" />
	<path style="fill:none;stroke:red;stroke-width:1px;stroke-linecap:butt;stroke-linejoin:miter;stroke-opacity:1" d="M 215.981,146.239 225.158,146.239 z" id="boundary" inkscape:connector-curvature="0" />
	<path style="fill:none;stroke:red;stroke-width:1px;stroke-linecap:butt;stroke-linejoin:miter;stroke-opacity:1" d="M 215.981,376.574 217.817,385.75 z" id="boundary" inkscape:connector-curvature="0" />
	<path style="fill:none;stroke:red;stroke-width:1px;stroke-linecap:butt;stroke-linejoin:miter;stroke-opacity:1" d="M 216.899,463.752 226.076,466.505 z" id="boundary" inkscape:connector-curvature="0" />
	<path style="fill:none;stroke:red;stroke-width:1px;stroke-linecap:butt;stroke-linejoin:miter;stroke-opacity:1" d="M 217.817,385.75 220.57,394.927 z" id="boundary" inkscape:connector-curvature="0" />
	<path style="fill:none;stroke:red;stroke-width:1px;stroke-linecap:butt;stroke-linejoin:miter;stroke-opacity:1" d="M 220.57,257.277 229.747,257.277 z" id="boundary" inkscape:connector-curvature="0" />
	<path style="fill:none;stroke:red;stroke-width:1px;stroke-linecap:butt;stroke-linejoin:miter;stroke-opacity:1" d="M 220.57,394.927 220.57,404.104 z" id="boundary" inkscape:connector-curvature="0" />
	<path style="fill:none;stroke:red;stroke-width:1px;stroke-linecap:butt;stroke-linejoin:miter;stroke-opacity:1" d="M 220.57,404.104 222.405,413.28 z" id="boundary" inkscape:connector-curvature="0" />
	<path style="fill:none;stroke:red;stroke-width:1px;stroke-linecap:butt;stroke-linejoin:miter;stroke-opacity:1" d="M 222.405,413.28 225.158,422.457 z" id="boundary" inkscape:connector-curvature="0" />
	<path style="fill:none;stroke:red;stroke-width:1px;stroke-linecap:butt;stroke-linejoin:miter;stroke-opacity:1" d="M 224.241,5.83534 225.158,15.012 z" id="boundary" inkscape:connector-curvature="0" />
	<path style="fill:none;stroke:red;stroke-width:1px;stroke-linecap:butt;stroke-linejoin:miter;stroke-opacity:1" d="M 225.158,15.012 225.158,24.1887 z" id="boundary" inkscape:connector-curvature="0" />
	<path style="fill:none;stroke:red;stroke-width:1px;stroke-linecap:butt;stroke-linejoin:miter;stroke-opacity:1" d="M 225.158,24.1887 225.158,33.3654 z" id="boundary" inkscape:connector-curvature="0" />
	<path style="fill:none;stroke:red;stroke-width:1px;stroke-linecap:butt;stroke-linejoin:miter;stroke-opacity:1" d="M 225.158,33.3654 225.158,42.5421 z" id="boundary" inkscape:connector-curvature="0" />
	<path style="fill:none;stroke:red;stroke-width:1px;stroke-linecap:butt;stroke-linejoin:miter;stroke-opacity:1" d="M 225.158,42.5421 225.158,51.7188 z" id="boundary" inkscape:connector-curvature="0" />
	<path style="fill:none;stroke:red;stroke-width:1px;stroke-linecap:butt;stroke-linejoin:miter;stroke-opacity:1" d="M 225.158,51.7188 225.158,60.8955 z" id="boundary" inkscape:connector-curvature="0" />
	<path style="fill:none;stroke:red;stroke-width:1px;stroke-linecap:butt;stroke-linejoin:miter;stroke-opacity:1" d="M 225.158,60.8955 225.158,70.0722 z" id="boundary" inkscape:connector-curvature="0" />
	<path style="fill:none;stroke:red;stroke-width:1px;stroke-linecap:butt;stroke-linejoin:miter;stroke-opacity:1" d="M 225.158,70.0722 225.158,79.2488 z" id="boundary" inkscape:connector-curvature="0" />
	<path style="fill:none;stroke:red;stroke-width:1px;stroke-linecap:butt;stroke-linejoin:miter;stroke-opacity:1" d="M 225.158,79.2488 225.158,88.4255 z" id="boundary" inkscape:connector-curvature="0" />
	<path style="fill:none;stroke:red;stroke-width:1px;stroke-linecap:butt;stroke-linejoin:miter;stroke-opacity:1" d="M 225.158,88.4255 225.158,97.6022 z" id="boundary" inkscape:connector-curvature="0" />
	<path style="fill:none;stroke:red;stroke-width:1px;stroke-linecap:butt;stroke-linejoin:miter;stroke-opacity:1" d="M 225.158,97.6022 225.158,106.779 z" id="boundary" inkscape:connector-curvature="0" />
	<path style="fill:none;stroke:red;stroke-width:1px;stroke-linecap:butt;stroke-linejoin:miter;stroke-opacity:1" d="M 225.158,106.779 225.158,115.956 z" id="boundary" inkscape:connector-curvature="0" />
	<path style="fill:none;stroke:red;stroke-width:1px;stroke-linecap:butt;stroke-linejoin:miter;stroke-opacity:1" d="M 225.158,146.239 234.335,146.239 z" id="boundary" inkscape:connector-curvature="0" />
	<path style="fill:none;stroke:red;stroke-width:1px;stroke-linecap:butt;stroke-linejoin:miter;stroke-opacity:1" d="M 225.158,422.457 229.747,430.716 z" id="boundary" inkscape:connector-curvature="0" />
	<path style="fill:none;stroke:red;stroke-width:1px;stroke-linecap:butt;stroke-linejoin:miter;stroke-opacity:1" d="M 226.076,466.505 235.253,468.34 z" id="boundary" inkscape:connector-curvature="0" />
	<path style="fill:none;stroke:red;stroke-width:1px;stroke-linecap:butt;stroke-linejoin:miter;stroke-opacity:1" d="M 229.747,257.277 238.923,257.277 z" id="boundary" inkscape:connector-curvature="0" />
	<path style="fill:none;stroke:red;stroke-width:1px;stroke-linecap:butt;stroke-linejoin:miter;stroke-opacity:1" d="M 229.747,430.716 229.747,439.893 z" id="boundary" inkscape:connector-curvature="0" />
	<path style="fill:none;stroke:red;stroke-width:1px;stroke-linecap:butt;stroke-linejoin:miter;stroke-opacity:1" d="M 229.747,439.893 234.335,448.152 z" id="boundary" inkscape:connector-curvature="0" />
	<path style="fill:none;stroke:red;stroke-width:1px;stroke-linecap:butt;stroke-linejoin:miter;stroke-opacity:1" d="M 234.335,146.239 243.512,146.239 z" id="boundary" inkscape:connector-curvature="0" />
	<path style="fill:none;stroke:red;stroke-width:1px;stroke-linecap:butt;stroke-linejoin:miter;stroke-opacity:1" d="M 234.335,448.152 238.923,456.411 z" id="boundary" inkscape:connector-curvature="0" />
	<path style="fill:none;stroke:red;stroke-width:1px;stroke-linecap:butt;stroke-linejoin:miter;stroke-opacity:1" d="M 235.253,468.34 238.923,456.411 z" id="boundary" inkscape:connector-curvature="0" />
	<path style="fill:none;stroke:red;stroke-width:1px;stroke-linecap:butt;stroke-linejoin:miter;stroke-opacity:1" d="M 238.923,257.277 248.1,257.277 z" id="boundary" inkscape:connector-curvature="0" />
	<path style="fill:none;stroke:red;stroke-width:1px;stroke-linecap:butt;stroke-linejoin:miter;stroke-opacity:1" d="M 243.512,146.239 252.688,146.239 z" id="boundary" inkscape:connector-curvature="0" />
	<path style="fill:none;stroke:red;stroke-width:1px;stroke-linecap:butt;stroke-linejoin:miter;stroke-opacity:1" d="M 248.1,257.277 257.277,257.277 z" id="boundary" inkscape:connector-curvature="0" />
	<path style="fill:none;stroke:red;stroke-width:1px;stroke-linecap:butt;stroke-linejoin:miter;stroke-opacity:1" d="M 252.688,146.239 261.865,146.239 z" id="boundary" inkscape:connector-curvature="0" />
	<path style="fill:none;stroke:red;stroke-width:1px;stroke-linecap:butt;stroke-linejoin:miter;stroke-opacity:1" d="M 257.277,257.277 266.453,257.277 z" id="boundary" inkscape:connector-curvature="0" />
	<path style="fill:none;stroke:red;stroke-width:1px;stroke-linecap:butt;stroke-linejoin:miter;stroke-opacity:1" d="M 261.865,146.239 271.042,146.239 z" id="boundary" inkscape:connector-curvature="0" />
	<path style="fill:none;stroke:red;stroke-width:1px;stroke-linecap:butt;stroke-linejoin:miter;stroke-opacity:1" d="M 266.453,257.277 275.63,257.277 z" id="boundary" inkscape:connector-curvature="0" />
	<path style="fill:none;stroke:red;stroke-width:1px;stroke-linecap:butt;stroke-linejoin:miter;stroke-opacity:1" d="M 271.042,146.239 280.218,146.239 z" id="boundary" inkscape:connector-curvature="0" />
	<path style="fill:none;stroke:red;stroke-width:1px;stroke-linecap:butt;stroke-linejoin:miter;stroke-opacity:1" d="M 275.63,257.277 284.807,257.277 z" id="boundary" inkscape:connector-curvature="0" />
	<path style="fill:none;stroke:red;stroke-width:1px;stroke-linecap:butt;stroke-linejoin:miter;stroke-opacity:1" d="M 280.218,146.239 289.395,146.239 z" id="boundary" inkscape:connector-curvature="0" />
	<path style="fill:none;stroke:red;stroke-width:1px;stroke-linecap:butt;stroke-linejoin:miter;stroke-opacity:1" d="M 284.807,257.277 293.983,257.277 z" id="boundary" inkscape:connector-curvature="0" />
	<path style="fill:none;stroke:red;stroke-width:1px;stroke-linecap:butt;stroke-linejoin:miter;stroke-opacity:1" d="M 289.395,146.239 298.572,146.239 z" id="boundary" inkscape:connector-curvature="0" />
	<path style="fill:none;stroke:red;stroke-width:1px;stroke-linecap:butt;stroke-linejoin:miter;stroke-opacity:1" d="M 293.983,257.277 303.16,257.277 z" id="boundary" inkscape:connector-curvature="0" />
	<path style="fill:none;stroke:red;stroke-width:1px;stroke-linecap:butt;stroke-linejoin:miter;stroke-opacity:1" d="M 298.572,146.239 307.748,146.239 z" id="boundary" inkscape:connector-curvature="0" />
	<path style="fill:none;stroke:red;stroke-width:1px;stroke-linecap:butt;stroke-linejoin:miter;stroke-opacity:1" d="M 303.16,257.277 312.337,257.277 z" id="boundary" inkscape:connector-curvature="0" />
	<path style="fill:none;stroke:red;stroke-width:1px;stroke-linecap:butt;stroke-linejoin:miter;stroke-opacity:1" d="M 307.748,146.239 316.925,146.239 z" id="boundary" inkscape:connector-curvature="0" />
	<path style="fill:none;stroke:red;stroke-width:1px;stroke-linecap:butt;stroke-linejoin:miter;stroke-opacity:1" d="M 312.337,257.277 321.513,257.277 z" id="boundary" inkscape:connector-curvature="0" />
	<path style="fill:none;stroke:red;stroke-width:1px;stroke-linecap:butt;stroke-linejoin:miter;stroke-opacity:1" d="M 316.925,146.239 326.102,146.239 z" id="boundary" inkscape:connector-curvature="0" />
	<path style="fill:none;stroke:red;stroke-width:1px;stroke-linecap:butt;stroke-linejoin:miter;stroke-opacity:1" d="M 321.513,257.277 330.69,257.277 z" id="boundary" inkscape:connector-curvature="0" />
	<path style="fill:none;stroke:red;stroke-width:1px;stroke-linecap:butt;stroke-linejoin:miter;stroke-opacity:1" d="M 326.102,146.239 335.278,146.239 z" id="boundary" inkscape:connector-curvature="0" />
	<path style="fill:none;stroke:red;stroke-width:1px;stroke-linecap:butt;stroke-linejoin:miter;stroke-opacity:1" d="M 330.69,257.277 339.867,257.277 z" id="boundary" inkscape:connector-curvature="0" />
	<path style="fill:none;stroke:red;stroke-width:1px;stroke-linecap:butt;stroke-linejoin:miter;stroke-opacity:1" d="M 335.278,146.239 344.455,146.239 z" id="boundary" inkscape:connector-curvature="0" />
	<path style="fill:none;stroke:red;stroke-width:1px;stroke-linecap:butt;stroke-linejoin:miter;stroke-opacity:1" d="M 339.867,257.277 349.043,257.277 z" id="boundary" inkscape:connector-curvature="0" />
	<path style="fill:none;stroke:red;stroke-width:1px;stroke-linecap:butt;stroke-linejoin:miter;stroke-opacity:1" d="M 344.455,146.239 353.632,146.239 z" id="boundary" inkscape:connector-curvature="0" />
	<path style="fill:none;stroke:red;stroke-width:1px;stroke-linecap:butt;stroke-linejoin:miter;stroke-opacity:1" d="M 349.043,257.277 358.22,257.277 z" id="boundary" inkscape:connector-curvature="0" />
	<path style="fill:none;stroke:red;stroke-width:1px;stroke-linecap:butt;stroke-linejoin:miter;stroke-opacity:1" d="M 353.632,146.239 362.809,146.239 z" id="boundary" inkscape:connector-curvature="0" />
	<path style="fill:none;stroke:red;stroke-width:1px;stroke-linecap:butt;stroke-linejoin:miter;stroke-opacity:1" d="M 358.22,257.277 367.397,257.277 z" id="boundary" inkscape:connector-curvature="0" />
	<path style="fill:none;stroke:red;stroke-width:1px;stroke-linecap:butt;stroke-linejoin:miter;stroke-opacity:1" d="M 362.809,146.239 371.985,146.239 z" id="boundary" inkscape:connector-curvature="0" />
	<path style="fill:none;stroke:red;stroke-width:1px;stroke-linecap:butt;stroke-linejoin:miter;stroke-opacity:1" d="M 367.397,257.277 376.574,257.277 z" id="boundary" inkscape:connector-curvature="0" />
	<path style="fill:none;stroke:red;stroke-width:1px;stroke-linecap:butt;stroke-linejoin:miter;stroke-opacity:1" d="M 371.985,146.239 381.162,146.239 z" id="boundary" inkscape:connector-curvature="0" />
	<path style="fill:none;stroke:red;stroke-width:1px;stroke-linecap:butt;stroke-linejoin:miter;stroke-opacity:1" d="M 376.574,257.277 385.75,257.277 z" id="boundary" inkscape:connector-curvature="0" />
	<path style="fill:none;stroke:red;stroke-width:1px;stroke-linecap:butt;stroke-linejoin:miter;stroke-opacity:1" d="M 381.162,146.239 390.339,146.239 z" id="boundary" inkscape:connector-curvature="0" />
	<path style="fill:none;stroke:red;stroke-width:1px;stroke-linecap:butt;stroke-linejoin:miter;stroke-opacity:1" d="M 385.75,257.277 394.927,257.277 z" id="boundary" inkscape:connector-curvature="0" />
	<path style="fill:none;stroke:red;stroke-width:1px;stroke-linecap:butt;stroke-linejoin:miter;stroke-opacity:1" d="M 390.339,146.239 399.515,146.239 z" id="boundary" inkscape:connector-curvature="0" />
	<path style="fill:none;stroke:red;stroke-width:1px;stroke-linecap:butt;stroke-linejoin:miter;stroke-opacity:1" d="M 394.927,257.277 404.104,257.277 z" id="boundary" inkscape:connector-curvature="0" />
	<path style="fill:none;stroke:red;stroke-width:1px;stroke-linecap:butt;stroke-linejoin:miter;stroke-opacity:1" d="M 399.515,146.239 408.692,146.239 z" id="boundary" inkscape:connector-curvature="0" />
	<path style="fill:none;stroke:red;stroke-width:1px;stroke-linecap:butt;stroke-linejoin:miter;stroke-opacity:1" d="M 404.104,257.277 413.28,257.277 z" id="boundary" inkscape:connector-curvature="0" />
	<path style="fill:none;stroke:red;stroke-width:1px;stroke-linecap:butt;stroke-linejoin:miter;stroke-opacity:1" d="M 408.692,146.239 417.869,146.239 z" id="boundary" inkscape:connector-curvature="0" />
	<path style="fill:none;stroke:red;stroke-width:1px;stroke-linecap:butt;stroke-linejoin:miter;stroke-opacity:1" d="M 413.28,257.277 422.457,257.277 z" id="boundary" inkscape:connector-curvature="0" />
	<path style="fill:none;stroke:red;stroke-width:1px;stroke-linecap:butt;stroke-linejoin:miter;stroke-opacity:1" d="M 417.869,146.239 427.045,146.239 z" id="boundary" inkscape:connector-curvature="0" />
	<path style="fill:none;stroke:red;stroke-width:1px;stroke-linecap:butt;stroke-linejoin:miter;stroke-opacity:1" d="M 422.457,257.277 431.634,257.277 z" id="boundary" inkscape:connector-curvature="0" />
	<path style="fill:none;stroke:red;stroke-width:1px;stroke-linecap:butt;stroke-linejoin:miter;stroke-opacity:1" d="M 427.045,146.239 436.222,146.239 z" id="boundary" inkscape:connector-curvature="0" />
	<path style="fill:none;stroke:red;stroke-width:1px;stroke-linecap:butt;stroke-linejoin:miter;stroke-opacity:1" d="M 431.634,257.277 440.81,257.277 z" id="boundary" inkscape:connector-curvature="0" />
	<path style="fill:none;stroke:red;stroke-width:1px;stroke-linecap:butt;stroke-linejoin:miter;stroke-opacity:1" d="M 436.222,146.239 445.399,146.239 z" id="boundary" inkscape:connector-curvature="0" />
	<path style="fill:none;stroke:red;stroke-width:1px;stroke-linecap:butt;stroke-linejoin:miter;stroke-opacity:1" d="M 440.81,257.277 449.987,257.277 z" id="boundary" inkscape:connector-curvature="0" />
	<path style="fill:none;stroke:red;stroke-width:1px;stroke-linecap:butt;stroke-linejoin:miter;stroke-opacity:1" d="M 445.399,146.239 454.575,146.239 z" id="boundary" inkscape:connector-curvature="0" />
	<path style="fill:none;stroke:red;stroke-width:1px;stroke-linecap:butt;stroke-linejoin:miter;stroke-opacity:1" d="M 449.987,257.277 459.164,257.277 z" id="boundary" inkscape:connector-curvature="0" />
	<path style="fill:none;stroke:red;stroke-width:1px;stroke-linecap:butt;stroke-linejoin:miter;stroke-opacity:1" d="M 454.575,146.239 463.752,146.239 z" id="boundary" inkscape:connector-curvature="0" />
	<path style="fill:none;stroke:red;stroke-width:1px;stroke-linecap:butt;stroke-linejoin:miter;stroke-opacity:1" d="M 459.164,257.277 468.34,257.277 z" id="boundary" inkscape:connector-curvature="0" />
	<path style="fill:none;stroke:red;stroke-width:1px;stroke-linecap:butt;stroke-linejoin:miter;stroke-opacity:1" d="M 463.752,146.239 472.929,146.239 z" id="boundary" inkscape:connector-curvature="0" />
	<path style="fill:none;stroke:red;stroke-width:1px;stroke-linecap:butt;stroke-linejoin:miter;stroke-opacity:1" d="M 468.34,257.277 477.517,257.277 z" id="boundary" inkscape:connector-curvature="0" />
	<path style="fill:none;stroke:red;stroke-width:1px;stroke-linecap:butt;stroke-linejoin:miter;stroke-opacity:1" d="M 472.929,146.239 482.105,146.239 z" id="boundary" inkscape:connector-curvature="0" />
	<path style="fill:none;stroke:red;stroke-width:1px;stroke-linecap:butt;stroke-linejoin:miter;stroke-opacity:1" d="M 477.517,257.277 486.694,257.277 z" id="boundary" inkscape:connector-curvature="0" />
	<path style="fill:none;stroke:red;stroke-width:1px;stroke-linecap:butt;stroke-linejoin:miter;stroke-opacity:1" d="M 482.105,146.239 491.282,146.239 z" id="boundary" inkscape:connector-curvature="0" />
	<path style="fill:none;stroke:red;stroke-width:1px;stroke-linecap:butt;stroke-linejoin:miter;stroke-opacity:1" d="M 486.694,257.277 495.87,257.277 z" id="boundary" inkscape:connector-curvature="0" />
	<path style="fill:none;stroke:red;stroke-width:1px;stroke-linecap:butt;stroke-linejoin:miter;stroke-opacity:1" d="M 491.282,146.239 500.459,146.239 z" id="boundary" inkscape:connector-curvature="0" />
	<path style="fill:none;stroke:red;stroke-width:1px;stroke-linecap:butt;stroke-linejoin:miter;stroke-opacity:1" d="M 495.87,257.277 505.047,257.277 z" id="boundary" inkscape:connector-curvature="0" />
	<path style="fill:none;stroke:red;stroke-width:1px;stroke-linecap:butt;stroke-linejoin:miter;stroke-opacity:1" d="M 500.459,146.239 509.636,146.239 z" id="boundary" inkscape:connector-curvature="0" />
	<path style="fill:none;stroke:red;stroke-width:1px;stroke-linecap:butt;stroke-linejoin:miter;stroke-opacity:1" d="M 505.047,257.277 514.224,257.277 z" id="boundary" inkscape:connector-curvature="0" />
	<path style="fill:none;stroke:red;stroke-width:1px;stroke-linecap:butt;stroke-linejoin:miter;stroke-opacity:1" d="M 509.636,146.239 518.812,146.239 z" id="boundary" inkscape:connector-curvature="0" />
	<path style="fill:none;stroke:red;stroke-width:1px;stroke-linecap:butt;stroke-linejoin:miter;stroke-opacity:1" d="M 514.224,257.277 523.401,257.277 z" id="boundary" inkscape:connector-curvature="0" />
	<path style="fill:none;stroke:red;stroke-width:1px;stroke-linecap:butt;stroke-linejoin:miter;stroke-opacity:1" d="M 518.812,146.239 527.989,146.239 z" id="boundary" inkscape:connector-curvature="0" />
	<path style="fill:none;stroke:red;stroke-width:1px;stroke-linecap:butt;stroke-linejoin:miter;stroke-opacity:1" d="M 523.401,257.277 532.577,257.277 z" id="boundary" inkscape:connector-curvature="0" />
	<path style="fill:none;stroke:red;stroke-width:1px;stroke-linecap:butt;stroke-linejoin:miter;stroke-opacity:1" d="M 527.989,146.239 537.166,146.239 z" id="boundary" inkscape:connector-curvature="0" />
	<path style="fill:none;stroke:red;stroke-width:1px;stroke-linecap:butt;stroke-linejoin:miter;stroke-opacity:1" d="M 532.577,257.277 541.754,257.277 z" id="boundary" inkscape:connector-curvature="0" />
	<path style="fill:none;stroke:red;stroke-width:1px;stroke-linecap:butt;stroke-linejoin:miter;stroke-opacity:1" d="M 537.166,146.239 546.342,146.239 z" id="boundary" inkscape:connector-curvature="0" />
	<path style="fill:none;stroke:red;stroke-width:1px;stroke-linecap:butt;stroke-linejoin:miter;stroke-opacity:1" d="M 541.754,257.277 550.931,257.277 z" id="boundary" inkscape:connector-curvature="0" />
	<path style="fill:none;stroke:red;stroke-width:1px;stroke-linecap:butt;stroke-linejoin:miter;stroke-opacity:1" d="M 546.342,146.239 555.519,146.239 z" id="boundary" inkscape:connector-curvature="0" />
	<path style="fill:none;stroke:red;stroke-width:1px;stroke-linecap:butt;stroke-linejoin:miter;stroke-opacity:1" d="M 550.931,257.277 560.107,257.277 z" id="boundary" inkscape:connector-curvature="0" />
	<path style="fill:none;stroke:red;stroke-width:1px;stroke-linecap:butt;stroke-linejoin:miter;stroke-opacity:1" d="M 555.519,146.239 564.696,146.239 z" id="boundary" inkscape:connector-curvature="0" />
	<path style="fill:none;stroke:red;stroke-width:1px;stroke-linecap:butt;stroke-linejoin:miter;stroke-opacity:1" d="M 560.107,257.277 569.284,257.277 z" id="boundary" inkscape:connector-curvature="0" />
	<path style="fill:none;stroke:red;stroke-width:1px;stroke-linecap:butt;stroke-linejoin:miter;stroke-opacity:1" d="M 564.696,146.239 573.872,146.239 z" id="boundary" inkscape:connector-curvature="0" />
	<path style="fill:none;stroke:red;stroke-width:1px;stroke-linecap:butt;stroke-linejoin:miter;stroke-opacity:1" d="M 569.284,257.277 578.461,257.277 z" id="boundary" inkscape:connector-curvature="0" />
	<path style="fill:none;stroke:red;stroke-width:1px;stroke-linecap:butt;stroke-linejoin:miter;stroke-opacity:1" d="M 573.872,146.239 583.049,146.239 z" id="boundary" inkscape:connector-curvature="0" />
	<path style="fill:none;stroke:red;stroke-width:1px;stroke-linecap:butt;stroke-linejoin:miter;stroke-opacity:1" d="M 578.461,257.277 587.637,257.277 z" id="boundary" inkscape:connector-curvature="0" />
	<path style="fill:none;stroke:red;stroke-width:1px;stroke-linecap:butt;stroke-linejoin:miter;stroke-opacity:1" d="M 583.049,146.239 592.226,146.239 z" id="boundary" inkscape:connector-curvature="0" />
	<path style="fill:none;stroke:red;stroke-width:1px;stroke-linecap:butt;stroke-linejoin:miter;stroke-opacity:1" d="M 587.637,257.277 596.814,257.277 z" id="boundary" inkscape:connector-curvature="0" />
	<path style="fill:none;stroke:red;stroke-width:1px;stroke-linecap:butt;stroke-linejoin:miter;stroke-opacity:1" d="M 592.226,146.239 601.402,146.239 z" id="boundary" inkscape:connector-curvature="0" />
	<path style="fill:none;stroke:red;stroke-width:1px;stroke-linecap:butt;stroke-linejoin:miter;stroke-opacity:1" d="M 596.814,257.277 605.991,257.277 z" id="boundary" inkscape:connector-curvature="0" />
	<path style="fill:none;stroke:red;stroke-width:1px;stroke-linecap:butt;stroke-linejoin:miter;stroke-opacity:1" d="M 601.402,146.239 610.579,146.239 z" id="boundary" inkscape:connector-curvature="0" />
	<path style="fill:none;stroke:red;stroke-width:1px;stroke-linecap:butt;stroke-linejoin:miter;stroke-opacity:1" d="M 605.991,257.277 615.167,257.277 z" id="boundary" inkscape:connector-curvature="0" />
	<path style="fill:none;stroke:red;stroke-width:1px;stroke-linecap:butt;stroke-linejoin:miter;stroke-opacity:1" d="M 610.579,146.239 619.756,146.239 z" id="boundary" inkscape:connector-curvature="0" />
	<path style="fill:none;stroke:red;stroke-width:1px;stroke-linecap:butt;stroke-linejoin:miter;stroke-opacity:1" d="M 615.167,257.277 624.344,257.277 z" id="boundary" inkscape:connector-curvature="0" />
	<path style="fill:none;stroke:red;stroke-width:1px;stroke-linecap:butt;stroke-linejoin:miter;stroke-opacity:1" d="M 619.756,146.239 628.932,146.239 z" id="boundary" inkscape:connector-curvature="0" />
	<path style="fill:none;stroke:red;stroke-width:1px;stroke-linecap:butt;stroke-linejoin:miter;stroke-opacity:1" d="M 624.344,257.277 633.521,257.277 z" id="boundary" inkscape:connector-curvature="0" />
	<path style="fill:none;stroke:red;stroke-width:1px;stroke-linecap:butt;stroke-linejoin:miter;stroke-opacity:1" d="M 628.932,146.239 638.109,146.239 z" id="boundary" inkscape:connector-curvature="0" />
	<path style="fill:none;stroke:red;stroke-width:1px;stroke-linecap:butt;stroke-linejoin:miter;stroke-opacity:1" d="M 633.521,257.277 642.698,257.277 z" id="boundary" inkscape:connector-curvature="0" />
	<path style="fill:none;stroke:red;stroke-width:1px;stroke-linecap:butt;stroke-linejoin:miter;stroke-opacity:1" d="M 638.109,146.239 647.286,146.239 z" id="boundary" inkscape:connector-curvature="0" />
	<path style="fill:none;stroke:red;stroke-width:1px;stroke-linecap:butt;stroke-linejoin:miter;stroke-opacity:1" d="M 642.698,257.277 651.874,257.277 z" id="boundary" inkscape:connector-curvature="0" />
	<path style="fill:none;stroke:red;stroke-width:1px;stroke-linecap:butt;stroke-linejoin:miter;stroke-opacity:1" d="M 647.286,146.239 656.463,146.239 z" id="boundary" inkscape:connector-curvature="0" />
	<path style="fill:none;stroke:red;stroke-width:1px;stroke-linecap:butt;stroke-linejoin:miter;stroke-opacity:1" d="M 651.874,257.277 661.051,257.277 z" id="boundary" inkscape:connector-curvature="0" />
	<path style="fill:none;stroke:red;stroke-width:1px;stroke-linecap:butt;stroke-linejoin:miter;stroke-opacity:1" d="M 656.463,146.239 665.639,146.239 z" id="boundary" inkscape:connector-curvature="0" />
	<path style="fill:none;stroke:red;stroke-width:1px;stroke-linecap:butt;stroke-linejoin:miter;stroke-opacity:1" d="M 661.051,257.277 670.228,257.277 z" id="boundary" inkscape:connector-curvature="0" />
	<path style="fill:none;stroke:red;stroke-width:1px;stroke-linecap:butt;stroke-linejoin:miter;stroke-opacity:1" d="M 665.639,146.239 674.816,146.239 z" id="boundary" inkscape:connector-curvature="0" />
	<path style="fill:none;stroke:red;stroke-width:1px;stroke-linecap:butt;stroke-linejoin:miter;stroke-opacity:1" d="M 670.228,257.277 679.404,257.277 z" id="boundary" inkscape:connector-curvature="0" />
	<path style="fill:none;stroke:red;stroke-width:1px;stroke-linecap:butt;stroke-linejoin:miter;stroke-opacity:1" d="M 674.816,146.239 683.993,146.239 z" id="boundary" inkscape:connector-curvature="0" />
	<path style="fill:none;stroke:red;stroke-width:1px;stroke-linecap:butt;stroke-linejoin:miter;stroke-opacity:1" d="M 679.404,257.277 688.581,257.277 z" id="boundary" inkscape:connector-curvature="0" />
	<path style="fill:none;stroke:red;stroke-width:1px;stroke-linecap:butt;stroke-linejoin:miter;stroke-opacity:1" d="M 683.993,146.239 693.169,146.239 z" id="boundary" inkscape:connector-curvature="0" />
	<path style="fill:none;stroke:red;stroke-width:1px;stroke-linecap:butt;stroke-linejoin:miter;stroke-opacity:1" d="M 688.581,257.277 697.758,257.277 z" id="boundary" inkscape:connector-curvature="0" />
	<path style="fill:none;stroke:red;stroke-width:1px;stroke-linecap:butt;stroke-linejoin:miter;stroke-opacity:1" d="M 693.169,146.239 702.346,146.239 z" id="boundary" inkscape:connector-curvature="0" />
	<path style="fill:none;stroke:red;stroke-width:1px;stroke-linecap:butt;stroke-linejoin:miter;stroke-opacity:1" d="M 697.758,257.277 706.934,257.277 z" id="boundary" inkscape:connector-curvature="0" />
	<path style="fill:none;stroke:red;stroke-width:1px;stroke-linecap:butt;stroke-linejoin:miter;stroke-opacity:1" d="M 702.346,146.239 711.523,146.239 z" id="boundary" inkscape:connector-curvature="0" />
	<path style="fill:none;stroke:red;stroke-width:1px;stroke-linecap:butt;stroke-linejoin:miter;stroke-opacity:1" d="M 706.934,257.277 716.111,257.277 z" id="boundary" inkscape:connector-curvature="0" />
	<path style="fill:none;stroke:red;stroke-width:1px;stroke-linecap:butt;stroke-linejoin:miter;stroke-opacity:1" d="M 711.523,146.239 720.699,146.239 z" id="boundary" inkscape:connector-curvature="0" />
	<path style="fill:none;stroke:red;stroke-width:1px;stroke-linecap:butt;stroke-linejoin:miter;stroke-opacity:1" d="M 716.111,257.277 725.288,257.277 z" id="boundary" inkscape:connector-curvature="0" />
	<path style="fill:none;stroke:red;stroke-width:1px;stroke-linecap:butt;stroke-linejoin:miter;stroke-opacity:1" d="M 720.699,146.239 729.876,146.239 z" id="boundary" inkscape:connector-curvature="0" />
	<path style="fill:none;stroke:red;stroke-width:1px;stroke-linecap:butt;stroke-linejoin:miter;stroke-opacity:1" d="M 725.288,257.277 734.464,257.277 z" id="boundary" inkscape:connector-curvature="0" />
	<path style="fill:none;stroke:red;stroke-width:1px;stroke-linecap:butt;stroke-linejoin:miter;stroke-opacity:1" d="M 729.876,146.239 739.053,146.239 z" id="boundary" inkscape:connector-curvature="0" />
	<path style="fill:none;stroke:red;stroke-width:1px;stroke-linecap:butt;stroke-linejoin:miter;stroke-opacity:1" d="M 734.464,257.277 743.641,257.277 z" id="boundary" inkscape:connector-curvature="0" />
	<path style="fill:none;stroke:red;stroke-width:1px;stroke-linecap:butt;stroke-linejoin:miter;stroke-opacity:1" d="M 739.053,146.239 748.229,146.239 z" id="boundary" inkscape:connector-curvature="0" />
	<path style="fill:none;stroke:red;stroke-width:1px;stroke-linecap:butt;stroke-linejoin:miter;stroke-opacity:1" d="M 743.641,257.277 752.818,257.277 z" id="boundary" inkscape:connector-curvature="0" />
	<path style="fill:none;stroke:red;stroke-width:1px;stroke-linecap:butt;stroke-linejoin:miter;stroke-opacity:1" d="M 748.229,146.239 757.406,146.239 z" id="boundary" inkscape:connector-curvature="0" />
	<path style="fill:none;stroke:red;stroke-width:1px;stroke-linecap:butt;stroke-linejoin:miter;stroke-opacity:1" d="M 752.818,257.277 761.994,257.277 z" id="boundary" inkscape:connector-curvature="0" />
	<path style="fill:none;stroke:red;stroke-width:1px;stroke-linecap:butt;stroke-linejoin:miter;stroke-opacity:1" d="M 757.406,146.239 766.583,146.239 z" id="boundary" inkscape:connector-curvature="0" />
	<path style="fill:none;stroke:red;stroke-width:1px;stroke-linecap:butt;stroke-linejoin:miter;stroke-opacity:1" d="M 761.994,257.277 771.171,257.277 z" id="boundary" inkscape:connector-curvature="0" />
	<path style="fill:none;stroke:red;stroke-width:1px;stroke-linecap:butt;stroke-linejoin:miter;stroke-opacity:1" d="M 766.583,146.239 775.759,146.239 z" id="boundary" inkscape:connector-curvature="0" />
	<path style="fill:none;stroke:red;stroke-width:1px;stroke-linecap:butt;stroke-linejoin:miter;stroke-opacity:1" d="M 771.171,257.277 780.348,257.277 z" id="boundary" inkscape:connector-curvature="0" />
	<path style="fill:none;stroke:red;stroke-width:1px;stroke-linecap:butt;stroke-linejoin:miter;stroke-opacity:1" d="M 775.759,146.239 784.936,146.239 z" id="boundary" inkscape:connector-curvature="0" />
	<path style="fill:none;stroke:red;stroke-width:1px;stroke-linecap:butt;stroke-linejoin:miter;stroke-opacity:1" d="M 780.348,257.277 789.525,257.277 z" id="boundary" inkscape:connector-curvature="0" />
	<path style="fill:none;stroke:red;stroke-width:1px;stroke-linecap:butt;stroke-linejoin:miter;stroke-opacity:1" d="M 784.936,146.239 794.113,146.239 z" id="boundary" inkscape:connector-curvature="0" />
	<path style="fill:none;stroke:red;stroke-width:1px;stroke-linecap:butt;stroke-linejoin:miter;stroke-opacity:1" d="M 789.525,257.277 798.701,257.277 z" id="boundary" inkscape:connector-curvature="0" />
	<path style="fill:none;stroke:red;stroke-width:1px;stroke-linecap:butt;stroke-linejoin:miter;stroke-opacity:1" d="M 794.113,146.239 803.29,146.239 z" id="boundary" inkscape:connector-curvature="0" />
	<path style="fill:none;stroke:red;stroke-width:1px;stroke-linecap:butt;stroke-linejoin:miter;stroke-opacity:1" d="M 798.701,257.277 807.878,257.277 z" id="boundary" inkscape:connector-curvature="0" />
	<path style="fill:none;stroke:red;stroke-width:1px;stroke-linecap:butt;stroke-linejoin:miter;stroke-opacity:1" d="M 803.29,146.239 812.466,146.239 z" id="boundary" inkscape:connector-curvature="0" />
	<path style="fill:none;stroke:red;stroke-width:1px;stroke-linecap:butt;stroke-linejoin:miter;stroke-opacity:1" d="M 807.878,257.277 817.055,257.277 z" id="boundary" inkscape:connector-curvature="0" />
	<path style="fill:none;stroke:red;stroke-width:1px;stroke-linecap:butt;stroke-linejoin:miter;stroke-opacity:1" d="M 812.466,146.239 821.643,146.239 z" id="boundary" inkscape:connector-curvature="0" />
	<path style="fill:none;stroke:red;stroke-width:1px;stroke-linecap:butt;stroke-linejoin:miter;stroke-opacity:1" d="M 817.055,257.277 826.231,257.277 z" id="boundary" inkscape:connector-curvature="0" />
	<path style="fill:none;stroke:red;stroke-width:1px;stroke-linecap:butt;stroke-linejoin:miter;stroke-opacity:1" d="M 821.643,146.239 830.82,146.239 z" id="boundary" inkscape:connector-curvature="0" />
	<path style="fill:none;stroke:red;stroke-width:1px;stroke-linecap:butt;stroke-linejoin:miter;stroke-opacity:1" d="M 826.231,257.277 835.408,257.277 z" id="boundary" inkscape:connector-curvature="0" />
	<path style="fill:none;stroke:red;stroke-width:1px;stroke-linecap:butt;stroke-linejoin:miter;stroke-opacity:1" d="M 830.82,146.239 839.996,146.239 z" id="boundary" inkscape:connector-curvature="0" />
	<path style="fill:none;stroke:red;stroke-width:1px;stroke-linecap:butt;stroke-linejoin:miter;stroke-opacity:1" d="M 835.408,257.277 844.585,257.277 z" id="boundary" inkscape:connector-curvature="0" />
	<path style="fill:none;stroke:red;stroke-width:1px;stroke-linecap:butt;stroke-linejoin:miter;stroke-opacity:1" d="M 839.996,146.239 849.173,146.239 z" id="boundary" inkscape:connector-curvature="0" />
	<path style="fill:none;stroke:red;stroke-width:1px;stroke-linecap:butt;stroke-linejoin:miter;stroke-opacity:1" d="M 844.585,257.277 853.761,257.277 z" id="boundary" inkscape:connector-curvature="0" />
	<path style="fill:none;stroke:red;stroke-width:1px;stroke-linecap:butt;stroke-linejoin:miter;stroke-opacity:1" d="M 849.173,146.239 858.35,146.239 z" id="boundary" inkscape:connector-curvature="0" />
	<path style="fill:none;stroke:red;stroke-width:1px;stroke-linecap:butt;stroke-linejoin:miter;stroke-opacity:1" d="M 853.761,257.277 862.938,257.277 z" id="boundary" inkscape:connector-curvature="0" />
	<path style="fill:none;stroke:red;stroke-width:1px;stroke-linecap:butt;stroke-linejoin:miter;stroke-opacity:1" d="M 858.35,146.239 867.526,146.239 z" id="boundary" inkscape:connector-curvature="0" />
	<path style="fill:none;stroke:red;stroke-width:1px;stroke-linecap:butt;stroke-linejoin:miter;stroke-opacity:1" d="M 862.938,257.277 872.115,257.277 z" id="boundary" inkscape:connector-curvature="0" />
	<path style="fill:none;stroke:red;stroke-width:1px;stroke-linecap:butt;stroke-linejoin:miter;stroke-opacity:1" d="M 867.526,146.239 876.703,146.239 z" id="boundary" inkscape:connector-curvature="0" />
	<path style="fill:none;stroke:red;stroke-width:1px;stroke-linecap:butt;stroke-linejoin:miter;stroke-opacity:1" d="M 872.115,257.277 881.291,257.277 z" id="boundary" inkscape:connector-curvature="0" />
	<path style="fill:none;stroke:red;stroke-width:1px;stroke-linecap:butt;stroke-linejoin:miter;stroke-opacity:1" d="M 876.703,146.239 885.88,146.239 z" id="boundary" inkscape:connector-curvature="0" />
	<path style="fill:none;stroke:red;stroke-width:1px;stroke-linecap:butt;stroke-linejoin:miter;stroke-opacity:1" d="M 881.291,257.277 890.468,257.277 z" id="boundary" inkscape:connector-curvature="0" />
	<path style="fill:none;stroke:red;stroke-width:1px;stroke-linecap:butt;stroke-linejoin:miter;stroke-opacity:1" d="M 885.88,146.239 895.056,146.239 z" id="boundary" inkscape:connector-curvature="0" />
	<path style="fill:none;stroke:red;stroke-width:1px;stroke-linecap:butt;stroke-linejoin:miter;stroke-opacity:1" d="M 890.468,257.277 899.645,257.277 z" id="boundary" inkscape:connector-curvature="0" />
	<path style="fill:none;stroke:red;stroke-width:1px;stroke-linecap:butt;stroke-linejoin:miter;stroke-opacity:1" d="M 895.056,146.239 904.233,146.239 z" id="boundary" inkscape:connector-curvature="0" />
	<path style="fill:none;stroke:red;stroke-width:1px;stroke-linecap:butt;stroke-linejoin:miter;stroke-opacity:1" d="M 899.645,257.277 908.821,257.277 z" id="boundary" inkscape:connector-curvature="0" />
	<path style="fill:none;stroke:red;stroke-width:1px;stroke-linecap:butt;stroke-linejoin:miter;stroke-opacity:1" d="M 904.233,146.239 913.41,146.239 z" id="boundary" inkscape:connector-curvature="0" />
	<path style="fill:none;stroke:red;stroke-width:1px;stroke-linecap:butt;stroke-linejoin:miter;stroke-opacity:1" d="M 908.821,257.277 917.998,257.277 z" id="boundary" inkscape:connector-curvature="0" />
	<path style="fill:none;stroke:red;stroke-width:1px;stroke-linecap:butt;stroke-linejoin:miter;stroke-opacity:1" d="M 913.41,146.239 922.586,146.239 z" id="boundary" inkscape:connector-curvature="0" />
	<path style="fill:none;stroke:red;stroke-width:1px;stroke-linecap:butt;stroke-linejoin:miter;stroke-opacity:1" d="M 917.998,257.277 927.175,257.277 z" id="boundary" inkscape:connector-curvature="0" />
	<path style="fill:none;stroke:red;stroke-width:1px;stroke-linecap:butt;stroke-linejoin:miter;stroke-opacity:1" d="M 922.586,146.239 931.763,146.239 z" id="boundary" inkscape:connector-curvature="0" />
	<path style="fill:none;stroke:red;stroke-width:1px;stroke-linecap:butt;stroke-linejoin:miter;stroke-opacity:1" d="M 927.175,257.277 936.352,257.277 z" id="boundary" inkscape:connector-curvature="0" />
	<path style="fill:none;stroke:red;stroke-width:1px;stroke-linecap:butt;stroke-linejoin:miter;stroke-opacity:1" d="M 931.763,146.239 940.94,146.239 z" id="boundary" inkscape:connector-curvature="0" />
	<path style="fill:none;stroke:red;stroke-width:1px;stroke-linecap:butt;stroke-linejoin:miter;stroke-opacity:1" d="M 936.352,257.277 945.528,257.277 z" id="boundary" inkscape:connector-curvature="0" />
	<path style="fill:none;stroke:red;stroke-width:1px;stroke-linecap:butt;stroke-linejoin:miter;stroke-opacity:1" d="M 940.94,146.239 950.117,146.239 z" id="boundary" inkscape:connector-curvature="0" />
	<path style="fill:none;stroke:red;stroke-width:1px;stroke-linecap:butt;stroke-linejoin:miter;stroke-opacity:1" d="M 945.528,257.277 954.705,257.277 z" id="boundary" inkscape:connector-curvature="0" />
	<path style="fill:none;stroke:red;stroke-width:1px;stroke-linecap:butt;stroke-linejoin:miter;stroke-opacity:1" d="M 950.117,146.239 959.293,146.239 z" id="boundary" inkscape:connector-curvature="0" />
	<path style="fill:none;stroke:red;stroke-width:1px;stroke-linecap:butt;stroke-linejoin:miter;stroke-opacity:1" d="M 954.705,257.277 963.882,257.277 z" id="boundary" inkscape:connector-curvature="0" />
	<path style="fill:none;stroke:red;stroke-width:1px;stroke-linecap:butt;stroke-linejoin:miter;stroke-opacity:1" d="M 959.293,146.239 968.47,146.239 z" id="boundary" inkscape:connector-curvature="0" />
	<path style="fill:none;stroke:red;stroke-width:1px;stroke-linecap:butt;stroke-linejoin:miter;stroke-opacity:1" d="M 963.882,257.277 973.058,257.277 z" id="boundary" inkscape:connector-curvature="0" />
	<path style="fill:none;stroke:red;stroke-width:1px;stroke-linecap:butt;stroke-linejoin:miter;stroke-opacity:1" d="M 968.47,146.239 977.647,146.239 z" id="boundary" inkscape:connector-curvature="0" />
	<path style="fill:none;stroke:red;stroke-width:1px;stroke-linecap:butt;stroke-linejoin:miter;stroke-opacity:1" d="M 973.058,257.277 982.235,257.277 z" id="boundary" inkscape:connector-curvature="0" />
	<path style="fill:none;stroke:red;stroke-width:1px;stroke-linecap:butt;stroke-linejoin:miter;stroke-opacity:1" d="M 977.647,146.239 986.823,146.239 z" id="boundary" inkscape:connector-curvature="0" />
	<path style="fill:none;stroke:red;stroke-width:1px;stroke-linecap:butt;stroke-linejoin:miter;stroke-opacity:1" d="M 982.235,257.277 991.412,257.277 z" id="boundary" inkscape:connector-curvature="0" />
	<path style="fill:none;stroke:red;stroke-width:1px;stroke-linecap:butt;stroke-linejoin:miter;stroke-opacity:1" d="M 986.823,146.239 996,148.992 z" id="boundary" inkscape:connector-curvature="0" />
	<path style="fill:none;stroke:red;stroke-width:1px;stroke-linecap:butt;stroke-linejoin:miter;stroke-opacity:1" d="M 991.412,257.277 996,240.759 z" id="boundary" inkscape:connector-curvature="0" />
	<path style="fill:none;stroke:red;stroke-width:1px;stroke-linecap:butt;stroke-linejoin:miter;stroke-opacity:1" d="M 996,148.992 996,158.168 z" id="boundary" inkscape:connector-curvature="0" />
	<path style="fill:none;stroke:red;stroke-width:1px;stroke-linecap:butt;stroke-linejoin:miter;stroke-opacity:1" d="M 996,158.168 996,167.345 z" id="boundary" inkscape:connector-curvature="0" />
	<path style="fill:none;stroke:red;stroke-width:1px;stroke-linecap:butt;stroke-linejoin:miter;stroke-opacity:1" d="M 996,167.345 996,176.522 z" id="boundary" inkscape:connector-curvature="0" />
	<path style="fill:none;stroke:red;stroke-width:1px;stroke-linecap:butt;stroke-linejoin:miter;stroke-opacity:1" d="M 996,176.522 996,185.698 z" id="boundary" inkscape:connector-curvature="0" />
	<path style="fill:none;stroke:red;stroke-width:1px;stroke-linecap:butt;stroke-linejoin:miter;stroke-opacity:1" d="M 996,185.698 996,194.875 z" id="boundary" inkscape:connector-curvature="0" />
	<path style="fill:none;stroke:red;stroke-width:1px;stroke-linecap:butt;stroke-linejoin:miter;stroke-opacity:1" d="M 996,194.875 996,204.052 z" id="boundary" inkscape:connector-curvature="0" />
	<path style="fill:none;stroke:red;stroke-width:1px;stroke-linecap:butt;stroke-linejoin:miter;stroke-opacity:1" d="M 996,204.052 996,213.228 z" id="boundary" inkscape:connector-curvature="0" />
	<path style="fill:none;stroke:red;stroke-width:1px;stroke-linecap:butt;stroke-linejoin:miter;stroke-opacity:1" d="M 996,213.228 996,222.405 z" id="boundary" inkscape:connector-curvature="0" />
	<path style="fill:none;stroke:red;stroke-width:1px;stroke-linecap:butt;stroke-linejoin:miter;stroke-opacity:1" d="M 996,222.405 996,231.582 z" id="boundary" inkscape:connector-curvature="0" />
	<path style="fill:none;stroke:red;stroke-width:1px;stroke-linecap:butt;stroke-linejoin:miter;stroke-opacity:1" d="M 996,231.582 996,240.759 z" id="boundary" inkscape:connector-curvature="0" />
	<circle cx="4" cy="6.75301" r="4" fill="#0" id="circle0"/>
	<circle cx="4" cy="15.9297" r="4" fill="#0" id="circle1"/>
	<circle cx="4" cy="25.1064" r="4" fill="#0" id="circle2"/>
	<circle cx="4" cy="34.2831" r="4" fill="#0" id="circle3"/>
	<circle cx="4" cy="43.4598" r="4" fill="#0" id="circle4"/>
	<circle cx="4" cy="52.6364" r="4" fill="#0" id="circle5"/>
	<circle cx="4" cy="61.8131" r="4" fill="#0" id="circle6"/>
	<circle cx="4" cy="70.9898" r="4" fill="#0" id="circle7"/>
	<circle cx="4" cy="80.1665" r="4" fill="#0" id="circle8"/>
	<circle cx="4" cy="89.3432" r="4" fill="#0" id="circle9"/>
	<circle cx="4" cy="98.5199" r="4" fill="#0" id="circle10"/>
	<circle cx="4" cy="107.697" r="4" fill="#0" id="circle11"/>
	<circle cx="4" cy="116.873" r="4" fill="#0" id="circle12"/>
	<circle cx="9.50601" cy="124.215" r="4" fill="#0" id="circle13"/>
	<circle cx="13.1767" cy="4" r="4" fill="#0" id="circle14"/>
	<circle cx="18.6827" cy="124.215" r="4" fill="#0" id="circle15"/>
	<circle cx="22.3534" cy="4" r="4" fill="#0" id="circle16"/>
	<circle cx="22.3534" cy="133.391" r="4" fill="#0" id="circle17"/>
	<circle cx="22.3534" cy="142.568" r="4" fill="#0" id="circle18"/>
	<circle cx="22.3534" cy="151.745" r="4" fill="#0" id="circle19"/>
	<circle cx="22.3534" cy="160.921" r="4" fill="#0" id="circle20"/>
	<circle cx="22.3534" cy="170.098" r="4" fill="#0" id="circle21"/>
	<circle cx="22.3534" cy="179.275" r="4" fill="#0" id="circle22"/>
	<circle cx="22.3534" cy="188.451" r="4" fill="#0" id="circle23"/>
	<circle cx="22.3534" cy="197.628" r="4" fill="#0" id="circle24"/>
	<circle cx="22.3534" cy="206.805" r="4" fill="#0" id="circle25"/>
	<circle cx="22.3534" cy="215.981" r="4" fill="#0" id="circle26"/>
	<circle cx="22.3534" cy="225.158" r="4" fill="#0" id="circle27"/>
	<circle cx="22.3534" cy="234.335" r="4" fill="#0" id="circle28"/>
	<circle cx="22.3534" cy="243.512" r="4" fill="#0" id="circle29"/>
	<circle cx="25.1064" cy="252.688" r="4" fill="#0" id="circle30"/>
	<circle cx="26.9417" cy="261.865" r="4" fill="#0" id="circle31"/>
	<circle cx="26.9417" cy="271.042" r="4" fill="#0" id="circle32"/>
	<circle cx="31.5301" cy="4" r="4" fill="#0" id="circle33"/>
	<circle cx="31.5301" cy="279.301" r="4" fill="#0" id="circle34"/>
	<circle cx="36.1184" cy="287.56" r="4" fill="#0" id="circle35"/>
	<circle cx="40.7068" cy="4" r="4" fill="#0" id="circle36"/>
	<circle cx="40.7068" cy="295.819" r="4" fill="#0" id="circle37"/>
	<circle cx="40.7068" cy="304.995" r="4" fill="#0" id="circle38"/>
	<circle cx="45.2951" cy="313.254" r="4" fill="#0" id="circle39"/>
	<circle cx="49.8834" cy="4" r="4" fill="#0" id="circle40"/>
	<circle cx="49.8834" cy="321.513" r="4" fill="#0" id="circle41"/>
	<circle cx="55.3895" cy="328.855" r="4" fill="#0" id="circle42"/>
	<circle cx="59.0601" cy="4" r="4" fill="#0" id="circle43"/>
	<circle cx="59.9778" cy="337.114" r="4" fill="#0" id="circle44"/>
	<circle cx="66.4015" cy="344.455" r="4" fill="#0" id="circle45"/>
	<circle cx="68.2368" cy="4" r="4" fill="#0" id="circle46"/>
	<circle cx="70.9898" cy="352.714" r="4" fill="#0" id="circle47"/>
	<circle cx="77.4135" cy="4" r="4" fill="#0" id="circle48"/>
	<circle cx="77.4135" cy="360.056" r="4" fill="#0" id="circle49"/>
	<circle cx="82.0019" cy="368.315" r="4" fill="#0" id="circle50"/>
	<circle cx="86.5902" cy="4" r="4" fill="#0" id="circle51"/>
	<circle cx="86.5902" cy="376.574" r="4" fill="#0" id="circle52"/>
	<circle cx="91.1785" cy="384.833" r="4" fill="#0" id="circle53"/>
	<circle cx="95.7669" cy="4" r="4" fill="#0" id="circle54"/>
	<circle cx="96.6846" cy="392.174" r="4" fill="#0" id="circle55"/>
	<circle cx="103.108" cy="399.515" r="4" fill="#0" id="circle56"/>
	<circle cx="104.944" cy="4" r="4" fill="#0" id="circle57"/>
	<circle cx="110.45" cy="405.939" r="4" fill="#0" id="circle58"/>
	<circle cx="114.12" cy="4" r="4" fill="#0" id="circle59"/>
	<circle cx="116.873" cy="413.28" r="4" fill="#0" id="circle60"/>
	<circle cx="123.297" cy="4" r="4" fill="#0" id="circle61"/>
	<circle cx="126.05" cy="416.951" r="4" fill="#0" id="circle62"/>
	<circle cx="132.474" cy="4" r="4" fill="#0" id="circle63"/>
	<circle cx="132.474" cy="424.292" r="4" fill="#0" id="circle64"/>
	<circle cx="141.65" cy="4" r="4" fill="#0" id="circle65"/>
	<circle cx="141.65" cy="427.045" r="4" fill="#0" id="circle66"/>
	<circle cx="149.909" cy="431.634" r="4" fill="#0" id="circle67"/>
	<circle cx="150.827" cy="4" r="4" fill="#0" id="circle68"/>
	<circle cx="158.168" cy="436.222" r="4" fill="#0" id="circle69"/>
	<circle cx="160.004" cy="4" r="4" fill="#0" id="circle70"/>
	<circle cx="166.427" cy="440.81" r="4" fill="#0" id="circle71"/>
	<circle cx="169.18" cy="4" r="4" fill="#0" id="circle72"/>
	<circle cx="173.769" cy="446.316" r="4" fill="#0" id="circle73"/>
	<circle cx="178.357" cy="4" r="4" fill="#0" id="circle74"/>
	<circle cx="182.945" cy="449.987" r="4" fill="#0" id="circle75"/>
	<circle cx="187.534" cy="4" r="4" fill="#0" id="circle76"/>
	<circle cx="191.204" cy="454.575" r="4" fill="#0" id="circle77"/>
	<circle cx="196.71" cy="4" r="4" fill="#0" id="circle78"/>
	<circle cx="199.463" cy="459.164" r="4" fill="#0" id="circle79"/>
	<circle cx="202.216" cy="257.277" r="4" fill="#0" id="circle80"/>
	<circle cx="202.216" cy="266.453" r="4" fill="#0" id="circle81"/>
	<circle cx="202.216" cy="275.63" r="4" fill="#0" id="circle82"/>
	<circle cx="202.216" cy="284.807" r="4" fill="#0" id="circle83"/>
	<circle cx="202.216" cy="293.983" r="4" fill="#0" id="circle84"/>
	<circle cx="204.052" cy="303.16" r="4" fill="#0" id="circle85"/>
	<circle cx="205.887" cy="4" r="4" fill="#0" id="circle86"/>
	<circle cx="206.805" cy="124.215" r="4" fill="#0" id="circle87"/>
	<circle cx="206.805" cy="133.391" r="4" fill="#0" id="circle88"/>
	<circle cx="206.805" cy="142.568" r="4" fill="#0" id="circle89"/>
	<circle cx="206.805" cy="312.337" r="4" fill="#0" id="circle90"/>
	<circle cx="206.805" cy="321.513" r="4" fill="#0" id="circle91"/>
	<circle cx="206.805" cy="330.69" r="4" fill="#0" id="circle92"/>
	<circle cx="208.64" cy="339.867" r="4" fill="#0" id="circle93"/>
	<circle cx="208.64" cy="459.164" r="4" fill="#0" id="circle94"/>
	<circle cx="211.393" cy="257.277" r="4" fill="#0" id="circle95"/>
	<circle cx="211.393" cy="349.043" r="4" fill="#0" id="circle96"/>
	<circle cx="211.393" cy="358.22" r="4" fill="#0" id="circle97"/>
	<circle cx="213.228" cy="367.397" r="4" fill="#0" id="circle98"/>
	<circle cx="215.064" cy="4" r="4" fill="#0" id="circle99"/>
	<circle cx="215.981" cy="124.215" r="4" fill="#0" id="circle100"/>
	<circle cx="215.981" cy="146.239" r="4" fill="#0" id="circle101"/>
	<circle cx="215.981" cy="376.574" r="4" fill="#0" id="circle102"/>
	<circle cx="216.899" cy="463.752" r="4" fill="#0" id="circle103"/>
	<circle cx="217.817" cy="385.75" r="4" fill="#0" id="circle104"/>
	<circle cx="220.57" cy="257.277" r="4" fill="#0" id="circle105"/>
	<circle cx="220.57" cy="394.927" r="4" fill="#0" id="circle106"/>
	<circle cx="220.57" cy="404.104" r="4" fill="#0" id="circle107"/>
	<circle cx="222.405" cy="413.28" r="4" fill="#0" id="circle108"/>
	<circle cx="224.241" cy="5.83534" r="4" fill="#0" id="circle109"/>
	<circle cx="225.158" cy="15.012" r="4" fill="#0" id="circle110"/>
	<circle cx="225.158" cy="24.1887" r="4" fill="#0" id="circle111"/>
	<circle cx="225.158" cy="33.3654" r="4" fill="#0" id="circle112"/>
	<circle cx="225.158" cy="42.5421" r="4" fill="#0" id="circle113"/>
	<circle cx="225.158" cy="51.7188" r="4" fill="#0" id="circle114"/>
	<circle cx="225.158" cy="60.8955" r="4" fill="#0" id="circle115"/>
	<circle cx="225.158" cy="70.0722" r="4" fill="#0" id="circle116"/>
	<circle cx="225.158" cy="79.2488" r="4" fill="#0" id="circle117"/>
	<circle cx="225.158" cy="88.4255" r="4" fill="#0" id="circle118"/>
	<circle cx="225.158" cy="97.6022" r="4" fill="#0" id="circle119"/>
	<circle cx="225.158" cy="106.779" r="4" fill="#0" id="circle120"/>
	<circle cx="225.158" cy="115.956" r="4" fill="#0" id="circle121"/>
	<circle cx="225.158" cy="146.239" r="4" fill="#0" id="circle122"/>
	<circle cx="225.158" cy="422.457" r="4" fill="#0" id="circle123"/>
	<circle cx="226.076" cy="466.505" r="4" fill="#0" id="circle124"/>
	<circle cx="229.747" cy="257.277" r="4" fill="#0" id="circle125"/>
	<circle cx="229.747" cy="430.716" r="4" fill="#0" id="circle126"/>
	<circle cx="229.747" cy="439.893" r="4" fill="#0" id="circle127"/>
	<circle cx="234.335" cy="146.239" r="4" fill="#0" id="circle128"/>
	<circle cx="234.335" cy="448.152" r="4" fill="#0" id="circle129"/>
	<circle cx="235.253" cy="468.34" r="4" fill="#0" id="circle130"/>
	<circle cx="238.923" cy="257.277" r="4" fill="#0" id="circle131"/>
	<circle cx="238.923" cy="456.411" r="4" fill="#0" id="circle132"/>
	<circle cx="243.512" cy="146.239" r="4" fill="#0" id="circle133"/>
	<circle cx="248.1" cy="257.277" r="4" fill="#0" id="circle134"/>
	<circle cx="252.688" cy="146.239" r="4" fill="#0" id="circle135"/>
	<circle cx="257.277" cy="257.277" r="4" fill="#0" id="circle136"/>
	<circle cx="261.865" cy="146.239" r="4" fill="#0" id="circle137"/>
	<circle cx="266.453" cy="257.277" r="4" fill="#0" id="circle138"/>
	<circle cx="271.042" cy="146.239" r="4" fill="#0" id="circle139"/>
	<circle cx="275.63" cy="257.277" r="4" fill="#0" id="circle140"/>
	<circle cx="280.218" cy="146.239" r="4" fill="#0" id="circle141"/>
	<circle cx="284.807" cy="257.277" r="4" fill="#0" id="circle142"/>
	<circle cx="289.395" cy="146.239" r="4" fill="#0" id="circle143"/>
	<circle cx="293.983" cy="257.277" r="4" fill="#0" id="circle144"/>
	<circle cx="298.572" cy="146.239" r="4" fill="#0" id="circle145"/>
	<circle cx="303.16" cy="257.277" r="4" fill="#0" id="circle146"/>
	<circle cx="307.748" cy="146.239" r="4" fill="#0" id="circle147"/>
	<circle cx="312.337" cy="257.277" r="4" fill="#0" id="circle148"/>
	<circle cx="316.925" cy="146.239" r="4" fill="#0" id="circle149"/>
	<circle cx="321.513" cy="257.277" r="4" fill="#0" id="circle150"/>
	<circle cx="326.102" cy="146.239" r="4" fill="#0" id="circle151"/>
	<circle cx="330.69" cy="257.277" r="4" fill="#0" id="circle152"/>
	<circle cx="335.278" cy="146.239" r="4" fill="#0" id="circle153"/>
	<circle cx="339.867" cy="257.277" r="4" fill="#0" id="circle154"/>
	<circle cx="344.455" cy="146.239" r="4" fill="#0" id="circle155"/>
	<circle cx="349.043" cy="257.277" r="4" fill="#0" id="circle156"/>
	<circle cx="353.632" cy="146.239" r="4" fill="#0" id="circle157"/>
	<circle cx="358.22" cy="257.277" r="4" fill="#0" id="circle158"/>
	<circle cx="362.809" cy="146.239" r="4" fill="#0" id="circle159"/>
	<circle cx="367.397" cy="257.277" r="4" fill="#0" id="circle160"/>
	<circle cx="371.985" cy="146.239" r="4" fill="#0" id="circle161"/>
	<circle cx="376.574" cy="257.277" r="4" fill="#0" id="circle162"/>
	<circle cx="381.162" cy="146.239" r="4" fill="#0" id="circle163"/>
	<circle cx="385.75" cy="257.277" r="4" fill="#0" id="circle164"/>
	<circle cx="390.339" cy="146.239" r="4" fill="#0" id="circle165"/>
	<circle cx="394.927" cy="257.277" r="4" fill="#0" id="circle166"/>
	<circle cx="399.515" cy="146.239" r="4" fill="#0" id="circle167"/>
	<circle cx="404.104" cy="257.277" r="4" fill="#0" id="circle168"/>
	<circle cx="408.692" cy="146.239" r="4" fill="#0" id="circle169"/>
	<circle cx="413.28" cy="257.277" r="4" fill="#0" id="circle170"/>
	<circle cx="417.869" cy="146.239" r="4" fill="#0" id="circle171"/>
	<circle cx="422.457" cy="257.277" r="4" fill="#0" id="circle172"/>
	<circle cx="427.045" cy="146.239" r="4" fill="#0" id="circle173"/>
	<circle cx="431.634" cy="257.277" r="4" fill="#0" id="circle174"/>
	<circle cx="436.222" cy="146.239" r="4" fill="#0" id="circle175"/>
	<circle cx="440.81" cy="257.277" r="4" fill="#0" id="circle176"/>
	<circle cx="445.399" cy="146.239" r="4" fill="#0" id="circle177"/>
	<circle cx="449.987" cy="257.277" r="4" fill="#0" id="circle178"/>
	<circle cx="454.575" cy="146.239" r="4" fill="#0" id="circle179"/>
	<circle cx="459.164" cy="257.277" r="4" fill="#0" id="circle180"/>
	<circle cx="463.752" cy="146.239" r="4" fill="#0" id="circle181"/>
	<circle cx="468.34" cy="257.277" r="4" fill="#0" id="circle182"/>
	<circle cx="472.929" cy="146.239" r="4" fill="#0" id="circle183"/>
	<circle cx="477.517" cy="257.277" r="4" fill="#0" id="circle184"/>
	<circle cx="482.105" cy="146.239" r="4" fill="#0" id="circle185"/>
	<circle cx="486.694" cy="257.277" r="4" fill="#0" id="circle186"/>
	<circle cx="491.282" cy="146.239" r="4" fill="#0" id="circle187"/>
	<circle cx="495.87" cy="257.277" r="4" fill="#0" id="circle188"/>
	<circle cx="500.459" cy="146.239" r="4" fill="#0" id="circle189"/>
	<circle cx="505.047" cy="257.277" r="4" fill="#0" id="circle190"/>
	<circle cx="509.636" cy="146.239" r="4" fill="#0" id="circle191"/>
	<circle cx="514.224" cy="257.277" r="4" fill="#0" id="circle192"/>
	<circle cx="518.812" cy="146.239" r="4" fill="#0" id="circle193"/>
	<circle cx="523.401" cy="257.277" r="4" fill="#0" id="circle194"/>
	<circle cx="527.989" cy="146.239" r="4" fill="#0" id="circle195"/>
	<circle cx="532.577" cy="257.277" r="4" fill="#0" id="circle196"/>
	<circle cx="537.166" cy="146.239" r="4" fill="#0" id="circle197"/>
	<circle cx="541.754" cy="257.277" r="4" fill="#0" id="circle198"/>
	<circle cx="546.342" cy="146.239" r="4" fill="#0" id="circle199"/>
	<circle cx="550.931" cy="257.277" r="4" fill="#0" id="circle200"/>
	<circle cx="555.519" cy="146.239" r="4" fill="#0" id="circle201"/>
	<circle cx="560.107" cy="257.277" r="4" fill="#0" id="circle202"/>
	<circle cx="564.696" cy="146.239" r="4" fill="#0" id="circle203"/>
	<circle cx="569.284" cy="257.277" r="4" fill="#0" id="circle204"/>
	<circle cx="573.872" cy="146.239" r="4" fill="#0" id="circle205"/>
	<circle cx="578.461" cy="257.277" r="4" fill="#0" id="circle206"/>
	<circle cx="583.049" cy="146.239" r="4" fill="#0" id="circle207"/>
	<circle cx="587.637" cy="257.277" r="4" fill="#0" id="circle208"/>
	<circle cx="592.226" cy="146.239" r="4" fill="#0" id="circle209"/>
	<circle cx="596.814" cy="257.277" r="4" fill="#0" id="circle210"/>
	<circle cx="601.402" cy="146.239" r="4" fill="#0" id="circle211"/>
	<circle cx="605.991" cy="257.277" r="4" fill="#0" id="circle212"/>
	<circle cx="610.579" cy="146.239" r="4" fill="#0" id="circle213"/>
	<circle cx="615.167" cy="257.277" r="4" fill="#0" id="circle214"/>
	<circle cx="619.756" cy="146.239" r="4" fill="#0" id="circle215"/>
	<circle cx="624.344" cy="257.277" r="4" fill="#0" id="circle216"/>
	<circle cx="628.932" cy="146.239" r="4" fill="#0" id="circle217"/>
	<circle cx="633.521" cy="257.277" r="4" fill="#0" id="circle218"/>
	<circle cx="638.109" cy="146.239" r="4" fill="#0" id="circle219"/>
	<circle cx="642.698" cy="257.277" r="4" fill="#0" id="circle220"/>
	<circle cx="647.286" cy="146.239" r="4" fill="#0" id="circle221"/>
	<circle cx="651.874" cy="257.277" r="4" fill="#0" id="circle222"/>
	<circle cx="656.463" cy="146.239" r="4" fill="#0" id="circle223"/>
	<circle cx="661.051" cy="257.277" r="4" fill="#0" id="circle224"/>
	<circle cx="665.639" cy="146.239" r="4" fill="#0" id="circle225"/>
	<circle cx="670.228" cy="257.277" r="4" fill="#0" id="circle226"/>
	<circle cx="674.816" cy="146.239" r="4" fill="#0" id="circle227"/>
	<circle cx="679.404" cy="257.277" r="4" fill="#0" id="circle228"/>
	<circle cx="683.993" cy="146.239" r="4" fill="#0" id="circle229"/>
	<circle cx="688.581" cy="257.277" r="4" fill="#0" id="circle230"/>
	<circle cx="693.169" cy="146.239" r="4" fill="#0" id="circle231"/>
	<circle cx="697.758" cy="257.277" r="4" fill="#0" id="circle232"/>
	<circle cx="702.346" cy="146.239" r="4" fill="#0" id="circle233"/>
	<circle cx="706.934" cy="257.277" r="4" fill="#0" id="circle234"/>
	<circle cx="711.523" cy="146.239" r="4" fill="#0" id="circle235"/>
	<circle cx="716.111" cy="257.277" r="4" fill="#0" id="circle236"/>
	<circle cx="720.699" cy="146.239" r="4" fill="#0" id="circle237"/>
	<circle cx="725.288" cy="257.277" r="4" fill="#0" id="circle238"/>
	<circle cx="729.876" cy="146.239" r="4" fill="#0" id="circle239"/>
	<circle cx="734.464" cy="257.277" r="4" fill="#0" id="circle240"/>
	<circle cx="739.053" cy="146.239" r="4" fill="#0" id="circle241"/>
	<circle cx="743.641" cy="257.277" r="4" fill="#0" id="circle242"/>
	<circle cx="748.229" cy="146.239" r="4" fill="#0" id="circle243"/>
	<circle cx="752.818" cy="257.277" r="4" fill="#0" id="circle244"/>
	<circle cx="757.406" cy="146.239" r="4" fill="#0" id="circle245"/>
	<circle cx="761.994" cy="257.277" r="4" fill="#0" id="circle246"/>
	<circle cx="766.583" cy="146.239" r="4" fill="#0" id="circle247"/>
	<circle cx="771.171" cy="257.277" r="4" fill="#0" id="circle248"/>
	<circle cx="775.759" cy="146.239" r="4" fill="#0" id="circle249"/>
	<circle cx="780.348" cy="257.277" r="4" fill="#0" id="circle250"/>
	<circle cx="784.936" cy="146.239" r="4" fill="#0" id="circle251"/>
	<circle cx="789.525" cy="257.277" r="4" fill="#0" id="circle252"/>
	<circle cx="794.113" cy="146.239" r="4" fill="#0" id="circle253"/>
	<circle cx="798.701" cy="257.277" r="4" fill="#0" id="circle254"/>
	<circle cx="803.29" cy="146.239" r="4" fill="#0" id="circle255"/>
	<circle cx="807.878" cy="257.277" r="4" fill="#0" id="circle256"/>
	<circle cx="812.466" cy="146.239" r="4" fill="#0" id="circle257"/>
	<circle cx="817.055" cy="257.277" r="4" fill="#0" id="circle258"/>
	<circle cx="821.643" cy="146.239" r="4" fill="#0" id="circle259"/>
	<circle cx="826.231" cy="257.277" r="4" fill="#0" id="circle260"/>
	<circle cx="830.82" cy="146.239" r="4" fill="#0" id="circle261"/>
	<circle cx="835.408" cy="257.277" r="4" fill="#0" id="circle262"/>
	<circle cx="839.996" cy="146.239" r="4" fill="#0" id="circle263"/>
	<circle cx="844.585" cy="257.277" r="4" fill="#0" id="circle264"/>
	<circle cx="849.173" cy="146.239" r="4" fill="#0" id="circle265"/>
	<circle cx="853.761" cy="257.277" r="4" fill="#0" id="circle266"/>
	<circle cx="858.35" cy="146.239" r="4" fill="#0" id="circle267"/>
	<circle cx="862.938" cy="257.277" r="4" fill="#0" id="circle268"/>
	<circle cx="867.526" cy="146.239" r="4" fill="#0" id="circle269"/>
	<circle cx="872.115" cy="257.277" r="4" fill="#0" id="circle270"/>
	<circle cx="876.703" cy="146.239" r="4" fill="#0" id="circle271"/>
	<circle cx="881.291" cy="257.277" r="4" fill="#0" id="circle272"/>
	<circle cx="885.88" cy="146.239" r="4" fill="#0" id="circle273"/>
	<circle cx="890.468" cy="257.277" r="4" fill="#0" id="circle274"/>
	<circle cx="895.056" cy="146.239" r="4" fill="#0" id="circle275"/>
	<circle cx="899.645" cy="257.277" r="4" fill="#0" id="circle276"/>
	<circle cx="904.233" cy="146.239" r="4" fill="#0" id="circle277"/>
	<circle cx="908.821" cy="257.277" r="4" fill="#0" id="circle278"/>
	<circle cx="913.41" cy="146.239" r="4" fill="#0" id="circle279"/>
	<circle cx="917.998" cy="257.277" r="4" fill="#0" id="circle280"/>
	<circle cx="922.586" cy="146.239" r="4" fill="#0" id="circle281"/>
	<circle cx="927.175" cy="257.277" r="4" fill="#0" id="circle282"/>
	<circle cx="931.763" cy="146.239" r="4" fill="#0" id="circle283"/>
	<circle cx="936.352" cy="257.277" r="4" fill="#0" id="circle284"/>
	<circle cx="940.94" cy="146.239" r="4" fill="#0" id="circle285"/>
	<circle cx="945.528" cy="257.277" r="4" fill="#0" id="circle286"/>
	<circle cx="950.117" cy="146.239" r="4" fill="#0" id="circle287"/>
	<circle cx="954.705" cy="257.277" r="4" fill="#0" id="circle288"/>
	<circle cx="959.293" cy="146.239" r="4" fill="#0" id="circle289"/>
	<circle cx="963.882" cy="257.277" r="4" fill="#0" id="circle290"/>
	<circle cx="968.47" cy="146.239" r="4" fill="#0" id="circle291"/>
	<circle cx="973.058" cy="257.277" r="4" fill="#0" id="circle292"/>
	<circle cx="977.647" cy="146.239" r="4" fill="#0" id="circle293"/>
	<circle cx="982.235" cy="257.277" r="4" fill="#0" id="circle294"/>
	<circle cx="986.823" cy="146.239" r="4" fill="#0" id="circle295"/>
	<circle cx="991.412" cy="257.277" r="4" fill="#0" id="circle296"/>
	<circle cx="996" cy="148.992" r="4" fill="#0" id="circle297"/>
	<circle cx="996" cy="158.168" r="4" fill="#0" id="circle298"/>
	<circle cx="996" cy="167.345" r="4" fill="#0" id="circle299"/>
	<circle cx="996" cy="176.522" r="4" fill="#0" id="circle300"/>
	<circle cx="996" cy="185.698" r="4" fill="#0" id="circle301"/>
	<circle cx="996" cy="194.875" r="4" fill="#0" id="circle302"/>
	<circle cx="996" cy="204.052" r="4" fill="#0" id="circle303"/>
	<circle cx="996" cy="213.228" r="4" fill="#0" id="circle304"/>
	<circle cx="996" cy="222.405" r="4" fill="#0" id="circle305"/>
	<circle cx="996" cy="231.582" r="4" fill="#0" id="circle306"/>
	<circle cx="996" cy="240.759" r="4" fill="#0" id="circle307"/>
	</g>
</svg>