<?xml version="1.0" encoding="UTF-8" standalone="no"?>
<!-- Created with CurveBenchmark -->
<svg
	xmlns:dc="http://purl.org/dc/elements/1.1/"
	xmlns:cc="http://creativecommons.org/ns#"
	xmlns:rdf="http://www.w3.org/1999/02/22-rdf-syntax-ns#"
	xmlns:svg="http://www.w3.org/2000/svg"
	xmlns="http://www.w3.org/2000/svg"
	xmlns:sodipodi="http://sodipodi.sourceforge.net/DTD/sodipodi-0.dtd"
	xmlns:inkscape="http://www.inkscape.org/namespaces/inkscape"
	width="1000"
	height="1000"
	id="svg2"
	version="1.1"
	sodipodi:docname="manifold/hnncrust-Heart07.png.txt">
<defs
	id="defs4" />
<metadata
	id="metadata7">
	<rdf:RDF>
		<cc:Work
			rdf:about="">
			<dc:format>image/svg+xml</dc:format>
			<dc:type
				rdf:resource="http://purl.org/dc/dcmitype/StillImage" />
			<dc:title></dc:title>
		</cc:Work>
	</rdf:RDF>
</metadata>
<g
	inkscape:label="Layer 1"
	inkscape:groupmode="layer"
	id="layer1">
	<path style="fill:none;stroke:red;stroke-width:1px;stroke-linecap:butt;stroke-linejoin:miter;stroke-opacity:1" d="M 4,169.962 4,188.821 z" id="boundary" inkscape:connector-curvature="0" />
	<path style="fill:none;stroke:red;stroke-width:1px;stroke-linecap:butt;stroke-linejoin:miter;stroke-opacity:1" d="M 4,169.962 13.4297,151.103 z" id="boundary" inkscape:connector-curvature="0" />
	<path style="fill:none;stroke:red;stroke-width:1px;stroke-linecap:butt;stroke-linejoin:miter;stroke-opacity:1" d="M 4,188.821 4,207.681 z" id="boundary" inkscape:connector-curvature="0" />
	<path style="fill:none;stroke:red;stroke-width:1px;stroke-linecap:butt;stroke-linejoin:miter;stroke-opacity:1" d="M 4,207.681 4,226.54 z" id="boundary" inkscape:connector-curvature="0" />
	<path style="fill:none;stroke:red;stroke-width:1px;stroke-linecap:butt;stroke-linejoin:miter;stroke-opacity:1" d="M 4,226.54 4,245.399 z" id="boundary" inkscape:connector-curvature="0" />
	<path style="fill:none;stroke:red;stroke-width:1px;stroke-linecap:butt;stroke-linejoin:miter;stroke-opacity:1" d="M 4,245.399 4,264.259 z" id="boundary" inkscape:connector-curvature="0" />
	<path style="fill:none;stroke:red;stroke-width:1px;stroke-linecap:butt;stroke-linejoin:miter;stroke-opacity:1" d="M 4,264.259 4,283.118 z" id="boundary" inkscape:connector-curvature="0" />
	<path style="fill:none;stroke:red;stroke-width:1px;stroke-linecap:butt;stroke-linejoin:miter;stroke-opacity:1" d="M 4,283.118 4,301.977 z" id="boundary" inkscape:connector-curvature="0" />
	<path style="fill:none;stroke:red;stroke-width:1px;stroke-linecap:butt;stroke-linejoin:miter;stroke-opacity:1" d="M 4,301.977 4,320.837 z" id="boundary" inkscape:connector-curvature="0" />
	<path style="fill:none;stroke:red;stroke-width:1px;stroke-linecap:butt;stroke-linejoin:miter;stroke-opacity:1" d="M 4,320.837 13.4297,337.81 z" id="boundary" inkscape:connector-curvature="0" />
	<path style="fill:none;stroke:red;stroke-width:1px;stroke-linecap:butt;stroke-linejoin:miter;stroke-opacity:1" d="M 13.4297,151.103 22.8593,132.243 z" id="boundary" inkscape:connector-curvature="0" />
	<path style="fill:none;stroke:red;stroke-width:1px;stroke-linecap:butt;stroke-linejoin:miter;stroke-opacity:1" d="M 13.4297,337.81 22.8593,354.783 z" id="boundary" inkscape:connector-curvature="0" />
	<path style="fill:none;stroke:red;stroke-width:1px;stroke-linecap:butt;stroke-linejoin:miter;stroke-opacity:1" d="M 22.8593,132.243 32.289,113.384 z" id="boundary" inkscape:connector-curvature="0" />
	<path style="fill:none;stroke:red;stroke-width:1px;stroke-linecap:butt;stroke-linejoin:miter;stroke-opacity:1" d="M 22.8593,354.783 32.289,371.757 z" id="boundary" inkscape:connector-curvature="0" />
	<path style="fill:none;stroke:red;stroke-width:1px;stroke-linecap:butt;stroke-linejoin:miter;stroke-opacity:1" d="M 32.289,113.384 41.7186,94.5247 z" id="boundary" inkscape:connector-curvature="0" />
	<path style="fill:none;stroke:red;stroke-width:1px;stroke-linecap:butt;stroke-linejoin:miter;stroke-opacity:1" d="M 32.289,371.757 41.7186,388.73 z" id="boundary" inkscape:connector-curvature="0" />
	<path style="fill:none;stroke:red;stroke-width:1px;stroke-linecap:butt;stroke-linejoin:miter;stroke-opacity:1" d="M 41.7186,94.5247 51.1483,75.6654 z" id="boundary" inkscape:connector-curvature="0" />
	<path style="fill:none;stroke:red;stroke-width:1px;stroke-linecap:butt;stroke-linejoin:miter;stroke-opacity:1" d="M 41.7186,388.73 51.1483,405.703 z" id="boundary" inkscape:connector-curvature="0" />
	<path style="fill:none;stroke:red;stroke-width:1px;stroke-linecap:butt;stroke-linejoin:miter;stroke-opacity:1" d="M 51.1483,75.6654 66.2357,60.5779 z" id="boundary" inkscape:connector-curvature="0" />
	<path style="fill:none;stroke:red;stroke-width:1px;stroke-linecap:butt;stroke-linejoin:miter;stroke-opacity:1" d="M 51.1483,405.703 60.5779,422.677 z" id="boundary" inkscape:connector-curvature="0" />
	<path style="fill:none;stroke:red;stroke-width:1px;stroke-linecap:butt;stroke-linejoin:miter;stroke-opacity:1" d="M 60.5779,422.677 73.7795,437.764 z" id="boundary" inkscape:connector-curvature="0" />
	<path style="fill:none;stroke:red;stroke-width:1px;stroke-linecap:butt;stroke-linejoin:miter;stroke-opacity:1" d="M 66.2357,60.5779 75.6654,41.7186 z" id="boundary" inkscape:connector-curvature="0" />
	<path style="fill:none;stroke:red;stroke-width:1px;stroke-linecap:butt;stroke-linejoin:miter;stroke-opacity:1" d="M 73.7795,437.764 88.8669,449.08 z" id="boundary" inkscape:connector-curvature="0" />
	<path style="fill:none;stroke:red;stroke-width:1px;stroke-linecap:butt;stroke-linejoin:miter;stroke-opacity:1" d="M 75.6654,41.7186 90.7529,26.6312 z" id="boundary" inkscape:connector-curvature="0" />
	<path style="fill:none;stroke:red;stroke-width:1px;stroke-linecap:butt;stroke-linejoin:miter;stroke-opacity:1" d="M 88.8669,449.08 94.5247,467.939 z" id="boundary" inkscape:connector-curvature="0" />
	<path style="fill:none;stroke:red;stroke-width:1px;stroke-linecap:butt;stroke-linejoin:miter;stroke-opacity:1" d="M 90.7529,26.6312 109.612,17.2015 z" id="boundary" inkscape:connector-curvature="0" />
	<path style="fill:none;stroke:red;stroke-width:1px;stroke-linecap:butt;stroke-linejoin:miter;stroke-opacity:1" d="M 94.5247,467.939 111.498,477.369 z" id="boundary" inkscape:connector-curvature="0" />
	<path style="fill:none;stroke:red;stroke-width:1px;stroke-linecap:butt;stroke-linejoin:miter;stroke-opacity:1" d="M 109.612,17.2015 128.471,7.77186 z" id="boundary" inkscape:connector-curvature="0" />
	<path style="fill:none;stroke:red;stroke-width:1px;stroke-linecap:butt;stroke-linejoin:miter;stroke-opacity:1" d="M 111.498,477.369 120.928,494.342 z" id="boundary" inkscape:connector-curvature="0" />
	<path style="fill:none;stroke:red;stroke-width:1px;stroke-linecap:butt;stroke-linejoin:miter;stroke-opacity:1" d="M 120.928,494.342 136.015,505.658 z" id="boundary" inkscape:connector-curvature="0" />
	<path style="fill:none;stroke:red;stroke-width:1px;stroke-linecap:butt;stroke-linejoin:miter;stroke-opacity:1" d="M 128.471,7.77186 147.331,4 z" id="boundary" inkscape:connector-curvature="0" />
	<path style="fill:none;stroke:red;stroke-width:1px;stroke-linecap:butt;stroke-linejoin:miter;stroke-opacity:1" d="M 136.015,505.658 147.331,520.745 z" id="boundary" inkscape:connector-curvature="0" />
	<path style="fill:none;stroke:red;stroke-width:1px;stroke-linecap:butt;stroke-linejoin:miter;stroke-opacity:1" d="M 147.331,4 166.19,4 z" id="boundary" inkscape:connector-curvature="0" />
	<path style="fill:none;stroke:red;stroke-width:1px;stroke-linecap:butt;stroke-linejoin:miter;stroke-opacity:1" d="M 147.331,520.745 162.418,533.947 z" id="boundary" inkscape:connector-curvature="0" />
	<path style="fill:none;stroke:red;stroke-width:1px;stroke-linecap:butt;stroke-linejoin:miter;stroke-opacity:1" d="M 162.418,533.947 179.392,543.376 z" id="boundary" inkscape:connector-curvature="0" />
	<path style="fill:none;stroke:red;stroke-width:1px;stroke-linecap:butt;stroke-linejoin:miter;stroke-opacity:1" d="M 166.19,4 185.049,4 z" id="boundary" inkscape:connector-curvature="0" />
	<path style="fill:none;stroke:red;stroke-width:1px;stroke-linecap:butt;stroke-linejoin:miter;stroke-opacity:1" d="M 179.392,543.376 194.479,556.578 z" id="boundary" inkscape:connector-curvature="0" />
	<path style="fill:none;stroke:red;stroke-width:1px;stroke-linecap:butt;stroke-linejoin:miter;stroke-opacity:1" d="M 185.049,4 203.909,4 z" id="boundary" inkscape:connector-curvature="0" />
	<path style="fill:none;stroke:red;stroke-width:1px;stroke-linecap:butt;stroke-linejoin:miter;stroke-opacity:1" d="M 194.479,556.578 211.452,566.008 z" id="boundary" inkscape:connector-curvature="0" />
	<path style="fill:none;stroke:red;stroke-width:1px;stroke-linecap:butt;stroke-linejoin:miter;stroke-opacity:1" d="M 203.909,4 222.768,4 z" id="boundary" inkscape:connector-curvature="0" />
	<path style="fill:none;stroke:red;stroke-width:1px;stroke-linecap:butt;stroke-linejoin:miter;stroke-opacity:1" d="M 211.452,566.008 220.882,582.981 z" id="boundary" inkscape:connector-curvature="0" />
	<path style="fill:none;stroke:red;stroke-width:1px;stroke-linecap:butt;stroke-linejoin:miter;stroke-opacity:1" d="M 220.882,582.981 239.741,590.525 z" id="boundary" inkscape:connector-curvature="0" />
	<path style="fill:none;stroke:red;stroke-width:1px;stroke-linecap:butt;stroke-linejoin:miter;stroke-opacity:1" d="M 222.768,4 241.627,4 z" id="boundary" inkscape:connector-curvature="0" />
	<path style="fill:none;stroke:red;stroke-width:1px;stroke-linecap:butt;stroke-linejoin:miter;stroke-opacity:1" d="M 239.741,590.525 256.715,599.954 z" id="boundary" inkscape:connector-curvature="0" />
	<path style="fill:none;stroke:red;stroke-width:1px;stroke-linecap:butt;stroke-linejoin:miter;stroke-opacity:1" d="M 241.627,4 260.487,4 z" id="boundary" inkscape:connector-curvature="0" />
	<path style="fill:none;stroke:red;stroke-width:1px;stroke-linecap:butt;stroke-linejoin:miter;stroke-opacity:1" d="M 256.715,599.954 264.259,618.814 z" id="boundary" inkscape:connector-curvature="0" />
	<path style="fill:none;stroke:red;stroke-width:1px;stroke-linecap:butt;stroke-linejoin:miter;stroke-opacity:1" d="M 260.487,4 277.46,13.4297 z" id="boundary" inkscape:connector-curvature="0" />
	<path style="fill:none;stroke:red;stroke-width:1px;stroke-linecap:butt;stroke-linejoin:miter;stroke-opacity:1" d="M 264.259,618.814 281.232,628.243 z" id="boundary" inkscape:connector-curvature="0" />
	<path style="fill:none;stroke:red;stroke-width:1px;stroke-linecap:butt;stroke-linejoin:miter;stroke-opacity:1" d="M 277.46,13.4297 294.433,22.8593 z" id="boundary" inkscape:connector-curvature="0" />
	<path style="fill:none;stroke:red;stroke-width:1px;stroke-linecap:butt;stroke-linejoin:miter;stroke-opacity:1" d="M 281.232,628.243 296.319,639.559 z" id="boundary" inkscape:connector-curvature="0" />
	<path style="fill:none;stroke:red;stroke-width:1px;stroke-linecap:butt;stroke-linejoin:miter;stroke-opacity:1" d="M 294.433,22.8593 311.407,32.289 z" id="boundary" inkscape:connector-curvature="0" />
	<path style="fill:none;stroke:red;stroke-width:1px;stroke-linecap:butt;stroke-linejoin:miter;stroke-opacity:1" d="M 296.319,639.559 309.521,654.646 z" id="boundary" inkscape:connector-curvature="0" />
	<path style="fill:none;stroke:red;stroke-width:1px;stroke-linecap:butt;stroke-linejoin:miter;stroke-opacity:1" d="M 309.521,654.646 328.38,662.19 z" id="boundary" inkscape:connector-curvature="0" />
	<path style="fill:none;stroke:red;stroke-width:1px;stroke-linecap:butt;stroke-linejoin:miter;stroke-opacity:1" d="M 311.407,32.289 328.38,41.7186 z" id="boundary" inkscape:connector-curvature="0" />
	<path style="fill:none;stroke:red;stroke-width:1px;stroke-linecap:butt;stroke-linejoin:miter;stroke-opacity:1" d="M 328.38,41.7186 345.354,51.1483 z" id="boundary" inkscape:connector-curvature="0" />
	<path style="fill:none;stroke:red;stroke-width:1px;stroke-linecap:butt;stroke-linejoin:miter;stroke-opacity:1" d="M 328.38,662.19 343.468,675.392 z" id="boundary" inkscape:connector-curvature="0" />
	<path style="fill:none;stroke:red;stroke-width:1px;stroke-linecap:butt;stroke-linejoin:miter;stroke-opacity:1" d="M 343.468,675.392 354.783,690.479 z" id="boundary" inkscape:connector-curvature="0" />
	<path style="fill:none;stroke:red;stroke-width:1px;stroke-linecap:butt;stroke-linejoin:miter;stroke-opacity:1" d="M 345.354,51.1483 364.213,56.8061 z" id="boundary" inkscape:connector-curvature="0" />
	<path style="fill:none;stroke:red;stroke-width:1px;stroke-linecap:butt;stroke-linejoin:miter;stroke-opacity:1" d="M 345.354,222.768 345.354,241.627 z" id="boundary" inkscape:connector-curvature="0" />
	<path style="fill:none;stroke:red;stroke-width:1px;stroke-linecap:butt;stroke-linejoin:miter;stroke-opacity:1" d="M 345.354,222.768 354.783,203.909 z" id="boundary" inkscape:connector-curvature="0" />
	<path style="fill:none;stroke:red;stroke-width:1px;stroke-linecap:butt;stroke-linejoin:miter;stroke-opacity:1" d="M 345.354,241.627 345.354,260.487 z" id="boundary" inkscape:connector-curvature="0" />
	<path style="fill:none;stroke:red;stroke-width:1px;stroke-linecap:butt;stroke-linejoin:miter;stroke-opacity:1" d="M 345.354,260.487 354.783,277.46 z" id="boundary" inkscape:connector-curvature="0" />
	<path style="fill:none;stroke:red;stroke-width:1px;stroke-linecap:butt;stroke-linejoin:miter;stroke-opacity:1" d="M 354.783,185.049 354.783,203.909 z" id="boundary" inkscape:connector-curvature="0" />
	<path style="fill:none;stroke:red;stroke-width:1px;stroke-linecap:butt;stroke-linejoin:miter;stroke-opacity:1" d="M 354.783,185.049 364.213,166.19 z" id="boundary" inkscape:connector-curvature="0" />
	<path style="fill:none;stroke:red;stroke-width:1px;stroke-linecap:butt;stroke-linejoin:miter;stroke-opacity:1" d="M 354.783,277.46 371.757,268.03 z" id="boundary" inkscape:connector-curvature="0" />
	<path style="fill:none;stroke:red;stroke-width:1px;stroke-linecap:butt;stroke-linejoin:miter;stroke-opacity:1" d="M 354.783,690.479 373.643,698.023 z" id="boundary" inkscape:connector-curvature="0" />
	<path style="fill:none;stroke:red;stroke-width:1px;stroke-linecap:butt;stroke-linejoin:miter;stroke-opacity:1" d="M 364.213,56.8061 371.757,75.6654 z" id="boundary" inkscape:connector-curvature="0" />
	<path style="fill:none;stroke:red;stroke-width:1px;stroke-linecap:butt;stroke-linejoin:miter;stroke-opacity:1" d="M 364.213,166.19 373.643,132.243 z" id="boundary" inkscape:connector-curvature="0" />
	<path style="fill:none;stroke:red;stroke-width:1px;stroke-linecap:butt;stroke-linejoin:miter;stroke-opacity:1" d="M 371.757,75.6654 373.643,94.5247 z" id="boundary" inkscape:connector-curvature="0" />
	<path style="fill:none;stroke:red;stroke-width:1px;stroke-linecap:butt;stroke-linejoin:miter;stroke-opacity:1" d="M 371.757,268.03 388.73,258.601 z" id="boundary" inkscape:connector-curvature="0" />
	<path style="fill:none;stroke:red;stroke-width:1px;stroke-linecap:butt;stroke-linejoin:miter;stroke-opacity:1" d="M 373.643,94.5247 373.643,113.384 z" id="boundary" inkscape:connector-curvature="0" />
	<path style="fill:none;stroke:red;stroke-width:1px;stroke-linecap:butt;stroke-linejoin:miter;stroke-opacity:1" d="M 373.643,113.384 373.643,132.243 z" id="boundary" inkscape:connector-curvature="0" />
	<path style="fill:none;stroke:red;stroke-width:1px;stroke-linecap:butt;stroke-linejoin:miter;stroke-opacity:1" d="M 373.643,698.023 390.616,707.452 z" id="boundary" inkscape:connector-curvature="0" />
	<path style="fill:none;stroke:red;stroke-width:1px;stroke-linecap:butt;stroke-linejoin:miter;stroke-opacity:1" d="M 388.73,258.601 396.274,239.741 z" id="boundary" inkscape:connector-curvature="0" />
	<path style="fill:none;stroke:red;stroke-width:1px;stroke-linecap:butt;stroke-linejoin:miter;stroke-opacity:1" d="M 390.616,707.452 400.046,724.426 z" id="boundary" inkscape:connector-curvature="0" />
	<path style="fill:none;stroke:red;stroke-width:1px;stroke-linecap:butt;stroke-linejoin:miter;stroke-opacity:1" d="M 396.274,239.741 411.361,224.654 z" id="boundary" inkscape:connector-curvature="0" />
	<path style="fill:none;stroke:red;stroke-width:1px;stroke-linecap:butt;stroke-linejoin:miter;stroke-opacity:1" d="M 400.046,724.426 418.905,731.97 z" id="boundary" inkscape:connector-curvature="0" />
	<path style="fill:none;stroke:red;stroke-width:1px;stroke-linecap:butt;stroke-linejoin:miter;stroke-opacity:1" d="M 411.361,224.654 426.449,211.452 z" id="boundary" inkscape:connector-curvature="0" />
	<path style="fill:none;stroke:red;stroke-width:1px;stroke-linecap:butt;stroke-linejoin:miter;stroke-opacity:1" d="M 418.905,731.97 430.221,747.057 z" id="boundary" inkscape:connector-curvature="0" />
	<path style="fill:none;stroke:red;stroke-width:1px;stroke-linecap:butt;stroke-linejoin:miter;stroke-opacity:1" d="M 426.449,211.452 439.65,196.365 z" id="boundary" inkscape:connector-curvature="0" />
	<path style="fill:none;stroke:red;stroke-width:1px;stroke-linecap:butt;stroke-linejoin:miter;stroke-opacity:1" d="M 430.221,747.057 445.308,760.259 z" id="boundary" inkscape:connector-curvature="0" />
	<path style="fill:none;stroke:red;stroke-width:1px;stroke-linecap:butt;stroke-linejoin:miter;stroke-opacity:1" d="M 439.65,196.365 458.51,186.935 z" id="boundary" inkscape:connector-curvature="0" />
	<path style="fill:none;stroke:red;stroke-width:1px;stroke-linecap:butt;stroke-linejoin:miter;stroke-opacity:1" d="M 445.308,760.259 458.51,775.346 z" id="boundary" inkscape:connector-curvature="0" />
	<path style="fill:none;stroke:red;stroke-width:1px;stroke-linecap:butt;stroke-linejoin:miter;stroke-opacity:1" d="M 458.51,186.935 467.939,168.076 z" id="boundary" inkscape:connector-curvature="0" />
	<path style="fill:none;stroke:red;stroke-width:1px;stroke-linecap:butt;stroke-linejoin:miter;stroke-opacity:1" d="M 458.51,775.346 473.597,788.548 z" id="boundary" inkscape:connector-curvature="0" />
	<path style="fill:none;stroke:red;stroke-width:1px;stroke-linecap:butt;stroke-linejoin:miter;stroke-opacity:1" d="M 467.939,168.076 486.798,158.646 z" id="boundary" inkscape:connector-curvature="0" />
	<path style="fill:none;stroke:red;stroke-width:1px;stroke-linecap:butt;stroke-linejoin:miter;stroke-opacity:1" d="M 473.597,788.548 486.798,803.635 z" id="boundary" inkscape:connector-curvature="0" />
	<path style="fill:none;stroke:red;stroke-width:1px;stroke-linecap:butt;stroke-linejoin:miter;stroke-opacity:1" d="M 486.798,158.646 505.658,149.217 z" id="boundary" inkscape:connector-curvature="0" />
	<path style="fill:none;stroke:red;stroke-width:1px;stroke-linecap:butt;stroke-linejoin:miter;stroke-opacity:1" d="M 486.798,803.635 496.228,820.608 z" id="boundary" inkscape:connector-curvature="0" />
	<path style="fill:none;stroke:red;stroke-width:1px;stroke-linecap:butt;stroke-linejoin:miter;stroke-opacity:1" d="M 496.228,820.608 515.087,816.837 z" id="boundary" inkscape:connector-curvature="0" />
	<path style="fill:none;stroke:red;stroke-width:1px;stroke-linecap:butt;stroke-linejoin:miter;stroke-opacity:1" d="M 505.658,149.217 520.745,136.015 z" id="boundary" inkscape:connector-curvature="0" />
	<path style="fill:none;stroke:red;stroke-width:1px;stroke-linecap:butt;stroke-linejoin:miter;stroke-opacity:1" d="M 515.087,816.837 533.947,797.977 z" id="boundary" inkscape:connector-curvature="0" />
	<path style="fill:none;stroke:red;stroke-width:1px;stroke-linecap:butt;stroke-linejoin:miter;stroke-opacity:1" d="M 520.745,136.015 537.719,126.586 z" id="boundary" inkscape:connector-curvature="0" />
	<path style="fill:none;stroke:red;stroke-width:1px;stroke-linecap:butt;stroke-linejoin:miter;stroke-opacity:1" d="M 533.947,797.977 552.806,788.548 z" id="boundary" inkscape:connector-curvature="0" />
	<path style="fill:none;stroke:red;stroke-width:1px;stroke-linecap:butt;stroke-linejoin:miter;stroke-opacity:1" d="M 537.719,126.586 554.692,117.156 z" id="boundary" inkscape:connector-curvature="0" />
	<path style="fill:none;stroke:red;stroke-width:1px;stroke-linecap:butt;stroke-linejoin:miter;stroke-opacity:1" d="M 552.806,788.548 571.665,779.118 z" id="boundary" inkscape:connector-curvature="0" />
	<path style="fill:none;stroke:red;stroke-width:1px;stroke-linecap:butt;stroke-linejoin:miter;stroke-opacity:1" d="M 554.692,117.156 569.779,103.954 z" id="boundary" inkscape:connector-curvature="0" />
	<path style="fill:none;stroke:red;stroke-width:1px;stroke-linecap:butt;stroke-linejoin:miter;stroke-opacity:1" d="M 569.779,103.954 588.639,94.5247 z" id="boundary" inkscape:connector-curvature="0" />
	<path style="fill:none;stroke:red;stroke-width:1px;stroke-linecap:butt;stroke-linejoin:miter;stroke-opacity:1" d="M 571.665,779.118 586.753,765.916 z" id="boundary" inkscape:connector-curvature="0" />
	<path style="fill:none;stroke:red;stroke-width:1px;stroke-linecap:butt;stroke-linejoin:miter;stroke-opacity:1" d="M 586.753,765.916 605.612,756.487 z" id="boundary" inkscape:connector-curvature="0" />
	<path style="fill:none;stroke:red;stroke-width:1px;stroke-linecap:butt;stroke-linejoin:miter;stroke-opacity:1" d="M 588.639,94.5247 607.498,85.0951 z" id="boundary" inkscape:connector-curvature="0" />
	<path style="fill:none;stroke:red;stroke-width:1px;stroke-linecap:butt;stroke-linejoin:miter;stroke-opacity:1" d="M 605.612,756.487 624.471,747.057 z" id="boundary" inkscape:connector-curvature="0" />
	<path style="fill:none;stroke:red;stroke-width:1px;stroke-linecap:butt;stroke-linejoin:miter;stroke-opacity:1" d="M 607.498,85.0951 622.586,70.0076 z" id="boundary" inkscape:connector-curvature="0" />
	<path style="fill:none;stroke:red;stroke-width:1px;stroke-linecap:butt;stroke-linejoin:miter;stroke-opacity:1" d="M 622.586,70.0076 639.559,60.5779 z" id="boundary" inkscape:connector-curvature="0" />
	<path style="fill:none;stroke:red;stroke-width:1px;stroke-linecap:butt;stroke-linejoin:miter;stroke-opacity:1" d="M 624.471,747.057 643.331,737.627 z" id="boundary" inkscape:connector-curvature="0" />
	<path style="fill:none;stroke:red;stroke-width:1px;stroke-linecap:butt;stroke-linejoin:miter;stroke-opacity:1" d="M 639.559,60.5779 656.532,51.1483 z" id="boundary" inkscape:connector-curvature="0" />
	<path style="fill:none;stroke:red;stroke-width:1px;stroke-linecap:butt;stroke-linejoin:miter;stroke-opacity:1" d="M 643.331,737.627 656.532,722.54 z" id="boundary" inkscape:connector-curvature="0" />
	<path style="fill:none;stroke:red;stroke-width:1px;stroke-linecap:butt;stroke-linejoin:miter;stroke-opacity:1" d="M 656.532,51.1483 673.506,41.7186 z" id="boundary" inkscape:connector-curvature="0" />
	<path style="fill:none;stroke:red;stroke-width:1px;stroke-linecap:butt;stroke-linejoin:miter;stroke-opacity:1" d="M 656.532,722.54 675.392,713.11 z" id="boundary" inkscape:connector-curvature="0" />
	<path style="fill:none;stroke:red;stroke-width:1px;stroke-linecap:butt;stroke-linejoin:miter;stroke-opacity:1" d="M 673.506,41.7186 690.479,32.289 z" id="boundary" inkscape:connector-curvature="0" />
	<path style="fill:none;stroke:red;stroke-width:1px;stroke-linecap:butt;stroke-linejoin:miter;stroke-opacity:1" d="M 675.392,713.11 694.251,703.681 z" id="boundary" inkscape:connector-curvature="0" />
	<path style="fill:none;stroke:red;stroke-width:1px;stroke-linecap:butt;stroke-linejoin:miter;stroke-opacity:1" d="M 690.479,32.289 707.452,22.8593 z" id="boundary" inkscape:connector-curvature="0" />
	<path style="fill:none;stroke:red;stroke-width:1px;stroke-linecap:butt;stroke-linejoin:miter;stroke-opacity:1" d="M 694.251,703.681 713.11,694.251 z" id="boundary" inkscape:connector-curvature="0" />
	<path style="fill:none;stroke:red;stroke-width:1px;stroke-linecap:butt;stroke-linejoin:miter;stroke-opacity:1" d="M 707.452,22.8593 726.312,22.8593 z" id="boundary" inkscape:connector-curvature="0" />
	<path style="fill:none;stroke:red;stroke-width:1px;stroke-linecap:butt;stroke-linejoin:miter;stroke-opacity:1" d="M 713.11,694.251 728.198,681.049 z" id="boundary" inkscape:connector-curvature="0" />
	<path style="fill:none;stroke:red;stroke-width:1px;stroke-linecap:butt;stroke-linejoin:miter;stroke-opacity:1" d="M 726.312,22.8593 745.171,22.8593 z" id="boundary" inkscape:connector-curvature="0" />
	<path style="fill:none;stroke:red;stroke-width:1px;stroke-linecap:butt;stroke-linejoin:miter;stroke-opacity:1" d="M 728.198,681.049 747.057,671.62 z" id="boundary" inkscape:connector-curvature="0" />
	<path style="fill:none;stroke:red;stroke-width:1px;stroke-linecap:butt;stroke-linejoin:miter;stroke-opacity:1" d="M 745.171,22.8593 764.03,22.8593 z" id="boundary" inkscape:connector-curvature="0" />
	<path style="fill:none;stroke:red;stroke-width:1px;stroke-linecap:butt;stroke-linejoin:miter;stroke-opacity:1" d="M 747.057,671.62 760.259,656.532 z" id="boundary" inkscape:connector-curvature="0" />
	<path style="fill:none;stroke:red;stroke-width:1px;stroke-linecap:butt;stroke-linejoin:miter;stroke-opacity:1" d="M 760.259,656.532 779.118,647.103 z" id="boundary" inkscape:connector-curvature="0" />
	<path style="fill:none;stroke:red;stroke-width:1px;stroke-linecap:butt;stroke-linejoin:miter;stroke-opacity:1" d="M 764.03,22.8593 782.89,22.8593 z" id="boundary" inkscape:connector-curvature="0" />
	<path style="fill:none;stroke:red;stroke-width:1px;stroke-linecap:butt;stroke-linejoin:miter;stroke-opacity:1" d="M 779.118,647.103 794.205,633.901 z" id="boundary" inkscape:connector-curvature="0" />
	<path style="fill:none;stroke:red;stroke-width:1px;stroke-linecap:butt;stroke-linejoin:miter;stroke-opacity:1" d="M 782.89,22.8593 799.863,32.289 z" id="boundary" inkscape:connector-curvature="0" />
	<path style="fill:none;stroke:red;stroke-width:1px;stroke-linecap:butt;stroke-linejoin:miter;stroke-opacity:1" d="M 794.205,633.901 813.065,624.471 z" id="boundary" inkscape:connector-curvature="0" />
	<path style="fill:none;stroke:red;stroke-width:1px;stroke-linecap:butt;stroke-linejoin:miter;stroke-opacity:1" d="M 799.863,32.289 818.722,32.289 z" id="boundary" inkscape:connector-curvature="0" />
	<path style="fill:none;stroke:red;stroke-width:1px;stroke-linecap:butt;stroke-linejoin:miter;stroke-opacity:1" d="M 813.065,624.471 831.924,615.042 z" id="boundary" inkscape:connector-curvature="0" />
	<path style="fill:none;stroke:red;stroke-width:1px;stroke-linecap:butt;stroke-linejoin:miter;stroke-opacity:1" d="M 818.722,32.289 835.696,41.7186 z" id="boundary" inkscape:connector-curvature="0" />
	<path style="fill:none;stroke:red;stroke-width:1px;stroke-linecap:butt;stroke-linejoin:miter;stroke-opacity:1" d="M 831.924,615.042 845.125,590.525 z" id="boundary" inkscape:connector-curvature="0" />
	<path style="fill:none;stroke:red;stroke-width:1px;stroke-linecap:butt;stroke-linejoin:miter;stroke-opacity:1" d="M 835.696,41.7186 854.555,47.3764 z" id="boundary" inkscape:connector-curvature="0" />
	<path style="fill:none;stroke:red;stroke-width:1px;stroke-linecap:butt;stroke-linejoin:miter;stroke-opacity:1" d="M 845.125,590.525 860.213,577.323 z" id="boundary" inkscape:connector-curvature="0" />
	<path style="fill:none;stroke:red;stroke-width:1px;stroke-linecap:butt;stroke-linejoin:miter;stroke-opacity:1" d="M 854.555,47.3764 871.529,56.8061 z" id="boundary" inkscape:connector-curvature="0" />
	<path style="fill:none;stroke:red;stroke-width:1px;stroke-linecap:butt;stroke-linejoin:miter;stroke-opacity:1" d="M 860.213,577.323 873.414,562.236 z" id="boundary" inkscape:connector-curvature="0" />
	<path style="fill:none;stroke:red;stroke-width:1px;stroke-linecap:butt;stroke-linejoin:miter;stroke-opacity:1" d="M 871.529,56.8061 890.388,64.3498 z" id="boundary" inkscape:connector-curvature="0" />
	<path style="fill:none;stroke:red;stroke-width:1px;stroke-linecap:butt;stroke-linejoin:miter;stroke-opacity:1" d="M 873.414,562.236 888.502,549.034 z" id="boundary" inkscape:connector-curvature="0" />
	<path style="fill:none;stroke:red;stroke-width:1px;stroke-linecap:butt;stroke-linejoin:miter;stroke-opacity:1" d="M 888.502,549.034 901.703,524.517 z" id="boundary" inkscape:connector-curvature="0" />
	<path style="fill:none;stroke:red;stroke-width:1px;stroke-linecap:butt;stroke-linejoin:miter;stroke-opacity:1" d="M 890.388,64.3498 901.703,79.4373 z" id="boundary" inkscape:connector-curvature="0" />
	<path style="fill:none;stroke:red;stroke-width:1px;stroke-linecap:butt;stroke-linejoin:miter;stroke-opacity:1" d="M 901.703,79.4373 918.677,88.8669 z" id="boundary" inkscape:connector-curvature="0" />
	<path style="fill:none;stroke:red;stroke-width:1px;stroke-linecap:butt;stroke-linejoin:miter;stroke-opacity:1" d="M 901.703,524.517 920.563,515.087 z" id="boundary" inkscape:connector-curvature="0" />
	<path style="fill:none;stroke:red;stroke-width:1px;stroke-linecap:butt;stroke-linejoin:miter;stroke-opacity:1" d="M 918.677,88.8669 929.992,103.954 z" id="boundary" inkscape:connector-curvature="0" />
	<path style="fill:none;stroke:red;stroke-width:1px;stroke-linecap:butt;stroke-linejoin:miter;stroke-opacity:1" d="M 920.563,515.087 929.992,496.228 z" id="boundary" inkscape:connector-curvature="0" />
	<path style="fill:none;stroke:red;stroke-width:1px;stroke-linecap:butt;stroke-linejoin:miter;stroke-opacity:1" d="M 929.992,103.954 945.08,117.156 z" id="boundary" inkscape:connector-curvature="0" />
	<path style="fill:none;stroke:red;stroke-width:1px;stroke-linecap:butt;stroke-linejoin:miter;stroke-opacity:1" d="M 929.992,496.228 939.422,477.369 z" id="boundary" inkscape:connector-curvature="0" />
	<path style="fill:none;stroke:red;stroke-width:1px;stroke-linecap:butt;stroke-linejoin:miter;stroke-opacity:1" d="M 939.422,477.369 948.852,458.51 z" id="boundary" inkscape:connector-curvature="0" />
	<path style="fill:none;stroke:red;stroke-width:1px;stroke-linecap:butt;stroke-linejoin:miter;stroke-opacity:1" d="M 945.08,117.156 958.281,132.243 z" id="boundary" inkscape:connector-curvature="0" />
	<path style="fill:none;stroke:red;stroke-width:1px;stroke-linecap:butt;stroke-linejoin:miter;stroke-opacity:1" d="M 948.852,458.51 958.281,439.65 z" id="boundary" inkscape:connector-curvature="0" />
	<path style="fill:none;stroke:red;stroke-width:1px;stroke-linecap:butt;stroke-linejoin:miter;stroke-opacity:1" d="M 958.281,132.243 967.711,149.217 z" id="boundary" inkscape:connector-curvature="0" />
	<path style="fill:none;stroke:red;stroke-width:1px;stroke-linecap:butt;stroke-linejoin:miter;stroke-opacity:1" d="M 958.281,439.65 967.711,420.791 z" id="boundary" inkscape:connector-curvature="0" />
	<path style="fill:none;stroke:red;stroke-width:1px;stroke-linecap:butt;stroke-linejoin:miter;stroke-opacity:1" d="M 967.711,149.217 977.141,166.19 z" id="boundary" inkscape:connector-curvature="0" />
	<path style="fill:none;stroke:red;stroke-width:1px;stroke-linecap:butt;stroke-linejoin:miter;stroke-opacity:1" d="M 967.711,420.791 977.141,401.932 z" id="boundary" inkscape:connector-curvature="0" />
	<path style="fill:none;stroke:red;stroke-width:1px;stroke-linecap:butt;stroke-linejoin:miter;stroke-opacity:1" d="M 977.141,166.19 986.57,183.163 z" id="boundary" inkscape:connector-curvature="0" />
	<path style="fill:none;stroke:red;stroke-width:1px;stroke-linecap:butt;stroke-linejoin:miter;stroke-opacity:1" d="M 977.141,401.932 986.57,383.072 z" id="boundary" inkscape:connector-curvature="0" />
	<path style="fill:none;stroke:red;stroke-width:1px;stroke-linecap:butt;stroke-linejoin:miter;stroke-opacity:1" d="M 986.57,183.163 986.57,202.023 z" id="boundary" inkscape:connector-curvature="0" />
	<path style="fill:none;stroke:red;stroke-width:1px;stroke-linecap:butt;stroke-linejoin:miter;stroke-opacity:1" d="M 986.57,202.023 996,218.996 z" id="boundary" inkscape:connector-curvature="0" />
	<path style="fill:none;stroke:red;stroke-width:1px;stroke-linecap:butt;stroke-linejoin:miter;stroke-opacity:1" d="M 986.57,364.213 986.57,383.072 z" id="boundary" inkscape:connector-curvature="0" />
	<path style="fill:none;stroke:red;stroke-width:1px;stroke-linecap:butt;stroke-linejoin:miter;stroke-opacity:1" d="M 986.57,364.213 996,332.152 z" id="boundary" inkscape:connector-curvature="0" />
	<path style="fill:none;stroke:red;stroke-width:1px;stroke-linecap:butt;stroke-linejoin:miter;stroke-opacity:1" d="M 996,218.996 996,237.856 z" id="boundary" inkscape:connector-curvature="0" />
	<path style="fill:none;stroke:red;stroke-width:1px;stroke-linecap:butt;stroke-linejoin:miter;stroke-opacity:1" d="M 996,237.856 996,256.715 z" id="boundary" inkscape:connector-curvature="0" />
	<path style="fill:none;stroke:red;stroke-width:1px;stroke-linecap:butt;stroke-linejoin:miter;stroke-opacity:1" d="M 996,256.715 996,275.574 z" id="boundary" inkscape:connector-curvature="0" />
	<path style="fill:none;stroke:red;stroke-width:1px;stroke-linecap:butt;stroke-linejoin:miter;stroke-opacity:1" d="M 996,275.574 996,294.433 z" id="boundary" inkscape:connector-curvature="0" />
	<path style="fill:none;stroke:red;stroke-width:1px;stroke-linecap:butt;stroke-linejoin:miter;stroke-opacity:1" d="M 996,294.433 996,313.293 z" id="boundary" inkscape:connector-curvature="0" />
	<path style="fill:none;stroke:red;stroke-width:1px;stroke-linecap:butt;stroke-linejoin:miter;stroke-opacity:1" d="M 996,313.293 996,332.152 z" id="boundary" inkscape:connector-curvature="0" />
	<circle cx="4" cy="169.962" r="4" fill="#0" id="circle0"/>
	<circle cx="4" cy="188.821" r="4" fill="#0" id="circle1"/>
	<circle cx="4" cy="207.681" r="4" fill="#0" id="circle2"/>
	<circle cx="4" cy="226.54" r="4" fill="#0" id="circle3"/>
	<circle cx="4" cy="245.399" r="4" fill="#0" id="circle4"/>
	<circle cx="4" cy="264.259" r="4" fill="#0" id="circle5"/>
	<circle cx="4" cy="283.118" r="4" fill="#0" id="circle6"/>
	<circle cx="4" cy="301.977" r="4" fill="#0" id="circle7"/>
	<circle cx="4" cy="320.837" r="4" fill="#0" id="circle8"/>
	<circle cx="13.4297" cy="151.103" r="4" fill="#0" id="circle9"/>
	<circle cx="13.4297" cy="337.81" r="4" fill="#0" id="circle10"/>
	<circle cx="22.8593" cy="132.243" r="4" fill="#0" id="circle11"/>
	<circle cx="22.8593" cy="354.783" r="4" fill="#0" id="circle12"/>
	<circle cx="32.289" cy="113.384" r="4" fill="#0" id="circle13"/>
	<circle cx="32.289" cy="371.757" r="4" fill="#0" id="circle14"/>
	<circle cx="41.7186" cy="94.5247" r="4" fill="#0" id="circle15"/>
	<circle cx="41.7186" cy="388.73" r="4" fill="#0" id="circle16"/>
	<circle cx="51.1483" cy="75.6654" r="4" fill="#0" id="circle17"/>
	<circle cx="51.1483" cy="405.703" r="4" fill="#0" id="circle18"/>
	<circle cx="60.5779" cy="422.677" r="4" fill="#0" id="circle19"/>
	<circle cx="66.2357" cy="60.5779" r="4" fill="#0" id="circle20"/>
	<circle cx="73.7795" cy="437.764" r="4" fill="#0" id="circle21"/>
	<circle cx="75.6654" cy="41.7186" r="4" fill="#0" id="circle22"/>
	<circle cx="88.8669" cy="449.08" r="4" fill="#0" id="circle23"/>
	<circle cx="90.7529" cy="26.6312" r="4" fill="#0" id="circle24"/>
	<circle cx="94.5247" cy="467.939" r="4" fill="#0" id="circle25"/>
	<circle cx="109.612" cy="17.2015" r="4" fill="#0" id="circle26"/>
	<circle cx="111.498" cy="477.369" r="4" fill="#0" id="circle27"/>
	<circle cx="120.928" cy="494.342" r="4" fill="#0" id="circle28"/>
	<circle cx="128.471" cy="7.77186" r="4" fill="#0" id="circle29"/>
	<circle cx="136.015" cy="505.658" r="4" fill="#0" id="circle30"/>
	<circle cx="147.331" cy="4" r="4" fill="#0" id="circle31"/>
	<circle cx="147.331" cy="520.745" r="4" fill="#0" id="circle32"/>
	<circle cx="162.418" cy="533.947" r="4" fill="#0" id="circle33"/>
	<circle cx="166.19" cy="4" r="4" fill="#0" id="circle34"/>
	<circle cx="179.392" cy="543.376" r="4" fill="#0" id="circle35"/>
	<circle cx="185.049" cy="4" r="4" fill="#0" id="circle36"/>
	<circle cx="194.479" cy="556.578" r="4" fill="#0" id="circle37"/>
	<circle cx="203.909" cy="4" r="4" fill="#0" id="circle38"/>
	<circle cx="211.452" cy="566.008" r="4" fill="#0" id="circle39"/>
	<circle cx="220.882" cy="582.981" r="4" fill="#0" id="circle40"/>
	<circle cx="222.768" cy="4" r="4" fill="#0" id="circle41"/>
	<circle cx="239.741" cy="590.525" r="4" fill="#0" id="circle42"/>
	<circle cx="241.627" cy="4" r="4" fill="#0" id="circle43"/>
	<circle cx="256.715" cy="599.954" r="4" fill="#0" id="circle44"/>
	<circle cx="260.487" cy="4" r="4" fill="#0" id="circle45"/>
	<circle cx="264.259" cy="618.814" r="4" fill="#0" id="circle46"/>
	<circle cx="277.46" cy="13.4297" r="4" fill="#0" id="circle47"/>
	<circle cx="281.232" cy="628.243" r="4" fill="#0" id="circle48"/>
	<circle cx="294.433" cy="22.8593" r="4" fill="#0" id="circle49"/>
	<circle cx="296.319" cy="639.559" r="4" fill="#0" id="circle50"/>
	<circle cx="309.521" cy="654.646" r="4" fill="#0" id="circle51"/>
	<circle cx="311.407" cy="32.289" r="4" fill="#0" id="circle52"/>
	<circle cx="328.38" cy="41.7186" r="4" fill="#0" id="circle53"/>
	<circle cx="328.38" cy="662.19" r="4" fill="#0" id="circle54"/>
	<circle cx="343.468" cy="675.392" r="4" fill="#0" id="circle55"/>
	<circle cx="345.354" cy="51.1483" r="4" fill="#0" id="circle56"/>
	<circle cx="345.354" cy="222.768" r="4" fill="#0" id="circle57"/>
	<circle cx="345.354" cy="241.627" r="4" fill="#0" id="circle58"/>
	<circle cx="345.354" cy="260.487" r="4" fill="#0" id="circle59"/>
	<circle cx="354.783" cy="185.049" r="4" fill="#0" id="circle60"/>
	<circle cx="354.783" cy="203.909" r="4" fill="#0" id="circle61"/>
	<circle cx="354.783" cy="277.46" r="4" fill="#0" id="circle62"/>
	<circle cx="354.783" cy="690.479" r="4" fill="#0" id="circle63"/>
	<circle cx="364.213" cy="56.8061" r="4" fill="#0" id="circle64"/>
	<circle cx="364.213" cy="166.19" r="4" fill="#0" id="circle65"/>
	<circle cx="371.757" cy="75.6654" r="4" fill="#0" id="circle66"/>
	<circle cx="371.757" cy="268.03" r="4" fill="#0" id="circle67"/>
	<circle cx="373.643" cy="94.5247" r="4" fill="#0" id="circle68"/>
	<circle cx="373.643" cy="113.384" r="4" fill="#0" id="circle69"/>
	<circle cx="373.643" cy="132.243" r="4" fill="#0" id="circle70"/>
	<circle cx="373.643" cy="698.023" r="4" fill="#0" id="circle71"/>
	<circle cx="388.73" cy="258.601" r="4" fill="#0" id="circle72"/>
	<circle cx="390.616" cy="707.452" r="4" fill="#0" id="circle73"/>
	<circle cx="396.274" cy="239.741" r="4" fill="#0" id="circle74"/>
	<circle cx="400.046" cy="724.426" r="4" fill="#0" id="circle75"/>
	<circle cx="411.361" cy="224.654" r="4" fill="#0" id="circle76"/>
	<circle cx="418.905" cy="731.97" r="4" fill="#0" id="circle77"/>
	<circle cx="426.449" cy="211.452" r="4" fill="#0" id="circle78"/>
	<circle cx="430.221" cy="747.057" r="4" fill="#0" id="circle79"/>
	<circle cx="439.65" cy="196.365" r="4" fill="#0" id="circle80"/>
	<circle cx="445.308" cy="760.259" r="4" fill="#0" id="circle81"/>
	<circle cx="458.51" cy="186.935" r="4" fill="#0" id="circle82"/>
	<circle cx="458.51" cy="775.346" r="4" fill="#0" id="circle83"/>
	<circle cx="467.939" cy="168.076" r="4" fill="#0" id="circle84"/>
	<circle cx="473.597" cy="788.548" r="4" fill="#0" id="circle85"/>
	<circle cx="486.798" cy="158.646" r="4" fill="#0" id="circle86"/>
	<circle cx="486.798" cy="803.635" r="4" fill="#0" id="circle87"/>
	<circle cx="496.228" cy="820.608" r="4" fill="#0" id="circle88"/>
	<circle cx="505.658" cy="149.217" r="4" fill="#0" id="circle89"/>
	<circle cx="515.087" cy="816.837" r="4" fill="#0" id="circle90"/>
	<circle cx="520.745" cy="136.015" r="4" fill="#0" id="circle91"/>
	<circle cx="533.947" cy="797.977" r="4" fill="#0" id="circle92"/>
	<circle cx="537.719" cy="126.586" r="4" fill="#0" id="circle93"/>
	<circle cx="552.806" cy="788.548" r="4" fill="#0" id="circle94"/>
	<circle cx="554.692" cy="117.156" r="4" fill="#0" id="circle95"/>
	<circle cx="569.779" cy="103.954" r="4" fill="#0" id="circle96"/>
	<circle cx="571.665" cy="779.118" r="4" fill="#0" id="circle97"/>
	<circle cx="586.753" cy="765.916" r="4" fill="#0" id="circle98"/>
	<circle cx="588.639" cy="94.5247" r="4" fill="#0" id="circle99"/>
	<circle cx="605.612" cy="756.487" r="4" fill="#0" id="circle100"/>
	<circle cx="607.498" cy="85.0951" r="4" fill="#0" id="circle101"/>
	<circle cx="622.586" cy="70.0076" r="4" fill="#0" id="circle102"/>
	<circle cx="624.471" cy="747.057" r="4" fill="#0" id="circle103"/>
	<circle cx="639.559" cy="60.5779" r="4" fill="#0" id="circle104"/>
	<circle cx="643.331" cy="737.627" r="4" fill="#0" id="circle105"/>
	<circle cx="656.532" cy="51.1483" r="4" fill="#0" id="circle106"/>
	<circle cx="656.532" cy="722.54" r="4" fill="#0" id="circle107"/>
	<circle cx="673.506" cy="41.7186" r="4" fill="#0" id="circle108"/>
	<circle cx="675.392" cy="713.11" r="4" fill="#0" id="circle109"/>
	<circle cx="690.479" cy="32.289" r="4" fill="#0" id="circle110"/>
	<circle cx="694.251" cy="703.681" r="4" fill="#0" id="circle111"/>
	<circle cx="707.452" cy="22.8593" r="4" fill="#0" id="circle112"/>
	<circle cx="713.11" cy="694.251" r="4" fill="#0" id="circle113"/>
	<circle cx="726.312" cy="22.8593" r="4" fill="#0" id="circle114"/>
	<circle cx="728.198" cy="681.049" r="4" fill="#0" id="circle115"/>
	<circle cx="745.171" cy="22.8593" r="4" fill="#0" id="circle116"/>
	<circle cx="747.057" cy="671.62" r="4" fill="#0" id="circle117"/>
	<circle cx="760.259" cy="656.532" r="4" fill="#0" id="circle118"/>
	<circle cx="764.03" cy="22.8593" r="4" fill="#0" id="circle119"/>
	<circle cx="779.118" cy="647.103" r="4" fill="#0" id="circle120"/>
	<circle cx="782.89" cy="22.8593" r="4" fill="#0" id="circle121"/>
	<circle cx="794.205" cy="633.901" r="4" fill="#0" id="circle122"/>
	<circle cx="799.863" cy="32.289" r="4" fill="#0" id="circle123"/>
	<circle cx="813.065" cy="624.471" r="4" fill="#0" id="circle124"/>
	<circle cx="818.722" cy="32.289" r="4" fill="#0" id="circle125"/>
	<circle cx="831.924" cy="615.042" r="4" fill="#0" id="circle126"/>
	<circle cx="835.696" cy="41.7186" r="4" fill="#0" id="circle127"/>
	<circle cx="845.125" cy="590.525" r="4" fill="#0" id="circle128"/>
	<circle cx="854.555" cy="47.3764" r="4" fill="#0" id="circle129"/>
	<circle cx="860.213" cy="577.323" r="4" fill="#0" id="circle130"/>
	<circle cx="871.529" cy="56.8061" r="4" fill="#0" id="circle131"/>
	<circle cx="873.414" cy="562.236" r="4" fill="#0" id="circle132"/>
	<circle cx="888.502" cy="549.034" r="4" fill="#0" id="circle133"/>
	<circle cx="890.388" cy="64.3498" r="4" fill="#0" id="circle134"/>
	<circle cx="901.703" cy="79.4373" r="4" fill="#0" id="circle135"/>
	<circle cx="901.703" cy="524.517" r="4" fill="#0" id="circle136"/>
	<circle cx="918.677" cy="88.8669" r="4" fill="#0" id="circle137"/>
	<circle cx="920.563" cy="515.087" r="4" fill="#0" id="circle138"/>
	<circle cx="929.992" cy="103.954" r="4" fill="#0" id="circle139"/>
	<circle cx="929.992" cy="496.228" r="4" fill="#0" id="circle140"/>
	<circle cx="939.422" cy="477.369" r="4" fill="#0" id="circle141"/>
	<circle cx="945.08" cy="117.156" r="4" fill="#0" id="circle142"/>
	<circle cx="948.852" cy="458.51" r="4" fill="#0" id="circle143"/>
	<circle cx="958.281" cy="132.243" r="4" fill="#0" id="circle144"/>
	<circle cx="958.281" cy="439.65" r="4" fill="#0" id="circle145"/>
	<circle cx="967.711" cy="149.217" r="4" fill="#0" id="circle146"/>
	<circle cx="967.711" cy="420.791" r="4" fill="#0" id="circle147"/>
	<circle cx="977.141" cy="166.19" r="4" fill="#0" id="circle148"/>
	<circle cx="977.141" cy="401.932" r="4" fill="#0" id="circle149"/>
	<circle cx="986.57" cy="183.163" r="4" fill="#0" id="circle150"/>
	<circle cx="986.57" cy="202.023" r="4" fill="#0" id="circle151"/>
	<circle cx="986.57" cy="364.213" r="4" fill="#0" id="circle152"/>
	<circle cx="986.57" cy="383.072" r="4" fill="#0" id="circle153"/>
	<circle cx="996" cy="218.996" r="4" fill="#0" id="circle154"/>
	<circle cx="996" cy="237.856" r="4" fill="#0" id="circle155"/>
	<circle cx="996" cy="256.715" r="4" fill="#0" id="circle156"/>
	<circle cx="996" cy="275.574" r="4" fill="#0" id="circle157"/>
	<circle cx="996" cy="294.433" r="4" fill="#0" id="circle158"/>
	<circle cx="996" cy="313.293" r="4" fill="#0" id="circle159"/>
	<circle cx="996" cy="332.152" r="4" fill="#0" id="circle160"/>
	</g>
</svg>