<?xml version="1.0" encoding="UTF-8" standalone="no"?>
<!-- Created with CurveBenchmark -->
<svg
	xmlns:dc="http://purl.org/dc/elements/1.1/"
	xmlns:cc="http://creativecommons.org/ns#"
	xmlns:rdf="http://www.w3.org/1999/02/22-rdf-syntax-ns#"
	xmlns:svg="http://www.w3.org/2000/svg"
	xmlns="http://www.w3.org/2000/svg"
	xmlns:sodipodi="http://sodipodi.sourceforge.net/DTD/sodipodi-0.dtd"
	xmlns:inkscape="http://www.inkscape.org/namespaces/inkscape"
	width="1000"
	height="1000"
	id="svg2"
	version="1.1"
	sodipodi:docname="manifold/hnncrust-bird215.png.txt">
<defs
	id="defs4" />
<metadata
	id="metadata7">
	<rdf:RDF>
		<cc:Work
			rdf:about="">
			<dc:format>image/svg+xml</dc:format>
			<dc:type
				rdf:resource="http://purl.org/dc/dcmitype/StillImage" />
			<dc:title></dc:title>
		</cc:Work>
	</rdf:RDF>
</metadata>
<g
	inkscape:label="Layer 1"
	inkscape:groupmode="layer"
	id="layer1">
	<path style="fill:none;stroke:red;stroke-width:1px;stroke-linecap:butt;stroke-linejoin:miter;stroke-opacity:1" d="M 4,260.753 23.451,225.741 z" id="boundary" inkscape:connector-curvature="0" />
	<path style="fill:none;stroke:red;stroke-width:1px;stroke-linecap:butt;stroke-linejoin:miter;stroke-opacity:1" d="M 4,260.753 23.451,295.765 z" id="boundary" inkscape:connector-curvature="0" />
	<path style="fill:none;stroke:red;stroke-width:1px;stroke-linecap:butt;stroke-linejoin:miter;stroke-opacity:1" d="M 23.451,225.741 46.7922,194.62 z" id="boundary" inkscape:connector-curvature="0" />
	<path style="fill:none;stroke:red;stroke-width:1px;stroke-linecap:butt;stroke-linejoin:miter;stroke-opacity:1" d="M 23.451,295.765 58.4627,272.424 z" id="boundary" inkscape:connector-curvature="0" />
	<path style="fill:none;stroke:red;stroke-width:1px;stroke-linecap:butt;stroke-linejoin:miter;stroke-opacity:1" d="M 46.7922,194.62 66.2431,159.608 z" id="boundary" inkscape:connector-curvature="0" />
	<path style="fill:none;stroke:red;stroke-width:1px;stroke-linecap:butt;stroke-linejoin:miter;stroke-opacity:1" d="M 58.4627,272.424 89.5843,241.302 z" id="boundary" inkscape:connector-curvature="0" />
	<path style="fill:none;stroke:red;stroke-width:1px;stroke-linecap:butt;stroke-linejoin:miter;stroke-opacity:1" d="M 66.2431,159.608 74.0235,120.706 z" id="boundary" inkscape:connector-curvature="0" />
	<path style="fill:none;stroke:red;stroke-width:1px;stroke-linecap:butt;stroke-linejoin:miter;stroke-opacity:1" d="M 74.0235,120.706 105.145,89.5843 z" id="boundary" inkscape:connector-curvature="0" />
	<path style="fill:none;stroke:red;stroke-width:1px;stroke-linecap:butt;stroke-linejoin:miter;stroke-opacity:1" d="M 89.5843,241.302 120.706,217.961 z" id="boundary" inkscape:connector-curvature="0" />
	<path style="fill:none;stroke:red;stroke-width:1px;stroke-linecap:butt;stroke-linejoin:miter;stroke-opacity:1" d="M 105.145,89.5843 144.047,74.0235 z" id="boundary" inkscape:connector-curvature="0" />
	<path style="fill:none;stroke:red;stroke-width:1px;stroke-linecap:butt;stroke-linejoin:miter;stroke-opacity:1" d="M 120.706,217.961 159.608,202.4 z" id="boundary" inkscape:connector-curvature="0" />
	<path style="fill:none;stroke:red;stroke-width:1px;stroke-linecap:butt;stroke-linejoin:miter;stroke-opacity:1" d="M 144.047,74.0235 182.949,74.0235 z" id="boundary" inkscape:connector-curvature="0" />
	<path style="fill:none;stroke:red;stroke-width:1px;stroke-linecap:butt;stroke-linejoin:miter;stroke-opacity:1" d="M 159.608,202.4 190.729,179.059 z" id="boundary" inkscape:connector-curvature="0" />
	<path style="fill:none;stroke:red;stroke-width:1px;stroke-linecap:butt;stroke-linejoin:miter;stroke-opacity:1" d="M 182.949,74.0235 221.851,81.8039 z" id="boundary" inkscape:connector-curvature="0" />
	<path style="fill:none;stroke:red;stroke-width:1px;stroke-linecap:butt;stroke-linejoin:miter;stroke-opacity:1" d="M 190.729,179.059 206.29,217.961 z" id="boundary" inkscape:connector-curvature="0" />
	<path style="fill:none;stroke:red;stroke-width:1px;stroke-linecap:butt;stroke-linejoin:miter;stroke-opacity:1" d="M 198.51,276.314 206.29,217.961 z" id="boundary" inkscape:connector-curvature="0" />
	<path style="fill:none;stroke:red;stroke-width:1px;stroke-linecap:butt;stroke-linejoin:miter;stroke-opacity:1" d="M 198.51,276.314 206.29,315.216 z" id="boundary" inkscape:connector-curvature="0" />
	<path style="fill:none;stroke:red;stroke-width:1px;stroke-linecap:butt;stroke-linejoin:miter;stroke-opacity:1" d="M 206.29,315.216 229.631,346.337 z" id="boundary" inkscape:connector-curvature="0" />
	<path style="fill:none;stroke:red;stroke-width:1px;stroke-linecap:butt;stroke-linejoin:miter;stroke-opacity:1" d="M 221.851,81.8039 252.973,105.145 z" id="boundary" inkscape:connector-curvature="0" />
	<path style="fill:none;stroke:red;stroke-width:1px;stroke-linecap:butt;stroke-linejoin:miter;stroke-opacity:1" d="M 229.631,346.337 260.753,369.678 z" id="boundary" inkscape:connector-curvature="0" />
	<path style="fill:none;stroke:red;stroke-width:1px;stroke-linecap:butt;stroke-linejoin:miter;stroke-opacity:1" d="M 252.973,105.145 272.424,140.157 z" id="boundary" inkscape:connector-curvature="0" />
	<path style="fill:none;stroke:red;stroke-width:1px;stroke-linecap:butt;stroke-linejoin:miter;stroke-opacity:1" d="M 260.753,369.678 299.655,373.569 z" id="boundary" inkscape:connector-curvature="0" />
	<path style="fill:none;stroke:red;stroke-width:1px;stroke-linecap:butt;stroke-linejoin:miter;stroke-opacity:1" d="M 272.424,140.157 303.545,109.035 z" id="boundary" inkscape:connector-curvature="0" />
	<path style="fill:none;stroke:red;stroke-width:1px;stroke-linecap:butt;stroke-linejoin:miter;stroke-opacity:1" d="M 299.655,373.569 330.776,350.227 z" id="boundary" inkscape:connector-curvature="0" />
	<path style="fill:none;stroke:red;stroke-width:1px;stroke-linecap:butt;stroke-linejoin:miter;stroke-opacity:1" d="M 303.545,109.035 322.996,74.0235 z" id="boundary" inkscape:connector-curvature="0" />
	<path style="fill:none;stroke:red;stroke-width:1px;stroke-linecap:butt;stroke-linejoin:miter;stroke-opacity:1" d="M 322.996,74.0235 354.118,42.902 z" id="boundary" inkscape:connector-curvature="0" />
	<path style="fill:none;stroke:red;stroke-width:1px;stroke-linecap:butt;stroke-linejoin:miter;stroke-opacity:1" d="M 330.776,350.227 350.227,307.435 z" id="boundary" inkscape:connector-curvature="0" />
	<path style="fill:none;stroke:red;stroke-width:1px;stroke-linecap:butt;stroke-linejoin:miter;stroke-opacity:1" d="M 350.227,307.435 358.008,245.192 z" id="boundary" inkscape:connector-curvature="0" />
	<path style="fill:none;stroke:red;stroke-width:1px;stroke-linecap:butt;stroke-linejoin:miter;stroke-opacity:1" d="M 354.118,42.902 393.02,27.3412 z" id="boundary" inkscape:connector-curvature="0" />
	<path style="fill:none;stroke:red;stroke-width:1px;stroke-linecap:butt;stroke-linejoin:miter;stroke-opacity:1" d="M 358.008,245.192 396.91,256.863 z" id="boundary" inkscape:connector-curvature="0" />
	<path style="fill:none;stroke:red;stroke-width:1px;stroke-linecap:butt;stroke-linejoin:miter;stroke-opacity:1" d="M 369.678,988.22 389.129,953.208 z" id="boundary" inkscape:connector-curvature="0" />
	<path style="fill:none;stroke:red;stroke-width:1px;stroke-linecap:butt;stroke-linejoin:miter;stroke-opacity:1" d="M 369.678,988.22 408.58,996 z" id="boundary" inkscape:connector-curvature="0" />
	<path style="fill:none;stroke:red;stroke-width:1px;stroke-linecap:butt;stroke-linejoin:miter;stroke-opacity:1" d="M 389.129,953.208 428.031,945.427 z" id="boundary" inkscape:connector-curvature="0" />
	<path style="fill:none;stroke:red;stroke-width:1px;stroke-linecap:butt;stroke-linejoin:miter;stroke-opacity:1" d="M 393.02,27.3412 431.922,11.7804 z" id="boundary" inkscape:connector-curvature="0" />
	<path style="fill:none;stroke:red;stroke-width:1px;stroke-linecap:butt;stroke-linejoin:miter;stroke-opacity:1" d="M 396.91,256.863 416.361,291.875 z" id="boundary" inkscape:connector-curvature="0" />
	<path style="fill:none;stroke:red;stroke-width:1px;stroke-linecap:butt;stroke-linejoin:miter;stroke-opacity:1" d="M 408.58,996 447.482,996 z" id="boundary" inkscape:connector-curvature="0" />
	<path style="fill:none;stroke:red;stroke-width:1px;stroke-linecap:butt;stroke-linejoin:miter;stroke-opacity:1" d="M 416.361,291.875 424.141,330.776 z" id="boundary" inkscape:connector-curvature="0" />
	<path style="fill:none;stroke:red;stroke-width:1px;stroke-linecap:butt;stroke-linejoin:miter;stroke-opacity:1" d="M 424.141,330.776 428.031,369.678 z" id="boundary" inkscape:connector-curvature="0" />
	<path style="fill:none;stroke:red;stroke-width:1px;stroke-linecap:butt;stroke-linejoin:miter;stroke-opacity:1" d="M 428.031,369.678 435.812,408.58 z" id="boundary" inkscape:connector-curvature="0" />
	<path style="fill:none;stroke:red;stroke-width:1px;stroke-linecap:butt;stroke-linejoin:miter;stroke-opacity:1" d="M 428.031,945.427 455.263,906.525 z" id="boundary" inkscape:connector-curvature="0" />
	<path style="fill:none;stroke:red;stroke-width:1px;stroke-linecap:butt;stroke-linejoin:miter;stroke-opacity:1" d="M 431.922,11.7804 470.824,4 z" id="boundary" inkscape:connector-curvature="0" />
	<path style="fill:none;stroke:red;stroke-width:1px;stroke-linecap:butt;stroke-linejoin:miter;stroke-opacity:1" d="M 435.812,408.58 443.592,447.482 z" id="boundary" inkscape:connector-curvature="0" />
	<path style="fill:none;stroke:red;stroke-width:1px;stroke-linecap:butt;stroke-linejoin:miter;stroke-opacity:1" d="M 443.592,447.482 451.373,486.384 z" id="boundary" inkscape:connector-curvature="0" />
	<path style="fill:none;stroke:red;stroke-width:1px;stroke-linecap:butt;stroke-linejoin:miter;stroke-opacity:1" d="M 447.482,996 486.384,996 z" id="boundary" inkscape:connector-curvature="0" />
	<path style="fill:none;stroke:red;stroke-width:1px;stroke-linecap:butt;stroke-linejoin:miter;stroke-opacity:1" d="M 451.373,486.384 463.043,525.286 z" id="boundary" inkscape:connector-curvature="0" />
	<path style="fill:none;stroke:red;stroke-width:1px;stroke-linecap:butt;stroke-linejoin:miter;stroke-opacity:1" d="M 455.263,906.525 463.043,859.843 z" id="boundary" inkscape:connector-curvature="0" />
	<path style="fill:none;stroke:red;stroke-width:1px;stroke-linecap:butt;stroke-linejoin:miter;stroke-opacity:1" d="M 463.043,525.286 470.824,564.188 z" id="boundary" inkscape:connector-curvature="0" />
	<path style="fill:none;stroke:red;stroke-width:1px;stroke-linecap:butt;stroke-linejoin:miter;stroke-opacity:1" d="M 463.043,859.843 505.835,883.184 z" id="boundary" inkscape:connector-curvature="0" />
	<path style="fill:none;stroke:red;stroke-width:1px;stroke-linecap:butt;stroke-linejoin:miter;stroke-opacity:1" d="M 470.824,4 509.725,4 z" id="boundary" inkscape:connector-curvature="0" />
	<path style="fill:none;stroke:red;stroke-width:1px;stroke-linecap:butt;stroke-linejoin:miter;stroke-opacity:1" d="M 470.824,564.188 478.604,603.09 z" id="boundary" inkscape:connector-curvature="0" />
	<path style="fill:none;stroke:red;stroke-width:1px;stroke-linecap:butt;stroke-linejoin:miter;stroke-opacity:1" d="M 470.824,805.38 513.616,828.722 z" id="boundary" inkscape:connector-curvature="0" />
	<path style="fill:none;stroke:red;stroke-width:1px;stroke-linecap:butt;stroke-linejoin:miter;stroke-opacity:1" d="M 478.604,603.09 486.384,641.992 z" id="boundary" inkscape:connector-curvature="0" />
	<path style="fill:none;stroke:red;stroke-width:1px;stroke-linecap:butt;stroke-linejoin:miter;stroke-opacity:1" d="M 478.604,743.137 521.396,774.259 z" id="boundary" inkscape:connector-curvature="0" />
	<path style="fill:none;stroke:red;stroke-width:1px;stroke-linecap:butt;stroke-linejoin:miter;stroke-opacity:1" d="M 486.384,641.992 486.384,680.894 z" id="boundary" inkscape:connector-curvature="0" />
	<path style="fill:none;stroke:red;stroke-width:1px;stroke-linecap:butt;stroke-linejoin:miter;stroke-opacity:1" d="M 486.384,996 525.286,996 z" id="boundary" inkscape:connector-curvature="0" />
	<path style="fill:none;stroke:red;stroke-width:1px;stroke-linecap:butt;stroke-linejoin:miter;stroke-opacity:1" d="M 505.835,883.184 505.835,922.086 z" id="boundary" inkscape:connector-curvature="0" />
	<path style="fill:none;stroke:red;stroke-width:1px;stroke-linecap:butt;stroke-linejoin:miter;stroke-opacity:1" d="M 509.725,4 548.627,7.8902 z" id="boundary" inkscape:connector-curvature="0" />
	<path style="fill:none;stroke:red;stroke-width:1px;stroke-linecap:butt;stroke-linejoin:miter;stroke-opacity:1" d="M 513.616,828.722 521.396,774.259 z" id="boundary" inkscape:connector-curvature="0" />
	<path style="fill:none;stroke:red;stroke-width:1px;stroke-linecap:butt;stroke-linejoin:miter;stroke-opacity:1" d="M 525.286,996 560.298,953.208 z" id="boundary" inkscape:connector-curvature="0" />
	<path style="fill:none;stroke:red;stroke-width:1px;stroke-linecap:butt;stroke-linejoin:miter;stroke-opacity:1" d="M 529.176,719.796 583.639,735.357 z" id="boundary" inkscape:connector-curvature="0" />
	<path style="fill:none;stroke:red;stroke-width:1px;stroke-linecap:butt;stroke-linejoin:miter;stroke-opacity:1" d="M 548.627,7.8902 587.529,23.451 z" id="boundary" inkscape:connector-curvature="0" />
	<path style="fill:none;stroke:red;stroke-width:1px;stroke-linecap:butt;stroke-linejoin:miter;stroke-opacity:1" d="M 560.298,914.306 560.298,953.208 z" id="boundary" inkscape:connector-curvature="0" />
	<path style="fill:none;stroke:red;stroke-width:1px;stroke-linecap:butt;stroke-linejoin:miter;stroke-opacity:1" d="M 583.639,735.357 591.42,696.455 z" id="boundary" inkscape:connector-curvature="0" />
	<path style="fill:none;stroke:red;stroke-width:1px;stroke-linecap:butt;stroke-linejoin:miter;stroke-opacity:1" d="M 587.529,23.451 622.541,42.902 z" id="boundary" inkscape:connector-curvature="0" />
	<path style="fill:none;stroke:red;stroke-width:1px;stroke-linecap:butt;stroke-linejoin:miter;stroke-opacity:1" d="M 591.42,501.945 591.42,540.847 z" id="boundary" inkscape:connector-curvature="0" />
	<path style="fill:none;stroke:red;stroke-width:1px;stroke-linecap:butt;stroke-linejoin:miter;stroke-opacity:1" d="M 591.42,501.945 599.2,455.263 z" id="boundary" inkscape:connector-curvature="0" />
	<path style="fill:none;stroke:red;stroke-width:1px;stroke-linecap:butt;stroke-linejoin:miter;stroke-opacity:1" d="M 591.42,540.847 591.42,579.749 z" id="boundary" inkscape:connector-curvature="0" />
	<path style="fill:none;stroke:red;stroke-width:1px;stroke-linecap:butt;stroke-linejoin:miter;stroke-opacity:1" d="M 591.42,579.749 591.42,618.651 z" id="boundary" inkscape:connector-curvature="0" />
	<path style="fill:none;stroke:red;stroke-width:1px;stroke-linecap:butt;stroke-linejoin:miter;stroke-opacity:1" d="M 591.42,618.651 591.42,657.553 z" id="boundary" inkscape:connector-curvature="0" />
	<path style="fill:none;stroke:red;stroke-width:1px;stroke-linecap:butt;stroke-linejoin:miter;stroke-opacity:1" d="M 591.42,657.553 591.42,696.455 z" id="boundary" inkscape:connector-curvature="0" />
	<path style="fill:none;stroke:red;stroke-width:1px;stroke-linecap:butt;stroke-linejoin:miter;stroke-opacity:1" d="M 599.2,377.459 599.2,416.361 z" id="boundary" inkscape:connector-curvature="0" />
	<path style="fill:none;stroke:red;stroke-width:1px;stroke-linecap:butt;stroke-linejoin:miter;stroke-opacity:1" d="M 599.2,377.459 638.102,389.129 z" id="boundary" inkscape:connector-curvature="0" />
	<path style="fill:none;stroke:red;stroke-width:1px;stroke-linecap:butt;stroke-linejoin:miter;stroke-opacity:1" d="M 599.2,416.361 599.2,455.263 z" id="boundary" inkscape:connector-curvature="0" />
	<path style="fill:none;stroke:red;stroke-width:1px;stroke-linecap:butt;stroke-linejoin:miter;stroke-opacity:1" d="M 622.541,42.902 657.553,62.3529 z" id="boundary" inkscape:connector-curvature="0" />
	<path style="fill:none;stroke:red;stroke-width:1px;stroke-linecap:butt;stroke-linejoin:miter;stroke-opacity:1" d="M 638.102,389.129 669.224,412.471 z" id="boundary" inkscape:connector-curvature="0" />
	<path style="fill:none;stroke:red;stroke-width:1px;stroke-linecap:butt;stroke-linejoin:miter;stroke-opacity:1" d="M 657.553,62.3529 684.784,93.4745 z" id="boundary" inkscape:connector-curvature="0" />
	<path style="fill:none;stroke:red;stroke-width:1px;stroke-linecap:butt;stroke-linejoin:miter;stroke-opacity:1" d="M 669.224,412.471 708.125,428.031 z" id="boundary" inkscape:connector-curvature="0" />
	<path style="fill:none;stroke:red;stroke-width:1px;stroke-linecap:butt;stroke-linejoin:miter;stroke-opacity:1" d="M 684.784,93.4745 715.906,120.706 z" id="boundary" inkscape:connector-curvature="0" />
	<path style="fill:none;stroke:red;stroke-width:1px;stroke-linecap:butt;stroke-linejoin:miter;stroke-opacity:1" d="M 708.125,428.031 747.027,431.922 z" id="boundary" inkscape:connector-curvature="0" />
	<path style="fill:none;stroke:red;stroke-width:1px;stroke-linecap:butt;stroke-linejoin:miter;stroke-opacity:1" d="M 715.906,120.706 739.247,151.827 z" id="boundary" inkscape:connector-curvature="0" />
	<path style="fill:none;stroke:red;stroke-width:1px;stroke-linecap:butt;stroke-linejoin:miter;stroke-opacity:1" d="M 739.247,151.827 766.478,182.949 z" id="boundary" inkscape:connector-curvature="0" />
	<path style="fill:none;stroke:red;stroke-width:1px;stroke-linecap:butt;stroke-linejoin:miter;stroke-opacity:1" d="M 747.027,431.922 785.929,435.812 z" id="boundary" inkscape:connector-curvature="0" />
	<path style="fill:none;stroke:red;stroke-width:1px;stroke-linecap:butt;stroke-linejoin:miter;stroke-opacity:1" d="M 766.478,182.949 789.82,214.071 z" id="boundary" inkscape:connector-curvature="0" />
	<path style="fill:none;stroke:red;stroke-width:1px;stroke-linecap:butt;stroke-linejoin:miter;stroke-opacity:1" d="M 785.929,435.812 824.831,428.031 z" id="boundary" inkscape:connector-curvature="0" />
	<path style="fill:none;stroke:red;stroke-width:1px;stroke-linecap:butt;stroke-linejoin:miter;stroke-opacity:1" d="M 789.82,214.071 817.051,245.192 z" id="boundary" inkscape:connector-curvature="0" />
	<path style="fill:none;stroke:red;stroke-width:1px;stroke-linecap:butt;stroke-linejoin:miter;stroke-opacity:1" d="M 817.051,245.192 840.392,276.314 z" id="boundary" inkscape:connector-curvature="0" />
	<path style="fill:none;stroke:red;stroke-width:1px;stroke-linecap:butt;stroke-linejoin:miter;stroke-opacity:1" d="M 824.831,428.031 863.733,428.031 z" id="boundary" inkscape:connector-curvature="0" />
	<path style="fill:none;stroke:red;stroke-width:1px;stroke-linecap:butt;stroke-linejoin:miter;stroke-opacity:1" d="M 840.392,276.314 859.843,311.325 z" id="boundary" inkscape:connector-curvature="0" />
	<path style="fill:none;stroke:red;stroke-width:1px;stroke-linecap:butt;stroke-linejoin:miter;stroke-opacity:1" d="M 859.843,311.325 879.294,346.337 z" id="boundary" inkscape:connector-curvature="0" />
	<path style="fill:none;stroke:red;stroke-width:1px;stroke-linecap:butt;stroke-linejoin:miter;stroke-opacity:1" d="M 863.733,428.031 887.075,385.239 z" id="boundary" inkscape:connector-curvature="0" />
	<path style="fill:none;stroke:red;stroke-width:1px;stroke-linecap:butt;stroke-linejoin:miter;stroke-opacity:1" d="M 879.294,346.337 887.075,385.239 z" id="boundary" inkscape:connector-curvature="0" />
	<circle cx="4" cy="260.753" r="4" fill="#0" id="circle0"/>
	<circle cx="23.451" cy="225.741" r="4" fill="#0" id="circle1"/>
	<circle cx="23.451" cy="295.765" r="4" fill="#0" id="circle2"/>
	<circle cx="46.7922" cy="194.62" r="4" fill="#0" id="circle3"/>
	<circle cx="58.4627" cy="272.424" r="4" fill="#0" id="circle4"/>
	<circle cx="66.2431" cy="159.608" r="4" fill="#0" id="circle5"/>
	<circle cx="74.0235" cy="120.706" r="4" fill="#0" id="circle6"/>
	<circle cx="89.5843" cy="241.302" r="4" fill="#0" id="circle7"/>
	<circle cx="105.145" cy="89.5843" r="4" fill="#0" id="circle8"/>
	<circle cx="120.706" cy="217.961" r="4" fill="#0" id="circle9"/>
	<circle cx="144.047" cy="74.0235" r="4" fill="#0" id="circle10"/>
	<circle cx="159.608" cy="202.4" r="4" fill="#0" id="circle11"/>
	<circle cx="182.949" cy="74.0235" r="4" fill="#0" id="circle12"/>
	<circle cx="190.729" cy="179.059" r="4" fill="#0" id="circle13"/>
	<circle cx="198.51" cy="276.314" r="4" fill="#0" id="circle14"/>
	<circle cx="206.29" cy="217.961" r="4" fill="#0" id="circle15"/>
	<circle cx="206.29" cy="315.216" r="4" fill="#0" id="circle16"/>
	<circle cx="221.851" cy="81.8039" r="4" fill="#0" id="circle17"/>
	<circle cx="229.631" cy="346.337" r="4" fill="#0" id="circle18"/>
	<circle cx="252.973" cy="105.145" r="4" fill="#0" id="circle19"/>
	<circle cx="260.753" cy="369.678" r="4" fill="#0" id="circle20"/>
	<circle cx="272.424" cy="140.157" r="4" fill="#0" id="circle21"/>
	<circle cx="299.655" cy="373.569" r="4" fill="#0" id="circle22"/>
	<circle cx="303.545" cy="109.035" r="4" fill="#0" id="circle23"/>
	<circle cx="322.996" cy="74.0235" r="4" fill="#0" id="circle24"/>
	<circle cx="330.776" cy="350.227" r="4" fill="#0" id="circle25"/>
	<circle cx="338.557" cy="960.988" r="4" fill="#0" id="circle26"/>
	<circle cx="350.227" cy="307.435" r="4" fill="#0" id="circle27"/>
	<circle cx="354.118" cy="42.902" r="4" fill="#0" id="circle28"/>
	<circle cx="358.008" cy="245.192" r="4" fill="#0" id="circle29"/>
	<circle cx="369.678" cy="988.22" r="4" fill="#0" id="circle30"/>
	<circle cx="389.129" cy="953.208" r="4" fill="#0" id="circle31"/>
	<circle cx="393.02" cy="27.3412" r="4" fill="#0" id="circle32"/>
	<circle cx="396.91" cy="256.863" r="4" fill="#0" id="circle33"/>
	<circle cx="408.58" cy="996" r="4" fill="#0" id="circle34"/>
	<circle cx="416.361" cy="291.875" r="4" fill="#0" id="circle35"/>
	<circle cx="424.141" cy="330.776" r="4" fill="#0" id="circle36"/>
	<circle cx="428.031" cy="369.678" r="4" fill="#0" id="circle37"/>
	<circle cx="428.031" cy="945.427" r="4" fill="#0" id="circle38"/>
	<circle cx="431.922" cy="11.7804" r="4" fill="#0" id="circle39"/>
	<circle cx="435.812" cy="408.58" r="4" fill="#0" id="circle40"/>
	<circle cx="443.592" cy="447.482" r="4" fill="#0" id="circle41"/>
	<circle cx="447.482" cy="996" r="4" fill="#0" id="circle42"/>
	<circle cx="451.373" cy="486.384" r="4" fill="#0" id="circle43"/>
	<circle cx="455.263" cy="906.525" r="4" fill="#0" id="circle44"/>
	<circle cx="463.043" cy="525.286" r="4" fill="#0" id="circle45"/>
	<circle cx="463.043" cy="859.843" r="4" fill="#0" id="circle46"/>
	<circle cx="470.824" cy="4" r="4" fill="#0" id="circle47"/>
	<circle cx="470.824" cy="564.188" r="4" fill="#0" id="circle48"/>
	<circle cx="470.824" cy="805.38" r="4" fill="#0" id="circle49"/>
	<circle cx="478.604" cy="603.09" r="4" fill="#0" id="circle50"/>
	<circle cx="478.604" cy="743.137" r="4" fill="#0" id="circle51"/>
	<circle cx="486.384" cy="641.992" r="4" fill="#0" id="circle52"/>
	<circle cx="486.384" cy="680.894" r="4" fill="#0" id="circle53"/>
	<circle cx="486.384" cy="996" r="4" fill="#0" id="circle54"/>
	<circle cx="505.835" cy="883.184" r="4" fill="#0" id="circle55"/>
	<circle cx="505.835" cy="922.086" r="4" fill="#0" id="circle56"/>
	<circle cx="509.725" cy="4" r="4" fill="#0" id="circle57"/>
	<circle cx="513.616" cy="828.722" r="4" fill="#0" id="circle58"/>
	<circle cx="521.396" cy="774.259" r="4" fill="#0" id="circle59"/>
	<circle cx="525.286" cy="996" r="4" fill="#0" id="circle60"/>
	<circle cx="529.176" cy="719.796" r="4" fill="#0" id="circle61"/>
	<circle cx="548.627" cy="7.8902" r="4" fill="#0" id="circle62"/>
	<circle cx="560.298" cy="914.306" r="4" fill="#0" id="circle63"/>
	<circle cx="560.298" cy="953.208" r="4" fill="#0" id="circle64"/>
	<circle cx="568.078" cy="859.843" r="4" fill="#0" id="circle65"/>
	<circle cx="575.859" cy="797.6" r="4" fill="#0" id="circle66"/>
	<circle cx="583.639" cy="735.357" r="4" fill="#0" id="circle67"/>
	<circle cx="587.529" cy="23.451" r="4" fill="#0" id="circle68"/>
	<circle cx="591.42" cy="501.945" r="4" fill="#0" id="circle69"/>
	<circle cx="591.42" cy="540.847" r="4" fill="#0" id="circle70"/>
	<circle cx="591.42" cy="579.749" r="4" fill="#0" id="circle71"/>
	<circle cx="591.42" cy="618.651" r="4" fill="#0" id="circle72"/>
	<circle cx="591.42" cy="657.553" r="4" fill="#0" id="circle73"/>
	<circle cx="591.42" cy="696.455" r="4" fill="#0" id="circle74"/>
	<circle cx="599.2" cy="377.459" r="4" fill="#0" id="circle75"/>
	<circle cx="599.2" cy="416.361" r="4" fill="#0" id="circle76"/>
	<circle cx="599.2" cy="455.263" r="4" fill="#0" id="circle77"/>
	<circle cx="622.541" cy="42.902" r="4" fill="#0" id="circle78"/>
	<circle cx="638.102" cy="389.129" r="4" fill="#0" id="circle79"/>
	<circle cx="657.553" cy="62.3529" r="4" fill="#0" id="circle80"/>
	<circle cx="669.224" cy="412.471" r="4" fill="#0" id="circle81"/>
	<circle cx="684.784" cy="93.4745" r="4" fill="#0" id="circle82"/>
	<circle cx="708.125" cy="428.031" r="4" fill="#0" id="circle83"/>
	<circle cx="715.906" cy="120.706" r="4" fill="#0" id="circle84"/>
	<circle cx="739.247" cy="151.827" r="4" fill="#0" id="circle85"/>
	<circle cx="747.027" cy="431.922" r="4" fill="#0" id="circle86"/>
	<circle cx="766.478" cy="182.949" r="4" fill="#0" id="circle87"/>
	<circle cx="785.929" cy="435.812" r="4" fill="#0" id="circle88"/>
	<circle cx="789.82" cy="214.071" r="4" fill="#0" id="circle89"/>
	<circle cx="817.051" cy="245.192" r="4" fill="#0" id="circle90"/>
	<circle cx="824.831" cy="428.031" r="4" fill="#0" id="circle91"/>
	<circle cx="840.392" cy="276.314" r="4" fill="#0" id="circle92"/>
	<circle cx="859.843" cy="311.325" r="4" fill="#0" id="circle93"/>
	<circle cx="863.733" cy="428.031" r="4" fill="#0" id="circle94"/>
	<circle cx="879.294" cy="346.337" r="4" fill="#0" id="circle95"/>
	<circle cx="887.075" cy="385.239" r="4" fill="#0" id="circle96"/>
	</g>
</svg>