<?xml version="1.0" encoding="UTF-8" standalone="no"?>
<!-- Created with CurveBenchmark -->
<svg
	xmlns:dc="http://purl.org/dc/elements/1.1/"
	xmlns:cc="http://creativecommons.org/ns#"
	xmlns:rdf="http://www.w3.org/1999/02/22-rdf-syntax-ns#"
	xmlns:svg="http://www.w3.org/2000/svg"
	xmlns="http://www.w3.org/2000/svg"
	xmlns:sodipodi="http://sodipodi.sourceforge.net/DTD/sodipodi-0.dtd"
	xmlns:inkscape="http://www.inkscape.org/namespaces/inkscape"
	width="1000"
	height="1000"
	id="svg2"
	version="1.1"
	sodipodi:docname="manifold/hnncrust-fountain16.png.txt">
<defs
	id="defs4" />
<metadata
	id="metadata7">
	<rdf:RDF>
		<cc:Work
			rdf:about="">
			<dc:format>image/svg+xml</dc:format>
			<dc:type
				rdf:resource="http://purl.org/dc/dcmitype/StillImage" />
			<dc:title></dc:title>
		</cc:Work>
	</rdf:RDF>
</metadata>
<g
	inkscape:label="Layer 1"
	inkscape:groupmode="layer"
	id="layer1">
	<path style="fill:none;stroke:red;stroke-width:1px;stroke-linecap:butt;stroke-linejoin:miter;stroke-opacity:1" d="M 4,550.491 4,570.291 z" id="boundary" inkscape:connector-curvature="0" />
	<path style="fill:none;stroke:red;stroke-width:1px;stroke-linecap:butt;stroke-linejoin:miter;stroke-opacity:1" d="M 4,550.491 13.9002,530.691 z" id="boundary" inkscape:connector-curvature="0" />
	<path style="fill:none;stroke:red;stroke-width:1px;stroke-linecap:butt;stroke-linejoin:miter;stroke-opacity:1" d="M 4,570.291 4,590.092 z" id="boundary" inkscape:connector-curvature="0" />
	<path style="fill:none;stroke:red;stroke-width:1px;stroke-linecap:butt;stroke-linejoin:miter;stroke-opacity:1" d="M 4,590.092 13.9002,607.912 z" id="boundary" inkscape:connector-curvature="0" />
	<path style="fill:none;stroke:red;stroke-width:1px;stroke-linecap:butt;stroke-linejoin:miter;stroke-opacity:1" d="M 13.9002,530.691 33.7006,520.79 z" id="boundary" inkscape:connector-curvature="0" />
	<path style="fill:none;stroke:red;stroke-width:1px;stroke-linecap:butt;stroke-linejoin:miter;stroke-opacity:1" d="M 13.9002,607.912 23.8004,625.733 z" id="boundary" inkscape:connector-curvature="0" />
	<path style="fill:none;stroke:red;stroke-width:1px;stroke-linecap:butt;stroke-linejoin:miter;stroke-opacity:1" d="M 23.8004,625.733 35.6806,641.573 z" id="boundary" inkscape:connector-curvature="0" />
	<path style="fill:none;stroke:red;stroke-width:1px;stroke-linecap:butt;stroke-linejoin:miter;stroke-opacity:1" d="M 33.7006,520.79 43.6008,500.99 z" id="boundary" inkscape:connector-curvature="0" />
	<path style="fill:none;stroke:red;stroke-width:1px;stroke-linecap:butt;stroke-linejoin:miter;stroke-opacity:1" d="M 35.6806,641.573 51.521,655.433 z" id="boundary" inkscape:connector-curvature="0" />
	<path style="fill:none;stroke:red;stroke-width:1px;stroke-linecap:butt;stroke-linejoin:miter;stroke-opacity:1" d="M 43.6008,500.99 59.4411,485.15 z" id="boundary" inkscape:connector-curvature="0" />
	<path style="fill:none;stroke:red;stroke-width:1px;stroke-linecap:butt;stroke-linejoin:miter;stroke-opacity:1" d="M 51.521,655.433 69.3413,665.333 z" id="boundary" inkscape:connector-curvature="0" />
	<path style="fill:none;stroke:red;stroke-width:1px;stroke-linecap:butt;stroke-linejoin:miter;stroke-opacity:1" d="M 59.4411,485.15 75.2814,469.309 z" id="boundary" inkscape:connector-curvature="0" />
	<path style="fill:none;stroke:red;stroke-width:1px;stroke-linecap:butt;stroke-linejoin:miter;stroke-opacity:1" d="M 69.3413,665.333 87.1617,675.234 z" id="boundary" inkscape:connector-curvature="0" />
	<path style="fill:none;stroke:red;stroke-width:1px;stroke-linecap:butt;stroke-linejoin:miter;stroke-opacity:1" d="M 75.2814,469.309 95.0818,459.409 z" id="boundary" inkscape:connector-curvature="0" />
	<path style="fill:none;stroke:red;stroke-width:1px;stroke-linecap:butt;stroke-linejoin:miter;stroke-opacity:1" d="M 87.1617,675.234 106.962,675.234 z" id="boundary" inkscape:connector-curvature="0" />
	<path style="fill:none;stroke:red;stroke-width:1px;stroke-linecap:butt;stroke-linejoin:miter;stroke-opacity:1" d="M 95.0818,459.409 114.882,449.509 z" id="boundary" inkscape:connector-curvature="0" />
	<path style="fill:none;stroke:red;stroke-width:1px;stroke-linecap:butt;stroke-linejoin:miter;stroke-opacity:1" d="M 106.962,675.234 124.782,685.134 z" id="boundary" inkscape:connector-curvature="0" />
	<path style="fill:none;stroke:red;stroke-width:1px;stroke-linecap:butt;stroke-linejoin:miter;stroke-opacity:1" d="M 114.882,449.509 134.683,439.609 z" id="boundary" inkscape:connector-curvature="0" />
	<path style="fill:none;stroke:red;stroke-width:1px;stroke-linecap:butt;stroke-linejoin:miter;stroke-opacity:1" d="M 124.782,685.134 144.583,685.134 z" id="boundary" inkscape:connector-curvature="0" />
	<path style="fill:none;stroke:red;stroke-width:1px;stroke-linecap:butt;stroke-linejoin:miter;stroke-opacity:1" d="M 134.683,439.609 154.483,429.709 z" id="boundary" inkscape:connector-curvature="0" />
	<path style="fill:none;stroke:red;stroke-width:1px;stroke-linecap:butt;stroke-linejoin:miter;stroke-opacity:1" d="M 144.583,685.134 162.403,695.034 z" id="boundary" inkscape:connector-curvature="0" />
	<path style="fill:none;stroke:red;stroke-width:1px;stroke-linecap:butt;stroke-linejoin:miter;stroke-opacity:1" d="M 154.483,429.709 174.283,419.808 z" id="boundary" inkscape:connector-curvature="0" />
	<path style="fill:none;stroke:red;stroke-width:1px;stroke-linecap:butt;stroke-linejoin:miter;stroke-opacity:1" d="M 162.403,695.034 180.224,704.934 z" id="boundary" inkscape:connector-curvature="0" />
	<path style="fill:none;stroke:red;stroke-width:1px;stroke-linecap:butt;stroke-linejoin:miter;stroke-opacity:1" d="M 174.283,419.808 190.124,405.948 z" id="boundary" inkscape:connector-curvature="0" />
	<path style="fill:none;stroke:red;stroke-width:1px;stroke-linecap:butt;stroke-linejoin:miter;stroke-opacity:1" d="M 180.224,704.934 200.024,704.934 z" id="boundary" inkscape:connector-curvature="0" />
	<path style="fill:none;stroke:red;stroke-width:1px;stroke-linecap:butt;stroke-linejoin:miter;stroke-opacity:1" d="M 190.124,405.948 198.044,386.148 z" id="boundary" inkscape:connector-curvature="0" />
	<path style="fill:none;stroke:red;stroke-width:1px;stroke-linecap:butt;stroke-linejoin:miter;stroke-opacity:1" d="M 198.044,386.148 207.944,366.347 z" id="boundary" inkscape:connector-curvature="0" />
	<path style="fill:none;stroke:red;stroke-width:1px;stroke-linecap:butt;stroke-linejoin:miter;stroke-opacity:1" d="M 200.024,704.934 217.844,714.834 z" id="boundary" inkscape:connector-curvature="0" />
	<path style="fill:none;stroke:red;stroke-width:1px;stroke-linecap:butt;stroke-linejoin:miter;stroke-opacity:1" d="M 207.944,366.347 223.784,350.507 z" id="boundary" inkscape:connector-curvature="0" />
	<path style="fill:none;stroke:red;stroke-width:1px;stroke-linecap:butt;stroke-linejoin:miter;stroke-opacity:1" d="M 217.844,714.834 237.645,722.754 z" id="boundary" inkscape:connector-curvature="0" />
	<path style="fill:none;stroke:red;stroke-width:1px;stroke-linecap:butt;stroke-linejoin:miter;stroke-opacity:1" d="M 223.784,350.507 243.585,340.607 z" id="boundary" inkscape:connector-curvature="0" />
	<path style="fill:none;stroke:red;stroke-width:1px;stroke-linecap:butt;stroke-linejoin:miter;stroke-opacity:1" d="M 237.645,722.754 257.445,724.735 z" id="boundary" inkscape:connector-curvature="0" />
	<path style="fill:none;stroke:red;stroke-width:1px;stroke-linecap:butt;stroke-linejoin:miter;stroke-opacity:1" d="M 243.585,340.607 263.385,336.647 z" id="boundary" inkscape:connector-curvature="0" />
	<path style="fill:none;stroke:red;stroke-width:1px;stroke-linecap:butt;stroke-linejoin:miter;stroke-opacity:1" d="M 257.445,724.735 277.246,732.655 z" id="boundary" inkscape:connector-curvature="0" />
	<path style="fill:none;stroke:red;stroke-width:1px;stroke-linecap:butt;stroke-linejoin:miter;stroke-opacity:1" d="M 263.385,336.647 283.186,336.647 z" id="boundary" inkscape:connector-curvature="0" />
	<path style="fill:none;stroke:red;stroke-width:1px;stroke-linecap:butt;stroke-linejoin:miter;stroke-opacity:1" d="M 277.246,732.655 297.046,734.635 z" id="boundary" inkscape:connector-curvature="0" />
	<path style="fill:none;stroke:red;stroke-width:1px;stroke-linecap:butt;stroke-linejoin:miter;stroke-opacity:1" d="M 283.186,336.647 302.986,336.647 z" id="boundary" inkscape:connector-curvature="0" />
	<path style="fill:none;stroke:red;stroke-width:1px;stroke-linecap:butt;stroke-linejoin:miter;stroke-opacity:1" d="M 297.046,734.635 316.846,734.635 z" id="boundary" inkscape:connector-curvature="0" />
	<path style="fill:none;stroke:red;stroke-width:1px;stroke-linecap:butt;stroke-linejoin:miter;stroke-opacity:1" d="M 302.986,336.647 322.786,336.647 z" id="boundary" inkscape:connector-curvature="0" />
	<path style="fill:none;stroke:red;stroke-width:1px;stroke-linecap:butt;stroke-linejoin:miter;stroke-opacity:1" d="M 316.846,734.635 336.647,734.635 z" id="boundary" inkscape:connector-curvature="0" />
	<path style="fill:none;stroke:red;stroke-width:1px;stroke-linecap:butt;stroke-linejoin:miter;stroke-opacity:1" d="M 322.786,336.647 342.587,336.647 z" id="boundary" inkscape:connector-curvature="0" />
	<path style="fill:none;stroke:red;stroke-width:1px;stroke-linecap:butt;stroke-linejoin:miter;stroke-opacity:1" d="M 336.647,734.635 356.447,734.635 z" id="boundary" inkscape:connector-curvature="0" />
	<path style="fill:none;stroke:red;stroke-width:1px;stroke-linecap:butt;stroke-linejoin:miter;stroke-opacity:1" d="M 342.587,336.647 362.387,336.647 z" id="boundary" inkscape:connector-curvature="0" />
	<path style="fill:none;stroke:red;stroke-width:1px;stroke-linecap:butt;stroke-linejoin:miter;stroke-opacity:1" d="M 350.507,124.782 350.507,144.583 z" id="boundary" inkscape:connector-curvature="0" />
	<path style="fill:none;stroke:red;stroke-width:1px;stroke-linecap:butt;stroke-linejoin:miter;stroke-opacity:1" d="M 350.507,124.782 370.307,114.882 z" id="boundary" inkscape:connector-curvature="0" />
	<path style="fill:none;stroke:red;stroke-width:1px;stroke-linecap:butt;stroke-linejoin:miter;stroke-opacity:1" d="M 350.507,144.583 360.407,162.403 z" id="boundary" inkscape:connector-curvature="0" />
	<path style="fill:none;stroke:red;stroke-width:1px;stroke-linecap:butt;stroke-linejoin:miter;stroke-opacity:1" d="M 356.447,734.635 376.248,734.635 z" id="boundary" inkscape:connector-curvature="0" />
	<path style="fill:none;stroke:red;stroke-width:1px;stroke-linecap:butt;stroke-linejoin:miter;stroke-opacity:1" d="M 360.407,162.403 380.208,170.323 z" id="boundary" inkscape:connector-curvature="0" />
	<path style="fill:none;stroke:red;stroke-width:1px;stroke-linecap:butt;stroke-linejoin:miter;stroke-opacity:1" d="M 362.387,336.647 382.188,336.647 z" id="boundary" inkscape:connector-curvature="0" />
	<path style="fill:none;stroke:red;stroke-width:1px;stroke-linecap:butt;stroke-linejoin:miter;stroke-opacity:1" d="M 370.307,114.882 390.108,108.942 z" id="boundary" inkscape:connector-curvature="0" />
	<path style="fill:none;stroke:red;stroke-width:1px;stroke-linecap:butt;stroke-linejoin:miter;stroke-opacity:1" d="M 376.248,734.635 396.048,742.555 z" id="boundary" inkscape:connector-curvature="0" />
	<path style="fill:none;stroke:red;stroke-width:1px;stroke-linecap:butt;stroke-linejoin:miter;stroke-opacity:1" d="M 380.208,170.323 400.008,170.323 z" id="boundary" inkscape:connector-curvature="0" />
	<path style="fill:none;stroke:red;stroke-width:1px;stroke-linecap:butt;stroke-linejoin:miter;stroke-opacity:1" d="M 382.188,336.647 401.988,336.647 z" id="boundary" inkscape:connector-curvature="0" />
	<path style="fill:none;stroke:red;stroke-width:1px;stroke-linecap:butt;stroke-linejoin:miter;stroke-opacity:1" d="M 390.108,108.942 409.908,108.942 z" id="boundary" inkscape:connector-curvature="0" />
	<path style="fill:none;stroke:red;stroke-width:1px;stroke-linecap:butt;stroke-linejoin:miter;stroke-opacity:1" d="M 396.048,742.555 415.848,744.535 z" id="boundary" inkscape:connector-curvature="0" />
	<path style="fill:none;stroke:red;stroke-width:1px;stroke-linecap:butt;stroke-linejoin:miter;stroke-opacity:1" d="M 400.008,170.323 417.828,180.224 z" id="boundary" inkscape:connector-curvature="0" />
	<path style="fill:none;stroke:red;stroke-width:1px;stroke-linecap:butt;stroke-linejoin:miter;stroke-opacity:1" d="M 401.988,336.647 421.788,336.647 z" id="boundary" inkscape:connector-curvature="0" />
	<path style="fill:none;stroke:red;stroke-width:1px;stroke-linecap:butt;stroke-linejoin:miter;stroke-opacity:1" d="M 409.908,108.942 429.709,108.942 z" id="boundary" inkscape:connector-curvature="0" />
	<path style="fill:none;stroke:red;stroke-width:1px;stroke-linecap:butt;stroke-linejoin:miter;stroke-opacity:1" d="M 415.848,744.535 435.649,744.535 z" id="boundary" inkscape:connector-curvature="0" />
	<path style="fill:none;stroke:red;stroke-width:1px;stroke-linecap:butt;stroke-linejoin:miter;stroke-opacity:1" d="M 417.828,180.224 437.629,180.224 z" id="boundary" inkscape:connector-curvature="0" />
	<path style="fill:none;stroke:red;stroke-width:1px;stroke-linecap:butt;stroke-linejoin:miter;stroke-opacity:1" d="M 421.788,336.647 439.609,312.886 z" id="boundary" inkscape:connector-curvature="0" />
	<path style="fill:none;stroke:red;stroke-width:1px;stroke-linecap:butt;stroke-linejoin:miter;stroke-opacity:1" d="M 429.709,108.942 449.509,108.942 z" id="boundary" inkscape:connector-curvature="0" />
	<path style="fill:none;stroke:red;stroke-width:1px;stroke-linecap:butt;stroke-linejoin:miter;stroke-opacity:1" d="M 435.649,744.535 455.449,744.535 z" id="boundary" inkscape:connector-curvature="0" />
	<path style="fill:none;stroke:red;stroke-width:1px;stroke-linecap:butt;stroke-linejoin:miter;stroke-opacity:1" d="M 437.629,180.224 449.509,196.064 z" id="boundary" inkscape:connector-curvature="0" />
	<path style="fill:none;stroke:red;stroke-width:1px;stroke-linecap:butt;stroke-linejoin:miter;stroke-opacity:1" d="M 439.609,312.886 449.509,295.066 z" id="boundary" inkscape:connector-curvature="0" />
	<path style="fill:none;stroke:red;stroke-width:1px;stroke-linecap:butt;stroke-linejoin:miter;stroke-opacity:1" d="M 449.509,108.942 467.329,99.0419 z" id="boundary" inkscape:connector-curvature="0" />
	<path style="fill:none;stroke:red;stroke-width:1px;stroke-linecap:butt;stroke-linejoin:miter;stroke-opacity:1" d="M 449.509,196.064 449.509,215.864 z" id="boundary" inkscape:connector-curvature="0" />
	<path style="fill:none;stroke:red;stroke-width:1px;stroke-linecap:butt;stroke-linejoin:miter;stroke-opacity:1" d="M 449.509,215.864 449.509,235.665 z" id="boundary" inkscape:connector-curvature="0" />
	<path style="fill:none;stroke:red;stroke-width:1px;stroke-linecap:butt;stroke-linejoin:miter;stroke-opacity:1" d="M 449.509,235.665 449.509,255.465 z" id="boundary" inkscape:connector-curvature="0" />
	<path style="fill:none;stroke:red;stroke-width:1px;stroke-linecap:butt;stroke-linejoin:miter;stroke-opacity:1" d="M 449.509,255.465 449.509,275.265 z" id="boundary" inkscape:connector-curvature="0" />
	<path style="fill:none;stroke:red;stroke-width:1px;stroke-linecap:butt;stroke-linejoin:miter;stroke-opacity:1" d="M 449.509,275.265 449.509,295.066 z" id="boundary" inkscape:connector-curvature="0" />
	<path style="fill:none;stroke:red;stroke-width:1px;stroke-linecap:butt;stroke-linejoin:miter;stroke-opacity:1" d="M 455.449,744.535 473.269,754.435 z" id="boundary" inkscape:connector-curvature="0" />
	<path style="fill:none;stroke:red;stroke-width:1px;stroke-linecap:butt;stroke-linejoin:miter;stroke-opacity:1" d="M 467.329,99.0419 469.309,75.2814 z" id="boundary" inkscape:connector-curvature="0" />
	<path style="fill:none;stroke:red;stroke-width:1px;stroke-linecap:butt;stroke-linejoin:miter;stroke-opacity:1" d="M 469.309,15.8802 469.309,35.6806 z" id="boundary" inkscape:connector-curvature="0" />
	<path style="fill:none;stroke:red;stroke-width:1px;stroke-linecap:butt;stroke-linejoin:miter;stroke-opacity:1" d="M 469.309,15.8802 489.11,5.98004 z" id="boundary" inkscape:connector-curvature="0" />
	<path style="fill:none;stroke:red;stroke-width:1px;stroke-linecap:butt;stroke-linejoin:miter;stroke-opacity:1" d="M 469.309,35.6806 469.309,55.481 z" id="boundary" inkscape:connector-curvature="0" />
	<path style="fill:none;stroke:red;stroke-width:1px;stroke-linecap:butt;stroke-linejoin:miter;stroke-opacity:1" d="M 469.309,55.481 469.309,75.2814 z" id="boundary" inkscape:connector-curvature="0" />
	<path style="fill:none;stroke:red;stroke-width:1px;stroke-linecap:butt;stroke-linejoin:miter;stroke-opacity:1" d="M 473.269,754.435 493.07,754.435 z" id="boundary" inkscape:connector-curvature="0" />
	<path style="fill:none;stroke:red;stroke-width:1px;stroke-linecap:butt;stroke-linejoin:miter;stroke-opacity:1" d="M 489.11,5.98004 508.91,4 z" id="boundary" inkscape:connector-curvature="0" />
	<path style="fill:none;stroke:red;stroke-width:1px;stroke-linecap:butt;stroke-linejoin:miter;stroke-opacity:1" d="M 493.07,754.435 512.87,754.435 z" id="boundary" inkscape:connector-curvature="0" />
	<path style="fill:none;stroke:red;stroke-width:1px;stroke-linecap:butt;stroke-linejoin:miter;stroke-opacity:1" d="M 508.91,4 510.89,23.8004 z" id="boundary" inkscape:connector-curvature="0" />
	<path style="fill:none;stroke:red;stroke-width:1px;stroke-linecap:butt;stroke-linejoin:miter;stroke-opacity:1" d="M 510.89,23.8004 510.89,43.6008 z" id="boundary" inkscape:connector-curvature="0" />
	<path style="fill:none;stroke:red;stroke-width:1px;stroke-linecap:butt;stroke-linejoin:miter;stroke-opacity:1" d="M 510.89,43.6008 510.89,63.4012 z" id="boundary" inkscape:connector-curvature="0" />
	<path style="fill:none;stroke:red;stroke-width:1px;stroke-linecap:butt;stroke-linejoin:miter;stroke-opacity:1" d="M 510.89,63.4012 520.79,81.2216 z" id="boundary" inkscape:connector-curvature="0" />
	<path style="fill:none;stroke:red;stroke-width:1px;stroke-linecap:butt;stroke-linejoin:miter;stroke-opacity:1" d="M 512.87,754.435 532.671,754.435 z" id="boundary" inkscape:connector-curvature="0" />
	<path style="fill:none;stroke:red;stroke-width:1px;stroke-linecap:butt;stroke-linejoin:miter;stroke-opacity:1" d="M 520.79,81.2216 530.691,99.0419 z" id="boundary" inkscape:connector-curvature="0" />
	<path style="fill:none;stroke:red;stroke-width:1px;stroke-linecap:butt;stroke-linejoin:miter;stroke-opacity:1" d="M 530.691,99.0419 546.531,110.922 z" id="boundary" inkscape:connector-curvature="0" />
	<path style="fill:none;stroke:red;stroke-width:1px;stroke-linecap:butt;stroke-linejoin:miter;stroke-opacity:1" d="M 530.691,200.024 530.691,219.824 z" id="boundary" inkscape:connector-curvature="0" />
	<path style="fill:none;stroke:red;stroke-width:1px;stroke-linecap:butt;stroke-linejoin:miter;stroke-opacity:1" d="M 530.691,200.024 546.531,186.164 z" id="boundary" inkscape:connector-curvature="0" />
	<path style="fill:none;stroke:red;stroke-width:1px;stroke-linecap:butt;stroke-linejoin:miter;stroke-opacity:1" d="M 530.691,219.824 530.691,239.625 z" id="boundary" inkscape:connector-curvature="0" />
	<path style="fill:none;stroke:red;stroke-width:1px;stroke-linecap:butt;stroke-linejoin:miter;stroke-opacity:1" d="M 530.691,239.625 530.691,259.425 z" id="boundary" inkscape:connector-curvature="0" />
	<path style="fill:none;stroke:red;stroke-width:1px;stroke-linecap:butt;stroke-linejoin:miter;stroke-opacity:1" d="M 530.691,259.425 530.691,279.226 z" id="boundary" inkscape:connector-curvature="0" />
	<path style="fill:none;stroke:red;stroke-width:1px;stroke-linecap:butt;stroke-linejoin:miter;stroke-opacity:1" d="M 530.691,279.226 530.691,299.026 z" id="boundary" inkscape:connector-curvature="0" />
	<path style="fill:none;stroke:red;stroke-width:1px;stroke-linecap:butt;stroke-linejoin:miter;stroke-opacity:1" d="M 530.691,299.026 534.651,318.826 z" id="boundary" inkscape:connector-curvature="0" />
	<path style="fill:none;stroke:red;stroke-width:1px;stroke-linecap:butt;stroke-linejoin:miter;stroke-opacity:1" d="M 532.671,754.435 552.471,754.435 z" id="boundary" inkscape:connector-curvature="0" />
	<path style="fill:none;stroke:red;stroke-width:1px;stroke-linecap:butt;stroke-linejoin:miter;stroke-opacity:1" d="M 534.651,318.826 554.451,326.747 z" id="boundary" inkscape:connector-curvature="0" />
	<path style="fill:none;stroke:red;stroke-width:1px;stroke-linecap:butt;stroke-linejoin:miter;stroke-opacity:1" d="M 546.531,110.922 566.331,118.842 z" id="boundary" inkscape:connector-curvature="0" />
	<path style="fill:none;stroke:red;stroke-width:1px;stroke-linecap:butt;stroke-linejoin:miter;stroke-opacity:1" d="M 546.531,186.164 566.331,180.224 z" id="boundary" inkscape:connector-curvature="0" />
	<path style="fill:none;stroke:red;stroke-width:1px;stroke-linecap:butt;stroke-linejoin:miter;stroke-opacity:1" d="M 552.471,754.435 572.271,754.435 z" id="boundary" inkscape:connector-curvature="0" />
	<path style="fill:none;stroke:red;stroke-width:1px;stroke-linecap:butt;stroke-linejoin:miter;stroke-opacity:1" d="M 554.451,326.747 574.251,326.747 z" id="boundary" inkscape:connector-curvature="0" />
	<path style="fill:none;stroke:red;stroke-width:1px;stroke-linecap:butt;stroke-linejoin:miter;stroke-opacity:1" d="M 566.331,118.842 584.152,108.942 z" id="boundary" inkscape:connector-curvature="0" />
	<path style="fill:none;stroke:red;stroke-width:1px;stroke-linecap:butt;stroke-linejoin:miter;stroke-opacity:1" d="M 566.331,180.224 586.132,176.263 z" id="boundary" inkscape:connector-curvature="0" />
	<path style="fill:none;stroke:red;stroke-width:1px;stroke-linecap:butt;stroke-linejoin:miter;stroke-opacity:1" d="M 572.271,754.435 592.072,754.435 z" id="boundary" inkscape:connector-curvature="0" />
	<path style="fill:none;stroke:red;stroke-width:1px;stroke-linecap:butt;stroke-linejoin:miter;stroke-opacity:1" d="M 574.251,326.747 594.052,326.747 z" id="boundary" inkscape:connector-curvature="0" />
	<path style="fill:none;stroke:red;stroke-width:1px;stroke-linecap:butt;stroke-linejoin:miter;stroke-opacity:1" d="M 584.152,108.942 603.952,108.942 z" id="boundary" inkscape:connector-curvature="0" />
	<path style="fill:none;stroke:red;stroke-width:1px;stroke-linecap:butt;stroke-linejoin:miter;stroke-opacity:1" d="M 586.132,176.263 605.932,170.323 z" id="boundary" inkscape:connector-curvature="0" />
	<path style="fill:none;stroke:red;stroke-width:1px;stroke-linecap:butt;stroke-linejoin:miter;stroke-opacity:1" d="M 592.072,754.435 611.872,754.435 z" id="boundary" inkscape:connector-curvature="0" />
	<path style="fill:none;stroke:red;stroke-width:1px;stroke-linecap:butt;stroke-linejoin:miter;stroke-opacity:1" d="M 594.052,326.747 613.852,326.747 z" id="boundary" inkscape:connector-curvature="0" />
	<path style="fill:none;stroke:red;stroke-width:1px;stroke-linecap:butt;stroke-linejoin:miter;stroke-opacity:1" d="M 603.952,108.942 623.752,108.942 z" id="boundary" inkscape:connector-curvature="0" />
	<path style="fill:none;stroke:red;stroke-width:1px;stroke-linecap:butt;stroke-linejoin:miter;stroke-opacity:1" d="M 605.932,170.323 623.752,158.443 z" id="boundary" inkscape:connector-curvature="0" />
	<path style="fill:none;stroke:red;stroke-width:1px;stroke-linecap:butt;stroke-linejoin:miter;stroke-opacity:1" d="M 611.872,754.435 631.673,754.435 z" id="boundary" inkscape:connector-curvature="0" />
	<path style="fill:none;stroke:red;stroke-width:1px;stroke-linecap:butt;stroke-linejoin:miter;stroke-opacity:1" d="M 613.852,326.747 633.653,326.747 z" id="boundary" inkscape:connector-curvature="0" />
	<path style="fill:none;stroke:red;stroke-width:1px;stroke-linecap:butt;stroke-linejoin:miter;stroke-opacity:1" d="M 623.752,108.942 639.593,120.822 z" id="boundary" inkscape:connector-curvature="0" />
	<path style="fill:none;stroke:red;stroke-width:1px;stroke-linecap:butt;stroke-linejoin:miter;stroke-opacity:1" d="M 623.752,158.443 639.593,140.623 z" id="boundary" inkscape:connector-curvature="0" />
	<path style="fill:none;stroke:red;stroke-width:1px;stroke-linecap:butt;stroke-linejoin:miter;stroke-opacity:1" d="M 631.673,754.435 651.473,754.435 z" id="boundary" inkscape:connector-curvature="0" />
	<path style="fill:none;stroke:red;stroke-width:1px;stroke-linecap:butt;stroke-linejoin:miter;stroke-opacity:1" d="M 633.653,326.747 653.453,326.747 z" id="boundary" inkscape:connector-curvature="0" />
	<path style="fill:none;stroke:red;stroke-width:1px;stroke-linecap:butt;stroke-linejoin:miter;stroke-opacity:1" d="M 639.593,120.822 639.593,140.623 z" id="boundary" inkscape:connector-curvature="0" />
	<path style="fill:none;stroke:red;stroke-width:1px;stroke-linecap:butt;stroke-linejoin:miter;stroke-opacity:1" d="M 651.473,754.435 671.273,754.435 z" id="boundary" inkscape:connector-curvature="0" />
	<path style="fill:none;stroke:red;stroke-width:1px;stroke-linecap:butt;stroke-linejoin:miter;stroke-opacity:1" d="M 653.453,326.747 673.253,326.747 z" id="boundary" inkscape:connector-curvature="0" />
	<path style="fill:none;stroke:red;stroke-width:1px;stroke-linecap:butt;stroke-linejoin:miter;stroke-opacity:1" d="M 671.273,754.435 689.094,744.535 z" id="boundary" inkscape:connector-curvature="0" />
	<path style="fill:none;stroke:red;stroke-width:1px;stroke-linecap:butt;stroke-linejoin:miter;stroke-opacity:1" d="M 673.253,326.747 693.054,326.747 z" id="boundary" inkscape:connector-curvature="0" />
	<path style="fill:none;stroke:red;stroke-width:1px;stroke-linecap:butt;stroke-linejoin:miter;stroke-opacity:1" d="M 689.094,744.535 708.894,744.535 z" id="boundary" inkscape:connector-curvature="0" />
	<path style="fill:none;stroke:red;stroke-width:1px;stroke-linecap:butt;stroke-linejoin:miter;stroke-opacity:1" d="M 693.054,326.747 712.854,326.747 z" id="boundary" inkscape:connector-curvature="0" />
	<path style="fill:none;stroke:red;stroke-width:1px;stroke-linecap:butt;stroke-linejoin:miter;stroke-opacity:1" d="M 708.894,744.535 728.695,734.635 z" id="boundary" inkscape:connector-curvature="0" />
	<path style="fill:none;stroke:red;stroke-width:1px;stroke-linecap:butt;stroke-linejoin:miter;stroke-opacity:1" d="M 712.854,326.747 732.655,326.747 z" id="boundary" inkscape:connector-curvature="0" />
	<path style="fill:none;stroke:red;stroke-width:1px;stroke-linecap:butt;stroke-linejoin:miter;stroke-opacity:1" d="M 728.695,734.635 748.495,734.635 z" id="boundary" inkscape:connector-curvature="0" />
	<path style="fill:none;stroke:red;stroke-width:1px;stroke-linecap:butt;stroke-linejoin:miter;stroke-opacity:1" d="M 732.655,326.747 750.475,336.647 z" id="boundary" inkscape:connector-curvature="0" />
	<path style="fill:none;stroke:red;stroke-width:1px;stroke-linecap:butt;stroke-linejoin:miter;stroke-opacity:1" d="M 748.495,734.635 768.295,724.735 z" id="boundary" inkscape:connector-curvature="0" />
	<path style="fill:none;stroke:red;stroke-width:1px;stroke-linecap:butt;stroke-linejoin:miter;stroke-opacity:1" d="M 750.475,336.647 768.295,346.547 z" id="boundary" inkscape:connector-curvature="0" />
	<path style="fill:none;stroke:red;stroke-width:1px;stroke-linecap:butt;stroke-linejoin:miter;stroke-opacity:1" d="M 768.295,346.547 768.295,366.347 z" id="boundary" inkscape:connector-curvature="0" />
	<path style="fill:none;stroke:red;stroke-width:1px;stroke-linecap:butt;stroke-linejoin:miter;stroke-opacity:1" d="M 768.295,366.347 768.295,386.148 z" id="boundary" inkscape:connector-curvature="0" />
	<path style="fill:none;stroke:red;stroke-width:1px;stroke-linecap:butt;stroke-linejoin:miter;stroke-opacity:1" d="M 768.295,386.148 768.295,405.948 z" id="boundary" inkscape:connector-curvature="0" />
	<path style="fill:none;stroke:red;stroke-width:1px;stroke-linecap:butt;stroke-linejoin:miter;stroke-opacity:1" d="M 768.295,405.948 768.295,425.749 z" id="boundary" inkscape:connector-curvature="0" />
	<path style="fill:none;stroke:red;stroke-width:1px;stroke-linecap:butt;stroke-linejoin:miter;stroke-opacity:1" d="M 768.295,425.749 788.096,431.689 z" id="boundary" inkscape:connector-curvature="0" />
	<path style="fill:none;stroke:red;stroke-width:1px;stroke-linecap:butt;stroke-linejoin:miter;stroke-opacity:1" d="M 768.295,724.735 788.096,714.834 z" id="boundary" inkscape:connector-curvature="0" />
	<path style="fill:none;stroke:red;stroke-width:1px;stroke-linecap:butt;stroke-linejoin:miter;stroke-opacity:1" d="M 788.096,431.689 805.916,441.589 z" id="boundary" inkscape:connector-curvature="0" />
	<path style="fill:none;stroke:red;stroke-width:1px;stroke-linecap:butt;stroke-linejoin:miter;stroke-opacity:1" d="M 788.096,714.834 807.896,714.834 z" id="boundary" inkscape:connector-curvature="0" />
	<path style="fill:none;stroke:red;stroke-width:1px;stroke-linecap:butt;stroke-linejoin:miter;stroke-opacity:1" d="M 805.916,441.589 821.756,455.449 z" id="boundary" inkscape:connector-curvature="0" />
	<path style="fill:none;stroke:red;stroke-width:1px;stroke-linecap:butt;stroke-linejoin:miter;stroke-opacity:1" d="M 807.896,714.834 827.697,704.934 z" id="boundary" inkscape:connector-curvature="0" />
	<path style="fill:none;stroke:red;stroke-width:1px;stroke-linecap:butt;stroke-linejoin:miter;stroke-opacity:1" d="M 821.756,455.449 839.577,465.349 z" id="boundary" inkscape:connector-curvature="0" />
	<path style="fill:none;stroke:red;stroke-width:1px;stroke-linecap:butt;stroke-linejoin:miter;stroke-opacity:1" d="M 827.697,704.934 847.497,704.934 z" id="boundary" inkscape:connector-curvature="0" />
	<path style="fill:none;stroke:red;stroke-width:1px;stroke-linecap:butt;stroke-linejoin:miter;stroke-opacity:1" d="M 839.577,465.349 859.377,465.349 z" id="boundary" inkscape:connector-curvature="0" />
	<path style="fill:none;stroke:red;stroke-width:1px;stroke-linecap:butt;stroke-linejoin:miter;stroke-opacity:1" d="M 847.497,704.934 867.297,695.034 z" id="boundary" inkscape:connector-curvature="0" />
	<path style="fill:none;stroke:red;stroke-width:1px;stroke-linecap:butt;stroke-linejoin:miter;stroke-opacity:1" d="M 859.377,465.349 877.198,475.25 z" id="boundary" inkscape:connector-curvature="0" />
	<path style="fill:none;stroke:red;stroke-width:1px;stroke-linecap:butt;stroke-linejoin:miter;stroke-opacity:1" d="M 867.297,695.034 887.098,685.134 z" id="boundary" inkscape:connector-curvature="0" />
	<path style="fill:none;stroke:red;stroke-width:1px;stroke-linecap:butt;stroke-linejoin:miter;stroke-opacity:1" d="M 877.198,475.25 896.998,481.19 z" id="boundary" inkscape:connector-curvature="0" />
	<path style="fill:none;stroke:red;stroke-width:1px;stroke-linecap:butt;stroke-linejoin:miter;stroke-opacity:1" d="M 887.098,685.134 906.898,675.234 z" id="boundary" inkscape:connector-curvature="0" />
	<path style="fill:none;stroke:red;stroke-width:1px;stroke-linecap:butt;stroke-linejoin:miter;stroke-opacity:1" d="M 896.998,481.19 916.798,485.15 z" id="boundary" inkscape:connector-curvature="0" />
	<path style="fill:none;stroke:red;stroke-width:1px;stroke-linecap:butt;stroke-linejoin:miter;stroke-opacity:1" d="M 906.898,675.234 922.739,661.373 z" id="boundary" inkscape:connector-curvature="0" />
	<path style="fill:none;stroke:red;stroke-width:1px;stroke-linecap:butt;stroke-linejoin:miter;stroke-opacity:1" d="M 916.798,485.15 936.599,491.09 z" id="boundary" inkscape:connector-curvature="0" />
	<path style="fill:none;stroke:red;stroke-width:1px;stroke-linecap:butt;stroke-linejoin:miter;stroke-opacity:1" d="M 922.739,661.373 942.539,651.473 z" id="boundary" inkscape:connector-curvature="0" />
	<path style="fill:none;stroke:red;stroke-width:1px;stroke-linecap:butt;stroke-linejoin:miter;stroke-opacity:1" d="M 936.599,491.09 954.419,500.99 z" id="boundary" inkscape:connector-curvature="0" />
	<path style="fill:none;stroke:red;stroke-width:1px;stroke-linecap:butt;stroke-linejoin:miter;stroke-opacity:1" d="M 942.539,651.473 956.399,625.733 z" id="boundary" inkscape:connector-curvature="0" />
	<path style="fill:none;stroke:red;stroke-width:1px;stroke-linecap:butt;stroke-linejoin:miter;stroke-opacity:1" d="M 954.419,500.99 974.22,504.95 z" id="boundary" inkscape:connector-curvature="0" />
	<path style="fill:none;stroke:red;stroke-width:1px;stroke-linecap:butt;stroke-linejoin:miter;stroke-opacity:1" d="M 956.399,625.733 966.299,605.932 z" id="boundary" inkscape:connector-curvature="0" />
	<path style="fill:none;stroke:red;stroke-width:1px;stroke-linecap:butt;stroke-linejoin:miter;stroke-opacity:1" d="M 966.299,605.932 976.2,586.132 z" id="boundary" inkscape:connector-curvature="0" />
	<path style="fill:none;stroke:red;stroke-width:1px;stroke-linecap:butt;stroke-linejoin:miter;stroke-opacity:1" d="M 974.22,504.95 994.02,508.91 z" id="boundary" inkscape:connector-curvature="0" />
	<path style="fill:none;stroke:red;stroke-width:1px;stroke-linecap:butt;stroke-linejoin:miter;stroke-opacity:1" d="M 976.2,586.132 986.1,566.331 z" id="boundary" inkscape:connector-curvature="0" />
	<path style="fill:none;stroke:red;stroke-width:1px;stroke-linecap:butt;stroke-linejoin:miter;stroke-opacity:1" d="M 986.1,546.531 986.1,566.331 z" id="boundary" inkscape:connector-curvature="0" />
	<path style="fill:none;stroke:red;stroke-width:1px;stroke-linecap:butt;stroke-linejoin:miter;stroke-opacity:1" d="M 986.1,546.531 996,528.711 z" id="boundary" inkscape:connector-curvature="0" />
	<path style="fill:none;stroke:red;stroke-width:1px;stroke-linecap:butt;stroke-linejoin:miter;stroke-opacity:1" d="M 994.02,508.91 996,528.711 z" id="boundary" inkscape:connector-curvature="0" />
	<circle cx="4" cy="550.491" r="4" fill="#0" id="circle0"/>
	<circle cx="4" cy="570.291" r="4" fill="#0" id="circle1"/>
	<circle cx="4" cy="590.092" r="4" fill="#0" id="circle2"/>
	<circle cx="13.9002" cy="530.691" r="4" fill="#0" id="circle3"/>
	<circle cx="13.9002" cy="607.912" r="4" fill="#0" id="circle4"/>
	<circle cx="23.8004" cy="625.733" r="4" fill="#0" id="circle5"/>
	<circle cx="33.7006" cy="520.79" r="4" fill="#0" id="circle6"/>
	<circle cx="35.6806" cy="641.573" r="4" fill="#0" id="circle7"/>
	<circle cx="43.6008" cy="500.99" r="4" fill="#0" id="circle8"/>
	<circle cx="51.521" cy="655.433" r="4" fill="#0" id="circle9"/>
	<circle cx="59.4411" cy="485.15" r="4" fill="#0" id="circle10"/>
	<circle cx="69.3413" cy="665.333" r="4" fill="#0" id="circle11"/>
	<circle cx="75.2814" cy="469.309" r="4" fill="#0" id="circle12"/>
	<circle cx="87.1617" cy="675.234" r="4" fill="#0" id="circle13"/>
	<circle cx="95.0818" cy="459.409" r="4" fill="#0" id="circle14"/>
	<circle cx="106.962" cy="675.234" r="4" fill="#0" id="circle15"/>
	<circle cx="114.882" cy="449.509" r="4" fill="#0" id="circle16"/>
	<circle cx="124.782" cy="685.134" r="4" fill="#0" id="circle17"/>
	<circle cx="134.683" cy="439.609" r="4" fill="#0" id="circle18"/>
	<circle cx="144.583" cy="685.134" r="4" fill="#0" id="circle19"/>
	<circle cx="154.483" cy="429.709" r="4" fill="#0" id="circle20"/>
	<circle cx="162.403" cy="695.034" r="4" fill="#0" id="circle21"/>
	<circle cx="174.283" cy="419.808" r="4" fill="#0" id="circle22"/>
	<circle cx="180.224" cy="704.934" r="4" fill="#0" id="circle23"/>
	<circle cx="190.124" cy="405.948" r="4" fill="#0" id="circle24"/>
	<circle cx="198.044" cy="386.148" r="4" fill="#0" id="circle25"/>
	<circle cx="200.024" cy="704.934" r="4" fill="#0" id="circle26"/>
	<circle cx="207.944" cy="366.347" r="4" fill="#0" id="circle27"/>
	<circle cx="217.844" cy="714.834" r="4" fill="#0" id="circle28"/>
	<circle cx="223.784" cy="350.507" r="4" fill="#0" id="circle29"/>
	<circle cx="237.645" cy="722.754" r="4" fill="#0" id="circle30"/>
	<circle cx="243.585" cy="340.607" r="4" fill="#0" id="circle31"/>
	<circle cx="257.445" cy="724.735" r="4" fill="#0" id="circle32"/>
	<circle cx="263.385" cy="336.647" r="4" fill="#0" id="circle33"/>
	<circle cx="277.246" cy="732.655" r="4" fill="#0" id="circle34"/>
	<circle cx="283.186" cy="336.647" r="4" fill="#0" id="circle35"/>
	<circle cx="297.046" cy="734.635" r="4" fill="#0" id="circle36"/>
	<circle cx="302.986" cy="336.647" r="4" fill="#0" id="circle37"/>
	<circle cx="316.846" cy="734.635" r="4" fill="#0" id="circle38"/>
	<circle cx="322.786" cy="336.647" r="4" fill="#0" id="circle39"/>
	<circle cx="336.647" cy="734.635" r="4" fill="#0" id="circle40"/>
	<circle cx="342.587" cy="336.647" r="4" fill="#0" id="circle41"/>
	<circle cx="350.507" cy="124.782" r="4" fill="#0" id="circle42"/>
	<circle cx="350.507" cy="144.583" r="4" fill="#0" id="circle43"/>
	<circle cx="356.447" cy="734.635" r="4" fill="#0" id="circle44"/>
	<circle cx="360.407" cy="162.403" r="4" fill="#0" id="circle45"/>
	<circle cx="362.387" cy="336.647" r="4" fill="#0" id="circle46"/>
	<circle cx="370.307" cy="114.882" r="4" fill="#0" id="circle47"/>
	<circle cx="376.248" cy="734.635" r="4" fill="#0" id="circle48"/>
	<circle cx="380.208" cy="170.323" r="4" fill="#0" id="circle49"/>
	<circle cx="382.188" cy="336.647" r="4" fill="#0" id="circle50"/>
	<circle cx="390.108" cy="108.942" r="4" fill="#0" id="circle51"/>
	<circle cx="396.048" cy="742.555" r="4" fill="#0" id="circle52"/>
	<circle cx="400.008" cy="170.323" r="4" fill="#0" id="circle53"/>
	<circle cx="401.988" cy="336.647" r="4" fill="#0" id="circle54"/>
	<circle cx="409.908" cy="108.942" r="4" fill="#0" id="circle55"/>
	<circle cx="415.848" cy="744.535" r="4" fill="#0" id="circle56"/>
	<circle cx="417.828" cy="180.224" r="4" fill="#0" id="circle57"/>
	<circle cx="421.788" cy="336.647" r="4" fill="#0" id="circle58"/>
	<circle cx="429.709" cy="108.942" r="4" fill="#0" id="circle59"/>
	<circle cx="435.649" cy="744.535" r="4" fill="#0" id="circle60"/>
	<circle cx="437.629" cy="180.224" r="4" fill="#0" id="circle61"/>
	<circle cx="439.609" cy="312.886" r="4" fill="#0" id="circle62"/>
	<circle cx="449.509" cy="108.942" r="4" fill="#0" id="circle63"/>
	<circle cx="449.509" cy="196.064" r="4" fill="#0" id="circle64"/>
	<circle cx="449.509" cy="215.864" r="4" fill="#0" id="circle65"/>
	<circle cx="449.509" cy="235.665" r="4" fill="#0" id="circle66"/>
	<circle cx="449.509" cy="255.465" r="4" fill="#0" id="circle67"/>
	<circle cx="449.509" cy="275.265" r="4" fill="#0" id="circle68"/>
	<circle cx="449.509" cy="295.066" r="4" fill="#0" id="circle69"/>
	<circle cx="455.449" cy="744.535" r="4" fill="#0" id="circle70"/>
	<circle cx="467.329" cy="99.0419" r="4" fill="#0" id="circle71"/>
	<circle cx="469.309" cy="15.8802" r="4" fill="#0" id="circle72"/>
	<circle cx="469.309" cy="35.6806" r="4" fill="#0" id="circle73"/>
	<circle cx="469.309" cy="55.481" r="4" fill="#0" id="circle74"/>
	<circle cx="469.309" cy="75.2814" r="4" fill="#0" id="circle75"/>
	<circle cx="473.269" cy="754.435" r="4" fill="#0" id="circle76"/>
	<circle cx="489.11" cy="5.98004" r="4" fill="#0" id="circle77"/>
	<circle cx="493.07" cy="754.435" r="4" fill="#0" id="circle78"/>
	<circle cx="508.91" cy="4" r="4" fill="#0" id="circle79"/>
	<circle cx="510.89" cy="23.8004" r="4" fill="#0" id="circle80"/>
	<circle cx="510.89" cy="43.6008" r="4" fill="#0" id="circle81"/>
	<circle cx="510.89" cy="63.4012" r="4" fill="#0" id="circle82"/>
	<circle cx="512.87" cy="754.435" r="4" fill="#0" id="circle83"/>
	<circle cx="520.79" cy="81.2216" r="4" fill="#0" id="circle84"/>
	<circle cx="530.691" cy="99.0419" r="4" fill="#0" id="circle85"/>
	<circle cx="530.691" cy="200.024" r="4" fill="#0" id="circle86"/>
	<circle cx="530.691" cy="219.824" r="4" fill="#0" id="circle87"/>
	<circle cx="530.691" cy="239.625" r="4" fill="#0" id="circle88"/>
	<circle cx="530.691" cy="259.425" r="4" fill="#0" id="circle89"/>
	<circle cx="530.691" cy="279.226" r="4" fill="#0" id="circle90"/>
	<circle cx="530.691" cy="299.026" r="4" fill="#0" id="circle91"/>
	<circle cx="532.671" cy="754.435" r="4" fill="#0" id="circle92"/>
	<circle cx="534.651" cy="318.826" r="4" fill="#0" id="circle93"/>
	<circle cx="546.531" cy="110.922" r="4" fill="#0" id="circle94"/>
	<circle cx="546.531" cy="186.164" r="4" fill="#0" id="circle95"/>
	<circle cx="552.471" cy="754.435" r="4" fill="#0" id="circle96"/>
	<circle cx="554.451" cy="326.747" r="4" fill="#0" id="circle97"/>
	<circle cx="566.331" cy="118.842" r="4" fill="#0" id="circle98"/>
	<circle cx="566.331" cy="180.224" r="4" fill="#0" id="circle99"/>
	<circle cx="572.271" cy="754.435" r="4" fill="#0" id="circle100"/>
	<circle cx="574.251" cy="326.747" r="4" fill="#0" id="circle101"/>
	<circle cx="584.152" cy="108.942" r="4" fill="#0" id="circle102"/>
	<circle cx="586.132" cy="176.263" r="4" fill="#0" id="circle103"/>
	<circle cx="592.072" cy="754.435" r="4" fill="#0" id="circle104"/>
	<circle cx="594.052" cy="326.747" r="4" fill="#0" id="circle105"/>
	<circle cx="603.952" cy="108.942" r="4" fill="#0" id="circle106"/>
	<circle cx="605.932" cy="170.323" r="4" fill="#0" id="circle107"/>
	<circle cx="611.872" cy="754.435" r="4" fill="#0" id="circle108"/>
	<circle cx="613.852" cy="326.747" r="4" fill="#0" id="circle109"/>
	<circle cx="623.752" cy="108.942" r="4" fill="#0" id="circle110"/>
	<circle cx="623.752" cy="158.443" r="4" fill="#0" id="circle111"/>
	<circle cx="631.673" cy="754.435" r="4" fill="#0" id="circle112"/>
	<circle cx="633.653" cy="326.747" r="4" fill="#0" id="circle113"/>
	<circle cx="639.593" cy="120.822" r="4" fill="#0" id="circle114"/>
	<circle cx="639.593" cy="140.623" r="4" fill="#0" id="circle115"/>
	<circle cx="651.473" cy="754.435" r="4" fill="#0" id="circle116"/>
	<circle cx="653.453" cy="326.747" r="4" fill="#0" id="circle117"/>
	<circle cx="671.273" cy="754.435" r="4" fill="#0" id="circle118"/>
	<circle cx="673.253" cy="326.747" r="4" fill="#0" id="circle119"/>
	<circle cx="689.094" cy="744.535" r="4" fill="#0" id="circle120"/>
	<circle cx="693.054" cy="326.747" r="4" fill="#0" id="circle121"/>
	<circle cx="708.894" cy="744.535" r="4" fill="#0" id="circle122"/>
	<circle cx="712.854" cy="326.747" r="4" fill="#0" id="circle123"/>
	<circle cx="728.695" cy="734.635" r="4" fill="#0" id="circle124"/>
	<circle cx="732.655" cy="326.747" r="4" fill="#0" id="circle125"/>
	<circle cx="748.495" cy="734.635" r="4" fill="#0" id="circle126"/>
	<circle cx="750.475" cy="336.647" r="4" fill="#0" id="circle127"/>
	<circle cx="768.295" cy="346.547" r="4" fill="#0" id="circle128"/>
	<circle cx="768.295" cy="366.347" r="4" fill="#0" id="circle129"/>
	<circle cx="768.295" cy="386.148" r="4" fill="#0" id="circle130"/>
	<circle cx="768.295" cy="405.948" r="4" fill="#0" id="circle131"/>
	<circle cx="768.295" cy="425.749" r="4" fill="#0" id="circle132"/>
	<circle cx="768.295" cy="724.735" r="4" fill="#0" id="circle133"/>
	<circle cx="788.096" cy="431.689" r="4" fill="#0" id="circle134"/>
	<circle cx="788.096" cy="714.834" r="4" fill="#0" id="circle135"/>
	<circle cx="805.916" cy="441.589" r="4" fill="#0" id="circle136"/>
	<circle cx="807.896" cy="714.834" r="4" fill="#0" id="circle137"/>
	<circle cx="821.756" cy="455.449" r="4" fill="#0" id="circle138"/>
	<circle cx="827.697" cy="704.934" r="4" fill="#0" id="circle139"/>
	<circle cx="839.577" cy="465.349" r="4" fill="#0" id="circle140"/>
	<circle cx="847.497" cy="704.934" r="4" fill="#0" id="circle141"/>
	<circle cx="859.377" cy="465.349" r="4" fill="#0" id="circle142"/>
	<circle cx="867.297" cy="695.034" r="4" fill="#0" id="circle143"/>
	<circle cx="877.198" cy="475.25" r="4" fill="#0" id="circle144"/>
	<circle cx="887.098" cy="685.134" r="4" fill="#0" id="circle145"/>
	<circle cx="896.998" cy="481.19" r="4" fill="#0" id="circle146"/>
	<circle cx="906.898" cy="675.234" r="4" fill="#0" id="circle147"/>
	<circle cx="916.798" cy="485.15" r="4" fill="#0" id="circle148"/>
	<circle cx="922.739" cy="661.373" r="4" fill="#0" id="circle149"/>
	<circle cx="936.599" cy="491.09" r="4" fill="#0" id="circle150"/>
	<circle cx="942.539" cy="651.473" r="4" fill="#0" id="circle151"/>
	<circle cx="954.419" cy="500.99" r="4" fill="#0" id="circle152"/>
	<circle cx="956.399" cy="625.733" r="4" fill="#0" id="circle153"/>
	<circle cx="966.299" cy="605.932" r="4" fill="#0" id="circle154"/>
	<circle cx="974.22" cy="504.95" r="4" fill="#0" id="circle155"/>
	<circle cx="976.2" cy="586.132" r="4" fill="#0" id="circle156"/>
	<circle cx="986.1" cy="546.531" r="4" fill="#0" id="circle157"/>
	<circle cx="986.1" cy="566.331" r="4" fill="#0" id="circle158"/>
	<circle cx="994.02" cy="508.91" r="4" fill="#0" id="circle159"/>
	<circle cx="996" cy="528.711" r="4" fill="#0" id="circle160"/>
	</g>
</svg>