<?xml version="1.0" encoding="UTF-8" standalone="no"?>
<!-- Created with CurveBenchmark -->
<svg
	xmlns:dc="http://purl.org/dc/elements/1.1/"
	xmlns:cc="http://creativecommons.org/ns#"
	xmlns:rdf="http://www.w3.org/1999/02/22-rdf-syntax-ns#"
	xmlns:svg="http://www.w3.org/2000/svg"
	xmlns="http://www.w3.org/2000/svg"
	xmlns:sodipodi="http://sodipodi.sourceforge.net/DTD/sodipodi-0.dtd"
	xmlns:inkscape="http://www.inkscape.org/namespaces/inkscape"
	width="1000"
	height="1000"
	id="svg2"
	version="1.1"
	sodipodi:docname="manifold/hnncrust-mountaincottontailocc1.png.txt">
<defs
	id="defs4" />
<metadata
	id="metadata7">
	<rdf:RDF>
		<cc:Work
			rdf:about="">
			<dc:format>image/svg+xml</dc:format>
			<dc:type
				rdf:resource="http://purl.org/dc/dcmitype/StillImage" />
			<dc:title></dc:title>
		</cc:Work>
	</rdf:RDF>
</metadata>
<g
	inkscape:label="Layer 1"
	inkscape:groupmode="layer"
	id="layer1">
	<path style="fill:none;stroke:red;stroke-width:1px;stroke-linecap:butt;stroke-linejoin:miter;stroke-opacity:1" d="M 4,258.186 4,280.68 z" id="boundary" inkscape:connector-curvature="0" />
	<path style="fill:none;stroke:red;stroke-width:1px;stroke-linecap:butt;stroke-linejoin:miter;stroke-opacity:1" d="M 4,258.186 15.2472,224.444 z" id="boundary" inkscape:connector-curvature="0" />
	<path style="fill:none;stroke:red;stroke-width:1px;stroke-linecap:butt;stroke-linejoin:miter;stroke-opacity:1" d="M 4,280.68 4,303.175 z" id="boundary" inkscape:connector-curvature="0" />
	<path style="fill:none;stroke:red;stroke-width:1px;stroke-linecap:butt;stroke-linejoin:miter;stroke-opacity:1" d="M 4,303.175 4,325.669 z" id="boundary" inkscape:connector-curvature="0" />
	<path style="fill:none;stroke:red;stroke-width:1px;stroke-linecap:butt;stroke-linejoin:miter;stroke-opacity:1" d="M 4,325.669 21.9955,341.415 z" id="boundary" inkscape:connector-curvature="0" />
	<path style="fill:none;stroke:red;stroke-width:1px;stroke-linecap:butt;stroke-linejoin:miter;stroke-opacity:1" d="M 15.2472,156.961 26.4943,177.206 z" id="boundary" inkscape:connector-curvature="0" />
	<path style="fill:none;stroke:red;stroke-width:1px;stroke-linecap:butt;stroke-linejoin:miter;stroke-opacity:1" d="M 15.2472,224.444 26.4943,201.95 z" id="boundary" inkscape:connector-curvature="0" />
	<path style="fill:none;stroke:red;stroke-width:1px;stroke-linecap:butt;stroke-linejoin:miter;stroke-opacity:1" d="M 21.9955,341.415 37.7415,359.41 z" id="boundary" inkscape:connector-curvature="0" />
	<path style="fill:none;stroke:red;stroke-width:1px;stroke-linecap:butt;stroke-linejoin:miter;stroke-opacity:1" d="M 26.4943,177.206 48.9887,168.209 z" id="boundary" inkscape:connector-curvature="0" />
	<path style="fill:none;stroke:red;stroke-width:1px;stroke-linecap:butt;stroke-linejoin:miter;stroke-opacity:1" d="M 37.7415,359.41 60.2358,366.159 z" id="boundary" inkscape:connector-curvature="0" />
	<path style="fill:none;stroke:red;stroke-width:1px;stroke-linecap:butt;stroke-linejoin:miter;stroke-opacity:1" d="M 48.9887,145.714 48.9887,168.209 z" id="boundary" inkscape:connector-curvature="0" />
	<path style="fill:none;stroke:red;stroke-width:1px;stroke-linecap:butt;stroke-linejoin:miter;stroke-opacity:1" d="M 48.9887,145.714 71.483,134.467 z" id="boundary" inkscape:connector-curvature="0" />
	<path style="fill:none;stroke:red;stroke-width:1px;stroke-linecap:butt;stroke-linejoin:miter;stroke-opacity:1" d="M 60.2358,366.159 80.4807,377.406 z" id="boundary" inkscape:connector-curvature="0" />
	<path style="fill:none;stroke:red;stroke-width:1px;stroke-linecap:butt;stroke-linejoin:miter;stroke-opacity:1" d="M 71.483,134.467 89.4785,116.472 z" id="boundary" inkscape:connector-curvature="0" />
	<path style="fill:none;stroke:red;stroke-width:1px;stroke-linecap:butt;stroke-linejoin:miter;stroke-opacity:1" d="M 80.4807,377.406 100.726,388.653 z" id="boundary" inkscape:connector-curvature="0" />
	<path style="fill:none;stroke:red;stroke-width:1px;stroke-linecap:butt;stroke-linejoin:miter;stroke-opacity:1" d="M 89.4785,116.472 107.474,98.4762 z" id="boundary" inkscape:connector-curvature="0" />
	<path style="fill:none;stroke:red;stroke-width:1px;stroke-linecap:butt;stroke-linejoin:miter;stroke-opacity:1" d="M 100.726,388.653 120.971,377.406 z" id="boundary" inkscape:connector-curvature="0" />
	<path style="fill:none;stroke:red;stroke-width:1px;stroke-linecap:butt;stroke-linejoin:miter;stroke-opacity:1" d="M 107.474,98.4762 129.968,87.229 z" id="boundary" inkscape:connector-curvature="0" />
	<path style="fill:none;stroke:red;stroke-width:1px;stroke-linecap:butt;stroke-linejoin:miter;stroke-opacity:1" d="M 120.971,377.406 138.966,390.902 z" id="boundary" inkscape:connector-curvature="0" />
	<path style="fill:none;stroke:red;stroke-width:1px;stroke-linecap:butt;stroke-linejoin:miter;stroke-opacity:1" d="M 129.968,87.229 147.964,71.483 z" id="boundary" inkscape:connector-curvature="0" />
	<path style="fill:none;stroke:red;stroke-width:1px;stroke-linecap:butt;stroke-linejoin:miter;stroke-opacity:1" d="M 138.966,390.902 161.46,388.653 z" id="boundary" inkscape:connector-curvature="0" />
	<path style="fill:none;stroke:red;stroke-width:1px;stroke-linecap:butt;stroke-linejoin:miter;stroke-opacity:1" d="M 147.964,71.483 150.213,44.4898 z" id="boundary" inkscape:connector-curvature="0" />
	<path style="fill:none;stroke:red;stroke-width:1px;stroke-linecap:butt;stroke-linejoin:miter;stroke-opacity:1" d="M 150.213,44.4898 172.707,37.7415 z" id="boundary" inkscape:connector-curvature="0" />
	<path style="fill:none;stroke:red;stroke-width:1px;stroke-linecap:butt;stroke-linejoin:miter;stroke-opacity:1" d="M 161.46,388.653 181.705,399.9 z" id="boundary" inkscape:connector-curvature="0" />
	<path style="fill:none;stroke:red;stroke-width:1px;stroke-linecap:butt;stroke-linejoin:miter;stroke-opacity:1" d="M 172.707,37.7415 195.202,37.7415 z" id="boundary" inkscape:connector-curvature="0" />
	<path style="fill:none;stroke:red;stroke-width:1px;stroke-linecap:butt;stroke-linejoin:miter;stroke-opacity:1" d="M 181.705,399.9 201.95,411.147 z" id="boundary" inkscape:connector-curvature="0" />
	<path style="fill:none;stroke:red;stroke-width:1px;stroke-linecap:butt;stroke-linejoin:miter;stroke-opacity:1" d="M 195.202,37.7415 217.696,37.7415 z" id="boundary" inkscape:connector-curvature="0" />
	<path style="fill:none;stroke:red;stroke-width:1px;stroke-linecap:butt;stroke-linejoin:miter;stroke-opacity:1" d="M 201.95,411.147 217.696,429.143 z" id="boundary" inkscape:connector-curvature="0" />
	<path style="fill:none;stroke:red;stroke-width:1px;stroke-linecap:butt;stroke-linejoin:miter;stroke-opacity:1" d="M 206.449,561.859 217.696,582.104 z" id="boundary" inkscape:connector-curvature="0" />
	<path style="fill:none;stroke:red;stroke-width:1px;stroke-linecap:butt;stroke-linejoin:miter;stroke-opacity:1" d="M 206.449,561.859 224.444,543.864 z" id="boundary" inkscape:connector-curvature="0" />
	<path style="fill:none;stroke:red;stroke-width:1px;stroke-linecap:butt;stroke-linejoin:miter;stroke-opacity:1" d="M 217.696,37.7415 240.19,37.7415 z" id="boundary" inkscape:connector-curvature="0" />
	<path style="fill:none;stroke:red;stroke-width:1px;stroke-linecap:butt;stroke-linejoin:miter;stroke-opacity:1" d="M 217.696,429.143 235.692,444.889 z" id="boundary" inkscape:connector-curvature="0" />
	<path style="fill:none;stroke:red;stroke-width:1px;stroke-linecap:butt;stroke-linejoin:miter;stroke-opacity:1" d="M 217.696,582.104 240.19,591.102 z" id="boundary" inkscape:connector-curvature="0" />
	<path style="fill:none;stroke:red;stroke-width:1px;stroke-linecap:butt;stroke-linejoin:miter;stroke-opacity:1" d="M 224.444,543.864 246.939,532.617 z" id="boundary" inkscape:connector-curvature="0" />
	<path style="fill:none;stroke:red;stroke-width:1px;stroke-linecap:butt;stroke-linejoin:miter;stroke-opacity:1" d="M 235.692,444.889 253.687,460.635 z" id="boundary" inkscape:connector-curvature="0" />
	<path style="fill:none;stroke:red;stroke-width:1px;stroke-linecap:butt;stroke-linejoin:miter;stroke-opacity:1" d="M 240.19,37.7415 262.685,37.7415 z" id="boundary" inkscape:connector-curvature="0" />
	<path style="fill:none;stroke:red;stroke-width:1px;stroke-linecap:butt;stroke-linejoin:miter;stroke-opacity:1" d="M 240.19,591.102 260.435,602.349 z" id="boundary" inkscape:connector-curvature="0" />
	<path style="fill:none;stroke:red;stroke-width:1px;stroke-linecap:butt;stroke-linejoin:miter;stroke-opacity:1" d="M 246.939,532.617 269.433,532.617 z" id="boundary" inkscape:connector-curvature="0" />
	<path style="fill:none;stroke:red;stroke-width:1px;stroke-linecap:butt;stroke-linejoin:miter;stroke-opacity:1" d="M 253.687,460.635 269.433,478.63 z" id="boundary" inkscape:connector-curvature="0" />
	<path style="fill:none;stroke:red;stroke-width:1px;stroke-linecap:butt;stroke-linejoin:miter;stroke-opacity:1" d="M 260.435,602.349 280.68,591.102 z" id="boundary" inkscape:connector-curvature="0" />
	<path style="fill:none;stroke:red;stroke-width:1px;stroke-linecap:butt;stroke-linejoin:miter;stroke-opacity:1" d="M 262.685,37.7415 285.179,42.2404 z" id="boundary" inkscape:connector-curvature="0" />
	<path style="fill:none;stroke:red;stroke-width:1px;stroke-linecap:butt;stroke-linejoin:miter;stroke-opacity:1" d="M 269.433,478.63 285.179,496.626 z" id="boundary" inkscape:connector-curvature="0" />
	<path style="fill:none;stroke:red;stroke-width:1px;stroke-linecap:butt;stroke-linejoin:miter;stroke-opacity:1" d="M 269.433,532.617 291.927,532.617 z" id="boundary" inkscape:connector-curvature="0" />
	<path style="fill:none;stroke:red;stroke-width:1px;stroke-linecap:butt;stroke-linejoin:miter;stroke-opacity:1" d="M 280.68,591.102 303.175,591.102 z" id="boundary" inkscape:connector-curvature="0" />
	<path style="fill:none;stroke:red;stroke-width:1px;stroke-linecap:butt;stroke-linejoin:miter;stroke-opacity:1" d="M 285.179,42.2404 307.673,48.9887 z" id="boundary" inkscape:connector-curvature="0" />
	<path style="fill:none;stroke:red;stroke-width:1px;stroke-linecap:butt;stroke-linejoin:miter;stroke-opacity:1" d="M 285.179,496.626 291.927,532.617 z" id="boundary" inkscape:connector-curvature="0" />
	<path style="fill:none;stroke:red;stroke-width:1px;stroke-linecap:butt;stroke-linejoin:miter;stroke-opacity:1" d="M 303.175,591.102 325.669,588.853 z" id="boundary" inkscape:connector-curvature="0" />
	<path style="fill:none;stroke:red;stroke-width:1px;stroke-linecap:butt;stroke-linejoin:miter;stroke-opacity:1" d="M 307.673,48.9887 327.918,60.2358 z" id="boundary" inkscape:connector-curvature="0" />
	<path style="fill:none;stroke:red;stroke-width:1px;stroke-linecap:butt;stroke-linejoin:miter;stroke-opacity:1" d="M 325.669,588.853 343.664,568.608 z" id="boundary" inkscape:connector-curvature="0" />
	<path style="fill:none;stroke:red;stroke-width:1px;stroke-linecap:butt;stroke-linejoin:miter;stroke-opacity:1" d="M 327.918,60.2358 350.413,60.2358 z" id="boundary" inkscape:connector-curvature="0" />
	<path style="fill:none;stroke:red;stroke-width:1px;stroke-linecap:butt;stroke-linejoin:miter;stroke-opacity:1" d="M 343.664,568.608 366.159,568.608 z" id="boundary" inkscape:connector-curvature="0" />
	<path style="fill:none;stroke:red;stroke-width:1px;stroke-linecap:butt;stroke-linejoin:miter;stroke-opacity:1" d="M 350.413,60.2358 370.658,48.9887 z" id="boundary" inkscape:connector-curvature="0" />
	<path style="fill:none;stroke:red;stroke-width:1px;stroke-linecap:butt;stroke-linejoin:miter;stroke-opacity:1" d="M 366.159,568.608 388.653,568.608 z" id="boundary" inkscape:connector-curvature="0" />
	<path style="fill:none;stroke:red;stroke-width:1px;stroke-linecap:butt;stroke-linejoin:miter;stroke-opacity:1" d="M 370.658,48.9887 393.152,37.7415 z" id="boundary" inkscape:connector-curvature="0" />
	<path style="fill:none;stroke:red;stroke-width:1px;stroke-linecap:butt;stroke-linejoin:miter;stroke-opacity:1" d="M 388.653,568.608 408.898,557.361 z" id="boundary" inkscape:connector-curvature="0" />
	<path style="fill:none;stroke:red;stroke-width:1px;stroke-linecap:butt;stroke-linejoin:miter;stroke-opacity:1" d="M 393.152,37.7415 415.646,26.4943 z" id="boundary" inkscape:connector-curvature="0" />
	<path style="fill:none;stroke:red;stroke-width:1px;stroke-linecap:butt;stroke-linejoin:miter;stroke-opacity:1" d="M 408.898,557.361 431.392,550.612 z" id="boundary" inkscape:connector-curvature="0" />
	<path style="fill:none;stroke:red;stroke-width:1px;stroke-linecap:butt;stroke-linejoin:miter;stroke-opacity:1" d="M 415.646,26.4943 438.141,26.4943 z" id="boundary" inkscape:connector-curvature="0" />
	<path style="fill:none;stroke:red;stroke-width:1px;stroke-linecap:butt;stroke-linejoin:miter;stroke-opacity:1" d="M 431.392,550.612 453.887,550.612 z" id="boundary" inkscape:connector-curvature="0" />
	<path style="fill:none;stroke:red;stroke-width:1px;stroke-linecap:butt;stroke-linejoin:miter;stroke-opacity:1" d="M 438.141,26.4943 460.635,15.2472 z" id="boundary" inkscape:connector-curvature="0" />
	<path style="fill:none;stroke:red;stroke-width:1px;stroke-linecap:butt;stroke-linejoin:miter;stroke-opacity:1" d="M 460.635,15.2472 483.129,15.2472 z" id="boundary" inkscape:connector-curvature="0" />
	<path style="fill:none;stroke:red;stroke-width:1px;stroke-linecap:butt;stroke-linejoin:miter;stroke-opacity:1" d="M 465.134,573.107 483.129,557.361 z" id="boundary" inkscape:connector-curvature="0" />
	<path style="fill:none;stroke:red;stroke-width:1px;stroke-linecap:butt;stroke-linejoin:miter;stroke-opacity:1" d="M 465.134,573.107 483.129,588.853 z" id="boundary" inkscape:connector-curvature="0" />
	<path style="fill:none;stroke:red;stroke-width:1px;stroke-linecap:butt;stroke-linejoin:miter;stroke-opacity:1" d="M 483.129,15.2472 505.624,15.2472 z" id="boundary" inkscape:connector-curvature="0" />
	<path style="fill:none;stroke:red;stroke-width:1px;stroke-linecap:butt;stroke-linejoin:miter;stroke-opacity:1" d="M 483.129,588.853 498.875,606.848 z" id="boundary" inkscape:connector-curvature="0" />
	<path style="fill:none;stroke:red;stroke-width:1px;stroke-linecap:butt;stroke-linejoin:miter;stroke-opacity:1" d="M 498.875,606.848 521.37,613.596 z" id="boundary" inkscape:connector-curvature="0" />
	<path style="fill:none;stroke:red;stroke-width:1px;stroke-linecap:butt;stroke-linejoin:miter;stroke-opacity:1" d="M 505.624,15.2472 528.118,15.2472 z" id="boundary" inkscape:connector-curvature="0" />
	<path style="fill:none;stroke:red;stroke-width:1px;stroke-linecap:butt;stroke-linejoin:miter;stroke-opacity:1" d="M 521.37,613.596 543.864,613.596 z" id="boundary" inkscape:connector-curvature="0" />
	<path style="fill:none;stroke:red;stroke-width:1px;stroke-linecap:butt;stroke-linejoin:miter;stroke-opacity:1" d="M 528.118,15.2472 550.612,4 z" id="boundary" inkscape:connector-curvature="0" />
	<path style="fill:none;stroke:red;stroke-width:1px;stroke-linecap:butt;stroke-linejoin:miter;stroke-opacity:1" d="M 543.864,613.596 566.358,613.596 z" id="boundary" inkscape:connector-curvature="0" />
	<path style="fill:none;stroke:red;stroke-width:1px;stroke-linecap:butt;stroke-linejoin:miter;stroke-opacity:1" d="M 550.612,4 573.107,4 z" id="boundary" inkscape:connector-curvature="0" />
	<path style="fill:none;stroke:red;stroke-width:1px;stroke-linecap:butt;stroke-linejoin:miter;stroke-opacity:1" d="M 566.358,613.596 588.853,613.596 z" id="boundary" inkscape:connector-curvature="0" />
	<path style="fill:none;stroke:red;stroke-width:1px;stroke-linecap:butt;stroke-linejoin:miter;stroke-opacity:1" d="M 573.107,4 593.351,15.2472 z" id="boundary" inkscape:connector-curvature="0" />
	<path style="fill:none;stroke:red;stroke-width:1px;stroke-linecap:butt;stroke-linejoin:miter;stroke-opacity:1" d="M 588.853,613.596 611.347,613.596 z" id="boundary" inkscape:connector-curvature="0" />
	<path style="fill:none;stroke:red;stroke-width:1px;stroke-linecap:butt;stroke-linejoin:miter;stroke-opacity:1" d="M 593.351,15.2472 615.846,15.2472 z" id="boundary" inkscape:connector-curvature="0" />
	<path style="fill:none;stroke:red;stroke-width:1px;stroke-linecap:butt;stroke-linejoin:miter;stroke-opacity:1" d="M 611.347,613.596 633.841,613.596 z" id="boundary" inkscape:connector-curvature="0" />
	<path style="fill:none;stroke:red;stroke-width:1px;stroke-linecap:butt;stroke-linejoin:miter;stroke-opacity:1" d="M 615.846,15.2472 638.34,15.2472 z" id="boundary" inkscape:connector-curvature="0" />
	<path style="fill:none;stroke:red;stroke-width:1px;stroke-linecap:butt;stroke-linejoin:miter;stroke-opacity:1" d="M 633.841,613.596 656.336,613.596 z" id="boundary" inkscape:connector-curvature="0" />
	<path style="fill:none;stroke:red;stroke-width:1px;stroke-linecap:butt;stroke-linejoin:miter;stroke-opacity:1" d="M 638.34,15.2472 658.585,26.4943 z" id="boundary" inkscape:connector-curvature="0" />
	<path style="fill:none;stroke:red;stroke-width:1px;stroke-linecap:butt;stroke-linejoin:miter;stroke-opacity:1" d="M 656.336,613.596 678.83,613.596 z" id="boundary" inkscape:connector-curvature="0" />
	<path style="fill:none;stroke:red;stroke-width:1px;stroke-linecap:butt;stroke-linejoin:miter;stroke-opacity:1" d="M 658.585,26.4943 681.079,26.4943 z" id="boundary" inkscape:connector-curvature="0" />
	<path style="fill:none;stroke:red;stroke-width:1px;stroke-linecap:butt;stroke-linejoin:miter;stroke-opacity:1" d="M 678.83,613.596 701.324,613.596 z" id="boundary" inkscape:connector-curvature="0" />
	<path style="fill:none;stroke:red;stroke-width:1px;stroke-linecap:butt;stroke-linejoin:miter;stroke-opacity:1" d="M 681.079,26.4943 703.574,33.2426 z" id="boundary" inkscape:connector-curvature="0" />
	<path style="fill:none;stroke:red;stroke-width:1px;stroke-linecap:butt;stroke-linejoin:miter;stroke-opacity:1" d="M 701.324,613.596 723.819,606.848 z" id="boundary" inkscape:connector-curvature="0" />
	<path style="fill:none;stroke:red;stroke-width:1px;stroke-linecap:butt;stroke-linejoin:miter;stroke-opacity:1" d="M 703.574,33.2426 723.819,44.4898 z" id="boundary" inkscape:connector-curvature="0" />
	<path style="fill:none;stroke:red;stroke-width:1px;stroke-linecap:butt;stroke-linejoin:miter;stroke-opacity:1" d="M 723.819,44.4898 746.313,48.9887 z" id="boundary" inkscape:connector-curvature="0" />
	<path style="fill:none;stroke:red;stroke-width:1px;stroke-linecap:butt;stroke-linejoin:miter;stroke-opacity:1" d="M 723.819,606.848 746.313,602.349 z" id="boundary" inkscape:connector-curvature="0" />
	<path style="fill:none;stroke:red;stroke-width:1px;stroke-linecap:butt;stroke-linejoin:miter;stroke-opacity:1" d="M 746.313,48.9887 768.807,53.4875 z" id="boundary" inkscape:connector-curvature="0" />
	<path style="fill:none;stroke:red;stroke-width:1px;stroke-linecap:butt;stroke-linejoin:miter;stroke-opacity:1" d="M 746.313,602.349 768.807,602.349 z" id="boundary" inkscape:connector-curvature="0" />
	<path style="fill:none;stroke:red;stroke-width:1px;stroke-linecap:butt;stroke-linejoin:miter;stroke-opacity:1" d="M 768.807,53.4875 789.052,64.7347 z" id="boundary" inkscape:connector-curvature="0" />
	<path style="fill:none;stroke:red;stroke-width:1px;stroke-linecap:butt;stroke-linejoin:miter;stroke-opacity:1" d="M 768.807,602.349 791.302,602.349 z" id="boundary" inkscape:connector-curvature="0" />
	<path style="fill:none;stroke:red;stroke-width:1px;stroke-linecap:butt;stroke-linejoin:miter;stroke-opacity:1" d="M 789.052,64.7347 811.546,73.7324 z" id="boundary" inkscape:connector-curvature="0" />
	<path style="fill:none;stroke:red;stroke-width:1px;stroke-linecap:butt;stroke-linejoin:miter;stroke-opacity:1" d="M 791.302,602.349 813.796,602.349 z" id="boundary" inkscape:connector-curvature="0" />
	<path style="fill:none;stroke:red;stroke-width:1px;stroke-linecap:butt;stroke-linejoin:miter;stroke-opacity:1" d="M 811.546,73.7324 827.293,91.7279 z" id="boundary" inkscape:connector-curvature="0" />
	<path style="fill:none;stroke:red;stroke-width:1px;stroke-linecap:butt;stroke-linejoin:miter;stroke-opacity:1" d="M 813.796,602.349 836.29,602.349 z" id="boundary" inkscape:connector-curvature="0" />
	<path style="fill:none;stroke:red;stroke-width:1px;stroke-linecap:butt;stroke-linejoin:miter;stroke-opacity:1" d="M 827.293,91.7279 838.54,111.973 z" id="boundary" inkscape:connector-curvature="0" />
	<path style="fill:none;stroke:red;stroke-width:1px;stroke-linecap:butt;stroke-linejoin:miter;stroke-opacity:1" d="M 836.29,602.349 858.785,602.349 z" id="boundary" inkscape:connector-curvature="0" />
	<path style="fill:none;stroke:red;stroke-width:1px;stroke-linecap:butt;stroke-linejoin:miter;stroke-opacity:1" d="M 838.54,111.973 854.286,129.968 z" id="boundary" inkscape:connector-curvature="0" />
	<path style="fill:none;stroke:red;stroke-width:1px;stroke-linecap:butt;stroke-linejoin:miter;stroke-opacity:1" d="M 854.286,129.968 872.281,145.714 z" id="boundary" inkscape:connector-curvature="0" />
	<path style="fill:none;stroke:red;stroke-width:1px;stroke-linecap:butt;stroke-linejoin:miter;stroke-opacity:1" d="M 858.785,602.349 881.279,602.349 z" id="boundary" inkscape:connector-curvature="0" />
	<path style="fill:none;stroke:red;stroke-width:1px;stroke-linecap:butt;stroke-linejoin:miter;stroke-opacity:1" d="M 872.281,145.714 888.027,163.71 z" id="boundary" inkscape:connector-curvature="0" />
	<path style="fill:none;stroke:red;stroke-width:1px;stroke-linecap:butt;stroke-linejoin:miter;stroke-opacity:1" d="M 881.279,602.349 901.524,591.102 z" id="boundary" inkscape:connector-curvature="0" />
	<path style="fill:none;stroke:red;stroke-width:1px;stroke-linecap:butt;stroke-linejoin:miter;stroke-opacity:1" d="M 888.027,163.71 899.274,183.955 z" id="boundary" inkscape:connector-curvature="0" />
	<path style="fill:none;stroke:red;stroke-width:1px;stroke-linecap:butt;stroke-linejoin:miter;stroke-opacity:1" d="M 899.274,183.955 915.02,201.95 z" id="boundary" inkscape:connector-curvature="0" />
	<path style="fill:none;stroke:red;stroke-width:1px;stroke-linecap:butt;stroke-linejoin:miter;stroke-opacity:1" d="M 901.524,591.102 924.018,586.603 z" id="boundary" inkscape:connector-curvature="0" />
	<path style="fill:none;stroke:red;stroke-width:1px;stroke-linecap:butt;stroke-linejoin:miter;stroke-opacity:1" d="M 915.02,201.95 926.268,222.195 z" id="boundary" inkscape:connector-curvature="0" />
	<path style="fill:none;stroke:red;stroke-width:1px;stroke-linecap:butt;stroke-linejoin:miter;stroke-opacity:1" d="M 924.018,586.603 939.764,568.608 z" id="boundary" inkscape:connector-curvature="0" />
	<path style="fill:none;stroke:red;stroke-width:1px;stroke-linecap:butt;stroke-linejoin:miter;stroke-opacity:1" d="M 926.268,222.195 939.764,240.19 z" id="boundary" inkscape:connector-curvature="0" />
	<path style="fill:none;stroke:red;stroke-width:1px;stroke-linecap:butt;stroke-linejoin:miter;stroke-opacity:1" d="M 939.764,240.19 939.764,262.685 z" id="boundary" inkscape:connector-curvature="0" />
	<path style="fill:none;stroke:red;stroke-width:1px;stroke-linecap:butt;stroke-linejoin:miter;stroke-opacity:1" d="M 939.764,262.685 951.011,282.93 z" id="boundary" inkscape:connector-curvature="0" />
	<path style="fill:none;stroke:red;stroke-width:1px;stroke-linecap:butt;stroke-linejoin:miter;stroke-opacity:1" d="M 939.764,568.608 962.259,546.113 z" id="boundary" inkscape:connector-curvature="0" />
	<path style="fill:none;stroke:red;stroke-width:1px;stroke-linecap:butt;stroke-linejoin:miter;stroke-opacity:1" d="M 951.011,282.93 951.011,305.424 z" id="boundary" inkscape:connector-curvature="0" />
	<path style="fill:none;stroke:red;stroke-width:1px;stroke-linecap:butt;stroke-linejoin:miter;stroke-opacity:1" d="M 951.011,305.424 962.259,325.669 z" id="boundary" inkscape:connector-curvature="0" />
	<path style="fill:none;stroke:red;stroke-width:1px;stroke-linecap:butt;stroke-linejoin:miter;stroke-opacity:1" d="M 962.259,325.669 962.259,348.163 z" id="boundary" inkscape:connector-curvature="0" />
	<path style="fill:none;stroke:red;stroke-width:1px;stroke-linecap:butt;stroke-linejoin:miter;stroke-opacity:1" d="M 962.259,348.163 962.259,370.658 z" id="boundary" inkscape:connector-curvature="0" />
	<path style="fill:none;stroke:red;stroke-width:1px;stroke-linecap:butt;stroke-linejoin:miter;stroke-opacity:1" d="M 962.259,370.658 962.259,393.152 z" id="boundary" inkscape:connector-curvature="0" />
	<path style="fill:none;stroke:red;stroke-width:1px;stroke-linecap:butt;stroke-linejoin:miter;stroke-opacity:1" d="M 962.259,393.152 962.259,415.646 z" id="boundary" inkscape:connector-curvature="0" />
	<path style="fill:none;stroke:red;stroke-width:1px;stroke-linecap:butt;stroke-linejoin:miter;stroke-opacity:1" d="M 962.259,415.646 971.256,438.141 z" id="boundary" inkscape:connector-curvature="0" />
	<path style="fill:none;stroke:red;stroke-width:1px;stroke-linecap:butt;stroke-linejoin:miter;stroke-opacity:1" d="M 962.259,546.113 980.254,530.367 z" id="boundary" inkscape:connector-curvature="0" />
	<path style="fill:none;stroke:red;stroke-width:1px;stroke-linecap:butt;stroke-linejoin:miter;stroke-opacity:1" d="M 971.256,438.141 982.503,458.385 z" id="boundary" inkscape:connector-curvature="0" />
	<path style="fill:none;stroke:red;stroke-width:1px;stroke-linecap:butt;stroke-linejoin:miter;stroke-opacity:1" d="M 980.254,530.367 996,498.875 z" id="boundary" inkscape:connector-curvature="0" />
	<path style="fill:none;stroke:red;stroke-width:1px;stroke-linecap:butt;stroke-linejoin:miter;stroke-opacity:1" d="M 982.503,458.385 996,476.381 z" id="boundary" inkscape:connector-curvature="0" />
	<path style="fill:none;stroke:red;stroke-width:1px;stroke-linecap:butt;stroke-linejoin:miter;stroke-opacity:1" d="M 996,476.381 996,498.875 z" id="boundary" inkscape:connector-curvature="0" />
	<circle cx="4" cy="258.186" r="4" fill="#0" id="circle0"/>
	<circle cx="4" cy="280.68" r="4" fill="#0" id="circle1"/>
	<circle cx="4" cy="303.175" r="4" fill="#0" id="circle2"/>
	<circle cx="4" cy="325.669" r="4" fill="#0" id="circle3"/>
	<circle cx="15.2472" cy="156.961" r="4" fill="#0" id="circle4"/>
	<circle cx="15.2472" cy="224.444" r="4" fill="#0" id="circle5"/>
	<circle cx="21.9955" cy="341.415" r="4" fill="#0" id="circle6"/>
	<circle cx="26.4943" cy="177.206" r="4" fill="#0" id="circle7"/>
	<circle cx="26.4943" cy="201.95" r="4" fill="#0" id="circle8"/>
	<circle cx="37.7415" cy="359.41" r="4" fill="#0" id="circle9"/>
	<circle cx="48.9887" cy="145.714" r="4" fill="#0" id="circle10"/>
	<circle cx="48.9887" cy="168.209" r="4" fill="#0" id="circle11"/>
	<circle cx="60.2358" cy="366.159" r="4" fill="#0" id="circle12"/>
	<circle cx="71.483" cy="134.467" r="4" fill="#0" id="circle13"/>
	<circle cx="80.4807" cy="377.406" r="4" fill="#0" id="circle14"/>
	<circle cx="89.4785" cy="116.472" r="4" fill="#0" id="circle15"/>
	<circle cx="100.726" cy="388.653" r="4" fill="#0" id="circle16"/>
	<circle cx="107.474" cy="98.4762" r="4" fill="#0" id="circle17"/>
	<circle cx="120.971" cy="377.406" r="4" fill="#0" id="circle18"/>
	<circle cx="129.968" cy="87.229" r="4" fill="#0" id="circle19"/>
	<circle cx="138.966" cy="390.902" r="4" fill="#0" id="circle20"/>
	<circle cx="147.964" cy="71.483" r="4" fill="#0" id="circle21"/>
	<circle cx="150.213" cy="44.4898" r="4" fill="#0" id="circle22"/>
	<circle cx="161.46" cy="388.653" r="4" fill="#0" id="circle23"/>
	<circle cx="172.707" cy="37.7415" r="4" fill="#0" id="circle24"/>
	<circle cx="181.705" cy="399.9" r="4" fill="#0" id="circle25"/>
	<circle cx="195.202" cy="37.7415" r="4" fill="#0" id="circle26"/>
	<circle cx="201.95" cy="411.147" r="4" fill="#0" id="circle27"/>
	<circle cx="206.449" cy="561.859" r="4" fill="#0" id="circle28"/>
	<circle cx="217.696" cy="37.7415" r="4" fill="#0" id="circle29"/>
	<circle cx="217.696" cy="429.143" r="4" fill="#0" id="circle30"/>
	<circle cx="217.696" cy="582.104" r="4" fill="#0" id="circle31"/>
	<circle cx="224.444" cy="543.864" r="4" fill="#0" id="circle32"/>
	<circle cx="235.692" cy="444.889" r="4" fill="#0" id="circle33"/>
	<circle cx="240.19" cy="37.7415" r="4" fill="#0" id="circle34"/>
	<circle cx="240.19" cy="591.102" r="4" fill="#0" id="circle35"/>
	<circle cx="246.939" cy="532.617" r="4" fill="#0" id="circle36"/>
	<circle cx="253.687" cy="460.635" r="4" fill="#0" id="circle37"/>
	<circle cx="260.435" cy="602.349" r="4" fill="#0" id="circle38"/>
	<circle cx="262.685" cy="37.7415" r="4" fill="#0" id="circle39"/>
	<circle cx="269.433" cy="478.63" r="4" fill="#0" id="circle40"/>
	<circle cx="269.433" cy="532.617" r="4" fill="#0" id="circle41"/>
	<circle cx="280.68" cy="591.102" r="4" fill="#0" id="circle42"/>
	<circle cx="285.179" cy="42.2404" r="4" fill="#0" id="circle43"/>
	<circle cx="285.179" cy="496.626" r="4" fill="#0" id="circle44"/>
	<circle cx="291.927" cy="532.617" r="4" fill="#0" id="circle45"/>
	<circle cx="303.175" cy="591.102" r="4" fill="#0" id="circle46"/>
	<circle cx="307.673" cy="48.9887" r="4" fill="#0" id="circle47"/>
	<circle cx="325.669" cy="588.853" r="4" fill="#0" id="circle48"/>
	<circle cx="327.918" cy="60.2358" r="4" fill="#0" id="circle49"/>
	<circle cx="343.664" cy="568.608" r="4" fill="#0" id="circle50"/>
	<circle cx="350.413" cy="60.2358" r="4" fill="#0" id="circle51"/>
	<circle cx="366.159" cy="568.608" r="4" fill="#0" id="circle52"/>
	<circle cx="370.658" cy="48.9887" r="4" fill="#0" id="circle53"/>
	<circle cx="388.653" cy="568.608" r="4" fill="#0" id="circle54"/>
	<circle cx="393.152" cy="37.7415" r="4" fill="#0" id="circle55"/>
	<circle cx="408.898" cy="557.361" r="4" fill="#0" id="circle56"/>
	<circle cx="415.646" cy="26.4943" r="4" fill="#0" id="circle57"/>
	<circle cx="431.392" cy="550.612" r="4" fill="#0" id="circle58"/>
	<circle cx="438.141" cy="26.4943" r="4" fill="#0" id="circle59"/>
	<circle cx="453.887" cy="550.612" r="4" fill="#0" id="circle60"/>
	<circle cx="460.635" cy="15.2472" r="4" fill="#0" id="circle61"/>
	<circle cx="465.134" cy="573.107" r="4" fill="#0" id="circle62"/>
	<circle cx="483.129" cy="15.2472" r="4" fill="#0" id="circle63"/>
	<circle cx="483.129" cy="557.361" r="4" fill="#0" id="circle64"/>
	<circle cx="483.129" cy="588.853" r="4" fill="#0" id="circle65"/>
	<circle cx="498.875" cy="606.848" r="4" fill="#0" id="circle66"/>
	<circle cx="505.624" cy="15.2472" r="4" fill="#0" id="circle67"/>
	<circle cx="521.37" cy="613.596" r="4" fill="#0" id="circle68"/>
	<circle cx="528.118" cy="15.2472" r="4" fill="#0" id="circle69"/>
	<circle cx="543.864" cy="613.596" r="4" fill="#0" id="circle70"/>
	<circle cx="550.612" cy="4" r="4" fill="#0" id="circle71"/>
	<circle cx="566.358" cy="613.596" r="4" fill="#0" id="circle72"/>
	<circle cx="573.107" cy="4" r="4" fill="#0" id="circle73"/>
	<circle cx="588.853" cy="613.596" r="4" fill="#0" id="circle74"/>
	<circle cx="593.351" cy="15.2472" r="4" fill="#0" id="circle75"/>
	<circle cx="611.347" cy="613.596" r="4" fill="#0" id="circle76"/>
	<circle cx="615.846" cy="15.2472" r="4" fill="#0" id="circle77"/>
	<circle cx="633.841" cy="613.596" r="4" fill="#0" id="circle78"/>
	<circle cx="638.34" cy="15.2472" r="4" fill="#0" id="circle79"/>
	<circle cx="656.336" cy="613.596" r="4" fill="#0" id="circle80"/>
	<circle cx="658.585" cy="26.4943" r="4" fill="#0" id="circle81"/>
	<circle cx="678.83" cy="613.596" r="4" fill="#0" id="circle82"/>
	<circle cx="681.079" cy="26.4943" r="4" fill="#0" id="circle83"/>
	<circle cx="701.324" cy="613.596" r="4" fill="#0" id="circle84"/>
	<circle cx="703.574" cy="33.2426" r="4" fill="#0" id="circle85"/>
	<circle cx="723.819" cy="44.4898" r="4" fill="#0" id="circle86"/>
	<circle cx="723.819" cy="606.848" r="4" fill="#0" id="circle87"/>
	<circle cx="746.313" cy="48.9887" r="4" fill="#0" id="circle88"/>
	<circle cx="746.313" cy="602.349" r="4" fill="#0" id="circle89"/>
	<circle cx="768.807" cy="53.4875" r="4" fill="#0" id="circle90"/>
	<circle cx="768.807" cy="602.349" r="4" fill="#0" id="circle91"/>
	<circle cx="789.052" cy="64.7347" r="4" fill="#0" id="circle92"/>
	<circle cx="791.302" cy="602.349" r="4" fill="#0" id="circle93"/>
	<circle cx="811.546" cy="73.7324" r="4" fill="#0" id="circle94"/>
	<circle cx="813.796" cy="602.349" r="4" fill="#0" id="circle95"/>
	<circle cx="827.293" cy="91.7279" r="4" fill="#0" id="circle96"/>
	<circle cx="836.29" cy="602.349" r="4" fill="#0" id="circle97"/>
	<circle cx="838.54" cy="111.973" r="4" fill="#0" id="circle98"/>
	<circle cx="854.286" cy="129.968" r="4" fill="#0" id="circle99"/>
	<circle cx="858.785" cy="602.349" r="4" fill="#0" id="circle100"/>
	<circle cx="872.281" cy="145.714" r="4" fill="#0" id="circle101"/>
	<circle cx="881.279" cy="602.349" r="4" fill="#0" id="circle102"/>
	<circle cx="888.027" cy="163.71" r="4" fill="#0" id="circle103"/>
	<circle cx="899.274" cy="183.955" r="4" fill="#0" id="circle104"/>
	<circle cx="901.524" cy="591.102" r="4" fill="#0" id="circle105"/>
	<circle cx="915.02" cy="201.95" r="4" fill="#0" id="circle106"/>
	<circle cx="924.018" cy="586.603" r="4" fill="#0" id="circle107"/>
	<circle cx="926.268" cy="222.195" r="4" fill="#0" id="circle108"/>
	<circle cx="939.764" cy="240.19" r="4" fill="#0" id="circle109"/>
	<circle cx="939.764" cy="262.685" r="4" fill="#0" id="circle110"/>
	<circle cx="939.764" cy="568.608" r="4" fill="#0" id="circle111"/>
	<circle cx="951.011" cy="282.93" r="4" fill="#0" id="circle112"/>
	<circle cx="951.011" cy="305.424" r="4" fill="#0" id="circle113"/>
	<circle cx="962.259" cy="325.669" r="4" fill="#0" id="circle114"/>
	<circle cx="962.259" cy="348.163" r="4" fill="#0" id="circle115"/>
	<circle cx="962.259" cy="370.658" r="4" fill="#0" id="circle116"/>
	<circle cx="962.259" cy="393.152" r="4" fill="#0" id="circle117"/>
	<circle cx="962.259" cy="415.646" r="4" fill="#0" id="circle118"/>
	<circle cx="962.259" cy="546.113" r="4" fill="#0" id="circle119"/>
	<circle cx="971.256" cy="438.141" r="4" fill="#0" id="circle120"/>
	<circle cx="980.254" cy="530.367" r="4" fill="#0" id="circle121"/>
	<circle cx="982.503" cy="458.385" r="4" fill="#0" id="circle122"/>
	<circle cx="996" cy="476.381" r="4" fill="#0" id="circle123"/>
	<circle cx="996" cy="498.875" r="4" fill="#0" id="circle124"/>
	</g>
</svg>