<?xml version="1.0" encoding="UTF-8" standalone="no"?>
<!-- Created with CurveBenchmark -->
<svg
	xmlns:dc="http://purl.org/dc/elements/1.1/"
	xmlns:cc="http://creativecommons.org/ns#"
	xmlns:rdf="http://www.w3.org/1999/02/22-rdf-syntax-ns#"
	xmlns:svg="http://www.w3.org/2000/svg"
	xmlns="http://www.w3.org/2000/svg"
	xmlns:sodipodi="http://sodipodi.sourceforge.net/DTD/sodipodi-0.dtd"
	xmlns:inkscape="http://www.inkscape.org/namespaces/inkscape"
	width="1000"
	height="1000"
	id="svg2"
	version="1.1"
	sodipodi:docname="manifold/hnncrust-Misk22.png.txt">
<defs
	id="defs4" />
<metadata
	id="metadata7">
	<rdf:RDF>
		<cc:Work
			rdf:about="">
			<dc:format>image/svg+xml</dc:format>
			<dc:type
				rdf:resource="http://purl.org/dc/dcmitype/StillImage" />
			<dc:title></dc:title>
		</cc:Work>
	</rdf:RDF>
</metadata>
<g
	inkscape:label="Layer 1"
	inkscape:groupmode="layer"
	id="layer1">
	<path style="fill:none;stroke:red;stroke-width:1px;stroke-linecap:butt;stroke-linejoin:miter;stroke-opacity:1" d="M 4,256.985 4,269.447 z" id="boundary" inkscape:connector-curvature="0" />
	<path style="fill:none;stroke:red;stroke-width:1px;stroke-linecap:butt;stroke-linejoin:miter;stroke-opacity:1" d="M 4,256.985 13.9698,247.015 z" id="boundary" inkscape:connector-curvature="0" />
	<path style="fill:none;stroke:red;stroke-width:1px;stroke-linecap:butt;stroke-linejoin:miter;stroke-opacity:1" d="M 4,269.447 10.2312,280.663 z" id="boundary" inkscape:connector-curvature="0" />
	<path style="fill:none;stroke:red;stroke-width:1px;stroke-linecap:butt;stroke-linejoin:miter;stroke-opacity:1" d="M 10.2312,280.663 18.9548,290.633 z" id="boundary" inkscape:connector-curvature="0" />
	<path style="fill:none;stroke:red;stroke-width:1px;stroke-linecap:butt;stroke-linejoin:miter;stroke-opacity:1" d="M 13.9698,247.015 25.1859,240.784 z" id="boundary" inkscape:connector-curvature="0" />
	<path style="fill:none;stroke:red;stroke-width:1px;stroke-linecap:butt;stroke-linejoin:miter;stroke-opacity:1" d="M 18.9548,290.633 31.4171,295.618 z" id="boundary" inkscape:connector-curvature="0" />
	<path style="fill:none;stroke:red;stroke-width:1px;stroke-linecap:butt;stroke-linejoin:miter;stroke-opacity:1" d="M 25.1859,240.784 36.402,234.553 z" id="boundary" inkscape:connector-curvature="0" />
	<path style="fill:none;stroke:red;stroke-width:1px;stroke-linecap:butt;stroke-linejoin:miter;stroke-opacity:1" d="M 28.9246,618.392 28.9246,630.854 z" id="boundary" inkscape:connector-curvature="0" />
	<path style="fill:none;stroke:red;stroke-width:1px;stroke-linecap:butt;stroke-linejoin:miter;stroke-opacity:1" d="M 28.9246,618.392 35.1558,599.698 z" id="boundary" inkscape:connector-curvature="0" />
	<path style="fill:none;stroke:red;stroke-width:1px;stroke-linecap:butt;stroke-linejoin:miter;stroke-opacity:1" d="M 28.9246,630.854 28.9246,643.317 z" id="boundary" inkscape:connector-curvature="0" />
	<path style="fill:none;stroke:red;stroke-width:1px;stroke-linecap:butt;stroke-linejoin:miter;stroke-opacity:1" d="M 28.9246,643.317 28.9246,655.779 z" id="boundary" inkscape:connector-curvature="0" />
	<path style="fill:none;stroke:red;stroke-width:1px;stroke-linecap:butt;stroke-linejoin:miter;stroke-opacity:1" d="M 28.9246,655.779 35.1558,666.995 z" id="boundary" inkscape:connector-curvature="0" />
	<path style="fill:none;stroke:red;stroke-width:1px;stroke-linecap:butt;stroke-linejoin:miter;stroke-opacity:1" d="M 31.4171,295.618 41.3869,304.342 z" id="boundary" inkscape:connector-curvature="0" />
	<path style="fill:none;stroke:red;stroke-width:1px;stroke-linecap:butt;stroke-linejoin:miter;stroke-opacity:1" d="M 35.1558,599.698 41.3869,587.236 z" id="boundary" inkscape:connector-curvature="0" />
	<path style="fill:none;stroke:red;stroke-width:1px;stroke-linecap:butt;stroke-linejoin:miter;stroke-opacity:1" d="M 35.1558,666.995 35.1558,679.457 z" id="boundary" inkscape:connector-curvature="0" />
	<path style="fill:none;stroke:red;stroke-width:1px;stroke-linecap:butt;stroke-linejoin:miter;stroke-opacity:1" d="M 35.1558,679.457 41.3869,690.673 z" id="boundary" inkscape:connector-curvature="0" />
	<path style="fill:none;stroke:red;stroke-width:1px;stroke-linecap:butt;stroke-linejoin:miter;stroke-opacity:1" d="M 36.402,234.553 47.6181,228.322 z" id="boundary" inkscape:connector-curvature="0" />
	<path style="fill:none;stroke:red;stroke-width:1px;stroke-linecap:butt;stroke-linejoin:miter;stroke-opacity:1" d="M 41.3869,304.342 48.8643,314.312 z" id="boundary" inkscape:connector-curvature="0" />
	<path style="fill:none;stroke:red;stroke-width:1px;stroke-linecap:butt;stroke-linejoin:miter;stroke-opacity:1" d="M 41.3869,587.236 51.3568,577.266 z" id="boundary" inkscape:connector-curvature="0" />
	<path style="fill:none;stroke:red;stroke-width:1px;stroke-linecap:butt;stroke-linejoin:miter;stroke-opacity:1" d="M 41.3869,690.673 48.8643,700.643 z" id="boundary" inkscape:connector-curvature="0" />
	<path style="fill:none;stroke:red;stroke-width:1px;stroke-linecap:butt;stroke-linejoin:miter;stroke-opacity:1" d="M 47.6181,228.322 58.8342,222.09 z" id="boundary" inkscape:connector-curvature="0" />
	<path style="fill:none;stroke:red;stroke-width:1px;stroke-linecap:butt;stroke-linejoin:miter;stroke-opacity:1" d="M 48.8643,314.312 58.8342,323.035 z" id="boundary" inkscape:connector-curvature="0" />
	<path style="fill:none;stroke:red;stroke-width:1px;stroke-linecap:butt;stroke-linejoin:miter;stroke-opacity:1" d="M 48.8643,700.643 58.8342,709.367 z" id="boundary" inkscape:connector-curvature="0" />
	<path style="fill:none;stroke:red;stroke-width:1px;stroke-linecap:butt;stroke-linejoin:miter;stroke-opacity:1" d="M 51.3568,577.266 60.0804,562.312 z" id="boundary" inkscape:connector-curvature="0" />
	<path style="fill:none;stroke:red;stroke-width:1px;stroke-linecap:butt;stroke-linejoin:miter;stroke-opacity:1" d="M 58.8342,222.09 67.5578,212.121 z" id="boundary" inkscape:connector-curvature="0" />
	<path style="fill:none;stroke:red;stroke-width:1px;stroke-linecap:butt;stroke-linejoin:miter;stroke-opacity:1" d="M 58.8342,323.035 66.3116,333.005 z" id="boundary" inkscape:connector-curvature="0" />
	<path style="fill:none;stroke:red;stroke-width:1px;stroke-linecap:butt;stroke-linejoin:miter;stroke-opacity:1" d="M 58.8342,709.367 70.0503,703.136 z" id="boundary" inkscape:connector-curvature="0" />
	<path style="fill:none;stroke:red;stroke-width:1px;stroke-linecap:butt;stroke-linejoin:miter;stroke-opacity:1" d="M 60.0804,562.312 66.3116,543.618 z" id="boundary" inkscape:connector-curvature="0" />
	<path style="fill:none;stroke:red;stroke-width:1px;stroke-linecap:butt;stroke-linejoin:miter;stroke-opacity:1" d="M 60.0804,992.261 66.3116,979.799 z" id="boundary" inkscape:connector-curvature="0" />
	<path style="fill:none;stroke:red;stroke-width:1px;stroke-linecap:butt;stroke-linejoin:miter;stroke-opacity:1" d="M 60.0804,992.261 72.5427,996 z" id="boundary" inkscape:connector-curvature="0" />
	<path style="fill:none;stroke:red;stroke-width:1px;stroke-linecap:butt;stroke-linejoin:miter;stroke-opacity:1" d="M 66.3116,333.005 72.5427,344.221 z" id="boundary" inkscape:connector-curvature="0" />
	<path style="fill:none;stroke:red;stroke-width:1px;stroke-linecap:butt;stroke-linejoin:miter;stroke-opacity:1" d="M 66.3116,543.618 72.5427,531.156 z" id="boundary" inkscape:connector-curvature="0" />
	<path style="fill:none;stroke:red;stroke-width:1px;stroke-linecap:butt;stroke-linejoin:miter;stroke-opacity:1" d="M 66.3116,967.337 66.3116,979.799 z" id="boundary" inkscape:connector-curvature="0" />
	<path style="fill:none;stroke:red;stroke-width:1px;stroke-linecap:butt;stroke-linejoin:miter;stroke-opacity:1" d="M 66.3116,967.337 72.5427,954.874 z" id="boundary" inkscape:connector-curvature="0" />
	<path style="fill:none;stroke:red;stroke-width:1px;stroke-linecap:butt;stroke-linejoin:miter;stroke-opacity:1" d="M 67.5578,212.121 77.5276,203.397 z" id="boundary" inkscape:connector-curvature="0" />
	<path style="fill:none;stroke:red;stroke-width:1px;stroke-linecap:butt;stroke-linejoin:miter;stroke-opacity:1" d="M 70.0503,703.136 82.5126,703.136 z" id="boundary" inkscape:connector-curvature="0" />
	<path style="fill:none;stroke:red;stroke-width:1px;stroke-linecap:butt;stroke-linejoin:miter;stroke-opacity:1" d="M 72.5427,344.221 82.5126,352.945 z" id="boundary" inkscape:connector-curvature="0" />
	<path style="fill:none;stroke:red;stroke-width:1px;stroke-linecap:butt;stroke-linejoin:miter;stroke-opacity:1" d="M 72.5427,531.156 78.7739,512.462 z" id="boundary" inkscape:connector-curvature="0" />
	<path style="fill:none;stroke:red;stroke-width:1px;stroke-linecap:butt;stroke-linejoin:miter;stroke-opacity:1" d="M 72.5427,942.412 72.5427,954.874 z" id="boundary" inkscape:connector-curvature="0" />
	<path style="fill:none;stroke:red;stroke-width:1px;stroke-linecap:butt;stroke-linejoin:miter;stroke-opacity:1" d="M 72.5427,942.412 78.7739,929.95 z" id="boundary" inkscape:connector-curvature="0" />
	<path style="fill:none;stroke:red;stroke-width:1px;stroke-linecap:butt;stroke-linejoin:miter;stroke-opacity:1" d="M 72.5427,996 85.005,996 z" id="boundary" inkscape:connector-curvature="0" />
	<path style="fill:none;stroke:red;stroke-width:1px;stroke-linecap:butt;stroke-linejoin:miter;stroke-opacity:1" d="M 77.5276,203.397 86.2513,193.427 z" id="boundary" inkscape:connector-curvature="0" />
	<path style="fill:none;stroke:red;stroke-width:1px;stroke-linecap:butt;stroke-linejoin:miter;stroke-opacity:1" d="M 78.7739,512.462 85.005,500 z" id="boundary" inkscape:connector-curvature="0" />
	<path style="fill:none;stroke:red;stroke-width:1px;stroke-linecap:butt;stroke-linejoin:miter;stroke-opacity:1" d="M 78.7739,917.487 78.7739,929.95 z" id="boundary" inkscape:connector-curvature="0" />
	<path style="fill:none;stroke:red;stroke-width:1px;stroke-linecap:butt;stroke-linejoin:miter;stroke-opacity:1" d="M 78.7739,917.487 85.005,905.025 z" id="boundary" inkscape:connector-curvature="0" />
	<path style="fill:none;stroke:red;stroke-width:1px;stroke-linecap:butt;stroke-linejoin:miter;stroke-opacity:1" d="M 82.5126,352.945 85.005,365.407 z" id="boundary" inkscape:connector-curvature="0" />
	<path style="fill:none;stroke:red;stroke-width:1px;stroke-linecap:butt;stroke-linejoin:miter;stroke-opacity:1" d="M 82.5126,703.136 94.9749,703.136 z" id="boundary" inkscape:connector-curvature="0" />
	<path style="fill:none;stroke:red;stroke-width:1px;stroke-linecap:butt;stroke-linejoin:miter;stroke-opacity:1" d="M 85.005,365.407 91.2362,376.623 z" id="boundary" inkscape:connector-curvature="0" />
	<path style="fill:none;stroke:red;stroke-width:1px;stroke-linecap:butt;stroke-linejoin:miter;stroke-opacity:1" d="M 85.005,500 91.2362,481.307 z" id="boundary" inkscape:connector-curvature="0" />
	<path style="fill:none;stroke:red;stroke-width:1px;stroke-linecap:butt;stroke-linejoin:miter;stroke-opacity:1" d="M 85.005,892.563 85.005,905.025 z" id="boundary" inkscape:connector-curvature="0" />
	<path style="fill:none;stroke:red;stroke-width:1px;stroke-linecap:butt;stroke-linejoin:miter;stroke-opacity:1" d="M 85.005,892.563 91.2362,880.101 z" id="boundary" inkscape:connector-curvature="0" />
	<path style="fill:none;stroke:red;stroke-width:1px;stroke-linecap:butt;stroke-linejoin:miter;stroke-opacity:1" d="M 85.005,996 97.4673,996 z" id="boundary" inkscape:connector-curvature="0" />
	<path style="fill:none;stroke:red;stroke-width:1px;stroke-linecap:butt;stroke-linejoin:miter;stroke-opacity:1" d="M 86.2513,193.427 96.2211,184.704 z" id="boundary" inkscape:connector-curvature="0" />
	<path style="fill:none;stroke:red;stroke-width:1px;stroke-linecap:butt;stroke-linejoin:miter;stroke-opacity:1" d="M 91.2362,376.623 97.4673,387.839 z" id="boundary" inkscape:connector-curvature="0" />
	<path style="fill:none;stroke:red;stroke-width:1px;stroke-linecap:butt;stroke-linejoin:miter;stroke-opacity:1" d="M 91.2362,481.307 97.4673,462.613 z" id="boundary" inkscape:connector-curvature="0" />
	<path style="fill:none;stroke:red;stroke-width:1px;stroke-linecap:butt;stroke-linejoin:miter;stroke-opacity:1" d="M 91.2362,867.638 91.2362,880.101 z" id="boundary" inkscape:connector-curvature="0" />
	<path style="fill:none;stroke:red;stroke-width:1px;stroke-linecap:butt;stroke-linejoin:miter;stroke-opacity:1" d="M 91.2362,867.638 97.4673,855.176 z" id="boundary" inkscape:connector-curvature="0" />
	<path style="fill:none;stroke:red;stroke-width:1px;stroke-linecap:butt;stroke-linejoin:miter;stroke-opacity:1" d="M 94.9749,703.136 104.945,711.859 z" id="boundary" inkscape:connector-curvature="0" />
	<path style="fill:none;stroke:red;stroke-width:1px;stroke-linecap:butt;stroke-linejoin:miter;stroke-opacity:1" d="M 96.2211,184.704 107.437,178.472 z" id="boundary" inkscape:connector-curvature="0" />
	<path style="fill:none;stroke:red;stroke-width:1px;stroke-linecap:butt;stroke-linejoin:miter;stroke-opacity:1" d="M 97.4673,387.839 97.4673,400.302 z" id="boundary" inkscape:connector-curvature="0" />
	<path style="fill:none;stroke:red;stroke-width:1px;stroke-linecap:butt;stroke-linejoin:miter;stroke-opacity:1" d="M 97.4673,400.302 97.4673,412.764 z" id="boundary" inkscape:connector-curvature="0" />
	<path style="fill:none;stroke:red;stroke-width:1px;stroke-linecap:butt;stroke-linejoin:miter;stroke-opacity:1" d="M 97.4673,412.764 97.4673,425.226 z" id="boundary" inkscape:connector-curvature="0" />
	<path style="fill:none;stroke:red;stroke-width:1px;stroke-linecap:butt;stroke-linejoin:miter;stroke-opacity:1" d="M 97.4673,425.226 97.4673,437.688 z" id="boundary" inkscape:connector-curvature="0" />
	<path style="fill:none;stroke:red;stroke-width:1px;stroke-linecap:butt;stroke-linejoin:miter;stroke-opacity:1" d="M 97.4673,437.688 97.4673,450.151 z" id="boundary" inkscape:connector-curvature="0" />
	<path style="fill:none;stroke:red;stroke-width:1px;stroke-linecap:butt;stroke-linejoin:miter;stroke-opacity:1" d="M 97.4673,450.151 97.4673,462.613 z" id="boundary" inkscape:connector-curvature="0" />
	<path style="fill:none;stroke:red;stroke-width:1px;stroke-linecap:butt;stroke-linejoin:miter;stroke-opacity:1" d="M 97.4673,842.714 97.4673,855.176 z" id="boundary" inkscape:connector-curvature="0" />
	<path style="fill:none;stroke:red;stroke-width:1px;stroke-linecap:butt;stroke-linejoin:miter;stroke-opacity:1" d="M 97.4673,842.714 103.698,830.251 z" id="boundary" inkscape:connector-curvature="0" />
	<path style="fill:none;stroke:red;stroke-width:1px;stroke-linecap:butt;stroke-linejoin:miter;stroke-opacity:1" d="M 97.4673,996 109.93,996 z" id="boundary" inkscape:connector-curvature="0" />
	<path style="fill:none;stroke:red;stroke-width:1px;stroke-linecap:butt;stroke-linejoin:miter;stroke-opacity:1" d="M 103.698,817.789 103.698,830.251 z" id="boundary" inkscape:connector-curvature="0" />
	<path style="fill:none;stroke:red;stroke-width:1px;stroke-linecap:butt;stroke-linejoin:miter;stroke-opacity:1" d="M 103.698,817.789 109.93,799.095 z" id="boundary" inkscape:connector-curvature="0" />
	<path style="fill:none;stroke:red;stroke-width:1px;stroke-linecap:butt;stroke-linejoin:miter;stroke-opacity:1" d="M 104.945,711.859 109.93,724.322 z" id="boundary" inkscape:connector-curvature="0" />
	<path style="fill:none;stroke:red;stroke-width:1px;stroke-linecap:butt;stroke-linejoin:miter;stroke-opacity:1" d="M 107.437,178.472 117.407,168.503 z" id="boundary" inkscape:connector-curvature="0" />
	<path style="fill:none;stroke:red;stroke-width:1px;stroke-linecap:butt;stroke-linejoin:miter;stroke-opacity:1" d="M 109.93,724.322 119.899,733.045 z" id="boundary" inkscape:connector-curvature="0" />
	<path style="fill:none;stroke:red;stroke-width:1px;stroke-linecap:butt;stroke-linejoin:miter;stroke-opacity:1" d="M 109.93,799.095 116.161,786.633 z" id="boundary" inkscape:connector-curvature="0" />
	<path style="fill:none;stroke:red;stroke-width:1px;stroke-linecap:butt;stroke-linejoin:miter;stroke-opacity:1" d="M 109.93,996 122.392,996 z" id="boundary" inkscape:connector-curvature="0" />
	<path style="fill:none;stroke:red;stroke-width:1px;stroke-linecap:butt;stroke-linejoin:miter;stroke-opacity:1" d="M 116.161,774.171 116.161,786.633 z" id="boundary" inkscape:connector-curvature="0" />
	<path style="fill:none;stroke:red;stroke-width:1px;stroke-linecap:butt;stroke-linejoin:miter;stroke-opacity:1" d="M 116.161,774.171 122.392,761.709 z" id="boundary" inkscape:connector-curvature="0" />
	<path style="fill:none;stroke:red;stroke-width:1px;stroke-linecap:butt;stroke-linejoin:miter;stroke-opacity:1" d="M 117.407,168.503 127.377,159.779 z" id="boundary" inkscape:connector-curvature="0" />
	<path style="fill:none;stroke:red;stroke-width:1px;stroke-linecap:butt;stroke-linejoin:miter;stroke-opacity:1" d="M 119.899,733.045 122.392,749.246 z" id="boundary" inkscape:connector-curvature="0" />
	<path style="fill:none;stroke:red;stroke-width:1px;stroke-linecap:butt;stroke-linejoin:miter;stroke-opacity:1" d="M 122.392,749.246 122.392,761.709 z" id="boundary" inkscape:connector-curvature="0" />
	<path style="fill:none;stroke:red;stroke-width:1px;stroke-linecap:butt;stroke-linejoin:miter;stroke-opacity:1" d="M 122.392,996 134.854,996 z" id="boundary" inkscape:connector-curvature="0" />
	<path style="fill:none;stroke:red;stroke-width:1px;stroke-linecap:butt;stroke-linejoin:miter;stroke-opacity:1" d="M 127.377,159.779 138.593,153.548 z" id="boundary" inkscape:connector-curvature="0" />
	<path style="fill:none;stroke:red;stroke-width:1px;stroke-linecap:butt;stroke-linejoin:miter;stroke-opacity:1" d="M 134.854,996 147.317,996 z" id="boundary" inkscape:connector-curvature="0" />
	<path style="fill:none;stroke:red;stroke-width:1px;stroke-linecap:butt;stroke-linejoin:miter;stroke-opacity:1" d="M 138.593,153.548 151.055,147.317 z" id="boundary" inkscape:connector-curvature="0" />
	<path style="fill:none;stroke:red;stroke-width:1px;stroke-linecap:butt;stroke-linejoin:miter;stroke-opacity:1" d="M 147.317,996 159.779,996 z" id="boundary" inkscape:connector-curvature="0" />
	<path style="fill:none;stroke:red;stroke-width:1px;stroke-linecap:butt;stroke-linejoin:miter;stroke-opacity:1" d="M 151.055,147.317 162.271,141.085 z" id="boundary" inkscape:connector-curvature="0" />
	<path style="fill:none;stroke:red;stroke-width:1px;stroke-linecap:butt;stroke-linejoin:miter;stroke-opacity:1" d="M 159.779,996 172.241,996 z" id="boundary" inkscape:connector-curvature="0" />
	<path style="fill:none;stroke:red;stroke-width:1px;stroke-linecap:butt;stroke-linejoin:miter;stroke-opacity:1" d="M 162.271,141.085 173.487,134.854 z" id="boundary" inkscape:connector-curvature="0" />
	<path style="fill:none;stroke:red;stroke-width:1px;stroke-linecap:butt;stroke-linejoin:miter;stroke-opacity:1" d="M 172.241,996 184.704,996 z" id="boundary" inkscape:connector-curvature="0" />
	<path style="fill:none;stroke:red;stroke-width:1px;stroke-linecap:butt;stroke-linejoin:miter;stroke-opacity:1" d="M 173.487,134.854 184.704,128.623 z" id="boundary" inkscape:connector-curvature="0" />
	<path style="fill:none;stroke:red;stroke-width:1px;stroke-linecap:butt;stroke-linejoin:miter;stroke-opacity:1" d="M 184.704,128.623 195.92,122.392 z" id="boundary" inkscape:connector-curvature="0" />
	<path style="fill:none;stroke:red;stroke-width:1px;stroke-linecap:butt;stroke-linejoin:miter;stroke-opacity:1" d="M 184.704,996 197.166,996 z" id="boundary" inkscape:connector-curvature="0" />
	<path style="fill:none;stroke:red;stroke-width:1px;stroke-linecap:butt;stroke-linejoin:miter;stroke-opacity:1" d="M 195.92,122.392 207.136,116.161 z" id="boundary" inkscape:connector-curvature="0" />
	<path style="fill:none;stroke:red;stroke-width:1px;stroke-linecap:butt;stroke-linejoin:miter;stroke-opacity:1" d="M 197.166,996 209.628,996 z" id="boundary" inkscape:connector-curvature="0" />
	<path style="fill:none;stroke:red;stroke-width:1px;stroke-linecap:butt;stroke-linejoin:miter;stroke-opacity:1" d="M 207.136,116.161 219.598,116.161 z" id="boundary" inkscape:connector-curvature="0" />
	<path style="fill:none;stroke:red;stroke-width:1px;stroke-linecap:butt;stroke-linejoin:miter;stroke-opacity:1" d="M 209.628,996 222.09,996 z" id="boundary" inkscape:connector-curvature="0" />
	<path style="fill:none;stroke:red;stroke-width:1px;stroke-linecap:butt;stroke-linejoin:miter;stroke-opacity:1" d="M 219.598,116.161 232.06,116.161 z" id="boundary" inkscape:connector-curvature="0" />
	<path style="fill:none;stroke:red;stroke-width:1px;stroke-linecap:butt;stroke-linejoin:miter;stroke-opacity:1" d="M 222.09,996 232.06,988.523 z" id="boundary" inkscape:connector-curvature="0" />
	<path style="fill:none;stroke:red;stroke-width:1px;stroke-linecap:butt;stroke-linejoin:miter;stroke-opacity:1" d="M 232.06,116.161 244.523,116.161 z" id="boundary" inkscape:connector-curvature="0" />
	<path style="fill:none;stroke:red;stroke-width:1px;stroke-linecap:butt;stroke-linejoin:miter;stroke-opacity:1" d="M 232.06,988.523 235.799,964.844 z" id="boundary" inkscape:connector-curvature="0" />
	<path style="fill:none;stroke:red;stroke-width:1px;stroke-linecap:butt;stroke-linejoin:miter;stroke-opacity:1" d="M 235.799,964.844 242.03,952.382 z" id="boundary" inkscape:connector-curvature="0" />
	<path style="fill:none;stroke:red;stroke-width:1px;stroke-linecap:butt;stroke-linejoin:miter;stroke-opacity:1" d="M 242.03,939.92 242.03,952.382 z" id="boundary" inkscape:connector-curvature="0" />
	<path style="fill:none;stroke:red;stroke-width:1px;stroke-linecap:butt;stroke-linejoin:miter;stroke-opacity:1" d="M 242.03,939.92 248.261,927.457 z" id="boundary" inkscape:connector-curvature="0" />
	<path style="fill:none;stroke:red;stroke-width:1px;stroke-linecap:butt;stroke-linejoin:miter;stroke-opacity:1" d="M 244.523,116.161 256.985,116.161 z" id="boundary" inkscape:connector-curvature="0" />
	<path style="fill:none;stroke:red;stroke-width:1px;stroke-linecap:butt;stroke-linejoin:miter;stroke-opacity:1" d="M 248.261,914.995 248.261,927.457 z" id="boundary" inkscape:connector-curvature="0" />
	<path style="fill:none;stroke:red;stroke-width:1px;stroke-linecap:butt;stroke-linejoin:miter;stroke-opacity:1" d="M 248.261,914.995 254.492,902.533 z" id="boundary" inkscape:connector-curvature="0" />
	<path style="fill:none;stroke:red;stroke-width:1px;stroke-linecap:butt;stroke-linejoin:miter;stroke-opacity:1" d="M 254.492,890.07 254.492,902.533 z" id="boundary" inkscape:connector-curvature="0" />
	<path style="fill:none;stroke:red;stroke-width:1px;stroke-linecap:butt;stroke-linejoin:miter;stroke-opacity:1" d="M 254.492,890.07 260.724,877.608 z" id="boundary" inkscape:connector-curvature="0" />
	<path style="fill:none;stroke:red;stroke-width:1px;stroke-linecap:butt;stroke-linejoin:miter;stroke-opacity:1" d="M 256.985,116.161 269.447,116.161 z" id="boundary" inkscape:connector-curvature="0" />
	<path style="fill:none;stroke:red;stroke-width:1px;stroke-linecap:butt;stroke-linejoin:miter;stroke-opacity:1" d="M 260.724,865.146 260.724,877.608 z" id="boundary" inkscape:connector-curvature="0" />
	<path style="fill:none;stroke:red;stroke-width:1px;stroke-linecap:butt;stroke-linejoin:miter;stroke-opacity:1" d="M 260.724,865.146 266.955,846.452 z" id="boundary" inkscape:connector-curvature="0" />
	<path style="fill:none;stroke:red;stroke-width:1px;stroke-linecap:butt;stroke-linejoin:miter;stroke-opacity:1" d="M 266.955,846.452 278.171,840.221 z" id="boundary" inkscape:connector-curvature="0" />
	<path style="fill:none;stroke:red;stroke-width:1px;stroke-linecap:butt;stroke-linejoin:miter;stroke-opacity:1" d="M 269.447,116.161 281.91,116.161 z" id="boundary" inkscape:connector-curvature="0" />
	<path style="fill:none;stroke:red;stroke-width:1px;stroke-linecap:butt;stroke-linejoin:miter;stroke-opacity:1" d="M 278.171,840.221 289.387,846.452 z" id="boundary" inkscape:connector-curvature="0" />
	<path style="fill:none;stroke:red;stroke-width:1px;stroke-linecap:butt;stroke-linejoin:miter;stroke-opacity:1" d="M 281.91,116.161 290.633,94.9749 z" id="boundary" inkscape:connector-curvature="0" />
	<path style="fill:none;stroke:red;stroke-width:1px;stroke-linecap:butt;stroke-linejoin:miter;stroke-opacity:1" d="M 289.387,846.452 301.849,846.452 z" id="boundary" inkscape:connector-curvature="0" />
	<path style="fill:none;stroke:red;stroke-width:1px;stroke-linecap:butt;stroke-linejoin:miter;stroke-opacity:1" d="M 290.633,94.9749 296.864,82.5126 z" id="boundary" inkscape:connector-curvature="0" />
	<path style="fill:none;stroke:red;stroke-width:1px;stroke-linecap:butt;stroke-linejoin:miter;stroke-opacity:1" d="M 296.864,70.0503 296.864,82.5126 z" id="boundary" inkscape:connector-curvature="0" />
	<path style="fill:none;stroke:red;stroke-width:1px;stroke-linecap:butt;stroke-linejoin:miter;stroke-opacity:1" d="M 296.864,70.0503 303.095,57.5879 z" id="boundary" inkscape:connector-curvature="0" />
	<path style="fill:none;stroke:red;stroke-width:1px;stroke-linecap:butt;stroke-linejoin:miter;stroke-opacity:1" d="M 301.849,846.452 313.065,852.683 z" id="boundary" inkscape:connector-curvature="0" />
	<path style="fill:none;stroke:red;stroke-width:1px;stroke-linecap:butt;stroke-linejoin:miter;stroke-opacity:1" d="M 303.095,45.1256 303.095,57.5879 z" id="boundary" inkscape:connector-curvature="0" />
	<path style="fill:none;stroke:red;stroke-width:1px;stroke-linecap:butt;stroke-linejoin:miter;stroke-opacity:1" d="M 303.095,45.1256 309.327,32.6633 z" id="boundary" inkscape:connector-curvature="0" />
	<path style="fill:none;stroke:red;stroke-width:1px;stroke-linecap:butt;stroke-linejoin:miter;stroke-opacity:1" d="M 309.327,20.201 309.327,32.6633 z" id="boundary" inkscape:connector-curvature="0" />
	<path style="fill:none;stroke:red;stroke-width:1px;stroke-linecap:butt;stroke-linejoin:miter;stroke-opacity:1" d="M 309.327,20.201 315.558,7.73869 z" id="boundary" inkscape:connector-curvature="0" />
	<path style="fill:none;stroke:red;stroke-width:1px;stroke-linecap:butt;stroke-linejoin:miter;stroke-opacity:1" d="M 313.065,852.683 324.281,858.915 z" id="boundary" inkscape:connector-curvature="0" />
	<path style="fill:none;stroke:red;stroke-width:1px;stroke-linecap:butt;stroke-linejoin:miter;stroke-opacity:1" d="M 315.558,7.73869 328.02,4 z" id="boundary" inkscape:connector-curvature="0" />
	<path style="fill:none;stroke:red;stroke-width:1px;stroke-linecap:butt;stroke-linejoin:miter;stroke-opacity:1" d="M 324.281,858.915 336.744,858.915 z" id="boundary" inkscape:connector-curvature="0" />
	<path style="fill:none;stroke:red;stroke-width:1px;stroke-linecap:butt;stroke-linejoin:miter;stroke-opacity:1" d="M 328.02,4 340.482,4 z" id="boundary" inkscape:connector-curvature="0" />
	<path style="fill:none;stroke:red;stroke-width:1px;stroke-linecap:butt;stroke-linejoin:miter;stroke-opacity:1" d="M 336.744,858.915 349.206,862.653 z" id="boundary" inkscape:connector-curvature="0" />
	<path style="fill:none;stroke:red;stroke-width:1px;stroke-linecap:butt;stroke-linejoin:miter;stroke-opacity:1" d="M 340.482,4 352.945,4 z" id="boundary" inkscape:connector-curvature="0" />
	<path style="fill:none;stroke:red;stroke-width:1px;stroke-linecap:butt;stroke-linejoin:miter;stroke-opacity:1" d="M 349.206,862.653 361.668,865.146 z" id="boundary" inkscape:connector-curvature="0" />
	<path style="fill:none;stroke:red;stroke-width:1px;stroke-linecap:butt;stroke-linejoin:miter;stroke-opacity:1" d="M 352.945,4 364.161,10.2312 z" id="boundary" inkscape:connector-curvature="0" />
	<path style="fill:none;stroke:red;stroke-width:1px;stroke-linecap:butt;stroke-linejoin:miter;stroke-opacity:1" d="M 361.668,865.146 374.131,865.146 z" id="boundary" inkscape:connector-curvature="0" />
	<path style="fill:none;stroke:red;stroke-width:1px;stroke-linecap:butt;stroke-linejoin:miter;stroke-opacity:1" d="M 364.161,10.2312 376.623,10.2312 z" id="boundary" inkscape:connector-curvature="0" />
	<path style="fill:none;stroke:red;stroke-width:1px;stroke-linecap:butt;stroke-linejoin:miter;stroke-opacity:1" d="M 374.131,865.146 386.593,865.146 z" id="boundary" inkscape:connector-curvature="0" />
	<path style="fill:none;stroke:red;stroke-width:1px;stroke-linecap:butt;stroke-linejoin:miter;stroke-opacity:1" d="M 376.623,10.2312 389.085,10.2312 z" id="boundary" inkscape:connector-curvature="0" />
	<path style="fill:none;stroke:red;stroke-width:1px;stroke-linecap:butt;stroke-linejoin:miter;stroke-opacity:1" d="M 385.347,684.442 385.347,696.905 z" id="boundary" inkscape:connector-curvature="0" />
	<path style="fill:none;stroke:red;stroke-width:1px;stroke-linecap:butt;stroke-linejoin:miter;stroke-opacity:1" d="M 385.347,684.442 391.578,665.749 z" id="boundary" inkscape:connector-curvature="0" />
	<path style="fill:none;stroke:red;stroke-width:1px;stroke-linecap:butt;stroke-linejoin:miter;stroke-opacity:1" d="M 385.347,696.905 391.578,708.121 z" id="boundary" inkscape:connector-curvature="0" />
	<path style="fill:none;stroke:red;stroke-width:1px;stroke-linecap:butt;stroke-linejoin:miter;stroke-opacity:1" d="M 386.593,865.146 399.055,865.146 z" id="boundary" inkscape:connector-curvature="0" />
	<path style="fill:none;stroke:red;stroke-width:1px;stroke-linecap:butt;stroke-linejoin:miter;stroke-opacity:1" d="M 389.085,10.2312 401.548,10.2312 z" id="boundary" inkscape:connector-curvature="0" />
	<path style="fill:none;stroke:red;stroke-width:1px;stroke-linecap:butt;stroke-linejoin:miter;stroke-opacity:1" d="M 391.578,665.749 397.809,653.286 z" id="boundary" inkscape:connector-curvature="0" />
	<path style="fill:none;stroke:red;stroke-width:1px;stroke-linecap:butt;stroke-linejoin:miter;stroke-opacity:1" d="M 391.578,708.121 404.04,708.121 z" id="boundary" inkscape:connector-curvature="0" />
	<path style="fill:none;stroke:red;stroke-width:1px;stroke-linecap:butt;stroke-linejoin:miter;stroke-opacity:1" d="M 397.809,653.286 410.271,647.055 z" id="boundary" inkscape:connector-curvature="0" />
	<path style="fill:none;stroke:red;stroke-width:1px;stroke-linecap:butt;stroke-linejoin:miter;stroke-opacity:1" d="M 399.055,865.146 411.518,865.146 z" id="boundary" inkscape:connector-curvature="0" />
	<path style="fill:none;stroke:red;stroke-width:1px;stroke-linecap:butt;stroke-linejoin:miter;stroke-opacity:1" d="M 401.548,10.2312 414.01,10.2312 z" id="boundary" inkscape:connector-curvature="0" />
	<path style="fill:none;stroke:red;stroke-width:1px;stroke-linecap:butt;stroke-linejoin:miter;stroke-opacity:1" d="M 404.04,708.121 416.503,711.859 z" id="boundary" inkscape:connector-curvature="0" />
	<path style="fill:none;stroke:red;stroke-width:1px;stroke-linecap:butt;stroke-linejoin:miter;stroke-opacity:1" d="M 410.271,647.055 420.241,638.332 z" id="boundary" inkscape:connector-curvature="0" />
	<path style="fill:none;stroke:red;stroke-width:1px;stroke-linecap:butt;stroke-linejoin:miter;stroke-opacity:1" d="M 411.518,865.146 422.734,858.915 z" id="boundary" inkscape:connector-curvature="0" />
	<path style="fill:none;stroke:red;stroke-width:1px;stroke-linecap:butt;stroke-linejoin:miter;stroke-opacity:1" d="M 414.01,10.2312 426.472,10.2312 z" id="boundary" inkscape:connector-curvature="0" />
	<path style="fill:none;stroke:red;stroke-width:1px;stroke-linecap:butt;stroke-linejoin:miter;stroke-opacity:1" d="M 416.503,711.859 428.965,714.352 z" id="boundary" inkscape:connector-curvature="0" />
	<path style="fill:none;stroke:red;stroke-width:1px;stroke-linecap:butt;stroke-linejoin:miter;stroke-opacity:1" d="M 420.241,638.332 432.704,634.593 z" id="boundary" inkscape:connector-curvature="0" />
	<path style="fill:none;stroke:red;stroke-width:1px;stroke-linecap:butt;stroke-linejoin:miter;stroke-opacity:1" d="M 422.734,858.915 435.196,858.915 z" id="boundary" inkscape:connector-curvature="0" />
	<path style="fill:none;stroke:red;stroke-width:1px;stroke-linecap:butt;stroke-linejoin:miter;stroke-opacity:1" d="M 426.472,10.2312 438.935,10.2312 z" id="boundary" inkscape:connector-curvature="0" />
	<path style="fill:none;stroke:red;stroke-width:1px;stroke-linecap:butt;stroke-linejoin:miter;stroke-opacity:1" d="M 428.965,714.352 440.181,720.583 z" id="boundary" inkscape:connector-curvature="0" />
	<path style="fill:none;stroke:red;stroke-width:1px;stroke-linecap:butt;stroke-linejoin:miter;stroke-opacity:1" d="M 432.704,634.593 445.166,634.593 z" id="boundary" inkscape:connector-curvature="0" />
	<path style="fill:none;stroke:red;stroke-width:1px;stroke-linecap:butt;stroke-linejoin:miter;stroke-opacity:1" d="M 435.196,858.915 447.658,858.915 z" id="boundary" inkscape:connector-curvature="0" />
	<path style="fill:none;stroke:red;stroke-width:1px;stroke-linecap:butt;stroke-linejoin:miter;stroke-opacity:1" d="M 438.935,10.2312 450.151,16.4623 z" id="boundary" inkscape:connector-curvature="0" />
	<path style="fill:none;stroke:red;stroke-width:1px;stroke-linecap:butt;stroke-linejoin:miter;stroke-opacity:1" d="M 440.181,720.583 452.643,720.583 z" id="boundary" inkscape:connector-curvature="0" />
	<path style="fill:none;stroke:red;stroke-width:1px;stroke-linecap:butt;stroke-linejoin:miter;stroke-opacity:1" d="M 441.427,173.487 441.427,185.95 z" id="boundary" inkscape:connector-curvature="0" />
	<path style="fill:none;stroke:red;stroke-width:1px;stroke-linecap:butt;stroke-linejoin:miter;stroke-opacity:1" d="M 441.427,173.487 447.658,154.794 z" id="boundary" inkscape:connector-curvature="0" />
	<path style="fill:none;stroke:red;stroke-width:1px;stroke-linecap:butt;stroke-linejoin:miter;stroke-opacity:1" d="M 441.427,185.95 447.658,197.166 z" id="boundary" inkscape:connector-curvature="0" />
	<path style="fill:none;stroke:red;stroke-width:1px;stroke-linecap:butt;stroke-linejoin:miter;stroke-opacity:1" d="M 445.166,634.593 456.382,628.362 z" id="boundary" inkscape:connector-curvature="0" />
	<path style="fill:none;stroke:red;stroke-width:1px;stroke-linecap:butt;stroke-linejoin:miter;stroke-opacity:1" d="M 447.658,154.794 453.889,142.332 z" id="boundary" inkscape:connector-curvature="0" />
	<path style="fill:none;stroke:red;stroke-width:1px;stroke-linecap:butt;stroke-linejoin:miter;stroke-opacity:1" d="M 447.658,197.166 460.121,200.905 z" id="boundary" inkscape:connector-curvature="0" />
	<path style="fill:none;stroke:red;stroke-width:1px;stroke-linecap:butt;stroke-linejoin:miter;stroke-opacity:1" d="M 447.658,858.915 458.874,852.683 z" id="boundary" inkscape:connector-curvature="0" />
	<path style="fill:none;stroke:red;stroke-width:1px;stroke-linecap:butt;stroke-linejoin:miter;stroke-opacity:1" d="M 450.151,16.4623 462.613,16.4623 z" id="boundary" inkscape:connector-curvature="0" />
	<path style="fill:none;stroke:red;stroke-width:1px;stroke-linecap:butt;stroke-linejoin:miter;stroke-opacity:1" d="M 452.643,720.583 465.106,723.075 z" id="boundary" inkscape:connector-curvature="0" />
	<path style="fill:none;stroke:red;stroke-width:1px;stroke-linecap:butt;stroke-linejoin:miter;stroke-opacity:1" d="M 453.889,129.869 453.889,142.332 z" id="boundary" inkscape:connector-curvature="0" />
	<path style="fill:none;stroke:red;stroke-width:1px;stroke-linecap:butt;stroke-linejoin:miter;stroke-opacity:1" d="M 453.889,129.869 460.121,117.407 z" id="boundary" inkscape:connector-curvature="0" />
	<path style="fill:none;stroke:red;stroke-width:1px;stroke-linecap:butt;stroke-linejoin:miter;stroke-opacity:1" d="M 456.382,628.362 468.844,633.347 z" id="boundary" inkscape:connector-curvature="0" />
	<path style="fill:none;stroke:red;stroke-width:1px;stroke-linecap:butt;stroke-linejoin:miter;stroke-opacity:1" d="M 458.874,852.683 470.09,846.452 z" id="boundary" inkscape:connector-curvature="0" />
	<path style="fill:none;stroke:red;stroke-width:1px;stroke-linecap:butt;stroke-linejoin:miter;stroke-opacity:1" d="M 460.121,104.945 460.121,117.407 z" id="boundary" inkscape:connector-curvature="0" />
	<path style="fill:none;stroke:red;stroke-width:1px;stroke-linecap:butt;stroke-linejoin:miter;stroke-opacity:1" d="M 460.121,104.945 466.352,92.4824 z" id="boundary" inkscape:connector-curvature="0" />
	<path style="fill:none;stroke:red;stroke-width:1px;stroke-linecap:butt;stroke-linejoin:miter;stroke-opacity:1" d="M 460.121,200.905 468.844,210.874 z" id="boundary" inkscape:connector-curvature="0" />
	<path style="fill:none;stroke:red;stroke-width:1px;stroke-linecap:butt;stroke-linejoin:miter;stroke-opacity:1" d="M 462.613,16.4623 475.075,16.4623 z" id="boundary" inkscape:connector-curvature="0" />
	<path style="fill:none;stroke:red;stroke-width:1px;stroke-linecap:butt;stroke-linejoin:miter;stroke-opacity:1" d="M 465.106,723.075 477.568,726.814 z" id="boundary" inkscape:connector-curvature="0" />
	<path style="fill:none;stroke:red;stroke-width:1px;stroke-linecap:butt;stroke-linejoin:miter;stroke-opacity:1" d="M 466.352,80.0201 466.352,92.4824 z" id="boundary" inkscape:connector-curvature="0" />
	<path style="fill:none;stroke:red;stroke-width:1px;stroke-linecap:butt;stroke-linejoin:miter;stroke-opacity:1" d="M 466.352,80.0201 472.583,67.5578 z" id="boundary" inkscape:connector-curvature="0" />
	<path style="fill:none;stroke:red;stroke-width:1px;stroke-linecap:butt;stroke-linejoin:miter;stroke-opacity:1" d="M 468.844,210.874 481.307,215.859 z" id="boundary" inkscape:connector-curvature="0" />
	<path style="fill:none;stroke:red;stroke-width:1px;stroke-linecap:butt;stroke-linejoin:miter;stroke-opacity:1" d="M 468.844,633.347 481.307,634.593 z" id="boundary" inkscape:connector-curvature="0" />
	<path style="fill:none;stroke:red;stroke-width:1px;stroke-linecap:butt;stroke-linejoin:miter;stroke-opacity:1" d="M 470.09,846.452 482.553,843.96 z" id="boundary" inkscape:connector-curvature="0" />
	<path style="fill:none;stroke:red;stroke-width:1px;stroke-linecap:butt;stroke-linejoin:miter;stroke-opacity:1" d="M 472.583,55.0955 472.583,67.5578 z" id="boundary" inkscape:connector-curvature="0" />
	<path style="fill:none;stroke:red;stroke-width:1px;stroke-linecap:butt;stroke-linejoin:miter;stroke-opacity:1" d="M 472.583,55.0955 478.814,42.6332 z" id="boundary" inkscape:connector-curvature="0" />
	<path style="fill:none;stroke:red;stroke-width:1px;stroke-linecap:butt;stroke-linejoin:miter;stroke-opacity:1" d="M 475.075,16.4623 478.814,30.1709 z" id="boundary" inkscape:connector-curvature="0" />
	<path style="fill:none;stroke:red;stroke-width:1px;stroke-linecap:butt;stroke-linejoin:miter;stroke-opacity:1" d="M 477.568,726.814 488.784,733.045 z" id="boundary" inkscape:connector-curvature="0" />
	<path style="fill:none;stroke:red;stroke-width:1px;stroke-linecap:butt;stroke-linejoin:miter;stroke-opacity:1" d="M 478.814,30.1709 478.814,42.6332 z" id="boundary" inkscape:connector-curvature="0" />
	<path style="fill:none;stroke:red;stroke-width:1px;stroke-linecap:butt;stroke-linejoin:miter;stroke-opacity:1" d="M 481.307,215.859 492.523,222.09 z" id="boundary" inkscape:connector-curvature="0" />
	<path style="fill:none;stroke:red;stroke-width:1px;stroke-linecap:butt;stroke-linejoin:miter;stroke-opacity:1" d="M 481.307,634.593 492.523,640.824 z" id="boundary" inkscape:connector-curvature="0" />
	<path style="fill:none;stroke:red;stroke-width:1px;stroke-linecap:butt;stroke-linejoin:miter;stroke-opacity:1" d="M 482.553,843.96 495.015,837.729 z" id="boundary" inkscape:connector-curvature="0" />
	<path style="fill:none;stroke:red;stroke-width:1px;stroke-linecap:butt;stroke-linejoin:miter;stroke-opacity:1" d="M 488.784,733.045 500,739.276 z" id="boundary" inkscape:connector-curvature="0" />
	<path style="fill:none;stroke:red;stroke-width:1px;stroke-linecap:butt;stroke-linejoin:miter;stroke-opacity:1" d="M 492.523,222.09 503.739,228.322 z" id="boundary" inkscape:connector-curvature="0" />
	<path style="fill:none;stroke:red;stroke-width:1px;stroke-linecap:butt;stroke-linejoin:miter;stroke-opacity:1" d="M 492.523,640.824 504.985,640.824 z" id="boundary" inkscape:connector-curvature="0" />
	<path style="fill:none;stroke:red;stroke-width:1px;stroke-linecap:butt;stroke-linejoin:miter;stroke-opacity:1" d="M 495.015,837.729 507.477,833.99 z" id="boundary" inkscape:connector-curvature="0" />
	<path style="fill:none;stroke:red;stroke-width:1px;stroke-linecap:butt;stroke-linejoin:miter;stroke-opacity:1" d="M 500,739.276 511.216,745.508 z" id="boundary" inkscape:connector-curvature="0" />
	<path style="fill:none;stroke:red;stroke-width:1px;stroke-linecap:butt;stroke-linejoin:miter;stroke-opacity:1" d="M 503.739,228.322 516.201,228.322 z" id="boundary" inkscape:connector-curvature="0" />
	<path style="fill:none;stroke:red;stroke-width:1px;stroke-linecap:butt;stroke-linejoin:miter;stroke-opacity:1" d="M 504.985,640.824 517.447,644.563 z" id="boundary" inkscape:connector-curvature="0" />
	<path style="fill:none;stroke:red;stroke-width:1px;stroke-linecap:butt;stroke-linejoin:miter;stroke-opacity:1" d="M 507.477,833.99 518.693,827.759 z" id="boundary" inkscape:connector-curvature="0" />
	<path style="fill:none;stroke:red;stroke-width:1px;stroke-linecap:butt;stroke-linejoin:miter;stroke-opacity:1" d="M 511.216,745.508 523.678,745.508 z" id="boundary" inkscape:connector-curvature="0" />
	<path style="fill:none;stroke:red;stroke-width:1px;stroke-linecap:butt;stroke-linejoin:miter;stroke-opacity:1" d="M 516.201,228.322 528.663,228.322 z" id="boundary" inkscape:connector-curvature="0" />
	<path style="fill:none;stroke:red;stroke-width:1px;stroke-linecap:butt;stroke-linejoin:miter;stroke-opacity:1" d="M 517.447,644.563 528.663,650.794 z" id="boundary" inkscape:connector-curvature="0" />
	<path style="fill:none;stroke:red;stroke-width:1px;stroke-linecap:butt;stroke-linejoin:miter;stroke-opacity:1" d="M 518.693,827.759 529.91,821.528 z" id="boundary" inkscape:connector-curvature="0" />
	<path style="fill:none;stroke:red;stroke-width:1px;stroke-linecap:butt;stroke-linejoin:miter;stroke-opacity:1" d="M 523.678,745.508 534.894,751.739 z" id="boundary" inkscape:connector-curvature="0" />
	<path style="fill:none;stroke:red;stroke-width:1px;stroke-linecap:butt;stroke-linejoin:miter;stroke-opacity:1" d="M 528.663,228.322 541.126,224.583 z" id="boundary" inkscape:connector-curvature="0" />
	<path style="fill:none;stroke:red;stroke-width:1px;stroke-linecap:butt;stroke-linejoin:miter;stroke-opacity:1" d="M 528.663,650.794 541.126,653.286 z" id="boundary" inkscape:connector-curvature="0" />
	<path style="fill:none;stroke:red;stroke-width:1px;stroke-linecap:butt;stroke-linejoin:miter;stroke-opacity:1" d="M 529.91,821.528 541.126,815.296 z" id="boundary" inkscape:connector-curvature="0" />
	<path style="fill:none;stroke:red;stroke-width:1px;stroke-linecap:butt;stroke-linejoin:miter;stroke-opacity:1" d="M 534.894,447.658 534.894,460.121 z" id="boundary" inkscape:connector-curvature="0" />
	<path style="fill:none;stroke:red;stroke-width:1px;stroke-linecap:butt;stroke-linejoin:miter;stroke-opacity:1" d="M 534.894,447.658 547.357,441.427 z" id="boundary" inkscape:connector-curvature="0" />
	<path style="fill:none;stroke:red;stroke-width:1px;stroke-linecap:butt;stroke-linejoin:miter;stroke-opacity:1" d="M 534.894,460.121 541.126,471.337 z" id="boundary" inkscape:connector-curvature="0" />
	<path style="fill:none;stroke:red;stroke-width:1px;stroke-linecap:butt;stroke-linejoin:miter;stroke-opacity:1" d="M 534.894,751.739 546.111,757.97 z" id="boundary" inkscape:connector-curvature="0" />
	<path style="fill:none;stroke:red;stroke-width:1px;stroke-linecap:butt;stroke-linejoin:miter;stroke-opacity:1" d="M 541.126,224.583 553.588,218.352 z" id="boundary" inkscape:connector-curvature="0" />
	<path style="fill:none;stroke:red;stroke-width:1px;stroke-linecap:butt;stroke-linejoin:miter;stroke-opacity:1" d="M 541.126,471.337 547.357,482.553 z" id="boundary" inkscape:connector-curvature="0" />
	<path style="fill:none;stroke:red;stroke-width:1px;stroke-linecap:butt;stroke-linejoin:miter;stroke-opacity:1" d="M 541.126,653.286 552.342,659.518 z" id="boundary" inkscape:connector-curvature="0" />
	<path style="fill:none;stroke:red;stroke-width:1px;stroke-linecap:butt;stroke-linejoin:miter;stroke-opacity:1" d="M 541.126,815.296 552.342,809.065 z" id="boundary" inkscape:connector-curvature="0" />
	<path style="fill:none;stroke:red;stroke-width:1px;stroke-linecap:butt;stroke-linejoin:miter;stroke-opacity:1" d="M 546.111,757.97 557.327,764.201 z" id="boundary" inkscape:connector-curvature="0" />
	<path style="fill:none;stroke:red;stroke-width:1px;stroke-linecap:butt;stroke-linejoin:miter;stroke-opacity:1" d="M 547.357,441.427 559.819,435.196 z" id="boundary" inkscape:connector-curvature="0" />
	<path style="fill:none;stroke:red;stroke-width:1px;stroke-linecap:butt;stroke-linejoin:miter;stroke-opacity:1" d="M 547.357,482.553 553.588,493.769 z" id="boundary" inkscape:connector-curvature="0" />
	<path style="fill:none;stroke:red;stroke-width:1px;stroke-linecap:butt;stroke-linejoin:miter;stroke-opacity:1" d="M 552.342,659.518 563.558,665.749 z" id="boundary" inkscape:connector-curvature="0" />
	<path style="fill:none;stroke:red;stroke-width:1px;stroke-linecap:butt;stroke-linejoin:miter;stroke-opacity:1" d="M 552.342,809.065 562.312,801.588 z" id="boundary" inkscape:connector-curvature="0" />
	<path style="fill:none;stroke:red;stroke-width:1px;stroke-linecap:butt;stroke-linejoin:miter;stroke-opacity:1" d="M 553.588,218.352 566.05,215.859 z" id="boundary" inkscape:connector-curvature="0" />
	<path style="fill:none;stroke:red;stroke-width:1px;stroke-linecap:butt;stroke-linejoin:miter;stroke-opacity:1" d="M 553.588,493.769 559.819,504.985 z" id="boundary" inkscape:connector-curvature="0" />
	<path style="fill:none;stroke:red;stroke-width:1px;stroke-linecap:butt;stroke-linejoin:miter;stroke-opacity:1" d="M 557.327,764.201 568.543,770.432 z" id="boundary" inkscape:connector-curvature="0" />
	<path style="fill:none;stroke:red;stroke-width:1px;stroke-linecap:butt;stroke-linejoin:miter;stroke-opacity:1" d="M 559.819,435.196 571.035,428.965 z" id="boundary" inkscape:connector-curvature="0" />
	<path style="fill:none;stroke:red;stroke-width:1px;stroke-linecap:butt;stroke-linejoin:miter;stroke-opacity:1" d="M 559.819,504.985 567.296,514.955 z" id="boundary" inkscape:connector-curvature="0" />
	<path style="fill:none;stroke:red;stroke-width:1px;stroke-linecap:butt;stroke-linejoin:miter;stroke-opacity:1" d="M 562.312,801.588 572.281,782.894 z" id="boundary" inkscape:connector-curvature="0" />
	<path style="fill:none;stroke:red;stroke-width:1px;stroke-linecap:butt;stroke-linejoin:miter;stroke-opacity:1" d="M 563.558,665.749 576.02,665.749 z" id="boundary" inkscape:connector-curvature="0" />
	<path style="fill:none;stroke:red;stroke-width:1px;stroke-linecap:butt;stroke-linejoin:miter;stroke-opacity:1" d="M 566.05,215.859 578.513,215.859 z" id="boundary" inkscape:connector-curvature="0" />
	<path style="fill:none;stroke:red;stroke-width:1px;stroke-linecap:butt;stroke-linejoin:miter;stroke-opacity:1" d="M 567.296,514.955 577.266,523.678 z" id="boundary" inkscape:connector-curvature="0" />
	<path style="fill:none;stroke:red;stroke-width:1px;stroke-linecap:butt;stroke-linejoin:miter;stroke-opacity:1" d="M 568.543,770.432 572.281,782.894 z" id="boundary" inkscape:connector-curvature="0" />
	<path style="fill:none;stroke:red;stroke-width:1px;stroke-linecap:butt;stroke-linejoin:miter;stroke-opacity:1" d="M 571.035,428.965 582.251,422.734 z" id="boundary" inkscape:connector-curvature="0" />
	<path style="fill:none;stroke:red;stroke-width:1px;stroke-linecap:butt;stroke-linejoin:miter;stroke-opacity:1" d="M 576.02,665.749 588.482,665.749 z" id="boundary" inkscape:connector-curvature="0" />
	<path style="fill:none;stroke:red;stroke-width:1px;stroke-linecap:butt;stroke-linejoin:miter;stroke-opacity:1" d="M 577.266,523.678 588.482,529.91 z" id="boundary" inkscape:connector-curvature="0" />
	<path style="fill:none;stroke:red;stroke-width:1px;stroke-linecap:butt;stroke-linejoin:miter;stroke-opacity:1" d="M 578.513,215.859 590.975,215.859 z" id="boundary" inkscape:connector-curvature="0" />
	<path style="fill:none;stroke:red;stroke-width:1px;stroke-linecap:butt;stroke-linejoin:miter;stroke-opacity:1" d="M 582.251,422.734 593.467,415.256 z" id="boundary" inkscape:connector-curvature="0" />
	<path style="fill:none;stroke:red;stroke-width:1px;stroke-linecap:butt;stroke-linejoin:miter;stroke-opacity:1" d="M 584.744,285.648 584.744,298.111 z" id="boundary" inkscape:connector-curvature="0" />
	<path style="fill:none;stroke:red;stroke-width:1px;stroke-linecap:butt;stroke-linejoin:miter;stroke-opacity:1" d="M 584.744,285.648 590.975,273.186 z" id="boundary" inkscape:connector-curvature="0" />
	<path style="fill:none;stroke:red;stroke-width:1px;stroke-linecap:butt;stroke-linejoin:miter;stroke-opacity:1" d="M 584.744,298.111 584.744,310.573 z" id="boundary" inkscape:connector-curvature="0" />
	<path style="fill:none;stroke:red;stroke-width:1px;stroke-linecap:butt;stroke-linejoin:miter;stroke-opacity:1" d="M 584.744,310.573 590.975,321.789 z" id="boundary" inkscape:connector-curvature="0" />
	<path style="fill:none;stroke:red;stroke-width:1px;stroke-linecap:butt;stroke-linejoin:miter;stroke-opacity:1" d="M 588.482,529.91 594.714,541.126 z" id="boundary" inkscape:connector-curvature="0" />
	<path style="fill:none;stroke:red;stroke-width:1px;stroke-linecap:butt;stroke-linejoin:miter;stroke-opacity:1" d="M 588.482,665.749 599.698,658.271 z" id="boundary" inkscape:connector-curvature="0" />
	<path style="fill:none;stroke:red;stroke-width:1px;stroke-linecap:butt;stroke-linejoin:miter;stroke-opacity:1" d="M 590.975,215.859 600.945,223.337 z" id="boundary" inkscape:connector-curvature="0" />
	<path style="fill:none;stroke:red;stroke-width:1px;stroke-linecap:butt;stroke-linejoin:miter;stroke-opacity:1" d="M 590.975,273.186 597.206,254.492 z" id="boundary" inkscape:connector-curvature="0" />
	<path style="fill:none;stroke:red;stroke-width:1px;stroke-linecap:butt;stroke-linejoin:miter;stroke-opacity:1" d="M 590.975,321.789 600.945,329.266 z" id="boundary" inkscape:connector-curvature="0" />
	<path style="fill:none;stroke:red;stroke-width:1px;stroke-linecap:butt;stroke-linejoin:miter;stroke-opacity:1" d="M 593.467,415.256 599.698,402.794 z" id="boundary" inkscape:connector-curvature="0" />
	<path style="fill:none;stroke:red;stroke-width:1px;stroke-linecap:butt;stroke-linejoin:miter;stroke-opacity:1" d="M 594.714,541.126 603.437,551.095 z" id="boundary" inkscape:connector-curvature="0" />
	<path style="fill:none;stroke:red;stroke-width:1px;stroke-linecap:butt;stroke-linejoin:miter;stroke-opacity:1" d="M 597.206,254.492 603.437,235.799 z" id="boundary" inkscape:connector-curvature="0" />
	<path style="fill:none;stroke:red;stroke-width:1px;stroke-linecap:butt;stroke-linejoin:miter;stroke-opacity:1" d="M 599.698,402.794 609.668,391.578 z" id="boundary" inkscape:connector-curvature="0" />
	<path style="fill:none;stroke:red;stroke-width:1px;stroke-linecap:butt;stroke-linejoin:miter;stroke-opacity:1" d="M 599.698,658.271 609.668,647.055 z" id="boundary" inkscape:connector-curvature="0" />
	<path style="fill:none;stroke:red;stroke-width:1px;stroke-linecap:butt;stroke-linejoin:miter;stroke-opacity:1" d="M 600.945,223.337 603.437,235.799 z" id="boundary" inkscape:connector-curvature="0" />
	<path style="fill:none;stroke:red;stroke-width:1px;stroke-linecap:butt;stroke-linejoin:miter;stroke-opacity:1" d="M 600.945,329.266 609.668,339.236 z" id="boundary" inkscape:connector-curvature="0" />
	<path style="fill:none;stroke:red;stroke-width:1px;stroke-linecap:butt;stroke-linejoin:miter;stroke-opacity:1" d="M 603.437,551.095 609.668,562.312 z" id="boundary" inkscape:connector-curvature="0" />
	<path style="fill:none;stroke:red;stroke-width:1px;stroke-linecap:butt;stroke-linejoin:miter;stroke-opacity:1" d="M 609.668,339.236 615.899,350.452 z" id="boundary" inkscape:connector-curvature="0" />
	<path style="fill:none;stroke:red;stroke-width:1px;stroke-linecap:butt;stroke-linejoin:miter;stroke-opacity:1" d="M 609.668,391.578 615.899,375.377 z" id="boundary" inkscape:connector-curvature="0" />
	<path style="fill:none;stroke:red;stroke-width:1px;stroke-linecap:butt;stroke-linejoin:miter;stroke-opacity:1" d="M 609.668,562.312 614.653,574.774 z" id="boundary" inkscape:connector-curvature="0" />
	<path style="fill:none;stroke:red;stroke-width:1px;stroke-linecap:butt;stroke-linejoin:miter;stroke-opacity:1" d="M 609.668,647.055 615.899,624.623 z" id="boundary" inkscape:connector-curvature="0" />
	<path style="fill:none;stroke:red;stroke-width:1px;stroke-linecap:butt;stroke-linejoin:miter;stroke-opacity:1" d="M 614.653,574.774 615.899,587.236 z" id="boundary" inkscape:connector-curvature="0" />
	<path style="fill:none;stroke:red;stroke-width:1px;stroke-linecap:butt;stroke-linejoin:miter;stroke-opacity:1" d="M 615.899,350.452 615.899,362.915 z" id="boundary" inkscape:connector-curvature="0" />
	<path style="fill:none;stroke:red;stroke-width:1px;stroke-linecap:butt;stroke-linejoin:miter;stroke-opacity:1" d="M 615.899,362.915 615.899,375.377 z" id="boundary" inkscape:connector-curvature="0" />
	<path style="fill:none;stroke:red;stroke-width:1px;stroke-linecap:butt;stroke-linejoin:miter;stroke-opacity:1" d="M 615.899,587.236 615.899,599.698 z" id="boundary" inkscape:connector-curvature="0" />
	<path style="fill:none;stroke:red;stroke-width:1px;stroke-linecap:butt;stroke-linejoin:miter;stroke-opacity:1" d="M 615.899,599.698 615.899,612.161 z" id="boundary" inkscape:connector-curvature="0" />
	<path style="fill:none;stroke:red;stroke-width:1px;stroke-linecap:butt;stroke-linejoin:miter;stroke-opacity:1" d="M 615.899,612.161 615.899,624.623 z" id="boundary" inkscape:connector-curvature="0" />
	<circle cx="4" cy="256.985" r="4" fill="#0" id="circle0"/>
	<circle cx="4" cy="269.447" r="4" fill="#0" id="circle1"/>
	<circle cx="10.2312" cy="280.663" r="4" fill="#0" id="circle2"/>
	<circle cx="13.9698" cy="247.015" r="4" fill="#0" id="circle3"/>
	<circle cx="18.9548" cy="290.633" r="4" fill="#0" id="circle4"/>
	<circle cx="25.1859" cy="240.784" r="4" fill="#0" id="circle5"/>
	<circle cx="28.9246" cy="618.392" r="4" fill="#0" id="circle6"/>
	<circle cx="28.9246" cy="630.854" r="4" fill="#0" id="circle7"/>
	<circle cx="28.9246" cy="643.317" r="4" fill="#0" id="circle8"/>
	<circle cx="28.9246" cy="655.779" r="4" fill="#0" id="circle9"/>
	<circle cx="31.4171" cy="295.618" r="4" fill="#0" id="circle10"/>
	<circle cx="35.1558" cy="599.698" r="4" fill="#0" id="circle11"/>
	<circle cx="35.1558" cy="666.995" r="4" fill="#0" id="circle12"/>
	<circle cx="35.1558" cy="679.457" r="4" fill="#0" id="circle13"/>
	<circle cx="36.402" cy="234.553" r="4" fill="#0" id="circle14"/>
	<circle cx="41.3869" cy="304.342" r="4" fill="#0" id="circle15"/>
	<circle cx="41.3869" cy="587.236" r="4" fill="#0" id="circle16"/>
	<circle cx="41.3869" cy="690.673" r="4" fill="#0" id="circle17"/>
	<circle cx="47.6181" cy="228.322" r="4" fill="#0" id="circle18"/>
	<circle cx="48.8643" cy="314.312" r="4" fill="#0" id="circle19"/>
	<circle cx="48.8643" cy="700.643" r="4" fill="#0" id="circle20"/>
	<circle cx="51.3568" cy="577.266" r="4" fill="#0" id="circle21"/>
	<circle cx="58.8342" cy="222.09" r="4" fill="#0" id="circle22"/>
	<circle cx="58.8342" cy="323.035" r="4" fill="#0" id="circle23"/>
	<circle cx="58.8342" cy="709.367" r="4" fill="#0" id="circle24"/>
	<circle cx="60.0804" cy="562.312" r="4" fill="#0" id="circle25"/>
	<circle cx="60.0804" cy="992.261" r="4" fill="#0" id="circle26"/>
	<circle cx="66.3116" cy="333.005" r="4" fill="#0" id="circle27"/>
	<circle cx="66.3116" cy="543.618" r="4" fill="#0" id="circle28"/>
	<circle cx="66.3116" cy="967.337" r="4" fill="#0" id="circle29"/>
	<circle cx="66.3116" cy="979.799" r="4" fill="#0" id="circle30"/>
	<circle cx="67.5578" cy="212.121" r="4" fill="#0" id="circle31"/>
	<circle cx="70.0503" cy="703.136" r="4" fill="#0" id="circle32"/>
	<circle cx="72.5427" cy="344.221" r="4" fill="#0" id="circle33"/>
	<circle cx="72.5427" cy="531.156" r="4" fill="#0" id="circle34"/>
	<circle cx="72.5427" cy="942.412" r="4" fill="#0" id="circle35"/>
	<circle cx="72.5427" cy="954.874" r="4" fill="#0" id="circle36"/>
	<circle cx="72.5427" cy="996" r="4" fill="#0" id="circle37"/>
	<circle cx="77.5276" cy="203.397" r="4" fill="#0" id="circle38"/>
	<circle cx="78.7739" cy="512.462" r="4" fill="#0" id="circle39"/>
	<circle cx="78.7739" cy="917.487" r="4" fill="#0" id="circle40"/>
	<circle cx="78.7739" cy="929.95" r="4" fill="#0" id="circle41"/>
	<circle cx="82.5126" cy="352.945" r="4" fill="#0" id="circle42"/>
	<circle cx="82.5126" cy="703.136" r="4" fill="#0" id="circle43"/>
	<circle cx="85.005" cy="365.407" r="4" fill="#0" id="circle44"/>
	<circle cx="85.005" cy="500" r="4" fill="#0" id="circle45"/>
	<circle cx="85.005" cy="892.563" r="4" fill="#0" id="circle46"/>
	<circle cx="85.005" cy="905.025" r="4" fill="#0" id="circle47"/>
	<circle cx="85.005" cy="996" r="4" fill="#0" id="circle48"/>
	<circle cx="86.2513" cy="193.427" r="4" fill="#0" id="circle49"/>
	<circle cx="91.2362" cy="376.623" r="4" fill="#0" id="circle50"/>
	<circle cx="91.2362" cy="481.307" r="4" fill="#0" id="circle51"/>
	<circle cx="91.2362" cy="867.638" r="4" fill="#0" id="circle52"/>
	<circle cx="91.2362" cy="880.101" r="4" fill="#0" id="circle53"/>
	<circle cx="94.9749" cy="703.136" r="4" fill="#0" id="circle54"/>
	<circle cx="96.2211" cy="184.704" r="4" fill="#0" id="circle55"/>
	<circle cx="97.4673" cy="387.839" r="4" fill="#0" id="circle56"/>
	<circle cx="97.4673" cy="400.302" r="4" fill="#0" id="circle57"/>
	<circle cx="97.4673" cy="412.764" r="4" fill="#0" id="circle58"/>
	<circle cx="97.4673" cy="425.226" r="4" fill="#0" id="circle59"/>
	<circle cx="97.4673" cy="437.688" r="4" fill="#0" id="circle60"/>
	<circle cx="97.4673" cy="450.151" r="4" fill="#0" id="circle61"/>
	<circle cx="97.4673" cy="462.613" r="4" fill="#0" id="circle62"/>
	<circle cx="97.4673" cy="842.714" r="4" fill="#0" id="circle63"/>
	<circle cx="97.4673" cy="855.176" r="4" fill="#0" id="circle64"/>
	<circle cx="97.4673" cy="996" r="4" fill="#0" id="circle65"/>
	<circle cx="103.698" cy="817.789" r="4" fill="#0" id="circle66"/>
	<circle cx="103.698" cy="830.251" r="4" fill="#0" id="circle67"/>
	<circle cx="104.945" cy="711.859" r="4" fill="#0" id="circle68"/>
	<circle cx="107.437" cy="178.472" r="4" fill="#0" id="circle69"/>
	<circle cx="109.93" cy="724.322" r="4" fill="#0" id="circle70"/>
	<circle cx="109.93" cy="799.095" r="4" fill="#0" id="circle71"/>
	<circle cx="109.93" cy="996" r="4" fill="#0" id="circle72"/>
	<circle cx="116.161" cy="774.171" r="4" fill="#0" id="circle73"/>
	<circle cx="116.161" cy="786.633" r="4" fill="#0" id="circle74"/>
	<circle cx="117.407" cy="168.503" r="4" fill="#0" id="circle75"/>
	<circle cx="119.899" cy="733.045" r="4" fill="#0" id="circle76"/>
	<circle cx="122.392" cy="749.246" r="4" fill="#0" id="circle77"/>
	<circle cx="122.392" cy="761.709" r="4" fill="#0" id="circle78"/>
	<circle cx="122.392" cy="996" r="4" fill="#0" id="circle79"/>
	<circle cx="127.377" cy="159.779" r="4" fill="#0" id="circle80"/>
	<circle cx="134.854" cy="996" r="4" fill="#0" id="circle81"/>
	<circle cx="138.593" cy="153.548" r="4" fill="#0" id="circle82"/>
	<circle cx="147.317" cy="996" r="4" fill="#0" id="circle83"/>
	<circle cx="151.055" cy="147.317" r="4" fill="#0" id="circle84"/>
	<circle cx="159.779" cy="996" r="4" fill="#0" id="circle85"/>
	<circle cx="162.271" cy="141.085" r="4" fill="#0" id="circle86"/>
	<circle cx="172.241" cy="996" r="4" fill="#0" id="circle87"/>
	<circle cx="173.487" cy="134.854" r="4" fill="#0" id="circle88"/>
	<circle cx="184.704" cy="128.623" r="4" fill="#0" id="circle89"/>
	<circle cx="184.704" cy="996" r="4" fill="#0" id="circle90"/>
	<circle cx="195.92" cy="122.392" r="4" fill="#0" id="circle91"/>
	<circle cx="197.166" cy="996" r="4" fill="#0" id="circle92"/>
	<circle cx="207.136" cy="116.161" r="4" fill="#0" id="circle93"/>
	<circle cx="209.628" cy="996" r="4" fill="#0" id="circle94"/>
	<circle cx="219.598" cy="116.161" r="4" fill="#0" id="circle95"/>
	<circle cx="222.09" cy="996" r="4" fill="#0" id="circle96"/>
	<circle cx="232.06" cy="116.161" r="4" fill="#0" id="circle97"/>
	<circle cx="232.06" cy="988.523" r="4" fill="#0" id="circle98"/>
	<circle cx="235.799" cy="964.844" r="4" fill="#0" id="circle99"/>
	<circle cx="242.03" cy="939.92" r="4" fill="#0" id="circle100"/>
	<circle cx="242.03" cy="952.382" r="4" fill="#0" id="circle101"/>
	<circle cx="244.523" cy="116.161" r="4" fill="#0" id="circle102"/>
	<circle cx="248.261" cy="914.995" r="4" fill="#0" id="circle103"/>
	<circle cx="248.261" cy="927.457" r="4" fill="#0" id="circle104"/>
	<circle cx="254.492" cy="890.07" r="4" fill="#0" id="circle105"/>
	<circle cx="254.492" cy="902.533" r="4" fill="#0" id="circle106"/>
	<circle cx="256.985" cy="116.161" r="4" fill="#0" id="circle107"/>
	<circle cx="260.724" cy="865.146" r="4" fill="#0" id="circle108"/>
	<circle cx="260.724" cy="877.608" r="4" fill="#0" id="circle109"/>
	<circle cx="266.955" cy="846.452" r="4" fill="#0" id="circle110"/>
	<circle cx="269.447" cy="116.161" r="4" fill="#0" id="circle111"/>
	<circle cx="278.171" cy="840.221" r="4" fill="#0" id="circle112"/>
	<circle cx="281.91" cy="116.161" r="4" fill="#0" id="circle113"/>
	<circle cx="289.387" cy="846.452" r="4" fill="#0" id="circle114"/>
	<circle cx="290.633" cy="94.9749" r="4" fill="#0" id="circle115"/>
	<circle cx="296.864" cy="70.0503" r="4" fill="#0" id="circle116"/>
	<circle cx="296.864" cy="82.5126" r="4" fill="#0" id="circle117"/>
	<circle cx="301.849" cy="846.452" r="4" fill="#0" id="circle118"/>
	<circle cx="303.095" cy="45.1256" r="4" fill="#0" id="circle119"/>
	<circle cx="303.095" cy="57.5879" r="4" fill="#0" id="circle120"/>
	<circle cx="309.327" cy="20.201" r="4" fill="#0" id="circle121"/>
	<circle cx="309.327" cy="32.6633" r="4" fill="#0" id="circle122"/>
	<circle cx="313.065" cy="852.683" r="4" fill="#0" id="circle123"/>
	<circle cx="315.558" cy="7.73869" r="4" fill="#0" id="circle124"/>
	<circle cx="324.281" cy="858.915" r="4" fill="#0" id="circle125"/>
	<circle cx="328.02" cy="4" r="4" fill="#0" id="circle126"/>
	<circle cx="336.744" cy="858.915" r="4" fill="#0" id="circle127"/>
	<circle cx="340.482" cy="4" r="4" fill="#0" id="circle128"/>
	<circle cx="349.206" cy="862.653" r="4" fill="#0" id="circle129"/>
	<circle cx="352.945" cy="4" r="4" fill="#0" id="circle130"/>
	<circle cx="361.668" cy="865.146" r="4" fill="#0" id="circle131"/>
	<circle cx="364.161" cy="10.2312" r="4" fill="#0" id="circle132"/>
	<circle cx="374.131" cy="865.146" r="4" fill="#0" id="circle133"/>
	<circle cx="376.623" cy="10.2312" r="4" fill="#0" id="circle134"/>
	<circle cx="385.347" cy="684.442" r="4" fill="#0" id="circle135"/>
	<circle cx="385.347" cy="696.905" r="4" fill="#0" id="circle136"/>
	<circle cx="386.593" cy="865.146" r="4" fill="#0" id="circle137"/>
	<circle cx="389.085" cy="10.2312" r="4" fill="#0" id="circle138"/>
	<circle cx="391.578" cy="665.749" r="4" fill="#0" id="circle139"/>
	<circle cx="391.578" cy="708.121" r="4" fill="#0" id="circle140"/>
	<circle cx="397.809" cy="653.286" r="4" fill="#0" id="circle141"/>
	<circle cx="399.055" cy="865.146" r="4" fill="#0" id="circle142"/>
	<circle cx="401.548" cy="10.2312" r="4" fill="#0" id="circle143"/>
	<circle cx="404.04" cy="708.121" r="4" fill="#0" id="circle144"/>
	<circle cx="410.271" cy="647.055" r="4" fill="#0" id="circle145"/>
	<circle cx="411.518" cy="865.146" r="4" fill="#0" id="circle146"/>
	<circle cx="414.01" cy="10.2312" r="4" fill="#0" id="circle147"/>
	<circle cx="416.503" cy="711.859" r="4" fill="#0" id="circle148"/>
	<circle cx="420.241" cy="638.332" r="4" fill="#0" id="circle149"/>
	<circle cx="422.734" cy="858.915" r="4" fill="#0" id="circle150"/>
	<circle cx="426.472" cy="10.2312" r="4" fill="#0" id="circle151"/>
	<circle cx="428.965" cy="714.352" r="4" fill="#0" id="circle152"/>
	<circle cx="432.704" cy="634.593" r="4" fill="#0" id="circle153"/>
	<circle cx="435.196" cy="858.915" r="4" fill="#0" id="circle154"/>
	<circle cx="438.935" cy="10.2312" r="4" fill="#0" id="circle155"/>
	<circle cx="440.181" cy="720.583" r="4" fill="#0" id="circle156"/>
	<circle cx="441.427" cy="173.487" r="4" fill="#0" id="circle157"/>
	<circle cx="441.427" cy="185.95" r="4" fill="#0" id="circle158"/>
	<circle cx="445.166" cy="634.593" r="4" fill="#0" id="circle159"/>
	<circle cx="447.658" cy="154.794" r="4" fill="#0" id="circle160"/>
	<circle cx="447.658" cy="197.166" r="4" fill="#0" id="circle161"/>
	<circle cx="447.658" cy="858.915" r="4" fill="#0" id="circle162"/>
	<circle cx="450.151" cy="16.4623" r="4" fill="#0" id="circle163"/>
	<circle cx="452.643" cy="720.583" r="4" fill="#0" id="circle164"/>
	<circle cx="453.889" cy="129.869" r="4" fill="#0" id="circle165"/>
	<circle cx="453.889" cy="142.332" r="4" fill="#0" id="circle166"/>
	<circle cx="456.382" cy="628.362" r="4" fill="#0" id="circle167"/>
	<circle cx="458.874" cy="852.683" r="4" fill="#0" id="circle168"/>
	<circle cx="460.121" cy="104.945" r="4" fill="#0" id="circle169"/>
	<circle cx="460.121" cy="117.407" r="4" fill="#0" id="circle170"/>
	<circle cx="460.121" cy="200.905" r="4" fill="#0" id="circle171"/>
	<circle cx="462.613" cy="16.4623" r="4" fill="#0" id="circle172"/>
	<circle cx="465.106" cy="723.075" r="4" fill="#0" id="circle173"/>
	<circle cx="466.352" cy="80.0201" r="4" fill="#0" id="circle174"/>
	<circle cx="466.352" cy="92.4824" r="4" fill="#0" id="circle175"/>
	<circle cx="468.844" cy="210.874" r="4" fill="#0" id="circle176"/>
	<circle cx="468.844" cy="633.347" r="4" fill="#0" id="circle177"/>
	<circle cx="470.09" cy="846.452" r="4" fill="#0" id="circle178"/>
	<circle cx="472.583" cy="55.0955" r="4" fill="#0" id="circle179"/>
	<circle cx="472.583" cy="67.5578" r="4" fill="#0" id="circle180"/>
	<circle cx="475.075" cy="16.4623" r="4" fill="#0" id="circle181"/>
	<circle cx="477.568" cy="726.814" r="4" fill="#0" id="circle182"/>
	<circle cx="478.814" cy="30.1709" r="4" fill="#0" id="circle183"/>
	<circle cx="478.814" cy="42.6332" r="4" fill="#0" id="circle184"/>
	<circle cx="481.307" cy="215.859" r="4" fill="#0" id="circle185"/>
	<circle cx="481.307" cy="634.593" r="4" fill="#0" id="circle186"/>
	<circle cx="482.553" cy="843.96" r="4" fill="#0" id="circle187"/>
	<circle cx="488.784" cy="733.045" r="4" fill="#0" id="circle188"/>
	<circle cx="492.523" cy="222.09" r="4" fill="#0" id="circle189"/>
	<circle cx="492.523" cy="640.824" r="4" fill="#0" id="circle190"/>
	<circle cx="495.015" cy="837.729" r="4" fill="#0" id="circle191"/>
	<circle cx="500" cy="739.276" r="4" fill="#0" id="circle192"/>
	<circle cx="503.739" cy="228.322" r="4" fill="#0" id="circle193"/>
	<circle cx="504.985" cy="640.824" r="4" fill="#0" id="circle194"/>
	<circle cx="507.477" cy="833.99" r="4" fill="#0" id="circle195"/>
	<circle cx="511.216" cy="745.508" r="4" fill="#0" id="circle196"/>
	<circle cx="516.201" cy="228.322" r="4" fill="#0" id="circle197"/>
	<circle cx="517.447" cy="644.563" r="4" fill="#0" id="circle198"/>
	<circle cx="518.693" cy="827.759" r="4" fill="#0" id="circle199"/>
	<circle cx="523.678" cy="745.508" r="4" fill="#0" id="circle200"/>
	<circle cx="528.663" cy="228.322" r="4" fill="#0" id="circle201"/>
	<circle cx="528.663" cy="650.794" r="4" fill="#0" id="circle202"/>
	<circle cx="529.91" cy="821.528" r="4" fill="#0" id="circle203"/>
	<circle cx="534.894" cy="447.658" r="4" fill="#0" id="circle204"/>
	<circle cx="534.894" cy="460.121" r="4" fill="#0" id="circle205"/>
	<circle cx="534.894" cy="751.739" r="4" fill="#0" id="circle206"/>
	<circle cx="541.126" cy="224.583" r="4" fill="#0" id="circle207"/>
	<circle cx="541.126" cy="471.337" r="4" fill="#0" id="circle208"/>
	<circle cx="541.126" cy="653.286" r="4" fill="#0" id="circle209"/>
	<circle cx="541.126" cy="815.296" r="4" fill="#0" id="circle210"/>
	<circle cx="546.111" cy="757.97" r="4" fill="#0" id="circle211"/>
	<circle cx="547.357" cy="441.427" r="4" fill="#0" id="circle212"/>
	<circle cx="547.357" cy="482.553" r="4" fill="#0" id="circle213"/>
	<circle cx="552.342" cy="659.518" r="4" fill="#0" id="circle214"/>
	<circle cx="552.342" cy="809.065" r="4" fill="#0" id="circle215"/>
	<circle cx="553.588" cy="218.352" r="4" fill="#0" id="circle216"/>
	<circle cx="553.588" cy="493.769" r="4" fill="#0" id="circle217"/>
	<circle cx="557.327" cy="764.201" r="4" fill="#0" id="circle218"/>
	<circle cx="559.819" cy="435.196" r="4" fill="#0" id="circle219"/>
	<circle cx="559.819" cy="504.985" r="4" fill="#0" id="circle220"/>
	<circle cx="562.312" cy="801.588" r="4" fill="#0" id="circle221"/>
	<circle cx="563.558" cy="665.749" r="4" fill="#0" id="circle222"/>
	<circle cx="566.05" cy="215.859" r="4" fill="#0" id="circle223"/>
	<circle cx="567.296" cy="514.955" r="4" fill="#0" id="circle224"/>
	<circle cx="568.543" cy="770.432" r="4" fill="#0" id="circle225"/>
	<circle cx="571.035" cy="428.965" r="4" fill="#0" id="circle226"/>
	<circle cx="572.281" cy="782.894" r="4" fill="#0" id="circle227"/>
	<circle cx="576.02" cy="665.749" r="4" fill="#0" id="circle228"/>
	<circle cx="577.266" cy="523.678" r="4" fill="#0" id="circle229"/>
	<circle cx="578.513" cy="215.859" r="4" fill="#0" id="circle230"/>
	<circle cx="582.251" cy="422.734" r="4" fill="#0" id="circle231"/>
	<circle cx="584.744" cy="285.648" r="4" fill="#0" id="circle232"/>
	<circle cx="584.744" cy="298.111" r="4" fill="#0" id="circle233"/>
	<circle cx="584.744" cy="310.573" r="4" fill="#0" id="circle234"/>
	<circle cx="588.482" cy="529.91" r="4" fill="#0" id="circle235"/>
	<circle cx="588.482" cy="665.749" r="4" fill="#0" id="circle236"/>
	<circle cx="590.975" cy="215.859" r="4" fill="#0" id="circle237"/>
	<circle cx="590.975" cy="273.186" r="4" fill="#0" id="circle238"/>
	<circle cx="590.975" cy="321.789" r="4" fill="#0" id="circle239"/>
	<circle cx="593.467" cy="415.256" r="4" fill="#0" id="circle240"/>
	<circle cx="594.714" cy="541.126" r="4" fill="#0" id="circle241"/>
	<circle cx="597.206" cy="254.492" r="4" fill="#0" id="circle242"/>
	<circle cx="599.698" cy="402.794" r="4" fill="#0" id="circle243"/>
	<circle cx="599.698" cy="658.271" r="4" fill="#0" id="circle244"/>
	<circle cx="600.945" cy="223.337" r="4" fill="#0" id="circle245"/>
	<circle cx="600.945" cy="329.266" r="4" fill="#0" id="circle246"/>
	<circle cx="603.437" cy="235.799" r="4" fill="#0" id="circle247"/>
	<circle cx="603.437" cy="551.095" r="4" fill="#0" id="circle248"/>
	<circle cx="609.668" cy="339.236" r="4" fill="#0" id="circle249"/>
	<circle cx="609.668" cy="391.578" r="4" fill="#0" id="circle250"/>
	<circle cx="609.668" cy="562.312" r="4" fill="#0" id="circle251"/>
	<circle cx="609.668" cy="647.055" r="4" fill="#0" id="circle252"/>
	<circle cx="614.653" cy="574.774" r="4" fill="#0" id="circle253"/>
	<circle cx="615.899" cy="350.452" r="4" fill="#0" id="circle254"/>
	<circle cx="615.899" cy="362.915" r="4" fill="#0" id="circle255"/>
	<circle cx="615.899" cy="375.377" r="4" fill="#0" id="circle256"/>
	<circle cx="615.899" cy="587.236" r="4" fill="#0" id="circle257"/>
	<circle cx="615.899" cy="599.698" r="4" fill="#0" id="circle258"/>
	<circle cx="615.899" cy="612.161" r="4" fill="#0" id="circle259"/>
	<circle cx="615.899" cy="624.623" r="4" fill="#0" id="circle260"/>
	</g>
</svg>