<?xml version="1.0" encoding="UTF-8" standalone="no"?>
<!-- Created with CurveBenchmark -->
<svg
	xmlns:dc="http://purl.org/dc/elements/1.1/"
	xmlns:cc="http://creativecommons.org/ns#"
	xmlns:rdf="http://www.w3.org/1999/02/22-rdf-syntax-ns#"
	xmlns:svg="http://www.w3.org/2000/svg"
	xmlns="http://www.w3.org/2000/svg"
	xmlns:sodipodi="http://sodipodi.sourceforge.net/DTD/sodipodi-0.dtd"
	xmlns:inkscape="http://www.inkscape.org/namespaces/inkscape"
	width="1000"
	height="1000"
	id="svg2"
	version="1.1"
	sodipodi:docname="manifold/hnncrust-cat36.png.txt">
<defs
	id="defs4" />
<metadata
	id="metadata7">
	<rdf:RDF>
		<cc:Work
			rdf:about="">
			<dc:format>image/svg+xml</dc:format>
			<dc:type
				rdf:resource="http://purl.org/dc/dcmitype/StillImage" />
			<dc:title></dc:title>
		</cc:Work>
	</rdf:RDF>
</metadata>
<g
	inkscape:label="Layer 1"
	inkscape:groupmode="layer"
	id="layer1">
	<path style="fill:none;stroke:red;stroke-width:1px;stroke-linecap:butt;stroke-linejoin:miter;stroke-opacity:1" d="M 4,72.9088 4,87.2648 z" id="boundary" inkscape:connector-curvature="0" />
	<path style="fill:none;stroke:red;stroke-width:1px;stroke-linecap:butt;stroke-linejoin:miter;stroke-opacity:1" d="M 4,72.9088 15.4848,61.424 z" id="boundary" inkscape:connector-curvature="0" />
	<path style="fill:none;stroke:red;stroke-width:1px;stroke-linecap:butt;stroke-linejoin:miter;stroke-opacity:1" d="M 4,87.2648 4,101.621 z" id="boundary" inkscape:connector-curvature="0" />
	<path style="fill:none;stroke:red;stroke-width:1px;stroke-linecap:butt;stroke-linejoin:miter;stroke-opacity:1" d="M 4,101.621 4,115.977 z" id="boundary" inkscape:connector-curvature="0" />
	<path style="fill:none;stroke:red;stroke-width:1px;stroke-linecap:butt;stroke-linejoin:miter;stroke-opacity:1" d="M 4,115.977 11.178,128.897 z" id="boundary" inkscape:connector-curvature="0" />
	<path style="fill:none;stroke:red;stroke-width:1px;stroke-linecap:butt;stroke-linejoin:miter;stroke-opacity:1" d="M 11.178,128.897 11.178,143.253 z" id="boundary" inkscape:connector-curvature="0" />
	<path style="fill:none;stroke:red;stroke-width:1px;stroke-linecap:butt;stroke-linejoin:miter;stroke-opacity:1" d="M 11.178,143.253 21.2272,154.738 z" id="boundary" inkscape:connector-curvature="0" />
	<path style="fill:none;stroke:red;stroke-width:1px;stroke-linecap:butt;stroke-linejoin:miter;stroke-opacity:1" d="M 15.4848,61.424 22.6628,47.068 z" id="boundary" inkscape:connector-curvature="0" />
	<path style="fill:none;stroke:red;stroke-width:1px;stroke-linecap:butt;stroke-linejoin:miter;stroke-opacity:1" d="M 21.2272,154.738 32.712,163.352 z" id="boundary" inkscape:connector-curvature="0" />
	<path style="fill:none;stroke:red;stroke-width:1px;stroke-linecap:butt;stroke-linejoin:miter;stroke-opacity:1" d="M 22.6628,47.068 32.712,22.6628 z" id="boundary" inkscape:connector-curvature="0" />
	<path style="fill:none;stroke:red;stroke-width:1px;stroke-linecap:butt;stroke-linejoin:miter;stroke-opacity:1" d="M 32.712,8.3068 32.712,22.6628 z" id="boundary" inkscape:connector-curvature="0" />
	<path style="fill:none;stroke:red;stroke-width:1px;stroke-linecap:butt;stroke-linejoin:miter;stroke-opacity:1" d="M 32.712,8.3068 47.068,4 z" id="boundary" inkscape:connector-curvature="0" />
	<path style="fill:none;stroke:red;stroke-width:1px;stroke-linecap:butt;stroke-linejoin:miter;stroke-opacity:1" d="M 32.712,163.352 45.6324,170.53 z" id="boundary" inkscape:connector-curvature="0" />
	<path style="fill:none;stroke:red;stroke-width:1px;stroke-linecap:butt;stroke-linejoin:miter;stroke-opacity:1" d="M 45.6324,170.53 59.9884,170.53 z" id="boundary" inkscape:connector-curvature="0" />
	<path style="fill:none;stroke:red;stroke-width:1px;stroke-linecap:butt;stroke-linejoin:miter;stroke-opacity:1" d="M 47.068,4 61.424,6.8712 z" id="boundary" inkscape:connector-curvature="0" />
	<path style="fill:none;stroke:red;stroke-width:1px;stroke-linecap:butt;stroke-linejoin:miter;stroke-opacity:1" d="M 59.9884,170.53 74.3444,170.53 z" id="boundary" inkscape:connector-curvature="0" />
	<path style="fill:none;stroke:red;stroke-width:1px;stroke-linecap:butt;stroke-linejoin:miter;stroke-opacity:1" d="M 61.424,6.8712 75.78,11.178 z" id="boundary" inkscape:connector-curvature="0" />
	<path style="fill:none;stroke:red;stroke-width:1px;stroke-linecap:butt;stroke-linejoin:miter;stroke-opacity:1" d="M 74.3444,170.53 88.7004,170.53 z" id="boundary" inkscape:connector-curvature="0" />
	<path style="fill:none;stroke:red;stroke-width:1px;stroke-linecap:butt;stroke-linejoin:miter;stroke-opacity:1" d="M 75.78,11.178 90.136,11.178 z" id="boundary" inkscape:connector-curvature="0" />
	<path style="fill:none;stroke:red;stroke-width:1px;stroke-linecap:butt;stroke-linejoin:miter;stroke-opacity:1" d="M 88.7004,170.53 103.056,170.53 z" id="boundary" inkscape:connector-curvature="0" />
	<path style="fill:none;stroke:red;stroke-width:1px;stroke-linecap:butt;stroke-linejoin:miter;stroke-opacity:1" d="M 90.136,11.178 103.056,18.356 z" id="boundary" inkscape:connector-curvature="0" />
	<path style="fill:none;stroke:red;stroke-width:1px;stroke-linecap:butt;stroke-linejoin:miter;stroke-opacity:1" d="M 103.056,18.356 117.412,18.356 z" id="boundary" inkscape:connector-curvature="0" />
	<path style="fill:none;stroke:red;stroke-width:1px;stroke-linecap:butt;stroke-linejoin:miter;stroke-opacity:1" d="M 103.056,170.53 115.977,177.708 z" id="boundary" inkscape:connector-curvature="0" />
	<path style="fill:none;stroke:red;stroke-width:1px;stroke-linecap:butt;stroke-linejoin:miter;stroke-opacity:1" d="M 115.977,177.708 128.897,184.886 z" id="boundary" inkscape:connector-curvature="0" />
	<path style="fill:none;stroke:red;stroke-width:1px;stroke-linecap:butt;stroke-linejoin:miter;stroke-opacity:1" d="M 117.412,18.356 131.768,18.356 z" id="boundary" inkscape:connector-curvature="0" />
	<path style="fill:none;stroke:red;stroke-width:1px;stroke-linecap:butt;stroke-linejoin:miter;stroke-opacity:1" d="M 128.897,184.886 140.382,193.499 z" id="boundary" inkscape:connector-curvature="0" />
	<path style="fill:none;stroke:red;stroke-width:1px;stroke-linecap:butt;stroke-linejoin:miter;stroke-opacity:1" d="M 131.768,18.356 146.124,19.7916 z" id="boundary" inkscape:connector-curvature="0" />
	<path style="fill:none;stroke:red;stroke-width:1px;stroke-linecap:butt;stroke-linejoin:miter;stroke-opacity:1" d="M 140.382,193.499 147.56,206.42 z" id="boundary" inkscape:connector-curvature="0" />
	<path style="fill:none;stroke:red;stroke-width:1px;stroke-linecap:butt;stroke-linejoin:miter;stroke-opacity:1" d="M 146.124,19.7916 160.48,25.534 z" id="boundary" inkscape:connector-curvature="0" />
	<path style="fill:none;stroke:red;stroke-width:1px;stroke-linecap:butt;stroke-linejoin:miter;stroke-opacity:1" d="M 147.56,206.42 156.174,217.904 z" id="boundary" inkscape:connector-curvature="0" />
	<path style="fill:none;stroke:red;stroke-width:1px;stroke-linecap:butt;stroke-linejoin:miter;stroke-opacity:1" d="M 156.174,217.904 170.53,223.647 z" id="boundary" inkscape:connector-curvature="0" />
	<path style="fill:none;stroke:red;stroke-width:1px;stroke-linecap:butt;stroke-linejoin:miter;stroke-opacity:1" d="M 160.48,25.534 174.836,26.9696 z" id="boundary" inkscape:connector-curvature="0" />
	<path style="fill:none;stroke:red;stroke-width:1px;stroke-linecap:butt;stroke-linejoin:miter;stroke-opacity:1" d="M 161.916,410.275 169.094,395.919 z" id="boundary" inkscape:connector-curvature="0" />
	<path style="fill:none;stroke:red;stroke-width:1px;stroke-linecap:butt;stroke-linejoin:miter;stroke-opacity:1" d="M 161.916,410.275 170.53,421.76 z" id="boundary" inkscape:connector-curvature="0" />
	<path style="fill:none;stroke:red;stroke-width:1px;stroke-linecap:butt;stroke-linejoin:miter;stroke-opacity:1" d="M 169.094,395.919 183.45,391.612 z" id="boundary" inkscape:connector-curvature="0" />
	<path style="fill:none;stroke:red;stroke-width:1px;stroke-linecap:butt;stroke-linejoin:miter;stroke-opacity:1" d="M 170.53,223.647 180.579,235.132 z" id="boundary" inkscape:connector-curvature="0" />
	<path style="fill:none;stroke:red;stroke-width:1px;stroke-linecap:butt;stroke-linejoin:miter;stroke-opacity:1" d="M 170.53,421.76 184.886,424.631 z" id="boundary" inkscape:connector-curvature="0" />
	<path style="fill:none;stroke:red;stroke-width:1px;stroke-linecap:butt;stroke-linejoin:miter;stroke-opacity:1" d="M 174.836,26.9696 189.192,32.712 z" id="boundary" inkscape:connector-curvature="0" />
	<path style="fill:none;stroke:red;stroke-width:1px;stroke-linecap:butt;stroke-linejoin:miter;stroke-opacity:1" d="M 180.579,235.132 192.064,245.181 z" id="boundary" inkscape:connector-curvature="0" />
	<path style="fill:none;stroke:red;stroke-width:1px;stroke-linecap:butt;stroke-linejoin:miter;stroke-opacity:1" d="M 183.45,391.612 196.37,384.434 z" id="boundary" inkscape:connector-curvature="0" />
	<path style="fill:none;stroke:red;stroke-width:1px;stroke-linecap:butt;stroke-linejoin:miter;stroke-opacity:1" d="M 184.886,424.631 199.242,421.76 z" id="boundary" inkscape:connector-curvature="0" />
	<path style="fill:none;stroke:red;stroke-width:1px;stroke-linecap:butt;stroke-linejoin:miter;stroke-opacity:1" d="M 189.192,32.712 203.548,32.712 z" id="boundary" inkscape:connector-curvature="0" />
	<path style="fill:none;stroke:red;stroke-width:1px;stroke-linecap:butt;stroke-linejoin:miter;stroke-opacity:1" d="M 192.064,245.181 202.113,256.666 z" id="boundary" inkscape:connector-curvature="0" />
	<path style="fill:none;stroke:red;stroke-width:1px;stroke-linecap:butt;stroke-linejoin:miter;stroke-opacity:1" d="M 196.37,384.434 204.984,367.207 z" id="boundary" inkscape:connector-curvature="0" />
	<path style="fill:none;stroke:red;stroke-width:1px;stroke-linecap:butt;stroke-linejoin:miter;stroke-opacity:1" d="M 199.242,421.76 213.598,421.76 z" id="boundary" inkscape:connector-curvature="0" />
	<path style="fill:none;stroke:red;stroke-width:1px;stroke-linecap:butt;stroke-linejoin:miter;stroke-opacity:1" d="M 202.113,256.666 212.162,268.151 z" id="boundary" inkscape:connector-curvature="0" />
	<path style="fill:none;stroke:red;stroke-width:1px;stroke-linecap:butt;stroke-linejoin:miter;stroke-opacity:1" d="M 203.548,32.712 217.904,32.712 z" id="boundary" inkscape:connector-curvature="0" />
	<path style="fill:none;stroke:red;stroke-width:1px;stroke-linecap:butt;stroke-linejoin:miter;stroke-opacity:1" d="M 204.984,367.207 212.162,345.673 z" id="boundary" inkscape:connector-curvature="0" />
	<path style="fill:none;stroke:red;stroke-width:1px;stroke-linecap:butt;stroke-linejoin:miter;stroke-opacity:1" d="M 212.162,268.151 219.34,281.071 z" id="boundary" inkscape:connector-curvature="0" />
	<path style="fill:none;stroke:red;stroke-width:1px;stroke-linecap:butt;stroke-linejoin:miter;stroke-opacity:1" d="M 212.162,331.317 212.162,345.673 z" id="boundary" inkscape:connector-curvature="0" />
	<path style="fill:none;stroke:red;stroke-width:1px;stroke-linecap:butt;stroke-linejoin:miter;stroke-opacity:1" d="M 212.162,331.317 219.34,309.783 z" id="boundary" inkscape:connector-curvature="0" />
	<path style="fill:none;stroke:red;stroke-width:1px;stroke-linecap:butt;stroke-linejoin:miter;stroke-opacity:1" d="M 213.598,421.76 227.954,407.404 z" id="boundary" inkscape:connector-curvature="0" />
	<path style="fill:none;stroke:red;stroke-width:1px;stroke-linecap:butt;stroke-linejoin:miter;stroke-opacity:1" d="M 217.904,32.712 230.825,25.534 z" id="boundary" inkscape:connector-curvature="0" />
	<path style="fill:none;stroke:red;stroke-width:1px;stroke-linecap:butt;stroke-linejoin:miter;stroke-opacity:1" d="M 219.34,281.071 219.34,295.427 z" id="boundary" inkscape:connector-curvature="0" />
	<path style="fill:none;stroke:red;stroke-width:1px;stroke-linecap:butt;stroke-linejoin:miter;stroke-opacity:1" d="M 219.34,295.427 219.34,309.783 z" id="boundary" inkscape:connector-curvature="0" />
	<path style="fill:none;stroke:red;stroke-width:1px;stroke-linecap:butt;stroke-linejoin:miter;stroke-opacity:1" d="M 227.954,407.404 239.438,397.355 z" id="boundary" inkscape:connector-curvature="0" />
	<path style="fill:none;stroke:red;stroke-width:1px;stroke-linecap:butt;stroke-linejoin:miter;stroke-opacity:1" d="M 230.825,25.534 245.181,25.534 z" id="boundary" inkscape:connector-curvature="0" />
	<path style="fill:none;stroke:red;stroke-width:1px;stroke-linecap:butt;stroke-linejoin:miter;stroke-opacity:1" d="M 239.438,397.355 249.488,385.87 z" id="boundary" inkscape:connector-curvature="0" />
	<path style="fill:none;stroke:red;stroke-width:1px;stroke-linecap:butt;stroke-linejoin:miter;stroke-opacity:1" d="M 245.181,25.534 259.537,25.534 z" id="boundary" inkscape:connector-curvature="0" />
	<path style="fill:none;stroke:red;stroke-width:1px;stroke-linecap:butt;stroke-linejoin:miter;stroke-opacity:1" d="M 249.488,385.87 256.666,371.514 z" id="boundary" inkscape:connector-curvature="0" />
	<path style="fill:none;stroke:red;stroke-width:1px;stroke-linecap:butt;stroke-linejoin:miter;stroke-opacity:1" d="M 256.666,371.514 268.151,361.465 z" id="boundary" inkscape:connector-curvature="0" />
	<path style="fill:none;stroke:red;stroke-width:1px;stroke-linecap:butt;stroke-linejoin:miter;stroke-opacity:1" d="M 259.537,25.534 273.893,25.534 z" id="boundary" inkscape:connector-curvature="0" />
	<path style="fill:none;stroke:red;stroke-width:1px;stroke-linecap:butt;stroke-linejoin:miter;stroke-opacity:1" d="M 268.151,361.465 275.329,347.109 z" id="boundary" inkscape:connector-curvature="0" />
	<path style="fill:none;stroke:red;stroke-width:1px;stroke-linecap:butt;stroke-linejoin:miter;stroke-opacity:1" d="M 273.893,25.534 288.249,25.534 z" id="boundary" inkscape:connector-curvature="0" />
	<path style="fill:none;stroke:red;stroke-width:1px;stroke-linecap:butt;stroke-linejoin:miter;stroke-opacity:1" d="M 275.329,347.109 285.378,335.624 z" id="boundary" inkscape:connector-curvature="0" />
	<path style="fill:none;stroke:red;stroke-width:1px;stroke-linecap:butt;stroke-linejoin:miter;stroke-opacity:1" d="M 285.378,335.624 299.734,335.624 z" id="boundary" inkscape:connector-curvature="0" />
	<path style="fill:none;stroke:red;stroke-width:1px;stroke-linecap:butt;stroke-linejoin:miter;stroke-opacity:1" d="M 288.249,25.534 302.605,25.534 z" id="boundary" inkscape:connector-curvature="0" />
	<path style="fill:none;stroke:red;stroke-width:1px;stroke-linecap:butt;stroke-linejoin:miter;stroke-opacity:1" d="M 299.734,335.624 312.654,342.802 z" id="boundary" inkscape:connector-curvature="0" />
	<path style="fill:none;stroke:red;stroke-width:1px;stroke-linecap:butt;stroke-linejoin:miter;stroke-opacity:1" d="M 302.605,25.534 316.961,18.356 z" id="boundary" inkscape:connector-curvature="0" />
	<path style="fill:none;stroke:red;stroke-width:1px;stroke-linecap:butt;stroke-linejoin:miter;stroke-opacity:1" d="M 312.654,342.802 325.575,349.98 z" id="boundary" inkscape:connector-curvature="0" />
	<path style="fill:none;stroke:red;stroke-width:1px;stroke-linecap:butt;stroke-linejoin:miter;stroke-opacity:1" d="M 316.961,18.356 331.317,18.356 z" id="boundary" inkscape:connector-curvature="0" />
	<path style="fill:none;stroke:red;stroke-width:1px;stroke-linecap:butt;stroke-linejoin:miter;stroke-opacity:1" d="M 321.268,292.556 324.139,306.912 z" id="boundary" inkscape:connector-curvature="0" />
	<path style="fill:none;stroke:red;stroke-width:1px;stroke-linecap:butt;stroke-linejoin:miter;stroke-opacity:1" d="M 321.268,292.556 332.753,282.507 z" id="boundary" inkscape:connector-curvature="0" />
	<path style="fill:none;stroke:red;stroke-width:1px;stroke-linecap:butt;stroke-linejoin:miter;stroke-opacity:1" d="M 324.139,306.912 338.495,312.654 z" id="boundary" inkscape:connector-curvature="0" />
	<path style="fill:none;stroke:red;stroke-width:1px;stroke-linecap:butt;stroke-linejoin:miter;stroke-opacity:1" d="M 325.575,349.98 327.01,364.336 z" id="boundary" inkscape:connector-curvature="0" />
	<path style="fill:none;stroke:red;stroke-width:1px;stroke-linecap:butt;stroke-linejoin:miter;stroke-opacity:1" d="M 327.01,364.336 335.624,375.821 z" id="boundary" inkscape:connector-curvature="0" />
	<path style="fill:none;stroke:red;stroke-width:1px;stroke-linecap:butt;stroke-linejoin:miter;stroke-opacity:1" d="M 331.317,18.356 345.673,18.356 z" id="boundary" inkscape:connector-curvature="0" />
	<path style="fill:none;stroke:red;stroke-width:1px;stroke-linecap:butt;stroke-linejoin:miter;stroke-opacity:1" d="M 332.753,282.507 347.109,278.2 z" id="boundary" inkscape:connector-curvature="0" />
	<path style="fill:none;stroke:red;stroke-width:1px;stroke-linecap:butt;stroke-linejoin:miter;stroke-opacity:1" d="M 335.624,375.821 349.98,371.514 z" id="boundary" inkscape:connector-curvature="0" />
	<path style="fill:none;stroke:red;stroke-width:1px;stroke-linecap:butt;stroke-linejoin:miter;stroke-opacity:1" d="M 338.495,312.654 348.544,324.139 z" id="boundary" inkscape:connector-curvature="0" />
	<path style="fill:none;stroke:red;stroke-width:1px;stroke-linecap:butt;stroke-linejoin:miter;stroke-opacity:1" d="M 345.673,18.356 360.029,18.356 z" id="boundary" inkscape:connector-curvature="0" />
	<path style="fill:none;stroke:red;stroke-width:1px;stroke-linecap:butt;stroke-linejoin:miter;stroke-opacity:1" d="M 347.109,278.2 361.465,278.2 z" id="boundary" inkscape:connector-curvature="0" />
	<path style="fill:none;stroke:red;stroke-width:1px;stroke-linecap:butt;stroke-linejoin:miter;stroke-opacity:1" d="M 348.544,324.139 357.158,335.624 z" id="boundary" inkscape:connector-curvature="0" />
	<path style="fill:none;stroke:red;stroke-width:1px;stroke-linecap:butt;stroke-linejoin:miter;stroke-opacity:1" d="M 357.158,335.624 357.158,349.98 z" id="boundary" inkscape:connector-curvature="0" />
	<path style="fill:none;stroke:red;stroke-width:1px;stroke-linecap:butt;stroke-linejoin:miter;stroke-opacity:1" d="M 360.029,18.356 374.385,11.178 z" id="boundary" inkscape:connector-curvature="0" />
	<path style="fill:none;stroke:red;stroke-width:1px;stroke-linecap:butt;stroke-linejoin:miter;stroke-opacity:1" d="M 361.465,278.2 375.821,278.2 z" id="boundary" inkscape:connector-curvature="0" />
	<path style="fill:none;stroke:red;stroke-width:1px;stroke-linecap:butt;stroke-linejoin:miter;stroke-opacity:1" d="M 374.385,11.178 388.741,11.178 z" id="boundary" inkscape:connector-curvature="0" />
	<path style="fill:none;stroke:red;stroke-width:1px;stroke-linecap:butt;stroke-linejoin:miter;stroke-opacity:1" d="M 375.821,278.2 390.177,275.329 z" id="boundary" inkscape:connector-curvature="0" />
	<path style="fill:none;stroke:red;stroke-width:1px;stroke-linecap:butt;stroke-linejoin:miter;stroke-opacity:1" d="M 377.256,352.851 377.256,367.207 z" id="boundary" inkscape:connector-curvature="0" />
	<path style="fill:none;stroke:red;stroke-width:1px;stroke-linecap:butt;stroke-linejoin:miter;stroke-opacity:1" d="M 377.256,352.851 391.612,345.673 z" id="boundary" inkscape:connector-curvature="0" />
	<path style="fill:none;stroke:red;stroke-width:1px;stroke-linecap:butt;stroke-linejoin:miter;stroke-opacity:1" d="M 377.256,367.207 391.612,371.514 z" id="boundary" inkscape:connector-curvature="0" />
	<path style="fill:none;stroke:red;stroke-width:1px;stroke-linecap:butt;stroke-linejoin:miter;stroke-opacity:1" d="M 388.741,11.178 403.097,4 z" id="boundary" inkscape:connector-curvature="0" />
	<path style="fill:none;stroke:red;stroke-width:1px;stroke-linecap:butt;stroke-linejoin:miter;stroke-opacity:1" d="M 390.177,275.329 404.533,271.022 z" id="boundary" inkscape:connector-curvature="0" />
	<path style="fill:none;stroke:red;stroke-width:1px;stroke-linecap:butt;stroke-linejoin:miter;stroke-opacity:1" d="M 391.612,345.673 405.968,341.366 z" id="boundary" inkscape:connector-curvature="0" />
	<path style="fill:none;stroke:red;stroke-width:1px;stroke-linecap:butt;stroke-linejoin:miter;stroke-opacity:1" d="M 391.612,371.514 404.533,378.692 z" id="boundary" inkscape:connector-curvature="0" />
	<path style="fill:none;stroke:red;stroke-width:1px;stroke-linecap:butt;stroke-linejoin:miter;stroke-opacity:1" d="M 403.097,4 417.453,4 z" id="boundary" inkscape:connector-curvature="0" />
	<path style="fill:none;stroke:red;stroke-width:1px;stroke-linecap:butt;stroke-linejoin:miter;stroke-opacity:1" d="M 404.533,271.022 418.889,271.022 z" id="boundary" inkscape:connector-curvature="0" />
	<path style="fill:none;stroke:red;stroke-width:1px;stroke-linecap:butt;stroke-linejoin:miter;stroke-opacity:1" d="M 404.533,378.692 418.889,378.692 z" id="boundary" inkscape:connector-curvature="0" />
	<path style="fill:none;stroke:red;stroke-width:1px;stroke-linecap:butt;stroke-linejoin:miter;stroke-opacity:1" d="M 405.968,341.366 420.324,338.495 z" id="boundary" inkscape:connector-curvature="0" />
	<path style="fill:none;stroke:red;stroke-width:1px;stroke-linecap:butt;stroke-linejoin:miter;stroke-opacity:1" d="M 417.453,4 431.809,4 z" id="boundary" inkscape:connector-curvature="0" />
	<path style="fill:none;stroke:red;stroke-width:1px;stroke-linecap:butt;stroke-linejoin:miter;stroke-opacity:1" d="M 418.889,271.022 433.245,271.022 z" id="boundary" inkscape:connector-curvature="0" />
	<path style="fill:none;stroke:red;stroke-width:1px;stroke-linecap:butt;stroke-linejoin:miter;stroke-opacity:1" d="M 418.889,378.692 433.245,375.821 z" id="boundary" inkscape:connector-curvature="0" />
	<path style="fill:none;stroke:red;stroke-width:1px;stroke-linecap:butt;stroke-linejoin:miter;stroke-opacity:1" d="M 420.324,338.495 431.809,327.01 z" id="boundary" inkscape:connector-curvature="0" />
	<path style="fill:none;stroke:red;stroke-width:1px;stroke-linecap:butt;stroke-linejoin:miter;stroke-opacity:1" d="M 431.809,4 446.165,4 z" id="boundary" inkscape:connector-curvature="0" />
	<path style="fill:none;stroke:red;stroke-width:1px;stroke-linecap:butt;stroke-linejoin:miter;stroke-opacity:1" d="M 431.809,327.01 446.165,319.832 z" id="boundary" inkscape:connector-curvature="0" />
	<path style="fill:none;stroke:red;stroke-width:1px;stroke-linecap:butt;stroke-linejoin:miter;stroke-opacity:1" d="M 433.245,271.022 447.601,271.022 z" id="boundary" inkscape:connector-curvature="0" />
	<path style="fill:none;stroke:red;stroke-width:1px;stroke-linecap:butt;stroke-linejoin:miter;stroke-opacity:1" d="M 433.245,375.821 447.601,368.643 z" id="boundary" inkscape:connector-curvature="0" />
	<path style="fill:none;stroke:red;stroke-width:1px;stroke-linecap:butt;stroke-linejoin:miter;stroke-opacity:1" d="M 446.165,4 460.521,4 z" id="boundary" inkscape:connector-curvature="0" />
	<path style="fill:none;stroke:red;stroke-width:1px;stroke-linecap:butt;stroke-linejoin:miter;stroke-opacity:1" d="M 446.165,319.832 457.65,308.347 z" id="boundary" inkscape:connector-curvature="0" />
	<path style="fill:none;stroke:red;stroke-width:1px;stroke-linecap:butt;stroke-linejoin:miter;stroke-opacity:1" d="M 447.601,271.022 457.65,282.507 z" id="boundary" inkscape:connector-curvature="0" />
	<path style="fill:none;stroke:red;stroke-width:1px;stroke-linecap:butt;stroke-linejoin:miter;stroke-opacity:1" d="M 447.601,368.643 461.957,361.465 z" id="boundary" inkscape:connector-curvature="0" />
	<path style="fill:none;stroke:red;stroke-width:1px;stroke-linecap:butt;stroke-linejoin:miter;stroke-opacity:1" d="M 457.65,282.507 457.65,308.347 z" id="boundary" inkscape:connector-curvature="0" />
	<path style="fill:none;stroke:red;stroke-width:1px;stroke-linecap:butt;stroke-linejoin:miter;stroke-opacity:1" d="M 460.521,4 474.877,4 z" id="boundary" inkscape:connector-curvature="0" />
	<path style="fill:none;stroke:red;stroke-width:1px;stroke-linecap:butt;stroke-linejoin:miter;stroke-opacity:1" d="M 461.957,361.465 476.313,354.287 z" id="boundary" inkscape:connector-curvature="0" />
	<path style="fill:none;stroke:red;stroke-width:1px;stroke-linecap:butt;stroke-linejoin:miter;stroke-opacity:1" d="M 474.877,4 487.797,11.178 z" id="boundary" inkscape:connector-curvature="0" />
	<path style="fill:none;stroke:red;stroke-width:1px;stroke-linecap:butt;stroke-linejoin:miter;stroke-opacity:1" d="M 476.313,354.287 486.362,342.802 z" id="boundary" inkscape:connector-curvature="0" />
	<path style="fill:none;stroke:red;stroke-width:1px;stroke-linecap:butt;stroke-linejoin:miter;stroke-opacity:1" d="M 486.362,342.802 500.718,335.624 z" id="boundary" inkscape:connector-curvature="0" />
	<path style="fill:none;stroke:red;stroke-width:1px;stroke-linecap:butt;stroke-linejoin:miter;stroke-opacity:1" d="M 487.797,11.178 502.153,11.178 z" id="boundary" inkscape:connector-curvature="0" />
	<path style="fill:none;stroke:red;stroke-width:1px;stroke-linecap:butt;stroke-linejoin:miter;stroke-opacity:1" d="M 500.718,335.624 515.074,321.268 z" id="boundary" inkscape:connector-curvature="0" />
	<path style="fill:none;stroke:red;stroke-width:1px;stroke-linecap:butt;stroke-linejoin:miter;stroke-opacity:1" d="M 502.153,11.178 516.509,11.178 z" id="boundary" inkscape:connector-curvature="0" />
	<path style="fill:none;stroke:red;stroke-width:1px;stroke-linecap:butt;stroke-linejoin:miter;stroke-opacity:1" d="M 515.074,321.268 522.252,306.912 z" id="boundary" inkscape:connector-curvature="0" />
	<path style="fill:none;stroke:red;stroke-width:1px;stroke-linecap:butt;stroke-linejoin:miter;stroke-opacity:1" d="M 516.509,11.178 529.43,18.356 z" id="boundary" inkscape:connector-curvature="0" />
	<path style="fill:none;stroke:red;stroke-width:1px;stroke-linecap:butt;stroke-linejoin:miter;stroke-opacity:1" d="M 522.252,306.912 536.608,299.734 z" id="boundary" inkscape:connector-curvature="0" />
	<path style="fill:none;stroke:red;stroke-width:1px;stroke-linecap:butt;stroke-linejoin:miter;stroke-opacity:1" d="M 529.43,18.356 543.786,18.356 z" id="boundary" inkscape:connector-curvature="0" />
	<path style="fill:none;stroke:red;stroke-width:1px;stroke-linecap:butt;stroke-linejoin:miter;stroke-opacity:1" d="M 536.608,299.734 550.964,292.556 z" id="boundary" inkscape:connector-curvature="0" />
	<path style="fill:none;stroke:red;stroke-width:1px;stroke-linecap:butt;stroke-linejoin:miter;stroke-opacity:1" d="M 543.786,18.356 558.142,22.6628 z" id="boundary" inkscape:connector-curvature="0" />
	<path style="fill:none;stroke:red;stroke-width:1px;stroke-linecap:butt;stroke-linejoin:miter;stroke-opacity:1" d="M 550.964,292.556 565.32,285.378 z" id="boundary" inkscape:connector-curvature="0" />
	<path style="fill:none;stroke:red;stroke-width:1px;stroke-linecap:butt;stroke-linejoin:miter;stroke-opacity:1" d="M 558.142,22.6628 572.498,25.534 z" id="boundary" inkscape:connector-curvature="0" />
	<path style="fill:none;stroke:red;stroke-width:1px;stroke-linecap:butt;stroke-linejoin:miter;stroke-opacity:1" d="M 565.32,285.378 579.676,278.2 z" id="boundary" inkscape:connector-curvature="0" />
	<path style="fill:none;stroke:red;stroke-width:1px;stroke-linecap:butt;stroke-linejoin:miter;stroke-opacity:1" d="M 572.498,25.534 585.418,32.712 z" id="boundary" inkscape:connector-curvature="0" />
	<path style="fill:none;stroke:red;stroke-width:1px;stroke-linecap:butt;stroke-linejoin:miter;stroke-opacity:1" d="M 579.676,278.2 594.032,278.2 z" id="boundary" inkscape:connector-curvature="0" />
	<path style="fill:none;stroke:red;stroke-width:1px;stroke-linecap:butt;stroke-linejoin:miter;stroke-opacity:1" d="M 585.418,32.712 599.774,35.5832 z" id="boundary" inkscape:connector-curvature="0" />
	<path style="fill:none;stroke:red;stroke-width:1px;stroke-linecap:butt;stroke-linejoin:miter;stroke-opacity:1" d="M 594.032,278.2 606.952,285.378 z" id="boundary" inkscape:connector-curvature="0" />
	<path style="fill:none;stroke:red;stroke-width:1px;stroke-linecap:butt;stroke-linejoin:miter;stroke-opacity:1" d="M 599.774,35.5832 614.13,39.89 z" id="boundary" inkscape:connector-curvature="0" />
	<path style="fill:none;stroke:red;stroke-width:1px;stroke-linecap:butt;stroke-linejoin:miter;stroke-opacity:1" d="M 606.952,285.378 619.873,292.556 z" id="boundary" inkscape:connector-curvature="0" />
	<path style="fill:none;stroke:red;stroke-width:1px;stroke-linecap:butt;stroke-linejoin:miter;stroke-opacity:1" d="M 614.13,39.89 627.051,47.068 z" id="boundary" inkscape:connector-curvature="0" />
	<path style="fill:none;stroke:red;stroke-width:1px;stroke-linecap:butt;stroke-linejoin:miter;stroke-opacity:1" d="M 619.873,292.556 634.229,292.556 z" id="boundary" inkscape:connector-curvature="0" />
	<path style="fill:none;stroke:red;stroke-width:1px;stroke-linecap:butt;stroke-linejoin:miter;stroke-opacity:1" d="M 627.051,47.068 639.971,54.246 z" id="boundary" inkscape:connector-curvature="0" />
	<path style="fill:none;stroke:red;stroke-width:1px;stroke-linecap:butt;stroke-linejoin:miter;stroke-opacity:1" d="M 634.229,292.556 647.149,299.734 z" id="boundary" inkscape:connector-curvature="0" />
	<path style="fill:none;stroke:red;stroke-width:1px;stroke-linecap:butt;stroke-linejoin:miter;stroke-opacity:1" d="M 639.971,54.246 652.891,61.424 z" id="boundary" inkscape:connector-curvature="0" />
	<path style="fill:none;stroke:red;stroke-width:1px;stroke-linecap:butt;stroke-linejoin:miter;stroke-opacity:1" d="M 642.842,374.385 642.842,388.741 z" id="boundary" inkscape:connector-curvature="0" />
	<path style="fill:none;stroke:red;stroke-width:1px;stroke-linecap:butt;stroke-linejoin:miter;stroke-opacity:1" d="M 642.842,374.385 657.198,367.207 z" id="boundary" inkscape:connector-curvature="0" />
	<path style="fill:none;stroke:red;stroke-width:1px;stroke-linecap:butt;stroke-linejoin:miter;stroke-opacity:1" d="M 642.842,388.741 657.198,393.048 z" id="boundary" inkscape:connector-curvature="0" />
	<path style="fill:none;stroke:red;stroke-width:1px;stroke-linecap:butt;stroke-linejoin:miter;stroke-opacity:1" d="M 647.149,299.734 660.069,306.912 z" id="boundary" inkscape:connector-curvature="0" />
	<path style="fill:none;stroke:red;stroke-width:1px;stroke-linecap:butt;stroke-linejoin:miter;stroke-opacity:1" d="M 652.891,61.424 664.376,71.4732 z" id="boundary" inkscape:connector-curvature="0" />
	<path style="fill:none;stroke:red;stroke-width:1px;stroke-linecap:butt;stroke-linejoin:miter;stroke-opacity:1" d="M 657.198,367.207 668.683,355.722 z" id="boundary" inkscape:connector-curvature="0" />
	<path style="fill:none;stroke:red;stroke-width:1px;stroke-linecap:butt;stroke-linejoin:miter;stroke-opacity:1" d="M 657.198,393.048 670.119,400.226 z" id="boundary" inkscape:connector-curvature="0" />
	<path style="fill:none;stroke:red;stroke-width:1px;stroke-linecap:butt;stroke-linejoin:miter;stroke-opacity:1" d="M 660.069,306.912 674.425,311.219 z" id="boundary" inkscape:connector-curvature="0" />
	<path style="fill:none;stroke:red;stroke-width:1px;stroke-linecap:butt;stroke-linejoin:miter;stroke-opacity:1" d="M 664.376,71.4732 677.297,78.6512 z" id="boundary" inkscape:connector-curvature="0" />
	<path style="fill:none;stroke:red;stroke-width:1px;stroke-linecap:butt;stroke-linejoin:miter;stroke-opacity:1" d="M 668.683,355.722 678.732,339.931 z" id="boundary" inkscape:connector-curvature="0" />
	<path style="fill:none;stroke:red;stroke-width:1px;stroke-linecap:butt;stroke-linejoin:miter;stroke-opacity:1" d="M 670.119,400.226 684.475,400.226 z" id="boundary" inkscape:connector-curvature="0" />
	<path style="fill:none;stroke:red;stroke-width:1px;stroke-linecap:butt;stroke-linejoin:miter;stroke-opacity:1" d="M 674.425,311.219 678.732,325.575 z" id="boundary" inkscape:connector-curvature="0" />
	<path style="fill:none;stroke:red;stroke-width:1px;stroke-linecap:butt;stroke-linejoin:miter;stroke-opacity:1" d="M 677.297,78.6512 691.653,84.3936 z" id="boundary" inkscape:connector-curvature="0" />
	<path style="fill:none;stroke:red;stroke-width:1px;stroke-linecap:butt;stroke-linejoin:miter;stroke-opacity:1" d="M 678.732,325.575 678.732,339.931 z" id="boundary" inkscape:connector-curvature="0" />
	<path style="fill:none;stroke:red;stroke-width:1px;stroke-linecap:butt;stroke-linejoin:miter;stroke-opacity:1" d="M 684.475,400.226 697.395,391.612 z" id="boundary" inkscape:connector-curvature="0" />
	<path style="fill:none;stroke:red;stroke-width:1px;stroke-linecap:butt;stroke-linejoin:miter;stroke-opacity:1" d="M 691.653,84.3936 704.573,91.5716 z" id="boundary" inkscape:connector-curvature="0" />
	<path style="fill:none;stroke:red;stroke-width:1px;stroke-linecap:butt;stroke-linejoin:miter;stroke-opacity:1" d="M 697.395,391.612 708.88,371.514 z" id="boundary" inkscape:connector-curvature="0" />
	<path style="fill:none;stroke:red;stroke-width:1px;stroke-linecap:butt;stroke-linejoin:miter;stroke-opacity:1" d="M 704.573,91.5716 718.929,97.314 z" id="boundary" inkscape:connector-curvature="0" />
	<path style="fill:none;stroke:red;stroke-width:1px;stroke-linecap:butt;stroke-linejoin:miter;stroke-opacity:1" d="M 708.88,177.708 708.88,192.064 z" id="boundary" inkscape:connector-curvature="0" />
	<path style="fill:none;stroke:red;stroke-width:1px;stroke-linecap:butt;stroke-linejoin:miter;stroke-opacity:1" d="M 708.88,177.708 721.8,170.53 z" id="boundary" inkscape:connector-curvature="0" />
	<path style="fill:none;stroke:red;stroke-width:1px;stroke-linecap:butt;stroke-linejoin:miter;stroke-opacity:1" d="M 708.88,192.064 708.88,206.42 z" id="boundary" inkscape:connector-curvature="0" />
	<path style="fill:none;stroke:red;stroke-width:1px;stroke-linecap:butt;stroke-linejoin:miter;stroke-opacity:1" d="M 708.88,206.42 711.751,220.776 z" id="boundary" inkscape:connector-curvature="0" />
	<path style="fill:none;stroke:red;stroke-width:1px;stroke-linecap:butt;stroke-linejoin:miter;stroke-opacity:1" d="M 708.88,371.514 716.058,349.98 z" id="boundary" inkscape:connector-curvature="0" />
	<path style="fill:none;stroke:red;stroke-width:1px;stroke-linecap:butt;stroke-linejoin:miter;stroke-opacity:1" d="M 711.751,220.776 716.058,235.132 z" id="boundary" inkscape:connector-curvature="0" />
	<path style="fill:none;stroke:red;stroke-width:1px;stroke-linecap:butt;stroke-linejoin:miter;stroke-opacity:1" d="M 716.058,235.132 718.929,249.488 z" id="boundary" inkscape:connector-curvature="0" />
	<path style="fill:none;stroke:red;stroke-width:1px;stroke-linecap:butt;stroke-linejoin:miter;stroke-opacity:1" d="M 716.058,349.98 723.236,335.624 z" id="boundary" inkscape:connector-curvature="0" />
	<path style="fill:none;stroke:red;stroke-width:1px;stroke-linecap:butt;stroke-linejoin:miter;stroke-opacity:1" d="M 718.929,97.314 731.849,104.492 z" id="boundary" inkscape:connector-curvature="0" />
	<path style="fill:none;stroke:red;stroke-width:1px;stroke-linecap:butt;stroke-linejoin:miter;stroke-opacity:1" d="M 718.929,249.488 730.414,259.537 z" id="boundary" inkscape:connector-curvature="0" />
	<path style="fill:none;stroke:red;stroke-width:1px;stroke-linecap:butt;stroke-linejoin:miter;stroke-opacity:1" d="M 721.8,170.53 736.156,170.53 z" id="boundary" inkscape:connector-curvature="0" />
	<path style="fill:none;stroke:red;stroke-width:1px;stroke-linecap:butt;stroke-linejoin:miter;stroke-opacity:1" d="M 723.236,335.624 730.414,316.961 z" id="boundary" inkscape:connector-curvature="0" />
	<path style="fill:none;stroke:red;stroke-width:1px;stroke-linecap:butt;stroke-linejoin:miter;stroke-opacity:1" d="M 730.414,259.537 730.414,273.893 z" id="boundary" inkscape:connector-curvature="0" />
	<path style="fill:none;stroke:red;stroke-width:1px;stroke-linecap:butt;stroke-linejoin:miter;stroke-opacity:1" d="M 730.414,273.893 730.414,288.249 z" id="boundary" inkscape:connector-curvature="0" />
	<path style="fill:none;stroke:red;stroke-width:1px;stroke-linecap:butt;stroke-linejoin:miter;stroke-opacity:1" d="M 730.414,288.249 730.414,302.605 z" id="boundary" inkscape:connector-curvature="0" />
	<path style="fill:none;stroke:red;stroke-width:1px;stroke-linecap:butt;stroke-linejoin:miter;stroke-opacity:1" d="M 730.414,302.605 730.414,316.961 z" id="boundary" inkscape:connector-curvature="0" />
	<path style="fill:none;stroke:red;stroke-width:1px;stroke-linecap:butt;stroke-linejoin:miter;stroke-opacity:1" d="M 731.849,104.492 746.205,104.492 z" id="boundary" inkscape:connector-curvature="0" />
	<path style="fill:none;stroke:red;stroke-width:1px;stroke-linecap:butt;stroke-linejoin:miter;stroke-opacity:1" d="M 736.156,170.53 749.077,177.708 z" id="boundary" inkscape:connector-curvature="0" />
	<path style="fill:none;stroke:red;stroke-width:1px;stroke-linecap:butt;stroke-linejoin:miter;stroke-opacity:1" d="M 746.205,104.492 759.126,111.67 z" id="boundary" inkscape:connector-curvature="0" />
	<path style="fill:none;stroke:red;stroke-width:1px;stroke-linecap:butt;stroke-linejoin:miter;stroke-opacity:1" d="M 749.077,177.708 763.433,177.708 z" id="boundary" inkscape:connector-curvature="0" />
	<path style="fill:none;stroke:red;stroke-width:1px;stroke-linecap:butt;stroke-linejoin:miter;stroke-opacity:1" d="M 759.126,111.67 773.482,115.977 z" id="boundary" inkscape:connector-curvature="0" />
	<path style="fill:none;stroke:red;stroke-width:1px;stroke-linecap:butt;stroke-linejoin:miter;stroke-opacity:1" d="M 763.433,177.708 776.353,170.53 z" id="boundary" inkscape:connector-curvature="0" />
	<path style="fill:none;stroke:red;stroke-width:1px;stroke-linecap:butt;stroke-linejoin:miter;stroke-opacity:1" d="M 773.482,115.977 787.838,111.67 z" id="boundary" inkscape:connector-curvature="0" />
	<path style="fill:none;stroke:red;stroke-width:1px;stroke-linecap:butt;stroke-linejoin:miter;stroke-opacity:1" d="M 776.353,170.53 790.709,170.53 z" id="boundary" inkscape:connector-curvature="0" />
	<path style="fill:none;stroke:red;stroke-width:1px;stroke-linecap:butt;stroke-linejoin:miter;stroke-opacity:1" d="M 787.838,111.67 802.194,111.67 z" id="boundary" inkscape:connector-curvature="0" />
	<path style="fill:none;stroke:red;stroke-width:1px;stroke-linecap:butt;stroke-linejoin:miter;stroke-opacity:1" d="M 790.709,170.53 805.065,170.53 z" id="boundary" inkscape:connector-curvature="0" />
	<path style="fill:none;stroke:red;stroke-width:1px;stroke-linecap:butt;stroke-linejoin:miter;stroke-opacity:1" d="M 802.194,111.67 816.55,111.67 z" id="boundary" inkscape:connector-curvature="0" />
	<path style="fill:none;stroke:red;stroke-width:1px;stroke-linecap:butt;stroke-linejoin:miter;stroke-opacity:1" d="M 805.065,170.53 819.421,170.53 z" id="boundary" inkscape:connector-curvature="0" />
	<path style="fill:none;stroke:red;stroke-width:1px;stroke-linecap:butt;stroke-linejoin:miter;stroke-opacity:1" d="M 816.55,111.67 830.906,111.67 z" id="boundary" inkscape:connector-curvature="0" />
	<path style="fill:none;stroke:red;stroke-width:1px;stroke-linecap:butt;stroke-linejoin:miter;stroke-opacity:1" d="M 819.421,170.53 832.342,163.352 z" id="boundary" inkscape:connector-curvature="0" />
	<path style="fill:none;stroke:red;stroke-width:1px;stroke-linecap:butt;stroke-linejoin:miter;stroke-opacity:1" d="M 830.906,111.67 845.262,111.67 z" id="boundary" inkscape:connector-curvature="0" />
	<path style="fill:none;stroke:red;stroke-width:1px;stroke-linecap:butt;stroke-linejoin:miter;stroke-opacity:1" d="M 832.342,163.352 846.698,163.352 z" id="boundary" inkscape:connector-curvature="0" />
	<path style="fill:none;stroke:red;stroke-width:1px;stroke-linecap:butt;stroke-linejoin:miter;stroke-opacity:1" d="M 845.262,111.67 859.618,111.67 z" id="boundary" inkscape:connector-curvature="0" />
	<path style="fill:none;stroke:red;stroke-width:1px;stroke-linecap:butt;stroke-linejoin:miter;stroke-opacity:1" d="M 846.698,163.352 859.618,156.174 z" id="boundary" inkscape:connector-curvature="0" />
	<path style="fill:none;stroke:red;stroke-width:1px;stroke-linecap:butt;stroke-linejoin:miter;stroke-opacity:1" d="M 859.618,111.67 872.538,104.492 z" id="boundary" inkscape:connector-curvature="0" />
	<path style="fill:none;stroke:red;stroke-width:1px;stroke-linecap:butt;stroke-linejoin:miter;stroke-opacity:1" d="M 859.618,156.174 873.974,156.174 z" id="boundary" inkscape:connector-curvature="0" />
	<path style="fill:none;stroke:red;stroke-width:1px;stroke-linecap:butt;stroke-linejoin:miter;stroke-opacity:1" d="M 872.538,104.492 886.894,104.492 z" id="boundary" inkscape:connector-curvature="0" />
	<path style="fill:none;stroke:red;stroke-width:1px;stroke-linecap:butt;stroke-linejoin:miter;stroke-opacity:1" d="M 873.974,156.174 888.33,156.174 z" id="boundary" inkscape:connector-curvature="0" />
	<path style="fill:none;stroke:red;stroke-width:1px;stroke-linecap:butt;stroke-linejoin:miter;stroke-opacity:1" d="M 886.894,104.492 901.25,104.492 z" id="boundary" inkscape:connector-curvature="0" />
	<path style="fill:none;stroke:red;stroke-width:1px;stroke-linecap:butt;stroke-linejoin:miter;stroke-opacity:1" d="M 888.33,156.174 902.686,156.174 z" id="boundary" inkscape:connector-curvature="0" />
	<path style="fill:none;stroke:red;stroke-width:1px;stroke-linecap:butt;stroke-linejoin:miter;stroke-opacity:1" d="M 901.25,104.492 915.606,104.492 z" id="boundary" inkscape:connector-curvature="0" />
	<path style="fill:none;stroke:red;stroke-width:1px;stroke-linecap:butt;stroke-linejoin:miter;stroke-opacity:1" d="M 902.686,156.174 917.042,156.174 z" id="boundary" inkscape:connector-curvature="0" />
	<path style="fill:none;stroke:red;stroke-width:1px;stroke-linecap:butt;stroke-linejoin:miter;stroke-opacity:1" d="M 915.606,104.492 929.962,104.492 z" id="boundary" inkscape:connector-curvature="0" />
	<path style="fill:none;stroke:red;stroke-width:1px;stroke-linecap:butt;stroke-linejoin:miter;stroke-opacity:1" d="M 917.042,156.174 931.398,156.174 z" id="boundary" inkscape:connector-curvature="0" />
	<path style="fill:none;stroke:red;stroke-width:1px;stroke-linecap:butt;stroke-linejoin:miter;stroke-opacity:1" d="M 929.962,104.492 942.883,111.67 z" id="boundary" inkscape:connector-curvature="0" />
	<path style="fill:none;stroke:red;stroke-width:1px;stroke-linecap:butt;stroke-linejoin:miter;stroke-opacity:1" d="M 931.398,156.174 944.318,163.352 z" id="boundary" inkscape:connector-curvature="0" />
	<path style="fill:none;stroke:red;stroke-width:1px;stroke-linecap:butt;stroke-linejoin:miter;stroke-opacity:1" d="M 942.883,111.67 955.803,118.848 z" id="boundary" inkscape:connector-curvature="0" />
	<path style="fill:none;stroke:red;stroke-width:1px;stroke-linecap:butt;stroke-linejoin:miter;stroke-opacity:1" d="M 944.318,163.352 957.239,170.53 z" id="boundary" inkscape:connector-curvature="0" />
	<path style="fill:none;stroke:red;stroke-width:1px;stroke-linecap:butt;stroke-linejoin:miter;stroke-opacity:1" d="M 955.803,118.848 968.724,126.026 z" id="boundary" inkscape:connector-curvature="0" />
	<path style="fill:none;stroke:red;stroke-width:1px;stroke-linecap:butt;stroke-linejoin:miter;stroke-opacity:1" d="M 957.239,170.53 970.159,177.708 z" id="boundary" inkscape:connector-curvature="0" />
	<path style="fill:none;stroke:red;stroke-width:1px;stroke-linecap:butt;stroke-linejoin:miter;stroke-opacity:1" d="M 968.724,126.026 980.208,136.075 z" id="boundary" inkscape:connector-curvature="0" />
	<path style="fill:none;stroke:red;stroke-width:1px;stroke-linecap:butt;stroke-linejoin:miter;stroke-opacity:1" d="M 970.159,177.708 984.515,183.45 z" id="boundary" inkscape:connector-curvature="0" />
	<path style="fill:none;stroke:red;stroke-width:1px;stroke-linecap:butt;stroke-linejoin:miter;stroke-opacity:1" d="M 980.208,136.075 988.822,147.56 z" id="boundary" inkscape:connector-curvature="0" />
	<path style="fill:none;stroke:red;stroke-width:1px;stroke-linecap:butt;stroke-linejoin:miter;stroke-opacity:1" d="M 984.515,183.45 996,174.836 z" id="boundary" inkscape:connector-curvature="0" />
	<path style="fill:none;stroke:red;stroke-width:1px;stroke-linecap:butt;stroke-linejoin:miter;stroke-opacity:1" d="M 988.822,147.56 996,160.48 z" id="boundary" inkscape:connector-curvature="0" />
	<path style="fill:none;stroke:red;stroke-width:1px;stroke-linecap:butt;stroke-linejoin:miter;stroke-opacity:1" d="M 996,160.48 996,174.836 z" id="boundary" inkscape:connector-curvature="0" />
	<circle cx="4" cy="72.9088" r="4" fill="#0" id="circle0"/>
	<circle cx="4" cy="87.2648" r="4" fill="#0" id="circle1"/>
	<circle cx="4" cy="101.621" r="4" fill="#0" id="circle2"/>
	<circle cx="4" cy="115.977" r="4" fill="#0" id="circle3"/>
	<circle cx="11.178" cy="128.897" r="4" fill="#0" id="circle4"/>
	<circle cx="11.178" cy="143.253" r="4" fill="#0" id="circle5"/>
	<circle cx="15.4848" cy="61.424" r="4" fill="#0" id="circle6"/>
	<circle cx="21.2272" cy="154.738" r="4" fill="#0" id="circle7"/>
	<circle cx="22.6628" cy="47.068" r="4" fill="#0" id="circle8"/>
	<circle cx="32.712" cy="8.3068" r="4" fill="#0" id="circle9"/>
	<circle cx="32.712" cy="22.6628" r="4" fill="#0" id="circle10"/>
	<circle cx="32.712" cy="163.352" r="4" fill="#0" id="circle11"/>
	<circle cx="45.6324" cy="170.53" r="4" fill="#0" id="circle12"/>
	<circle cx="47.068" cy="4" r="4" fill="#0" id="circle13"/>
	<circle cx="59.9884" cy="170.53" r="4" fill="#0" id="circle14"/>
	<circle cx="61.424" cy="6.8712" r="4" fill="#0" id="circle15"/>
	<circle cx="74.3444" cy="170.53" r="4" fill="#0" id="circle16"/>
	<circle cx="75.78" cy="11.178" r="4" fill="#0" id="circle17"/>
	<circle cx="88.7004" cy="170.53" r="4" fill="#0" id="circle18"/>
	<circle cx="90.136" cy="11.178" r="4" fill="#0" id="circle19"/>
	<circle cx="103.056" cy="18.356" r="4" fill="#0" id="circle20"/>
	<circle cx="103.056" cy="170.53" r="4" fill="#0" id="circle21"/>
	<circle cx="115.977" cy="177.708" r="4" fill="#0" id="circle22"/>
	<circle cx="117.412" cy="18.356" r="4" fill="#0" id="circle23"/>
	<circle cx="128.897" cy="184.886" r="4" fill="#0" id="circle24"/>
	<circle cx="131.768" cy="18.356" r="4" fill="#0" id="circle25"/>
	<circle cx="140.382" cy="193.499" r="4" fill="#0" id="circle26"/>
	<circle cx="146.124" cy="19.7916" r="4" fill="#0" id="circle27"/>
	<circle cx="147.56" cy="206.42" r="4" fill="#0" id="circle28"/>
	<circle cx="156.174" cy="217.904" r="4" fill="#0" id="circle29"/>
	<circle cx="160.48" cy="25.534" r="4" fill="#0" id="circle30"/>
	<circle cx="161.916" cy="410.275" r="4" fill="#0" id="circle31"/>
	<circle cx="169.094" cy="395.919" r="4" fill="#0" id="circle32"/>
	<circle cx="170.53" cy="223.647" r="4" fill="#0" id="circle33"/>
	<circle cx="170.53" cy="421.76" r="4" fill="#0" id="circle34"/>
	<circle cx="174.836" cy="26.9696" r="4" fill="#0" id="circle35"/>
	<circle cx="180.579" cy="235.132" r="4" fill="#0" id="circle36"/>
	<circle cx="183.45" cy="391.612" r="4" fill="#0" id="circle37"/>
	<circle cx="184.886" cy="424.631" r="4" fill="#0" id="circle38"/>
	<circle cx="189.192" cy="32.712" r="4" fill="#0" id="circle39"/>
	<circle cx="192.064" cy="245.181" r="4" fill="#0" id="circle40"/>
	<circle cx="196.37" cy="384.434" r="4" fill="#0" id="circle41"/>
	<circle cx="199.242" cy="421.76" r="4" fill="#0" id="circle42"/>
	<circle cx="202.113" cy="256.666" r="4" fill="#0" id="circle43"/>
	<circle cx="203.548" cy="32.712" r="4" fill="#0" id="circle44"/>
	<circle cx="204.984" cy="367.207" r="4" fill="#0" id="circle45"/>
	<circle cx="212.162" cy="268.151" r="4" fill="#0" id="circle46"/>
	<circle cx="212.162" cy="331.317" r="4" fill="#0" id="circle47"/>
	<circle cx="212.162" cy="345.673" r="4" fill="#0" id="circle48"/>
	<circle cx="213.598" cy="421.76" r="4" fill="#0" id="circle49"/>
	<circle cx="217.904" cy="32.712" r="4" fill="#0" id="circle50"/>
	<circle cx="219.34" cy="281.071" r="4" fill="#0" id="circle51"/>
	<circle cx="219.34" cy="295.427" r="4" fill="#0" id="circle52"/>
	<circle cx="219.34" cy="309.783" r="4" fill="#0" id="circle53"/>
	<circle cx="227.954" cy="407.404" r="4" fill="#0" id="circle54"/>
	<circle cx="230.825" cy="25.534" r="4" fill="#0" id="circle55"/>
	<circle cx="239.438" cy="397.355" r="4" fill="#0" id="circle56"/>
	<circle cx="245.181" cy="25.534" r="4" fill="#0" id="circle57"/>
	<circle cx="249.488" cy="385.87" r="4" fill="#0" id="circle58"/>
	<circle cx="256.666" cy="371.514" r="4" fill="#0" id="circle59"/>
	<circle cx="259.537" cy="25.534" r="4" fill="#0" id="circle60"/>
	<circle cx="268.151" cy="361.465" r="4" fill="#0" id="circle61"/>
	<circle cx="273.893" cy="25.534" r="4" fill="#0" id="circle62"/>
	<circle cx="275.329" cy="347.109" r="4" fill="#0" id="circle63"/>
	<circle cx="285.378" cy="335.624" r="4" fill="#0" id="circle64"/>
	<circle cx="288.249" cy="25.534" r="4" fill="#0" id="circle65"/>
	<circle cx="299.734" cy="335.624" r="4" fill="#0" id="circle66"/>
	<circle cx="302.605" cy="25.534" r="4" fill="#0" id="circle67"/>
	<circle cx="312.654" cy="342.802" r="4" fill="#0" id="circle68"/>
	<circle cx="316.961" cy="18.356" r="4" fill="#0" id="circle69"/>
	<circle cx="321.268" cy="292.556" r="4" fill="#0" id="circle70"/>
	<circle cx="324.139" cy="306.912" r="4" fill="#0" id="circle71"/>
	<circle cx="325.575" cy="349.98" r="4" fill="#0" id="circle72"/>
	<circle cx="327.01" cy="364.336" r="4" fill="#0" id="circle73"/>
	<circle cx="331.317" cy="18.356" r="4" fill="#0" id="circle74"/>
	<circle cx="332.753" cy="282.507" r="4" fill="#0" id="circle75"/>
	<circle cx="335.624" cy="375.821" r="4" fill="#0" id="circle76"/>
	<circle cx="338.495" cy="312.654" r="4" fill="#0" id="circle77"/>
	<circle cx="345.673" cy="18.356" r="4" fill="#0" id="circle78"/>
	<circle cx="347.109" cy="278.2" r="4" fill="#0" id="circle79"/>
	<circle cx="348.544" cy="324.139" r="4" fill="#0" id="circle80"/>
	<circle cx="349.98" cy="371.514" r="4" fill="#0" id="circle81"/>
	<circle cx="357.158" cy="335.624" r="4" fill="#0" id="circle82"/>
	<circle cx="357.158" cy="349.98" r="4" fill="#0" id="circle83"/>
	<circle cx="360.029" cy="18.356" r="4" fill="#0" id="circle84"/>
	<circle cx="361.465" cy="278.2" r="4" fill="#0" id="circle85"/>
	<circle cx="374.385" cy="11.178" r="4" fill="#0" id="circle86"/>
	<circle cx="375.821" cy="278.2" r="4" fill="#0" id="circle87"/>
	<circle cx="377.256" cy="352.851" r="4" fill="#0" id="circle88"/>
	<circle cx="377.256" cy="367.207" r="4" fill="#0" id="circle89"/>
	<circle cx="388.741" cy="11.178" r="4" fill="#0" id="circle90"/>
	<circle cx="390.177" cy="275.329" r="4" fill="#0" id="circle91"/>
	<circle cx="391.612" cy="345.673" r="4" fill="#0" id="circle92"/>
	<circle cx="391.612" cy="371.514" r="4" fill="#0" id="circle93"/>
	<circle cx="403.097" cy="4" r="4" fill="#0" id="circle94"/>
	<circle cx="404.533" cy="271.022" r="4" fill="#0" id="circle95"/>
	<circle cx="404.533" cy="378.692" r="4" fill="#0" id="circle96"/>
	<circle cx="405.968" cy="341.366" r="4" fill="#0" id="circle97"/>
	<circle cx="417.453" cy="4" r="4" fill="#0" id="circle98"/>
	<circle cx="418.889" cy="271.022" r="4" fill="#0" id="circle99"/>
	<circle cx="418.889" cy="378.692" r="4" fill="#0" id="circle100"/>
	<circle cx="420.324" cy="338.495" r="4" fill="#0" id="circle101"/>
	<circle cx="431.809" cy="4" r="4" fill="#0" id="circle102"/>
	<circle cx="431.809" cy="327.01" r="4" fill="#0" id="circle103"/>
	<circle cx="433.245" cy="271.022" r="4" fill="#0" id="circle104"/>
	<circle cx="433.245" cy="375.821" r="4" fill="#0" id="circle105"/>
	<circle cx="446.165" cy="4" r="4" fill="#0" id="circle106"/>
	<circle cx="446.165" cy="319.832" r="4" fill="#0" id="circle107"/>
	<circle cx="447.601" cy="271.022" r="4" fill="#0" id="circle108"/>
	<circle cx="447.601" cy="368.643" r="4" fill="#0" id="circle109"/>
	<circle cx="457.65" cy="282.507" r="4" fill="#0" id="circle110"/>
	<circle cx="457.65" cy="308.347" r="4" fill="#0" id="circle111"/>
	<circle cx="460.521" cy="4" r="4" fill="#0" id="circle112"/>
	<circle cx="461.957" cy="361.465" r="4" fill="#0" id="circle113"/>
	<circle cx="474.877" cy="4" r="4" fill="#0" id="circle114"/>
	<circle cx="476.313" cy="354.287" r="4" fill="#0" id="circle115"/>
	<circle cx="486.362" cy="342.802" r="4" fill="#0" id="circle116"/>
	<circle cx="487.797" cy="11.178" r="4" fill="#0" id="circle117"/>
	<circle cx="500.718" cy="335.624" r="4" fill="#0" id="circle118"/>
	<circle cx="502.153" cy="11.178" r="4" fill="#0" id="circle119"/>
	<circle cx="515.074" cy="321.268" r="4" fill="#0" id="circle120"/>
	<circle cx="516.509" cy="11.178" r="4" fill="#0" id="circle121"/>
	<circle cx="522.252" cy="306.912" r="4" fill="#0" id="circle122"/>
	<circle cx="529.43" cy="18.356" r="4" fill="#0" id="circle123"/>
	<circle cx="536.608" cy="299.734" r="4" fill="#0" id="circle124"/>
	<circle cx="543.786" cy="18.356" r="4" fill="#0" id="circle125"/>
	<circle cx="550.964" cy="292.556" r="4" fill="#0" id="circle126"/>
	<circle cx="558.142" cy="22.6628" r="4" fill="#0" id="circle127"/>
	<circle cx="565.32" cy="285.378" r="4" fill="#0" id="circle128"/>
	<circle cx="572.498" cy="25.534" r="4" fill="#0" id="circle129"/>
	<circle cx="579.676" cy="278.2" r="4" fill="#0" id="circle130"/>
	<circle cx="585.418" cy="32.712" r="4" fill="#0" id="circle131"/>
	<circle cx="594.032" cy="278.2" r="4" fill="#0" id="circle132"/>
	<circle cx="599.774" cy="35.5832" r="4" fill="#0" id="circle133"/>
	<circle cx="606.952" cy="285.378" r="4" fill="#0" id="circle134"/>
	<circle cx="614.13" cy="39.89" r="4" fill="#0" id="circle135"/>
	<circle cx="619.873" cy="292.556" r="4" fill="#0" id="circle136"/>
	<circle cx="627.051" cy="47.068" r="4" fill="#0" id="circle137"/>
	<circle cx="634.229" cy="292.556" r="4" fill="#0" id="circle138"/>
	<circle cx="639.971" cy="54.246" r="4" fill="#0" id="circle139"/>
	<circle cx="642.842" cy="374.385" r="4" fill="#0" id="circle140"/>
	<circle cx="642.842" cy="388.741" r="4" fill="#0" id="circle141"/>
	<circle cx="647.149" cy="299.734" r="4" fill="#0" id="circle142"/>
	<circle cx="652.891" cy="61.424" r="4" fill="#0" id="circle143"/>
	<circle cx="657.198" cy="367.207" r="4" fill="#0" id="circle144"/>
	<circle cx="657.198" cy="393.048" r="4" fill="#0" id="circle145"/>
	<circle cx="660.069" cy="306.912" r="4" fill="#0" id="circle146"/>
	<circle cx="664.376" cy="71.4732" r="4" fill="#0" id="circle147"/>
	<circle cx="668.683" cy="355.722" r="4" fill="#0" id="circle148"/>
	<circle cx="670.119" cy="400.226" r="4" fill="#0" id="circle149"/>
	<circle cx="674.425" cy="311.219" r="4" fill="#0" id="circle150"/>
	<circle cx="677.297" cy="78.6512" r="4" fill="#0" id="circle151"/>
	<circle cx="678.732" cy="325.575" r="4" fill="#0" id="circle152"/>
	<circle cx="678.732" cy="339.931" r="4" fill="#0" id="circle153"/>
	<circle cx="684.475" cy="400.226" r="4" fill="#0" id="circle154"/>
	<circle cx="691.653" cy="84.3936" r="4" fill="#0" id="circle155"/>
	<circle cx="697.395" cy="391.612" r="4" fill="#0" id="circle156"/>
	<circle cx="704.573" cy="91.5716" r="4" fill="#0" id="circle157"/>
	<circle cx="708.88" cy="177.708" r="4" fill="#0" id="circle158"/>
	<circle cx="708.88" cy="192.064" r="4" fill="#0" id="circle159"/>
	<circle cx="708.88" cy="206.42" r="4" fill="#0" id="circle160"/>
	<circle cx="708.88" cy="371.514" r="4" fill="#0" id="circle161"/>
	<circle cx="711.751" cy="220.776" r="4" fill="#0" id="circle162"/>
	<circle cx="716.058" cy="235.132" r="4" fill="#0" id="circle163"/>
	<circle cx="716.058" cy="349.98" r="4" fill="#0" id="circle164"/>
	<circle cx="718.929" cy="97.314" r="4" fill="#0" id="circle165"/>
	<circle cx="718.929" cy="249.488" r="4" fill="#0" id="circle166"/>
	<circle cx="721.8" cy="170.53" r="4" fill="#0" id="circle167"/>
	<circle cx="723.236" cy="335.624" r="4" fill="#0" id="circle168"/>
	<circle cx="730.414" cy="259.537" r="4" fill="#0" id="circle169"/>
	<circle cx="730.414" cy="273.893" r="4" fill="#0" id="circle170"/>
	<circle cx="730.414" cy="288.249" r="4" fill="#0" id="circle171"/>
	<circle cx="730.414" cy="302.605" r="4" fill="#0" id="circle172"/>
	<circle cx="730.414" cy="316.961" r="4" fill="#0" id="circle173"/>
	<circle cx="731.849" cy="104.492" r="4" fill="#0" id="circle174"/>
	<circle cx="736.156" cy="170.53" r="4" fill="#0" id="circle175"/>
	<circle cx="746.205" cy="104.492" r="4" fill="#0" id="circle176"/>
	<circle cx="749.077" cy="177.708" r="4" fill="#0" id="circle177"/>
	<circle cx="759.126" cy="111.67" r="4" fill="#0" id="circle178"/>
	<circle cx="763.433" cy="177.708" r="4" fill="#0" id="circle179"/>
	<circle cx="773.482" cy="115.977" r="4" fill="#0" id="circle180"/>
	<circle cx="776.353" cy="170.53" r="4" fill="#0" id="circle181"/>
	<circle cx="787.838" cy="111.67" r="4" fill="#0" id="circle182"/>
	<circle cx="790.709" cy="170.53" r="4" fill="#0" id="circle183"/>
	<circle cx="802.194" cy="111.67" r="4" fill="#0" id="circle184"/>
	<circle cx="805.065" cy="170.53" r="4" fill="#0" id="circle185"/>
	<circle cx="816.55" cy="111.67" r="4" fill="#0" id="circle186"/>
	<circle cx="819.421" cy="170.53" r="4" fill="#0" id="circle187"/>
	<circle cx="830.906" cy="111.67" r="4" fill="#0" id="circle188"/>
	<circle cx="832.342" cy="163.352" r="4" fill="#0" id="circle189"/>
	<circle cx="845.262" cy="111.67" r="4" fill="#0" id="circle190"/>
	<circle cx="846.698" cy="163.352" r="4" fill="#0" id="circle191"/>
	<circle cx="859.618" cy="111.67" r="4" fill="#0" id="circle192"/>
	<circle cx="859.618" cy="156.174" r="4" fill="#0" id="circle193"/>
	<circle cx="872.538" cy="104.492" r="4" fill="#0" id="circle194"/>
	<circle cx="873.974" cy="156.174" r="4" fill="#0" id="circle195"/>
	<circle cx="886.894" cy="104.492" r="4" fill="#0" id="circle196"/>
	<circle cx="888.33" cy="156.174" r="4" fill="#0" id="circle197"/>
	<circle cx="901.25" cy="104.492" r="4" fill="#0" id="circle198"/>
	<circle cx="902.686" cy="156.174" r="4" fill="#0" id="circle199"/>
	<circle cx="915.606" cy="104.492" r="4" fill="#0" id="circle200"/>
	<circle cx="917.042" cy="156.174" r="4" fill="#0" id="circle201"/>
	<circle cx="929.962" cy="104.492" r="4" fill="#0" id="circle202"/>
	<circle cx="931.398" cy="156.174" r="4" fill="#0" id="circle203"/>
	<circle cx="942.883" cy="111.67" r="4" fill="#0" id="circle204"/>
	<circle cx="944.318" cy="163.352" r="4" fill="#0" id="circle205"/>
	<circle cx="955.803" cy="118.848" r="4" fill="#0" id="circle206"/>
	<circle cx="957.239" cy="170.53" r="4" fill="#0" id="circle207"/>
	<circle cx="968.724" cy="126.026" r="4" fill="#0" id="circle208"/>
	<circle cx="970.159" cy="177.708" r="4" fill="#0" id="circle209"/>
	<circle cx="980.208" cy="136.075" r="4" fill="#0" id="circle210"/>
	<circle cx="984.515" cy="183.45" r="4" fill="#0" id="circle211"/>
	<circle cx="988.822" cy="147.56" r="4" fill="#0" id="circle212"/>
	<circle cx="996" cy="160.48" r="4" fill="#0" id="circle213"/>
	<circle cx="996" cy="174.836" r="4" fill="#0" id="circle214"/>
	</g>
</svg>