<?xml version="1.0" encoding="UTF-8" standalone="no"?>
<!-- Created with CurveBenchmark -->
<svg
	xmlns:dc="http://purl.org/dc/elements/1.1/"
	xmlns:cc="http://creativecommons.org/ns#"
	xmlns:rdf="http://www.w3.org/1999/02/22-rdf-syntax-ns#"
	xmlns:svg="http://www.w3.org/2000/svg"
	xmlns="http://www.w3.org/2000/svg"
	xmlns:sodipodi="http://sodipodi.sourceforge.net/DTD/sodipodi-0.dtd"
	xmlns:inkscape="http://www.inkscape.org/namespaces/inkscape"
	width="1000"
	height="1000"
	id="svg2"
	version="1.1"
	sodipodi:docname="manifold/hnncrust-camel15.png.txt">
<defs
	id="defs4" />
<metadata
	id="metadata7">
	<rdf:RDF>
		<cc:Work
			rdf:about="">
			<dc:format>image/svg+xml</dc:format>
			<dc:type
				rdf:resource="http://purl.org/dc/dcmitype/StillImage" />
			<dc:title></dc:title>
		</cc:Work>
	</rdf:RDF>
</metadata>
<g
	inkscape:label="Layer 1"
	inkscape:groupmode="layer"
	id="layer1">
	<path style="fill:none;stroke:red;stroke-width:1px;stroke-linecap:butt;stroke-linejoin:miter;stroke-opacity:1" d="M 4,221.716 4,238.086 z" id="boundary" inkscape:connector-curvature="0" />
	<path style="fill:none;stroke:red;stroke-width:1px;stroke-linecap:butt;stroke-linejoin:miter;stroke-opacity:1" d="M 4,221.716 20.3696,205.347 z" id="boundary" inkscape:connector-curvature="0" />
	<path style="fill:none;stroke:red;stroke-width:1px;stroke-linecap:butt;stroke-linejoin:miter;stroke-opacity:1" d="M 4,238.086 4,254.455 z" id="boundary" inkscape:connector-curvature="0" />
	<path style="fill:none;stroke:red;stroke-width:1px;stroke-linecap:butt;stroke-linejoin:miter;stroke-opacity:1" d="M 4,254.455 4,270.825 z" id="boundary" inkscape:connector-curvature="0" />
	<path style="fill:none;stroke:red;stroke-width:1px;stroke-linecap:butt;stroke-linejoin:miter;stroke-opacity:1" d="M 4,270.825 17.0957,282.284 z" id="boundary" inkscape:connector-curvature="0" />
	<path style="fill:none;stroke:red;stroke-width:1px;stroke-linecap:butt;stroke-linejoin:miter;stroke-opacity:1" d="M 17.0957,282.284 20.3696,298.653 z" id="boundary" inkscape:connector-curvature="0" />
	<path style="fill:none;stroke:red;stroke-width:1px;stroke-linecap:butt;stroke-linejoin:miter;stroke-opacity:1" d="M 20.3696,205.347 33.4653,192.251 z" id="boundary" inkscape:connector-curvature="0" />
	<path style="fill:none;stroke:red;stroke-width:1px;stroke-linecap:butt;stroke-linejoin:miter;stroke-opacity:1" d="M 20.3696,298.653 23.6436,315.023 z" id="boundary" inkscape:connector-curvature="0" />
	<path style="fill:none;stroke:red;stroke-width:1px;stroke-linecap:butt;stroke-linejoin:miter;stroke-opacity:1" d="M 23.6436,315.023 36.7393,324.845 z" id="boundary" inkscape:connector-curvature="0" />
	<path style="fill:none;stroke:red;stroke-width:1px;stroke-linecap:butt;stroke-linejoin:miter;stroke-opacity:1" d="M 33.4653,192.251 41.6502,175.881 z" id="boundary" inkscape:connector-curvature="0" />
	<path style="fill:none;stroke:red;stroke-width:1px;stroke-linecap:butt;stroke-linejoin:miter;stroke-opacity:1" d="M 36.7393,324.845 51.4719,333.03 z" id="boundary" inkscape:connector-curvature="0" />
	<path style="fill:none;stroke:red;stroke-width:1px;stroke-linecap:butt;stroke-linejoin:miter;stroke-opacity:1" d="M 41.6502,175.881 56.3828,167.696 z" id="boundary" inkscape:connector-curvature="0" />
	<path style="fill:none;stroke:red;stroke-width:1px;stroke-linecap:butt;stroke-linejoin:miter;stroke-opacity:1" d="M 51.4719,333.03 67.8416,333.03 z" id="boundary" inkscape:connector-curvature="0" />
	<path style="fill:none;stroke:red;stroke-width:1px;stroke-linecap:butt;stroke-linejoin:miter;stroke-opacity:1" d="M 56.3828,167.696 64.5677,152.964 z" id="boundary" inkscape:connector-curvature="0" />
	<path style="fill:none;stroke:red;stroke-width:1px;stroke-linecap:butt;stroke-linejoin:miter;stroke-opacity:1" d="M 61.2937,540.924 61.2937,557.294 z" id="boundary" inkscape:connector-curvature="0" />
	<path style="fill:none;stroke:red;stroke-width:1px;stroke-linecap:butt;stroke-linejoin:miter;stroke-opacity:1" d="M 61.2937,540.924 69.4785,516.37 z" id="boundary" inkscape:connector-curvature="0" />
	<path style="fill:none;stroke:red;stroke-width:1px;stroke-linecap:butt;stroke-linejoin:miter;stroke-opacity:1" d="M 61.2937,557.294 74.3894,568.752 z" id="boundary" inkscape:connector-curvature="0" />
	<path style="fill:none;stroke:red;stroke-width:1px;stroke-linecap:butt;stroke-linejoin:miter;stroke-opacity:1" d="M 64.5677,152.964 80.9373,151.327 z" id="boundary" inkscape:connector-curvature="0" />
	<path style="fill:none;stroke:red;stroke-width:1px;stroke-linecap:butt;stroke-linejoin:miter;stroke-opacity:1" d="M 67.8416,333.03 82.5743,324.845 z" id="boundary" inkscape:connector-curvature="0" />
	<path style="fill:none;stroke:red;stroke-width:1px;stroke-linecap:butt;stroke-linejoin:miter;stroke-opacity:1" d="M 69.4785,516.37 77.6634,500 z" id="boundary" inkscape:connector-curvature="0" />
	<path style="fill:none;stroke:red;stroke-width:1px;stroke-linecap:butt;stroke-linejoin:miter;stroke-opacity:1" d="M 74.3894,568.752 80.9373,585.122 z" id="boundary" inkscape:connector-curvature="0" />
	<path style="fill:none;stroke:red;stroke-width:1px;stroke-linecap:butt;stroke-linejoin:miter;stroke-opacity:1" d="M 77.6634,467.261 77.6634,483.63 z" id="boundary" inkscape:connector-curvature="0" />
	<path style="fill:none;stroke:red;stroke-width:1px;stroke-linecap:butt;stroke-linejoin:miter;stroke-opacity:1" d="M 77.6634,467.261 85.8482,450.891 z" id="boundary" inkscape:connector-curvature="0" />
	<path style="fill:none;stroke:red;stroke-width:1px;stroke-linecap:butt;stroke-linejoin:miter;stroke-opacity:1" d="M 77.6634,483.63 77.6634,500 z" id="boundary" inkscape:connector-curvature="0" />
	<path style="fill:none;stroke:red;stroke-width:1px;stroke-linecap:butt;stroke-linejoin:miter;stroke-opacity:1" d="M 80.9373,151.327 95.67,143.142 z" id="boundary" inkscape:connector-curvature="0" />
	<path style="fill:none;stroke:red;stroke-width:1px;stroke-linecap:butt;stroke-linejoin:miter;stroke-opacity:1" d="M 80.9373,585.122 94.033,594.944 z" id="boundary" inkscape:connector-curvature="0" />
	<path style="fill:none;stroke:red;stroke-width:1px;stroke-linecap:butt;stroke-linejoin:miter;stroke-opacity:1" d="M 82.5743,324.845 97.3069,333.03 z" id="boundary" inkscape:connector-curvature="0" />
	<path style="fill:none;stroke:red;stroke-width:1px;stroke-linecap:butt;stroke-linejoin:miter;stroke-opacity:1" d="M 85.8482,401.782 94.033,416.515 z" id="boundary" inkscape:connector-curvature="0" />
	<path style="fill:none;stroke:red;stroke-width:1px;stroke-linecap:butt;stroke-linejoin:miter;stroke-opacity:1" d="M 85.8482,401.782 98.9439,388.686 z" id="boundary" inkscape:connector-curvature="0" />
	<path style="fill:none;stroke:red;stroke-width:1px;stroke-linecap:butt;stroke-linejoin:miter;stroke-opacity:1" d="M 85.8482,450.891 102.218,431.248 z" id="boundary" inkscape:connector-curvature="0" />
	<path style="fill:none;stroke:red;stroke-width:1px;stroke-linecap:butt;stroke-linejoin:miter;stroke-opacity:1" d="M 85.8482,614.587 94.033,594.944 z" id="boundary" inkscape:connector-curvature="0" />
	<path style="fill:none;stroke:red;stroke-width:1px;stroke-linecap:butt;stroke-linejoin:miter;stroke-opacity:1" d="M 85.8482,614.587 94.033,629.32 z" id="boundary" inkscape:connector-curvature="0" />
	<path style="fill:none;stroke:red;stroke-width:1px;stroke-linecap:butt;stroke-linejoin:miter;stroke-opacity:1" d="M 94.033,416.515 102.218,431.248 z" id="boundary" inkscape:connector-curvature="0" />
	<path style="fill:none;stroke:red;stroke-width:1px;stroke-linecap:butt;stroke-linejoin:miter;stroke-opacity:1" d="M 94.033,629.32 102.218,644.053 z" id="boundary" inkscape:connector-curvature="0" />
	<path style="fill:none;stroke:red;stroke-width:1px;stroke-linecap:butt;stroke-linejoin:miter;stroke-opacity:1" d="M 95.67,143.142 110.403,134.957 z" id="boundary" inkscape:connector-curvature="0" />
	<path style="fill:none;stroke:red;stroke-width:1px;stroke-linecap:butt;stroke-linejoin:miter;stroke-opacity:1" d="M 97.3069,333.03 110.403,319.934 z" id="boundary" inkscape:connector-curvature="0" />
	<path style="fill:none;stroke:red;stroke-width:1px;stroke-linecap:butt;stroke-linejoin:miter;stroke-opacity:1" d="M 98.9439,388.686 110.403,369.043 z" id="boundary" inkscape:connector-curvature="0" />
	<path style="fill:none;stroke:red;stroke-width:1px;stroke-linecap:butt;stroke-linejoin:miter;stroke-opacity:1" d="M 102.218,644.053 110.403,658.785 z" id="boundary" inkscape:connector-curvature="0" />
	<path style="fill:none;stroke:red;stroke-width:1px;stroke-linecap:butt;stroke-linejoin:miter;stroke-opacity:1" d="M 110.403,134.957 120.224,121.861 z" id="boundary" inkscape:connector-curvature="0" />
	<path style="fill:none;stroke:red;stroke-width:1px;stroke-linecap:butt;stroke-linejoin:miter;stroke-opacity:1" d="M 110.403,319.934 126.772,328.119 z" id="boundary" inkscape:connector-curvature="0" />
	<path style="fill:none;stroke:red;stroke-width:1px;stroke-linecap:butt;stroke-linejoin:miter;stroke-opacity:1" d="M 110.403,658.785 123.498,668.607 z" id="boundary" inkscape:connector-curvature="0" />
	<path style="fill:none;stroke:red;stroke-width:1px;stroke-linecap:butt;stroke-linejoin:miter;stroke-opacity:1" d="M 118.587,344.488 126.772,328.119 z" id="boundary" inkscape:connector-curvature="0" />
	<path style="fill:none;stroke:red;stroke-width:1px;stroke-linecap:butt;stroke-linejoin:miter;stroke-opacity:1" d="M 120.224,121.861 133.32,110.403 z" id="boundary" inkscape:connector-curvature="0" />
	<path style="fill:none;stroke:red;stroke-width:1px;stroke-linecap:butt;stroke-linejoin:miter;stroke-opacity:1" d="M 120.224,300.29 134.957,308.475 z" id="boundary" inkscape:connector-curvature="0" />
	<path style="fill:none;stroke:red;stroke-width:1px;stroke-linecap:butt;stroke-linejoin:miter;stroke-opacity:1" d="M 123.498,668.607 126.772,684.977 z" id="boundary" inkscape:connector-curvature="0" />
	<path style="fill:none;stroke:red;stroke-width:1px;stroke-linecap:butt;stroke-linejoin:miter;stroke-opacity:1" d="M 126.772,684.977 136.594,698.073 z" id="boundary" inkscape:connector-curvature="0" />
	<path style="fill:none;stroke:red;stroke-width:1px;stroke-linecap:butt;stroke-linejoin:miter;stroke-opacity:1" d="M 133.32,110.403 144.779,97.3069 z" id="boundary" inkscape:connector-curvature="0" />
	<path style="fill:none;stroke:red;stroke-width:1px;stroke-linecap:butt;stroke-linejoin:miter;stroke-opacity:1" d="M 136.594,698.073 149.69,709.531 z" id="boundary" inkscape:connector-curvature="0" />
	<path style="fill:none;stroke:red;stroke-width:1px;stroke-linecap:butt;stroke-linejoin:miter;stroke-opacity:1" d="M 144.779,97.3069 152.964,80.9373 z" id="boundary" inkscape:connector-curvature="0" />
	<path style="fill:none;stroke:red;stroke-width:1px;stroke-linecap:butt;stroke-linejoin:miter;stroke-opacity:1" d="M 149.69,709.531 161.149,722.627 z" id="boundary" inkscape:connector-curvature="0" />
	<path style="fill:none;stroke:red;stroke-width:1px;stroke-linecap:butt;stroke-linejoin:miter;stroke-opacity:1" d="M 152.964,80.9373 167.696,66.2046 z" id="boundary" inkscape:connector-curvature="0" />
	<path style="fill:none;stroke:red;stroke-width:1px;stroke-linecap:butt;stroke-linejoin:miter;stroke-opacity:1" d="M 161.149,722.627 177.518,725.901 z" id="boundary" inkscape:connector-curvature="0" />
	<path style="fill:none;stroke:red;stroke-width:1px;stroke-linecap:butt;stroke-linejoin:miter;stroke-opacity:1" d="M 167.696,66.2046 184.066,58.0198 z" id="boundary" inkscape:connector-curvature="0" />
	<path style="fill:none;stroke:red;stroke-width:1px;stroke-linecap:butt;stroke-linejoin:miter;stroke-opacity:1" d="M 175.881,925.611 184.066,940.343 z" id="boundary" inkscape:connector-curvature="0" />
	<path style="fill:none;stroke:red;stroke-width:1px;stroke-linecap:butt;stroke-linejoin:miter;stroke-opacity:1" d="M 175.881,925.611 188.977,912.515 z" id="boundary" inkscape:connector-curvature="0" />
	<path style="fill:none;stroke:red;stroke-width:1px;stroke-linecap:butt;stroke-linejoin:miter;stroke-opacity:1" d="M 177.518,725.901 192.251,734.086 z" id="boundary" inkscape:connector-curvature="0" />
	<path style="fill:none;stroke:red;stroke-width:1px;stroke-linecap:butt;stroke-linejoin:miter;stroke-opacity:1" d="M 184.066,58.0198 200.436,49.835 z" id="boundary" inkscape:connector-curvature="0" />
	<path style="fill:none;stroke:red;stroke-width:1px;stroke-linecap:butt;stroke-linejoin:miter;stroke-opacity:1" d="M 184.066,940.343 192.251,955.076 z" id="boundary" inkscape:connector-curvature="0" />
	<path style="fill:none;stroke:red;stroke-width:1px;stroke-linecap:butt;stroke-linejoin:miter;stroke-opacity:1" d="M 188.977,912.515 203.71,904.33 z" id="boundary" inkscape:connector-curvature="0" />
	<path style="fill:none;stroke:red;stroke-width:1px;stroke-linecap:butt;stroke-linejoin:miter;stroke-opacity:1" d="M 192.251,734.086 202.073,747.182 z" id="boundary" inkscape:connector-curvature="0" />
	<path style="fill:none;stroke:red;stroke-width:1px;stroke-linecap:butt;stroke-linejoin:miter;stroke-opacity:1" d="M 192.251,955.076 206.983,963.261 z" id="boundary" inkscape:connector-curvature="0" />
	<path style="fill:none;stroke:red;stroke-width:1px;stroke-linecap:butt;stroke-linejoin:miter;stroke-opacity:1" d="M 200.436,49.835 216.805,41.6502 z" id="boundary" inkscape:connector-curvature="0" />
	<path style="fill:none;stroke:red;stroke-width:1px;stroke-linecap:butt;stroke-linejoin:miter;stroke-opacity:1" d="M 202.073,747.182 215.168,758.64 z" id="boundary" inkscape:connector-curvature="0" />
	<path style="fill:none;stroke:red;stroke-width:1px;stroke-linecap:butt;stroke-linejoin:miter;stroke-opacity:1" d="M 203.71,904.33 220.079,904.33 z" id="boundary" inkscape:connector-curvature="0" />
	<path style="fill:none;stroke:red;stroke-width:1px;stroke-linecap:butt;stroke-linejoin:miter;stroke-opacity:1" d="M 206.983,963.261 223.353,963.261 z" id="boundary" inkscape:connector-curvature="0" />
	<path style="fill:none;stroke:red;stroke-width:1px;stroke-linecap:butt;stroke-linejoin:miter;stroke-opacity:1" d="M 215.168,758.64 231.538,758.64 z" id="boundary" inkscape:connector-curvature="0" />
	<path style="fill:none;stroke:red;stroke-width:1px;stroke-linecap:butt;stroke-linejoin:miter;stroke-opacity:1" d="M 216.805,41.6502 224.99,25.2805 z" id="boundary" inkscape:connector-curvature="0" />
	<path style="fill:none;stroke:red;stroke-width:1px;stroke-linecap:butt;stroke-linejoin:miter;stroke-opacity:1" d="M 220.079,904.33 236.449,897.782 z" id="boundary" inkscape:connector-curvature="0" />
	<path style="fill:none;stroke:red;stroke-width:1px;stroke-linecap:butt;stroke-linejoin:miter;stroke-opacity:1" d="M 223.353,963.261 238.086,971.446 z" id="boundary" inkscape:connector-curvature="0" />
	<path style="fill:none;stroke:red;stroke-width:1px;stroke-linecap:butt;stroke-linejoin:miter;stroke-opacity:1" d="M 224.99,25.2805 238.086,12.1848 z" id="boundary" inkscape:connector-curvature="0" />
	<path style="fill:none;stroke:red;stroke-width:1px;stroke-linecap:butt;stroke-linejoin:miter;stroke-opacity:1" d="M 231.538,758.64 247.908,758.64 z" id="boundary" inkscape:connector-curvature="0" />
	<path style="fill:none;stroke:red;stroke-width:1px;stroke-linecap:butt;stroke-linejoin:miter;stroke-opacity:1" d="M 236.449,897.782 249.545,884.686 z" id="boundary" inkscape:connector-curvature="0" />
	<path style="fill:none;stroke:red;stroke-width:1px;stroke-linecap:butt;stroke-linejoin:miter;stroke-opacity:1" d="M 238.086,12.1848 254.455,4 z" id="boundary" inkscape:connector-curvature="0" />
	<path style="fill:none;stroke:red;stroke-width:1px;stroke-linecap:butt;stroke-linejoin:miter;stroke-opacity:1" d="M 238.086,971.446 254.455,971.446 z" id="boundary" inkscape:connector-curvature="0" />
	<path style="fill:none;stroke:red;stroke-width:1px;stroke-linecap:butt;stroke-linejoin:miter;stroke-opacity:1" d="M 247.908,758.64 262.64,750.455 z" id="boundary" inkscape:connector-curvature="0" />
	<path style="fill:none;stroke:red;stroke-width:1px;stroke-linecap:butt;stroke-linejoin:miter;stroke-opacity:1" d="M 249.545,884.686 265.914,876.502 z" id="boundary" inkscape:connector-curvature="0" />
	<path style="fill:none;stroke:red;stroke-width:1px;stroke-linecap:butt;stroke-linejoin:miter;stroke-opacity:1" d="M 254.455,4 270.825,4 z" id="boundary" inkscape:connector-curvature="0" />
	<path style="fill:none;stroke:red;stroke-width:1px;stroke-linecap:butt;stroke-linejoin:miter;stroke-opacity:1" d="M 254.455,971.446 267.551,982.904 z" id="boundary" inkscape:connector-curvature="0" />
	<path style="fill:none;stroke:red;stroke-width:1px;stroke-linecap:butt;stroke-linejoin:miter;stroke-opacity:1" d="M 262.64,750.455 275.736,761.914 z" id="boundary" inkscape:connector-curvature="0" />
	<path style="fill:none;stroke:red;stroke-width:1px;stroke-linecap:butt;stroke-linejoin:miter;stroke-opacity:1" d="M 265.914,876.502 279.01,863.406 z" id="boundary" inkscape:connector-curvature="0" />
	<path style="fill:none;stroke:red;stroke-width:1px;stroke-linecap:butt;stroke-linejoin:miter;stroke-opacity:1" d="M 267.551,982.904 279.01,996 z" id="boundary" inkscape:connector-curvature="0" />
	<path style="fill:none;stroke:red;stroke-width:1px;stroke-linecap:butt;stroke-linejoin:miter;stroke-opacity:1" d="M 270.825,4 287.195,4 z" id="boundary" inkscape:connector-curvature="0" />
	<path style="fill:none;stroke:red;stroke-width:1px;stroke-linecap:butt;stroke-linejoin:miter;stroke-opacity:1" d="M 275.736,761.914 282.284,778.284 z" id="boundary" inkscape:connector-curvature="0" />
	<path style="fill:none;stroke:red;stroke-width:1px;stroke-linecap:butt;stroke-linejoin:miter;stroke-opacity:1" d="M 279.01,863.406 282.284,835.578 z" id="boundary" inkscape:connector-curvature="0" />
	<path style="fill:none;stroke:red;stroke-width:1px;stroke-linecap:butt;stroke-linejoin:miter;stroke-opacity:1" d="M 279.01,996 295.38,996 z" id="boundary" inkscape:connector-curvature="0" />
	<path style="fill:none;stroke:red;stroke-width:1px;stroke-linecap:butt;stroke-linejoin:miter;stroke-opacity:1" d="M 282.284,778.284 282.284,794.653 z" id="boundary" inkscape:connector-curvature="0" />
	<path style="fill:none;stroke:red;stroke-width:1px;stroke-linecap:butt;stroke-linejoin:miter;stroke-opacity:1" d="M 282.284,794.653 282.284,811.023 z" id="boundary" inkscape:connector-curvature="0" />
	<path style="fill:none;stroke:red;stroke-width:1px;stroke-linecap:butt;stroke-linejoin:miter;stroke-opacity:1" d="M 282.284,811.023 282.284,835.578 z" id="boundary" inkscape:connector-curvature="0" />
	<path style="fill:none;stroke:red;stroke-width:1px;stroke-linecap:butt;stroke-linejoin:miter;stroke-opacity:1" d="M 287.195,4 301.927,12.1848 z" id="boundary" inkscape:connector-curvature="0" />
	<path style="fill:none;stroke:red;stroke-width:1px;stroke-linecap:butt;stroke-linejoin:miter;stroke-opacity:1" d="M 295.38,996 311.749,996 z" id="boundary" inkscape:connector-curvature="0" />
	<path style="fill:none;stroke:red;stroke-width:1px;stroke-linecap:butt;stroke-linejoin:miter;stroke-opacity:1" d="M 301.927,12.1848 315.023,23.6436 z" id="boundary" inkscape:connector-curvature="0" />
	<path style="fill:none;stroke:red;stroke-width:1px;stroke-linecap:butt;stroke-linejoin:miter;stroke-opacity:1" d="M 311.749,996 328.119,994.363 z" id="boundary" inkscape:connector-curvature="0" />
	<path style="fill:none;stroke:red;stroke-width:1px;stroke-linecap:butt;stroke-linejoin:miter;stroke-opacity:1" d="M 315.023,23.6436 321.571,40.0132 z" id="boundary" inkscape:connector-curvature="0" />
	<path style="fill:none;stroke:red;stroke-width:1px;stroke-linecap:butt;stroke-linejoin:miter;stroke-opacity:1" d="M 321.571,40.0132 324.845,56.3828 z" id="boundary" inkscape:connector-curvature="0" />
	<path style="fill:none;stroke:red;stroke-width:1px;stroke-linecap:butt;stroke-linejoin:miter;stroke-opacity:1" d="M 324.845,56.3828 329.756,72.7525 z" id="boundary" inkscape:connector-curvature="0" />
	<path style="fill:none;stroke:red;stroke-width:1px;stroke-linecap:butt;stroke-linejoin:miter;stroke-opacity:1" d="M 324.845,349.399 324.845,365.769 z" id="boundary" inkscape:connector-curvature="0" />
	<path style="fill:none;stroke:red;stroke-width:1px;stroke-linecap:butt;stroke-linejoin:miter;stroke-opacity:1" d="M 324.845,349.399 341.215,333.03 z" id="boundary" inkscape:connector-curvature="0" />
	<path style="fill:none;stroke:red;stroke-width:1px;stroke-linecap:butt;stroke-linejoin:miter;stroke-opacity:1" d="M 324.845,365.769 328.119,382.139 z" id="boundary" inkscape:connector-curvature="0" />
	<path style="fill:none;stroke:red;stroke-width:1px;stroke-linecap:butt;stroke-linejoin:miter;stroke-opacity:1" d="M 328.119,382.139 344.488,388.686 z" id="boundary" inkscape:connector-curvature="0" />
	<path style="fill:none;stroke:red;stroke-width:1px;stroke-linecap:butt;stroke-linejoin:miter;stroke-opacity:1" d="M 328.119,994.363 344.488,994.363 z" id="boundary" inkscape:connector-curvature="0" />
	<path style="fill:none;stroke:red;stroke-width:1px;stroke-linecap:butt;stroke-linejoin:miter;stroke-opacity:1" d="M 329.756,72.7525 346.125,79.3003 z" id="boundary" inkscape:connector-curvature="0" />
	<path style="fill:none;stroke:red;stroke-width:1px;stroke-linecap:butt;stroke-linejoin:miter;stroke-opacity:1" d="M 341.215,333.03 349.399,308.475 z" id="boundary" inkscape:connector-curvature="0" />
	<path style="fill:none;stroke:red;stroke-width:1px;stroke-linecap:butt;stroke-linejoin:miter;stroke-opacity:1" d="M 344.488,388.686 357.584,375.591 z" id="boundary" inkscape:connector-curvature="0" />
	<path style="fill:none;stroke:red;stroke-width:1px;stroke-linecap:butt;stroke-linejoin:miter;stroke-opacity:1" d="M 344.488,994.363 360.858,987.815 z" id="boundary" inkscape:connector-curvature="0" />
	<path style="fill:none;stroke:red;stroke-width:1px;stroke-linecap:butt;stroke-linejoin:miter;stroke-opacity:1" d="M 346.125,79.3003 349.399,95.67 z" id="boundary" inkscape:connector-curvature="0" />
	<path style="fill:none;stroke:red;stroke-width:1px;stroke-linecap:butt;stroke-linejoin:miter;stroke-opacity:1" d="M 349.399,95.67 357.584,110.403 z" id="boundary" inkscape:connector-curvature="0" />
	<path style="fill:none;stroke:red;stroke-width:1px;stroke-linecap:butt;stroke-linejoin:miter;stroke-opacity:1" d="M 349.399,308.475 357.584,292.106 z" id="boundary" inkscape:connector-curvature="0" />
	<path style="fill:none;stroke:red;stroke-width:1px;stroke-linecap:butt;stroke-linejoin:miter;stroke-opacity:1" d="M 357.584,110.403 373.954,115.314 z" id="boundary" inkscape:connector-curvature="0" />
	<path style="fill:none;stroke:red;stroke-width:1px;stroke-linecap:butt;stroke-linejoin:miter;stroke-opacity:1" d="M 357.584,292.106 365.769,275.736 z" id="boundary" inkscape:connector-curvature="0" />
	<path style="fill:none;stroke:red;stroke-width:1px;stroke-linecap:butt;stroke-linejoin:miter;stroke-opacity:1" d="M 357.584,375.591 365.769,359.221 z" id="boundary" inkscape:connector-curvature="0" />
	<path style="fill:none;stroke:red;stroke-width:1px;stroke-linecap:butt;stroke-linejoin:miter;stroke-opacity:1" d="M 360.858,987.815 375.591,979.63 z" id="boundary" inkscape:connector-curvature="0" />
	<path style="fill:none;stroke:red;stroke-width:1px;stroke-linecap:butt;stroke-linejoin:miter;stroke-opacity:1" d="M 365.769,275.736 377.228,259.366 z" id="boundary" inkscape:connector-curvature="0" />
	<path style="fill:none;stroke:red;stroke-width:1px;stroke-linecap:butt;stroke-linejoin:miter;stroke-opacity:1" d="M 365.769,359.221 373.954,342.851 z" id="boundary" inkscape:connector-curvature="0" />
	<path style="fill:none;stroke:red;stroke-width:1px;stroke-linecap:butt;stroke-linejoin:miter;stroke-opacity:1" d="M 373.954,115.314 373.954,131.683 z" id="boundary" inkscape:connector-curvature="0" />
	<path style="fill:none;stroke:red;stroke-width:1px;stroke-linecap:butt;stroke-linejoin:miter;stroke-opacity:1" d="M 373.954,131.683 373.954,148.053 z" id="boundary" inkscape:connector-curvature="0" />
	<path style="fill:none;stroke:red;stroke-width:1px;stroke-linecap:butt;stroke-linejoin:miter;stroke-opacity:1" d="M 373.954,148.053 373.954,169.333 z" id="boundary" inkscape:connector-curvature="0" />
	<path style="fill:none;stroke:red;stroke-width:1px;stroke-linecap:butt;stroke-linejoin:miter;stroke-opacity:1" d="M 373.954,169.333 373.954,193.888 z" id="boundary" inkscape:connector-curvature="0" />
	<path style="fill:none;stroke:red;stroke-width:1px;stroke-linecap:butt;stroke-linejoin:miter;stroke-opacity:1" d="M 373.954,193.888 377.228,210.257 z" id="boundary" inkscape:connector-curvature="0" />
	<path style="fill:none;stroke:red;stroke-width:1px;stroke-linecap:butt;stroke-linejoin:miter;stroke-opacity:1" d="M 373.954,226.627 373.954,242.997 z" id="boundary" inkscape:connector-curvature="0" />
	<path style="fill:none;stroke:red;stroke-width:1px;stroke-linecap:butt;stroke-linejoin:miter;stroke-opacity:1" d="M 373.954,226.627 377.228,210.257 z" id="boundary" inkscape:connector-curvature="0" />
	<path style="fill:none;stroke:red;stroke-width:1px;stroke-linecap:butt;stroke-linejoin:miter;stroke-opacity:1" d="M 373.954,242.997 377.228,259.366 z" id="boundary" inkscape:connector-curvature="0" />
	<path style="fill:none;stroke:red;stroke-width:1px;stroke-linecap:butt;stroke-linejoin:miter;stroke-opacity:1" d="M 373.954,342.851 387.05,331.393 z" id="boundary" inkscape:connector-curvature="0" />
	<path style="fill:none;stroke:red;stroke-width:1px;stroke-linecap:butt;stroke-linejoin:miter;stroke-opacity:1" d="M 373.954,766.825 373.954,791.38 z" id="boundary" inkscape:connector-curvature="0" />
	<path style="fill:none;stroke:red;stroke-width:1px;stroke-linecap:butt;stroke-linejoin:miter;stroke-opacity:1" d="M 373.954,766.825 382.139,750.455 z" id="boundary" inkscape:connector-curvature="0" />
	<path style="fill:none;stroke:red;stroke-width:1px;stroke-linecap:butt;stroke-linejoin:miter;stroke-opacity:1" d="M 373.954,791.38 373.954,807.749 z" id="boundary" inkscape:connector-curvature="0" />
	<path style="fill:none;stroke:red;stroke-width:1px;stroke-linecap:butt;stroke-linejoin:miter;stroke-opacity:1" d="M 373.954,807.749 373.954,824.119 z" id="boundary" inkscape:connector-curvature="0" />
	<path style="fill:none;stroke:red;stroke-width:1px;stroke-linecap:butt;stroke-linejoin:miter;stroke-opacity:1" d="M 373.954,824.119 382.139,838.851 z" id="boundary" inkscape:connector-curvature="0" />
	<path style="fill:none;stroke:red;stroke-width:1px;stroke-linecap:butt;stroke-linejoin:miter;stroke-opacity:1" d="M 373.954,856.858 382.139,838.851 z" id="boundary" inkscape:connector-curvature="0" />
	<path style="fill:none;stroke:red;stroke-width:1px;stroke-linecap:butt;stroke-linejoin:miter;stroke-opacity:1" d="M 373.954,856.858 382.139,871.591 z" id="boundary" inkscape:connector-curvature="0" />
	<path style="fill:none;stroke:red;stroke-width:1px;stroke-linecap:butt;stroke-linejoin:miter;stroke-opacity:1" d="M 375.591,979.63 390.323,971.446 z" id="boundary" inkscape:connector-curvature="0" />
	<path style="fill:none;stroke:red;stroke-width:1px;stroke-linecap:butt;stroke-linejoin:miter;stroke-opacity:1" d="M 382.139,717.716 382.139,734.086 z" id="boundary" inkscape:connector-curvature="0" />
	<path style="fill:none;stroke:red;stroke-width:1px;stroke-linecap:butt;stroke-linejoin:miter;stroke-opacity:1" d="M 382.139,717.716 396.871,709.531 z" id="boundary" inkscape:connector-curvature="0" />
	<path style="fill:none;stroke:red;stroke-width:1px;stroke-linecap:butt;stroke-linejoin:miter;stroke-opacity:1" d="M 382.139,734.086 382.139,750.455 z" id="boundary" inkscape:connector-curvature="0" />
	<path style="fill:none;stroke:red;stroke-width:1px;stroke-linecap:butt;stroke-linejoin:miter;stroke-opacity:1" d="M 382.139,871.591 382.139,887.96 z" id="boundary" inkscape:connector-curvature="0" />
	<path style="fill:none;stroke:red;stroke-width:1px;stroke-linecap:butt;stroke-linejoin:miter;stroke-opacity:1" d="M 382.139,887.96 390.323,902.693 z" id="boundary" inkscape:connector-curvature="0" />
	<path style="fill:none;stroke:red;stroke-width:1px;stroke-linecap:butt;stroke-linejoin:miter;stroke-opacity:1" d="M 387.05,331.393 393.597,315.023 z" id="boundary" inkscape:connector-curvature="0" />
	<path style="fill:none;stroke:red;stroke-width:1px;stroke-linecap:butt;stroke-linejoin:miter;stroke-opacity:1" d="M 390.323,902.693 390.323,922.337 z" id="boundary" inkscape:connector-curvature="0" />
	<path style="fill:none;stroke:red;stroke-width:1px;stroke-linecap:butt;stroke-linejoin:miter;stroke-opacity:1" d="M 390.323,922.337 398.508,937.069 z" id="boundary" inkscape:connector-curvature="0" />
	<path style="fill:none;stroke:red;stroke-width:1px;stroke-linecap:butt;stroke-linejoin:miter;stroke-opacity:1" d="M 390.323,971.446 398.508,953.439 z" id="boundary" inkscape:connector-curvature="0" />
	<path style="fill:none;stroke:red;stroke-width:1px;stroke-linecap:butt;stroke-linejoin:miter;stroke-opacity:1" d="M 393.597,315.023 401.782,298.653 z" id="boundary" inkscape:connector-curvature="0" />
	<path style="fill:none;stroke:red;stroke-width:1px;stroke-linecap:butt;stroke-linejoin:miter;stroke-opacity:1" d="M 396.871,709.531 411.604,717.716 z" id="boundary" inkscape:connector-curvature="0" />
	<path style="fill:none;stroke:red;stroke-width:1px;stroke-linecap:butt;stroke-linejoin:miter;stroke-opacity:1" d="M 398.508,937.069 398.508,953.439 z" id="boundary" inkscape:connector-curvature="0" />
	<path style="fill:none;stroke:red;stroke-width:1px;stroke-linecap:butt;stroke-linejoin:miter;stroke-opacity:1" d="M 401.782,298.653 413.241,270.825 z" id="boundary" inkscape:connector-curvature="0" />
	<path style="fill:none;stroke:red;stroke-width:1px;stroke-linecap:butt;stroke-linejoin:miter;stroke-opacity:1" d="M 411.604,717.716 426.337,725.901 z" id="boundary" inkscape:connector-curvature="0" />
	<path style="fill:none;stroke:red;stroke-width:1px;stroke-linecap:butt;stroke-linejoin:miter;stroke-opacity:1" d="M 413.241,270.825 421.426,254.455 z" id="boundary" inkscape:connector-curvature="0" />
	<path style="fill:none;stroke:red;stroke-width:1px;stroke-linecap:butt;stroke-linejoin:miter;stroke-opacity:1" d="M 421.426,254.455 434.521,241.36 z" id="boundary" inkscape:connector-curvature="0" />
	<path style="fill:none;stroke:red;stroke-width:1px;stroke-linecap:butt;stroke-linejoin:miter;stroke-opacity:1" d="M 426.337,725.901 442.706,732.449 z" id="boundary" inkscape:connector-curvature="0" />
	<path style="fill:none;stroke:red;stroke-width:1px;stroke-linecap:butt;stroke-linejoin:miter;stroke-opacity:1" d="M 434.521,241.36 442.706,224.99 z" id="boundary" inkscape:connector-curvature="0" />
	<path style="fill:none;stroke:red;stroke-width:1px;stroke-linecap:butt;stroke-linejoin:miter;stroke-opacity:1" d="M 442.706,224.99 455.802,211.894 z" id="boundary" inkscape:connector-curvature="0" />
	<path style="fill:none;stroke:red;stroke-width:1px;stroke-linecap:butt;stroke-linejoin:miter;stroke-opacity:1" d="M 442.706,732.449 457.439,740.634 z" id="boundary" inkscape:connector-curvature="0" />
	<path style="fill:none;stroke:red;stroke-width:1px;stroke-linecap:butt;stroke-linejoin:miter;stroke-opacity:1" d="M 455.802,211.894 468.898,200.436 z" id="boundary" inkscape:connector-curvature="0" />
	<path style="fill:none;stroke:red;stroke-width:1px;stroke-linecap:butt;stroke-linejoin:miter;stroke-opacity:1" d="M 457.439,740.634 473.809,738.997 z" id="boundary" inkscape:connector-curvature="0" />
	<path style="fill:none;stroke:red;stroke-width:1px;stroke-linecap:butt;stroke-linejoin:miter;stroke-opacity:1" d="M 468.898,200.436 483.63,192.251 z" id="boundary" inkscape:connector-curvature="0" />
	<path style="fill:none;stroke:red;stroke-width:1px;stroke-linecap:butt;stroke-linejoin:miter;stroke-opacity:1" d="M 473.809,738.997 490.178,742.271 z" id="boundary" inkscape:connector-curvature="0" />
	<path style="fill:none;stroke:red;stroke-width:1px;stroke-linecap:butt;stroke-linejoin:miter;stroke-opacity:1" d="M 483.63,192.251 498.363,184.066 z" id="boundary" inkscape:connector-curvature="0" />
	<path style="fill:none;stroke:red;stroke-width:1px;stroke-linecap:butt;stroke-linejoin:miter;stroke-opacity:1" d="M 490.178,742.271 506.548,747.182 z" id="boundary" inkscape:connector-curvature="0" />
	<path style="fill:none;stroke:red;stroke-width:1px;stroke-linecap:butt;stroke-linejoin:miter;stroke-opacity:1" d="M 498.363,184.066 514.733,184.066 z" id="boundary" inkscape:connector-curvature="0" />
	<path style="fill:none;stroke:red;stroke-width:1px;stroke-linecap:butt;stroke-linejoin:miter;stroke-opacity:1" d="M 506.548,747.182 522.917,750.455 z" id="boundary" inkscape:connector-curvature="0" />
	<path style="fill:none;stroke:red;stroke-width:1px;stroke-linecap:butt;stroke-linejoin:miter;stroke-opacity:1" d="M 511.459,909.241 511.459,925.611 z" id="boundary" inkscape:connector-curvature="0" />
	<path style="fill:none;stroke:red;stroke-width:1px;stroke-linecap:butt;stroke-linejoin:miter;stroke-opacity:1" d="M 511.459,909.241 524.554,896.145 z" id="boundary" inkscape:connector-curvature="0" />
	<path style="fill:none;stroke:red;stroke-width:1px;stroke-linecap:butt;stroke-linejoin:miter;stroke-opacity:1" d="M 511.459,925.611 511.459,941.98 z" id="boundary" inkscape:connector-curvature="0" />
	<path style="fill:none;stroke:red;stroke-width:1px;stroke-linecap:butt;stroke-linejoin:miter;stroke-opacity:1" d="M 511.459,941.98 527.828,946.891 z" id="boundary" inkscape:connector-curvature="0" />
	<path style="fill:none;stroke:red;stroke-width:1px;stroke-linecap:butt;stroke-linejoin:miter;stroke-opacity:1" d="M 514.733,184.066 531.102,184.066 z" id="boundary" inkscape:connector-curvature="0" />
	<path style="fill:none;stroke:red;stroke-width:1px;stroke-linecap:butt;stroke-linejoin:miter;stroke-opacity:1" d="M 522.917,750.455 539.287,750.455 z" id="boundary" inkscape:connector-curvature="0" />
	<path style="fill:none;stroke:red;stroke-width:1px;stroke-linecap:butt;stroke-linejoin:miter;stroke-opacity:1" d="M 524.554,896.145 540.924,887.96 z" id="boundary" inkscape:connector-curvature="0" />
	<path style="fill:none;stroke:red;stroke-width:1px;stroke-linecap:butt;stroke-linejoin:miter;stroke-opacity:1" d="M 527.828,946.891 537.65,959.987 z" id="boundary" inkscape:connector-curvature="0" />
	<path style="fill:none;stroke:red;stroke-width:1px;stroke-linecap:butt;stroke-linejoin:miter;stroke-opacity:1" d="M 531.102,184.066 545.835,192.251 z" id="boundary" inkscape:connector-curvature="0" />
	<path style="fill:none;stroke:red;stroke-width:1px;stroke-linecap:butt;stroke-linejoin:miter;stroke-opacity:1" d="M 537.65,959.987 554.02,955.076 z" id="boundary" inkscape:connector-curvature="0" />
	<path style="fill:none;stroke:red;stroke-width:1px;stroke-linecap:butt;stroke-linejoin:miter;stroke-opacity:1" d="M 539.287,750.455 555.657,750.455 z" id="boundary" inkscape:connector-curvature="0" />
	<path style="fill:none;stroke:red;stroke-width:1px;stroke-linecap:butt;stroke-linejoin:miter;stroke-opacity:1" d="M 540.924,887.96 552.383,868.317 z" id="boundary" inkscape:connector-curvature="0" />
	<path style="fill:none;stroke:red;stroke-width:1px;stroke-linecap:butt;stroke-linejoin:miter;stroke-opacity:1" d="M 545.835,192.251 562.205,197.162 z" id="boundary" inkscape:connector-curvature="0" />
	<path style="fill:none;stroke:red;stroke-width:1px;stroke-linecap:butt;stroke-linejoin:miter;stroke-opacity:1" d="M 552.383,868.317 565.479,855.221 z" id="boundary" inkscape:connector-curvature="0" />
	<path style="fill:none;stroke:red;stroke-width:1px;stroke-linecap:butt;stroke-linejoin:miter;stroke-opacity:1" d="M 554.02,955.076 568.752,963.261 z" id="boundary" inkscape:connector-curvature="0" />
	<path style="fill:none;stroke:red;stroke-width:1px;stroke-linecap:butt;stroke-linejoin:miter;stroke-opacity:1" d="M 555.657,750.455 570.389,742.271 z" id="boundary" inkscape:connector-curvature="0" />
	<path style="fill:none;stroke:red;stroke-width:1px;stroke-linecap:butt;stroke-linejoin:miter;stroke-opacity:1" d="M 562.205,197.162 576.937,205.347 z" id="boundary" inkscape:connector-curvature="0" />
	<path style="fill:none;stroke:red;stroke-width:1px;stroke-linecap:butt;stroke-linejoin:miter;stroke-opacity:1" d="M 565.479,855.221 573.663,838.851 z" id="boundary" inkscape:connector-curvature="0" />
	<path style="fill:none;stroke:red;stroke-width:1px;stroke-linecap:butt;stroke-linejoin:miter;stroke-opacity:1" d="M 568.752,963.261 583.485,955.076 z" id="boundary" inkscape:connector-curvature="0" />
	<path style="fill:none;stroke:red;stroke-width:1px;stroke-linecap:butt;stroke-linejoin:miter;stroke-opacity:1" d="M 570.389,742.271 576.937,758.64 z" id="boundary" inkscape:connector-curvature="0" />
	<path style="fill:none;stroke:red;stroke-width:1px;stroke-linecap:butt;stroke-linejoin:miter;stroke-opacity:1" d="M 573.663,838.851 576.937,811.023 z" id="boundary" inkscape:connector-curvature="0" />
	<path style="fill:none;stroke:red;stroke-width:1px;stroke-linecap:butt;stroke-linejoin:miter;stroke-opacity:1" d="M 576.937,205.347 585.122,220.079 z" id="boundary" inkscape:connector-curvature="0" />
	<path style="fill:none;stroke:red;stroke-width:1px;stroke-linecap:butt;stroke-linejoin:miter;stroke-opacity:1" d="M 576.937,758.64 576.937,778.284 z" id="boundary" inkscape:connector-curvature="0" />
	<path style="fill:none;stroke:red;stroke-width:1px;stroke-linecap:butt;stroke-linejoin:miter;stroke-opacity:1" d="M 576.937,778.284 576.937,794.653 z" id="boundary" inkscape:connector-curvature="0" />
	<path style="fill:none;stroke:red;stroke-width:1px;stroke-linecap:butt;stroke-linejoin:miter;stroke-opacity:1" d="M 576.937,794.653 576.937,811.023 z" id="boundary" inkscape:connector-curvature="0" />
	<path style="fill:none;stroke:red;stroke-width:1px;stroke-linecap:butt;stroke-linejoin:miter;stroke-opacity:1" d="M 583.485,955.076 594.944,968.172 z" id="boundary" inkscape:connector-curvature="0" />
	<path style="fill:none;stroke:red;stroke-width:1px;stroke-linecap:butt;stroke-linejoin:miter;stroke-opacity:1" d="M 585.122,220.079 591.67,236.449 z" id="boundary" inkscape:connector-curvature="0" />
	<path style="fill:none;stroke:red;stroke-width:1px;stroke-linecap:butt;stroke-linejoin:miter;stroke-opacity:1" d="M 591.67,236.449 599.855,251.182 z" id="boundary" inkscape:connector-curvature="0" />
	<path style="fill:none;stroke:red;stroke-width:1px;stroke-linecap:butt;stroke-linejoin:miter;stroke-opacity:1" d="M 594.944,968.172 611.314,971.446 z" id="boundary" inkscape:connector-curvature="0" />
	<path style="fill:none;stroke:red;stroke-width:1px;stroke-linecap:butt;stroke-linejoin:miter;stroke-opacity:1" d="M 599.855,251.182 603.129,275.736 z" id="boundary" inkscape:connector-curvature="0" />
	<path style="fill:none;stroke:red;stroke-width:1px;stroke-linecap:butt;stroke-linejoin:miter;stroke-opacity:1" d="M 603.129,275.736 603.129,300.29 z" id="boundary" inkscape:connector-curvature="0" />
	<path style="fill:none;stroke:red;stroke-width:1px;stroke-linecap:butt;stroke-linejoin:miter;stroke-opacity:1" d="M 603.129,300.29 603.129,316.66 z" id="boundary" inkscape:connector-curvature="0" />
	<path style="fill:none;stroke:red;stroke-width:1px;stroke-linecap:butt;stroke-linejoin:miter;stroke-opacity:1" d="M 603.129,316.66 603.129,333.03 z" id="boundary" inkscape:connector-curvature="0" />
	<path style="fill:none;stroke:red;stroke-width:1px;stroke-linecap:butt;stroke-linejoin:miter;stroke-opacity:1" d="M 603.129,333.03 619.498,339.578 z" id="boundary" inkscape:connector-curvature="0" />
	<path style="fill:none;stroke:red;stroke-width:1px;stroke-linecap:butt;stroke-linejoin:miter;stroke-opacity:1" d="M 611.314,971.446 627.683,971.446 z" id="boundary" inkscape:connector-curvature="0" />
	<path style="fill:none;stroke:red;stroke-width:1px;stroke-linecap:butt;stroke-linejoin:miter;stroke-opacity:1" d="M 619.498,339.578 629.32,324.845 z" id="boundary" inkscape:connector-curvature="0" />
	<path style="fill:none;stroke:red;stroke-width:1px;stroke-linecap:butt;stroke-linejoin:miter;stroke-opacity:1" d="M 627.683,971.446 644.053,971.446 z" id="boundary" inkscape:connector-curvature="0" />
	<path style="fill:none;stroke:red;stroke-width:1px;stroke-linecap:butt;stroke-linejoin:miter;stroke-opacity:1" d="M 629.32,324.845 637.505,308.475 z" id="boundary" inkscape:connector-curvature="0" />
	<path style="fill:none;stroke:red;stroke-width:1px;stroke-linecap:butt;stroke-linejoin:miter;stroke-opacity:1" d="M 637.505,308.475 650.601,295.38 z" id="boundary" inkscape:connector-curvature="0" />
	<path style="fill:none;stroke:red;stroke-width:1px;stroke-linecap:butt;stroke-linejoin:miter;stroke-opacity:1" d="M 644.053,971.446 660.422,971.446 z" id="boundary" inkscape:connector-curvature="0" />
	<path style="fill:none;stroke:red;stroke-width:1px;stroke-linecap:butt;stroke-linejoin:miter;stroke-opacity:1" d="M 650.601,295.38 666.97,287.195 z" id="boundary" inkscape:connector-curvature="0" />
	<path style="fill:none;stroke:red;stroke-width:1px;stroke-linecap:butt;stroke-linejoin:miter;stroke-opacity:1" d="M 660.422,971.446 676.792,963.261 z" id="boundary" inkscape:connector-curvature="0" />
	<path style="fill:none;stroke:red;stroke-width:1px;stroke-linecap:butt;stroke-linejoin:miter;stroke-opacity:1" d="M 666.97,287.195 683.34,279.01 z" id="boundary" inkscape:connector-curvature="0" />
	<path style="fill:none;stroke:red;stroke-width:1px;stroke-linecap:butt;stroke-linejoin:miter;stroke-opacity:1" d="M 676.792,963.261 693.162,963.261 z" id="boundary" inkscape:connector-curvature="0" />
	<path style="fill:none;stroke:red;stroke-width:1px;stroke-linecap:butt;stroke-linejoin:miter;stroke-opacity:1" d="M 683.34,279.01 696.436,265.914 z" id="boundary" inkscape:connector-curvature="0" />
	<path style="fill:none;stroke:red;stroke-width:1px;stroke-linecap:butt;stroke-linejoin:miter;stroke-opacity:1" d="M 693.162,963.261 709.531,946.891 z" id="boundary" inkscape:connector-curvature="0" />
	<path style="fill:none;stroke:red;stroke-width:1px;stroke-linecap:butt;stroke-linejoin:miter;stroke-opacity:1" d="M 696.436,265.914 712.805,265.914 z" id="boundary" inkscape:connector-curvature="0" />
	<path style="fill:none;stroke:red;stroke-width:1px;stroke-linecap:butt;stroke-linejoin:miter;stroke-opacity:1" d="M 701.347,775.01 701.347,791.38 z" id="boundary" inkscape:connector-curvature="0" />
	<path style="fill:none;stroke:red;stroke-width:1px;stroke-linecap:butt;stroke-linejoin:miter;stroke-opacity:1" d="M 701.347,775.01 714.442,763.551 z" id="boundary" inkscape:connector-curvature="0" />
	<path style="fill:none;stroke:red;stroke-width:1px;stroke-linecap:butt;stroke-linejoin:miter;stroke-opacity:1" d="M 701.347,791.38 701.347,807.749 z" id="boundary" inkscape:connector-curvature="0" />
	<path style="fill:none;stroke:red;stroke-width:1px;stroke-linecap:butt;stroke-linejoin:miter;stroke-opacity:1" d="M 701.347,807.749 701.347,824.119 z" id="boundary" inkscape:connector-curvature="0" />
	<path style="fill:none;stroke:red;stroke-width:1px;stroke-linecap:butt;stroke-linejoin:miter;stroke-opacity:1" d="M 701.347,824.119 701.347,840.488 z" id="boundary" inkscape:connector-curvature="0" />
	<path style="fill:none;stroke:red;stroke-width:1px;stroke-linecap:butt;stroke-linejoin:miter;stroke-opacity:1" d="M 701.347,840.488 701.347,856.858 z" id="boundary" inkscape:connector-curvature="0" />
	<path style="fill:none;stroke:red;stroke-width:1px;stroke-linecap:butt;stroke-linejoin:miter;stroke-opacity:1" d="M 701.347,856.858 701.347,873.228 z" id="boundary" inkscape:connector-curvature="0" />
	<path style="fill:none;stroke:red;stroke-width:1px;stroke-linecap:butt;stroke-linejoin:miter;stroke-opacity:1" d="M 701.347,873.228 709.531,887.96 z" id="boundary" inkscape:connector-curvature="0" />
	<path style="fill:none;stroke:red;stroke-width:1px;stroke-linecap:butt;stroke-linejoin:miter;stroke-opacity:1" d="M 709.531,887.96 709.531,904.33 z" id="boundary" inkscape:connector-curvature="0" />
	<path style="fill:none;stroke:red;stroke-width:1px;stroke-linecap:butt;stroke-linejoin:miter;stroke-opacity:1" d="M 709.531,904.33 717.716,919.063 z" id="boundary" inkscape:connector-curvature="0" />
	<path style="fill:none;stroke:red;stroke-width:1px;stroke-linecap:butt;stroke-linejoin:miter;stroke-opacity:1" d="M 709.531,946.891 717.716,919.063 z" id="boundary" inkscape:connector-curvature="0" />
	<path style="fill:none;stroke:red;stroke-width:1px;stroke-linecap:butt;stroke-linejoin:miter;stroke-opacity:1" d="M 712.805,265.914 727.538,274.099 z" id="boundary" inkscape:connector-curvature="0" />
	<path style="fill:none;stroke:red;stroke-width:1px;stroke-linecap:butt;stroke-linejoin:miter;stroke-opacity:1" d="M 714.442,763.551 722.627,747.182 z" id="boundary" inkscape:connector-curvature="0" />
	<path style="fill:none;stroke:red;stroke-width:1px;stroke-linecap:butt;stroke-linejoin:miter;stroke-opacity:1" d="M 722.627,747.182 730.812,730.812 z" id="boundary" inkscape:connector-curvature="0" />
	<path style="fill:none;stroke:red;stroke-width:1px;stroke-linecap:butt;stroke-linejoin:miter;stroke-opacity:1" d="M 727.538,274.099 740.634,285.558 z" id="boundary" inkscape:connector-curvature="0" />
	<path style="fill:none;stroke:red;stroke-width:1px;stroke-linecap:butt;stroke-linejoin:miter;stroke-opacity:1" d="M 730.812,730.812 742.271,717.716 z" id="boundary" inkscape:connector-curvature="0" />
	<path style="fill:none;stroke:red;stroke-width:1px;stroke-linecap:butt;stroke-linejoin:miter;stroke-opacity:1" d="M 740.634,285.558 750.455,298.653 z" id="boundary" inkscape:connector-curvature="0" />
	<path style="fill:none;stroke:red;stroke-width:1px;stroke-linecap:butt;stroke-linejoin:miter;stroke-opacity:1" d="M 742.271,717.716 755.366,706.257 z" id="boundary" inkscape:connector-curvature="0" />
	<path style="fill:none;stroke:red;stroke-width:1px;stroke-linecap:butt;stroke-linejoin:miter;stroke-opacity:1" d="M 750.455,298.653 758.64,313.386 z" id="boundary" inkscape:connector-curvature="0" />
	<path style="fill:none;stroke:red;stroke-width:1px;stroke-linecap:butt;stroke-linejoin:miter;stroke-opacity:1" d="M 755.366,706.257 766.825,684.977 z" id="boundary" inkscape:connector-curvature="0" />
	<path style="fill:none;stroke:red;stroke-width:1px;stroke-linecap:butt;stroke-linejoin:miter;stroke-opacity:1" d="M 758.64,313.386 771.736,324.845 z" id="boundary" inkscape:connector-curvature="0" />
	<path style="fill:none;stroke:red;stroke-width:1px;stroke-linecap:butt;stroke-linejoin:miter;stroke-opacity:1" d="M 766.825,684.977 779.921,673.518 z" id="boundary" inkscape:connector-curvature="0" />
	<path style="fill:none;stroke:red;stroke-width:1px;stroke-linecap:butt;stroke-linejoin:miter;stroke-opacity:1" d="M 771.736,324.845 778.284,341.215 z" id="boundary" inkscape:connector-curvature="0" />
	<path style="fill:none;stroke:red;stroke-width:1px;stroke-linecap:butt;stroke-linejoin:miter;stroke-opacity:1" d="M 778.284,341.215 786.469,355.947 z" id="boundary" inkscape:connector-curvature="0" />
	<path style="fill:none;stroke:red;stroke-width:1px;stroke-linecap:butt;stroke-linejoin:miter;stroke-opacity:1" d="M 779.921,673.518 791.38,660.422 z" id="boundary" inkscape:connector-curvature="0" />
	<path style="fill:none;stroke:red;stroke-width:1px;stroke-linecap:butt;stroke-linejoin:miter;stroke-opacity:1" d="M 786.469,355.947 797.927,369.043 z" id="boundary" inkscape:connector-curvature="0" />
	<path style="fill:none;stroke:red;stroke-width:1px;stroke-linecap:butt;stroke-linejoin:miter;stroke-opacity:1" d="M 791.38,660.422 799.564,644.053 z" id="boundary" inkscape:connector-curvature="0" />
	<path style="fill:none;stroke:red;stroke-width:1px;stroke-linecap:butt;stroke-linejoin:miter;stroke-opacity:1" d="M 797.927,369.043 806.112,383.776 z" id="boundary" inkscape:connector-curvature="0" />
	<path style="fill:none;stroke:red;stroke-width:1px;stroke-linecap:butt;stroke-linejoin:miter;stroke-opacity:1" d="M 799.564,644.053 807.749,627.683 z" id="boundary" inkscape:connector-curvature="0" />
	<path style="fill:none;stroke:red;stroke-width:1px;stroke-linecap:butt;stroke-linejoin:miter;stroke-opacity:1" d="M 806.112,383.776 807.749,400.145 z" id="boundary" inkscape:connector-curvature="0" />
	<path style="fill:none;stroke:red;stroke-width:1px;stroke-linecap:butt;stroke-linejoin:miter;stroke-opacity:1" d="M 806.112,778.284 814.297,753.729 z" id="boundary" inkscape:connector-curvature="0" />
	<path style="fill:none;stroke:red;stroke-width:1px;stroke-linecap:butt;stroke-linejoin:miter;stroke-opacity:1" d="M 806.112,778.284 814.297,793.017 z" id="boundary" inkscape:connector-curvature="0" />
	<path style="fill:none;stroke:red;stroke-width:1px;stroke-linecap:butt;stroke-linejoin:miter;stroke-opacity:1" d="M 807.749,400.145 817.571,413.241 z" id="boundary" inkscape:connector-curvature="0" />
	<path style="fill:none;stroke:red;stroke-width:1px;stroke-linecap:butt;stroke-linejoin:miter;stroke-opacity:1" d="M 807.749,627.683 822.482,619.498 z" id="boundary" inkscape:connector-curvature="0" />
	<path style="fill:none;stroke:red;stroke-width:1px;stroke-linecap:butt;stroke-linejoin:miter;stroke-opacity:1" d="M 814.297,753.729 822.482,737.36 z" id="boundary" inkscape:connector-curvature="0" />
	<path style="fill:none;stroke:red;stroke-width:1px;stroke-linecap:butt;stroke-linejoin:miter;stroke-opacity:1" d="M 814.297,793.017 822.482,807.749 z" id="boundary" inkscape:connector-curvature="0" />
	<path style="fill:none;stroke:red;stroke-width:1px;stroke-linecap:butt;stroke-linejoin:miter;stroke-opacity:1" d="M 817.571,413.241 830.667,424.7 z" id="boundary" inkscape:connector-curvature="0" />
	<path style="fill:none;stroke:red;stroke-width:1px;stroke-linecap:butt;stroke-linejoin:miter;stroke-opacity:1" d="M 822.482,647.327 822.482,663.696 z" id="boundary" inkscape:connector-curvature="0" />
	<path style="fill:none;stroke:red;stroke-width:1px;stroke-linecap:butt;stroke-linejoin:miter;stroke-opacity:1" d="M 822.482,663.696 830.667,678.429 z" id="boundary" inkscape:connector-curvature="0" />
	<path style="fill:none;stroke:red;stroke-width:1px;stroke-linecap:butt;stroke-linejoin:miter;stroke-opacity:1" d="M 822.482,737.36 830.667,711.168 z" id="boundary" inkscape:connector-curvature="0" />
	<path style="fill:none;stroke:red;stroke-width:1px;stroke-linecap:butt;stroke-linejoin:miter;stroke-opacity:1" d="M 822.482,807.749 830.667,822.482 z" id="boundary" inkscape:connector-curvature="0" />
	<path style="fill:none;stroke:red;stroke-width:1px;stroke-linecap:butt;stroke-linejoin:miter;stroke-opacity:1" d="M 830.667,424.7 837.215,441.069 z" id="boundary" inkscape:connector-curvature="0" />
	<path style="fill:none;stroke:red;stroke-width:1px;stroke-linecap:butt;stroke-linejoin:miter;stroke-opacity:1" d="M 830.667,678.429 830.667,694.799 z" id="boundary" inkscape:connector-curvature="0" />
	<path style="fill:none;stroke:red;stroke-width:1px;stroke-linecap:butt;stroke-linejoin:miter;stroke-opacity:1" d="M 830.667,694.799 830.667,711.168 z" id="boundary" inkscape:connector-curvature="0" />
	<path style="fill:none;stroke:red;stroke-width:1px;stroke-linecap:butt;stroke-linejoin:miter;stroke-opacity:1" d="M 830.667,822.482 840.488,835.578 z" id="boundary" inkscape:connector-curvature="0" />
	<path style="fill:none;stroke:red;stroke-width:1px;stroke-linecap:butt;stroke-linejoin:miter;stroke-opacity:1" d="M 837.215,441.069 840.488,457.439 z" id="boundary" inkscape:connector-curvature="0" />
	<path style="fill:none;stroke:red;stroke-width:1px;stroke-linecap:butt;stroke-linejoin:miter;stroke-opacity:1" d="M 840.488,457.439 848.673,472.172 z" id="boundary" inkscape:connector-curvature="0" />
	<path style="fill:none;stroke:red;stroke-width:1px;stroke-linecap:butt;stroke-linejoin:miter;stroke-opacity:1" d="M 840.488,835.578 856.858,840.488 z" id="boundary" inkscape:connector-curvature="0" />
	<path style="fill:none;stroke:red;stroke-width:1px;stroke-linecap:butt;stroke-linejoin:miter;stroke-opacity:1" d="M 848.673,472.172 856.858,486.904 z" id="boundary" inkscape:connector-curvature="0" />
	<path style="fill:none;stroke:red;stroke-width:1px;stroke-linecap:butt;stroke-linejoin:miter;stroke-opacity:1" d="M 856.858,486.904 856.858,503.274 z" id="boundary" inkscape:connector-curvature="0" />
	<path style="fill:none;stroke:red;stroke-width:1px;stroke-linecap:butt;stroke-linejoin:miter;stroke-opacity:1" d="M 856.858,503.274 856.858,529.465 z" id="boundary" inkscape:connector-curvature="0" />
	<path style="fill:none;stroke:red;stroke-width:1px;stroke-linecap:butt;stroke-linejoin:miter;stroke-opacity:1" d="M 856.858,529.465 865.043,544.198 z" id="boundary" inkscape:connector-curvature="0" />
	<path style="fill:none;stroke:red;stroke-width:1px;stroke-linecap:butt;stroke-linejoin:miter;stroke-opacity:1" d="M 856.858,594.944 865.043,576.937 z" id="boundary" inkscape:connector-curvature="0" />
	<path style="fill:none;stroke:red;stroke-width:1px;stroke-linecap:butt;stroke-linejoin:miter;stroke-opacity:1" d="M 856.858,594.944 865.043,609.677 z" id="boundary" inkscape:connector-curvature="0" />
	<path style="fill:none;stroke:red;stroke-width:1px;stroke-linecap:butt;stroke-linejoin:miter;stroke-opacity:1" d="M 856.858,644.053 856.858,660.422 z" id="boundary" inkscape:connector-curvature="0" />
	<path style="fill:none;stroke:red;stroke-width:1px;stroke-linecap:butt;stroke-linejoin:miter;stroke-opacity:1" d="M 856.858,644.053 865.043,626.046 z" id="boundary" inkscape:connector-curvature="0" />
	<path style="fill:none;stroke:red;stroke-width:1px;stroke-linecap:butt;stroke-linejoin:miter;stroke-opacity:1" d="M 856.858,660.422 856.858,684.977 z" id="boundary" inkscape:connector-curvature="0" />
	<path style="fill:none;stroke:red;stroke-width:1px;stroke-linecap:butt;stroke-linejoin:miter;stroke-opacity:1" d="M 856.858,684.977 860.132,701.347 z" id="boundary" inkscape:connector-curvature="0" />
	<path style="fill:none;stroke:red;stroke-width:1px;stroke-linecap:butt;stroke-linejoin:miter;stroke-opacity:1" d="M 856.858,840.488 873.228,832.304 z" id="boundary" inkscape:connector-curvature="0" />
	<path style="fill:none;stroke:red;stroke-width:1px;stroke-linecap:butt;stroke-linejoin:miter;stroke-opacity:1" d="M 860.132,701.347 865.043,717.716 z" id="boundary" inkscape:connector-curvature="0" />
	<path style="fill:none;stroke:red;stroke-width:1px;stroke-linecap:butt;stroke-linejoin:miter;stroke-opacity:1" d="M 865.043,544.198 865.043,560.568 z" id="boundary" inkscape:connector-curvature="0" />
	<path style="fill:none;stroke:red;stroke-width:1px;stroke-linecap:butt;stroke-linejoin:miter;stroke-opacity:1" d="M 865.043,560.568 865.043,576.937 z" id="boundary" inkscape:connector-curvature="0" />
	<path style="fill:none;stroke:red;stroke-width:1px;stroke-linecap:butt;stroke-linejoin:miter;stroke-opacity:1" d="M 865.043,609.677 865.043,626.046 z" id="boundary" inkscape:connector-curvature="0" />
	<path style="fill:none;stroke:red;stroke-width:1px;stroke-linecap:butt;stroke-linejoin:miter;stroke-opacity:1" d="M 865.043,717.716 868.317,734.086 z" id="boundary" inkscape:connector-curvature="0" />
	<path style="fill:none;stroke:red;stroke-width:1px;stroke-linecap:butt;stroke-linejoin:miter;stroke-opacity:1" d="M 868.317,734.086 881.413,745.545 z" id="boundary" inkscape:connector-curvature="0" />
	<path style="fill:none;stroke:red;stroke-width:1px;stroke-linecap:butt;stroke-linejoin:miter;stroke-opacity:1" d="M 873.228,832.304 881.413,807.749 z" id="boundary" inkscape:connector-curvature="0" />
	<path style="fill:none;stroke:red;stroke-width:1px;stroke-linecap:butt;stroke-linejoin:miter;stroke-opacity:1" d="M 881.413,745.545 881.413,775.01 z" id="boundary" inkscape:connector-curvature="0" />
	<path style="fill:none;stroke:red;stroke-width:1px;stroke-linecap:butt;stroke-linejoin:miter;stroke-opacity:1" d="M 881.413,775.01 881.413,791.38 z" id="boundary" inkscape:connector-curvature="0" />
	<path style="fill:none;stroke:red;stroke-width:1px;stroke-linecap:butt;stroke-linejoin:miter;stroke-opacity:1" d="M 881.413,791.38 881.413,807.749 z" id="boundary" inkscape:connector-curvature="0" />
	<circle cx="4" cy="221.716" r="4" fill="#0" id="circle0"/>
	<circle cx="4" cy="238.086" r="4" fill="#0" id="circle1"/>
	<circle cx="4" cy="254.455" r="4" fill="#0" id="circle2"/>
	<circle cx="4" cy="270.825" r="4" fill="#0" id="circle3"/>
	<circle cx="17.0957" cy="282.284" r="4" fill="#0" id="circle4"/>
	<circle cx="20.3696" cy="205.347" r="4" fill="#0" id="circle5"/>
	<circle cx="20.3696" cy="298.653" r="4" fill="#0" id="circle6"/>
	<circle cx="23.6436" cy="315.023" r="4" fill="#0" id="circle7"/>
	<circle cx="33.4653" cy="192.251" r="4" fill="#0" id="circle8"/>
	<circle cx="36.7393" cy="324.845" r="4" fill="#0" id="circle9"/>
	<circle cx="41.6502" cy="175.881" r="4" fill="#0" id="circle10"/>
	<circle cx="51.4719" cy="333.03" r="4" fill="#0" id="circle11"/>
	<circle cx="56.3828" cy="167.696" r="4" fill="#0" id="circle12"/>
	<circle cx="61.2937" cy="540.924" r="4" fill="#0" id="circle13"/>
	<circle cx="61.2937" cy="557.294" r="4" fill="#0" id="circle14"/>
	<circle cx="64.5677" cy="152.964" r="4" fill="#0" id="circle15"/>
	<circle cx="67.8416" cy="333.03" r="4" fill="#0" id="circle16"/>
	<circle cx="69.4785" cy="516.37" r="4" fill="#0" id="circle17"/>
	<circle cx="74.3894" cy="568.752" r="4" fill="#0" id="circle18"/>
	<circle cx="77.6634" cy="467.261" r="4" fill="#0" id="circle19"/>
	<circle cx="77.6634" cy="483.63" r="4" fill="#0" id="circle20"/>
	<circle cx="77.6634" cy="500" r="4" fill="#0" id="circle21"/>
	<circle cx="80.9373" cy="151.327" r="4" fill="#0" id="circle22"/>
	<circle cx="80.9373" cy="585.122" r="4" fill="#0" id="circle23"/>
	<circle cx="82.5743" cy="324.845" r="4" fill="#0" id="circle24"/>
	<circle cx="85.8482" cy="401.782" r="4" fill="#0" id="circle25"/>
	<circle cx="85.8482" cy="450.891" r="4" fill="#0" id="circle26"/>
	<circle cx="85.8482" cy="614.587" r="4" fill="#0" id="circle27"/>
	<circle cx="94.033" cy="416.515" r="4" fill="#0" id="circle28"/>
	<circle cx="94.033" cy="594.944" r="4" fill="#0" id="circle29"/>
	<circle cx="94.033" cy="629.32" r="4" fill="#0" id="circle30"/>
	<circle cx="95.67" cy="143.142" r="4" fill="#0" id="circle31"/>
	<circle cx="97.3069" cy="333.03" r="4" fill="#0" id="circle32"/>
	<circle cx="98.9439" cy="388.686" r="4" fill="#0" id="circle33"/>
	<circle cx="102.218" cy="431.248" r="4" fill="#0" id="circle34"/>
	<circle cx="102.218" cy="644.053" r="4" fill="#0" id="circle35"/>
	<circle cx="110.403" cy="134.957" r="4" fill="#0" id="circle36"/>
	<circle cx="110.403" cy="319.934" r="4" fill="#0" id="circle37"/>
	<circle cx="110.403" cy="369.043" r="4" fill="#0" id="circle38"/>
	<circle cx="110.403" cy="658.785" r="4" fill="#0" id="circle39"/>
	<circle cx="118.587" cy="344.488" r="4" fill="#0" id="circle40"/>
	<circle cx="120.224" cy="121.861" r="4" fill="#0" id="circle41"/>
	<circle cx="120.224" cy="300.29" r="4" fill="#0" id="circle42"/>
	<circle cx="123.498" cy="668.607" r="4" fill="#0" id="circle43"/>
	<circle cx="126.772" cy="328.119" r="4" fill="#0" id="circle44"/>
	<circle cx="126.772" cy="684.977" r="4" fill="#0" id="circle45"/>
	<circle cx="133.32" cy="110.403" r="4" fill="#0" id="circle46"/>
	<circle cx="134.957" cy="308.475" r="4" fill="#0" id="circle47"/>
	<circle cx="136.594" cy="698.073" r="4" fill="#0" id="circle48"/>
	<circle cx="144.779" cy="97.3069" r="4" fill="#0" id="circle49"/>
	<circle cx="149.69" cy="709.531" r="4" fill="#0" id="circle50"/>
	<circle cx="152.964" cy="80.9373" r="4" fill="#0" id="circle51"/>
	<circle cx="161.149" cy="722.627" r="4" fill="#0" id="circle52"/>
	<circle cx="167.696" cy="66.2046" r="4" fill="#0" id="circle53"/>
	<circle cx="175.881" cy="925.611" r="4" fill="#0" id="circle54"/>
	<circle cx="177.518" cy="725.901" r="4" fill="#0" id="circle55"/>
	<circle cx="184.066" cy="58.0198" r="4" fill="#0" id="circle56"/>
	<circle cx="184.066" cy="940.343" r="4" fill="#0" id="circle57"/>
	<circle cx="188.977" cy="912.515" r="4" fill="#0" id="circle58"/>
	<circle cx="192.251" cy="734.086" r="4" fill="#0" id="circle59"/>
	<circle cx="192.251" cy="955.076" r="4" fill="#0" id="circle60"/>
	<circle cx="200.436" cy="49.835" r="4" fill="#0" id="circle61"/>
	<circle cx="202.073" cy="747.182" r="4" fill="#0" id="circle62"/>
	<circle cx="203.71" cy="904.33" r="4" fill="#0" id="circle63"/>
	<circle cx="206.983" cy="963.261" r="4" fill="#0" id="circle64"/>
	<circle cx="215.168" cy="758.64" r="4" fill="#0" id="circle65"/>
	<circle cx="216.805" cy="41.6502" r="4" fill="#0" id="circle66"/>
	<circle cx="220.079" cy="904.33" r="4" fill="#0" id="circle67"/>
	<circle cx="223.353" cy="963.261" r="4" fill="#0" id="circle68"/>
	<circle cx="224.99" cy="25.2805" r="4" fill="#0" id="circle69"/>
	<circle cx="231.538" cy="758.64" r="4" fill="#0" id="circle70"/>
	<circle cx="236.449" cy="897.782" r="4" fill="#0" id="circle71"/>
	<circle cx="238.086" cy="12.1848" r="4" fill="#0" id="circle72"/>
	<circle cx="238.086" cy="971.446" r="4" fill="#0" id="circle73"/>
	<circle cx="247.908" cy="758.64" r="4" fill="#0" id="circle74"/>
	<circle cx="249.545" cy="884.686" r="4" fill="#0" id="circle75"/>
	<circle cx="254.455" cy="4" r="4" fill="#0" id="circle76"/>
	<circle cx="254.455" cy="971.446" r="4" fill="#0" id="circle77"/>
	<circle cx="262.64" cy="750.455" r="4" fill="#0" id="circle78"/>
	<circle cx="265.914" cy="876.502" r="4" fill="#0" id="circle79"/>
	<circle cx="267.551" cy="982.904" r="4" fill="#0" id="circle80"/>
	<circle cx="270.825" cy="4" r="4" fill="#0" id="circle81"/>
	<circle cx="275.736" cy="761.914" r="4" fill="#0" id="circle82"/>
	<circle cx="279.01" cy="863.406" r="4" fill="#0" id="circle83"/>
	<circle cx="279.01" cy="996" r="4" fill="#0" id="circle84"/>
	<circle cx="282.284" cy="778.284" r="4" fill="#0" id="circle85"/>
	<circle cx="282.284" cy="794.653" r="4" fill="#0" id="circle86"/>
	<circle cx="282.284" cy="811.023" r="4" fill="#0" id="circle87"/>
	<circle cx="282.284" cy="835.578" r="4" fill="#0" id="circle88"/>
	<circle cx="287.195" cy="4" r="4" fill="#0" id="circle89"/>
	<circle cx="295.38" cy="996" r="4" fill="#0" id="circle90"/>
	<circle cx="301.927" cy="12.1848" r="4" fill="#0" id="circle91"/>
	<circle cx="311.749" cy="996" r="4" fill="#0" id="circle92"/>
	<circle cx="315.023" cy="23.6436" r="4" fill="#0" id="circle93"/>
	<circle cx="321.571" cy="40.0132" r="4" fill="#0" id="circle94"/>
	<circle cx="324.845" cy="56.3828" r="4" fill="#0" id="circle95"/>
	<circle cx="324.845" cy="349.399" r="4" fill="#0" id="circle96"/>
	<circle cx="324.845" cy="365.769" r="4" fill="#0" id="circle97"/>
	<circle cx="328.119" cy="382.139" r="4" fill="#0" id="circle98"/>
	<circle cx="328.119" cy="994.363" r="4" fill="#0" id="circle99"/>
	<circle cx="329.756" cy="72.7525" r="4" fill="#0" id="circle100"/>
	<circle cx="341.215" cy="333.03" r="4" fill="#0" id="circle101"/>
	<circle cx="344.488" cy="388.686" r="4" fill="#0" id="circle102"/>
	<circle cx="344.488" cy="994.363" r="4" fill="#0" id="circle103"/>
	<circle cx="346.125" cy="79.3003" r="4" fill="#0" id="circle104"/>
	<circle cx="349.399" cy="95.67" r="4" fill="#0" id="circle105"/>
	<circle cx="349.399" cy="308.475" r="4" fill="#0" id="circle106"/>
	<circle cx="357.584" cy="110.403" r="4" fill="#0" id="circle107"/>
	<circle cx="357.584" cy="292.106" r="4" fill="#0" id="circle108"/>
	<circle cx="357.584" cy="375.591" r="4" fill="#0" id="circle109"/>
	<circle cx="360.858" cy="987.815" r="4" fill="#0" id="circle110"/>
	<circle cx="365.769" cy="275.736" r="4" fill="#0" id="circle111"/>
	<circle cx="365.769" cy="359.221" r="4" fill="#0" id="circle112"/>
	<circle cx="373.954" cy="115.314" r="4" fill="#0" id="circle113"/>
	<circle cx="373.954" cy="131.683" r="4" fill="#0" id="circle114"/>
	<circle cx="373.954" cy="148.053" r="4" fill="#0" id="circle115"/>
	<circle cx="373.954" cy="169.333" r="4" fill="#0" id="circle116"/>
	<circle cx="373.954" cy="193.888" r="4" fill="#0" id="circle117"/>
	<circle cx="373.954" cy="226.627" r="4" fill="#0" id="circle118"/>
	<circle cx="373.954" cy="242.997" r="4" fill="#0" id="circle119"/>
	<circle cx="373.954" cy="342.851" r="4" fill="#0" id="circle120"/>
	<circle cx="373.954" cy="766.825" r="4" fill="#0" id="circle121"/>
	<circle cx="373.954" cy="791.38" r="4" fill="#0" id="circle122"/>
	<circle cx="373.954" cy="807.749" r="4" fill="#0" id="circle123"/>
	<circle cx="373.954" cy="824.119" r="4" fill="#0" id="circle124"/>
	<circle cx="373.954" cy="856.858" r="4" fill="#0" id="circle125"/>
	<circle cx="375.591" cy="979.63" r="4" fill="#0" id="circle126"/>
	<circle cx="377.228" cy="210.257" r="4" fill="#0" id="circle127"/>
	<circle cx="377.228" cy="259.366" r="4" fill="#0" id="circle128"/>
	<circle cx="382.139" cy="717.716" r="4" fill="#0" id="circle129"/>
	<circle cx="382.139" cy="734.086" r="4" fill="#0" id="circle130"/>
	<circle cx="382.139" cy="750.455" r="4" fill="#0" id="circle131"/>
	<circle cx="382.139" cy="838.851" r="4" fill="#0" id="circle132"/>
	<circle cx="382.139" cy="871.591" r="4" fill="#0" id="circle133"/>
	<circle cx="382.139" cy="887.96" r="4" fill="#0" id="circle134"/>
	<circle cx="387.05" cy="331.393" r="4" fill="#0" id="circle135"/>
	<circle cx="390.323" cy="902.693" r="4" fill="#0" id="circle136"/>
	<circle cx="390.323" cy="922.337" r="4" fill="#0" id="circle137"/>
	<circle cx="390.323" cy="971.446" r="4" fill="#0" id="circle138"/>
	<circle cx="393.597" cy="315.023" r="4" fill="#0" id="circle139"/>
	<circle cx="396.871" cy="709.531" r="4" fill="#0" id="circle140"/>
	<circle cx="398.508" cy="937.069" r="4" fill="#0" id="circle141"/>
	<circle cx="398.508" cy="953.439" r="4" fill="#0" id="circle142"/>
	<circle cx="401.782" cy="298.653" r="4" fill="#0" id="circle143"/>
	<circle cx="411.604" cy="717.716" r="4" fill="#0" id="circle144"/>
	<circle cx="413.241" cy="270.825" r="4" fill="#0" id="circle145"/>
	<circle cx="421.426" cy="254.455" r="4" fill="#0" id="circle146"/>
	<circle cx="426.337" cy="725.901" r="4" fill="#0" id="circle147"/>
	<circle cx="434.521" cy="241.36" r="4" fill="#0" id="circle148"/>
	<circle cx="442.706" cy="224.99" r="4" fill="#0" id="circle149"/>
	<circle cx="442.706" cy="732.449" r="4" fill="#0" id="circle150"/>
	<circle cx="455.802" cy="211.894" r="4" fill="#0" id="circle151"/>
	<circle cx="457.439" cy="740.634" r="4" fill="#0" id="circle152"/>
	<circle cx="468.898" cy="200.436" r="4" fill="#0" id="circle153"/>
	<circle cx="473.809" cy="738.997" r="4" fill="#0" id="circle154"/>
	<circle cx="483.63" cy="192.251" r="4" fill="#0" id="circle155"/>
	<circle cx="490.178" cy="742.271" r="4" fill="#0" id="circle156"/>
	<circle cx="498.363" cy="184.066" r="4" fill="#0" id="circle157"/>
	<circle cx="506.548" cy="747.182" r="4" fill="#0" id="circle158"/>
	<circle cx="511.459" cy="909.241" r="4" fill="#0" id="circle159"/>
	<circle cx="511.459" cy="925.611" r="4" fill="#0" id="circle160"/>
	<circle cx="511.459" cy="941.98" r="4" fill="#0" id="circle161"/>
	<circle cx="514.733" cy="184.066" r="4" fill="#0" id="circle162"/>
	<circle cx="522.917" cy="750.455" r="4" fill="#0" id="circle163"/>
	<circle cx="524.554" cy="896.145" r="4" fill="#0" id="circle164"/>
	<circle cx="527.828" cy="946.891" r="4" fill="#0" id="circle165"/>
	<circle cx="531.102" cy="184.066" r="4" fill="#0" id="circle166"/>
	<circle cx="537.65" cy="959.987" r="4" fill="#0" id="circle167"/>
	<circle cx="539.287" cy="750.455" r="4" fill="#0" id="circle168"/>
	<circle cx="540.924" cy="887.96" r="4" fill="#0" id="circle169"/>
	<circle cx="545.835" cy="192.251" r="4" fill="#0" id="circle170"/>
	<circle cx="552.383" cy="868.317" r="4" fill="#0" id="circle171"/>
	<circle cx="554.02" cy="955.076" r="4" fill="#0" id="circle172"/>
	<circle cx="555.657" cy="750.455" r="4" fill="#0" id="circle173"/>
	<circle cx="562.205" cy="197.162" r="4" fill="#0" id="circle174"/>
	<circle cx="565.479" cy="855.221" r="4" fill="#0" id="circle175"/>
	<circle cx="568.752" cy="963.261" r="4" fill="#0" id="circle176"/>
	<circle cx="570.389" cy="742.271" r="4" fill="#0" id="circle177"/>
	<circle cx="573.663" cy="838.851" r="4" fill="#0" id="circle178"/>
	<circle cx="576.937" cy="205.347" r="4" fill="#0" id="circle179"/>
	<circle cx="576.937" cy="758.64" r="4" fill="#0" id="circle180"/>
	<circle cx="576.937" cy="778.284" r="4" fill="#0" id="circle181"/>
	<circle cx="576.937" cy="794.653" r="4" fill="#0" id="circle182"/>
	<circle cx="576.937" cy="811.023" r="4" fill="#0" id="circle183"/>
	<circle cx="583.485" cy="955.076" r="4" fill="#0" id="circle184"/>
	<circle cx="585.122" cy="220.079" r="4" fill="#0" id="circle185"/>
	<circle cx="591.67" cy="236.449" r="4" fill="#0" id="circle186"/>
	<circle cx="594.944" cy="968.172" r="4" fill="#0" id="circle187"/>
	<circle cx="599.855" cy="251.182" r="4" fill="#0" id="circle188"/>
	<circle cx="603.129" cy="275.736" r="4" fill="#0" id="circle189"/>
	<circle cx="603.129" cy="300.29" r="4" fill="#0" id="circle190"/>
	<circle cx="603.129" cy="316.66" r="4" fill="#0" id="circle191"/>
	<circle cx="603.129" cy="333.03" r="4" fill="#0" id="circle192"/>
	<circle cx="611.314" cy="971.446" r="4" fill="#0" id="circle193"/>
	<circle cx="619.498" cy="339.578" r="4" fill="#0" id="circle194"/>
	<circle cx="627.683" cy="971.446" r="4" fill="#0" id="circle195"/>
	<circle cx="629.32" cy="324.845" r="4" fill="#0" id="circle196"/>
	<circle cx="637.505" cy="308.475" r="4" fill="#0" id="circle197"/>
	<circle cx="644.053" cy="971.446" r="4" fill="#0" id="circle198"/>
	<circle cx="650.601" cy="295.38" r="4" fill="#0" id="circle199"/>
	<circle cx="660.422" cy="971.446" r="4" fill="#0" id="circle200"/>
	<circle cx="666.97" cy="287.195" r="4" fill="#0" id="circle201"/>
	<circle cx="676.792" cy="963.261" r="4" fill="#0" id="circle202"/>
	<circle cx="683.34" cy="279.01" r="4" fill="#0" id="circle203"/>
	<circle cx="693.162" cy="963.261" r="4" fill="#0" id="circle204"/>
	<circle cx="696.436" cy="265.914" r="4" fill="#0" id="circle205"/>
	<circle cx="701.347" cy="775.01" r="4" fill="#0" id="circle206"/>
	<circle cx="701.347" cy="791.38" r="4" fill="#0" id="circle207"/>
	<circle cx="701.347" cy="807.749" r="4" fill="#0" id="circle208"/>
	<circle cx="701.347" cy="824.119" r="4" fill="#0" id="circle209"/>
	<circle cx="701.347" cy="840.488" r="4" fill="#0" id="circle210"/>
	<circle cx="701.347" cy="856.858" r="4" fill="#0" id="circle211"/>
	<circle cx="701.347" cy="873.228" r="4" fill="#0" id="circle212"/>
	<circle cx="709.531" cy="887.96" r="4" fill="#0" id="circle213"/>
	<circle cx="709.531" cy="904.33" r="4" fill="#0" id="circle214"/>
	<circle cx="709.531" cy="946.891" r="4" fill="#0" id="circle215"/>
	<circle cx="712.805" cy="265.914" r="4" fill="#0" id="circle216"/>
	<circle cx="714.442" cy="763.551" r="4" fill="#0" id="circle217"/>
	<circle cx="717.716" cy="919.063" r="4" fill="#0" id="circle218"/>
	<circle cx="722.627" cy="747.182" r="4" fill="#0" id="circle219"/>
	<circle cx="727.538" cy="274.099" r="4" fill="#0" id="circle220"/>
	<circle cx="730.812" cy="730.812" r="4" fill="#0" id="circle221"/>
	<circle cx="740.634" cy="285.558" r="4" fill="#0" id="circle222"/>
	<circle cx="742.271" cy="717.716" r="4" fill="#0" id="circle223"/>
	<circle cx="750.455" cy="298.653" r="4" fill="#0" id="circle224"/>
	<circle cx="755.366" cy="706.257" r="4" fill="#0" id="circle225"/>
	<circle cx="758.64" cy="313.386" r="4" fill="#0" id="circle226"/>
	<circle cx="766.825" cy="684.977" r="4" fill="#0" id="circle227"/>
	<circle cx="771.736" cy="324.845" r="4" fill="#0" id="circle228"/>
	<circle cx="778.284" cy="341.215" r="4" fill="#0" id="circle229"/>
	<circle cx="779.921" cy="673.518" r="4" fill="#0" id="circle230"/>
	<circle cx="786.469" cy="355.947" r="4" fill="#0" id="circle231"/>
	<circle cx="791.38" cy="660.422" r="4" fill="#0" id="circle232"/>
	<circle cx="797.927" cy="369.043" r="4" fill="#0" id="circle233"/>
	<circle cx="799.564" cy="644.053" r="4" fill="#0" id="circle234"/>
	<circle cx="806.112" cy="383.776" r="4" fill="#0" id="circle235"/>
	<circle cx="806.112" cy="778.284" r="4" fill="#0" id="circle236"/>
	<circle cx="807.749" cy="400.145" r="4" fill="#0" id="circle237"/>
	<circle cx="807.749" cy="627.683" r="4" fill="#0" id="circle238"/>
	<circle cx="814.297" cy="753.729" r="4" fill="#0" id="circle239"/>
	<circle cx="814.297" cy="793.017" r="4" fill="#0" id="circle240"/>
	<circle cx="817.571" cy="413.241" r="4" fill="#0" id="circle241"/>
	<circle cx="822.482" cy="619.498" r="4" fill="#0" id="circle242"/>
	<circle cx="822.482" cy="647.327" r="4" fill="#0" id="circle243"/>
	<circle cx="822.482" cy="663.696" r="4" fill="#0" id="circle244"/>
	<circle cx="822.482" cy="737.36" r="4" fill="#0" id="circle245"/>
	<circle cx="822.482" cy="807.749" r="4" fill="#0" id="circle246"/>
	<circle cx="830.667" cy="424.7" r="4" fill="#0" id="circle247"/>
	<circle cx="830.667" cy="678.429" r="4" fill="#0" id="circle248"/>
	<circle cx="830.667" cy="694.799" r="4" fill="#0" id="circle249"/>
	<circle cx="830.667" cy="711.168" r="4" fill="#0" id="circle250"/>
	<circle cx="830.667" cy="822.482" r="4" fill="#0" id="circle251"/>
	<circle cx="837.215" cy="441.069" r="4" fill="#0" id="circle252"/>
	<circle cx="840.488" cy="457.439" r="4" fill="#0" id="circle253"/>
	<circle cx="840.488" cy="835.578" r="4" fill="#0" id="circle254"/>
	<circle cx="848.673" cy="472.172" r="4" fill="#0" id="circle255"/>
	<circle cx="856.858" cy="486.904" r="4" fill="#0" id="circle256"/>
	<circle cx="856.858" cy="503.274" r="4" fill="#0" id="circle257"/>
	<circle cx="856.858" cy="529.465" r="4" fill="#0" id="circle258"/>
	<circle cx="856.858" cy="594.944" r="4" fill="#0" id="circle259"/>
	<circle cx="856.858" cy="644.053" r="4" fill="#0" id="circle260"/>
	<circle cx="856.858" cy="660.422" r="4" fill="#0" id="circle261"/>
	<circle cx="856.858" cy="684.977" r="4" fill="#0" id="circle262"/>
	<circle cx="856.858" cy="840.488" r="4" fill="#0" id="circle263"/>
	<circle cx="860.132" cy="701.347" r="4" fill="#0" id="circle264"/>
	<circle cx="865.043" cy="544.198" r="4" fill="#0" id="circle265"/>
	<circle cx="865.043" cy="560.568" r="4" fill="#0" id="circle266"/>
	<circle cx="865.043" cy="576.937" r="4" fill="#0" id="circle267"/>
	<circle cx="865.043" cy="609.677" r="4" fill="#0" id="circle268"/>
	<circle cx="865.043" cy="626.046" r="4" fill="#0" id="circle269"/>
	<circle cx="865.043" cy="717.716" r="4" fill="#0" id="circle270"/>
	<circle cx="868.317" cy="734.086" r="4" fill="#0" id="circle271"/>
	<circle cx="873.228" cy="832.304" r="4" fill="#0" id="circle272"/>
	<circle cx="881.413" cy="745.545" r="4" fill="#0" id="circle273"/>
	<circle cx="881.413" cy="775.01" r="4" fill="#0" id="circle274"/>
	<circle cx="881.413" cy="791.38" r="4" fill="#0" id="circle275"/>
	<circle cx="881.413" cy="807.749" r="4" fill="#0" id="circle276"/>
	</g>
</svg>