<?xml version="1.0" encoding="UTF-8" standalone="no"?>
<!-- Created with CurveBenchmark -->
<svg
	xmlns:dc="http://purl.org/dc/elements/1.1/"
	xmlns:cc="http://creativecommons.org/ns#"
	xmlns:rdf="http://www.w3.org/1999/02/22-rdf-syntax-ns#"
	xmlns:svg="http://www.w3.org/2000/svg"
	xmlns="http://www.w3.org/2000/svg"
	xmlns:sodipodi="http://sodipodi.sourceforge.net/DTD/sodipodi-0.dtd"
	xmlns:inkscape="http://www.inkscape.org/namespaces/inkscape"
	width="1000"
	height="1000"
	id="svg2"
	version="1.1"
	sodipodi:docname="manifold/hnncrust-guitar210.png.txt">
<defs
	id="defs4" />
<metadata
	id="metadata7">
	<rdf:RDF>
		<cc:Work
			rdf:about="">
			<dc:format>image/svg+xml</dc:format>
			<dc:type
				rdf:resource="http://purl.org/dc/dcmitype/StillImage" />
			<dc:title></dc:title>
		</cc:Work>
	</rdf:RDF>
</metadata>
<g
	inkscape:label="Layer 1"
	inkscape:groupmode="layer"
	id="layer1">
	<path style="fill:none;stroke:red;stroke-width:1px;stroke-linecap:butt;stroke-linejoin:miter;stroke-opacity:1" d="M 4,814.667 4,850.222 z" id="boundary" inkscape:connector-curvature="0" />
	<path style="fill:none;stroke:red;stroke-width:1px;stroke-linecap:butt;stroke-linejoin:miter;stroke-opacity:1" d="M 4,814.667 18.2222,772 z" id="boundary" inkscape:connector-curvature="0" />
	<path style="fill:none;stroke:red;stroke-width:1px;stroke-linecap:butt;stroke-linejoin:miter;stroke-opacity:1" d="M 4,850.222 11.1111,885.778 z" id="boundary" inkscape:connector-curvature="0" />
	<path style="fill:none;stroke:red;stroke-width:1px;stroke-linecap:butt;stroke-linejoin:miter;stroke-opacity:1" d="M 11.1111,885.778 25.3333,921.333 z" id="boundary" inkscape:connector-curvature="0" />
	<path style="fill:none;stroke:red;stroke-width:1px;stroke-linecap:butt;stroke-linejoin:miter;stroke-opacity:1" d="M 18.2222,772 36,740 z" id="boundary" inkscape:connector-curvature="0" />
	<path style="fill:none;stroke:red;stroke-width:1px;stroke-linecap:butt;stroke-linejoin:miter;stroke-opacity:1" d="M 25.3333,921.333 50.2222,949.778 z" id="boundary" inkscape:connector-curvature="0" />
	<path style="fill:none;stroke:red;stroke-width:1px;stroke-linecap:butt;stroke-linejoin:miter;stroke-opacity:1" d="M 36,740 53.7778,700.889 z" id="boundary" inkscape:connector-curvature="0" />
	<path style="fill:none;stroke:red;stroke-width:1px;stroke-linecap:butt;stroke-linejoin:miter;stroke-opacity:1" d="M 39.5556,565.778 43.1111,601.333 z" id="boundary" inkscape:connector-curvature="0" />
	<path style="fill:none;stroke:red;stroke-width:1px;stroke-linecap:butt;stroke-linejoin:miter;stroke-opacity:1" d="M 39.5556,565.778 68,544.444 z" id="boundary" inkscape:connector-curvature="0" />
	<path style="fill:none;stroke:red;stroke-width:1px;stroke-linecap:butt;stroke-linejoin:miter;stroke-opacity:1" d="M 43.1111,601.333 53.7778,636.889 z" id="boundary" inkscape:connector-curvature="0" />
	<path style="fill:none;stroke:red;stroke-width:1px;stroke-linecap:butt;stroke-linejoin:miter;stroke-opacity:1" d="M 50.2222,949.778 78.6667,974.667 z" id="boundary" inkscape:connector-curvature="0" />
	<path style="fill:none;stroke:red;stroke-width:1px;stroke-linecap:butt;stroke-linejoin:miter;stroke-opacity:1" d="M 53.7778,636.889 53.7778,700.889 z" id="boundary" inkscape:connector-curvature="0" />
	<path style="fill:none;stroke:red;stroke-width:1px;stroke-linecap:butt;stroke-linejoin:miter;stroke-opacity:1" d="M 68,544.444 103.556,544.444 z" id="boundary" inkscape:connector-curvature="0" />
	<path style="fill:none;stroke:red;stroke-width:1px;stroke-linecap:butt;stroke-linejoin:miter;stroke-opacity:1" d="M 78.6667,974.667 114.222,988.889 z" id="boundary" inkscape:connector-curvature="0" />
	<path style="fill:none;stroke:red;stroke-width:1px;stroke-linecap:butt;stroke-linejoin:miter;stroke-opacity:1" d="M 103.556,544.444 132,565.778 z" id="boundary" inkscape:connector-curvature="0" />
	<path style="fill:none;stroke:red;stroke-width:1px;stroke-linecap:butt;stroke-linejoin:miter;stroke-opacity:1" d="M 114.222,988.889 149.778,996 z" id="boundary" inkscape:connector-curvature="0" />
	<path style="fill:none;stroke:red;stroke-width:1px;stroke-linecap:butt;stroke-linejoin:miter;stroke-opacity:1" d="M 132,565.778 146.222,523.111 z" id="boundary" inkscape:connector-curvature="0" />
	<path style="fill:none;stroke:red;stroke-width:1px;stroke-linecap:butt;stroke-linejoin:miter;stroke-opacity:1" d="M 139.111,96.4444 146.222,60.8889 z" id="boundary" inkscape:connector-curvature="0" />
	<path style="fill:none;stroke:red;stroke-width:1px;stroke-linecap:butt;stroke-linejoin:miter;stroke-opacity:1" d="M 139.111,96.4444 146.222,132 z" id="boundary" inkscape:connector-curvature="0" />
	<path style="fill:none;stroke:red;stroke-width:1px;stroke-linecap:butt;stroke-linejoin:miter;stroke-opacity:1" d="M 146.222,25.3333 146.222,60.8889 z" id="boundary" inkscape:connector-curvature="0" />
	<path style="fill:none;stroke:red;stroke-width:1px;stroke-linecap:butt;stroke-linejoin:miter;stroke-opacity:1" d="M 146.222,25.3333 174.667,4 z" id="boundary" inkscape:connector-curvature="0" />
	<path style="fill:none;stroke:red;stroke-width:1px;stroke-linecap:butt;stroke-linejoin:miter;stroke-opacity:1" d="M 146.222,132 146.222,167.556 z" id="boundary" inkscape:connector-curvature="0" />
	<path style="fill:none;stroke:red;stroke-width:1px;stroke-linecap:butt;stroke-linejoin:miter;stroke-opacity:1" d="M 146.222,167.556 146.222,203.111 z" id="boundary" inkscape:connector-curvature="0" />
	<path style="fill:none;stroke:red;stroke-width:1px;stroke-linecap:butt;stroke-linejoin:miter;stroke-opacity:1" d="M 146.222,203.111 146.222,238.667 z" id="boundary" inkscape:connector-curvature="0" />
	<path style="fill:none;stroke:red;stroke-width:1px;stroke-linecap:butt;stroke-linejoin:miter;stroke-opacity:1" d="M 146.222,238.667 146.222,274.222 z" id="boundary" inkscape:connector-curvature="0" />
	<path style="fill:none;stroke:red;stroke-width:1px;stroke-linecap:butt;stroke-linejoin:miter;stroke-opacity:1" d="M 146.222,274.222 146.222,309.778 z" id="boundary" inkscape:connector-curvature="0" />
	<path style="fill:none;stroke:red;stroke-width:1px;stroke-linecap:butt;stroke-linejoin:miter;stroke-opacity:1" d="M 146.222,309.778 146.222,345.333 z" id="boundary" inkscape:connector-curvature="0" />
	<path style="fill:none;stroke:red;stroke-width:1px;stroke-linecap:butt;stroke-linejoin:miter;stroke-opacity:1" d="M 146.222,345.333 146.222,380.889 z" id="boundary" inkscape:connector-curvature="0" />
	<path style="fill:none;stroke:red;stroke-width:1px;stroke-linecap:butt;stroke-linejoin:miter;stroke-opacity:1" d="M 146.222,380.889 146.222,416.444 z" id="boundary" inkscape:connector-curvature="0" />
	<path style="fill:none;stroke:red;stroke-width:1px;stroke-linecap:butt;stroke-linejoin:miter;stroke-opacity:1" d="M 146.222,416.444 146.222,452 z" id="boundary" inkscape:connector-curvature="0" />
	<path style="fill:none;stroke:red;stroke-width:1px;stroke-linecap:butt;stroke-linejoin:miter;stroke-opacity:1" d="M 146.222,452 146.222,487.556 z" id="boundary" inkscape:connector-curvature="0" />
	<path style="fill:none;stroke:red;stroke-width:1px;stroke-linecap:butt;stroke-linejoin:miter;stroke-opacity:1" d="M 146.222,487.556 146.222,523.111 z" id="boundary" inkscape:connector-curvature="0" />
	<path style="fill:none;stroke:red;stroke-width:1px;stroke-linecap:butt;stroke-linejoin:miter;stroke-opacity:1" d="M 149.778,996 185.333,996 z" id="boundary" inkscape:connector-curvature="0" />
	<path style="fill:none;stroke:red;stroke-width:1px;stroke-linecap:butt;stroke-linejoin:miter;stroke-opacity:1" d="M 174.667,4 210.222,4 z" id="boundary" inkscape:connector-curvature="0" />
	<path style="fill:none;stroke:red;stroke-width:1px;stroke-linecap:butt;stroke-linejoin:miter;stroke-opacity:1" d="M 185.333,996 220.889,996 z" id="boundary" inkscape:connector-curvature="0" />
	<path style="fill:none;stroke:red;stroke-width:1px;stroke-linecap:butt;stroke-linejoin:miter;stroke-opacity:1" d="M 192.444,132 192.444,167.556 z" id="boundary" inkscape:connector-curvature="0" />
	<path style="fill:none;stroke:red;stroke-width:1px;stroke-linecap:butt;stroke-linejoin:miter;stroke-opacity:1" d="M 192.444,167.556 199.556,203.111 z" id="boundary" inkscape:connector-curvature="0" />
	<path style="fill:none;stroke:red;stroke-width:1px;stroke-linecap:butt;stroke-linejoin:miter;stroke-opacity:1" d="M 199.556,203.111 199.556,238.667 z" id="boundary" inkscape:connector-curvature="0" />
	<path style="fill:none;stroke:red;stroke-width:1px;stroke-linecap:butt;stroke-linejoin:miter;stroke-opacity:1" d="M 199.556,238.667 199.556,274.222 z" id="boundary" inkscape:connector-curvature="0" />
	<path style="fill:none;stroke:red;stroke-width:1px;stroke-linecap:butt;stroke-linejoin:miter;stroke-opacity:1" d="M 199.556,274.222 199.556,309.778 z" id="boundary" inkscape:connector-curvature="0" />
	<path style="fill:none;stroke:red;stroke-width:1px;stroke-linecap:butt;stroke-linejoin:miter;stroke-opacity:1" d="M 199.556,309.778 199.556,345.333 z" id="boundary" inkscape:connector-curvature="0" />
	<path style="fill:none;stroke:red;stroke-width:1px;stroke-linecap:butt;stroke-linejoin:miter;stroke-opacity:1" d="M 199.556,345.333 199.556,380.889 z" id="boundary" inkscape:connector-curvature="0" />
	<path style="fill:none;stroke:red;stroke-width:1px;stroke-linecap:butt;stroke-linejoin:miter;stroke-opacity:1" d="M 199.556,380.889 199.556,416.444 z" id="boundary" inkscape:connector-curvature="0" />
	<path style="fill:none;stroke:red;stroke-width:1px;stroke-linecap:butt;stroke-linejoin:miter;stroke-opacity:1" d="M 199.556,416.444 199.556,452 z" id="boundary" inkscape:connector-curvature="0" />
	<path style="fill:none;stroke:red;stroke-width:1px;stroke-linecap:butt;stroke-linejoin:miter;stroke-opacity:1" d="M 199.556,452 220.889,480.444 z" id="boundary" inkscape:connector-curvature="0" />
	<path style="fill:none;stroke:red;stroke-width:1px;stroke-linecap:butt;stroke-linejoin:miter;stroke-opacity:1" d="M 210.222,4 213.778,39.5556 z" id="boundary" inkscape:connector-curvature="0" />
	<path style="fill:none;stroke:red;stroke-width:1px;stroke-linecap:butt;stroke-linejoin:miter;stroke-opacity:1" d="M 213.778,39.5556 213.778,75.1111 z" id="boundary" inkscape:connector-curvature="0" />
	<path style="fill:none;stroke:red;stroke-width:1px;stroke-linecap:butt;stroke-linejoin:miter;stroke-opacity:1" d="M 220.889,480.444 252.889,498.222 z" id="boundary" inkscape:connector-curvature="0" />
	<path style="fill:none;stroke:red;stroke-width:1px;stroke-linecap:butt;stroke-linejoin:miter;stroke-opacity:1" d="M 220.889,996 256.444,996 z" id="boundary" inkscape:connector-curvature="0" />
	<path style="fill:none;stroke:red;stroke-width:1px;stroke-linecap:butt;stroke-linejoin:miter;stroke-opacity:1" d="M 252.889,498.222 288.444,505.333 z" id="boundary" inkscape:connector-curvature="0" />
	<path style="fill:none;stroke:red;stroke-width:1px;stroke-linecap:butt;stroke-linejoin:miter;stroke-opacity:1" d="M 256.444,996 292,988.889 z" id="boundary" inkscape:connector-curvature="0" />
	<path style="fill:none;stroke:red;stroke-width:1px;stroke-linecap:butt;stroke-linejoin:miter;stroke-opacity:1" d="M 288.444,505.333 324,519.556 z" id="boundary" inkscape:connector-curvature="0" />
	<path style="fill:none;stroke:red;stroke-width:1px;stroke-linecap:butt;stroke-linejoin:miter;stroke-opacity:1" d="M 292,988.889 327.556,964 z" id="boundary" inkscape:connector-curvature="0" />
	<path style="fill:none;stroke:red;stroke-width:1px;stroke-linecap:butt;stroke-linejoin:miter;stroke-opacity:1" d="M 324,519.556 345.333,548 z" id="boundary" inkscape:connector-curvature="0" />
	<path style="fill:none;stroke:red;stroke-width:1px;stroke-linecap:butt;stroke-linejoin:miter;stroke-opacity:1" d="M 327.556,658.222 334.667,693.778 z" id="boundary" inkscape:connector-curvature="0" />
	<path style="fill:none;stroke:red;stroke-width:1px;stroke-linecap:butt;stroke-linejoin:miter;stroke-opacity:1" d="M 327.556,658.222 341.778,615.556 z" id="boundary" inkscape:connector-curvature="0" />
	<path style="fill:none;stroke:red;stroke-width:1px;stroke-linecap:butt;stroke-linejoin:miter;stroke-opacity:1" d="M 327.556,964 356,935.556 z" id="boundary" inkscape:connector-curvature="0" />
	<path style="fill:none;stroke:red;stroke-width:1px;stroke-linecap:butt;stroke-linejoin:miter;stroke-opacity:1" d="M 334.667,693.778 352.444,725.778 z" id="boundary" inkscape:connector-curvature="0" />
	<path style="fill:none;stroke:red;stroke-width:1px;stroke-linecap:butt;stroke-linejoin:miter;stroke-opacity:1" d="M 341.778,615.556 345.333,548 z" id="boundary" inkscape:connector-curvature="0" />
	<path style="fill:none;stroke:red;stroke-width:1px;stroke-linecap:butt;stroke-linejoin:miter;stroke-opacity:1" d="M 352.444,725.778 370.222,757.778 z" id="boundary" inkscape:connector-curvature="0" />
	<path style="fill:none;stroke:red;stroke-width:1px;stroke-linecap:butt;stroke-linejoin:miter;stroke-opacity:1" d="M 356,935.556 377.333,907.111 z" id="boundary" inkscape:connector-curvature="0" />
	<path style="fill:none;stroke:red;stroke-width:1px;stroke-linecap:butt;stroke-linejoin:miter;stroke-opacity:1" d="M 370.222,757.778 384.444,793.333 z" id="boundary" inkscape:connector-curvature="0" />
	<path style="fill:none;stroke:red;stroke-width:1px;stroke-linecap:butt;stroke-linejoin:miter;stroke-opacity:1" d="M 377.333,907.111 391.556,864.444 z" id="boundary" inkscape:connector-curvature="0" />
	<path style="fill:none;stroke:red;stroke-width:1px;stroke-linecap:butt;stroke-linejoin:miter;stroke-opacity:1" d="M 384.444,793.333 391.556,828.889 z" id="boundary" inkscape:connector-curvature="0" />
	<path style="fill:none;stroke:red;stroke-width:1px;stroke-linecap:butt;stroke-linejoin:miter;stroke-opacity:1" d="M 391.556,828.889 391.556,864.444 z" id="boundary" inkscape:connector-curvature="0" />
	<circle cx="4" cy="814.667" r="4" fill="#0" id="circle0"/>
	<circle cx="4" cy="850.222" r="4" fill="#0" id="circle1"/>
	<circle cx="11.1111" cy="885.778" r="4" fill="#0" id="circle2"/>
	<circle cx="18.2222" cy="772" r="4" fill="#0" id="circle3"/>
	<circle cx="25.3333" cy="921.333" r="4" fill="#0" id="circle4"/>
	<circle cx="36" cy="740" r="4" fill="#0" id="circle5"/>
	<circle cx="39.5556" cy="565.778" r="4" fill="#0" id="circle6"/>
	<circle cx="43.1111" cy="601.333" r="4" fill="#0" id="circle7"/>
	<circle cx="50.2222" cy="949.778" r="4" fill="#0" id="circle8"/>
	<circle cx="53.7778" cy="636.889" r="4" fill="#0" id="circle9"/>
	<circle cx="53.7778" cy="700.889" r="4" fill="#0" id="circle10"/>
	<circle cx="68" cy="544.444" r="4" fill="#0" id="circle11"/>
	<circle cx="78.6667" cy="974.667" r="4" fill="#0" id="circle12"/>
	<circle cx="103.556" cy="544.444" r="4" fill="#0" id="circle13"/>
	<circle cx="114.222" cy="988.889" r="4" fill="#0" id="circle14"/>
	<circle cx="132" cy="565.778" r="4" fill="#0" id="circle15"/>
	<circle cx="139.111" cy="96.4444" r="4" fill="#0" id="circle16"/>
	<circle cx="146.222" cy="25.3333" r="4" fill="#0" id="circle17"/>
	<circle cx="146.222" cy="60.8889" r="4" fill="#0" id="circle18"/>
	<circle cx="146.222" cy="132" r="4" fill="#0" id="circle19"/>
	<circle cx="146.222" cy="167.556" r="4" fill="#0" id="circle20"/>
	<circle cx="146.222" cy="203.111" r="4" fill="#0" id="circle21"/>
	<circle cx="146.222" cy="238.667" r="4" fill="#0" id="circle22"/>
	<circle cx="146.222" cy="274.222" r="4" fill="#0" id="circle23"/>
	<circle cx="146.222" cy="309.778" r="4" fill="#0" id="circle24"/>
	<circle cx="146.222" cy="345.333" r="4" fill="#0" id="circle25"/>
	<circle cx="146.222" cy="380.889" r="4" fill="#0" id="circle26"/>
	<circle cx="146.222" cy="416.444" r="4" fill="#0" id="circle27"/>
	<circle cx="146.222" cy="452" r="4" fill="#0" id="circle28"/>
	<circle cx="146.222" cy="487.556" r="4" fill="#0" id="circle29"/>
	<circle cx="146.222" cy="523.111" r="4" fill="#0" id="circle30"/>
	<circle cx="149.778" cy="996" r="4" fill="#0" id="circle31"/>
	<circle cx="174.667" cy="4" r="4" fill="#0" id="circle32"/>
	<circle cx="185.333" cy="996" r="4" fill="#0" id="circle33"/>
	<circle cx="192.444" cy="132" r="4" fill="#0" id="circle34"/>
	<circle cx="192.444" cy="167.556" r="4" fill="#0" id="circle35"/>
	<circle cx="199.556" cy="203.111" r="4" fill="#0" id="circle36"/>
	<circle cx="199.556" cy="238.667" r="4" fill="#0" id="circle37"/>
	<circle cx="199.556" cy="274.222" r="4" fill="#0" id="circle38"/>
	<circle cx="199.556" cy="309.778" r="4" fill="#0" id="circle39"/>
	<circle cx="199.556" cy="345.333" r="4" fill="#0" id="circle40"/>
	<circle cx="199.556" cy="380.889" r="4" fill="#0" id="circle41"/>
	<circle cx="199.556" cy="416.444" r="4" fill="#0" id="circle42"/>
	<circle cx="199.556" cy="452" r="4" fill="#0" id="circle43"/>
	<circle cx="210.222" cy="4" r="4" fill="#0" id="circle44"/>
	<circle cx="213.778" cy="39.5556" r="4" fill="#0" id="circle45"/>
	<circle cx="213.778" cy="75.1111" r="4" fill="#0" id="circle46"/>
	<circle cx="220.889" cy="480.444" r="4" fill="#0" id="circle47"/>
	<circle cx="220.889" cy="996" r="4" fill="#0" id="circle48"/>
	<circle cx="252.889" cy="498.222" r="4" fill="#0" id="circle49"/>
	<circle cx="256.444" cy="996" r="4" fill="#0" id="circle50"/>
	<circle cx="288.444" cy="505.333" r="4" fill="#0" id="circle51"/>
	<circle cx="292" cy="988.889" r="4" fill="#0" id="circle52"/>
	<circle cx="324" cy="519.556" r="4" fill="#0" id="circle53"/>
	<circle cx="327.556" cy="658.222" r="4" fill="#0" id="circle54"/>
	<circle cx="327.556" cy="964" r="4" fill="#0" id="circle55"/>
	<circle cx="334.667" cy="693.778" r="4" fill="#0" id="circle56"/>
	<circle cx="341.778" cy="615.556" r="4" fill="#0" id="circle57"/>
	<circle cx="345.333" cy="548" r="4" fill="#0" id="circle58"/>
	<circle cx="352.444" cy="725.778" r="4" fill="#0" id="circle59"/>
	<circle cx="356" cy="935.556" r="4" fill="#0" id="circle60"/>
	<circle cx="370.222" cy="757.778" r="4" fill="#0" id="circle61"/>
	<circle cx="377.333" cy="907.111" r="4" fill="#0" id="circle62"/>
	<circle cx="384.444" cy="793.333" r="4" fill="#0" id="circle63"/>
	<circle cx="391.556" cy="828.889" r="4" fill="#0" id="circle64"/>
	<circle cx="391.556" cy="864.444" r="4" fill="#0" id="circle65"/>
	</g>
</svg>