<?xml version="1.0" encoding="UTF-8" standalone="no"?>
<!-- Created with CurveBenchmark -->
<svg
	xmlns:dc="http://purl.org/dc/elements/1.1/"
	xmlns:cc="http://creativecommons.org/ns#"
	xmlns:rdf="http://www.w3.org/1999/02/22-rdf-syntax-ns#"
	xmlns:svg="http://www.w3.org/2000/svg"
	xmlns="http://www.w3.org/2000/svg"
	xmlns:sodipodi="http://sodipodi.sourceforge.net/DTD/sodipodi-0.dtd"
	xmlns:inkscape="http://www.inkscape.org/namespaces/inkscape"
	width="1000"
	height="1000"
	id="svg2"
	version="1.1"
	sodipodi:docname="manifold/hnncrust-fountain-10.png.txt">
<defs
	id="defs4" />
<metadata
	id="metadata7">
	<rdf:RDF>
		<cc:Work
			rdf:about="">
			<dc:format>image/svg+xml</dc:format>
			<dc:type
				rdf:resource="http://purl.org/dc/dcmitype/StillImage" />
			<dc:title></dc:title>
		</cc:Work>
	</rdf:RDF>
</metadata>
<g
	inkscape:label="Layer 1"
	inkscape:groupmode="layer"
	id="layer1">
	<path style="fill:none;stroke:red;stroke-width:1px;stroke-linecap:butt;stroke-linejoin:miter;stroke-opacity:1" d="M 4,580.95 4,590.762 z" id="boundary" inkscape:connector-curvature="0" />
	<path style="fill:none;stroke:red;stroke-width:1px;stroke-linecap:butt;stroke-linejoin:miter;stroke-opacity:1" d="M 4,580.95 8.90603,566.231 z" id="boundary" inkscape:connector-curvature="0" />
	<path style="fill:none;stroke:red;stroke-width:1px;stroke-linecap:butt;stroke-linejoin:miter;stroke-opacity:1" d="M 4,590.762 4,600.574 z" id="boundary" inkscape:connector-curvature="0" />
	<path style="fill:none;stroke:red;stroke-width:1px;stroke-linecap:butt;stroke-linejoin:miter;stroke-opacity:1" d="M 4,600.574 4,610.386 z" id="boundary" inkscape:connector-curvature="0" />
	<path style="fill:none;stroke:red;stroke-width:1px;stroke-linecap:butt;stroke-linejoin:miter;stroke-opacity:1" d="M 4,610.386 8.90603,619.217 z" id="boundary" inkscape:connector-curvature="0" />
	<path style="fill:none;stroke:red;stroke-width:1px;stroke-linecap:butt;stroke-linejoin:miter;stroke-opacity:1" d="M 8.90603,566.231 13.8121,556.419 z" id="boundary" inkscape:connector-curvature="0" />
	<path style="fill:none;stroke:red;stroke-width:1px;stroke-linecap:butt;stroke-linejoin:miter;stroke-opacity:1" d="M 8.90603,619.217 13.8121,628.047 z" id="boundary" inkscape:connector-curvature="0" />
	<path style="fill:none;stroke:red;stroke-width:1px;stroke-linecap:butt;stroke-linejoin:miter;stroke-opacity:1" d="M 13.8121,556.419 21.6617,548.57 z" id="boundary" inkscape:connector-curvature="0" />
	<path style="fill:none;stroke:red;stroke-width:1px;stroke-linecap:butt;stroke-linejoin:miter;stroke-opacity:1" d="M 13.8121,628.047 16.7557,637.86 z" id="boundary" inkscape:connector-curvature="0" />
	<path style="fill:none;stroke:red;stroke-width:1px;stroke-linecap:butt;stroke-linejoin:miter;stroke-opacity:1" d="M 16.7557,637.86 21.6617,646.69 z" id="boundary" inkscape:connector-curvature="0" />
	<path style="fill:none;stroke:red;stroke-width:1px;stroke-linecap:butt;stroke-linejoin:miter;stroke-opacity:1" d="M 21.6617,548.57 26.5678,538.758 z" id="boundary" inkscape:connector-curvature="0" />
	<path style="fill:none;stroke:red;stroke-width:1px;stroke-linecap:butt;stroke-linejoin:miter;stroke-opacity:1" d="M 21.6617,646.69 25.5865,656.502 z" id="boundary" inkscape:connector-curvature="0" />
	<path style="fill:none;stroke:red;stroke-width:1px;stroke-linecap:butt;stroke-linejoin:miter;stroke-opacity:1" d="M 25.5865,656.502 33.4362,662.39 z" id="boundary" inkscape:connector-curvature="0" />
	<path style="fill:none;stroke:red;stroke-width:1px;stroke-linecap:butt;stroke-linejoin:miter;stroke-opacity:1" d="M 26.5678,538.758 31.4738,528.946 z" id="boundary" inkscape:connector-curvature="0" />
	<path style="fill:none;stroke:red;stroke-width:1px;stroke-linecap:butt;stroke-linejoin:miter;stroke-opacity:1" d="M 31.4738,528.946 38.3422,517.171 z" id="boundary" inkscape:connector-curvature="0" />
	<path style="fill:none;stroke:red;stroke-width:1px;stroke-linecap:butt;stroke-linejoin:miter;stroke-opacity:1" d="M 33.4362,662.39 39.3234,670.239 z" id="boundary" inkscape:connector-curvature="0" />
	<path style="fill:none;stroke:red;stroke-width:1px;stroke-linecap:butt;stroke-linejoin:miter;stroke-opacity:1" d="M 38.3422,517.171 46.1919,509.321 z" id="boundary" inkscape:connector-curvature="0" />
	<path style="fill:none;stroke:red;stroke-width:1px;stroke-linecap:butt;stroke-linejoin:miter;stroke-opacity:1" d="M 39.3234,670.239 49.1355,674.164 z" id="boundary" inkscape:connector-curvature="0" />
	<path style="fill:none;stroke:red;stroke-width:1px;stroke-linecap:butt;stroke-linejoin:miter;stroke-opacity:1" d="M 46.1919,509.321 51.0979,499.509 z" id="boundary" inkscape:connector-curvature="0" />
	<path style="fill:none;stroke:red;stroke-width:1px;stroke-linecap:butt;stroke-linejoin:miter;stroke-opacity:1" d="M 49.1355,674.164 57.9664,679.07 z" id="boundary" inkscape:connector-curvature="0" />
	<path style="fill:none;stroke:red;stroke-width:1px;stroke-linecap:butt;stroke-linejoin:miter;stroke-opacity:1" d="M 51.0979,499.509 58.9476,491.66 z" id="boundary" inkscape:connector-curvature="0" />
	<path style="fill:none;stroke:red;stroke-width:1px;stroke-linecap:butt;stroke-linejoin:miter;stroke-opacity:1" d="M 57.9664,679.07 67.7784,682.014 z" id="boundary" inkscape:connector-curvature="0" />
	<path style="fill:none;stroke:red;stroke-width:1px;stroke-linecap:butt;stroke-linejoin:miter;stroke-opacity:1" d="M 58.9476,491.66 66.7972,484.791 z" id="boundary" inkscape:connector-curvature="0" />
	<path style="fill:none;stroke:red;stroke-width:1px;stroke-linecap:butt;stroke-linejoin:miter;stroke-opacity:1" d="M 66.7972,484.791 75.6281,479.885 z" id="boundary" inkscape:connector-curvature="0" />
	<path style="fill:none;stroke:red;stroke-width:1px;stroke-linecap:butt;stroke-linejoin:miter;stroke-opacity:1" d="M 67.7784,682.014 77.5905,682.014 z" id="boundary" inkscape:connector-curvature="0" />
	<path style="fill:none;stroke:red;stroke-width:1px;stroke-linecap:butt;stroke-linejoin:miter;stroke-opacity:1" d="M 75.6281,479.885 84.459,474.979 z" id="boundary" inkscape:connector-curvature="0" />
	<path style="fill:none;stroke:red;stroke-width:1px;stroke-linecap:butt;stroke-linejoin:miter;stroke-opacity:1" d="M 77.5905,682.014 86.4214,686.92 z" id="boundary" inkscape:connector-curvature="0" />
	<path style="fill:none;stroke:red;stroke-width:1px;stroke-linecap:butt;stroke-linejoin:miter;stroke-opacity:1" d="M 84.459,474.979 93.2898,470.073 z" id="boundary" inkscape:connector-curvature="0" />
	<path style="fill:none;stroke:red;stroke-width:1px;stroke-linecap:butt;stroke-linejoin:miter;stroke-opacity:1" d="M 86.4214,686.92 95.2522,691.826 z" id="boundary" inkscape:connector-curvature="0" />
	<path style="fill:none;stroke:red;stroke-width:1px;stroke-linecap:butt;stroke-linejoin:miter;stroke-opacity:1" d="M 93.2898,470.073 102.121,465.167 z" id="boundary" inkscape:connector-curvature="0" />
	<path style="fill:none;stroke:red;stroke-width:1px;stroke-linecap:butt;stroke-linejoin:miter;stroke-opacity:1" d="M 95.2522,691.826 105.064,691.826 z" id="boundary" inkscape:connector-curvature="0" />
	<path style="fill:none;stroke:red;stroke-width:1px;stroke-linecap:butt;stroke-linejoin:miter;stroke-opacity:1" d="M 102.121,465.167 110.952,460.261 z" id="boundary" inkscape:connector-curvature="0" />
	<path style="fill:none;stroke:red;stroke-width:1px;stroke-linecap:butt;stroke-linejoin:miter;stroke-opacity:1" d="M 105.064,691.826 114.876,695.751 z" id="boundary" inkscape:connector-curvature="0" />
	<path style="fill:none;stroke:red;stroke-width:1px;stroke-linecap:butt;stroke-linejoin:miter;stroke-opacity:1" d="M 110.952,460.261 119.782,455.355 z" id="boundary" inkscape:connector-curvature="0" />
	<path style="fill:none;stroke:red;stroke-width:1px;stroke-linecap:butt;stroke-linejoin:miter;stroke-opacity:1" d="M 114.876,695.751 124.688,696.732 z" id="boundary" inkscape:connector-curvature="0" />
	<path style="fill:none;stroke:red;stroke-width:1px;stroke-linecap:butt;stroke-linejoin:miter;stroke-opacity:1" d="M 119.782,455.355 129.594,450.449 z" id="boundary" inkscape:connector-curvature="0" />
	<path style="fill:none;stroke:red;stroke-width:1px;stroke-linecap:butt;stroke-linejoin:miter;stroke-opacity:1" d="M 124.688,696.732 134.5,696.732 z" id="boundary" inkscape:connector-curvature="0" />
	<path style="fill:none;stroke:red;stroke-width:1px;stroke-linecap:butt;stroke-linejoin:miter;stroke-opacity:1" d="M 129.594,450.449 139.407,445.543 z" id="boundary" inkscape:connector-curvature="0" />
	<path style="fill:none;stroke:red;stroke-width:1px;stroke-linecap:butt;stroke-linejoin:miter;stroke-opacity:1" d="M 134.5,696.732 144.313,700.657 z" id="boundary" inkscape:connector-curvature="0" />
	<path style="fill:none;stroke:red;stroke-width:1px;stroke-linecap:butt;stroke-linejoin:miter;stroke-opacity:1" d="M 139.407,445.543 149.219,445.543 z" id="boundary" inkscape:connector-curvature="0" />
	<path style="fill:none;stroke:red;stroke-width:1px;stroke-linecap:butt;stroke-linejoin:miter;stroke-opacity:1" d="M 144.313,700.657 154.125,701.638 z" id="boundary" inkscape:connector-curvature="0" />
	<path style="fill:none;stroke:red;stroke-width:1px;stroke-linecap:butt;stroke-linejoin:miter;stroke-opacity:1" d="M 149.219,445.543 158.049,440.637 z" id="boundary" inkscape:connector-curvature="0" />
	<path style="fill:none;stroke:red;stroke-width:1px;stroke-linecap:butt;stroke-linejoin:miter;stroke-opacity:1" d="M 154.125,701.638 163.937,701.638 z" id="boundary" inkscape:connector-curvature="0" />
	<path style="fill:none;stroke:red;stroke-width:1px;stroke-linecap:butt;stroke-linejoin:miter;stroke-opacity:1" d="M 158.049,440.637 167.862,436.712 z" id="boundary" inkscape:connector-curvature="0" />
	<path style="fill:none;stroke:red;stroke-width:1px;stroke-linecap:butt;stroke-linejoin:miter;stroke-opacity:1" d="M 163.937,701.638 173.749,701.638 z" id="boundary" inkscape:connector-curvature="0" />
	<path style="fill:none;stroke:red;stroke-width:1px;stroke-linecap:butt;stroke-linejoin:miter;stroke-opacity:1" d="M 167.862,436.712 177.674,435.731 z" id="boundary" inkscape:connector-curvature="0" />
	<path style="fill:none;stroke:red;stroke-width:1px;stroke-linecap:butt;stroke-linejoin:miter;stroke-opacity:1" d="M 173.749,701.638 182.58,706.544 z" id="boundary" inkscape:connector-curvature="0" />
	<path style="fill:none;stroke:red;stroke-width:1px;stroke-linecap:butt;stroke-linejoin:miter;stroke-opacity:1" d="M 177.674,435.731 185.523,423.956 z" id="boundary" inkscape:connector-curvature="0" />
	<path style="fill:none;stroke:red;stroke-width:1px;stroke-linecap:butt;stroke-linejoin:miter;stroke-opacity:1" d="M 182.58,706.544 192.392,706.544 z" id="boundary" inkscape:connector-curvature="0" />
	<path style="fill:none;stroke:red;stroke-width:1px;stroke-linecap:butt;stroke-linejoin:miter;stroke-opacity:1" d="M 185.523,423.956 193.373,416.107 z" id="boundary" inkscape:connector-curvature="0" />
	<path style="fill:none;stroke:red;stroke-width:1px;stroke-linecap:butt;stroke-linejoin:miter;stroke-opacity:1" d="M 192.392,706.544 201.223,711.45 z" id="boundary" inkscape:connector-curvature="0" />
	<path style="fill:none;stroke:red;stroke-width:1px;stroke-linecap:butt;stroke-linejoin:miter;stroke-opacity:1" d="M 193.373,416.107 201.223,408.257 z" id="boundary" inkscape:connector-curvature="0" />
	<path style="fill:none;stroke:red;stroke-width:1px;stroke-linecap:butt;stroke-linejoin:miter;stroke-opacity:1" d="M 201.223,408.257 211.035,403.351 z" id="boundary" inkscape:connector-curvature="0" />
	<path style="fill:none;stroke:red;stroke-width:1px;stroke-linecap:butt;stroke-linejoin:miter;stroke-opacity:1" d="M 201.223,711.45 210.053,716.356 z" id="boundary" inkscape:connector-curvature="0" />
	<path style="fill:none;stroke:red;stroke-width:1px;stroke-linecap:butt;stroke-linejoin:miter;stroke-opacity:1" d="M 210.053,716.356 219.865,716.356 z" id="boundary" inkscape:connector-curvature="0" />
	<path style="fill:none;stroke:red;stroke-width:1px;stroke-linecap:butt;stroke-linejoin:miter;stroke-opacity:1" d="M 211.035,403.351 220.847,398.445 z" id="boundary" inkscape:connector-curvature="0" />
	<path style="fill:none;stroke:red;stroke-width:1px;stroke-linecap:butt;stroke-linejoin:miter;stroke-opacity:1" d="M 219.865,716.356 228.696,721.262 z" id="boundary" inkscape:connector-curvature="0" />
	<path style="fill:none;stroke:red;stroke-width:1px;stroke-linecap:butt;stroke-linejoin:miter;stroke-opacity:1" d="M 220.847,398.445 230.659,393.539 z" id="boundary" inkscape:connector-curvature="0" />
	<path style="fill:none;stroke:red;stroke-width:1px;stroke-linecap:butt;stroke-linejoin:miter;stroke-opacity:1" d="M 228.696,721.262 238.508,721.262 z" id="boundary" inkscape:connector-curvature="0" />
	<path style="fill:none;stroke:red;stroke-width:1px;stroke-linecap:butt;stroke-linejoin:miter;stroke-opacity:1" d="M 230.659,393.539 240.471,388.633 z" id="boundary" inkscape:connector-curvature="0" />
	<path style="fill:none;stroke:red;stroke-width:1px;stroke-linecap:butt;stroke-linejoin:miter;stroke-opacity:1" d="M 238.508,721.262 247.339,726.168 z" id="boundary" inkscape:connector-curvature="0" />
	<path style="fill:none;stroke:red;stroke-width:1px;stroke-linecap:butt;stroke-linejoin:miter;stroke-opacity:1" d="M 240.471,388.633 250.283,386.671 z" id="boundary" inkscape:connector-curvature="0" />
	<path style="fill:none;stroke:red;stroke-width:1px;stroke-linecap:butt;stroke-linejoin:miter;stroke-opacity:1" d="M 247.339,726.168 257.151,726.168 z" id="boundary" inkscape:connector-curvature="0" />
	<path style="fill:none;stroke:red;stroke-width:1px;stroke-linecap:butt;stroke-linejoin:miter;stroke-opacity:1" d="M 250.283,386.671 259.114,381.765 z" id="boundary" inkscape:connector-curvature="0" />
	<path style="fill:none;stroke:red;stroke-width:1px;stroke-linecap:butt;stroke-linejoin:miter;stroke-opacity:1" d="M 257.151,726.168 265.982,731.074 z" id="boundary" inkscape:connector-curvature="0" />
	<path style="fill:none;stroke:red;stroke-width:1px;stroke-linecap:butt;stroke-linejoin:miter;stroke-opacity:1" d="M 259.114,381.765 267.945,376.859 z" id="boundary" inkscape:connector-curvature="0" />
	<path style="fill:none;stroke:red;stroke-width:1px;stroke-linecap:butt;stroke-linejoin:miter;stroke-opacity:1" d="M 265.982,731.074 275.794,731.074 z" id="boundary" inkscape:connector-curvature="0" />
	<path style="fill:none;stroke:red;stroke-width:1px;stroke-linecap:butt;stroke-linejoin:miter;stroke-opacity:1" d="M 267.945,376.859 277.757,376.859 z" id="boundary" inkscape:connector-curvature="0" />
	<path style="fill:none;stroke:red;stroke-width:1px;stroke-linecap:butt;stroke-linejoin:miter;stroke-opacity:1" d="M 275.794,731.074 285.606,731.074 z" id="boundary" inkscape:connector-curvature="0" />
	<path style="fill:none;stroke:red;stroke-width:1px;stroke-linecap:butt;stroke-linejoin:miter;stroke-opacity:1" d="M 277.757,376.859 286.588,371.953 z" id="boundary" inkscape:connector-curvature="0" />
	<path style="fill:none;stroke:red;stroke-width:1px;stroke-linecap:butt;stroke-linejoin:miter;stroke-opacity:1" d="M 285.606,731.074 294.437,735.98 z" id="boundary" inkscape:connector-curvature="0" />
	<path style="fill:none;stroke:red;stroke-width:1px;stroke-linecap:butt;stroke-linejoin:miter;stroke-opacity:1" d="M 286.588,371.953 296.4,367.046 z" id="boundary" inkscape:connector-curvature="0" />
	<path style="fill:none;stroke:red;stroke-width:1px;stroke-linecap:butt;stroke-linejoin:miter;stroke-opacity:1" d="M 294.437,735.98 304.249,735.98 z" id="boundary" inkscape:connector-curvature="0" />
	<path style="fill:none;stroke:red;stroke-width:1px;stroke-linecap:butt;stroke-linejoin:miter;stroke-opacity:1" d="M 296.4,367.046 306.212,367.046 z" id="boundary" inkscape:connector-curvature="0" />
	<path style="fill:none;stroke:red;stroke-width:1px;stroke-linecap:butt;stroke-linejoin:miter;stroke-opacity:1" d="M 304.249,735.98 313.08,740.886 z" id="boundary" inkscape:connector-curvature="0" />
	<path style="fill:none;stroke:red;stroke-width:1px;stroke-linecap:butt;stroke-linejoin:miter;stroke-opacity:1" d="M 306.212,367.046 316.024,362.14 z" id="boundary" inkscape:connector-curvature="0" />
	<path style="fill:none;stroke:red;stroke-width:1px;stroke-linecap:butt;stroke-linejoin:miter;stroke-opacity:1" d="M 313.08,740.886 322.892,740.886 z" id="boundary" inkscape:connector-curvature="0" />
	<path style="fill:none;stroke:red;stroke-width:1px;stroke-linecap:butt;stroke-linejoin:miter;stroke-opacity:1" d="M 316.024,362.14 325.836,362.14 z" id="boundary" inkscape:connector-curvature="0" />
	<path style="fill:none;stroke:red;stroke-width:1px;stroke-linecap:butt;stroke-linejoin:miter;stroke-opacity:1" d="M 322.892,740.886 332.704,740.886 z" id="boundary" inkscape:connector-curvature="0" />
	<path style="fill:none;stroke:red;stroke-width:1px;stroke-linecap:butt;stroke-linejoin:miter;stroke-opacity:1" d="M 325.836,362.14 334.667,357.234 z" id="boundary" inkscape:connector-curvature="0" />
	<path style="fill:none;stroke:red;stroke-width:1px;stroke-linecap:butt;stroke-linejoin:miter;stroke-opacity:1" d="M 332.704,740.886 341.535,745.792 z" id="boundary" inkscape:connector-curvature="0" />
	<path style="fill:none;stroke:red;stroke-width:1px;stroke-linecap:butt;stroke-linejoin:miter;stroke-opacity:1" d="M 334.667,357.234 344.479,353.31 z" id="boundary" inkscape:connector-curvature="0" />
	<path style="fill:none;stroke:red;stroke-width:1px;stroke-linecap:butt;stroke-linejoin:miter;stroke-opacity:1" d="M 341.535,745.792 351.347,745.792 z" id="boundary" inkscape:connector-curvature="0" />
	<path style="fill:none;stroke:red;stroke-width:1px;stroke-linecap:butt;stroke-linejoin:miter;stroke-opacity:1" d="M 344.479,353.31 354.291,352.328 z" id="boundary" inkscape:connector-curvature="0" />
	<path style="fill:none;stroke:red;stroke-width:1px;stroke-linecap:butt;stroke-linejoin:miter;stroke-opacity:1" d="M 347.422,139.407 352.328,129.594 z" id="boundary" inkscape:connector-curvature="0" />
	<path style="fill:none;stroke:red;stroke-width:1px;stroke-linecap:butt;stroke-linejoin:miter;stroke-opacity:1" d="M 347.422,139.407 355.272,146.275 z" id="boundary" inkscape:connector-curvature="0" />
	<path style="fill:none;stroke:red;stroke-width:1px;stroke-linecap:butt;stroke-linejoin:miter;stroke-opacity:1" d="M 351.347,745.792 361.159,745.792 z" id="boundary" inkscape:connector-curvature="0" />
	<path style="fill:none;stroke:red;stroke-width:1px;stroke-linecap:butt;stroke-linejoin:miter;stroke-opacity:1" d="M 352.328,129.594 357.234,119.782 z" id="boundary" inkscape:connector-curvature="0" />
	<path style="fill:none;stroke:red;stroke-width:1px;stroke-linecap:butt;stroke-linejoin:miter;stroke-opacity:1" d="M 354.291,352.328 364.103,348.404 z" id="boundary" inkscape:connector-curvature="0" />
	<path style="fill:none;stroke:red;stroke-width:1px;stroke-linecap:butt;stroke-linejoin:miter;stroke-opacity:1" d="M 355.272,146.275 363.122,152.162 z" id="boundary" inkscape:connector-curvature="0" />
	<path style="fill:none;stroke:red;stroke-width:1px;stroke-linecap:butt;stroke-linejoin:miter;stroke-opacity:1" d="M 357.234,119.782 367.046,114.876 z" id="boundary" inkscape:connector-curvature="0" />
	<path style="fill:none;stroke:red;stroke-width:1px;stroke-linecap:butt;stroke-linejoin:miter;stroke-opacity:1" d="M 361.159,745.792 370.971,745.792 z" id="boundary" inkscape:connector-curvature="0" />
	<path style="fill:none;stroke:red;stroke-width:1px;stroke-linecap:butt;stroke-linejoin:miter;stroke-opacity:1" d="M 363.122,152.162 372.934,152.162 z" id="boundary" inkscape:connector-curvature="0" />
	<path style="fill:none;stroke:red;stroke-width:1px;stroke-linecap:butt;stroke-linejoin:miter;stroke-opacity:1" d="M 364.103,348.404 371.953,342.516 z" id="boundary" inkscape:connector-curvature="0" />
	<path style="fill:none;stroke:red;stroke-width:1px;stroke-linecap:butt;stroke-linejoin:miter;stroke-opacity:1" d="M 367.046,114.876 376.859,111.933 z" id="boundary" inkscape:connector-curvature="0" />
	<path style="fill:none;stroke:red;stroke-width:1px;stroke-linecap:butt;stroke-linejoin:miter;stroke-opacity:1" d="M 370.971,745.792 379.802,750.698 z" id="boundary" inkscape:connector-curvature="0" />
	<path style="fill:none;stroke:red;stroke-width:1px;stroke-linecap:butt;stroke-linejoin:miter;stroke-opacity:1" d="M 371.953,342.516 380.783,337.61 z" id="boundary" inkscape:connector-curvature="0" />
	<path style="fill:none;stroke:red;stroke-width:1px;stroke-linecap:butt;stroke-linejoin:miter;stroke-opacity:1" d="M 372.934,152.162 382.746,152.162 z" id="boundary" inkscape:connector-curvature="0" />
	<path style="fill:none;stroke:red;stroke-width:1px;stroke-linecap:butt;stroke-linejoin:miter;stroke-opacity:1" d="M 376.859,111.933 386.671,111.933 z" id="boundary" inkscape:connector-curvature="0" />
	<path style="fill:none;stroke:red;stroke-width:1px;stroke-linecap:butt;stroke-linejoin:miter;stroke-opacity:1" d="M 379.802,750.698 389.614,750.698 z" id="boundary" inkscape:connector-curvature="0" />
	<path style="fill:none;stroke:red;stroke-width:1px;stroke-linecap:butt;stroke-linejoin:miter;stroke-opacity:1" d="M 380.783,337.61 390.595,337.61 z" id="boundary" inkscape:connector-curvature="0" />
	<path style="fill:none;stroke:red;stroke-width:1px;stroke-linecap:butt;stroke-linejoin:miter;stroke-opacity:1" d="M 382.746,152.162 392.558,152.162 z" id="boundary" inkscape:connector-curvature="0" />
	<path style="fill:none;stroke:red;stroke-width:1px;stroke-linecap:butt;stroke-linejoin:miter;stroke-opacity:1" d="M 386.671,111.933 395.501,116.839 z" id="boundary" inkscape:connector-curvature="0" />
	<path style="fill:none;stroke:red;stroke-width:1px;stroke-linecap:butt;stroke-linejoin:miter;stroke-opacity:1" d="M 389.614,750.698 399.426,750.698 z" id="boundary" inkscape:connector-curvature="0" />
	<path style="fill:none;stroke:red;stroke-width:1px;stroke-linecap:butt;stroke-linejoin:miter;stroke-opacity:1" d="M 390.595,337.61 400.408,337.61 z" id="boundary" inkscape:connector-curvature="0" />
	<path style="fill:none;stroke:red;stroke-width:1px;stroke-linecap:butt;stroke-linejoin:miter;stroke-opacity:1" d="M 392.558,152.162 402.37,152.162 z" id="boundary" inkscape:connector-curvature="0" />
	<path style="fill:none;stroke:red;stroke-width:1px;stroke-linecap:butt;stroke-linejoin:miter;stroke-opacity:1" d="M 395.501,116.839 405.314,116.839 z" id="boundary" inkscape:connector-curvature="0" />
	<path style="fill:none;stroke:red;stroke-width:1px;stroke-linecap:butt;stroke-linejoin:miter;stroke-opacity:1" d="M 399.426,750.698 409.238,754.623 z" id="boundary" inkscape:connector-curvature="0" />
	<path style="fill:none;stroke:red;stroke-width:1px;stroke-linecap:butt;stroke-linejoin:miter;stroke-opacity:1" d="M 400.408,337.61 410.22,337.61 z" id="boundary" inkscape:connector-curvature="0" />
	<path style="fill:none;stroke:red;stroke-width:1px;stroke-linecap:butt;stroke-linejoin:miter;stroke-opacity:1" d="M 402.37,152.162 411.201,157.068 z" id="boundary" inkscape:connector-curvature="0" />
	<path style="fill:none;stroke:red;stroke-width:1px;stroke-linecap:butt;stroke-linejoin:miter;stroke-opacity:1" d="M 405.314,116.839 415.126,117.82 z" id="boundary" inkscape:connector-curvature="0" />
	<path style="fill:none;stroke:red;stroke-width:1px;stroke-linecap:butt;stroke-linejoin:miter;stroke-opacity:1" d="M 409.238,754.623 419.05,755.604 z" id="boundary" inkscape:connector-curvature="0" />
	<path style="fill:none;stroke:red;stroke-width:1px;stroke-linecap:butt;stroke-linejoin:miter;stroke-opacity:1" d="M 410.22,337.61 420.032,337.61 z" id="boundary" inkscape:connector-curvature="0" />
	<path style="fill:none;stroke:red;stroke-width:1px;stroke-linecap:butt;stroke-linejoin:miter;stroke-opacity:1" d="M 411.201,157.068 421.013,157.068 z" id="boundary" inkscape:connector-curvature="0" />
	<path style="fill:none;stroke:red;stroke-width:1px;stroke-linecap:butt;stroke-linejoin:miter;stroke-opacity:1" d="M 415.126,117.82 424.938,121.745 z" id="boundary" inkscape:connector-curvature="0" />
	<path style="fill:none;stroke:red;stroke-width:1px;stroke-linecap:butt;stroke-linejoin:miter;stroke-opacity:1" d="M 419.05,755.604 428.863,755.604 z" id="boundary" inkscape:connector-curvature="0" />
	<path style="fill:none;stroke:red;stroke-width:1px;stroke-linecap:butt;stroke-linejoin:miter;stroke-opacity:1" d="M 420.032,337.61 429.844,337.61 z" id="boundary" inkscape:connector-curvature="0" />
	<path style="fill:none;stroke:red;stroke-width:1px;stroke-linecap:butt;stroke-linejoin:miter;stroke-opacity:1" d="M 421.013,157.068 429.844,161.974 z" id="boundary" inkscape:connector-curvature="0" />
	<path style="fill:none;stroke:red;stroke-width:1px;stroke-linecap:butt;stroke-linejoin:miter;stroke-opacity:1" d="M 424.938,121.745 434.75,121.745 z" id="boundary" inkscape:connector-curvature="0" />
	<path style="fill:none;stroke:red;stroke-width:1px;stroke-linecap:butt;stroke-linejoin:miter;stroke-opacity:1" d="M 428.863,755.604 438.675,759.529 z" id="boundary" inkscape:connector-curvature="0" />
	<path style="fill:none;stroke:red;stroke-width:1px;stroke-linecap:butt;stroke-linejoin:miter;stroke-opacity:1" d="M 429.844,161.974 438.675,166.88 z" id="boundary" inkscape:connector-curvature="0" />
	<path style="fill:none;stroke:red;stroke-width:1px;stroke-linecap:butt;stroke-linejoin:miter;stroke-opacity:1" d="M 429.844,337.61 439.656,337.61 z" id="boundary" inkscape:connector-curvature="0" />
	<path style="fill:none;stroke:red;stroke-width:1px;stroke-linecap:butt;stroke-linejoin:miter;stroke-opacity:1" d="M 434.75,121.745 444.562,121.745 z" id="boundary" inkscape:connector-curvature="0" />
	<path style="fill:none;stroke:red;stroke-width:1px;stroke-linecap:butt;stroke-linejoin:miter;stroke-opacity:1" d="M 438.675,166.88 445.543,174.73 z" id="boundary" inkscape:connector-curvature="0" />
	<path style="fill:none;stroke:red;stroke-width:1px;stroke-linecap:butt;stroke-linejoin:miter;stroke-opacity:1" d="M 438.675,759.529 448.487,760.51 z" id="boundary" inkscape:connector-curvature="0" />
	<path style="fill:none;stroke:red;stroke-width:1px;stroke-linecap:butt;stroke-linejoin:miter;stroke-opacity:1" d="M 439.656,337.61 449.468,337.61 z" id="boundary" inkscape:connector-curvature="0" />
	<path style="fill:none;stroke:red;stroke-width:1px;stroke-linecap:butt;stroke-linejoin:miter;stroke-opacity:1" d="M 444.562,121.745 454.374,121.745 z" id="boundary" inkscape:connector-curvature="0" />
	<path style="fill:none;stroke:red;stroke-width:1px;stroke-linecap:butt;stroke-linejoin:miter;stroke-opacity:1" d="M 445.543,174.73 453.393,181.598 z" id="boundary" inkscape:connector-curvature="0" />
	<path style="fill:none;stroke:red;stroke-width:1px;stroke-linecap:butt;stroke-linejoin:miter;stroke-opacity:1" d="M 448.487,760.51 458.299,760.51 z" id="boundary" inkscape:connector-curvature="0" />
	<path style="fill:none;stroke:red;stroke-width:1px;stroke-linecap:butt;stroke-linejoin:miter;stroke-opacity:1" d="M 449.468,337.61 450.449,325.836 z" id="boundary" inkscape:connector-curvature="0" />
	<path style="fill:none;stroke:red;stroke-width:1px;stroke-linecap:butt;stroke-linejoin:miter;stroke-opacity:1" d="M 450.449,316.024 450.449,325.836 z" id="boundary" inkscape:connector-curvature="0" />
	<path style="fill:none;stroke:red;stroke-width:1px;stroke-linecap:butt;stroke-linejoin:miter;stroke-opacity:1" d="M 450.449,316.024 455.355,306.212 z" id="boundary" inkscape:connector-curvature="0" />
	<path style="fill:none;stroke:red;stroke-width:1px;stroke-linecap:butt;stroke-linejoin:miter;stroke-opacity:1" d="M 453.393,181.598 462.224,186.504 z" id="boundary" inkscape:connector-curvature="0" />
	<path style="fill:none;stroke:red;stroke-width:1px;stroke-linecap:butt;stroke-linejoin:miter;stroke-opacity:1" d="M 454.374,121.745 464.186,121.745 z" id="boundary" inkscape:connector-curvature="0" />
	<path style="fill:none;stroke:red;stroke-width:1px;stroke-linecap:butt;stroke-linejoin:miter;stroke-opacity:1" d="M 455.355,31.4738 460.261,21.6617 z" id="boundary" inkscape:connector-curvature="0" />
	<path style="fill:none;stroke:red;stroke-width:1px;stroke-linecap:butt;stroke-linejoin:miter;stroke-opacity:1" d="M 455.355,31.4738 460.261,40.3046 z" id="boundary" inkscape:connector-curvature="0" />
	<path style="fill:none;stroke:red;stroke-width:1px;stroke-linecap:butt;stroke-linejoin:miter;stroke-opacity:1" d="M 455.355,296.4 455.355,306.212 z" id="boundary" inkscape:connector-curvature="0" />
	<path style="fill:none;stroke:red;stroke-width:1px;stroke-linecap:butt;stroke-linejoin:miter;stroke-opacity:1" d="M 455.355,296.4 460.261,281.682 z" id="boundary" inkscape:connector-curvature="0" />
	<path style="fill:none;stroke:red;stroke-width:1px;stroke-linecap:butt;stroke-linejoin:miter;stroke-opacity:1" d="M 458.299,760.51 468.111,760.51 z" id="boundary" inkscape:connector-curvature="0" />
	<path style="fill:none;stroke:red;stroke-width:1px;stroke-linecap:butt;stroke-linejoin:miter;stroke-opacity:1" d="M 460.261,21.6617 468.111,13.8121 z" id="boundary" inkscape:connector-curvature="0" />
	<path style="fill:none;stroke:red;stroke-width:1px;stroke-linecap:butt;stroke-linejoin:miter;stroke-opacity:1" d="M 460.261,40.3046 465.167,49.1355 z" id="boundary" inkscape:connector-curvature="0" />
	<path style="fill:none;stroke:red;stroke-width:1px;stroke-linecap:butt;stroke-linejoin:miter;stroke-opacity:1" d="M 460.261,271.869 460.261,281.682 z" id="boundary" inkscape:connector-curvature="0" />
	<path style="fill:none;stroke:red;stroke-width:1px;stroke-linecap:butt;stroke-linejoin:miter;stroke-opacity:1" d="M 460.261,271.869 465.167,255.189 z" id="boundary" inkscape:connector-curvature="0" />
	<path style="fill:none;stroke:red;stroke-width:1px;stroke-linecap:butt;stroke-linejoin:miter;stroke-opacity:1" d="M 462.224,186.504 465.167,196.317 z" id="boundary" inkscape:connector-curvature="0" />
	<path style="fill:none;stroke:red;stroke-width:1px;stroke-linecap:butt;stroke-linejoin:miter;stroke-opacity:1" d="M 464.186,121.745 471.054,113.895 z" id="boundary" inkscape:connector-curvature="0" />
	<path style="fill:none;stroke:red;stroke-width:1px;stroke-linecap:butt;stroke-linejoin:miter;stroke-opacity:1" d="M 465.167,49.1355 468.111,58.9476 z" id="boundary" inkscape:connector-curvature="0" />
	<path style="fill:none;stroke:red;stroke-width:1px;stroke-linecap:butt;stroke-linejoin:miter;stroke-opacity:1" d="M 465.167,196.317 465.167,206.129 z" id="boundary" inkscape:connector-curvature="0" />
	<path style="fill:none;stroke:red;stroke-width:1px;stroke-linecap:butt;stroke-linejoin:miter;stroke-opacity:1" d="M 465.167,206.129 465.167,215.941 z" id="boundary" inkscape:connector-curvature="0" />
	<path style="fill:none;stroke:red;stroke-width:1px;stroke-linecap:butt;stroke-linejoin:miter;stroke-opacity:1" d="M 465.167,215.941 465.167,225.753 z" id="boundary" inkscape:connector-curvature="0" />
	<path style="fill:none;stroke:red;stroke-width:1px;stroke-linecap:butt;stroke-linejoin:miter;stroke-opacity:1" d="M 465.167,225.753 465.167,235.565 z" id="boundary" inkscape:connector-curvature="0" />
	<path style="fill:none;stroke:red;stroke-width:1px;stroke-linecap:butt;stroke-linejoin:miter;stroke-opacity:1" d="M 465.167,235.565 465.167,245.377 z" id="boundary" inkscape:connector-curvature="0" />
	<path style="fill:none;stroke:red;stroke-width:1px;stroke-linecap:butt;stroke-linejoin:miter;stroke-opacity:1" d="M 465.167,245.377 465.167,255.189 z" id="boundary" inkscape:connector-curvature="0" />
	<path style="fill:none;stroke:red;stroke-width:1px;stroke-linecap:butt;stroke-linejoin:miter;stroke-opacity:1" d="M 468.111,13.8121 476.942,8.90603 z" id="boundary" inkscape:connector-curvature="0" />
	<path style="fill:none;stroke:red;stroke-width:1px;stroke-linecap:butt;stroke-linejoin:miter;stroke-opacity:1" d="M 468.111,58.9476 473.017,67.7784 z" id="boundary" inkscape:connector-curvature="0" />
	<path style="fill:none;stroke:red;stroke-width:1px;stroke-linecap:butt;stroke-linejoin:miter;stroke-opacity:1" d="M 468.111,760.51 477.923,764.435 z" id="boundary" inkscape:connector-curvature="0" />
	<path style="fill:none;stroke:red;stroke-width:1px;stroke-linecap:butt;stroke-linejoin:miter;stroke-opacity:1" d="M 471.054,113.895 474.979,97.2146 z" id="boundary" inkscape:connector-curvature="0" />
	<path style="fill:none;stroke:red;stroke-width:1px;stroke-linecap:butt;stroke-linejoin:miter;stroke-opacity:1" d="M 473.017,67.7784 474.979,77.5905 z" id="boundary" inkscape:connector-curvature="0" />
	<path style="fill:none;stroke:red;stroke-width:1px;stroke-linecap:butt;stroke-linejoin:miter;stroke-opacity:1" d="M 474.979,77.5905 474.979,87.4026 z" id="boundary" inkscape:connector-curvature="0" />
	<path style="fill:none;stroke:red;stroke-width:1px;stroke-linecap:butt;stroke-linejoin:miter;stroke-opacity:1" d="M 474.979,87.4026 474.979,97.2146 z" id="boundary" inkscape:connector-curvature="0" />
	<path style="fill:none;stroke:red;stroke-width:1px;stroke-linecap:butt;stroke-linejoin:miter;stroke-opacity:1" d="M 476.942,8.90603 485.773,4 z" id="boundary" inkscape:connector-curvature="0" />
	<path style="fill:none;stroke:red;stroke-width:1px;stroke-linecap:butt;stroke-linejoin:miter;stroke-opacity:1" d="M 477.923,764.435 487.735,765.416 z" id="boundary" inkscape:connector-curvature="0" />
	<path style="fill:none;stroke:red;stroke-width:1px;stroke-linecap:butt;stroke-linejoin:miter;stroke-opacity:1" d="M 485.773,4 495.585,4 z" id="boundary" inkscape:connector-curvature="0" />
	<path style="fill:none;stroke:red;stroke-width:1px;stroke-linecap:butt;stroke-linejoin:miter;stroke-opacity:1" d="M 487.735,765.416 496.566,770.322 z" id="boundary" inkscape:connector-curvature="0" />
	<path style="fill:none;stroke:red;stroke-width:1px;stroke-linecap:butt;stroke-linejoin:miter;stroke-opacity:1" d="M 495.585,4 505.397,4 z" id="boundary" inkscape:connector-curvature="0" />
	<path style="fill:none;stroke:red;stroke-width:1px;stroke-linecap:butt;stroke-linejoin:miter;stroke-opacity:1" d="M 496.566,770.322 506.378,770.322 z" id="boundary" inkscape:connector-curvature="0" />
	<path style="fill:none;stroke:red;stroke-width:1px;stroke-linecap:butt;stroke-linejoin:miter;stroke-opacity:1" d="M 505.397,4 513.246,9.88724 z" id="boundary" inkscape:connector-curvature="0" />
	<path style="fill:none;stroke:red;stroke-width:1px;stroke-linecap:butt;stroke-linejoin:miter;stroke-opacity:1" d="M 506.378,770.322 516.19,773.266 z" id="boundary" inkscape:connector-curvature="0" />
	<path style="fill:none;stroke:red;stroke-width:1px;stroke-linecap:butt;stroke-linejoin:miter;stroke-opacity:1" d="M 513.246,9.88724 517.171,19.6993 z" id="boundary" inkscape:connector-curvature="0" />
	<path style="fill:none;stroke:red;stroke-width:1px;stroke-linecap:butt;stroke-linejoin:miter;stroke-opacity:1" d="M 516.19,773.266 526.002,775.228 z" id="boundary" inkscape:connector-curvature="0" />
	<path style="fill:none;stroke:red;stroke-width:1px;stroke-linecap:butt;stroke-linejoin:miter;stroke-opacity:1" d="M 517.171,19.6993 520.115,29.5114 z" id="boundary" inkscape:connector-curvature="0" />
	<path style="fill:none;stroke:red;stroke-width:1px;stroke-linecap:butt;stroke-linejoin:miter;stroke-opacity:1" d="M 520.115,29.5114 520.115,39.3234 z" id="boundary" inkscape:connector-curvature="0" />
	<path style="fill:none;stroke:red;stroke-width:1px;stroke-linecap:butt;stroke-linejoin:miter;stroke-opacity:1" d="M 520.115,39.3234 525.021,48.1543 z" id="boundary" inkscape:connector-curvature="0" />
	<path style="fill:none;stroke:red;stroke-width:1px;stroke-linecap:butt;stroke-linejoin:miter;stroke-opacity:1" d="M 525.021,48.1543 529.927,56.9852 z" id="boundary" inkscape:connector-curvature="0" />
	<path style="fill:none;stroke:red;stroke-width:1px;stroke-linecap:butt;stroke-linejoin:miter;stroke-opacity:1" d="M 526.002,775.228 535.814,775.228 z" id="boundary" inkscape:connector-curvature="0" />
	<path style="fill:none;stroke:red;stroke-width:1px;stroke-linecap:butt;stroke-linejoin:miter;stroke-opacity:1" d="M 529.927,56.9852 529.927,66.7972 z" id="boundary" inkscape:connector-curvature="0" />
	<path style="fill:none;stroke:red;stroke-width:1px;stroke-linecap:butt;stroke-linejoin:miter;stroke-opacity:1" d="M 529.927,66.7972 529.927,76.6093 z" id="boundary" inkscape:connector-curvature="0" />
	<path style="fill:none;stroke:red;stroke-width:1px;stroke-linecap:butt;stroke-linejoin:miter;stroke-opacity:1" d="M 529.927,76.6093 534.833,85.4402 z" id="boundary" inkscape:connector-curvature="0" />
	<path style="fill:none;stroke:red;stroke-width:1px;stroke-linecap:butt;stroke-linejoin:miter;stroke-opacity:1" d="M 534.833,85.4402 534.833,95.2522 z" id="boundary" inkscape:connector-curvature="0" />
	<path style="fill:none;stroke:red;stroke-width:1px;stroke-linecap:butt;stroke-linejoin:miter;stroke-opacity:1" d="M 534.833,95.2522 544.645,97.2146 z" id="boundary" inkscape:connector-curvature="0" />
	<path style="fill:none;stroke:red;stroke-width:1px;stroke-linecap:butt;stroke-linejoin:miter;stroke-opacity:1" d="M 534.833,176.692 534.833,186.504 z" id="boundary" inkscape:connector-curvature="0" />
	<path style="fill:none;stroke:red;stroke-width:1px;stroke-linecap:butt;stroke-linejoin:miter;stroke-opacity:1" d="M 534.833,176.692 543.664,171.786 z" id="boundary" inkscape:connector-curvature="0" />
	<path style="fill:none;stroke:red;stroke-width:1px;stroke-linecap:butt;stroke-linejoin:miter;stroke-opacity:1" d="M 534.833,186.504 534.833,196.317 z" id="boundary" inkscape:connector-curvature="0" />
	<path style="fill:none;stroke:red;stroke-width:1px;stroke-linecap:butt;stroke-linejoin:miter;stroke-opacity:1" d="M 534.833,196.317 534.833,206.129 z" id="boundary" inkscape:connector-curvature="0" />
	<path style="fill:none;stroke:red;stroke-width:1px;stroke-linecap:butt;stroke-linejoin:miter;stroke-opacity:1" d="M 534.833,206.129 536.795,215.941 z" id="boundary" inkscape:connector-curvature="0" />
	<path style="fill:none;stroke:red;stroke-width:1px;stroke-linecap:butt;stroke-linejoin:miter;stroke-opacity:1" d="M 535.814,775.228 545.626,775.228 z" id="boundary" inkscape:connector-curvature="0" />
	<path style="fill:none;stroke:red;stroke-width:1px;stroke-linecap:butt;stroke-linejoin:miter;stroke-opacity:1" d="M 536.795,215.941 539.739,225.753 z" id="boundary" inkscape:connector-curvature="0" />
	<path style="fill:none;stroke:red;stroke-width:1px;stroke-linecap:butt;stroke-linejoin:miter;stroke-opacity:1" d="M 539.739,225.753 541.701,235.565 z" id="boundary" inkscape:connector-curvature="0" />
	<path style="fill:none;stroke:red;stroke-width:1px;stroke-linecap:butt;stroke-linejoin:miter;stroke-opacity:1" d="M 541.701,235.565 546.607,244.396 z" id="boundary" inkscape:connector-curvature="0" />
	<path style="fill:none;stroke:red;stroke-width:1px;stroke-linecap:butt;stroke-linejoin:miter;stroke-opacity:1" d="M 543.664,171.786 553.476,168.843 z" id="boundary" inkscape:connector-curvature="0" />
	<path style="fill:none;stroke:red;stroke-width:1px;stroke-linecap:butt;stroke-linejoin:miter;stroke-opacity:1" d="M 544.645,97.2146 554.457,97.2146 z" id="boundary" inkscape:connector-curvature="0" />
	<path style="fill:none;stroke:red;stroke-width:1px;stroke-linecap:butt;stroke-linejoin:miter;stroke-opacity:1" d="M 545.626,775.228 555.438,775.228 z" id="boundary" inkscape:connector-curvature="0" />
	<path style="fill:none;stroke:red;stroke-width:1px;stroke-linecap:butt;stroke-linejoin:miter;stroke-opacity:1" d="M 546.607,244.396 549.551,254.208 z" id="boundary" inkscape:connector-curvature="0" />
	<path style="fill:none;stroke:red;stroke-width:1px;stroke-linecap:butt;stroke-linejoin:miter;stroke-opacity:1" d="M 549.551,254.208 554.457,263.039 z" id="boundary" inkscape:connector-curvature="0" />
	<path style="fill:none;stroke:red;stroke-width:1px;stroke-linecap:butt;stroke-linejoin:miter;stroke-opacity:1" d="M 553.476,168.843 563.288,166.88 z" id="boundary" inkscape:connector-curvature="0" />
	<path style="fill:none;stroke:red;stroke-width:1px;stroke-linecap:butt;stroke-linejoin:miter;stroke-opacity:1" d="M 554.457,97.2146 564.269,97.2146 z" id="boundary" inkscape:connector-curvature="0" />
	<path style="fill:none;stroke:red;stroke-width:1px;stroke-linecap:butt;stroke-linejoin:miter;stroke-opacity:1" d="M 554.457,263.039 554.457,272.851 z" id="boundary" inkscape:connector-curvature="0" />
	<path style="fill:none;stroke:red;stroke-width:1px;stroke-linecap:butt;stroke-linejoin:miter;stroke-opacity:1" d="M 554.457,272.851 559.363,281.682 z" id="boundary" inkscape:connector-curvature="0" />
	<path style="fill:none;stroke:red;stroke-width:1px;stroke-linecap:butt;stroke-linejoin:miter;stroke-opacity:1" d="M 555.438,775.228 565.25,775.228 z" id="boundary" inkscape:connector-curvature="0" />
	<path style="fill:none;stroke:red;stroke-width:1px;stroke-linecap:butt;stroke-linejoin:miter;stroke-opacity:1" d="M 559.363,281.682 559.363,291.494 z" id="boundary" inkscape:connector-curvature="0" />
	<path style="fill:none;stroke:red;stroke-width:1px;stroke-linecap:butt;stroke-linejoin:miter;stroke-opacity:1" d="M 559.363,291.494 559.363,301.306 z" id="boundary" inkscape:connector-curvature="0" />
	<path style="fill:none;stroke:red;stroke-width:1px;stroke-linecap:butt;stroke-linejoin:miter;stroke-opacity:1" d="M 559.363,301.306 559.363,311.118 z" id="boundary" inkscape:connector-curvature="0" />
	<path style="fill:none;stroke:red;stroke-width:1px;stroke-linecap:butt;stroke-linejoin:miter;stroke-opacity:1" d="M 559.363,311.118 559.363,320.93 z" id="boundary" inkscape:connector-curvature="0" />
	<path style="fill:none;stroke:red;stroke-width:1px;stroke-linecap:butt;stroke-linejoin:miter;stroke-opacity:1" d="M 559.363,320.93 569.175,322.892 z" id="boundary" inkscape:connector-curvature="0" />
	<path style="fill:none;stroke:red;stroke-width:1px;stroke-linecap:butt;stroke-linejoin:miter;stroke-opacity:1" d="M 563.288,166.88 573.1,166.88 z" id="boundary" inkscape:connector-curvature="0" />
	<path style="fill:none;stroke:red;stroke-width:1px;stroke-linecap:butt;stroke-linejoin:miter;stroke-opacity:1" d="M 564.269,97.2146 574.081,97.2146 z" id="boundary" inkscape:connector-curvature="0" />
	<path style="fill:none;stroke:red;stroke-width:1px;stroke-linecap:butt;stroke-linejoin:miter;stroke-opacity:1" d="M 565.25,775.228 575.062,775.228 z" id="boundary" inkscape:connector-curvature="0" />
	<path style="fill:none;stroke:red;stroke-width:1px;stroke-linecap:butt;stroke-linejoin:miter;stroke-opacity:1" d="M 569.175,322.892 578.987,322.892 z" id="boundary" inkscape:connector-curvature="0" />
	<path style="fill:none;stroke:red;stroke-width:1px;stroke-linecap:butt;stroke-linejoin:miter;stroke-opacity:1" d="M 573.1,166.88 582.912,166.88 z" id="boundary" inkscape:connector-curvature="0" />
	<path style="fill:none;stroke:red;stroke-width:1px;stroke-linecap:butt;stroke-linejoin:miter;stroke-opacity:1" d="M 574.081,97.2146 583.893,97.2146 z" id="boundary" inkscape:connector-curvature="0" />
	<path style="fill:none;stroke:red;stroke-width:1px;stroke-linecap:butt;stroke-linejoin:miter;stroke-opacity:1" d="M 575.062,775.228 584.874,775.228 z" id="boundary" inkscape:connector-curvature="0" />
	<path style="fill:none;stroke:red;stroke-width:1px;stroke-linecap:butt;stroke-linejoin:miter;stroke-opacity:1" d="M 578.987,322.892 588.799,322.892 z" id="boundary" inkscape:connector-curvature="0" />
	<path style="fill:none;stroke:red;stroke-width:1px;stroke-linecap:butt;stroke-linejoin:miter;stroke-opacity:1" d="M 582.912,166.88 592.724,166.88 z" id="boundary" inkscape:connector-curvature="0" />
	<path style="fill:none;stroke:red;stroke-width:1px;stroke-linecap:butt;stroke-linejoin:miter;stroke-opacity:1" d="M 583.893,97.2146 593.705,97.2146 z" id="boundary" inkscape:connector-curvature="0" />
	<path style="fill:none;stroke:red;stroke-width:1px;stroke-linecap:butt;stroke-linejoin:miter;stroke-opacity:1" d="M 584.874,775.228 594.686,775.228 z" id="boundary" inkscape:connector-curvature="0" />
	<path style="fill:none;stroke:red;stroke-width:1px;stroke-linecap:butt;stroke-linejoin:miter;stroke-opacity:1" d="M 588.799,322.892 598.611,322.892 z" id="boundary" inkscape:connector-curvature="0" />
	<path style="fill:none;stroke:red;stroke-width:1px;stroke-linecap:butt;stroke-linejoin:miter;stroke-opacity:1" d="M 592.724,166.88 602.536,163.937 z" id="boundary" inkscape:connector-curvature="0" />
	<path style="fill:none;stroke:red;stroke-width:1px;stroke-linecap:butt;stroke-linejoin:miter;stroke-opacity:1" d="M 593.705,97.2146 603.517,97.2146 z" id="boundary" inkscape:connector-curvature="0" />
	<path style="fill:none;stroke:red;stroke-width:1px;stroke-linecap:butt;stroke-linejoin:miter;stroke-opacity:1" d="M 594.686,775.228 603.517,770.322 z" id="boundary" inkscape:connector-curvature="0" />
	<path style="fill:none;stroke:red;stroke-width:1px;stroke-linecap:butt;stroke-linejoin:miter;stroke-opacity:1" d="M 598.611,322.892 608.423,325.836 z" id="boundary" inkscape:connector-curvature="0" />
	<path style="fill:none;stroke:red;stroke-width:1px;stroke-linecap:butt;stroke-linejoin:miter;stroke-opacity:1" d="M 602.536,163.937 612.348,161.974 z" id="boundary" inkscape:connector-curvature="0" />
	<path style="fill:none;stroke:red;stroke-width:1px;stroke-linecap:butt;stroke-linejoin:miter;stroke-opacity:1" d="M 603.517,97.2146 612.348,102.121 z" id="boundary" inkscape:connector-curvature="0" />
	<path style="fill:none;stroke:red;stroke-width:1px;stroke-linecap:butt;stroke-linejoin:miter;stroke-opacity:1" d="M 603.517,770.322 613.329,765.416 z" id="boundary" inkscape:connector-curvature="0" />
	<path style="fill:none;stroke:red;stroke-width:1px;stroke-linecap:butt;stroke-linejoin:miter;stroke-opacity:1" d="M 608.423,325.836 618.235,327.798 z" id="boundary" inkscape:connector-curvature="0" />
	<path style="fill:none;stroke:red;stroke-width:1px;stroke-linecap:butt;stroke-linejoin:miter;stroke-opacity:1" d="M 612.348,102.121 621.179,107.027 z" id="boundary" inkscape:connector-curvature="0" />
	<path style="fill:none;stroke:red;stroke-width:1px;stroke-linecap:butt;stroke-linejoin:miter;stroke-opacity:1" d="M 612.348,161.974 622.16,161.974 z" id="boundary" inkscape:connector-curvature="0" />
	<path style="fill:none;stroke:red;stroke-width:1px;stroke-linecap:butt;stroke-linejoin:miter;stroke-opacity:1" d="M 613.329,765.416 623.141,765.416 z" id="boundary" inkscape:connector-curvature="0" />
	<path style="fill:none;stroke:red;stroke-width:1px;stroke-linecap:butt;stroke-linejoin:miter;stroke-opacity:1" d="M 618.235,327.798 628.047,327.798 z" id="boundary" inkscape:connector-curvature="0" />
	<path style="fill:none;stroke:red;stroke-width:1px;stroke-linecap:butt;stroke-linejoin:miter;stroke-opacity:1" d="M 621.179,107.027 630.01,111.933 z" id="boundary" inkscape:connector-curvature="0" />
	<path style="fill:none;stroke:red;stroke-width:1px;stroke-linecap:butt;stroke-linejoin:miter;stroke-opacity:1" d="M 622.16,161.974 631.972,159.031 z" id="boundary" inkscape:connector-curvature="0" />
	<path style="fill:none;stroke:red;stroke-width:1px;stroke-linecap:butt;stroke-linejoin:miter;stroke-opacity:1" d="M 623.141,765.416 632.954,760.51 z" id="boundary" inkscape:connector-curvature="0" />
	<path style="fill:none;stroke:red;stroke-width:1px;stroke-linecap:butt;stroke-linejoin:miter;stroke-opacity:1" d="M 628.047,327.798 637.86,327.798 z" id="boundary" inkscape:connector-curvature="0" />
	<path style="fill:none;stroke:red;stroke-width:1px;stroke-linecap:butt;stroke-linejoin:miter;stroke-opacity:1" d="M 630.01,111.933 638.841,116.839 z" id="boundary" inkscape:connector-curvature="0" />
	<path style="fill:none;stroke:red;stroke-width:1px;stroke-linecap:butt;stroke-linejoin:miter;stroke-opacity:1" d="M 631.972,159.031 639.822,151.181 z" id="boundary" inkscape:connector-curvature="0" />
	<path style="fill:none;stroke:red;stroke-width:1px;stroke-linecap:butt;stroke-linejoin:miter;stroke-opacity:1" d="M 632.954,760.51 642.766,755.604 z" id="boundary" inkscape:connector-curvature="0" />
	<path style="fill:none;stroke:red;stroke-width:1px;stroke-linecap:butt;stroke-linejoin:miter;stroke-opacity:1" d="M 637.86,327.798 647.672,327.798 z" id="boundary" inkscape:connector-curvature="0" />
	<path style="fill:none;stroke:red;stroke-width:1px;stroke-linecap:butt;stroke-linejoin:miter;stroke-opacity:1" d="M 638.841,116.839 642.766,126.651 z" id="boundary" inkscape:connector-curvature="0" />
	<path style="fill:none;stroke:red;stroke-width:1px;stroke-linecap:butt;stroke-linejoin:miter;stroke-opacity:1" d="M 639.822,151.181 644.728,141.369 z" id="boundary" inkscape:connector-curvature="0" />
	<path style="fill:none;stroke:red;stroke-width:1px;stroke-linecap:butt;stroke-linejoin:miter;stroke-opacity:1" d="M 642.766,126.651 644.728,141.369 z" id="boundary" inkscape:connector-curvature="0" />
	<path style="fill:none;stroke:red;stroke-width:1px;stroke-linecap:butt;stroke-linejoin:miter;stroke-opacity:1" d="M 642.766,755.604 652.578,750.698 z" id="boundary" inkscape:connector-curvature="0" />
	<path style="fill:none;stroke:red;stroke-width:1px;stroke-linecap:butt;stroke-linejoin:miter;stroke-opacity:1" d="M 647.672,327.798 656.502,332.704 z" id="boundary" inkscape:connector-curvature="0" />
	<path style="fill:none;stroke:red;stroke-width:1px;stroke-linecap:butt;stroke-linejoin:miter;stroke-opacity:1" d="M 652.578,750.698 662.39,745.792 z" id="boundary" inkscape:connector-curvature="0" />
	<path style="fill:none;stroke:red;stroke-width:1px;stroke-linecap:butt;stroke-linejoin:miter;stroke-opacity:1" d="M 656.502,332.704 666.315,332.704 z" id="boundary" inkscape:connector-curvature="0" />
	<path style="fill:none;stroke:red;stroke-width:1px;stroke-linecap:butt;stroke-linejoin:miter;stroke-opacity:1" d="M 662.39,745.792 672.202,740.886 z" id="boundary" inkscape:connector-curvature="0" />
	<path style="fill:none;stroke:red;stroke-width:1px;stroke-linecap:butt;stroke-linejoin:miter;stroke-opacity:1" d="M 666.315,332.704 676.127,334.667 z" id="boundary" inkscape:connector-curvature="0" />
	<path style="fill:none;stroke:red;stroke-width:1px;stroke-linecap:butt;stroke-linejoin:miter;stroke-opacity:1" d="M 672.202,740.886 682.014,735.98 z" id="boundary" inkscape:connector-curvature="0" />
	<path style="fill:none;stroke:red;stroke-width:1px;stroke-linecap:butt;stroke-linejoin:miter;stroke-opacity:1" d="M 676.127,334.667 685.939,337.61 z" id="boundary" inkscape:connector-curvature="0" />
	<path style="fill:none;stroke:red;stroke-width:1px;stroke-linecap:butt;stroke-linejoin:miter;stroke-opacity:1" d="M 682.014,735.98 691.826,735.98 z" id="boundary" inkscape:connector-curvature="0" />
	<path style="fill:none;stroke:red;stroke-width:1px;stroke-linecap:butt;stroke-linejoin:miter;stroke-opacity:1" d="M 685.939,337.61 695.751,339.573 z" id="boundary" inkscape:connector-curvature="0" />
	<path style="fill:none;stroke:red;stroke-width:1px;stroke-linecap:butt;stroke-linejoin:miter;stroke-opacity:1" d="M 691.826,735.98 700.657,731.074 z" id="boundary" inkscape:connector-curvature="0" />
	<path style="fill:none;stroke:red;stroke-width:1px;stroke-linecap:butt;stroke-linejoin:miter;stroke-opacity:1" d="M 695.751,339.573 705.563,342.516 z" id="boundary" inkscape:connector-curvature="0" />
	<path style="fill:none;stroke:red;stroke-width:1px;stroke-linecap:butt;stroke-linejoin:miter;stroke-opacity:1" d="M 700.657,731.074 710.469,728.131 z" id="boundary" inkscape:connector-curvature="0" />
	<path style="fill:none;stroke:red;stroke-width:1px;stroke-linecap:butt;stroke-linejoin:miter;stroke-opacity:1" d="M 705.563,342.516 715.375,342.516 z" id="boundary" inkscape:connector-curvature="0" />
	<path style="fill:none;stroke:red;stroke-width:1px;stroke-linecap:butt;stroke-linejoin:miter;stroke-opacity:1" d="M 710.469,728.131 720.281,726.168 z" id="boundary" inkscape:connector-curvature="0" />
	<path style="fill:none;stroke:red;stroke-width:1px;stroke-linecap:butt;stroke-linejoin:miter;stroke-opacity:1" d="M 715.375,342.516 724.206,347.422 z" id="boundary" inkscape:connector-curvature="0" />
	<path style="fill:none;stroke:red;stroke-width:1px;stroke-linecap:butt;stroke-linejoin:miter;stroke-opacity:1" d="M 720.281,726.168 729.112,721.262 z" id="boundary" inkscape:connector-curvature="0" />
	<path style="fill:none;stroke:red;stroke-width:1px;stroke-linecap:butt;stroke-linejoin:miter;stroke-opacity:1" d="M 724.206,347.422 733.037,352.328 z" id="boundary" inkscape:connector-curvature="0" />
	<path style="fill:none;stroke:red;stroke-width:1px;stroke-linecap:butt;stroke-linejoin:miter;stroke-opacity:1" d="M 729.112,721.262 738.924,721.262 z" id="boundary" inkscape:connector-curvature="0" />
	<path style="fill:none;stroke:red;stroke-width:1px;stroke-linecap:butt;stroke-linejoin:miter;stroke-opacity:1" d="M 733.037,352.328 742.849,352.328 z" id="boundary" inkscape:connector-curvature="0" />
	<path style="fill:none;stroke:red;stroke-width:1px;stroke-linecap:butt;stroke-linejoin:miter;stroke-opacity:1" d="M 738.924,721.262 748.736,719.3 z" id="boundary" inkscape:connector-curvature="0" />
	<path style="fill:none;stroke:red;stroke-width:1px;stroke-linecap:butt;stroke-linejoin:miter;stroke-opacity:1" d="M 742.849,352.328 751.68,357.234 z" id="boundary" inkscape:connector-curvature="0" />
	<path style="fill:none;stroke:red;stroke-width:1px;stroke-linecap:butt;stroke-linejoin:miter;stroke-opacity:1" d="M 748.736,719.3 758.548,716.356 z" id="boundary" inkscape:connector-curvature="0" />
	<path style="fill:none;stroke:red;stroke-width:1px;stroke-linecap:butt;stroke-linejoin:miter;stroke-opacity:1" d="M 751.68,357.234 761.492,357.234 z" id="boundary" inkscape:connector-curvature="0" />
	<path style="fill:none;stroke:red;stroke-width:1px;stroke-linecap:butt;stroke-linejoin:miter;stroke-opacity:1" d="M 758.548,716.356 768.36,714.394 z" id="boundary" inkscape:connector-curvature="0" />
	<path style="fill:none;stroke:red;stroke-width:1px;stroke-linecap:butt;stroke-linejoin:miter;stroke-opacity:1" d="M 761.492,357.234 770.322,362.14 z" id="boundary" inkscape:connector-curvature="0" />
	<path style="fill:none;stroke:red;stroke-width:1px;stroke-linecap:butt;stroke-linejoin:miter;stroke-opacity:1" d="M 768.36,714.394 778.172,711.45 z" id="boundary" inkscape:connector-curvature="0" />
	<path style="fill:none;stroke:red;stroke-width:1px;stroke-linecap:butt;stroke-linejoin:miter;stroke-opacity:1" d="M 770.322,362.14 779.153,367.046 z" id="boundary" inkscape:connector-curvature="0" />
	<path style="fill:none;stroke:red;stroke-width:1px;stroke-linecap:butt;stroke-linejoin:miter;stroke-opacity:1" d="M 778.172,711.45 787.984,709.488 z" id="boundary" inkscape:connector-curvature="0" />
	<path style="fill:none;stroke:red;stroke-width:1px;stroke-linecap:butt;stroke-linejoin:miter;stroke-opacity:1" d="M 779.153,367.046 787.984,371.953 z" id="boundary" inkscape:connector-curvature="0" />
	<path style="fill:none;stroke:red;stroke-width:1px;stroke-linecap:butt;stroke-linejoin:miter;stroke-opacity:1" d="M 787.984,371.953 797.796,372.934 z" id="boundary" inkscape:connector-curvature="0" />
	<path style="fill:none;stroke:red;stroke-width:1px;stroke-linecap:butt;stroke-linejoin:miter;stroke-opacity:1" d="M 787.984,709.488 797.796,704.582 z" id="boundary" inkscape:connector-curvature="0" />
	<path style="fill:none;stroke:red;stroke-width:1px;stroke-linecap:butt;stroke-linejoin:miter;stroke-opacity:1" d="M 797.796,372.934 806.627,377.84 z" id="boundary" inkscape:connector-curvature="0" />
	<path style="fill:none;stroke:red;stroke-width:1px;stroke-linecap:butt;stroke-linejoin:miter;stroke-opacity:1" d="M 797.796,704.582 804.665,696.732 z" id="boundary" inkscape:connector-curvature="0" />
	<path style="fill:none;stroke:red;stroke-width:1px;stroke-linecap:butt;stroke-linejoin:miter;stroke-opacity:1" d="M 804.665,696.732 814.477,691.826 z" id="boundary" inkscape:connector-curvature="0" />
	<path style="fill:none;stroke:red;stroke-width:1px;stroke-linecap:butt;stroke-linejoin:miter;stroke-opacity:1" d="M 806.627,377.84 814.477,384.708 z" id="boundary" inkscape:connector-curvature="0" />
	<path style="fill:none;stroke:red;stroke-width:1px;stroke-linecap:butt;stroke-linejoin:miter;stroke-opacity:1" d="M 814.477,384.708 823.308,389.614 z" id="boundary" inkscape:connector-curvature="0" />
	<path style="fill:none;stroke:red;stroke-width:1px;stroke-linecap:butt;stroke-linejoin:miter;stroke-opacity:1" d="M 814.477,691.826 824.289,686.92 z" id="boundary" inkscape:connector-curvature="0" />
	<path style="fill:none;stroke:red;stroke-width:1px;stroke-linecap:butt;stroke-linejoin:miter;stroke-opacity:1" d="M 823.308,389.614 828.214,398.445 z" id="boundary" inkscape:connector-curvature="0" />
	<path style="fill:none;stroke:red;stroke-width:1px;stroke-linecap:butt;stroke-linejoin:miter;stroke-opacity:1" d="M 824.289,686.92 832.138,680.051 z" id="boundary" inkscape:connector-curvature="0" />
	<path style="fill:none;stroke:red;stroke-width:1px;stroke-linecap:butt;stroke-linejoin:miter;stroke-opacity:1" d="M 828.214,398.445 829.195,408.257 z" id="boundary" inkscape:connector-curvature="0" />
	<path style="fill:none;stroke:red;stroke-width:1px;stroke-linecap:butt;stroke-linejoin:miter;stroke-opacity:1" d="M 829.195,408.257 829.195,418.069 z" id="boundary" inkscape:connector-curvature="0" />
	<path style="fill:none;stroke:red;stroke-width:1px;stroke-linecap:butt;stroke-linejoin:miter;stroke-opacity:1" d="M 829.195,418.069 829.195,427.881 z" id="boundary" inkscape:connector-curvature="0" />
	<path style="fill:none;stroke:red;stroke-width:1px;stroke-linecap:butt;stroke-linejoin:miter;stroke-opacity:1" d="M 829.195,427.881 829.195,437.693 z" id="boundary" inkscape:connector-curvature="0" />
	<path style="fill:none;stroke:red;stroke-width:1px;stroke-linecap:butt;stroke-linejoin:miter;stroke-opacity:1" d="M 829.195,437.693 838.026,442.599 z" id="boundary" inkscape:connector-curvature="0" />
	<path style="fill:none;stroke:red;stroke-width:1px;stroke-linecap:butt;stroke-linejoin:miter;stroke-opacity:1" d="M 832.138,680.051 841.951,675.145 z" id="boundary" inkscape:connector-curvature="0" />
	<path style="fill:none;stroke:red;stroke-width:1px;stroke-linecap:butt;stroke-linejoin:miter;stroke-opacity:1" d="M 838.026,442.599 847.838,445.543 z" id="boundary" inkscape:connector-curvature="0" />
	<path style="fill:none;stroke:red;stroke-width:1px;stroke-linecap:butt;stroke-linejoin:miter;stroke-opacity:1" d="M 841.951,675.145 851.763,672.202 z" id="boundary" inkscape:connector-curvature="0" />
	<path style="fill:none;stroke:red;stroke-width:1px;stroke-linecap:butt;stroke-linejoin:miter;stroke-opacity:1" d="M 847.838,445.543 856.669,450.449 z" id="boundary" inkscape:connector-curvature="0" />
	<path style="fill:none;stroke:red;stroke-width:1px;stroke-linecap:butt;stroke-linejoin:miter;stroke-opacity:1" d="M 851.763,672.202 860.593,667.296 z" id="boundary" inkscape:connector-curvature="0" />
	<path style="fill:none;stroke:red;stroke-width:1px;stroke-linecap:butt;stroke-linejoin:miter;stroke-opacity:1" d="M 856.669,450.449 865.5,455.355 z" id="boundary" inkscape:connector-curvature="0" />
	<path style="fill:none;stroke:red;stroke-width:1px;stroke-linecap:butt;stroke-linejoin:miter;stroke-opacity:1" d="M 860.593,667.296 870.406,666.315 z" id="boundary" inkscape:connector-curvature="0" />
	<path style="fill:none;stroke:red;stroke-width:1px;stroke-linecap:butt;stroke-linejoin:miter;stroke-opacity:1" d="M 865.5,455.355 874.33,460.261 z" id="boundary" inkscape:connector-curvature="0" />
	<path style="fill:none;stroke:red;stroke-width:1px;stroke-linecap:butt;stroke-linejoin:miter;stroke-opacity:1" d="M 870.406,666.315 880.218,662.39 z" id="boundary" inkscape:connector-curvature="0" />
	<path style="fill:none;stroke:red;stroke-width:1px;stroke-linecap:butt;stroke-linejoin:miter;stroke-opacity:1" d="M 874.33,460.261 884.142,460.261 z" id="boundary" inkscape:connector-curvature="0" />
	<path style="fill:none;stroke:red;stroke-width:1px;stroke-linecap:butt;stroke-linejoin:miter;stroke-opacity:1" d="M 880.218,662.39 890.03,662.39 z" id="boundary" inkscape:connector-curvature="0" />
	<path style="fill:none;stroke:red;stroke-width:1px;stroke-linecap:butt;stroke-linejoin:miter;stroke-opacity:1" d="M 884.142,460.261 892.973,465.167 z" id="boundary" inkscape:connector-curvature="0" />
	<path style="fill:none;stroke:red;stroke-width:1px;stroke-linecap:butt;stroke-linejoin:miter;stroke-opacity:1" d="M 890.03,662.39 898.861,657.484 z" id="boundary" inkscape:connector-curvature="0" />
	<path style="fill:none;stroke:red;stroke-width:1px;stroke-linecap:butt;stroke-linejoin:miter;stroke-opacity:1" d="M 892.973,465.167 902.785,468.111 z" id="boundary" inkscape:connector-curvature="0" />
	<path style="fill:none;stroke:red;stroke-width:1px;stroke-linecap:butt;stroke-linejoin:miter;stroke-opacity:1" d="M 898.861,657.484 908.673,657.484 z" id="boundary" inkscape:connector-curvature="0" />
	<path style="fill:none;stroke:red;stroke-width:1px;stroke-linecap:butt;stroke-linejoin:miter;stroke-opacity:1" d="M 902.785,468.111 912.597,470.073 z" id="boundary" inkscape:connector-curvature="0" />
	<path style="fill:none;stroke:red;stroke-width:1px;stroke-linecap:butt;stroke-linejoin:miter;stroke-opacity:1" d="M 908.673,657.484 918.485,657.484 z" id="boundary" inkscape:connector-curvature="0" />
	<path style="fill:none;stroke:red;stroke-width:1px;stroke-linecap:butt;stroke-linejoin:miter;stroke-opacity:1" d="M 912.597,470.073 921.428,474.979 z" id="boundary" inkscape:connector-curvature="0" />
	<path style="fill:none;stroke:red;stroke-width:1px;stroke-linecap:butt;stroke-linejoin:miter;stroke-opacity:1" d="M 918.485,657.484 928.297,657.484 z" id="boundary" inkscape:connector-curvature="0" />
	<path style="fill:none;stroke:red;stroke-width:1px;stroke-linecap:butt;stroke-linejoin:miter;stroke-opacity:1" d="M 921.428,474.979 929.278,480.866 z" id="boundary" inkscape:connector-curvature="0" />
	<path style="fill:none;stroke:red;stroke-width:1px;stroke-linecap:butt;stroke-linejoin:miter;stroke-opacity:1" d="M 928.297,657.484 938.109,657.484 z" id="boundary" inkscape:connector-curvature="0" />
	<path style="fill:none;stroke:red;stroke-width:1px;stroke-linecap:butt;stroke-linejoin:miter;stroke-opacity:1" d="M 929.278,480.866 939.09,484.791 z" id="boundary" inkscape:connector-curvature="0" />
	<path style="fill:none;stroke:red;stroke-width:1px;stroke-linecap:butt;stroke-linejoin:miter;stroke-opacity:1" d="M 938.109,657.484 947.921,657.484 z" id="boundary" inkscape:connector-curvature="0" />
	<path style="fill:none;stroke:red;stroke-width:1px;stroke-linecap:butt;stroke-linejoin:miter;stroke-opacity:1" d="M 939.09,484.791 945.958,492.641 z" id="boundary" inkscape:connector-curvature="0" />
	<path style="fill:none;stroke:red;stroke-width:1px;stroke-linecap:butt;stroke-linejoin:miter;stroke-opacity:1" d="M 945.958,492.641 955.771,496.566 z" id="boundary" inkscape:connector-curvature="0" />
	<path style="fill:none;stroke:red;stroke-width:1px;stroke-linecap:butt;stroke-linejoin:miter;stroke-opacity:1" d="M 947.921,657.484 956.752,652.578 z" id="boundary" inkscape:connector-curvature="0" />
	<path style="fill:none;stroke:red;stroke-width:1px;stroke-linecap:butt;stroke-linejoin:miter;stroke-opacity:1" d="M 955.771,496.566 964.601,501.472 z" id="boundary" inkscape:connector-curvature="0" />
	<path style="fill:none;stroke:red;stroke-width:1px;stroke-linecap:butt;stroke-linejoin:miter;stroke-opacity:1" d="M 956.752,652.578 965.583,647.672 z" id="boundary" inkscape:connector-curvature="0" />
	<path style="fill:none;stroke:red;stroke-width:1px;stroke-linecap:butt;stroke-linejoin:miter;stroke-opacity:1" d="M 964.601,501.472 971.47,509.321 z" id="boundary" inkscape:connector-curvature="0" />
	<path style="fill:none;stroke:red;stroke-width:1px;stroke-linecap:butt;stroke-linejoin:miter;stroke-opacity:1" d="M 965.583,647.672 973.432,641.784 z" id="boundary" inkscape:connector-curvature="0" />
	<path style="fill:none;stroke:red;stroke-width:1px;stroke-linecap:butt;stroke-linejoin:miter;stroke-opacity:1" d="M 971.47,509.321 981.282,512.265 z" id="boundary" inkscape:connector-curvature="0" />
	<path style="fill:none;stroke:red;stroke-width:1px;stroke-linecap:butt;stroke-linejoin:miter;stroke-opacity:1" d="M 973.432,641.784 981.282,628.047 z" id="boundary" inkscape:connector-curvature="0" />
	<path style="fill:none;stroke:red;stroke-width:1px;stroke-linecap:butt;stroke-linejoin:miter;stroke-opacity:1" d="M 981.282,512.265 986.188,521.096 z" id="boundary" inkscape:connector-curvature="0" />
	<path style="fill:none;stroke:red;stroke-width:1px;stroke-linecap:butt;stroke-linejoin:miter;stroke-opacity:1" d="M 981.282,628.047 986.188,613.329 z" id="boundary" inkscape:connector-curvature="0" />
	<path style="fill:none;stroke:red;stroke-width:1px;stroke-linecap:butt;stroke-linejoin:miter;stroke-opacity:1" d="M 986.188,521.096 991.094,529.927 z" id="boundary" inkscape:connector-curvature="0" />
	<path style="fill:none;stroke:red;stroke-width:1px;stroke-linecap:butt;stroke-linejoin:miter;stroke-opacity:1" d="M 986.188,613.329 991.094,598.611 z" id="boundary" inkscape:connector-curvature="0" />
	<path style="fill:none;stroke:red;stroke-width:1px;stroke-linecap:butt;stroke-linejoin:miter;stroke-opacity:1" d="M 991.094,529.927 996,538.758 z" id="boundary" inkscape:connector-curvature="0" />
	<path style="fill:none;stroke:red;stroke-width:1px;stroke-linecap:butt;stroke-linejoin:miter;stroke-opacity:1" d="M 991.094,598.611 996,587.818 z" id="boundary" inkscape:connector-curvature="0" />
	<path style="fill:none;stroke:red;stroke-width:1px;stroke-linecap:butt;stroke-linejoin:miter;stroke-opacity:1" d="M 996,538.758 996,548.57 z" id="boundary" inkscape:connector-curvature="0" />
	<path style="fill:none;stroke:red;stroke-width:1px;stroke-linecap:butt;stroke-linejoin:miter;stroke-opacity:1" d="M 996,548.57 996,558.382 z" id="boundary" inkscape:connector-curvature="0" />
	<path style="fill:none;stroke:red;stroke-width:1px;stroke-linecap:butt;stroke-linejoin:miter;stroke-opacity:1" d="M 996,558.382 996,568.194 z" id="boundary" inkscape:connector-curvature="0" />
	<path style="fill:none;stroke:red;stroke-width:1px;stroke-linecap:butt;stroke-linejoin:miter;stroke-opacity:1" d="M 996,568.194 996,578.006 z" id="boundary" inkscape:connector-curvature="0" />
	<path style="fill:none;stroke:red;stroke-width:1px;stroke-linecap:butt;stroke-linejoin:miter;stroke-opacity:1" d="M 996,578.006 996,587.818 z" id="boundary" inkscape:connector-curvature="0" />
	<circle cx="4" cy="580.95" r="4" fill="#0" id="circle0"/>
	<circle cx="4" cy="590.762" r="4" fill="#0" id="circle1"/>
	<circle cx="4" cy="600.574" r="4" fill="#0" id="circle2"/>
	<circle cx="4" cy="610.386" r="4" fill="#0" id="circle3"/>
	<circle cx="8.90603" cy="566.231" r="4" fill="#0" id="circle4"/>
	<circle cx="8.90603" cy="619.217" r="4" fill="#0" id="circle5"/>
	<circle cx="13.8121" cy="556.419" r="4" fill="#0" id="circle6"/>
	<circle cx="13.8121" cy="628.047" r="4" fill="#0" id="circle7"/>
	<circle cx="16.7557" cy="637.86" r="4" fill="#0" id="circle8"/>
	<circle cx="21.6617" cy="548.57" r="4" fill="#0" id="circle9"/>
	<circle cx="21.6617" cy="646.69" r="4" fill="#0" id="circle10"/>
	<circle cx="25.5865" cy="656.502" r="4" fill="#0" id="circle11"/>
	<circle cx="26.5678" cy="538.758" r="4" fill="#0" id="circle12"/>
	<circle cx="31.4738" cy="528.946" r="4" fill="#0" id="circle13"/>
	<circle cx="33.4362" cy="662.39" r="4" fill="#0" id="circle14"/>
	<circle cx="38.3422" cy="517.171" r="4" fill="#0" id="circle15"/>
	<circle cx="39.3234" cy="670.239" r="4" fill="#0" id="circle16"/>
	<circle cx="46.1919" cy="509.321" r="4" fill="#0" id="circle17"/>
	<circle cx="49.1355" cy="674.164" r="4" fill="#0" id="circle18"/>
	<circle cx="51.0979" cy="499.509" r="4" fill="#0" id="circle19"/>
	<circle cx="57.9664" cy="679.07" r="4" fill="#0" id="circle20"/>
	<circle cx="58.9476" cy="491.66" r="4" fill="#0" id="circle21"/>
	<circle cx="66.7972" cy="484.791" r="4" fill="#0" id="circle22"/>
	<circle cx="67.7784" cy="682.014" r="4" fill="#0" id="circle23"/>
	<circle cx="75.6281" cy="479.885" r="4" fill="#0" id="circle24"/>
	<circle cx="77.5905" cy="682.014" r="4" fill="#0" id="circle25"/>
	<circle cx="84.459" cy="474.979" r="4" fill="#0" id="circle26"/>
	<circle cx="86.4214" cy="686.92" r="4" fill="#0" id="circle27"/>
	<circle cx="93.2898" cy="470.073" r="4" fill="#0" id="circle28"/>
	<circle cx="95.2522" cy="691.826" r="4" fill="#0" id="circle29"/>
	<circle cx="102.121" cy="465.167" r="4" fill="#0" id="circle30"/>
	<circle cx="105.064" cy="691.826" r="4" fill="#0" id="circle31"/>
	<circle cx="110.952" cy="460.261" r="4" fill="#0" id="circle32"/>
	<circle cx="114.876" cy="695.751" r="4" fill="#0" id="circle33"/>
	<circle cx="119.782" cy="455.355" r="4" fill="#0" id="circle34"/>
	<circle cx="124.688" cy="696.732" r="4" fill="#0" id="circle35"/>
	<circle cx="129.594" cy="450.449" r="4" fill="#0" id="circle36"/>
	<circle cx="134.5" cy="696.732" r="4" fill="#0" id="circle37"/>
	<circle cx="139.407" cy="445.543" r="4" fill="#0" id="circle38"/>
	<circle cx="144.313" cy="700.657" r="4" fill="#0" id="circle39"/>
	<circle cx="149.219" cy="445.543" r="4" fill="#0" id="circle40"/>
	<circle cx="154.125" cy="701.638" r="4" fill="#0" id="circle41"/>
	<circle cx="158.049" cy="440.637" r="4" fill="#0" id="circle42"/>
	<circle cx="163.937" cy="701.638" r="4" fill="#0" id="circle43"/>
	<circle cx="167.862" cy="436.712" r="4" fill="#0" id="circle44"/>
	<circle cx="173.749" cy="701.638" r="4" fill="#0" id="circle45"/>
	<circle cx="177.674" cy="435.731" r="4" fill="#0" id="circle46"/>
	<circle cx="182.58" cy="706.544" r="4" fill="#0" id="circle47"/>
	<circle cx="185.523" cy="423.956" r="4" fill="#0" id="circle48"/>
	<circle cx="192.392" cy="706.544" r="4" fill="#0" id="circle49"/>
	<circle cx="193.373" cy="416.107" r="4" fill="#0" id="circle50"/>
	<circle cx="201.223" cy="408.257" r="4" fill="#0" id="circle51"/>
	<circle cx="201.223" cy="711.45" r="4" fill="#0" id="circle52"/>
	<circle cx="210.053" cy="716.356" r="4" fill="#0" id="circle53"/>
	<circle cx="211.035" cy="403.351" r="4" fill="#0" id="circle54"/>
	<circle cx="219.865" cy="716.356" r="4" fill="#0" id="circle55"/>
	<circle cx="220.847" cy="398.445" r="4" fill="#0" id="circle56"/>
	<circle cx="228.696" cy="721.262" r="4" fill="#0" id="circle57"/>
	<circle cx="230.659" cy="393.539" r="4" fill="#0" id="circle58"/>
	<circle cx="238.508" cy="721.262" r="4" fill="#0" id="circle59"/>
	<circle cx="240.471" cy="388.633" r="4" fill="#0" id="circle60"/>
	<circle cx="247.339" cy="726.168" r="4" fill="#0" id="circle61"/>
	<circle cx="250.283" cy="386.671" r="4" fill="#0" id="circle62"/>
	<circle cx="257.151" cy="726.168" r="4" fill="#0" id="circle63"/>
	<circle cx="259.114" cy="381.765" r="4" fill="#0" id="circle64"/>
	<circle cx="265.982" cy="731.074" r="4" fill="#0" id="circle65"/>
	<circle cx="267.945" cy="376.859" r="4" fill="#0" id="circle66"/>
	<circle cx="275.794" cy="731.074" r="4" fill="#0" id="circle67"/>
	<circle cx="277.757" cy="376.859" r="4" fill="#0" id="circle68"/>
	<circle cx="285.606" cy="731.074" r="4" fill="#0" id="circle69"/>
	<circle cx="286.588" cy="371.953" r="4" fill="#0" id="circle70"/>
	<circle cx="294.437" cy="735.98" r="4" fill="#0" id="circle71"/>
	<circle cx="296.4" cy="367.046" r="4" fill="#0" id="circle72"/>
	<circle cx="304.249" cy="735.98" r="4" fill="#0" id="circle73"/>
	<circle cx="306.212" cy="367.046" r="4" fill="#0" id="circle74"/>
	<circle cx="313.08" cy="740.886" r="4" fill="#0" id="circle75"/>
	<circle cx="316.024" cy="362.14" r="4" fill="#0" id="circle76"/>
	<circle cx="322.892" cy="740.886" r="4" fill="#0" id="circle77"/>
	<circle cx="325.836" cy="362.14" r="4" fill="#0" id="circle78"/>
	<circle cx="332.704" cy="740.886" r="4" fill="#0" id="circle79"/>
	<circle cx="334.667" cy="357.234" r="4" fill="#0" id="circle80"/>
	<circle cx="341.535" cy="745.792" r="4" fill="#0" id="circle81"/>
	<circle cx="344.479" cy="353.31" r="4" fill="#0" id="circle82"/>
	<circle cx="347.422" cy="139.407" r="4" fill="#0" id="circle83"/>
	<circle cx="351.347" cy="745.792" r="4" fill="#0" id="circle84"/>
	<circle cx="352.328" cy="129.594" r="4" fill="#0" id="circle85"/>
	<circle cx="354.291" cy="352.328" r="4" fill="#0" id="circle86"/>
	<circle cx="355.272" cy="146.275" r="4" fill="#0" id="circle87"/>
	<circle cx="357.234" cy="119.782" r="4" fill="#0" id="circle88"/>
	<circle cx="361.159" cy="745.792" r="4" fill="#0" id="circle89"/>
	<circle cx="363.122" cy="152.162" r="4" fill="#0" id="circle90"/>
	<circle cx="364.103" cy="348.404" r="4" fill="#0" id="circle91"/>
	<circle cx="367.046" cy="114.876" r="4" fill="#0" id="circle92"/>
	<circle cx="370.971" cy="745.792" r="4" fill="#0" id="circle93"/>
	<circle cx="371.953" cy="342.516" r="4" fill="#0" id="circle94"/>
	<circle cx="372.934" cy="152.162" r="4" fill="#0" id="circle95"/>
	<circle cx="376.859" cy="111.933" r="4" fill="#0" id="circle96"/>
	<circle cx="379.802" cy="750.698" r="4" fill="#0" id="circle97"/>
	<circle cx="380.783" cy="337.61" r="4" fill="#0" id="circle98"/>
	<circle cx="382.746" cy="152.162" r="4" fill="#0" id="circle99"/>
	<circle cx="386.671" cy="111.933" r="4" fill="#0" id="circle100"/>
	<circle cx="389.614" cy="750.698" r="4" fill="#0" id="circle101"/>
	<circle cx="390.595" cy="337.61" r="4" fill="#0" id="circle102"/>
	<circle cx="392.558" cy="152.162" r="4" fill="#0" id="circle103"/>
	<circle cx="395.501" cy="116.839" r="4" fill="#0" id="circle104"/>
	<circle cx="399.426" cy="750.698" r="4" fill="#0" id="circle105"/>
	<circle cx="400.408" cy="337.61" r="4" fill="#0" id="circle106"/>
	<circle cx="402.37" cy="152.162" r="4" fill="#0" id="circle107"/>
	<circle cx="405.314" cy="116.839" r="4" fill="#0" id="circle108"/>
	<circle cx="409.238" cy="754.623" r="4" fill="#0" id="circle109"/>
	<circle cx="410.22" cy="337.61" r="4" fill="#0" id="circle110"/>
	<circle cx="411.201" cy="157.068" r="4" fill="#0" id="circle111"/>
	<circle cx="415.126" cy="117.82" r="4" fill="#0" id="circle112"/>
	<circle cx="419.05" cy="755.604" r="4" fill="#0" id="circle113"/>
	<circle cx="420.032" cy="337.61" r="4" fill="#0" id="circle114"/>
	<circle cx="421.013" cy="157.068" r="4" fill="#0" id="circle115"/>
	<circle cx="424.938" cy="121.745" r="4" fill="#0" id="circle116"/>
	<circle cx="428.863" cy="755.604" r="4" fill="#0" id="circle117"/>
	<circle cx="429.844" cy="161.974" r="4" fill="#0" id="circle118"/>
	<circle cx="429.844" cy="337.61" r="4" fill="#0" id="circle119"/>
	<circle cx="434.75" cy="121.745" r="4" fill="#0" id="circle120"/>
	<circle cx="438.675" cy="166.88" r="4" fill="#0" id="circle121"/>
	<circle cx="438.675" cy="759.529" r="4" fill="#0" id="circle122"/>
	<circle cx="439.656" cy="337.61" r="4" fill="#0" id="circle123"/>
	<circle cx="444.562" cy="121.745" r="4" fill="#0" id="circle124"/>
	<circle cx="445.543" cy="174.73" r="4" fill="#0" id="circle125"/>
	<circle cx="448.487" cy="760.51" r="4" fill="#0" id="circle126"/>
	<circle cx="449.468" cy="337.61" r="4" fill="#0" id="circle127"/>
	<circle cx="450.449" cy="316.024" r="4" fill="#0" id="circle128"/>
	<circle cx="450.449" cy="325.836" r="4" fill="#0" id="circle129"/>
	<circle cx="453.393" cy="181.598" r="4" fill="#0" id="circle130"/>
	<circle cx="454.374" cy="121.745" r="4" fill="#0" id="circle131"/>
	<circle cx="455.355" cy="31.4738" r="4" fill="#0" id="circle132"/>
	<circle cx="455.355" cy="296.4" r="4" fill="#0" id="circle133"/>
	<circle cx="455.355" cy="306.212" r="4" fill="#0" id="circle134"/>
	<circle cx="458.299" cy="760.51" r="4" fill="#0" id="circle135"/>
	<circle cx="460.261" cy="21.6617" r="4" fill="#0" id="circle136"/>
	<circle cx="460.261" cy="40.3046" r="4" fill="#0" id="circle137"/>
	<circle cx="460.261" cy="271.869" r="4" fill="#0" id="circle138"/>
	<circle cx="460.261" cy="281.682" r="4" fill="#0" id="circle139"/>
	<circle cx="462.224" cy="186.504" r="4" fill="#0" id="circle140"/>
	<circle cx="464.186" cy="121.745" r="4" fill="#0" id="circle141"/>
	<circle cx="465.167" cy="49.1355" r="4" fill="#0" id="circle142"/>
	<circle cx="465.167" cy="196.317" r="4" fill="#0" id="circle143"/>
	<circle cx="465.167" cy="206.129" r="4" fill="#0" id="circle144"/>
	<circle cx="465.167" cy="215.941" r="4" fill="#0" id="circle145"/>
	<circle cx="465.167" cy="225.753" r="4" fill="#0" id="circle146"/>
	<circle cx="465.167" cy="235.565" r="4" fill="#0" id="circle147"/>
	<circle cx="465.167" cy="245.377" r="4" fill="#0" id="circle148"/>
	<circle cx="465.167" cy="255.189" r="4" fill="#0" id="circle149"/>
	<circle cx="468.111" cy="13.8121" r="4" fill="#0" id="circle150"/>
	<circle cx="468.111" cy="58.9476" r="4" fill="#0" id="circle151"/>
	<circle cx="468.111" cy="760.51" r="4" fill="#0" id="circle152"/>
	<circle cx="471.054" cy="113.895" r="4" fill="#0" id="circle153"/>
	<circle cx="473.017" cy="67.7784" r="4" fill="#0" id="circle154"/>
	<circle cx="474.979" cy="77.5905" r="4" fill="#0" id="circle155"/>
	<circle cx="474.979" cy="87.4026" r="4" fill="#0" id="circle156"/>
	<circle cx="474.979" cy="97.2146" r="4" fill="#0" id="circle157"/>
	<circle cx="476.942" cy="8.90603" r="4" fill="#0" id="circle158"/>
	<circle cx="477.923" cy="764.435" r="4" fill="#0" id="circle159"/>
	<circle cx="485.773" cy="4" r="4" fill="#0" id="circle160"/>
	<circle cx="487.735" cy="765.416" r="4" fill="#0" id="circle161"/>
	<circle cx="495.585" cy="4" r="4" fill="#0" id="circle162"/>
	<circle cx="496.566" cy="770.322" r="4" fill="#0" id="circle163"/>
	<circle cx="505.397" cy="4" r="4" fill="#0" id="circle164"/>
	<circle cx="506.378" cy="770.322" r="4" fill="#0" id="circle165"/>
	<circle cx="513.246" cy="9.88724" r="4" fill="#0" id="circle166"/>
	<circle cx="516.19" cy="773.266" r="4" fill="#0" id="circle167"/>
	<circle cx="517.171" cy="19.6993" r="4" fill="#0" id="circle168"/>
	<circle cx="520.115" cy="29.5114" r="4" fill="#0" id="circle169"/>
	<circle cx="520.115" cy="39.3234" r="4" fill="#0" id="circle170"/>
	<circle cx="525.021" cy="48.1543" r="4" fill="#0" id="circle171"/>
	<circle cx="526.002" cy="775.228" r="4" fill="#0" id="circle172"/>
	<circle cx="529.927" cy="56.9852" r="4" fill="#0" id="circle173"/>
	<circle cx="529.927" cy="66.7972" r="4" fill="#0" id="circle174"/>
	<circle cx="529.927" cy="76.6093" r="4" fill="#0" id="circle175"/>
	<circle cx="534.833" cy="85.4402" r="4" fill="#0" id="circle176"/>
	<circle cx="534.833" cy="95.2522" r="4" fill="#0" id="circle177"/>
	<circle cx="534.833" cy="176.692" r="4" fill="#0" id="circle178"/>
	<circle cx="534.833" cy="186.504" r="4" fill="#0" id="circle179"/>
	<circle cx="534.833" cy="196.317" r="4" fill="#0" id="circle180"/>
	<circle cx="534.833" cy="206.129" r="4" fill="#0" id="circle181"/>
	<circle cx="535.814" cy="775.228" r="4" fill="#0" id="circle182"/>
	<circle cx="536.795" cy="215.941" r="4" fill="#0" id="circle183"/>
	<circle cx="539.739" cy="225.753" r="4" fill="#0" id="circle184"/>
	<circle cx="541.701" cy="235.565" r="4" fill="#0" id="circle185"/>
	<circle cx="543.664" cy="171.786" r="4" fill="#0" id="circle186"/>
	<circle cx="544.645" cy="97.2146" r="4" fill="#0" id="circle187"/>
	<circle cx="545.626" cy="775.228" r="4" fill="#0" id="circle188"/>
	<circle cx="546.607" cy="244.396" r="4" fill="#0" id="circle189"/>
	<circle cx="549.551" cy="254.208" r="4" fill="#0" id="circle190"/>
	<circle cx="553.476" cy="168.843" r="4" fill="#0" id="circle191"/>
	<circle cx="554.457" cy="97.2146" r="4" fill="#0" id="circle192"/>
	<circle cx="554.457" cy="263.039" r="4" fill="#0" id="circle193"/>
	<circle cx="554.457" cy="272.851" r="4" fill="#0" id="circle194"/>
	<circle cx="555.438" cy="775.228" r="4" fill="#0" id="circle195"/>
	<circle cx="559.363" cy="281.682" r="4" fill="#0" id="circle196"/>
	<circle cx="559.363" cy="291.494" r="4" fill="#0" id="circle197"/>
	<circle cx="559.363" cy="301.306" r="4" fill="#0" id="circle198"/>
	<circle cx="559.363" cy="311.118" r="4" fill="#0" id="circle199"/>
	<circle cx="559.363" cy="320.93" r="4" fill="#0" id="circle200"/>
	<circle cx="563.288" cy="166.88" r="4" fill="#0" id="circle201"/>
	<circle cx="564.269" cy="97.2146" r="4" fill="#0" id="circle202"/>
	<circle cx="565.25" cy="775.228" r="4" fill="#0" id="circle203"/>
	<circle cx="569.175" cy="322.892" r="4" fill="#0" id="circle204"/>
	<circle cx="573.1" cy="166.88" r="4" fill="#0" id="circle205"/>
	<circle cx="574.081" cy="97.2146" r="4" fill="#0" id="circle206"/>
	<circle cx="575.062" cy="775.228" r="4" fill="#0" id="circle207"/>
	<circle cx="578.987" cy="322.892" r="4" fill="#0" id="circle208"/>
	<circle cx="582.912" cy="166.88" r="4" fill="#0" id="circle209"/>
	<circle cx="583.893" cy="97.2146" r="4" fill="#0" id="circle210"/>
	<circle cx="584.874" cy="775.228" r="4" fill="#0" id="circle211"/>
	<circle cx="588.799" cy="322.892" r="4" fill="#0" id="circle212"/>
	<circle cx="592.724" cy="166.88" r="4" fill="#0" id="circle213"/>
	<circle cx="593.705" cy="97.2146" r="4" fill="#0" id="circle214"/>
	<circle cx="594.686" cy="775.228" r="4" fill="#0" id="circle215"/>
	<circle cx="598.611" cy="322.892" r="4" fill="#0" id="circle216"/>
	<circle cx="602.536" cy="163.937" r="4" fill="#0" id="circle217"/>
	<circle cx="603.517" cy="97.2146" r="4" fill="#0" id="circle218"/>
	<circle cx="603.517" cy="770.322" r="4" fill="#0" id="circle219"/>
	<circle cx="608.423" cy="325.836" r="4" fill="#0" id="circle220"/>
	<circle cx="612.348" cy="102.121" r="4" fill="#0" id="circle221"/>
	<circle cx="612.348" cy="161.974" r="4" fill="#0" id="circle222"/>
	<circle cx="613.329" cy="765.416" r="4" fill="#0" id="circle223"/>
	<circle cx="618.235" cy="327.798" r="4" fill="#0" id="circle224"/>
	<circle cx="621.179" cy="107.027" r="4" fill="#0" id="circle225"/>
	<circle cx="622.16" cy="161.974" r="4" fill="#0" id="circle226"/>
	<circle cx="623.141" cy="765.416" r="4" fill="#0" id="circle227"/>
	<circle cx="628.047" cy="327.798" r="4" fill="#0" id="circle228"/>
	<circle cx="630.01" cy="111.933" r="4" fill="#0" id="circle229"/>
	<circle cx="631.972" cy="159.031" r="4" fill="#0" id="circle230"/>
	<circle cx="632.954" cy="760.51" r="4" fill="#0" id="circle231"/>
	<circle cx="637.86" cy="327.798" r="4" fill="#0" id="circle232"/>
	<circle cx="638.841" cy="116.839" r="4" fill="#0" id="circle233"/>
	<circle cx="639.822" cy="151.181" r="4" fill="#0" id="circle234"/>
	<circle cx="642.766" cy="126.651" r="4" fill="#0" id="circle235"/>
	<circle cx="642.766" cy="755.604" r="4" fill="#0" id="circle236"/>
	<circle cx="644.728" cy="141.369" r="4" fill="#0" id="circle237"/>
	<circle cx="647.672" cy="327.798" r="4" fill="#0" id="circle238"/>
	<circle cx="652.578" cy="750.698" r="4" fill="#0" id="circle239"/>
	<circle cx="656.502" cy="332.704" r="4" fill="#0" id="circle240"/>
	<circle cx="662.39" cy="745.792" r="4" fill="#0" id="circle241"/>
	<circle cx="666.315" cy="332.704" r="4" fill="#0" id="circle242"/>
	<circle cx="672.202" cy="740.886" r="4" fill="#0" id="circle243"/>
	<circle cx="676.127" cy="334.667" r="4" fill="#0" id="circle244"/>
	<circle cx="682.014" cy="735.98" r="4" fill="#0" id="circle245"/>
	<circle cx="685.939" cy="337.61" r="4" fill="#0" id="circle246"/>
	<circle cx="691.826" cy="735.98" r="4" fill="#0" id="circle247"/>
	<circle cx="695.751" cy="339.573" r="4" fill="#0" id="circle248"/>
	<circle cx="700.657" cy="731.074" r="4" fill="#0" id="circle249"/>
	<circle cx="705.563" cy="342.516" r="4" fill="#0" id="circle250"/>
	<circle cx="710.469" cy="728.131" r="4" fill="#0" id="circle251"/>
	<circle cx="715.375" cy="342.516" r="4" fill="#0" id="circle252"/>
	<circle cx="720.281" cy="726.168" r="4" fill="#0" id="circle253"/>
	<circle cx="724.206" cy="347.422" r="4" fill="#0" id="circle254"/>
	<circle cx="729.112" cy="721.262" r="4" fill="#0" id="circle255"/>
	<circle cx="733.037" cy="352.328" r="4" fill="#0" id="circle256"/>
	<circle cx="738.924" cy="721.262" r="4" fill="#0" id="circle257"/>
	<circle cx="742.849" cy="352.328" r="4" fill="#0" id="circle258"/>
	<circle cx="748.736" cy="719.3" r="4" fill="#0" id="circle259"/>
	<circle cx="751.68" cy="357.234" r="4" fill="#0" id="circle260"/>
	<circle cx="758.548" cy="716.356" r="4" fill="#0" id="circle261"/>
	<circle cx="761.492" cy="357.234" r="4" fill="#0" id="circle262"/>
	<circle cx="768.36" cy="714.394" r="4" fill="#0" id="circle263"/>
	<circle cx="770.322" cy="362.14" r="4" fill="#0" id="circle264"/>
	<circle cx="778.172" cy="711.45" r="4" fill="#0" id="circle265"/>
	<circle cx="779.153" cy="367.046" r="4" fill="#0" id="circle266"/>
	<circle cx="787.984" cy="371.953" r="4" fill="#0" id="circle267"/>
	<circle cx="787.984" cy="709.488" r="4" fill="#0" id="circle268"/>
	<circle cx="797.796" cy="372.934" r="4" fill="#0" id="circle269"/>
	<circle cx="797.796" cy="704.582" r="4" fill="#0" id="circle270"/>
	<circle cx="804.665" cy="696.732" r="4" fill="#0" id="circle271"/>
	<circle cx="806.627" cy="377.84" r="4" fill="#0" id="circle272"/>
	<circle cx="814.477" cy="384.708" r="4" fill="#0" id="circle273"/>
	<circle cx="814.477" cy="691.826" r="4" fill="#0" id="circle274"/>
	<circle cx="823.308" cy="389.614" r="4" fill="#0" id="circle275"/>
	<circle cx="824.289" cy="686.92" r="4" fill="#0" id="circle276"/>
	<circle cx="828.214" cy="398.445" r="4" fill="#0" id="circle277"/>
	<circle cx="829.195" cy="408.257" r="4" fill="#0" id="circle278"/>
	<circle cx="829.195" cy="418.069" r="4" fill="#0" id="circle279"/>
	<circle cx="829.195" cy="427.881" r="4" fill="#0" id="circle280"/>
	<circle cx="829.195" cy="437.693" r="4" fill="#0" id="circle281"/>
	<circle cx="832.138" cy="680.051" r="4" fill="#0" id="circle282"/>
	<circle cx="838.026" cy="442.599" r="4" fill="#0" id="circle283"/>
	<circle cx="841.951" cy="675.145" r="4" fill="#0" id="circle284"/>
	<circle cx="847.838" cy="445.543" r="4" fill="#0" id="circle285"/>
	<circle cx="851.763" cy="672.202" r="4" fill="#0" id="circle286"/>
	<circle cx="856.669" cy="450.449" r="4" fill="#0" id="circle287"/>
	<circle cx="860.593" cy="667.296" r="4" fill="#0" id="circle288"/>
	<circle cx="865.5" cy="455.355" r="4" fill="#0" id="circle289"/>
	<circle cx="870.406" cy="666.315" r="4" fill="#0" id="circle290"/>
	<circle cx="874.33" cy="460.261" r="4" fill="#0" id="circle291"/>
	<circle cx="880.218" cy="662.39" r="4" fill="#0" id="circle292"/>
	<circle cx="884.142" cy="460.261" r="4" fill="#0" id="circle293"/>
	<circle cx="890.03" cy="662.39" r="4" fill="#0" id="circle294"/>
	<circle cx="892.973" cy="465.167" r="4" fill="#0" id="circle295"/>
	<circle cx="898.861" cy="657.484" r="4" fill="#0" id="circle296"/>
	<circle cx="902.785" cy="468.111" r="4" fill="#0" id="circle297"/>
	<circle cx="908.673" cy="657.484" r="4" fill="#0" id="circle298"/>
	<circle cx="912.597" cy="470.073" r="4" fill="#0" id="circle299"/>
	<circle cx="918.485" cy="657.484" r="4" fill="#0" id="circle300"/>
	<circle cx="921.428" cy="474.979" r="4" fill="#0" id="circle301"/>
	<circle cx="928.297" cy="657.484" r="4" fill="#0" id="circle302"/>
	<circle cx="929.278" cy="480.866" r="4" fill="#0" id="circle303"/>
	<circle cx="938.109" cy="657.484" r="4" fill="#0" id="circle304"/>
	<circle cx="939.09" cy="484.791" r="4" fill="#0" id="circle305"/>
	<circle cx="945.958" cy="492.641" r="4" fill="#0" id="circle306"/>
	<circle cx="947.921" cy="657.484" r="4" fill="#0" id="circle307"/>
	<circle cx="955.771" cy="496.566" r="4" fill="#0" id="circle308"/>
	<circle cx="956.752" cy="652.578" r="4" fill="#0" id="circle309"/>
	<circle cx="964.601" cy="501.472" r="4" fill="#0" id="circle310"/>
	<circle cx="965.583" cy="647.672" r="4" fill="#0" id="circle311"/>
	<circle cx="971.47" cy="509.321" r="4" fill="#0" id="circle312"/>
	<circle cx="973.432" cy="641.784" r="4" fill="#0" id="circle313"/>
	<circle cx="981.282" cy="512.265" r="4" fill="#0" id="circle314"/>
	<circle cx="981.282" cy="628.047" r="4" fill="#0" id="circle315"/>
	<circle cx="986.188" cy="521.096" r="4" fill="#0" id="circle316"/>
	<circle cx="986.188" cy="613.329" r="4" fill="#0" id="circle317"/>
	<circle cx="991.094" cy="529.927" r="4" fill="#0" id="circle318"/>
	<circle cx="991.094" cy="598.611" r="4" fill="#0" id="circle319"/>
	<circle cx="996" cy="538.758" r="4" fill="#0" id="circle320"/>
	<circle cx="996" cy="548.57" r="4" fill="#0" id="circle321"/>
	<circle cx="996" cy="558.382" r="4" fill="#0" id="circle322"/>
	<circle cx="996" cy="568.194" r="4" fill="#0" id="circle323"/>
	<circle cx="996" cy="578.006" r="4" fill="#0" id="circle324"/>
	<circle cx="996" cy="587.818" r="4" fill="#0" id="circle325"/>
	</g>
</svg>