<?xml version="1.0" encoding="UTF-8" standalone="no"?>
<!-- Created with CurveBenchmark -->
<svg
	xmlns:dc="http://purl.org/dc/elements/1.1/"
	xmlns:cc="http://creativecommons.org/ns#"
	xmlns:rdf="http://www.w3.org/1999/02/22-rdf-syntax-ns#"
	xmlns:svg="http://www.w3.org/2000/svg"
	xmlns="http://www.w3.org/2000/svg"
	xmlns:sodipodi="http://sodipodi.sourceforge.net/DTD/sodipodi-0.dtd"
	xmlns:inkscape="http://www.inkscape.org/namespaces/inkscape"
	width="1000"
	height="1000"
	id="svg2"
	version="1.1"
	sodipodi:docname="manifold/hnncrust-hammer-19.png.txt">
<defs
	id="defs4" />
<metadata
	id="metadata7">
	<rdf:RDF>
		<cc:Work
			rdf:about="">
			<dc:format>image/svg+xml</dc:format>
			<dc:type
				rdf:resource="http://purl.org/dc/dcmitype/StillImage" />
			<dc:title></dc:title>
		</cc:Work>
	</rdf:RDF>
</metadata>
<g
	inkscape:label="Layer 1"
	inkscape:groupmode="layer"
	id="layer1">
	<path style="fill:none;stroke:red;stroke-width:1px;stroke-linecap:butt;stroke-linejoin:miter;stroke-opacity:1" d="M 4,412.412 4,422.422 z" id="boundary" inkscape:connector-curvature="0" />
	<path style="fill:none;stroke:red;stroke-width:1px;stroke-linecap:butt;stroke-linejoin:miter;stroke-opacity:1" d="M 4,412.412 14.0101,409.409 z" id="boundary" inkscape:connector-curvature="0" />
	<path style="fill:none;stroke:red;stroke-width:1px;stroke-linecap:butt;stroke-linejoin:miter;stroke-opacity:1" d="M 4,422.422 4,432.432 z" id="boundary" inkscape:connector-curvature="0" />
	<path style="fill:none;stroke:red;stroke-width:1px;stroke-linecap:butt;stroke-linejoin:miter;stroke-opacity:1" d="M 4,432.432 4,442.442 z" id="boundary" inkscape:connector-curvature="0" />
	<path style="fill:none;stroke:red;stroke-width:1px;stroke-linecap:butt;stroke-linejoin:miter;stroke-opacity:1" d="M 4,442.442 4,452.452 z" id="boundary" inkscape:connector-curvature="0" />
	<path style="fill:none;stroke:red;stroke-width:1px;stroke-linecap:butt;stroke-linejoin:miter;stroke-opacity:1" d="M 4,452.452 4,462.462 z" id="boundary" inkscape:connector-curvature="0" />
	<path style="fill:none;stroke:red;stroke-width:1px;stroke-linecap:butt;stroke-linejoin:miter;stroke-opacity:1" d="M 4,462.462 4,472.472 z" id="boundary" inkscape:connector-curvature="0" />
	<path style="fill:none;stroke:red;stroke-width:1px;stroke-linecap:butt;stroke-linejoin:miter;stroke-opacity:1" d="M 4,472.472 4,482.482 z" id="boundary" inkscape:connector-curvature="0" />
	<path style="fill:none;stroke:red;stroke-width:1px;stroke-linecap:butt;stroke-linejoin:miter;stroke-opacity:1" d="M 4,482.482 4,492.492 z" id="boundary" inkscape:connector-curvature="0" />
	<path style="fill:none;stroke:red;stroke-width:1px;stroke-linecap:butt;stroke-linejoin:miter;stroke-opacity:1" d="M 4,492.492 4,502.503 z" id="boundary" inkscape:connector-curvature="0" />
	<path style="fill:none;stroke:red;stroke-width:1px;stroke-linecap:butt;stroke-linejoin:miter;stroke-opacity:1" d="M 4,502.503 4,512.513 z" id="boundary" inkscape:connector-curvature="0" />
	<path style="fill:none;stroke:red;stroke-width:1px;stroke-linecap:butt;stroke-linejoin:miter;stroke-opacity:1" d="M 4,512.513 4,522.523 z" id="boundary" inkscape:connector-curvature="0" />
	<path style="fill:none;stroke:red;stroke-width:1px;stroke-linecap:butt;stroke-linejoin:miter;stroke-opacity:1" d="M 4,522.523 4,532.533 z" id="boundary" inkscape:connector-curvature="0" />
	<path style="fill:none;stroke:red;stroke-width:1px;stroke-linecap:butt;stroke-linejoin:miter;stroke-opacity:1" d="M 4,532.533 4,542.543 z" id="boundary" inkscape:connector-curvature="0" />
	<path style="fill:none;stroke:red;stroke-width:1px;stroke-linecap:butt;stroke-linejoin:miter;stroke-opacity:1" d="M 4,542.543 4,552.553 z" id="boundary" inkscape:connector-curvature="0" />
	<path style="fill:none;stroke:red;stroke-width:1px;stroke-linecap:butt;stroke-linejoin:miter;stroke-opacity:1" d="M 4,552.553 10.0061,560.561 z" id="boundary" inkscape:connector-curvature="0" />
	<path style="fill:none;stroke:red;stroke-width:1px;stroke-linecap:butt;stroke-linejoin:miter;stroke-opacity:1" d="M 9.00505,267.265 9.00505,277.275 z" id="boundary" inkscape:connector-curvature="0" />
	<path style="fill:none;stroke:red;stroke-width:1px;stroke-linecap:butt;stroke-linejoin:miter;stroke-opacity:1" d="M 9.00505,267.265 14.0101,252.25 z" id="boundary" inkscape:connector-curvature="0" />
	<path style="fill:none;stroke:red;stroke-width:1px;stroke-linecap:butt;stroke-linejoin:miter;stroke-opacity:1" d="M 9.00505,277.275 9.00505,287.286 z" id="boundary" inkscape:connector-curvature="0" />
	<path style="fill:none;stroke:red;stroke-width:1px;stroke-linecap:butt;stroke-linejoin:miter;stroke-opacity:1" d="M 9.00505,287.286 9.00505,297.296 z" id="boundary" inkscape:connector-curvature="0" />
	<path style="fill:none;stroke:red;stroke-width:1px;stroke-linecap:butt;stroke-linejoin:miter;stroke-opacity:1" d="M 9.00505,297.296 9.00505,307.306 z" id="boundary" inkscape:connector-curvature="0" />
	<path style="fill:none;stroke:red;stroke-width:1px;stroke-linecap:butt;stroke-linejoin:miter;stroke-opacity:1" d="M 9.00505,307.306 9.00505,317.316 z" id="boundary" inkscape:connector-curvature="0" />
	<path style="fill:none;stroke:red;stroke-width:1px;stroke-linecap:butt;stroke-linejoin:miter;stroke-opacity:1" d="M 9.00505,317.316 9.00505,327.326 z" id="boundary" inkscape:connector-curvature="0" />
	<path style="fill:none;stroke:red;stroke-width:1px;stroke-linecap:butt;stroke-linejoin:miter;stroke-opacity:1" d="M 9.00505,327.326 9.00505,337.336 z" id="boundary" inkscape:connector-curvature="0" />
	<path style="fill:none;stroke:red;stroke-width:1px;stroke-linecap:butt;stroke-linejoin:miter;stroke-opacity:1" d="M 9.00505,337.336 9.00505,347.346 z" id="boundary" inkscape:connector-curvature="0" />
	<path style="fill:none;stroke:red;stroke-width:1px;stroke-linecap:butt;stroke-linejoin:miter;stroke-opacity:1" d="M 9.00505,347.346 14.0101,356.355 z" id="boundary" inkscape:connector-curvature="0" />
	<path style="fill:none;stroke:red;stroke-width:1px;stroke-linecap:butt;stroke-linejoin:miter;stroke-opacity:1" d="M 10.0061,560.561 20.0161,560.561 z" id="boundary" inkscape:connector-curvature="0" />
	<path style="fill:none;stroke:red;stroke-width:1px;stroke-linecap:butt;stroke-linejoin:miter;stroke-opacity:1" d="M 14.0101,232.23 14.0101,242.24 z" id="boundary" inkscape:connector-curvature="0" />
	<path style="fill:none;stroke:red;stroke-width:1px;stroke-linecap:butt;stroke-linejoin:miter;stroke-opacity:1" d="M 14.0101,232.23 19.0151,222.22 z" id="boundary" inkscape:connector-curvature="0" />
	<path style="fill:none;stroke:red;stroke-width:1px;stroke-linecap:butt;stroke-linejoin:miter;stroke-opacity:1" d="M 14.0101,242.24 14.0101,252.25 z" id="boundary" inkscape:connector-curvature="0" />
	<path style="fill:none;stroke:red;stroke-width:1px;stroke-linecap:butt;stroke-linejoin:miter;stroke-opacity:1" d="M 14.0101,356.355 14.0101,366.365 z" id="boundary" inkscape:connector-curvature="0" />
	<path style="fill:none;stroke:red;stroke-width:1px;stroke-linecap:butt;stroke-linejoin:miter;stroke-opacity:1" d="M 14.0101,366.365 19.0151,375.374 z" id="boundary" inkscape:connector-curvature="0" />
	<path style="fill:none;stroke:red;stroke-width:1px;stroke-linecap:butt;stroke-linejoin:miter;stroke-opacity:1" d="M 14.0101,409.409 24.0202,409.409 z" id="boundary" inkscape:connector-curvature="0" />
	<path style="fill:none;stroke:red;stroke-width:1px;stroke-linecap:butt;stroke-linejoin:miter;stroke-opacity:1" d="M 19.0151,212.21 19.0151,222.22 z" id="boundary" inkscape:connector-curvature="0" />
	<path style="fill:none;stroke:red;stroke-width:1px;stroke-linecap:butt;stroke-linejoin:miter;stroke-opacity:1" d="M 19.0151,212.21 24.0202,202.2 z" id="boundary" inkscape:connector-curvature="0" />
	<path style="fill:none;stroke:red;stroke-width:1px;stroke-linecap:butt;stroke-linejoin:miter;stroke-opacity:1" d="M 19.0151,375.374 22.0182,385.384 z" id="boundary" inkscape:connector-curvature="0" />
	<path style="fill:none;stroke:red;stroke-width:1px;stroke-linecap:butt;stroke-linejoin:miter;stroke-opacity:1" d="M 20.0161,560.561 30.0262,560.561 z" id="boundary" inkscape:connector-curvature="0" />
	<path style="fill:none;stroke:red;stroke-width:1px;stroke-linecap:butt;stroke-linejoin:miter;stroke-opacity:1" d="M 22.0182,385.384 27.0232,394.394 z" id="boundary" inkscape:connector-curvature="0" />
	<path style="fill:none;stroke:red;stroke-width:1px;stroke-linecap:butt;stroke-linejoin:miter;stroke-opacity:1" d="M 24.0202,202.2 29.0252,192.19 z" id="boundary" inkscape:connector-curvature="0" />
	<path style="fill:none;stroke:red;stroke-width:1px;stroke-linecap:butt;stroke-linejoin:miter;stroke-opacity:1" d="M 24.0202,409.409 34.0303,405.405 z" id="boundary" inkscape:connector-curvature="0" />
	<path style="fill:none;stroke:red;stroke-width:1px;stroke-linecap:butt;stroke-linejoin:miter;stroke-opacity:1" d="M 27.0232,394.394 34.0303,405.405 z" id="boundary" inkscape:connector-curvature="0" />
	<path style="fill:none;stroke:red;stroke-width:1px;stroke-linecap:butt;stroke-linejoin:miter;stroke-opacity:1" d="M 29.0252,182.18 29.0252,192.19 z" id="boundary" inkscape:connector-curvature="0" />
	<path style="fill:none;stroke:red;stroke-width:1px;stroke-linecap:butt;stroke-linejoin:miter;stroke-opacity:1" d="M 29.0252,182.18 34.0303,172.17 z" id="boundary" inkscape:connector-curvature="0" />
	<path style="fill:none;stroke:red;stroke-width:1px;stroke-linecap:butt;stroke-linejoin:miter;stroke-opacity:1" d="M 30.0262,560.561 40.0363,560.561 z" id="boundary" inkscape:connector-curvature="0" />
	<path style="fill:none;stroke:red;stroke-width:1px;stroke-linecap:butt;stroke-linejoin:miter;stroke-opacity:1" d="M 34.0303,172.17 39.0353,162.159 z" id="boundary" inkscape:connector-curvature="0" />
	<path style="fill:none;stroke:red;stroke-width:1px;stroke-linecap:butt;stroke-linejoin:miter;stroke-opacity:1" d="M 39.0353,152.149 39.0353,162.159 z" id="boundary" inkscape:connector-curvature="0" />
	<path style="fill:none;stroke:red;stroke-width:1px;stroke-linecap:butt;stroke-linejoin:miter;stroke-opacity:1" d="M 39.0353,152.149 44.0404,137.134 z" id="boundary" inkscape:connector-curvature="0" />
	<path style="fill:none;stroke:red;stroke-width:1px;stroke-linecap:butt;stroke-linejoin:miter;stroke-opacity:1" d="M 40.0363,560.561 50.0464,560.561 z" id="boundary" inkscape:connector-curvature="0" />
	<path style="fill:none;stroke:red;stroke-width:1px;stroke-linecap:butt;stroke-linejoin:miter;stroke-opacity:1" d="M 44.0404,137.134 49.0454,127.124 z" id="boundary" inkscape:connector-curvature="0" />
	<path style="fill:none;stroke:red;stroke-width:1px;stroke-linecap:butt;stroke-linejoin:miter;stroke-opacity:1" d="M 49.0454,127.124 54.0505,117.114 z" id="boundary" inkscape:connector-curvature="0" />
	<path style="fill:none;stroke:red;stroke-width:1px;stroke-linecap:butt;stroke-linejoin:miter;stroke-opacity:1" d="M 50.0464,560.561 60.0565,560.561 z" id="boundary" inkscape:connector-curvature="0" />
	<path style="fill:none;stroke:red;stroke-width:1px;stroke-linecap:butt;stroke-linejoin:miter;stroke-opacity:1" d="M 54.0505,117.114 59.0555,107.104 z" id="boundary" inkscape:connector-curvature="0" />
	<path style="fill:none;stroke:red;stroke-width:1px;stroke-linecap:butt;stroke-linejoin:miter;stroke-opacity:1" d="M 59.0555,107.104 64.0605,97.0938 z" id="boundary" inkscape:connector-curvature="0" />
	<path style="fill:none;stroke:red;stroke-width:1px;stroke-linecap:butt;stroke-linejoin:miter;stroke-opacity:1" d="M 60.0565,560.561 70.0666,560.561 z" id="boundary" inkscape:connector-curvature="0" />
	<path style="fill:none;stroke:red;stroke-width:1px;stroke-linecap:butt;stroke-linejoin:miter;stroke-opacity:1" d="M 64.0605,97.0938 72.0686,89.0858 z" id="boundary" inkscape:connector-curvature="0" />
	<path style="fill:none;stroke:red;stroke-width:1px;stroke-linecap:butt;stroke-linejoin:miter;stroke-opacity:1" d="M 70.0666,560.561 80.0767,560.561 z" id="boundary" inkscape:connector-curvature="0" />
	<path style="fill:none;stroke:red;stroke-width:1px;stroke-linecap:butt;stroke-linejoin:miter;stroke-opacity:1" d="M 72.0686,89.0858 77.0737,79.0757 z" id="boundary" inkscape:connector-curvature="0" />
	<path style="fill:none;stroke:red;stroke-width:1px;stroke-linecap:butt;stroke-linejoin:miter;stroke-opacity:1" d="M 77.0737,79.0757 86.0827,74.0706 z" id="boundary" inkscape:connector-curvature="0" />
	<path style="fill:none;stroke:red;stroke-width:1px;stroke-linecap:butt;stroke-linejoin:miter;stroke-opacity:1" d="M 80.0767,560.561 90.0868,560.561 z" id="boundary" inkscape:connector-curvature="0" />
	<path style="fill:none;stroke:red;stroke-width:1px;stroke-linecap:butt;stroke-linejoin:miter;stroke-opacity:1" d="M 86.0827,74.0706 94.0908,67.0636 z" id="boundary" inkscape:connector-curvature="0" />
	<path style="fill:none;stroke:red;stroke-width:1px;stroke-linecap:butt;stroke-linejoin:miter;stroke-opacity:1" d="M 90.0868,560.561 100.097,560.561 z" id="boundary" inkscape:connector-curvature="0" />
	<path style="fill:none;stroke:red;stroke-width:1px;stroke-linecap:butt;stroke-linejoin:miter;stroke-opacity:1" d="M 94.0908,67.0636 102.099,59.0555 z" id="boundary" inkscape:connector-curvature="0" />
	<path style="fill:none;stroke:red;stroke-width:1px;stroke-linecap:butt;stroke-linejoin:miter;stroke-opacity:1" d="M 100.097,560.561 110.107,560.561 z" id="boundary" inkscape:connector-curvature="0" />
	<path style="fill:none;stroke:red;stroke-width:1px;stroke-linecap:butt;stroke-linejoin:miter;stroke-opacity:1" d="M 102.099,59.0555 110.107,51.0474 z" id="boundary" inkscape:connector-curvature="0" />
	<path style="fill:none;stroke:red;stroke-width:1px;stroke-linecap:butt;stroke-linejoin:miter;stroke-opacity:1" d="M 110.107,51.0474 120.117,46.0424 z" id="boundary" inkscape:connector-curvature="0" />
	<path style="fill:none;stroke:red;stroke-width:1px;stroke-linecap:butt;stroke-linejoin:miter;stroke-opacity:1" d="M 110.107,560.561 120.117,560.561 z" id="boundary" inkscape:connector-curvature="0" />
	<path style="fill:none;stroke:red;stroke-width:1px;stroke-linecap:butt;stroke-linejoin:miter;stroke-opacity:1" d="M 120.117,46.0424 128.125,39.0353 z" id="boundary" inkscape:connector-curvature="0" />
	<path style="fill:none;stroke:red;stroke-width:1px;stroke-linecap:butt;stroke-linejoin:miter;stroke-opacity:1" d="M 120.117,560.561 130.127,560.561 z" id="boundary" inkscape:connector-curvature="0" />
	<path style="fill:none;stroke:red;stroke-width:1px;stroke-linecap:butt;stroke-linejoin:miter;stroke-opacity:1" d="M 128.125,39.0353 137.134,34.0303 z" id="boundary" inkscape:connector-curvature="0" />
	<path style="fill:none;stroke:red;stroke-width:1px;stroke-linecap:butt;stroke-linejoin:miter;stroke-opacity:1" d="M 130.127,560.561 140.137,560.561 z" id="boundary" inkscape:connector-curvature="0" />
	<path style="fill:none;stroke:red;stroke-width:1px;stroke-linecap:butt;stroke-linejoin:miter;stroke-opacity:1" d="M 137.134,34.0303 147.144,29.0252 z" id="boundary" inkscape:connector-curvature="0" />
	<path style="fill:none;stroke:red;stroke-width:1px;stroke-linecap:butt;stroke-linejoin:miter;stroke-opacity:1" d="M 140.137,560.561 150.147,560.561 z" id="boundary" inkscape:connector-curvature="0" />
	<path style="fill:none;stroke:red;stroke-width:1px;stroke-linecap:butt;stroke-linejoin:miter;stroke-opacity:1" d="M 147.144,29.0252 156.153,24.0202 z" id="boundary" inkscape:connector-curvature="0" />
	<path style="fill:none;stroke:red;stroke-width:1px;stroke-linecap:butt;stroke-linejoin:miter;stroke-opacity:1" d="M 150.147,560.561 160.157,560.561 z" id="boundary" inkscape:connector-curvature="0" />
	<path style="fill:none;stroke:red;stroke-width:1px;stroke-linecap:butt;stroke-linejoin:miter;stroke-opacity:1" d="M 155.152,105.102 155.152,115.112 z" id="boundary" inkscape:connector-curvature="0" />
	<path style="fill:none;stroke:red;stroke-width:1px;stroke-linecap:butt;stroke-linejoin:miter;stroke-opacity:1" d="M 155.152,105.102 160.157,95.0918 z" id="boundary" inkscape:connector-curvature="0" />
	<path style="fill:none;stroke:red;stroke-width:1px;stroke-linecap:butt;stroke-linejoin:miter;stroke-opacity:1" d="M 155.152,115.112 155.152,125.122 z" id="boundary" inkscape:connector-curvature="0" />
	<path style="fill:none;stroke:red;stroke-width:1px;stroke-linecap:butt;stroke-linejoin:miter;stroke-opacity:1" d="M 155.152,125.122 155.152,135.132 z" id="boundary" inkscape:connector-curvature="0" />
	<path style="fill:none;stroke:red;stroke-width:1px;stroke-linecap:butt;stroke-linejoin:miter;stroke-opacity:1" d="M 155.152,135.132 155.152,145.142 z" id="boundary" inkscape:connector-curvature="0" />
	<path style="fill:none;stroke:red;stroke-width:1px;stroke-linecap:butt;stroke-linejoin:miter;stroke-opacity:1" d="M 155.152,145.142 155.152,155.152 z" id="boundary" inkscape:connector-curvature="0" />
	<path style="fill:none;stroke:red;stroke-width:1px;stroke-linecap:butt;stroke-linejoin:miter;stroke-opacity:1" d="M 155.152,155.152 160.157,164.161 z" id="boundary" inkscape:connector-curvature="0" />
	<path style="fill:none;stroke:red;stroke-width:1px;stroke-linecap:butt;stroke-linejoin:miter;stroke-opacity:1" d="M 156.153,24.0202 165.162,19.0151 z" id="boundary" inkscape:connector-curvature="0" />
	<path style="fill:none;stroke:red;stroke-width:1px;stroke-linecap:butt;stroke-linejoin:miter;stroke-opacity:1" d="M 160.157,85.0817 160.157,95.0918 z" id="boundary" inkscape:connector-curvature="0" />
	<path style="fill:none;stroke:red;stroke-width:1px;stroke-linecap:butt;stroke-linejoin:miter;stroke-opacity:1" d="M 160.157,85.0817 165.162,75.0716 z" id="boundary" inkscape:connector-curvature="0" />
	<path style="fill:none;stroke:red;stroke-width:1px;stroke-linecap:butt;stroke-linejoin:miter;stroke-opacity:1" d="M 160.157,164.161 160.157,174.172 z" id="boundary" inkscape:connector-curvature="0" />
	<path style="fill:none;stroke:red;stroke-width:1px;stroke-linecap:butt;stroke-linejoin:miter;stroke-opacity:1" d="M 160.157,174.172 160.157,184.182 z" id="boundary" inkscape:connector-curvature="0" />
	<path style="fill:none;stroke:red;stroke-width:1px;stroke-linecap:butt;stroke-linejoin:miter;stroke-opacity:1" d="M 160.157,184.182 160.157,194.192 z" id="boundary" inkscape:connector-curvature="0" />
	<path style="fill:none;stroke:red;stroke-width:1px;stroke-linecap:butt;stroke-linejoin:miter;stroke-opacity:1" d="M 160.157,194.192 165.162,203.201 z" id="boundary" inkscape:connector-curvature="0" />
	<path style="fill:none;stroke:red;stroke-width:1px;stroke-linecap:butt;stroke-linejoin:miter;stroke-opacity:1" d="M 160.157,560.561 170.168,560.561 z" id="boundary" inkscape:connector-curvature="0" />
	<path style="fill:none;stroke:red;stroke-width:1px;stroke-linecap:butt;stroke-linejoin:miter;stroke-opacity:1" d="M 165.162,19.0151 174.172,14.0101 z" id="boundary" inkscape:connector-curvature="0" />
	<path style="fill:none;stroke:red;stroke-width:1px;stroke-linecap:butt;stroke-linejoin:miter;stroke-opacity:1" d="M 165.162,75.0716 170.168,65.0616 z" id="boundary" inkscape:connector-curvature="0" />
	<path style="fill:none;stroke:red;stroke-width:1px;stroke-linecap:butt;stroke-linejoin:miter;stroke-opacity:1" d="M 165.162,203.201 170.168,212.21 z" id="boundary" inkscape:connector-curvature="0" />
	<path style="fill:none;stroke:red;stroke-width:1px;stroke-linecap:butt;stroke-linejoin:miter;stroke-opacity:1" d="M 170.168,65.0616 175.173,55.0515 z" id="boundary" inkscape:connector-curvature="0" />
	<path style="fill:none;stroke:red;stroke-width:1px;stroke-linecap:butt;stroke-linejoin:miter;stroke-opacity:1" d="M 170.168,212.21 177.175,220.218 z" id="boundary" inkscape:connector-curvature="0" />
	<path style="fill:none;stroke:red;stroke-width:1px;stroke-linecap:butt;stroke-linejoin:miter;stroke-opacity:1" d="M 170.168,560.561 180.178,560.561 z" id="boundary" inkscape:connector-curvature="0" />
	<path style="fill:none;stroke:red;stroke-width:1px;stroke-linecap:butt;stroke-linejoin:miter;stroke-opacity:1" d="M 174.172,14.0101 183.181,9.00505 z" id="boundary" inkscape:connector-curvature="0" />
	<path style="fill:none;stroke:red;stroke-width:1px;stroke-linecap:butt;stroke-linejoin:miter;stroke-opacity:1" d="M 175.173,45.0414 175.173,55.0515 z" id="boundary" inkscape:connector-curvature="0" />
	<path style="fill:none;stroke:red;stroke-width:1px;stroke-linecap:butt;stroke-linejoin:miter;stroke-opacity:1" d="M 175.173,45.0414 183.181,38.0343 z" id="boundary" inkscape:connector-curvature="0" />
	<path style="fill:none;stroke:red;stroke-width:1px;stroke-linecap:butt;stroke-linejoin:miter;stroke-opacity:1" d="M 177.175,220.218 185.183,227.225 z" id="boundary" inkscape:connector-curvature="0" />
	<path style="fill:none;stroke:red;stroke-width:1px;stroke-linecap:butt;stroke-linejoin:miter;stroke-opacity:1" d="M 180.178,560.561 190.188,560.561 z" id="boundary" inkscape:connector-curvature="0" />
	<path style="fill:none;stroke:red;stroke-width:1px;stroke-linecap:butt;stroke-linejoin:miter;stroke-opacity:1" d="M 183.181,9.00505 192.19,4 z" id="boundary" inkscape:connector-curvature="0" />
	<path style="fill:none;stroke:red;stroke-width:1px;stroke-linecap:butt;stroke-linejoin:miter;stroke-opacity:1" d="M 183.181,38.0343 188.186,28.0242 z" id="boundary" inkscape:connector-curvature="0" />
	<path style="fill:none;stroke:red;stroke-width:1px;stroke-linecap:butt;stroke-linejoin:miter;stroke-opacity:1" d="M 185.183,227.225 190.188,236.234 z" id="boundary" inkscape:connector-curvature="0" />
	<path style="fill:none;stroke:red;stroke-width:1px;stroke-linecap:butt;stroke-linejoin:miter;stroke-opacity:1" d="M 188.186,28.0242 193.191,18.0141 z" id="boundary" inkscape:connector-curvature="0" />
	<path style="fill:none;stroke:red;stroke-width:1px;stroke-linecap:butt;stroke-linejoin:miter;stroke-opacity:1" d="M 190.188,236.234 195.193,245.243 z" id="boundary" inkscape:connector-curvature="0" />
	<path style="fill:none;stroke:red;stroke-width:1px;stroke-linecap:butt;stroke-linejoin:miter;stroke-opacity:1" d="M 190.188,405.405 195.193,395.395 z" id="boundary" inkscape:connector-curvature="0" />
	<path style="fill:none;stroke:red;stroke-width:1px;stroke-linecap:butt;stroke-linejoin:miter;stroke-opacity:1" d="M 190.188,405.405 200.198,409.409 z" id="boundary" inkscape:connector-curvature="0" />
	<path style="fill:none;stroke:red;stroke-width:1px;stroke-linecap:butt;stroke-linejoin:miter;stroke-opacity:1" d="M 190.188,560.561 200.198,560.561 z" id="boundary" inkscape:connector-curvature="0" />
	<path style="fill:none;stroke:red;stroke-width:1px;stroke-linecap:butt;stroke-linejoin:miter;stroke-opacity:1" d="M 192.19,4 200.198,10.0061 z" id="boundary" inkscape:connector-curvature="0" />
	<path style="fill:none;stroke:red;stroke-width:1px;stroke-linecap:butt;stroke-linejoin:miter;stroke-opacity:1" d="M 193.191,18.0141 200.198,10.0061 z" id="boundary" inkscape:connector-curvature="0" />
	<path style="fill:none;stroke:red;stroke-width:1px;stroke-linecap:butt;stroke-linejoin:miter;stroke-opacity:1" d="M 195.193,245.243 200.198,254.252 z" id="boundary" inkscape:connector-curvature="0" />
	<path style="fill:none;stroke:red;stroke-width:1px;stroke-linecap:butt;stroke-linejoin:miter;stroke-opacity:1" d="M 195.193,395.395 200.198,385.384 z" id="boundary" inkscape:connector-curvature="0" />
	<path style="fill:none;stroke:red;stroke-width:1px;stroke-linecap:butt;stroke-linejoin:miter;stroke-opacity:1" d="M 200.198,254.252 205.203,263.261 z" id="boundary" inkscape:connector-curvature="0" />
	<path style="fill:none;stroke:red;stroke-width:1px;stroke-linecap:butt;stroke-linejoin:miter;stroke-opacity:1" d="M 200.198,385.384 205.203,375.374 z" id="boundary" inkscape:connector-curvature="0" />
	<path style="fill:none;stroke:red;stroke-width:1px;stroke-linecap:butt;stroke-linejoin:miter;stroke-opacity:1" d="M 200.198,409.409 210.208,409.409 z" id="boundary" inkscape:connector-curvature="0" />
	<path style="fill:none;stroke:red;stroke-width:1px;stroke-linecap:butt;stroke-linejoin:miter;stroke-opacity:1" d="M 200.198,560.561 210.208,560.561 z" id="boundary" inkscape:connector-curvature="0" />
	<path style="fill:none;stroke:red;stroke-width:1px;stroke-linecap:butt;stroke-linejoin:miter;stroke-opacity:1" d="M 205.203,263.261 213.211,269.267 z" id="boundary" inkscape:connector-curvature="0" />
	<path style="fill:none;stroke:red;stroke-width:1px;stroke-linecap:butt;stroke-linejoin:miter;stroke-opacity:1" d="M 205.203,375.374 215.213,375.374 z" id="boundary" inkscape:connector-curvature="0" />
	<path style="fill:none;stroke:red;stroke-width:1px;stroke-linecap:butt;stroke-linejoin:miter;stroke-opacity:1" d="M 210.208,409.409 220.218,412.412 z" id="boundary" inkscape:connector-curvature="0" />
	<path style="fill:none;stroke:red;stroke-width:1px;stroke-linecap:butt;stroke-linejoin:miter;stroke-opacity:1" d="M 210.208,560.561 220.218,552.553 z" id="boundary" inkscape:connector-curvature="0" />
	<path style="fill:none;stroke:red;stroke-width:1px;stroke-linecap:butt;stroke-linejoin:miter;stroke-opacity:1" d="M 213.211,269.267 223.221,269.267 z" id="boundary" inkscape:connector-curvature="0" />
	<path style="fill:none;stroke:red;stroke-width:1px;stroke-linecap:butt;stroke-linejoin:miter;stroke-opacity:1" d="M 215.213,375.374 225.223,375.374 z" id="boundary" inkscape:connector-curvature="0" />
	<path style="fill:none;stroke:red;stroke-width:1px;stroke-linecap:butt;stroke-linejoin:miter;stroke-opacity:1" d="M 220.218,412.412 220.218,422.422 z" id="boundary" inkscape:connector-curvature="0" />
	<path style="fill:none;stroke:red;stroke-width:1px;stroke-linecap:butt;stroke-linejoin:miter;stroke-opacity:1" d="M 220.218,422.422 220.218,432.432 z" id="boundary" inkscape:connector-curvature="0" />
	<path style="fill:none;stroke:red;stroke-width:1px;stroke-linecap:butt;stroke-linejoin:miter;stroke-opacity:1" d="M 220.218,432.432 220.218,442.442 z" id="boundary" inkscape:connector-curvature="0" />
	<path style="fill:none;stroke:red;stroke-width:1px;stroke-linecap:butt;stroke-linejoin:miter;stroke-opacity:1" d="M 220.218,442.442 220.218,452.452 z" id="boundary" inkscape:connector-curvature="0" />
	<path style="fill:none;stroke:red;stroke-width:1px;stroke-linecap:butt;stroke-linejoin:miter;stroke-opacity:1" d="M 220.218,452.452 220.218,462.462 z" id="boundary" inkscape:connector-curvature="0" />
	<path style="fill:none;stroke:red;stroke-width:1px;stroke-linecap:butt;stroke-linejoin:miter;stroke-opacity:1" d="M 220.218,462.462 220.218,472.472 z" id="boundary" inkscape:connector-curvature="0" />
	<path style="fill:none;stroke:red;stroke-width:1px;stroke-linecap:butt;stroke-linejoin:miter;stroke-opacity:1" d="M 220.218,472.472 220.218,482.482 z" id="boundary" inkscape:connector-curvature="0" />
	<path style="fill:none;stroke:red;stroke-width:1px;stroke-linecap:butt;stroke-linejoin:miter;stroke-opacity:1" d="M 220.218,482.482 220.218,492.492 z" id="boundary" inkscape:connector-curvature="0" />
	<path style="fill:none;stroke:red;stroke-width:1px;stroke-linecap:butt;stroke-linejoin:miter;stroke-opacity:1" d="M 220.218,492.492 220.218,502.503 z" id="boundary" inkscape:connector-curvature="0" />
	<path style="fill:none;stroke:red;stroke-width:1px;stroke-linecap:butt;stroke-linejoin:miter;stroke-opacity:1" d="M 220.218,502.503 220.218,512.513 z" id="boundary" inkscape:connector-curvature="0" />
	<path style="fill:none;stroke:red;stroke-width:1px;stroke-linecap:butt;stroke-linejoin:miter;stroke-opacity:1" d="M 220.218,512.513 220.218,522.523 z" id="boundary" inkscape:connector-curvature="0" />
	<path style="fill:none;stroke:red;stroke-width:1px;stroke-linecap:butt;stroke-linejoin:miter;stroke-opacity:1" d="M 220.218,522.523 220.218,532.533 z" id="boundary" inkscape:connector-curvature="0" />
	<path style="fill:none;stroke:red;stroke-width:1px;stroke-linecap:butt;stroke-linejoin:miter;stroke-opacity:1" d="M 220.218,532.533 220.218,542.543 z" id="boundary" inkscape:connector-curvature="0" />
	<path style="fill:none;stroke:red;stroke-width:1px;stroke-linecap:butt;stroke-linejoin:miter;stroke-opacity:1" d="M 220.218,542.543 220.218,552.553 z" id="boundary" inkscape:connector-curvature="0" />
	<path style="fill:none;stroke:red;stroke-width:1px;stroke-linecap:butt;stroke-linejoin:miter;stroke-opacity:1" d="M 223.221,269.267 233.231,269.267 z" id="boundary" inkscape:connector-curvature="0" />
	<path style="fill:none;stroke:red;stroke-width:1px;stroke-linecap:butt;stroke-linejoin:miter;stroke-opacity:1" d="M 225.223,375.374 235.233,375.374 z" id="boundary" inkscape:connector-curvature="0" />
	<path style="fill:none;stroke:red;stroke-width:1px;stroke-linecap:butt;stroke-linejoin:miter;stroke-opacity:1" d="M 233.231,269.267 243.241,269.267 z" id="boundary" inkscape:connector-curvature="0" />
	<path style="fill:none;stroke:red;stroke-width:1px;stroke-linecap:butt;stroke-linejoin:miter;stroke-opacity:1" d="M 235.233,375.374 245.243,375.374 z" id="boundary" inkscape:connector-curvature="0" />
	<path style="fill:none;stroke:red;stroke-width:1px;stroke-linecap:butt;stroke-linejoin:miter;stroke-opacity:1" d="M 243.241,269.267 253.251,269.267 z" id="boundary" inkscape:connector-curvature="0" />
	<path style="fill:none;stroke:red;stroke-width:1px;stroke-linecap:butt;stroke-linejoin:miter;stroke-opacity:1" d="M 245.243,375.374 255.253,375.374 z" id="boundary" inkscape:connector-curvature="0" />
	<path style="fill:none;stroke:red;stroke-width:1px;stroke-linecap:butt;stroke-linejoin:miter;stroke-opacity:1" d="M 253.251,269.267 263.261,269.267 z" id="boundary" inkscape:connector-curvature="0" />
	<path style="fill:none;stroke:red;stroke-width:1px;stroke-linecap:butt;stroke-linejoin:miter;stroke-opacity:1" d="M 255.253,375.374 265.263,375.374 z" id="boundary" inkscape:connector-curvature="0" />
	<path style="fill:none;stroke:red;stroke-width:1px;stroke-linecap:butt;stroke-linejoin:miter;stroke-opacity:1" d="M 263.261,269.267 273.271,269.267 z" id="boundary" inkscape:connector-curvature="0" />
	<path style="fill:none;stroke:red;stroke-width:1px;stroke-linecap:butt;stroke-linejoin:miter;stroke-opacity:1" d="M 265.263,375.374 275.273,375.374 z" id="boundary" inkscape:connector-curvature="0" />
	<path style="fill:none;stroke:red;stroke-width:1px;stroke-linecap:butt;stroke-linejoin:miter;stroke-opacity:1" d="M 273.271,269.267 283.282,269.267 z" id="boundary" inkscape:connector-curvature="0" />
	<path style="fill:none;stroke:red;stroke-width:1px;stroke-linecap:butt;stroke-linejoin:miter;stroke-opacity:1" d="M 275.273,375.374 285.284,375.374 z" id="boundary" inkscape:connector-curvature="0" />
	<path style="fill:none;stroke:red;stroke-width:1px;stroke-linecap:butt;stroke-linejoin:miter;stroke-opacity:1" d="M 283.282,269.267 293.292,269.267 z" id="boundary" inkscape:connector-curvature="0" />
	<path style="fill:none;stroke:red;stroke-width:1px;stroke-linecap:butt;stroke-linejoin:miter;stroke-opacity:1" d="M 285.284,375.374 295.294,375.374 z" id="boundary" inkscape:connector-curvature="0" />
	<path style="fill:none;stroke:red;stroke-width:1px;stroke-linecap:butt;stroke-linejoin:miter;stroke-opacity:1" d="M 293.292,269.267 303.302,269.267 z" id="boundary" inkscape:connector-curvature="0" />
	<path style="fill:none;stroke:red;stroke-width:1px;stroke-linecap:butt;stroke-linejoin:miter;stroke-opacity:1" d="M 295.294,375.374 305.304,375.374 z" id="boundary" inkscape:connector-curvature="0" />
	<path style="fill:none;stroke:red;stroke-width:1px;stroke-linecap:butt;stroke-linejoin:miter;stroke-opacity:1" d="M 303.302,269.267 313.312,269.267 z" id="boundary" inkscape:connector-curvature="0" />
	<path style="fill:none;stroke:red;stroke-width:1px;stroke-linecap:butt;stroke-linejoin:miter;stroke-opacity:1" d="M 305.304,375.374 315.314,375.374 z" id="boundary" inkscape:connector-curvature="0" />
	<path style="fill:none;stroke:red;stroke-width:1px;stroke-linecap:butt;stroke-linejoin:miter;stroke-opacity:1" d="M 313.312,269.267 323.322,269.267 z" id="boundary" inkscape:connector-curvature="0" />
	<path style="fill:none;stroke:red;stroke-width:1px;stroke-linecap:butt;stroke-linejoin:miter;stroke-opacity:1" d="M 315.314,375.374 325.324,375.374 z" id="boundary" inkscape:connector-curvature="0" />
	<path style="fill:none;stroke:red;stroke-width:1px;stroke-linecap:butt;stroke-linejoin:miter;stroke-opacity:1" d="M 323.322,269.267 333.332,269.267 z" id="boundary" inkscape:connector-curvature="0" />
	<path style="fill:none;stroke:red;stroke-width:1px;stroke-linecap:butt;stroke-linejoin:miter;stroke-opacity:1" d="M 325.324,375.374 335.334,375.374 z" id="boundary" inkscape:connector-curvature="0" />
	<path style="fill:none;stroke:red;stroke-width:1px;stroke-linecap:butt;stroke-linejoin:miter;stroke-opacity:1" d="M 333.332,269.267 343.342,269.267 z" id="boundary" inkscape:connector-curvature="0" />
	<path style="fill:none;stroke:red;stroke-width:1px;stroke-linecap:butt;stroke-linejoin:miter;stroke-opacity:1" d="M 335.334,375.374 345.344,375.374 z" id="boundary" inkscape:connector-curvature="0" />
	<path style="fill:none;stroke:red;stroke-width:1px;stroke-linecap:butt;stroke-linejoin:miter;stroke-opacity:1" d="M 343.342,269.267 353.352,269.267 z" id="boundary" inkscape:connector-curvature="0" />
	<path style="fill:none;stroke:red;stroke-width:1px;stroke-linecap:butt;stroke-linejoin:miter;stroke-opacity:1" d="M 345.344,375.374 355.354,375.374 z" id="boundary" inkscape:connector-curvature="0" />
	<path style="fill:none;stroke:red;stroke-width:1px;stroke-linecap:butt;stroke-linejoin:miter;stroke-opacity:1" d="M 353.352,269.267 363.362,269.267 z" id="boundary" inkscape:connector-curvature="0" />
	<path style="fill:none;stroke:red;stroke-width:1px;stroke-linecap:butt;stroke-linejoin:miter;stroke-opacity:1" d="M 355.354,375.374 365.364,375.374 z" id="boundary" inkscape:connector-curvature="0" />
	<path style="fill:none;stroke:red;stroke-width:1px;stroke-linecap:butt;stroke-linejoin:miter;stroke-opacity:1" d="M 363.362,269.267 373.372,269.267 z" id="boundary" inkscape:connector-curvature="0" />
	<path style="fill:none;stroke:red;stroke-width:1px;stroke-linecap:butt;stroke-linejoin:miter;stroke-opacity:1" d="M 365.364,375.374 375.374,375.374 z" id="boundary" inkscape:connector-curvature="0" />
	<path style="fill:none;stroke:red;stroke-width:1px;stroke-linecap:butt;stroke-linejoin:miter;stroke-opacity:1" d="M 373.372,269.267 383.382,269.267 z" id="boundary" inkscape:connector-curvature="0" />
	<path style="fill:none;stroke:red;stroke-width:1px;stroke-linecap:butt;stroke-linejoin:miter;stroke-opacity:1" d="M 375.374,375.374 385.384,375.374 z" id="boundary" inkscape:connector-curvature="0" />
	<path style="fill:none;stroke:red;stroke-width:1px;stroke-linecap:butt;stroke-linejoin:miter;stroke-opacity:1" d="M 383.382,269.267 393.393,269.267 z" id="boundary" inkscape:connector-curvature="0" />
	<path style="fill:none;stroke:red;stroke-width:1px;stroke-linecap:butt;stroke-linejoin:miter;stroke-opacity:1" d="M 385.384,375.374 395.395,375.374 z" id="boundary" inkscape:connector-curvature="0" />
	<path style="fill:none;stroke:red;stroke-width:1px;stroke-linecap:butt;stroke-linejoin:miter;stroke-opacity:1" d="M 393.393,269.267 403.403,269.267 z" id="boundary" inkscape:connector-curvature="0" />
	<path style="fill:none;stroke:red;stroke-width:1px;stroke-linecap:butt;stroke-linejoin:miter;stroke-opacity:1" d="M 395.395,375.374 405.405,375.374 z" id="boundary" inkscape:connector-curvature="0" />
	<path style="fill:none;stroke:red;stroke-width:1px;stroke-linecap:butt;stroke-linejoin:miter;stroke-opacity:1" d="M 403.403,269.267 413.413,269.267 z" id="boundary" inkscape:connector-curvature="0" />
	<path style="fill:none;stroke:red;stroke-width:1px;stroke-linecap:butt;stroke-linejoin:miter;stroke-opacity:1" d="M 405.405,375.374 415.415,375.374 z" id="boundary" inkscape:connector-curvature="0" />
	<path style="fill:none;stroke:red;stroke-width:1px;stroke-linecap:butt;stroke-linejoin:miter;stroke-opacity:1" d="M 413.413,269.267 423.423,269.267 z" id="boundary" inkscape:connector-curvature="0" />
	<path style="fill:none;stroke:red;stroke-width:1px;stroke-linecap:butt;stroke-linejoin:miter;stroke-opacity:1" d="M 415.415,375.374 425.425,375.374 z" id="boundary" inkscape:connector-curvature="0" />
	<path style="fill:none;stroke:red;stroke-width:1px;stroke-linecap:butt;stroke-linejoin:miter;stroke-opacity:1" d="M 423.423,269.267 433.433,269.267 z" id="boundary" inkscape:connector-curvature="0" />
	<path style="fill:none;stroke:red;stroke-width:1px;stroke-linecap:butt;stroke-linejoin:miter;stroke-opacity:1" d="M 425.425,375.374 435.435,375.374 z" id="boundary" inkscape:connector-curvature="0" />
	<path style="fill:none;stroke:red;stroke-width:1px;stroke-linecap:butt;stroke-linejoin:miter;stroke-opacity:1" d="M 433.433,269.267 443.443,269.267 z" id="boundary" inkscape:connector-curvature="0" />
	<path style="fill:none;stroke:red;stroke-width:1px;stroke-linecap:butt;stroke-linejoin:miter;stroke-opacity:1" d="M 435.435,375.374 445.445,375.374 z" id="boundary" inkscape:connector-curvature="0" />
	<path style="fill:none;stroke:red;stroke-width:1px;stroke-linecap:butt;stroke-linejoin:miter;stroke-opacity:1" d="M 443.443,269.267 453.453,269.267 z" id="boundary" inkscape:connector-curvature="0" />
	<path style="fill:none;stroke:red;stroke-width:1px;stroke-linecap:butt;stroke-linejoin:miter;stroke-opacity:1" d="M 445.445,375.374 455.455,375.374 z" id="boundary" inkscape:connector-curvature="0" />
	<path style="fill:none;stroke:red;stroke-width:1px;stroke-linecap:butt;stroke-linejoin:miter;stroke-opacity:1" d="M 453.453,269.267 463.463,269.267 z" id="boundary" inkscape:connector-curvature="0" />
	<path style="fill:none;stroke:red;stroke-width:1px;stroke-linecap:butt;stroke-linejoin:miter;stroke-opacity:1" d="M 455.455,375.374 465.465,375.374 z" id="boundary" inkscape:connector-curvature="0" />
	<path style="fill:none;stroke:red;stroke-width:1px;stroke-linecap:butt;stroke-linejoin:miter;stroke-opacity:1" d="M 463.463,269.267 473.473,269.267 z" id="boundary" inkscape:connector-curvature="0" />
	<path style="fill:none;stroke:red;stroke-width:1px;stroke-linecap:butt;stroke-linejoin:miter;stroke-opacity:1" d="M 465.465,375.374 475.475,375.374 z" id="boundary" inkscape:connector-curvature="0" />
	<path style="fill:none;stroke:red;stroke-width:1px;stroke-linecap:butt;stroke-linejoin:miter;stroke-opacity:1" d="M 473.473,269.267 483.483,269.267 z" id="boundary" inkscape:connector-curvature="0" />
	<path style="fill:none;stroke:red;stroke-width:1px;stroke-linecap:butt;stroke-linejoin:miter;stroke-opacity:1" d="M 475.475,375.374 485.485,375.374 z" id="boundary" inkscape:connector-curvature="0" />
	<path style="fill:none;stroke:red;stroke-width:1px;stroke-linecap:butt;stroke-linejoin:miter;stroke-opacity:1" d="M 483.483,269.267 493.493,269.267 z" id="boundary" inkscape:connector-curvature="0" />
	<path style="fill:none;stroke:red;stroke-width:1px;stroke-linecap:butt;stroke-linejoin:miter;stroke-opacity:1" d="M 485.485,375.374 495.495,375.374 z" id="boundary" inkscape:connector-curvature="0" />
	<path style="fill:none;stroke:red;stroke-width:1px;stroke-linecap:butt;stroke-linejoin:miter;stroke-opacity:1" d="M 493.493,269.267 503.504,269.267 z" id="boundary" inkscape:connector-curvature="0" />
	<path style="fill:none;stroke:red;stroke-width:1px;stroke-linecap:butt;stroke-linejoin:miter;stroke-opacity:1" d="M 495.495,375.374 505.506,375.374 z" id="boundary" inkscape:connector-curvature="0" />
	<path style="fill:none;stroke:red;stroke-width:1px;stroke-linecap:butt;stroke-linejoin:miter;stroke-opacity:1" d="M 503.504,269.267 513.514,269.267 z" id="boundary" inkscape:connector-curvature="0" />
	<path style="fill:none;stroke:red;stroke-width:1px;stroke-linecap:butt;stroke-linejoin:miter;stroke-opacity:1" d="M 505.506,375.374 515.516,375.374 z" id="boundary" inkscape:connector-curvature="0" />
	<path style="fill:none;stroke:red;stroke-width:1px;stroke-linecap:butt;stroke-linejoin:miter;stroke-opacity:1" d="M 513.514,269.267 523.524,269.267 z" id="boundary" inkscape:connector-curvature="0" />
	<path style="fill:none;stroke:red;stroke-width:1px;stroke-linecap:butt;stroke-linejoin:miter;stroke-opacity:1" d="M 515.516,375.374 525.526,375.374 z" id="boundary" inkscape:connector-curvature="0" />
	<path style="fill:none;stroke:red;stroke-width:1px;stroke-linecap:butt;stroke-linejoin:miter;stroke-opacity:1" d="M 523.524,269.267 533.534,269.267 z" id="boundary" inkscape:connector-curvature="0" />
	<path style="fill:none;stroke:red;stroke-width:1px;stroke-linecap:butt;stroke-linejoin:miter;stroke-opacity:1" d="M 525.526,375.374 535.536,375.374 z" id="boundary" inkscape:connector-curvature="0" />
	<path style="fill:none;stroke:red;stroke-width:1px;stroke-linecap:butt;stroke-linejoin:miter;stroke-opacity:1" d="M 533.534,269.267 543.544,269.267 z" id="boundary" inkscape:connector-curvature="0" />
	<path style="fill:none;stroke:red;stroke-width:1px;stroke-linecap:butt;stroke-linejoin:miter;stroke-opacity:1" d="M 535.536,375.374 545.546,375.374 z" id="boundary" inkscape:connector-curvature="0" />
	<path style="fill:none;stroke:red;stroke-width:1px;stroke-linecap:butt;stroke-linejoin:miter;stroke-opacity:1" d="M 543.544,269.267 553.554,269.267 z" id="boundary" inkscape:connector-curvature="0" />
	<path style="fill:none;stroke:red;stroke-width:1px;stroke-linecap:butt;stroke-linejoin:miter;stroke-opacity:1" d="M 545.546,375.374 555.556,375.374 z" id="boundary" inkscape:connector-curvature="0" />
	<path style="fill:none;stroke:red;stroke-width:1px;stroke-linecap:butt;stroke-linejoin:miter;stroke-opacity:1" d="M 553.554,269.267 563.564,269.267 z" id="boundary" inkscape:connector-curvature="0" />
	<path style="fill:none;stroke:red;stroke-width:1px;stroke-linecap:butt;stroke-linejoin:miter;stroke-opacity:1" d="M 555.556,375.374 565.566,375.374 z" id="boundary" inkscape:connector-curvature="0" />
	<path style="fill:none;stroke:red;stroke-width:1px;stroke-linecap:butt;stroke-linejoin:miter;stroke-opacity:1" d="M 563.564,269.267 573.574,269.267 z" id="boundary" inkscape:connector-curvature="0" />
	<path style="fill:none;stroke:red;stroke-width:1px;stroke-linecap:butt;stroke-linejoin:miter;stroke-opacity:1" d="M 565.566,375.374 575.576,375.374 z" id="boundary" inkscape:connector-curvature="0" />
	<path style="fill:none;stroke:red;stroke-width:1px;stroke-linecap:butt;stroke-linejoin:miter;stroke-opacity:1" d="M 573.574,269.267 583.584,269.267 z" id="boundary" inkscape:connector-curvature="0" />
	<path style="fill:none;stroke:red;stroke-width:1px;stroke-linecap:butt;stroke-linejoin:miter;stroke-opacity:1" d="M 575.576,375.374 585.586,375.374 z" id="boundary" inkscape:connector-curvature="0" />
	<path style="fill:none;stroke:red;stroke-width:1px;stroke-linecap:butt;stroke-linejoin:miter;stroke-opacity:1" d="M 583.584,269.267 593.594,269.267 z" id="boundary" inkscape:connector-curvature="0" />
	<path style="fill:none;stroke:red;stroke-width:1px;stroke-linecap:butt;stroke-linejoin:miter;stroke-opacity:1" d="M 585.586,375.374 595.596,375.374 z" id="boundary" inkscape:connector-curvature="0" />
	<path style="fill:none;stroke:red;stroke-width:1px;stroke-linecap:butt;stroke-linejoin:miter;stroke-opacity:1" d="M 593.594,269.267 603.604,269.267 z" id="boundary" inkscape:connector-curvature="0" />
	<path style="fill:none;stroke:red;stroke-width:1px;stroke-linecap:butt;stroke-linejoin:miter;stroke-opacity:1" d="M 595.596,375.374 605.606,375.374 z" id="boundary" inkscape:connector-curvature="0" />
	<path style="fill:none;stroke:red;stroke-width:1px;stroke-linecap:butt;stroke-linejoin:miter;stroke-opacity:1" d="M 603.604,269.267 613.615,269.267 z" id="boundary" inkscape:connector-curvature="0" />
	<path style="fill:none;stroke:red;stroke-width:1px;stroke-linecap:butt;stroke-linejoin:miter;stroke-opacity:1" d="M 605.606,375.374 615.617,375.374 z" id="boundary" inkscape:connector-curvature="0" />
	<path style="fill:none;stroke:red;stroke-width:1px;stroke-linecap:butt;stroke-linejoin:miter;stroke-opacity:1" d="M 613.615,269.267 623.625,269.267 z" id="boundary" inkscape:connector-curvature="0" />
	<path style="fill:none;stroke:red;stroke-width:1px;stroke-linecap:butt;stroke-linejoin:miter;stroke-opacity:1" d="M 615.617,375.374 625.627,375.374 z" id="boundary" inkscape:connector-curvature="0" />
	<path style="fill:none;stroke:red;stroke-width:1px;stroke-linecap:butt;stroke-linejoin:miter;stroke-opacity:1" d="M 623.625,269.267 633.635,269.267 z" id="boundary" inkscape:connector-curvature="0" />
	<path style="fill:none;stroke:red;stroke-width:1px;stroke-linecap:butt;stroke-linejoin:miter;stroke-opacity:1" d="M 625.627,375.374 635.637,375.374 z" id="boundary" inkscape:connector-curvature="0" />
	<path style="fill:none;stroke:red;stroke-width:1px;stroke-linecap:butt;stroke-linejoin:miter;stroke-opacity:1" d="M 633.635,269.267 643.645,269.267 z" id="boundary" inkscape:connector-curvature="0" />
	<path style="fill:none;stroke:red;stroke-width:1px;stroke-linecap:butt;stroke-linejoin:miter;stroke-opacity:1" d="M 635.637,375.374 645.647,375.374 z" id="boundary" inkscape:connector-curvature="0" />
	<path style="fill:none;stroke:red;stroke-width:1px;stroke-linecap:butt;stroke-linejoin:miter;stroke-opacity:1" d="M 643.645,269.267 653.655,269.267 z" id="boundary" inkscape:connector-curvature="0" />
	<path style="fill:none;stroke:red;stroke-width:1px;stroke-linecap:butt;stroke-linejoin:miter;stroke-opacity:1" d="M 645.647,375.374 655.657,375.374 z" id="boundary" inkscape:connector-curvature="0" />
	<path style="fill:none;stroke:red;stroke-width:1px;stroke-linecap:butt;stroke-linejoin:miter;stroke-opacity:1" d="M 653.655,269.267 663.665,269.267 z" id="boundary" inkscape:connector-curvature="0" />
	<path style="fill:none;stroke:red;stroke-width:1px;stroke-linecap:butt;stroke-linejoin:miter;stroke-opacity:1" d="M 655.657,375.374 665.667,375.374 z" id="boundary" inkscape:connector-curvature="0" />
	<path style="fill:none;stroke:red;stroke-width:1px;stroke-linecap:butt;stroke-linejoin:miter;stroke-opacity:1" d="M 663.665,269.267 673.675,269.267 z" id="boundary" inkscape:connector-curvature="0" />
	<path style="fill:none;stroke:red;stroke-width:1px;stroke-linecap:butt;stroke-linejoin:miter;stroke-opacity:1" d="M 665.667,375.374 675.677,375.374 z" id="boundary" inkscape:connector-curvature="0" />
	<path style="fill:none;stroke:red;stroke-width:1px;stroke-linecap:butt;stroke-linejoin:miter;stroke-opacity:1" d="M 673.675,269.267 683.685,269.267 z" id="boundary" inkscape:connector-curvature="0" />
	<path style="fill:none;stroke:red;stroke-width:1px;stroke-linecap:butt;stroke-linejoin:miter;stroke-opacity:1" d="M 675.677,375.374 685.687,375.374 z" id="boundary" inkscape:connector-curvature="0" />
	<path style="fill:none;stroke:red;stroke-width:1px;stroke-linecap:butt;stroke-linejoin:miter;stroke-opacity:1" d="M 683.685,269.267 693.695,269.267 z" id="boundary" inkscape:connector-curvature="0" />
	<path style="fill:none;stroke:red;stroke-width:1px;stroke-linecap:butt;stroke-linejoin:miter;stroke-opacity:1" d="M 685.687,375.374 695.697,375.374 z" id="boundary" inkscape:connector-curvature="0" />
	<path style="fill:none;stroke:red;stroke-width:1px;stroke-linecap:butt;stroke-linejoin:miter;stroke-opacity:1" d="M 693.695,269.267 703.705,269.267 z" id="boundary" inkscape:connector-curvature="0" />
	<path style="fill:none;stroke:red;stroke-width:1px;stroke-linecap:butt;stroke-linejoin:miter;stroke-opacity:1" d="M 695.697,375.374 705.707,375.374 z" id="boundary" inkscape:connector-curvature="0" />
	<path style="fill:none;stroke:red;stroke-width:1px;stroke-linecap:butt;stroke-linejoin:miter;stroke-opacity:1" d="M 703.705,269.267 713.715,269.267 z" id="boundary" inkscape:connector-curvature="0" />
	<path style="fill:none;stroke:red;stroke-width:1px;stroke-linecap:butt;stroke-linejoin:miter;stroke-opacity:1" d="M 705.707,375.374 715.717,375.374 z" id="boundary" inkscape:connector-curvature="0" />
	<path style="fill:none;stroke:red;stroke-width:1px;stroke-linecap:butt;stroke-linejoin:miter;stroke-opacity:1" d="M 713.715,269.267 723.726,269.267 z" id="boundary" inkscape:connector-curvature="0" />
	<path style="fill:none;stroke:red;stroke-width:1px;stroke-linecap:butt;stroke-linejoin:miter;stroke-opacity:1" d="M 715.717,375.374 725.728,375.374 z" id="boundary" inkscape:connector-curvature="0" />
	<path style="fill:none;stroke:red;stroke-width:1px;stroke-linecap:butt;stroke-linejoin:miter;stroke-opacity:1" d="M 723.726,269.267 733.736,269.267 z" id="boundary" inkscape:connector-curvature="0" />
	<path style="fill:none;stroke:red;stroke-width:1px;stroke-linecap:butt;stroke-linejoin:miter;stroke-opacity:1" d="M 725.728,375.374 735.738,375.374 z" id="boundary" inkscape:connector-curvature="0" />
	<path style="fill:none;stroke:red;stroke-width:1px;stroke-linecap:butt;stroke-linejoin:miter;stroke-opacity:1" d="M 733.736,269.267 743.746,269.267 z" id="boundary" inkscape:connector-curvature="0" />
	<path style="fill:none;stroke:red;stroke-width:1px;stroke-linecap:butt;stroke-linejoin:miter;stroke-opacity:1" d="M 735.738,375.374 745.748,375.374 z" id="boundary" inkscape:connector-curvature="0" />
	<path style="fill:none;stroke:red;stroke-width:1px;stroke-linecap:butt;stroke-linejoin:miter;stroke-opacity:1" d="M 743.746,269.267 753.756,269.267 z" id="boundary" inkscape:connector-curvature="0" />
	<path style="fill:none;stroke:red;stroke-width:1px;stroke-linecap:butt;stroke-linejoin:miter;stroke-opacity:1" d="M 745.748,375.374 755.758,375.374 z" id="boundary" inkscape:connector-curvature="0" />
	<path style="fill:none;stroke:red;stroke-width:1px;stroke-linecap:butt;stroke-linejoin:miter;stroke-opacity:1" d="M 753.756,269.267 763.766,269.267 z" id="boundary" inkscape:connector-curvature="0" />
	<path style="fill:none;stroke:red;stroke-width:1px;stroke-linecap:butt;stroke-linejoin:miter;stroke-opacity:1" d="M 755.758,375.374 765.768,375.374 z" id="boundary" inkscape:connector-curvature="0" />
	<path style="fill:none;stroke:red;stroke-width:1px;stroke-linecap:butt;stroke-linejoin:miter;stroke-opacity:1" d="M 763.766,269.267 773.776,269.267 z" id="boundary" inkscape:connector-curvature="0" />
	<path style="fill:none;stroke:red;stroke-width:1px;stroke-linecap:butt;stroke-linejoin:miter;stroke-opacity:1" d="M 765.768,375.374 775.778,375.374 z" id="boundary" inkscape:connector-curvature="0" />
	<path style="fill:none;stroke:red;stroke-width:1px;stroke-linecap:butt;stroke-linejoin:miter;stroke-opacity:1" d="M 773.776,269.267 783.786,269.267 z" id="boundary" inkscape:connector-curvature="0" />
	<path style="fill:none;stroke:red;stroke-width:1px;stroke-linecap:butt;stroke-linejoin:miter;stroke-opacity:1" d="M 775.778,375.374 785.788,375.374 z" id="boundary" inkscape:connector-curvature="0" />
	<path style="fill:none;stroke:red;stroke-width:1px;stroke-linecap:butt;stroke-linejoin:miter;stroke-opacity:1" d="M 783.786,269.267 793.796,269.267 z" id="boundary" inkscape:connector-curvature="0" />
	<path style="fill:none;stroke:red;stroke-width:1px;stroke-linecap:butt;stroke-linejoin:miter;stroke-opacity:1" d="M 785.788,375.374 795.798,375.374 z" id="boundary" inkscape:connector-curvature="0" />
	<path style="fill:none;stroke:red;stroke-width:1px;stroke-linecap:butt;stroke-linejoin:miter;stroke-opacity:1" d="M 793.796,269.267 803.806,269.267 z" id="boundary" inkscape:connector-curvature="0" />
	<path style="fill:none;stroke:red;stroke-width:1px;stroke-linecap:butt;stroke-linejoin:miter;stroke-opacity:1" d="M 795.798,375.374 805.808,375.374 z" id="boundary" inkscape:connector-curvature="0" />
	<path style="fill:none;stroke:red;stroke-width:1px;stroke-linecap:butt;stroke-linejoin:miter;stroke-opacity:1" d="M 803.806,269.267 813.816,269.267 z" id="boundary" inkscape:connector-curvature="0" />
	<path style="fill:none;stroke:red;stroke-width:1px;stroke-linecap:butt;stroke-linejoin:miter;stroke-opacity:1" d="M 805.808,375.374 815.818,375.374 z" id="boundary" inkscape:connector-curvature="0" />
	<path style="fill:none;stroke:red;stroke-width:1px;stroke-linecap:butt;stroke-linejoin:miter;stroke-opacity:1" d="M 813.816,269.267 823.826,269.267 z" id="boundary" inkscape:connector-curvature="0" />
	<path style="fill:none;stroke:red;stroke-width:1px;stroke-linecap:butt;stroke-linejoin:miter;stroke-opacity:1" d="M 815.818,375.374 825.828,375.374 z" id="boundary" inkscape:connector-curvature="0" />
	<path style="fill:none;stroke:red;stroke-width:1px;stroke-linecap:butt;stroke-linejoin:miter;stroke-opacity:1" d="M 823.826,269.267 833.837,269.267 z" id="boundary" inkscape:connector-curvature="0" />
	<path style="fill:none;stroke:red;stroke-width:1px;stroke-linecap:butt;stroke-linejoin:miter;stroke-opacity:1" d="M 825.828,375.374 835.839,375.374 z" id="boundary" inkscape:connector-curvature="0" />
	<path style="fill:none;stroke:red;stroke-width:1px;stroke-linecap:butt;stroke-linejoin:miter;stroke-opacity:1" d="M 833.837,269.267 843.847,269.267 z" id="boundary" inkscape:connector-curvature="0" />
	<path style="fill:none;stroke:red;stroke-width:1px;stroke-linecap:butt;stroke-linejoin:miter;stroke-opacity:1" d="M 835.839,375.374 845.849,375.374 z" id="boundary" inkscape:connector-curvature="0" />
	<path style="fill:none;stroke:red;stroke-width:1px;stroke-linecap:butt;stroke-linejoin:miter;stroke-opacity:1" d="M 843.847,269.267 853.857,269.267 z" id="boundary" inkscape:connector-curvature="0" />
	<path style="fill:none;stroke:red;stroke-width:1px;stroke-linecap:butt;stroke-linejoin:miter;stroke-opacity:1" d="M 845.849,375.374 855.859,375.374 z" id="boundary" inkscape:connector-curvature="0" />
	<path style="fill:none;stroke:red;stroke-width:1px;stroke-linecap:butt;stroke-linejoin:miter;stroke-opacity:1" d="M 853.857,269.267 863.867,269.267 z" id="boundary" inkscape:connector-curvature="0" />
	<path style="fill:none;stroke:red;stroke-width:1px;stroke-linecap:butt;stroke-linejoin:miter;stroke-opacity:1" d="M 855.859,375.374 865.869,375.374 z" id="boundary" inkscape:connector-curvature="0" />
	<path style="fill:none;stroke:red;stroke-width:1px;stroke-linecap:butt;stroke-linejoin:miter;stroke-opacity:1" d="M 863.867,269.267 873.877,269.267 z" id="boundary" inkscape:connector-curvature="0" />
	<path style="fill:none;stroke:red;stroke-width:1px;stroke-linecap:butt;stroke-linejoin:miter;stroke-opacity:1" d="M 865.869,375.374 875.879,375.374 z" id="boundary" inkscape:connector-curvature="0" />
	<path style="fill:none;stroke:red;stroke-width:1px;stroke-linecap:butt;stroke-linejoin:miter;stroke-opacity:1" d="M 873.877,269.267 883.887,269.267 z" id="boundary" inkscape:connector-curvature="0" />
	<path style="fill:none;stroke:red;stroke-width:1px;stroke-linecap:butt;stroke-linejoin:miter;stroke-opacity:1" d="M 875.879,375.374 885.889,375.374 z" id="boundary" inkscape:connector-curvature="0" />
	<path style="fill:none;stroke:red;stroke-width:1px;stroke-linecap:butt;stroke-linejoin:miter;stroke-opacity:1" d="M 883.887,269.267 893.897,269.267 z" id="boundary" inkscape:connector-curvature="0" />
	<path style="fill:none;stroke:red;stroke-width:1px;stroke-linecap:butt;stroke-linejoin:miter;stroke-opacity:1" d="M 885.889,375.374 895.899,375.374 z" id="boundary" inkscape:connector-curvature="0" />
	<path style="fill:none;stroke:red;stroke-width:1px;stroke-linecap:butt;stroke-linejoin:miter;stroke-opacity:1" d="M 893.897,269.267 903.907,269.267 z" id="boundary" inkscape:connector-curvature="0" />
	<path style="fill:none;stroke:red;stroke-width:1px;stroke-linecap:butt;stroke-linejoin:miter;stroke-opacity:1" d="M 895.899,375.374 905.909,375.374 z" id="boundary" inkscape:connector-curvature="0" />
	<path style="fill:none;stroke:red;stroke-width:1px;stroke-linecap:butt;stroke-linejoin:miter;stroke-opacity:1" d="M 903.907,269.267 913.917,269.267 z" id="boundary" inkscape:connector-curvature="0" />
	<path style="fill:none;stroke:red;stroke-width:1px;stroke-linecap:butt;stroke-linejoin:miter;stroke-opacity:1" d="M 905.909,375.374 915.919,375.374 z" id="boundary" inkscape:connector-curvature="0" />
	<path style="fill:none;stroke:red;stroke-width:1px;stroke-linecap:butt;stroke-linejoin:miter;stroke-opacity:1" d="M 913.917,269.267 923.927,269.267 z" id="boundary" inkscape:connector-curvature="0" />
	<path style="fill:none;stroke:red;stroke-width:1px;stroke-linecap:butt;stroke-linejoin:miter;stroke-opacity:1" d="M 915.919,375.374 925.929,375.374 z" id="boundary" inkscape:connector-curvature="0" />
	<path style="fill:none;stroke:red;stroke-width:1px;stroke-linecap:butt;stroke-linejoin:miter;stroke-opacity:1" d="M 923.927,269.267 933.937,269.267 z" id="boundary" inkscape:connector-curvature="0" />
	<path style="fill:none;stroke:red;stroke-width:1px;stroke-linecap:butt;stroke-linejoin:miter;stroke-opacity:1" d="M 925.929,375.374 935.939,375.374 z" id="boundary" inkscape:connector-curvature="0" />
	<path style="fill:none;stroke:red;stroke-width:1px;stroke-linecap:butt;stroke-linejoin:miter;stroke-opacity:1" d="M 933.937,269.267 943.948,269.267 z" id="boundary" inkscape:connector-curvature="0" />
	<path style="fill:none;stroke:red;stroke-width:1px;stroke-linecap:butt;stroke-linejoin:miter;stroke-opacity:1" d="M 935.939,375.374 945.95,375.374 z" id="boundary" inkscape:connector-curvature="0" />
	<path style="fill:none;stroke:red;stroke-width:1px;stroke-linecap:butt;stroke-linejoin:miter;stroke-opacity:1" d="M 943.948,269.267 953.958,269.267 z" id="boundary" inkscape:connector-curvature="0" />
	<path style="fill:none;stroke:red;stroke-width:1px;stroke-linecap:butt;stroke-linejoin:miter;stroke-opacity:1" d="M 945.95,375.374 955.96,375.374 z" id="boundary" inkscape:connector-curvature="0" />
	<path style="fill:none;stroke:red;stroke-width:1px;stroke-linecap:butt;stroke-linejoin:miter;stroke-opacity:1" d="M 953.958,269.267 963.968,269.267 z" id="boundary" inkscape:connector-curvature="0" />
	<path style="fill:none;stroke:red;stroke-width:1px;stroke-linecap:butt;stroke-linejoin:miter;stroke-opacity:1" d="M 955.96,375.374 965.97,375.374 z" id="boundary" inkscape:connector-curvature="0" />
	<path style="fill:none;stroke:red;stroke-width:1px;stroke-linecap:butt;stroke-linejoin:miter;stroke-opacity:1" d="M 963.968,269.267 973.978,269.267 z" id="boundary" inkscape:connector-curvature="0" />
	<path style="fill:none;stroke:red;stroke-width:1px;stroke-linecap:butt;stroke-linejoin:miter;stroke-opacity:1" d="M 965.97,375.374 975.98,375.374 z" id="boundary" inkscape:connector-curvature="0" />
	<path style="fill:none;stroke:red;stroke-width:1px;stroke-linecap:butt;stroke-linejoin:miter;stroke-opacity:1" d="M 973.978,269.267 983.988,269.267 z" id="boundary" inkscape:connector-curvature="0" />
	<path style="fill:none;stroke:red;stroke-width:1px;stroke-linecap:butt;stroke-linejoin:miter;stroke-opacity:1" d="M 975.98,375.374 985.99,375.374 z" id="boundary" inkscape:connector-curvature="0" />
	<path style="fill:none;stroke:red;stroke-width:1px;stroke-linecap:butt;stroke-linejoin:miter;stroke-opacity:1" d="M 983.988,269.267 993.998,270.268 z" id="boundary" inkscape:connector-curvature="0" />
	<path style="fill:none;stroke:red;stroke-width:1px;stroke-linecap:butt;stroke-linejoin:miter;stroke-opacity:1" d="M 985.99,375.374 996,370.369 z" id="boundary" inkscape:connector-curvature="0" />
	<path style="fill:none;stroke:red;stroke-width:1px;stroke-linecap:butt;stroke-linejoin:miter;stroke-opacity:1" d="M 993.998,270.268 996,280.279 z" id="boundary" inkscape:connector-curvature="0" />
	<path style="fill:none;stroke:red;stroke-width:1px;stroke-linecap:butt;stroke-linejoin:miter;stroke-opacity:1" d="M 996,280.279 996,290.289 z" id="boundary" inkscape:connector-curvature="0" />
	<path style="fill:none;stroke:red;stroke-width:1px;stroke-linecap:butt;stroke-linejoin:miter;stroke-opacity:1" d="M 996,290.289 996,300.299 z" id="boundary" inkscape:connector-curvature="0" />
	<path style="fill:none;stroke:red;stroke-width:1px;stroke-linecap:butt;stroke-linejoin:miter;stroke-opacity:1" d="M 996,300.299 996,310.309 z" id="boundary" inkscape:connector-curvature="0" />
	<path style="fill:none;stroke:red;stroke-width:1px;stroke-linecap:butt;stroke-linejoin:miter;stroke-opacity:1" d="M 996,310.309 996,320.319 z" id="boundary" inkscape:connector-curvature="0" />
	<path style="fill:none;stroke:red;stroke-width:1px;stroke-linecap:butt;stroke-linejoin:miter;stroke-opacity:1" d="M 996,320.319 996,330.329 z" id="boundary" inkscape:connector-curvature="0" />
	<path style="fill:none;stroke:red;stroke-width:1px;stroke-linecap:butt;stroke-linejoin:miter;stroke-opacity:1" d="M 996,330.329 996,340.339 z" id="boundary" inkscape:connector-curvature="0" />
	<path style="fill:none;stroke:red;stroke-width:1px;stroke-linecap:butt;stroke-linejoin:miter;stroke-opacity:1" d="M 996,340.339 996,350.349 z" id="boundary" inkscape:connector-curvature="0" />
	<path style="fill:none;stroke:red;stroke-width:1px;stroke-linecap:butt;stroke-linejoin:miter;stroke-opacity:1" d="M 996,350.349 996,360.359 z" id="boundary" inkscape:connector-curvature="0" />
	<path style="fill:none;stroke:red;stroke-width:1px;stroke-linecap:butt;stroke-linejoin:miter;stroke-opacity:1" d="M 996,360.359 996,370.369 z" id="boundary" inkscape:connector-curvature="0" />
	<circle cx="4" cy="412.412" r="4" fill="#0" id="circle0"/>
	<circle cx="4" cy="422.422" r="4" fill="#0" id="circle1"/>
	<circle cx="4" cy="432.432" r="4" fill="#0" id="circle2"/>
	<circle cx="4" cy="442.442" r="4" fill="#0" id="circle3"/>
	<circle cx="4" cy="452.452" r="4" fill="#0" id="circle4"/>
	<circle cx="4" cy="462.462" r="4" fill="#0" id="circle5"/>
	<circle cx="4" cy="472.472" r="4" fill="#0" id="circle6"/>
	<circle cx="4" cy="482.482" r="4" fill="#0" id="circle7"/>
	<circle cx="4" cy="492.492" r="4" fill="#0" id="circle8"/>
	<circle cx="4" cy="502.503" r="4" fill="#0" id="circle9"/>
	<circle cx="4" cy="512.513" r="4" fill="#0" id="circle10"/>
	<circle cx="4" cy="522.523" r="4" fill="#0" id="circle11"/>
	<circle cx="4" cy="532.533" r="4" fill="#0" id="circle12"/>
	<circle cx="4" cy="542.543" r="4" fill="#0" id="circle13"/>
	<circle cx="4" cy="552.553" r="4" fill="#0" id="circle14"/>
	<circle cx="9.00505" cy="267.265" r="4" fill="#0" id="circle15"/>
	<circle cx="9.00505" cy="277.275" r="4" fill="#0" id="circle16"/>
	<circle cx="9.00505" cy="287.286" r="4" fill="#0" id="circle17"/>
	<circle cx="9.00505" cy="297.296" r="4" fill="#0" id="circle18"/>
	<circle cx="9.00505" cy="307.306" r="4" fill="#0" id="circle19"/>
	<circle cx="9.00505" cy="317.316" r="4" fill="#0" id="circle20"/>
	<circle cx="9.00505" cy="327.326" r="4" fill="#0" id="circle21"/>
	<circle cx="9.00505" cy="337.336" r="4" fill="#0" id="circle22"/>
	<circle cx="9.00505" cy="347.346" r="4" fill="#0" id="circle23"/>
	<circle cx="10.0061" cy="560.561" r="4" fill="#0" id="circle24"/>
	<circle cx="14.0101" cy="232.23" r="4" fill="#0" id="circle25"/>
	<circle cx="14.0101" cy="242.24" r="4" fill="#0" id="circle26"/>
	<circle cx="14.0101" cy="252.25" r="4" fill="#0" id="circle27"/>
	<circle cx="14.0101" cy="356.355" r="4" fill="#0" id="circle28"/>
	<circle cx="14.0101" cy="366.365" r="4" fill="#0" id="circle29"/>
	<circle cx="14.0101" cy="409.409" r="4" fill="#0" id="circle30"/>
	<circle cx="19.0151" cy="212.21" r="4" fill="#0" id="circle31"/>
	<circle cx="19.0151" cy="222.22" r="4" fill="#0" id="circle32"/>
	<circle cx="19.0151" cy="375.374" r="4" fill="#0" id="circle33"/>
	<circle cx="20.0161" cy="560.561" r="4" fill="#0" id="circle34"/>
	<circle cx="22.0182" cy="385.384" r="4" fill="#0" id="circle35"/>
	<circle cx="24.0202" cy="202.2" r="4" fill="#0" id="circle36"/>
	<circle cx="24.0202" cy="409.409" r="4" fill="#0" id="circle37"/>
	<circle cx="27.0232" cy="394.394" r="4" fill="#0" id="circle38"/>
	<circle cx="29.0252" cy="182.18" r="4" fill="#0" id="circle39"/>
	<circle cx="29.0252" cy="192.19" r="4" fill="#0" id="circle40"/>
	<circle cx="30.0262" cy="560.561" r="4" fill="#0" id="circle41"/>
	<circle cx="34.0303" cy="172.17" r="4" fill="#0" id="circle42"/>
	<circle cx="34.0303" cy="405.405" r="4" fill="#0" id="circle43"/>
	<circle cx="39.0353" cy="152.149" r="4" fill="#0" id="circle44"/>
	<circle cx="39.0353" cy="162.159" r="4" fill="#0" id="circle45"/>
	<circle cx="40.0363" cy="560.561" r="4" fill="#0" id="circle46"/>
	<circle cx="44.0404" cy="137.134" r="4" fill="#0" id="circle47"/>
	<circle cx="49.0454" cy="127.124" r="4" fill="#0" id="circle48"/>
	<circle cx="50.0464" cy="560.561" r="4" fill="#0" id="circle49"/>
	<circle cx="54.0505" cy="117.114" r="4" fill="#0" id="circle50"/>
	<circle cx="59.0555" cy="107.104" r="4" fill="#0" id="circle51"/>
	<circle cx="60.0565" cy="560.561" r="4" fill="#0" id="circle52"/>
	<circle cx="64.0605" cy="97.0938" r="4" fill="#0" id="circle53"/>
	<circle cx="70.0666" cy="560.561" r="4" fill="#0" id="circle54"/>
	<circle cx="72.0686" cy="89.0858" r="4" fill="#0" id="circle55"/>
	<circle cx="77.0737" cy="79.0757" r="4" fill="#0" id="circle56"/>
	<circle cx="80.0767" cy="560.561" r="4" fill="#0" id="circle57"/>
	<circle cx="86.0827" cy="74.0706" r="4" fill="#0" id="circle58"/>
	<circle cx="90.0868" cy="560.561" r="4" fill="#0" id="circle59"/>
	<circle cx="94.0908" cy="67.0636" r="4" fill="#0" id="circle60"/>
	<circle cx="100.097" cy="560.561" r="4" fill="#0" id="circle61"/>
	<circle cx="102.099" cy="59.0555" r="4" fill="#0" id="circle62"/>
	<circle cx="110.107" cy="51.0474" r="4" fill="#0" id="circle63"/>
	<circle cx="110.107" cy="560.561" r="4" fill="#0" id="circle64"/>
	<circle cx="120.117" cy="46.0424" r="4" fill="#0" id="circle65"/>
	<circle cx="120.117" cy="560.561" r="4" fill="#0" id="circle66"/>
	<circle cx="128.125" cy="39.0353" r="4" fill="#0" id="circle67"/>
	<circle cx="130.127" cy="560.561" r="4" fill="#0" id="circle68"/>
	<circle cx="137.134" cy="34.0303" r="4" fill="#0" id="circle69"/>
	<circle cx="140.137" cy="560.561" r="4" fill="#0" id="circle70"/>
	<circle cx="147.144" cy="29.0252" r="4" fill="#0" id="circle71"/>
	<circle cx="150.147" cy="560.561" r="4" fill="#0" id="circle72"/>
	<circle cx="155.152" cy="105.102" r="4" fill="#0" id="circle73"/>
	<circle cx="155.152" cy="115.112" r="4" fill="#0" id="circle74"/>
	<circle cx="155.152" cy="125.122" r="4" fill="#0" id="circle75"/>
	<circle cx="155.152" cy="135.132" r="4" fill="#0" id="circle76"/>
	<circle cx="155.152" cy="145.142" r="4" fill="#0" id="circle77"/>
	<circle cx="155.152" cy="155.152" r="4" fill="#0" id="circle78"/>
	<circle cx="156.153" cy="24.0202" r="4" fill="#0" id="circle79"/>
	<circle cx="160.157" cy="85.0817" r="4" fill="#0" id="circle80"/>
	<circle cx="160.157" cy="95.0918" r="4" fill="#0" id="circle81"/>
	<circle cx="160.157" cy="164.161" r="4" fill="#0" id="circle82"/>
	<circle cx="160.157" cy="174.172" r="4" fill="#0" id="circle83"/>
	<circle cx="160.157" cy="184.182" r="4" fill="#0" id="circle84"/>
	<circle cx="160.157" cy="194.192" r="4" fill="#0" id="circle85"/>
	<circle cx="160.157" cy="560.561" r="4" fill="#0" id="circle86"/>
	<circle cx="165.162" cy="19.0151" r="4" fill="#0" id="circle87"/>
	<circle cx="165.162" cy="75.0716" r="4" fill="#0" id="circle88"/>
	<circle cx="165.162" cy="203.201" r="4" fill="#0" id="circle89"/>
	<circle cx="170.168" cy="65.0616" r="4" fill="#0" id="circle90"/>
	<circle cx="170.168" cy="212.21" r="4" fill="#0" id="circle91"/>
	<circle cx="170.168" cy="560.561" r="4" fill="#0" id="circle92"/>
	<circle cx="174.172" cy="14.0101" r="4" fill="#0" id="circle93"/>
	<circle cx="175.173" cy="45.0414" r="4" fill="#0" id="circle94"/>
	<circle cx="175.173" cy="55.0515" r="4" fill="#0" id="circle95"/>
	<circle cx="177.175" cy="220.218" r="4" fill="#0" id="circle96"/>
	<circle cx="180.178" cy="560.561" r="4" fill="#0" id="circle97"/>
	<circle cx="183.181" cy="9.00505" r="4" fill="#0" id="circle98"/>
	<circle cx="183.181" cy="38.0343" r="4" fill="#0" id="circle99"/>
	<circle cx="185.183" cy="227.225" r="4" fill="#0" id="circle100"/>
	<circle cx="188.186" cy="28.0242" r="4" fill="#0" id="circle101"/>
	<circle cx="190.188" cy="236.234" r="4" fill="#0" id="circle102"/>
	<circle cx="190.188" cy="405.405" r="4" fill="#0" id="circle103"/>
	<circle cx="190.188" cy="560.561" r="4" fill="#0" id="circle104"/>
	<circle cx="192.19" cy="4" r="4" fill="#0" id="circle105"/>
	<circle cx="193.191" cy="18.0141" r="4" fill="#0" id="circle106"/>
	<circle cx="195.193" cy="245.243" r="4" fill="#0" id="circle107"/>
	<circle cx="195.193" cy="395.395" r="4" fill="#0" id="circle108"/>
	<circle cx="200.198" cy="10.0061" r="4" fill="#0" id="circle109"/>
	<circle cx="200.198" cy="254.252" r="4" fill="#0" id="circle110"/>
	<circle cx="200.198" cy="385.384" r="4" fill="#0" id="circle111"/>
	<circle cx="200.198" cy="409.409" r="4" fill="#0" id="circle112"/>
	<circle cx="200.198" cy="560.561" r="4" fill="#0" id="circle113"/>
	<circle cx="205.203" cy="263.261" r="4" fill="#0" id="circle114"/>
	<circle cx="205.203" cy="375.374" r="4" fill="#0" id="circle115"/>
	<circle cx="210.208" cy="409.409" r="4" fill="#0" id="circle116"/>
	<circle cx="210.208" cy="560.561" r="4" fill="#0" id="circle117"/>
	<circle cx="213.211" cy="269.267" r="4" fill="#0" id="circle118"/>
	<circle cx="215.213" cy="375.374" r="4" fill="#0" id="circle119"/>
	<circle cx="220.218" cy="412.412" r="4" fill="#0" id="circle120"/>
	<circle cx="220.218" cy="422.422" r="4" fill="#0" id="circle121"/>
	<circle cx="220.218" cy="432.432" r="4" fill="#0" id="circle122"/>
	<circle cx="220.218" cy="442.442" r="4" fill="#0" id="circle123"/>
	<circle cx="220.218" cy="452.452" r="4" fill="#0" id="circle124"/>
	<circle cx="220.218" cy="462.462" r="4" fill="#0" id="circle125"/>
	<circle cx="220.218" cy="472.472" r="4" fill="#0" id="circle126"/>
	<circle cx="220.218" cy="482.482" r="4" fill="#0" id="circle127"/>
	<circle cx="220.218" cy="492.492" r="4" fill="#0" id="circle128"/>
	<circle cx="220.218" cy="502.503" r="4" fill="#0" id="circle129"/>
	<circle cx="220.218" cy="512.513" r="4" fill="#0" id="circle130"/>
	<circle cx="220.218" cy="522.523" r="4" fill="#0" id="circle131"/>
	<circle cx="220.218" cy="532.533" r="4" fill="#0" id="circle132"/>
	<circle cx="220.218" cy="542.543" r="4" fill="#0" id="circle133"/>
	<circle cx="220.218" cy="552.553" r="4" fill="#0" id="circle134"/>
	<circle cx="223.221" cy="269.267" r="4" fill="#0" id="circle135"/>
	<circle cx="225.223" cy="375.374" r="4" fill="#0" id="circle136"/>
	<circle cx="233.231" cy="269.267" r="4" fill="#0" id="circle137"/>
	<circle cx="235.233" cy="375.374" r="4" fill="#0" id="circle138"/>
	<circle cx="243.241" cy="269.267" r="4" fill="#0" id="circle139"/>
	<circle cx="245.243" cy="375.374" r="4" fill="#0" id="circle140"/>
	<circle cx="253.251" cy="269.267" r="4" fill="#0" id="circle141"/>
	<circle cx="255.253" cy="375.374" r="4" fill="#0" id="circle142"/>
	<circle cx="263.261" cy="269.267" r="4" fill="#0" id="circle143"/>
	<circle cx="265.263" cy="375.374" r="4" fill="#0" id="circle144"/>
	<circle cx="273.271" cy="269.267" r="4" fill="#0" id="circle145"/>
	<circle cx="275.273" cy="375.374" r="4" fill="#0" id="circle146"/>
	<circle cx="283.282" cy="269.267" r="4" fill="#0" id="circle147"/>
	<circle cx="285.284" cy="375.374" r="4" fill="#0" id="circle148"/>
	<circle cx="293.292" cy="269.267" r="4" fill="#0" id="circle149"/>
	<circle cx="295.294" cy="375.374" r="4" fill="#0" id="circle150"/>
	<circle cx="303.302" cy="269.267" r="4" fill="#0" id="circle151"/>
	<circle cx="305.304" cy="375.374" r="4" fill="#0" id="circle152"/>
	<circle cx="313.312" cy="269.267" r="4" fill="#0" id="circle153"/>
	<circle cx="315.314" cy="375.374" r="4" fill="#0" id="circle154"/>
	<circle cx="323.322" cy="269.267" r="4" fill="#0" id="circle155"/>
	<circle cx="325.324" cy="375.374" r="4" fill="#0" id="circle156"/>
	<circle cx="333.332" cy="269.267" r="4" fill="#0" id="circle157"/>
	<circle cx="335.334" cy="375.374" r="4" fill="#0" id="circle158"/>
	<circle cx="343.342" cy="269.267" r="4" fill="#0" id="circle159"/>
	<circle cx="345.344" cy="375.374" r="4" fill="#0" id="circle160"/>
	<circle cx="353.352" cy="269.267" r="4" fill="#0" id="circle161"/>
	<circle cx="355.354" cy="375.374" r="4" fill="#0" id="circle162"/>
	<circle cx="363.362" cy="269.267" r="4" fill="#0" id="circle163"/>
	<circle cx="365.364" cy="375.374" r="4" fill="#0" id="circle164"/>
	<circle cx="373.372" cy="269.267" r="4" fill="#0" id="circle165"/>
	<circle cx="375.374" cy="375.374" r="4" fill="#0" id="circle166"/>
	<circle cx="383.382" cy="269.267" r="4" fill="#0" id="circle167"/>
	<circle cx="385.384" cy="375.374" r="4" fill="#0" id="circle168"/>
	<circle cx="393.393" cy="269.267" r="4" fill="#0" id="circle169"/>
	<circle cx="395.395" cy="375.374" r="4" fill="#0" id="circle170"/>
	<circle cx="403.403" cy="269.267" r="4" fill="#0" id="circle171"/>
	<circle cx="405.405" cy="375.374" r="4" fill="#0" id="circle172"/>
	<circle cx="413.413" cy="269.267" r="4" fill="#0" id="circle173"/>
	<circle cx="415.415" cy="375.374" r="4" fill="#0" id="circle174"/>
	<circle cx="423.423" cy="269.267" r="4" fill="#0" id="circle175"/>
	<circle cx="425.425" cy="375.374" r="4" fill="#0" id="circle176"/>
	<circle cx="433.433" cy="269.267" r="4" fill="#0" id="circle177"/>
	<circle cx="435.435" cy="375.374" r="4" fill="#0" id="circle178"/>
	<circle cx="443.443" cy="269.267" r="4" fill="#0" id="circle179"/>
	<circle cx="445.445" cy="375.374" r="4" fill="#0" id="circle180"/>
	<circle cx="453.453" cy="269.267" r="4" fill="#0" id="circle181"/>
	<circle cx="455.455" cy="375.374" r="4" fill="#0" id="circle182"/>
	<circle cx="463.463" cy="269.267" r="4" fill="#0" id="circle183"/>
	<circle cx="465.465" cy="375.374" r="4" fill="#0" id="circle184"/>
	<circle cx="473.473" cy="269.267" r="4" fill="#0" id="circle185"/>
	<circle cx="475.475" cy="375.374" r="4" fill="#0" id="circle186"/>
	<circle cx="483.483" cy="269.267" r="4" fill="#0" id="circle187"/>
	<circle cx="485.485" cy="375.374" r="4" fill="#0" id="circle188"/>
	<circle cx="493.493" cy="269.267" r="4" fill="#0" id="circle189"/>
	<circle cx="495.495" cy="375.374" r="4" fill="#0" id="circle190"/>
	<circle cx="503.504" cy="269.267" r="4" fill="#0" id="circle191"/>
	<circle cx="505.506" cy="375.374" r="4" fill="#0" id="circle192"/>
	<circle cx="513.514" cy="269.267" r="4" fill="#0" id="circle193"/>
	<circle cx="515.516" cy="375.374" r="4" fill="#0" id="circle194"/>
	<circle cx="523.524" cy="269.267" r="4" fill="#0" id="circle195"/>
	<circle cx="525.526" cy="375.374" r="4" fill="#0" id="circle196"/>
	<circle cx="533.534" cy="269.267" r="4" fill="#0" id="circle197"/>
	<circle cx="535.536" cy="375.374" r="4" fill="#0" id="circle198"/>
	<circle cx="543.544" cy="269.267" r="4" fill="#0" id="circle199"/>
	<circle cx="545.546" cy="375.374" r="4" fill="#0" id="circle200"/>
	<circle cx="553.554" cy="269.267" r="4" fill="#0" id="circle201"/>
	<circle cx="555.556" cy="375.374" r="4" fill="#0" id="circle202"/>
	<circle cx="563.564" cy="269.267" r="4" fill="#0" id="circle203"/>
	<circle cx="565.566" cy="375.374" r="4" fill="#0" id="circle204"/>
	<circle cx="573.574" cy="269.267" r="4" fill="#0" id="circle205"/>
	<circle cx="575.576" cy="375.374" r="4" fill="#0" id="circle206"/>
	<circle cx="583.584" cy="269.267" r="4" fill="#0" id="circle207"/>
	<circle cx="585.586" cy="375.374" r="4" fill="#0" id="circle208"/>
	<circle cx="593.594" cy="269.267" r="4" fill="#0" id="circle209"/>
	<circle cx="595.596" cy="375.374" r="4" fill="#0" id="circle210"/>
	<circle cx="603.604" cy="269.267" r="4" fill="#0" id="circle211"/>
	<circle cx="605.606" cy="375.374" r="4" fill="#0" id="circle212"/>
	<circle cx="613.615" cy="269.267" r="4" fill="#0" id="circle213"/>
	<circle cx="615.617" cy="375.374" r="4" fill="#0" id="circle214"/>
	<circle cx="623.625" cy="269.267" r="4" fill="#0" id="circle215"/>
	<circle cx="625.627" cy="375.374" r="4" fill="#0" id="circle216"/>
	<circle cx="633.635" cy="269.267" r="4" fill="#0" id="circle217"/>
	<circle cx="635.637" cy="375.374" r="4" fill="#0" id="circle218"/>
	<circle cx="643.645" cy="269.267" r="4" fill="#0" id="circle219"/>
	<circle cx="645.647" cy="375.374" r="4" fill="#0" id="circle220"/>
	<circle cx="653.655" cy="269.267" r="4" fill="#0" id="circle221"/>
	<circle cx="655.657" cy="375.374" r="4" fill="#0" id="circle222"/>
	<circle cx="663.665" cy="269.267" r="4" fill="#0" id="circle223"/>
	<circle cx="665.667" cy="375.374" r="4" fill="#0" id="circle224"/>
	<circle cx="673.675" cy="269.267" r="4" fill="#0" id="circle225"/>
	<circle cx="675.677" cy="375.374" r="4" fill="#0" id="circle226"/>
	<circle cx="683.685" cy="269.267" r="4" fill="#0" id="circle227"/>
	<circle cx="685.687" cy="375.374" r="4" fill="#0" id="circle228"/>
	<circle cx="693.695" cy="269.267" r="4" fill="#0" id="circle229"/>
	<circle cx="695.697" cy="375.374" r="4" fill="#0" id="circle230"/>
	<circle cx="703.705" cy="269.267" r="4" fill="#0" id="circle231"/>
	<circle cx="705.707" cy="375.374" r="4" fill="#0" id="circle232"/>
	<circle cx="713.715" cy="269.267" r="4" fill="#0" id="circle233"/>
	<circle cx="715.717" cy="375.374" r="4" fill="#0" id="circle234"/>
	<circle cx="723.726" cy="269.267" r="4" fill="#0" id="circle235"/>
	<circle cx="725.728" cy="375.374" r="4" fill="#0" id="circle236"/>
	<circle cx="733.736" cy="269.267" r="4" fill="#0" id="circle237"/>
	<circle cx="735.738" cy="375.374" r="4" fill="#0" id="circle238"/>
	<circle cx="743.746" cy="269.267" r="4" fill="#0" id="circle239"/>
	<circle cx="745.748" cy="375.374" r="4" fill="#0" id="circle240"/>
	<circle cx="753.756" cy="269.267" r="4" fill="#0" id="circle241"/>
	<circle cx="755.758" cy="375.374" r="4" fill="#0" id="circle242"/>
	<circle cx="763.766" cy="269.267" r="4" fill="#0" id="circle243"/>
	<circle cx="765.768" cy="375.374" r="4" fill="#0" id="circle244"/>
	<circle cx="773.776" cy="269.267" r="4" fill="#0" id="circle245"/>
	<circle cx="775.778" cy="375.374" r="4" fill="#0" id="circle246"/>
	<circle cx="783.786" cy="269.267" r="4" fill="#0" id="circle247"/>
	<circle cx="785.788" cy="375.374" r="4" fill="#0" id="circle248"/>
	<circle cx="793.796" cy="269.267" r="4" fill="#0" id="circle249"/>
	<circle cx="795.798" cy="375.374" r="4" fill="#0" id="circle250"/>
	<circle cx="803.806" cy="269.267" r="4" fill="#0" id="circle251"/>
	<circle cx="805.808" cy="375.374" r="4" fill="#0" id="circle252"/>
	<circle cx="813.816" cy="269.267" r="4" fill="#0" id="circle253"/>
	<circle cx="815.818" cy="375.374" r="4" fill="#0" id="circle254"/>
	<circle cx="823.826" cy="269.267" r="4" fill="#0" id="circle255"/>
	<circle cx="825.828" cy="375.374" r="4" fill="#0" id="circle256"/>
	<circle cx="833.837" cy="269.267" r="4" fill="#0" id="circle257"/>
	<circle cx="835.839" cy="375.374" r="4" fill="#0" id="circle258"/>
	<circle cx="843.847" cy="269.267" r="4" fill="#0" id="circle259"/>
	<circle cx="845.849" cy="375.374" r="4" fill="#0" id="circle260"/>
	<circle cx="853.857" cy="269.267" r="4" fill="#0" id="circle261"/>
	<circle cx="855.859" cy="375.374" r="4" fill="#0" id="circle262"/>
	<circle cx="863.867" cy="269.267" r="4" fill="#0" id="circle263"/>
	<circle cx="865.869" cy="375.374" r="4" fill="#0" id="circle264"/>
	<circle cx="873.877" cy="269.267" r="4" fill="#0" id="circle265"/>
	<circle cx="875.879" cy="375.374" r="4" fill="#0" id="circle266"/>
	<circle cx="883.887" cy="269.267" r="4" fill="#0" id="circle267"/>
	<circle cx="885.889" cy="375.374" r="4" fill="#0" id="circle268"/>
	<circle cx="893.897" cy="269.267" r="4" fill="#0" id="circle269"/>
	<circle cx="895.899" cy="375.374" r="4" fill="#0" id="circle270"/>
	<circle cx="903.907" cy="269.267" r="4" fill="#0" id="circle271"/>
	<circle cx="905.909" cy="375.374" r="4" fill="#0" id="circle272"/>
	<circle cx="913.917" cy="269.267" r="4" fill="#0" id="circle273"/>
	<circle cx="915.919" cy="375.374" r="4" fill="#0" id="circle274"/>
	<circle cx="923.927" cy="269.267" r="4" fill="#0" id="circle275"/>
	<circle cx="925.929" cy="375.374" r="4" fill="#0" id="circle276"/>
	<circle cx="933.937" cy="269.267" r="4" fill="#0" id="circle277"/>
	<circle cx="935.939" cy="375.374" r="4" fill="#0" id="circle278"/>
	<circle cx="943.948" cy="269.267" r="4" fill="#0" id="circle279"/>
	<circle cx="945.95" cy="375.374" r="4" fill="#0" id="circle280"/>
	<circle cx="953.958" cy="269.267" r="4" fill="#0" id="circle281"/>
	<circle cx="955.96" cy="375.374" r="4" fill="#0" id="circle282"/>
	<circle cx="963.968" cy="269.267" r="4" fill="#0" id="circle283"/>
	<circle cx="965.97" cy="375.374" r="4" fill="#0" id="circle284"/>
	<circle cx="973.978" cy="269.267" r="4" fill="#0" id="circle285"/>
	<circle cx="975.98" cy="375.374" r="4" fill="#0" id="circle286"/>
	<circle cx="983.988" cy="269.267" r="4" fill="#0" id="circle287"/>
	<circle cx="985.99" cy="375.374" r="4" fill="#0" id="circle288"/>
	<circle cx="993.998" cy="270.268" r="4" fill="#0" id="circle289"/>
	<circle cx="996" cy="280.279" r="4" fill="#0" id="circle290"/>
	<circle cx="996" cy="290.289" r="4" fill="#0" id="circle291"/>
	<circle cx="996" cy="300.299" r="4" fill="#0" id="circle292"/>
	<circle cx="996" cy="310.309" r="4" fill="#0" id="circle293"/>
	<circle cx="996" cy="320.319" r="4" fill="#0" id="circle294"/>
	<circle cx="996" cy="330.329" r="4" fill="#0" id="circle295"/>
	<circle cx="996" cy="340.339" r="4" fill="#0" id="circle296"/>
	<circle cx="996" cy="350.349" r="4" fill="#0" id="circle297"/>
	<circle cx="996" cy="360.359" r="4" fill="#0" id="circle298"/>
	<circle cx="996" cy="370.369" r="4" fill="#0" id="circle299"/>
	</g>
</svg>