<?xml version="1.0" encoding="UTF-8" standalone="no"?>
<!-- Created with CurveBenchmark -->
<svg
	xmlns:dc="http://purl.org/dc/elements/1.1/"
	xmlns:cc="http://creativecommons.org/ns#"
	xmlns:rdf="http://www.w3.org/1999/02/22-rdf-syntax-ns#"
	xmlns:svg="http://www.w3.org/2000/svg"
	xmlns="http://www.w3.org/2000/svg"
	xmlns:sodipodi="http://sodipodi.sourceforge.net/DTD/sodipodi-0.dtd"
	xmlns:inkscape="http://www.inkscape.org/namespaces/inkscape"
	width="1000"
	height="1000"
	id="svg2"
	version="1.1"
	sodipodi:docname="manifold/hnncrust-textbox27.png.txt">
<defs
	id="defs4" />
<metadata
	id="metadata7">
	<rdf:RDF>
		<cc:Work
			rdf:about="">
			<dc:format>image/svg+xml</dc:format>
			<dc:type
				rdf:resource="http://purl.org/dc/dcmitype/StillImage" />
			<dc:title></dc:title>
		</cc:Work>
	</rdf:RDF>
</metadata>
<g
	inkscape:label="Layer 1"
	inkscape:groupmode="layer"
	id="layer1">
	<path style="fill:none;stroke:red;stroke-width:1px;stroke-linecap:butt;stroke-linejoin:miter;stroke-opacity:1" d="M 4,486.497 4,504.501 z" id="boundary" inkscape:connector-curvature="0" />
	<path style="fill:none;stroke:red;stroke-width:1px;stroke-linecap:butt;stroke-linejoin:miter;stroke-opacity:1" d="M 4,486.497 22.0036,468.494 z" id="boundary" inkscape:connector-curvature="0" />
	<path style="fill:none;stroke:red;stroke-width:1px;stroke-linecap:butt;stroke-linejoin:miter;stroke-opacity:1" d="M 4,504.501 4,522.505 z" id="boundary" inkscape:connector-curvature="0" />
	<path style="fill:none;stroke:red;stroke-width:1px;stroke-linecap:butt;stroke-linejoin:miter;stroke-opacity:1" d="M 4,522.505 14.8022,536.907 z" id="boundary" inkscape:connector-curvature="0" />
	<path style="fill:none;stroke:red;stroke-width:1px;stroke-linecap:butt;stroke-linejoin:miter;stroke-opacity:1" d="M 14.8022,536.907 22.0036,554.911 z" id="boundary" inkscape:connector-curvature="0" />
	<path style="fill:none;stroke:red;stroke-width:1px;stroke-linecap:butt;stroke-linejoin:miter;stroke-opacity:1" d="M 22.0036,432.486 22.0036,450.49 z" id="boundary" inkscape:connector-curvature="0" />
	<path style="fill:none;stroke:red;stroke-width:1px;stroke-linecap:butt;stroke-linejoin:miter;stroke-opacity:1" d="M 22.0036,432.486 31.0054,405.481 z" id="boundary" inkscape:connector-curvature="0" />
	<path style="fill:none;stroke:red;stroke-width:1px;stroke-linecap:butt;stroke-linejoin:miter;stroke-opacity:1" d="M 22.0036,450.49 22.0036,468.494 z" id="boundary" inkscape:connector-curvature="0" />
	<path style="fill:none;stroke:red;stroke-width:1px;stroke-linecap:butt;stroke-linejoin:miter;stroke-opacity:1" d="M 22.0036,554.911 27.4047,572.915 z" id="boundary" inkscape:connector-curvature="0" />
	<path style="fill:none;stroke:red;stroke-width:1px;stroke-linecap:butt;stroke-linejoin:miter;stroke-opacity:1" d="M 27.4047,572.915 31.0054,590.918 z" id="boundary" inkscape:connector-curvature="0" />
	<path style="fill:none;stroke:red;stroke-width:1px;stroke-linecap:butt;stroke-linejoin:miter;stroke-opacity:1" d="M 31.0054,405.481 49.0091,396.479 z" id="boundary" inkscape:connector-curvature="0" />
	<path style="fill:none;stroke:red;stroke-width:1px;stroke-linecap:butt;stroke-linejoin:miter;stroke-opacity:1" d="M 31.0054,590.918 47.2087,599.92 z" id="boundary" inkscape:connector-curvature="0" />
	<path style="fill:none;stroke:red;stroke-width:1px;stroke-linecap:butt;stroke-linejoin:miter;stroke-opacity:1" d="M 47.2087,599.92 49.0091,617.924 z" id="boundary" inkscape:connector-curvature="0" />
	<path style="fill:none;stroke:red;stroke-width:1px;stroke-linecap:butt;stroke-linejoin:miter;stroke-opacity:1" d="M 49.0091,396.479 58.0109,378.475 z" id="boundary" inkscape:connector-curvature="0" />
	<path style="fill:none;stroke:red;stroke-width:1px;stroke-linecap:butt;stroke-linejoin:miter;stroke-opacity:1" d="M 49.0091,617.924 59.8113,632.327 z" id="boundary" inkscape:connector-curvature="0" />
	<path style="fill:none;stroke:red;stroke-width:1px;stroke-linecap:butt;stroke-linejoin:miter;stroke-opacity:1" d="M 58.0109,378.475 76.0145,369.474 z" id="boundary" inkscape:connector-curvature="0" />
	<path style="fill:none;stroke:red;stroke-width:1px;stroke-linecap:butt;stroke-linejoin:miter;stroke-opacity:1" d="M 59.8113,632.327 76.0145,641.328 z" id="boundary" inkscape:connector-curvature="0" />
	<path style="fill:none;stroke:red;stroke-width:1px;stroke-linecap:butt;stroke-linejoin:miter;stroke-opacity:1" d="M 76.0145,369.474 85.0163,351.47 z" id="boundary" inkscape:connector-curvature="0" />
	<path style="fill:none;stroke:red;stroke-width:1px;stroke-linecap:butt;stroke-linejoin:miter;stroke-opacity:1" d="M 76.0145,641.328 85.0163,657.532 z" id="boundary" inkscape:connector-curvature="0" />
	<path style="fill:none;stroke:red;stroke-width:1px;stroke-linecap:butt;stroke-linejoin:miter;stroke-opacity:1" d="M 85.0163,351.47 103.02,346.069 z" id="boundary" inkscape:connector-curvature="0" />
	<path style="fill:none;stroke:red;stroke-width:1px;stroke-linecap:butt;stroke-linejoin:miter;stroke-opacity:1" d="M 85.0163,657.532 103.02,662.933 z" id="boundary" inkscape:connector-curvature="0" />
	<path style="fill:none;stroke:red;stroke-width:1px;stroke-linecap:butt;stroke-linejoin:miter;stroke-opacity:1" d="M 103.02,346.069 119.223,337.067 z" id="boundary" inkscape:connector-curvature="0" />
	<path style="fill:none;stroke:red;stroke-width:1px;stroke-linecap:butt;stroke-linejoin:miter;stroke-opacity:1" d="M 103.02,662.933 108.421,680.936 z" id="boundary" inkscape:connector-curvature="0" />
	<path style="fill:none;stroke:red;stroke-width:1px;stroke-linecap:butt;stroke-linejoin:miter;stroke-opacity:1" d="M 108.421,680.936 124.624,689.938 z" id="boundary" inkscape:connector-curvature="0" />
	<path style="fill:none;stroke:red;stroke-width:1px;stroke-linecap:butt;stroke-linejoin:miter;stroke-opacity:1" d="M 119.223,337.067 131.826,322.664 z" id="boundary" inkscape:connector-curvature="0" />
	<path style="fill:none;stroke:red;stroke-width:1px;stroke-linecap:butt;stroke-linejoin:miter;stroke-opacity:1" d="M 124.624,689.938 139.027,700.74 z" id="boundary" inkscape:connector-curvature="0" />
	<path style="fill:none;stroke:red;stroke-width:1px;stroke-linecap:butt;stroke-linejoin:miter;stroke-opacity:1" d="M 131.826,322.664 149.829,319.064 z" id="boundary" inkscape:connector-curvature="0" />
	<path style="fill:none;stroke:red;stroke-width:1px;stroke-linecap:butt;stroke-linejoin:miter;stroke-opacity:1" d="M 139.027,700.74 157.031,707.942 z" id="boundary" inkscape:connector-curvature="0" />
	<path style="fill:none;stroke:red;stroke-width:1px;stroke-linecap:butt;stroke-linejoin:miter;stroke-opacity:1" d="M 149.829,319.064 166.033,310.062 z" id="boundary" inkscape:connector-curvature="0" />
	<path style="fill:none;stroke:red;stroke-width:1px;stroke-linecap:butt;stroke-linejoin:miter;stroke-opacity:1" d="M 157.031,707.942 173.234,716.944 z" id="boundary" inkscape:connector-curvature="0" />
	<path style="fill:none;stroke:red;stroke-width:1px;stroke-linecap:butt;stroke-linejoin:miter;stroke-opacity:1" d="M 166.033,310.062 182.236,301.06 z" id="boundary" inkscape:connector-curvature="0" />
	<path style="fill:none;stroke:red;stroke-width:1px;stroke-linecap:butt;stroke-linejoin:miter;stroke-opacity:1" d="M 173.234,716.944 180.436,734.947 z" id="boundary" inkscape:connector-curvature="0" />
	<path style="fill:none;stroke:red;stroke-width:1px;stroke-linecap:butt;stroke-linejoin:miter;stroke-opacity:1" d="M 180.436,734.947 198.439,734.947 z" id="boundary" inkscape:connector-curvature="0" />
	<path style="fill:none;stroke:red;stroke-width:1px;stroke-linecap:butt;stroke-linejoin:miter;stroke-opacity:1" d="M 182.236,301.06 200.24,301.06 z" id="boundary" inkscape:connector-curvature="0" />
	<path style="fill:none;stroke:red;stroke-width:1px;stroke-linecap:butt;stroke-linejoin:miter;stroke-opacity:1" d="M 198.439,734.947 216.443,734.947 z" id="boundary" inkscape:connector-curvature="0" />
	<path style="fill:none;stroke:red;stroke-width:1px;stroke-linecap:butt;stroke-linejoin:miter;stroke-opacity:1" d="M 200.24,301.06 207.441,283.056 z" id="boundary" inkscape:connector-curvature="0" />
	<path style="fill:none;stroke:red;stroke-width:1px;stroke-linecap:butt;stroke-linejoin:miter;stroke-opacity:1" d="M 207.441,283.056 225.445,283.056 z" id="boundary" inkscape:connector-curvature="0" />
	<path style="fill:none;stroke:red;stroke-width:1px;stroke-linecap:butt;stroke-linejoin:miter;stroke-opacity:1" d="M 216.443,734.947 232.646,743.949 z" id="boundary" inkscape:connector-curvature="0" />
	<path style="fill:none;stroke:red;stroke-width:1px;stroke-linecap:butt;stroke-linejoin:miter;stroke-opacity:1" d="M 225.445,283.056 241.648,274.054 z" id="boundary" inkscape:connector-curvature="0" />
	<path style="fill:none;stroke:red;stroke-width:1px;stroke-linecap:butt;stroke-linejoin:miter;stroke-opacity:1" d="M 232.646,743.949 247.049,754.751 z" id="boundary" inkscape:connector-curvature="0" />
	<path style="fill:none;stroke:red;stroke-width:1px;stroke-linecap:butt;stroke-linejoin:miter;stroke-opacity:1" d="M 241.648,274.054 256.051,261.452 z" id="boundary" inkscape:connector-curvature="0" />
	<path style="fill:none;stroke:red;stroke-width:1px;stroke-linecap:butt;stroke-linejoin:miter;stroke-opacity:1" d="M 247.049,754.751 265.053,761.953 z" id="boundary" inkscape:connector-curvature="0" />
	<path style="fill:none;stroke:red;stroke-width:1px;stroke-linecap:butt;stroke-linejoin:miter;stroke-opacity:1" d="M 256.051,261.452 274.054,256.051 z" id="boundary" inkscape:connector-curvature="0" />
	<path style="fill:none;stroke:red;stroke-width:1px;stroke-linecap:butt;stroke-linejoin:miter;stroke-opacity:1" d="M 265.053,761.953 283.056,761.953 z" id="boundary" inkscape:connector-curvature="0" />
	<path style="fill:none;stroke:red;stroke-width:1px;stroke-linecap:butt;stroke-linejoin:miter;stroke-opacity:1" d="M 274.054,256.051 292.058,256.051 z" id="boundary" inkscape:connector-curvature="0" />
	<path style="fill:none;stroke:red;stroke-width:1px;stroke-linecap:butt;stroke-linejoin:miter;stroke-opacity:1" d="M 283.056,761.953 299.26,770.955 z" id="boundary" inkscape:connector-curvature="0" />
	<path style="fill:none;stroke:red;stroke-width:1px;stroke-linecap:butt;stroke-linejoin:miter;stroke-opacity:1" d="M 292.058,256.051 310.062,252.45 z" id="boundary" inkscape:connector-curvature="0" />
	<path style="fill:none;stroke:red;stroke-width:1px;stroke-linecap:butt;stroke-linejoin:miter;stroke-opacity:1" d="M 299.26,770.955 317.263,770.955 z" id="boundary" inkscape:connector-curvature="0" />
	<path style="fill:none;stroke:red;stroke-width:1px;stroke-linecap:butt;stroke-linejoin:miter;stroke-opacity:1" d="M 310.062,252.45 328.065,247.049 z" id="boundary" inkscape:connector-curvature="0" />
	<path style="fill:none;stroke:red;stroke-width:1px;stroke-linecap:butt;stroke-linejoin:miter;stroke-opacity:1" d="M 317.263,770.955 335.267,770.955 z" id="boundary" inkscape:connector-curvature="0" />
	<path style="fill:none;stroke:red;stroke-width:1px;stroke-linecap:butt;stroke-linejoin:miter;stroke-opacity:1" d="M 328.065,247.049 346.069,247.049 z" id="boundary" inkscape:connector-curvature="0" />
	<path style="fill:none;stroke:red;stroke-width:1px;stroke-linecap:butt;stroke-linejoin:miter;stroke-opacity:1" d="M 335.267,770.955 347.869,785.358 z" id="boundary" inkscape:connector-curvature="0" />
	<path style="fill:none;stroke:red;stroke-width:1px;stroke-linecap:butt;stroke-linejoin:miter;stroke-opacity:1" d="M 346.069,247.049 364.073,247.049 z" id="boundary" inkscape:connector-curvature="0" />
	<path style="fill:none;stroke:red;stroke-width:1px;stroke-linecap:butt;stroke-linejoin:miter;stroke-opacity:1" d="M 347.869,785.358 365.873,788.958 z" id="boundary" inkscape:connector-curvature="0" />
	<path style="fill:none;stroke:red;stroke-width:1px;stroke-linecap:butt;stroke-linejoin:miter;stroke-opacity:1" d="M 364.073,247.049 382.076,247.049 z" id="boundary" inkscape:connector-curvature="0" />
	<path style="fill:none;stroke:red;stroke-width:1px;stroke-linecap:butt;stroke-linejoin:miter;stroke-opacity:1" d="M 365.873,788.958 383.877,788.958 z" id="boundary" inkscape:connector-curvature="0" />
	<path style="fill:none;stroke:red;stroke-width:1px;stroke-linecap:butt;stroke-linejoin:miter;stroke-opacity:1" d="M 382.076,247.049 392.878,232.646 z" id="boundary" inkscape:connector-curvature="0" />
	<path style="fill:none;stroke:red;stroke-width:1px;stroke-linecap:butt;stroke-linejoin:miter;stroke-opacity:1" d="M 383.877,788.958 401.88,788.958 z" id="boundary" inkscape:connector-curvature="0" />
	<path style="fill:none;stroke:red;stroke-width:1px;stroke-linecap:butt;stroke-linejoin:miter;stroke-opacity:1" d="M 392.878,232.646 410.882,229.045 z" id="boundary" inkscape:connector-curvature="0" />
	<path style="fill:none;stroke:red;stroke-width:1px;stroke-linecap:butt;stroke-linejoin:miter;stroke-opacity:1" d="M 401.88,788.958 419.884,788.958 z" id="boundary" inkscape:connector-curvature="0" />
	<path style="fill:none;stroke:red;stroke-width:1px;stroke-linecap:butt;stroke-linejoin:miter;stroke-opacity:1" d="M 410.882,229.045 427.085,216.443 z" id="boundary" inkscape:connector-curvature="0" />
	<path style="fill:none;stroke:red;stroke-width:1px;stroke-linecap:butt;stroke-linejoin:miter;stroke-opacity:1" d="M 419.884,788.958 437.887,788.958 z" id="boundary" inkscape:connector-curvature="0" />
	<path style="fill:none;stroke:red;stroke-width:1px;stroke-linecap:butt;stroke-linejoin:miter;stroke-opacity:1" d="M 427.085,198.439 427.085,216.443 z" id="boundary" inkscape:connector-curvature="0" />
	<path style="fill:none;stroke:red;stroke-width:1px;stroke-linecap:butt;stroke-linejoin:miter;stroke-opacity:1" d="M 427.085,198.439 445.089,189.437 z" id="boundary" inkscape:connector-curvature="0" />
	<path style="fill:none;stroke:red;stroke-width:1px;stroke-linecap:butt;stroke-linejoin:miter;stroke-opacity:1" d="M 437.887,788.958 455.891,792.559 z" id="boundary" inkscape:connector-curvature="0" />
	<path style="fill:none;stroke:red;stroke-width:1px;stroke-linecap:butt;stroke-linejoin:miter;stroke-opacity:1" d="M 445.089,153.43 445.089,171.434 z" id="boundary" inkscape:connector-curvature="0" />
	<path style="fill:none;stroke:red;stroke-width:1px;stroke-linecap:butt;stroke-linejoin:miter;stroke-opacity:1" d="M 445.089,153.43 454.091,135.426 z" id="boundary" inkscape:connector-curvature="0" />
	<path style="fill:none;stroke:red;stroke-width:1px;stroke-linecap:butt;stroke-linejoin:miter;stroke-opacity:1" d="M 445.089,171.434 445.089,189.437 z" id="boundary" inkscape:connector-curvature="0" />
	<path style="fill:none;stroke:red;stroke-width:1px;stroke-linecap:butt;stroke-linejoin:miter;stroke-opacity:1" d="M 454.091,135.426 472.094,126.425 z" id="boundary" inkscape:connector-curvature="0" />
	<path style="fill:none;stroke:red;stroke-width:1px;stroke-linecap:butt;stroke-linejoin:miter;stroke-opacity:1" d="M 455.891,792.559 473.895,797.96 z" id="boundary" inkscape:connector-curvature="0" />
	<path style="fill:none;stroke:red;stroke-width:1px;stroke-linecap:butt;stroke-linejoin:miter;stroke-opacity:1" d="M 472.094,108.421 472.094,126.425 z" id="boundary" inkscape:connector-curvature="0" />
	<path style="fill:none;stroke:red;stroke-width:1px;stroke-linecap:butt;stroke-linejoin:miter;stroke-opacity:1" d="M 472.094,108.421 481.096,81.4156 z" id="boundary" inkscape:connector-curvature="0" />
	<path style="fill:none;stroke:red;stroke-width:1px;stroke-linecap:butt;stroke-linejoin:miter;stroke-opacity:1" d="M 473.895,797.96 491.898,797.96 z" id="boundary" inkscape:connector-curvature="0" />
	<path style="fill:none;stroke:red;stroke-width:1px;stroke-linecap:butt;stroke-linejoin:miter;stroke-opacity:1" d="M 481.096,63.412 481.096,81.4156 z" id="boundary" inkscape:connector-curvature="0" />
	<path style="fill:none;stroke:red;stroke-width:1px;stroke-linecap:butt;stroke-linejoin:miter;stroke-opacity:1" d="M 481.096,63.412 490.098,36.4065 z" id="boundary" inkscape:connector-curvature="0" />
	<path style="fill:none;stroke:red;stroke-width:1px;stroke-linecap:butt;stroke-linejoin:miter;stroke-opacity:1" d="M 490.098,36.4065 499.1,18.4029 z" id="boundary" inkscape:connector-curvature="0" />
	<path style="fill:none;stroke:red;stroke-width:1px;stroke-linecap:butt;stroke-linejoin:miter;stroke-opacity:1" d="M 491.898,797.96 509.902,797.96 z" id="boundary" inkscape:connector-curvature="0" />
	<path style="fill:none;stroke:red;stroke-width:1px;stroke-linecap:butt;stroke-linejoin:miter;stroke-opacity:1" d="M 499.1,18.4029 513.503,4 z" id="boundary" inkscape:connector-curvature="0" />
	<path style="fill:none;stroke:red;stroke-width:1px;stroke-linecap:butt;stroke-linejoin:miter;stroke-opacity:1" d="M 509.902,797.96 527.906,797.96 z" id="boundary" inkscape:connector-curvature="0" />
	<path style="fill:none;stroke:red;stroke-width:1px;stroke-linecap:butt;stroke-linejoin:miter;stroke-opacity:1" d="M 513.503,4 526.105,18.4029 z" id="boundary" inkscape:connector-curvature="0" />
	<path style="fill:none;stroke:red;stroke-width:1px;stroke-linecap:butt;stroke-linejoin:miter;stroke-opacity:1" d="M 526.105,18.4029 535.107,34.6062 z" id="boundary" inkscape:connector-curvature="0" />
	<path style="fill:none;stroke:red;stroke-width:1px;stroke-linecap:butt;stroke-linejoin:miter;stroke-opacity:1" d="M 527.906,797.96 545.909,788.958 z" id="boundary" inkscape:connector-curvature="0" />
	<path style="fill:none;stroke:red;stroke-width:1px;stroke-linecap:butt;stroke-linejoin:miter;stroke-opacity:1" d="M 535.107,34.6062 536.907,52.6098 z" id="boundary" inkscape:connector-curvature="0" />
	<path style="fill:none;stroke:red;stroke-width:1px;stroke-linecap:butt;stroke-linejoin:miter;stroke-opacity:1" d="M 536.907,52.6098 545.909,68.8131 z" id="boundary" inkscape:connector-curvature="0" />
	<path style="fill:none;stroke:red;stroke-width:1px;stroke-linecap:butt;stroke-linejoin:miter;stroke-opacity:1" d="M 545.909,68.8131 545.909,86.8167 z" id="boundary" inkscape:connector-curvature="0" />
	<path style="fill:none;stroke:red;stroke-width:1px;stroke-linecap:butt;stroke-linejoin:miter;stroke-opacity:1" d="M 545.909,86.8167 554.911,103.02 z" id="boundary" inkscape:connector-curvature="0" />
	<path style="fill:none;stroke:red;stroke-width:1px;stroke-linecap:butt;stroke-linejoin:miter;stroke-opacity:1" d="M 545.909,788.958 563.913,788.958 z" id="boundary" inkscape:connector-curvature="0" />
	<path style="fill:none;stroke:red;stroke-width:1px;stroke-linecap:butt;stroke-linejoin:miter;stroke-opacity:1" d="M 554.911,103.02 563.913,119.223 z" id="boundary" inkscape:connector-curvature="0" />
	<path style="fill:none;stroke:red;stroke-width:1px;stroke-linecap:butt;stroke-linejoin:miter;stroke-opacity:1" d="M 563.913,119.223 572.915,135.426 z" id="boundary" inkscape:connector-curvature="0" />
	<path style="fill:none;stroke:red;stroke-width:1px;stroke-linecap:butt;stroke-linejoin:miter;stroke-opacity:1" d="M 563.913,788.958 581.917,788.958 z" id="boundary" inkscape:connector-curvature="0" />
	<path style="fill:none;stroke:red;stroke-width:1px;stroke-linecap:butt;stroke-linejoin:miter;stroke-opacity:1" d="M 572.915,135.426 585.517,149.829 z" id="boundary" inkscape:connector-curvature="0" />
	<path style="fill:none;stroke:red;stroke-width:1px;stroke-linecap:butt;stroke-linejoin:miter;stroke-opacity:1" d="M 581.917,788.958 599.92,788.958 z" id="boundary" inkscape:connector-curvature="0" />
	<path style="fill:none;stroke:red;stroke-width:1px;stroke-linecap:butt;stroke-linejoin:miter;stroke-opacity:1" d="M 585.517,149.829 590.918,167.833 z" id="boundary" inkscape:connector-curvature="0" />
	<path style="fill:none;stroke:red;stroke-width:1px;stroke-linecap:butt;stroke-linejoin:miter;stroke-opacity:1" d="M 590.918,167.833 590.918,185.837 z" id="boundary" inkscape:connector-curvature="0" />
	<path style="fill:none;stroke:red;stroke-width:1px;stroke-linecap:butt;stroke-linejoin:miter;stroke-opacity:1" d="M 590.918,185.837 599.92,202.04 z" id="boundary" inkscape:connector-curvature="0" />
	<path style="fill:none;stroke:red;stroke-width:1px;stroke-linecap:butt;stroke-linejoin:miter;stroke-opacity:1" d="M 599.92,202.04 599.92,220.044 z" id="boundary" inkscape:connector-curvature="0" />
	<path style="fill:none;stroke:red;stroke-width:1px;stroke-linecap:butt;stroke-linejoin:miter;stroke-opacity:1" d="M 599.92,220.044 617.924,225.445 z" id="boundary" inkscape:connector-curvature="0" />
	<path style="fill:none;stroke:red;stroke-width:1px;stroke-linecap:butt;stroke-linejoin:miter;stroke-opacity:1" d="M 599.92,788.958 617.924,788.958 z" id="boundary" inkscape:connector-curvature="0" />
	<path style="fill:none;stroke:red;stroke-width:1px;stroke-linecap:butt;stroke-linejoin:miter;stroke-opacity:1" d="M 617.924,225.445 626.926,241.648 z" id="boundary" inkscape:connector-curvature="0" />
	<path style="fill:none;stroke:red;stroke-width:1px;stroke-linecap:butt;stroke-linejoin:miter;stroke-opacity:1" d="M 617.924,788.958 635.927,788.958 z" id="boundary" inkscape:connector-curvature="0" />
	<path style="fill:none;stroke:red;stroke-width:1px;stroke-linecap:butt;stroke-linejoin:miter;stroke-opacity:1" d="M 626.926,241.648 644.929,247.049 z" id="boundary" inkscape:connector-curvature="0" />
	<path style="fill:none;stroke:red;stroke-width:1px;stroke-linecap:butt;stroke-linejoin:miter;stroke-opacity:1" d="M 635.927,788.958 653.931,770.955 z" id="boundary" inkscape:connector-curvature="0" />
	<path style="fill:none;stroke:red;stroke-width:1px;stroke-linecap:butt;stroke-linejoin:miter;stroke-opacity:1" d="M 644.929,247.049 662.933,247.049 z" id="boundary" inkscape:connector-curvature="0" />
	<path style="fill:none;stroke:red;stroke-width:1px;stroke-linecap:butt;stroke-linejoin:miter;stroke-opacity:1" d="M 653.931,770.955 671.935,770.955 z" id="boundary" inkscape:connector-curvature="0" />
	<path style="fill:none;stroke:red;stroke-width:1px;stroke-linecap:butt;stroke-linejoin:miter;stroke-opacity:1" d="M 662.933,247.049 680.936,252.45 z" id="boundary" inkscape:connector-curvature="0" />
	<path style="fill:none;stroke:red;stroke-width:1px;stroke-linecap:butt;stroke-linejoin:miter;stroke-opacity:1" d="M 671.935,770.955 689.938,770.955 z" id="boundary" inkscape:connector-curvature="0" />
	<path style="fill:none;stroke:red;stroke-width:1px;stroke-linecap:butt;stroke-linejoin:miter;stroke-opacity:1" d="M 680.936,252.45 698.94,256.051 z" id="boundary" inkscape:connector-curvature="0" />
	<path style="fill:none;stroke:red;stroke-width:1px;stroke-linecap:butt;stroke-linejoin:miter;stroke-opacity:1" d="M 689.938,770.955 707.942,770.955 z" id="boundary" inkscape:connector-curvature="0" />
	<path style="fill:none;stroke:red;stroke-width:1px;stroke-linecap:butt;stroke-linejoin:miter;stroke-opacity:1" d="M 698.94,256.051 716.944,256.051 z" id="boundary" inkscape:connector-curvature="0" />
	<path style="fill:none;stroke:red;stroke-width:1px;stroke-linecap:butt;stroke-linejoin:miter;stroke-opacity:1" d="M 707.942,770.955 724.145,761.953 z" id="boundary" inkscape:connector-curvature="0" />
	<path style="fill:none;stroke:red;stroke-width:1px;stroke-linecap:butt;stroke-linejoin:miter;stroke-opacity:1" d="M 716.944,256.051 734.947,261.452 z" id="boundary" inkscape:connector-curvature="0" />
	<path style="fill:none;stroke:red;stroke-width:1px;stroke-linecap:butt;stroke-linejoin:miter;stroke-opacity:1" d="M 724.145,761.953 742.149,761.953 z" id="boundary" inkscape:connector-curvature="0" />
	<path style="fill:none;stroke:red;stroke-width:1px;stroke-linecap:butt;stroke-linejoin:miter;stroke-opacity:1" d="M 734.947,261.452 749.35,274.054 z" id="boundary" inkscape:connector-curvature="0" />
	<path style="fill:none;stroke:red;stroke-width:1px;stroke-linecap:butt;stroke-linejoin:miter;stroke-opacity:1" d="M 742.149,761.953 760.152,756.552 z" id="boundary" inkscape:connector-curvature="0" />
	<path style="fill:none;stroke:red;stroke-width:1px;stroke-linecap:butt;stroke-linejoin:miter;stroke-opacity:1" d="M 749.35,274.054 767.354,274.054 z" id="boundary" inkscape:connector-curvature="0" />
	<path style="fill:none;stroke:red;stroke-width:1px;stroke-linecap:butt;stroke-linejoin:miter;stroke-opacity:1" d="M 760.152,756.552 774.555,743.949 z" id="boundary" inkscape:connector-curvature="0" />
	<path style="fill:none;stroke:red;stroke-width:1px;stroke-linecap:butt;stroke-linejoin:miter;stroke-opacity:1" d="M 767.354,274.054 785.358,275.855 z" id="boundary" inkscape:connector-curvature="0" />
	<path style="fill:none;stroke:red;stroke-width:1px;stroke-linecap:butt;stroke-linejoin:miter;stroke-opacity:1" d="M 774.555,743.949 792.559,742.149 z" id="boundary" inkscape:connector-curvature="0" />
	<path style="fill:none;stroke:red;stroke-width:1px;stroke-linecap:butt;stroke-linejoin:miter;stroke-opacity:1" d="M 785.358,275.855 801.561,284.857 z" id="boundary" inkscape:connector-curvature="0" />
	<path style="fill:none;stroke:red;stroke-width:1px;stroke-linecap:butt;stroke-linejoin:miter;stroke-opacity:1" d="M 792.559,742.149 810.563,734.947 z" id="boundary" inkscape:connector-curvature="0" />
	<path style="fill:none;stroke:red;stroke-width:1px;stroke-linecap:butt;stroke-linejoin:miter;stroke-opacity:1" d="M 801.561,284.857 810.563,301.06 z" id="boundary" inkscape:connector-curvature="0" />
	<path style="fill:none;stroke:red;stroke-width:1px;stroke-linecap:butt;stroke-linejoin:miter;stroke-opacity:1" d="M 810.563,301.06 828.566,301.06 z" id="boundary" inkscape:connector-curvature="0" />
	<path style="fill:none;stroke:red;stroke-width:1px;stroke-linecap:butt;stroke-linejoin:miter;stroke-opacity:1" d="M 810.563,734.947 828.566,733.147 z" id="boundary" inkscape:connector-curvature="0" />
	<path style="fill:none;stroke:red;stroke-width:1px;stroke-linecap:butt;stroke-linejoin:miter;stroke-opacity:1" d="M 828.566,301.06 844.77,310.062 z" id="boundary" inkscape:connector-curvature="0" />
	<path style="fill:none;stroke:red;stroke-width:1px;stroke-linecap:butt;stroke-linejoin:miter;stroke-opacity:1" d="M 828.566,733.147 837.568,716.944 z" id="boundary" inkscape:connector-curvature="0" />
	<path style="fill:none;stroke:red;stroke-width:1px;stroke-linecap:butt;stroke-linejoin:miter;stroke-opacity:1" d="M 837.568,716.944 855.572,715.143 z" id="boundary" inkscape:connector-curvature="0" />
	<path style="fill:none;stroke:red;stroke-width:1px;stroke-linecap:butt;stroke-linejoin:miter;stroke-opacity:1" d="M 844.77,310.062 860.973,319.064 z" id="boundary" inkscape:connector-curvature="0" />
	<path style="fill:none;stroke:red;stroke-width:1px;stroke-linecap:butt;stroke-linejoin:miter;stroke-opacity:1" d="M 855.572,715.143 873.575,706.142 z" id="boundary" inkscape:connector-curvature="0" />
	<path style="fill:none;stroke:red;stroke-width:1px;stroke-linecap:butt;stroke-linejoin:miter;stroke-opacity:1" d="M 860.973,319.064 878.976,319.064 z" id="boundary" inkscape:connector-curvature="0" />
	<path style="fill:none;stroke:red;stroke-width:1px;stroke-linecap:butt;stroke-linejoin:miter;stroke-opacity:1" d="M 873.575,706.142 882.577,689.938 z" id="boundary" inkscape:connector-curvature="0" />
	<path style="fill:none;stroke:red;stroke-width:1px;stroke-linecap:butt;stroke-linejoin:miter;stroke-opacity:1" d="M 878.976,319.064 887.978,335.267 z" id="boundary" inkscape:connector-curvature="0" />
	<path style="fill:none;stroke:red;stroke-width:1px;stroke-linecap:butt;stroke-linejoin:miter;stroke-opacity:1" d="M 882.577,689.938 900.581,688.138 z" id="boundary" inkscape:connector-curvature="0" />
	<path style="fill:none;stroke:red;stroke-width:1px;stroke-linecap:butt;stroke-linejoin:miter;stroke-opacity:1" d="M 887.978,335.267 905.982,342.468 z" id="boundary" inkscape:connector-curvature="0" />
	<path style="fill:none;stroke:red;stroke-width:1px;stroke-linecap:butt;stroke-linejoin:miter;stroke-opacity:1" d="M 900.581,688.138 914.984,662.933 z" id="boundary" inkscape:connector-curvature="0" />
	<path style="fill:none;stroke:red;stroke-width:1px;stroke-linecap:butt;stroke-linejoin:miter;stroke-opacity:1" d="M 905.982,342.468 923.985,346.069 z" id="boundary" inkscape:connector-curvature="0" />
	<path style="fill:none;stroke:red;stroke-width:1px;stroke-linecap:butt;stroke-linejoin:miter;stroke-opacity:1" d="M 914.984,662.933 932.987,653.931 z" id="boundary" inkscape:connector-curvature="0" />
	<path style="fill:none;stroke:red;stroke-width:1px;stroke-linecap:butt;stroke-linejoin:miter;stroke-opacity:1" d="M 923.985,346.069 932.987,362.272 z" id="boundary" inkscape:connector-curvature="0" />
	<path style="fill:none;stroke:red;stroke-width:1px;stroke-linecap:butt;stroke-linejoin:miter;stroke-opacity:1" d="M 932.987,362.272 947.39,373.074 z" id="boundary" inkscape:connector-curvature="0" />
	<path style="fill:none;stroke:red;stroke-width:1px;stroke-linecap:butt;stroke-linejoin:miter;stroke-opacity:1" d="M 932.987,653.931 941.989,635.927 z" id="boundary" inkscape:connector-curvature="0" />
	<path style="fill:none;stroke:red;stroke-width:1px;stroke-linecap:butt;stroke-linejoin:miter;stroke-opacity:1" d="M 941.989,635.927 959.993,626.926 z" id="boundary" inkscape:connector-curvature="0" />
	<path style="fill:none;stroke:red;stroke-width:1px;stroke-linecap:butt;stroke-linejoin:miter;stroke-opacity:1" d="M 947.39,373.074 959.993,387.477 z" id="boundary" inkscape:connector-curvature="0" />
	<path style="fill:none;stroke:red;stroke-width:1px;stroke-linecap:butt;stroke-linejoin:miter;stroke-opacity:1" d="M 959.993,387.477 972.595,401.88 z" id="boundary" inkscape:connector-curvature="0" />
	<path style="fill:none;stroke:red;stroke-width:1px;stroke-linecap:butt;stroke-linejoin:miter;stroke-opacity:1" d="M 959.993,626.926 968.995,599.92 z" id="boundary" inkscape:connector-curvature="0" />
	<path style="fill:none;stroke:red;stroke-width:1px;stroke-linecap:butt;stroke-linejoin:miter;stroke-opacity:1" d="M 968.995,599.92 977.996,572.915 z" id="boundary" inkscape:connector-curvature="0" />
	<path style="fill:none;stroke:red;stroke-width:1px;stroke-linecap:butt;stroke-linejoin:miter;stroke-opacity:1" d="M 972.595,401.88 977.996,419.884 z" id="boundary" inkscape:connector-curvature="0" />
	<path style="fill:none;stroke:red;stroke-width:1px;stroke-linecap:butt;stroke-linejoin:miter;stroke-opacity:1" d="M 977.996,419.884 992.399,430.686 z" id="boundary" inkscape:connector-curvature="0" />
	<path style="fill:none;stroke:red;stroke-width:1px;stroke-linecap:butt;stroke-linejoin:miter;stroke-opacity:1" d="M 977.996,572.915 996,556.711 z" id="boundary" inkscape:connector-curvature="0" />
	<path style="fill:none;stroke:red;stroke-width:1px;stroke-linecap:butt;stroke-linejoin:miter;stroke-opacity:1" d="M 992.399,430.686 996,448.69 z" id="boundary" inkscape:connector-curvature="0" />
	<path style="fill:none;stroke:red;stroke-width:1px;stroke-linecap:butt;stroke-linejoin:miter;stroke-opacity:1" d="M 996,448.69 996,466.693 z" id="boundary" inkscape:connector-curvature="0" />
	<path style="fill:none;stroke:red;stroke-width:1px;stroke-linecap:butt;stroke-linejoin:miter;stroke-opacity:1" d="M 996,466.693 996,484.697 z" id="boundary" inkscape:connector-curvature="0" />
	<path style="fill:none;stroke:red;stroke-width:1px;stroke-linecap:butt;stroke-linejoin:miter;stroke-opacity:1" d="M 996,484.697 996,502.701 z" id="boundary" inkscape:connector-curvature="0" />
	<path style="fill:none;stroke:red;stroke-width:1px;stroke-linecap:butt;stroke-linejoin:miter;stroke-opacity:1" d="M 996,502.701 996,520.704 z" id="boundary" inkscape:connector-curvature="0" />
	<path style="fill:none;stroke:red;stroke-width:1px;stroke-linecap:butt;stroke-linejoin:miter;stroke-opacity:1" d="M 996,520.704 996,538.708 z" id="boundary" inkscape:connector-curvature="0" />
	<path style="fill:none;stroke:red;stroke-width:1px;stroke-linecap:butt;stroke-linejoin:miter;stroke-opacity:1" d="M 996,538.708 996,556.711 z" id="boundary" inkscape:connector-curvature="0" />
	<circle cx="4" cy="486.497" r="4" fill="#0" id="circle0"/>
	<circle cx="4" cy="504.501" r="4" fill="#0" id="circle1"/>
	<circle cx="4" cy="522.505" r="4" fill="#0" id="circle2"/>
	<circle cx="14.8022" cy="536.907" r="4" fill="#0" id="circle3"/>
	<circle cx="22.0036" cy="432.486" r="4" fill="#0" id="circle4"/>
	<circle cx="22.0036" cy="450.49" r="4" fill="#0" id="circle5"/>
	<circle cx="22.0036" cy="468.494" r="4" fill="#0" id="circle6"/>
	<circle cx="22.0036" cy="554.911" r="4" fill="#0" id="circle7"/>
	<circle cx="27.4047" cy="572.915" r="4" fill="#0" id="circle8"/>
	<circle cx="31.0054" cy="405.481" r="4" fill="#0" id="circle9"/>
	<circle cx="31.0054" cy="590.918" r="4" fill="#0" id="circle10"/>
	<circle cx="47.2087" cy="599.92" r="4" fill="#0" id="circle11"/>
	<circle cx="49.0091" cy="396.479" r="4" fill="#0" id="circle12"/>
	<circle cx="49.0091" cy="617.924" r="4" fill="#0" id="circle13"/>
	<circle cx="58.0109" cy="378.475" r="4" fill="#0" id="circle14"/>
	<circle cx="59.8113" cy="632.327" r="4" fill="#0" id="circle15"/>
	<circle cx="76.0145" cy="369.474" r="4" fill="#0" id="circle16"/>
	<circle cx="76.0145" cy="641.328" r="4" fill="#0" id="circle17"/>
	<circle cx="85.0163" cy="351.47" r="4" fill="#0" id="circle18"/>
	<circle cx="85.0163" cy="657.532" r="4" fill="#0" id="circle19"/>
	<circle cx="103.02" cy="346.069" r="4" fill="#0" id="circle20"/>
	<circle cx="103.02" cy="662.933" r="4" fill="#0" id="circle21"/>
	<circle cx="108.421" cy="680.936" r="4" fill="#0" id="circle22"/>
	<circle cx="119.223" cy="337.067" r="4" fill="#0" id="circle23"/>
	<circle cx="124.624" cy="689.938" r="4" fill="#0" id="circle24"/>
	<circle cx="131.826" cy="322.664" r="4" fill="#0" id="circle25"/>
	<circle cx="139.027" cy="700.74" r="4" fill="#0" id="circle26"/>
	<circle cx="149.829" cy="319.064" r="4" fill="#0" id="circle27"/>
	<circle cx="157.031" cy="707.942" r="4" fill="#0" id="circle28"/>
	<circle cx="166.033" cy="310.062" r="4" fill="#0" id="circle29"/>
	<circle cx="173.234" cy="716.944" r="4" fill="#0" id="circle30"/>
	<circle cx="180.436" cy="734.947" r="4" fill="#0" id="circle31"/>
	<circle cx="182.236" cy="301.06" r="4" fill="#0" id="circle32"/>
	<circle cx="198.439" cy="734.947" r="4" fill="#0" id="circle33"/>
	<circle cx="200.24" cy="301.06" r="4" fill="#0" id="circle34"/>
	<circle cx="207.441" cy="283.056" r="4" fill="#0" id="circle35"/>
	<circle cx="216.443" cy="734.947" r="4" fill="#0" id="circle36"/>
	<circle cx="225.445" cy="283.056" r="4" fill="#0" id="circle37"/>
	<circle cx="232.646" cy="743.949" r="4" fill="#0" id="circle38"/>
	<circle cx="241.648" cy="274.054" r="4" fill="#0" id="circle39"/>
	<circle cx="247.049" cy="754.751" r="4" fill="#0" id="circle40"/>
	<circle cx="256.051" cy="261.452" r="4" fill="#0" id="circle41"/>
	<circle cx="265.053" cy="761.953" r="4" fill="#0" id="circle42"/>
	<circle cx="274.054" cy="256.051" r="4" fill="#0" id="circle43"/>
	<circle cx="283.056" cy="761.953" r="4" fill="#0" id="circle44"/>
	<circle cx="292.058" cy="256.051" r="4" fill="#0" id="circle45"/>
	<circle cx="299.26" cy="770.955" r="4" fill="#0" id="circle46"/>
	<circle cx="310.062" cy="252.45" r="4" fill="#0" id="circle47"/>
	<circle cx="317.263" cy="770.955" r="4" fill="#0" id="circle48"/>
	<circle cx="328.065" cy="247.049" r="4" fill="#0" id="circle49"/>
	<circle cx="335.267" cy="770.955" r="4" fill="#0" id="circle50"/>
	<circle cx="346.069" cy="247.049" r="4" fill="#0" id="circle51"/>
	<circle cx="347.869" cy="785.358" r="4" fill="#0" id="circle52"/>
	<circle cx="364.073" cy="247.049" r="4" fill="#0" id="circle53"/>
	<circle cx="365.873" cy="788.958" r="4" fill="#0" id="circle54"/>
	<circle cx="382.076" cy="247.049" r="4" fill="#0" id="circle55"/>
	<circle cx="383.877" cy="788.958" r="4" fill="#0" id="circle56"/>
	<circle cx="392.878" cy="232.646" r="4" fill="#0" id="circle57"/>
	<circle cx="401.88" cy="788.958" r="4" fill="#0" id="circle58"/>
	<circle cx="410.882" cy="229.045" r="4" fill="#0" id="circle59"/>
	<circle cx="419.884" cy="788.958" r="4" fill="#0" id="circle60"/>
	<circle cx="427.085" cy="198.439" r="4" fill="#0" id="circle61"/>
	<circle cx="427.085" cy="216.443" r="4" fill="#0" id="circle62"/>
	<circle cx="437.887" cy="788.958" r="4" fill="#0" id="circle63"/>
	<circle cx="445.089" cy="153.43" r="4" fill="#0" id="circle64"/>
	<circle cx="445.089" cy="171.434" r="4" fill="#0" id="circle65"/>
	<circle cx="445.089" cy="189.437" r="4" fill="#0" id="circle66"/>
	<circle cx="454.091" cy="135.426" r="4" fill="#0" id="circle67"/>
	<circle cx="455.891" cy="792.559" r="4" fill="#0" id="circle68"/>
	<circle cx="472.094" cy="108.421" r="4" fill="#0" id="circle69"/>
	<circle cx="472.094" cy="126.425" r="4" fill="#0" id="circle70"/>
	<circle cx="473.895" cy="797.96" r="4" fill="#0" id="circle71"/>
	<circle cx="481.096" cy="63.412" r="4" fill="#0" id="circle72"/>
	<circle cx="481.096" cy="81.4156" r="4" fill="#0" id="circle73"/>
	<circle cx="490.098" cy="36.4065" r="4" fill="#0" id="circle74"/>
	<circle cx="491.898" cy="797.96" r="4" fill="#0" id="circle75"/>
	<circle cx="499.1" cy="18.4029" r="4" fill="#0" id="circle76"/>
	<circle cx="509.902" cy="797.96" r="4" fill="#0" id="circle77"/>
	<circle cx="513.503" cy="4" r="4" fill="#0" id="circle78"/>
	<circle cx="526.105" cy="18.4029" r="4" fill="#0" id="circle79"/>
	<circle cx="527.906" cy="797.96" r="4" fill="#0" id="circle80"/>
	<circle cx="535.107" cy="34.6062" r="4" fill="#0" id="circle81"/>
	<circle cx="536.907" cy="52.6098" r="4" fill="#0" id="circle82"/>
	<circle cx="545.909" cy="68.8131" r="4" fill="#0" id="circle83"/>
	<circle cx="545.909" cy="86.8167" r="4" fill="#0" id="circle84"/>
	<circle cx="545.909" cy="788.958" r="4" fill="#0" id="circle85"/>
	<circle cx="554.911" cy="103.02" r="4" fill="#0" id="circle86"/>
	<circle cx="563.913" cy="119.223" r="4" fill="#0" id="circle87"/>
	<circle cx="563.913" cy="788.958" r="4" fill="#0" id="circle88"/>
	<circle cx="572.915" cy="135.426" r="4" fill="#0" id="circle89"/>
	<circle cx="581.917" cy="788.958" r="4" fill="#0" id="circle90"/>
	<circle cx="585.517" cy="149.829" r="4" fill="#0" id="circle91"/>
	<circle cx="590.918" cy="167.833" r="4" fill="#0" id="circle92"/>
	<circle cx="590.918" cy="185.837" r="4" fill="#0" id="circle93"/>
	<circle cx="599.92" cy="202.04" r="4" fill="#0" id="circle94"/>
	<circle cx="599.92" cy="220.044" r="4" fill="#0" id="circle95"/>
	<circle cx="599.92" cy="788.958" r="4" fill="#0" id="circle96"/>
	<circle cx="617.924" cy="225.445" r="4" fill="#0" id="circle97"/>
	<circle cx="617.924" cy="788.958" r="4" fill="#0" id="circle98"/>
	<circle cx="626.926" cy="241.648" r="4" fill="#0" id="circle99"/>
	<circle cx="635.927" cy="788.958" r="4" fill="#0" id="circle100"/>
	<circle cx="644.929" cy="247.049" r="4" fill="#0" id="circle101"/>
	<circle cx="653.931" cy="770.955" r="4" fill="#0" id="circle102"/>
	<circle cx="662.933" cy="247.049" r="4" fill="#0" id="circle103"/>
	<circle cx="671.935" cy="770.955" r="4" fill="#0" id="circle104"/>
	<circle cx="680.936" cy="252.45" r="4" fill="#0" id="circle105"/>
	<circle cx="689.938" cy="770.955" r="4" fill="#0" id="circle106"/>
	<circle cx="698.94" cy="256.051" r="4" fill="#0" id="circle107"/>
	<circle cx="707.942" cy="770.955" r="4" fill="#0" id="circle108"/>
	<circle cx="716.944" cy="256.051" r="4" fill="#0" id="circle109"/>
	<circle cx="724.145" cy="761.953" r="4" fill="#0" id="circle110"/>
	<circle cx="734.947" cy="261.452" r="4" fill="#0" id="circle111"/>
	<circle cx="742.149" cy="761.953" r="4" fill="#0" id="circle112"/>
	<circle cx="749.35" cy="274.054" r="4" fill="#0" id="circle113"/>
	<circle cx="760.152" cy="756.552" r="4" fill="#0" id="circle114"/>
	<circle cx="767.354" cy="274.054" r="4" fill="#0" id="circle115"/>
	<circle cx="774.555" cy="743.949" r="4" fill="#0" id="circle116"/>
	<circle cx="785.358" cy="275.855" r="4" fill="#0" id="circle117"/>
	<circle cx="792.559" cy="742.149" r="4" fill="#0" id="circle118"/>
	<circle cx="801.561" cy="284.857" r="4" fill="#0" id="circle119"/>
	<circle cx="810.563" cy="301.06" r="4" fill="#0" id="circle120"/>
	<circle cx="810.563" cy="734.947" r="4" fill="#0" id="circle121"/>
	<circle cx="828.566" cy="301.06" r="4" fill="#0" id="circle122"/>
	<circle cx="828.566" cy="733.147" r="4" fill="#0" id="circle123"/>
	<circle cx="837.568" cy="716.944" r="4" fill="#0" id="circle124"/>
	<circle cx="844.77" cy="310.062" r="4" fill="#0" id="circle125"/>
	<circle cx="855.572" cy="715.143" r="4" fill="#0" id="circle126"/>
	<circle cx="860.973" cy="319.064" r="4" fill="#0" id="circle127"/>
	<circle cx="873.575" cy="706.142" r="4" fill="#0" id="circle128"/>
	<circle cx="878.976" cy="319.064" r="4" fill="#0" id="circle129"/>
	<circle cx="882.577" cy="689.938" r="4" fill="#0" id="circle130"/>
	<circle cx="887.978" cy="335.267" r="4" fill="#0" id="circle131"/>
	<circle cx="900.581" cy="688.138" r="4" fill="#0" id="circle132"/>
	<circle cx="905.982" cy="342.468" r="4" fill="#0" id="circle133"/>
	<circle cx="914.984" cy="662.933" r="4" fill="#0" id="circle134"/>
	<circle cx="923.985" cy="346.069" r="4" fill="#0" id="circle135"/>
	<circle cx="932.987" cy="362.272" r="4" fill="#0" id="circle136"/>
	<circle cx="932.987" cy="653.931" r="4" fill="#0" id="circle137"/>
	<circle cx="941.989" cy="635.927" r="4" fill="#0" id="circle138"/>
	<circle cx="947.39" cy="373.074" r="4" fill="#0" id="circle139"/>
	<circle cx="959.993" cy="387.477" r="4" fill="#0" id="circle140"/>
	<circle cx="959.993" cy="626.926" r="4" fill="#0" id="circle141"/>
	<circle cx="968.995" cy="599.92" r="4" fill="#0" id="circle142"/>
	<circle cx="972.595" cy="401.88" r="4" fill="#0" id="circle143"/>
	<circle cx="977.996" cy="419.884" r="4" fill="#0" id="circle144"/>
	<circle cx="977.996" cy="572.915" r="4" fill="#0" id="circle145"/>
	<circle cx="992.399" cy="430.686" r="4" fill="#0" id="circle146"/>
	<circle cx="996" cy="448.69" r="4" fill="#0" id="circle147"/>
	<circle cx="996" cy="466.693" r="4" fill="#0" id="circle148"/>
	<circle cx="996" cy="484.697" r="4" fill="#0" id="circle149"/>
	<circle cx="996" cy="502.701" r="4" fill="#0" id="circle150"/>
	<circle cx="996" cy="520.704" r="4" fill="#0" id="circle151"/>
	<circle cx="996" cy="538.708" r="4" fill="#0" id="circle152"/>
	<circle cx="996" cy="556.711" r="4" fill="#0" id="circle153"/>
	</g>
</svg>