<?xml version="1.0" encoding="UTF-8" standalone="no"?>
<!-- Created with CurveBenchmark -->
<svg
	xmlns:dc="http://purl.org/dc/elements/1.1/"
	xmlns:cc="http://creativecommons.org/ns#"
	xmlns:rdf="http://www.w3.org/1999/02/22-rdf-syntax-ns#"
	xmlns:svg="http://www.w3.org/2000/svg"
	xmlns="http://www.w3.org/2000/svg"
	xmlns:sodipodi="http://sodipodi.sourceforge.net/DTD/sodipodi-0.dtd"
	xmlns:inkscape="http://www.inkscape.org/namespaces/inkscape"
	width="1000"
	height="1000"
	id="svg2"
	version="1.1"
	sodipodi:docname="manifold/hnncrust-tool38.png.txt">
<defs
	id="defs4" />
<metadata
	id="metadata7">
	<rdf:RDF>
		<cc:Work
			rdf:about="">
			<dc:format>image/svg+xml</dc:format>
			<dc:type
				rdf:resource="http://purl.org/dc/dcmitype/StillImage" />
			<dc:title></dc:title>
		</cc:Work>
	</rdf:RDF>
</metadata>
<g
	inkscape:label="Layer 1"
	inkscape:groupmode="layer"
	id="layer1">
	<path style="fill:none;stroke:red;stroke-width:1px;stroke-linecap:butt;stroke-linejoin:miter;stroke-opacity:1" d="M 4,177.149 4,213.222 z" id="boundary" inkscape:connector-curvature="0" />
	<path style="fill:none;stroke:red;stroke-width:1px;stroke-linecap:butt;stroke-linejoin:miter;stroke-opacity:1" d="M 4,177.149 40.0727,141.076 z" id="boundary" inkscape:connector-curvature="0" />
	<path style="fill:none;stroke:red;stroke-width:1px;stroke-linecap:butt;stroke-linejoin:miter;stroke-opacity:1" d="M 4,213.222 40.0727,224.044 z" id="boundary" inkscape:connector-curvature="0" />
	<path style="fill:none;stroke:red;stroke-width:1px;stroke-linecap:butt;stroke-linejoin:miter;stroke-opacity:1" d="M 4,321.44 40.0727,321.44 z" id="boundary" inkscape:connector-curvature="0" />
	<path style="fill:none;stroke:red;stroke-width:1px;stroke-linecap:butt;stroke-linejoin:miter;stroke-opacity:1" d="M 22.0364,353.905 47.2873,382.764 z" id="boundary" inkscape:connector-curvature="0" />
	<path style="fill:none;stroke:red;stroke-width:1px;stroke-linecap:butt;stroke-linejoin:miter;stroke-opacity:1" d="M 40.0727,141.076 68.9309,112.218 z" id="boundary" inkscape:connector-curvature="0" />
	<path style="fill:none;stroke:red;stroke-width:1px;stroke-linecap:butt;stroke-linejoin:miter;stroke-opacity:1" d="M 40.0727,224.044 76.1455,224.044 z" id="boundary" inkscape:connector-curvature="0" />
	<path style="fill:none;stroke:red;stroke-width:1px;stroke-linecap:butt;stroke-linejoin:miter;stroke-opacity:1" d="M 40.0727,321.44 76.1455,285.367 z" id="boundary" inkscape:connector-curvature="0" />
	<path style="fill:none;stroke:red;stroke-width:1px;stroke-linecap:butt;stroke-linejoin:miter;stroke-opacity:1" d="M 47.2873,382.764 76.1455,404.407 z" id="boundary" inkscape:connector-curvature="0" />
	<path style="fill:none;stroke:red;stroke-width:1px;stroke-linecap:butt;stroke-linejoin:miter;stroke-opacity:1" d="M 68.9309,112.218 105.004,112.218 z" id="boundary" inkscape:connector-curvature="0" />
	<path style="fill:none;stroke:red;stroke-width:1px;stroke-linecap:butt;stroke-linejoin:miter;stroke-opacity:1" d="M 76.1455,224.044 76.1455,285.367 z" id="boundary" inkscape:connector-curvature="0" />
	<path style="fill:none;stroke:red;stroke-width:1px;stroke-linecap:butt;stroke-linejoin:miter;stroke-opacity:1" d="M 76.1455,404.407 112.218,411.622 z" id="boundary" inkscape:connector-curvature="0" />
	<path style="fill:none;stroke:red;stroke-width:1px;stroke-linecap:butt;stroke-linejoin:miter;stroke-opacity:1" d="M 105.004,112.218 137.469,130.255 z" id="boundary" inkscape:connector-curvature="0" />
	<path style="fill:none;stroke:red;stroke-width:1px;stroke-linecap:butt;stroke-linejoin:miter;stroke-opacity:1" d="M 112.218,411.622 148.291,404.407 z" id="boundary" inkscape:connector-curvature="0" />
	<path style="fill:none;stroke:red;stroke-width:1px;stroke-linecap:butt;stroke-linejoin:miter;stroke-opacity:1" d="M 137.469,130.255 173.542,130.255 z" id="boundary" inkscape:connector-curvature="0" />
	<path style="fill:none;stroke:red;stroke-width:1px;stroke-linecap:butt;stroke-linejoin:miter;stroke-opacity:1" d="M 148.291,404.407 177.149,382.764 z" id="boundary" inkscape:connector-curvature="0" />
	<path style="fill:none;stroke:red;stroke-width:1px;stroke-linecap:butt;stroke-linejoin:miter;stroke-opacity:1" d="M 173.542,130.255 206.007,148.291 z" id="boundary" inkscape:connector-curvature="0" />
	<path style="fill:none;stroke:red;stroke-width:1px;stroke-linecap:butt;stroke-linejoin:miter;stroke-opacity:1" d="M 177.149,382.764 206.007,350.298 z" id="boundary" inkscape:connector-curvature="0" />
	<path style="fill:none;stroke:red;stroke-width:1px;stroke-linecap:butt;stroke-linejoin:miter;stroke-opacity:1" d="M 206.007,148.291 242.08,137.469 z" id="boundary" inkscape:connector-curvature="0" />
	<path style="fill:none;stroke:red;stroke-width:1px;stroke-linecap:butt;stroke-linejoin:miter;stroke-opacity:1" d="M 206.007,350.298 238.473,332.262 z" id="boundary" inkscape:connector-curvature="0" />
	<path style="fill:none;stroke:red;stroke-width:1px;stroke-linecap:butt;stroke-linejoin:miter;stroke-opacity:1" d="M 238.473,332.262 267.331,310.618 z" id="boundary" inkscape:connector-curvature="0" />
	<path style="fill:none;stroke:red;stroke-width:1px;stroke-linecap:butt;stroke-linejoin:miter;stroke-opacity:1" d="M 242.08,137.469 278.153,130.255 z" id="boundary" inkscape:connector-curvature="0" />
	<path style="fill:none;stroke:red;stroke-width:1px;stroke-linecap:butt;stroke-linejoin:miter;stroke-opacity:1" d="M 267.331,310.618 303.404,296.189 z" id="boundary" inkscape:connector-curvature="0" />
	<path style="fill:none;stroke:red;stroke-width:1px;stroke-linecap:butt;stroke-linejoin:miter;stroke-opacity:1" d="M 278.153,130.255 314.225,119.433 z" id="boundary" inkscape:connector-curvature="0" />
	<path style="fill:none;stroke:red;stroke-width:1px;stroke-linecap:butt;stroke-linejoin:miter;stroke-opacity:1" d="M 303.404,296.189 335.869,278.153 z" id="boundary" inkscape:connector-curvature="0" />
	<path style="fill:none;stroke:red;stroke-width:1px;stroke-linecap:butt;stroke-linejoin:miter;stroke-opacity:1" d="M 314.225,119.433 350.298,112.218 z" id="boundary" inkscape:connector-curvature="0" />
	<path style="fill:none;stroke:red;stroke-width:1px;stroke-linecap:butt;stroke-linejoin:miter;stroke-opacity:1" d="M 335.869,278.153 371.942,278.153 z" id="boundary" inkscape:connector-curvature="0" />
	<path style="fill:none;stroke:red;stroke-width:1px;stroke-linecap:butt;stroke-linejoin:miter;stroke-opacity:1" d="M 350.298,112.218 386.371,112.218 z" id="boundary" inkscape:connector-curvature="0" />
	<path style="fill:none;stroke:red;stroke-width:1px;stroke-linecap:butt;stroke-linejoin:miter;stroke-opacity:1" d="M 371.942,278.153 404.407,260.116 z" id="boundary" inkscape:connector-curvature="0" />
	<path style="fill:none;stroke:red;stroke-width:1px;stroke-linecap:butt;stroke-linejoin:miter;stroke-opacity:1" d="M 386.371,112.218 418.836,94.1818 z" id="boundary" inkscape:connector-curvature="0" />
	<path style="fill:none;stroke:red;stroke-width:1px;stroke-linecap:butt;stroke-linejoin:miter;stroke-opacity:1" d="M 404.407,260.116 440.48,260.116 z" id="boundary" inkscape:connector-curvature="0" />
	<path style="fill:none;stroke:red;stroke-width:1px;stroke-linecap:butt;stroke-linejoin:miter;stroke-opacity:1" d="M 418.836,94.1818 454.909,94.1818 z" id="boundary" inkscape:connector-curvature="0" />
	<path style="fill:none;stroke:red;stroke-width:1px;stroke-linecap:butt;stroke-linejoin:miter;stroke-opacity:1" d="M 440.48,260.116 472.945,242.08 z" id="boundary" inkscape:connector-curvature="0" />
	<path style="fill:none;stroke:red;stroke-width:1px;stroke-linecap:butt;stroke-linejoin:miter;stroke-opacity:1" d="M 454.909,94.1818 490.982,86.9673 z" id="boundary" inkscape:connector-curvature="0" />
	<path style="fill:none;stroke:red;stroke-width:1px;stroke-linecap:butt;stroke-linejoin:miter;stroke-opacity:1" d="M 472.945,242.08 509.018,231.258 z" id="boundary" inkscape:connector-curvature="0" />
	<path style="fill:none;stroke:red;stroke-width:1px;stroke-linecap:butt;stroke-linejoin:miter;stroke-opacity:1" d="M 490.982,86.9673 527.055,76.1455 z" id="boundary" inkscape:connector-curvature="0" />
	<path style="fill:none;stroke:red;stroke-width:1px;stroke-linecap:butt;stroke-linejoin:miter;stroke-opacity:1" d="M 509.018,231.258 545.091,224.044 z" id="boundary" inkscape:connector-curvature="0" />
	<path style="fill:none;stroke:red;stroke-width:1px;stroke-linecap:butt;stroke-linejoin:miter;stroke-opacity:1" d="M 527.055,76.1455 563.127,76.1455 z" id="boundary" inkscape:connector-curvature="0" />
	<path style="fill:none;stroke:red;stroke-width:1px;stroke-linecap:butt;stroke-linejoin:miter;stroke-opacity:1" d="M 545.091,224.044 577.556,206.007 z" id="boundary" inkscape:connector-curvature="0" />
	<path style="fill:none;stroke:red;stroke-width:1px;stroke-linecap:butt;stroke-linejoin:miter;stroke-opacity:1" d="M 563.127,76.1455 599.2,76.1455 z" id="boundary" inkscape:connector-curvature="0" />
	<path style="fill:none;stroke:red;stroke-width:1px;stroke-linecap:butt;stroke-linejoin:miter;stroke-opacity:1" d="M 577.556,206.007 613.629,206.007 z" id="boundary" inkscape:connector-curvature="0" />
	<path style="fill:none;stroke:red;stroke-width:1px;stroke-linecap:butt;stroke-linejoin:miter;stroke-opacity:1" d="M 599.2,76.1455 635.273,76.1455 z" id="boundary" inkscape:connector-curvature="0" />
	<path style="fill:none;stroke:red;stroke-width:1px;stroke-linecap:butt;stroke-linejoin:miter;stroke-opacity:1" d="M 613.629,206.007 646.095,187.971 z" id="boundary" inkscape:connector-curvature="0" />
	<path style="fill:none;stroke:red;stroke-width:1px;stroke-linecap:butt;stroke-linejoin:miter;stroke-opacity:1" d="M 635.273,76.1455 667.738,58.1091 z" id="boundary" inkscape:connector-curvature="0" />
	<path style="fill:none;stroke:red;stroke-width:1px;stroke-linecap:butt;stroke-linejoin:miter;stroke-opacity:1" d="M 646.095,187.971 682.167,184.364 z" id="boundary" inkscape:connector-curvature="0" />
	<path style="fill:none;stroke:red;stroke-width:1px;stroke-linecap:butt;stroke-linejoin:miter;stroke-opacity:1" d="M 667.738,58.1091 703.811,58.1091 z" id="boundary" inkscape:connector-curvature="0" />
	<path style="fill:none;stroke:red;stroke-width:1px;stroke-linecap:butt;stroke-linejoin:miter;stroke-opacity:1" d="M 682.167,184.364 718.24,169.935 z" id="boundary" inkscape:connector-curvature="0" />
	<path style="fill:none;stroke:red;stroke-width:1px;stroke-linecap:butt;stroke-linejoin:miter;stroke-opacity:1" d="M 703.811,58.1091 739.884,58.1091 z" id="boundary" inkscape:connector-curvature="0" />
	<path style="fill:none;stroke:red;stroke-width:1px;stroke-linecap:butt;stroke-linejoin:miter;stroke-opacity:1" d="M 718.24,169.935 754.313,166.327 z" id="boundary" inkscape:connector-curvature="0" />
	<path style="fill:none;stroke:red;stroke-width:1px;stroke-linecap:butt;stroke-linejoin:miter;stroke-opacity:1" d="M 739.884,58.1091 772.349,40.0727 z" id="boundary" inkscape:connector-curvature="0" />
	<path style="fill:none;stroke:red;stroke-width:1px;stroke-linecap:butt;stroke-linejoin:miter;stroke-opacity:1" d="M 754.313,166.327 790.385,151.898 z" id="boundary" inkscape:connector-curvature="0" />
	<path style="fill:none;stroke:red;stroke-width:1px;stroke-linecap:butt;stroke-linejoin:miter;stroke-opacity:1" d="M 772.349,40.0727 808.422,40.0727 z" id="boundary" inkscape:connector-curvature="0" />
	<path style="fill:none;stroke:red;stroke-width:1px;stroke-linecap:butt;stroke-linejoin:miter;stroke-opacity:1" d="M 790.385,151.898 826.458,148.291 z" id="boundary" inkscape:connector-curvature="0" />
	<path style="fill:none;stroke:red;stroke-width:1px;stroke-linecap:butt;stroke-linejoin:miter;stroke-opacity:1" d="M 808.422,40.0727 844.495,22.0364 z" id="boundary" inkscape:connector-curvature="0" />
	<path style="fill:none;stroke:red;stroke-width:1px;stroke-linecap:butt;stroke-linejoin:miter;stroke-opacity:1" d="M 826.458,148.291 862.531,133.862 z" id="boundary" inkscape:connector-curvature="0" />
	<path style="fill:none;stroke:red;stroke-width:1px;stroke-linecap:butt;stroke-linejoin:miter;stroke-opacity:1" d="M 844.495,22.0364 880.567,22.0364 z" id="boundary" inkscape:connector-curvature="0" />
	<path style="fill:none;stroke:red;stroke-width:1px;stroke-linecap:butt;stroke-linejoin:miter;stroke-opacity:1" d="M 862.531,133.862 898.604,130.255 z" id="boundary" inkscape:connector-curvature="0" />
	<path style="fill:none;stroke:red;stroke-width:1px;stroke-linecap:butt;stroke-linejoin:miter;stroke-opacity:1" d="M 880.567,22.0364 916.64,4 z" id="boundary" inkscape:connector-curvature="0" />
	<path style="fill:none;stroke:red;stroke-width:1px;stroke-linecap:butt;stroke-linejoin:miter;stroke-opacity:1" d="M 898.604,130.255 934.676,115.825 z" id="boundary" inkscape:connector-curvature="0" />
	<path style="fill:none;stroke:red;stroke-width:1px;stroke-linecap:butt;stroke-linejoin:miter;stroke-opacity:1" d="M 916.64,4 952.713,4 z" id="boundary" inkscape:connector-curvature="0" />
	<path style="fill:none;stroke:red;stroke-width:1px;stroke-linecap:butt;stroke-linejoin:miter;stroke-opacity:1" d="M 934.676,115.825 967.142,97.7891 z" id="boundary" inkscape:connector-curvature="0" />
	<path style="fill:none;stroke:red;stroke-width:1px;stroke-linecap:butt;stroke-linejoin:miter;stroke-opacity:1" d="M 952.713,4 977.964,32.8582 z" id="boundary" inkscape:connector-curvature="0" />
	<path style="fill:none;stroke:red;stroke-width:1px;stroke-linecap:butt;stroke-linejoin:miter;stroke-opacity:1" d="M 967.142,97.7891 996,68.9309 z" id="boundary" inkscape:connector-curvature="0" />
	<path style="fill:none;stroke:red;stroke-width:1px;stroke-linecap:butt;stroke-linejoin:miter;stroke-opacity:1" d="M 977.964,32.8582 996,68.9309 z" id="boundary" inkscape:connector-curvature="0" />
	<circle cx="4" cy="177.149" r="4" fill="#0" id="circle0"/>
	<circle cx="4" cy="213.222" r="4" fill="#0" id="circle1"/>
	<circle cx="4" cy="321.44" r="4" fill="#0" id="circle2"/>
	<circle cx="22.0364" cy="353.905" r="4" fill="#0" id="circle3"/>
	<circle cx="40.0727" cy="141.076" r="4" fill="#0" id="circle4"/>
	<circle cx="40.0727" cy="224.044" r="4" fill="#0" id="circle5"/>
	<circle cx="40.0727" cy="321.44" r="4" fill="#0" id="circle6"/>
	<circle cx="47.2873" cy="382.764" r="4" fill="#0" id="circle7"/>
	<circle cx="68.9309" cy="112.218" r="4" fill="#0" id="circle8"/>
	<circle cx="76.1455" cy="224.044" r="4" fill="#0" id="circle9"/>
	<circle cx="76.1455" cy="285.367" r="4" fill="#0" id="circle10"/>
	<circle cx="76.1455" cy="404.407" r="4" fill="#0" id="circle11"/>
	<circle cx="105.004" cy="112.218" r="4" fill="#0" id="circle12"/>
	<circle cx="112.218" cy="411.622" r="4" fill="#0" id="circle13"/>
	<circle cx="137.469" cy="130.255" r="4" fill="#0" id="circle14"/>
	<circle cx="148.291" cy="404.407" r="4" fill="#0" id="circle15"/>
	<circle cx="173.542" cy="130.255" r="4" fill="#0" id="circle16"/>
	<circle cx="177.149" cy="382.764" r="4" fill="#0" id="circle17"/>
	<circle cx="206.007" cy="148.291" r="4" fill="#0" id="circle18"/>
	<circle cx="206.007" cy="350.298" r="4" fill="#0" id="circle19"/>
	<circle cx="238.473" cy="332.262" r="4" fill="#0" id="circle20"/>
	<circle cx="242.08" cy="137.469" r="4" fill="#0" id="circle21"/>
	<circle cx="267.331" cy="310.618" r="4" fill="#0" id="circle22"/>
	<circle cx="278.153" cy="130.255" r="4" fill="#0" id="circle23"/>
	<circle cx="303.404" cy="296.189" r="4" fill="#0" id="circle24"/>
	<circle cx="314.225" cy="119.433" r="4" fill="#0" id="circle25"/>
	<circle cx="335.869" cy="278.153" r="4" fill="#0" id="circle26"/>
	<circle cx="350.298" cy="112.218" r="4" fill="#0" id="circle27"/>
	<circle cx="371.942" cy="278.153" r="4" fill="#0" id="circle28"/>
	<circle cx="386.371" cy="112.218" r="4" fill="#0" id="circle29"/>
	<circle cx="404.407" cy="260.116" r="4" fill="#0" id="circle30"/>
	<circle cx="418.836" cy="94.1818" r="4" fill="#0" id="circle31"/>
	<circle cx="440.48" cy="260.116" r="4" fill="#0" id="circle32"/>
	<circle cx="454.909" cy="94.1818" r="4" fill="#0" id="circle33"/>
	<circle cx="472.945" cy="242.08" r="4" fill="#0" id="circle34"/>
	<circle cx="490.982" cy="86.9673" r="4" fill="#0" id="circle35"/>
	<circle cx="509.018" cy="231.258" r="4" fill="#0" id="circle36"/>
	<circle cx="527.055" cy="76.1455" r="4" fill="#0" id="circle37"/>
	<circle cx="545.091" cy="224.044" r="4" fill="#0" id="circle38"/>
	<circle cx="563.127" cy="76.1455" r="4" fill="#0" id="circle39"/>
	<circle cx="577.556" cy="206.007" r="4" fill="#0" id="circle40"/>
	<circle cx="599.2" cy="76.1455" r="4" fill="#0" id="circle41"/>
	<circle cx="613.629" cy="206.007" r="4" fill="#0" id="circle42"/>
	<circle cx="635.273" cy="76.1455" r="4" fill="#0" id="circle43"/>
	<circle cx="646.095" cy="187.971" r="4" fill="#0" id="circle44"/>
	<circle cx="667.738" cy="58.1091" r="4" fill="#0" id="circle45"/>
	<circle cx="682.167" cy="184.364" r="4" fill="#0" id="circle46"/>
	<circle cx="703.811" cy="58.1091" r="4" fill="#0" id="circle47"/>
	<circle cx="718.24" cy="169.935" r="4" fill="#0" id="circle48"/>
	<circle cx="739.884" cy="58.1091" r="4" fill="#0" id="circle49"/>
	<circle cx="754.313" cy="166.327" r="4" fill="#0" id="circle50"/>
	<circle cx="772.349" cy="40.0727" r="4" fill="#0" id="circle51"/>
	<circle cx="790.385" cy="151.898" r="4" fill="#0" id="circle52"/>
	<circle cx="808.422" cy="40.0727" r="4" fill="#0" id="circle53"/>
	<circle cx="826.458" cy="148.291" r="4" fill="#0" id="circle54"/>
	<circle cx="844.495" cy="22.0364" r="4" fill="#0" id="circle55"/>
	<circle cx="862.531" cy="133.862" r="4" fill="#0" id="circle56"/>
	<circle cx="880.567" cy="22.0364" r="4" fill="#0" id="circle57"/>
	<circle cx="898.604" cy="130.255" r="4" fill="#0" id="circle58"/>
	<circle cx="916.64" cy="4" r="4" fill="#0" id="circle59"/>
	<circle cx="934.676" cy="115.825" r="4" fill="#0" id="circle60"/>
	<circle cx="952.713" cy="4" r="4" fill="#0" id="circle61"/>
	<circle cx="967.142" cy="97.7891" r="4" fill="#0" id="circle62"/>
	<circle cx="977.964" cy="32.8582" r="4" fill="#0" id="circle63"/>
	<circle cx="996" cy="68.9309" r="4" fill="#0" id="circle64"/>
	</g>
</svg>