<?xml version="1.0" encoding="UTF-8" standalone="no"?>
<!-- Created with CurveBenchmark -->
<svg
	xmlns:dc="http://purl.org/dc/elements/1.1/"
	xmlns:cc="http://creativecommons.org/ns#"
	xmlns:rdf="http://www.w3.org/1999/02/22-rdf-syntax-ns#"
	xmlns:svg="http://www.w3.org/2000/svg"
	xmlns="http://www.w3.org/2000/svg"
	xmlns:sodipodi="http://sodipodi.sourceforge.net/DTD/sodipodi-0.dtd"
	xmlns:inkscape="http://www.inkscape.org/namespaces/inkscape"
	width="1000"
	height="1000"
	id="svg2"
	version="1.1"
	sodipodi:docname="manifold/hnncrust-hammer01.png.txt">
<defs
	id="defs4" />
<metadata
	id="metadata7">
	<rdf:RDF>
		<cc:Work
			rdf:about="">
			<dc:format>image/svg+xml</dc:format>
			<dc:type
				rdf:resource="http://purl.org/dc/dcmitype/StillImage" />
			<dc:title></dc:title>
		</cc:Work>
	</rdf:RDF>
</metadata>
<g
	inkscape:label="Layer 1"
	inkscape:groupmode="layer"
	id="layer1">
	<path style="fill:none;stroke:red;stroke-width:1px;stroke-linecap:butt;stroke-linejoin:miter;stroke-opacity:1" d="M 4,299.216 4,317.553 z" id="boundary" inkscape:connector-curvature="0" />
	<path style="fill:none;stroke:red;stroke-width:1px;stroke-linecap:butt;stroke-linejoin:miter;stroke-opacity:1" d="M 4,299.216 13.1682,280.88 z" id="boundary" inkscape:connector-curvature="0" />
	<path style="fill:none;stroke:red;stroke-width:1px;stroke-linecap:butt;stroke-linejoin:miter;stroke-opacity:1" d="M 4,317.553 13.1682,334.055 z" id="boundary" inkscape:connector-curvature="0" />
	<path style="fill:none;stroke:red;stroke-width:1px;stroke-linecap:butt;stroke-linejoin:miter;stroke-opacity:1" d="M 13.1682,134.189 13.1682,152.525 z" id="boundary" inkscape:connector-curvature="0" />
	<path style="fill:none;stroke:red;stroke-width:1px;stroke-linecap:butt;stroke-linejoin:miter;stroke-opacity:1" d="M 13.1682,134.189 22.3364,115.852 z" id="boundary" inkscape:connector-curvature="0" />
	<path style="fill:none;stroke:red;stroke-width:1px;stroke-linecap:butt;stroke-linejoin:miter;stroke-opacity:1" d="M 13.1682,152.525 13.1682,170.861 z" id="boundary" inkscape:connector-curvature="0" />
	<path style="fill:none;stroke:red;stroke-width:1px;stroke-linecap:butt;stroke-linejoin:miter;stroke-opacity:1" d="M 13.1682,170.861 13.1682,189.198 z" id="boundary" inkscape:connector-curvature="0" />
	<path style="fill:none;stroke:red;stroke-width:1px;stroke-linecap:butt;stroke-linejoin:miter;stroke-opacity:1" d="M 13.1682,189.198 22.3364,205.701 z" id="boundary" inkscape:connector-curvature="0" />
	<path style="fill:none;stroke:red;stroke-width:1px;stroke-linecap:butt;stroke-linejoin:miter;stroke-opacity:1" d="M 13.1682,280.88 27.8373,266.211 z" id="boundary" inkscape:connector-curvature="0" />
	<path style="fill:none;stroke:red;stroke-width:1px;stroke-linecap:butt;stroke-linejoin:miter;stroke-opacity:1" d="M 13.1682,334.055 22.3364,350.558 z" id="boundary" inkscape:connector-curvature="0" />
	<path style="fill:none;stroke:red;stroke-width:1px;stroke-linecap:butt;stroke-linejoin:miter;stroke-opacity:1" d="M 22.3364,115.852 37.0055,101.183 z" id="boundary" inkscape:connector-curvature="0" />
	<path style="fill:none;stroke:red;stroke-width:1px;stroke-linecap:butt;stroke-linejoin:miter;stroke-opacity:1" d="M 22.3364,205.701 22.3364,224.037 z" id="boundary" inkscape:connector-curvature="0" />
	<path style="fill:none;stroke:red;stroke-width:1px;stroke-linecap:butt;stroke-linejoin:miter;stroke-opacity:1" d="M 22.3364,224.037 22.3364,242.373 z" id="boundary" inkscape:connector-curvature="0" />
	<path style="fill:none;stroke:red;stroke-width:1px;stroke-linecap:butt;stroke-linejoin:miter;stroke-opacity:1" d="M 22.3364,242.373 27.8373,266.211 z" id="boundary" inkscape:connector-curvature="0" />
	<path style="fill:none;stroke:red;stroke-width:1px;stroke-linecap:butt;stroke-linejoin:miter;stroke-opacity:1" d="M 22.3364,350.558 33.3383,365.227 z" id="boundary" inkscape:connector-curvature="0" />
	<path style="fill:none;stroke:red;stroke-width:1px;stroke-linecap:butt;stroke-linejoin:miter;stroke-opacity:1" d="M 33.3383,365.227 51.6747,368.895 z" id="boundary" inkscape:connector-curvature="0" />
	<path style="fill:none;stroke:red;stroke-width:1px;stroke-linecap:butt;stroke-linejoin:miter;stroke-opacity:1" d="M 37.0055,101.183 46.1738,82.8466 z" id="boundary" inkscape:connector-curvature="0" />
	<path style="fill:none;stroke:red;stroke-width:1px;stroke-linecap:butt;stroke-linejoin:miter;stroke-opacity:1" d="M 46.1738,82.8466 60.8429,68.1774 z" id="boundary" inkscape:connector-curvature="0" />
	<path style="fill:none;stroke:red;stroke-width:1px;stroke-linecap:butt;stroke-linejoin:miter;stroke-opacity:1" d="M 51.6747,368.895 70.0111,368.895 z" id="boundary" inkscape:connector-curvature="0" />
	<path style="fill:none;stroke:red;stroke-width:1px;stroke-linecap:butt;stroke-linejoin:miter;stroke-opacity:1" d="M 60.8429,68.1774 75.512,55.342 z" id="boundary" inkscape:connector-curvature="0" />
	<path style="fill:none;stroke:red;stroke-width:1px;stroke-linecap:butt;stroke-linejoin:miter;stroke-opacity:1" d="M 70.0111,368.895 88.3475,368.895 z" id="boundary" inkscape:connector-curvature="0" />
	<path style="fill:none;stroke:red;stroke-width:1px;stroke-linecap:butt;stroke-linejoin:miter;stroke-opacity:1" d="M 75.512,55.342 86.5139,33.3383 z" id="boundary" inkscape:connector-curvature="0" />
	<path style="fill:none;stroke:red;stroke-width:1px;stroke-linecap:butt;stroke-linejoin:miter;stroke-opacity:1" d="M 86.5139,33.3383 104.85,27.8373 z" id="boundary" inkscape:connector-curvature="0" />
	<path style="fill:none;stroke:red;stroke-width:1px;stroke-linecap:butt;stroke-linejoin:miter;stroke-opacity:1" d="M 88.3475,368.895 106.684,368.895 z" id="boundary" inkscape:connector-curvature="0" />
	<path style="fill:none;stroke:red;stroke-width:1px;stroke-linecap:butt;stroke-linejoin:miter;stroke-opacity:1" d="M 104.85,27.8373 121.353,18.6691 z" id="boundary" inkscape:connector-curvature="0" />
	<path style="fill:none;stroke:red;stroke-width:1px;stroke-linecap:butt;stroke-linejoin:miter;stroke-opacity:1" d="M 106.684,368.895 125.02,368.895 z" id="boundary" inkscape:connector-curvature="0" />
	<path style="fill:none;stroke:red;stroke-width:1px;stroke-linecap:butt;stroke-linejoin:miter;stroke-opacity:1" d="M 121.353,18.6691 139.689,18.6691 z" id="boundary" inkscape:connector-curvature="0" />
	<path style="fill:none;stroke:red;stroke-width:1px;stroke-linecap:butt;stroke-linejoin:miter;stroke-opacity:1" d="M 125.02,368.895 143.357,359.726 z" id="boundary" inkscape:connector-curvature="0" />
	<path style="fill:none;stroke:red;stroke-width:1px;stroke-linecap:butt;stroke-linejoin:miter;stroke-opacity:1" d="M 134.189,93.8484 134.189,112.185 z" id="boundary" inkscape:connector-curvature="0" />
	<path style="fill:none;stroke:red;stroke-width:1px;stroke-linecap:butt;stroke-linejoin:miter;stroke-opacity:1" d="M 134.189,93.8484 143.357,66.3438 z" id="boundary" inkscape:connector-curvature="0" />
	<path style="fill:none;stroke:red;stroke-width:1px;stroke-linecap:butt;stroke-linejoin:miter;stroke-opacity:1" d="M 134.189,112.185 134.189,130.521 z" id="boundary" inkscape:connector-curvature="0" />
	<path style="fill:none;stroke:red;stroke-width:1px;stroke-linecap:butt;stroke-linejoin:miter;stroke-opacity:1" d="M 134.189,130.521 143.357,147.024 z" id="boundary" inkscape:connector-curvature="0" />
	<path style="fill:none;stroke:red;stroke-width:1px;stroke-linecap:butt;stroke-linejoin:miter;stroke-opacity:1" d="M 139.689,18.6691 158.026,20.5028 z" id="boundary" inkscape:connector-curvature="0" />
	<path style="fill:none;stroke:red;stroke-width:1px;stroke-linecap:butt;stroke-linejoin:miter;stroke-opacity:1" d="M 143.357,66.3438 152.525,38.8392 z" id="boundary" inkscape:connector-curvature="0" />
	<path style="fill:none;stroke:red;stroke-width:1px;stroke-linecap:butt;stroke-linejoin:miter;stroke-opacity:1" d="M 143.357,147.024 161.693,141.523 z" id="boundary" inkscape:connector-curvature="0" />
	<path style="fill:none;stroke:red;stroke-width:1px;stroke-linecap:butt;stroke-linejoin:miter;stroke-opacity:1" d="M 143.357,222.203 152.525,238.706 z" id="boundary" inkscape:connector-curvature="0" />
	<path style="fill:none;stroke:red;stroke-width:1px;stroke-linecap:butt;stroke-linejoin:miter;stroke-opacity:1" d="M 143.357,222.203 161.693,213.035 z" id="boundary" inkscape:connector-curvature="0" />
	<path style="fill:none;stroke:red;stroke-width:1px;stroke-linecap:butt;stroke-linejoin:miter;stroke-opacity:1" d="M 143.357,359.726 161.693,359.726 z" id="boundary" inkscape:connector-curvature="0" />
	<path style="fill:none;stroke:red;stroke-width:1px;stroke-linecap:butt;stroke-linejoin:miter;stroke-opacity:1" d="M 152.525,38.8392 158.026,20.5028 z" id="boundary" inkscape:connector-curvature="0" />
	<path style="fill:none;stroke:red;stroke-width:1px;stroke-linecap:butt;stroke-linejoin:miter;stroke-opacity:1" d="M 152.525,238.706 167.194,249.708 z" id="boundary" inkscape:connector-curvature="0" />
	<path style="fill:none;stroke:red;stroke-width:1px;stroke-linecap:butt;stroke-linejoin:miter;stroke-opacity:1" d="M 161.693,141.523 180.03,137.856 z" id="boundary" inkscape:connector-curvature="0" />
	<path style="fill:none;stroke:red;stroke-width:1px;stroke-linecap:butt;stroke-linejoin:miter;stroke-opacity:1" d="M 161.693,213.035 180.03,213.035 z" id="boundary" inkscape:connector-curvature="0" />
	<path style="fill:none;stroke:red;stroke-width:1px;stroke-linecap:butt;stroke-linejoin:miter;stroke-opacity:1" d="M 161.693,359.726 176.362,346.891 z" id="boundary" inkscape:connector-curvature="0" />
	<path style="fill:none;stroke:red;stroke-width:1px;stroke-linecap:butt;stroke-linejoin:miter;stroke-opacity:1" d="M 167.194,249.708 180.03,264.377 z" id="boundary" inkscape:connector-curvature="0" />
	<path style="fill:none;stroke:red;stroke-width:1px;stroke-linecap:butt;stroke-linejoin:miter;stroke-opacity:1" d="M 176.362,346.891 185.53,328.555 z" id="boundary" inkscape:connector-curvature="0" />
	<path style="fill:none;stroke:red;stroke-width:1px;stroke-linecap:butt;stroke-linejoin:miter;stroke-opacity:1" d="M 180.03,137.856 198.366,137.856 z" id="boundary" inkscape:connector-curvature="0" />
	<path style="fill:none;stroke:red;stroke-width:1px;stroke-linecap:butt;stroke-linejoin:miter;stroke-opacity:1" d="M 180.03,213.035 198.366,203.867 z" id="boundary" inkscape:connector-curvature="0" />
	<path style="fill:none;stroke:red;stroke-width:1px;stroke-linecap:butt;stroke-linejoin:miter;stroke-opacity:1" d="M 180.03,264.377 189.198,280.88 z" id="boundary" inkscape:connector-curvature="0" />
	<path style="fill:none;stroke:red;stroke-width:1px;stroke-linecap:butt;stroke-linejoin:miter;stroke-opacity:1" d="M 185.53,328.555 189.198,299.216 z" id="boundary" inkscape:connector-curvature="0" />
	<path style="fill:none;stroke:red;stroke-width:1px;stroke-linecap:butt;stroke-linejoin:miter;stroke-opacity:1" d="M 189.198,280.88 189.198,299.216 z" id="boundary" inkscape:connector-curvature="0" />
	<path style="fill:none;stroke:red;stroke-width:1px;stroke-linecap:butt;stroke-linejoin:miter;stroke-opacity:1" d="M 198.366,137.856 216.702,132.355 z" id="boundary" inkscape:connector-curvature="0" />
	<path style="fill:none;stroke:red;stroke-width:1px;stroke-linecap:butt;stroke-linejoin:miter;stroke-opacity:1" d="M 198.366,203.867 216.702,203.867 z" id="boundary" inkscape:connector-curvature="0" />
	<path style="fill:none;stroke:red;stroke-width:1px;stroke-linecap:butt;stroke-linejoin:miter;stroke-opacity:1" d="M 216.702,132.355 235.039,128.688 z" id="boundary" inkscape:connector-curvature="0" />
	<path style="fill:none;stroke:red;stroke-width:1px;stroke-linecap:butt;stroke-linejoin:miter;stroke-opacity:1" d="M 216.702,203.867 235.039,203.867 z" id="boundary" inkscape:connector-curvature="0" />
	<path style="fill:none;stroke:red;stroke-width:1px;stroke-linecap:butt;stroke-linejoin:miter;stroke-opacity:1" d="M 235.039,128.688 253.375,125.02 z" id="boundary" inkscape:connector-curvature="0" />
	<path style="fill:none;stroke:red;stroke-width:1px;stroke-linecap:butt;stroke-linejoin:miter;stroke-opacity:1" d="M 235.039,203.867 253.375,203.867 z" id="boundary" inkscape:connector-curvature="0" />
	<path style="fill:none;stroke:red;stroke-width:1px;stroke-linecap:butt;stroke-linejoin:miter;stroke-opacity:1" d="M 253.375,125.02 271.712,119.519 z" id="boundary" inkscape:connector-curvature="0" />
	<path style="fill:none;stroke:red;stroke-width:1px;stroke-linecap:butt;stroke-linejoin:miter;stroke-opacity:1" d="M 253.375,203.867 271.712,203.867 z" id="boundary" inkscape:connector-curvature="0" />
	<path style="fill:none;stroke:red;stroke-width:1px;stroke-linecap:butt;stroke-linejoin:miter;stroke-opacity:1" d="M 271.712,119.519 290.048,119.519 z" id="boundary" inkscape:connector-curvature="0" />
	<path style="fill:none;stroke:red;stroke-width:1px;stroke-linecap:butt;stroke-linejoin:miter;stroke-opacity:1" d="M 271.712,203.867 290.048,194.699 z" id="boundary" inkscape:connector-curvature="0" />
	<path style="fill:none;stroke:red;stroke-width:1px;stroke-linecap:butt;stroke-linejoin:miter;stroke-opacity:1" d="M 290.048,119.519 308.384,119.519 z" id="boundary" inkscape:connector-curvature="0" />
	<path style="fill:none;stroke:red;stroke-width:1px;stroke-linecap:butt;stroke-linejoin:miter;stroke-opacity:1" d="M 290.048,194.699 308.384,194.699 z" id="boundary" inkscape:connector-curvature="0" />
	<path style="fill:none;stroke:red;stroke-width:1px;stroke-linecap:butt;stroke-linejoin:miter;stroke-opacity:1" d="M 308.384,119.519 326.721,114.018 z" id="boundary" inkscape:connector-curvature="0" />
	<path style="fill:none;stroke:red;stroke-width:1px;stroke-linecap:butt;stroke-linejoin:miter;stroke-opacity:1" d="M 308.384,194.699 326.721,194.699 z" id="boundary" inkscape:connector-curvature="0" />
	<path style="fill:none;stroke:red;stroke-width:1px;stroke-linecap:butt;stroke-linejoin:miter;stroke-opacity:1" d="M 326.721,114.018 345.057,110.351 z" id="boundary" inkscape:connector-curvature="0" />
	<path style="fill:none;stroke:red;stroke-width:1px;stroke-linecap:butt;stroke-linejoin:miter;stroke-opacity:1" d="M 326.721,194.699 345.057,185.53 z" id="boundary" inkscape:connector-curvature="0" />
	<path style="fill:none;stroke:red;stroke-width:1px;stroke-linecap:butt;stroke-linejoin:miter;stroke-opacity:1" d="M 345.057,110.351 363.394,110.351 z" id="boundary" inkscape:connector-curvature="0" />
	<path style="fill:none;stroke:red;stroke-width:1px;stroke-linecap:butt;stroke-linejoin:miter;stroke-opacity:1" d="M 345.057,185.53 363.394,185.53 z" id="boundary" inkscape:connector-curvature="0" />
	<path style="fill:none;stroke:red;stroke-width:1px;stroke-linecap:butt;stroke-linejoin:miter;stroke-opacity:1" d="M 363.394,110.351 381.73,104.85 z" id="boundary" inkscape:connector-curvature="0" />
	<path style="fill:none;stroke:red;stroke-width:1px;stroke-linecap:butt;stroke-linejoin:miter;stroke-opacity:1" d="M 363.394,185.53 381.73,185.53 z" id="boundary" inkscape:connector-curvature="0" />
	<path style="fill:none;stroke:red;stroke-width:1px;stroke-linecap:butt;stroke-linejoin:miter;stroke-opacity:1" d="M 381.73,104.85 400.067,101.183 z" id="boundary" inkscape:connector-curvature="0" />
	<path style="fill:none;stroke:red;stroke-width:1px;stroke-linecap:butt;stroke-linejoin:miter;stroke-opacity:1" d="M 381.73,185.53 400.067,176.362 z" id="boundary" inkscape:connector-curvature="0" />
	<path style="fill:none;stroke:red;stroke-width:1px;stroke-linecap:butt;stroke-linejoin:miter;stroke-opacity:1" d="M 400.067,101.183 418.403,101.183 z" id="boundary" inkscape:connector-curvature="0" />
	<path style="fill:none;stroke:red;stroke-width:1px;stroke-linecap:butt;stroke-linejoin:miter;stroke-opacity:1" d="M 400.067,176.362 418.403,176.362 z" id="boundary" inkscape:connector-curvature="0" />
	<path style="fill:none;stroke:red;stroke-width:1px;stroke-linecap:butt;stroke-linejoin:miter;stroke-opacity:1" d="M 418.403,101.183 436.739,95.6821 z" id="boundary" inkscape:connector-curvature="0" />
	<path style="fill:none;stroke:red;stroke-width:1px;stroke-linecap:butt;stroke-linejoin:miter;stroke-opacity:1" d="M 418.403,176.362 436.739,167.194 z" id="boundary" inkscape:connector-curvature="0" />
	<path style="fill:none;stroke:red;stroke-width:1px;stroke-linecap:butt;stroke-linejoin:miter;stroke-opacity:1" d="M 436.739,95.6821 455.076,95.6821 z" id="boundary" inkscape:connector-curvature="0" />
	<path style="fill:none;stroke:red;stroke-width:1px;stroke-linecap:butt;stroke-linejoin:miter;stroke-opacity:1" d="M 436.739,167.194 455.076,167.194 z" id="boundary" inkscape:connector-curvature="0" />
	<path style="fill:none;stroke:red;stroke-width:1px;stroke-linecap:butt;stroke-linejoin:miter;stroke-opacity:1" d="M 455.076,95.6821 473.412,92.0148 z" id="boundary" inkscape:connector-curvature="0" />
	<path style="fill:none;stroke:red;stroke-width:1px;stroke-linecap:butt;stroke-linejoin:miter;stroke-opacity:1" d="M 455.076,167.194 473.412,167.194 z" id="boundary" inkscape:connector-curvature="0" />
	<path style="fill:none;stroke:red;stroke-width:1px;stroke-linecap:butt;stroke-linejoin:miter;stroke-opacity:1" d="M 473.412,92.0148 491.749,86.5139 z" id="boundary" inkscape:connector-curvature="0" />
	<path style="fill:none;stroke:red;stroke-width:1px;stroke-linecap:butt;stroke-linejoin:miter;stroke-opacity:1" d="M 473.412,167.194 491.749,167.194 z" id="boundary" inkscape:connector-curvature="0" />
	<path style="fill:none;stroke:red;stroke-width:1px;stroke-linecap:butt;stroke-linejoin:miter;stroke-opacity:1" d="M 491.749,86.5139 510.085,82.8466 z" id="boundary" inkscape:connector-curvature="0" />
	<path style="fill:none;stroke:red;stroke-width:1px;stroke-linecap:butt;stroke-linejoin:miter;stroke-opacity:1" d="M 491.749,167.194 510.085,167.194 z" id="boundary" inkscape:connector-curvature="0" />
	<path style="fill:none;stroke:red;stroke-width:1px;stroke-linecap:butt;stroke-linejoin:miter;stroke-opacity:1" d="M 510.085,82.8466 528.421,82.8466 z" id="boundary" inkscape:connector-curvature="0" />
	<path style="fill:none;stroke:red;stroke-width:1px;stroke-linecap:butt;stroke-linejoin:miter;stroke-opacity:1" d="M 510.085,167.194 526.588,158.026 z" id="boundary" inkscape:connector-curvature="0" />
	<path style="fill:none;stroke:red;stroke-width:1px;stroke-linecap:butt;stroke-linejoin:miter;stroke-opacity:1" d="M 526.588,158.026 544.924,158.026 z" id="boundary" inkscape:connector-curvature="0" />
	<path style="fill:none;stroke:red;stroke-width:1px;stroke-linecap:butt;stroke-linejoin:miter;stroke-opacity:1" d="M 528.421,82.8466 544.924,73.6784 z" id="boundary" inkscape:connector-curvature="0" />
	<path style="fill:none;stroke:red;stroke-width:1px;stroke-linecap:butt;stroke-linejoin:miter;stroke-opacity:1" d="M 544.924,73.6784 563.261,70.0111 z" id="boundary" inkscape:connector-curvature="0" />
	<path style="fill:none;stroke:red;stroke-width:1px;stroke-linecap:butt;stroke-linejoin:miter;stroke-opacity:1" d="M 544.924,158.026 561.427,148.858 z" id="boundary" inkscape:connector-curvature="0" />
	<path style="fill:none;stroke:red;stroke-width:1px;stroke-linecap:butt;stroke-linejoin:miter;stroke-opacity:1" d="M 561.427,148.858 579.763,148.858 z" id="boundary" inkscape:connector-curvature="0" />
	<path style="fill:none;stroke:red;stroke-width:1px;stroke-linecap:butt;stroke-linejoin:miter;stroke-opacity:1" d="M 563.261,70.0111 581.597,73.6784 z" id="boundary" inkscape:connector-curvature="0" />
	<path style="fill:none;stroke:red;stroke-width:1px;stroke-linecap:butt;stroke-linejoin:miter;stroke-opacity:1" d="M 579.763,148.858 596.266,139.689 z" id="boundary" inkscape:connector-curvature="0" />
	<path style="fill:none;stroke:red;stroke-width:1px;stroke-linecap:butt;stroke-linejoin:miter;stroke-opacity:1" d="M 581.597,73.6784 598.1,64.5102 z" id="boundary" inkscape:connector-curvature="0" />
	<path style="fill:none;stroke:red;stroke-width:1px;stroke-linecap:butt;stroke-linejoin:miter;stroke-opacity:1" d="M 596.266,139.689 614.603,147.024 z" id="boundary" inkscape:connector-curvature="0" />
	<path style="fill:none;stroke:red;stroke-width:1px;stroke-linecap:butt;stroke-linejoin:miter;stroke-opacity:1" d="M 598.1,64.5102 616.436,64.5102 z" id="boundary" inkscape:connector-curvature="0" />
	<path style="fill:none;stroke:red;stroke-width:1px;stroke-linecap:butt;stroke-linejoin:miter;stroke-opacity:1" d="M 614.603,147.024 632.939,139.689 z" id="boundary" inkscape:connector-curvature="0" />
	<path style="fill:none;stroke:red;stroke-width:1px;stroke-linecap:butt;stroke-linejoin:miter;stroke-opacity:1" d="M 616.436,64.5102 634.773,64.5102 z" id="boundary" inkscape:connector-curvature="0" />
	<path style="fill:none;stroke:red;stroke-width:1px;stroke-linecap:butt;stroke-linejoin:miter;stroke-opacity:1" d="M 632.939,139.689 651.275,139.689 z" id="boundary" inkscape:connector-curvature="0" />
	<path style="fill:none;stroke:red;stroke-width:1px;stroke-linecap:butt;stroke-linejoin:miter;stroke-opacity:1" d="M 634.773,64.5102 651.275,55.342 z" id="boundary" inkscape:connector-curvature="0" />
	<path style="fill:none;stroke:red;stroke-width:1px;stroke-linecap:butt;stroke-linejoin:miter;stroke-opacity:1" d="M 651.275,55.342 669.612,55.342 z" id="boundary" inkscape:connector-curvature="0" />
	<path style="fill:none;stroke:red;stroke-width:1px;stroke-linecap:butt;stroke-linejoin:miter;stroke-opacity:1" d="M 651.275,139.689 667.778,130.521 z" id="boundary" inkscape:connector-curvature="0" />
	<path style="fill:none;stroke:red;stroke-width:1px;stroke-linecap:butt;stroke-linejoin:miter;stroke-opacity:1" d="M 667.778,130.521 686.115,130.521 z" id="boundary" inkscape:connector-curvature="0" />
	<path style="fill:none;stroke:red;stroke-width:1px;stroke-linecap:butt;stroke-linejoin:miter;stroke-opacity:1" d="M 669.612,55.342 687.948,55.342 z" id="boundary" inkscape:connector-curvature="0" />
	<path style="fill:none;stroke:red;stroke-width:1px;stroke-linecap:butt;stroke-linejoin:miter;stroke-opacity:1" d="M 686.115,130.521 704.451,130.521 z" id="boundary" inkscape:connector-curvature="0" />
	<path style="fill:none;stroke:red;stroke-width:1px;stroke-linecap:butt;stroke-linejoin:miter;stroke-opacity:1" d="M 687.948,55.342 706.285,46.1738 z" id="boundary" inkscape:connector-curvature="0" />
	<path style="fill:none;stroke:red;stroke-width:1px;stroke-linecap:butt;stroke-linejoin:miter;stroke-opacity:1" d="M 704.451,130.521 722.787,126.854 z" id="boundary" inkscape:connector-curvature="0" />
	<path style="fill:none;stroke:red;stroke-width:1px;stroke-linecap:butt;stroke-linejoin:miter;stroke-opacity:1" d="M 706.285,46.1738 724.621,46.1738 z" id="boundary" inkscape:connector-curvature="0" />
	<path style="fill:none;stroke:red;stroke-width:1px;stroke-linecap:butt;stroke-linejoin:miter;stroke-opacity:1" d="M 722.787,126.854 741.124,121.353 z" id="boundary" inkscape:connector-curvature="0" />
	<path style="fill:none;stroke:red;stroke-width:1px;stroke-linecap:butt;stroke-linejoin:miter;stroke-opacity:1" d="M 724.621,46.1738 742.957,46.1738 z" id="boundary" inkscape:connector-curvature="0" />
	<path style="fill:none;stroke:red;stroke-width:1px;stroke-linecap:butt;stroke-linejoin:miter;stroke-opacity:1" d="M 741.124,121.353 759.46,121.353 z" id="boundary" inkscape:connector-curvature="0" />
	<path style="fill:none;stroke:red;stroke-width:1px;stroke-linecap:butt;stroke-linejoin:miter;stroke-opacity:1" d="M 742.957,46.1738 761.294,37.0055 z" id="boundary" inkscape:connector-curvature="0" />
	<path style="fill:none;stroke:red;stroke-width:1px;stroke-linecap:butt;stroke-linejoin:miter;stroke-opacity:1" d="M 759.46,121.353 777.797,121.353 z" id="boundary" inkscape:connector-curvature="0" />
	<path style="fill:none;stroke:red;stroke-width:1px;stroke-linecap:butt;stroke-linejoin:miter;stroke-opacity:1" d="M 761.294,37.0055 779.63,37.0055 z" id="boundary" inkscape:connector-curvature="0" />
	<path style="fill:none;stroke:red;stroke-width:1px;stroke-linecap:butt;stroke-linejoin:miter;stroke-opacity:1" d="M 777.797,121.353 794.299,112.185 z" id="boundary" inkscape:connector-curvature="0" />
	<path style="fill:none;stroke:red;stroke-width:1px;stroke-linecap:butt;stroke-linejoin:miter;stroke-opacity:1" d="M 779.63,37.0055 797.967,37.0055 z" id="boundary" inkscape:connector-curvature="0" />
	<path style="fill:none;stroke:red;stroke-width:1px;stroke-linecap:butt;stroke-linejoin:miter;stroke-opacity:1" d="M 794.299,112.185 812.636,112.185 z" id="boundary" inkscape:connector-curvature="0" />
	<path style="fill:none;stroke:red;stroke-width:1px;stroke-linecap:butt;stroke-linejoin:miter;stroke-opacity:1" d="M 797.967,37.0055 814.47,27.8373 z" id="boundary" inkscape:connector-curvature="0" />
	<path style="fill:none;stroke:red;stroke-width:1px;stroke-linecap:butt;stroke-linejoin:miter;stroke-opacity:1" d="M 812.636,112.185 830.972,103.017 z" id="boundary" inkscape:connector-curvature="0" />
	<path style="fill:none;stroke:red;stroke-width:1px;stroke-linecap:butt;stroke-linejoin:miter;stroke-opacity:1" d="M 814.47,27.8373 830.972,37.0055 z" id="boundary" inkscape:connector-curvature="0" />
	<path style="fill:none;stroke:red;stroke-width:1px;stroke-linecap:butt;stroke-linejoin:miter;stroke-opacity:1" d="M 830.972,37.0055 847.475,24.1701 z" id="boundary" inkscape:connector-curvature="0" />
	<path style="fill:none;stroke:red;stroke-width:1px;stroke-linecap:butt;stroke-linejoin:miter;stroke-opacity:1" d="M 830.972,103.017 849.309,103.017 z" id="boundary" inkscape:connector-curvature="0" />
	<path style="fill:none;stroke:red;stroke-width:1px;stroke-linecap:butt;stroke-linejoin:miter;stroke-opacity:1" d="M 847.475,24.1701 865.811,24.1701 z" id="boundary" inkscape:connector-curvature="0" />
	<path style="fill:none;stroke:red;stroke-width:1px;stroke-linecap:butt;stroke-linejoin:miter;stroke-opacity:1" d="M 849.309,103.017 867.645,93.8484 z" id="boundary" inkscape:connector-curvature="0" />
	<path style="fill:none;stroke:red;stroke-width:1px;stroke-linecap:butt;stroke-linejoin:miter;stroke-opacity:1" d="M 865.811,24.1701 884.148,18.6691 z" id="boundary" inkscape:connector-curvature="0" />
	<path style="fill:none;stroke:red;stroke-width:1px;stroke-linecap:butt;stroke-linejoin:miter;stroke-opacity:1" d="M 867.645,93.8484 885.982,93.8484 z" id="boundary" inkscape:connector-curvature="0" />
	<path style="fill:none;stroke:red;stroke-width:1px;stroke-linecap:butt;stroke-linejoin:miter;stroke-opacity:1" d="M 884.148,18.6691 902.484,15.0018 z" id="boundary" inkscape:connector-curvature="0" />
	<path style="fill:none;stroke:red;stroke-width:1px;stroke-linecap:butt;stroke-linejoin:miter;stroke-opacity:1" d="M 885.982,93.8484 904.318,93.8484 z" id="boundary" inkscape:connector-curvature="0" />
	<path style="fill:none;stroke:red;stroke-width:1px;stroke-linecap:butt;stroke-linejoin:miter;stroke-opacity:1" d="M 902.484,15.0018 920.821,9.50092 z" id="boundary" inkscape:connector-curvature="0" />
	<path style="fill:none;stroke:red;stroke-width:1px;stroke-linecap:butt;stroke-linejoin:miter;stroke-opacity:1" d="M 904.318,93.8484 920.821,84.6802 z" id="boundary" inkscape:connector-curvature="0" />
	<path style="fill:none;stroke:red;stroke-width:1px;stroke-linecap:butt;stroke-linejoin:miter;stroke-opacity:1" d="M 920.821,9.50092 939.157,9.50092 z" id="boundary" inkscape:connector-curvature="0" />
	<path style="fill:none;stroke:red;stroke-width:1px;stroke-linecap:butt;stroke-linejoin:miter;stroke-opacity:1" d="M 920.821,84.6802 939.157,84.6802 z" id="boundary" inkscape:connector-curvature="0" />
	<path style="fill:none;stroke:red;stroke-width:1px;stroke-linecap:butt;stroke-linejoin:miter;stroke-opacity:1" d="M 939.157,9.50092 957.494,4 z" id="boundary" inkscape:connector-curvature="0" />
	<path style="fill:none;stroke:red;stroke-width:1px;stroke-linecap:butt;stroke-linejoin:miter;stroke-opacity:1" d="M 939.157,84.6802 957.494,79.1793 z" id="boundary" inkscape:connector-curvature="0" />
	<path style="fill:none;stroke:red;stroke-width:1px;stroke-linecap:butt;stroke-linejoin:miter;stroke-opacity:1" d="M 957.494,4 975.83,4 z" id="boundary" inkscape:connector-curvature="0" />
	<path style="fill:none;stroke:red;stroke-width:1px;stroke-linecap:butt;stroke-linejoin:miter;stroke-opacity:1" d="M 957.494,79.1793 975.83,75.512 z" id="boundary" inkscape:connector-curvature="0" />
	<path style="fill:none;stroke:red;stroke-width:1px;stroke-linecap:butt;stroke-linejoin:miter;stroke-opacity:1" d="M 975.83,4 992.333,13.1682 z" id="boundary" inkscape:connector-curvature="0" />
	<path style="fill:none;stroke:red;stroke-width:1px;stroke-linecap:butt;stroke-linejoin:miter;stroke-opacity:1" d="M 975.83,75.512 994.166,70.0111 z" id="boundary" inkscape:connector-curvature="0" />
	<path style="fill:none;stroke:red;stroke-width:1px;stroke-linecap:butt;stroke-linejoin:miter;stroke-opacity:1" d="M 992.333,13.1682 996,31.5046 z" id="boundary" inkscape:connector-curvature="0" />
	<path style="fill:none;stroke:red;stroke-width:1px;stroke-linecap:butt;stroke-linejoin:miter;stroke-opacity:1" d="M 994.166,70.0111 996,49.841 z" id="boundary" inkscape:connector-curvature="0" />
	<path style="fill:none;stroke:red;stroke-width:1px;stroke-linecap:butt;stroke-linejoin:miter;stroke-opacity:1" d="M 996,31.5046 996,49.841 z" id="boundary" inkscape:connector-curvature="0" />
	<circle cx="4" cy="299.216" r="4" fill="#0" id="circle0"/>
	<circle cx="4" cy="317.553" r="4" fill="#0" id="circle1"/>
	<circle cx="13.1682" cy="134.189" r="4" fill="#0" id="circle2"/>
	<circle cx="13.1682" cy="152.525" r="4" fill="#0" id="circle3"/>
	<circle cx="13.1682" cy="170.861" r="4" fill="#0" id="circle4"/>
	<circle cx="13.1682" cy="189.198" r="4" fill="#0" id="circle5"/>
	<circle cx="13.1682" cy="280.88" r="4" fill="#0" id="circle6"/>
	<circle cx="13.1682" cy="334.055" r="4" fill="#0" id="circle7"/>
	<circle cx="22.3364" cy="115.852" r="4" fill="#0" id="circle8"/>
	<circle cx="22.3364" cy="205.701" r="4" fill="#0" id="circle9"/>
	<circle cx="22.3364" cy="224.037" r="4" fill="#0" id="circle10"/>
	<circle cx="22.3364" cy="242.373" r="4" fill="#0" id="circle11"/>
	<circle cx="22.3364" cy="350.558" r="4" fill="#0" id="circle12"/>
	<circle cx="27.8373" cy="266.211" r="4" fill="#0" id="circle13"/>
	<circle cx="33.3383" cy="365.227" r="4" fill="#0" id="circle14"/>
	<circle cx="37.0055" cy="101.183" r="4" fill="#0" id="circle15"/>
	<circle cx="46.1738" cy="82.8466" r="4" fill="#0" id="circle16"/>
	<circle cx="51.6747" cy="368.895" r="4" fill="#0" id="circle17"/>
	<circle cx="60.8429" cy="68.1774" r="4" fill="#0" id="circle18"/>
	<circle cx="70.0111" cy="368.895" r="4" fill="#0" id="circle19"/>
	<circle cx="75.512" cy="55.342" r="4" fill="#0" id="circle20"/>
	<circle cx="86.5139" cy="33.3383" r="4" fill="#0" id="circle21"/>
	<circle cx="88.3475" cy="368.895" r="4" fill="#0" id="circle22"/>
	<circle cx="104.85" cy="27.8373" r="4" fill="#0" id="circle23"/>
	<circle cx="106.684" cy="368.895" r="4" fill="#0" id="circle24"/>
	<circle cx="121.353" cy="18.6691" r="4" fill="#0" id="circle25"/>
	<circle cx="125.02" cy="368.895" r="4" fill="#0" id="circle26"/>
	<circle cx="134.189" cy="93.8484" r="4" fill="#0" id="circle27"/>
	<circle cx="134.189" cy="112.185" r="4" fill="#0" id="circle28"/>
	<circle cx="134.189" cy="130.521" r="4" fill="#0" id="circle29"/>
	<circle cx="139.689" cy="18.6691" r="4" fill="#0" id="circle30"/>
	<circle cx="143.357" cy="66.3438" r="4" fill="#0" id="circle31"/>
	<circle cx="143.357" cy="147.024" r="4" fill="#0" id="circle32"/>
	<circle cx="143.357" cy="222.203" r="4" fill="#0" id="circle33"/>
	<circle cx="143.357" cy="359.726" r="4" fill="#0" id="circle34"/>
	<circle cx="152.525" cy="38.8392" r="4" fill="#0" id="circle35"/>
	<circle cx="152.525" cy="238.706" r="4" fill="#0" id="circle36"/>
	<circle cx="158.026" cy="20.5028" r="4" fill="#0" id="circle37"/>
	<circle cx="161.693" cy="141.523" r="4" fill="#0" id="circle38"/>
	<circle cx="161.693" cy="213.035" r="4" fill="#0" id="circle39"/>
	<circle cx="161.693" cy="359.726" r="4" fill="#0" id="circle40"/>
	<circle cx="167.194" cy="249.708" r="4" fill="#0" id="circle41"/>
	<circle cx="176.362" cy="346.891" r="4" fill="#0" id="circle42"/>
	<circle cx="180.03" cy="137.856" r="4" fill="#0" id="circle43"/>
	<circle cx="180.03" cy="213.035" r="4" fill="#0" id="circle44"/>
	<circle cx="180.03" cy="264.377" r="4" fill="#0" id="circle45"/>
	<circle cx="185.53" cy="328.555" r="4" fill="#0" id="circle46"/>
	<circle cx="189.198" cy="280.88" r="4" fill="#0" id="circle47"/>
	<circle cx="189.198" cy="299.216" r="4" fill="#0" id="circle48"/>
	<circle cx="198.366" cy="137.856" r="4" fill="#0" id="circle49"/>
	<circle cx="198.366" cy="203.867" r="4" fill="#0" id="circle50"/>
	<circle cx="216.702" cy="132.355" r="4" fill="#0" id="circle51"/>
	<circle cx="216.702" cy="203.867" r="4" fill="#0" id="circle52"/>
	<circle cx="235.039" cy="128.688" r="4" fill="#0" id="circle53"/>
	<circle cx="235.039" cy="203.867" r="4" fill="#0" id="circle54"/>
	<circle cx="253.375" cy="125.02" r="4" fill="#0" id="circle55"/>
	<circle cx="253.375" cy="203.867" r="4" fill="#0" id="circle56"/>
	<circle cx="271.712" cy="119.519" r="4" fill="#0" id="circle57"/>
	<circle cx="271.712" cy="203.867" r="4" fill="#0" id="circle58"/>
	<circle cx="290.048" cy="119.519" r="4" fill="#0" id="circle59"/>
	<circle cx="290.048" cy="194.699" r="4" fill="#0" id="circle60"/>
	<circle cx="308.384" cy="119.519" r="4" fill="#0" id="circle61"/>
	<circle cx="308.384" cy="194.699" r="4" fill="#0" id="circle62"/>
	<circle cx="326.721" cy="114.018" r="4" fill="#0" id="circle63"/>
	<circle cx="326.721" cy="194.699" r="4" fill="#0" id="circle64"/>
	<circle cx="345.057" cy="110.351" r="4" fill="#0" id="circle65"/>
	<circle cx="345.057" cy="185.53" r="4" fill="#0" id="circle66"/>
	<circle cx="363.394" cy="110.351" r="4" fill="#0" id="circle67"/>
	<circle cx="363.394" cy="185.53" r="4" fill="#0" id="circle68"/>
	<circle cx="381.73" cy="104.85" r="4" fill="#0" id="circle69"/>
	<circle cx="381.73" cy="185.53" r="4" fill="#0" id="circle70"/>
	<circle cx="400.067" cy="101.183" r="4" fill="#0" id="circle71"/>
	<circle cx="400.067" cy="176.362" r="4" fill="#0" id="circle72"/>
	<circle cx="418.403" cy="101.183" r="4" fill="#0" id="circle73"/>
	<circle cx="418.403" cy="176.362" r="4" fill="#0" id="circle74"/>
	<circle cx="436.739" cy="95.6821" r="4" fill="#0" id="circle75"/>
	<circle cx="436.739" cy="167.194" r="4" fill="#0" id="circle76"/>
	<circle cx="455.076" cy="95.6821" r="4" fill="#0" id="circle77"/>
	<circle cx="455.076" cy="167.194" r="4" fill="#0" id="circle78"/>
	<circle cx="473.412" cy="92.0148" r="4" fill="#0" id="circle79"/>
	<circle cx="473.412" cy="167.194" r="4" fill="#0" id="circle80"/>
	<circle cx="491.749" cy="86.5139" r="4" fill="#0" id="circle81"/>
	<circle cx="491.749" cy="167.194" r="4" fill="#0" id="circle82"/>
	<circle cx="510.085" cy="82.8466" r="4" fill="#0" id="circle83"/>
	<circle cx="510.085" cy="167.194" r="4" fill="#0" id="circle84"/>
	<circle cx="526.588" cy="158.026" r="4" fill="#0" id="circle85"/>
	<circle cx="528.421" cy="82.8466" r="4" fill="#0" id="circle86"/>
	<circle cx="544.924" cy="73.6784" r="4" fill="#0" id="circle87"/>
	<circle cx="544.924" cy="158.026" r="4" fill="#0" id="circle88"/>
	<circle cx="561.427" cy="148.858" r="4" fill="#0" id="circle89"/>
	<circle cx="563.261" cy="70.0111" r="4" fill="#0" id="circle90"/>
	<circle cx="579.763" cy="148.858" r="4" fill="#0" id="circle91"/>
	<circle cx="581.597" cy="73.6784" r="4" fill="#0" id="circle92"/>
	<circle cx="596.266" cy="139.689" r="4" fill="#0" id="circle93"/>
	<circle cx="598.1" cy="64.5102" r="4" fill="#0" id="circle94"/>
	<circle cx="614.603" cy="147.024" r="4" fill="#0" id="circle95"/>
	<circle cx="616.436" cy="64.5102" r="4" fill="#0" id="circle96"/>
	<circle cx="632.939" cy="139.689" r="4" fill="#0" id="circle97"/>
	<circle cx="634.773" cy="64.5102" r="4" fill="#0" id="circle98"/>
	<circle cx="651.275" cy="55.342" r="4" fill="#0" id="circle99"/>
	<circle cx="651.275" cy="139.689" r="4" fill="#0" id="circle100"/>
	<circle cx="667.778" cy="130.521" r="4" fill="#0" id="circle101"/>
	<circle cx="669.612" cy="55.342" r="4" fill="#0" id="circle102"/>
	<circle cx="686.115" cy="130.521" r="4" fill="#0" id="circle103"/>
	<circle cx="687.948" cy="55.342" r="4" fill="#0" id="circle104"/>
	<circle cx="704.451" cy="130.521" r="4" fill="#0" id="circle105"/>
	<circle cx="706.285" cy="46.1738" r="4" fill="#0" id="circle106"/>
	<circle cx="722.787" cy="126.854" r="4" fill="#0" id="circle107"/>
	<circle cx="724.621" cy="46.1738" r="4" fill="#0" id="circle108"/>
	<circle cx="741.124" cy="121.353" r="4" fill="#0" id="circle109"/>
	<circle cx="742.957" cy="46.1738" r="4" fill="#0" id="circle110"/>
	<circle cx="759.46" cy="121.353" r="4" fill="#0" id="circle111"/>
	<circle cx="761.294" cy="37.0055" r="4" fill="#0" id="circle112"/>
	<circle cx="777.797" cy="121.353" r="4" fill="#0" id="circle113"/>
	<circle cx="779.63" cy="37.0055" r="4" fill="#0" id="circle114"/>
	<circle cx="794.299" cy="112.185" r="4" fill="#0" id="circle115"/>
	<circle cx="797.967" cy="37.0055" r="4" fill="#0" id="circle116"/>
	<circle cx="812.636" cy="112.185" r="4" fill="#0" id="circle117"/>
	<circle cx="814.47" cy="27.8373" r="4" fill="#0" id="circle118"/>
	<circle cx="830.972" cy="37.0055" r="4" fill="#0" id="circle119"/>
	<circle cx="830.972" cy="103.017" r="4" fill="#0" id="circle120"/>
	<circle cx="847.475" cy="24.1701" r="4" fill="#0" id="circle121"/>
	<circle cx="849.309" cy="103.017" r="4" fill="#0" id="circle122"/>
	<circle cx="865.811" cy="24.1701" r="4" fill="#0" id="circle123"/>
	<circle cx="867.645" cy="93.8484" r="4" fill="#0" id="circle124"/>
	<circle cx="884.148" cy="18.6691" r="4" fill="#0" id="circle125"/>
	<circle cx="885.982" cy="93.8484" r="4" fill="#0" id="circle126"/>
	<circle cx="902.484" cy="15.0018" r="4" fill="#0" id="circle127"/>
	<circle cx="904.318" cy="93.8484" r="4" fill="#0" id="circle128"/>
	<circle cx="920.821" cy="9.50092" r="4" fill="#0" id="circle129"/>
	<circle cx="920.821" cy="84.6802" r="4" fill="#0" id="circle130"/>
	<circle cx="939.157" cy="9.50092" r="4" fill="#0" id="circle131"/>
	<circle cx="939.157" cy="84.6802" r="4" fill="#0" id="circle132"/>
	<circle cx="957.494" cy="4" r="4" fill="#0" id="circle133"/>
	<circle cx="957.494" cy="79.1793" r="4" fill="#0" id="circle134"/>
	<circle cx="975.83" cy="4" r="4" fill="#0" id="circle135"/>
	<circle cx="975.83" cy="75.512" r="4" fill="#0" id="circle136"/>
	<circle cx="992.333" cy="13.1682" r="4" fill="#0" id="circle137"/>
	<circle cx="994.166" cy="70.0111" r="4" fill="#0" id="circle138"/>
	<circle cx="996" cy="31.5046" r="4" fill="#0" id="circle139"/>
	<circle cx="996" cy="49.841" r="4" fill="#0" id="circle140"/>
	</g>
</svg>