<?xml version="1.0" encoding="UTF-8" standalone="no"?>
<!-- Created with CurveBenchmark -->
<svg
	xmlns:dc="http://purl.org/dc/elements/1.1/"
	xmlns:cc="http://creativecommons.org/ns#"
	xmlns:rdf="http://www.w3.org/1999/02/22-rdf-syntax-ns#"
	xmlns:svg="http://www.w3.org/2000/svg"
	xmlns="http://www.w3.org/2000/svg"
	xmlns:sodipodi="http://sodipodi.sourceforge.net/DTD/sodipodi-0.dtd"
	xmlns:inkscape="http://www.inkscape.org/namespaces/inkscape"
	width="1000"
	height="1000"
	id="svg2"
	version="1.1"
	sodipodi:docname="manifold/hnncrust-car-01.png.txt">
<defs
	id="defs4" />
<metadata
	id="metadata7">
	<rdf:RDF>
		<cc:Work
			rdf:about="">
			<dc:format>image/svg+xml</dc:format>
			<dc:type
				rdf:resource="http://purl.org/dc/dcmitype/StillImage" />
			<dc:title></dc:title>
		</cc:Work>
	</rdf:RDF>
</metadata>
<g
	inkscape:label="Layer 1"
	inkscape:groupmode="layer"
	id="layer1">
	<path style="fill:none;stroke:red;stroke-width:1px;stroke-linecap:butt;stroke-linejoin:miter;stroke-opacity:1" d="M 4,216.895 4,228.219 z" id="boundary" inkscape:connector-curvature="0" />
	<path style="fill:none;stroke:red;stroke-width:1px;stroke-linecap:butt;stroke-linejoin:miter;stroke-opacity:1" d="M 4,216.895 9.6621,205.571 z" id="boundary" inkscape:connector-curvature="0" />
	<path style="fill:none;stroke:red;stroke-width:1px;stroke-linecap:butt;stroke-linejoin:miter;stroke-opacity:1" d="M 4,228.219 4,239.543 z" id="boundary" inkscape:connector-curvature="0" />
	<path style="fill:none;stroke:red;stroke-width:1px;stroke-linecap:butt;stroke-linejoin:miter;stroke-opacity:1" d="M 4,239.543 4,250.868 z" id="boundary" inkscape:connector-curvature="0" />
	<path style="fill:none;stroke:red;stroke-width:1px;stroke-linecap:butt;stroke-linejoin:miter;stroke-opacity:1" d="M 4,250.868 4,262.192 z" id="boundary" inkscape:connector-curvature="0" />
	<path style="fill:none;stroke:red;stroke-width:1px;stroke-linecap:butt;stroke-linejoin:miter;stroke-opacity:1" d="M 4,262.192 9.6621,272.384 z" id="boundary" inkscape:connector-curvature="0" />
	<path style="fill:none;stroke:red;stroke-width:1px;stroke-linecap:butt;stroke-linejoin:miter;stroke-opacity:1" d="M 9.6621,205.571 18.7215,196.511 z" id="boundary" inkscape:connector-curvature="0" />
	<path style="fill:none;stroke:red;stroke-width:1px;stroke-linecap:butt;stroke-linejoin:miter;stroke-opacity:1" d="M 9.6621,272.384 9.6621,283.708 z" id="boundary" inkscape:connector-curvature="0" />
	<path style="fill:none;stroke:red;stroke-width:1px;stroke-linecap:butt;stroke-linejoin:miter;stroke-opacity:1" d="M 9.6621,283.708 9.6621,295.032 z" id="boundary" inkscape:connector-curvature="0" />
	<path style="fill:none;stroke:red;stroke-width:1px;stroke-linecap:butt;stroke-linejoin:miter;stroke-opacity:1" d="M 9.6621,295.032 9.6621,306.356 z" id="boundary" inkscape:connector-curvature="0" />
	<path style="fill:none;stroke:red;stroke-width:1px;stroke-linecap:butt;stroke-linejoin:miter;stroke-opacity:1" d="M 9.6621,306.356 15.3242,316.548 z" id="boundary" inkscape:connector-curvature="0" />
	<path style="fill:none;stroke:red;stroke-width:1px;stroke-linecap:butt;stroke-linejoin:miter;stroke-opacity:1" d="M 15.3242,316.548 15.3242,327.872 z" id="boundary" inkscape:connector-curvature="0" />
	<path style="fill:none;stroke:red;stroke-width:1px;stroke-linecap:butt;stroke-linejoin:miter;stroke-opacity:1" d="M 15.3242,327.872 15.3242,339.196 z" id="boundary" inkscape:connector-curvature="0" />
	<path style="fill:none;stroke:red;stroke-width:1px;stroke-linecap:butt;stroke-linejoin:miter;stroke-opacity:1" d="M 15.3242,339.196 20.9863,349.388 z" id="boundary" inkscape:connector-curvature="0" />
	<path style="fill:none;stroke:red;stroke-width:1px;stroke-linecap:butt;stroke-linejoin:miter;stroke-opacity:1" d="M 18.7215,196.511 30.0457,190.849 z" id="boundary" inkscape:connector-curvature="0" />
	<path style="fill:none;stroke:red;stroke-width:1px;stroke-linecap:butt;stroke-linejoin:miter;stroke-opacity:1" d="M 20.9863,349.388 20.9863,360.712 z" id="boundary" inkscape:connector-curvature="0" />
	<path style="fill:none;stroke:red;stroke-width:1px;stroke-linecap:butt;stroke-linejoin:miter;stroke-opacity:1" d="M 20.9863,360.712 20.9863,372.037 z" id="boundary" inkscape:connector-curvature="0" />
	<path style="fill:none;stroke:red;stroke-width:1px;stroke-linecap:butt;stroke-linejoin:miter;stroke-opacity:1" d="M 20.9863,372.037 26.6484,382.228 z" id="boundary" inkscape:connector-curvature="0" />
	<path style="fill:none;stroke:red;stroke-width:1px;stroke-linecap:butt;stroke-linejoin:miter;stroke-opacity:1" d="M 26.6484,382.228 26.6484,393.553 z" id="boundary" inkscape:connector-curvature="0" />
	<path style="fill:none;stroke:red;stroke-width:1px;stroke-linecap:butt;stroke-linejoin:miter;stroke-opacity:1" d="M 26.6484,393.553 32.3105,403.744 z" id="boundary" inkscape:connector-curvature="0" />
	<path style="fill:none;stroke:red;stroke-width:1px;stroke-linecap:butt;stroke-linejoin:miter;stroke-opacity:1" d="M 30.0457,190.849 40.2374,185.187 z" id="boundary" inkscape:connector-curvature="0" />
	<path style="fill:none;stroke:red;stroke-width:1px;stroke-linecap:butt;stroke-linejoin:miter;stroke-opacity:1" d="M 32.3105,403.744 37.9726,413.936 z" id="boundary" inkscape:connector-curvature="0" />
	<path style="fill:none;stroke:red;stroke-width:1px;stroke-linecap:butt;stroke-linejoin:miter;stroke-opacity:1" d="M 37.9726,413.936 45.8995,422.995 z" id="boundary" inkscape:connector-curvature="0" />
	<path style="fill:none;stroke:red;stroke-width:1px;stroke-linecap:butt;stroke-linejoin:miter;stroke-opacity:1" d="M 40.2374,185.187 50.4292,179.525 z" id="boundary" inkscape:connector-curvature="0" />
	<path style="fill:none;stroke:red;stroke-width:1px;stroke-linecap:butt;stroke-linejoin:miter;stroke-opacity:1" d="M 45.8995,422.995 54.9589,429.79 z" id="boundary" inkscape:connector-curvature="0" />
	<path style="fill:none;stroke:red;stroke-width:1px;stroke-linecap:butt;stroke-linejoin:miter;stroke-opacity:1" d="M 50.4292,179.525 60.621,173.863 z" id="boundary" inkscape:connector-curvature="0" />
	<path style="fill:none;stroke:red;stroke-width:1px;stroke-linecap:butt;stroke-linejoin:miter;stroke-opacity:1" d="M 54.9589,429.79 61.7534,438.849 z" id="boundary" inkscape:connector-curvature="0" />
	<path style="fill:none;stroke:red;stroke-width:1px;stroke-linecap:butt;stroke-linejoin:miter;stroke-opacity:1" d="M 60.621,173.863 70.8128,168.201 z" id="boundary" inkscape:connector-curvature="0" />
	<path style="fill:none;stroke:red;stroke-width:1px;stroke-linecap:butt;stroke-linejoin:miter;stroke-opacity:1" d="M 61.7534,438.849 70.8128,446.776 z" id="boundary" inkscape:connector-curvature="0" />
	<path style="fill:none;stroke:red;stroke-width:1px;stroke-linecap:butt;stroke-linejoin:miter;stroke-opacity:1" d="M 70.8128,168.201 82.137,168.201 z" id="boundary" inkscape:connector-curvature="0" />
	<path style="fill:none;stroke:red;stroke-width:1px;stroke-linecap:butt;stroke-linejoin:miter;stroke-opacity:1" d="M 70.8128,446.776 81.0046,452.438 z" id="boundary" inkscape:connector-curvature="0" />
	<path style="fill:none;stroke:red;stroke-width:1px;stroke-linecap:butt;stroke-linejoin:miter;stroke-opacity:1" d="M 81.0046,452.438 91.1963,458.1 z" id="boundary" inkscape:connector-curvature="0" />
	<path style="fill:none;stroke:red;stroke-width:1px;stroke-linecap:butt;stroke-linejoin:miter;stroke-opacity:1" d="M 82.137,168.201 92.3288,162.539 z" id="boundary" inkscape:connector-curvature="0" />
	<path style="fill:none;stroke:red;stroke-width:1px;stroke-linecap:butt;stroke-linejoin:miter;stroke-opacity:1" d="M 91.1963,458.1 102.521,458.1 z" id="boundary" inkscape:connector-curvature="0" />
	<path style="fill:none;stroke:red;stroke-width:1px;stroke-linecap:butt;stroke-linejoin:miter;stroke-opacity:1" d="M 92.3288,162.539 103.653,162.539 z" id="boundary" inkscape:connector-curvature="0" />
	<path style="fill:none;stroke:red;stroke-width:1px;stroke-linecap:butt;stroke-linejoin:miter;stroke-opacity:1" d="M 102.521,458.1 113.845,458.1 z" id="boundary" inkscape:connector-curvature="0" />
	<path style="fill:none;stroke:red;stroke-width:1px;stroke-linecap:butt;stroke-linejoin:miter;stroke-opacity:1" d="M 103.653,162.539 114.977,162.539 z" id="boundary" inkscape:connector-curvature="0" />
	<path style="fill:none;stroke:red;stroke-width:1px;stroke-linecap:butt;stroke-linejoin:miter;stroke-opacity:1" d="M 113.845,458.1 124.037,452.438 z" id="boundary" inkscape:connector-curvature="0" />
	<path style="fill:none;stroke:red;stroke-width:1px;stroke-linecap:butt;stroke-linejoin:miter;stroke-opacity:1" d="M 114.977,162.539 126.301,162.539 z" id="boundary" inkscape:connector-curvature="0" />
	<path style="fill:none;stroke:red;stroke-width:1px;stroke-linecap:butt;stroke-linejoin:miter;stroke-opacity:1" d="M 124.037,452.438 135.361,441.114 z" id="boundary" inkscape:connector-curvature="0" />
	<path style="fill:none;stroke:red;stroke-width:1px;stroke-linecap:butt;stroke-linejoin:miter;stroke-opacity:1" d="M 126.301,162.539 137.626,162.539 z" id="boundary" inkscape:connector-curvature="0" />
	<path style="fill:none;stroke:red;stroke-width:1px;stroke-linecap:butt;stroke-linejoin:miter;stroke-opacity:1" d="M 135.361,441.114 141.023,429.79 z" id="boundary" inkscape:connector-curvature="0" />
	<path style="fill:none;stroke:red;stroke-width:1px;stroke-linecap:butt;stroke-linejoin:miter;stroke-opacity:1" d="M 137.626,162.539 148.95,162.539 z" id="boundary" inkscape:connector-curvature="0" />
	<path style="fill:none;stroke:red;stroke-width:1px;stroke-linecap:butt;stroke-linejoin:miter;stroke-opacity:1" d="M 141.023,429.79 146.685,418.466 z" id="boundary" inkscape:connector-curvature="0" />
	<path style="fill:none;stroke:red;stroke-width:1px;stroke-linecap:butt;stroke-linejoin:miter;stroke-opacity:1" d="M 146.685,418.466 156.877,412.804 z" id="boundary" inkscape:connector-curvature="0" />
	<path style="fill:none;stroke:red;stroke-width:1px;stroke-linecap:butt;stroke-linejoin:miter;stroke-opacity:1" d="M 148.95,162.539 160.274,162.539 z" id="boundary" inkscape:connector-curvature="0" />
	<path style="fill:none;stroke:red;stroke-width:1px;stroke-linecap:butt;stroke-linejoin:miter;stroke-opacity:1" d="M 156.877,412.804 168.201,412.804 z" id="boundary" inkscape:connector-curvature="0" />
	<path style="fill:none;stroke:red;stroke-width:1px;stroke-linecap:butt;stroke-linejoin:miter;stroke-opacity:1" d="M 160.274,162.539 171.598,162.539 z" id="boundary" inkscape:connector-curvature="0" />
	<path style="fill:none;stroke:red;stroke-width:1px;stroke-linecap:butt;stroke-linejoin:miter;stroke-opacity:1" d="M 168.201,412.804 179.525,412.804 z" id="boundary" inkscape:connector-curvature="0" />
	<path style="fill:none;stroke:red;stroke-width:1px;stroke-linecap:butt;stroke-linejoin:miter;stroke-opacity:1" d="M 171.598,162.539 182.922,162.539 z" id="boundary" inkscape:connector-curvature="0" />
	<path style="fill:none;stroke:red;stroke-width:1px;stroke-linecap:butt;stroke-linejoin:miter;stroke-opacity:1" d="M 179.525,412.804 190.849,412.804 z" id="boundary" inkscape:connector-curvature="0" />
	<path style="fill:none;stroke:red;stroke-width:1px;stroke-linecap:butt;stroke-linejoin:miter;stroke-opacity:1" d="M 182.922,162.539 194.247,162.539 z" id="boundary" inkscape:connector-curvature="0" />
	<path style="fill:none;stroke:red;stroke-width:1px;stroke-linecap:butt;stroke-linejoin:miter;stroke-opacity:1" d="M 190.849,412.804 202.174,412.804 z" id="boundary" inkscape:connector-curvature="0" />
	<path style="fill:none;stroke:red;stroke-width:1px;stroke-linecap:butt;stroke-linejoin:miter;stroke-opacity:1" d="M 194.247,162.539 205.571,162.539 z" id="boundary" inkscape:connector-curvature="0" />
	<path style="fill:none;stroke:red;stroke-width:1px;stroke-linecap:butt;stroke-linejoin:miter;stroke-opacity:1" d="M 202.174,412.804 213.498,412.804 z" id="boundary" inkscape:connector-curvature="0" />
	<path style="fill:none;stroke:red;stroke-width:1px;stroke-linecap:butt;stroke-linejoin:miter;stroke-opacity:1" d="M 205.571,162.539 216.895,156.877 z" id="boundary" inkscape:connector-curvature="0" />
	<path style="fill:none;stroke:red;stroke-width:1px;stroke-linecap:butt;stroke-linejoin:miter;stroke-opacity:1" d="M 213.498,412.804 223.689,418.466 z" id="boundary" inkscape:connector-curvature="0" />
	<path style="fill:none;stroke:red;stroke-width:1px;stroke-linecap:butt;stroke-linejoin:miter;stroke-opacity:1" d="M 216.895,156.877 228.219,156.877 z" id="boundary" inkscape:connector-curvature="0" />
	<path style="fill:none;stroke:red;stroke-width:1px;stroke-linecap:butt;stroke-linejoin:miter;stroke-opacity:1" d="M 223.689,418.466 235.014,418.466 z" id="boundary" inkscape:connector-curvature="0" />
	<path style="fill:none;stroke:red;stroke-width:1px;stroke-linecap:butt;stroke-linejoin:miter;stroke-opacity:1" d="M 228.219,156.877 239.543,156.877 z" id="boundary" inkscape:connector-curvature="0" />
	<path style="fill:none;stroke:red;stroke-width:1px;stroke-linecap:butt;stroke-linejoin:miter;stroke-opacity:1" d="M 235.014,418.466 246.338,418.466 z" id="boundary" inkscape:connector-curvature="0" />
	<path style="fill:none;stroke:red;stroke-width:1px;stroke-linecap:butt;stroke-linejoin:miter;stroke-opacity:1" d="M 239.543,156.877 250.868,156.877 z" id="boundary" inkscape:connector-curvature="0" />
	<path style="fill:none;stroke:red;stroke-width:1px;stroke-linecap:butt;stroke-linejoin:miter;stroke-opacity:1" d="M 246.338,418.466 257.662,418.466 z" id="boundary" inkscape:connector-curvature="0" />
	<path style="fill:none;stroke:red;stroke-width:1px;stroke-linecap:butt;stroke-linejoin:miter;stroke-opacity:1" d="M 250.868,156.877 262.192,151.215 z" id="boundary" inkscape:connector-curvature="0" />
	<path style="fill:none;stroke:red;stroke-width:1px;stroke-linecap:butt;stroke-linejoin:miter;stroke-opacity:1" d="M 257.662,418.466 268.986,418.466 z" id="boundary" inkscape:connector-curvature="0" />
	<path style="fill:none;stroke:red;stroke-width:1px;stroke-linecap:butt;stroke-linejoin:miter;stroke-opacity:1" d="M 262.192,151.215 267.854,139.89 z" id="boundary" inkscape:connector-curvature="0" />
	<path style="fill:none;stroke:red;stroke-width:1px;stroke-linecap:butt;stroke-linejoin:miter;stroke-opacity:1" d="M 267.854,139.89 273.516,128.566 z" id="boundary" inkscape:connector-curvature="0" />
	<path style="fill:none;stroke:red;stroke-width:1px;stroke-linecap:butt;stroke-linejoin:miter;stroke-opacity:1" d="M 268.986,418.466 280.311,418.466 z" id="boundary" inkscape:connector-curvature="0" />
	<path style="fill:none;stroke:red;stroke-width:1px;stroke-linecap:butt;stroke-linejoin:miter;stroke-opacity:1" d="M 273.516,128.566 284.84,122.904 z" id="boundary" inkscape:connector-curvature="0" />
	<path style="fill:none;stroke:red;stroke-width:1px;stroke-linecap:butt;stroke-linejoin:miter;stroke-opacity:1" d="M 280.311,418.466 290.502,424.128 z" id="boundary" inkscape:connector-curvature="0" />
	<path style="fill:none;stroke:red;stroke-width:1px;stroke-linecap:butt;stroke-linejoin:miter;stroke-opacity:1" d="M 284.84,122.904 295.032,128.566 z" id="boundary" inkscape:connector-curvature="0" />
	<path style="fill:none;stroke:red;stroke-width:1px;stroke-linecap:butt;stroke-linejoin:miter;stroke-opacity:1" d="M 290.502,424.128 301.826,428.658 z" id="boundary" inkscape:connector-curvature="0" />
	<path style="fill:none;stroke:red;stroke-width:1px;stroke-linecap:butt;stroke-linejoin:miter;stroke-opacity:1" d="M 295.032,128.566 305.224,134.228 z" id="boundary" inkscape:connector-curvature="0" />
	<path style="fill:none;stroke:red;stroke-width:1px;stroke-linecap:butt;stroke-linejoin:miter;stroke-opacity:1" d="M 301.826,428.658 313.151,429.79 z" id="boundary" inkscape:connector-curvature="0" />
	<path style="fill:none;stroke:red;stroke-width:1px;stroke-linecap:butt;stroke-linejoin:miter;stroke-opacity:1" d="M 305.224,134.228 316.548,134.228 z" id="boundary" inkscape:connector-curvature="0" />
	<path style="fill:none;stroke:red;stroke-width:1px;stroke-linecap:butt;stroke-linejoin:miter;stroke-opacity:1" d="M 313.151,429.79 323.342,435.452 z" id="boundary" inkscape:connector-curvature="0" />
	<path style="fill:none;stroke:red;stroke-width:1px;stroke-linecap:butt;stroke-linejoin:miter;stroke-opacity:1" d="M 316.548,134.228 327.872,130.831 z" id="boundary" inkscape:connector-curvature="0" />
	<path style="fill:none;stroke:red;stroke-width:1px;stroke-linecap:butt;stroke-linejoin:miter;stroke-opacity:1" d="M 323.342,435.452 334.667,435.452 z" id="boundary" inkscape:connector-curvature="0" />
	<path style="fill:none;stroke:red;stroke-width:1px;stroke-linecap:butt;stroke-linejoin:miter;stroke-opacity:1" d="M 327.872,130.831 336.932,122.904 z" id="boundary" inkscape:connector-curvature="0" />
	<path style="fill:none;stroke:red;stroke-width:1px;stroke-linecap:butt;stroke-linejoin:miter;stroke-opacity:1" d="M 334.667,435.452 345.991,435.452 z" id="boundary" inkscape:connector-curvature="0" />
	<path style="fill:none;stroke:red;stroke-width:1px;stroke-linecap:butt;stroke-linejoin:miter;stroke-opacity:1" d="M 336.932,122.904 344.858,113.845 z" id="boundary" inkscape:connector-curvature="0" />
	<path style="fill:none;stroke:red;stroke-width:1px;stroke-linecap:butt;stroke-linejoin:miter;stroke-opacity:1" d="M 344.858,113.845 353.918,105.918 z" id="boundary" inkscape:connector-curvature="0" />
	<path style="fill:none;stroke:red;stroke-width:1px;stroke-linecap:butt;stroke-linejoin:miter;stroke-opacity:1" d="M 345.991,435.452 357.315,438.849 z" id="boundary" inkscape:connector-curvature="0" />
	<path style="fill:none;stroke:red;stroke-width:1px;stroke-linecap:butt;stroke-linejoin:miter;stroke-opacity:1" d="M 353.918,105.918 364.11,100.256 z" id="boundary" inkscape:connector-curvature="0" />
	<path style="fill:none;stroke:red;stroke-width:1px;stroke-linecap:butt;stroke-linejoin:miter;stroke-opacity:1" d="M 357.315,438.849 368.639,441.114 z" id="boundary" inkscape:connector-curvature="0" />
	<path style="fill:none;stroke:red;stroke-width:1px;stroke-linecap:butt;stroke-linejoin:miter;stroke-opacity:1" d="M 364.11,100.256 375.434,100.256 z" id="boundary" inkscape:connector-curvature="0" />
	<path style="fill:none;stroke:red;stroke-width:1px;stroke-linecap:butt;stroke-linejoin:miter;stroke-opacity:1" d="M 368.639,441.114 379.963,441.114 z" id="boundary" inkscape:connector-curvature="0" />
	<path style="fill:none;stroke:red;stroke-width:1px;stroke-linecap:butt;stroke-linejoin:miter;stroke-opacity:1" d="M 375.434,100.256 386.758,100.256 z" id="boundary" inkscape:connector-curvature="0" />
	<path style="fill:none;stroke:red;stroke-width:1px;stroke-linecap:butt;stroke-linejoin:miter;stroke-opacity:1" d="M 379.963,441.114 391.288,444.511 z" id="boundary" inkscape:connector-curvature="0" />
	<path style="fill:none;stroke:red;stroke-width:1px;stroke-linecap:butt;stroke-linejoin:miter;stroke-opacity:1" d="M 386.758,100.256 398.082,100.256 z" id="boundary" inkscape:connector-curvature="0" />
	<path style="fill:none;stroke:red;stroke-width:1px;stroke-linecap:butt;stroke-linejoin:miter;stroke-opacity:1" d="M 391.288,444.511 402.612,446.776 z" id="boundary" inkscape:connector-curvature="0" />
	<path style="fill:none;stroke:red;stroke-width:1px;stroke-linecap:butt;stroke-linejoin:miter;stroke-opacity:1" d="M 398.082,100.256 409.406,100.256 z" id="boundary" inkscape:connector-curvature="0" />
	<path style="fill:none;stroke:red;stroke-width:1px;stroke-linecap:butt;stroke-linejoin:miter;stroke-opacity:1" d="M 402.612,446.776 413.936,446.776 z" id="boundary" inkscape:connector-curvature="0" />
	<path style="fill:none;stroke:red;stroke-width:1px;stroke-linecap:butt;stroke-linejoin:miter;stroke-opacity:1" d="M 409.406,100.256 420.731,100.256 z" id="boundary" inkscape:connector-curvature="0" />
	<path style="fill:none;stroke:red;stroke-width:1px;stroke-linecap:butt;stroke-linejoin:miter;stroke-opacity:1" d="M 413.936,446.776 422.995,453.571 z" id="boundary" inkscape:connector-curvature="0" />
	<path style="fill:none;stroke:red;stroke-width:1px;stroke-linecap:butt;stroke-linejoin:miter;stroke-opacity:1" d="M 420.731,100.256 432.055,100.256 z" id="boundary" inkscape:connector-curvature="0" />
	<path style="fill:none;stroke:red;stroke-width:1px;stroke-linecap:butt;stroke-linejoin:miter;stroke-opacity:1" d="M 422.995,453.571 430.922,462.63 z" id="boundary" inkscape:connector-curvature="0" />
	<path style="fill:none;stroke:red;stroke-width:1px;stroke-linecap:butt;stroke-linejoin:miter;stroke-opacity:1" d="M 430.922,462.63 439.982,469.425 z" id="boundary" inkscape:connector-curvature="0" />
	<path style="fill:none;stroke:red;stroke-width:1px;stroke-linecap:butt;stroke-linejoin:miter;stroke-opacity:1" d="M 432.055,100.256 434.32,86.6667 z" id="boundary" inkscape:connector-curvature="0" />
	<path style="fill:none;stroke:red;stroke-width:1px;stroke-linecap:butt;stroke-linejoin:miter;stroke-opacity:1" d="M 434.32,75.3425 434.32,86.6667 z" id="boundary" inkscape:connector-curvature="0" />
	<path style="fill:none;stroke:red;stroke-width:1px;stroke-linecap:butt;stroke-linejoin:miter;stroke-opacity:1" d="M 434.32,75.3425 439.982,58.3562 z" id="boundary" inkscape:connector-curvature="0" />
	<path style="fill:none;stroke:red;stroke-width:1px;stroke-linecap:butt;stroke-linejoin:miter;stroke-opacity:1" d="M 439.982,58.3562 445.644,41.3699 z" id="boundary" inkscape:connector-curvature="0" />
	<path style="fill:none;stroke:red;stroke-width:1px;stroke-linecap:butt;stroke-linejoin:miter;stroke-opacity:1" d="M 439.982,469.425 450.174,475.087 z" id="boundary" inkscape:connector-curvature="0" />
	<path style="fill:none;stroke:red;stroke-width:1px;stroke-linecap:butt;stroke-linejoin:miter;stroke-opacity:1" d="M 445.644,41.3699 451.306,30.0457 z" id="boundary" inkscape:connector-curvature="0" />
	<path style="fill:none;stroke:red;stroke-width:1px;stroke-linecap:butt;stroke-linejoin:miter;stroke-opacity:1" d="M 450.174,475.087 458.1,484.146 z" id="boundary" inkscape:connector-curvature="0" />
	<path style="fill:none;stroke:red;stroke-width:1px;stroke-linecap:butt;stroke-linejoin:miter;stroke-opacity:1" d="M 451.306,30.0457 460.365,20.9863 z" id="boundary" inkscape:connector-curvature="0" />
	<path style="fill:none;stroke:red;stroke-width:1px;stroke-linecap:butt;stroke-linejoin:miter;stroke-opacity:1" d="M 458.1,484.146 469.425,488.676 z" id="boundary" inkscape:connector-curvature="0" />
	<path style="fill:none;stroke:red;stroke-width:1px;stroke-linecap:butt;stroke-linejoin:miter;stroke-opacity:1" d="M 460.365,20.9863 469.425,11.9269 z" id="boundary" inkscape:connector-curvature="0" />
	<path style="fill:none;stroke:red;stroke-width:1px;stroke-linecap:butt;stroke-linejoin:miter;stroke-opacity:1" d="M 469.425,11.9269 480.749,6.26484 z" id="boundary" inkscape:connector-curvature="0" />
	<path style="fill:none;stroke:red;stroke-width:1px;stroke-linecap:butt;stroke-linejoin:miter;stroke-opacity:1" d="M 469.425,488.676 480.749,492.073 z" id="boundary" inkscape:connector-curvature="0" />
	<path style="fill:none;stroke:red;stroke-width:1px;stroke-linecap:butt;stroke-linejoin:miter;stroke-opacity:1" d="M 480.749,6.26484 492.073,4 z" id="boundary" inkscape:connector-curvature="0" />
	<path style="fill:none;stroke:red;stroke-width:1px;stroke-linecap:butt;stroke-linejoin:miter;stroke-opacity:1" d="M 480.749,492.073 492.073,492.073 z" id="boundary" inkscape:connector-curvature="0" />
	<path style="fill:none;stroke:red;stroke-width:1px;stroke-linecap:butt;stroke-linejoin:miter;stroke-opacity:1" d="M 492.073,4 503.397,4 z" id="boundary" inkscape:connector-curvature="0" />
	<path style="fill:none;stroke:red;stroke-width:1px;stroke-linecap:butt;stroke-linejoin:miter;stroke-opacity:1" d="M 492.073,492.073 502.265,486.411 z" id="boundary" inkscape:connector-curvature="0" />
	<path style="fill:none;stroke:red;stroke-width:1px;stroke-linecap:butt;stroke-linejoin:miter;stroke-opacity:1" d="M 502.265,486.411 512.457,480.749 z" id="boundary" inkscape:connector-curvature="0" />
	<path style="fill:none;stroke:red;stroke-width:1px;stroke-linecap:butt;stroke-linejoin:miter;stroke-opacity:1" d="M 503.397,4 514.721,4 z" id="boundary" inkscape:connector-curvature="0" />
	<path style="fill:none;stroke:red;stroke-width:1px;stroke-linecap:butt;stroke-linejoin:miter;stroke-opacity:1" d="M 512.457,480.749 522.648,475.087 z" id="boundary" inkscape:connector-curvature="0" />
	<path style="fill:none;stroke:red;stroke-width:1px;stroke-linecap:butt;stroke-linejoin:miter;stroke-opacity:1" d="M 514.721,4 526.046,4 z" id="boundary" inkscape:connector-curvature="0" />
	<path style="fill:none;stroke:red;stroke-width:1px;stroke-linecap:butt;stroke-linejoin:miter;stroke-opacity:1" d="M 522.648,475.087 532.84,469.425 z" id="boundary" inkscape:connector-curvature="0" />
	<path style="fill:none;stroke:red;stroke-width:1px;stroke-linecap:butt;stroke-linejoin:miter;stroke-opacity:1" d="M 526.046,4 537.37,4 z" id="boundary" inkscape:connector-curvature="0" />
	<path style="fill:none;stroke:red;stroke-width:1px;stroke-linecap:butt;stroke-linejoin:miter;stroke-opacity:1" d="M 532.84,469.425 541.9,460.365 z" id="boundary" inkscape:connector-curvature="0" />
	<path style="fill:none;stroke:red;stroke-width:1px;stroke-linecap:butt;stroke-linejoin:miter;stroke-opacity:1" d="M 537.37,4 548.694,4 z" id="boundary" inkscape:connector-curvature="0" />
	<path style="fill:none;stroke:red;stroke-width:1px;stroke-linecap:butt;stroke-linejoin:miter;stroke-opacity:1" d="M 541.9,460.365 547.562,449.041 z" id="boundary" inkscape:connector-curvature="0" />
	<path style="fill:none;stroke:red;stroke-width:1px;stroke-linecap:butt;stroke-linejoin:miter;stroke-opacity:1" d="M 547.562,449.041 553.224,437.717 z" id="boundary" inkscape:connector-curvature="0" />
	<path style="fill:none;stroke:red;stroke-width:1px;stroke-linecap:butt;stroke-linejoin:miter;stroke-opacity:1" d="M 548.694,4 560.018,4 z" id="boundary" inkscape:connector-curvature="0" />
	<path style="fill:none;stroke:red;stroke-width:1px;stroke-linecap:butt;stroke-linejoin:miter;stroke-opacity:1" d="M 553.224,437.717 554.356,418.466 z" id="boundary" inkscape:connector-curvature="0" />
	<path style="fill:none;stroke:red;stroke-width:1px;stroke-linecap:butt;stroke-linejoin:miter;stroke-opacity:1" d="M 554.356,418.466 565.68,418.466 z" id="boundary" inkscape:connector-curvature="0" />
	<path style="fill:none;stroke:red;stroke-width:1px;stroke-linecap:butt;stroke-linejoin:miter;stroke-opacity:1" d="M 560.018,4 570.21,9.6621 z" id="boundary" inkscape:connector-curvature="0" />
	<path style="fill:none;stroke:red;stroke-width:1px;stroke-linecap:butt;stroke-linejoin:miter;stroke-opacity:1" d="M 565.68,418.466 577.005,418.466 z" id="boundary" inkscape:connector-curvature="0" />
	<path style="fill:none;stroke:red;stroke-width:1px;stroke-linecap:butt;stroke-linejoin:miter;stroke-opacity:1" d="M 570.21,9.6621 581.534,9.6621 z" id="boundary" inkscape:connector-curvature="0" />
	<path style="fill:none;stroke:red;stroke-width:1px;stroke-linecap:butt;stroke-linejoin:miter;stroke-opacity:1" d="M 577.005,418.466 588.329,418.466 z" id="boundary" inkscape:connector-curvature="0" />
	<path style="fill:none;stroke:red;stroke-width:1px;stroke-linecap:butt;stroke-linejoin:miter;stroke-opacity:1" d="M 581.534,9.6621 592.858,9.6621 z" id="boundary" inkscape:connector-curvature="0" />
	<path style="fill:none;stroke:red;stroke-width:1px;stroke-linecap:butt;stroke-linejoin:miter;stroke-opacity:1" d="M 588.329,418.466 599.653,418.466 z" id="boundary" inkscape:connector-curvature="0" />
	<path style="fill:none;stroke:red;stroke-width:1px;stroke-linecap:butt;stroke-linejoin:miter;stroke-opacity:1" d="M 592.858,9.6621 604.183,11.9269 z" id="boundary" inkscape:connector-curvature="0" />
	<path style="fill:none;stroke:red;stroke-width:1px;stroke-linecap:butt;stroke-linejoin:miter;stroke-opacity:1" d="M 599.653,418.466 610.977,418.466 z" id="boundary" inkscape:connector-curvature="0" />
	<path style="fill:none;stroke:red;stroke-width:1px;stroke-linecap:butt;stroke-linejoin:miter;stroke-opacity:1" d="M 604.183,11.9269 615.507,15.3242 z" id="boundary" inkscape:connector-curvature="0" />
	<path style="fill:none;stroke:red;stroke-width:1px;stroke-linecap:butt;stroke-linejoin:miter;stroke-opacity:1" d="M 610.977,418.466 622.301,418.466 z" id="boundary" inkscape:connector-curvature="0" />
	<path style="fill:none;stroke:red;stroke-width:1px;stroke-linecap:butt;stroke-linejoin:miter;stroke-opacity:1" d="M 615.507,15.3242 626.831,15.3242 z" id="boundary" inkscape:connector-curvature="0" />
	<path style="fill:none;stroke:red;stroke-width:1px;stroke-linecap:butt;stroke-linejoin:miter;stroke-opacity:1" d="M 622.301,418.466 633.626,418.466 z" id="boundary" inkscape:connector-curvature="0" />
	<path style="fill:none;stroke:red;stroke-width:1px;stroke-linecap:butt;stroke-linejoin:miter;stroke-opacity:1" d="M 626.831,15.3242 638.155,15.3242 z" id="boundary" inkscape:connector-curvature="0" />
	<path style="fill:none;stroke:red;stroke-width:1px;stroke-linecap:butt;stroke-linejoin:miter;stroke-opacity:1" d="M 633.626,418.466 644.95,418.466 z" id="boundary" inkscape:connector-curvature="0" />
	<path style="fill:none;stroke:red;stroke-width:1px;stroke-linecap:butt;stroke-linejoin:miter;stroke-opacity:1" d="M 638.155,15.3242 649.479,15.3242 z" id="boundary" inkscape:connector-curvature="0" />
	<path style="fill:none;stroke:red;stroke-width:1px;stroke-linecap:butt;stroke-linejoin:miter;stroke-opacity:1" d="M 644.95,418.466 656.274,418.466 z" id="boundary" inkscape:connector-curvature="0" />
	<path style="fill:none;stroke:red;stroke-width:1px;stroke-linecap:butt;stroke-linejoin:miter;stroke-opacity:1" d="M 649.479,15.3242 660.804,15.3242 z" id="boundary" inkscape:connector-curvature="0" />
	<path style="fill:none;stroke:red;stroke-width:1px;stroke-linecap:butt;stroke-linejoin:miter;stroke-opacity:1" d="M 656.274,418.466 667.598,418.466 z" id="boundary" inkscape:connector-curvature="0" />
	<path style="fill:none;stroke:red;stroke-width:1px;stroke-linecap:butt;stroke-linejoin:miter;stroke-opacity:1" d="M 660.804,15.3242 672.128,15.3242 z" id="boundary" inkscape:connector-curvature="0" />
	<path style="fill:none;stroke:red;stroke-width:1px;stroke-linecap:butt;stroke-linejoin:miter;stroke-opacity:1" d="M 667.598,418.466 678.922,418.466 z" id="boundary" inkscape:connector-curvature="0" />
	<path style="fill:none;stroke:red;stroke-width:1px;stroke-linecap:butt;stroke-linejoin:miter;stroke-opacity:1" d="M 672.128,15.3242 682.32,20.9863 z" id="boundary" inkscape:connector-curvature="0" />
	<path style="fill:none;stroke:red;stroke-width:1px;stroke-linecap:butt;stroke-linejoin:miter;stroke-opacity:1" d="M 678.922,418.466 690.247,418.466 z" id="boundary" inkscape:connector-curvature="0" />
	<path style="fill:none;stroke:red;stroke-width:1px;stroke-linecap:butt;stroke-linejoin:miter;stroke-opacity:1" d="M 682.32,20.9863 693.644,20.9863 z" id="boundary" inkscape:connector-curvature="0" />
	<path style="fill:none;stroke:red;stroke-width:1px;stroke-linecap:butt;stroke-linejoin:miter;stroke-opacity:1" d="M 690.247,418.466 701.571,418.466 z" id="boundary" inkscape:connector-curvature="0" />
	<path style="fill:none;stroke:red;stroke-width:1px;stroke-linecap:butt;stroke-linejoin:miter;stroke-opacity:1" d="M 693.644,20.9863 704.968,20.9863 z" id="boundary" inkscape:connector-curvature="0" />
	<path style="fill:none;stroke:red;stroke-width:1px;stroke-linecap:butt;stroke-linejoin:miter;stroke-opacity:1" d="M 701.571,418.466 712.895,418.466 z" id="boundary" inkscape:connector-curvature="0" />
	<path style="fill:none;stroke:red;stroke-width:1px;stroke-linecap:butt;stroke-linejoin:miter;stroke-opacity:1" d="M 704.968,20.9863 716.292,20.9863 z" id="boundary" inkscape:connector-curvature="0" />
	<path style="fill:none;stroke:red;stroke-width:1px;stroke-linecap:butt;stroke-linejoin:miter;stroke-opacity:1" d="M 712.895,418.466 724.219,418.466 z" id="boundary" inkscape:connector-curvature="0" />
	<path style="fill:none;stroke:red;stroke-width:1px;stroke-linecap:butt;stroke-linejoin:miter;stroke-opacity:1" d="M 716.292,20.9863 727.616,20.9863 z" id="boundary" inkscape:connector-curvature="0" />
	<path style="fill:none;stroke:red;stroke-width:1px;stroke-linecap:butt;stroke-linejoin:miter;stroke-opacity:1" d="M 724.219,418.466 735.543,418.466 z" id="boundary" inkscape:connector-curvature="0" />
	<path style="fill:none;stroke:red;stroke-width:1px;stroke-linecap:butt;stroke-linejoin:miter;stroke-opacity:1" d="M 727.616,20.9863 737.808,26.6484 z" id="boundary" inkscape:connector-curvature="0" />
	<path style="fill:none;stroke:red;stroke-width:1px;stroke-linecap:butt;stroke-linejoin:miter;stroke-opacity:1" d="M 735.543,418.466 746.868,418.466 z" id="boundary" inkscape:connector-curvature="0" />
	<path style="fill:none;stroke:red;stroke-width:1px;stroke-linecap:butt;stroke-linejoin:miter;stroke-opacity:1" d="M 737.808,26.6484 749.132,26.6484 z" id="boundary" inkscape:connector-curvature="0" />
	<path style="fill:none;stroke:red;stroke-width:1px;stroke-linecap:butt;stroke-linejoin:miter;stroke-opacity:1" d="M 746.868,418.466 758.192,418.466 z" id="boundary" inkscape:connector-curvature="0" />
	<path style="fill:none;stroke:red;stroke-width:1px;stroke-linecap:butt;stroke-linejoin:miter;stroke-opacity:1" d="M 749.132,26.6484 757.059,35.7078 z" id="boundary" inkscape:connector-curvature="0" />
	<path style="fill:none;stroke:red;stroke-width:1px;stroke-linecap:butt;stroke-linejoin:miter;stroke-opacity:1" d="M 757.059,35.7078 763.854,44.7671 z" id="boundary" inkscape:connector-curvature="0" />
	<path style="fill:none;stroke:red;stroke-width:1px;stroke-linecap:butt;stroke-linejoin:miter;stroke-opacity:1" d="M 758.192,418.466 769.516,418.466 z" id="boundary" inkscape:connector-curvature="0" />
	<path style="fill:none;stroke:red;stroke-width:1px;stroke-linecap:butt;stroke-linejoin:miter;stroke-opacity:1" d="M 763.854,44.7671 763.854,56.0913 z" id="boundary" inkscape:connector-curvature="0" />
	<path style="fill:none;stroke:red;stroke-width:1px;stroke-linecap:butt;stroke-linejoin:miter;stroke-opacity:1" d="M 763.854,56.0913 763.854,67.4155 z" id="boundary" inkscape:connector-curvature="0" />
	<path style="fill:none;stroke:red;stroke-width:1px;stroke-linecap:butt;stroke-linejoin:miter;stroke-opacity:1" d="M 763.854,67.4155 763.854,78.7397 z" id="boundary" inkscape:connector-curvature="0" />
	<path style="fill:none;stroke:red;stroke-width:1px;stroke-linecap:butt;stroke-linejoin:miter;stroke-opacity:1" d="M 763.854,78.7397 763.854,90.0639 z" id="boundary" inkscape:connector-curvature="0" />
	<path style="fill:none;stroke:red;stroke-width:1px;stroke-linecap:butt;stroke-linejoin:miter;stroke-opacity:1" d="M 763.854,90.0639 763.854,101.388 z" id="boundary" inkscape:connector-curvature="0" />
	<path style="fill:none;stroke:red;stroke-width:1px;stroke-linecap:butt;stroke-linejoin:miter;stroke-opacity:1" d="M 763.854,101.388 763.854,112.712 z" id="boundary" inkscape:connector-curvature="0" />
	<path style="fill:none;stroke:red;stroke-width:1px;stroke-linecap:butt;stroke-linejoin:miter;stroke-opacity:1" d="M 763.854,112.712 766.119,124.037 z" id="boundary" inkscape:connector-curvature="0" />
	<path style="fill:none;stroke:red;stroke-width:1px;stroke-linecap:butt;stroke-linejoin:miter;stroke-opacity:1" d="M 766.119,124.037 771.781,134.228 z" id="boundary" inkscape:connector-curvature="0" />
	<path style="fill:none;stroke:red;stroke-width:1px;stroke-linecap:butt;stroke-linejoin:miter;stroke-opacity:1" d="M 769.516,418.466 776.311,427.525 z" id="boundary" inkscape:connector-curvature="0" />
	<path style="fill:none;stroke:red;stroke-width:1px;stroke-linecap:butt;stroke-linejoin:miter;stroke-opacity:1" d="M 771.781,134.228 781.973,139.89 z" id="boundary" inkscape:connector-curvature="0" />
	<path style="fill:none;stroke:red;stroke-width:1px;stroke-linecap:butt;stroke-linejoin:miter;stroke-opacity:1" d="M 776.311,427.525 785.37,435.452 z" id="boundary" inkscape:connector-curvature="0" />
	<path style="fill:none;stroke:red;stroke-width:1px;stroke-linecap:butt;stroke-linejoin:miter;stroke-opacity:1" d="M 781.973,139.89 793.297,139.89 z" id="boundary" inkscape:connector-curvature="0" />
	<path style="fill:none;stroke:red;stroke-width:1px;stroke-linecap:butt;stroke-linejoin:miter;stroke-opacity:1" d="M 785.37,435.452 788.767,446.776 z" id="boundary" inkscape:connector-curvature="0" />
	<path style="fill:none;stroke:red;stroke-width:1px;stroke-linecap:butt;stroke-linejoin:miter;stroke-opacity:1" d="M 788.767,446.776 800.091,451.306 z" id="boundary" inkscape:connector-curvature="0" />
	<path style="fill:none;stroke:red;stroke-width:1px;stroke-linecap:butt;stroke-linejoin:miter;stroke-opacity:1" d="M 793.297,139.89 804.621,139.89 z" id="boundary" inkscape:connector-curvature="0" />
	<path style="fill:none;stroke:red;stroke-width:1px;stroke-linecap:butt;stroke-linejoin:miter;stroke-opacity:1" d="M 800.091,451.306 811.416,452.438 z" id="boundary" inkscape:connector-curvature="0" />
	<path style="fill:none;stroke:red;stroke-width:1px;stroke-linecap:butt;stroke-linejoin:miter;stroke-opacity:1" d="M 804.621,139.89 815.945,139.89 z" id="boundary" inkscape:connector-curvature="0" />
	<path style="fill:none;stroke:red;stroke-width:1px;stroke-linecap:butt;stroke-linejoin:miter;stroke-opacity:1" d="M 811.416,452.438 822.74,452.438 z" id="boundary" inkscape:connector-curvature="0" />
	<path style="fill:none;stroke:red;stroke-width:1px;stroke-linecap:butt;stroke-linejoin:miter;stroke-opacity:1" d="M 815.945,139.89 827.269,139.89 z" id="boundary" inkscape:connector-curvature="0" />
	<path style="fill:none;stroke:red;stroke-width:1px;stroke-linecap:butt;stroke-linejoin:miter;stroke-opacity:1" d="M 822.74,452.438 834.064,452.438 z" id="boundary" inkscape:connector-curvature="0" />
	<path style="fill:none;stroke:red;stroke-width:1px;stroke-linecap:butt;stroke-linejoin:miter;stroke-opacity:1" d="M 827.269,139.89 838.594,135.361 z" id="boundary" inkscape:connector-curvature="0" />
	<path style="fill:none;stroke:red;stroke-width:1px;stroke-linecap:butt;stroke-linejoin:miter;stroke-opacity:1" d="M 834.064,452.438 845.388,451.306 z" id="boundary" inkscape:connector-curvature="0" />
	<path style="fill:none;stroke:red;stroke-width:1px;stroke-linecap:butt;stroke-linejoin:miter;stroke-opacity:1" d="M 838.594,135.361 849.918,134.228 z" id="boundary" inkscape:connector-curvature="0" />
	<path style="fill:none;stroke:red;stroke-width:1px;stroke-linecap:butt;stroke-linejoin:miter;stroke-opacity:1" d="M 845.388,451.306 854.447,441.114 z" id="boundary" inkscape:connector-curvature="0" />
	<path style="fill:none;stroke:red;stroke-width:1px;stroke-linecap:butt;stroke-linejoin:miter;stroke-opacity:1" d="M 849.918,134.228 861.242,134.228 z" id="boundary" inkscape:connector-curvature="0" />
	<path style="fill:none;stroke:red;stroke-width:1px;stroke-linecap:butt;stroke-linejoin:miter;stroke-opacity:1" d="M 854.447,441.114 860.11,429.79 z" id="boundary" inkscape:connector-curvature="0" />
	<path style="fill:none;stroke:red;stroke-width:1px;stroke-linecap:butt;stroke-linejoin:miter;stroke-opacity:1" d="M 860.11,429.79 865.772,418.466 z" id="boundary" inkscape:connector-curvature="0" />
	<path style="fill:none;stroke:red;stroke-width:1px;stroke-linecap:butt;stroke-linejoin:miter;stroke-opacity:1" d="M 861.242,134.228 872.566,134.228 z" id="boundary" inkscape:connector-curvature="0" />
	<path style="fill:none;stroke:red;stroke-width:1px;stroke-linecap:butt;stroke-linejoin:miter;stroke-opacity:1" d="M 865.772,395.817 865.772,407.142 z" id="boundary" inkscape:connector-curvature="0" />
	<path style="fill:none;stroke:red;stroke-width:1px;stroke-linecap:butt;stroke-linejoin:miter;stroke-opacity:1" d="M 865.772,395.817 871.434,378.831 z" id="boundary" inkscape:connector-curvature="0" />
	<path style="fill:none;stroke:red;stroke-width:1px;stroke-linecap:butt;stroke-linejoin:miter;stroke-opacity:1" d="M 865.772,407.142 865.772,418.466 z" id="boundary" inkscape:connector-curvature="0" />
	<path style="fill:none;stroke:red;stroke-width:1px;stroke-linecap:butt;stroke-linejoin:miter;stroke-opacity:1" d="M 871.434,378.831 877.096,367.507 z" id="boundary" inkscape:connector-curvature="0" />
	<path style="fill:none;stroke:red;stroke-width:1px;stroke-linecap:butt;stroke-linejoin:miter;stroke-opacity:1" d="M 872.566,134.228 883.89,134.228 z" id="boundary" inkscape:connector-curvature="0" />
	<path style="fill:none;stroke:red;stroke-width:1px;stroke-linecap:butt;stroke-linejoin:miter;stroke-opacity:1" d="M 877.096,367.507 882.758,356.183 z" id="boundary" inkscape:connector-curvature="0" />
	<path style="fill:none;stroke:red;stroke-width:1px;stroke-linecap:butt;stroke-linejoin:miter;stroke-opacity:1" d="M 882.758,356.183 888.42,344.858 z" id="boundary" inkscape:connector-curvature="0" />
	<path style="fill:none;stroke:red;stroke-width:1px;stroke-linecap:butt;stroke-linejoin:miter;stroke-opacity:1" d="M 883.89,134.228 895.215,134.228 z" id="boundary" inkscape:connector-curvature="0" />
	<path style="fill:none;stroke:red;stroke-width:1px;stroke-linecap:butt;stroke-linejoin:miter;stroke-opacity:1" d="M 888.42,344.858 899.744,344.858 z" id="boundary" inkscape:connector-curvature="0" />
	<path style="fill:none;stroke:red;stroke-width:1px;stroke-linecap:butt;stroke-linejoin:miter;stroke-opacity:1" d="M 895.215,134.228 906.539,134.228 z" id="boundary" inkscape:connector-curvature="0" />
	<path style="fill:none;stroke:red;stroke-width:1px;stroke-linecap:butt;stroke-linejoin:miter;stroke-opacity:1" d="M 899.744,344.858 911.068,344.858 z" id="boundary" inkscape:connector-curvature="0" />
	<path style="fill:none;stroke:red;stroke-width:1px;stroke-linecap:butt;stroke-linejoin:miter;stroke-opacity:1" d="M 906.539,134.228 917.863,134.228 z" id="boundary" inkscape:connector-curvature="0" />
	<path style="fill:none;stroke:red;stroke-width:1px;stroke-linecap:butt;stroke-linejoin:miter;stroke-opacity:1" d="M 911.068,344.858 922.393,339.196 z" id="boundary" inkscape:connector-curvature="0" />
	<path style="fill:none;stroke:red;stroke-width:1px;stroke-linecap:butt;stroke-linejoin:miter;stroke-opacity:1" d="M 917.863,134.228 929.187,134.228 z" id="boundary" inkscape:connector-curvature="0" />
	<path style="fill:none;stroke:red;stroke-width:1px;stroke-linecap:butt;stroke-linejoin:miter;stroke-opacity:1" d="M 922.393,339.196 933.717,333.534 z" id="boundary" inkscape:connector-curvature="0" />
	<path style="fill:none;stroke:red;stroke-width:1px;stroke-linecap:butt;stroke-linejoin:miter;stroke-opacity:1" d="M 929.187,134.228 940.511,134.228 z" id="boundary" inkscape:connector-curvature="0" />
	<path style="fill:none;stroke:red;stroke-width:1px;stroke-linecap:butt;stroke-linejoin:miter;stroke-opacity:1" d="M 933.717,333.534 939.379,322.21 z" id="boundary" inkscape:connector-curvature="0" />
	<path style="fill:none;stroke:red;stroke-width:1px;stroke-linecap:butt;stroke-linejoin:miter;stroke-opacity:1" d="M 939.379,322.21 945.041,310.886 z" id="boundary" inkscape:connector-curvature="0" />
	<path style="fill:none;stroke:red;stroke-width:1px;stroke-linecap:butt;stroke-linejoin:miter;stroke-opacity:1" d="M 940.511,134.228 950.703,139.89 z" id="boundary" inkscape:connector-curvature="0" />
	<path style="fill:none;stroke:red;stroke-width:1px;stroke-linecap:butt;stroke-linejoin:miter;stroke-opacity:1" d="M 945.041,310.886 950.703,293.9 z" id="boundary" inkscape:connector-curvature="0" />
	<path style="fill:none;stroke:red;stroke-width:1px;stroke-linecap:butt;stroke-linejoin:miter;stroke-opacity:1" d="M 950.703,139.89 959.763,146.685 z" id="boundary" inkscape:connector-curvature="0" />
	<path style="fill:none;stroke:red;stroke-width:1px;stroke-linecap:butt;stroke-linejoin:miter;stroke-opacity:1" d="M 950.703,282.575 950.703,293.9 z" id="boundary" inkscape:connector-curvature="0" />
	<path style="fill:none;stroke:red;stroke-width:1px;stroke-linecap:butt;stroke-linejoin:miter;stroke-opacity:1" d="M 950.703,282.575 956.365,271.251 z" id="boundary" inkscape:connector-curvature="0" />
	<path style="fill:none;stroke:red;stroke-width:1px;stroke-linecap:butt;stroke-linejoin:miter;stroke-opacity:1" d="M 956.365,271.251 962.027,259.927 z" id="boundary" inkscape:connector-curvature="0" />
	<path style="fill:none;stroke:red;stroke-width:1px;stroke-linecap:butt;stroke-linejoin:miter;stroke-opacity:1" d="M 959.763,146.685 967.689,155.744 z" id="boundary" inkscape:connector-curvature="0" />
	<path style="fill:none;stroke:red;stroke-width:1px;stroke-linecap:butt;stroke-linejoin:miter;stroke-opacity:1" d="M 962.027,259.927 971.087,252 z" id="boundary" inkscape:connector-curvature="0" />
	<path style="fill:none;stroke:red;stroke-width:1px;stroke-linecap:butt;stroke-linejoin:miter;stroke-opacity:1" d="M 967.689,155.744 979.014,160.274 z" id="boundary" inkscape:connector-curvature="0" />
	<path style="fill:none;stroke:red;stroke-width:1px;stroke-linecap:butt;stroke-linejoin:miter;stroke-opacity:1" d="M 971.087,252 976.749,240.676 z" id="boundary" inkscape:connector-curvature="0" />
	<path style="fill:none;stroke:red;stroke-width:1px;stroke-linecap:butt;stroke-linejoin:miter;stroke-opacity:1" d="M 976.749,240.676 982.411,229.352 z" id="boundary" inkscape:connector-curvature="0" />
	<path style="fill:none;stroke:red;stroke-width:1px;stroke-linecap:butt;stroke-linejoin:miter;stroke-opacity:1" d="M 979.014,160.274 986.941,169.333 z" id="boundary" inkscape:connector-curvature="0" />
	<path style="fill:none;stroke:red;stroke-width:1px;stroke-linecap:butt;stroke-linejoin:miter;stroke-opacity:1" d="M 982.411,229.352 988.073,218.027 z" id="boundary" inkscape:connector-curvature="0" />
	<path style="fill:none;stroke:red;stroke-width:1px;stroke-linecap:butt;stroke-linejoin:miter;stroke-opacity:1" d="M 986.941,169.333 992.603,179.525 z" id="boundary" inkscape:connector-curvature="0" />
	<path style="fill:none;stroke:red;stroke-width:1px;stroke-linecap:butt;stroke-linejoin:miter;stroke-opacity:1" d="M 988.073,218.027 990.338,203.306 z" id="boundary" inkscape:connector-curvature="0" />
	<path style="fill:none;stroke:red;stroke-width:1px;stroke-linecap:butt;stroke-linejoin:miter;stroke-opacity:1" d="M 990.338,203.306 996,190.849 z" id="boundary" inkscape:connector-curvature="0" />
	<path style="fill:none;stroke:red;stroke-width:1px;stroke-linecap:butt;stroke-linejoin:miter;stroke-opacity:1" d="M 992.603,179.525 996,190.849 z" id="boundary" inkscape:connector-curvature="0" />
	<circle cx="4" cy="216.895" r="4" fill="#0" id="circle0"/>
	<circle cx="4" cy="228.219" r="4" fill="#0" id="circle1"/>
	<circle cx="4" cy="239.543" r="4" fill="#0" id="circle2"/>
	<circle cx="4" cy="250.868" r="4" fill="#0" id="circle3"/>
	<circle cx="4" cy="262.192" r="4" fill="#0" id="circle4"/>
	<circle cx="9.6621" cy="205.571" r="4" fill="#0" id="circle5"/>
	<circle cx="9.6621" cy="272.384" r="4" fill="#0" id="circle6"/>
	<circle cx="9.6621" cy="283.708" r="4" fill="#0" id="circle7"/>
	<circle cx="9.6621" cy="295.032" r="4" fill="#0" id="circle8"/>
	<circle cx="9.6621" cy="306.356" r="4" fill="#0" id="circle9"/>
	<circle cx="15.3242" cy="316.548" r="4" fill="#0" id="circle10"/>
	<circle cx="15.3242" cy="327.872" r="4" fill="#0" id="circle11"/>
	<circle cx="15.3242" cy="339.196" r="4" fill="#0" id="circle12"/>
	<circle cx="18.7215" cy="196.511" r="4" fill="#0" id="circle13"/>
	<circle cx="20.9863" cy="349.388" r="4" fill="#0" id="circle14"/>
	<circle cx="20.9863" cy="360.712" r="4" fill="#0" id="circle15"/>
	<circle cx="20.9863" cy="372.037" r="4" fill="#0" id="circle16"/>
	<circle cx="26.6484" cy="382.228" r="4" fill="#0" id="circle17"/>
	<circle cx="26.6484" cy="393.553" r="4" fill="#0" id="circle18"/>
	<circle cx="30.0457" cy="190.849" r="4" fill="#0" id="circle19"/>
	<circle cx="32.3105" cy="403.744" r="4" fill="#0" id="circle20"/>
	<circle cx="37.9726" cy="413.936" r="4" fill="#0" id="circle21"/>
	<circle cx="40.2374" cy="185.187" r="4" fill="#0" id="circle22"/>
	<circle cx="45.8995" cy="422.995" r="4" fill="#0" id="circle23"/>
	<circle cx="50.4292" cy="179.525" r="4" fill="#0" id="circle24"/>
	<circle cx="54.9589" cy="429.79" r="4" fill="#0" id="circle25"/>
	<circle cx="60.621" cy="173.863" r="4" fill="#0" id="circle26"/>
	<circle cx="61.7534" cy="438.849" r="4" fill="#0" id="circle27"/>
	<circle cx="70.8128" cy="168.201" r="4" fill="#0" id="circle28"/>
	<circle cx="70.8128" cy="446.776" r="4" fill="#0" id="circle29"/>
	<circle cx="81.0046" cy="452.438" r="4" fill="#0" id="circle30"/>
	<circle cx="82.137" cy="168.201" r="4" fill="#0" id="circle31"/>
	<circle cx="91.1963" cy="458.1" r="4" fill="#0" id="circle32"/>
	<circle cx="92.3288" cy="162.539" r="4" fill="#0" id="circle33"/>
	<circle cx="102.521" cy="458.1" r="4" fill="#0" id="circle34"/>
	<circle cx="103.653" cy="162.539" r="4" fill="#0" id="circle35"/>
	<circle cx="113.845" cy="458.1" r="4" fill="#0" id="circle36"/>
	<circle cx="114.977" cy="162.539" r="4" fill="#0" id="circle37"/>
	<circle cx="124.037" cy="452.438" r="4" fill="#0" id="circle38"/>
	<circle cx="126.301" cy="162.539" r="4" fill="#0" id="circle39"/>
	<circle cx="135.361" cy="441.114" r="4" fill="#0" id="circle40"/>
	<circle cx="137.626" cy="162.539" r="4" fill="#0" id="circle41"/>
	<circle cx="141.023" cy="429.79" r="4" fill="#0" id="circle42"/>
	<circle cx="146.685" cy="418.466" r="4" fill="#0" id="circle43"/>
	<circle cx="148.95" cy="162.539" r="4" fill="#0" id="circle44"/>
	<circle cx="156.877" cy="412.804" r="4" fill="#0" id="circle45"/>
	<circle cx="160.274" cy="162.539" r="4" fill="#0" id="circle46"/>
	<circle cx="168.201" cy="412.804" r="4" fill="#0" id="circle47"/>
	<circle cx="171.598" cy="162.539" r="4" fill="#0" id="circle48"/>
	<circle cx="179.525" cy="412.804" r="4" fill="#0" id="circle49"/>
	<circle cx="182.922" cy="162.539" r="4" fill="#0" id="circle50"/>
	<circle cx="190.849" cy="412.804" r="4" fill="#0" id="circle51"/>
	<circle cx="194.247" cy="162.539" r="4" fill="#0" id="circle52"/>
	<circle cx="202.174" cy="412.804" r="4" fill="#0" id="circle53"/>
	<circle cx="205.571" cy="162.539" r="4" fill="#0" id="circle54"/>
	<circle cx="213.498" cy="412.804" r="4" fill="#0" id="circle55"/>
	<circle cx="216.895" cy="156.877" r="4" fill="#0" id="circle56"/>
	<circle cx="223.689" cy="418.466" r="4" fill="#0" id="circle57"/>
	<circle cx="228.219" cy="156.877" r="4" fill="#0" id="circle58"/>
	<circle cx="235.014" cy="418.466" r="4" fill="#0" id="circle59"/>
	<circle cx="239.543" cy="156.877" r="4" fill="#0" id="circle60"/>
	<circle cx="246.338" cy="418.466" r="4" fill="#0" id="circle61"/>
	<circle cx="250.868" cy="156.877" r="4" fill="#0" id="circle62"/>
	<circle cx="257.662" cy="418.466" r="4" fill="#0" id="circle63"/>
	<circle cx="262.192" cy="151.215" r="4" fill="#0" id="circle64"/>
	<circle cx="267.854" cy="139.89" r="4" fill="#0" id="circle65"/>
	<circle cx="268.986" cy="418.466" r="4" fill="#0" id="circle66"/>
	<circle cx="273.516" cy="128.566" r="4" fill="#0" id="circle67"/>
	<circle cx="280.311" cy="418.466" r="4" fill="#0" id="circle68"/>
	<circle cx="284.84" cy="122.904" r="4" fill="#0" id="circle69"/>
	<circle cx="290.502" cy="424.128" r="4" fill="#0" id="circle70"/>
	<circle cx="295.032" cy="128.566" r="4" fill="#0" id="circle71"/>
	<circle cx="301.826" cy="428.658" r="4" fill="#0" id="circle72"/>
	<circle cx="305.224" cy="134.228" r="4" fill="#0" id="circle73"/>
	<circle cx="313.151" cy="429.79" r="4" fill="#0" id="circle74"/>
	<circle cx="316.548" cy="134.228" r="4" fill="#0" id="circle75"/>
	<circle cx="323.342" cy="435.452" r="4" fill="#0" id="circle76"/>
	<circle cx="327.872" cy="130.831" r="4" fill="#0" id="circle77"/>
	<circle cx="334.667" cy="435.452" r="4" fill="#0" id="circle78"/>
	<circle cx="336.932" cy="122.904" r="4" fill="#0" id="circle79"/>
	<circle cx="344.858" cy="113.845" r="4" fill="#0" id="circle80"/>
	<circle cx="345.991" cy="435.452" r="4" fill="#0" id="circle81"/>
	<circle cx="353.918" cy="105.918" r="4" fill="#0" id="circle82"/>
	<circle cx="357.315" cy="438.849" r="4" fill="#0" id="circle83"/>
	<circle cx="364.11" cy="100.256" r="4" fill="#0" id="circle84"/>
	<circle cx="368.639" cy="441.114" r="4" fill="#0" id="circle85"/>
	<circle cx="375.434" cy="100.256" r="4" fill="#0" id="circle86"/>
	<circle cx="379.963" cy="441.114" r="4" fill="#0" id="circle87"/>
	<circle cx="386.758" cy="100.256" r="4" fill="#0" id="circle88"/>
	<circle cx="391.288" cy="444.511" r="4" fill="#0" id="circle89"/>
	<circle cx="398.082" cy="100.256" r="4" fill="#0" id="circle90"/>
	<circle cx="402.612" cy="446.776" r="4" fill="#0" id="circle91"/>
	<circle cx="409.406" cy="100.256" r="4" fill="#0" id="circle92"/>
	<circle cx="413.936" cy="446.776" r="4" fill="#0" id="circle93"/>
	<circle cx="420.731" cy="100.256" r="4" fill="#0" id="circle94"/>
	<circle cx="422.995" cy="453.571" r="4" fill="#0" id="circle95"/>
	<circle cx="430.922" cy="462.63" r="4" fill="#0" id="circle96"/>
	<circle cx="432.055" cy="100.256" r="4" fill="#0" id="circle97"/>
	<circle cx="434.32" cy="75.3425" r="4" fill="#0" id="circle98"/>
	<circle cx="434.32" cy="86.6667" r="4" fill="#0" id="circle99"/>
	<circle cx="439.982" cy="58.3562" r="4" fill="#0" id="circle100"/>
	<circle cx="439.982" cy="469.425" r="4" fill="#0" id="circle101"/>
	<circle cx="445.644" cy="41.3699" r="4" fill="#0" id="circle102"/>
	<circle cx="450.174" cy="475.087" r="4" fill="#0" id="circle103"/>
	<circle cx="451.306" cy="30.0457" r="4" fill="#0" id="circle104"/>
	<circle cx="458.1" cy="484.146" r="4" fill="#0" id="circle105"/>
	<circle cx="460.365" cy="20.9863" r="4" fill="#0" id="circle106"/>
	<circle cx="469.425" cy="11.9269" r="4" fill="#0" id="circle107"/>
	<circle cx="469.425" cy="488.676" r="4" fill="#0" id="circle108"/>
	<circle cx="480.749" cy="6.26484" r="4" fill="#0" id="circle109"/>
	<circle cx="480.749" cy="492.073" r="4" fill="#0" id="circle110"/>
	<circle cx="492.073" cy="4" r="4" fill="#0" id="circle111"/>
	<circle cx="492.073" cy="492.073" r="4" fill="#0" id="circle112"/>
	<circle cx="502.265" cy="486.411" r="4" fill="#0" id="circle113"/>
	<circle cx="503.397" cy="4" r="4" fill="#0" id="circle114"/>
	<circle cx="512.457" cy="480.749" r="4" fill="#0" id="circle115"/>
	<circle cx="514.721" cy="4" r="4" fill="#0" id="circle116"/>
	<circle cx="522.648" cy="475.087" r="4" fill="#0" id="circle117"/>
	<circle cx="526.046" cy="4" r="4" fill="#0" id="circle118"/>
	<circle cx="532.84" cy="469.425" r="4" fill="#0" id="circle119"/>
	<circle cx="537.37" cy="4" r="4" fill="#0" id="circle120"/>
	<circle cx="541.9" cy="460.365" r="4" fill="#0" id="circle121"/>
	<circle cx="547.562" cy="449.041" r="4" fill="#0" id="circle122"/>
	<circle cx="548.694" cy="4" r="4" fill="#0" id="circle123"/>
	<circle cx="553.224" cy="437.717" r="4" fill="#0" id="circle124"/>
	<circle cx="554.356" cy="418.466" r="4" fill="#0" id="circle125"/>
	<circle cx="560.018" cy="4" r="4" fill="#0" id="circle126"/>
	<circle cx="565.68" cy="418.466" r="4" fill="#0" id="circle127"/>
	<circle cx="570.21" cy="9.6621" r="4" fill="#0" id="circle128"/>
	<circle cx="577.005" cy="418.466" r="4" fill="#0" id="circle129"/>
	<circle cx="581.534" cy="9.6621" r="4" fill="#0" id="circle130"/>
	<circle cx="588.329" cy="418.466" r="4" fill="#0" id="circle131"/>
	<circle cx="592.858" cy="9.6621" r="4" fill="#0" id="circle132"/>
	<circle cx="599.653" cy="418.466" r="4" fill="#0" id="circle133"/>
	<circle cx="604.183" cy="11.9269" r="4" fill="#0" id="circle134"/>
	<circle cx="610.977" cy="418.466" r="4" fill="#0" id="circle135"/>
	<circle cx="615.507" cy="15.3242" r="4" fill="#0" id="circle136"/>
	<circle cx="622.301" cy="418.466" r="4" fill="#0" id="circle137"/>
	<circle cx="626.831" cy="15.3242" r="4" fill="#0" id="circle138"/>
	<circle cx="633.626" cy="418.466" r="4" fill="#0" id="circle139"/>
	<circle cx="638.155" cy="15.3242" r="4" fill="#0" id="circle140"/>
	<circle cx="644.95" cy="418.466" r="4" fill="#0" id="circle141"/>
	<circle cx="649.479" cy="15.3242" r="4" fill="#0" id="circle142"/>
	<circle cx="656.274" cy="418.466" r="4" fill="#0" id="circle143"/>
	<circle cx="660.804" cy="15.3242" r="4" fill="#0" id="circle144"/>
	<circle cx="667.598" cy="418.466" r="4" fill="#0" id="circle145"/>
	<circle cx="672.128" cy="15.3242" r="4" fill="#0" id="circle146"/>
	<circle cx="678.922" cy="418.466" r="4" fill="#0" id="circle147"/>
	<circle cx="682.32" cy="20.9863" r="4" fill="#0" id="circle148"/>
	<circle cx="690.247" cy="418.466" r="4" fill="#0" id="circle149"/>
	<circle cx="693.644" cy="20.9863" r="4" fill="#0" id="circle150"/>
	<circle cx="701.571" cy="418.466" r="4" fill="#0" id="circle151"/>
	<circle cx="704.968" cy="20.9863" r="4" fill="#0" id="circle152"/>
	<circle cx="712.895" cy="418.466" r="4" fill="#0" id="circle153"/>
	<circle cx="716.292" cy="20.9863" r="4" fill="#0" id="circle154"/>
	<circle cx="724.219" cy="418.466" r="4" fill="#0" id="circle155"/>
	<circle cx="727.616" cy="20.9863" r="4" fill="#0" id="circle156"/>
	<circle cx="735.543" cy="418.466" r="4" fill="#0" id="circle157"/>
	<circle cx="737.808" cy="26.6484" r="4" fill="#0" id="circle158"/>
	<circle cx="746.868" cy="418.466" r="4" fill="#0" id="circle159"/>
	<circle cx="749.132" cy="26.6484" r="4" fill="#0" id="circle160"/>
	<circle cx="757.059" cy="35.7078" r="4" fill="#0" id="circle161"/>
	<circle cx="758.192" cy="418.466" r="4" fill="#0" id="circle162"/>
	<circle cx="763.854" cy="44.7671" r="4" fill="#0" id="circle163"/>
	<circle cx="763.854" cy="56.0913" r="4" fill="#0" id="circle164"/>
	<circle cx="763.854" cy="67.4155" r="4" fill="#0" id="circle165"/>
	<circle cx="763.854" cy="78.7397" r="4" fill="#0" id="circle166"/>
	<circle cx="763.854" cy="90.0639" r="4" fill="#0" id="circle167"/>
	<circle cx="763.854" cy="101.388" r="4" fill="#0" id="circle168"/>
	<circle cx="763.854" cy="112.712" r="4" fill="#0" id="circle169"/>
	<circle cx="766.119" cy="124.037" r="4" fill="#0" id="circle170"/>
	<circle cx="769.516" cy="418.466" r="4" fill="#0" id="circle171"/>
	<circle cx="771.781" cy="134.228" r="4" fill="#0" id="circle172"/>
	<circle cx="776.311" cy="427.525" r="4" fill="#0" id="circle173"/>
	<circle cx="781.973" cy="139.89" r="4" fill="#0" id="circle174"/>
	<circle cx="785.37" cy="435.452" r="4" fill="#0" id="circle175"/>
	<circle cx="788.767" cy="446.776" r="4" fill="#0" id="circle176"/>
	<circle cx="793.297" cy="139.89" r="4" fill="#0" id="circle177"/>
	<circle cx="800.091" cy="451.306" r="4" fill="#0" id="circle178"/>
	<circle cx="804.621" cy="139.89" r="4" fill="#0" id="circle179"/>
	<circle cx="811.416" cy="452.438" r="4" fill="#0" id="circle180"/>
	<circle cx="815.945" cy="139.89" r="4" fill="#0" id="circle181"/>
	<circle cx="822.74" cy="452.438" r="4" fill="#0" id="circle182"/>
	<circle cx="827.269" cy="139.89" r="4" fill="#0" id="circle183"/>
	<circle cx="834.064" cy="452.438" r="4" fill="#0" id="circle184"/>
	<circle cx="838.594" cy="135.361" r="4" fill="#0" id="circle185"/>
	<circle cx="845.388" cy="451.306" r="4" fill="#0" id="circle186"/>
	<circle cx="849.918" cy="134.228" r="4" fill="#0" id="circle187"/>
	<circle cx="854.447" cy="441.114" r="4" fill="#0" id="circle188"/>
	<circle cx="860.11" cy="429.79" r="4" fill="#0" id="circle189"/>
	<circle cx="861.242" cy="134.228" r="4" fill="#0" id="circle190"/>
	<circle cx="865.772" cy="395.817" r="4" fill="#0" id="circle191"/>
	<circle cx="865.772" cy="407.142" r="4" fill="#0" id="circle192"/>
	<circle cx="865.772" cy="418.466" r="4" fill="#0" id="circle193"/>
	<circle cx="871.434" cy="378.831" r="4" fill="#0" id="circle194"/>
	<circle cx="872.566" cy="134.228" r="4" fill="#0" id="circle195"/>
	<circle cx="877.096" cy="367.507" r="4" fill="#0" id="circle196"/>
	<circle cx="882.758" cy="356.183" r="4" fill="#0" id="circle197"/>
	<circle cx="883.89" cy="134.228" r="4" fill="#0" id="circle198"/>
	<circle cx="888.42" cy="344.858" r="4" fill="#0" id="circle199"/>
	<circle cx="895.215" cy="134.228" r="4" fill="#0" id="circle200"/>
	<circle cx="899.744" cy="344.858" r="4" fill="#0" id="circle201"/>
	<circle cx="906.539" cy="134.228" r="4" fill="#0" id="circle202"/>
	<circle cx="911.068" cy="344.858" r="4" fill="#0" id="circle203"/>
	<circle cx="917.863" cy="134.228" r="4" fill="#0" id="circle204"/>
	<circle cx="922.393" cy="339.196" r="4" fill="#0" id="circle205"/>
	<circle cx="929.187" cy="134.228" r="4" fill="#0" id="circle206"/>
	<circle cx="933.717" cy="333.534" r="4" fill="#0" id="circle207"/>
	<circle cx="939.379" cy="322.21" r="4" fill="#0" id="circle208"/>
	<circle cx="940.511" cy="134.228" r="4" fill="#0" id="circle209"/>
	<circle cx="945.041" cy="310.886" r="4" fill="#0" id="circle210"/>
	<circle cx="950.703" cy="139.89" r="4" fill="#0" id="circle211"/>
	<circle cx="950.703" cy="282.575" r="4" fill="#0" id="circle212"/>
	<circle cx="950.703" cy="293.9" r="4" fill="#0" id="circle213"/>
	<circle cx="956.365" cy="271.251" r="4" fill="#0" id="circle214"/>
	<circle cx="959.763" cy="146.685" r="4" fill="#0" id="circle215"/>
	<circle cx="962.027" cy="259.927" r="4" fill="#0" id="circle216"/>
	<circle cx="967.689" cy="155.744" r="4" fill="#0" id="circle217"/>
	<circle cx="971.087" cy="252" r="4" fill="#0" id="circle218"/>
	<circle cx="976.749" cy="240.676" r="4" fill="#0" id="circle219"/>
	<circle cx="979.014" cy="160.274" r="4" fill="#0" id="circle220"/>
	<circle cx="982.411" cy="229.352" r="4" fill="#0" id="circle221"/>
	<circle cx="986.941" cy="169.333" r="4" fill="#0" id="circle222"/>
	<circle cx="988.073" cy="218.027" r="4" fill="#0" id="circle223"/>
	<circle cx="990.338" cy="203.306" r="4" fill="#0" id="circle224"/>
	<circle cx="992.603" cy="179.525" r="4" fill="#0" id="circle225"/>
	<circle cx="996" cy="190.849" r="4" fill="#0" id="circle226"/>
	</g>
</svg>