<?xml version="1.0" encoding="UTF-8" standalone="no"?>
<!-- Created with CurveBenchmark -->
<svg
	xmlns:dc="http://purl.org/dc/elements/1.1/"
	xmlns:cc="http://creativecommons.org/ns#"
	xmlns:rdf="http://www.w3.org/1999/02/22-rdf-syntax-ns#"
	xmlns:svg="http://www.w3.org/2000/svg"
	xmlns="http://www.w3.org/2000/svg"
	xmlns:sodipodi="http://sodipodi.sourceforge.net/DTD/sodipodi-0.dtd"
	xmlns:inkscape="http://www.inkscape.org/namespaces/inkscape"
	width="1000"
	height="1000"
	id="svg2"
	version="1.1"
	sodipodi:docname="manifold/hnncrust-television135.png.txt">
<defs
	id="defs4" />
<metadata
	id="metadata7">
	<rdf:RDF>
		<cc:Work
			rdf:about="">
			<dc:format>image/svg+xml</dc:format>
			<dc:type
				rdf:resource="http://purl.org/dc/dcmitype/StillImage" />
			<dc:title></dc:title>
		</cc:Work>
	</rdf:RDF>
</metadata>
<g
	inkscape:label="Layer 1"
	inkscape:groupmode="layer"
	id="layer1">
	<path style="fill:none;stroke:red;stroke-width:1px;stroke-linecap:butt;stroke-linejoin:miter;stroke-opacity:1" d="M 4,845.919 4,882.524 z" id="boundary" inkscape:connector-curvature="0" />
	<path style="fill:none;stroke:red;stroke-width:1px;stroke-linecap:butt;stroke-linejoin:miter;stroke-opacity:1" d="M 4,845.919 40.6052,838.598 z" id="boundary" inkscape:connector-curvature="0" />
	<path style="fill:none;stroke:red;stroke-width:1px;stroke-linecap:butt;stroke-linejoin:miter;stroke-opacity:1" d="M 4,882.524 22.3026,915.469 z" id="boundary" inkscape:connector-curvature="0" />
	<path style="fill:none;stroke:red;stroke-width:1px;stroke-linecap:butt;stroke-linejoin:miter;stroke-opacity:1" d="M 22.3026,915.469 58.9077,930.111 z" id="boundary" inkscape:connector-curvature="0" />
	<path style="fill:none;stroke:red;stroke-width:1px;stroke-linecap:butt;stroke-linejoin:miter;stroke-opacity:1" d="M 40.6052,618.967 69.8893,644.59 z" id="boundary" inkscape:connector-curvature="0" />
	<path style="fill:none;stroke:red;stroke-width:1px;stroke-linecap:butt;stroke-linejoin:miter;stroke-opacity:1" d="M 40.6052,728.782 77.2103,728.782 z" id="boundary" inkscape:connector-curvature="0" />
	<path style="fill:none;stroke:red;stroke-width:1px;stroke-linecap:butt;stroke-linejoin:miter;stroke-opacity:1" d="M 40.6052,838.598 77.2103,838.598 z" id="boundary" inkscape:connector-curvature="0" />
	<path style="fill:none;stroke:red;stroke-width:1px;stroke-linecap:butt;stroke-linejoin:miter;stroke-opacity:1" d="M 58.9077,761.727 95.5129,761.727 z" id="boundary" inkscape:connector-curvature="0" />
	<path style="fill:none;stroke:red;stroke-width:1px;stroke-linecap:butt;stroke-linejoin:miter;stroke-opacity:1" d="M 58.9077,930.111 95.5129,915.469 z" id="boundary" inkscape:connector-curvature="0" />
	<path style="fill:none;stroke:red;stroke-width:1px;stroke-linecap:butt;stroke-linejoin:miter;stroke-opacity:1" d="M 69.8893,644.59 106.494,644.59 z" id="boundary" inkscape:connector-curvature="0" />
	<path style="fill:none;stroke:red;stroke-width:1px;stroke-linecap:butt;stroke-linejoin:miter;stroke-opacity:1" d="M 77.2103,728.782 113.815,728.782 z" id="boundary" inkscape:connector-curvature="0" />
	<path style="fill:none;stroke:red;stroke-width:1px;stroke-linecap:butt;stroke-linejoin:miter;stroke-opacity:1" d="M 77.2103,838.598 113.815,838.598 z" id="boundary" inkscape:connector-curvature="0" />
	<path style="fill:none;stroke:red;stroke-width:1px;stroke-linecap:butt;stroke-linejoin:miter;stroke-opacity:1" d="M 88.1919,611.646 124.797,611.646 z" id="boundary" inkscape:connector-curvature="0" />
	<path style="fill:none;stroke:red;stroke-width:1px;stroke-linecap:butt;stroke-linejoin:miter;stroke-opacity:1" d="M 95.5129,761.727 132.118,761.727 z" id="boundary" inkscape:connector-curvature="0" />
	<path style="fill:none;stroke:red;stroke-width:1px;stroke-linecap:butt;stroke-linejoin:miter;stroke-opacity:1" d="M 95.5129,915.469 132.118,915.469 z" id="boundary" inkscape:connector-curvature="0" />
	<path style="fill:none;stroke:red;stroke-width:1px;stroke-linecap:butt;stroke-linejoin:miter;stroke-opacity:1" d="M 106.494,644.59 143.1,644.59 z" id="boundary" inkscape:connector-curvature="0" />
	<path style="fill:none;stroke:red;stroke-width:1px;stroke-linecap:butt;stroke-linejoin:miter;stroke-opacity:1" d="M 113.815,728.782 150.421,728.782 z" id="boundary" inkscape:connector-curvature="0" />
	<path style="fill:none;stroke:red;stroke-width:1px;stroke-linecap:butt;stroke-linejoin:miter;stroke-opacity:1" d="M 113.815,838.598 150.421,838.598 z" id="boundary" inkscape:connector-curvature="0" />
	<path style="fill:none;stroke:red;stroke-width:1px;stroke-linecap:butt;stroke-linejoin:miter;stroke-opacity:1" d="M 124.797,611.646 161.402,611.646 z" id="boundary" inkscape:connector-curvature="0" />
	<path style="fill:none;stroke:red;stroke-width:1px;stroke-linecap:butt;stroke-linejoin:miter;stroke-opacity:1" d="M 132.118,761.727 168.723,761.727 z" id="boundary" inkscape:connector-curvature="0" />
	<path style="fill:none;stroke:red;stroke-width:1px;stroke-linecap:butt;stroke-linejoin:miter;stroke-opacity:1" d="M 132.118,915.469 168.723,915.469 z" id="boundary" inkscape:connector-curvature="0" />
	<path style="fill:none;stroke:red;stroke-width:1px;stroke-linecap:butt;stroke-linejoin:miter;stroke-opacity:1" d="M 143.1,644.59 179.705,644.59 z" id="boundary" inkscape:connector-curvature="0" />
	<path style="fill:none;stroke:red;stroke-width:1px;stroke-linecap:butt;stroke-linejoin:miter;stroke-opacity:1" d="M 150.421,728.782 187.026,728.782 z" id="boundary" inkscape:connector-curvature="0" />
	<path style="fill:none;stroke:red;stroke-width:1px;stroke-linecap:butt;stroke-linejoin:miter;stroke-opacity:1" d="M 150.421,838.598 187.026,838.598 z" id="boundary" inkscape:connector-curvature="0" />
	<path style="fill:none;stroke:red;stroke-width:1px;stroke-linecap:butt;stroke-linejoin:miter;stroke-opacity:1" d="M 161.402,611.646 198.007,611.646 z" id="boundary" inkscape:connector-curvature="0" />
	<path style="fill:none;stroke:red;stroke-width:1px;stroke-linecap:butt;stroke-linejoin:miter;stroke-opacity:1" d="M 168.723,761.727 205.328,761.727 z" id="boundary" inkscape:connector-curvature="0" />
	<path style="fill:none;stroke:red;stroke-width:1px;stroke-linecap:butt;stroke-linejoin:miter;stroke-opacity:1" d="M 168.723,915.469 205.328,915.469 z" id="boundary" inkscape:connector-curvature="0" />
	<path style="fill:none;stroke:red;stroke-width:1px;stroke-linecap:butt;stroke-linejoin:miter;stroke-opacity:1" d="M 179.705,644.59 216.31,644.59 z" id="boundary" inkscape:connector-curvature="0" />
	<path style="fill:none;stroke:red;stroke-width:1px;stroke-linecap:butt;stroke-linejoin:miter;stroke-opacity:1" d="M 187.026,728.782 223.631,728.782 z" id="boundary" inkscape:connector-curvature="0" />
	<path style="fill:none;stroke:red;stroke-width:1px;stroke-linecap:butt;stroke-linejoin:miter;stroke-opacity:1" d="M 187.026,838.598 223.631,838.598 z" id="boundary" inkscape:connector-curvature="0" />
	<path style="fill:none;stroke:red;stroke-width:1px;stroke-linecap:butt;stroke-linejoin:miter;stroke-opacity:1" d="M 194.347,11.321 194.347,47.9262 z" id="boundary" inkscape:connector-curvature="0" />
	<path style="fill:none;stroke:red;stroke-width:1px;stroke-linecap:butt;stroke-linejoin:miter;stroke-opacity:1" d="M 194.347,11.321 230.952,4 z" id="boundary" inkscape:connector-curvature="0" />
	<path style="fill:none;stroke:red;stroke-width:1px;stroke-linecap:butt;stroke-linejoin:miter;stroke-opacity:1" d="M 194.347,47.9262 194.347,84.5314 z" id="boundary" inkscape:connector-curvature="0" />
	<path style="fill:none;stroke:red;stroke-width:1px;stroke-linecap:butt;stroke-linejoin:miter;stroke-opacity:1" d="M 194.347,84.5314 194.347,121.137 z" id="boundary" inkscape:connector-curvature="0" />
	<path style="fill:none;stroke:red;stroke-width:1px;stroke-linecap:butt;stroke-linejoin:miter;stroke-opacity:1" d="M 194.347,121.137 194.347,157.742 z" id="boundary" inkscape:connector-curvature="0" />
	<path style="fill:none;stroke:red;stroke-width:1px;stroke-linecap:butt;stroke-linejoin:miter;stroke-opacity:1" d="M 194.347,157.742 194.347,194.347 z" id="boundary" inkscape:connector-curvature="0" />
	<path style="fill:none;stroke:red;stroke-width:1px;stroke-linecap:butt;stroke-linejoin:miter;stroke-opacity:1" d="M 194.347,194.347 194.347,230.952 z" id="boundary" inkscape:connector-curvature="0" />
	<path style="fill:none;stroke:red;stroke-width:1px;stroke-linecap:butt;stroke-linejoin:miter;stroke-opacity:1" d="M 194.347,230.952 194.347,267.557 z" id="boundary" inkscape:connector-curvature="0" />
	<path style="fill:none;stroke:red;stroke-width:1px;stroke-linecap:butt;stroke-linejoin:miter;stroke-opacity:1" d="M 194.347,267.557 194.347,304.162 z" id="boundary" inkscape:connector-curvature="0" />
	<path style="fill:none;stroke:red;stroke-width:1px;stroke-linecap:butt;stroke-linejoin:miter;stroke-opacity:1" d="M 194.347,304.162 194.347,340.768 z" id="boundary" inkscape:connector-curvature="0" />
	<path style="fill:none;stroke:red;stroke-width:1px;stroke-linecap:butt;stroke-linejoin:miter;stroke-opacity:1" d="M 194.347,340.768 194.347,377.373 z" id="boundary" inkscape:connector-curvature="0" />
	<path style="fill:none;stroke:red;stroke-width:1px;stroke-linecap:butt;stroke-linejoin:miter;stroke-opacity:1" d="M 194.347,377.373 194.347,413.978 z" id="boundary" inkscape:connector-curvature="0" />
	<path style="fill:none;stroke:red;stroke-width:1px;stroke-linecap:butt;stroke-linejoin:miter;stroke-opacity:1" d="M 194.347,413.978 194.347,450.583 z" id="boundary" inkscape:connector-curvature="0" />
	<path style="fill:none;stroke:red;stroke-width:1px;stroke-linecap:butt;stroke-linejoin:miter;stroke-opacity:1" d="M 194.347,450.583 198.007,487.188 z" id="boundary" inkscape:connector-curvature="0" />
	<path style="fill:none;stroke:red;stroke-width:1px;stroke-linecap:butt;stroke-linejoin:miter;stroke-opacity:1" d="M 198.007,487.188 234.613,490.849 z" id="boundary" inkscape:connector-curvature="0" />
	<path style="fill:none;stroke:red;stroke-width:1px;stroke-linecap:butt;stroke-linejoin:miter;stroke-opacity:1" d="M 198.007,611.646 234.613,611.646 z" id="boundary" inkscape:connector-curvature="0" />
	<path style="fill:none;stroke:red;stroke-width:1px;stroke-linecap:butt;stroke-linejoin:miter;stroke-opacity:1" d="M 205.328,761.727 241.934,761.727 z" id="boundary" inkscape:connector-curvature="0" />
	<path style="fill:none;stroke:red;stroke-width:1px;stroke-linecap:butt;stroke-linejoin:miter;stroke-opacity:1" d="M 205.328,915.469 241.934,915.469 z" id="boundary" inkscape:connector-curvature="0" />
	<path style="fill:none;stroke:red;stroke-width:1px;stroke-linecap:butt;stroke-linejoin:miter;stroke-opacity:1" d="M 216.31,644.59 252.915,644.59 z" id="boundary" inkscape:connector-curvature="0" />
	<path style="fill:none;stroke:red;stroke-width:1px;stroke-linecap:butt;stroke-linejoin:miter;stroke-opacity:1" d="M 223.631,728.782 260.236,728.782 z" id="boundary" inkscape:connector-curvature="0" />
	<path style="fill:none;stroke:red;stroke-width:1px;stroke-linecap:butt;stroke-linejoin:miter;stroke-opacity:1" d="M 223.631,838.598 260.236,838.598 z" id="boundary" inkscape:connector-curvature="0" />
	<path style="fill:none;stroke:red;stroke-width:1px;stroke-linecap:butt;stroke-linejoin:miter;stroke-opacity:1" d="M 230.952,4 267.557,4 z" id="boundary" inkscape:connector-curvature="0" />
	<path style="fill:none;stroke:red;stroke-width:1px;stroke-linecap:butt;stroke-linejoin:miter;stroke-opacity:1" d="M 234.613,490.849 271.218,490.849 z" id="boundary" inkscape:connector-curvature="0" />
	<path style="fill:none;stroke:red;stroke-width:1px;stroke-linecap:butt;stroke-linejoin:miter;stroke-opacity:1" d="M 234.613,611.646 271.218,611.646 z" id="boundary" inkscape:connector-curvature="0" />
	<path style="fill:none;stroke:red;stroke-width:1px;stroke-linecap:butt;stroke-linejoin:miter;stroke-opacity:1" d="M 241.934,761.727 278.539,761.727 z" id="boundary" inkscape:connector-curvature="0" />
	<path style="fill:none;stroke:red;stroke-width:1px;stroke-linecap:butt;stroke-linejoin:miter;stroke-opacity:1" d="M 241.934,915.469 278.539,915.469 z" id="boundary" inkscape:connector-curvature="0" />
	<path style="fill:none;stroke:red;stroke-width:1px;stroke-linecap:butt;stroke-linejoin:miter;stroke-opacity:1" d="M 252.915,644.59 289.52,644.59 z" id="boundary" inkscape:connector-curvature="0" />
	<path style="fill:none;stroke:red;stroke-width:1px;stroke-linecap:butt;stroke-linejoin:miter;stroke-opacity:1" d="M 260.236,728.782 296.841,728.782 z" id="boundary" inkscape:connector-curvature="0" />
	<path style="fill:none;stroke:red;stroke-width:1px;stroke-linecap:butt;stroke-linejoin:miter;stroke-opacity:1" d="M 260.236,838.598 289.52,860.561 z" id="boundary" inkscape:connector-curvature="0" />
	<path style="fill:none;stroke:red;stroke-width:1px;stroke-linecap:butt;stroke-linejoin:miter;stroke-opacity:1" d="M 267.557,4 304.162,4 z" id="boundary" inkscape:connector-curvature="0" />
	<path style="fill:none;stroke:red;stroke-width:1px;stroke-linecap:butt;stroke-linejoin:miter;stroke-opacity:1" d="M 271.218,490.849 307.823,490.849 z" id="boundary" inkscape:connector-curvature="0" />
	<path style="fill:none;stroke:red;stroke-width:1px;stroke-linecap:butt;stroke-linejoin:miter;stroke-opacity:1" d="M 271.218,611.646 307.823,611.646 z" id="boundary" inkscape:connector-curvature="0" />
	<path style="fill:none;stroke:red;stroke-width:1px;stroke-linecap:butt;stroke-linejoin:miter;stroke-opacity:1" d="M 278.539,761.727 315.144,761.727 z" id="boundary" inkscape:connector-curvature="0" />
	<path style="fill:none;stroke:red;stroke-width:1px;stroke-linecap:butt;stroke-linejoin:miter;stroke-opacity:1" d="M 278.539,915.469 315.144,915.469 z" id="boundary" inkscape:connector-curvature="0" />
	<path style="fill:none;stroke:red;stroke-width:1px;stroke-linecap:butt;stroke-linejoin:miter;stroke-opacity:1" d="M 289.52,644.59 326.125,644.59 z" id="boundary" inkscape:connector-curvature="0" />
	<path style="fill:none;stroke:red;stroke-width:1px;stroke-linecap:butt;stroke-linejoin:miter;stroke-opacity:1" d="M 289.52,860.561 318.804,838.598 z" id="boundary" inkscape:connector-curvature="0" />
	<path style="fill:none;stroke:red;stroke-width:1px;stroke-linecap:butt;stroke-linejoin:miter;stroke-opacity:1" d="M 296.841,728.782 333.446,728.782 z" id="boundary" inkscape:connector-curvature="0" />
	<path style="fill:none;stroke:red;stroke-width:1px;stroke-linecap:butt;stroke-linejoin:miter;stroke-opacity:1" d="M 304.162,4 340.768,4 z" id="boundary" inkscape:connector-curvature="0" />
	<path style="fill:none;stroke:red;stroke-width:1px;stroke-linecap:butt;stroke-linejoin:miter;stroke-opacity:1" d="M 307.823,490.849 344.428,490.849 z" id="boundary" inkscape:connector-curvature="0" />
	<path style="fill:none;stroke:red;stroke-width:1px;stroke-linecap:butt;stroke-linejoin:miter;stroke-opacity:1" d="M 307.823,611.646 344.428,611.646 z" id="boundary" inkscape:connector-curvature="0" />
	<path style="fill:none;stroke:red;stroke-width:1px;stroke-linecap:butt;stroke-linejoin:miter;stroke-opacity:1" d="M 315.144,761.727 351.749,761.727 z" id="boundary" inkscape:connector-curvature="0" />
	<path style="fill:none;stroke:red;stroke-width:1px;stroke-linecap:butt;stroke-linejoin:miter;stroke-opacity:1" d="M 315.144,915.469 351.749,915.469 z" id="boundary" inkscape:connector-curvature="0" />
	<path style="fill:none;stroke:red;stroke-width:1px;stroke-linecap:butt;stroke-linejoin:miter;stroke-opacity:1" d="M 318.804,838.598 348.089,860.561 z" id="boundary" inkscape:connector-curvature="0" />
	<path style="fill:none;stroke:red;stroke-width:1px;stroke-linecap:butt;stroke-linejoin:miter;stroke-opacity:1" d="M 326.125,644.59 362.731,644.59 z" id="boundary" inkscape:connector-curvature="0" />
	<path style="fill:none;stroke:red;stroke-width:1px;stroke-linecap:butt;stroke-linejoin:miter;stroke-opacity:1" d="M 333.446,728.782 370.052,728.782 z" id="boundary" inkscape:connector-curvature="0" />
	<path style="fill:none;stroke:red;stroke-width:1px;stroke-linecap:butt;stroke-linejoin:miter;stroke-opacity:1" d="M 340.768,4 377.373,4 z" id="boundary" inkscape:connector-curvature="0" />
	<path style="fill:none;stroke:red;stroke-width:1px;stroke-linecap:butt;stroke-linejoin:miter;stroke-opacity:1" d="M 344.428,490.849 381.033,490.849 z" id="boundary" inkscape:connector-curvature="0" />
	<path style="fill:none;stroke:red;stroke-width:1px;stroke-linecap:butt;stroke-linejoin:miter;stroke-opacity:1" d="M 344.428,611.646 381.033,611.646 z" id="boundary" inkscape:connector-curvature="0" />
	<path style="fill:none;stroke:red;stroke-width:1px;stroke-linecap:butt;stroke-linejoin:miter;stroke-opacity:1" d="M 348.089,860.561 377.373,838.598 z" id="boundary" inkscape:connector-curvature="0" />
	<path style="fill:none;stroke:red;stroke-width:1px;stroke-linecap:butt;stroke-linejoin:miter;stroke-opacity:1" d="M 351.749,761.727 388.354,761.727 z" id="boundary" inkscape:connector-curvature="0" />
	<path style="fill:none;stroke:red;stroke-width:1px;stroke-linecap:butt;stroke-linejoin:miter;stroke-opacity:1" d="M 351.749,915.469 388.354,915.469 z" id="boundary" inkscape:connector-curvature="0" />
	<path style="fill:none;stroke:red;stroke-width:1px;stroke-linecap:butt;stroke-linejoin:miter;stroke-opacity:1" d="M 362.731,644.59 399.336,644.59 z" id="boundary" inkscape:connector-curvature="0" />
	<path style="fill:none;stroke:red;stroke-width:1px;stroke-linecap:butt;stroke-linejoin:miter;stroke-opacity:1" d="M 370.052,728.782 406.657,728.782 z" id="boundary" inkscape:connector-curvature="0" />
	<path style="fill:none;stroke:red;stroke-width:1px;stroke-linecap:butt;stroke-linejoin:miter;stroke-opacity:1" d="M 377.373,4 413.978,4 z" id="boundary" inkscape:connector-curvature="0" />
	<path style="fill:none;stroke:red;stroke-width:1px;stroke-linecap:butt;stroke-linejoin:miter;stroke-opacity:1" d="M 377.373,838.598 406.657,860.561 z" id="boundary" inkscape:connector-curvature="0" />
	<path style="fill:none;stroke:red;stroke-width:1px;stroke-linecap:butt;stroke-linejoin:miter;stroke-opacity:1" d="M 381.033,490.849 417.638,490.849 z" id="boundary" inkscape:connector-curvature="0" />
	<path style="fill:none;stroke:red;stroke-width:1px;stroke-linecap:butt;stroke-linejoin:miter;stroke-opacity:1" d="M 381.033,611.646 417.638,611.646 z" id="boundary" inkscape:connector-curvature="0" />
	<path style="fill:none;stroke:red;stroke-width:1px;stroke-linecap:butt;stroke-linejoin:miter;stroke-opacity:1" d="M 388.354,761.727 424.959,761.727 z" id="boundary" inkscape:connector-curvature="0" />
	<path style="fill:none;stroke:red;stroke-width:1px;stroke-linecap:butt;stroke-linejoin:miter;stroke-opacity:1" d="M 388.354,915.469 424.959,915.469 z" id="boundary" inkscape:connector-curvature="0" />
	<path style="fill:none;stroke:red;stroke-width:1px;stroke-linecap:butt;stroke-linejoin:miter;stroke-opacity:1" d="M 399.336,644.59 435.941,644.59 z" id="boundary" inkscape:connector-curvature="0" />
	<path style="fill:none;stroke:red;stroke-width:1px;stroke-linecap:butt;stroke-linejoin:miter;stroke-opacity:1" d="M 406.657,728.782 443.262,728.782 z" id="boundary" inkscape:connector-curvature="0" />
	<path style="fill:none;stroke:red;stroke-width:1px;stroke-linecap:butt;stroke-linejoin:miter;stroke-opacity:1" d="M 406.657,860.561 435.941,838.598 z" id="boundary" inkscape:connector-curvature="0" />
	<path style="fill:none;stroke:red;stroke-width:1px;stroke-linecap:butt;stroke-linejoin:miter;stroke-opacity:1" d="M 413.978,4 450.583,4 z" id="boundary" inkscape:connector-curvature="0" />
	<path style="fill:none;stroke:red;stroke-width:1px;stroke-linecap:butt;stroke-linejoin:miter;stroke-opacity:1" d="M 417.638,490.849 454.244,490.849 z" id="boundary" inkscape:connector-curvature="0" />
	<path style="fill:none;stroke:red;stroke-width:1px;stroke-linecap:butt;stroke-linejoin:miter;stroke-opacity:1" d="M 417.638,611.646 454.244,607.985 z" id="boundary" inkscape:connector-curvature="0" />
	<path style="fill:none;stroke:red;stroke-width:1px;stroke-linecap:butt;stroke-linejoin:miter;stroke-opacity:1" d="M 424.959,761.727 457.904,780.03 z" id="boundary" inkscape:connector-curvature="0" />
	<path style="fill:none;stroke:red;stroke-width:1px;stroke-linecap:butt;stroke-linejoin:miter;stroke-opacity:1" d="M 424.959,915.469 461.565,915.469 z" id="boundary" inkscape:connector-curvature="0" />
	<path style="fill:none;stroke:red;stroke-width:1px;stroke-linecap:butt;stroke-linejoin:miter;stroke-opacity:1" d="M 435.941,644.59 457.904,673.875 z" id="boundary" inkscape:connector-curvature="0" />
	<path style="fill:none;stroke:red;stroke-width:1px;stroke-linecap:butt;stroke-linejoin:miter;stroke-opacity:1" d="M 435.941,838.598 457.904,780.03 z" id="boundary" inkscape:connector-curvature="0" />
	<path style="fill:none;stroke:red;stroke-width:1px;stroke-linecap:butt;stroke-linejoin:miter;stroke-opacity:1" d="M 450.583,4 487.188,4 z" id="boundary" inkscape:connector-curvature="0" />
	<path style="fill:none;stroke:red;stroke-width:1px;stroke-linecap:butt;stroke-linejoin:miter;stroke-opacity:1" d="M 454.244,490.849 457.904,527.454 z" id="boundary" inkscape:connector-curvature="0" />
	<path style="fill:none;stroke:red;stroke-width:1px;stroke-linecap:butt;stroke-linejoin:miter;stroke-opacity:1" d="M 454.244,607.985 457.904,564.059 z" id="boundary" inkscape:connector-curvature="0" />
	<path style="fill:none;stroke:red;stroke-width:1px;stroke-linecap:butt;stroke-linejoin:miter;stroke-opacity:1" d="M 457.904,527.454 457.904,564.059 z" id="boundary" inkscape:connector-curvature="0" />
	<path style="fill:none;stroke:red;stroke-width:1px;stroke-linecap:butt;stroke-linejoin:miter;stroke-opacity:1" d="M 461.565,915.469 498.17,915.469 z" id="boundary" inkscape:connector-curvature="0" />
	<path style="fill:none;stroke:red;stroke-width:1px;stroke-linecap:butt;stroke-linejoin:miter;stroke-opacity:1" d="M 487.188,4 523.793,4 z" id="boundary" inkscape:connector-curvature="0" />
	<path style="fill:none;stroke:red;stroke-width:1px;stroke-linecap:butt;stroke-linejoin:miter;stroke-opacity:1" d="M 498.17,915.469 534.775,915.469 z" id="boundary" inkscape:connector-curvature="0" />
	<path style="fill:none;stroke:red;stroke-width:1px;stroke-linecap:butt;stroke-linejoin:miter;stroke-opacity:1" d="M 523.793,4 560.399,4 z" id="boundary" inkscape:connector-curvature="0" />
	<path style="fill:none;stroke:red;stroke-width:1px;stroke-linecap:butt;stroke-linejoin:miter;stroke-opacity:1" d="M 534.775,915.469 571.38,915.469 z" id="boundary" inkscape:connector-curvature="0" />
	<path style="fill:none;stroke:red;stroke-width:1px;stroke-linecap:butt;stroke-linejoin:miter;stroke-opacity:1" d="M 560.399,4 597.004,4 z" id="boundary" inkscape:connector-curvature="0" />
	<path style="fill:none;stroke:red;stroke-width:1px;stroke-linecap:butt;stroke-linejoin:miter;stroke-opacity:1" d="M 571.38,915.469 607.985,915.469 z" id="boundary" inkscape:connector-curvature="0" />
	<path style="fill:none;stroke:red;stroke-width:1px;stroke-linecap:butt;stroke-linejoin:miter;stroke-opacity:1" d="M 597.004,4 633.609,4 z" id="boundary" inkscape:connector-curvature="0" />
	<path style="fill:none;stroke:red;stroke-width:1px;stroke-linecap:butt;stroke-linejoin:miter;stroke-opacity:1" d="M 607.985,915.469 644.59,915.469 z" id="boundary" inkscape:connector-curvature="0" />
	<path style="fill:none;stroke:red;stroke-width:1px;stroke-linecap:butt;stroke-linejoin:miter;stroke-opacity:1" d="M 633.609,4 670.214,4 z" id="boundary" inkscape:connector-curvature="0" />
	<path style="fill:none;stroke:red;stroke-width:1px;stroke-linecap:butt;stroke-linejoin:miter;stroke-opacity:1" d="M 644.59,915.469 681.196,915.469 z" id="boundary" inkscape:connector-curvature="0" />
	<path style="fill:none;stroke:red;stroke-width:1px;stroke-linecap:butt;stroke-linejoin:miter;stroke-opacity:1" d="M 651.911,494.509 651.911,531.114 z" id="boundary" inkscape:connector-curvature="0" />
	<path style="fill:none;stroke:red;stroke-width:1px;stroke-linecap:butt;stroke-linejoin:miter;stroke-opacity:1" d="M 651.911,494.509 688.517,490.849 z" id="boundary" inkscape:connector-curvature="0" />
	<path style="fill:none;stroke:red;stroke-width:1px;stroke-linecap:butt;stroke-linejoin:miter;stroke-opacity:1" d="M 651.911,531.114 651.911,567.72 z" id="boundary" inkscape:connector-curvature="0" />
	<path style="fill:none;stroke:red;stroke-width:1px;stroke-linecap:butt;stroke-linejoin:miter;stroke-opacity:1" d="M 651.911,567.72 651.911,604.325 z" id="boundary" inkscape:connector-curvature="0" />
	<path style="fill:none;stroke:red;stroke-width:1px;stroke-linecap:butt;stroke-linejoin:miter;stroke-opacity:1" d="M 651.911,604.325 688.517,611.646 z" id="boundary" inkscape:connector-curvature="0" />
	<path style="fill:none;stroke:red;stroke-width:1px;stroke-linecap:butt;stroke-linejoin:miter;stroke-opacity:1" d="M 651.911,648.251 651.911,684.856 z" id="boundary" inkscape:connector-curvature="0" />
	<path style="fill:none;stroke:red;stroke-width:1px;stroke-linecap:butt;stroke-linejoin:miter;stroke-opacity:1" d="M 651.911,684.856 651.911,721.461 z" id="boundary" inkscape:connector-curvature="0" />
	<path style="fill:none;stroke:red;stroke-width:1px;stroke-linecap:butt;stroke-linejoin:miter;stroke-opacity:1" d="M 651.911,721.461 688.517,728.782 z" id="boundary" inkscape:connector-curvature="0" />
	<path style="fill:none;stroke:red;stroke-width:1px;stroke-linecap:butt;stroke-linejoin:miter;stroke-opacity:1" d="M 651.911,765.387 651.911,801.993 z" id="boundary" inkscape:connector-curvature="0" />
	<path style="fill:none;stroke:red;stroke-width:1px;stroke-linecap:butt;stroke-linejoin:miter;stroke-opacity:1" d="M 651.911,801.993 655.572,838.598 z" id="boundary" inkscape:connector-curvature="0" />
	<path style="fill:none;stroke:red;stroke-width:1px;stroke-linecap:butt;stroke-linejoin:miter;stroke-opacity:1" d="M 655.572,838.598 684.856,860.561 z" id="boundary" inkscape:connector-curvature="0" />
	<path style="fill:none;stroke:red;stroke-width:1px;stroke-linecap:butt;stroke-linejoin:miter;stroke-opacity:1" d="M 670.214,4 706.819,4 z" id="boundary" inkscape:connector-curvature="0" />
	<path style="fill:none;stroke:red;stroke-width:1px;stroke-linecap:butt;stroke-linejoin:miter;stroke-opacity:1" d="M 681.196,915.469 717.801,915.469 z" id="boundary" inkscape:connector-curvature="0" />
	<path style="fill:none;stroke:red;stroke-width:1px;stroke-linecap:butt;stroke-linejoin:miter;stroke-opacity:1" d="M 684.856,860.561 714.14,838.598 z" id="boundary" inkscape:connector-curvature="0" />
	<path style="fill:none;stroke:red;stroke-width:1px;stroke-linecap:butt;stroke-linejoin:miter;stroke-opacity:1" d="M 688.517,490.849 725.122,490.849 z" id="boundary" inkscape:connector-curvature="0" />
	<path style="fill:none;stroke:red;stroke-width:1px;stroke-linecap:butt;stroke-linejoin:miter;stroke-opacity:1" d="M 688.517,611.646 725.122,611.646 z" id="boundary" inkscape:connector-curvature="0" />
	<path style="fill:none;stroke:red;stroke-width:1px;stroke-linecap:butt;stroke-linejoin:miter;stroke-opacity:1" d="M 688.517,728.782 725.122,728.782 z" id="boundary" inkscape:connector-curvature="0" />
	<path style="fill:none;stroke:red;stroke-width:1px;stroke-linecap:butt;stroke-linejoin:miter;stroke-opacity:1" d="M 706.819,4 743.424,4 z" id="boundary" inkscape:connector-curvature="0" />
	<path style="fill:none;stroke:red;stroke-width:1px;stroke-linecap:butt;stroke-linejoin:miter;stroke-opacity:1" d="M 706.819,644.59 743.424,644.59 z" id="boundary" inkscape:connector-curvature="0" />
	<path style="fill:none;stroke:red;stroke-width:1px;stroke-linecap:butt;stroke-linejoin:miter;stroke-opacity:1" d="M 706.819,761.727 743.424,761.727 z" id="boundary" inkscape:connector-curvature="0" />
	<path style="fill:none;stroke:red;stroke-width:1px;stroke-linecap:butt;stroke-linejoin:miter;stroke-opacity:1" d="M 714.14,838.598 750.745,838.598 z" id="boundary" inkscape:connector-curvature="0" />
	<path style="fill:none;stroke:red;stroke-width:1px;stroke-linecap:butt;stroke-linejoin:miter;stroke-opacity:1" d="M 717.801,915.469 754.406,930.111 z" id="boundary" inkscape:connector-curvature="0" />
	<path style="fill:none;stroke:red;stroke-width:1px;stroke-linecap:butt;stroke-linejoin:miter;stroke-opacity:1" d="M 725.122,490.849 761.727,490.849 z" id="boundary" inkscape:connector-curvature="0" />
	<path style="fill:none;stroke:red;stroke-width:1px;stroke-linecap:butt;stroke-linejoin:miter;stroke-opacity:1" d="M 725.122,611.646 761.727,611.646 z" id="boundary" inkscape:connector-curvature="0" />
	<path style="fill:none;stroke:red;stroke-width:1px;stroke-linecap:butt;stroke-linejoin:miter;stroke-opacity:1" d="M 725.122,728.782 761.727,728.782 z" id="boundary" inkscape:connector-curvature="0" />
	<path style="fill:none;stroke:red;stroke-width:1px;stroke-linecap:butt;stroke-linejoin:miter;stroke-opacity:1" d="M 743.424,4 780.03,4 z" id="boundary" inkscape:connector-curvature="0" />
	<path style="fill:none;stroke:red;stroke-width:1px;stroke-linecap:butt;stroke-linejoin:miter;stroke-opacity:1" d="M 743.424,644.59 780.03,644.59 z" id="boundary" inkscape:connector-curvature="0" />
	<path style="fill:none;stroke:red;stroke-width:1px;stroke-linecap:butt;stroke-linejoin:miter;stroke-opacity:1" d="M 743.424,761.727 780.03,761.727 z" id="boundary" inkscape:connector-curvature="0" />
	<path style="fill:none;stroke:red;stroke-width:1px;stroke-linecap:butt;stroke-linejoin:miter;stroke-opacity:1" d="M 750.745,838.598 787.351,838.598 z" id="boundary" inkscape:connector-curvature="0" />
	<path style="fill:none;stroke:red;stroke-width:1px;stroke-linecap:butt;stroke-linejoin:miter;stroke-opacity:1" d="M 754.406,930.111 791.011,915.469 z" id="boundary" inkscape:connector-curvature="0" />
	<path style="fill:none;stroke:red;stroke-width:1px;stroke-linecap:butt;stroke-linejoin:miter;stroke-opacity:1" d="M 761.727,490.849 798.332,490.849 z" id="boundary" inkscape:connector-curvature="0" />
	<path style="fill:none;stroke:red;stroke-width:1px;stroke-linecap:butt;stroke-linejoin:miter;stroke-opacity:1" d="M 761.727,611.646 798.332,611.646 z" id="boundary" inkscape:connector-curvature="0" />
	<path style="fill:none;stroke:red;stroke-width:1px;stroke-linecap:butt;stroke-linejoin:miter;stroke-opacity:1" d="M 761.727,728.782 798.332,728.782 z" id="boundary" inkscape:connector-curvature="0" />
	<path style="fill:none;stroke:red;stroke-width:1px;stroke-linecap:butt;stroke-linejoin:miter;stroke-opacity:1" d="M 780.03,4 816.635,4 z" id="boundary" inkscape:connector-curvature="0" />
	<path style="fill:none;stroke:red;stroke-width:1px;stroke-linecap:butt;stroke-linejoin:miter;stroke-opacity:1" d="M 780.03,644.59 816.635,644.59 z" id="boundary" inkscape:connector-curvature="0" />
	<path style="fill:none;stroke:red;stroke-width:1px;stroke-linecap:butt;stroke-linejoin:miter;stroke-opacity:1" d="M 780.03,761.727 816.635,761.727 z" id="boundary" inkscape:connector-curvature="0" />
	<path style="fill:none;stroke:red;stroke-width:1px;stroke-linecap:butt;stroke-linejoin:miter;stroke-opacity:1" d="M 787.351,838.598 823.956,838.598 z" id="boundary" inkscape:connector-curvature="0" />
	<path style="fill:none;stroke:red;stroke-width:1px;stroke-linecap:butt;stroke-linejoin:miter;stroke-opacity:1" d="M 791.011,915.469 827.616,915.469 z" id="boundary" inkscape:connector-curvature="0" />
	<path style="fill:none;stroke:red;stroke-width:1px;stroke-linecap:butt;stroke-linejoin:miter;stroke-opacity:1" d="M 798.332,490.849 834.937,476.207 z" id="boundary" inkscape:connector-curvature="0" />
	<path style="fill:none;stroke:red;stroke-width:1px;stroke-linecap:butt;stroke-linejoin:miter;stroke-opacity:1" d="M 798.332,611.646 834.937,611.646 z" id="boundary" inkscape:connector-curvature="0" />
	<path style="fill:none;stroke:red;stroke-width:1px;stroke-linecap:butt;stroke-linejoin:miter;stroke-opacity:1" d="M 798.332,728.782 834.937,728.782 z" id="boundary" inkscape:connector-curvature="0" />
	<path style="fill:none;stroke:red;stroke-width:1px;stroke-linecap:butt;stroke-linejoin:miter;stroke-opacity:1" d="M 816.635,4 834.937,36.9446 z" id="boundary" inkscape:connector-curvature="0" />
	<path style="fill:none;stroke:red;stroke-width:1px;stroke-linecap:butt;stroke-linejoin:miter;stroke-opacity:1" d="M 816.635,644.59 853.24,644.59 z" id="boundary" inkscape:connector-curvature="0" />
	<path style="fill:none;stroke:red;stroke-width:1px;stroke-linecap:butt;stroke-linejoin:miter;stroke-opacity:1" d="M 816.635,761.727 853.24,761.727 z" id="boundary" inkscape:connector-curvature="0" />
	<path style="fill:none;stroke:red;stroke-width:1px;stroke-linecap:butt;stroke-linejoin:miter;stroke-opacity:1" d="M 823.956,838.598 860.561,838.598 z" id="boundary" inkscape:connector-curvature="0" />
	<path style="fill:none;stroke:red;stroke-width:1px;stroke-linecap:butt;stroke-linejoin:miter;stroke-opacity:1" d="M 827.616,915.469 864.221,915.469 z" id="boundary" inkscape:connector-curvature="0" />
	<path style="fill:none;stroke:red;stroke-width:1px;stroke-linecap:butt;stroke-linejoin:miter;stroke-opacity:1" d="M 834.937,36.9446 834.937,73.5498 z" id="boundary" inkscape:connector-curvature="0" />
	<path style="fill:none;stroke:red;stroke-width:1px;stroke-linecap:butt;stroke-linejoin:miter;stroke-opacity:1" d="M 834.937,73.5498 834.937,110.155 z" id="boundary" inkscape:connector-curvature="0" />
	<path style="fill:none;stroke:red;stroke-width:1px;stroke-linecap:butt;stroke-linejoin:miter;stroke-opacity:1" d="M 834.937,110.155 834.937,146.76 z" id="boundary" inkscape:connector-curvature="0" />
	<path style="fill:none;stroke:red;stroke-width:1px;stroke-linecap:butt;stroke-linejoin:miter;stroke-opacity:1" d="M 834.937,146.76 834.937,183.365 z" id="boundary" inkscape:connector-curvature="0" />
	<path style="fill:none;stroke:red;stroke-width:1px;stroke-linecap:butt;stroke-linejoin:miter;stroke-opacity:1" d="M 834.937,183.365 834.937,219.97 z" id="boundary" inkscape:connector-curvature="0" />
	<path style="fill:none;stroke:red;stroke-width:1px;stroke-linecap:butt;stroke-linejoin:miter;stroke-opacity:1" d="M 834.937,219.97 834.937,256.576 z" id="boundary" inkscape:connector-curvature="0" />
	<path style="fill:none;stroke:red;stroke-width:1px;stroke-linecap:butt;stroke-linejoin:miter;stroke-opacity:1" d="M 834.937,256.576 834.937,293.181 z" id="boundary" inkscape:connector-curvature="0" />
	<path style="fill:none;stroke:red;stroke-width:1px;stroke-linecap:butt;stroke-linejoin:miter;stroke-opacity:1" d="M 834.937,293.181 834.937,329.786 z" id="boundary" inkscape:connector-curvature="0" />
	<path style="fill:none;stroke:red;stroke-width:1px;stroke-linecap:butt;stroke-linejoin:miter;stroke-opacity:1" d="M 834.937,329.786 834.937,366.391 z" id="boundary" inkscape:connector-curvature="0" />
	<path style="fill:none;stroke:red;stroke-width:1px;stroke-linecap:butt;stroke-linejoin:miter;stroke-opacity:1" d="M 834.937,366.391 834.937,402.996 z" id="boundary" inkscape:connector-curvature="0" />
	<path style="fill:none;stroke:red;stroke-width:1px;stroke-linecap:butt;stroke-linejoin:miter;stroke-opacity:1" d="M 834.937,402.996 834.937,439.601 z" id="boundary" inkscape:connector-curvature="0" />
	<path style="fill:none;stroke:red;stroke-width:1px;stroke-linecap:butt;stroke-linejoin:miter;stroke-opacity:1" d="M 834.937,439.601 834.937,476.207 z" id="boundary" inkscape:connector-curvature="0" />
	<path style="fill:none;stroke:red;stroke-width:1px;stroke-linecap:butt;stroke-linejoin:miter;stroke-opacity:1" d="M 834.937,611.646 871.542,611.646 z" id="boundary" inkscape:connector-curvature="0" />
	<path style="fill:none;stroke:red;stroke-width:1px;stroke-linecap:butt;stroke-linejoin:miter;stroke-opacity:1" d="M 834.937,728.782 871.542,728.782 z" id="boundary" inkscape:connector-curvature="0" />
	<path style="fill:none;stroke:red;stroke-width:1px;stroke-linecap:butt;stroke-linejoin:miter;stroke-opacity:1" d="M 860.561,838.598 897.166,838.598 z" id="boundary" inkscape:connector-curvature="0" />
	<path style="fill:none;stroke:red;stroke-width:1px;stroke-linecap:butt;stroke-linejoin:miter;stroke-opacity:1" d="M 864.221,915.469 900.827,915.469 z" id="boundary" inkscape:connector-curvature="0" />
	<path style="fill:none;stroke:red;stroke-width:1px;stroke-linecap:butt;stroke-linejoin:miter;stroke-opacity:1" d="M 897.166,838.598 933.771,838.598 z" id="boundary" inkscape:connector-curvature="0" />
	<path style="fill:none;stroke:red;stroke-width:1px;stroke-linecap:butt;stroke-linejoin:miter;stroke-opacity:1" d="M 900.827,915.469 937.432,922.79 z" id="boundary" inkscape:connector-curvature="0" />
	<path style="fill:none;stroke:red;stroke-width:1px;stroke-linecap:butt;stroke-linejoin:miter;stroke-opacity:1" d="M 933.771,838.598 970.376,838.598 z" id="boundary" inkscape:connector-curvature="0" />
	<path style="fill:none;stroke:red;stroke-width:1px;stroke-linecap:butt;stroke-linejoin:miter;stroke-opacity:1" d="M 937.432,922.79 974.037,915.469 z" id="boundary" inkscape:connector-curvature="0" />
	<path style="fill:none;stroke:red;stroke-width:1px;stroke-linecap:butt;stroke-linejoin:miter;stroke-opacity:1" d="M 970.376,838.598 996,867.882 z" id="boundary" inkscape:connector-curvature="0" />
	<path style="fill:none;stroke:red;stroke-width:1px;stroke-linecap:butt;stroke-linejoin:miter;stroke-opacity:1" d="M 974.037,915.469 996,867.882 z" id="boundary" inkscape:connector-curvature="0" />
	<circle cx="4" cy="845.919" r="4" fill="#0" id="circle0"/>
	<circle cx="4" cy="882.524" r="4" fill="#0" id="circle1"/>
	<circle cx="22.3026" cy="915.469" r="4" fill="#0" id="circle2"/>
	<circle cx="40.6052" cy="618.967" r="4" fill="#0" id="circle3"/>
	<circle cx="40.6052" cy="728.782" r="4" fill="#0" id="circle4"/>
	<circle cx="40.6052" cy="838.598" r="4" fill="#0" id="circle5"/>
	<circle cx="58.9077" cy="761.727" r="4" fill="#0" id="circle6"/>
	<circle cx="58.9077" cy="930.111" r="4" fill="#0" id="circle7"/>
	<circle cx="69.8893" cy="644.59" r="4" fill="#0" id="circle8"/>
	<circle cx="77.2103" cy="728.782" r="4" fill="#0" id="circle9"/>
	<circle cx="77.2103" cy="838.598" r="4" fill="#0" id="circle10"/>
	<circle cx="88.1919" cy="611.646" r="4" fill="#0" id="circle11"/>
	<circle cx="95.5129" cy="761.727" r="4" fill="#0" id="circle12"/>
	<circle cx="95.5129" cy="915.469" r="4" fill="#0" id="circle13"/>
	<circle cx="106.494" cy="644.59" r="4" fill="#0" id="circle14"/>
	<circle cx="113.815" cy="728.782" r="4" fill="#0" id="circle15"/>
	<circle cx="113.815" cy="838.598" r="4" fill="#0" id="circle16"/>
	<circle cx="124.797" cy="611.646" r="4" fill="#0" id="circle17"/>
	<circle cx="132.118" cy="761.727" r="4" fill="#0" id="circle18"/>
	<circle cx="132.118" cy="915.469" r="4" fill="#0" id="circle19"/>
	<circle cx="143.1" cy="644.59" r="4" fill="#0" id="circle20"/>
	<circle cx="150.421" cy="728.782" r="4" fill="#0" id="circle21"/>
	<circle cx="150.421" cy="838.598" r="4" fill="#0" id="circle22"/>
	<circle cx="161.402" cy="611.646" r="4" fill="#0" id="circle23"/>
	<circle cx="168.723" cy="761.727" r="4" fill="#0" id="circle24"/>
	<circle cx="168.723" cy="915.469" r="4" fill="#0" id="circle25"/>
	<circle cx="179.705" cy="644.59" r="4" fill="#0" id="circle26"/>
	<circle cx="187.026" cy="728.782" r="4" fill="#0" id="circle27"/>
	<circle cx="187.026" cy="838.598" r="4" fill="#0" id="circle28"/>
	<circle cx="194.347" cy="11.321" r="4" fill="#0" id="circle29"/>
	<circle cx="194.347" cy="47.9262" r="4" fill="#0" id="circle30"/>
	<circle cx="194.347" cy="84.5314" r="4" fill="#0" id="circle31"/>
	<circle cx="194.347" cy="121.137" r="4" fill="#0" id="circle32"/>
	<circle cx="194.347" cy="157.742" r="4" fill="#0" id="circle33"/>
	<circle cx="194.347" cy="194.347" r="4" fill="#0" id="circle34"/>
	<circle cx="194.347" cy="230.952" r="4" fill="#0" id="circle35"/>
	<circle cx="194.347" cy="267.557" r="4" fill="#0" id="circle36"/>
	<circle cx="194.347" cy="304.162" r="4" fill="#0" id="circle37"/>
	<circle cx="194.347" cy="340.768" r="4" fill="#0" id="circle38"/>
	<circle cx="194.347" cy="377.373" r="4" fill="#0" id="circle39"/>
	<circle cx="194.347" cy="413.978" r="4" fill="#0" id="circle40"/>
	<circle cx="194.347" cy="450.583" r="4" fill="#0" id="circle41"/>
	<circle cx="198.007" cy="487.188" r="4" fill="#0" id="circle42"/>
	<circle cx="198.007" cy="611.646" r="4" fill="#0" id="circle43"/>
	<circle cx="205.328" cy="761.727" r="4" fill="#0" id="circle44"/>
	<circle cx="205.328" cy="915.469" r="4" fill="#0" id="circle45"/>
	<circle cx="216.31" cy="644.59" r="4" fill="#0" id="circle46"/>
	<circle cx="223.631" cy="728.782" r="4" fill="#0" id="circle47"/>
	<circle cx="223.631" cy="838.598" r="4" fill="#0" id="circle48"/>
	<circle cx="230.952" cy="4" r="4" fill="#0" id="circle49"/>
	<circle cx="234.613" cy="490.849" r="4" fill="#0" id="circle50"/>
	<circle cx="234.613" cy="611.646" r="4" fill="#0" id="circle51"/>
	<circle cx="241.934" cy="761.727" r="4" fill="#0" id="circle52"/>
	<circle cx="241.934" cy="915.469" r="4" fill="#0" id="circle53"/>
	<circle cx="252.915" cy="644.59" r="4" fill="#0" id="circle54"/>
	<circle cx="260.236" cy="728.782" r="4" fill="#0" id="circle55"/>
	<circle cx="260.236" cy="838.598" r="4" fill="#0" id="circle56"/>
	<circle cx="267.557" cy="4" r="4" fill="#0" id="circle57"/>
	<circle cx="271.218" cy="490.849" r="4" fill="#0" id="circle58"/>
	<circle cx="271.218" cy="611.646" r="4" fill="#0" id="circle59"/>
	<circle cx="278.539" cy="761.727" r="4" fill="#0" id="circle60"/>
	<circle cx="278.539" cy="915.469" r="4" fill="#0" id="circle61"/>
	<circle cx="289.52" cy="644.59" r="4" fill="#0" id="circle62"/>
	<circle cx="289.52" cy="860.561" r="4" fill="#0" id="circle63"/>
	<circle cx="296.841" cy="728.782" r="4" fill="#0" id="circle64"/>
	<circle cx="304.162" cy="4" r="4" fill="#0" id="circle65"/>
	<circle cx="307.823" cy="490.849" r="4" fill="#0" id="circle66"/>
	<circle cx="307.823" cy="611.646" r="4" fill="#0" id="circle67"/>
	<circle cx="315.144" cy="761.727" r="4" fill="#0" id="circle68"/>
	<circle cx="315.144" cy="915.469" r="4" fill="#0" id="circle69"/>
	<circle cx="318.804" cy="838.598" r="4" fill="#0" id="circle70"/>
	<circle cx="326.125" cy="644.59" r="4" fill="#0" id="circle71"/>
	<circle cx="333.446" cy="728.782" r="4" fill="#0" id="circle72"/>
	<circle cx="340.768" cy="4" r="4" fill="#0" id="circle73"/>
	<circle cx="344.428" cy="490.849" r="4" fill="#0" id="circle74"/>
	<circle cx="344.428" cy="611.646" r="4" fill="#0" id="circle75"/>
	<circle cx="348.089" cy="860.561" r="4" fill="#0" id="circle76"/>
	<circle cx="351.749" cy="761.727" r="4" fill="#0" id="circle77"/>
	<circle cx="351.749" cy="915.469" r="4" fill="#0" id="circle78"/>
	<circle cx="362.731" cy="644.59" r="4" fill="#0" id="circle79"/>
	<circle cx="370.052" cy="728.782" r="4" fill="#0" id="circle80"/>
	<circle cx="377.373" cy="4" r="4" fill="#0" id="circle81"/>
	<circle cx="377.373" cy="838.598" r="4" fill="#0" id="circle82"/>
	<circle cx="381.033" cy="490.849" r="4" fill="#0" id="circle83"/>
	<circle cx="381.033" cy="611.646" r="4" fill="#0" id="circle84"/>
	<circle cx="388.354" cy="761.727" r="4" fill="#0" id="circle85"/>
	<circle cx="388.354" cy="915.469" r="4" fill="#0" id="circle86"/>
	<circle cx="399.336" cy="644.59" r="4" fill="#0" id="circle87"/>
	<circle cx="406.657" cy="728.782" r="4" fill="#0" id="circle88"/>
	<circle cx="406.657" cy="860.561" r="4" fill="#0" id="circle89"/>
	<circle cx="413.978" cy="4" r="4" fill="#0" id="circle90"/>
	<circle cx="417.638" cy="490.849" r="4" fill="#0" id="circle91"/>
	<circle cx="417.638" cy="611.646" r="4" fill="#0" id="circle92"/>
	<circle cx="424.959" cy="761.727" r="4" fill="#0" id="circle93"/>
	<circle cx="424.959" cy="915.469" r="4" fill="#0" id="circle94"/>
	<circle cx="435.941" cy="644.59" r="4" fill="#0" id="circle95"/>
	<circle cx="435.941" cy="838.598" r="4" fill="#0" id="circle96"/>
	<circle cx="443.262" cy="728.782" r="4" fill="#0" id="circle97"/>
	<circle cx="450.583" cy="4" r="4" fill="#0" id="circle98"/>
	<circle cx="454.244" cy="490.849" r="4" fill="#0" id="circle99"/>
	<circle cx="454.244" cy="607.985" r="4" fill="#0" id="circle100"/>
	<circle cx="457.904" cy="527.454" r="4" fill="#0" id="circle101"/>
	<circle cx="457.904" cy="564.059" r="4" fill="#0" id="circle102"/>
	<circle cx="457.904" cy="673.875" r="4" fill="#0" id="circle103"/>
	<circle cx="457.904" cy="780.03" r="4" fill="#0" id="circle104"/>
	<circle cx="461.565" cy="915.469" r="4" fill="#0" id="circle105"/>
	<circle cx="487.188" cy="4" r="4" fill="#0" id="circle106"/>
	<circle cx="498.17" cy="915.469" r="4" fill="#0" id="circle107"/>
	<circle cx="523.793" cy="4" r="4" fill="#0" id="circle108"/>
	<circle cx="534.775" cy="915.469" r="4" fill="#0" id="circle109"/>
	<circle cx="560.399" cy="4" r="4" fill="#0" id="circle110"/>
	<circle cx="571.38" cy="915.469" r="4" fill="#0" id="circle111"/>
	<circle cx="597.004" cy="4" r="4" fill="#0" id="circle112"/>
	<circle cx="607.985" cy="915.469" r="4" fill="#0" id="circle113"/>
	<circle cx="633.609" cy="4" r="4" fill="#0" id="circle114"/>
	<circle cx="644.59" cy="915.469" r="4" fill="#0" id="circle115"/>
	<circle cx="651.911" cy="494.509" r="4" fill="#0" id="circle116"/>
	<circle cx="651.911" cy="531.114" r="4" fill="#0" id="circle117"/>
	<circle cx="651.911" cy="567.72" r="4" fill="#0" id="circle118"/>
	<circle cx="651.911" cy="604.325" r="4" fill="#0" id="circle119"/>
	<circle cx="651.911" cy="648.251" r="4" fill="#0" id="circle120"/>
	<circle cx="651.911" cy="684.856" r="4" fill="#0" id="circle121"/>
	<circle cx="651.911" cy="721.461" r="4" fill="#0" id="circle122"/>
	<circle cx="651.911" cy="765.387" r="4" fill="#0" id="circle123"/>
	<circle cx="651.911" cy="801.993" r="4" fill="#0" id="circle124"/>
	<circle cx="655.572" cy="838.598" r="4" fill="#0" id="circle125"/>
	<circle cx="670.214" cy="4" r="4" fill="#0" id="circle126"/>
	<circle cx="681.196" cy="915.469" r="4" fill="#0" id="circle127"/>
	<circle cx="684.856" cy="860.561" r="4" fill="#0" id="circle128"/>
	<circle cx="688.517" cy="490.849" r="4" fill="#0" id="circle129"/>
	<circle cx="688.517" cy="611.646" r="4" fill="#0" id="circle130"/>
	<circle cx="688.517" cy="728.782" r="4" fill="#0" id="circle131"/>
	<circle cx="706.819" cy="4" r="4" fill="#0" id="circle132"/>
	<circle cx="706.819" cy="644.59" r="4" fill="#0" id="circle133"/>
	<circle cx="706.819" cy="761.727" r="4" fill="#0" id="circle134"/>
	<circle cx="714.14" cy="838.598" r="4" fill="#0" id="circle135"/>
	<circle cx="717.801" cy="915.469" r="4" fill="#0" id="circle136"/>
	<circle cx="725.122" cy="490.849" r="4" fill="#0" id="circle137"/>
	<circle cx="725.122" cy="611.646" r="4" fill="#0" id="circle138"/>
	<circle cx="725.122" cy="728.782" r="4" fill="#0" id="circle139"/>
	<circle cx="743.424" cy="4" r="4" fill="#0" id="circle140"/>
	<circle cx="743.424" cy="644.59" r="4" fill="#0" id="circle141"/>
	<circle cx="743.424" cy="761.727" r="4" fill="#0" id="circle142"/>
	<circle cx="750.745" cy="838.598" r="4" fill="#0" id="circle143"/>
	<circle cx="754.406" cy="930.111" r="4" fill="#0" id="circle144"/>
	<circle cx="761.727" cy="490.849" r="4" fill="#0" id="circle145"/>
	<circle cx="761.727" cy="611.646" r="4" fill="#0" id="circle146"/>
	<circle cx="761.727" cy="728.782" r="4" fill="#0" id="circle147"/>
	<circle cx="780.03" cy="4" r="4" fill="#0" id="circle148"/>
	<circle cx="780.03" cy="644.59" r="4" fill="#0" id="circle149"/>
	<circle cx="780.03" cy="761.727" r="4" fill="#0" id="circle150"/>
	<circle cx="787.351" cy="838.598" r="4" fill="#0" id="circle151"/>
	<circle cx="791.011" cy="915.469" r="4" fill="#0" id="circle152"/>
	<circle cx="798.332" cy="490.849" r="4" fill="#0" id="circle153"/>
	<circle cx="798.332" cy="611.646" r="4" fill="#0" id="circle154"/>
	<circle cx="798.332" cy="728.782" r="4" fill="#0" id="circle155"/>
	<circle cx="816.635" cy="4" r="4" fill="#0" id="circle156"/>
	<circle cx="816.635" cy="644.59" r="4" fill="#0" id="circle157"/>
	<circle cx="816.635" cy="761.727" r="4" fill="#0" id="circle158"/>
	<circle cx="823.956" cy="838.598" r="4" fill="#0" id="circle159"/>
	<circle cx="827.616" cy="915.469" r="4" fill="#0" id="circle160"/>
	<circle cx="834.937" cy="36.9446" r="4" fill="#0" id="circle161"/>
	<circle cx="834.937" cy="73.5498" r="4" fill="#0" id="circle162"/>
	<circle cx="834.937" cy="110.155" r="4" fill="#0" id="circle163"/>
	<circle cx="834.937" cy="146.76" r="4" fill="#0" id="circle164"/>
	<circle cx="834.937" cy="183.365" r="4" fill="#0" id="circle165"/>
	<circle cx="834.937" cy="219.97" r="4" fill="#0" id="circle166"/>
	<circle cx="834.937" cy="256.576" r="4" fill="#0" id="circle167"/>
	<circle cx="834.937" cy="293.181" r="4" fill="#0" id="circle168"/>
	<circle cx="834.937" cy="329.786" r="4" fill="#0" id="circle169"/>
	<circle cx="834.937" cy="366.391" r="4" fill="#0" id="circle170"/>
	<circle cx="834.937" cy="402.996" r="4" fill="#0" id="circle171"/>
	<circle cx="834.937" cy="439.601" r="4" fill="#0" id="circle172"/>
	<circle cx="834.937" cy="476.207" r="4" fill="#0" id="circle173"/>
	<circle cx="834.937" cy="611.646" r="4" fill="#0" id="circle174"/>
	<circle cx="834.937" cy="728.782" r="4" fill="#0" id="circle175"/>
	<circle cx="853.24" cy="644.59" r="4" fill="#0" id="circle176"/>
	<circle cx="853.24" cy="761.727" r="4" fill="#0" id="circle177"/>
	<circle cx="860.561" cy="838.598" r="4" fill="#0" id="circle178"/>
	<circle cx="864.221" cy="915.469" r="4" fill="#0" id="circle179"/>
	<circle cx="871.542" cy="611.646" r="4" fill="#0" id="circle180"/>
	<circle cx="871.542" cy="728.782" r="4" fill="#0" id="circle181"/>
	<circle cx="897.166" cy="838.598" r="4" fill="#0" id="circle182"/>
	<circle cx="900.827" cy="915.469" r="4" fill="#0" id="circle183"/>
	<circle cx="933.771" cy="838.598" r="4" fill="#0" id="circle184"/>
	<circle cx="937.432" cy="922.79" r="4" fill="#0" id="circle185"/>
	<circle cx="970.376" cy="838.598" r="4" fill="#0" id="circle186"/>
	<circle cx="974.037" cy="915.469" r="4" fill="#0" id="circle187"/>
	<circle cx="996" cy="867.882" r="4" fill="#0" id="circle188"/>
	</g>
</svg>