<?xml version="1.0" encoding="UTF-8" standalone="no"?>
<!-- Created with CurveBenchmark -->
<svg
	xmlns:dc="http://purl.org/dc/elements/1.1/"
	xmlns:cc="http://creativecommons.org/ns#"
	xmlns:rdf="http://www.w3.org/1999/02/22-rdf-syntax-ns#"
	xmlns:svg="http://www.w3.org/2000/svg"
	xmlns="http://www.w3.org/2000/svg"
	xmlns:sodipodi="http://sodipodi.sourceforge.net/DTD/sodipodi-0.dtd"
	xmlns:inkscape="http://www.inkscape.org/namespaces/inkscape"
	width="1000"
	height="1000"
	id="svg2"
	version="1.1"
	sodipodi:docname="manifold/hnncrust-tool23.png.txt">
<defs
	id="defs4" />
<metadata
	id="metadata7">
	<rdf:RDF>
		<cc:Work
			rdf:about="">
			<dc:format>image/svg+xml</dc:format>
			<dc:type
				rdf:resource="http://purl.org/dc/dcmitype/StillImage" />
			<dc:title></dc:title>
		</cc:Work>
	</rdf:RDF>
</metadata>
<g
	inkscape:label="Layer 1"
	inkscape:groupmode="layer"
	id="layer1">
	<path style="fill:none;stroke:red;stroke-width:1px;stroke-linecap:butt;stroke-linejoin:miter;stroke-opacity:1" d="M 4,177.825 18.9849,204.798 z" id="boundary" inkscape:connector-curvature="0" />
	<path style="fill:none;stroke:red;stroke-width:1px;stroke-linecap:butt;stroke-linejoin:miter;stroke-opacity:1" d="M 4,177.825 27.9758,153.849 z" id="boundary" inkscape:connector-curvature="0" />
	<path style="fill:none;stroke:red;stroke-width:1px;stroke-linecap:butt;stroke-linejoin:miter;stroke-opacity:1" d="M 18.9849,204.798 18.9849,234.767 z" id="boundary" inkscape:connector-curvature="0" />
	<path style="fill:none;stroke:red;stroke-width:1px;stroke-linecap:butt;stroke-linejoin:miter;stroke-opacity:1" d="M 18.9849,234.767 39.9637,258.743 z" id="boundary" inkscape:connector-curvature="0" />
	<path style="fill:none;stroke:red;stroke-width:1px;stroke-linecap:butt;stroke-linejoin:miter;stroke-opacity:1" d="M 27.9758,153.849 54.9486,168.834 z" id="boundary" inkscape:connector-curvature="0" />
	<path style="fill:none;stroke:red;stroke-width:1px;stroke-linecap:butt;stroke-linejoin:miter;stroke-opacity:1" d="M 39.9637,258.743 63.9396,276.725 z" id="boundary" inkscape:connector-curvature="0" />
	<path style="fill:none;stroke:red;stroke-width:1px;stroke-linecap:butt;stroke-linejoin:miter;stroke-opacity:1" d="M 54.9486,168.834 81.9215,183.819 z" id="boundary" inkscape:connector-curvature="0" />
	<path style="fill:none;stroke:red;stroke-width:1px;stroke-linecap:butt;stroke-linejoin:miter;stroke-opacity:1" d="M 63.9396,276.725 90.9124,291.71 z" id="boundary" inkscape:connector-curvature="0" />
	<path style="fill:none;stroke:red;stroke-width:1px;stroke-linecap:butt;stroke-linejoin:miter;stroke-opacity:1" d="M 81.9215,183.819 111.891,183.819 z" id="boundary" inkscape:connector-curvature="0" />
	<path style="fill:none;stroke:red;stroke-width:1px;stroke-linecap:butt;stroke-linejoin:miter;stroke-opacity:1" d="M 90.9124,291.71 117.885,306.695 z" id="boundary" inkscape:connector-curvature="0" />
	<path style="fill:none;stroke:red;stroke-width:1px;stroke-linecap:butt;stroke-linejoin:miter;stroke-opacity:1" d="M 93.9094,12.9909 93.9094,42.9607 z" id="boundary" inkscape:connector-curvature="0" />
	<path style="fill:none;stroke:red;stroke-width:1px;stroke-linecap:butt;stroke-linejoin:miter;stroke-opacity:1" d="M 93.9094,12.9909 123.879,4 z" id="boundary" inkscape:connector-curvature="0" />
	<path style="fill:none;stroke:red;stroke-width:1px;stroke-linecap:butt;stroke-linejoin:miter;stroke-opacity:1" d="M 93.9094,42.9607 123.879,51.9517 z" id="boundary" inkscape:connector-curvature="0" />
	<path style="fill:none;stroke:red;stroke-width:1px;stroke-linecap:butt;stroke-linejoin:miter;stroke-opacity:1" d="M 111.891,183.819 138.864,198.804 z" id="boundary" inkscape:connector-curvature="0" />
	<path style="fill:none;stroke:red;stroke-width:1px;stroke-linecap:butt;stroke-linejoin:miter;stroke-opacity:1" d="M 117.885,306.695 147.855,306.695 z" id="boundary" inkscape:connector-curvature="0" />
	<path style="fill:none;stroke:red;stroke-width:1px;stroke-linecap:butt;stroke-linejoin:miter;stroke-opacity:1" d="M 123.879,4 153.849,4 z" id="boundary" inkscape:connector-curvature="0" />
	<path style="fill:none;stroke:red;stroke-width:1px;stroke-linecap:butt;stroke-linejoin:miter;stroke-opacity:1" d="M 123.879,51.9517 141.861,75.9275 z" id="boundary" inkscape:connector-curvature="0" />
	<path style="fill:none;stroke:red;stroke-width:1px;stroke-linecap:butt;stroke-linejoin:miter;stroke-opacity:1" d="M 138.864,198.804 156.846,174.828 z" id="boundary" inkscape:connector-curvature="0" />
	<path style="fill:none;stroke:red;stroke-width:1px;stroke-linecap:butt;stroke-linejoin:miter;stroke-opacity:1" d="M 141.861,75.9275 165.837,96.9063 z" id="boundary" inkscape:connector-curvature="0" />
	<path style="fill:none;stroke:red;stroke-width:1px;stroke-linecap:butt;stroke-linejoin:miter;stroke-opacity:1" d="M 147.855,306.695 177.825,318.683 z" id="boundary" inkscape:connector-curvature="0" />
	<path style="fill:none;stroke:red;stroke-width:1px;stroke-linecap:butt;stroke-linejoin:miter;stroke-opacity:1" d="M 153.849,4 183.819,4 z" id="boundary" inkscape:connector-curvature="0" />
	<path style="fill:none;stroke:red;stroke-width:1px;stroke-linecap:butt;stroke-linejoin:miter;stroke-opacity:1" d="M 156.846,174.828 180.822,153.849 z" id="boundary" inkscape:connector-curvature="0" />
	<path style="fill:none;stroke:red;stroke-width:1px;stroke-linecap:butt;stroke-linejoin:miter;stroke-opacity:1" d="M 165.837,96.9063 183.819,120.882 z" id="boundary" inkscape:connector-curvature="0" />
	<path style="fill:none;stroke:red;stroke-width:1px;stroke-linecap:butt;stroke-linejoin:miter;stroke-opacity:1" d="M 177.825,318.683 207.795,321.68 z" id="boundary" inkscape:connector-curvature="0" />
	<path style="fill:none;stroke:red;stroke-width:1px;stroke-linecap:butt;stroke-linejoin:miter;stroke-opacity:1" d="M 180.822,153.849 183.819,120.882 z" id="boundary" inkscape:connector-curvature="0" />
	<path style="fill:none;stroke:red;stroke-width:1px;stroke-linecap:butt;stroke-linejoin:miter;stroke-opacity:1" d="M 183.819,4 213.789,9.99396 z" id="boundary" inkscape:connector-curvature="0" />
	<path style="fill:none;stroke:red;stroke-width:1px;stroke-linecap:butt;stroke-linejoin:miter;stroke-opacity:1" d="M 207.795,321.68 234.767,336.665 z" id="boundary" inkscape:connector-curvature="0" />
	<path style="fill:none;stroke:red;stroke-width:1px;stroke-linecap:butt;stroke-linejoin:miter;stroke-opacity:1" d="M 213.789,9.99396 240.761,24.9789 z" id="boundary" inkscape:connector-curvature="0" />
	<path style="fill:none;stroke:red;stroke-width:1px;stroke-linecap:butt;stroke-linejoin:miter;stroke-opacity:1" d="M 234.767,336.665 258.743,354.647 z" id="boundary" inkscape:connector-curvature="0" />
	<path style="fill:none;stroke:red;stroke-width:1px;stroke-linecap:butt;stroke-linejoin:miter;stroke-opacity:1" d="M 240.761,24.9789 255.746,51.9517 z" id="boundary" inkscape:connector-curvature="0" />
	<path style="fill:none;stroke:red;stroke-width:1px;stroke-linecap:butt;stroke-linejoin:miter;stroke-opacity:1" d="M 255.746,51.9517 276.725,75.9275 z" id="boundary" inkscape:connector-curvature="0" />
	<path style="fill:none;stroke:red;stroke-width:1px;stroke-linecap:butt;stroke-linejoin:miter;stroke-opacity:1" d="M 258.743,354.647 288.713,366.634 z" id="boundary" inkscape:connector-curvature="0" />
	<path style="fill:none;stroke:red;stroke-width:1px;stroke-linecap:butt;stroke-linejoin:miter;stroke-opacity:1" d="M 276.725,75.9275 276.725,105.897 z" id="boundary" inkscape:connector-curvature="0" />
	<path style="fill:none;stroke:red;stroke-width:1px;stroke-linecap:butt;stroke-linejoin:miter;stroke-opacity:1" d="M 276.725,105.897 291.71,132.87 z" id="boundary" inkscape:connector-curvature="0" />
	<path style="fill:none;stroke:red;stroke-width:1px;stroke-linecap:butt;stroke-linejoin:miter;stroke-opacity:1" d="M 288.713,366.634 306.695,390.61 z" id="boundary" inkscape:connector-curvature="0" />
	<path style="fill:none;stroke:red;stroke-width:1px;stroke-linecap:butt;stroke-linejoin:miter;stroke-opacity:1" d="M 291.71,132.87 291.71,162.84 z" id="boundary" inkscape:connector-curvature="0" />
	<path style="fill:none;stroke:red;stroke-width:1px;stroke-linecap:butt;stroke-linejoin:miter;stroke-opacity:1" d="M 291.71,162.84 291.71,192.81 z" id="boundary" inkscape:connector-curvature="0" />
	<path style="fill:none;stroke:red;stroke-width:1px;stroke-linecap:butt;stroke-linejoin:miter;stroke-opacity:1" d="M 291.71,192.81 303.698,222.779 z" id="boundary" inkscape:connector-curvature="0" />
	<path style="fill:none;stroke:red;stroke-width:1px;stroke-linecap:butt;stroke-linejoin:miter;stroke-opacity:1" d="M 303.698,222.779 327.674,243.758 z" id="boundary" inkscape:connector-curvature="0" />
	<path style="fill:none;stroke:red;stroke-width:1px;stroke-linecap:butt;stroke-linejoin:miter;stroke-opacity:1" d="M 306.695,390.61 330.671,411.589 z" id="boundary" inkscape:connector-curvature="0" />
	<path style="fill:none;stroke:red;stroke-width:1px;stroke-linecap:butt;stroke-linejoin:miter;stroke-opacity:1" d="M 327.674,243.758 351.65,261.74 z" id="boundary" inkscape:connector-curvature="0" />
	<path style="fill:none;stroke:red;stroke-width:1px;stroke-linecap:butt;stroke-linejoin:miter;stroke-opacity:1" d="M 330.671,411.589 348.653,435.565 z" id="boundary" inkscape:connector-curvature="0" />
	<path style="fill:none;stroke:red;stroke-width:1px;stroke-linecap:butt;stroke-linejoin:miter;stroke-opacity:1" d="M 348.653,435.565 363.637,462.538 z" id="boundary" inkscape:connector-curvature="0" />
	<path style="fill:none;stroke:red;stroke-width:1px;stroke-linecap:butt;stroke-linejoin:miter;stroke-opacity:1" d="M 351.65,261.74 366.634,288.713 z" id="boundary" inkscape:connector-curvature="0" />
	<path style="fill:none;stroke:red;stroke-width:1px;stroke-linecap:butt;stroke-linejoin:miter;stroke-opacity:1" d="M 363.637,462.538 393.607,471.529 z" id="boundary" inkscape:connector-curvature="0" />
	<path style="fill:none;stroke:red;stroke-width:1px;stroke-linecap:butt;stroke-linejoin:miter;stroke-opacity:1" d="M 366.634,288.713 390.61,306.695 z" id="boundary" inkscape:connector-curvature="0" />
	<path style="fill:none;stroke:red;stroke-width:1px;stroke-linecap:butt;stroke-linejoin:miter;stroke-opacity:1" d="M 390.61,306.695 411.589,330.671 z" id="boundary" inkscape:connector-curvature="0" />
	<path style="fill:none;stroke:red;stroke-width:1px;stroke-linecap:butt;stroke-linejoin:miter;stroke-opacity:1" d="M 393.607,471.529 411.589,495.505 z" id="boundary" inkscape:connector-curvature="0" />
	<path style="fill:none;stroke:red;stroke-width:1px;stroke-linecap:butt;stroke-linejoin:miter;stroke-opacity:1" d="M 411.589,330.671 441.559,342.659 z" id="boundary" inkscape:connector-curvature="0" />
	<path style="fill:none;stroke:red;stroke-width:1px;stroke-linecap:butt;stroke-linejoin:miter;stroke-opacity:1" d="M 411.589,495.505 435.565,516.483 z" id="boundary" inkscape:connector-curvature="0" />
	<path style="fill:none;stroke:red;stroke-width:1px;stroke-linecap:butt;stroke-linejoin:miter;stroke-opacity:1" d="M 435.565,516.483 453.547,540.459 z" id="boundary" inkscape:connector-curvature="0" />
	<path style="fill:none;stroke:red;stroke-width:1px;stroke-linecap:butt;stroke-linejoin:miter;stroke-opacity:1" d="M 441.559,342.659 462.538,366.634 z" id="boundary" inkscape:connector-curvature="0" />
	<path style="fill:none;stroke:red;stroke-width:1px;stroke-linecap:butt;stroke-linejoin:miter;stroke-opacity:1" d="M 453.547,540.459 468.532,567.432 z" id="boundary" inkscape:connector-curvature="0" />
	<path style="fill:none;stroke:red;stroke-width:1px;stroke-linecap:butt;stroke-linejoin:miter;stroke-opacity:1" d="M 462.538,366.634 486.514,387.613 z" id="boundary" inkscape:connector-curvature="0" />
	<path style="fill:none;stroke:red;stroke-width:1px;stroke-linecap:butt;stroke-linejoin:miter;stroke-opacity:1" d="M 468.532,567.432 498.502,576.423 z" id="boundary" inkscape:connector-curvature="0" />
	<path style="fill:none;stroke:red;stroke-width:1px;stroke-linecap:butt;stroke-linejoin:miter;stroke-opacity:1" d="M 486.514,387.613 507.492,411.589 z" id="boundary" inkscape:connector-curvature="0" />
	<path style="fill:none;stroke:red;stroke-width:1px;stroke-linecap:butt;stroke-linejoin:miter;stroke-opacity:1" d="M 498.502,576.423 525.474,591.408 z" id="boundary" inkscape:connector-curvature="0" />
	<path style="fill:none;stroke:red;stroke-width:1px;stroke-linecap:butt;stroke-linejoin:miter;stroke-opacity:1" d="M 507.492,411.589 531.468,432.568 z" id="boundary" inkscape:connector-curvature="0" />
	<path style="fill:none;stroke:red;stroke-width:1px;stroke-linecap:butt;stroke-linejoin:miter;stroke-opacity:1" d="M 525.474,591.408 546.453,615.384 z" id="boundary" inkscape:connector-curvature="0" />
	<path style="fill:none;stroke:red;stroke-width:1px;stroke-linecap:butt;stroke-linejoin:miter;stroke-opacity:1" d="M 531.468,432.568 552.447,456.544 z" id="boundary" inkscape:connector-curvature="0" />
	<path style="fill:none;stroke:red;stroke-width:1px;stroke-linecap:butt;stroke-linejoin:miter;stroke-opacity:1" d="M 546.453,615.384 570.429,636.363 z" id="boundary" inkscape:connector-curvature="0" />
	<path style="fill:none;stroke:red;stroke-width:1px;stroke-linecap:butt;stroke-linejoin:miter;stroke-opacity:1" d="M 552.447,456.544 582.417,468.532 z" id="boundary" inkscape:connector-curvature="0" />
	<path style="fill:none;stroke:red;stroke-width:1px;stroke-linecap:butt;stroke-linejoin:miter;stroke-opacity:1" d="M 570.429,636.363 591.408,660.338 z" id="boundary" inkscape:connector-curvature="0" />
	<path style="fill:none;stroke:red;stroke-width:1px;stroke-linecap:butt;stroke-linejoin:miter;stroke-opacity:1" d="M 582.417,468.532 603.396,492.508 z" id="boundary" inkscape:connector-curvature="0" />
	<path style="fill:none;stroke:red;stroke-width:1px;stroke-linecap:butt;stroke-linejoin:miter;stroke-opacity:1" d="M 591.408,660.338 615.384,681.317 z" id="boundary" inkscape:connector-curvature="0" />
	<path style="fill:none;stroke:red;stroke-width:1px;stroke-linecap:butt;stroke-linejoin:miter;stroke-opacity:1" d="M 603.396,492.508 627.372,513.486 z" id="boundary" inkscape:connector-curvature="0" />
	<path style="fill:none;stroke:red;stroke-width:1px;stroke-linecap:butt;stroke-linejoin:miter;stroke-opacity:1" d="M 615.384,681.317 642.356,696.302 z" id="boundary" inkscape:connector-curvature="0" />
	<path style="fill:none;stroke:red;stroke-width:1px;stroke-linecap:butt;stroke-linejoin:miter;stroke-opacity:1" d="M 627.372,513.486 648.35,537.462 z" id="boundary" inkscape:connector-curvature="0" />
	<path style="fill:none;stroke:red;stroke-width:1px;stroke-linecap:butt;stroke-linejoin:miter;stroke-opacity:1" d="M 642.356,696.302 669.329,711.287 z" id="boundary" inkscape:connector-curvature="0" />
	<path style="fill:none;stroke:red;stroke-width:1px;stroke-linecap:butt;stroke-linejoin:miter;stroke-opacity:1" d="M 648.35,537.462 672.326,558.441 z" id="boundary" inkscape:connector-curvature="0" />
	<path style="fill:none;stroke:red;stroke-width:1px;stroke-linecap:butt;stroke-linejoin:miter;stroke-opacity:1" d="M 669.329,711.287 684.314,738.26 z" id="boundary" inkscape:connector-curvature="0" />
	<path style="fill:none;stroke:red;stroke-width:1px;stroke-linecap:butt;stroke-linejoin:miter;stroke-opacity:1" d="M 672.326,558.441 693.305,582.417 z" id="boundary" inkscape:connector-curvature="0" />
	<path style="fill:none;stroke:red;stroke-width:1px;stroke-linecap:butt;stroke-linejoin:miter;stroke-opacity:1" d="M 684.314,738.26 714.284,750.248 z" id="boundary" inkscape:connector-curvature="0" />
	<path style="fill:none;stroke:red;stroke-width:1px;stroke-linecap:butt;stroke-linejoin:miter;stroke-opacity:1" d="M 693.305,582.417 723.275,594.405 z" id="boundary" inkscape:connector-curvature="0" />
	<path style="fill:none;stroke:red;stroke-width:1px;stroke-linecap:butt;stroke-linejoin:miter;stroke-opacity:1" d="M 714.284,750.248 738.26,771.227 z" id="boundary" inkscape:connector-curvature="0" />
	<path style="fill:none;stroke:red;stroke-width:1px;stroke-linecap:butt;stroke-linejoin:miter;stroke-opacity:1" d="M 723.275,594.405 741.257,618.381 z" id="boundary" inkscape:connector-curvature="0" />
	<path style="fill:none;stroke:red;stroke-width:1px;stroke-linecap:butt;stroke-linejoin:miter;stroke-opacity:1" d="M 738.26,771.227 753.245,798.199 z" id="boundary" inkscape:connector-curvature="0" />
	<path style="fill:none;stroke:red;stroke-width:1px;stroke-linecap:butt;stroke-linejoin:miter;stroke-opacity:1" d="M 741.257,618.381 768.23,633.366 z" id="boundary" inkscape:connector-curvature="0" />
	<path style="fill:none;stroke:red;stroke-width:1px;stroke-linecap:butt;stroke-linejoin:miter;stroke-opacity:1" d="M 753.245,798.199 768.23,825.172 z" id="boundary" inkscape:connector-curvature="0" />
	<path style="fill:none;stroke:red;stroke-width:1px;stroke-linecap:butt;stroke-linejoin:miter;stroke-opacity:1" d="M 768.23,633.366 786.211,657.341 z" id="boundary" inkscape:connector-curvature="0" />
	<path style="fill:none;stroke:red;stroke-width:1px;stroke-linecap:butt;stroke-linejoin:miter;stroke-opacity:1" d="M 768.23,825.172 783.215,852.145 z" id="boundary" inkscape:connector-curvature="0" />
	<path style="fill:none;stroke:red;stroke-width:1px;stroke-linecap:butt;stroke-linejoin:miter;stroke-opacity:1" d="M 783.215,852.145 783.215,882.115 z" id="boundary" inkscape:connector-curvature="0" />
	<path style="fill:none;stroke:red;stroke-width:1px;stroke-linecap:butt;stroke-linejoin:miter;stroke-opacity:1" d="M 783.215,882.115 807.19,903.094 z" id="boundary" inkscape:connector-curvature="0" />
	<path style="fill:none;stroke:red;stroke-width:1px;stroke-linecap:butt;stroke-linejoin:miter;stroke-opacity:1" d="M 786.211,657.341 813.184,672.326 z" id="boundary" inkscape:connector-curvature="0" />
	<path style="fill:none;stroke:red;stroke-width:1px;stroke-linecap:butt;stroke-linejoin:miter;stroke-opacity:1" d="M 807.19,903.094 834.163,918.079 z" id="boundary" inkscape:connector-curvature="0" />
	<path style="fill:none;stroke:red;stroke-width:1px;stroke-linecap:butt;stroke-linejoin:miter;stroke-opacity:1" d="M 813.184,672.326 843.154,678.32 z" id="boundary" inkscape:connector-curvature="0" />
	<path style="fill:none;stroke:red;stroke-width:1px;stroke-linecap:butt;stroke-linejoin:miter;stroke-opacity:1" d="M 834.163,918.079 864.133,930.066 z" id="boundary" inkscape:connector-curvature="0" />
	<path style="fill:none;stroke:red;stroke-width:1px;stroke-linecap:butt;stroke-linejoin:miter;stroke-opacity:1" d="M 843.154,678.32 873.124,678.32 z" id="boundary" inkscape:connector-curvature="0" />
	<path style="fill:none;stroke:red;stroke-width:1px;stroke-linecap:butt;stroke-linejoin:miter;stroke-opacity:1" d="M 861.136,816.181 885.112,834.163 z" id="boundary" inkscape:connector-curvature="0" />
	<path style="fill:none;stroke:red;stroke-width:1px;stroke-linecap:butt;stroke-linejoin:miter;stroke-opacity:1" d="M 861.136,816.181 888.109,801.196 z" id="boundary" inkscape:connector-curvature="0" />
	<path style="fill:none;stroke:red;stroke-width:1px;stroke-linecap:butt;stroke-linejoin:miter;stroke-opacity:1" d="M 864.133,930.066 894.103,936.06 z" id="boundary" inkscape:connector-curvature="0" />
	<path style="fill:none;stroke:red;stroke-width:1px;stroke-linecap:butt;stroke-linejoin:miter;stroke-opacity:1" d="M 873.124,678.32 900.097,693.305 z" id="boundary" inkscape:connector-curvature="0" />
	<path style="fill:none;stroke:red;stroke-width:1px;stroke-linecap:butt;stroke-linejoin:miter;stroke-opacity:1" d="M 885.112,834.163 906.091,858.139 z" id="boundary" inkscape:connector-curvature="0" />
	<path style="fill:none;stroke:red;stroke-width:1px;stroke-linecap:butt;stroke-linejoin:miter;stroke-opacity:1" d="M 888.109,801.196 918.079,801.196 z" id="boundary" inkscape:connector-curvature="0" />
	<path style="fill:none;stroke:red;stroke-width:1px;stroke-linecap:butt;stroke-linejoin:miter;stroke-opacity:1" d="M 894.103,936.06 921.076,921.076 z" id="boundary" inkscape:connector-curvature="0" />
	<path style="fill:none;stroke:red;stroke-width:1px;stroke-linecap:butt;stroke-linejoin:miter;stroke-opacity:1" d="M 900.097,693.305 930.066,696.302 z" id="boundary" inkscape:connector-curvature="0" />
	<path style="fill:none;stroke:red;stroke-width:1px;stroke-linecap:butt;stroke-linejoin:miter;stroke-opacity:1" d="M 906.091,858.139 936.06,867.13 z" id="boundary" inkscape:connector-curvature="0" />
	<path style="fill:none;stroke:red;stroke-width:1px;stroke-linecap:butt;stroke-linejoin:miter;stroke-opacity:1" d="M 918.079,801.196 945.051,816.181 z" id="boundary" inkscape:connector-curvature="0" />
	<path style="fill:none;stroke:red;stroke-width:1px;stroke-linecap:butt;stroke-linejoin:miter;stroke-opacity:1" d="M 921.076,921.076 945.051,900.097 z" id="boundary" inkscape:connector-curvature="0" />
	<path style="fill:none;stroke:red;stroke-width:1px;stroke-linecap:butt;stroke-linejoin:miter;stroke-opacity:1" d="M 930.066,696.302 960.036,708.29 z" id="boundary" inkscape:connector-curvature="0" />
	<path style="fill:none;stroke:red;stroke-width:1px;stroke-linecap:butt;stroke-linejoin:miter;stroke-opacity:1" d="M 936.06,867.13 945.051,900.097 z" id="boundary" inkscape:connector-curvature="0" />
	<path style="fill:none;stroke:red;stroke-width:1px;stroke-linecap:butt;stroke-linejoin:miter;stroke-opacity:1" d="M 945.051,816.181 972.024,831.166 z" id="boundary" inkscape:connector-curvature="0" />
	<path style="fill:none;stroke:red;stroke-width:1px;stroke-linecap:butt;stroke-linejoin:miter;stroke-opacity:1" d="M 960.036,708.29 987.009,723.275 z" id="boundary" inkscape:connector-curvature="0" />
	<path style="fill:none;stroke:red;stroke-width:1px;stroke-linecap:butt;stroke-linejoin:miter;stroke-opacity:1" d="M 972.024,831.166 996,813.184 z" id="boundary" inkscape:connector-curvature="0" />
	<path style="fill:none;stroke:red;stroke-width:1px;stroke-linecap:butt;stroke-linejoin:miter;stroke-opacity:1" d="M 987.009,723.275 996,753.245 z" id="boundary" inkscape:connector-curvature="0" />
	<path style="fill:none;stroke:red;stroke-width:1px;stroke-linecap:butt;stroke-linejoin:miter;stroke-opacity:1" d="M 996,753.245 996,783.215 z" id="boundary" inkscape:connector-curvature="0" />
	<path style="fill:none;stroke:red;stroke-width:1px;stroke-linecap:butt;stroke-linejoin:miter;stroke-opacity:1" d="M 996,783.215 996,813.184 z" id="boundary" inkscape:connector-curvature="0" />
	<circle cx="4" cy="177.825" r="4" fill="#0" id="circle0"/>
	<circle cx="18.9849" cy="204.798" r="4" fill="#0" id="circle1"/>
	<circle cx="18.9849" cy="234.767" r="4" fill="#0" id="circle2"/>
	<circle cx="27.9758" cy="153.849" r="4" fill="#0" id="circle3"/>
	<circle cx="39.9637" cy="258.743" r="4" fill="#0" id="circle4"/>
	<circle cx="54.9486" cy="168.834" r="4" fill="#0" id="circle5"/>
	<circle cx="63.9396" cy="276.725" r="4" fill="#0" id="circle6"/>
	<circle cx="81.9215" cy="183.819" r="4" fill="#0" id="circle7"/>
	<circle cx="90.9124" cy="291.71" r="4" fill="#0" id="circle8"/>
	<circle cx="93.9094" cy="12.9909" r="4" fill="#0" id="circle9"/>
	<circle cx="93.9094" cy="42.9607" r="4" fill="#0" id="circle10"/>
	<circle cx="111.891" cy="183.819" r="4" fill="#0" id="circle11"/>
	<circle cx="117.885" cy="306.695" r="4" fill="#0" id="circle12"/>
	<circle cx="123.879" cy="4" r="4" fill="#0" id="circle13"/>
	<circle cx="123.879" cy="51.9517" r="4" fill="#0" id="circle14"/>
	<circle cx="138.864" cy="198.804" r="4" fill="#0" id="circle15"/>
	<circle cx="141.861" cy="75.9275" r="4" fill="#0" id="circle16"/>
	<circle cx="147.855" cy="306.695" r="4" fill="#0" id="circle17"/>
	<circle cx="153.849" cy="4" r="4" fill="#0" id="circle18"/>
	<circle cx="156.846" cy="174.828" r="4" fill="#0" id="circle19"/>
	<circle cx="165.837" cy="96.9063" r="4" fill="#0" id="circle20"/>
	<circle cx="177.825" cy="318.683" r="4" fill="#0" id="circle21"/>
	<circle cx="180.822" cy="153.849" r="4" fill="#0" id="circle22"/>
	<circle cx="183.819" cy="4" r="4" fill="#0" id="circle23"/>
	<circle cx="183.819" cy="120.882" r="4" fill="#0" id="circle24"/>
	<circle cx="207.795" cy="321.68" r="4" fill="#0" id="circle25"/>
	<circle cx="213.789" cy="9.99396" r="4" fill="#0" id="circle26"/>
	<circle cx="234.767" cy="336.665" r="4" fill="#0" id="circle27"/>
	<circle cx="240.761" cy="24.9789" r="4" fill="#0" id="circle28"/>
	<circle cx="255.746" cy="51.9517" r="4" fill="#0" id="circle29"/>
	<circle cx="258.743" cy="354.647" r="4" fill="#0" id="circle30"/>
	<circle cx="276.725" cy="75.9275" r="4" fill="#0" id="circle31"/>
	<circle cx="276.725" cy="105.897" r="4" fill="#0" id="circle32"/>
	<circle cx="288.713" cy="366.634" r="4" fill="#0" id="circle33"/>
	<circle cx="291.71" cy="132.87" r="4" fill="#0" id="circle34"/>
	<circle cx="291.71" cy="162.84" r="4" fill="#0" id="circle35"/>
	<circle cx="291.71" cy="192.81" r="4" fill="#0" id="circle36"/>
	<circle cx="303.698" cy="222.779" r="4" fill="#0" id="circle37"/>
	<circle cx="306.695" cy="390.61" r="4" fill="#0" id="circle38"/>
	<circle cx="327.674" cy="243.758" r="4" fill="#0" id="circle39"/>
	<circle cx="330.671" cy="411.589" r="4" fill="#0" id="circle40"/>
	<circle cx="348.653" cy="435.565" r="4" fill="#0" id="circle41"/>
	<circle cx="351.65" cy="261.74" r="4" fill="#0" id="circle42"/>
	<circle cx="363.637" cy="462.538" r="4" fill="#0" id="circle43"/>
	<circle cx="366.634" cy="288.713" r="4" fill="#0" id="circle44"/>
	<circle cx="390.61" cy="306.695" r="4" fill="#0" id="circle45"/>
	<circle cx="393.607" cy="471.529" r="4" fill="#0" id="circle46"/>
	<circle cx="411.589" cy="330.671" r="4" fill="#0" id="circle47"/>
	<circle cx="411.589" cy="495.505" r="4" fill="#0" id="circle48"/>
	<circle cx="435.565" cy="516.483" r="4" fill="#0" id="circle49"/>
	<circle cx="441.559" cy="342.659" r="4" fill="#0" id="circle50"/>
	<circle cx="453.547" cy="540.459" r="4" fill="#0" id="circle51"/>
	<circle cx="462.538" cy="366.634" r="4" fill="#0" id="circle52"/>
	<circle cx="468.532" cy="567.432" r="4" fill="#0" id="circle53"/>
	<circle cx="486.514" cy="387.613" r="4" fill="#0" id="circle54"/>
	<circle cx="498.502" cy="576.423" r="4" fill="#0" id="circle55"/>
	<circle cx="507.492" cy="411.589" r="4" fill="#0" id="circle56"/>
	<circle cx="525.474" cy="591.408" r="4" fill="#0" id="circle57"/>
	<circle cx="531.468" cy="432.568" r="4" fill="#0" id="circle58"/>
	<circle cx="546.453" cy="615.384" r="4" fill="#0" id="circle59"/>
	<circle cx="552.447" cy="456.544" r="4" fill="#0" id="circle60"/>
	<circle cx="570.429" cy="636.363" r="4" fill="#0" id="circle61"/>
	<circle cx="582.417" cy="468.532" r="4" fill="#0" id="circle62"/>
	<circle cx="591.408" cy="660.338" r="4" fill="#0" id="circle63"/>
	<circle cx="603.396" cy="492.508" r="4" fill="#0" id="circle64"/>
	<circle cx="615.384" cy="681.317" r="4" fill="#0" id="circle65"/>
	<circle cx="627.372" cy="513.486" r="4" fill="#0" id="circle66"/>
	<circle cx="642.356" cy="696.302" r="4" fill="#0" id="circle67"/>
	<circle cx="648.35" cy="537.462" r="4" fill="#0" id="circle68"/>
	<circle cx="669.329" cy="711.287" r="4" fill="#0" id="circle69"/>
	<circle cx="672.326" cy="558.441" r="4" fill="#0" id="circle70"/>
	<circle cx="684.314" cy="738.26" r="4" fill="#0" id="circle71"/>
	<circle cx="693.305" cy="582.417" r="4" fill="#0" id="circle72"/>
	<circle cx="714.284" cy="750.248" r="4" fill="#0" id="circle73"/>
	<circle cx="723.275" cy="594.405" r="4" fill="#0" id="circle74"/>
	<circle cx="738.26" cy="771.227" r="4" fill="#0" id="circle75"/>
	<circle cx="741.257" cy="618.381" r="4" fill="#0" id="circle76"/>
	<circle cx="753.245" cy="798.199" r="4" fill="#0" id="circle77"/>
	<circle cx="768.23" cy="633.366" r="4" fill="#0" id="circle78"/>
	<circle cx="768.23" cy="825.172" r="4" fill="#0" id="circle79"/>
	<circle cx="783.215" cy="852.145" r="4" fill="#0" id="circle80"/>
	<circle cx="783.215" cy="882.115" r="4" fill="#0" id="circle81"/>
	<circle cx="786.211" cy="657.341" r="4" fill="#0" id="circle82"/>
	<circle cx="807.19" cy="903.094" r="4" fill="#0" id="circle83"/>
	<circle cx="813.184" cy="672.326" r="4" fill="#0" id="circle84"/>
	<circle cx="834.163" cy="918.079" r="4" fill="#0" id="circle85"/>
	<circle cx="843.154" cy="678.32" r="4" fill="#0" id="circle86"/>
	<circle cx="861.136" cy="816.181" r="4" fill="#0" id="circle87"/>
	<circle cx="864.133" cy="930.066" r="4" fill="#0" id="circle88"/>
	<circle cx="873.124" cy="678.32" r="4" fill="#0" id="circle89"/>
	<circle cx="885.112" cy="834.163" r="4" fill="#0" id="circle90"/>
	<circle cx="888.109" cy="801.196" r="4" fill="#0" id="circle91"/>
	<circle cx="894.103" cy="936.06" r="4" fill="#0" id="circle92"/>
	<circle cx="900.097" cy="693.305" r="4" fill="#0" id="circle93"/>
	<circle cx="906.091" cy="858.139" r="4" fill="#0" id="circle94"/>
	<circle cx="918.079" cy="801.196" r="4" fill="#0" id="circle95"/>
	<circle cx="921.076" cy="921.076" r="4" fill="#0" id="circle96"/>
	<circle cx="930.066" cy="696.302" r="4" fill="#0" id="circle97"/>
	<circle cx="936.06" cy="867.13" r="4" fill="#0" id="circle98"/>
	<circle cx="945.051" cy="816.181" r="4" fill="#0" id="circle99"/>
	<circle cx="945.051" cy="900.097" r="4" fill="#0" id="circle100"/>
	<circle cx="960.036" cy="708.29" r="4" fill="#0" id="circle101"/>
	<circle cx="972.024" cy="831.166" r="4" fill="#0" id="circle102"/>
	<circle cx="987.009" cy="723.275" r="4" fill="#0" id="circle103"/>
	<circle cx="996" cy="753.245" r="4" fill="#0" id="circle104"/>
	<circle cx="996" cy="783.215" r="4" fill="#0" id="circle105"/>
	<circle cx="996" cy="813.184" r="4" fill="#0" id="circle106"/>
	</g>
</svg>