<?xml version="1.0" encoding="UTF-8" standalone="no"?>
<!-- Created with CurveBenchmark -->
<svg
	xmlns:dc="http://purl.org/dc/elements/1.1/"
	xmlns:cc="http://creativecommons.org/ns#"
	xmlns:rdf="http://www.w3.org/1999/02/22-rdf-syntax-ns#"
	xmlns:svg="http://www.w3.org/2000/svg"
	xmlns="http://www.w3.org/2000/svg"
	xmlns:sodipodi="http://sodipodi.sourceforge.net/DTD/sodipodi-0.dtd"
	xmlns:inkscape="http://www.inkscape.org/namespaces/inkscape"
	width="1000"
	height="1000"
	id="svg2"
	version="1.1"
	sodipodi:docname="manifold/hnncrust-flatfish13.png.txt">
<defs
	id="defs4" />
<metadata
	id="metadata7">
	<rdf:RDF>
		<cc:Work
			rdf:about="">
			<dc:format>image/svg+xml</dc:format>
			<dc:type
				rdf:resource="http://purl.org/dc/dcmitype/StillImage" />
			<dc:title></dc:title>
		</cc:Work>
	</rdf:RDF>
</metadata>
<g
	inkscape:label="Layer 1"
	inkscape:groupmode="layer"
	id="layer1">
	<path style="fill:none;stroke:red;stroke-width:1px;stroke-linecap:butt;stroke-linejoin:miter;stroke-opacity:1" d="M 4,171.058 4,185.842 z" id="boundary" inkscape:connector-curvature="0" />
	<path style="fill:none;stroke:red;stroke-width:1px;stroke-linecap:butt;stroke-linejoin:miter;stroke-opacity:1" d="M 4,171.058 11.392,156.274 z" id="boundary" inkscape:connector-curvature="0" />
	<path style="fill:none;stroke:red;stroke-width:1px;stroke-linecap:butt;stroke-linejoin:miter;stroke-opacity:1" d="M 4,185.842 11.392,199.148 z" id="boundary" inkscape:connector-curvature="0" />
	<path style="fill:none;stroke:red;stroke-width:1px;stroke-linecap:butt;stroke-linejoin:miter;stroke-opacity:1" d="M 11.392,156.274 18.7839,141.49 z" id="boundary" inkscape:connector-curvature="0" />
	<path style="fill:none;stroke:red;stroke-width:1px;stroke-linecap:butt;stroke-linejoin:miter;stroke-opacity:1" d="M 11.392,199.148 11.392,213.931 z" id="boundary" inkscape:connector-curvature="0" />
	<path style="fill:none;stroke:red;stroke-width:1px;stroke-linecap:butt;stroke-linejoin:miter;stroke-opacity:1" d="M 11.392,213.931 11.392,228.715 z" id="boundary" inkscape:connector-curvature="0" />
	<path style="fill:none;stroke:red;stroke-width:1px;stroke-linecap:butt;stroke-linejoin:miter;stroke-opacity:1" d="M 11.392,228.715 18.7839,242.021 z" id="boundary" inkscape:connector-curvature="0" />
	<path style="fill:none;stroke:red;stroke-width:1px;stroke-linecap:butt;stroke-linejoin:miter;stroke-opacity:1" d="M 18.7839,141.49 30.611,129.663 z" id="boundary" inkscape:connector-curvature="0" />
	<path style="fill:none;stroke:red;stroke-width:1px;stroke-linecap:butt;stroke-linejoin:miter;stroke-opacity:1" d="M 18.7839,242.021 26.1759,255.326 z" id="boundary" inkscape:connector-curvature="0" />
	<path style="fill:none;stroke:red;stroke-width:1px;stroke-linecap:butt;stroke-linejoin:miter;stroke-opacity:1" d="M 26.1759,255.326 35.0462,267.154 z" id="boundary" inkscape:connector-curvature="0" />
	<path style="fill:none;stroke:red;stroke-width:1px;stroke-linecap:butt;stroke-linejoin:miter;stroke-opacity:1" d="M 30.611,129.663 45.3949,122.271 z" id="boundary" inkscape:connector-curvature="0" />
	<path style="fill:none;stroke:red;stroke-width:1px;stroke-linecap:butt;stroke-linejoin:miter;stroke-opacity:1" d="M 35.0462,267.154 49.8301,271.589 z" id="boundary" inkscape:connector-curvature="0" />
	<path style="fill:none;stroke:red;stroke-width:1px;stroke-linecap:butt;stroke-linejoin:miter;stroke-opacity:1" d="M 45.3949,122.271 58.7004,129.663 z" id="boundary" inkscape:connector-curvature="0" />
	<path style="fill:none;stroke:red;stroke-width:1px;stroke-linecap:butt;stroke-linejoin:miter;stroke-opacity:1" d="M 49.8301,271.589 64.614,271.589 z" id="boundary" inkscape:connector-curvature="0" />
	<path style="fill:none;stroke:red;stroke-width:1px;stroke-linecap:butt;stroke-linejoin:miter;stroke-opacity:1" d="M 58.7004,129.663 73.4844,129.663 z" id="boundary" inkscape:connector-curvature="0" />
	<path style="fill:none;stroke:red;stroke-width:1px;stroke-linecap:butt;stroke-linejoin:miter;stroke-opacity:1" d="M 64.614,271.589 77.9195,264.197 z" id="boundary" inkscape:connector-curvature="0" />
	<path style="fill:none;stroke:red;stroke-width:1px;stroke-linecap:butt;stroke-linejoin:miter;stroke-opacity:1" d="M 73.4844,129.663 88.2683,129.663 z" id="boundary" inkscape:connector-curvature="0" />
	<path style="fill:none;stroke:red;stroke-width:1px;stroke-linecap:butt;stroke-linejoin:miter;stroke-opacity:1" d="M 77.9195,264.197 92.7034,264.197 z" id="boundary" inkscape:connector-curvature="0" />
	<path style="fill:none;stroke:red;stroke-width:1px;stroke-linecap:butt;stroke-linejoin:miter;stroke-opacity:1" d="M 88.2683,129.663 101.574,137.055 z" id="boundary" inkscape:connector-curvature="0" />
	<path style="fill:none;stroke:red;stroke-width:1px;stroke-linecap:butt;stroke-linejoin:miter;stroke-opacity:1" d="M 92.7034,264.197 107.487,259.762 z" id="boundary" inkscape:connector-curvature="0" />
	<path style="fill:none;stroke:red;stroke-width:1px;stroke-linecap:butt;stroke-linejoin:miter;stroke-opacity:1" d="M 101.574,137.055 116.358,137.055 z" id="boundary" inkscape:connector-curvature="0" />
	<path style="fill:none;stroke:red;stroke-width:1px;stroke-linecap:butt;stroke-linejoin:miter;stroke-opacity:1" d="M 107.487,259.762 122.271,256.805 z" id="boundary" inkscape:connector-curvature="0" />
	<path style="fill:none;stroke:red;stroke-width:1px;stroke-linecap:butt;stroke-linejoin:miter;stroke-opacity:1" d="M 116.358,137.055 129.663,144.447 z" id="boundary" inkscape:connector-curvature="0" />
	<path style="fill:none;stroke:red;stroke-width:1px;stroke-linecap:butt;stroke-linejoin:miter;stroke-opacity:1" d="M 122.271,256.805 135.577,249.413 z" id="boundary" inkscape:connector-curvature="0" />
	<path style="fill:none;stroke:red;stroke-width:1px;stroke-linecap:butt;stroke-linejoin:miter;stroke-opacity:1" d="M 129.663,144.447 144.447,144.447 z" id="boundary" inkscape:connector-curvature="0" />
	<path style="fill:none;stroke:red;stroke-width:1px;stroke-linecap:butt;stroke-linejoin:miter;stroke-opacity:1" d="M 135.577,249.413 148.882,242.021 z" id="boundary" inkscape:connector-curvature="0" />
	<path style="fill:none;stroke:red;stroke-width:1px;stroke-linecap:butt;stroke-linejoin:miter;stroke-opacity:1" d="M 144.447,144.447 159.231,147.404 z" id="boundary" inkscape:connector-curvature="0" />
	<path style="fill:none;stroke:red;stroke-width:1px;stroke-linecap:butt;stroke-linejoin:miter;stroke-opacity:1" d="M 148.882,242.021 163.666,240.542 z" id="boundary" inkscape:connector-curvature="0" />
	<path style="fill:none;stroke:red;stroke-width:1px;stroke-linecap:butt;stroke-linejoin:miter;stroke-opacity:1" d="M 159.231,147.404 174.015,151.839 z" id="boundary" inkscape:connector-curvature="0" />
	<path style="fill:none;stroke:red;stroke-width:1px;stroke-linecap:butt;stroke-linejoin:miter;stroke-opacity:1" d="M 163.666,240.542 178.45,234.629 z" id="boundary" inkscape:connector-curvature="0" />
	<path style="fill:none;stroke:red;stroke-width:1px;stroke-linecap:butt;stroke-linejoin:miter;stroke-opacity:1" d="M 174.015,151.839 188.799,151.839 z" id="boundary" inkscape:connector-curvature="0" />
	<path style="fill:none;stroke:red;stroke-width:1px;stroke-linecap:butt;stroke-linejoin:miter;stroke-opacity:1" d="M 178.45,234.629 191.756,242.021 z" id="boundary" inkscape:connector-curvature="0" />
	<path style="fill:none;stroke:red;stroke-width:1px;stroke-linecap:butt;stroke-linejoin:miter;stroke-opacity:1" d="M 188.799,151.839 202.104,144.447 z" id="boundary" inkscape:connector-curvature="0" />
	<path style="fill:none;stroke:red;stroke-width:1px;stroke-linecap:butt;stroke-linejoin:miter;stroke-opacity:1" d="M 191.756,242.021 203.583,250.891 z" id="boundary" inkscape:connector-curvature="0" />
	<path style="fill:none;stroke:red;stroke-width:1px;stroke-linecap:butt;stroke-linejoin:miter;stroke-opacity:1" d="M 202.104,144.447 212.453,132.62 z" id="boundary" inkscape:connector-curvature="0" />
	<path style="fill:none;stroke:red;stroke-width:1px;stroke-linecap:butt;stroke-linejoin:miter;stroke-opacity:1" d="M 203.583,250.891 213.931,262.718 z" id="boundary" inkscape:connector-curvature="0" />
	<path style="fill:none;stroke:red;stroke-width:1px;stroke-linecap:butt;stroke-linejoin:miter;stroke-opacity:1" d="M 212.453,132.62 224.28,122.271 z" id="boundary" inkscape:connector-curvature="0" />
	<path style="fill:none;stroke:red;stroke-width:1px;stroke-linecap:butt;stroke-linejoin:miter;stroke-opacity:1" d="M 213.931,262.718 225.759,271.589 z" id="boundary" inkscape:connector-curvature="0" />
	<path style="fill:none;stroke:red;stroke-width:1px;stroke-linecap:butt;stroke-linejoin:miter;stroke-opacity:1" d="M 224.28,122.271 234.629,110.444 z" id="boundary" inkscape:connector-curvature="0" />
	<path style="fill:none;stroke:red;stroke-width:1px;stroke-linecap:butt;stroke-linejoin:miter;stroke-opacity:1" d="M 225.759,271.589 239.064,278.981 z" id="boundary" inkscape:connector-curvature="0" />
	<path style="fill:none;stroke:red;stroke-width:1px;stroke-linecap:butt;stroke-linejoin:miter;stroke-opacity:1" d="M 234.629,110.444 246.456,100.095 z" id="boundary" inkscape:connector-curvature="0" />
	<path style="fill:none;stroke:red;stroke-width:1px;stroke-linecap:butt;stroke-linejoin:miter;stroke-opacity:1" d="M 239.064,278.981 249.413,290.808 z" id="boundary" inkscape:connector-curvature="0" />
	<path style="fill:none;stroke:red;stroke-width:1px;stroke-linecap:butt;stroke-linejoin:miter;stroke-opacity:1" d="M 246.456,100.095 259.762,92.7034 z" id="boundary" inkscape:connector-curvature="0" />
	<path style="fill:none;stroke:red;stroke-width:1px;stroke-linecap:butt;stroke-linejoin:miter;stroke-opacity:1" d="M 249.413,290.808 264.197,296.721 z" id="boundary" inkscape:connector-curvature="0" />
	<path style="fill:none;stroke:red;stroke-width:1px;stroke-linecap:butt;stroke-linejoin:miter;stroke-opacity:1" d="M 259.762,92.7034 274.545,85.3115 z" id="boundary" inkscape:connector-curvature="0" />
	<path style="fill:none;stroke:red;stroke-width:1px;stroke-linecap:butt;stroke-linejoin:miter;stroke-opacity:1" d="M 264.197,296.721 274.545,308.548 z" id="boundary" inkscape:connector-curvature="0" />
	<path style="fill:none;stroke:red;stroke-width:1px;stroke-linecap:butt;stroke-linejoin:miter;stroke-opacity:1" d="M 274.545,85.3115 286.373,73.4844 z" id="boundary" inkscape:connector-curvature="0" />
	<path style="fill:none;stroke:red;stroke-width:1px;stroke-linecap:butt;stroke-linejoin:miter;stroke-opacity:1" d="M 274.545,308.548 286.373,318.897 z" id="boundary" inkscape:connector-curvature="0" />
	<path style="fill:none;stroke:red;stroke-width:1px;stroke-linecap:butt;stroke-linejoin:miter;stroke-opacity:1" d="M 286.373,73.4844 301.156,66.0924 z" id="boundary" inkscape:connector-curvature="0" />
	<path style="fill:none;stroke:red;stroke-width:1px;stroke-linecap:butt;stroke-linejoin:miter;stroke-opacity:1" d="M 286.373,318.897 299.678,326.289 z" id="boundary" inkscape:connector-curvature="0" />
	<path style="fill:none;stroke:red;stroke-width:1px;stroke-linecap:butt;stroke-linejoin:miter;stroke-opacity:1" d="M 299.678,326.289 314.462,330.724 z" id="boundary" inkscape:connector-curvature="0" />
	<path style="fill:none;stroke:red;stroke-width:1px;stroke-linecap:butt;stroke-linejoin:miter;stroke-opacity:1" d="M 301.156,66.0924 315.94,63.1356 z" id="boundary" inkscape:connector-curvature="0" />
	<path style="fill:none;stroke:red;stroke-width:1px;stroke-linecap:butt;stroke-linejoin:miter;stroke-opacity:1" d="M 314.462,330.724 323.332,342.551 z" id="boundary" inkscape:connector-curvature="0" />
	<path style="fill:none;stroke:red;stroke-width:1px;stroke-linecap:butt;stroke-linejoin:miter;stroke-opacity:1" d="M 315.94,63.1356 329.246,52.7869 z" id="boundary" inkscape:connector-curvature="0" />
	<path style="fill:none;stroke:red;stroke-width:1px;stroke-linecap:butt;stroke-linejoin:miter;stroke-opacity:1" d="M 323.332,342.551 335.159,352.9 z" id="boundary" inkscape:connector-curvature="0" />
	<path style="fill:none;stroke:red;stroke-width:1px;stroke-linecap:butt;stroke-linejoin:miter;stroke-opacity:1" d="M 329.246,52.7869 344.03,45.3949 z" id="boundary" inkscape:connector-curvature="0" />
	<path style="fill:none;stroke:red;stroke-width:1px;stroke-linecap:butt;stroke-linejoin:miter;stroke-opacity:1" d="M 335.159,352.9 349.943,352.9 z" id="boundary" inkscape:connector-curvature="0" />
	<path style="fill:none;stroke:red;stroke-width:1px;stroke-linecap:butt;stroke-linejoin:miter;stroke-opacity:1" d="M 344.03,45.3949 358.814,38.003 z" id="boundary" inkscape:connector-curvature="0" />
	<path style="fill:none;stroke:red;stroke-width:1px;stroke-linecap:butt;stroke-linejoin:miter;stroke-opacity:1" d="M 349.943,352.9 363.249,360.292 z" id="boundary" inkscape:connector-curvature="0" />
	<path style="fill:none;stroke:red;stroke-width:1px;stroke-linecap:butt;stroke-linejoin:miter;stroke-opacity:1" d="M 358.814,38.003 373.598,30.611 z" id="boundary" inkscape:connector-curvature="0" />
	<path style="fill:none;stroke:red;stroke-width:1px;stroke-linecap:butt;stroke-linejoin:miter;stroke-opacity:1" d="M 363.249,360.292 378.033,366.206 z" id="boundary" inkscape:connector-curvature="0" />
	<path style="fill:none;stroke:red;stroke-width:1px;stroke-linecap:butt;stroke-linejoin:miter;stroke-opacity:1" d="M 373.598,30.611 388.382,26.1759 z" id="boundary" inkscape:connector-curvature="0" />
	<path style="fill:none;stroke:red;stroke-width:1px;stroke-linecap:butt;stroke-linejoin:miter;stroke-opacity:1" d="M 378.033,366.206 392.817,367.684 z" id="boundary" inkscape:connector-curvature="0" />
	<path style="fill:none;stroke:red;stroke-width:1px;stroke-linecap:butt;stroke-linejoin:miter;stroke-opacity:1" d="M 388.382,26.1759 401.687,18.7839 z" id="boundary" inkscape:connector-curvature="0" />
	<path style="fill:none;stroke:red;stroke-width:1px;stroke-linecap:butt;stroke-linejoin:miter;stroke-opacity:1" d="M 392.817,367.684 406.122,375.076 z" id="boundary" inkscape:connector-curvature="0" />
	<path style="fill:none;stroke:red;stroke-width:1px;stroke-linecap:butt;stroke-linejoin:miter;stroke-opacity:1" d="M 401.687,18.7839 416.471,18.7839 z" id="boundary" inkscape:connector-curvature="0" />
	<path style="fill:none;stroke:red;stroke-width:1px;stroke-linecap:butt;stroke-linejoin:miter;stroke-opacity:1" d="M 406.122,375.076 419.428,382.468 z" id="boundary" inkscape:connector-curvature="0" />
	<path style="fill:none;stroke:red;stroke-width:1px;stroke-linecap:butt;stroke-linejoin:miter;stroke-opacity:1" d="M 416.471,18.7839 431.255,18.7839 z" id="boundary" inkscape:connector-curvature="0" />
	<path style="fill:none;stroke:red;stroke-width:1px;stroke-linecap:butt;stroke-linejoin:miter;stroke-opacity:1" d="M 419.428,382.468 434.212,382.468 z" id="boundary" inkscape:connector-curvature="0" />
	<path style="fill:none;stroke:red;stroke-width:1px;stroke-linecap:butt;stroke-linejoin:miter;stroke-opacity:1" d="M 431.255,18.7839 444.56,11.392 z" id="boundary" inkscape:connector-curvature="0" />
	<path style="fill:none;stroke:red;stroke-width:1px;stroke-linecap:butt;stroke-linejoin:miter;stroke-opacity:1" d="M 434.212,382.468 448.996,382.468 z" id="boundary" inkscape:connector-curvature="0" />
	<path style="fill:none;stroke:red;stroke-width:1px;stroke-linecap:butt;stroke-linejoin:miter;stroke-opacity:1" d="M 444.56,11.392 459.344,11.392 z" id="boundary" inkscape:connector-curvature="0" />
	<path style="fill:none;stroke:red;stroke-width:1px;stroke-linecap:butt;stroke-linejoin:miter;stroke-opacity:1" d="M 448.996,382.468 462.301,389.86 z" id="boundary" inkscape:connector-curvature="0" />
	<path style="fill:none;stroke:red;stroke-width:1px;stroke-linecap:butt;stroke-linejoin:miter;stroke-opacity:1" d="M 459.344,11.392 474.128,11.392 z" id="boundary" inkscape:connector-curvature="0" />
	<path style="fill:none;stroke:red;stroke-width:1px;stroke-linecap:butt;stroke-linejoin:miter;stroke-opacity:1" d="M 462.301,389.86 477.085,389.86 z" id="boundary" inkscape:connector-curvature="0" />
	<path style="fill:none;stroke:red;stroke-width:1px;stroke-linecap:butt;stroke-linejoin:miter;stroke-opacity:1" d="M 474.128,11.392 487.434,4 z" id="boundary" inkscape:connector-curvature="0" />
	<path style="fill:none;stroke:red;stroke-width:1px;stroke-linecap:butt;stroke-linejoin:miter;stroke-opacity:1" d="M 477.085,389.86 491.869,389.86 z" id="boundary" inkscape:connector-curvature="0" />
	<path style="fill:none;stroke:red;stroke-width:1px;stroke-linecap:butt;stroke-linejoin:miter;stroke-opacity:1" d="M 487.434,4 502.218,4 z" id="boundary" inkscape:connector-curvature="0" />
	<path style="fill:none;stroke:red;stroke-width:1px;stroke-linecap:butt;stroke-linejoin:miter;stroke-opacity:1" d="M 491.869,389.86 505.174,397.252 z" id="boundary" inkscape:connector-curvature="0" />
	<path style="fill:none;stroke:red;stroke-width:1px;stroke-linecap:butt;stroke-linejoin:miter;stroke-opacity:1" d="M 502.218,4 517.001,4 z" id="boundary" inkscape:connector-curvature="0" />
	<path style="fill:none;stroke:red;stroke-width:1px;stroke-linecap:butt;stroke-linejoin:miter;stroke-opacity:1" d="M 505.174,397.252 519.958,397.252 z" id="boundary" inkscape:connector-curvature="0" />
	<path style="fill:none;stroke:red;stroke-width:1px;stroke-linecap:butt;stroke-linejoin:miter;stroke-opacity:1" d="M 517.001,4 531.785,4 z" id="boundary" inkscape:connector-curvature="0" />
	<path style="fill:none;stroke:red;stroke-width:1px;stroke-linecap:butt;stroke-linejoin:miter;stroke-opacity:1" d="M 519.958,397.252 534.742,397.252 z" id="boundary" inkscape:connector-curvature="0" />
	<path style="fill:none;stroke:red;stroke-width:1px;stroke-linecap:butt;stroke-linejoin:miter;stroke-opacity:1" d="M 531.785,4 546.569,4 z" id="boundary" inkscape:connector-curvature="0" />
	<path style="fill:none;stroke:red;stroke-width:1px;stroke-linecap:butt;stroke-linejoin:miter;stroke-opacity:1" d="M 534.742,397.252 549.526,397.252 z" id="boundary" inkscape:connector-curvature="0" />
	<path style="fill:none;stroke:red;stroke-width:1px;stroke-linecap:butt;stroke-linejoin:miter;stroke-opacity:1" d="M 546.569,4 561.353,4 z" id="boundary" inkscape:connector-curvature="0" />
	<path style="fill:none;stroke:red;stroke-width:1px;stroke-linecap:butt;stroke-linejoin:miter;stroke-opacity:1" d="M 549.526,397.252 564.31,397.252 z" id="boundary" inkscape:connector-curvature="0" />
	<path style="fill:none;stroke:red;stroke-width:1px;stroke-linecap:butt;stroke-linejoin:miter;stroke-opacity:1" d="M 561.353,4 576.137,4 z" id="boundary" inkscape:connector-curvature="0" />
	<path style="fill:none;stroke:red;stroke-width:1px;stroke-linecap:butt;stroke-linejoin:miter;stroke-opacity:1" d="M 564.31,397.252 579.094,397.252 z" id="boundary" inkscape:connector-curvature="0" />
	<path style="fill:none;stroke:red;stroke-width:1px;stroke-linecap:butt;stroke-linejoin:miter;stroke-opacity:1" d="M 576.137,4 590.921,4 z" id="boundary" inkscape:connector-curvature="0" />
	<path style="fill:none;stroke:red;stroke-width:1px;stroke-linecap:butt;stroke-linejoin:miter;stroke-opacity:1" d="M 579.094,397.252 593.878,397.252 z" id="boundary" inkscape:connector-curvature="0" />
	<path style="fill:none;stroke:red;stroke-width:1px;stroke-linecap:butt;stroke-linejoin:miter;stroke-opacity:1" d="M 590.921,4 605.705,4 z" id="boundary" inkscape:connector-curvature="0" />
	<path style="fill:none;stroke:red;stroke-width:1px;stroke-linecap:butt;stroke-linejoin:miter;stroke-opacity:1" d="M 593.878,397.252 608.662,397.252 z" id="boundary" inkscape:connector-curvature="0" />
	<path style="fill:none;stroke:red;stroke-width:1px;stroke-linecap:butt;stroke-linejoin:miter;stroke-opacity:1" d="M 605.705,4 620.489,4 z" id="boundary" inkscape:connector-curvature="0" />
	<path style="fill:none;stroke:red;stroke-width:1px;stroke-linecap:butt;stroke-linejoin:miter;stroke-opacity:1" d="M 608.662,397.252 623.446,397.252 z" id="boundary" inkscape:connector-curvature="0" />
	<path style="fill:none;stroke:red;stroke-width:1px;stroke-linecap:butt;stroke-linejoin:miter;stroke-opacity:1" d="M 620.489,4 635.273,4 z" id="boundary" inkscape:connector-curvature="0" />
	<path style="fill:none;stroke:red;stroke-width:1px;stroke-linecap:butt;stroke-linejoin:miter;stroke-opacity:1" d="M 623.446,397.252 638.23,397.252 z" id="boundary" inkscape:connector-curvature="0" />
	<path style="fill:none;stroke:red;stroke-width:1px;stroke-linecap:butt;stroke-linejoin:miter;stroke-opacity:1" d="M 635.273,4 650.057,4 z" id="boundary" inkscape:connector-curvature="0" />
	<path style="fill:none;stroke:red;stroke-width:1px;stroke-linecap:butt;stroke-linejoin:miter;stroke-opacity:1" d="M 638.23,397.252 653.013,397.252 z" id="boundary" inkscape:connector-curvature="0" />
	<path style="fill:none;stroke:red;stroke-width:1px;stroke-linecap:butt;stroke-linejoin:miter;stroke-opacity:1" d="M 650.057,4 664.841,4 z" id="boundary" inkscape:connector-curvature="0" />
	<path style="fill:none;stroke:red;stroke-width:1px;stroke-linecap:butt;stroke-linejoin:miter;stroke-opacity:1" d="M 653.013,397.252 667.797,397.252 z" id="boundary" inkscape:connector-curvature="0" />
	<path style="fill:none;stroke:red;stroke-width:1px;stroke-linecap:butt;stroke-linejoin:miter;stroke-opacity:1" d="M 664.841,4 679.624,4 z" id="boundary" inkscape:connector-curvature="0" />
	<path style="fill:none;stroke:red;stroke-width:1px;stroke-linecap:butt;stroke-linejoin:miter;stroke-opacity:1" d="M 667.797,397.252 682.581,397.252 z" id="boundary" inkscape:connector-curvature="0" />
	<path style="fill:none;stroke:red;stroke-width:1px;stroke-linecap:butt;stroke-linejoin:miter;stroke-opacity:1" d="M 679.624,4 692.93,11.392 z" id="boundary" inkscape:connector-curvature="0" />
	<path style="fill:none;stroke:red;stroke-width:1px;stroke-linecap:butt;stroke-linejoin:miter;stroke-opacity:1" d="M 682.581,397.252 697.365,397.252 z" id="boundary" inkscape:connector-curvature="0" />
	<path style="fill:none;stroke:red;stroke-width:1px;stroke-linecap:butt;stroke-linejoin:miter;stroke-opacity:1" d="M 692.93,11.392 707.714,11.392 z" id="boundary" inkscape:connector-curvature="0" />
	<path style="fill:none;stroke:red;stroke-width:1px;stroke-linecap:butt;stroke-linejoin:miter;stroke-opacity:1" d="M 697.365,397.252 710.671,389.86 z" id="boundary" inkscape:connector-curvature="0" />
	<path style="fill:none;stroke:red;stroke-width:1px;stroke-linecap:butt;stroke-linejoin:miter;stroke-opacity:1" d="M 707.714,11.392 722.498,11.392 z" id="boundary" inkscape:connector-curvature="0" />
	<path style="fill:none;stroke:red;stroke-width:1px;stroke-linecap:butt;stroke-linejoin:miter;stroke-opacity:1" d="M 710.671,389.86 725.455,389.86 z" id="boundary" inkscape:connector-curvature="0" />
	<path style="fill:none;stroke:red;stroke-width:1px;stroke-linecap:butt;stroke-linejoin:miter;stroke-opacity:1" d="M 722.498,11.392 735.803,18.7839 z" id="boundary" inkscape:connector-curvature="0" />
	<path style="fill:none;stroke:red;stroke-width:1px;stroke-linecap:butt;stroke-linejoin:miter;stroke-opacity:1" d="M 725.455,389.86 740.238,389.86 z" id="boundary" inkscape:connector-curvature="0" />
	<path style="fill:none;stroke:red;stroke-width:1px;stroke-linecap:butt;stroke-linejoin:miter;stroke-opacity:1" d="M 735.803,18.7839 750.587,21.7407 z" id="boundary" inkscape:connector-curvature="0" />
	<path style="fill:none;stroke:red;stroke-width:1px;stroke-linecap:butt;stroke-linejoin:miter;stroke-opacity:1" d="M 740.238,389.86 753.544,382.468 z" id="boundary" inkscape:connector-curvature="0" />
	<path style="fill:none;stroke:red;stroke-width:1px;stroke-linecap:butt;stroke-linejoin:miter;stroke-opacity:1" d="M 750.587,21.7407 763.893,29.1326 z" id="boundary" inkscape:connector-curvature="0" />
	<path style="fill:none;stroke:red;stroke-width:1px;stroke-linecap:butt;stroke-linejoin:miter;stroke-opacity:1" d="M 753.544,382.468 766.849,375.076 z" id="boundary" inkscape:connector-curvature="0" />
	<path style="fill:none;stroke:red;stroke-width:1px;stroke-linecap:butt;stroke-linejoin:miter;stroke-opacity:1" d="M 763.893,29.1326 778.677,35.0462 z" id="boundary" inkscape:connector-curvature="0" />
	<path style="fill:none;stroke:red;stroke-width:1px;stroke-linecap:butt;stroke-linejoin:miter;stroke-opacity:1" d="M 766.849,375.076 778.677,364.727 z" id="boundary" inkscape:connector-curvature="0" />
	<path style="fill:none;stroke:red;stroke-width:1px;stroke-linecap:butt;stroke-linejoin:miter;stroke-opacity:1" d="M 778.677,35.0462 789.025,46.8733 z" id="boundary" inkscape:connector-curvature="0" />
	<path style="fill:none;stroke:red;stroke-width:1px;stroke-linecap:butt;stroke-linejoin:miter;stroke-opacity:1" d="M 778.677,364.727 789.025,352.9 z" id="boundary" inkscape:connector-curvature="0" />
	<path style="fill:none;stroke:red;stroke-width:1px;stroke-linecap:butt;stroke-linejoin:miter;stroke-opacity:1" d="M 789.025,46.8733 800.852,57.2221 z" id="boundary" inkscape:connector-curvature="0" />
	<path style="fill:none;stroke:red;stroke-width:1px;stroke-linecap:butt;stroke-linejoin:miter;stroke-opacity:1" d="M 789.025,352.9 800.852,342.551 z" id="boundary" inkscape:connector-curvature="0" />
	<path style="fill:none;stroke:red;stroke-width:1px;stroke-linecap:butt;stroke-linejoin:miter;stroke-opacity:1" d="M 800.852,57.2221 814.158,64.614 z" id="boundary" inkscape:connector-curvature="0" />
	<path style="fill:none;stroke:red;stroke-width:1px;stroke-linecap:butt;stroke-linejoin:miter;stroke-opacity:1" d="M 800.852,342.551 815.636,335.159 z" id="boundary" inkscape:connector-curvature="0" />
	<path style="fill:none;stroke:red;stroke-width:1px;stroke-linecap:butt;stroke-linejoin:miter;stroke-opacity:1" d="M 814.158,64.614 828.942,70.5276 z" id="boundary" inkscape:connector-curvature="0" />
	<path style="fill:none;stroke:red;stroke-width:1px;stroke-linecap:butt;stroke-linejoin:miter;stroke-opacity:1" d="M 815.636,335.159 825.985,323.332 z" id="boundary" inkscape:connector-curvature="0" />
	<path style="fill:none;stroke:red;stroke-width:1px;stroke-linecap:butt;stroke-linejoin:miter;stroke-opacity:1" d="M 825.985,323.332 839.291,315.94 z" id="boundary" inkscape:connector-curvature="0" />
	<path style="fill:none;stroke:red;stroke-width:1px;stroke-linecap:butt;stroke-linejoin:miter;stroke-opacity:1" d="M 828.942,70.5276 839.291,82.3547 z" id="boundary" inkscape:connector-curvature="0" />
	<path style="fill:none;stroke:red;stroke-width:1px;stroke-linecap:butt;stroke-linejoin:miter;stroke-opacity:1" d="M 839.291,82.3547 851.118,92.7034 z" id="boundary" inkscape:connector-curvature="0" />
	<path style="fill:none;stroke:red;stroke-width:1px;stroke-linecap:butt;stroke-linejoin:miter;stroke-opacity:1" d="M 839.291,315.94 852.596,323.332 z" id="boundary" inkscape:connector-curvature="0" />
	<path style="fill:none;stroke:red;stroke-width:1px;stroke-linecap:butt;stroke-linejoin:miter;stroke-opacity:1" d="M 851.118,92.7034 864.423,100.095 z" id="boundary" inkscape:connector-curvature="0" />
	<path style="fill:none;stroke:red;stroke-width:1px;stroke-linecap:butt;stroke-linejoin:miter;stroke-opacity:1" d="M 852.596,323.332 865.902,314.462 z" id="boundary" inkscape:connector-curvature="0" />
	<path style="fill:none;stroke:red;stroke-width:1px;stroke-linecap:butt;stroke-linejoin:miter;stroke-opacity:1" d="M 864.423,100.095 877.729,107.487 z" id="boundary" inkscape:connector-curvature="0" />
	<path style="fill:none;stroke:red;stroke-width:1px;stroke-linecap:butt;stroke-linejoin:miter;stroke-opacity:1" d="M 865.902,314.462 877.729,301.156 z" id="boundary" inkscape:connector-curvature="0" />
	<path style="fill:none;stroke:red;stroke-width:1px;stroke-linecap:butt;stroke-linejoin:miter;stroke-opacity:1" d="M 877.729,107.487 889.556,116.358 z" id="boundary" inkscape:connector-curvature="0" />
	<path style="fill:none;stroke:red;stroke-width:1px;stroke-linecap:butt;stroke-linejoin:miter;stroke-opacity:1" d="M 877.729,301.156 891.034,293.765 z" id="boundary" inkscape:connector-curvature="0" />
	<path style="fill:none;stroke:red;stroke-width:1px;stroke-linecap:butt;stroke-linejoin:miter;stroke-opacity:1" d="M 889.556,116.358 899.905,128.185 z" id="boundary" inkscape:connector-curvature="0" />
	<path style="fill:none;stroke:red;stroke-width:1px;stroke-linecap:butt;stroke-linejoin:miter;stroke-opacity:1" d="M 891.034,293.765 904.34,286.373 z" id="boundary" inkscape:connector-curvature="0" />
	<path style="fill:none;stroke:red;stroke-width:1px;stroke-linecap:butt;stroke-linejoin:miter;stroke-opacity:1" d="M 899.905,128.185 914.689,134.098 z" id="boundary" inkscape:connector-curvature="0" />
	<path style="fill:none;stroke:red;stroke-width:1px;stroke-linecap:butt;stroke-linejoin:miter;stroke-opacity:1" d="M 904.34,286.373 919.124,283.416 z" id="boundary" inkscape:connector-curvature="0" />
	<path style="fill:none;stroke:red;stroke-width:1px;stroke-linecap:butt;stroke-linejoin:miter;stroke-opacity:1" d="M 914.689,134.098 927.994,141.49 z" id="boundary" inkscape:connector-curvature="0" />
	<path style="fill:none;stroke:red;stroke-width:1px;stroke-linecap:butt;stroke-linejoin:miter;stroke-opacity:1" d="M 919.124,283.416 933.908,278.981 z" id="boundary" inkscape:connector-curvature="0" />
	<path style="fill:none;stroke:red;stroke-width:1px;stroke-linecap:butt;stroke-linejoin:miter;stroke-opacity:1" d="M 927.994,141.49 939.821,151.839 z" id="boundary" inkscape:connector-curvature="0" />
	<path style="fill:none;stroke:red;stroke-width:1px;stroke-linecap:butt;stroke-linejoin:miter;stroke-opacity:1" d="M 933.908,278.981 947.213,271.589 z" id="boundary" inkscape:connector-curvature="0" />
	<path style="fill:none;stroke:red;stroke-width:1px;stroke-linecap:butt;stroke-linejoin:miter;stroke-opacity:1" d="M 939.821,151.839 950.17,163.666 z" id="boundary" inkscape:connector-curvature="0" />
	<path style="fill:none;stroke:red;stroke-width:1px;stroke-linecap:butt;stroke-linejoin:miter;stroke-opacity:1" d="M 947.213,271.589 960.519,264.197 z" id="boundary" inkscape:connector-curvature="0" />
	<path style="fill:none;stroke:red;stroke-width:1px;stroke-linecap:butt;stroke-linejoin:miter;stroke-opacity:1" d="M 950.17,163.666 964.954,169.58 z" id="boundary" inkscape:connector-curvature="0" />
	<path style="fill:none;stroke:red;stroke-width:1px;stroke-linecap:butt;stroke-linejoin:miter;stroke-opacity:1" d="M 960.519,264.197 975.303,264.197 z" id="boundary" inkscape:connector-curvature="0" />
	<path style="fill:none;stroke:red;stroke-width:1px;stroke-linecap:butt;stroke-linejoin:miter;stroke-opacity:1" d="M 964.954,169.58 973.824,181.407 z" id="boundary" inkscape:connector-curvature="0" />
	<path style="fill:none;stroke:red;stroke-width:1px;stroke-linecap:butt;stroke-linejoin:miter;stroke-opacity:1" d="M 973.824,181.407 985.651,190.277 z" id="boundary" inkscape:connector-curvature="0" />
	<path style="fill:none;stroke:red;stroke-width:1px;stroke-linecap:butt;stroke-linejoin:miter;stroke-opacity:1" d="M 975.303,264.197 987.13,252.37 z" id="boundary" inkscape:connector-curvature="0" />
	<path style="fill:none;stroke:red;stroke-width:1px;stroke-linecap:butt;stroke-linejoin:miter;stroke-opacity:1" d="M 985.651,190.277 991.565,205.061 z" id="boundary" inkscape:connector-curvature="0" />
	<path style="fill:none;stroke:red;stroke-width:1px;stroke-linecap:butt;stroke-linejoin:miter;stroke-opacity:1" d="M 987.13,252.37 996,234.629 z" id="boundary" inkscape:connector-curvature="0" />
	<path style="fill:none;stroke:red;stroke-width:1px;stroke-linecap:butt;stroke-linejoin:miter;stroke-opacity:1" d="M 991.565,205.061 996,219.845 z" id="boundary" inkscape:connector-curvature="0" />
	<path style="fill:none;stroke:red;stroke-width:1px;stroke-linecap:butt;stroke-linejoin:miter;stroke-opacity:1" d="M 996,219.845 996,234.629 z" id="boundary" inkscape:connector-curvature="0" />
	<circle cx="4" cy="171.058" r="4" fill="#0" id="circle0"/>
	<circle cx="4" cy="185.842" r="4" fill="#0" id="circle1"/>
	<circle cx="11.392" cy="156.274" r="4" fill="#0" id="circle2"/>
	<circle cx="11.392" cy="199.148" r="4" fill="#0" id="circle3"/>
	<circle cx="11.392" cy="213.931" r="4" fill="#0" id="circle4"/>
	<circle cx="11.392" cy="228.715" r="4" fill="#0" id="circle5"/>
	<circle cx="18.7839" cy="141.49" r="4" fill="#0" id="circle6"/>
	<circle cx="18.7839" cy="242.021" r="4" fill="#0" id="circle7"/>
	<circle cx="26.1759" cy="255.326" r="4" fill="#0" id="circle8"/>
	<circle cx="30.611" cy="129.663" r="4" fill="#0" id="circle9"/>
	<circle cx="35.0462" cy="267.154" r="4" fill="#0" id="circle10"/>
	<circle cx="45.3949" cy="122.271" r="4" fill="#0" id="circle11"/>
	<circle cx="49.8301" cy="271.589" r="4" fill="#0" id="circle12"/>
	<circle cx="58.7004" cy="129.663" r="4" fill="#0" id="circle13"/>
	<circle cx="64.614" cy="271.589" r="4" fill="#0" id="circle14"/>
	<circle cx="73.4844" cy="129.663" r="4" fill="#0" id="circle15"/>
	<circle cx="77.9195" cy="264.197" r="4" fill="#0" id="circle16"/>
	<circle cx="88.2683" cy="129.663" r="4" fill="#0" id="circle17"/>
	<circle cx="92.7034" cy="264.197" r="4" fill="#0" id="circle18"/>
	<circle cx="101.574" cy="137.055" r="4" fill="#0" id="circle19"/>
	<circle cx="107.487" cy="259.762" r="4" fill="#0" id="circle20"/>
	<circle cx="116.358" cy="137.055" r="4" fill="#0" id="circle21"/>
	<circle cx="122.271" cy="256.805" r="4" fill="#0" id="circle22"/>
	<circle cx="129.663" cy="144.447" r="4" fill="#0" id="circle23"/>
	<circle cx="135.577" cy="249.413" r="4" fill="#0" id="circle24"/>
	<circle cx="144.447" cy="144.447" r="4" fill="#0" id="circle25"/>
	<circle cx="148.882" cy="242.021" r="4" fill="#0" id="circle26"/>
	<circle cx="159.231" cy="147.404" r="4" fill="#0" id="circle27"/>
	<circle cx="163.666" cy="240.542" r="4" fill="#0" id="circle28"/>
	<circle cx="174.015" cy="151.839" r="4" fill="#0" id="circle29"/>
	<circle cx="178.45" cy="234.629" r="4" fill="#0" id="circle30"/>
	<circle cx="188.799" cy="151.839" r="4" fill="#0" id="circle31"/>
	<circle cx="191.756" cy="242.021" r="4" fill="#0" id="circle32"/>
	<circle cx="202.104" cy="144.447" r="4" fill="#0" id="circle33"/>
	<circle cx="203.583" cy="250.891" r="4" fill="#0" id="circle34"/>
	<circle cx="212.453" cy="132.62" r="4" fill="#0" id="circle35"/>
	<circle cx="213.931" cy="262.718" r="4" fill="#0" id="circle36"/>
	<circle cx="224.28" cy="122.271" r="4" fill="#0" id="circle37"/>
	<circle cx="225.759" cy="271.589" r="4" fill="#0" id="circle38"/>
	<circle cx="234.629" cy="110.444" r="4" fill="#0" id="circle39"/>
	<circle cx="239.064" cy="278.981" r="4" fill="#0" id="circle40"/>
	<circle cx="246.456" cy="100.095" r="4" fill="#0" id="circle41"/>
	<circle cx="249.413" cy="290.808" r="4" fill="#0" id="circle42"/>
	<circle cx="259.762" cy="92.7034" r="4" fill="#0" id="circle43"/>
	<circle cx="264.197" cy="296.721" r="4" fill="#0" id="circle44"/>
	<circle cx="274.545" cy="85.3115" r="4" fill="#0" id="circle45"/>
	<circle cx="274.545" cy="308.548" r="4" fill="#0" id="circle46"/>
	<circle cx="286.373" cy="73.4844" r="4" fill="#0" id="circle47"/>
	<circle cx="286.373" cy="318.897" r="4" fill="#0" id="circle48"/>
	<circle cx="299.678" cy="326.289" r="4" fill="#0" id="circle49"/>
	<circle cx="301.156" cy="66.0924" r="4" fill="#0" id="circle50"/>
	<circle cx="314.462" cy="330.724" r="4" fill="#0" id="circle51"/>
	<circle cx="315.94" cy="63.1356" r="4" fill="#0" id="circle52"/>
	<circle cx="323.332" cy="342.551" r="4" fill="#0" id="circle53"/>
	<circle cx="329.246" cy="52.7869" r="4" fill="#0" id="circle54"/>
	<circle cx="335.159" cy="352.9" r="4" fill="#0" id="circle55"/>
	<circle cx="344.03" cy="45.3949" r="4" fill="#0" id="circle56"/>
	<circle cx="349.943" cy="352.9" r="4" fill="#0" id="circle57"/>
	<circle cx="358.814" cy="38.003" r="4" fill="#0" id="circle58"/>
	<circle cx="363.249" cy="360.292" r="4" fill="#0" id="circle59"/>
	<circle cx="373.598" cy="30.611" r="4" fill="#0" id="circle60"/>
	<circle cx="378.033" cy="366.206" r="4" fill="#0" id="circle61"/>
	<circle cx="388.382" cy="26.1759" r="4" fill="#0" id="circle62"/>
	<circle cx="392.817" cy="367.684" r="4" fill="#0" id="circle63"/>
	<circle cx="401.687" cy="18.7839" r="4" fill="#0" id="circle64"/>
	<circle cx="406.122" cy="375.076" r="4" fill="#0" id="circle65"/>
	<circle cx="416.471" cy="18.7839" r="4" fill="#0" id="circle66"/>
	<circle cx="419.428" cy="382.468" r="4" fill="#0" id="circle67"/>
	<circle cx="431.255" cy="18.7839" r="4" fill="#0" id="circle68"/>
	<circle cx="434.212" cy="382.468" r="4" fill="#0" id="circle69"/>
	<circle cx="444.56" cy="11.392" r="4" fill="#0" id="circle70"/>
	<circle cx="448.996" cy="382.468" r="4" fill="#0" id="circle71"/>
	<circle cx="459.344" cy="11.392" r="4" fill="#0" id="circle72"/>
	<circle cx="462.301" cy="389.86" r="4" fill="#0" id="circle73"/>
	<circle cx="474.128" cy="11.392" r="4" fill="#0" id="circle74"/>
	<circle cx="477.085" cy="389.86" r="4" fill="#0" id="circle75"/>
	<circle cx="487.434" cy="4" r="4" fill="#0" id="circle76"/>
	<circle cx="491.869" cy="389.86" r="4" fill="#0" id="circle77"/>
	<circle cx="502.218" cy="4" r="4" fill="#0" id="circle78"/>
	<circle cx="505.174" cy="397.252" r="4" fill="#0" id="circle79"/>
	<circle cx="517.001" cy="4" r="4" fill="#0" id="circle80"/>
	<circle cx="519.958" cy="397.252" r="4" fill="#0" id="circle81"/>
	<circle cx="531.785" cy="4" r="4" fill="#0" id="circle82"/>
	<circle cx="534.742" cy="397.252" r="4" fill="#0" id="circle83"/>
	<circle cx="546.569" cy="4" r="4" fill="#0" id="circle84"/>
	<circle cx="549.526" cy="397.252" r="4" fill="#0" id="circle85"/>
	<circle cx="561.353" cy="4" r="4" fill="#0" id="circle86"/>
	<circle cx="564.31" cy="397.252" r="4" fill="#0" id="circle87"/>
	<circle cx="576.137" cy="4" r="4" fill="#0" id="circle88"/>
	<circle cx="579.094" cy="397.252" r="4" fill="#0" id="circle89"/>
	<circle cx="590.921" cy="4" r="4" fill="#0" id="circle90"/>
	<circle cx="593.878" cy="397.252" r="4" fill="#0" id="circle91"/>
	<circle cx="605.705" cy="4" r="4" fill="#0" id="circle92"/>
	<circle cx="608.662" cy="397.252" r="4" fill="#0" id="circle93"/>
	<circle cx="620.489" cy="4" r="4" fill="#0" id="circle94"/>
	<circle cx="623.446" cy="397.252" r="4" fill="#0" id="circle95"/>
	<circle cx="635.273" cy="4" r="4" fill="#0" id="circle96"/>
	<circle cx="638.23" cy="397.252" r="4" fill="#0" id="circle97"/>
	<circle cx="650.057" cy="4" r="4" fill="#0" id="circle98"/>
	<circle cx="653.013" cy="397.252" r="4" fill="#0" id="circle99"/>
	<circle cx="664.841" cy="4" r="4" fill="#0" id="circle100"/>
	<circle cx="667.797" cy="397.252" r="4" fill="#0" id="circle101"/>
	<circle cx="679.624" cy="4" r="4" fill="#0" id="circle102"/>
	<circle cx="682.581" cy="397.252" r="4" fill="#0" id="circle103"/>
	<circle cx="692.93" cy="11.392" r="4" fill="#0" id="circle104"/>
	<circle cx="697.365" cy="397.252" r="4" fill="#0" id="circle105"/>
	<circle cx="707.714" cy="11.392" r="4" fill="#0" id="circle106"/>
	<circle cx="710.671" cy="389.86" r="4" fill="#0" id="circle107"/>
	<circle cx="722.498" cy="11.392" r="4" fill="#0" id="circle108"/>
	<circle cx="725.455" cy="389.86" r="4" fill="#0" id="circle109"/>
	<circle cx="735.803" cy="18.7839" r="4" fill="#0" id="circle110"/>
	<circle cx="740.238" cy="389.86" r="4" fill="#0" id="circle111"/>
	<circle cx="750.587" cy="21.7407" r="4" fill="#0" id="circle112"/>
	<circle cx="753.544" cy="382.468" r="4" fill="#0" id="circle113"/>
	<circle cx="763.893" cy="29.1326" r="4" fill="#0" id="circle114"/>
	<circle cx="766.849" cy="375.076" r="4" fill="#0" id="circle115"/>
	<circle cx="778.677" cy="35.0462" r="4" fill="#0" id="circle116"/>
	<circle cx="778.677" cy="364.727" r="4" fill="#0" id="circle117"/>
	<circle cx="789.025" cy="46.8733" r="4" fill="#0" id="circle118"/>
	<circle cx="789.025" cy="352.9" r="4" fill="#0" id="circle119"/>
	<circle cx="800.852" cy="57.2221" r="4" fill="#0" id="circle120"/>
	<circle cx="800.852" cy="342.551" r="4" fill="#0" id="circle121"/>
	<circle cx="814.158" cy="64.614" r="4" fill="#0" id="circle122"/>
	<circle cx="815.636" cy="335.159" r="4" fill="#0" id="circle123"/>
	<circle cx="825.985" cy="323.332" r="4" fill="#0" id="circle124"/>
	<circle cx="828.942" cy="70.5276" r="4" fill="#0" id="circle125"/>
	<circle cx="839.291" cy="82.3547" r="4" fill="#0" id="circle126"/>
	<circle cx="839.291" cy="315.94" r="4" fill="#0" id="circle127"/>
	<circle cx="851.118" cy="92.7034" r="4" fill="#0" id="circle128"/>
	<circle cx="852.596" cy="323.332" r="4" fill="#0" id="circle129"/>
	<circle cx="864.423" cy="100.095" r="4" fill="#0" id="circle130"/>
	<circle cx="865.902" cy="314.462" r="4" fill="#0" id="circle131"/>
	<circle cx="877.729" cy="107.487" r="4" fill="#0" id="circle132"/>
	<circle cx="877.729" cy="301.156" r="4" fill="#0" id="circle133"/>
	<circle cx="889.556" cy="116.358" r="4" fill="#0" id="circle134"/>
	<circle cx="891.034" cy="293.765" r="4" fill="#0" id="circle135"/>
	<circle cx="899.905" cy="128.185" r="4" fill="#0" id="circle136"/>
	<circle cx="904.34" cy="286.373" r="4" fill="#0" id="circle137"/>
	<circle cx="914.689" cy="134.098" r="4" fill="#0" id="circle138"/>
	<circle cx="919.124" cy="283.416" r="4" fill="#0" id="circle139"/>
	<circle cx="927.994" cy="141.49" r="4" fill="#0" id="circle140"/>
	<circle cx="933.908" cy="278.981" r="4" fill="#0" id="circle141"/>
	<circle cx="939.821" cy="151.839" r="4" fill="#0" id="circle142"/>
	<circle cx="947.213" cy="271.589" r="4" fill="#0" id="circle143"/>
	<circle cx="950.17" cy="163.666" r="4" fill="#0" id="circle144"/>
	<circle cx="960.519" cy="264.197" r="4" fill="#0" id="circle145"/>
	<circle cx="964.954" cy="169.58" r="4" fill="#0" id="circle146"/>
	<circle cx="973.824" cy="181.407" r="4" fill="#0" id="circle147"/>
	<circle cx="975.303" cy="264.197" r="4" fill="#0" id="circle148"/>
	<circle cx="985.651" cy="190.277" r="4" fill="#0" id="circle149"/>
	<circle cx="987.13" cy="252.37" r="4" fill="#0" id="circle150"/>
	<circle cx="991.565" cy="205.061" r="4" fill="#0" id="circle151"/>
	<circle cx="996" cy="219.845" r="4" fill="#0" id="circle152"/>
	<circle cx="996" cy="234.629" r="4" fill="#0" id="circle153"/>
	</g>
</svg>