<?xml version="1.0" encoding="UTF-8" standalone="no"?>
<!-- Created with CurveBenchmark -->
<svg
	xmlns:dc="http://purl.org/dc/elements/1.1/"
	xmlns:cc="http://creativecommons.org/ns#"
	xmlns:rdf="http://www.w3.org/1999/02/22-rdf-syntax-ns#"
	xmlns:svg="http://www.w3.org/2000/svg"
	xmlns="http://www.w3.org/2000/svg"
	xmlns:sodipodi="http://sodipodi.sourceforge.net/DTD/sodipodi-0.dtd"
	xmlns:inkscape="http://www.inkscape.org/namespaces/inkscape"
	width="1000"
	height="1000"
	id="svg2"
	version="1.1"
	sodipodi:docname="manifold/hnncrust-teddy115.png.txt">
<defs
	id="defs4" />
<metadata
	id="metadata7">
	<rdf:RDF>
		<cc:Work
			rdf:about="">
			<dc:format>image/svg+xml</dc:format>
			<dc:type
				rdf:resource="http://purl.org/dc/dcmitype/StillImage" />
			<dc:title></dc:title>
		</cc:Work>
	</rdf:RDF>
</metadata>
<g
	inkscape:label="Layer 1"
	inkscape:groupmode="layer"
	id="layer1">
	<path style="fill:none;stroke:red;stroke-width:1px;stroke-linecap:butt;stroke-linejoin:miter;stroke-opacity:1" d="M 4,230.097 4,258.359 z" id="boundary" inkscape:connector-curvature="0" />
	<path style="fill:none;stroke:red;stroke-width:1px;stroke-linecap:butt;stroke-linejoin:miter;stroke-opacity:1" d="M 4,230.097 9.65242,190.53 z" id="boundary" inkscape:connector-curvature="0" />
	<path style="fill:none;stroke:red;stroke-width:1px;stroke-linecap:butt;stroke-linejoin:miter;stroke-opacity:1" d="M 4,258.359 6.82621,286.621 z" id="boundary" inkscape:connector-curvature="0" />
	<path style="fill:none;stroke:red;stroke-width:1px;stroke-linecap:butt;stroke-linejoin:miter;stroke-opacity:1" d="M 6.82621,286.621 18.1311,314.883 z" id="boundary" inkscape:connector-curvature="0" />
	<path style="fill:none;stroke:red;stroke-width:1px;stroke-linecap:butt;stroke-linejoin:miter;stroke-opacity:1" d="M 9.65242,190.53 20.9573,156.615 z" id="boundary" inkscape:connector-curvature="0" />
	<path style="fill:none;stroke:red;stroke-width:1px;stroke-linecap:butt;stroke-linejoin:miter;stroke-opacity:1" d="M 18.1311,314.883 32.2621,340.319 z" id="boundary" inkscape:connector-curvature="0" />
	<path style="fill:none;stroke:red;stroke-width:1px;stroke-linecap:butt;stroke-linejoin:miter;stroke-opacity:1" d="M 20.9573,156.615 32.2621,128.353 z" id="boundary" inkscape:connector-curvature="0" />
	<path style="fill:none;stroke:red;stroke-width:1px;stroke-linecap:butt;stroke-linejoin:miter;stroke-opacity:1" d="M 32.2621,128.353 54.8718,105.744 z" id="boundary" inkscape:connector-curvature="0" />
	<path style="fill:none;stroke:red;stroke-width:1px;stroke-linecap:butt;stroke-linejoin:miter;stroke-opacity:1" d="M 32.2621,340.319 46.3932,365.755 z" id="boundary" inkscape:connector-curvature="0" />
	<path style="fill:none;stroke:red;stroke-width:1px;stroke-linecap:butt;stroke-linejoin:miter;stroke-opacity:1" d="M 46.3932,365.755 60.5242,391.191 z" id="boundary" inkscape:connector-curvature="0" />
	<path style="fill:none;stroke:red;stroke-width:1px;stroke-linecap:butt;stroke-linejoin:miter;stroke-opacity:1" d="M 49.2194,473.151 49.2194,501.413 z" id="boundary" inkscape:connector-curvature="0" />
	<path style="fill:none;stroke:red;stroke-width:1px;stroke-linecap:butt;stroke-linejoin:miter;stroke-opacity:1" d="M 49.2194,473.151 54.8718,439.236 z" id="boundary" inkscape:connector-curvature="0" />
	<path style="fill:none;stroke:red;stroke-width:1px;stroke-linecap:butt;stroke-linejoin:miter;stroke-opacity:1" d="M 49.2194,501.413 54.8718,529.675 z" id="boundary" inkscape:connector-curvature="0" />
	<path style="fill:none;stroke:red;stroke-width:1px;stroke-linecap:butt;stroke-linejoin:miter;stroke-opacity:1" d="M 49.2194,721.858 49.2194,750.12 z" id="boundary" inkscape:connector-curvature="0" />
	<path style="fill:none;stroke:red;stroke-width:1px;stroke-linecap:butt;stroke-linejoin:miter;stroke-opacity:1" d="M 49.2194,721.858 54.8718,670.986 z" id="boundary" inkscape:connector-curvature="0" />
	<path style="fill:none;stroke:red;stroke-width:1px;stroke-linecap:butt;stroke-linejoin:miter;stroke-opacity:1" d="M 49.2194,750.12 49.2194,778.382 z" id="boundary" inkscape:connector-curvature="0" />
	<path style="fill:none;stroke:red;stroke-width:1px;stroke-linecap:butt;stroke-linejoin:miter;stroke-opacity:1" d="M 49.2194,778.382 66.1766,800.991 z" id="boundary" inkscape:connector-curvature="0" />
	<path style="fill:none;stroke:red;stroke-width:1px;stroke-linecap:butt;stroke-linejoin:miter;stroke-opacity:1" d="M 54.8718,105.744 77.4815,83.1339 z" id="boundary" inkscape:connector-curvature="0" />
	<path style="fill:none;stroke:red;stroke-width:1px;stroke-linecap:butt;stroke-linejoin:miter;stroke-opacity:1" d="M 54.8718,439.236 60.5242,391.191 z" id="boundary" inkscape:connector-curvature="0" />
	<path style="fill:none;stroke:red;stroke-width:1px;stroke-linecap:butt;stroke-linejoin:miter;stroke-opacity:1" d="M 54.8718,529.675 54.8718,557.937 z" id="boundary" inkscape:connector-curvature="0" />
	<path style="fill:none;stroke:red;stroke-width:1px;stroke-linecap:butt;stroke-linejoin:miter;stroke-opacity:1" d="M 54.8718,557.937 54.8718,586.199 z" id="boundary" inkscape:connector-curvature="0" />
	<path style="fill:none;stroke:red;stroke-width:1px;stroke-linecap:butt;stroke-linejoin:miter;stroke-opacity:1" d="M 54.8718,586.199 54.8718,614.462 z" id="boundary" inkscape:connector-curvature="0" />
	<path style="fill:none;stroke:red;stroke-width:1px;stroke-linecap:butt;stroke-linejoin:miter;stroke-opacity:1" d="M 54.8718,614.462 54.8718,642.724 z" id="boundary" inkscape:connector-curvature="0" />
	<path style="fill:none;stroke:red;stroke-width:1px;stroke-linecap:butt;stroke-linejoin:miter;stroke-opacity:1" d="M 54.8718,642.724 54.8718,670.986 z" id="boundary" inkscape:connector-curvature="0" />
	<path style="fill:none;stroke:red;stroke-width:1px;stroke-linecap:butt;stroke-linejoin:miter;stroke-opacity:1" d="M 66.1766,800.991 66.1766,829.254 z" id="boundary" inkscape:connector-curvature="0" />
	<path style="fill:none;stroke:red;stroke-width:1px;stroke-linecap:butt;stroke-linejoin:miter;stroke-opacity:1" d="M 66.1766,829.254 66.1766,857.516 z" id="boundary" inkscape:connector-curvature="0" />
	<path style="fill:none;stroke:red;stroke-width:1px;stroke-linecap:butt;stroke-linejoin:miter;stroke-opacity:1" d="M 66.1766,857.516 66.1766,885.778 z" id="boundary" inkscape:connector-curvature="0" />
	<path style="fill:none;stroke:red;stroke-width:1px;stroke-linecap:butt;stroke-linejoin:miter;stroke-opacity:1" d="M 66.1766,885.778 71.8291,914.04 z" id="boundary" inkscape:connector-curvature="0" />
	<path style="fill:none;stroke:red;stroke-width:1px;stroke-linecap:butt;stroke-linejoin:miter;stroke-opacity:1" d="M 71.8291,914.04 77.4815,942.302 z" id="boundary" inkscape:connector-curvature="0" />
	<path style="fill:none;stroke:red;stroke-width:1px;stroke-linecap:butt;stroke-linejoin:miter;stroke-opacity:1" d="M 77.4815,83.1339 88.7863,37.9145 z" id="boundary" inkscape:connector-curvature="0" />
	<path style="fill:none;stroke:red;stroke-width:1px;stroke-linecap:butt;stroke-linejoin:miter;stroke-opacity:1" d="M 77.4815,942.302 85.9601,970.564 z" id="boundary" inkscape:connector-curvature="0" />
	<path style="fill:none;stroke:red;stroke-width:1px;stroke-linecap:butt;stroke-linejoin:miter;stroke-opacity:1" d="M 85.9601,970.564 111.396,984.695 z" id="boundary" inkscape:connector-curvature="0" />
	<path style="fill:none;stroke:red;stroke-width:1px;stroke-linecap:butt;stroke-linejoin:miter;stroke-opacity:1" d="M 88.7863,37.9145 105.744,15.3048 z" id="boundary" inkscape:connector-curvature="0" />
	<path style="fill:none;stroke:red;stroke-width:1px;stroke-linecap:butt;stroke-linejoin:miter;stroke-opacity:1" d="M 105.744,15.3048 134.006,9.65242 z" id="boundary" inkscape:connector-curvature="0" />
	<path style="fill:none;stroke:red;stroke-width:1px;stroke-linecap:butt;stroke-linejoin:miter;stroke-opacity:1" d="M 111.396,984.695 139.658,993.174 z" id="boundary" inkscape:connector-curvature="0" />
	<path style="fill:none;stroke:red;stroke-width:1px;stroke-linecap:butt;stroke-linejoin:miter;stroke-opacity:1" d="M 134.006,9.65242 162.268,6.82621 z" id="boundary" inkscape:connector-curvature="0" />
	<path style="fill:none;stroke:red;stroke-width:1px;stroke-linecap:butt;stroke-linejoin:miter;stroke-opacity:1" d="M 139.658,993.174 167.92,996 z" id="boundary" inkscape:connector-curvature="0" />
	<path style="fill:none;stroke:red;stroke-width:1px;stroke-linecap:butt;stroke-linejoin:miter;stroke-opacity:1" d="M 162.268,6.82621 187.704,20.9573 z" id="boundary" inkscape:connector-curvature="0" />
	<path style="fill:none;stroke:red;stroke-width:1px;stroke-linecap:butt;stroke-linejoin:miter;stroke-opacity:1" d="M 167.92,996 196.182,990.348 z" id="boundary" inkscape:connector-curvature="0" />
	<path style="fill:none;stroke:red;stroke-width:1px;stroke-linecap:butt;stroke-linejoin:miter;stroke-opacity:1" d="M 187.704,20.9573 215.966,9.65242 z" id="boundary" inkscape:connector-curvature="0" />
	<path style="fill:none;stroke:red;stroke-width:1px;stroke-linecap:butt;stroke-linejoin:miter;stroke-opacity:1" d="M 196.182,990.348 224.444,990.348 z" id="boundary" inkscape:connector-curvature="0" />
	<path style="fill:none;stroke:red;stroke-width:1px;stroke-linecap:butt;stroke-linejoin:miter;stroke-opacity:1" d="M 215.966,9.65242 244.228,4 z" id="boundary" inkscape:connector-curvature="0" />
	<path style="fill:none;stroke:red;stroke-width:1px;stroke-linecap:butt;stroke-linejoin:miter;stroke-opacity:1" d="M 224.444,990.348 252.707,984.695 z" id="boundary" inkscape:connector-curvature="0" />
	<path style="fill:none;stroke:red;stroke-width:1px;stroke-linecap:butt;stroke-linejoin:miter;stroke-opacity:1" d="M 244.228,4 272.49,9.65242 z" id="boundary" inkscape:connector-curvature="0" />
	<path style="fill:none;stroke:red;stroke-width:1px;stroke-linecap:butt;stroke-linejoin:miter;stroke-opacity:1" d="M 252.707,984.695 280.969,984.695 z" id="boundary" inkscape:connector-curvature="0" />
	<path style="fill:none;stroke:red;stroke-width:1px;stroke-linecap:butt;stroke-linejoin:miter;stroke-opacity:1" d="M 272.49,9.65242 292.274,32.2621 z" id="boundary" inkscape:connector-curvature="0" />
	<path style="fill:none;stroke:red;stroke-width:1px;stroke-linecap:butt;stroke-linejoin:miter;stroke-opacity:1" d="M 280.969,984.695 309.231,979.043 z" id="boundary" inkscape:connector-curvature="0" />
	<path style="fill:none;stroke:red;stroke-width:1px;stroke-linecap:butt;stroke-linejoin:miter;stroke-opacity:1" d="M 292.274,32.2621 306.405,57.698 z" id="boundary" inkscape:connector-curvature="0" />
	<path style="fill:none;stroke:red;stroke-width:1px;stroke-linecap:butt;stroke-linejoin:miter;stroke-opacity:1" d="M 306.405,57.698 317.709,85.9601 z" id="boundary" inkscape:connector-curvature="0" />
	<path style="fill:none;stroke:red;stroke-width:1px;stroke-linecap:butt;stroke-linejoin:miter;stroke-opacity:1" d="M 309.231,979.043 337.493,990.348 z" id="boundary" inkscape:connector-curvature="0" />
	<path style="fill:none;stroke:red;stroke-width:1px;stroke-linecap:butt;stroke-linejoin:miter;stroke-opacity:1" d="M 317.709,85.9601 340.319,105.744 z" id="boundary" inkscape:connector-curvature="0" />
	<path style="fill:none;stroke:red;stroke-width:1px;stroke-linecap:butt;stroke-linejoin:miter;stroke-opacity:1" d="M 337.493,990.348 365.755,996 z" id="boundary" inkscape:connector-curvature="0" />
	<path style="fill:none;stroke:red;stroke-width:1px;stroke-linecap:butt;stroke-linejoin:miter;stroke-opacity:1" d="M 340.319,105.744 354.45,131.179 z" id="boundary" inkscape:connector-curvature="0" />
	<path style="fill:none;stroke:red;stroke-width:1px;stroke-linecap:butt;stroke-linejoin:miter;stroke-opacity:1" d="M 354.45,131.179 368.581,156.615 z" id="boundary" inkscape:connector-curvature="0" />
	<path style="fill:none;stroke:red;stroke-width:1px;stroke-linecap:butt;stroke-linejoin:miter;stroke-opacity:1" d="M 365.755,996 394.017,996 z" id="boundary" inkscape:connector-curvature="0" />
	<path style="fill:none;stroke:red;stroke-width:1px;stroke-linecap:butt;stroke-linejoin:miter;stroke-opacity:1" d="M 368.581,156.615 385.538,179.225 z" id="boundary" inkscape:connector-curvature="0" />
	<path style="fill:none;stroke:red;stroke-width:1px;stroke-linecap:butt;stroke-linejoin:miter;stroke-opacity:1" d="M 385.538,179.225 413.801,190.53 z" id="boundary" inkscape:connector-curvature="0" />
	<path style="fill:none;stroke:red;stroke-width:1px;stroke-linecap:butt;stroke-linejoin:miter;stroke-opacity:1" d="M 394.017,396.843 408.148,422.279 z" id="boundary" inkscape:connector-curvature="0" />
	<path style="fill:none;stroke:red;stroke-width:1px;stroke-linecap:butt;stroke-linejoin:miter;stroke-opacity:1" d="M 394.017,396.843 416.627,379.886 z" id="boundary" inkscape:connector-curvature="0" />
	<path style="fill:none;stroke:red;stroke-width:1px;stroke-linecap:butt;stroke-linejoin:miter;stroke-opacity:1" d="M 394.017,996 422.279,996 z" id="boundary" inkscape:connector-curvature="0" />
	<path style="fill:none;stroke:red;stroke-width:1px;stroke-linecap:butt;stroke-linejoin:miter;stroke-opacity:1" d="M 408.148,422.279 436.41,433.584 z" id="boundary" inkscape:connector-curvature="0" />
	<path style="fill:none;stroke:red;stroke-width:1px;stroke-linecap:butt;stroke-linejoin:miter;stroke-opacity:1" d="M 413.801,190.53 442.063,190.53 z" id="boundary" inkscape:connector-curvature="0" />
	<path style="fill:none;stroke:red;stroke-width:1px;stroke-linecap:butt;stroke-linejoin:miter;stroke-opacity:1" d="M 416.627,379.886 439.236,362.929 z" id="boundary" inkscape:connector-curvature="0" />
	<path style="fill:none;stroke:red;stroke-width:1px;stroke-linecap:butt;stroke-linejoin:miter;stroke-opacity:1" d="M 422.279,996 450.541,990.348 z" id="boundary" inkscape:connector-curvature="0" />
	<path style="fill:none;stroke:red;stroke-width:1px;stroke-linecap:butt;stroke-linejoin:miter;stroke-opacity:1" d="M 436.41,433.584 464.672,433.584 z" id="boundary" inkscape:connector-curvature="0" />
	<path style="fill:none;stroke:red;stroke-width:1px;stroke-linecap:butt;stroke-linejoin:miter;stroke-opacity:1" d="M 439.236,362.929 467.499,357.276 z" id="boundary" inkscape:connector-curvature="0" />
	<path style="fill:none;stroke:red;stroke-width:1px;stroke-linecap:butt;stroke-linejoin:miter;stroke-opacity:1" d="M 442.063,190.53 464.672,207.487 z" id="boundary" inkscape:connector-curvature="0" />
	<path style="fill:none;stroke:red;stroke-width:1px;stroke-linecap:butt;stroke-linejoin:miter;stroke-opacity:1" d="M 450.541,990.348 478.803,981.869 z" id="boundary" inkscape:connector-curvature="0" />
	<path style="fill:none;stroke:red;stroke-width:1px;stroke-linecap:butt;stroke-linejoin:miter;stroke-opacity:1" d="M 464.672,207.487 490.108,221.618 z" id="boundary" inkscape:connector-curvature="0" />
	<path style="fill:none;stroke:red;stroke-width:1px;stroke-linecap:butt;stroke-linejoin:miter;stroke-opacity:1" d="M 464.672,433.584 492.934,439.236 z" id="boundary" inkscape:connector-curvature="0" />
	<path style="fill:none;stroke:red;stroke-width:1px;stroke-linecap:butt;stroke-linejoin:miter;stroke-opacity:1" d="M 467.499,357.276 484.456,334.667 z" id="boundary" inkscape:connector-curvature="0" />
	<path style="fill:none;stroke:red;stroke-width:1px;stroke-linecap:butt;stroke-linejoin:miter;stroke-opacity:1" d="M 478.803,981.869 507.066,990.348 z" id="boundary" inkscape:connector-curvature="0" />
	<path style="fill:none;stroke:red;stroke-width:1px;stroke-linecap:butt;stroke-linejoin:miter;stroke-opacity:1" d="M 484.456,334.667 492.934,303.578 z" id="boundary" inkscape:connector-curvature="0" />
	<path style="fill:none;stroke:red;stroke-width:1px;stroke-linecap:butt;stroke-linejoin:miter;stroke-opacity:1" d="M 490.108,221.618 504.239,247.054 z" id="boundary" inkscape:connector-curvature="0" />
	<path style="fill:none;stroke:red;stroke-width:1px;stroke-linecap:butt;stroke-linejoin:miter;stroke-opacity:1" d="M 492.934,275.316 492.934,303.578 z" id="boundary" inkscape:connector-curvature="0" />
	<path style="fill:none;stroke:red;stroke-width:1px;stroke-linecap:butt;stroke-linejoin:miter;stroke-opacity:1" d="M 492.934,275.316 504.239,247.054 z" id="boundary" inkscape:connector-curvature="0" />
	<path style="fill:none;stroke:red;stroke-width:1px;stroke-linecap:butt;stroke-linejoin:miter;stroke-opacity:1" d="M 492.934,439.236 521.197,450.541 z" id="boundary" inkscape:connector-curvature="0" />
	<path style="fill:none;stroke:red;stroke-width:1px;stroke-linecap:butt;stroke-linejoin:miter;stroke-opacity:1" d="M 495.761,628.593 498.587,656.855 z" id="boundary" inkscape:connector-curvature="0" />
	<path style="fill:none;stroke:red;stroke-width:1px;stroke-linecap:butt;stroke-linejoin:miter;stroke-opacity:1" d="M 495.761,628.593 521.197,614.462 z" id="boundary" inkscape:connector-curvature="0" />
	<path style="fill:none;stroke:red;stroke-width:1px;stroke-linecap:butt;stroke-linejoin:miter;stroke-opacity:1" d="M 498.587,656.855 498.587,685.117 z" id="boundary" inkscape:connector-curvature="0" />
	<path style="fill:none;stroke:red;stroke-width:1px;stroke-linecap:butt;stroke-linejoin:miter;stroke-opacity:1" d="M 498.587,685.117 498.587,713.379 z" id="boundary" inkscape:connector-curvature="0" />
	<path style="fill:none;stroke:red;stroke-width:1px;stroke-linecap:butt;stroke-linejoin:miter;stroke-opacity:1" d="M 498.587,713.379 521.197,733.162 z" id="boundary" inkscape:connector-curvature="0" />
	<path style="fill:none;stroke:red;stroke-width:1px;stroke-linecap:butt;stroke-linejoin:miter;stroke-opacity:1" d="M 507.066,990.348 535.328,996 z" id="boundary" inkscape:connector-curvature="0" />
	<path style="fill:none;stroke:red;stroke-width:1px;stroke-linecap:butt;stroke-linejoin:miter;stroke-opacity:1" d="M 521.197,450.541 549.459,461.846 z" id="boundary" inkscape:connector-curvature="0" />
	<path style="fill:none;stroke:red;stroke-width:1px;stroke-linecap:butt;stroke-linejoin:miter;stroke-opacity:1" d="M 521.197,614.462 543.806,591.852 z" id="boundary" inkscape:connector-curvature="0" />
	<path style="fill:none;stroke:red;stroke-width:1px;stroke-linecap:butt;stroke-linejoin:miter;stroke-opacity:1" d="M 521.197,733.162 549.459,727.51 z" id="boundary" inkscape:connector-curvature="0" />
	<path style="fill:none;stroke:red;stroke-width:1px;stroke-linecap:butt;stroke-linejoin:miter;stroke-opacity:1" d="M 535.328,996 563.59,996 z" id="boundary" inkscape:connector-curvature="0" />
	<path style="fill:none;stroke:red;stroke-width:1px;stroke-linecap:butt;stroke-linejoin:miter;stroke-opacity:1" d="M 543.806,591.852 560.764,552.285 z" id="boundary" inkscape:connector-curvature="0" />
	<path style="fill:none;stroke:red;stroke-width:1px;stroke-linecap:butt;stroke-linejoin:miter;stroke-opacity:1" d="M 549.459,461.846 566.416,484.456 z" id="boundary" inkscape:connector-curvature="0" />
	<path style="fill:none;stroke:red;stroke-width:1px;stroke-linecap:butt;stroke-linejoin:miter;stroke-opacity:1" d="M 549.459,727.51 577.721,727.51 z" id="boundary" inkscape:connector-curvature="0" />
	<path style="fill:none;stroke:red;stroke-width:1px;stroke-linecap:butt;stroke-linejoin:miter;stroke-opacity:1" d="M 560.764,552.285 572.068,512.718 z" id="boundary" inkscape:connector-curvature="0" />
	<path style="fill:none;stroke:red;stroke-width:1px;stroke-linecap:butt;stroke-linejoin:miter;stroke-opacity:1" d="M 563.59,996 591.852,990.348 z" id="boundary" inkscape:connector-curvature="0" />
	<path style="fill:none;stroke:red;stroke-width:1px;stroke-linecap:butt;stroke-linejoin:miter;stroke-opacity:1" d="M 566.416,484.456 572.068,512.718 z" id="boundary" inkscape:connector-curvature="0" />
	<path style="fill:none;stroke:red;stroke-width:1px;stroke-linecap:butt;stroke-linejoin:miter;stroke-opacity:1" d="M 577.721,727.51 605.983,727.51 z" id="boundary" inkscape:connector-curvature="0" />
	<path style="fill:none;stroke:red;stroke-width:1px;stroke-linecap:butt;stroke-linejoin:miter;stroke-opacity:1" d="M 591.852,990.348 614.462,973.39 z" id="boundary" inkscape:connector-curvature="0" />
	<path style="fill:none;stroke:red;stroke-width:1px;stroke-linecap:butt;stroke-linejoin:miter;stroke-opacity:1" d="M 605.983,727.51 634.245,738.815 z" id="boundary" inkscape:connector-curvature="0" />
	<path style="fill:none;stroke:red;stroke-width:1px;stroke-linecap:butt;stroke-linejoin:miter;stroke-opacity:1" d="M 614.462,973.39 637.071,950.781 z" id="boundary" inkscape:connector-curvature="0" />
	<path style="fill:none;stroke:red;stroke-width:1px;stroke-linecap:butt;stroke-linejoin:miter;stroke-opacity:1" d="M 634.245,738.815 645.55,767.077 z" id="boundary" inkscape:connector-curvature="0" />
	<path style="fill:none;stroke:red;stroke-width:1px;stroke-linecap:butt;stroke-linejoin:miter;stroke-opacity:1" d="M 637.071,950.781 645.55,902.735 z" id="boundary" inkscape:connector-curvature="0" />
	<path style="fill:none;stroke:red;stroke-width:1px;stroke-linecap:butt;stroke-linejoin:miter;stroke-opacity:1" d="M 645.55,767.077 651.202,795.339 z" id="boundary" inkscape:connector-curvature="0" />
	<path style="fill:none;stroke:red;stroke-width:1px;stroke-linecap:butt;stroke-linejoin:miter;stroke-opacity:1" d="M 645.55,902.735 651.202,851.863 z" id="boundary" inkscape:connector-curvature="0" />
	<path style="fill:none;stroke:red;stroke-width:1px;stroke-linecap:butt;stroke-linejoin:miter;stroke-opacity:1" d="M 651.202,795.339 651.202,823.601 z" id="boundary" inkscape:connector-curvature="0" />
	<path style="fill:none;stroke:red;stroke-width:1px;stroke-linecap:butt;stroke-linejoin:miter;stroke-opacity:1" d="M 651.202,823.601 651.202,851.863 z" id="boundary" inkscape:connector-curvature="0" />
	<circle cx="4" cy="230.097" r="4" fill="#0" id="circle0"/>
	<circle cx="4" cy="258.359" r="4" fill="#0" id="circle1"/>
	<circle cx="6.82621" cy="286.621" r="4" fill="#0" id="circle2"/>
	<circle cx="9.65242" cy="190.53" r="4" fill="#0" id="circle3"/>
	<circle cx="18.1311" cy="314.883" r="4" fill="#0" id="circle4"/>
	<circle cx="20.9573" cy="156.615" r="4" fill="#0" id="circle5"/>
	<circle cx="32.2621" cy="128.353" r="4" fill="#0" id="circle6"/>
	<circle cx="32.2621" cy="340.319" r="4" fill="#0" id="circle7"/>
	<circle cx="46.3932" cy="365.755" r="4" fill="#0" id="circle8"/>
	<circle cx="49.2194" cy="473.151" r="4" fill="#0" id="circle9"/>
	<circle cx="49.2194" cy="501.413" r="4" fill="#0" id="circle10"/>
	<circle cx="49.2194" cy="721.858" r="4" fill="#0" id="circle11"/>
	<circle cx="49.2194" cy="750.12" r="4" fill="#0" id="circle12"/>
	<circle cx="49.2194" cy="778.382" r="4" fill="#0" id="circle13"/>
	<circle cx="54.8718" cy="105.744" r="4" fill="#0" id="circle14"/>
	<circle cx="54.8718" cy="439.236" r="4" fill="#0" id="circle15"/>
	<circle cx="54.8718" cy="529.675" r="4" fill="#0" id="circle16"/>
	<circle cx="54.8718" cy="557.937" r="4" fill="#0" id="circle17"/>
	<circle cx="54.8718" cy="586.199" r="4" fill="#0" id="circle18"/>
	<circle cx="54.8718" cy="614.462" r="4" fill="#0" id="circle19"/>
	<circle cx="54.8718" cy="642.724" r="4" fill="#0" id="circle20"/>
	<circle cx="54.8718" cy="670.986" r="4" fill="#0" id="circle21"/>
	<circle cx="60.5242" cy="391.191" r="4" fill="#0" id="circle22"/>
	<circle cx="66.1766" cy="800.991" r="4" fill="#0" id="circle23"/>
	<circle cx="66.1766" cy="829.254" r="4" fill="#0" id="circle24"/>
	<circle cx="66.1766" cy="857.516" r="4" fill="#0" id="circle25"/>
	<circle cx="66.1766" cy="885.778" r="4" fill="#0" id="circle26"/>
	<circle cx="71.8291" cy="914.04" r="4" fill="#0" id="circle27"/>
	<circle cx="77.4815" cy="83.1339" r="4" fill="#0" id="circle28"/>
	<circle cx="77.4815" cy="942.302" r="4" fill="#0" id="circle29"/>
	<circle cx="85.9601" cy="970.564" r="4" fill="#0" id="circle30"/>
	<circle cx="88.7863" cy="37.9145" r="4" fill="#0" id="circle31"/>
	<circle cx="105.744" cy="15.3048" r="4" fill="#0" id="circle32"/>
	<circle cx="111.396" cy="984.695" r="4" fill="#0" id="circle33"/>
	<circle cx="134.006" cy="9.65242" r="4" fill="#0" id="circle34"/>
	<circle cx="139.658" cy="993.174" r="4" fill="#0" id="circle35"/>
	<circle cx="162.268" cy="6.82621" r="4" fill="#0" id="circle36"/>
	<circle cx="167.92" cy="996" r="4" fill="#0" id="circle37"/>
	<circle cx="187.704" cy="20.9573" r="4" fill="#0" id="circle38"/>
	<circle cx="196.182" cy="990.348" r="4" fill="#0" id="circle39"/>
	<circle cx="215.966" cy="9.65242" r="4" fill="#0" id="circle40"/>
	<circle cx="224.444" cy="990.348" r="4" fill="#0" id="circle41"/>
	<circle cx="244.228" cy="4" r="4" fill="#0" id="circle42"/>
	<circle cx="252.707" cy="984.695" r="4" fill="#0" id="circle43"/>
	<circle cx="272.49" cy="9.65242" r="4" fill="#0" id="circle44"/>
	<circle cx="280.969" cy="984.695" r="4" fill="#0" id="circle45"/>
	<circle cx="292.274" cy="32.2621" r="4" fill="#0" id="circle46"/>
	<circle cx="306.405" cy="57.698" r="4" fill="#0" id="circle47"/>
	<circle cx="309.231" cy="979.043" r="4" fill="#0" id="circle48"/>
	<circle cx="317.709" cy="85.9601" r="4" fill="#0" id="circle49"/>
	<circle cx="337.493" cy="990.348" r="4" fill="#0" id="circle50"/>
	<circle cx="340.319" cy="105.744" r="4" fill="#0" id="circle51"/>
	<circle cx="354.45" cy="131.179" r="4" fill="#0" id="circle52"/>
	<circle cx="365.755" cy="996" r="4" fill="#0" id="circle53"/>
	<circle cx="368.581" cy="156.615" r="4" fill="#0" id="circle54"/>
	<circle cx="385.538" cy="179.225" r="4" fill="#0" id="circle55"/>
	<circle cx="394.017" cy="396.843" r="4" fill="#0" id="circle56"/>
	<circle cx="394.017" cy="996" r="4" fill="#0" id="circle57"/>
	<circle cx="408.148" cy="422.279" r="4" fill="#0" id="circle58"/>
	<circle cx="413.801" cy="190.53" r="4" fill="#0" id="circle59"/>
	<circle cx="416.627" cy="379.886" r="4" fill="#0" id="circle60"/>
	<circle cx="422.279" cy="996" r="4" fill="#0" id="circle61"/>
	<circle cx="436.41" cy="433.584" r="4" fill="#0" id="circle62"/>
	<circle cx="439.236" cy="362.929" r="4" fill="#0" id="circle63"/>
	<circle cx="442.063" cy="190.53" r="4" fill="#0" id="circle64"/>
	<circle cx="450.541" cy="990.348" r="4" fill="#0" id="circle65"/>
	<circle cx="464.672" cy="207.487" r="4" fill="#0" id="circle66"/>
	<circle cx="464.672" cy="433.584" r="4" fill="#0" id="circle67"/>
	<circle cx="467.499" cy="357.276" r="4" fill="#0" id="circle68"/>
	<circle cx="478.803" cy="981.869" r="4" fill="#0" id="circle69"/>
	<circle cx="484.456" cy="334.667" r="4" fill="#0" id="circle70"/>
	<circle cx="490.108" cy="221.618" r="4" fill="#0" id="circle71"/>
	<circle cx="492.934" cy="275.316" r="4" fill="#0" id="circle72"/>
	<circle cx="492.934" cy="303.578" r="4" fill="#0" id="circle73"/>
	<circle cx="492.934" cy="439.236" r="4" fill="#0" id="circle74"/>
	<circle cx="495.761" cy="628.593" r="4" fill="#0" id="circle75"/>
	<circle cx="498.587" cy="656.855" r="4" fill="#0" id="circle76"/>
	<circle cx="498.587" cy="685.117" r="4" fill="#0" id="circle77"/>
	<circle cx="498.587" cy="713.379" r="4" fill="#0" id="circle78"/>
	<circle cx="504.239" cy="247.054" r="4" fill="#0" id="circle79"/>
	<circle cx="507.066" cy="990.348" r="4" fill="#0" id="circle80"/>
	<circle cx="521.197" cy="450.541" r="4" fill="#0" id="circle81"/>
	<circle cx="521.197" cy="614.462" r="4" fill="#0" id="circle82"/>
	<circle cx="521.197" cy="733.162" r="4" fill="#0" id="circle83"/>
	<circle cx="535.328" cy="996" r="4" fill="#0" id="circle84"/>
	<circle cx="543.806" cy="591.852" r="4" fill="#0" id="circle85"/>
	<circle cx="549.459" cy="461.846" r="4" fill="#0" id="circle86"/>
	<circle cx="549.459" cy="727.51" r="4" fill="#0" id="circle87"/>
	<circle cx="560.764" cy="552.285" r="4" fill="#0" id="circle88"/>
	<circle cx="563.59" cy="996" r="4" fill="#0" id="circle89"/>
	<circle cx="566.416" cy="484.456" r="4" fill="#0" id="circle90"/>
	<circle cx="572.068" cy="512.718" r="4" fill="#0" id="circle91"/>
	<circle cx="577.721" cy="727.51" r="4" fill="#0" id="circle92"/>
	<circle cx="591.852" cy="990.348" r="4" fill="#0" id="circle93"/>
	<circle cx="605.983" cy="727.51" r="4" fill="#0" id="circle94"/>
	<circle cx="614.462" cy="973.39" r="4" fill="#0" id="circle95"/>
	<circle cx="634.245" cy="738.815" r="4" fill="#0" id="circle96"/>
	<circle cx="637.071" cy="950.781" r="4" fill="#0" id="circle97"/>
	<circle cx="645.55" cy="767.077" r="4" fill="#0" id="circle98"/>
	<circle cx="645.55" cy="902.735" r="4" fill="#0" id="circle99"/>
	<circle cx="651.202" cy="795.339" r="4" fill="#0" id="circle100"/>
	<circle cx="651.202" cy="823.601" r="4" fill="#0" id="circle101"/>
	<circle cx="651.202" cy="851.863" r="4" fill="#0" id="circle102"/>
	</g>
</svg>