<?xml version="1.0" encoding="UTF-8" standalone="no"?>
<!-- Created with CurveBenchmark -->
<svg
	xmlns:dc="http://purl.org/dc/elements/1.1/"
	xmlns:cc="http://creativecommons.org/ns#"
	xmlns:rdf="http://www.w3.org/1999/02/22-rdf-syntax-ns#"
	xmlns:svg="http://www.w3.org/2000/svg"
	xmlns="http://www.w3.org/2000/svg"
	xmlns:sodipodi="http://sodipodi.sourceforge.net/DTD/sodipodi-0.dtd"
	xmlns:inkscape="http://www.inkscape.org/namespaces/inkscape"
	width="1000"
	height="1000"
	id="svg2"
	version="1.1"
	sodipodi:docname="manifold/hnncrust-sink050.png.txt">
<defs
	id="defs4" />
<metadata
	id="metadata7">
	<rdf:RDF>
		<cc:Work
			rdf:about="">
			<dc:format>image/svg+xml</dc:format>
			<dc:type
				rdf:resource="http://purl.org/dc/dcmitype/StillImage" />
			<dc:title></dc:title>
		</cc:Work>
	</rdf:RDF>
</metadata>
<g
	inkscape:label="Layer 1"
	inkscape:groupmode="layer"
	id="layer1">
	<path style="fill:none;stroke:red;stroke-width:1px;stroke-linecap:butt;stroke-linejoin:miter;stroke-opacity:1" d="M 4,179.921 4,228.788 z" id="boundary" inkscape:connector-curvature="0" />
	<path style="fill:none;stroke:red;stroke-width:1px;stroke-linecap:butt;stroke-linejoin:miter;stroke-opacity:1" d="M 4,179.921 52.867,160.374 z" id="boundary" inkscape:connector-curvature="0" />
	<path style="fill:none;stroke:red;stroke-width:1px;stroke-linecap:butt;stroke-linejoin:miter;stroke-opacity:1" d="M 4,228.788 4,277.655 z" id="boundary" inkscape:connector-curvature="0" />
	<path style="fill:none;stroke:red;stroke-width:1px;stroke-linecap:butt;stroke-linejoin:miter;stroke-opacity:1" d="M 4,277.655 43.0936,311.862 z" id="boundary" inkscape:connector-curvature="0" />
	<path style="fill:none;stroke:red;stroke-width:1px;stroke-linecap:butt;stroke-linejoin:miter;stroke-opacity:1" d="M 43.0936,311.862 91.9606,311.862 z" id="boundary" inkscape:connector-curvature="0" />
	<path style="fill:none;stroke:red;stroke-width:1px;stroke-linecap:butt;stroke-linejoin:miter;stroke-opacity:1" d="M 52.867,160.374 101.734,160.374 z" id="boundary" inkscape:connector-curvature="0" />
	<path style="fill:none;stroke:red;stroke-width:1px;stroke-linecap:butt;stroke-linejoin:miter;stroke-opacity:1" d="M 91.9606,311.862 140.828,311.862 z" id="boundary" inkscape:connector-curvature="0" />
	<path style="fill:none;stroke:red;stroke-width:1px;stroke-linecap:butt;stroke-linejoin:miter;stroke-opacity:1" d="M 101.734,160.374 150.601,160.374 z" id="boundary" inkscape:connector-curvature="0" />
	<path style="fill:none;stroke:red;stroke-width:1px;stroke-linecap:butt;stroke-linejoin:miter;stroke-opacity:1" d="M 140.828,311.862 184.808,336.296 z" id="boundary" inkscape:connector-curvature="0" />
	<path style="fill:none;stroke:red;stroke-width:1px;stroke-linecap:butt;stroke-linejoin:miter;stroke-opacity:1" d="M 170.148,82.1872 189.695,33.3202 z" id="boundary" inkscape:connector-curvature="0" />
	<path style="fill:none;stroke:red;stroke-width:1px;stroke-linecap:butt;stroke-linejoin:miter;stroke-opacity:1" d="M 170.148,82.1872 204.355,121.281 z" id="boundary" inkscape:connector-curvature="0" />
	<path style="fill:none;stroke:red;stroke-width:1px;stroke-linecap:butt;stroke-linejoin:miter;stroke-opacity:1" d="M 184.808,336.296 204.355,385.163 z" id="boundary" inkscape:connector-curvature="0" />
	<path style="fill:none;stroke:red;stroke-width:1px;stroke-linecap:butt;stroke-linejoin:miter;stroke-opacity:1" d="M 189.695,33.3202 228.788,4 z" id="boundary" inkscape:connector-curvature="0" />
	<path style="fill:none;stroke:red;stroke-width:1px;stroke-linecap:butt;stroke-linejoin:miter;stroke-opacity:1" d="M 204.355,121.281 233.675,160.374 z" id="boundary" inkscape:connector-curvature="0" />
	<path style="fill:none;stroke:red;stroke-width:1px;stroke-linecap:butt;stroke-linejoin:miter;stroke-opacity:1" d="M 204.355,385.163 228.788,429.143 z" id="boundary" inkscape:connector-curvature="0" />
	<path style="fill:none;stroke:red;stroke-width:1px;stroke-linecap:butt;stroke-linejoin:miter;stroke-opacity:1" d="M 228.788,4 272.768,28.4335 z" id="boundary" inkscape:connector-curvature="0" />
	<path style="fill:none;stroke:red;stroke-width:1px;stroke-linecap:butt;stroke-linejoin:miter;stroke-opacity:1" d="M 228.788,429.143 277.655,438.916 z" id="boundary" inkscape:connector-curvature="0" />
	<path style="fill:none;stroke:red;stroke-width:1px;stroke-linecap:butt;stroke-linejoin:miter;stroke-opacity:1" d="M 233.675,160.374 282.542,160.374 z" id="boundary" inkscape:connector-curvature="0" />
	<path style="fill:none;stroke:red;stroke-width:1px;stroke-linecap:butt;stroke-linejoin:miter;stroke-opacity:1" d="M 272.768,28.4335 316.749,52.867 z" id="boundary" inkscape:connector-curvature="0" />
	<path style="fill:none;stroke:red;stroke-width:1px;stroke-linecap:butt;stroke-linejoin:miter;stroke-opacity:1" d="M 277.655,438.916 326.522,448.69 z" id="boundary" inkscape:connector-curvature="0" />
	<path style="fill:none;stroke:red;stroke-width:1px;stroke-linecap:butt;stroke-linejoin:miter;stroke-opacity:1" d="M 282.542,160.374 331.409,160.374 z" id="boundary" inkscape:connector-curvature="0" />
	<path style="fill:none;stroke:red;stroke-width:1px;stroke-linecap:butt;stroke-linejoin:miter;stroke-opacity:1" d="M 297.202,952.02 321.635,996 z" id="boundary" inkscape:connector-curvature="0" />
	<path style="fill:none;stroke:red;stroke-width:1px;stroke-linecap:butt;stroke-linejoin:miter;stroke-opacity:1" d="M 297.202,952.02 326.522,903.153 z" id="boundary" inkscape:connector-curvature="0" />
	<path style="fill:none;stroke:red;stroke-width:1px;stroke-linecap:butt;stroke-linejoin:miter;stroke-opacity:1" d="M 321.635,996 370.502,996 z" id="boundary" inkscape:connector-curvature="0" />
	<path style="fill:none;stroke:red;stroke-width:1px;stroke-linecap:butt;stroke-linejoin:miter;stroke-opacity:1" d="M 326.522,448.69 355.842,487.783 z" id="boundary" inkscape:connector-curvature="0" />
	<path style="fill:none;stroke:red;stroke-width:1px;stroke-linecap:butt;stroke-linejoin:miter;stroke-opacity:1" d="M 326.522,903.153 346.069,834.739 z" id="boundary" inkscape:connector-curvature="0" />
	<path style="fill:none;stroke:red;stroke-width:1px;stroke-linecap:butt;stroke-linejoin:miter;stroke-opacity:1" d="M 331.409,160.374 380.276,160.374 z" id="boundary" inkscape:connector-curvature="0" />
	<path style="fill:none;stroke:red;stroke-width:1px;stroke-linecap:butt;stroke-linejoin:miter;stroke-opacity:1" d="M 346.069,834.739 355.842,780.985 z" id="boundary" inkscape:connector-curvature="0" />
	<path style="fill:none;stroke:red;stroke-width:1px;stroke-linecap:butt;stroke-linejoin:miter;stroke-opacity:1" d="M 355.842,487.783 355.842,536.65 z" id="boundary" inkscape:connector-curvature="0" />
	<path style="fill:none;stroke:red;stroke-width:1px;stroke-linecap:butt;stroke-linejoin:miter;stroke-opacity:1" d="M 355.842,536.65 355.842,585.517 z" id="boundary" inkscape:connector-curvature="0" />
	<path style="fill:none;stroke:red;stroke-width:1px;stroke-linecap:butt;stroke-linejoin:miter;stroke-opacity:1" d="M 355.842,585.517 355.842,634.384 z" id="boundary" inkscape:connector-curvature="0" />
	<path style="fill:none;stroke:red;stroke-width:1px;stroke-linecap:butt;stroke-linejoin:miter;stroke-opacity:1" d="M 355.842,634.384 355.842,683.251 z" id="boundary" inkscape:connector-curvature="0" />
	<path style="fill:none;stroke:red;stroke-width:1px;stroke-linecap:butt;stroke-linejoin:miter;stroke-opacity:1" d="M 355.842,683.251 355.842,732.118 z" id="boundary" inkscape:connector-curvature="0" />
	<path style="fill:none;stroke:red;stroke-width:1px;stroke-linecap:butt;stroke-linejoin:miter;stroke-opacity:1" d="M 355.842,732.118 355.842,780.985 z" id="boundary" inkscape:connector-curvature="0" />
	<path style="fill:none;stroke:red;stroke-width:1px;stroke-linecap:butt;stroke-linejoin:miter;stroke-opacity:1" d="M 370.502,996 419.369,996 z" id="boundary" inkscape:connector-curvature="0" />
	<path style="fill:none;stroke:red;stroke-width:1px;stroke-linecap:butt;stroke-linejoin:miter;stroke-opacity:1" d="M 380.276,160.374 429.143,160.374 z" id="boundary" inkscape:connector-curvature="0" />
	<path style="fill:none;stroke:red;stroke-width:1px;stroke-linecap:butt;stroke-linejoin:miter;stroke-opacity:1" d="M 419.369,996 468.236,996 z" id="boundary" inkscape:connector-curvature="0" />
	<path style="fill:none;stroke:red;stroke-width:1px;stroke-linecap:butt;stroke-linejoin:miter;stroke-opacity:1" d="M 429.143,160.374 453.576,204.355 z" id="boundary" inkscape:connector-curvature="0" />
	<path style="fill:none;stroke:red;stroke-width:1px;stroke-linecap:butt;stroke-linejoin:miter;stroke-opacity:1" d="M 453.576,204.355 478.01,248.335 z" id="boundary" inkscape:connector-curvature="0" />
	<path style="fill:none;stroke:red;stroke-width:1px;stroke-linecap:butt;stroke-linejoin:miter;stroke-opacity:1" d="M 468.236,996 517.103,996 z" id="boundary" inkscape:connector-curvature="0" />
	<path style="fill:none;stroke:red;stroke-width:1px;stroke-linecap:butt;stroke-linejoin:miter;stroke-opacity:1" d="M 478.01,248.335 526.877,258.108 z" id="boundary" inkscape:connector-curvature="0" />
	<path style="fill:none;stroke:red;stroke-width:1px;stroke-linecap:butt;stroke-linejoin:miter;stroke-opacity:1" d="M 517.103,996 565.97,996 z" id="boundary" inkscape:connector-curvature="0" />
	<path style="fill:none;stroke:red;stroke-width:1px;stroke-linecap:butt;stroke-linejoin:miter;stroke-opacity:1" d="M 526.877,258.108 575.744,258.108 z" id="boundary" inkscape:connector-curvature="0" />
	<path style="fill:none;stroke:red;stroke-width:1px;stroke-linecap:butt;stroke-linejoin:miter;stroke-opacity:1" d="M 526.877,404.709 526.877,453.576 z" id="boundary" inkscape:connector-curvature="0" />
	<path style="fill:none;stroke:red;stroke-width:1px;stroke-linecap:butt;stroke-linejoin:miter;stroke-opacity:1" d="M 526.877,404.709 551.31,360.729 z" id="boundary" inkscape:connector-curvature="0" />
	<path style="fill:none;stroke:red;stroke-width:1px;stroke-linecap:butt;stroke-linejoin:miter;stroke-opacity:1" d="M 526.877,453.576 526.877,502.443 z" id="boundary" inkscape:connector-curvature="0" />
	<path style="fill:none;stroke:red;stroke-width:1px;stroke-linecap:butt;stroke-linejoin:miter;stroke-opacity:1" d="M 526.877,502.443 526.877,551.31 z" id="boundary" inkscape:connector-curvature="0" />
	<path style="fill:none;stroke:red;stroke-width:1px;stroke-linecap:butt;stroke-linejoin:miter;stroke-opacity:1" d="M 526.877,551.31 526.877,600.177 z" id="boundary" inkscape:connector-curvature="0" />
	<path style="fill:none;stroke:red;stroke-width:1px;stroke-linecap:butt;stroke-linejoin:miter;stroke-opacity:1" d="M 526.877,600.177 526.877,649.044 z" id="boundary" inkscape:connector-curvature="0" />
	<path style="fill:none;stroke:red;stroke-width:1px;stroke-linecap:butt;stroke-linejoin:miter;stroke-opacity:1" d="M 526.877,649.044 526.877,697.911 z" id="boundary" inkscape:connector-curvature="0" />
	<path style="fill:none;stroke:red;stroke-width:1px;stroke-linecap:butt;stroke-linejoin:miter;stroke-opacity:1" d="M 526.877,697.911 526.877,746.778 z" id="boundary" inkscape:connector-curvature="0" />
	<path style="fill:none;stroke:red;stroke-width:1px;stroke-linecap:butt;stroke-linejoin:miter;stroke-opacity:1" d="M 526.877,746.778 526.877,795.645 z" id="boundary" inkscape:connector-curvature="0" />
	<path style="fill:none;stroke:red;stroke-width:1px;stroke-linecap:butt;stroke-linejoin:miter;stroke-opacity:1" d="M 526.877,795.645 526.877,844.512 z" id="boundary" inkscape:connector-curvature="0" />
	<path style="fill:none;stroke:red;stroke-width:1px;stroke-linecap:butt;stroke-linejoin:miter;stroke-opacity:1" d="M 526.877,844.512 541.537,893.379 z" id="boundary" inkscape:connector-curvature="0" />
	<path style="fill:none;stroke:red;stroke-width:1px;stroke-linecap:butt;stroke-linejoin:miter;stroke-opacity:1" d="M 541.537,893.379 565.97,937.36 z" id="boundary" inkscape:connector-curvature="0" />
	<path style="fill:none;stroke:red;stroke-width:1px;stroke-linecap:butt;stroke-linejoin:miter;stroke-opacity:1" d="M 551.31,360.729 570.857,311.862 z" id="boundary" inkscape:connector-curvature="0" />
	<path style="fill:none;stroke:red;stroke-width:1px;stroke-linecap:butt;stroke-linejoin:miter;stroke-opacity:1" d="M 565.97,937.36 565.97,996 z" id="boundary" inkscape:connector-curvature="0" />
	<path style="fill:none;stroke:red;stroke-width:1px;stroke-linecap:butt;stroke-linejoin:miter;stroke-opacity:1" d="M 570.857,311.862 619.724,311.862 z" id="boundary" inkscape:connector-curvature="0" />
	<path style="fill:none;stroke:red;stroke-width:1px;stroke-linecap:butt;stroke-linejoin:miter;stroke-opacity:1" d="M 575.744,258.108 624.611,258.108 z" id="boundary" inkscape:connector-curvature="0" />
	<path style="fill:none;stroke:red;stroke-width:1px;stroke-linecap:butt;stroke-linejoin:miter;stroke-opacity:1" d="M 619.724,311.862 668.591,311.862 z" id="boundary" inkscape:connector-curvature="0" />
	<path style="fill:none;stroke:red;stroke-width:1px;stroke-linecap:butt;stroke-linejoin:miter;stroke-opacity:1" d="M 624.611,258.108 673.478,258.108 z" id="boundary" inkscape:connector-curvature="0" />
	<path style="fill:none;stroke:red;stroke-width:1px;stroke-linecap:butt;stroke-linejoin:miter;stroke-opacity:1" d="M 668.591,311.862 712.571,287.429 z" id="boundary" inkscape:connector-curvature="0" />
	<path style="fill:none;stroke:red;stroke-width:1px;stroke-linecap:butt;stroke-linejoin:miter;stroke-opacity:1" d="M 673.478,258.108 712.571,287.429 z" id="boundary" inkscape:connector-curvature="0" />
	<circle cx="4" cy="179.921" r="4" fill="#0" id="circle0"/>
	<circle cx="4" cy="228.788" r="4" fill="#0" id="circle1"/>
	<circle cx="4" cy="277.655" r="4" fill="#0" id="circle2"/>
	<circle cx="43.0936" cy="311.862" r="4" fill="#0" id="circle3"/>
	<circle cx="52.867" cy="160.374" r="4" fill="#0" id="circle4"/>
	<circle cx="91.9606" cy="311.862" r="4" fill="#0" id="circle5"/>
	<circle cx="101.734" cy="160.374" r="4" fill="#0" id="circle6"/>
	<circle cx="140.828" cy="311.862" r="4" fill="#0" id="circle7"/>
	<circle cx="150.601" cy="160.374" r="4" fill="#0" id="circle8"/>
	<circle cx="170.148" cy="82.1872" r="4" fill="#0" id="circle9"/>
	<circle cx="184.808" cy="336.296" r="4" fill="#0" id="circle10"/>
	<circle cx="189.695" cy="33.3202" r="4" fill="#0" id="circle11"/>
	<circle cx="204.355" cy="121.281" r="4" fill="#0" id="circle12"/>
	<circle cx="204.355" cy="385.163" r="4" fill="#0" id="circle13"/>
	<circle cx="228.788" cy="4" r="4" fill="#0" id="circle14"/>
	<circle cx="228.788" cy="429.143" r="4" fill="#0" id="circle15"/>
	<circle cx="233.675" cy="160.374" r="4" fill="#0" id="circle16"/>
	<circle cx="272.768" cy="28.4335" r="4" fill="#0" id="circle17"/>
	<circle cx="277.655" cy="438.916" r="4" fill="#0" id="circle18"/>
	<circle cx="282.542" cy="160.374" r="4" fill="#0" id="circle19"/>
	<circle cx="297.202" cy="952.02" r="4" fill="#0" id="circle20"/>
	<circle cx="316.749" cy="52.867" r="4" fill="#0" id="circle21"/>
	<circle cx="321.635" cy="996" r="4" fill="#0" id="circle22"/>
	<circle cx="326.522" cy="448.69" r="4" fill="#0" id="circle23"/>
	<circle cx="326.522" cy="903.153" r="4" fill="#0" id="circle24"/>
	<circle cx="331.409" cy="160.374" r="4" fill="#0" id="circle25"/>
	<circle cx="346.069" cy="834.739" r="4" fill="#0" id="circle26"/>
	<circle cx="355.842" cy="487.783" r="4" fill="#0" id="circle27"/>
	<circle cx="355.842" cy="536.65" r="4" fill="#0" id="circle28"/>
	<circle cx="355.842" cy="585.517" r="4" fill="#0" id="circle29"/>
	<circle cx="355.842" cy="634.384" r="4" fill="#0" id="circle30"/>
	<circle cx="355.842" cy="683.251" r="4" fill="#0" id="circle31"/>
	<circle cx="355.842" cy="732.118" r="4" fill="#0" id="circle32"/>
	<circle cx="355.842" cy="780.985" r="4" fill="#0" id="circle33"/>
	<circle cx="370.502" cy="996" r="4" fill="#0" id="circle34"/>
	<circle cx="380.276" cy="160.374" r="4" fill="#0" id="circle35"/>
	<circle cx="419.369" cy="996" r="4" fill="#0" id="circle36"/>
	<circle cx="429.143" cy="160.374" r="4" fill="#0" id="circle37"/>
	<circle cx="453.576" cy="204.355" r="4" fill="#0" id="circle38"/>
	<circle cx="468.236" cy="996" r="4" fill="#0" id="circle39"/>
	<circle cx="478.01" cy="248.335" r="4" fill="#0" id="circle40"/>
	<circle cx="517.103" cy="996" r="4" fill="#0" id="circle41"/>
	<circle cx="526.877" cy="258.108" r="4" fill="#0" id="circle42"/>
	<circle cx="526.877" cy="404.709" r="4" fill="#0" id="circle43"/>
	<circle cx="526.877" cy="453.576" r="4" fill="#0" id="circle44"/>
	<circle cx="526.877" cy="502.443" r="4" fill="#0" id="circle45"/>
	<circle cx="526.877" cy="551.31" r="4" fill="#0" id="circle46"/>
	<circle cx="526.877" cy="600.177" r="4" fill="#0" id="circle47"/>
	<circle cx="526.877" cy="649.044" r="4" fill="#0" id="circle48"/>
	<circle cx="526.877" cy="697.911" r="4" fill="#0" id="circle49"/>
	<circle cx="526.877" cy="746.778" r="4" fill="#0" id="circle50"/>
	<circle cx="526.877" cy="795.645" r="4" fill="#0" id="circle51"/>
	<circle cx="526.877" cy="844.512" r="4" fill="#0" id="circle52"/>
	<circle cx="541.537" cy="893.379" r="4" fill="#0" id="circle53"/>
	<circle cx="551.31" cy="360.729" r="4" fill="#0" id="circle54"/>
	<circle cx="565.97" cy="937.36" r="4" fill="#0" id="circle55"/>
	<circle cx="565.97" cy="996" r="4" fill="#0" id="circle56"/>
	<circle cx="570.857" cy="311.862" r="4" fill="#0" id="circle57"/>
	<circle cx="575.744" cy="258.108" r="4" fill="#0" id="circle58"/>
	<circle cx="619.724" cy="311.862" r="4" fill="#0" id="circle59"/>
	<circle cx="624.611" cy="258.108" r="4" fill="#0" id="circle60"/>
	<circle cx="668.591" cy="311.862" r="4" fill="#0" id="circle61"/>
	<circle cx="673.478" cy="258.108" r="4" fill="#0" id="circle62"/>
	<circle cx="712.571" cy="287.429" r="4" fill="#0" id="circle63"/>
	</g>
</svg>