<?xml version="1.0" encoding="UTF-8" standalone="no"?>
<!-- Created with CurveBenchmark -->
<svg
	xmlns:dc="http://purl.org/dc/elements/1.1/"
	xmlns:cc="http://creativecommons.org/ns#"
	xmlns:rdf="http://www.w3.org/1999/02/22-rdf-syntax-ns#"
	xmlns:svg="http://www.w3.org/2000/svg"
	xmlns="http://www.w3.org/2000/svg"
	xmlns:sodipodi="http://sodipodi.sourceforge.net/DTD/sodipodi-0.dtd"
	xmlns:inkscape="http://www.inkscape.org/namespaces/inkscape"
	width="1000"
	height="1000"
	id="svg2"
	version="1.1"
	sodipodi:docname="manifold/hnncrust-mulletsaff1.png.txt">
<defs
	id="defs4" />
<metadata
	id="metadata7">
	<rdf:RDF>
		<cc:Work
			rdf:about="">
			<dc:format>image/svg+xml</dc:format>
			<dc:type
				rdf:resource="http://purl.org/dc/dcmitype/StillImage" />
			<dc:title></dc:title>
		</cc:Work>
	</rdf:RDF>
</metadata>
<g
	inkscape:label="Layer 1"
	inkscape:groupmode="layer"
	id="layer1">
	<path style="fill:none;stroke:red;stroke-width:1px;stroke-linecap:butt;stroke-linejoin:miter;stroke-opacity:1" d="M 4,29.0408 4,48.3029 z" id="boundary" inkscape:connector-curvature="0" />
	<path style="fill:none;stroke:red;stroke-width:1px;stroke-linecap:butt;stroke-linejoin:miter;stroke-opacity:1" d="M 4,29.0408 19.4097,13.6311 z" id="boundary" inkscape:connector-curvature="0" />
	<path style="fill:none;stroke:red;stroke-width:1px;stroke-linecap:butt;stroke-linejoin:miter;stroke-opacity:1" d="M 4,48.3029 19.4097,61.7864 z" id="boundary" inkscape:connector-curvature="0" />
	<path style="fill:none;stroke:red;stroke-width:1px;stroke-linecap:butt;stroke-linejoin:miter;stroke-opacity:1" d="M 19.4097,13.6311 38.6718,4 z" id="boundary" inkscape:connector-curvature="0" />
	<path style="fill:none;stroke:red;stroke-width:1px;stroke-linecap:butt;stroke-linejoin:miter;stroke-opacity:1" d="M 19.4097,61.7864 32.8932,77.1961 z" id="boundary" inkscape:connector-curvature="0" />
	<path style="fill:none;stroke:red;stroke-width:1px;stroke-linecap:butt;stroke-linejoin:miter;stroke-opacity:1" d="M 32.8932,77.1961 42.5243,94.532 z" id="boundary" inkscape:connector-curvature="0" />
	<path style="fill:none;stroke:red;stroke-width:1px;stroke-linecap:butt;stroke-linejoin:miter;stroke-opacity:1" d="M 38.6718,4 56.0078,13.6311 z" id="boundary" inkscape:connector-curvature="0" />
	<path style="fill:none;stroke:red;stroke-width:1px;stroke-linecap:butt;stroke-linejoin:miter;stroke-opacity:1" d="M 42.5243,94.532 52.1553,111.868 z" id="boundary" inkscape:connector-curvature="0" />
	<path style="fill:none;stroke:red;stroke-width:1px;stroke-linecap:butt;stroke-linejoin:miter;stroke-opacity:1" d="M 52.1553,111.868 63.7126,127.278 z" id="boundary" inkscape:connector-curvature="0" />
	<path style="fill:none;stroke:red;stroke-width:1px;stroke-linecap:butt;stroke-linejoin:miter;stroke-opacity:1" d="M 56.0078,13.6311 75.2699,13.6311 z" id="boundary" inkscape:connector-curvature="0" />
	<path style="fill:none;stroke:red;stroke-width:1px;stroke-linecap:butt;stroke-linejoin:miter;stroke-opacity:1" d="M 63.7126,127.278 79.1223,140.761 z" id="boundary" inkscape:connector-curvature="0" />
	<path style="fill:none;stroke:red;stroke-width:1px;stroke-linecap:butt;stroke-linejoin:miter;stroke-opacity:1" d="M 75.2699,13.6311 92.6058,23.2621 z" id="boundary" inkscape:connector-curvature="0" />
	<path style="fill:none;stroke:red;stroke-width:1px;stroke-linecap:butt;stroke-linejoin:miter;stroke-opacity:1" d="M 79.1223,140.761 86.8272,160.023 z" id="boundary" inkscape:connector-curvature="0" />
	<path style="fill:none;stroke:red;stroke-width:1px;stroke-linecap:butt;stroke-linejoin:miter;stroke-opacity:1" d="M 86.8272,160.023 102.237,173.507 z" id="boundary" inkscape:connector-curvature="0" />
	<path style="fill:none;stroke:red;stroke-width:1px;stroke-linecap:butt;stroke-linejoin:miter;stroke-opacity:1" d="M 92.6058,23.2621 109.942,32.8932 z" id="boundary" inkscape:connector-curvature="0" />
	<path style="fill:none;stroke:red;stroke-width:1px;stroke-linecap:butt;stroke-linejoin:miter;stroke-opacity:1" d="M 102.237,173.507 115.72,188.917 z" id="boundary" inkscape:connector-curvature="0" />
	<path style="fill:none;stroke:red;stroke-width:1px;stroke-linecap:butt;stroke-linejoin:miter;stroke-opacity:1" d="M 109.942,32.8932 125.351,44.4505 z" id="boundary" inkscape:connector-curvature="0" />
	<path style="fill:none;stroke:red;stroke-width:1px;stroke-linecap:butt;stroke-linejoin:miter;stroke-opacity:1" d="M 115.72,188.917 131.13,202.4 z" id="boundary" inkscape:connector-curvature="0" />
	<path style="fill:none;stroke:red;stroke-width:1px;stroke-linecap:butt;stroke-linejoin:miter;stroke-opacity:1" d="M 125.351,44.4505 140.761,57.934 z" id="boundary" inkscape:connector-curvature="0" />
	<path style="fill:none;stroke:red;stroke-width:1px;stroke-linecap:butt;stroke-linejoin:miter;stroke-opacity:1" d="M 131.13,202.4 144.614,217.81 z" id="boundary" inkscape:connector-curvature="0" />
	<path style="fill:none;stroke:red;stroke-width:1px;stroke-linecap:butt;stroke-linejoin:miter;stroke-opacity:1" d="M 140.761,57.934 158.097,67.565 z" id="boundary" inkscape:connector-curvature="0" />
	<path style="fill:none;stroke:red;stroke-width:1px;stroke-linecap:butt;stroke-linejoin:miter;stroke-opacity:1" d="M 144.614,217.81 160.023,231.293 z" id="boundary" inkscape:connector-curvature="0" />
	<path style="fill:none;stroke:red;stroke-width:1px;stroke-linecap:butt;stroke-linejoin:miter;stroke-opacity:1" d="M 158.097,67.565 177.359,75.2699 z" id="boundary" inkscape:connector-curvature="0" />
	<path style="fill:none;stroke:red;stroke-width:1px;stroke-linecap:butt;stroke-linejoin:miter;stroke-opacity:1" d="M 160.023,231.293 173.507,246.703 z" id="boundary" inkscape:connector-curvature="0" />
	<path style="fill:none;stroke:red;stroke-width:1px;stroke-linecap:butt;stroke-linejoin:miter;stroke-opacity:1" d="M 173.507,246.703 183.138,264.039 z" id="boundary" inkscape:connector-curvature="0" />
	<path style="fill:none;stroke:red;stroke-width:1px;stroke-linecap:butt;stroke-linejoin:miter;stroke-opacity:1" d="M 177.359,75.2699 188.917,90.6796 z" id="boundary" inkscape:connector-curvature="0" />
	<path style="fill:none;stroke:red;stroke-width:1px;stroke-linecap:butt;stroke-linejoin:miter;stroke-opacity:1" d="M 183.138,264.039 186.99,283.301 z" id="boundary" inkscape:connector-curvature="0" />
	<path style="fill:none;stroke:red;stroke-width:1px;stroke-linecap:butt;stroke-linejoin:miter;stroke-opacity:1" d="M 186.99,283.301 186.99,302.563 z" id="boundary" inkscape:connector-curvature="0" />
	<path style="fill:none;stroke:red;stroke-width:1px;stroke-linecap:butt;stroke-linejoin:miter;stroke-opacity:1" d="M 186.99,302.563 186.99,321.825 z" id="boundary" inkscape:connector-curvature="0" />
	<path style="fill:none;stroke:red;stroke-width:1px;stroke-linecap:butt;stroke-linejoin:miter;stroke-opacity:1" d="M 186.99,321.825 186.99,341.087 z" id="boundary" inkscape:connector-curvature="0" />
	<path style="fill:none;stroke:red;stroke-width:1px;stroke-linecap:butt;stroke-linejoin:miter;stroke-opacity:1" d="M 186.99,341.087 190.843,360.35 z" id="boundary" inkscape:connector-curvature="0" />
	<path style="fill:none;stroke:red;stroke-width:1px;stroke-linecap:butt;stroke-linejoin:miter;stroke-opacity:1" d="M 188.917,90.6796 206.252,100.311 z" id="boundary" inkscape:connector-curvature="0" />
	<path style="fill:none;stroke:red;stroke-width:1px;stroke-linecap:butt;stroke-linejoin:miter;stroke-opacity:1" d="M 190.843,360.35 206.252,371.907 z" id="boundary" inkscape:connector-curvature="0" />
	<path style="fill:none;stroke:red;stroke-width:1px;stroke-linecap:butt;stroke-linejoin:miter;stroke-opacity:1" d="M 206.252,100.311 221.662,111.868 z" id="boundary" inkscape:connector-curvature="0" />
	<path style="fill:none;stroke:red;stroke-width:1px;stroke-linecap:butt;stroke-linejoin:miter;stroke-opacity:1" d="M 206.252,371.907 212.031,391.169 z" id="boundary" inkscape:connector-curvature="0" />
	<path style="fill:none;stroke:red;stroke-width:1px;stroke-linecap:butt;stroke-linejoin:miter;stroke-opacity:1" d="M 212.031,391.169 229.367,400.8 z" id="boundary" inkscape:connector-curvature="0" />
	<path style="fill:none;stroke:red;stroke-width:1px;stroke-linecap:butt;stroke-linejoin:miter;stroke-opacity:1" d="M 221.662,111.868 237.072,125.351 z" id="boundary" inkscape:connector-curvature="0" />
	<path style="fill:none;stroke:red;stroke-width:1px;stroke-linecap:butt;stroke-linejoin:miter;stroke-opacity:1" d="M 229.367,400.8 246.703,391.169 z" id="boundary" inkscape:connector-curvature="0" />
	<path style="fill:none;stroke:red;stroke-width:1px;stroke-linecap:butt;stroke-linejoin:miter;stroke-opacity:1" d="M 237.072,125.351 254.408,134.983 z" id="boundary" inkscape:connector-curvature="0" />
	<path style="fill:none;stroke:red;stroke-width:1px;stroke-linecap:butt;stroke-linejoin:miter;stroke-opacity:1" d="M 246.703,391.169 265.965,371.907 z" id="boundary" inkscape:connector-curvature="0" />
	<path style="fill:none;stroke:red;stroke-width:1px;stroke-linecap:butt;stroke-linejoin:miter;stroke-opacity:1" d="M 254.408,134.983 265.965,150.392 z" id="boundary" inkscape:connector-curvature="0" />
	<path style="fill:none;stroke:red;stroke-width:1px;stroke-linecap:butt;stroke-linejoin:miter;stroke-opacity:1" d="M 265.965,150.392 281.375,161.95 z" id="boundary" inkscape:connector-curvature="0" />
	<path style="fill:none;stroke:red;stroke-width:1px;stroke-linecap:butt;stroke-linejoin:miter;stroke-opacity:1" d="M 265.965,371.907 283.301,362.276 z" id="boundary" inkscape:connector-curvature="0" />
	<path style="fill:none;stroke:red;stroke-width:1px;stroke-linecap:butt;stroke-linejoin:miter;stroke-opacity:1" d="M 281.375,161.95 300.637,169.654 z" id="boundary" inkscape:connector-curvature="0" />
	<path style="fill:none;stroke:red;stroke-width:1px;stroke-linecap:butt;stroke-linejoin:miter;stroke-opacity:1" d="M 283.301,362.276 294.858,377.685 z" id="boundary" inkscape:connector-curvature="0" />
	<path style="fill:none;stroke:red;stroke-width:1px;stroke-linecap:butt;stroke-linejoin:miter;stroke-opacity:1" d="M 294.858,377.685 310.268,391.169 z" id="boundary" inkscape:connector-curvature="0" />
	<path style="fill:none;stroke:red;stroke-width:1px;stroke-linecap:butt;stroke-linejoin:miter;stroke-opacity:1" d="M 300.637,169.654 314.12,185.064 z" id="boundary" inkscape:connector-curvature="0" />
	<path style="fill:none;stroke:red;stroke-width:1px;stroke-linecap:butt;stroke-linejoin:miter;stroke-opacity:1" d="M 310.268,391.169 323.751,406.579 z" id="boundary" inkscape:connector-curvature="0" />
	<path style="fill:none;stroke:red;stroke-width:1px;stroke-linecap:butt;stroke-linejoin:miter;stroke-opacity:1" d="M 314.12,185.064 329.53,198.548 z" id="boundary" inkscape:connector-curvature="0" />
	<path style="fill:none;stroke:red;stroke-width:1px;stroke-linecap:butt;stroke-linejoin:miter;stroke-opacity:1" d="M 323.751,406.579 339.161,420.062 z" id="boundary" inkscape:connector-curvature="0" />
	<path style="fill:none;stroke:red;stroke-width:1px;stroke-linecap:butt;stroke-linejoin:miter;stroke-opacity:1" d="M 329.53,198.548 343.014,213.957 z" id="boundary" inkscape:connector-curvature="0" />
	<path style="fill:none;stroke:red;stroke-width:1px;stroke-linecap:butt;stroke-linejoin:miter;stroke-opacity:1" d="M 339.161,420.062 352.645,435.472 z" id="boundary" inkscape:connector-curvature="0" />
	<path style="fill:none;stroke:red;stroke-width:1px;stroke-linecap:butt;stroke-linejoin:miter;stroke-opacity:1" d="M 343.014,213.957 362.276,221.662 z" id="boundary" inkscape:connector-curvature="0" />
	<path style="fill:none;stroke:red;stroke-width:1px;stroke-linecap:butt;stroke-linejoin:miter;stroke-opacity:1" d="M 352.645,435.472 371.907,443.177 z" id="boundary" inkscape:connector-curvature="0" />
	<path style="fill:none;stroke:red;stroke-width:1px;stroke-linecap:butt;stroke-linejoin:miter;stroke-opacity:1" d="M 362.276,221.662 375.759,237.072 z" id="boundary" inkscape:connector-curvature="0" />
	<path style="fill:none;stroke:red;stroke-width:1px;stroke-linecap:butt;stroke-linejoin:miter;stroke-opacity:1" d="M 371.907,443.177 379.612,462.439 z" id="boundary" inkscape:connector-curvature="0" />
	<path style="fill:none;stroke:red;stroke-width:1px;stroke-linecap:butt;stroke-linejoin:miter;stroke-opacity:1" d="M 375.759,237.072 395.021,244.777 z" id="boundary" inkscape:connector-curvature="0" />
	<path style="fill:none;stroke:red;stroke-width:1px;stroke-linecap:butt;stroke-linejoin:miter;stroke-opacity:1" d="M 379.612,462.439 398.874,468.217 z" id="boundary" inkscape:connector-curvature="0" />
	<path style="fill:none;stroke:red;stroke-width:1px;stroke-linecap:butt;stroke-linejoin:miter;stroke-opacity:1" d="M 395.021,244.777 408.505,260.186 z" id="boundary" inkscape:connector-curvature="0" />
	<path style="fill:none;stroke:red;stroke-width:1px;stroke-linecap:butt;stroke-linejoin:miter;stroke-opacity:1" d="M 398.874,468.217 416.21,477.849 z" id="boundary" inkscape:connector-curvature="0" />
	<path style="fill:none;stroke:red;stroke-width:1px;stroke-linecap:butt;stroke-linejoin:miter;stroke-opacity:1" d="M 408.505,260.186 423.915,273.67 z" id="boundary" inkscape:connector-curvature="0" />
	<path style="fill:none;stroke:red;stroke-width:1px;stroke-linecap:butt;stroke-linejoin:miter;stroke-opacity:1" d="M 416.21,477.849 429.693,493.258 z" id="boundary" inkscape:connector-curvature="0" />
	<path style="fill:none;stroke:red;stroke-width:1px;stroke-linecap:butt;stroke-linejoin:miter;stroke-opacity:1" d="M 423.915,273.67 443.177,273.67 z" id="boundary" inkscape:connector-curvature="0" />
	<path style="fill:none;stroke:red;stroke-width:1px;stroke-linecap:butt;stroke-linejoin:miter;stroke-opacity:1" d="M 429.693,493.258 445.103,506.742 z" id="boundary" inkscape:connector-curvature="0" />
	<path style="fill:none;stroke:red;stroke-width:1px;stroke-linecap:butt;stroke-linejoin:miter;stroke-opacity:1" d="M 443.177,273.67 462.439,273.67 z" id="boundary" inkscape:connector-curvature="0" />
	<path style="fill:none;stroke:red;stroke-width:1px;stroke-linecap:butt;stroke-linejoin:miter;stroke-opacity:1" d="M 445.103,506.742 462.439,516.373 z" id="boundary" inkscape:connector-curvature="0" />
	<path style="fill:none;stroke:red;stroke-width:1px;stroke-linecap:butt;stroke-linejoin:miter;stroke-opacity:1" d="M 462.439,273.67 481.701,273.67 z" id="boundary" inkscape:connector-curvature="0" />
	<path style="fill:none;stroke:red;stroke-width:1px;stroke-linecap:butt;stroke-linejoin:miter;stroke-opacity:1" d="M 462.439,516.373 466.291,535.635 z" id="boundary" inkscape:connector-curvature="0" />
	<path style="fill:none;stroke:red;stroke-width:1px;stroke-linecap:butt;stroke-linejoin:miter;stroke-opacity:1" d="M 466.291,535.635 475.922,552.971 z" id="boundary" inkscape:connector-curvature="0" />
	<path style="fill:none;stroke:red;stroke-width:1px;stroke-linecap:butt;stroke-linejoin:miter;stroke-opacity:1" d="M 475.922,552.971 479.775,572.233 z" id="boundary" inkscape:connector-curvature="0" />
	<path style="fill:none;stroke:red;stroke-width:1px;stroke-linecap:butt;stroke-linejoin:miter;stroke-opacity:1" d="M 479.775,572.233 495.184,583.79 z" id="boundary" inkscape:connector-curvature="0" />
	<path style="fill:none;stroke:red;stroke-width:1px;stroke-linecap:butt;stroke-linejoin:miter;stroke-opacity:1" d="M 481.701,273.67 500.963,273.67 z" id="boundary" inkscape:connector-curvature="0" />
	<path style="fill:none;stroke:red;stroke-width:1px;stroke-linecap:butt;stroke-linejoin:miter;stroke-opacity:1" d="M 495.184,583.79 506.742,599.2 z" id="boundary" inkscape:connector-curvature="0" />
	<path style="fill:none;stroke:red;stroke-width:1px;stroke-linecap:butt;stroke-linejoin:miter;stroke-opacity:1" d="M 500.963,273.67 520.225,273.67 z" id="boundary" inkscape:connector-curvature="0" />
	<path style="fill:none;stroke:red;stroke-width:1px;stroke-linecap:butt;stroke-linejoin:miter;stroke-opacity:1" d="M 506.742,599.2 516.373,616.536 z" id="boundary" inkscape:connector-curvature="0" />
	<path style="fill:none;stroke:red;stroke-width:1px;stroke-linecap:butt;stroke-linejoin:miter;stroke-opacity:1" d="M 516.373,616.536 529.856,631.946 z" id="boundary" inkscape:connector-curvature="0" />
	<path style="fill:none;stroke:red;stroke-width:1px;stroke-linecap:butt;stroke-linejoin:miter;stroke-opacity:1" d="M 520.225,273.67 537.561,283.301 z" id="boundary" inkscape:connector-curvature="0" />
	<path style="fill:none;stroke:red;stroke-width:1px;stroke-linecap:butt;stroke-linejoin:miter;stroke-opacity:1" d="M 526.004,352.645 529.856,371.907 z" id="boundary" inkscape:connector-curvature="0" />
	<path style="fill:none;stroke:red;stroke-width:1px;stroke-linecap:butt;stroke-linejoin:miter;stroke-opacity:1" d="M 526.004,352.645 541.414,339.161 z" id="boundary" inkscape:connector-curvature="0" />
	<path style="fill:none;stroke:red;stroke-width:1px;stroke-linecap:butt;stroke-linejoin:miter;stroke-opacity:1" d="M 529.856,371.907 545.266,385.39 z" id="boundary" inkscape:connector-curvature="0" />
	<path style="fill:none;stroke:red;stroke-width:1px;stroke-linecap:butt;stroke-linejoin:miter;stroke-opacity:1" d="M 529.856,631.946 549.118,630.019 z" id="boundary" inkscape:connector-curvature="0" />
	<path style="fill:none;stroke:red;stroke-width:1px;stroke-linecap:butt;stroke-linejoin:miter;stroke-opacity:1" d="M 537.561,283.301 552.971,296.784 z" id="boundary" inkscape:connector-curvature="0" />
	<path style="fill:none;stroke:red;stroke-width:1px;stroke-linecap:butt;stroke-linejoin:miter;stroke-opacity:1" d="M 541.414,339.161 554.897,316.047 z" id="boundary" inkscape:connector-curvature="0" />
	<path style="fill:none;stroke:red;stroke-width:1px;stroke-linecap:butt;stroke-linejoin:miter;stroke-opacity:1" d="M 545.266,385.39 558.75,400.8 z" id="boundary" inkscape:connector-curvature="0" />
	<path style="fill:none;stroke:red;stroke-width:1px;stroke-linecap:butt;stroke-linejoin:miter;stroke-opacity:1" d="M 549.118,630.019 568.381,622.315 z" id="boundary" inkscape:connector-curvature="0" />
	<path style="fill:none;stroke:red;stroke-width:1px;stroke-linecap:butt;stroke-linejoin:miter;stroke-opacity:1" d="M 552.971,296.784 554.897,316.047 z" id="boundary" inkscape:connector-curvature="0" />
	<path style="fill:none;stroke:red;stroke-width:1px;stroke-linecap:butt;stroke-linejoin:miter;stroke-opacity:1" d="M 558.75,400.8 574.159,414.283 z" id="boundary" inkscape:connector-curvature="0" />
	<path style="fill:none;stroke:red;stroke-width:1px;stroke-linecap:butt;stroke-linejoin:miter;stroke-opacity:1" d="M 568.381,622.315 587.643,622.315 z" id="boundary" inkscape:connector-curvature="0" />
	<path style="fill:none;stroke:red;stroke-width:1px;stroke-linecap:butt;stroke-linejoin:miter;stroke-opacity:1" d="M 574.159,414.283 587.643,429.693 z" id="boundary" inkscape:connector-curvature="0" />
	<path style="fill:none;stroke:red;stroke-width:1px;stroke-linecap:butt;stroke-linejoin:miter;stroke-opacity:1" d="M 587.643,429.693 606.905,437.398 z" id="boundary" inkscape:connector-curvature="0" />
	<path style="fill:none;stroke:red;stroke-width:1px;stroke-linecap:butt;stroke-linejoin:miter;stroke-opacity:1" d="M 587.643,622.315 606.905,622.315 z" id="boundary" inkscape:connector-curvature="0" />
	<path style="fill:none;stroke:red;stroke-width:1px;stroke-linecap:butt;stroke-linejoin:miter;stroke-opacity:1" d="M 606.905,437.398 626.167,437.398 z" id="boundary" inkscape:connector-curvature="0" />
	<path style="fill:none;stroke:red;stroke-width:1px;stroke-linecap:butt;stroke-linejoin:miter;stroke-opacity:1" d="M 606.905,622.315 626.167,622.315 z" id="boundary" inkscape:connector-curvature="0" />
	<path style="fill:none;stroke:red;stroke-width:1px;stroke-linecap:butt;stroke-linejoin:miter;stroke-opacity:1" d="M 626.167,437.398 643.503,447.029 z" id="boundary" inkscape:connector-curvature="0" />
	<path style="fill:none;stroke:red;stroke-width:1px;stroke-linecap:butt;stroke-linejoin:miter;stroke-opacity:1" d="M 626.167,622.315 645.429,622.315 z" id="boundary" inkscape:connector-curvature="0" />
	<path style="fill:none;stroke:red;stroke-width:1px;stroke-linecap:butt;stroke-linejoin:miter;stroke-opacity:1" d="M 643.503,447.029 662.765,447.029 z" id="boundary" inkscape:connector-curvature="0" />
	<path style="fill:none;stroke:red;stroke-width:1px;stroke-linecap:butt;stroke-linejoin:miter;stroke-opacity:1" d="M 645.429,622.315 660.839,635.798 z" id="boundary" inkscape:connector-curvature="0" />
	<path style="fill:none;stroke:red;stroke-width:1px;stroke-linecap:butt;stroke-linejoin:miter;stroke-opacity:1" d="M 660.839,635.798 674.322,651.208 z" id="boundary" inkscape:connector-curvature="0" />
	<path style="fill:none;stroke:red;stroke-width:1px;stroke-linecap:butt;stroke-linejoin:miter;stroke-opacity:1" d="M 662.765,447.029 680.101,456.66 z" id="boundary" inkscape:connector-curvature="0" />
	<path style="fill:none;stroke:red;stroke-width:1px;stroke-linecap:butt;stroke-linejoin:miter;stroke-opacity:1" d="M 674.322,651.208 689.732,664.691 z" id="boundary" inkscape:connector-curvature="0" />
	<path style="fill:none;stroke:red;stroke-width:1px;stroke-linecap:butt;stroke-linejoin:miter;stroke-opacity:1" d="M 680.101,456.66 699.363,462.439 z" id="boundary" inkscape:connector-curvature="0" />
	<path style="fill:none;stroke:red;stroke-width:1px;stroke-linecap:butt;stroke-linejoin:miter;stroke-opacity:1" d="M 689.732,664.691 703.216,680.101 z" id="boundary" inkscape:connector-curvature="0" />
	<path style="fill:none;stroke:red;stroke-width:1px;stroke-linecap:butt;stroke-linejoin:miter;stroke-opacity:1" d="M 699.363,462.439 716.699,472.07 z" id="boundary" inkscape:connector-curvature="0" />
	<path style="fill:none;stroke:red;stroke-width:1px;stroke-linecap:butt;stroke-linejoin:miter;stroke-opacity:1" d="M 703.216,680.101 716.699,695.511 z" id="boundary" inkscape:connector-curvature="0" />
	<path style="fill:none;stroke:red;stroke-width:1px;stroke-linecap:butt;stroke-linejoin:miter;stroke-opacity:1" d="M 716.699,472.07 732.109,485.553 z" id="boundary" inkscape:connector-curvature="0" />
	<path style="fill:none;stroke:red;stroke-width:1px;stroke-linecap:butt;stroke-linejoin:miter;stroke-opacity:1" d="M 716.699,695.511 726.33,712.847 z" id="boundary" inkscape:connector-curvature="0" />
	<path style="fill:none;stroke:red;stroke-width:1px;stroke-linecap:butt;stroke-linejoin:miter;stroke-opacity:1" d="M 718.625,526.004 718.625,545.266 z" id="boundary" inkscape:connector-curvature="0" />
	<path style="fill:none;stroke:red;stroke-width:1px;stroke-linecap:butt;stroke-linejoin:miter;stroke-opacity:1" d="M 718.625,526.004 728.256,506.742 z" id="boundary" inkscape:connector-curvature="0" />
	<path style="fill:none;stroke:red;stroke-width:1px;stroke-linecap:butt;stroke-linejoin:miter;stroke-opacity:1" d="M 718.625,545.266 718.625,564.528 z" id="boundary" inkscape:connector-curvature="0" />
	<path style="fill:none;stroke:red;stroke-width:1px;stroke-linecap:butt;stroke-linejoin:miter;stroke-opacity:1" d="M 718.625,564.528 722.478,583.79 z" id="boundary" inkscape:connector-curvature="0" />
	<path style="fill:none;stroke:red;stroke-width:1px;stroke-linecap:butt;stroke-linejoin:miter;stroke-opacity:1" d="M 722.478,583.79 732.109,601.126 z" id="boundary" inkscape:connector-curvature="0" />
	<path style="fill:none;stroke:red;stroke-width:1px;stroke-linecap:butt;stroke-linejoin:miter;stroke-opacity:1" d="M 726.33,712.847 735.961,730.183 z" id="boundary" inkscape:connector-curvature="0" />
	<path style="fill:none;stroke:red;stroke-width:1px;stroke-linecap:butt;stroke-linejoin:miter;stroke-opacity:1" d="M 728.256,506.742 732.109,485.553 z" id="boundary" inkscape:connector-curvature="0" />
	<path style="fill:none;stroke:red;stroke-width:1px;stroke-linecap:butt;stroke-linejoin:miter;stroke-opacity:1" d="M 732.109,601.126 745.592,616.536 z" id="boundary" inkscape:connector-curvature="0" />
	<path style="fill:none;stroke:red;stroke-width:1px;stroke-linecap:butt;stroke-linejoin:miter;stroke-opacity:1" d="M 735.961,730.183 745.592,747.518 z" id="boundary" inkscape:connector-curvature="0" />
	<path style="fill:none;stroke:red;stroke-width:1px;stroke-linecap:butt;stroke-linejoin:miter;stroke-opacity:1" d="M 745.592,616.536 764.854,624.241 z" id="boundary" inkscape:connector-curvature="0" />
	<path style="fill:none;stroke:red;stroke-width:1px;stroke-linecap:butt;stroke-linejoin:miter;stroke-opacity:1" d="M 745.592,747.518 757.15,762.928 z" id="boundary" inkscape:connector-curvature="0" />
	<path style="fill:none;stroke:red;stroke-width:1px;stroke-linecap:butt;stroke-linejoin:miter;stroke-opacity:1" d="M 757.15,762.928 766.781,780.264 z" id="boundary" inkscape:connector-curvature="0" />
	<path style="fill:none;stroke:red;stroke-width:1px;stroke-linecap:butt;stroke-linejoin:miter;stroke-opacity:1" d="M 764.854,624.241 782.19,633.872 z" id="boundary" inkscape:connector-curvature="0" />
	<path style="fill:none;stroke:red;stroke-width:1px;stroke-linecap:butt;stroke-linejoin:miter;stroke-opacity:1" d="M 766.781,780.264 780.264,795.674 z" id="boundary" inkscape:connector-curvature="0" />
	<path style="fill:none;stroke:red;stroke-width:1px;stroke-linecap:butt;stroke-linejoin:miter;stroke-opacity:1" d="M 780.264,795.674 789.895,813.01 z" id="boundary" inkscape:connector-curvature="0" />
	<path style="fill:none;stroke:red;stroke-width:1px;stroke-linecap:butt;stroke-linejoin:miter;stroke-opacity:1" d="M 782.19,633.872 795.674,649.282 z" id="boundary" inkscape:connector-curvature="0" />
	<path style="fill:none;stroke:red;stroke-width:1px;stroke-linecap:butt;stroke-linejoin:miter;stroke-opacity:1" d="M 789.895,813.01 803.379,828.419 z" id="boundary" inkscape:connector-curvature="0" />
	<path style="fill:none;stroke:red;stroke-width:1px;stroke-linecap:butt;stroke-linejoin:miter;stroke-opacity:1" d="M 795.674,649.282 814.936,655.06 z" id="boundary" inkscape:connector-curvature="0" />
	<path style="fill:none;stroke:red;stroke-width:1px;stroke-linecap:butt;stroke-linejoin:miter;stroke-opacity:1" d="M 803.379,828.419 813.01,845.755 z" id="boundary" inkscape:connector-curvature="0" />
	<path style="fill:none;stroke:red;stroke-width:1px;stroke-linecap:butt;stroke-linejoin:miter;stroke-opacity:1" d="M 813.01,845.755 826.493,861.165 z" id="boundary" inkscape:connector-curvature="0" />
	<path style="fill:none;stroke:red;stroke-width:1px;stroke-linecap:butt;stroke-linejoin:miter;stroke-opacity:1" d="M 814.936,655.06 832.272,664.691 z" id="boundary" inkscape:connector-curvature="0" />
	<path style="fill:none;stroke:red;stroke-width:1px;stroke-linecap:butt;stroke-linejoin:miter;stroke-opacity:1" d="M 826.493,861.165 841.903,872.722 z" id="boundary" inkscape:connector-curvature="0" />
	<path style="fill:none;stroke:red;stroke-width:1px;stroke-linecap:butt;stroke-linejoin:miter;stroke-opacity:1" d="M 832.272,664.691 851.534,672.396 z" id="boundary" inkscape:connector-curvature="0" />
	<path style="fill:none;stroke:red;stroke-width:1px;stroke-linecap:butt;stroke-linejoin:miter;stroke-opacity:1" d="M 841.903,872.722 861.165,866.944 z" id="boundary" inkscape:connector-curvature="0" />
	<path style="fill:none;stroke:red;stroke-width:1px;stroke-linecap:butt;stroke-linejoin:miter;stroke-opacity:1" d="M 851.534,672.396 868.87,682.027 z" id="boundary" inkscape:connector-curvature="0" />
	<path style="fill:none;stroke:red;stroke-width:1px;stroke-linecap:butt;stroke-linejoin:miter;stroke-opacity:1" d="M 861.165,866.944 863.091,843.829 z" id="boundary" inkscape:connector-curvature="0" />
	<path style="fill:none;stroke:red;stroke-width:1px;stroke-linecap:butt;stroke-linejoin:miter;stroke-opacity:1" d="M 863.091,786.043 863.091,805.305 z" id="boundary" inkscape:connector-curvature="0" />
	<path style="fill:none;stroke:red;stroke-width:1px;stroke-linecap:butt;stroke-linejoin:miter;stroke-opacity:1" d="M 863.091,786.043 880.427,776.412 z" id="boundary" inkscape:connector-curvature="0" />
	<path style="fill:none;stroke:red;stroke-width:1px;stroke-linecap:butt;stroke-linejoin:miter;stroke-opacity:1" d="M 863.091,805.305 863.091,824.567 z" id="boundary" inkscape:connector-curvature="0" />
	<path style="fill:none;stroke:red;stroke-width:1px;stroke-linecap:butt;stroke-linejoin:miter;stroke-opacity:1" d="M 863.091,824.567 863.091,843.829 z" id="boundary" inkscape:connector-curvature="0" />
	<path style="fill:none;stroke:red;stroke-width:1px;stroke-linecap:butt;stroke-linejoin:miter;stroke-opacity:1" d="M 868.87,682.027 888.132,689.732 z" id="boundary" inkscape:connector-curvature="0" />
	<path style="fill:none;stroke:red;stroke-width:1px;stroke-linecap:butt;stroke-linejoin:miter;stroke-opacity:1" d="M 880.427,776.412 899.689,776.412 z" id="boundary" inkscape:connector-curvature="0" />
	<path style="fill:none;stroke:red;stroke-width:1px;stroke-linecap:butt;stroke-linejoin:miter;stroke-opacity:1" d="M 888.132,689.732 905.468,699.363 z" id="boundary" inkscape:connector-curvature="0" />
	<path style="fill:none;stroke:red;stroke-width:1px;stroke-linecap:butt;stroke-linejoin:miter;stroke-opacity:1" d="M 899.689,776.412 918.951,776.412 z" id="boundary" inkscape:connector-curvature="0" />
	<path style="fill:none;stroke:red;stroke-width:1px;stroke-linecap:butt;stroke-linejoin:miter;stroke-opacity:1" d="M 905.468,699.363 924.73,707.068 z" id="boundary" inkscape:connector-curvature="0" />
	<path style="fill:none;stroke:red;stroke-width:1px;stroke-linecap:butt;stroke-linejoin:miter;stroke-opacity:1" d="M 918.951,776.412 938.214,776.412 z" id="boundary" inkscape:connector-curvature="0" />
	<path style="fill:none;stroke:red;stroke-width:1px;stroke-linecap:butt;stroke-linejoin:miter;stroke-opacity:1" d="M 924.73,707.068 942.066,716.699 z" id="boundary" inkscape:connector-curvature="0" />
	<path style="fill:none;stroke:red;stroke-width:1px;stroke-linecap:butt;stroke-linejoin:miter;stroke-opacity:1" d="M 938.214,776.412 957.476,776.412 z" id="boundary" inkscape:connector-curvature="0" />
	<path style="fill:none;stroke:red;stroke-width:1px;stroke-linecap:butt;stroke-linejoin:miter;stroke-opacity:1" d="M 942.066,716.699 957.476,730.183 z" id="boundary" inkscape:connector-curvature="0" />
	<path style="fill:none;stroke:red;stroke-width:1px;stroke-linecap:butt;stroke-linejoin:miter;stroke-opacity:1" d="M 957.476,730.183 974.812,739.814 z" id="boundary" inkscape:connector-curvature="0" />
	<path style="fill:none;stroke:red;stroke-width:1px;stroke-linecap:butt;stroke-linejoin:miter;stroke-opacity:1" d="M 957.476,776.412 976.738,776.412 z" id="boundary" inkscape:connector-curvature="0" />
	<path style="fill:none;stroke:red;stroke-width:1px;stroke-linecap:butt;stroke-linejoin:miter;stroke-opacity:1" d="M 974.812,739.814 988.295,755.223 z" id="boundary" inkscape:connector-curvature="0" />
	<path style="fill:none;stroke:red;stroke-width:1px;stroke-linecap:butt;stroke-linejoin:miter;stroke-opacity:1" d="M 976.738,776.412 996,780.264 z" id="boundary" inkscape:connector-curvature="0" />
	<circle cx="4" cy="29.0408" r="4" fill="#0" id="circle0"/>
	<circle cx="4" cy="48.3029" r="4" fill="#0" id="circle1"/>
	<circle cx="19.4097" cy="13.6311" r="4" fill="#0" id="circle2"/>
	<circle cx="19.4097" cy="61.7864" r="4" fill="#0" id="circle3"/>
	<circle cx="32.8932" cy="77.1961" r="4" fill="#0" id="circle4"/>
	<circle cx="38.6718" cy="4" r="4" fill="#0" id="circle5"/>
	<circle cx="42.5243" cy="94.532" r="4" fill="#0" id="circle6"/>
	<circle cx="52.1553" cy="111.868" r="4" fill="#0" id="circle7"/>
	<circle cx="56.0078" cy="13.6311" r="4" fill="#0" id="circle8"/>
	<circle cx="63.7126" cy="127.278" r="4" fill="#0" id="circle9"/>
	<circle cx="75.2699" cy="13.6311" r="4" fill="#0" id="circle10"/>
	<circle cx="79.1223" cy="140.761" r="4" fill="#0" id="circle11"/>
	<circle cx="86.8272" cy="160.023" r="4" fill="#0" id="circle12"/>
	<circle cx="92.6058" cy="23.2621" r="4" fill="#0" id="circle13"/>
	<circle cx="102.237" cy="173.507" r="4" fill="#0" id="circle14"/>
	<circle cx="109.942" cy="32.8932" r="4" fill="#0" id="circle15"/>
	<circle cx="115.72" cy="188.917" r="4" fill="#0" id="circle16"/>
	<circle cx="125.351" cy="44.4505" r="4" fill="#0" id="circle17"/>
	<circle cx="131.13" cy="202.4" r="4" fill="#0" id="circle18"/>
	<circle cx="140.761" cy="57.934" r="4" fill="#0" id="circle19"/>
	<circle cx="144.614" cy="217.81" r="4" fill="#0" id="circle20"/>
	<circle cx="158.097" cy="67.565" r="4" fill="#0" id="circle21"/>
	<circle cx="160.023" cy="231.293" r="4" fill="#0" id="circle22"/>
	<circle cx="173.507" cy="246.703" r="4" fill="#0" id="circle23"/>
	<circle cx="177.359" cy="75.2699" r="4" fill="#0" id="circle24"/>
	<circle cx="183.138" cy="264.039" r="4" fill="#0" id="circle25"/>
	<circle cx="186.99" cy="283.301" r="4" fill="#0" id="circle26"/>
	<circle cx="186.99" cy="302.563" r="4" fill="#0" id="circle27"/>
	<circle cx="186.99" cy="321.825" r="4" fill="#0" id="circle28"/>
	<circle cx="186.99" cy="341.087" r="4" fill="#0" id="circle29"/>
	<circle cx="188.917" cy="90.6796" r="4" fill="#0" id="circle30"/>
	<circle cx="190.843" cy="360.35" r="4" fill="#0" id="circle31"/>
	<circle cx="206.252" cy="100.311" r="4" fill="#0" id="circle32"/>
	<circle cx="206.252" cy="371.907" r="4" fill="#0" id="circle33"/>
	<circle cx="212.031" cy="391.169" r="4" fill="#0" id="circle34"/>
	<circle cx="221.662" cy="111.868" r="4" fill="#0" id="circle35"/>
	<circle cx="229.367" cy="400.8" r="4" fill="#0" id="circle36"/>
	<circle cx="237.072" cy="125.351" r="4" fill="#0" id="circle37"/>
	<circle cx="246.703" cy="391.169" r="4" fill="#0" id="circle38"/>
	<circle cx="254.408" cy="134.983" r="4" fill="#0" id="circle39"/>
	<circle cx="265.965" cy="150.392" r="4" fill="#0" id="circle40"/>
	<circle cx="265.965" cy="371.907" r="4" fill="#0" id="circle41"/>
	<circle cx="281.375" cy="161.95" r="4" fill="#0" id="circle42"/>
	<circle cx="283.301" cy="362.276" r="4" fill="#0" id="circle43"/>
	<circle cx="294.858" cy="377.685" r="4" fill="#0" id="circle44"/>
	<circle cx="300.637" cy="169.654" r="4" fill="#0" id="circle45"/>
	<circle cx="310.268" cy="391.169" r="4" fill="#0" id="circle46"/>
	<circle cx="314.12" cy="185.064" r="4" fill="#0" id="circle47"/>
	<circle cx="323.751" cy="406.579" r="4" fill="#0" id="circle48"/>
	<circle cx="329.53" cy="198.548" r="4" fill="#0" id="circle49"/>
	<circle cx="339.161" cy="420.062" r="4" fill="#0" id="circle50"/>
	<circle cx="343.014" cy="213.957" r="4" fill="#0" id="circle51"/>
	<circle cx="352.645" cy="435.472" r="4" fill="#0" id="circle52"/>
	<circle cx="362.276" cy="221.662" r="4" fill="#0" id="circle53"/>
	<circle cx="371.907" cy="443.177" r="4" fill="#0" id="circle54"/>
	<circle cx="375.759" cy="237.072" r="4" fill="#0" id="circle55"/>
	<circle cx="379.612" cy="462.439" r="4" fill="#0" id="circle56"/>
	<circle cx="395.021" cy="244.777" r="4" fill="#0" id="circle57"/>
	<circle cx="398.874" cy="468.217" r="4" fill="#0" id="circle58"/>
	<circle cx="408.505" cy="260.186" r="4" fill="#0" id="circle59"/>
	<circle cx="416.21" cy="477.849" r="4" fill="#0" id="circle60"/>
	<circle cx="423.915" cy="273.67" r="4" fill="#0" id="circle61"/>
	<circle cx="429.693" cy="493.258" r="4" fill="#0" id="circle62"/>
	<circle cx="443.177" cy="273.67" r="4" fill="#0" id="circle63"/>
	<circle cx="445.103" cy="506.742" r="4" fill="#0" id="circle64"/>
	<circle cx="462.439" cy="273.67" r="4" fill="#0" id="circle65"/>
	<circle cx="462.439" cy="516.373" r="4" fill="#0" id="circle66"/>
	<circle cx="466.291" cy="535.635" r="4" fill="#0" id="circle67"/>
	<circle cx="475.922" cy="552.971" r="4" fill="#0" id="circle68"/>
	<circle cx="479.775" cy="572.233" r="4" fill="#0" id="circle69"/>
	<circle cx="481.701" cy="273.67" r="4" fill="#0" id="circle70"/>
	<circle cx="495.184" cy="583.79" r="4" fill="#0" id="circle71"/>
	<circle cx="500.963" cy="273.67" r="4" fill="#0" id="circle72"/>
	<circle cx="506.742" cy="599.2" r="4" fill="#0" id="circle73"/>
	<circle cx="516.373" cy="616.536" r="4" fill="#0" id="circle74"/>
	<circle cx="520.225" cy="273.67" r="4" fill="#0" id="circle75"/>
	<circle cx="526.004" cy="352.645" r="4" fill="#0" id="circle76"/>
	<circle cx="529.856" cy="371.907" r="4" fill="#0" id="circle77"/>
	<circle cx="529.856" cy="631.946" r="4" fill="#0" id="circle78"/>
	<circle cx="537.561" cy="283.301" r="4" fill="#0" id="circle79"/>
	<circle cx="541.414" cy="339.161" r="4" fill="#0" id="circle80"/>
	<circle cx="545.266" cy="385.39" r="4" fill="#0" id="circle81"/>
	<circle cx="549.118" cy="630.019" r="4" fill="#0" id="circle82"/>
	<circle cx="552.971" cy="296.784" r="4" fill="#0" id="circle83"/>
	<circle cx="554.897" cy="316.047" r="4" fill="#0" id="circle84"/>
	<circle cx="558.75" cy="400.8" r="4" fill="#0" id="circle85"/>
	<circle cx="568.381" cy="622.315" r="4" fill="#0" id="circle86"/>
	<circle cx="574.159" cy="414.283" r="4" fill="#0" id="circle87"/>
	<circle cx="587.643" cy="429.693" r="4" fill="#0" id="circle88"/>
	<circle cx="587.643" cy="622.315" r="4" fill="#0" id="circle89"/>
	<circle cx="606.905" cy="437.398" r="4" fill="#0" id="circle90"/>
	<circle cx="606.905" cy="622.315" r="4" fill="#0" id="circle91"/>
	<circle cx="626.167" cy="437.398" r="4" fill="#0" id="circle92"/>
	<circle cx="626.167" cy="622.315" r="4" fill="#0" id="circle93"/>
	<circle cx="643.503" cy="447.029" r="4" fill="#0" id="circle94"/>
	<circle cx="645.429" cy="622.315" r="4" fill="#0" id="circle95"/>
	<circle cx="660.839" cy="635.798" r="4" fill="#0" id="circle96"/>
	<circle cx="662.765" cy="447.029" r="4" fill="#0" id="circle97"/>
	<circle cx="674.322" cy="651.208" r="4" fill="#0" id="circle98"/>
	<circle cx="680.101" cy="456.66" r="4" fill="#0" id="circle99"/>
	<circle cx="689.732" cy="664.691" r="4" fill="#0" id="circle100"/>
	<circle cx="699.363" cy="462.439" r="4" fill="#0" id="circle101"/>
	<circle cx="703.216" cy="680.101" r="4" fill="#0" id="circle102"/>
	<circle cx="716.699" cy="472.07" r="4" fill="#0" id="circle103"/>
	<circle cx="716.699" cy="695.511" r="4" fill="#0" id="circle104"/>
	<circle cx="718.625" cy="526.004" r="4" fill="#0" id="circle105"/>
	<circle cx="718.625" cy="545.266" r="4" fill="#0" id="circle106"/>
	<circle cx="718.625" cy="564.528" r="4" fill="#0" id="circle107"/>
	<circle cx="722.478" cy="583.79" r="4" fill="#0" id="circle108"/>
	<circle cx="726.33" cy="712.847" r="4" fill="#0" id="circle109"/>
	<circle cx="728.256" cy="506.742" r="4" fill="#0" id="circle110"/>
	<circle cx="732.109" cy="485.553" r="4" fill="#0" id="circle111"/>
	<circle cx="732.109" cy="601.126" r="4" fill="#0" id="circle112"/>
	<circle cx="735.961" cy="730.183" r="4" fill="#0" id="circle113"/>
	<circle cx="745.592" cy="616.536" r="4" fill="#0" id="circle114"/>
	<circle cx="745.592" cy="747.518" r="4" fill="#0" id="circle115"/>
	<circle cx="757.15" cy="762.928" r="4" fill="#0" id="circle116"/>
	<circle cx="764.854" cy="624.241" r="4" fill="#0" id="circle117"/>
	<circle cx="766.781" cy="780.264" r="4" fill="#0" id="circle118"/>
	<circle cx="780.264" cy="795.674" r="4" fill="#0" id="circle119"/>
	<circle cx="782.19" cy="633.872" r="4" fill="#0" id="circle120"/>
	<circle cx="789.895" cy="813.01" r="4" fill="#0" id="circle121"/>
	<circle cx="795.674" cy="649.282" r="4" fill="#0" id="circle122"/>
	<circle cx="803.379" cy="828.419" r="4" fill="#0" id="circle123"/>
	<circle cx="813.01" cy="845.755" r="4" fill="#0" id="circle124"/>
	<circle cx="814.936" cy="655.06" r="4" fill="#0" id="circle125"/>
	<circle cx="826.493" cy="861.165" r="4" fill="#0" id="circle126"/>
	<circle cx="832.272" cy="664.691" r="4" fill="#0" id="circle127"/>
	<circle cx="841.903" cy="872.722" r="4" fill="#0" id="circle128"/>
	<circle cx="851.534" cy="672.396" r="4" fill="#0" id="circle129"/>
	<circle cx="861.165" cy="866.944" r="4" fill="#0" id="circle130"/>
	<circle cx="863.091" cy="786.043" r="4" fill="#0" id="circle131"/>
	<circle cx="863.091" cy="805.305" r="4" fill="#0" id="circle132"/>
	<circle cx="863.091" cy="824.567" r="4" fill="#0" id="circle133"/>
	<circle cx="863.091" cy="843.829" r="4" fill="#0" id="circle134"/>
	<circle cx="868.87" cy="682.027" r="4" fill="#0" id="circle135"/>
	<circle cx="880.427" cy="776.412" r="4" fill="#0" id="circle136"/>
	<circle cx="888.132" cy="689.732" r="4" fill="#0" id="circle137"/>
	<circle cx="899.689" cy="776.412" r="4" fill="#0" id="circle138"/>
	<circle cx="905.468" cy="699.363" r="4" fill="#0" id="circle139"/>
	<circle cx="918.951" cy="776.412" r="4" fill="#0" id="circle140"/>
	<circle cx="924.73" cy="707.068" r="4" fill="#0" id="circle141"/>
	<circle cx="938.214" cy="776.412" r="4" fill="#0" id="circle142"/>
	<circle cx="942.066" cy="716.699" r="4" fill="#0" id="circle143"/>
	<circle cx="957.476" cy="730.183" r="4" fill="#0" id="circle144"/>
	<circle cx="957.476" cy="776.412" r="4" fill="#0" id="circle145"/>
	<circle cx="974.812" cy="739.814" r="4" fill="#0" id="circle146"/>
	<circle cx="976.738" cy="776.412" r="4" fill="#0" id="circle147"/>
	<circle cx="988.295" cy="755.223" r="4" fill="#0" id="circle148"/>
	<circle cx="996" cy="780.264" r="4" fill="#0" id="circle149"/>
	</g>
</svg>