<?xml version="1.0" encoding="UTF-8" standalone="no"?>
<!-- Created with CurveBenchmark -->
<svg
	xmlns:dc="http://purl.org/dc/elements/1.1/"
	xmlns:cc="http://creativecommons.org/ns#"
	xmlns:rdf="http://www.w3.org/1999/02/22-rdf-syntax-ns#"
	xmlns:svg="http://www.w3.org/2000/svg"
	xmlns="http://www.w3.org/2000/svg"
	xmlns:sodipodi="http://sodipodi.sourceforge.net/DTD/sodipodi-0.dtd"
	xmlns:inkscape="http://www.inkscape.org/namespaces/inkscape"
	width="1000"
	height="1000"
	id="svg2"
	version="1.1"
	sodipodi:docname="manifold/hnncrust-stef10.png.txt">
<defs
	id="defs4" />
<metadata
	id="metadata7">
	<rdf:RDF>
		<cc:Work
			rdf:about="">
			<dc:format>image/svg+xml</dc:format>
			<dc:type
				rdf:resource="http://purl.org/dc/dcmitype/StillImage" />
			<dc:title></dc:title>
		</cc:Work>
	</rdf:RDF>
</metadata>
<g
	inkscape:label="Layer 1"
	inkscape:groupmode="layer"
	id="layer1">
	<path style="fill:none;stroke:red;stroke-width:1px;stroke-linecap:butt;stroke-linejoin:miter;stroke-opacity:1" d="M 4,598.218 4,614.587 z" id="boundary" inkscape:connector-curvature="0" />
	<path style="fill:none;stroke:red;stroke-width:1px;stroke-linecap:butt;stroke-linejoin:miter;stroke-opacity:1" d="M 4,598.218 20.3696,590.033 z" id="boundary" inkscape:connector-curvature="0" />
	<path style="fill:none;stroke:red;stroke-width:1px;stroke-linecap:butt;stroke-linejoin:miter;stroke-opacity:1" d="M 4,614.587 20.3696,619.498 z" id="boundary" inkscape:connector-curvature="0" />
	<path style="fill:none;stroke:red;stroke-width:1px;stroke-linecap:butt;stroke-linejoin:miter;stroke-opacity:1" d="M 20.3696,590.033 36.7393,585.122 z" id="boundary" inkscape:connector-curvature="0" />
	<path style="fill:none;stroke:red;stroke-width:1px;stroke-linecap:butt;stroke-linejoin:miter;stroke-opacity:1" d="M 20.3696,619.498 25.2805,635.868 z" id="boundary" inkscape:connector-curvature="0" />
	<path style="fill:none;stroke:red;stroke-width:1px;stroke-linecap:butt;stroke-linejoin:miter;stroke-opacity:1" d="M 25.2805,635.868 33.4653,650.601 z" id="boundary" inkscape:connector-curvature="0" />
	<path style="fill:none;stroke:red;stroke-width:1px;stroke-linecap:butt;stroke-linejoin:miter;stroke-opacity:1" d="M 33.4653,650.601 44.9241,663.696 z" id="boundary" inkscape:connector-curvature="0" />
	<path style="fill:none;stroke:red;stroke-width:1px;stroke-linecap:butt;stroke-linejoin:miter;stroke-opacity:1" d="M 36.7393,585.122 53.1089,585.122 z" id="boundary" inkscape:connector-curvature="0" />
	<path style="fill:none;stroke:red;stroke-width:1px;stroke-linecap:butt;stroke-linejoin:miter;stroke-opacity:1" d="M 44.9241,663.696 61.2937,668.607 z" id="boundary" inkscape:connector-curvature="0" />
	<path style="fill:none;stroke:red;stroke-width:1px;stroke-linecap:butt;stroke-linejoin:miter;stroke-opacity:1" d="M 53.1089,585.122 69.4785,585.122 z" id="boundary" inkscape:connector-curvature="0" />
	<path style="fill:none;stroke:red;stroke-width:1px;stroke-linecap:butt;stroke-linejoin:miter;stroke-opacity:1" d="M 61.2937,668.607 61.2937,684.977 z" id="boundary" inkscape:connector-curvature="0" />
	<path style="fill:none;stroke:red;stroke-width:1px;stroke-linecap:butt;stroke-linejoin:miter;stroke-opacity:1" d="M 61.2937,684.977 77.6634,684.977 z" id="boundary" inkscape:connector-curvature="0" />
	<path style="fill:none;stroke:red;stroke-width:1px;stroke-linecap:butt;stroke-linejoin:miter;stroke-opacity:1" d="M 69.4785,74.3894 69.4785,90.7591 z" id="boundary" inkscape:connector-curvature="0" />
	<path style="fill:none;stroke:red;stroke-width:1px;stroke-linecap:butt;stroke-linejoin:miter;stroke-opacity:1" d="M 69.4785,74.3894 77.6634,49.835 z" id="boundary" inkscape:connector-curvature="0" />
	<path style="fill:none;stroke:red;stroke-width:1px;stroke-linecap:butt;stroke-linejoin:miter;stroke-opacity:1" d="M 69.4785,90.7591 69.4785,107.129 z" id="boundary" inkscape:connector-curvature="0" />
	<path style="fill:none;stroke:red;stroke-width:1px;stroke-linecap:butt;stroke-linejoin:miter;stroke-opacity:1" d="M 69.4785,107.129 82.5743,118.587 z" id="boundary" inkscape:connector-curvature="0" />
	<path style="fill:none;stroke:red;stroke-width:1px;stroke-linecap:butt;stroke-linejoin:miter;stroke-opacity:1" d="M 69.4785,585.122 85.8482,585.122 z" id="boundary" inkscape:connector-curvature="0" />
	<path style="fill:none;stroke:red;stroke-width:1px;stroke-linecap:butt;stroke-linejoin:miter;stroke-opacity:1" d="M 77.6634,49.835 85.8482,33.4653 z" id="boundary" inkscape:connector-curvature="0" />
	<path style="fill:none;stroke:red;stroke-width:1px;stroke-linecap:butt;stroke-linejoin:miter;stroke-opacity:1" d="M 77.6634,684.977 94.033,684.977 z" id="boundary" inkscape:connector-curvature="0" />
	<path style="fill:none;stroke:red;stroke-width:1px;stroke-linecap:butt;stroke-linejoin:miter;stroke-opacity:1" d="M 82.5743,118.587 95.67,128.409 z" id="boundary" inkscape:connector-curvature="0" />
	<path style="fill:none;stroke:red;stroke-width:1px;stroke-linecap:butt;stroke-linejoin:miter;stroke-opacity:1" d="M 85.8482,33.4653 94.033,17.0957 z" id="boundary" inkscape:connector-curvature="0" />
	<path style="fill:none;stroke:red;stroke-width:1px;stroke-linecap:butt;stroke-linejoin:miter;stroke-opacity:1" d="M 85.8482,585.122 102.218,581.848 z" id="boundary" inkscape:connector-curvature="0" />
	<path style="fill:none;stroke:red;stroke-width:1px;stroke-linecap:butt;stroke-linejoin:miter;stroke-opacity:1" d="M 94.033,17.0957 110.403,17.0957 z" id="boundary" inkscape:connector-curvature="0" />
	<path style="fill:none;stroke:red;stroke-width:1px;stroke-linecap:butt;stroke-linejoin:miter;stroke-opacity:1" d="M 94.033,684.977 107.129,675.155 z" id="boundary" inkscape:connector-curvature="0" />
	<path style="fill:none;stroke:red;stroke-width:1px;stroke-linecap:butt;stroke-linejoin:miter;stroke-opacity:1" d="M 95.67,128.409 112.04,128.409 z" id="boundary" inkscape:connector-curvature="0" />
	<path style="fill:none;stroke:red;stroke-width:1px;stroke-linecap:butt;stroke-linejoin:miter;stroke-opacity:1" d="M 102.218,581.848 110.403,565.479 z" id="boundary" inkscape:connector-curvature="0" />
	<path style="fill:none;stroke:red;stroke-width:1px;stroke-linecap:butt;stroke-linejoin:miter;stroke-opacity:1" d="M 107.129,675.155 120.224,660.422 z" id="boundary" inkscape:connector-curvature="0" />
	<path style="fill:none;stroke:red;stroke-width:1px;stroke-linecap:butt;stroke-linejoin:miter;stroke-opacity:1" d="M 110.403,17.0957 123.498,4 z" id="boundary" inkscape:connector-curvature="0" />
	<path style="fill:none;stroke:red;stroke-width:1px;stroke-linecap:butt;stroke-linejoin:miter;stroke-opacity:1" d="M 110.403,565.479 118.587,549.109 z" id="boundary" inkscape:connector-curvature="0" />
	<path style="fill:none;stroke:red;stroke-width:1px;stroke-linecap:butt;stroke-linejoin:miter;stroke-opacity:1" d="M 112.04,128.409 128.409,131.683 z" id="boundary" inkscape:connector-curvature="0" />
	<path style="fill:none;stroke:red;stroke-width:1px;stroke-linecap:butt;stroke-linejoin:miter;stroke-opacity:1" d="M 118.587,549.109 131.683,536.013 z" id="boundary" inkscape:connector-curvature="0" />
	<path style="fill:none;stroke:red;stroke-width:1px;stroke-linecap:butt;stroke-linejoin:miter;stroke-opacity:1" d="M 120.224,644.053 120.224,660.422 z" id="boundary" inkscape:connector-curvature="0" />
	<path style="fill:none;stroke:red;stroke-width:1px;stroke-linecap:butt;stroke-linejoin:miter;stroke-opacity:1" d="M 120.224,644.053 128.409,627.683 z" id="boundary" inkscape:connector-curvature="0" />
	<path style="fill:none;stroke:red;stroke-width:1px;stroke-linecap:butt;stroke-linejoin:miter;stroke-opacity:1" d="M 123.498,4 139.868,4 z" id="boundary" inkscape:connector-curvature="0" />
	<path style="fill:none;stroke:red;stroke-width:1px;stroke-linecap:butt;stroke-linejoin:miter;stroke-opacity:1" d="M 128.409,131.683 144.779,136.594 z" id="boundary" inkscape:connector-curvature="0" />
	<path style="fill:none;stroke:red;stroke-width:1px;stroke-linecap:butt;stroke-linejoin:miter;stroke-opacity:1" d="M 128.409,627.683 136.594,603.129 z" id="boundary" inkscape:connector-curvature="0" />
	<path style="fill:none;stroke:red;stroke-width:1px;stroke-linecap:butt;stroke-linejoin:miter;stroke-opacity:1" d="M 131.683,536.013 143.142,516.37 z" id="boundary" inkscape:connector-curvature="0" />
	<path style="fill:none;stroke:red;stroke-width:1px;stroke-linecap:butt;stroke-linejoin:miter;stroke-opacity:1" d="M 136.594,603.129 144.779,578.574 z" id="boundary" inkscape:connector-curvature="0" />
	<path style="fill:none;stroke:red;stroke-width:1px;stroke-linecap:butt;stroke-linejoin:miter;stroke-opacity:1" d="M 139.868,4 156.238,4 z" id="boundary" inkscape:connector-curvature="0" />
	<path style="fill:none;stroke:red;stroke-width:1px;stroke-linecap:butt;stroke-linejoin:miter;stroke-opacity:1" d="M 143.142,516.37 151.327,500 z" id="boundary" inkscape:connector-curvature="0" />
	<path style="fill:none;stroke:red;stroke-width:1px;stroke-linecap:butt;stroke-linejoin:miter;stroke-opacity:1" d="M 144.779,136.594 161.149,139.868 z" id="boundary" inkscape:connector-curvature="0" />
	<path style="fill:none;stroke:red;stroke-width:1px;stroke-linecap:butt;stroke-linejoin:miter;stroke-opacity:1" d="M 144.779,578.574 157.875,567.116 z" id="boundary" inkscape:connector-curvature="0" />
	<path style="fill:none;stroke:red;stroke-width:1px;stroke-linecap:butt;stroke-linejoin:miter;stroke-opacity:1" d="M 151.327,500 164.422,486.904 z" id="boundary" inkscape:connector-curvature="0" />
	<path style="fill:none;stroke:red;stroke-width:1px;stroke-linecap:butt;stroke-linejoin:miter;stroke-opacity:1" d="M 156.238,4 172.607,4 z" id="boundary" inkscape:connector-curvature="0" />
	<path style="fill:none;stroke:red;stroke-width:1px;stroke-linecap:butt;stroke-linejoin:miter;stroke-opacity:1" d="M 157.875,567.116 169.333,554.02 z" id="boundary" inkscape:connector-curvature="0" />
	<path style="fill:none;stroke:red;stroke-width:1px;stroke-linecap:butt;stroke-linejoin:miter;stroke-opacity:1" d="M 161.149,139.868 167.696,164.422 z" id="boundary" inkscape:connector-curvature="0" />
	<path style="fill:none;stroke:red;stroke-width:1px;stroke-linecap:butt;stroke-linejoin:miter;stroke-opacity:1" d="M 164.422,486.904 167.696,467.261 z" id="boundary" inkscape:connector-curvature="0" />
	<path style="fill:none;stroke:red;stroke-width:1px;stroke-linecap:butt;stroke-linejoin:miter;stroke-opacity:1" d="M 167.696,164.422 167.696,180.792 z" id="boundary" inkscape:connector-curvature="0" />
	<path style="fill:none;stroke:red;stroke-width:1px;stroke-linecap:butt;stroke-linejoin:miter;stroke-opacity:1" d="M 167.696,180.792 175.881,195.525 z" id="boundary" inkscape:connector-curvature="0" />
	<path style="fill:none;stroke:red;stroke-width:1px;stroke-linecap:butt;stroke-linejoin:miter;stroke-opacity:1" d="M 167.696,467.261 175.881,450.891 z" id="boundary" inkscape:connector-curvature="0" />
	<path style="fill:none;stroke:red;stroke-width:1px;stroke-linecap:butt;stroke-linejoin:miter;stroke-opacity:1" d="M 169.333,554.02 182.429,542.561 z" id="boundary" inkscape:connector-curvature="0" />
	<path style="fill:none;stroke:red;stroke-width:1px;stroke-linecap:butt;stroke-linejoin:miter;stroke-opacity:1" d="M 172.607,4 188.977,4 z" id="boundary" inkscape:connector-curvature="0" />
	<path style="fill:none;stroke:red;stroke-width:1px;stroke-linecap:butt;stroke-linejoin:miter;stroke-opacity:1" d="M 175.881,195.525 187.34,208.62 z" id="boundary" inkscape:connector-curvature="0" />
	<path style="fill:none;stroke:red;stroke-width:1px;stroke-linecap:butt;stroke-linejoin:miter;stroke-opacity:1" d="M 175.881,434.521 175.881,450.891 z" id="boundary" inkscape:connector-curvature="0" />
	<path style="fill:none;stroke:red;stroke-width:1px;stroke-linecap:butt;stroke-linejoin:miter;stroke-opacity:1" d="M 175.881,434.521 188.977,421.426 z" id="boundary" inkscape:connector-curvature="0" />
	<path style="fill:none;stroke:red;stroke-width:1px;stroke-linecap:butt;stroke-linejoin:miter;stroke-opacity:1" d="M 182.429,542.561 193.888,529.465 z" id="boundary" inkscape:connector-curvature="0" />
	<path style="fill:none;stroke:red;stroke-width:1px;stroke-linecap:butt;stroke-linejoin:miter;stroke-opacity:1" d="M 187.34,208.62 200.436,218.442 z" id="boundary" inkscape:connector-curvature="0" />
	<path style="fill:none;stroke:red;stroke-width:1px;stroke-linecap:butt;stroke-linejoin:miter;stroke-opacity:1" d="M 188.977,4 193.888,20.3696 z" id="boundary" inkscape:connector-curvature="0" />
	<path style="fill:none;stroke:red;stroke-width:1px;stroke-linecap:butt;stroke-linejoin:miter;stroke-opacity:1" d="M 188.977,421.426 197.162,405.056 z" id="boundary" inkscape:connector-curvature="0" />
	<path style="fill:none;stroke:red;stroke-width:1px;stroke-linecap:butt;stroke-linejoin:miter;stroke-opacity:1" d="M 193.888,20.3696 210.257,25.2805 z" id="boundary" inkscape:connector-curvature="0" />
	<path style="fill:none;stroke:red;stroke-width:1px;stroke-linecap:butt;stroke-linejoin:miter;stroke-opacity:1" d="M 193.888,529.465 206.983,518.007 z" id="boundary" inkscape:connector-curvature="0" />
	<path style="fill:none;stroke:red;stroke-width:1px;stroke-linecap:butt;stroke-linejoin:miter;stroke-opacity:1" d="M 197.162,405.056 205.347,388.686 z" id="boundary" inkscape:connector-curvature="0" />
	<path style="fill:none;stroke:red;stroke-width:1px;stroke-linecap:butt;stroke-linejoin:miter;stroke-opacity:1" d="M 200.436,218.442 215.168,226.627 z" id="boundary" inkscape:connector-curvature="0" />
	<path style="fill:none;stroke:red;stroke-width:1px;stroke-linecap:butt;stroke-linejoin:miter;stroke-opacity:1" d="M 205.347,388.686 218.442,375.591 z" id="boundary" inkscape:connector-curvature="0" />
	<path style="fill:none;stroke:red;stroke-width:1px;stroke-linecap:butt;stroke-linejoin:miter;stroke-opacity:1" d="M 206.983,518.007 215.168,501.637 z" id="boundary" inkscape:connector-curvature="0" />
	<path style="fill:none;stroke:red;stroke-width:1px;stroke-linecap:butt;stroke-linejoin:miter;stroke-opacity:1" d="M 210.257,25.2805 216.805,41.6502 z" id="boundary" inkscape:connector-curvature="0" />
	<path style="fill:none;stroke:red;stroke-width:1px;stroke-linecap:butt;stroke-linejoin:miter;stroke-opacity:1" d="M 215.168,226.627 229.901,234.812 z" id="boundary" inkscape:connector-curvature="0" />
	<path style="fill:none;stroke:red;stroke-width:1px;stroke-linecap:butt;stroke-linejoin:miter;stroke-opacity:1" d="M 215.168,501.637 226.627,480.356 z" id="boundary" inkscape:connector-curvature="0" />
	<path style="fill:none;stroke:red;stroke-width:1px;stroke-linecap:butt;stroke-linejoin:miter;stroke-opacity:1" d="M 216.805,41.6502 218.442,58.0198 z" id="boundary" inkscape:connector-curvature="0" />
	<path style="fill:none;stroke:red;stroke-width:1px;stroke-linecap:butt;stroke-linejoin:miter;stroke-opacity:1" d="M 218.442,58.0198 234.812,61.2937 z" id="boundary" inkscape:connector-curvature="0" />
	<path style="fill:none;stroke:red;stroke-width:1px;stroke-linecap:butt;stroke-linejoin:miter;stroke-opacity:1" d="M 218.442,375.591 234.812,367.406 z" id="boundary" inkscape:connector-curvature="0" />
	<path style="fill:none;stroke:red;stroke-width:1px;stroke-linecap:butt;stroke-linejoin:miter;stroke-opacity:1" d="M 226.627,480.356 234.812,463.987 z" id="boundary" inkscape:connector-curvature="0" />
	<path style="fill:none;stroke:red;stroke-width:1px;stroke-linecap:butt;stroke-linejoin:miter;stroke-opacity:1" d="M 229.901,234.812 246.271,234.812 z" id="boundary" inkscape:connector-curvature="0" />
	<path style="fill:none;stroke:red;stroke-width:1px;stroke-linecap:butt;stroke-linejoin:miter;stroke-opacity:1" d="M 234.812,61.2937 249.545,53.1089 z" id="boundary" inkscape:connector-curvature="0" />
	<path style="fill:none;stroke:red;stroke-width:1px;stroke-linecap:butt;stroke-linejoin:miter;stroke-opacity:1" d="M 234.812,367.406 249.545,344.488 z" id="boundary" inkscape:connector-curvature="0" />
	<path style="fill:none;stroke:red;stroke-width:1px;stroke-linecap:butt;stroke-linejoin:miter;stroke-opacity:1" d="M 234.812,447.617 234.812,463.987 z" id="boundary" inkscape:connector-curvature="0" />
	<path style="fill:none;stroke:red;stroke-width:1px;stroke-linecap:butt;stroke-linejoin:miter;stroke-opacity:1" d="M 234.812,447.617 242.997,431.248 z" id="boundary" inkscape:connector-curvature="0" />
	<path style="fill:none;stroke:red;stroke-width:1px;stroke-linecap:butt;stroke-linejoin:miter;stroke-opacity:1" d="M 242.997,431.248 257.729,423.063 z" id="boundary" inkscape:connector-curvature="0" />
	<path style="fill:none;stroke:red;stroke-width:1px;stroke-linecap:butt;stroke-linejoin:miter;stroke-opacity:1" d="M 246.271,234.812 262.64,234.812 z" id="boundary" inkscape:connector-curvature="0" />
	<path style="fill:none;stroke:red;stroke-width:1px;stroke-linecap:butt;stroke-linejoin:miter;stroke-opacity:1" d="M 249.545,53.1089 265.914,53.1089 z" id="boundary" inkscape:connector-curvature="0" />
	<path style="fill:none;stroke:red;stroke-width:1px;stroke-linecap:butt;stroke-linejoin:miter;stroke-opacity:1" d="M 249.545,344.488 265.914,336.304 z" id="boundary" inkscape:connector-curvature="0" />
	<path style="fill:none;stroke:red;stroke-width:1px;stroke-linecap:butt;stroke-linejoin:miter;stroke-opacity:1" d="M 257.729,423.063 274.099,423.063 z" id="boundary" inkscape:connector-curvature="0" />
	<path style="fill:none;stroke:red;stroke-width:1px;stroke-linecap:butt;stroke-linejoin:miter;stroke-opacity:1" d="M 262.64,234.812 277.373,242.997 z" id="boundary" inkscape:connector-curvature="0" />
	<path style="fill:none;stroke:red;stroke-width:1px;stroke-linecap:butt;stroke-linejoin:miter;stroke-opacity:1" d="M 265.914,53.1089 282.284,49.835 z" id="boundary" inkscape:connector-curvature="0" />
	<path style="fill:none;stroke:red;stroke-width:1px;stroke-linecap:butt;stroke-linejoin:miter;stroke-opacity:1" d="M 265.914,336.304 282.284,328.119 z" id="boundary" inkscape:connector-curvature="0" />
	<path style="fill:none;stroke:red;stroke-width:1px;stroke-linecap:butt;stroke-linejoin:miter;stroke-opacity:1" d="M 274.099,423.063 290.469,418.152 z" id="boundary" inkscape:connector-curvature="0" />
	<path style="fill:none;stroke:red;stroke-width:1px;stroke-linecap:butt;stroke-linejoin:miter;stroke-opacity:1" d="M 277.373,242.997 293.743,242.997 z" id="boundary" inkscape:connector-curvature="0" />
	<path style="fill:none;stroke:red;stroke-width:1px;stroke-linecap:butt;stroke-linejoin:miter;stroke-opacity:1" d="M 282.284,49.835 298.653,53.1089 z" id="boundary" inkscape:connector-curvature="0" />
	<path style="fill:none;stroke:red;stroke-width:1px;stroke-linecap:butt;stroke-linejoin:miter;stroke-opacity:1" d="M 282.284,328.119 295.38,315.023 z" id="boundary" inkscape:connector-curvature="0" />
	<path style="fill:none;stroke:red;stroke-width:1px;stroke-linecap:butt;stroke-linejoin:miter;stroke-opacity:1" d="M 290.469,418.152 306.838,414.878 z" id="boundary" inkscape:connector-curvature="0" />
	<path style="fill:none;stroke:red;stroke-width:1px;stroke-linecap:butt;stroke-linejoin:miter;stroke-opacity:1" d="M 293.743,242.997 306.838,252.818 z" id="boundary" inkscape:connector-curvature="0" />
	<path style="fill:none;stroke:red;stroke-width:1px;stroke-linecap:butt;stroke-linejoin:miter;stroke-opacity:1" d="M 295.38,315.023 311.749,315.023 z" id="boundary" inkscape:connector-curvature="0" />
	<path style="fill:none;stroke:red;stroke-width:1px;stroke-linecap:butt;stroke-linejoin:miter;stroke-opacity:1" d="M 298.653,53.1089 315.023,53.1089 z" id="boundary" inkscape:connector-curvature="0" />
	<path style="fill:none;stroke:red;stroke-width:1px;stroke-linecap:butt;stroke-linejoin:miter;stroke-opacity:1" d="M 306.838,252.818 315.023,267.551 z" id="boundary" inkscape:connector-curvature="0" />
	<path style="fill:none;stroke:red;stroke-width:1px;stroke-linecap:butt;stroke-linejoin:miter;stroke-opacity:1" d="M 306.838,414.878 323.208,414.878 z" id="boundary" inkscape:connector-curvature="0" />
	<path style="fill:none;stroke:red;stroke-width:1px;stroke-linecap:butt;stroke-linejoin:miter;stroke-opacity:1" d="M 311.749,315.023 326.482,306.838 z" id="boundary" inkscape:connector-curvature="0" />
	<path style="fill:none;stroke:red;stroke-width:1px;stroke-linecap:butt;stroke-linejoin:miter;stroke-opacity:1" d="M 315.023,53.1089 331.393,53.1089 z" id="boundary" inkscape:connector-curvature="0" />
	<path style="fill:none;stroke:red;stroke-width:1px;stroke-linecap:butt;stroke-linejoin:miter;stroke-opacity:1" d="M 315.023,267.551 324.845,280.647 z" id="boundary" inkscape:connector-curvature="0" />
	<path style="fill:none;stroke:red;stroke-width:1px;stroke-linecap:butt;stroke-linejoin:miter;stroke-opacity:1" d="M 323.208,414.878 337.941,406.693 z" id="boundary" inkscape:connector-curvature="0" />
	<path style="fill:none;stroke:red;stroke-width:1px;stroke-linecap:butt;stroke-linejoin:miter;stroke-opacity:1" d="M 324.845,280.647 337.941,292.106 z" id="boundary" inkscape:connector-curvature="0" />
	<path style="fill:none;stroke:red;stroke-width:1px;stroke-linecap:butt;stroke-linejoin:miter;stroke-opacity:1" d="M 326.482,306.838 337.941,292.106 z" id="boundary" inkscape:connector-curvature="0" />
	<path style="fill:none;stroke:red;stroke-width:1px;stroke-linecap:butt;stroke-linejoin:miter;stroke-opacity:1" d="M 331.393,53.1089 346.125,61.2937 z" id="boundary" inkscape:connector-curvature="0" />
	<path style="fill:none;stroke:red;stroke-width:1px;stroke-linecap:butt;stroke-linejoin:miter;stroke-opacity:1" d="M 337.941,406.693 354.31,403.419 z" id="boundary" inkscape:connector-curvature="0" />
	<path style="fill:none;stroke:red;stroke-width:1px;stroke-linecap:butt;stroke-linejoin:miter;stroke-opacity:1" d="M 346.125,61.2937 360.858,69.4785 z" id="boundary" inkscape:connector-curvature="0" />
	<path style="fill:none;stroke:red;stroke-width:1px;stroke-linecap:butt;stroke-linejoin:miter;stroke-opacity:1" d="M 354.31,403.419 370.68,398.508 z" id="boundary" inkscape:connector-curvature="0" />
	<path style="fill:none;stroke:red;stroke-width:1px;stroke-linecap:butt;stroke-linejoin:miter;stroke-opacity:1" d="M 360.858,69.4785 372.317,82.5743 z" id="boundary" inkscape:connector-curvature="0" />
	<path style="fill:none;stroke:red;stroke-width:1px;stroke-linecap:butt;stroke-linejoin:miter;stroke-opacity:1" d="M 370.68,398.508 387.05,398.508 z" id="boundary" inkscape:connector-curvature="0" />
	<path style="fill:none;stroke:red;stroke-width:1px;stroke-linecap:butt;stroke-linejoin:miter;stroke-opacity:1" d="M 372.317,82.5743 385.413,94.033 z" id="boundary" inkscape:connector-curvature="0" />
	<path style="fill:none;stroke:red;stroke-width:1px;stroke-linecap:butt;stroke-linejoin:miter;stroke-opacity:1" d="M 385.413,94.033 396.871,107.129 z" id="boundary" inkscape:connector-curvature="0" />
	<path style="fill:none;stroke:red;stroke-width:1px;stroke-linecap:butt;stroke-linejoin:miter;stroke-opacity:1" d="M 387.05,398.508 401.782,390.323 z" id="boundary" inkscape:connector-curvature="0" />
	<path style="fill:none;stroke:red;stroke-width:1px;stroke-linecap:butt;stroke-linejoin:miter;stroke-opacity:1" d="M 396.871,107.129 409.967,118.587 z" id="boundary" inkscape:connector-curvature="0" />
	<path style="fill:none;stroke:red;stroke-width:1px;stroke-linecap:butt;stroke-linejoin:miter;stroke-opacity:1" d="M 401.782,390.323 418.152,388.686 z" id="boundary" inkscape:connector-curvature="0" />
	<path style="fill:none;stroke:red;stroke-width:1px;stroke-linecap:butt;stroke-linejoin:miter;stroke-opacity:1" d="M 409.967,118.587 414.878,134.957 z" id="boundary" inkscape:connector-curvature="0" />
	<path style="fill:none;stroke:red;stroke-width:1px;stroke-linecap:butt;stroke-linejoin:miter;stroke-opacity:1" d="M 414.878,134.957 427.974,144.779 z" id="boundary" inkscape:connector-curvature="0" />
	<path style="fill:none;stroke:red;stroke-width:1px;stroke-linecap:butt;stroke-linejoin:miter;stroke-opacity:1" d="M 418.152,388.686 431.248,373.954 z" id="boundary" inkscape:connector-curvature="0" />
	<path style="fill:none;stroke:red;stroke-width:1px;stroke-linecap:butt;stroke-linejoin:miter;stroke-opacity:1" d="M 427.974,144.779 439.432,157.875 z" id="boundary" inkscape:connector-curvature="0" />
	<path style="fill:none;stroke:red;stroke-width:1px;stroke-linecap:butt;stroke-linejoin:miter;stroke-opacity:1" d="M 431.248,373.954 447.617,373.954 z" id="boundary" inkscape:connector-curvature="0" />
	<path style="fill:none;stroke:red;stroke-width:1px;stroke-linecap:butt;stroke-linejoin:miter;stroke-opacity:1" d="M 439.432,157.875 452.528,169.333 z" id="boundary" inkscape:connector-curvature="0" />
	<path style="fill:none;stroke:red;stroke-width:1px;stroke-linecap:butt;stroke-linejoin:miter;stroke-opacity:1" d="M 452.528,169.333 459.076,185.703 z" id="boundary" inkscape:connector-curvature="0" />
	<path style="fill:none;stroke:red;stroke-width:1px;stroke-linecap:butt;stroke-linejoin:miter;stroke-opacity:1" d="M 459.076,185.703 467.261,200.436 z" id="boundary" inkscape:connector-curvature="0" />
	<path style="fill:none;stroke:red;stroke-width:1px;stroke-linecap:butt;stroke-linejoin:miter;stroke-opacity:1" d="M 462.35,365.769 462.35,382.139 z" id="boundary" inkscape:connector-curvature="0" />
	<path style="fill:none;stroke:red;stroke-width:1px;stroke-linecap:butt;stroke-linejoin:miter;stroke-opacity:1" d="M 462.35,382.139 472.172,395.234 z" id="boundary" inkscape:connector-curvature="0" />
	<path style="fill:none;stroke:red;stroke-width:1px;stroke-linecap:butt;stroke-linejoin:miter;stroke-opacity:1" d="M 467.261,200.436 481.993,208.62 z" id="boundary" inkscape:connector-curvature="0" />
	<path style="fill:none;stroke:red;stroke-width:1px;stroke-linecap:butt;stroke-linejoin:miter;stroke-opacity:1" d="M 472.172,395.234 480.356,409.967 z" id="boundary" inkscape:connector-curvature="0" />
	<path style="fill:none;stroke:red;stroke-width:1px;stroke-linecap:butt;stroke-linejoin:miter;stroke-opacity:1" d="M 480.356,409.967 491.815,423.063 z" id="boundary" inkscape:connector-curvature="0" />
	<path style="fill:none;stroke:red;stroke-width:1px;stroke-linecap:butt;stroke-linejoin:miter;stroke-opacity:1" d="M 481.993,208.62 496.726,216.805 z" id="boundary" inkscape:connector-curvature="0" />
	<path style="fill:none;stroke:red;stroke-width:1px;stroke-linecap:butt;stroke-linejoin:miter;stroke-opacity:1" d="M 491.815,423.063 504.911,434.521 z" id="boundary" inkscape:connector-curvature="0" />
	<path style="fill:none;stroke:red;stroke-width:1px;stroke-linecap:butt;stroke-linejoin:miter;stroke-opacity:1" d="M 496.726,216.805 513.096,221.716 z" id="boundary" inkscape:connector-curvature="0" />
	<path style="fill:none;stroke:red;stroke-width:1px;stroke-linecap:butt;stroke-linejoin:miter;stroke-opacity:1" d="M 504.911,434.521 511.459,450.891 z" id="boundary" inkscape:connector-curvature="0" />
	<path style="fill:none;stroke:red;stroke-width:1px;stroke-linecap:butt;stroke-linejoin:miter;stroke-opacity:1" d="M 511.459,450.891 519.644,467.261 z" id="boundary" inkscape:connector-curvature="0" />
	<path style="fill:none;stroke:red;stroke-width:1px;stroke-linecap:butt;stroke-linejoin:miter;stroke-opacity:1" d="M 513.096,221.716 521.281,236.449 z" id="boundary" inkscape:connector-curvature="0" />
	<path style="fill:none;stroke:red;stroke-width:1px;stroke-linecap:butt;stroke-linejoin:miter;stroke-opacity:1" d="M 519.644,467.261 536.013,472.172 z" id="boundary" inkscape:connector-curvature="0" />
	<path style="fill:none;stroke:red;stroke-width:1px;stroke-linecap:butt;stroke-linejoin:miter;stroke-opacity:1" d="M 521.281,236.449 531.102,249.545 z" id="boundary" inkscape:connector-curvature="0" />
	<path style="fill:none;stroke:red;stroke-width:1px;stroke-linecap:butt;stroke-linejoin:miter;stroke-opacity:1" d="M 531.102,249.545 537.65,265.914 z" id="boundary" inkscape:connector-curvature="0" />
	<path style="fill:none;stroke:red;stroke-width:1px;stroke-linecap:butt;stroke-linejoin:miter;stroke-opacity:1" d="M 536.013,472.172 550.746,480.356 z" id="boundary" inkscape:connector-curvature="0" />
	<path style="fill:none;stroke:red;stroke-width:1px;stroke-linecap:butt;stroke-linejoin:miter;stroke-opacity:1" d="M 537.65,265.914 550.746,275.736 z" id="boundary" inkscape:connector-curvature="0" />
	<path style="fill:none;stroke:red;stroke-width:1px;stroke-linecap:butt;stroke-linejoin:miter;stroke-opacity:1" d="M 545.835,292.106 550.746,275.736 z" id="boundary" inkscape:connector-curvature="0" />
	<path style="fill:none;stroke:red;stroke-width:1px;stroke-linecap:butt;stroke-linejoin:miter;stroke-opacity:1" d="M 545.835,292.106 554.02,306.838 z" id="boundary" inkscape:connector-curvature="0" />
	<path style="fill:none;stroke:red;stroke-width:1px;stroke-linecap:butt;stroke-linejoin:miter;stroke-opacity:1" d="M 550.746,480.356 565.479,488.541 z" id="boundary" inkscape:connector-curvature="0" />
	<path style="fill:none;stroke:red;stroke-width:1px;stroke-linecap:butt;stroke-linejoin:miter;stroke-opacity:1" d="M 554.02,306.838 554.02,323.208 z" id="boundary" inkscape:connector-curvature="0" />
	<path style="fill:none;stroke:red;stroke-width:1px;stroke-linecap:butt;stroke-linejoin:miter;stroke-opacity:1" d="M 554.02,323.208 570.389,328.119 z" id="boundary" inkscape:connector-curvature="0" />
	<path style="fill:none;stroke:red;stroke-width:1px;stroke-linecap:butt;stroke-linejoin:miter;stroke-opacity:1" d="M 565.479,488.541 580.211,496.726 z" id="boundary" inkscape:connector-curvature="0" />
	<path style="fill:none;stroke:red;stroke-width:1px;stroke-linecap:butt;stroke-linejoin:miter;stroke-opacity:1" d="M 570.389,328.119 581.848,341.215 z" id="boundary" inkscape:connector-curvature="0" />
	<path style="fill:none;stroke:red;stroke-width:1px;stroke-linecap:butt;stroke-linejoin:miter;stroke-opacity:1" d="M 580.211,496.726 596.581,501.637 z" id="boundary" inkscape:connector-curvature="0" />
	<path style="fill:none;stroke:red;stroke-width:1px;stroke-linecap:butt;stroke-linejoin:miter;stroke-opacity:1" d="M 581.848,341.215 586.759,357.584 z" id="boundary" inkscape:connector-curvature="0" />
	<path style="fill:none;stroke:red;stroke-width:1px;stroke-linecap:butt;stroke-linejoin:miter;stroke-opacity:1" d="M 586.759,357.584 594.944,372.317 z" id="boundary" inkscape:connector-curvature="0" />
	<path style="fill:none;stroke:red;stroke-width:1px;stroke-linecap:butt;stroke-linejoin:miter;stroke-opacity:1" d="M 594.944,372.317 603.129,387.05 z" id="boundary" inkscape:connector-curvature="0" />
	<path style="fill:none;stroke:red;stroke-width:1px;stroke-linecap:butt;stroke-linejoin:miter;stroke-opacity:1" d="M 596.581,501.637 611.314,509.822 z" id="boundary" inkscape:connector-curvature="0" />
	<path style="fill:none;stroke:red;stroke-width:1px;stroke-linecap:butt;stroke-linejoin:miter;stroke-opacity:1" d="M 603.129,387.05 611.314,401.782 z" id="boundary" inkscape:connector-curvature="0" />
	<path style="fill:none;stroke:red;stroke-width:1px;stroke-linecap:butt;stroke-linejoin:miter;stroke-opacity:1" d="M 611.314,401.782 622.772,414.878 z" id="boundary" inkscape:connector-curvature="0" />
	<path style="fill:none;stroke:red;stroke-width:1px;stroke-linecap:butt;stroke-linejoin:miter;stroke-opacity:1" d="M 611.314,509.822 627.683,508.185 z" id="boundary" inkscape:connector-curvature="0" />
	<path style="fill:none;stroke:red;stroke-width:1px;stroke-linecap:butt;stroke-linejoin:miter;stroke-opacity:1" d="M 622.772,414.878 639.142,421.426 z" id="boundary" inkscape:connector-curvature="0" />
	<path style="fill:none;stroke:red;stroke-width:1px;stroke-linecap:butt;stroke-linejoin:miter;stroke-opacity:1" d="M 627.683,508.185 639.142,521.281 z" id="boundary" inkscape:connector-curvature="0" />
	<path style="fill:none;stroke:red;stroke-width:1px;stroke-linecap:butt;stroke-linejoin:miter;stroke-opacity:1" d="M 639.142,421.426 655.512,421.426 z" id="boundary" inkscape:connector-curvature="0" />
	<path style="fill:none;stroke:red;stroke-width:1px;stroke-linecap:butt;stroke-linejoin:miter;stroke-opacity:1" d="M 639.142,521.281 655.512,519.644 z" id="boundary" inkscape:connector-curvature="0" />
	<path style="fill:none;stroke:red;stroke-width:1px;stroke-linecap:butt;stroke-linejoin:miter;stroke-opacity:1" d="M 655.512,421.426 671.881,421.426 z" id="boundary" inkscape:connector-curvature="0" />
	<path style="fill:none;stroke:red;stroke-width:1px;stroke-linecap:butt;stroke-linejoin:miter;stroke-opacity:1" d="M 655.512,519.644 671.881,519.644 z" id="boundary" inkscape:connector-curvature="0" />
	<path style="fill:none;stroke:red;stroke-width:1px;stroke-linecap:butt;stroke-linejoin:miter;stroke-opacity:1" d="M 671.881,421.426 686.614,413.241 z" id="boundary" inkscape:connector-curvature="0" />
	<path style="fill:none;stroke:red;stroke-width:1px;stroke-linecap:butt;stroke-linejoin:miter;stroke-opacity:1" d="M 671.881,519.644 688.251,519.644 z" id="boundary" inkscape:connector-curvature="0" />
	<path style="fill:none;stroke:red;stroke-width:1px;stroke-linecap:butt;stroke-linejoin:miter;stroke-opacity:1" d="M 686.614,413.241 702.983,406.693 z" id="boundary" inkscape:connector-curvature="0" />
	<path style="fill:none;stroke:red;stroke-width:1px;stroke-linecap:butt;stroke-linejoin:miter;stroke-opacity:1" d="M 688.251,519.644 704.62,519.644 z" id="boundary" inkscape:connector-curvature="0" />
	<path style="fill:none;stroke:red;stroke-width:1px;stroke-linecap:butt;stroke-linejoin:miter;stroke-opacity:1" d="M 702.983,406.693 719.353,398.508 z" id="boundary" inkscape:connector-curvature="0" />
	<path style="fill:none;stroke:red;stroke-width:1px;stroke-linecap:butt;stroke-linejoin:miter;stroke-opacity:1" d="M 704.62,519.644 720.99,519.644 z" id="boundary" inkscape:connector-curvature="0" />
	<path style="fill:none;stroke:red;stroke-width:1px;stroke-linecap:butt;stroke-linejoin:miter;stroke-opacity:1" d="M 719.353,398.508 735.723,396.871 z" id="boundary" inkscape:connector-curvature="0" />
	<path style="fill:none;stroke:red;stroke-width:1px;stroke-linecap:butt;stroke-linejoin:miter;stroke-opacity:1" d="M 720.99,519.644 737.36,519.644 z" id="boundary" inkscape:connector-curvature="0" />
	<path style="fill:none;stroke:red;stroke-width:1px;stroke-linecap:butt;stroke-linejoin:miter;stroke-opacity:1" d="M 735.723,396.871 750.455,388.686 z" id="boundary" inkscape:connector-curvature="0" />
	<path style="fill:none;stroke:red;stroke-width:1px;stroke-linecap:butt;stroke-linejoin:miter;stroke-opacity:1" d="M 737.36,519.644 753.729,519.644 z" id="boundary" inkscape:connector-curvature="0" />
	<path style="fill:none;stroke:red;stroke-width:1px;stroke-linecap:butt;stroke-linejoin:miter;stroke-opacity:1" d="M 750.455,388.686 766.825,388.686 z" id="boundary" inkscape:connector-curvature="0" />
	<path style="fill:none;stroke:red;stroke-width:1px;stroke-linecap:butt;stroke-linejoin:miter;stroke-opacity:1" d="M 753.729,519.644 766.825,504.911 z" id="boundary" inkscape:connector-curvature="0" />
	<path style="fill:none;stroke:red;stroke-width:1px;stroke-linecap:butt;stroke-linejoin:miter;stroke-opacity:1" d="M 766.825,388.686 783.195,385.413 z" id="boundary" inkscape:connector-curvature="0" />
	<path style="fill:none;stroke:red;stroke-width:1px;stroke-linecap:butt;stroke-linejoin:miter;stroke-opacity:1" d="M 766.825,504.911 783.195,504.911 z" id="boundary" inkscape:connector-curvature="0" />
	<path style="fill:none;stroke:red;stroke-width:1px;stroke-linecap:butt;stroke-linejoin:miter;stroke-opacity:1" d="M 783.195,385.413 799.564,388.686 z" id="boundary" inkscape:connector-curvature="0" />
	<path style="fill:none;stroke:red;stroke-width:1px;stroke-linecap:butt;stroke-linejoin:miter;stroke-opacity:1" d="M 783.195,504.911 797.927,496.726 z" id="boundary" inkscape:connector-curvature="0" />
	<path style="fill:none;stroke:red;stroke-width:1px;stroke-linecap:butt;stroke-linejoin:miter;stroke-opacity:1" d="M 797.927,496.726 814.297,496.726 z" id="boundary" inkscape:connector-curvature="0" />
	<path style="fill:none;stroke:red;stroke-width:1px;stroke-linecap:butt;stroke-linejoin:miter;stroke-opacity:1" d="M 799.564,388.686 814.297,380.502 z" id="boundary" inkscape:connector-curvature="0" />
	<path style="fill:none;stroke:red;stroke-width:1px;stroke-linecap:butt;stroke-linejoin:miter;stroke-opacity:1" d="M 814.297,380.502 829.03,372.317 z" id="boundary" inkscape:connector-curvature="0" />
	<path style="fill:none;stroke:red;stroke-width:1px;stroke-linecap:butt;stroke-linejoin:miter;stroke-opacity:1" d="M 814.297,496.726 829.03,488.541 z" id="boundary" inkscape:connector-curvature="0" />
	<path style="fill:none;stroke:red;stroke-width:1px;stroke-linecap:butt;stroke-linejoin:miter;stroke-opacity:1" d="M 829.03,372.317 840.488,359.221 z" id="boundary" inkscape:connector-curvature="0" />
	<path style="fill:none;stroke:red;stroke-width:1px;stroke-linecap:butt;stroke-linejoin:miter;stroke-opacity:1" d="M 829.03,488.541 845.399,485.267 z" id="boundary" inkscape:connector-curvature="0" />
	<path style="fill:none;stroke:red;stroke-width:1px;stroke-linecap:butt;stroke-linejoin:miter;stroke-opacity:1" d="M 840.488,359.221 853.584,347.762 z" id="boundary" inkscape:connector-curvature="0" />
	<path style="fill:none;stroke:red;stroke-width:1px;stroke-linecap:butt;stroke-linejoin:miter;stroke-opacity:1" d="M 845.399,485.267 861.769,477.083 z" id="boundary" inkscape:connector-curvature="0" />
	<path style="fill:none;stroke:red;stroke-width:1px;stroke-linecap:butt;stroke-linejoin:miter;stroke-opacity:1" d="M 853.584,347.762 868.317,339.578 z" id="boundary" inkscape:connector-curvature="0" />
	<path style="fill:none;stroke:red;stroke-width:1px;stroke-linecap:butt;stroke-linejoin:miter;stroke-opacity:1" d="M 861.769,477.083 878.139,468.898 z" id="boundary" inkscape:connector-curvature="0" />
	<path style="fill:none;stroke:red;stroke-width:1px;stroke-linecap:butt;stroke-linejoin:miter;stroke-opacity:1" d="M 868.317,339.578 884.686,339.578 z" id="boundary" inkscape:connector-curvature="0" />
	<path style="fill:none;stroke:red;stroke-width:1px;stroke-linecap:butt;stroke-linejoin:miter;stroke-opacity:1" d="M 878.139,468.898 894.508,463.987 z" id="boundary" inkscape:connector-curvature="0" />
	<path style="fill:none;stroke:red;stroke-width:1px;stroke-linecap:butt;stroke-linejoin:miter;stroke-opacity:1" d="M 884.686,339.578 901.056,339.578 z" id="boundary" inkscape:connector-curvature="0" />
	<path style="fill:none;stroke:red;stroke-width:1px;stroke-linecap:butt;stroke-linejoin:miter;stroke-opacity:1" d="M 894.508,463.987 910.878,463.987 z" id="boundary" inkscape:connector-curvature="0" />
	<path style="fill:none;stroke:red;stroke-width:1px;stroke-linecap:butt;stroke-linejoin:miter;stroke-opacity:1" d="M 901.056,339.578 915.789,347.762 z" id="boundary" inkscape:connector-curvature="0" />
	<path style="fill:none;stroke:red;stroke-width:1px;stroke-linecap:butt;stroke-linejoin:miter;stroke-opacity:1" d="M 910.878,463.987 927.248,460.713 z" id="boundary" inkscape:connector-curvature="0" />
	<path style="fill:none;stroke:red;stroke-width:1px;stroke-linecap:butt;stroke-linejoin:miter;stroke-opacity:1" d="M 915.789,347.762 928.884,359.221 z" id="boundary" inkscape:connector-curvature="0" />
	<path style="fill:none;stroke:red;stroke-width:1px;stroke-linecap:butt;stroke-linejoin:miter;stroke-opacity:1" d="M 927.248,460.713 943.617,455.802 z" id="boundary" inkscape:connector-curvature="0" />
	<path style="fill:none;stroke:red;stroke-width:1px;stroke-linecap:butt;stroke-linejoin:miter;stroke-opacity:1" d="M 928.884,359.221 943.617,367.406 z" id="boundary" inkscape:connector-curvature="0" />
	<path style="fill:none;stroke:red;stroke-width:1px;stroke-linecap:butt;stroke-linejoin:miter;stroke-opacity:1" d="M 943.617,367.406 951.802,382.139 z" id="boundary" inkscape:connector-curvature="0" />
	<path style="fill:none;stroke:red;stroke-width:1px;stroke-linecap:butt;stroke-linejoin:miter;stroke-opacity:1" d="M 943.617,455.802 959.987,455.802 z" id="boundary" inkscape:connector-curvature="0" />
	<path style="fill:none;stroke:red;stroke-width:1px;stroke-linecap:butt;stroke-linejoin:miter;stroke-opacity:1" d="M 951.802,382.139 968.172,388.686 z" id="boundary" inkscape:connector-curvature="0" />
	<path style="fill:none;stroke:red;stroke-width:1px;stroke-linecap:butt;stroke-linejoin:miter;stroke-opacity:1" d="M 959.987,455.802 976.356,455.802 z" id="boundary" inkscape:connector-curvature="0" />
	<path style="fill:none;stroke:red;stroke-width:1px;stroke-linecap:butt;stroke-linejoin:miter;stroke-opacity:1" d="M 968.172,388.686 979.63,401.782 z" id="boundary" inkscape:connector-curvature="0" />
	<path style="fill:none;stroke:red;stroke-width:1px;stroke-linecap:butt;stroke-linejoin:miter;stroke-opacity:1" d="M 976.356,455.802 992.726,452.528 z" id="boundary" inkscape:connector-curvature="0" />
	<path style="fill:none;stroke:red;stroke-width:1px;stroke-linecap:butt;stroke-linejoin:miter;stroke-opacity:1" d="M 979.63,401.782 987.815,416.515 z" id="boundary" inkscape:connector-curvature="0" />
	<path style="fill:none;stroke:red;stroke-width:1px;stroke-linecap:butt;stroke-linejoin:miter;stroke-opacity:1" d="M 987.815,416.515 996,431.248 z" id="boundary" inkscape:connector-curvature="0" />
	<path style="fill:none;stroke:red;stroke-width:1px;stroke-linecap:butt;stroke-linejoin:miter;stroke-opacity:1" d="M 992.726,452.528 996,431.248 z" id="boundary" inkscape:connector-curvature="0" />
	<circle cx="4" cy="598.218" r="4" fill="#0" id="circle0"/>
	<circle cx="4" cy="614.587" r="4" fill="#0" id="circle1"/>
	<circle cx="20.3696" cy="590.033" r="4" fill="#0" id="circle2"/>
	<circle cx="20.3696" cy="619.498" r="4" fill="#0" id="circle3"/>
	<circle cx="25.2805" cy="635.868" r="4" fill="#0" id="circle4"/>
	<circle cx="33.4653" cy="650.601" r="4" fill="#0" id="circle5"/>
	<circle cx="36.7393" cy="585.122" r="4" fill="#0" id="circle6"/>
	<circle cx="44.9241" cy="663.696" r="4" fill="#0" id="circle7"/>
	<circle cx="53.1089" cy="585.122" r="4" fill="#0" id="circle8"/>
	<circle cx="61.2937" cy="668.607" r="4" fill="#0" id="circle9"/>
	<circle cx="61.2937" cy="684.977" r="4" fill="#0" id="circle10"/>
	<circle cx="69.4785" cy="74.3894" r="4" fill="#0" id="circle11"/>
	<circle cx="69.4785" cy="90.7591" r="4" fill="#0" id="circle12"/>
	<circle cx="69.4785" cy="107.129" r="4" fill="#0" id="circle13"/>
	<circle cx="69.4785" cy="585.122" r="4" fill="#0" id="circle14"/>
	<circle cx="77.6634" cy="49.835" r="4" fill="#0" id="circle15"/>
	<circle cx="77.6634" cy="684.977" r="4" fill="#0" id="circle16"/>
	<circle cx="82.5743" cy="118.587" r="4" fill="#0" id="circle17"/>
	<circle cx="82.5743" cy="701.347" r="4" fill="#0" id="circle18"/>
	<circle cx="85.8482" cy="33.4653" r="4" fill="#0" id="circle19"/>
	<circle cx="85.8482" cy="585.122" r="4" fill="#0" id="circle20"/>
	<circle cx="94.033" cy="17.0957" r="4" fill="#0" id="circle21"/>
	<circle cx="94.033" cy="684.977" r="4" fill="#0" id="circle22"/>
	<circle cx="95.67" cy="128.409" r="4" fill="#0" id="circle23"/>
	<circle cx="102.218" cy="581.848" r="4" fill="#0" id="circle24"/>
	<circle cx="107.129" cy="675.155" r="4" fill="#0" id="circle25"/>
	<circle cx="110.403" cy="17.0957" r="4" fill="#0" id="circle26"/>
	<circle cx="110.403" cy="565.479" r="4" fill="#0" id="circle27"/>
	<circle cx="112.04" cy="128.409" r="4" fill="#0" id="circle28"/>
	<circle cx="118.587" cy="549.109" r="4" fill="#0" id="circle29"/>
	<circle cx="120.224" cy="644.053" r="4" fill="#0" id="circle30"/>
	<circle cx="120.224" cy="660.422" r="4" fill="#0" id="circle31"/>
	<circle cx="123.498" cy="4" r="4" fill="#0" id="circle32"/>
	<circle cx="128.409" cy="131.683" r="4" fill="#0" id="circle33"/>
	<circle cx="128.409" cy="627.683" r="4" fill="#0" id="circle34"/>
	<circle cx="131.683" cy="536.013" r="4" fill="#0" id="circle35"/>
	<circle cx="136.594" cy="603.129" r="4" fill="#0" id="circle36"/>
	<circle cx="139.868" cy="4" r="4" fill="#0" id="circle37"/>
	<circle cx="143.142" cy="516.37" r="4" fill="#0" id="circle38"/>
	<circle cx="144.779" cy="136.594" r="4" fill="#0" id="circle39"/>
	<circle cx="144.779" cy="578.574" r="4" fill="#0" id="circle40"/>
	<circle cx="151.327" cy="500" r="4" fill="#0" id="circle41"/>
	<circle cx="156.238" cy="4" r="4" fill="#0" id="circle42"/>
	<circle cx="157.875" cy="567.116" r="4" fill="#0" id="circle43"/>
	<circle cx="161.149" cy="139.868" r="4" fill="#0" id="circle44"/>
	<circle cx="164.422" cy="486.904" r="4" fill="#0" id="circle45"/>
	<circle cx="167.696" cy="164.422" r="4" fill="#0" id="circle46"/>
	<circle cx="167.696" cy="180.792" r="4" fill="#0" id="circle47"/>
	<circle cx="167.696" cy="467.261" r="4" fill="#0" id="circle48"/>
	<circle cx="169.333" cy="554.02" r="4" fill="#0" id="circle49"/>
	<circle cx="172.607" cy="4" r="4" fill="#0" id="circle50"/>
	<circle cx="175.881" cy="195.525" r="4" fill="#0" id="circle51"/>
	<circle cx="175.881" cy="434.521" r="4" fill="#0" id="circle52"/>
	<circle cx="175.881" cy="450.891" r="4" fill="#0" id="circle53"/>
	<circle cx="182.429" cy="542.561" r="4" fill="#0" id="circle54"/>
	<circle cx="187.34" cy="208.62" r="4" fill="#0" id="circle55"/>
	<circle cx="188.977" cy="4" r="4" fill="#0" id="circle56"/>
	<circle cx="188.977" cy="421.426" r="4" fill="#0" id="circle57"/>
	<circle cx="193.888" cy="20.3696" r="4" fill="#0" id="circle58"/>
	<circle cx="193.888" cy="529.465" r="4" fill="#0" id="circle59"/>
	<circle cx="197.162" cy="405.056" r="4" fill="#0" id="circle60"/>
	<circle cx="200.436" cy="218.442" r="4" fill="#0" id="circle61"/>
	<circle cx="205.347" cy="388.686" r="4" fill="#0" id="circle62"/>
	<circle cx="206.983" cy="518.007" r="4" fill="#0" id="circle63"/>
	<circle cx="210.257" cy="25.2805" r="4" fill="#0" id="circle64"/>
	<circle cx="215.168" cy="226.627" r="4" fill="#0" id="circle65"/>
	<circle cx="215.168" cy="501.637" r="4" fill="#0" id="circle66"/>
	<circle cx="216.805" cy="41.6502" r="4" fill="#0" id="circle67"/>
	<circle cx="218.442" cy="58.0198" r="4" fill="#0" id="circle68"/>
	<circle cx="218.442" cy="375.591" r="4" fill="#0" id="circle69"/>
	<circle cx="226.627" cy="480.356" r="4" fill="#0" id="circle70"/>
	<circle cx="229.901" cy="234.812" r="4" fill="#0" id="circle71"/>
	<circle cx="234.812" cy="61.2937" r="4" fill="#0" id="circle72"/>
	<circle cx="234.812" cy="367.406" r="4" fill="#0" id="circle73"/>
	<circle cx="234.812" cy="447.617" r="4" fill="#0" id="circle74"/>
	<circle cx="234.812" cy="463.987" r="4" fill="#0" id="circle75"/>
	<circle cx="242.997" cy="431.248" r="4" fill="#0" id="circle76"/>
	<circle cx="246.271" cy="234.812" r="4" fill="#0" id="circle77"/>
	<circle cx="249.545" cy="53.1089" r="4" fill="#0" id="circle78"/>
	<circle cx="249.545" cy="344.488" r="4" fill="#0" id="circle79"/>
	<circle cx="257.729" cy="423.063" r="4" fill="#0" id="circle80"/>
	<circle cx="262.64" cy="234.812" r="4" fill="#0" id="circle81"/>
	<circle cx="265.914" cy="53.1089" r="4" fill="#0" id="circle82"/>
	<circle cx="265.914" cy="336.304" r="4" fill="#0" id="circle83"/>
	<circle cx="274.099" cy="423.063" r="4" fill="#0" id="circle84"/>
	<circle cx="277.373" cy="242.997" r="4" fill="#0" id="circle85"/>
	<circle cx="282.284" cy="49.835" r="4" fill="#0" id="circle86"/>
	<circle cx="282.284" cy="328.119" r="4" fill="#0" id="circle87"/>
	<circle cx="290.469" cy="418.152" r="4" fill="#0" id="circle88"/>
	<circle cx="293.743" cy="242.997" r="4" fill="#0" id="circle89"/>
	<circle cx="295.38" cy="315.023" r="4" fill="#0" id="circle90"/>
	<circle cx="298.653" cy="53.1089" r="4" fill="#0" id="circle91"/>
	<circle cx="306.838" cy="252.818" r="4" fill="#0" id="circle92"/>
	<circle cx="306.838" cy="414.878" r="4" fill="#0" id="circle93"/>
	<circle cx="311.749" cy="315.023" r="4" fill="#0" id="circle94"/>
	<circle cx="315.023" cy="53.1089" r="4" fill="#0" id="circle95"/>
	<circle cx="315.023" cy="267.551" r="4" fill="#0" id="circle96"/>
	<circle cx="323.208" cy="414.878" r="4" fill="#0" id="circle97"/>
	<circle cx="324.845" cy="280.647" r="4" fill="#0" id="circle98"/>
	<circle cx="326.482" cy="306.838" r="4" fill="#0" id="circle99"/>
	<circle cx="331.393" cy="53.1089" r="4" fill="#0" id="circle100"/>
	<circle cx="337.941" cy="292.106" r="4" fill="#0" id="circle101"/>
	<circle cx="337.941" cy="406.693" r="4" fill="#0" id="circle102"/>
	<circle cx="346.125" cy="61.2937" r="4" fill="#0" id="circle103"/>
	<circle cx="354.31" cy="403.419" r="4" fill="#0" id="circle104"/>
	<circle cx="360.858" cy="69.4785" r="4" fill="#0" id="circle105"/>
	<circle cx="370.68" cy="398.508" r="4" fill="#0" id="circle106"/>
	<circle cx="372.317" cy="82.5743" r="4" fill="#0" id="circle107"/>
	<circle cx="385.413" cy="94.033" r="4" fill="#0" id="circle108"/>
	<circle cx="387.05" cy="398.508" r="4" fill="#0" id="circle109"/>
	<circle cx="396.871" cy="107.129" r="4" fill="#0" id="circle110"/>
	<circle cx="401.782" cy="390.323" r="4" fill="#0" id="circle111"/>
	<circle cx="409.967" cy="118.587" r="4" fill="#0" id="circle112"/>
	<circle cx="414.878" cy="134.957" r="4" fill="#0" id="circle113"/>
	<circle cx="418.152" cy="388.686" r="4" fill="#0" id="circle114"/>
	<circle cx="427.974" cy="144.779" r="4" fill="#0" id="circle115"/>
	<circle cx="431.248" cy="373.954" r="4" fill="#0" id="circle116"/>
	<circle cx="439.432" cy="157.875" r="4" fill="#0" id="circle117"/>
	<circle cx="447.617" cy="373.954" r="4" fill="#0" id="circle118"/>
	<circle cx="452.528" cy="169.333" r="4" fill="#0" id="circle119"/>
	<circle cx="459.076" cy="185.703" r="4" fill="#0" id="circle120"/>
	<circle cx="462.35" cy="365.769" r="4" fill="#0" id="circle121"/>
	<circle cx="462.35" cy="382.139" r="4" fill="#0" id="circle122"/>
	<circle cx="467.261" cy="200.436" r="4" fill="#0" id="circle123"/>
	<circle cx="472.172" cy="395.234" r="4" fill="#0" id="circle124"/>
	<circle cx="480.356" cy="409.967" r="4" fill="#0" id="circle125"/>
	<circle cx="481.993" cy="208.62" r="4" fill="#0" id="circle126"/>
	<circle cx="491.815" cy="423.063" r="4" fill="#0" id="circle127"/>
	<circle cx="496.726" cy="216.805" r="4" fill="#0" id="circle128"/>
	<circle cx="504.911" cy="434.521" r="4" fill="#0" id="circle129"/>
	<circle cx="511.459" cy="450.891" r="4" fill="#0" id="circle130"/>
	<circle cx="513.096" cy="221.716" r="4" fill="#0" id="circle131"/>
	<circle cx="519.644" cy="467.261" r="4" fill="#0" id="circle132"/>
	<circle cx="521.281" cy="236.449" r="4" fill="#0" id="circle133"/>
	<circle cx="531.102" cy="249.545" r="4" fill="#0" id="circle134"/>
	<circle cx="536.013" cy="472.172" r="4" fill="#0" id="circle135"/>
	<circle cx="537.65" cy="265.914" r="4" fill="#0" id="circle136"/>
	<circle cx="545.835" cy="292.106" r="4" fill="#0" id="circle137"/>
	<circle cx="550.746" cy="275.736" r="4" fill="#0" id="circle138"/>
	<circle cx="550.746" cy="480.356" r="4" fill="#0" id="circle139"/>
	<circle cx="554.02" cy="306.838" r="4" fill="#0" id="circle140"/>
	<circle cx="554.02" cy="323.208" r="4" fill="#0" id="circle141"/>
	<circle cx="565.479" cy="488.541" r="4" fill="#0" id="circle142"/>
	<circle cx="570.389" cy="328.119" r="4" fill="#0" id="circle143"/>
	<circle cx="580.211" cy="496.726" r="4" fill="#0" id="circle144"/>
	<circle cx="581.848" cy="341.215" r="4" fill="#0" id="circle145"/>
	<circle cx="586.759" cy="357.584" r="4" fill="#0" id="circle146"/>
	<circle cx="594.944" cy="372.317" r="4" fill="#0" id="circle147"/>
	<circle cx="596.581" cy="501.637" r="4" fill="#0" id="circle148"/>
	<circle cx="603.129" cy="387.05" r="4" fill="#0" id="circle149"/>
	<circle cx="611.314" cy="401.782" r="4" fill="#0" id="circle150"/>
	<circle cx="611.314" cy="509.822" r="4" fill="#0" id="circle151"/>
	<circle cx="622.772" cy="414.878" r="4" fill="#0" id="circle152"/>
	<circle cx="627.683" cy="508.185" r="4" fill="#0" id="circle153"/>
	<circle cx="639.142" cy="421.426" r="4" fill="#0" id="circle154"/>
	<circle cx="639.142" cy="521.281" r="4" fill="#0" id="circle155"/>
	<circle cx="655.512" cy="421.426" r="4" fill="#0" id="circle156"/>
	<circle cx="655.512" cy="519.644" r="4" fill="#0" id="circle157"/>
	<circle cx="671.881" cy="421.426" r="4" fill="#0" id="circle158"/>
	<circle cx="671.881" cy="519.644" r="4" fill="#0" id="circle159"/>
	<circle cx="686.614" cy="413.241" r="4" fill="#0" id="circle160"/>
	<circle cx="688.251" cy="519.644" r="4" fill="#0" id="circle161"/>
	<circle cx="702.983" cy="406.693" r="4" fill="#0" id="circle162"/>
	<circle cx="704.62" cy="519.644" r="4" fill="#0" id="circle163"/>
	<circle cx="719.353" cy="398.508" r="4" fill="#0" id="circle164"/>
	<circle cx="720.99" cy="519.644" r="4" fill="#0" id="circle165"/>
	<circle cx="735.723" cy="396.871" r="4" fill="#0" id="circle166"/>
	<circle cx="737.36" cy="519.644" r="4" fill="#0" id="circle167"/>
	<circle cx="750.455" cy="388.686" r="4" fill="#0" id="circle168"/>
	<circle cx="753.729" cy="519.644" r="4" fill="#0" id="circle169"/>
	<circle cx="766.825" cy="388.686" r="4" fill="#0" id="circle170"/>
	<circle cx="766.825" cy="504.911" r="4" fill="#0" id="circle171"/>
	<circle cx="783.195" cy="385.413" r="4" fill="#0" id="circle172"/>
	<circle cx="783.195" cy="504.911" r="4" fill="#0" id="circle173"/>
	<circle cx="797.927" cy="496.726" r="4" fill="#0" id="circle174"/>
	<circle cx="799.564" cy="388.686" r="4" fill="#0" id="circle175"/>
	<circle cx="814.297" cy="380.502" r="4" fill="#0" id="circle176"/>
	<circle cx="814.297" cy="496.726" r="4" fill="#0" id="circle177"/>
	<circle cx="829.03" cy="372.317" r="4" fill="#0" id="circle178"/>
	<circle cx="829.03" cy="488.541" r="4" fill="#0" id="circle179"/>
	<circle cx="840.488" cy="359.221" r="4" fill="#0" id="circle180"/>
	<circle cx="845.399" cy="485.267" r="4" fill="#0" id="circle181"/>
	<circle cx="853.584" cy="347.762" r="4" fill="#0" id="circle182"/>
	<circle cx="861.769" cy="477.083" r="4" fill="#0" id="circle183"/>
	<circle cx="868.317" cy="339.578" r="4" fill="#0" id="circle184"/>
	<circle cx="878.139" cy="468.898" r="4" fill="#0" id="circle185"/>
	<circle cx="884.686" cy="339.578" r="4" fill="#0" id="circle186"/>
	<circle cx="894.508" cy="463.987" r="4" fill="#0" id="circle187"/>
	<circle cx="901.056" cy="339.578" r="4" fill="#0" id="circle188"/>
	<circle cx="910.878" cy="463.987" r="4" fill="#0" id="circle189"/>
	<circle cx="915.789" cy="347.762" r="4" fill="#0" id="circle190"/>
	<circle cx="927.248" cy="460.713" r="4" fill="#0" id="circle191"/>
	<circle cx="928.884" cy="359.221" r="4" fill="#0" id="circle192"/>
	<circle cx="943.617" cy="367.406" r="4" fill="#0" id="circle193"/>
	<circle cx="943.617" cy="455.802" r="4" fill="#0" id="circle194"/>
	<circle cx="951.802" cy="382.139" r="4" fill="#0" id="circle195"/>
	<circle cx="959.987" cy="455.802" r="4" fill="#0" id="circle196"/>
	<circle cx="968.172" cy="388.686" r="4" fill="#0" id="circle197"/>
	<circle cx="976.356" cy="455.802" r="4" fill="#0" id="circle198"/>
	<circle cx="979.63" cy="401.782" r="4" fill="#0" id="circle199"/>
	<circle cx="987.815" cy="416.515" r="4" fill="#0" id="circle200"/>
	<circle cx="992.726" cy="452.528" r="4" fill="#0" id="circle201"/>
	<circle cx="996" cy="431.248" r="4" fill="#0" id="circle202"/>
	</g>
</svg>