<?xml version="1.0" encoding="UTF-8" standalone="no"?>
<!-- Created with CurveBenchmark -->
<svg
	xmlns:dc="http://purl.org/dc/elements/1.1/"
	xmlns:cc="http://creativecommons.org/ns#"
	xmlns:rdf="http://www.w3.org/1999/02/22-rdf-syntax-ns#"
	xmlns:svg="http://www.w3.org/2000/svg"
	xmlns="http://www.w3.org/2000/svg"
	xmlns:sodipodi="http://sodipodi.sourceforge.net/DTD/sodipodi-0.dtd"
	xmlns:inkscape="http://www.inkscape.org/namespaces/inkscape"
	width="1000"
	height="1000"
	id="svg2"
	version="1.1"
	sodipodi:docname="manifold/hnncrust-c12a.png.txt">
<defs
	id="defs4" />
<metadata
	id="metadata7">
	<rdf:RDF>
		<cc:Work
			rdf:about="">
			<dc:format>image/svg+xml</dc:format>
			<dc:type
				rdf:resource="http://purl.org/dc/dcmitype/StillImage" />
			<dc:title></dc:title>
		</cc:Work>
	</rdf:RDF>
</metadata>
<g
	inkscape:label="Layer 1"
	inkscape:groupmode="layer"
	id="layer1">
	<path style="fill:none;stroke:red;stroke-width:1px;stroke-linecap:butt;stroke-linejoin:miter;stroke-opacity:1" d="M 4,415.625 13.4626,428.242 z" id="boundary" inkscape:connector-curvature="0" />
	<path style="fill:none;stroke:red;stroke-width:1px;stroke-linecap:butt;stroke-linejoin:miter;stroke-opacity:1" d="M 4,415.625 19.7711,407.739 z" id="boundary" inkscape:connector-curvature="0" />
	<path style="fill:none;stroke:red;stroke-width:1px;stroke-linecap:butt;stroke-linejoin:miter;stroke-opacity:1" d="M 13.4626,428.242 29.2337,431.396 z" id="boundary" inkscape:connector-curvature="0" />
	<path style="fill:none;stroke:red;stroke-width:1px;stroke-linecap:butt;stroke-linejoin:miter;stroke-opacity:1" d="M 19.7711,407.739 32.3879,395.122 z" id="boundary" inkscape:connector-curvature="0" />
	<path style="fill:none;stroke:red;stroke-width:1px;stroke-linecap:butt;stroke-linejoin:miter;stroke-opacity:1" d="M 29.2337,431.396 45.0048,436.127 z" id="boundary" inkscape:connector-curvature="0" />
	<path style="fill:none;stroke:red;stroke-width:1px;stroke-linecap:butt;stroke-linejoin:miter;stroke-opacity:1" d="M 32.3879,395.122 48.159,387.237 z" id="boundary" inkscape:connector-curvature="0" />
	<path style="fill:none;stroke:red;stroke-width:1px;stroke-linecap:butt;stroke-linejoin:miter;stroke-opacity:1" d="M 45.0048,436.127 60.7758,436.127 z" id="boundary" inkscape:connector-curvature="0" />
	<path style="fill:none;stroke:red;stroke-width:1px;stroke-linecap:butt;stroke-linejoin:miter;stroke-opacity:1" d="M 48.159,387.237 63.93,379.351 z" id="boundary" inkscape:connector-curvature="0" />
	<path style="fill:none;stroke:red;stroke-width:1px;stroke-linecap:butt;stroke-linejoin:miter;stroke-opacity:1" d="M 60.7758,436.127 76.5469,436.127 z" id="boundary" inkscape:connector-curvature="0" />
	<path style="fill:none;stroke:red;stroke-width:1px;stroke-linecap:butt;stroke-linejoin:miter;stroke-opacity:1" d="M 63.93,379.351 79.7011,379.351 z" id="boundary" inkscape:connector-curvature="0" />
	<path style="fill:none;stroke:red;stroke-width:1px;stroke-linecap:butt;stroke-linejoin:miter;stroke-opacity:1" d="M 76.5469,436.127 92.318,439.281 z" id="boundary" inkscape:connector-curvature="0" />
	<path style="fill:none;stroke:red;stroke-width:1px;stroke-linecap:butt;stroke-linejoin:miter;stroke-opacity:1" d="M 79.7011,379.351 95.4722,371.466 z" id="boundary" inkscape:connector-curvature="0" />
	<path style="fill:none;stroke:red;stroke-width:1px;stroke-linecap:butt;stroke-linejoin:miter;stroke-opacity:1" d="M 92.318,439.281 108.089,444.013 z" id="boundary" inkscape:connector-curvature="0" />
	<path style="fill:none;stroke:red;stroke-width:1px;stroke-linecap:butt;stroke-linejoin:miter;stroke-opacity:1" d="M 95.4722,371.466 111.243,371.466 z" id="boundary" inkscape:connector-curvature="0" />
	<path style="fill:none;stroke:red;stroke-width:1px;stroke-linecap:butt;stroke-linejoin:miter;stroke-opacity:1" d="M 108.089,444.013 123.86,444.013 z" id="boundary" inkscape:connector-curvature="0" />
	<path style="fill:none;stroke:red;stroke-width:1px;stroke-linecap:butt;stroke-linejoin:miter;stroke-opacity:1" d="M 111.243,371.466 127.014,363.58 z" id="boundary" inkscape:connector-curvature="0" />
	<path style="fill:none;stroke:red;stroke-width:1px;stroke-linecap:butt;stroke-linejoin:miter;stroke-opacity:1" d="M 123.86,444.013 139.631,444.013 z" id="boundary" inkscape:connector-curvature="0" />
	<path style="fill:none;stroke:red;stroke-width:1px;stroke-linecap:butt;stroke-linejoin:miter;stroke-opacity:1" d="M 127.014,363.58 142.785,363.58 z" id="boundary" inkscape:connector-curvature="0" />
	<path style="fill:none;stroke:red;stroke-width:1px;stroke-linecap:butt;stroke-linejoin:miter;stroke-opacity:1" d="M 139.631,444.013 155.402,444.013 z" id="boundary" inkscape:connector-curvature="0" />
	<path style="fill:none;stroke:red;stroke-width:1px;stroke-linecap:butt;stroke-linejoin:miter;stroke-opacity:1" d="M 142.785,363.58 158.556,363.58 z" id="boundary" inkscape:connector-curvature="0" />
	<path style="fill:none;stroke:red;stroke-width:1px;stroke-linecap:butt;stroke-linejoin:miter;stroke-opacity:1" d="M 155.402,444.013 171.173,444.013 z" id="boundary" inkscape:connector-curvature="0" />
	<path style="fill:none;stroke:red;stroke-width:1px;stroke-linecap:butt;stroke-linejoin:miter;stroke-opacity:1" d="M 158.556,363.58 174.328,363.58 z" id="boundary" inkscape:connector-curvature="0" />
	<path style="fill:none;stroke:red;stroke-width:1px;stroke-linecap:butt;stroke-linejoin:miter;stroke-opacity:1" d="M 171.173,444.013 186.944,444.013 z" id="boundary" inkscape:connector-curvature="0" />
	<path style="fill:none;stroke:red;stroke-width:1px;stroke-linecap:butt;stroke-linejoin:miter;stroke-opacity:1" d="M 174.328,363.58 190.099,363.58 z" id="boundary" inkscape:connector-curvature="0" />
	<path style="fill:none;stroke:red;stroke-width:1px;stroke-linecap:butt;stroke-linejoin:miter;stroke-opacity:1" d="M 186.944,444.013 202.715,444.013 z" id="boundary" inkscape:connector-curvature="0" />
	<path style="fill:none;stroke:red;stroke-width:1px;stroke-linecap:butt;stroke-linejoin:miter;stroke-opacity:1" d="M 190.099,363.58 205.87,363.58 z" id="boundary" inkscape:connector-curvature="0" />
	<path style="fill:none;stroke:red;stroke-width:1px;stroke-linecap:butt;stroke-linejoin:miter;stroke-opacity:1" d="M 202.715,444.013 218.486,444.013 z" id="boundary" inkscape:connector-curvature="0" />
	<path style="fill:none;stroke:red;stroke-width:1px;stroke-linecap:butt;stroke-linejoin:miter;stroke-opacity:1" d="M 205.87,363.58 221.641,355.695 z" id="boundary" inkscape:connector-curvature="0" />
	<path style="fill:none;stroke:red;stroke-width:1px;stroke-linecap:butt;stroke-linejoin:miter;stroke-opacity:1" d="M 218.486,444.013 234.258,444.013 z" id="boundary" inkscape:connector-curvature="0" />
	<path style="fill:none;stroke:red;stroke-width:1px;stroke-linecap:butt;stroke-linejoin:miter;stroke-opacity:1" d="M 221.641,355.695 237.412,347.809 z" id="boundary" inkscape:connector-curvature="0" />
	<path style="fill:none;stroke:red;stroke-width:1px;stroke-linecap:butt;stroke-linejoin:miter;stroke-opacity:1" d="M 234.258,444.013 248.452,451.898 z" id="boundary" inkscape:connector-curvature="0" />
	<path style="fill:none;stroke:red;stroke-width:1px;stroke-linecap:butt;stroke-linejoin:miter;stroke-opacity:1" d="M 237.412,347.809 248.452,328.884 z" id="boundary" inkscape:connector-curvature="0" />
	<path style="fill:none;stroke:red;stroke-width:1px;stroke-linecap:butt;stroke-linejoin:miter;stroke-opacity:1" d="M 248.452,313.113 248.452,328.884 z" id="boundary" inkscape:connector-curvature="0" />
	<path style="fill:none;stroke:red;stroke-width:1px;stroke-linecap:butt;stroke-linejoin:miter;stroke-opacity:1" d="M 248.452,313.113 261.068,300.496 z" id="boundary" inkscape:connector-curvature="0" />
	<path style="fill:none;stroke:red;stroke-width:1px;stroke-linecap:butt;stroke-linejoin:miter;stroke-opacity:1" d="M 248.452,451.898 257.914,464.515 z" id="boundary" inkscape:connector-curvature="0" />
	<path style="fill:none;stroke:red;stroke-width:1px;stroke-linecap:butt;stroke-linejoin:miter;stroke-opacity:1" d="M 257.914,464.515 270.531,475.555 z" id="boundary" inkscape:connector-curvature="0" />
	<path style="fill:none;stroke:red;stroke-width:1px;stroke-linecap:butt;stroke-linejoin:miter;stroke-opacity:1" d="M 261.068,300.496 276.839,300.496 z" id="boundary" inkscape:connector-curvature="0" />
	<path style="fill:none;stroke:red;stroke-width:1px;stroke-linecap:butt;stroke-linejoin:miter;stroke-opacity:1" d="M 270.531,475.555 284.725,483.44 z" id="boundary" inkscape:connector-curvature="0" />
	<path style="fill:none;stroke:red;stroke-width:1px;stroke-linecap:butt;stroke-linejoin:miter;stroke-opacity:1" d="M 276.839,300.496 292.61,300.496 z" id="boundary" inkscape:connector-curvature="0" />
	<path style="fill:none;stroke:red;stroke-width:1px;stroke-linecap:butt;stroke-linejoin:miter;stroke-opacity:1" d="M 284.725,483.44 297.342,494.48 z" id="boundary" inkscape:connector-curvature="0" />
	<path style="fill:none;stroke:red;stroke-width:1px;stroke-linecap:butt;stroke-linejoin:miter;stroke-opacity:1" d="M 292.61,300.496 308.382,300.496 z" id="boundary" inkscape:connector-curvature="0" />
	<path style="fill:none;stroke:red;stroke-width:1px;stroke-linecap:butt;stroke-linejoin:miter;stroke-opacity:1" d="M 297.342,494.48 311.536,502.366 z" id="boundary" inkscape:connector-curvature="0" />
	<path style="fill:none;stroke:red;stroke-width:1px;stroke-linecap:butt;stroke-linejoin:miter;stroke-opacity:1" d="M 308.382,300.496 322.576,292.61 z" id="boundary" inkscape:connector-curvature="0" />
	<path style="fill:none;stroke:red;stroke-width:1px;stroke-linecap:butt;stroke-linejoin:miter;stroke-opacity:1" d="M 311.536,502.366 327.307,507.097 z" id="boundary" inkscape:connector-curvature="0" />
	<path style="fill:none;stroke:red;stroke-width:1px;stroke-linecap:butt;stroke-linejoin:miter;stroke-opacity:1" d="M 322.576,292.61 338.347,292.61 z" id="boundary" inkscape:connector-curvature="0" />
	<path style="fill:none;stroke:red;stroke-width:1px;stroke-linecap:butt;stroke-linejoin:miter;stroke-opacity:1" d="M 327.307,507.097 343.078,507.097 z" id="boundary" inkscape:connector-curvature="0" />
	<path style="fill:none;stroke:red;stroke-width:1px;stroke-linecap:butt;stroke-linejoin:miter;stroke-opacity:1" d="M 338.347,292.61 354.118,292.61 z" id="boundary" inkscape:connector-curvature="0" />
	<path style="fill:none;stroke:red;stroke-width:1px;stroke-linecap:butt;stroke-linejoin:miter;stroke-opacity:1" d="M 343.078,507.097 358.849,507.097 z" id="boundary" inkscape:connector-curvature="0" />
	<path style="fill:none;stroke:red;stroke-width:1px;stroke-linecap:butt;stroke-linejoin:miter;stroke-opacity:1" d="M 354.118,292.61 368.312,284.725 z" id="boundary" inkscape:connector-curvature="0" />
	<path style="fill:none;stroke:red;stroke-width:1px;stroke-linecap:butt;stroke-linejoin:miter;stroke-opacity:1" d="M 358.849,507.097 374.62,507.097 z" id="boundary" inkscape:connector-curvature="0" />
	<path style="fill:none;stroke:red;stroke-width:1px;stroke-linecap:butt;stroke-linejoin:miter;stroke-opacity:1" d="M 368.312,284.725 384.083,284.725 z" id="boundary" inkscape:connector-curvature="0" />
	<path style="fill:none;stroke:red;stroke-width:1px;stroke-linecap:butt;stroke-linejoin:miter;stroke-opacity:1" d="M 374.62,507.097 390.391,507.097 z" id="boundary" inkscape:connector-curvature="0" />
	<path style="fill:none;stroke:red;stroke-width:1px;stroke-linecap:butt;stroke-linejoin:miter;stroke-opacity:1" d="M 384.083,284.725 398.277,273.685 z" id="boundary" inkscape:connector-curvature="0" />
	<path style="fill:none;stroke:red;stroke-width:1px;stroke-linecap:butt;stroke-linejoin:miter;stroke-opacity:1" d="M 390.391,507.097 406.162,507.097 z" id="boundary" inkscape:connector-curvature="0" />
	<path style="fill:none;stroke:red;stroke-width:1px;stroke-linecap:butt;stroke-linejoin:miter;stroke-opacity:1" d="M 398.277,273.685 410.893,261.068 z" id="boundary" inkscape:connector-curvature="0" />
	<path style="fill:none;stroke:red;stroke-width:1px;stroke-linecap:butt;stroke-linejoin:miter;stroke-opacity:1" d="M 406.162,507.097 421.933,507.097 z" id="boundary" inkscape:connector-curvature="0" />
	<path style="fill:none;stroke:red;stroke-width:1px;stroke-linecap:butt;stroke-linejoin:miter;stroke-opacity:1" d="M 410.893,261.068 423.51,248.452 z" id="boundary" inkscape:connector-curvature="0" />
	<path style="fill:none;stroke:red;stroke-width:1px;stroke-linecap:butt;stroke-linejoin:miter;stroke-opacity:1" d="M 421.933,507.097 437.704,507.097 z" id="boundary" inkscape:connector-curvature="0" />
	<path style="fill:none;stroke:red;stroke-width:1px;stroke-linecap:butt;stroke-linejoin:miter;stroke-opacity:1" d="M 423.51,248.452 431.396,232.68 z" id="boundary" inkscape:connector-curvature="0" />
	<path style="fill:none;stroke:red;stroke-width:1px;stroke-linecap:butt;stroke-linejoin:miter;stroke-opacity:1" d="M 431.396,232.68 445.59,218.486 z" id="boundary" inkscape:connector-curvature="0" />
	<path style="fill:none;stroke:red;stroke-width:1px;stroke-linecap:butt;stroke-linejoin:miter;stroke-opacity:1" d="M 437.704,507.097 447.167,519.714 z" id="boundary" inkscape:connector-curvature="0" />
	<path style="fill:none;stroke:red;stroke-width:1px;stroke-linecap:butt;stroke-linejoin:miter;stroke-opacity:1" d="M 445.59,202.715 445.59,218.486 z" id="boundary" inkscape:connector-curvature="0" />
	<path style="fill:none;stroke:red;stroke-width:1px;stroke-linecap:butt;stroke-linejoin:miter;stroke-opacity:1" d="M 445.59,202.715 458.207,190.099 z" id="boundary" inkscape:connector-curvature="0" />
	<path style="fill:none;stroke:red;stroke-width:1px;stroke-linecap:butt;stroke-linejoin:miter;stroke-opacity:1" d="M 447.167,519.714 459.784,530.754 z" id="boundary" inkscape:connector-curvature="0" />
	<path style="fill:none;stroke:red;stroke-width:1px;stroke-linecap:butt;stroke-linejoin:miter;stroke-opacity:1" d="M 458.207,190.099 466.092,174.328 z" id="boundary" inkscape:connector-curvature="0" />
	<path style="fill:none;stroke:red;stroke-width:1px;stroke-linecap:butt;stroke-linejoin:miter;stroke-opacity:1" d="M 459.784,530.754 470.824,543.37 z" id="boundary" inkscape:connector-curvature="0" />
	<path style="fill:none;stroke:red;stroke-width:1px;stroke-linecap:butt;stroke-linejoin:miter;stroke-opacity:1" d="M 466.092,174.328 478.709,161.711 z" id="boundary" inkscape:connector-curvature="0" />
	<path style="fill:none;stroke:red;stroke-width:1px;stroke-linecap:butt;stroke-linejoin:miter;stroke-opacity:1" d="M 470.824,543.37 486.595,549.679 z" id="boundary" inkscape:connector-curvature="0" />
	<path style="fill:none;stroke:red;stroke-width:1px;stroke-linecap:butt;stroke-linejoin:miter;stroke-opacity:1" d="M 478.709,161.711 491.326,150.671 z" id="boundary" inkscape:connector-curvature="0" />
	<path style="fill:none;stroke:red;stroke-width:1px;stroke-linecap:butt;stroke-linejoin:miter;stroke-opacity:1" d="M 486.595,549.679 497.634,562.296 z" id="boundary" inkscape:connector-curvature="0" />
	<path style="fill:none;stroke:red;stroke-width:1px;stroke-linecap:butt;stroke-linejoin:miter;stroke-opacity:1" d="M 491.326,150.671 497.634,134.9 z" id="boundary" inkscape:connector-curvature="0" />
	<path style="fill:none;stroke:red;stroke-width:1px;stroke-linecap:butt;stroke-linejoin:miter;stroke-opacity:1" d="M 497.634,134.9 505.52,119.129 z" id="boundary" inkscape:connector-curvature="0" />
	<path style="fill:none;stroke:red;stroke-width:1px;stroke-linecap:butt;stroke-linejoin:miter;stroke-opacity:1" d="M 497.634,562.296 511.828,570.181 z" id="boundary" inkscape:connector-curvature="0" />
	<path style="fill:none;stroke:red;stroke-width:1px;stroke-linecap:butt;stroke-linejoin:miter;stroke-opacity:1" d="M 505.52,119.129 516.56,100.203 z" id="boundary" inkscape:connector-curvature="0" />
	<path style="fill:none;stroke:red;stroke-width:1px;stroke-linecap:butt;stroke-linejoin:miter;stroke-opacity:1" d="M 511.828,570.181 519.714,584.375 z" id="boundary" inkscape:connector-curvature="0" />
	<path style="fill:none;stroke:red;stroke-width:1px;stroke-linecap:butt;stroke-linejoin:miter;stroke-opacity:1" d="M 516.56,100.203 524.445,84.4324 z" id="boundary" inkscape:connector-curvature="0" />
	<path style="fill:none;stroke:red;stroke-width:1px;stroke-linecap:butt;stroke-linejoin:miter;stroke-opacity:1" d="M 519.714,584.375 532.331,593.838 z" id="boundary" inkscape:connector-curvature="0" />
	<path style="fill:none;stroke:red;stroke-width:1px;stroke-linecap:butt;stroke-linejoin:miter;stroke-opacity:1" d="M 524.445,84.4324 537.062,71.8156 z" id="boundary" inkscape:connector-curvature="0" />
	<path style="fill:none;stroke:red;stroke-width:1px;stroke-linecap:butt;stroke-linejoin:miter;stroke-opacity:1" d="M 532.331,593.838 541.793,606.455 z" id="boundary" inkscape:connector-curvature="0" />
	<path style="fill:none;stroke:red;stroke-width:1px;stroke-linecap:butt;stroke-linejoin:miter;stroke-opacity:1" d="M 537.062,71.8156 544.948,56.0445 z" id="boundary" inkscape:connector-curvature="0" />
	<path style="fill:none;stroke:red;stroke-width:1px;stroke-linecap:butt;stroke-linejoin:miter;stroke-opacity:1" d="M 541.793,606.455 554.41,617.494 z" id="boundary" inkscape:connector-curvature="0" />
	<path style="fill:none;stroke:red;stroke-width:1px;stroke-linecap:butt;stroke-linejoin:miter;stroke-opacity:1" d="M 544.948,56.0445 555.987,37.1192 z" id="boundary" inkscape:connector-curvature="0" />
	<path style="fill:none;stroke:red;stroke-width:1px;stroke-linecap:butt;stroke-linejoin:miter;stroke-opacity:1" d="M 554.41,617.494 565.45,630.111 z" id="boundary" inkscape:connector-curvature="0" />
	<path style="fill:none;stroke:red;stroke-width:1px;stroke-linecap:butt;stroke-linejoin:miter;stroke-opacity:1" d="M 555.987,37.1192 568.604,24.5024 z" id="boundary" inkscape:connector-curvature="0" />
	<path style="fill:none;stroke:red;stroke-width:1px;stroke-linecap:butt;stroke-linejoin:miter;stroke-opacity:1" d="M 565.45,630.111 578.067,641.151 z" id="boundary" inkscape:connector-curvature="0" />
	<path style="fill:none;stroke:red;stroke-width:1px;stroke-linecap:butt;stroke-linejoin:miter;stroke-opacity:1" d="M 568.604,24.5024 582.798,16.6169 z" id="boundary" inkscape:connector-curvature="0" />
	<path style="fill:none;stroke:red;stroke-width:1px;stroke-linecap:butt;stroke-linejoin:miter;stroke-opacity:1" d="M 578.067,641.151 589.107,653.768 z" id="boundary" inkscape:connector-curvature="0" />
	<path style="fill:none;stroke:red;stroke-width:1px;stroke-linecap:butt;stroke-linejoin:miter;stroke-opacity:1" d="M 582.798,16.6169 596.992,8.73132 z" id="boundary" inkscape:connector-curvature="0" />
	<path style="fill:none;stroke:red;stroke-width:1px;stroke-linecap:butt;stroke-linejoin:miter;stroke-opacity:1" d="M 589.107,653.768 604.878,660.076 z" id="boundary" inkscape:connector-curvature="0" />
	<path style="fill:none;stroke:red;stroke-width:1px;stroke-linecap:butt;stroke-linejoin:miter;stroke-opacity:1" d="M 596.992,8.73132 612.763,8.73132 z" id="boundary" inkscape:connector-curvature="0" />
	<path style="fill:none;stroke:red;stroke-width:1px;stroke-linecap:butt;stroke-linejoin:miter;stroke-opacity:1" d="M 604.878,660.076 615.917,672.693 z" id="boundary" inkscape:connector-curvature="0" />
	<path style="fill:none;stroke:red;stroke-width:1px;stroke-linecap:butt;stroke-linejoin:miter;stroke-opacity:1" d="M 612.763,8.73132 628.534,4 z" id="boundary" inkscape:connector-curvature="0" />
	<path style="fill:none;stroke:red;stroke-width:1px;stroke-linecap:butt;stroke-linejoin:miter;stroke-opacity:1" d="M 615.917,672.693 628.534,683.733 z" id="boundary" inkscape:connector-curvature="0" />
	<path style="fill:none;stroke:red;stroke-width:1px;stroke-linecap:butt;stroke-linejoin:miter;stroke-opacity:1" d="M 628.534,4 644.305,5.57711 z" id="boundary" inkscape:connector-curvature="0" />
	<path style="fill:none;stroke:red;stroke-width:1px;stroke-linecap:butt;stroke-linejoin:miter;stroke-opacity:1" d="M 628.534,683.733 639.574,696.35 z" id="boundary" inkscape:connector-curvature="0" />
	<path style="fill:none;stroke:red;stroke-width:1px;stroke-linecap:butt;stroke-linejoin:miter;stroke-opacity:1" d="M 639.574,696.35 652.191,707.39 z" id="boundary" inkscape:connector-curvature="0" />
	<path style="fill:none;stroke:red;stroke-width:1px;stroke-linecap:butt;stroke-linejoin:miter;stroke-opacity:1" d="M 644.305,5.57711 652.191,19.7711 z" id="boundary" inkscape:connector-curvature="0" />
	<path style="fill:none;stroke:red;stroke-width:1px;stroke-linecap:butt;stroke-linejoin:miter;stroke-opacity:1" d="M 652.191,19.7711 666.385,27.6566 z" id="boundary" inkscape:connector-curvature="0" />
	<path style="fill:none;stroke:red;stroke-width:1px;stroke-linecap:butt;stroke-linejoin:miter;stroke-opacity:1" d="M 652.191,707.39 663.231,720.006 z" id="boundary" inkscape:connector-curvature="0" />
	<path style="fill:none;stroke:red;stroke-width:1px;stroke-linecap:butt;stroke-linejoin:miter;stroke-opacity:1" d="M 663.231,720.006 675.847,731.046 z" id="boundary" inkscape:connector-curvature="0" />
	<path style="fill:none;stroke:red;stroke-width:1px;stroke-linecap:butt;stroke-linejoin:miter;stroke-opacity:1" d="M 666.385,27.6566 680.579,35.5421 z" id="boundary" inkscape:connector-curvature="0" />
	<path style="fill:none;stroke:red;stroke-width:1px;stroke-linecap:butt;stroke-linejoin:miter;stroke-opacity:1" d="M 675.847,731.046 691.618,735.777 z" id="boundary" inkscape:connector-curvature="0" />
	<path style="fill:none;stroke:red;stroke-width:1px;stroke-linecap:butt;stroke-linejoin:miter;stroke-opacity:1" d="M 680.579,35.5421 691.618,48.159 z" id="boundary" inkscape:connector-curvature="0" />
	<path style="fill:none;stroke:red;stroke-width:1px;stroke-linecap:butt;stroke-linejoin:miter;stroke-opacity:1" d="M 691.618,48.159 699.504,62.3529 z" id="boundary" inkscape:connector-curvature="0" />
	<path style="fill:none;stroke:red;stroke-width:1px;stroke-linecap:butt;stroke-linejoin:miter;stroke-opacity:1" d="M 691.618,735.777 707.39,735.777 z" id="boundary" inkscape:connector-curvature="0" />
	<path style="fill:none;stroke:red;stroke-width:1px;stroke-linecap:butt;stroke-linejoin:miter;stroke-opacity:1" d="M 699.504,62.3529 707.39,76.5469 z" id="boundary" inkscape:connector-curvature="0" />
	<path style="fill:none;stroke:red;stroke-width:1px;stroke-linecap:butt;stroke-linejoin:miter;stroke-opacity:1" d="M 707.39,76.5469 715.275,90.7409 z" id="boundary" inkscape:connector-curvature="0" />
	<path style="fill:none;stroke:red;stroke-width:1px;stroke-linecap:butt;stroke-linejoin:miter;stroke-opacity:1" d="M 707.39,735.777 723.161,735.777 z" id="boundary" inkscape:connector-curvature="0" />
	<path style="fill:none;stroke:red;stroke-width:1px;stroke-linecap:butt;stroke-linejoin:miter;stroke-opacity:1" d="M 715.275,90.7409 723.161,104.935 z" id="boundary" inkscape:connector-curvature="0" />
	<path style="fill:none;stroke:red;stroke-width:1px;stroke-linecap:butt;stroke-linejoin:miter;stroke-opacity:1" d="M 723.161,104.935 723.161,120.706 z" id="boundary" inkscape:connector-curvature="0" />
	<path style="fill:none;stroke:red;stroke-width:1px;stroke-linecap:butt;stroke-linejoin:miter;stroke-opacity:1" d="M 723.161,120.706 731.046,134.9 z" id="boundary" inkscape:connector-curvature="0" />
	<path style="fill:none;stroke:red;stroke-width:1px;stroke-linecap:butt;stroke-linejoin:miter;stroke-opacity:1" d="M 723.161,735.777 738.932,735.777 z" id="boundary" inkscape:connector-curvature="0" />
	<path style="fill:none;stroke:red;stroke-width:1px;stroke-linecap:butt;stroke-linejoin:miter;stroke-opacity:1" d="M 731.046,134.9 731.046,150.671 z" id="boundary" inkscape:connector-curvature="0" />
	<path style="fill:none;stroke:red;stroke-width:1px;stroke-linecap:butt;stroke-linejoin:miter;stroke-opacity:1" d="M 731.046,150.671 743.663,160.134 z" id="boundary" inkscape:connector-curvature="0" />
	<path style="fill:none;stroke:red;stroke-width:1px;stroke-linecap:butt;stroke-linejoin:miter;stroke-opacity:1" d="M 738.932,735.777 754.703,727.892 z" id="boundary" inkscape:connector-curvature="0" />
	<path style="fill:none;stroke:red;stroke-width:1px;stroke-linecap:butt;stroke-linejoin:miter;stroke-opacity:1" d="M 743.663,160.134 749.971,175.905 z" id="boundary" inkscape:connector-curvature="0" />
	<path style="fill:none;stroke:red;stroke-width:1px;stroke-linecap:butt;stroke-linejoin:miter;stroke-opacity:1" d="M 749.971,175.905 762.588,186.944 z" id="boundary" inkscape:connector-curvature="0" />
	<path style="fill:none;stroke:red;stroke-width:1px;stroke-linecap:butt;stroke-linejoin:miter;stroke-opacity:1" d="M 754.703,727.892 762.588,712.121 z" id="boundary" inkscape:connector-curvature="0" />
	<path style="fill:none;stroke:red;stroke-width:1px;stroke-linecap:butt;stroke-linejoin:miter;stroke-opacity:1" d="M 762.588,186.944 762.588,202.715 z" id="boundary" inkscape:connector-curvature="0" />
	<path style="fill:none;stroke:red;stroke-width:1px;stroke-linecap:butt;stroke-linejoin:miter;stroke-opacity:1" d="M 762.588,202.715 770.474,216.909 z" id="boundary" inkscape:connector-curvature="0" />
	<path style="fill:none;stroke:red;stroke-width:1px;stroke-linecap:butt;stroke-linejoin:miter;stroke-opacity:1" d="M 762.588,712.121 778.359,704.235 z" id="boundary" inkscape:connector-curvature="0" />
	<path style="fill:none;stroke:red;stroke-width:1px;stroke-linecap:butt;stroke-linejoin:miter;stroke-opacity:1" d="M 770.474,216.909 779.936,229.526 z" id="boundary" inkscape:connector-curvature="0" />
	<path style="fill:none;stroke:red;stroke-width:1px;stroke-linecap:butt;stroke-linejoin:miter;stroke-opacity:1" d="M 778.359,704.235 786.245,688.464 z" id="boundary" inkscape:connector-curvature="0" />
	<path style="fill:none;stroke:red;stroke-width:1px;stroke-linecap:butt;stroke-linejoin:miter;stroke-opacity:1" d="M 784.668,202.715 792.553,186.944 z" id="boundary" inkscape:connector-curvature="0" />
	<path style="fill:none;stroke:red;stroke-width:1px;stroke-linecap:butt;stroke-linejoin:miter;stroke-opacity:1" d="M 786.245,641.151 786.245,656.922 z" id="boundary" inkscape:connector-curvature="0" />
	<path style="fill:none;stroke:red;stroke-width:1px;stroke-linecap:butt;stroke-linejoin:miter;stroke-opacity:1" d="M 786.245,641.151 794.13,617.494 z" id="boundary" inkscape:connector-curvature="0" />
	<path style="fill:none;stroke:red;stroke-width:1px;stroke-linecap:butt;stroke-linejoin:miter;stroke-opacity:1" d="M 786.245,656.922 786.245,672.693 z" id="boundary" inkscape:connector-curvature="0" />
	<path style="fill:none;stroke:red;stroke-width:1px;stroke-linecap:butt;stroke-linejoin:miter;stroke-opacity:1" d="M 786.245,672.693 786.245,688.464 z" id="boundary" inkscape:connector-curvature="0" />
	<path style="fill:none;stroke:red;stroke-width:1px;stroke-linecap:butt;stroke-linejoin:miter;stroke-opacity:1" d="M 792.553,186.944 805.17,174.328 z" id="boundary" inkscape:connector-curvature="0" />
	<path style="fill:none;stroke:red;stroke-width:1px;stroke-linecap:butt;stroke-linejoin:miter;stroke-opacity:1" d="M 794.13,601.723 794.13,617.494 z" id="boundary" inkscape:connector-curvature="0" />
	<path style="fill:none;stroke:red;stroke-width:1px;stroke-linecap:butt;stroke-linejoin:miter;stroke-opacity:1" d="M 794.13,601.723 802.016,578.067 z" id="boundary" inkscape:connector-curvature="0" />
	<path style="fill:none;stroke:red;stroke-width:1px;stroke-linecap:butt;stroke-linejoin:miter;stroke-opacity:1" d="M 802.016,562.296 802.016,578.067 z" id="boundary" inkscape:connector-curvature="0" />
	<path style="fill:none;stroke:red;stroke-width:1px;stroke-linecap:butt;stroke-linejoin:miter;stroke-opacity:1" d="M 802.016,562.296 809.901,538.639 z" id="boundary" inkscape:connector-curvature="0" />
	<path style="fill:none;stroke:red;stroke-width:1px;stroke-linecap:butt;stroke-linejoin:miter;stroke-opacity:1" d="M 805.17,174.328 817.787,161.711 z" id="boundary" inkscape:connector-curvature="0" />
	<path style="fill:none;stroke:red;stroke-width:1px;stroke-linecap:butt;stroke-linejoin:miter;stroke-opacity:1" d="M 809.901,522.868 809.901,538.639 z" id="boundary" inkscape:connector-curvature="0" />
	<path style="fill:none;stroke:red;stroke-width:1px;stroke-linecap:butt;stroke-linejoin:miter;stroke-opacity:1" d="M 809.901,522.868 825.672,526.022 z" id="boundary" inkscape:connector-curvature="0" />
	<path style="fill:none;stroke:red;stroke-width:1px;stroke-linecap:butt;stroke-linejoin:miter;stroke-opacity:1" d="M 817.787,161.711 830.404,150.671 z" id="boundary" inkscape:connector-curvature="0" />
	<path style="fill:none;stroke:red;stroke-width:1px;stroke-linecap:butt;stroke-linejoin:miter;stroke-opacity:1" d="M 825.672,526.022 836.712,538.639 z" id="boundary" inkscape:connector-curvature="0" />
	<path style="fill:none;stroke:red;stroke-width:1px;stroke-linecap:butt;stroke-linejoin:miter;stroke-opacity:1" d="M 830.404,150.671 839.866,131.746 z" id="boundary" inkscape:connector-curvature="0" />
	<path style="fill:none;stroke:red;stroke-width:1px;stroke-linecap:butt;stroke-linejoin:miter;stroke-opacity:1" d="M 836.712,538.639 849.329,549.679 z" id="boundary" inkscape:connector-curvature="0" />
	<path style="fill:none;stroke:red;stroke-width:1px;stroke-linecap:butt;stroke-linejoin:miter;stroke-opacity:1" d="M 839.866,131.746 852.483,119.129 z" id="boundary" inkscape:connector-curvature="0" />
	<path style="fill:none;stroke:red;stroke-width:1px;stroke-linecap:butt;stroke-linejoin:miter;stroke-opacity:1" d="M 849.329,317.844 857.215,332.038 z" id="boundary" inkscape:connector-curvature="0" />
	<path style="fill:none;stroke:red;stroke-width:1px;stroke-linecap:butt;stroke-linejoin:miter;stroke-opacity:1" d="M 849.329,317.844 865.1,309.959 z" id="boundary" inkscape:connector-curvature="0" />
	<path style="fill:none;stroke:red;stroke-width:1px;stroke-linecap:butt;stroke-linejoin:miter;stroke-opacity:1" d="M 849.329,357.272 857.215,332.038 z" id="boundary" inkscape:connector-curvature="0" />
	<path style="fill:none;stroke:red;stroke-width:1px;stroke-linecap:butt;stroke-linejoin:miter;stroke-opacity:1" d="M 849.329,357.272 865.1,363.58 z" id="boundary" inkscape:connector-curvature="0" />
	<path style="fill:none;stroke:red;stroke-width:1px;stroke-linecap:butt;stroke-linejoin:miter;stroke-opacity:1" d="M 849.329,549.679 855.638,565.45 z" id="boundary" inkscape:connector-curvature="0" />
	<path style="fill:none;stroke:red;stroke-width:1px;stroke-linecap:butt;stroke-linejoin:miter;stroke-opacity:1" d="M 852.483,119.129 868.254,119.129 z" id="boundary" inkscape:connector-curvature="0" />
	<path style="fill:none;stroke:red;stroke-width:1px;stroke-linecap:butt;stroke-linejoin:miter;stroke-opacity:1" d="M 855.638,565.45 871.409,570.181 z" id="boundary" inkscape:connector-curvature="0" />
	<path style="fill:none;stroke:red;stroke-width:1px;stroke-linecap:butt;stroke-linejoin:miter;stroke-opacity:1" d="M 857.215,388.814 857.215,412.471 z" id="boundary" inkscape:connector-curvature="0" />
	<path style="fill:none;stroke:red;stroke-width:1px;stroke-linecap:butt;stroke-linejoin:miter;stroke-opacity:1" d="M 857.215,388.814 872.986,388.814 z" id="boundary" inkscape:connector-curvature="0" />
	<path style="fill:none;stroke:red;stroke-width:1px;stroke-linecap:butt;stroke-linejoin:miter;stroke-opacity:1" d="M 857.215,412.471 857.215,428.242 z" id="boundary" inkscape:connector-curvature="0" />
	<path style="fill:none;stroke:red;stroke-width:1px;stroke-linecap:butt;stroke-linejoin:miter;stroke-opacity:1" d="M 857.215,428.242 872.986,434.55 z" id="boundary" inkscape:connector-curvature="0" />
	<path style="fill:none;stroke:red;stroke-width:1px;stroke-linecap:butt;stroke-linejoin:miter;stroke-opacity:1" d="M 865.1,309.959 880.871,309.959 z" id="boundary" inkscape:connector-curvature="0" />
	<path style="fill:none;stroke:red;stroke-width:1px;stroke-linecap:butt;stroke-linejoin:miter;stroke-opacity:1" d="M 865.1,363.58 880.871,363.58 z" id="boundary" inkscape:connector-curvature="0" />
	<path style="fill:none;stroke:red;stroke-width:1px;stroke-linecap:butt;stroke-linejoin:miter;stroke-opacity:1" d="M 868.254,119.129 884.025,119.129 z" id="boundary" inkscape:connector-curvature="0" />
	<path style="fill:none;stroke:red;stroke-width:1px;stroke-linecap:butt;stroke-linejoin:miter;stroke-opacity:1" d="M 871.409,570.181 880.871,582.798 z" id="boundary" inkscape:connector-curvature="0" />
	<path style="fill:none;stroke:red;stroke-width:1px;stroke-linecap:butt;stroke-linejoin:miter;stroke-opacity:1" d="M 872.986,388.814 887.18,380.928 z" id="boundary" inkscape:connector-curvature="0" />
	<path style="fill:none;stroke:red;stroke-width:1px;stroke-linecap:butt;stroke-linejoin:miter;stroke-opacity:1" d="M 872.986,434.55 888.757,434.55 z" id="boundary" inkscape:connector-curvature="0" />
	<path style="fill:none;stroke:red;stroke-width:1px;stroke-linecap:butt;stroke-linejoin:miter;stroke-opacity:1" d="M 880.871,309.959 896.642,302.073 z" id="boundary" inkscape:connector-curvature="0" />
	<path style="fill:none;stroke:red;stroke-width:1px;stroke-linecap:butt;stroke-linejoin:miter;stroke-opacity:1" d="M 880.871,363.58 896.642,363.58 z" id="boundary" inkscape:connector-curvature="0" />
	<path style="fill:none;stroke:red;stroke-width:1px;stroke-linecap:butt;stroke-linejoin:miter;stroke-opacity:1" d="M 880.871,582.798 893.488,593.838 z" id="boundary" inkscape:connector-curvature="0" />
	<path style="fill:none;stroke:red;stroke-width:1px;stroke-linecap:butt;stroke-linejoin:miter;stroke-opacity:1" d="M 884.025,119.129 899.797,119.129 z" id="boundary" inkscape:connector-curvature="0" />
	<path style="fill:none;stroke:red;stroke-width:1px;stroke-linecap:butt;stroke-linejoin:miter;stroke-opacity:1" d="M 888.757,434.55 904.528,434.55 z" id="boundary" inkscape:connector-curvature="0" />
	<path style="fill:none;stroke:red;stroke-width:1px;stroke-linecap:butt;stroke-linejoin:miter;stroke-opacity:1" d="M 893.488,593.838 907.682,601.723 z" id="boundary" inkscape:connector-curvature="0" />
	<path style="fill:none;stroke:red;stroke-width:1px;stroke-linecap:butt;stroke-linejoin:miter;stroke-opacity:1" d="M 896.642,302.073 909.259,291.033 z" id="boundary" inkscape:connector-curvature="0" />
	<path style="fill:none;stroke:red;stroke-width:1px;stroke-linecap:butt;stroke-linejoin:miter;stroke-opacity:1" d="M 899.797,119.129 915.568,119.129 z" id="boundary" inkscape:connector-curvature="0" />
	<path style="fill:none;stroke:red;stroke-width:1px;stroke-linecap:butt;stroke-linejoin:miter;stroke-opacity:1" d="M 904.528,434.55 920.299,439.281 z" id="boundary" inkscape:connector-curvature="0" />
	<path style="fill:none;stroke:red;stroke-width:1px;stroke-linecap:butt;stroke-linejoin:miter;stroke-opacity:1" d="M 907.682,601.723 921.876,609.609 z" id="boundary" inkscape:connector-curvature="0" />
	<path style="fill:none;stroke:red;stroke-width:1px;stroke-linecap:butt;stroke-linejoin:miter;stroke-opacity:1" d="M 909.259,291.033 920.299,278.417 z" id="boundary" inkscape:connector-curvature="0" />
	<path style="fill:none;stroke:red;stroke-width:1px;stroke-linecap:butt;stroke-linejoin:miter;stroke-opacity:1" d="M 915.568,119.129 920.299,134.9 z" id="boundary" inkscape:connector-curvature="0" />
	<path style="fill:none;stroke:red;stroke-width:1px;stroke-linecap:butt;stroke-linejoin:miter;stroke-opacity:1" d="M 920.299,134.9 928.184,149.094 z" id="boundary" inkscape:connector-curvature="0" />
	<path style="fill:none;stroke:red;stroke-width:1px;stroke-linecap:butt;stroke-linejoin:miter;stroke-opacity:1" d="M 920.299,262.645 920.299,278.417 z" id="boundary" inkscape:connector-curvature="0" />
	<path style="fill:none;stroke:red;stroke-width:1px;stroke-linecap:butt;stroke-linejoin:miter;stroke-opacity:1" d="M 920.299,262.645 932.916,251.606 z" id="boundary" inkscape:connector-curvature="0" />
	<path style="fill:none;stroke:red;stroke-width:1px;stroke-linecap:butt;stroke-linejoin:miter;stroke-opacity:1" d="M 920.299,439.281 920.299,455.052 z" id="boundary" inkscape:connector-curvature="0" />
	<path style="fill:none;stroke:red;stroke-width:1px;stroke-linecap:butt;stroke-linejoin:miter;stroke-opacity:1" d="M 920.299,455.052 934.493,462.938 z" id="boundary" inkscape:connector-curvature="0" />
	<path style="fill:none;stroke:red;stroke-width:1px;stroke-linecap:butt;stroke-linejoin:miter;stroke-opacity:1" d="M 921.876,609.609 937.647,609.609 z" id="boundary" inkscape:connector-curvature="0" />
	<path style="fill:none;stroke:red;stroke-width:1px;stroke-linecap:butt;stroke-linejoin:miter;stroke-opacity:1" d="M 928.184,149.094 940.801,160.134 z" id="boundary" inkscape:connector-curvature="0" />
	<path style="fill:none;stroke:red;stroke-width:1px;stroke-linecap:butt;stroke-linejoin:miter;stroke-opacity:1" d="M 932.916,251.606 940.801,235.835 z" id="boundary" inkscape:connector-curvature="0" />
	<path style="fill:none;stroke:red;stroke-width:1px;stroke-linecap:butt;stroke-linejoin:miter;stroke-opacity:1" d="M 934.493,462.938 947.11,473.978 z" id="boundary" inkscape:connector-curvature="0" />
	<path style="fill:none;stroke:red;stroke-width:1px;stroke-linecap:butt;stroke-linejoin:miter;stroke-opacity:1" d="M 937.647,609.609 953.418,609.609 z" id="boundary" inkscape:connector-curvature="0" />
	<path style="fill:none;stroke:red;stroke-width:1px;stroke-linecap:butt;stroke-linejoin:miter;stroke-opacity:1" d="M 940.801,160.134 947.11,175.905 z" id="boundary" inkscape:connector-curvature="0" />
	<path style="fill:none;stroke:red;stroke-width:1px;stroke-linecap:butt;stroke-linejoin:miter;stroke-opacity:1" d="M 940.801,235.835 956.572,227.949 z" id="boundary" inkscape:connector-curvature="0" />
	<path style="fill:none;stroke:red;stroke-width:1px;stroke-linecap:butt;stroke-linejoin:miter;stroke-opacity:1" d="M 947.11,175.905 954.995,190.099 z" id="boundary" inkscape:connector-curvature="0" />
	<path style="fill:none;stroke:red;stroke-width:1px;stroke-linecap:butt;stroke-linejoin:miter;stroke-opacity:1" d="M 947.11,473.978 958.149,486.595 z" id="boundary" inkscape:connector-curvature="0" />
	<path style="fill:none;stroke:red;stroke-width:1px;stroke-linecap:butt;stroke-linejoin:miter;stroke-opacity:1" d="M 953.418,609.609 969.189,609.609 z" id="boundary" inkscape:connector-curvature="0" />
	<path style="fill:none;stroke:red;stroke-width:1px;stroke-linecap:butt;stroke-linejoin:miter;stroke-opacity:1" d="M 954.995,190.099 959.727,205.87 z" id="boundary" inkscape:connector-curvature="0" />
	<path style="fill:none;stroke:red;stroke-width:1px;stroke-linecap:butt;stroke-linejoin:miter;stroke-opacity:1" d="M 956.572,227.949 959.727,205.87 z" id="boundary" inkscape:connector-curvature="0" />
	<path style="fill:none;stroke:red;stroke-width:1px;stroke-linecap:butt;stroke-linejoin:miter;stroke-opacity:1" d="M 958.149,486.595 973.921,492.903 z" id="boundary" inkscape:connector-curvature="0" />
	<path style="fill:none;stroke:red;stroke-width:1px;stroke-linecap:butt;stroke-linejoin:miter;stroke-opacity:1" d="M 969.189,609.609 984.96,609.609 z" id="boundary" inkscape:connector-curvature="0" />
	<path style="fill:none;stroke:red;stroke-width:1px;stroke-linecap:butt;stroke-linejoin:miter;stroke-opacity:1" d="M 973.921,492.903 983.383,505.52 z" id="boundary" inkscape:connector-curvature="0" />
	<path style="fill:none;stroke:red;stroke-width:1px;stroke-linecap:butt;stroke-linejoin:miter;stroke-opacity:1" d="M 983.383,505.52 996,514.983 z" id="boundary" inkscape:connector-curvature="0" />
	<path style="fill:none;stroke:red;stroke-width:1px;stroke-linecap:butt;stroke-linejoin:miter;stroke-opacity:1" d="M 984.96,609.609 991.269,593.838 z" id="boundary" inkscape:connector-curvature="0" />
	<path style="fill:none;stroke:red;stroke-width:1px;stroke-linecap:butt;stroke-linejoin:miter;stroke-opacity:1" d="M 991.269,530.754 991.269,546.525 z" id="boundary" inkscape:connector-curvature="0" />
	<path style="fill:none;stroke:red;stroke-width:1px;stroke-linecap:butt;stroke-linejoin:miter;stroke-opacity:1" d="M 991.269,530.754 996,514.983 z" id="boundary" inkscape:connector-curvature="0" />
	<path style="fill:none;stroke:red;stroke-width:1px;stroke-linecap:butt;stroke-linejoin:miter;stroke-opacity:1" d="M 991.269,546.525 991.269,562.296 z" id="boundary" inkscape:connector-curvature="0" />
	<path style="fill:none;stroke:red;stroke-width:1px;stroke-linecap:butt;stroke-linejoin:miter;stroke-opacity:1" d="M 991.269,562.296 991.269,578.067 z" id="boundary" inkscape:connector-curvature="0" />
	<path style="fill:none;stroke:red;stroke-width:1px;stroke-linecap:butt;stroke-linejoin:miter;stroke-opacity:1" d="M 991.269,578.067 991.269,593.838 z" id="boundary" inkscape:connector-curvature="0" />
	<circle cx="4" cy="415.625" r="4" fill="#0" id="circle0"/>
	<circle cx="13.4626" cy="428.242" r="4" fill="#0" id="circle1"/>
	<circle cx="19.7711" cy="407.739" r="4" fill="#0" id="circle2"/>
	<circle cx="29.2337" cy="431.396" r="4" fill="#0" id="circle3"/>
	<circle cx="32.3879" cy="395.122" r="4" fill="#0" id="circle4"/>
	<circle cx="45.0048" cy="436.127" r="4" fill="#0" id="circle5"/>
	<circle cx="48.159" cy="387.237" r="4" fill="#0" id="circle6"/>
	<circle cx="60.7758" cy="436.127" r="4" fill="#0" id="circle7"/>
	<circle cx="63.93" cy="379.351" r="4" fill="#0" id="circle8"/>
	<circle cx="76.5469" cy="436.127" r="4" fill="#0" id="circle9"/>
	<circle cx="79.7011" cy="379.351" r="4" fill="#0" id="circle10"/>
	<circle cx="92.318" cy="439.281" r="4" fill="#0" id="circle11"/>
	<circle cx="95.4722" cy="371.466" r="4" fill="#0" id="circle12"/>
	<circle cx="108.089" cy="444.013" r="4" fill="#0" id="circle13"/>
	<circle cx="111.243" cy="371.466" r="4" fill="#0" id="circle14"/>
	<circle cx="123.86" cy="444.013" r="4" fill="#0" id="circle15"/>
	<circle cx="127.014" cy="363.58" r="4" fill="#0" id="circle16"/>
	<circle cx="139.631" cy="444.013" r="4" fill="#0" id="circle17"/>
	<circle cx="142.785" cy="363.58" r="4" fill="#0" id="circle18"/>
	<circle cx="155.402" cy="444.013" r="4" fill="#0" id="circle19"/>
	<circle cx="158.556" cy="363.58" r="4" fill="#0" id="circle20"/>
	<circle cx="171.173" cy="444.013" r="4" fill="#0" id="circle21"/>
	<circle cx="174.328" cy="363.58" r="4" fill="#0" id="circle22"/>
	<circle cx="186.944" cy="444.013" r="4" fill="#0" id="circle23"/>
	<circle cx="190.099" cy="363.58" r="4" fill="#0" id="circle24"/>
	<circle cx="202.715" cy="444.013" r="4" fill="#0" id="circle25"/>
	<circle cx="205.87" cy="363.58" r="4" fill="#0" id="circle26"/>
	<circle cx="218.486" cy="444.013" r="4" fill="#0" id="circle27"/>
	<circle cx="221.641" cy="355.695" r="4" fill="#0" id="circle28"/>
	<circle cx="234.258" cy="444.013" r="4" fill="#0" id="circle29"/>
	<circle cx="237.412" cy="347.809" r="4" fill="#0" id="circle30"/>
	<circle cx="248.452" cy="313.113" r="4" fill="#0" id="circle31"/>
	<circle cx="248.452" cy="328.884" r="4" fill="#0" id="circle32"/>
	<circle cx="248.452" cy="451.898" r="4" fill="#0" id="circle33"/>
	<circle cx="257.914" cy="464.515" r="4" fill="#0" id="circle34"/>
	<circle cx="261.068" cy="300.496" r="4" fill="#0" id="circle35"/>
	<circle cx="270.531" cy="475.555" r="4" fill="#0" id="circle36"/>
	<circle cx="276.839" cy="300.496" r="4" fill="#0" id="circle37"/>
	<circle cx="284.725" cy="483.44" r="4" fill="#0" id="circle38"/>
	<circle cx="292.61" cy="300.496" r="4" fill="#0" id="circle39"/>
	<circle cx="297.342" cy="494.48" r="4" fill="#0" id="circle40"/>
	<circle cx="308.382" cy="300.496" r="4" fill="#0" id="circle41"/>
	<circle cx="311.536" cy="502.366" r="4" fill="#0" id="circle42"/>
	<circle cx="322.576" cy="292.61" r="4" fill="#0" id="circle43"/>
	<circle cx="327.307" cy="507.097" r="4" fill="#0" id="circle44"/>
	<circle cx="338.347" cy="292.61" r="4" fill="#0" id="circle45"/>
	<circle cx="343.078" cy="507.097" r="4" fill="#0" id="circle46"/>
	<circle cx="354.118" cy="292.61" r="4" fill="#0" id="circle47"/>
	<circle cx="358.849" cy="507.097" r="4" fill="#0" id="circle48"/>
	<circle cx="368.312" cy="284.725" r="4" fill="#0" id="circle49"/>
	<circle cx="374.62" cy="507.097" r="4" fill="#0" id="circle50"/>
	<circle cx="384.083" cy="284.725" r="4" fill="#0" id="circle51"/>
	<circle cx="390.391" cy="507.097" r="4" fill="#0" id="circle52"/>
	<circle cx="398.277" cy="273.685" r="4" fill="#0" id="circle53"/>
	<circle cx="406.162" cy="507.097" r="4" fill="#0" id="circle54"/>
	<circle cx="410.893" cy="261.068" r="4" fill="#0" id="circle55"/>
	<circle cx="421.933" cy="507.097" r="4" fill="#0" id="circle56"/>
	<circle cx="423.51" cy="248.452" r="4" fill="#0" id="circle57"/>
	<circle cx="431.396" cy="232.68" r="4" fill="#0" id="circle58"/>
	<circle cx="437.704" cy="507.097" r="4" fill="#0" id="circle59"/>
	<circle cx="445.59" cy="202.715" r="4" fill="#0" id="circle60"/>
	<circle cx="445.59" cy="218.486" r="4" fill="#0" id="circle61"/>
	<circle cx="447.167" cy="519.714" r="4" fill="#0" id="circle62"/>
	<circle cx="458.207" cy="190.099" r="4" fill="#0" id="circle63"/>
	<circle cx="459.784" cy="530.754" r="4" fill="#0" id="circle64"/>
	<circle cx="466.092" cy="174.328" r="4" fill="#0" id="circle65"/>
	<circle cx="470.824" cy="543.37" r="4" fill="#0" id="circle66"/>
	<circle cx="478.709" cy="161.711" r="4" fill="#0" id="circle67"/>
	<circle cx="486.595" cy="549.679" r="4" fill="#0" id="circle68"/>
	<circle cx="491.326" cy="150.671" r="4" fill="#0" id="circle69"/>
	<circle cx="497.634" cy="134.9" r="4" fill="#0" id="circle70"/>
	<circle cx="497.634" cy="562.296" r="4" fill="#0" id="circle71"/>
	<circle cx="505.52" cy="119.129" r="4" fill="#0" id="circle72"/>
	<circle cx="511.828" cy="570.181" r="4" fill="#0" id="circle73"/>
	<circle cx="516.56" cy="100.203" r="4" fill="#0" id="circle74"/>
	<circle cx="519.714" cy="584.375" r="4" fill="#0" id="circle75"/>
	<circle cx="524.445" cy="84.4324" r="4" fill="#0" id="circle76"/>
	<circle cx="532.331" cy="593.838" r="4" fill="#0" id="circle77"/>
	<circle cx="537.062" cy="71.8156" r="4" fill="#0" id="circle78"/>
	<circle cx="541.793" cy="606.455" r="4" fill="#0" id="circle79"/>
	<circle cx="544.948" cy="56.0445" r="4" fill="#0" id="circle80"/>
	<circle cx="554.41" cy="617.494" r="4" fill="#0" id="circle81"/>
	<circle cx="555.987" cy="37.1192" r="4" fill="#0" id="circle82"/>
	<circle cx="565.45" cy="630.111" r="4" fill="#0" id="circle83"/>
	<circle cx="568.604" cy="24.5024" r="4" fill="#0" id="circle84"/>
	<circle cx="578.067" cy="641.151" r="4" fill="#0" id="circle85"/>
	<circle cx="582.798" cy="16.6169" r="4" fill="#0" id="circle86"/>
	<circle cx="589.107" cy="653.768" r="4" fill="#0" id="circle87"/>
	<circle cx="596.992" cy="8.73132" r="4" fill="#0" id="circle88"/>
	<circle cx="604.878" cy="660.076" r="4" fill="#0" id="circle89"/>
	<circle cx="612.763" cy="8.73132" r="4" fill="#0" id="circle90"/>
	<circle cx="615.917" cy="672.693" r="4" fill="#0" id="circle91"/>
	<circle cx="628.534" cy="4" r="4" fill="#0" id="circle92"/>
	<circle cx="628.534" cy="683.733" r="4" fill="#0" id="circle93"/>
	<circle cx="639.574" cy="696.35" r="4" fill="#0" id="circle94"/>
	<circle cx="644.305" cy="5.57711" r="4" fill="#0" id="circle95"/>
	<circle cx="652.191" cy="19.7711" r="4" fill="#0" id="circle96"/>
	<circle cx="652.191" cy="707.39" r="4" fill="#0" id="circle97"/>
	<circle cx="663.231" cy="720.006" r="4" fill="#0" id="circle98"/>
	<circle cx="666.385" cy="27.6566" r="4" fill="#0" id="circle99"/>
	<circle cx="675.847" cy="731.046" r="4" fill="#0" id="circle100"/>
	<circle cx="680.579" cy="35.5421" r="4" fill="#0" id="circle101"/>
	<circle cx="691.618" cy="48.159" r="4" fill="#0" id="circle102"/>
	<circle cx="691.618" cy="735.777" r="4" fill="#0" id="circle103"/>
	<circle cx="699.504" cy="62.3529" r="4" fill="#0" id="circle104"/>
	<circle cx="707.39" cy="76.5469" r="4" fill="#0" id="circle105"/>
	<circle cx="707.39" cy="735.777" r="4" fill="#0" id="circle106"/>
	<circle cx="715.275" cy="90.7409" r="4" fill="#0" id="circle107"/>
	<circle cx="723.161" cy="104.935" r="4" fill="#0" id="circle108"/>
	<circle cx="723.161" cy="120.706" r="4" fill="#0" id="circle109"/>
	<circle cx="723.161" cy="735.777" r="4" fill="#0" id="circle110"/>
	<circle cx="731.046" cy="134.9" r="4" fill="#0" id="circle111"/>
	<circle cx="731.046" cy="150.671" r="4" fill="#0" id="circle112"/>
	<circle cx="738.932" cy="735.777" r="4" fill="#0" id="circle113"/>
	<circle cx="743.663" cy="160.134" r="4" fill="#0" id="circle114"/>
	<circle cx="749.971" cy="175.905" r="4" fill="#0" id="circle115"/>
	<circle cx="754.703" cy="727.892" r="4" fill="#0" id="circle116"/>
	<circle cx="762.588" cy="186.944" r="4" fill="#0" id="circle117"/>
	<circle cx="762.588" cy="202.715" r="4" fill="#0" id="circle118"/>
	<circle cx="762.588" cy="712.121" r="4" fill="#0" id="circle119"/>
	<circle cx="770.474" cy="216.909" r="4" fill="#0" id="circle120"/>
	<circle cx="778.359" cy="704.235" r="4" fill="#0" id="circle121"/>
	<circle cx="779.936" cy="229.526" r="4" fill="#0" id="circle122"/>
	<circle cx="784.668" cy="202.715" r="4" fill="#0" id="circle123"/>
	<circle cx="786.245" cy="641.151" r="4" fill="#0" id="circle124"/>
	<circle cx="786.245" cy="656.922" r="4" fill="#0" id="circle125"/>
	<circle cx="786.245" cy="672.693" r="4" fill="#0" id="circle126"/>
	<circle cx="786.245" cy="688.464" r="4" fill="#0" id="circle127"/>
	<circle cx="792.553" cy="186.944" r="4" fill="#0" id="circle128"/>
	<circle cx="794.13" cy="601.723" r="4" fill="#0" id="circle129"/>
	<circle cx="794.13" cy="617.494" r="4" fill="#0" id="circle130"/>
	<circle cx="802.016" cy="562.296" r="4" fill="#0" id="circle131"/>
	<circle cx="802.016" cy="578.067" r="4" fill="#0" id="circle132"/>
	<circle cx="805.17" cy="174.328" r="4" fill="#0" id="circle133"/>
	<circle cx="809.901" cy="522.868" r="4" fill="#0" id="circle134"/>
	<circle cx="809.901" cy="538.639" r="4" fill="#0" id="circle135"/>
	<circle cx="817.787" cy="161.711" r="4" fill="#0" id="circle136"/>
	<circle cx="825.672" cy="526.022" r="4" fill="#0" id="circle137"/>
	<circle cx="830.404" cy="150.671" r="4" fill="#0" id="circle138"/>
	<circle cx="836.712" cy="538.639" r="4" fill="#0" id="circle139"/>
	<circle cx="839.866" cy="131.746" r="4" fill="#0" id="circle140"/>
	<circle cx="849.329" cy="317.844" r="4" fill="#0" id="circle141"/>
	<circle cx="849.329" cy="357.272" r="4" fill="#0" id="circle142"/>
	<circle cx="849.329" cy="549.679" r="4" fill="#0" id="circle143"/>
	<circle cx="852.483" cy="119.129" r="4" fill="#0" id="circle144"/>
	<circle cx="855.638" cy="565.45" r="4" fill="#0" id="circle145"/>
	<circle cx="857.215" cy="332.038" r="4" fill="#0" id="circle146"/>
	<circle cx="857.215" cy="388.814" r="4" fill="#0" id="circle147"/>
	<circle cx="857.215" cy="412.471" r="4" fill="#0" id="circle148"/>
	<circle cx="857.215" cy="428.242" r="4" fill="#0" id="circle149"/>
	<circle cx="865.1" cy="309.959" r="4" fill="#0" id="circle150"/>
	<circle cx="865.1" cy="363.58" r="4" fill="#0" id="circle151"/>
	<circle cx="868.254" cy="119.129" r="4" fill="#0" id="circle152"/>
	<circle cx="871.409" cy="570.181" r="4" fill="#0" id="circle153"/>
	<circle cx="872.986" cy="388.814" r="4" fill="#0" id="circle154"/>
	<circle cx="872.986" cy="434.55" r="4" fill="#0" id="circle155"/>
	<circle cx="880.871" cy="309.959" r="4" fill="#0" id="circle156"/>
	<circle cx="880.871" cy="363.58" r="4" fill="#0" id="circle157"/>
	<circle cx="880.871" cy="582.798" r="4" fill="#0" id="circle158"/>
	<circle cx="884.025" cy="119.129" r="4" fill="#0" id="circle159"/>
	<circle cx="887.18" cy="380.928" r="4" fill="#0" id="circle160"/>
	<circle cx="888.757" cy="434.55" r="4" fill="#0" id="circle161"/>
	<circle cx="893.488" cy="593.838" r="4" fill="#0" id="circle162"/>
	<circle cx="896.642" cy="302.073" r="4" fill="#0" id="circle163"/>
	<circle cx="896.642" cy="363.58" r="4" fill="#0" id="circle164"/>
	<circle cx="899.797" cy="119.129" r="4" fill="#0" id="circle165"/>
	<circle cx="904.528" cy="434.55" r="4" fill="#0" id="circle166"/>
	<circle cx="907.682" cy="601.723" r="4" fill="#0" id="circle167"/>
	<circle cx="909.259" cy="291.033" r="4" fill="#0" id="circle168"/>
	<circle cx="915.568" cy="119.129" r="4" fill="#0" id="circle169"/>
	<circle cx="920.299" cy="134.9" r="4" fill="#0" id="circle170"/>
	<circle cx="920.299" cy="262.645" r="4" fill="#0" id="circle171"/>
	<circle cx="920.299" cy="278.417" r="4" fill="#0" id="circle172"/>
	<circle cx="920.299" cy="439.281" r="4" fill="#0" id="circle173"/>
	<circle cx="920.299" cy="455.052" r="4" fill="#0" id="circle174"/>
	<circle cx="921.876" cy="609.609" r="4" fill="#0" id="circle175"/>
	<circle cx="928.184" cy="149.094" r="4" fill="#0" id="circle176"/>
	<circle cx="932.916" cy="251.606" r="4" fill="#0" id="circle177"/>
	<circle cx="934.493" cy="462.938" r="4" fill="#0" id="circle178"/>
	<circle cx="937.647" cy="609.609" r="4" fill="#0" id="circle179"/>
	<circle cx="940.801" cy="160.134" r="4" fill="#0" id="circle180"/>
	<circle cx="940.801" cy="235.835" r="4" fill="#0" id="circle181"/>
	<circle cx="947.11" cy="175.905" r="4" fill="#0" id="circle182"/>
	<circle cx="947.11" cy="473.978" r="4" fill="#0" id="circle183"/>
	<circle cx="953.418" cy="609.609" r="4" fill="#0" id="circle184"/>
	<circle cx="954.995" cy="190.099" r="4" fill="#0" id="circle185"/>
	<circle cx="956.572" cy="227.949" r="4" fill="#0" id="circle186"/>
	<circle cx="958.149" cy="486.595" r="4" fill="#0" id="circle187"/>
	<circle cx="959.727" cy="205.87" r="4" fill="#0" id="circle188"/>
	<circle cx="969.189" cy="609.609" r="4" fill="#0" id="circle189"/>
	<circle cx="973.921" cy="492.903" r="4" fill="#0" id="circle190"/>
	<circle cx="983.383" cy="505.52" r="4" fill="#0" id="circle191"/>
	<circle cx="984.96" cy="609.609" r="4" fill="#0" id="circle192"/>
	<circle cx="991.269" cy="530.754" r="4" fill="#0" id="circle193"/>
	<circle cx="991.269" cy="546.525" r="4" fill="#0" id="circle194"/>
	<circle cx="991.269" cy="562.296" r="4" fill="#0" id="circle195"/>
	<circle cx="991.269" cy="578.067" r="4" fill="#0" id="circle196"/>
	<circle cx="991.269" cy="593.838" r="4" fill="#0" id="circle197"/>
	<circle cx="996" cy="514.983" r="4" fill="#0" id="circle198"/>
	</g>
</svg>