<?xml version="1.0" encoding="UTF-8" standalone="no"?>
<!-- Created with CurveBenchmark -->
<svg
	xmlns:dc="http://purl.org/dc/elements/1.1/"
	xmlns:cc="http://creativecommons.org/ns#"
	xmlns:rdf="http://www.w3.org/1999/02/22-rdf-syntax-ns#"
	xmlns:svg="http://www.w3.org/2000/svg"
	xmlns="http://www.w3.org/2000/svg"
	xmlns:sodipodi="http://sodipodi.sourceforge.net/DTD/sodipodi-0.dtd"
	xmlns:inkscape="http://www.inkscape.org/namespaces/inkscape"
	width="1000"
	height="1000"
	id="svg2"
	version="1.1"
	sodipodi:docname="manifold/hnncrust-truck-02.png.txt">
<defs
	id="defs4" />
<metadata
	id="metadata7">
	<rdf:RDF>
		<cc:Work
			rdf:about="">
			<dc:format>image/svg+xml</dc:format>
			<dc:type
				rdf:resource="http://purl.org/dc/dcmitype/StillImage" />
			<dc:title></dc:title>
		</cc:Work>
	</rdf:RDF>
</metadata>
<g
	inkscape:label="Layer 1"
	inkscape:groupmode="layer"
	id="layer1">
	<path style="fill:none;stroke:red;stroke-width:1px;stroke-linecap:butt;stroke-linejoin:miter;stroke-opacity:1" d="M 4,247.36 4,267.983 z" id="boundary" inkscape:connector-curvature="0" />
	<path style="fill:none;stroke:red;stroke-width:1px;stroke-linecap:butt;stroke-linejoin:miter;stroke-opacity:1" d="M 4,247.36 14.3119,226.736 z" id="boundary" inkscape:connector-curvature="0" />
	<path style="fill:none;stroke:red;stroke-width:1px;stroke-linecap:butt;stroke-linejoin:miter;stroke-opacity:1" d="M 4,267.983 14.3119,286.545 z" id="boundary" inkscape:connector-curvature="0" />
	<path style="fill:none;stroke:red;stroke-width:1px;stroke-linecap:butt;stroke-linejoin:miter;stroke-opacity:1" d="M 14.3119,226.736 30.8108,210.237 z" id="boundary" inkscape:connector-curvature="0" />
	<path style="fill:none;stroke:red;stroke-width:1px;stroke-linecap:butt;stroke-linejoin:miter;stroke-opacity:1" d="M 14.3119,286.545 24.6237,305.106 z" id="boundary" inkscape:connector-curvature="0" />
	<path style="fill:none;stroke:red;stroke-width:1px;stroke-linecap:butt;stroke-linejoin:miter;stroke-opacity:1" d="M 24.6237,305.106 45.2474,305.106 z" id="boundary" inkscape:connector-curvature="0" />
	<path style="fill:none;stroke:red;stroke-width:1px;stroke-linecap:butt;stroke-linejoin:miter;stroke-opacity:1" d="M 30.8108,210.237 34.9356,185.489 z" id="boundary" inkscape:connector-curvature="0" />
	<path style="fill:none;stroke:red;stroke-width:1px;stroke-linecap:butt;stroke-linejoin:miter;stroke-opacity:1" d="M 34.9356,185.489 45.2474,164.865 z" id="boundary" inkscape:connector-curvature="0" />
	<path style="fill:none;stroke:red;stroke-width:1px;stroke-linecap:butt;stroke-linejoin:miter;stroke-opacity:1" d="M 45.2474,164.865 65.8711,154.553 z" id="boundary" inkscape:connector-curvature="0" />
	<path style="fill:none;stroke:red;stroke-width:1px;stroke-linecap:butt;stroke-linejoin:miter;stroke-opacity:1" d="M 45.2474,305.106 65.8711,305.106 z" id="boundary" inkscape:connector-curvature="0" />
	<path style="fill:none;stroke:red;stroke-width:1px;stroke-linecap:butt;stroke-linejoin:miter;stroke-opacity:1" d="M 65.8711,154.553 86.4948,148.366 z" id="boundary" inkscape:connector-curvature="0" />
	<path style="fill:none;stroke:red;stroke-width:1px;stroke-linecap:butt;stroke-linejoin:miter;stroke-opacity:1" d="M 65.8711,305.106 86.4948,305.106 z" id="boundary" inkscape:connector-curvature="0" />
	<path style="fill:none;stroke:red;stroke-width:1px;stroke-linecap:butt;stroke-linejoin:miter;stroke-opacity:1" d="M 86.4948,148.366 107.119,148.366 z" id="boundary" inkscape:connector-curvature="0" />
	<path style="fill:none;stroke:red;stroke-width:1px;stroke-linecap:butt;stroke-linejoin:miter;stroke-opacity:1" d="M 86.4948,305.106 107.119,305.106 z" id="boundary" inkscape:connector-curvature="0" />
	<path style="fill:none;stroke:red;stroke-width:1px;stroke-linecap:butt;stroke-linejoin:miter;stroke-opacity:1" d="M 86.4948,402.037 86.4948,422.661 z" id="boundary" inkscape:connector-curvature="0" />
	<path style="fill:none;stroke:red;stroke-width:1px;stroke-linecap:butt;stroke-linejoin:miter;stroke-opacity:1" d="M 86.4948,402.037 96.8067,381.414 z" id="boundary" inkscape:connector-curvature="0" />
	<path style="fill:none;stroke:red;stroke-width:1px;stroke-linecap:butt;stroke-linejoin:miter;stroke-opacity:1" d="M 86.4948,422.661 96.8067,441.222 z" id="boundary" inkscape:connector-curvature="0" />
	<path style="fill:none;stroke:red;stroke-width:1px;stroke-linecap:butt;stroke-linejoin:miter;stroke-opacity:1" d="M 96.8067,381.414 117.43,371.102 z" id="boundary" inkscape:connector-curvature="0" />
	<path style="fill:none;stroke:red;stroke-width:1px;stroke-linecap:butt;stroke-linejoin:miter;stroke-opacity:1" d="M 96.8067,441.222 96.8067,461.846 z" id="boundary" inkscape:connector-curvature="0" />
	<path style="fill:none;stroke:red;stroke-width:1px;stroke-linecap:butt;stroke-linejoin:miter;stroke-opacity:1" d="M 96.8067,461.846 96.8067,482.47 z" id="boundary" inkscape:connector-curvature="0" />
	<path style="fill:none;stroke:red;stroke-width:1px;stroke-linecap:butt;stroke-linejoin:miter;stroke-opacity:1" d="M 96.8067,482.47 107.119,501.031 z" id="boundary" inkscape:connector-curvature="0" />
	<path style="fill:none;stroke:red;stroke-width:1px;stroke-linecap:butt;stroke-linejoin:miter;stroke-opacity:1" d="M 107.119,148.366 127.742,148.366 z" id="boundary" inkscape:connector-curvature="0" />
	<path style="fill:none;stroke:red;stroke-width:1px;stroke-linecap:butt;stroke-linejoin:miter;stroke-opacity:1" d="M 107.119,305.106 127.742,305.106 z" id="boundary" inkscape:connector-curvature="0" />
	<path style="fill:none;stroke:red;stroke-width:1px;stroke-linecap:butt;stroke-linejoin:miter;stroke-opacity:1" d="M 107.119,501.031 113.306,521.655 z" id="boundary" inkscape:connector-curvature="0" />
	<path style="fill:none;stroke:red;stroke-width:1px;stroke-linecap:butt;stroke-linejoin:miter;stroke-opacity:1" d="M 113.306,521.655 131.867,531.967 z" id="boundary" inkscape:connector-curvature="0" />
	<path style="fill:none;stroke:red;stroke-width:1px;stroke-linecap:butt;stroke-linejoin:miter;stroke-opacity:1" d="M 117.43,371.102 138.054,364.915 z" id="boundary" inkscape:connector-curvature="0" />
	<path style="fill:none;stroke:red;stroke-width:1px;stroke-linecap:butt;stroke-linejoin:miter;stroke-opacity:1" d="M 127.742,148.366 148.366,148.366 z" id="boundary" inkscape:connector-curvature="0" />
	<path style="fill:none;stroke:red;stroke-width:1px;stroke-linecap:butt;stroke-linejoin:miter;stroke-opacity:1" d="M 127.742,305.106 148.366,305.106 z" id="boundary" inkscape:connector-curvature="0" />
	<path style="fill:none;stroke:red;stroke-width:1px;stroke-linecap:butt;stroke-linejoin:miter;stroke-opacity:1" d="M 131.867,531.967 148.366,515.468 z" id="boundary" inkscape:connector-curvature="0" />
	<path style="fill:none;stroke:red;stroke-width:1px;stroke-linecap:butt;stroke-linejoin:miter;stroke-opacity:1" d="M 138.054,364.915 158.678,360.79 z" id="boundary" inkscape:connector-curvature="0" />
	<path style="fill:none;stroke:red;stroke-width:1px;stroke-linecap:butt;stroke-linejoin:miter;stroke-opacity:1" d="M 148.366,148.366 168.99,148.366 z" id="boundary" inkscape:connector-curvature="0" />
	<path style="fill:none;stroke:red;stroke-width:1px;stroke-linecap:butt;stroke-linejoin:miter;stroke-opacity:1" d="M 148.366,305.106 168.99,305.106 z" id="boundary" inkscape:connector-curvature="0" />
	<path style="fill:none;stroke:red;stroke-width:1px;stroke-linecap:butt;stroke-linejoin:miter;stroke-opacity:1" d="M 148.366,515.468 164.865,501.031 z" id="boundary" inkscape:connector-curvature="0" />
	<path style="fill:none;stroke:red;stroke-width:1px;stroke-linecap:butt;stroke-linejoin:miter;stroke-opacity:1" d="M 158.678,360.79 179.301,344.291 z" id="boundary" inkscape:connector-curvature="0" />
	<path style="fill:none;stroke:red;stroke-width:1px;stroke-linecap:butt;stroke-linejoin:miter;stroke-opacity:1" d="M 164.865,501.031 185.489,501.031 z" id="boundary" inkscape:connector-curvature="0" />
	<path style="fill:none;stroke:red;stroke-width:1px;stroke-linecap:butt;stroke-linejoin:miter;stroke-opacity:1" d="M 168.99,148.366 189.613,148.366 z" id="boundary" inkscape:connector-curvature="0" />
	<path style="fill:none;stroke:red;stroke-width:1px;stroke-linecap:butt;stroke-linejoin:miter;stroke-opacity:1" d="M 168.99,305.106 179.301,323.667 z" id="boundary" inkscape:connector-curvature="0" />
	<path style="fill:none;stroke:red;stroke-width:1px;stroke-linecap:butt;stroke-linejoin:miter;stroke-opacity:1" d="M 179.301,323.667 179.301,344.291 z" id="boundary" inkscape:connector-curvature="0" />
	<path style="fill:none;stroke:red;stroke-width:1px;stroke-linecap:butt;stroke-linejoin:miter;stroke-opacity:1" d="M 185.489,501.031 204.05,511.343 z" id="boundary" inkscape:connector-curvature="0" />
	<path style="fill:none;stroke:red;stroke-width:1px;stroke-linecap:butt;stroke-linejoin:miter;stroke-opacity:1" d="M 189.613,148.366 210.237,148.366 z" id="boundary" inkscape:connector-curvature="0" />
	<path style="fill:none;stroke:red;stroke-width:1px;stroke-linecap:butt;stroke-linejoin:miter;stroke-opacity:1" d="M 204.05,511.343 224.674,517.53 z" id="boundary" inkscape:connector-curvature="0" />
	<path style="fill:none;stroke:red;stroke-width:1px;stroke-linecap:butt;stroke-linejoin:miter;stroke-opacity:1" d="M 210.237,148.366 230.861,148.366 z" id="boundary" inkscape:connector-curvature="0" />
	<path style="fill:none;stroke:red;stroke-width:1px;stroke-linecap:butt;stroke-linejoin:miter;stroke-opacity:1" d="M 224.674,517.53 243.235,527.842 z" id="boundary" inkscape:connector-curvature="0" />
	<path style="fill:none;stroke:red;stroke-width:1px;stroke-linecap:butt;stroke-linejoin:miter;stroke-opacity:1" d="M 230.861,148.366 251.484,148.366 z" id="boundary" inkscape:connector-curvature="0" />
	<path style="fill:none;stroke:red;stroke-width:1px;stroke-linecap:butt;stroke-linejoin:miter;stroke-opacity:1" d="M 243.235,527.842 263.859,531.967 z" id="boundary" inkscape:connector-curvature="0" />
	<path style="fill:none;stroke:red;stroke-width:1px;stroke-linecap:butt;stroke-linejoin:miter;stroke-opacity:1" d="M 251.484,148.366 272.108,148.366 z" id="boundary" inkscape:connector-curvature="0" />
	<path style="fill:none;stroke:red;stroke-width:1px;stroke-linecap:butt;stroke-linejoin:miter;stroke-opacity:1" d="M 263.859,531.967 284.482,531.967 z" id="boundary" inkscape:connector-curvature="0" />
	<path style="fill:none;stroke:red;stroke-width:1px;stroke-linecap:butt;stroke-linejoin:miter;stroke-opacity:1" d="M 272.108,148.366 292.732,148.366 z" id="boundary" inkscape:connector-curvature="0" />
	<path style="fill:none;stroke:red;stroke-width:1px;stroke-linecap:butt;stroke-linejoin:miter;stroke-opacity:1" d="M 284.482,531.967 303.044,521.655 z" id="boundary" inkscape:connector-curvature="0" />
	<path style="fill:none;stroke:red;stroke-width:1px;stroke-linecap:butt;stroke-linejoin:miter;stroke-opacity:1" d="M 292.732,148.366 313.356,148.366 z" id="boundary" inkscape:connector-curvature="0" />
	<path style="fill:none;stroke:red;stroke-width:1px;stroke-linecap:butt;stroke-linejoin:miter;stroke-opacity:1" d="M 303.044,521.655 319.543,509.281 z" id="boundary" inkscape:connector-curvature="0" />
	<path style="fill:none;stroke:red;stroke-width:1px;stroke-linecap:butt;stroke-linejoin:miter;stroke-opacity:1" d="M 313.356,148.366 333.979,148.366 z" id="boundary" inkscape:connector-curvature="0" />
	<path style="fill:none;stroke:red;stroke-width:1px;stroke-linecap:butt;stroke-linejoin:miter;stroke-opacity:1" d="M 319.543,509.281 340.166,501.031 z" id="boundary" inkscape:connector-curvature="0" />
	<path style="fill:none;stroke:red;stroke-width:1px;stroke-linecap:butt;stroke-linejoin:miter;stroke-opacity:1" d="M 333.979,148.366 354.603,144.241 z" id="boundary" inkscape:connector-curvature="0" />
	<path style="fill:none;stroke:red;stroke-width:1px;stroke-linecap:butt;stroke-linejoin:miter;stroke-opacity:1" d="M 340.166,501.031 360.79,501.031 z" id="boundary" inkscape:connector-curvature="0" />
	<path style="fill:none;stroke:red;stroke-width:1px;stroke-linecap:butt;stroke-linejoin:miter;stroke-opacity:1" d="M 354.603,144.241 375.227,138.054 z" id="boundary" inkscape:connector-curvature="0" />
	<path style="fill:none;stroke:red;stroke-width:1px;stroke-linecap:butt;stroke-linejoin:miter;stroke-opacity:1" d="M 360.79,501.031 381.414,501.031 z" id="boundary" inkscape:connector-curvature="0" />
	<path style="fill:none;stroke:red;stroke-width:1px;stroke-linecap:butt;stroke-linejoin:miter;stroke-opacity:1" d="M 375.227,138.054 395.85,138.054 z" id="boundary" inkscape:connector-curvature="0" />
	<path style="fill:none;stroke:red;stroke-width:1px;stroke-linecap:butt;stroke-linejoin:miter;stroke-opacity:1" d="M 381.414,501.031 402.037,501.031 z" id="boundary" inkscape:connector-curvature="0" />
	<path style="fill:none;stroke:red;stroke-width:1px;stroke-linecap:butt;stroke-linejoin:miter;stroke-opacity:1" d="M 395.85,138.054 414.412,127.742 z" id="boundary" inkscape:connector-curvature="0" />
	<path style="fill:none;stroke:red;stroke-width:1px;stroke-linecap:butt;stroke-linejoin:miter;stroke-opacity:1" d="M 402.037,501.031 422.661,501.031 z" id="boundary" inkscape:connector-curvature="0" />
	<path style="fill:none;stroke:red;stroke-width:1px;stroke-linecap:butt;stroke-linejoin:miter;stroke-opacity:1" d="M 414.412,127.742 435.035,127.742 z" id="boundary" inkscape:connector-curvature="0" />
	<path style="fill:none;stroke:red;stroke-width:1px;stroke-linecap:butt;stroke-linejoin:miter;stroke-opacity:1" d="M 422.661,501.031 439.16,515.468 z" id="boundary" inkscape:connector-curvature="0" />
	<path style="fill:none;stroke:red;stroke-width:1px;stroke-linecap:butt;stroke-linejoin:miter;stroke-opacity:1" d="M 435.035,127.742 455.659,127.742 z" id="boundary" inkscape:connector-curvature="0" />
	<path style="fill:none;stroke:red;stroke-width:1px;stroke-linecap:butt;stroke-linejoin:miter;stroke-opacity:1" d="M 439.16,515.468 453.597,531.967 z" id="boundary" inkscape:connector-curvature="0" />
	<path style="fill:none;stroke:red;stroke-width:1px;stroke-linecap:butt;stroke-linejoin:miter;stroke-opacity:1" d="M 453.597,531.967 472.158,542.279 z" id="boundary" inkscape:connector-curvature="0" />
	<path style="fill:none;stroke:red;stroke-width:1px;stroke-linecap:butt;stroke-linejoin:miter;stroke-opacity:1" d="M 455.659,127.742 474.22,117.43 z" id="boundary" inkscape:connector-curvature="0" />
	<path style="fill:none;stroke:red;stroke-width:1px;stroke-linecap:butt;stroke-linejoin:miter;stroke-opacity:1" d="M 472.158,542.279 492.782,542.279 z" id="boundary" inkscape:connector-curvature="0" />
	<path style="fill:none;stroke:red;stroke-width:1px;stroke-linecap:butt;stroke-linejoin:miter;stroke-opacity:1" d="M 474.22,117.43 488.657,82.3701 z" id="boundary" inkscape:connector-curvature="0" />
	<path style="fill:none;stroke:red;stroke-width:1px;stroke-linecap:butt;stroke-linejoin:miter;stroke-opacity:1" d="M 488.657,61.7464 488.657,82.3701 z" id="boundary" inkscape:connector-curvature="0" />
	<path style="fill:none;stroke:red;stroke-width:1px;stroke-linecap:butt;stroke-linejoin:miter;stroke-opacity:1" d="M 488.657,61.7464 498.969,41.1227 z" id="boundary" inkscape:connector-curvature="0" />
	<path style="fill:none;stroke:red;stroke-width:1px;stroke-linecap:butt;stroke-linejoin:miter;stroke-opacity:1" d="M 492.782,542.279 513.405,542.279 z" id="boundary" inkscape:connector-curvature="0" />
	<path style="fill:none;stroke:red;stroke-width:1px;stroke-linecap:butt;stroke-linejoin:miter;stroke-opacity:1" d="M 498.969,41.1227 519.593,30.8108 z" id="boundary" inkscape:connector-curvature="0" />
	<path style="fill:none;stroke:red;stroke-width:1px;stroke-linecap:butt;stroke-linejoin:miter;stroke-opacity:1" d="M 513.405,542.279 534.029,542.279 z" id="boundary" inkscape:connector-curvature="0" />
	<path style="fill:none;stroke:red;stroke-width:1px;stroke-linecap:butt;stroke-linejoin:miter;stroke-opacity:1" d="M 519.593,30.8108 540.216,24.6237 z" id="boundary" inkscape:connector-curvature="0" />
	<path style="fill:none;stroke:red;stroke-width:1px;stroke-linecap:butt;stroke-linejoin:miter;stroke-opacity:1" d="M 534.029,542.279 554.653,542.279 z" id="boundary" inkscape:connector-curvature="0" />
	<path style="fill:none;stroke:red;stroke-width:1px;stroke-linecap:butt;stroke-linejoin:miter;stroke-opacity:1" d="M 540.216,24.6237 560.84,24.6237 z" id="boundary" inkscape:connector-curvature="0" />
	<path style="fill:none;stroke:red;stroke-width:1px;stroke-linecap:butt;stroke-linejoin:miter;stroke-opacity:1" d="M 554.653,542.279 573.214,531.967 z" id="boundary" inkscape:connector-curvature="0" />
	<path style="fill:none;stroke:red;stroke-width:1px;stroke-linecap:butt;stroke-linejoin:miter;stroke-opacity:1" d="M 560.84,24.6237 581.464,24.6237 z" id="boundary" inkscape:connector-curvature="0" />
	<path style="fill:none;stroke:red;stroke-width:1px;stroke-linecap:butt;stroke-linejoin:miter;stroke-opacity:1" d="M 573.214,531.967 593.838,511.343 z" id="boundary" inkscape:connector-curvature="0" />
	<path style="fill:none;stroke:red;stroke-width:1px;stroke-linecap:butt;stroke-linejoin:miter;stroke-opacity:1" d="M 581.464,24.6237 602.087,24.6237 z" id="boundary" inkscape:connector-curvature="0" />
	<path style="fill:none;stroke:red;stroke-width:1px;stroke-linecap:butt;stroke-linejoin:miter;stroke-opacity:1" d="M 593.838,511.343 604.15,490.719 z" id="boundary" inkscape:connector-curvature="0" />
	<path style="fill:none;stroke:red;stroke-width:1px;stroke-linecap:butt;stroke-linejoin:miter;stroke-opacity:1" d="M 602.087,24.6237 622.711,20.499 z" id="boundary" inkscape:connector-curvature="0" />
	<path style="fill:none;stroke:red;stroke-width:1px;stroke-linecap:butt;stroke-linejoin:miter;stroke-opacity:1" d="M 604.15,490.719 622.711,480.407 z" id="boundary" inkscape:connector-curvature="0" />
	<path style="fill:none;stroke:red;stroke-width:1px;stroke-linecap:butt;stroke-linejoin:miter;stroke-opacity:1" d="M 622.711,20.499 643.335,14.3119 z" id="boundary" inkscape:connector-curvature="0" />
	<path style="fill:none;stroke:red;stroke-width:1px;stroke-linecap:butt;stroke-linejoin:miter;stroke-opacity:1" d="M 622.711,480.407 643.335,474.22 z" id="boundary" inkscape:connector-curvature="0" />
	<path style="fill:none;stroke:red;stroke-width:1px;stroke-linecap:butt;stroke-linejoin:miter;stroke-opacity:1" d="M 643.335,14.3119 663.958,14.3119 z" id="boundary" inkscape:connector-curvature="0" />
	<path style="fill:none;stroke:red;stroke-width:1px;stroke-linecap:butt;stroke-linejoin:miter;stroke-opacity:1" d="M 643.335,474.22 663.958,470.096 z" id="boundary" inkscape:connector-curvature="0" />
	<path style="fill:none;stroke:red;stroke-width:1px;stroke-linecap:butt;stroke-linejoin:miter;stroke-opacity:1" d="M 663.958,14.3119 684.582,10.1871 z" id="boundary" inkscape:connector-curvature="0" />
	<path style="fill:none;stroke:red;stroke-width:1px;stroke-linecap:butt;stroke-linejoin:miter;stroke-opacity:1" d="M 663.958,470.096 684.582,470.096 z" id="boundary" inkscape:connector-curvature="0" />
	<path style="fill:none;stroke:red;stroke-width:1px;stroke-linecap:butt;stroke-linejoin:miter;stroke-opacity:1" d="M 684.582,10.1871 705.206,4 z" id="boundary" inkscape:connector-curvature="0" />
	<path style="fill:none;stroke:red;stroke-width:1px;stroke-linecap:butt;stroke-linejoin:miter;stroke-opacity:1" d="M 684.582,470.096 705.206,470.096 z" id="boundary" inkscape:connector-curvature="0" />
	<path style="fill:none;stroke:red;stroke-width:1px;stroke-linecap:butt;stroke-linejoin:miter;stroke-opacity:1" d="M 705.206,4 725.83,4 z" id="boundary" inkscape:connector-curvature="0" />
	<path style="fill:none;stroke:red;stroke-width:1px;stroke-linecap:butt;stroke-linejoin:miter;stroke-opacity:1" d="M 705.206,470.096 725.83,470.096 z" id="boundary" inkscape:connector-curvature="0" />
	<path style="fill:none;stroke:red;stroke-width:1px;stroke-linecap:butt;stroke-linejoin:miter;stroke-opacity:1" d="M 725.83,4 746.453,4 z" id="boundary" inkscape:connector-curvature="0" />
	<path style="fill:none;stroke:red;stroke-width:1px;stroke-linecap:butt;stroke-linejoin:miter;stroke-opacity:1" d="M 725.83,470.096 746.453,470.096 z" id="boundary" inkscape:connector-curvature="0" />
	<path style="fill:none;stroke:red;stroke-width:1px;stroke-linecap:butt;stroke-linejoin:miter;stroke-opacity:1" d="M 746.453,4 767.077,4 z" id="boundary" inkscape:connector-curvature="0" />
	<path style="fill:none;stroke:red;stroke-width:1px;stroke-linecap:butt;stroke-linejoin:miter;stroke-opacity:1" d="M 746.453,470.096 767.077,470.096 z" id="boundary" inkscape:connector-curvature="0" />
	<path style="fill:none;stroke:red;stroke-width:1px;stroke-linecap:butt;stroke-linejoin:miter;stroke-opacity:1" d="M 767.077,4 783.576,16.3742 z" id="boundary" inkscape:connector-curvature="0" />
	<path style="fill:none;stroke:red;stroke-width:1px;stroke-linecap:butt;stroke-linejoin:miter;stroke-opacity:1" d="M 767.077,470.096 787.701,470.096 z" id="boundary" inkscape:connector-curvature="0" />
	<path style="fill:none;stroke:red;stroke-width:1px;stroke-linecap:butt;stroke-linejoin:miter;stroke-opacity:1" d="M 783.576,16.3742 800.075,30.8108 z" id="boundary" inkscape:connector-curvature="0" />
	<path style="fill:none;stroke:red;stroke-width:1px;stroke-linecap:butt;stroke-linejoin:miter;stroke-opacity:1" d="M 787.701,470.096 808.324,470.096 z" id="boundary" inkscape:connector-curvature="0" />
	<path style="fill:none;stroke:red;stroke-width:1px;stroke-linecap:butt;stroke-linejoin:miter;stroke-opacity:1" d="M 800.075,30.8108 800.075,51.4345 z" id="boundary" inkscape:connector-curvature="0" />
	<path style="fill:none;stroke:red;stroke-width:1px;stroke-linecap:butt;stroke-linejoin:miter;stroke-opacity:1" d="M 800.075,51.4345 800.075,72.0582 z" id="boundary" inkscape:connector-curvature="0" />
	<path style="fill:none;stroke:red;stroke-width:1px;stroke-linecap:butt;stroke-linejoin:miter;stroke-opacity:1" d="M 800.075,72.0582 800.075,92.6819 z" id="boundary" inkscape:connector-curvature="0" />
	<path style="fill:none;stroke:red;stroke-width:1px;stroke-linecap:butt;stroke-linejoin:miter;stroke-opacity:1" d="M 800.075,92.6819 800.075,113.306 z" id="boundary" inkscape:connector-curvature="0" />
	<path style="fill:none;stroke:red;stroke-width:1px;stroke-linecap:butt;stroke-linejoin:miter;stroke-opacity:1" d="M 800.075,113.306 800.075,133.929 z" id="boundary" inkscape:connector-curvature="0" />
	<path style="fill:none;stroke:red;stroke-width:1px;stroke-linecap:butt;stroke-linejoin:miter;stroke-opacity:1" d="M 800.075,133.929 818.636,144.241 z" id="boundary" inkscape:connector-curvature="0" />
	<path style="fill:none;stroke:red;stroke-width:1px;stroke-linecap:butt;stroke-linejoin:miter;stroke-opacity:1" d="M 808.324,470.096 828.948,470.096 z" id="boundary" inkscape:connector-curvature="0" />
	<path style="fill:none;stroke:red;stroke-width:1px;stroke-linecap:butt;stroke-linejoin:miter;stroke-opacity:1" d="M 818.636,144.241 835.135,158.678 z" id="boundary" inkscape:connector-curvature="0" />
	<path style="fill:none;stroke:red;stroke-width:1px;stroke-linecap:butt;stroke-linejoin:miter;stroke-opacity:1" d="M 828.948,470.096 839.26,488.657 z" id="boundary" inkscape:connector-curvature="0" />
	<path style="fill:none;stroke:red;stroke-width:1px;stroke-linecap:butt;stroke-linejoin:miter;stroke-opacity:1" d="M 835.135,158.678 841.322,179.301 z" id="boundary" inkscape:connector-curvature="0" />
	<path style="fill:none;stroke:red;stroke-width:1px;stroke-linecap:butt;stroke-linejoin:miter;stroke-opacity:1" d="M 839.26,488.657 851.634,505.156 z" id="boundary" inkscape:connector-curvature="0" />
	<path style="fill:none;stroke:red;stroke-width:1px;stroke-linecap:butt;stroke-linejoin:miter;stroke-opacity:1" d="M 841.322,179.301 841.322,199.925 z" id="boundary" inkscape:connector-curvature="0" />
	<path style="fill:none;stroke:red;stroke-width:1px;stroke-linecap:butt;stroke-linejoin:miter;stroke-opacity:1" d="M 841.322,199.925 841.322,220.549 z" id="boundary" inkscape:connector-curvature="0" />
	<path style="fill:none;stroke:red;stroke-width:1px;stroke-linecap:butt;stroke-linejoin:miter;stroke-opacity:1" d="M 841.322,220.549 861.946,226.736 z" id="boundary" inkscape:connector-curvature="0" />
	<path style="fill:none;stroke:red;stroke-width:1px;stroke-linecap:butt;stroke-linejoin:miter;stroke-opacity:1" d="M 851.634,505.156 866.071,521.655 z" id="boundary" inkscape:connector-curvature="0" />
	<path style="fill:none;stroke:red;stroke-width:1px;stroke-linecap:butt;stroke-linejoin:miter;stroke-opacity:1" d="M 861.946,226.736 882.57,230.861 z" id="boundary" inkscape:connector-curvature="0" />
	<path style="fill:none;stroke:red;stroke-width:1px;stroke-linecap:butt;stroke-linejoin:miter;stroke-opacity:1" d="M 866.071,521.655 886.694,529.904 z" id="boundary" inkscape:connector-curvature="0" />
	<path style="fill:none;stroke:red;stroke-width:1px;stroke-linecap:butt;stroke-linejoin:miter;stroke-opacity:1" d="M 882.57,230.861 903.193,230.861 z" id="boundary" inkscape:connector-curvature="0" />
	<path style="fill:none;stroke:red;stroke-width:1px;stroke-linecap:butt;stroke-linejoin:miter;stroke-opacity:1" d="M 886.694,529.904 907.318,529.904 z" id="boundary" inkscape:connector-curvature="0" />
	<path style="fill:none;stroke:red;stroke-width:1px;stroke-linecap:butt;stroke-linejoin:miter;stroke-opacity:1" d="M 903.193,230.861 921.755,241.173 z" id="boundary" inkscape:connector-curvature="0" />
	<path style="fill:none;stroke:red;stroke-width:1px;stroke-linecap:butt;stroke-linejoin:miter;stroke-opacity:1" d="M 907.318,529.904 927.942,519.593 z" id="boundary" inkscape:connector-curvature="0" />
	<path style="fill:none;stroke:red;stroke-width:1px;stroke-linecap:butt;stroke-linejoin:miter;stroke-opacity:1" d="M 921.755,241.173 934.129,257.672 z" id="boundary" inkscape:connector-curvature="0" />
	<path style="fill:none;stroke:red;stroke-width:1px;stroke-linecap:butt;stroke-linejoin:miter;stroke-opacity:1" d="M 927.942,519.593 944.441,490.719 z" id="boundary" inkscape:connector-curvature="0" />
	<path style="fill:none;stroke:red;stroke-width:1px;stroke-linecap:butt;stroke-linejoin:miter;stroke-opacity:1" d="M 934.129,257.672 944.441,276.233 z" id="boundary" inkscape:connector-curvature="0" />
	<path style="fill:none;stroke:red;stroke-width:1px;stroke-linecap:butt;stroke-linejoin:miter;stroke-opacity:1" d="M 944.441,276.233 956.815,292.732 z" id="boundary" inkscape:connector-curvature="0" />
	<path style="fill:none;stroke:red;stroke-width:1px;stroke-linecap:butt;stroke-linejoin:miter;stroke-opacity:1" d="M 944.441,490.719 954.753,459.784 z" id="boundary" inkscape:connector-curvature="0" />
	<path style="fill:none;stroke:red;stroke-width:1px;stroke-linecap:butt;stroke-linejoin:miter;stroke-opacity:1" d="M 954.753,418.536 954.753,439.16 z" id="boundary" inkscape:connector-curvature="0" />
	<path style="fill:none;stroke:red;stroke-width:1px;stroke-linecap:butt;stroke-linejoin:miter;stroke-opacity:1" d="M 954.753,418.536 975.376,408.225 z" id="boundary" inkscape:connector-curvature="0" />
	<path style="fill:none;stroke:red;stroke-width:1px;stroke-linecap:butt;stroke-linejoin:miter;stroke-opacity:1" d="M 954.753,439.16 954.753,459.784 z" id="boundary" inkscape:connector-curvature="0" />
	<path style="fill:none;stroke:red;stroke-width:1px;stroke-linecap:butt;stroke-linejoin:miter;stroke-opacity:1" d="M 956.815,292.732 975.376,303.044 z" id="boundary" inkscape:connector-curvature="0" />
	<path style="fill:none;stroke:red;stroke-width:1px;stroke-linecap:butt;stroke-linejoin:miter;stroke-opacity:1" d="M 975.376,303.044 985.688,321.605 z" id="boundary" inkscape:connector-curvature="0" />
	<path style="fill:none;stroke:red;stroke-width:1px;stroke-linecap:butt;stroke-linejoin:miter;stroke-opacity:1" d="M 975.376,408.225 991.875,393.788 z" id="boundary" inkscape:connector-curvature="0" />
	<path style="fill:none;stroke:red;stroke-width:1px;stroke-linecap:butt;stroke-linejoin:miter;stroke-opacity:1" d="M 985.688,321.605 996,340.166 z" id="boundary" inkscape:connector-curvature="0" />
	<path style="fill:none;stroke:red;stroke-width:1px;stroke-linecap:butt;stroke-linejoin:miter;stroke-opacity:1" d="M 991.875,393.788 996,360.79 z" id="boundary" inkscape:connector-curvature="0" />
	<path style="fill:none;stroke:red;stroke-width:1px;stroke-linecap:butt;stroke-linejoin:miter;stroke-opacity:1" d="M 996,340.166 996,360.79 z" id="boundary" inkscape:connector-curvature="0" />
	<circle cx="4" cy="247.36" r="4" fill="#0" id="circle0"/>
	<circle cx="4" cy="267.983" r="4" fill="#0" id="circle1"/>
	<circle cx="14.3119" cy="226.736" r="4" fill="#0" id="circle2"/>
	<circle cx="14.3119" cy="286.545" r="4" fill="#0" id="circle3"/>
	<circle cx="24.6237" cy="305.106" r="4" fill="#0" id="circle4"/>
	<circle cx="30.8108" cy="210.237" r="4" fill="#0" id="circle5"/>
	<circle cx="34.9356" cy="185.489" r="4" fill="#0" id="circle6"/>
	<circle cx="45.2474" cy="164.865" r="4" fill="#0" id="circle7"/>
	<circle cx="45.2474" cy="305.106" r="4" fill="#0" id="circle8"/>
	<circle cx="65.8711" cy="154.553" r="4" fill="#0" id="circle9"/>
	<circle cx="65.8711" cy="305.106" r="4" fill="#0" id="circle10"/>
	<circle cx="86.4948" cy="148.366" r="4" fill="#0" id="circle11"/>
	<circle cx="86.4948" cy="305.106" r="4" fill="#0" id="circle12"/>
	<circle cx="86.4948" cy="402.037" r="4" fill="#0" id="circle13"/>
	<circle cx="86.4948" cy="422.661" r="4" fill="#0" id="circle14"/>
	<circle cx="96.8067" cy="381.414" r="4" fill="#0" id="circle15"/>
	<circle cx="96.8067" cy="441.222" r="4" fill="#0" id="circle16"/>
	<circle cx="96.8067" cy="461.846" r="4" fill="#0" id="circle17"/>
	<circle cx="96.8067" cy="482.47" r="4" fill="#0" id="circle18"/>
	<circle cx="107.119" cy="148.366" r="4" fill="#0" id="circle19"/>
	<circle cx="107.119" cy="305.106" r="4" fill="#0" id="circle20"/>
	<circle cx="107.119" cy="501.031" r="4" fill="#0" id="circle21"/>
	<circle cx="113.306" cy="521.655" r="4" fill="#0" id="circle22"/>
	<circle cx="117.43" cy="371.102" r="4" fill="#0" id="circle23"/>
	<circle cx="127.742" cy="148.366" r="4" fill="#0" id="circle24"/>
	<circle cx="127.742" cy="305.106" r="4" fill="#0" id="circle25"/>
	<circle cx="131.867" cy="531.967" r="4" fill="#0" id="circle26"/>
	<circle cx="138.054" cy="364.915" r="4" fill="#0" id="circle27"/>
	<circle cx="148.366" cy="148.366" r="4" fill="#0" id="circle28"/>
	<circle cx="148.366" cy="305.106" r="4" fill="#0" id="circle29"/>
	<circle cx="148.366" cy="515.468" r="4" fill="#0" id="circle30"/>
	<circle cx="158.678" cy="360.79" r="4" fill="#0" id="circle31"/>
	<circle cx="164.865" cy="501.031" r="4" fill="#0" id="circle32"/>
	<circle cx="168.99" cy="148.366" r="4" fill="#0" id="circle33"/>
	<circle cx="168.99" cy="305.106" r="4" fill="#0" id="circle34"/>
	<circle cx="179.301" cy="323.667" r="4" fill="#0" id="circle35"/>
	<circle cx="179.301" cy="344.291" r="4" fill="#0" id="circle36"/>
	<circle cx="185.489" cy="501.031" r="4" fill="#0" id="circle37"/>
	<circle cx="189.613" cy="148.366" r="4" fill="#0" id="circle38"/>
	<circle cx="204.05" cy="511.343" r="4" fill="#0" id="circle39"/>
	<circle cx="210.237" cy="148.366" r="4" fill="#0" id="circle40"/>
	<circle cx="224.674" cy="517.53" r="4" fill="#0" id="circle41"/>
	<circle cx="230.861" cy="148.366" r="4" fill="#0" id="circle42"/>
	<circle cx="243.235" cy="527.842" r="4" fill="#0" id="circle43"/>
	<circle cx="251.484" cy="148.366" r="4" fill="#0" id="circle44"/>
	<circle cx="263.859" cy="531.967" r="4" fill="#0" id="circle45"/>
	<circle cx="272.108" cy="148.366" r="4" fill="#0" id="circle46"/>
	<circle cx="284.482" cy="531.967" r="4" fill="#0" id="circle47"/>
	<circle cx="292.732" cy="148.366" r="4" fill="#0" id="circle48"/>
	<circle cx="303.044" cy="521.655" r="4" fill="#0" id="circle49"/>
	<circle cx="313.356" cy="148.366" r="4" fill="#0" id="circle50"/>
	<circle cx="319.543" cy="509.281" r="4" fill="#0" id="circle51"/>
	<circle cx="333.979" cy="148.366" r="4" fill="#0" id="circle52"/>
	<circle cx="340.166" cy="501.031" r="4" fill="#0" id="circle53"/>
	<circle cx="354.603" cy="144.241" r="4" fill="#0" id="circle54"/>
	<circle cx="360.79" cy="501.031" r="4" fill="#0" id="circle55"/>
	<circle cx="375.227" cy="138.054" r="4" fill="#0" id="circle56"/>
	<circle cx="381.414" cy="501.031" r="4" fill="#0" id="circle57"/>
	<circle cx="395.85" cy="138.054" r="4" fill="#0" id="circle58"/>
	<circle cx="402.037" cy="501.031" r="4" fill="#0" id="circle59"/>
	<circle cx="414.412" cy="127.742" r="4" fill="#0" id="circle60"/>
	<circle cx="422.661" cy="501.031" r="4" fill="#0" id="circle61"/>
	<circle cx="435.035" cy="127.742" r="4" fill="#0" id="circle62"/>
	<circle cx="439.16" cy="515.468" r="4" fill="#0" id="circle63"/>
	<circle cx="453.597" cy="531.967" r="4" fill="#0" id="circle64"/>
	<circle cx="455.659" cy="127.742" r="4" fill="#0" id="circle65"/>
	<circle cx="472.158" cy="542.279" r="4" fill="#0" id="circle66"/>
	<circle cx="474.22" cy="117.43" r="4" fill="#0" id="circle67"/>
	<circle cx="488.657" cy="61.7464" r="4" fill="#0" id="circle68"/>
	<circle cx="488.657" cy="82.3701" r="4" fill="#0" id="circle69"/>
	<circle cx="492.782" cy="542.279" r="4" fill="#0" id="circle70"/>
	<circle cx="498.969" cy="41.1227" r="4" fill="#0" id="circle71"/>
	<circle cx="513.405" cy="542.279" r="4" fill="#0" id="circle72"/>
	<circle cx="519.593" cy="30.8108" r="4" fill="#0" id="circle73"/>
	<circle cx="534.029" cy="542.279" r="4" fill="#0" id="circle74"/>
	<circle cx="540.216" cy="24.6237" r="4" fill="#0" id="circle75"/>
	<circle cx="554.653" cy="542.279" r="4" fill="#0" id="circle76"/>
	<circle cx="560.84" cy="24.6237" r="4" fill="#0" id="circle77"/>
	<circle cx="573.214" cy="531.967" r="4" fill="#0" id="circle78"/>
	<circle cx="581.464" cy="24.6237" r="4" fill="#0" id="circle79"/>
	<circle cx="593.838" cy="511.343" r="4" fill="#0" id="circle80"/>
	<circle cx="602.087" cy="24.6237" r="4" fill="#0" id="circle81"/>
	<circle cx="604.15" cy="490.719" r="4" fill="#0" id="circle82"/>
	<circle cx="622.711" cy="20.499" r="4" fill="#0" id="circle83"/>
	<circle cx="622.711" cy="480.407" r="4" fill="#0" id="circle84"/>
	<circle cx="643.335" cy="14.3119" r="4" fill="#0" id="circle85"/>
	<circle cx="643.335" cy="474.22" r="4" fill="#0" id="circle86"/>
	<circle cx="663.958" cy="14.3119" r="4" fill="#0" id="circle87"/>
	<circle cx="663.958" cy="470.096" r="4" fill="#0" id="circle88"/>
	<circle cx="684.582" cy="10.1871" r="4" fill="#0" id="circle89"/>
	<circle cx="684.582" cy="470.096" r="4" fill="#0" id="circle90"/>
	<circle cx="705.206" cy="4" r="4" fill="#0" id="circle91"/>
	<circle cx="705.206" cy="470.096" r="4" fill="#0" id="circle92"/>
	<circle cx="725.83" cy="4" r="4" fill="#0" id="circle93"/>
	<circle cx="725.83" cy="470.096" r="4" fill="#0" id="circle94"/>
	<circle cx="746.453" cy="4" r="4" fill="#0" id="circle95"/>
	<circle cx="746.453" cy="470.096" r="4" fill="#0" id="circle96"/>
	<circle cx="767.077" cy="4" r="4" fill="#0" id="circle97"/>
	<circle cx="767.077" cy="470.096" r="4" fill="#0" id="circle98"/>
	<circle cx="783.576" cy="16.3742" r="4" fill="#0" id="circle99"/>
	<circle cx="787.701" cy="470.096" r="4" fill="#0" id="circle100"/>
	<circle cx="800.075" cy="30.8108" r="4" fill="#0" id="circle101"/>
	<circle cx="800.075" cy="51.4345" r="4" fill="#0" id="circle102"/>
	<circle cx="800.075" cy="72.0582" r="4" fill="#0" id="circle103"/>
	<circle cx="800.075" cy="92.6819" r="4" fill="#0" id="circle104"/>
	<circle cx="800.075" cy="113.306" r="4" fill="#0" id="circle105"/>
	<circle cx="800.075" cy="133.929" r="4" fill="#0" id="circle106"/>
	<circle cx="808.324" cy="470.096" r="4" fill="#0" id="circle107"/>
	<circle cx="818.636" cy="144.241" r="4" fill="#0" id="circle108"/>
	<circle cx="828.948" cy="470.096" r="4" fill="#0" id="circle109"/>
	<circle cx="835.135" cy="158.678" r="4" fill="#0" id="circle110"/>
	<circle cx="839.26" cy="488.657" r="4" fill="#0" id="circle111"/>
	<circle cx="841.322" cy="179.301" r="4" fill="#0" id="circle112"/>
	<circle cx="841.322" cy="199.925" r="4" fill="#0" id="circle113"/>
	<circle cx="841.322" cy="220.549" r="4" fill="#0" id="circle114"/>
	<circle cx="851.634" cy="505.156" r="4" fill="#0" id="circle115"/>
	<circle cx="861.946" cy="226.736" r="4" fill="#0" id="circle116"/>
	<circle cx="866.071" cy="521.655" r="4" fill="#0" id="circle117"/>
	<circle cx="882.57" cy="230.861" r="4" fill="#0" id="circle118"/>
	<circle cx="886.694" cy="529.904" r="4" fill="#0" id="circle119"/>
	<circle cx="903.193" cy="230.861" r="4" fill="#0" id="circle120"/>
	<circle cx="907.318" cy="529.904" r="4" fill="#0" id="circle121"/>
	<circle cx="921.755" cy="241.173" r="4" fill="#0" id="circle122"/>
	<circle cx="927.942" cy="519.593" r="4" fill="#0" id="circle123"/>
	<circle cx="934.129" cy="257.672" r="4" fill="#0" id="circle124"/>
	<circle cx="944.441" cy="276.233" r="4" fill="#0" id="circle125"/>
	<circle cx="944.441" cy="490.719" r="4" fill="#0" id="circle126"/>
	<circle cx="954.753" cy="418.536" r="4" fill="#0" id="circle127"/>
	<circle cx="954.753" cy="439.16" r="4" fill="#0" id="circle128"/>
	<circle cx="954.753" cy="459.784" r="4" fill="#0" id="circle129"/>
	<circle cx="956.815" cy="292.732" r="4" fill="#0" id="circle130"/>
	<circle cx="975.376" cy="303.044" r="4" fill="#0" id="circle131"/>
	<circle cx="975.376" cy="408.225" r="4" fill="#0" id="circle132"/>
	<circle cx="985.688" cy="321.605" r="4" fill="#0" id="circle133"/>
	<circle cx="991.875" cy="393.788" r="4" fill="#0" id="circle134"/>
	<circle cx="996" cy="340.166" r="4" fill="#0" id="circle135"/>
	<circle cx="996" cy="360.79" r="4" fill="#0" id="circle136"/>
	</g>
</svg>