<?xml version="1.0" encoding="UTF-8" standalone="no"?>
<!-- Created with CurveBenchmark -->
<svg
	xmlns:dc="http://purl.org/dc/elements/1.1/"
	xmlns:cc="http://creativecommons.org/ns#"
	xmlns:rdf="http://www.w3.org/1999/02/22-rdf-syntax-ns#"
	xmlns:svg="http://www.w3.org/2000/svg"
	xmlns="http://www.w3.org/2000/svg"
	xmlns:sodipodi="http://sodipodi.sourceforge.net/DTD/sodipodi-0.dtd"
	xmlns:inkscape="http://www.inkscape.org/namespaces/inkscape"
	width="1000"
	height="1000"
	id="svg2"
	version="1.1"
	sodipodi:docname="manifold/hnncrust-bed170.png.txt">
<defs
	id="defs4" />
<metadata
	id="metadata7">
	<rdf:RDF>
		<cc:Work
			rdf:about="">
			<dc:format>image/svg+xml</dc:format>
			<dc:type
				rdf:resource="http://purl.org/dc/dcmitype/StillImage" />
			<dc:title></dc:title>
		</cc:Work>
	</rdf:RDF>
</metadata>
<g
	inkscape:label="Layer 1"
	inkscape:groupmode="layer"
	id="layer1">
	<path style="fill:none;stroke:red;stroke-width:1px;stroke-linecap:butt;stroke-linejoin:miter;stroke-opacity:1" d="M 4,173.42 4,195.712 z" id="boundary" inkscape:connector-curvature="0" />
	<path style="fill:none;stroke:red;stroke-width:1px;stroke-linecap:butt;stroke-linejoin:miter;stroke-opacity:1" d="M 4,173.42 15.1461,153.357 z" id="boundary" inkscape:connector-curvature="0" />
	<path style="fill:none;stroke:red;stroke-width:1px;stroke-linecap:butt;stroke-linejoin:miter;stroke-opacity:1" d="M 4,195.712 17.3753,213.546 z" id="boundary" inkscape:connector-curvature="0" />
	<path style="fill:none;stroke:red;stroke-width:1px;stroke-linecap:butt;stroke-linejoin:miter;stroke-opacity:1" d="M 8.45843,476.593 8.45843,498.885 z" id="boundary" inkscape:connector-curvature="0" />
	<path style="fill:none;stroke:red;stroke-width:1px;stroke-linecap:butt;stroke-linejoin:miter;stroke-opacity:1" d="M 8.45843,476.593 12.9169,445.384 z" id="boundary" inkscape:connector-curvature="0" />
	<path style="fill:none;stroke:red;stroke-width:1px;stroke-linecap:butt;stroke-linejoin:miter;stroke-opacity:1" d="M 8.45843,498.885 8.45843,521.178 z" id="boundary" inkscape:connector-curvature="0" />
	<path style="fill:none;stroke:red;stroke-width:1px;stroke-linecap:butt;stroke-linejoin:miter;stroke-opacity:1" d="M 8.45843,521.178 8.45843,543.47 z" id="boundary" inkscape:connector-curvature="0" />
	<path style="fill:none;stroke:red;stroke-width:1px;stroke-linecap:butt;stroke-linejoin:miter;stroke-opacity:1" d="M 8.45843,543.47 8.45843,565.762 z" id="boundary" inkscape:connector-curvature="0" />
	<path style="fill:none;stroke:red;stroke-width:1px;stroke-linecap:butt;stroke-linejoin:miter;stroke-opacity:1" d="M 8.45843,565.762 8.45843,588.054 z" id="boundary" inkscape:connector-curvature="0" />
	<path style="fill:none;stroke:red;stroke-width:1px;stroke-linecap:butt;stroke-linejoin:miter;stroke-opacity:1" d="M 8.45843,588.054 8.45843,610.346 z" id="boundary" inkscape:connector-curvature="0" />
	<path style="fill:none;stroke:red;stroke-width:1px;stroke-linecap:butt;stroke-linejoin:miter;stroke-opacity:1" d="M 8.45843,610.346 8.45843,632.638 z" id="boundary" inkscape:connector-curvature="0" />
	<path style="fill:none;stroke:red;stroke-width:1px;stroke-linecap:butt;stroke-linejoin:miter;stroke-opacity:1" d="M 8.45843,632.638 8.45843,654.93 z" id="boundary" inkscape:connector-curvature="0" />
	<path style="fill:none;stroke:red;stroke-width:1px;stroke-linecap:butt;stroke-linejoin:miter;stroke-opacity:1" d="M 8.45843,654.93 12.9169,677.222 z" id="boundary" inkscape:connector-curvature="0" />
	<path style="fill:none;stroke:red;stroke-width:1px;stroke-linecap:butt;stroke-linejoin:miter;stroke-opacity:1" d="M 12.9169,423.092 12.9169,445.384 z" id="boundary" inkscape:connector-curvature="0" />
	<path style="fill:none;stroke:red;stroke-width:1px;stroke-linecap:butt;stroke-linejoin:miter;stroke-opacity:1" d="M 12.9169,423.092 17.3753,396.342 z" id="boundary" inkscape:connector-curvature="0" />
	<path style="fill:none;stroke:red;stroke-width:1px;stroke-linecap:butt;stroke-linejoin:miter;stroke-opacity:1" d="M 12.9169,677.222 32.9798,688.369 z" id="boundary" inkscape:connector-curvature="0" />
	<path style="fill:none;stroke:red;stroke-width:1px;stroke-linecap:butt;stroke-linejoin:miter;stroke-opacity:1" d="M 15.1461,153.357 35.209,142.211 z" id="boundary" inkscape:connector-curvature="0" />
	<path style="fill:none;stroke:red;stroke-width:1px;stroke-linecap:butt;stroke-linejoin:miter;stroke-opacity:1" d="M 17.3753,213.546 21.8337,235.838 z" id="boundary" inkscape:connector-curvature="0" />
	<path style="fill:none;stroke:red;stroke-width:1px;stroke-linecap:butt;stroke-linejoin:miter;stroke-opacity:1" d="M 17.3753,396.342 21.8337,360.674 z" id="boundary" inkscape:connector-curvature="0" />
	<path style="fill:none;stroke:red;stroke-width:1px;stroke-linecap:butt;stroke-linejoin:miter;stroke-opacity:1" d="M 21.8337,235.838 26.2921,258.13 z" id="boundary" inkscape:connector-curvature="0" />
	<path style="fill:none;stroke:red;stroke-width:1px;stroke-linecap:butt;stroke-linejoin:miter;stroke-opacity:1" d="M 21.8337,360.674 26.2921,325.007 z" id="boundary" inkscape:connector-curvature="0" />
	<path style="fill:none;stroke:red;stroke-width:1px;stroke-linecap:butt;stroke-linejoin:miter;stroke-opacity:1" d="M 26.2921,258.13 26.2921,280.422 z" id="boundary" inkscape:connector-curvature="0" />
	<path style="fill:none;stroke:red;stroke-width:1px;stroke-linecap:butt;stroke-linejoin:miter;stroke-opacity:1" d="M 26.2921,280.422 26.2921,302.715 z" id="boundary" inkscape:connector-curvature="0" />
	<path style="fill:none;stroke:red;stroke-width:1px;stroke-linecap:butt;stroke-linejoin:miter;stroke-opacity:1" d="M 26.2921,302.715 26.2921,325.007 z" id="boundary" inkscape:connector-curvature="0" />
	<path style="fill:none;stroke:red;stroke-width:1px;stroke-linecap:butt;stroke-linejoin:miter;stroke-opacity:1" d="M 32.9798,688.369 37.4382,659.389 z" id="boundary" inkscape:connector-curvature="0" />
	<path style="fill:none;stroke:red;stroke-width:1px;stroke-linecap:butt;stroke-linejoin:miter;stroke-opacity:1" d="M 35.209,142.211 57.5011,133.294 z" id="boundary" inkscape:connector-curvature="0" />
	<path style="fill:none;stroke:red;stroke-width:1px;stroke-linecap:butt;stroke-linejoin:miter;stroke-opacity:1" d="M 41.8966,601.429 41.8966,623.721 z" id="boundary" inkscape:connector-curvature="0" />
	<path style="fill:none;stroke:red;stroke-width:1px;stroke-linecap:butt;stroke-linejoin:miter;stroke-opacity:1" d="M 41.8966,601.429 64.1888,599.2 z" id="boundary" inkscape:connector-curvature="0" />
	<path style="fill:none;stroke:red;stroke-width:1px;stroke-linecap:butt;stroke-linejoin:miter;stroke-opacity:1" d="M 57.5011,133.294 79.7933,124.378 z" id="boundary" inkscape:connector-curvature="0" />
	<path style="fill:none;stroke:red;stroke-width:1px;stroke-linecap:butt;stroke-linejoin:miter;stroke-opacity:1" d="M 64.1888,599.2 86.4809,599.2 z" id="boundary" inkscape:connector-curvature="0" />
	<path style="fill:none;stroke:red;stroke-width:1px;stroke-linecap:butt;stroke-linejoin:miter;stroke-opacity:1" d="M 79.7933,124.378 102.085,119.919 z" id="boundary" inkscape:connector-curvature="0" />
	<path style="fill:none;stroke:red;stroke-width:1px;stroke-linecap:butt;stroke-linejoin:miter;stroke-opacity:1" d="M 86.4809,599.2 108.773,599.2 z" id="boundary" inkscape:connector-curvature="0" />
	<path style="fill:none;stroke:red;stroke-width:1px;stroke-linecap:butt;stroke-linejoin:miter;stroke-opacity:1" d="M 102.085,119.919 124.378,111.002 z" id="boundary" inkscape:connector-curvature="0" />
	<path style="fill:none;stroke:red;stroke-width:1px;stroke-linecap:butt;stroke-linejoin:miter;stroke-opacity:1" d="M 108.773,599.2 131.065,599.2 z" id="boundary" inkscape:connector-curvature="0" />
	<path style="fill:none;stroke:red;stroke-width:1px;stroke-linecap:butt;stroke-linejoin:miter;stroke-opacity:1" d="M 124.378,111.002 146.67,106.544 z" id="boundary" inkscape:connector-curvature="0" />
	<path style="fill:none;stroke:red;stroke-width:1px;stroke-linecap:butt;stroke-linejoin:miter;stroke-opacity:1" d="M 131.065,599.2 146.67,617.034 z" id="boundary" inkscape:connector-curvature="0" />
	<path style="fill:none;stroke:red;stroke-width:1px;stroke-linecap:butt;stroke-linejoin:miter;stroke-opacity:1" d="M 146.67,106.544 168.962,102.085 z" id="boundary" inkscape:connector-curvature="0" />
	<path style="fill:none;stroke:red;stroke-width:1px;stroke-linecap:butt;stroke-linejoin:miter;stroke-opacity:1" d="M 146.67,617.034 146.67,639.326 z" id="boundary" inkscape:connector-curvature="0" />
	<path style="fill:none;stroke:red;stroke-width:1px;stroke-linecap:butt;stroke-linejoin:miter;stroke-opacity:1" d="M 146.67,639.326 146.67,677.222 z" id="boundary" inkscape:connector-curvature="0" />
	<path style="fill:none;stroke:red;stroke-width:1px;stroke-linecap:butt;stroke-linejoin:miter;stroke-opacity:1" d="M 146.67,677.222 164.503,692.827 z" id="boundary" inkscape:connector-curvature="0" />
	<path style="fill:none;stroke:red;stroke-width:1px;stroke-linecap:butt;stroke-linejoin:miter;stroke-opacity:1" d="M 164.503,692.827 180.108,668.306 z" id="boundary" inkscape:connector-curvature="0" />
	<path style="fill:none;stroke:red;stroke-width:1px;stroke-linecap:butt;stroke-linejoin:miter;stroke-opacity:1" d="M 168.962,102.085 191.254,97.627 z" id="boundary" inkscape:connector-curvature="0" />
	<path style="fill:none;stroke:red;stroke-width:1px;stroke-linecap:butt;stroke-linejoin:miter;stroke-opacity:1" d="M 180.108,668.306 184.566,632.638 z" id="boundary" inkscape:connector-curvature="0" />
	<path style="fill:none;stroke:red;stroke-width:1px;stroke-linecap:butt;stroke-linejoin:miter;stroke-opacity:1" d="M 184.566,632.638 195.712,612.575 z" id="boundary" inkscape:connector-curvature="0" />
	<path style="fill:none;stroke:red;stroke-width:1px;stroke-linecap:butt;stroke-linejoin:miter;stroke-opacity:1" d="M 191.254,97.627 213.546,93.1685 z" id="boundary" inkscape:connector-curvature="0" />
	<path style="fill:none;stroke:red;stroke-width:1px;stroke-linecap:butt;stroke-linejoin:miter;stroke-opacity:1" d="M 195.712,612.575 218.004,612.575 z" id="boundary" inkscape:connector-curvature="0" />
	<path style="fill:none;stroke:red;stroke-width:1px;stroke-linecap:butt;stroke-linejoin:miter;stroke-opacity:1" d="M 213.546,93.1685 235.838,88.7101 z" id="boundary" inkscape:connector-curvature="0" />
	<path style="fill:none;stroke:red;stroke-width:1px;stroke-linecap:butt;stroke-linejoin:miter;stroke-opacity:1" d="M 218.004,612.575 240.297,612.575 z" id="boundary" inkscape:connector-curvature="0" />
	<path style="fill:none;stroke:red;stroke-width:1px;stroke-linecap:butt;stroke-linejoin:miter;stroke-opacity:1" d="M 235.838,88.7101 258.13,84.2517 z" id="boundary" inkscape:connector-curvature="0" />
	<path style="fill:none;stroke:red;stroke-width:1px;stroke-linecap:butt;stroke-linejoin:miter;stroke-opacity:1" d="M 240.297,612.575 262.589,617.034 z" id="boundary" inkscape:connector-curvature="0" />
	<path style="fill:none;stroke:red;stroke-width:1px;stroke-linecap:butt;stroke-linejoin:miter;stroke-opacity:1" d="M 258.13,84.2517 271.506,66.418 z" id="boundary" inkscape:connector-curvature="0" />
	<path style="fill:none;stroke:red;stroke-width:1px;stroke-linecap:butt;stroke-linejoin:miter;stroke-opacity:1" d="M 262.589,617.034 284.881,621.492 z" id="boundary" inkscape:connector-curvature="0" />
	<path style="fill:none;stroke:red;stroke-width:1px;stroke-linecap:butt;stroke-linejoin:miter;stroke-opacity:1" d="M 271.506,66.418 293.798,57.5011 z" id="boundary" inkscape:connector-curvature="0" />
	<path style="fill:none;stroke:red;stroke-width:1px;stroke-linecap:butt;stroke-linejoin:miter;stroke-opacity:1" d="M 284.881,621.492 307.173,630.409 z" id="boundary" inkscape:connector-curvature="0" />
	<path style="fill:none;stroke:red;stroke-width:1px;stroke-linecap:butt;stroke-linejoin:miter;stroke-opacity:1" d="M 293.798,57.5011 316.09,48.5843 z" id="boundary" inkscape:connector-curvature="0" />
	<path style="fill:none;stroke:red;stroke-width:1px;stroke-linecap:butt;stroke-linejoin:miter;stroke-opacity:1" d="M 307.173,630.409 325.007,617.034 z" id="boundary" inkscape:connector-curvature="0" />
	<path style="fill:none;stroke:red;stroke-width:1px;stroke-linecap:butt;stroke-linejoin:miter;stroke-opacity:1" d="M 316.09,48.5843 338.382,39.6674 z" id="boundary" inkscape:connector-curvature="0" />
	<path style="fill:none;stroke:red;stroke-width:1px;stroke-linecap:butt;stroke-linejoin:miter;stroke-opacity:1" d="M 325.007,617.034 347.299,608.117 z" id="boundary" inkscape:connector-curvature="0" />
	<path style="fill:none;stroke:red;stroke-width:1px;stroke-linecap:butt;stroke-linejoin:miter;stroke-opacity:1" d="M 338.382,39.6674 356.216,21.8337 z" id="boundary" inkscape:connector-curvature="0" />
	<path style="fill:none;stroke:red;stroke-width:1px;stroke-linecap:butt;stroke-linejoin:miter;stroke-opacity:1" d="M 347.299,608.117 369.591,603.658 z" id="boundary" inkscape:connector-curvature="0" />
	<path style="fill:none;stroke:red;stroke-width:1px;stroke-linecap:butt;stroke-linejoin:miter;stroke-opacity:1" d="M 356.216,21.8337 374.049,4 z" id="boundary" inkscape:connector-curvature="0" />
	<path style="fill:none;stroke:red;stroke-width:1px;stroke-linecap:butt;stroke-linejoin:miter;stroke-opacity:1" d="M 369.591,603.658 391.883,608.117 z" id="boundary" inkscape:connector-curvature="0" />
	<path style="fill:none;stroke:red;stroke-width:1px;stroke-linecap:butt;stroke-linejoin:miter;stroke-opacity:1" d="M 374.049,4 396.342,6.22921 z" id="boundary" inkscape:connector-curvature="0" />
	<path style="fill:none;stroke:red;stroke-width:1px;stroke-linecap:butt;stroke-linejoin:miter;stroke-opacity:1" d="M 391.883,608.117 414.175,614.804 z" id="boundary" inkscape:connector-curvature="0" />
	<path style="fill:none;stroke:red;stroke-width:1px;stroke-linecap:butt;stroke-linejoin:miter;stroke-opacity:1" d="M 396.342,6.22921 411.946,24.0629 z" id="boundary" inkscape:connector-curvature="0" />
	<path style="fill:none;stroke:red;stroke-width:1px;stroke-linecap:butt;stroke-linejoin:miter;stroke-opacity:1" d="M 411.946,24.0629 425.321,41.8966 z" id="boundary" inkscape:connector-curvature="0" />
	<path style="fill:none;stroke:red;stroke-width:1px;stroke-linecap:butt;stroke-linejoin:miter;stroke-opacity:1" d="M 414.175,614.804 436.467,621.492 z" id="boundary" inkscape:connector-curvature="0" />
	<path style="fill:none;stroke:red;stroke-width:1px;stroke-linecap:butt;stroke-linejoin:miter;stroke-opacity:1" d="M 425.321,41.8966 447.613,48.5843 z" id="boundary" inkscape:connector-curvature="0" />
	<path style="fill:none;stroke:red;stroke-width:1px;stroke-linecap:butt;stroke-linejoin:miter;stroke-opacity:1" d="M 436.467,621.492 458.76,630.409 z" id="boundary" inkscape:connector-curvature="0" />
	<path style="fill:none;stroke:red;stroke-width:1px;stroke-linecap:butt;stroke-linejoin:miter;stroke-opacity:1" d="M 447.613,48.5843 469.906,57.5011 z" id="boundary" inkscape:connector-curvature="0" />
	<path style="fill:none;stroke:red;stroke-width:1px;stroke-linecap:butt;stroke-linejoin:miter;stroke-opacity:1" d="M 458.76,630.409 481.052,639.326 z" id="boundary" inkscape:connector-curvature="0" />
	<path style="fill:none;stroke:red;stroke-width:1px;stroke-linecap:butt;stroke-linejoin:miter;stroke-opacity:1" d="M 469.906,57.5011 492.198,66.418 z" id="boundary" inkscape:connector-curvature="0" />
	<path style="fill:none;stroke:red;stroke-width:1px;stroke-linecap:butt;stroke-linejoin:miter;stroke-opacity:1" d="M 481.052,639.326 503.344,646.013 z" id="boundary" inkscape:connector-curvature="0" />
	<path style="fill:none;stroke:red;stroke-width:1px;stroke-linecap:butt;stroke-linejoin:miter;stroke-opacity:1" d="M 492.198,66.418 505.573,84.2517 z" id="boundary" inkscape:connector-curvature="0" />
	<path style="fill:none;stroke:red;stroke-width:1px;stroke-linecap:butt;stroke-linejoin:miter;stroke-opacity:1" d="M 503.344,646.013 525.636,650.472 z" id="boundary" inkscape:connector-curvature="0" />
	<path style="fill:none;stroke:red;stroke-width:1px;stroke-linecap:butt;stroke-linejoin:miter;stroke-opacity:1" d="M 505.573,84.2517 527.865,88.7101 z" id="boundary" inkscape:connector-curvature="0" />
	<path style="fill:none;stroke:red;stroke-width:1px;stroke-linecap:butt;stroke-linejoin:miter;stroke-opacity:1" d="M 525.636,650.472 547.928,652.701 z" id="boundary" inkscape:connector-curvature="0" />
	<path style="fill:none;stroke:red;stroke-width:1px;stroke-linecap:butt;stroke-linejoin:miter;stroke-opacity:1" d="M 527.865,88.7101 550.157,93.1685 z" id="boundary" inkscape:connector-curvature="0" />
	<path style="fill:none;stroke:red;stroke-width:1px;stroke-linecap:butt;stroke-linejoin:miter;stroke-opacity:1" d="M 547.928,652.701 570.22,652.701 z" id="boundary" inkscape:connector-curvature="0" />
	<path style="fill:none;stroke:red;stroke-width:1px;stroke-linecap:butt;stroke-linejoin:miter;stroke-opacity:1" d="M 550.157,93.1685 572.449,97.627 z" id="boundary" inkscape:connector-curvature="0" />
	<path style="fill:none;stroke:red;stroke-width:1px;stroke-linecap:butt;stroke-linejoin:miter;stroke-opacity:1" d="M 570.22,652.701 592.512,652.701 z" id="boundary" inkscape:connector-curvature="0" />
	<path style="fill:none;stroke:red;stroke-width:1px;stroke-linecap:butt;stroke-linejoin:miter;stroke-opacity:1" d="M 572.449,97.627 594.742,102.085 z" id="boundary" inkscape:connector-curvature="0" />
	<path style="fill:none;stroke:red;stroke-width:1px;stroke-linecap:butt;stroke-linejoin:miter;stroke-opacity:1" d="M 592.512,652.701 614.804,648.243 z" id="boundary" inkscape:connector-curvature="0" />
	<path style="fill:none;stroke:red;stroke-width:1px;stroke-linecap:butt;stroke-linejoin:miter;stroke-opacity:1" d="M 594.742,102.085 617.034,106.544 z" id="boundary" inkscape:connector-curvature="0" />
	<path style="fill:none;stroke:red;stroke-width:1px;stroke-linecap:butt;stroke-linejoin:miter;stroke-opacity:1" d="M 614.804,648.243 637.097,639.326 z" id="boundary" inkscape:connector-curvature="0" />
	<path style="fill:none;stroke:red;stroke-width:1px;stroke-linecap:butt;stroke-linejoin:miter;stroke-opacity:1" d="M 617.034,106.544 639.326,111.002 z" id="boundary" inkscape:connector-curvature="0" />
	<path style="fill:none;stroke:red;stroke-width:1px;stroke-linecap:butt;stroke-linejoin:miter;stroke-opacity:1" d="M 637.097,639.326 659.389,630.409 z" id="boundary" inkscape:connector-curvature="0" />
	<path style="fill:none;stroke:red;stroke-width:1px;stroke-linecap:butt;stroke-linejoin:miter;stroke-opacity:1" d="M 639.326,111.002 661.618,115.461 z" id="boundary" inkscape:connector-curvature="0" />
	<path style="fill:none;stroke:red;stroke-width:1px;stroke-linecap:butt;stroke-linejoin:miter;stroke-opacity:1" d="M 659.389,630.409 681.681,625.951 z" id="boundary" inkscape:connector-curvature="0" />
	<path style="fill:none;stroke:red;stroke-width:1px;stroke-linecap:butt;stroke-linejoin:miter;stroke-opacity:1" d="M 661.618,115.461 683.91,119.919 z" id="boundary" inkscape:connector-curvature="0" />
	<path style="fill:none;stroke:red;stroke-width:1px;stroke-linecap:butt;stroke-linejoin:miter;stroke-opacity:1" d="M 681.681,625.951 703.973,617.034 z" id="boundary" inkscape:connector-curvature="0" />
	<path style="fill:none;stroke:red;stroke-width:1px;stroke-linecap:butt;stroke-linejoin:miter;stroke-opacity:1" d="M 683.91,119.919 706.202,128.836 z" id="boundary" inkscape:connector-curvature="0" />
	<path style="fill:none;stroke:red;stroke-width:1px;stroke-linecap:butt;stroke-linejoin:miter;stroke-opacity:1" d="M 703.973,617.034 724.036,628.18 z" id="boundary" inkscape:connector-curvature="0" />
	<path style="fill:none;stroke:red;stroke-width:1px;stroke-linecap:butt;stroke-linejoin:miter;stroke-opacity:1" d="M 706.202,128.836 728.494,137.753 z" id="boundary" inkscape:connector-curvature="0" />
	<path style="fill:none;stroke:red;stroke-width:1px;stroke-linecap:butt;stroke-linejoin:miter;stroke-opacity:1" d="M 724.036,628.18 726.265,650.472 z" id="boundary" inkscape:connector-curvature="0" />
	<path style="fill:none;stroke:red;stroke-width:1px;stroke-linecap:butt;stroke-linejoin:miter;stroke-opacity:1" d="M 726.265,650.472 726.265,672.764 z" id="boundary" inkscape:connector-curvature="0" />
	<path style="fill:none;stroke:red;stroke-width:1px;stroke-linecap:butt;stroke-linejoin:miter;stroke-opacity:1" d="M 726.265,672.764 744.099,688.369 z" id="boundary" inkscape:connector-curvature="0" />
	<path style="fill:none;stroke:red;stroke-width:1px;stroke-linecap:butt;stroke-linejoin:miter;stroke-opacity:1" d="M 728.494,137.753 746.328,151.128 z" id="boundary" inkscape:connector-curvature="0" />
	<path style="fill:none;stroke:red;stroke-width:1px;stroke-linecap:butt;stroke-linejoin:miter;stroke-opacity:1" d="M 737.411,258.13 737.411,280.422 z" id="boundary" inkscape:connector-curvature="0" />
	<path style="fill:none;stroke:red;stroke-width:1px;stroke-linecap:butt;stroke-linejoin:miter;stroke-opacity:1" d="M 737.411,258.13 741.87,218.004 z" id="boundary" inkscape:connector-curvature="0" />
	<path style="fill:none;stroke:red;stroke-width:1px;stroke-linecap:butt;stroke-linejoin:miter;stroke-opacity:1" d="M 737.411,280.422 737.411,302.715 z" id="boundary" inkscape:connector-curvature="0" />
	<path style="fill:none;stroke:red;stroke-width:1px;stroke-linecap:butt;stroke-linejoin:miter;stroke-opacity:1" d="M 737.411,302.715 737.411,325.007 z" id="boundary" inkscape:connector-curvature="0" />
	<path style="fill:none;stroke:red;stroke-width:1px;stroke-linecap:butt;stroke-linejoin:miter;stroke-opacity:1" d="M 737.411,325.007 737.411,347.299 z" id="boundary" inkscape:connector-curvature="0" />
	<path style="fill:none;stroke:red;stroke-width:1px;stroke-linecap:butt;stroke-linejoin:miter;stroke-opacity:1" d="M 737.411,347.299 759.703,356.216 z" id="boundary" inkscape:connector-curvature="0" />
	<path style="fill:none;stroke:red;stroke-width:1px;stroke-linecap:butt;stroke-linejoin:miter;stroke-opacity:1" d="M 741.87,218.004 759.703,200.171 z" id="boundary" inkscape:connector-curvature="0" />
	<path style="fill:none;stroke:red;stroke-width:1px;stroke-linecap:butt;stroke-linejoin:miter;stroke-opacity:1" d="M 744.099,688.369 753.016,661.618 z" id="boundary" inkscape:connector-curvature="0" />
	<path style="fill:none;stroke:red;stroke-width:1px;stroke-linecap:butt;stroke-linejoin:miter;stroke-opacity:1" d="M 746.328,151.128 761.933,168.962 z" id="boundary" inkscape:connector-curvature="0" />
	<path style="fill:none;stroke:red;stroke-width:1px;stroke-linecap:butt;stroke-linejoin:miter;stroke-opacity:1" d="M 755.245,605.888 759.703,628.18 z" id="boundary" inkscape:connector-curvature="0" />
	<path style="fill:none;stroke:red;stroke-width:1px;stroke-linecap:butt;stroke-linejoin:miter;stroke-opacity:1" d="M 755.245,605.888 777.537,608.117 z" id="boundary" inkscape:connector-curvature="0" />
	<path style="fill:none;stroke:red;stroke-width:1px;stroke-linecap:butt;stroke-linejoin:miter;stroke-opacity:1" d="M 759.703,200.171 761.933,168.962 z" id="boundary" inkscape:connector-curvature="0" />
	<path style="fill:none;stroke:red;stroke-width:1px;stroke-linecap:butt;stroke-linejoin:miter;stroke-opacity:1" d="M 759.703,356.216 781.996,360.674 z" id="boundary" inkscape:connector-curvature="0" />
	<path style="fill:none;stroke:red;stroke-width:1px;stroke-linecap:butt;stroke-linejoin:miter;stroke-opacity:1" d="M 777.537,608.117 797.6,619.263 z" id="boundary" inkscape:connector-curvature="0" />
	<path style="fill:none;stroke:red;stroke-width:1px;stroke-linecap:butt;stroke-linejoin:miter;stroke-opacity:1" d="M 781.996,360.674 804.288,365.133 z" id="boundary" inkscape:connector-curvature="0" />
	<path style="fill:none;stroke:red;stroke-width:1px;stroke-linecap:butt;stroke-linejoin:miter;stroke-opacity:1" d="M 797.6,619.263 817.663,630.409 z" id="boundary" inkscape:connector-curvature="0" />
	<path style="fill:none;stroke:red;stroke-width:1px;stroke-linecap:butt;stroke-linejoin:miter;stroke-opacity:1" d="M 804.288,365.133 826.58,367.362 z" id="boundary" inkscape:connector-curvature="0" />
	<path style="fill:none;stroke:red;stroke-width:1px;stroke-linecap:butt;stroke-linejoin:miter;stroke-opacity:1" d="M 817.663,630.409 839.955,621.492 z" id="boundary" inkscape:connector-curvature="0" />
	<path style="fill:none;stroke:red;stroke-width:1px;stroke-linecap:butt;stroke-linejoin:miter;stroke-opacity:1" d="M 826.58,367.362 848.872,369.591 z" id="boundary" inkscape:connector-curvature="0" />
	<path style="fill:none;stroke:red;stroke-width:1px;stroke-linecap:butt;stroke-linejoin:miter;stroke-opacity:1" d="M 839.955,621.492 862.247,617.034 z" id="boundary" inkscape:connector-curvature="0" />
	<path style="fill:none;stroke:red;stroke-width:1px;stroke-linecap:butt;stroke-linejoin:miter;stroke-opacity:1" d="M 848.872,369.591 871.164,374.049 z" id="boundary" inkscape:connector-curvature="0" />
	<path style="fill:none;stroke:red;stroke-width:1px;stroke-linecap:butt;stroke-linejoin:miter;stroke-opacity:1" d="M 862.247,617.034 884.539,612.575 z" id="boundary" inkscape:connector-curvature="0" />
	<path style="fill:none;stroke:red;stroke-width:1px;stroke-linecap:butt;stroke-linejoin:miter;stroke-opacity:1" d="M 871.164,374.049 893.456,378.508 z" id="boundary" inkscape:connector-curvature="0" />
	<path style="fill:none;stroke:red;stroke-width:1px;stroke-linecap:butt;stroke-linejoin:miter;stroke-opacity:1" d="M 884.539,612.575 906.831,612.575 z" id="boundary" inkscape:connector-curvature="0" />
	<path style="fill:none;stroke:red;stroke-width:1px;stroke-linecap:butt;stroke-linejoin:miter;stroke-opacity:1" d="M 893.456,378.508 915.748,382.966 z" id="boundary" inkscape:connector-curvature="0" />
	<path style="fill:none;stroke:red;stroke-width:1px;stroke-linecap:butt;stroke-linejoin:miter;stroke-opacity:1" d="M 906.831,612.575 929.124,612.575 z" id="boundary" inkscape:connector-curvature="0" />
	<path style="fill:none;stroke:red;stroke-width:1px;stroke-linecap:butt;stroke-linejoin:miter;stroke-opacity:1" d="M 915.748,382.966 938.04,391.883 z" id="boundary" inkscape:connector-curvature="0" />
	<path style="fill:none;stroke:red;stroke-width:1px;stroke-linecap:butt;stroke-linejoin:miter;stroke-opacity:1" d="M 929.124,612.575 946.957,625.951 z" id="boundary" inkscape:connector-curvature="0" />
	<path style="fill:none;stroke:red;stroke-width:1px;stroke-linecap:butt;stroke-linejoin:miter;stroke-opacity:1" d="M 938.04,391.883 960.333,396.342 z" id="boundary" inkscape:connector-curvature="0" />
	<path style="fill:none;stroke:red;stroke-width:1px;stroke-linecap:butt;stroke-linejoin:miter;stroke-opacity:1" d="M 946.957,625.951 949.187,648.243 z" id="boundary" inkscape:connector-curvature="0" />
	<path style="fill:none;stroke:red;stroke-width:1px;stroke-linecap:butt;stroke-linejoin:miter;stroke-opacity:1" d="M 949.187,648.243 949.187,670.535 z" id="boundary" inkscape:connector-curvature="0" />
	<path style="fill:none;stroke:red;stroke-width:1px;stroke-linecap:butt;stroke-linejoin:miter;stroke-opacity:1" d="M 949.187,670.535 960.333,690.598 z" id="boundary" inkscape:connector-curvature="0" />
	<path style="fill:none;stroke:red;stroke-width:1px;stroke-linecap:butt;stroke-linejoin:miter;stroke-opacity:1" d="M 960.333,396.342 978.166,409.717 z" id="boundary" inkscape:connector-curvature="0" />
	<path style="fill:none;stroke:red;stroke-width:1px;stroke-linecap:butt;stroke-linejoin:miter;stroke-opacity:1" d="M 960.333,690.598 982.625,681.681 z" id="boundary" inkscape:connector-curvature="0" />
	<path style="fill:none;stroke:red;stroke-width:1px;stroke-linecap:butt;stroke-linejoin:miter;stroke-opacity:1" d="M 969.249,534.553 969.249,556.845 z" id="boundary" inkscape:connector-curvature="0" />
	<path style="fill:none;stroke:red;stroke-width:1px;stroke-linecap:butt;stroke-linejoin:miter;stroke-opacity:1" d="M 969.249,534.553 973.708,498.885 z" id="boundary" inkscape:connector-curvature="0" />
	<path style="fill:none;stroke:red;stroke-width:1px;stroke-linecap:butt;stroke-linejoin:miter;stroke-opacity:1" d="M 969.249,556.845 969.249,579.137 z" id="boundary" inkscape:connector-curvature="0" />
	<path style="fill:none;stroke:red;stroke-width:1px;stroke-linecap:butt;stroke-linejoin:miter;stroke-opacity:1" d="M 969.249,579.137 973.708,601.429 z" id="boundary" inkscape:connector-curvature="0" />
	<path style="fill:none;stroke:red;stroke-width:1px;stroke-linecap:butt;stroke-linejoin:miter;stroke-opacity:1" d="M 973.708,476.593 973.708,498.885 z" id="boundary" inkscape:connector-curvature="0" />
	<path style="fill:none;stroke:red;stroke-width:1px;stroke-linecap:butt;stroke-linejoin:miter;stroke-opacity:1" d="M 973.708,476.593 991.542,458.76 z" id="boundary" inkscape:connector-curvature="0" />
	<path style="fill:none;stroke:red;stroke-width:1px;stroke-linecap:butt;stroke-linejoin:miter;stroke-opacity:1" d="M 973.708,601.429 978.166,623.721 z" id="boundary" inkscape:connector-curvature="0" />
	<path style="fill:none;stroke:red;stroke-width:1px;stroke-linecap:butt;stroke-linejoin:miter;stroke-opacity:1" d="M 973.708,659.389 982.625,681.681 z" id="boundary" inkscape:connector-curvature="0" />
	<path style="fill:none;stroke:red;stroke-width:1px;stroke-linecap:butt;stroke-linejoin:miter;stroke-opacity:1" d="M 978.166,409.717 996,423.092 z" id="boundary" inkscape:connector-curvature="0" />
	<path style="fill:none;stroke:red;stroke-width:1px;stroke-linecap:butt;stroke-linejoin:miter;stroke-opacity:1" d="M 991.542,458.76 996,423.092 z" id="boundary" inkscape:connector-curvature="0" />
	<circle cx="4" cy="173.42" r="4" fill="#0" id="circle0"/>
	<circle cx="4" cy="195.712" r="4" fill="#0" id="circle1"/>
	<circle cx="8.45843" cy="476.593" r="4" fill="#0" id="circle2"/>
	<circle cx="8.45843" cy="498.885" r="4" fill="#0" id="circle3"/>
	<circle cx="8.45843" cy="521.178" r="4" fill="#0" id="circle4"/>
	<circle cx="8.45843" cy="543.47" r="4" fill="#0" id="circle5"/>
	<circle cx="8.45843" cy="565.762" r="4" fill="#0" id="circle6"/>
	<circle cx="8.45843" cy="588.054" r="4" fill="#0" id="circle7"/>
	<circle cx="8.45843" cy="610.346" r="4" fill="#0" id="circle8"/>
	<circle cx="8.45843" cy="632.638" r="4" fill="#0" id="circle9"/>
	<circle cx="8.45843" cy="654.93" r="4" fill="#0" id="circle10"/>
	<circle cx="12.9169" cy="423.092" r="4" fill="#0" id="circle11"/>
	<circle cx="12.9169" cy="445.384" r="4" fill="#0" id="circle12"/>
	<circle cx="12.9169" cy="677.222" r="4" fill="#0" id="circle13"/>
	<circle cx="15.1461" cy="153.357" r="4" fill="#0" id="circle14"/>
	<circle cx="17.3753" cy="213.546" r="4" fill="#0" id="circle15"/>
	<circle cx="17.3753" cy="396.342" r="4" fill="#0" id="circle16"/>
	<circle cx="21.8337" cy="235.838" r="4" fill="#0" id="circle17"/>
	<circle cx="21.8337" cy="360.674" r="4" fill="#0" id="circle18"/>
	<circle cx="26.2921" cy="258.13" r="4" fill="#0" id="circle19"/>
	<circle cx="26.2921" cy="280.422" r="4" fill="#0" id="circle20"/>
	<circle cx="26.2921" cy="302.715" r="4" fill="#0" id="circle21"/>
	<circle cx="26.2921" cy="325.007" r="4" fill="#0" id="circle22"/>
	<circle cx="32.9798" cy="688.369" r="4" fill="#0" id="circle23"/>
	<circle cx="35.209" cy="142.211" r="4" fill="#0" id="circle24"/>
	<circle cx="37.4382" cy="659.389" r="4" fill="#0" id="circle25"/>
	<circle cx="41.8966" cy="601.429" r="4" fill="#0" id="circle26"/>
	<circle cx="41.8966" cy="623.721" r="4" fill="#0" id="circle27"/>
	<circle cx="57.5011" cy="133.294" r="4" fill="#0" id="circle28"/>
	<circle cx="64.1888" cy="599.2" r="4" fill="#0" id="circle29"/>
	<circle cx="79.7933" cy="124.378" r="4" fill="#0" id="circle30"/>
	<circle cx="86.4809" cy="599.2" r="4" fill="#0" id="circle31"/>
	<circle cx="102.085" cy="119.919" r="4" fill="#0" id="circle32"/>
	<circle cx="108.773" cy="599.2" r="4" fill="#0" id="circle33"/>
	<circle cx="124.378" cy="111.002" r="4" fill="#0" id="circle34"/>
	<circle cx="131.065" cy="599.2" r="4" fill="#0" id="circle35"/>
	<circle cx="146.67" cy="106.544" r="4" fill="#0" id="circle36"/>
	<circle cx="146.67" cy="617.034" r="4" fill="#0" id="circle37"/>
	<circle cx="146.67" cy="639.326" r="4" fill="#0" id="circle38"/>
	<circle cx="146.67" cy="677.222" r="4" fill="#0" id="circle39"/>
	<circle cx="164.503" cy="692.827" r="4" fill="#0" id="circle40"/>
	<circle cx="168.962" cy="102.085" r="4" fill="#0" id="circle41"/>
	<circle cx="180.108" cy="668.306" r="4" fill="#0" id="circle42"/>
	<circle cx="184.566" cy="632.638" r="4" fill="#0" id="circle43"/>
	<circle cx="191.254" cy="97.627" r="4" fill="#0" id="circle44"/>
	<circle cx="195.712" cy="612.575" r="4" fill="#0" id="circle45"/>
	<circle cx="213.546" cy="93.1685" r="4" fill="#0" id="circle46"/>
	<circle cx="218.004" cy="612.575" r="4" fill="#0" id="circle47"/>
	<circle cx="235.838" cy="88.7101" r="4" fill="#0" id="circle48"/>
	<circle cx="240.297" cy="612.575" r="4" fill="#0" id="circle49"/>
	<circle cx="258.13" cy="84.2517" r="4" fill="#0" id="circle50"/>
	<circle cx="262.589" cy="617.034" r="4" fill="#0" id="circle51"/>
	<circle cx="271.506" cy="66.418" r="4" fill="#0" id="circle52"/>
	<circle cx="284.881" cy="621.492" r="4" fill="#0" id="circle53"/>
	<circle cx="293.798" cy="57.5011" r="4" fill="#0" id="circle54"/>
	<circle cx="307.173" cy="630.409" r="4" fill="#0" id="circle55"/>
	<circle cx="316.09" cy="48.5843" r="4" fill="#0" id="circle56"/>
	<circle cx="325.007" cy="617.034" r="4" fill="#0" id="circle57"/>
	<circle cx="338.382" cy="39.6674" r="4" fill="#0" id="circle58"/>
	<circle cx="347.299" cy="608.117" r="4" fill="#0" id="circle59"/>
	<circle cx="356.216" cy="21.8337" r="4" fill="#0" id="circle60"/>
	<circle cx="369.591" cy="603.658" r="4" fill="#0" id="circle61"/>
	<circle cx="374.049" cy="4" r="4" fill="#0" id="circle62"/>
	<circle cx="391.883" cy="608.117" r="4" fill="#0" id="circle63"/>
	<circle cx="396.342" cy="6.22921" r="4" fill="#0" id="circle64"/>
	<circle cx="411.946" cy="24.0629" r="4" fill="#0" id="circle65"/>
	<circle cx="414.175" cy="614.804" r="4" fill="#0" id="circle66"/>
	<circle cx="425.321" cy="41.8966" r="4" fill="#0" id="circle67"/>
	<circle cx="436.467" cy="621.492" r="4" fill="#0" id="circle68"/>
	<circle cx="447.613" cy="48.5843" r="4" fill="#0" id="circle69"/>
	<circle cx="458.76" cy="630.409" r="4" fill="#0" id="circle70"/>
	<circle cx="469.906" cy="57.5011" r="4" fill="#0" id="circle71"/>
	<circle cx="481.052" cy="639.326" r="4" fill="#0" id="circle72"/>
	<circle cx="492.198" cy="66.418" r="4" fill="#0" id="circle73"/>
	<circle cx="503.344" cy="646.013" r="4" fill="#0" id="circle74"/>
	<circle cx="505.573" cy="84.2517" r="4" fill="#0" id="circle75"/>
	<circle cx="525.636" cy="650.472" r="4" fill="#0" id="circle76"/>
	<circle cx="527.865" cy="88.7101" r="4" fill="#0" id="circle77"/>
	<circle cx="547.928" cy="652.701" r="4" fill="#0" id="circle78"/>
	<circle cx="550.157" cy="93.1685" r="4" fill="#0" id="circle79"/>
	<circle cx="570.22" cy="652.701" r="4" fill="#0" id="circle80"/>
	<circle cx="572.449" cy="97.627" r="4" fill="#0" id="circle81"/>
	<circle cx="592.512" cy="652.701" r="4" fill="#0" id="circle82"/>
	<circle cx="594.742" cy="102.085" r="4" fill="#0" id="circle83"/>
	<circle cx="614.804" cy="648.243" r="4" fill="#0" id="circle84"/>
	<circle cx="617.034" cy="106.544" r="4" fill="#0" id="circle85"/>
	<circle cx="637.097" cy="639.326" r="4" fill="#0" id="circle86"/>
	<circle cx="639.326" cy="111.002" r="4" fill="#0" id="circle87"/>
	<circle cx="659.389" cy="630.409" r="4" fill="#0" id="circle88"/>
	<circle cx="661.618" cy="115.461" r="4" fill="#0" id="circle89"/>
	<circle cx="681.681" cy="625.951" r="4" fill="#0" id="circle90"/>
	<circle cx="683.91" cy="119.919" r="4" fill="#0" id="circle91"/>
	<circle cx="703.973" cy="617.034" r="4" fill="#0" id="circle92"/>
	<circle cx="706.202" cy="128.836" r="4" fill="#0" id="circle93"/>
	<circle cx="724.036" cy="628.18" r="4" fill="#0" id="circle94"/>
	<circle cx="726.265" cy="650.472" r="4" fill="#0" id="circle95"/>
	<circle cx="726.265" cy="672.764" r="4" fill="#0" id="circle96"/>
	<circle cx="728.494" cy="137.753" r="4" fill="#0" id="circle97"/>
	<circle cx="737.411" cy="258.13" r="4" fill="#0" id="circle98"/>
	<circle cx="737.411" cy="280.422" r="4" fill="#0" id="circle99"/>
	<circle cx="737.411" cy="302.715" r="4" fill="#0" id="circle100"/>
	<circle cx="737.411" cy="325.007" r="4" fill="#0" id="circle101"/>
	<circle cx="737.411" cy="347.299" r="4" fill="#0" id="circle102"/>
	<circle cx="741.87" cy="218.004" r="4" fill="#0" id="circle103"/>
	<circle cx="744.099" cy="688.369" r="4" fill="#0" id="circle104"/>
	<circle cx="746.328" cy="151.128" r="4" fill="#0" id="circle105"/>
	<circle cx="753.016" cy="661.618" r="4" fill="#0" id="circle106"/>
	<circle cx="755.245" cy="605.888" r="4" fill="#0" id="circle107"/>
	<circle cx="759.703" cy="200.171" r="4" fill="#0" id="circle108"/>
	<circle cx="759.703" cy="356.216" r="4" fill="#0" id="circle109"/>
	<circle cx="759.703" cy="628.18" r="4" fill="#0" id="circle110"/>
	<circle cx="761.933" cy="168.962" r="4" fill="#0" id="circle111"/>
	<circle cx="777.537" cy="608.117" r="4" fill="#0" id="circle112"/>
	<circle cx="781.996" cy="360.674" r="4" fill="#0" id="circle113"/>
	<circle cx="797.6" cy="619.263" r="4" fill="#0" id="circle114"/>
	<circle cx="804.288" cy="365.133" r="4" fill="#0" id="circle115"/>
	<circle cx="817.663" cy="630.409" r="4" fill="#0" id="circle116"/>
	<circle cx="826.58" cy="367.362" r="4" fill="#0" id="circle117"/>
	<circle cx="839.955" cy="621.492" r="4" fill="#0" id="circle118"/>
	<circle cx="848.872" cy="369.591" r="4" fill="#0" id="circle119"/>
	<circle cx="862.247" cy="617.034" r="4" fill="#0" id="circle120"/>
	<circle cx="871.164" cy="374.049" r="4" fill="#0" id="circle121"/>
	<circle cx="884.539" cy="612.575" r="4" fill="#0" id="circle122"/>
	<circle cx="893.456" cy="378.508" r="4" fill="#0" id="circle123"/>
	<circle cx="906.831" cy="612.575" r="4" fill="#0" id="circle124"/>
	<circle cx="915.748" cy="382.966" r="4" fill="#0" id="circle125"/>
	<circle cx="929.124" cy="612.575" r="4" fill="#0" id="circle126"/>
	<circle cx="938.04" cy="391.883" r="4" fill="#0" id="circle127"/>
	<circle cx="946.957" cy="625.951" r="4" fill="#0" id="circle128"/>
	<circle cx="949.187" cy="648.243" r="4" fill="#0" id="circle129"/>
	<circle cx="949.187" cy="670.535" r="4" fill="#0" id="circle130"/>
	<circle cx="960.333" cy="396.342" r="4" fill="#0" id="circle131"/>
	<circle cx="960.333" cy="690.598" r="4" fill="#0" id="circle132"/>
	<circle cx="969.249" cy="534.553" r="4" fill="#0" id="circle133"/>
	<circle cx="969.249" cy="556.845" r="4" fill="#0" id="circle134"/>
	<circle cx="969.249" cy="579.137" r="4" fill="#0" id="circle135"/>
	<circle cx="973.708" cy="476.593" r="4" fill="#0" id="circle136"/>
	<circle cx="973.708" cy="498.885" r="4" fill="#0" id="circle137"/>
	<circle cx="973.708" cy="601.429" r="4" fill="#0" id="circle138"/>
	<circle cx="973.708" cy="659.389" r="4" fill="#0" id="circle139"/>
	<circle cx="978.166" cy="409.717" r="4" fill="#0" id="circle140"/>
	<circle cx="978.166" cy="623.721" r="4" fill="#0" id="circle141"/>
	<circle cx="982.625" cy="681.681" r="4" fill="#0" id="circle142"/>
	<circle cx="991.542" cy="458.76" r="4" fill="#0" id="circle143"/>
	<circle cx="996" cy="423.092" r="4" fill="#0" id="circle144"/>
	</g>
</svg>