<?xml version="1.0" encoding="UTF-8" standalone="no"?>
<!-- Created with CurveBenchmark -->
<svg
	xmlns:dc="http://purl.org/dc/elements/1.1/"
	xmlns:cc="http://creativecommons.org/ns#"
	xmlns:rdf="http://www.w3.org/1999/02/22-rdf-syntax-ns#"
	xmlns:svg="http://www.w3.org/2000/svg"
	xmlns="http://www.w3.org/2000/svg"
	xmlns:sodipodi="http://sodipodi.sourceforge.net/DTD/sodipodi-0.dtd"
	xmlns:inkscape="http://www.inkscape.org/namespaces/inkscape"
	width="1000"
	height="1000"
	id="svg2"
	version="1.1"
	sodipodi:docname="manifold/hnncrust-flatfish03.png.txt">
<defs
	id="defs4" />
<metadata
	id="metadata7">
	<rdf:RDF>
		<cc:Work
			rdf:about="">
			<dc:format>image/svg+xml</dc:format>
			<dc:type
				rdf:resource="http://purl.org/dc/dcmitype/StillImage" />
			<dc:title></dc:title>
		</cc:Work>
	</rdf:RDF>
</metadata>
<g
	inkscape:label="Layer 1"
	inkscape:groupmode="layer"
	id="layer1">
	<path style="fill:none;stroke:red;stroke-width:1px;stroke-linecap:butt;stroke-linejoin:miter;stroke-opacity:1" d="M 4,297.804 4,314.309 z" id="boundary" inkscape:connector-curvature="0" />
	<path style="fill:none;stroke:red;stroke-width:1px;stroke-linecap:butt;stroke-linejoin:miter;stroke-opacity:1" d="M 4,297.804 12.2529,273.045 z" id="boundary" inkscape:connector-curvature="0" />
	<path style="fill:none;stroke:red;stroke-width:1px;stroke-linecap:butt;stroke-linejoin:miter;stroke-opacity:1" d="M 4,314.309 4,330.815 z" id="boundary" inkscape:connector-curvature="0" />
	<path style="fill:none;stroke:red;stroke-width:1px;stroke-linecap:butt;stroke-linejoin:miter;stroke-opacity:1" d="M 4,330.815 12.2529,345.671 z" id="boundary" inkscape:connector-curvature="0" />
	<path style="fill:none;stroke:red;stroke-width:1px;stroke-linecap:butt;stroke-linejoin:miter;stroke-opacity:1" d="M 12.2529,273.045 28.7587,264.792 z" id="boundary" inkscape:connector-curvature="0" />
	<path style="fill:none;stroke:red;stroke-width:1px;stroke-linecap:butt;stroke-linejoin:miter;stroke-opacity:1" d="M 12.2529,345.671 23.807,358.875 z" id="boundary" inkscape:connector-curvature="0" />
	<path style="fill:none;stroke:red;stroke-width:1px;stroke-linecap:butt;stroke-linejoin:miter;stroke-opacity:1" d="M 23.807,358.875 37.0116,368.779 z" id="boundary" inkscape:connector-curvature="0" />
	<path style="fill:none;stroke:red;stroke-width:1px;stroke-linecap:butt;stroke-linejoin:miter;stroke-opacity:1" d="M 28.7587,264.792 45.2646,259.84 z" id="boundary" inkscape:connector-curvature="0" />
	<path style="fill:none;stroke:red;stroke-width:1px;stroke-linecap:butt;stroke-linejoin:miter;stroke-opacity:1" d="M 37.0116,368.779 51.8669,377.032 z" id="boundary" inkscape:connector-curvature="0" />
	<path style="fill:none;stroke:red;stroke-width:1px;stroke-linecap:butt;stroke-linejoin:miter;stroke-opacity:1" d="M 45.2646,259.84 60.1198,251.587 z" id="boundary" inkscape:connector-curvature="0" />
	<path style="fill:none;stroke:red;stroke-width:1px;stroke-linecap:butt;stroke-linejoin:miter;stroke-opacity:1" d="M 51.8669,377.032 66.7221,385.285 z" id="boundary" inkscape:connector-curvature="0" />
	<path style="fill:none;stroke:red;stroke-width:1px;stroke-linecap:butt;stroke-linejoin:miter;stroke-opacity:1" d="M 60.1198,251.587 66.7221,235.082 z" id="boundary" inkscape:connector-curvature="0" />
	<path style="fill:none;stroke:red;stroke-width:1px;stroke-linecap:butt;stroke-linejoin:miter;stroke-opacity:1" d="M 66.7221,235.082 74.975,218.576 z" id="boundary" inkscape:connector-curvature="0" />
	<path style="fill:none;stroke:red;stroke-width:1px;stroke-linecap:butt;stroke-linejoin:miter;stroke-opacity:1" d="M 66.7221,385.285 81.5774,393.537 z" id="boundary" inkscape:connector-curvature="0" />
	<path style="fill:none;stroke:red;stroke-width:1px;stroke-linecap:butt;stroke-linejoin:miter;stroke-opacity:1" d="M 74.975,218.576 86.5291,190.516 z" id="boundary" inkscape:connector-curvature="0" />
	<path style="fill:none;stroke:red;stroke-width:1px;stroke-linecap:butt;stroke-linejoin:miter;stroke-opacity:1" d="M 81.5774,393.537 96.4326,401.79 z" id="boundary" inkscape:connector-curvature="0" />
	<path style="fill:none;stroke:red;stroke-width:1px;stroke-linecap:butt;stroke-linejoin:miter;stroke-opacity:1" d="M 86.5291,190.516 99.7338,177.311 z" id="boundary" inkscape:connector-curvature="0" />
	<path style="fill:none;stroke:red;stroke-width:1px;stroke-linecap:butt;stroke-linejoin:miter;stroke-opacity:1" d="M 96.4326,401.79 112.938,401.79 z" id="boundary" inkscape:connector-curvature="0" />
	<path style="fill:none;stroke:red;stroke-width:1px;stroke-linecap:butt;stroke-linejoin:miter;stroke-opacity:1" d="M 99.7338,177.311 112.938,164.106 z" id="boundary" inkscape:connector-curvature="0" />
	<path style="fill:none;stroke:red;stroke-width:1px;stroke-linecap:butt;stroke-linejoin:miter;stroke-opacity:1" d="M 112.938,164.106 126.143,152.552 z" id="boundary" inkscape:connector-curvature="0" />
	<path style="fill:none;stroke:red;stroke-width:1px;stroke-linecap:butt;stroke-linejoin:miter;stroke-opacity:1" d="M 112.938,401.79 127.794,410.043 z" id="boundary" inkscape:connector-curvature="0" />
	<path style="fill:none;stroke:red;stroke-width:1px;stroke-linecap:butt;stroke-linejoin:miter;stroke-opacity:1" d="M 126.143,152.552 140.998,144.3 z" id="boundary" inkscape:connector-curvature="0" />
	<path style="fill:none;stroke:red;stroke-width:1px;stroke-linecap:butt;stroke-linejoin:miter;stroke-opacity:1" d="M 127.794,410.043 132.745,426.549 z" id="boundary" inkscape:connector-curvature="0" />
	<path style="fill:none;stroke:red;stroke-width:1px;stroke-linecap:butt;stroke-linejoin:miter;stroke-opacity:1" d="M 132.745,426.549 140.998,441.404 z" id="boundary" inkscape:connector-curvature="0" />
	<path style="fill:none;stroke:red;stroke-width:1px;stroke-linecap:butt;stroke-linejoin:miter;stroke-opacity:1" d="M 140.998,144.3 154.203,131.095 z" id="boundary" inkscape:connector-curvature="0" />
	<path style="fill:none;stroke:red;stroke-width:1px;stroke-linecap:butt;stroke-linejoin:miter;stroke-opacity:1" d="M 140.998,441.404 152.552,454.609 z" id="boundary" inkscape:connector-curvature="0" />
	<path style="fill:none;stroke:red;stroke-width:1px;stroke-linecap:butt;stroke-linejoin:miter;stroke-opacity:1" d="M 152.552,454.609 169.058,451.308 z" id="boundary" inkscape:connector-curvature="0" />
	<path style="fill:none;stroke:red;stroke-width:1px;stroke-linecap:butt;stroke-linejoin:miter;stroke-opacity:1" d="M 154.203,131.095 162.456,114.589 z" id="boundary" inkscape:connector-curvature="0" />
	<path style="fill:none;stroke:red;stroke-width:1px;stroke-linecap:butt;stroke-linejoin:miter;stroke-opacity:1" d="M 162.456,114.589 178.962,106.336 z" id="boundary" inkscape:connector-curvature="0" />
	<path style="fill:none;stroke:red;stroke-width:1px;stroke-linecap:butt;stroke-linejoin:miter;stroke-opacity:1" d="M 169.058,451.308 185.564,451.308 z" id="boundary" inkscape:connector-curvature="0" />
	<path style="fill:none;stroke:red;stroke-width:1px;stroke-linecap:butt;stroke-linejoin:miter;stroke-opacity:1" d="M 178.962,106.336 195.468,98.0832 z" id="boundary" inkscape:connector-curvature="0" />
	<path style="fill:none;stroke:red;stroke-width:1px;stroke-linecap:butt;stroke-linejoin:miter;stroke-opacity:1" d="M 185.564,451.308 200.419,459.561 z" id="boundary" inkscape:connector-curvature="0" />
	<path style="fill:none;stroke:red;stroke-width:1px;stroke-linecap:butt;stroke-linejoin:miter;stroke-opacity:1" d="M 195.468,98.0832 211.973,89.8303 z" id="boundary" inkscape:connector-curvature="0" />
	<path style="fill:none;stroke:red;stroke-width:1px;stroke-linecap:butt;stroke-linejoin:miter;stroke-opacity:1" d="M 200.419,459.561 211.973,472.765 z" id="boundary" inkscape:connector-curvature="0" />
	<path style="fill:none;stroke:red;stroke-width:1px;stroke-linecap:butt;stroke-linejoin:miter;stroke-opacity:1" d="M 211.973,89.8303 225.178,78.2762 z" id="boundary" inkscape:connector-curvature="0" />
	<path style="fill:none;stroke:red;stroke-width:1px;stroke-linecap:butt;stroke-linejoin:miter;stroke-opacity:1" d="M 211.973,472.765 228.479,476.067 z" id="boundary" inkscape:connector-curvature="0" />
	<path style="fill:none;stroke:red;stroke-width:1px;stroke-linecap:butt;stroke-linejoin:miter;stroke-opacity:1" d="M 225.178,78.2762 236.732,65.0715 z" id="boundary" inkscape:connector-curvature="0" />
	<path style="fill:none;stroke:red;stroke-width:1px;stroke-linecap:butt;stroke-linejoin:miter;stroke-opacity:1" d="M 228.479,476.067 243.334,484.319 z" id="boundary" inkscape:connector-curvature="0" />
	<path style="fill:none;stroke:red;stroke-width:1px;stroke-linecap:butt;stroke-linejoin:miter;stroke-opacity:1" d="M 236.732,65.0715 253.238,56.8186 z" id="boundary" inkscape:connector-curvature="0" />
	<path style="fill:none;stroke:red;stroke-width:1px;stroke-linecap:butt;stroke-linejoin:miter;stroke-opacity:1" d="M 243.334,484.319 259.84,484.319 z" id="boundary" inkscape:connector-curvature="0" />
	<path style="fill:none;stroke:red;stroke-width:1px;stroke-linecap:butt;stroke-linejoin:miter;stroke-opacity:1" d="M 253.238,56.8186 266.443,45.2646 z" id="boundary" inkscape:connector-curvature="0" />
	<path style="fill:none;stroke:red;stroke-width:1px;stroke-linecap:butt;stroke-linejoin:miter;stroke-opacity:1" d="M 259.84,484.319 274.696,492.572 z" id="boundary" inkscape:connector-curvature="0" />
	<path style="fill:none;stroke:red;stroke-width:1px;stroke-linecap:butt;stroke-linejoin:miter;stroke-opacity:1" d="M 266.443,45.2646 281.298,37.0116 z" id="boundary" inkscape:connector-curvature="0" />
	<path style="fill:none;stroke:red;stroke-width:1px;stroke-linecap:butt;stroke-linejoin:miter;stroke-opacity:1" d="M 274.696,492.572 289.551,500.825 z" id="boundary" inkscape:connector-curvature="0" />
	<path style="fill:none;stroke:red;stroke-width:1px;stroke-linecap:butt;stroke-linejoin:miter;stroke-opacity:1" d="M 281.298,37.0116 297.804,37.0116 z" id="boundary" inkscape:connector-curvature="0" />
	<path style="fill:none;stroke:red;stroke-width:1px;stroke-linecap:butt;stroke-linejoin:miter;stroke-opacity:1" d="M 289.551,500.825 306.057,507.428 z" id="boundary" inkscape:connector-curvature="0" />
	<path style="fill:none;stroke:red;stroke-width:1px;stroke-linecap:butt;stroke-linejoin:miter;stroke-opacity:1" d="M 297.804,37.0116 314.309,28.7587 z" id="boundary" inkscape:connector-curvature="0" />
	<path style="fill:none;stroke:red;stroke-width:1px;stroke-linecap:butt;stroke-linejoin:miter;stroke-opacity:1" d="M 306.057,507.428 319.261,517.331 z" id="boundary" inkscape:connector-curvature="0" />
	<path style="fill:none;stroke:red;stroke-width:1px;stroke-linecap:butt;stroke-linejoin:miter;stroke-opacity:1" d="M 314.309,28.7587 330.815,28.7587 z" id="boundary" inkscape:connector-curvature="0" />
	<path style="fill:none;stroke:red;stroke-width:1px;stroke-linecap:butt;stroke-linejoin:miter;stroke-opacity:1" d="M 319.261,517.331 334.116,525.584 z" id="boundary" inkscape:connector-curvature="0" />
	<path style="fill:none;stroke:red;stroke-width:1px;stroke-linecap:butt;stroke-linejoin:miter;stroke-opacity:1" d="M 330.815,28.7587 345.671,20.5058 z" id="boundary" inkscape:connector-curvature="0" />
	<path style="fill:none;stroke:red;stroke-width:1px;stroke-linecap:butt;stroke-linejoin:miter;stroke-opacity:1" d="M 334.116,525.584 348.972,533.837 z" id="boundary" inkscape:connector-curvature="0" />
	<path style="fill:none;stroke:red;stroke-width:1px;stroke-linecap:butt;stroke-linejoin:miter;stroke-opacity:1" d="M 345.671,20.5058 360.526,12.2529 z" id="boundary" inkscape:connector-curvature="0" />
	<path style="fill:none;stroke:red;stroke-width:1px;stroke-linecap:butt;stroke-linejoin:miter;stroke-opacity:1" d="M 348.972,533.837 363.827,542.09 z" id="boundary" inkscape:connector-curvature="0" />
	<path style="fill:none;stroke:red;stroke-width:1px;stroke-linecap:butt;stroke-linejoin:miter;stroke-opacity:1" d="M 360.526,12.2529 377.032,7.30116 z" id="boundary" inkscape:connector-curvature="0" />
	<path style="fill:none;stroke:red;stroke-width:1px;stroke-linecap:butt;stroke-linejoin:miter;stroke-opacity:1" d="M 363.827,542.09 380.333,548.692 z" id="boundary" inkscape:connector-curvature="0" />
	<path style="fill:none;stroke:red;stroke-width:1px;stroke-linecap:butt;stroke-linejoin:miter;stroke-opacity:1" d="M 377.032,7.30116 393.537,4 z" id="boundary" inkscape:connector-curvature="0" />
	<path style="fill:none;stroke:red;stroke-width:1px;stroke-linecap:butt;stroke-linejoin:miter;stroke-opacity:1" d="M 380.333,548.692 396.839,550.343 z" id="boundary" inkscape:connector-curvature="0" />
	<path style="fill:none;stroke:red;stroke-width:1px;stroke-linecap:butt;stroke-linejoin:miter;stroke-opacity:1" d="M 393.537,4 410.043,4 z" id="boundary" inkscape:connector-curvature="0" />
	<path style="fill:none;stroke:red;stroke-width:1px;stroke-linecap:butt;stroke-linejoin:miter;stroke-opacity:1" d="M 396.839,550.343 413.344,550.343 z" id="boundary" inkscape:connector-curvature="0" />
	<path style="fill:none;stroke:red;stroke-width:1px;stroke-linecap:butt;stroke-linejoin:miter;stroke-opacity:1" d="M 410.043,4 426.549,4 z" id="boundary" inkscape:connector-curvature="0" />
	<path style="fill:none;stroke:red;stroke-width:1px;stroke-linecap:butt;stroke-linejoin:miter;stroke-opacity:1" d="M 413.344,550.343 429.85,550.343 z" id="boundary" inkscape:connector-curvature="0" />
	<path style="fill:none;stroke:red;stroke-width:1px;stroke-linecap:butt;stroke-linejoin:miter;stroke-opacity:1" d="M 426.549,4 443.055,4 z" id="boundary" inkscape:connector-curvature="0" />
	<path style="fill:none;stroke:red;stroke-width:1px;stroke-linecap:butt;stroke-linejoin:miter;stroke-opacity:1" d="M 429.85,550.343 446.356,550.343 z" id="boundary" inkscape:connector-curvature="0" />
	<path style="fill:none;stroke:red;stroke-width:1px;stroke-linecap:butt;stroke-linejoin:miter;stroke-opacity:1" d="M 443.055,4 459.561,4 z" id="boundary" inkscape:connector-curvature="0" />
	<path style="fill:none;stroke:red;stroke-width:1px;stroke-linecap:butt;stroke-linejoin:miter;stroke-opacity:1" d="M 446.356,550.343 462.862,550.343 z" id="boundary" inkscape:connector-curvature="0" />
	<path style="fill:none;stroke:red;stroke-width:1px;stroke-linecap:butt;stroke-linejoin:miter;stroke-opacity:1" d="M 459.561,4 476.067,4 z" id="boundary" inkscape:connector-curvature="0" />
	<path style="fill:none;stroke:red;stroke-width:1px;stroke-linecap:butt;stroke-linejoin:miter;stroke-opacity:1" d="M 462.862,550.343 479.368,550.343 z" id="boundary" inkscape:connector-curvature="0" />
	<path style="fill:none;stroke:red;stroke-width:1px;stroke-linecap:butt;stroke-linejoin:miter;stroke-opacity:1" d="M 476.067,4 492.572,4 z" id="boundary" inkscape:connector-curvature="0" />
	<path style="fill:none;stroke:red;stroke-width:1px;stroke-linecap:butt;stroke-linejoin:miter;stroke-opacity:1" d="M 479.368,550.343 495.874,550.343 z" id="boundary" inkscape:connector-curvature="0" />
	<path style="fill:none;stroke:red;stroke-width:1px;stroke-linecap:butt;stroke-linejoin:miter;stroke-opacity:1" d="M 492.572,4 509.078,4 z" id="boundary" inkscape:connector-curvature="0" />
	<path style="fill:none;stroke:red;stroke-width:1px;stroke-linecap:butt;stroke-linejoin:miter;stroke-opacity:1" d="M 495.874,550.343 512.379,550.343 z" id="boundary" inkscape:connector-curvature="0" />
	<path style="fill:none;stroke:red;stroke-width:1px;stroke-linecap:butt;stroke-linejoin:miter;stroke-opacity:1" d="M 509.078,4 525.584,4 z" id="boundary" inkscape:connector-curvature="0" />
	<path style="fill:none;stroke:red;stroke-width:1px;stroke-linecap:butt;stroke-linejoin:miter;stroke-opacity:1" d="M 512.379,550.343 527.235,542.09 z" id="boundary" inkscape:connector-curvature="0" />
	<path style="fill:none;stroke:red;stroke-width:1px;stroke-linecap:butt;stroke-linejoin:miter;stroke-opacity:1" d="M 525.584,4 542.09,8.95175 z" id="boundary" inkscape:connector-curvature="0" />
	<path style="fill:none;stroke:red;stroke-width:1px;stroke-linecap:butt;stroke-linejoin:miter;stroke-opacity:1" d="M 527.235,542.09 543.74,542.09 z" id="boundary" inkscape:connector-curvature="0" />
	<path style="fill:none;stroke:red;stroke-width:1px;stroke-linecap:butt;stroke-linejoin:miter;stroke-opacity:1" d="M 542.09,8.95175 556.945,17.2047 z" id="boundary" inkscape:connector-curvature="0" />
	<path style="fill:none;stroke:red;stroke-width:1px;stroke-linecap:butt;stroke-linejoin:miter;stroke-opacity:1" d="M 543.74,542.09 558.596,533.837 z" id="boundary" inkscape:connector-curvature="0" />
	<path style="fill:none;stroke:red;stroke-width:1px;stroke-linecap:butt;stroke-linejoin:miter;stroke-opacity:1" d="M 556.945,17.2047 570.15,28.7587 z" id="boundary" inkscape:connector-curvature="0" />
	<path style="fill:none;stroke:red;stroke-width:1px;stroke-linecap:butt;stroke-linejoin:miter;stroke-opacity:1" d="M 558.596,533.837 573.451,525.584 z" id="boundary" inkscape:connector-curvature="0" />
	<path style="fill:none;stroke:red;stroke-width:1px;stroke-linecap:butt;stroke-linejoin:miter;stroke-opacity:1" d="M 570.15,28.7587 585.005,37.0116 z" id="boundary" inkscape:connector-curvature="0" />
	<path style="fill:none;stroke:red;stroke-width:1px;stroke-linecap:butt;stroke-linejoin:miter;stroke-opacity:1" d="M 573.451,525.584 586.656,515.681 z" id="boundary" inkscape:connector-curvature="0" />
	<path style="fill:none;stroke:red;stroke-width:1px;stroke-linecap:butt;stroke-linejoin:miter;stroke-opacity:1" d="M 585.005,37.0116 599.86,45.2646 z" id="boundary" inkscape:connector-curvature="0" />
	<path style="fill:none;stroke:red;stroke-width:1px;stroke-linecap:butt;stroke-linejoin:miter;stroke-opacity:1" d="M 586.656,515.681 599.86,500.825 z" id="boundary" inkscape:connector-curvature="0" />
	<path style="fill:none;stroke:red;stroke-width:1px;stroke-linecap:butt;stroke-linejoin:miter;stroke-opacity:1" d="M 599.86,45.2646 616.366,50.2163 z" id="boundary" inkscape:connector-curvature="0" />
	<path style="fill:none;stroke:red;stroke-width:1px;stroke-linecap:butt;stroke-linejoin:miter;stroke-opacity:1" d="M 599.86,500.825 616.366,492.572 z" id="boundary" inkscape:connector-curvature="0" />
	<path style="fill:none;stroke:red;stroke-width:1px;stroke-linecap:butt;stroke-linejoin:miter;stroke-opacity:1" d="M 616.366,50.2163 631.221,58.4692 z" id="boundary" inkscape:connector-curvature="0" />
	<path style="fill:none;stroke:red;stroke-width:1px;stroke-linecap:butt;stroke-linejoin:miter;stroke-opacity:1" d="M 616.366,492.572 629.571,481.018 z" id="boundary" inkscape:connector-curvature="0" />
	<path style="fill:none;stroke:red;stroke-width:1px;stroke-linecap:butt;stroke-linejoin:miter;stroke-opacity:1" d="M 629.571,481.018 646.077,472.765 z" id="boundary" inkscape:connector-curvature="0" />
	<path style="fill:none;stroke:red;stroke-width:1px;stroke-linecap:butt;stroke-linejoin:miter;stroke-opacity:1" d="M 631.221,58.4692 644.426,70.0233 z" id="boundary" inkscape:connector-curvature="0" />
	<path style="fill:none;stroke:red;stroke-width:1px;stroke-linecap:butt;stroke-linejoin:miter;stroke-opacity:1" d="M 644.426,70.0233 659.281,78.2762 z" id="boundary" inkscape:connector-curvature="0" />
	<path style="fill:none;stroke:red;stroke-width:1px;stroke-linecap:butt;stroke-linejoin:miter;stroke-opacity:1" d="M 646.077,472.765 657.631,459.561 z" id="boundary" inkscape:connector-curvature="0" />
	<path style="fill:none;stroke:red;stroke-width:1px;stroke-linecap:butt;stroke-linejoin:miter;stroke-opacity:1" d="M 657.631,459.561 665.884,443.055 z" id="boundary" inkscape:connector-curvature="0" />
	<path style="fill:none;stroke:red;stroke-width:1px;stroke-linecap:butt;stroke-linejoin:miter;stroke-opacity:1" d="M 659.281,78.2762 672.486,89.8303 z" id="boundary" inkscape:connector-curvature="0" />
	<path style="fill:none;stroke:red;stroke-width:1px;stroke-linecap:butt;stroke-linejoin:miter;stroke-opacity:1" d="M 665.884,443.055 679.088,431.501 z" id="boundary" inkscape:connector-curvature="0" />
	<path style="fill:none;stroke:red;stroke-width:1px;stroke-linecap:butt;stroke-linejoin:miter;stroke-opacity:1" d="M 672.486,89.8303 687.341,98.0832 z" id="boundary" inkscape:connector-curvature="0" />
	<path style="fill:none;stroke:red;stroke-width:1px;stroke-linecap:butt;stroke-linejoin:miter;stroke-opacity:1" d="M 679.088,431.501 690.642,418.296 z" id="boundary" inkscape:connector-curvature="0" />
	<path style="fill:none;stroke:red;stroke-width:1px;stroke-linecap:butt;stroke-linejoin:miter;stroke-opacity:1" d="M 687.341,98.0832 698.895,111.288 z" id="boundary" inkscape:connector-curvature="0" />
	<path style="fill:none;stroke:red;stroke-width:1px;stroke-linecap:butt;stroke-linejoin:miter;stroke-opacity:1" d="M 690.642,418.296 703.847,406.742 z" id="boundary" inkscape:connector-curvature="0" />
	<path style="fill:none;stroke:red;stroke-width:1px;stroke-linecap:butt;stroke-linejoin:miter;stroke-opacity:1" d="M 698.895,111.288 715.401,111.288 z" id="boundary" inkscape:connector-curvature="0" />
	<path style="fill:none;stroke:red;stroke-width:1px;stroke-linecap:butt;stroke-linejoin:miter;stroke-opacity:1" d="M 703.847,406.742 715.401,393.537 z" id="boundary" inkscape:connector-curvature="0" />
	<path style="fill:none;stroke:red;stroke-width:1px;stroke-linecap:butt;stroke-linejoin:miter;stroke-opacity:1" d="M 715.401,111.288 731.907,116.24 z" id="boundary" inkscape:connector-curvature="0" />
	<path style="fill:none;stroke:red;stroke-width:1px;stroke-linecap:butt;stroke-linejoin:miter;stroke-opacity:1" d="M 715.401,393.537 728.606,381.983 z" id="boundary" inkscape:connector-curvature="0" />
	<path style="fill:none;stroke:red;stroke-width:1px;stroke-linecap:butt;stroke-linejoin:miter;stroke-opacity:1" d="M 728.606,381.983 740.16,360.526 z" id="boundary" inkscape:connector-curvature="0" />
	<path style="fill:none;stroke:red;stroke-width:1px;stroke-linecap:butt;stroke-linejoin:miter;stroke-opacity:1" d="M 731.907,116.24 740.16,131.095 z" id="boundary" inkscape:connector-curvature="0" />
	<path style="fill:none;stroke:red;stroke-width:1px;stroke-linecap:butt;stroke-linejoin:miter;stroke-opacity:1" d="M 740.16,131.095 750.063,144.3 z" id="boundary" inkscape:connector-curvature="0" />
	<path style="fill:none;stroke:red;stroke-width:1px;stroke-linecap:butt;stroke-linejoin:miter;stroke-opacity:1" d="M 740.16,360.526 753.364,348.972 z" id="boundary" inkscape:connector-curvature="0" />
	<path style="fill:none;stroke:red;stroke-width:1px;stroke-linecap:butt;stroke-linejoin:miter;stroke-opacity:1" d="M 750.063,144.3 763.268,155.854 z" id="boundary" inkscape:connector-curvature="0" />
	<path style="fill:none;stroke:red;stroke-width:1px;stroke-linecap:butt;stroke-linejoin:miter;stroke-opacity:1" d="M 753.364,348.972 764.918,335.767 z" id="boundary" inkscape:connector-curvature="0" />
	<path style="fill:none;stroke:red;stroke-width:1px;stroke-linecap:butt;stroke-linejoin:miter;stroke-opacity:1" d="M 763.268,155.854 773.171,169.058 z" id="boundary" inkscape:connector-curvature="0" />
	<path style="fill:none;stroke:red;stroke-width:1px;stroke-linecap:butt;stroke-linejoin:miter;stroke-opacity:1" d="M 764.918,335.767 778.123,324.213 z" id="boundary" inkscape:connector-curvature="0" />
	<path style="fill:none;stroke:red;stroke-width:1px;stroke-linecap:butt;stroke-linejoin:miter;stroke-opacity:1" d="M 773.171,169.058 781.424,183.913 z" id="boundary" inkscape:connector-curvature="0" />
	<path style="fill:none;stroke:red;stroke-width:1px;stroke-linecap:butt;stroke-linejoin:miter;stroke-opacity:1" d="M 778.123,324.213 786.376,307.707 z" id="boundary" inkscape:connector-curvature="0" />
	<path style="fill:none;stroke:red;stroke-width:1px;stroke-linecap:butt;stroke-linejoin:miter;stroke-opacity:1" d="M 781.424,183.913 794.629,193.817 z" id="boundary" inkscape:connector-curvature="0" />
	<path style="fill:none;stroke:red;stroke-width:1px;stroke-linecap:butt;stroke-linejoin:miter;stroke-opacity:1" d="M 786.376,307.707 789.677,286.25 z" id="boundary" inkscape:connector-curvature="0" />
	<path style="fill:none;stroke:red;stroke-width:1px;stroke-linecap:butt;stroke-linejoin:miter;stroke-opacity:1" d="M 789.677,286.25 804.532,277.997 z" id="boundary" inkscape:connector-curvature="0" />
	<path style="fill:none;stroke:red;stroke-width:1px;stroke-linecap:butt;stroke-linejoin:miter;stroke-opacity:1" d="M 794.629,193.817 811.135,193.817 z" id="boundary" inkscape:connector-curvature="0" />
	<path style="fill:none;stroke:red;stroke-width:1px;stroke-linecap:butt;stroke-linejoin:miter;stroke-opacity:1" d="M 804.532,277.997 819.388,286.25 z" id="boundary" inkscape:connector-curvature="0" />
	<path style="fill:none;stroke:red;stroke-width:1px;stroke-linecap:butt;stroke-linejoin:miter;stroke-opacity:1" d="M 811.135,193.817 825.99,185.564 z" id="boundary" inkscape:connector-curvature="0" />
	<path style="fill:none;stroke:red;stroke-width:1px;stroke-linecap:butt;stroke-linejoin:miter;stroke-opacity:1" d="M 819.388,286.25 830.942,299.454 z" id="boundary" inkscape:connector-curvature="0" />
	<path style="fill:none;stroke:red;stroke-width:1px;stroke-linecap:butt;stroke-linejoin:miter;stroke-opacity:1" d="M 825.99,185.564 842.496,185.564 z" id="boundary" inkscape:connector-curvature="0" />
	<path style="fill:none;stroke:red;stroke-width:1px;stroke-linecap:butt;stroke-linejoin:miter;stroke-opacity:1" d="M 830.942,299.454 847.448,306.057 z" id="boundary" inkscape:connector-curvature="0" />
	<path style="fill:none;stroke:red;stroke-width:1px;stroke-linecap:butt;stroke-linejoin:miter;stroke-opacity:1" d="M 842.496,185.564 859.002,177.311 z" id="boundary" inkscape:connector-curvature="0" />
	<path style="fill:none;stroke:red;stroke-width:1px;stroke-linecap:butt;stroke-linejoin:miter;stroke-opacity:1" d="M 847.448,306.057 862.303,314.309 z" id="boundary" inkscape:connector-curvature="0" />
	<path style="fill:none;stroke:red;stroke-width:1px;stroke-linecap:butt;stroke-linejoin:miter;stroke-opacity:1" d="M 859.002,177.311 873.857,169.058 z" id="boundary" inkscape:connector-curvature="0" />
	<path style="fill:none;stroke:red;stroke-width:1px;stroke-linecap:butt;stroke-linejoin:miter;stroke-opacity:1" d="M 862.303,314.309 875.507,325.864 z" id="boundary" inkscape:connector-curvature="0" />
	<path style="fill:none;stroke:red;stroke-width:1px;stroke-linecap:butt;stroke-linejoin:miter;stroke-opacity:1" d="M 873.857,169.058 888.712,160.805 z" id="boundary" inkscape:connector-curvature="0" />
	<path style="fill:none;stroke:red;stroke-width:1px;stroke-linecap:butt;stroke-linejoin:miter;stroke-opacity:1" d="M 875.507,325.864 890.363,334.116 z" id="boundary" inkscape:connector-curvature="0" />
	<path style="fill:none;stroke:red;stroke-width:1px;stroke-linecap:butt;stroke-linejoin:miter;stroke-opacity:1" d="M 888.712,160.805 903.567,152.552 z" id="boundary" inkscape:connector-curvature="0" />
	<path style="fill:none;stroke:red;stroke-width:1px;stroke-linecap:butt;stroke-linejoin:miter;stroke-opacity:1" d="M 890.363,334.116 903.567,344.02 z" id="boundary" inkscape:connector-curvature="0" />
	<path style="fill:none;stroke:red;stroke-width:1px;stroke-linecap:butt;stroke-linejoin:miter;stroke-opacity:1" d="M 903.567,152.552 918.423,144.3 z" id="boundary" inkscape:connector-curvature="0" />
	<path style="fill:none;stroke:red;stroke-width:1px;stroke-linecap:butt;stroke-linejoin:miter;stroke-opacity:1" d="M 903.567,344.02 918.423,352.273 z" id="boundary" inkscape:connector-curvature="0" />
	<path style="fill:none;stroke:red;stroke-width:1px;stroke-linecap:butt;stroke-linejoin:miter;stroke-opacity:1" d="M 918.423,144.3 934.928,144.3 z" id="boundary" inkscape:connector-curvature="0" />
	<path style="fill:none;stroke:red;stroke-width:1px;stroke-linecap:butt;stroke-linejoin:miter;stroke-opacity:1" d="M 918.423,352.273 933.278,360.526 z" id="boundary" inkscape:connector-curvature="0" />
	<path style="fill:none;stroke:red;stroke-width:1px;stroke-linecap:butt;stroke-linejoin:miter;stroke-opacity:1" d="M 933.278,360.526 949.784,358.875 z" id="boundary" inkscape:connector-curvature="0" />
	<path style="fill:none;stroke:red;stroke-width:1px;stroke-linecap:butt;stroke-linejoin:miter;stroke-opacity:1" d="M 934.928,144.3 949.784,136.047 z" id="boundary" inkscape:connector-curvature="0" />
	<path style="fill:none;stroke:red;stroke-width:1px;stroke-linecap:butt;stroke-linejoin:miter;stroke-opacity:1" d="M 949.784,136.047 961.338,149.251 z" id="boundary" inkscape:connector-curvature="0" />
	<path style="fill:none;stroke:red;stroke-width:1px;stroke-linecap:butt;stroke-linejoin:miter;stroke-opacity:1" d="M 949.784,358.875 958.037,342.369 z" id="boundary" inkscape:connector-curvature="0" />
	<path style="fill:none;stroke:red;stroke-width:1px;stroke-linecap:butt;stroke-linejoin:miter;stroke-opacity:1" d="M 958.037,342.369 966.29,325.864 z" id="boundary" inkscape:connector-curvature="0" />
	<path style="fill:none;stroke:red;stroke-width:1px;stroke-linecap:butt;stroke-linejoin:miter;stroke-opacity:1" d="M 961.338,149.251 969.591,164.106 z" id="boundary" inkscape:connector-curvature="0" />
	<path style="fill:none;stroke:red;stroke-width:1px;stroke-linecap:butt;stroke-linejoin:miter;stroke-opacity:1" d="M 966.29,325.864 974.542,309.358 z" id="boundary" inkscape:connector-curvature="0" />
	<path style="fill:none;stroke:red;stroke-width:1px;stroke-linecap:butt;stroke-linejoin:miter;stroke-opacity:1" d="M 969.591,164.106 971.241,180.612 z" id="boundary" inkscape:connector-curvature="0" />
	<path style="fill:none;stroke:red;stroke-width:1px;stroke-linecap:butt;stroke-linejoin:miter;stroke-opacity:1" d="M 971.241,180.612 981.145,193.817 z" id="boundary" inkscape:connector-curvature="0" />
	<path style="fill:none;stroke:red;stroke-width:1px;stroke-linecap:butt;stroke-linejoin:miter;stroke-opacity:1" d="M 974.542,309.358 987.747,286.25 z" id="boundary" inkscape:connector-curvature="0" />
	<path style="fill:none;stroke:red;stroke-width:1px;stroke-linecap:butt;stroke-linejoin:miter;stroke-opacity:1" d="M 981.145,193.817 987.747,210.323 z" id="boundary" inkscape:connector-curvature="0" />
	<path style="fill:none;stroke:red;stroke-width:1px;stroke-linecap:butt;stroke-linejoin:miter;stroke-opacity:1" d="M 987.747,210.323 987.747,226.829 z" id="boundary" inkscape:connector-curvature="0" />
	<path style="fill:none;stroke:red;stroke-width:1px;stroke-linecap:butt;stroke-linejoin:miter;stroke-opacity:1" d="M 987.747,226.829 987.747,243.334 z" id="boundary" inkscape:connector-curvature="0" />
	<path style="fill:none;stroke:red;stroke-width:1px;stroke-linecap:butt;stroke-linejoin:miter;stroke-opacity:1" d="M 987.747,243.334 996,258.19 z" id="boundary" inkscape:connector-curvature="0" />
	<path style="fill:none;stroke:red;stroke-width:1px;stroke-linecap:butt;stroke-linejoin:miter;stroke-opacity:1" d="M 987.747,286.25 996,258.19 z" id="boundary" inkscape:connector-curvature="0" />
	<circle cx="4" cy="297.804" r="4" fill="#0" id="circle0"/>
	<circle cx="4" cy="314.309" r="4" fill="#0" id="circle1"/>
	<circle cx="4" cy="330.815" r="4" fill="#0" id="circle2"/>
	<circle cx="12.2529" cy="273.045" r="4" fill="#0" id="circle3"/>
	<circle cx="12.2529" cy="345.671" r="4" fill="#0" id="circle4"/>
	<circle cx="23.807" cy="358.875" r="4" fill="#0" id="circle5"/>
	<circle cx="28.7587" cy="264.792" r="4" fill="#0" id="circle6"/>
	<circle cx="37.0116" cy="368.779" r="4" fill="#0" id="circle7"/>
	<circle cx="45.2646" cy="259.84" r="4" fill="#0" id="circle8"/>
	<circle cx="51.8669" cy="377.032" r="4" fill="#0" id="circle9"/>
	<circle cx="60.1198" cy="251.587" r="4" fill="#0" id="circle10"/>
	<circle cx="66.7221" cy="235.082" r="4" fill="#0" id="circle11"/>
	<circle cx="66.7221" cy="385.285" r="4" fill="#0" id="circle12"/>
	<circle cx="74.975" cy="218.576" r="4" fill="#0" id="circle13"/>
	<circle cx="81.5774" cy="393.537" r="4" fill="#0" id="circle14"/>
	<circle cx="86.5291" cy="190.516" r="4" fill="#0" id="circle15"/>
	<circle cx="96.4326" cy="401.79" r="4" fill="#0" id="circle16"/>
	<circle cx="99.7338" cy="177.311" r="4" fill="#0" id="circle17"/>
	<circle cx="112.938" cy="164.106" r="4" fill="#0" id="circle18"/>
	<circle cx="112.938" cy="401.79" r="4" fill="#0" id="circle19"/>
	<circle cx="126.143" cy="152.552" r="4" fill="#0" id="circle20"/>
	<circle cx="127.794" cy="410.043" r="4" fill="#0" id="circle21"/>
	<circle cx="132.745" cy="426.549" r="4" fill="#0" id="circle22"/>
	<circle cx="140.998" cy="144.3" r="4" fill="#0" id="circle23"/>
	<circle cx="140.998" cy="441.404" r="4" fill="#0" id="circle24"/>
	<circle cx="152.552" cy="454.609" r="4" fill="#0" id="circle25"/>
	<circle cx="154.203" cy="131.095" r="4" fill="#0" id="circle26"/>
	<circle cx="162.456" cy="114.589" r="4" fill="#0" id="circle27"/>
	<circle cx="169.058" cy="451.308" r="4" fill="#0" id="circle28"/>
	<circle cx="178.962" cy="106.336" r="4" fill="#0" id="circle29"/>
	<circle cx="185.564" cy="451.308" r="4" fill="#0" id="circle30"/>
	<circle cx="195.468" cy="98.0832" r="4" fill="#0" id="circle31"/>
	<circle cx="200.419" cy="459.561" r="4" fill="#0" id="circle32"/>
	<circle cx="211.973" cy="89.8303" r="4" fill="#0" id="circle33"/>
	<circle cx="211.973" cy="472.765" r="4" fill="#0" id="circle34"/>
	<circle cx="225.178" cy="78.2762" r="4" fill="#0" id="circle35"/>
	<circle cx="228.479" cy="476.067" r="4" fill="#0" id="circle36"/>
	<circle cx="236.732" cy="65.0715" r="4" fill="#0" id="circle37"/>
	<circle cx="243.334" cy="484.319" r="4" fill="#0" id="circle38"/>
	<circle cx="253.238" cy="56.8186" r="4" fill="#0" id="circle39"/>
	<circle cx="259.84" cy="484.319" r="4" fill="#0" id="circle40"/>
	<circle cx="266.443" cy="45.2646" r="4" fill="#0" id="circle41"/>
	<circle cx="274.696" cy="492.572" r="4" fill="#0" id="circle42"/>
	<circle cx="281.298" cy="37.0116" r="4" fill="#0" id="circle43"/>
	<circle cx="289.551" cy="500.825" r="4" fill="#0" id="circle44"/>
	<circle cx="297.804" cy="37.0116" r="4" fill="#0" id="circle45"/>
	<circle cx="306.057" cy="507.428" r="4" fill="#0" id="circle46"/>
	<circle cx="314.309" cy="28.7587" r="4" fill="#0" id="circle47"/>
	<circle cx="319.261" cy="517.331" r="4" fill="#0" id="circle48"/>
	<circle cx="330.815" cy="28.7587" r="4" fill="#0" id="circle49"/>
	<circle cx="334.116" cy="525.584" r="4" fill="#0" id="circle50"/>
	<circle cx="345.671" cy="20.5058" r="4" fill="#0" id="circle51"/>
	<circle cx="348.972" cy="533.837" r="4" fill="#0" id="circle52"/>
	<circle cx="360.526" cy="12.2529" r="4" fill="#0" id="circle53"/>
	<circle cx="363.827" cy="542.09" r="4" fill="#0" id="circle54"/>
	<circle cx="377.032" cy="7.30116" r="4" fill="#0" id="circle55"/>
	<circle cx="380.333" cy="548.692" r="4" fill="#0" id="circle56"/>
	<circle cx="393.537" cy="4" r="4" fill="#0" id="circle57"/>
	<circle cx="396.839" cy="550.343" r="4" fill="#0" id="circle58"/>
	<circle cx="410.043" cy="4" r="4" fill="#0" id="circle59"/>
	<circle cx="413.344" cy="550.343" r="4" fill="#0" id="circle60"/>
	<circle cx="426.549" cy="4" r="4" fill="#0" id="circle61"/>
	<circle cx="429.85" cy="550.343" r="4" fill="#0" id="circle62"/>
	<circle cx="443.055" cy="4" r="4" fill="#0" id="circle63"/>
	<circle cx="446.356" cy="550.343" r="4" fill="#0" id="circle64"/>
	<circle cx="459.561" cy="4" r="4" fill="#0" id="circle65"/>
	<circle cx="462.862" cy="550.343" r="4" fill="#0" id="circle66"/>
	<circle cx="476.067" cy="4" r="4" fill="#0" id="circle67"/>
	<circle cx="479.368" cy="550.343" r="4" fill="#0" id="circle68"/>
	<circle cx="492.572" cy="4" r="4" fill="#0" id="circle69"/>
	<circle cx="495.874" cy="550.343" r="4" fill="#0" id="circle70"/>
	<circle cx="509.078" cy="4" r="4" fill="#0" id="circle71"/>
	<circle cx="512.379" cy="550.343" r="4" fill="#0" id="circle72"/>
	<circle cx="525.584" cy="4" r="4" fill="#0" id="circle73"/>
	<circle cx="527.235" cy="542.09" r="4" fill="#0" id="circle74"/>
	<circle cx="542.09" cy="8.95175" r="4" fill="#0" id="circle75"/>
	<circle cx="543.74" cy="542.09" r="4" fill="#0" id="circle76"/>
	<circle cx="556.945" cy="17.2047" r="4" fill="#0" id="circle77"/>
	<circle cx="558.596" cy="533.837" r="4" fill="#0" id="circle78"/>
	<circle cx="570.15" cy="28.7587" r="4" fill="#0" id="circle79"/>
	<circle cx="573.451" cy="525.584" r="4" fill="#0" id="circle80"/>
	<circle cx="585.005" cy="37.0116" r="4" fill="#0" id="circle81"/>
	<circle cx="586.656" cy="515.681" r="4" fill="#0" id="circle82"/>
	<circle cx="599.86" cy="45.2646" r="4" fill="#0" id="circle83"/>
	<circle cx="599.86" cy="500.825" r="4" fill="#0" id="circle84"/>
	<circle cx="616.366" cy="50.2163" r="4" fill="#0" id="circle85"/>
	<circle cx="616.366" cy="492.572" r="4" fill="#0" id="circle86"/>
	<circle cx="629.571" cy="481.018" r="4" fill="#0" id="circle87"/>
	<circle cx="631.221" cy="58.4692" r="4" fill="#0" id="circle88"/>
	<circle cx="644.426" cy="70.0233" r="4" fill="#0" id="circle89"/>
	<circle cx="646.077" cy="472.765" r="4" fill="#0" id="circle90"/>
	<circle cx="657.631" cy="459.561" r="4" fill="#0" id="circle91"/>
	<circle cx="659.281" cy="78.2762" r="4" fill="#0" id="circle92"/>
	<circle cx="665.884" cy="443.055" r="4" fill="#0" id="circle93"/>
	<circle cx="672.486" cy="89.8303" r="4" fill="#0" id="circle94"/>
	<circle cx="679.088" cy="431.501" r="4" fill="#0" id="circle95"/>
	<circle cx="687.341" cy="98.0832" r="4" fill="#0" id="circle96"/>
	<circle cx="690.642" cy="418.296" r="4" fill="#0" id="circle97"/>
	<circle cx="698.895" cy="111.288" r="4" fill="#0" id="circle98"/>
	<circle cx="703.847" cy="406.742" r="4" fill="#0" id="circle99"/>
	<circle cx="715.401" cy="111.288" r="4" fill="#0" id="circle100"/>
	<circle cx="715.401" cy="393.537" r="4" fill="#0" id="circle101"/>
	<circle cx="728.606" cy="381.983" r="4" fill="#0" id="circle102"/>
	<circle cx="731.907" cy="116.24" r="4" fill="#0" id="circle103"/>
	<circle cx="740.16" cy="131.095" r="4" fill="#0" id="circle104"/>
	<circle cx="740.16" cy="360.526" r="4" fill="#0" id="circle105"/>
	<circle cx="750.063" cy="144.3" r="4" fill="#0" id="circle106"/>
	<circle cx="753.364" cy="348.972" r="4" fill="#0" id="circle107"/>
	<circle cx="763.268" cy="155.854" r="4" fill="#0" id="circle108"/>
	<circle cx="764.918" cy="335.767" r="4" fill="#0" id="circle109"/>
	<circle cx="773.171" cy="169.058" r="4" fill="#0" id="circle110"/>
	<circle cx="778.123" cy="324.213" r="4" fill="#0" id="circle111"/>
	<circle cx="781.424" cy="183.913" r="4" fill="#0" id="circle112"/>
	<circle cx="786.376" cy="307.707" r="4" fill="#0" id="circle113"/>
	<circle cx="789.677" cy="286.25" r="4" fill="#0" id="circle114"/>
	<circle cx="794.629" cy="193.817" r="4" fill="#0" id="circle115"/>
	<circle cx="804.532" cy="277.997" r="4" fill="#0" id="circle116"/>
	<circle cx="811.135" cy="193.817" r="4" fill="#0" id="circle117"/>
	<circle cx="819.388" cy="286.25" r="4" fill="#0" id="circle118"/>
	<circle cx="825.99" cy="185.564" r="4" fill="#0" id="circle119"/>
	<circle cx="830.942" cy="299.454" r="4" fill="#0" id="circle120"/>
	<circle cx="842.496" cy="185.564" r="4" fill="#0" id="circle121"/>
	<circle cx="847.448" cy="306.057" r="4" fill="#0" id="circle122"/>
	<circle cx="859.002" cy="177.311" r="4" fill="#0" id="circle123"/>
	<circle cx="862.303" cy="314.309" r="4" fill="#0" id="circle124"/>
	<circle cx="873.857" cy="169.058" r="4" fill="#0" id="circle125"/>
	<circle cx="875.507" cy="325.864" r="4" fill="#0" id="circle126"/>
	<circle cx="888.712" cy="160.805" r="4" fill="#0" id="circle127"/>
	<circle cx="890.363" cy="334.116" r="4" fill="#0" id="circle128"/>
	<circle cx="903.567" cy="152.552" r="4" fill="#0" id="circle129"/>
	<circle cx="903.567" cy="344.02" r="4" fill="#0" id="circle130"/>
	<circle cx="918.423" cy="144.3" r="4" fill="#0" id="circle131"/>
	<circle cx="918.423" cy="352.273" r="4" fill="#0" id="circle132"/>
	<circle cx="933.278" cy="360.526" r="4" fill="#0" id="circle133"/>
	<circle cx="934.928" cy="144.3" r="4" fill="#0" id="circle134"/>
	<circle cx="949.784" cy="136.047" r="4" fill="#0" id="circle135"/>
	<circle cx="949.784" cy="358.875" r="4" fill="#0" id="circle136"/>
	<circle cx="958.037" cy="342.369" r="4" fill="#0" id="circle137"/>
	<circle cx="961.338" cy="149.251" r="4" fill="#0" id="circle138"/>
	<circle cx="966.29" cy="325.864" r="4" fill="#0" id="circle139"/>
	<circle cx="969.591" cy="164.106" r="4" fill="#0" id="circle140"/>
	<circle cx="971.241" cy="180.612" r="4" fill="#0" id="circle141"/>
	<circle cx="974.542" cy="309.358" r="4" fill="#0" id="circle142"/>
	<circle cx="981.145" cy="193.817" r="4" fill="#0" id="circle143"/>
	<circle cx="987.747" cy="210.323" r="4" fill="#0" id="circle144"/>
	<circle cx="987.747" cy="226.829" r="4" fill="#0" id="circle145"/>
	<circle cx="987.747" cy="243.334" r="4" fill="#0" id="circle146"/>
	<circle cx="987.747" cy="286.25" r="4" fill="#0" id="circle147"/>
	<circle cx="996" cy="258.19" r="4" fill="#0" id="circle148"/>
	</g>
</svg>