<?xml version="1.0" encoding="UTF-8" standalone="no"?>
<!-- Created with CurveBenchmark -->
<svg
	xmlns:dc="http://purl.org/dc/elements/1.1/"
	xmlns:cc="http://creativecommons.org/ns#"
	xmlns:rdf="http://www.w3.org/1999/02/22-rdf-syntax-ns#"
	xmlns:svg="http://www.w3.org/2000/svg"
	xmlns="http://www.w3.org/2000/svg"
	xmlns:sodipodi="http://sodipodi.sourceforge.net/DTD/sodipodi-0.dtd"
	xmlns:inkscape="http://www.inkscape.org/namespaces/inkscape"
	width="1000"
	height="1000"
	id="svg2"
	version="1.1"
	sodipodi:docname="manifold/hnncrust-children04.png.txt">
<defs
	id="defs4" />
<metadata
	id="metadata7">
	<rdf:RDF>
		<cc:Work
			rdf:about="">
			<dc:format>image/svg+xml</dc:format>
			<dc:type
				rdf:resource="http://purl.org/dc/dcmitype/StillImage" />
			<dc:title></dc:title>
		</cc:Work>
	</rdf:RDF>
</metadata>
<g
	inkscape:label="Layer 1"
	inkscape:groupmode="layer"
	id="layer1">
	<path style="fill:none;stroke:red;stroke-width:1px;stroke-linecap:butt;stroke-linejoin:miter;stroke-opacity:1" d="M 4,308.591 4,325.235 z" id="boundary" inkscape:connector-curvature="0" />
	<path style="fill:none;stroke:red;stroke-width:1px;stroke-linecap:butt;stroke-linejoin:miter;stroke-opacity:1" d="M 4,308.591 12.3221,291.946 z" id="boundary" inkscape:connector-curvature="0" />
	<path style="fill:none;stroke:red;stroke-width:1px;stroke-linecap:butt;stroke-linejoin:miter;stroke-opacity:1" d="M 4,325.235 4,341.879 z" id="boundary" inkscape:connector-curvature="0" />
	<path style="fill:none;stroke:red;stroke-width:1px;stroke-linecap:butt;stroke-linejoin:miter;stroke-opacity:1" d="M 4,341.879 4,358.523 z" id="boundary" inkscape:connector-curvature="0" />
	<path style="fill:none;stroke:red;stroke-width:1px;stroke-linecap:butt;stroke-linejoin:miter;stroke-opacity:1" d="M 4,358.523 4,375.168 z" id="boundary" inkscape:connector-curvature="0" />
	<path style="fill:none;stroke:red;stroke-width:1px;stroke-linecap:butt;stroke-linejoin:miter;stroke-opacity:1" d="M 4,375.168 12.3221,390.148 z" id="boundary" inkscape:connector-curvature="0" />
	<path style="fill:none;stroke:red;stroke-width:1px;stroke-linecap:butt;stroke-linejoin:miter;stroke-opacity:1" d="M 4,441.745 12.3221,423.436 z" id="boundary" inkscape:connector-curvature="0" />
	<path style="fill:none;stroke:red;stroke-width:1px;stroke-linecap:butt;stroke-linejoin:miter;stroke-opacity:1" d="M 4,441.745 12.3221,456.725 z" id="boundary" inkscape:connector-curvature="0" />
	<path style="fill:none;stroke:red;stroke-width:1px;stroke-linecap:butt;stroke-linejoin:miter;stroke-opacity:1" d="M 12.3221,291.946 25.6376,278.631 z" id="boundary" inkscape:connector-curvature="0" />
	<path style="fill:none;stroke:red;stroke-width:1px;stroke-linecap:butt;stroke-linejoin:miter;stroke-opacity:1" d="M 12.3221,390.148 12.3221,406.792 z" id="boundary" inkscape:connector-curvature="0" />
	<path style="fill:none;stroke:red;stroke-width:1px;stroke-linecap:butt;stroke-linejoin:miter;stroke-opacity:1" d="M 12.3221,406.792 12.3221,423.436 z" id="boundary" inkscape:connector-curvature="0" />
	<path style="fill:none;stroke:red;stroke-width:1px;stroke-linecap:butt;stroke-linejoin:miter;stroke-opacity:1" d="M 12.3221,456.725 12.3221,473.369 z" id="boundary" inkscape:connector-curvature="0" />
	<path style="fill:none;stroke:red;stroke-width:1px;stroke-linecap:butt;stroke-linejoin:miter;stroke-opacity:1" d="M 12.3221,473.369 12.3221,490.013 z" id="boundary" inkscape:connector-curvature="0" />
	<path style="fill:none;stroke:red;stroke-width:1px;stroke-linecap:butt;stroke-linejoin:miter;stroke-opacity:1" d="M 12.3221,490.013 20.6443,504.993 z" id="boundary" inkscape:connector-curvature="0" />
	<path style="fill:none;stroke:red;stroke-width:1px;stroke-linecap:butt;stroke-linejoin:miter;stroke-opacity:1" d="M 20.6443,92.2148 20.6443,108.859 z" id="boundary" inkscape:connector-curvature="0" />
	<path style="fill:none;stroke:red;stroke-width:1px;stroke-linecap:butt;stroke-linejoin:miter;stroke-opacity:1" d="M 20.6443,92.2148 28.9664,67.2483 z" id="boundary" inkscape:connector-curvature="0" />
	<path style="fill:none;stroke:red;stroke-width:1px;stroke-linecap:butt;stroke-linejoin:miter;stroke-opacity:1" d="M 20.6443,108.859 28.9664,123.839 z" id="boundary" inkscape:connector-curvature="0" />
	<path style="fill:none;stroke:red;stroke-width:1px;stroke-linecap:butt;stroke-linejoin:miter;stroke-opacity:1" d="M 20.6443,504.993 25.6376,521.638 z" id="boundary" inkscape:connector-curvature="0" />
	<path style="fill:none;stroke:red;stroke-width:1px;stroke-linecap:butt;stroke-linejoin:miter;stroke-opacity:1" d="M 25.6376,278.631 38.953,265.315 z" id="boundary" inkscape:connector-curvature="0" />
	<path style="fill:none;stroke:red;stroke-width:1px;stroke-linecap:butt;stroke-linejoin:miter;stroke-opacity:1" d="M 25.6376,521.638 28.9664,538.282 z" id="boundary" inkscape:connector-curvature="0" />
	<path style="fill:none;stroke:red;stroke-width:1px;stroke-linecap:butt;stroke-linejoin:miter;stroke-opacity:1" d="M 28.9664,67.2483 37.2886,50.604 z" id="boundary" inkscape:connector-curvature="0" />
	<path style="fill:none;stroke:red;stroke-width:1px;stroke-linecap:butt;stroke-linejoin:miter;stroke-opacity:1" d="M 28.9664,123.839 37.2886,138.819 z" id="boundary" inkscape:connector-curvature="0" />
	<path style="fill:none;stroke:red;stroke-width:1px;stroke-linecap:butt;stroke-linejoin:miter;stroke-opacity:1" d="M 28.9664,538.282 37.2886,553.262 z" id="boundary" inkscape:connector-curvature="0" />
	<path style="fill:none;stroke:red;stroke-width:1px;stroke-linecap:butt;stroke-linejoin:miter;stroke-opacity:1" d="M 37.2886,50.604 50.604,37.2886 z" id="boundary" inkscape:connector-curvature="0" />
	<path style="fill:none;stroke:red;stroke-width:1px;stroke-linecap:butt;stroke-linejoin:miter;stroke-opacity:1" d="M 37.2886,138.819 45.6107,153.799 z" id="boundary" inkscape:connector-curvature="0" />
	<path style="fill:none;stroke:red;stroke-width:1px;stroke-linecap:butt;stroke-linejoin:miter;stroke-opacity:1" d="M 37.2886,553.262 37.2886,569.906 z" id="boundary" inkscape:connector-curvature="0" />
	<path style="fill:none;stroke:red;stroke-width:1px;stroke-linecap:butt;stroke-linejoin:miter;stroke-opacity:1" d="M 37.2886,569.906 37.2886,586.55 z" id="boundary" inkscape:connector-curvature="0" />
	<path style="fill:none;stroke:red;stroke-width:1px;stroke-linecap:butt;stroke-linejoin:miter;stroke-opacity:1" d="M 37.2886,586.55 37.2886,603.195 z" id="boundary" inkscape:connector-curvature="0" />
	<path style="fill:none;stroke:red;stroke-width:1px;stroke-linecap:butt;stroke-linejoin:miter;stroke-opacity:1" d="M 37.2886,603.195 40.6174,619.839 z" id="boundary" inkscape:connector-curvature="0" />
	<path style="fill:none;stroke:red;stroke-width:1px;stroke-linecap:butt;stroke-linejoin:miter;stroke-opacity:1" d="M 38.953,265.315 52.2685,253.664 z" id="boundary" inkscape:connector-curvature="0" />
	<path style="fill:none;stroke:red;stroke-width:1px;stroke-linecap:butt;stroke-linejoin:miter;stroke-opacity:1" d="M 40.6174,619.839 48.9396,634.819 z" id="boundary" inkscape:connector-curvature="0" />
	<path style="fill:none;stroke:red;stroke-width:1px;stroke-linecap:butt;stroke-linejoin:miter;stroke-opacity:1" d="M 45.6107,153.799 55.5973,167.114 z" id="boundary" inkscape:connector-curvature="0" />
	<path style="fill:none;stroke:red;stroke-width:1px;stroke-linecap:butt;stroke-linejoin:miter;stroke-opacity:1" d="M 48.9396,634.819 53.9329,651.463 z" id="boundary" inkscape:connector-curvature="0" />
	<path style="fill:none;stroke:red;stroke-width:1px;stroke-linecap:butt;stroke-linejoin:miter;stroke-opacity:1" d="M 50.604,37.2886 65.5839,28.9664 z" id="boundary" inkscape:connector-curvature="0" />
	<path style="fill:none;stroke:red;stroke-width:1px;stroke-linecap:butt;stroke-linejoin:miter;stroke-opacity:1" d="M 52.2685,253.664 63.9195,240.349 z" id="boundary" inkscape:connector-curvature="0" />
	<path style="fill:none;stroke:red;stroke-width:1px;stroke-linecap:butt;stroke-linejoin:miter;stroke-opacity:1" d="M 53.9329,651.463 62.255,666.443 z" id="boundary" inkscape:connector-curvature="0" />
	<path style="fill:none;stroke:red;stroke-width:1px;stroke-linecap:butt;stroke-linejoin:miter;stroke-opacity:1" d="M 55.5973,167.114 67.2483,180.43 z" id="boundary" inkscape:connector-curvature="0" />
	<path style="fill:none;stroke:red;stroke-width:1px;stroke-linecap:butt;stroke-linejoin:miter;stroke-opacity:1" d="M 62.255,666.443 70.5772,681.423 z" id="boundary" inkscape:connector-curvature="0" />
	<path style="fill:none;stroke:red;stroke-width:1px;stroke-linecap:butt;stroke-linejoin:miter;stroke-opacity:1" d="M 63.9195,240.349 70.5772,213.718 z" id="boundary" inkscape:connector-curvature="0" />
	<path style="fill:none;stroke:red;stroke-width:1px;stroke-linecap:butt;stroke-linejoin:miter;stroke-opacity:1" d="M 65.5839,28.9664 80.5638,20.6443 z" id="boundary" inkscape:connector-curvature="0" />
	<path style="fill:none;stroke:red;stroke-width:1px;stroke-linecap:butt;stroke-linejoin:miter;stroke-opacity:1" d="M 67.2483,180.43 70.5772,197.074 z" id="boundary" inkscape:connector-curvature="0" />
	<path style="fill:none;stroke:red;stroke-width:1px;stroke-linecap:butt;stroke-linejoin:miter;stroke-opacity:1" d="M 70.5772,197.074 70.5772,213.718 z" id="boundary" inkscape:connector-curvature="0" />
	<path style="fill:none;stroke:red;stroke-width:1px;stroke-linecap:butt;stroke-linejoin:miter;stroke-opacity:1" d="M 70.5772,681.423 78.8993,696.403 z" id="boundary" inkscape:connector-curvature="0" />
	<path style="fill:none;stroke:red;stroke-width:1px;stroke-linecap:butt;stroke-linejoin:miter;stroke-opacity:1" d="M 78.8993,696.403 93.8792,704.725 z" id="boundary" inkscape:connector-curvature="0" />
	<path style="fill:none;stroke:red;stroke-width:1px;stroke-linecap:butt;stroke-linejoin:miter;stroke-opacity:1" d="M 80.5638,20.6443 95.5436,12.3221 z" id="boundary" inkscape:connector-curvature="0" />
	<path style="fill:none;stroke:red;stroke-width:1px;stroke-linecap:butt;stroke-linejoin:miter;stroke-opacity:1" d="M 87.2215,807.919 87.2215,824.564 z" id="boundary" inkscape:connector-curvature="0" />
	<path style="fill:none;stroke:red;stroke-width:1px;stroke-linecap:butt;stroke-linejoin:miter;stroke-opacity:1" d="M 87.2215,807.919 95.5436,791.275 z" id="boundary" inkscape:connector-curvature="0" />
	<path style="fill:none;stroke:red;stroke-width:1px;stroke-linecap:butt;stroke-linejoin:miter;stroke-opacity:1" d="M 87.2215,824.564 95.5436,839.544 z" id="boundary" inkscape:connector-curvature="0" />
	<path style="fill:none;stroke:red;stroke-width:1px;stroke-linecap:butt;stroke-linejoin:miter;stroke-opacity:1" d="M 93.8792,704.725 103.866,718.04 z" id="boundary" inkscape:connector-curvature="0" />
	<path style="fill:none;stroke:red;stroke-width:1px;stroke-linecap:butt;stroke-linejoin:miter;stroke-opacity:1" d="M 95.5436,12.3221 110.523,4 z" id="boundary" inkscape:connector-curvature="0" />
	<path style="fill:none;stroke:red;stroke-width:1px;stroke-linecap:butt;stroke-linejoin:miter;stroke-opacity:1" d="M 95.5436,791.275 103.866,767.973 z" id="boundary" inkscape:connector-curvature="0" />
	<path style="fill:none;stroke:red;stroke-width:1px;stroke-linecap:butt;stroke-linejoin:miter;stroke-opacity:1" d="M 95.5436,839.544 95.5436,856.188 z" id="boundary" inkscape:connector-curvature="0" />
	<path style="fill:none;stroke:red;stroke-width:1px;stroke-linecap:butt;stroke-linejoin:miter;stroke-opacity:1" d="M 95.5436,856.188 103.866,871.168 z" id="boundary" inkscape:connector-curvature="0" />
	<path style="fill:none;stroke:red;stroke-width:1px;stroke-linecap:butt;stroke-linejoin:miter;stroke-opacity:1" d="M 103.866,718.04 103.866,734.685 z" id="boundary" inkscape:connector-curvature="0" />
	<path style="fill:none;stroke:red;stroke-width:1px;stroke-linecap:butt;stroke-linejoin:miter;stroke-opacity:1" d="M 103.866,734.685 103.866,751.329 z" id="boundary" inkscape:connector-curvature="0" />
	<path style="fill:none;stroke:red;stroke-width:1px;stroke-linecap:butt;stroke-linejoin:miter;stroke-opacity:1" d="M 103.866,751.329 103.866,767.973 z" id="boundary" inkscape:connector-curvature="0" />
	<path style="fill:none;stroke:red;stroke-width:1px;stroke-linecap:butt;stroke-linejoin:miter;stroke-opacity:1" d="M 103.866,871.168 108.859,887.812 z" id="boundary" inkscape:connector-curvature="0" />
	<path style="fill:none;stroke:red;stroke-width:1px;stroke-linecap:butt;stroke-linejoin:miter;stroke-opacity:1" d="M 103.866,924.43 103.866,941.074 z" id="boundary" inkscape:connector-curvature="0" />
	<path style="fill:none;stroke:red;stroke-width:1px;stroke-linecap:butt;stroke-linejoin:miter;stroke-opacity:1" d="M 103.866,924.43 112.188,904.456 z" id="boundary" inkscape:connector-curvature="0" />
	<path style="fill:none;stroke:red;stroke-width:1px;stroke-linecap:butt;stroke-linejoin:miter;stroke-opacity:1" d="M 103.866,941.074 112.188,956.054 z" id="boundary" inkscape:connector-curvature="0" />
	<path style="fill:none;stroke:red;stroke-width:1px;stroke-linecap:butt;stroke-linejoin:miter;stroke-opacity:1" d="M 108.859,887.812 112.188,904.456 z" id="boundary" inkscape:connector-curvature="0" />
	<path style="fill:none;stroke:red;stroke-width:1px;stroke-linecap:butt;stroke-linejoin:miter;stroke-opacity:1" d="M 110.523,4 127.168,4 z" id="boundary" inkscape:connector-curvature="0" />
	<path style="fill:none;stroke:red;stroke-width:1px;stroke-linecap:butt;stroke-linejoin:miter;stroke-opacity:1" d="M 112.188,956.054 120.51,971.034 z" id="boundary" inkscape:connector-curvature="0" />
	<path style="fill:none;stroke:red;stroke-width:1px;stroke-linecap:butt;stroke-linejoin:miter;stroke-opacity:1" d="M 120.51,971.034 130.497,984.349 z" id="boundary" inkscape:connector-curvature="0" />
	<path style="fill:none;stroke:red;stroke-width:1px;stroke-linecap:butt;stroke-linejoin:miter;stroke-opacity:1" d="M 127.168,4 143.812,4 z" id="boundary" inkscape:connector-curvature="0" />
	<path style="fill:none;stroke:red;stroke-width:1px;stroke-linecap:butt;stroke-linejoin:miter;stroke-opacity:1" d="M 130.497,984.349 147.141,987.678 z" id="boundary" inkscape:connector-curvature="0" />
	<path style="fill:none;stroke:red;stroke-width:1px;stroke-linecap:butt;stroke-linejoin:miter;stroke-opacity:1" d="M 143.812,4 160.456,4 z" id="boundary" inkscape:connector-curvature="0" />
	<path style="fill:none;stroke:red;stroke-width:1px;stroke-linecap:butt;stroke-linejoin:miter;stroke-opacity:1" d="M 147.141,987.678 163.785,987.678 z" id="boundary" inkscape:connector-curvature="0" />
	<path style="fill:none;stroke:red;stroke-width:1px;stroke-linecap:butt;stroke-linejoin:miter;stroke-opacity:1" d="M 160.456,4 177.101,4 z" id="boundary" inkscape:connector-curvature="0" />
	<path style="fill:none;stroke:red;stroke-width:1px;stroke-linecap:butt;stroke-linejoin:miter;stroke-opacity:1" d="M 163.785,987.678 178.765,996 z" id="boundary" inkscape:connector-curvature="0" />
	<path style="fill:none;stroke:red;stroke-width:1px;stroke-linecap:butt;stroke-linejoin:miter;stroke-opacity:1" d="M 177.101,4 192.081,12.3221 z" id="boundary" inkscape:connector-curvature="0" />
	<path style="fill:none;stroke:red;stroke-width:1px;stroke-linecap:butt;stroke-linejoin:miter;stroke-opacity:1" d="M 178.765,996 195.409,996 z" id="boundary" inkscape:connector-curvature="0" />
	<path style="fill:none;stroke:red;stroke-width:1px;stroke-linecap:butt;stroke-linejoin:miter;stroke-opacity:1" d="M 192.081,12.3221 208.725,12.3221 z" id="boundary" inkscape:connector-curvature="0" />
	<path style="fill:none;stroke:red;stroke-width:1px;stroke-linecap:butt;stroke-linejoin:miter;stroke-opacity:1" d="M 195.409,996 212.054,996 z" id="boundary" inkscape:connector-curvature="0" />
	<path style="fill:none;stroke:red;stroke-width:1px;stroke-linecap:butt;stroke-linejoin:miter;stroke-opacity:1" d="M 208.725,12.3221 223.705,20.6443 z" id="boundary" inkscape:connector-curvature="0" />
	<path style="fill:none;stroke:red;stroke-width:1px;stroke-linecap:butt;stroke-linejoin:miter;stroke-opacity:1" d="M 212.054,996 228.698,996 z" id="boundary" inkscape:connector-curvature="0" />
	<path style="fill:none;stroke:red;stroke-width:1px;stroke-linecap:butt;stroke-linejoin:miter;stroke-opacity:1" d="M 223.705,20.6443 237.02,32.2953 z" id="boundary" inkscape:connector-curvature="0" />
	<path style="fill:none;stroke:red;stroke-width:1px;stroke-linecap:butt;stroke-linejoin:miter;stroke-opacity:1" d="M 228.698,996 245.342,996 z" id="boundary" inkscape:connector-curvature="0" />
	<path style="fill:none;stroke:red;stroke-width:1px;stroke-linecap:butt;stroke-linejoin:miter;stroke-opacity:1" d="M 237.02,32.2953 247.007,45.6107 z" id="boundary" inkscape:connector-curvature="0" />
	<path style="fill:none;stroke:red;stroke-width:1px;stroke-linecap:butt;stroke-linejoin:miter;stroke-opacity:1" d="M 245.342,996 261.987,996 z" id="boundary" inkscape:connector-curvature="0" />
	<path style="fill:none;stroke:red;stroke-width:1px;stroke-linecap:butt;stroke-linejoin:miter;stroke-opacity:1" d="M 247.007,45.6107 260.322,55.5973 z" id="boundary" inkscape:connector-curvature="0" />
	<path style="fill:none;stroke:red;stroke-width:1px;stroke-linecap:butt;stroke-linejoin:miter;stroke-opacity:1" d="M 247.007,862.846 247.007,879.49 z" id="boundary" inkscape:connector-curvature="0" />
	<path style="fill:none;stroke:red;stroke-width:1px;stroke-linecap:butt;stroke-linejoin:miter;stroke-opacity:1" d="M 247.007,862.846 255.329,846.201 z" id="boundary" inkscape:connector-curvature="0" />
	<path style="fill:none;stroke:red;stroke-width:1px;stroke-linecap:butt;stroke-linejoin:miter;stroke-opacity:1" d="M 247.007,879.49 255.329,894.47 z" id="boundary" inkscape:connector-curvature="0" />
	<path style="fill:none;stroke:red;stroke-width:1px;stroke-linecap:butt;stroke-linejoin:miter;stroke-opacity:1" d="M 255.329,222.04 258.658,238.685 z" id="boundary" inkscape:connector-curvature="0" />
	<path style="fill:none;stroke:red;stroke-width:1px;stroke-linecap:butt;stroke-linejoin:miter;stroke-opacity:1" d="M 255.329,222.04 263.651,197.074 z" id="boundary" inkscape:connector-curvature="0" />
	<path style="fill:none;stroke:red;stroke-width:1px;stroke-linecap:butt;stroke-linejoin:miter;stroke-opacity:1" d="M 255.329,846.201 268.644,834.55 z" id="boundary" inkscape:connector-curvature="0" />
	<path style="fill:none;stroke:red;stroke-width:1px;stroke-linecap:butt;stroke-linejoin:miter;stroke-opacity:1" d="M 255.329,894.47 270.309,902.792 z" id="boundary" inkscape:connector-curvature="0" />
	<path style="fill:none;stroke:red;stroke-width:1px;stroke-linecap:butt;stroke-linejoin:miter;stroke-opacity:1" d="M 258.658,238.685 266.98,253.664 z" id="boundary" inkscape:connector-curvature="0" />
	<path style="fill:none;stroke:red;stroke-width:1px;stroke-linecap:butt;stroke-linejoin:miter;stroke-opacity:1" d="M 260.322,55.5973 266.98,72.2416 z" id="boundary" inkscape:connector-curvature="0" />
	<path style="fill:none;stroke:red;stroke-width:1px;stroke-linecap:butt;stroke-linejoin:miter;stroke-opacity:1" d="M 261.987,996 278.631,996 z" id="boundary" inkscape:connector-curvature="0" />
	<path style="fill:none;stroke:red;stroke-width:1px;stroke-linecap:butt;stroke-linejoin:miter;stroke-opacity:1" d="M 263.651,197.074 271.973,172.107 z" id="boundary" inkscape:connector-curvature="0" />
	<path style="fill:none;stroke:red;stroke-width:1px;stroke-linecap:butt;stroke-linejoin:miter;stroke-opacity:1" d="M 266.98,72.2416 271.973,88.8859 z" id="boundary" inkscape:connector-curvature="0" />
	<path style="fill:none;stroke:red;stroke-width:1px;stroke-linecap:butt;stroke-linejoin:miter;stroke-opacity:1" d="M 266.98,253.664 278.631,266.98 z" id="boundary" inkscape:connector-curvature="0" />
	<path style="fill:none;stroke:red;stroke-width:1px;stroke-linecap:butt;stroke-linejoin:miter;stroke-opacity:1" d="M 268.644,834.55 271.973,804.591 z" id="boundary" inkscape:connector-curvature="0" />
	<path style="fill:none;stroke:red;stroke-width:1px;stroke-linecap:butt;stroke-linejoin:miter;stroke-opacity:1" d="M 270.309,902.792 285.289,911.114 z" id="boundary" inkscape:connector-curvature="0" />
	<path style="fill:none;stroke:red;stroke-width:1px;stroke-linecap:butt;stroke-linejoin:miter;stroke-opacity:1" d="M 271.973,88.8859 271.973,105.53 z" id="boundary" inkscape:connector-curvature="0" />
	<path style="fill:none;stroke:red;stroke-width:1px;stroke-linecap:butt;stroke-linejoin:miter;stroke-opacity:1" d="M 271.973,105.53 271.973,122.174 z" id="boundary" inkscape:connector-curvature="0" />
	<path style="fill:none;stroke:red;stroke-width:1px;stroke-linecap:butt;stroke-linejoin:miter;stroke-opacity:1" d="M 271.973,122.174 271.973,138.819 z" id="boundary" inkscape:connector-curvature="0" />
	<path style="fill:none;stroke:red;stroke-width:1px;stroke-linecap:butt;stroke-linejoin:miter;stroke-opacity:1" d="M 271.973,138.819 271.973,155.463 z" id="boundary" inkscape:connector-curvature="0" />
	<path style="fill:none;stroke:red;stroke-width:1px;stroke-linecap:butt;stroke-linejoin:miter;stroke-opacity:1" d="M 271.973,155.463 271.973,172.107 z" id="boundary" inkscape:connector-curvature="0" />
	<path style="fill:none;stroke:red;stroke-width:1px;stroke-linecap:butt;stroke-linejoin:miter;stroke-opacity:1" d="M 271.973,787.946 271.973,804.591 z" id="boundary" inkscape:connector-curvature="0" />
	<path style="fill:none;stroke:red;stroke-width:1px;stroke-linecap:butt;stroke-linejoin:miter;stroke-opacity:1" d="M 271.973,787.946 280.295,771.302 z" id="boundary" inkscape:connector-curvature="0" />
	<path style="fill:none;stroke:red;stroke-width:1px;stroke-linecap:butt;stroke-linejoin:miter;stroke-opacity:1" d="M 278.631,266.98 286.953,281.96 z" id="boundary" inkscape:connector-curvature="0" />
	<path style="fill:none;stroke:red;stroke-width:1px;stroke-linecap:butt;stroke-linejoin:miter;stroke-opacity:1" d="M 278.631,996 293.611,987.678 z" id="boundary" inkscape:connector-curvature="0" />
	<path style="fill:none;stroke:red;stroke-width:1px;stroke-linecap:butt;stroke-linejoin:miter;stroke-opacity:1" d="M 280.295,771.302 288.617,754.658 z" id="boundary" inkscape:connector-curvature="0" />
	<path style="fill:none;stroke:red;stroke-width:1px;stroke-linecap:butt;stroke-linejoin:miter;stroke-opacity:1" d="M 285.289,911.114 301.933,912.779 z" id="boundary" inkscape:connector-curvature="0" />
	<path style="fill:none;stroke:red;stroke-width:1px;stroke-linecap:butt;stroke-linejoin:miter;stroke-opacity:1" d="M 286.953,281.96 288.617,298.604 z" id="boundary" inkscape:connector-curvature="0" />
	<path style="fill:none;stroke:red;stroke-width:1px;stroke-linecap:butt;stroke-linejoin:miter;stroke-opacity:1" d="M 288.617,298.604 288.617,315.248 z" id="boundary" inkscape:connector-curvature="0" />
	<path style="fill:none;stroke:red;stroke-width:1px;stroke-linecap:butt;stroke-linejoin:miter;stroke-opacity:1" d="M 288.617,315.248 296.94,330.228 z" id="boundary" inkscape:connector-curvature="0" />
	<path style="fill:none;stroke:red;stroke-width:1px;stroke-linecap:butt;stroke-linejoin:miter;stroke-opacity:1" d="M 288.617,754.658 296.94,729.691 z" id="boundary" inkscape:connector-curvature="0" />
	<path style="fill:none;stroke:red;stroke-width:1px;stroke-linecap:butt;stroke-linejoin:miter;stroke-opacity:1" d="M 293.611,987.678 308.591,977.691 z" id="boundary" inkscape:connector-curvature="0" />
	<path style="fill:none;stroke:red;stroke-width:1px;stroke-linecap:butt;stroke-linejoin:miter;stroke-opacity:1" d="M 296.94,330.228 296.94,346.872 z" id="boundary" inkscape:connector-curvature="0" />
	<path style="fill:none;stroke:red;stroke-width:1px;stroke-linecap:butt;stroke-linejoin:miter;stroke-opacity:1" d="M 296.94,346.872 296.94,363.517 z" id="boundary" inkscape:connector-curvature="0" />
	<path style="fill:none;stroke:red;stroke-width:1px;stroke-linecap:butt;stroke-linejoin:miter;stroke-opacity:1" d="M 296.94,363.517 296.94,380.161 z" id="boundary" inkscape:connector-curvature="0" />
	<path style="fill:none;stroke:red;stroke-width:1px;stroke-linecap:butt;stroke-linejoin:miter;stroke-opacity:1" d="M 296.94,380.161 296.94,396.805 z" id="boundary" inkscape:connector-curvature="0" />
	<path style="fill:none;stroke:red;stroke-width:1px;stroke-linecap:butt;stroke-linejoin:miter;stroke-opacity:1" d="M 296.94,396.805 300.268,413.45 z" id="boundary" inkscape:connector-curvature="0" />
	<path style="fill:none;stroke:red;stroke-width:1px;stroke-linecap:butt;stroke-linejoin:miter;stroke-opacity:1" d="M 296.94,663.114 296.94,679.758 z" id="boundary" inkscape:connector-curvature="0" />
	<path style="fill:none;stroke:red;stroke-width:1px;stroke-linecap:butt;stroke-linejoin:miter;stroke-opacity:1" d="M 296.94,663.114 310.255,651.463 z" id="boundary" inkscape:connector-curvature="0" />
	<path style="fill:none;stroke:red;stroke-width:1px;stroke-linecap:butt;stroke-linejoin:miter;stroke-opacity:1" d="M 296.94,679.758 296.94,696.403 z" id="boundary" inkscape:connector-curvature="0" />
	<path style="fill:none;stroke:red;stroke-width:1px;stroke-linecap:butt;stroke-linejoin:miter;stroke-opacity:1" d="M 296.94,696.403 296.94,713.047 z" id="boundary" inkscape:connector-curvature="0" />
	<path style="fill:none;stroke:red;stroke-width:1px;stroke-linecap:butt;stroke-linejoin:miter;stroke-opacity:1" d="M 296.94,713.047 296.94,729.691 z" id="boundary" inkscape:connector-curvature="0" />
	<path style="fill:none;stroke:red;stroke-width:1px;stroke-linecap:butt;stroke-linejoin:miter;stroke-opacity:1" d="M 300.268,413.45 305.262,430.094 z" id="boundary" inkscape:connector-curvature="0" />
	<path style="fill:none;stroke:red;stroke-width:1px;stroke-linecap:butt;stroke-linejoin:miter;stroke-opacity:1" d="M 301.933,912.779 316.913,921.101 z" id="boundary" inkscape:connector-curvature="0" />
	<path style="fill:none;stroke:red;stroke-width:1px;stroke-linecap:butt;stroke-linejoin:miter;stroke-opacity:1" d="M 305.262,430.094 313.584,445.074 z" id="boundary" inkscape:connector-curvature="0" />
	<path style="fill:none;stroke:red;stroke-width:1px;stroke-linecap:butt;stroke-linejoin:miter;stroke-opacity:1" d="M 308.591,977.691 325.235,969.369 z" id="boundary" inkscape:connector-curvature="0" />
	<path style="fill:none;stroke:red;stroke-width:1px;stroke-linecap:butt;stroke-linejoin:miter;stroke-opacity:1" d="M 310.255,651.463 313.584,621.503 z" id="boundary" inkscape:connector-curvature="0" />
	<path style="fill:none;stroke:red;stroke-width:1px;stroke-linecap:butt;stroke-linejoin:miter;stroke-opacity:1" d="M 313.584,445.074 313.584,461.718 z" id="boundary" inkscape:connector-curvature="0" />
	<path style="fill:none;stroke:red;stroke-width:1px;stroke-linecap:butt;stroke-linejoin:miter;stroke-opacity:1" d="M 313.584,461.718 321.906,476.698 z" id="boundary" inkscape:connector-curvature="0" />
	<path style="fill:none;stroke:red;stroke-width:1px;stroke-linecap:butt;stroke-linejoin:miter;stroke-opacity:1" d="M 313.584,621.503 326.899,609.852 z" id="boundary" inkscape:connector-curvature="0" />
	<path style="fill:none;stroke:red;stroke-width:1px;stroke-linecap:butt;stroke-linejoin:miter;stroke-opacity:1" d="M 316.913,921.101 330.228,932.752 z" id="boundary" inkscape:connector-curvature="0" />
	<path style="fill:none;stroke:red;stroke-width:1px;stroke-linecap:butt;stroke-linejoin:miter;stroke-opacity:1" d="M 321.906,476.698 330.228,491.678 z" id="boundary" inkscape:connector-curvature="0" />
	<path style="fill:none;stroke:red;stroke-width:1px;stroke-linecap:butt;stroke-linejoin:miter;stroke-opacity:1" d="M 325.235,969.369 330.228,949.396 z" id="boundary" inkscape:connector-curvature="0" />
	<path style="fill:none;stroke:red;stroke-width:1px;stroke-linecap:butt;stroke-linejoin:miter;stroke-opacity:1" d="M 326.899,609.852 338.55,596.537 z" id="boundary" inkscape:connector-curvature="0" />
	<path style="fill:none;stroke:red;stroke-width:1px;stroke-linecap:butt;stroke-linejoin:miter;stroke-opacity:1" d="M 330.228,491.678 330.228,508.322 z" id="boundary" inkscape:connector-curvature="0" />
	<path style="fill:none;stroke:red;stroke-width:1px;stroke-linecap:butt;stroke-linejoin:miter;stroke-opacity:1" d="M 330.228,508.322 330.228,524.966 z" id="boundary" inkscape:connector-curvature="0" />
	<path style="fill:none;stroke:red;stroke-width:1px;stroke-linecap:butt;stroke-linejoin:miter;stroke-opacity:1" d="M 330.228,524.966 338.55,539.946 z" id="boundary" inkscape:connector-curvature="0" />
	<path style="fill:none;stroke:red;stroke-width:1px;stroke-linecap:butt;stroke-linejoin:miter;stroke-opacity:1" d="M 330.228,932.752 330.228,949.396 z" id="boundary" inkscape:connector-curvature="0" />
	<path style="fill:none;stroke:red;stroke-width:1px;stroke-linecap:butt;stroke-linejoin:miter;stroke-opacity:1" d="M 338.55,539.946 343.544,556.591 z" id="boundary" inkscape:connector-curvature="0" />
	<path style="fill:none;stroke:red;stroke-width:1px;stroke-linecap:butt;stroke-linejoin:miter;stroke-opacity:1" d="M 338.55,596.537 346.872,573.235 z" id="boundary" inkscape:connector-curvature="0" />
	<path style="fill:none;stroke:red;stroke-width:1px;stroke-linecap:butt;stroke-linejoin:miter;stroke-opacity:1" d="M 343.544,556.591 346.872,573.235 z" id="boundary" inkscape:connector-curvature="0" />
	<circle cx="4" cy="308.591" r="4" fill="#0" id="circle0"/>
	<circle cx="4" cy="325.235" r="4" fill="#0" id="circle1"/>
	<circle cx="4" cy="341.879" r="4" fill="#0" id="circle2"/>
	<circle cx="4" cy="358.523" r="4" fill="#0" id="circle3"/>
	<circle cx="4" cy="375.168" r="4" fill="#0" id="circle4"/>
	<circle cx="4" cy="441.745" r="4" fill="#0" id="circle5"/>
	<circle cx="12.3221" cy="291.946" r="4" fill="#0" id="circle6"/>
	<circle cx="12.3221" cy="390.148" r="4" fill="#0" id="circle7"/>
	<circle cx="12.3221" cy="406.792" r="4" fill="#0" id="circle8"/>
	<circle cx="12.3221" cy="423.436" r="4" fill="#0" id="circle9"/>
	<circle cx="12.3221" cy="456.725" r="4" fill="#0" id="circle10"/>
	<circle cx="12.3221" cy="473.369" r="4" fill="#0" id="circle11"/>
	<circle cx="12.3221" cy="490.013" r="4" fill="#0" id="circle12"/>
	<circle cx="20.6443" cy="92.2148" r="4" fill="#0" id="circle13"/>
	<circle cx="20.6443" cy="108.859" r="4" fill="#0" id="circle14"/>
	<circle cx="20.6443" cy="504.993" r="4" fill="#0" id="circle15"/>
	<circle cx="25.6376" cy="278.631" r="4" fill="#0" id="circle16"/>
	<circle cx="25.6376" cy="521.638" r="4" fill="#0" id="circle17"/>
	<circle cx="28.9664" cy="67.2483" r="4" fill="#0" id="circle18"/>
	<circle cx="28.9664" cy="123.839" r="4" fill="#0" id="circle19"/>
	<circle cx="28.9664" cy="538.282" r="4" fill="#0" id="circle20"/>
	<circle cx="37.2886" cy="50.604" r="4" fill="#0" id="circle21"/>
	<circle cx="37.2886" cy="138.819" r="4" fill="#0" id="circle22"/>
	<circle cx="37.2886" cy="553.262" r="4" fill="#0" id="circle23"/>
	<circle cx="37.2886" cy="569.906" r="4" fill="#0" id="circle24"/>
	<circle cx="37.2886" cy="586.55" r="4" fill="#0" id="circle25"/>
	<circle cx="37.2886" cy="603.195" r="4" fill="#0" id="circle26"/>
	<circle cx="38.953" cy="265.315" r="4" fill="#0" id="circle27"/>
	<circle cx="40.6174" cy="619.839" r="4" fill="#0" id="circle28"/>
	<circle cx="45.6107" cy="153.799" r="4" fill="#0" id="circle29"/>
	<circle cx="48.9396" cy="634.819" r="4" fill="#0" id="circle30"/>
	<circle cx="50.604" cy="37.2886" r="4" fill="#0" id="circle31"/>
	<circle cx="52.2685" cy="253.664" r="4" fill="#0" id="circle32"/>
	<circle cx="53.9329" cy="651.463" r="4" fill="#0" id="circle33"/>
	<circle cx="55.5973" cy="167.114" r="4" fill="#0" id="circle34"/>
	<circle cx="62.255" cy="666.443" r="4" fill="#0" id="circle35"/>
	<circle cx="63.9195" cy="240.349" r="4" fill="#0" id="circle36"/>
	<circle cx="65.5839" cy="28.9664" r="4" fill="#0" id="circle37"/>
	<circle cx="67.2483" cy="180.43" r="4" fill="#0" id="circle38"/>
	<circle cx="70.5772" cy="197.074" r="4" fill="#0" id="circle39"/>
	<circle cx="70.5772" cy="213.718" r="4" fill="#0" id="circle40"/>
	<circle cx="70.5772" cy="681.423" r="4" fill="#0" id="circle41"/>
	<circle cx="78.8993" cy="696.403" r="4" fill="#0" id="circle42"/>
	<circle cx="80.5638" cy="20.6443" r="4" fill="#0" id="circle43"/>
	<circle cx="87.2215" cy="807.919" r="4" fill="#0" id="circle44"/>
	<circle cx="87.2215" cy="824.564" r="4" fill="#0" id="circle45"/>
	<circle cx="93.8792" cy="704.725" r="4" fill="#0" id="circle46"/>
	<circle cx="95.5436" cy="12.3221" r="4" fill="#0" id="circle47"/>
	<circle cx="95.5436" cy="791.275" r="4" fill="#0" id="circle48"/>
	<circle cx="95.5436" cy="839.544" r="4" fill="#0" id="circle49"/>
	<circle cx="95.5436" cy="856.188" r="4" fill="#0" id="circle50"/>
	<circle cx="103.866" cy="718.04" r="4" fill="#0" id="circle51"/>
	<circle cx="103.866" cy="734.685" r="4" fill="#0" id="circle52"/>
	<circle cx="103.866" cy="751.329" r="4" fill="#0" id="circle53"/>
	<circle cx="103.866" cy="767.973" r="4" fill="#0" id="circle54"/>
	<circle cx="103.866" cy="871.168" r="4" fill="#0" id="circle55"/>
	<circle cx="103.866" cy="924.43" r="4" fill="#0" id="circle56"/>
	<circle cx="103.866" cy="941.074" r="4" fill="#0" id="circle57"/>
	<circle cx="108.859" cy="887.812" r="4" fill="#0" id="circle58"/>
	<circle cx="110.523" cy="4" r="4" fill="#0" id="circle59"/>
	<circle cx="112.188" cy="904.456" r="4" fill="#0" id="circle60"/>
	<circle cx="112.188" cy="956.054" r="4" fill="#0" id="circle61"/>
	<circle cx="120.51" cy="971.034" r="4" fill="#0" id="circle62"/>
	<circle cx="127.168" cy="4" r="4" fill="#0" id="circle63"/>
	<circle cx="130.497" cy="984.349" r="4" fill="#0" id="circle64"/>
	<circle cx="143.812" cy="4" r="4" fill="#0" id="circle65"/>
	<circle cx="147.141" cy="987.678" r="4" fill="#0" id="circle66"/>
	<circle cx="160.456" cy="4" r="4" fill="#0" id="circle67"/>
	<circle cx="163.785" cy="987.678" r="4" fill="#0" id="circle68"/>
	<circle cx="177.101" cy="4" r="4" fill="#0" id="circle69"/>
	<circle cx="178.765" cy="996" r="4" fill="#0" id="circle70"/>
	<circle cx="192.081" cy="12.3221" r="4" fill="#0" id="circle71"/>
	<circle cx="195.409" cy="996" r="4" fill="#0" id="circle72"/>
	<circle cx="208.725" cy="12.3221" r="4" fill="#0" id="circle73"/>
	<circle cx="212.054" cy="996" r="4" fill="#0" id="circle74"/>
	<circle cx="223.705" cy="20.6443" r="4" fill="#0" id="circle75"/>
	<circle cx="228.698" cy="996" r="4" fill="#0" id="circle76"/>
	<circle cx="237.02" cy="32.2953" r="4" fill="#0" id="circle77"/>
	<circle cx="245.342" cy="996" r="4" fill="#0" id="circle78"/>
	<circle cx="247.007" cy="45.6107" r="4" fill="#0" id="circle79"/>
	<circle cx="247.007" cy="862.846" r="4" fill="#0" id="circle80"/>
	<circle cx="247.007" cy="879.49" r="4" fill="#0" id="circle81"/>
	<circle cx="255.329" cy="222.04" r="4" fill="#0" id="circle82"/>
	<circle cx="255.329" cy="846.201" r="4" fill="#0" id="circle83"/>
	<circle cx="255.329" cy="894.47" r="4" fill="#0" id="circle84"/>
	<circle cx="258.658" cy="238.685" r="4" fill="#0" id="circle85"/>
	<circle cx="260.322" cy="55.5973" r="4" fill="#0" id="circle86"/>
	<circle cx="261.987" cy="996" r="4" fill="#0" id="circle87"/>
	<circle cx="263.651" cy="197.074" r="4" fill="#0" id="circle88"/>
	<circle cx="266.98" cy="72.2416" r="4" fill="#0" id="circle89"/>
	<circle cx="266.98" cy="253.664" r="4" fill="#0" id="circle90"/>
	<circle cx="268.644" cy="834.55" r="4" fill="#0" id="circle91"/>
	<circle cx="270.309" cy="902.792" r="4" fill="#0" id="circle92"/>
	<circle cx="271.973" cy="88.8859" r="4" fill="#0" id="circle93"/>
	<circle cx="271.973" cy="105.53" r="4" fill="#0" id="circle94"/>
	<circle cx="271.973" cy="122.174" r="4" fill="#0" id="circle95"/>
	<circle cx="271.973" cy="138.819" r="4" fill="#0" id="circle96"/>
	<circle cx="271.973" cy="155.463" r="4" fill="#0" id="circle97"/>
	<circle cx="271.973" cy="172.107" r="4" fill="#0" id="circle98"/>
	<circle cx="271.973" cy="787.946" r="4" fill="#0" id="circle99"/>
	<circle cx="271.973" cy="804.591" r="4" fill="#0" id="circle100"/>
	<circle cx="278.631" cy="266.98" r="4" fill="#0" id="circle101"/>
	<circle cx="278.631" cy="996" r="4" fill="#0" id="circle102"/>
	<circle cx="280.295" cy="771.302" r="4" fill="#0" id="circle103"/>
	<circle cx="285.289" cy="911.114" r="4" fill="#0" id="circle104"/>
	<circle cx="286.953" cy="281.96" r="4" fill="#0" id="circle105"/>
	<circle cx="288.617" cy="298.604" r="4" fill="#0" id="circle106"/>
	<circle cx="288.617" cy="315.248" r="4" fill="#0" id="circle107"/>
	<circle cx="288.617" cy="754.658" r="4" fill="#0" id="circle108"/>
	<circle cx="293.611" cy="987.678" r="4" fill="#0" id="circle109"/>
	<circle cx="296.94" cy="330.228" r="4" fill="#0" id="circle110"/>
	<circle cx="296.94" cy="346.872" r="4" fill="#0" id="circle111"/>
	<circle cx="296.94" cy="363.517" r="4" fill="#0" id="circle112"/>
	<circle cx="296.94" cy="380.161" r="4" fill="#0" id="circle113"/>
	<circle cx="296.94" cy="396.805" r="4" fill="#0" id="circle114"/>
	<circle cx="296.94" cy="663.114" r="4" fill="#0" id="circle115"/>
	<circle cx="296.94" cy="679.758" r="4" fill="#0" id="circle116"/>
	<circle cx="296.94" cy="696.403" r="4" fill="#0" id="circle117"/>
	<circle cx="296.94" cy="713.047" r="4" fill="#0" id="circle118"/>
	<circle cx="296.94" cy="729.691" r="4" fill="#0" id="circle119"/>
	<circle cx="300.268" cy="413.45" r="4" fill="#0" id="circle120"/>
	<circle cx="301.933" cy="912.779" r="4" fill="#0" id="circle121"/>
	<circle cx="305.262" cy="430.094" r="4" fill="#0" id="circle122"/>
	<circle cx="308.591" cy="977.691" r="4" fill="#0" id="circle123"/>
	<circle cx="310.255" cy="651.463" r="4" fill="#0" id="circle124"/>
	<circle cx="313.584" cy="445.074" r="4" fill="#0" id="circle125"/>
	<circle cx="313.584" cy="461.718" r="4" fill="#0" id="circle126"/>
	<circle cx="313.584" cy="621.503" r="4" fill="#0" id="circle127"/>
	<circle cx="316.913" cy="921.101" r="4" fill="#0" id="circle128"/>
	<circle cx="321.906" cy="476.698" r="4" fill="#0" id="circle129"/>
	<circle cx="325.235" cy="969.369" r="4" fill="#0" id="circle130"/>
	<circle cx="326.899" cy="609.852" r="4" fill="#0" id="circle131"/>
	<circle cx="330.228" cy="491.678" r="4" fill="#0" id="circle132"/>
	<circle cx="330.228" cy="508.322" r="4" fill="#0" id="circle133"/>
	<circle cx="330.228" cy="524.966" r="4" fill="#0" id="circle134"/>
	<circle cx="330.228" cy="932.752" r="4" fill="#0" id="circle135"/>
	<circle cx="330.228" cy="949.396" r="4" fill="#0" id="circle136"/>
	<circle cx="338.55" cy="539.946" r="4" fill="#0" id="circle137"/>
	<circle cx="338.55" cy="596.537" r="4" fill="#0" id="circle138"/>
	<circle cx="343.544" cy="556.591" r="4" fill="#0" id="circle139"/>
	<circle cx="346.872" cy="573.235" r="4" fill="#0" id="circle140"/>
	</g>
</svg>