<?xml version="1.0" encoding="UTF-8" standalone="no"?>
<!-- Created with CurveBenchmark -->
<svg
	xmlns:dc="http://purl.org/dc/elements/1.1/"
	xmlns:cc="http://creativecommons.org/ns#"
	xmlns:rdf="http://www.w3.org/1999/02/22-rdf-syntax-ns#"
	xmlns:svg="http://www.w3.org/2000/svg"
	xmlns="http://www.w3.org/2000/svg"
	xmlns:sodipodi="http://sodipodi.sourceforge.net/DTD/sodipodi-0.dtd"
	xmlns:inkscape="http://www.inkscape.org/namespaces/inkscape"
	width="1000"
	height="1000"
	id="svg2"
	version="1.1"
	sodipodi:docname="manifold/hnncrust-apple-10.png.txt">
<defs
	id="defs4" />
<metadata
	id="metadata7">
	<rdf:RDF>
		<cc:Work
			rdf:about="">
			<dc:format>image/svg+xml</dc:format>
			<dc:type
				rdf:resource="http://purl.org/dc/dcmitype/StillImage" />
			<dc:title></dc:title>
		</cc:Work>
	</rdf:RDF>
</metadata>
<g
	inkscape:label="Layer 1"
	inkscape:groupmode="layer"
	id="layer1">
	<path style="fill:none;stroke:red;stroke-width:1px;stroke-linecap:butt;stroke-linejoin:miter;stroke-opacity:1" d="M 4,546.97 4,556.364 z" id="boundary" inkscape:connector-curvature="0" />
	<path style="fill:none;stroke:red;stroke-width:1px;stroke-linecap:butt;stroke-linejoin:miter;stroke-opacity:1" d="M 4,546.97 8.69697,537.576 z" id="boundary" inkscape:connector-curvature="0" />
	<path style="fill:none;stroke:red;stroke-width:1px;stroke-linecap:butt;stroke-linejoin:miter;stroke-opacity:1" d="M 4,556.364 4,565.758 z" id="boundary" inkscape:connector-curvature="0" />
	<path style="fill:none;stroke:red;stroke-width:1px;stroke-linecap:butt;stroke-linejoin:miter;stroke-opacity:1" d="M 4,565.758 4,575.152 z" id="boundary" inkscape:connector-curvature="0" />
	<path style="fill:none;stroke:red;stroke-width:1px;stroke-linecap:butt;stroke-linejoin:miter;stroke-opacity:1" d="M 4,575.152 4,584.545 z" id="boundary" inkscape:connector-curvature="0" />
	<path style="fill:none;stroke:red;stroke-width:1px;stroke-linecap:butt;stroke-linejoin:miter;stroke-opacity:1" d="M 4,584.545 4,593.939 z" id="boundary" inkscape:connector-curvature="0" />
	<path style="fill:none;stroke:red;stroke-width:1px;stroke-linecap:butt;stroke-linejoin:miter;stroke-opacity:1" d="M 4,593.939 4,603.333 z" id="boundary" inkscape:connector-curvature="0" />
	<path style="fill:none;stroke:red;stroke-width:1px;stroke-linecap:butt;stroke-linejoin:miter;stroke-opacity:1" d="M 4,603.333 4,612.727 z" id="boundary" inkscape:connector-curvature="0" />
	<path style="fill:none;stroke:red;stroke-width:1px;stroke-linecap:butt;stroke-linejoin:miter;stroke-opacity:1" d="M 4,612.727 4,622.121 z" id="boundary" inkscape:connector-curvature="0" />
	<path style="fill:none;stroke:red;stroke-width:1px;stroke-linecap:butt;stroke-linejoin:miter;stroke-opacity:1" d="M 4,622.121 4,631.515 z" id="boundary" inkscape:connector-curvature="0" />
	<path style="fill:none;stroke:red;stroke-width:1px;stroke-linecap:butt;stroke-linejoin:miter;stroke-opacity:1" d="M 4,631.515 8.69697,639.97 z" id="boundary" inkscape:connector-curvature="0" />
	<path style="fill:none;stroke:red;stroke-width:1px;stroke-linecap:butt;stroke-linejoin:miter;stroke-opacity:1" d="M 8.69697,509.394 8.69697,518.788 z" id="boundary" inkscape:connector-curvature="0" />
	<path style="fill:none;stroke:red;stroke-width:1px;stroke-linecap:butt;stroke-linejoin:miter;stroke-opacity:1" d="M 8.69697,509.394 13.3939,500 z" id="boundary" inkscape:connector-curvature="0" />
	<path style="fill:none;stroke:red;stroke-width:1px;stroke-linecap:butt;stroke-linejoin:miter;stroke-opacity:1" d="M 8.69697,518.788 8.69697,528.182 z" id="boundary" inkscape:connector-curvature="0" />
	<path style="fill:none;stroke:red;stroke-width:1px;stroke-linecap:butt;stroke-linejoin:miter;stroke-opacity:1" d="M 8.69697,528.182 8.69697,537.576 z" id="boundary" inkscape:connector-curvature="0" />
	<path style="fill:none;stroke:red;stroke-width:1px;stroke-linecap:butt;stroke-linejoin:miter;stroke-opacity:1" d="M 8.69697,639.97 8.69697,649.364 z" id="boundary" inkscape:connector-curvature="0" />
	<path style="fill:none;stroke:red;stroke-width:1px;stroke-linecap:butt;stroke-linejoin:miter;stroke-opacity:1" d="M 8.69697,649.364 8.69697,658.758 z" id="boundary" inkscape:connector-curvature="0" />
	<path style="fill:none;stroke:red;stroke-width:1px;stroke-linecap:butt;stroke-linejoin:miter;stroke-opacity:1" d="M 8.69697,658.758 8.69697,668.152 z" id="boundary" inkscape:connector-curvature="0" />
	<path style="fill:none;stroke:red;stroke-width:1px;stroke-linecap:butt;stroke-linejoin:miter;stroke-opacity:1" d="M 8.69697,668.152 13.3939,676.606 z" id="boundary" inkscape:connector-curvature="0" />
	<path style="fill:none;stroke:red;stroke-width:1px;stroke-linecap:butt;stroke-linejoin:miter;stroke-opacity:1" d="M 13.3939,490.606 13.3939,500 z" id="boundary" inkscape:connector-curvature="0" />
	<path style="fill:none;stroke:red;stroke-width:1px;stroke-linecap:butt;stroke-linejoin:miter;stroke-opacity:1" d="M 13.3939,490.606 18.0909,481.212 z" id="boundary" inkscape:connector-curvature="0" />
	<path style="fill:none;stroke:red;stroke-width:1px;stroke-linecap:butt;stroke-linejoin:miter;stroke-opacity:1" d="M 13.3939,676.606 13.3939,686 z" id="boundary" inkscape:connector-curvature="0" />
	<path style="fill:none;stroke:red;stroke-width:1px;stroke-linecap:butt;stroke-linejoin:miter;stroke-opacity:1" d="M 13.3939,686 18.0909,694.455 z" id="boundary" inkscape:connector-curvature="0" />
	<path style="fill:none;stroke:red;stroke-width:1px;stroke-linecap:butt;stroke-linejoin:miter;stroke-opacity:1" d="M 18.0909,471.818 18.0909,481.212 z" id="boundary" inkscape:connector-curvature="0" />
	<path style="fill:none;stroke:red;stroke-width:1px;stroke-linecap:butt;stroke-linejoin:miter;stroke-opacity:1" d="M 18.0909,471.818 22.7879,462.424 z" id="boundary" inkscape:connector-curvature="0" />
	<path style="fill:none;stroke:red;stroke-width:1px;stroke-linecap:butt;stroke-linejoin:miter;stroke-opacity:1" d="M 18.0909,694.455 18.0909,703.848 z" id="boundary" inkscape:connector-curvature="0" />
	<path style="fill:none;stroke:red;stroke-width:1px;stroke-linecap:butt;stroke-linejoin:miter;stroke-opacity:1" d="M 18.0909,703.848 22.7879,712.303 z" id="boundary" inkscape:connector-curvature="0" />
	<path style="fill:none;stroke:red;stroke-width:1px;stroke-linecap:butt;stroke-linejoin:miter;stroke-opacity:1" d="M 22.7879,453.03 22.7879,462.424 z" id="boundary" inkscape:connector-curvature="0" />
	<path style="fill:none;stroke:red;stroke-width:1px;stroke-linecap:butt;stroke-linejoin:miter;stroke-opacity:1" d="M 22.7879,453.03 27.4848,438.939 z" id="boundary" inkscape:connector-curvature="0" />
	<path style="fill:none;stroke:red;stroke-width:1px;stroke-linecap:butt;stroke-linejoin:miter;stroke-opacity:1" d="M 22.7879,712.303 22.7879,721.697 z" id="boundary" inkscape:connector-curvature="0" />
	<path style="fill:none;stroke:red;stroke-width:1px;stroke-linecap:butt;stroke-linejoin:miter;stroke-opacity:1" d="M 22.7879,721.697 27.4848,730.152 z" id="boundary" inkscape:connector-curvature="0" />
	<path style="fill:none;stroke:red;stroke-width:1px;stroke-linecap:butt;stroke-linejoin:miter;stroke-opacity:1" d="M 27.4848,438.939 32.1818,429.545 z" id="boundary" inkscape:connector-curvature="0" />
	<path style="fill:none;stroke:red;stroke-width:1px;stroke-linecap:butt;stroke-linejoin:miter;stroke-opacity:1" d="M 27.4848,730.152 27.4848,739.545 z" id="boundary" inkscape:connector-curvature="0" />
	<path style="fill:none;stroke:red;stroke-width:1px;stroke-linecap:butt;stroke-linejoin:miter;stroke-opacity:1" d="M 27.4848,739.545 32.1818,748 z" id="boundary" inkscape:connector-curvature="0" />
	<path style="fill:none;stroke:red;stroke-width:1px;stroke-linecap:butt;stroke-linejoin:miter;stroke-opacity:1" d="M 32.1818,429.545 36.8788,415.455 z" id="boundary" inkscape:connector-curvature="0" />
	<path style="fill:none;stroke:red;stroke-width:1px;stroke-linecap:butt;stroke-linejoin:miter;stroke-opacity:1" d="M 32.1818,748 36.8788,756.455 z" id="boundary" inkscape:connector-curvature="0" />
	<path style="fill:none;stroke:red;stroke-width:1px;stroke-linecap:butt;stroke-linejoin:miter;stroke-opacity:1" d="M 36.8788,415.455 41.5758,406.061 z" id="boundary" inkscape:connector-curvature="0" />
	<path style="fill:none;stroke:red;stroke-width:1px;stroke-linecap:butt;stroke-linejoin:miter;stroke-opacity:1" d="M 36.8788,756.455 39.697,765.848 z" id="boundary" inkscape:connector-curvature="0" />
	<path style="fill:none;stroke:red;stroke-width:1px;stroke-linecap:butt;stroke-linejoin:miter;stroke-opacity:1" d="M 39.697,765.848 44.3939,774.303 z" id="boundary" inkscape:connector-curvature="0" />
	<path style="fill:none;stroke:red;stroke-width:1px;stroke-linecap:butt;stroke-linejoin:miter;stroke-opacity:1" d="M 41.5758,406.061 46.2727,396.667 z" id="boundary" inkscape:connector-curvature="0" />
	<path style="fill:none;stroke:red;stroke-width:1px;stroke-linecap:butt;stroke-linejoin:miter;stroke-opacity:1" d="M 44.3939,774.303 48.1515,783.697 z" id="boundary" inkscape:connector-curvature="0" />
	<path style="fill:none;stroke:red;stroke-width:1px;stroke-linecap:butt;stroke-linejoin:miter;stroke-opacity:1" d="M 46.2727,396.667 50.9697,387.273 z" id="boundary" inkscape:connector-curvature="0" />
	<path style="fill:none;stroke:red;stroke-width:1px;stroke-linecap:butt;stroke-linejoin:miter;stroke-opacity:1" d="M 48.1515,783.697 52.8485,792.152 z" id="boundary" inkscape:connector-curvature="0" />
	<path style="fill:none;stroke:red;stroke-width:1px;stroke-linecap:butt;stroke-linejoin:miter;stroke-opacity:1" d="M 50.9697,387.273 55.6667,377.879 z" id="boundary" inkscape:connector-curvature="0" />
	<path style="fill:none;stroke:red;stroke-width:1px;stroke-linecap:butt;stroke-linejoin:miter;stroke-opacity:1" d="M 52.8485,792.152 56.6061,801.545 z" id="boundary" inkscape:connector-curvature="0" />
	<path style="fill:none;stroke:red;stroke-width:1px;stroke-linecap:butt;stroke-linejoin:miter;stroke-opacity:1" d="M 55.6667,377.879 60.3636,368.485 z" id="boundary" inkscape:connector-curvature="0" />
	<path style="fill:none;stroke:red;stroke-width:1px;stroke-linecap:butt;stroke-linejoin:miter;stroke-opacity:1" d="M 56.6061,801.545 61.303,810 z" id="boundary" inkscape:connector-curvature="0" />
	<path style="fill:none;stroke:red;stroke-width:1px;stroke-linecap:butt;stroke-linejoin:miter;stroke-opacity:1" d="M 60.3636,368.485 65.0606,359.091 z" id="boundary" inkscape:connector-curvature="0" />
	<path style="fill:none;stroke:red;stroke-width:1px;stroke-linecap:butt;stroke-linejoin:miter;stroke-opacity:1" d="M 61.303,810 65.0606,819.394 z" id="boundary" inkscape:connector-curvature="0" />
	<path style="fill:none;stroke:red;stroke-width:1px;stroke-linecap:butt;stroke-linejoin:miter;stroke-opacity:1" d="M 65.0606,359.091 72.5758,351.576 z" id="boundary" inkscape:connector-curvature="0" />
	<path style="fill:none;stroke:red;stroke-width:1px;stroke-linecap:butt;stroke-linejoin:miter;stroke-opacity:1" d="M 65.0606,819.394 72.5758,825.97 z" id="boundary" inkscape:connector-curvature="0" />
	<path style="fill:none;stroke:red;stroke-width:1px;stroke-linecap:butt;stroke-linejoin:miter;stroke-opacity:1" d="M 72.5758,351.576 77.2727,342.182 z" id="boundary" inkscape:connector-curvature="0" />
	<path style="fill:none;stroke:red;stroke-width:1px;stroke-linecap:butt;stroke-linejoin:miter;stroke-opacity:1" d="M 72.5758,825.97 76.3333,835.364 z" id="boundary" inkscape:connector-curvature="0" />
	<path style="fill:none;stroke:red;stroke-width:1px;stroke-linecap:butt;stroke-linejoin:miter;stroke-opacity:1" d="M 76.3333,835.364 83.8485,841 z" id="boundary" inkscape:connector-curvature="0" />
	<path style="fill:none;stroke:red;stroke-width:1px;stroke-linecap:butt;stroke-linejoin:miter;stroke-opacity:1" d="M 77.2727,342.182 83.8485,330.909 z" id="boundary" inkscape:connector-curvature="0" />
	<path style="fill:none;stroke:red;stroke-width:1px;stroke-linecap:butt;stroke-linejoin:miter;stroke-opacity:1" d="M 83.8485,330.909 91.3636,323.394 z" id="boundary" inkscape:connector-curvature="0" />
	<path style="fill:none;stroke:red;stroke-width:1px;stroke-linecap:butt;stroke-linejoin:miter;stroke-opacity:1" d="M 83.8485,841 86.6667,850.394 z" id="boundary" inkscape:connector-curvature="0" />
	<path style="fill:none;stroke:red;stroke-width:1px;stroke-linecap:butt;stroke-linejoin:miter;stroke-opacity:1" d="M 86.6667,850.394 94.1818,856.97 z" id="boundary" inkscape:connector-curvature="0" />
	<path style="fill:none;stroke:red;stroke-width:1px;stroke-linecap:butt;stroke-linejoin:miter;stroke-opacity:1" d="M 91.3636,323.394 98.8788,315.879 z" id="boundary" inkscape:connector-curvature="0" />
	<path style="fill:none;stroke:red;stroke-width:1px;stroke-linecap:butt;stroke-linejoin:miter;stroke-opacity:1" d="M 94.1818,856.97 100.758,864.485 z" id="boundary" inkscape:connector-curvature="0" />
	<path style="fill:none;stroke:red;stroke-width:1px;stroke-linecap:butt;stroke-linejoin:miter;stroke-opacity:1" d="M 98.8788,315.879 103.576,306.485 z" id="boundary" inkscape:connector-curvature="0" />
	<path style="fill:none;stroke:red;stroke-width:1px;stroke-linecap:butt;stroke-linejoin:miter;stroke-opacity:1" d="M 100.758,864.485 105.455,872.939 z" id="boundary" inkscape:connector-curvature="0" />
	<path style="fill:none;stroke:red;stroke-width:1px;stroke-linecap:butt;stroke-linejoin:miter;stroke-opacity:1" d="M 103.576,306.485 111.091,299.909 z" id="boundary" inkscape:connector-curvature="0" />
	<path style="fill:none;stroke:red;stroke-width:1px;stroke-linecap:butt;stroke-linejoin:miter;stroke-opacity:1" d="M 105.455,872.939 112.03,880.455 z" id="boundary" inkscape:connector-curvature="0" />
	<path style="fill:none;stroke:red;stroke-width:1px;stroke-linecap:butt;stroke-linejoin:miter;stroke-opacity:1" d="M 111.091,299.909 117.667,292.394 z" id="boundary" inkscape:connector-curvature="0" />
	<path style="fill:none;stroke:red;stroke-width:1px;stroke-linecap:butt;stroke-linejoin:miter;stroke-opacity:1" d="M 112.03,880.455 119.545,887.03 z" id="boundary" inkscape:connector-curvature="0" />
	<path style="fill:none;stroke:red;stroke-width:1px;stroke-linecap:butt;stroke-linejoin:miter;stroke-opacity:1" d="M 117.667,292.394 125.182,285.818 z" id="boundary" inkscape:connector-curvature="0" />
	<path style="fill:none;stroke:red;stroke-width:1px;stroke-linecap:butt;stroke-linejoin:miter;stroke-opacity:1" d="M 119.545,887.03 126.121,894.545 z" id="boundary" inkscape:connector-curvature="0" />
	<path style="fill:none;stroke:red;stroke-width:1px;stroke-linecap:butt;stroke-linejoin:miter;stroke-opacity:1" d="M 125.182,285.818 131.758,278.303 z" id="boundary" inkscape:connector-curvature="0" />
	<path style="fill:none;stroke:red;stroke-width:1px;stroke-linecap:butt;stroke-linejoin:miter;stroke-opacity:1" d="M 126.121,894.545 133.636,901.121 z" id="boundary" inkscape:connector-curvature="0" />
	<path style="fill:none;stroke:red;stroke-width:1px;stroke-linecap:butt;stroke-linejoin:miter;stroke-opacity:1" d="M 131.758,278.303 139.273,271.727 z" id="boundary" inkscape:connector-curvature="0" />
	<path style="fill:none;stroke:red;stroke-width:1px;stroke-linecap:butt;stroke-linejoin:miter;stroke-opacity:1" d="M 133.636,901.121 140.212,908.636 z" id="boundary" inkscape:connector-curvature="0" />
	<path style="fill:none;stroke:red;stroke-width:1px;stroke-linecap:butt;stroke-linejoin:miter;stroke-opacity:1" d="M 139.273,271.727 145.848,264.212 z" id="boundary" inkscape:connector-curvature="0" />
	<path style="fill:none;stroke:red;stroke-width:1px;stroke-linecap:butt;stroke-linejoin:miter;stroke-opacity:1" d="M 140.212,908.636 147.727,915.212 z" id="boundary" inkscape:connector-curvature="0" />
	<path style="fill:none;stroke:red;stroke-width:1px;stroke-linecap:butt;stroke-linejoin:miter;stroke-opacity:1" d="M 145.848,264.212 155.242,259.515 z" id="boundary" inkscape:connector-curvature="0" />
	<path style="fill:none;stroke:red;stroke-width:1px;stroke-linecap:butt;stroke-linejoin:miter;stroke-opacity:1" d="M 147.727,915.212 156.182,919.909 z" id="boundary" inkscape:connector-curvature="0" />
	<path style="fill:none;stroke:red;stroke-width:1px;stroke-linecap:butt;stroke-linejoin:miter;stroke-opacity:1" d="M 155.242,259.515 162.758,252.939 z" id="boundary" inkscape:connector-curvature="0" />
	<path style="fill:none;stroke:red;stroke-width:1px;stroke-linecap:butt;stroke-linejoin:miter;stroke-opacity:1" d="M 156.182,919.909 163.697,925.545 z" id="boundary" inkscape:connector-curvature="0" />
	<path style="fill:none;stroke:red;stroke-width:1px;stroke-linecap:butt;stroke-linejoin:miter;stroke-opacity:1" d="M 162.758,252.939 169.333,245.424 z" id="boundary" inkscape:connector-curvature="0" />
	<path style="fill:none;stroke:red;stroke-width:1px;stroke-linecap:butt;stroke-linejoin:miter;stroke-opacity:1" d="M 163.697,925.545 169.333,933.061 z" id="boundary" inkscape:connector-curvature="0" />
	<path style="fill:none;stroke:red;stroke-width:1px;stroke-linecap:butt;stroke-linejoin:miter;stroke-opacity:1" d="M 169.333,245.424 178.727,240.727 z" id="boundary" inkscape:connector-curvature="0" />
	<path style="fill:none;stroke:red;stroke-width:1px;stroke-linecap:butt;stroke-linejoin:miter;stroke-opacity:1" d="M 169.333,933.061 178.727,936.818 z" id="boundary" inkscape:connector-curvature="0" />
	<path style="fill:none;stroke:red;stroke-width:1px;stroke-linecap:butt;stroke-linejoin:miter;stroke-opacity:1" d="M 178.727,240.727 186.242,234.152 z" id="boundary" inkscape:connector-curvature="0" />
	<path style="fill:none;stroke:red;stroke-width:1px;stroke-linecap:butt;stroke-linejoin:miter;stroke-opacity:1" d="M 178.727,936.818 185.303,944.333 z" id="boundary" inkscape:connector-curvature="0" />
	<path style="fill:none;stroke:red;stroke-width:1px;stroke-linecap:butt;stroke-linejoin:miter;stroke-opacity:1" d="M 185.303,944.333 194.697,948.091 z" id="boundary" inkscape:connector-curvature="0" />
	<path style="fill:none;stroke:red;stroke-width:1px;stroke-linecap:butt;stroke-linejoin:miter;stroke-opacity:1" d="M 186.242,234.152 194.697,229.455 z" id="boundary" inkscape:connector-curvature="0" />
	<path style="fill:none;stroke:red;stroke-width:1px;stroke-linecap:butt;stroke-linejoin:miter;stroke-opacity:1" d="M 194.697,229.455 204.091,224.758 z" id="boundary" inkscape:connector-curvature="0" />
	<path style="fill:none;stroke:red;stroke-width:1px;stroke-linecap:butt;stroke-linejoin:miter;stroke-opacity:1" d="M 194.697,948.091 203.152,952.788 z" id="boundary" inkscape:connector-curvature="0" />
	<path style="fill:none;stroke:red;stroke-width:1px;stroke-linecap:butt;stroke-linejoin:miter;stroke-opacity:1" d="M 203.152,952.788 210.667,958.424 z" id="boundary" inkscape:connector-curvature="0" />
	<path style="fill:none;stroke:red;stroke-width:1px;stroke-linecap:butt;stroke-linejoin:miter;stroke-opacity:1" d="M 204.091,224.758 212.545,220.061 z" id="boundary" inkscape:connector-curvature="0" />
	<path style="fill:none;stroke:red;stroke-width:1px;stroke-linecap:butt;stroke-linejoin:miter;stroke-opacity:1" d="M 210.667,958.424 219.121,963.121 z" id="boundary" inkscape:connector-curvature="0" />
	<path style="fill:none;stroke:red;stroke-width:1px;stroke-linecap:butt;stroke-linejoin:miter;stroke-opacity:1" d="M 212.545,220.061 221,215.364 z" id="boundary" inkscape:connector-curvature="0" />
	<path style="fill:none;stroke:red;stroke-width:1px;stroke-linecap:butt;stroke-linejoin:miter;stroke-opacity:1" d="M 219.121,963.121 227.576,967.818 z" id="boundary" inkscape:connector-curvature="0" />
	<path style="fill:none;stroke:red;stroke-width:1px;stroke-linecap:butt;stroke-linejoin:miter;stroke-opacity:1" d="M 220.061,35 220.061,44.3939 z" id="boundary" inkscape:connector-curvature="0" />
	<path style="fill:none;stroke:red;stroke-width:1px;stroke-linecap:butt;stroke-linejoin:miter;stroke-opacity:1" d="M 220.061,35 227.576,27.4848 z" id="boundary" inkscape:connector-curvature="0" />
	<path style="fill:none;stroke:red;stroke-width:1px;stroke-linecap:butt;stroke-linejoin:miter;stroke-opacity:1" d="M 220.061,44.3939 227.576,50.9697 z" id="boundary" inkscape:connector-curvature="0" />
	<path style="fill:none;stroke:red;stroke-width:1px;stroke-linecap:butt;stroke-linejoin:miter;stroke-opacity:1" d="M 221,215.364 229.455,210.667 z" id="boundary" inkscape:connector-curvature="0" />
	<path style="fill:none;stroke:red;stroke-width:1px;stroke-linecap:butt;stroke-linejoin:miter;stroke-opacity:1" d="M 227.576,27.4848 235.091,19.9697 z" id="boundary" inkscape:connector-curvature="0" />
	<path style="fill:none;stroke:red;stroke-width:1px;stroke-linecap:butt;stroke-linejoin:miter;stroke-opacity:1" d="M 227.576,50.9697 235.091,56.6061 z" id="boundary" inkscape:connector-curvature="0" />
	<path style="fill:none;stroke:red;stroke-width:1px;stroke-linecap:butt;stroke-linejoin:miter;stroke-opacity:1" d="M 227.576,967.818 236.97,967.818 z" id="boundary" inkscape:connector-curvature="0" />
	<path style="fill:none;stroke:red;stroke-width:1px;stroke-linecap:butt;stroke-linejoin:miter;stroke-opacity:1" d="M 229.455,210.667 238.848,208.788 z" id="boundary" inkscape:connector-curvature="0" />
	<path style="fill:none;stroke:red;stroke-width:1px;stroke-linecap:butt;stroke-linejoin:miter;stroke-opacity:1" d="M 235.091,19.9697 244.485,15.2727 z" id="boundary" inkscape:connector-curvature="0" />
	<path style="fill:none;stroke:red;stroke-width:1px;stroke-linecap:butt;stroke-linejoin:miter;stroke-opacity:1" d="M 235.091,56.6061 243.545,61.303 z" id="boundary" inkscape:connector-curvature="0" />
	<path style="fill:none;stroke:red;stroke-width:1px;stroke-linecap:butt;stroke-linejoin:miter;stroke-opacity:1" d="M 236.97,967.818 245.424,972.515 z" id="boundary" inkscape:connector-curvature="0" />
	<path style="fill:none;stroke:red;stroke-width:1px;stroke-linecap:butt;stroke-linejoin:miter;stroke-opacity:1" d="M 238.848,208.788 248.242,204.091 z" id="boundary" inkscape:connector-curvature="0" />
	<path style="fill:none;stroke:red;stroke-width:1px;stroke-linecap:butt;stroke-linejoin:miter;stroke-opacity:1" d="M 243.545,61.303 252,66 z" id="boundary" inkscape:connector-curvature="0" />
	<path style="fill:none;stroke:red;stroke-width:1px;stroke-linecap:butt;stroke-linejoin:miter;stroke-opacity:1" d="M 244.485,15.2727 253.879,10.5758 z" id="boundary" inkscape:connector-curvature="0" />
	<path style="fill:none;stroke:red;stroke-width:1px;stroke-linecap:butt;stroke-linejoin:miter;stroke-opacity:1" d="M 245.424,972.515 253.879,977.212 z" id="boundary" inkscape:connector-curvature="0" />
	<path style="fill:none;stroke:red;stroke-width:1px;stroke-linecap:butt;stroke-linejoin:miter;stroke-opacity:1" d="M 248.242,204.091 257.636,201.273 z" id="boundary" inkscape:connector-curvature="0" />
	<path style="fill:none;stroke:red;stroke-width:1px;stroke-linecap:butt;stroke-linejoin:miter;stroke-opacity:1" d="M 252,66 260.455,70.697 z" id="boundary" inkscape:connector-curvature="0" />
	<path style="fill:none;stroke:red;stroke-width:1px;stroke-linecap:butt;stroke-linejoin:miter;stroke-opacity:1" d="M 253.879,10.5758 263.273,8.69697 z" id="boundary" inkscape:connector-curvature="0" />
	<path style="fill:none;stroke:red;stroke-width:1px;stroke-linecap:butt;stroke-linejoin:miter;stroke-opacity:1" d="M 253.879,977.212 263.273,979.091 z" id="boundary" inkscape:connector-curvature="0" />
	<path style="fill:none;stroke:red;stroke-width:1px;stroke-linecap:butt;stroke-linejoin:miter;stroke-opacity:1" d="M 257.636,201.273 266.091,196.576 z" id="boundary" inkscape:connector-curvature="0" />
	<path style="fill:none;stroke:red;stroke-width:1px;stroke-linecap:butt;stroke-linejoin:miter;stroke-opacity:1" d="M 260.455,70.697 269.848,70.697 z" id="boundary" inkscape:connector-curvature="0" />
	<path style="fill:none;stroke:red;stroke-width:1px;stroke-linecap:butt;stroke-linejoin:miter;stroke-opacity:1" d="M 263.273,8.69697 272.667,8.69697 z" id="boundary" inkscape:connector-curvature="0" />
	<path style="fill:none;stroke:red;stroke-width:1px;stroke-linecap:butt;stroke-linejoin:miter;stroke-opacity:1" d="M 263.273,979.091 272.667,981.909 z" id="boundary" inkscape:connector-curvature="0" />
	<path style="fill:none;stroke:red;stroke-width:1px;stroke-linecap:butt;stroke-linejoin:miter;stroke-opacity:1" d="M 266.091,196.576 275.485,196.576 z" id="boundary" inkscape:connector-curvature="0" />
	<path style="fill:none;stroke:red;stroke-width:1px;stroke-linecap:butt;stroke-linejoin:miter;stroke-opacity:1" d="M 269.848,70.697 278.303,75.3939 z" id="boundary" inkscape:connector-curvature="0" />
	<path style="fill:none;stroke:red;stroke-width:1px;stroke-linecap:butt;stroke-linejoin:miter;stroke-opacity:1" d="M 272.667,8.69697 282.061,8.69697 z" id="boundary" inkscape:connector-curvature="0" />
	<path style="fill:none;stroke:red;stroke-width:1px;stroke-linecap:butt;stroke-linejoin:miter;stroke-opacity:1" d="M 272.667,981.909 281.121,986.606 z" id="boundary" inkscape:connector-curvature="0" />
	<path style="fill:none;stroke:red;stroke-width:1px;stroke-linecap:butt;stroke-linejoin:miter;stroke-opacity:1" d="M 275.485,196.576 283.939,191.879 z" id="boundary" inkscape:connector-curvature="0" />
	<path style="fill:none;stroke:red;stroke-width:1px;stroke-linecap:butt;stroke-linejoin:miter;stroke-opacity:1" d="M 278.303,75.3939 286.758,80.0909 z" id="boundary" inkscape:connector-curvature="0" />
	<path style="fill:none;stroke:red;stroke-width:1px;stroke-linecap:butt;stroke-linejoin:miter;stroke-opacity:1" d="M 281.121,986.606 290.515,986.606 z" id="boundary" inkscape:connector-curvature="0" />
	<path style="fill:none;stroke:red;stroke-width:1px;stroke-linecap:butt;stroke-linejoin:miter;stroke-opacity:1" d="M 282.061,8.69697 291.455,8.69697 z" id="boundary" inkscape:connector-curvature="0" />
	<path style="fill:none;stroke:red;stroke-width:1px;stroke-linecap:butt;stroke-linejoin:miter;stroke-opacity:1" d="M 283.939,191.879 293.333,191.879 z" id="boundary" inkscape:connector-curvature="0" />
	<path style="fill:none;stroke:red;stroke-width:1px;stroke-linecap:butt;stroke-linejoin:miter;stroke-opacity:1" d="M 286.758,80.0909 296.152,81.9697 z" id="boundary" inkscape:connector-curvature="0" />
	<path style="fill:none;stroke:red;stroke-width:1px;stroke-linecap:butt;stroke-linejoin:miter;stroke-opacity:1" d="M 290.515,986.606 298.97,991.303 z" id="boundary" inkscape:connector-curvature="0" />
	<path style="fill:none;stroke:red;stroke-width:1px;stroke-linecap:butt;stroke-linejoin:miter;stroke-opacity:1" d="M 291.455,8.69697 300.848,8.69697 z" id="boundary" inkscape:connector-curvature="0" />
	<path style="fill:none;stroke:red;stroke-width:1px;stroke-linecap:butt;stroke-linejoin:miter;stroke-opacity:1" d="M 293.333,191.879 301.788,187.182 z" id="boundary" inkscape:connector-curvature="0" />
	<path style="fill:none;stroke:red;stroke-width:1px;stroke-linecap:butt;stroke-linejoin:miter;stroke-opacity:1" d="M 296.152,81.9697 304.606,86.6667 z" id="boundary" inkscape:connector-curvature="0" />
	<path style="fill:none;stroke:red;stroke-width:1px;stroke-linecap:butt;stroke-linejoin:miter;stroke-opacity:1" d="M 298.97,991.303 308.364,991.303 z" id="boundary" inkscape:connector-curvature="0" />
	<path style="fill:none;stroke:red;stroke-width:1px;stroke-linecap:butt;stroke-linejoin:miter;stroke-opacity:1" d="M 300.848,8.69697 310.242,8.69697 z" id="boundary" inkscape:connector-curvature="0" />
	<path style="fill:none;stroke:red;stroke-width:1px;stroke-linecap:butt;stroke-linejoin:miter;stroke-opacity:1" d="M 301.788,187.182 311.182,187.182 z" id="boundary" inkscape:connector-curvature="0" />
	<path style="fill:none;stroke:red;stroke-width:1px;stroke-linecap:butt;stroke-linejoin:miter;stroke-opacity:1" d="M 304.606,86.6667 314,89.4848 z" id="boundary" inkscape:connector-curvature="0" />
	<path style="fill:none;stroke:red;stroke-width:1px;stroke-linecap:butt;stroke-linejoin:miter;stroke-opacity:1" d="M 308.364,991.303 317.758,991.303 z" id="boundary" inkscape:connector-curvature="0" />
	<path style="fill:none;stroke:red;stroke-width:1px;stroke-linecap:butt;stroke-linejoin:miter;stroke-opacity:1" d="M 310.242,8.69697 319.636,8.69697 z" id="boundary" inkscape:connector-curvature="0" />
	<path style="fill:none;stroke:red;stroke-width:1px;stroke-linecap:butt;stroke-linejoin:miter;stroke-opacity:1" d="M 311.182,187.182 320.576,187.182 z" id="boundary" inkscape:connector-curvature="0" />
	<path style="fill:none;stroke:red;stroke-width:1px;stroke-linecap:butt;stroke-linejoin:miter;stroke-opacity:1" d="M 314,89.4848 319.636,97 z" id="boundary" inkscape:connector-curvature="0" />
	<path style="fill:none;stroke:red;stroke-width:1px;stroke-linecap:butt;stroke-linejoin:miter;stroke-opacity:1" d="M 317.758,991.303 326.212,996 z" id="boundary" inkscape:connector-curvature="0" />
	<path style="fill:none;stroke:red;stroke-width:1px;stroke-linecap:butt;stroke-linejoin:miter;stroke-opacity:1" d="M 319.636,8.69697 329.03,8.69697 z" id="boundary" inkscape:connector-curvature="0" />
	<path style="fill:none;stroke:red;stroke-width:1px;stroke-linecap:butt;stroke-linejoin:miter;stroke-opacity:1" d="M 319.636,97 329.03,100.758 z" id="boundary" inkscape:connector-curvature="0" />
	<path style="fill:none;stroke:red;stroke-width:1px;stroke-linecap:butt;stroke-linejoin:miter;stroke-opacity:1" d="M 320.576,187.182 329.03,182.485 z" id="boundary" inkscape:connector-curvature="0" />
	<path style="fill:none;stroke:red;stroke-width:1px;stroke-linecap:butt;stroke-linejoin:miter;stroke-opacity:1" d="M 326.212,996 335.606,996 z" id="boundary" inkscape:connector-curvature="0" />
	<path style="fill:none;stroke:red;stroke-width:1px;stroke-linecap:butt;stroke-linejoin:miter;stroke-opacity:1" d="M 329.03,8.69697 337.485,13.3939 z" id="boundary" inkscape:connector-curvature="0" />
	<path style="fill:none;stroke:red;stroke-width:1px;stroke-linecap:butt;stroke-linejoin:miter;stroke-opacity:1" d="M 329.03,100.758 335.606,108.273 z" id="boundary" inkscape:connector-curvature="0" />
	<path style="fill:none;stroke:red;stroke-width:1px;stroke-linecap:butt;stroke-linejoin:miter;stroke-opacity:1" d="M 329.03,182.485 338.424,182.485 z" id="boundary" inkscape:connector-curvature="0" />
	<path style="fill:none;stroke:red;stroke-width:1px;stroke-linecap:butt;stroke-linejoin:miter;stroke-opacity:1" d="M 335.606,108.273 345,108.273 z" id="boundary" inkscape:connector-curvature="0" />
	<path style="fill:none;stroke:red;stroke-width:1px;stroke-linecap:butt;stroke-linejoin:miter;stroke-opacity:1" d="M 335.606,996 345,996 z" id="boundary" inkscape:connector-curvature="0" />
	<path style="fill:none;stroke:red;stroke-width:1px;stroke-linecap:butt;stroke-linejoin:miter;stroke-opacity:1" d="M 337.485,13.3939 346.879,15.2727 z" id="boundary" inkscape:connector-curvature="0" />
	<path style="fill:none;stroke:red;stroke-width:1px;stroke-linecap:butt;stroke-linejoin:miter;stroke-opacity:1" d="M 338.424,182.485 347.818,182.485 z" id="boundary" inkscape:connector-curvature="0" />
	<path style="fill:none;stroke:red;stroke-width:1px;stroke-linecap:butt;stroke-linejoin:miter;stroke-opacity:1" d="M 345,108.273 352.515,114.848 z" id="boundary" inkscape:connector-curvature="0" />
	<path style="fill:none;stroke:red;stroke-width:1px;stroke-linecap:butt;stroke-linejoin:miter;stroke-opacity:1" d="M 345,996 354.394,996 z" id="boundary" inkscape:connector-curvature="0" />
	<path style="fill:none;stroke:red;stroke-width:1px;stroke-linecap:butt;stroke-linejoin:miter;stroke-opacity:1" d="M 346.879,15.2727 355.333,19.9697 z" id="boundary" inkscape:connector-curvature="0" />
	<path style="fill:none;stroke:red;stroke-width:1px;stroke-linecap:butt;stroke-linejoin:miter;stroke-opacity:1" d="M 347.818,182.485 357.212,182.485 z" id="boundary" inkscape:connector-curvature="0" />
	<path style="fill:none;stroke:red;stroke-width:1px;stroke-linecap:butt;stroke-linejoin:miter;stroke-opacity:1" d="M 352.515,114.848 359.091,122.364 z" id="boundary" inkscape:connector-curvature="0" />
	<path style="fill:none;stroke:red;stroke-width:1px;stroke-linecap:butt;stroke-linejoin:miter;stroke-opacity:1" d="M 354.394,996 363.788,996 z" id="boundary" inkscape:connector-curvature="0" />
	<path style="fill:none;stroke:red;stroke-width:1px;stroke-linecap:butt;stroke-linejoin:miter;stroke-opacity:1" d="M 355.333,19.9697 364.727,22.7879 z" id="boundary" inkscape:connector-curvature="0" />
	<path style="fill:none;stroke:red;stroke-width:1px;stroke-linecap:butt;stroke-linejoin:miter;stroke-opacity:1" d="M 357.212,182.485 366.606,182.485 z" id="boundary" inkscape:connector-curvature="0" />
	<path style="fill:none;stroke:red;stroke-width:1px;stroke-linecap:butt;stroke-linejoin:miter;stroke-opacity:1" d="M 359.091,122.364 366.606,128.939 z" id="boundary" inkscape:connector-curvature="0" />
	<path style="fill:none;stroke:red;stroke-width:1px;stroke-linecap:butt;stroke-linejoin:miter;stroke-opacity:1" d="M 363.788,996 373.182,996 z" id="boundary" inkscape:connector-curvature="0" />
	<path style="fill:none;stroke:red;stroke-width:1px;stroke-linecap:butt;stroke-linejoin:miter;stroke-opacity:1" d="M 364.727,22.7879 373.182,27.4848 z" id="boundary" inkscape:connector-curvature="0" />
	<path style="fill:none;stroke:red;stroke-width:1px;stroke-linecap:butt;stroke-linejoin:miter;stroke-opacity:1" d="M 366.606,128.939 373.182,136.455 z" id="boundary" inkscape:connector-curvature="0" />
	<path style="fill:none;stroke:red;stroke-width:1px;stroke-linecap:butt;stroke-linejoin:miter;stroke-opacity:1" d="M 366.606,182.485 376,182.485 z" id="boundary" inkscape:connector-curvature="0" />
	<path style="fill:none;stroke:red;stroke-width:1px;stroke-linecap:butt;stroke-linejoin:miter;stroke-opacity:1" d="M 373.182,27.4848 382.576,27.4848 z" id="boundary" inkscape:connector-curvature="0" />
	<path style="fill:none;stroke:red;stroke-width:1px;stroke-linecap:butt;stroke-linejoin:miter;stroke-opacity:1" d="M 373.182,136.455 377.879,144.909 z" id="boundary" inkscape:connector-curvature="0" />
	<path style="fill:none;stroke:red;stroke-width:1px;stroke-linecap:butt;stroke-linejoin:miter;stroke-opacity:1" d="M 373.182,996 382.576,996 z" id="boundary" inkscape:connector-curvature="0" />
	<path style="fill:none;stroke:red;stroke-width:1px;stroke-linecap:butt;stroke-linejoin:miter;stroke-opacity:1" d="M 376,182.485 385.394,182.485 z" id="boundary" inkscape:connector-curvature="0" />
	<path style="fill:none;stroke:red;stroke-width:1px;stroke-linecap:butt;stroke-linejoin:miter;stroke-opacity:1" d="M 377.879,144.909 384.455,152.424 z" id="boundary" inkscape:connector-curvature="0" />
	<path style="fill:none;stroke:red;stroke-width:1px;stroke-linecap:butt;stroke-linejoin:miter;stroke-opacity:1" d="M 382.576,27.4848 389.152,35 z" id="boundary" inkscape:connector-curvature="0" />
	<path style="fill:none;stroke:red;stroke-width:1px;stroke-linecap:butt;stroke-linejoin:miter;stroke-opacity:1" d="M 382.576,996 391.97,996 z" id="boundary" inkscape:connector-curvature="0" />
	<path style="fill:none;stroke:red;stroke-width:1px;stroke-linecap:butt;stroke-linejoin:miter;stroke-opacity:1" d="M 384.455,152.424 391.97,159 z" id="boundary" inkscape:connector-curvature="0" />
	<path style="fill:none;stroke:red;stroke-width:1px;stroke-linecap:butt;stroke-linejoin:miter;stroke-opacity:1" d="M 385.394,182.485 394.788,182.485 z" id="boundary" inkscape:connector-curvature="0" />
	<path style="fill:none;stroke:red;stroke-width:1px;stroke-linecap:butt;stroke-linejoin:miter;stroke-opacity:1" d="M 389.152,35 396.667,41.5758 z" id="boundary" inkscape:connector-curvature="0" />
	<path style="fill:none;stroke:red;stroke-width:1px;stroke-linecap:butt;stroke-linejoin:miter;stroke-opacity:1" d="M 391.97,159 399.485,164.636 z" id="boundary" inkscape:connector-curvature="0" />
	<path style="fill:none;stroke:red;stroke-width:1px;stroke-linecap:butt;stroke-linejoin:miter;stroke-opacity:1" d="M 391.97,996 401.364,995.061 z" id="boundary" inkscape:connector-curvature="0" />
	<path style="fill:none;stroke:red;stroke-width:1px;stroke-linecap:butt;stroke-linejoin:miter;stroke-opacity:1" d="M 394.788,182.485 404.182,185.303 z" id="boundary" inkscape:connector-curvature="0" />
	<path style="fill:none;stroke:red;stroke-width:1px;stroke-linecap:butt;stroke-linejoin:miter;stroke-opacity:1" d="M 396.667,41.5758 403.242,49.0909 z" id="boundary" inkscape:connector-curvature="0" />
	<path style="fill:none;stroke:red;stroke-width:1px;stroke-linecap:butt;stroke-linejoin:miter;stroke-opacity:1" d="M 399.485,164.636 408.879,166.515 z" id="boundary" inkscape:connector-curvature="0" />
	<path style="fill:none;stroke:red;stroke-width:1px;stroke-linecap:butt;stroke-linejoin:miter;stroke-opacity:1" d="M 401.364,995.061 410.758,991.303 z" id="boundary" inkscape:connector-curvature="0" />
	<path style="fill:none;stroke:red;stroke-width:1px;stroke-linecap:butt;stroke-linejoin:miter;stroke-opacity:1" d="M 403.242,49.0909 410.758,55.6667 z" id="boundary" inkscape:connector-curvature="0" />
	<path style="fill:none;stroke:red;stroke-width:1px;stroke-linecap:butt;stroke-linejoin:miter;stroke-opacity:1" d="M 404.182,185.303 413.576,187.182 z" id="boundary" inkscape:connector-curvature="0" />
	<path style="fill:none;stroke:red;stroke-width:1px;stroke-linecap:butt;stroke-linejoin:miter;stroke-opacity:1" d="M 408.879,166.515 415.455,174.03 z" id="boundary" inkscape:connector-curvature="0" />
	<path style="fill:none;stroke:red;stroke-width:1px;stroke-linecap:butt;stroke-linejoin:miter;stroke-opacity:1" d="M 410.758,55.6667 417.333,63.1818 z" id="boundary" inkscape:connector-curvature="0" />
	<path style="fill:none;stroke:red;stroke-width:1px;stroke-linecap:butt;stroke-linejoin:miter;stroke-opacity:1" d="M 410.758,991.303 420.152,991.303 z" id="boundary" inkscape:connector-curvature="0" />
	<path style="fill:none;stroke:red;stroke-width:1px;stroke-linecap:butt;stroke-linejoin:miter;stroke-opacity:1" d="M 413.576,187.182 422.97,187.182 z" id="boundary" inkscape:connector-curvature="0" />
	<path style="fill:none;stroke:red;stroke-width:1px;stroke-linecap:butt;stroke-linejoin:miter;stroke-opacity:1" d="M 417.333,63.1818 422.03,71.6364 z" id="boundary" inkscape:connector-curvature="0" />
	<path style="fill:none;stroke:red;stroke-width:1px;stroke-linecap:butt;stroke-linejoin:miter;stroke-opacity:1" d="M 420.152,991.303 429.545,990.364 z" id="boundary" inkscape:connector-curvature="0" />
	<path style="fill:none;stroke:red;stroke-width:1px;stroke-linecap:butt;stroke-linejoin:miter;stroke-opacity:1" d="M 422.03,71.6364 427.667,79.1515 z" id="boundary" inkscape:connector-curvature="0" />
	<path style="fill:none;stroke:red;stroke-width:1px;stroke-linecap:butt;stroke-linejoin:miter;stroke-opacity:1" d="M 422.97,187.182 424.848,177.788 z" id="boundary" inkscape:connector-curvature="0" />
	<path style="fill:none;stroke:red;stroke-width:1px;stroke-linecap:butt;stroke-linejoin:miter;stroke-opacity:1" d="M 424.848,177.788 434.242,177.788 z" id="boundary" inkscape:connector-curvature="0" />
	<path style="fill:none;stroke:red;stroke-width:1px;stroke-linecap:butt;stroke-linejoin:miter;stroke-opacity:1" d="M 427.667,79.1515 432.364,87.6061 z" id="boundary" inkscape:connector-curvature="0" />
	<path style="fill:none;stroke:red;stroke-width:1px;stroke-linecap:butt;stroke-linejoin:miter;stroke-opacity:1" d="M 429.545,990.364 438.939,986.606 z" id="boundary" inkscape:connector-curvature="0" />
	<path style="fill:none;stroke:red;stroke-width:1px;stroke-linecap:butt;stroke-linejoin:miter;stroke-opacity:1" d="M 432.364,87.6061 437.061,96.0606 z" id="boundary" inkscape:connector-curvature="0" />
	<path style="fill:none;stroke:red;stroke-width:1px;stroke-linecap:butt;stroke-linejoin:miter;stroke-opacity:1" d="M 432.364,190 440.818,185.303 z" id="boundary" inkscape:connector-curvature="0" />
	<path style="fill:none;stroke:red;stroke-width:1px;stroke-linecap:butt;stroke-linejoin:miter;stroke-opacity:1" d="M 434.242,177.788 440.818,185.303 z" id="boundary" inkscape:connector-curvature="0" />
	<path style="fill:none;stroke:red;stroke-width:1px;stroke-linecap:butt;stroke-linejoin:miter;stroke-opacity:1" d="M 437.061,96.0606 445.515,86.6667 z" id="boundary" inkscape:connector-curvature="0" />
	<path style="fill:none;stroke:red;stroke-width:1px;stroke-linecap:butt;stroke-linejoin:miter;stroke-opacity:1" d="M 438.939,986.606 448.333,985.667 z" id="boundary" inkscape:connector-curvature="0" />
	<path style="fill:none;stroke:red;stroke-width:1px;stroke-linecap:butt;stroke-linejoin:miter;stroke-opacity:1" d="M 445.515,77.2727 445.515,86.6667 z" id="boundary" inkscape:connector-curvature="0" />
	<path style="fill:none;stroke:red;stroke-width:1px;stroke-linecap:butt;stroke-linejoin:miter;stroke-opacity:1" d="M 445.515,77.2727 450.212,63.1818 z" id="boundary" inkscape:connector-curvature="0" />
	<path style="fill:none;stroke:red;stroke-width:1px;stroke-linecap:butt;stroke-linejoin:miter;stroke-opacity:1" d="M 448.333,985.667 457.727,981.909 z" id="boundary" inkscape:connector-curvature="0" />
	<path style="fill:none;stroke:red;stroke-width:1px;stroke-linecap:butt;stroke-linejoin:miter;stroke-opacity:1" d="M 450.212,63.1818 454.909,53.7879 z" id="boundary" inkscape:connector-curvature="0" />
	<path style="fill:none;stroke:red;stroke-width:1px;stroke-linecap:butt;stroke-linejoin:miter;stroke-opacity:1" d="M 454.909,53.7879 459.606,44.3939 z" id="boundary" inkscape:connector-curvature="0" />
	<path style="fill:none;stroke:red;stroke-width:1px;stroke-linecap:butt;stroke-linejoin:miter;stroke-opacity:1" d="M 457.727,981.909 466.182,977.212 z" id="boundary" inkscape:connector-curvature="0" />
	<path style="fill:none;stroke:red;stroke-width:1px;stroke-linecap:butt;stroke-linejoin:miter;stroke-opacity:1" d="M 459.606,44.3939 464.303,35 z" id="boundary" inkscape:connector-curvature="0" />
	<path style="fill:none;stroke:red;stroke-width:1px;stroke-linecap:butt;stroke-linejoin:miter;stroke-opacity:1" d="M 460.545,89.4848 460.545,98.8788 z" id="boundary" inkscape:connector-curvature="0" />
	<path style="fill:none;stroke:red;stroke-width:1px;stroke-linecap:butt;stroke-linejoin:miter;stroke-opacity:1" d="M 460.545,89.4848 465.242,75.3939 z" id="boundary" inkscape:connector-curvature="0" />
	<path style="fill:none;stroke:red;stroke-width:1px;stroke-linecap:butt;stroke-linejoin:miter;stroke-opacity:1" d="M 460.545,98.8788 460.545,108.273 z" id="boundary" inkscape:connector-curvature="0" />
	<path style="fill:none;stroke:red;stroke-width:1px;stroke-linecap:butt;stroke-linejoin:miter;stroke-opacity:1" d="M 460.545,108.273 460.545,117.667 z" id="boundary" inkscape:connector-curvature="0" />
	<path style="fill:none;stroke:red;stroke-width:1px;stroke-linecap:butt;stroke-linejoin:miter;stroke-opacity:1" d="M 460.545,117.667 460.545,127.061 z" id="boundary" inkscape:connector-curvature="0" />
	<path style="fill:none;stroke:red;stroke-width:1px;stroke-linecap:butt;stroke-linejoin:miter;stroke-opacity:1" d="M 460.545,127.061 460.545,136.455 z" id="boundary" inkscape:connector-curvature="0" />
	<path style="fill:none;stroke:red;stroke-width:1px;stroke-linecap:butt;stroke-linejoin:miter;stroke-opacity:1" d="M 460.545,136.455 460.545,145.848 z" id="boundary" inkscape:connector-curvature="0" />
	<path style="fill:none;stroke:red;stroke-width:1px;stroke-linecap:butt;stroke-linejoin:miter;stroke-opacity:1" d="M 460.545,145.848 460.545,155.242 z" id="boundary" inkscape:connector-curvature="0" />
	<path style="fill:none;stroke:red;stroke-width:1px;stroke-linecap:butt;stroke-linejoin:miter;stroke-opacity:1" d="M 460.545,155.242 460.545,164.636 z" id="boundary" inkscape:connector-curvature="0" />
	<path style="fill:none;stroke:red;stroke-width:1px;stroke-linecap:butt;stroke-linejoin:miter;stroke-opacity:1" d="M 460.545,164.636 462.424,174.03 z" id="boundary" inkscape:connector-curvature="0" />
	<path style="fill:none;stroke:red;stroke-width:1px;stroke-linecap:butt;stroke-linejoin:miter;stroke-opacity:1" d="M 462.424,174.03 465.242,183.424 z" id="boundary" inkscape:connector-curvature="0" />
	<path style="fill:none;stroke:red;stroke-width:1px;stroke-linecap:butt;stroke-linejoin:miter;stroke-opacity:1" d="M 464.303,35 471.818,27.4848 z" id="boundary" inkscape:connector-curvature="0" />
	<path style="fill:none;stroke:red;stroke-width:1px;stroke-linecap:butt;stroke-linejoin:miter;stroke-opacity:1" d="M 465.242,75.3939 469.939,66 z" id="boundary" inkscape:connector-curvature="0" />
	<path style="fill:none;stroke:red;stroke-width:1px;stroke-linecap:butt;stroke-linejoin:miter;stroke-opacity:1" d="M 465.242,183.424 474.636,187.182 z" id="boundary" inkscape:connector-curvature="0" />
	<path style="fill:none;stroke:red;stroke-width:1px;stroke-linecap:butt;stroke-linejoin:miter;stroke-opacity:1" d="M 466.182,977.212 475.576,977.212 z" id="boundary" inkscape:connector-curvature="0" />
	<path style="fill:none;stroke:red;stroke-width:1px;stroke-linecap:butt;stroke-linejoin:miter;stroke-opacity:1" d="M 469.939,66 477.455,59.4242 z" id="boundary" inkscape:connector-curvature="0" />
	<path style="fill:none;stroke:red;stroke-width:1px;stroke-linecap:butt;stroke-linejoin:miter;stroke-opacity:1" d="M 471.818,27.4848 479.333,19.9697 z" id="boundary" inkscape:connector-curvature="0" />
	<path style="fill:none;stroke:red;stroke-width:1px;stroke-linecap:butt;stroke-linejoin:miter;stroke-opacity:1" d="M 474.636,187.182 483.091,182.485 z" id="boundary" inkscape:connector-curvature="0" />
	<path style="fill:none;stroke:red;stroke-width:1px;stroke-linecap:butt;stroke-linejoin:miter;stroke-opacity:1" d="M 475.576,977.212 484.97,977.212 z" id="boundary" inkscape:connector-curvature="0" />
	<path style="fill:none;stroke:red;stroke-width:1px;stroke-linecap:butt;stroke-linejoin:miter;stroke-opacity:1" d="M 477.455,59.4242 482.152,50.0303 z" id="boundary" inkscape:connector-curvature="0" />
	<path style="fill:none;stroke:red;stroke-width:1px;stroke-linecap:butt;stroke-linejoin:miter;stroke-opacity:1" d="M 479.333,19.9697 488.727,15.2727 z" id="boundary" inkscape:connector-curvature="0" />
	<path style="fill:none;stroke:red;stroke-width:1px;stroke-linecap:butt;stroke-linejoin:miter;stroke-opacity:1" d="M 482.152,50.0303 488.727,42.5152 z" id="boundary" inkscape:connector-curvature="0" />
	<path style="fill:none;stroke:red;stroke-width:1px;stroke-linecap:butt;stroke-linejoin:miter;stroke-opacity:1" d="M 483.091,182.485 492.485,180.606 z" id="boundary" inkscape:connector-curvature="0" />
	<path style="fill:none;stroke:red;stroke-width:1px;stroke-linecap:butt;stroke-linejoin:miter;stroke-opacity:1" d="M 484.97,977.212 494.364,980.03 z" id="boundary" inkscape:connector-curvature="0" />
	<path style="fill:none;stroke:red;stroke-width:1px;stroke-linecap:butt;stroke-linejoin:miter;stroke-opacity:1" d="M 488.727,15.2727 498.121,10.5758 z" id="boundary" inkscape:connector-curvature="0" />
	<path style="fill:none;stroke:red;stroke-width:1px;stroke-linecap:butt;stroke-linejoin:miter;stroke-opacity:1" d="M 488.727,42.5152 496.242,35.9394 z" id="boundary" inkscape:connector-curvature="0" />
	<path style="fill:none;stroke:red;stroke-width:1px;stroke-linecap:butt;stroke-linejoin:miter;stroke-opacity:1" d="M 492.485,180.606 501.879,177.788 z" id="boundary" inkscape:connector-curvature="0" />
	<path style="fill:none;stroke:red;stroke-width:1px;stroke-linecap:butt;stroke-linejoin:miter;stroke-opacity:1" d="M 494.364,980.03 503.758,981.909 z" id="boundary" inkscape:connector-curvature="0" />
	<path style="fill:none;stroke:red;stroke-width:1px;stroke-linecap:butt;stroke-linejoin:miter;stroke-opacity:1" d="M 496.242,35.9394 505.636,31.2424 z" id="boundary" inkscape:connector-curvature="0" />
	<path style="fill:none;stroke:red;stroke-width:1px;stroke-linecap:butt;stroke-linejoin:miter;stroke-opacity:1" d="M 498.121,10.5758 507.515,8.69697 z" id="boundary" inkscape:connector-curvature="0" />
	<path style="fill:none;stroke:red;stroke-width:1px;stroke-linecap:butt;stroke-linejoin:miter;stroke-opacity:1" d="M 501.879,177.788 511.273,177.788 z" id="boundary" inkscape:connector-curvature="0" />
	<path style="fill:none;stroke:red;stroke-width:1px;stroke-linecap:butt;stroke-linejoin:miter;stroke-opacity:1" d="M 503.758,981.909 513.152,981.909 z" id="boundary" inkscape:connector-curvature="0" />
	<path style="fill:none;stroke:red;stroke-width:1px;stroke-linecap:butt;stroke-linejoin:miter;stroke-opacity:1" d="M 505.636,31.2424 515.03,26.5455 z" id="boundary" inkscape:connector-curvature="0" />
	<path style="fill:none;stroke:red;stroke-width:1px;stroke-linecap:butt;stroke-linejoin:miter;stroke-opacity:1" d="M 507.515,8.69697 515.97,4 z" id="boundary" inkscape:connector-curvature="0" />
	<path style="fill:none;stroke:red;stroke-width:1px;stroke-linecap:butt;stroke-linejoin:miter;stroke-opacity:1" d="M 511.273,177.788 520.667,175.909 z" id="boundary" inkscape:connector-curvature="0" />
	<path style="fill:none;stroke:red;stroke-width:1px;stroke-linecap:butt;stroke-linejoin:miter;stroke-opacity:1" d="M 513.152,981.909 522.545,984.727 z" id="boundary" inkscape:connector-curvature="0" />
	<path style="fill:none;stroke:red;stroke-width:1px;stroke-linecap:butt;stroke-linejoin:miter;stroke-opacity:1" d="M 515.03,26.5455 524.424,23.7273 z" id="boundary" inkscape:connector-curvature="0" />
	<path style="fill:none;stroke:red;stroke-width:1px;stroke-linecap:butt;stroke-linejoin:miter;stroke-opacity:1" d="M 515.97,4 525.364,4 z" id="boundary" inkscape:connector-curvature="0" />
	<path style="fill:none;stroke:red;stroke-width:1px;stroke-linecap:butt;stroke-linejoin:miter;stroke-opacity:1" d="M 520.667,175.909 530.061,173.091 z" id="boundary" inkscape:connector-curvature="0" />
	<path style="fill:none;stroke:red;stroke-width:1px;stroke-linecap:butt;stroke-linejoin:miter;stroke-opacity:1" d="M 522.545,984.727 531.939,986.606 z" id="boundary" inkscape:connector-curvature="0" />
	<path style="fill:none;stroke:red;stroke-width:1px;stroke-linecap:butt;stroke-linejoin:miter;stroke-opacity:1" d="M 524.424,23.7273 533.818,23.7273 z" id="boundary" inkscape:connector-curvature="0" />
	<path style="fill:none;stroke:red;stroke-width:1px;stroke-linecap:butt;stroke-linejoin:miter;stroke-opacity:1" d="M 525.364,4 534.758,4 z" id="boundary" inkscape:connector-curvature="0" />
	<path style="fill:none;stroke:red;stroke-width:1px;stroke-linecap:butt;stroke-linejoin:miter;stroke-opacity:1" d="M 530.061,173.091 539.455,173.091 z" id="boundary" inkscape:connector-curvature="0" />
	<path style="fill:none;stroke:red;stroke-width:1px;stroke-linecap:butt;stroke-linejoin:miter;stroke-opacity:1" d="M 531.939,986.606 541.333,986.606 z" id="boundary" inkscape:connector-curvature="0" />
	<path style="fill:none;stroke:red;stroke-width:1px;stroke-linecap:butt;stroke-linejoin:miter;stroke-opacity:1" d="M 533.818,23.7273 540.394,11.5152 z" id="boundary" inkscape:connector-curvature="0" />
	<path style="fill:none;stroke:red;stroke-width:1px;stroke-linecap:butt;stroke-linejoin:miter;stroke-opacity:1" d="M 534.758,4 540.394,11.5152 z" id="boundary" inkscape:connector-curvature="0" />
	<path style="fill:none;stroke:red;stroke-width:1px;stroke-linecap:butt;stroke-linejoin:miter;stroke-opacity:1" d="M 539.455,173.091 548.848,173.091 z" id="boundary" inkscape:connector-curvature="0" />
	<path style="fill:none;stroke:red;stroke-width:1px;stroke-linecap:butt;stroke-linejoin:miter;stroke-opacity:1" d="M 541.333,986.606 550.727,986.606 z" id="boundary" inkscape:connector-curvature="0" />
	<path style="fill:none;stroke:red;stroke-width:1px;stroke-linecap:butt;stroke-linejoin:miter;stroke-opacity:1" d="M 548.848,173.091 558.242,173.091 z" id="boundary" inkscape:connector-curvature="0" />
	<path style="fill:none;stroke:red;stroke-width:1px;stroke-linecap:butt;stroke-linejoin:miter;stroke-opacity:1" d="M 550.727,986.606 560.121,986.606 z" id="boundary" inkscape:connector-curvature="0" />
	<path style="fill:none;stroke:red;stroke-width:1px;stroke-linecap:butt;stroke-linejoin:miter;stroke-opacity:1" d="M 558.242,173.091 567.636,173.091 z" id="boundary" inkscape:connector-curvature="0" />
	<path style="fill:none;stroke:red;stroke-width:1px;stroke-linecap:butt;stroke-linejoin:miter;stroke-opacity:1" d="M 560.121,986.606 569.515,986.606 z" id="boundary" inkscape:connector-curvature="0" />
	<path style="fill:none;stroke:red;stroke-width:1px;stroke-linecap:butt;stroke-linejoin:miter;stroke-opacity:1" d="M 567.636,173.091 577.03,173.091 z" id="boundary" inkscape:connector-curvature="0" />
	<path style="fill:none;stroke:red;stroke-width:1px;stroke-linecap:butt;stroke-linejoin:miter;stroke-opacity:1" d="M 569.515,986.606 578.909,986.606 z" id="boundary" inkscape:connector-curvature="0" />
	<path style="fill:none;stroke:red;stroke-width:1px;stroke-linecap:butt;stroke-linejoin:miter;stroke-opacity:1" d="M 577.03,173.091 586.424,173.091 z" id="boundary" inkscape:connector-curvature="0" />
	<path style="fill:none;stroke:red;stroke-width:1px;stroke-linecap:butt;stroke-linejoin:miter;stroke-opacity:1" d="M 578.909,986.606 588.303,986.606 z" id="boundary" inkscape:connector-curvature="0" />
	<path style="fill:none;stroke:red;stroke-width:1px;stroke-linecap:butt;stroke-linejoin:miter;stroke-opacity:1" d="M 586.424,173.091 594.879,177.788 z" id="boundary" inkscape:connector-curvature="0" />
	<path style="fill:none;stroke:red;stroke-width:1px;stroke-linecap:butt;stroke-linejoin:miter;stroke-opacity:1" d="M 588.303,986.606 596.758,981.909 z" id="boundary" inkscape:connector-curvature="0" />
	<path style="fill:none;stroke:red;stroke-width:1px;stroke-linecap:butt;stroke-linejoin:miter;stroke-opacity:1" d="M 594.879,177.788 604.273,177.788 z" id="boundary" inkscape:connector-curvature="0" />
	<path style="fill:none;stroke:red;stroke-width:1px;stroke-linecap:butt;stroke-linejoin:miter;stroke-opacity:1" d="M 596.758,981.909 606.152,981.909 z" id="boundary" inkscape:connector-curvature="0" />
	<path style="fill:none;stroke:red;stroke-width:1px;stroke-linecap:butt;stroke-linejoin:miter;stroke-opacity:1" d="M 604.273,177.788 613.667,177.788 z" id="boundary" inkscape:connector-curvature="0" />
	<path style="fill:none;stroke:red;stroke-width:1px;stroke-linecap:butt;stroke-linejoin:miter;stroke-opacity:1" d="M 606.152,981.909 615.545,981.909 z" id="boundary" inkscape:connector-curvature="0" />
	<path style="fill:none;stroke:red;stroke-width:1px;stroke-linecap:butt;stroke-linejoin:miter;stroke-opacity:1" d="M 613.667,177.788 622.121,182.485 z" id="boundary" inkscape:connector-curvature="0" />
	<path style="fill:none;stroke:red;stroke-width:1px;stroke-linecap:butt;stroke-linejoin:miter;stroke-opacity:1" d="M 615.545,981.909 624,977.212 z" id="boundary" inkscape:connector-curvature="0" />
	<path style="fill:none;stroke:red;stroke-width:1px;stroke-linecap:butt;stroke-linejoin:miter;stroke-opacity:1" d="M 622.121,182.485 631.515,182.485 z" id="boundary" inkscape:connector-curvature="0" />
	<path style="fill:none;stroke:red;stroke-width:1px;stroke-linecap:butt;stroke-linejoin:miter;stroke-opacity:1" d="M 624,977.212 633.394,974.394 z" id="boundary" inkscape:connector-curvature="0" />
	<path style="fill:none;stroke:red;stroke-width:1px;stroke-linecap:butt;stroke-linejoin:miter;stroke-opacity:1" d="M 631.515,182.485 639.97,187.182 z" id="boundary" inkscape:connector-curvature="0" />
	<path style="fill:none;stroke:red;stroke-width:1px;stroke-linecap:butt;stroke-linejoin:miter;stroke-opacity:1" d="M 633.394,974.394 642.788,972.515 z" id="boundary" inkscape:connector-curvature="0" />
	<path style="fill:none;stroke:red;stroke-width:1px;stroke-linecap:butt;stroke-linejoin:miter;stroke-opacity:1" d="M 639.97,187.182 648.424,191.879 z" id="boundary" inkscape:connector-curvature="0" />
	<path style="fill:none;stroke:red;stroke-width:1px;stroke-linecap:butt;stroke-linejoin:miter;stroke-opacity:1" d="M 642.788,972.515 651.242,967.818 z" id="boundary" inkscape:connector-curvature="0" />
	<path style="fill:none;stroke:red;stroke-width:1px;stroke-linecap:butt;stroke-linejoin:miter;stroke-opacity:1" d="M 648.424,191.879 657.818,191.879 z" id="boundary" inkscape:connector-curvature="0" />
	<path style="fill:none;stroke:red;stroke-width:1px;stroke-linecap:butt;stroke-linejoin:miter;stroke-opacity:1" d="M 651.242,967.818 660.636,965.939 z" id="boundary" inkscape:connector-curvature="0" />
	<path style="fill:none;stroke:red;stroke-width:1px;stroke-linecap:butt;stroke-linejoin:miter;stroke-opacity:1" d="M 657.818,191.879 666.273,196.576 z" id="boundary" inkscape:connector-curvature="0" />
	<path style="fill:none;stroke:red;stroke-width:1px;stroke-linecap:butt;stroke-linejoin:miter;stroke-opacity:1" d="M 660.636,965.939 670.03,961.242 z" id="boundary" inkscape:connector-curvature="0" />
	<path style="fill:none;stroke:red;stroke-width:1px;stroke-linecap:butt;stroke-linejoin:miter;stroke-opacity:1" d="M 666.273,196.576 674.727,201.273 z" id="boundary" inkscape:connector-curvature="0" />
	<path style="fill:none;stroke:red;stroke-width:1px;stroke-linecap:butt;stroke-linejoin:miter;stroke-opacity:1" d="M 670.03,961.242 679.424,956.545 z" id="boundary" inkscape:connector-curvature="0" />
	<path style="fill:none;stroke:red;stroke-width:1px;stroke-linecap:butt;stroke-linejoin:miter;stroke-opacity:1" d="M 674.727,201.273 683.182,205.97 z" id="boundary" inkscape:connector-curvature="0" />
	<path style="fill:none;stroke:red;stroke-width:1px;stroke-linecap:butt;stroke-linejoin:miter;stroke-opacity:1" d="M 679.424,956.545 688.818,951.848 z" id="boundary" inkscape:connector-curvature="0" />
	<path style="fill:none;stroke:red;stroke-width:1px;stroke-linecap:butt;stroke-linejoin:miter;stroke-opacity:1" d="M 683.182,205.97 691.636,210.667 z" id="boundary" inkscape:connector-curvature="0" />
	<path style="fill:none;stroke:red;stroke-width:1px;stroke-linecap:butt;stroke-linejoin:miter;stroke-opacity:1" d="M 688.818,951.848 698.212,947.152 z" id="boundary" inkscape:connector-curvature="0" />
	<path style="fill:none;stroke:red;stroke-width:1px;stroke-linecap:butt;stroke-linejoin:miter;stroke-opacity:1" d="M 691.636,210.667 700.091,215.364 z" id="boundary" inkscape:connector-curvature="0" />
	<path style="fill:none;stroke:red;stroke-width:1px;stroke-linecap:butt;stroke-linejoin:miter;stroke-opacity:1" d="M 698.212,947.152 707.606,942.455 z" id="boundary" inkscape:connector-curvature="0" />
	<path style="fill:none;stroke:red;stroke-width:1px;stroke-linecap:butt;stroke-linejoin:miter;stroke-opacity:1" d="M 700.091,215.364 709.485,218.182 z" id="boundary" inkscape:connector-curvature="0" />
	<path style="fill:none;stroke:red;stroke-width:1px;stroke-linecap:butt;stroke-linejoin:miter;stroke-opacity:1" d="M 707.606,942.455 714.182,934.939 z" id="boundary" inkscape:connector-curvature="0" />
	<path style="fill:none;stroke:red;stroke-width:1px;stroke-linecap:butt;stroke-linejoin:miter;stroke-opacity:1" d="M 709.485,218.182 717,224.758 z" id="boundary" inkscape:connector-curvature="0" />
	<path style="fill:none;stroke:red;stroke-width:1px;stroke-linecap:butt;stroke-linejoin:miter;stroke-opacity:1" d="M 714.182,934.939 723.576,930.242 z" id="boundary" inkscape:connector-curvature="0" />
	<path style="fill:none;stroke:red;stroke-width:1px;stroke-linecap:butt;stroke-linejoin:miter;stroke-opacity:1" d="M 717,224.758 725.455,229.455 z" id="boundary" inkscape:connector-curvature="0" />
	<path style="fill:none;stroke:red;stroke-width:1px;stroke-linecap:butt;stroke-linejoin:miter;stroke-opacity:1" d="M 723.576,930.242 731.091,923.667 z" id="boundary" inkscape:connector-curvature="0" />
	<path style="fill:none;stroke:red;stroke-width:1px;stroke-linecap:butt;stroke-linejoin:miter;stroke-opacity:1" d="M 725.455,229.455 732.03,236.97 z" id="boundary" inkscape:connector-curvature="0" />
	<path style="fill:none;stroke:red;stroke-width:1px;stroke-linecap:butt;stroke-linejoin:miter;stroke-opacity:1" d="M 731.091,923.667 740.485,918.97 z" id="boundary" inkscape:connector-curvature="0" />
	<path style="fill:none;stroke:red;stroke-width:1px;stroke-linecap:butt;stroke-linejoin:miter;stroke-opacity:1" d="M 732.03,236.97 741.424,240.727 z" id="boundary" inkscape:connector-curvature="0" />
	<path style="fill:none;stroke:red;stroke-width:1px;stroke-linecap:butt;stroke-linejoin:miter;stroke-opacity:1" d="M 740.485,918.97 747.061,911.455 z" id="boundary" inkscape:connector-curvature="0" />
	<path style="fill:none;stroke:red;stroke-width:1px;stroke-linecap:butt;stroke-linejoin:miter;stroke-opacity:1" d="M 741.424,240.727 747.061,248.242 z" id="boundary" inkscape:connector-curvature="0" />
	<path style="fill:none;stroke:red;stroke-width:1px;stroke-linecap:butt;stroke-linejoin:miter;stroke-opacity:1" d="M 747.061,248.242 754.576,253.879 z" id="boundary" inkscape:connector-curvature="0" />
	<path style="fill:none;stroke:red;stroke-width:1px;stroke-linecap:butt;stroke-linejoin:miter;stroke-opacity:1" d="M 747.061,911.455 754.576,904.879 z" id="boundary" inkscape:connector-curvature="0" />
	<path style="fill:none;stroke:red;stroke-width:1px;stroke-linecap:butt;stroke-linejoin:miter;stroke-opacity:1" d="M 754.576,253.879 761.152,261.394 z" id="boundary" inkscape:connector-curvature="0" />
	<path style="fill:none;stroke:red;stroke-width:1px;stroke-linecap:butt;stroke-linejoin:miter;stroke-opacity:1" d="M 754.576,904.879 761.152,897.364 z" id="boundary" inkscape:connector-curvature="0" />
	<path style="fill:none;stroke:red;stroke-width:1px;stroke-linecap:butt;stroke-linejoin:miter;stroke-opacity:1" d="M 761.152,261.394 768.667,267.97 z" id="boundary" inkscape:connector-curvature="0" />
	<path style="fill:none;stroke:red;stroke-width:1px;stroke-linecap:butt;stroke-linejoin:miter;stroke-opacity:1" d="M 761.152,897.364 768.667,890.788 z" id="boundary" inkscape:connector-curvature="0" />
	<path style="fill:none;stroke:red;stroke-width:1px;stroke-linecap:butt;stroke-linejoin:miter;stroke-opacity:1" d="M 768.667,267.97 775.242,275.485 z" id="boundary" inkscape:connector-curvature="0" />
	<path style="fill:none;stroke:red;stroke-width:1px;stroke-linecap:butt;stroke-linejoin:miter;stroke-opacity:1" d="M 768.667,890.788 775.242,883.273 z" id="boundary" inkscape:connector-curvature="0" />
	<path style="fill:none;stroke:red;stroke-width:1px;stroke-linecap:butt;stroke-linejoin:miter;stroke-opacity:1" d="M 775.242,275.485 782.758,282.061 z" id="boundary" inkscape:connector-curvature="0" />
	<path style="fill:none;stroke:red;stroke-width:1px;stroke-linecap:butt;stroke-linejoin:miter;stroke-opacity:1" d="M 775.242,883.273 782.758,876.697 z" id="boundary" inkscape:connector-curvature="0" />
	<path style="fill:none;stroke:red;stroke-width:1px;stroke-linecap:butt;stroke-linejoin:miter;stroke-opacity:1" d="M 782.758,282.061 789.333,289.576 z" id="boundary" inkscape:connector-curvature="0" />
	<path style="fill:none;stroke:red;stroke-width:1px;stroke-linecap:butt;stroke-linejoin:miter;stroke-opacity:1" d="M 782.758,876.697 789.333,864.485 z" id="boundary" inkscape:connector-curvature="0" />
	<path style="fill:none;stroke:red;stroke-width:1px;stroke-linecap:butt;stroke-linejoin:miter;stroke-opacity:1" d="M 789.333,289.576 794.03,298.03 z" id="boundary" inkscape:connector-curvature="0" />
	<path style="fill:none;stroke:red;stroke-width:1px;stroke-linecap:butt;stroke-linejoin:miter;stroke-opacity:1" d="M 789.333,864.485 796.848,857.909 z" id="boundary" inkscape:connector-curvature="0" />
	<path style="fill:none;stroke:red;stroke-width:1px;stroke-linecap:butt;stroke-linejoin:miter;stroke-opacity:1" d="M 794.03,298.03 800.606,305.545 z" id="boundary" inkscape:connector-curvature="0" />
	<path style="fill:none;stroke:red;stroke-width:1px;stroke-linecap:butt;stroke-linejoin:miter;stroke-opacity:1" d="M 796.848,857.909 803.424,850.394 z" id="boundary" inkscape:connector-curvature="0" />
	<path style="fill:none;stroke:red;stroke-width:1px;stroke-linecap:butt;stroke-linejoin:miter;stroke-opacity:1" d="M 800.606,305.545 808.121,312.121 z" id="boundary" inkscape:connector-curvature="0" />
	<path style="fill:none;stroke:red;stroke-width:1px;stroke-linecap:butt;stroke-linejoin:miter;stroke-opacity:1" d="M 803.424,850.394 808.121,841 z" id="boundary" inkscape:connector-curvature="0" />
	<path style="fill:none;stroke:red;stroke-width:1px;stroke-linecap:butt;stroke-linejoin:miter;stroke-opacity:1" d="M 808.121,312.121 811.879,321.515 z" id="boundary" inkscape:connector-curvature="0" />
	<path style="fill:none;stroke:red;stroke-width:1px;stroke-linecap:butt;stroke-linejoin:miter;stroke-opacity:1" d="M 808.121,841 815.636,834.424 z" id="boundary" inkscape:connector-curvature="0" />
	<path style="fill:none;stroke:red;stroke-width:1px;stroke-linecap:butt;stroke-linejoin:miter;stroke-opacity:1" d="M 811.879,321.515 817.515,329.03 z" id="boundary" inkscape:connector-curvature="0" />
	<path style="fill:none;stroke:red;stroke-width:1px;stroke-linecap:butt;stroke-linejoin:miter;stroke-opacity:1" d="M 815.636,834.424 820.333,825.03 z" id="boundary" inkscape:connector-curvature="0" />
	<path style="fill:none;stroke:red;stroke-width:1px;stroke-linecap:butt;stroke-linejoin:miter;stroke-opacity:1" d="M 817.515,329.03 822.212,337.485 z" id="boundary" inkscape:connector-curvature="0" />
	<path style="fill:none;stroke:red;stroke-width:1px;stroke-linecap:butt;stroke-linejoin:miter;stroke-opacity:1" d="M 820.333,825.03 825.03,815.636 z" id="boundary" inkscape:connector-curvature="0" />
	<path style="fill:none;stroke:red;stroke-width:1px;stroke-linecap:butt;stroke-linejoin:miter;stroke-opacity:1" d="M 822.212,337.485 826.909,345.939 z" id="boundary" inkscape:connector-curvature="0" />
	<path style="fill:none;stroke:red;stroke-width:1px;stroke-linecap:butt;stroke-linejoin:miter;stroke-opacity:1" d="M 825.03,815.636 831.606,803.424 z" id="boundary" inkscape:connector-curvature="0" />
	<path style="fill:none;stroke:red;stroke-width:1px;stroke-linecap:butt;stroke-linejoin:miter;stroke-opacity:1" d="M 826.909,345.939 831.606,354.394 z" id="boundary" inkscape:connector-curvature="0" />
	<path style="fill:none;stroke:red;stroke-width:1px;stroke-linecap:butt;stroke-linejoin:miter;stroke-opacity:1" d="M 831.606,354.394 836.303,362.848 z" id="boundary" inkscape:connector-curvature="0" />
	<path style="fill:none;stroke:red;stroke-width:1px;stroke-linecap:butt;stroke-linejoin:miter;stroke-opacity:1" d="M 831.606,803.424 836.303,794.03 z" id="boundary" inkscape:connector-curvature="0" />
	<path style="fill:none;stroke:red;stroke-width:1px;stroke-linecap:butt;stroke-linejoin:miter;stroke-opacity:1" d="M 836.303,362.848 841,371.303 z" id="boundary" inkscape:connector-curvature="0" />
	<path style="fill:none;stroke:red;stroke-width:1px;stroke-linecap:butt;stroke-linejoin:miter;stroke-opacity:1" d="M 836.303,794.03 841,784.636 z" id="boundary" inkscape:connector-curvature="0" />
	<path style="fill:none;stroke:red;stroke-width:1px;stroke-linecap:butt;stroke-linejoin:miter;stroke-opacity:1" d="M 841,371.303 845.697,379.758 z" id="boundary" inkscape:connector-curvature="0" />
	<path style="fill:none;stroke:red;stroke-width:1px;stroke-linecap:butt;stroke-linejoin:miter;stroke-opacity:1" d="M 841,784.636 845.697,775.242 z" id="boundary" inkscape:connector-curvature="0" />
	<path style="fill:none;stroke:red;stroke-width:1px;stroke-linecap:butt;stroke-linejoin:miter;stroke-opacity:1" d="M 845.697,379.758 850.394,388.212 z" id="boundary" inkscape:connector-curvature="0" />
	<path style="fill:none;stroke:red;stroke-width:1px;stroke-linecap:butt;stroke-linejoin:miter;stroke-opacity:1" d="M 845.697,775.242 850.394,761.152 z" id="boundary" inkscape:connector-curvature="0" />
	<path style="fill:none;stroke:red;stroke-width:1px;stroke-linecap:butt;stroke-linejoin:miter;stroke-opacity:1" d="M 850.394,388.212 850.394,397.606 z" id="boundary" inkscape:connector-curvature="0" />
	<path style="fill:none;stroke:red;stroke-width:1px;stroke-linecap:butt;stroke-linejoin:miter;stroke-opacity:1" d="M 850.394,397.606 855.091,406.061 z" id="boundary" inkscape:connector-curvature="0" />
	<path style="fill:none;stroke:red;stroke-width:1px;stroke-linecap:butt;stroke-linejoin:miter;stroke-opacity:1" d="M 850.394,761.152 855.091,751.758 z" id="boundary" inkscape:connector-curvature="0" />
	<path style="fill:none;stroke:red;stroke-width:1px;stroke-linecap:butt;stroke-linejoin:miter;stroke-opacity:1" d="M 855.091,406.061 859.788,414.515 z" id="boundary" inkscape:connector-curvature="0" />
	<path style="fill:none;stroke:red;stroke-width:1px;stroke-linecap:butt;stroke-linejoin:miter;stroke-opacity:1" d="M 855.091,751.758 859.788,737.667 z" id="boundary" inkscape:connector-curvature="0" />
	<path style="fill:none;stroke:red;stroke-width:1px;stroke-linecap:butt;stroke-linejoin:miter;stroke-opacity:1" d="M 859.788,414.515 862.606,423.909 z" id="boundary" inkscape:connector-curvature="0" />
	<path style="fill:none;stroke:red;stroke-width:1px;stroke-linecap:butt;stroke-linejoin:miter;stroke-opacity:1" d="M 859.788,737.667 864.485,723.576 z" id="boundary" inkscape:connector-curvature="0" />
	<path style="fill:none;stroke:red;stroke-width:1px;stroke-linecap:butt;stroke-linejoin:miter;stroke-opacity:1" d="M 862.606,423.909 864.485,433.303 z" id="boundary" inkscape:connector-curvature="0" />
	<path style="fill:none;stroke:red;stroke-width:1px;stroke-linecap:butt;stroke-linejoin:miter;stroke-opacity:1" d="M 864.485,433.303 869.182,441.758 z" id="boundary" inkscape:connector-curvature="0" />
	<path style="fill:none;stroke:red;stroke-width:1px;stroke-linecap:butt;stroke-linejoin:miter;stroke-opacity:1" d="M 864.485,723.576 869.182,714.182 z" id="boundary" inkscape:connector-curvature="0" />
	<path style="fill:none;stroke:red;stroke-width:1px;stroke-linecap:butt;stroke-linejoin:miter;stroke-opacity:1" d="M 869.182,441.758 869.182,451.152 z" id="boundary" inkscape:connector-curvature="0" />
	<path style="fill:none;stroke:red;stroke-width:1px;stroke-linecap:butt;stroke-linejoin:miter;stroke-opacity:1" d="M 869.182,451.152 873.879,459.606 z" id="boundary" inkscape:connector-curvature="0" />
	<path style="fill:none;stroke:red;stroke-width:1px;stroke-linecap:butt;stroke-linejoin:miter;stroke-opacity:1" d="M 869.182,704.788 869.182,714.182 z" id="boundary" inkscape:connector-curvature="0" />
	<path style="fill:none;stroke:red;stroke-width:1px;stroke-linecap:butt;stroke-linejoin:miter;stroke-opacity:1" d="M 869.182,704.788 873.879,695.394 z" id="boundary" inkscape:connector-curvature="0" />
	<path style="fill:none;stroke:red;stroke-width:1px;stroke-linecap:butt;stroke-linejoin:miter;stroke-opacity:1" d="M 873.879,459.606 873.879,469 z" id="boundary" inkscape:connector-curvature="0" />
	<path style="fill:none;stroke:red;stroke-width:1px;stroke-linecap:butt;stroke-linejoin:miter;stroke-opacity:1" d="M 873.879,469 878.576,477.455 z" id="boundary" inkscape:connector-curvature="0" />
	<path style="fill:none;stroke:red;stroke-width:1px;stroke-linecap:butt;stroke-linejoin:miter;stroke-opacity:1" d="M 873.879,686 873.879,695.394 z" id="boundary" inkscape:connector-curvature="0" />
	<path style="fill:none;stroke:red;stroke-width:1px;stroke-linecap:butt;stroke-linejoin:miter;stroke-opacity:1" d="M 873.879,686 878.576,671.909 z" id="boundary" inkscape:connector-curvature="0" />
	<path style="fill:none;stroke:red;stroke-width:1px;stroke-linecap:butt;stroke-linejoin:miter;stroke-opacity:1" d="M 878.576,477.455 878.576,486.848 z" id="boundary" inkscape:connector-curvature="0" />
	<path style="fill:none;stroke:red;stroke-width:1px;stroke-linecap:butt;stroke-linejoin:miter;stroke-opacity:1" d="M 878.576,486.848 878.576,496.242 z" id="boundary" inkscape:connector-curvature="0" />
	<path style="fill:none;stroke:red;stroke-width:1px;stroke-linecap:butt;stroke-linejoin:miter;stroke-opacity:1" d="M 878.576,496.242 883.273,504.697 z" id="boundary" inkscape:connector-curvature="0" />
	<path style="fill:none;stroke:red;stroke-width:1px;stroke-linecap:butt;stroke-linejoin:miter;stroke-opacity:1" d="M 878.576,662.515 878.576,671.909 z" id="boundary" inkscape:connector-curvature="0" />
	<path style="fill:none;stroke:red;stroke-width:1px;stroke-linecap:butt;stroke-linejoin:miter;stroke-opacity:1" d="M 878.576,662.515 883.273,648.424 z" id="boundary" inkscape:connector-curvature="0" />
	<path style="fill:none;stroke:red;stroke-width:1px;stroke-linecap:butt;stroke-linejoin:miter;stroke-opacity:1" d="M 883.273,504.697 883.273,514.091 z" id="boundary" inkscape:connector-curvature="0" />
	<path style="fill:none;stroke:red;stroke-width:1px;stroke-linecap:butt;stroke-linejoin:miter;stroke-opacity:1" d="M 883.273,514.091 883.273,523.485 z" id="boundary" inkscape:connector-curvature="0" />
	<path style="fill:none;stroke:red;stroke-width:1px;stroke-linecap:butt;stroke-linejoin:miter;stroke-opacity:1" d="M 883.273,523.485 887.03,532.879 z" id="boundary" inkscape:connector-curvature="0" />
	<path style="fill:none;stroke:red;stroke-width:1px;stroke-linecap:butt;stroke-linejoin:miter;stroke-opacity:1" d="M 883.273,629.636 883.273,639.03 z" id="boundary" inkscape:connector-curvature="0" />
	<path style="fill:none;stroke:red;stroke-width:1px;stroke-linecap:butt;stroke-linejoin:miter;stroke-opacity:1" d="M 883.273,629.636 887.97,617.424 z" id="boundary" inkscape:connector-curvature="0" />
	<path style="fill:none;stroke:red;stroke-width:1px;stroke-linecap:butt;stroke-linejoin:miter;stroke-opacity:1" d="M 883.273,639.03 883.273,648.424 z" id="boundary" inkscape:connector-curvature="0" />
	<path style="fill:none;stroke:red;stroke-width:1px;stroke-linecap:butt;stroke-linejoin:miter;stroke-opacity:1" d="M 887.03,532.879 887.97,542.273 z" id="boundary" inkscape:connector-curvature="0" />
	<path style="fill:none;stroke:red;stroke-width:1px;stroke-linecap:butt;stroke-linejoin:miter;stroke-opacity:1" d="M 887.97,542.273 887.97,551.667 z" id="boundary" inkscape:connector-curvature="0" />
	<path style="fill:none;stroke:red;stroke-width:1px;stroke-linecap:butt;stroke-linejoin:miter;stroke-opacity:1" d="M 887.97,551.667 887.97,561.061 z" id="boundary" inkscape:connector-curvature="0" />
	<path style="fill:none;stroke:red;stroke-width:1px;stroke-linecap:butt;stroke-linejoin:miter;stroke-opacity:1" d="M 887.97,561.061 887.97,570.455 z" id="boundary" inkscape:connector-curvature="0" />
	<path style="fill:none;stroke:red;stroke-width:1px;stroke-linecap:butt;stroke-linejoin:miter;stroke-opacity:1" d="M 887.97,570.455 887.97,579.848 z" id="boundary" inkscape:connector-curvature="0" />
	<path style="fill:none;stroke:red;stroke-width:1px;stroke-linecap:butt;stroke-linejoin:miter;stroke-opacity:1" d="M 887.97,579.848 887.97,589.242 z" id="boundary" inkscape:connector-curvature="0" />
	<path style="fill:none;stroke:red;stroke-width:1px;stroke-linecap:butt;stroke-linejoin:miter;stroke-opacity:1" d="M 887.97,589.242 887.97,598.636 z" id="boundary" inkscape:connector-curvature="0" />
	<path style="fill:none;stroke:red;stroke-width:1px;stroke-linecap:butt;stroke-linejoin:miter;stroke-opacity:1" d="M 887.97,598.636 887.97,608.03 z" id="boundary" inkscape:connector-curvature="0" />
	<path style="fill:none;stroke:red;stroke-width:1px;stroke-linecap:butt;stroke-linejoin:miter;stroke-opacity:1" d="M 887.97,608.03 887.97,617.424 z" id="boundary" inkscape:connector-curvature="0" />
	<circle cx="4" cy="546.97" r="4" fill="#0" id="circle0"/>
	<circle cx="4" cy="556.364" r="4" fill="#0" id="circle1"/>
	<circle cx="4" cy="565.758" r="4" fill="#0" id="circle2"/>
	<circle cx="4" cy="575.152" r="4" fill="#0" id="circle3"/>
	<circle cx="4" cy="584.545" r="4" fill="#0" id="circle4"/>
	<circle cx="4" cy="593.939" r="4" fill="#0" id="circle5"/>
	<circle cx="4" cy="603.333" r="4" fill="#0" id="circle6"/>
	<circle cx="4" cy="612.727" r="4" fill="#0" id="circle7"/>
	<circle cx="4" cy="622.121" r="4" fill="#0" id="circle8"/>
	<circle cx="4" cy="631.515" r="4" fill="#0" id="circle9"/>
	<circle cx="8.69697" cy="509.394" r="4" fill="#0" id="circle10"/>
	<circle cx="8.69697" cy="518.788" r="4" fill="#0" id="circle11"/>
	<circle cx="8.69697" cy="528.182" r="4" fill="#0" id="circle12"/>
	<circle cx="8.69697" cy="537.576" r="4" fill="#0" id="circle13"/>
	<circle cx="8.69697" cy="639.97" r="4" fill="#0" id="circle14"/>
	<circle cx="8.69697" cy="649.364" r="4" fill="#0" id="circle15"/>
	<circle cx="8.69697" cy="658.758" r="4" fill="#0" id="circle16"/>
	<circle cx="8.69697" cy="668.152" r="4" fill="#0" id="circle17"/>
	<circle cx="13.3939" cy="490.606" r="4" fill="#0" id="circle18"/>
	<circle cx="13.3939" cy="500" r="4" fill="#0" id="circle19"/>
	<circle cx="13.3939" cy="676.606" r="4" fill="#0" id="circle20"/>
	<circle cx="13.3939" cy="686" r="4" fill="#0" id="circle21"/>
	<circle cx="18.0909" cy="471.818" r="4" fill="#0" id="circle22"/>
	<circle cx="18.0909" cy="481.212" r="4" fill="#0" id="circle23"/>
	<circle cx="18.0909" cy="694.455" r="4" fill="#0" id="circle24"/>
	<circle cx="18.0909" cy="703.848" r="4" fill="#0" id="circle25"/>
	<circle cx="22.7879" cy="453.03" r="4" fill="#0" id="circle26"/>
	<circle cx="22.7879" cy="462.424" r="4" fill="#0" id="circle27"/>
	<circle cx="22.7879" cy="712.303" r="4" fill="#0" id="circle28"/>
	<circle cx="22.7879" cy="721.697" r="4" fill="#0" id="circle29"/>
	<circle cx="27.4848" cy="438.939" r="4" fill="#0" id="circle30"/>
	<circle cx="27.4848" cy="730.152" r="4" fill="#0" id="circle31"/>
	<circle cx="27.4848" cy="739.545" r="4" fill="#0" id="circle32"/>
	<circle cx="32.1818" cy="429.545" r="4" fill="#0" id="circle33"/>
	<circle cx="32.1818" cy="748" r="4" fill="#0" id="circle34"/>
	<circle cx="36.8788" cy="415.455" r="4" fill="#0" id="circle35"/>
	<circle cx="36.8788" cy="756.455" r="4" fill="#0" id="circle36"/>
	<circle cx="39.697" cy="765.848" r="4" fill="#0" id="circle37"/>
	<circle cx="41.5758" cy="406.061" r="4" fill="#0" id="circle38"/>
	<circle cx="44.3939" cy="774.303" r="4" fill="#0" id="circle39"/>
	<circle cx="46.2727" cy="396.667" r="4" fill="#0" id="circle40"/>
	<circle cx="48.1515" cy="783.697" r="4" fill="#0" id="circle41"/>
	<circle cx="50.9697" cy="387.273" r="4" fill="#0" id="circle42"/>
	<circle cx="52.8485" cy="792.152" r="4" fill="#0" id="circle43"/>
	<circle cx="55.6667" cy="377.879" r="4" fill="#0" id="circle44"/>
	<circle cx="56.6061" cy="801.545" r="4" fill="#0" id="circle45"/>
	<circle cx="60.3636" cy="368.485" r="4" fill="#0" id="circle46"/>
	<circle cx="61.303" cy="810" r="4" fill="#0" id="circle47"/>
	<circle cx="65.0606" cy="359.091" r="4" fill="#0" id="circle48"/>
	<circle cx="65.0606" cy="819.394" r="4" fill="#0" id="circle49"/>
	<circle cx="72.5758" cy="351.576" r="4" fill="#0" id="circle50"/>
	<circle cx="72.5758" cy="825.97" r="4" fill="#0" id="circle51"/>
	<circle cx="76.3333" cy="835.364" r="4" fill="#0" id="circle52"/>
	<circle cx="77.2727" cy="342.182" r="4" fill="#0" id="circle53"/>
	<circle cx="83.8485" cy="330.909" r="4" fill="#0" id="circle54"/>
	<circle cx="83.8485" cy="841" r="4" fill="#0" id="circle55"/>
	<circle cx="86.6667" cy="850.394" r="4" fill="#0" id="circle56"/>
	<circle cx="91.3636" cy="323.394" r="4" fill="#0" id="circle57"/>
	<circle cx="94.1818" cy="856.97" r="4" fill="#0" id="circle58"/>
	<circle cx="98.8788" cy="315.879" r="4" fill="#0" id="circle59"/>
	<circle cx="100.758" cy="864.485" r="4" fill="#0" id="circle60"/>
	<circle cx="103.576" cy="306.485" r="4" fill="#0" id="circle61"/>
	<circle cx="105.455" cy="872.939" r="4" fill="#0" id="circle62"/>
	<circle cx="111.091" cy="299.909" r="4" fill="#0" id="circle63"/>
	<circle cx="112.03" cy="880.455" r="4" fill="#0" id="circle64"/>
	<circle cx="117.667" cy="292.394" r="4" fill="#0" id="circle65"/>
	<circle cx="119.545" cy="887.03" r="4" fill="#0" id="circle66"/>
	<circle cx="125.182" cy="285.818" r="4" fill="#0" id="circle67"/>
	<circle cx="126.121" cy="894.545" r="4" fill="#0" id="circle68"/>
	<circle cx="131.758" cy="278.303" r="4" fill="#0" id="circle69"/>
	<circle cx="133.636" cy="901.121" r="4" fill="#0" id="circle70"/>
	<circle cx="139.273" cy="271.727" r="4" fill="#0" id="circle71"/>
	<circle cx="140.212" cy="908.636" r="4" fill="#0" id="circle72"/>
	<circle cx="145.848" cy="264.212" r="4" fill="#0" id="circle73"/>
	<circle cx="147.727" cy="915.212" r="4" fill="#0" id="circle74"/>
	<circle cx="155.242" cy="259.515" r="4" fill="#0" id="circle75"/>
	<circle cx="156.182" cy="919.909" r="4" fill="#0" id="circle76"/>
	<circle cx="162.758" cy="252.939" r="4" fill="#0" id="circle77"/>
	<circle cx="163.697" cy="925.545" r="4" fill="#0" id="circle78"/>
	<circle cx="169.333" cy="245.424" r="4" fill="#0" id="circle79"/>
	<circle cx="169.333" cy="933.061" r="4" fill="#0" id="circle80"/>
	<circle cx="178.727" cy="240.727" r="4" fill="#0" id="circle81"/>
	<circle cx="178.727" cy="936.818" r="4" fill="#0" id="circle82"/>
	<circle cx="185.303" cy="944.333" r="4" fill="#0" id="circle83"/>
	<circle cx="186.242" cy="234.152" r="4" fill="#0" id="circle84"/>
	<circle cx="194.697" cy="229.455" r="4" fill="#0" id="circle85"/>
	<circle cx="194.697" cy="948.091" r="4" fill="#0" id="circle86"/>
	<circle cx="203.152" cy="952.788" r="4" fill="#0" id="circle87"/>
	<circle cx="204.091" cy="224.758" r="4" fill="#0" id="circle88"/>
	<circle cx="210.667" cy="958.424" r="4" fill="#0" id="circle89"/>
	<circle cx="212.545" cy="220.061" r="4" fill="#0" id="circle90"/>
	<circle cx="219.121" cy="963.121" r="4" fill="#0" id="circle91"/>
	<circle cx="220.061" cy="35" r="4" fill="#0" id="circle92"/>
	<circle cx="220.061" cy="44.3939" r="4" fill="#0" id="circle93"/>
	<circle cx="221" cy="215.364" r="4" fill="#0" id="circle94"/>
	<circle cx="227.576" cy="27.4848" r="4" fill="#0" id="circle95"/>
	<circle cx="227.576" cy="50.9697" r="4" fill="#0" id="circle96"/>
	<circle cx="227.576" cy="967.818" r="4" fill="#0" id="circle97"/>
	<circle cx="229.455" cy="210.667" r="4" fill="#0" id="circle98"/>
	<circle cx="235.091" cy="19.9697" r="4" fill="#0" id="circle99"/>
	<circle cx="235.091" cy="56.6061" r="4" fill="#0" id="circle100"/>
	<circle cx="236.97" cy="967.818" r="4" fill="#0" id="circle101"/>
	<circle cx="238.848" cy="208.788" r="4" fill="#0" id="circle102"/>
	<circle cx="243.545" cy="61.303" r="4" fill="#0" id="circle103"/>
	<circle cx="244.485" cy="15.2727" r="4" fill="#0" id="circle104"/>
	<circle cx="245.424" cy="972.515" r="4" fill="#0" id="circle105"/>
	<circle cx="248.242" cy="204.091" r="4" fill="#0" id="circle106"/>
	<circle cx="252" cy="66" r="4" fill="#0" id="circle107"/>
	<circle cx="253.879" cy="10.5758" r="4" fill="#0" id="circle108"/>
	<circle cx="253.879" cy="977.212" r="4" fill="#0" id="circle109"/>
	<circle cx="257.636" cy="201.273" r="4" fill="#0" id="circle110"/>
	<circle cx="260.455" cy="70.697" r="4" fill="#0" id="circle111"/>
	<circle cx="263.273" cy="8.69697" r="4" fill="#0" id="circle112"/>
	<circle cx="263.273" cy="979.091" r="4" fill="#0" id="circle113"/>
	<circle cx="266.091" cy="196.576" r="4" fill="#0" id="circle114"/>
	<circle cx="269.848" cy="70.697" r="4" fill="#0" id="circle115"/>
	<circle cx="272.667" cy="8.69697" r="4" fill="#0" id="circle116"/>
	<circle cx="272.667" cy="981.909" r="4" fill="#0" id="circle117"/>
	<circle cx="275.485" cy="196.576" r="4" fill="#0" id="circle118"/>
	<circle cx="278.303" cy="75.3939" r="4" fill="#0" id="circle119"/>
	<circle cx="281.121" cy="986.606" r="4" fill="#0" id="circle120"/>
	<circle cx="282.061" cy="8.69697" r="4" fill="#0" id="circle121"/>
	<circle cx="283.939" cy="191.879" r="4" fill="#0" id="circle122"/>
	<circle cx="286.758" cy="80.0909" r="4" fill="#0" id="circle123"/>
	<circle cx="290.515" cy="986.606" r="4" fill="#0" id="circle124"/>
	<circle cx="291.455" cy="8.69697" r="4" fill="#0" id="circle125"/>
	<circle cx="293.333" cy="191.879" r="4" fill="#0" id="circle126"/>
	<circle cx="296.152" cy="81.9697" r="4" fill="#0" id="circle127"/>
	<circle cx="298.97" cy="991.303" r="4" fill="#0" id="circle128"/>
	<circle cx="300.848" cy="8.69697" r="4" fill="#0" id="circle129"/>
	<circle cx="301.788" cy="187.182" r="4" fill="#0" id="circle130"/>
	<circle cx="304.606" cy="86.6667" r="4" fill="#0" id="circle131"/>
	<circle cx="308.364" cy="991.303" r="4" fill="#0" id="circle132"/>
	<circle cx="310.242" cy="8.69697" r="4" fill="#0" id="circle133"/>
	<circle cx="311.182" cy="187.182" r="4" fill="#0" id="circle134"/>
	<circle cx="314" cy="89.4848" r="4" fill="#0" id="circle135"/>
	<circle cx="317.758" cy="991.303" r="4" fill="#0" id="circle136"/>
	<circle cx="319.636" cy="8.69697" r="4" fill="#0" id="circle137"/>
	<circle cx="319.636" cy="97" r="4" fill="#0" id="circle138"/>
	<circle cx="320.576" cy="187.182" r="4" fill="#0" id="circle139"/>
	<circle cx="326.212" cy="996" r="4" fill="#0" id="circle140"/>
	<circle cx="329.03" cy="8.69697" r="4" fill="#0" id="circle141"/>
	<circle cx="329.03" cy="100.758" r="4" fill="#0" id="circle142"/>
	<circle cx="329.03" cy="182.485" r="4" fill="#0" id="circle143"/>
	<circle cx="335.606" cy="108.273" r="4" fill="#0" id="circle144"/>
	<circle cx="335.606" cy="996" r="4" fill="#0" id="circle145"/>
	<circle cx="337.485" cy="13.3939" r="4" fill="#0" id="circle146"/>
	<circle cx="338.424" cy="182.485" r="4" fill="#0" id="circle147"/>
	<circle cx="345" cy="108.273" r="4" fill="#0" id="circle148"/>
	<circle cx="345" cy="996" r="4" fill="#0" id="circle149"/>
	<circle cx="346.879" cy="15.2727" r="4" fill="#0" id="circle150"/>
	<circle cx="347.818" cy="182.485" r="4" fill="#0" id="circle151"/>
	<circle cx="352.515" cy="114.848" r="4" fill="#0" id="circle152"/>
	<circle cx="354.394" cy="996" r="4" fill="#0" id="circle153"/>
	<circle cx="355.333" cy="19.9697" r="4" fill="#0" id="circle154"/>
	<circle cx="357.212" cy="182.485" r="4" fill="#0" id="circle155"/>
	<circle cx="359.091" cy="122.364" r="4" fill="#0" id="circle156"/>
	<circle cx="363.788" cy="996" r="4" fill="#0" id="circle157"/>
	<circle cx="364.727" cy="22.7879" r="4" fill="#0" id="circle158"/>
	<circle cx="366.606" cy="128.939" r="4" fill="#0" id="circle159"/>
	<circle cx="366.606" cy="182.485" r="4" fill="#0" id="circle160"/>
	<circle cx="373.182" cy="27.4848" r="4" fill="#0" id="circle161"/>
	<circle cx="373.182" cy="136.455" r="4" fill="#0" id="circle162"/>
	<circle cx="373.182" cy="996" r="4" fill="#0" id="circle163"/>
	<circle cx="376" cy="182.485" r="4" fill="#0" id="circle164"/>
	<circle cx="377.879" cy="144.909" r="4" fill="#0" id="circle165"/>
	<circle cx="382.576" cy="27.4848" r="4" fill="#0" id="circle166"/>
	<circle cx="382.576" cy="996" r="4" fill="#0" id="circle167"/>
	<circle cx="384.455" cy="152.424" r="4" fill="#0" id="circle168"/>
	<circle cx="385.394" cy="182.485" r="4" fill="#0" id="circle169"/>
	<circle cx="389.152" cy="35" r="4" fill="#0" id="circle170"/>
	<circle cx="391.97" cy="159" r="4" fill="#0" id="circle171"/>
	<circle cx="391.97" cy="996" r="4" fill="#0" id="circle172"/>
	<circle cx="394.788" cy="182.485" r="4" fill="#0" id="circle173"/>
	<circle cx="396.667" cy="41.5758" r="4" fill="#0" id="circle174"/>
	<circle cx="399.485" cy="164.636" r="4" fill="#0" id="circle175"/>
	<circle cx="401.364" cy="995.061" r="4" fill="#0" id="circle176"/>
	<circle cx="403.242" cy="49.0909" r="4" fill="#0" id="circle177"/>
	<circle cx="404.182" cy="185.303" r="4" fill="#0" id="circle178"/>
	<circle cx="408.879" cy="166.515" r="4" fill="#0" id="circle179"/>
	<circle cx="410.758" cy="55.6667" r="4" fill="#0" id="circle180"/>
	<circle cx="410.758" cy="991.303" r="4" fill="#0" id="circle181"/>
	<circle cx="413.576" cy="187.182" r="4" fill="#0" id="circle182"/>
	<circle cx="415.455" cy="174.03" r="4" fill="#0" id="circle183"/>
	<circle cx="417.333" cy="63.1818" r="4" fill="#0" id="circle184"/>
	<circle cx="420.152" cy="991.303" r="4" fill="#0" id="circle185"/>
	<circle cx="422.03" cy="71.6364" r="4" fill="#0" id="circle186"/>
	<circle cx="422.97" cy="187.182" r="4" fill="#0" id="circle187"/>
	<circle cx="424.848" cy="177.788" r="4" fill="#0" id="circle188"/>
	<circle cx="427.667" cy="79.1515" r="4" fill="#0" id="circle189"/>
	<circle cx="429.545" cy="990.364" r="4" fill="#0" id="circle190"/>
	<circle cx="432.364" cy="87.6061" r="4" fill="#0" id="circle191"/>
	<circle cx="432.364" cy="190" r="4" fill="#0" id="circle192"/>
	<circle cx="434.242" cy="177.788" r="4" fill="#0" id="circle193"/>
	<circle cx="437.061" cy="96.0606" r="4" fill="#0" id="circle194"/>
	<circle cx="438.939" cy="986.606" r="4" fill="#0" id="circle195"/>
	<circle cx="440.818" cy="185.303" r="4" fill="#0" id="circle196"/>
	<circle cx="445.515" cy="77.2727" r="4" fill="#0" id="circle197"/>
	<circle cx="445.515" cy="86.6667" r="4" fill="#0" id="circle198"/>
	<circle cx="448.333" cy="985.667" r="4" fill="#0" id="circle199"/>
	<circle cx="450.212" cy="63.1818" r="4" fill="#0" id="circle200"/>
	<circle cx="454.909" cy="53.7879" r="4" fill="#0" id="circle201"/>
	<circle cx="457.727" cy="981.909" r="4" fill="#0" id="circle202"/>
	<circle cx="459.606" cy="44.3939" r="4" fill="#0" id="circle203"/>
	<circle cx="460.545" cy="89.4848" r="4" fill="#0" id="circle204"/>
	<circle cx="460.545" cy="98.8788" r="4" fill="#0" id="circle205"/>
	<circle cx="460.545" cy="108.273" r="4" fill="#0" id="circle206"/>
	<circle cx="460.545" cy="117.667" r="4" fill="#0" id="circle207"/>
	<circle cx="460.545" cy="127.061" r="4" fill="#0" id="circle208"/>
	<circle cx="460.545" cy="136.455" r="4" fill="#0" id="circle209"/>
	<circle cx="460.545" cy="145.848" r="4" fill="#0" id="circle210"/>
	<circle cx="460.545" cy="155.242" r="4" fill="#0" id="circle211"/>
	<circle cx="460.545" cy="164.636" r="4" fill="#0" id="circle212"/>
	<circle cx="462.424" cy="174.03" r="4" fill="#0" id="circle213"/>
	<circle cx="464.303" cy="35" r="4" fill="#0" id="circle214"/>
	<circle cx="465.242" cy="75.3939" r="4" fill="#0" id="circle215"/>
	<circle cx="465.242" cy="183.424" r="4" fill="#0" id="circle216"/>
	<circle cx="466.182" cy="977.212" r="4" fill="#0" id="circle217"/>
	<circle cx="469.939" cy="66" r="4" fill="#0" id="circle218"/>
	<circle cx="471.818" cy="27.4848" r="4" fill="#0" id="circle219"/>
	<circle cx="474.636" cy="187.182" r="4" fill="#0" id="circle220"/>
	<circle cx="475.576" cy="977.212" r="4" fill="#0" id="circle221"/>
	<circle cx="477.455" cy="59.4242" r="4" fill="#0" id="circle222"/>
	<circle cx="479.333" cy="19.9697" r="4" fill="#0" id="circle223"/>
	<circle cx="482.152" cy="50.0303" r="4" fill="#0" id="circle224"/>
	<circle cx="483.091" cy="182.485" r="4" fill="#0" id="circle225"/>
	<circle cx="484.97" cy="977.212" r="4" fill="#0" id="circle226"/>
	<circle cx="488.727" cy="15.2727" r="4" fill="#0" id="circle227"/>
	<circle cx="488.727" cy="42.5152" r="4" fill="#0" id="circle228"/>
	<circle cx="492.485" cy="180.606" r="4" fill="#0" id="circle229"/>
	<circle cx="494.364" cy="980.03" r="4" fill="#0" id="circle230"/>
	<circle cx="496.242" cy="35.9394" r="4" fill="#0" id="circle231"/>
	<circle cx="498.121" cy="10.5758" r="4" fill="#0" id="circle232"/>
	<circle cx="501.879" cy="177.788" r="4" fill="#0" id="circle233"/>
	<circle cx="503.758" cy="981.909" r="4" fill="#0" id="circle234"/>
	<circle cx="505.636" cy="31.2424" r="4" fill="#0" id="circle235"/>
	<circle cx="507.515" cy="8.69697" r="4" fill="#0" id="circle236"/>
	<circle cx="511.273" cy="177.788" r="4" fill="#0" id="circle237"/>
	<circle cx="513.152" cy="981.909" r="4" fill="#0" id="circle238"/>
	<circle cx="515.03" cy="26.5455" r="4" fill="#0" id="circle239"/>
	<circle cx="515.97" cy="4" r="4" fill="#0" id="circle240"/>
	<circle cx="520.667" cy="175.909" r="4" fill="#0" id="circle241"/>
	<circle cx="522.545" cy="984.727" r="4" fill="#0" id="circle242"/>
	<circle cx="524.424" cy="23.7273" r="4" fill="#0" id="circle243"/>
	<circle cx="525.364" cy="4" r="4" fill="#0" id="circle244"/>
	<circle cx="530.061" cy="173.091" r="4" fill="#0" id="circle245"/>
	<circle cx="531.939" cy="986.606" r="4" fill="#0" id="circle246"/>
	<circle cx="533.818" cy="23.7273" r="4" fill="#0" id="circle247"/>
	<circle cx="534.758" cy="4" r="4" fill="#0" id="circle248"/>
	<circle cx="539.455" cy="173.091" r="4" fill="#0" id="circle249"/>
	<circle cx="540.394" cy="11.5152" r="4" fill="#0" id="circle250"/>
	<circle cx="541.333" cy="986.606" r="4" fill="#0" id="circle251"/>
	<circle cx="548.848" cy="173.091" r="4" fill="#0" id="circle252"/>
	<circle cx="550.727" cy="986.606" r="4" fill="#0" id="circle253"/>
	<circle cx="558.242" cy="173.091" r="4" fill="#0" id="circle254"/>
	<circle cx="560.121" cy="986.606" r="4" fill="#0" id="circle255"/>
	<circle cx="567.636" cy="173.091" r="4" fill="#0" id="circle256"/>
	<circle cx="569.515" cy="986.606" r="4" fill="#0" id="circle257"/>
	<circle cx="577.03" cy="173.091" r="4" fill="#0" id="circle258"/>
	<circle cx="578.909" cy="986.606" r="4" fill="#0" id="circle259"/>
	<circle cx="586.424" cy="173.091" r="4" fill="#0" id="circle260"/>
	<circle cx="588.303" cy="986.606" r="4" fill="#0" id="circle261"/>
	<circle cx="594.879" cy="177.788" r="4" fill="#0" id="circle262"/>
	<circle cx="596.758" cy="981.909" r="4" fill="#0" id="circle263"/>
	<circle cx="604.273" cy="177.788" r="4" fill="#0" id="circle264"/>
	<circle cx="606.152" cy="981.909" r="4" fill="#0" id="circle265"/>
	<circle cx="613.667" cy="177.788" r="4" fill="#0" id="circle266"/>
	<circle cx="615.545" cy="981.909" r="4" fill="#0" id="circle267"/>
	<circle cx="622.121" cy="182.485" r="4" fill="#0" id="circle268"/>
	<circle cx="624" cy="977.212" r="4" fill="#0" id="circle269"/>
	<circle cx="631.515" cy="182.485" r="4" fill="#0" id="circle270"/>
	<circle cx="633.394" cy="974.394" r="4" fill="#0" id="circle271"/>
	<circle cx="639.97" cy="187.182" r="4" fill="#0" id="circle272"/>
	<circle cx="642.788" cy="972.515" r="4" fill="#0" id="circle273"/>
	<circle cx="648.424" cy="191.879" r="4" fill="#0" id="circle274"/>
	<circle cx="651.242" cy="967.818" r="4" fill="#0" id="circle275"/>
	<circle cx="657.818" cy="191.879" r="4" fill="#0" id="circle276"/>
	<circle cx="660.636" cy="965.939" r="4" fill="#0" id="circle277"/>
	<circle cx="666.273" cy="196.576" r="4" fill="#0" id="circle278"/>
	<circle cx="670.03" cy="961.242" r="4" fill="#0" id="circle279"/>
	<circle cx="674.727" cy="201.273" r="4" fill="#0" id="circle280"/>
	<circle cx="679.424" cy="956.545" r="4" fill="#0" id="circle281"/>
	<circle cx="683.182" cy="205.97" r="4" fill="#0" id="circle282"/>
	<circle cx="688.818" cy="951.848" r="4" fill="#0" id="circle283"/>
	<circle cx="691.636" cy="210.667" r="4" fill="#0" id="circle284"/>
	<circle cx="698.212" cy="947.152" r="4" fill="#0" id="circle285"/>
	<circle cx="700.091" cy="215.364" r="4" fill="#0" id="circle286"/>
	<circle cx="707.606" cy="942.455" r="4" fill="#0" id="circle287"/>
	<circle cx="709.485" cy="218.182" r="4" fill="#0" id="circle288"/>
	<circle cx="714.182" cy="934.939" r="4" fill="#0" id="circle289"/>
	<circle cx="717" cy="224.758" r="4" fill="#0" id="circle290"/>
	<circle cx="723.576" cy="930.242" r="4" fill="#0" id="circle291"/>
	<circle cx="725.455" cy="229.455" r="4" fill="#0" id="circle292"/>
	<circle cx="731.091" cy="923.667" r="4" fill="#0" id="circle293"/>
	<circle cx="732.03" cy="236.97" r="4" fill="#0" id="circle294"/>
	<circle cx="740.485" cy="918.97" r="4" fill="#0" id="circle295"/>
	<circle cx="741.424" cy="240.727" r="4" fill="#0" id="circle296"/>
	<circle cx="747.061" cy="248.242" r="4" fill="#0" id="circle297"/>
	<circle cx="747.061" cy="911.455" r="4" fill="#0" id="circle298"/>
	<circle cx="754.576" cy="253.879" r="4" fill="#0" id="circle299"/>
	<circle cx="754.576" cy="904.879" r="4" fill="#0" id="circle300"/>
	<circle cx="761.152" cy="261.394" r="4" fill="#0" id="circle301"/>
	<circle cx="761.152" cy="897.364" r="4" fill="#0" id="circle302"/>
	<circle cx="768.667" cy="267.97" r="4" fill="#0" id="circle303"/>
	<circle cx="768.667" cy="890.788" r="4" fill="#0" id="circle304"/>
	<circle cx="775.242" cy="275.485" r="4" fill="#0" id="circle305"/>
	<circle cx="775.242" cy="883.273" r="4" fill="#0" id="circle306"/>
	<circle cx="782.758" cy="282.061" r="4" fill="#0" id="circle307"/>
	<circle cx="782.758" cy="876.697" r="4" fill="#0" id="circle308"/>
	<circle cx="789.333" cy="289.576" r="4" fill="#0" id="circle309"/>
	<circle cx="789.333" cy="864.485" r="4" fill="#0" id="circle310"/>
	<circle cx="794.03" cy="298.03" r="4" fill="#0" id="circle311"/>
	<circle cx="796.848" cy="857.909" r="4" fill="#0" id="circle312"/>
	<circle cx="800.606" cy="305.545" r="4" fill="#0" id="circle313"/>
	<circle cx="803.424" cy="850.394" r="4" fill="#0" id="circle314"/>
	<circle cx="808.121" cy="312.121" r="4" fill="#0" id="circle315"/>
	<circle cx="808.121" cy="841" r="4" fill="#0" id="circle316"/>
	<circle cx="811.879" cy="321.515" r="4" fill="#0" id="circle317"/>
	<circle cx="815.636" cy="834.424" r="4" fill="#0" id="circle318"/>
	<circle cx="817.515" cy="329.03" r="4" fill="#0" id="circle319"/>
	<circle cx="820.333" cy="825.03" r="4" fill="#0" id="circle320"/>
	<circle cx="822.212" cy="337.485" r="4" fill="#0" id="circle321"/>
	<circle cx="825.03" cy="815.636" r="4" fill="#0" id="circle322"/>
	<circle cx="826.909" cy="345.939" r="4" fill="#0" id="circle323"/>
	<circle cx="831.606" cy="354.394" r="4" fill="#0" id="circle324"/>
	<circle cx="831.606" cy="803.424" r="4" fill="#0" id="circle325"/>
	<circle cx="836.303" cy="362.848" r="4" fill="#0" id="circle326"/>
	<circle cx="836.303" cy="794.03" r="4" fill="#0" id="circle327"/>
	<circle cx="841" cy="371.303" r="4" fill="#0" id="circle328"/>
	<circle cx="841" cy="784.636" r="4" fill="#0" id="circle329"/>
	<circle cx="845.697" cy="379.758" r="4" fill="#0" id="circle330"/>
	<circle cx="845.697" cy="775.242" r="4" fill="#0" id="circle331"/>
	<circle cx="850.394" cy="388.212" r="4" fill="#0" id="circle332"/>
	<circle cx="850.394" cy="397.606" r="4" fill="#0" id="circle333"/>
	<circle cx="850.394" cy="761.152" r="4" fill="#0" id="circle334"/>
	<circle cx="855.091" cy="406.061" r="4" fill="#0" id="circle335"/>
	<circle cx="855.091" cy="751.758" r="4" fill="#0" id="circle336"/>
	<circle cx="859.788" cy="414.515" r="4" fill="#0" id="circle337"/>
	<circle cx="859.788" cy="737.667" r="4" fill="#0" id="circle338"/>
	<circle cx="862.606" cy="423.909" r="4" fill="#0" id="circle339"/>
	<circle cx="864.485" cy="433.303" r="4" fill="#0" id="circle340"/>
	<circle cx="864.485" cy="723.576" r="4" fill="#0" id="circle341"/>
	<circle cx="869.182" cy="441.758" r="4" fill="#0" id="circle342"/>
	<circle cx="869.182" cy="451.152" r="4" fill="#0" id="circle343"/>
	<circle cx="869.182" cy="704.788" r="4" fill="#0" id="circle344"/>
	<circle cx="869.182" cy="714.182" r="4" fill="#0" id="circle345"/>
	<circle cx="873.879" cy="459.606" r="4" fill="#0" id="circle346"/>
	<circle cx="873.879" cy="469" r="4" fill="#0" id="circle347"/>
	<circle cx="873.879" cy="686" r="4" fill="#0" id="circle348"/>
	<circle cx="873.879" cy="695.394" r="4" fill="#0" id="circle349"/>
	<circle cx="878.576" cy="477.455" r="4" fill="#0" id="circle350"/>
	<circle cx="878.576" cy="486.848" r="4" fill="#0" id="circle351"/>
	<circle cx="878.576" cy="496.242" r="4" fill="#0" id="circle352"/>
	<circle cx="878.576" cy="662.515" r="4" fill="#0" id="circle353"/>
	<circle cx="878.576" cy="671.909" r="4" fill="#0" id="circle354"/>
	<circle cx="883.273" cy="504.697" r="4" fill="#0" id="circle355"/>
	<circle cx="883.273" cy="514.091" r="4" fill="#0" id="circle356"/>
	<circle cx="883.273" cy="523.485" r="4" fill="#0" id="circle357"/>
	<circle cx="883.273" cy="629.636" r="4" fill="#0" id="circle358"/>
	<circle cx="883.273" cy="639.03" r="4" fill="#0" id="circle359"/>
	<circle cx="883.273" cy="648.424" r="4" fill="#0" id="circle360"/>
	<circle cx="887.03" cy="532.879" r="4" fill="#0" id="circle361"/>
	<circle cx="887.97" cy="542.273" r="4" fill="#0" id="circle362"/>
	<circle cx="887.97" cy="551.667" r="4" fill="#0" id="circle363"/>
	<circle cx="887.97" cy="561.061" r="4" fill="#0" id="circle364"/>
	<circle cx="887.97" cy="570.455" r="4" fill="#0" id="circle365"/>
	<circle cx="887.97" cy="579.848" r="4" fill="#0" id="circle366"/>
	<circle cx="887.97" cy="589.242" r="4" fill="#0" id="circle367"/>
	<circle cx="887.97" cy="598.636" r="4" fill="#0" id="circle368"/>
	<circle cx="887.97" cy="608.03" r="4" fill="#0" id="circle369"/>
	<circle cx="887.97" cy="617.424" r="4" fill="#0" id="circle370"/>
	</g>
</svg>