<?xml version="1.0" encoding="UTF-8" standalone="no"?>
<!-- Created with CurveBenchmark -->
<svg
	xmlns:dc="http://purl.org/dc/elements/1.1/"
	xmlns:cc="http://creativecommons.org/ns#"
	xmlns:rdf="http://www.w3.org/1999/02/22-rdf-syntax-ns#"
	xmlns:svg="http://www.w3.org/2000/svg"
	xmlns="http://www.w3.org/2000/svg"
	xmlns:sodipodi="http://sodipodi.sourceforge.net/DTD/sodipodi-0.dtd"
	xmlns:inkscape="http://www.inkscape.org/namespaces/inkscape"
	width="1000"
	height="1000"
	id="svg2"
	version="1.1"
	sodipodi:docname="manifold/hnncrust-flatfish15.png.txt">
<defs
	id="defs4" />
<metadata
	id="metadata7">
	<rdf:RDF>
		<cc:Work
			rdf:about="">
			<dc:format>image/svg+xml</dc:format>
			<dc:type
				rdf:resource="http://purl.org/dc/dcmitype/StillImage" />
			<dc:title></dc:title>
		</cc:Work>
	</rdf:RDF>
</metadata>
<g
	inkscape:label="Layer 1"
	inkscape:groupmode="layer"
	id="layer1">
	<path style="fill:none;stroke:red;stroke-width:1px;stroke-linecap:butt;stroke-linejoin:miter;stroke-opacity:1" d="M 4,201.214 4,216.042 z" id="boundary" inkscape:connector-curvature="0" />
	<path style="fill:none;stroke:red;stroke-width:1px;stroke-linecap:butt;stroke-linejoin:miter;stroke-opacity:1" d="M 4,201.214 11.4141,178.972 z" id="boundary" inkscape:connector-curvature="0" />
	<path style="fill:none;stroke:red;stroke-width:1px;stroke-linecap:butt;stroke-linejoin:miter;stroke-opacity:1" d="M 4,216.042 4,230.87 z" id="boundary" inkscape:connector-curvature="0" />
	<path style="fill:none;stroke:red;stroke-width:1px;stroke-linecap:butt;stroke-linejoin:miter;stroke-opacity:1" d="M 4,230.87 4,245.698 z" id="boundary" inkscape:connector-curvature="0" />
	<path style="fill:none;stroke:red;stroke-width:1px;stroke-linecap:butt;stroke-linejoin:miter;stroke-opacity:1" d="M 4,245.698 4,260.526 z" id="boundary" inkscape:connector-curvature="0" />
	<path style="fill:none;stroke:red;stroke-width:1px;stroke-linecap:butt;stroke-linejoin:miter;stroke-opacity:1" d="M 4,260.526 4,275.354 z" id="boundary" inkscape:connector-curvature="0" />
	<path style="fill:none;stroke:red;stroke-width:1px;stroke-linecap:butt;stroke-linejoin:miter;stroke-opacity:1" d="M 4,275.354 4,290.182 z" id="boundary" inkscape:connector-curvature="0" />
	<path style="fill:none;stroke:red;stroke-width:1px;stroke-linecap:butt;stroke-linejoin:miter;stroke-opacity:1" d="M 4,290.182 4,305.01 z" id="boundary" inkscape:connector-curvature="0" />
	<path style="fill:none;stroke:red;stroke-width:1px;stroke-linecap:butt;stroke-linejoin:miter;stroke-opacity:1" d="M 4,305.01 11.4141,318.356 z" id="boundary" inkscape:connector-curvature="0" />
	<path style="fill:none;stroke:red;stroke-width:1px;stroke-linecap:butt;stroke-linejoin:miter;stroke-opacity:1" d="M 11.4141,164.143 11.4141,178.972 z" id="boundary" inkscape:connector-curvature="0" />
	<path style="fill:none;stroke:red;stroke-width:1px;stroke-linecap:butt;stroke-linejoin:miter;stroke-opacity:1" d="M 11.4141,164.143 18.8281,149.315 z" id="boundary" inkscape:connector-curvature="0" />
	<path style="fill:none;stroke:red;stroke-width:1px;stroke-linecap:butt;stroke-linejoin:miter;stroke-opacity:1" d="M 11.4141,318.356 18.8281,331.701 z" id="boundary" inkscape:connector-curvature="0" />
	<path style="fill:none;stroke:red;stroke-width:1px;stroke-linecap:butt;stroke-linejoin:miter;stroke-opacity:1" d="M 18.8281,149.315 33.6562,141.901 z" id="boundary" inkscape:connector-curvature="0" />
	<path style="fill:none;stroke:red;stroke-width:1px;stroke-linecap:butt;stroke-linejoin:miter;stroke-opacity:1" d="M 18.8281,331.701 32.1734,339.115 z" id="boundary" inkscape:connector-curvature="0" />
	<path style="fill:none;stroke:red;stroke-width:1px;stroke-linecap:butt;stroke-linejoin:miter;stroke-opacity:1" d="M 32.1734,339.115 45.5187,331.701 z" id="boundary" inkscape:connector-curvature="0" />
	<path style="fill:none;stroke:red;stroke-width:1px;stroke-linecap:butt;stroke-linejoin:miter;stroke-opacity:1" d="M 33.6562,141.901 48.4843,137.453 z" id="boundary" inkscape:connector-curvature="0" />
	<path style="fill:none;stroke:red;stroke-width:1px;stroke-linecap:butt;stroke-linejoin:miter;stroke-opacity:1" d="M 45.5187,331.701 58.864,324.287 z" id="boundary" inkscape:connector-curvature="0" />
	<path style="fill:none;stroke:red;stroke-width:1px;stroke-linecap:butt;stroke-linejoin:miter;stroke-opacity:1" d="M 48.4843,137.453 61.8296,144.867 z" id="boundary" inkscape:connector-curvature="0" />
	<path style="fill:none;stroke:red;stroke-width:1px;stroke-linecap:butt;stroke-linejoin:miter;stroke-opacity:1" d="M 58.864,324.287 72.2093,316.873 z" id="boundary" inkscape:connector-curvature="0" />
	<path style="fill:none;stroke:red;stroke-width:1px;stroke-linecap:butt;stroke-linejoin:miter;stroke-opacity:1" d="M 61.8296,144.867 76.6577,146.35 z" id="boundary" inkscape:connector-curvature="0" />
	<path style="fill:none;stroke:red;stroke-width:1px;stroke-linecap:butt;stroke-linejoin:miter;stroke-opacity:1" d="M 72.2093,316.873 87.0374,316.873 z" id="boundary" inkscape:connector-curvature="0" />
	<path style="fill:none;stroke:red;stroke-width:1px;stroke-linecap:butt;stroke-linejoin:miter;stroke-opacity:1" d="M 76.6577,146.35 90.003,153.764 z" id="boundary" inkscape:connector-curvature="0" />
	<path style="fill:none;stroke:red;stroke-width:1px;stroke-linecap:butt;stroke-linejoin:miter;stroke-opacity:1" d="M 87.0374,316.873 101.865,316.873 z" id="boundary" inkscape:connector-curvature="0" />
	<path style="fill:none;stroke:red;stroke-width:1px;stroke-linecap:butt;stroke-linejoin:miter;stroke-opacity:1" d="M 90.003,153.764 104.831,159.695 z" id="boundary" inkscape:connector-curvature="0" />
	<path style="fill:none;stroke:red;stroke-width:1px;stroke-linecap:butt;stroke-linejoin:miter;stroke-opacity:1" d="M 101.865,316.873 116.694,309.459 z" id="boundary" inkscape:connector-curvature="0" />
	<path style="fill:none;stroke:red;stroke-width:1px;stroke-linecap:butt;stroke-linejoin:miter;stroke-opacity:1" d="M 104.831,159.695 118.176,167.109 z" id="boundary" inkscape:connector-curvature="0" />
	<path style="fill:none;stroke:red;stroke-width:1px;stroke-linecap:butt;stroke-linejoin:miter;stroke-opacity:1" d="M 116.694,309.459 131.522,302.045 z" id="boundary" inkscape:connector-curvature="0" />
	<path style="fill:none;stroke:red;stroke-width:1px;stroke-linecap:butt;stroke-linejoin:miter;stroke-opacity:1" d="M 118.176,167.109 133.004,167.109 z" id="boundary" inkscape:connector-curvature="0" />
	<path style="fill:none;stroke:red;stroke-width:1px;stroke-linecap:butt;stroke-linejoin:miter;stroke-opacity:1" d="M 131.522,302.045 146.35,294.631 z" id="boundary" inkscape:connector-curvature="0" />
	<path style="fill:none;stroke:red;stroke-width:1px;stroke-linecap:butt;stroke-linejoin:miter;stroke-opacity:1" d="M 133.004,167.109 146.35,174.523 z" id="boundary" inkscape:connector-curvature="0" />
	<path style="fill:none;stroke:red;stroke-width:1px;stroke-linecap:butt;stroke-linejoin:miter;stroke-opacity:1" d="M 146.35,174.523 161.178,174.523 z" id="boundary" inkscape:connector-curvature="0" />
	<path style="fill:none;stroke:red;stroke-width:1px;stroke-linecap:butt;stroke-linejoin:miter;stroke-opacity:1" d="M 146.35,294.631 161.178,297.596 z" id="boundary" inkscape:connector-curvature="0" />
	<path style="fill:none;stroke:red;stroke-width:1px;stroke-linecap:butt;stroke-linejoin:miter;stroke-opacity:1" d="M 161.178,174.523 174.523,167.109 z" id="boundary" inkscape:connector-curvature="0" />
	<path style="fill:none;stroke:red;stroke-width:1px;stroke-linecap:butt;stroke-linejoin:miter;stroke-opacity:1" d="M 161.178,297.596 176.006,302.045 z" id="boundary" inkscape:connector-curvature="0" />
	<path style="fill:none;stroke:red;stroke-width:1px;stroke-linecap:butt;stroke-linejoin:miter;stroke-opacity:1" d="M 174.523,167.109 187.868,159.695 z" id="boundary" inkscape:connector-curvature="0" />
	<path style="fill:none;stroke:red;stroke-width:1px;stroke-linecap:butt;stroke-linejoin:miter;stroke-opacity:1" d="M 176.006,302.045 189.351,309.459 z" id="boundary" inkscape:connector-curvature="0" />
	<path style="fill:none;stroke:red;stroke-width:1px;stroke-linecap:butt;stroke-linejoin:miter;stroke-opacity:1" d="M 187.868,159.695 198.248,147.833 z" id="boundary" inkscape:connector-curvature="0" />
	<path style="fill:none;stroke:red;stroke-width:1px;stroke-linecap:butt;stroke-linejoin:miter;stroke-opacity:1" d="M 189.351,309.459 204.179,309.459 z" id="boundary" inkscape:connector-curvature="0" />
	<path style="fill:none;stroke:red;stroke-width:1px;stroke-linecap:butt;stroke-linejoin:miter;stroke-opacity:1" d="M 198.248,147.833 210.111,137.453 z" id="boundary" inkscape:connector-curvature="0" />
	<path style="fill:none;stroke:red;stroke-width:1px;stroke-linecap:butt;stroke-linejoin:miter;stroke-opacity:1" d="M 204.179,309.459 217.525,316.873 z" id="boundary" inkscape:connector-curvature="0" />
	<path style="fill:none;stroke:red;stroke-width:1px;stroke-linecap:butt;stroke-linejoin:miter;stroke-opacity:1" d="M 210.111,137.453 220.49,125.59 z" id="boundary" inkscape:connector-curvature="0" />
	<path style="fill:none;stroke:red;stroke-width:1px;stroke-linecap:butt;stroke-linejoin:miter;stroke-opacity:1" d="M 217.525,316.873 227.904,328.735 z" id="boundary" inkscape:connector-curvature="0" />
	<path style="fill:none;stroke:red;stroke-width:1px;stroke-linecap:butt;stroke-linejoin:miter;stroke-opacity:1" d="M 220.49,125.59 232.353,115.211 z" id="boundary" inkscape:connector-curvature="0" />
	<path style="fill:none;stroke:red;stroke-width:1px;stroke-linecap:butt;stroke-linejoin:miter;stroke-opacity:1" d="M 227.904,328.735 239.767,339.115 z" id="boundary" inkscape:connector-curvature="0" />
	<path style="fill:none;stroke:red;stroke-width:1px;stroke-linecap:butt;stroke-linejoin:miter;stroke-opacity:1" d="M 232.353,115.211 242.732,103.348 z" id="boundary" inkscape:connector-curvature="0" />
	<path style="fill:none;stroke:red;stroke-width:1px;stroke-linecap:butt;stroke-linejoin:miter;stroke-opacity:1" d="M 239.767,339.115 253.112,346.529 z" id="boundary" inkscape:connector-curvature="0" />
	<path style="fill:none;stroke:red;stroke-width:1px;stroke-linecap:butt;stroke-linejoin:miter;stroke-opacity:1" d="M 242.732,103.348 257.561,95.9342 z" id="boundary" inkscape:connector-curvature="0" />
	<path style="fill:none;stroke:red;stroke-width:1px;stroke-linecap:butt;stroke-linejoin:miter;stroke-opacity:1" d="M 253.112,346.529 266.457,353.943 z" id="boundary" inkscape:connector-curvature="0" />
	<path style="fill:none;stroke:red;stroke-width:1px;stroke-linecap:butt;stroke-linejoin:miter;stroke-opacity:1" d="M 257.561,95.9342 272.389,88.5202 z" id="boundary" inkscape:connector-curvature="0" />
	<path style="fill:none;stroke:red;stroke-width:1px;stroke-linecap:butt;stroke-linejoin:miter;stroke-opacity:1" d="M 266.457,353.943 279.803,361.357 z" id="boundary" inkscape:connector-curvature="0" />
	<path style="fill:none;stroke:red;stroke-width:1px;stroke-linecap:butt;stroke-linejoin:miter;stroke-opacity:1" d="M 272.389,88.5202 287.217,85.5546 z" id="boundary" inkscape:connector-curvature="0" />
	<path style="fill:none;stroke:red;stroke-width:1px;stroke-linecap:butt;stroke-linejoin:miter;stroke-opacity:1" d="M 279.803,361.357 294.631,364.323 z" id="boundary" inkscape:connector-curvature="0" />
	<path style="fill:none;stroke:red;stroke-width:1px;stroke-linecap:butt;stroke-linejoin:miter;stroke-opacity:1" d="M 287.217,85.5546 300.562,78.1405 z" id="boundary" inkscape:connector-curvature="0" />
	<path style="fill:none;stroke:red;stroke-width:1px;stroke-linecap:butt;stroke-linejoin:miter;stroke-opacity:1" d="M 294.631,364.323 307.976,371.737 z" id="boundary" inkscape:connector-curvature="0" />
	<path style="fill:none;stroke:red;stroke-width:1px;stroke-linecap:butt;stroke-linejoin:miter;stroke-opacity:1" d="M 300.562,78.1405 313.907,70.7265 z" id="boundary" inkscape:connector-curvature="0" />
	<path style="fill:none;stroke:red;stroke-width:1px;stroke-linecap:butt;stroke-linejoin:miter;stroke-opacity:1" d="M 307.976,371.737 322.804,376.185 z" id="boundary" inkscape:connector-curvature="0" />
	<path style="fill:none;stroke:red;stroke-width:1px;stroke-linecap:butt;stroke-linejoin:miter;stroke-opacity:1" d="M 313.907,70.7265 327.253,63.3124 z" id="boundary" inkscape:connector-curvature="0" />
	<path style="fill:none;stroke:red;stroke-width:1px;stroke-linecap:butt;stroke-linejoin:miter;stroke-opacity:1" d="M 322.804,376.185 336.149,383.599 z" id="boundary" inkscape:connector-curvature="0" />
	<path style="fill:none;stroke:red;stroke-width:1px;stroke-linecap:butt;stroke-linejoin:miter;stroke-opacity:1" d="M 327.253,63.3124 342.081,55.8984 z" id="boundary" inkscape:connector-curvature="0" />
	<path style="fill:none;stroke:red;stroke-width:1px;stroke-linecap:butt;stroke-linejoin:miter;stroke-opacity:1" d="M 336.149,383.599 346.529,395.462 z" id="boundary" inkscape:connector-curvature="0" />
	<path style="fill:none;stroke:red;stroke-width:1px;stroke-linecap:butt;stroke-linejoin:miter;stroke-opacity:1" d="M 342.081,55.8984 356.909,48.4843 z" id="boundary" inkscape:connector-curvature="0" />
	<path style="fill:none;stroke:red;stroke-width:1px;stroke-linecap:butt;stroke-linejoin:miter;stroke-opacity:1" d="M 346.529,395.462 361.357,398.428 z" id="boundary" inkscape:connector-curvature="0" />
	<path style="fill:none;stroke:red;stroke-width:1px;stroke-linecap:butt;stroke-linejoin:miter;stroke-opacity:1" d="M 356.909,48.4843 371.737,41.0703 z" id="boundary" inkscape:connector-curvature="0" />
	<path style="fill:none;stroke:red;stroke-width:1px;stroke-linecap:butt;stroke-linejoin:miter;stroke-opacity:1" d="M 361.357,398.428 374.703,405.842 z" id="boundary" inkscape:connector-curvature="0" />
	<path style="fill:none;stroke:red;stroke-width:1px;stroke-linecap:butt;stroke-linejoin:miter;stroke-opacity:1" d="M 371.737,41.0703 386.565,41.0703 z" id="boundary" inkscape:connector-curvature="0" />
	<path style="fill:none;stroke:red;stroke-width:1px;stroke-linecap:butt;stroke-linejoin:miter;stroke-opacity:1" d="M 374.703,405.842 389.531,405.842 z" id="boundary" inkscape:connector-curvature="0" />
	<path style="fill:none;stroke:red;stroke-width:1px;stroke-linecap:butt;stroke-linejoin:miter;stroke-opacity:1" d="M 386.565,41.0703 399.91,33.6562 z" id="boundary" inkscape:connector-curvature="0" />
	<path style="fill:none;stroke:red;stroke-width:1px;stroke-linecap:butt;stroke-linejoin:miter;stroke-opacity:1" d="M 389.531,405.842 402.876,413.256 z" id="boundary" inkscape:connector-curvature="0" />
	<path style="fill:none;stroke:red;stroke-width:1px;stroke-linecap:butt;stroke-linejoin:miter;stroke-opacity:1" d="M 399.91,33.6562 413.256,26.2422 z" id="boundary" inkscape:connector-curvature="0" />
	<path style="fill:none;stroke:red;stroke-width:1px;stroke-linecap:butt;stroke-linejoin:miter;stroke-opacity:1" d="M 402.876,413.256 416.221,420.67 z" id="boundary" inkscape:connector-curvature="0" />
	<path style="fill:none;stroke:red;stroke-width:1px;stroke-linecap:butt;stroke-linejoin:miter;stroke-opacity:1" d="M 413.256,26.2422 428.084,21.7937 z" id="boundary" inkscape:connector-curvature="0" />
	<path style="fill:none;stroke:red;stroke-width:1px;stroke-linecap:butt;stroke-linejoin:miter;stroke-opacity:1" d="M 416.221,420.67 431.049,426.601 z" id="boundary" inkscape:connector-curvature="0" />
	<path style="fill:none;stroke:red;stroke-width:1px;stroke-linecap:butt;stroke-linejoin:miter;stroke-opacity:1" d="M 428.084,21.7937 442.912,14.3797 z" id="boundary" inkscape:connector-curvature="0" />
	<path style="fill:none;stroke:red;stroke-width:1px;stroke-linecap:butt;stroke-linejoin:miter;stroke-opacity:1" d="M 431.049,426.601 444.395,434.015 z" id="boundary" inkscape:connector-curvature="0" />
	<path style="fill:none;stroke:red;stroke-width:1px;stroke-linecap:butt;stroke-linejoin:miter;stroke-opacity:1" d="M 442.912,14.3797 457.74,11.4141 z" id="boundary" inkscape:connector-curvature="0" />
	<path style="fill:none;stroke:red;stroke-width:1px;stroke-linecap:butt;stroke-linejoin:miter;stroke-opacity:1" d="M 444.395,434.015 459.223,435.498 z" id="boundary" inkscape:connector-curvature="0" />
	<path style="fill:none;stroke:red;stroke-width:1px;stroke-linecap:butt;stroke-linejoin:miter;stroke-opacity:1" d="M 457.74,11.4141 472.568,11.4141 z" id="boundary" inkscape:connector-curvature="0" />
	<path style="fill:none;stroke:red;stroke-width:1px;stroke-linecap:butt;stroke-linejoin:miter;stroke-opacity:1" d="M 459.223,435.498 474.051,435.498 z" id="boundary" inkscape:connector-curvature="0" />
	<path style="fill:none;stroke:red;stroke-width:1px;stroke-linecap:butt;stroke-linejoin:miter;stroke-opacity:1" d="M 472.568,11.4141 487.396,6.96562 z" id="boundary" inkscape:connector-curvature="0" />
	<path style="fill:none;stroke:red;stroke-width:1px;stroke-linecap:butt;stroke-linejoin:miter;stroke-opacity:1" d="M 474.051,435.498 488.879,439.946 z" id="boundary" inkscape:connector-curvature="0" />
	<path style="fill:none;stroke:red;stroke-width:1px;stroke-linecap:butt;stroke-linejoin:miter;stroke-opacity:1" d="M 487.396,6.96562 502.224,4 z" id="boundary" inkscape:connector-curvature="0" />
	<path style="fill:none;stroke:red;stroke-width:1px;stroke-linecap:butt;stroke-linejoin:miter;stroke-opacity:1" d="M 488.879,439.946 503.707,442.912 z" id="boundary" inkscape:connector-curvature="0" />
	<path style="fill:none;stroke:red;stroke-width:1px;stroke-linecap:butt;stroke-linejoin:miter;stroke-opacity:1" d="M 502.224,4 517.052,4 z" id="boundary" inkscape:connector-curvature="0" />
	<path style="fill:none;stroke:red;stroke-width:1px;stroke-linecap:butt;stroke-linejoin:miter;stroke-opacity:1" d="M 503.707,442.912 517.052,450.326 z" id="boundary" inkscape:connector-curvature="0" />
	<path style="fill:none;stroke:red;stroke-width:1px;stroke-linecap:butt;stroke-linejoin:miter;stroke-opacity:1" d="M 517.052,4 531.88,4 z" id="boundary" inkscape:connector-curvature="0" />
	<path style="fill:none;stroke:red;stroke-width:1px;stroke-linecap:butt;stroke-linejoin:miter;stroke-opacity:1" d="M 517.052,450.326 531.88,450.326 z" id="boundary" inkscape:connector-curvature="0" />
	<path style="fill:none;stroke:red;stroke-width:1px;stroke-linecap:butt;stroke-linejoin:miter;stroke-opacity:1" d="M 531.88,4 546.709,4 z" id="boundary" inkscape:connector-curvature="0" />
	<path style="fill:none;stroke:red;stroke-width:1px;stroke-linecap:butt;stroke-linejoin:miter;stroke-opacity:1" d="M 531.88,450.326 546.709,450.326 z" id="boundary" inkscape:connector-curvature="0" />
	<path style="fill:none;stroke:red;stroke-width:1px;stroke-linecap:butt;stroke-linejoin:miter;stroke-opacity:1" d="M 546.709,4 561.537,4 z" id="boundary" inkscape:connector-curvature="0" />
	<path style="fill:none;stroke:red;stroke-width:1px;stroke-linecap:butt;stroke-linejoin:miter;stroke-opacity:1" d="M 546.709,450.326 560.054,442.912 z" id="boundary" inkscape:connector-curvature="0" />
	<path style="fill:none;stroke:red;stroke-width:1px;stroke-linecap:butt;stroke-linejoin:miter;stroke-opacity:1" d="M 560.054,442.912 573.399,435.498 z" id="boundary" inkscape:connector-curvature="0" />
	<path style="fill:none;stroke:red;stroke-width:1px;stroke-linecap:butt;stroke-linejoin:miter;stroke-opacity:1" d="M 561.537,4 576.365,4 z" id="boundary" inkscape:connector-curvature="0" />
	<path style="fill:none;stroke:red;stroke-width:1px;stroke-linecap:butt;stroke-linejoin:miter;stroke-opacity:1" d="M 573.399,435.498 588.227,432.532 z" id="boundary" inkscape:connector-curvature="0" />
	<path style="fill:none;stroke:red;stroke-width:1px;stroke-linecap:butt;stroke-linejoin:miter;stroke-opacity:1" d="M 576.365,4 591.193,4 z" id="boundary" inkscape:connector-curvature="0" />
	<path style="fill:none;stroke:red;stroke-width:1px;stroke-linecap:butt;stroke-linejoin:miter;stroke-opacity:1" d="M 588.227,432.532 603.055,428.084 z" id="boundary" inkscape:connector-curvature="0" />
	<path style="fill:none;stroke:red;stroke-width:1px;stroke-linecap:butt;stroke-linejoin:miter;stroke-opacity:1" d="M 591.193,4 606.021,4 z" id="boundary" inkscape:connector-curvature="0" />
	<path style="fill:none;stroke:red;stroke-width:1px;stroke-linecap:butt;stroke-linejoin:miter;stroke-opacity:1" d="M 603.055,428.084 617.883,428.084 z" id="boundary" inkscape:connector-curvature="0" />
	<path style="fill:none;stroke:red;stroke-width:1px;stroke-linecap:butt;stroke-linejoin:miter;stroke-opacity:1" d="M 606.021,4 620.849,4 z" id="boundary" inkscape:connector-curvature="0" />
	<path style="fill:none;stroke:red;stroke-width:1px;stroke-linecap:butt;stroke-linejoin:miter;stroke-opacity:1" d="M 617.883,428.084 632.712,425.118 z" id="boundary" inkscape:connector-curvature="0" />
	<path style="fill:none;stroke:red;stroke-width:1px;stroke-linecap:butt;stroke-linejoin:miter;stroke-opacity:1" d="M 620.849,4 635.677,8.44843 z" id="boundary" inkscape:connector-curvature="0" />
	<path style="fill:none;stroke:red;stroke-width:1px;stroke-linecap:butt;stroke-linejoin:miter;stroke-opacity:1" d="M 632.712,425.118 647.54,417.704 z" id="boundary" inkscape:connector-curvature="0" />
	<path style="fill:none;stroke:red;stroke-width:1px;stroke-linecap:butt;stroke-linejoin:miter;stroke-opacity:1" d="M 635.677,8.44843 650.505,11.4141 z" id="boundary" inkscape:connector-curvature="0" />
	<path style="fill:none;stroke:red;stroke-width:1px;stroke-linecap:butt;stroke-linejoin:miter;stroke-opacity:1" d="M 647.54,417.704 662.368,413.256 z" id="boundary" inkscape:connector-curvature="0" />
	<path style="fill:none;stroke:red;stroke-width:1px;stroke-linecap:butt;stroke-linejoin:miter;stroke-opacity:1" d="M 650.505,11.4141 663.851,18.8281 z" id="boundary" inkscape:connector-curvature="0" />
	<path style="fill:none;stroke:red;stroke-width:1px;stroke-linecap:butt;stroke-linejoin:miter;stroke-opacity:1" d="M 662.368,413.256 675.713,405.842 z" id="boundary" inkscape:connector-curvature="0" />
	<path style="fill:none;stroke:red;stroke-width:1px;stroke-linecap:butt;stroke-linejoin:miter;stroke-opacity:1" d="M 663.851,18.8281 678.679,21.7937 z" id="boundary" inkscape:connector-curvature="0" />
	<path style="fill:none;stroke:red;stroke-width:1px;stroke-linecap:butt;stroke-linejoin:miter;stroke-opacity:1" d="M 675.713,405.842 690.541,404.359 z" id="boundary" inkscape:connector-curvature="0" />
	<path style="fill:none;stroke:red;stroke-width:1px;stroke-linecap:butt;stroke-linejoin:miter;stroke-opacity:1" d="M 678.679,21.7937 693.507,26.2422 z" id="boundary" inkscape:connector-curvature="0" />
	<path style="fill:none;stroke:red;stroke-width:1px;stroke-linecap:butt;stroke-linejoin:miter;stroke-opacity:1" d="M 690.541,404.359 705.369,396.945 z" id="boundary" inkscape:connector-curvature="0" />
	<path style="fill:none;stroke:red;stroke-width:1px;stroke-linecap:butt;stroke-linejoin:miter;stroke-opacity:1" d="M 693.507,26.2422 706.852,33.6562 z" id="boundary" inkscape:connector-curvature="0" />
	<path style="fill:none;stroke:red;stroke-width:1px;stroke-linecap:butt;stroke-linejoin:miter;stroke-opacity:1" d="M 705.369,396.945 720.197,391.013 z" id="boundary" inkscape:connector-curvature="0" />
	<path style="fill:none;stroke:red;stroke-width:1px;stroke-linecap:butt;stroke-linejoin:miter;stroke-opacity:1" d="M 706.852,33.6562 721.68,33.6562 z" id="boundary" inkscape:connector-curvature="0" />
	<path style="fill:none;stroke:red;stroke-width:1px;stroke-linecap:butt;stroke-linejoin:miter;stroke-opacity:1" d="M 720.197,391.013 733.543,383.599 z" id="boundary" inkscape:connector-curvature="0" />
	<path style="fill:none;stroke:red;stroke-width:1px;stroke-linecap:butt;stroke-linejoin:miter;stroke-opacity:1" d="M 721.68,33.6562 736.508,35.139 z" id="boundary" inkscape:connector-curvature="0" />
	<path style="fill:none;stroke:red;stroke-width:1px;stroke-linecap:butt;stroke-linejoin:miter;stroke-opacity:1" d="M 733.543,383.599 748.371,383.599 z" id="boundary" inkscape:connector-curvature="0" />
	<path style="fill:none;stroke:red;stroke-width:1px;stroke-linecap:butt;stroke-linejoin:miter;stroke-opacity:1" d="M 736.508,35.139 749.854,42.5531 z" id="boundary" inkscape:connector-curvature="0" />
	<path style="fill:none;stroke:red;stroke-width:1px;stroke-linecap:butt;stroke-linejoin:miter;stroke-opacity:1" d="M 748.371,383.599 763.199,383.599 z" id="boundary" inkscape:connector-curvature="0" />
	<path style="fill:none;stroke:red;stroke-width:1px;stroke-linecap:butt;stroke-linejoin:miter;stroke-opacity:1" d="M 749.854,42.5531 761.716,52.9327 z" id="boundary" inkscape:connector-curvature="0" />
	<path style="fill:none;stroke:red;stroke-width:1px;stroke-linecap:butt;stroke-linejoin:miter;stroke-opacity:1" d="M 761.716,52.9327 775.061,60.3468 z" id="boundary" inkscape:connector-curvature="0" />
	<path style="fill:none;stroke:red;stroke-width:1px;stroke-linecap:butt;stroke-linejoin:miter;stroke-opacity:1" d="M 763.199,383.599 776.544,376.185 z" id="boundary" inkscape:connector-curvature="0" />
	<path style="fill:none;stroke:red;stroke-width:1px;stroke-linecap:butt;stroke-linejoin:miter;stroke-opacity:1" d="M 775.061,60.3468 789.889,63.3124 z" id="boundary" inkscape:connector-curvature="0" />
	<path style="fill:none;stroke:red;stroke-width:1px;stroke-linecap:butt;stroke-linejoin:miter;stroke-opacity:1" d="M 776.544,376.185 788.407,365.806 z" id="boundary" inkscape:connector-curvature="0" />
	<path style="fill:none;stroke:red;stroke-width:1px;stroke-linecap:butt;stroke-linejoin:miter;stroke-opacity:1" d="M 788.407,365.806 803.235,358.392 z" id="boundary" inkscape:connector-curvature="0" />
	<path style="fill:none;stroke:red;stroke-width:1px;stroke-linecap:butt;stroke-linejoin:miter;stroke-opacity:1" d="M 789.889,63.3124 803.235,70.7265 z" id="boundary" inkscape:connector-curvature="0" />
	<path style="fill:none;stroke:red;stroke-width:1px;stroke-linecap:butt;stroke-linejoin:miter;stroke-opacity:1" d="M 803.235,70.7265 816.58,78.1405 z" id="boundary" inkscape:connector-curvature="0" />
	<path style="fill:none;stroke:red;stroke-width:1px;stroke-linecap:butt;stroke-linejoin:miter;stroke-opacity:1" d="M 803.235,358.392 818.063,353.943 z" id="boundary" inkscape:connector-curvature="0" />
	<path style="fill:none;stroke:red;stroke-width:1px;stroke-linecap:butt;stroke-linejoin:miter;stroke-opacity:1" d="M 816.58,78.1405 829.925,85.5546 z" id="boundary" inkscape:connector-curvature="0" />
	<path style="fill:none;stroke:red;stroke-width:1px;stroke-linecap:butt;stroke-linejoin:miter;stroke-opacity:1" d="M 818.063,353.943 831.408,345.046 z" id="boundary" inkscape:connector-curvature="0" />
	<path style="fill:none;stroke:red;stroke-width:1px;stroke-linecap:butt;stroke-linejoin:miter;stroke-opacity:1" d="M 829.925,85.5546 843.271,92.9686 z" id="boundary" inkscape:connector-curvature="0" />
	<path style="fill:none;stroke:red;stroke-width:1px;stroke-linecap:butt;stroke-linejoin:miter;stroke-opacity:1" d="M 831.408,345.046 846.236,337.632 z" id="boundary" inkscape:connector-curvature="0" />
	<path style="fill:none;stroke:red;stroke-width:1px;stroke-linecap:butt;stroke-linejoin:miter;stroke-opacity:1" d="M 843.271,92.9686 858.099,97.417 z" id="boundary" inkscape:connector-curvature="0" />
	<path style="fill:none;stroke:red;stroke-width:1px;stroke-linecap:butt;stroke-linejoin:miter;stroke-opacity:1" d="M 846.236,337.632 861.064,330.218 z" id="boundary" inkscape:connector-curvature="0" />
	<path style="fill:none;stroke:red;stroke-width:1px;stroke-linecap:butt;stroke-linejoin:miter;stroke-opacity:1" d="M 858.099,97.417 869.961,107.797 z" id="boundary" inkscape:connector-curvature="0" />
	<path style="fill:none;stroke:red;stroke-width:1px;stroke-linecap:butt;stroke-linejoin:miter;stroke-opacity:1" d="M 861.064,330.218 875.892,322.804 z" id="boundary" inkscape:connector-curvature="0" />
	<path style="fill:none;stroke:red;stroke-width:1px;stroke-linecap:butt;stroke-linejoin:miter;stroke-opacity:1" d="M 869.961,107.797 883.306,115.211 z" id="boundary" inkscape:connector-curvature="0" />
	<path style="fill:none;stroke:red;stroke-width:1px;stroke-linecap:butt;stroke-linejoin:miter;stroke-opacity:1" d="M 875.892,322.804 887.755,309.459 z" id="boundary" inkscape:connector-curvature="0" />
	<path style="fill:none;stroke:red;stroke-width:1px;stroke-linecap:butt;stroke-linejoin:miter;stroke-opacity:1" d="M 883.306,115.211 893.686,127.073 z" id="boundary" inkscape:connector-curvature="0" />
	<path style="fill:none;stroke:red;stroke-width:1px;stroke-linecap:butt;stroke-linejoin:miter;stroke-opacity:1" d="M 887.755,309.459 902.583,302.045 z" id="boundary" inkscape:connector-curvature="0" />
	<path style="fill:none;stroke:red;stroke-width:1px;stroke-linecap:butt;stroke-linejoin:miter;stroke-opacity:1" d="M 893.686,127.073 908.514,133.004 z" id="boundary" inkscape:connector-curvature="0" />
	<path style="fill:none;stroke:red;stroke-width:1px;stroke-linecap:butt;stroke-linejoin:miter;stroke-opacity:1" d="M 902.583,302.045 917.411,287.217 z" id="boundary" inkscape:connector-curvature="0" />
	<path style="fill:none;stroke:red;stroke-width:1px;stroke-linecap:butt;stroke-linejoin:miter;stroke-opacity:1" d="M 908.514,133.004 917.411,144.867 z" id="boundary" inkscape:connector-curvature="0" />
	<path style="fill:none;stroke:red;stroke-width:1px;stroke-linecap:butt;stroke-linejoin:miter;stroke-opacity:1" d="M 917.411,144.867 932.239,144.867 z" id="boundary" inkscape:connector-curvature="0" />
	<path style="fill:none;stroke:red;stroke-width:1px;stroke-linecap:butt;stroke-linejoin:miter;stroke-opacity:1" d="M 917.411,287.217 929.274,276.837 z" id="boundary" inkscape:connector-curvature="0" />
	<path style="fill:none;stroke:red;stroke-width:1px;stroke-linecap:butt;stroke-linejoin:miter;stroke-opacity:1" d="M 929.274,276.837 939.653,264.975 z" id="boundary" inkscape:connector-curvature="0" />
	<path style="fill:none;stroke:red;stroke-width:1px;stroke-linecap:butt;stroke-linejoin:miter;stroke-opacity:1" d="M 932.239,144.867 945.584,152.281 z" id="boundary" inkscape:connector-curvature="0" />
	<path style="fill:none;stroke:red;stroke-width:1px;stroke-linecap:butt;stroke-linejoin:miter;stroke-opacity:1" d="M 939.653,264.975 951.516,254.595 z" id="boundary" inkscape:connector-curvature="0" />
	<path style="fill:none;stroke:red;stroke-width:1px;stroke-linecap:butt;stroke-linejoin:miter;stroke-opacity:1" d="M 945.584,152.281 958.93,159.695 z" id="boundary" inkscape:connector-curvature="0" />
	<path style="fill:none;stroke:red;stroke-width:1px;stroke-linecap:butt;stroke-linejoin:miter;stroke-opacity:1" d="M 951.516,254.595 961.895,242.732 z" id="boundary" inkscape:connector-curvature="0" />
	<path style="fill:none;stroke:red;stroke-width:1px;stroke-linecap:butt;stroke-linejoin:miter;stroke-opacity:1" d="M 958.93,159.695 972.275,167.109 z" id="boundary" inkscape:connector-curvature="0" />
	<path style="fill:none;stroke:red;stroke-width:1px;stroke-linecap:butt;stroke-linejoin:miter;stroke-opacity:1" d="M 961.895,242.732 975.241,235.318 z" id="boundary" inkscape:connector-curvature="0" />
	<path style="fill:none;stroke:red;stroke-width:1px;stroke-linecap:butt;stroke-linejoin:miter;stroke-opacity:1" d="M 972.275,167.109 976.723,181.937 z" id="boundary" inkscape:connector-curvature="0" />
	<path style="fill:none;stroke:red;stroke-width:1px;stroke-linecap:butt;stroke-linejoin:miter;stroke-opacity:1" d="M 975.241,235.318 987.103,226.422 z" id="boundary" inkscape:connector-curvature="0" />
	<path style="fill:none;stroke:red;stroke-width:1px;stroke-linecap:butt;stroke-linejoin:miter;stroke-opacity:1" d="M 976.723,181.937 984.138,195.283 z" id="boundary" inkscape:connector-curvature="0" />
	<path style="fill:none;stroke:red;stroke-width:1px;stroke-linecap:butt;stroke-linejoin:miter;stroke-opacity:1" d="M 984.138,195.283 996,205.662 z" id="boundary" inkscape:connector-curvature="0" />
	<path style="fill:none;stroke:red;stroke-width:1px;stroke-linecap:butt;stroke-linejoin:miter;stroke-opacity:1" d="M 987.103,226.422 996,205.662 z" id="boundary" inkscape:connector-curvature="0" />
	<circle cx="4" cy="201.214" r="4" fill="#0" id="circle0"/>
	<circle cx="4" cy="216.042" r="4" fill="#0" id="circle1"/>
	<circle cx="4" cy="230.87" r="4" fill="#0" id="circle2"/>
	<circle cx="4" cy="245.698" r="4" fill="#0" id="circle3"/>
	<circle cx="4" cy="260.526" r="4" fill="#0" id="circle4"/>
	<circle cx="4" cy="275.354" r="4" fill="#0" id="circle5"/>
	<circle cx="4" cy="290.182" r="4" fill="#0" id="circle6"/>
	<circle cx="4" cy="305.01" r="4" fill="#0" id="circle7"/>
	<circle cx="11.4141" cy="164.143" r="4" fill="#0" id="circle8"/>
	<circle cx="11.4141" cy="178.972" r="4" fill="#0" id="circle9"/>
	<circle cx="11.4141" cy="318.356" r="4" fill="#0" id="circle10"/>
	<circle cx="18.8281" cy="149.315" r="4" fill="#0" id="circle11"/>
	<circle cx="18.8281" cy="331.701" r="4" fill="#0" id="circle12"/>
	<circle cx="32.1734" cy="339.115" r="4" fill="#0" id="circle13"/>
	<circle cx="33.6562" cy="141.901" r="4" fill="#0" id="circle14"/>
	<circle cx="45.5187" cy="331.701" r="4" fill="#0" id="circle15"/>
	<circle cx="48.4843" cy="137.453" r="4" fill="#0" id="circle16"/>
	<circle cx="58.864" cy="324.287" r="4" fill="#0" id="circle17"/>
	<circle cx="61.8296" cy="144.867" r="4" fill="#0" id="circle18"/>
	<circle cx="72.2093" cy="316.873" r="4" fill="#0" id="circle19"/>
	<circle cx="76.6577" cy="146.35" r="4" fill="#0" id="circle20"/>
	<circle cx="87.0374" cy="316.873" r="4" fill="#0" id="circle21"/>
	<circle cx="90.003" cy="153.764" r="4" fill="#0" id="circle22"/>
	<circle cx="101.865" cy="316.873" r="4" fill="#0" id="circle23"/>
	<circle cx="104.831" cy="159.695" r="4" fill="#0" id="circle24"/>
	<circle cx="116.694" cy="309.459" r="4" fill="#0" id="circle25"/>
	<circle cx="118.176" cy="167.109" r="4" fill="#0" id="circle26"/>
	<circle cx="131.522" cy="302.045" r="4" fill="#0" id="circle27"/>
	<circle cx="133.004" cy="167.109" r="4" fill="#0" id="circle28"/>
	<circle cx="146.35" cy="174.523" r="4" fill="#0" id="circle29"/>
	<circle cx="146.35" cy="294.631" r="4" fill="#0" id="circle30"/>
	<circle cx="161.178" cy="174.523" r="4" fill="#0" id="circle31"/>
	<circle cx="161.178" cy="297.596" r="4" fill="#0" id="circle32"/>
	<circle cx="174.523" cy="167.109" r="4" fill="#0" id="circle33"/>
	<circle cx="176.006" cy="302.045" r="4" fill="#0" id="circle34"/>
	<circle cx="187.868" cy="159.695" r="4" fill="#0" id="circle35"/>
	<circle cx="189.351" cy="309.459" r="4" fill="#0" id="circle36"/>
	<circle cx="198.248" cy="147.833" r="4" fill="#0" id="circle37"/>
	<circle cx="204.179" cy="309.459" r="4" fill="#0" id="circle38"/>
	<circle cx="210.111" cy="137.453" r="4" fill="#0" id="circle39"/>
	<circle cx="217.525" cy="316.873" r="4" fill="#0" id="circle40"/>
	<circle cx="220.49" cy="125.59" r="4" fill="#0" id="circle41"/>
	<circle cx="227.904" cy="328.735" r="4" fill="#0" id="circle42"/>
	<circle cx="232.353" cy="115.211" r="4" fill="#0" id="circle43"/>
	<circle cx="239.767" cy="339.115" r="4" fill="#0" id="circle44"/>
	<circle cx="242.732" cy="103.348" r="4" fill="#0" id="circle45"/>
	<circle cx="253.112" cy="346.529" r="4" fill="#0" id="circle46"/>
	<circle cx="257.561" cy="95.9342" r="4" fill="#0" id="circle47"/>
	<circle cx="266.457" cy="353.943" r="4" fill="#0" id="circle48"/>
	<circle cx="272.389" cy="88.5202" r="4" fill="#0" id="circle49"/>
	<circle cx="279.803" cy="361.357" r="4" fill="#0" id="circle50"/>
	<circle cx="287.217" cy="85.5546" r="4" fill="#0" id="circle51"/>
	<circle cx="294.631" cy="364.323" r="4" fill="#0" id="circle52"/>
	<circle cx="300.562" cy="78.1405" r="4" fill="#0" id="circle53"/>
	<circle cx="307.976" cy="371.737" r="4" fill="#0" id="circle54"/>
	<circle cx="313.907" cy="70.7265" r="4" fill="#0" id="circle55"/>
	<circle cx="322.804" cy="376.185" r="4" fill="#0" id="circle56"/>
	<circle cx="327.253" cy="63.3124" r="4" fill="#0" id="circle57"/>
	<circle cx="336.149" cy="383.599" r="4" fill="#0" id="circle58"/>
	<circle cx="342.081" cy="55.8984" r="4" fill="#0" id="circle59"/>
	<circle cx="346.529" cy="395.462" r="4" fill="#0" id="circle60"/>
	<circle cx="356.909" cy="48.4843" r="4" fill="#0" id="circle61"/>
	<circle cx="361.357" cy="398.428" r="4" fill="#0" id="circle62"/>
	<circle cx="371.737" cy="41.0703" r="4" fill="#0" id="circle63"/>
	<circle cx="374.703" cy="405.842" r="4" fill="#0" id="circle64"/>
	<circle cx="386.565" cy="41.0703" r="4" fill="#0" id="circle65"/>
	<circle cx="389.531" cy="405.842" r="4" fill="#0" id="circle66"/>
	<circle cx="399.91" cy="33.6562" r="4" fill="#0" id="circle67"/>
	<circle cx="402.876" cy="413.256" r="4" fill="#0" id="circle68"/>
	<circle cx="413.256" cy="26.2422" r="4" fill="#0" id="circle69"/>
	<circle cx="416.221" cy="420.67" r="4" fill="#0" id="circle70"/>
	<circle cx="428.084" cy="21.7937" r="4" fill="#0" id="circle71"/>
	<circle cx="431.049" cy="426.601" r="4" fill="#0" id="circle72"/>
	<circle cx="442.912" cy="14.3797" r="4" fill="#0" id="circle73"/>
	<circle cx="444.395" cy="434.015" r="4" fill="#0" id="circle74"/>
	<circle cx="457.74" cy="11.4141" r="4" fill="#0" id="circle75"/>
	<circle cx="459.223" cy="435.498" r="4" fill="#0" id="circle76"/>
	<circle cx="472.568" cy="11.4141" r="4" fill="#0" id="circle77"/>
	<circle cx="474.051" cy="435.498" r="4" fill="#0" id="circle78"/>
	<circle cx="487.396" cy="6.96562" r="4" fill="#0" id="circle79"/>
	<circle cx="488.879" cy="439.946" r="4" fill="#0" id="circle80"/>
	<circle cx="502.224" cy="4" r="4" fill="#0" id="circle81"/>
	<circle cx="503.707" cy="442.912" r="4" fill="#0" id="circle82"/>
	<circle cx="517.052" cy="4" r="4" fill="#0" id="circle83"/>
	<circle cx="517.052" cy="450.326" r="4" fill="#0" id="circle84"/>
	<circle cx="531.88" cy="4" r="4" fill="#0" id="circle85"/>
	<circle cx="531.88" cy="450.326" r="4" fill="#0" id="circle86"/>
	<circle cx="546.709" cy="4" r="4" fill="#0" id="circle87"/>
	<circle cx="546.709" cy="450.326" r="4" fill="#0" id="circle88"/>
	<circle cx="560.054" cy="442.912" r="4" fill="#0" id="circle89"/>
	<circle cx="561.537" cy="4" r="4" fill="#0" id="circle90"/>
	<circle cx="573.399" cy="435.498" r="4" fill="#0" id="circle91"/>
	<circle cx="576.365" cy="4" r="4" fill="#0" id="circle92"/>
	<circle cx="588.227" cy="432.532" r="4" fill="#0" id="circle93"/>
	<circle cx="591.193" cy="4" r="4" fill="#0" id="circle94"/>
	<circle cx="603.055" cy="428.084" r="4" fill="#0" id="circle95"/>
	<circle cx="606.021" cy="4" r="4" fill="#0" id="circle96"/>
	<circle cx="617.883" cy="428.084" r="4" fill="#0" id="circle97"/>
	<circle cx="620.849" cy="4" r="4" fill="#0" id="circle98"/>
	<circle cx="632.712" cy="425.118" r="4" fill="#0" id="circle99"/>
	<circle cx="635.677" cy="8.44843" r="4" fill="#0" id="circle100"/>
	<circle cx="647.54" cy="417.704" r="4" fill="#0" id="circle101"/>
	<circle cx="650.505" cy="11.4141" r="4" fill="#0" id="circle102"/>
	<circle cx="662.368" cy="413.256" r="4" fill="#0" id="circle103"/>
	<circle cx="663.851" cy="18.8281" r="4" fill="#0" id="circle104"/>
	<circle cx="675.713" cy="405.842" r="4" fill="#0" id="circle105"/>
	<circle cx="678.679" cy="21.7937" r="4" fill="#0" id="circle106"/>
	<circle cx="690.541" cy="404.359" r="4" fill="#0" id="circle107"/>
	<circle cx="693.507" cy="26.2422" r="4" fill="#0" id="circle108"/>
	<circle cx="705.369" cy="396.945" r="4" fill="#0" id="circle109"/>
	<circle cx="706.852" cy="33.6562" r="4" fill="#0" id="circle110"/>
	<circle cx="720.197" cy="391.013" r="4" fill="#0" id="circle111"/>
	<circle cx="721.68" cy="33.6562" r="4" fill="#0" id="circle112"/>
	<circle cx="733.543" cy="383.599" r="4" fill="#0" id="circle113"/>
	<circle cx="736.508" cy="35.139" r="4" fill="#0" id="circle114"/>
	<circle cx="748.371" cy="383.599" r="4" fill="#0" id="circle115"/>
	<circle cx="749.854" cy="42.5531" r="4" fill="#0" id="circle116"/>
	<circle cx="761.716" cy="52.9327" r="4" fill="#0" id="circle117"/>
	<circle cx="763.199" cy="383.599" r="4" fill="#0" id="circle118"/>
	<circle cx="775.061" cy="60.3468" r="4" fill="#0" id="circle119"/>
	<circle cx="776.544" cy="376.185" r="4" fill="#0" id="circle120"/>
	<circle cx="788.407" cy="365.806" r="4" fill="#0" id="circle121"/>
	<circle cx="789.889" cy="63.3124" r="4" fill="#0" id="circle122"/>
	<circle cx="803.235" cy="70.7265" r="4" fill="#0" id="circle123"/>
	<circle cx="803.235" cy="358.392" r="4" fill="#0" id="circle124"/>
	<circle cx="816.58" cy="78.1405" r="4" fill="#0" id="circle125"/>
	<circle cx="818.063" cy="353.943" r="4" fill="#0" id="circle126"/>
	<circle cx="829.925" cy="85.5546" r="4" fill="#0" id="circle127"/>
	<circle cx="831.408" cy="345.046" r="4" fill="#0" id="circle128"/>
	<circle cx="843.271" cy="92.9686" r="4" fill="#0" id="circle129"/>
	<circle cx="846.236" cy="337.632" r="4" fill="#0" id="circle130"/>
	<circle cx="858.099" cy="97.417" r="4" fill="#0" id="circle131"/>
	<circle cx="861.064" cy="330.218" r="4" fill="#0" id="circle132"/>
	<circle cx="869.961" cy="107.797" r="4" fill="#0" id="circle133"/>
	<circle cx="875.892" cy="322.804" r="4" fill="#0" id="circle134"/>
	<circle cx="883.306" cy="115.211" r="4" fill="#0" id="circle135"/>
	<circle cx="887.755" cy="309.459" r="4" fill="#0" id="circle136"/>
	<circle cx="893.686" cy="127.073" r="4" fill="#0" id="circle137"/>
	<circle cx="902.583" cy="302.045" r="4" fill="#0" id="circle138"/>
	<circle cx="908.514" cy="133.004" r="4" fill="#0" id="circle139"/>
	<circle cx="917.411" cy="144.867" r="4" fill="#0" id="circle140"/>
	<circle cx="917.411" cy="287.217" r="4" fill="#0" id="circle141"/>
	<circle cx="929.274" cy="276.837" r="4" fill="#0" id="circle142"/>
	<circle cx="932.239" cy="144.867" r="4" fill="#0" id="circle143"/>
	<circle cx="939.653" cy="264.975" r="4" fill="#0" id="circle144"/>
	<circle cx="945.584" cy="152.281" r="4" fill="#0" id="circle145"/>
	<circle cx="951.516" cy="254.595" r="4" fill="#0" id="circle146"/>
	<circle cx="958.93" cy="159.695" r="4" fill="#0" id="circle147"/>
	<circle cx="961.895" cy="242.732" r="4" fill="#0" id="circle148"/>
	<circle cx="972.275" cy="167.109" r="4" fill="#0" id="circle149"/>
	<circle cx="975.241" cy="235.318" r="4" fill="#0" id="circle150"/>
	<circle cx="976.723" cy="181.937" r="4" fill="#0" id="circle151"/>
	<circle cx="984.138" cy="195.283" r="4" fill="#0" id="circle152"/>
	<circle cx="987.103" cy="226.422" r="4" fill="#0" id="circle153"/>
	<circle cx="996" cy="205.662" r="4" fill="#0" id="circle154"/>
	</g>
</svg>