<?xml version="1.0" encoding="UTF-8" standalone="no"?>
<!-- Created with CurveBenchmark -->
<svg
	xmlns:dc="http://purl.org/dc/elements/1.1/"
	xmlns:cc="http://creativecommons.org/ns#"
	xmlns:rdf="http://www.w3.org/1999/02/22-rdf-syntax-ns#"
	xmlns:svg="http://www.w3.org/2000/svg"
	xmlns="http://www.w3.org/2000/svg"
	xmlns:sodipodi="http://sodipodi.sourceforge.net/DTD/sodipodi-0.dtd"
	xmlns:inkscape="http://www.inkscape.org/namespaces/inkscape"
	width="1000"
	height="1000"
	id="svg2"
	version="1.1"
	sodipodi:docname="manifold/hnncrust-desertcottontailocc4.png.txt">
<defs
	id="defs4" />
<metadata
	id="metadata7">
	<rdf:RDF>
		<cc:Work
			rdf:about="">
			<dc:format>image/svg+xml</dc:format>
			<dc:type
				rdf:resource="http://purl.org/dc/dcmitype/StillImage" />
			<dc:title></dc:title>
		</cc:Work>
	</rdf:RDF>
</metadata>
<g
	inkscape:label="Layer 1"
	inkscape:groupmode="layer"
	id="layer1">
	<path style="fill:none;stroke:red;stroke-width:1px;stroke-linecap:butt;stroke-linejoin:miter;stroke-opacity:1" d="M 4,300.268 4,316.913 z" id="boundary" inkscape:connector-curvature="0" />
	<path style="fill:none;stroke:red;stroke-width:1px;stroke-linecap:butt;stroke-linejoin:miter;stroke-opacity:1" d="M 4,300.268 20.6443,295.275 z" id="boundary" inkscape:connector-curvature="0" />
	<path style="fill:none;stroke:red;stroke-width:1px;stroke-linecap:butt;stroke-linejoin:miter;stroke-opacity:1" d="M 4,316.913 4,333.557 z" id="boundary" inkscape:connector-curvature="0" />
	<path style="fill:none;stroke:red;stroke-width:1px;stroke-linecap:butt;stroke-linejoin:miter;stroke-opacity:1" d="M 4,333.557 4,350.201 z" id="boundary" inkscape:connector-curvature="0" />
	<path style="fill:none;stroke:red;stroke-width:1px;stroke-linecap:butt;stroke-linejoin:miter;stroke-opacity:1" d="M 4,350.201 4,366.846 z" id="boundary" inkscape:connector-curvature="0" />
	<path style="fill:none;stroke:red;stroke-width:1px;stroke-linecap:butt;stroke-linejoin:miter;stroke-opacity:1" d="M 4,366.846 4,383.49 z" id="boundary" inkscape:connector-curvature="0" />
	<path style="fill:none;stroke:red;stroke-width:1px;stroke-linecap:butt;stroke-linejoin:miter;stroke-opacity:1" d="M 4,383.49 20.6443,388.483 z" id="boundary" inkscape:connector-curvature="0" />
	<path style="fill:none;stroke:red;stroke-width:1px;stroke-linecap:butt;stroke-linejoin:miter;stroke-opacity:1" d="M 20.6443,295.275 37.2886,295.275 z" id="boundary" inkscape:connector-curvature="0" />
	<path style="fill:none;stroke:red;stroke-width:1px;stroke-linecap:butt;stroke-linejoin:miter;stroke-opacity:1" d="M 20.6443,388.483 37.2886,388.483 z" id="boundary" inkscape:connector-curvature="0" />
	<path style="fill:none;stroke:red;stroke-width:1px;stroke-linecap:butt;stroke-linejoin:miter;stroke-opacity:1" d="M 37.2886,295.275 53.9329,295.275 z" id="boundary" inkscape:connector-curvature="0" />
	<path style="fill:none;stroke:red;stroke-width:1px;stroke-linecap:butt;stroke-linejoin:miter;stroke-opacity:1" d="M 37.2886,388.483 53.9329,388.483 z" id="boundary" inkscape:connector-curvature="0" />
	<path style="fill:none;stroke:red;stroke-width:1px;stroke-linecap:butt;stroke-linejoin:miter;stroke-opacity:1" d="M 53.9329,295.275 70.5772,295.275 z" id="boundary" inkscape:connector-curvature="0" />
	<path style="fill:none;stroke:red;stroke-width:1px;stroke-linecap:butt;stroke-linejoin:miter;stroke-opacity:1" d="M 53.9329,388.483 70.5772,388.483 z" id="boundary" inkscape:connector-curvature="0" />
	<path style="fill:none;stroke:red;stroke-width:1px;stroke-linecap:butt;stroke-linejoin:miter;stroke-opacity:1" d="M 70.5772,295.275 87.2215,298.604 z" id="boundary" inkscape:connector-curvature="0" />
	<path style="fill:none;stroke:red;stroke-width:1px;stroke-linecap:butt;stroke-linejoin:miter;stroke-opacity:1" d="M 70.5772,388.483 85.557,396.805 z" id="boundary" inkscape:connector-curvature="0" />
	<path style="fill:none;stroke:red;stroke-width:1px;stroke-linecap:butt;stroke-linejoin:miter;stroke-opacity:1" d="M 85.557,396.805 102.201,396.805 z" id="boundary" inkscape:connector-curvature="0" />
	<path style="fill:none;stroke:red;stroke-width:1px;stroke-linecap:butt;stroke-linejoin:miter;stroke-opacity:1" d="M 87.2215,298.604 103.866,303.597 z" id="boundary" inkscape:connector-curvature="0" />
	<path style="fill:none;stroke:red;stroke-width:1px;stroke-linecap:butt;stroke-linejoin:miter;stroke-opacity:1" d="M 102.201,396.805 118.846,393.477 z" id="boundary" inkscape:connector-curvature="0" />
	<path style="fill:none;stroke:red;stroke-width:1px;stroke-linecap:butt;stroke-linejoin:miter;stroke-opacity:1" d="M 103.866,303.597 120.51,303.597 z" id="boundary" inkscape:connector-curvature="0" />
	<path style="fill:none;stroke:red;stroke-width:1px;stroke-linecap:butt;stroke-linejoin:miter;stroke-opacity:1" d="M 118.846,393.477 135.49,396.805 z" id="boundary" inkscape:connector-curvature="0" />
	<path style="fill:none;stroke:red;stroke-width:1px;stroke-linecap:butt;stroke-linejoin:miter;stroke-opacity:1" d="M 120.51,303.597 137.154,303.597 z" id="boundary" inkscape:connector-curvature="0" />
	<path style="fill:none;stroke:red;stroke-width:1px;stroke-linecap:butt;stroke-linejoin:miter;stroke-opacity:1" d="M 135.49,396.805 150.47,405.128 z" id="boundary" inkscape:connector-curvature="0" />
	<path style="fill:none;stroke:red;stroke-width:1px;stroke-linecap:butt;stroke-linejoin:miter;stroke-opacity:1" d="M 137.154,303.597 145.477,275.302 z" id="boundary" inkscape:connector-curvature="0" />
	<path style="fill:none;stroke:red;stroke-width:1px;stroke-linecap:butt;stroke-linejoin:miter;stroke-opacity:1" d="M 145.477,275.302 158.792,261.987 z" id="boundary" inkscape:connector-curvature="0" />
	<path style="fill:none;stroke:red;stroke-width:1px;stroke-linecap:butt;stroke-linejoin:miter;stroke-opacity:1" d="M 150.47,405.128 163.785,416.779 z" id="boundary" inkscape:connector-curvature="0" />
	<path style="fill:none;stroke:red;stroke-width:1px;stroke-linecap:butt;stroke-linejoin:miter;stroke-opacity:1" d="M 158.792,261.987 175.436,253.664 z" id="boundary" inkscape:connector-curvature="0" />
	<path style="fill:none;stroke:red;stroke-width:1px;stroke-linecap:butt;stroke-linejoin:miter;stroke-opacity:1" d="M 163.785,416.779 178.765,425.101 z" id="boundary" inkscape:connector-curvature="0" />
	<path style="fill:none;stroke:red;stroke-width:1px;stroke-linecap:butt;stroke-linejoin:miter;stroke-opacity:1" d="M 175.436,253.664 178.765,233.691 z" id="boundary" inkscape:connector-curvature="0" />
	<path style="fill:none;stroke:red;stroke-width:1px;stroke-linecap:butt;stroke-linejoin:miter;stroke-opacity:1" d="M 178.765,233.691 195.409,225.369 z" id="boundary" inkscape:connector-curvature="0" />
	<path style="fill:none;stroke:red;stroke-width:1px;stroke-linecap:butt;stroke-linejoin:miter;stroke-opacity:1" d="M 178.765,425.101 192.081,436.752 z" id="boundary" inkscape:connector-curvature="0" />
	<path style="fill:none;stroke:red;stroke-width:1px;stroke-linecap:butt;stroke-linejoin:miter;stroke-opacity:1" d="M 192.081,436.752 203.732,450.067 z" id="boundary" inkscape:connector-curvature="0" />
	<path style="fill:none;stroke:red;stroke-width:1px;stroke-linecap:butt;stroke-linejoin:miter;stroke-opacity:1" d="M 195.409,225.369 208.725,212.054 z" id="boundary" inkscape:connector-curvature="0" />
	<path style="fill:none;stroke:red;stroke-width:1px;stroke-linecap:butt;stroke-linejoin:miter;stroke-opacity:1" d="M 203.732,450.067 220.376,450.067 z" id="boundary" inkscape:connector-curvature="0" />
	<path style="fill:none;stroke:red;stroke-width:1px;stroke-linecap:butt;stroke-linejoin:miter;stroke-opacity:1" d="M 208.725,212.054 222.04,198.738 z" id="boundary" inkscape:connector-curvature="0" />
	<path style="fill:none;stroke:red;stroke-width:1px;stroke-linecap:butt;stroke-linejoin:miter;stroke-opacity:1" d="M 212.054,67.2483 212.054,83.8926 z" id="boundary" inkscape:connector-curvature="0" />
	<path style="fill:none;stroke:red;stroke-width:1px;stroke-linecap:butt;stroke-linejoin:miter;stroke-opacity:1" d="M 212.054,67.2483 220.376,42.2819 z" id="boundary" inkscape:connector-curvature="0" />
	<path style="fill:none;stroke:red;stroke-width:1px;stroke-linecap:butt;stroke-linejoin:miter;stroke-opacity:1" d="M 212.054,83.8926 212.054,100.537 z" id="boundary" inkscape:connector-curvature="0" />
	<path style="fill:none;stroke:red;stroke-width:1px;stroke-linecap:butt;stroke-linejoin:miter;stroke-opacity:1" d="M 212.054,100.537 212.054,117.181 z" id="boundary" inkscape:connector-curvature="0" />
	<path style="fill:none;stroke:red;stroke-width:1px;stroke-linecap:butt;stroke-linejoin:miter;stroke-opacity:1" d="M 212.054,117.181 220.376,132.161 z" id="boundary" inkscape:connector-curvature="0" />
	<path style="fill:none;stroke:red;stroke-width:1px;stroke-linecap:butt;stroke-linejoin:miter;stroke-opacity:1" d="M 220.376,42.2819 233.691,28.9664 z" id="boundary" inkscape:connector-curvature="0" />
	<path style="fill:none;stroke:red;stroke-width:1px;stroke-linecap:butt;stroke-linejoin:miter;stroke-opacity:1" d="M 220.376,132.161 228.698,147.141 z" id="boundary" inkscape:connector-curvature="0" />
	<path style="fill:none;stroke:red;stroke-width:1px;stroke-linecap:butt;stroke-linejoin:miter;stroke-opacity:1" d="M 220.376,450.067 237.02,441.745 z" id="boundary" inkscape:connector-curvature="0" />
	<path style="fill:none;stroke:red;stroke-width:1px;stroke-linecap:butt;stroke-linejoin:miter;stroke-opacity:1" d="M 222.04,198.738 228.698,180.43 z" id="boundary" inkscape:connector-curvature="0" />
	<path style="fill:none;stroke:red;stroke-width:1px;stroke-linecap:butt;stroke-linejoin:miter;stroke-opacity:1" d="M 228.698,147.141 228.698,163.785 z" id="boundary" inkscape:connector-curvature="0" />
	<path style="fill:none;stroke:red;stroke-width:1px;stroke-linecap:butt;stroke-linejoin:miter;stroke-opacity:1" d="M 228.698,163.785 228.698,180.43 z" id="boundary" inkscape:connector-curvature="0" />
	<path style="fill:none;stroke:red;stroke-width:1px;stroke-linecap:butt;stroke-linejoin:miter;stroke-opacity:1" d="M 233.691,28.9664 247.007,15.651 z" id="boundary" inkscape:connector-curvature="0" />
	<path style="fill:none;stroke:red;stroke-width:1px;stroke-linecap:butt;stroke-linejoin:miter;stroke-opacity:1" d="M 237.02,441.745 253.664,438.416 z" id="boundary" inkscape:connector-curvature="0" />
	<path style="fill:none;stroke:red;stroke-width:1px;stroke-linecap:butt;stroke-linejoin:miter;stroke-opacity:1" d="M 247.007,15.651 260.322,4 z" id="boundary" inkscape:connector-curvature="0" />
	<path style="fill:none;stroke:red;stroke-width:1px;stroke-linecap:butt;stroke-linejoin:miter;stroke-opacity:1" d="M 253.664,438.416 268.644,446.738 z" id="boundary" inkscape:connector-curvature="0" />
	<path style="fill:none;stroke:red;stroke-width:1px;stroke-linecap:butt;stroke-linejoin:miter;stroke-opacity:1" d="M 260.322,4 276.966,5.66443 z" id="boundary" inkscape:connector-curvature="0" />
	<path style="fill:none;stroke:red;stroke-width:1px;stroke-linecap:butt;stroke-linejoin:miter;stroke-opacity:1" d="M 268.644,446.738 283.624,455.06 z" id="boundary" inkscape:connector-curvature="0" />
	<path style="fill:none;stroke:red;stroke-width:1px;stroke-linecap:butt;stroke-linejoin:miter;stroke-opacity:1" d="M 276.966,5.66443 293.611,12.3221 z" id="boundary" inkscape:connector-curvature="0" />
	<path style="fill:none;stroke:red;stroke-width:1px;stroke-linecap:butt;stroke-linejoin:miter;stroke-opacity:1" d="M 283.624,455.06 300.268,455.06 z" id="boundary" inkscape:connector-curvature="0" />
	<path style="fill:none;stroke:red;stroke-width:1px;stroke-linecap:butt;stroke-linejoin:miter;stroke-opacity:1" d="M 293.611,12.3221 308.591,4 z" id="boundary" inkscape:connector-curvature="0" />
	<path style="fill:none;stroke:red;stroke-width:1px;stroke-linecap:butt;stroke-linejoin:miter;stroke-opacity:1" d="M 300.268,455.06 313.584,466.711 z" id="boundary" inkscape:connector-curvature="0" />
	<path style="fill:none;stroke:red;stroke-width:1px;stroke-linecap:butt;stroke-linejoin:miter;stroke-opacity:1" d="M 308.591,4 325.235,4 z" id="boundary" inkscape:connector-curvature="0" />
	<path style="fill:none;stroke:red;stroke-width:1px;stroke-linecap:butt;stroke-linejoin:miter;stroke-opacity:1" d="M 311.919,558.255 311.919,574.899 z" id="boundary" inkscape:connector-curvature="0" />
	<path style="fill:none;stroke:red;stroke-width:1px;stroke-linecap:butt;stroke-linejoin:miter;stroke-opacity:1" d="M 311.919,558.255 325.235,544.94 z" id="boundary" inkscape:connector-curvature="0" />
	<path style="fill:none;stroke:red;stroke-width:1px;stroke-linecap:butt;stroke-linejoin:miter;stroke-opacity:1" d="M 311.919,574.899 328.564,579.893 z" id="boundary" inkscape:connector-curvature="0" />
	<path style="fill:none;stroke:red;stroke-width:1px;stroke-linecap:butt;stroke-linejoin:miter;stroke-opacity:1" d="M 313.584,466.711 328.564,475.034 z" id="boundary" inkscape:connector-curvature="0" />
	<path style="fill:none;stroke:red;stroke-width:1px;stroke-linecap:butt;stroke-linejoin:miter;stroke-opacity:1" d="M 325.235,4 340.215,12.3221 z" id="boundary" inkscape:connector-curvature="0" />
	<path style="fill:none;stroke:red;stroke-width:1px;stroke-linecap:butt;stroke-linejoin:miter;stroke-opacity:1" d="M 325.235,544.94 341.879,536.617 z" id="boundary" inkscape:connector-curvature="0" />
	<path style="fill:none;stroke:red;stroke-width:1px;stroke-linecap:butt;stroke-linejoin:miter;stroke-opacity:1" d="M 328.564,475.034 345.208,480.027 z" id="boundary" inkscape:connector-curvature="0" />
	<path style="fill:none;stroke:red;stroke-width:1px;stroke-linecap:butt;stroke-linejoin:miter;stroke-opacity:1" d="M 328.564,579.893 343.544,588.215 z" id="boundary" inkscape:connector-curvature="0" />
	<path style="fill:none;stroke:red;stroke-width:1px;stroke-linecap:butt;stroke-linejoin:miter;stroke-opacity:1" d="M 340.215,12.3221 353.53,23.9732 z" id="boundary" inkscape:connector-curvature="0" />
	<path style="fill:none;stroke:red;stroke-width:1px;stroke-linecap:butt;stroke-linejoin:miter;stroke-opacity:1" d="M 341.879,536.617 358.523,536.617 z" id="boundary" inkscape:connector-curvature="0" />
	<path style="fill:none;stroke:red;stroke-width:1px;stroke-linecap:butt;stroke-linejoin:miter;stroke-opacity:1" d="M 343.544,588.215 358.523,579.893 z" id="boundary" inkscape:connector-curvature="0" />
	<path style="fill:none;stroke:red;stroke-width:1px;stroke-linecap:butt;stroke-linejoin:miter;stroke-opacity:1" d="M 345.208,480.027 360.188,488.349 z" id="boundary" inkscape:connector-curvature="0" />
	<path style="fill:none;stroke:red;stroke-width:1px;stroke-linecap:butt;stroke-linejoin:miter;stroke-opacity:1" d="M 353.53,23.9732 355.195,40.6174 z" id="boundary" inkscape:connector-curvature="0" />
	<path style="fill:none;stroke:red;stroke-width:1px;stroke-linecap:butt;stroke-linejoin:miter;stroke-opacity:1" d="M 355.195,40.6174 355.195,57.2617 z" id="boundary" inkscape:connector-curvature="0" />
	<path style="fill:none;stroke:red;stroke-width:1px;stroke-linecap:butt;stroke-linejoin:miter;stroke-opacity:1" d="M 355.195,57.2617 355.195,73.906 z" id="boundary" inkscape:connector-curvature="0" />
	<path style="fill:none;stroke:red;stroke-width:1px;stroke-linecap:butt;stroke-linejoin:miter;stroke-opacity:1" d="M 355.195,73.906 355.195,90.5503 z" id="boundary" inkscape:connector-curvature="0" />
	<path style="fill:none;stroke:red;stroke-width:1px;stroke-linecap:butt;stroke-linejoin:miter;stroke-opacity:1" d="M 355.195,90.5503 363.517,105.53 z" id="boundary" inkscape:connector-curvature="0" />
	<path style="fill:none;stroke:red;stroke-width:1px;stroke-linecap:butt;stroke-linejoin:miter;stroke-opacity:1" d="M 355.195,122.174 355.195,138.819 z" id="boundary" inkscape:connector-curvature="0" />
	<path style="fill:none;stroke:red;stroke-width:1px;stroke-linecap:butt;stroke-linejoin:miter;stroke-opacity:1" d="M 355.195,122.174 363.517,105.53 z" id="boundary" inkscape:connector-curvature="0" />
	<path style="fill:none;stroke:red;stroke-width:1px;stroke-linecap:butt;stroke-linejoin:miter;stroke-opacity:1" d="M 355.195,138.819 355.195,155.463 z" id="boundary" inkscape:connector-curvature="0" />
	<path style="fill:none;stroke:red;stroke-width:1px;stroke-linecap:butt;stroke-linejoin:miter;stroke-opacity:1" d="M 355.195,155.463 371.839,162.121 z" id="boundary" inkscape:connector-curvature="0" />
	<path style="fill:none;stroke:red;stroke-width:1px;stroke-linecap:butt;stroke-linejoin:miter;stroke-opacity:1" d="M 358.523,536.617 370.174,521.638 z" id="boundary" inkscape:connector-curvature="0" />
	<path style="fill:none;stroke:red;stroke-width:1px;stroke-linecap:butt;stroke-linejoin:miter;stroke-opacity:1" d="M 358.523,579.893 375.168,578.228 z" id="boundary" inkscape:connector-curvature="0" />
	<path style="fill:none;stroke:red;stroke-width:1px;stroke-linecap:butt;stroke-linejoin:miter;stroke-opacity:1" d="M 360.188,488.349 366.846,504.993 z" id="boundary" inkscape:connector-curvature="0" />
	<path style="fill:none;stroke:red;stroke-width:1px;stroke-linecap:butt;stroke-linejoin:miter;stroke-opacity:1" d="M 366.846,504.993 370.174,521.638 z" id="boundary" inkscape:connector-curvature="0" />
	<path style="fill:none;stroke:red;stroke-width:1px;stroke-linecap:butt;stroke-linejoin:miter;stroke-opacity:1" d="M 371.839,162.121 388.483,162.121 z" id="boundary" inkscape:connector-curvature="0" />
	<path style="fill:none;stroke:red;stroke-width:1px;stroke-linecap:butt;stroke-linejoin:miter;stroke-opacity:1" d="M 375.168,578.228 391.812,569.906 z" id="boundary" inkscape:connector-curvature="0" />
	<path style="fill:none;stroke:red;stroke-width:1px;stroke-linecap:butt;stroke-linejoin:miter;stroke-opacity:1" d="M 388.483,162.121 405.128,157.128 z" id="boundary" inkscape:connector-curvature="0" />
	<path style="fill:none;stroke:red;stroke-width:1px;stroke-linecap:butt;stroke-linejoin:miter;stroke-opacity:1" d="M 391.812,569.906 405.128,554.926 z" id="boundary" inkscape:connector-curvature="0" />
	<path style="fill:none;stroke:red;stroke-width:1px;stroke-linecap:butt;stroke-linejoin:miter;stroke-opacity:1" d="M 405.128,157.128 421.772,148.805 z" id="boundary" inkscape:connector-curvature="0" />
	<path style="fill:none;stroke:red;stroke-width:1px;stroke-linecap:butt;stroke-linejoin:miter;stroke-opacity:1" d="M 405.128,554.926 421.772,546.604 z" id="boundary" inkscape:connector-curvature="0" />
	<path style="fill:none;stroke:red;stroke-width:1px;stroke-linecap:butt;stroke-linejoin:miter;stroke-opacity:1" d="M 421.772,148.805 438.416,140.483 z" id="boundary" inkscape:connector-curvature="0" />
	<path style="fill:none;stroke:red;stroke-width:1px;stroke-linecap:butt;stroke-linejoin:miter;stroke-opacity:1" d="M 421.772,546.604 438.416,546.604 z" id="boundary" inkscape:connector-curvature="0" />
	<path style="fill:none;stroke:red;stroke-width:1px;stroke-linecap:butt;stroke-linejoin:miter;stroke-opacity:1" d="M 438.416,140.483 451.732,128.832 z" id="boundary" inkscape:connector-curvature="0" />
	<path style="fill:none;stroke:red;stroke-width:1px;stroke-linecap:butt;stroke-linejoin:miter;stroke-opacity:1" d="M 438.416,546.604 453.396,538.282 z" id="boundary" inkscape:connector-curvature="0" />
	<path style="fill:none;stroke:red;stroke-width:1px;stroke-linecap:butt;stroke-linejoin:miter;stroke-opacity:1" d="M 451.732,128.832 468.376,128.832 z" id="boundary" inkscape:connector-curvature="0" />
	<path style="fill:none;stroke:red;stroke-width:1px;stroke-linecap:butt;stroke-linejoin:miter;stroke-opacity:1" d="M 453.396,538.282 470.04,538.282 z" id="boundary" inkscape:connector-curvature="0" />
	<path style="fill:none;stroke:red;stroke-width:1px;stroke-linecap:butt;stroke-linejoin:miter;stroke-opacity:1" d="M 468.376,128.832 483.356,120.51 z" id="boundary" inkscape:connector-curvature="0" />
	<path style="fill:none;stroke:red;stroke-width:1px;stroke-linecap:butt;stroke-linejoin:miter;stroke-opacity:1" d="M 470.04,538.282 486.685,538.282 z" id="boundary" inkscape:connector-curvature="0" />
	<path style="fill:none;stroke:red;stroke-width:1px;stroke-linecap:butt;stroke-linejoin:miter;stroke-opacity:1" d="M 483.356,120.51 500,120.51 z" id="boundary" inkscape:connector-curvature="0" />
	<path style="fill:none;stroke:red;stroke-width:1px;stroke-linecap:butt;stroke-linejoin:miter;stroke-opacity:1" d="M 486.685,538.282 501.664,529.96 z" id="boundary" inkscape:connector-curvature="0" />
	<path style="fill:none;stroke:red;stroke-width:1px;stroke-linecap:butt;stroke-linejoin:miter;stroke-opacity:1" d="M 500,120.51 514.98,112.188 z" id="boundary" inkscape:connector-curvature="0" />
	<path style="fill:none;stroke:red;stroke-width:1px;stroke-linecap:butt;stroke-linejoin:miter;stroke-opacity:1" d="M 501.664,529.96 518.309,529.96 z" id="boundary" inkscape:connector-curvature="0" />
	<path style="fill:none;stroke:red;stroke-width:1px;stroke-linecap:butt;stroke-linejoin:miter;stroke-opacity:1" d="M 514.98,112.188 531.624,112.188 z" id="boundary" inkscape:connector-curvature="0" />
	<path style="fill:none;stroke:red;stroke-width:1px;stroke-linecap:butt;stroke-linejoin:miter;stroke-opacity:1" d="M 518.309,529.96 519.973,546.604 z" id="boundary" inkscape:connector-curvature="0" />
	<path style="fill:none;stroke:red;stroke-width:1px;stroke-linecap:butt;stroke-linejoin:miter;stroke-opacity:1" d="M 519.973,546.604 524.966,563.248 z" id="boundary" inkscape:connector-curvature="0" />
	<path style="fill:none;stroke:red;stroke-width:1px;stroke-linecap:butt;stroke-linejoin:miter;stroke-opacity:1" d="M 524.966,563.248 541.611,569.906 z" id="boundary" inkscape:connector-curvature="0" />
	<path style="fill:none;stroke:red;stroke-width:1px;stroke-linecap:butt;stroke-linejoin:miter;stroke-opacity:1" d="M 531.624,112.188 548.268,112.188 z" id="boundary" inkscape:connector-curvature="0" />
	<path style="fill:none;stroke:red;stroke-width:1px;stroke-linecap:butt;stroke-linejoin:miter;stroke-opacity:1" d="M 541.611,569.906 558.255,571.57 z" id="boundary" inkscape:connector-curvature="0" />
	<path style="fill:none;stroke:red;stroke-width:1px;stroke-linecap:butt;stroke-linejoin:miter;stroke-opacity:1" d="M 548.268,112.188 564.913,112.188 z" id="boundary" inkscape:connector-curvature="0" />
	<path style="fill:none;stroke:red;stroke-width:1px;stroke-linecap:butt;stroke-linejoin:miter;stroke-opacity:1" d="M 558.255,571.57 574.899,571.57 z" id="boundary" inkscape:connector-curvature="0" />
	<path style="fill:none;stroke:red;stroke-width:1px;stroke-linecap:butt;stroke-linejoin:miter;stroke-opacity:1" d="M 564.913,112.188 581.557,112.188 z" id="boundary" inkscape:connector-curvature="0" />
	<path style="fill:none;stroke:red;stroke-width:1px;stroke-linecap:butt;stroke-linejoin:miter;stroke-opacity:1" d="M 574.899,571.57 591.544,571.57 z" id="boundary" inkscape:connector-curvature="0" />
	<path style="fill:none;stroke:red;stroke-width:1px;stroke-linecap:butt;stroke-linejoin:miter;stroke-opacity:1" d="M 581.557,112.188 598.201,112.188 z" id="boundary" inkscape:connector-curvature="0" />
	<path style="fill:none;stroke:red;stroke-width:1px;stroke-linecap:butt;stroke-linejoin:miter;stroke-opacity:1" d="M 591.544,571.57 608.188,571.57 z" id="boundary" inkscape:connector-curvature="0" />
	<path style="fill:none;stroke:red;stroke-width:1px;stroke-linecap:butt;stroke-linejoin:miter;stroke-opacity:1" d="M 598.201,112.188 613.181,120.51 z" id="boundary" inkscape:connector-curvature="0" />
	<path style="fill:none;stroke:red;stroke-width:1px;stroke-linecap:butt;stroke-linejoin:miter;stroke-opacity:1" d="M 608.188,571.57 624.832,571.57 z" id="boundary" inkscape:connector-curvature="0" />
	<path style="fill:none;stroke:red;stroke-width:1px;stroke-linecap:butt;stroke-linejoin:miter;stroke-opacity:1" d="M 613.181,120.51 629.826,120.51 z" id="boundary" inkscape:connector-curvature="0" />
	<path style="fill:none;stroke:red;stroke-width:1px;stroke-linecap:butt;stroke-linejoin:miter;stroke-opacity:1" d="M 624.832,571.57 641.477,571.57 z" id="boundary" inkscape:connector-curvature="0" />
	<path style="fill:none;stroke:red;stroke-width:1px;stroke-linecap:butt;stroke-linejoin:miter;stroke-opacity:1" d="M 629.826,120.51 646.47,120.51 z" id="boundary" inkscape:connector-curvature="0" />
	<path style="fill:none;stroke:red;stroke-width:1px;stroke-linecap:butt;stroke-linejoin:miter;stroke-opacity:1" d="M 641.477,571.57 656.456,563.248 z" id="boundary" inkscape:connector-curvature="0" />
	<path style="fill:none;stroke:red;stroke-width:1px;stroke-linecap:butt;stroke-linejoin:miter;stroke-opacity:1" d="M 646.47,120.51 661.45,128.832 z" id="boundary" inkscape:connector-curvature="0" />
	<path style="fill:none;stroke:red;stroke-width:1px;stroke-linecap:butt;stroke-linejoin:miter;stroke-opacity:1" d="M 656.456,563.248 673.101,563.248 z" id="boundary" inkscape:connector-curvature="0" />
	<path style="fill:none;stroke:red;stroke-width:1px;stroke-linecap:butt;stroke-linejoin:miter;stroke-opacity:1" d="M 661.45,128.832 678.094,132.161 z" id="boundary" inkscape:connector-curvature="0" />
	<path style="fill:none;stroke:red;stroke-width:1px;stroke-linecap:butt;stroke-linejoin:miter;stroke-opacity:1" d="M 673.101,563.248 689.745,563.248 z" id="boundary" inkscape:connector-curvature="0" />
	<path style="fill:none;stroke:red;stroke-width:1px;stroke-linecap:butt;stroke-linejoin:miter;stroke-opacity:1" d="M 678.094,132.161 693.074,140.483 z" id="boundary" inkscape:connector-curvature="0" />
	<path style="fill:none;stroke:red;stroke-width:1px;stroke-linecap:butt;stroke-linejoin:miter;stroke-opacity:1" d="M 689.745,563.248 704.725,554.926 z" id="boundary" inkscape:connector-curvature="0" />
	<path style="fill:none;stroke:red;stroke-width:1px;stroke-linecap:butt;stroke-linejoin:miter;stroke-opacity:1" d="M 693.074,140.483 709.718,145.477 z" id="boundary" inkscape:connector-curvature="0" />
	<path style="fill:none;stroke:red;stroke-width:1px;stroke-linecap:butt;stroke-linejoin:miter;stroke-opacity:1" d="M 704.725,554.926 719.705,546.604 z" id="boundary" inkscape:connector-curvature="0" />
	<path style="fill:none;stroke:red;stroke-width:1px;stroke-linecap:butt;stroke-linejoin:miter;stroke-opacity:1" d="M 709.718,145.477 724.698,153.799 z" id="boundary" inkscape:connector-curvature="0" />
	<path style="fill:none;stroke:red;stroke-width:1px;stroke-linecap:butt;stroke-linejoin:miter;stroke-opacity:1" d="M 719.705,546.604 736.349,546.604 z" id="boundary" inkscape:connector-curvature="0" />
	<path style="fill:none;stroke:red;stroke-width:1px;stroke-linecap:butt;stroke-linejoin:miter;stroke-opacity:1" d="M 724.698,153.799 739.678,162.121 z" id="boundary" inkscape:connector-curvature="0" />
	<path style="fill:none;stroke:red;stroke-width:1px;stroke-linecap:butt;stroke-linejoin:miter;stroke-opacity:1" d="M 736.349,546.604 751.329,538.282 z" id="boundary" inkscape:connector-curvature="0" />
	<path style="fill:none;stroke:red;stroke-width:1px;stroke-linecap:butt;stroke-linejoin:miter;stroke-opacity:1" d="M 739.678,162.121 754.658,170.443 z" id="boundary" inkscape:connector-curvature="0" />
	<path style="fill:none;stroke:red;stroke-width:1px;stroke-linecap:butt;stroke-linejoin:miter;stroke-opacity:1" d="M 751.329,538.282 766.309,529.96 z" id="boundary" inkscape:connector-curvature="0" />
	<path style="fill:none;stroke:red;stroke-width:1px;stroke-linecap:butt;stroke-linejoin:miter;stroke-opacity:1" d="M 754.658,170.443 769.638,178.765 z" id="boundary" inkscape:connector-curvature="0" />
	<path style="fill:none;stroke:red;stroke-width:1px;stroke-linecap:butt;stroke-linejoin:miter;stroke-opacity:1" d="M 766.309,529.96 781.289,521.638 z" id="boundary" inkscape:connector-curvature="0" />
	<path style="fill:none;stroke:red;stroke-width:1px;stroke-linecap:butt;stroke-linejoin:miter;stroke-opacity:1" d="M 769.638,178.765 782.953,188.752 z" id="boundary" inkscape:connector-curvature="0" />
	<path style="fill:none;stroke:red;stroke-width:1px;stroke-linecap:butt;stroke-linejoin:miter;stroke-opacity:1" d="M 781.289,521.638 797.933,521.638 z" id="boundary" inkscape:connector-curvature="0" />
	<path style="fill:none;stroke:red;stroke-width:1px;stroke-linecap:butt;stroke-linejoin:miter;stroke-opacity:1" d="M 782.953,188.752 791.275,203.732 z" id="boundary" inkscape:connector-curvature="0" />
	<path style="fill:none;stroke:red;stroke-width:1px;stroke-linecap:butt;stroke-linejoin:miter;stroke-opacity:1" d="M 791.275,203.732 802.926,217.047 z" id="boundary" inkscape:connector-curvature="0" />
	<path style="fill:none;stroke:red;stroke-width:1px;stroke-linecap:butt;stroke-linejoin:miter;stroke-opacity:1" d="M 797.933,521.638 812.913,513.315 z" id="boundary" inkscape:connector-curvature="0" />
	<path style="fill:none;stroke:red;stroke-width:1px;stroke-linecap:butt;stroke-linejoin:miter;stroke-opacity:1" d="M 802.926,217.047 812.913,230.362 z" id="boundary" inkscape:connector-curvature="0" />
	<path style="fill:none;stroke:red;stroke-width:1px;stroke-linecap:butt;stroke-linejoin:miter;stroke-opacity:1" d="M 812.913,230.362 821.235,245.342 z" id="boundary" inkscape:connector-curvature="0" />
	<path style="fill:none;stroke:red;stroke-width:1px;stroke-linecap:butt;stroke-linejoin:miter;stroke-opacity:1" d="M 812.913,513.315 829.557,513.315 z" id="boundary" inkscape:connector-curvature="0" />
	<path style="fill:none;stroke:red;stroke-width:1px;stroke-linecap:butt;stroke-linejoin:miter;stroke-opacity:1" d="M 821.235,245.342 829.557,260.322 z" id="boundary" inkscape:connector-curvature="0" />
	<path style="fill:none;stroke:red;stroke-width:1px;stroke-linecap:butt;stroke-linejoin:miter;stroke-opacity:1" d="M 829.557,260.322 837.879,275.302 z" id="boundary" inkscape:connector-curvature="0" />
	<path style="fill:none;stroke:red;stroke-width:1px;stroke-linecap:butt;stroke-linejoin:miter;stroke-opacity:1" d="M 829.557,513.315 846.201,504.993 z" id="boundary" inkscape:connector-curvature="0" />
	<path style="fill:none;stroke:red;stroke-width:1px;stroke-linecap:butt;stroke-linejoin:miter;stroke-opacity:1" d="M 837.879,275.302 846.201,290.282 z" id="boundary" inkscape:connector-curvature="0" />
	<path style="fill:none;stroke:red;stroke-width:1px;stroke-linecap:butt;stroke-linejoin:miter;stroke-opacity:1" d="M 846.201,290.282 862.846,295.275 z" id="boundary" inkscape:connector-curvature="0" />
	<path style="fill:none;stroke:red;stroke-width:1px;stroke-linecap:butt;stroke-linejoin:miter;stroke-opacity:1" d="M 846.201,504.993 862.846,496.671 z" id="boundary" inkscape:connector-curvature="0" />
	<path style="fill:none;stroke:red;stroke-width:1px;stroke-linecap:butt;stroke-linejoin:miter;stroke-opacity:1" d="M 862.846,295.275 879.49,295.275 z" id="boundary" inkscape:connector-curvature="0" />
	<path style="fill:none;stroke:red;stroke-width:1px;stroke-linecap:butt;stroke-linejoin:miter;stroke-opacity:1" d="M 862.846,496.671 876.161,485.02 z" id="boundary" inkscape:connector-curvature="0" />
	<path style="fill:none;stroke:red;stroke-width:1px;stroke-linecap:butt;stroke-linejoin:miter;stroke-opacity:1" d="M 876.161,485.02 887.812,471.705 z" id="boundary" inkscape:connector-curvature="0" />
	<path style="fill:none;stroke:red;stroke-width:1px;stroke-linecap:butt;stroke-linejoin:miter;stroke-opacity:1" d="M 879.49,295.275 896.134,295.275 z" id="boundary" inkscape:connector-curvature="0" />
	<path style="fill:none;stroke:red;stroke-width:1px;stroke-linecap:butt;stroke-linejoin:miter;stroke-opacity:1" d="M 879.49,396.805 896.134,396.805 z" id="boundary" inkscape:connector-curvature="0" />
	<path style="fill:none;stroke:red;stroke-width:1px;stroke-linecap:butt;stroke-linejoin:miter;stroke-opacity:1" d="M 887.812,411.785 896.134,426.765 z" id="boundary" inkscape:connector-curvature="0" />
	<path style="fill:none;stroke:red;stroke-width:1px;stroke-linecap:butt;stroke-linejoin:miter;stroke-opacity:1" d="M 887.812,455.06 887.812,471.705 z" id="boundary" inkscape:connector-curvature="0" />
	<path style="fill:none;stroke:red;stroke-width:1px;stroke-linecap:butt;stroke-linejoin:miter;stroke-opacity:1" d="M 887.812,455.06 896.134,426.765 z" id="boundary" inkscape:connector-curvature="0" />
	<path style="fill:none;stroke:red;stroke-width:1px;stroke-linecap:butt;stroke-linejoin:miter;stroke-opacity:1" d="M 896.134,295.275 912.779,295.275 z" id="boundary" inkscape:connector-curvature="0" />
	<path style="fill:none;stroke:red;stroke-width:1px;stroke-linecap:butt;stroke-linejoin:miter;stroke-opacity:1" d="M 896.134,396.805 911.114,388.483 z" id="boundary" inkscape:connector-curvature="0" />
	<path style="fill:none;stroke:red;stroke-width:1px;stroke-linecap:butt;stroke-linejoin:miter;stroke-opacity:1" d="M 911.114,388.483 926.094,396.805 z" id="boundary" inkscape:connector-curvature="0" />
	<path style="fill:none;stroke:red;stroke-width:1px;stroke-linecap:butt;stroke-linejoin:miter;stroke-opacity:1" d="M 912.779,295.275 929.423,295.275 z" id="boundary" inkscape:connector-curvature="0" />
	<path style="fill:none;stroke:red;stroke-width:1px;stroke-linecap:butt;stroke-linejoin:miter;stroke-opacity:1" d="M 926.094,396.805 942.738,396.805 z" id="boundary" inkscape:connector-curvature="0" />
	<path style="fill:none;stroke:red;stroke-width:1px;stroke-linecap:butt;stroke-linejoin:miter;stroke-opacity:1" d="M 929.423,295.275 946.067,300.268 z" id="boundary" inkscape:connector-curvature="0" />
	<path style="fill:none;stroke:red;stroke-width:1px;stroke-linecap:butt;stroke-linejoin:miter;stroke-opacity:1" d="M 942.738,396.805 959.383,396.805 z" id="boundary" inkscape:connector-curvature="0" />
	<path style="fill:none;stroke:red;stroke-width:1px;stroke-linecap:butt;stroke-linejoin:miter;stroke-opacity:1" d="M 946.067,300.268 962.711,303.597 z" id="boundary" inkscape:connector-curvature="0" />
	<path style="fill:none;stroke:red;stroke-width:1px;stroke-linecap:butt;stroke-linejoin:miter;stroke-opacity:1" d="M 959.383,396.805 976.027,393.477 z" id="boundary" inkscape:connector-curvature="0" />
	<path style="fill:none;stroke:red;stroke-width:1px;stroke-linecap:butt;stroke-linejoin:miter;stroke-opacity:1" d="M 962.711,303.597 979.356,303.597 z" id="boundary" inkscape:connector-curvature="0" />
	<path style="fill:none;stroke:red;stroke-width:1px;stroke-linecap:butt;stroke-linejoin:miter;stroke-opacity:1" d="M 976.027,393.477 992.671,385.154 z" id="boundary" inkscape:connector-curvature="0" />
	<path style="fill:none;stroke:red;stroke-width:1px;stroke-linecap:butt;stroke-linejoin:miter;stroke-opacity:1" d="M 979.356,303.597 996,308.591 z" id="boundary" inkscape:connector-curvature="0" />
	<path style="fill:none;stroke:red;stroke-width:1px;stroke-linecap:butt;stroke-linejoin:miter;stroke-opacity:1" d="M 992.671,385.154 996,358.523 z" id="boundary" inkscape:connector-curvature="0" />
	<path style="fill:none;stroke:red;stroke-width:1px;stroke-linecap:butt;stroke-linejoin:miter;stroke-opacity:1" d="M 996,308.591 996,325.235 z" id="boundary" inkscape:connector-curvature="0" />
	<path style="fill:none;stroke:red;stroke-width:1px;stroke-linecap:butt;stroke-linejoin:miter;stroke-opacity:1" d="M 996,325.235 996,341.879 z" id="boundary" inkscape:connector-curvature="0" />
	<path style="fill:none;stroke:red;stroke-width:1px;stroke-linecap:butt;stroke-linejoin:miter;stroke-opacity:1" d="M 996,341.879 996,358.523 z" id="boundary" inkscape:connector-curvature="0" />
	<circle cx="4" cy="300.268" r="4" fill="#0" id="circle0"/>
	<circle cx="4" cy="316.913" r="4" fill="#0" id="circle1"/>
	<circle cx="4" cy="333.557" r="4" fill="#0" id="circle2"/>
	<circle cx="4" cy="350.201" r="4" fill="#0" id="circle3"/>
	<circle cx="4" cy="366.846" r="4" fill="#0" id="circle4"/>
	<circle cx="4" cy="383.49" r="4" fill="#0" id="circle5"/>
	<circle cx="20.6443" cy="295.275" r="4" fill="#0" id="circle6"/>
	<circle cx="20.6443" cy="388.483" r="4" fill="#0" id="circle7"/>
	<circle cx="37.2886" cy="295.275" r="4" fill="#0" id="circle8"/>
	<circle cx="37.2886" cy="388.483" r="4" fill="#0" id="circle9"/>
	<circle cx="53.9329" cy="295.275" r="4" fill="#0" id="circle10"/>
	<circle cx="53.9329" cy="388.483" r="4" fill="#0" id="circle11"/>
	<circle cx="70.5772" cy="295.275" r="4" fill="#0" id="circle12"/>
	<circle cx="70.5772" cy="388.483" r="4" fill="#0" id="circle13"/>
	<circle cx="85.557" cy="396.805" r="4" fill="#0" id="circle14"/>
	<circle cx="87.2215" cy="298.604" r="4" fill="#0" id="circle15"/>
	<circle cx="102.201" cy="396.805" r="4" fill="#0" id="circle16"/>
	<circle cx="103.866" cy="303.597" r="4" fill="#0" id="circle17"/>
	<circle cx="118.846" cy="393.477" r="4" fill="#0" id="circle18"/>
	<circle cx="120.51" cy="303.597" r="4" fill="#0" id="circle19"/>
	<circle cx="135.49" cy="396.805" r="4" fill="#0" id="circle20"/>
	<circle cx="137.154" cy="303.597" r="4" fill="#0" id="circle21"/>
	<circle cx="145.477" cy="275.302" r="4" fill="#0" id="circle22"/>
	<circle cx="150.47" cy="405.128" r="4" fill="#0" id="circle23"/>
	<circle cx="158.792" cy="261.987" r="4" fill="#0" id="circle24"/>
	<circle cx="163.785" cy="416.779" r="4" fill="#0" id="circle25"/>
	<circle cx="175.436" cy="253.664" r="4" fill="#0" id="circle26"/>
	<circle cx="178.765" cy="233.691" r="4" fill="#0" id="circle27"/>
	<circle cx="178.765" cy="425.101" r="4" fill="#0" id="circle28"/>
	<circle cx="192.081" cy="436.752" r="4" fill="#0" id="circle29"/>
	<circle cx="195.409" cy="225.369" r="4" fill="#0" id="circle30"/>
	<circle cx="203.732" cy="450.067" r="4" fill="#0" id="circle31"/>
	<circle cx="208.725" cy="212.054" r="4" fill="#0" id="circle32"/>
	<circle cx="212.054" cy="67.2483" r="4" fill="#0" id="circle33"/>
	<circle cx="212.054" cy="83.8926" r="4" fill="#0" id="circle34"/>
	<circle cx="212.054" cy="100.537" r="4" fill="#0" id="circle35"/>
	<circle cx="212.054" cy="117.181" r="4" fill="#0" id="circle36"/>
	<circle cx="220.376" cy="42.2819" r="4" fill="#0" id="circle37"/>
	<circle cx="220.376" cy="132.161" r="4" fill="#0" id="circle38"/>
	<circle cx="220.376" cy="450.067" r="4" fill="#0" id="circle39"/>
	<circle cx="222.04" cy="198.738" r="4" fill="#0" id="circle40"/>
	<circle cx="228.698" cy="147.141" r="4" fill="#0" id="circle41"/>
	<circle cx="228.698" cy="163.785" r="4" fill="#0" id="circle42"/>
	<circle cx="228.698" cy="180.43" r="4" fill="#0" id="circle43"/>
	<circle cx="233.691" cy="28.9664" r="4" fill="#0" id="circle44"/>
	<circle cx="237.02" cy="441.745" r="4" fill="#0" id="circle45"/>
	<circle cx="247.007" cy="15.651" r="4" fill="#0" id="circle46"/>
	<circle cx="253.664" cy="438.416" r="4" fill="#0" id="circle47"/>
	<circle cx="260.322" cy="4" r="4" fill="#0" id="circle48"/>
	<circle cx="268.644" cy="446.738" r="4" fill="#0" id="circle49"/>
	<circle cx="276.966" cy="5.66443" r="4" fill="#0" id="circle50"/>
	<circle cx="283.624" cy="455.06" r="4" fill="#0" id="circle51"/>
	<circle cx="293.611" cy="12.3221" r="4" fill="#0" id="circle52"/>
	<circle cx="300.268" cy="455.06" r="4" fill="#0" id="circle53"/>
	<circle cx="308.591" cy="4" r="4" fill="#0" id="circle54"/>
	<circle cx="311.919" cy="558.255" r="4" fill="#0" id="circle55"/>
	<circle cx="311.919" cy="574.899" r="4" fill="#0" id="circle56"/>
	<circle cx="313.584" cy="466.711" r="4" fill="#0" id="circle57"/>
	<circle cx="325.235" cy="4" r="4" fill="#0" id="circle58"/>
	<circle cx="325.235" cy="544.94" r="4" fill="#0" id="circle59"/>
	<circle cx="328.564" cy="475.034" r="4" fill="#0" id="circle60"/>
	<circle cx="328.564" cy="579.893" r="4" fill="#0" id="circle61"/>
	<circle cx="340.215" cy="12.3221" r="4" fill="#0" id="circle62"/>
	<circle cx="341.879" cy="536.617" r="4" fill="#0" id="circle63"/>
	<circle cx="343.544" cy="588.215" r="4" fill="#0" id="circle64"/>
	<circle cx="345.208" cy="480.027" r="4" fill="#0" id="circle65"/>
	<circle cx="353.53" cy="23.9732" r="4" fill="#0" id="circle66"/>
	<circle cx="355.195" cy="40.6174" r="4" fill="#0" id="circle67"/>
	<circle cx="355.195" cy="57.2617" r="4" fill="#0" id="circle68"/>
	<circle cx="355.195" cy="73.906" r="4" fill="#0" id="circle69"/>
	<circle cx="355.195" cy="90.5503" r="4" fill="#0" id="circle70"/>
	<circle cx="355.195" cy="122.174" r="4" fill="#0" id="circle71"/>
	<circle cx="355.195" cy="138.819" r="4" fill="#0" id="circle72"/>
	<circle cx="355.195" cy="155.463" r="4" fill="#0" id="circle73"/>
	<circle cx="358.523" cy="536.617" r="4" fill="#0" id="circle74"/>
	<circle cx="358.523" cy="579.893" r="4" fill="#0" id="circle75"/>
	<circle cx="360.188" cy="488.349" r="4" fill="#0" id="circle76"/>
	<circle cx="363.517" cy="105.53" r="4" fill="#0" id="circle77"/>
	<circle cx="366.846" cy="504.993" r="4" fill="#0" id="circle78"/>
	<circle cx="370.174" cy="521.638" r="4" fill="#0" id="circle79"/>
	<circle cx="371.839" cy="162.121" r="4" fill="#0" id="circle80"/>
	<circle cx="375.168" cy="578.228" r="4" fill="#0" id="circle81"/>
	<circle cx="388.483" cy="162.121" r="4" fill="#0" id="circle82"/>
	<circle cx="391.812" cy="569.906" r="4" fill="#0" id="circle83"/>
	<circle cx="405.128" cy="157.128" r="4" fill="#0" id="circle84"/>
	<circle cx="405.128" cy="554.926" r="4" fill="#0" id="circle85"/>
	<circle cx="421.772" cy="148.805" r="4" fill="#0" id="circle86"/>
	<circle cx="421.772" cy="546.604" r="4" fill="#0" id="circle87"/>
	<circle cx="438.416" cy="140.483" r="4" fill="#0" id="circle88"/>
	<circle cx="438.416" cy="546.604" r="4" fill="#0" id="circle89"/>
	<circle cx="451.732" cy="128.832" r="4" fill="#0" id="circle90"/>
	<circle cx="453.396" cy="538.282" r="4" fill="#0" id="circle91"/>
	<circle cx="468.376" cy="128.832" r="4" fill="#0" id="circle92"/>
	<circle cx="470.04" cy="538.282" r="4" fill="#0" id="circle93"/>
	<circle cx="483.356" cy="120.51" r="4" fill="#0" id="circle94"/>
	<circle cx="486.685" cy="538.282" r="4" fill="#0" id="circle95"/>
	<circle cx="500" cy="120.51" r="4" fill="#0" id="circle96"/>
	<circle cx="501.664" cy="529.96" r="4" fill="#0" id="circle97"/>
	<circle cx="514.98" cy="112.188" r="4" fill="#0" id="circle98"/>
	<circle cx="518.309" cy="529.96" r="4" fill="#0" id="circle99"/>
	<circle cx="519.973" cy="546.604" r="4" fill="#0" id="circle100"/>
	<circle cx="524.966" cy="563.248" r="4" fill="#0" id="circle101"/>
	<circle cx="531.624" cy="112.188" r="4" fill="#0" id="circle102"/>
	<circle cx="541.611" cy="569.906" r="4" fill="#0" id="circle103"/>
	<circle cx="548.268" cy="112.188" r="4" fill="#0" id="circle104"/>
	<circle cx="558.255" cy="571.57" r="4" fill="#0" id="circle105"/>
	<circle cx="564.913" cy="112.188" r="4" fill="#0" id="circle106"/>
	<circle cx="574.899" cy="571.57" r="4" fill="#0" id="circle107"/>
	<circle cx="581.557" cy="112.188" r="4" fill="#0" id="circle108"/>
	<circle cx="591.544" cy="571.57" r="4" fill="#0" id="circle109"/>
	<circle cx="598.201" cy="112.188" r="4" fill="#0" id="circle110"/>
	<circle cx="608.188" cy="571.57" r="4" fill="#0" id="circle111"/>
	<circle cx="613.181" cy="120.51" r="4" fill="#0" id="circle112"/>
	<circle cx="624.832" cy="571.57" r="4" fill="#0" id="circle113"/>
	<circle cx="629.826" cy="120.51" r="4" fill="#0" id="circle114"/>
	<circle cx="641.477" cy="571.57" r="4" fill="#0" id="circle115"/>
	<circle cx="646.47" cy="120.51" r="4" fill="#0" id="circle116"/>
	<circle cx="656.456" cy="563.248" r="4" fill="#0" id="circle117"/>
	<circle cx="661.45" cy="128.832" r="4" fill="#0" id="circle118"/>
	<circle cx="673.101" cy="563.248" r="4" fill="#0" id="circle119"/>
	<circle cx="678.094" cy="132.161" r="4" fill="#0" id="circle120"/>
	<circle cx="689.745" cy="563.248" r="4" fill="#0" id="circle121"/>
	<circle cx="693.074" cy="140.483" r="4" fill="#0" id="circle122"/>
	<circle cx="704.725" cy="554.926" r="4" fill="#0" id="circle123"/>
	<circle cx="709.718" cy="145.477" r="4" fill="#0" id="circle124"/>
	<circle cx="719.705" cy="546.604" r="4" fill="#0" id="circle125"/>
	<circle cx="724.698" cy="153.799" r="4" fill="#0" id="circle126"/>
	<circle cx="736.349" cy="546.604" r="4" fill="#0" id="circle127"/>
	<circle cx="739.678" cy="162.121" r="4" fill="#0" id="circle128"/>
	<circle cx="751.329" cy="538.282" r="4" fill="#0" id="circle129"/>
	<circle cx="754.658" cy="170.443" r="4" fill="#0" id="circle130"/>
	<circle cx="766.309" cy="529.96" r="4" fill="#0" id="circle131"/>
	<circle cx="769.638" cy="178.765" r="4" fill="#0" id="circle132"/>
	<circle cx="781.289" cy="521.638" r="4" fill="#0" id="circle133"/>
	<circle cx="782.953" cy="188.752" r="4" fill="#0" id="circle134"/>
	<circle cx="791.275" cy="203.732" r="4" fill="#0" id="circle135"/>
	<circle cx="797.933" cy="521.638" r="4" fill="#0" id="circle136"/>
	<circle cx="802.926" cy="217.047" r="4" fill="#0" id="circle137"/>
	<circle cx="812.913" cy="230.362" r="4" fill="#0" id="circle138"/>
	<circle cx="812.913" cy="513.315" r="4" fill="#0" id="circle139"/>
	<circle cx="821.235" cy="245.342" r="4" fill="#0" id="circle140"/>
	<circle cx="829.557" cy="260.322" r="4" fill="#0" id="circle141"/>
	<circle cx="829.557" cy="513.315" r="4" fill="#0" id="circle142"/>
	<circle cx="837.879" cy="275.302" r="4" fill="#0" id="circle143"/>
	<circle cx="846.201" cy="290.282" r="4" fill="#0" id="circle144"/>
	<circle cx="846.201" cy="504.993" r="4" fill="#0" id="circle145"/>
	<circle cx="862.846" cy="295.275" r="4" fill="#0" id="circle146"/>
	<circle cx="862.846" cy="496.671" r="4" fill="#0" id="circle147"/>
	<circle cx="876.161" cy="485.02" r="4" fill="#0" id="circle148"/>
	<circle cx="879.49" cy="295.275" r="4" fill="#0" id="circle149"/>
	<circle cx="879.49" cy="396.805" r="4" fill="#0" id="circle150"/>
	<circle cx="887.812" cy="411.785" r="4" fill="#0" id="circle151"/>
	<circle cx="887.812" cy="455.06" r="4" fill="#0" id="circle152"/>
	<circle cx="887.812" cy="471.705" r="4" fill="#0" id="circle153"/>
	<circle cx="896.134" cy="295.275" r="4" fill="#0" id="circle154"/>
	<circle cx="896.134" cy="396.805" r="4" fill="#0" id="circle155"/>
	<circle cx="896.134" cy="426.765" r="4" fill="#0" id="circle156"/>
	<circle cx="911.114" cy="388.483" r="4" fill="#0" id="circle157"/>
	<circle cx="912.779" cy="295.275" r="4" fill="#0" id="circle158"/>
	<circle cx="926.094" cy="396.805" r="4" fill="#0" id="circle159"/>
	<circle cx="929.423" cy="295.275" r="4" fill="#0" id="circle160"/>
	<circle cx="942.738" cy="396.805" r="4" fill="#0" id="circle161"/>
	<circle cx="946.067" cy="300.268" r="4" fill="#0" id="circle162"/>
	<circle cx="959.383" cy="396.805" r="4" fill="#0" id="circle163"/>
	<circle cx="962.711" cy="303.597" r="4" fill="#0" id="circle164"/>
	<circle cx="976.027" cy="393.477" r="4" fill="#0" id="circle165"/>
	<circle cx="979.356" cy="303.597" r="4" fill="#0" id="circle166"/>
	<circle cx="992.671" cy="385.154" r="4" fill="#0" id="circle167"/>
	<circle cx="996" cy="308.591" r="4" fill="#0" id="circle168"/>
	<circle cx="996" cy="325.235" r="4" fill="#0" id="circle169"/>
	<circle cx="996" cy="341.879" r="4" fill="#0" id="circle170"/>
	<circle cx="996" cy="358.523" r="4" fill="#0" id="circle171"/>
	</g>
</svg>