<?xml version="1.0" encoding="UTF-8" standalone="no"?>
<!-- Created with CurveBenchmark -->
<svg
	xmlns:dc="http://purl.org/dc/elements/1.1/"
	xmlns:cc="http://creativecommons.org/ns#"
	xmlns:rdf="http://www.w3.org/1999/02/22-rdf-syntax-ns#"
	xmlns:svg="http://www.w3.org/2000/svg"
	xmlns="http://www.w3.org/2000/svg"
	xmlns:sodipodi="http://sodipodi.sourceforge.net/DTD/sodipodi-0.dtd"
	xmlns:inkscape="http://www.inkscape.org/namespaces/inkscape"
	width="1000"
	height="1000"
	id="svg2"
	version="1.1"
	sodipodi:docname="manifold/hnncrust-ray13.png.txt">
<defs
	id="defs4" />
<metadata
	id="metadata7">
	<rdf:RDF>
		<cc:Work
			rdf:about="">
			<dc:format>image/svg+xml</dc:format>
			<dc:type
				rdf:resource="http://purl.org/dc/dcmitype/StillImage" />
			<dc:title></dc:title>
		</cc:Work>
	</rdf:RDF>
</metadata>
<g
	inkscape:label="Layer 1"
	inkscape:groupmode="layer"
	id="layer1">
	<path style="fill:none;stroke:red;stroke-width:1px;stroke-linecap:butt;stroke-linejoin:miter;stroke-opacity:1" d="M 4,429.745 4,443.796 z" id="boundary" inkscape:connector-curvature="0" />
	<path style="fill:none;stroke:red;stroke-width:1px;stroke-linecap:butt;stroke-linejoin:miter;stroke-opacity:1" d="M 4,429.745 11.0255,408.669 z" id="boundary" inkscape:connector-curvature="0" />
	<path style="fill:none;stroke:red;stroke-width:1px;stroke-linecap:butt;stroke-linejoin:miter;stroke-opacity:1" d="M 4,443.796 11.0255,456.442 z" id="boundary" inkscape:connector-curvature="0" />
	<path style="fill:none;stroke:red;stroke-width:1px;stroke-linecap:butt;stroke-linejoin:miter;stroke-opacity:1" d="M 11.0255,408.669 18.051,394.618 z" id="boundary" inkscape:connector-curvature="0" />
	<path style="fill:none;stroke:red;stroke-width:1px;stroke-linecap:butt;stroke-linejoin:miter;stroke-opacity:1" d="M 11.0255,456.442 18.051,469.088 z" id="boundary" inkscape:connector-curvature="0" />
	<path style="fill:none;stroke:red;stroke-width:1px;stroke-linecap:butt;stroke-linejoin:miter;stroke-opacity:1" d="M 18.051,394.618 29.2918,383.377 z" id="boundary" inkscape:connector-curvature="0" />
	<path style="fill:none;stroke:red;stroke-width:1px;stroke-linecap:butt;stroke-linejoin:miter;stroke-opacity:1" d="M 18.051,469.088 30.6969,476.113 z" id="boundary" inkscape:connector-curvature="0" />
	<path style="fill:none;stroke:red;stroke-width:1px;stroke-linecap:butt;stroke-linejoin:miter;stroke-opacity:1" d="M 29.2918,383.377 40.5326,372.136 z" id="boundary" inkscape:connector-curvature="0" />
	<path style="fill:none;stroke:red;stroke-width:1px;stroke-linecap:butt;stroke-linejoin:miter;stroke-opacity:1" d="M 30.6969,476.113 40.5326,487.354 z" id="boundary" inkscape:connector-curvature="0" />
	<path style="fill:none;stroke:red;stroke-width:1px;stroke-linecap:butt;stroke-linejoin:miter;stroke-opacity:1" d="M 40.5326,372.136 51.7734,362.3 z" id="boundary" inkscape:connector-curvature="0" />
	<path style="fill:none;stroke:red;stroke-width:1px;stroke-linecap:butt;stroke-linejoin:miter;stroke-opacity:1" d="M 40.5326,487.354 51.7734,497.19 z" id="boundary" inkscape:connector-curvature="0" />
	<path style="fill:none;stroke:red;stroke-width:1px;stroke-linecap:butt;stroke-linejoin:miter;stroke-opacity:1" d="M 51.7734,362.3 64.4193,355.275 z" id="boundary" inkscape:connector-curvature="0" />
	<path style="fill:none;stroke:red;stroke-width:1px;stroke-linecap:butt;stroke-linejoin:miter;stroke-opacity:1" d="M 51.7734,497.19 64.4193,504.215 z" id="boundary" inkscape:connector-curvature="0" />
	<path style="fill:none;stroke:red;stroke-width:1px;stroke-linecap:butt;stroke-linejoin:miter;stroke-opacity:1" d="M 64.4193,355.275 75.6601,344.034 z" id="boundary" inkscape:connector-curvature="0" />
	<path style="fill:none;stroke:red;stroke-width:1px;stroke-linecap:butt;stroke-linejoin:miter;stroke-opacity:1" d="M 64.4193,504.215 78.4703,509.836 z" id="boundary" inkscape:connector-curvature="0" />
	<path style="fill:none;stroke:red;stroke-width:1px;stroke-linecap:butt;stroke-linejoin:miter;stroke-opacity:1" d="M 75.6601,344.034 86.9008,334.198 z" id="boundary" inkscape:connector-curvature="0" />
	<path style="fill:none;stroke:red;stroke-width:1px;stroke-linecap:butt;stroke-linejoin:miter;stroke-opacity:1" d="M 78.4703,509.836 89.711,518.266 z" id="boundary" inkscape:connector-curvature="0" />
	<path style="fill:none;stroke:red;stroke-width:1px;stroke-linecap:butt;stroke-linejoin:miter;stroke-opacity:1" d="M 86.9008,334.198 96.7365,322.958 z" id="boundary" inkscape:connector-curvature="0" />
	<path style="fill:none;stroke:red;stroke-width:1px;stroke-linecap:butt;stroke-linejoin:miter;stroke-opacity:1" d="M 89.711,518.266 102.357,525.292 z" id="boundary" inkscape:connector-curvature="0" />
	<path style="fill:none;stroke:red;stroke-width:1px;stroke-linecap:butt;stroke-linejoin:miter;stroke-opacity:1" d="M 96.7365,322.958 110.788,315.932 z" id="boundary" inkscape:connector-curvature="0" />
	<path style="fill:none;stroke:red;stroke-width:1px;stroke-linecap:butt;stroke-linejoin:miter;stroke-opacity:1" d="M 102.357,525.292 115.003,532.317 z" id="boundary" inkscape:connector-curvature="0" />
	<path style="fill:none;stroke:red;stroke-width:1px;stroke-linecap:butt;stroke-linejoin:miter;stroke-opacity:1" d="M 110.788,315.932 124.839,308.907 z" id="boundary" inkscape:connector-curvature="0" />
	<path style="fill:none;stroke:red;stroke-width:1px;stroke-linecap:butt;stroke-linejoin:miter;stroke-opacity:1" d="M 115.003,532.317 127.649,539.343 z" id="boundary" inkscape:connector-curvature="0" />
	<path style="fill:none;stroke:red;stroke-width:1px;stroke-linecap:butt;stroke-linejoin:miter;stroke-opacity:1" d="M 124.839,308.907 136.079,299.071 z" id="boundary" inkscape:connector-curvature="0" />
	<path style="fill:none;stroke:red;stroke-width:1px;stroke-linecap:butt;stroke-linejoin:miter;stroke-opacity:1" d="M 127.649,539.343 140.295,546.368 z" id="boundary" inkscape:connector-curvature="0" />
	<path style="fill:none;stroke:red;stroke-width:1px;stroke-linecap:butt;stroke-linejoin:miter;stroke-opacity:1" d="M 136.079,299.071 145.915,287.83 z" id="boundary" inkscape:connector-curvature="0" />
	<path style="fill:none;stroke:red;stroke-width:1px;stroke-linecap:butt;stroke-linejoin:miter;stroke-opacity:1" d="M 140.295,546.368 152.941,553.394 z" id="boundary" inkscape:connector-curvature="0" />
	<path style="fill:none;stroke:red;stroke-width:1px;stroke-linecap:butt;stroke-linejoin:miter;stroke-opacity:1" d="M 145.915,287.83 157.156,277.994 z" id="boundary" inkscape:connector-curvature="0" />
	<path style="fill:none;stroke:red;stroke-width:1px;stroke-linecap:butt;stroke-linejoin:miter;stroke-opacity:1" d="M 152.941,553.394 165.586,560.419 z" id="boundary" inkscape:connector-curvature="0" />
	<path style="fill:none;stroke:red;stroke-width:1px;stroke-linecap:butt;stroke-linejoin:miter;stroke-opacity:1" d="M 157.156,277.994 169.802,270.969 z" id="boundary" inkscape:connector-curvature="0" />
	<path style="fill:none;stroke:red;stroke-width:1px;stroke-linecap:butt;stroke-linejoin:miter;stroke-opacity:1" d="M 165.586,560.419 178.232,567.445 z" id="boundary" inkscape:connector-curvature="0" />
	<path style="fill:none;stroke:red;stroke-width:1px;stroke-linecap:butt;stroke-linejoin:miter;stroke-opacity:1" d="M 169.802,270.969 181.042,259.728 z" id="boundary" inkscape:connector-curvature="0" />
	<path style="fill:none;stroke:red;stroke-width:1px;stroke-linecap:butt;stroke-linejoin:miter;stroke-opacity:1" d="M 178.232,567.445 190.878,574.47 z" id="boundary" inkscape:connector-curvature="0" />
	<path style="fill:none;stroke:red;stroke-width:1px;stroke-linecap:butt;stroke-linejoin:miter;stroke-opacity:1" d="M 181.042,259.728 192.283,249.892 z" id="boundary" inkscape:connector-curvature="0" />
	<path style="fill:none;stroke:red;stroke-width:1px;stroke-linecap:butt;stroke-linejoin:miter;stroke-opacity:1" d="M 190.878,574.47 202.119,584.306 z" id="boundary" inkscape:connector-curvature="0" />
	<path style="fill:none;stroke:red;stroke-width:1px;stroke-linecap:butt;stroke-linejoin:miter;stroke-opacity:1" d="M 192.283,249.892 202.119,238.652 z" id="boundary" inkscape:connector-curvature="0" />
	<path style="fill:none;stroke:red;stroke-width:1px;stroke-linecap:butt;stroke-linejoin:miter;stroke-opacity:1" d="M 202.119,238.652 213.36,228.816 z" id="boundary" inkscape:connector-curvature="0" />
	<path style="fill:none;stroke:red;stroke-width:1px;stroke-linecap:butt;stroke-linejoin:miter;stroke-opacity:1" d="M 202.119,584.306 211.955,595.547 z" id="boundary" inkscape:connector-curvature="0" />
	<path style="fill:none;stroke:red;stroke-width:1px;stroke-linecap:butt;stroke-linejoin:miter;stroke-opacity:1" d="M 207.739,942.606 207.739,956.657 z" id="boundary" inkscape:connector-curvature="0" />
	<path style="fill:none;stroke:red;stroke-width:1px;stroke-linecap:butt;stroke-linejoin:miter;stroke-opacity:1" d="M 207.739,942.606 221.79,935.581 z" id="boundary" inkscape:connector-curvature="0" />
	<path style="fill:none;stroke:red;stroke-width:1px;stroke-linecap:butt;stroke-linejoin:miter;stroke-opacity:1" d="M 207.739,956.657 218.98,966.493 z" id="boundary" inkscape:connector-curvature="0" />
	<path style="fill:none;stroke:red;stroke-width:1px;stroke-linecap:butt;stroke-linejoin:miter;stroke-opacity:1" d="M 211.955,595.547 226.006,601.167 z" id="boundary" inkscape:connector-curvature="0" />
	<path style="fill:none;stroke:red;stroke-width:1px;stroke-linecap:butt;stroke-linejoin:miter;stroke-opacity:1" d="M 213.36,228.816 223.195,217.575 z" id="boundary" inkscape:connector-curvature="0" />
	<path style="fill:none;stroke:red;stroke-width:1px;stroke-linecap:butt;stroke-linejoin:miter;stroke-opacity:1" d="M 218.98,966.493 231.626,973.518 z" id="boundary" inkscape:connector-curvature="0" />
	<path style="fill:none;stroke:red;stroke-width:1px;stroke-linecap:butt;stroke-linejoin:miter;stroke-opacity:1" d="M 221.79,935.581 235.841,941.201 z" id="boundary" inkscape:connector-curvature="0" />
	<path style="fill:none;stroke:red;stroke-width:1px;stroke-linecap:butt;stroke-linejoin:miter;stroke-opacity:1" d="M 223.195,217.575 230.221,203.524 z" id="boundary" inkscape:connector-curvature="0" />
	<path style="fill:none;stroke:red;stroke-width:1px;stroke-linecap:butt;stroke-linejoin:miter;stroke-opacity:1" d="M 226.006,601.167 238.652,608.193 z" id="boundary" inkscape:connector-curvature="0" />
	<path style="fill:none;stroke:red;stroke-width:1px;stroke-linecap:butt;stroke-linejoin:miter;stroke-opacity:1" d="M 230.221,203.524 241.462,193.688 z" id="boundary" inkscape:connector-curvature="0" />
	<path style="fill:none;stroke:red;stroke-width:1px;stroke-linecap:butt;stroke-linejoin:miter;stroke-opacity:1" d="M 231.626,973.518 245.677,979.139 z" id="boundary" inkscape:connector-curvature="0" />
	<path style="fill:none;stroke:red;stroke-width:1px;stroke-linecap:butt;stroke-linejoin:miter;stroke-opacity:1" d="M 235.841,941.201 244.272,952.442 z" id="boundary" inkscape:connector-curvature="0" />
	<path style="fill:none;stroke:red;stroke-width:1px;stroke-linecap:butt;stroke-linejoin:miter;stroke-opacity:1" d="M 238.652,608.193 249.892,616.623 z" id="boundary" inkscape:connector-curvature="0" />
	<path style="fill:none;stroke:red;stroke-width:1px;stroke-linecap:butt;stroke-linejoin:miter;stroke-opacity:1" d="M 241.462,193.688 251.297,182.448 z" id="boundary" inkscape:connector-curvature="0" />
	<path style="fill:none;stroke:red;stroke-width:1px;stroke-linecap:butt;stroke-linejoin:miter;stroke-opacity:1" d="M 244.272,952.442 256.918,959.467 z" id="boundary" inkscape:connector-curvature="0" />
	<path style="fill:none;stroke:red;stroke-width:1px;stroke-linecap:butt;stroke-linejoin:miter;stroke-opacity:1" d="M 245.677,979.139 258.323,986.164 z" id="boundary" inkscape:connector-curvature="0" />
	<path style="fill:none;stroke:red;stroke-width:1px;stroke-linecap:butt;stroke-linejoin:miter;stroke-opacity:1" d="M 249.892,616.623 258.323,627.864 z" id="boundary" inkscape:connector-curvature="0" />
	<path style="fill:none;stroke:red;stroke-width:1px;stroke-linecap:butt;stroke-linejoin:miter;stroke-opacity:1" d="M 251.297,182.448 262.538,172.612 z" id="boundary" inkscape:connector-curvature="0" />
	<path style="fill:none;stroke:red;stroke-width:1px;stroke-linecap:butt;stroke-linejoin:miter;stroke-opacity:1" d="M 256.918,959.467 269.564,966.493 z" id="boundary" inkscape:connector-curvature="0" />
	<path style="fill:none;stroke:red;stroke-width:1px;stroke-linecap:butt;stroke-linejoin:miter;stroke-opacity:1" d="M 258.323,627.864 272.374,633.484 z" id="boundary" inkscape:connector-curvature="0" />
	<path style="fill:none;stroke:red;stroke-width:1px;stroke-linecap:butt;stroke-linejoin:miter;stroke-opacity:1" d="M 258.323,986.164 272.374,988.975 z" id="boundary" inkscape:connector-curvature="0" />
	<path style="fill:none;stroke:red;stroke-width:1px;stroke-linecap:butt;stroke-linejoin:miter;stroke-opacity:1" d="M 262.538,172.612 270.969,155.751 z" id="boundary" inkscape:connector-curvature="0" />
	<path style="fill:none;stroke:red;stroke-width:1px;stroke-linecap:butt;stroke-linejoin:miter;stroke-opacity:1" d="M 269.564,966.493 277.994,949.632 z" id="boundary" inkscape:connector-curvature="0" />
	<path style="fill:none;stroke:red;stroke-width:1px;stroke-linecap:butt;stroke-linejoin:miter;stroke-opacity:1" d="M 270.969,155.751 282.21,144.51 z" id="boundary" inkscape:connector-curvature="0" />
	<path style="fill:none;stroke:red;stroke-width:1px;stroke-linecap:butt;stroke-linejoin:miter;stroke-opacity:1" d="M 272.374,633.484 285.02,640.51 z" id="boundary" inkscape:connector-curvature="0" />
	<path style="fill:none;stroke:red;stroke-width:1px;stroke-linecap:butt;stroke-linejoin:miter;stroke-opacity:1" d="M 272.374,988.975 285.02,996 z" id="boundary" inkscape:connector-curvature="0" />
	<path style="fill:none;stroke:red;stroke-width:1px;stroke-linecap:butt;stroke-linejoin:miter;stroke-opacity:1" d="M 277.994,949.632 292.045,948.227 z" id="boundary" inkscape:connector-curvature="0" />
	<path style="fill:none;stroke:red;stroke-width:1px;stroke-linecap:butt;stroke-linejoin:miter;stroke-opacity:1" d="M 282.21,144.51 293.45,133.269 z" id="boundary" inkscape:connector-curvature="0" />
	<path style="fill:none;stroke:red;stroke-width:1px;stroke-linecap:butt;stroke-linejoin:miter;stroke-opacity:1" d="M 285.02,640.51 296.261,650.346 z" id="boundary" inkscape:connector-curvature="0" />
	<path style="fill:none;stroke:red;stroke-width:1px;stroke-linecap:butt;stroke-linejoin:miter;stroke-opacity:1" d="M 285.02,996 299.071,996 z" id="boundary" inkscape:connector-curvature="0" />
	<path style="fill:none;stroke:red;stroke-width:1px;stroke-linecap:butt;stroke-linejoin:miter;stroke-opacity:1" d="M 292.045,948.227 304.691,955.252 z" id="boundary" inkscape:connector-curvature="0" />
	<path style="fill:none;stroke:red;stroke-width:1px;stroke-linecap:butt;stroke-linejoin:miter;stroke-opacity:1" d="M 293.45,133.269 304.691,123.433 z" id="boundary" inkscape:connector-curvature="0" />
	<path style="fill:none;stroke:red;stroke-width:1px;stroke-linecap:butt;stroke-linejoin:miter;stroke-opacity:1" d="M 296.261,650.346 308.907,657.371 z" id="boundary" inkscape:connector-curvature="0" />
	<path style="fill:none;stroke:red;stroke-width:1px;stroke-linecap:butt;stroke-linejoin:miter;stroke-opacity:1" d="M 299.071,996 313.122,996 z" id="boundary" inkscape:connector-curvature="0" />
	<path style="fill:none;stroke:red;stroke-width:1px;stroke-linecap:butt;stroke-linejoin:miter;stroke-opacity:1" d="M 304.691,123.433 314.527,112.193 z" id="boundary" inkscape:connector-curvature="0" />
	<path style="fill:none;stroke:red;stroke-width:1px;stroke-linecap:butt;stroke-linejoin:miter;stroke-opacity:1" d="M 304.691,955.252 314.527,966.493 z" id="boundary" inkscape:connector-curvature="0" />
	<path style="fill:none;stroke:red;stroke-width:1px;stroke-linecap:butt;stroke-linejoin:miter;stroke-opacity:1" d="M 308.907,657.371 322.958,658.776 z" id="boundary" inkscape:connector-curvature="0" />
	<path style="fill:none;stroke:red;stroke-width:1px;stroke-linecap:butt;stroke-linejoin:miter;stroke-opacity:1" d="M 313.122,996 327.173,996 z" id="boundary" inkscape:connector-curvature="0" />
	<path style="fill:none;stroke:red;stroke-width:1px;stroke-linecap:butt;stroke-linejoin:miter;stroke-opacity:1" d="M 314.527,112.193 325.768,102.357 z" id="boundary" inkscape:connector-curvature="0" />
	<path style="fill:none;stroke:red;stroke-width:1px;stroke-linecap:butt;stroke-linejoin:miter;stroke-opacity:1" d="M 314.527,966.493 328.578,966.493 z" id="boundary" inkscape:connector-curvature="0" />
	<path style="fill:none;stroke:red;stroke-width:1px;stroke-linecap:butt;stroke-linejoin:miter;stroke-opacity:1" d="M 322.958,658.776 334.198,667.207 z" id="boundary" inkscape:connector-curvature="0" />
	<path style="fill:none;stroke:red;stroke-width:1px;stroke-linecap:butt;stroke-linejoin:miter;stroke-opacity:1" d="M 325.768,102.357 335.603,91.1161 z" id="boundary" inkscape:connector-curvature="0" />
	<path style="fill:none;stroke:red;stroke-width:1px;stroke-linecap:butt;stroke-linejoin:miter;stroke-opacity:1" d="M 327.173,996 341.224,996 z" id="boundary" inkscape:connector-curvature="0" />
	<path style="fill:none;stroke:red;stroke-width:1px;stroke-linecap:butt;stroke-linejoin:miter;stroke-opacity:1" d="M 328.578,966.493 341.224,959.467 z" id="boundary" inkscape:connector-curvature="0" />
	<path style="fill:none;stroke:red;stroke-width:1px;stroke-linecap:butt;stroke-linejoin:miter;stroke-opacity:1" d="M 334.198,667.207 334.198,681.258 z" id="boundary" inkscape:connector-curvature="0" />
	<path style="fill:none;stroke:red;stroke-width:1px;stroke-linecap:butt;stroke-linejoin:miter;stroke-opacity:1" d="M 334.198,681.258 344.034,692.499 z" id="boundary" inkscape:connector-curvature="0" />
	<path style="fill:none;stroke:red;stroke-width:1px;stroke-linecap:butt;stroke-linejoin:miter;stroke-opacity:1" d="M 335.603,91.1161 342.629,77.0652 z" id="boundary" inkscape:connector-curvature="0" />
	<path style="fill:none;stroke:red;stroke-width:1px;stroke-linecap:butt;stroke-linejoin:miter;stroke-opacity:1" d="M 341.224,959.467 355.275,956.657 z" id="boundary" inkscape:connector-curvature="0" />
	<path style="fill:none;stroke:red;stroke-width:1px;stroke-linecap:butt;stroke-linejoin:miter;stroke-opacity:1" d="M 341.224,996 353.87,988.975 z" id="boundary" inkscape:connector-curvature="0" />
	<path style="fill:none;stroke:red;stroke-width:1px;stroke-linecap:butt;stroke-linejoin:miter;stroke-opacity:1" d="M 342.629,77.0652 353.87,67.2295 z" id="boundary" inkscape:connector-curvature="0" />
	<path style="fill:none;stroke:red;stroke-width:1px;stroke-linecap:butt;stroke-linejoin:miter;stroke-opacity:1" d="M 344.034,692.499 355.275,700.929 z" id="boundary" inkscape:connector-curvature="0" />
	<path style="fill:none;stroke:red;stroke-width:1px;stroke-linecap:butt;stroke-linejoin:miter;stroke-opacity:1" d="M 353.87,67.2295 362.3,50.3683 z" id="boundary" inkscape:connector-curvature="0" />
	<path style="fill:none;stroke:red;stroke-width:1px;stroke-linecap:butt;stroke-linejoin:miter;stroke-opacity:1" d="M 353.87,988.975 367.921,986.164 z" id="boundary" inkscape:connector-curvature="0" />
	<path style="fill:none;stroke:red;stroke-width:1px;stroke-linecap:butt;stroke-linejoin:miter;stroke-opacity:1" d="M 355.275,700.929 363.705,712.17 z" id="boundary" inkscape:connector-curvature="0" />
	<path style="fill:none;stroke:red;stroke-width:1px;stroke-linecap:butt;stroke-linejoin:miter;stroke-opacity:1" d="M 355.275,956.657 362.3,942.606 z" id="boundary" inkscape:connector-curvature="0" />
	<path style="fill:none;stroke:red;stroke-width:1px;stroke-linecap:butt;stroke-linejoin:miter;stroke-opacity:1" d="M 362.3,50.3683 369.326,36.3173 z" id="boundary" inkscape:connector-curvature="0" />
	<path style="fill:none;stroke:red;stroke-width:1px;stroke-linecap:butt;stroke-linejoin:miter;stroke-opacity:1" d="M 362.3,942.606 373.541,931.365 z" id="boundary" inkscape:connector-curvature="0" />
	<path style="fill:none;stroke:red;stroke-width:1px;stroke-linecap:butt;stroke-linejoin:miter;stroke-opacity:1" d="M 363.705,712.17 370.731,724.816 z" id="boundary" inkscape:connector-curvature="0" />
	<path style="fill:none;stroke:red;stroke-width:1px;stroke-linecap:butt;stroke-linejoin:miter;stroke-opacity:1" d="M 367.921,986.164 377.756,974.924 z" id="boundary" inkscape:connector-curvature="0" />
	<path style="fill:none;stroke:red;stroke-width:1px;stroke-linecap:butt;stroke-linejoin:miter;stroke-opacity:1" d="M 369.326,36.3173 380.567,25.0765 z" id="boundary" inkscape:connector-curvature="0" />
	<path style="fill:none;stroke:red;stroke-width:1px;stroke-linecap:butt;stroke-linejoin:miter;stroke-opacity:1" d="M 370.731,724.816 380.567,736.057 z" id="boundary" inkscape:connector-curvature="0" />
	<path style="fill:none;stroke:red;stroke-width:1px;stroke-linecap:butt;stroke-linejoin:miter;stroke-opacity:1" d="M 373.541,931.365 383.377,914.504 z" id="boundary" inkscape:connector-curvature="0" />
	<path style="fill:none;stroke:red;stroke-width:1px;stroke-linecap:butt;stroke-linejoin:miter;stroke-opacity:1" d="M 377.756,974.924 391.807,960.873 z" id="boundary" inkscape:connector-curvature="0" />
	<path style="fill:none;stroke:red;stroke-width:1px;stroke-linecap:butt;stroke-linejoin:miter;stroke-opacity:1" d="M 380.567,25.0765 391.807,13.8357 z" id="boundary" inkscape:connector-curvature="0" />
	<path style="fill:none;stroke:red;stroke-width:1px;stroke-linecap:butt;stroke-linejoin:miter;stroke-opacity:1" d="M 380.567,736.057 390.402,747.297 z" id="boundary" inkscape:connector-curvature="0" />
	<path style="fill:none;stroke:red;stroke-width:1px;stroke-linecap:butt;stroke-linejoin:miter;stroke-opacity:1" d="M 383.377,914.504 390.402,900.453 z" id="boundary" inkscape:connector-curvature="0" />
	<path style="fill:none;stroke:red;stroke-width:1px;stroke-linecap:butt;stroke-linejoin:miter;stroke-opacity:1" d="M 390.402,747.297 390.402,761.348 z" id="boundary" inkscape:connector-curvature="0" />
	<path style="fill:none;stroke:red;stroke-width:1px;stroke-linecap:butt;stroke-linejoin:miter;stroke-opacity:1" d="M 390.402,761.348 391.807,775.399 z" id="boundary" inkscape:connector-curvature="0" />
	<path style="fill:none;stroke:red;stroke-width:1px;stroke-linecap:butt;stroke-linejoin:miter;stroke-opacity:1" d="M 390.402,872.351 390.402,886.402 z" id="boundary" inkscape:connector-curvature="0" />
	<path style="fill:none;stroke:red;stroke-width:1px;stroke-linecap:butt;stroke-linejoin:miter;stroke-opacity:1" d="M 390.402,872.351 397.428,859.705 z" id="boundary" inkscape:connector-curvature="0" />
	<path style="fill:none;stroke:red;stroke-width:1px;stroke-linecap:butt;stroke-linejoin:miter;stroke-opacity:1" d="M 390.402,886.402 390.402,900.453 z" id="boundary" inkscape:connector-curvature="0" />
	<path style="fill:none;stroke:red;stroke-width:1px;stroke-linecap:butt;stroke-linejoin:miter;stroke-opacity:1" d="M 391.807,13.8357 403.048,4 z" id="boundary" inkscape:connector-curvature="0" />
	<path style="fill:none;stroke:red;stroke-width:1px;stroke-linecap:butt;stroke-linejoin:miter;stroke-opacity:1" d="M 391.807,775.399 397.428,789.45 z" id="boundary" inkscape:connector-curvature="0" />
	<path style="fill:none;stroke:red;stroke-width:1px;stroke-linecap:butt;stroke-linejoin:miter;stroke-opacity:1" d="M 391.807,960.873 398.833,946.822 z" id="boundary" inkscape:connector-curvature="0" />
	<path style="fill:none;stroke:red;stroke-width:1px;stroke-linecap:butt;stroke-linejoin:miter;stroke-opacity:1" d="M 397.428,789.45 397.428,803.501 z" id="boundary" inkscape:connector-curvature="0" />
	<path style="fill:none;stroke:red;stroke-width:1px;stroke-linecap:butt;stroke-linejoin:miter;stroke-opacity:1" d="M 397.428,803.501 397.428,817.552 z" id="boundary" inkscape:connector-curvature="0" />
	<path style="fill:none;stroke:red;stroke-width:1px;stroke-linecap:butt;stroke-linejoin:miter;stroke-opacity:1" d="M 397.428,817.552 397.428,831.603 z" id="boundary" inkscape:connector-curvature="0" />
	<path style="fill:none;stroke:red;stroke-width:1px;stroke-linecap:butt;stroke-linejoin:miter;stroke-opacity:1" d="M 397.428,831.603 397.428,845.654 z" id="boundary" inkscape:connector-curvature="0" />
	<path style="fill:none;stroke:red;stroke-width:1px;stroke-linecap:butt;stroke-linejoin:miter;stroke-opacity:1" d="M 397.428,845.654 397.428,859.705 z" id="boundary" inkscape:connector-curvature="0" />
	<path style="fill:none;stroke:red;stroke-width:1px;stroke-linecap:butt;stroke-linejoin:miter;stroke-opacity:1" d="M 398.833,946.822 410.074,936.986 z" id="boundary" inkscape:connector-curvature="0" />
	<path style="fill:none;stroke:red;stroke-width:1px;stroke-linecap:butt;stroke-linejoin:miter;stroke-opacity:1" d="M 403.048,4 417.099,4 z" id="boundary" inkscape:connector-curvature="0" />
	<path style="fill:none;stroke:red;stroke-width:1px;stroke-linecap:butt;stroke-linejoin:miter;stroke-opacity:1" d="M 410.074,936.986 419.909,918.72 z" id="boundary" inkscape:connector-curvature="0" />
	<path style="fill:none;stroke:red;stroke-width:1px;stroke-linecap:butt;stroke-linejoin:miter;stroke-opacity:1" d="M 417.099,4 429.745,11.0255 z" id="boundary" inkscape:connector-curvature="0" />
	<path style="fill:none;stroke:red;stroke-width:1px;stroke-linecap:butt;stroke-linejoin:miter;stroke-opacity:1" d="M 419.909,918.72 426.935,904.669 z" id="boundary" inkscape:connector-curvature="0" />
	<path style="fill:none;stroke:red;stroke-width:1px;stroke-linecap:butt;stroke-linejoin:miter;stroke-opacity:1" d="M 426.935,904.669 433.96,883.592 z" id="boundary" inkscape:connector-curvature="0" />
	<path style="fill:none;stroke:red;stroke-width:1px;stroke-linecap:butt;stroke-linejoin:miter;stroke-opacity:1" d="M 429.745,11.0255 433.96,25.0765 z" id="boundary" inkscape:connector-curvature="0" />
	<path style="fill:none;stroke:red;stroke-width:1px;stroke-linecap:butt;stroke-linejoin:miter;stroke-opacity:1" d="M 433.96,25.0765 440.986,37.7224 z" id="boundary" inkscape:connector-curvature="0" />
	<path style="fill:none;stroke:red;stroke-width:1px;stroke-linecap:butt;stroke-linejoin:miter;stroke-opacity:1" d="M 433.96,869.541 433.96,883.592 z" id="boundary" inkscape:connector-curvature="0" />
	<path style="fill:none;stroke:red;stroke-width:1px;stroke-linecap:butt;stroke-linejoin:miter;stroke-opacity:1" d="M 433.96,869.541 440.986,848.465 z" id="boundary" inkscape:connector-curvature="0" />
	<path style="fill:none;stroke:red;stroke-width:1px;stroke-linecap:butt;stroke-linejoin:miter;stroke-opacity:1" d="M 440.986,37.7224 452.227,47.5581 z" id="boundary" inkscape:connector-curvature="0" />
	<path style="fill:none;stroke:red;stroke-width:1px;stroke-linecap:butt;stroke-linejoin:miter;stroke-opacity:1" d="M 440.986,743.082 440.986,757.133 z" id="boundary" inkscape:connector-curvature="0" />
	<path style="fill:none;stroke:red;stroke-width:1px;stroke-linecap:butt;stroke-linejoin:miter;stroke-opacity:1" d="M 440.986,743.082 448.011,729.031 z" id="boundary" inkscape:connector-curvature="0" />
	<path style="fill:none;stroke:red;stroke-width:1px;stroke-linecap:butt;stroke-linejoin:miter;stroke-opacity:1" d="M 440.986,757.133 440.986,771.184 z" id="boundary" inkscape:connector-curvature="0" />
	<path style="fill:none;stroke:red;stroke-width:1px;stroke-linecap:butt;stroke-linejoin:miter;stroke-opacity:1" d="M 440.986,771.184 448.011,783.83 z" id="boundary" inkscape:connector-curvature="0" />
	<path style="fill:none;stroke:red;stroke-width:1px;stroke-linecap:butt;stroke-linejoin:miter;stroke-opacity:1" d="M 440.986,806.312 440.986,820.363 z" id="boundary" inkscape:connector-curvature="0" />
	<path style="fill:none;stroke:red;stroke-width:1px;stroke-linecap:butt;stroke-linejoin:miter;stroke-opacity:1" d="M 440.986,806.312 448.011,783.83 z" id="boundary" inkscape:connector-curvature="0" />
	<path style="fill:none;stroke:red;stroke-width:1px;stroke-linecap:butt;stroke-linejoin:miter;stroke-opacity:1" d="M 440.986,820.363 440.986,834.414 z" id="boundary" inkscape:connector-curvature="0" />
	<path style="fill:none;stroke:red;stroke-width:1px;stroke-linecap:butt;stroke-linejoin:miter;stroke-opacity:1" d="M 440.986,834.414 440.986,848.465 z" id="boundary" inkscape:connector-curvature="0" />
	<path style="fill:none;stroke:red;stroke-width:1px;stroke-linecap:butt;stroke-linejoin:miter;stroke-opacity:1" d="M 448.011,729.031 459.252,719.195 z" id="boundary" inkscape:connector-curvature="0" />
	<path style="fill:none;stroke:red;stroke-width:1px;stroke-linecap:butt;stroke-linejoin:miter;stroke-opacity:1" d="M 452.227,47.5581 462.062,58.7989 z" id="boundary" inkscape:connector-curvature="0" />
	<path style="fill:none;stroke:red;stroke-width:1px;stroke-linecap:butt;stroke-linejoin:miter;stroke-opacity:1" d="M 459.252,719.195 473.303,714.98 z" id="boundary" inkscape:connector-curvature="0" />
	<path style="fill:none;stroke:red;stroke-width:1px;stroke-linecap:butt;stroke-linejoin:miter;stroke-opacity:1" d="M 462.062,58.7989 473.303,68.6346 z" id="boundary" inkscape:connector-curvature="0" />
	<path style="fill:none;stroke:red;stroke-width:1px;stroke-linecap:butt;stroke-linejoin:miter;stroke-opacity:1" d="M 473.303,68.6346 483.139,79.8754 z" id="boundary" inkscape:connector-curvature="0" />
	<path style="fill:none;stroke:red;stroke-width:1px;stroke-linecap:butt;stroke-linejoin:miter;stroke-opacity:1" d="M 473.303,714.98 485.949,706.55 z" id="boundary" inkscape:connector-curvature="0" />
	<path style="fill:none;stroke:red;stroke-width:1px;stroke-linecap:butt;stroke-linejoin:miter;stroke-opacity:1" d="M 483.139,79.8754 494.38,89.711 z" id="boundary" inkscape:connector-curvature="0" />
	<path style="fill:none;stroke:red;stroke-width:1px;stroke-linecap:butt;stroke-linejoin:miter;stroke-opacity:1" d="M 483.139,672.827 490.164,685.473 z" id="boundary" inkscape:connector-curvature="0" />
	<path style="fill:none;stroke:red;stroke-width:1px;stroke-linecap:butt;stroke-linejoin:miter;stroke-opacity:1" d="M 483.139,672.827 494.38,662.992 z" id="boundary" inkscape:connector-curvature="0" />
	<path style="fill:none;stroke:red;stroke-width:1px;stroke-linecap:butt;stroke-linejoin:miter;stroke-opacity:1" d="M 485.949,706.55 490.164,685.473 z" id="boundary" inkscape:connector-curvature="0" />
	<path style="fill:none;stroke:red;stroke-width:1px;stroke-linecap:butt;stroke-linejoin:miter;stroke-opacity:1" d="M 494.38,89.711 500,103.762 z" id="boundary" inkscape:connector-curvature="0" />
	<path style="fill:none;stroke:red;stroke-width:1px;stroke-linecap:butt;stroke-linejoin:miter;stroke-opacity:1" d="M 494.38,662.992 504.215,651.751 z" id="boundary" inkscape:connector-curvature="0" />
	<path style="fill:none;stroke:red;stroke-width:1px;stroke-linecap:butt;stroke-linejoin:miter;stroke-opacity:1" d="M 500,103.762 511.241,113.598 z" id="boundary" inkscape:connector-curvature="0" />
	<path style="fill:none;stroke:red;stroke-width:1px;stroke-linecap:butt;stroke-linejoin:miter;stroke-opacity:1" d="M 504.215,651.751 518.266,644.725 z" id="boundary" inkscape:connector-curvature="0" />
	<path style="fill:none;stroke:red;stroke-width:1px;stroke-linecap:butt;stroke-linejoin:miter;stroke-opacity:1" d="M 511.241,113.598 521.076,124.839 z" id="boundary" inkscape:connector-curvature="0" />
	<path style="fill:none;stroke:red;stroke-width:1px;stroke-linecap:butt;stroke-linejoin:miter;stroke-opacity:1" d="M 518.266,644.725 529.507,634.89 z" id="boundary" inkscape:connector-curvature="0" />
	<path style="fill:none;stroke:red;stroke-width:1px;stroke-linecap:butt;stroke-linejoin:miter;stroke-opacity:1" d="M 521.076,124.839 532.317,134.674 z" id="boundary" inkscape:connector-curvature="0" />
	<path style="fill:none;stroke:red;stroke-width:1px;stroke-linecap:butt;stroke-linejoin:miter;stroke-opacity:1" d="M 529.507,634.89 543.558,627.864 z" id="boundary" inkscape:connector-curvature="0" />
	<path style="fill:none;stroke:red;stroke-width:1px;stroke-linecap:butt;stroke-linejoin:miter;stroke-opacity:1" d="M 532.317,134.674 539.343,147.32 z" id="boundary" inkscape:connector-curvature="0" />
	<path style="fill:none;stroke:red;stroke-width:1px;stroke-linecap:butt;stroke-linejoin:miter;stroke-opacity:1" d="M 539.343,147.32 547.773,158.561 z" id="boundary" inkscape:connector-curvature="0" />
	<path style="fill:none;stroke:red;stroke-width:1px;stroke-linecap:butt;stroke-linejoin:miter;stroke-opacity:1" d="M 543.558,627.864 557.609,620.839 z" id="boundary" inkscape:connector-curvature="0" />
	<path style="fill:none;stroke:red;stroke-width:1px;stroke-linecap:butt;stroke-linejoin:miter;stroke-opacity:1" d="M 547.773,158.561 559.014,168.397 z" id="boundary" inkscape:connector-curvature="0" />
	<path style="fill:none;stroke:red;stroke-width:1px;stroke-linecap:butt;stroke-linejoin:miter;stroke-opacity:1" d="M 557.609,620.839 567.445,609.598 z" id="boundary" inkscape:connector-curvature="0" />
	<path style="fill:none;stroke:red;stroke-width:1px;stroke-linecap:butt;stroke-linejoin:miter;stroke-opacity:1" d="M 559.014,168.397 567.445,179.637 z" id="boundary" inkscape:connector-curvature="0" />
	<path style="fill:none;stroke:red;stroke-width:1px;stroke-linecap:butt;stroke-linejoin:miter;stroke-opacity:1" d="M 567.445,179.637 574.47,192.283 z" id="boundary" inkscape:connector-curvature="0" />
	<path style="fill:none;stroke:red;stroke-width:1px;stroke-linecap:butt;stroke-linejoin:miter;stroke-opacity:1" d="M 567.445,609.598 581.496,602.572 z" id="boundary" inkscape:connector-curvature="0" />
	<path style="fill:none;stroke:red;stroke-width:1px;stroke-linecap:butt;stroke-linejoin:miter;stroke-opacity:1" d="M 574.47,192.283 585.711,202.119 z" id="boundary" inkscape:connector-curvature="0" />
	<path style="fill:none;stroke:red;stroke-width:1px;stroke-linecap:butt;stroke-linejoin:miter;stroke-opacity:1" d="M 581.496,602.572 595.547,595.547 z" id="boundary" inkscape:connector-curvature="0" />
	<path style="fill:none;stroke:red;stroke-width:1px;stroke-linecap:butt;stroke-linejoin:miter;stroke-opacity:1" d="M 585.711,202.119 595.547,213.36 z" id="boundary" inkscape:connector-curvature="0" />
	<path style="fill:none;stroke:red;stroke-width:1px;stroke-linecap:butt;stroke-linejoin:miter;stroke-opacity:1" d="M 595.547,213.36 606.788,223.195 z" id="boundary" inkscape:connector-curvature="0" />
	<path style="fill:none;stroke:red;stroke-width:1px;stroke-linecap:butt;stroke-linejoin:miter;stroke-opacity:1" d="M 595.547,595.547 606.788,585.711 z" id="boundary" inkscape:connector-curvature="0" />
	<path style="fill:none;stroke:red;stroke-width:1px;stroke-linecap:butt;stroke-linejoin:miter;stroke-opacity:1" d="M 606.788,223.195 616.623,234.436 z" id="boundary" inkscape:connector-curvature="0" />
	<path style="fill:none;stroke:red;stroke-width:1px;stroke-linecap:butt;stroke-linejoin:miter;stroke-opacity:1" d="M 606.788,585.711 620.839,578.686 z" id="boundary" inkscape:connector-curvature="0" />
	<path style="fill:none;stroke:red;stroke-width:1px;stroke-linecap:butt;stroke-linejoin:miter;stroke-opacity:1" d="M 616.623,234.436 627.864,244.272 z" id="boundary" inkscape:connector-curvature="0" />
	<path style="fill:none;stroke:red;stroke-width:1px;stroke-linecap:butt;stroke-linejoin:miter;stroke-opacity:1" d="M 620.839,578.686 634.89,571.66 z" id="boundary" inkscape:connector-curvature="0" />
	<path style="fill:none;stroke:red;stroke-width:1px;stroke-linecap:butt;stroke-linejoin:miter;stroke-opacity:1" d="M 627.864,244.272 637.7,255.513 z" id="boundary" inkscape:connector-curvature="0" />
	<path style="fill:none;stroke:red;stroke-width:1px;stroke-linecap:butt;stroke-linejoin:miter;stroke-opacity:1" d="M 634.89,571.66 644.725,560.419 z" id="boundary" inkscape:connector-curvature="0" />
	<path style="fill:none;stroke:red;stroke-width:1px;stroke-linecap:butt;stroke-linejoin:miter;stroke-opacity:1" d="M 637.7,255.513 648.941,265.348 z" id="boundary" inkscape:connector-curvature="0" />
	<path style="fill:none;stroke:red;stroke-width:1px;stroke-linecap:butt;stroke-linejoin:miter;stroke-opacity:1" d="M 644.725,560.419 658.776,553.394 z" id="boundary" inkscape:connector-curvature="0" />
	<path style="fill:none;stroke:red;stroke-width:1px;stroke-linecap:butt;stroke-linejoin:miter;stroke-opacity:1" d="M 648.941,265.348 658.776,276.589 z" id="boundary" inkscape:connector-curvature="0" />
	<path style="fill:none;stroke:red;stroke-width:1px;stroke-linecap:butt;stroke-linejoin:miter;stroke-opacity:1" d="M 658.776,276.589 670.017,285.02 z" id="boundary" inkscape:connector-curvature="0" />
	<path style="fill:none;stroke:red;stroke-width:1px;stroke-linecap:butt;stroke-linejoin:miter;stroke-opacity:1" d="M 658.776,553.394 672.827,546.368 z" id="boundary" inkscape:connector-curvature="0" />
	<path style="fill:none;stroke:red;stroke-width:1px;stroke-linecap:butt;stroke-linejoin:miter;stroke-opacity:1" d="M 670.017,285.02 682.663,292.045 z" id="boundary" inkscape:connector-curvature="0" />
	<path style="fill:none;stroke:red;stroke-width:1px;stroke-linecap:butt;stroke-linejoin:miter;stroke-opacity:1" d="M 672.827,546.368 685.473,539.343 z" id="boundary" inkscape:connector-curvature="0" />
	<path style="fill:none;stroke:red;stroke-width:1px;stroke-linecap:butt;stroke-linejoin:miter;stroke-opacity:1" d="M 682.663,292.045 692.499,303.286 z" id="boundary" inkscape:connector-curvature="0" />
	<path style="fill:none;stroke:red;stroke-width:1px;stroke-linecap:butt;stroke-linejoin:miter;stroke-opacity:1" d="M 685.473,539.343 698.119,532.317 z" id="boundary" inkscape:connector-curvature="0" />
	<path style="fill:none;stroke:red;stroke-width:1px;stroke-linecap:butt;stroke-linejoin:miter;stroke-opacity:1" d="M 692.499,303.286 703.739,313.122 z" id="boundary" inkscape:connector-curvature="0" />
	<path style="fill:none;stroke:red;stroke-width:1px;stroke-linecap:butt;stroke-linejoin:miter;stroke-opacity:1" d="M 698.119,532.317 710.765,525.292 z" id="boundary" inkscape:connector-curvature="0" />
	<path style="fill:none;stroke:red;stroke-width:1px;stroke-linecap:butt;stroke-linejoin:miter;stroke-opacity:1" d="M 703.739,313.122 713.575,324.363 z" id="boundary" inkscape:connector-curvature="0" />
	<path style="fill:none;stroke:red;stroke-width:1px;stroke-linecap:butt;stroke-linejoin:miter;stroke-opacity:1" d="M 710.765,525.292 723.411,518.266 z" id="boundary" inkscape:connector-curvature="0" />
	<path style="fill:none;stroke:red;stroke-width:1px;stroke-linecap:butt;stroke-linejoin:miter;stroke-opacity:1" d="M 713.575,324.363 724.816,334.198 z" id="boundary" inkscape:connector-curvature="0" />
	<path style="fill:none;stroke:red;stroke-width:1px;stroke-linecap:butt;stroke-linejoin:miter;stroke-opacity:1" d="M 723.411,518.266 736.057,511.241 z" id="boundary" inkscape:connector-curvature="0" />
	<path style="fill:none;stroke:red;stroke-width:1px;stroke-linecap:butt;stroke-linejoin:miter;stroke-opacity:1" d="M 724.816,334.198 734.652,345.439 z" id="boundary" inkscape:connector-curvature="0" />
	<path style="fill:none;stroke:red;stroke-width:1px;stroke-linecap:butt;stroke-linejoin:miter;stroke-opacity:1" d="M 734.652,345.439 745.892,355.275 z" id="boundary" inkscape:connector-curvature="0" />
	<path style="fill:none;stroke:red;stroke-width:1px;stroke-linecap:butt;stroke-linejoin:miter;stroke-opacity:1" d="M 736.057,511.241 748.703,504.215 z" id="boundary" inkscape:connector-curvature="0" />
	<path style="fill:none;stroke:red;stroke-width:1px;stroke-linecap:butt;stroke-linejoin:miter;stroke-opacity:1" d="M 745.892,355.275 755.728,366.516 z" id="boundary" inkscape:connector-curvature="0" />
	<path style="fill:none;stroke:red;stroke-width:1px;stroke-linecap:butt;stroke-linejoin:miter;stroke-opacity:1" d="M 748.703,504.215 759.943,495.785 z" id="boundary" inkscape:connector-curvature="0" />
	<path style="fill:none;stroke:red;stroke-width:1px;stroke-linecap:butt;stroke-linejoin:miter;stroke-opacity:1" d="M 755.728,366.516 769.779,372.136 z" id="boundary" inkscape:connector-curvature="0" />
	<path style="fill:none;stroke:red;stroke-width:1px;stroke-linecap:butt;stroke-linejoin:miter;stroke-opacity:1" d="M 759.943,495.785 771.184,483.139 z" id="boundary" inkscape:connector-curvature="0" />
	<path style="fill:none;stroke:red;stroke-width:1px;stroke-linecap:butt;stroke-linejoin:miter;stroke-opacity:1" d="M 769.779,372.136 778.21,383.377 z" id="boundary" inkscape:connector-curvature="0" />
	<path style="fill:none;stroke:red;stroke-width:1px;stroke-linecap:butt;stroke-linejoin:miter;stroke-opacity:1" d="M 771.184,483.139 785.235,469.088 z" id="boundary" inkscape:connector-curvature="0" />
	<path style="fill:none;stroke:red;stroke-width:1px;stroke-linecap:butt;stroke-linejoin:miter;stroke-opacity:1" d="M 778.21,383.377 785.235,396.023 z" id="boundary" inkscape:connector-curvature="0" />
	<path style="fill:none;stroke:red;stroke-width:1px;stroke-linecap:butt;stroke-linejoin:miter;stroke-opacity:1" d="M 785.235,396.023 792.261,408.669 z" id="boundary" inkscape:connector-curvature="0" />
	<path style="fill:none;stroke:red;stroke-width:1px;stroke-linecap:butt;stroke-linejoin:miter;stroke-opacity:1" d="M 785.235,469.088 792.261,448.011 z" id="boundary" inkscape:connector-curvature="0" />
	<path style="fill:none;stroke:red;stroke-width:1px;stroke-linecap:butt;stroke-linejoin:miter;stroke-opacity:1" d="M 792.261,408.669 797.881,422.72 z" id="boundary" inkscape:connector-curvature="0" />
	<path style="fill:none;stroke:red;stroke-width:1px;stroke-linecap:butt;stroke-linejoin:miter;stroke-opacity:1" d="M 792.261,448.011 797.881,422.72 z" id="boundary" inkscape:connector-curvature="0" />
	<circle cx="4" cy="429.745" r="4" fill="#0" id="circle0"/>
	<circle cx="4" cy="443.796" r="4" fill="#0" id="circle1"/>
	<circle cx="11.0255" cy="408.669" r="4" fill="#0" id="circle2"/>
	<circle cx="11.0255" cy="456.442" r="4" fill="#0" id="circle3"/>
	<circle cx="18.051" cy="394.618" r="4" fill="#0" id="circle4"/>
	<circle cx="18.051" cy="469.088" r="4" fill="#0" id="circle5"/>
	<circle cx="29.2918" cy="383.377" r="4" fill="#0" id="circle6"/>
	<circle cx="30.6969" cy="476.113" r="4" fill="#0" id="circle7"/>
	<circle cx="40.5326" cy="372.136" r="4" fill="#0" id="circle8"/>
	<circle cx="40.5326" cy="487.354" r="4" fill="#0" id="circle9"/>
	<circle cx="51.7734" cy="362.3" r="4" fill="#0" id="circle10"/>
	<circle cx="51.7734" cy="497.19" r="4" fill="#0" id="circle11"/>
	<circle cx="64.4193" cy="355.275" r="4" fill="#0" id="circle12"/>
	<circle cx="64.4193" cy="504.215" r="4" fill="#0" id="circle13"/>
	<circle cx="75.6601" cy="344.034" r="4" fill="#0" id="circle14"/>
	<circle cx="78.4703" cy="509.836" r="4" fill="#0" id="circle15"/>
	<circle cx="86.9008" cy="334.198" r="4" fill="#0" id="circle16"/>
	<circle cx="89.711" cy="518.266" r="4" fill="#0" id="circle17"/>
	<circle cx="96.7365" cy="322.958" r="4" fill="#0" id="circle18"/>
	<circle cx="102.357" cy="525.292" r="4" fill="#0" id="circle19"/>
	<circle cx="110.788" cy="315.932" r="4" fill="#0" id="circle20"/>
	<circle cx="115.003" cy="532.317" r="4" fill="#0" id="circle21"/>
	<circle cx="124.839" cy="308.907" r="4" fill="#0" id="circle22"/>
	<circle cx="127.649" cy="539.343" r="4" fill="#0" id="circle23"/>
	<circle cx="136.079" cy="299.071" r="4" fill="#0" id="circle24"/>
	<circle cx="140.295" cy="546.368" r="4" fill="#0" id="circle25"/>
	<circle cx="145.915" cy="287.83" r="4" fill="#0" id="circle26"/>
	<circle cx="152.941" cy="553.394" r="4" fill="#0" id="circle27"/>
	<circle cx="157.156" cy="277.994" r="4" fill="#0" id="circle28"/>
	<circle cx="165.586" cy="560.419" r="4" fill="#0" id="circle29"/>
	<circle cx="169.802" cy="270.969" r="4" fill="#0" id="circle30"/>
	<circle cx="178.232" cy="567.445" r="4" fill="#0" id="circle31"/>
	<circle cx="181.042" cy="259.728" r="4" fill="#0" id="circle32"/>
	<circle cx="190.878" cy="574.47" r="4" fill="#0" id="circle33"/>
	<circle cx="192.283" cy="249.892" r="4" fill="#0" id="circle34"/>
	<circle cx="202.119" cy="238.652" r="4" fill="#0" id="circle35"/>
	<circle cx="202.119" cy="584.306" r="4" fill="#0" id="circle36"/>
	<circle cx="207.739" cy="942.606" r="4" fill="#0" id="circle37"/>
	<circle cx="207.739" cy="956.657" r="4" fill="#0" id="circle38"/>
	<circle cx="211.955" cy="595.547" r="4" fill="#0" id="circle39"/>
	<circle cx="213.36" cy="228.816" r="4" fill="#0" id="circle40"/>
	<circle cx="218.98" cy="966.493" r="4" fill="#0" id="circle41"/>
	<circle cx="221.79" cy="935.581" r="4" fill="#0" id="circle42"/>
	<circle cx="223.195" cy="217.575" r="4" fill="#0" id="circle43"/>
	<circle cx="226.006" cy="601.167" r="4" fill="#0" id="circle44"/>
	<circle cx="230.221" cy="203.524" r="4" fill="#0" id="circle45"/>
	<circle cx="231.626" cy="973.518" r="4" fill="#0" id="circle46"/>
	<circle cx="235.841" cy="941.201" r="4" fill="#0" id="circle47"/>
	<circle cx="238.652" cy="608.193" r="4" fill="#0" id="circle48"/>
	<circle cx="241.462" cy="193.688" r="4" fill="#0" id="circle49"/>
	<circle cx="244.272" cy="952.442" r="4" fill="#0" id="circle50"/>
	<circle cx="245.677" cy="979.139" r="4" fill="#0" id="circle51"/>
	<circle cx="249.892" cy="616.623" r="4" fill="#0" id="circle52"/>
	<circle cx="251.297" cy="182.448" r="4" fill="#0" id="circle53"/>
	<circle cx="256.918" cy="959.467" r="4" fill="#0" id="circle54"/>
	<circle cx="258.323" cy="627.864" r="4" fill="#0" id="circle55"/>
	<circle cx="258.323" cy="986.164" r="4" fill="#0" id="circle56"/>
	<circle cx="262.538" cy="172.612" r="4" fill="#0" id="circle57"/>
	<circle cx="269.564" cy="966.493" r="4" fill="#0" id="circle58"/>
	<circle cx="270.969" cy="155.751" r="4" fill="#0" id="circle59"/>
	<circle cx="272.374" cy="633.484" r="4" fill="#0" id="circle60"/>
	<circle cx="272.374" cy="988.975" r="4" fill="#0" id="circle61"/>
	<circle cx="277.994" cy="949.632" r="4" fill="#0" id="circle62"/>
	<circle cx="282.21" cy="144.51" r="4" fill="#0" id="circle63"/>
	<circle cx="285.02" cy="640.51" r="4" fill="#0" id="circle64"/>
	<circle cx="285.02" cy="996" r="4" fill="#0" id="circle65"/>
	<circle cx="292.045" cy="948.227" r="4" fill="#0" id="circle66"/>
	<circle cx="293.45" cy="133.269" r="4" fill="#0" id="circle67"/>
	<circle cx="296.261" cy="650.346" r="4" fill="#0" id="circle68"/>
	<circle cx="299.071" cy="996" r="4" fill="#0" id="circle69"/>
	<circle cx="304.691" cy="123.433" r="4" fill="#0" id="circle70"/>
	<circle cx="304.691" cy="955.252" r="4" fill="#0" id="circle71"/>
	<circle cx="308.907" cy="657.371" r="4" fill="#0" id="circle72"/>
	<circle cx="313.122" cy="996" r="4" fill="#0" id="circle73"/>
	<circle cx="314.527" cy="112.193" r="4" fill="#0" id="circle74"/>
	<circle cx="314.527" cy="966.493" r="4" fill="#0" id="circle75"/>
	<circle cx="322.958" cy="658.776" r="4" fill="#0" id="circle76"/>
	<circle cx="325.768" cy="102.357" r="4" fill="#0" id="circle77"/>
	<circle cx="327.173" cy="996" r="4" fill="#0" id="circle78"/>
	<circle cx="328.578" cy="966.493" r="4" fill="#0" id="circle79"/>
	<circle cx="334.198" cy="667.207" r="4" fill="#0" id="circle80"/>
	<circle cx="334.198" cy="681.258" r="4" fill="#0" id="circle81"/>
	<circle cx="335.603" cy="91.1161" r="4" fill="#0" id="circle82"/>
	<circle cx="341.224" cy="959.467" r="4" fill="#0" id="circle83"/>
	<circle cx="341.224" cy="996" r="4" fill="#0" id="circle84"/>
	<circle cx="342.629" cy="77.0652" r="4" fill="#0" id="circle85"/>
	<circle cx="344.034" cy="692.499" r="4" fill="#0" id="circle86"/>
	<circle cx="353.87" cy="67.2295" r="4" fill="#0" id="circle87"/>
	<circle cx="353.87" cy="988.975" r="4" fill="#0" id="circle88"/>
	<circle cx="355.275" cy="700.929" r="4" fill="#0" id="circle89"/>
	<circle cx="355.275" cy="956.657" r="4" fill="#0" id="circle90"/>
	<circle cx="362.3" cy="50.3683" r="4" fill="#0" id="circle91"/>
	<circle cx="362.3" cy="942.606" r="4" fill="#0" id="circle92"/>
	<circle cx="363.705" cy="712.17" r="4" fill="#0" id="circle93"/>
	<circle cx="367.921" cy="986.164" r="4" fill="#0" id="circle94"/>
	<circle cx="369.326" cy="36.3173" r="4" fill="#0" id="circle95"/>
	<circle cx="370.731" cy="724.816" r="4" fill="#0" id="circle96"/>
	<circle cx="373.541" cy="931.365" r="4" fill="#0" id="circle97"/>
	<circle cx="377.756" cy="974.924" r="4" fill="#0" id="circle98"/>
	<circle cx="380.567" cy="25.0765" r="4" fill="#0" id="circle99"/>
	<circle cx="380.567" cy="736.057" r="4" fill="#0" id="circle100"/>
	<circle cx="383.377" cy="914.504" r="4" fill="#0" id="circle101"/>
	<circle cx="390.402" cy="747.297" r="4" fill="#0" id="circle102"/>
	<circle cx="390.402" cy="761.348" r="4" fill="#0" id="circle103"/>
	<circle cx="390.402" cy="872.351" r="4" fill="#0" id="circle104"/>
	<circle cx="390.402" cy="886.402" r="4" fill="#0" id="circle105"/>
	<circle cx="390.402" cy="900.453" r="4" fill="#0" id="circle106"/>
	<circle cx="391.807" cy="13.8357" r="4" fill="#0" id="circle107"/>
	<circle cx="391.807" cy="775.399" r="4" fill="#0" id="circle108"/>
	<circle cx="391.807" cy="960.873" r="4" fill="#0" id="circle109"/>
	<circle cx="397.428" cy="789.45" r="4" fill="#0" id="circle110"/>
	<circle cx="397.428" cy="803.501" r="4" fill="#0" id="circle111"/>
	<circle cx="397.428" cy="817.552" r="4" fill="#0" id="circle112"/>
	<circle cx="397.428" cy="831.603" r="4" fill="#0" id="circle113"/>
	<circle cx="397.428" cy="845.654" r="4" fill="#0" id="circle114"/>
	<circle cx="397.428" cy="859.705" r="4" fill="#0" id="circle115"/>
	<circle cx="398.833" cy="946.822" r="4" fill="#0" id="circle116"/>
	<circle cx="403.048" cy="4" r="4" fill="#0" id="circle117"/>
	<circle cx="410.074" cy="936.986" r="4" fill="#0" id="circle118"/>
	<circle cx="417.099" cy="4" r="4" fill="#0" id="circle119"/>
	<circle cx="419.909" cy="918.72" r="4" fill="#0" id="circle120"/>
	<circle cx="426.935" cy="904.669" r="4" fill="#0" id="circle121"/>
	<circle cx="429.745" cy="11.0255" r="4" fill="#0" id="circle122"/>
	<circle cx="433.96" cy="25.0765" r="4" fill="#0" id="circle123"/>
	<circle cx="433.96" cy="869.541" r="4" fill="#0" id="circle124"/>
	<circle cx="433.96" cy="883.592" r="4" fill="#0" id="circle125"/>
	<circle cx="440.986" cy="37.7224" r="4" fill="#0" id="circle126"/>
	<circle cx="440.986" cy="743.082" r="4" fill="#0" id="circle127"/>
	<circle cx="440.986" cy="757.133" r="4" fill="#0" id="circle128"/>
	<circle cx="440.986" cy="771.184" r="4" fill="#0" id="circle129"/>
	<circle cx="440.986" cy="806.312" r="4" fill="#0" id="circle130"/>
	<circle cx="440.986" cy="820.363" r="4" fill="#0" id="circle131"/>
	<circle cx="440.986" cy="834.414" r="4" fill="#0" id="circle132"/>
	<circle cx="440.986" cy="848.465" r="4" fill="#0" id="circle133"/>
	<circle cx="448.011" cy="729.031" r="4" fill="#0" id="circle134"/>
	<circle cx="448.011" cy="783.83" r="4" fill="#0" id="circle135"/>
	<circle cx="452.227" cy="47.5581" r="4" fill="#0" id="circle136"/>
	<circle cx="459.252" cy="719.195" r="4" fill="#0" id="circle137"/>
	<circle cx="462.062" cy="58.7989" r="4" fill="#0" id="circle138"/>
	<circle cx="473.303" cy="68.6346" r="4" fill="#0" id="circle139"/>
	<circle cx="473.303" cy="714.98" r="4" fill="#0" id="circle140"/>
	<circle cx="483.139" cy="79.8754" r="4" fill="#0" id="circle141"/>
	<circle cx="483.139" cy="672.827" r="4" fill="#0" id="circle142"/>
	<circle cx="485.949" cy="706.55" r="4" fill="#0" id="circle143"/>
	<circle cx="490.164" cy="685.473" r="4" fill="#0" id="circle144"/>
	<circle cx="494.38" cy="89.711" r="4" fill="#0" id="circle145"/>
	<circle cx="494.38" cy="662.992" r="4" fill="#0" id="circle146"/>
	<circle cx="500" cy="103.762" r="4" fill="#0" id="circle147"/>
	<circle cx="504.215" cy="651.751" r="4" fill="#0" id="circle148"/>
	<circle cx="511.241" cy="113.598" r="4" fill="#0" id="circle149"/>
	<circle cx="518.266" cy="644.725" r="4" fill="#0" id="circle150"/>
	<circle cx="521.076" cy="124.839" r="4" fill="#0" id="circle151"/>
	<circle cx="529.507" cy="634.89" r="4" fill="#0" id="circle152"/>
	<circle cx="532.317" cy="134.674" r="4" fill="#0" id="circle153"/>
	<circle cx="539.343" cy="147.32" r="4" fill="#0" id="circle154"/>
	<circle cx="543.558" cy="627.864" r="4" fill="#0" id="circle155"/>
	<circle cx="547.773" cy="158.561" r="4" fill="#0" id="circle156"/>
	<circle cx="557.609" cy="620.839" r="4" fill="#0" id="circle157"/>
	<circle cx="559.014" cy="168.397" r="4" fill="#0" id="circle158"/>
	<circle cx="567.445" cy="179.637" r="4" fill="#0" id="circle159"/>
	<circle cx="567.445" cy="609.598" r="4" fill="#0" id="circle160"/>
	<circle cx="574.47" cy="192.283" r="4" fill="#0" id="circle161"/>
	<circle cx="581.496" cy="602.572" r="4" fill="#0" id="circle162"/>
	<circle cx="585.711" cy="202.119" r="4" fill="#0" id="circle163"/>
	<circle cx="595.547" cy="213.36" r="4" fill="#0" id="circle164"/>
	<circle cx="595.547" cy="595.547" r="4" fill="#0" id="circle165"/>
	<circle cx="606.788" cy="223.195" r="4" fill="#0" id="circle166"/>
	<circle cx="606.788" cy="585.711" r="4" fill="#0" id="circle167"/>
	<circle cx="616.623" cy="234.436" r="4" fill="#0" id="circle168"/>
	<circle cx="620.839" cy="578.686" r="4" fill="#0" id="circle169"/>
	<circle cx="627.864" cy="244.272" r="4" fill="#0" id="circle170"/>
	<circle cx="634.89" cy="571.66" r="4" fill="#0" id="circle171"/>
	<circle cx="637.7" cy="255.513" r="4" fill="#0" id="circle172"/>
	<circle cx="644.725" cy="560.419" r="4" fill="#0" id="circle173"/>
	<circle cx="648.941" cy="265.348" r="4" fill="#0" id="circle174"/>
	<circle cx="658.776" cy="276.589" r="4" fill="#0" id="circle175"/>
	<circle cx="658.776" cy="553.394" r="4" fill="#0" id="circle176"/>
	<circle cx="670.017" cy="285.02" r="4" fill="#0" id="circle177"/>
	<circle cx="672.827" cy="546.368" r="4" fill="#0" id="circle178"/>
	<circle cx="682.663" cy="292.045" r="4" fill="#0" id="circle179"/>
	<circle cx="685.473" cy="539.343" r="4" fill="#0" id="circle180"/>
	<circle cx="692.499" cy="303.286" r="4" fill="#0" id="circle181"/>
	<circle cx="698.119" cy="532.317" r="4" fill="#0" id="circle182"/>
	<circle cx="703.739" cy="313.122" r="4" fill="#0" id="circle183"/>
	<circle cx="710.765" cy="525.292" r="4" fill="#0" id="circle184"/>
	<circle cx="713.575" cy="324.363" r="4" fill="#0" id="circle185"/>
	<circle cx="723.411" cy="518.266" r="4" fill="#0" id="circle186"/>
	<circle cx="724.816" cy="334.198" r="4" fill="#0" id="circle187"/>
	<circle cx="734.652" cy="345.439" r="4" fill="#0" id="circle188"/>
	<circle cx="736.057" cy="511.241" r="4" fill="#0" id="circle189"/>
	<circle cx="745.892" cy="355.275" r="4" fill="#0" id="circle190"/>
	<circle cx="748.703" cy="504.215" r="4" fill="#0" id="circle191"/>
	<circle cx="755.728" cy="366.516" r="4" fill="#0" id="circle192"/>
	<circle cx="759.943" cy="495.785" r="4" fill="#0" id="circle193"/>
	<circle cx="769.779" cy="372.136" r="4" fill="#0" id="circle194"/>
	<circle cx="771.184" cy="483.139" r="4" fill="#0" id="circle195"/>
	<circle cx="778.21" cy="383.377" r="4" fill="#0" id="circle196"/>
	<circle cx="785.235" cy="396.023" r="4" fill="#0" id="circle197"/>
	<circle cx="785.235" cy="469.088" r="4" fill="#0" id="circle198"/>
	<circle cx="792.261" cy="408.669" r="4" fill="#0" id="circle199"/>
	<circle cx="792.261" cy="448.011" r="4" fill="#0" id="circle200"/>
	<circle cx="797.881" cy="422.72" r="4" fill="#0" id="circle201"/>
	</g>
</svg>