<?xml version="1.0" encoding="UTF-8" standalone="no"?>
<!-- Created with CurveBenchmark -->
<svg
	xmlns:dc="http://purl.org/dc/elements/1.1/"
	xmlns:cc="http://creativecommons.org/ns#"
	xmlns:rdf="http://www.w3.org/1999/02/22-rdf-syntax-ns#"
	xmlns:svg="http://www.w3.org/2000/svg"
	xmlns="http://www.w3.org/2000/svg"
	xmlns:sodipodi="http://sodipodi.sourceforge.net/DTD/sodipodi-0.dtd"
	xmlns:inkscape="http://www.inkscape.org/namespaces/inkscape"
	width="1000"
	height="1000"
	id="svg2"
	version="1.1"
	sodipodi:docname="manifold/hnncrust-fountain-18.png.txt">
<defs
	id="defs4" />
<metadata
	id="metadata7">
	<rdf:RDF>
		<cc:Work
			rdf:about="">
			<dc:format>image/svg+xml</dc:format>
			<dc:type
				rdf:resource="http://purl.org/dc/dcmitype/StillImage" />
			<dc:title></dc:title>
		</cc:Work>
	</rdf:RDF>
</metadata>
<g
	inkscape:label="Layer 1"
	inkscape:groupmode="layer"
	id="layer1">
	<path style="fill:none;stroke:red;stroke-width:1px;stroke-linecap:butt;stroke-linejoin:miter;stroke-opacity:1" d="M 4,526.983 4,536.795 z" id="boundary" inkscape:connector-curvature="0" />
	<path style="fill:none;stroke:red;stroke-width:1px;stroke-linecap:butt;stroke-linejoin:miter;stroke-opacity:1" d="M 4,526.983 8.90603,517.171 z" id="boundary" inkscape:connector-curvature="0" />
	<path style="fill:none;stroke:red;stroke-width:1px;stroke-linecap:butt;stroke-linejoin:miter;stroke-opacity:1" d="M 4,536.795 4,546.607 z" id="boundary" inkscape:connector-curvature="0" />
	<path style="fill:none;stroke:red;stroke-width:1px;stroke-linecap:butt;stroke-linejoin:miter;stroke-opacity:1" d="M 4,546.607 8.90603,555.438 z" id="boundary" inkscape:connector-curvature="0" />
	<path style="fill:none;stroke:red;stroke-width:1px;stroke-linecap:butt;stroke-linejoin:miter;stroke-opacity:1" d="M 8.90603,517.171 16.7557,509.321 z" id="boundary" inkscape:connector-curvature="0" />
	<path style="fill:none;stroke:red;stroke-width:1px;stroke-linecap:butt;stroke-linejoin:miter;stroke-opacity:1" d="M 8.90603,555.438 8.90603,565.25 z" id="boundary" inkscape:connector-curvature="0" />
	<path style="fill:none;stroke:red;stroke-width:1px;stroke-linecap:butt;stroke-linejoin:miter;stroke-opacity:1" d="M 8.90603,565.25 8.90603,575.062 z" id="boundary" inkscape:connector-curvature="0" />
	<path style="fill:none;stroke:red;stroke-width:1px;stroke-linecap:butt;stroke-linejoin:miter;stroke-opacity:1" d="M 8.90603,575.062 13.8121,583.893 z" id="boundary" inkscape:connector-curvature="0" />
	<path style="fill:none;stroke:red;stroke-width:1px;stroke-linecap:butt;stroke-linejoin:miter;stroke-opacity:1" d="M 13.8121,583.893 16.7557,593.705 z" id="boundary" inkscape:connector-curvature="0" />
	<path style="fill:none;stroke:red;stroke-width:1px;stroke-linecap:butt;stroke-linejoin:miter;stroke-opacity:1" d="M 16.7557,509.321 24.6053,501.472 z" id="boundary" inkscape:connector-curvature="0" />
	<path style="fill:none;stroke:red;stroke-width:1px;stroke-linecap:butt;stroke-linejoin:miter;stroke-opacity:1" d="M 16.7557,593.705 21.6617,602.536 z" id="boundary" inkscape:connector-curvature="0" />
	<path style="fill:none;stroke:red;stroke-width:1px;stroke-linecap:butt;stroke-linejoin:miter;stroke-opacity:1" d="M 21.6617,602.536 25.5865,612.348 z" id="boundary" inkscape:connector-curvature="0" />
	<path style="fill:none;stroke:red;stroke-width:1px;stroke-linecap:butt;stroke-linejoin:miter;stroke-opacity:1" d="M 24.6053,501.472 34.4174,496.566 z" id="boundary" inkscape:connector-curvature="0" />
	<path style="fill:none;stroke:red;stroke-width:1px;stroke-linecap:butt;stroke-linejoin:miter;stroke-opacity:1" d="M 25.5865,612.348 30.4926,621.179 z" id="boundary" inkscape:connector-curvature="0" />
	<path style="fill:none;stroke:red;stroke-width:1px;stroke-linecap:butt;stroke-linejoin:miter;stroke-opacity:1" d="M 30.4926,621.179 34.4174,630.991 z" id="boundary" inkscape:connector-curvature="0" />
	<path style="fill:none;stroke:red;stroke-width:1px;stroke-linecap:butt;stroke-linejoin:miter;stroke-opacity:1" d="M 34.4174,496.566 44.2295,494.603 z" id="boundary" inkscape:connector-curvature="0" />
	<path style="fill:none;stroke:red;stroke-width:1px;stroke-linecap:butt;stroke-linejoin:miter;stroke-opacity:1" d="M 34.4174,630.991 42.2671,637.86 z" id="boundary" inkscape:connector-curvature="0" />
	<path style="fill:none;stroke:red;stroke-width:1px;stroke-linecap:butt;stroke-linejoin:miter;stroke-opacity:1" d="M 42.2671,637.86 49.1355,645.709 z" id="boundary" inkscape:connector-curvature="0" />
	<path style="fill:none;stroke:red;stroke-width:1px;stroke-linecap:butt;stroke-linejoin:miter;stroke-opacity:1" d="M 44.2295,494.603 53.0603,489.697 z" id="boundary" inkscape:connector-curvature="0" />
	<path style="fill:none;stroke:red;stroke-width:1px;stroke-linecap:butt;stroke-linejoin:miter;stroke-opacity:1" d="M 49.1355,645.709 58.9476,649.634 z" id="boundary" inkscape:connector-curvature="0" />
	<path style="fill:none;stroke:red;stroke-width:1px;stroke-linecap:butt;stroke-linejoin:miter;stroke-opacity:1" d="M 53.0603,489.697 61.8912,484.791 z" id="boundary" inkscape:connector-curvature="0" />
	<path style="fill:none;stroke:red;stroke-width:1px;stroke-linecap:butt;stroke-linejoin:miter;stroke-opacity:1" d="M 58.9476,649.634 67.7784,654.54 z" id="boundary" inkscape:connector-curvature="0" />
	<path style="fill:none;stroke:red;stroke-width:1px;stroke-linecap:butt;stroke-linejoin:miter;stroke-opacity:1" d="M 61.8912,484.791 70.7221,479.885 z" id="boundary" inkscape:connector-curvature="0" />
	<path style="fill:none;stroke:red;stroke-width:1px;stroke-linecap:butt;stroke-linejoin:miter;stroke-opacity:1" d="M 67.7784,654.54 77.5905,657.484 z" id="boundary" inkscape:connector-curvature="0" />
	<path style="fill:none;stroke:red;stroke-width:1px;stroke-linecap:butt;stroke-linejoin:miter;stroke-opacity:1" d="M 70.7221,479.885 80.5341,474.979 z" id="boundary" inkscape:connector-curvature="0" />
	<path style="fill:none;stroke:red;stroke-width:1px;stroke-linecap:butt;stroke-linejoin:miter;stroke-opacity:1" d="M 77.5905,657.484 86.4214,662.39 z" id="boundary" inkscape:connector-curvature="0" />
	<path style="fill:none;stroke:red;stroke-width:1px;stroke-linecap:butt;stroke-linejoin:miter;stroke-opacity:1" d="M 80.5341,474.979 90.3462,470.073 z" id="boundary" inkscape:connector-curvature="0" />
	<path style="fill:none;stroke:red;stroke-width:1px;stroke-linecap:butt;stroke-linejoin:miter;stroke-opacity:1" d="M 86.4214,662.39 93.2898,670.239 z" id="boundary" inkscape:connector-curvature="0" />
	<path style="fill:none;stroke:red;stroke-width:1px;stroke-linecap:butt;stroke-linejoin:miter;stroke-opacity:1" d="M 90.3462,470.073 99.1771,465.167 z" id="boundary" inkscape:connector-curvature="0" />
	<path style="fill:none;stroke:red;stroke-width:1px;stroke-linecap:butt;stroke-linejoin:miter;stroke-opacity:1" d="M 93.2898,670.239 103.102,674.164 z" id="boundary" inkscape:connector-curvature="0" />
	<path style="fill:none;stroke:red;stroke-width:1px;stroke-linecap:butt;stroke-linejoin:miter;stroke-opacity:1" d="M 99.1771,465.167 107.027,458.299 z" id="boundary" inkscape:connector-curvature="0" />
	<path style="fill:none;stroke:red;stroke-width:1px;stroke-linecap:butt;stroke-linejoin:miter;stroke-opacity:1" d="M 103.102,674.164 111.933,679.07 z" id="boundary" inkscape:connector-curvature="0" />
	<path style="fill:none;stroke:red;stroke-width:1px;stroke-linecap:butt;stroke-linejoin:miter;stroke-opacity:1" d="M 107.027,458.299 116.839,453.393 z" id="boundary" inkscape:connector-curvature="0" />
	<path style="fill:none;stroke:red;stroke-width:1px;stroke-linecap:butt;stroke-linejoin:miter;stroke-opacity:1" d="M 111.933,679.07 121.745,682.014 z" id="boundary" inkscape:connector-curvature="0" />
	<path style="fill:none;stroke:red;stroke-width:1px;stroke-linecap:butt;stroke-linejoin:miter;stroke-opacity:1" d="M 116.839,453.393 126.651,448.487 z" id="boundary" inkscape:connector-curvature="0" />
	<path style="fill:none;stroke:red;stroke-width:1px;stroke-linecap:butt;stroke-linejoin:miter;stroke-opacity:1" d="M 121.745,682.014 130.576,686.92 z" id="boundary" inkscape:connector-curvature="0" />
	<path style="fill:none;stroke:red;stroke-width:1px;stroke-linecap:butt;stroke-linejoin:miter;stroke-opacity:1" d="M 126.651,448.487 136.463,443.581 z" id="boundary" inkscape:connector-curvature="0" />
	<path style="fill:none;stroke:red;stroke-width:1px;stroke-linecap:butt;stroke-linejoin:miter;stroke-opacity:1" d="M 130.576,686.92 139.407,691.826 z" id="boundary" inkscape:connector-curvature="0" />
	<path style="fill:none;stroke:red;stroke-width:1px;stroke-linecap:butt;stroke-linejoin:miter;stroke-opacity:1" d="M 136.463,443.581 146.275,440.637 z" id="boundary" inkscape:connector-curvature="0" />
	<path style="fill:none;stroke:red;stroke-width:1px;stroke-linecap:butt;stroke-linejoin:miter;stroke-opacity:1" d="M 139.407,691.826 149.219,691.826 z" id="boundary" inkscape:connector-curvature="0" />
	<path style="fill:none;stroke:red;stroke-width:1px;stroke-linecap:butt;stroke-linejoin:miter;stroke-opacity:1" d="M 146.275,440.637 155.106,435.731 z" id="boundary" inkscape:connector-curvature="0" />
	<path style="fill:none;stroke:red;stroke-width:1px;stroke-linecap:butt;stroke-linejoin:miter;stroke-opacity:1" d="M 149.219,691.826 159.031,695.751 z" id="boundary" inkscape:connector-curvature="0" />
	<path style="fill:none;stroke:red;stroke-width:1px;stroke-linecap:butt;stroke-linejoin:miter;stroke-opacity:1" d="M 155.106,435.731 164.918,435.731 z" id="boundary" inkscape:connector-curvature="0" />
	<path style="fill:none;stroke:red;stroke-width:1px;stroke-linecap:butt;stroke-linejoin:miter;stroke-opacity:1" d="M 159.031,695.751 168.843,696.732 z" id="boundary" inkscape:connector-curvature="0" />
	<path style="fill:none;stroke:red;stroke-width:1px;stroke-linecap:butt;stroke-linejoin:miter;stroke-opacity:1" d="M 164.918,435.731 173.749,430.825 z" id="boundary" inkscape:connector-curvature="0" />
	<path style="fill:none;stroke:red;stroke-width:1px;stroke-linecap:butt;stroke-linejoin:miter;stroke-opacity:1" d="M 168.843,696.732 177.674,701.638 z" id="boundary" inkscape:connector-curvature="0" />
	<path style="fill:none;stroke:red;stroke-width:1px;stroke-linecap:butt;stroke-linejoin:miter;stroke-opacity:1" d="M 173.749,430.825 180.617,414.144 z" id="boundary" inkscape:connector-curvature="0" />
	<path style="fill:none;stroke:red;stroke-width:1px;stroke-linecap:butt;stroke-linejoin:miter;stroke-opacity:1" d="M 177.674,701.638 187.486,701.638 z" id="boundary" inkscape:connector-curvature="0" />
	<path style="fill:none;stroke:red;stroke-width:1px;stroke-linecap:butt;stroke-linejoin:miter;stroke-opacity:1" d="M 180.617,384.708 180.617,394.52 z" id="boundary" inkscape:connector-curvature="0" />
	<path style="fill:none;stroke:red;stroke-width:1px;stroke-linecap:butt;stroke-linejoin:miter;stroke-opacity:1" d="M 180.617,384.708 188.467,376.859 z" id="boundary" inkscape:connector-curvature="0" />
	<path style="fill:none;stroke:red;stroke-width:1px;stroke-linecap:butt;stroke-linejoin:miter;stroke-opacity:1" d="M 180.617,394.52 180.617,404.332 z" id="boundary" inkscape:connector-curvature="0" />
	<path style="fill:none;stroke:red;stroke-width:1px;stroke-linecap:butt;stroke-linejoin:miter;stroke-opacity:1" d="M 180.617,404.332 180.617,414.144 z" id="boundary" inkscape:connector-curvature="0" />
	<path style="fill:none;stroke:red;stroke-width:1px;stroke-linecap:butt;stroke-linejoin:miter;stroke-opacity:1" d="M 187.486,701.638 197.298,701.638 z" id="boundary" inkscape:connector-curvature="0" />
	<path style="fill:none;stroke:red;stroke-width:1px;stroke-linecap:butt;stroke-linejoin:miter;stroke-opacity:1" d="M 188.467,376.859 197.298,371.953 z" id="boundary" inkscape:connector-curvature="0" />
	<path style="fill:none;stroke:red;stroke-width:1px;stroke-linecap:butt;stroke-linejoin:miter;stroke-opacity:1" d="M 197.298,371.953 207.11,371.953 z" id="boundary" inkscape:connector-curvature="0" />
	<path style="fill:none;stroke:red;stroke-width:1px;stroke-linecap:butt;stroke-linejoin:miter;stroke-opacity:1" d="M 197.298,701.638 207.11,704.582 z" id="boundary" inkscape:connector-curvature="0" />
	<path style="fill:none;stroke:red;stroke-width:1px;stroke-linecap:butt;stroke-linejoin:miter;stroke-opacity:1" d="M 207.11,371.953 215.941,367.046 z" id="boundary" inkscape:connector-curvature="0" />
	<path style="fill:none;stroke:red;stroke-width:1px;stroke-linecap:butt;stroke-linejoin:miter;stroke-opacity:1" d="M 207.11,704.582 216.922,706.544 z" id="boundary" inkscape:connector-curvature="0" />
	<path style="fill:none;stroke:red;stroke-width:1px;stroke-linecap:butt;stroke-linejoin:miter;stroke-opacity:1" d="M 215.941,367.046 224.772,362.14 z" id="boundary" inkscape:connector-curvature="0" />
	<path style="fill:none;stroke:red;stroke-width:1px;stroke-linecap:butt;stroke-linejoin:miter;stroke-opacity:1" d="M 216.922,706.544 226.734,706.544 z" id="boundary" inkscape:connector-curvature="0" />
	<path style="fill:none;stroke:red;stroke-width:1px;stroke-linecap:butt;stroke-linejoin:miter;stroke-opacity:1" d="M 224.772,362.14 234.584,362.14 z" id="boundary" inkscape:connector-curvature="0" />
	<path style="fill:none;stroke:red;stroke-width:1px;stroke-linecap:butt;stroke-linejoin:miter;stroke-opacity:1" d="M 226.734,706.544 235.565,711.45 z" id="boundary" inkscape:connector-curvature="0" />
	<path style="fill:none;stroke:red;stroke-width:1px;stroke-linecap:butt;stroke-linejoin:miter;stroke-opacity:1" d="M 234.584,362.14 244.396,360.178 z" id="boundary" inkscape:connector-curvature="0" />
	<path style="fill:none;stroke:red;stroke-width:1px;stroke-linecap:butt;stroke-linejoin:miter;stroke-opacity:1" d="M 235.565,711.45 245.377,713.412 z" id="boundary" inkscape:connector-curvature="0" />
	<path style="fill:none;stroke:red;stroke-width:1px;stroke-linecap:butt;stroke-linejoin:miter;stroke-opacity:1" d="M 244.396,360.178 254.208,355.272 z" id="boundary" inkscape:connector-curvature="0" />
	<path style="fill:none;stroke:red;stroke-width:1px;stroke-linecap:butt;stroke-linejoin:miter;stroke-opacity:1" d="M 245.377,713.412 254.208,718.318 z" id="boundary" inkscape:connector-curvature="0" />
	<path style="fill:none;stroke:red;stroke-width:1px;stroke-linecap:butt;stroke-linejoin:miter;stroke-opacity:1" d="M 254.208,355.272 264.02,352.328 z" id="boundary" inkscape:connector-curvature="0" />
	<path style="fill:none;stroke:red;stroke-width:1px;stroke-linecap:butt;stroke-linejoin:miter;stroke-opacity:1" d="M 254.208,718.318 264.02,721.262 z" id="boundary" inkscape:connector-curvature="0" />
	<path style="fill:none;stroke:red;stroke-width:1px;stroke-linecap:butt;stroke-linejoin:miter;stroke-opacity:1" d="M 264.02,352.328 272.851,347.422 z" id="boundary" inkscape:connector-curvature="0" />
	<path style="fill:none;stroke:red;stroke-width:1px;stroke-linecap:butt;stroke-linejoin:miter;stroke-opacity:1" d="M 264.02,721.262 273.832,721.262 z" id="boundary" inkscape:connector-curvature="0" />
	<path style="fill:none;stroke:red;stroke-width:1px;stroke-linecap:butt;stroke-linejoin:miter;stroke-opacity:1" d="M 272.851,347.422 281.682,342.516 z" id="boundary" inkscape:connector-curvature="0" />
	<path style="fill:none;stroke:red;stroke-width:1px;stroke-linecap:butt;stroke-linejoin:miter;stroke-opacity:1" d="M 273.832,721.262 282.663,726.168 z" id="boundary" inkscape:connector-curvature="0" />
	<path style="fill:none;stroke:red;stroke-width:1px;stroke-linecap:butt;stroke-linejoin:miter;stroke-opacity:1" d="M 281.682,342.516 290.512,337.61 z" id="boundary" inkscape:connector-curvature="0" />
	<path style="fill:none;stroke:red;stroke-width:1px;stroke-linecap:butt;stroke-linejoin:miter;stroke-opacity:1" d="M 282.663,726.168 291.494,731.074 z" id="boundary" inkscape:connector-curvature="0" />
	<path style="fill:none;stroke:red;stroke-width:1px;stroke-linecap:butt;stroke-linejoin:miter;stroke-opacity:1" d="M 290.512,337.61 299.343,332.704 z" id="boundary" inkscape:connector-curvature="0" />
	<path style="fill:none;stroke:red;stroke-width:1px;stroke-linecap:butt;stroke-linejoin:miter;stroke-opacity:1" d="M 291.494,731.074 301.306,731.074 z" id="boundary" inkscape:connector-curvature="0" />
	<path style="fill:none;stroke:red;stroke-width:1px;stroke-linecap:butt;stroke-linejoin:miter;stroke-opacity:1" d="M 299.343,332.704 308.174,327.798 z" id="boundary" inkscape:connector-curvature="0" />
	<path style="fill:none;stroke:red;stroke-width:1px;stroke-linecap:butt;stroke-linejoin:miter;stroke-opacity:1" d="M 301.306,731.074 311.118,731.074 z" id="boundary" inkscape:connector-curvature="0" />
	<path style="fill:none;stroke:red;stroke-width:1px;stroke-linecap:butt;stroke-linejoin:miter;stroke-opacity:1" d="M 308.174,327.798 317.005,322.892 z" id="boundary" inkscape:connector-curvature="0" />
	<path style="fill:none;stroke:red;stroke-width:1px;stroke-linecap:butt;stroke-linejoin:miter;stroke-opacity:1" d="M 311.118,731.074 320.93,734.999 z" id="boundary" inkscape:connector-curvature="0" />
	<path style="fill:none;stroke:red;stroke-width:1px;stroke-linecap:butt;stroke-linejoin:miter;stroke-opacity:1" d="M 317.005,322.892 326.817,322.892 z" id="boundary" inkscape:connector-curvature="0" />
	<path style="fill:none;stroke:red;stroke-width:1px;stroke-linecap:butt;stroke-linejoin:miter;stroke-opacity:1" d="M 320.93,734.999 330.742,735.98 z" id="boundary" inkscape:connector-curvature="0" />
	<path style="fill:none;stroke:red;stroke-width:1px;stroke-linecap:butt;stroke-linejoin:miter;stroke-opacity:1" d="M 326.817,322.892 335.648,317.986 z" id="boundary" inkscape:connector-curvature="0" />
	<path style="fill:none;stroke:red;stroke-width:1px;stroke-linecap:butt;stroke-linejoin:miter;stroke-opacity:1" d="M 330.742,735.98 340.554,735.98 z" id="boundary" inkscape:connector-curvature="0" />
	<path style="fill:none;stroke:red;stroke-width:1px;stroke-linecap:butt;stroke-linejoin:miter;stroke-opacity:1" d="M 335.648,317.986 345.46,317.986 z" id="boundary" inkscape:connector-curvature="0" />
	<path style="fill:none;stroke:red;stroke-width:1px;stroke-linecap:butt;stroke-linejoin:miter;stroke-opacity:1" d="M 340.554,735.98 350.366,735.98 z" id="boundary" inkscape:connector-curvature="0" />
	<path style="fill:none;stroke:red;stroke-width:1px;stroke-linecap:butt;stroke-linejoin:miter;stroke-opacity:1" d="M 345.46,317.986 355.272,313.08 z" id="boundary" inkscape:connector-curvature="0" />
	<path style="fill:none;stroke:red;stroke-width:1px;stroke-linecap:butt;stroke-linejoin:miter;stroke-opacity:1" d="M 350.366,735.98 360.178,735.98 z" id="boundary" inkscape:connector-curvature="0" />
	<path style="fill:none;stroke:red;stroke-width:1px;stroke-linecap:butt;stroke-linejoin:miter;stroke-opacity:1" d="M 355.272,313.08 365.084,313.08 z" id="boundary" inkscape:connector-curvature="0" />
	<path style="fill:none;stroke:red;stroke-width:1px;stroke-linecap:butt;stroke-linejoin:miter;stroke-opacity:1" d="M 360.178,735.98 369.99,735.98 z" id="boundary" inkscape:connector-curvature="0" />
	<path style="fill:none;stroke:red;stroke-width:1px;stroke-linecap:butt;stroke-linejoin:miter;stroke-opacity:1" d="M 365.084,313.08 374.896,313.08 z" id="boundary" inkscape:connector-curvature="0" />
	<path style="fill:none;stroke:red;stroke-width:1px;stroke-linecap:butt;stroke-linejoin:miter;stroke-opacity:1" d="M 369.99,735.98 379.802,735.98 z" id="boundary" inkscape:connector-curvature="0" />
	<path style="fill:none;stroke:red;stroke-width:1px;stroke-linecap:butt;stroke-linejoin:miter;stroke-opacity:1" d="M 374.896,313.08 384.708,308.174 z" id="boundary" inkscape:connector-curvature="0" />
	<path style="fill:none;stroke:red;stroke-width:1px;stroke-linecap:butt;stroke-linejoin:miter;stroke-opacity:1" d="M 379.802,735.98 389.614,735.98 z" id="boundary" inkscape:connector-curvature="0" />
	<path style="fill:none;stroke:red;stroke-width:1px;stroke-linecap:butt;stroke-linejoin:miter;stroke-opacity:1" d="M 384.708,308.174 394.52,308.174 z" id="boundary" inkscape:connector-curvature="0" />
	<path style="fill:none;stroke:red;stroke-width:1px;stroke-linecap:butt;stroke-linejoin:miter;stroke-opacity:1" d="M 386.671,119.782 386.671,129.594 z" id="boundary" inkscape:connector-curvature="0" />
	<path style="fill:none;stroke:red;stroke-width:1px;stroke-linecap:butt;stroke-linejoin:miter;stroke-opacity:1" d="M 386.671,119.782 394.52,111.933 z" id="boundary" inkscape:connector-curvature="0" />
	<path style="fill:none;stroke:red;stroke-width:1px;stroke-linecap:butt;stroke-linejoin:miter;stroke-opacity:1" d="M 386.671,129.594 391.577,138.425 z" id="boundary" inkscape:connector-curvature="0" />
	<path style="fill:none;stroke:red;stroke-width:1px;stroke-linecap:butt;stroke-linejoin:miter;stroke-opacity:1" d="M 389.614,735.98 399.426,735.98 z" id="boundary" inkscape:connector-curvature="0" />
	<path style="fill:none;stroke:red;stroke-width:1px;stroke-linecap:butt;stroke-linejoin:miter;stroke-opacity:1" d="M 391.577,138.425 396.483,147.256 z" id="boundary" inkscape:connector-curvature="0" />
	<path style="fill:none;stroke:red;stroke-width:1px;stroke-linecap:butt;stroke-linejoin:miter;stroke-opacity:1" d="M 394.52,111.933 403.351,107.027 z" id="boundary" inkscape:connector-curvature="0" />
	<path style="fill:none;stroke:red;stroke-width:1px;stroke-linecap:butt;stroke-linejoin:miter;stroke-opacity:1" d="M 394.52,308.174 404.332,308.174 z" id="boundary" inkscape:connector-curvature="0" />
	<path style="fill:none;stroke:red;stroke-width:1px;stroke-linecap:butt;stroke-linejoin:miter;stroke-opacity:1" d="M 396.483,147.256 399.426,157.068 z" id="boundary" inkscape:connector-curvature="0" />
	<path style="fill:none;stroke:red;stroke-width:1px;stroke-linecap:butt;stroke-linejoin:miter;stroke-opacity:1" d="M 399.426,157.068 404.332,165.899 z" id="boundary" inkscape:connector-curvature="0" />
	<path style="fill:none;stroke:red;stroke-width:1px;stroke-linecap:butt;stroke-linejoin:miter;stroke-opacity:1" d="M 399.426,735.98 409.238,735.98 z" id="boundary" inkscape:connector-curvature="0" />
	<path style="fill:none;stroke:red;stroke-width:1px;stroke-linecap:butt;stroke-linejoin:miter;stroke-opacity:1" d="M 403.351,107.027 413.163,103.102 z" id="boundary" inkscape:connector-curvature="0" />
	<path style="fill:none;stroke:red;stroke-width:1px;stroke-linecap:butt;stroke-linejoin:miter;stroke-opacity:1" d="M 404.332,165.899 411.201,173.749 z" id="boundary" inkscape:connector-curvature="0" />
	<path style="fill:none;stroke:red;stroke-width:1px;stroke-linecap:butt;stroke-linejoin:miter;stroke-opacity:1" d="M 404.332,308.174 414.144,308.174 z" id="boundary" inkscape:connector-curvature="0" />
	<path style="fill:none;stroke:red;stroke-width:1px;stroke-linecap:butt;stroke-linejoin:miter;stroke-opacity:1" d="M 409.238,735.98 419.05,735.98 z" id="boundary" inkscape:connector-curvature="0" />
	<path style="fill:none;stroke:red;stroke-width:1px;stroke-linecap:butt;stroke-linejoin:miter;stroke-opacity:1" d="M 411.201,173.749 419.05,180.617 z" id="boundary" inkscape:connector-curvature="0" />
	<path style="fill:none;stroke:red;stroke-width:1px;stroke-linecap:butt;stroke-linejoin:miter;stroke-opacity:1" d="M 413.163,103.102 422.975,102.121 z" id="boundary" inkscape:connector-curvature="0" />
	<path style="fill:none;stroke:red;stroke-width:1px;stroke-linecap:butt;stroke-linejoin:miter;stroke-opacity:1" d="M 414.144,308.174 423.956,308.174 z" id="boundary" inkscape:connector-curvature="0" />
	<path style="fill:none;stroke:red;stroke-width:1px;stroke-linecap:butt;stroke-linejoin:miter;stroke-opacity:1" d="M 419.05,180.617 427.881,185.523 z" id="boundary" inkscape:connector-curvature="0" />
	<path style="fill:none;stroke:red;stroke-width:1px;stroke-linecap:butt;stroke-linejoin:miter;stroke-opacity:1" d="M 419.05,735.98 428.863,735.98 z" id="boundary" inkscape:connector-curvature="0" />
	<path style="fill:none;stroke:red;stroke-width:1px;stroke-linecap:butt;stroke-linejoin:miter;stroke-opacity:1" d="M 422.975,102.121 431.806,107.027 z" id="boundary" inkscape:connector-curvature="0" />
	<path style="fill:none;stroke:red;stroke-width:1px;stroke-linecap:butt;stroke-linejoin:miter;stroke-opacity:1" d="M 423.956,308.174 433.769,308.174 z" id="boundary" inkscape:connector-curvature="0" />
	<path style="fill:none;stroke:red;stroke-width:1px;stroke-linecap:butt;stroke-linejoin:miter;stroke-opacity:1" d="M 427.881,185.523 437.693,189.448 z" id="boundary" inkscape:connector-curvature="0" />
	<path style="fill:none;stroke:red;stroke-width:1px;stroke-linecap:butt;stroke-linejoin:miter;stroke-opacity:1" d="M 428.863,735.98 438.675,735.98 z" id="boundary" inkscape:connector-curvature="0" />
	<path style="fill:none;stroke:red;stroke-width:1px;stroke-linecap:butt;stroke-linejoin:miter;stroke-opacity:1" d="M 431.806,107.027 441.618,109.97 z" id="boundary" inkscape:connector-curvature="0" />
	<path style="fill:none;stroke:red;stroke-width:1px;stroke-linecap:butt;stroke-linejoin:miter;stroke-opacity:1" d="M 433.769,308.174 443.581,308.174 z" id="boundary" inkscape:connector-curvature="0" />
	<path style="fill:none;stroke:red;stroke-width:1px;stroke-linecap:butt;stroke-linejoin:miter;stroke-opacity:1" d="M 437.693,189.448 447.505,191.41 z" id="boundary" inkscape:connector-curvature="0" />
	<path style="fill:none;stroke:red;stroke-width:1px;stroke-linecap:butt;stroke-linejoin:miter;stroke-opacity:1" d="M 438.675,735.98 448.487,735.98 z" id="boundary" inkscape:connector-curvature="0" />
	<path style="fill:none;stroke:red;stroke-width:1px;stroke-linecap:butt;stroke-linejoin:miter;stroke-opacity:1" d="M 441.618,109.97 451.43,111.933 z" id="boundary" inkscape:connector-curvature="0" />
	<path style="fill:none;stroke:red;stroke-width:1px;stroke-linecap:butt;stroke-linejoin:miter;stroke-opacity:1" d="M 443.581,308.174 453.393,308.174 z" id="boundary" inkscape:connector-curvature="0" />
	<path style="fill:none;stroke:red;stroke-width:1px;stroke-linecap:butt;stroke-linejoin:miter;stroke-opacity:1" d="M 447.505,191.41 457.318,191.41 z" id="boundary" inkscape:connector-curvature="0" />
	<path style="fill:none;stroke:red;stroke-width:1px;stroke-linecap:butt;stroke-linejoin:miter;stroke-opacity:1" d="M 448.487,735.98 458.299,735.98 z" id="boundary" inkscape:connector-curvature="0" />
	<path style="fill:none;stroke:red;stroke-width:1px;stroke-linecap:butt;stroke-linejoin:miter;stroke-opacity:1" d="M 451.43,111.933 461.242,111.933 z" id="boundary" inkscape:connector-curvature="0" />
	<path style="fill:none;stroke:red;stroke-width:1px;stroke-linecap:butt;stroke-linejoin:miter;stroke-opacity:1" d="M 453.393,308.174 463.205,308.174 z" id="boundary" inkscape:connector-curvature="0" />
	<path style="fill:none;stroke:red;stroke-width:1px;stroke-linecap:butt;stroke-linejoin:miter;stroke-opacity:1" d="M 457.318,191.41 467.13,194.354 z" id="boundary" inkscape:connector-curvature="0" />
	<path style="fill:none;stroke:red;stroke-width:1px;stroke-linecap:butt;stroke-linejoin:miter;stroke-opacity:1" d="M 458.299,735.98 468.111,735.98 z" id="boundary" inkscape:connector-curvature="0" />
	<path style="fill:none;stroke:red;stroke-width:1px;stroke-linecap:butt;stroke-linejoin:miter;stroke-opacity:1" d="M 461.242,111.933 465.167,95.2522 z" id="boundary" inkscape:connector-curvature="0" />
	<path style="fill:none;stroke:red;stroke-width:1px;stroke-linecap:butt;stroke-linejoin:miter;stroke-opacity:1" d="M 463.205,308.174 468.111,298.362 z" id="boundary" inkscape:connector-curvature="0" />
	<path style="fill:none;stroke:red;stroke-width:1px;stroke-linecap:butt;stroke-linejoin:miter;stroke-opacity:1" d="M 465.167,56.004 465.167,65.816 z" id="boundary" inkscape:connector-curvature="0" />
	<path style="fill:none;stroke:red;stroke-width:1px;stroke-linecap:butt;stroke-linejoin:miter;stroke-opacity:1" d="M 465.167,56.004 470.073,46.1919 z" id="boundary" inkscape:connector-curvature="0" />
	<path style="fill:none;stroke:red;stroke-width:1px;stroke-linecap:butt;stroke-linejoin:miter;stroke-opacity:1" d="M 465.167,65.816 465.167,75.6281 z" id="boundary" inkscape:connector-curvature="0" />
	<path style="fill:none;stroke:red;stroke-width:1px;stroke-linecap:butt;stroke-linejoin:miter;stroke-opacity:1" d="M 465.167,75.6281 465.167,85.4402 z" id="boundary" inkscape:connector-curvature="0" />
	<path style="fill:none;stroke:red;stroke-width:1px;stroke-linecap:butt;stroke-linejoin:miter;stroke-opacity:1" d="M 465.167,85.4402 465.167,95.2522 z" id="boundary" inkscape:connector-curvature="0" />
	<path style="fill:none;stroke:red;stroke-width:1px;stroke-linecap:butt;stroke-linejoin:miter;stroke-opacity:1" d="M 467.13,194.354 470.073,204.166 z" id="boundary" inkscape:connector-curvature="0" />
	<path style="fill:none;stroke:red;stroke-width:1px;stroke-linecap:butt;stroke-linejoin:miter;stroke-opacity:1" d="M 468.111,298.362 470.073,282.663 z" id="boundary" inkscape:connector-curvature="0" />
	<path style="fill:none;stroke:red;stroke-width:1px;stroke-linecap:butt;stroke-linejoin:miter;stroke-opacity:1" d="M 468.111,735.98 477.923,735.98 z" id="boundary" inkscape:connector-curvature="0" />
	<path style="fill:none;stroke:red;stroke-width:1px;stroke-linecap:butt;stroke-linejoin:miter;stroke-opacity:1" d="M 470.073,36.3798 470.073,46.1919 z" id="boundary" inkscape:connector-curvature="0" />
	<path style="fill:none;stroke:red;stroke-width:1px;stroke-linecap:butt;stroke-linejoin:miter;stroke-opacity:1" d="M 470.073,36.3798 474.979,21.6617 z" id="boundary" inkscape:connector-curvature="0" />
	<path style="fill:none;stroke:red;stroke-width:1px;stroke-linecap:butt;stroke-linejoin:miter;stroke-opacity:1" d="M 470.073,204.166 470.073,213.978 z" id="boundary" inkscape:connector-curvature="0" />
	<path style="fill:none;stroke:red;stroke-width:1px;stroke-linecap:butt;stroke-linejoin:miter;stroke-opacity:1" d="M 470.073,213.978 470.073,223.79 z" id="boundary" inkscape:connector-curvature="0" />
	<path style="fill:none;stroke:red;stroke-width:1px;stroke-linecap:butt;stroke-linejoin:miter;stroke-opacity:1" d="M 470.073,223.79 470.073,233.602 z" id="boundary" inkscape:connector-curvature="0" />
	<path style="fill:none;stroke:red;stroke-width:1px;stroke-linecap:butt;stroke-linejoin:miter;stroke-opacity:1" d="M 470.073,233.602 470.073,243.414 z" id="boundary" inkscape:connector-curvature="0" />
	<path style="fill:none;stroke:red;stroke-width:1px;stroke-linecap:butt;stroke-linejoin:miter;stroke-opacity:1" d="M 470.073,243.414 470.073,253.227 z" id="boundary" inkscape:connector-curvature="0" />
	<path style="fill:none;stroke:red;stroke-width:1px;stroke-linecap:butt;stroke-linejoin:miter;stroke-opacity:1" d="M 470.073,253.227 470.073,263.039 z" id="boundary" inkscape:connector-curvature="0" />
	<path style="fill:none;stroke:red;stroke-width:1px;stroke-linecap:butt;stroke-linejoin:miter;stroke-opacity:1" d="M 470.073,263.039 470.073,272.851 z" id="boundary" inkscape:connector-curvature="0" />
	<path style="fill:none;stroke:red;stroke-width:1px;stroke-linecap:butt;stroke-linejoin:miter;stroke-opacity:1" d="M 470.073,272.851 470.073,282.663 z" id="boundary" inkscape:connector-curvature="0" />
	<path style="fill:none;stroke:red;stroke-width:1px;stroke-linecap:butt;stroke-linejoin:miter;stroke-opacity:1" d="M 474.979,21.6617 479.885,11.8497 z" id="boundary" inkscape:connector-curvature="0" />
	<path style="fill:none;stroke:red;stroke-width:1px;stroke-linecap:butt;stroke-linejoin:miter;stroke-opacity:1" d="M 477.923,735.98 487.735,735.98 z" id="boundary" inkscape:connector-curvature="0" />
	<path style="fill:none;stroke:red;stroke-width:1px;stroke-linecap:butt;stroke-linejoin:miter;stroke-opacity:1" d="M 479.885,11.8497 489.697,6.94362 z" id="boundary" inkscape:connector-curvature="0" />
	<path style="fill:none;stroke:red;stroke-width:1px;stroke-linecap:butt;stroke-linejoin:miter;stroke-opacity:1" d="M 487.735,735.98 497.547,735.98 z" id="boundary" inkscape:connector-curvature="0" />
	<path style="fill:none;stroke:red;stroke-width:1px;stroke-linecap:butt;stroke-linejoin:miter;stroke-opacity:1" d="M 489.697,6.94362 499.509,4 z" id="boundary" inkscape:connector-curvature="0" />
	<path style="fill:none;stroke:red;stroke-width:1px;stroke-linecap:butt;stroke-linejoin:miter;stroke-opacity:1" d="M 497.547,735.98 507.359,735.98 z" id="boundary" inkscape:connector-curvature="0" />
	<path style="fill:none;stroke:red;stroke-width:1px;stroke-linecap:butt;stroke-linejoin:miter;stroke-opacity:1" d="M 499.509,4 509.321,4 z" id="boundary" inkscape:connector-curvature="0" />
	<path style="fill:none;stroke:red;stroke-width:1px;stroke-linecap:butt;stroke-linejoin:miter;stroke-opacity:1" d="M 507.359,735.98 517.171,735.98 z" id="boundary" inkscape:connector-curvature="0" />
	<path style="fill:none;stroke:red;stroke-width:1px;stroke-linecap:butt;stroke-linejoin:miter;stroke-opacity:1" d="M 509.321,4 519.134,4 z" id="boundary" inkscape:connector-curvature="0" />
	<path style="fill:none;stroke:red;stroke-width:1px;stroke-linecap:butt;stroke-linejoin:miter;stroke-opacity:1" d="M 517.171,735.98 526.983,735.98 z" id="boundary" inkscape:connector-curvature="0" />
	<path style="fill:none;stroke:red;stroke-width:1px;stroke-linecap:butt;stroke-linejoin:miter;stroke-opacity:1" d="M 519.134,4 528.946,5.96241 z" id="boundary" inkscape:connector-curvature="0" />
	<path style="fill:none;stroke:red;stroke-width:1px;stroke-linecap:butt;stroke-linejoin:miter;stroke-opacity:1" d="M 526.983,735.98 536.795,735.98 z" id="boundary" inkscape:connector-curvature="0" />
	<path style="fill:none;stroke:red;stroke-width:1px;stroke-linecap:butt;stroke-linejoin:miter;stroke-opacity:1" d="M 528.946,5.96241 534.833,13.8121 z" id="boundary" inkscape:connector-curvature="0" />
	<path style="fill:none;stroke:red;stroke-width:1px;stroke-linecap:butt;stroke-linejoin:miter;stroke-opacity:1" d="M 529.927,39.3234 529.927,49.1355 z" id="boundary" inkscape:connector-curvature="0" />
	<path style="fill:none;stroke:red;stroke-width:1px;stroke-linecap:butt;stroke-linejoin:miter;stroke-opacity:1" d="M 529.927,39.3234 534.833,23.6241 z" id="boundary" inkscape:connector-curvature="0" />
	<path style="fill:none;stroke:red;stroke-width:1px;stroke-linecap:butt;stroke-linejoin:miter;stroke-opacity:1" d="M 529.927,49.1355 529.927,58.9476 z" id="boundary" inkscape:connector-curvature="0" />
	<path style="fill:none;stroke:red;stroke-width:1px;stroke-linecap:butt;stroke-linejoin:miter;stroke-opacity:1" d="M 529.927,58.9476 529.927,68.7596 z" id="boundary" inkscape:connector-curvature="0" />
	<path style="fill:none;stroke:red;stroke-width:1px;stroke-linecap:butt;stroke-linejoin:miter;stroke-opacity:1" d="M 529.927,68.7596 529.927,78.5717 z" id="boundary" inkscape:connector-curvature="0" />
	<path style="fill:none;stroke:red;stroke-width:1px;stroke-linecap:butt;stroke-linejoin:miter;stroke-opacity:1" d="M 529.927,78.5717 529.927,88.3838 z" id="boundary" inkscape:connector-curvature="0" />
	<path style="fill:none;stroke:red;stroke-width:1px;stroke-linecap:butt;stroke-linejoin:miter;stroke-opacity:1" d="M 529.927,88.3838 529.927,98.1958 z" id="boundary" inkscape:connector-curvature="0" />
	<path style="fill:none;stroke:red;stroke-width:1px;stroke-linecap:butt;stroke-linejoin:miter;stroke-opacity:1" d="M 529.927,98.1958 529.927,108.008 z" id="boundary" inkscape:connector-curvature="0" />
	<path style="fill:none;stroke:red;stroke-width:1px;stroke-linecap:butt;stroke-linejoin:miter;stroke-opacity:1" d="M 529.927,108.008 539.739,111.933 z" id="boundary" inkscape:connector-curvature="0" />
	<path style="fill:none;stroke:red;stroke-width:1px;stroke-linecap:butt;stroke-linejoin:miter;stroke-opacity:1" d="M 534.833,13.8121 534.833,23.6241 z" id="boundary" inkscape:connector-curvature="0" />
	<path style="fill:none;stroke:red;stroke-width:1px;stroke-linecap:butt;stroke-linejoin:miter;stroke-opacity:1" d="M 534.833,161.974 534.833,171.786 z" id="boundary" inkscape:connector-curvature="0" />
	<path style="fill:none;stroke:red;stroke-width:1px;stroke-linecap:butt;stroke-linejoin:miter;stroke-opacity:1" d="M 534.833,161.974 544.645,161.974 z" id="boundary" inkscape:connector-curvature="0" />
	<path style="fill:none;stroke:red;stroke-width:1px;stroke-linecap:butt;stroke-linejoin:miter;stroke-opacity:1" d="M 534.833,171.786 534.833,181.598 z" id="boundary" inkscape:connector-curvature="0" />
	<path style="fill:none;stroke:red;stroke-width:1px;stroke-linecap:butt;stroke-linejoin:miter;stroke-opacity:1" d="M 534.833,181.598 534.833,191.41 z" id="boundary" inkscape:connector-curvature="0" />
	<path style="fill:none;stroke:red;stroke-width:1px;stroke-linecap:butt;stroke-linejoin:miter;stroke-opacity:1" d="M 534.833,191.41 534.833,201.223 z" id="boundary" inkscape:connector-curvature="0" />
	<path style="fill:none;stroke:red;stroke-width:1px;stroke-linecap:butt;stroke-linejoin:miter;stroke-opacity:1" d="M 534.833,201.223 534.833,211.035 z" id="boundary" inkscape:connector-curvature="0" />
	<path style="fill:none;stroke:red;stroke-width:1px;stroke-linecap:butt;stroke-linejoin:miter;stroke-opacity:1" d="M 534.833,211.035 534.833,220.847 z" id="boundary" inkscape:connector-curvature="0" />
	<path style="fill:none;stroke:red;stroke-width:1px;stroke-linecap:butt;stroke-linejoin:miter;stroke-opacity:1" d="M 534.833,220.847 534.833,230.659 z" id="boundary" inkscape:connector-curvature="0" />
	<path style="fill:none;stroke:red;stroke-width:1px;stroke-linecap:butt;stroke-linejoin:miter;stroke-opacity:1" d="M 534.833,230.659 534.833,240.471 z" id="boundary" inkscape:connector-curvature="0" />
	<path style="fill:none;stroke:red;stroke-width:1px;stroke-linecap:butt;stroke-linejoin:miter;stroke-opacity:1" d="M 534.833,240.471 534.833,250.283 z" id="boundary" inkscape:connector-curvature="0" />
	<path style="fill:none;stroke:red;stroke-width:1px;stroke-linecap:butt;stroke-linejoin:miter;stroke-opacity:1" d="M 534.833,250.283 534.833,260.095 z" id="boundary" inkscape:connector-curvature="0" />
	<path style="fill:none;stroke:red;stroke-width:1px;stroke-linecap:butt;stroke-linejoin:miter;stroke-opacity:1" d="M 534.833,260.095 534.833,269.907 z" id="boundary" inkscape:connector-curvature="0" />
	<path style="fill:none;stroke:red;stroke-width:1px;stroke-linecap:butt;stroke-linejoin:miter;stroke-opacity:1" d="M 534.833,269.907 534.833,279.719 z" id="boundary" inkscape:connector-curvature="0" />
	<path style="fill:none;stroke:red;stroke-width:1px;stroke-linecap:butt;stroke-linejoin:miter;stroke-opacity:1" d="M 534.833,279.719 534.833,289.531 z" id="boundary" inkscape:connector-curvature="0" />
	<path style="fill:none;stroke:red;stroke-width:1px;stroke-linecap:butt;stroke-linejoin:miter;stroke-opacity:1" d="M 534.833,289.531 534.833,299.343 z" id="boundary" inkscape:connector-curvature="0" />
	<path style="fill:none;stroke:red;stroke-width:1px;stroke-linecap:butt;stroke-linejoin:miter;stroke-opacity:1" d="M 534.833,299.343 539.739,308.174 z" id="boundary" inkscape:connector-curvature="0" />
	<path style="fill:none;stroke:red;stroke-width:1px;stroke-linecap:butt;stroke-linejoin:miter;stroke-opacity:1" d="M 536.795,735.98 546.607,735.98 z" id="boundary" inkscape:connector-curvature="0" />
	<path style="fill:none;stroke:red;stroke-width:1px;stroke-linecap:butt;stroke-linejoin:miter;stroke-opacity:1" d="M 539.739,111.933 549.551,111.933 z" id="boundary" inkscape:connector-curvature="0" />
	<path style="fill:none;stroke:red;stroke-width:1px;stroke-linecap:butt;stroke-linejoin:miter;stroke-opacity:1" d="M 539.739,308.174 539.739,317.986 z" id="boundary" inkscape:connector-curvature="0" />
	<path style="fill:none;stroke:red;stroke-width:1px;stroke-linecap:butt;stroke-linejoin:miter;stroke-opacity:1" d="M 539.739,317.986 539.739,327.798 z" id="boundary" inkscape:connector-curvature="0" />
	<path style="fill:none;stroke:red;stroke-width:1px;stroke-linecap:butt;stroke-linejoin:miter;stroke-opacity:1" d="M 539.739,327.798 548.57,332.704 z" id="boundary" inkscape:connector-curvature="0" />
	<path style="fill:none;stroke:red;stroke-width:1px;stroke-linecap:butt;stroke-linejoin:miter;stroke-opacity:1" d="M 544.645,161.974 554.457,161.974 z" id="boundary" inkscape:connector-curvature="0" />
	<path style="fill:none;stroke:red;stroke-width:1px;stroke-linecap:butt;stroke-linejoin:miter;stroke-opacity:1" d="M 546.607,735.98 556.419,735.98 z" id="boundary" inkscape:connector-curvature="0" />
	<path style="fill:none;stroke:red;stroke-width:1px;stroke-linecap:butt;stroke-linejoin:miter;stroke-opacity:1" d="M 548.57,332.704 558.382,332.704 z" id="boundary" inkscape:connector-curvature="0" />
	<path style="fill:none;stroke:red;stroke-width:1px;stroke-linecap:butt;stroke-linejoin:miter;stroke-opacity:1" d="M 549.551,111.933 559.363,111.933 z" id="boundary" inkscape:connector-curvature="0" />
	<path style="fill:none;stroke:red;stroke-width:1px;stroke-linecap:butt;stroke-linejoin:miter;stroke-opacity:1" d="M 554.457,161.974 564.269,161.974 z" id="boundary" inkscape:connector-curvature="0" />
	<path style="fill:none;stroke:red;stroke-width:1px;stroke-linecap:butt;stroke-linejoin:miter;stroke-opacity:1" d="M 556.419,735.98 566.231,734.999 z" id="boundary" inkscape:connector-curvature="0" />
	<path style="fill:none;stroke:red;stroke-width:1px;stroke-linecap:butt;stroke-linejoin:miter;stroke-opacity:1" d="M 558.382,332.704 568.194,332.704 z" id="boundary" inkscape:connector-curvature="0" />
	<path style="fill:none;stroke:red;stroke-width:1px;stroke-linecap:butt;stroke-linejoin:miter;stroke-opacity:1" d="M 559.363,111.933 569.175,111.933 z" id="boundary" inkscape:connector-curvature="0" />
	<path style="fill:none;stroke:red;stroke-width:1px;stroke-linecap:butt;stroke-linejoin:miter;stroke-opacity:1" d="M 564.269,161.974 574.081,161.974 z" id="boundary" inkscape:connector-curvature="0" />
	<path style="fill:none;stroke:red;stroke-width:1px;stroke-linecap:butt;stroke-linejoin:miter;stroke-opacity:1" d="M 566.231,734.999 576.044,731.074 z" id="boundary" inkscape:connector-curvature="0" />
	<path style="fill:none;stroke:red;stroke-width:1px;stroke-linecap:butt;stroke-linejoin:miter;stroke-opacity:1" d="M 568.194,332.704 578.006,332.704 z" id="boundary" inkscape:connector-curvature="0" />
	<path style="fill:none;stroke:red;stroke-width:1px;stroke-linecap:butt;stroke-linejoin:miter;stroke-opacity:1" d="M 569.175,111.933 578.987,111.933 z" id="boundary" inkscape:connector-curvature="0" />
	<path style="fill:none;stroke:red;stroke-width:1px;stroke-linecap:butt;stroke-linejoin:miter;stroke-opacity:1" d="M 574.081,161.974 583.893,157.068 z" id="boundary" inkscape:connector-curvature="0" />
	<path style="fill:none;stroke:red;stroke-width:1px;stroke-linecap:butt;stroke-linejoin:miter;stroke-opacity:1" d="M 576.044,731.074 585.856,731.074 z" id="boundary" inkscape:connector-curvature="0" />
	<path style="fill:none;stroke:red;stroke-width:1px;stroke-linecap:butt;stroke-linejoin:miter;stroke-opacity:1" d="M 578.006,332.704 587.818,332.704 z" id="boundary" inkscape:connector-curvature="0" />
	<path style="fill:none;stroke:red;stroke-width:1px;stroke-linecap:butt;stroke-linejoin:miter;stroke-opacity:1" d="M 578.987,111.933 588.799,111.933 z" id="boundary" inkscape:connector-curvature="0" />
	<path style="fill:none;stroke:red;stroke-width:1px;stroke-linecap:butt;stroke-linejoin:miter;stroke-opacity:1" d="M 583.893,157.068 593.705,157.068 z" id="boundary" inkscape:connector-curvature="0" />
	<path style="fill:none;stroke:red;stroke-width:1px;stroke-linecap:butt;stroke-linejoin:miter;stroke-opacity:1" d="M 585.856,731.074 595.668,731.074 z" id="boundary" inkscape:connector-curvature="0" />
	<path style="fill:none;stroke:red;stroke-width:1px;stroke-linecap:butt;stroke-linejoin:miter;stroke-opacity:1" d="M 587.818,332.704 597.63,332.704 z" id="boundary" inkscape:connector-curvature="0" />
	<path style="fill:none;stroke:red;stroke-width:1px;stroke-linecap:butt;stroke-linejoin:miter;stroke-opacity:1" d="M 588.799,111.933 598.611,111.933 z" id="boundary" inkscape:connector-curvature="0" />
	<path style="fill:none;stroke:red;stroke-width:1px;stroke-linecap:butt;stroke-linejoin:miter;stroke-opacity:1" d="M 593.705,157.068 602.536,152.162 z" id="boundary" inkscape:connector-curvature="0" />
	<path style="fill:none;stroke:red;stroke-width:1px;stroke-linecap:butt;stroke-linejoin:miter;stroke-opacity:1" d="M 595.668,731.074 605.48,731.074 z" id="boundary" inkscape:connector-curvature="0" />
	<path style="fill:none;stroke:red;stroke-width:1px;stroke-linecap:butt;stroke-linejoin:miter;stroke-opacity:1" d="M 597.63,332.704 607.442,332.704 z" id="boundary" inkscape:connector-curvature="0" />
	<path style="fill:none;stroke:red;stroke-width:1px;stroke-linecap:butt;stroke-linejoin:miter;stroke-opacity:1" d="M 598.611,111.933 608.423,108.989 z" id="boundary" inkscape:connector-curvature="0" />
	<path style="fill:none;stroke:red;stroke-width:1px;stroke-linecap:butt;stroke-linejoin:miter;stroke-opacity:1" d="M 602.536,152.162 612.348,149.219 z" id="boundary" inkscape:connector-curvature="0" />
	<path style="fill:none;stroke:red;stroke-width:1px;stroke-linecap:butt;stroke-linejoin:miter;stroke-opacity:1" d="M 605.48,731.074 615.292,731.074 z" id="boundary" inkscape:connector-curvature="0" />
	<path style="fill:none;stroke:red;stroke-width:1px;stroke-linecap:butt;stroke-linejoin:miter;stroke-opacity:1" d="M 607.442,332.704 617.254,332.704 z" id="boundary" inkscape:connector-curvature="0" />
	<path style="fill:none;stroke:red;stroke-width:1px;stroke-linecap:butt;stroke-linejoin:miter;stroke-opacity:1" d="M 608.423,108.989 618.235,107.027 z" id="boundary" inkscape:connector-curvature="0" />
	<path style="fill:none;stroke:red;stroke-width:1px;stroke-linecap:butt;stroke-linejoin:miter;stroke-opacity:1" d="M 612.348,149.219 622.16,144.313 z" id="boundary" inkscape:connector-curvature="0" />
	<path style="fill:none;stroke:red;stroke-width:1px;stroke-linecap:butt;stroke-linejoin:miter;stroke-opacity:1" d="M 615.292,731.074 625.104,731.074 z" id="boundary" inkscape:connector-curvature="0" />
	<path style="fill:none;stroke:red;stroke-width:1px;stroke-linecap:butt;stroke-linejoin:miter;stroke-opacity:1" d="M 617.254,332.704 627.066,332.704 z" id="boundary" inkscape:connector-curvature="0" />
	<path style="fill:none;stroke:red;stroke-width:1px;stroke-linecap:butt;stroke-linejoin:miter;stroke-opacity:1" d="M 618.235,107.027 628.047,109.97 z" id="boundary" inkscape:connector-curvature="0" />
	<path style="fill:none;stroke:red;stroke-width:1px;stroke-linecap:butt;stroke-linejoin:miter;stroke-opacity:1" d="M 622.16,144.313 631.972,139.407 z" id="boundary" inkscape:connector-curvature="0" />
	<path style="fill:none;stroke:red;stroke-width:1px;stroke-linecap:butt;stroke-linejoin:miter;stroke-opacity:1" d="M 625.104,731.074 633.935,726.168 z" id="boundary" inkscape:connector-curvature="0" />
	<path style="fill:none;stroke:red;stroke-width:1px;stroke-linecap:butt;stroke-linejoin:miter;stroke-opacity:1" d="M 627.066,332.704 636.878,332.704 z" id="boundary" inkscape:connector-curvature="0" />
	<path style="fill:none;stroke:red;stroke-width:1px;stroke-linecap:butt;stroke-linejoin:miter;stroke-opacity:1" d="M 628.047,109.97 636.878,114.876 z" id="boundary" inkscape:connector-curvature="0" />
	<path style="fill:none;stroke:red;stroke-width:1px;stroke-linecap:butt;stroke-linejoin:miter;stroke-opacity:1" d="M 631.972,139.407 641.784,134.5 z" id="boundary" inkscape:connector-curvature="0" />
	<path style="fill:none;stroke:red;stroke-width:1px;stroke-linecap:butt;stroke-linejoin:miter;stroke-opacity:1" d="M 633.935,726.168 643.747,726.168 z" id="boundary" inkscape:connector-curvature="0" />
	<path style="fill:none;stroke:red;stroke-width:1px;stroke-linecap:butt;stroke-linejoin:miter;stroke-opacity:1" d="M 636.878,114.876 641.784,123.707 z" id="boundary" inkscape:connector-curvature="0" />
	<path style="fill:none;stroke:red;stroke-width:1px;stroke-linecap:butt;stroke-linejoin:miter;stroke-opacity:1" d="M 636.878,332.704 646.69,332.704 z" id="boundary" inkscape:connector-curvature="0" />
	<path style="fill:none;stroke:red;stroke-width:1px;stroke-linecap:butt;stroke-linejoin:miter;stroke-opacity:1" d="M 641.784,123.707 641.784,134.5 z" id="boundary" inkscape:connector-curvature="0" />
	<path style="fill:none;stroke:red;stroke-width:1px;stroke-linecap:butt;stroke-linejoin:miter;stroke-opacity:1" d="M 643.747,726.168 653.559,726.168 z" id="boundary" inkscape:connector-curvature="0" />
	<path style="fill:none;stroke:red;stroke-width:1px;stroke-linecap:butt;stroke-linejoin:miter;stroke-opacity:1" d="M 646.69,332.704 656.502,332.704 z" id="boundary" inkscape:connector-curvature="0" />
	<path style="fill:none;stroke:red;stroke-width:1px;stroke-linecap:butt;stroke-linejoin:miter;stroke-opacity:1" d="M 653.559,726.168 663.371,726.168 z" id="boundary" inkscape:connector-curvature="0" />
	<path style="fill:none;stroke:red;stroke-width:1px;stroke-linecap:butt;stroke-linejoin:miter;stroke-opacity:1" d="M 656.502,332.704 666.315,332.704 z" id="boundary" inkscape:connector-curvature="0" />
	<path style="fill:none;stroke:red;stroke-width:1px;stroke-linecap:butt;stroke-linejoin:miter;stroke-opacity:1" d="M 663.371,726.168 673.183,726.168 z" id="boundary" inkscape:connector-curvature="0" />
	<path style="fill:none;stroke:red;stroke-width:1px;stroke-linecap:butt;stroke-linejoin:miter;stroke-opacity:1" d="M 666.315,332.704 676.127,332.704 z" id="boundary" inkscape:connector-curvature="0" />
	<path style="fill:none;stroke:red;stroke-width:1px;stroke-linecap:butt;stroke-linejoin:miter;stroke-opacity:1" d="M 673.183,726.168 682.995,726.168 z" id="boundary" inkscape:connector-curvature="0" />
	<path style="fill:none;stroke:red;stroke-width:1px;stroke-linecap:butt;stroke-linejoin:miter;stroke-opacity:1" d="M 676.127,332.704 685.939,332.704 z" id="boundary" inkscape:connector-curvature="0" />
	<path style="fill:none;stroke:red;stroke-width:1px;stroke-linecap:butt;stroke-linejoin:miter;stroke-opacity:1" d="M 682.995,726.168 691.826,721.262 z" id="boundary" inkscape:connector-curvature="0" />
	<path style="fill:none;stroke:red;stroke-width:1px;stroke-linecap:butt;stroke-linejoin:miter;stroke-opacity:1" d="M 685.939,332.704 695.751,332.704 z" id="boundary" inkscape:connector-curvature="0" />
	<path style="fill:none;stroke:red;stroke-width:1px;stroke-linecap:butt;stroke-linejoin:miter;stroke-opacity:1" d="M 691.826,721.262 701.638,721.262 z" id="boundary" inkscape:connector-curvature="0" />
	<path style="fill:none;stroke:red;stroke-width:1px;stroke-linecap:butt;stroke-linejoin:miter;stroke-opacity:1" d="M 695.751,332.704 705.563,332.704 z" id="boundary" inkscape:connector-curvature="0" />
	<path style="fill:none;stroke:red;stroke-width:1px;stroke-linecap:butt;stroke-linejoin:miter;stroke-opacity:1" d="M 701.638,721.262 710.469,716.356 z" id="boundary" inkscape:connector-curvature="0" />
	<path style="fill:none;stroke:red;stroke-width:1px;stroke-linecap:butt;stroke-linejoin:miter;stroke-opacity:1" d="M 705.563,332.704 715.375,332.704 z" id="boundary" inkscape:connector-curvature="0" />
	<path style="fill:none;stroke:red;stroke-width:1px;stroke-linecap:butt;stroke-linejoin:miter;stroke-opacity:1" d="M 710.469,716.356 720.281,716.356 z" id="boundary" inkscape:connector-curvature="0" />
	<path style="fill:none;stroke:red;stroke-width:1px;stroke-linecap:butt;stroke-linejoin:miter;stroke-opacity:1" d="M 715.375,332.704 724.206,337.61 z" id="boundary" inkscape:connector-curvature="0" />
	<path style="fill:none;stroke:red;stroke-width:1px;stroke-linecap:butt;stroke-linejoin:miter;stroke-opacity:1" d="M 720.281,716.356 730.093,713.412 z" id="boundary" inkscape:connector-curvature="0" />
	<path style="fill:none;stroke:red;stroke-width:1px;stroke-linecap:butt;stroke-linejoin:miter;stroke-opacity:1" d="M 724.206,337.61 734.018,338.591 z" id="boundary" inkscape:connector-curvature="0" />
	<path style="fill:none;stroke:red;stroke-width:1px;stroke-linecap:butt;stroke-linejoin:miter;stroke-opacity:1" d="M 730.093,713.412 739.905,711.45 z" id="boundary" inkscape:connector-curvature="0" />
	<path style="fill:none;stroke:red;stroke-width:1px;stroke-linecap:butt;stroke-linejoin:miter;stroke-opacity:1" d="M 734.018,338.591 743.83,342.516 z" id="boundary" inkscape:connector-curvature="0" />
	<path style="fill:none;stroke:red;stroke-width:1px;stroke-linecap:butt;stroke-linejoin:miter;stroke-opacity:1" d="M 739.905,711.45 749.717,711.45 z" id="boundary" inkscape:connector-curvature="0" />
	<path style="fill:none;stroke:red;stroke-width:1px;stroke-linecap:butt;stroke-linejoin:miter;stroke-opacity:1" d="M 743.83,342.516 752.661,347.422 z" id="boundary" inkscape:connector-curvature="0" />
	<path style="fill:none;stroke:red;stroke-width:1px;stroke-linecap:butt;stroke-linejoin:miter;stroke-opacity:1" d="M 749.717,711.45 759.529,711.45 z" id="boundary" inkscape:connector-curvature="0" />
	<path style="fill:none;stroke:red;stroke-width:1px;stroke-linecap:butt;stroke-linejoin:miter;stroke-opacity:1" d="M 752.661,347.422 761.492,352.328 z" id="boundary" inkscape:connector-curvature="0" />
	<path style="fill:none;stroke:red;stroke-width:1px;stroke-linecap:butt;stroke-linejoin:miter;stroke-opacity:1" d="M 759.529,711.45 768.36,706.544 z" id="boundary" inkscape:connector-curvature="0" />
	<path style="fill:none;stroke:red;stroke-width:1px;stroke-linecap:butt;stroke-linejoin:miter;stroke-opacity:1" d="M 761.492,352.328 771.304,352.328 z" id="boundary" inkscape:connector-curvature="0" />
	<path style="fill:none;stroke:red;stroke-width:1px;stroke-linecap:butt;stroke-linejoin:miter;stroke-opacity:1" d="M 768.36,706.544 778.172,706.544 z" id="boundary" inkscape:connector-curvature="0" />
	<path style="fill:none;stroke:red;stroke-width:1px;stroke-linecap:butt;stroke-linejoin:miter;stroke-opacity:1" d="M 771.304,352.328 780.135,357.234 z" id="boundary" inkscape:connector-curvature="0" />
	<path style="fill:none;stroke:red;stroke-width:1px;stroke-linecap:butt;stroke-linejoin:miter;stroke-opacity:1" d="M 778.172,706.544 787.984,704.582 z" id="boundary" inkscape:connector-curvature="0" />
	<path style="fill:none;stroke:red;stroke-width:1px;stroke-linecap:butt;stroke-linejoin:miter;stroke-opacity:1" d="M 780.135,357.234 789.947,360.178 z" id="boundary" inkscape:connector-curvature="0" />
	<path style="fill:none;stroke:red;stroke-width:1px;stroke-linecap:butt;stroke-linejoin:miter;stroke-opacity:1" d="M 787.984,704.582 797.796,699.676 z" id="boundary" inkscape:connector-curvature="0" />
	<path style="fill:none;stroke:red;stroke-width:1px;stroke-linecap:butt;stroke-linejoin:miter;stroke-opacity:1" d="M 789.947,360.178 797.796,367.046 z" id="boundary" inkscape:connector-curvature="0" />
	<path style="fill:none;stroke:red;stroke-width:1px;stroke-linecap:butt;stroke-linejoin:miter;stroke-opacity:1" d="M 797.796,367.046 804.665,374.896 z" id="boundary" inkscape:connector-curvature="0" />
	<path style="fill:none;stroke:red;stroke-width:1px;stroke-linecap:butt;stroke-linejoin:miter;stroke-opacity:1" d="M 797.796,699.676 807.608,696.732 z" id="boundary" inkscape:connector-curvature="0" />
	<path style="fill:none;stroke:red;stroke-width:1px;stroke-linecap:butt;stroke-linejoin:miter;stroke-opacity:1" d="M 804.665,374.896 809.571,383.727 z" id="boundary" inkscape:connector-curvature="0" />
	<path style="fill:none;stroke:red;stroke-width:1px;stroke-linecap:butt;stroke-linejoin:miter;stroke-opacity:1" d="M 807.608,696.732 816.439,691.826 z" id="boundary" inkscape:connector-curvature="0" />
	<path style="fill:none;stroke:red;stroke-width:1px;stroke-linecap:butt;stroke-linejoin:miter;stroke-opacity:1" d="M 809.571,383.727 809.571,393.539 z" id="boundary" inkscape:connector-curvature="0" />
	<path style="fill:none;stroke:red;stroke-width:1px;stroke-linecap:butt;stroke-linejoin:miter;stroke-opacity:1" d="M 809.571,393.539 809.571,403.351 z" id="boundary" inkscape:connector-curvature="0" />
	<path style="fill:none;stroke:red;stroke-width:1px;stroke-linecap:butt;stroke-linejoin:miter;stroke-opacity:1" d="M 809.571,403.351 815.458,411.201 z" id="boundary" inkscape:connector-curvature="0" />
	<path style="fill:none;stroke:red;stroke-width:1px;stroke-linecap:butt;stroke-linejoin:miter;stroke-opacity:1" d="M 815.458,411.201 825.27,411.201 z" id="boundary" inkscape:connector-curvature="0" />
	<path style="fill:none;stroke:red;stroke-width:1px;stroke-linecap:butt;stroke-linejoin:miter;stroke-opacity:1" d="M 816.439,691.826 826.251,690.845 z" id="boundary" inkscape:connector-curvature="0" />
	<path style="fill:none;stroke:red;stroke-width:1px;stroke-linecap:butt;stroke-linejoin:miter;stroke-opacity:1" d="M 825.27,411.201 835.082,411.201 z" id="boundary" inkscape:connector-curvature="0" />
	<path style="fill:none;stroke:red;stroke-width:1px;stroke-linecap:butt;stroke-linejoin:miter;stroke-opacity:1" d="M 826.251,690.845 836.063,686.92 z" id="boundary" inkscape:connector-curvature="0" />
	<path style="fill:none;stroke:red;stroke-width:1px;stroke-linecap:butt;stroke-linejoin:miter;stroke-opacity:1" d="M 835.082,411.201 843.913,416.107 z" id="boundary" inkscape:connector-curvature="0" />
	<path style="fill:none;stroke:red;stroke-width:1px;stroke-linecap:butt;stroke-linejoin:miter;stroke-opacity:1" d="M 836.063,686.92 844.894,682.014 z" id="boundary" inkscape:connector-curvature="0" />
	<path style="fill:none;stroke:red;stroke-width:1px;stroke-linecap:butt;stroke-linejoin:miter;stroke-opacity:1" d="M 843.913,416.107 853.725,419.05 z" id="boundary" inkscape:connector-curvature="0" />
	<path style="fill:none;stroke:red;stroke-width:1px;stroke-linecap:butt;stroke-linejoin:miter;stroke-opacity:1" d="M 844.894,682.014 853.725,677.108 z" id="boundary" inkscape:connector-curvature="0" />
	<path style="fill:none;stroke:red;stroke-width:1px;stroke-linecap:butt;stroke-linejoin:miter;stroke-opacity:1" d="M 853.725,419.05 863.537,421.013 z" id="boundary" inkscape:connector-curvature="0" />
	<path style="fill:none;stroke:red;stroke-width:1px;stroke-linecap:butt;stroke-linejoin:miter;stroke-opacity:1" d="M 853.725,677.108 863.537,677.108 z" id="boundary" inkscape:connector-curvature="0" />
	<path style="fill:none;stroke:red;stroke-width:1px;stroke-linecap:butt;stroke-linejoin:miter;stroke-opacity:1" d="M 863.537,421.013 872.368,425.919 z" id="boundary" inkscape:connector-curvature="0" />
	<path style="fill:none;stroke:red;stroke-width:1px;stroke-linecap:butt;stroke-linejoin:miter;stroke-opacity:1" d="M 863.537,677.108 872.368,672.202 z" id="boundary" inkscape:connector-curvature="0" />
	<path style="fill:none;stroke:red;stroke-width:1px;stroke-linecap:butt;stroke-linejoin:miter;stroke-opacity:1" d="M 872.368,425.919 880.218,431.806 z" id="boundary" inkscape:connector-curvature="0" />
	<path style="fill:none;stroke:red;stroke-width:1px;stroke-linecap:butt;stroke-linejoin:miter;stroke-opacity:1" d="M 872.368,672.202 882.18,669.258 z" id="boundary" inkscape:connector-curvature="0" />
	<path style="fill:none;stroke:red;stroke-width:1px;stroke-linecap:butt;stroke-linejoin:miter;stroke-opacity:1" d="M 880.218,431.806 890.03,435.731 z" id="boundary" inkscape:connector-curvature="0" />
	<path style="fill:none;stroke:red;stroke-width:1px;stroke-linecap:butt;stroke-linejoin:miter;stroke-opacity:1" d="M 882.18,669.258 891.992,664.352 z" id="boundary" inkscape:connector-curvature="0" />
	<path style="fill:none;stroke:red;stroke-width:1px;stroke-linecap:butt;stroke-linejoin:miter;stroke-opacity:1" d="M 890.03,435.731 896.898,443.581 z" id="boundary" inkscape:connector-curvature="0" />
	<path style="fill:none;stroke:red;stroke-width:1px;stroke-linecap:butt;stroke-linejoin:miter;stroke-opacity:1" d="M 891.992,664.352 901.804,662.39 z" id="boundary" inkscape:connector-curvature="0" />
	<path style="fill:none;stroke:red;stroke-width:1px;stroke-linecap:butt;stroke-linejoin:miter;stroke-opacity:1" d="M 896.898,443.581 904.748,450.449 z" id="boundary" inkscape:connector-curvature="0" />
	<path style="fill:none;stroke:red;stroke-width:1px;stroke-linecap:butt;stroke-linejoin:miter;stroke-opacity:1" d="M 901.804,662.39 911.616,659.446 z" id="boundary" inkscape:connector-curvature="0" />
	<path style="fill:none;stroke:red;stroke-width:1px;stroke-linecap:butt;stroke-linejoin:miter;stroke-opacity:1" d="M 904.748,450.449 911.616,458.299 z" id="boundary" inkscape:connector-curvature="0" />
	<path style="fill:none;stroke:red;stroke-width:1px;stroke-linecap:butt;stroke-linejoin:miter;stroke-opacity:1" d="M 911.616,458.299 919.466,465.167 z" id="boundary" inkscape:connector-curvature="0" />
	<path style="fill:none;stroke:red;stroke-width:1px;stroke-linecap:butt;stroke-linejoin:miter;stroke-opacity:1" d="M 911.616,659.446 921.428,657.484 z" id="boundary" inkscape:connector-curvature="0" />
	<path style="fill:none;stroke:red;stroke-width:1px;stroke-linecap:butt;stroke-linejoin:miter;stroke-opacity:1" d="M 919.466,465.167 928.297,470.073 z" id="boundary" inkscape:connector-curvature="0" />
	<path style="fill:none;stroke:red;stroke-width:1px;stroke-linecap:butt;stroke-linejoin:miter;stroke-opacity:1" d="M 921.428,657.484 931.24,657.484 z" id="boundary" inkscape:connector-curvature="0" />
	<path style="fill:none;stroke:red;stroke-width:1px;stroke-linecap:butt;stroke-linejoin:miter;stroke-opacity:1" d="M 928.297,470.073 937.128,474.979 z" id="boundary" inkscape:connector-curvature="0" />
	<path style="fill:none;stroke:red;stroke-width:1px;stroke-linecap:butt;stroke-linejoin:miter;stroke-opacity:1" d="M 931.24,657.484 940.071,652.578 z" id="boundary" inkscape:connector-curvature="0" />
	<path style="fill:none;stroke:red;stroke-width:1px;stroke-linecap:butt;stroke-linejoin:miter;stroke-opacity:1" d="M 937.128,474.979 944.977,480.866 z" id="boundary" inkscape:connector-curvature="0" />
	<path style="fill:none;stroke:red;stroke-width:1px;stroke-linecap:butt;stroke-linejoin:miter;stroke-opacity:1" d="M 940.071,652.578 948.902,647.672 z" id="boundary" inkscape:connector-curvature="0" />
	<path style="fill:none;stroke:red;stroke-width:1px;stroke-linecap:butt;stroke-linejoin:miter;stroke-opacity:1" d="M 944.977,480.866 951.846,488.716 z" id="boundary" inkscape:connector-curvature="0" />
	<path style="fill:none;stroke:red;stroke-width:1px;stroke-linecap:butt;stroke-linejoin:miter;stroke-opacity:1" d="M 948.902,647.672 958.714,646.69 z" id="boundary" inkscape:connector-curvature="0" />
	<path style="fill:none;stroke:red;stroke-width:1px;stroke-linecap:butt;stroke-linejoin:miter;stroke-opacity:1" d="M 951.846,488.716 959.695,495.585 z" id="boundary" inkscape:connector-curvature="0" />
	<path style="fill:none;stroke:red;stroke-width:1px;stroke-linecap:butt;stroke-linejoin:miter;stroke-opacity:1" d="M 958.714,646.69 968.526,641.784 z" id="boundary" inkscape:connector-curvature="0" />
	<path style="fill:none;stroke:red;stroke-width:1px;stroke-linecap:butt;stroke-linejoin:miter;stroke-opacity:1" d="M 959.695,495.585 966.564,503.434 z" id="boundary" inkscape:connector-curvature="0" />
	<path style="fill:none;stroke:red;stroke-width:1px;stroke-linecap:butt;stroke-linejoin:miter;stroke-opacity:1" d="M 966.564,503.434 974.413,510.303 z" id="boundary" inkscape:connector-curvature="0" />
	<path style="fill:none;stroke:red;stroke-width:1px;stroke-linecap:butt;stroke-linejoin:miter;stroke-opacity:1" d="M 968.526,641.784 976.376,632.954 z" id="boundary" inkscape:connector-curvature="0" />
	<path style="fill:none;stroke:red;stroke-width:1px;stroke-linecap:butt;stroke-linejoin:miter;stroke-opacity:1" d="M 974.413,510.303 978.338,520.115 z" id="boundary" inkscape:connector-curvature="0" />
	<path style="fill:none;stroke:red;stroke-width:1px;stroke-linecap:butt;stroke-linejoin:miter;stroke-opacity:1" d="M 976.376,632.954 981.282,623.141 z" id="boundary" inkscape:connector-curvature="0" />
	<path style="fill:none;stroke:red;stroke-width:1px;stroke-linecap:butt;stroke-linejoin:miter;stroke-opacity:1" d="M 978.338,520.115 983.244,528.946 z" id="boundary" inkscape:connector-curvature="0" />
	<path style="fill:none;stroke:red;stroke-width:1px;stroke-linecap:butt;stroke-linejoin:miter;stroke-opacity:1" d="M 981.282,623.141 986.188,613.329 z" id="boundary" inkscape:connector-curvature="0" />
	<path style="fill:none;stroke:red;stroke-width:1px;stroke-linecap:butt;stroke-linejoin:miter;stroke-opacity:1" d="M 983.244,528.946 986.188,538.758 z" id="boundary" inkscape:connector-curvature="0" />
	<path style="fill:none;stroke:red;stroke-width:1px;stroke-linecap:butt;stroke-linejoin:miter;stroke-opacity:1" d="M 986.188,538.758 991.094,547.589 z" id="boundary" inkscape:connector-curvature="0" />
	<path style="fill:none;stroke:red;stroke-width:1px;stroke-linecap:butt;stroke-linejoin:miter;stroke-opacity:1" d="M 986.188,613.329 991.094,598.611 z" id="boundary" inkscape:connector-curvature="0" />
	<path style="fill:none;stroke:red;stroke-width:1px;stroke-linecap:butt;stroke-linejoin:miter;stroke-opacity:1" d="M 991.094,547.589 996,556.419 z" id="boundary" inkscape:connector-curvature="0" />
	<path style="fill:none;stroke:red;stroke-width:1px;stroke-linecap:butt;stroke-linejoin:miter;stroke-opacity:1" d="M 991.094,598.611 996,585.856 z" id="boundary" inkscape:connector-curvature="0" />
	<path style="fill:none;stroke:red;stroke-width:1px;stroke-linecap:butt;stroke-linejoin:miter;stroke-opacity:1" d="M 996,556.419 996,566.231 z" id="boundary" inkscape:connector-curvature="0" />
	<path style="fill:none;stroke:red;stroke-width:1px;stroke-linecap:butt;stroke-linejoin:miter;stroke-opacity:1" d="M 996,566.231 996,576.044 z" id="boundary" inkscape:connector-curvature="0" />
	<path style="fill:none;stroke:red;stroke-width:1px;stroke-linecap:butt;stroke-linejoin:miter;stroke-opacity:1" d="M 996,576.044 996,585.856 z" id="boundary" inkscape:connector-curvature="0" />
	<circle cx="4" cy="526.983" r="4" fill="#0" id="circle0"/>
	<circle cx="4" cy="536.795" r="4" fill="#0" id="circle1"/>
	<circle cx="4" cy="546.607" r="4" fill="#0" id="circle2"/>
	<circle cx="8.90603" cy="517.171" r="4" fill="#0" id="circle3"/>
	<circle cx="8.90603" cy="555.438" r="4" fill="#0" id="circle4"/>
	<circle cx="8.90603" cy="565.25" r="4" fill="#0" id="circle5"/>
	<circle cx="8.90603" cy="575.062" r="4" fill="#0" id="circle6"/>
	<circle cx="13.8121" cy="583.893" r="4" fill="#0" id="circle7"/>
	<circle cx="16.7557" cy="509.321" r="4" fill="#0" id="circle8"/>
	<circle cx="16.7557" cy="593.705" r="4" fill="#0" id="circle9"/>
	<circle cx="21.6617" cy="602.536" r="4" fill="#0" id="circle10"/>
	<circle cx="24.6053" cy="501.472" r="4" fill="#0" id="circle11"/>
	<circle cx="25.5865" cy="612.348" r="4" fill="#0" id="circle12"/>
	<circle cx="30.4926" cy="621.179" r="4" fill="#0" id="circle13"/>
	<circle cx="34.4174" cy="496.566" r="4" fill="#0" id="circle14"/>
	<circle cx="34.4174" cy="630.991" r="4" fill="#0" id="circle15"/>
	<circle cx="42.2671" cy="637.86" r="4" fill="#0" id="circle16"/>
	<circle cx="44.2295" cy="494.603" r="4" fill="#0" id="circle17"/>
	<circle cx="49.1355" cy="645.709" r="4" fill="#0" id="circle18"/>
	<circle cx="53.0603" cy="489.697" r="4" fill="#0" id="circle19"/>
	<circle cx="58.9476" cy="649.634" r="4" fill="#0" id="circle20"/>
	<circle cx="61.8912" cy="484.791" r="4" fill="#0" id="circle21"/>
	<circle cx="67.7784" cy="654.54" r="4" fill="#0" id="circle22"/>
	<circle cx="70.7221" cy="479.885" r="4" fill="#0" id="circle23"/>
	<circle cx="77.5905" cy="657.484" r="4" fill="#0" id="circle24"/>
	<circle cx="80.5341" cy="474.979" r="4" fill="#0" id="circle25"/>
	<circle cx="86.4214" cy="662.39" r="4" fill="#0" id="circle26"/>
	<circle cx="90.3462" cy="470.073" r="4" fill="#0" id="circle27"/>
	<circle cx="93.2898" cy="670.239" r="4" fill="#0" id="circle28"/>
	<circle cx="99.1771" cy="465.167" r="4" fill="#0" id="circle29"/>
	<circle cx="103.102" cy="674.164" r="4" fill="#0" id="circle30"/>
	<circle cx="107.027" cy="458.299" r="4" fill="#0" id="circle31"/>
	<circle cx="111.933" cy="679.07" r="4" fill="#0" id="circle32"/>
	<circle cx="116.839" cy="453.393" r="4" fill="#0" id="circle33"/>
	<circle cx="121.745" cy="682.014" r="4" fill="#0" id="circle34"/>
	<circle cx="126.651" cy="448.487" r="4" fill="#0" id="circle35"/>
	<circle cx="130.576" cy="686.92" r="4" fill="#0" id="circle36"/>
	<circle cx="136.463" cy="443.581" r="4" fill="#0" id="circle37"/>
	<circle cx="139.407" cy="691.826" r="4" fill="#0" id="circle38"/>
	<circle cx="146.275" cy="440.637" r="4" fill="#0" id="circle39"/>
	<circle cx="149.219" cy="691.826" r="4" fill="#0" id="circle40"/>
	<circle cx="155.106" cy="435.731" r="4" fill="#0" id="circle41"/>
	<circle cx="159.031" cy="695.751" r="4" fill="#0" id="circle42"/>
	<circle cx="164.918" cy="435.731" r="4" fill="#0" id="circle43"/>
	<circle cx="168.843" cy="696.732" r="4" fill="#0" id="circle44"/>
	<circle cx="173.749" cy="430.825" r="4" fill="#0" id="circle45"/>
	<circle cx="177.674" cy="701.638" r="4" fill="#0" id="circle46"/>
	<circle cx="180.617" cy="384.708" r="4" fill="#0" id="circle47"/>
	<circle cx="180.617" cy="394.52" r="4" fill="#0" id="circle48"/>
	<circle cx="180.617" cy="404.332" r="4" fill="#0" id="circle49"/>
	<circle cx="180.617" cy="414.144" r="4" fill="#0" id="circle50"/>
	<circle cx="187.486" cy="701.638" r="4" fill="#0" id="circle51"/>
	<circle cx="188.467" cy="376.859" r="4" fill="#0" id="circle52"/>
	<circle cx="197.298" cy="371.953" r="4" fill="#0" id="circle53"/>
	<circle cx="197.298" cy="701.638" r="4" fill="#0" id="circle54"/>
	<circle cx="207.11" cy="371.953" r="4" fill="#0" id="circle55"/>
	<circle cx="207.11" cy="704.582" r="4" fill="#0" id="circle56"/>
	<circle cx="215.941" cy="367.046" r="4" fill="#0" id="circle57"/>
	<circle cx="216.922" cy="706.544" r="4" fill="#0" id="circle58"/>
	<circle cx="224.772" cy="362.14" r="4" fill="#0" id="circle59"/>
	<circle cx="226.734" cy="706.544" r="4" fill="#0" id="circle60"/>
	<circle cx="234.584" cy="362.14" r="4" fill="#0" id="circle61"/>
	<circle cx="235.565" cy="711.45" r="4" fill="#0" id="circle62"/>
	<circle cx="244.396" cy="360.178" r="4" fill="#0" id="circle63"/>
	<circle cx="245.377" cy="713.412" r="4" fill="#0" id="circle64"/>
	<circle cx="254.208" cy="355.272" r="4" fill="#0" id="circle65"/>
	<circle cx="254.208" cy="718.318" r="4" fill="#0" id="circle66"/>
	<circle cx="264.02" cy="352.328" r="4" fill="#0" id="circle67"/>
	<circle cx="264.02" cy="721.262" r="4" fill="#0" id="circle68"/>
	<circle cx="272.851" cy="347.422" r="4" fill="#0" id="circle69"/>
	<circle cx="273.832" cy="721.262" r="4" fill="#0" id="circle70"/>
	<circle cx="281.682" cy="342.516" r="4" fill="#0" id="circle71"/>
	<circle cx="282.663" cy="726.168" r="4" fill="#0" id="circle72"/>
	<circle cx="290.512" cy="337.61" r="4" fill="#0" id="circle73"/>
	<circle cx="291.494" cy="731.074" r="4" fill="#0" id="circle74"/>
	<circle cx="299.343" cy="332.704" r="4" fill="#0" id="circle75"/>
	<circle cx="301.306" cy="731.074" r="4" fill="#0" id="circle76"/>
	<circle cx="308.174" cy="327.798" r="4" fill="#0" id="circle77"/>
	<circle cx="311.118" cy="731.074" r="4" fill="#0" id="circle78"/>
	<circle cx="317.005" cy="322.892" r="4" fill="#0" id="circle79"/>
	<circle cx="320.93" cy="734.999" r="4" fill="#0" id="circle80"/>
	<circle cx="326.817" cy="322.892" r="4" fill="#0" id="circle81"/>
	<circle cx="330.742" cy="735.98" r="4" fill="#0" id="circle82"/>
	<circle cx="335.648" cy="317.986" r="4" fill="#0" id="circle83"/>
	<circle cx="340.554" cy="735.98" r="4" fill="#0" id="circle84"/>
	<circle cx="345.46" cy="317.986" r="4" fill="#0" id="circle85"/>
	<circle cx="350.366" cy="735.98" r="4" fill="#0" id="circle86"/>
	<circle cx="355.272" cy="313.08" r="4" fill="#0" id="circle87"/>
	<circle cx="360.178" cy="735.98" r="4" fill="#0" id="circle88"/>
	<circle cx="365.084" cy="313.08" r="4" fill="#0" id="circle89"/>
	<circle cx="369.99" cy="735.98" r="4" fill="#0" id="circle90"/>
	<circle cx="374.896" cy="313.08" r="4" fill="#0" id="circle91"/>
	<circle cx="379.802" cy="735.98" r="4" fill="#0" id="circle92"/>
	<circle cx="384.708" cy="308.174" r="4" fill="#0" id="circle93"/>
	<circle cx="386.671" cy="119.782" r="4" fill="#0" id="circle94"/>
	<circle cx="386.671" cy="129.594" r="4" fill="#0" id="circle95"/>
	<circle cx="389.614" cy="735.98" r="4" fill="#0" id="circle96"/>
	<circle cx="391.577" cy="138.425" r="4" fill="#0" id="circle97"/>
	<circle cx="394.52" cy="111.933" r="4" fill="#0" id="circle98"/>
	<circle cx="394.52" cy="308.174" r="4" fill="#0" id="circle99"/>
	<circle cx="396.483" cy="147.256" r="4" fill="#0" id="circle100"/>
	<circle cx="399.426" cy="157.068" r="4" fill="#0" id="circle101"/>
	<circle cx="399.426" cy="735.98" r="4" fill="#0" id="circle102"/>
	<circle cx="403.351" cy="107.027" r="4" fill="#0" id="circle103"/>
	<circle cx="404.332" cy="165.899" r="4" fill="#0" id="circle104"/>
	<circle cx="404.332" cy="308.174" r="4" fill="#0" id="circle105"/>
	<circle cx="409.238" cy="735.98" r="4" fill="#0" id="circle106"/>
	<circle cx="411.201" cy="173.749" r="4" fill="#0" id="circle107"/>
	<circle cx="413.163" cy="103.102" r="4" fill="#0" id="circle108"/>
	<circle cx="414.144" cy="308.174" r="4" fill="#0" id="circle109"/>
	<circle cx="419.05" cy="180.617" r="4" fill="#0" id="circle110"/>
	<circle cx="419.05" cy="735.98" r="4" fill="#0" id="circle111"/>
	<circle cx="422.975" cy="102.121" r="4" fill="#0" id="circle112"/>
	<circle cx="423.956" cy="308.174" r="4" fill="#0" id="circle113"/>
	<circle cx="427.881" cy="185.523" r="4" fill="#0" id="circle114"/>
	<circle cx="428.863" cy="735.98" r="4" fill="#0" id="circle115"/>
	<circle cx="431.806" cy="107.027" r="4" fill="#0" id="circle116"/>
	<circle cx="433.769" cy="308.174" r="4" fill="#0" id="circle117"/>
	<circle cx="437.693" cy="189.448" r="4" fill="#0" id="circle118"/>
	<circle cx="438.675" cy="735.98" r="4" fill="#0" id="circle119"/>
	<circle cx="441.618" cy="109.97" r="4" fill="#0" id="circle120"/>
	<circle cx="443.581" cy="308.174" r="4" fill="#0" id="circle121"/>
	<circle cx="447.505" cy="191.41" r="4" fill="#0" id="circle122"/>
	<circle cx="448.487" cy="735.98" r="4" fill="#0" id="circle123"/>
	<circle cx="451.43" cy="111.933" r="4" fill="#0" id="circle124"/>
	<circle cx="453.393" cy="308.174" r="4" fill="#0" id="circle125"/>
	<circle cx="457.318" cy="191.41" r="4" fill="#0" id="circle126"/>
	<circle cx="458.299" cy="735.98" r="4" fill="#0" id="circle127"/>
	<circle cx="461.242" cy="111.933" r="4" fill="#0" id="circle128"/>
	<circle cx="463.205" cy="308.174" r="4" fill="#0" id="circle129"/>
	<circle cx="465.167" cy="56.004" r="4" fill="#0" id="circle130"/>
	<circle cx="465.167" cy="65.816" r="4" fill="#0" id="circle131"/>
	<circle cx="465.167" cy="75.6281" r="4" fill="#0" id="circle132"/>
	<circle cx="465.167" cy="85.4402" r="4" fill="#0" id="circle133"/>
	<circle cx="465.167" cy="95.2522" r="4" fill="#0" id="circle134"/>
	<circle cx="467.13" cy="194.354" r="4" fill="#0" id="circle135"/>
	<circle cx="468.111" cy="298.362" r="4" fill="#0" id="circle136"/>
	<circle cx="468.111" cy="735.98" r="4" fill="#0" id="circle137"/>
	<circle cx="470.073" cy="36.3798" r="4" fill="#0" id="circle138"/>
	<circle cx="470.073" cy="46.1919" r="4" fill="#0" id="circle139"/>
	<circle cx="470.073" cy="204.166" r="4" fill="#0" id="circle140"/>
	<circle cx="470.073" cy="213.978" r="4" fill="#0" id="circle141"/>
	<circle cx="470.073" cy="223.79" r="4" fill="#0" id="circle142"/>
	<circle cx="470.073" cy="233.602" r="4" fill="#0" id="circle143"/>
	<circle cx="470.073" cy="243.414" r="4" fill="#0" id="circle144"/>
	<circle cx="470.073" cy="253.227" r="4" fill="#0" id="circle145"/>
	<circle cx="470.073" cy="263.039" r="4" fill="#0" id="circle146"/>
	<circle cx="470.073" cy="272.851" r="4" fill="#0" id="circle147"/>
	<circle cx="470.073" cy="282.663" r="4" fill="#0" id="circle148"/>
	<circle cx="474.979" cy="21.6617" r="4" fill="#0" id="circle149"/>
	<circle cx="477.923" cy="735.98" r="4" fill="#0" id="circle150"/>
	<circle cx="479.885" cy="11.8497" r="4" fill="#0" id="circle151"/>
	<circle cx="487.735" cy="735.98" r="4" fill="#0" id="circle152"/>
	<circle cx="489.697" cy="6.94362" r="4" fill="#0" id="circle153"/>
	<circle cx="497.547" cy="735.98" r="4" fill="#0" id="circle154"/>
	<circle cx="499.509" cy="4" r="4" fill="#0" id="circle155"/>
	<circle cx="507.359" cy="735.98" r="4" fill="#0" id="circle156"/>
	<circle cx="509.321" cy="4" r="4" fill="#0" id="circle157"/>
	<circle cx="517.171" cy="735.98" r="4" fill="#0" id="circle158"/>
	<circle cx="519.134" cy="4" r="4" fill="#0" id="circle159"/>
	<circle cx="526.983" cy="735.98" r="4" fill="#0" id="circle160"/>
	<circle cx="528.946" cy="5.96241" r="4" fill="#0" id="circle161"/>
	<circle cx="529.927" cy="39.3234" r="4" fill="#0" id="circle162"/>
	<circle cx="529.927" cy="49.1355" r="4" fill="#0" id="circle163"/>
	<circle cx="529.927" cy="58.9476" r="4" fill="#0" id="circle164"/>
	<circle cx="529.927" cy="68.7596" r="4" fill="#0" id="circle165"/>
	<circle cx="529.927" cy="78.5717" r="4" fill="#0" id="circle166"/>
	<circle cx="529.927" cy="88.3838" r="4" fill="#0" id="circle167"/>
	<circle cx="529.927" cy="98.1958" r="4" fill="#0" id="circle168"/>
	<circle cx="529.927" cy="108.008" r="4" fill="#0" id="circle169"/>
	<circle cx="534.833" cy="13.8121" r="4" fill="#0" id="circle170"/>
	<circle cx="534.833" cy="23.6241" r="4" fill="#0" id="circle171"/>
	<circle cx="534.833" cy="161.974" r="4" fill="#0" id="circle172"/>
	<circle cx="534.833" cy="171.786" r="4" fill="#0" id="circle173"/>
	<circle cx="534.833" cy="181.598" r="4" fill="#0" id="circle174"/>
	<circle cx="534.833" cy="191.41" r="4" fill="#0" id="circle175"/>
	<circle cx="534.833" cy="201.223" r="4" fill="#0" id="circle176"/>
	<circle cx="534.833" cy="211.035" r="4" fill="#0" id="circle177"/>
	<circle cx="534.833" cy="220.847" r="4" fill="#0" id="circle178"/>
	<circle cx="534.833" cy="230.659" r="4" fill="#0" id="circle179"/>
	<circle cx="534.833" cy="240.471" r="4" fill="#0" id="circle180"/>
	<circle cx="534.833" cy="250.283" r="4" fill="#0" id="circle181"/>
	<circle cx="534.833" cy="260.095" r="4" fill="#0" id="circle182"/>
	<circle cx="534.833" cy="269.907" r="4" fill="#0" id="circle183"/>
	<circle cx="534.833" cy="279.719" r="4" fill="#0" id="circle184"/>
	<circle cx="534.833" cy="289.531" r="4" fill="#0" id="circle185"/>
	<circle cx="534.833" cy="299.343" r="4" fill="#0" id="circle186"/>
	<circle cx="536.795" cy="735.98" r="4" fill="#0" id="circle187"/>
	<circle cx="539.739" cy="111.933" r="4" fill="#0" id="circle188"/>
	<circle cx="539.739" cy="308.174" r="4" fill="#0" id="circle189"/>
	<circle cx="539.739" cy="317.986" r="4" fill="#0" id="circle190"/>
	<circle cx="539.739" cy="327.798" r="4" fill="#0" id="circle191"/>
	<circle cx="544.645" cy="161.974" r="4" fill="#0" id="circle192"/>
	<circle cx="546.607" cy="735.98" r="4" fill="#0" id="circle193"/>
	<circle cx="548.57" cy="332.704" r="4" fill="#0" id="circle194"/>
	<circle cx="549.551" cy="111.933" r="4" fill="#0" id="circle195"/>
	<circle cx="554.457" cy="161.974" r="4" fill="#0" id="circle196"/>
	<circle cx="556.419" cy="735.98" r="4" fill="#0" id="circle197"/>
	<circle cx="558.382" cy="332.704" r="4" fill="#0" id="circle198"/>
	<circle cx="559.363" cy="111.933" r="4" fill="#0" id="circle199"/>
	<circle cx="564.269" cy="161.974" r="4" fill="#0" id="circle200"/>
	<circle cx="566.231" cy="734.999" r="4" fill="#0" id="circle201"/>
	<circle cx="568.194" cy="332.704" r="4" fill="#0" id="circle202"/>
	<circle cx="569.175" cy="111.933" r="4" fill="#0" id="circle203"/>
	<circle cx="574.081" cy="161.974" r="4" fill="#0" id="circle204"/>
	<circle cx="576.044" cy="731.074" r="4" fill="#0" id="circle205"/>
	<circle cx="578.006" cy="332.704" r="4" fill="#0" id="circle206"/>
	<circle cx="578.987" cy="111.933" r="4" fill="#0" id="circle207"/>
	<circle cx="583.893" cy="157.068" r="4" fill="#0" id="circle208"/>
	<circle cx="585.856" cy="731.074" r="4" fill="#0" id="circle209"/>
	<circle cx="587.818" cy="332.704" r="4" fill="#0" id="circle210"/>
	<circle cx="588.799" cy="111.933" r="4" fill="#0" id="circle211"/>
	<circle cx="593.705" cy="157.068" r="4" fill="#0" id="circle212"/>
	<circle cx="595.668" cy="731.074" r="4" fill="#0" id="circle213"/>
	<circle cx="597.63" cy="332.704" r="4" fill="#0" id="circle214"/>
	<circle cx="598.611" cy="111.933" r="4" fill="#0" id="circle215"/>
	<circle cx="602.536" cy="152.162" r="4" fill="#0" id="circle216"/>
	<circle cx="605.48" cy="731.074" r="4" fill="#0" id="circle217"/>
	<circle cx="607.442" cy="332.704" r="4" fill="#0" id="circle218"/>
	<circle cx="608.423" cy="108.989" r="4" fill="#0" id="circle219"/>
	<circle cx="612.348" cy="149.219" r="4" fill="#0" id="circle220"/>
	<circle cx="615.292" cy="731.074" r="4" fill="#0" id="circle221"/>
	<circle cx="617.254" cy="332.704" r="4" fill="#0" id="circle222"/>
	<circle cx="618.235" cy="107.027" r="4" fill="#0" id="circle223"/>
	<circle cx="622.16" cy="144.313" r="4" fill="#0" id="circle224"/>
	<circle cx="625.104" cy="731.074" r="4" fill="#0" id="circle225"/>
	<circle cx="627.066" cy="332.704" r="4" fill="#0" id="circle226"/>
	<circle cx="628.047" cy="109.97" r="4" fill="#0" id="circle227"/>
	<circle cx="631.972" cy="139.407" r="4" fill="#0" id="circle228"/>
	<circle cx="633.935" cy="726.168" r="4" fill="#0" id="circle229"/>
	<circle cx="636.878" cy="114.876" r="4" fill="#0" id="circle230"/>
	<circle cx="636.878" cy="332.704" r="4" fill="#0" id="circle231"/>
	<circle cx="641.784" cy="123.707" r="4" fill="#0" id="circle232"/>
	<circle cx="641.784" cy="134.5" r="4" fill="#0" id="circle233"/>
	<circle cx="643.747" cy="726.168" r="4" fill="#0" id="circle234"/>
	<circle cx="646.69" cy="332.704" r="4" fill="#0" id="circle235"/>
	<circle cx="653.559" cy="726.168" r="4" fill="#0" id="circle236"/>
	<circle cx="656.502" cy="332.704" r="4" fill="#0" id="circle237"/>
	<circle cx="663.371" cy="726.168" r="4" fill="#0" id="circle238"/>
	<circle cx="666.315" cy="332.704" r="4" fill="#0" id="circle239"/>
	<circle cx="673.183" cy="726.168" r="4" fill="#0" id="circle240"/>
	<circle cx="676.127" cy="332.704" r="4" fill="#0" id="circle241"/>
	<circle cx="682.995" cy="726.168" r="4" fill="#0" id="circle242"/>
	<circle cx="685.939" cy="332.704" r="4" fill="#0" id="circle243"/>
	<circle cx="691.826" cy="721.262" r="4" fill="#0" id="circle244"/>
	<circle cx="695.751" cy="332.704" r="4" fill="#0" id="circle245"/>
	<circle cx="701.638" cy="721.262" r="4" fill="#0" id="circle246"/>
	<circle cx="705.563" cy="332.704" r="4" fill="#0" id="circle247"/>
	<circle cx="710.469" cy="716.356" r="4" fill="#0" id="circle248"/>
	<circle cx="715.375" cy="332.704" r="4" fill="#0" id="circle249"/>
	<circle cx="720.281" cy="716.356" r="4" fill="#0" id="circle250"/>
	<circle cx="724.206" cy="337.61" r="4" fill="#0" id="circle251"/>
	<circle cx="730.093" cy="713.412" r="4" fill="#0" id="circle252"/>
	<circle cx="734.018" cy="338.591" r="4" fill="#0" id="circle253"/>
	<circle cx="739.905" cy="711.45" r="4" fill="#0" id="circle254"/>
	<circle cx="743.83" cy="342.516" r="4" fill="#0" id="circle255"/>
	<circle cx="749.717" cy="711.45" r="4" fill="#0" id="circle256"/>
	<circle cx="752.661" cy="347.422" r="4" fill="#0" id="circle257"/>
	<circle cx="759.529" cy="711.45" r="4" fill="#0" id="circle258"/>
	<circle cx="761.492" cy="352.328" r="4" fill="#0" id="circle259"/>
	<circle cx="768.36" cy="706.544" r="4" fill="#0" id="circle260"/>
	<circle cx="771.304" cy="352.328" r="4" fill="#0" id="circle261"/>
	<circle cx="778.172" cy="706.544" r="4" fill="#0" id="circle262"/>
	<circle cx="780.135" cy="357.234" r="4" fill="#0" id="circle263"/>
	<circle cx="787.984" cy="704.582" r="4" fill="#0" id="circle264"/>
	<circle cx="789.947" cy="360.178" r="4" fill="#0" id="circle265"/>
	<circle cx="797.796" cy="367.046" r="4" fill="#0" id="circle266"/>
	<circle cx="797.796" cy="699.676" r="4" fill="#0" id="circle267"/>
	<circle cx="804.665" cy="374.896" r="4" fill="#0" id="circle268"/>
	<circle cx="807.608" cy="696.732" r="4" fill="#0" id="circle269"/>
	<circle cx="809.571" cy="383.727" r="4" fill="#0" id="circle270"/>
	<circle cx="809.571" cy="393.539" r="4" fill="#0" id="circle271"/>
	<circle cx="809.571" cy="403.351" r="4" fill="#0" id="circle272"/>
	<circle cx="815.458" cy="411.201" r="4" fill="#0" id="circle273"/>
	<circle cx="816.439" cy="691.826" r="4" fill="#0" id="circle274"/>
	<circle cx="825.27" cy="411.201" r="4" fill="#0" id="circle275"/>
	<circle cx="826.251" cy="690.845" r="4" fill="#0" id="circle276"/>
	<circle cx="835.082" cy="411.201" r="4" fill="#0" id="circle277"/>
	<circle cx="836.063" cy="686.92" r="4" fill="#0" id="circle278"/>
	<circle cx="843.913" cy="416.107" r="4" fill="#0" id="circle279"/>
	<circle cx="844.894" cy="682.014" r="4" fill="#0" id="circle280"/>
	<circle cx="853.725" cy="419.05" r="4" fill="#0" id="circle281"/>
	<circle cx="853.725" cy="677.108" r="4" fill="#0" id="circle282"/>
	<circle cx="863.537" cy="421.013" r="4" fill="#0" id="circle283"/>
	<circle cx="863.537" cy="677.108" r="4" fill="#0" id="circle284"/>
	<circle cx="872.368" cy="425.919" r="4" fill="#0" id="circle285"/>
	<circle cx="872.368" cy="672.202" r="4" fill="#0" id="circle286"/>
	<circle cx="880.218" cy="431.806" r="4" fill="#0" id="circle287"/>
	<circle cx="882.18" cy="669.258" r="4" fill="#0" id="circle288"/>
	<circle cx="890.03" cy="435.731" r="4" fill="#0" id="circle289"/>
	<circle cx="891.992" cy="664.352" r="4" fill="#0" id="circle290"/>
	<circle cx="896.898" cy="443.581" r="4" fill="#0" id="circle291"/>
	<circle cx="901.804" cy="662.39" r="4" fill="#0" id="circle292"/>
	<circle cx="904.748" cy="450.449" r="4" fill="#0" id="circle293"/>
	<circle cx="911.616" cy="458.299" r="4" fill="#0" id="circle294"/>
	<circle cx="911.616" cy="659.446" r="4" fill="#0" id="circle295"/>
	<circle cx="919.466" cy="465.167" r="4" fill="#0" id="circle296"/>
	<circle cx="921.428" cy="657.484" r="4" fill="#0" id="circle297"/>
	<circle cx="928.297" cy="470.073" r="4" fill="#0" id="circle298"/>
	<circle cx="931.24" cy="657.484" r="4" fill="#0" id="circle299"/>
	<circle cx="937.128" cy="474.979" r="4" fill="#0" id="circle300"/>
	<circle cx="940.071" cy="652.578" r="4" fill="#0" id="circle301"/>
	<circle cx="944.977" cy="480.866" r="4" fill="#0" id="circle302"/>
	<circle cx="948.902" cy="647.672" r="4" fill="#0" id="circle303"/>
	<circle cx="951.846" cy="488.716" r="4" fill="#0" id="circle304"/>
	<circle cx="958.714" cy="646.69" r="4" fill="#0" id="circle305"/>
	<circle cx="959.695" cy="495.585" r="4" fill="#0" id="circle306"/>
	<circle cx="966.564" cy="503.434" r="4" fill="#0" id="circle307"/>
	<circle cx="968.526" cy="641.784" r="4" fill="#0" id="circle308"/>
	<circle cx="974.413" cy="510.303" r="4" fill="#0" id="circle309"/>
	<circle cx="976.376" cy="632.954" r="4" fill="#0" id="circle310"/>
	<circle cx="978.338" cy="520.115" r="4" fill="#0" id="circle311"/>
	<circle cx="981.282" cy="623.141" r="4" fill="#0" id="circle312"/>
	<circle cx="983.244" cy="528.946" r="4" fill="#0" id="circle313"/>
	<circle cx="986.188" cy="538.758" r="4" fill="#0" id="circle314"/>
	<circle cx="986.188" cy="613.329" r="4" fill="#0" id="circle315"/>
	<circle cx="991.094" cy="547.589" r="4" fill="#0" id="circle316"/>
	<circle cx="991.094" cy="598.611" r="4" fill="#0" id="circle317"/>
	<circle cx="996" cy="556.419" r="4" fill="#0" id="circle318"/>
	<circle cx="996" cy="566.231" r="4" fill="#0" id="circle319"/>
	<circle cx="996" cy="576.044" r="4" fill="#0" id="circle320"/>
	<circle cx="996" cy="585.856" r="4" fill="#0" id="circle321"/>
	</g>
</svg>