<?xml version="1.0" encoding="UTF-8" standalone="no"?>
<!-- Created with CurveBenchmark -->
<svg
	xmlns:dc="http://purl.org/dc/elements/1.1/"
	xmlns:cc="http://creativecommons.org/ns#"
	xmlns:rdf="http://www.w3.org/1999/02/22-rdf-syntax-ns#"
	xmlns:svg="http://www.w3.org/2000/svg"
	xmlns="http://www.w3.org/2000/svg"
	xmlns:sodipodi="http://sodipodi.sourceforge.net/DTD/sodipodi-0.dtd"
	xmlns:inkscape="http://www.inkscape.org/namespaces/inkscape"
	width="1000"
	height="1000"
	id="svg2"
	version="1.1"
	sodipodi:docname="manifold/hnncrust-chopper-08.png.txt">
<defs
	id="defs4" />
<metadata
	id="metadata7">
	<rdf:RDF>
		<cc:Work
			rdf:about="">
			<dc:format>image/svg+xml</dc:format>
			<dc:type
				rdf:resource="http://purl.org/dc/dcmitype/StillImage" />
			<dc:title></dc:title>
		</cc:Work>
	</rdf:RDF>
</metadata>
<g
	inkscape:label="Layer 1"
	inkscape:groupmode="layer"
	id="layer1">
	<path style="fill:none;stroke:red;stroke-width:1px;stroke-linecap:butt;stroke-linejoin:miter;stroke-opacity:1" d="M 4,654.711 9.1399,644.431 z" id="boundary" inkscape:connector-curvature="0" />
	<path style="fill:none;stroke:red;stroke-width:1px;stroke-linecap:butt;stroke-linejoin:miter;stroke-opacity:1" d="M 4,654.711 9.1399,663.963 z" id="boundary" inkscape:connector-curvature="0" />
	<path style="fill:none;stroke:red;stroke-width:1px;stroke-linecap:butt;stroke-linejoin:miter;stroke-opacity:1" d="M 9.1399,644.431 14.2798,634.151 z" id="boundary" inkscape:connector-curvature="0" />
	<path style="fill:none;stroke:red;stroke-width:1px;stroke-linecap:butt;stroke-linejoin:miter;stroke-opacity:1" d="M 9.1399,663.963 14.2798,673.215 z" id="boundary" inkscape:connector-curvature="0" />
	<path style="fill:none;stroke:red;stroke-width:1px;stroke-linecap:butt;stroke-linejoin:miter;stroke-opacity:1" d="M 14.2798,634.151 22.5036,625.927 z" id="boundary" inkscape:connector-curvature="0" />
	<path style="fill:none;stroke:red;stroke-width:1px;stroke-linecap:butt;stroke-linejoin:miter;stroke-opacity:1" d="M 14.2798,673.215 20.4477,681.438 z" id="boundary" inkscape:connector-curvature="0" />
	<path style="fill:none;stroke:red;stroke-width:1px;stroke-linecap:butt;stroke-linejoin:miter;stroke-opacity:1" d="M 20.4477,681.438 30.7275,685.55 z" id="boundary" inkscape:connector-curvature="0" />
	<path style="fill:none;stroke:red;stroke-width:1px;stroke-linecap:butt;stroke-linejoin:miter;stroke-opacity:1" d="M 22.5036,625.927 32.7834,620.788 z" id="boundary" inkscape:connector-curvature="0" />
	<path style="fill:none;stroke:red;stroke-width:1px;stroke-linecap:butt;stroke-linejoin:miter;stroke-opacity:1" d="M 24.5596,438.835 24.5596,449.115 z" id="boundary" inkscape:connector-curvature="0" />
	<path style="fill:none;stroke:red;stroke-width:1px;stroke-linecap:butt;stroke-linejoin:miter;stroke-opacity:1" d="M 24.5596,438.835 29.6995,428.555 z" id="boundary" inkscape:connector-curvature="0" />
	<path style="fill:none;stroke:red;stroke-width:1px;stroke-linecap:butt;stroke-linejoin:miter;stroke-opacity:1" d="M 24.5596,449.115 24.5596,459.395 z" id="boundary" inkscape:connector-curvature="0" />
	<path style="fill:none;stroke:red;stroke-width:1px;stroke-linecap:butt;stroke-linejoin:miter;stroke-opacity:1" d="M 24.5596,459.395 24.5596,469.675 z" id="boundary" inkscape:connector-curvature="0" />
	<path style="fill:none;stroke:red;stroke-width:1px;stroke-linecap:butt;stroke-linejoin:miter;stroke-opacity:1" d="M 24.5596,469.675 24.5596,479.954 z" id="boundary" inkscape:connector-curvature="0" />
	<path style="fill:none;stroke:red;stroke-width:1px;stroke-linecap:butt;stroke-linejoin:miter;stroke-opacity:1" d="M 24.5596,479.954 24.5596,490.234 z" id="boundary" inkscape:connector-curvature="0" />
	<path style="fill:none;stroke:red;stroke-width:1px;stroke-linecap:butt;stroke-linejoin:miter;stroke-opacity:1" d="M 24.5596,490.234 24.5596,500.514 z" id="boundary" inkscape:connector-curvature="0" />
	<path style="fill:none;stroke:red;stroke-width:1px;stroke-linecap:butt;stroke-linejoin:miter;stroke-opacity:1" d="M 24.5596,500.514 24.5596,510.794 z" id="boundary" inkscape:connector-curvature="0" />
	<path style="fill:none;stroke:red;stroke-width:1px;stroke-linecap:butt;stroke-linejoin:miter;stroke-opacity:1" d="M 24.5596,510.794 24.5596,521.074 z" id="boundary" inkscape:connector-curvature="0" />
	<path style="fill:none;stroke:red;stroke-width:1px;stroke-linecap:butt;stroke-linejoin:miter;stroke-opacity:1" d="M 24.5596,521.074 24.5596,531.353 z" id="boundary" inkscape:connector-curvature="0" />
	<path style="fill:none;stroke:red;stroke-width:1px;stroke-linecap:butt;stroke-linejoin:miter;stroke-opacity:1" d="M 24.5596,531.353 24.5596,541.633 z" id="boundary" inkscape:connector-curvature="0" />
	<path style="fill:none;stroke:red;stroke-width:1px;stroke-linecap:butt;stroke-linejoin:miter;stroke-opacity:1" d="M 24.5596,541.633 29.6995,550.885 z" id="boundary" inkscape:connector-curvature="0" />
	<path style="fill:none;stroke:red;stroke-width:1px;stroke-linecap:butt;stroke-linejoin:miter;stroke-opacity:1" d="M 29.6995,418.276 29.6995,428.555 z" id="boundary" inkscape:connector-curvature="0" />
	<path style="fill:none;stroke:red;stroke-width:1px;stroke-linecap:butt;stroke-linejoin:miter;stroke-opacity:1" d="M 29.6995,418.276 34.8394,402.856 z" id="boundary" inkscape:connector-curvature="0" />
	<path style="fill:none;stroke:red;stroke-width:1px;stroke-linecap:butt;stroke-linejoin:miter;stroke-opacity:1" d="M 29.6995,550.885 36.8953,559.109 z" id="boundary" inkscape:connector-curvature="0" />
	<path style="fill:none;stroke:red;stroke-width:1px;stroke-linecap:butt;stroke-linejoin:miter;stroke-opacity:1" d="M 30.7275,685.55 41.0073,688.634 z" id="boundary" inkscape:connector-curvature="0" />
	<path style="fill:none;stroke:red;stroke-width:1px;stroke-linecap:butt;stroke-linejoin:miter;stroke-opacity:1" d="M 32.7834,620.788 43.0632,620.788 z" id="boundary" inkscape:connector-curvature="0" />
	<path style="fill:none;stroke:red;stroke-width:1px;stroke-linecap:butt;stroke-linejoin:miter;stroke-opacity:1" d="M 34.8394,402.856 39.9793,392.576 z" id="boundary" inkscape:connector-curvature="0" />
	<path style="fill:none;stroke:red;stroke-width:1px;stroke-linecap:butt;stroke-linejoin:miter;stroke-opacity:1" d="M 36.8953,559.109 47.1751,560.137 z" id="boundary" inkscape:connector-curvature="0" />
	<path style="fill:none;stroke:red;stroke-width:1px;stroke-linecap:butt;stroke-linejoin:miter;stroke-opacity:1" d="M 39.9793,392.576 45.1192,382.296 z" id="boundary" inkscape:connector-curvature="0" />
	<path style="fill:none;stroke:red;stroke-width:1px;stroke-linecap:butt;stroke-linejoin:miter;stroke-opacity:1" d="M 41.0073,688.634 51.287,688.634 z" id="boundary" inkscape:connector-curvature="0" />
	<path style="fill:none;stroke:red;stroke-width:1px;stroke-linecap:butt;stroke-linejoin:miter;stroke-opacity:1" d="M 43.0632,620.788 52.315,625.927 z" id="boundary" inkscape:connector-curvature="0" />
	<path style="fill:none;stroke:red;stroke-width:1px;stroke-linecap:butt;stroke-linejoin:miter;stroke-opacity:1" d="M 45.1192,372.017 45.1192,382.296 z" id="boundary" inkscape:connector-curvature="0" />
	<path style="fill:none;stroke:red;stroke-width:1px;stroke-linecap:butt;stroke-linejoin:miter;stroke-opacity:1" d="M 45.1192,372.017 50.2591,361.737 z" id="boundary" inkscape:connector-curvature="0" />
	<path style="fill:none;stroke:red;stroke-width:1px;stroke-linecap:butt;stroke-linejoin:miter;stroke-opacity:1" d="M 47.1751,560.137 56.4269,565.277 z" id="boundary" inkscape:connector-curvature="0" />
	<path style="fill:none;stroke:red;stroke-width:1px;stroke-linecap:butt;stroke-linejoin:miter;stroke-opacity:1" d="M 50.2591,361.737 55.399,351.457 z" id="boundary" inkscape:connector-curvature="0" />
	<path style="fill:none;stroke:red;stroke-width:1px;stroke-linecap:butt;stroke-linejoin:miter;stroke-opacity:1" d="M 51.287,688.634 61.5668,688.634 z" id="boundary" inkscape:connector-curvature="0" />
	<path style="fill:none;stroke:red;stroke-width:1px;stroke-linecap:butt;stroke-linejoin:miter;stroke-opacity:1" d="M 52.315,625.927 60.5389,633.123 z" id="boundary" inkscape:connector-curvature="0" />
	<path style="fill:none;stroke:red;stroke-width:1px;stroke-linecap:butt;stroke-linejoin:miter;stroke-opacity:1" d="M 55.399,341.177 55.399,351.457 z" id="boundary" inkscape:connector-curvature="0" />
	<path style="fill:none;stroke:red;stroke-width:1px;stroke-linecap:butt;stroke-linejoin:miter;stroke-opacity:1" d="M 55.399,341.177 60.5389,330.897 z" id="boundary" inkscape:connector-curvature="0" />
	<path style="fill:none;stroke:red;stroke-width:1px;stroke-linecap:butt;stroke-linejoin:miter;stroke-opacity:1" d="M 56.4269,565.277 65.6788,570.417 z" id="boundary" inkscape:connector-curvature="0" />
	<path style="fill:none;stroke:red;stroke-width:1px;stroke-linecap:butt;stroke-linejoin:miter;stroke-opacity:1" d="M 60.5389,330.897 65.6788,315.478 z" id="boundary" inkscape:connector-curvature="0" />
	<path style="fill:none;stroke:red;stroke-width:1px;stroke-linecap:butt;stroke-linejoin:miter;stroke-opacity:1" d="M 60.5389,633.123 61.5668,643.403 z" id="boundary" inkscape:connector-curvature="0" />
	<path style="fill:none;stroke:red;stroke-width:1px;stroke-linecap:butt;stroke-linejoin:miter;stroke-opacity:1" d="M 61.5668,643.403 61.5668,653.683 z" id="boundary" inkscape:connector-curvature="0" />
	<path style="fill:none;stroke:red;stroke-width:1px;stroke-linecap:butt;stroke-linejoin:miter;stroke-opacity:1" d="M 61.5668,653.683 66.7067,662.935 z" id="boundary" inkscape:connector-curvature="0" />
	<path style="fill:none;stroke:red;stroke-width:1px;stroke-linecap:butt;stroke-linejoin:miter;stroke-opacity:1" d="M 61.5668,688.634 71.8466,688.634 z" id="boundary" inkscape:connector-curvature="0" />
	<path style="fill:none;stroke:red;stroke-width:1px;stroke-linecap:butt;stroke-linejoin:miter;stroke-opacity:1" d="M 65.6788,315.478 70.8187,305.198 z" id="boundary" inkscape:connector-curvature="0" />
	<path style="fill:none;stroke:red;stroke-width:1px;stroke-linecap:butt;stroke-linejoin:miter;stroke-opacity:1" d="M 65.6788,570.417 75.9585,570.417 z" id="boundary" inkscape:connector-curvature="0" />
	<path style="fill:none;stroke:red;stroke-width:1px;stroke-linecap:butt;stroke-linejoin:miter;stroke-opacity:1" d="M 66.7067,662.935 76.9865,667.047 z" id="boundary" inkscape:connector-curvature="0" />
	<path style="fill:none;stroke:red;stroke-width:1px;stroke-linecap:butt;stroke-linejoin:miter;stroke-opacity:1" d="M 70.8187,305.198 75.9585,294.918 z" id="boundary" inkscape:connector-curvature="0" />
	<path style="fill:none;stroke:red;stroke-width:1px;stroke-linecap:butt;stroke-linejoin:miter;stroke-opacity:1" d="M 71.8466,688.634 82.1264,688.634 z" id="boundary" inkscape:connector-curvature="0" />
	<path style="fill:none;stroke:red;stroke-width:1px;stroke-linecap:butt;stroke-linejoin:miter;stroke-opacity:1" d="M 75.9585,294.918 81.0984,284.638 z" id="boundary" inkscape:connector-curvature="0" />
	<path style="fill:none;stroke:red;stroke-width:1px;stroke-linecap:butt;stroke-linejoin:miter;stroke-opacity:1" d="M 75.9585,570.417 85.2104,575.556 z" id="boundary" inkscape:connector-curvature="0" />
	<path style="fill:none;stroke:red;stroke-width:1px;stroke-linecap:butt;stroke-linejoin:miter;stroke-opacity:1" d="M 76.9865,667.047 87.2663,667.047 z" id="boundary" inkscape:connector-curvature="0" />
	<path style="fill:none;stroke:red;stroke-width:1px;stroke-linecap:butt;stroke-linejoin:miter;stroke-opacity:1" d="M 81.0984,284.638 86.2383,274.359 z" id="boundary" inkscape:connector-curvature="0" />
	<path style="fill:none;stroke:red;stroke-width:1px;stroke-linecap:butt;stroke-linejoin:miter;stroke-opacity:1" d="M 82.1264,688.634 92.4062,688.634 z" id="boundary" inkscape:connector-curvature="0" />
	<path style="fill:none;stroke:red;stroke-width:1px;stroke-linecap:butt;stroke-linejoin:miter;stroke-opacity:1" d="M 85.2104,575.556 94.4622,580.696 z" id="boundary" inkscape:connector-curvature="0" />
	<path style="fill:none;stroke:red;stroke-width:1px;stroke-linecap:butt;stroke-linejoin:miter;stroke-opacity:1" d="M 86.2383,274.359 91.3782,264.079 z" id="boundary" inkscape:connector-curvature="0" />
	<path style="fill:none;stroke:red;stroke-width:1px;stroke-linecap:butt;stroke-linejoin:miter;stroke-opacity:1" d="M 87.2663,667.047 97.5461,663.963 z" id="boundary" inkscape:connector-curvature="0" />
	<path style="fill:none;stroke:red;stroke-width:1px;stroke-linecap:butt;stroke-linejoin:miter;stroke-opacity:1" d="M 91.3782,264.079 99.6021,255.855 z" id="boundary" inkscape:connector-curvature="0" />
	<path style="fill:none;stroke:red;stroke-width:1px;stroke-linecap:butt;stroke-linejoin:miter;stroke-opacity:1" d="M 92.4062,688.634 102.686,688.634 z" id="boundary" inkscape:connector-curvature="0" />
	<path style="fill:none;stroke:red;stroke-width:1px;stroke-linecap:butt;stroke-linejoin:miter;stroke-opacity:1" d="M 94.4622,580.696 103.714,585.836 z" id="boundary" inkscape:connector-curvature="0" />
	<path style="fill:none;stroke:red;stroke-width:1px;stroke-linecap:butt;stroke-linejoin:miter;stroke-opacity:1" d="M 97.5461,663.963 107.826,661.907 z" id="boundary" inkscape:connector-curvature="0" />
	<path style="fill:none;stroke:red;stroke-width:1px;stroke-linecap:butt;stroke-linejoin:miter;stroke-opacity:1" d="M 99.6021,255.855 107.826,247.631 z" id="boundary" inkscape:connector-curvature="0" />
	<path style="fill:none;stroke:red;stroke-width:1px;stroke-linecap:butt;stroke-linejoin:miter;stroke-opacity:1" d="M 102.686,688.634 112.966,688.634 z" id="boundary" inkscape:connector-curvature="0" />
	<path style="fill:none;stroke:red;stroke-width:1px;stroke-linecap:butt;stroke-linejoin:miter;stroke-opacity:1" d="M 103.714,585.836 113.994,585.836 z" id="boundary" inkscape:connector-curvature="0" />
	<path style="fill:none;stroke:red;stroke-width:1px;stroke-linecap:butt;stroke-linejoin:miter;stroke-opacity:1" d="M 107.826,247.631 112.966,237.351 z" id="boundary" inkscape:connector-curvature="0" />
	<path style="fill:none;stroke:red;stroke-width:1px;stroke-linecap:butt;stroke-linejoin:miter;stroke-opacity:1" d="M 107.826,661.907 117.078,656.767 z" id="boundary" inkscape:connector-curvature="0" />
	<path style="fill:none;stroke:red;stroke-width:1px;stroke-linecap:butt;stroke-linejoin:miter;stroke-opacity:1" d="M 112.966,237.351 123.246,232.211 z" id="boundary" inkscape:connector-curvature="0" />
	<path style="fill:none;stroke:red;stroke-width:1px;stroke-linecap:butt;stroke-linejoin:miter;stroke-opacity:1" d="M 112.966,688.634 123.246,688.634 z" id="boundary" inkscape:connector-curvature="0" />
	<path style="fill:none;stroke:red;stroke-width:1px;stroke-linecap:butt;stroke-linejoin:miter;stroke-opacity:1" d="M 113.994,585.836 124.274,585.836 z" id="boundary" inkscape:connector-curvature="0" />
	<path style="fill:none;stroke:red;stroke-width:1px;stroke-linecap:butt;stroke-linejoin:miter;stroke-opacity:1" d="M 117.078,656.767 127.358,656.767 z" id="boundary" inkscape:connector-curvature="0" />
	<path style="fill:none;stroke:red;stroke-width:1px;stroke-linecap:butt;stroke-linejoin:miter;stroke-opacity:1" d="M 123.246,232.211 131.469,225.016 z" id="boundary" inkscape:connector-curvature="0" />
	<path style="fill:none;stroke:red;stroke-width:1px;stroke-linecap:butt;stroke-linejoin:miter;stroke-opacity:1" d="M 123.246,688.634 133.525,683.494 z" id="boundary" inkscape:connector-curvature="0" />
	<path style="fill:none;stroke:red;stroke-width:1px;stroke-linecap:butt;stroke-linejoin:miter;stroke-opacity:1" d="M 124.274,585.836 134.553,585.836 z" id="boundary" inkscape:connector-curvature="0" />
	<path style="fill:none;stroke:red;stroke-width:1px;stroke-linecap:butt;stroke-linejoin:miter;stroke-opacity:1" d="M 127.358,656.767 137.637,654.711 z" id="boundary" inkscape:connector-curvature="0" />
	<path style="fill:none;stroke:red;stroke-width:1px;stroke-linecap:butt;stroke-linejoin:miter;stroke-opacity:1" d="M 131.469,225.016 138.665,216.792 z" id="boundary" inkscape:connector-curvature="0" />
	<path style="fill:none;stroke:red;stroke-width:1px;stroke-linecap:butt;stroke-linejoin:miter;stroke-opacity:1" d="M 133.525,683.494 143.805,683.494 z" id="boundary" inkscape:connector-curvature="0" />
	<path style="fill:none;stroke:red;stroke-width:1px;stroke-linecap:butt;stroke-linejoin:miter;stroke-opacity:1" d="M 134.553,585.836 144.833,585.836 z" id="boundary" inkscape:connector-curvature="0" />
	<path style="fill:none;stroke:red;stroke-width:1px;stroke-linecap:butt;stroke-linejoin:miter;stroke-opacity:1" d="M 137.637,654.711 147.917,651.627 z" id="boundary" inkscape:connector-curvature="0" />
	<path style="fill:none;stroke:red;stroke-width:1px;stroke-linecap:butt;stroke-linejoin:miter;stroke-opacity:1" d="M 138.665,216.792 148.945,211.652 z" id="boundary" inkscape:connector-curvature="0" />
	<path style="fill:none;stroke:red;stroke-width:1px;stroke-linecap:butt;stroke-linejoin:miter;stroke-opacity:1" d="M 143.805,683.494 154.085,683.494 z" id="boundary" inkscape:connector-curvature="0" />
	<path style="fill:none;stroke:red;stroke-width:1px;stroke-linecap:butt;stroke-linejoin:miter;stroke-opacity:1" d="M 144.833,585.836 155.113,585.836 z" id="boundary" inkscape:connector-curvature="0" />
	<path style="fill:none;stroke:red;stroke-width:1px;stroke-linecap:butt;stroke-linejoin:miter;stroke-opacity:1" d="M 147.917,651.627 157.169,646.487 z" id="boundary" inkscape:connector-curvature="0" />
	<path style="fill:none;stroke:red;stroke-width:1px;stroke-linecap:butt;stroke-linejoin:miter;stroke-opacity:1" d="M 148.945,211.652 157.169,204.456 z" id="boundary" inkscape:connector-curvature="0" />
	<path style="fill:none;stroke:red;stroke-width:1px;stroke-linecap:butt;stroke-linejoin:miter;stroke-opacity:1" d="M 154.085,683.494 163.337,678.354 z" id="boundary" inkscape:connector-curvature="0" />
	<path style="fill:none;stroke:red;stroke-width:1px;stroke-linecap:butt;stroke-linejoin:miter;stroke-opacity:1" d="M 155.113,585.836 165.393,585.836 z" id="boundary" inkscape:connector-curvature="0" />
	<path style="fill:none;stroke:red;stroke-width:1px;stroke-linecap:butt;stroke-linejoin:miter;stroke-opacity:1" d="M 157.169,204.456 166.421,199.316 z" id="boundary" inkscape:connector-curvature="0" />
	<path style="fill:none;stroke:red;stroke-width:1px;stroke-linecap:butt;stroke-linejoin:miter;stroke-opacity:1" d="M 157.169,646.487 166.421,641.347 z" id="boundary" inkscape:connector-curvature="0" />
	<path style="fill:none;stroke:red;stroke-width:1px;stroke-linecap:butt;stroke-linejoin:miter;stroke-opacity:1" d="M 163.337,678.354 173.617,678.354 z" id="boundary" inkscape:connector-curvature="0" />
	<path style="fill:none;stroke:red;stroke-width:1px;stroke-linecap:butt;stroke-linejoin:miter;stroke-opacity:1" d="M 165.393,585.836 175.673,585.836 z" id="boundary" inkscape:connector-curvature="0" />
	<path style="fill:none;stroke:red;stroke-width:1px;stroke-linecap:butt;stroke-linejoin:miter;stroke-opacity:1" d="M 166.421,199.316 175.673,194.176 z" id="boundary" inkscape:connector-curvature="0" />
	<path style="fill:none;stroke:red;stroke-width:1px;stroke-linecap:butt;stroke-linejoin:miter;stroke-opacity:1" d="M 166.421,641.347 176.701,636.207 z" id="boundary" inkscape:connector-curvature="0" />
	<path style="fill:none;stroke:red;stroke-width:1px;stroke-linecap:butt;stroke-linejoin:miter;stroke-opacity:1" d="M 173.617,678.354 183.896,678.354 z" id="boundary" inkscape:connector-curvature="0" />
	<path style="fill:none;stroke:red;stroke-width:1px;stroke-linecap:butt;stroke-linejoin:miter;stroke-opacity:1" d="M 175.673,194.176 184.924,189.036 z" id="boundary" inkscape:connector-curvature="0" />
	<path style="fill:none;stroke:red;stroke-width:1px;stroke-linecap:butt;stroke-linejoin:miter;stroke-opacity:1" d="M 175.673,585.836 185.952,585.836 z" id="boundary" inkscape:connector-curvature="0" />
	<path style="fill:none;stroke:red;stroke-width:1px;stroke-linecap:butt;stroke-linejoin:miter;stroke-opacity:1" d="M 176.701,636.207 186.98,631.067 z" id="boundary" inkscape:connector-curvature="0" />
	<path style="fill:none;stroke:red;stroke-width:1px;stroke-linecap:butt;stroke-linejoin:miter;stroke-opacity:1" d="M 183.896,678.354 193.148,673.215 z" id="boundary" inkscape:connector-curvature="0" />
	<path style="fill:none;stroke:red;stroke-width:1px;stroke-linecap:butt;stroke-linejoin:miter;stroke-opacity:1" d="M 184.924,189.036 194.176,183.896 z" id="boundary" inkscape:connector-curvature="0" />
	<path style="fill:none;stroke:red;stroke-width:1px;stroke-linecap:butt;stroke-linejoin:miter;stroke-opacity:1" d="M 185.952,585.836 196.232,585.836 z" id="boundary" inkscape:connector-curvature="0" />
	<path style="fill:none;stroke:red;stroke-width:1px;stroke-linecap:butt;stroke-linejoin:miter;stroke-opacity:1" d="M 186.98,631.067 195.204,622.844 z" id="boundary" inkscape:connector-curvature="0" />
	<path style="fill:none;stroke:red;stroke-width:1px;stroke-linecap:butt;stroke-linejoin:miter;stroke-opacity:1" d="M 193.148,673.215 203.428,673.215 z" id="boundary" inkscape:connector-curvature="0" />
	<path style="fill:none;stroke:red;stroke-width:1px;stroke-linecap:butt;stroke-linejoin:miter;stroke-opacity:1" d="M 194.176,183.896 204.456,181.84 z" id="boundary" inkscape:connector-curvature="0" />
	<path style="fill:none;stroke:red;stroke-width:1px;stroke-linecap:butt;stroke-linejoin:miter;stroke-opacity:1" d="M 195.204,622.844 204.456,612.564 z" id="boundary" inkscape:connector-curvature="0" />
	<path style="fill:none;stroke:red;stroke-width:1px;stroke-linecap:butt;stroke-linejoin:miter;stroke-opacity:1" d="M 196.232,585.836 204.456,592.004 z" id="boundary" inkscape:connector-curvature="0" />
	<path style="fill:none;stroke:red;stroke-width:1px;stroke-linecap:butt;stroke-linejoin:miter;stroke-opacity:1" d="M 203.428,673.215 213.708,673.215 z" id="boundary" inkscape:connector-curvature="0" />
	<path style="fill:none;stroke:red;stroke-width:1px;stroke-linecap:butt;stroke-linejoin:miter;stroke-opacity:1" d="M 204.456,181.84 214.736,178.756 z" id="boundary" inkscape:connector-curvature="0" />
	<path style="fill:none;stroke:red;stroke-width:1px;stroke-linecap:butt;stroke-linejoin:miter;stroke-opacity:1" d="M 204.456,592.004 204.456,602.284 z" id="boundary" inkscape:connector-curvature="0" />
	<path style="fill:none;stroke:red;stroke-width:1px;stroke-linecap:butt;stroke-linejoin:miter;stroke-opacity:1" d="M 204.456,602.284 204.456,612.564 z" id="boundary" inkscape:connector-curvature="0" />
	<path style="fill:none;stroke:red;stroke-width:1px;stroke-linecap:butt;stroke-linejoin:miter;stroke-opacity:1" d="M 213.708,673.215 222.96,668.075 z" id="boundary" inkscape:connector-curvature="0" />
	<path style="fill:none;stroke:red;stroke-width:1px;stroke-linecap:butt;stroke-linejoin:miter;stroke-opacity:1" d="M 214.736,178.756 223.988,173.617 z" id="boundary" inkscape:connector-curvature="0" />
	<path style="fill:none;stroke:red;stroke-width:1px;stroke-linecap:butt;stroke-linejoin:miter;stroke-opacity:1" d="M 222.96,668.075 233.239,668.075 z" id="boundary" inkscape:connector-curvature="0" />
	<path style="fill:none;stroke:red;stroke-width:1px;stroke-linecap:butt;stroke-linejoin:miter;stroke-opacity:1" d="M 223.988,173.617 234.267,173.617 z" id="boundary" inkscape:connector-curvature="0" />
	<path style="fill:none;stroke:red;stroke-width:1px;stroke-linecap:butt;stroke-linejoin:miter;stroke-opacity:1" d="M 233.239,668.075 243.519,668.075 z" id="boundary" inkscape:connector-curvature="0" />
	<path style="fill:none;stroke:red;stroke-width:1px;stroke-linecap:butt;stroke-linejoin:miter;stroke-opacity:1" d="M 234.267,173.617 243.519,168.477 z" id="boundary" inkscape:connector-curvature="0" />
	<path style="fill:none;stroke:red;stroke-width:1px;stroke-linecap:butt;stroke-linejoin:miter;stroke-opacity:1" d="M 243.519,168.477 253.799,168.477 z" id="boundary" inkscape:connector-curvature="0" />
	<path style="fill:none;stroke:red;stroke-width:1px;stroke-linecap:butt;stroke-linejoin:miter;stroke-opacity:1" d="M 243.519,668.075 252.771,662.935 z" id="boundary" inkscape:connector-curvature="0" />
	<path style="fill:none;stroke:red;stroke-width:1px;stroke-linecap:butt;stroke-linejoin:miter;stroke-opacity:1" d="M 252.771,662.935 263.051,662.935 z" id="boundary" inkscape:connector-curvature="0" />
	<path style="fill:none;stroke:red;stroke-width:1px;stroke-linecap:butt;stroke-linejoin:miter;stroke-opacity:1" d="M 253.799,168.477 263.051,163.337 z" id="boundary" inkscape:connector-curvature="0" />
	<path style="fill:none;stroke:red;stroke-width:1px;stroke-linecap:butt;stroke-linejoin:miter;stroke-opacity:1" d="M 263.051,163.337 273.331,163.337 z" id="boundary" inkscape:connector-curvature="0" />
	<path style="fill:none;stroke:red;stroke-width:1px;stroke-linecap:butt;stroke-linejoin:miter;stroke-opacity:1" d="M 263.051,662.935 273.331,662.935 z" id="boundary" inkscape:connector-curvature="0" />
	<path style="fill:none;stroke:red;stroke-width:1px;stroke-linecap:butt;stroke-linejoin:miter;stroke-opacity:1" d="M 273.331,163.337 283.61,163.337 z" id="boundary" inkscape:connector-curvature="0" />
	<path style="fill:none;stroke:red;stroke-width:1px;stroke-linecap:butt;stroke-linejoin:miter;stroke-opacity:1" d="M 273.331,662.935 282.582,657.795 z" id="boundary" inkscape:connector-curvature="0" />
	<path style="fill:none;stroke:red;stroke-width:1px;stroke-linecap:butt;stroke-linejoin:miter;stroke-opacity:1" d="M 282.582,657.795 292.862,657.795 z" id="boundary" inkscape:connector-curvature="0" />
	<path style="fill:none;stroke:red;stroke-width:1px;stroke-linecap:butt;stroke-linejoin:miter;stroke-opacity:1" d="M 283.61,163.337 293.89,159.225 z" id="boundary" inkscape:connector-curvature="0" />
	<path style="fill:none;stroke:red;stroke-width:1px;stroke-linecap:butt;stroke-linejoin:miter;stroke-opacity:1" d="M 292.862,657.795 303.142,657.795 z" id="boundary" inkscape:connector-curvature="0" />
	<path style="fill:none;stroke:red;stroke-width:1px;stroke-linecap:butt;stroke-linejoin:miter;stroke-opacity:1" d="M 293.89,159.225 304.17,158.197 z" id="boundary" inkscape:connector-curvature="0" />
	<path style="fill:none;stroke:red;stroke-width:1px;stroke-linecap:butt;stroke-linejoin:miter;stroke-opacity:1" d="M 303.142,657.795 313.422,652.655 z" id="boundary" inkscape:connector-curvature="0" />
	<path style="fill:none;stroke:red;stroke-width:1px;stroke-linecap:butt;stroke-linejoin:miter;stroke-opacity:1" d="M 304.17,158.197 314.45,158.197 z" id="boundary" inkscape:connector-curvature="0" />
	<path style="fill:none;stroke:red;stroke-width:1px;stroke-linecap:butt;stroke-linejoin:miter;stroke-opacity:1" d="M 313.422,652.655 323.702,652.655 z" id="boundary" inkscape:connector-curvature="0" />
	<path style="fill:none;stroke:red;stroke-width:1px;stroke-linecap:butt;stroke-linejoin:miter;stroke-opacity:1" d="M 314.45,158.197 324.73,158.197 z" id="boundary" inkscape:connector-curvature="0" />
	<path style="fill:none;stroke:red;stroke-width:1px;stroke-linecap:butt;stroke-linejoin:miter;stroke-opacity:1" d="M 317.534,37.9233 322.674,47.1751 z" id="boundary" inkscape:connector-curvature="0" />
	<path style="fill:none;stroke:red;stroke-width:1px;stroke-linecap:butt;stroke-linejoin:miter;stroke-opacity:1" d="M 317.534,37.9233 325.758,29.6995 z" id="boundary" inkscape:connector-curvature="0" />
	<path style="fill:none;stroke:red;stroke-width:1px;stroke-linecap:butt;stroke-linejoin:miter;stroke-opacity:1" d="M 322.674,47.1751 322.674,57.4549 z" id="boundary" inkscape:connector-curvature="0" />
	<path style="fill:none;stroke:red;stroke-width:1px;stroke-linecap:butt;stroke-linejoin:miter;stroke-opacity:1" d="M 322.674,57.4549 329.869,65.6788 z" id="boundary" inkscape:connector-curvature="0" />
	<path style="fill:none;stroke:red;stroke-width:1px;stroke-linecap:butt;stroke-linejoin:miter;stroke-opacity:1" d="M 323.702,652.655 333.981,647.515 z" id="boundary" inkscape:connector-curvature="0" />
	<path style="fill:none;stroke:red;stroke-width:1px;stroke-linecap:butt;stroke-linejoin:miter;stroke-opacity:1" d="M 324.73,158.197 335.009,158.197 z" id="boundary" inkscape:connector-curvature="0" />
	<path style="fill:none;stroke:red;stroke-width:1px;stroke-linecap:butt;stroke-linejoin:miter;stroke-opacity:1" d="M 325.758,29.6995 335.009,24.5596 z" id="boundary" inkscape:connector-curvature="0" />
	<path style="fill:none;stroke:red;stroke-width:1px;stroke-linecap:butt;stroke-linejoin:miter;stroke-opacity:1" d="M 329.869,65.6788 338.093,71.8466 z" id="boundary" inkscape:connector-curvature="0" />
	<path style="fill:none;stroke:red;stroke-width:1px;stroke-linecap:butt;stroke-linejoin:miter;stroke-opacity:1" d="M 333.981,647.515 344.261,647.515 z" id="boundary" inkscape:connector-curvature="0" />
	<path style="fill:none;stroke:red;stroke-width:1px;stroke-linecap:butt;stroke-linejoin:miter;stroke-opacity:1" d="M 335.009,24.5596 344.261,19.4197 z" id="boundary" inkscape:connector-curvature="0" />
	<path style="fill:none;stroke:red;stroke-width:1px;stroke-linecap:butt;stroke-linejoin:miter;stroke-opacity:1" d="M 335.009,158.197 345.289,154.085 z" id="boundary" inkscape:connector-curvature="0" />
	<path style="fill:none;stroke:red;stroke-width:1px;stroke-linecap:butt;stroke-linejoin:miter;stroke-opacity:1" d="M 338.093,71.8466 347.345,76.9865 z" id="boundary" inkscape:connector-curvature="0" />
	<path style="fill:none;stroke:red;stroke-width:1px;stroke-linecap:butt;stroke-linejoin:miter;stroke-opacity:1" d="M 344.261,19.4197 353.513,14.2798 z" id="boundary" inkscape:connector-curvature="0" />
	<path style="fill:none;stroke:red;stroke-width:1px;stroke-linecap:butt;stroke-linejoin:miter;stroke-opacity:1" d="M 344.261,647.515 354.541,642.375 z" id="boundary" inkscape:connector-curvature="0" />
	<path style="fill:none;stroke:red;stroke-width:1px;stroke-linecap:butt;stroke-linejoin:miter;stroke-opacity:1" d="M 345.289,154.085 355.569,153.057 z" id="boundary" inkscape:connector-curvature="0" />
	<path style="fill:none;stroke:red;stroke-width:1px;stroke-linecap:butt;stroke-linejoin:miter;stroke-opacity:1" d="M 347.345,76.9865 357.625,76.9865 z" id="boundary" inkscape:connector-curvature="0" />
	<path style="fill:none;stroke:red;stroke-width:1px;stroke-linecap:butt;stroke-linejoin:miter;stroke-opacity:1" d="M 353.513,14.2798 363.793,12.2238 z" id="boundary" inkscape:connector-curvature="0" />
	<path style="fill:none;stroke:red;stroke-width:1px;stroke-linecap:butt;stroke-linejoin:miter;stroke-opacity:1" d="M 354.541,642.375 364.821,642.375 z" id="boundary" inkscape:connector-curvature="0" />
	<path style="fill:none;stroke:red;stroke-width:1px;stroke-linecap:butt;stroke-linejoin:miter;stroke-opacity:1" d="M 355.569,153.057 364.821,147.917 z" id="boundary" inkscape:connector-curvature="0" />
	<path style="fill:none;stroke:red;stroke-width:1px;stroke-linecap:butt;stroke-linejoin:miter;stroke-opacity:1" d="M 357.625,76.9865 367.905,76.9865 z" id="boundary" inkscape:connector-curvature="0" />
	<path style="fill:none;stroke:red;stroke-width:1px;stroke-linecap:butt;stroke-linejoin:miter;stroke-opacity:1" d="M 363.793,12.2238 374.073,9.1399 z" id="boundary" inkscape:connector-curvature="0" />
	<path style="fill:none;stroke:red;stroke-width:1px;stroke-linecap:butt;stroke-linejoin:miter;stroke-opacity:1" d="M 364.821,147.917 374.073,142.777 z" id="boundary" inkscape:connector-curvature="0" />
	<path style="fill:none;stroke:red;stroke-width:1px;stroke-linecap:butt;stroke-linejoin:miter;stroke-opacity:1" d="M 364.821,642.375 375.101,642.375 z" id="boundary" inkscape:connector-curvature="0" />
	<path style="fill:none;stroke:red;stroke-width:1px;stroke-linecap:butt;stroke-linejoin:miter;stroke-opacity:1" d="M 367.905,76.9865 378.184,76.9865 z" id="boundary" inkscape:connector-curvature="0" />
	<path style="fill:none;stroke:red;stroke-width:1px;stroke-linecap:butt;stroke-linejoin:miter;stroke-opacity:1" d="M 374.073,9.1399 384.352,9.1399 z" id="boundary" inkscape:connector-curvature="0" />
	<path style="fill:none;stroke:red;stroke-width:1px;stroke-linecap:butt;stroke-linejoin:miter;stroke-opacity:1" d="M 374.073,142.777 384.352,135.581 z" id="boundary" inkscape:connector-curvature="0" />
	<path style="fill:none;stroke:red;stroke-width:1px;stroke-linecap:butt;stroke-linejoin:miter;stroke-opacity:1" d="M 375.101,642.375 384.352,637.235 z" id="boundary" inkscape:connector-curvature="0" />
	<path style="fill:none;stroke:red;stroke-width:1px;stroke-linecap:butt;stroke-linejoin:miter;stroke-opacity:1" d="M 378.184,76.9865 379.212,87.2663 z" id="boundary" inkscape:connector-curvature="0" />
	<path style="fill:none;stroke:red;stroke-width:1px;stroke-linecap:butt;stroke-linejoin:miter;stroke-opacity:1" d="M 379.212,87.2663 382.296,97.5461 z" id="boundary" inkscape:connector-curvature="0" />
	<path style="fill:none;stroke:red;stroke-width:1px;stroke-linecap:butt;stroke-linejoin:miter;stroke-opacity:1" d="M 382.296,97.5461 392.576,101.658 z" id="boundary" inkscape:connector-curvature="0" />
	<path style="fill:none;stroke:red;stroke-width:1px;stroke-linecap:butt;stroke-linejoin:miter;stroke-opacity:1" d="M 384.352,9.1399 393.604,4 z" id="boundary" inkscape:connector-curvature="0" />
	<path style="fill:none;stroke:red;stroke-width:1px;stroke-linecap:butt;stroke-linejoin:miter;stroke-opacity:1" d="M 384.352,125.302 384.352,135.581 z" id="boundary" inkscape:connector-curvature="0" />
	<path style="fill:none;stroke:red;stroke-width:1px;stroke-linecap:butt;stroke-linejoin:miter;stroke-opacity:1" d="M 384.352,125.302 392.576,117.078 z" id="boundary" inkscape:connector-curvature="0" />
	<path style="fill:none;stroke:red;stroke-width:1px;stroke-linecap:butt;stroke-linejoin:miter;stroke-opacity:1" d="M 384.352,637.235 394.632,637.235 z" id="boundary" inkscape:connector-curvature="0" />
	<path style="fill:none;stroke:red;stroke-width:1px;stroke-linecap:butt;stroke-linejoin:miter;stroke-opacity:1" d="M 392.576,101.658 392.576,117.078 z" id="boundary" inkscape:connector-curvature="0" />
	<path style="fill:none;stroke:red;stroke-width:1px;stroke-linecap:butt;stroke-linejoin:miter;stroke-opacity:1" d="M 393.604,4 403.884,4 z" id="boundary" inkscape:connector-curvature="0" />
	<path style="fill:none;stroke:red;stroke-width:1px;stroke-linecap:butt;stroke-linejoin:miter;stroke-opacity:1" d="M 394.632,637.235 404.912,637.235 z" id="boundary" inkscape:connector-curvature="0" />
	<path style="fill:none;stroke:red;stroke-width:1px;stroke-linecap:butt;stroke-linejoin:miter;stroke-opacity:1" d="M 403.884,4 414.164,4 z" id="boundary" inkscape:connector-curvature="0" />
	<path style="fill:none;stroke:red;stroke-width:1px;stroke-linecap:butt;stroke-linejoin:miter;stroke-opacity:1" d="M 404.912,637.235 415.192,637.235 z" id="boundary" inkscape:connector-curvature="0" />
	<path style="fill:none;stroke:red;stroke-width:1px;stroke-linecap:butt;stroke-linejoin:miter;stroke-opacity:1" d="M 414.164,4 424.444,4 z" id="boundary" inkscape:connector-curvature="0" />
	<path style="fill:none;stroke:red;stroke-width:1px;stroke-linecap:butt;stroke-linejoin:miter;stroke-opacity:1" d="M 415.192,637.235 425.472,637.235 z" id="boundary" inkscape:connector-curvature="0" />
	<path style="fill:none;stroke:red;stroke-width:1px;stroke-linecap:butt;stroke-linejoin:miter;stroke-opacity:1" d="M 424.444,4 434.723,4 z" id="boundary" inkscape:connector-curvature="0" />
	<path style="fill:none;stroke:red;stroke-width:1px;stroke-linecap:butt;stroke-linejoin:miter;stroke-opacity:1" d="M 425.472,637.235 435.751,634.151 z" id="boundary" inkscape:connector-curvature="0" />
	<path style="fill:none;stroke:red;stroke-width:1px;stroke-linecap:butt;stroke-linejoin:miter;stroke-opacity:1" d="M 426.499,51.287 426.499,61.5668 z" id="boundary" inkscape:connector-curvature="0" />
	<path style="fill:none;stroke:red;stroke-width:1px;stroke-linecap:butt;stroke-linejoin:miter;stroke-opacity:1" d="M 426.499,51.287 435.751,46.1472 z" id="boundary" inkscape:connector-curvature="0" />
	<path style="fill:none;stroke:red;stroke-width:1px;stroke-linecap:butt;stroke-linejoin:miter;stroke-opacity:1" d="M 426.499,61.5668 436.779,65.6788 z" id="boundary" inkscape:connector-curvature="0" />
	<path style="fill:none;stroke:red;stroke-width:1px;stroke-linecap:butt;stroke-linejoin:miter;stroke-opacity:1" d="M 426.499,107.826 426.499,118.106 z" id="boundary" inkscape:connector-curvature="0" />
	<path style="fill:none;stroke:red;stroke-width:1px;stroke-linecap:butt;stroke-linejoin:miter;stroke-opacity:1" d="M 426.499,107.826 436.779,107.826 z" id="boundary" inkscape:connector-curvature="0" />
	<path style="fill:none;stroke:red;stroke-width:1px;stroke-linecap:butt;stroke-linejoin:miter;stroke-opacity:1" d="M 426.499,118.106 426.499,128.385 z" id="boundary" inkscape:connector-curvature="0" />
	<path style="fill:none;stroke:red;stroke-width:1px;stroke-linecap:butt;stroke-linejoin:miter;stroke-opacity:1" d="M 426.499,128.385 431.639,137.637 z" id="boundary" inkscape:connector-curvature="0" />
	<path style="fill:none;stroke:red;stroke-width:1px;stroke-linecap:butt;stroke-linejoin:miter;stroke-opacity:1" d="M 431.639,137.637 439.863,143.805 z" id="boundary" inkscape:connector-curvature="0" />
	<path style="fill:none;stroke:red;stroke-width:1px;stroke-linecap:butt;stroke-linejoin:miter;stroke-opacity:1" d="M 434.723,4 445.003,4 z" id="boundary" inkscape:connector-curvature="0" />
	<path style="fill:none;stroke:red;stroke-width:1px;stroke-linecap:butt;stroke-linejoin:miter;stroke-opacity:1" d="M 435.751,46.1472 445.003,41.0073 z" id="boundary" inkscape:connector-curvature="0" />
	<path style="fill:none;stroke:red;stroke-width:1px;stroke-linecap:butt;stroke-linejoin:miter;stroke-opacity:1" d="M 435.751,634.151 446.031,629.011 z" id="boundary" inkscape:connector-curvature="0" />
	<path style="fill:none;stroke:red;stroke-width:1px;stroke-linecap:butt;stroke-linejoin:miter;stroke-opacity:1" d="M 436.779,65.6788 445.003,71.8466 z" id="boundary" inkscape:connector-curvature="0" />
	<path style="fill:none;stroke:red;stroke-width:1px;stroke-linecap:butt;stroke-linejoin:miter;stroke-opacity:1" d="M 436.779,107.826 445.003,100.63 z" id="boundary" inkscape:connector-curvature="0" />
	<path style="fill:none;stroke:red;stroke-width:1px;stroke-linecap:butt;stroke-linejoin:miter;stroke-opacity:1" d="M 439.863,143.805 450.143,147.917 z" id="boundary" inkscape:connector-curvature="0" />
	<path style="fill:none;stroke:red;stroke-width:1px;stroke-linecap:butt;stroke-linejoin:miter;stroke-opacity:1" d="M 445.003,4 454.255,9.1399 z" id="boundary" inkscape:connector-curvature="0" />
	<path style="fill:none;stroke:red;stroke-width:1px;stroke-linecap:butt;stroke-linejoin:miter;stroke-opacity:1" d="M 445.003,41.0073 454.255,34.8394 z" id="boundary" inkscape:connector-curvature="0" />
	<path style="fill:none;stroke:red;stroke-width:1px;stroke-linecap:butt;stroke-linejoin:miter;stroke-opacity:1" d="M 445.003,71.8466 452.199,80.0705 z" id="boundary" inkscape:connector-curvature="0" />
	<path style="fill:none;stroke:red;stroke-width:1px;stroke-linecap:butt;stroke-linejoin:miter;stroke-opacity:1" d="M 445.003,100.63 452.199,90.3503 z" id="boundary" inkscape:connector-curvature="0" />
	<path style="fill:none;stroke:red;stroke-width:1px;stroke-linecap:butt;stroke-linejoin:miter;stroke-opacity:1" d="M 446.031,629.011 454.255,620.788 z" id="boundary" inkscape:connector-curvature="0" />
	<path style="fill:none;stroke:red;stroke-width:1px;stroke-linecap:butt;stroke-linejoin:miter;stroke-opacity:1" d="M 450.143,147.917 460.423,147.917 z" id="boundary" inkscape:connector-curvature="0" />
	<path style="fill:none;stroke:red;stroke-width:1px;stroke-linecap:butt;stroke-linejoin:miter;stroke-opacity:1" d="M 452.199,80.0705 452.199,90.3503 z" id="boundary" inkscape:connector-curvature="0" />
	<path style="fill:none;stroke:red;stroke-width:1px;stroke-linecap:butt;stroke-linejoin:miter;stroke-opacity:1" d="M 454.255,9.1399 459.395,24.5596 z" id="boundary" inkscape:connector-curvature="0" />
	<path style="fill:none;stroke:red;stroke-width:1px;stroke-linecap:butt;stroke-linejoin:miter;stroke-opacity:1" d="M 454.255,34.8394 459.395,24.5596 z" id="boundary" inkscape:connector-curvature="0" />
	<path style="fill:none;stroke:red;stroke-width:1px;stroke-linecap:butt;stroke-linejoin:miter;stroke-opacity:1" d="M 454.255,620.788 457.339,601.256 z" id="boundary" inkscape:connector-curvature="0" />
	<path style="fill:none;stroke:red;stroke-width:1px;stroke-linecap:butt;stroke-linejoin:miter;stroke-opacity:1" d="M 457.339,580.696 457.339,590.976 z" id="boundary" inkscape:connector-curvature="0" />
	<path style="fill:none;stroke:red;stroke-width:1px;stroke-linecap:butt;stroke-linejoin:miter;stroke-opacity:1" d="M 457.339,580.696 466.591,575.556 z" id="boundary" inkscape:connector-curvature="0" />
	<path style="fill:none;stroke:red;stroke-width:1px;stroke-linecap:butt;stroke-linejoin:miter;stroke-opacity:1" d="M 457.339,590.976 457.339,601.256 z" id="boundary" inkscape:connector-curvature="0" />
	<path style="fill:none;stroke:red;stroke-width:1px;stroke-linecap:butt;stroke-linejoin:miter;stroke-opacity:1" d="M 460.423,147.917 470.703,147.917 z" id="boundary" inkscape:connector-curvature="0" />
	<path style="fill:none;stroke:red;stroke-width:1px;stroke-linecap:butt;stroke-linejoin:miter;stroke-opacity:1" d="M 466.591,575.556 476.87,575.556 z" id="boundary" inkscape:connector-curvature="0" />
	<path style="fill:none;stroke:red;stroke-width:1px;stroke-linecap:butt;stroke-linejoin:miter;stroke-opacity:1" d="M 470.703,147.917 480.982,147.917 z" id="boundary" inkscape:connector-curvature="0" />
	<path style="fill:none;stroke:red;stroke-width:1px;stroke-linecap:butt;stroke-linejoin:miter;stroke-opacity:1" d="M 476.87,575.556 487.15,575.556 z" id="boundary" inkscape:connector-curvature="0" />
	<path style="fill:none;stroke:red;stroke-width:1px;stroke-linecap:butt;stroke-linejoin:miter;stroke-opacity:1" d="M 480.982,147.917 491.262,147.917 z" id="boundary" inkscape:connector-curvature="0" />
	<path style="fill:none;stroke:red;stroke-width:1px;stroke-linecap:butt;stroke-linejoin:miter;stroke-opacity:1" d="M 487.15,575.556 497.43,575.556 z" id="boundary" inkscape:connector-curvature="0" />
	<path style="fill:none;stroke:red;stroke-width:1px;stroke-linecap:butt;stroke-linejoin:miter;stroke-opacity:1" d="M 491.262,147.917 501.542,147.917 z" id="boundary" inkscape:connector-curvature="0" />
	<path style="fill:none;stroke:red;stroke-width:1px;stroke-linecap:butt;stroke-linejoin:miter;stroke-opacity:1" d="M 497.43,575.556 507.71,575.556 z" id="boundary" inkscape:connector-curvature="0" />
	<path style="fill:none;stroke:red;stroke-width:1px;stroke-linecap:butt;stroke-linejoin:miter;stroke-opacity:1" d="M 501.542,147.917 511.822,147.917 z" id="boundary" inkscape:connector-curvature="0" />
	<path style="fill:none;stroke:red;stroke-width:1px;stroke-linecap:butt;stroke-linejoin:miter;stroke-opacity:1" d="M 507.71,575.556 517.99,575.556 z" id="boundary" inkscape:connector-curvature="0" />
	<path style="fill:none;stroke:red;stroke-width:1px;stroke-linecap:butt;stroke-linejoin:miter;stroke-opacity:1" d="M 511.822,147.917 522.102,147.917 z" id="boundary" inkscape:connector-curvature="0" />
	<path style="fill:none;stroke:red;stroke-width:1px;stroke-linecap:butt;stroke-linejoin:miter;stroke-opacity:1" d="M 517.99,575.556 528.269,575.556 z" id="boundary" inkscape:connector-curvature="0" />
	<path style="fill:none;stroke:red;stroke-width:1px;stroke-linecap:butt;stroke-linejoin:miter;stroke-opacity:1" d="M 522.102,147.917 532.381,147.917 z" id="boundary" inkscape:connector-curvature="0" />
	<path style="fill:none;stroke:red;stroke-width:1px;stroke-linecap:butt;stroke-linejoin:miter;stroke-opacity:1" d="M 528.269,575.556 538.549,575.556 z" id="boundary" inkscape:connector-curvature="0" />
	<path style="fill:none;stroke:red;stroke-width:1px;stroke-linecap:butt;stroke-linejoin:miter;stroke-opacity:1" d="M 532.381,147.917 542.661,147.917 z" id="boundary" inkscape:connector-curvature="0" />
	<path style="fill:none;stroke:red;stroke-width:1px;stroke-linecap:butt;stroke-linejoin:miter;stroke-opacity:1" d="M 538.549,575.556 548.829,575.556 z" id="boundary" inkscape:connector-curvature="0" />
	<path style="fill:none;stroke:red;stroke-width:1px;stroke-linecap:butt;stroke-linejoin:miter;stroke-opacity:1" d="M 542.661,147.917 552.941,147.917 z" id="boundary" inkscape:connector-curvature="0" />
	<path style="fill:none;stroke:red;stroke-width:1px;stroke-linecap:butt;stroke-linejoin:miter;stroke-opacity:1" d="M 548.829,575.556 559.109,575.556 z" id="boundary" inkscape:connector-curvature="0" />
	<path style="fill:none;stroke:red;stroke-width:1px;stroke-linecap:butt;stroke-linejoin:miter;stroke-opacity:1" d="M 552.941,147.917 563.221,147.917 z" id="boundary" inkscape:connector-curvature="0" />
	<path style="fill:none;stroke:red;stroke-width:1px;stroke-linecap:butt;stroke-linejoin:miter;stroke-opacity:1" d="M 559.109,575.556 569.389,575.556 z" id="boundary" inkscape:connector-curvature="0" />
	<path style="fill:none;stroke:red;stroke-width:1px;stroke-linecap:butt;stroke-linejoin:miter;stroke-opacity:1" d="M 563.221,147.917 573.501,147.917 z" id="boundary" inkscape:connector-curvature="0" />
	<path style="fill:none;stroke:red;stroke-width:1px;stroke-linecap:butt;stroke-linejoin:miter;stroke-opacity:1" d="M 569.389,575.556 579.668,575.556 z" id="boundary" inkscape:connector-curvature="0" />
	<path style="fill:none;stroke:red;stroke-width:1px;stroke-linecap:butt;stroke-linejoin:miter;stroke-opacity:1" d="M 573.501,147.917 583.78,147.917 z" id="boundary" inkscape:connector-curvature="0" />
	<path style="fill:none;stroke:red;stroke-width:1px;stroke-linecap:butt;stroke-linejoin:miter;stroke-opacity:1" d="M 579.668,575.556 589.948,575.556 z" id="boundary" inkscape:connector-curvature="0" />
	<path style="fill:none;stroke:red;stroke-width:1px;stroke-linecap:butt;stroke-linejoin:miter;stroke-opacity:1" d="M 583.78,147.917 593.032,142.777 z" id="boundary" inkscape:connector-curvature="0" />
	<path style="fill:none;stroke:red;stroke-width:1px;stroke-linecap:butt;stroke-linejoin:miter;stroke-opacity:1" d="M 589.948,575.556 600.228,575.556 z" id="boundary" inkscape:connector-curvature="0" />
	<path style="fill:none;stroke:red;stroke-width:1px;stroke-linecap:butt;stroke-linejoin:miter;stroke-opacity:1" d="M 593.032,142.777 603.312,142.777 z" id="boundary" inkscape:connector-curvature="0" />
	<path style="fill:none;stroke:red;stroke-width:1px;stroke-linecap:butt;stroke-linejoin:miter;stroke-opacity:1" d="M 600.228,575.556 610.508,575.556 z" id="boundary" inkscape:connector-curvature="0" />
	<path style="fill:none;stroke:red;stroke-width:1px;stroke-linecap:butt;stroke-linejoin:miter;stroke-opacity:1" d="M 603.312,142.777 613.592,142.777 z" id="boundary" inkscape:connector-curvature="0" />
	<path style="fill:none;stroke:red;stroke-width:1px;stroke-linecap:butt;stroke-linejoin:miter;stroke-opacity:1" d="M 610.508,575.556 620.788,575.556 z" id="boundary" inkscape:connector-curvature="0" />
	<path style="fill:none;stroke:red;stroke-width:1px;stroke-linecap:butt;stroke-linejoin:miter;stroke-opacity:1" d="M 613.592,142.777 623.872,142.777 z" id="boundary" inkscape:connector-curvature="0" />
	<path style="fill:none;stroke:red;stroke-width:1px;stroke-linecap:butt;stroke-linejoin:miter;stroke-opacity:1" d="M 620.788,575.556 631.067,572.473 z" id="boundary" inkscape:connector-curvature="0" />
	<path style="fill:none;stroke:red;stroke-width:1px;stroke-linecap:butt;stroke-linejoin:miter;stroke-opacity:1" d="M 621.816,236.323 623.872,246.603 z" id="boundary" inkscape:connector-curvature="0" />
	<path style="fill:none;stroke:red;stroke-width:1px;stroke-linecap:butt;stroke-linejoin:miter;stroke-opacity:1" d="M 621.816,236.323 632.095,236.323 z" id="boundary" inkscape:connector-curvature="0" />
	<path style="fill:none;stroke:red;stroke-width:1px;stroke-linecap:butt;stroke-linejoin:miter;stroke-opacity:1" d="M 623.872,142.777 634.151,142.777 z" id="boundary" inkscape:connector-curvature="0" />
	<path style="fill:none;stroke:red;stroke-width:1px;stroke-linecap:butt;stroke-linejoin:miter;stroke-opacity:1" d="M 623.872,246.603 632.095,253.799 z" id="boundary" inkscape:connector-curvature="0" />
	<path style="fill:none;stroke:red;stroke-width:1px;stroke-linecap:butt;stroke-linejoin:miter;stroke-opacity:1" d="M 631.067,572.473 641.347,570.417 z" id="boundary" inkscape:connector-curvature="0" />
	<path style="fill:none;stroke:red;stroke-width:1px;stroke-linecap:butt;stroke-linejoin:miter;stroke-opacity:1" d="M 632.095,236.323 642.375,236.323 z" id="boundary" inkscape:connector-curvature="0" />
	<path style="fill:none;stroke:red;stroke-width:1px;stroke-linecap:butt;stroke-linejoin:miter;stroke-opacity:1" d="M 632.095,253.799 637.235,263.051 z" id="boundary" inkscape:connector-curvature="0" />
	<path style="fill:none;stroke:red;stroke-width:1px;stroke-linecap:butt;stroke-linejoin:miter;stroke-opacity:1" d="M 634.151,142.777 644.431,142.777 z" id="boundary" inkscape:connector-curvature="0" />
	<path style="fill:none;stroke:red;stroke-width:1px;stroke-linecap:butt;stroke-linejoin:miter;stroke-opacity:1" d="M 637.235,263.051 643.403,271.275 z" id="boundary" inkscape:connector-curvature="0" />
	<path style="fill:none;stroke:red;stroke-width:1px;stroke-linecap:butt;stroke-linejoin:miter;stroke-opacity:1" d="M 641.347,570.417 651.627,570.417 z" id="boundary" inkscape:connector-curvature="0" />
	<path style="fill:none;stroke:red;stroke-width:1px;stroke-linecap:butt;stroke-linejoin:miter;stroke-opacity:1" d="M 642.375,236.323 652.655,236.323 z" id="boundary" inkscape:connector-curvature="0" />
	<path style="fill:none;stroke:red;stroke-width:1px;stroke-linecap:butt;stroke-linejoin:miter;stroke-opacity:1" d="M 643.403,271.275 651.627,278.47 z" id="boundary" inkscape:connector-curvature="0" />
	<path style="fill:none;stroke:red;stroke-width:1px;stroke-linecap:butt;stroke-linejoin:miter;stroke-opacity:1" d="M 644.431,142.777 654.711,142.777 z" id="boundary" inkscape:connector-curvature="0" />
	<path style="fill:none;stroke:red;stroke-width:1px;stroke-linecap:butt;stroke-linejoin:miter;stroke-opacity:1" d="M 651.627,278.47 661.907,281.554 z" id="boundary" inkscape:connector-curvature="0" />
	<path style="fill:none;stroke:red;stroke-width:1px;stroke-linecap:butt;stroke-linejoin:miter;stroke-opacity:1" d="M 651.627,570.417 660.879,565.277 z" id="boundary" inkscape:connector-curvature="0" />
	<path style="fill:none;stroke:red;stroke-width:1px;stroke-linecap:butt;stroke-linejoin:miter;stroke-opacity:1" d="M 652.655,236.323 662.935,236.323 z" id="boundary" inkscape:connector-curvature="0" />
	<path style="fill:none;stroke:red;stroke-width:1px;stroke-linecap:butt;stroke-linejoin:miter;stroke-opacity:1" d="M 654.711,142.777 663.963,147.917 z" id="boundary" inkscape:connector-curvature="0" />
	<path style="fill:none;stroke:red;stroke-width:1px;stroke-linecap:butt;stroke-linejoin:miter;stroke-opacity:1" d="M 660.879,565.277 671.159,565.277 z" id="boundary" inkscape:connector-curvature="0" />
	<path style="fill:none;stroke:red;stroke-width:1px;stroke-linecap:butt;stroke-linejoin:miter;stroke-opacity:1" d="M 661.907,281.554 672.187,281.554 z" id="boundary" inkscape:connector-curvature="0" />
	<path style="fill:none;stroke:red;stroke-width:1px;stroke-linecap:butt;stroke-linejoin:miter;stroke-opacity:1" d="M 662.935,236.323 672.187,231.183 z" id="boundary" inkscape:connector-curvature="0" />
	<path style="fill:none;stroke:red;stroke-width:1px;stroke-linecap:butt;stroke-linejoin:miter;stroke-opacity:1" d="M 663.963,147.917 672.187,155.113 z" id="boundary" inkscape:connector-curvature="0" />
	<path style="fill:none;stroke:red;stroke-width:1px;stroke-linecap:butt;stroke-linejoin:miter;stroke-opacity:1" d="M 671.159,565.277 680.41,560.137 z" id="boundary" inkscape:connector-curvature="0" />
	<path style="fill:none;stroke:red;stroke-width:1px;stroke-linecap:butt;stroke-linejoin:miter;stroke-opacity:1" d="M 672.187,155.113 678.354,163.337 z" id="boundary" inkscape:connector-curvature="0" />
	<path style="fill:none;stroke:red;stroke-width:1px;stroke-linecap:butt;stroke-linejoin:miter;stroke-opacity:1" d="M 672.187,231.183 682.466,228.099 z" id="boundary" inkscape:connector-curvature="0" />
	<path style="fill:none;stroke:red;stroke-width:1px;stroke-linecap:butt;stroke-linejoin:miter;stroke-opacity:1" d="M 672.187,281.554 682.466,281.554 z" id="boundary" inkscape:connector-curvature="0" />
	<path style="fill:none;stroke:red;stroke-width:1px;stroke-linecap:butt;stroke-linejoin:miter;stroke-opacity:1" d="M 678.354,163.337 683.494,172.589 z" id="boundary" inkscape:connector-curvature="0" />
	<path style="fill:none;stroke:red;stroke-width:1px;stroke-linecap:butt;stroke-linejoin:miter;stroke-opacity:1" d="M 680.41,560.137 690.69,559.109 z" id="boundary" inkscape:connector-curvature="0" />
	<path style="fill:none;stroke:red;stroke-width:1px;stroke-linecap:butt;stroke-linejoin:miter;stroke-opacity:1" d="M 682.466,228.099 692.746,222.96 z" id="boundary" inkscape:connector-curvature="0" />
	<path style="fill:none;stroke:red;stroke-width:1px;stroke-linecap:butt;stroke-linejoin:miter;stroke-opacity:1" d="M 682.466,281.554 692.746,281.554 z" id="boundary" inkscape:connector-curvature="0" />
	<path style="fill:none;stroke:red;stroke-width:1px;stroke-linecap:butt;stroke-linejoin:miter;stroke-opacity:1" d="M 683.494,172.589 688.634,181.84 z" id="boundary" inkscape:connector-curvature="0" />
	<path style="fill:none;stroke:red;stroke-width:1px;stroke-linecap:butt;stroke-linejoin:miter;stroke-opacity:1" d="M 688.634,181.84 692.746,192.12 z" id="boundary" inkscape:connector-curvature="0" />
	<path style="fill:none;stroke:red;stroke-width:1px;stroke-linecap:butt;stroke-linejoin:miter;stroke-opacity:1" d="M 690.69,559.109 700.97,554.997 z" id="boundary" inkscape:connector-curvature="0" />
	<path style="fill:none;stroke:red;stroke-width:1px;stroke-linecap:butt;stroke-linejoin:miter;stroke-opacity:1" d="M 692.746,192.12 693.774,202.4 z" id="boundary" inkscape:connector-curvature="0" />
	<path style="fill:none;stroke:red;stroke-width:1px;stroke-linecap:butt;stroke-linejoin:miter;stroke-opacity:1" d="M 692.746,222.96 697.886,212.68 z" id="boundary" inkscape:connector-curvature="0" />
	<path style="fill:none;stroke:red;stroke-width:1px;stroke-linecap:butt;stroke-linejoin:miter;stroke-opacity:1" d="M 692.746,281.554 703.026,281.554 z" id="boundary" inkscape:connector-curvature="0" />
	<path style="fill:none;stroke:red;stroke-width:1px;stroke-linecap:butt;stroke-linejoin:miter;stroke-opacity:1" d="M 693.774,202.4 697.886,212.68 z" id="boundary" inkscape:connector-curvature="0" />
	<path style="fill:none;stroke:red;stroke-width:1px;stroke-linecap:butt;stroke-linejoin:miter;stroke-opacity:1" d="M 700.97,554.997 710.222,549.857 z" id="boundary" inkscape:connector-curvature="0" />
	<path style="fill:none;stroke:red;stroke-width:1px;stroke-linecap:butt;stroke-linejoin:miter;stroke-opacity:1" d="M 703.026,281.554 713.306,281.554 z" id="boundary" inkscape:connector-curvature="0" />
	<path style="fill:none;stroke:red;stroke-width:1px;stroke-linecap:butt;stroke-linejoin:miter;stroke-opacity:1" d="M 704.054,436.779 704.054,447.059 z" id="boundary" inkscape:connector-curvature="0" />
	<path style="fill:none;stroke:red;stroke-width:1px;stroke-linecap:butt;stroke-linejoin:miter;stroke-opacity:1" d="M 704.054,436.779 713.306,431.639 z" id="boundary" inkscape:connector-curvature="0" />
	<path style="fill:none;stroke:red;stroke-width:1px;stroke-linecap:butt;stroke-linejoin:miter;stroke-opacity:1" d="M 704.054,447.059 704.054,457.339 z" id="boundary" inkscape:connector-curvature="0" />
	<path style="fill:none;stroke:red;stroke-width:1px;stroke-linecap:butt;stroke-linejoin:miter;stroke-opacity:1" d="M 704.054,457.339 714.334,461.451 z" id="boundary" inkscape:connector-curvature="0" />
	<path style="fill:none;stroke:red;stroke-width:1px;stroke-linecap:butt;stroke-linejoin:miter;stroke-opacity:1" d="M 710.222,549.857 720.502,549.857 z" id="boundary" inkscape:connector-curvature="0" />
	<path style="fill:none;stroke:red;stroke-width:1px;stroke-linecap:butt;stroke-linejoin:miter;stroke-opacity:1" d="M 713.306,281.554 723.585,281.554 z" id="boundary" inkscape:connector-curvature="0" />
	<path style="fill:none;stroke:red;stroke-width:1px;stroke-linecap:butt;stroke-linejoin:miter;stroke-opacity:1" d="M 713.306,431.639 721.53,425.472 z" id="boundary" inkscape:connector-curvature="0" />
	<path style="fill:none;stroke:red;stroke-width:1px;stroke-linecap:butt;stroke-linejoin:miter;stroke-opacity:1" d="M 714.334,461.451 723.585,456.311 z" id="boundary" inkscape:connector-curvature="0" />
	<path style="fill:none;stroke:red;stroke-width:1px;stroke-linecap:butt;stroke-linejoin:miter;stroke-opacity:1" d="M 720.502,549.857 729.753,544.717 z" id="boundary" inkscape:connector-curvature="0" />
	<path style="fill:none;stroke:red;stroke-width:1px;stroke-linecap:butt;stroke-linejoin:miter;stroke-opacity:1" d="M 721.53,425.472 731.809,420.332 z" id="boundary" inkscape:connector-curvature="0" />
	<path style="fill:none;stroke:red;stroke-width:1px;stroke-linecap:butt;stroke-linejoin:miter;stroke-opacity:1" d="M 723.585,281.554 733.865,281.554 z" id="boundary" inkscape:connector-curvature="0" />
	<path style="fill:none;stroke:red;stroke-width:1px;stroke-linecap:butt;stroke-linejoin:miter;stroke-opacity:1" d="M 723.585,456.311 732.837,451.171 z" id="boundary" inkscape:connector-curvature="0" />
	<path style="fill:none;stroke:red;stroke-width:1px;stroke-linecap:butt;stroke-linejoin:miter;stroke-opacity:1" d="M 729.753,544.717 740.033,544.717 z" id="boundary" inkscape:connector-curvature="0" />
	<path style="fill:none;stroke:red;stroke-width:1px;stroke-linecap:butt;stroke-linejoin:miter;stroke-opacity:1" d="M 731.809,420.332 742.089,415.192 z" id="boundary" inkscape:connector-curvature="0" />
	<path style="fill:none;stroke:red;stroke-width:1px;stroke-linecap:butt;stroke-linejoin:miter;stroke-opacity:1" d="M 732.837,451.171 743.117,451.171 z" id="boundary" inkscape:connector-curvature="0" />
	<path style="fill:none;stroke:red;stroke-width:1px;stroke-linecap:butt;stroke-linejoin:miter;stroke-opacity:1" d="M 733.865,281.554 744.145,281.554 z" id="boundary" inkscape:connector-curvature="0" />
	<path style="fill:none;stroke:red;stroke-width:1px;stroke-linecap:butt;stroke-linejoin:miter;stroke-opacity:1" d="M 740.033,544.717 749.285,539.577 z" id="boundary" inkscape:connector-curvature="0" />
	<path style="fill:none;stroke:red;stroke-width:1px;stroke-linecap:butt;stroke-linejoin:miter;stroke-opacity:1" d="M 742.089,415.192 752.369,410.052 z" id="boundary" inkscape:connector-curvature="0" />
	<path style="fill:none;stroke:red;stroke-width:1px;stroke-linecap:butt;stroke-linejoin:miter;stroke-opacity:1" d="M 743.117,451.171 752.369,456.311 z" id="boundary" inkscape:connector-curvature="0" />
	<path style="fill:none;stroke:red;stroke-width:1px;stroke-linecap:butt;stroke-linejoin:miter;stroke-opacity:1" d="M 744.145,281.554 754.425,281.554 z" id="boundary" inkscape:connector-curvature="0" />
	<path style="fill:none;stroke:red;stroke-width:1px;stroke-linecap:butt;stroke-linejoin:miter;stroke-opacity:1" d="M 749.285,539.577 758.537,534.437 z" id="boundary" inkscape:connector-curvature="0" />
	<path style="fill:none;stroke:red;stroke-width:1px;stroke-linecap:butt;stroke-linejoin:miter;stroke-opacity:1" d="M 752.369,410.052 762.649,404.912 z" id="boundary" inkscape:connector-curvature="0" />
	<path style="fill:none;stroke:red;stroke-width:1px;stroke-linecap:butt;stroke-linejoin:miter;stroke-opacity:1" d="M 752.369,456.311 759.565,464.535 z" id="boundary" inkscape:connector-curvature="0" />
	<path style="fill:none;stroke:red;stroke-width:1px;stroke-linecap:butt;stroke-linejoin:miter;stroke-opacity:1" d="M 754.425,281.554 764.705,281.554 z" id="boundary" inkscape:connector-curvature="0" />
	<path style="fill:none;stroke:red;stroke-width:1px;stroke-linecap:butt;stroke-linejoin:miter;stroke-opacity:1" d="M 758.537,534.437 765.733,526.213 z" id="boundary" inkscape:connector-curvature="0" />
	<path style="fill:none;stroke:red;stroke-width:1px;stroke-linecap:butt;stroke-linejoin:miter;stroke-opacity:1" d="M 759.565,464.535 760.593,474.815 z" id="boundary" inkscape:connector-curvature="0" />
	<path style="fill:none;stroke:red;stroke-width:1px;stroke-linecap:butt;stroke-linejoin:miter;stroke-opacity:1" d="M 760.593,474.815 760.593,485.094 z" id="boundary" inkscape:connector-curvature="0" />
	<path style="fill:none;stroke:red;stroke-width:1px;stroke-linecap:butt;stroke-linejoin:miter;stroke-opacity:1" d="M 760.593,485.094 760.593,495.374 z" id="boundary" inkscape:connector-curvature="0" />
	<path style="fill:none;stroke:red;stroke-width:1px;stroke-linecap:butt;stroke-linejoin:miter;stroke-opacity:1" d="M 760.593,495.374 760.593,505.654 z" id="boundary" inkscape:connector-curvature="0" />
	<path style="fill:none;stroke:red;stroke-width:1px;stroke-linecap:butt;stroke-linejoin:miter;stroke-opacity:1" d="M 760.593,505.654 764.705,515.934 z" id="boundary" inkscape:connector-curvature="0" />
	<path style="fill:none;stroke:red;stroke-width:1px;stroke-linecap:butt;stroke-linejoin:miter;stroke-opacity:1" d="M 762.649,404.912 772.928,399.772 z" id="boundary" inkscape:connector-curvature="0" />
	<path style="fill:none;stroke:red;stroke-width:1px;stroke-linecap:butt;stroke-linejoin:miter;stroke-opacity:1" d="M 764.705,281.554 774.984,281.554 z" id="boundary" inkscape:connector-curvature="0" />
	<path style="fill:none;stroke:red;stroke-width:1px;stroke-linecap:butt;stroke-linejoin:miter;stroke-opacity:1" d="M 764.705,515.934 765.733,526.213 z" id="boundary" inkscape:connector-curvature="0" />
	<path style="fill:none;stroke:red;stroke-width:1px;stroke-linecap:butt;stroke-linejoin:miter;stroke-opacity:1" d="M 772.928,399.772 783.208,394.632 z" id="boundary" inkscape:connector-curvature="0" />
	<path style="fill:none;stroke:red;stroke-width:1px;stroke-linecap:butt;stroke-linejoin:miter;stroke-opacity:1" d="M 774.984,281.554 785.264,281.554 z" id="boundary" inkscape:connector-curvature="0" />
	<path style="fill:none;stroke:red;stroke-width:1px;stroke-linecap:butt;stroke-linejoin:miter;stroke-opacity:1" d="M 783.208,394.632 793.488,389.492 z" id="boundary" inkscape:connector-curvature="0" />
	<path style="fill:none;stroke:red;stroke-width:1px;stroke-linecap:butt;stroke-linejoin:miter;stroke-opacity:1" d="M 785.264,281.554 795.544,281.554 z" id="boundary" inkscape:connector-curvature="0" />
	<path style="fill:none;stroke:red;stroke-width:1px;stroke-linecap:butt;stroke-linejoin:miter;stroke-opacity:1" d="M 793.488,389.492 801.712,380.24 z" id="boundary" inkscape:connector-curvature="0" />
	<path style="fill:none;stroke:red;stroke-width:1px;stroke-linecap:butt;stroke-linejoin:miter;stroke-opacity:1" d="M 795.544,281.554 805.824,281.554 z" id="boundary" inkscape:connector-curvature="0" />
	<path style="fill:none;stroke:red;stroke-width:1px;stroke-linecap:butt;stroke-linejoin:miter;stroke-opacity:1" d="M 801.712,380.24 810.964,375.101 z" id="boundary" inkscape:connector-curvature="0" />
	<path style="fill:none;stroke:red;stroke-width:1px;stroke-linecap:butt;stroke-linejoin:miter;stroke-opacity:1" d="M 805.824,281.554 816.104,281.554 z" id="boundary" inkscape:connector-curvature="0" />
	<path style="fill:none;stroke:red;stroke-width:1px;stroke-linecap:butt;stroke-linejoin:miter;stroke-opacity:1" d="M 810.964,375.101 819.188,368.933 z" id="boundary" inkscape:connector-curvature="0" />
	<path style="fill:none;stroke:red;stroke-width:1px;stroke-linecap:butt;stroke-linejoin:miter;stroke-opacity:1" d="M 816.104,281.554 826.383,279.498 z" id="boundary" inkscape:connector-curvature="0" />
	<path style="fill:none;stroke:red;stroke-width:1px;stroke-linecap:butt;stroke-linejoin:miter;stroke-opacity:1" d="M 819.188,368.933 829.467,363.793 z" id="boundary" inkscape:connector-curvature="0" />
	<path style="fill:none;stroke:red;stroke-width:1px;stroke-linecap:butt;stroke-linejoin:miter;stroke-opacity:1" d="M 826.383,279.498 836.663,276.415 z" id="boundary" inkscape:connector-curvature="0" />
	<path style="fill:none;stroke:red;stroke-width:1px;stroke-linecap:butt;stroke-linejoin:miter;stroke-opacity:1" d="M 829.467,363.793 839.747,358.653 z" id="boundary" inkscape:connector-curvature="0" />
	<path style="fill:none;stroke:red;stroke-width:1px;stroke-linecap:butt;stroke-linejoin:miter;stroke-opacity:1" d="M 836.663,276.415 846.943,276.415 z" id="boundary" inkscape:connector-curvature="0" />
	<path style="fill:none;stroke:red;stroke-width:1px;stroke-linecap:butt;stroke-linejoin:miter;stroke-opacity:1" d="M 839.747,358.653 850.027,353.513 z" id="boundary" inkscape:connector-curvature="0" />
	<path style="fill:none;stroke:red;stroke-width:1px;stroke-linecap:butt;stroke-linejoin:miter;stroke-opacity:1" d="M 846.943,276.415 857.223,274.359 z" id="boundary" inkscape:connector-curvature="0" />
	<path style="fill:none;stroke:red;stroke-width:1px;stroke-linecap:butt;stroke-linejoin:miter;stroke-opacity:1" d="M 850.027,353.513 858.251,344.261 z" id="boundary" inkscape:connector-curvature="0" />
	<path style="fill:none;stroke:red;stroke-width:1px;stroke-linecap:butt;stroke-linejoin:miter;stroke-opacity:1" d="M 857.223,274.359 867.503,271.275 z" id="boundary" inkscape:connector-curvature="0" />
	<path style="fill:none;stroke:red;stroke-width:1px;stroke-linecap:butt;stroke-linejoin:miter;stroke-opacity:1" d="M 858.251,344.261 868.531,344.261 z" id="boundary" inkscape:connector-curvature="0" />
	<path style="fill:none;stroke:red;stroke-width:1px;stroke-linecap:butt;stroke-linejoin:miter;stroke-opacity:1" d="M 867.503,271.275 877.782,271.275 z" id="boundary" inkscape:connector-curvature="0" />
	<path style="fill:none;stroke:red;stroke-width:1px;stroke-linecap:butt;stroke-linejoin:miter;stroke-opacity:1" d="M 868.531,344.261 877.782,339.121 z" id="boundary" inkscape:connector-curvature="0" />
	<path style="fill:none;stroke:red;stroke-width:1px;stroke-linecap:butt;stroke-linejoin:miter;stroke-opacity:1" d="M 877.782,271.275 887.034,266.135 z" id="boundary" inkscape:connector-curvature="0" />
	<path style="fill:none;stroke:red;stroke-width:1px;stroke-linecap:butt;stroke-linejoin:miter;stroke-opacity:1" d="M 877.782,339.121 886.006,332.953 z" id="boundary" inkscape:connector-curvature="0" />
	<path style="fill:none;stroke:red;stroke-width:1px;stroke-linecap:butt;stroke-linejoin:miter;stroke-opacity:1" d="M 886.006,332.953 896.286,327.813 z" id="boundary" inkscape:connector-curvature="0" />
	<path style="fill:none;stroke:red;stroke-width:1px;stroke-linecap:butt;stroke-linejoin:miter;stroke-opacity:1" d="M 887.034,266.135 897.314,266.135 z" id="boundary" inkscape:connector-curvature="0" />
	<path style="fill:none;stroke:red;stroke-width:1px;stroke-linecap:butt;stroke-linejoin:miter;stroke-opacity:1" d="M 896.286,327.813 904.51,318.562 z" id="boundary" inkscape:connector-curvature="0" />
	<path style="fill:none;stroke:red;stroke-width:1px;stroke-linecap:butt;stroke-linejoin:miter;stroke-opacity:1" d="M 897.314,266.135 906.566,260.995 z" id="boundary" inkscape:connector-curvature="0" />
	<path style="fill:none;stroke:red;stroke-width:1px;stroke-linecap:butt;stroke-linejoin:miter;stroke-opacity:1" d="M 904.51,318.562 914.79,313.422 z" id="boundary" inkscape:connector-curvature="0" />
	<path style="fill:none;stroke:red;stroke-width:1px;stroke-linecap:butt;stroke-linejoin:miter;stroke-opacity:1" d="M 906.566,260.995 916.846,255.855 z" id="boundary" inkscape:connector-curvature="0" />
	<path style="fill:none;stroke:red;stroke-width:1px;stroke-linecap:butt;stroke-linejoin:miter;stroke-opacity:1" d="M 914.79,313.422 925.069,308.282 z" id="boundary" inkscape:connector-curvature="0" />
	<path style="fill:none;stroke:red;stroke-width:1px;stroke-linecap:butt;stroke-linejoin:miter;stroke-opacity:1" d="M 916.846,255.855 927.125,255.855 z" id="boundary" inkscape:connector-curvature="0" />
	<path style="fill:none;stroke:red;stroke-width:1px;stroke-linecap:butt;stroke-linejoin:miter;stroke-opacity:1" d="M 925.069,308.282 935.349,303.142 z" id="boundary" inkscape:connector-curvature="0" />
	<path style="fill:none;stroke:red;stroke-width:1px;stroke-linecap:butt;stroke-linejoin:miter;stroke-opacity:1" d="M 927.125,255.855 937.405,250.715 z" id="boundary" inkscape:connector-curvature="0" />
	<path style="fill:none;stroke:red;stroke-width:1px;stroke-linecap:butt;stroke-linejoin:miter;stroke-opacity:1" d="M 935.349,303.142 945.629,303.142 z" id="boundary" inkscape:connector-curvature="0" />
	<path style="fill:none;stroke:red;stroke-width:1px;stroke-linecap:butt;stroke-linejoin:miter;stroke-opacity:1" d="M 937.405,250.715 947.685,250.715 z" id="boundary" inkscape:connector-curvature="0" />
	<path style="fill:none;stroke:red;stroke-width:1px;stroke-linecap:butt;stroke-linejoin:miter;stroke-opacity:1" d="M 945.629,303.142 954.881,298.002 z" id="boundary" inkscape:connector-curvature="0" />
	<path style="fill:none;stroke:red;stroke-width:1px;stroke-linecap:butt;stroke-linejoin:miter;stroke-opacity:1" d="M 947.685,250.715 957.965,250.715 z" id="boundary" inkscape:connector-curvature="0" />
	<path style="fill:none;stroke:red;stroke-width:1px;stroke-linecap:butt;stroke-linejoin:miter;stroke-opacity:1" d="M 954.881,298.002 965.161,298.002 z" id="boundary" inkscape:connector-curvature="0" />
	<path style="fill:none;stroke:red;stroke-width:1px;stroke-linecap:butt;stroke-linejoin:miter;stroke-opacity:1" d="M 957.965,250.715 968.245,250.715 z" id="boundary" inkscape:connector-curvature="0" />
	<path style="fill:none;stroke:red;stroke-width:1px;stroke-linecap:butt;stroke-linejoin:miter;stroke-opacity:1" d="M 965.161,298.002 974.412,292.862 z" id="boundary" inkscape:connector-curvature="0" />
	<path style="fill:none;stroke:red;stroke-width:1px;stroke-linecap:butt;stroke-linejoin:miter;stroke-opacity:1" d="M 968.245,250.715 978.524,250.715 z" id="boundary" inkscape:connector-curvature="0" />
	<path style="fill:none;stroke:red;stroke-width:1px;stroke-linecap:butt;stroke-linejoin:miter;stroke-opacity:1" d="M 974.412,292.862 983.664,286.694 z" id="boundary" inkscape:connector-curvature="0" />
	<path style="fill:none;stroke:red;stroke-width:1px;stroke-linecap:butt;stroke-linejoin:miter;stroke-opacity:1" d="M 978.524,250.715 988.804,250.715 z" id="boundary" inkscape:connector-curvature="0" />
	<path style="fill:none;stroke:red;stroke-width:1px;stroke-linecap:butt;stroke-linejoin:miter;stroke-opacity:1" d="M 983.664,286.694 991.888,277.442 z" id="boundary" inkscape:connector-curvature="0" />
	<path style="fill:none;stroke:red;stroke-width:1px;stroke-linecap:butt;stroke-linejoin:miter;stroke-opacity:1" d="M 988.804,250.715 996,258.939 z" id="boundary" inkscape:connector-curvature="0" />
	<path style="fill:none;stroke:red;stroke-width:1px;stroke-linecap:butt;stroke-linejoin:miter;stroke-opacity:1" d="M 991.888,277.442 996,258.939 z" id="boundary" inkscape:connector-curvature="0" />
	<circle cx="4" cy="654.711" r="4" fill="#0" id="circle0"/>
	<circle cx="9.1399" cy="644.431" r="4" fill="#0" id="circle1"/>
	<circle cx="9.1399" cy="663.963" r="4" fill="#0" id="circle2"/>
	<circle cx="14.2798" cy="634.151" r="4" fill="#0" id="circle3"/>
	<circle cx="14.2798" cy="673.215" r="4" fill="#0" id="circle4"/>
	<circle cx="20.4477" cy="681.438" r="4" fill="#0" id="circle5"/>
	<circle cx="22.5036" cy="625.927" r="4" fill="#0" id="circle6"/>
	<circle cx="24.5596" cy="438.835" r="4" fill="#0" id="circle7"/>
	<circle cx="24.5596" cy="449.115" r="4" fill="#0" id="circle8"/>
	<circle cx="24.5596" cy="459.395" r="4" fill="#0" id="circle9"/>
	<circle cx="24.5596" cy="469.675" r="4" fill="#0" id="circle10"/>
	<circle cx="24.5596" cy="479.954" r="4" fill="#0" id="circle11"/>
	<circle cx="24.5596" cy="490.234" r="4" fill="#0" id="circle12"/>
	<circle cx="24.5596" cy="500.514" r="4" fill="#0" id="circle13"/>
	<circle cx="24.5596" cy="510.794" r="4" fill="#0" id="circle14"/>
	<circle cx="24.5596" cy="521.074" r="4" fill="#0" id="circle15"/>
	<circle cx="24.5596" cy="531.353" r="4" fill="#0" id="circle16"/>
	<circle cx="24.5596" cy="541.633" r="4" fill="#0" id="circle17"/>
	<circle cx="29.6995" cy="418.276" r="4" fill="#0" id="circle18"/>
	<circle cx="29.6995" cy="428.555" r="4" fill="#0" id="circle19"/>
	<circle cx="29.6995" cy="550.885" r="4" fill="#0" id="circle20"/>
	<circle cx="30.7275" cy="685.55" r="4" fill="#0" id="circle21"/>
	<circle cx="32.7834" cy="620.788" r="4" fill="#0" id="circle22"/>
	<circle cx="34.8394" cy="402.856" r="4" fill="#0" id="circle23"/>
	<circle cx="36.8953" cy="559.109" r="4" fill="#0" id="circle24"/>
	<circle cx="39.9793" cy="392.576" r="4" fill="#0" id="circle25"/>
	<circle cx="41.0073" cy="688.634" r="4" fill="#0" id="circle26"/>
	<circle cx="43.0632" cy="620.788" r="4" fill="#0" id="circle27"/>
	<circle cx="45.1192" cy="372.017" r="4" fill="#0" id="circle28"/>
	<circle cx="45.1192" cy="382.296" r="4" fill="#0" id="circle29"/>
	<circle cx="47.1751" cy="560.137" r="4" fill="#0" id="circle30"/>
	<circle cx="50.2591" cy="361.737" r="4" fill="#0" id="circle31"/>
	<circle cx="51.287" cy="688.634" r="4" fill="#0" id="circle32"/>
	<circle cx="52.315" cy="625.927" r="4" fill="#0" id="circle33"/>
	<circle cx="55.399" cy="341.177" r="4" fill="#0" id="circle34"/>
	<circle cx="55.399" cy="351.457" r="4" fill="#0" id="circle35"/>
	<circle cx="56.4269" cy="565.277" r="4" fill="#0" id="circle36"/>
	<circle cx="60.5389" cy="330.897" r="4" fill="#0" id="circle37"/>
	<circle cx="60.5389" cy="633.123" r="4" fill="#0" id="circle38"/>
	<circle cx="61.5668" cy="643.403" r="4" fill="#0" id="circle39"/>
	<circle cx="61.5668" cy="653.683" r="4" fill="#0" id="circle40"/>
	<circle cx="61.5668" cy="688.634" r="4" fill="#0" id="circle41"/>
	<circle cx="65.6788" cy="315.478" r="4" fill="#0" id="circle42"/>
	<circle cx="65.6788" cy="570.417" r="4" fill="#0" id="circle43"/>
	<circle cx="66.7067" cy="662.935" r="4" fill="#0" id="circle44"/>
	<circle cx="70.8187" cy="305.198" r="4" fill="#0" id="circle45"/>
	<circle cx="71.8466" cy="688.634" r="4" fill="#0" id="circle46"/>
	<circle cx="75.9585" cy="294.918" r="4" fill="#0" id="circle47"/>
	<circle cx="75.9585" cy="570.417" r="4" fill="#0" id="circle48"/>
	<circle cx="76.9865" cy="667.047" r="4" fill="#0" id="circle49"/>
	<circle cx="81.0984" cy="284.638" r="4" fill="#0" id="circle50"/>
	<circle cx="82.1264" cy="688.634" r="4" fill="#0" id="circle51"/>
	<circle cx="85.2104" cy="575.556" r="4" fill="#0" id="circle52"/>
	<circle cx="86.2383" cy="274.359" r="4" fill="#0" id="circle53"/>
	<circle cx="87.2663" cy="667.047" r="4" fill="#0" id="circle54"/>
	<circle cx="91.3782" cy="264.079" r="4" fill="#0" id="circle55"/>
	<circle cx="92.4062" cy="688.634" r="4" fill="#0" id="circle56"/>
	<circle cx="94.4622" cy="580.696" r="4" fill="#0" id="circle57"/>
	<circle cx="97.5461" cy="663.963" r="4" fill="#0" id="circle58"/>
	<circle cx="99.6021" cy="255.855" r="4" fill="#0" id="circle59"/>
	<circle cx="102.686" cy="688.634" r="4" fill="#0" id="circle60"/>
	<circle cx="103.714" cy="585.836" r="4" fill="#0" id="circle61"/>
	<circle cx="107.826" cy="247.631" r="4" fill="#0" id="circle62"/>
	<circle cx="107.826" cy="661.907" r="4" fill="#0" id="circle63"/>
	<circle cx="112.966" cy="237.351" r="4" fill="#0" id="circle64"/>
	<circle cx="112.966" cy="688.634" r="4" fill="#0" id="circle65"/>
	<circle cx="113.994" cy="585.836" r="4" fill="#0" id="circle66"/>
	<circle cx="117.078" cy="656.767" r="4" fill="#0" id="circle67"/>
	<circle cx="123.246" cy="232.211" r="4" fill="#0" id="circle68"/>
	<circle cx="123.246" cy="688.634" r="4" fill="#0" id="circle69"/>
	<circle cx="124.274" cy="585.836" r="4" fill="#0" id="circle70"/>
	<circle cx="127.358" cy="656.767" r="4" fill="#0" id="circle71"/>
	<circle cx="131.469" cy="225.016" r="4" fill="#0" id="circle72"/>
	<circle cx="133.525" cy="683.494" r="4" fill="#0" id="circle73"/>
	<circle cx="134.553" cy="585.836" r="4" fill="#0" id="circle74"/>
	<circle cx="137.637" cy="654.711" r="4" fill="#0" id="circle75"/>
	<circle cx="138.665" cy="216.792" r="4" fill="#0" id="circle76"/>
	<circle cx="143.805" cy="683.494" r="4" fill="#0" id="circle77"/>
	<circle cx="144.833" cy="585.836" r="4" fill="#0" id="circle78"/>
	<circle cx="147.917" cy="651.627" r="4" fill="#0" id="circle79"/>
	<circle cx="148.945" cy="211.652" r="4" fill="#0" id="circle80"/>
	<circle cx="154.085" cy="683.494" r="4" fill="#0" id="circle81"/>
	<circle cx="155.113" cy="585.836" r="4" fill="#0" id="circle82"/>
	<circle cx="157.169" cy="204.456" r="4" fill="#0" id="circle83"/>
	<circle cx="157.169" cy="646.487" r="4" fill="#0" id="circle84"/>
	<circle cx="163.337" cy="678.354" r="4" fill="#0" id="circle85"/>
	<circle cx="165.393" cy="585.836" r="4" fill="#0" id="circle86"/>
	<circle cx="166.421" cy="199.316" r="4" fill="#0" id="circle87"/>
	<circle cx="166.421" cy="641.347" r="4" fill="#0" id="circle88"/>
	<circle cx="173.617" cy="678.354" r="4" fill="#0" id="circle89"/>
	<circle cx="175.673" cy="194.176" r="4" fill="#0" id="circle90"/>
	<circle cx="175.673" cy="585.836" r="4" fill="#0" id="circle91"/>
	<circle cx="176.701" cy="636.207" r="4" fill="#0" id="circle92"/>
	<circle cx="183.896" cy="678.354" r="4" fill="#0" id="circle93"/>
	<circle cx="184.924" cy="189.036" r="4" fill="#0" id="circle94"/>
	<circle cx="185.952" cy="585.836" r="4" fill="#0" id="circle95"/>
	<circle cx="186.98" cy="631.067" r="4" fill="#0" id="circle96"/>
	<circle cx="193.148" cy="673.215" r="4" fill="#0" id="circle97"/>
	<circle cx="194.176" cy="183.896" r="4" fill="#0" id="circle98"/>
	<circle cx="195.204" cy="622.844" r="4" fill="#0" id="circle99"/>
	<circle cx="196.232" cy="585.836" r="4" fill="#0" id="circle100"/>
	<circle cx="203.428" cy="673.215" r="4" fill="#0" id="circle101"/>
	<circle cx="204.456" cy="181.84" r="4" fill="#0" id="circle102"/>
	<circle cx="204.456" cy="592.004" r="4" fill="#0" id="circle103"/>
	<circle cx="204.456" cy="602.284" r="4" fill="#0" id="circle104"/>
	<circle cx="204.456" cy="612.564" r="4" fill="#0" id="circle105"/>
	<circle cx="213.708" cy="673.215" r="4" fill="#0" id="circle106"/>
	<circle cx="214.736" cy="178.756" r="4" fill="#0" id="circle107"/>
	<circle cx="222.96" cy="668.075" r="4" fill="#0" id="circle108"/>
	<circle cx="223.988" cy="173.617" r="4" fill="#0" id="circle109"/>
	<circle cx="233.239" cy="668.075" r="4" fill="#0" id="circle110"/>
	<circle cx="234.267" cy="173.617" r="4" fill="#0" id="circle111"/>
	<circle cx="243.519" cy="168.477" r="4" fill="#0" id="circle112"/>
	<circle cx="243.519" cy="668.075" r="4" fill="#0" id="circle113"/>
	<circle cx="252.771" cy="662.935" r="4" fill="#0" id="circle114"/>
	<circle cx="253.799" cy="168.477" r="4" fill="#0" id="circle115"/>
	<circle cx="263.051" cy="163.337" r="4" fill="#0" id="circle116"/>
	<circle cx="263.051" cy="662.935" r="4" fill="#0" id="circle117"/>
	<circle cx="273.331" cy="163.337" r="4" fill="#0" id="circle118"/>
	<circle cx="273.331" cy="662.935" r="4" fill="#0" id="circle119"/>
	<circle cx="282.582" cy="657.795" r="4" fill="#0" id="circle120"/>
	<circle cx="283.61" cy="163.337" r="4" fill="#0" id="circle121"/>
	<circle cx="292.862" cy="657.795" r="4" fill="#0" id="circle122"/>
	<circle cx="293.89" cy="159.225" r="4" fill="#0" id="circle123"/>
	<circle cx="303.142" cy="657.795" r="4" fill="#0" id="circle124"/>
	<circle cx="304.17" cy="158.197" r="4" fill="#0" id="circle125"/>
	<circle cx="313.422" cy="652.655" r="4" fill="#0" id="circle126"/>
	<circle cx="314.45" cy="158.197" r="4" fill="#0" id="circle127"/>
	<circle cx="317.534" cy="37.9233" r="4" fill="#0" id="circle128"/>
	<circle cx="322.674" cy="47.1751" r="4" fill="#0" id="circle129"/>
	<circle cx="322.674" cy="57.4549" r="4" fill="#0" id="circle130"/>
	<circle cx="323.702" cy="652.655" r="4" fill="#0" id="circle131"/>
	<circle cx="324.73" cy="158.197" r="4" fill="#0" id="circle132"/>
	<circle cx="325.758" cy="29.6995" r="4" fill="#0" id="circle133"/>
	<circle cx="329.869" cy="65.6788" r="4" fill="#0" id="circle134"/>
	<circle cx="333.981" cy="647.515" r="4" fill="#0" id="circle135"/>
	<circle cx="335.009" cy="24.5596" r="4" fill="#0" id="circle136"/>
	<circle cx="335.009" cy="158.197" r="4" fill="#0" id="circle137"/>
	<circle cx="338.093" cy="71.8466" r="4" fill="#0" id="circle138"/>
	<circle cx="344.261" cy="19.4197" r="4" fill="#0" id="circle139"/>
	<circle cx="344.261" cy="647.515" r="4" fill="#0" id="circle140"/>
	<circle cx="345.289" cy="154.085" r="4" fill="#0" id="circle141"/>
	<circle cx="347.345" cy="76.9865" r="4" fill="#0" id="circle142"/>
	<circle cx="353.513" cy="14.2798" r="4" fill="#0" id="circle143"/>
	<circle cx="354.541" cy="642.375" r="4" fill="#0" id="circle144"/>
	<circle cx="355.569" cy="153.057" r="4" fill="#0" id="circle145"/>
	<circle cx="357.625" cy="76.9865" r="4" fill="#0" id="circle146"/>
	<circle cx="363.793" cy="12.2238" r="4" fill="#0" id="circle147"/>
	<circle cx="364.821" cy="147.917" r="4" fill="#0" id="circle148"/>
	<circle cx="364.821" cy="642.375" r="4" fill="#0" id="circle149"/>
	<circle cx="367.905" cy="76.9865" r="4" fill="#0" id="circle150"/>
	<circle cx="374.073" cy="9.1399" r="4" fill="#0" id="circle151"/>
	<circle cx="374.073" cy="142.777" r="4" fill="#0" id="circle152"/>
	<circle cx="375.101" cy="642.375" r="4" fill="#0" id="circle153"/>
	<circle cx="378.184" cy="76.9865" r="4" fill="#0" id="circle154"/>
	<circle cx="379.212" cy="87.2663" r="4" fill="#0" id="circle155"/>
	<circle cx="382.296" cy="97.5461" r="4" fill="#0" id="circle156"/>
	<circle cx="384.352" cy="9.1399" r="4" fill="#0" id="circle157"/>
	<circle cx="384.352" cy="125.302" r="4" fill="#0" id="circle158"/>
	<circle cx="384.352" cy="135.581" r="4" fill="#0" id="circle159"/>
	<circle cx="384.352" cy="637.235" r="4" fill="#0" id="circle160"/>
	<circle cx="392.576" cy="101.658" r="4" fill="#0" id="circle161"/>
	<circle cx="392.576" cy="117.078" r="4" fill="#0" id="circle162"/>
	<circle cx="393.604" cy="4" r="4" fill="#0" id="circle163"/>
	<circle cx="394.632" cy="637.235" r="4" fill="#0" id="circle164"/>
	<circle cx="403.884" cy="4" r="4" fill="#0" id="circle165"/>
	<circle cx="404.912" cy="637.235" r="4" fill="#0" id="circle166"/>
	<circle cx="414.164" cy="4" r="4" fill="#0" id="circle167"/>
	<circle cx="415.192" cy="637.235" r="4" fill="#0" id="circle168"/>
	<circle cx="424.444" cy="4" r="4" fill="#0" id="circle169"/>
	<circle cx="425.472" cy="637.235" r="4" fill="#0" id="circle170"/>
	<circle cx="426.499" cy="51.287" r="4" fill="#0" id="circle171"/>
	<circle cx="426.499" cy="61.5668" r="4" fill="#0" id="circle172"/>
	<circle cx="426.499" cy="107.826" r="4" fill="#0" id="circle173"/>
	<circle cx="426.499" cy="118.106" r="4" fill="#0" id="circle174"/>
	<circle cx="426.499" cy="128.385" r="4" fill="#0" id="circle175"/>
	<circle cx="431.639" cy="137.637" r="4" fill="#0" id="circle176"/>
	<circle cx="434.723" cy="4" r="4" fill="#0" id="circle177"/>
	<circle cx="435.751" cy="46.1472" r="4" fill="#0" id="circle178"/>
	<circle cx="435.751" cy="634.151" r="4" fill="#0" id="circle179"/>
	<circle cx="436.779" cy="65.6788" r="4" fill="#0" id="circle180"/>
	<circle cx="436.779" cy="107.826" r="4" fill="#0" id="circle181"/>
	<circle cx="439.863" cy="143.805" r="4" fill="#0" id="circle182"/>
	<circle cx="445.003" cy="4" r="4" fill="#0" id="circle183"/>
	<circle cx="445.003" cy="41.0073" r="4" fill="#0" id="circle184"/>
	<circle cx="445.003" cy="71.8466" r="4" fill="#0" id="circle185"/>
	<circle cx="445.003" cy="100.63" r="4" fill="#0" id="circle186"/>
	<circle cx="446.031" cy="629.011" r="4" fill="#0" id="circle187"/>
	<circle cx="450.143" cy="147.917" r="4" fill="#0" id="circle188"/>
	<circle cx="452.199" cy="80.0705" r="4" fill="#0" id="circle189"/>
	<circle cx="452.199" cy="90.3503" r="4" fill="#0" id="circle190"/>
	<circle cx="454.255" cy="9.1399" r="4" fill="#0" id="circle191"/>
	<circle cx="454.255" cy="34.8394" r="4" fill="#0" id="circle192"/>
	<circle cx="454.255" cy="620.788" r="4" fill="#0" id="circle193"/>
	<circle cx="457.339" cy="580.696" r="4" fill="#0" id="circle194"/>
	<circle cx="457.339" cy="590.976" r="4" fill="#0" id="circle195"/>
	<circle cx="457.339" cy="601.256" r="4" fill="#0" id="circle196"/>
	<circle cx="459.395" cy="24.5596" r="4" fill="#0" id="circle197"/>
	<circle cx="460.423" cy="147.917" r="4" fill="#0" id="circle198"/>
	<circle cx="466.591" cy="575.556" r="4" fill="#0" id="circle199"/>
	<circle cx="470.703" cy="147.917" r="4" fill="#0" id="circle200"/>
	<circle cx="476.87" cy="575.556" r="4" fill="#0" id="circle201"/>
	<circle cx="480.982" cy="147.917" r="4" fill="#0" id="circle202"/>
	<circle cx="487.15" cy="575.556" r="4" fill="#0" id="circle203"/>
	<circle cx="491.262" cy="147.917" r="4" fill="#0" id="circle204"/>
	<circle cx="497.43" cy="575.556" r="4" fill="#0" id="circle205"/>
	<circle cx="501.542" cy="147.917" r="4" fill="#0" id="circle206"/>
	<circle cx="507.71" cy="575.556" r="4" fill="#0" id="circle207"/>
	<circle cx="511.822" cy="147.917" r="4" fill="#0" id="circle208"/>
	<circle cx="517.99" cy="575.556" r="4" fill="#0" id="circle209"/>
	<circle cx="522.102" cy="147.917" r="4" fill="#0" id="circle210"/>
	<circle cx="528.269" cy="575.556" r="4" fill="#0" id="circle211"/>
	<circle cx="532.381" cy="147.917" r="4" fill="#0" id="circle212"/>
	<circle cx="538.549" cy="575.556" r="4" fill="#0" id="circle213"/>
	<circle cx="542.661" cy="147.917" r="4" fill="#0" id="circle214"/>
	<circle cx="548.829" cy="575.556" r="4" fill="#0" id="circle215"/>
	<circle cx="552.941" cy="147.917" r="4" fill="#0" id="circle216"/>
	<circle cx="559.109" cy="575.556" r="4" fill="#0" id="circle217"/>
	<circle cx="563.221" cy="147.917" r="4" fill="#0" id="circle218"/>
	<circle cx="569.389" cy="575.556" r="4" fill="#0" id="circle219"/>
	<circle cx="573.501" cy="147.917" r="4" fill="#0" id="circle220"/>
	<circle cx="579.668" cy="575.556" r="4" fill="#0" id="circle221"/>
	<circle cx="583.78" cy="147.917" r="4" fill="#0" id="circle222"/>
	<circle cx="589.948" cy="575.556" r="4" fill="#0" id="circle223"/>
	<circle cx="593.032" cy="142.777" r="4" fill="#0" id="circle224"/>
	<circle cx="600.228" cy="575.556" r="4" fill="#0" id="circle225"/>
	<circle cx="603.312" cy="142.777" r="4" fill="#0" id="circle226"/>
	<circle cx="610.508" cy="575.556" r="4" fill="#0" id="circle227"/>
	<circle cx="613.592" cy="142.777" r="4" fill="#0" id="circle228"/>
	<circle cx="620.788" cy="575.556" r="4" fill="#0" id="circle229"/>
	<circle cx="621.816" cy="236.323" r="4" fill="#0" id="circle230"/>
	<circle cx="623.872" cy="142.777" r="4" fill="#0" id="circle231"/>
	<circle cx="623.872" cy="246.603" r="4" fill="#0" id="circle232"/>
	<circle cx="631.067" cy="572.473" r="4" fill="#0" id="circle233"/>
	<circle cx="632.095" cy="236.323" r="4" fill="#0" id="circle234"/>
	<circle cx="632.095" cy="253.799" r="4" fill="#0" id="circle235"/>
	<circle cx="634.151" cy="142.777" r="4" fill="#0" id="circle236"/>
	<circle cx="637.235" cy="263.051" r="4" fill="#0" id="circle237"/>
	<circle cx="641.347" cy="570.417" r="4" fill="#0" id="circle238"/>
	<circle cx="642.375" cy="236.323" r="4" fill="#0" id="circle239"/>
	<circle cx="643.403" cy="271.275" r="4" fill="#0" id="circle240"/>
	<circle cx="644.431" cy="142.777" r="4" fill="#0" id="circle241"/>
	<circle cx="651.627" cy="278.47" r="4" fill="#0" id="circle242"/>
	<circle cx="651.627" cy="570.417" r="4" fill="#0" id="circle243"/>
	<circle cx="652.655" cy="236.323" r="4" fill="#0" id="circle244"/>
	<circle cx="654.711" cy="142.777" r="4" fill="#0" id="circle245"/>
	<circle cx="660.879" cy="565.277" r="4" fill="#0" id="circle246"/>
	<circle cx="661.907" cy="281.554" r="4" fill="#0" id="circle247"/>
	<circle cx="662.935" cy="236.323" r="4" fill="#0" id="circle248"/>
	<circle cx="663.963" cy="147.917" r="4" fill="#0" id="circle249"/>
	<circle cx="671.159" cy="565.277" r="4" fill="#0" id="circle250"/>
	<circle cx="672.187" cy="155.113" r="4" fill="#0" id="circle251"/>
	<circle cx="672.187" cy="231.183" r="4" fill="#0" id="circle252"/>
	<circle cx="672.187" cy="281.554" r="4" fill="#0" id="circle253"/>
	<circle cx="678.354" cy="163.337" r="4" fill="#0" id="circle254"/>
	<circle cx="680.41" cy="560.137" r="4" fill="#0" id="circle255"/>
	<circle cx="682.466" cy="228.099" r="4" fill="#0" id="circle256"/>
	<circle cx="682.466" cy="281.554" r="4" fill="#0" id="circle257"/>
	<circle cx="683.494" cy="172.589" r="4" fill="#0" id="circle258"/>
	<circle cx="688.634" cy="181.84" r="4" fill="#0" id="circle259"/>
	<circle cx="690.69" cy="559.109" r="4" fill="#0" id="circle260"/>
	<circle cx="692.746" cy="192.12" r="4" fill="#0" id="circle261"/>
	<circle cx="692.746" cy="222.96" r="4" fill="#0" id="circle262"/>
	<circle cx="692.746" cy="281.554" r="4" fill="#0" id="circle263"/>
	<circle cx="693.774" cy="202.4" r="4" fill="#0" id="circle264"/>
	<circle cx="697.886" cy="212.68" r="4" fill="#0" id="circle265"/>
	<circle cx="700.97" cy="554.997" r="4" fill="#0" id="circle266"/>
	<circle cx="703.026" cy="281.554" r="4" fill="#0" id="circle267"/>
	<circle cx="704.054" cy="436.779" r="4" fill="#0" id="circle268"/>
	<circle cx="704.054" cy="447.059" r="4" fill="#0" id="circle269"/>
	<circle cx="704.054" cy="457.339" r="4" fill="#0" id="circle270"/>
	<circle cx="710.222" cy="549.857" r="4" fill="#0" id="circle271"/>
	<circle cx="713.306" cy="281.554" r="4" fill="#0" id="circle272"/>
	<circle cx="713.306" cy="431.639" r="4" fill="#0" id="circle273"/>
	<circle cx="714.334" cy="461.451" r="4" fill="#0" id="circle274"/>
	<circle cx="720.502" cy="549.857" r="4" fill="#0" id="circle275"/>
	<circle cx="721.53" cy="425.472" r="4" fill="#0" id="circle276"/>
	<circle cx="723.585" cy="281.554" r="4" fill="#0" id="circle277"/>
	<circle cx="723.585" cy="456.311" r="4" fill="#0" id="circle278"/>
	<circle cx="729.753" cy="544.717" r="4" fill="#0" id="circle279"/>
	<circle cx="731.809" cy="420.332" r="4" fill="#0" id="circle280"/>
	<circle cx="732.837" cy="451.171" r="4" fill="#0" id="circle281"/>
	<circle cx="733.865" cy="281.554" r="4" fill="#0" id="circle282"/>
	<circle cx="740.033" cy="544.717" r="4" fill="#0" id="circle283"/>
	<circle cx="742.089" cy="415.192" r="4" fill="#0" id="circle284"/>
	<circle cx="743.117" cy="451.171" r="4" fill="#0" id="circle285"/>
	<circle cx="744.145" cy="281.554" r="4" fill="#0" id="circle286"/>
	<circle cx="749.285" cy="539.577" r="4" fill="#0" id="circle287"/>
	<circle cx="752.369" cy="410.052" r="4" fill="#0" id="circle288"/>
	<circle cx="752.369" cy="456.311" r="4" fill="#0" id="circle289"/>
	<circle cx="754.425" cy="281.554" r="4" fill="#0" id="circle290"/>
	<circle cx="758.537" cy="534.437" r="4" fill="#0" id="circle291"/>
	<circle cx="759.565" cy="464.535" r="4" fill="#0" id="circle292"/>
	<circle cx="760.593" cy="474.815" r="4" fill="#0" id="circle293"/>
	<circle cx="760.593" cy="485.094" r="4" fill="#0" id="circle294"/>
	<circle cx="760.593" cy="495.374" r="4" fill="#0" id="circle295"/>
	<circle cx="760.593" cy="505.654" r="4" fill="#0" id="circle296"/>
	<circle cx="762.649" cy="404.912" r="4" fill="#0" id="circle297"/>
	<circle cx="764.705" cy="281.554" r="4" fill="#0" id="circle298"/>
	<circle cx="764.705" cy="515.934" r="4" fill="#0" id="circle299"/>
	<circle cx="765.733" cy="526.213" r="4" fill="#0" id="circle300"/>
	<circle cx="772.928" cy="399.772" r="4" fill="#0" id="circle301"/>
	<circle cx="774.984" cy="281.554" r="4" fill="#0" id="circle302"/>
	<circle cx="783.208" cy="394.632" r="4" fill="#0" id="circle303"/>
	<circle cx="785.264" cy="281.554" r="4" fill="#0" id="circle304"/>
	<circle cx="793.488" cy="389.492" r="4" fill="#0" id="circle305"/>
	<circle cx="795.544" cy="281.554" r="4" fill="#0" id="circle306"/>
	<circle cx="801.712" cy="380.24" r="4" fill="#0" id="circle307"/>
	<circle cx="805.824" cy="281.554" r="4" fill="#0" id="circle308"/>
	<circle cx="810.964" cy="375.101" r="4" fill="#0" id="circle309"/>
	<circle cx="816.104" cy="281.554" r="4" fill="#0" id="circle310"/>
	<circle cx="819.188" cy="368.933" r="4" fill="#0" id="circle311"/>
	<circle cx="826.383" cy="279.498" r="4" fill="#0" id="circle312"/>
	<circle cx="829.467" cy="363.793" r="4" fill="#0" id="circle313"/>
	<circle cx="836.663" cy="276.415" r="4" fill="#0" id="circle314"/>
	<circle cx="839.747" cy="358.653" r="4" fill="#0" id="circle315"/>
	<circle cx="846.943" cy="276.415" r="4" fill="#0" id="circle316"/>
	<circle cx="850.027" cy="353.513" r="4" fill="#0" id="circle317"/>
	<circle cx="857.223" cy="274.359" r="4" fill="#0" id="circle318"/>
	<circle cx="858.251" cy="344.261" r="4" fill="#0" id="circle319"/>
	<circle cx="867.503" cy="271.275" r="4" fill="#0" id="circle320"/>
	<circle cx="868.531" cy="344.261" r="4" fill="#0" id="circle321"/>
	<circle cx="877.782" cy="271.275" r="4" fill="#0" id="circle322"/>
	<circle cx="877.782" cy="339.121" r="4" fill="#0" id="circle323"/>
	<circle cx="886.006" cy="332.953" r="4" fill="#0" id="circle324"/>
	<circle cx="887.034" cy="266.135" r="4" fill="#0" id="circle325"/>
	<circle cx="896.286" cy="327.813" r="4" fill="#0" id="circle326"/>
	<circle cx="897.314" cy="266.135" r="4" fill="#0" id="circle327"/>
	<circle cx="904.51" cy="318.562" r="4" fill="#0" id="circle328"/>
	<circle cx="906.566" cy="260.995" r="4" fill="#0" id="circle329"/>
	<circle cx="914.79" cy="313.422" r="4" fill="#0" id="circle330"/>
	<circle cx="916.846" cy="255.855" r="4" fill="#0" id="circle331"/>
	<circle cx="925.069" cy="308.282" r="4" fill="#0" id="circle332"/>
	<circle cx="927.125" cy="255.855" r="4" fill="#0" id="circle333"/>
	<circle cx="935.349" cy="303.142" r="4" fill="#0" id="circle334"/>
	<circle cx="937.405" cy="250.715" r="4" fill="#0" id="circle335"/>
	<circle cx="945.629" cy="303.142" r="4" fill="#0" id="circle336"/>
	<circle cx="947.685" cy="250.715" r="4" fill="#0" id="circle337"/>
	<circle cx="954.881" cy="298.002" r="4" fill="#0" id="circle338"/>
	<circle cx="957.965" cy="250.715" r="4" fill="#0" id="circle339"/>
	<circle cx="965.161" cy="298.002" r="4" fill="#0" id="circle340"/>
	<circle cx="968.245" cy="250.715" r="4" fill="#0" id="circle341"/>
	<circle cx="974.412" cy="292.862" r="4" fill="#0" id="circle342"/>
	<circle cx="978.524" cy="250.715" r="4" fill="#0" id="circle343"/>
	<circle cx="983.664" cy="286.694" r="4" fill="#0" id="circle344"/>
	<circle cx="988.804" cy="250.715" r="4" fill="#0" id="circle345"/>
	<circle cx="991.888" cy="277.442" r="4" fill="#0" id="circle346"/>
	<circle cx="996" cy="258.939" r="4" fill="#0" id="circle347"/>
	</g>
</svg>