<?xml version="1.0" encoding="UTF-8" standalone="no"?>
<!-- Created with CurveBenchmark -->
<svg
	xmlns:dc="http://purl.org/dc/elements/1.1/"
	xmlns:cc="http://creativecommons.org/ns#"
	xmlns:rdf="http://www.w3.org/1999/02/22-rdf-syntax-ns#"
	xmlns:svg="http://www.w3.org/2000/svg"
	xmlns="http://www.w3.org/2000/svg"
	xmlns:sodipodi="http://sodipodi.sourceforge.net/DTD/sodipodi-0.dtd"
	xmlns:inkscape="http://www.inkscape.org/namespaces/inkscape"
	width="1000"
	height="1000"
	id="svg2"
	version="1.1"
	sodipodi:docname="manifold/hnncrust-carriage17.png.txt">
<defs
	id="defs4" />
<metadata
	id="metadata7">
	<rdf:RDF>
		<cc:Work
			rdf:about="">
			<dc:format>image/svg+xml</dc:format>
			<dc:type
				rdf:resource="http://purl.org/dc/dcmitype/StillImage" />
			<dc:title></dc:title>
		</cc:Work>
	</rdf:RDF>
</metadata>
<g
	inkscape:label="Layer 1"
	inkscape:groupmode="layer"
	id="layer1">
	<path style="fill:none;stroke:red;stroke-width:1px;stroke-linecap:butt;stroke-linejoin:miter;stroke-opacity:1" d="M 4,134.924 4,151.709 z" id="boundary" inkscape:connector-curvature="0" />
	<path style="fill:none;stroke:red;stroke-width:1px;stroke-linecap:butt;stroke-linejoin:miter;stroke-opacity:1" d="M 4,134.924 12.3926,118.139 z" id="boundary" inkscape:connector-curvature="0" />
	<path style="fill:none;stroke:red;stroke-width:1px;stroke-linecap:butt;stroke-linejoin:miter;stroke-opacity:1" d="M 4,151.709 17.4281,163.459 z" id="boundary" inkscape:connector-curvature="0" />
	<path style="fill:none;stroke:red;stroke-width:1px;stroke-linecap:butt;stroke-linejoin:miter;stroke-opacity:1" d="M 12.3926,118.139 20.7851,101.354 z" id="boundary" inkscape:connector-curvature="0" />
	<path style="fill:none;stroke:red;stroke-width:1px;stroke-linecap:butt;stroke-linejoin:miter;stroke-opacity:1" d="M 17.4281,163.459 34.2132,156.745 z" id="boundary" inkscape:connector-curvature="0" />
	<path style="fill:none;stroke:red;stroke-width:1px;stroke-linecap:butt;stroke-linejoin:miter;stroke-opacity:1" d="M 20.7851,101.354 34.2132,87.9255 z" id="boundary" inkscape:connector-curvature="0" />
	<path style="fill:none;stroke:red;stroke-width:1px;stroke-linecap:butt;stroke-linejoin:miter;stroke-opacity:1" d="M 34.2132,87.9255 42.6058,71.1404 z" id="boundary" inkscape:connector-curvature="0" />
	<path style="fill:none;stroke:red;stroke-width:1px;stroke-linecap:butt;stroke-linejoin:miter;stroke-opacity:1" d="M 34.2132,156.745 49.3198,148.352 z" id="boundary" inkscape:connector-curvature="0" />
	<path style="fill:none;stroke:red;stroke-width:1px;stroke-linecap:butt;stroke-linejoin:miter;stroke-opacity:1" d="M 42.6058,71.1404 50.9983,54.3553 z" id="boundary" inkscape:connector-curvature="0" />
	<path style="fill:none;stroke:red;stroke-width:1px;stroke-linecap:butt;stroke-linejoin:miter;stroke-opacity:1" d="M 49.3198,148.352 62.7479,134.924 z" id="boundary" inkscape:connector-curvature="0" />
	<path style="fill:none;stroke:red;stroke-width:1px;stroke-linecap:butt;stroke-linejoin:miter;stroke-opacity:1" d="M 50.9983,54.3553 67.7834,45.9628 z" id="boundary" inkscape:connector-curvature="0" />
	<path style="fill:none;stroke:red;stroke-width:1px;stroke-linecap:butt;stroke-linejoin:miter;stroke-opacity:1" d="M 62.7479,134.924 79.533,139.959 z" id="boundary" inkscape:connector-curvature="0" />
	<path style="fill:none;stroke:red;stroke-width:1px;stroke-linecap:butt;stroke-linejoin:miter;stroke-opacity:1" d="M 67.7834,45.9628 84.5685,45.9628 z" id="boundary" inkscape:connector-curvature="0" />
	<path style="fill:none;stroke:red;stroke-width:1px;stroke-linecap:butt;stroke-linejoin:miter;stroke-opacity:1" d="M 79.533,139.959 87.9255,155.066 z" id="boundary" inkscape:connector-curvature="0" />
	<path style="fill:none;stroke:red;stroke-width:1px;stroke-linecap:butt;stroke-linejoin:miter;stroke-opacity:1" d="M 84.5685,45.9628 99.6751,54.3553 z" id="boundary" inkscape:connector-curvature="0" />
	<path style="fill:none;stroke:red;stroke-width:1px;stroke-linecap:butt;stroke-linejoin:miter;stroke-opacity:1" d="M 87.9255,155.066 96.3181,170.173 z" id="boundary" inkscape:connector-curvature="0" />
	<path style="fill:none;stroke:red;stroke-width:1px;stroke-linecap:butt;stroke-linejoin:miter;stroke-opacity:1" d="M 96.3181,170.173 109.746,181.922 z" id="boundary" inkscape:connector-curvature="0" />
	<path style="fill:none;stroke:red;stroke-width:1px;stroke-linecap:butt;stroke-linejoin:miter;stroke-opacity:1" d="M 99.6751,54.3553 114.782,62.7479 z" id="boundary" inkscape:connector-curvature="0" />
	<path style="fill:none;stroke:red;stroke-width:1px;stroke-linecap:butt;stroke-linejoin:miter;stroke-opacity:1" d="M 109.746,181.922 123.174,193.672 z" id="boundary" inkscape:connector-curvature="0" />
	<path style="fill:none;stroke:red;stroke-width:1px;stroke-linecap:butt;stroke-linejoin:miter;stroke-opacity:1" d="M 113.103,327.953 113.103,344.738 z" id="boundary" inkscape:connector-curvature="0" />
	<path style="fill:none;stroke:red;stroke-width:1px;stroke-linecap:butt;stroke-linejoin:miter;stroke-opacity:1" d="M 113.103,327.953 121.496,311.168 z" id="boundary" inkscape:connector-curvature="0" />
	<path style="fill:none;stroke:red;stroke-width:1px;stroke-linecap:butt;stroke-linejoin:miter;stroke-opacity:1" d="M 113.103,344.738 113.103,361.523 z" id="boundary" inkscape:connector-curvature="0" />
	<path style="fill:none;stroke:red;stroke-width:1px;stroke-linecap:butt;stroke-linejoin:miter;stroke-opacity:1" d="M 113.103,361.523 121.496,376.629 z" id="boundary" inkscape:connector-curvature="0" />
	<path style="fill:none;stroke:red;stroke-width:1px;stroke-linecap:butt;stroke-linejoin:miter;stroke-opacity:1" d="M 114.782,62.7479 131.567,67.7834 z" id="boundary" inkscape:connector-curvature="0" />
	<path style="fill:none;stroke:red;stroke-width:1px;stroke-linecap:butt;stroke-linejoin:miter;stroke-opacity:1" d="M 121.496,311.168 129.888,294.382 z" id="boundary" inkscape:connector-curvature="0" />
	<path style="fill:none;stroke:red;stroke-width:1px;stroke-linecap:butt;stroke-linejoin:miter;stroke-opacity:1" d="M 121.496,376.629 138.281,378.308 z" id="boundary" inkscape:connector-curvature="0" />
	<path style="fill:none;stroke:red;stroke-width:1px;stroke-linecap:butt;stroke-linejoin:miter;stroke-opacity:1" d="M 123.174,193.672 129.888,210.457 z" id="boundary" inkscape:connector-curvature="0" />
	<path style="fill:none;stroke:red;stroke-width:1px;stroke-linecap:butt;stroke-linejoin:miter;stroke-opacity:1" d="M 129.888,210.457 129.888,227.242 z" id="boundary" inkscape:connector-curvature="0" />
	<path style="fill:none;stroke:red;stroke-width:1px;stroke-linecap:butt;stroke-linejoin:miter;stroke-opacity:1" d="M 129.888,227.242 129.888,244.027 z" id="boundary" inkscape:connector-curvature="0" />
	<path style="fill:none;stroke:red;stroke-width:1px;stroke-linecap:butt;stroke-linejoin:miter;stroke-opacity:1" d="M 129.888,244.027 129.888,260.812 z" id="boundary" inkscape:connector-curvature="0" />
	<path style="fill:none;stroke:red;stroke-width:1px;stroke-linecap:butt;stroke-linejoin:miter;stroke-opacity:1" d="M 129.888,260.812 129.888,277.597 z" id="boundary" inkscape:connector-curvature="0" />
	<path style="fill:none;stroke:red;stroke-width:1px;stroke-linecap:butt;stroke-linejoin:miter;stroke-opacity:1" d="M 129.888,277.597 129.888,294.382 z" id="boundary" inkscape:connector-curvature="0" />
	<path style="fill:none;stroke:red;stroke-width:1px;stroke-linecap:butt;stroke-linejoin:miter;stroke-opacity:1" d="M 131.567,67.7834 138.281,84.5685 z" id="boundary" inkscape:connector-curvature="0" />
	<path style="fill:none;stroke:red;stroke-width:1px;stroke-linecap:butt;stroke-linejoin:miter;stroke-opacity:1" d="M 138.281,84.5685 151.709,96.3181 z" id="boundary" inkscape:connector-curvature="0" />
	<path style="fill:none;stroke:red;stroke-width:1px;stroke-linecap:butt;stroke-linejoin:miter;stroke-opacity:1" d="M 138.281,378.308 148.352,349.773 z" id="boundary" inkscape:connector-curvature="0" />
	<path style="fill:none;stroke:red;stroke-width:1px;stroke-linecap:butt;stroke-linejoin:miter;stroke-opacity:1" d="M 148.352,316.203 148.352,332.988 z" id="boundary" inkscape:connector-curvature="0" />
	<path style="fill:none;stroke:red;stroke-width:1px;stroke-linecap:butt;stroke-linejoin:miter;stroke-opacity:1" d="M 148.352,316.203 161.78,304.453 z" id="boundary" inkscape:connector-curvature="0" />
	<path style="fill:none;stroke:red;stroke-width:1px;stroke-linecap:butt;stroke-linejoin:miter;stroke-opacity:1" d="M 148.352,332.988 148.352,349.773 z" id="boundary" inkscape:connector-curvature="0" />
	<path style="fill:none;stroke:red;stroke-width:1px;stroke-linecap:butt;stroke-linejoin:miter;stroke-opacity:1" d="M 151.709,96.3181 166.816,104.711 z" id="boundary" inkscape:connector-curvature="0" />
	<path style="fill:none;stroke:red;stroke-width:1px;stroke-linecap:butt;stroke-linejoin:miter;stroke-opacity:1" d="M 161.78,304.453 170.173,287.668 z" id="boundary" inkscape:connector-curvature="0" />
	<path style="fill:none;stroke:red;stroke-width:1px;stroke-linecap:butt;stroke-linejoin:miter;stroke-opacity:1" d="M 166.816,104.711 173.53,121.496 z" id="boundary" inkscape:connector-curvature="0" />
	<path style="fill:none;stroke:red;stroke-width:1px;stroke-linecap:butt;stroke-linejoin:miter;stroke-opacity:1" d="M 170.173,287.668 178.565,270.883 z" id="boundary" inkscape:connector-curvature="0" />
	<path style="fill:none;stroke:red;stroke-width:1px;stroke-linecap:butt;stroke-linejoin:miter;stroke-opacity:1" d="M 173.53,121.496 190.315,126.531 z" id="boundary" inkscape:connector-curvature="0" />
	<path style="fill:none;stroke:red;stroke-width:1px;stroke-linecap:butt;stroke-linejoin:miter;stroke-opacity:1" d="M 178.565,270.883 188.636,257.455 z" id="boundary" inkscape:connector-curvature="0" />
	<path style="fill:none;stroke:red;stroke-width:1px;stroke-linecap:butt;stroke-linejoin:miter;stroke-opacity:1" d="M 188.636,257.455 205.421,252.42 z" id="boundary" inkscape:connector-curvature="0" />
	<path style="fill:none;stroke:red;stroke-width:1px;stroke-linecap:butt;stroke-linejoin:miter;stroke-opacity:1" d="M 190.315,126.531 207.1,129.888 z" id="boundary" inkscape:connector-curvature="0" />
	<path style="fill:none;stroke:red;stroke-width:1px;stroke-linecap:butt;stroke-linejoin:miter;stroke-opacity:1" d="M 205.421,252.42 222.206,249.063 z" id="boundary" inkscape:connector-curvature="0" />
	<path style="fill:none;stroke:red;stroke-width:1px;stroke-linecap:butt;stroke-linejoin:miter;stroke-opacity:1" d="M 207.1,129.888 223.885,129.888 z" id="boundary" inkscape:connector-curvature="0" />
	<path style="fill:none;stroke:red;stroke-width:1px;stroke-linecap:butt;stroke-linejoin:miter;stroke-opacity:1" d="M 222.206,249.063 238.992,249.063 z" id="boundary" inkscape:connector-curvature="0" />
	<path style="fill:none;stroke:red;stroke-width:1px;stroke-linecap:butt;stroke-linejoin:miter;stroke-opacity:1" d="M 223.885,129.888 240.67,129.888 z" id="boundary" inkscape:connector-curvature="0" />
	<path style="fill:none;stroke:red;stroke-width:1px;stroke-linecap:butt;stroke-linejoin:miter;stroke-opacity:1" d="M 238.992,249.063 255.777,249.063 z" id="boundary" inkscape:connector-curvature="0" />
	<path style="fill:none;stroke:red;stroke-width:1px;stroke-linecap:butt;stroke-linejoin:miter;stroke-opacity:1" d="M 240.67,129.888 257.455,129.888 z" id="boundary" inkscape:connector-curvature="0" />
	<path style="fill:none;stroke:red;stroke-width:1px;stroke-linecap:butt;stroke-linejoin:miter;stroke-opacity:1" d="M 255.777,249.063 272.562,249.063 z" id="boundary" inkscape:connector-curvature="0" />
	<path style="fill:none;stroke:red;stroke-width:1px;stroke-linecap:butt;stroke-linejoin:miter;stroke-opacity:1" d="M 257.455,129.888 274.24,129.888 z" id="boundary" inkscape:connector-curvature="0" />
	<path style="fill:none;stroke:red;stroke-width:1px;stroke-linecap:butt;stroke-linejoin:miter;stroke-opacity:1" d="M 272.562,249.063 289.347,249.063 z" id="boundary" inkscape:connector-curvature="0" />
	<path style="fill:none;stroke:red;stroke-width:1px;stroke-linecap:butt;stroke-linejoin:miter;stroke-opacity:1" d="M 274.24,129.888 291.025,129.888 z" id="boundary" inkscape:connector-curvature="0" />
	<path style="fill:none;stroke:red;stroke-width:1px;stroke-linecap:butt;stroke-linejoin:miter;stroke-opacity:1" d="M 289.347,249.063 304.453,257.455 z" id="boundary" inkscape:connector-curvature="0" />
	<path style="fill:none;stroke:red;stroke-width:1px;stroke-linecap:butt;stroke-linejoin:miter;stroke-opacity:1" d="M 291.025,129.888 307.81,134.924 z" id="boundary" inkscape:connector-curvature="0" />
	<path style="fill:none;stroke:red;stroke-width:1px;stroke-linecap:butt;stroke-linejoin:miter;stroke-opacity:1" d="M 304.453,257.455 306.132,274.24 z" id="boundary" inkscape:connector-curvature="0" />
	<path style="fill:none;stroke:red;stroke-width:1px;stroke-linecap:butt;stroke-linejoin:miter;stroke-opacity:1" d="M 306.132,274.24 306.132,291.025 z" id="boundary" inkscape:connector-curvature="0" />
	<path style="fill:none;stroke:red;stroke-width:1px;stroke-linecap:butt;stroke-linejoin:miter;stroke-opacity:1" d="M 306.132,291.025 314.525,306.132 z" id="boundary" inkscape:connector-curvature="0" />
	<path style="fill:none;stroke:red;stroke-width:1px;stroke-linecap:butt;stroke-linejoin:miter;stroke-opacity:1" d="M 307.81,134.924 324.596,138.281 z" id="boundary" inkscape:connector-curvature="0" />
	<path style="fill:none;stroke:red;stroke-width:1px;stroke-linecap:butt;stroke-linejoin:miter;stroke-opacity:1" d="M 314.525,306.132 314.525,322.917 z" id="boundary" inkscape:connector-curvature="0" />
	<path style="fill:none;stroke:red;stroke-width:1px;stroke-linecap:butt;stroke-linejoin:miter;stroke-opacity:1" d="M 314.525,322.917 314.525,339.702 z" id="boundary" inkscape:connector-curvature="0" />
	<path style="fill:none;stroke:red;stroke-width:1px;stroke-linecap:butt;stroke-linejoin:miter;stroke-opacity:1" d="M 314.525,339.702 314.525,356.487 z" id="boundary" inkscape:connector-curvature="0" />
	<path style="fill:none;stroke:red;stroke-width:1px;stroke-linecap:butt;stroke-linejoin:miter;stroke-opacity:1" d="M 314.525,356.487 324.596,369.915 z" id="boundary" inkscape:connector-curvature="0" />
	<path style="fill:none;stroke:red;stroke-width:1px;stroke-linecap:butt;stroke-linejoin:miter;stroke-opacity:1" d="M 324.596,138.281 341.381,138.281 z" id="boundary" inkscape:connector-curvature="0" />
	<path style="fill:none;stroke:red;stroke-width:1px;stroke-linecap:butt;stroke-linejoin:miter;stroke-opacity:1" d="M 324.596,369.915 341.381,374.951 z" id="boundary" inkscape:connector-curvature="0" />
	<path style="fill:none;stroke:red;stroke-width:1px;stroke-linecap:butt;stroke-linejoin:miter;stroke-opacity:1" d="M 341.381,138.281 358.166,138.281 z" id="boundary" inkscape:connector-curvature="0" />
	<path style="fill:none;stroke:red;stroke-width:1px;stroke-linecap:butt;stroke-linejoin:miter;stroke-opacity:1" d="M 341.381,374.951 358.166,366.558 z" id="boundary" inkscape:connector-curvature="0" />
	<path style="fill:none;stroke:red;stroke-width:1px;stroke-linecap:butt;stroke-linejoin:miter;stroke-opacity:1" d="M 358.166,138.281 374.951,143.316 z" id="boundary" inkscape:connector-curvature="0" />
	<path style="fill:none;stroke:red;stroke-width:1px;stroke-linecap:butt;stroke-linejoin:miter;stroke-opacity:1" d="M 358.166,366.558 366.558,341.381 z" id="boundary" inkscape:connector-curvature="0" />
	<path style="fill:none;stroke:red;stroke-width:1px;stroke-linecap:butt;stroke-linejoin:miter;stroke-opacity:1" d="M 366.558,274.24 366.558,291.025 z" id="boundary" inkscape:connector-curvature="0" />
	<path style="fill:none;stroke:red;stroke-width:1px;stroke-linecap:butt;stroke-linejoin:miter;stroke-opacity:1" d="M 366.558,274.24 383.343,274.24 z" id="boundary" inkscape:connector-curvature="0" />
	<path style="fill:none;stroke:red;stroke-width:1px;stroke-linecap:butt;stroke-linejoin:miter;stroke-opacity:1" d="M 366.558,291.025 366.558,307.81 z" id="boundary" inkscape:connector-curvature="0" />
	<path style="fill:none;stroke:red;stroke-width:1px;stroke-linecap:butt;stroke-linejoin:miter;stroke-opacity:1" d="M 366.558,307.81 366.558,324.596 z" id="boundary" inkscape:connector-curvature="0" />
	<path style="fill:none;stroke:red;stroke-width:1px;stroke-linecap:butt;stroke-linejoin:miter;stroke-opacity:1" d="M 366.558,324.596 366.558,341.381 z" id="boundary" inkscape:connector-curvature="0" />
	<path style="fill:none;stroke:red;stroke-width:1px;stroke-linecap:butt;stroke-linejoin:miter;stroke-opacity:1" d="M 374.951,143.316 390.058,151.709 z" id="boundary" inkscape:connector-curvature="0" />
	<path style="fill:none;stroke:red;stroke-width:1px;stroke-linecap:butt;stroke-linejoin:miter;stroke-opacity:1" d="M 383.343,274.24 400.129,274.24 z" id="boundary" inkscape:connector-curvature="0" />
	<path style="fill:none;stroke:red;stroke-width:1px;stroke-linecap:butt;stroke-linejoin:miter;stroke-opacity:1" d="M 390.058,151.709 398.45,166.816 z" id="boundary" inkscape:connector-curvature="0" />
	<path style="fill:none;stroke:red;stroke-width:1px;stroke-linecap:butt;stroke-linejoin:miter;stroke-opacity:1" d="M 398.45,166.816 400.129,183.601 z" id="boundary" inkscape:connector-curvature="0" />
	<path style="fill:none;stroke:red;stroke-width:1px;stroke-linecap:butt;stroke-linejoin:miter;stroke-opacity:1" d="M 400.129,183.601 400.129,200.386 z" id="boundary" inkscape:connector-curvature="0" />
	<path style="fill:none;stroke:red;stroke-width:1px;stroke-linecap:butt;stroke-linejoin:miter;stroke-opacity:1" d="M 400.129,200.386 416.914,205.421 z" id="boundary" inkscape:connector-curvature="0" />
	<path style="fill:none;stroke:red;stroke-width:1px;stroke-linecap:butt;stroke-linejoin:miter;stroke-opacity:1" d="M 400.129,274.24 416.914,274.24 z" id="boundary" inkscape:connector-curvature="0" />
	<path style="fill:none;stroke:red;stroke-width:1px;stroke-linecap:butt;stroke-linejoin:miter;stroke-opacity:1" d="M 416.914,205.421 433.699,205.421 z" id="boundary" inkscape:connector-curvature="0" />
	<path style="fill:none;stroke:red;stroke-width:1px;stroke-linecap:butt;stroke-linejoin:miter;stroke-opacity:1" d="M 416.914,274.24 432.02,282.633 z" id="boundary" inkscape:connector-curvature="0" />
	<path style="fill:none;stroke:red;stroke-width:1px;stroke-linecap:butt;stroke-linejoin:miter;stroke-opacity:1" d="M 432.02,282.633 432.02,299.418 z" id="boundary" inkscape:connector-curvature="0" />
	<path style="fill:none;stroke:red;stroke-width:1px;stroke-linecap:butt;stroke-linejoin:miter;stroke-opacity:1" d="M 432.02,299.418 432.02,316.203 z" id="boundary" inkscape:connector-curvature="0" />
	<path style="fill:none;stroke:red;stroke-width:1px;stroke-linecap:butt;stroke-linejoin:miter;stroke-opacity:1" d="M 432.02,316.203 432.02,332.988 z" id="boundary" inkscape:connector-curvature="0" />
	<path style="fill:none;stroke:red;stroke-width:1px;stroke-linecap:butt;stroke-linejoin:miter;stroke-opacity:1" d="M 432.02,332.988 432.02,349.773 z" id="boundary" inkscape:connector-curvature="0" />
	<path style="fill:none;stroke:red;stroke-width:1px;stroke-linecap:butt;stroke-linejoin:miter;stroke-opacity:1" d="M 432.02,349.773 432.02,366.558 z" id="boundary" inkscape:connector-curvature="0" />
	<path style="fill:none;stroke:red;stroke-width:1px;stroke-linecap:butt;stroke-linejoin:miter;stroke-opacity:1" d="M 432.02,366.558 447.127,374.951 z" id="boundary" inkscape:connector-curvature="0" />
	<path style="fill:none;stroke:red;stroke-width:1px;stroke-linecap:butt;stroke-linejoin:miter;stroke-opacity:1" d="M 433.699,205.421 448.805,193.672 z" id="boundary" inkscape:connector-curvature="0" />
	<path style="fill:none;stroke:red;stroke-width:1px;stroke-linecap:butt;stroke-linejoin:miter;stroke-opacity:1" d="M 447.127,374.951 462.234,383.343 z" id="boundary" inkscape:connector-curvature="0" />
	<path style="fill:none;stroke:red;stroke-width:1px;stroke-linecap:butt;stroke-linejoin:miter;stroke-opacity:1" d="M 448.805,193.672 465.591,176.887 z" id="boundary" inkscape:connector-curvature="0" />
	<path style="fill:none;stroke:red;stroke-width:1px;stroke-linecap:butt;stroke-linejoin:miter;stroke-opacity:1" d="M 462.234,383.343 470.626,398.45 z" id="boundary" inkscape:connector-curvature="0" />
	<path style="fill:none;stroke:red;stroke-width:1px;stroke-linecap:butt;stroke-linejoin:miter;stroke-opacity:1" d="M 465.591,143.316 465.591,160.102 z" id="boundary" inkscape:connector-curvature="0" />
	<path style="fill:none;stroke:red;stroke-width:1px;stroke-linecap:butt;stroke-linejoin:miter;stroke-opacity:1" d="M 465.591,143.316 473.983,126.531 z" id="boundary" inkscape:connector-curvature="0" />
	<path style="fill:none;stroke:red;stroke-width:1px;stroke-linecap:butt;stroke-linejoin:miter;stroke-opacity:1" d="M 465.591,160.102 465.591,176.887 z" id="boundary" inkscape:connector-curvature="0" />
	<path style="fill:none;stroke:red;stroke-width:1px;stroke-linecap:butt;stroke-linejoin:miter;stroke-opacity:1" d="M 470.626,398.45 485.733,406.843 z" id="boundary" inkscape:connector-curvature="0" />
	<path style="fill:none;stroke:red;stroke-width:1px;stroke-linecap:butt;stroke-linejoin:miter;stroke-opacity:1" d="M 473.983,126.531 490.768,118.139 z" id="boundary" inkscape:connector-curvature="0" />
	<path style="fill:none;stroke:red;stroke-width:1px;stroke-linecap:butt;stroke-linejoin:miter;stroke-opacity:1" d="M 485.733,406.843 502.518,413.557 z" id="boundary" inkscape:connector-curvature="0" />
	<path style="fill:none;stroke:red;stroke-width:1px;stroke-linecap:butt;stroke-linejoin:miter;stroke-opacity:1" d="M 490.768,118.139 507.553,101.354 z" id="boundary" inkscape:connector-curvature="0" />
	<path style="fill:none;stroke:red;stroke-width:1px;stroke-linecap:butt;stroke-linejoin:miter;stroke-opacity:1" d="M 502.518,413.557 519.303,416.914 z" id="boundary" inkscape:connector-curvature="0" />
	<path style="fill:none;stroke:red;stroke-width:1px;stroke-linecap:butt;stroke-linejoin:miter;stroke-opacity:1" d="M 507.553,101.354 524.338,96.3181 z" id="boundary" inkscape:connector-curvature="0" />
	<path style="fill:none;stroke:red;stroke-width:1px;stroke-linecap:butt;stroke-linejoin:miter;stroke-opacity:1" d="M 519.303,416.914 536.088,416.914 z" id="boundary" inkscape:connector-curvature="0" />
	<path style="fill:none;stroke:red;stroke-width:1px;stroke-linecap:butt;stroke-linejoin:miter;stroke-opacity:1" d="M 524.338,96.3181 539.445,87.9255 z" id="boundary" inkscape:connector-curvature="0" />
	<path style="fill:none;stroke:red;stroke-width:1px;stroke-linecap:butt;stroke-linejoin:miter;stroke-opacity:1" d="M 532.731,42.6058 541.124,57.7124 z" id="boundary" inkscape:connector-curvature="0" />
	<path style="fill:none;stroke:red;stroke-width:1px;stroke-linecap:butt;stroke-linejoin:miter;stroke-opacity:1" d="M 532.731,42.6058 546.159,29.1777 z" id="boundary" inkscape:connector-curvature="0" />
	<path style="fill:none;stroke:red;stroke-width:1px;stroke-linecap:butt;stroke-linejoin:miter;stroke-opacity:1" d="M 536.088,416.914 552.873,416.914 z" id="boundary" inkscape:connector-curvature="0" />
	<path style="fill:none;stroke:red;stroke-width:1px;stroke-linecap:butt;stroke-linejoin:miter;stroke-opacity:1" d="M 539.445,87.9255 549.516,72.819 z" id="boundary" inkscape:connector-curvature="0" />
	<path style="fill:none;stroke:red;stroke-width:1px;stroke-linecap:butt;stroke-linejoin:miter;stroke-opacity:1" d="M 541.124,57.7124 549.516,72.819 z" id="boundary" inkscape:connector-curvature="0" />
	<path style="fill:none;stroke:red;stroke-width:1px;stroke-linecap:butt;stroke-linejoin:miter;stroke-opacity:1" d="M 546.159,29.1777 554.552,12.3926 z" id="boundary" inkscape:connector-curvature="0" />
	<path style="fill:none;stroke:red;stroke-width:1px;stroke-linecap:butt;stroke-linejoin:miter;stroke-opacity:1" d="M 552.873,416.914 567.98,408.521 z" id="boundary" inkscape:connector-curvature="0" />
	<path style="fill:none;stroke:red;stroke-width:1px;stroke-linecap:butt;stroke-linejoin:miter;stroke-opacity:1" d="M 554.552,12.3926 571.337,4 z" id="boundary" inkscape:connector-curvature="0" />
	<path style="fill:none;stroke:red;stroke-width:1px;stroke-linecap:butt;stroke-linejoin:miter;stroke-opacity:1" d="M 567.98,408.521 584.765,400.129 z" id="boundary" inkscape:connector-curvature="0" />
	<path style="fill:none;stroke:red;stroke-width:1px;stroke-linecap:butt;stroke-linejoin:miter;stroke-opacity:1" d="M 571.337,4 586.443,12.3926 z" id="boundary" inkscape:connector-curvature="0" />
	<path style="fill:none;stroke:red;stroke-width:1px;stroke-linecap:butt;stroke-linejoin:miter;stroke-opacity:1" d="M 584.765,400.129 593.157,374.951 z" id="boundary" inkscape:connector-curvature="0" />
	<path style="fill:none;stroke:red;stroke-width:1px;stroke-linecap:butt;stroke-linejoin:miter;stroke-opacity:1" d="M 586.443,12.3926 599.871,24.1421 z" id="boundary" inkscape:connector-curvature="0" />
	<path style="fill:none;stroke:red;stroke-width:1px;stroke-linecap:butt;stroke-linejoin:miter;stroke-opacity:1" d="M 593.157,240.67 593.157,257.455 z" id="boundary" inkscape:connector-curvature="0" />
	<path style="fill:none;stroke:red;stroke-width:1px;stroke-linecap:butt;stroke-linejoin:miter;stroke-opacity:1" d="M 593.157,240.67 609.942,232.277 z" id="boundary" inkscape:connector-curvature="0" />
	<path style="fill:none;stroke:red;stroke-width:1px;stroke-linecap:butt;stroke-linejoin:miter;stroke-opacity:1" d="M 593.157,257.455 601.55,272.562 z" id="boundary" inkscape:connector-curvature="0" />
	<path style="fill:none;stroke:red;stroke-width:1px;stroke-linecap:butt;stroke-linejoin:miter;stroke-opacity:1" d="M 593.157,374.951 601.55,349.773 z" id="boundary" inkscape:connector-curvature="0" />
	<path style="fill:none;stroke:red;stroke-width:1px;stroke-linecap:butt;stroke-linejoin:miter;stroke-opacity:1" d="M 599.871,24.1421 601.55,40.9272 z" id="boundary" inkscape:connector-curvature="0" />
	<path style="fill:none;stroke:red;stroke-width:1px;stroke-linecap:butt;stroke-linejoin:miter;stroke-opacity:1" d="M 601.55,40.9272 606.585,57.7124 z" id="boundary" inkscape:connector-curvature="0" />
	<path style="fill:none;stroke:red;stroke-width:1px;stroke-linecap:butt;stroke-linejoin:miter;stroke-opacity:1" d="M 601.55,272.562 609.942,287.668 z" id="boundary" inkscape:connector-curvature="0" />
	<path style="fill:none;stroke:red;stroke-width:1px;stroke-linecap:butt;stroke-linejoin:miter;stroke-opacity:1" d="M 601.55,349.773 609.942,321.239 z" id="boundary" inkscape:connector-curvature="0" />
	<path style="fill:none;stroke:red;stroke-width:1px;stroke-linecap:butt;stroke-linejoin:miter;stroke-opacity:1" d="M 606.585,57.7124 618.335,71.1404 z" id="boundary" inkscape:connector-curvature="0" />
	<path style="fill:none;stroke:red;stroke-width:1px;stroke-linecap:butt;stroke-linejoin:miter;stroke-opacity:1" d="M 609.942,232.277 625.049,240.67 z" id="boundary" inkscape:connector-curvature="0" />
	<path style="fill:none;stroke:red;stroke-width:1px;stroke-linecap:butt;stroke-linejoin:miter;stroke-opacity:1" d="M 609.942,287.668 609.942,304.453 z" id="boundary" inkscape:connector-curvature="0" />
	<path style="fill:none;stroke:red;stroke-width:1px;stroke-linecap:butt;stroke-linejoin:miter;stroke-opacity:1" d="M 609.942,304.453 609.942,321.239 z" id="boundary" inkscape:connector-curvature="0" />
	<path style="fill:none;stroke:red;stroke-width:1px;stroke-linecap:butt;stroke-linejoin:miter;stroke-opacity:1" d="M 618.335,71.1404 618.335,87.9255 z" id="boundary" inkscape:connector-curvature="0" />
	<path style="fill:none;stroke:red;stroke-width:1px;stroke-linecap:butt;stroke-linejoin:miter;stroke-opacity:1" d="M 618.335,87.9255 626.728,103.032 z" id="boundary" inkscape:connector-curvature="0" />
	<path style="fill:none;stroke:red;stroke-width:1px;stroke-linecap:butt;stroke-linejoin:miter;stroke-opacity:1" d="M 618.335,123.174 626.728,103.032 z" id="boundary" inkscape:connector-curvature="0" />
	<path style="fill:none;stroke:red;stroke-width:1px;stroke-linecap:butt;stroke-linejoin:miter;stroke-opacity:1" d="M 618.335,123.174 626.728,138.281 z" id="boundary" inkscape:connector-curvature="0" />
	<path style="fill:none;stroke:red;stroke-width:1px;stroke-linecap:butt;stroke-linejoin:miter;stroke-opacity:1" d="M 625.049,240.67 640.156,249.063 z" id="boundary" inkscape:connector-curvature="0" />
	<path style="fill:none;stroke:red;stroke-width:1px;stroke-linecap:butt;stroke-linejoin:miter;stroke-opacity:1" d="M 626.728,138.281 626.728,155.066 z" id="boundary" inkscape:connector-curvature="0" />
	<path style="fill:none;stroke:red;stroke-width:1px;stroke-linecap:butt;stroke-linejoin:miter;stroke-opacity:1" d="M 626.728,155.066 626.728,171.851 z" id="boundary" inkscape:connector-curvature="0" />
	<path style="fill:none;stroke:red;stroke-width:1px;stroke-linecap:butt;stroke-linejoin:miter;stroke-opacity:1" d="M 626.728,171.851 641.834,180.244 z" id="boundary" inkscape:connector-curvature="0" />
	<path style="fill:none;stroke:red;stroke-width:1px;stroke-linecap:butt;stroke-linejoin:miter;stroke-opacity:1" d="M 640.156,249.063 646.87,265.848 z" id="boundary" inkscape:connector-curvature="0" />
	<path style="fill:none;stroke:red;stroke-width:1px;stroke-linecap:butt;stroke-linejoin:miter;stroke-opacity:1" d="M 641.834,180.244 658.619,180.244 z" id="boundary" inkscape:connector-curvature="0" />
	<path style="fill:none;stroke:red;stroke-width:1px;stroke-linecap:butt;stroke-linejoin:miter;stroke-opacity:1" d="M 646.87,265.848 655.262,280.954 z" id="boundary" inkscape:connector-curvature="0" />
	<path style="fill:none;stroke:red;stroke-width:1px;stroke-linecap:butt;stroke-linejoin:miter;stroke-opacity:1" d="M 655.262,280.954 658.619,297.739 z" id="boundary" inkscape:connector-curvature="0" />
	<path style="fill:none;stroke:red;stroke-width:1px;stroke-linecap:butt;stroke-linejoin:miter;stroke-opacity:1" d="M 658.619,180.244 675.404,176.887 z" id="boundary" inkscape:connector-curvature="0" />
	<path style="fill:none;stroke:red;stroke-width:1px;stroke-linecap:butt;stroke-linejoin:miter;stroke-opacity:1" d="M 658.619,297.739 658.619,314.525 z" id="boundary" inkscape:connector-curvature="0" />
	<path style="fill:none;stroke:red;stroke-width:1px;stroke-linecap:butt;stroke-linejoin:miter;stroke-opacity:1" d="M 658.619,314.525 672.047,324.596 z" id="boundary" inkscape:connector-curvature="0" />
	<path style="fill:none;stroke:red;stroke-width:1px;stroke-linecap:butt;stroke-linejoin:miter;stroke-opacity:1" d="M 672.047,324.596 680.44,339.702 z" id="boundary" inkscape:connector-curvature="0" />
	<path style="fill:none;stroke:red;stroke-width:1px;stroke-linecap:butt;stroke-linejoin:miter;stroke-opacity:1" d="M 675.404,176.887 692.19,160.102 z" id="boundary" inkscape:connector-curvature="0" />
	<path style="fill:none;stroke:red;stroke-width:1px;stroke-linecap:butt;stroke-linejoin:miter;stroke-opacity:1" d="M 680.44,339.702 693.868,349.773 z" id="boundary" inkscape:connector-curvature="0" />
	<path style="fill:none;stroke:red;stroke-width:1px;stroke-linecap:butt;stroke-linejoin:miter;stroke-opacity:1" d="M 692.19,160.102 700.582,143.316 z" id="boundary" inkscape:connector-curvature="0" />
	<path style="fill:none;stroke:red;stroke-width:1px;stroke-linecap:butt;stroke-linejoin:miter;stroke-opacity:1" d="M 693.868,349.773 710.653,349.773 z" id="boundary" inkscape:connector-curvature="0" />
	<path style="fill:none;stroke:red;stroke-width:1px;stroke-linecap:butt;stroke-linejoin:miter;stroke-opacity:1" d="M 700.582,143.316 714.01,129.888 z" id="boundary" inkscape:connector-curvature="0" />
	<path style="fill:none;stroke:red;stroke-width:1px;stroke-linecap:butt;stroke-linejoin:miter;stroke-opacity:1" d="M 710.653,349.773 727.438,341.381 z" id="boundary" inkscape:connector-curvature="0" />
	<path style="fill:none;stroke:red;stroke-width:1px;stroke-linecap:butt;stroke-linejoin:miter;stroke-opacity:1" d="M 714.01,129.888 729.117,121.496 z" id="boundary" inkscape:connector-curvature="0" />
	<path style="fill:none;stroke:red;stroke-width:1px;stroke-linecap:butt;stroke-linejoin:miter;stroke-opacity:1" d="M 727.438,341.381 744.223,341.381 z" id="boundary" inkscape:connector-curvature="0" />
	<path style="fill:none;stroke:red;stroke-width:1px;stroke-linecap:butt;stroke-linejoin:miter;stroke-opacity:1" d="M 729.117,121.496 745.902,121.496 z" id="boundary" inkscape:connector-curvature="0" />
	<path style="fill:none;stroke:red;stroke-width:1px;stroke-linecap:butt;stroke-linejoin:miter;stroke-opacity:1" d="M 744.223,341.381 761.008,344.738 z" id="boundary" inkscape:connector-curvature="0" />
	<path style="fill:none;stroke:red;stroke-width:1px;stroke-linecap:butt;stroke-linejoin:miter;stroke-opacity:1" d="M 745.902,121.496 759.33,109.746 z" id="boundary" inkscape:connector-curvature="0" />
	<path style="fill:none;stroke:red;stroke-width:1px;stroke-linecap:butt;stroke-linejoin:miter;stroke-opacity:1" d="M 759.33,92.9611 759.33,109.746 z" id="boundary" inkscape:connector-curvature="0" />
	<path style="fill:none;stroke:red;stroke-width:1px;stroke-linecap:butt;stroke-linejoin:miter;stroke-opacity:1" d="M 759.33,92.9611 767.723,76.176 z" id="boundary" inkscape:connector-curvature="0" />
	<path style="fill:none;stroke:red;stroke-width:1px;stroke-linecap:butt;stroke-linejoin:miter;stroke-opacity:1" d="M 761.008,344.738 772.758,358.166 z" id="boundary" inkscape:connector-curvature="0" />
	<path style="fill:none;stroke:red;stroke-width:1px;stroke-linecap:butt;stroke-linejoin:miter;stroke-opacity:1" d="M 767.723,76.176 776.115,59.3909 z" id="boundary" inkscape:connector-curvature="0" />
	<path style="fill:none;stroke:red;stroke-width:1px;stroke-linecap:butt;stroke-linejoin:miter;stroke-opacity:1" d="M 772.758,358.166 784.508,371.594 z" id="boundary" inkscape:connector-curvature="0" />
	<path style="fill:none;stroke:red;stroke-width:1px;stroke-linecap:butt;stroke-linejoin:miter;stroke-opacity:1" d="M 776.115,59.3909 789.543,45.9628 z" id="boundary" inkscape:connector-curvature="0" />
	<path style="fill:none;stroke:red;stroke-width:1px;stroke-linecap:butt;stroke-linejoin:miter;stroke-opacity:1" d="M 784.508,371.594 786.186,388.379 z" id="boundary" inkscape:connector-curvature="0" />
	<path style="fill:none;stroke:red;stroke-width:1px;stroke-linecap:butt;stroke-linejoin:miter;stroke-opacity:1" d="M 786.186,388.379 794.579,403.486 z" id="boundary" inkscape:connector-curvature="0" />
	<path style="fill:none;stroke:red;stroke-width:1px;stroke-linecap:butt;stroke-linejoin:miter;stroke-opacity:1" d="M 789.543,45.9628 802.971,32.5347 z" id="boundary" inkscape:connector-curvature="0" />
	<path style="fill:none;stroke:red;stroke-width:1px;stroke-linecap:butt;stroke-linejoin:miter;stroke-opacity:1" d="M 794.579,403.486 806.328,416.914 z" id="boundary" inkscape:connector-curvature="0" />
	<path style="fill:none;stroke:red;stroke-width:1px;stroke-linecap:butt;stroke-linejoin:miter;stroke-opacity:1" d="M 802.971,32.5347 818.078,40.9272 z" id="boundary" inkscape:connector-curvature="0" />
	<path style="fill:none;stroke:red;stroke-width:1px;stroke-linecap:butt;stroke-linejoin:miter;stroke-opacity:1" d="M 806.328,416.914 823.113,416.914 z" id="boundary" inkscape:connector-curvature="0" />
	<path style="fill:none;stroke:red;stroke-width:1px;stroke-linecap:butt;stroke-linejoin:miter;stroke-opacity:1" d="M 818.078,40.9272 824.792,57.7124 z" id="boundary" inkscape:connector-curvature="0" />
	<path style="fill:none;stroke:red;stroke-width:1px;stroke-linecap:butt;stroke-linejoin:miter;stroke-opacity:1" d="M 823.113,416.914 839.898,423.628 z" id="boundary" inkscape:connector-curvature="0" />
	<path style="fill:none;stroke:red;stroke-width:1px;stroke-linecap:butt;stroke-linejoin:miter;stroke-opacity:1" d="M 824.792,57.7124 836.541,71.1404 z" id="boundary" inkscape:connector-curvature="0" />
	<path style="fill:none;stroke:red;stroke-width:1px;stroke-linecap:butt;stroke-linejoin:miter;stroke-opacity:1" d="M 836.541,71.1404 844.934,86.247 z" id="boundary" inkscape:connector-curvature="0" />
	<path style="fill:none;stroke:red;stroke-width:1px;stroke-linecap:butt;stroke-linejoin:miter;stroke-opacity:1" d="M 839.898,423.628 855.005,432.02 z" id="boundary" inkscape:connector-curvature="0" />
	<path style="fill:none;stroke:red;stroke-width:1px;stroke-linecap:butt;stroke-linejoin:miter;stroke-opacity:1" d="M 844.934,86.247 853.327,101.354 z" id="boundary" inkscape:connector-curvature="0" />
	<path style="fill:none;stroke:red;stroke-width:1px;stroke-linecap:butt;stroke-linejoin:miter;stroke-opacity:1" d="M 853.327,101.354 865.076,114.782 z" id="boundary" inkscape:connector-curvature="0" />
	<path style="fill:none;stroke:red;stroke-width:1px;stroke-linecap:butt;stroke-linejoin:miter;stroke-opacity:1" d="M 855.005,432.02 871.79,438.734 z" id="boundary" inkscape:connector-curvature="0" />
	<path style="fill:none;stroke:red;stroke-width:1px;stroke-linecap:butt;stroke-linejoin:miter;stroke-opacity:1" d="M 865.076,114.782 878.504,126.531 z" id="boundary" inkscape:connector-curvature="0" />
	<path style="fill:none;stroke:red;stroke-width:1px;stroke-linecap:butt;stroke-linejoin:miter;stroke-opacity:1" d="M 871.79,438.734 888.575,442.091 z" id="boundary" inkscape:connector-curvature="0" />
	<path style="fill:none;stroke:red;stroke-width:1px;stroke-linecap:butt;stroke-linejoin:miter;stroke-opacity:1" d="M 878.504,126.531 891.932,138.281 z" id="boundary" inkscape:connector-curvature="0" />
	<path style="fill:none;stroke:red;stroke-width:1px;stroke-linecap:butt;stroke-linejoin:miter;stroke-opacity:1" d="M 888.575,442.091 905.36,442.091 z" id="boundary" inkscape:connector-curvature="0" />
	<path style="fill:none;stroke:red;stroke-width:1px;stroke-linecap:butt;stroke-linejoin:miter;stroke-opacity:1" d="M 891.932,138.281 908.717,138.281 z" id="boundary" inkscape:connector-curvature="0" />
	<path style="fill:none;stroke:red;stroke-width:1px;stroke-linecap:butt;stroke-linejoin:miter;stroke-opacity:1" d="M 905.36,442.091 922.146,442.091 z" id="boundary" inkscape:connector-curvature="0" />
	<path style="fill:none;stroke:red;stroke-width:1px;stroke-linecap:butt;stroke-linejoin:miter;stroke-opacity:1" d="M 908.717,138.281 925.503,138.281 z" id="boundary" inkscape:connector-curvature="0" />
	<path style="fill:none;stroke:red;stroke-width:1px;stroke-linecap:butt;stroke-linejoin:miter;stroke-opacity:1" d="M 922.146,442.091 937.252,433.699 z" id="boundary" inkscape:connector-curvature="0" />
	<path style="fill:none;stroke:red;stroke-width:1px;stroke-linecap:butt;stroke-linejoin:miter;stroke-opacity:1" d="M 925.503,138.281 942.288,139.959 z" id="boundary" inkscape:connector-curvature="0" />
	<path style="fill:none;stroke:red;stroke-width:1px;stroke-linecap:butt;stroke-linejoin:miter;stroke-opacity:1" d="M 937.252,433.699 954.037,416.914 z" id="boundary" inkscape:connector-curvature="0" />
	<path style="fill:none;stroke:red;stroke-width:1px;stroke-linecap:butt;stroke-linejoin:miter;stroke-opacity:1" d="M 942.288,139.959 957.394,148.352 z" id="boundary" inkscape:connector-curvature="0" />
	<path style="fill:none;stroke:red;stroke-width:1px;stroke-linecap:butt;stroke-linejoin:miter;stroke-opacity:1" d="M 954.037,416.914 970.822,400.129 z" id="boundary" inkscape:connector-curvature="0" />
	<path style="fill:none;stroke:red;stroke-width:1px;stroke-linecap:butt;stroke-linejoin:miter;stroke-opacity:1" d="M 957.394,148.352 962.43,165.137 z" id="boundary" inkscape:connector-curvature="0" />
	<path style="fill:none;stroke:red;stroke-width:1px;stroke-linecap:butt;stroke-linejoin:miter;stroke-opacity:1" d="M 962.43,165.137 962.43,181.922 z" id="boundary" inkscape:connector-curvature="0" />
	<path style="fill:none;stroke:red;stroke-width:1px;stroke-linecap:butt;stroke-linejoin:miter;stroke-opacity:1" d="M 962.43,181.922 962.43,198.707 z" id="boundary" inkscape:connector-curvature="0" />
	<path style="fill:none;stroke:red;stroke-width:1px;stroke-linecap:butt;stroke-linejoin:miter;stroke-opacity:1" d="M 962.43,198.707 962.43,215.492 z" id="boundary" inkscape:connector-curvature="0" />
	<path style="fill:none;stroke:red;stroke-width:1px;stroke-linecap:butt;stroke-linejoin:miter;stroke-opacity:1" d="M 962.43,215.492 962.43,240.67 z" id="boundary" inkscape:connector-curvature="0" />
	<path style="fill:none;stroke:red;stroke-width:1px;stroke-linecap:butt;stroke-linejoin:miter;stroke-opacity:1" d="M 962.43,240.67 970.822,255.777 z" id="boundary" inkscape:connector-curvature="0" />
	<path style="fill:none;stroke:red;stroke-width:1px;stroke-linecap:butt;stroke-linejoin:miter;stroke-opacity:1" d="M 970.822,255.777 987.607,260.812 z" id="boundary" inkscape:connector-curvature="0" />
	<path style="fill:none;stroke:red;stroke-width:1px;stroke-linecap:butt;stroke-linejoin:miter;stroke-opacity:1" d="M 970.822,400.129 984.25,388.379 z" id="boundary" inkscape:connector-curvature="0" />
	<path style="fill:none;stroke:red;stroke-width:1px;stroke-linecap:butt;stroke-linejoin:miter;stroke-opacity:1" d="M 984.25,388.379 987.607,358.166 z" id="boundary" inkscape:connector-curvature="0" />
	<path style="fill:none;stroke:red;stroke-width:1px;stroke-linecap:butt;stroke-linejoin:miter;stroke-opacity:1" d="M 987.607,260.812 994.321,277.597 z" id="boundary" inkscape:connector-curvature="0" />
	<path style="fill:none;stroke:red;stroke-width:1px;stroke-linecap:butt;stroke-linejoin:miter;stroke-opacity:1" d="M 987.607,358.166 996,327.953 z" id="boundary" inkscape:connector-curvature="0" />
	<path style="fill:none;stroke:red;stroke-width:1px;stroke-linecap:butt;stroke-linejoin:miter;stroke-opacity:1" d="M 994.321,277.597 996,294.382 z" id="boundary" inkscape:connector-curvature="0" />
	<path style="fill:none;stroke:red;stroke-width:1px;stroke-linecap:butt;stroke-linejoin:miter;stroke-opacity:1" d="M 996,294.382 996,311.168 z" id="boundary" inkscape:connector-curvature="0" />
	<path style="fill:none;stroke:red;stroke-width:1px;stroke-linecap:butt;stroke-linejoin:miter;stroke-opacity:1" d="M 996,311.168 996,327.953 z" id="boundary" inkscape:connector-curvature="0" />
	<circle cx="4" cy="134.924" r="4" fill="#0" id="circle0"/>
	<circle cx="4" cy="151.709" r="4" fill="#0" id="circle1"/>
	<circle cx="12.3926" cy="118.139" r="4" fill="#0" id="circle2"/>
	<circle cx="17.4281" cy="163.459" r="4" fill="#0" id="circle3"/>
	<circle cx="20.7851" cy="101.354" r="4" fill="#0" id="circle4"/>
	<circle cx="34.2132" cy="87.9255" r="4" fill="#0" id="circle5"/>
	<circle cx="34.2132" cy="156.745" r="4" fill="#0" id="circle6"/>
	<circle cx="42.6058" cy="71.1404" r="4" fill="#0" id="circle7"/>
	<circle cx="49.3198" cy="148.352" r="4" fill="#0" id="circle8"/>
	<circle cx="50.9983" cy="54.3553" r="4" fill="#0" id="circle9"/>
	<circle cx="62.7479" cy="134.924" r="4" fill="#0" id="circle10"/>
	<circle cx="67.7834" cy="45.9628" r="4" fill="#0" id="circle11"/>
	<circle cx="79.533" cy="139.959" r="4" fill="#0" id="circle12"/>
	<circle cx="84.5685" cy="45.9628" r="4" fill="#0" id="circle13"/>
	<circle cx="87.9255" cy="155.066" r="4" fill="#0" id="circle14"/>
	<circle cx="96.3181" cy="170.173" r="4" fill="#0" id="circle15"/>
	<circle cx="99.6751" cy="54.3553" r="4" fill="#0" id="circle16"/>
	<circle cx="109.746" cy="181.922" r="4" fill="#0" id="circle17"/>
	<circle cx="113.103" cy="327.953" r="4" fill="#0" id="circle18"/>
	<circle cx="113.103" cy="344.738" r="4" fill="#0" id="circle19"/>
	<circle cx="113.103" cy="361.523" r="4" fill="#0" id="circle20"/>
	<circle cx="114.782" cy="62.7479" r="4" fill="#0" id="circle21"/>
	<circle cx="121.496" cy="311.168" r="4" fill="#0" id="circle22"/>
	<circle cx="121.496" cy="376.629" r="4" fill="#0" id="circle23"/>
	<circle cx="123.174" cy="193.672" r="4" fill="#0" id="circle24"/>
	<circle cx="129.888" cy="210.457" r="4" fill="#0" id="circle25"/>
	<circle cx="129.888" cy="227.242" r="4" fill="#0" id="circle26"/>
	<circle cx="129.888" cy="244.027" r="4" fill="#0" id="circle27"/>
	<circle cx="129.888" cy="260.812" r="4" fill="#0" id="circle28"/>
	<circle cx="129.888" cy="277.597" r="4" fill="#0" id="circle29"/>
	<circle cx="129.888" cy="294.382" r="4" fill="#0" id="circle30"/>
	<circle cx="131.567" cy="67.7834" r="4" fill="#0" id="circle31"/>
	<circle cx="138.281" cy="84.5685" r="4" fill="#0" id="circle32"/>
	<circle cx="138.281" cy="378.308" r="4" fill="#0" id="circle33"/>
	<circle cx="148.352" cy="316.203" r="4" fill="#0" id="circle34"/>
	<circle cx="148.352" cy="332.988" r="4" fill="#0" id="circle35"/>
	<circle cx="148.352" cy="349.773" r="4" fill="#0" id="circle36"/>
	<circle cx="151.709" cy="96.3181" r="4" fill="#0" id="circle37"/>
	<circle cx="161.78" cy="304.453" r="4" fill="#0" id="circle38"/>
	<circle cx="166.816" cy="104.711" r="4" fill="#0" id="circle39"/>
	<circle cx="170.173" cy="287.668" r="4" fill="#0" id="circle40"/>
	<circle cx="173.53" cy="121.496" r="4" fill="#0" id="circle41"/>
	<circle cx="178.565" cy="270.883" r="4" fill="#0" id="circle42"/>
	<circle cx="188.636" cy="257.455" r="4" fill="#0" id="circle43"/>
	<circle cx="190.315" cy="126.531" r="4" fill="#0" id="circle44"/>
	<circle cx="205.421" cy="252.42" r="4" fill="#0" id="circle45"/>
	<circle cx="207.1" cy="129.888" r="4" fill="#0" id="circle46"/>
	<circle cx="222.206" cy="249.063" r="4" fill="#0" id="circle47"/>
	<circle cx="223.885" cy="129.888" r="4" fill="#0" id="circle48"/>
	<circle cx="238.992" cy="249.063" r="4" fill="#0" id="circle49"/>
	<circle cx="240.67" cy="129.888" r="4" fill="#0" id="circle50"/>
	<circle cx="255.777" cy="249.063" r="4" fill="#0" id="circle51"/>
	<circle cx="257.455" cy="129.888" r="4" fill="#0" id="circle52"/>
	<circle cx="272.562" cy="249.063" r="4" fill="#0" id="circle53"/>
	<circle cx="274.24" cy="129.888" r="4" fill="#0" id="circle54"/>
	<circle cx="289.347" cy="249.063" r="4" fill="#0" id="circle55"/>
	<circle cx="291.025" cy="129.888" r="4" fill="#0" id="circle56"/>
	<circle cx="304.453" cy="257.455" r="4" fill="#0" id="circle57"/>
	<circle cx="306.132" cy="274.24" r="4" fill="#0" id="circle58"/>
	<circle cx="306.132" cy="291.025" r="4" fill="#0" id="circle59"/>
	<circle cx="307.81" cy="134.924" r="4" fill="#0" id="circle60"/>
	<circle cx="314.525" cy="306.132" r="4" fill="#0" id="circle61"/>
	<circle cx="314.525" cy="322.917" r="4" fill="#0" id="circle62"/>
	<circle cx="314.525" cy="339.702" r="4" fill="#0" id="circle63"/>
	<circle cx="314.525" cy="356.487" r="4" fill="#0" id="circle64"/>
	<circle cx="324.596" cy="138.281" r="4" fill="#0" id="circle65"/>
	<circle cx="324.596" cy="369.915" r="4" fill="#0" id="circle66"/>
	<circle cx="341.381" cy="138.281" r="4" fill="#0" id="circle67"/>
	<circle cx="341.381" cy="374.951" r="4" fill="#0" id="circle68"/>
	<circle cx="358.166" cy="138.281" r="4" fill="#0" id="circle69"/>
	<circle cx="358.166" cy="366.558" r="4" fill="#0" id="circle70"/>
	<circle cx="366.558" cy="274.24" r="4" fill="#0" id="circle71"/>
	<circle cx="366.558" cy="291.025" r="4" fill="#0" id="circle72"/>
	<circle cx="366.558" cy="307.81" r="4" fill="#0" id="circle73"/>
	<circle cx="366.558" cy="324.596" r="4" fill="#0" id="circle74"/>
	<circle cx="366.558" cy="341.381" r="4" fill="#0" id="circle75"/>
	<circle cx="374.951" cy="143.316" r="4" fill="#0" id="circle76"/>
	<circle cx="383.343" cy="274.24" r="4" fill="#0" id="circle77"/>
	<circle cx="390.058" cy="151.709" r="4" fill="#0" id="circle78"/>
	<circle cx="398.45" cy="166.816" r="4" fill="#0" id="circle79"/>
	<circle cx="400.129" cy="183.601" r="4" fill="#0" id="circle80"/>
	<circle cx="400.129" cy="200.386" r="4" fill="#0" id="circle81"/>
	<circle cx="400.129" cy="274.24" r="4" fill="#0" id="circle82"/>
	<circle cx="416.914" cy="205.421" r="4" fill="#0" id="circle83"/>
	<circle cx="416.914" cy="274.24" r="4" fill="#0" id="circle84"/>
	<circle cx="432.02" cy="282.633" r="4" fill="#0" id="circle85"/>
	<circle cx="432.02" cy="299.418" r="4" fill="#0" id="circle86"/>
	<circle cx="432.02" cy="316.203" r="4" fill="#0" id="circle87"/>
	<circle cx="432.02" cy="332.988" r="4" fill="#0" id="circle88"/>
	<circle cx="432.02" cy="349.773" r="4" fill="#0" id="circle89"/>
	<circle cx="432.02" cy="366.558" r="4" fill="#0" id="circle90"/>
	<circle cx="433.699" cy="205.421" r="4" fill="#0" id="circle91"/>
	<circle cx="447.127" cy="374.951" r="4" fill="#0" id="circle92"/>
	<circle cx="448.805" cy="193.672" r="4" fill="#0" id="circle93"/>
	<circle cx="462.234" cy="383.343" r="4" fill="#0" id="circle94"/>
	<circle cx="465.591" cy="143.316" r="4" fill="#0" id="circle95"/>
	<circle cx="465.591" cy="160.102" r="4" fill="#0" id="circle96"/>
	<circle cx="465.591" cy="176.887" r="4" fill="#0" id="circle97"/>
	<circle cx="470.626" cy="398.45" r="4" fill="#0" id="circle98"/>
	<circle cx="473.983" cy="126.531" r="4" fill="#0" id="circle99"/>
	<circle cx="485.733" cy="406.843" r="4" fill="#0" id="circle100"/>
	<circle cx="490.768" cy="118.139" r="4" fill="#0" id="circle101"/>
	<circle cx="502.518" cy="413.557" r="4" fill="#0" id="circle102"/>
	<circle cx="507.553" cy="101.354" r="4" fill="#0" id="circle103"/>
	<circle cx="519.303" cy="416.914" r="4" fill="#0" id="circle104"/>
	<circle cx="524.338" cy="96.3181" r="4" fill="#0" id="circle105"/>
	<circle cx="532.731" cy="42.6058" r="4" fill="#0" id="circle106"/>
	<circle cx="536.088" cy="416.914" r="4" fill="#0" id="circle107"/>
	<circle cx="539.445" cy="87.9255" r="4" fill="#0" id="circle108"/>
	<circle cx="541.124" cy="57.7124" r="4" fill="#0" id="circle109"/>
	<circle cx="546.159" cy="29.1777" r="4" fill="#0" id="circle110"/>
	<circle cx="549.516" cy="72.819" r="4" fill="#0" id="circle111"/>
	<circle cx="552.873" cy="416.914" r="4" fill="#0" id="circle112"/>
	<circle cx="554.552" cy="12.3926" r="4" fill="#0" id="circle113"/>
	<circle cx="567.98" cy="408.521" r="4" fill="#0" id="circle114"/>
	<circle cx="571.337" cy="4" r="4" fill="#0" id="circle115"/>
	<circle cx="584.765" cy="400.129" r="4" fill="#0" id="circle116"/>
	<circle cx="586.443" cy="12.3926" r="4" fill="#0" id="circle117"/>
	<circle cx="593.157" cy="240.67" r="4" fill="#0" id="circle118"/>
	<circle cx="593.157" cy="257.455" r="4" fill="#0" id="circle119"/>
	<circle cx="593.157" cy="374.951" r="4" fill="#0" id="circle120"/>
	<circle cx="599.871" cy="24.1421" r="4" fill="#0" id="circle121"/>
	<circle cx="601.55" cy="40.9272" r="4" fill="#0" id="circle122"/>
	<circle cx="601.55" cy="272.562" r="4" fill="#0" id="circle123"/>
	<circle cx="601.55" cy="349.773" r="4" fill="#0" id="circle124"/>
	<circle cx="606.585" cy="57.7124" r="4" fill="#0" id="circle125"/>
	<circle cx="609.942" cy="232.277" r="4" fill="#0" id="circle126"/>
	<circle cx="609.942" cy="287.668" r="4" fill="#0" id="circle127"/>
	<circle cx="609.942" cy="304.453" r="4" fill="#0" id="circle128"/>
	<circle cx="609.942" cy="321.239" r="4" fill="#0" id="circle129"/>
	<circle cx="618.335" cy="71.1404" r="4" fill="#0" id="circle130"/>
	<circle cx="618.335" cy="87.9255" r="4" fill="#0" id="circle131"/>
	<circle cx="618.335" cy="123.174" r="4" fill="#0" id="circle132"/>
	<circle cx="625.049" cy="240.67" r="4" fill="#0" id="circle133"/>
	<circle cx="626.728" cy="103.032" r="4" fill="#0" id="circle134"/>
	<circle cx="626.728" cy="138.281" r="4" fill="#0" id="circle135"/>
	<circle cx="626.728" cy="155.066" r="4" fill="#0" id="circle136"/>
	<circle cx="626.728" cy="171.851" r="4" fill="#0" id="circle137"/>
	<circle cx="640.156" cy="249.063" r="4" fill="#0" id="circle138"/>
	<circle cx="641.834" cy="180.244" r="4" fill="#0" id="circle139"/>
	<circle cx="646.87" cy="265.848" r="4" fill="#0" id="circle140"/>
	<circle cx="655.262" cy="280.954" r="4" fill="#0" id="circle141"/>
	<circle cx="658.619" cy="180.244" r="4" fill="#0" id="circle142"/>
	<circle cx="658.619" cy="297.739" r="4" fill="#0" id="circle143"/>
	<circle cx="658.619" cy="314.525" r="4" fill="#0" id="circle144"/>
	<circle cx="672.047" cy="324.596" r="4" fill="#0" id="circle145"/>
	<circle cx="675.404" cy="176.887" r="4" fill="#0" id="circle146"/>
	<circle cx="680.44" cy="339.702" r="4" fill="#0" id="circle147"/>
	<circle cx="692.19" cy="160.102" r="4" fill="#0" id="circle148"/>
	<circle cx="693.868" cy="349.773" r="4" fill="#0" id="circle149"/>
	<circle cx="700.582" cy="143.316" r="4" fill="#0" id="circle150"/>
	<circle cx="710.653" cy="349.773" r="4" fill="#0" id="circle151"/>
	<circle cx="714.01" cy="129.888" r="4" fill="#0" id="circle152"/>
	<circle cx="727.438" cy="341.381" r="4" fill="#0" id="circle153"/>
	<circle cx="729.117" cy="121.496" r="4" fill="#0" id="circle154"/>
	<circle cx="744.223" cy="341.381" r="4" fill="#0" id="circle155"/>
	<circle cx="745.902" cy="121.496" r="4" fill="#0" id="circle156"/>
	<circle cx="759.33" cy="92.9611" r="4" fill="#0" id="circle157"/>
	<circle cx="759.33" cy="109.746" r="4" fill="#0" id="circle158"/>
	<circle cx="761.008" cy="344.738" r="4" fill="#0" id="circle159"/>
	<circle cx="767.723" cy="76.176" r="4" fill="#0" id="circle160"/>
	<circle cx="772.758" cy="358.166" r="4" fill="#0" id="circle161"/>
	<circle cx="776.115" cy="59.3909" r="4" fill="#0" id="circle162"/>
	<circle cx="784.508" cy="371.594" r="4" fill="#0" id="circle163"/>
	<circle cx="786.186" cy="388.379" r="4" fill="#0" id="circle164"/>
	<circle cx="789.543" cy="45.9628" r="4" fill="#0" id="circle165"/>
	<circle cx="794.579" cy="403.486" r="4" fill="#0" id="circle166"/>
	<circle cx="802.971" cy="32.5347" r="4" fill="#0" id="circle167"/>
	<circle cx="806.328" cy="416.914" r="4" fill="#0" id="circle168"/>
	<circle cx="818.078" cy="40.9272" r="4" fill="#0" id="circle169"/>
	<circle cx="823.113" cy="416.914" r="4" fill="#0" id="circle170"/>
	<circle cx="824.792" cy="57.7124" r="4" fill="#0" id="circle171"/>
	<circle cx="836.541" cy="71.1404" r="4" fill="#0" id="circle172"/>
	<circle cx="839.898" cy="423.628" r="4" fill="#0" id="circle173"/>
	<circle cx="844.934" cy="86.247" r="4" fill="#0" id="circle174"/>
	<circle cx="853.327" cy="101.354" r="4" fill="#0" id="circle175"/>
	<circle cx="855.005" cy="432.02" r="4" fill="#0" id="circle176"/>
	<circle cx="865.076" cy="114.782" r="4" fill="#0" id="circle177"/>
	<circle cx="871.79" cy="438.734" r="4" fill="#0" id="circle178"/>
	<circle cx="878.504" cy="126.531" r="4" fill="#0" id="circle179"/>
	<circle cx="888.575" cy="442.091" r="4" fill="#0" id="circle180"/>
	<circle cx="891.932" cy="138.281" r="4" fill="#0" id="circle181"/>
	<circle cx="905.36" cy="442.091" r="4" fill="#0" id="circle182"/>
	<circle cx="908.717" cy="138.281" r="4" fill="#0" id="circle183"/>
	<circle cx="922.146" cy="442.091" r="4" fill="#0" id="circle184"/>
	<circle cx="925.503" cy="138.281" r="4" fill="#0" id="circle185"/>
	<circle cx="937.252" cy="433.699" r="4" fill="#0" id="circle186"/>
	<circle cx="942.288" cy="139.959" r="4" fill="#0" id="circle187"/>
	<circle cx="954.037" cy="416.914" r="4" fill="#0" id="circle188"/>
	<circle cx="957.394" cy="148.352" r="4" fill="#0" id="circle189"/>
	<circle cx="962.43" cy="165.137" r="4" fill="#0" id="circle190"/>
	<circle cx="962.43" cy="181.922" r="4" fill="#0" id="circle191"/>
	<circle cx="962.43" cy="198.707" r="4" fill="#0" id="circle192"/>
	<circle cx="962.43" cy="215.492" r="4" fill="#0" id="circle193"/>
	<circle cx="962.43" cy="240.67" r="4" fill="#0" id="circle194"/>
	<circle cx="970.822" cy="255.777" r="4" fill="#0" id="circle195"/>
	<circle cx="970.822" cy="400.129" r="4" fill="#0" id="circle196"/>
	<circle cx="984.25" cy="388.379" r="4" fill="#0" id="circle197"/>
	<circle cx="987.607" cy="260.812" r="4" fill="#0" id="circle198"/>
	<circle cx="987.607" cy="358.166" r="4" fill="#0" id="circle199"/>
	<circle cx="994.321" cy="277.597" r="4" fill="#0" id="circle200"/>
	<circle cx="996" cy="294.382" r="4" fill="#0" id="circle201"/>
	<circle cx="996" cy="311.168" r="4" fill="#0" id="circle202"/>
	<circle cx="996" cy="327.953" r="4" fill="#0" id="circle203"/>
	</g>
</svg>