<?xml version="1.0" encoding="UTF-8" standalone="no"?>
<!-- Created with CurveBenchmark -->
<svg
	xmlns:dc="http://purl.org/dc/elements/1.1/"
	xmlns:cc="http://creativecommons.org/ns#"
	xmlns:rdf="http://www.w3.org/1999/02/22-rdf-syntax-ns#"
	xmlns:svg="http://www.w3.org/2000/svg"
	xmlns="http://www.w3.org/2000/svg"
	xmlns:sodipodi="http://sodipodi.sourceforge.net/DTD/sodipodi-0.dtd"
	xmlns:inkscape="http://www.inkscape.org/namespaces/inkscape"
	width="1000"
	height="1000"
	id="svg2"
	version="1.1"
	sodipodi:docname="manifold/nncrust-hammer34.png.txt">
<defs
	id="defs4" />
<metadata
	id="metadata7">
	<rdf:RDF>
		<cc:Work
			rdf:about="">
			<dc:format>image/svg+xml</dc:format>
			<dc:type
				rdf:resource="http://purl.org/dc/dcmitype/StillImage" />
			<dc:title></dc:title>
		</cc:Work>
	</rdf:RDF>
</metadata>
<g
	inkscape:label="Layer 1"
	inkscape:groupmode="layer"
	id="layer1">
	<path style="fill:none;stroke:red;stroke-width:1px;stroke-linecap:butt;stroke-linejoin:miter;stroke-opacity:1" d="M 24.5383,40.9689 24.5383,20.4306 z" id="boundary" inkscape:connector-curvature="0" />
	<path style="fill:none;stroke:red;stroke-width:1px;stroke-linecap:butt;stroke-linejoin:miter;stroke-opacity:1" d="M 24.5383,20.4306 45.0766,10.1615 z" id="boundary" inkscape:connector-curvature="0" />
	<path style="fill:none;stroke:red;stroke-width:1px;stroke-linecap:butt;stroke-linejoin:miter;stroke-opacity:1" d="M 45.0766,10.1615 65.6149,4 z" id="boundary" inkscape:connector-curvature="0" />
	<path style="fill:none;stroke:red;stroke-width:1px;stroke-linecap:butt;stroke-linejoin:miter;stroke-opacity:1" d="M 86.1532,4 104.638,14.2692 z" id="boundary" inkscape:connector-curvature="0" />
	<path style="fill:none;stroke:red;stroke-width:1px;stroke-linecap:butt;stroke-linejoin:miter;stroke-opacity:1" d="M 65.6149,4 86.1532,4 z" id="boundary" inkscape:connector-curvature="0" />
	<path style="fill:none;stroke:red;stroke-width:1px;stroke-linecap:butt;stroke-linejoin:miter;stroke-opacity:1" d="M 125.176,16.323 104.638,14.2692 z" id="boundary" inkscape:connector-curvature="0" />
	<path style="fill:none;stroke:red;stroke-width:1px;stroke-linecap:butt;stroke-linejoin:miter;stroke-opacity:1" d="M 145.714,24.5383 125.176,16.323 z" id="boundary" inkscape:connector-curvature="0" />
	<path style="fill:none;stroke:red;stroke-width:1px;stroke-linecap:butt;stroke-linejoin:miter;stroke-opacity:1" d="M 14.2692,92.3147 24.5383,110.799 z" id="boundary" inkscape:connector-curvature="0" />
	<path style="fill:none;stroke:red;stroke-width:1px;stroke-linecap:butt;stroke-linejoin:miter;stroke-opacity:1" d="M 24.5383,110.799 14.2692,133.391 z" id="boundary" inkscape:connector-curvature="0" />
	<path style="fill:none;stroke:red;stroke-width:1px;stroke-linecap:butt;stroke-linejoin:miter;stroke-opacity:1" d="M 4,184.737 4,164.199 z" id="boundary" inkscape:connector-curvature="0" />
	<path style="fill:none;stroke:red;stroke-width:1px;stroke-linecap:butt;stroke-linejoin:miter;stroke-opacity:1" d="M 4,164.199 14.2692,133.391 z" id="boundary" inkscape:connector-curvature="0" />
	<path style="fill:none;stroke:red;stroke-width:1px;stroke-linecap:butt;stroke-linejoin:miter;stroke-opacity:1" d="M 24.5383,40.9689 24.5383,61.5072 z" id="boundary" inkscape:connector-curvature="0" />
	<path style="fill:none;stroke:red;stroke-width:1px;stroke-linecap:butt;stroke-linejoin:miter;stroke-opacity:1" d="M 24.5383,61.5072 14.2692,92.3147 z" id="boundary" inkscape:connector-curvature="0" />
	<path style="fill:none;stroke:red;stroke-width:1px;stroke-linecap:butt;stroke-linejoin:miter;stroke-opacity:1" d="M 170.36,55.3458 164.199,34.8075 z" id="boundary" inkscape:connector-curvature="0" />
	<path style="fill:none;stroke:red;stroke-width:1px;stroke-linecap:butt;stroke-linejoin:miter;stroke-opacity:1" d="M 180.629,73.8302 170.36,55.3458 z" id="boundary" inkscape:connector-curvature="0" />
	<path style="fill:none;stroke:red;stroke-width:1px;stroke-linecap:butt;stroke-linejoin:miter;stroke-opacity:1" d="M 145.714,24.5383 164.199,34.8075 z" id="boundary" inkscape:connector-curvature="0" />
	<path style="fill:none;stroke:red;stroke-width:1px;stroke-linecap:butt;stroke-linejoin:miter;stroke-opacity:1" d="M 180.629,147.768 170.36,129.284 z" id="boundary" inkscape:connector-curvature="0" />
	<path style="fill:none;stroke:red;stroke-width:1px;stroke-linecap:butt;stroke-linejoin:miter;stroke-opacity:1" d="M 201.168,153.93 180.629,147.768 z" id="boundary" inkscape:connector-curvature="0" />
	<path style="fill:none;stroke:red;stroke-width:1px;stroke-linecap:butt;stroke-linejoin:miter;stroke-opacity:1" d="M 180.629,73.8302 170.36,108.745 z" id="boundary" inkscape:connector-curvature="0" />
	<path style="fill:none;stroke:red;stroke-width:1px;stroke-linecap:butt;stroke-linejoin:miter;stroke-opacity:1" d="M 170.36,129.284 170.36,108.745 z" id="boundary" inkscape:connector-curvature="0" />
	<path style="fill:none;stroke:red;stroke-width:1px;stroke-linecap:butt;stroke-linejoin:miter;stroke-opacity:1" d="M 344.936,147.768 324.398,147.768 z" id="boundary" inkscape:connector-curvature="0" />
	<path style="fill:none;stroke:red;stroke-width:1px;stroke-linecap:butt;stroke-linejoin:miter;stroke-opacity:1" d="M 324.398,147.768 303.859,153.93 z" id="boundary" inkscape:connector-curvature="0" />
	<path style="fill:none;stroke:red;stroke-width:1px;stroke-linecap:butt;stroke-linejoin:miter;stroke-opacity:1" d="M 383.959,137.499 404.497,137.499 z" id="boundary" inkscape:connector-curvature="0" />
	<path style="fill:none;stroke:red;stroke-width:1px;stroke-linecap:butt;stroke-linejoin:miter;stroke-opacity:1" d="M 365.474,147.768 383.959,137.499 z" id="boundary" inkscape:connector-curvature="0" />
	<path style="fill:none;stroke:red;stroke-width:1px;stroke-linecap:butt;stroke-linejoin:miter;stroke-opacity:1" d="M 221.706,158.037 201.168,153.93 z" id="boundary" inkscape:connector-curvature="0" />
	<path style="fill:none;stroke:red;stroke-width:1px;stroke-linecap:butt;stroke-linejoin:miter;stroke-opacity:1" d="M 221.706,158.037 242.244,158.037 z" id="boundary" inkscape:connector-curvature="0" />
	<path style="fill:none;stroke:red;stroke-width:1px;stroke-linecap:butt;stroke-linejoin:miter;stroke-opacity:1" d="M 262.783,158.037 242.244,158.037 z" id="boundary" inkscape:connector-curvature="0" />
	<path style="fill:none;stroke:red;stroke-width:1px;stroke-linecap:butt;stroke-linejoin:miter;stroke-opacity:1" d="M 365.474,147.768 344.936,147.768 z" id="boundary" inkscape:connector-curvature="0" />
	<path style="fill:none;stroke:red;stroke-width:1px;stroke-linecap:butt;stroke-linejoin:miter;stroke-opacity:1" d="M 283.321,158.037 303.859,153.93 z" id="boundary" inkscape:connector-curvature="0" />
	<path style="fill:none;stroke:red;stroke-width:1px;stroke-linecap:butt;stroke-linejoin:miter;stroke-opacity:1" d="M 283.321,158.037 262.783,158.037 z" id="boundary" inkscape:connector-curvature="0" />
	<path style="fill:none;stroke:red;stroke-width:1px;stroke-linecap:butt;stroke-linejoin:miter;stroke-opacity:1" d="M 14.2692,223.76 4,205.275 z" id="boundary" inkscape:connector-curvature="0" />
	<path style="fill:none;stroke:red;stroke-width:1px;stroke-linecap:butt;stroke-linejoin:miter;stroke-opacity:1" d="M 4,205.275 4,184.737 z" id="boundary" inkscape:connector-curvature="0" />
	<path style="fill:none;stroke:red;stroke-width:1px;stroke-linecap:butt;stroke-linejoin:miter;stroke-opacity:1" d="M 24.5383,242.244 14.2692,223.76 z" id="boundary" inkscape:connector-curvature="0" />
	<path style="fill:none;stroke:red;stroke-width:1px;stroke-linecap:butt;stroke-linejoin:miter;stroke-opacity:1" d="M 24.5383,242.244 24.5383,277.159 z" id="boundary" inkscape:connector-curvature="0" />
	<path style="fill:none;stroke:red;stroke-width:1px;stroke-linecap:butt;stroke-linejoin:miter;stroke-opacity:1" d="M 149.822,283.321 139.553,314.128 z" id="boundary" inkscape:connector-curvature="0" />
	<path style="fill:none;stroke:red;stroke-width:1px;stroke-linecap:butt;stroke-linejoin:miter;stroke-opacity:1" d="M 24.5383,297.698 24.5383,277.159 z" id="boundary" inkscape:connector-curvature="0" />
	<path style="fill:none;stroke:red;stroke-width:1px;stroke-linecap:butt;stroke-linejoin:miter;stroke-opacity:1" d="M 24.5383,297.698 24.5383,318.236 z" id="boundary" inkscape:connector-curvature="0" />
	<path style="fill:none;stroke:red;stroke-width:1px;stroke-linecap:butt;stroke-linejoin:miter;stroke-opacity:1" d="M 34.8075,336.72 24.5383,318.236 z" id="boundary" inkscape:connector-curvature="0" />
	<path style="fill:none;stroke:red;stroke-width:1px;stroke-linecap:butt;stroke-linejoin:miter;stroke-opacity:1" d="M 49.1843,353.151 69.7226,355.205 z" id="boundary" inkscape:connector-curvature="0" />
	<path style="fill:none;stroke:red;stroke-width:1px;stroke-linecap:butt;stroke-linejoin:miter;stroke-opacity:1" d="M 69.7226,355.205 88.207,365.474 z" id="boundary" inkscape:connector-curvature="0" />
	<path style="fill:none;stroke:red;stroke-width:1px;stroke-linecap:butt;stroke-linejoin:miter;stroke-opacity:1" d="M 49.1843,353.151 34.8075,336.72 z" id="boundary" inkscape:connector-curvature="0" />
	<path style="fill:none;stroke:red;stroke-width:1px;stroke-linecap:butt;stroke-linejoin:miter;stroke-opacity:1" d="M 129.284,355.205 139.553,334.667 z" id="boundary" inkscape:connector-curvature="0" />
	<path style="fill:none;stroke:red;stroke-width:1px;stroke-linecap:butt;stroke-linejoin:miter;stroke-opacity:1" d="M 129.284,355.205 108.745,365.474 z" id="boundary" inkscape:connector-curvature="0" />
	<path style="fill:none;stroke:red;stroke-width:1px;stroke-linecap:butt;stroke-linejoin:miter;stroke-opacity:1" d="M 108.745,365.474 88.207,365.474 z" id="boundary" inkscape:connector-curvature="0" />
	<path style="fill:none;stroke:red;stroke-width:1px;stroke-linecap:butt;stroke-linejoin:miter;stroke-opacity:1" d="M 139.553,314.128 139.553,334.667 z" id="boundary" inkscape:connector-curvature="0" />
	<path style="fill:none;stroke:red;stroke-width:1px;stroke-linecap:butt;stroke-linejoin:miter;stroke-opacity:1" d="M 149.822,283.321 149.822,262.783 z" id="boundary" inkscape:connector-curvature="0" />
	<path style="fill:none;stroke:red;stroke-width:1px;stroke-linecap:butt;stroke-linejoin:miter;stroke-opacity:1" d="M 149.822,262.783 168.306,252.513 z" id="boundary" inkscape:connector-curvature="0" />
	<path style="fill:none;stroke:red;stroke-width:1px;stroke-linecap:butt;stroke-linejoin:miter;stroke-opacity:1" d="M 168.306,252.513 188.845,252.513 z" id="boundary" inkscape:connector-curvature="0" />
	<path style="fill:none;stroke:red;stroke-width:1px;stroke-linecap:butt;stroke-linejoin:miter;stroke-opacity:1" d="M 227.867,262.783 207.329,262.783 z" id="boundary" inkscape:connector-curvature="0" />
	<path style="fill:none;stroke:red;stroke-width:1px;stroke-linecap:butt;stroke-linejoin:miter;stroke-opacity:1" d="M 207.329,262.783 188.845,252.513 z" id="boundary" inkscape:connector-curvature="0" />
	<path style="fill:none;stroke:red;stroke-width:1px;stroke-linecap:butt;stroke-linejoin:miter;stroke-opacity:1" d="M 248.406,262.783 266.89,273.052 z" id="boundary" inkscape:connector-curvature="0" />
	<path style="fill:none;stroke:red;stroke-width:1px;stroke-linecap:butt;stroke-linejoin:miter;stroke-opacity:1" d="M 227.867,262.783 248.406,262.783 z" id="boundary" inkscape:connector-curvature="0" />
	<path style="fill:none;stroke:red;stroke-width:1px;stroke-linecap:butt;stroke-linejoin:miter;stroke-opacity:1" d="M 287.429,273.052 266.89,273.052 z" id="boundary" inkscape:connector-curvature="0" />
	<path style="fill:none;stroke:red;stroke-width:1px;stroke-linecap:butt;stroke-linejoin:miter;stroke-opacity:1" d="M 307.967,273.052 328.505,273.052 z" id="boundary" inkscape:connector-curvature="0" />
	<path style="fill:none;stroke:red;stroke-width:1px;stroke-linecap:butt;stroke-linejoin:miter;stroke-opacity:1" d="M 307.967,273.052 287.429,273.052 z" id="boundary" inkscape:connector-curvature="0" />
	<path style="fill:none;stroke:red;stroke-width:1px;stroke-linecap:butt;stroke-linejoin:miter;stroke-opacity:1" d="M 349.043,273.052 369.582,273.052 z" id="boundary" inkscape:connector-curvature="0" />
	<path style="fill:none;stroke:red;stroke-width:1px;stroke-linecap:butt;stroke-linejoin:miter;stroke-opacity:1" d="M 369.582,273.052 390.12,281.267 z" id="boundary" inkscape:connector-curvature="0" />
	<path style="fill:none;stroke:red;stroke-width:1px;stroke-linecap:butt;stroke-linejoin:miter;stroke-opacity:1" d="M 349.043,273.052 328.505,273.052 z" id="boundary" inkscape:connector-curvature="0" />
	<path style="fill:none;stroke:red;stroke-width:1px;stroke-linecap:butt;stroke-linejoin:miter;stroke-opacity:1" d="M 390.12,281.267 410.658,283.321 z" id="boundary" inkscape:connector-curvature="0" />
	<path style="fill:none;stroke:red;stroke-width:1px;stroke-linecap:butt;stroke-linejoin:miter;stroke-opacity:1" d="M 404.497,137.499 425.035,137.499 z" id="boundary" inkscape:connector-curvature="0" />
	<path style="fill:none;stroke:red;stroke-width:1px;stroke-linecap:butt;stroke-linejoin:miter;stroke-opacity:1" d="M 585.234,106.692 564.696,106.692 z" id="boundary" inkscape:connector-curvature="0" />
	<path style="fill:none;stroke:red;stroke-width:1px;stroke-linecap:butt;stroke-linejoin:miter;stroke-opacity:1" d="M 605.772,106.692 585.234,106.692 z" id="boundary" inkscape:connector-curvature="0" />
	<path style="fill:none;stroke:red;stroke-width:1px;stroke-linecap:butt;stroke-linejoin:miter;stroke-opacity:1" d="M 544.157,116.961 564.696,106.692 z" id="boundary" inkscape:connector-curvature="0" />
	<path style="fill:none;stroke:red;stroke-width:1px;stroke-linecap:butt;stroke-linejoin:miter;stroke-opacity:1" d="M 687.925,96.4224 667.387,96.4224 z" id="boundary" inkscape:connector-curvature="0" />
	<path style="fill:none;stroke:red;stroke-width:1px;stroke-linecap:butt;stroke-linejoin:miter;stroke-opacity:1" d="M 667.387,96.4224 646.849,96.4224 z" id="boundary" inkscape:connector-curvature="0" />
	<path style="fill:none;stroke:red;stroke-width:1px;stroke-linecap:butt;stroke-linejoin:miter;stroke-opacity:1" d="M 708.464,96.4224 687.925,96.4224 z" id="boundary" inkscape:connector-curvature="0" />
	<path style="fill:none;stroke:red;stroke-width:1px;stroke-linecap:butt;stroke-linejoin:miter;stroke-opacity:1" d="M 726.948,86.1532 708.464,96.4224 z" id="boundary" inkscape:connector-curvature="0" />
	<path style="fill:none;stroke:red;stroke-width:1px;stroke-linecap:butt;stroke-linejoin:miter;stroke-opacity:1" d="M 726.948,86.1532 747.487,86.1532 z" id="boundary" inkscape:connector-curvature="0" />
	<path style="fill:none;stroke:red;stroke-width:1px;stroke-linecap:butt;stroke-linejoin:miter;stroke-opacity:1" d="M 626.311,106.692 646.849,96.4224 z" id="boundary" inkscape:connector-curvature="0" />
	<path style="fill:none;stroke:red;stroke-width:1px;stroke-linecap:butt;stroke-linejoin:miter;stroke-opacity:1" d="M 462.004,116.961 482.542,116.961 z" id="boundary" inkscape:connector-curvature="0" />
	<path style="fill:none;stroke:red;stroke-width:1px;stroke-linecap:butt;stroke-linejoin:miter;stroke-opacity:1" d="M 443.52,127.23 462.004,116.961 z" id="boundary" inkscape:connector-curvature="0" />
	<path style="fill:none;stroke:red;stroke-width:1px;stroke-linecap:butt;stroke-linejoin:miter;stroke-opacity:1" d="M 482.542,116.961 503.081,116.961 z" id="boundary" inkscape:connector-curvature="0" />
	<path style="fill:none;stroke:red;stroke-width:1px;stroke-linecap:butt;stroke-linejoin:miter;stroke-opacity:1" d="M 626.311,106.692 605.772,106.692 z" id="boundary" inkscape:connector-curvature="0" />
	<path style="fill:none;stroke:red;stroke-width:1px;stroke-linecap:butt;stroke-linejoin:miter;stroke-opacity:1" d="M 503.081,116.961 523.619,116.961 z" id="boundary" inkscape:connector-curvature="0" />
	<path style="fill:none;stroke:red;stroke-width:1px;stroke-linecap:butt;stroke-linejoin:miter;stroke-opacity:1" d="M 544.157,116.961 523.619,116.961 z" id="boundary" inkscape:connector-curvature="0" />
	<path style="fill:none;stroke:red;stroke-width:1px;stroke-linecap:butt;stroke-linejoin:miter;stroke-opacity:1" d="M 768.025,86.1532 747.487,86.1532 z" id="boundary" inkscape:connector-curvature="0" />
	<path style="fill:none;stroke:red;stroke-width:1px;stroke-linecap:butt;stroke-linejoin:miter;stroke-opacity:1" d="M 889.201,75.8841 868.663,75.8841 z" id="boundary" inkscape:connector-curvature="0" />
	<path style="fill:none;stroke:red;stroke-width:1px;stroke-linecap:butt;stroke-linejoin:miter;stroke-opacity:1" d="M 850.178,86.1532 868.663,75.8841 z" id="boundary" inkscape:connector-curvature="0" />
	<path style="fill:none;stroke:red;stroke-width:1px;stroke-linecap:butt;stroke-linejoin:miter;stroke-opacity:1" d="M 909.739,75.8841 930.277,69.7226 z" id="boundary" inkscape:connector-curvature="0" />
	<path style="fill:none;stroke:red;stroke-width:1px;stroke-linecap:butt;stroke-linejoin:miter;stroke-opacity:1" d="M 889.201,75.8841 909.739,75.8841 z" id="boundary" inkscape:connector-curvature="0" />
	<path style="fill:none;stroke:red;stroke-width:1px;stroke-linecap:butt;stroke-linejoin:miter;stroke-opacity:1" d="M 930.277,69.7226 950.816,71.7764 z" id="boundary" inkscape:connector-curvature="0" />
	<path style="fill:none;stroke:red;stroke-width:1px;stroke-linecap:butt;stroke-linejoin:miter;stroke-opacity:1" d="M 950.816,71.7764 971.354,75.8841 z" id="boundary" inkscape:connector-curvature="0" />
	<path style="fill:none;stroke:red;stroke-width:1px;stroke-linecap:butt;stroke-linejoin:miter;stroke-opacity:1" d="M 768.025,86.1532 788.563,86.1532 z" id="boundary" inkscape:connector-curvature="0" />
	<path style="fill:none;stroke:red;stroke-width:1px;stroke-linecap:butt;stroke-linejoin:miter;stroke-opacity:1" d="M 809.101,86.1532 829.64,86.1532 z" id="boundary" inkscape:connector-curvature="0" />
	<path style="fill:none;stroke:red;stroke-width:1px;stroke-linecap:butt;stroke-linejoin:miter;stroke-opacity:1" d="M 809.101,86.1532 788.563,86.1532 z" id="boundary" inkscape:connector-curvature="0" />
	<path style="fill:none;stroke:red;stroke-width:1px;stroke-linecap:butt;stroke-linejoin:miter;stroke-opacity:1" d="M 971.354,75.8841 987.785,88.207 z" id="boundary" inkscape:connector-curvature="0" />
	<path style="fill:none;stroke:red;stroke-width:1px;stroke-linecap:butt;stroke-linejoin:miter;stroke-opacity:1" d="M 991.892,129.284 996,108.745 z" id="boundary" inkscape:connector-curvature="0" />
	<path style="fill:none;stroke:red;stroke-width:1px;stroke-linecap:butt;stroke-linejoin:miter;stroke-opacity:1" d="M 987.785,155.983 991.892,129.284 z" id="boundary" inkscape:connector-curvature="0" />
	<path style="fill:none;stroke:red;stroke-width:1px;stroke-linecap:butt;stroke-linejoin:miter;stroke-opacity:1" d="M 987.785,88.207 996,108.745 z" id="boundary" inkscape:connector-curvature="0" />
	<path style="fill:none;stroke:red;stroke-width:1px;stroke-linecap:butt;stroke-linejoin:miter;stroke-opacity:1" d="M 829.64,86.1532 850.178,86.1532 z" id="boundary" inkscape:connector-curvature="0" />
	<path style="fill:none;stroke:red;stroke-width:1px;stroke-linecap:butt;stroke-linejoin:miter;stroke-opacity:1" d="M 554.427,283.321 533.888,283.321 z" id="boundary" inkscape:connector-curvature="0" />
	<path style="fill:none;stroke:red;stroke-width:1px;stroke-linecap:butt;stroke-linejoin:miter;stroke-opacity:1" d="M 595.503,281.267 616.041,273.052 z" id="boundary" inkscape:connector-curvature="0" />
	<path style="fill:none;stroke:red;stroke-width:1px;stroke-linecap:butt;stroke-linejoin:miter;stroke-opacity:1" d="M 616.041,273.052 636.58,273.052 z" id="boundary" inkscape:connector-curvature="0" />
	<path style="fill:none;stroke:red;stroke-width:1px;stroke-linecap:butt;stroke-linejoin:miter;stroke-opacity:1" d="M 595.503,281.267 574.965,283.321 z" id="boundary" inkscape:connector-curvature="0" />
	<path style="fill:none;stroke:red;stroke-width:1px;stroke-linecap:butt;stroke-linejoin:miter;stroke-opacity:1" d="M 657.118,273.052 636.58,273.052 z" id="boundary" inkscape:connector-curvature="0" />
	<path style="fill:none;stroke:red;stroke-width:1px;stroke-linecap:butt;stroke-linejoin:miter;stroke-opacity:1" d="M 657.118,273.052 677.656,273.052 z" id="boundary" inkscape:connector-curvature="0" />
	<path style="fill:none;stroke:red;stroke-width:1px;stroke-linecap:butt;stroke-linejoin:miter;stroke-opacity:1" d="M 696.141,262.783 677.656,273.052 z" id="boundary" inkscape:connector-curvature="0" />
	<path style="fill:none;stroke:red;stroke-width:1px;stroke-linecap:butt;stroke-linejoin:miter;stroke-opacity:1" d="M 696.141,262.783 716.679,262.783 z" id="boundary" inkscape:connector-curvature="0" />
	<path style="fill:none;stroke:red;stroke-width:1px;stroke-linecap:butt;stroke-linejoin:miter;stroke-opacity:1" d="M 431.197,283.321 451.735,283.321 z" id="boundary" inkscape:connector-curvature="0" />
	<path style="fill:none;stroke:red;stroke-width:1px;stroke-linecap:butt;stroke-linejoin:miter;stroke-opacity:1" d="M 472.273,283.321 492.812,291.536 z" id="boundary" inkscape:connector-curvature="0" />
	<path style="fill:none;stroke:red;stroke-width:1px;stroke-linecap:butt;stroke-linejoin:miter;stroke-opacity:1" d="M 451.735,283.321 472.273,283.321 z" id="boundary" inkscape:connector-curvature="0" />
	<path style="fill:none;stroke:red;stroke-width:1px;stroke-linecap:butt;stroke-linejoin:miter;stroke-opacity:1" d="M 513.35,283.321 492.812,291.536 z" id="boundary" inkscape:connector-curvature="0" />
	<path style="fill:none;stroke:red;stroke-width:1px;stroke-linecap:butt;stroke-linejoin:miter;stroke-opacity:1" d="M 410.658,283.321 431.197,283.321 z" id="boundary" inkscape:connector-curvature="0" />
	<path style="fill:none;stroke:red;stroke-width:1px;stroke-linecap:butt;stroke-linejoin:miter;stroke-opacity:1" d="M 513.35,283.321 533.888,283.321 z" id="boundary" inkscape:connector-curvature="0" />
	<path style="fill:none;stroke:red;stroke-width:1px;stroke-linecap:butt;stroke-linejoin:miter;stroke-opacity:1" d="M 554.427,283.321 574.965,283.321 z" id="boundary" inkscape:connector-curvature="0" />
	<path style="fill:none;stroke:red;stroke-width:1px;stroke-linecap:butt;stroke-linejoin:miter;stroke-opacity:1" d="M 425.035,137.499 443.52,127.23 z" id="boundary" inkscape:connector-curvature="0" />
	<path style="fill:none;stroke:red;stroke-width:1px;stroke-linecap:butt;stroke-linejoin:miter;stroke-opacity:1" d="M 893.308,201.168 872.77,209.383 z" id="boundary" inkscape:connector-curvature="0" />
	<path style="fill:none;stroke:red;stroke-width:1px;stroke-linecap:butt;stroke-linejoin:miter;stroke-opacity:1" d="M 911.793,190.899 893.308,201.168 z" id="boundary" inkscape:connector-curvature="0" />
	<path style="fill:none;stroke:red;stroke-width:1px;stroke-linecap:butt;stroke-linejoin:miter;stroke-opacity:1" d="M 852.232,219.652 872.77,209.383 z" id="boundary" inkscape:connector-curvature="0" />
	<path style="fill:none;stroke:red;stroke-width:1px;stroke-linecap:butt;stroke-linejoin:miter;stroke-opacity:1" d="M 967.246,166.253 987.785,155.983 z" id="boundary" inkscape:connector-curvature="0" />
	<path style="fill:none;stroke:red;stroke-width:1px;stroke-linecap:butt;stroke-linejoin:miter;stroke-opacity:1" d="M 950.816,180.629 967.246,166.253 z" id="boundary" inkscape:connector-curvature="0" />
	<path style="fill:none;stroke:red;stroke-width:1px;stroke-linecap:butt;stroke-linejoin:miter;stroke-opacity:1" d="M 930.277,180.629 950.816,180.629 z" id="boundary" inkscape:connector-curvature="0" />
	<path style="fill:none;stroke:red;stroke-width:1px;stroke-linecap:butt;stroke-linejoin:miter;stroke-opacity:1" d="M 911.793,190.899 930.277,180.629 z" id="boundary" inkscape:connector-curvature="0" />
	<path style="fill:none;stroke:red;stroke-width:1px;stroke-linecap:butt;stroke-linejoin:miter;stroke-opacity:1" d="M 831.694,221.706 813.209,231.975 z" id="boundary" inkscape:connector-curvature="0" />
	<path style="fill:none;stroke:red;stroke-width:1px;stroke-linecap:butt;stroke-linejoin:miter;stroke-opacity:1" d="M 774.186,242.244 755.702,252.513 z" id="boundary" inkscape:connector-curvature="0" />
	<path style="fill:none;stroke:red;stroke-width:1px;stroke-linecap:butt;stroke-linejoin:miter;stroke-opacity:1" d="M 755.702,252.513 735.164,252.513 z" id="boundary" inkscape:connector-curvature="0" />
	<path style="fill:none;stroke:red;stroke-width:1px;stroke-linecap:butt;stroke-linejoin:miter;stroke-opacity:1" d="M 716.679,262.783 735.164,252.513 z" id="boundary" inkscape:connector-curvature="0" />
	<path style="fill:none;stroke:red;stroke-width:1px;stroke-linecap:butt;stroke-linejoin:miter;stroke-opacity:1" d="M 774.186,242.244 794.725,242.244 z" id="boundary" inkscape:connector-curvature="0" />
	<path style="fill:none;stroke:red;stroke-width:1px;stroke-linecap:butt;stroke-linejoin:miter;stroke-opacity:1" d="M 831.694,221.706 852.232,219.652 z" id="boundary" inkscape:connector-curvature="0" />
	<path style="fill:none;stroke:red;stroke-width:1px;stroke-linecap:butt;stroke-linejoin:miter;stroke-opacity:1" d="M 794.725,242.244 813.209,231.975 z" id="boundary" inkscape:connector-curvature="0" />
	<circle cx="4" cy="164.199" r="4" fill="#0" id="circle0"/>
	<circle cx="4" cy="184.737" r="4" fill="#0" id="circle1"/>
	<circle cx="4" cy="205.275" r="4" fill="#0" id="circle2"/>
	<circle cx="14.2692" cy="92.3147" r="4" fill="#0" id="circle3"/>
	<circle cx="14.2692" cy="133.391" r="4" fill="#0" id="circle4"/>
	<circle cx="14.2692" cy="223.76" r="4" fill="#0" id="circle5"/>
	<circle cx="24.5383" cy="20.4306" r="4" fill="#0" id="circle6"/>
	<circle cx="24.5383" cy="40.9689" r="4" fill="#0" id="circle7"/>
	<circle cx="24.5383" cy="61.5072" r="4" fill="#0" id="circle8"/>
	<circle cx="24.5383" cy="110.799" r="4" fill="#0" id="circle9"/>
	<circle cx="24.5383" cy="242.244" r="4" fill="#0" id="circle10"/>
	<circle cx="24.5383" cy="277.159" r="4" fill="#0" id="circle11"/>
	<circle cx="24.5383" cy="297.698" r="4" fill="#0" id="circle12"/>
	<circle cx="24.5383" cy="318.236" r="4" fill="#0" id="circle13"/>
	<circle cx="34.8075" cy="336.72" r="4" fill="#0" id="circle14"/>
	<circle cx="45.0766" cy="10.1615" r="4" fill="#0" id="circle15"/>
	<circle cx="49.1843" cy="353.151" r="4" fill="#0" id="circle16"/>
	<circle cx="65.6149" cy="4" r="4" fill="#0" id="circle17"/>
	<circle cx="69.7226" cy="355.205" r="4" fill="#0" id="circle18"/>
	<circle cx="86.1532" cy="4" r="4" fill="#0" id="circle19"/>
	<circle cx="88.207" cy="365.474" r="4" fill="#0" id="circle20"/>
	<circle cx="104.638" cy="14.2692" r="4" fill="#0" id="circle21"/>
	<circle cx="108.745" cy="365.474" r="4" fill="#0" id="circle22"/>
	<circle cx="125.176" cy="16.323" r="4" fill="#0" id="circle23"/>
	<circle cx="129.284" cy="355.205" r="4" fill="#0" id="circle24"/>
	<circle cx="139.553" cy="314.128" r="4" fill="#0" id="circle25"/>
	<circle cx="139.553" cy="334.667" r="4" fill="#0" id="circle26"/>
	<circle cx="145.714" cy="24.5383" r="4" fill="#0" id="circle27"/>
	<circle cx="149.822" cy="262.783" r="4" fill="#0" id="circle28"/>
	<circle cx="149.822" cy="283.321" r="4" fill="#0" id="circle29"/>
	<circle cx="164.199" cy="34.8075" r="4" fill="#0" id="circle30"/>
	<circle cx="168.306" cy="252.513" r="4" fill="#0" id="circle31"/>
	<circle cx="170.36" cy="55.3458" r="4" fill="#0" id="circle32"/>
	<circle cx="170.36" cy="108.745" r="4" fill="#0" id="circle33"/>
	<circle cx="170.36" cy="129.284" r="4" fill="#0" id="circle34"/>
	<circle cx="180.629" cy="73.8302" r="4" fill="#0" id="circle35"/>
	<circle cx="180.629" cy="147.768" r="4" fill="#0" id="circle36"/>
	<circle cx="188.845" cy="252.513" r="4" fill="#0" id="circle37"/>
	<circle cx="201.168" cy="153.93" r="4" fill="#0" id="circle38"/>
	<circle cx="207.329" cy="262.783" r="4" fill="#0" id="circle39"/>
	<circle cx="221.706" cy="158.037" r="4" fill="#0" id="circle40"/>
	<circle cx="227.867" cy="262.783" r="4" fill="#0" id="circle41"/>
	<circle cx="242.244" cy="158.037" r="4" fill="#0" id="circle42"/>
	<circle cx="248.406" cy="262.783" r="4" fill="#0" id="circle43"/>
	<circle cx="262.783" cy="158.037" r="4" fill="#0" id="circle44"/>
	<circle cx="266.89" cy="273.052" r="4" fill="#0" id="circle45"/>
	<circle cx="283.321" cy="158.037" r="4" fill="#0" id="circle46"/>
	<circle cx="287.429" cy="273.052" r="4" fill="#0" id="circle47"/>
	<circle cx="303.859" cy="153.93" r="4" fill="#0" id="circle48"/>
	<circle cx="307.967" cy="273.052" r="4" fill="#0" id="circle49"/>
	<circle cx="324.398" cy="147.768" r="4" fill="#0" id="circle50"/>
	<circle cx="328.505" cy="273.052" r="4" fill="#0" id="circle51"/>
	<circle cx="344.936" cy="147.768" r="4" fill="#0" id="circle52"/>
	<circle cx="349.043" cy="273.052" r="4" fill="#0" id="circle53"/>
	<circle cx="365.474" cy="147.768" r="4" fill="#0" id="circle54"/>
	<circle cx="369.582" cy="273.052" r="4" fill="#0" id="circle55"/>
	<circle cx="383.959" cy="137.499" r="4" fill="#0" id="circle56"/>
	<circle cx="390.12" cy="281.267" r="4" fill="#0" id="circle57"/>
	<circle cx="404.497" cy="137.499" r="4" fill="#0" id="circle58"/>
	<circle cx="410.658" cy="283.321" r="4" fill="#0" id="circle59"/>
	<circle cx="425.035" cy="137.499" r="4" fill="#0" id="circle60"/>
	<circle cx="431.197" cy="283.321" r="4" fill="#0" id="circle61"/>
	<circle cx="443.52" cy="127.23" r="4" fill="#0" id="circle62"/>
	<circle cx="451.735" cy="283.321" r="4" fill="#0" id="circle63"/>
	<circle cx="462.004" cy="116.961" r="4" fill="#0" id="circle64"/>
	<circle cx="472.273" cy="283.321" r="4" fill="#0" id="circle65"/>
	<circle cx="482.542" cy="116.961" r="4" fill="#0" id="circle66"/>
	<circle cx="492.812" cy="291.536" r="4" fill="#0" id="circle67"/>
	<circle cx="503.081" cy="116.961" r="4" fill="#0" id="circle68"/>
	<circle cx="513.35" cy="283.321" r="4" fill="#0" id="circle69"/>
	<circle cx="523.619" cy="116.961" r="4" fill="#0" id="circle70"/>
	<circle cx="533.888" cy="283.321" r="4" fill="#0" id="circle71"/>
	<circle cx="544.157" cy="116.961" r="4" fill="#0" id="circle72"/>
	<circle cx="554.427" cy="283.321" r="4" fill="#0" id="circle73"/>
	<circle cx="564.696" cy="106.692" r="4" fill="#0" id="circle74"/>
	<circle cx="574.965" cy="283.321" r="4" fill="#0" id="circle75"/>
	<circle cx="585.234" cy="106.692" r="4" fill="#0" id="circle76"/>
	<circle cx="595.503" cy="281.267" r="4" fill="#0" id="circle77"/>
	<circle cx="605.772" cy="106.692" r="4" fill="#0" id="circle78"/>
	<circle cx="616.041" cy="273.052" r="4" fill="#0" id="circle79"/>
	<circle cx="626.311" cy="106.692" r="4" fill="#0" id="circle80"/>
	<circle cx="636.58" cy="273.052" r="4" fill="#0" id="circle81"/>
	<circle cx="646.849" cy="96.4224" r="4" fill="#0" id="circle82"/>
	<circle cx="657.118" cy="273.052" r="4" fill="#0" id="circle83"/>
	<circle cx="667.387" cy="96.4224" r="4" fill="#0" id="circle84"/>
	<circle cx="677.656" cy="273.052" r="4" fill="#0" id="circle85"/>
	<circle cx="687.925" cy="96.4224" r="4" fill="#0" id="circle86"/>
	<circle cx="696.141" cy="262.783" r="4" fill="#0" id="circle87"/>
	<circle cx="708.464" cy="96.4224" r="4" fill="#0" id="circle88"/>
	<circle cx="716.679" cy="262.783" r="4" fill="#0" id="circle89"/>
	<circle cx="726.948" cy="86.1532" r="4" fill="#0" id="circle90"/>
	<circle cx="735.164" cy="252.513" r="4" fill="#0" id="circle91"/>
	<circle cx="747.487" cy="86.1532" r="4" fill="#0" id="circle92"/>
	<circle cx="755.702" cy="252.513" r="4" fill="#0" id="circle93"/>
	<circle cx="768.025" cy="86.1532" r="4" fill="#0" id="circle94"/>
	<circle cx="774.186" cy="242.244" r="4" fill="#0" id="circle95"/>
	<circle cx="788.563" cy="86.1532" r="4" fill="#0" id="circle96"/>
	<circle cx="794.725" cy="242.244" r="4" fill="#0" id="circle97"/>
	<circle cx="809.101" cy="86.1532" r="4" fill="#0" id="circle98"/>
	<circle cx="813.209" cy="231.975" r="4" fill="#0" id="circle99"/>
	<circle cx="829.64" cy="86.1532" r="4" fill="#0" id="circle100"/>
	<circle cx="831.694" cy="221.706" r="4" fill="#0" id="circle101"/>
	<circle cx="850.178" cy="86.1532" r="4" fill="#0" id="circle102"/>
	<circle cx="852.232" cy="219.652" r="4" fill="#0" id="circle103"/>
	<circle cx="868.663" cy="75.8841" r="4" fill="#0" id="circle104"/>
	<circle cx="872.77" cy="209.383" r="4" fill="#0" id="circle105"/>
	<circle cx="889.201" cy="75.8841" r="4" fill="#0" id="circle106"/>
	<circle cx="893.308" cy="201.168" r="4" fill="#0" id="circle107"/>
	<circle cx="909.739" cy="75.8841" r="4" fill="#0" id="circle108"/>
	<circle cx="911.793" cy="190.899" r="4" fill="#0" id="circle109"/>
	<circle cx="930.277" cy="69.7226" r="4" fill="#0" id="circle110"/>
	<circle cx="930.277" cy="180.629" r="4" fill="#0" id="circle111"/>
	<circle cx="950.816" cy="71.7764" r="4" fill="#0" id="circle112"/>
	<circle cx="950.816" cy="180.629" r="4" fill="#0" id="circle113"/>
	<circle cx="967.246" cy="166.253" r="4" fill="#0" id="circle114"/>
	<circle cx="971.354" cy="75.8841" r="4" fill="#0" id="circle115"/>
	<circle cx="987.785" cy="88.207" r="4" fill="#0" id="circle116"/>
	<circle cx="987.785" cy="155.983" r="4" fill="#0" id="circle117"/>
	<circle cx="991.892" cy="129.284" r="4" fill="#0" id="circle118"/>
	<circle cx="996" cy="108.745" r="4" fill="#0" id="circle119"/>
	</g>
</svg>