<?xml version="1.0" encoding="UTF-8" standalone="no"?>
<!-- Created with CurveBenchmark -->
<svg
	xmlns:dc="http://purl.org/dc/elements/1.1/"
	xmlns:cc="http://creativecommons.org/ns#"
	xmlns:rdf="http://www.w3.org/1999/02/22-rdf-syntax-ns#"
	xmlns:svg="http://www.w3.org/2000/svg"
	xmlns="http://www.w3.org/2000/svg"
	xmlns:sodipodi="http://sodipodi.sourceforge.net/DTD/sodipodi-0.dtd"
	xmlns:inkscape="http://www.inkscape.org/namespaces/inkscape"
	width="1000"
	height="1000"
	id="svg2"
	version="1.1"
	sodipodi:docname="manifold/nncrust-dude6.png.txt">
<defs
	id="defs4" />
<metadata
	id="metadata7">
	<rdf:RDF>
		<cc:Work
			rdf:about="">
			<dc:format>image/svg+xml</dc:format>
			<dc:type
				rdf:resource="http://purl.org/dc/dcmitype/StillImage" />
			<dc:title></dc:title>
		</cc:Work>
	</rdf:RDF>
</metadata>
<g
	inkscape:label="Layer 1"
	inkscape:groupmode="layer"
	id="layer1">
	<path style="fill:none;stroke:red;stroke-width:1px;stroke-linecap:butt;stroke-linejoin:miter;stroke-opacity:1" d="M 121.271,257.767 111.659,276.992 z" id="boundary" inkscape:connector-curvature="0" />
	<path style="fill:none;stroke:red;stroke-width:1px;stroke-linecap:butt;stroke-linejoin:miter;stroke-opacity:1" d="M 111.659,276.992 96.2791,292.372 z" id="boundary" inkscape:connector-curvature="0" />
	<path style="fill:none;stroke:red;stroke-width:1px;stroke-linecap:butt;stroke-linejoin:miter;stroke-opacity:1" d="M 130.884,238.543 121.271,257.767 z" id="boundary" inkscape:connector-curvature="0" />
	<path style="fill:none;stroke:red;stroke-width:1px;stroke-linecap:butt;stroke-linejoin:miter;stroke-opacity:1" d="M 88.5891,311.597 96.2791,292.372 z" id="boundary" inkscape:connector-curvature="0" />
	<path style="fill:none;stroke:red;stroke-width:1px;stroke-linecap:butt;stroke-linejoin:miter;stroke-opacity:1" d="M 63.5969,344.279 73.2093,325.054 z" id="boundary" inkscape:connector-curvature="0" />
	<path style="fill:none;stroke:red;stroke-width:1px;stroke-linecap:butt;stroke-linejoin:miter;stroke-opacity:1" d="M 63.5969,344.279 48.2171,359.659 z" id="boundary" inkscape:connector-curvature="0" />
	<path style="fill:none;stroke:red;stroke-width:1px;stroke-linecap:butt;stroke-linejoin:miter;stroke-opacity:1" d="M 88.5891,311.597 73.2093,325.054 z" id="boundary" inkscape:connector-curvature="0" />
	<path style="fill:none;stroke:red;stroke-width:1px;stroke-linecap:butt;stroke-linejoin:miter;stroke-opacity:1" d="M 146.264,225.085 163.566,215.473 z" id="boundary" inkscape:connector-curvature="0" />
	<path style="fill:none;stroke:red;stroke-width:1px;stroke-linecap:butt;stroke-linejoin:miter;stroke-opacity:1" d="M 178.946,200.093 163.566,215.473 z" id="boundary" inkscape:connector-curvature="0" />
	<path style="fill:none;stroke:red;stroke-width:1px;stroke-linecap:butt;stroke-linejoin:miter;stroke-opacity:1" d="M 194.326,186.636 178.946,200.093 z" id="boundary" inkscape:connector-curvature="0" />
	<path style="fill:none;stroke:red;stroke-width:1px;stroke-linecap:butt;stroke-linejoin:miter;stroke-opacity:1" d="M 146.264,225.085 130.884,238.543 z" id="boundary" inkscape:connector-curvature="0" />
	<path style="fill:none;stroke:red;stroke-width:1px;stroke-linecap:butt;stroke-linejoin:miter;stroke-opacity:1" d="M 165.488,328.899 184.713,319.287 z" id="boundary" inkscape:connector-curvature="0" />
	<path style="fill:none;stroke:red;stroke-width:1px;stroke-linecap:butt;stroke-linejoin:miter;stroke-opacity:1" d="M 155.876,348.124 165.488,328.899 z" id="boundary" inkscape:connector-curvature="0" />
	<path style="fill:none;stroke:red;stroke-width:1px;stroke-linecap:butt;stroke-linejoin:miter;stroke-opacity:1" d="M 198.171,303.907 184.713,319.287 z" id="boundary" inkscape:connector-curvature="0" />
	<path style="fill:none;stroke:red;stroke-width:1px;stroke-linecap:butt;stroke-linejoin:miter;stroke-opacity:1" d="M 194.326,186.636 213.55,186.636 z" id="boundary" inkscape:connector-curvature="0" />
	<path style="fill:none;stroke:red;stroke-width:1px;stroke-linecap:butt;stroke-linejoin:miter;stroke-opacity:1" d="M 48.2171,359.659 38.6047,378.884 z" id="boundary" inkscape:connector-curvature="0" />
	<path style="fill:none;stroke:red;stroke-width:1px;stroke-linecap:butt;stroke-linejoin:miter;stroke-opacity:1" d="M 38.6047,378.884 23.2248,394.264 z" id="boundary" inkscape:connector-curvature="0" />
	<path style="fill:none;stroke:red;stroke-width:1px;stroke-linecap:butt;stroke-linejoin:miter;stroke-opacity:1" d="M 13.6124,413.488 23.2248,394.264 z" id="boundary" inkscape:connector-curvature="0" />
	<path style="fill:none;stroke:red;stroke-width:1px;stroke-linecap:butt;stroke-linejoin:miter;stroke-opacity:1" d="M 19.3798,446.171 4,432.713 z" id="boundary" inkscape:connector-curvature="0" />
	<path style="fill:none;stroke:red;stroke-width:1px;stroke-linecap:butt;stroke-linejoin:miter;stroke-opacity:1" d="M 4,432.713 13.6124,413.488 z" id="boundary" inkscape:connector-curvature="0" />
	<path style="fill:none;stroke:red;stroke-width:1px;stroke-linecap:butt;stroke-linejoin:miter;stroke-opacity:1" d="M 63.5969,428.868 50.1395,444.248 z" id="boundary" inkscape:connector-curvature="0" />
	<path style="fill:none;stroke:red;stroke-width:1px;stroke-linecap:butt;stroke-linejoin:miter;stroke-opacity:1" d="M 127.039,376.961 140.496,361.581 z" id="boundary" inkscape:connector-curvature="0" />
	<path style="fill:none;stroke:red;stroke-width:1px;stroke-linecap:butt;stroke-linejoin:miter;stroke-opacity:1" d="M 140.496,361.581 155.876,348.124 z" id="boundary" inkscape:connector-curvature="0" />
	<path style="fill:none;stroke:red;stroke-width:1px;stroke-linecap:butt;stroke-linejoin:miter;stroke-opacity:1" d="M 63.5969,428.868 78.9767,415.411 z" id="boundary" inkscape:connector-curvature="0" />
	<path style="fill:none;stroke:red;stroke-width:1px;stroke-linecap:butt;stroke-linejoin:miter;stroke-opacity:1" d="M 78.9767,415.411 98.2016,405.798 z" id="boundary" inkscape:connector-curvature="0" />
	<path style="fill:none;stroke:red;stroke-width:1px;stroke-linecap:butt;stroke-linejoin:miter;stroke-opacity:1" d="M 98.2016,405.798 111.659,390.419 z" id="boundary" inkscape:connector-curvature="0" />
	<path style="fill:none;stroke:red;stroke-width:1px;stroke-linecap:butt;stroke-linejoin:miter;stroke-opacity:1" d="M 111.659,390.419 127.039,376.961 z" id="boundary" inkscape:connector-curvature="0" />
	<path style="fill:none;stroke:red;stroke-width:1px;stroke-linecap:butt;stroke-linejoin:miter;stroke-opacity:1" d="M 292.372,86.6667 301.984,57.8295 z" id="boundary" inkscape:connector-curvature="0" />
	<path style="fill:none;stroke:red;stroke-width:1px;stroke-linecap:butt;stroke-linejoin:miter;stroke-opacity:1" d="M 301.984,57.8295 317.364,42.4496 z" id="boundary" inkscape:connector-curvature="0" />
	<path style="fill:none;stroke:red;stroke-width:1px;stroke-linecap:butt;stroke-linejoin:miter;stroke-opacity:1" d="M 292.372,105.891 301.984,123.194 z" id="boundary" inkscape:connector-curvature="0" />
	<path style="fill:none;stroke:red;stroke-width:1px;stroke-linecap:butt;stroke-linejoin:miter;stroke-opacity:1" d="M 301.984,123.194 301.984,142.419 z" id="boundary" inkscape:connector-curvature="0" />
	<path style="fill:none;stroke:red;stroke-width:1px;stroke-linecap:butt;stroke-linejoin:miter;stroke-opacity:1" d="M 292.372,105.891 292.372,86.6667 z" id="boundary" inkscape:connector-curvature="0" />
	<path style="fill:none;stroke:red;stroke-width:1px;stroke-linecap:butt;stroke-linejoin:miter;stroke-opacity:1" d="M 348.124,13.6124 365.426,4 z" id="boundary" inkscape:connector-curvature="0" />
	<path style="fill:none;stroke:red;stroke-width:1px;stroke-linecap:butt;stroke-linejoin:miter;stroke-opacity:1" d="M 365.426,4 384.651,4 z" id="boundary" inkscape:connector-curvature="0" />
	<path style="fill:none;stroke:red;stroke-width:1px;stroke-linecap:butt;stroke-linejoin:miter;stroke-opacity:1" d="M 384.651,4 401.953,13.6124 z" id="boundary" inkscape:connector-curvature="0" />
	<path style="fill:none;stroke:red;stroke-width:1px;stroke-linecap:butt;stroke-linejoin:miter;stroke-opacity:1" d="M 332.744,27.0698 348.124,13.6124 z" id="boundary" inkscape:connector-curvature="0" />
	<path style="fill:none;stroke:red;stroke-width:1px;stroke-linecap:butt;stroke-linejoin:miter;stroke-opacity:1" d="M 419.256,23.2248 428.868,40.5271 z" id="boundary" inkscape:connector-curvature="0" />
	<path style="fill:none;stroke:red;stroke-width:1px;stroke-linecap:butt;stroke-linejoin:miter;stroke-opacity:1" d="M 401.953,13.6124 419.256,23.2248 z" id="boundary" inkscape:connector-curvature="0" />
	<path style="fill:none;stroke:red;stroke-width:1px;stroke-linecap:butt;stroke-linejoin:miter;stroke-opacity:1" d="M 444.248,53.9845 428.868,40.5271 z" id="boundary" inkscape:connector-curvature="0" />
	<path style="fill:none;stroke:red;stroke-width:1px;stroke-linecap:butt;stroke-linejoin:miter;stroke-opacity:1" d="M 317.364,42.4496 332.744,27.0698 z" id="boundary" inkscape:connector-curvature="0" />
	<path style="fill:none;stroke:red;stroke-width:1px;stroke-linecap:butt;stroke-linejoin:miter;stroke-opacity:1" d="M 288.527,167.411 301.984,142.419 z" id="boundary" inkscape:connector-curvature="0" />
	<path style="fill:none;stroke:red;stroke-width:1px;stroke-linecap:butt;stroke-linejoin:miter;stroke-opacity:1" d="M 217.395,303.907 198.171,303.907 z" id="boundary" inkscape:connector-curvature="0" />
	<path style="fill:none;stroke:red;stroke-width:1px;stroke-linecap:butt;stroke-linejoin:miter;stroke-opacity:1" d="M 230.853,177.023 213.55,186.636 z" id="boundary" inkscape:connector-curvature="0" />
	<path style="fill:none;stroke:red;stroke-width:1px;stroke-linecap:butt;stroke-linejoin:miter;stroke-opacity:1" d="M 217.395,303.907 234.698,313.519 z" id="boundary" inkscape:connector-curvature="0" />
	<path style="fill:none;stroke:red;stroke-width:1px;stroke-linecap:butt;stroke-linejoin:miter;stroke-opacity:1" d="M 234.698,313.519 240.465,332.744 z" id="boundary" inkscape:connector-curvature="0" />
	<path style="fill:none;stroke:red;stroke-width:1px;stroke-linecap:butt;stroke-linejoin:miter;stroke-opacity:1" d="M 240.465,332.744 244.31,351.969 z" id="boundary" inkscape:connector-curvature="0" />
	<path style="fill:none;stroke:red;stroke-width:1px;stroke-linecap:butt;stroke-linejoin:miter;stroke-opacity:1" d="M 253.922,369.271 244.31,351.969 z" id="boundary" inkscape:connector-curvature="0" />
	<path style="fill:none;stroke:red;stroke-width:1px;stroke-linecap:butt;stroke-linejoin:miter;stroke-opacity:1" d="M 230.853,177.023 250.078,177.023 z" id="boundary" inkscape:connector-curvature="0" />
	<path style="fill:none;stroke:red;stroke-width:1px;stroke-linecap:butt;stroke-linejoin:miter;stroke-opacity:1" d="M 269.302,177.023 250.078,177.023 z" id="boundary" inkscape:connector-curvature="0" />
	<path style="fill:none;stroke:red;stroke-width:1px;stroke-linecap:butt;stroke-linejoin:miter;stroke-opacity:1" d="M 269.302,177.023 288.527,167.411 z" id="boundary" inkscape:connector-curvature="0" />
	<path style="fill:none;stroke:red;stroke-width:1px;stroke-linecap:butt;stroke-linejoin:miter;stroke-opacity:1" d="M 253.922,369.271 257.767,388.496 z" id="boundary" inkscape:connector-curvature="0" />
	<path style="fill:none;stroke:red;stroke-width:1px;stroke-linecap:butt;stroke-linejoin:miter;stroke-opacity:1" d="M 273.147,425.023 263.535,407.721 z" id="boundary" inkscape:connector-curvature="0" />
	<path style="fill:none;stroke:red;stroke-width:1px;stroke-linecap:butt;stroke-linejoin:miter;stroke-opacity:1" d="M 263.535,407.721 257.767,388.496 z" id="boundary" inkscape:connector-curvature="0" />
	<path style="fill:none;stroke:red;stroke-width:1px;stroke-linecap:butt;stroke-linejoin:miter;stroke-opacity:1" d="M 273.147,425.023 273.147,444.248 z" id="boundary" inkscape:connector-curvature="0" />
	<path style="fill:none;stroke:red;stroke-width:1px;stroke-linecap:butt;stroke-linejoin:miter;stroke-opacity:1" d="M 19.3798,446.171 34.7597,457.705 z" id="boundary" inkscape:connector-curvature="0" />
	<path style="fill:none;stroke:red;stroke-width:1px;stroke-linecap:butt;stroke-linejoin:miter;stroke-opacity:1" d="M 50.1395,444.248 34.7597,457.705 z" id="boundary" inkscape:connector-curvature="0" />
	<path style="fill:none;stroke:red;stroke-width:1px;stroke-linecap:butt;stroke-linejoin:miter;stroke-opacity:1" d="M 157.798,788.372 148.186,807.597 z" id="boundary" inkscape:connector-curvature="0" />
	<path style="fill:none;stroke:red;stroke-width:1px;stroke-linecap:butt;stroke-linejoin:miter;stroke-opacity:1" d="M 148.186,807.597 138.574,826.822 z" id="boundary" inkscape:connector-curvature="0" />
	<path style="fill:none;stroke:red;stroke-width:1px;stroke-linecap:butt;stroke-linejoin:miter;stroke-opacity:1" d="M 128.961,846.047 138.574,826.822 z" id="boundary" inkscape:connector-curvature="0" />
	<path style="fill:none;stroke:red;stroke-width:1px;stroke-linecap:butt;stroke-linejoin:miter;stroke-opacity:1" d="M 128.961,865.271 128.961,846.047 z" id="boundary" inkscape:connector-curvature="0" />
	<path style="fill:none;stroke:red;stroke-width:1px;stroke-linecap:butt;stroke-linejoin:miter;stroke-opacity:1" d="M 128.961,865.271 128.961,884.496 z" id="boundary" inkscape:connector-curvature="0" />
	<path style="fill:none;stroke:red;stroke-width:1px;stroke-linecap:butt;stroke-linejoin:miter;stroke-opacity:1" d="M 182.791,753.767 192.403,734.543 z" id="boundary" inkscape:connector-curvature="0" />
	<path style="fill:none;stroke:red;stroke-width:1px;stroke-linecap:butt;stroke-linejoin:miter;stroke-opacity:1" d="M 202.016,715.318 192.403,734.543 z" id="boundary" inkscape:connector-curvature="0" />
	<path style="fill:none;stroke:red;stroke-width:1px;stroke-linecap:butt;stroke-linejoin:miter;stroke-opacity:1" d="M 167.411,769.147 157.798,788.372 z" id="boundary" inkscape:connector-curvature="0" />
	<path style="fill:none;stroke:red;stroke-width:1px;stroke-linecap:butt;stroke-linejoin:miter;stroke-opacity:1" d="M 167.411,769.147 182.791,753.767 z" id="boundary" inkscape:connector-curvature="0" />
	<path style="fill:none;stroke:red;stroke-width:1px;stroke-linecap:butt;stroke-linejoin:miter;stroke-opacity:1" d="M 232.775,847.969 217.395,861.426 z" id="boundary" inkscape:connector-curvature="0" />
	<path style="fill:none;stroke:red;stroke-width:1px;stroke-linecap:butt;stroke-linejoin:miter;stroke-opacity:1" d="M 202.016,715.318 215.473,692.248 z" id="boundary" inkscape:connector-curvature="0" />
	<path style="fill:none;stroke:red;stroke-width:1px;stroke-linecap:butt;stroke-linejoin:miter;stroke-opacity:1" d="M 217.395,861.426 207.783,890.264 z" id="boundary" inkscape:connector-curvature="0" />
	<path style="fill:none;stroke:red;stroke-width:1px;stroke-linecap:butt;stroke-linejoin:miter;stroke-opacity:1" d="M 128.961,884.496 128.961,903.721 z" id="boundary" inkscape:connector-curvature="0" />
	<path style="fill:none;stroke:red;stroke-width:1px;stroke-linecap:butt;stroke-linejoin:miter;stroke-opacity:1" d="M 128.961,922.946 128.961,903.721 z" id="boundary" inkscape:connector-curvature="0" />
	<path style="fill:none;stroke:red;stroke-width:1px;stroke-linecap:butt;stroke-linejoin:miter;stroke-opacity:1" d="M 138.574,959.473 128.961,942.171 z" id="boundary" inkscape:connector-curvature="0" />
	<path style="fill:none;stroke:red;stroke-width:1px;stroke-linecap:butt;stroke-linejoin:miter;stroke-opacity:1" d="M 128.961,942.171 128.961,922.946 z" id="boundary" inkscape:connector-curvature="0" />
	<path style="fill:none;stroke:red;stroke-width:1px;stroke-linecap:butt;stroke-linejoin:miter;stroke-opacity:1" d="M 165.488,986.388 148.186,976.775 z" id="boundary" inkscape:connector-curvature="0" />
	<path style="fill:none;stroke:red;stroke-width:1px;stroke-linecap:butt;stroke-linejoin:miter;stroke-opacity:1" d="M 148.186,976.775 138.574,959.473 z" id="boundary" inkscape:connector-curvature="0" />
	<path style="fill:none;stroke:red;stroke-width:1px;stroke-linecap:butt;stroke-linejoin:miter;stroke-opacity:1" d="M 207.783,909.488 207.783,928.713 z" id="boundary" inkscape:connector-curvature="0" />
	<path style="fill:none;stroke:red;stroke-width:1px;stroke-linecap:butt;stroke-linejoin:miter;stroke-opacity:1" d="M 207.783,909.488 207.783,890.264 z" id="boundary" inkscape:connector-curvature="0" />
	<path style="fill:none;stroke:red;stroke-width:1px;stroke-linecap:butt;stroke-linejoin:miter;stroke-opacity:1" d="M 217.395,946.016 207.783,928.713 z" id="boundary" inkscape:connector-curvature="0" />
	<path style="fill:none;stroke:red;stroke-width:1px;stroke-linecap:butt;stroke-linejoin:miter;stroke-opacity:1" d="M 202.016,994.078 182.791,996 z" id="boundary" inkscape:connector-curvature="0" />
	<path style="fill:none;stroke:red;stroke-width:1px;stroke-linecap:butt;stroke-linejoin:miter;stroke-opacity:1" d="M 217.395,965.24 202.016,994.078 z" id="boundary" inkscape:connector-curvature="0" />
	<path style="fill:none;stroke:red;stroke-width:1px;stroke-linecap:butt;stroke-linejoin:miter;stroke-opacity:1" d="M 217.395,946.016 217.395,965.24 z" id="boundary" inkscape:connector-curvature="0" />
	<path style="fill:none;stroke:red;stroke-width:1px;stroke-linecap:butt;stroke-linejoin:miter;stroke-opacity:1" d="M 182.791,996 165.488,986.388 z" id="boundary" inkscape:connector-curvature="0" />
	<path style="fill:none;stroke:red;stroke-width:1px;stroke-linecap:butt;stroke-linejoin:miter;stroke-opacity:1" d="M 273.147,586.512 263.535,615.349 z" id="boundary" inkscape:connector-curvature="0" />
	<path style="fill:none;stroke:red;stroke-width:1px;stroke-linecap:butt;stroke-linejoin:miter;stroke-opacity:1" d="M 273.147,444.248 282.76,461.55 z" id="boundary" inkscape:connector-curvature="0" />
	<path style="fill:none;stroke:red;stroke-width:1px;stroke-linecap:butt;stroke-linejoin:miter;stroke-opacity:1" d="M 282.76,461.55 282.76,480.775 z" id="boundary" inkscape:connector-curvature="0" />
	<path style="fill:none;stroke:red;stroke-width:1px;stroke-linecap:butt;stroke-linejoin:miter;stroke-opacity:1" d="M 253.922,634.574 240.465,657.643 z" id="boundary" inkscape:connector-curvature="0" />
	<path style="fill:none;stroke:red;stroke-width:1px;stroke-linecap:butt;stroke-linejoin:miter;stroke-opacity:1" d="M 263.535,615.349 253.922,634.574 z" id="boundary" inkscape:connector-curvature="0" />
	<path style="fill:none;stroke:red;stroke-width:1px;stroke-linecap:butt;stroke-linejoin:miter;stroke-opacity:1" d="M 240.465,657.643 230.853,676.868 z" id="boundary" inkscape:connector-curvature="0" />
	<path style="fill:none;stroke:red;stroke-width:1px;stroke-linecap:butt;stroke-linejoin:miter;stroke-opacity:1" d="M 230.853,676.868 215.473,692.248 z" id="boundary" inkscape:connector-curvature="0" />
	<path style="fill:none;stroke:red;stroke-width:1px;stroke-linecap:butt;stroke-linejoin:miter;stroke-opacity:1" d="M 282.76,480.775 292.372,498.078 z" id="boundary" inkscape:connector-curvature="0" />
	<path style="fill:none;stroke:red;stroke-width:1px;stroke-linecap:butt;stroke-linejoin:miter;stroke-opacity:1" d="M 292.372,498.078 292.372,517.302 z" id="boundary" inkscape:connector-curvature="0" />
	<path style="fill:none;stroke:red;stroke-width:1px;stroke-linecap:butt;stroke-linejoin:miter;stroke-opacity:1" d="M 292.372,536.527 292.372,517.302 z" id="boundary" inkscape:connector-curvature="0" />
	<path style="fill:none;stroke:red;stroke-width:1px;stroke-linecap:butt;stroke-linejoin:miter;stroke-opacity:1" d="M 282.76,567.287 292.372,536.527 z" id="boundary" inkscape:connector-curvature="0" />
	<path style="fill:none;stroke:red;stroke-width:1px;stroke-linecap:butt;stroke-linejoin:miter;stroke-opacity:1" d="M 386.574,665.333 367.349,674.946 z" id="boundary" inkscape:connector-curvature="0" />
	<path style="fill:none;stroke:red;stroke-width:1px;stroke-linecap:butt;stroke-linejoin:miter;stroke-opacity:1" d="M 405.798,669.178 386.574,665.333 z" id="boundary" inkscape:connector-curvature="0" />
	<path style="fill:none;stroke:red;stroke-width:1px;stroke-linecap:butt;stroke-linejoin:miter;stroke-opacity:1" d="M 273.147,586.512 282.76,567.287 z" id="boundary" inkscape:connector-curvature="0" />
	<path style="fill:none;stroke:red;stroke-width:1px;stroke-linecap:butt;stroke-linejoin:miter;stroke-opacity:1" d="M 405.798,669.178 419.256,684.558 z" id="boundary" inkscape:connector-curvature="0" />
	<path style="fill:none;stroke:red;stroke-width:1px;stroke-linecap:butt;stroke-linejoin:miter;stroke-opacity:1" d="M 290.45,771.07 275.07,784.527 z" id="boundary" inkscape:connector-curvature="0" />
	<path style="fill:none;stroke:red;stroke-width:1px;stroke-linecap:butt;stroke-linejoin:miter;stroke-opacity:1" d="M 303.907,755.69 290.45,771.07 z" id="boundary" inkscape:connector-curvature="0" />
	<path style="fill:none;stroke:red;stroke-width:1px;stroke-linecap:butt;stroke-linejoin:miter;stroke-opacity:1" d="M 261.612,809.519 275.07,784.527 z" id="boundary" inkscape:connector-curvature="0" />
	<path style="fill:none;stroke:red;stroke-width:1px;stroke-linecap:butt;stroke-linejoin:miter;stroke-opacity:1" d="M 246.233,822.977 261.612,809.519 z" id="boundary" inkscape:connector-curvature="0" />
	<path style="fill:none;stroke:red;stroke-width:1px;stroke-linecap:butt;stroke-linejoin:miter;stroke-opacity:1" d="M 232.775,847.969 246.233,822.977 z" id="boundary" inkscape:connector-curvature="0" />
	<path style="fill:none;stroke:red;stroke-width:1px;stroke-linecap:butt;stroke-linejoin:miter;stroke-opacity:1" d="M 351.969,688.403 367.349,674.946 z" id="boundary" inkscape:connector-curvature="0" />
	<path style="fill:none;stroke:red;stroke-width:1px;stroke-linecap:butt;stroke-linejoin:miter;stroke-opacity:1" d="M 351.969,688.403 338.512,703.783 z" id="boundary" inkscape:connector-curvature="0" />
	<path style="fill:none;stroke:red;stroke-width:1px;stroke-linecap:butt;stroke-linejoin:miter;stroke-opacity:1" d="M 303.907,755.69 313.519,736.465 z" id="boundary" inkscape:connector-curvature="0" />
	<path style="fill:none;stroke:red;stroke-width:1px;stroke-linecap:butt;stroke-linejoin:miter;stroke-opacity:1" d="M 313.519,736.465 328.899,723.008 z" id="boundary" inkscape:connector-curvature="0" />
	<path style="fill:none;stroke:red;stroke-width:1px;stroke-linecap:butt;stroke-linejoin:miter;stroke-opacity:1" d="M 328.899,723.008 338.512,703.783 z" id="boundary" inkscape:connector-curvature="0" />
	<path style="fill:none;stroke:red;stroke-width:1px;stroke-linecap:butt;stroke-linejoin:miter;stroke-opacity:1" d="M 457.705,90.5116 448.093,73.2093 z" id="boundary" inkscape:connector-curvature="0" />
	<path style="fill:none;stroke:red;stroke-width:1px;stroke-linecap:butt;stroke-linejoin:miter;stroke-opacity:1" d="M 448.093,73.2093 444.248,53.9845 z" id="boundary" inkscape:connector-curvature="0" />
	<path style="fill:none;stroke:red;stroke-width:1px;stroke-linecap:butt;stroke-linejoin:miter;stroke-opacity:1" d="M 457.705,90.5116 457.705,109.736 z" id="boundary" inkscape:connector-curvature="0" />
	<path style="fill:none;stroke:red;stroke-width:1px;stroke-linecap:butt;stroke-linejoin:miter;stroke-opacity:1" d="M 448.093,150.109 448.093,130.884 z" id="boundary" inkscape:connector-curvature="0" />
	<path style="fill:none;stroke:red;stroke-width:1px;stroke-linecap:butt;stroke-linejoin:miter;stroke-opacity:1" d="M 457.705,109.736 448.093,130.884 z" id="boundary" inkscape:connector-curvature="0" />
	<path style="fill:none;stroke:red;stroke-width:1px;stroke-linecap:butt;stroke-linejoin:miter;stroke-opacity:1" d="M 448.093,150.109 457.705,167.411 z" id="boundary" inkscape:connector-curvature="0" />
	<path style="fill:none;stroke:red;stroke-width:1px;stroke-linecap:butt;stroke-linejoin:miter;stroke-opacity:1" d="M 475.008,177.023 457.705,167.411 z" id="boundary" inkscape:connector-curvature="0" />
	<path style="fill:none;stroke:red;stroke-width:1px;stroke-linecap:butt;stroke-linejoin:miter;stroke-opacity:1" d="M 494.233,177.023 475.008,177.023 z" id="boundary" inkscape:connector-curvature="0" />
	<path style="fill:none;stroke:red;stroke-width:1px;stroke-linecap:butt;stroke-linejoin:miter;stroke-opacity:1" d="M 513.457,177.023 532.682,177.023 z" id="boundary" inkscape:connector-curvature="0" />
	<path style="fill:none;stroke:red;stroke-width:1px;stroke-linecap:butt;stroke-linejoin:miter;stroke-opacity:1" d="M 532.682,177.023 549.984,186.636 z" id="boundary" inkscape:connector-curvature="0" />
	<path style="fill:none;stroke:red;stroke-width:1px;stroke-linecap:butt;stroke-linejoin:miter;stroke-opacity:1" d="M 513.457,177.023 494.233,177.023 z" id="boundary" inkscape:connector-curvature="0" />
	<path style="fill:none;stroke:red;stroke-width:1px;stroke-linecap:butt;stroke-linejoin:miter;stroke-opacity:1" d="M 567.287,196.248 549.984,186.636 z" id="boundary" inkscape:connector-curvature="0" />
	<path style="fill:none;stroke:red;stroke-width:1px;stroke-linecap:butt;stroke-linejoin:miter;stroke-opacity:1" d="M 584.589,205.86 567.287,196.248 z" id="boundary" inkscape:connector-curvature="0" />
	<path style="fill:none;stroke:red;stroke-width:1px;stroke-linecap:butt;stroke-linejoin:miter;stroke-opacity:1" d="M 486.543,428.868 486.543,409.643 z" id="boundary" inkscape:connector-curvature="0" />
	<path style="fill:none;stroke:red;stroke-width:1px;stroke-linecap:butt;stroke-linejoin:miter;stroke-opacity:1" d="M 496.155,380.806 486.543,409.643 z" id="boundary" inkscape:connector-curvature="0" />
	<path style="fill:none;stroke:red;stroke-width:1px;stroke-linecap:butt;stroke-linejoin:miter;stroke-opacity:1" d="M 496.155,361.581 496.155,380.806 z" id="boundary" inkscape:connector-curvature="0" />
	<path style="fill:none;stroke:red;stroke-width:1px;stroke-linecap:butt;stroke-linejoin:miter;stroke-opacity:1" d="M 486.543,428.868 476.93,457.705 z" id="boundary" inkscape:connector-curvature="0" />
	<path style="fill:none;stroke:red;stroke-width:1px;stroke-linecap:butt;stroke-linejoin:miter;stroke-opacity:1" d="M 476.93,457.705 476.93,476.93 z" id="boundary" inkscape:connector-curvature="0" />
	<path style="fill:none;stroke:red;stroke-width:1px;stroke-linecap:butt;stroke-linejoin:miter;stroke-opacity:1" d="M 476.93,476.93 467.318,496.155 z" id="boundary" inkscape:connector-curvature="0" />
	<path style="fill:none;stroke:red;stroke-width:1px;stroke-linecap:butt;stroke-linejoin:miter;stroke-opacity:1" d="M 467.318,515.38 467.318,496.155 z" id="boundary" inkscape:connector-curvature="0" />
	<path style="fill:none;stroke:red;stroke-width:1px;stroke-linecap:butt;stroke-linejoin:miter;stroke-opacity:1" d="M 505.767,323.132 515.38,303.907 z" id="boundary" inkscape:connector-curvature="0" />
	<path style="fill:none;stroke:red;stroke-width:1px;stroke-linecap:butt;stroke-linejoin:miter;stroke-opacity:1" d="M 515.38,303.907 534.605,303.907 z" id="boundary" inkscape:connector-curvature="0" />
	<path style="fill:none;stroke:red;stroke-width:1px;stroke-linecap:butt;stroke-linejoin:miter;stroke-opacity:1" d="M 553.829,307.752 534.605,303.907 z" id="boundary" inkscape:connector-curvature="0" />
	<path style="fill:none;stroke:red;stroke-width:1px;stroke-linecap:butt;stroke-linejoin:miter;stroke-opacity:1" d="M 496.155,361.581 505.767,342.357 z" id="boundary" inkscape:connector-curvature="0" />
	<path style="fill:none;stroke:red;stroke-width:1px;stroke-linecap:butt;stroke-linejoin:miter;stroke-opacity:1" d="M 505.767,323.132 505.767,342.357 z" id="boundary" inkscape:connector-curvature="0" />
	<path style="fill:none;stroke:red;stroke-width:1px;stroke-linecap:butt;stroke-linejoin:miter;stroke-opacity:1" d="M 553.829,307.752 571.132,317.364 z" id="boundary" inkscape:connector-curvature="0" />
	<path style="fill:none;stroke:red;stroke-width:1px;stroke-linecap:butt;stroke-linejoin:miter;stroke-opacity:1" d="M 599.969,219.318 611.504,234.698 z" id="boundary" inkscape:connector-curvature="0" />
	<path style="fill:none;stroke:red;stroke-width:1px;stroke-linecap:butt;stroke-linejoin:miter;stroke-opacity:1" d="M 599.969,219.318 584.589,205.86 z" id="boundary" inkscape:connector-curvature="0" />
	<path style="fill:none;stroke:red;stroke-width:1px;stroke-linecap:butt;stroke-linejoin:miter;stroke-opacity:1" d="M 649.953,280.837 636.496,265.457 z" id="boundary" inkscape:connector-curvature="0" />
	<path style="fill:none;stroke:red;stroke-width:1px;stroke-linecap:butt;stroke-linejoin:miter;stroke-opacity:1" d="M 611.504,234.698 621.116,252 z" id="boundary" inkscape:connector-curvature="0" />
	<path style="fill:none;stroke:red;stroke-width:1px;stroke-linecap:butt;stroke-linejoin:miter;stroke-opacity:1" d="M 586.512,330.822 571.132,317.364 z" id="boundary" inkscape:connector-curvature="0" />
	<path style="fill:none;stroke:red;stroke-width:1px;stroke-linecap:butt;stroke-linejoin:miter;stroke-opacity:1" d="M 621.116,252 636.496,265.457 z" id="boundary" inkscape:connector-curvature="0" />
	<path style="fill:none;stroke:red;stroke-width:1px;stroke-linecap:butt;stroke-linejoin:miter;stroke-opacity:1" d="M 673.023,313.519 659.566,298.14 z" id="boundary" inkscape:connector-curvature="0" />
	<path style="fill:none;stroke:red;stroke-width:1px;stroke-linecap:butt;stroke-linejoin:miter;stroke-opacity:1" d="M 659.566,298.14 649.953,280.837 z" id="boundary" inkscape:connector-curvature="0" />
	<path style="fill:none;stroke:red;stroke-width:1px;stroke-linecap:butt;stroke-linejoin:miter;stroke-opacity:1" d="M 673.023,313.519 682.636,330.822 z" id="boundary" inkscape:connector-curvature="0" />
	<path style="fill:none;stroke:red;stroke-width:1px;stroke-linecap:butt;stroke-linejoin:miter;stroke-opacity:1" d="M 699.938,340.434 682.636,330.822 z" id="boundary" inkscape:connector-curvature="0" />
	<path style="fill:none;stroke:red;stroke-width:1px;stroke-linecap:butt;stroke-linejoin:miter;stroke-opacity:1" d="M 719.163,340.434 738.388,340.434 z" id="boundary" inkscape:connector-curvature="0" />
	<path style="fill:none;stroke:red;stroke-width:1px;stroke-linecap:butt;stroke-linejoin:miter;stroke-opacity:1" d="M 719.163,340.434 699.938,340.434 z" id="boundary" inkscape:connector-curvature="0" />
	<path style="fill:none;stroke:red;stroke-width:1px;stroke-linecap:butt;stroke-linejoin:miter;stroke-opacity:1" d="M 757.612,340.434 738.388,340.434 z" id="boundary" inkscape:connector-curvature="0" />
	<path style="fill:none;stroke:red;stroke-width:1px;stroke-linecap:butt;stroke-linejoin:miter;stroke-opacity:1" d="M 594.202,350.047 609.581,361.581 z" id="boundary" inkscape:connector-curvature="0" />
	<path style="fill:none;stroke:red;stroke-width:1px;stroke-linecap:butt;stroke-linejoin:miter;stroke-opacity:1" d="M 609.581,361.581 621.116,376.961 z" id="boundary" inkscape:connector-curvature="0" />
	<path style="fill:none;stroke:red;stroke-width:1px;stroke-linecap:butt;stroke-linejoin:miter;stroke-opacity:1" d="M 636.496,390.419 621.116,376.961 z" id="boundary" inkscape:connector-curvature="0" />
	<path style="fill:none;stroke:red;stroke-width:1px;stroke-linecap:butt;stroke-linejoin:miter;stroke-opacity:1" d="M 636.496,390.419 649.953,405.798 z" id="boundary" inkscape:connector-curvature="0" />
	<path style="fill:none;stroke:red;stroke-width:1px;stroke-linecap:butt;stroke-linejoin:miter;stroke-opacity:1" d="M 669.178,409.643 649.953,405.798 z" id="boundary" inkscape:connector-curvature="0" />
	<path style="fill:none;stroke:red;stroke-width:1px;stroke-linecap:butt;stroke-linejoin:miter;stroke-opacity:1" d="M 669.178,409.643 688.403,413.488 z" id="boundary" inkscape:connector-curvature="0" />
	<path style="fill:none;stroke:red;stroke-width:1px;stroke-linecap:butt;stroke-linejoin:miter;stroke-opacity:1" d="M 594.202,350.047 586.512,330.822 z" id="boundary" inkscape:connector-curvature="0" />
	<path style="fill:none;stroke:red;stroke-width:1px;stroke-linecap:butt;stroke-linejoin:miter;stroke-opacity:1" d="M 772.992,353.891 780.682,373.116 z" id="boundary" inkscape:connector-curvature="0" />
	<path style="fill:none;stroke:red;stroke-width:1px;stroke-linecap:butt;stroke-linejoin:miter;stroke-opacity:1" d="M 780.682,373.116 761.457,396.186 z" id="boundary" inkscape:connector-curvature="0" />
	<path style="fill:none;stroke:red;stroke-width:1px;stroke-linecap:butt;stroke-linejoin:miter;stroke-opacity:1" d="M 707.628,419.256 724.93,409.643 z" id="boundary" inkscape:connector-curvature="0" />
	<path style="fill:none;stroke:red;stroke-width:1px;stroke-linecap:butt;stroke-linejoin:miter;stroke-opacity:1" d="M 707.628,419.256 688.403,413.488 z" id="boundary" inkscape:connector-curvature="0" />
	<path style="fill:none;stroke:red;stroke-width:1px;stroke-linecap:butt;stroke-linejoin:miter;stroke-opacity:1" d="M 742.233,400.031 761.457,396.186 z" id="boundary" inkscape:connector-curvature="0" />
	<path style="fill:none;stroke:red;stroke-width:1px;stroke-linecap:butt;stroke-linejoin:miter;stroke-opacity:1" d="M 724.93,409.643 742.233,400.031 z" id="boundary" inkscape:connector-curvature="0" />
	<path style="fill:none;stroke:red;stroke-width:1px;stroke-linecap:butt;stroke-linejoin:miter;stroke-opacity:1" d="M 757.612,340.434 772.992,353.891 z" id="boundary" inkscape:connector-curvature="0" />
	<path style="fill:none;stroke:red;stroke-width:1px;stroke-linecap:butt;stroke-linejoin:miter;stroke-opacity:1" d="M 467.318,515.38 467.318,534.605 z" id="boundary" inkscape:connector-curvature="0" />
	<path style="fill:none;stroke:red;stroke-width:1px;stroke-linecap:butt;stroke-linejoin:miter;stroke-opacity:1" d="M 467.318,534.605 457.705,553.829 z" id="boundary" inkscape:connector-curvature="0" />
	<path style="fill:none;stroke:red;stroke-width:1px;stroke-linecap:butt;stroke-linejoin:miter;stroke-opacity:1" d="M 467.318,571.132 457.705,553.829 z" id="boundary" inkscape:connector-curvature="0" />
	<path style="fill:none;stroke:red;stroke-width:1px;stroke-linecap:butt;stroke-linejoin:miter;stroke-opacity:1" d="M 476.93,607.659 486.543,624.961 z" id="boundary" inkscape:connector-curvature="0" />
	<path style="fill:none;stroke:red;stroke-width:1px;stroke-linecap:butt;stroke-linejoin:miter;stroke-opacity:1" d="M 476.93,588.434 467.318,571.132 z" id="boundary" inkscape:connector-curvature="0" />
	<path style="fill:none;stroke:red;stroke-width:1px;stroke-linecap:butt;stroke-linejoin:miter;stroke-opacity:1" d="M 476.93,588.434 476.93,607.659 z" id="boundary" inkscape:connector-curvature="0" />
	<path style="fill:none;stroke:red;stroke-width:1px;stroke-linecap:butt;stroke-linejoin:miter;stroke-opacity:1" d="M 500,640.341 486.543,624.961 z" id="boundary" inkscape:connector-curvature="0" />
	<path style="fill:none;stroke:red;stroke-width:1px;stroke-linecap:butt;stroke-linejoin:miter;stroke-opacity:1" d="M 500,640.341 509.612,657.643 z" id="boundary" inkscape:connector-curvature="0" />
	<path style="fill:none;stroke:red;stroke-width:1px;stroke-linecap:butt;stroke-linejoin:miter;stroke-opacity:1" d="M 434.636,698.016 419.256,684.558 z" id="boundary" inkscape:connector-curvature="0" />
	<path style="fill:none;stroke:red;stroke-width:1px;stroke-linecap:butt;stroke-linejoin:miter;stroke-opacity:1" d="M 509.612,657.643 523.07,673.023 z" id="boundary" inkscape:connector-curvature="0" />
	<path style="fill:none;stroke:red;stroke-width:1px;stroke-linecap:butt;stroke-linejoin:miter;stroke-opacity:1" d="M 523.07,673.023 532.682,690.326 z" id="boundary" inkscape:connector-curvature="0" />
	<path style="fill:none;stroke:red;stroke-width:1px;stroke-linecap:butt;stroke-linejoin:miter;stroke-opacity:1" d="M 553.829,724.93 540.372,709.55 z" id="boundary" inkscape:connector-curvature="0" />
	<path style="fill:none;stroke:red;stroke-width:1px;stroke-linecap:butt;stroke-linejoin:miter;stroke-opacity:1" d="M 540.372,709.55 532.682,690.326 z" id="boundary" inkscape:connector-curvature="0" />
	<path style="fill:none;stroke:red;stroke-width:1px;stroke-linecap:butt;stroke-linejoin:miter;stroke-opacity:1" d="M 457.705,730.698 471.163,746.078 z" id="boundary" inkscape:connector-curvature="0" />
	<path style="fill:none;stroke:red;stroke-width:1px;stroke-linecap:butt;stroke-linejoin:miter;stroke-opacity:1" d="M 442.326,717.24 434.636,698.016 z" id="boundary" inkscape:connector-curvature="0" />
	<path style="fill:none;stroke:red;stroke-width:1px;stroke-linecap:butt;stroke-linejoin:miter;stroke-opacity:1" d="M 457.705,730.698 442.326,717.24 z" id="boundary" inkscape:connector-curvature="0" />
	<path style="fill:none;stroke:red;stroke-width:1px;stroke-linecap:butt;stroke-linejoin:miter;stroke-opacity:1" d="M 509.612,792.217 494.233,778.76 z" id="boundary" inkscape:connector-curvature="0" />
	<path style="fill:none;stroke:red;stroke-width:1px;stroke-linecap:butt;stroke-linejoin:miter;stroke-opacity:1" d="M 494.233,778.76 484.62,761.457 z" id="boundary" inkscape:connector-curvature="0" />
	<path style="fill:none;stroke:red;stroke-width:1px;stroke-linecap:butt;stroke-linejoin:miter;stroke-opacity:1" d="M 471.163,746.078 484.62,761.457 z" id="boundary" inkscape:connector-curvature="0" />
	<path style="fill:none;stroke:red;stroke-width:1px;stroke-linecap:butt;stroke-linejoin:miter;stroke-opacity:1" d="M 523.07,807.597 509.612,792.217 z" id="boundary" inkscape:connector-curvature="0" />
	<path style="fill:none;stroke:red;stroke-width:1px;stroke-linecap:butt;stroke-linejoin:miter;stroke-opacity:1" d="M 553.829,724.93 563.442,742.233 z" id="boundary" inkscape:connector-curvature="0" />
	<path style="fill:none;stroke:red;stroke-width:1px;stroke-linecap:butt;stroke-linejoin:miter;stroke-opacity:1" d="M 578.822,755.69 563.442,742.233 z" id="boundary" inkscape:connector-curvature="0" />
	<path style="fill:none;stroke:red;stroke-width:1px;stroke-linecap:butt;stroke-linejoin:miter;stroke-opacity:1" d="M 532.682,824.899 523.07,807.597 z" id="boundary" inkscape:connector-curvature="0" />
	<path style="fill:none;stroke:red;stroke-width:1px;stroke-linecap:butt;stroke-linejoin:miter;stroke-opacity:1" d="M 546.14,840.279 532.682,824.899 z" id="boundary" inkscape:connector-curvature="0" />
	<path style="fill:none;stroke:red;stroke-width:1px;stroke-linecap:butt;stroke-linejoin:miter;stroke-opacity:1" d="M 561.519,851.814 567.287,871.039 z" id="boundary" inkscape:connector-curvature="0" />
	<path style="fill:none;stroke:red;stroke-width:1px;stroke-linecap:butt;stroke-linejoin:miter;stroke-opacity:1" d="M 546.14,840.279 561.519,851.814 z" id="boundary" inkscape:connector-curvature="0" />
	<path style="fill:none;stroke:red;stroke-width:1px;stroke-linecap:butt;stroke-linejoin:miter;stroke-opacity:1" d="M 601.891,788.372 586.512,774.915 z" id="boundary" inkscape:connector-curvature="0" />
	<path style="fill:none;stroke:red;stroke-width:1px;stroke-linecap:butt;stroke-linejoin:miter;stroke-opacity:1" d="M 586.512,774.915 578.822,755.69 z" id="boundary" inkscape:connector-curvature="0" />
	<path style="fill:none;stroke:red;stroke-width:1px;stroke-linecap:butt;stroke-linejoin:miter;stroke-opacity:1" d="M 601.891,788.372 609.581,807.597 z" id="boundary" inkscape:connector-curvature="0" />
	<path style="fill:none;stroke:red;stroke-width:1px;stroke-linecap:butt;stroke-linejoin:miter;stroke-opacity:1" d="M 596.124,899.876 582.667,884.496 z" id="boundary" inkscape:connector-curvature="0" />
	<path style="fill:none;stroke:red;stroke-width:1px;stroke-linecap:butt;stroke-linejoin:miter;stroke-opacity:1" d="M 609.581,807.597 624.961,821.054 z" id="boundary" inkscape:connector-curvature="0" />
	<path style="fill:none;stroke:red;stroke-width:1px;stroke-linecap:butt;stroke-linejoin:miter;stroke-opacity:1" d="M 582.667,884.496 567.287,871.039 z" id="boundary" inkscape:connector-curvature="0" />
	<path style="fill:none;stroke:red;stroke-width:1px;stroke-linecap:butt;stroke-linejoin:miter;stroke-opacity:1" d="M 646.109,851.814 630.729,840.279 z" id="boundary" inkscape:connector-curvature="0" />
	<path style="fill:none;stroke:red;stroke-width:1px;stroke-linecap:butt;stroke-linejoin:miter;stroke-opacity:1" d="M 630.729,840.279 624.961,821.054 z" id="boundary" inkscape:connector-curvature="0" />
	<path style="fill:none;stroke:red;stroke-width:1px;stroke-linecap:butt;stroke-linejoin:miter;stroke-opacity:1" d="M 659.566,867.194 646.109,851.814 z" id="boundary" inkscape:connector-curvature="0" />
	<path style="fill:none;stroke:red;stroke-width:1px;stroke-linecap:butt;stroke-linejoin:miter;stroke-opacity:1" d="M 613.426,909.488 596.124,899.876 z" id="boundary" inkscape:connector-curvature="0" />
	<path style="fill:none;stroke:red;stroke-width:1px;stroke-linecap:butt;stroke-linejoin:miter;stroke-opacity:1" d="M 659.566,867.194 669.178,884.496 z" id="boundary" inkscape:connector-curvature="0" />
	<path style="fill:none;stroke:red;stroke-width:1px;stroke-linecap:butt;stroke-linejoin:miter;stroke-opacity:1" d="M 628.806,921.023 613.426,909.488 z" id="boundary" inkscape:connector-curvature="0" />
	<path style="fill:none;stroke:red;stroke-width:1px;stroke-linecap:butt;stroke-linejoin:miter;stroke-opacity:1" d="M 686.481,894.109 669.178,884.496 z" id="boundary" inkscape:connector-curvature="0" />
	<path style="fill:none;stroke:red;stroke-width:1px;stroke-linecap:butt;stroke-linejoin:miter;stroke-opacity:1" d="M 648.031,928.713 628.806,921.023 z" id="boundary" inkscape:connector-curvature="0" />
	<path style="fill:none;stroke:red;stroke-width:1px;stroke-linecap:butt;stroke-linejoin:miter;stroke-opacity:1" d="M 686.481,894.109 696.093,911.411 z" id="boundary" inkscape:connector-curvature="0" />
	<path style="fill:none;stroke:red;stroke-width:1px;stroke-linecap:butt;stroke-linejoin:miter;stroke-opacity:1" d="M 707.628,926.791 696.093,911.411 z" id="boundary" inkscape:connector-curvature="0" />
	<path style="fill:none;stroke:red;stroke-width:1px;stroke-linecap:butt;stroke-linejoin:miter;stroke-opacity:1" d="M 726.853,926.791 707.628,926.791 z" id="boundary" inkscape:connector-curvature="0" />
	<path style="fill:none;stroke:red;stroke-width:1px;stroke-linecap:butt;stroke-linejoin:miter;stroke-opacity:1" d="M 648.031,928.713 665.333,938.326 z" id="boundary" inkscape:connector-curvature="0" />
	<path style="fill:none;stroke:red;stroke-width:1px;stroke-linecap:butt;stroke-linejoin:miter;stroke-opacity:1" d="M 682.636,947.938 701.86,955.628 z" id="boundary" inkscape:connector-curvature="0" />
	<path style="fill:none;stroke:red;stroke-width:1px;stroke-linecap:butt;stroke-linejoin:miter;stroke-opacity:1" d="M 701.86,955.628 719.163,965.24 z" id="boundary" inkscape:connector-curvature="0" />
	<path style="fill:none;stroke:red;stroke-width:1px;stroke-linecap:butt;stroke-linejoin:miter;stroke-opacity:1" d="M 682.636,947.938 665.333,938.326 z" id="boundary" inkscape:connector-curvature="0" />
	<path style="fill:none;stroke:red;stroke-width:1px;stroke-linecap:butt;stroke-linejoin:miter;stroke-opacity:1" d="M 759.535,947.938 742.233,938.326 z" id="boundary" inkscape:connector-curvature="0" />
	<path style="fill:none;stroke:red;stroke-width:1px;stroke-linecap:butt;stroke-linejoin:miter;stroke-opacity:1" d="M 742.233,938.326 726.853,926.791 z" id="boundary" inkscape:connector-curvature="0" />
	<path style="fill:none;stroke:red;stroke-width:1px;stroke-linecap:butt;stroke-linejoin:miter;stroke-opacity:1" d="M 719.163,965.24 738.388,972.93 z" id="boundary" inkscape:connector-curvature="0" />
	<path style="fill:none;stroke:red;stroke-width:1px;stroke-linecap:butt;stroke-linejoin:miter;stroke-opacity:1" d="M 757.612,976.775 738.388,972.93 z" id="boundary" inkscape:connector-curvature="0" />
	<path style="fill:none;stroke:red;stroke-width:1px;stroke-linecap:butt;stroke-linejoin:miter;stroke-opacity:1" d="M 774.915,961.395 757.612,976.775 z" id="boundary" inkscape:connector-curvature="0" />
	<path style="fill:none;stroke:red;stroke-width:1px;stroke-linecap:butt;stroke-linejoin:miter;stroke-opacity:1" d="M 759.535,947.938 774.915,961.395 z" id="boundary" inkscape:connector-curvature="0" />
	<circle cx="4" cy="432.713" r="4" fill="#0" id="circle0"/>
	<circle cx="13.6124" cy="413.488" r="4" fill="#0" id="circle1"/>
	<circle cx="19.3798" cy="446.171" r="4" fill="#0" id="circle2"/>
	<circle cx="23.2248" cy="394.264" r="4" fill="#0" id="circle3"/>
	<circle cx="34.7597" cy="457.705" r="4" fill="#0" id="circle4"/>
	<circle cx="38.6047" cy="378.884" r="4" fill="#0" id="circle5"/>
	<circle cx="48.2171" cy="359.659" r="4" fill="#0" id="circle6"/>
	<circle cx="50.1395" cy="444.248" r="4" fill="#0" id="circle7"/>
	<circle cx="63.5969" cy="344.279" r="4" fill="#0" id="circle8"/>
	<circle cx="63.5969" cy="428.868" r="4" fill="#0" id="circle9"/>
	<circle cx="73.2093" cy="325.054" r="4" fill="#0" id="circle10"/>
	<circle cx="78.9767" cy="415.411" r="4" fill="#0" id="circle11"/>
	<circle cx="88.5891" cy="311.597" r="4" fill="#0" id="circle12"/>
	<circle cx="96.2791" cy="292.372" r="4" fill="#0" id="circle13"/>
	<circle cx="98.2016" cy="405.798" r="4" fill="#0" id="circle14"/>
	<circle cx="111.659" cy="276.992" r="4" fill="#0" id="circle15"/>
	<circle cx="111.659" cy="390.419" r="4" fill="#0" id="circle16"/>
	<circle cx="121.271" cy="257.767" r="4" fill="#0" id="circle17"/>
	<circle cx="127.039" cy="376.961" r="4" fill="#0" id="circle18"/>
	<circle cx="128.961" cy="846.047" r="4" fill="#0" id="circle19"/>
	<circle cx="128.961" cy="865.271" r="4" fill="#0" id="circle20"/>
	<circle cx="128.961" cy="884.496" r="4" fill="#0" id="circle21"/>
	<circle cx="128.961" cy="903.721" r="4" fill="#0" id="circle22"/>
	<circle cx="128.961" cy="922.946" r="4" fill="#0" id="circle23"/>
	<circle cx="128.961" cy="942.171" r="4" fill="#0" id="circle24"/>
	<circle cx="130.884" cy="238.543" r="4" fill="#0" id="circle25"/>
	<circle cx="138.574" cy="826.822" r="4" fill="#0" id="circle26"/>
	<circle cx="138.574" cy="959.473" r="4" fill="#0" id="circle27"/>
	<circle cx="140.496" cy="361.581" r="4" fill="#0" id="circle28"/>
	<circle cx="146.264" cy="225.085" r="4" fill="#0" id="circle29"/>
	<circle cx="148.186" cy="807.597" r="4" fill="#0" id="circle30"/>
	<circle cx="148.186" cy="976.775" r="4" fill="#0" id="circle31"/>
	<circle cx="155.876" cy="348.124" r="4" fill="#0" id="circle32"/>
	<circle cx="157.798" cy="788.372" r="4" fill="#0" id="circle33"/>
	<circle cx="163.566" cy="215.473" r="4" fill="#0" id="circle34"/>
	<circle cx="165.488" cy="328.899" r="4" fill="#0" id="circle35"/>
	<circle cx="165.488" cy="986.388" r="4" fill="#0" id="circle36"/>
	<circle cx="167.411" cy="769.147" r="4" fill="#0" id="circle37"/>
	<circle cx="178.946" cy="200.093" r="4" fill="#0" id="circle38"/>
	<circle cx="182.791" cy="753.767" r="4" fill="#0" id="circle39"/>
	<circle cx="182.791" cy="996" r="4" fill="#0" id="circle40"/>
	<circle cx="184.713" cy="319.287" r="4" fill="#0" id="circle41"/>
	<circle cx="192.403" cy="734.543" r="4" fill="#0" id="circle42"/>
	<circle cx="194.326" cy="186.636" r="4" fill="#0" id="circle43"/>
	<circle cx="198.171" cy="303.907" r="4" fill="#0" id="circle44"/>
	<circle cx="202.016" cy="715.318" r="4" fill="#0" id="circle45"/>
	<circle cx="202.016" cy="994.078" r="4" fill="#0" id="circle46"/>
	<circle cx="207.783" cy="890.264" r="4" fill="#0" id="circle47"/>
	<circle cx="207.783" cy="909.488" r="4" fill="#0" id="circle48"/>
	<circle cx="207.783" cy="928.713" r="4" fill="#0" id="circle49"/>
	<circle cx="213.55" cy="186.636" r="4" fill="#0" id="circle50"/>
	<circle cx="215.473" cy="692.248" r="4" fill="#0" id="circle51"/>
	<circle cx="217.395" cy="303.907" r="4" fill="#0" id="circle52"/>
	<circle cx="217.395" cy="861.426" r="4" fill="#0" id="circle53"/>
	<circle cx="217.395" cy="946.016" r="4" fill="#0" id="circle54"/>
	<circle cx="217.395" cy="965.24" r="4" fill="#0" id="circle55"/>
	<circle cx="230.853" cy="177.023" r="4" fill="#0" id="circle56"/>
	<circle cx="230.853" cy="676.868" r="4" fill="#0" id="circle57"/>
	<circle cx="232.775" cy="847.969" r="4" fill="#0" id="circle58"/>
	<circle cx="234.698" cy="313.519" r="4" fill="#0" id="circle59"/>
	<circle cx="240.465" cy="332.744" r="4" fill="#0" id="circle60"/>
	<circle cx="240.465" cy="657.643" r="4" fill="#0" id="circle61"/>
	<circle cx="244.31" cy="351.969" r="4" fill="#0" id="circle62"/>
	<circle cx="246.233" cy="822.977" r="4" fill="#0" id="circle63"/>
	<circle cx="250.078" cy="177.023" r="4" fill="#0" id="circle64"/>
	<circle cx="253.922" cy="369.271" r="4" fill="#0" id="circle65"/>
	<circle cx="253.922" cy="634.574" r="4" fill="#0" id="circle66"/>
	<circle cx="257.767" cy="388.496" r="4" fill="#0" id="circle67"/>
	<circle cx="261.612" cy="809.519" r="4" fill="#0" id="circle68"/>
	<circle cx="263.535" cy="407.721" r="4" fill="#0" id="circle69"/>
	<circle cx="263.535" cy="615.349" r="4" fill="#0" id="circle70"/>
	<circle cx="269.302" cy="177.023" r="4" fill="#0" id="circle71"/>
	<circle cx="273.147" cy="425.023" r="4" fill="#0" id="circle72"/>
	<circle cx="273.147" cy="444.248" r="4" fill="#0" id="circle73"/>
	<circle cx="273.147" cy="586.512" r="4" fill="#0" id="circle74"/>
	<circle cx="275.07" cy="784.527" r="4" fill="#0" id="circle75"/>
	<circle cx="282.76" cy="461.55" r="4" fill="#0" id="circle76"/>
	<circle cx="282.76" cy="480.775" r="4" fill="#0" id="circle77"/>
	<circle cx="282.76" cy="567.287" r="4" fill="#0" id="circle78"/>
	<circle cx="288.527" cy="167.411" r="4" fill="#0" id="circle79"/>
	<circle cx="290.45" cy="771.07" r="4" fill="#0" id="circle80"/>
	<circle cx="292.372" cy="86.6667" r="4" fill="#0" id="circle81"/>
	<circle cx="292.372" cy="105.891" r="4" fill="#0" id="circle82"/>
	<circle cx="292.372" cy="498.078" r="4" fill="#0" id="circle83"/>
	<circle cx="292.372" cy="517.302" r="4" fill="#0" id="circle84"/>
	<circle cx="292.372" cy="536.527" r="4" fill="#0" id="circle85"/>
	<circle cx="301.984" cy="57.8295" r="4" fill="#0" id="circle86"/>
	<circle cx="301.984" cy="123.194" r="4" fill="#0" id="circle87"/>
	<circle cx="301.984" cy="142.419" r="4" fill="#0" id="circle88"/>
	<circle cx="303.907" cy="755.69" r="4" fill="#0" id="circle89"/>
	<circle cx="313.519" cy="736.465" r="4" fill="#0" id="circle90"/>
	<circle cx="317.364" cy="42.4496" r="4" fill="#0" id="circle91"/>
	<circle cx="328.899" cy="723.008" r="4" fill="#0" id="circle92"/>
	<circle cx="332.744" cy="27.0698" r="4" fill="#0" id="circle93"/>
	<circle cx="338.512" cy="703.783" r="4" fill="#0" id="circle94"/>
	<circle cx="348.124" cy="13.6124" r="4" fill="#0" id="circle95"/>
	<circle cx="351.969" cy="688.403" r="4" fill="#0" id="circle96"/>
	<circle cx="365.426" cy="4" r="4" fill="#0" id="circle97"/>
	<circle cx="367.349" cy="674.946" r="4" fill="#0" id="circle98"/>
	<circle cx="384.651" cy="4" r="4" fill="#0" id="circle99"/>
	<circle cx="386.574" cy="665.333" r="4" fill="#0" id="circle100"/>
	<circle cx="401.953" cy="13.6124" r="4" fill="#0" id="circle101"/>
	<circle cx="405.798" cy="669.178" r="4" fill="#0" id="circle102"/>
	<circle cx="419.256" cy="23.2248" r="4" fill="#0" id="circle103"/>
	<circle cx="419.256" cy="684.558" r="4" fill="#0" id="circle104"/>
	<circle cx="428.868" cy="40.5271" r="4" fill="#0" id="circle105"/>
	<circle cx="434.636" cy="698.016" r="4" fill="#0" id="circle106"/>
	<circle cx="442.326" cy="717.24" r="4" fill="#0" id="circle107"/>
	<circle cx="444.248" cy="53.9845" r="4" fill="#0" id="circle108"/>
	<circle cx="448.093" cy="73.2093" r="4" fill="#0" id="circle109"/>
	<circle cx="448.093" cy="130.884" r="4" fill="#0" id="circle110"/>
	<circle cx="448.093" cy="150.109" r="4" fill="#0" id="circle111"/>
	<circle cx="457.705" cy="90.5116" r="4" fill="#0" id="circle112"/>
	<circle cx="457.705" cy="109.736" r="4" fill="#0" id="circle113"/>
	<circle cx="457.705" cy="167.411" r="4" fill="#0" id="circle114"/>
	<circle cx="457.705" cy="553.829" r="4" fill="#0" id="circle115"/>
	<circle cx="457.705" cy="730.698" r="4" fill="#0" id="circle116"/>
	<circle cx="467.318" cy="496.155" r="4" fill="#0" id="circle117"/>
	<circle cx="467.318" cy="515.38" r="4" fill="#0" id="circle118"/>
	<circle cx="467.318" cy="534.605" r="4" fill="#0" id="circle119"/>
	<circle cx="467.318" cy="571.132" r="4" fill="#0" id="circle120"/>
	<circle cx="471.163" cy="746.078" r="4" fill="#0" id="circle121"/>
	<circle cx="475.008" cy="177.023" r="4" fill="#0" id="circle122"/>
	<circle cx="476.93" cy="457.705" r="4" fill="#0" id="circle123"/>
	<circle cx="476.93" cy="476.93" r="4" fill="#0" id="circle124"/>
	<circle cx="476.93" cy="588.434" r="4" fill="#0" id="circle125"/>
	<circle cx="476.93" cy="607.659" r="4" fill="#0" id="circle126"/>
	<circle cx="484.62" cy="761.457" r="4" fill="#0" id="circle127"/>
	<circle cx="486.543" cy="409.643" r="4" fill="#0" id="circle128"/>
	<circle cx="486.543" cy="428.868" r="4" fill="#0" id="circle129"/>
	<circle cx="486.543" cy="624.961" r="4" fill="#0" id="circle130"/>
	<circle cx="494.233" cy="177.023" r="4" fill="#0" id="circle131"/>
	<circle cx="494.233" cy="778.76" r="4" fill="#0" id="circle132"/>
	<circle cx="496.155" cy="361.581" r="4" fill="#0" id="circle133"/>
	<circle cx="496.155" cy="380.806" r="4" fill="#0" id="circle134"/>
	<circle cx="500" cy="640.341" r="4" fill="#0" id="circle135"/>
	<circle cx="505.767" cy="323.132" r="4" fill="#0" id="circle136"/>
	<circle cx="505.767" cy="342.357" r="4" fill="#0" id="circle137"/>
	<circle cx="509.612" cy="657.643" r="4" fill="#0" id="circle138"/>
	<circle cx="509.612" cy="792.217" r="4" fill="#0" id="circle139"/>
	<circle cx="513.457" cy="177.023" r="4" fill="#0" id="circle140"/>
	<circle cx="515.38" cy="303.907" r="4" fill="#0" id="circle141"/>
	<circle cx="523.07" cy="673.023" r="4" fill="#0" id="circle142"/>
	<circle cx="523.07" cy="807.597" r="4" fill="#0" id="circle143"/>
	<circle cx="532.682" cy="177.023" r="4" fill="#0" id="circle144"/>
	<circle cx="532.682" cy="690.326" r="4" fill="#0" id="circle145"/>
	<circle cx="532.682" cy="824.899" r="4" fill="#0" id="circle146"/>
	<circle cx="534.605" cy="303.907" r="4" fill="#0" id="circle147"/>
	<circle cx="540.372" cy="709.55" r="4" fill="#0" id="circle148"/>
	<circle cx="546.14" cy="840.279" r="4" fill="#0" id="circle149"/>
	<circle cx="549.984" cy="186.636" r="4" fill="#0" id="circle150"/>
	<circle cx="553.829" cy="307.752" r="4" fill="#0" id="circle151"/>
	<circle cx="553.829" cy="724.93" r="4" fill="#0" id="circle152"/>
	<circle cx="561.519" cy="851.814" r="4" fill="#0" id="circle153"/>
	<circle cx="563.442" cy="742.233" r="4" fill="#0" id="circle154"/>
	<circle cx="567.287" cy="196.248" r="4" fill="#0" id="circle155"/>
	<circle cx="567.287" cy="871.039" r="4" fill="#0" id="circle156"/>
	<circle cx="571.132" cy="317.364" r="4" fill="#0" id="circle157"/>
	<circle cx="578.822" cy="755.69" r="4" fill="#0" id="circle158"/>
	<circle cx="582.667" cy="884.496" r="4" fill="#0" id="circle159"/>
	<circle cx="584.589" cy="205.86" r="4" fill="#0" id="circle160"/>
	<circle cx="586.512" cy="330.822" r="4" fill="#0" id="circle161"/>
	<circle cx="586.512" cy="774.915" r="4" fill="#0" id="circle162"/>
	<circle cx="594.202" cy="350.047" r="4" fill="#0" id="circle163"/>
	<circle cx="596.124" cy="899.876" r="4" fill="#0" id="circle164"/>
	<circle cx="599.969" cy="219.318" r="4" fill="#0" id="circle165"/>
	<circle cx="601.891" cy="788.372" r="4" fill="#0" id="circle166"/>
	<circle cx="609.581" cy="361.581" r="4" fill="#0" id="circle167"/>
	<circle cx="609.581" cy="807.597" r="4" fill="#0" id="circle168"/>
	<circle cx="611.504" cy="234.698" r="4" fill="#0" id="circle169"/>
	<circle cx="613.426" cy="909.488" r="4" fill="#0" id="circle170"/>
	<circle cx="621.116" cy="252" r="4" fill="#0" id="circle171"/>
	<circle cx="621.116" cy="376.961" r="4" fill="#0" id="circle172"/>
	<circle cx="624.961" cy="821.054" r="4" fill="#0" id="circle173"/>
	<circle cx="628.806" cy="921.023" r="4" fill="#0" id="circle174"/>
	<circle cx="630.729" cy="840.279" r="4" fill="#0" id="circle175"/>
	<circle cx="636.496" cy="265.457" r="4" fill="#0" id="circle176"/>
	<circle cx="636.496" cy="390.419" r="4" fill="#0" id="circle177"/>
	<circle cx="646.109" cy="851.814" r="4" fill="#0" id="circle178"/>
	<circle cx="648.031" cy="928.713" r="4" fill="#0" id="circle179"/>
	<circle cx="649.953" cy="280.837" r="4" fill="#0" id="circle180"/>
	<circle cx="649.953" cy="405.798" r="4" fill="#0" id="circle181"/>
	<circle cx="659.566" cy="298.14" r="4" fill="#0" id="circle182"/>
	<circle cx="659.566" cy="867.194" r="4" fill="#0" id="circle183"/>
	<circle cx="665.333" cy="938.326" r="4" fill="#0" id="circle184"/>
	<circle cx="669.178" cy="409.643" r="4" fill="#0" id="circle185"/>
	<circle cx="669.178" cy="884.496" r="4" fill="#0" id="circle186"/>
	<circle cx="673.023" cy="313.519" r="4" fill="#0" id="circle187"/>
	<circle cx="682.636" cy="330.822" r="4" fill="#0" id="circle188"/>
	<circle cx="682.636" cy="947.938" r="4" fill="#0" id="circle189"/>
	<circle cx="686.481" cy="894.109" r="4" fill="#0" id="circle190"/>
	<circle cx="688.403" cy="413.488" r="4" fill="#0" id="circle191"/>
	<circle cx="696.093" cy="911.411" r="4" fill="#0" id="circle192"/>
	<circle cx="699.938" cy="340.434" r="4" fill="#0" id="circle193"/>
	<circle cx="701.86" cy="955.628" r="4" fill="#0" id="circle194"/>
	<circle cx="707.628" cy="419.256" r="4" fill="#0" id="circle195"/>
	<circle cx="707.628" cy="926.791" r="4" fill="#0" id="circle196"/>
	<circle cx="719.163" cy="340.434" r="4" fill="#0" id="circle197"/>
	<circle cx="719.163" cy="965.24" r="4" fill="#0" id="circle198"/>
	<circle cx="724.93" cy="409.643" r="4" fill="#0" id="circle199"/>
	<circle cx="726.853" cy="926.791" r="4" fill="#0" id="circle200"/>
	<circle cx="738.388" cy="340.434" r="4" fill="#0" id="circle201"/>
	<circle cx="738.388" cy="972.93" r="4" fill="#0" id="circle202"/>
	<circle cx="742.233" cy="400.031" r="4" fill="#0" id="circle203"/>
	<circle cx="742.233" cy="938.326" r="4" fill="#0" id="circle204"/>
	<circle cx="757.612" cy="340.434" r="4" fill="#0" id="circle205"/>
	<circle cx="757.612" cy="976.775" r="4" fill="#0" id="circle206"/>
	<circle cx="759.535" cy="947.938" r="4" fill="#0" id="circle207"/>
	<circle cx="761.457" cy="396.186" r="4" fill="#0" id="circle208"/>
	<circle cx="772.992" cy="353.891" r="4" fill="#0" id="circle209"/>
	<circle cx="774.915" cy="961.395" r="4" fill="#0" id="circle210"/>
	<circle cx="780.682" cy="373.116" r="4" fill="#0" id="circle211"/>
	</g>
</svg>