<?xml version="1.0" encoding="UTF-8" standalone="no"?>
<!-- Created with CurveBenchmark -->
<svg
	xmlns:dc="http://purl.org/dc/elements/1.1/"
	xmlns:cc="http://creativecommons.org/ns#"
	xmlns:rdf="http://www.w3.org/1999/02/22-rdf-syntax-ns#"
	xmlns:svg="http://www.w3.org/2000/svg"
	xmlns="http://www.w3.org/2000/svg"
	xmlns:sodipodi="http://sodipodi.sourceforge.net/DTD/sodipodi-0.dtd"
	xmlns:inkscape="http://www.inkscape.org/namespaces/inkscape"
	width="1000"
	height="1000"
	id="svg2"
	version="1.1"
	sodipodi:docname="manifold/nncrust-fgen2ep.png.txt">
<defs
	id="defs4" />
<metadata
	id="metadata7">
	<rdf:RDF>
		<cc:Work
			rdf:about="">
			<dc:format>image/svg+xml</dc:format>
			<dc:type
				rdf:resource="http://purl.org/dc/dcmitype/StillImage" />
			<dc:title></dc:title>
		</cc:Work>
	</rdf:RDF>
</metadata>
<g
	inkscape:label="Layer 1"
	inkscape:groupmode="layer"
	id="layer1">
	<path style="fill:none;stroke:red;stroke-width:1px;stroke-linecap:butt;stroke-linejoin:miter;stroke-opacity:1" d="M 47.9615,153.087 67.0751,143.53 z" id="boundary" inkscape:connector-curvature="0" />
	<path style="fill:none;stroke:red;stroke-width:1px;stroke-linecap:butt;stroke-linejoin:miter;stroke-opacity:1" d="M 86.1888,133.973 67.0751,143.53 z" id="boundary" inkscape:connector-curvature="0" />
	<path style="fill:none;stroke:red;stroke-width:1px;stroke-linecap:butt;stroke-linejoin:miter;stroke-opacity:1" d="M 32.6705,187.491 32.6705,168.378 z" id="boundary" inkscape:connector-curvature="0" />
	<path style="fill:none;stroke:red;stroke-width:1px;stroke-linecap:butt;stroke-linejoin:miter;stroke-opacity:1" d="M 32.6705,168.378 47.9615,153.087 z" id="boundary" inkscape:connector-curvature="0" />
	<path style="fill:none;stroke:red;stroke-width:1px;stroke-linecap:butt;stroke-linejoin:miter;stroke-opacity:1" d="M 105.303,124.416 124.416,124.416 z" id="boundary" inkscape:connector-curvature="0" />
	<path style="fill:none;stroke:red;stroke-width:1px;stroke-linecap:butt;stroke-linejoin:miter;stroke-opacity:1" d="M 82.3661,202.782 99.5684,193.225 z" id="boundary" inkscape:connector-curvature="0" />
	<path style="fill:none;stroke:red;stroke-width:1px;stroke-linecap:butt;stroke-linejoin:miter;stroke-opacity:1" d="M 118.682,187.491 99.5684,193.225 z" id="boundary" inkscape:connector-curvature="0" />
	<path style="fill:none;stroke:red;stroke-width:1px;stroke-linecap:butt;stroke-linejoin:miter;stroke-opacity:1" d="M 137.796,183.669 118.682,187.491 z" id="boundary" inkscape:connector-curvature="0" />
	<path style="fill:none;stroke:red;stroke-width:1px;stroke-linecap:butt;stroke-linejoin:miter;stroke-opacity:1" d="M 124.416,124.416 143.53,124.416 z" id="boundary" inkscape:connector-curvature="0" />
	<path style="fill:none;stroke:red;stroke-width:1px;stroke-linecap:butt;stroke-linejoin:miter;stroke-opacity:1" d="M 86.1888,133.973 105.303,124.416 z" id="boundary" inkscape:connector-curvature="0" />
	<path style="fill:none;stroke:red;stroke-width:1px;stroke-linecap:butt;stroke-linejoin:miter;stroke-opacity:1" d="M 44.1387,202.782 63.2524,202.782 z" id="boundary" inkscape:connector-curvature="0" />
	<path style="fill:none;stroke:red;stroke-width:1px;stroke-linecap:butt;stroke-linejoin:miter;stroke-opacity:1" d="M 44.1387,202.782 32.6705,187.491 z" id="boundary" inkscape:connector-curvature="0" />
	<path style="fill:none;stroke:red;stroke-width:1px;stroke-linecap:butt;stroke-linejoin:miter;stroke-opacity:1" d="M 118.682,349.958 118.682,369.071 z" id="boundary" inkscape:connector-curvature="0" />
	<path style="fill:none;stroke:red;stroke-width:1px;stroke-linecap:butt;stroke-linejoin:miter;stroke-opacity:1" d="M 118.682,349.958 133.973,334.667 z" id="boundary" inkscape:connector-curvature="0" />
	<path style="fill:none;stroke:red;stroke-width:1px;stroke-linecap:butt;stroke-linejoin:miter;stroke-opacity:1" d="M 143.53,315.553 133.973,334.667 z" id="boundary" inkscape:connector-curvature="0" />
	<path style="fill:none;stroke:red;stroke-width:1px;stroke-linecap:butt;stroke-linejoin:miter;stroke-opacity:1" d="M 82.3661,202.782 63.2524,202.782 z" id="boundary" inkscape:connector-curvature="0" />
	<path style="fill:none;stroke:red;stroke-width:1px;stroke-linecap:butt;stroke-linejoin:miter;stroke-opacity:1" d="M 128.239,386.274 147.353,393.919 z" id="boundary" inkscape:connector-curvature="0" />
	<path style="fill:none;stroke:red;stroke-width:1px;stroke-linecap:butt;stroke-linejoin:miter;stroke-opacity:1" d="M 147.353,393.919 137.796,426.412 z" id="boundary" inkscape:connector-curvature="0" />
	<path style="fill:none;stroke:red;stroke-width:1px;stroke-linecap:butt;stroke-linejoin:miter;stroke-opacity:1" d="M 118.682,369.071 128.239,386.274 z" id="boundary" inkscape:connector-curvature="0" />
	<path style="fill:none;stroke:red;stroke-width:1px;stroke-linecap:butt;stroke-linejoin:miter;stroke-opacity:1" d="M 118.682,483.753 118.682,464.64 z" id="boundary" inkscape:connector-curvature="0" />
	<path style="fill:none;stroke:red;stroke-width:1px;stroke-linecap:butt;stroke-linejoin:miter;stroke-opacity:1" d="M 118.682,464.64 128.239,445.526 z" id="boundary" inkscape:connector-curvature="0" />
	<path style="fill:none;stroke:red;stroke-width:1px;stroke-linecap:butt;stroke-linejoin:miter;stroke-opacity:1" d="M 137.796,426.412 128.239,445.526 z" id="boundary" inkscape:connector-curvature="0" />
	<path style="fill:none;stroke:red;stroke-width:1px;stroke-linecap:butt;stroke-linejoin:miter;stroke-opacity:1" d="M 137.796,183.669 147.353,216.162 z" id="boundary" inkscape:connector-curvature="0" />
	<path style="fill:none;stroke:red;stroke-width:1px;stroke-linecap:butt;stroke-linejoin:miter;stroke-opacity:1" d="M 250.566,38.4046 269.68,38.4046 z" id="boundary" inkscape:connector-curvature="0" />
	<path style="fill:none;stroke:red;stroke-width:1px;stroke-linecap:butt;stroke-linejoin:miter;stroke-opacity:1" d="M 235.276,51.7842 250.566,38.4046 z" id="boundary" inkscape:connector-curvature="0" />
	<path style="fill:none;stroke:red;stroke-width:1px;stroke-linecap:butt;stroke-linejoin:miter;stroke-opacity:1" d="M 283.06,23.1137 269.68,38.4046 z" id="boundary" inkscape:connector-curvature="0" />
	<path style="fill:none;stroke:red;stroke-width:1px;stroke-linecap:butt;stroke-linejoin:miter;stroke-opacity:1" d="M 235.276,51.7842 221.896,67.0751 z" id="boundary" inkscape:connector-curvature="0" />
	<path style="fill:none;stroke:red;stroke-width:1px;stroke-linecap:butt;stroke-linejoin:miter;stroke-opacity:1" d="M 221.896,67.0751 206.605,80.4547 z" id="boundary" inkscape:connector-curvature="0" />
	<path style="fill:none;stroke:red;stroke-width:1px;stroke-linecap:butt;stroke-linejoin:miter;stroke-opacity:1" d="M 206.605,80.4547 191.314,95.7457 z" id="boundary" inkscape:connector-curvature="0" />
	<path style="fill:none;stroke:red;stroke-width:1px;stroke-linecap:butt;stroke-linejoin:miter;stroke-opacity:1" d="M 357.603,4 338.489,9.7341 z" id="boundary" inkscape:connector-curvature="0" />
	<path style="fill:none;stroke:red;stroke-width:1px;stroke-linecap:butt;stroke-linejoin:miter;stroke-opacity:1" d="M 338.489,9.7341 319.376,9.7341 z" id="boundary" inkscape:connector-curvature="0" />
	<path style="fill:none;stroke:red;stroke-width:1px;stroke-linecap:butt;stroke-linejoin:miter;stroke-opacity:1" d="M 319.376,9.7341 302.173,19.2909 z" id="boundary" inkscape:connector-curvature="0" />
	<path style="fill:none;stroke:red;stroke-width:1px;stroke-linecap:butt;stroke-linejoin:miter;stroke-opacity:1" d="M 302.173,19.2909 283.06,23.1137 z" id="boundary" inkscape:connector-curvature="0" />
	<path style="fill:none;stroke:red;stroke-width:1px;stroke-linecap:butt;stroke-linejoin:miter;stroke-opacity:1" d="M 143.53,315.553 153.087,296.439 z" id="boundary" inkscape:connector-curvature="0" />
	<path style="fill:none;stroke:red;stroke-width:1px;stroke-linecap:butt;stroke-linejoin:miter;stroke-opacity:1" d="M 153.087,296.439 162.644,277.326 z" id="boundary" inkscape:connector-curvature="0" />
	<path style="fill:none;stroke:red;stroke-width:1px;stroke-linecap:butt;stroke-linejoin:miter;stroke-opacity:1" d="M 143.53,124.416 162.644,114.859 z" id="boundary" inkscape:connector-curvature="0" />
	<path style="fill:none;stroke:red;stroke-width:1px;stroke-linecap:butt;stroke-linejoin:miter;stroke-opacity:1" d="M 191.314,95.7457 181.757,114.859 z" id="boundary" inkscape:connector-curvature="0" />
	<path style="fill:none;stroke:red;stroke-width:1px;stroke-linecap:butt;stroke-linejoin:miter;stroke-opacity:1" d="M 181.757,114.859 162.644,114.859 z" id="boundary" inkscape:connector-curvature="0" />
	<path style="fill:none;stroke:red;stroke-width:1px;stroke-linecap:butt;stroke-linejoin:miter;stroke-opacity:1" d="M 156.909,233.364 147.353,216.162 z" id="boundary" inkscape:connector-curvature="0" />
	<path style="fill:none;stroke:red;stroke-width:1px;stroke-linecap:butt;stroke-linejoin:miter;stroke-opacity:1" d="M 162.644,277.326 156.909,252.478 z" id="boundary" inkscape:connector-curvature="0" />
	<path style="fill:none;stroke:red;stroke-width:1px;stroke-linecap:butt;stroke-linejoin:miter;stroke-opacity:1" d="M 156.909,252.478 156.909,233.364 z" id="boundary" inkscape:connector-curvature="0" />
	<path style="fill:none;stroke:red;stroke-width:1px;stroke-linecap:butt;stroke-linejoin:miter;stroke-opacity:1" d="M 44.1387,692.092 59.4297,678.713 z" id="boundary" inkscape:connector-curvature="0" />
	<path style="fill:none;stroke:red;stroke-width:1px;stroke-linecap:butt;stroke-linejoin:miter;stroke-opacity:1" d="M 88.1002,650.042 72.8092,663.422 z" id="boundary" inkscape:connector-curvature="0" />
	<path style="fill:none;stroke:red;stroke-width:1px;stroke-linecap:butt;stroke-linejoin:miter;stroke-opacity:1" d="M 95.7457,630.929 88.1002,650.042 z" id="boundary" inkscape:connector-curvature="0" />
	<path style="fill:none;stroke:red;stroke-width:1px;stroke-linecap:butt;stroke-linejoin:miter;stroke-opacity:1" d="M 19.2909,726.497 28.8478,707.383 z" id="boundary" inkscape:connector-curvature="0" />
	<path style="fill:none;stroke:red;stroke-width:1px;stroke-linecap:butt;stroke-linejoin:miter;stroke-opacity:1" d="M 28.8478,707.383 44.1387,692.092 z" id="boundary" inkscape:connector-curvature="0" />
	<path style="fill:none;stroke:red;stroke-width:1px;stroke-linecap:butt;stroke-linejoin:miter;stroke-opacity:1" d="M 72.8092,663.422 59.4297,678.713 z" id="boundary" inkscape:connector-curvature="0" />
	<path style="fill:none;stroke:red;stroke-width:1px;stroke-linecap:butt;stroke-linejoin:miter;stroke-opacity:1" d="M 147.353,799.129 19.2909,726.497 z" id="boundary" inkscape:connector-curvature="0" />
	<path style="fill:none;stroke:red;stroke-width:1px;stroke-linecap:butt;stroke-linejoin:miter;stroke-opacity:1" d="M 109.125,531.538 109.125,560.208 z" id="boundary" inkscape:connector-curvature="0" />
	<path style="fill:none;stroke:red;stroke-width:1px;stroke-linecap:butt;stroke-linejoin:miter;stroke-opacity:1" d="M 109.125,531.538 109.125,512.424 z" id="boundary" inkscape:connector-curvature="0" />
	<path style="fill:none;stroke:red;stroke-width:1px;stroke-linecap:butt;stroke-linejoin:miter;stroke-opacity:1" d="M 109.125,512.424 118.682,483.753 z" id="boundary" inkscape:connector-curvature="0" />
	<path style="fill:none;stroke:red;stroke-width:1px;stroke-linecap:butt;stroke-linejoin:miter;stroke-opacity:1" d="M 105.303,611.815 95.7457,630.929 z" id="boundary" inkscape:connector-curvature="0" />
	<path style="fill:none;stroke:red;stroke-width:1px;stroke-linecap:butt;stroke-linejoin:miter;stroke-opacity:1" d="M 114.859,592.701 109.125,560.208 z" id="boundary" inkscape:connector-curvature="0" />
	<path style="fill:none;stroke:red;stroke-width:1px;stroke-linecap:butt;stroke-linejoin:miter;stroke-opacity:1" d="M 4,780.015 4,760.902 z" id="boundary" inkscape:connector-curvature="0" />
	<path style="fill:none;stroke:red;stroke-width:1px;stroke-linecap:butt;stroke-linejoin:miter;stroke-opacity:1" d="M 13.5568,816.331 4,799.129 z" id="boundary" inkscape:connector-curvature="0" />
	<path style="fill:none;stroke:red;stroke-width:1px;stroke-linecap:butt;stroke-linejoin:miter;stroke-opacity:1" d="M 4,799.129 4,780.015 z" id="boundary" inkscape:connector-curvature="0" />
	<path style="fill:none;stroke:red;stroke-width:1px;stroke-linecap:butt;stroke-linejoin:miter;stroke-opacity:1" d="M 4,760.902 4,741.788 z" id="boundary" inkscape:connector-curvature="0" />
	<path style="fill:none;stroke:red;stroke-width:1px;stroke-linecap:butt;stroke-linejoin:miter;stroke-opacity:1" d="M 4,741.788 19.2909,726.497 z" id="boundary" inkscape:connector-curvature="0" />
	<path style="fill:none;stroke:red;stroke-width:1px;stroke-linecap:butt;stroke-linejoin:miter;stroke-opacity:1" d="M 76.632,833.534 59.4297,843.091 z" id="boundary" inkscape:connector-curvature="0" />
	<path style="fill:none;stroke:red;stroke-width:1px;stroke-linecap:butt;stroke-linejoin:miter;stroke-opacity:1" d="M 114.859,823.977 95.7457,831.622 z" id="boundary" inkscape:connector-curvature="0" />
	<path style="fill:none;stroke:red;stroke-width:1px;stroke-linecap:butt;stroke-linejoin:miter;stroke-opacity:1" d="M 95.7457,831.622 76.632,833.534 z" id="boundary" inkscape:connector-curvature="0" />
	<path style="fill:none;stroke:red;stroke-width:1px;stroke-linecap:butt;stroke-linejoin:miter;stroke-opacity:1" d="M 59.4297,843.091 40.316,843.091 z" id="boundary" inkscape:connector-curvature="0" />
	<path style="fill:none;stroke:red;stroke-width:1px;stroke-linecap:butt;stroke-linejoin:miter;stroke-opacity:1" d="M 40.316,843.091 23.1137,833.534 z" id="boundary" inkscape:connector-curvature="0" />
	<path style="fill:none;stroke:red;stroke-width:1px;stroke-linecap:butt;stroke-linejoin:miter;stroke-opacity:1" d="M 23.1137,833.534 13.5568,816.331 z" id="boundary" inkscape:connector-curvature="0" />
	<path style="fill:none;stroke:red;stroke-width:1px;stroke-linecap:butt;stroke-linejoin:miter;stroke-opacity:1" d="M 114.859,592.701 105.303,611.815 z" id="boundary" inkscape:connector-curvature="0" />
	<path style="fill:none;stroke:red;stroke-width:1px;stroke-linecap:butt;stroke-linejoin:miter;stroke-opacity:1" d="M 156.909,816.331 147.353,799.129 z" id="boundary" inkscape:connector-curvature="0" />
	<path style="fill:none;stroke:red;stroke-width:1px;stroke-linecap:butt;stroke-linejoin:miter;stroke-opacity:1" d="M 132.062,814.42 114.859,823.977 z" id="boundary" inkscape:connector-curvature="0" />
	<path style="fill:none;stroke:red;stroke-width:1px;stroke-linecap:butt;stroke-linejoin:miter;stroke-opacity:1" d="M 147.353,799.129 132.062,814.42 z" id="boundary" inkscape:connector-curvature="0" />
	<path style="fill:none;stroke:red;stroke-width:1px;stroke-linecap:butt;stroke-linejoin:miter;stroke-opacity:1" d="M 156.909,816.331 156.909,837.356 z" id="boundary" inkscape:connector-curvature="0" />
	<path style="fill:none;stroke:red;stroke-width:1px;stroke-linecap:butt;stroke-linejoin:miter;stroke-opacity:1" d="M 166.466,854.559 156.909,837.356 z" id="boundary" inkscape:connector-curvature="0" />
	<path style="fill:none;stroke:red;stroke-width:1px;stroke-linecap:butt;stroke-linejoin:miter;stroke-opacity:1" d="M 166.466,854.559 176.023,871.761 z" id="boundary" inkscape:connector-curvature="0" />
	<path style="fill:none;stroke:red;stroke-width:1px;stroke-linecap:butt;stroke-linejoin:miter;stroke-opacity:1" d="M 197.048,904.254 185.58,888.963 z" id="boundary" inkscape:connector-curvature="0" />
	<path style="fill:none;stroke:red;stroke-width:1px;stroke-linecap:butt;stroke-linejoin:miter;stroke-opacity:1" d="M 185.58,888.963 176.023,871.761 z" id="boundary" inkscape:connector-curvature="0" />
	<path style="fill:none;stroke:red;stroke-width:1px;stroke-linecap:butt;stroke-linejoin:miter;stroke-opacity:1" d="M 197.048,904.254 210.428,919.545 z" id="boundary" inkscape:connector-curvature="0" />
	<path style="fill:none;stroke:red;stroke-width:1px;stroke-linecap:butt;stroke-linejoin:miter;stroke-opacity:1" d="M 225.719,932.925 210.428,919.545 z" id="boundary" inkscape:connector-curvature="0" />
	<path style="fill:none;stroke:red;stroke-width:1px;stroke-linecap:butt;stroke-linejoin:miter;stroke-opacity:1" d="M 256.301,957.773 239.098,948.216 z" id="boundary" inkscape:connector-curvature="0" />
	<path style="fill:none;stroke:red;stroke-width:1px;stroke-linecap:butt;stroke-linejoin:miter;stroke-opacity:1" d="M 239.098,948.216 225.719,932.925 z" id="boundary" inkscape:connector-curvature="0" />
	<path style="fill:none;stroke:red;stroke-width:1px;stroke-linecap:butt;stroke-linejoin:miter;stroke-opacity:1" d="M 309.819,976.886 290.705,976.886 z" id="boundary" inkscape:connector-curvature="0" />
	<path style="fill:none;stroke:red;stroke-width:1px;stroke-linecap:butt;stroke-linejoin:miter;stroke-opacity:1" d="M 290.705,976.886 273.503,967.329 z" id="boundary" inkscape:connector-curvature="0" />
	<path style="fill:none;stroke:red;stroke-width:1px;stroke-linecap:butt;stroke-linejoin:miter;stroke-opacity:1" d="M 273.503,967.329 256.301,957.773 z" id="boundary" inkscape:connector-curvature="0" />
	<path style="fill:none;stroke:red;stroke-width:1px;stroke-linecap:butt;stroke-linejoin:miter;stroke-opacity:1" d="M 309.819,976.886 327.021,986.443 z" id="boundary" inkscape:connector-curvature="0" />
	<path style="fill:none;stroke:red;stroke-width:1px;stroke-linecap:butt;stroke-linejoin:miter;stroke-opacity:1" d="M 361.426,986.443 344.224,996 z" id="boundary" inkscape:connector-curvature="0" />
	<path style="fill:none;stroke:red;stroke-width:1px;stroke-linecap:butt;stroke-linejoin:miter;stroke-opacity:1" d="M 344.224,996 327.021,986.443 z" id="boundary" inkscape:connector-curvature="0" />
	<path style="fill:none;stroke:red;stroke-width:1px;stroke-linecap:butt;stroke-linejoin:miter;stroke-opacity:1" d="M 361.426,986.443 380.539,986.443 z" id="boundary" inkscape:connector-curvature="0" />
	<path style="fill:none;stroke:red;stroke-width:1px;stroke-linecap:butt;stroke-linejoin:miter;stroke-opacity:1" d="M 357.603,4 376.717,5.91137 z" id="boundary" inkscape:connector-curvature="0" />
	<path style="fill:none;stroke:red;stroke-width:1px;stroke-linecap:butt;stroke-linejoin:miter;stroke-opacity:1" d="M 376.717,5.91137 395.83,5.91137 z" id="boundary" inkscape:connector-curvature="0" />
	<path style="fill:none;stroke:red;stroke-width:1px;stroke-linecap:butt;stroke-linejoin:miter;stroke-opacity:1" d="M 395.83,5.91137 414.944,9.7341 z" id="boundary" inkscape:connector-curvature="0" />
	<path style="fill:none;stroke:red;stroke-width:1px;stroke-linecap:butt;stroke-linejoin:miter;stroke-opacity:1" d="M 414.944,9.7341 434.058,9.7341 z" id="boundary" inkscape:connector-curvature="0" />
	<path style="fill:none;stroke:red;stroke-width:1px;stroke-linecap:butt;stroke-linejoin:miter;stroke-opacity:1" d="M 434.058,9.7341 451.26,19.2909 z" id="boundary" inkscape:connector-curvature="0" />
	<path style="fill:none;stroke:red;stroke-width:1px;stroke-linecap:butt;stroke-linejoin:miter;stroke-opacity:1" d="M 451.26,19.2909 468.462,28.8478 z" id="boundary" inkscape:connector-curvature="0" />
	<path style="fill:none;stroke:red;stroke-width:1px;stroke-linecap:butt;stroke-linejoin:miter;stroke-opacity:1" d="M 468.462,28.8478 487.576,28.8478 z" id="boundary" inkscape:connector-curvature="0" />
	<path style="fill:none;stroke:red;stroke-width:1px;stroke-linecap:butt;stroke-linejoin:miter;stroke-opacity:1" d="M 487.576,28.8478 504.778,38.4046 z" id="boundary" inkscape:connector-curvature="0" />
	<path style="fill:none;stroke:red;stroke-width:1px;stroke-linecap:butt;stroke-linejoin:miter;stroke-opacity:1" d="M 520.069,51.7842 531.538,67.0751 z" id="boundary" inkscape:connector-curvature="0" />
	<path style="fill:none;stroke:red;stroke-width:1px;stroke-linecap:butt;stroke-linejoin:miter;stroke-opacity:1" d="M 546.829,78.5434 531.538,67.0751 z" id="boundary" inkscape:connector-curvature="0" />
	<path style="fill:none;stroke:red;stroke-width:1px;stroke-linecap:butt;stroke-linejoin:miter;stroke-opacity:1" d="M 504.778,38.4046 520.069,51.7842 z" id="boundary" inkscape:connector-curvature="0" />
	<path style="fill:none;stroke:red;stroke-width:1px;stroke-linecap:butt;stroke-linejoin:miter;stroke-opacity:1" d="M 546.829,78.5434 560.208,93.8343 z" id="boundary" inkscape:connector-curvature="0" />
	<path style="fill:none;stroke:red;stroke-width:1px;stroke-linecap:butt;stroke-linejoin:miter;stroke-opacity:1" d="M 560.208,93.8343 569.765,111.037 z" id="boundary" inkscape:connector-curvature="0" />
	<path style="fill:none;stroke:red;stroke-width:1px;stroke-linecap:butt;stroke-linejoin:miter;stroke-opacity:1" d="M 569.765,344.224 560.208,327.021 z" id="boundary" inkscape:connector-curvature="0" />
	<path style="fill:none;stroke:red;stroke-width:1px;stroke-linecap:butt;stroke-linejoin:miter;stroke-opacity:1" d="M 560.208,327.021 575.499,313.642 z" id="boundary" inkscape:connector-curvature="0" />
	<path style="fill:none;stroke:red;stroke-width:1px;stroke-linecap:butt;stroke-linejoin:miter;stroke-opacity:1" d="M 588.879,145.441 579.322,128.239 z" id="boundary" inkscape:connector-curvature="0" />
	<path style="fill:none;stroke:red;stroke-width:1px;stroke-linecap:butt;stroke-linejoin:miter;stroke-opacity:1" d="M 598.435,162.644 588.879,145.441 z" id="boundary" inkscape:connector-curvature="0" />
	<path style="fill:none;stroke:red;stroke-width:1px;stroke-linecap:butt;stroke-linejoin:miter;stroke-opacity:1" d="M 575.499,313.642 579.322,288.794 z" id="boundary" inkscape:connector-curvature="0" />
	<path style="fill:none;stroke:red;stroke-width:1px;stroke-linecap:butt;stroke-linejoin:miter;stroke-opacity:1" d="M 579.322,288.794 596.524,279.237 z" id="boundary" inkscape:connector-curvature="0" />
	<path style="fill:none;stroke:red;stroke-width:1px;stroke-linecap:butt;stroke-linejoin:miter;stroke-opacity:1" d="M 579.322,361.426 569.765,344.224 z" id="boundary" inkscape:connector-curvature="0" />
	<path style="fill:none;stroke:red;stroke-width:1px;stroke-linecap:butt;stroke-linejoin:miter;stroke-opacity:1" d="M 598.435,162.644 598.435,181.757 z" id="boundary" inkscape:connector-curvature="0" />
	<path style="fill:none;stroke:red;stroke-width:1px;stroke-linecap:butt;stroke-linejoin:miter;stroke-opacity:1" d="M 569.765,111.037 579.322,128.239 z" id="boundary" inkscape:connector-curvature="0" />
	<path style="fill:none;stroke:red;stroke-width:1px;stroke-linecap:butt;stroke-linejoin:miter;stroke-opacity:1" d="M 598.435,181.757 615.638,191.314 z" id="boundary" inkscape:connector-curvature="0" />
	<path style="fill:none;stroke:red;stroke-width:1px;stroke-linecap:butt;stroke-linejoin:miter;stroke-opacity:1" d="M 630.929,202.782 650.042,210.428 z" id="boundary" inkscape:connector-curvature="0" />
	<path style="fill:none;stroke:red;stroke-width:1px;stroke-linecap:butt;stroke-linejoin:miter;stroke-opacity:1" d="M 615.638,191.314 630.929,202.782 z" id="boundary" inkscape:connector-curvature="0" />
	<path style="fill:none;stroke:red;stroke-width:1px;stroke-linecap:butt;stroke-linejoin:miter;stroke-opacity:1" d="M 650.042,210.428 663.422,225.719 z" id="boundary" inkscape:connector-curvature="0" />
	<path style="fill:none;stroke:red;stroke-width:1px;stroke-linecap:butt;stroke-linejoin:miter;stroke-opacity:1" d="M 613.726,269.68 596.524,279.237 z" id="boundary" inkscape:connector-curvature="0" />
	<path style="fill:none;stroke:red;stroke-width:1px;stroke-linecap:butt;stroke-linejoin:miter;stroke-opacity:1" d="M 663.422,225.719 682.536,233.364 z" id="boundary" inkscape:connector-curvature="0" />
	<path style="fill:none;stroke:red;stroke-width:1px;stroke-linecap:butt;stroke-linejoin:miter;stroke-opacity:1" d="M 699.738,242.921 718.852,250.566 z" id="boundary" inkscape:connector-curvature="0" />
	<path style="fill:none;stroke:red;stroke-width:1px;stroke-linecap:butt;stroke-linejoin:miter;stroke-opacity:1" d="M 699.738,242.921 682.536,233.364 z" id="boundary" inkscape:connector-curvature="0" />
	<path style="fill:none;stroke:red;stroke-width:1px;stroke-linecap:butt;stroke-linejoin:miter;stroke-opacity:1" d="M 732.231,265.857 718.852,250.566 z" id="boundary" inkscape:connector-curvature="0" />
	<path style="fill:none;stroke:red;stroke-width:1px;stroke-linecap:butt;stroke-linejoin:miter;stroke-opacity:1" d="M 747.522,277.326 732.231,265.857 z" id="boundary" inkscape:connector-curvature="0" />
	<path style="fill:none;stroke:red;stroke-width:1px;stroke-linecap:butt;stroke-linejoin:miter;stroke-opacity:1" d="M 630.929,279.237 613.726,269.68 z" id="boundary" inkscape:connector-curvature="0" />
	<path style="fill:none;stroke:red;stroke-width:1px;stroke-linecap:butt;stroke-linejoin:miter;stroke-opacity:1" d="M 630.929,279.237 646.22,292.617 z" id="boundary" inkscape:connector-curvature="0" />
	<path style="fill:none;stroke:red;stroke-width:1px;stroke-linecap:butt;stroke-linejoin:miter;stroke-opacity:1" d="M 663.422,302.173 646.22,292.617 z" id="boundary" inkscape:connector-curvature="0" />
	<path style="fill:none;stroke:red;stroke-width:1px;stroke-linecap:butt;stroke-linejoin:miter;stroke-opacity:1" d="M 694.004,327.021 678.713,315.553 z" id="boundary" inkscape:connector-curvature="0" />
	<path style="fill:none;stroke:red;stroke-width:1px;stroke-linecap:butt;stroke-linejoin:miter;stroke-opacity:1" d="M 678.713,315.553 663.422,302.173 z" id="boundary" inkscape:connector-curvature="0" />
	<path style="fill:none;stroke:red;stroke-width:1px;stroke-linecap:butt;stroke-linejoin:miter;stroke-opacity:1" d="M 747.522,277.326 760.902,292.617 z" id="boundary" inkscape:connector-curvature="0" />
	<path style="fill:none;stroke:red;stroke-width:1px;stroke-linecap:butt;stroke-linejoin:miter;stroke-opacity:1" d="M 747.522,346.135 728.408,346.135 z" id="boundary" inkscape:connector-curvature="0" />
	<path style="fill:none;stroke:red;stroke-width:1px;stroke-linecap:butt;stroke-linejoin:miter;stroke-opacity:1" d="M 728.408,346.135 711.206,336.578 z" id="boundary" inkscape:connector-curvature="0" />
	<path style="fill:none;stroke:red;stroke-width:1px;stroke-linecap:butt;stroke-linejoin:miter;stroke-opacity:1" d="M 760.902,292.617 770.459,309.819 z" id="boundary" inkscape:connector-curvature="0" />
	<path style="fill:none;stroke:red;stroke-width:1px;stroke-linecap:butt;stroke-linejoin:miter;stroke-opacity:1" d="M 770.459,309.819 780.015,327.021 z" id="boundary" inkscape:connector-curvature="0" />
	<path style="fill:none;stroke:red;stroke-width:1px;stroke-linecap:butt;stroke-linejoin:miter;stroke-opacity:1" d="M 780.015,327.021 766.636,346.135 z" id="boundary" inkscape:connector-curvature="0" />
	<path style="fill:none;stroke:red;stroke-width:1px;stroke-linecap:butt;stroke-linejoin:miter;stroke-opacity:1" d="M 694.004,327.021 711.206,336.578 z" id="boundary" inkscape:connector-curvature="0" />
	<path style="fill:none;stroke:red;stroke-width:1px;stroke-linecap:butt;stroke-linejoin:miter;stroke-opacity:1" d="M 588.879,378.628 579.322,361.426 z" id="boundary" inkscape:connector-curvature="0" />
	<path style="fill:none;stroke:red;stroke-width:1px;stroke-linecap:butt;stroke-linejoin:miter;stroke-opacity:1" d="M 579.322,852.647 579.322,871.761 z" id="boundary" inkscape:connector-curvature="0" />
	<path style="fill:none;stroke:red;stroke-width:1px;stroke-linecap:butt;stroke-linejoin:miter;stroke-opacity:1" d="M 579.322,871.761 565.942,887.052 z" id="boundary" inkscape:connector-curvature="0" />
	<path style="fill:none;stroke:red;stroke-width:1px;stroke-linecap:butt;stroke-linejoin:miter;stroke-opacity:1" d="M 579.322,852.647 588.879,833.534 z" id="boundary" inkscape:connector-curvature="0" />
	<path style="fill:none;stroke:red;stroke-width:1px;stroke-linecap:butt;stroke-linejoin:miter;stroke-opacity:1" d="M 565.942,887.052 550.651,900.432 z" id="boundary" inkscape:connector-curvature="0" />
	<path style="fill:none;stroke:red;stroke-width:1px;stroke-linecap:butt;stroke-linejoin:miter;stroke-opacity:1" d="M 588.879,795.306 588.879,776.193 z" id="boundary" inkscape:connector-curvature="0" />
	<path style="fill:none;stroke:red;stroke-width:1px;stroke-linecap:butt;stroke-linejoin:miter;stroke-opacity:1" d="M 588.879,776.193 598.435,757.079 z" id="boundary" inkscape:connector-curvature="0" />
	<path style="fill:none;stroke:red;stroke-width:1px;stroke-linecap:butt;stroke-linejoin:miter;stroke-opacity:1" d="M 588.879,378.628 598.435,395.83 z" id="boundary" inkscape:connector-curvature="0" />
	<path style="fill:none;stroke:red;stroke-width:1px;stroke-linecap:butt;stroke-linejoin:miter;stroke-opacity:1" d="M 588.879,795.306 588.879,814.42 z" id="boundary" inkscape:connector-curvature="0" />
	<path style="fill:none;stroke:red;stroke-width:1px;stroke-linecap:butt;stroke-linejoin:miter;stroke-opacity:1" d="M 588.879,833.534 588.879,814.42 z" id="boundary" inkscape:connector-curvature="0" />
	<path style="fill:none;stroke:red;stroke-width:1px;stroke-linecap:butt;stroke-linejoin:miter;stroke-opacity:1" d="M 474.197,967.329 455.083,976.886 z" id="boundary" inkscape:connector-curvature="0" />
	<path style="fill:none;stroke:red;stroke-width:1px;stroke-linecap:butt;stroke-linejoin:miter;stroke-opacity:1" d="M 399.653,986.443 380.539,986.443 z" id="boundary" inkscape:connector-curvature="0" />
	<path style="fill:none;stroke:red;stroke-width:1px;stroke-linecap:butt;stroke-linejoin:miter;stroke-opacity:1" d="M 399.653,986.443 418.767,986.443 z" id="boundary" inkscape:connector-curvature="0" />
	<path style="fill:none;stroke:red;stroke-width:1px;stroke-linecap:butt;stroke-linejoin:miter;stroke-opacity:1" d="M 437.881,986.443 418.767,986.443 z" id="boundary" inkscape:connector-curvature="0" />
	<path style="fill:none;stroke:red;stroke-width:1px;stroke-linecap:butt;stroke-linejoin:miter;stroke-opacity:1" d="M 455.083,976.886 437.881,986.443 z" id="boundary" inkscape:connector-curvature="0" />
	<path style="fill:none;stroke:red;stroke-width:1px;stroke-linecap:butt;stroke-linejoin:miter;stroke-opacity:1" d="M 550.651,900.432 541.094,919.545 z" id="boundary" inkscape:connector-curvature="0" />
	<path style="fill:none;stroke:red;stroke-width:1px;stroke-linecap:butt;stroke-linejoin:miter;stroke-opacity:1" d="M 541.094,919.545 525.803,936.748 z" id="boundary" inkscape:connector-curvature="0" />
	<path style="fill:none;stroke:red;stroke-width:1px;stroke-linecap:butt;stroke-linejoin:miter;stroke-opacity:1" d="M 525.803,936.748 510.513,948.216 z" id="boundary" inkscape:connector-curvature="0" />
	<path style="fill:none;stroke:red;stroke-width:1px;stroke-linecap:butt;stroke-linejoin:miter;stroke-opacity:1" d="M 493.31,957.773 474.197,967.329 z" id="boundary" inkscape:connector-curvature="0" />
	<path style="fill:none;stroke:red;stroke-width:1px;stroke-linecap:butt;stroke-linejoin:miter;stroke-opacity:1" d="M 510.513,948.216 493.31,957.773 z" id="boundary" inkscape:connector-curvature="0" />
	<path style="fill:none;stroke:red;stroke-width:1px;stroke-linecap:butt;stroke-linejoin:miter;stroke-opacity:1" d="M 607.992,413.033 617.549,430.235 z" id="boundary" inkscape:connector-curvature="0" />
	<path style="fill:none;stroke:red;stroke-width:1px;stroke-linecap:butt;stroke-linejoin:miter;stroke-opacity:1" d="M 636.663,483.753 627.106,466.551 z" id="boundary" inkscape:connector-curvature="0" />
	<path style="fill:none;stroke:red;stroke-width:1px;stroke-linecap:butt;stroke-linejoin:miter;stroke-opacity:1" d="M 627.106,466.551 627.106,447.437 z" id="boundary" inkscape:connector-curvature="0" />
	<path style="fill:none;stroke:red;stroke-width:1px;stroke-linecap:butt;stroke-linejoin:miter;stroke-opacity:1" d="M 636.663,483.753 636.663,502.867 z" id="boundary" inkscape:connector-curvature="0" />
	<path style="fill:none;stroke:red;stroke-width:1px;stroke-linecap:butt;stroke-linejoin:miter;stroke-opacity:1" d="M 617.549,430.235 627.106,447.437 z" id="boundary" inkscape:connector-curvature="0" />
	<path style="fill:none;stroke:red;stroke-width:1px;stroke-linecap:butt;stroke-linejoin:miter;stroke-opacity:1" d="M 766.636,346.135 747.522,346.135 z" id="boundary" inkscape:connector-curvature="0" />
	<path style="fill:none;stroke:red;stroke-width:1px;stroke-linecap:butt;stroke-linejoin:miter;stroke-opacity:1" d="M 636.663,502.867 636.663,521.981 z" id="boundary" inkscape:connector-curvature="0" />
	<path style="fill:none;stroke:red;stroke-width:1px;stroke-linecap:butt;stroke-linejoin:miter;stroke-opacity:1" d="M 636.663,541.094 636.663,521.981 z" id="boundary" inkscape:connector-curvature="0" />
	<path style="fill:none;stroke:red;stroke-width:1px;stroke-linecap:butt;stroke-linejoin:miter;stroke-opacity:1" d="M 636.663,560.208 636.663,541.094 z" id="boundary" inkscape:connector-curvature="0" />
	<path style="fill:none;stroke:red;stroke-width:1px;stroke-linecap:butt;stroke-linejoin:miter;stroke-opacity:1" d="M 607.992,413.033 598.435,395.83 z" id="boundary" inkscape:connector-curvature="0" />
	<path style="fill:none;stroke:red;stroke-width:1px;stroke-linecap:butt;stroke-linejoin:miter;stroke-opacity:1" d="M 617.549,680.624 617.549,699.738 z" id="boundary" inkscape:connector-curvature="0" />
	<path style="fill:none;stroke:red;stroke-width:1px;stroke-linecap:butt;stroke-linejoin:miter;stroke-opacity:1" d="M 617.549,699.738 607.992,718.852 z" id="boundary" inkscape:connector-curvature="0" />
	<path style="fill:none;stroke:red;stroke-width:1px;stroke-linecap:butt;stroke-linejoin:miter;stroke-opacity:1" d="M 617.549,680.624 627.106,661.511 z" id="boundary" inkscape:connector-curvature="0" />
	<path style="fill:none;stroke:red;stroke-width:1px;stroke-linecap:butt;stroke-linejoin:miter;stroke-opacity:1" d="M 598.435,737.965 607.992,718.852 z" id="boundary" inkscape:connector-curvature="0" />
	<path style="fill:none;stroke:red;stroke-width:1px;stroke-linecap:butt;stroke-linejoin:miter;stroke-opacity:1" d="M 598.435,757.079 598.435,737.965 z" id="boundary" inkscape:connector-curvature="0" />
	<path style="fill:none;stroke:red;stroke-width:1px;stroke-linecap:butt;stroke-linejoin:miter;stroke-opacity:1" d="M 636.663,560.208 636.663,579.322 z" id="boundary" inkscape:connector-curvature="0" />
	<path style="fill:none;stroke:red;stroke-width:1px;stroke-linecap:butt;stroke-linejoin:miter;stroke-opacity:1" d="M 636.663,598.435 636.663,579.322 z" id="boundary" inkscape:connector-curvature="0" />
	<path style="fill:none;stroke:red;stroke-width:1px;stroke-linecap:butt;stroke-linejoin:miter;stroke-opacity:1" d="M 636.663,598.435 627.106,623.283 z" id="boundary" inkscape:connector-curvature="0" />
	<path style="fill:none;stroke:red;stroke-width:1px;stroke-linecap:butt;stroke-linejoin:miter;stroke-opacity:1" d="M 627.106,623.283 627.106,642.397 z" id="boundary" inkscape:connector-curvature="0" />
	<path style="fill:none;stroke:red;stroke-width:1px;stroke-linecap:butt;stroke-linejoin:miter;stroke-opacity:1" d="M 627.106,661.511 627.106,642.397 z" id="boundary" inkscape:connector-curvature="0" />
	<circle cx="4" cy="741.788" r="4" fill="#0" id="circle0"/>
	<circle cx="4" cy="760.902" r="4" fill="#0" id="circle1"/>
	<circle cx="4" cy="780.015" r="4" fill="#0" id="circle2"/>
	<circle cx="4" cy="799.129" r="4" fill="#0" id="circle3"/>
	<circle cx="13.5568" cy="816.331" r="4" fill="#0" id="circle4"/>
	<circle cx="19.2909" cy="726.497" r="4" fill="#0" id="circle5"/>
	<circle cx="23.1137" cy="833.534" r="4" fill="#0" id="circle6"/>
	<circle cx="28.8478" cy="707.383" r="4" fill="#0" id="circle7"/>
	<circle cx="32.6705" cy="168.378" r="4" fill="#0" id="circle8"/>
	<circle cx="32.6705" cy="187.491" r="4" fill="#0" id="circle9"/>
	<circle cx="40.316" cy="843.091" r="4" fill="#0" id="circle10"/>
	<circle cx="44.1387" cy="202.782" r="4" fill="#0" id="circle11"/>
	<circle cx="44.1387" cy="692.092" r="4" fill="#0" id="circle12"/>
	<circle cx="47.9615" cy="153.087" r="4" fill="#0" id="circle13"/>
	<circle cx="59.4297" cy="678.713" r="4" fill="#0" id="circle14"/>
	<circle cx="59.4297" cy="843.091" r="4" fill="#0" id="circle15"/>
	<circle cx="63.2524" cy="202.782" r="4" fill="#0" id="circle16"/>
	<circle cx="67.0751" cy="143.53" r="4" fill="#0" id="circle17"/>
	<circle cx="72.8092" cy="663.422" r="4" fill="#0" id="circle18"/>
	<circle cx="76.632" cy="833.534" r="4" fill="#0" id="circle19"/>
	<circle cx="82.3661" cy="202.782" r="4" fill="#0" id="circle20"/>
	<circle cx="86.1888" cy="133.973" r="4" fill="#0" id="circle21"/>
	<circle cx="88.1002" cy="650.042" r="4" fill="#0" id="circle22"/>
	<circle cx="95.7457" cy="630.929" r="4" fill="#0" id="circle23"/>
	<circle cx="95.7457" cy="831.622" r="4" fill="#0" id="circle24"/>
	<circle cx="99.5684" cy="193.225" r="4" fill="#0" id="circle25"/>
	<circle cx="105.303" cy="124.416" r="4" fill="#0" id="circle26"/>
	<circle cx="105.303" cy="611.815" r="4" fill="#0" id="circle27"/>
	<circle cx="109.125" cy="512.424" r="4" fill="#0" id="circle28"/>
	<circle cx="109.125" cy="531.538" r="4" fill="#0" id="circle29"/>
	<circle cx="109.125" cy="560.208" r="4" fill="#0" id="circle30"/>
	<circle cx="114.859" cy="592.701" r="4" fill="#0" id="circle31"/>
	<circle cx="114.859" cy="823.977" r="4" fill="#0" id="circle32"/>
	<circle cx="118.682" cy="187.491" r="4" fill="#0" id="circle33"/>
	<circle cx="118.682" cy="349.958" r="4" fill="#0" id="circle34"/>
	<circle cx="118.682" cy="369.071" r="4" fill="#0" id="circle35"/>
	<circle cx="118.682" cy="464.64" r="4" fill="#0" id="circle36"/>
	<circle cx="118.682" cy="483.753" r="4" fill="#0" id="circle37"/>
	<circle cx="124.416" cy="124.416" r="4" fill="#0" id="circle38"/>
	<circle cx="128.239" cy="386.274" r="4" fill="#0" id="circle39"/>
	<circle cx="128.239" cy="445.526" r="4" fill="#0" id="circle40"/>
	<circle cx="132.062" cy="814.42" r="4" fill="#0" id="circle41"/>
	<circle cx="133.973" cy="334.667" r="4" fill="#0" id="circle42"/>
	<circle cx="137.796" cy="183.669" r="4" fill="#0" id="circle43"/>
	<circle cx="137.796" cy="426.412" r="4" fill="#0" id="circle44"/>
	<circle cx="143.53" cy="124.416" r="4" fill="#0" id="circle45"/>
	<circle cx="143.53" cy="315.553" r="4" fill="#0" id="circle46"/>
	<circle cx="147.353" cy="216.162" r="4" fill="#0" id="circle47"/>
	<circle cx="147.353" cy="393.919" r="4" fill="#0" id="circle48"/>
	<circle cx="147.353" cy="799.129" r="4" fill="#0" id="circle49"/>
	<circle cx="153.087" cy="296.439" r="4" fill="#0" id="circle50"/>
	<circle cx="156.909" cy="233.364" r="4" fill="#0" id="circle51"/>
	<circle cx="156.909" cy="252.478" r="4" fill="#0" id="circle52"/>
	<circle cx="156.909" cy="816.331" r="4" fill="#0" id="circle53"/>
	<circle cx="156.909" cy="837.356" r="4" fill="#0" id="circle54"/>
	<circle cx="162.644" cy="114.859" r="4" fill="#0" id="circle55"/>
	<circle cx="162.644" cy="277.326" r="4" fill="#0" id="circle56"/>
	<circle cx="166.466" cy="854.559" r="4" fill="#0" id="circle57"/>
	<circle cx="176.023" cy="871.761" r="4" fill="#0" id="circle58"/>
	<circle cx="181.757" cy="114.859" r="4" fill="#0" id="circle59"/>
	<circle cx="185.58" cy="888.963" r="4" fill="#0" id="circle60"/>
	<circle cx="191.314" cy="95.7457" r="4" fill="#0" id="circle61"/>
	<circle cx="197.048" cy="904.254" r="4" fill="#0" id="circle62"/>
	<circle cx="206.605" cy="80.4547" r="4" fill="#0" id="circle63"/>
	<circle cx="210.428" cy="919.545" r="4" fill="#0" id="circle64"/>
	<circle cx="221.896" cy="67.0751" r="4" fill="#0" id="circle65"/>
	<circle cx="225.719" cy="932.925" r="4" fill="#0" id="circle66"/>
	<circle cx="235.276" cy="51.7842" r="4" fill="#0" id="circle67"/>
	<circle cx="239.098" cy="948.216" r="4" fill="#0" id="circle68"/>
	<circle cx="250.566" cy="38.4046" r="4" fill="#0" id="circle69"/>
	<circle cx="256.301" cy="957.773" r="4" fill="#0" id="circle70"/>
	<circle cx="269.68" cy="38.4046" r="4" fill="#0" id="circle71"/>
	<circle cx="273.503" cy="967.329" r="4" fill="#0" id="circle72"/>
	<circle cx="283.06" cy="23.1137" r="4" fill="#0" id="circle73"/>
	<circle cx="290.705" cy="976.886" r="4" fill="#0" id="circle74"/>
	<circle cx="302.173" cy="19.2909" r="4" fill="#0" id="circle75"/>
	<circle cx="309.819" cy="976.886" r="4" fill="#0" id="circle76"/>
	<circle cx="319.376" cy="9.7341" r="4" fill="#0" id="circle77"/>
	<circle cx="327.021" cy="986.443" r="4" fill="#0" id="circle78"/>
	<circle cx="338.489" cy="9.7341" r="4" fill="#0" id="circle79"/>
	<circle cx="344.224" cy="996" r="4" fill="#0" id="circle80"/>
	<circle cx="357.603" cy="4" r="4" fill="#0" id="circle81"/>
	<circle cx="361.426" cy="986.443" r="4" fill="#0" id="circle82"/>
	<circle cx="376.717" cy="5.91137" r="4" fill="#0" id="circle83"/>
	<circle cx="380.539" cy="986.443" r="4" fill="#0" id="circle84"/>
	<circle cx="395.83" cy="5.91137" r="4" fill="#0" id="circle85"/>
	<circle cx="399.653" cy="986.443" r="4" fill="#0" id="circle86"/>
	<circle cx="414.944" cy="9.7341" r="4" fill="#0" id="circle87"/>
	<circle cx="418.767" cy="986.443" r="4" fill="#0" id="circle88"/>
	<circle cx="434.058" cy="9.7341" r="4" fill="#0" id="circle89"/>
	<circle cx="437.881" cy="986.443" r="4" fill="#0" id="circle90"/>
	<circle cx="451.26" cy="19.2909" r="4" fill="#0" id="circle91"/>
	<circle cx="455.083" cy="976.886" r="4" fill="#0" id="circle92"/>
	<circle cx="468.462" cy="28.8478" r="4" fill="#0" id="circle93"/>
	<circle cx="474.197" cy="967.329" r="4" fill="#0" id="circle94"/>
	<circle cx="487.576" cy="28.8478" r="4" fill="#0" id="circle95"/>
	<circle cx="493.31" cy="957.773" r="4" fill="#0" id="circle96"/>
	<circle cx="504.778" cy="38.4046" r="4" fill="#0" id="circle97"/>
	<circle cx="510.513" cy="948.216" r="4" fill="#0" id="circle98"/>
	<circle cx="520.069" cy="51.7842" r="4" fill="#0" id="circle99"/>
	<circle cx="525.803" cy="936.748" r="4" fill="#0" id="circle100"/>
	<circle cx="531.538" cy="67.0751" r="4" fill="#0" id="circle101"/>
	<circle cx="541.094" cy="919.545" r="4" fill="#0" id="circle102"/>
	<circle cx="546.829" cy="78.5434" r="4" fill="#0" id="circle103"/>
	<circle cx="550.651" cy="900.432" r="4" fill="#0" id="circle104"/>
	<circle cx="560.208" cy="93.8343" r="4" fill="#0" id="circle105"/>
	<circle cx="560.208" cy="327.021" r="4" fill="#0" id="circle106"/>
	<circle cx="565.942" cy="887.052" r="4" fill="#0" id="circle107"/>
	<circle cx="569.765" cy="111.037" r="4" fill="#0" id="circle108"/>
	<circle cx="569.765" cy="344.224" r="4" fill="#0" id="circle109"/>
	<circle cx="575.499" cy="313.642" r="4" fill="#0" id="circle110"/>
	<circle cx="579.322" cy="128.239" r="4" fill="#0" id="circle111"/>
	<circle cx="579.322" cy="288.794" r="4" fill="#0" id="circle112"/>
	<circle cx="579.322" cy="361.426" r="4" fill="#0" id="circle113"/>
	<circle cx="579.322" cy="852.647" r="4" fill="#0" id="circle114"/>
	<circle cx="579.322" cy="871.761" r="4" fill="#0" id="circle115"/>
	<circle cx="588.879" cy="145.441" r="4" fill="#0" id="circle116"/>
	<circle cx="588.879" cy="378.628" r="4" fill="#0" id="circle117"/>
	<circle cx="588.879" cy="776.193" r="4" fill="#0" id="circle118"/>
	<circle cx="588.879" cy="795.306" r="4" fill="#0" id="circle119"/>
	<circle cx="588.879" cy="814.42" r="4" fill="#0" id="circle120"/>
	<circle cx="588.879" cy="833.534" r="4" fill="#0" id="circle121"/>
	<circle cx="596.524" cy="279.237" r="4" fill="#0" id="circle122"/>
	<circle cx="598.435" cy="162.644" r="4" fill="#0" id="circle123"/>
	<circle cx="598.435" cy="181.757" r="4" fill="#0" id="circle124"/>
	<circle cx="598.435" cy="395.83" r="4" fill="#0" id="circle125"/>
	<circle cx="598.435" cy="737.965" r="4" fill="#0" id="circle126"/>
	<circle cx="598.435" cy="757.079" r="4" fill="#0" id="circle127"/>
	<circle cx="607.992" cy="413.033" r="4" fill="#0" id="circle128"/>
	<circle cx="607.992" cy="718.852" r="4" fill="#0" id="circle129"/>
	<circle cx="613.726" cy="269.68" r="4" fill="#0" id="circle130"/>
	<circle cx="615.638" cy="191.314" r="4" fill="#0" id="circle131"/>
	<circle cx="617.549" cy="430.235" r="4" fill="#0" id="circle132"/>
	<circle cx="617.549" cy="680.624" r="4" fill="#0" id="circle133"/>
	<circle cx="617.549" cy="699.738" r="4" fill="#0" id="circle134"/>
	<circle cx="627.106" cy="447.437" r="4" fill="#0" id="circle135"/>
	<circle cx="627.106" cy="466.551" r="4" fill="#0" id="circle136"/>
	<circle cx="627.106" cy="623.283" r="4" fill="#0" id="circle137"/>
	<circle cx="627.106" cy="642.397" r="4" fill="#0" id="circle138"/>
	<circle cx="627.106" cy="661.511" r="4" fill="#0" id="circle139"/>
	<circle cx="630.929" cy="202.782" r="4" fill="#0" id="circle140"/>
	<circle cx="630.929" cy="279.237" r="4" fill="#0" id="circle141"/>
	<circle cx="636.663" cy="483.753" r="4" fill="#0" id="circle142"/>
	<circle cx="636.663" cy="502.867" r="4" fill="#0" id="circle143"/>
	<circle cx="636.663" cy="521.981" r="4" fill="#0" id="circle144"/>
	<circle cx="636.663" cy="541.094" r="4" fill="#0" id="circle145"/>
	<circle cx="636.663" cy="560.208" r="4" fill="#0" id="circle146"/>
	<circle cx="636.663" cy="579.322" r="4" fill="#0" id="circle147"/>
	<circle cx="636.663" cy="598.435" r="4" fill="#0" id="circle148"/>
	<circle cx="646.22" cy="292.617" r="4" fill="#0" id="circle149"/>
	<circle cx="650.042" cy="210.428" r="4" fill="#0" id="circle150"/>
	<circle cx="663.422" cy="225.719" r="4" fill="#0" id="circle151"/>
	<circle cx="663.422" cy="302.173" r="4" fill="#0" id="circle152"/>
	<circle cx="678.713" cy="315.553" r="4" fill="#0" id="circle153"/>
	<circle cx="682.536" cy="233.364" r="4" fill="#0" id="circle154"/>
	<circle cx="694.004" cy="327.021" r="4" fill="#0" id="circle155"/>
	<circle cx="699.738" cy="242.921" r="4" fill="#0" id="circle156"/>
	<circle cx="711.206" cy="336.578" r="4" fill="#0" id="circle157"/>
	<circle cx="718.852" cy="250.566" r="4" fill="#0" id="circle158"/>
	<circle cx="728.408" cy="346.135" r="4" fill="#0" id="circle159"/>
	<circle cx="732.231" cy="265.857" r="4" fill="#0" id="circle160"/>
	<circle cx="747.522" cy="277.326" r="4" fill="#0" id="circle161"/>
	<circle cx="747.522" cy="346.135" r="4" fill="#0" id="circle162"/>
	<circle cx="760.902" cy="292.617" r="4" fill="#0" id="circle163"/>
	<circle cx="766.636" cy="346.135" r="4" fill="#0" id="circle164"/>
	<circle cx="770.459" cy="309.819" r="4" fill="#0" id="circle165"/>
	<circle cx="780.015" cy="327.021" r="4" fill="#0" id="circle166"/>
	</g>
</svg>