<?xml version="1.0" encoding="UTF-8" standalone="no"?>
<!-- Created with CurveBenchmark -->
<svg
	xmlns:dc="http://purl.org/dc/elements/1.1/"
	xmlns:cc="http://creativecommons.org/ns#"
	xmlns:rdf="http://www.w3.org/1999/02/22-rdf-syntax-ns#"
	xmlns:svg="http://www.w3.org/2000/svg"
	xmlns="http://www.w3.org/2000/svg"
	xmlns:sodipodi="http://sodipodi.sourceforge.net/DTD/sodipodi-0.dtd"
	xmlns:inkscape="http://www.inkscape.org/namespaces/inkscape"
	width="1000"
	height="1000"
	id="svg2"
	version="1.1"
	sodipodi:docname="manifold/nncrust-hammer16.png.txt">
<defs
	id="defs4" />
<metadata
	id="metadata7">
	<rdf:RDF>
		<cc:Work
			rdf:about="">
			<dc:format>image/svg+xml</dc:format>
			<dc:type
				rdf:resource="http://purl.org/dc/dcmitype/StillImage" />
			<dc:title></dc:title>
		</cc:Work>
	</rdf:RDF>
</metadata>
<g
	inkscape:label="Layer 1"
	inkscape:groupmode="layer"
	id="layer1">
	<path style="fill:none;stroke:red;stroke-width:1px;stroke-linecap:butt;stroke-linejoin:miter;stroke-opacity:1" d="M 68.1774,95.6821 82.8466,81.0129 z" id="boundary" inkscape:connector-curvature="0" />
	<path style="fill:none;stroke:red;stroke-width:1px;stroke-linecap:butt;stroke-linejoin:miter;stroke-opacity:1" d="M 59.0092,114.018 68.1774,95.6821 z" id="boundary" inkscape:connector-curvature="0" />
	<path style="fill:none;stroke:red;stroke-width:1px;stroke-linecap:butt;stroke-linejoin:miter;stroke-opacity:1" d="M 82.8466,81.0129 97.5157,66.3438 z" id="boundary" inkscape:connector-curvature="0" />
	<path style="fill:none;stroke:red;stroke-width:1px;stroke-linecap:butt;stroke-linejoin:miter;stroke-opacity:1" d="M 130.521,44.3401 147.024,35.1719 z" id="boundary" inkscape:connector-curvature="0" />
	<path style="fill:none;stroke:red;stroke-width:1px;stroke-linecap:butt;stroke-linejoin:miter;stroke-opacity:1" d="M 178.196,13.1682 147.024,35.1719 z" id="boundary" inkscape:connector-curvature="0" />
	<path style="fill:none;stroke:red;stroke-width:1px;stroke-linecap:butt;stroke-linejoin:miter;stroke-opacity:1" d="M 161.693,82.8466 161.693,101.183 z" id="boundary" inkscape:connector-curvature="0" />
	<path style="fill:none;stroke:red;stroke-width:1px;stroke-linecap:butt;stroke-linejoin:miter;stroke-opacity:1" d="M 115.852,57.1756 130.521,44.3401 z" id="boundary" inkscape:connector-curvature="0" />
	<path style="fill:none;stroke:red;stroke-width:1px;stroke-linecap:butt;stroke-linejoin:miter;stroke-opacity:1" d="M 161.693,82.8466 176.362,70.0111 z" id="boundary" inkscape:connector-curvature="0" />
	<path style="fill:none;stroke:red;stroke-width:1px;stroke-linecap:butt;stroke-linejoin:miter;stroke-opacity:1" d="M 97.5157,66.3438 115.852,57.1756 z" id="boundary" inkscape:connector-curvature="0" />
	<path style="fill:none;stroke:red;stroke-width:1px;stroke-linecap:butt;stroke-linejoin:miter;stroke-opacity:1" d="M 55.342,136.022 59.0092,114.018 z" id="boundary" inkscape:connector-curvature="0" />
	<path style="fill:none;stroke:red;stroke-width:1px;stroke-linecap:butt;stroke-linejoin:miter;stroke-opacity:1" d="M 22.3364,205.701 22.3364,224.037 z" id="boundary" inkscape:connector-curvature="0" />
	<path style="fill:none;stroke:red;stroke-width:1px;stroke-linecap:butt;stroke-linejoin:miter;stroke-opacity:1" d="M 22.3364,205.701 31.5046,187.364 z" id="boundary" inkscape:connector-curvature="0" />
	<path style="fill:none;stroke:red;stroke-width:1px;stroke-linecap:butt;stroke-linejoin:miter;stroke-opacity:1" d="M 13.1682,260.71 13.1682,279.046 z" id="boundary" inkscape:connector-curvature="0" />
	<path style="fill:none;stroke:red;stroke-width:1px;stroke-linecap:butt;stroke-linejoin:miter;stroke-opacity:1" d="M 13.1682,260.71 22.3364,242.373 z" id="boundary" inkscape:connector-curvature="0" />
	<path style="fill:none;stroke:red;stroke-width:1px;stroke-linecap:butt;stroke-linejoin:miter;stroke-opacity:1" d="M 13.1682,297.383 13.1682,279.046 z" id="boundary" inkscape:connector-curvature="0" />
	<path style="fill:none;stroke:red;stroke-width:1px;stroke-linecap:butt;stroke-linejoin:miter;stroke-opacity:1" d="M 22.3364,224.037 22.3364,242.373 z" id="boundary" inkscape:connector-curvature="0" />
	<path style="fill:none;stroke:red;stroke-width:1px;stroke-linecap:butt;stroke-linejoin:miter;stroke-opacity:1" d="M 40.6728,150.691 55.342,136.022 z" id="boundary" inkscape:connector-curvature="0" />
	<path style="fill:none;stroke:red;stroke-width:1px;stroke-linecap:butt;stroke-linejoin:miter;stroke-opacity:1" d="M 40.6728,169.028 40.6728,150.691 z" id="boundary" inkscape:connector-curvature="0" />
	<path style="fill:none;stroke:red;stroke-width:1px;stroke-linecap:butt;stroke-linejoin:miter;stroke-opacity:1" d="M 40.6728,169.028 31.5046,187.364 z" id="boundary" inkscape:connector-curvature="0" />
	<path style="fill:none;stroke:red;stroke-width:1px;stroke-linecap:butt;stroke-linejoin:miter;stroke-opacity:1" d="M 161.693,101.183 161.693,119.519 z" id="boundary" inkscape:connector-curvature="0" />
	<path style="fill:none;stroke:red;stroke-width:1px;stroke-linecap:butt;stroke-linejoin:miter;stroke-opacity:1" d="M 161.693,137.856 161.693,119.519 z" id="boundary" inkscape:connector-curvature="0" />
	<path style="fill:none;stroke:red;stroke-width:1px;stroke-linecap:butt;stroke-linejoin:miter;stroke-opacity:1" d="M 147.024,35.1719 163.527,26.0037 z" id="boundary" inkscape:connector-curvature="0" />
	<path style="fill:none;stroke:red;stroke-width:1px;stroke-linecap:butt;stroke-linejoin:miter;stroke-opacity:1" d="M 161.693,137.856 161.693,156.192 z" id="boundary" inkscape:connector-curvature="0" />
	<path style="fill:none;stroke:red;stroke-width:1px;stroke-linecap:butt;stroke-linejoin:miter;stroke-opacity:1" d="M 161.693,174.529 161.693,156.192 z" id="boundary" inkscape:connector-curvature="0" />
	<path style="fill:none;stroke:red;stroke-width:1px;stroke-linecap:butt;stroke-linejoin:miter;stroke-opacity:1" d="M 178.196,13.1682 196.532,4 z" id="boundary" inkscape:connector-curvature="0" />
	<path style="fill:none;stroke:red;stroke-width:1px;stroke-linecap:butt;stroke-linejoin:miter;stroke-opacity:1" d="M 189.198,27.8373 178.196,13.1682 z" id="boundary" inkscape:connector-curvature="0" />
	<path style="fill:none;stroke:red;stroke-width:1px;stroke-linecap:butt;stroke-linejoin:miter;stroke-opacity:1" d="M 176.362,70.0111 180.03,46.1738 z" id="boundary" inkscape:connector-curvature="0" />
	<path style="fill:none;stroke:red;stroke-width:1px;stroke-linecap:butt;stroke-linejoin:miter;stroke-opacity:1" d="M 180.03,46.1738 189.198,27.8373 z" id="boundary" inkscape:connector-curvature="0" />
	<path style="fill:none;stroke:red;stroke-width:1px;stroke-linecap:butt;stroke-linejoin:miter;stroke-opacity:1" d="M 315.719,264.377 297.383,264.377 z" id="boundary" inkscape:connector-curvature="0" />
	<path style="fill:none;stroke:red;stroke-width:1px;stroke-linecap:butt;stroke-linejoin:miter;stroke-opacity:1" d="M 163.527,26.0037 178.196,13.1682 z" id="boundary" inkscape:connector-curvature="0" />
	<path style="fill:none;stroke:red;stroke-width:1px;stroke-linecap:butt;stroke-linejoin:miter;stroke-opacity:1" d="M 165.36,192.865 180.03,205.701 z" id="boundary" inkscape:connector-curvature="0" />
	<path style="fill:none;stroke:red;stroke-width:1px;stroke-linecap:butt;stroke-linejoin:miter;stroke-opacity:1" d="M 180.03,205.701 187.364,224.037 z" id="boundary" inkscape:connector-curvature="0" />
	<path style="fill:none;stroke:red;stroke-width:1px;stroke-linecap:butt;stroke-linejoin:miter;stroke-opacity:1" d="M 165.36,192.865 161.693,174.529 z" id="boundary" inkscape:connector-curvature="0" />
	<path style="fill:none;stroke:red;stroke-width:1px;stroke-linecap:butt;stroke-linejoin:miter;stroke-opacity:1" d="M 198.366,238.706 207.534,255.209 z" id="boundary" inkscape:connector-curvature="0" />
	<path style="fill:none;stroke:red;stroke-width:1px;stroke-linecap:butt;stroke-linejoin:miter;stroke-opacity:1" d="M 198.366,238.706 187.364,224.037 z" id="boundary" inkscape:connector-curvature="0" />
	<path style="fill:none;stroke:red;stroke-width:1px;stroke-linecap:butt;stroke-linejoin:miter;stroke-opacity:1" d="M 224.037,264.377 207.534,255.209 z" id="boundary" inkscape:connector-curvature="0" />
	<path style="fill:none;stroke:red;stroke-width:1px;stroke-linecap:butt;stroke-linejoin:miter;stroke-opacity:1" d="M 242.373,264.377 224.037,264.377 z" id="boundary" inkscape:connector-curvature="0" />
	<path style="fill:none;stroke:red;stroke-width:1px;stroke-linecap:butt;stroke-linejoin:miter;stroke-opacity:1" d="M 242.373,264.377 260.71,264.377 z" id="boundary" inkscape:connector-curvature="0" />
	<path style="fill:none;stroke:red;stroke-width:1px;stroke-linecap:butt;stroke-linejoin:miter;stroke-opacity:1" d="M 279.046,264.377 260.71,264.377 z" id="boundary" inkscape:connector-curvature="0" />
	<path style="fill:none;stroke:red;stroke-width:1px;stroke-linecap:butt;stroke-linejoin:miter;stroke-opacity:1" d="M 297.383,264.377 279.046,264.377 z" id="boundary" inkscape:connector-curvature="0" />
	<path style="fill:none;stroke:red;stroke-width:1px;stroke-linecap:butt;stroke-linejoin:miter;stroke-opacity:1" d="M 13.1682,315.719 13.1682,297.383 z" id="boundary" inkscape:connector-curvature="0" />
	<path style="fill:none;stroke:red;stroke-width:1px;stroke-linecap:butt;stroke-linejoin:miter;stroke-opacity:1" d="M 196.532,4 370.728,264.377 z" id="boundary" inkscape:connector-curvature="0" />
	<path style="fill:none;stroke:red;stroke-width:1px;stroke-linecap:butt;stroke-linejoin:miter;stroke-opacity:1" d="M 13.1682,315.719 13.1682,334.055 z" id="boundary" inkscape:connector-curvature="0" />
	<path style="fill:none;stroke:red;stroke-width:1px;stroke-linecap:butt;stroke-linejoin:miter;stroke-opacity:1" d="M 22.3364,350.558 13.1682,334.055 z" id="boundary" inkscape:connector-curvature="0" />
	<path style="fill:none;stroke:red;stroke-width:1px;stroke-linecap:butt;stroke-linejoin:miter;stroke-opacity:1" d="M 4,434.906 4,407.401 z" id="boundary" inkscape:connector-curvature="0" />
	<path style="fill:none;stroke:red;stroke-width:1px;stroke-linecap:butt;stroke-linejoin:miter;stroke-opacity:1" d="M 4,407.401 22.3364,401.9 z" id="boundary" inkscape:connector-curvature="0" />
	<path style="fill:none;stroke:red;stroke-width:1px;stroke-linecap:butt;stroke-linejoin:miter;stroke-opacity:1" d="M 4,453.242 4,434.906 z" id="boundary" inkscape:connector-curvature="0" />
	<path style="fill:none;stroke:red;stroke-width:1px;stroke-linecap:butt;stroke-linejoin:miter;stroke-opacity:1" d="M 22.3364,350.558 22.3364,368.895 z" id="boundary" inkscape:connector-curvature="0" />
	<path style="fill:none;stroke:red;stroke-width:1px;stroke-linecap:butt;stroke-linejoin:miter;stroke-opacity:1" d="M 31.5046,385.397 22.3364,368.895 z" id="boundary" inkscape:connector-curvature="0" />
	<path style="fill:none;stroke:red;stroke-width:1px;stroke-linecap:butt;stroke-linejoin:miter;stroke-opacity:1" d="M 22.3364,401.9 31.5046,385.397 z" id="boundary" inkscape:connector-curvature="0" />
	<path style="fill:none;stroke:red;stroke-width:1px;stroke-linecap:butt;stroke-linejoin:miter;stroke-opacity:1" d="M 40.6728,401.9 22.3364,401.9 z" id="boundary" inkscape:connector-curvature="0" />
	<path style="fill:none;stroke:red;stroke-width:1px;stroke-linecap:butt;stroke-linejoin:miter;stroke-opacity:1" d="M 4,480.747 4,453.242 z" id="boundary" inkscape:connector-curvature="0" />
	<path style="fill:none;stroke:red;stroke-width:1px;stroke-linecap:butt;stroke-linejoin:miter;stroke-opacity:1" d="M 4,526.588 4,508.251 z" id="boundary" inkscape:connector-curvature="0" />
	<path style="fill:none;stroke:red;stroke-width:1px;stroke-linecap:butt;stroke-linejoin:miter;stroke-opacity:1" d="M 22.3364,550.425 4,544.924 z" id="boundary" inkscape:connector-curvature="0" />
	<path style="fill:none;stroke:red;stroke-width:1px;stroke-linecap:butt;stroke-linejoin:miter;stroke-opacity:1" d="M 4,544.924 4,526.588 z" id="boundary" inkscape:connector-curvature="0" />
	<path style="fill:none;stroke:red;stroke-width:1px;stroke-linecap:butt;stroke-linejoin:miter;stroke-opacity:1" d="M 40.6728,550.425 22.3364,550.425 z" id="boundary" inkscape:connector-curvature="0" />
	<path style="fill:none;stroke:red;stroke-width:1px;stroke-linecap:butt;stroke-linejoin:miter;stroke-opacity:1" d="M 4,508.251 4,480.747 z" id="boundary" inkscape:connector-curvature="0" />
	<path style="fill:none;stroke:red;stroke-width:1px;stroke-linecap:butt;stroke-linejoin:miter;stroke-opacity:1" d="M 59.0092,550.425 40.6728,550.425 z" id="boundary" inkscape:connector-curvature="0" />
	<path style="fill:none;stroke:red;stroke-width:1px;stroke-linecap:butt;stroke-linejoin:miter;stroke-opacity:1" d="M 40.6728,401.9 77.3457,550.425 z" id="boundary" inkscape:connector-curvature="0" />
	<path style="fill:none;stroke:red;stroke-width:1px;stroke-linecap:butt;stroke-linejoin:miter;stroke-opacity:1" d="M 95.6821,550.425 77.3457,550.425 z" id="boundary" inkscape:connector-curvature="0" />
	<path style="fill:none;stroke:red;stroke-width:1px;stroke-linecap:butt;stroke-linejoin:miter;stroke-opacity:1" d="M 77.3457,550.425 59.0092,550.425 z" id="boundary" inkscape:connector-curvature="0" />
	<path style="fill:none;stroke:red;stroke-width:1px;stroke-linecap:butt;stroke-linejoin:miter;stroke-opacity:1" d="M 114.018,550.425 95.6821,550.425 z" id="boundary" inkscape:connector-curvature="0" />
	<path style="fill:none;stroke:red;stroke-width:1px;stroke-linecap:butt;stroke-linejoin:miter;stroke-opacity:1" d="M 207.534,367.061 225.871,367.061 z" id="boundary" inkscape:connector-curvature="0" />
	<path style="fill:none;stroke:red;stroke-width:1px;stroke-linecap:butt;stroke-linejoin:miter;stroke-opacity:1" d="M 198.366,394.566 216.702,401.9 z" id="boundary" inkscape:connector-curvature="0" />
	<path style="fill:none;stroke:red;stroke-width:1px;stroke-linecap:butt;stroke-linejoin:miter;stroke-opacity:1" d="M 216.702,401.9 225.871,418.403 z" id="boundary" inkscape:connector-curvature="0" />
	<path style="fill:none;stroke:red;stroke-width:1px;stroke-linecap:butt;stroke-linejoin:miter;stroke-opacity:1" d="M 198.366,394.566 207.534,367.061 z" id="boundary" inkscape:connector-curvature="0" />
	<path style="fill:none;stroke:red;stroke-width:1px;stroke-linecap:butt;stroke-linejoin:miter;stroke-opacity:1" d="M 225.871,418.403 225.871,436.739 z" id="boundary" inkscape:connector-curvature="0" />
	<path style="fill:none;stroke:red;stroke-width:1px;stroke-linecap:butt;stroke-linejoin:miter;stroke-opacity:1" d="M 225.871,367.061 244.207,367.061 z" id="boundary" inkscape:connector-curvature="0" />
	<path style="fill:none;stroke:red;stroke-width:1px;stroke-linecap:butt;stroke-linejoin:miter;stroke-opacity:1" d="M 132.355,550.425 114.018,550.425 z" id="boundary" inkscape:connector-curvature="0" />
	<path style="fill:none;stroke:red;stroke-width:1px;stroke-linecap:butt;stroke-linejoin:miter;stroke-opacity:1" d="M 262.543,367.061 280.88,367.061 z" id="boundary" inkscape:connector-curvature="0" />
	<path style="fill:none;stroke:red;stroke-width:1px;stroke-linecap:butt;stroke-linejoin:miter;stroke-opacity:1" d="M 280.88,367.061 299.216,367.061 z" id="boundary" inkscape:connector-curvature="0" />
	<path style="fill:none;stroke:red;stroke-width:1px;stroke-linecap:butt;stroke-linejoin:miter;stroke-opacity:1" d="M 225.871,455.076 225.871,436.739 z" id="boundary" inkscape:connector-curvature="0" />
	<path style="fill:none;stroke:red;stroke-width:1px;stroke-linecap:butt;stroke-linejoin:miter;stroke-opacity:1" d="M 262.543,367.061 244.207,367.061 z" id="boundary" inkscape:connector-curvature="0" />
	<path style="fill:none;stroke:red;stroke-width:1px;stroke-linecap:butt;stroke-linejoin:miter;stroke-opacity:1" d="M 150.691,550.425 132.355,550.425 z" id="boundary" inkscape:connector-curvature="0" />
	<path style="fill:none;stroke:red;stroke-width:1px;stroke-linecap:butt;stroke-linejoin:miter;stroke-opacity:1" d="M 187.364,550.425 169.028,550.425 z" id="boundary" inkscape:connector-curvature="0" />
	<path style="fill:none;stroke:red;stroke-width:1px;stroke-linecap:butt;stroke-linejoin:miter;stroke-opacity:1" d="M 205.701,550.425 187.364,550.425 z" id="boundary" inkscape:connector-curvature="0" />
	<path style="fill:none;stroke:red;stroke-width:1px;stroke-linecap:butt;stroke-linejoin:miter;stroke-opacity:1" d="M 169.028,550.425 150.691,550.425 z" id="boundary" inkscape:connector-curvature="0" />
	<path style="fill:none;stroke:red;stroke-width:1px;stroke-linecap:butt;stroke-linejoin:miter;stroke-opacity:1" d="M 225.871,473.412 225.871,491.749 z" id="boundary" inkscape:connector-curvature="0" />
	<path style="fill:none;stroke:red;stroke-width:1px;stroke-linecap:butt;stroke-linejoin:miter;stroke-opacity:1" d="M 225.871,473.412 225.871,455.076 z" id="boundary" inkscape:connector-curvature="0" />
	<path style="fill:none;stroke:red;stroke-width:1px;stroke-linecap:butt;stroke-linejoin:miter;stroke-opacity:1" d="M 225.871,510.085 224.037,544.924 z" id="boundary" inkscape:connector-curvature="0" />
	<path style="fill:none;stroke:red;stroke-width:1px;stroke-linecap:butt;stroke-linejoin:miter;stroke-opacity:1" d="M 224.037,544.924 205.701,550.425 z" id="boundary" inkscape:connector-curvature="0" />
	<path style="fill:none;stroke:red;stroke-width:1px;stroke-linecap:butt;stroke-linejoin:miter;stroke-opacity:1" d="M 225.871,491.749 225.871,510.085 z" id="boundary" inkscape:connector-curvature="0" />
	<path style="fill:none;stroke:red;stroke-width:1px;stroke-linecap:butt;stroke-linejoin:miter;stroke-opacity:1" d="M 299.216,367.061 317.553,367.061 z" id="boundary" inkscape:connector-curvature="0" />
	<path style="fill:none;stroke:red;stroke-width:1px;stroke-linecap:butt;stroke-linejoin:miter;stroke-opacity:1" d="M 315.719,264.377 334.055,264.377 z" id="boundary" inkscape:connector-curvature="0" />
	<path style="fill:none;stroke:red;stroke-width:1px;stroke-linecap:butt;stroke-linejoin:miter;stroke-opacity:1" d="M 352.392,264.377 370.728,264.377 z" id="boundary" inkscape:connector-curvature="0" />
	<path style="fill:none;stroke:red;stroke-width:1px;stroke-linecap:butt;stroke-linejoin:miter;stroke-opacity:1" d="M 352.392,264.377 334.055,264.377 z" id="boundary" inkscape:connector-curvature="0" />
	<path style="fill:none;stroke:red;stroke-width:1px;stroke-linecap:butt;stroke-linejoin:miter;stroke-opacity:1" d="M 389.065,264.377 407.401,264.377 z" id="boundary" inkscape:connector-curvature="0" />
	<path style="fill:none;stroke:red;stroke-width:1px;stroke-linecap:butt;stroke-linejoin:miter;stroke-opacity:1" d="M 425.738,264.377 444.074,264.377 z" id="boundary" inkscape:connector-curvature="0" />
	<path style="fill:none;stroke:red;stroke-width:1px;stroke-linecap:butt;stroke-linejoin:miter;stroke-opacity:1" d="M 462.41,264.377 444.074,264.377 z" id="boundary" inkscape:connector-curvature="0" />
	<path style="fill:none;stroke:red;stroke-width:1px;stroke-linecap:butt;stroke-linejoin:miter;stroke-opacity:1" d="M 425.738,264.377 407.401,264.377 z" id="boundary" inkscape:connector-curvature="0" />
	<path style="fill:none;stroke:red;stroke-width:1px;stroke-linecap:butt;stroke-linejoin:miter;stroke-opacity:1" d="M 389.065,264.377 370.728,264.377 z" id="boundary" inkscape:connector-curvature="0" />
	<path style="fill:none;stroke:red;stroke-width:1px;stroke-linecap:butt;stroke-linejoin:miter;stroke-opacity:1" d="M 480.747,264.377 499.083,264.377 z" id="boundary" inkscape:connector-curvature="0" />
	<path style="fill:none;stroke:red;stroke-width:1px;stroke-linecap:butt;stroke-linejoin:miter;stroke-opacity:1" d="M 517.42,264.377 535.756,264.377 z" id="boundary" inkscape:connector-curvature="0" />
	<path style="fill:none;stroke:red;stroke-width:1px;stroke-linecap:butt;stroke-linejoin:miter;stroke-opacity:1" d="M 554.092,264.377 535.756,264.377 z" id="boundary" inkscape:connector-curvature="0" />
	<path style="fill:none;stroke:red;stroke-width:1px;stroke-linecap:butt;stroke-linejoin:miter;stroke-opacity:1" d="M 517.42,264.377 499.083,264.377 z" id="boundary" inkscape:connector-curvature="0" />
	<path style="fill:none;stroke:red;stroke-width:1px;stroke-linecap:butt;stroke-linejoin:miter;stroke-opacity:1" d="M 572.429,264.377 590.765,264.377 z" id="boundary" inkscape:connector-curvature="0" />
	<path style="fill:none;stroke:red;stroke-width:1px;stroke-linecap:butt;stroke-linejoin:miter;stroke-opacity:1" d="M 609.102,264.377 627.438,264.377 z" id="boundary" inkscape:connector-curvature="0" />
	<path style="fill:none;stroke:red;stroke-width:1px;stroke-linecap:butt;stroke-linejoin:miter;stroke-opacity:1" d="M 645.774,264.377 627.438,264.377 z" id="boundary" inkscape:connector-curvature="0" />
	<path style="fill:none;stroke:red;stroke-width:1px;stroke-linecap:butt;stroke-linejoin:miter;stroke-opacity:1" d="M 609.102,264.377 590.765,264.377 z" id="boundary" inkscape:connector-curvature="0" />
	<path style="fill:none;stroke:red;stroke-width:1px;stroke-linecap:butt;stroke-linejoin:miter;stroke-opacity:1" d="M 572.429,264.377 554.092,264.377 z" id="boundary" inkscape:connector-curvature="0" />
	<path style="fill:none;stroke:red;stroke-width:1px;stroke-linecap:butt;stroke-linejoin:miter;stroke-opacity:1" d="M 480.747,264.377 462.41,264.377 z" id="boundary" inkscape:connector-curvature="0" />
	<path style="fill:none;stroke:red;stroke-width:1px;stroke-linecap:butt;stroke-linejoin:miter;stroke-opacity:1" d="M 664.111,264.377 682.447,264.377 z" id="boundary" inkscape:connector-curvature="0" />
	<path style="fill:none;stroke:red;stroke-width:1px;stroke-linecap:butt;stroke-linejoin:miter;stroke-opacity:1" d="M 700.784,264.377 719.12,264.377 z" id="boundary" inkscape:connector-curvature="0" />
	<path style="fill:none;stroke:red;stroke-width:1px;stroke-linecap:butt;stroke-linejoin:miter;stroke-opacity:1" d="M 737.457,264.377 719.12,264.377 z" id="boundary" inkscape:connector-curvature="0" />
	<path style="fill:none;stroke:red;stroke-width:1px;stroke-linecap:butt;stroke-linejoin:miter;stroke-opacity:1" d="M 700.784,264.377 682.447,264.377 z" id="boundary" inkscape:connector-curvature="0" />
	<path style="fill:none;stroke:red;stroke-width:1px;stroke-linecap:butt;stroke-linejoin:miter;stroke-opacity:1" d="M 755.793,264.377 774.129,264.377 z" id="boundary" inkscape:connector-curvature="0" />
	<path style="fill:none;stroke:red;stroke-width:1px;stroke-linecap:butt;stroke-linejoin:miter;stroke-opacity:1" d="M 792.466,264.377 810.802,264.377 z" id="boundary" inkscape:connector-curvature="0" />
	<path style="fill:none;stroke:red;stroke-width:1px;stroke-linecap:butt;stroke-linejoin:miter;stroke-opacity:1" d="M 829.139,264.377 810.802,264.377 z" id="boundary" inkscape:connector-curvature="0" />
	<path style="fill:none;stroke:red;stroke-width:1px;stroke-linecap:butt;stroke-linejoin:miter;stroke-opacity:1" d="M 792.466,264.377 774.129,264.377 z" id="boundary" inkscape:connector-curvature="0" />
	<path style="fill:none;stroke:red;stroke-width:1px;stroke-linecap:butt;stroke-linejoin:miter;stroke-opacity:1" d="M 755.793,264.377 737.457,264.377 z" id="boundary" inkscape:connector-curvature="0" />
	<path style="fill:none;stroke:red;stroke-width:1px;stroke-linecap:butt;stroke-linejoin:miter;stroke-opacity:1" d="M 847.475,264.377 865.811,264.377 z" id="boundary" inkscape:connector-curvature="0" />
	<path style="fill:none;stroke:red;stroke-width:1px;stroke-linecap:butt;stroke-linejoin:miter;stroke-opacity:1" d="M 884.148,264.377 902.484,264.377 z" id="boundary" inkscape:connector-curvature="0" />
	<path style="fill:none;stroke:red;stroke-width:1px;stroke-linecap:butt;stroke-linejoin:miter;stroke-opacity:1" d="M 920.821,264.377 902.484,264.377 z" id="boundary" inkscape:connector-curvature="0" />
	<path style="fill:none;stroke:red;stroke-width:1px;stroke-linecap:butt;stroke-linejoin:miter;stroke-opacity:1" d="M 884.148,264.377 865.811,264.377 z" id="boundary" inkscape:connector-curvature="0" />
	<path style="fill:none;stroke:red;stroke-width:1px;stroke-linecap:butt;stroke-linejoin:miter;stroke-opacity:1" d="M 939.157,264.377 957.494,264.377 z" id="boundary" inkscape:connector-curvature="0" />
	<path style="fill:none;stroke:red;stroke-width:1px;stroke-linecap:butt;stroke-linejoin:miter;stroke-opacity:1" d="M 975.83,264.377 994.166,268.044 z" id="boundary" inkscape:connector-curvature="0" />
	<path style="fill:none;stroke:red;stroke-width:1px;stroke-linecap:butt;stroke-linejoin:miter;stroke-opacity:1" d="M 994.166,268.044 996,286.381 z" id="boundary" inkscape:connector-curvature="0" />
	<path style="fill:none;stroke:red;stroke-width:1px;stroke-linecap:butt;stroke-linejoin:miter;stroke-opacity:1" d="M 957.494,264.377 975.83,264.377 z" id="boundary" inkscape:connector-curvature="0" />
	<path style="fill:none;stroke:red;stroke-width:1px;stroke-linecap:butt;stroke-linejoin:miter;stroke-opacity:1" d="M 920.821,264.377 939.157,264.377 z" id="boundary" inkscape:connector-curvature="0" />
	<path style="fill:none;stroke:red;stroke-width:1px;stroke-linecap:butt;stroke-linejoin:miter;stroke-opacity:1" d="M 829.139,264.377 847.475,264.377 z" id="boundary" inkscape:connector-curvature="0" />
	<path style="fill:none;stroke:red;stroke-width:1px;stroke-linecap:butt;stroke-linejoin:miter;stroke-opacity:1" d="M 645.774,264.377 664.111,264.377 z" id="boundary" inkscape:connector-curvature="0" />
	<path style="fill:none;stroke:red;stroke-width:1px;stroke-linecap:butt;stroke-linejoin:miter;stroke-opacity:1" d="M 996,286.381 996,304.717 z" id="boundary" inkscape:connector-curvature="0" />
	<path style="fill:none;stroke:red;stroke-width:1px;stroke-linecap:butt;stroke-linejoin:miter;stroke-opacity:1" d="M 317.553,367.061 335.889,367.061 z" id="boundary" inkscape:connector-curvature="0" />
	<path style="fill:none;stroke:red;stroke-width:1px;stroke-linecap:butt;stroke-linejoin:miter;stroke-opacity:1" d="M 354.226,367.061 372.562,367.061 z" id="boundary" inkscape:connector-curvature="0" />
	<path style="fill:none;stroke:red;stroke-width:1px;stroke-linecap:butt;stroke-linejoin:miter;stroke-opacity:1" d="M 390.898,367.061 372.562,367.061 z" id="boundary" inkscape:connector-curvature="0" />
	<path style="fill:none;stroke:red;stroke-width:1px;stroke-linecap:butt;stroke-linejoin:miter;stroke-opacity:1" d="M 354.226,367.061 335.889,367.061 z" id="boundary" inkscape:connector-curvature="0" />
	<path style="fill:none;stroke:red;stroke-width:1px;stroke-linecap:butt;stroke-linejoin:miter;stroke-opacity:1" d="M 409.235,367.061 427.571,367.061 z" id="boundary" inkscape:connector-curvature="0" />
	<path style="fill:none;stroke:red;stroke-width:1px;stroke-linecap:butt;stroke-linejoin:miter;stroke-opacity:1" d="M 445.908,367.061 464.244,367.061 z" id="boundary" inkscape:connector-curvature="0" />
	<path style="fill:none;stroke:red;stroke-width:1px;stroke-linecap:butt;stroke-linejoin:miter;stroke-opacity:1" d="M 482.58,367.061 464.244,367.061 z" id="boundary" inkscape:connector-curvature="0" />
	<path style="fill:none;stroke:red;stroke-width:1px;stroke-linecap:butt;stroke-linejoin:miter;stroke-opacity:1" d="M 445.908,367.061 427.571,367.061 z" id="boundary" inkscape:connector-curvature="0" />
	<path style="fill:none;stroke:red;stroke-width:1px;stroke-linecap:butt;stroke-linejoin:miter;stroke-opacity:1" d="M 409.235,367.061 390.898,367.061 z" id="boundary" inkscape:connector-curvature="0" />
	<path style="fill:none;stroke:red;stroke-width:1px;stroke-linecap:butt;stroke-linejoin:miter;stroke-opacity:1" d="M 500.917,367.061 519.253,367.061 z" id="boundary" inkscape:connector-curvature="0" />
	<path style="fill:none;stroke:red;stroke-width:1px;stroke-linecap:butt;stroke-linejoin:miter;stroke-opacity:1" d="M 537.59,367.061 555.926,367.061 z" id="boundary" inkscape:connector-curvature="0" />
	<path style="fill:none;stroke:red;stroke-width:1px;stroke-linecap:butt;stroke-linejoin:miter;stroke-opacity:1" d="M 574.262,367.061 555.926,367.061 z" id="boundary" inkscape:connector-curvature="0" />
	<path style="fill:none;stroke:red;stroke-width:1px;stroke-linecap:butt;stroke-linejoin:miter;stroke-opacity:1" d="M 537.59,367.061 519.253,367.061 z" id="boundary" inkscape:connector-curvature="0" />
	<path style="fill:none;stroke:red;stroke-width:1px;stroke-linecap:butt;stroke-linejoin:miter;stroke-opacity:1" d="M 592.599,367.061 610.935,367.061 z" id="boundary" inkscape:connector-curvature="0" />
	<path style="fill:none;stroke:red;stroke-width:1px;stroke-linecap:butt;stroke-linejoin:miter;stroke-opacity:1" d="M 629.272,367.061 647.608,367.061 z" id="boundary" inkscape:connector-curvature="0" />
	<path style="fill:none;stroke:red;stroke-width:1px;stroke-linecap:butt;stroke-linejoin:miter;stroke-opacity:1" d="M 665.945,367.061 647.608,367.061 z" id="boundary" inkscape:connector-curvature="0" />
	<path style="fill:none;stroke:red;stroke-width:1px;stroke-linecap:butt;stroke-linejoin:miter;stroke-opacity:1" d="M 629.272,367.061 610.935,367.061 z" id="boundary" inkscape:connector-curvature="0" />
	<path style="fill:none;stroke:red;stroke-width:1px;stroke-linecap:butt;stroke-linejoin:miter;stroke-opacity:1" d="M 592.599,367.061 574.262,367.061 z" id="boundary" inkscape:connector-curvature="0" />
	<path style="fill:none;stroke:red;stroke-width:1px;stroke-linecap:butt;stroke-linejoin:miter;stroke-opacity:1" d="M 500.917,367.061 482.58,367.061 z" id="boundary" inkscape:connector-curvature="0" />
	<path style="fill:none;stroke:red;stroke-width:1px;stroke-linecap:butt;stroke-linejoin:miter;stroke-opacity:1" d="M 684.281,367.061 702.617,367.061 z" id="boundary" inkscape:connector-curvature="0" />
	<path style="fill:none;stroke:red;stroke-width:1px;stroke-linecap:butt;stroke-linejoin:miter;stroke-opacity:1" d="M 720.954,367.061 739.29,367.061 z" id="boundary" inkscape:connector-curvature="0" />
	<path style="fill:none;stroke:red;stroke-width:1px;stroke-linecap:butt;stroke-linejoin:miter;stroke-opacity:1" d="M 757.627,367.061 739.29,367.061 z" id="boundary" inkscape:connector-curvature="0" />
	<path style="fill:none;stroke:red;stroke-width:1px;stroke-linecap:butt;stroke-linejoin:miter;stroke-opacity:1" d="M 720.954,367.061 702.617,367.061 z" id="boundary" inkscape:connector-curvature="0" />
	<path style="fill:none;stroke:red;stroke-width:1px;stroke-linecap:butt;stroke-linejoin:miter;stroke-opacity:1" d="M 812.636,367.061 794.299,367.061 z" id="boundary" inkscape:connector-curvature="0" />
	<path style="fill:none;stroke:red;stroke-width:1px;stroke-linecap:butt;stroke-linejoin:miter;stroke-opacity:1" d="M 794.299,367.061 775.963,367.061 z" id="boundary" inkscape:connector-curvature="0" />
	<path style="fill:none;stroke:red;stroke-width:1px;stroke-linecap:butt;stroke-linejoin:miter;stroke-opacity:1" d="M 996,304.717 996,330.388 z" id="boundary" inkscape:connector-curvature="0" />
	<path style="fill:none;stroke:red;stroke-width:1px;stroke-linecap:butt;stroke-linejoin:miter;stroke-opacity:1" d="M 996,330.388 996,357.893 z" id="boundary" inkscape:connector-curvature="0" />
	<path style="fill:none;stroke:red;stroke-width:1px;stroke-linecap:butt;stroke-linejoin:miter;stroke-opacity:1" d="M 996,357.893 977.664,367.061 z" id="boundary" inkscape:connector-curvature="0" />
	<path style="fill:none;stroke:red;stroke-width:1px;stroke-linecap:butt;stroke-linejoin:miter;stroke-opacity:1" d="M 775.963,367.061 757.627,367.061 z" id="boundary" inkscape:connector-curvature="0" />
	<path style="fill:none;stroke:red;stroke-width:1px;stroke-linecap:butt;stroke-linejoin:miter;stroke-opacity:1" d="M 684.281,367.061 665.945,367.061 z" id="boundary" inkscape:connector-curvature="0" />
	<path style="fill:none;stroke:red;stroke-width:1px;stroke-linecap:butt;stroke-linejoin:miter;stroke-opacity:1" d="M 812.636,367.061 830.972,367.061 z" id="boundary" inkscape:connector-curvature="0" />
	<path style="fill:none;stroke:red;stroke-width:1px;stroke-linecap:butt;stroke-linejoin:miter;stroke-opacity:1" d="M 849.309,367.061 867.645,367.061 z" id="boundary" inkscape:connector-curvature="0" />
	<path style="fill:none;stroke:red;stroke-width:1px;stroke-linecap:butt;stroke-linejoin:miter;stroke-opacity:1" d="M 885.982,367.061 867.645,367.061 z" id="boundary" inkscape:connector-curvature="0" />
	<path style="fill:none;stroke:red;stroke-width:1px;stroke-linecap:butt;stroke-linejoin:miter;stroke-opacity:1" d="M 849.309,367.061 830.972,367.061 z" id="boundary" inkscape:connector-curvature="0" />
	<path style="fill:none;stroke:red;stroke-width:1px;stroke-linecap:butt;stroke-linejoin:miter;stroke-opacity:1" d="M 904.318,367.061 922.654,367.061 z" id="boundary" inkscape:connector-curvature="0" />
	<path style="fill:none;stroke:red;stroke-width:1px;stroke-linecap:butt;stroke-linejoin:miter;stroke-opacity:1" d="M 940.991,367.061 959.327,367.061 z" id="boundary" inkscape:connector-curvature="0" />
	<path style="fill:none;stroke:red;stroke-width:1px;stroke-linecap:butt;stroke-linejoin:miter;stroke-opacity:1" d="M 977.664,367.061 959.327,367.061 z" id="boundary" inkscape:connector-curvature="0" />
	<path style="fill:none;stroke:red;stroke-width:1px;stroke-linecap:butt;stroke-linejoin:miter;stroke-opacity:1" d="M 940.991,367.061 922.654,367.061 z" id="boundary" inkscape:connector-curvature="0" />
	<path style="fill:none;stroke:red;stroke-width:1px;stroke-linecap:butt;stroke-linejoin:miter;stroke-opacity:1" d="M 904.318,367.061 885.982,367.061 z" id="boundary" inkscape:connector-curvature="0" />
	<circle cx="4" cy="407.401" r="4" fill="#0" id="circle0"/>
	<circle cx="4" cy="434.906" r="4" fill="#0" id="circle1"/>
	<circle cx="4" cy="453.242" r="4" fill="#0" id="circle2"/>
	<circle cx="4" cy="480.747" r="4" fill="#0" id="circle3"/>
	<circle cx="4" cy="508.251" r="4" fill="#0" id="circle4"/>
	<circle cx="4" cy="526.588" r="4" fill="#0" id="circle5"/>
	<circle cx="4" cy="544.924" r="4" fill="#0" id="circle6"/>
	<circle cx="13.1682" cy="260.71" r="4" fill="#0" id="circle7"/>
	<circle cx="13.1682" cy="279.046" r="4" fill="#0" id="circle8"/>
	<circle cx="13.1682" cy="297.383" r="4" fill="#0" id="circle9"/>
	<circle cx="13.1682" cy="315.719" r="4" fill="#0" id="circle10"/>
	<circle cx="13.1682" cy="334.055" r="4" fill="#0" id="circle11"/>
	<circle cx="22.3364" cy="205.701" r="4" fill="#0" id="circle12"/>
	<circle cx="22.3364" cy="224.037" r="4" fill="#0" id="circle13"/>
	<circle cx="22.3364" cy="242.373" r="4" fill="#0" id="circle14"/>
	<circle cx="22.3364" cy="350.558" r="4" fill="#0" id="circle15"/>
	<circle cx="22.3364" cy="368.895" r="4" fill="#0" id="circle16"/>
	<circle cx="22.3364" cy="401.9" r="4" fill="#0" id="circle17"/>
	<circle cx="22.3364" cy="550.425" r="4" fill="#0" id="circle18"/>
	<circle cx="31.5046" cy="187.364" r="4" fill="#0" id="circle19"/>
	<circle cx="31.5046" cy="385.397" r="4" fill="#0" id="circle20"/>
	<circle cx="40.6728" cy="150.691" r="4" fill="#0" id="circle21"/>
	<circle cx="40.6728" cy="169.028" r="4" fill="#0" id="circle22"/>
	<circle cx="40.6728" cy="401.9" r="4" fill="#0" id="circle23"/>
	<circle cx="40.6728" cy="550.425" r="4" fill="#0" id="circle24"/>
	<circle cx="55.342" cy="136.022" r="4" fill="#0" id="circle25"/>
	<circle cx="59.0092" cy="114.018" r="4" fill="#0" id="circle26"/>
	<circle cx="59.0092" cy="550.425" r="4" fill="#0" id="circle27"/>
	<circle cx="68.1774" cy="95.6821" r="4" fill="#0" id="circle28"/>
	<circle cx="77.3457" cy="550.425" r="4" fill="#0" id="circle29"/>
	<circle cx="82.8466" cy="81.0129" r="4" fill="#0" id="circle30"/>
	<circle cx="95.6821" cy="550.425" r="4" fill="#0" id="circle31"/>
	<circle cx="97.5157" cy="66.3438" r="4" fill="#0" id="circle32"/>
	<circle cx="114.018" cy="550.425" r="4" fill="#0" id="circle33"/>
	<circle cx="115.852" cy="57.1756" r="4" fill="#0" id="circle34"/>
	<circle cx="130.521" cy="44.3401" r="4" fill="#0" id="circle35"/>
	<circle cx="132.355" cy="550.425" r="4" fill="#0" id="circle36"/>
	<circle cx="147.024" cy="35.1719" r="4" fill="#0" id="circle37"/>
	<circle cx="150.691" cy="550.425" r="4" fill="#0" id="circle38"/>
	<circle cx="161.693" cy="82.8466" r="4" fill="#0" id="circle39"/>
	<circle cx="161.693" cy="101.183" r="4" fill="#0" id="circle40"/>
	<circle cx="161.693" cy="119.519" r="4" fill="#0" id="circle41"/>
	<circle cx="161.693" cy="137.856" r="4" fill="#0" id="circle42"/>
	<circle cx="161.693" cy="156.192" r="4" fill="#0" id="circle43"/>
	<circle cx="161.693" cy="174.529" r="4" fill="#0" id="circle44"/>
	<circle cx="163.527" cy="26.0037" r="4" fill="#0" id="circle45"/>
	<circle cx="165.36" cy="192.865" r="4" fill="#0" id="circle46"/>
	<circle cx="169.028" cy="550.425" r="4" fill="#0" id="circle47"/>
	<circle cx="176.362" cy="70.0111" r="4" fill="#0" id="circle48"/>
	<circle cx="178.196" cy="13.1682" r="4" fill="#0" id="circle49"/>
	<circle cx="180.03" cy="46.1738" r="4" fill="#0" id="circle50"/>
	<circle cx="180.03" cy="205.701" r="4" fill="#0" id="circle51"/>
	<circle cx="187.364" cy="224.037" r="4" fill="#0" id="circle52"/>
	<circle cx="187.364" cy="550.425" r="4" fill="#0" id="circle53"/>
	<circle cx="189.198" cy="27.8373" r="4" fill="#0" id="circle54"/>
	<circle cx="196.532" cy="4" r="4" fill="#0" id="circle55"/>
	<circle cx="198.366" cy="238.706" r="4" fill="#0" id="circle56"/>
	<circle cx="198.366" cy="394.566" r="4" fill="#0" id="circle57"/>
	<circle cx="205.701" cy="550.425" r="4" fill="#0" id="circle58"/>
	<circle cx="207.534" cy="255.209" r="4" fill="#0" id="circle59"/>
	<circle cx="207.534" cy="367.061" r="4" fill="#0" id="circle60"/>
	<circle cx="216.702" cy="401.9" r="4" fill="#0" id="circle61"/>
	<circle cx="224.037" cy="264.377" r="4" fill="#0" id="circle62"/>
	<circle cx="224.037" cy="544.924" r="4" fill="#0" id="circle63"/>
	<circle cx="225.871" cy="367.061" r="4" fill="#0" id="circle64"/>
	<circle cx="225.871" cy="418.403" r="4" fill="#0" id="circle65"/>
	<circle cx="225.871" cy="436.739" r="4" fill="#0" id="circle66"/>
	<circle cx="225.871" cy="455.076" r="4" fill="#0" id="circle67"/>
	<circle cx="225.871" cy="473.412" r="4" fill="#0" id="circle68"/>
	<circle cx="225.871" cy="491.749" r="4" fill="#0" id="circle69"/>
	<circle cx="225.871" cy="510.085" r="4" fill="#0" id="circle70"/>
	<circle cx="242.373" cy="264.377" r="4" fill="#0" id="circle71"/>
	<circle cx="244.207" cy="367.061" r="4" fill="#0" id="circle72"/>
	<circle cx="260.71" cy="264.377" r="4" fill="#0" id="circle73"/>
	<circle cx="262.543" cy="367.061" r="4" fill="#0" id="circle74"/>
	<circle cx="279.046" cy="264.377" r="4" fill="#0" id="circle75"/>
	<circle cx="280.88" cy="367.061" r="4" fill="#0" id="circle76"/>
	<circle cx="297.383" cy="264.377" r="4" fill="#0" id="circle77"/>
	<circle cx="299.216" cy="367.061" r="4" fill="#0" id="circle78"/>
	<circle cx="315.719" cy="264.377" r="4" fill="#0" id="circle79"/>
	<circle cx="317.553" cy="367.061" r="4" fill="#0" id="circle80"/>
	<circle cx="334.055" cy="264.377" r="4" fill="#0" id="circle81"/>
	<circle cx="335.889" cy="367.061" r="4" fill="#0" id="circle82"/>
	<circle cx="352.392" cy="264.377" r="4" fill="#0" id="circle83"/>
	<circle cx="354.226" cy="367.061" r="4" fill="#0" id="circle84"/>
	<circle cx="370.728" cy="264.377" r="4" fill="#0" id="circle85"/>
	<circle cx="372.562" cy="367.061" r="4" fill="#0" id="circle86"/>
	<circle cx="389.065" cy="264.377" r="4" fill="#0" id="circle87"/>
	<circle cx="390.898" cy="367.061" r="4" fill="#0" id="circle88"/>
	<circle cx="407.401" cy="264.377" r="4" fill="#0" id="circle89"/>
	<circle cx="409.235" cy="367.061" r="4" fill="#0" id="circle90"/>
	<circle cx="425.738" cy="264.377" r="4" fill="#0" id="circle91"/>
	<circle cx="427.571" cy="367.061" r="4" fill="#0" id="circle92"/>
	<circle cx="444.074" cy="264.377" r="4" fill="#0" id="circle93"/>
	<circle cx="445.908" cy="367.061" r="4" fill="#0" id="circle94"/>
	<circle cx="462.41" cy="264.377" r="4" fill="#0" id="circle95"/>
	<circle cx="464.244" cy="367.061" r="4" fill="#0" id="circle96"/>
	<circle cx="480.747" cy="264.377" r="4" fill="#0" id="circle97"/>
	<circle cx="482.58" cy="367.061" r="4" fill="#0" id="circle98"/>
	<circle cx="499.083" cy="264.377" r="4" fill="#0" id="circle99"/>
	<circle cx="500.917" cy="367.061" r="4" fill="#0" id="circle100"/>
	<circle cx="517.42" cy="264.377" r="4" fill="#0" id="circle101"/>
	<circle cx="519.253" cy="367.061" r="4" fill="#0" id="circle102"/>
	<circle cx="535.756" cy="264.377" r="4" fill="#0" id="circle103"/>
	<circle cx="537.59" cy="367.061" r="4" fill="#0" id="circle104"/>
	<circle cx="554.092" cy="264.377" r="4" fill="#0" id="circle105"/>
	<circle cx="555.926" cy="367.061" r="4" fill="#0" id="circle106"/>
	<circle cx="572.429" cy="264.377" r="4" fill="#0" id="circle107"/>
	<circle cx="574.262" cy="367.061" r="4" fill="#0" id="circle108"/>
	<circle cx="590.765" cy="264.377" r="4" fill="#0" id="circle109"/>
	<circle cx="592.599" cy="367.061" r="4" fill="#0" id="circle110"/>
	<circle cx="609.102" cy="264.377" r="4" fill="#0" id="circle111"/>
	<circle cx="610.935" cy="367.061" r="4" fill="#0" id="circle112"/>
	<circle cx="627.438" cy="264.377" r="4" fill="#0" id="circle113"/>
	<circle cx="629.272" cy="367.061" r="4" fill="#0" id="circle114"/>
	<circle cx="645.774" cy="264.377" r="4" fill="#0" id="circle115"/>
	<circle cx="647.608" cy="367.061" r="4" fill="#0" id="circle116"/>
	<circle cx="664.111" cy="264.377" r="4" fill="#0" id="circle117"/>
	<circle cx="665.945" cy="367.061" r="4" fill="#0" id="circle118"/>
	<circle cx="682.447" cy="264.377" r="4" fill="#0" id="circle119"/>
	<circle cx="684.281" cy="367.061" r="4" fill="#0" id="circle120"/>
	<circle cx="700.784" cy="264.377" r="4" fill="#0" id="circle121"/>
	<circle cx="702.617" cy="367.061" r="4" fill="#0" id="circle122"/>
	<circle cx="719.12" cy="264.377" r="4" fill="#0" id="circle123"/>
	<circle cx="720.954" cy="367.061" r="4" fill="#0" id="circle124"/>
	<circle cx="737.457" cy="264.377" r="4" fill="#0" id="circle125"/>
	<circle cx="739.29" cy="367.061" r="4" fill="#0" id="circle126"/>
	<circle cx="755.793" cy="264.377" r="4" fill="#0" id="circle127"/>
	<circle cx="757.627" cy="367.061" r="4" fill="#0" id="circle128"/>
	<circle cx="774.129" cy="264.377" r="4" fill="#0" id="circle129"/>
	<circle cx="775.963" cy="367.061" r="4" fill="#0" id="circle130"/>
	<circle cx="792.466" cy="264.377" r="4" fill="#0" id="circle131"/>
	<circle cx="794.299" cy="367.061" r="4" fill="#0" id="circle132"/>
	<circle cx="810.802" cy="264.377" r="4" fill="#0" id="circle133"/>
	<circle cx="812.636" cy="367.061" r="4" fill="#0" id="circle134"/>
	<circle cx="829.139" cy="264.377" r="4" fill="#0" id="circle135"/>
	<circle cx="830.972" cy="367.061" r="4" fill="#0" id="circle136"/>
	<circle cx="847.475" cy="264.377" r="4" fill="#0" id="circle137"/>
	<circle cx="849.309" cy="367.061" r="4" fill="#0" id="circle138"/>
	<circle cx="865.811" cy="264.377" r="4" fill="#0" id="circle139"/>
	<circle cx="867.645" cy="367.061" r="4" fill="#0" id="circle140"/>
	<circle cx="884.148" cy="264.377" r="4" fill="#0" id="circle141"/>
	<circle cx="885.982" cy="367.061" r="4" fill="#0" id="circle142"/>
	<circle cx="902.484" cy="264.377" r="4" fill="#0" id="circle143"/>
	<circle cx="904.318" cy="367.061" r="4" fill="#0" id="circle144"/>
	<circle cx="920.821" cy="264.377" r="4" fill="#0" id="circle145"/>
	<circle cx="922.654" cy="367.061" r="4" fill="#0" id="circle146"/>
	<circle cx="939.157" cy="264.377" r="4" fill="#0" id="circle147"/>
	<circle cx="940.991" cy="367.061" r="4" fill="#0" id="circle148"/>
	<circle cx="957.494" cy="264.377" r="4" fill="#0" id="circle149"/>
	<circle cx="959.327" cy="367.061" r="4" fill="#0" id="circle150"/>
	<circle cx="975.83" cy="264.377" r="4" fill="#0" id="circle151"/>
	<circle cx="977.664" cy="367.061" r="4" fill="#0" id="circle152"/>
	<circle cx="994.166" cy="268.044" r="4" fill="#0" id="circle153"/>
	<circle cx="996" cy="286.381" r="4" fill="#0" id="circle154"/>
	<circle cx="996" cy="304.717" r="4" fill="#0" id="circle155"/>
	<circle cx="996" cy="330.388" r="4" fill="#0" id="circle156"/>
	<circle cx="996" cy="357.893" r="4" fill="#0" id="circle157"/>
	</g>
</svg>