<?xml version="1.0" encoding="UTF-8" standalone="no"?>
<!-- Created with CurveBenchmark -->
<svg
	xmlns:dc="http://purl.org/dc/elements/1.1/"
	xmlns:cc="http://creativecommons.org/ns#"
	xmlns:rdf="http://www.w3.org/1999/02/22-rdf-syntax-ns#"
	xmlns:svg="http://www.w3.org/2000/svg"
	xmlns="http://www.w3.org/2000/svg"
	xmlns:sodipodi="http://sodipodi.sourceforge.net/DTD/sodipodi-0.dtd"
	xmlns:inkscape="http://www.inkscape.org/namespaces/inkscape"
	width="1000"
	height="1000"
	id="svg2"
	version="1.1"
	sodipodi:docname="manifold/nncrust-Misk16.png.txt">
<defs
	id="defs4" />
<metadata
	id="metadata7">
	<rdf:RDF>
		<cc:Work
			rdf:about="">
			<dc:format>image/svg+xml</dc:format>
			<dc:type
				rdf:resource="http://purl.org/dc/dcmitype/StillImage" />
			<dc:title></dc:title>
		</cc:Work>
	</rdf:RDF>
</metadata>
<g
	inkscape:label="Layer 1"
	inkscape:groupmode="layer"
	id="layer1">
	<path style="fill:none;stroke:red;stroke-width:1px;stroke-linecap:butt;stroke-linejoin:miter;stroke-opacity:1" d="M 4,262.3 4,246.454 z" id="boundary" inkscape:connector-curvature="0" />
	<path style="fill:none;stroke:red;stroke-width:1px;stroke-linecap:butt;stroke-linejoin:miter;stroke-opacity:1" d="M 4,246.454 16.6773,233.776 z" id="boundary" inkscape:connector-curvature="0" />
	<path style="fill:none;stroke:red;stroke-width:1px;stroke-linecap:butt;stroke-linejoin:miter;stroke-opacity:1" d="M 30.9393,225.853 16.6773,233.776 z" id="boundary" inkscape:connector-curvature="0" />
	<path style="fill:none;stroke:red;stroke-width:1px;stroke-linecap:butt;stroke-linejoin:miter;stroke-opacity:1" d="M 27.77,282.901 11.9233,276.562 z" id="boundary" inkscape:connector-curvature="0" />
	<path style="fill:none;stroke:red;stroke-width:1px;stroke-linecap:butt;stroke-linejoin:miter;stroke-opacity:1" d="M 11.9233,276.562 4,262.3 z" id="boundary" inkscape:connector-curvature="0" />
	<path style="fill:none;stroke:red;stroke-width:1px;stroke-linecap:butt;stroke-linejoin:miter;stroke-opacity:1" d="M 27.77,282.901 37.278,295.578 z" id="boundary" inkscape:connector-curvature="0" />
	<path style="fill:none;stroke:red;stroke-width:1px;stroke-linecap:butt;stroke-linejoin:miter;stroke-opacity:1" d="M 30.9393,225.853 45.2013,217.93 z" id="boundary" inkscape:connector-curvature="0" />
	<path style="fill:none;stroke:red;stroke-width:1px;stroke-linecap:butt;stroke-linejoin:miter;stroke-opacity:1" d="M 84.8179,181.482 97.4952,170.39 z" id="boundary" inkscape:connector-curvature="0" />
	<path style="fill:none;stroke:red;stroke-width:1px;stroke-linecap:butt;stroke-linejoin:miter;stroke-opacity:1" d="M 97.4952,170.39 111.757,162.466 z" id="boundary" inkscape:connector-curvature="0" />
	<path style="fill:none;stroke:red;stroke-width:1px;stroke-linecap:butt;stroke-linejoin:miter;stroke-opacity:1" d="M 124.435,149.789 111.757,162.466 z" id="boundary" inkscape:connector-curvature="0" />
	<path style="fill:none;stroke:red;stroke-width:1px;stroke-linecap:butt;stroke-linejoin:miter;stroke-opacity:1" d="M 72.1406,194.16 84.8179,181.482 z" id="boundary" inkscape:connector-curvature="0" />
	<path style="fill:none;stroke:red;stroke-width:1px;stroke-linecap:butt;stroke-linejoin:miter;stroke-opacity:1" d="M 49.9553,306.671 37.278,295.578 z" id="boundary" inkscape:connector-curvature="0" />
	<path style="fill:none;stroke:red;stroke-width:1px;stroke-linecap:butt;stroke-linejoin:miter;stroke-opacity:1" d="M 45.2013,217.93 59.4633,206.837 z" id="boundary" inkscape:connector-curvature="0" />
	<path style="fill:none;stroke:red;stroke-width:1px;stroke-linecap:butt;stroke-linejoin:miter;stroke-opacity:1" d="M 72.1406,194.16 59.4633,206.837 z" id="boundary" inkscape:connector-curvature="0" />
	<path style="fill:none;stroke:red;stroke-width:1px;stroke-linecap:butt;stroke-linejoin:miter;stroke-opacity:1" d="M 49.9553,306.671 64.2173,314.594 z" id="boundary" inkscape:connector-curvature="0" />
	<path style="fill:none;stroke:red;stroke-width:1px;stroke-linecap:butt;stroke-linejoin:miter;stroke-opacity:1" d="M 64.2173,314.594 72.1406,328.856 z" id="boundary" inkscape:connector-curvature="0" />
	<path style="fill:none;stroke:red;stroke-width:1px;stroke-linecap:butt;stroke-linejoin:miter;stroke-opacity:1" d="M 83.2332,341.534 72.1406,328.856 z" id="boundary" inkscape:connector-curvature="0" />
	<path style="fill:none;stroke:red;stroke-width:1px;stroke-linecap:butt;stroke-linejoin:miter;stroke-opacity:1" d="M 102.249,368.473 91.1565,355.796 z" id="boundary" inkscape:connector-curvature="0" />
	<path style="fill:none;stroke:red;stroke-width:1px;stroke-linecap:butt;stroke-linejoin:miter;stroke-opacity:1" d="M 91.1565,355.796 83.2332,341.534 z" id="boundary" inkscape:connector-curvature="0" />
	<path style="fill:none;stroke:red;stroke-width:1px;stroke-linecap:butt;stroke-linejoin:miter;stroke-opacity:1" d="M 122.85,412.843 114.927,398.581 z" id="boundary" inkscape:connector-curvature="0" />
	<path style="fill:none;stroke:red;stroke-width:1px;stroke-linecap:butt;stroke-linejoin:miter;stroke-opacity:1" d="M 114.927,398.581 110.173,382.735 z" id="boundary" inkscape:connector-curvature="0" />
	<path style="fill:none;stroke:red;stroke-width:1px;stroke-linecap:butt;stroke-linejoin:miter;stroke-opacity:1" d="M 122.85,412.843 122.85,428.69 z" id="boundary" inkscape:connector-curvature="0" />
	<path style="fill:none;stroke:red;stroke-width:1px;stroke-linecap:butt;stroke-linejoin:miter;stroke-opacity:1" d="M 122.85,428.69 122.85,444.537 z" id="boundary" inkscape:connector-curvature="0" />
	<path style="fill:none;stroke:red;stroke-width:1px;stroke-linecap:butt;stroke-linejoin:miter;stroke-opacity:1" d="M 122.85,460.383 122.85,444.537 z" id="boundary" inkscape:connector-curvature="0" />
	<path style="fill:none;stroke:red;stroke-width:1px;stroke-linecap:butt;stroke-linejoin:miter;stroke-opacity:1" d="M 122.85,492.077 122.85,476.23 z" id="boundary" inkscape:connector-curvature="0" />
	<path style="fill:none;stroke:red;stroke-width:1px;stroke-linecap:butt;stroke-linejoin:miter;stroke-opacity:1" d="M 122.85,476.23 122.85,460.383 z" id="boundary" inkscape:connector-curvature="0" />
	<path style="fill:none;stroke:red;stroke-width:1px;stroke-linecap:butt;stroke-linejoin:miter;stroke-opacity:1" d="M 102.249,368.473 110.173,382.735 z" id="boundary" inkscape:connector-curvature="0" />
	<path style="fill:none;stroke:red;stroke-width:1px;stroke-linecap:butt;stroke-linejoin:miter;stroke-opacity:1" d="M 303.502,67.3866 287.655,67.3866 z" id="boundary" inkscape:connector-curvature="0" />
	<path style="fill:none;stroke:red;stroke-width:1px;stroke-linecap:butt;stroke-linejoin:miter;stroke-opacity:1" d="M 287.655,67.3866 271.808,67.3866 z" id="boundary" inkscape:connector-curvature="0" />
	<path style="fill:none;stroke:red;stroke-width:1px;stroke-linecap:butt;stroke-linejoin:miter;stroke-opacity:1" d="M 396.997,59.4633 381.15,59.4633 z" id="boundary" inkscape:connector-curvature="0" />
	<path style="fill:none;stroke:red;stroke-width:1px;stroke-linecap:butt;stroke-linejoin:miter;stroke-opacity:1" d="M 411.259,51.5399 396.997,59.4633 z" id="boundary" inkscape:connector-curvature="0" />
	<path style="fill:none;stroke:red;stroke-width:1px;stroke-linecap:butt;stroke-linejoin:miter;stroke-opacity:1" d="M 319.348,67.3866 303.502,67.3866 z" id="boundary" inkscape:connector-curvature="0" />
	<path style="fill:none;stroke:red;stroke-width:1px;stroke-linecap:butt;stroke-linejoin:miter;stroke-opacity:1" d="M 335.195,67.3866 319.348,67.3866 z" id="boundary" inkscape:connector-curvature="0" />
	<path style="fill:none;stroke:red;stroke-width:1px;stroke-linecap:butt;stroke-linejoin:miter;stroke-opacity:1" d="M 366.888,67.3866 381.15,59.4633 z" id="boundary" inkscape:connector-curvature="0" />
	<path style="fill:none;stroke:red;stroke-width:1px;stroke-linecap:butt;stroke-linejoin:miter;stroke-opacity:1" d="M 257.546,75.3099 271.808,67.3866 z" id="boundary" inkscape:connector-curvature="0" />
	<path style="fill:none;stroke:red;stroke-width:1px;stroke-linecap:butt;stroke-linejoin:miter;stroke-opacity:1" d="M 423.936,16.6773 436.613,4 z" id="boundary" inkscape:connector-curvature="0" />
	<path style="fill:none;stroke:red;stroke-width:1px;stroke-linecap:butt;stroke-linejoin:miter;stroke-opacity:1" d="M 436.613,4 450.875,11.9233 z" id="boundary" inkscape:connector-curvature="0" />
	<path style="fill:none;stroke:red;stroke-width:1px;stroke-linecap:butt;stroke-linejoin:miter;stroke-opacity:1" d="M 423.936,32.524 423.936,16.6773 z" id="boundary" inkscape:connector-curvature="0" />
	<path style="fill:none;stroke:red;stroke-width:1px;stroke-linecap:butt;stroke-linejoin:miter;stroke-opacity:1" d="M 411.259,51.5399 423.936,32.524 z" id="boundary" inkscape:connector-curvature="0" />
	<path style="fill:none;stroke:red;stroke-width:1px;stroke-linecap:butt;stroke-linejoin:miter;stroke-opacity:1" d="M 480.984,24.6006 465.137,19.8466 z" id="boundary" inkscape:connector-curvature="0" />
	<path style="fill:none;stroke:red;stroke-width:1px;stroke-linecap:butt;stroke-linejoin:miter;stroke-opacity:1" d="M 465.137,19.8466 450.875,11.9233 z" id="boundary" inkscape:connector-curvature="0" />
	<path style="fill:none;stroke:red;stroke-width:1px;stroke-linecap:butt;stroke-linejoin:miter;stroke-opacity:1" d="M 194.16,103.834 181.482,114.927 z" id="boundary" inkscape:connector-curvature="0" />
	<path style="fill:none;stroke:red;stroke-width:1px;stroke-linecap:butt;stroke-linejoin:miter;stroke-opacity:1" d="M 181.482,114.927 167.22,122.85 z" id="boundary" inkscape:connector-curvature="0" />
	<path style="fill:none;stroke:red;stroke-width:1px;stroke-linecap:butt;stroke-linejoin:miter;stroke-opacity:1" d="M 167.22,122.85 152.958,130.773 z" id="boundary" inkscape:connector-curvature="0" />
	<path style="fill:none;stroke:red;stroke-width:1px;stroke-linecap:butt;stroke-linejoin:miter;stroke-opacity:1" d="M 335.195,67.3866 351.042,67.3866 z" id="boundary" inkscape:connector-curvature="0" />
	<path style="fill:none;stroke:red;stroke-width:1px;stroke-linecap:butt;stroke-linejoin:miter;stroke-opacity:1" d="M 124.435,149.789 140.281,141.866 z" id="boundary" inkscape:connector-curvature="0" />
	<path style="fill:none;stroke:red;stroke-width:1px;stroke-linecap:butt;stroke-linejoin:miter;stroke-opacity:1" d="M 140.281,141.866 152.958,130.773 z" id="boundary" inkscape:connector-curvature="0" />
	<path style="fill:none;stroke:red;stroke-width:1px;stroke-linecap:butt;stroke-linejoin:miter;stroke-opacity:1" d="M 194.16,103.834 210.006,95.9105 z" id="boundary" inkscape:connector-curvature="0" />
	<path style="fill:none;stroke:red;stroke-width:1px;stroke-linecap:butt;stroke-linejoin:miter;stroke-opacity:1" d="M 351.042,67.3866 366.888,67.3866 z" id="boundary" inkscape:connector-curvature="0" />
	<path style="fill:none;stroke:red;stroke-width:1px;stroke-linecap:butt;stroke-linejoin:miter;stroke-opacity:1" d="M 241.7,80.0639 257.546,75.3099 z" id="boundary" inkscape:connector-curvature="0" />
	<path style="fill:none;stroke:red;stroke-width:1px;stroke-linecap:butt;stroke-linejoin:miter;stroke-opacity:1" d="M 225.853,87.9872 241.7,80.0639 z" id="boundary" inkscape:connector-curvature="0" />
	<path style="fill:none;stroke:red;stroke-width:1px;stroke-linecap:butt;stroke-linejoin:miter;stroke-opacity:1" d="M 210.006,95.9105 225.853,87.9872 z" id="boundary" inkscape:connector-curvature="0" />
	<path style="fill:none;stroke:red;stroke-width:1px;stroke-linecap:butt;stroke-linejoin:miter;stroke-opacity:1" d="M 114.927,515.847 122.85,492.077 z" id="boundary" inkscape:connector-curvature="0" />
	<path style="fill:none;stroke:red;stroke-width:1px;stroke-linecap:butt;stroke-linejoin:miter;stroke-opacity:1" d="M 51.5399,658.466 43.6166,674.313 z" id="boundary" inkscape:connector-curvature="0" />
	<path style="fill:none;stroke:red;stroke-width:1px;stroke-linecap:butt;stroke-linejoin:miter;stroke-opacity:1" d="M 59.4633,642.62 51.5399,658.466 z" id="boundary" inkscape:connector-curvature="0" />
	<path style="fill:none;stroke:red;stroke-width:1px;stroke-linecap:butt;stroke-linejoin:miter;stroke-opacity:1" d="M 35.6933,690.16 35.6933,706.006 z" id="boundary" inkscape:connector-curvature="0" />
	<path style="fill:none;stroke:red;stroke-width:1px;stroke-linecap:butt;stroke-linejoin:miter;stroke-opacity:1" d="M 35.6933,690.16 43.6166,674.313 z" id="boundary" inkscape:connector-curvature="0" />
	<path style="fill:none;stroke:red;stroke-width:1px;stroke-linecap:butt;stroke-linejoin:miter;stroke-opacity:1" d="M 35.6933,721.853 35.6933,706.006 z" id="boundary" inkscape:connector-curvature="0" />
	<path style="fill:none;stroke:red;stroke-width:1px;stroke-linecap:butt;stroke-linejoin:miter;stroke-opacity:1" d="M 99.0799,563.387 107.003,539.617 z" id="boundary" inkscape:connector-curvature="0" />
	<path style="fill:none;stroke:red;stroke-width:1px;stroke-linecap:butt;stroke-linejoin:miter;stroke-opacity:1" d="M 95.9105,582.403 99.0799,563.387 z" id="boundary" inkscape:connector-curvature="0" />
	<path style="fill:none;stroke:red;stroke-width:1px;stroke-linecap:butt;stroke-linejoin:miter;stroke-opacity:1" d="M 67.3866,626.773 80.0639,614.096 z" id="boundary" inkscape:connector-curvature="0" />
	<path style="fill:none;stroke:red;stroke-width:1px;stroke-linecap:butt;stroke-linejoin:miter;stroke-opacity:1" d="M 59.4633,642.62 67.3866,626.773 z" id="boundary" inkscape:connector-curvature="0" />
	<path style="fill:none;stroke:red;stroke-width:1px;stroke-linecap:butt;stroke-linejoin:miter;stroke-opacity:1" d="M 87.9872,598.249 80.0639,614.096 z" id="boundary" inkscape:connector-curvature="0" />
	<path style="fill:none;stroke:red;stroke-width:1px;stroke-linecap:butt;stroke-linejoin:miter;stroke-opacity:1" d="M 95.9105,582.403 87.9872,598.249 z" id="boundary" inkscape:connector-curvature="0" />
	<path style="fill:none;stroke:red;stroke-width:1px;stroke-linecap:butt;stroke-linejoin:miter;stroke-opacity:1" d="M 114.927,515.847 107.003,539.617 z" id="boundary" inkscape:connector-curvature="0" />
	<path style="fill:none;stroke:red;stroke-width:1px;stroke-linecap:butt;stroke-linejoin:miter;stroke-opacity:1" d="M 35.6933,737.7 43.6166,751.962 z" id="boundary" inkscape:connector-curvature="0" />
	<path style="fill:none;stroke:red;stroke-width:1px;stroke-linecap:butt;stroke-linejoin:miter;stroke-opacity:1" d="M 51.5399,766.224 43.6166,751.962 z" id="boundary" inkscape:connector-curvature="0" />
	<path style="fill:none;stroke:red;stroke-width:1px;stroke-linecap:butt;stroke-linejoin:miter;stroke-opacity:1" d="M 56.2939,782.07 51.5399,766.224 z" id="boundary" inkscape:connector-curvature="0" />
	<path style="fill:none;stroke:red;stroke-width:1px;stroke-linecap:butt;stroke-linejoin:miter;stroke-opacity:1" d="M 67.3866,794.748 56.2939,782.07 z" id="boundary" inkscape:connector-curvature="0" />
	<path style="fill:none;stroke:red;stroke-width:1px;stroke-linecap:butt;stroke-linejoin:miter;stroke-opacity:1" d="M 80.0639,804.256 67.3866,794.748 z" id="boundary" inkscape:connector-curvature="0" />
	<path style="fill:none;stroke:red;stroke-width:1px;stroke-linecap:butt;stroke-linejoin:miter;stroke-opacity:1" d="M 95.9105,796.332 80.0639,804.256 z" id="boundary" inkscape:connector-curvature="0" />
	<path style="fill:none;stroke:red;stroke-width:1px;stroke-linecap:butt;stroke-linejoin:miter;stroke-opacity:1" d="M 35.6933,737.7 35.6933,721.853 z" id="boundary" inkscape:connector-curvature="0" />
	<path style="fill:none;stroke:red;stroke-width:1px;stroke-linecap:butt;stroke-linejoin:miter;stroke-opacity:1" d="M 95.9105,796.332 111.757,796.332 z" id="boundary" inkscape:connector-curvature="0" />
	<path style="fill:none;stroke:red;stroke-width:1px;stroke-linecap:butt;stroke-linejoin:miter;stroke-opacity:1" d="M 111.757,796.332 126.019,804.256 z" id="boundary" inkscape:connector-curvature="0" />
	<path style="fill:none;stroke:red;stroke-width:1px;stroke-linecap:butt;stroke-linejoin:miter;stroke-opacity:1" d="M 138.696,813.764 143.45,829.61 z" id="boundary" inkscape:connector-curvature="0" />
	<path style="fill:none;stroke:red;stroke-width:1px;stroke-linecap:butt;stroke-linejoin:miter;stroke-opacity:1" d="M 126.019,804.256 138.696,813.764 z" id="boundary" inkscape:connector-curvature="0" />
	<path style="fill:none;stroke:red;stroke-width:1px;stroke-linecap:butt;stroke-linejoin:miter;stroke-opacity:1" d="M 154.543,842.288 143.45,829.61 z" id="boundary" inkscape:connector-curvature="0" />
	<path style="fill:none;stroke:red;stroke-width:1px;stroke-linecap:butt;stroke-linejoin:miter;stroke-opacity:1" d="M 154.543,842.288 162.466,856.55 z" id="boundary" inkscape:connector-curvature="0" />
	<path style="fill:none;stroke:red;stroke-width:1px;stroke-linecap:butt;stroke-linejoin:miter;stroke-opacity:1" d="M 162.466,856.55 170.39,870.812 z" id="boundary" inkscape:connector-curvature="0" />
	<path style="fill:none;stroke:red;stroke-width:1px;stroke-linecap:butt;stroke-linejoin:miter;stroke-opacity:1" d="M 187.821,897.751 178.313,885.073 z" id="boundary" inkscape:connector-curvature="0" />
	<path style="fill:none;stroke:red;stroke-width:1px;stroke-linecap:butt;stroke-linejoin:miter;stroke-opacity:1" d="M 178.313,885.073 170.39,870.812 z" id="boundary" inkscape:connector-curvature="0" />
	<path style="fill:none;stroke:red;stroke-width:1px;stroke-linecap:butt;stroke-linejoin:miter;stroke-opacity:1" d="M 214.76,916.767 200.498,908.843 z" id="boundary" inkscape:connector-curvature="0" />
	<path style="fill:none;stroke:red;stroke-width:1px;stroke-linecap:butt;stroke-linejoin:miter;stroke-opacity:1" d="M 200.498,908.843 187.821,897.751 z" id="boundary" inkscape:connector-curvature="0" />
	<path style="fill:none;stroke:red;stroke-width:1px;stroke-linecap:butt;stroke-linejoin:miter;stroke-opacity:1" d="M 229.022,924.69 214.76,916.767 z" id="boundary" inkscape:connector-curvature="0" />
	<path style="fill:none;stroke:red;stroke-width:1px;stroke-linecap:butt;stroke-linejoin:miter;stroke-opacity:1" d="M 480.984,750.377 473.061,774.147 z" id="boundary" inkscape:connector-curvature="0" />
	<path style="fill:none;stroke:red;stroke-width:1px;stroke-linecap:butt;stroke-linejoin:miter;stroke-opacity:1" d="M 473.061,774.147 465.137,789.994 z" id="boundary" inkscape:connector-curvature="0" />
	<path style="fill:none;stroke:red;stroke-width:1px;stroke-linecap:butt;stroke-linejoin:miter;stroke-opacity:1" d="M 496.831,801.086 480.984,796.332 z" id="boundary" inkscape:connector-curvature="0" />
	<path style="fill:none;stroke:red;stroke-width:1px;stroke-linecap:butt;stroke-linejoin:miter;stroke-opacity:1" d="M 480.984,796.332 465.137,789.994 z" id="boundary" inkscape:connector-curvature="0" />
	<path style="fill:none;stroke:red;stroke-width:1px;stroke-linecap:butt;stroke-linejoin:miter;stroke-opacity:1" d="M 244.869,929.444 260.716,929.444 z" id="boundary" inkscape:connector-curvature="0" />
	<path style="fill:none;stroke:red;stroke-width:1px;stroke-linecap:butt;stroke-linejoin:miter;stroke-opacity:1" d="M 260.716,929.444 274.978,937.367 z" id="boundary" inkscape:connector-curvature="0" />
	<path style="fill:none;stroke:red;stroke-width:1px;stroke-linecap:butt;stroke-linejoin:miter;stroke-opacity:1" d="M 244.869,929.444 229.022,924.69 z" id="boundary" inkscape:connector-curvature="0" />
	<path style="fill:none;stroke:red;stroke-width:1px;stroke-linecap:butt;stroke-linejoin:miter;stroke-opacity:1" d="M 290.824,940.537 274.978,937.367 z" id="boundary" inkscape:connector-curvature="0" />
	<path style="fill:none;stroke:red;stroke-width:1px;stroke-linecap:butt;stroke-linejoin:miter;stroke-opacity:1" d="M 320.933,948.46 305.086,948.46 z" id="boundary" inkscape:connector-curvature="0" />
	<path style="fill:none;stroke:red;stroke-width:1px;stroke-linecap:butt;stroke-linejoin:miter;stroke-opacity:1" d="M 305.086,948.46 290.824,940.537 z" id="boundary" inkscape:connector-curvature="0" />
	<path style="fill:none;stroke:red;stroke-width:1px;stroke-linecap:butt;stroke-linejoin:miter;stroke-opacity:1" d="M 320.933,948.46 335.195,956.383 z" id="boundary" inkscape:connector-curvature="0" />
	<path style="fill:none;stroke:red;stroke-width:1px;stroke-linecap:butt;stroke-linejoin:miter;stroke-opacity:1" d="M 335.195,956.383 349.457,964.307 z" id="boundary" inkscape:connector-curvature="0" />
	<path style="fill:none;stroke:red;stroke-width:1px;stroke-linecap:butt;stroke-linejoin:miter;stroke-opacity:1" d="M 365.304,970.645 379.565,978.569 z" id="boundary" inkscape:connector-curvature="0" />
	<path style="fill:none;stroke:red;stroke-width:1px;stroke-linecap:butt;stroke-linejoin:miter;stroke-opacity:1" d="M 349.457,964.307 365.304,970.645 z" id="boundary" inkscape:connector-curvature="0" />
	<path style="fill:none;stroke:red;stroke-width:1px;stroke-linecap:butt;stroke-linejoin:miter;stroke-opacity:1" d="M 365.304,970.645 465.137,789.994 z" id="boundary" inkscape:connector-curvature="0" />
	<path style="fill:none;stroke:red;stroke-width:1px;stroke-linecap:butt;stroke-linejoin:miter;stroke-opacity:1" d="M 395.412,984.907 411.259,988.077 z" id="boundary" inkscape:connector-curvature="0" />
	<path style="fill:none;stroke:red;stroke-width:1px;stroke-linecap:butt;stroke-linejoin:miter;stroke-opacity:1" d="M 411.259,988.077 425.521,996 z" id="boundary" inkscape:connector-curvature="0" />
	<path style="fill:none;stroke:red;stroke-width:1px;stroke-linecap:butt;stroke-linejoin:miter;stroke-opacity:1" d="M 395.412,984.907 379.565,978.569 z" id="boundary" inkscape:connector-curvature="0" />
	<path style="fill:none;stroke:red;stroke-width:1px;stroke-linecap:butt;stroke-linejoin:miter;stroke-opacity:1" d="M 441.367,996 425.521,996 z" id="boundary" inkscape:connector-curvature="0" />
	<path style="fill:none;stroke:red;stroke-width:1px;stroke-linecap:butt;stroke-linejoin:miter;stroke-opacity:1" d="M 457.214,996 441.367,996 z" id="boundary" inkscape:connector-curvature="0" />
	<path style="fill:none;stroke:red;stroke-width:1px;stroke-linecap:butt;stroke-linejoin:miter;stroke-opacity:1" d="M 473.061,996 457.214,996 z" id="boundary" inkscape:connector-curvature="0" />
	<path style="fill:none;stroke:red;stroke-width:1px;stroke-linecap:butt;stroke-linejoin:miter;stroke-opacity:1" d="M 488.907,996 473.061,996 z" id="boundary" inkscape:connector-curvature="0" />
	<path style="fill:none;stroke:red;stroke-width:1px;stroke-linecap:butt;stroke-linejoin:miter;stroke-opacity:1" d="M 480.984,24.6006 493.661,35.6933 z" id="boundary" inkscape:connector-curvature="0" />
	<path style="fill:none;stroke:red;stroke-width:1px;stroke-linecap:butt;stroke-linejoin:miter;stroke-opacity:1" d="M 507.923,43.6166 522.185,51.5399 z" id="boundary" inkscape:connector-curvature="0" />
	<path style="fill:none;stroke:red;stroke-width:1px;stroke-linecap:butt;stroke-linejoin:miter;stroke-opacity:1" d="M 507.923,43.6166 493.661,35.6933 z" id="boundary" inkscape:connector-curvature="0" />
	<path style="fill:none;stroke:red;stroke-width:1px;stroke-linecap:butt;stroke-linejoin:miter;stroke-opacity:1" d="M 538.032,51.5399 522.185,51.5399 z" id="boundary" inkscape:connector-curvature="0" />
	<path style="fill:none;stroke:red;stroke-width:1px;stroke-linecap:butt;stroke-linejoin:miter;stroke-opacity:1" d="M 568.141,64.2173 552.294,59.4633 z" id="boundary" inkscape:connector-curvature="0" />
	<path style="fill:none;stroke:red;stroke-width:1px;stroke-linecap:butt;stroke-linejoin:miter;stroke-opacity:1" d="M 552.294,59.4633 538.032,51.5399 z" id="boundary" inkscape:connector-curvature="0" />
	<path style="fill:none;stroke:red;stroke-width:1px;stroke-linecap:butt;stroke-linejoin:miter;stroke-opacity:1" d="M 583.987,67.3866 568.141,64.2173 z" id="boundary" inkscape:connector-curvature="0" />
	<path style="fill:none;stroke:red;stroke-width:1px;stroke-linecap:butt;stroke-linejoin:miter;stroke-opacity:1" d="M 710.76,306.671 655.297,480.984 z" id="boundary" inkscape:connector-curvature="0" />
	<path style="fill:none;stroke:red;stroke-width:1px;stroke-linecap:butt;stroke-linejoin:miter;stroke-opacity:1" d="M 598.249,75.3099 612.511,83.2332 z" id="boundary" inkscape:connector-curvature="0" />
	<path style="fill:none;stroke:red;stroke-width:1px;stroke-linecap:butt;stroke-linejoin:miter;stroke-opacity:1" d="M 626.773,91.1565 641.035,99.0799 z" id="boundary" inkscape:connector-curvature="0" />
	<path style="fill:none;stroke:red;stroke-width:1px;stroke-linecap:butt;stroke-linejoin:miter;stroke-opacity:1" d="M 641.035,99.0799 655.297,107.003 z" id="boundary" inkscape:connector-curvature="0" />
	<path style="fill:none;stroke:red;stroke-width:1px;stroke-linecap:butt;stroke-linejoin:miter;stroke-opacity:1" d="M 667.974,116.511 655.297,107.003 z" id="boundary" inkscape:connector-curvature="0" />
	<path style="fill:none;stroke:red;stroke-width:1px;stroke-linecap:butt;stroke-linejoin:miter;stroke-opacity:1" d="M 583.987,67.3866 598.249,75.3099 z" id="boundary" inkscape:connector-curvature="0" />
	<path style="fill:none;stroke:red;stroke-width:1px;stroke-linecap:butt;stroke-linejoin:miter;stroke-opacity:1" d="M 667.974,116.511 679.067,129.188 z" id="boundary" inkscape:connector-curvature="0" />
	<path style="fill:none;stroke:red;stroke-width:1px;stroke-linecap:butt;stroke-linejoin:miter;stroke-opacity:1" d="M 671.144,473.061 655.297,480.984 z" id="boundary" inkscape:connector-curvature="0" />
	<path style="fill:none;stroke:red;stroke-width:1px;stroke-linecap:butt;stroke-linejoin:miter;stroke-opacity:1" d="M 612.511,83.2332 626.773,91.1565 z" id="boundary" inkscape:connector-curvature="0" />
	<path style="fill:none;stroke:red;stroke-width:1px;stroke-linecap:butt;stroke-linejoin:miter;stroke-opacity:1" d="M 671.144,473.061 686.99,465.137 z" id="boundary" inkscape:connector-curvature="0" />
	<path style="fill:none;stroke:red;stroke-width:1px;stroke-linecap:butt;stroke-linejoin:miter;stroke-opacity:1" d="M 663.22,495.246 655.297,480.984 z" id="boundary" inkscape:connector-curvature="0" />
	<path style="fill:none;stroke:red;stroke-width:1px;stroke-linecap:butt;stroke-linejoin:miter;stroke-opacity:1" d="M 663.22,495.246 671.144,509.508 z" id="boundary" inkscape:connector-curvature="0" />
	<path style="fill:none;stroke:red;stroke-width:1px;stroke-linecap:butt;stroke-linejoin:miter;stroke-opacity:1" d="M 671.144,509.508 671.144,525.355 z" id="boundary" inkscape:connector-curvature="0" />
	<path style="fill:none;stroke:red;stroke-width:1px;stroke-linecap:butt;stroke-linejoin:miter;stroke-opacity:1" d="M 683.821,536.447 671.144,525.355 z" id="boundary" inkscape:connector-curvature="0" />
	<path style="fill:none;stroke:red;stroke-width:1px;stroke-linecap:butt;stroke-linejoin:miter;stroke-opacity:1" d="M 702.837,457.214 717.099,449.291 z" id="boundary" inkscape:connector-curvature="0" />
	<path style="fill:none;stroke:red;stroke-width:1px;stroke-linecap:butt;stroke-linejoin:miter;stroke-opacity:1" d="M 702.837,457.214 686.99,465.137 z" id="boundary" inkscape:connector-curvature="0" />
	<path style="fill:none;stroke:red;stroke-width:1px;stroke-linecap:butt;stroke-linejoin:miter;stroke-opacity:1" d="M 690.16,552.294 702.837,563.387 z" id="boundary" inkscape:connector-curvature="0" />
	<path style="fill:none;stroke:red;stroke-width:1px;stroke-linecap:butt;stroke-linejoin:miter;stroke-opacity:1" d="M 690.16,552.294 683.821,536.447 z" id="boundary" inkscape:connector-curvature="0" />
	<path style="fill:none;stroke:red;stroke-width:1px;stroke-linecap:butt;stroke-linejoin:miter;stroke-opacity:1" d="M 706.006,148.204 713.93,162.466 z" id="boundary" inkscape:connector-curvature="0" />
	<path style="fill:none;stroke:red;stroke-width:1px;stroke-linecap:butt;stroke-linejoin:miter;stroke-opacity:1" d="M 679.067,129.188 694.914,135.527 z" id="boundary" inkscape:connector-curvature="0" />
	<path style="fill:none;stroke:red;stroke-width:1px;stroke-linecap:butt;stroke-linejoin:miter;stroke-opacity:1" d="M 694.914,135.527 706.006,148.204 z" id="boundary" inkscape:connector-curvature="0" />
	<path style="fill:none;stroke:red;stroke-width:1px;stroke-linecap:butt;stroke-linejoin:miter;stroke-opacity:1" d="M 725.022,175.144 713.93,162.466 z" id="boundary" inkscape:connector-curvature="0" />
	<path style="fill:none;stroke:red;stroke-width:1px;stroke-linecap:butt;stroke-linejoin:miter;stroke-opacity:1" d="M 726.607,267.054 718.684,290.824 z" id="boundary" inkscape:connector-curvature="0" />
	<path style="fill:none;stroke:red;stroke-width:1px;stroke-linecap:butt;stroke-linejoin:miter;stroke-opacity:1" d="M 710.76,306.671 718.684,290.824 z" id="boundary" inkscape:connector-curvature="0" />
	<path style="fill:none;stroke:red;stroke-width:1px;stroke-linecap:butt;stroke-linejoin:miter;stroke-opacity:1" d="M 718.684,320.933 710.76,306.671 z" id="boundary" inkscape:connector-curvature="0" />
	<path style="fill:none;stroke:red;stroke-width:1px;stroke-linecap:butt;stroke-linejoin:miter;stroke-opacity:1" d="M 732.946,328.856 718.684,320.933 z" id="boundary" inkscape:connector-curvature="0" />
	<path style="fill:none;stroke:red;stroke-width:1px;stroke-linecap:butt;stroke-linejoin:miter;stroke-opacity:1" d="M 734.53,205.252 734.53,221.099 z" id="boundary" inkscape:connector-curvature="0" />
	<path style="fill:none;stroke:red;stroke-width:1px;stroke-linecap:butt;stroke-linejoin:miter;stroke-opacity:1" d="M 734.53,205.252 732.946,189.406 z" id="boundary" inkscape:connector-curvature="0" />
	<path style="fill:none;stroke:red;stroke-width:1px;stroke-linecap:butt;stroke-linejoin:miter;stroke-opacity:1" d="M 734.53,236.946 734.53,221.099 z" id="boundary" inkscape:connector-curvature="0" />
	<path style="fill:none;stroke:red;stroke-width:1px;stroke-linecap:butt;stroke-linejoin:miter;stroke-opacity:1" d="M 726.607,267.054 734.53,252.792 z" id="boundary" inkscape:connector-curvature="0" />
	<path style="fill:none;stroke:red;stroke-width:1px;stroke-linecap:butt;stroke-linejoin:miter;stroke-opacity:1" d="M 734.53,236.946 734.53,252.792 z" id="boundary" inkscape:connector-curvature="0" />
	<path style="fill:none;stroke:red;stroke-width:1px;stroke-linecap:butt;stroke-linejoin:miter;stroke-opacity:1" d="M 742.454,341.534 732.946,328.856 z" id="boundary" inkscape:connector-curvature="0" />
	<path style="fill:none;stroke:red;stroke-width:1px;stroke-linecap:butt;stroke-linejoin:miter;stroke-opacity:1" d="M 753.546,354.211 742.454,341.534 z" id="boundary" inkscape:connector-curvature="0" />
	<path style="fill:none;stroke:red;stroke-width:1px;stroke-linecap:butt;stroke-linejoin:miter;stroke-opacity:1" d="M 725.022,175.144 732.946,189.406 z" id="boundary" inkscape:connector-curvature="0" />
	<path style="fill:none;stroke:red;stroke-width:1px;stroke-linecap:butt;stroke-linejoin:miter;stroke-opacity:1" d="M 742.454,425.521 729.776,439.783 z" id="boundary" inkscape:connector-curvature="0" />
	<path style="fill:none;stroke:red;stroke-width:1px;stroke-linecap:butt;stroke-linejoin:miter;stroke-opacity:1" d="M 729.776,439.783 717.099,449.291 z" id="boundary" inkscape:connector-curvature="0" />
	<path style="fill:none;stroke:red;stroke-width:1px;stroke-linecap:butt;stroke-linejoin:miter;stroke-opacity:1" d="M 713.93,576.064 726.607,587.157 z" id="boundary" inkscape:connector-curvature="0" />
	<path style="fill:none;stroke:red;stroke-width:1px;stroke-linecap:butt;stroke-linejoin:miter;stroke-opacity:1" d="M 737.7,599.834 745.623,614.096 z" id="boundary" inkscape:connector-curvature="0" />
	<path style="fill:none;stroke:red;stroke-width:1px;stroke-linecap:butt;stroke-linejoin:miter;stroke-opacity:1" d="M 726.607,587.157 737.7,599.834 z" id="boundary" inkscape:connector-curvature="0" />
	<path style="fill:none;stroke:red;stroke-width:1px;stroke-linecap:butt;stroke-linejoin:miter;stroke-opacity:1" d="M 756.716,626.773 745.623,614.096 z" id="boundary" inkscape:connector-curvature="0" />
	<path style="fill:none;stroke:red;stroke-width:1px;stroke-linecap:butt;stroke-linejoin:miter;stroke-opacity:1" d="M 742.454,425.521 755.131,414.428 z" id="boundary" inkscape:connector-curvature="0" />
	<path style="fill:none;stroke:red;stroke-width:1px;stroke-linecap:butt;stroke-linejoin:miter;stroke-opacity:1" d="M 713.93,576.064 702.837,563.387 z" id="boundary" inkscape:connector-curvature="0" />
	<path style="fill:none;stroke:red;stroke-width:1px;stroke-linecap:butt;stroke-linejoin:miter;stroke-opacity:1" d="M 753.546,354.211 766.224,365.304 z" id="boundary" inkscape:connector-curvature="0" />
	<path style="fill:none;stroke:red;stroke-width:1px;stroke-linecap:butt;stroke-linejoin:miter;stroke-opacity:1" d="M 766.224,365.304 766.224,381.15 z" id="boundary" inkscape:connector-curvature="0" />
	<path style="fill:none;stroke:red;stroke-width:1px;stroke-linecap:butt;stroke-linejoin:miter;stroke-opacity:1" d="M 766.224,381.15 763.054,398.581 z" id="boundary" inkscape:connector-curvature="0" />
	<path style="fill:none;stroke:red;stroke-width:1px;stroke-linecap:butt;stroke-linejoin:miter;stroke-opacity:1" d="M 764.639,641.035 756.716,626.773 z" id="boundary" inkscape:connector-curvature="0" />
	<path style="fill:none;stroke:red;stroke-width:1px;stroke-linecap:butt;stroke-linejoin:miter;stroke-opacity:1" d="M 755.131,414.428 763.054,398.581 z" id="boundary" inkscape:connector-curvature="0" />
	<path style="fill:none;stroke:red;stroke-width:1px;stroke-linecap:butt;stroke-linejoin:miter;stroke-opacity:1" d="M 766.224,656.882 764.639,641.035 z" id="boundary" inkscape:connector-curvature="0" />
	<path style="fill:none;stroke:red;stroke-width:1px;stroke-linecap:butt;stroke-linejoin:miter;stroke-opacity:1" d="M 493.661,739.284 504.754,726.607 z" id="boundary" inkscape:connector-curvature="0" />
	<path style="fill:none;stroke:red;stroke-width:1px;stroke-linecap:butt;stroke-linejoin:miter;stroke-opacity:1" d="M 493.661,739.284 480.984,750.377 z" id="boundary" inkscape:connector-curvature="0" />
	<path style="fill:none;stroke:red;stroke-width:1px;stroke-linecap:butt;stroke-linejoin:miter;stroke-opacity:1" d="M 517.431,715.514 504.754,726.607 z" id="boundary" inkscape:connector-curvature="0" />
	<path style="fill:none;stroke:red;stroke-width:1px;stroke-linecap:butt;stroke-linejoin:miter;stroke-opacity:1" d="M 512.677,804.256 528.524,809.01 z" id="boundary" inkscape:connector-curvature="0" />
	<path style="fill:none;stroke:red;stroke-width:1px;stroke-linecap:butt;stroke-linejoin:miter;stroke-opacity:1" d="M 512.677,804.256 496.831,801.086 z" id="boundary" inkscape:connector-curvature="0" />
	<path style="fill:none;stroke:red;stroke-width:1px;stroke-linecap:butt;stroke-linejoin:miter;stroke-opacity:1" d="M 517.431,715.514 533.278,710.76 z" id="boundary" inkscape:connector-curvature="0" />
	<path style="fill:none;stroke:red;stroke-width:1px;stroke-linecap:butt;stroke-linejoin:miter;stroke-opacity:1" d="M 533.278,710.76 549.125,707.591 z" id="boundary" inkscape:connector-curvature="0" />
	<path style="fill:none;stroke:red;stroke-width:1px;stroke-linecap:butt;stroke-linejoin:miter;stroke-opacity:1" d="M 564.971,707.591 549.125,707.591 z" id="boundary" inkscape:connector-curvature="0" />
	<path style="fill:none;stroke:red;stroke-width:1px;stroke-linecap:butt;stroke-linejoin:miter;stroke-opacity:1" d="M 564.971,707.591 580.818,710.76 z" id="boundary" inkscape:connector-curvature="0" />
	<path style="fill:none;stroke:red;stroke-width:1px;stroke-linecap:butt;stroke-linejoin:miter;stroke-opacity:1" d="M 596.665,710.76 610.927,718.684 z" id="boundary" inkscape:connector-curvature="0" />
	<path style="fill:none;stroke:red;stroke-width:1px;stroke-linecap:butt;stroke-linejoin:miter;stroke-opacity:1" d="M 580.818,710.76 596.665,710.76 z" id="boundary" inkscape:connector-curvature="0" />
	<path style="fill:none;stroke:red;stroke-width:1px;stroke-linecap:butt;stroke-linejoin:miter;stroke-opacity:1" d="M 626.773,718.684 610.927,718.684 z" id="boundary" inkscape:connector-curvature="0" />
	<path style="fill:none;stroke:red;stroke-width:1px;stroke-linecap:butt;stroke-linejoin:miter;stroke-opacity:1" d="M 544.371,812.179 528.524,809.01 z" id="boundary" inkscape:connector-curvature="0" />
	<path style="fill:none;stroke:red;stroke-width:1px;stroke-linecap:butt;stroke-linejoin:miter;stroke-opacity:1" d="M 544.371,812.179 558.633,820.102 z" id="boundary" inkscape:connector-curvature="0" />
	<path style="fill:none;stroke:red;stroke-width:1px;stroke-linecap:butt;stroke-linejoin:miter;stroke-opacity:1" d="M 566.556,980.153 550.709,983.323 z" id="boundary" inkscape:connector-curvature="0" />
	<path style="fill:none;stroke:red;stroke-width:1px;stroke-linecap:butt;stroke-linejoin:miter;stroke-opacity:1" d="M 580.818,972.23 566.556,980.153 z" id="boundary" inkscape:connector-curvature="0" />
	<path style="fill:none;stroke:red;stroke-width:1px;stroke-linecap:butt;stroke-linejoin:miter;stroke-opacity:1" d="M 550.709,983.323 534.863,988.077 z" id="boundary" inkscape:connector-curvature="0" />
	<path style="fill:none;stroke:red;stroke-width:1px;stroke-linecap:butt;stroke-linejoin:miter;stroke-opacity:1" d="M 534.863,988.077 520.601,996 z" id="boundary" inkscape:connector-curvature="0" />
	<path style="fill:none;stroke:red;stroke-width:1px;stroke-linecap:butt;stroke-linejoin:miter;stroke-opacity:1" d="M 520.601,996 504.754,996 z" id="boundary" inkscape:connector-curvature="0" />
	<path style="fill:none;stroke:red;stroke-width:1px;stroke-linecap:butt;stroke-linejoin:miter;stroke-opacity:1" d="M 504.754,996 488.907,996 z" id="boundary" inkscape:connector-curvature="0" />
	<path style="fill:none;stroke:red;stroke-width:1px;stroke-linecap:butt;stroke-linejoin:miter;stroke-opacity:1" d="M 590.326,828.026 574.479,823.272 z" id="boundary" inkscape:connector-curvature="0" />
	<path style="fill:none;stroke:red;stroke-width:1px;stroke-linecap:butt;stroke-linejoin:miter;stroke-opacity:1" d="M 606.173,831.195 590.326,828.026 z" id="boundary" inkscape:connector-curvature="0" />
	<path style="fill:none;stroke:red;stroke-width:1px;stroke-linecap:butt;stroke-linejoin:miter;stroke-opacity:1" d="M 606.173,831.195 620.435,839.118 z" id="boundary" inkscape:connector-curvature="0" />
	<path style="fill:none;stroke:red;stroke-width:1px;stroke-linecap:butt;stroke-linejoin:miter;stroke-opacity:1" d="M 580.818,972.23 595.08,964.307 z" id="boundary" inkscape:connector-curvature="0" />
	<path style="fill:none;stroke:red;stroke-width:1px;stroke-linecap:butt;stroke-linejoin:miter;stroke-opacity:1" d="M 623.604,948.46 609.342,956.383 z" id="boundary" inkscape:connector-curvature="0" />
	<path style="fill:none;stroke:red;stroke-width:1px;stroke-linecap:butt;stroke-linejoin:miter;stroke-opacity:1" d="M 609.342,956.383 595.08,964.307 z" id="boundary" inkscape:connector-curvature="0" />
	<path style="fill:none;stroke:red;stroke-width:1px;stroke-linecap:butt;stroke-linejoin:miter;stroke-opacity:1" d="M 558.633,820.102 574.479,823.272 z" id="boundary" inkscape:connector-curvature="0" />
	<path style="fill:none;stroke:red;stroke-width:1px;stroke-linecap:butt;stroke-linejoin:miter;stroke-opacity:1" d="M 641.035,726.607 655.297,734.53 z" id="boundary" inkscape:connector-curvature="0" />
	<path style="fill:none;stroke:red;stroke-width:1px;stroke-linecap:butt;stroke-linejoin:miter;stroke-opacity:1" d="M 671.144,734.53 655.297,734.53 z" id="boundary" inkscape:connector-curvature="0" />
	<path style="fill:none;stroke:red;stroke-width:1px;stroke-linecap:butt;stroke-linejoin:miter;stroke-opacity:1" d="M 636.281,843.872 620.435,839.118 z" id="boundary" inkscape:connector-curvature="0" />
	<path style="fill:none;stroke:red;stroke-width:1px;stroke-linecap:butt;stroke-linejoin:miter;stroke-opacity:1" d="M 671.144,734.53 685.406,742.454 z" id="boundary" inkscape:connector-curvature="0" />
	<path style="fill:none;stroke:red;stroke-width:1px;stroke-linecap:butt;stroke-linejoin:miter;stroke-opacity:1" d="M 715.514,750.377 699.668,750.377 z" id="boundary" inkscape:connector-curvature="0" />
	<path style="fill:none;stroke:red;stroke-width:1px;stroke-linecap:butt;stroke-linejoin:miter;stroke-opacity:1" d="M 699.668,750.377 685.406,742.454 z" id="boundary" inkscape:connector-curvature="0" />
	<path style="fill:none;stroke:red;stroke-width:1px;stroke-linecap:butt;stroke-linejoin:miter;stroke-opacity:1" d="M 641.035,726.607 626.773,718.684 z" id="boundary" inkscape:connector-curvature="0" />
	<path style="fill:none;stroke:red;stroke-width:1px;stroke-linecap:butt;stroke-linejoin:miter;stroke-opacity:1" d="M 766.224,672.728 766.224,688.575 z" id="boundary" inkscape:connector-curvature="0" />
	<path style="fill:none;stroke:red;stroke-width:1px;stroke-linecap:butt;stroke-linejoin:miter;stroke-opacity:1" d="M 766.224,688.575 763.054,707.591 z" id="boundary" inkscape:connector-curvature="0" />
	<path style="fill:none;stroke:red;stroke-width:1px;stroke-linecap:butt;stroke-linejoin:miter;stroke-opacity:1" d="M 731.361,747.208 747.208,739.284 z" id="boundary" inkscape:connector-curvature="0" />
	<path style="fill:none;stroke:red;stroke-width:1px;stroke-linecap:butt;stroke-linejoin:miter;stroke-opacity:1" d="M 755.131,723.438 747.208,739.284 z" id="boundary" inkscape:connector-curvature="0" />
	<path style="fill:none;stroke:red;stroke-width:1px;stroke-linecap:butt;stroke-linejoin:miter;stroke-opacity:1" d="M 755.131,723.438 763.054,707.591 z" id="boundary" inkscape:connector-curvature="0" />
	<path style="fill:none;stroke:red;stroke-width:1px;stroke-linecap:butt;stroke-linejoin:miter;stroke-opacity:1" d="M 731.361,747.208 715.514,750.377 z" id="boundary" inkscape:connector-curvature="0" />
	<path style="fill:none;stroke:red;stroke-width:1px;stroke-linecap:butt;stroke-linejoin:miter;stroke-opacity:1" d="M 666.39,851.796 650.543,851.796 z" id="boundary" inkscape:connector-curvature="0" />
	<path style="fill:none;stroke:red;stroke-width:1px;stroke-linecap:butt;stroke-linejoin:miter;stroke-opacity:1" d="M 650.543,851.796 636.281,843.872 z" id="boundary" inkscape:connector-curvature="0" />
	<path style="fill:none;stroke:red;stroke-width:1px;stroke-linecap:butt;stroke-linejoin:miter;stroke-opacity:1" d="M 682.236,923.105 667.974,932.613 z" id="boundary" inkscape:connector-curvature="0" />
	<path style="fill:none;stroke:red;stroke-width:1px;stroke-linecap:butt;stroke-linejoin:miter;stroke-opacity:1" d="M 623.604,948.46 639.45,948.46 z" id="boundary" inkscape:connector-curvature="0" />
	<path style="fill:none;stroke:red;stroke-width:1px;stroke-linecap:butt;stroke-linejoin:miter;stroke-opacity:1" d="M 653.712,940.537 639.45,948.46 z" id="boundary" inkscape:connector-curvature="0" />
	<path style="fill:none;stroke:red;stroke-width:1px;stroke-linecap:butt;stroke-linejoin:miter;stroke-opacity:1" d="M 667.974,932.613 653.712,940.537 z" id="boundary" inkscape:connector-curvature="0" />
	<path style="fill:none;stroke:red;stroke-width:1px;stroke-linecap:butt;stroke-linejoin:miter;stroke-opacity:1" d="M 666.39,851.796 680.652,859.719 z" id="boundary" inkscape:connector-curvature="0" />
	<path style="fill:none;stroke:red;stroke-width:1px;stroke-linecap:butt;stroke-linejoin:miter;stroke-opacity:1" d="M 693.329,870.812 680.652,859.719 z" id="boundary" inkscape:connector-curvature="0" />
	<path style="fill:none;stroke:red;stroke-width:1px;stroke-linecap:butt;stroke-linejoin:miter;stroke-opacity:1" d="M 707.591,878.735 693.329,870.812 z" id="boundary" inkscape:connector-curvature="0" />
	<path style="fill:none;stroke:red;stroke-width:1px;stroke-linecap:butt;stroke-linejoin:miter;stroke-opacity:1" d="M 682.236,923.105 698.083,915.182 z" id="boundary" inkscape:connector-curvature="0" />
	<path style="fill:none;stroke:red;stroke-width:1px;stroke-linecap:butt;stroke-linejoin:miter;stroke-opacity:1" d="M 710.76,900.92 698.083,915.182 z" id="boundary" inkscape:connector-curvature="0" />
	<path style="fill:none;stroke:red;stroke-width:1px;stroke-linecap:butt;stroke-linejoin:miter;stroke-opacity:1" d="M 707.591,878.735 710.76,900.92 z" id="boundary" inkscape:connector-curvature="0" />
	<path style="fill:none;stroke:red;stroke-width:1px;stroke-linecap:butt;stroke-linejoin:miter;stroke-opacity:1" d="M 766.224,656.882 766.224,672.728 z" id="boundary" inkscape:connector-curvature="0" />
	<circle cx="4" cy="246.454" r="4" fill="#0" id="circle0"/>
	<circle cx="4" cy="262.3" r="4" fill="#0" id="circle1"/>
	<circle cx="11.9233" cy="276.562" r="4" fill="#0" id="circle2"/>
	<circle cx="16.6773" cy="233.776" r="4" fill="#0" id="circle3"/>
	<circle cx="27.77" cy="282.901" r="4" fill="#0" id="circle4"/>
	<circle cx="30.9393" cy="225.853" r="4" fill="#0" id="circle5"/>
	<circle cx="35.6933" cy="690.16" r="4" fill="#0" id="circle6"/>
	<circle cx="35.6933" cy="706.006" r="4" fill="#0" id="circle7"/>
	<circle cx="35.6933" cy="721.853" r="4" fill="#0" id="circle8"/>
	<circle cx="35.6933" cy="737.7" r="4" fill="#0" id="circle9"/>
	<circle cx="37.278" cy="295.578" r="4" fill="#0" id="circle10"/>
	<circle cx="43.6166" cy="674.313" r="4" fill="#0" id="circle11"/>
	<circle cx="43.6166" cy="751.962" r="4" fill="#0" id="circle12"/>
	<circle cx="45.2013" cy="217.93" r="4" fill="#0" id="circle13"/>
	<circle cx="49.9553" cy="306.671" r="4" fill="#0" id="circle14"/>
	<circle cx="51.5399" cy="658.466" r="4" fill="#0" id="circle15"/>
	<circle cx="51.5399" cy="766.224" r="4" fill="#0" id="circle16"/>
	<circle cx="56.2939" cy="782.07" r="4" fill="#0" id="circle17"/>
	<circle cx="59.4633" cy="206.837" r="4" fill="#0" id="circle18"/>
	<circle cx="59.4633" cy="642.62" r="4" fill="#0" id="circle19"/>
	<circle cx="64.2173" cy="314.594" r="4" fill="#0" id="circle20"/>
	<circle cx="67.3866" cy="626.773" r="4" fill="#0" id="circle21"/>
	<circle cx="67.3866" cy="794.748" r="4" fill="#0" id="circle22"/>
	<circle cx="72.1406" cy="194.16" r="4" fill="#0" id="circle23"/>
	<circle cx="72.1406" cy="328.856" r="4" fill="#0" id="circle24"/>
	<circle cx="80.0639" cy="614.096" r="4" fill="#0" id="circle25"/>
	<circle cx="80.0639" cy="804.256" r="4" fill="#0" id="circle26"/>
	<circle cx="83.2332" cy="341.534" r="4" fill="#0" id="circle27"/>
	<circle cx="84.8179" cy="181.482" r="4" fill="#0" id="circle28"/>
	<circle cx="87.9872" cy="598.249" r="4" fill="#0" id="circle29"/>
	<circle cx="91.1565" cy="355.796" r="4" fill="#0" id="circle30"/>
	<circle cx="95.9105" cy="582.403" r="4" fill="#0" id="circle31"/>
	<circle cx="95.9105" cy="796.332" r="4" fill="#0" id="circle32"/>
	<circle cx="97.4952" cy="170.39" r="4" fill="#0" id="circle33"/>
	<circle cx="99.0799" cy="563.387" r="4" fill="#0" id="circle34"/>
	<circle cx="102.249" cy="368.473" r="4" fill="#0" id="circle35"/>
	<circle cx="107.003" cy="539.617" r="4" fill="#0" id="circle36"/>
	<circle cx="110.173" cy="382.735" r="4" fill="#0" id="circle37"/>
	<circle cx="111.757" cy="162.466" r="4" fill="#0" id="circle38"/>
	<circle cx="111.757" cy="796.332" r="4" fill="#0" id="circle39"/>
	<circle cx="114.927" cy="398.581" r="4" fill="#0" id="circle40"/>
	<circle cx="114.927" cy="515.847" r="4" fill="#0" id="circle41"/>
	<circle cx="122.85" cy="412.843" r="4" fill="#0" id="circle42"/>
	<circle cx="122.85" cy="428.69" r="4" fill="#0" id="circle43"/>
	<circle cx="122.85" cy="444.537" r="4" fill="#0" id="circle44"/>
	<circle cx="122.85" cy="460.383" r="4" fill="#0" id="circle45"/>
	<circle cx="122.85" cy="476.23" r="4" fill="#0" id="circle46"/>
	<circle cx="122.85" cy="492.077" r="4" fill="#0" id="circle47"/>
	<circle cx="124.435" cy="149.789" r="4" fill="#0" id="circle48"/>
	<circle cx="126.019" cy="804.256" r="4" fill="#0" id="circle49"/>
	<circle cx="138.696" cy="813.764" r="4" fill="#0" id="circle50"/>
	<circle cx="140.281" cy="141.866" r="4" fill="#0" id="circle51"/>
	<circle cx="143.45" cy="829.61" r="4" fill="#0" id="circle52"/>
	<circle cx="152.958" cy="130.773" r="4" fill="#0" id="circle53"/>
	<circle cx="154.543" cy="842.288" r="4" fill="#0" id="circle54"/>
	<circle cx="162.466" cy="856.55" r="4" fill="#0" id="circle55"/>
	<circle cx="167.22" cy="122.85" r="4" fill="#0" id="circle56"/>
	<circle cx="170.39" cy="870.812" r="4" fill="#0" id="circle57"/>
	<circle cx="178.313" cy="885.073" r="4" fill="#0" id="circle58"/>
	<circle cx="181.482" cy="114.927" r="4" fill="#0" id="circle59"/>
	<circle cx="187.821" cy="897.751" r="4" fill="#0" id="circle60"/>
	<circle cx="194.16" cy="103.834" r="4" fill="#0" id="circle61"/>
	<circle cx="200.498" cy="908.843" r="4" fill="#0" id="circle62"/>
	<circle cx="210.006" cy="95.9105" r="4" fill="#0" id="circle63"/>
	<circle cx="214.76" cy="916.767" r="4" fill="#0" id="circle64"/>
	<circle cx="225.853" cy="87.9872" r="4" fill="#0" id="circle65"/>
	<circle cx="229.022" cy="924.69" r="4" fill="#0" id="circle66"/>
	<circle cx="241.7" cy="80.0639" r="4" fill="#0" id="circle67"/>
	<circle cx="244.869" cy="929.444" r="4" fill="#0" id="circle68"/>
	<circle cx="257.546" cy="75.3099" r="4" fill="#0" id="circle69"/>
	<circle cx="260.716" cy="929.444" r="4" fill="#0" id="circle70"/>
	<circle cx="271.808" cy="67.3866" r="4" fill="#0" id="circle71"/>
	<circle cx="274.978" cy="937.367" r="4" fill="#0" id="circle72"/>
	<circle cx="287.655" cy="67.3866" r="4" fill="#0" id="circle73"/>
	<circle cx="290.824" cy="940.537" r="4" fill="#0" id="circle74"/>
	<circle cx="303.502" cy="67.3866" r="4" fill="#0" id="circle75"/>
	<circle cx="305.086" cy="948.46" r="4" fill="#0" id="circle76"/>
	<circle cx="319.348" cy="67.3866" r="4" fill="#0" id="circle77"/>
	<circle cx="320.933" cy="948.46" r="4" fill="#0" id="circle78"/>
	<circle cx="335.195" cy="67.3866" r="4" fill="#0" id="circle79"/>
	<circle cx="335.195" cy="956.383" r="4" fill="#0" id="circle80"/>
	<circle cx="349.457" cy="964.307" r="4" fill="#0" id="circle81"/>
	<circle cx="351.042" cy="67.3866" r="4" fill="#0" id="circle82"/>
	<circle cx="365.304" cy="970.645" r="4" fill="#0" id="circle83"/>
	<circle cx="366.888" cy="67.3866" r="4" fill="#0" id="circle84"/>
	<circle cx="379.565" cy="978.569" r="4" fill="#0" id="circle85"/>
	<circle cx="381.15" cy="59.4633" r="4" fill="#0" id="circle86"/>
	<circle cx="395.412" cy="984.907" r="4" fill="#0" id="circle87"/>
	<circle cx="396.997" cy="59.4633" r="4" fill="#0" id="circle88"/>
	<circle cx="411.259" cy="51.5399" r="4" fill="#0" id="circle89"/>
	<circle cx="411.259" cy="988.077" r="4" fill="#0" id="circle90"/>
	<circle cx="423.936" cy="16.6773" r="4" fill="#0" id="circle91"/>
	<circle cx="423.936" cy="32.524" r="4" fill="#0" id="circle92"/>
	<circle cx="425.521" cy="996" r="4" fill="#0" id="circle93"/>
	<circle cx="436.613" cy="4" r="4" fill="#0" id="circle94"/>
	<circle cx="441.367" cy="996" r="4" fill="#0" id="circle95"/>
	<circle cx="450.875" cy="11.9233" r="4" fill="#0" id="circle96"/>
	<circle cx="457.214" cy="996" r="4" fill="#0" id="circle97"/>
	<circle cx="465.137" cy="19.8466" r="4" fill="#0" id="circle98"/>
	<circle cx="465.137" cy="789.994" r="4" fill="#0" id="circle99"/>
	<circle cx="473.061" cy="774.147" r="4" fill="#0" id="circle100"/>
	<circle cx="473.061" cy="996" r="4" fill="#0" id="circle101"/>
	<circle cx="480.984" cy="24.6006" r="4" fill="#0" id="circle102"/>
	<circle cx="480.984" cy="750.377" r="4" fill="#0" id="circle103"/>
	<circle cx="480.984" cy="796.332" r="4" fill="#0" id="circle104"/>
	<circle cx="488.907" cy="996" r="4" fill="#0" id="circle105"/>
	<circle cx="493.661" cy="35.6933" r="4" fill="#0" id="circle106"/>
	<circle cx="493.661" cy="739.284" r="4" fill="#0" id="circle107"/>
	<circle cx="496.831" cy="801.086" r="4" fill="#0" id="circle108"/>
	<circle cx="504.754" cy="726.607" r="4" fill="#0" id="circle109"/>
	<circle cx="504.754" cy="996" r="4" fill="#0" id="circle110"/>
	<circle cx="507.923" cy="43.6166" r="4" fill="#0" id="circle111"/>
	<circle cx="512.677" cy="804.256" r="4" fill="#0" id="circle112"/>
	<circle cx="517.431" cy="715.514" r="4" fill="#0" id="circle113"/>
	<circle cx="520.601" cy="996" r="4" fill="#0" id="circle114"/>
	<circle cx="522.185" cy="51.5399" r="4" fill="#0" id="circle115"/>
	<circle cx="528.524" cy="809.01" r="4" fill="#0" id="circle116"/>
	<circle cx="533.278" cy="710.76" r="4" fill="#0" id="circle117"/>
	<circle cx="534.863" cy="988.077" r="4" fill="#0" id="circle118"/>
	<circle cx="538.032" cy="51.5399" r="4" fill="#0" id="circle119"/>
	<circle cx="544.371" cy="812.179" r="4" fill="#0" id="circle120"/>
	<circle cx="549.125" cy="707.591" r="4" fill="#0" id="circle121"/>
	<circle cx="550.709" cy="983.323" r="4" fill="#0" id="circle122"/>
	<circle cx="552.294" cy="59.4633" r="4" fill="#0" id="circle123"/>
	<circle cx="558.633" cy="820.102" r="4" fill="#0" id="circle124"/>
	<circle cx="564.971" cy="707.591" r="4" fill="#0" id="circle125"/>
	<circle cx="566.556" cy="980.153" r="4" fill="#0" id="circle126"/>
	<circle cx="568.141" cy="64.2173" r="4" fill="#0" id="circle127"/>
	<circle cx="574.479" cy="823.272" r="4" fill="#0" id="circle128"/>
	<circle cx="580.818" cy="710.76" r="4" fill="#0" id="circle129"/>
	<circle cx="580.818" cy="972.23" r="4" fill="#0" id="circle130"/>
	<circle cx="583.987" cy="67.3866" r="4" fill="#0" id="circle131"/>
	<circle cx="590.326" cy="828.026" r="4" fill="#0" id="circle132"/>
	<circle cx="595.08" cy="964.307" r="4" fill="#0" id="circle133"/>
	<circle cx="596.665" cy="710.76" r="4" fill="#0" id="circle134"/>
	<circle cx="598.249" cy="75.3099" r="4" fill="#0" id="circle135"/>
	<circle cx="606.173" cy="831.195" r="4" fill="#0" id="circle136"/>
	<circle cx="609.342" cy="956.383" r="4" fill="#0" id="circle137"/>
	<circle cx="610.927" cy="718.684" r="4" fill="#0" id="circle138"/>
	<circle cx="612.511" cy="83.2332" r="4" fill="#0" id="circle139"/>
	<circle cx="620.435" cy="839.118" r="4" fill="#0" id="circle140"/>
	<circle cx="623.604" cy="948.46" r="4" fill="#0" id="circle141"/>
	<circle cx="626.773" cy="91.1565" r="4" fill="#0" id="circle142"/>
	<circle cx="626.773" cy="718.684" r="4" fill="#0" id="circle143"/>
	<circle cx="636.281" cy="843.872" r="4" fill="#0" id="circle144"/>
	<circle cx="639.45" cy="948.46" r="4" fill="#0" id="circle145"/>
	<circle cx="641.035" cy="99.0799" r="4" fill="#0" id="circle146"/>
	<circle cx="641.035" cy="726.607" r="4" fill="#0" id="circle147"/>
	<circle cx="650.543" cy="851.796" r="4" fill="#0" id="circle148"/>
	<circle cx="653.712" cy="940.537" r="4" fill="#0" id="circle149"/>
	<circle cx="655.297" cy="107.003" r="4" fill="#0" id="circle150"/>
	<circle cx="655.297" cy="480.984" r="4" fill="#0" id="circle151"/>
	<circle cx="655.297" cy="734.53" r="4" fill="#0" id="circle152"/>
	<circle cx="663.22" cy="495.246" r="4" fill="#0" id="circle153"/>
	<circle cx="666.39" cy="851.796" r="4" fill="#0" id="circle154"/>
	<circle cx="667.974" cy="116.511" r="4" fill="#0" id="circle155"/>
	<circle cx="667.974" cy="932.613" r="4" fill="#0" id="circle156"/>
	<circle cx="671.144" cy="473.061" r="4" fill="#0" id="circle157"/>
	<circle cx="671.144" cy="509.508" r="4" fill="#0" id="circle158"/>
	<circle cx="671.144" cy="525.355" r="4" fill="#0" id="circle159"/>
	<circle cx="671.144" cy="734.53" r="4" fill="#0" id="circle160"/>
	<circle cx="679.067" cy="129.188" r="4" fill="#0" id="circle161"/>
	<circle cx="680.652" cy="859.719" r="4" fill="#0" id="circle162"/>
	<circle cx="682.236" cy="923.105" r="4" fill="#0" id="circle163"/>
	<circle cx="683.821" cy="536.447" r="4" fill="#0" id="circle164"/>
	<circle cx="685.406" cy="742.454" r="4" fill="#0" id="circle165"/>
	<circle cx="686.99" cy="465.137" r="4" fill="#0" id="circle166"/>
	<circle cx="690.16" cy="552.294" r="4" fill="#0" id="circle167"/>
	<circle cx="693.329" cy="870.812" r="4" fill="#0" id="circle168"/>
	<circle cx="694.914" cy="135.527" r="4" fill="#0" id="circle169"/>
	<circle cx="698.083" cy="915.182" r="4" fill="#0" id="circle170"/>
	<circle cx="699.668" cy="750.377" r="4" fill="#0" id="circle171"/>
	<circle cx="702.837" cy="457.214" r="4" fill="#0" id="circle172"/>
	<circle cx="702.837" cy="563.387" r="4" fill="#0" id="circle173"/>
	<circle cx="706.006" cy="148.204" r="4" fill="#0" id="circle174"/>
	<circle cx="707.591" cy="878.735" r="4" fill="#0" id="circle175"/>
	<circle cx="710.76" cy="306.671" r="4" fill="#0" id="circle176"/>
	<circle cx="710.76" cy="900.92" r="4" fill="#0" id="circle177"/>
	<circle cx="713.93" cy="162.466" r="4" fill="#0" id="circle178"/>
	<circle cx="713.93" cy="576.064" r="4" fill="#0" id="circle179"/>
	<circle cx="715.514" cy="750.377" r="4" fill="#0" id="circle180"/>
	<circle cx="717.099" cy="449.291" r="4" fill="#0" id="circle181"/>
	<circle cx="718.684" cy="290.824" r="4" fill="#0" id="circle182"/>
	<circle cx="718.684" cy="320.933" r="4" fill="#0" id="circle183"/>
	<circle cx="725.022" cy="175.144" r="4" fill="#0" id="circle184"/>
	<circle cx="726.607" cy="267.054" r="4" fill="#0" id="circle185"/>
	<circle cx="726.607" cy="587.157" r="4" fill="#0" id="circle186"/>
	<circle cx="729.776" cy="439.783" r="4" fill="#0" id="circle187"/>
	<circle cx="731.361" cy="747.208" r="4" fill="#0" id="circle188"/>
	<circle cx="732.946" cy="189.406" r="4" fill="#0" id="circle189"/>
	<circle cx="732.946" cy="328.856" r="4" fill="#0" id="circle190"/>
	<circle cx="734.53" cy="205.252" r="4" fill="#0" id="circle191"/>
	<circle cx="734.53" cy="221.099" r="4" fill="#0" id="circle192"/>
	<circle cx="734.53" cy="236.946" r="4" fill="#0" id="circle193"/>
	<circle cx="734.53" cy="252.792" r="4" fill="#0" id="circle194"/>
	<circle cx="737.7" cy="599.834" r="4" fill="#0" id="circle195"/>
	<circle cx="742.454" cy="341.534" r="4" fill="#0" id="circle196"/>
	<circle cx="742.454" cy="425.521" r="4" fill="#0" id="circle197"/>
	<circle cx="745.623" cy="614.096" r="4" fill="#0" id="circle198"/>
	<circle cx="747.208" cy="739.284" r="4" fill="#0" id="circle199"/>
	<circle cx="753.546" cy="354.211" r="4" fill="#0" id="circle200"/>
	<circle cx="755.131" cy="414.428" r="4" fill="#0" id="circle201"/>
	<circle cx="755.131" cy="723.438" r="4" fill="#0" id="circle202"/>
	<circle cx="756.716" cy="626.773" r="4" fill="#0" id="circle203"/>
	<circle cx="763.054" cy="398.581" r="4" fill="#0" id="circle204"/>
	<circle cx="763.054" cy="707.591" r="4" fill="#0" id="circle205"/>
	<circle cx="764.639" cy="641.035" r="4" fill="#0" id="circle206"/>
	<circle cx="766.224" cy="365.304" r="4" fill="#0" id="circle207"/>
	<circle cx="766.224" cy="381.15" r="4" fill="#0" id="circle208"/>
	<circle cx="766.224" cy="656.882" r="4" fill="#0" id="circle209"/>
	<circle cx="766.224" cy="672.728" r="4" fill="#0" id="circle210"/>
	<circle cx="766.224" cy="688.575" r="4" fill="#0" id="circle211"/>
	</g>
</svg>