<?xml version="1.0" encoding="UTF-8" standalone="no"?>
<!-- Created with CurveBenchmark -->
<svg
	xmlns:dc="http://purl.org/dc/elements/1.1/"
	xmlns:cc="http://creativecommons.org/ns#"
	xmlns:rdf="http://www.w3.org/1999/02/22-rdf-syntax-ns#"
	xmlns:svg="http://www.w3.org/2000/svg"
	xmlns="http://www.w3.org/2000/svg"
	xmlns:sodipodi="http://sodipodi.sourceforge.net/DTD/sodipodi-0.dtd"
	xmlns:inkscape="http://www.inkscape.org/namespaces/inkscape"
	width="1000"
	height="1000"
	id="svg2"
	version="1.1"
	sodipodi:docname="manifold/nncrust-Bone16.png.txt">
<defs
	id="defs4" />
<metadata
	id="metadata7">
	<rdf:RDF>
		<cc:Work
			rdf:about="">
			<dc:format>image/svg+xml</dc:format>
			<dc:type
				rdf:resource="http://purl.org/dc/dcmitype/StillImage" />
			<dc:title></dc:title>
		</cc:Work>
	</rdf:RDF>
</metadata>
<g
	inkscape:label="Layer 1"
	inkscape:groupmode="layer"
	id="layer1">
	<path style="fill:none;stroke:red;stroke-width:1px;stroke-linecap:butt;stroke-linejoin:miter;stroke-opacity:1" d="M 234.499,675.009 243.036,657.935 z" id="boundary" inkscape:connector-curvature="0" />
	<path style="fill:none;stroke:red;stroke-width:1px;stroke-linecap:butt;stroke-linejoin:miter;stroke-opacity:1" d="M 243.036,657.935 256.695,644.275 z" id="boundary" inkscape:connector-curvature="0" />
	<path style="fill:none;stroke:red;stroke-width:1px;stroke-linecap:butt;stroke-linejoin:miter;stroke-opacity:1" d="M 208.888,709.157 222.547,695.497 z" id="boundary" inkscape:connector-curvature="0" />
	<path style="fill:none;stroke:red;stroke-width:1px;stroke-linecap:butt;stroke-linejoin:miter;stroke-opacity:1" d="M 200.351,726.231 208.888,709.157 z" id="boundary" inkscape:connector-curvature="0" />
	<path style="fill:none;stroke:red;stroke-width:1px;stroke-linecap:butt;stroke-linejoin:miter;stroke-opacity:1" d="M 234.499,675.009 222.547,695.497 z" id="boundary" inkscape:connector-curvature="0" />
	<path style="fill:none;stroke:red;stroke-width:1px;stroke-linecap:butt;stroke-linejoin:miter;stroke-opacity:1" d="M 290.843,593.053 299.38,575.979 z" id="boundary" inkscape:connector-curvature="0" />
	<path style="fill:none;stroke:red;stroke-width:1px;stroke-linecap:butt;stroke-linejoin:miter;stroke-opacity:1" d="M 290.843,593.053 277.184,606.713 z" id="boundary" inkscape:connector-curvature="0" />
	<path style="fill:none;stroke:red;stroke-width:1px;stroke-linecap:butt;stroke-linejoin:miter;stroke-opacity:1" d="M 268.647,623.787 256.695,644.275 z" id="boundary" inkscape:connector-curvature="0" />
	<path style="fill:none;stroke:red;stroke-width:1px;stroke-linecap:butt;stroke-linejoin:miter;stroke-opacity:1" d="M 277.184,606.713 268.647,623.787 z" id="boundary" inkscape:connector-curvature="0" />
	<path style="fill:none;stroke:red;stroke-width:1px;stroke-linecap:butt;stroke-linejoin:miter;stroke-opacity:1" d="M 307.917,558.905 299.38,575.979 z" id="boundary" inkscape:connector-curvature="0" />
	<path style="fill:none;stroke:red;stroke-width:1px;stroke-linecap:butt;stroke-linejoin:miter;stroke-opacity:1" d="M 51.8072,763.793 67.1738,755.256 z" id="boundary" inkscape:connector-curvature="0" />
	<path style="fill:none;stroke:red;stroke-width:1px;stroke-linecap:butt;stroke-linejoin:miter;stroke-opacity:1" d="M 84.2478,755.256 67.1738,755.256 z" id="boundary" inkscape:connector-curvature="0" />
	<path style="fill:none;stroke:red;stroke-width:1px;stroke-linecap:butt;stroke-linejoin:miter;stroke-opacity:1" d="M 38.148,777.453 51.8072,763.793 z" id="boundary" inkscape:connector-curvature="0" />
	<path style="fill:none;stroke:red;stroke-width:1px;stroke-linecap:butt;stroke-linejoin:miter;stroke-opacity:1" d="M 84.2478,755.256 97.9071,767.208 z" id="boundary" inkscape:connector-curvature="0" />
	<path style="fill:none;stroke:red;stroke-width:1px;stroke-linecap:butt;stroke-linejoin:miter;stroke-opacity:1" d="M 188.399,746.719 200.351,726.231 z" id="boundary" inkscape:connector-curvature="0" />
	<path style="fill:none;stroke:red;stroke-width:1px;stroke-linecap:butt;stroke-linejoin:miter;stroke-opacity:1" d="M 188.399,746.719 174.74,760.379 z" id="boundary" inkscape:connector-curvature="0" />
	<path style="fill:none;stroke:red;stroke-width:1px;stroke-linecap:butt;stroke-linejoin:miter;stroke-opacity:1" d="M 113.274,775.745 97.9071,767.208 z" id="boundary" inkscape:connector-curvature="0" />
	<path style="fill:none;stroke:red;stroke-width:1px;stroke-linecap:butt;stroke-linejoin:miter;stroke-opacity:1" d="M 130.348,782.575 113.274,775.745 z" id="boundary" inkscape:connector-curvature="0" />
	<path style="fill:none;stroke:red;stroke-width:1px;stroke-linecap:butt;stroke-linejoin:miter;stroke-opacity:1" d="M 26.1962,797.941 38.148,777.453 z" id="boundary" inkscape:connector-curvature="0" />
	<path style="fill:none;stroke:red;stroke-width:1px;stroke-linecap:butt;stroke-linejoin:miter;stroke-opacity:1" d="M 162.788,780.867 174.74,760.379 z" id="boundary" inkscape:connector-curvature="0" />
	<path style="fill:none;stroke:red;stroke-width:1px;stroke-linecap:butt;stroke-linejoin:miter;stroke-opacity:1" d="M 350.602,490.609 354.017,470.12 z" id="boundary" inkscape:connector-curvature="0" />
	<path style="fill:none;stroke:red;stroke-width:1px;stroke-linecap:butt;stroke-linejoin:miter;stroke-opacity:1" d="M 350.602,490.609 342.065,507.683 z" id="boundary" inkscape:connector-curvature="0" />
	<path style="fill:none;stroke:red;stroke-width:1px;stroke-linecap:butt;stroke-linejoin:miter;stroke-opacity:1" d="M 319.869,538.417 333.528,524.757 z" id="boundary" inkscape:connector-curvature="0" />
	<path style="fill:none;stroke:red;stroke-width:1px;stroke-linecap:butt;stroke-linejoin:miter;stroke-opacity:1" d="M 333.528,524.757 342.065,507.683 z" id="boundary" inkscape:connector-curvature="0" />
	<path style="fill:none;stroke:red;stroke-width:1px;stroke-linecap:butt;stroke-linejoin:miter;stroke-opacity:1" d="M 379.628,410.361 388.165,384.75 z" id="boundary" inkscape:connector-curvature="0" />
	<path style="fill:none;stroke:red;stroke-width:1px;stroke-linecap:butt;stroke-linejoin:miter;stroke-opacity:1" d="M 396.702,359.139 388.165,384.75 z" id="boundary" inkscape:connector-curvature="0" />
	<path style="fill:none;stroke:red;stroke-width:1px;stroke-linecap:butt;stroke-linejoin:miter;stroke-opacity:1" d="M 362.554,453.046 371.091,427.435 z" id="boundary" inkscape:connector-curvature="0" />
	<path style="fill:none;stroke:red;stroke-width:1px;stroke-linecap:butt;stroke-linejoin:miter;stroke-opacity:1" d="M 362.554,453.046 354.017,470.12 z" id="boundary" inkscape:connector-curvature="0" />
	<path style="fill:none;stroke:red;stroke-width:1px;stroke-linecap:butt;stroke-linejoin:miter;stroke-opacity:1" d="M 379.628,410.361 371.091,427.435 z" id="boundary" inkscape:connector-curvature="0" />
	<path style="fill:none;stroke:red;stroke-width:1px;stroke-linecap:butt;stroke-linejoin:miter;stroke-opacity:1" d="M 372.799,722.816 364.262,739.89 z" id="boundary" inkscape:connector-curvature="0" />
	<path style="fill:none;stroke:red;stroke-width:1px;stroke-linecap:butt;stroke-linejoin:miter;stroke-opacity:1" d="M 319.869,538.417 307.917,558.905 z" id="boundary" inkscape:connector-curvature="0" />
	<path style="fill:none;stroke:red;stroke-width:1px;stroke-linecap:butt;stroke-linejoin:miter;stroke-opacity:1" d="M 364.262,739.89 364.262,756.964 z" id="boundary" inkscape:connector-curvature="0" />
	<path style="fill:none;stroke:red;stroke-width:1px;stroke-linecap:butt;stroke-linejoin:miter;stroke-opacity:1" d="M 398.41,628.909 398.41,645.983 z" id="boundary" inkscape:connector-curvature="0" />
	<path style="fill:none;stroke:red;stroke-width:1px;stroke-linecap:butt;stroke-linejoin:miter;stroke-opacity:1" d="M 389.873,671.594 381.336,697.205 z" id="boundary" inkscape:connector-curvature="0" />
	<path style="fill:none;stroke:red;stroke-width:1px;stroke-linecap:butt;stroke-linejoin:miter;stroke-opacity:1" d="M 372.799,722.816 381.336,697.205 z" id="boundary" inkscape:connector-curvature="0" />
	<path style="fill:none;stroke:red;stroke-width:1px;stroke-linecap:butt;stroke-linejoin:miter;stroke-opacity:1" d="M 364.262,774.038 364.262,756.964 z" id="boundary" inkscape:connector-curvature="0" />
	<path style="fill:none;stroke:red;stroke-width:1px;stroke-linecap:butt;stroke-linejoin:miter;stroke-opacity:1" d="M 398.41,645.983 389.873,671.594 z" id="boundary" inkscape:connector-curvature="0" />
	<path style="fill:none;stroke:red;stroke-width:1px;stroke-linecap:butt;stroke-linejoin:miter;stroke-opacity:1" d="M 406.947,603.298 398.41,628.909 z" id="boundary" inkscape:connector-curvature="0" />
	<path style="fill:none;stroke:red;stroke-width:1px;stroke-linecap:butt;stroke-linejoin:miter;stroke-opacity:1" d="M 364.262,774.038 355.725,791.112 z" id="boundary" inkscape:connector-curvature="0" />
	<path style="fill:none;stroke:red;stroke-width:1px;stroke-linecap:butt;stroke-linejoin:miter;stroke-opacity:1" d="M 4,828.675 12.537,811.601 z" id="boundary" inkscape:connector-curvature="0" />
	<path style="fill:none;stroke:red;stroke-width:1px;stroke-linecap:butt;stroke-linejoin:miter;stroke-opacity:1" d="M 4,845.749 12.537,861.115 z" id="boundary" inkscape:connector-curvature="0" />
	<path style="fill:none;stroke:red;stroke-width:1px;stroke-linecap:butt;stroke-linejoin:miter;stroke-opacity:1" d="M 4,845.749 4,828.675 z" id="boundary" inkscape:connector-curvature="0" />
	<path style="fill:none;stroke:red;stroke-width:1px;stroke-linecap:butt;stroke-linejoin:miter;stroke-opacity:1" d="M 12.537,811.601 26.1962,797.941 z" id="boundary" inkscape:connector-curvature="0" />
	<path style="fill:none;stroke:red;stroke-width:1px;stroke-linecap:butt;stroke-linejoin:miter;stroke-opacity:1" d="M 43.2702,900.386 26.1962,893.556 z" id="boundary" inkscape:connector-curvature="0" />
	<path style="fill:none;stroke:red;stroke-width:1px;stroke-linecap:butt;stroke-linejoin:miter;stroke-opacity:1" d="M 26.1962,893.556 21.074,876.482 z" id="boundary" inkscape:connector-curvature="0" />
	<path style="fill:none;stroke:red;stroke-width:1px;stroke-linecap:butt;stroke-linejoin:miter;stroke-opacity:1" d="M 60.3442,902.093 43.2702,900.386 z" id="boundary" inkscape:connector-curvature="0" />
	<path style="fill:none;stroke:red;stroke-width:1px;stroke-linecap:butt;stroke-linejoin:miter;stroke-opacity:1" d="M 12.537,861.115 21.074,876.482 z" id="boundary" inkscape:connector-curvature="0" />
	<path style="fill:none;stroke:red;stroke-width:1px;stroke-linecap:butt;stroke-linejoin:miter;stroke-opacity:1" d="M 60.3442,902.093 77.4182,902.093 z" id="boundary" inkscape:connector-curvature="0" />
	<path style="fill:none;stroke:red;stroke-width:1px;stroke-linecap:butt;stroke-linejoin:miter;stroke-opacity:1" d="M 77.4182,902.093 89.3701,915.752 z" id="boundary" inkscape:connector-curvature="0" />
	<path style="fill:none;stroke:red;stroke-width:1px;stroke-linecap:butt;stroke-linejoin:miter;stroke-opacity:1" d="M 89.3701,915.752 89.3701,932.826 z" id="boundary" inkscape:connector-curvature="0" />
	<path style="fill:none;stroke:red;stroke-width:1px;stroke-linecap:butt;stroke-linejoin:miter;stroke-opacity:1" d="M 89.3701,932.826 89.3701,949.9 z" id="boundary" inkscape:connector-curvature="0" />
	<path style="fill:none;stroke:red;stroke-width:1px;stroke-linecap:butt;stroke-linejoin:miter;stroke-opacity:1" d="M 89.3701,949.9 80.833,965.267 z" id="boundary" inkscape:connector-curvature="0" />
	<path style="fill:none;stroke:red;stroke-width:1px;stroke-linecap:butt;stroke-linejoin:miter;stroke-opacity:1" d="M 97.9071,970.389 113.274,978.926 z" id="boundary" inkscape:connector-curvature="0" />
	<path style="fill:none;stroke:red;stroke-width:1px;stroke-linecap:butt;stroke-linejoin:miter;stroke-opacity:1" d="M 80.833,965.267 97.9071,970.389 z" id="boundary" inkscape:connector-curvature="0" />
	<path style="fill:none;stroke:red;stroke-width:1px;stroke-linecap:butt;stroke-linejoin:miter;stroke-opacity:1" d="M 128.64,987.463 113.274,978.926 z" id="boundary" inkscape:connector-curvature="0" />
	<path style="fill:none;stroke:red;stroke-width:1px;stroke-linecap:butt;stroke-linejoin:miter;stroke-opacity:1" d="M 130.348,782.575 147.422,789.404 z" id="boundary" inkscape:connector-curvature="0" />
	<path style="fill:none;stroke:red;stroke-width:1px;stroke-linecap:butt;stroke-linejoin:miter;stroke-opacity:1" d="M 147.422,789.404 162.788,780.867 z" id="boundary" inkscape:connector-curvature="0" />
	<path style="fill:none;stroke:red;stroke-width:1px;stroke-linecap:butt;stroke-linejoin:miter;stroke-opacity:1" d="M 295.966,902.093 311.332,893.556 z" id="boundary" inkscape:connector-curvature="0" />
	<path style="fill:none;stroke:red;stroke-width:1px;stroke-linecap:butt;stroke-linejoin:miter;stroke-opacity:1" d="M 284.014,915.752 295.966,902.093 z" id="boundary" inkscape:connector-curvature="0" />
	<path style="fill:none;stroke:red;stroke-width:1px;stroke-linecap:butt;stroke-linejoin:miter;stroke-opacity:1" d="M 347.188,808.186 355.725,791.112 z" id="boundary" inkscape:connector-curvature="0" />
	<path style="fill:none;stroke:red;stroke-width:1px;stroke-linecap:butt;stroke-linejoin:miter;stroke-opacity:1" d="M 338.651,833.797 347.188,808.186 z" id="boundary" inkscape:connector-curvature="0" />
	<path style="fill:none;stroke:red;stroke-width:1px;stroke-linecap:butt;stroke-linejoin:miter;stroke-opacity:1" d="M 333.528,866.238 324.991,883.312 z" id="boundary" inkscape:connector-curvature="0" />
	<path style="fill:none;stroke:red;stroke-width:1px;stroke-linecap:butt;stroke-linejoin:miter;stroke-opacity:1" d="M 324.991,883.312 311.332,893.556 z" id="boundary" inkscape:connector-curvature="0" />
	<path style="fill:none;stroke:red;stroke-width:1px;stroke-linecap:butt;stroke-linejoin:miter;stroke-opacity:1" d="M 338.651,833.797 333.528,866.238 z" id="boundary" inkscape:connector-curvature="0" />
	<path style="fill:none;stroke:red;stroke-width:1px;stroke-linecap:butt;stroke-linejoin:miter;stroke-opacity:1" d="M 195.229,987.463 208.888,973.804 z" id="boundary" inkscape:connector-curvature="0" />
	<path style="fill:none;stroke:red;stroke-width:1px;stroke-linecap:butt;stroke-linejoin:miter;stroke-opacity:1" d="M 208.888,973.804 225.962,965.267 z" id="boundary" inkscape:connector-curvature="0" />
	<path style="fill:none;stroke:red;stroke-width:1px;stroke-linecap:butt;stroke-linejoin:miter;stroke-opacity:1" d="M 162.788,996 145.714,994.293 z" id="boundary" inkscape:connector-curvature="0" />
	<path style="fill:none;stroke:red;stroke-width:1px;stroke-linecap:butt;stroke-linejoin:miter;stroke-opacity:1" d="M 145.714,994.293 128.64,987.463 z" id="boundary" inkscape:connector-curvature="0" />
	<path style="fill:none;stroke:red;stroke-width:1px;stroke-linecap:butt;stroke-linejoin:miter;stroke-opacity:1" d="M 195.229,987.463 179.862,996 z" id="boundary" inkscape:connector-curvature="0" />
	<path style="fill:none;stroke:red;stroke-width:1px;stroke-linecap:butt;stroke-linejoin:miter;stroke-opacity:1" d="M 179.862,996 162.788,996 z" id="boundary" inkscape:connector-curvature="0" />
	<path style="fill:none;stroke:red;stroke-width:1px;stroke-linecap:butt;stroke-linejoin:miter;stroke-opacity:1" d="M 270.355,927.704 284.014,915.752 z" id="boundary" inkscape:connector-curvature="0" />
	<path style="fill:none;stroke:red;stroke-width:1px;stroke-linecap:butt;stroke-linejoin:miter;stroke-opacity:1" d="M 256.695,943.071 270.355,927.704 z" id="boundary" inkscape:connector-curvature="0" />
	<path style="fill:none;stroke:red;stroke-width:1px;stroke-linecap:butt;stroke-linejoin:miter;stroke-opacity:1" d="M 256.695,943.071 243.036,956.73 z" id="boundary" inkscape:connector-curvature="0" />
	<path style="fill:none;stroke:red;stroke-width:1px;stroke-linecap:butt;stroke-linejoin:miter;stroke-opacity:1" d="M 243.036,956.73 225.962,965.267 z" id="boundary" inkscape:connector-curvature="0" />
	<path style="fill:none;stroke:red;stroke-width:1px;stroke-linecap:butt;stroke-linejoin:miter;stroke-opacity:1" d="M 538.417,38.148 546.954,21.074 z" id="boundary" inkscape:connector-curvature="0" />
	<path style="fill:none;stroke:red;stroke-width:1px;stroke-linecap:butt;stroke-linejoin:miter;stroke-opacity:1" d="M 529.88,55.222 538.417,38.148 z" id="boundary" inkscape:connector-curvature="0" />
	<path style="fill:none;stroke:red;stroke-width:1px;stroke-linecap:butt;stroke-linejoin:miter;stroke-opacity:1" d="M 529.88,55.222 516.22,68.8812 z" id="boundary" inkscape:connector-curvature="0" />
	<path style="fill:none;stroke:red;stroke-width:1px;stroke-linecap:butt;stroke-linejoin:miter;stroke-opacity:1" d="M 546.954,21.074 560.613,7.4148 z" id="boundary" inkscape:connector-curvature="0" />
	<path style="fill:none;stroke:red;stroke-width:1px;stroke-linecap:butt;stroke-linejoin:miter;stroke-opacity:1" d="M 560.613,7.4148 577.687,4 z" id="boundary" inkscape:connector-curvature="0" />
	<path style="fill:none;stroke:red;stroke-width:1px;stroke-linecap:butt;stroke-linejoin:miter;stroke-opacity:1" d="M 577.687,4 594.761,4 z" id="boundary" inkscape:connector-curvature="0" />
	<path style="fill:none;stroke:red;stroke-width:1px;stroke-linecap:butt;stroke-linejoin:miter;stroke-opacity:1" d="M 611.835,4 628.909,4 z" id="boundary" inkscape:connector-curvature="0" />
	<path style="fill:none;stroke:red;stroke-width:1px;stroke-linecap:butt;stroke-linejoin:miter;stroke-opacity:1" d="M 594.761,4 611.835,4 z" id="boundary" inkscape:connector-curvature="0" />
	<path style="fill:none;stroke:red;stroke-width:1px;stroke-linecap:butt;stroke-linejoin:miter;stroke-opacity:1" d="M 456.461,188.399 464.998,162.788 z" id="boundary" inkscape:connector-curvature="0" />
	<path style="fill:none;stroke:red;stroke-width:1px;stroke-linecap:butt;stroke-linejoin:miter;stroke-opacity:1" d="M 456.461,188.399 447.924,205.473 z" id="boundary" inkscape:connector-curvature="0" />
	<path style="fill:none;stroke:red;stroke-width:1px;stroke-linecap:butt;stroke-linejoin:miter;stroke-opacity:1" d="M 439.387,231.084 447.924,205.473 z" id="boundary" inkscape:connector-curvature="0" />
	<path style="fill:none;stroke:red;stroke-width:1px;stroke-linecap:butt;stroke-linejoin:miter;stroke-opacity:1" d="M 439.387,231.084 430.85,248.158 z" id="boundary" inkscape:connector-curvature="0" />
	<path style="fill:none;stroke:red;stroke-width:1px;stroke-linecap:butt;stroke-linejoin:miter;stroke-opacity:1" d="M 464.998,162.788 473.535,145.714 z" id="boundary" inkscape:connector-curvature="0" />
	<path style="fill:none;stroke:red;stroke-width:1px;stroke-linecap:butt;stroke-linejoin:miter;stroke-opacity:1" d="M 504.269,89.3701 516.22,68.8812 z" id="boundary" inkscape:connector-curvature="0" />
	<path style="fill:none;stroke:red;stroke-width:1px;stroke-linecap:butt;stroke-linejoin:miter;stroke-opacity:1" d="M 504.269,89.3701 490.609,103.029 z" id="boundary" inkscape:connector-curvature="0" />
	<path style="fill:none;stroke:red;stroke-width:1px;stroke-linecap:butt;stroke-linejoin:miter;stroke-opacity:1" d="M 482.072,120.103 490.609,103.029 z" id="boundary" inkscape:connector-curvature="0" />
	<path style="fill:none;stroke:red;stroke-width:1px;stroke-linecap:butt;stroke-linejoin:miter;stroke-opacity:1" d="M 482.072,120.103 473.535,145.714 z" id="boundary" inkscape:connector-curvature="0" />
	<path style="fill:none;stroke:red;stroke-width:1px;stroke-linecap:butt;stroke-linejoin:miter;stroke-opacity:1" d="M 628.909,4 645.983,4 z" id="boundary" inkscape:connector-curvature="0" />
	<path style="fill:none;stroke:red;stroke-width:1px;stroke-linecap:butt;stroke-linejoin:miter;stroke-opacity:1" d="M 675.009,22.7814 683.546,38.148 z" id="boundary" inkscape:connector-curvature="0" />
	<path style="fill:none;stroke:red;stroke-width:1px;stroke-linecap:butt;stroke-linejoin:miter;stroke-opacity:1" d="M 675.009,22.7814 663.057,9.1222 z" id="boundary" inkscape:connector-curvature="0" />
	<path style="fill:none;stroke:red;stroke-width:1px;stroke-linecap:butt;stroke-linejoin:miter;stroke-opacity:1" d="M 683.546,38.148 688.668,55.222 z" id="boundary" inkscape:connector-curvature="0" />
	<path style="fill:none;stroke:red;stroke-width:1px;stroke-linecap:butt;stroke-linejoin:miter;stroke-opacity:1" d="M 688.668,55.222 697.205,70.5886 z" id="boundary" inkscape:connector-curvature="0" />
	<path style="fill:none;stroke:red;stroke-width:1px;stroke-linecap:butt;stroke-linejoin:miter;stroke-opacity:1" d="M 697.205,70.5886 710.864,80.833 z" id="boundary" inkscape:connector-curvature="0" />
	<path style="fill:none;stroke:red;stroke-width:1px;stroke-linecap:butt;stroke-linejoin:miter;stroke-opacity:1" d="M 727.938,80.833 710.864,80.833 z" id="boundary" inkscape:connector-curvature="0" />
	<path style="fill:none;stroke:red;stroke-width:1px;stroke-linecap:butt;stroke-linejoin:miter;stroke-opacity:1" d="M 727.938,80.833 745.012,80.833 z" id="boundary" inkscape:connector-curvature="0" />
	<path style="fill:none;stroke:red;stroke-width:1px;stroke-linecap:butt;stroke-linejoin:miter;stroke-opacity:1" d="M 745.012,80.833 760.379,89.3701 z" id="boundary" inkscape:connector-curvature="0" />
	<path style="fill:none;stroke:red;stroke-width:1px;stroke-linecap:butt;stroke-linejoin:miter;stroke-opacity:1" d="M 775.745,97.9071 760.379,89.3701 z" id="boundary" inkscape:connector-curvature="0" />
	<path style="fill:none;stroke:red;stroke-width:1px;stroke-linecap:butt;stroke-linejoin:miter;stroke-opacity:1" d="M 775.745,97.9071 789.404,109.859 z" id="boundary" inkscape:connector-curvature="0" />
	<path style="fill:none;stroke:red;stroke-width:1px;stroke-linecap:butt;stroke-linejoin:miter;stroke-opacity:1" d="M 789.404,109.859 791.112,126.933 z" id="boundary" inkscape:connector-curvature="0" />
	<path style="fill:none;stroke:red;stroke-width:1px;stroke-linecap:butt;stroke-linejoin:miter;stroke-opacity:1" d="M 791.112,126.933 799.649,142.299 z" id="boundary" inkscape:connector-curvature="0" />
	<path style="fill:none;stroke:red;stroke-width:1px;stroke-linecap:butt;stroke-linejoin:miter;stroke-opacity:1" d="M 799.649,142.299 808.186,157.666 z" id="boundary" inkscape:connector-curvature="0" />
	<path style="fill:none;stroke:red;stroke-width:1px;stroke-linecap:butt;stroke-linejoin:miter;stroke-opacity:1" d="M 808.186,157.666 808.186,174.74 z" id="boundary" inkscape:connector-curvature="0" />
	<path style="fill:none;stroke:red;stroke-width:1px;stroke-linecap:butt;stroke-linejoin:miter;stroke-opacity:1" d="M 808.186,174.74 808.186,202.059 z" id="boundary" inkscape:connector-curvature="0" />
	<path style="fill:none;stroke:red;stroke-width:1px;stroke-linecap:butt;stroke-linejoin:miter;stroke-opacity:1" d="M 808.186,202.059 796.234,215.718 z" id="boundary" inkscape:connector-curvature="0" />
	<path style="fill:none;stroke:red;stroke-width:1px;stroke-linecap:butt;stroke-linejoin:miter;stroke-opacity:1" d="M 796.234,215.718 782.575,227.67 z" id="boundary" inkscape:connector-curvature="0" />
	<path style="fill:none;stroke:red;stroke-width:1px;stroke-linecap:butt;stroke-linejoin:miter;stroke-opacity:1" d="M 768.916,251.573 782.575,227.67 z" id="boundary" inkscape:connector-curvature="0" />
	<path style="fill:none;stroke:red;stroke-width:1px;stroke-linecap:butt;stroke-linejoin:miter;stroke-opacity:1" d="M 645.983,4 663.057,9.1222 z" id="boundary" inkscape:connector-curvature="0" />
	<path style="fill:none;stroke:red;stroke-width:1px;stroke-linecap:butt;stroke-linejoin:miter;stroke-opacity:1" d="M 422.313,273.769 413.776,299.38 z" id="boundary" inkscape:connector-curvature="0" />
	<path style="fill:none;stroke:red;stroke-width:1px;stroke-linecap:butt;stroke-linejoin:miter;stroke-opacity:1" d="M 413.776,299.38 405.239,316.454 z" id="boundary" inkscape:connector-curvature="0" />
	<path style="fill:none;stroke:red;stroke-width:1px;stroke-linecap:butt;stroke-linejoin:miter;stroke-opacity:1" d="M 396.702,359.139 405.239,333.528 z" id="boundary" inkscape:connector-curvature="0" />
	<path style="fill:none;stroke:red;stroke-width:1px;stroke-linecap:butt;stroke-linejoin:miter;stroke-opacity:1" d="M 405.239,333.528 405.239,316.454 z" id="boundary" inkscape:connector-curvature="0" />
	<path style="fill:none;stroke:red;stroke-width:1px;stroke-linecap:butt;stroke-linejoin:miter;stroke-opacity:1" d="M 430.85,248.158 422.313,273.769 z" id="boundary" inkscape:connector-curvature="0" />
	<path style="fill:none;stroke:red;stroke-width:1px;stroke-linecap:butt;stroke-linejoin:miter;stroke-opacity:1" d="M 523.05,394.995 514.513,412.069 z" id="boundary" inkscape:connector-curvature="0" />
	<path style="fill:none;stroke:red;stroke-width:1px;stroke-linecap:butt;stroke-linejoin:miter;stroke-opacity:1" d="M 514.513,412.069 500.854,424.021 z" id="boundary" inkscape:connector-curvature="0" />
	<path style="fill:none;stroke:red;stroke-width:1px;stroke-linecap:butt;stroke-linejoin:miter;stroke-opacity:1" d="M 488.902,446.217 475.243,458.169 z" id="boundary" inkscape:connector-curvature="0" />
	<path style="fill:none;stroke:red;stroke-width:1px;stroke-linecap:butt;stroke-linejoin:miter;stroke-opacity:1" d="M 500.854,424.021 488.902,446.217 z" id="boundary" inkscape:connector-curvature="0" />
	<path style="fill:none;stroke:red;stroke-width:1px;stroke-linecap:butt;stroke-linejoin:miter;stroke-opacity:1" d="M 466.706,475.243 475.243,458.169 z" id="boundary" inkscape:connector-curvature="0" />
	<path style="fill:none;stroke:red;stroke-width:1px;stroke-linecap:butt;stroke-linejoin:miter;stroke-opacity:1" d="M 424.021,560.613 415.484,586.224 z" id="boundary" inkscape:connector-curvature="0" />
	<path style="fill:none;stroke:red;stroke-width:1px;stroke-linecap:butt;stroke-linejoin:miter;stroke-opacity:1" d="M 415.484,586.224 406.947,603.298 z" id="boundary" inkscape:connector-curvature="0" />
	<path style="fill:none;stroke:red;stroke-width:1px;stroke-linecap:butt;stroke-linejoin:miter;stroke-opacity:1" d="M 424.021,543.539 424.021,560.613 z" id="boundary" inkscape:connector-curvature="0" />
	<path style="fill:none;stroke:red;stroke-width:1px;stroke-linecap:butt;stroke-linejoin:miter;stroke-opacity:1" d="M 454.754,497.439 466.706,475.243 z" id="boundary" inkscape:connector-curvature="0" />
	<path style="fill:none;stroke:red;stroke-width:1px;stroke-linecap:butt;stroke-linejoin:miter;stroke-opacity:1" d="M 432.558,526.465 446.217,514.513 z" id="boundary" inkscape:connector-curvature="0" />
	<path style="fill:none;stroke:red;stroke-width:1px;stroke-linecap:butt;stroke-linejoin:miter;stroke-opacity:1" d="M 424.021,543.539 432.558,526.465 z" id="boundary" inkscape:connector-curvature="0" />
	<path style="fill:none;stroke:red;stroke-width:1px;stroke-linecap:butt;stroke-linejoin:miter;stroke-opacity:1" d="M 454.754,497.439 446.217,514.513 z" id="boundary" inkscape:connector-curvature="0" />
	<path style="fill:none;stroke:red;stroke-width:1px;stroke-linecap:butt;stroke-linejoin:miter;stroke-opacity:1" d="M 637.446,236.207 654.52,239.621 z" id="boundary" inkscape:connector-curvature="0" />
	<path style="fill:none;stroke:red;stroke-width:1px;stroke-linecap:butt;stroke-linejoin:miter;stroke-opacity:1" d="M 620.372,244.744 637.446,236.207 z" id="boundary" inkscape:connector-curvature="0" />
	<path style="fill:none;stroke:red;stroke-width:1px;stroke-linecap:butt;stroke-linejoin:miter;stroke-opacity:1" d="M 611.835,261.818 620.372,244.744 z" id="boundary" inkscape:connector-curvature="0" />
	<path style="fill:none;stroke:red;stroke-width:1px;stroke-linecap:butt;stroke-linejoin:miter;stroke-opacity:1" d="M 654.52,239.621 671.594,244.744 z" id="boundary" inkscape:connector-curvature="0" />
	<path style="fill:none;stroke:red;stroke-width:1px;stroke-linecap:butt;stroke-linejoin:miter;stroke-opacity:1" d="M 671.594,244.744 688.668,244.744 z" id="boundary" inkscape:connector-curvature="0" />
	<path style="fill:none;stroke:red;stroke-width:1px;stroke-linecap:butt;stroke-linejoin:miter;stroke-opacity:1" d="M 721.108,256.695 705.742,248.158 z" id="boundary" inkscape:connector-curvature="0" />
	<path style="fill:none;stroke:red;stroke-width:1px;stroke-linecap:butt;stroke-linejoin:miter;stroke-opacity:1" d="M 705.742,248.158 688.668,244.744 z" id="boundary" inkscape:connector-curvature="0" />
	<path style="fill:none;stroke:red;stroke-width:1px;stroke-linecap:butt;stroke-linejoin:miter;stroke-opacity:1" d="M 738.182,261.818 721.108,256.695 z" id="boundary" inkscape:connector-curvature="0" />
	<path style="fill:none;stroke:red;stroke-width:1px;stroke-linecap:butt;stroke-linejoin:miter;stroke-opacity:1" d="M 599.883,284.014 611.835,261.818 z" id="boundary" inkscape:connector-curvature="0" />
	<path style="fill:none;stroke:red;stroke-width:1px;stroke-linecap:butt;stroke-linejoin:miter;stroke-opacity:1" d="M 552.076,347.188 565.735,335.236 z" id="boundary" inkscape:connector-curvature="0" />
	<path style="fill:none;stroke:red;stroke-width:1px;stroke-linecap:butt;stroke-linejoin:miter;stroke-opacity:1" d="M 543.539,364.262 552.076,347.188 z" id="boundary" inkscape:connector-curvature="0" />
	<path style="fill:none;stroke:red;stroke-width:1px;stroke-linecap:butt;stroke-linejoin:miter;stroke-opacity:1" d="M 577.687,313.04 565.735,335.236 z" id="boundary" inkscape:connector-curvature="0" />
	<path style="fill:none;stroke:red;stroke-width:1px;stroke-linecap:butt;stroke-linejoin:miter;stroke-opacity:1" d="M 523.05,394.995 531.587,377.921 z" id="boundary" inkscape:connector-curvature="0" />
	<path style="fill:none;stroke:red;stroke-width:1px;stroke-linecap:butt;stroke-linejoin:miter;stroke-opacity:1" d="M 531.587,377.921 543.539,364.262 z" id="boundary" inkscape:connector-curvature="0" />
	<path style="fill:none;stroke:red;stroke-width:1px;stroke-linecap:butt;stroke-linejoin:miter;stroke-opacity:1" d="M 738.182,261.818 755.256,261.818 z" id="boundary" inkscape:connector-curvature="0" />
	<path style="fill:none;stroke:red;stroke-width:1px;stroke-linecap:butt;stroke-linejoin:miter;stroke-opacity:1" d="M 768.916,251.573 755.256,261.818 z" id="boundary" inkscape:connector-curvature="0" />
	<path style="fill:none;stroke:red;stroke-width:1px;stroke-linecap:butt;stroke-linejoin:miter;stroke-opacity:1" d="M 599.883,284.014 591.346,301.088 z" id="boundary" inkscape:connector-curvature="0" />
	<path style="fill:none;stroke:red;stroke-width:1px;stroke-linecap:butt;stroke-linejoin:miter;stroke-opacity:1" d="M 591.346,301.088 577.687,313.04 z" id="boundary" inkscape:connector-curvature="0" />
	<circle cx="4" cy="828.675" r="4" fill="#0" id="circle0"/>
	<circle cx="4" cy="845.749" r="4" fill="#0" id="circle1"/>
	<circle cx="12.537" cy="811.601" r="4" fill="#0" id="circle2"/>
	<circle cx="12.537" cy="861.115" r="4" fill="#0" id="circle3"/>
	<circle cx="21.074" cy="876.482" r="4" fill="#0" id="circle4"/>
	<circle cx="26.1962" cy="797.941" r="4" fill="#0" id="circle5"/>
	<circle cx="26.1962" cy="893.556" r="4" fill="#0" id="circle6"/>
	<circle cx="38.148" cy="777.453" r="4" fill="#0" id="circle7"/>
	<circle cx="43.2702" cy="900.386" r="4" fill="#0" id="circle8"/>
	<circle cx="51.8072" cy="763.793" r="4" fill="#0" id="circle9"/>
	<circle cx="60.3442" cy="902.093" r="4" fill="#0" id="circle10"/>
	<circle cx="67.1738" cy="755.256" r="4" fill="#0" id="circle11"/>
	<circle cx="77.4182" cy="902.093" r="4" fill="#0" id="circle12"/>
	<circle cx="80.833" cy="965.267" r="4" fill="#0" id="circle13"/>
	<circle cx="84.2478" cy="755.256" r="4" fill="#0" id="circle14"/>
	<circle cx="89.3701" cy="915.752" r="4" fill="#0" id="circle15"/>
	<circle cx="89.3701" cy="932.826" r="4" fill="#0" id="circle16"/>
	<circle cx="89.3701" cy="949.9" r="4" fill="#0" id="circle17"/>
	<circle cx="97.9071" cy="767.208" r="4" fill="#0" id="circle18"/>
	<circle cx="97.9071" cy="970.389" r="4" fill="#0" id="circle19"/>
	<circle cx="113.274" cy="775.745" r="4" fill="#0" id="circle20"/>
	<circle cx="113.274" cy="978.926" r="4" fill="#0" id="circle21"/>
	<circle cx="128.64" cy="987.463" r="4" fill="#0" id="circle22"/>
	<circle cx="130.348" cy="782.575" r="4" fill="#0" id="circle23"/>
	<circle cx="145.714" cy="994.293" r="4" fill="#0" id="circle24"/>
	<circle cx="147.422" cy="789.404" r="4" fill="#0" id="circle25"/>
	<circle cx="162.788" cy="780.867" r="4" fill="#0" id="circle26"/>
	<circle cx="162.788" cy="996" r="4" fill="#0" id="circle27"/>
	<circle cx="174.74" cy="760.379" r="4" fill="#0" id="circle28"/>
	<circle cx="179.862" cy="996" r="4" fill="#0" id="circle29"/>
	<circle cx="188.399" cy="746.719" r="4" fill="#0" id="circle30"/>
	<circle cx="195.229" cy="987.463" r="4" fill="#0" id="circle31"/>
	<circle cx="200.351" cy="726.231" r="4" fill="#0" id="circle32"/>
	<circle cx="208.888" cy="709.157" r="4" fill="#0" id="circle33"/>
	<circle cx="208.888" cy="973.804" r="4" fill="#0" id="circle34"/>
	<circle cx="222.547" cy="695.497" r="4" fill="#0" id="circle35"/>
	<circle cx="225.962" cy="965.267" r="4" fill="#0" id="circle36"/>
	<circle cx="234.499" cy="675.009" r="4" fill="#0" id="circle37"/>
	<circle cx="243.036" cy="657.935" r="4" fill="#0" id="circle38"/>
	<circle cx="243.036" cy="956.73" r="4" fill="#0" id="circle39"/>
	<circle cx="256.695" cy="644.275" r="4" fill="#0" id="circle40"/>
	<circle cx="256.695" cy="943.071" r="4" fill="#0" id="circle41"/>
	<circle cx="268.647" cy="623.787" r="4" fill="#0" id="circle42"/>
	<circle cx="270.355" cy="927.704" r="4" fill="#0" id="circle43"/>
	<circle cx="277.184" cy="606.713" r="4" fill="#0" id="circle44"/>
	<circle cx="284.014" cy="915.752" r="4" fill="#0" id="circle45"/>
	<circle cx="290.843" cy="593.053" r="4" fill="#0" id="circle46"/>
	<circle cx="295.966" cy="902.093" r="4" fill="#0" id="circle47"/>
	<circle cx="299.38" cy="575.979" r="4" fill="#0" id="circle48"/>
	<circle cx="307.917" cy="558.905" r="4" fill="#0" id="circle49"/>
	<circle cx="311.332" cy="893.556" r="4" fill="#0" id="circle50"/>
	<circle cx="319.869" cy="538.417" r="4" fill="#0" id="circle51"/>
	<circle cx="324.991" cy="883.312" r="4" fill="#0" id="circle52"/>
	<circle cx="333.528" cy="524.757" r="4" fill="#0" id="circle53"/>
	<circle cx="333.528" cy="866.238" r="4" fill="#0" id="circle54"/>
	<circle cx="338.651" cy="833.797" r="4" fill="#0" id="circle55"/>
	<circle cx="342.065" cy="507.683" r="4" fill="#0" id="circle56"/>
	<circle cx="347.188" cy="808.186" r="4" fill="#0" id="circle57"/>
	<circle cx="350.602" cy="490.609" r="4" fill="#0" id="circle58"/>
	<circle cx="354.017" cy="470.12" r="4" fill="#0" id="circle59"/>
	<circle cx="355.725" cy="791.112" r="4" fill="#0" id="circle60"/>
	<circle cx="362.554" cy="453.046" r="4" fill="#0" id="circle61"/>
	<circle cx="364.262" cy="739.89" r="4" fill="#0" id="circle62"/>
	<circle cx="364.262" cy="756.964" r="4" fill="#0" id="circle63"/>
	<circle cx="364.262" cy="774.038" r="4" fill="#0" id="circle64"/>
	<circle cx="371.091" cy="427.435" r="4" fill="#0" id="circle65"/>
	<circle cx="372.799" cy="722.816" r="4" fill="#0" id="circle66"/>
	<circle cx="379.628" cy="410.361" r="4" fill="#0" id="circle67"/>
	<circle cx="381.336" cy="697.205" r="4" fill="#0" id="circle68"/>
	<circle cx="388.165" cy="384.75" r="4" fill="#0" id="circle69"/>
	<circle cx="389.873" cy="671.594" r="4" fill="#0" id="circle70"/>
	<circle cx="396.702" cy="359.139" r="4" fill="#0" id="circle71"/>
	<circle cx="398.41" cy="628.909" r="4" fill="#0" id="circle72"/>
	<circle cx="398.41" cy="645.983" r="4" fill="#0" id="circle73"/>
	<circle cx="405.239" cy="316.454" r="4" fill="#0" id="circle74"/>
	<circle cx="405.239" cy="333.528" r="4" fill="#0" id="circle75"/>
	<circle cx="406.947" cy="603.298" r="4" fill="#0" id="circle76"/>
	<circle cx="413.776" cy="299.38" r="4" fill="#0" id="circle77"/>
	<circle cx="415.484" cy="586.224" r="4" fill="#0" id="circle78"/>
	<circle cx="422.313" cy="273.769" r="4" fill="#0" id="circle79"/>
	<circle cx="424.021" cy="543.539" r="4" fill="#0" id="circle80"/>
	<circle cx="424.021" cy="560.613" r="4" fill="#0" id="circle81"/>
	<circle cx="430.85" cy="248.158" r="4" fill="#0" id="circle82"/>
	<circle cx="432.558" cy="526.465" r="4" fill="#0" id="circle83"/>
	<circle cx="439.387" cy="231.084" r="4" fill="#0" id="circle84"/>
	<circle cx="446.217" cy="514.513" r="4" fill="#0" id="circle85"/>
	<circle cx="447.924" cy="205.473" r="4" fill="#0" id="circle86"/>
	<circle cx="454.754" cy="497.439" r="4" fill="#0" id="circle87"/>
	<circle cx="456.461" cy="188.399" r="4" fill="#0" id="circle88"/>
	<circle cx="464.998" cy="162.788" r="4" fill="#0" id="circle89"/>
	<circle cx="466.706" cy="475.243" r="4" fill="#0" id="circle90"/>
	<circle cx="473.535" cy="145.714" r="4" fill="#0" id="circle91"/>
	<circle cx="475.243" cy="458.169" r="4" fill="#0" id="circle92"/>
	<circle cx="482.072" cy="120.103" r="4" fill="#0" id="circle93"/>
	<circle cx="488.902" cy="446.217" r="4" fill="#0" id="circle94"/>
	<circle cx="490.609" cy="103.029" r="4" fill="#0" id="circle95"/>
	<circle cx="500.854" cy="424.021" r="4" fill="#0" id="circle96"/>
	<circle cx="504.269" cy="89.3701" r="4" fill="#0" id="circle97"/>
	<circle cx="514.513" cy="412.069" r="4" fill="#0" id="circle98"/>
	<circle cx="516.22" cy="68.8812" r="4" fill="#0" id="circle99"/>
	<circle cx="523.05" cy="394.995" r="4" fill="#0" id="circle100"/>
	<circle cx="529.88" cy="55.222" r="4" fill="#0" id="circle101"/>
	<circle cx="531.587" cy="377.921" r="4" fill="#0" id="circle102"/>
	<circle cx="538.417" cy="38.148" r="4" fill="#0" id="circle103"/>
	<circle cx="543.539" cy="364.262" r="4" fill="#0" id="circle104"/>
	<circle cx="546.954" cy="21.074" r="4" fill="#0" id="circle105"/>
	<circle cx="552.076" cy="347.188" r="4" fill="#0" id="circle106"/>
	<circle cx="560.613" cy="7.4148" r="4" fill="#0" id="circle107"/>
	<circle cx="565.735" cy="335.236" r="4" fill="#0" id="circle108"/>
	<circle cx="577.687" cy="4" r="4" fill="#0" id="circle109"/>
	<circle cx="577.687" cy="313.04" r="4" fill="#0" id="circle110"/>
	<circle cx="591.346" cy="301.088" r="4" fill="#0" id="circle111"/>
	<circle cx="594.761" cy="4" r="4" fill="#0" id="circle112"/>
	<circle cx="599.883" cy="284.014" r="4" fill="#0" id="circle113"/>
	<circle cx="611.835" cy="4" r="4" fill="#0" id="circle114"/>
	<circle cx="611.835" cy="261.818" r="4" fill="#0" id="circle115"/>
	<circle cx="620.372" cy="244.744" r="4" fill="#0" id="circle116"/>
	<circle cx="628.909" cy="4" r="4" fill="#0" id="circle117"/>
	<circle cx="637.446" cy="236.207" r="4" fill="#0" id="circle118"/>
	<circle cx="645.983" cy="4" r="4" fill="#0" id="circle119"/>
	<circle cx="654.52" cy="239.621" r="4" fill="#0" id="circle120"/>
	<circle cx="663.057" cy="9.1222" r="4" fill="#0" id="circle121"/>
	<circle cx="671.594" cy="244.744" r="4" fill="#0" id="circle122"/>
	<circle cx="675.009" cy="22.7814" r="4" fill="#0" id="circle123"/>
	<circle cx="683.546" cy="38.148" r="4" fill="#0" id="circle124"/>
	<circle cx="688.668" cy="55.222" r="4" fill="#0" id="circle125"/>
	<circle cx="688.668" cy="244.744" r="4" fill="#0" id="circle126"/>
	<circle cx="697.205" cy="70.5886" r="4" fill="#0" id="circle127"/>
	<circle cx="705.742" cy="248.158" r="4" fill="#0" id="circle128"/>
	<circle cx="710.864" cy="80.833" r="4" fill="#0" id="circle129"/>
	<circle cx="721.108" cy="256.695" r="4" fill="#0" id="circle130"/>
	<circle cx="727.938" cy="80.833" r="4" fill="#0" id="circle131"/>
	<circle cx="738.182" cy="261.818" r="4" fill="#0" id="circle132"/>
	<circle cx="745.012" cy="80.833" r="4" fill="#0" id="circle133"/>
	<circle cx="755.256" cy="261.818" r="4" fill="#0" id="circle134"/>
	<circle cx="760.379" cy="89.3701" r="4" fill="#0" id="circle135"/>
	<circle cx="768.916" cy="251.573" r="4" fill="#0" id="circle136"/>
	<circle cx="775.745" cy="97.9071" r="4" fill="#0" id="circle137"/>
	<circle cx="782.575" cy="227.67" r="4" fill="#0" id="circle138"/>
	<circle cx="789.404" cy="109.859" r="4" fill="#0" id="circle139"/>
	<circle cx="791.112" cy="126.933" r="4" fill="#0" id="circle140"/>
	<circle cx="796.234" cy="215.718" r="4" fill="#0" id="circle141"/>
	<circle cx="799.649" cy="142.299" r="4" fill="#0" id="circle142"/>
	<circle cx="808.186" cy="157.666" r="4" fill="#0" id="circle143"/>
	<circle cx="808.186" cy="174.74" r="4" fill="#0" id="circle144"/>
	<circle cx="808.186" cy="202.059" r="4" fill="#0" id="circle145"/>
	</g>
</svg>