<?xml version="1.0" encoding="UTF-8" standalone="no"?>
<!-- Created with CurveBenchmark -->
<svg
	xmlns:dc="http://purl.org/dc/elements/1.1/"
	xmlns:cc="http://creativecommons.org/ns#"
	xmlns:rdf="http://www.w3.org/1999/02/22-rdf-syntax-ns#"
	xmlns:svg="http://www.w3.org/2000/svg"
	xmlns="http://www.w3.org/2000/svg"
	xmlns:sodipodi="http://sodipodi.sourceforge.net/DTD/sodipodi-0.dtd"
	xmlns:inkscape="http://www.inkscape.org/namespaces/inkscape"
	width="1000"
	height="1000"
	id="svg2"
	version="1.1"
	sodipodi:docname="manifold/nncrust-mountaincottontail.png.txt">
<defs
	id="defs4" />
<metadata
	id="metadata7">
	<rdf:RDF>
		<cc:Work
			rdf:about="">
			<dc:format>image/svg+xml</dc:format>
			<dc:type
				rdf:resource="http://purl.org/dc/dcmitype/StillImage" />
			<dc:title></dc:title>
		</cc:Work>
	</rdf:RDF>
</metadata>
<g
	inkscape:label="Layer 1"
	inkscape:groupmode="layer"
	id="layer1">
	<path style="fill:none;stroke:red;stroke-width:1px;stroke-linecap:butt;stroke-linejoin:miter;stroke-opacity:1" d="M 138.966,44.4898 138.966,66.9841 z" id="boundary" inkscape:connector-curvature="0" />
	<path style="fill:none;stroke:red;stroke-width:1px;stroke-linecap:butt;stroke-linejoin:miter;stroke-opacity:1" d="M 138.966,89.4785 138.966,111.973 z" id="boundary" inkscape:connector-curvature="0" />
	<path style="fill:none;stroke:red;stroke-width:1px;stroke-linecap:butt;stroke-linejoin:miter;stroke-opacity:1" d="M 138.966,89.4785 138.966,66.9841 z" id="boundary" inkscape:connector-curvature="0" />
	<path style="fill:none;stroke:red;stroke-width:1px;stroke-linecap:butt;stroke-linejoin:miter;stroke-opacity:1" d="M 150.213,154.712 138.966,134.467 z" id="boundary" inkscape:connector-curvature="0" />
	<path style="fill:none;stroke:red;stroke-width:1px;stroke-linecap:butt;stroke-linejoin:miter;stroke-opacity:1" d="M 138.966,134.467 138.966,111.973 z" id="boundary" inkscape:connector-curvature="0" />
	<path style="fill:none;stroke:red;stroke-width:1px;stroke-linecap:butt;stroke-linejoin:miter;stroke-opacity:1" d="M 147.964,195.202 150.213,154.712 z" id="boundary" inkscape:connector-curvature="0" />
	<path style="fill:none;stroke:red;stroke-width:1px;stroke-linecap:butt;stroke-linejoin:miter;stroke-opacity:1" d="M 150.213,21.9955 172.707,10.7483 z" id="boundary" inkscape:connector-curvature="0" />
	<path style="fill:none;stroke:red;stroke-width:1px;stroke-linecap:butt;stroke-linejoin:miter;stroke-opacity:1" d="M 138.966,44.4898 150.213,21.9955 z" id="boundary" inkscape:connector-curvature="0" />
	<path style="fill:none;stroke:red;stroke-width:1px;stroke-linecap:butt;stroke-linejoin:miter;stroke-opacity:1" d="M 147.964,195.202 129.968,210.948 z" id="boundary" inkscape:connector-curvature="0" />
	<path style="fill:none;stroke:red;stroke-width:1px;stroke-linecap:butt;stroke-linejoin:miter;stroke-opacity:1" d="M 138.966,134.467 15.2472,280.68 z" id="boundary" inkscape:connector-curvature="0" />
	<path style="fill:none;stroke:red;stroke-width:1px;stroke-linecap:butt;stroke-linejoin:miter;stroke-opacity:1" d="M 26.4943,300.925 15.2472,280.68 z" id="boundary" inkscape:connector-curvature="0" />
	<path style="fill:none;stroke:red;stroke-width:1px;stroke-linecap:butt;stroke-linejoin:miter;stroke-opacity:1" d="M 48.9887,291.927 26.4943,300.925 z" id="boundary" inkscape:connector-curvature="0" />
	<path style="fill:none;stroke:red;stroke-width:1px;stroke-linecap:butt;stroke-linejoin:miter;stroke-opacity:1" d="M 26.4943,300.925 26.4943,325.669 z" id="boundary" inkscape:connector-curvature="0" />
	<path style="fill:none;stroke:red;stroke-width:1px;stroke-linecap:butt;stroke-linejoin:miter;stroke-opacity:1" d="M 48.9887,269.433 48.9887,291.927 z" id="boundary" inkscape:connector-curvature="0" />
	<path style="fill:none;stroke:red;stroke-width:1px;stroke-linecap:butt;stroke-linejoin:miter;stroke-opacity:1" d="M 26.4943,325.669 15.2472,348.163 z" id="boundary" inkscape:connector-curvature="0" />
	<path style="fill:none;stroke:red;stroke-width:1px;stroke-linecap:butt;stroke-linejoin:miter;stroke-opacity:1" d="M 107.474,222.195 129.968,210.948 z" id="boundary" inkscape:connector-curvature="0" />
	<path style="fill:none;stroke:red;stroke-width:1px;stroke-linecap:butt;stroke-linejoin:miter;stroke-opacity:1" d="M 89.4785,240.19 107.474,222.195 z" id="boundary" inkscape:connector-curvature="0" />
	<path style="fill:none;stroke:red;stroke-width:1px;stroke-linecap:butt;stroke-linejoin:miter;stroke-opacity:1" d="M 48.9887,269.433 71.483,258.186 z" id="boundary" inkscape:connector-curvature="0" />
	<path style="fill:none;stroke:red;stroke-width:1px;stroke-linecap:butt;stroke-linejoin:miter;stroke-opacity:1" d="M 89.4785,240.19 71.483,258.186 z" id="boundary" inkscape:connector-curvature="0" />
	<path style="fill:none;stroke:red;stroke-width:1px;stroke-linecap:butt;stroke-linejoin:miter;stroke-opacity:1" d="M 195.202,4 217.696,4 z" id="boundary" inkscape:connector-curvature="0" />
	<path style="fill:none;stroke:red;stroke-width:1px;stroke-linecap:butt;stroke-linejoin:miter;stroke-opacity:1" d="M 217.696,4 240.19,4 z" id="boundary" inkscape:connector-curvature="0" />
	<path style="fill:none;stroke:red;stroke-width:1px;stroke-linecap:butt;stroke-linejoin:miter;stroke-opacity:1" d="M 276.181,26.4943 287.429,46.7392 z" id="boundary" inkscape:connector-curvature="0" />
	<path style="fill:none;stroke:red;stroke-width:1px;stroke-linecap:butt;stroke-linejoin:miter;stroke-opacity:1" d="M 431.392,150.213 408.898,156.961 z" id="boundary" inkscape:connector-curvature="0" />
	<path style="fill:none;stroke:red;stroke-width:1px;stroke-linecap:butt;stroke-linejoin:miter;stroke-opacity:1" d="M 298.676,66.9841 287.429,46.7392 z" id="boundary" inkscape:connector-curvature="0" />
	<path style="fill:none;stroke:red;stroke-width:1px;stroke-linecap:butt;stroke-linejoin:miter;stroke-opacity:1" d="M 240.19,4 262.685,8.49887 z" id="boundary" inkscape:connector-curvature="0" />
	<path style="fill:none;stroke:red;stroke-width:1px;stroke-linecap:butt;stroke-linejoin:miter;stroke-opacity:1" d="M 262.685,8.49887 276.181,26.4943 z" id="boundary" inkscape:connector-curvature="0" />
	<path style="fill:none;stroke:red;stroke-width:1px;stroke-linecap:butt;stroke-linejoin:miter;stroke-opacity:1" d="M 298.676,66.9841 298.676,89.4785 z" id="boundary" inkscape:connector-curvature="0" />
	<path style="fill:none;stroke:red;stroke-width:1px;stroke-linecap:butt;stroke-linejoin:miter;stroke-opacity:1" d="M 298.676,111.973 287.429,152.463 z" id="boundary" inkscape:connector-curvature="0" />
	<path style="fill:none;stroke:red;stroke-width:1px;stroke-linecap:butt;stroke-linejoin:miter;stroke-opacity:1" d="M 298.676,111.973 298.676,89.4785 z" id="boundary" inkscape:connector-curvature="0" />
	<path style="fill:none;stroke:red;stroke-width:1px;stroke-linecap:butt;stroke-linejoin:miter;stroke-opacity:1" d="M 287.429,152.463 298.676,172.707 z" id="boundary" inkscape:connector-curvature="0" />
	<path style="fill:none;stroke:red;stroke-width:1px;stroke-linecap:butt;stroke-linejoin:miter;stroke-opacity:1" d="M 321.17,179.456 298.676,172.707 z" id="boundary" inkscape:connector-curvature="0" />
	<path style="fill:none;stroke:red;stroke-width:1px;stroke-linecap:butt;stroke-linejoin:miter;stroke-opacity:1" d="M 386.404,168.209 363.909,172.707 z" id="boundary" inkscape:connector-curvature="0" />
	<path style="fill:none;stroke:red;stroke-width:1px;stroke-linecap:butt;stroke-linejoin:miter;stroke-opacity:1" d="M 363.909,172.707 343.664,183.955 z" id="boundary" inkscape:connector-curvature="0" />
	<path style="fill:none;stroke:red;stroke-width:1px;stroke-linecap:butt;stroke-linejoin:miter;stroke-opacity:1" d="M 343.664,183.955 321.17,179.456 z" id="boundary" inkscape:connector-curvature="0" />
	<path style="fill:none;stroke:red;stroke-width:1px;stroke-linecap:butt;stroke-linejoin:miter;stroke-opacity:1" d="M 408.898,156.961 386.404,168.209 z" id="boundary" inkscape:connector-curvature="0" />
	<path style="fill:none;stroke:red;stroke-width:1px;stroke-linecap:butt;stroke-linejoin:miter;stroke-opacity:1" d="M 172.707,10.7483 195.202,4 z" id="boundary" inkscape:connector-curvature="0" />
	<path style="fill:none;stroke:red;stroke-width:1px;stroke-linecap:butt;stroke-linejoin:miter;stroke-opacity:1" d="M 4,404.399 4,381.905 z" id="boundary" inkscape:connector-curvature="0" />
	<path style="fill:none;stroke:red;stroke-width:1px;stroke-linecap:butt;stroke-linejoin:miter;stroke-opacity:1" d="M 4,381.905 15.2472,348.163 z" id="boundary" inkscape:connector-curvature="0" />
	<path style="fill:none;stroke:red;stroke-width:1px;stroke-linecap:butt;stroke-linejoin:miter;stroke-opacity:1" d="M 4,449.388 4,426.893 z" id="boundary" inkscape:connector-curvature="0" />
	<path style="fill:none;stroke:red;stroke-width:1px;stroke-linecap:butt;stroke-linejoin:miter;stroke-opacity:1" d="M 21.9955,465.134 4,449.388 z" id="boundary" inkscape:connector-curvature="0" />
	<path style="fill:none;stroke:red;stroke-width:1px;stroke-linecap:butt;stroke-linejoin:miter;stroke-opacity:1" d="M 4,426.893 4,404.399 z" id="boundary" inkscape:connector-curvature="0" />
	<path style="fill:none;stroke:red;stroke-width:1px;stroke-linecap:butt;stroke-linejoin:miter;stroke-opacity:1" d="M 37.7415,483.129 60.2358,489.878 z" id="boundary" inkscape:connector-curvature="0" />
	<path style="fill:none;stroke:red;stroke-width:1px;stroke-linecap:butt;stroke-linejoin:miter;stroke-opacity:1" d="M 60.2358,489.878 80.4807,501.125 z" id="boundary" inkscape:connector-curvature="0" />
	<path style="fill:none;stroke:red;stroke-width:1px;stroke-linecap:butt;stroke-linejoin:miter;stroke-opacity:1" d="M 37.7415,483.129 21.9955,465.134 z" id="boundary" inkscape:connector-curvature="0" />
	<path style="fill:none;stroke:red;stroke-width:1px;stroke-linecap:butt;stroke-linejoin:miter;stroke-opacity:1" d="M 120.971,501.125 100.726,512.372 z" id="boundary" inkscape:connector-curvature="0" />
	<path style="fill:none;stroke:red;stroke-width:1px;stroke-linecap:butt;stroke-linejoin:miter;stroke-opacity:1" d="M 100.726,512.372 80.4807,501.125 z" id="boundary" inkscape:connector-curvature="0" />
	<path style="fill:none;stroke:red;stroke-width:1px;stroke-linecap:butt;stroke-linejoin:miter;stroke-opacity:1" d="M 120.971,501.125 138.966,514.621 z" id="boundary" inkscape:connector-curvature="0" />
	<path style="fill:none;stroke:red;stroke-width:1px;stroke-linecap:butt;stroke-linejoin:miter;stroke-opacity:1" d="M 161.46,512.372 138.966,514.621 z" id="boundary" inkscape:connector-curvature="0" />
	<path style="fill:none;stroke:red;stroke-width:1px;stroke-linecap:butt;stroke-linejoin:miter;stroke-opacity:1" d="M 217.696,552.862 201.95,534.866 z" id="boundary" inkscape:connector-curvature="0" />
	<path style="fill:none;stroke:red;stroke-width:1px;stroke-linecap:butt;stroke-linejoin:miter;stroke-opacity:1" d="M 235.692,568.608 217.696,552.862 z" id="boundary" inkscape:connector-curvature="0" />
	<path style="fill:none;stroke:red;stroke-width:1px;stroke-linecap:butt;stroke-linejoin:miter;stroke-opacity:1" d="M 224.444,667.583 206.449,685.578 z" id="boundary" inkscape:connector-curvature="0" />
	<path style="fill:none;stroke:red;stroke-width:1px;stroke-linecap:butt;stroke-linejoin:miter;stroke-opacity:1" d="M 181.705,523.619 201.95,534.866 z" id="boundary" inkscape:connector-curvature="0" />
	<path style="fill:none;stroke:red;stroke-width:1px;stroke-linecap:butt;stroke-linejoin:miter;stroke-opacity:1" d="M 181.705,523.619 161.46,512.372 z" id="boundary" inkscape:connector-curvature="0" />
	<path style="fill:none;stroke:red;stroke-width:1px;stroke-linecap:butt;stroke-linejoin:miter;stroke-opacity:1" d="M 206.449,685.578 217.696,705.823 z" id="boundary" inkscape:connector-curvature="0" />
	<path style="fill:none;stroke:red;stroke-width:1px;stroke-linecap:butt;stroke-linejoin:miter;stroke-opacity:1" d="M 235.692,568.608 253.687,584.354 z" id="boundary" inkscape:connector-curvature="0" />
	<path style="fill:none;stroke:red;stroke-width:1px;stroke-linecap:butt;stroke-linejoin:miter;stroke-opacity:1" d="M 224.444,667.583 246.939,656.336 z" id="boundary" inkscape:connector-curvature="0" />
	<path style="fill:none;stroke:red;stroke-width:1px;stroke-linecap:butt;stroke-linejoin:miter;stroke-opacity:1" d="M 253.687,584.354 269.433,602.349 z" id="boundary" inkscape:connector-curvature="0" />
	<path style="fill:none;stroke:red;stroke-width:1px;stroke-linecap:butt;stroke-linejoin:miter;stroke-opacity:1" d="M 269.433,656.336 246.939,656.336 z" id="boundary" inkscape:connector-curvature="0" />
	<path style="fill:none;stroke:red;stroke-width:1px;stroke-linecap:butt;stroke-linejoin:miter;stroke-opacity:1" d="M 285.179,620.345 269.433,602.349 z" id="boundary" inkscape:connector-curvature="0" />
	<path style="fill:none;stroke:red;stroke-width:1px;stroke-linecap:butt;stroke-linejoin:miter;stroke-opacity:1" d="M 291.927,656.336 269.433,656.336 z" id="boundary" inkscape:connector-curvature="0" />
	<path style="fill:none;stroke:red;stroke-width:1px;stroke-linecap:butt;stroke-linejoin:miter;stroke-opacity:1" d="M 285.179,620.345 291.927,656.336 z" id="boundary" inkscape:connector-curvature="0" />
	<path style="fill:none;stroke:red;stroke-width:1px;stroke-linecap:butt;stroke-linejoin:miter;stroke-opacity:1" d="M 217.696,705.823 240.19,714.821 z" id="boundary" inkscape:connector-curvature="0" />
	<path style="fill:none;stroke:red;stroke-width:1px;stroke-linecap:butt;stroke-linejoin:miter;stroke-opacity:1" d="M 240.19,714.821 260.435,726.068 z" id="boundary" inkscape:connector-curvature="0" />
	<path style="fill:none;stroke:red;stroke-width:1px;stroke-linecap:butt;stroke-linejoin:miter;stroke-opacity:1" d="M 260.435,726.068 280.68,714.821 z" id="boundary" inkscape:connector-curvature="0" />
	<path style="fill:none;stroke:red;stroke-width:1px;stroke-linecap:butt;stroke-linejoin:miter;stroke-opacity:1" d="M 280.68,714.821 303.175,714.821 z" id="boundary" inkscape:connector-curvature="0" />
	<path style="fill:none;stroke:red;stroke-width:1px;stroke-linecap:butt;stroke-linejoin:miter;stroke-opacity:1" d="M 343.664,692.327 366.159,692.327 z" id="boundary" inkscape:connector-curvature="0" />
	<path style="fill:none;stroke:red;stroke-width:1px;stroke-linecap:butt;stroke-linejoin:miter;stroke-opacity:1" d="M 325.669,712.571 343.664,692.327 z" id="boundary" inkscape:connector-curvature="0" />
	<path style="fill:none;stroke:red;stroke-width:1px;stroke-linecap:butt;stroke-linejoin:miter;stroke-opacity:1" d="M 325.669,712.571 303.175,714.821 z" id="boundary" inkscape:connector-curvature="0" />
	<path style="fill:none;stroke:red;stroke-width:1px;stroke-linecap:butt;stroke-linejoin:miter;stroke-opacity:1" d="M 303.175,714.821 291.927,656.336 z" id="boundary" inkscape:connector-curvature="0" />
	<path style="fill:none;stroke:red;stroke-width:1px;stroke-linecap:butt;stroke-linejoin:miter;stroke-opacity:1" d="M 366.159,692.327 388.653,692.327 z" id="boundary" inkscape:connector-curvature="0" />
	<path style="fill:none;stroke:red;stroke-width:1px;stroke-linecap:butt;stroke-linejoin:miter;stroke-opacity:1" d="M 408.898,681.079 388.653,692.327 z" id="boundary" inkscape:connector-curvature="0" />
	<path style="fill:none;stroke:red;stroke-width:1px;stroke-linecap:butt;stroke-linejoin:miter;stroke-opacity:1" d="M 566.358,127.719 543.864,134.467 z" id="boundary" inkscape:connector-curvature="0" />
	<path style="fill:none;stroke:red;stroke-width:1px;stroke-linecap:butt;stroke-linejoin:miter;stroke-opacity:1" d="M 498.875,138.966 476.381,138.966 z" id="boundary" inkscape:connector-curvature="0" />
	<path style="fill:none;stroke:red;stroke-width:1px;stroke-linecap:butt;stroke-linejoin:miter;stroke-opacity:1" d="M 498.875,138.966 521.37,138.966 z" id="boundary" inkscape:connector-curvature="0" />
	<path style="fill:none;stroke:red;stroke-width:1px;stroke-linecap:butt;stroke-linejoin:miter;stroke-opacity:1" d="M 543.864,134.467 521.37,138.966 z" id="boundary" inkscape:connector-curvature="0" />
	<path style="fill:none;stroke:red;stroke-width:1px;stroke-linecap:butt;stroke-linejoin:miter;stroke-opacity:1" d="M 453.887,145.714 476.381,138.966 z" id="boundary" inkscape:connector-curvature="0" />
	<path style="fill:none;stroke:red;stroke-width:1px;stroke-linecap:butt;stroke-linejoin:miter;stroke-opacity:1" d="M 588.853,132.218 611.347,138.966 z" id="boundary" inkscape:connector-curvature="0" />
	<path style="fill:none;stroke:red;stroke-width:1px;stroke-linecap:butt;stroke-linejoin:miter;stroke-opacity:1" d="M 588.853,132.218 566.358,127.719 z" id="boundary" inkscape:connector-curvature="0" />
	<path style="fill:none;stroke:red;stroke-width:1px;stroke-linecap:butt;stroke-linejoin:miter;stroke-opacity:1" d="M 611.347,138.966 633.841,138.966 z" id="boundary" inkscape:connector-curvature="0" />
	<path style="fill:none;stroke:red;stroke-width:1px;stroke-linecap:butt;stroke-linejoin:miter;stroke-opacity:1" d="M 633.841,138.966 654.086,150.213 z" id="boundary" inkscape:connector-curvature="0" />
	<path style="fill:none;stroke:red;stroke-width:1px;stroke-linecap:butt;stroke-linejoin:miter;stroke-opacity:1" d="M 453.887,145.714 431.392,150.213 z" id="boundary" inkscape:connector-curvature="0" />
	<path style="fill:none;stroke:red;stroke-width:1px;stroke-linecap:butt;stroke-linejoin:miter;stroke-opacity:1" d="M 654.086,150.213 676.58,150.213 z" id="boundary" inkscape:connector-curvature="0" />
	<path style="fill:none;stroke:red;stroke-width:1px;stroke-linecap:butt;stroke-linejoin:miter;stroke-opacity:1" d="M 699.075,152.463 719.32,163.71 z" id="boundary" inkscape:connector-curvature="0" />
	<path style="fill:none;stroke:red;stroke-width:1px;stroke-linecap:butt;stroke-linejoin:miter;stroke-opacity:1" d="M 676.58,150.213 699.075,152.463 z" id="boundary" inkscape:connector-curvature="0" />
	<path style="fill:none;stroke:red;stroke-width:1px;stroke-linecap:butt;stroke-linejoin:miter;stroke-opacity:1" d="M 741.814,172.707 764.308,172.707 z" id="boundary" inkscape:connector-curvature="0" />
	<path style="fill:none;stroke:red;stroke-width:1px;stroke-linecap:butt;stroke-linejoin:miter;stroke-opacity:1" d="M 764.308,172.707 784.553,183.955 z" id="boundary" inkscape:connector-curvature="0" />
	<path style="fill:none;stroke:red;stroke-width:1px;stroke-linecap:butt;stroke-linejoin:miter;stroke-opacity:1" d="M 741.814,172.707 719.32,163.71 z" id="boundary" inkscape:connector-curvature="0" />
	<path style="fill:none;stroke:red;stroke-width:1px;stroke-linecap:butt;stroke-linejoin:miter;stroke-opacity:1" d="M 804.798,195.202 822.794,208.698 z" id="boundary" inkscape:connector-curvature="0" />
	<path style="fill:none;stroke:red;stroke-width:1px;stroke-linecap:butt;stroke-linejoin:miter;stroke-opacity:1" d="M 838.54,226.694 849.787,246.939 z" id="boundary" inkscape:connector-curvature="0" />
	<path style="fill:none;stroke:red;stroke-width:1px;stroke-linecap:butt;stroke-linejoin:miter;stroke-opacity:1" d="M 822.794,208.698 838.54,226.694 z" id="boundary" inkscape:connector-curvature="0" />
	<path style="fill:none;stroke:red;stroke-width:1px;stroke-linecap:butt;stroke-linejoin:miter;stroke-opacity:1" d="M 865.533,264.934 849.787,246.939 z" id="boundary" inkscape:connector-curvature="0" />
	<path style="fill:none;stroke:red;stroke-width:1px;stroke-linecap:butt;stroke-linejoin:miter;stroke-opacity:1" d="M 865.533,264.934 883.528,280.68 z" id="boundary" inkscape:connector-curvature="0" />
	<path style="fill:none;stroke:red;stroke-width:1px;stroke-linecap:butt;stroke-linejoin:miter;stroke-opacity:1" d="M 883.528,280.68 894.776,300.925 z" id="boundary" inkscape:connector-curvature="0" />
	<path style="fill:none;stroke:red;stroke-width:1px;stroke-linecap:butt;stroke-linejoin:miter;stroke-opacity:1" d="M 908.272,318.921 894.776,300.925 z" id="boundary" inkscape:connector-curvature="0" />
	<path style="fill:none;stroke:red;stroke-width:1px;stroke-linecap:butt;stroke-linejoin:miter;stroke-opacity:1" d="M 908.272,318.921 917.27,341.415 z" id="boundary" inkscape:connector-curvature="0" />
	<path style="fill:none;stroke:red;stroke-width:1px;stroke-linecap:butt;stroke-linejoin:miter;stroke-opacity:1" d="M 917.27,341.415 935.265,354.912 z" id="boundary" inkscape:connector-curvature="0" />
	<path style="fill:none;stroke:red;stroke-width:1px;stroke-linecap:butt;stroke-linejoin:miter;stroke-opacity:1" d="M 935.265,354.912 939.764,377.406 z" id="boundary" inkscape:connector-curvature="0" />
	<path style="fill:none;stroke:red;stroke-width:1px;stroke-linecap:butt;stroke-linejoin:miter;stroke-opacity:1" d="M 951.011,397.651 939.764,377.406 z" id="boundary" inkscape:connector-curvature="0" />
	<path style="fill:none;stroke:red;stroke-width:1px;stroke-linecap:butt;stroke-linejoin:miter;stroke-opacity:1" d="M 951.011,397.651 951.011,420.145 z" id="boundary" inkscape:connector-curvature="0" />
	<path style="fill:none;stroke:red;stroke-width:1px;stroke-linecap:butt;stroke-linejoin:miter;stroke-opacity:1" d="M 951.011,420.145 962.259,440.39 z" id="boundary" inkscape:connector-curvature="0" />
	<path style="fill:none;stroke:red;stroke-width:1px;stroke-linecap:butt;stroke-linejoin:miter;stroke-opacity:1" d="M 962.259,440.39 962.259,462.884 z" id="boundary" inkscape:connector-curvature="0" />
	<path style="fill:none;stroke:red;stroke-width:1px;stroke-linecap:butt;stroke-linejoin:miter;stroke-opacity:1" d="M 962.259,462.884 962.259,485.379 z" id="boundary" inkscape:connector-curvature="0" />
	<path style="fill:none;stroke:red;stroke-width:1px;stroke-linecap:butt;stroke-linejoin:miter;stroke-opacity:1" d="M 962.259,507.873 962.259,485.379 z" id="boundary" inkscape:connector-curvature="0" />
	<path style="fill:none;stroke:red;stroke-width:1px;stroke-linecap:butt;stroke-linejoin:miter;stroke-opacity:1" d="M 784.553,183.955 804.798,195.202 z" id="boundary" inkscape:connector-curvature="0" />
	<path style="fill:none;stroke:red;stroke-width:1px;stroke-linecap:butt;stroke-linejoin:miter;stroke-opacity:1" d="M 431.392,674.331 453.887,674.331 z" id="boundary" inkscape:connector-curvature="0" />
	<path style="fill:none;stroke:red;stroke-width:1px;stroke-linecap:butt;stroke-linejoin:miter;stroke-opacity:1" d="M 453.887,674.331 465.134,696.825 z" id="boundary" inkscape:connector-curvature="0" />
	<path style="fill:none;stroke:red;stroke-width:1px;stroke-linecap:butt;stroke-linejoin:miter;stroke-opacity:1" d="M 465.134,696.825 483.129,712.571 z" id="boundary" inkscape:connector-curvature="0" />
	<path style="fill:none;stroke:red;stroke-width:1px;stroke-linecap:butt;stroke-linejoin:miter;stroke-opacity:1" d="M 408.898,681.079 431.392,674.331 z" id="boundary" inkscape:connector-curvature="0" />
	<path style="fill:none;stroke:red;stroke-width:1px;stroke-linecap:butt;stroke-linejoin:miter;stroke-opacity:1" d="M 483.129,681.079 465.134,696.825 z" id="boundary" inkscape:connector-curvature="0" />
	<path style="fill:none;stroke:red;stroke-width:1px;stroke-linecap:butt;stroke-linejoin:miter;stroke-opacity:1" d="M 498.875,730.567 483.129,712.571 z" id="boundary" inkscape:connector-curvature="0" />
	<path style="fill:none;stroke:red;stroke-width:1px;stroke-linecap:butt;stroke-linejoin:miter;stroke-opacity:1" d="M 521.37,737.315 498.875,730.567 z" id="boundary" inkscape:connector-curvature="0" />
	<path style="fill:none;stroke:red;stroke-width:1px;stroke-linecap:butt;stroke-linejoin:miter;stroke-opacity:1" d="M 543.864,737.315 521.37,737.315 z" id="boundary" inkscape:connector-curvature="0" />
	<path style="fill:none;stroke:red;stroke-width:1px;stroke-linecap:butt;stroke-linejoin:miter;stroke-opacity:1" d="M 483.129,681.079 543.864,737.315 z" id="boundary" inkscape:connector-curvature="0" />
	<path style="fill:none;stroke:red;stroke-width:1px;stroke-linecap:butt;stroke-linejoin:miter;stroke-opacity:1" d="M 588.853,737.315 566.358,737.315 z" id="boundary" inkscape:connector-curvature="0" />
	<path style="fill:none;stroke:red;stroke-width:1px;stroke-linecap:butt;stroke-linejoin:miter;stroke-opacity:1" d="M 566.358,737.315 543.864,737.315 z" id="boundary" inkscape:connector-curvature="0" />
	<path style="fill:none;stroke:red;stroke-width:1px;stroke-linecap:butt;stroke-linejoin:miter;stroke-opacity:1" d="M 633.841,737.315 611.347,737.315 z" id="boundary" inkscape:connector-curvature="0" />
	<path style="fill:none;stroke:red;stroke-width:1px;stroke-linecap:butt;stroke-linejoin:miter;stroke-opacity:1" d="M 678.83,737.315 656.336,737.315 z" id="boundary" inkscape:connector-curvature="0" />
	<path style="fill:none;stroke:red;stroke-width:1px;stroke-linecap:butt;stroke-linejoin:miter;stroke-opacity:1" d="M 701.324,737.315 678.83,737.315 z" id="boundary" inkscape:connector-curvature="0" />
	<path style="fill:none;stroke:red;stroke-width:1px;stroke-linecap:butt;stroke-linejoin:miter;stroke-opacity:1" d="M 723.819,730.567 701.324,737.315 z" id="boundary" inkscape:connector-curvature="0" />
	<path style="fill:none;stroke:red;stroke-width:1px;stroke-linecap:butt;stroke-linejoin:miter;stroke-opacity:1" d="M 656.336,737.315 633.841,737.315 z" id="boundary" inkscape:connector-curvature="0" />
	<path style="fill:none;stroke:red;stroke-width:1px;stroke-linecap:butt;stroke-linejoin:miter;stroke-opacity:1" d="M 611.347,737.315 588.853,737.315 z" id="boundary" inkscape:connector-curvature="0" />
	<path style="fill:none;stroke:red;stroke-width:1px;stroke-linecap:butt;stroke-linejoin:miter;stroke-opacity:1" d="M 962.259,530.367 962.259,552.862 z" id="boundary" inkscape:connector-curvature="0" />
	<path style="fill:none;stroke:red;stroke-width:1px;stroke-linecap:butt;stroke-linejoin:miter;stroke-opacity:1" d="M 973.506,573.107 962.259,552.862 z" id="boundary" inkscape:connector-curvature="0" />
	<path style="fill:none;stroke:red;stroke-width:1px;stroke-linecap:butt;stroke-linejoin:miter;stroke-opacity:1" d="M 939.764,692.327 962.259,669.832 z" id="boundary" inkscape:connector-curvature="0" />
	<path style="fill:none;stroke:red;stroke-width:1px;stroke-linecap:butt;stroke-linejoin:miter;stroke-opacity:1" d="M 962.259,669.832 980.254,654.086 z" id="boundary" inkscape:connector-curvature="0" />
	<path style="fill:none;stroke:red;stroke-width:1px;stroke-linecap:butt;stroke-linejoin:miter;stroke-opacity:1" d="M 973.506,573.107 989.252,591.102 z" id="boundary" inkscape:connector-curvature="0" />
	<path style="fill:none;stroke:red;stroke-width:1px;stroke-linecap:butt;stroke-linejoin:miter;stroke-opacity:1" d="M 996,613.596 996,636.091 z" id="boundary" inkscape:connector-curvature="0" />
	<path style="fill:none;stroke:red;stroke-width:1px;stroke-linecap:butt;stroke-linejoin:miter;stroke-opacity:1" d="M 996,636.091 980.254,654.086 z" id="boundary" inkscape:connector-curvature="0" />
	<path style="fill:none;stroke:red;stroke-width:1px;stroke-linecap:butt;stroke-linejoin:miter;stroke-opacity:1" d="M 989.252,591.102 996,613.596 z" id="boundary" inkscape:connector-curvature="0" />
	<path style="fill:none;stroke:red;stroke-width:1px;stroke-linecap:butt;stroke-linejoin:miter;stroke-opacity:1" d="M 962.259,530.367 962.259,507.873 z" id="boundary" inkscape:connector-curvature="0" />
	<path style="fill:none;stroke:red;stroke-width:1px;stroke-linecap:butt;stroke-linejoin:miter;stroke-opacity:1" d="M 924.018,710.322 939.764,692.327 z" id="boundary" inkscape:connector-curvature="0" />
	<path style="fill:none;stroke:red;stroke-width:1px;stroke-linecap:butt;stroke-linejoin:miter;stroke-opacity:1" d="M 746.313,726.068 768.807,726.068 z" id="boundary" inkscape:connector-curvature="0" />
	<path style="fill:none;stroke:red;stroke-width:1px;stroke-linecap:butt;stroke-linejoin:miter;stroke-opacity:1" d="M 723.819,730.567 746.313,726.068 z" id="boundary" inkscape:connector-curvature="0" />
	<path style="fill:none;stroke:red;stroke-width:1px;stroke-linecap:butt;stroke-linejoin:miter;stroke-opacity:1" d="M 791.302,726.068 813.796,726.068 z" id="boundary" inkscape:connector-curvature="0" />
	<path style="fill:none;stroke:red;stroke-width:1px;stroke-linecap:butt;stroke-linejoin:miter;stroke-opacity:1" d="M 791.302,726.068 768.807,726.068 z" id="boundary" inkscape:connector-curvature="0" />
	<path style="fill:none;stroke:red;stroke-width:1px;stroke-linecap:butt;stroke-linejoin:miter;stroke-opacity:1" d="M 901.524,714.821 924.018,710.322 z" id="boundary" inkscape:connector-curvature="0" />
	<path style="fill:none;stroke:red;stroke-width:1px;stroke-linecap:butt;stroke-linejoin:miter;stroke-opacity:1" d="M 881.279,726.068 901.524,714.821 z" id="boundary" inkscape:connector-curvature="0" />
	<path style="fill:none;stroke:red;stroke-width:1px;stroke-linecap:butt;stroke-linejoin:miter;stroke-opacity:1" d="M 836.29,726.068 813.796,726.068 z" id="boundary" inkscape:connector-curvature="0" />
	<path style="fill:none;stroke:red;stroke-width:1px;stroke-linecap:butt;stroke-linejoin:miter;stroke-opacity:1" d="M 836.29,726.068 858.785,726.068 z" id="boundary" inkscape:connector-curvature="0" />
	<path style="fill:none;stroke:red;stroke-width:1px;stroke-linecap:butt;stroke-linejoin:miter;stroke-opacity:1" d="M 881.279,726.068 858.785,726.068 z" id="boundary" inkscape:connector-curvature="0" />
	<circle cx="4" cy="381.905" r="4" fill="#0" id="circle0"/>
	<circle cx="4" cy="404.399" r="4" fill="#0" id="circle1"/>
	<circle cx="4" cy="426.893" r="4" fill="#0" id="circle2"/>
	<circle cx="4" cy="449.388" r="4" fill="#0" id="circle3"/>
	<circle cx="15.2472" cy="280.68" r="4" fill="#0" id="circle4"/>
	<circle cx="15.2472" cy="348.163" r="4" fill="#0" id="circle5"/>
	<circle cx="21.9955" cy="465.134" r="4" fill="#0" id="circle6"/>
	<circle cx="26.4943" cy="300.925" r="4" fill="#0" id="circle7"/>
	<circle cx="26.4943" cy="325.669" r="4" fill="#0" id="circle8"/>
	<circle cx="37.7415" cy="483.129" r="4" fill="#0" id="circle9"/>
	<circle cx="48.9887" cy="269.433" r="4" fill="#0" id="circle10"/>
	<circle cx="48.9887" cy="291.927" r="4" fill="#0" id="circle11"/>
	<circle cx="60.2358" cy="489.878" r="4" fill="#0" id="circle12"/>
	<circle cx="71.483" cy="258.186" r="4" fill="#0" id="circle13"/>
	<circle cx="80.4807" cy="501.125" r="4" fill="#0" id="circle14"/>
	<circle cx="89.4785" cy="240.19" r="4" fill="#0" id="circle15"/>
	<circle cx="100.726" cy="512.372" r="4" fill="#0" id="circle16"/>
	<circle cx="107.474" cy="222.195" r="4" fill="#0" id="circle17"/>
	<circle cx="120.971" cy="501.125" r="4" fill="#0" id="circle18"/>
	<circle cx="129.968" cy="210.948" r="4" fill="#0" id="circle19"/>
	<circle cx="138.966" cy="44.4898" r="4" fill="#0" id="circle20"/>
	<circle cx="138.966" cy="66.9841" r="4" fill="#0" id="circle21"/>
	<circle cx="138.966" cy="89.4785" r="4" fill="#0" id="circle22"/>
	<circle cx="138.966" cy="111.973" r="4" fill="#0" id="circle23"/>
	<circle cx="138.966" cy="134.467" r="4" fill="#0" id="circle24"/>
	<circle cx="138.966" cy="514.621" r="4" fill="#0" id="circle25"/>
	<circle cx="147.964" cy="195.202" r="4" fill="#0" id="circle26"/>
	<circle cx="150.213" cy="21.9955" r="4" fill="#0" id="circle27"/>
	<circle cx="150.213" cy="154.712" r="4" fill="#0" id="circle28"/>
	<circle cx="161.46" cy="512.372" r="4" fill="#0" id="circle29"/>
	<circle cx="172.707" cy="10.7483" r="4" fill="#0" id="circle30"/>
	<circle cx="181.705" cy="523.619" r="4" fill="#0" id="circle31"/>
	<circle cx="195.202" cy="4" r="4" fill="#0" id="circle32"/>
	<circle cx="201.95" cy="534.866" r="4" fill="#0" id="circle33"/>
	<circle cx="206.449" cy="685.578" r="4" fill="#0" id="circle34"/>
	<circle cx="217.696" cy="4" r="4" fill="#0" id="circle35"/>
	<circle cx="217.696" cy="552.862" r="4" fill="#0" id="circle36"/>
	<circle cx="217.696" cy="705.823" r="4" fill="#0" id="circle37"/>
	<circle cx="224.444" cy="667.583" r="4" fill="#0" id="circle38"/>
	<circle cx="235.692" cy="568.608" r="4" fill="#0" id="circle39"/>
	<circle cx="240.19" cy="4" r="4" fill="#0" id="circle40"/>
	<circle cx="240.19" cy="714.821" r="4" fill="#0" id="circle41"/>
	<circle cx="246.939" cy="656.336" r="4" fill="#0" id="circle42"/>
	<circle cx="253.687" cy="584.354" r="4" fill="#0" id="circle43"/>
	<circle cx="260.435" cy="726.068" r="4" fill="#0" id="circle44"/>
	<circle cx="262.685" cy="8.49887" r="4" fill="#0" id="circle45"/>
	<circle cx="269.433" cy="602.349" r="4" fill="#0" id="circle46"/>
	<circle cx="269.433" cy="656.336" r="4" fill="#0" id="circle47"/>
	<circle cx="276.181" cy="26.4943" r="4" fill="#0" id="circle48"/>
	<circle cx="280.68" cy="714.821" r="4" fill="#0" id="circle49"/>
	<circle cx="285.179" cy="620.345" r="4" fill="#0" id="circle50"/>
	<circle cx="287.429" cy="46.7392" r="4" fill="#0" id="circle51"/>
	<circle cx="287.429" cy="152.463" r="4" fill="#0" id="circle52"/>
	<circle cx="291.927" cy="656.336" r="4" fill="#0" id="circle53"/>
	<circle cx="298.676" cy="66.9841" r="4" fill="#0" id="circle54"/>
	<circle cx="298.676" cy="89.4785" r="4" fill="#0" id="circle55"/>
	<circle cx="298.676" cy="111.973" r="4" fill="#0" id="circle56"/>
	<circle cx="298.676" cy="172.707" r="4" fill="#0" id="circle57"/>
	<circle cx="303.175" cy="714.821" r="4" fill="#0" id="circle58"/>
	<circle cx="321.17" cy="179.456" r="4" fill="#0" id="circle59"/>
	<circle cx="325.669" cy="712.571" r="4" fill="#0" id="circle60"/>
	<circle cx="343.664" cy="183.955" r="4" fill="#0" id="circle61"/>
	<circle cx="343.664" cy="692.327" r="4" fill="#0" id="circle62"/>
	<circle cx="363.909" cy="172.707" r="4" fill="#0" id="circle63"/>
	<circle cx="366.159" cy="692.327" r="4" fill="#0" id="circle64"/>
	<circle cx="386.404" cy="168.209" r="4" fill="#0" id="circle65"/>
	<circle cx="388.653" cy="692.327" r="4" fill="#0" id="circle66"/>
	<circle cx="408.898" cy="156.961" r="4" fill="#0" id="circle67"/>
	<circle cx="408.898" cy="681.079" r="4" fill="#0" id="circle68"/>
	<circle cx="431.392" cy="150.213" r="4" fill="#0" id="circle69"/>
	<circle cx="431.392" cy="674.331" r="4" fill="#0" id="circle70"/>
	<circle cx="453.887" cy="145.714" r="4" fill="#0" id="circle71"/>
	<circle cx="453.887" cy="674.331" r="4" fill="#0" id="circle72"/>
	<circle cx="465.134" cy="696.825" r="4" fill="#0" id="circle73"/>
	<circle cx="476.381" cy="138.966" r="4" fill="#0" id="circle74"/>
	<circle cx="483.129" cy="681.079" r="4" fill="#0" id="circle75"/>
	<circle cx="483.129" cy="712.571" r="4" fill="#0" id="circle76"/>
	<circle cx="498.875" cy="138.966" r="4" fill="#0" id="circle77"/>
	<circle cx="498.875" cy="730.567" r="4" fill="#0" id="circle78"/>
	<circle cx="521.37" cy="138.966" r="4" fill="#0" id="circle79"/>
	<circle cx="521.37" cy="737.315" r="4" fill="#0" id="circle80"/>
	<circle cx="543.864" cy="134.467" r="4" fill="#0" id="circle81"/>
	<circle cx="543.864" cy="737.315" r="4" fill="#0" id="circle82"/>
	<circle cx="566.358" cy="127.719" r="4" fill="#0" id="circle83"/>
	<circle cx="566.358" cy="737.315" r="4" fill="#0" id="circle84"/>
	<circle cx="588.853" cy="132.218" r="4" fill="#0" id="circle85"/>
	<circle cx="588.853" cy="737.315" r="4" fill="#0" id="circle86"/>
	<circle cx="611.347" cy="138.966" r="4" fill="#0" id="circle87"/>
	<circle cx="611.347" cy="737.315" r="4" fill="#0" id="circle88"/>
	<circle cx="633.841" cy="138.966" r="4" fill="#0" id="circle89"/>
	<circle cx="633.841" cy="737.315" r="4" fill="#0" id="circle90"/>
	<circle cx="654.086" cy="150.213" r="4" fill="#0" id="circle91"/>
	<circle cx="656.336" cy="737.315" r="4" fill="#0" id="circle92"/>
	<circle cx="676.58" cy="150.213" r="4" fill="#0" id="circle93"/>
	<circle cx="678.83" cy="737.315" r="4" fill="#0" id="circle94"/>
	<circle cx="699.075" cy="152.463" r="4" fill="#0" id="circle95"/>
	<circle cx="701.324" cy="737.315" r="4" fill="#0" id="circle96"/>
	<circle cx="719.32" cy="163.71" r="4" fill="#0" id="circle97"/>
	<circle cx="723.819" cy="730.567" r="4" fill="#0" id="circle98"/>
	<circle cx="741.814" cy="172.707" r="4" fill="#0" id="circle99"/>
	<circle cx="746.313" cy="726.068" r="4" fill="#0" id="circle100"/>
	<circle cx="764.308" cy="172.707" r="4" fill="#0" id="circle101"/>
	<circle cx="768.807" cy="726.068" r="4" fill="#0" id="circle102"/>
	<circle cx="784.553" cy="183.955" r="4" fill="#0" id="circle103"/>
	<circle cx="791.302" cy="726.068" r="4" fill="#0" id="circle104"/>
	<circle cx="804.798" cy="195.202" r="4" fill="#0" id="circle105"/>
	<circle cx="813.796" cy="726.068" r="4" fill="#0" id="circle106"/>
	<circle cx="822.794" cy="208.698" r="4" fill="#0" id="circle107"/>
	<circle cx="836.29" cy="726.068" r="4" fill="#0" id="circle108"/>
	<circle cx="838.54" cy="226.694" r="4" fill="#0" id="circle109"/>
	<circle cx="849.787" cy="246.939" r="4" fill="#0" id="circle110"/>
	<circle cx="858.785" cy="726.068" r="4" fill="#0" id="circle111"/>
	<circle cx="865.533" cy="264.934" r="4" fill="#0" id="circle112"/>
	<circle cx="881.279" cy="726.068" r="4" fill="#0" id="circle113"/>
	<circle cx="883.528" cy="280.68" r="4" fill="#0" id="circle114"/>
	<circle cx="894.776" cy="300.925" r="4" fill="#0" id="circle115"/>
	<circle cx="901.524" cy="714.821" r="4" fill="#0" id="circle116"/>
	<circle cx="908.272" cy="318.921" r="4" fill="#0" id="circle117"/>
	<circle cx="917.27" cy="341.415" r="4" fill="#0" id="circle118"/>
	<circle cx="924.018" cy="710.322" r="4" fill="#0" id="circle119"/>
	<circle cx="935.265" cy="354.912" r="4" fill="#0" id="circle120"/>
	<circle cx="939.764" cy="377.406" r="4" fill="#0" id="circle121"/>
	<circle cx="939.764" cy="692.327" r="4" fill="#0" id="circle122"/>
	<circle cx="951.011" cy="397.651" r="4" fill="#0" id="circle123"/>
	<circle cx="951.011" cy="420.145" r="4" fill="#0" id="circle124"/>
	<circle cx="962.259" cy="440.39" r="4" fill="#0" id="circle125"/>
	<circle cx="962.259" cy="462.884" r="4" fill="#0" id="circle126"/>
	<circle cx="962.259" cy="485.379" r="4" fill="#0" id="circle127"/>
	<circle cx="962.259" cy="507.873" r="4" fill="#0" id="circle128"/>
	<circle cx="962.259" cy="530.367" r="4" fill="#0" id="circle129"/>
	<circle cx="962.259" cy="552.862" r="4" fill="#0" id="circle130"/>
	<circle cx="962.259" cy="669.832" r="4" fill="#0" id="circle131"/>
	<circle cx="973.506" cy="573.107" r="4" fill="#0" id="circle132"/>
	<circle cx="980.254" cy="654.086" r="4" fill="#0" id="circle133"/>
	<circle cx="989.252" cy="591.102" r="4" fill="#0" id="circle134"/>
	<circle cx="996" cy="613.596" r="4" fill="#0" id="circle135"/>
	<circle cx="996" cy="636.091" r="4" fill="#0" id="circle136"/>
	</g>
</svg>