<?xml version="1.0" encoding="UTF-8" standalone="no"?>
<!-- Created with CurveBenchmark -->
<svg
	xmlns:dc="http://purl.org/dc/elements/1.1/"
	xmlns:cc="http://creativecommons.org/ns#"
	xmlns:rdf="http://www.w3.org/1999/02/22-rdf-syntax-ns#"
	xmlns:svg="http://www.w3.org/2000/svg"
	xmlns="http://www.w3.org/2000/svg"
	xmlns:sodipodi="http://sodipodi.sourceforge.net/DTD/sodipodi-0.dtd"
	xmlns:inkscape="http://www.inkscape.org/namespaces/inkscape"
	width="1000"
	height="1000"
	id="svg2"
	version="1.1"
	sodipodi:docname="manifold/nncrust-cat06.png.txt">
<defs
	id="defs4" />
<metadata
	id="metadata7">
	<rdf:RDF>
		<cc:Work
			rdf:about="">
			<dc:format>image/svg+xml</dc:format>
			<dc:type
				rdf:resource="http://purl.org/dc/dcmitype/StillImage" />
			<dc:title></dc:title>
		</cc:Work>
	</rdf:RDF>
</metadata>
<g
	inkscape:label="Layer 1"
	inkscape:groupmode="layer"
	id="layer1">
	<path style="fill:none;stroke:red;stroke-width:1px;stroke-linecap:butt;stroke-linejoin:miter;stroke-opacity:1" d="M 4,84.5685 4,67.7834 z" id="boundary" inkscape:connector-curvature="0" />
	<path style="fill:none;stroke:red;stroke-width:1px;stroke-linecap:butt;stroke-linejoin:miter;stroke-opacity:1" d="M 4,67.7834 20.7851,62.7479 z" id="boundary" inkscape:connector-curvature="0" />
	<path style="fill:none;stroke:red;stroke-width:1px;stroke-linecap:butt;stroke-linejoin:miter;stroke-opacity:1" d="M 35.8917,54.3553 20.7851,62.7479 z" id="boundary" inkscape:connector-curvature="0" />
	<path style="fill:none;stroke:red;stroke-width:1px;stroke-linecap:butt;stroke-linejoin:miter;stroke-opacity:1" d="M 4,101.354 12.3926,116.46 z" id="boundary" inkscape:connector-curvature="0" />
	<path style="fill:none;stroke:red;stroke-width:1px;stroke-linecap:butt;stroke-linejoin:miter;stroke-opacity:1" d="M 12.3926,116.46 12.3926,133.245 z" id="boundary" inkscape:connector-curvature="0" />
	<path style="fill:none;stroke:red;stroke-width:1px;stroke-linecap:butt;stroke-linejoin:miter;stroke-opacity:1" d="M 4,101.354 4,84.5685 z" id="boundary" inkscape:connector-curvature="0" />
	<path style="fill:none;stroke:red;stroke-width:1px;stroke-linecap:butt;stroke-linejoin:miter;stroke-opacity:1" d="M 35.8917,156.745 20.7851,148.352 z" id="boundary" inkscape:connector-curvature="0" />
	<path style="fill:none;stroke:red;stroke-width:1px;stroke-linecap:butt;stroke-linejoin:miter;stroke-opacity:1" d="M 20.7851,148.352 12.3926,133.245 z" id="boundary" inkscape:connector-curvature="0" />
	<path style="fill:none;stroke:red;stroke-width:1px;stroke-linecap:butt;stroke-linejoin:miter;stroke-opacity:1" d="M 35.8917,54.3553 52.6768,54.3553 z" id="boundary" inkscape:connector-curvature="0" />
	<path style="fill:none;stroke:red;stroke-width:1px;stroke-linecap:butt;stroke-linejoin:miter;stroke-opacity:1" d="M 84.5685,37.5702 101.354,29.1777 z" id="boundary" inkscape:connector-curvature="0" />
	<path style="fill:none;stroke:red;stroke-width:1px;stroke-linecap:butt;stroke-linejoin:miter;stroke-opacity:1" d="M 101.354,29.1777 116.46,37.5702 z" id="boundary" inkscape:connector-curvature="0" />
	<path style="fill:none;stroke:red;stroke-width:1px;stroke-linecap:butt;stroke-linejoin:miter;stroke-opacity:1" d="M 146.673,34.2132 155.066,17.4281 z" id="boundary" inkscape:connector-curvature="0" />
	<path style="fill:none;stroke:red;stroke-width:1px;stroke-linecap:butt;stroke-linejoin:miter;stroke-opacity:1" d="M 171.851,15.7496 155.066,17.4281 z" id="boundary" inkscape:connector-curvature="0" />
	<path style="fill:none;stroke:red;stroke-width:1px;stroke-linecap:butt;stroke-linejoin:miter;stroke-opacity:1" d="M 210.457,4 171.851,15.7496 z" id="boundary" inkscape:connector-curvature="0" />
	<path style="fill:none;stroke:red;stroke-width:1px;stroke-linecap:butt;stroke-linejoin:miter;stroke-opacity:1" d="M 67.7834,171.851 50.9983,165.137 z" id="boundary" inkscape:connector-curvature="0" />
	<path style="fill:none;stroke:red;stroke-width:1px;stroke-linecap:butt;stroke-linejoin:miter;stroke-opacity:1" d="M 50.9983,165.137 35.8917,156.745 z" id="boundary" inkscape:connector-curvature="0" />
	<path style="fill:none;stroke:red;stroke-width:1px;stroke-linecap:butt;stroke-linejoin:miter;stroke-opacity:1" d="M 67.7834,45.9628 84.5685,37.5702 z" id="boundary" inkscape:connector-curvature="0" />
	<path style="fill:none;stroke:red;stroke-width:1px;stroke-linecap:butt;stroke-linejoin:miter;stroke-opacity:1" d="M 116.46,37.5702 131.567,45.9628 z" id="boundary" inkscape:connector-curvature="0" />
	<path style="fill:none;stroke:red;stroke-width:1px;stroke-linecap:butt;stroke-linejoin:miter;stroke-opacity:1" d="M 146.673,34.2132 131.567,45.9628 z" id="boundary" inkscape:connector-curvature="0" />
	<path style="fill:none;stroke:red;stroke-width:1px;stroke-linecap:butt;stroke-linejoin:miter;stroke-opacity:1" d="M 52.6768,54.3553 67.7834,45.9628 z" id="boundary" inkscape:connector-curvature="0" />
	<path style="fill:none;stroke:red;stroke-width:1px;stroke-linecap:butt;stroke-linejoin:miter;stroke-opacity:1" d="M 71.1404,188.636 71.1404,205.421 z" id="boundary" inkscape:connector-curvature="0" />
	<path style="fill:none;stroke:red;stroke-width:1px;stroke-linecap:butt;stroke-linejoin:miter;stroke-opacity:1" d="M 71.1404,188.636 67.7834,171.851 z" id="boundary" inkscape:connector-curvature="0" />
	<path style="fill:none;stroke:red;stroke-width:1px;stroke-linecap:butt;stroke-linejoin:miter;stroke-opacity:1" d="M 71.1404,205.421 71.1404,222.206 z" id="boundary" inkscape:connector-curvature="0" />
	<path style="fill:none;stroke:red;stroke-width:1px;stroke-linecap:butt;stroke-linejoin:miter;stroke-opacity:1" d="M 79.533,237.313 71.1404,222.206 z" id="boundary" inkscape:connector-curvature="0" />
	<path style="fill:none;stroke:red;stroke-width:1px;stroke-linecap:butt;stroke-linejoin:miter;stroke-opacity:1" d="M 79.533,237.313 79.533,254.098 z" id="boundary" inkscape:connector-curvature="0" />
	<path style="fill:none;stroke:red;stroke-width:1px;stroke-linecap:butt;stroke-linejoin:miter;stroke-opacity:1" d="M 79.533,270.883 79.533,287.668 z" id="boundary" inkscape:connector-curvature="0" />
	<path style="fill:none;stroke:red;stroke-width:1px;stroke-linecap:butt;stroke-linejoin:miter;stroke-opacity:1" d="M 79.533,321.239 79.533,304.453 z" id="boundary" inkscape:connector-curvature="0" />
	<path style="fill:none;stroke:red;stroke-width:1px;stroke-linecap:butt;stroke-linejoin:miter;stroke-opacity:1" d="M 79.533,287.668 79.533,304.453 z" id="boundary" inkscape:connector-curvature="0" />
	<path style="fill:none;stroke:red;stroke-width:1px;stroke-linecap:butt;stroke-linejoin:miter;stroke-opacity:1" d="M 79.533,270.883 79.533,254.098 z" id="boundary" inkscape:connector-curvature="0" />
	<path style="fill:none;stroke:red;stroke-width:1px;stroke-linecap:butt;stroke-linejoin:miter;stroke-opacity:1" d="M 79.533,321.239 79.533,338.024 z" id="boundary" inkscape:connector-curvature="0" />
	<path style="fill:none;stroke:red;stroke-width:1px;stroke-linecap:butt;stroke-linejoin:miter;stroke-opacity:1" d="M 79.533,354.809 79.533,338.024 z" id="boundary" inkscape:connector-curvature="0" />
	<path style="fill:none;stroke:red;stroke-width:1px;stroke-linecap:butt;stroke-linejoin:miter;stroke-opacity:1" d="M 79.533,354.809 79.533,371.594 z" id="boundary" inkscape:connector-curvature="0" />
	<path style="fill:none;stroke:red;stroke-width:1px;stroke-linecap:butt;stroke-linejoin:miter;stroke-opacity:1" d="M 79.533,388.379 79.533,371.594 z" id="boundary" inkscape:connector-curvature="0" />
	<path style="fill:none;stroke:red;stroke-width:1px;stroke-linecap:butt;stroke-linejoin:miter;stroke-opacity:1" d="M 87.9255,403.486 79.533,388.379 z" id="boundary" inkscape:connector-curvature="0" />
	<path style="fill:none;stroke:red;stroke-width:1px;stroke-linecap:butt;stroke-linejoin:miter;stroke-opacity:1" d="M 87.9255,403.486 87.9255,420.271 z" id="boundary" inkscape:connector-curvature="0" />
	<path style="fill:none;stroke:red;stroke-width:1px;stroke-linecap:butt;stroke-linejoin:miter;stroke-opacity:1" d="M 96.3181,435.377 87.9255,420.271 z" id="boundary" inkscape:connector-curvature="0" />
	<path style="fill:none;stroke:red;stroke-width:1px;stroke-linecap:butt;stroke-linejoin:miter;stroke-opacity:1" d="M 104.711,450.484 96.3181,435.377 z" id="boundary" inkscape:connector-curvature="0" />
	<path style="fill:none;stroke:red;stroke-width:1px;stroke-linecap:butt;stroke-linejoin:miter;stroke-opacity:1" d="M 114.782,463.912 104.711,450.484 z" id="boundary" inkscape:connector-curvature="0" />
	<path style="fill:none;stroke:red;stroke-width:1px;stroke-linecap:butt;stroke-linejoin:miter;stroke-opacity:1" d="M 128.21,475.662 114.782,463.912 z" id="boundary" inkscape:connector-curvature="0" />
	<path style="fill:none;stroke:red;stroke-width:1px;stroke-linecap:butt;stroke-linejoin:miter;stroke-opacity:1" d="M 171.851,15.7496 181.922,29.1777 z" id="boundary" inkscape:connector-curvature="0" />
	<path style="fill:none;stroke:red;stroke-width:1px;stroke-linecap:butt;stroke-linejoin:miter;stroke-opacity:1" d="M 215.492,39.2487 181.922,29.1777 z" id="boundary" inkscape:connector-curvature="0" />
	<path style="fill:none;stroke:red;stroke-width:1px;stroke-linecap:butt;stroke-linejoin:miter;stroke-opacity:1" d="M 181.922,29.1777 197.029,17.4281 z" id="boundary" inkscape:connector-curvature="0" />
	<path style="fill:none;stroke:red;stroke-width:1px;stroke-linecap:butt;stroke-linejoin:miter;stroke-opacity:1" d="M 210.457,4 222.206,17.4281 z" id="boundary" inkscape:connector-curvature="0" />
	<path style="fill:none;stroke:red;stroke-width:1px;stroke-linecap:butt;stroke-linejoin:miter;stroke-opacity:1" d="M 197.029,17.4281 210.457,4 z" id="boundary" inkscape:connector-curvature="0" />
	<path style="fill:none;stroke:red;stroke-width:1px;stroke-linecap:butt;stroke-linejoin:miter;stroke-opacity:1" d="M 448.805,205.421 432.02,205.421 z" id="boundary" inkscape:connector-curvature="0" />
	<path style="fill:none;stroke:red;stroke-width:1px;stroke-linecap:butt;stroke-linejoin:miter;stroke-opacity:1" d="M 222.206,17.4281 215.492,39.2487 z" id="boundary" inkscape:connector-curvature="0" />
	<path style="fill:none;stroke:red;stroke-width:1px;stroke-linecap:butt;stroke-linejoin:miter;stroke-opacity:1" d="M 215.492,39.2487 215.492,56.0338 z" id="boundary" inkscape:connector-curvature="0" />
	<path style="fill:none;stroke:red;stroke-width:1px;stroke-linecap:butt;stroke-linejoin:miter;stroke-opacity:1" d="M 215.492,72.819 215.492,89.6041 z" id="boundary" inkscape:connector-curvature="0" />
	<path style="fill:none;stroke:red;stroke-width:1px;stroke-linecap:butt;stroke-linejoin:miter;stroke-opacity:1" d="M 223.885,121.496 215.492,106.389 z" id="boundary" inkscape:connector-curvature="0" />
	<path style="fill:none;stroke:red;stroke-width:1px;stroke-linecap:butt;stroke-linejoin:miter;stroke-opacity:1" d="M 215.492,106.389 215.492,89.6041 z" id="boundary" inkscape:connector-curvature="0" />
	<path style="fill:none;stroke:red;stroke-width:1px;stroke-linecap:butt;stroke-linejoin:miter;stroke-opacity:1" d="M 215.492,72.819 215.492,56.0338 z" id="boundary" inkscape:connector-curvature="0" />
	<path style="fill:none;stroke:red;stroke-width:1px;stroke-linecap:butt;stroke-linejoin:miter;stroke-opacity:1" d="M 223.885,121.496 223.885,138.281 z" id="boundary" inkscape:connector-curvature="0" />
	<path style="fill:none;stroke:red;stroke-width:1px;stroke-linecap:butt;stroke-linejoin:miter;stroke-opacity:1" d="M 223.885,155.066 232.277,170.173 z" id="boundary" inkscape:connector-curvature="0" />
	<path style="fill:none;stroke:red;stroke-width:1px;stroke-linecap:butt;stroke-linejoin:miter;stroke-opacity:1" d="M 232.277,170.173 232.277,186.958 z" id="boundary" inkscape:connector-curvature="0" />
	<path style="fill:none;stroke:red;stroke-width:1px;stroke-linecap:butt;stroke-linejoin:miter;stroke-opacity:1" d="M 223.885,155.066 223.885,138.281 z" id="boundary" inkscape:connector-curvature="0" />
	<path style="fill:none;stroke:red;stroke-width:1px;stroke-linecap:butt;stroke-linejoin:miter;stroke-opacity:1" d="M 240.67,202.064 232.277,186.958 z" id="boundary" inkscape:connector-curvature="0" />
	<path style="fill:none;stroke:red;stroke-width:1px;stroke-linecap:butt;stroke-linejoin:miter;stroke-opacity:1" d="M 381.665,205.421 364.88,210.457 z" id="boundary" inkscape:connector-curvature="0" />
	<path style="fill:none;stroke:red;stroke-width:1px;stroke-linecap:butt;stroke-linejoin:miter;stroke-opacity:1" d="M 398.45,205.421 415.235,205.421 z" id="boundary" inkscape:connector-curvature="0" />
	<path style="fill:none;stroke:red;stroke-width:1px;stroke-linecap:butt;stroke-linejoin:miter;stroke-opacity:1" d="M 398.45,205.421 381.665,205.421 z" id="boundary" inkscape:connector-curvature="0" />
	<path style="fill:none;stroke:red;stroke-width:1px;stroke-linecap:butt;stroke-linejoin:miter;stroke-opacity:1" d="M 415.235,205.421 432.02,205.421 z" id="boundary" inkscape:connector-curvature="0" />
	<path style="fill:none;stroke:red;stroke-width:1px;stroke-linecap:butt;stroke-linejoin:miter;stroke-opacity:1" d="M 331.31,213.814 348.095,213.814 z" id="boundary" inkscape:connector-curvature="0" />
	<path style="fill:none;stroke:red;stroke-width:1px;stroke-linecap:butt;stroke-linejoin:miter;stroke-opacity:1" d="M 316.203,222.206 331.31,213.814 z" id="boundary" inkscape:connector-curvature="0" />
	<path style="fill:none;stroke:red;stroke-width:1px;stroke-linecap:butt;stroke-linejoin:miter;stroke-opacity:1" d="M 364.88,210.457 348.095,213.814 z" id="boundary" inkscape:connector-curvature="0" />
	<path style="fill:none;stroke:red;stroke-width:1px;stroke-linecap:butt;stroke-linejoin:miter;stroke-opacity:1" d="M 465.591,205.421 448.805,205.421 z" id="boundary" inkscape:connector-curvature="0" />
	<path style="fill:none;stroke:red;stroke-width:1px;stroke-linecap:butt;stroke-linejoin:miter;stroke-opacity:1" d="M 249.063,217.171 240.67,202.064 z" id="boundary" inkscape:connector-curvature="0" />
	<path style="fill:none;stroke:red;stroke-width:1px;stroke-linecap:butt;stroke-linejoin:miter;stroke-opacity:1" d="M 265.848,222.206 249.063,217.171 z" id="boundary" inkscape:connector-curvature="0" />
	<path style="fill:none;stroke:red;stroke-width:1px;stroke-linecap:butt;stroke-linejoin:miter;stroke-opacity:1" d="M 282.633,222.206 299.418,222.206 z" id="boundary" inkscape:connector-curvature="0" />
	<path style="fill:none;stroke:red;stroke-width:1px;stroke-linecap:butt;stroke-linejoin:miter;stroke-opacity:1" d="M 282.633,222.206 265.848,222.206 z" id="boundary" inkscape:connector-curvature="0" />
	<path style="fill:none;stroke:red;stroke-width:1px;stroke-linecap:butt;stroke-linejoin:miter;stroke-opacity:1" d="M 299.418,222.206 316.203,222.206 z" id="boundary" inkscape:connector-curvature="0" />
	<path style="fill:none;stroke:red;stroke-width:1px;stroke-linecap:butt;stroke-linejoin:miter;stroke-opacity:1" d="M 482.376,205.421 499.161,205.421 z" id="boundary" inkscape:connector-curvature="0" />
	<path style="fill:none;stroke:red;stroke-width:1px;stroke-linecap:butt;stroke-linejoin:miter;stroke-opacity:1" d="M 515.946,205.421 532.731,205.421 z" id="boundary" inkscape:connector-curvature="0" />
	<path style="fill:none;stroke:red;stroke-width:1px;stroke-linecap:butt;stroke-linejoin:miter;stroke-opacity:1" d="M 784.508,34.2132 549.516,205.421 z" id="boundary" inkscape:connector-curvature="0" />
	<path style="fill:none;stroke:red;stroke-width:1px;stroke-linecap:butt;stroke-linejoin:miter;stroke-opacity:1" d="M 549.516,205.421 532.731,205.421 z" id="boundary" inkscape:connector-curvature="0" />
	<path style="fill:none;stroke:red;stroke-width:1px;stroke-linecap:butt;stroke-linejoin:miter;stroke-opacity:1" d="M 515.946,205.421 499.161,205.421 z" id="boundary" inkscape:connector-curvature="0" />
	<path style="fill:none;stroke:red;stroke-width:1px;stroke-linecap:butt;stroke-linejoin:miter;stroke-opacity:1" d="M 517.624,467.269 534.409,467.269 z" id="boundary" inkscape:connector-curvature="0" />
	<path style="fill:none;stroke:red;stroke-width:1px;stroke-linecap:butt;stroke-linejoin:miter;stroke-opacity:1" d="M 500.839,475.662 517.624,467.269 z" id="boundary" inkscape:connector-curvature="0" />
	<path style="fill:none;stroke:red;stroke-width:1px;stroke-linecap:butt;stroke-linejoin:miter;stroke-opacity:1" d="M 549.516,205.421 566.301,205.421 z" id="boundary" inkscape:connector-curvature="0" />
	<path style="fill:none;stroke:red;stroke-width:1px;stroke-linecap:butt;stroke-linejoin:miter;stroke-opacity:1" d="M 551.195,467.269 534.409,467.269 z" id="boundary" inkscape:connector-curvature="0" />
	<path style="fill:none;stroke:red;stroke-width:1px;stroke-linecap:butt;stroke-linejoin:miter;stroke-opacity:1" d="M 583.086,205.421 566.301,205.421 z" id="boundary" inkscape:connector-curvature="0" />
	<path style="fill:none;stroke:red;stroke-width:1px;stroke-linecap:butt;stroke-linejoin:miter;stroke-opacity:1" d="M 566.301,475.662 551.195,467.269 z" id="boundary" inkscape:connector-curvature="0" />
	<path style="fill:none;stroke:red;stroke-width:1px;stroke-linecap:butt;stroke-linejoin:miter;stroke-opacity:1" d="M 465.591,205.421 482.376,205.421 z" id="boundary" inkscape:connector-curvature="0" />
	<path style="fill:none;stroke:red;stroke-width:1px;stroke-linecap:butt;stroke-linejoin:miter;stroke-opacity:1" d="M 129.888,492.447 128.21,475.662 z" id="boundary" inkscape:connector-curvature="0" />
	<path style="fill:none;stroke:red;stroke-width:1px;stroke-linecap:butt;stroke-linejoin:miter;stroke-opacity:1" d="M 139.959,505.875 129.888,492.447 z" id="boundary" inkscape:connector-curvature="0" />
	<path style="fill:none;stroke:red;stroke-width:1px;stroke-linecap:butt;stroke-linejoin:miter;stroke-opacity:1" d="M 139.959,505.875 146.673,522.66 z" id="boundary" inkscape:connector-curvature="0" />
	<path style="fill:none;stroke:red;stroke-width:1px;stroke-linecap:butt;stroke-linejoin:miter;stroke-opacity:1" d="M 155.066,537.766 146.673,522.66 z" id="boundary" inkscape:connector-curvature="0" />
	<path style="fill:none;stroke:red;stroke-width:1px;stroke-linecap:butt;stroke-linejoin:miter;stroke-opacity:1" d="M 138.281,638.477 138.281,621.692 z" id="boundary" inkscape:connector-curvature="0" />
	<path style="fill:none;stroke:red;stroke-width:1px;stroke-linecap:butt;stroke-linejoin:miter;stroke-opacity:1" d="M 138.281,621.692 146.673,604.907 z" id="boundary" inkscape:connector-curvature="0" />
	<path style="fill:none;stroke:red;stroke-width:1px;stroke-linecap:butt;stroke-linejoin:miter;stroke-opacity:1" d="M 138.281,638.477 138.281,655.262 z" id="boundary" inkscape:connector-curvature="0" />
	<path style="fill:none;stroke:red;stroke-width:1px;stroke-linecap:butt;stroke-linejoin:miter;stroke-opacity:1" d="M 138.281,672.047 138.281,655.262 z" id="boundary" inkscape:connector-curvature="0" />
	<path style="fill:none;stroke:red;stroke-width:1px;stroke-linecap:butt;stroke-linejoin:miter;stroke-opacity:1" d="M 138.281,688.832 138.281,672.047 z" id="boundary" inkscape:connector-curvature="0" />
	<path style="fill:none;stroke:red;stroke-width:1px;stroke-linecap:butt;stroke-linejoin:miter;stroke-opacity:1" d="M 138.281,688.832 129.888,705.618 z" id="boundary" inkscape:connector-curvature="0" />
	<path style="fill:none;stroke:red;stroke-width:1px;stroke-linecap:butt;stroke-linejoin:miter;stroke-opacity:1" d="M 155.066,554.552 155.066,571.337 z" id="boundary" inkscape:connector-curvature="0" />
	<path style="fill:none;stroke:red;stroke-width:1px;stroke-linecap:butt;stroke-linejoin:miter;stroke-opacity:1" d="M 155.066,537.766 155.066,554.552 z" id="boundary" inkscape:connector-curvature="0" />
	<path style="fill:none;stroke:red;stroke-width:1px;stroke-linecap:butt;stroke-linejoin:miter;stroke-opacity:1" d="M 155.066,588.122 155.066,571.337 z" id="boundary" inkscape:connector-curvature="0" />
	<path style="fill:none;stroke:red;stroke-width:1px;stroke-linecap:butt;stroke-linejoin:miter;stroke-opacity:1" d="M 155.066,588.122 146.673,604.907 z" id="boundary" inkscape:connector-curvature="0" />
	<path style="fill:none;stroke:red;stroke-width:1px;stroke-linecap:butt;stroke-linejoin:miter;stroke-opacity:1" d="M 190.315,702.261 198.707,685.475 z" id="boundary" inkscape:connector-curvature="0" />
	<path style="fill:none;stroke:red;stroke-width:1px;stroke-linecap:butt;stroke-linejoin:miter;stroke-opacity:1" d="M 207.1,668.69 222.206,660.298 z" id="boundary" inkscape:connector-curvature="0" />
	<path style="fill:none;stroke:red;stroke-width:1px;stroke-linecap:butt;stroke-linejoin:miter;stroke-opacity:1" d="M 222.206,660.298 227.242,677.083 z" id="boundary" inkscape:connector-curvature="0" />
	<path style="fill:none;stroke:red;stroke-width:1px;stroke-linecap:butt;stroke-linejoin:miter;stroke-opacity:1" d="M 222.206,660.298 291.025,651.905 z" id="boundary" inkscape:connector-curvature="0" />
	<path style="fill:none;stroke:red;stroke-width:1px;stroke-linecap:butt;stroke-linejoin:miter;stroke-opacity:1" d="M 198.707,685.475 207.1,668.69 z" id="boundary" inkscape:connector-curvature="0" />
	<path style="fill:none;stroke:red;stroke-width:1px;stroke-linecap:butt;stroke-linejoin:miter;stroke-opacity:1" d="M 190.315,719.046 190.315,702.261 z" id="boundary" inkscape:connector-curvature="0" />
	<path style="fill:none;stroke:red;stroke-width:1px;stroke-linecap:butt;stroke-linejoin:miter;stroke-opacity:1" d="M 87.9255,759.33 104.711,755.973 z" id="boundary" inkscape:connector-curvature="0" />
	<path style="fill:none;stroke:red;stroke-width:1px;stroke-linecap:butt;stroke-linejoin:miter;stroke-opacity:1" d="M 129.888,722.403 121.496,750.937 z" id="boundary" inkscape:connector-curvature="0" />
	<path style="fill:none;stroke:red;stroke-width:1px;stroke-linecap:butt;stroke-linejoin:miter;stroke-opacity:1" d="M 121.496,750.937 104.711,755.973 z" id="boundary" inkscape:connector-curvature="0" />
	<path style="fill:none;stroke:red;stroke-width:1px;stroke-linecap:butt;stroke-linejoin:miter;stroke-opacity:1" d="M 87.9255,759.33 71.1404,764.365 z" id="boundary" inkscape:connector-curvature="0" />
	<path style="fill:none;stroke:red;stroke-width:1px;stroke-linecap:butt;stroke-linejoin:miter;stroke-opacity:1" d="M 71.1404,764.365 71.1404,781.151 z" id="boundary" inkscape:connector-curvature="0" />
	<path style="fill:none;stroke:red;stroke-width:1px;stroke-linecap:butt;stroke-linejoin:miter;stroke-opacity:1" d="M 84.5685,792.9 71.1404,781.151 z" id="boundary" inkscape:connector-curvature="0" />
	<path style="fill:none;stroke:red;stroke-width:1px;stroke-linecap:butt;stroke-linejoin:miter;stroke-opacity:1" d="M 101.354,794.579 84.5685,792.9 z" id="boundary" inkscape:connector-curvature="0" />
	<path style="fill:none;stroke:red;stroke-width:1px;stroke-linecap:butt;stroke-linejoin:miter;stroke-opacity:1" d="M 101.354,794.579 118.139,794.579 z" id="boundary" inkscape:connector-curvature="0" />
	<path style="fill:none;stroke:red;stroke-width:1px;stroke-linecap:butt;stroke-linejoin:miter;stroke-opacity:1" d="M 129.888,705.618 129.888,722.403 z" id="boundary" inkscape:connector-curvature="0" />
	<path style="fill:none;stroke:red;stroke-width:1px;stroke-linecap:butt;stroke-linejoin:miter;stroke-opacity:1" d="M 148.352,769.401 134.924,794.579 z" id="boundary" inkscape:connector-curvature="0" />
	<path style="fill:none;stroke:red;stroke-width:1px;stroke-linecap:butt;stroke-linejoin:miter;stroke-opacity:1" d="M 134.924,794.579 118.139,794.579 z" id="boundary" inkscape:connector-curvature="0" />
	<path style="fill:none;stroke:red;stroke-width:1px;stroke-linecap:butt;stroke-linejoin:miter;stroke-opacity:1" d="M 161.78,757.651 148.352,769.401 z" id="boundary" inkscape:connector-curvature="0" />
	<path style="fill:none;stroke:red;stroke-width:1px;stroke-linecap:butt;stroke-linejoin:miter;stroke-opacity:1" d="M 161.78,757.651 173.53,735.831 z" id="boundary" inkscape:connector-curvature="0" />
	<path style="fill:none;stroke:red;stroke-width:1px;stroke-linecap:butt;stroke-linejoin:miter;stroke-opacity:1" d="M 197.029,789.543 205.421,804.65 z" id="boundary" inkscape:connector-curvature="0" />
	<path style="fill:none;stroke:red;stroke-width:1px;stroke-linecap:butt;stroke-linejoin:miter;stroke-opacity:1" d="M 222.206,811.364 205.421,804.65 z" id="boundary" inkscape:connector-curvature="0" />
	<path style="fill:none;stroke:red;stroke-width:1px;stroke-linecap:butt;stroke-linejoin:miter;stroke-opacity:1" d="M 197.029,789.543 210.457,776.115 z" id="boundary" inkscape:connector-curvature="0" />
	<path style="fill:none;stroke:red;stroke-width:1px;stroke-linecap:butt;stroke-linejoin:miter;stroke-opacity:1" d="M 210.457,776.115 227.242,767.723 z" id="boundary" inkscape:connector-curvature="0" />
	<path style="fill:none;stroke:red;stroke-width:1px;stroke-linecap:butt;stroke-linejoin:miter;stroke-opacity:1" d="M 173.53,735.831 190.315,719.046 z" id="boundary" inkscape:connector-curvature="0" />
	<path style="fill:none;stroke:red;stroke-width:1px;stroke-linecap:butt;stroke-linejoin:miter;stroke-opacity:1" d="M 222.206,811.364 237.313,819.756 z" id="boundary" inkscape:connector-curvature="0" />
	<path style="fill:none;stroke:red;stroke-width:1px;stroke-linecap:butt;stroke-linejoin:miter;stroke-opacity:1" d="M 227.242,677.083 230.599,693.868 z" id="boundary" inkscape:connector-curvature="0" />
	<path style="fill:none;stroke:red;stroke-width:1px;stroke-linecap:butt;stroke-linejoin:miter;stroke-opacity:1" d="M 322.917,517.624 339.702,517.624 z" id="boundary" inkscape:connector-curvature="0" />
	<path style="fill:none;stroke:red;stroke-width:1px;stroke-linecap:butt;stroke-linejoin:miter;stroke-opacity:1" d="M 356.487,517.624 373.272,517.624 z" id="boundary" inkscape:connector-curvature="0" />
	<path style="fill:none;stroke:red;stroke-width:1px;stroke-linecap:butt;stroke-linejoin:miter;stroke-opacity:1" d="M 356.487,517.624 339.702,517.624 z" id="boundary" inkscape:connector-curvature="0" />
	<path style="fill:none;stroke:red;stroke-width:1px;stroke-linecap:butt;stroke-linejoin:miter;stroke-opacity:1" d="M 299.418,559.587 299.418,576.372 z" id="boundary" inkscape:connector-curvature="0" />
	<path style="fill:none;stroke:red;stroke-width:1px;stroke-linecap:butt;stroke-linejoin:miter;stroke-opacity:1" d="M 299.418,542.802 307.81,526.017 z" id="boundary" inkscape:connector-curvature="0" />
	<path style="fill:none;stroke:red;stroke-width:1px;stroke-linecap:butt;stroke-linejoin:miter;stroke-opacity:1" d="M 307.81,526.017 322.917,517.624 z" id="boundary" inkscape:connector-curvature="0" />
	<path style="fill:none;stroke:red;stroke-width:1px;stroke-linecap:butt;stroke-linejoin:miter;stroke-opacity:1" d="M 299.418,559.587 299.418,542.802 z" id="boundary" inkscape:connector-curvature="0" />
	<path style="fill:none;stroke:red;stroke-width:1px;stroke-linecap:butt;stroke-linejoin:miter;stroke-opacity:1" d="M 299.418,601.55 299.418,576.372 z" id="boundary" inkscape:connector-curvature="0" />
	<path style="fill:none;stroke:red;stroke-width:1px;stroke-linecap:butt;stroke-linejoin:miter;stroke-opacity:1" d="M 373.272,517.624 390.058,517.624 z" id="boundary" inkscape:connector-curvature="0" />
	<path style="fill:none;stroke:red;stroke-width:1px;stroke-linecap:butt;stroke-linejoin:miter;stroke-opacity:1" d="M 455.519,500.839 470.626,492.447 z" id="boundary" inkscape:connector-curvature="0" />
	<path style="fill:none;stroke:red;stroke-width:1px;stroke-linecap:butt;stroke-linejoin:miter;stroke-opacity:1" d="M 470.626,492.447 487.411,490.768 z" id="boundary" inkscape:connector-curvature="0" />
	<path style="fill:none;stroke:red;stroke-width:1px;stroke-linecap:butt;stroke-linejoin:miter;stroke-opacity:1" d="M 500.839,475.662 487.411,490.768 z" id="boundary" inkscape:connector-curvature="0" />
	<path style="fill:none;stroke:red;stroke-width:1px;stroke-linecap:butt;stroke-linejoin:miter;stroke-opacity:1" d="M 566.301,475.662 576.372,489.09 z" id="boundary" inkscape:connector-curvature="0" />
	<path style="fill:none;stroke:red;stroke-width:1px;stroke-linecap:butt;stroke-linejoin:miter;stroke-opacity:1" d="M 589.8,500.839 576.372,489.09 z" id="boundary" inkscape:connector-curvature="0" />
	<path style="fill:none;stroke:red;stroke-width:1px;stroke-linecap:butt;stroke-linejoin:miter;stroke-opacity:1" d="M 406.843,517.624 423.628,512.589 z" id="boundary" inkscape:connector-curvature="0" />
	<path style="fill:none;stroke:red;stroke-width:1px;stroke-linecap:butt;stroke-linejoin:miter;stroke-opacity:1" d="M 406.843,517.624 390.058,517.624 z" id="boundary" inkscape:connector-curvature="0" />
	<path style="fill:none;stroke:red;stroke-width:1px;stroke-linecap:butt;stroke-linejoin:miter;stroke-opacity:1" d="M 440.413,509.232 455.519,500.839 z" id="boundary" inkscape:connector-curvature="0" />
	<path style="fill:none;stroke:red;stroke-width:1px;stroke-linecap:butt;stroke-linejoin:miter;stroke-opacity:1" d="M 440.413,509.232 423.628,512.589 z" id="boundary" inkscape:connector-curvature="0" />
	<path style="fill:none;stroke:red;stroke-width:1px;stroke-linecap:butt;stroke-linejoin:miter;stroke-opacity:1" d="M 230.599,710.653 230.599,727.438 z" id="boundary" inkscape:connector-curvature="0" />
	<path style="fill:none;stroke:red;stroke-width:1px;stroke-linecap:butt;stroke-linejoin:miter;stroke-opacity:1" d="M 230.599,693.868 230.599,710.653 z" id="boundary" inkscape:connector-curvature="0" />
	<path style="fill:none;stroke:red;stroke-width:1px;stroke-linecap:butt;stroke-linejoin:miter;stroke-opacity:1" d="M 230.599,727.438 230.599,744.223 z" id="boundary" inkscape:connector-curvature="0" />
	<path style="fill:none;stroke:red;stroke-width:1px;stroke-linecap:butt;stroke-linejoin:miter;stroke-opacity:1" d="M 291.025,752.616 282.633,769.401 z" id="boundary" inkscape:connector-curvature="0" />
	<path style="fill:none;stroke:red;stroke-width:1px;stroke-linecap:butt;stroke-linejoin:miter;stroke-opacity:1" d="M 230.599,744.223 227.242,767.723 z" id="boundary" inkscape:connector-curvature="0" />
	<path style="fill:none;stroke:red;stroke-width:1px;stroke-linecap:butt;stroke-linejoin:miter;stroke-opacity:1" d="M 237.313,819.756 254.098,816.399 z" id="boundary" inkscape:connector-curvature="0" />
	<path style="fill:none;stroke:red;stroke-width:1px;stroke-linecap:butt;stroke-linejoin:miter;stroke-opacity:1" d="M 265.848,802.971 274.24,786.186 z" id="boundary" inkscape:connector-curvature="0" />
	<path style="fill:none;stroke:red;stroke-width:1px;stroke-linecap:butt;stroke-linejoin:miter;stroke-opacity:1" d="M 265.848,802.971 254.098,816.399 z" id="boundary" inkscape:connector-curvature="0" />
	<path style="fill:none;stroke:red;stroke-width:1px;stroke-linecap:butt;stroke-linejoin:miter;stroke-opacity:1" d="M 274.24,786.186 282.633,769.401 z" id="boundary" inkscape:connector-curvature="0" />
	<path style="fill:none;stroke:red;stroke-width:1px;stroke-linecap:butt;stroke-linejoin:miter;stroke-opacity:1" d="M 291.025,635.12 291.025,651.905 z" id="boundary" inkscape:connector-curvature="0" />
	<path style="fill:none;stroke:red;stroke-width:1px;stroke-linecap:butt;stroke-linejoin:miter;stroke-opacity:1" d="M 291.025,635.12 291.025,618.335 z" id="boundary" inkscape:connector-curvature="0" />
	<path style="fill:none;stroke:red;stroke-width:1px;stroke-linecap:butt;stroke-linejoin:miter;stroke-opacity:1" d="M 291.025,618.335 299.418,601.55 z" id="boundary" inkscape:connector-curvature="0" />
	<path style="fill:none;stroke:red;stroke-width:1px;stroke-linecap:butt;stroke-linejoin:miter;stroke-opacity:1" d="M 291.025,668.69 291.025,651.905 z" id="boundary" inkscape:connector-curvature="0" />
	<path style="fill:none;stroke:red;stroke-width:1px;stroke-linecap:butt;stroke-linejoin:miter;stroke-opacity:1" d="M 291.025,668.69 291.025,685.475 z" id="boundary" inkscape:connector-curvature="0" />
	<path style="fill:none;stroke:red;stroke-width:1px;stroke-linecap:butt;stroke-linejoin:miter;stroke-opacity:1" d="M 291.025,685.475 291.025,702.261 z" id="boundary" inkscape:connector-curvature="0" />
	<path style="fill:none;stroke:red;stroke-width:1px;stroke-linecap:butt;stroke-linejoin:miter;stroke-opacity:1" d="M 291.025,719.046 291.025,735.831 z" id="boundary" inkscape:connector-curvature="0" />
	<path style="fill:none;stroke:red;stroke-width:1px;stroke-linecap:butt;stroke-linejoin:miter;stroke-opacity:1" d="M 291.025,719.046 291.025,702.261 z" id="boundary" inkscape:connector-curvature="0" />
	<path style="fill:none;stroke:red;stroke-width:1px;stroke-linecap:butt;stroke-linejoin:miter;stroke-opacity:1" d="M 291.025,735.831 291.025,752.616 z" id="boundary" inkscape:connector-curvature="0" />
	<path style="fill:none;stroke:red;stroke-width:1px;stroke-linecap:butt;stroke-linejoin:miter;stroke-opacity:1" d="M 589.8,500.839 596.514,517.624 z" id="boundary" inkscape:connector-curvature="0" />
	<path style="fill:none;stroke:red;stroke-width:1px;stroke-linecap:butt;stroke-linejoin:miter;stroke-opacity:1" d="M 583.086,205.421 598.193,213.814 z" id="boundary" inkscape:connector-curvature="0" />
	<path style="fill:none;stroke:red;stroke-width:1px;stroke-linecap:butt;stroke-linejoin:miter;stroke-opacity:1" d="M 598.193,213.814 614.978,213.814 z" id="boundary" inkscape:connector-curvature="0" />
	<path style="fill:none;stroke:red;stroke-width:1px;stroke-linecap:butt;stroke-linejoin:miter;stroke-opacity:1" d="M 631.763,215.492 614.978,213.814 z" id="boundary" inkscape:connector-curvature="0" />
	<path style="fill:none;stroke:red;stroke-width:1px;stroke-linecap:butt;stroke-linejoin:miter;stroke-opacity:1" d="M 631.763,215.492 648.548,222.206 z" id="boundary" inkscape:connector-curvature="0" />
	<path style="fill:none;stroke:red;stroke-width:1px;stroke-linecap:butt;stroke-linejoin:miter;stroke-opacity:1" d="M 648.548,222.206 665.333,222.206 z" id="boundary" inkscape:connector-curvature="0" />
	<path style="fill:none;stroke:red;stroke-width:1px;stroke-linecap:butt;stroke-linejoin:miter;stroke-opacity:1" d="M 665.333,222.206 680.44,230.599 z" id="boundary" inkscape:connector-curvature="0" />
	<path style="fill:none;stroke:red;stroke-width:1px;stroke-linecap:butt;stroke-linejoin:miter;stroke-opacity:1" d="M 697.225,230.599 680.44,230.599 z" id="boundary" inkscape:connector-curvature="0" />
	<path style="fill:none;stroke:red;stroke-width:1px;stroke-linecap:butt;stroke-linejoin:miter;stroke-opacity:1" d="M 777.794,225.563 761.008,230.599 z" id="boundary" inkscape:connector-curvature="0" />
	<path style="fill:none;stroke:red;stroke-width:1px;stroke-linecap:butt;stroke-linejoin:miter;stroke-opacity:1" d="M 697.225,230.599 712.332,238.992 z" id="boundary" inkscape:connector-curvature="0" />
	<path style="fill:none;stroke:red;stroke-width:1px;stroke-linecap:butt;stroke-linejoin:miter;stroke-opacity:1" d="M 784.508,34.2132 794.579,47.6413 z" id="boundary" inkscape:connector-curvature="0" />
	<path style="fill:none;stroke:red;stroke-width:1px;stroke-linecap:butt;stroke-linejoin:miter;stroke-opacity:1" d="M 809.685,56.0338 794.579,47.6413 z" id="boundary" inkscape:connector-curvature="0" />
	<path style="fill:none;stroke:red;stroke-width:1px;stroke-linecap:butt;stroke-linejoin:miter;stroke-opacity:1" d="M 784.508,34.2132 801.293,25.8206 z" id="boundary" inkscape:connector-curvature="0" />
	<path style="fill:none;stroke:red;stroke-width:1px;stroke-linecap:butt;stroke-linejoin:miter;stroke-opacity:1" d="M 826.47,56.0338 809.685,56.0338 z" id="boundary" inkscape:connector-curvature="0" />
	<path style="fill:none;stroke:red;stroke-width:1px;stroke-linecap:butt;stroke-linejoin:miter;stroke-opacity:1" d="M 801.293,25.8206 818.078,20.7851 z" id="boundary" inkscape:connector-curvature="0" />
	<path style="fill:none;stroke:red;stroke-width:1px;stroke-linecap:butt;stroke-linejoin:miter;stroke-opacity:1" d="M 834.863,20.7851 818.078,20.7851 z" id="boundary" inkscape:connector-curvature="0" />
	<path style="fill:none;stroke:red;stroke-width:1px;stroke-linecap:butt;stroke-linejoin:miter;stroke-opacity:1" d="M 794.579,222.206 804.65,207.1 z" id="boundary" inkscape:connector-curvature="0" />
	<path style="fill:none;stroke:red;stroke-width:1px;stroke-linecap:butt;stroke-linejoin:miter;stroke-opacity:1" d="M 804.65,207.1 821.435,205.421 z" id="boundary" inkscape:connector-curvature="0" />
	<path style="fill:none;stroke:red;stroke-width:1px;stroke-linecap:butt;stroke-linejoin:miter;stroke-opacity:1" d="M 794.579,222.206 777.794,225.563 z" id="boundary" inkscape:connector-curvature="0" />
	<path style="fill:none;stroke:red;stroke-width:1px;stroke-linecap:butt;stroke-linejoin:miter;stroke-opacity:1" d="M 838.22,205.421 821.435,205.421 z" id="boundary" inkscape:connector-curvature="0" />
	<path style="fill:none;stroke:red;stroke-width:1px;stroke-linecap:butt;stroke-linejoin:miter;stroke-opacity:1" d="M 855.005,198.707 838.22,205.421 z" id="boundary" inkscape:connector-curvature="0" />
	<path style="fill:none;stroke:red;stroke-width:1px;stroke-linecap:butt;stroke-linejoin:miter;stroke-opacity:1" d="M 826.47,56.0338 841.577,64.4264 z" id="boundary" inkscape:connector-curvature="0" />
	<path style="fill:none;stroke:red;stroke-width:1px;stroke-linecap:butt;stroke-linejoin:miter;stroke-opacity:1" d="M 841.577,282.633 824.792,287.668 z" id="boundary" inkscape:connector-curvature="0" />
	<path style="fill:none;stroke:red;stroke-width:1px;stroke-linecap:butt;stroke-linejoin:miter;stroke-opacity:1" d="M 834.863,20.7851 851.648,20.7851 z" id="boundary" inkscape:connector-curvature="0" />
	<path style="fill:none;stroke:red;stroke-width:1px;stroke-linecap:butt;stroke-linejoin:miter;stroke-opacity:1" d="M 712.332,238.992 729.117,238.992 z" id="boundary" inkscape:connector-curvature="0" />
	<path style="fill:none;stroke:red;stroke-width:1px;stroke-linecap:butt;stroke-linejoin:miter;stroke-opacity:1" d="M 745.902,238.992 761.008,230.599 z" id="boundary" inkscape:connector-curvature="0" />
	<path style="fill:none;stroke:red;stroke-width:1px;stroke-linecap:butt;stroke-linejoin:miter;stroke-opacity:1" d="M 745.902,238.992 729.117,238.992 z" id="boundary" inkscape:connector-curvature="0" />
	<path style="fill:none;stroke:red;stroke-width:1px;stroke-linecap:butt;stroke-linejoin:miter;stroke-opacity:1" d="M 777.794,316.203 781.151,332.988 z" id="boundary" inkscape:connector-curvature="0" />
	<path style="fill:none;stroke:red;stroke-width:1px;stroke-linecap:butt;stroke-linejoin:miter;stroke-opacity:1" d="M 777.794,316.203 791.222,304.453 z" id="boundary" inkscape:connector-curvature="0" />
	<path style="fill:none;stroke:red;stroke-width:1px;stroke-linecap:butt;stroke-linejoin:miter;stroke-opacity:1" d="M 794.579,364.88 786.186,349.773 z" id="boundary" inkscape:connector-curvature="0" />
	<path style="fill:none;stroke:red;stroke-width:1px;stroke-linecap:butt;stroke-linejoin:miter;stroke-opacity:1" d="M 786.186,349.773 781.151,332.988 z" id="boundary" inkscape:connector-curvature="0" />
	<path style="fill:none;stroke:red;stroke-width:1px;stroke-linecap:butt;stroke-linejoin:miter;stroke-opacity:1" d="M 791.222,304.453 808.007,296.061 z" id="boundary" inkscape:connector-curvature="0" />
	<path style="fill:none;stroke:red;stroke-width:1px;stroke-linecap:butt;stroke-linejoin:miter;stroke-opacity:1" d="M 794.579,364.88 794.579,381.665 z" id="boundary" inkscape:connector-curvature="0" />
	<path style="fill:none;stroke:red;stroke-width:1px;stroke-linecap:butt;stroke-linejoin:miter;stroke-opacity:1" d="M 794.579,381.665 794.579,398.45 z" id="boundary" inkscape:connector-curvature="0" />
	<path style="fill:none;stroke:red;stroke-width:1px;stroke-linecap:butt;stroke-linejoin:miter;stroke-opacity:1" d="M 794.579,415.235 794.579,398.45 z" id="boundary" inkscape:connector-curvature="0" />
	<path style="fill:none;stroke:red;stroke-width:1px;stroke-linecap:butt;stroke-linejoin:miter;stroke-opacity:1" d="M 808.007,296.061 824.792,287.668 z" id="boundary" inkscape:connector-curvature="0" />
	<path style="fill:none;stroke:red;stroke-width:1px;stroke-linecap:butt;stroke-linejoin:miter;stroke-opacity:1" d="M 794.579,432.02 794.579,448.805 z" id="boundary" inkscape:connector-curvature="0" />
	<path style="fill:none;stroke:red;stroke-width:1px;stroke-linecap:butt;stroke-linejoin:miter;stroke-opacity:1" d="M 802.971,463.912 794.579,448.805 z" id="boundary" inkscape:connector-curvature="0" />
	<path style="fill:none;stroke:red;stroke-width:1px;stroke-linecap:butt;stroke-linejoin:miter;stroke-opacity:1" d="M 802.971,463.912 811.364,479.019 z" id="boundary" inkscape:connector-curvature="0" />
	<path style="fill:none;stroke:red;stroke-width:1px;stroke-linecap:butt;stroke-linejoin:miter;stroke-opacity:1" d="M 794.579,432.02 794.579,415.235 z" id="boundary" inkscape:connector-curvature="0" />
	<path style="fill:none;stroke:red;stroke-width:1px;stroke-linecap:butt;stroke-linejoin:miter;stroke-opacity:1" d="M 818.078,495.804 811.364,479.019 z" id="boundary" inkscape:connector-curvature="0" />
	<path style="fill:none;stroke:red;stroke-width:1px;stroke-linecap:butt;stroke-linejoin:miter;stroke-opacity:1" d="M 818.078,495.804 819.756,512.589 z" id="boundary" inkscape:connector-curvature="0" />
	<path style="fill:none;stroke:red;stroke-width:1px;stroke-linecap:butt;stroke-linejoin:miter;stroke-opacity:1" d="M 851.648,20.7851 866.755,29.1777 z" id="boundary" inkscape:connector-curvature="0" />
	<path style="fill:none;stroke:red;stroke-width:1px;stroke-linecap:butt;stroke-linejoin:miter;stroke-opacity:1" d="M 883.54,29.1777 866.755,29.1777 z" id="boundary" inkscape:connector-curvature="0" />
	<path style="fill:none;stroke:red;stroke-width:1px;stroke-linecap:butt;stroke-linejoin:miter;stroke-opacity:1" d="M 898.646,37.5702 883.54,29.1777 z" id="boundary" inkscape:connector-curvature="0" />
	<path style="fill:none;stroke:red;stroke-width:1px;stroke-linecap:butt;stroke-linejoin:miter;stroke-opacity:1" d="M 915.431,37.5702 898.646,37.5702 z" id="boundary" inkscape:connector-curvature="0" />
	<path style="fill:none;stroke:red;stroke-width:1px;stroke-linecap:butt;stroke-linejoin:miter;stroke-opacity:1" d="M 841.577,64.4264 858.362,64.4264 z" id="boundary" inkscape:connector-curvature="0" />
	<path style="fill:none;stroke:red;stroke-width:1px;stroke-linecap:butt;stroke-linejoin:miter;stroke-opacity:1" d="M 858.362,64.4264 873.469,72.819 z" id="boundary" inkscape:connector-curvature="0" />
	<path style="fill:none;stroke:red;stroke-width:1px;stroke-linecap:butt;stroke-linejoin:miter;stroke-opacity:1" d="M 873.469,72.819 890.254,79.533 z" id="boundary" inkscape:connector-curvature="0" />
	<path style="fill:none;stroke:red;stroke-width:1px;stroke-linecap:butt;stroke-linejoin:miter;stroke-opacity:1" d="M 903.682,89.6041 890.254,79.533 z" id="boundary" inkscape:connector-curvature="0" />
	<path style="fill:none;stroke:red;stroke-width:1px;stroke-linecap:butt;stroke-linejoin:miter;stroke-opacity:1" d="M 927.181,50.9983 940.609,62.7479 z" id="boundary" inkscape:connector-curvature="0" />
	<path style="fill:none;stroke:red;stroke-width:1px;stroke-linecap:butt;stroke-linejoin:miter;stroke-opacity:1" d="M 927.181,50.9983 915.431,37.5702 z" id="boundary" inkscape:connector-curvature="0" />
	<path style="fill:none;stroke:red;stroke-width:1px;stroke-linecap:butt;stroke-linejoin:miter;stroke-opacity:1" d="M 940.609,62.7479 955.716,71.1404 z" id="boundary" inkscape:connector-curvature="0" />
	<path style="fill:none;stroke:red;stroke-width:1px;stroke-linecap:butt;stroke-linejoin:miter;stroke-opacity:1" d="M 955.716,71.1404 969.144,82.89 z" id="boundary" inkscape:connector-curvature="0" />
	<path style="fill:none;stroke:red;stroke-width:1px;stroke-linecap:butt;stroke-linejoin:miter;stroke-opacity:1" d="M 918.788,97.9966 903.682,89.6041 z" id="boundary" inkscape:connector-curvature="0" />
	<path style="fill:none;stroke:red;stroke-width:1px;stroke-linecap:butt;stroke-linejoin:miter;stroke-opacity:1" d="M 918.788,97.9966 927.181,113.103 z" id="boundary" inkscape:connector-curvature="0" />
	<path style="fill:none;stroke:red;stroke-width:1px;stroke-linecap:butt;stroke-linejoin:miter;stroke-opacity:1" d="M 979.215,96.3181 987.607,111.425 z" id="boundary" inkscape:connector-curvature="0" />
	<path style="fill:none;stroke:red;stroke-width:1px;stroke-linecap:butt;stroke-linejoin:miter;stroke-opacity:1" d="M 927.181,129.888 927.181,113.103 z" id="boundary" inkscape:connector-curvature="0" />
	<path style="fill:none;stroke:red;stroke-width:1px;stroke-linecap:butt;stroke-linejoin:miter;stroke-opacity:1" d="M 969.144,82.89 979.215,96.3181 z" id="boundary" inkscape:connector-curvature="0" />
	<path style="fill:none;stroke:red;stroke-width:1px;stroke-linecap:butt;stroke-linejoin:miter;stroke-opacity:1" d="M 987.607,111.425 996,126.531 z" id="boundary" inkscape:connector-curvature="0" />
	<path style="fill:none;stroke:red;stroke-width:1px;stroke-linecap:butt;stroke-linejoin:miter;stroke-opacity:1" d="M 996,126.531 996,143.316 z" id="boundary" inkscape:connector-curvature="0" />
	<path style="fill:none;stroke:red;stroke-width:1px;stroke-linecap:butt;stroke-linejoin:miter;stroke-opacity:1" d="M 855.005,198.707 871.79,190.315 z" id="boundary" inkscape:connector-curvature="0" />
	<path style="fill:none;stroke:red;stroke-width:1px;stroke-linecap:butt;stroke-linejoin:miter;stroke-opacity:1" d="M 913.753,156.745 905.36,173.53 z" id="boundary" inkscape:connector-curvature="0" />
	<path style="fill:none;stroke:red;stroke-width:1px;stroke-linecap:butt;stroke-linejoin:miter;stroke-opacity:1" d="M 905.36,173.53 888.575,181.922 z" id="boundary" inkscape:connector-curvature="0" />
	<path style="fill:none;stroke:red;stroke-width:1px;stroke-linecap:butt;stroke-linejoin:miter;stroke-opacity:1" d="M 888.575,181.922 871.79,190.315 z" id="boundary" inkscape:connector-curvature="0" />
	<path style="fill:none;stroke:red;stroke-width:1px;stroke-linecap:butt;stroke-linejoin:miter;stroke-opacity:1" d="M 841.577,282.633 856.684,272.562 z" id="boundary" inkscape:connector-curvature="0" />
	<path style="fill:none;stroke:red;stroke-width:1px;stroke-linecap:butt;stroke-linejoin:miter;stroke-opacity:1" d="M 856.684,272.562 873.469,265.848 z" id="boundary" inkscape:connector-curvature="0" />
	<path style="fill:none;stroke:red;stroke-width:1px;stroke-linecap:butt;stroke-linejoin:miter;stroke-opacity:1" d="M 873.469,265.848 888.575,257.455 z" id="boundary" inkscape:connector-curvature="0" />
	<path style="fill:none;stroke:red;stroke-width:1px;stroke-linecap:butt;stroke-linejoin:miter;stroke-opacity:1" d="M 888.575,257.455 905.36,257.455 z" id="boundary" inkscape:connector-curvature="0" />
	<path style="fill:none;stroke:red;stroke-width:1px;stroke-linecap:butt;stroke-linejoin:miter;stroke-opacity:1" d="M 920.467,249.063 905.36,257.455 z" id="boundary" inkscape:connector-curvature="0" />
	<path style="fill:none;stroke:red;stroke-width:1px;stroke-linecap:butt;stroke-linejoin:miter;stroke-opacity:1" d="M 913.753,156.745 927.181,146.673 z" id="boundary" inkscape:connector-curvature="0" />
	<path style="fill:none;stroke:red;stroke-width:1px;stroke-linecap:butt;stroke-linejoin:miter;stroke-opacity:1" d="M 927.181,146.673 927.181,129.888 z" id="boundary" inkscape:connector-curvature="0" />
	<path style="fill:none;stroke:red;stroke-width:1px;stroke-linecap:butt;stroke-linejoin:miter;stroke-opacity:1" d="M 996,160.102 987.607,181.922 z" id="boundary" inkscape:connector-curvature="0" />
	<path style="fill:none;stroke:red;stroke-width:1px;stroke-linecap:butt;stroke-linejoin:miter;stroke-opacity:1" d="M 996,143.316 996,160.102 z" id="boundary" inkscape:connector-curvature="0" />
	<path style="fill:none;stroke:red;stroke-width:1px;stroke-linecap:butt;stroke-linejoin:miter;stroke-opacity:1" d="M 920.467,249.063 933.895,237.313 z" id="boundary" inkscape:connector-curvature="0" />
	<path style="fill:none;stroke:red;stroke-width:1px;stroke-linecap:butt;stroke-linejoin:miter;stroke-opacity:1" d="M 933.895,237.313 950.68,228.92 z" id="boundary" inkscape:connector-curvature="0" />
	<path style="fill:none;stroke:red;stroke-width:1px;stroke-linecap:butt;stroke-linejoin:miter;stroke-opacity:1" d="M 950.68,228.92 962.43,207.1 z" id="boundary" inkscape:connector-curvature="0" />
	<path style="fill:none;stroke:red;stroke-width:1px;stroke-linecap:butt;stroke-linejoin:miter;stroke-opacity:1" d="M 962.43,207.1 979.215,198.707 z" id="boundary" inkscape:connector-curvature="0" />
	<path style="fill:none;stroke:red;stroke-width:1px;stroke-linecap:butt;stroke-linejoin:miter;stroke-opacity:1" d="M 987.607,181.922 979.215,198.707 z" id="boundary" inkscape:connector-curvature="0" />
	<path style="fill:none;stroke:red;stroke-width:1px;stroke-linecap:butt;stroke-linejoin:miter;stroke-opacity:1" d="M 604.907,532.731 611.621,549.516 z" id="boundary" inkscape:connector-curvature="0" />
	<path style="fill:none;stroke:red;stroke-width:1px;stroke-linecap:butt;stroke-linejoin:miter;stroke-opacity:1" d="M 620.014,564.623 611.621,549.516 z" id="boundary" inkscape:connector-curvature="0" />
	<path style="fill:none;stroke:red;stroke-width:1px;stroke-linecap:butt;stroke-linejoin:miter;stroke-opacity:1" d="M 620.014,564.623 626.728,581.408 z" id="boundary" inkscape:connector-curvature="0" />
	<path style="fill:none;stroke:red;stroke-width:1px;stroke-linecap:butt;stroke-linejoin:miter;stroke-opacity:1" d="M 626.728,581.408 640.156,593.157 z" id="boundary" inkscape:connector-curvature="0" />
	<path style="fill:none;stroke:red;stroke-width:1px;stroke-linecap:butt;stroke-linejoin:miter;stroke-opacity:1" d="M 640.156,593.157 646.87,609.942 z" id="boundary" inkscape:connector-curvature="0" />
	<path style="fill:none;stroke:red;stroke-width:1px;stroke-linecap:butt;stroke-linejoin:miter;stroke-opacity:1" d="M 646.87,609.942 660.298,621.692 z" id="boundary" inkscape:connector-curvature="0" />
	<path style="fill:none;stroke:red;stroke-width:1px;stroke-linecap:butt;stroke-linejoin:miter;stroke-opacity:1" d="M 660.298,621.692 672.047,635.12 z" id="boundary" inkscape:connector-curvature="0" />
	<path style="fill:none;stroke:red;stroke-width:1px;stroke-linecap:butt;stroke-linejoin:miter;stroke-opacity:1" d="M 777.794,601.55 777.794,618.335 z" id="boundary" inkscape:connector-curvature="0" />
	<path style="fill:none;stroke:red;stroke-width:1px;stroke-linecap:butt;stroke-linejoin:miter;stroke-opacity:1" d="M 683.797,648.548 672.047,635.12 z" id="boundary" inkscape:connector-curvature="0" />
	<path style="fill:none;stroke:red;stroke-width:1px;stroke-linecap:butt;stroke-linejoin:miter;stroke-opacity:1" d="M 786.186,650.227 777.794,635.12 z" id="boundary" inkscape:connector-curvature="0" />
	<path style="fill:none;stroke:red;stroke-width:1px;stroke-linecap:butt;stroke-linejoin:miter;stroke-opacity:1" d="M 777.794,618.335 792.9,609.942 z" id="boundary" inkscape:connector-curvature="0" />
	<path style="fill:none;stroke:red;stroke-width:1px;stroke-linecap:butt;stroke-linejoin:miter;stroke-opacity:1" d="M 777.794,635.12 777.794,618.335 z" id="boundary" inkscape:connector-curvature="0" />
	<path style="fill:none;stroke:red;stroke-width:1px;stroke-linecap:butt;stroke-linejoin:miter;stroke-opacity:1" d="M 697.225,660.298 683.797,648.548 z" id="boundary" inkscape:connector-curvature="0" />
	<path style="fill:none;stroke:red;stroke-width:1px;stroke-linecap:butt;stroke-linejoin:miter;stroke-opacity:1" d="M 697.225,660.298 710.653,672.047 z" id="boundary" inkscape:connector-curvature="0" />
	<path style="fill:none;stroke:red;stroke-width:1px;stroke-linecap:butt;stroke-linejoin:miter;stroke-opacity:1" d="M 710.653,672.047 717.367,688.832 z" id="boundary" inkscape:connector-curvature="0" />
	<path style="fill:none;stroke:red;stroke-width:1px;stroke-linecap:butt;stroke-linejoin:miter;stroke-opacity:1" d="M 725.76,703.939 717.367,688.832 z" id="boundary" inkscape:connector-curvature="0" />
	<path style="fill:none;stroke:red;stroke-width:1px;stroke-linecap:butt;stroke-linejoin:miter;stroke-opacity:1" d="M 794.579,702.261 786.186,719.046 z" id="boundary" inkscape:connector-curvature="0" />
	<path style="fill:none;stroke:red;stroke-width:1px;stroke-linecap:butt;stroke-linejoin:miter;stroke-opacity:1" d="M 734.152,719.046 725.76,703.939 z" id="boundary" inkscape:connector-curvature="0" />
	<path style="fill:none;stroke:red;stroke-width:1px;stroke-linecap:butt;stroke-linejoin:miter;stroke-opacity:1" d="M 604.907,532.731 596.514,517.624 z" id="boundary" inkscape:connector-curvature="0" />
	<path style="fill:none;stroke:red;stroke-width:1px;stroke-linecap:butt;stroke-linejoin:miter;stroke-opacity:1" d="M 734.152,719.046 725.76,739.188 z" id="boundary" inkscape:connector-curvature="0" />
	<path style="fill:none;stroke:red;stroke-width:1px;stroke-linecap:butt;stroke-linejoin:miter;stroke-opacity:1" d="M 688.832,801.293 705.618,792.9 z" id="boundary" inkscape:connector-curvature="0" />
	<path style="fill:none;stroke:red;stroke-width:1px;stroke-linecap:butt;stroke-linejoin:miter;stroke-opacity:1" d="M 717.367,772.758 705.618,792.9 z" id="boundary" inkscape:connector-curvature="0" />
	<path style="fill:none;stroke:red;stroke-width:1px;stroke-linecap:butt;stroke-linejoin:miter;stroke-opacity:1" d="M 688.832,801.293 675.404,814.721 z" id="boundary" inkscape:connector-curvature="0" />
	<path style="fill:none;stroke:red;stroke-width:1px;stroke-linecap:butt;stroke-linejoin:miter;stroke-opacity:1" d="M 675.404,814.721 675.404,831.506 z" id="boundary" inkscape:connector-curvature="0" />
	<path style="fill:none;stroke:red;stroke-width:1px;stroke-linecap:butt;stroke-linejoin:miter;stroke-opacity:1" d="M 712.332,861.719 695.547,860.041 z" id="boundary" inkscape:connector-curvature="0" />
	<path style="fill:none;stroke:red;stroke-width:1px;stroke-linecap:butt;stroke-linejoin:miter;stroke-opacity:1" d="M 695.547,860.041 683.797,846.613 z" id="boundary" inkscape:connector-curvature="0" />
	<path style="fill:none;stroke:red;stroke-width:1px;stroke-linecap:butt;stroke-linejoin:miter;stroke-opacity:1" d="M 683.797,846.613 675.404,831.506 z" id="boundary" inkscape:connector-curvature="0" />
	<path style="fill:none;stroke:red;stroke-width:1px;stroke-linecap:butt;stroke-linejoin:miter;stroke-opacity:1" d="M 725.76,739.188 725.76,755.973 z" id="boundary" inkscape:connector-curvature="0" />
	<path style="fill:none;stroke:red;stroke-width:1px;stroke-linecap:butt;stroke-linejoin:miter;stroke-opacity:1" d="M 725.76,755.973 717.367,772.758 z" id="boundary" inkscape:connector-curvature="0" />
	<path style="fill:none;stroke:red;stroke-width:1px;stroke-linecap:butt;stroke-linejoin:miter;stroke-opacity:1" d="M 777.794,769.401 777.794,786.186 z" id="boundary" inkscape:connector-curvature="0" />
	<path style="fill:none;stroke:red;stroke-width:1px;stroke-linecap:butt;stroke-linejoin:miter;stroke-opacity:1" d="M 786.186,752.616 777.794,769.401 z" id="boundary" inkscape:connector-curvature="0" />
	<path style="fill:none;stroke:red;stroke-width:1px;stroke-linecap:butt;stroke-linejoin:miter;stroke-opacity:1" d="M 786.186,735.831 786.186,719.046 z" id="boundary" inkscape:connector-curvature="0" />
	<path style="fill:none;stroke:red;stroke-width:1px;stroke-linecap:butt;stroke-linejoin:miter;stroke-opacity:1" d="M 786.186,735.831 786.186,752.616 z" id="boundary" inkscape:connector-curvature="0" />
	<path style="fill:none;stroke:red;stroke-width:1px;stroke-linecap:butt;stroke-linejoin:miter;stroke-opacity:1" d="M 777.794,786.186 769.401,802.971 z" id="boundary" inkscape:connector-curvature="0" />
	<path style="fill:none;stroke:red;stroke-width:1px;stroke-linecap:butt;stroke-linejoin:miter;stroke-opacity:1" d="M 729.117,861.719 744.223,853.327 z" id="boundary" inkscape:connector-curvature="0" />
	<path style="fill:none;stroke:red;stroke-width:1px;stroke-linecap:butt;stroke-linejoin:miter;stroke-opacity:1" d="M 729.117,861.719 712.332,861.719 z" id="boundary" inkscape:connector-curvature="0" />
	<path style="fill:none;stroke:red;stroke-width:1px;stroke-linecap:butt;stroke-linejoin:miter;stroke-opacity:1" d="M 757.651,841.577 761.008,819.756 z" id="boundary" inkscape:connector-curvature="0" />
	<path style="fill:none;stroke:red;stroke-width:1px;stroke-linecap:butt;stroke-linejoin:miter;stroke-opacity:1" d="M 757.651,841.577 744.223,853.327 z" id="boundary" inkscape:connector-curvature="0" />
	<path style="fill:none;stroke:red;stroke-width:1px;stroke-linecap:butt;stroke-linejoin:miter;stroke-opacity:1" d="M 761.008,819.756 769.401,802.971 z" id="boundary" inkscape:connector-curvature="0" />
	<path style="fill:none;stroke:red;stroke-width:1px;stroke-linecap:butt;stroke-linejoin:miter;stroke-opacity:1" d="M 786.186,650.227 794.579,665.333 z" id="boundary" inkscape:connector-curvature="0" />
	<path style="fill:none;stroke:red;stroke-width:1px;stroke-linecap:butt;stroke-linejoin:miter;stroke-opacity:1" d="M 836.541,559.587 777.794,601.55 z" id="boundary" inkscape:connector-curvature="0" />
	<path style="fill:none;stroke:red;stroke-width:1px;stroke-linecap:butt;stroke-linejoin:miter;stroke-opacity:1" d="M 826.47,529.374 819.756,512.589 z" id="boundary" inkscape:connector-curvature="0" />
	<path style="fill:none;stroke:red;stroke-width:1px;stroke-linecap:butt;stroke-linejoin:miter;stroke-opacity:1" d="M 836.541,542.802 836.541,559.587 z" id="boundary" inkscape:connector-curvature="0" />
	<path style="fill:none;stroke:red;stroke-width:1px;stroke-linecap:butt;stroke-linejoin:miter;stroke-opacity:1" d="M 826.47,529.374 836.541,542.802 z" id="boundary" inkscape:connector-curvature="0" />
	<path style="fill:none;stroke:red;stroke-width:1px;stroke-linecap:butt;stroke-linejoin:miter;stroke-opacity:1" d="M 849.97,569.658 836.541,559.587 z" id="boundary" inkscape:connector-curvature="0" />
	<path style="fill:none;stroke:red;stroke-width:1px;stroke-linecap:butt;stroke-linejoin:miter;stroke-opacity:1" d="M 831.506,641.834 814.721,635.12 z" id="boundary" inkscape:connector-curvature="0" />
	<path style="fill:none;stroke:red;stroke-width:1px;stroke-linecap:butt;stroke-linejoin:miter;stroke-opacity:1" d="M 814.721,635.12 808.007,618.335 z" id="boundary" inkscape:connector-curvature="0" />
	<path style="fill:none;stroke:red;stroke-width:1px;stroke-linecap:butt;stroke-linejoin:miter;stroke-opacity:1" d="M 808.007,618.335 792.9,609.942 z" id="boundary" inkscape:connector-curvature="0" />
	<path style="fill:none;stroke:red;stroke-width:1px;stroke-linecap:butt;stroke-linejoin:miter;stroke-opacity:1" d="M 831.506,641.834 838.22,658.619 z" id="boundary" inkscape:connector-curvature="0" />
	<path style="fill:none;stroke:red;stroke-width:1px;stroke-linecap:butt;stroke-linejoin:miter;stroke-opacity:1" d="M 860.041,583.086 875.147,591.479 z" id="boundary" inkscape:connector-curvature="0" />
	<path style="fill:none;stroke:red;stroke-width:1px;stroke-linecap:butt;stroke-linejoin:miter;stroke-opacity:1" d="M 860.041,583.086 849.97,569.658 z" id="boundary" inkscape:connector-curvature="0" />
	<path style="fill:none;stroke:red;stroke-width:1px;stroke-linecap:butt;stroke-linejoin:miter;stroke-opacity:1" d="M 902.003,613.299 886.897,604.907 z" id="boundary" inkscape:connector-curvature="0" />
	<path style="fill:none;stroke:red;stroke-width:1px;stroke-linecap:butt;stroke-linejoin:miter;stroke-opacity:1" d="M 886.897,604.907 875.147,591.479 z" id="boundary" inkscape:connector-curvature="0" />
	<path style="fill:none;stroke:red;stroke-width:1px;stroke-linecap:butt;stroke-linejoin:miter;stroke-opacity:1" d="M 902.003,613.299 903.682,630.085 z" id="boundary" inkscape:connector-curvature="0" />
	<path style="fill:none;stroke:red;stroke-width:1px;stroke-linecap:butt;stroke-linejoin:miter;stroke-opacity:1" d="M 802.971,680.44 794.579,665.333 z" id="boundary" inkscape:connector-curvature="0" />
	<path style="fill:none;stroke:red;stroke-width:1px;stroke-linecap:butt;stroke-linejoin:miter;stroke-opacity:1" d="M 851.648,668.69 838.22,658.619 z" id="boundary" inkscape:connector-curvature="0" />
	<path style="fill:none;stroke:red;stroke-width:1px;stroke-linecap:butt;stroke-linejoin:miter;stroke-opacity:1" d="M 912.074,661.976 903.682,646.87 z" id="boundary" inkscape:connector-curvature="0" />
	<path style="fill:none;stroke:red;stroke-width:1px;stroke-linecap:butt;stroke-linejoin:miter;stroke-opacity:1" d="M 903.682,646.87 903.682,630.085 z" id="boundary" inkscape:connector-curvature="0" />
	<path style="fill:none;stroke:red;stroke-width:1px;stroke-linecap:butt;stroke-linejoin:miter;stroke-opacity:1" d="M 920.467,677.083 912.074,661.976 z" id="boundary" inkscape:connector-curvature="0" />
	<path style="fill:none;stroke:red;stroke-width:1px;stroke-linecap:butt;stroke-linejoin:miter;stroke-opacity:1" d="M 851.648,685.475 851.648,668.69 z" id="boundary" inkscape:connector-curvature="0" />
	<path style="fill:none;stroke:red;stroke-width:1px;stroke-linecap:butt;stroke-linejoin:miter;stroke-opacity:1" d="M 794.579,702.261 802.971,680.44 z" id="boundary" inkscape:connector-curvature="0" />
	<path style="fill:none;stroke:red;stroke-width:1px;stroke-linecap:butt;stroke-linejoin:miter;stroke-opacity:1" d="M 860.041,700.582 860.041,717.367 z" id="boundary" inkscape:connector-curvature="0" />
	<path style="fill:none;stroke:red;stroke-width:1px;stroke-linecap:butt;stroke-linejoin:miter;stroke-opacity:1" d="M 860.041,700.582 851.648,685.475 z" id="boundary" inkscape:connector-curvature="0" />
	<path style="fill:none;stroke:red;stroke-width:1px;stroke-linecap:butt;stroke-linejoin:miter;stroke-opacity:1" d="M 860.041,734.152 848.291,759.33 z" id="boundary" inkscape:connector-curvature="0" />
	<path style="fill:none;stroke:red;stroke-width:1px;stroke-linecap:butt;stroke-linejoin:miter;stroke-opacity:1" d="M 834.863,772.758 834.863,789.543 z" id="boundary" inkscape:connector-curvature="0" />
	<path style="fill:none;stroke:red;stroke-width:1px;stroke-linecap:butt;stroke-linejoin:miter;stroke-opacity:1" d="M 851.648,794.579 834.863,789.543 z" id="boundary" inkscape:connector-curvature="0" />
	<path style="fill:none;stroke:red;stroke-width:1px;stroke-linecap:butt;stroke-linejoin:miter;stroke-opacity:1" d="M 834.863,772.758 848.291,759.33 z" id="boundary" inkscape:connector-curvature="0" />
	<path style="fill:none;stroke:red;stroke-width:1px;stroke-linecap:butt;stroke-linejoin:miter;stroke-opacity:1" d="M 868.433,794.579 851.648,794.579 z" id="boundary" inkscape:connector-curvature="0" />
	<path style="fill:none;stroke:red;stroke-width:1px;stroke-linecap:butt;stroke-linejoin:miter;stroke-opacity:1" d="M 860.041,717.367 860.041,734.152 z" id="boundary" inkscape:connector-curvature="0" />
	<path style="fill:none;stroke:red;stroke-width:1px;stroke-linecap:butt;stroke-linejoin:miter;stroke-opacity:1" d="M 912.074,710.653 912.074,727.438 z" id="boundary" inkscape:connector-curvature="0" />
	<path style="fill:none;stroke:red;stroke-width:1px;stroke-linecap:butt;stroke-linejoin:miter;stroke-opacity:1" d="M 912.074,693.868 912.074,710.653 z" id="boundary" inkscape:connector-curvature="0" />
	<path style="fill:none;stroke:red;stroke-width:1px;stroke-linecap:butt;stroke-linejoin:miter;stroke-opacity:1" d="M 912.074,693.868 920.467,677.083 z" id="boundary" inkscape:connector-curvature="0" />
	<path style="fill:none;stroke:red;stroke-width:1px;stroke-linecap:butt;stroke-linejoin:miter;stroke-opacity:1" d="M 912.074,744.223 912.074,727.438 z" id="boundary" inkscape:connector-curvature="0" />
	<path style="fill:none;stroke:red;stroke-width:1px;stroke-linecap:butt;stroke-linejoin:miter;stroke-opacity:1" d="M 868.433,794.579 885.218,797.936 z" id="boundary" inkscape:connector-curvature="0" />
	<path style="fill:none;stroke:red;stroke-width:1px;stroke-linecap:butt;stroke-linejoin:miter;stroke-opacity:1" d="M 902.003,789.543 885.218,797.936 z" id="boundary" inkscape:connector-curvature="0" />
	<path style="fill:none;stroke:red;stroke-width:1px;stroke-linecap:butt;stroke-linejoin:miter;stroke-opacity:1" d="M 912.074,761.008 902.003,789.543 z" id="boundary" inkscape:connector-curvature="0" />
	<path style="fill:none;stroke:red;stroke-width:1px;stroke-linecap:butt;stroke-linejoin:miter;stroke-opacity:1" d="M 912.074,761.008 912.074,744.223 z" id="boundary" inkscape:connector-curvature="0" />
	<circle cx="4" cy="67.7834" r="4" fill="#0" id="circle0"/>
	<circle cx="4" cy="84.5685" r="4" fill="#0" id="circle1"/>
	<circle cx="4" cy="101.354" r="4" fill="#0" id="circle2"/>
	<circle cx="12.3926" cy="116.46" r="4" fill="#0" id="circle3"/>
	<circle cx="12.3926" cy="133.245" r="4" fill="#0" id="circle4"/>
	<circle cx="20.7851" cy="62.7479" r="4" fill="#0" id="circle5"/>
	<circle cx="20.7851" cy="148.352" r="4" fill="#0" id="circle6"/>
	<circle cx="35.8917" cy="54.3553" r="4" fill="#0" id="circle7"/>
	<circle cx="35.8917" cy="156.745" r="4" fill="#0" id="circle8"/>
	<circle cx="50.9983" cy="165.137" r="4" fill="#0" id="circle9"/>
	<circle cx="52.6768" cy="54.3553" r="4" fill="#0" id="circle10"/>
	<circle cx="67.7834" cy="45.9628" r="4" fill="#0" id="circle11"/>
	<circle cx="67.7834" cy="171.851" r="4" fill="#0" id="circle12"/>
	<circle cx="71.1404" cy="188.636" r="4" fill="#0" id="circle13"/>
	<circle cx="71.1404" cy="205.421" r="4" fill="#0" id="circle14"/>
	<circle cx="71.1404" cy="222.206" r="4" fill="#0" id="circle15"/>
	<circle cx="71.1404" cy="764.365" r="4" fill="#0" id="circle16"/>
	<circle cx="71.1404" cy="781.151" r="4" fill="#0" id="circle17"/>
	<circle cx="79.533" cy="237.313" r="4" fill="#0" id="circle18"/>
	<circle cx="79.533" cy="254.098" r="4" fill="#0" id="circle19"/>
	<circle cx="79.533" cy="270.883" r="4" fill="#0" id="circle20"/>
	<circle cx="79.533" cy="287.668" r="4" fill="#0" id="circle21"/>
	<circle cx="79.533" cy="304.453" r="4" fill="#0" id="circle22"/>
	<circle cx="79.533" cy="321.239" r="4" fill="#0" id="circle23"/>
	<circle cx="79.533" cy="338.024" r="4" fill="#0" id="circle24"/>
	<circle cx="79.533" cy="354.809" r="4" fill="#0" id="circle25"/>
	<circle cx="79.533" cy="371.594" r="4" fill="#0" id="circle26"/>
	<circle cx="79.533" cy="388.379" r="4" fill="#0" id="circle27"/>
	<circle cx="84.5685" cy="37.5702" r="4" fill="#0" id="circle28"/>
	<circle cx="84.5685" cy="792.9" r="4" fill="#0" id="circle29"/>
	<circle cx="87.9255" cy="403.486" r="4" fill="#0" id="circle30"/>
	<circle cx="87.9255" cy="420.271" r="4" fill="#0" id="circle31"/>
	<circle cx="87.9255" cy="759.33" r="4" fill="#0" id="circle32"/>
	<circle cx="96.3181" cy="435.377" r="4" fill="#0" id="circle33"/>
	<circle cx="101.354" cy="29.1777" r="4" fill="#0" id="circle34"/>
	<circle cx="101.354" cy="794.579" r="4" fill="#0" id="circle35"/>
	<circle cx="104.711" cy="450.484" r="4" fill="#0" id="circle36"/>
	<circle cx="104.711" cy="755.973" r="4" fill="#0" id="circle37"/>
	<circle cx="114.782" cy="463.912" r="4" fill="#0" id="circle38"/>
	<circle cx="116.46" cy="37.5702" r="4" fill="#0" id="circle39"/>
	<circle cx="118.139" cy="794.579" r="4" fill="#0" id="circle40"/>
	<circle cx="121.496" cy="750.937" r="4" fill="#0" id="circle41"/>
	<circle cx="128.21" cy="475.662" r="4" fill="#0" id="circle42"/>
	<circle cx="129.888" cy="492.447" r="4" fill="#0" id="circle43"/>
	<circle cx="129.888" cy="705.618" r="4" fill="#0" id="circle44"/>
	<circle cx="129.888" cy="722.403" r="4" fill="#0" id="circle45"/>
	<circle cx="131.567" cy="45.9628" r="4" fill="#0" id="circle46"/>
	<circle cx="134.924" cy="794.579" r="4" fill="#0" id="circle47"/>
	<circle cx="138.281" cy="621.692" r="4" fill="#0" id="circle48"/>
	<circle cx="138.281" cy="638.477" r="4" fill="#0" id="circle49"/>
	<circle cx="138.281" cy="655.262" r="4" fill="#0" id="circle50"/>
	<circle cx="138.281" cy="672.047" r="4" fill="#0" id="circle51"/>
	<circle cx="138.281" cy="688.832" r="4" fill="#0" id="circle52"/>
	<circle cx="139.959" cy="505.875" r="4" fill="#0" id="circle53"/>
	<circle cx="146.673" cy="34.2132" r="4" fill="#0" id="circle54"/>
	<circle cx="146.673" cy="522.66" r="4" fill="#0" id="circle55"/>
	<circle cx="146.673" cy="604.907" r="4" fill="#0" id="circle56"/>
	<circle cx="148.352" cy="769.401" r="4" fill="#0" id="circle57"/>
	<circle cx="155.066" cy="17.4281" r="4" fill="#0" id="circle58"/>
	<circle cx="155.066" cy="537.766" r="4" fill="#0" id="circle59"/>
	<circle cx="155.066" cy="554.552" r="4" fill="#0" id="circle60"/>
	<circle cx="155.066" cy="571.337" r="4" fill="#0" id="circle61"/>
	<circle cx="155.066" cy="588.122" r="4" fill="#0" id="circle62"/>
	<circle cx="161.78" cy="757.651" r="4" fill="#0" id="circle63"/>
	<circle cx="171.851" cy="15.7496" r="4" fill="#0" id="circle64"/>
	<circle cx="173.53" cy="735.831" r="4" fill="#0" id="circle65"/>
	<circle cx="181.922" cy="29.1777" r="4" fill="#0" id="circle66"/>
	<circle cx="190.315" cy="702.261" r="4" fill="#0" id="circle67"/>
	<circle cx="190.315" cy="719.046" r="4" fill="#0" id="circle68"/>
	<circle cx="197.029" cy="17.4281" r="4" fill="#0" id="circle69"/>
	<circle cx="197.029" cy="789.543" r="4" fill="#0" id="circle70"/>
	<circle cx="198.707" cy="685.475" r="4" fill="#0" id="circle71"/>
	<circle cx="205.421" cy="804.65" r="4" fill="#0" id="circle72"/>
	<circle cx="207.1" cy="668.69" r="4" fill="#0" id="circle73"/>
	<circle cx="210.457" cy="4" r="4" fill="#0" id="circle74"/>
	<circle cx="210.457" cy="776.115" r="4" fill="#0" id="circle75"/>
	<circle cx="215.492" cy="39.2487" r="4" fill="#0" id="circle76"/>
	<circle cx="215.492" cy="56.0338" r="4" fill="#0" id="circle77"/>
	<circle cx="215.492" cy="72.819" r="4" fill="#0" id="circle78"/>
	<circle cx="215.492" cy="89.6041" r="4" fill="#0" id="circle79"/>
	<circle cx="215.492" cy="106.389" r="4" fill="#0" id="circle80"/>
	<circle cx="222.206" cy="17.4281" r="4" fill="#0" id="circle81"/>
	<circle cx="222.206" cy="660.298" r="4" fill="#0" id="circle82"/>
	<circle cx="222.206" cy="811.364" r="4" fill="#0" id="circle83"/>
	<circle cx="223.885" cy="121.496" r="4" fill="#0" id="circle84"/>
	<circle cx="223.885" cy="138.281" r="4" fill="#0" id="circle85"/>
	<circle cx="223.885" cy="155.066" r="4" fill="#0" id="circle86"/>
	<circle cx="227.242" cy="677.083" r="4" fill="#0" id="circle87"/>
	<circle cx="227.242" cy="767.723" r="4" fill="#0" id="circle88"/>
	<circle cx="230.599" cy="693.868" r="4" fill="#0" id="circle89"/>
	<circle cx="230.599" cy="710.653" r="4" fill="#0" id="circle90"/>
	<circle cx="230.599" cy="727.438" r="4" fill="#0" id="circle91"/>
	<circle cx="230.599" cy="744.223" r="4" fill="#0" id="circle92"/>
	<circle cx="232.277" cy="170.173" r="4" fill="#0" id="circle93"/>
	<circle cx="232.277" cy="186.958" r="4" fill="#0" id="circle94"/>
	<circle cx="237.313" cy="819.756" r="4" fill="#0" id="circle95"/>
	<circle cx="240.67" cy="202.064" r="4" fill="#0" id="circle96"/>
	<circle cx="249.063" cy="217.171" r="4" fill="#0" id="circle97"/>
	<circle cx="254.098" cy="816.399" r="4" fill="#0" id="circle98"/>
	<circle cx="265.848" cy="222.206" r="4" fill="#0" id="circle99"/>
	<circle cx="265.848" cy="802.971" r="4" fill="#0" id="circle100"/>
	<circle cx="274.24" cy="786.186" r="4" fill="#0" id="circle101"/>
	<circle cx="282.633" cy="222.206" r="4" fill="#0" id="circle102"/>
	<circle cx="282.633" cy="769.401" r="4" fill="#0" id="circle103"/>
	<circle cx="291.025" cy="618.335" r="4" fill="#0" id="circle104"/>
	<circle cx="291.025" cy="635.12" r="4" fill="#0" id="circle105"/>
	<circle cx="291.025" cy="651.905" r="4" fill="#0" id="circle106"/>
	<circle cx="291.025" cy="668.69" r="4" fill="#0" id="circle107"/>
	<circle cx="291.025" cy="685.475" r="4" fill="#0" id="circle108"/>
	<circle cx="291.025" cy="702.261" r="4" fill="#0" id="circle109"/>
	<circle cx="291.025" cy="719.046" r="4" fill="#0" id="circle110"/>
	<circle cx="291.025" cy="735.831" r="4" fill="#0" id="circle111"/>
	<circle cx="291.025" cy="752.616" r="4" fill="#0" id="circle112"/>
	<circle cx="299.418" cy="222.206" r="4" fill="#0" id="circle113"/>
	<circle cx="299.418" cy="542.802" r="4" fill="#0" id="circle114"/>
	<circle cx="299.418" cy="559.587" r="4" fill="#0" id="circle115"/>
	<circle cx="299.418" cy="576.372" r="4" fill="#0" id="circle116"/>
	<circle cx="299.418" cy="601.55" r="4" fill="#0" id="circle117"/>
	<circle cx="307.81" cy="526.017" r="4" fill="#0" id="circle118"/>
	<circle cx="316.203" cy="222.206" r="4" fill="#0" id="circle119"/>
	<circle cx="322.917" cy="517.624" r="4" fill="#0" id="circle120"/>
	<circle cx="331.31" cy="213.814" r="4" fill="#0" id="circle121"/>
	<circle cx="339.702" cy="517.624" r="4" fill="#0" id="circle122"/>
	<circle cx="348.095" cy="213.814" r="4" fill="#0" id="circle123"/>
	<circle cx="356.487" cy="517.624" r="4" fill="#0" id="circle124"/>
	<circle cx="364.88" cy="210.457" r="4" fill="#0" id="circle125"/>
	<circle cx="373.272" cy="517.624" r="4" fill="#0" id="circle126"/>
	<circle cx="381.665" cy="205.421" r="4" fill="#0" id="circle127"/>
	<circle cx="390.058" cy="517.624" r="4" fill="#0" id="circle128"/>
	<circle cx="398.45" cy="205.421" r="4" fill="#0" id="circle129"/>
	<circle cx="406.843" cy="517.624" r="4" fill="#0" id="circle130"/>
	<circle cx="415.235" cy="205.421" r="4" fill="#0" id="circle131"/>
	<circle cx="423.628" cy="512.589" r="4" fill="#0" id="circle132"/>
	<circle cx="432.02" cy="205.421" r="4" fill="#0" id="circle133"/>
	<circle cx="440.413" cy="509.232" r="4" fill="#0" id="circle134"/>
	<circle cx="448.805" cy="205.421" r="4" fill="#0" id="circle135"/>
	<circle cx="455.519" cy="500.839" r="4" fill="#0" id="circle136"/>
	<circle cx="465.591" cy="205.421" r="4" fill="#0" id="circle137"/>
	<circle cx="470.626" cy="492.447" r="4" fill="#0" id="circle138"/>
	<circle cx="482.376" cy="205.421" r="4" fill="#0" id="circle139"/>
	<circle cx="487.411" cy="490.768" r="4" fill="#0" id="circle140"/>
	<circle cx="499.161" cy="205.421" r="4" fill="#0" id="circle141"/>
	<circle cx="500.839" cy="475.662" r="4" fill="#0" id="circle142"/>
	<circle cx="515.946" cy="205.421" r="4" fill="#0" id="circle143"/>
	<circle cx="517.624" cy="467.269" r="4" fill="#0" id="circle144"/>
	<circle cx="532.731" cy="205.421" r="4" fill="#0" id="circle145"/>
	<circle cx="534.409" cy="467.269" r="4" fill="#0" id="circle146"/>
	<circle cx="549.516" cy="205.421" r="4" fill="#0" id="circle147"/>
	<circle cx="551.195" cy="467.269" r="4" fill="#0" id="circle148"/>
	<circle cx="566.301" cy="205.421" r="4" fill="#0" id="circle149"/>
	<circle cx="566.301" cy="475.662" r="4" fill="#0" id="circle150"/>
	<circle cx="576.372" cy="489.09" r="4" fill="#0" id="circle151"/>
	<circle cx="583.086" cy="205.421" r="4" fill="#0" id="circle152"/>
	<circle cx="589.8" cy="500.839" r="4" fill="#0" id="circle153"/>
	<circle cx="596.514" cy="517.624" r="4" fill="#0" id="circle154"/>
	<circle cx="598.193" cy="213.814" r="4" fill="#0" id="circle155"/>
	<circle cx="604.907" cy="532.731" r="4" fill="#0" id="circle156"/>
	<circle cx="611.621" cy="549.516" r="4" fill="#0" id="circle157"/>
	<circle cx="614.978" cy="213.814" r="4" fill="#0" id="circle158"/>
	<circle cx="620.014" cy="564.623" r="4" fill="#0" id="circle159"/>
	<circle cx="626.728" cy="581.408" r="4" fill="#0" id="circle160"/>
	<circle cx="631.763" cy="215.492" r="4" fill="#0" id="circle161"/>
	<circle cx="640.156" cy="593.157" r="4" fill="#0" id="circle162"/>
	<circle cx="646.87" cy="609.942" r="4" fill="#0" id="circle163"/>
	<circle cx="648.548" cy="222.206" r="4" fill="#0" id="circle164"/>
	<circle cx="660.298" cy="621.692" r="4" fill="#0" id="circle165"/>
	<circle cx="665.333" cy="222.206" r="4" fill="#0" id="circle166"/>
	<circle cx="672.047" cy="635.12" r="4" fill="#0" id="circle167"/>
	<circle cx="675.404" cy="814.721" r="4" fill="#0" id="circle168"/>
	<circle cx="675.404" cy="831.506" r="4" fill="#0" id="circle169"/>
	<circle cx="680.44" cy="230.599" r="4" fill="#0" id="circle170"/>
	<circle cx="683.797" cy="648.548" r="4" fill="#0" id="circle171"/>
	<circle cx="683.797" cy="846.613" r="4" fill="#0" id="circle172"/>
	<circle cx="688.832" cy="801.293" r="4" fill="#0" id="circle173"/>
	<circle cx="695.547" cy="860.041" r="4" fill="#0" id="circle174"/>
	<circle cx="697.225" cy="230.599" r="4" fill="#0" id="circle175"/>
	<circle cx="697.225" cy="660.298" r="4" fill="#0" id="circle176"/>
	<circle cx="705.618" cy="792.9" r="4" fill="#0" id="circle177"/>
	<circle cx="710.653" cy="672.047" r="4" fill="#0" id="circle178"/>
	<circle cx="712.332" cy="238.992" r="4" fill="#0" id="circle179"/>
	<circle cx="712.332" cy="861.719" r="4" fill="#0" id="circle180"/>
	<circle cx="717.367" cy="688.832" r="4" fill="#0" id="circle181"/>
	<circle cx="717.367" cy="772.758" r="4" fill="#0" id="circle182"/>
	<circle cx="725.76" cy="703.939" r="4" fill="#0" id="circle183"/>
	<circle cx="725.76" cy="739.188" r="4" fill="#0" id="circle184"/>
	<circle cx="725.76" cy="755.973" r="4" fill="#0" id="circle185"/>
	<circle cx="729.117" cy="238.992" r="4" fill="#0" id="circle186"/>
	<circle cx="729.117" cy="861.719" r="4" fill="#0" id="circle187"/>
	<circle cx="734.152" cy="719.046" r="4" fill="#0" id="circle188"/>
	<circle cx="744.223" cy="853.327" r="4" fill="#0" id="circle189"/>
	<circle cx="745.902" cy="238.992" r="4" fill="#0" id="circle190"/>
	<circle cx="757.651" cy="841.577" r="4" fill="#0" id="circle191"/>
	<circle cx="761.008" cy="230.599" r="4" fill="#0" id="circle192"/>
	<circle cx="761.008" cy="819.756" r="4" fill="#0" id="circle193"/>
	<circle cx="769.401" cy="802.971" r="4" fill="#0" id="circle194"/>
	<circle cx="777.794" cy="225.563" r="4" fill="#0" id="circle195"/>
	<circle cx="777.794" cy="316.203" r="4" fill="#0" id="circle196"/>
	<circle cx="777.794" cy="601.55" r="4" fill="#0" id="circle197"/>
	<circle cx="777.794" cy="618.335" r="4" fill="#0" id="circle198"/>
	<circle cx="777.794" cy="635.12" r="4" fill="#0" id="circle199"/>
	<circle cx="777.794" cy="769.401" r="4" fill="#0" id="circle200"/>
	<circle cx="777.794" cy="786.186" r="4" fill="#0" id="circle201"/>
	<circle cx="781.151" cy="332.988" r="4" fill="#0" id="circle202"/>
	<circle cx="784.508" cy="34.2132" r="4" fill="#0" id="circle203"/>
	<circle cx="786.186" cy="349.773" r="4" fill="#0" id="circle204"/>
	<circle cx="786.186" cy="650.227" r="4" fill="#0" id="circle205"/>
	<circle cx="786.186" cy="719.046" r="4" fill="#0" id="circle206"/>
	<circle cx="786.186" cy="735.831" r="4" fill="#0" id="circle207"/>
	<circle cx="786.186" cy="752.616" r="4" fill="#0" id="circle208"/>
	<circle cx="791.222" cy="304.453" r="4" fill="#0" id="circle209"/>
	<circle cx="792.9" cy="609.942" r="4" fill="#0" id="circle210"/>
	<circle cx="794.579" cy="47.6413" r="4" fill="#0" id="circle211"/>
	<circle cx="794.579" cy="222.206" r="4" fill="#0" id="circle212"/>
	<circle cx="794.579" cy="364.88" r="4" fill="#0" id="circle213"/>
	<circle cx="794.579" cy="381.665" r="4" fill="#0" id="circle214"/>
	<circle cx="794.579" cy="398.45" r="4" fill="#0" id="circle215"/>
	<circle cx="794.579" cy="415.235" r="4" fill="#0" id="circle216"/>
	<circle cx="794.579" cy="432.02" r="4" fill="#0" id="circle217"/>
	<circle cx="794.579" cy="448.805" r="4" fill="#0" id="circle218"/>
	<circle cx="794.579" cy="665.333" r="4" fill="#0" id="circle219"/>
	<circle cx="794.579" cy="702.261" r="4" fill="#0" id="circle220"/>
	<circle cx="801.293" cy="25.8206" r="4" fill="#0" id="circle221"/>
	<circle cx="802.971" cy="463.912" r="4" fill="#0" id="circle222"/>
	<circle cx="802.971" cy="680.44" r="4" fill="#0" id="circle223"/>
	<circle cx="804.65" cy="207.1" r="4" fill="#0" id="circle224"/>
	<circle cx="808.007" cy="296.061" r="4" fill="#0" id="circle225"/>
	<circle cx="808.007" cy="618.335" r="4" fill="#0" id="circle226"/>
	<circle cx="809.685" cy="56.0338" r="4" fill="#0" id="circle227"/>
	<circle cx="811.364" cy="479.019" r="4" fill="#0" id="circle228"/>
	<circle cx="814.721" cy="635.12" r="4" fill="#0" id="circle229"/>
	<circle cx="818.078" cy="20.7851" r="4" fill="#0" id="circle230"/>
	<circle cx="818.078" cy="495.804" r="4" fill="#0" id="circle231"/>
	<circle cx="819.756" cy="512.589" r="4" fill="#0" id="circle232"/>
	<circle cx="821.435" cy="205.421" r="4" fill="#0" id="circle233"/>
	<circle cx="824.792" cy="287.668" r="4" fill="#0" id="circle234"/>
	<circle cx="826.47" cy="56.0338" r="4" fill="#0" id="circle235"/>
	<circle cx="826.47" cy="529.374" r="4" fill="#0" id="circle236"/>
	<circle cx="831.506" cy="641.834" r="4" fill="#0" id="circle237"/>
	<circle cx="834.863" cy="20.7851" r="4" fill="#0" id="circle238"/>
	<circle cx="834.863" cy="772.758" r="4" fill="#0" id="circle239"/>
	<circle cx="834.863" cy="789.543" r="4" fill="#0" id="circle240"/>
	<circle cx="836.541" cy="542.802" r="4" fill="#0" id="circle241"/>
	<circle cx="836.541" cy="559.587" r="4" fill="#0" id="circle242"/>
	<circle cx="838.22" cy="205.421" r="4" fill="#0" id="circle243"/>
	<circle cx="838.22" cy="658.619" r="4" fill="#0" id="circle244"/>
	<circle cx="841.577" cy="64.4264" r="4" fill="#0" id="circle245"/>
	<circle cx="841.577" cy="282.633" r="4" fill="#0" id="circle246"/>
	<circle cx="848.291" cy="759.33" r="4" fill="#0" id="circle247"/>
	<circle cx="849.97" cy="569.658" r="4" fill="#0" id="circle248"/>
	<circle cx="851.648" cy="20.7851" r="4" fill="#0" id="circle249"/>
	<circle cx="851.648" cy="668.69" r="4" fill="#0" id="circle250"/>
	<circle cx="851.648" cy="685.475" r="4" fill="#0" id="circle251"/>
	<circle cx="851.648" cy="794.579" r="4" fill="#0" id="circle252"/>
	<circle cx="855.005" cy="198.707" r="4" fill="#0" id="circle253"/>
	<circle cx="856.684" cy="272.562" r="4" fill="#0" id="circle254"/>
	<circle cx="858.362" cy="64.4264" r="4" fill="#0" id="circle255"/>
	<circle cx="860.041" cy="583.086" r="4" fill="#0" id="circle256"/>
	<circle cx="860.041" cy="700.582" r="4" fill="#0" id="circle257"/>
	<circle cx="860.041" cy="717.367" r="4" fill="#0" id="circle258"/>
	<circle cx="860.041" cy="734.152" r="4" fill="#0" id="circle259"/>
	<circle cx="866.755" cy="29.1777" r="4" fill="#0" id="circle260"/>
	<circle cx="868.433" cy="794.579" r="4" fill="#0" id="circle261"/>
	<circle cx="871.79" cy="190.315" r="4" fill="#0" id="circle262"/>
	<circle cx="873.469" cy="72.819" r="4" fill="#0" id="circle263"/>
	<circle cx="873.469" cy="265.848" r="4" fill="#0" id="circle264"/>
	<circle cx="875.147" cy="591.479" r="4" fill="#0" id="circle265"/>
	<circle cx="883.54" cy="29.1777" r="4" fill="#0" id="circle266"/>
	<circle cx="885.218" cy="797.936" r="4" fill="#0" id="circle267"/>
	<circle cx="886.897" cy="604.907" r="4" fill="#0" id="circle268"/>
	<circle cx="888.575" cy="181.922" r="4" fill="#0" id="circle269"/>
	<circle cx="888.575" cy="257.455" r="4" fill="#0" id="circle270"/>
	<circle cx="890.254" cy="79.533" r="4" fill="#0" id="circle271"/>
	<circle cx="898.646" cy="37.5702" r="4" fill="#0" id="circle272"/>
	<circle cx="902.003" cy="613.299" r="4" fill="#0" id="circle273"/>
	<circle cx="902.003" cy="789.543" r="4" fill="#0" id="circle274"/>
	<circle cx="903.682" cy="89.6041" r="4" fill="#0" id="circle275"/>
	<circle cx="903.682" cy="630.085" r="4" fill="#0" id="circle276"/>
	<circle cx="903.682" cy="646.87" r="4" fill="#0" id="circle277"/>
	<circle cx="905.36" cy="173.53" r="4" fill="#0" id="circle278"/>
	<circle cx="905.36" cy="257.455" r="4" fill="#0" id="circle279"/>
	<circle cx="912.074" cy="661.976" r="4" fill="#0" id="circle280"/>
	<circle cx="912.074" cy="693.868" r="4" fill="#0" id="circle281"/>
	<circle cx="912.074" cy="710.653" r="4" fill="#0" id="circle282"/>
	<circle cx="912.074" cy="727.438" r="4" fill="#0" id="circle283"/>
	<circle cx="912.074" cy="744.223" r="4" fill="#0" id="circle284"/>
	<circle cx="912.074" cy="761.008" r="4" fill="#0" id="circle285"/>
	<circle cx="913.753" cy="156.745" r="4" fill="#0" id="circle286"/>
	<circle cx="915.431" cy="37.5702" r="4" fill="#0" id="circle287"/>
	<circle cx="918.788" cy="97.9966" r="4" fill="#0" id="circle288"/>
	<circle cx="920.467" cy="249.063" r="4" fill="#0" id="circle289"/>
	<circle cx="920.467" cy="677.083" r="4" fill="#0" id="circle290"/>
	<circle cx="927.181" cy="50.9983" r="4" fill="#0" id="circle291"/>
	<circle cx="927.181" cy="113.103" r="4" fill="#0" id="circle292"/>
	<circle cx="927.181" cy="129.888" r="4" fill="#0" id="circle293"/>
	<circle cx="927.181" cy="146.673" r="4" fill="#0" id="circle294"/>
	<circle cx="933.895" cy="237.313" r="4" fill="#0" id="circle295"/>
	<circle cx="940.609" cy="62.7479" r="4" fill="#0" id="circle296"/>
	<circle cx="950.68" cy="228.92" r="4" fill="#0" id="circle297"/>
	<circle cx="955.716" cy="71.1404" r="4" fill="#0" id="circle298"/>
	<circle cx="962.43" cy="207.1" r="4" fill="#0" id="circle299"/>
	<circle cx="969.144" cy="82.89" r="4" fill="#0" id="circle300"/>
	<circle cx="979.215" cy="96.3181" r="4" fill="#0" id="circle301"/>
	<circle cx="979.215" cy="198.707" r="4" fill="#0" id="circle302"/>
	<circle cx="987.607" cy="111.425" r="4" fill="#0" id="circle303"/>
	<circle cx="987.607" cy="181.922" r="4" fill="#0" id="circle304"/>
	<circle cx="996" cy="126.531" r="4" fill="#0" id="circle305"/>
	<circle cx="996" cy="143.316" r="4" fill="#0" id="circle306"/>
	<circle cx="996" cy="160.102" r="4" fill="#0" id="circle307"/>
	</g>
</svg>