<?xml version="1.0" encoding="UTF-8" standalone="no"?>
<!-- Created with CurveBenchmark -->
<svg
	xmlns:dc="http://purl.org/dc/elements/1.1/"
	xmlns:cc="http://creativecommons.org/ns#"
	xmlns:rdf="http://www.w3.org/1999/02/22-rdf-syntax-ns#"
	xmlns:svg="http://www.w3.org/2000/svg"
	xmlns="http://www.w3.org/2000/svg"
	xmlns:sodipodi="http://sodipodi.sourceforge.net/DTD/sodipodi-0.dtd"
	xmlns:inkscape="http://www.inkscape.org/namespaces/inkscape"
	width="1000"
	height="1000"
	id="svg2"
	version="1.1"
	sodipodi:docname="manifold/nncrust-fountain-19.png.txt">
<defs
	id="defs4" />
<metadata
	id="metadata7">
	<rdf:RDF>
		<cc:Work
			rdf:about="">
			<dc:format>image/svg+xml</dc:format>
			<dc:type
				rdf:resource="http://purl.org/dc/dcmitype/StillImage" />
			<dc:title></dc:title>
		</cc:Work>
	</rdf:RDF>
</metadata>
<g
	inkscape:label="Layer 1"
	inkscape:groupmode="layer"
	id="layer1">
	<path style="fill:none;stroke:red;stroke-width:1px;stroke-linecap:butt;stroke-linejoin:miter;stroke-opacity:1" d="M 357.574,151.406 357.574,161.365 z" id="boundary" inkscape:connector-curvature="0" />
	<path style="fill:none;stroke:red;stroke-width:1px;stroke-linecap:butt;stroke-linejoin:miter;stroke-opacity:1" d="M 362.554,141.446 372.514,136.466 z" id="boundary" inkscape:connector-curvature="0" />
	<path style="fill:none;stroke:red;stroke-width:1px;stroke-linecap:butt;stroke-linejoin:miter;stroke-opacity:1" d="M 357.574,151.406 362.554,141.446 z" id="boundary" inkscape:connector-curvature="0" />
	<path style="fill:none;stroke:red;stroke-width:1px;stroke-linecap:butt;stroke-linejoin:miter;stroke-opacity:1" d="M 357.574,350.602 347.614,352.594 z" id="boundary" inkscape:connector-curvature="0" />
	<path style="fill:none;stroke:red;stroke-width:1px;stroke-linecap:butt;stroke-linejoin:miter;stroke-opacity:1" d="M 357.574,171.325 365.542,178.297 z" id="boundary" inkscape:connector-curvature="0" />
	<path style="fill:none;stroke:red;stroke-width:1px;stroke-linecap:butt;stroke-linejoin:miter;stroke-opacity:1" d="M 376.498,342.635 367.534,347.614 z" id="boundary" inkscape:connector-curvature="0" />
	<path style="fill:none;stroke:red;stroke-width:1px;stroke-linecap:butt;stroke-linejoin:miter;stroke-opacity:1" d="M 367.534,347.614 357.574,350.602 z" id="boundary" inkscape:connector-curvature="0" />
	<path style="fill:none;stroke:red;stroke-width:1px;stroke-linecap:butt;stroke-linejoin:miter;stroke-opacity:1" d="M 357.574,171.325 357.574,161.365 z" id="boundary" inkscape:connector-curvature="0" />
	<path style="fill:none;stroke:red;stroke-width:1px;stroke-linecap:butt;stroke-linejoin:miter;stroke-opacity:1" d="M 365.542,178.297 373.51,184.273 z" id="boundary" inkscape:connector-curvature="0" />
	<path style="fill:none;stroke:red;stroke-width:1px;stroke-linecap:butt;stroke-linejoin:miter;stroke-opacity:1" d="M 383.47,184.273 373.51,184.273 z" id="boundary" inkscape:connector-curvature="0" />
	<path style="fill:none;stroke:red;stroke-width:1px;stroke-linecap:butt;stroke-linejoin:miter;stroke-opacity:1" d="M 393.43,184.273 383.47,184.273 z" id="boundary" inkscape:connector-curvature="0" />
	<path style="fill:none;stroke:red;stroke-width:1px;stroke-linecap:butt;stroke-linejoin:miter;stroke-opacity:1" d="M 403.39,184.273 393.43,184.273 z" id="boundary" inkscape:connector-curvature="0" />
	<path style="fill:none;stroke:red;stroke-width:1px;stroke-linecap:butt;stroke-linejoin:miter;stroke-opacity:1" d="M 401.398,123.518 392.434,128.498 z" id="boundary" inkscape:connector-curvature="0" />
	<path style="fill:none;stroke:red;stroke-width:1px;stroke-linecap:butt;stroke-linejoin:miter;stroke-opacity:1" d="M 392.434,128.498 382.474,131.486 z" id="boundary" inkscape:connector-curvature="0" />
	<path style="fill:none;stroke:red;stroke-width:1px;stroke-linecap:butt;stroke-linejoin:miter;stroke-opacity:1" d="M 413.349,184.273 403.39,184.273 z" id="boundary" inkscape:connector-curvature="0" />
	<path style="fill:none;stroke:red;stroke-width:1px;stroke-linecap:butt;stroke-linejoin:miter;stroke-opacity:1" d="M 376.498,342.635 386.458,342.635 z" id="boundary" inkscape:connector-curvature="0" />
	<path style="fill:none;stroke:red;stroke-width:1px;stroke-linecap:butt;stroke-linejoin:miter;stroke-opacity:1" d="M 406.378,342.635 396.418,342.635 z" id="boundary" inkscape:connector-curvature="0" />
	<path style="fill:none;stroke:red;stroke-width:1px;stroke-linecap:butt;stroke-linejoin:miter;stroke-opacity:1" d="M 415.341,337.655 406.378,342.635 z" id="boundary" inkscape:connector-curvature="0" />
	<path style="fill:none;stroke:red;stroke-width:1px;stroke-linecap:butt;stroke-linejoin:miter;stroke-opacity:1" d="M 396.418,342.635 386.458,342.635 z" id="boundary" inkscape:connector-curvature="0" />
	<path style="fill:none;stroke:red;stroke-width:1px;stroke-linecap:butt;stroke-linejoin:miter;stroke-opacity:1" d="M 401.398,123.518 411.357,123.518 z" id="boundary" inkscape:connector-curvature="0" />
	<path style="fill:none;stroke:red;stroke-width:1px;stroke-linecap:butt;stroke-linejoin:miter;stroke-opacity:1" d="M 372.514,136.466 382.474,131.486 z" id="boundary" inkscape:connector-curvature="0" />
	<path style="fill:none;stroke:red;stroke-width:1px;stroke-linecap:butt;stroke-linejoin:miter;stroke-opacity:1" d="M 213.157,395.422 221.124,387.454 z" id="boundary" inkscape:connector-curvature="0" />
	<path style="fill:none;stroke:red;stroke-width:1px;stroke-linecap:butt;stroke-linejoin:miter;stroke-opacity:1" d="M 213.157,395.422 203.197,400.402 z" id="boundary" inkscape:connector-curvature="0" />
	<path style="fill:none;stroke:red;stroke-width:1px;stroke-linecap:butt;stroke-linejoin:miter;stroke-opacity:1" d="M 250.008,377.494 241.044,382.474 z" id="boundary" inkscape:connector-curvature="0" />
	<path style="fill:none;stroke:red;stroke-width:1px;stroke-linecap:butt;stroke-linejoin:miter;stroke-opacity:1" d="M 241.044,382.474 231.084,382.474 z" id="boundary" inkscape:connector-curvature="0" />
	<path style="fill:none;stroke:red;stroke-width:1px;stroke-linecap:butt;stroke-linejoin:miter;stroke-opacity:1" d="M 221.124,387.454 231.084,382.474 z" id="boundary" inkscape:connector-curvature="0" />
	<path style="fill:none;stroke:red;stroke-width:1px;stroke-linecap:butt;stroke-linejoin:miter;stroke-opacity:1" d="M 327.695,357.574 337.655,355.582 z" id="boundary" inkscape:connector-curvature="0" />
	<path style="fill:none;stroke:red;stroke-width:1px;stroke-linecap:butt;stroke-linejoin:miter;stroke-opacity:1" d="M 188.257,435.261 179.293,442.233 z" id="boundary" inkscape:connector-curvature="0" />
	<path style="fill:none;stroke:red;stroke-width:1px;stroke-linecap:butt;stroke-linejoin:miter;stroke-opacity:1" d="M 193.237,420.321 188.257,435.261 z" id="boundary" inkscape:connector-curvature="0" />
	<path style="fill:none;stroke:red;stroke-width:1px;stroke-linecap:butt;stroke-linejoin:miter;stroke-opacity:1" d="M 193.237,420.321 198.217,410.361 z" id="boundary" inkscape:connector-curvature="0" />
	<path style="fill:none;stroke:red;stroke-width:1px;stroke-linecap:butt;stroke-linejoin:miter;stroke-opacity:1" d="M 203.197,400.402 198.217,410.361 z" id="boundary" inkscape:connector-curvature="0" />
	<path style="fill:none;stroke:red;stroke-width:1px;stroke-linecap:butt;stroke-linejoin:miter;stroke-opacity:1" d="M 179.293,442.233 170.329,447.213 z" id="boundary" inkscape:connector-curvature="0" />
	<path style="fill:none;stroke:red;stroke-width:1px;stroke-linecap:butt;stroke-linejoin:miter;stroke-opacity:1" d="M 250.008,377.494 259.968,377.494 z" id="boundary" inkscape:connector-curvature="0" />
	<path style="fill:none;stroke:red;stroke-width:1px;stroke-linecap:butt;stroke-linejoin:miter;stroke-opacity:1" d="M 308.771,362.554 317.735,357.574 z" id="boundary" inkscape:connector-curvature="0" />
	<path style="fill:none;stroke:red;stroke-width:1px;stroke-linecap:butt;stroke-linejoin:miter;stroke-opacity:1" d="M 317.735,357.574 327.695,357.574 z" id="boundary" inkscape:connector-curvature="0" />
	<path style="fill:none;stroke:red;stroke-width:1px;stroke-linecap:butt;stroke-linejoin:miter;stroke-opacity:1" d="M 308.771,362.554 298.811,364.546 z" id="boundary" inkscape:connector-curvature="0" />
	<path style="fill:none;stroke:red;stroke-width:1px;stroke-linecap:butt;stroke-linejoin:miter;stroke-opacity:1" d="M 347.614,352.594 337.655,355.582 z" id="boundary" inkscape:connector-curvature="0" />
	<path style="fill:none;stroke:red;stroke-width:1px;stroke-linecap:butt;stroke-linejoin:miter;stroke-opacity:1" d="M 259.968,377.494 268.932,372.514 z" id="boundary" inkscape:connector-curvature="0" />
	<path style="fill:none;stroke:red;stroke-width:1px;stroke-linecap:butt;stroke-linejoin:miter;stroke-opacity:1" d="M 268.932,372.514 278.892,369.526 z" id="boundary" inkscape:connector-curvature="0" />
	<path style="fill:none;stroke:red;stroke-width:1px;stroke-linecap:butt;stroke-linejoin:miter;stroke-opacity:1" d="M 298.811,364.546 288.851,367.534 z" id="boundary" inkscape:connector-curvature="0" />
	<path style="fill:none;stroke:red;stroke-width:1px;stroke-linecap:butt;stroke-linejoin:miter;stroke-opacity:1" d="M 288.851,367.534 278.892,369.526 z" id="boundary" inkscape:connector-curvature="0" />
	<path style="fill:none;stroke:red;stroke-width:1px;stroke-linecap:butt;stroke-linejoin:miter;stroke-opacity:1" d="M 477.092,96.6265 470.12,108.578 z" id="boundary" inkscape:connector-curvature="0" />
	<path style="fill:none;stroke:red;stroke-width:1px;stroke-linecap:butt;stroke-linejoin:miter;stroke-opacity:1" d="M 470.12,108.578 460.161,113.558 z" id="boundary" inkscape:connector-curvature="0" />
	<path style="fill:none;stroke:red;stroke-width:1px;stroke-linecap:butt;stroke-linejoin:miter;stroke-opacity:1" d="M 460.161,113.558 450.201,113.558 z" id="boundary" inkscape:connector-curvature="0" />
	<path style="fill:none;stroke:red;stroke-width:1px;stroke-linecap:butt;stroke-linejoin:miter;stroke-opacity:1" d="M 477.092,36.8675 477.092,26.9076 z" id="boundary" inkscape:connector-curvature="0" />
	<path style="fill:none;stroke:red;stroke-width:1px;stroke-linecap:butt;stroke-linejoin:miter;stroke-opacity:1" d="M 477.092,46.8273 477.092,36.8675 z" id="boundary" inkscape:connector-curvature="0" />
	<path style="fill:none;stroke:red;stroke-width:1px;stroke-linecap:butt;stroke-linejoin:miter;stroke-opacity:1" d="M 477.092,46.8273 477.092,56.7871 z" id="boundary" inkscape:connector-curvature="0" />
	<path style="fill:none;stroke:red;stroke-width:1px;stroke-linecap:butt;stroke-linejoin:miter;stroke-opacity:1" d="M 411.357,123.518 420.321,118.538 z" id="boundary" inkscape:connector-curvature="0" />
	<path style="fill:none;stroke:red;stroke-width:1px;stroke-linecap:butt;stroke-linejoin:miter;stroke-opacity:1" d="M 420.321,118.538 430.281,118.538 z" id="boundary" inkscape:connector-curvature="0" />
	<path style="fill:none;stroke:red;stroke-width:1px;stroke-linecap:butt;stroke-linejoin:miter;stroke-opacity:1" d="M 450.201,113.558 440.241,118.538 z" id="boundary" inkscape:connector-curvature="0" />
	<path style="fill:none;stroke:red;stroke-width:1px;stroke-linecap:butt;stroke-linejoin:miter;stroke-opacity:1" d="M 440.241,118.538 430.281,118.538 z" id="boundary" inkscape:connector-curvature="0" />
	<path style="fill:none;stroke:red;stroke-width:1px;stroke-linecap:butt;stroke-linejoin:miter;stroke-opacity:1" d="M 501.992,8.97992 510.956,4 z" id="boundary" inkscape:connector-curvature="0" />
	<path style="fill:none;stroke:red;stroke-width:1px;stroke-linecap:butt;stroke-linejoin:miter;stroke-opacity:1" d="M 510.956,4 519.92,8.97992 z" id="boundary" inkscape:connector-curvature="0" />
	<path style="fill:none;stroke:red;stroke-width:1px;stroke-linecap:butt;stroke-linejoin:miter;stroke-opacity:1" d="M 501.992,8.97992 492.032,11.9679 z" id="boundary" inkscape:connector-curvature="0" />
	<path style="fill:none;stroke:red;stroke-width:1px;stroke-linecap:butt;stroke-linejoin:miter;stroke-opacity:1" d="M 477.092,56.7871 477.092,66.747 z" id="boundary" inkscape:connector-curvature="0" />
	<path style="fill:none;stroke:red;stroke-width:1px;stroke-linecap:butt;stroke-linejoin:miter;stroke-opacity:1" d="M 477.092,76.7068 477.092,86.6667 z" id="boundary" inkscape:connector-curvature="0" />
	<path style="fill:none;stroke:red;stroke-width:1px;stroke-linecap:butt;stroke-linejoin:miter;stroke-opacity:1" d="M 477.092,96.6265 477.092,86.6667 z" id="boundary" inkscape:connector-curvature="0" />
	<path style="fill:none;stroke:red;stroke-width:1px;stroke-linecap:butt;stroke-linejoin:miter;stroke-opacity:1" d="M 477.092,76.7068 477.092,66.747 z" id="boundary" inkscape:connector-curvature="0" />
	<path style="fill:none;stroke:red;stroke-width:1px;stroke-linecap:butt;stroke-linejoin:miter;stroke-opacity:1" d="M 477.092,26.9076 482.072,16.9478 z" id="boundary" inkscape:connector-curvature="0" />
	<path style="fill:none;stroke:red;stroke-width:1px;stroke-linecap:butt;stroke-linejoin:miter;stroke-opacity:1" d="M 482.072,16.9478 492.032,11.9679 z" id="boundary" inkscape:connector-curvature="0" />
	<path style="fill:none;stroke:red;stroke-width:1px;stroke-linecap:butt;stroke-linejoin:miter;stroke-opacity:1" d="M 413.349,184.273 423.309,184.273 z" id="boundary" inkscape:connector-curvature="0" />
	<path style="fill:none;stroke:red;stroke-width:1px;stroke-linecap:butt;stroke-linejoin:miter;stroke-opacity:1" d="M 433.269,184.273 442.233,189.253 z" id="boundary" inkscape:connector-curvature="0" />
	<path style="fill:none;stroke:red;stroke-width:1px;stroke-linecap:butt;stroke-linejoin:miter;stroke-opacity:1" d="M 442.233,189.253 442.233,199.213 z" id="boundary" inkscape:connector-curvature="0" />
	<path style="fill:none;stroke:red;stroke-width:1px;stroke-linecap:butt;stroke-linejoin:miter;stroke-opacity:1" d="M 423.309,184.273 433.269,184.273 z" id="boundary" inkscape:connector-curvature="0" />
	<path style="fill:none;stroke:red;stroke-width:1px;stroke-linecap:butt;stroke-linejoin:miter;stroke-opacity:1" d="M 442.233,199.213 442.233,209.173 z" id="boundary" inkscape:connector-curvature="0" />
	<path style="fill:none;stroke:red;stroke-width:1px;stroke-linecap:butt;stroke-linejoin:miter;stroke-opacity:1" d="M 415.341,337.655 425.301,337.655 z" id="boundary" inkscape:connector-curvature="0" />
	<path style="fill:none;stroke:red;stroke-width:1px;stroke-linecap:butt;stroke-linejoin:miter;stroke-opacity:1" d="M 430.281,327.695 425.301,337.655 z" id="boundary" inkscape:connector-curvature="0" />
	<path style="fill:none;stroke:red;stroke-width:1px;stroke-linecap:butt;stroke-linejoin:miter;stroke-opacity:1" d="M 435.261,317.735 430.281,327.695 z" id="boundary" inkscape:connector-curvature="0" />
	<path style="fill:none;stroke:red;stroke-width:1px;stroke-linecap:butt;stroke-linejoin:miter;stroke-opacity:1" d="M 442.233,209.173 442.233,219.133 z" id="boundary" inkscape:connector-curvature="0" />
	<path style="fill:none;stroke:red;stroke-width:1px;stroke-linecap:butt;stroke-linejoin:miter;stroke-opacity:1" d="M 435.261,317.735 442.233,308.771 z" id="boundary" inkscape:connector-curvature="0" />
	<path style="fill:none;stroke:red;stroke-width:1px;stroke-linecap:butt;stroke-linejoin:miter;stroke-opacity:1" d="M 442.233,258.972 442.233,268.932 z" id="boundary" inkscape:connector-curvature="0" />
	<path style="fill:none;stroke:red;stroke-width:1px;stroke-linecap:butt;stroke-linejoin:miter;stroke-opacity:1" d="M 442.233,219.133 442.233,229.092 z" id="boundary" inkscape:connector-curvature="0" />
	<path style="fill:none;stroke:red;stroke-width:1px;stroke-linecap:butt;stroke-linejoin:miter;stroke-opacity:1" d="M 442.233,239.052 442.233,249.012 z" id="boundary" inkscape:connector-curvature="0" />
	<path style="fill:none;stroke:red;stroke-width:1px;stroke-linecap:butt;stroke-linejoin:miter;stroke-opacity:1" d="M 442.233,258.972 442.233,249.012 z" id="boundary" inkscape:connector-curvature="0" />
	<path style="fill:none;stroke:red;stroke-width:1px;stroke-linecap:butt;stroke-linejoin:miter;stroke-opacity:1" d="M 442.233,239.052 442.233,229.092 z" id="boundary" inkscape:connector-curvature="0" />
	<path style="fill:none;stroke:red;stroke-width:1px;stroke-linecap:butt;stroke-linejoin:miter;stroke-opacity:1" d="M 442.233,278.892 442.233,288.851 z" id="boundary" inkscape:connector-curvature="0" />
	<path style="fill:none;stroke:red;stroke-width:1px;stroke-linecap:butt;stroke-linejoin:miter;stroke-opacity:1" d="M 442.233,278.892 442.233,268.932 z" id="boundary" inkscape:connector-curvature="0" />
	<path style="fill:none;stroke:red;stroke-width:1px;stroke-linecap:butt;stroke-linejoin:miter;stroke-opacity:1" d="M 442.233,288.851 442.233,298.811 z" id="boundary" inkscape:connector-curvature="0" />
	<path style="fill:none;stroke:red;stroke-width:1px;stroke-linecap:butt;stroke-linejoin:miter;stroke-opacity:1" d="M 442.233,308.771 442.233,298.811 z" id="boundary" inkscape:connector-curvature="0" />
	<path style="fill:none;stroke:red;stroke-width:1px;stroke-linecap:butt;stroke-linejoin:miter;stroke-opacity:1" d="M 32.8835,546.811 39.8554,538.843 z" id="boundary" inkscape:connector-curvature="0" />
	<path style="fill:none;stroke:red;stroke-width:1px;stroke-linecap:butt;stroke-linejoin:miter;stroke-opacity:1" d="M 44.8353,528.884 39.8554,538.843 z" id="boundary" inkscape:connector-curvature="0" />
	<path style="fill:none;stroke:red;stroke-width:1px;stroke-linecap:butt;stroke-linejoin:miter;stroke-opacity:1" d="M 44.8353,528.884 54.7952,523.904 z" id="boundary" inkscape:connector-curvature="0" />
	<path style="fill:none;stroke:red;stroke-width:1px;stroke-linecap:butt;stroke-linejoin:miter;stroke-opacity:1" d="M 32.8835,546.811 24.9157,553.783 z" id="boundary" inkscape:connector-curvature="0" />
	<path style="fill:none;stroke:red;stroke-width:1px;stroke-linecap:butt;stroke-linejoin:miter;stroke-opacity:1" d="M 4,589.639 4,579.679 z" id="boundary" inkscape:connector-curvature="0" />
	<path style="fill:none;stroke:red;stroke-width:1px;stroke-linecap:butt;stroke-linejoin:miter;stroke-opacity:1" d="M 4,579.679 8.97992,569.719 z" id="boundary" inkscape:connector-curvature="0" />
	<path style="fill:none;stroke:red;stroke-width:1px;stroke-linecap:butt;stroke-linejoin:miter;stroke-opacity:1" d="M 8.97992,569.719 16.9478,561.751 z" id="boundary" inkscape:connector-curvature="0" />
	<path style="fill:none;stroke:red;stroke-width:1px;stroke-linecap:butt;stroke-linejoin:miter;stroke-opacity:1" d="M 24.9157,553.783 16.9478,561.751 z" id="boundary" inkscape:connector-curvature="0" />
	<path style="fill:none;stroke:red;stroke-width:1px;stroke-linecap:butt;stroke-linejoin:miter;stroke-opacity:1" d="M 54.7952,523.904 64.755,518.924 z" id="boundary" inkscape:connector-curvature="0" />
	<path style="fill:none;stroke:red;stroke-width:1px;stroke-linecap:butt;stroke-linejoin:miter;stroke-opacity:1" d="M 115.55,482.072 106.586,487.052 z" id="boundary" inkscape:connector-curvature="0" />
	<path style="fill:none;stroke:red;stroke-width:1px;stroke-linecap:butt;stroke-linejoin:miter;stroke-opacity:1" d="M 133.478,470.12 124.514,477.092 z" id="boundary" inkscape:connector-curvature="0" />
	<path style="fill:none;stroke:red;stroke-width:1px;stroke-linecap:butt;stroke-linejoin:miter;stroke-opacity:1" d="M 124.514,477.092 115.55,482.072 z" id="boundary" inkscape:connector-curvature="0" />
	<path style="fill:none;stroke:red;stroke-width:1px;stroke-linecap:butt;stroke-linejoin:miter;stroke-opacity:1" d="M 141.446,462.153 133.478,470.12 z" id="boundary" inkscape:connector-curvature="0" />
	<path style="fill:none;stroke:red;stroke-width:1px;stroke-linecap:butt;stroke-linejoin:miter;stroke-opacity:1" d="M 106.586,487.052 97.6225,492.032 z" id="boundary" inkscape:connector-curvature="0" />
	<path style="fill:none;stroke:red;stroke-width:1px;stroke-linecap:butt;stroke-linejoin:miter;stroke-opacity:1" d="M 64.755,518.924 72.7229,511.952 z" id="boundary" inkscape:connector-curvature="0" />
	<path style="fill:none;stroke:red;stroke-width:1px;stroke-linecap:butt;stroke-linejoin:miter;stroke-opacity:1" d="M 72.7229,511.952 81.6867,506.972 z" id="boundary" inkscape:connector-curvature="0" />
	<path style="fill:none;stroke:red;stroke-width:1px;stroke-linecap:butt;stroke-linejoin:miter;stroke-opacity:1" d="M 89.6546,499.004 97.6225,492.032 z" id="boundary" inkscape:connector-curvature="0" />
	<path style="fill:none;stroke:red;stroke-width:1px;stroke-linecap:butt;stroke-linejoin:miter;stroke-opacity:1" d="M 89.6546,499.004 81.6867,506.972 z" id="boundary" inkscape:connector-curvature="0" />
	<path style="fill:none;stroke:red;stroke-width:1px;stroke-linecap:butt;stroke-linejoin:miter;stroke-opacity:1" d="M 13.9598,617.526 8.97992,608.562 z" id="boundary" inkscape:connector-curvature="0" />
	<path style="fill:none;stroke:red;stroke-width:1px;stroke-linecap:butt;stroke-linejoin:miter;stroke-opacity:1" d="M 18.9398,626.49 13.9598,617.526 z" id="boundary" inkscape:connector-curvature="0" />
	<path style="fill:none;stroke:red;stroke-width:1px;stroke-linecap:butt;stroke-linejoin:miter;stroke-opacity:1" d="M 24.9157,634.458 18.9398,626.49 z" id="boundary" inkscape:connector-curvature="0" />
	<path style="fill:none;stroke:red;stroke-width:1px;stroke-linecap:butt;stroke-linejoin:miter;stroke-opacity:1" d="M 31.8876,642.426 24.9157,634.458 z" id="boundary" inkscape:connector-curvature="0" />
	<path style="fill:none;stroke:red;stroke-width:1px;stroke-linecap:butt;stroke-linejoin:miter;stroke-opacity:1" d="M 31.8876,642.426 38.8594,650.394 z" id="boundary" inkscape:connector-curvature="0" />
	<path style="fill:none;stroke:red;stroke-width:1px;stroke-linecap:butt;stroke-linejoin:miter;stroke-opacity:1" d="M 38.8594,650.394 43.8394,659.357 z" id="boundary" inkscape:connector-curvature="0" />
	<path style="fill:none;stroke:red;stroke-width:1px;stroke-linecap:butt;stroke-linejoin:miter;stroke-opacity:1" d="M 55.7912,676.289 48.8193,668.321 z" id="boundary" inkscape:connector-curvature="0" />
	<path style="fill:none;stroke:red;stroke-width:1px;stroke-linecap:butt;stroke-linejoin:miter;stroke-opacity:1" d="M 48.8193,668.321 43.8394,659.357 z" id="boundary" inkscape:connector-curvature="0" />
	<path style="fill:none;stroke:red;stroke-width:1px;stroke-linecap:butt;stroke-linejoin:miter;stroke-opacity:1" d="M 63.759,682.265 55.7912,676.289 z" id="boundary" inkscape:connector-curvature="0" />
	<path style="fill:none;stroke:red;stroke-width:1px;stroke-linecap:butt;stroke-linejoin:miter;stroke-opacity:1" d="M 4,599.598 4,589.639 z" id="boundary" inkscape:connector-curvature="0" />
	<path style="fill:none;stroke:red;stroke-width:1px;stroke-linecap:butt;stroke-linejoin:miter;stroke-opacity:1" d="M 8.97992,608.562 4,599.598 z" id="boundary" inkscape:connector-curvature="0" />
	<path style="fill:none;stroke:red;stroke-width:1px;stroke-linecap:butt;stroke-linejoin:miter;stroke-opacity:1" d="M 72.7229,687.245 63.759,682.265 z" id="boundary" inkscape:connector-curvature="0" />
	<path style="fill:none;stroke:red;stroke-width:1px;stroke-linecap:butt;stroke-linejoin:miter;stroke-opacity:1" d="M 81.6867,692.225 91.6466,692.225 z" id="boundary" inkscape:connector-curvature="0" />
	<path style="fill:none;stroke:red;stroke-width:1px;stroke-linecap:butt;stroke-linejoin:miter;stroke-opacity:1" d="M 91.6466,692.225 100.61,697.205 z" id="boundary" inkscape:connector-curvature="0" />
	<path style="fill:none;stroke:red;stroke-width:1px;stroke-linecap:butt;stroke-linejoin:miter;stroke-opacity:1" d="M 81.6867,692.225 72.7229,687.245 z" id="boundary" inkscape:connector-curvature="0" />
	<path style="fill:none;stroke:red;stroke-width:1px;stroke-linecap:butt;stroke-linejoin:miter;stroke-opacity:1" d="M 110.57,700.193 100.61,697.205 z" id="boundary" inkscape:connector-curvature="0" />
	<path style="fill:none;stroke:red;stroke-width:1px;stroke-linecap:butt;stroke-linejoin:miter;stroke-opacity:1" d="M 110.57,700.193 120.53,702.185 z" id="boundary" inkscape:connector-curvature="0" />
	<path style="fill:none;stroke:red;stroke-width:1px;stroke-linecap:butt;stroke-linejoin:miter;stroke-opacity:1" d="M 130.49,702.185 120.53,702.185 z" id="boundary" inkscape:connector-curvature="0" />
	<path style="fill:none;stroke:red;stroke-width:1px;stroke-linecap:butt;stroke-linejoin:miter;stroke-opacity:1" d="M 160.369,707.165 150.41,707.165 z" id="boundary" inkscape:connector-curvature="0" />
	<path style="fill:none;stroke:red;stroke-width:1px;stroke-linecap:butt;stroke-linejoin:miter;stroke-opacity:1" d="M 150.41,707.165 140.45,705.173 z" id="boundary" inkscape:connector-curvature="0" />
	<path style="fill:none;stroke:red;stroke-width:1px;stroke-linecap:butt;stroke-linejoin:miter;stroke-opacity:1" d="M 130.49,702.185 140.45,705.173 z" id="boundary" inkscape:connector-curvature="0" />
	<path style="fill:none;stroke:red;stroke-width:1px;stroke-linecap:butt;stroke-linejoin:miter;stroke-opacity:1" d="M 141.446,462.153 151.406,457.173 z" id="boundary" inkscape:connector-curvature="0" />
	<path style="fill:none;stroke:red;stroke-width:1px;stroke-linecap:butt;stroke-linejoin:miter;stroke-opacity:1" d="M 151.406,457.173 161.365,452.193 z" id="boundary" inkscape:connector-curvature="0" />
	<path style="fill:none;stroke:red;stroke-width:1px;stroke-linecap:butt;stroke-linejoin:miter;stroke-opacity:1" d="M 161.365,452.193 170.329,447.213 z" id="boundary" inkscape:connector-curvature="0" />
	<path style="fill:none;stroke:red;stroke-width:1px;stroke-linecap:butt;stroke-linejoin:miter;stroke-opacity:1" d="M 179.293,712.145 169.333,712.145 z" id="boundary" inkscape:connector-curvature="0" />
	<path style="fill:none;stroke:red;stroke-width:1px;stroke-linecap:butt;stroke-linejoin:miter;stroke-opacity:1" d="M 169.333,712.145 160.369,707.165 z" id="boundary" inkscape:connector-curvature="0" />
	<path style="fill:none;stroke:red;stroke-width:1px;stroke-linecap:butt;stroke-linejoin:miter;stroke-opacity:1" d="M 179.293,712.145 188.257,717.124 z" id="boundary" inkscape:connector-curvature="0" />
	<path style="fill:none;stroke:red;stroke-width:1px;stroke-linecap:butt;stroke-linejoin:miter;stroke-opacity:1" d="M 198.217,717.124 188.257,717.124 z" id="boundary" inkscape:connector-curvature="0" />
	<path style="fill:none;stroke:red;stroke-width:1px;stroke-linecap:butt;stroke-linejoin:miter;stroke-opacity:1" d="M 198.217,717.124 208.177,717.124 z" id="boundary" inkscape:connector-curvature="0" />
	<path style="fill:none;stroke:red;stroke-width:1px;stroke-linecap:butt;stroke-linejoin:miter;stroke-opacity:1" d="M 218.137,717.124 208.177,717.124 z" id="boundary" inkscape:connector-curvature="0" />
	<path style="fill:none;stroke:red;stroke-width:1px;stroke-linecap:butt;stroke-linejoin:miter;stroke-opacity:1" d="M 218.137,717.124 227.1,722.104 z" id="boundary" inkscape:connector-curvature="0" />
	<path style="fill:none;stroke:red;stroke-width:1px;stroke-linecap:butt;stroke-linejoin:miter;stroke-opacity:1" d="M 227.1,722.104 237.06,722.104 z" id="boundary" inkscape:connector-curvature="0" />
	<path style="fill:none;stroke:red;stroke-width:1px;stroke-linecap:butt;stroke-linejoin:miter;stroke-opacity:1" d="M 237.06,722.104 246.024,727.084 z" id="boundary" inkscape:connector-curvature="0" />
	<path style="fill:none;stroke:red;stroke-width:1px;stroke-linecap:butt;stroke-linejoin:miter;stroke-opacity:1" d="M 246.024,727.084 255.984,727.084 z" id="boundary" inkscape:connector-curvature="0" />
	<path style="fill:none;stroke:red;stroke-width:1px;stroke-linecap:butt;stroke-linejoin:miter;stroke-opacity:1" d="M 265.944,727.084 255.984,727.084 z" id="boundary" inkscape:connector-curvature="0" />
	<path style="fill:none;stroke:red;stroke-width:1px;stroke-linecap:butt;stroke-linejoin:miter;stroke-opacity:1" d="M 275.904,727.084 265.944,727.084 z" id="boundary" inkscape:connector-curvature="0" />
	<path style="fill:none;stroke:red;stroke-width:1px;stroke-linecap:butt;stroke-linejoin:miter;stroke-opacity:1" d="M 275.904,727.084 284.867,732.064 z" id="boundary" inkscape:connector-curvature="0" />
	<path style="fill:none;stroke:red;stroke-width:1px;stroke-linecap:butt;stroke-linejoin:miter;stroke-opacity:1" d="M 294.827,732.064 284.867,732.064 z" id="boundary" inkscape:connector-curvature="0" />
	<path style="fill:none;stroke:red;stroke-width:1px;stroke-linecap:butt;stroke-linejoin:miter;stroke-opacity:1" d="M 294.827,732.064 304.787,732.064 z" id="boundary" inkscape:connector-curvature="0" />
	<path style="fill:none;stroke:red;stroke-width:1px;stroke-linecap:butt;stroke-linejoin:miter;stroke-opacity:1" d="M 304.787,732.064 314.747,735.052 z" id="boundary" inkscape:connector-curvature="0" />
	<path style="fill:none;stroke:red;stroke-width:1px;stroke-linecap:butt;stroke-linejoin:miter;stroke-opacity:1" d="M 314.747,735.052 324.707,737.044 z" id="boundary" inkscape:connector-curvature="0" />
	<path style="fill:none;stroke:red;stroke-width:1px;stroke-linecap:butt;stroke-linejoin:miter;stroke-opacity:1" d="M 324.707,737.044 334.667,737.044 z" id="boundary" inkscape:connector-curvature="0" />
	<path style="fill:none;stroke:red;stroke-width:1px;stroke-linecap:butt;stroke-linejoin:miter;stroke-opacity:1" d="M 334.667,737.044 344.627,740.032 z" id="boundary" inkscape:connector-curvature="0" />
	<path style="fill:none;stroke:red;stroke-width:1px;stroke-linecap:butt;stroke-linejoin:miter;stroke-opacity:1" d="M 364.546,742.024 354.586,742.024 z" id="boundary" inkscape:connector-curvature="0" />
	<path style="fill:none;stroke:red;stroke-width:1px;stroke-linecap:butt;stroke-linejoin:miter;stroke-opacity:1" d="M 354.586,742.024 344.627,740.032 z" id="boundary" inkscape:connector-curvature="0" />
	<path style="fill:none;stroke:red;stroke-width:1px;stroke-linecap:butt;stroke-linejoin:miter;stroke-opacity:1" d="M 374.506,742.024 364.546,742.024 z" id="boundary" inkscape:connector-curvature="0" />
	<path style="fill:none;stroke:red;stroke-width:1px;stroke-linecap:butt;stroke-linejoin:miter;stroke-opacity:1" d="M 374.506,742.024 384.466,742.024 z" id="boundary" inkscape:connector-curvature="0" />
	<path style="fill:none;stroke:red;stroke-width:1px;stroke-linecap:butt;stroke-linejoin:miter;stroke-opacity:1" d="M 413.349,747.004 403.39,747.004 z" id="boundary" inkscape:connector-curvature="0" />
	<path style="fill:none;stroke:red;stroke-width:1px;stroke-linecap:butt;stroke-linejoin:miter;stroke-opacity:1" d="M 403.39,747.004 394.426,742.024 z" id="boundary" inkscape:connector-curvature="0" />
	<path style="fill:none;stroke:red;stroke-width:1px;stroke-linecap:butt;stroke-linejoin:miter;stroke-opacity:1" d="M 423.309,747.004 413.349,747.004 z" id="boundary" inkscape:connector-curvature="0" />
	<path style="fill:none;stroke:red;stroke-width:1px;stroke-linecap:butt;stroke-linejoin:miter;stroke-opacity:1" d="M 384.466,742.024 394.426,742.024 z" id="boundary" inkscape:connector-curvature="0" />
	<path style="fill:none;stroke:red;stroke-width:1px;stroke-linecap:butt;stroke-linejoin:miter;stroke-opacity:1" d="M 423.309,747.004 433.269,747.004 z" id="boundary" inkscape:connector-curvature="0" />
	<path style="fill:none;stroke:red;stroke-width:1px;stroke-linecap:butt;stroke-linejoin:miter;stroke-opacity:1" d="M 443.229,747.004 453.189,747.004 z" id="boundary" inkscape:connector-curvature="0" />
	<path style="fill:none;stroke:red;stroke-width:1px;stroke-linecap:butt;stroke-linejoin:miter;stroke-opacity:1" d="M 453.189,747.004 462.153,751.984 z" id="boundary" inkscape:connector-curvature="0" />
	<path style="fill:none;stroke:red;stroke-width:1px;stroke-linecap:butt;stroke-linejoin:miter;stroke-opacity:1" d="M 472.112,751.984 462.153,751.984 z" id="boundary" inkscape:connector-curvature="0" />
	<path style="fill:none;stroke:red;stroke-width:1px;stroke-linecap:butt;stroke-linejoin:miter;stroke-opacity:1" d="M 433.269,747.004 443.229,747.004 z" id="boundary" inkscape:connector-curvature="0" />
	<path style="fill:none;stroke:red;stroke-width:1px;stroke-linecap:butt;stroke-linejoin:miter;stroke-opacity:1" d="M 472.112,751.984 482.072,751.984 z" id="boundary" inkscape:connector-curvature="0" />
	<path style="fill:none;stroke:red;stroke-width:1px;stroke-linecap:butt;stroke-linejoin:miter;stroke-opacity:1" d="M 492.032,751.984 501.992,751.984 z" id="boundary" inkscape:connector-curvature="0" />
	<path style="fill:none;stroke:red;stroke-width:1px;stroke-linecap:butt;stroke-linejoin:miter;stroke-opacity:1" d="M 501.992,751.984 511.952,751.984 z" id="boundary" inkscape:connector-curvature="0" />
	<path style="fill:none;stroke:red;stroke-width:1px;stroke-linecap:butt;stroke-linejoin:miter;stroke-opacity:1" d="M 492.032,751.984 482.072,751.984 z" id="boundary" inkscape:connector-curvature="0" />
	<path style="fill:none;stroke:red;stroke-width:1px;stroke-linecap:butt;stroke-linejoin:miter;stroke-opacity:1" d="M 527.888,26.9076 527.888,36.8675 z" id="boundary" inkscape:connector-curvature="0" />
	<path style="fill:none;stroke:red;stroke-width:1px;stroke-linecap:butt;stroke-linejoin:miter;stroke-opacity:1" d="M 527.888,36.8675 527.888,46.8273 z" id="boundary" inkscape:connector-curvature="0" />
	<path style="fill:none;stroke:red;stroke-width:1px;stroke-linecap:butt;stroke-linejoin:miter;stroke-opacity:1" d="M 591.631,120.53 581.671,118.538 z" id="boundary" inkscape:connector-curvature="0" />
	<path style="fill:none;stroke:red;stroke-width:1px;stroke-linecap:butt;stroke-linejoin:miter;stroke-opacity:1" d="M 527.888,46.8273 527.888,56.7871 z" id="boundary" inkscape:connector-curvature="0" />
	<path style="fill:none;stroke:red;stroke-width:1px;stroke-linecap:butt;stroke-linejoin:miter;stroke-opacity:1" d="M 531.871,66.747 532.867,76.7068 z" id="boundary" inkscape:connector-curvature="0" />
	<path style="fill:none;stroke:red;stroke-width:1px;stroke-linecap:butt;stroke-linejoin:miter;stroke-opacity:1" d="M 531.871,66.747 527.888,56.7871 z" id="boundary" inkscape:connector-curvature="0" />
	<path style="fill:none;stroke:red;stroke-width:1px;stroke-linecap:butt;stroke-linejoin:miter;stroke-opacity:1" d="M 537.847,95.6305 532.867,86.6667 z" id="boundary" inkscape:connector-curvature="0" />
	<path style="fill:none;stroke:red;stroke-width:1px;stroke-linecap:butt;stroke-linejoin:miter;stroke-opacity:1" d="M 532.867,86.6667 532.867,76.7068 z" id="boundary" inkscape:connector-curvature="0" />
	<path style="fill:none;stroke:red;stroke-width:1px;stroke-linecap:butt;stroke-linejoin:miter;stroke-opacity:1" d="M 537.847,95.6305 540.835,105.59 z" id="boundary" inkscape:connector-curvature="0" />
	<path style="fill:none;stroke:red;stroke-width:1px;stroke-linecap:butt;stroke-linejoin:miter;stroke-opacity:1" d="M 545.815,114.554 540.835,105.59 z" id="boundary" inkscape:connector-curvature="0" />
	<path style="fill:none;stroke:red;stroke-width:1px;stroke-linecap:butt;stroke-linejoin:miter;stroke-opacity:1" d="M 562.747,123.518 552.787,122.522 z" id="boundary" inkscape:connector-curvature="0" />
	<path style="fill:none;stroke:red;stroke-width:1px;stroke-linecap:butt;stroke-linejoin:miter;stroke-opacity:1" d="M 552.787,122.522 545.815,114.554 z" id="boundary" inkscape:connector-curvature="0" />
	<path style="fill:none;stroke:red;stroke-width:1px;stroke-linecap:butt;stroke-linejoin:miter;stroke-opacity:1" d="M 581.671,118.538 572.707,123.518 z" id="boundary" inkscape:connector-curvature="0" />
	<path style="fill:none;stroke:red;stroke-width:1px;stroke-linecap:butt;stroke-linejoin:miter;stroke-opacity:1" d="M 572.707,123.518 562.747,123.518 z" id="boundary" inkscape:connector-curvature="0" />
	<path style="fill:none;stroke:red;stroke-width:1px;stroke-linecap:butt;stroke-linejoin:miter;stroke-opacity:1" d="M 551.791,179.293 561.751,179.293 z" id="boundary" inkscape:connector-curvature="0" />
	<path style="fill:none;stroke:red;stroke-width:1px;stroke-linecap:butt;stroke-linejoin:miter;stroke-opacity:1" d="M 580.675,174.313 571.711,179.293 z" id="boundary" inkscape:connector-curvature="0" />
	<path style="fill:none;stroke:red;stroke-width:1px;stroke-linecap:butt;stroke-linejoin:miter;stroke-opacity:1" d="M 571.711,179.293 561.751,179.293 z" id="boundary" inkscape:connector-curvature="0" />
	<path style="fill:none;stroke:red;stroke-width:1px;stroke-linecap:butt;stroke-linejoin:miter;stroke-opacity:1" d="M 590.635,174.313 580.675,174.313 z" id="boundary" inkscape:connector-curvature="0" />
	<path style="fill:none;stroke:red;stroke-width:1px;stroke-linecap:butt;stroke-linejoin:miter;stroke-opacity:1" d="M 527.888,26.9076 526.892,16.9478 z" id="boundary" inkscape:connector-curvature="0" />
	<path style="fill:none;stroke:red;stroke-width:1px;stroke-linecap:butt;stroke-linejoin:miter;stroke-opacity:1" d="M 551.791,179.293 542.827,184.273 z" id="boundary" inkscape:connector-curvature="0" />
	<path style="fill:none;stroke:red;stroke-width:1px;stroke-linecap:butt;stroke-linejoin:miter;stroke-opacity:1" d="M 542.827,184.273 542.827,194.233 z" id="boundary" inkscape:connector-curvature="0" />
	<path style="fill:none;stroke:red;stroke-width:1px;stroke-linecap:butt;stroke-linejoin:miter;stroke-opacity:1" d="M 542.827,204.193 542.827,214.153 z" id="boundary" inkscape:connector-curvature="0" />
	<path style="fill:none;stroke:red;stroke-width:1px;stroke-linecap:butt;stroke-linejoin:miter;stroke-opacity:1" d="M 542.827,224.112 542.827,214.153 z" id="boundary" inkscape:connector-curvature="0" />
	<path style="fill:none;stroke:red;stroke-width:1px;stroke-linecap:butt;stroke-linejoin:miter;stroke-opacity:1" d="M 542.827,204.193 542.827,194.233 z" id="boundary" inkscape:connector-curvature="0" />
	<path style="fill:none;stroke:red;stroke-width:1px;stroke-linecap:butt;stroke-linejoin:miter;stroke-opacity:1" d="M 542.827,234.072 542.827,244.032 z" id="boundary" inkscape:connector-curvature="0" />
	<path style="fill:none;stroke:red;stroke-width:1px;stroke-linecap:butt;stroke-linejoin:miter;stroke-opacity:1" d="M 542.827,253.992 542.827,263.952 z" id="boundary" inkscape:connector-curvature="0" />
	<path style="fill:none;stroke:red;stroke-width:1px;stroke-linecap:butt;stroke-linejoin:miter;stroke-opacity:1" d="M 542.827,283.871 542.827,273.912 z" id="boundary" inkscape:connector-curvature="0" />
	<path style="fill:none;stroke:red;stroke-width:1px;stroke-linecap:butt;stroke-linejoin:miter;stroke-opacity:1" d="M 542.827,263.952 542.827,273.912 z" id="boundary" inkscape:connector-curvature="0" />
	<path style="fill:none;stroke:red;stroke-width:1px;stroke-linecap:butt;stroke-linejoin:miter;stroke-opacity:1" d="M 542.827,253.992 542.827,244.032 z" id="boundary" inkscape:connector-curvature="0" />
	<path style="fill:none;stroke:red;stroke-width:1px;stroke-linecap:butt;stroke-linejoin:miter;stroke-opacity:1" d="M 542.827,234.072 542.827,224.112 z" id="boundary" inkscape:connector-curvature="0" />
	<path style="fill:none;stroke:red;stroke-width:1px;stroke-linecap:butt;stroke-linejoin:miter;stroke-opacity:1" d="M 542.827,283.871 542.827,293.831 z" id="boundary" inkscape:connector-curvature="0" />
	<path style="fill:none;stroke:red;stroke-width:1px;stroke-linecap:butt;stroke-linejoin:miter;stroke-opacity:1" d="M 542.827,303.791 542.827,293.831 z" id="boundary" inkscape:connector-curvature="0" />
	<path style="fill:none;stroke:red;stroke-width:1px;stroke-linecap:butt;stroke-linejoin:miter;stroke-opacity:1" d="M 542.827,303.791 542.827,313.751 z" id="boundary" inkscape:connector-curvature="0" />
	<path style="fill:none;stroke:red;stroke-width:1px;stroke-linecap:butt;stroke-linejoin:miter;stroke-opacity:1" d="M 542.827,323.711 542.827,313.751 z" id="boundary" inkscape:connector-curvature="0" />
	<path style="fill:none;stroke:red;stroke-width:1px;stroke-linecap:butt;stroke-linejoin:miter;stroke-opacity:1" d="M 547.807,332.675 542.827,323.711 z" id="boundary" inkscape:connector-curvature="0" />
	<path style="fill:none;stroke:red;stroke-width:1px;stroke-linecap:butt;stroke-linejoin:miter;stroke-opacity:1" d="M 590.635,353.59 580.675,352.594 z" id="boundary" inkscape:connector-curvature="0" />
	<path style="fill:none;stroke:red;stroke-width:1px;stroke-linecap:butt;stroke-linejoin:miter;stroke-opacity:1" d="M 552.787,341.639 560.755,348.61 z" id="boundary" inkscape:connector-curvature="0" />
	<path style="fill:none;stroke:red;stroke-width:1px;stroke-linecap:butt;stroke-linejoin:miter;stroke-opacity:1" d="M 552.787,341.639 547.807,332.675 z" id="boundary" inkscape:connector-curvature="0" />
	<path style="fill:none;stroke:red;stroke-width:1px;stroke-linecap:butt;stroke-linejoin:miter;stroke-opacity:1" d="M 580.675,352.594 570.715,352.594 z" id="boundary" inkscape:connector-curvature="0" />
	<path style="fill:none;stroke:red;stroke-width:1px;stroke-linecap:butt;stroke-linejoin:miter;stroke-opacity:1" d="M 570.715,352.594 560.755,348.61 z" id="boundary" inkscape:connector-curvature="0" />
	<path style="fill:none;stroke:red;stroke-width:1px;stroke-linecap:butt;stroke-linejoin:miter;stroke-opacity:1" d="M 521.912,751.984 511.952,751.984 z" id="boundary" inkscape:connector-curvature="0" />
	<path style="fill:none;stroke:red;stroke-width:1px;stroke-linecap:butt;stroke-linejoin:miter;stroke-opacity:1" d="M 591.631,120.53 601.59,123.518 z" id="boundary" inkscape:connector-curvature="0" />
	<path style="fill:none;stroke:red;stroke-width:1px;stroke-linecap:butt;stroke-linejoin:miter;stroke-opacity:1" d="M 610.554,174.313 600.594,174.313 z" id="boundary" inkscape:connector-curvature="0" />
	<path style="fill:none;stroke:red;stroke-width:1px;stroke-linecap:butt;stroke-linejoin:miter;stroke-opacity:1" d="M 600.594,174.313 590.635,174.313 z" id="boundary" inkscape:connector-curvature="0" />
	<path style="fill:none;stroke:red;stroke-width:1px;stroke-linecap:butt;stroke-linejoin:miter;stroke-opacity:1" d="M 611.55,123.518 601.59,123.518 z" id="boundary" inkscape:connector-curvature="0" />
	<path style="fill:none;stroke:red;stroke-width:1px;stroke-linecap:butt;stroke-linejoin:miter;stroke-opacity:1" d="M 590.635,353.59 600.594,357.574 z" id="boundary" inkscape:connector-curvature="0" />
	<path style="fill:none;stroke:red;stroke-width:1px;stroke-linecap:butt;stroke-linejoin:miter;stroke-opacity:1" d="M 610.554,357.574 600.594,357.574 z" id="boundary" inkscape:connector-curvature="0" />
	<path style="fill:none;stroke:red;stroke-width:1px;stroke-linecap:butt;stroke-linejoin:miter;stroke-opacity:1" d="M 629.478,169.333 620.514,174.313 z" id="boundary" inkscape:connector-curvature="0" />
	<path style="fill:none;stroke:red;stroke-width:1px;stroke-linecap:butt;stroke-linejoin:miter;stroke-opacity:1" d="M 620.514,174.313 610.554,174.313 z" id="boundary" inkscape:connector-curvature="0" />
	<path style="fill:none;stroke:red;stroke-width:1px;stroke-linecap:butt;stroke-linejoin:miter;stroke-opacity:1" d="M 620.514,358.57 610.554,357.574 z" id="boundary" inkscape:connector-curvature="0" />
	<path style="fill:none;stroke:red;stroke-width:1px;stroke-linecap:butt;stroke-linejoin:miter;stroke-opacity:1" d="M 630.474,128.498 621.51,123.518 z" id="boundary" inkscape:connector-curvature="0" />
	<path style="fill:none;stroke:red;stroke-width:1px;stroke-linecap:butt;stroke-linejoin:miter;stroke-opacity:1" d="M 637.446,136.466 642.426,145.43 z" id="boundary" inkscape:connector-curvature="0" />
	<path style="fill:none;stroke:red;stroke-width:1px;stroke-linecap:butt;stroke-linejoin:miter;stroke-opacity:1" d="M 642.426,145.43 637.446,159.373 z" id="boundary" inkscape:connector-curvature="0" />
	<path style="fill:none;stroke:red;stroke-width:1px;stroke-linecap:butt;stroke-linejoin:miter;stroke-opacity:1" d="M 629.478,169.333 637.446,159.373 z" id="boundary" inkscape:connector-curvature="0" />
	<path style="fill:none;stroke:red;stroke-width:1px;stroke-linecap:butt;stroke-linejoin:miter;stroke-opacity:1" d="M 630.474,128.498 637.446,136.466 z" id="boundary" inkscape:connector-curvature="0" />
	<path style="fill:none;stroke:red;stroke-width:1px;stroke-linecap:butt;stroke-linejoin:miter;stroke-opacity:1" d="M 630.474,362.554 640.434,363.55 z" id="boundary" inkscape:connector-curvature="0" />
	<path style="fill:none;stroke:red;stroke-width:1px;stroke-linecap:butt;stroke-linejoin:miter;stroke-opacity:1" d="M 640.434,363.55 650.394,367.534 z" id="boundary" inkscape:connector-curvature="0" />
	<path style="fill:none;stroke:red;stroke-width:1px;stroke-linecap:butt;stroke-linejoin:miter;stroke-opacity:1" d="M 630.474,362.554 620.514,358.57 z" id="boundary" inkscape:connector-curvature="0" />
	<path style="fill:none;stroke:red;stroke-width:1px;stroke-linecap:butt;stroke-linejoin:miter;stroke-opacity:1" d="M 660.353,367.534 650.394,367.534 z" id="boundary" inkscape:connector-curvature="0" />
	<path style="fill:none;stroke:red;stroke-width:1px;stroke-linecap:butt;stroke-linejoin:miter;stroke-opacity:1" d="M 611.55,123.518 621.51,123.518 z" id="boundary" inkscape:connector-curvature="0" />
	<path style="fill:none;stroke:red;stroke-width:1px;stroke-linecap:butt;stroke-linejoin:miter;stroke-opacity:1" d="M 660.353,367.534 670.313,368.53 z" id="boundary" inkscape:connector-curvature="0" />
	<path style="fill:none;stroke:red;stroke-width:1px;stroke-linecap:butt;stroke-linejoin:miter;stroke-opacity:1" d="M 670.313,368.53 680.273,372.514 z" id="boundary" inkscape:connector-curvature="0" />
	<path style="fill:none;stroke:red;stroke-width:1px;stroke-linecap:butt;stroke-linejoin:miter;stroke-opacity:1" d="M 749.992,372.514 740.032,372.514 z" id="boundary" inkscape:connector-curvature="0" />
	<path style="fill:none;stroke:red;stroke-width:1px;stroke-linecap:butt;stroke-linejoin:miter;stroke-opacity:1" d="M 680.273,372.514 690.233,372.514 z" id="boundary" inkscape:connector-curvature="0" />
	<path style="fill:none;stroke:red;stroke-width:1px;stroke-linecap:butt;stroke-linejoin:miter;stroke-opacity:1" d="M 700.193,372.514 690.233,372.514 z" id="boundary" inkscape:connector-curvature="0" />
	<path style="fill:none;stroke:red;stroke-width:1px;stroke-linecap:butt;stroke-linejoin:miter;stroke-opacity:1" d="M 710.153,372.514 720.112,372.514 z" id="boundary" inkscape:connector-curvature="0" />
	<path style="fill:none;stroke:red;stroke-width:1px;stroke-linecap:butt;stroke-linejoin:miter;stroke-opacity:1" d="M 710.153,372.514 700.193,372.514 z" id="boundary" inkscape:connector-curvature="0" />
	<path style="fill:none;stroke:red;stroke-width:1px;stroke-linecap:butt;stroke-linejoin:miter;stroke-opacity:1" d="M 730.072,372.514 740.032,372.514 z" id="boundary" inkscape:connector-curvature="0" />
	<path style="fill:none;stroke:red;stroke-width:1px;stroke-linecap:butt;stroke-linejoin:miter;stroke-opacity:1" d="M 730.072,372.514 720.112,372.514 z" id="boundary" inkscape:connector-curvature="0" />
	<path style="fill:none;stroke:red;stroke-width:1px;stroke-linecap:butt;stroke-linejoin:miter;stroke-opacity:1" d="M 759.952,372.514 769.912,372.514 z" id="boundary" inkscape:connector-curvature="0" />
	<path style="fill:none;stroke:red;stroke-width:1px;stroke-linecap:butt;stroke-linejoin:miter;stroke-opacity:1" d="M 759.952,372.514 749.992,372.514 z" id="boundary" inkscape:connector-curvature="0" />
	<path style="fill:none;stroke:red;stroke-width:1px;stroke-linecap:butt;stroke-linejoin:miter;stroke-opacity:1" d="M 779.871,372.514 788.835,377.494 z" id="boundary" inkscape:connector-curvature="0" />
	<path style="fill:none;stroke:red;stroke-width:1px;stroke-linecap:butt;stroke-linejoin:miter;stroke-opacity:1" d="M 769.912,372.514 779.871,372.514 z" id="boundary" inkscape:connector-curvature="0" />
	<path style="fill:none;stroke:red;stroke-width:1px;stroke-linecap:butt;stroke-linejoin:miter;stroke-opacity:1" d="M 797.799,382.474 788.835,377.494 z" id="boundary" inkscape:connector-curvature="0" />
	<path style="fill:none;stroke:red;stroke-width:1px;stroke-linecap:butt;stroke-linejoin:miter;stroke-opacity:1" d="M 806.763,399.406 806.763,409.365 z" id="boundary" inkscape:connector-curvature="0" />
	<path style="fill:none;stroke:red;stroke-width:1px;stroke-linecap:butt;stroke-linejoin:miter;stroke-opacity:1" d="M 806.763,399.406 805.767,389.446 z" id="boundary" inkscape:connector-curvature="0" />
	<path style="fill:none;stroke:red;stroke-width:1px;stroke-linecap:butt;stroke-linejoin:miter;stroke-opacity:1" d="M 806.763,409.365 806.763,419.325 z" id="boundary" inkscape:connector-curvature="0" />
	<path style="fill:none;stroke:red;stroke-width:1px;stroke-linecap:butt;stroke-linejoin:miter;stroke-opacity:1" d="M 806.763,429.285 806.763,419.325 z" id="boundary" inkscape:connector-curvature="0" />
	<path style="fill:none;stroke:red;stroke-width:1px;stroke-linecap:butt;stroke-linejoin:miter;stroke-opacity:1" d="M 797.799,382.474 805.767,389.446 z" id="boundary" inkscape:connector-curvature="0" />
	<path style="fill:none;stroke:red;stroke-width:1px;stroke-linecap:butt;stroke-linejoin:miter;stroke-opacity:1" d="M 526.892,16.9478 519.92,8.97992 z" id="boundary" inkscape:connector-curvature="0" />
	<path style="fill:none;stroke:red;stroke-width:1px;stroke-linecap:butt;stroke-linejoin:miter;stroke-opacity:1" d="M 806.763,429.285 806.763,439.245 z" id="boundary" inkscape:connector-curvature="0" />
	<path style="fill:none;stroke:red;stroke-width:1px;stroke-linecap:butt;stroke-linejoin:miter;stroke-opacity:1" d="M 777.88,747.004 767.92,747.004 z" id="boundary" inkscape:connector-curvature="0" />
	<path style="fill:none;stroke:red;stroke-width:1px;stroke-linecap:butt;stroke-linejoin:miter;stroke-opacity:1" d="M 786.843,742.024 777.88,747.004 z" id="boundary" inkscape:connector-curvature="0" />
	<path style="fill:none;stroke:red;stroke-width:1px;stroke-linecap:butt;stroke-linejoin:miter;stroke-opacity:1" d="M 786.843,742.024 795.807,737.044 z" id="boundary" inkscape:connector-curvature="0" />
	<path style="fill:none;stroke:red;stroke-width:1px;stroke-linecap:butt;stroke-linejoin:miter;stroke-opacity:1" d="M 804.771,732.064 795.807,737.044 z" id="boundary" inkscape:connector-curvature="0" />
	<path style="fill:none;stroke:red;stroke-width:1px;stroke-linecap:butt;stroke-linejoin:miter;stroke-opacity:1" d="M 521.912,751.984 531.871,751.984 z" id="boundary" inkscape:connector-curvature="0" />
	<path style="fill:none;stroke:red;stroke-width:1px;stroke-linecap:butt;stroke-linejoin:miter;stroke-opacity:1" d="M 541.831,751.984 531.871,751.984 z" id="boundary" inkscape:connector-curvature="0" />
	<path style="fill:none;stroke:red;stroke-width:1px;stroke-linecap:butt;stroke-linejoin:miter;stroke-opacity:1" d="M 541.831,751.984 551.791,751.984 z" id="boundary" inkscape:connector-curvature="0" />
	<path style="fill:none;stroke:red;stroke-width:1px;stroke-linecap:butt;stroke-linejoin:miter;stroke-opacity:1" d="M 561.751,751.984 551.791,751.984 z" id="boundary" inkscape:connector-curvature="0" />
	<path style="fill:none;stroke:red;stroke-width:1px;stroke-linecap:butt;stroke-linejoin:miter;stroke-opacity:1" d="M 806.763,459.165 812.739,467.133 z" id="boundary" inkscape:connector-curvature="0" />
	<path style="fill:none;stroke:red;stroke-width:1px;stroke-linecap:butt;stroke-linejoin:miter;stroke-opacity:1" d="M 758.956,751.984 767.92,747.004 z" id="boundary" inkscape:connector-curvature="0" />
	<path style="fill:none;stroke:red;stroke-width:1px;stroke-linecap:butt;stroke-linejoin:miter;stroke-opacity:1" d="M 806.763,449.205 806.763,459.165 z" id="boundary" inkscape:connector-curvature="0" />
	<path style="fill:none;stroke:red;stroke-width:1px;stroke-linecap:butt;stroke-linejoin:miter;stroke-opacity:1" d="M 831.663,475.1 821.703,472.112 z" id="boundary" inkscape:connector-curvature="0" />
	<path style="fill:none;stroke:red;stroke-width:1px;stroke-linecap:butt;stroke-linejoin:miter;stroke-opacity:1" d="M 821.703,472.112 812.739,467.133 z" id="boundary" inkscape:connector-curvature="0" />
	<path style="fill:none;stroke:red;stroke-width:1px;stroke-linecap:butt;stroke-linejoin:miter;stroke-opacity:1" d="M 813.735,727.084 804.771,732.064 z" id="boundary" inkscape:connector-curvature="0" />
	<path style="fill:none;stroke:red;stroke-width:1px;stroke-linecap:butt;stroke-linejoin:miter;stroke-opacity:1" d="M 806.763,449.205 806.763,439.245 z" id="boundary" inkscape:connector-curvature="0" />
	<path style="fill:none;stroke:red;stroke-width:1px;stroke-linecap:butt;stroke-linejoin:miter;stroke-opacity:1" d="M 813.735,727.084 822.699,722.104 z" id="boundary" inkscape:connector-curvature="0" />
	<path style="fill:none;stroke:red;stroke-width:1px;stroke-linecap:butt;stroke-linejoin:miter;stroke-opacity:1" d="M 841.622,712.145 831.663,717.124 z" id="boundary" inkscape:connector-curvature="0" />
	<path style="fill:none;stroke:red;stroke-width:1px;stroke-linecap:butt;stroke-linejoin:miter;stroke-opacity:1" d="M 831.663,717.124 822.699,722.104 z" id="boundary" inkscape:connector-curvature="0" />
	<path style="fill:none;stroke:red;stroke-width:1px;stroke-linecap:butt;stroke-linejoin:miter;stroke-opacity:1" d="M 831.663,475.1 840.627,480.08 z" id="boundary" inkscape:connector-curvature="0" />
	<path style="fill:none;stroke:red;stroke-width:1px;stroke-linecap:butt;stroke-linejoin:miter;stroke-opacity:1" d="M 571.711,751.984 561.751,751.984 z" id="boundary" inkscape:connector-curvature="0" />
	<path style="fill:none;stroke:red;stroke-width:1px;stroke-linecap:butt;stroke-linejoin:miter;stroke-opacity:1" d="M 571.711,751.984 581.671,751.984 z" id="boundary" inkscape:connector-curvature="0" />
	<path style="fill:none;stroke:red;stroke-width:1px;stroke-linecap:butt;stroke-linejoin:miter;stroke-opacity:1" d="M 610.554,756.964 600.594,756.964 z" id="boundary" inkscape:connector-curvature="0" />
	<path style="fill:none;stroke:red;stroke-width:1px;stroke-linecap:butt;stroke-linejoin:miter;stroke-opacity:1" d="M 600.594,756.964 591.631,751.984 z" id="boundary" inkscape:connector-curvature="0" />
	<path style="fill:none;stroke:red;stroke-width:1px;stroke-linecap:butt;stroke-linejoin:miter;stroke-opacity:1" d="M 620.514,756.964 610.554,756.964 z" id="boundary" inkscape:connector-curvature="0" />
	<path style="fill:none;stroke:red;stroke-width:1px;stroke-linecap:butt;stroke-linejoin:miter;stroke-opacity:1" d="M 581.671,751.984 591.631,751.984 z" id="boundary" inkscape:connector-curvature="0" />
	<path style="fill:none;stroke:red;stroke-width:1px;stroke-linecap:butt;stroke-linejoin:miter;stroke-opacity:1" d="M 630.474,756.964 620.514,756.964 z" id="boundary" inkscape:connector-curvature="0" />
	<path style="fill:none;stroke:red;stroke-width:1px;stroke-linecap:butt;stroke-linejoin:miter;stroke-opacity:1" d="M 650.394,756.964 640.434,756.964 z" id="boundary" inkscape:connector-curvature="0" />
	<path style="fill:none;stroke:red;stroke-width:1px;stroke-linecap:butt;stroke-linejoin:miter;stroke-opacity:1" d="M 640.434,756.964 630.474,756.964 z" id="boundary" inkscape:connector-curvature="0" />
	<path style="fill:none;stroke:red;stroke-width:1px;stroke-linecap:butt;stroke-linejoin:miter;stroke-opacity:1" d="M 660.353,756.964 650.394,756.964 z" id="boundary" inkscape:connector-curvature="0" />
	<path style="fill:none;stroke:red;stroke-width:1px;stroke-linecap:butt;stroke-linejoin:miter;stroke-opacity:1" d="M 680.273,756.964 670.313,756.964 z" id="boundary" inkscape:connector-curvature="0" />
	<path style="fill:none;stroke:red;stroke-width:1px;stroke-linecap:butt;stroke-linejoin:miter;stroke-opacity:1" d="M 700.193,756.964 690.233,756.964 z" id="boundary" inkscape:connector-curvature="0" />
	<path style="fill:none;stroke:red;stroke-width:1px;stroke-linecap:butt;stroke-linejoin:miter;stroke-opacity:1" d="M 690.233,756.964 680.273,756.964 z" id="boundary" inkscape:connector-curvature="0" />
	<path style="fill:none;stroke:red;stroke-width:1px;stroke-linecap:butt;stroke-linejoin:miter;stroke-opacity:1" d="M 710.153,756.964 700.193,756.964 z" id="boundary" inkscape:connector-curvature="0" />
	<path style="fill:none;stroke:red;stroke-width:1px;stroke-linecap:butt;stroke-linejoin:miter;stroke-opacity:1" d="M 670.313,756.964 660.353,756.964 z" id="boundary" inkscape:connector-curvature="0" />
	<path style="fill:none;stroke:red;stroke-width:1px;stroke-linecap:butt;stroke-linejoin:miter;stroke-opacity:1" d="M 720.112,756.964 710.153,756.964 z" id="boundary" inkscape:connector-curvature="0" />
	<path style="fill:none;stroke:red;stroke-width:1px;stroke-linecap:butt;stroke-linejoin:miter;stroke-opacity:1" d="M 740.032,756.964 730.072,756.964 z" id="boundary" inkscape:connector-curvature="0" />
	<path style="fill:none;stroke:red;stroke-width:1px;stroke-linecap:butt;stroke-linejoin:miter;stroke-opacity:1" d="M 749.992,756.964 740.032,756.964 z" id="boundary" inkscape:connector-curvature="0" />
	<path style="fill:none;stroke:red;stroke-width:1px;stroke-linecap:butt;stroke-linejoin:miter;stroke-opacity:1" d="M 758.956,751.984 749.992,756.964 z" id="boundary" inkscape:connector-curvature="0" />
	<path style="fill:none;stroke:red;stroke-width:1px;stroke-linecap:butt;stroke-linejoin:miter;stroke-opacity:1" d="M 730.072,756.964 720.112,756.964 z" id="boundary" inkscape:connector-curvature="0" />
	<path style="fill:none;stroke:red;stroke-width:1px;stroke-linecap:butt;stroke-linejoin:miter;stroke-opacity:1" d="M 859.55,489.044 850.586,484.064 z" id="boundary" inkscape:connector-curvature="0" />
	<path style="fill:none;stroke:red;stroke-width:1px;stroke-linecap:butt;stroke-linejoin:miter;stroke-opacity:1" d="M 869.51,492.032 859.55,489.044 z" id="boundary" inkscape:connector-curvature="0" />
	<path style="fill:none;stroke:red;stroke-width:1px;stroke-linecap:butt;stroke-linejoin:miter;stroke-opacity:1" d="M 888.434,497.012 878.474,497.012 z" id="boundary" inkscape:connector-curvature="0" />
	<path style="fill:none;stroke:red;stroke-width:1px;stroke-linecap:butt;stroke-linejoin:miter;stroke-opacity:1" d="M 878.474,497.012 869.51,492.032 z" id="boundary" inkscape:connector-curvature="0" />
	<path style="fill:none;stroke:red;stroke-width:1px;stroke-linecap:butt;stroke-linejoin:miter;stroke-opacity:1" d="M 898.394,497.012 888.434,497.012 z" id="boundary" inkscape:connector-curvature="0" />
	<path style="fill:none;stroke:red;stroke-width:1px;stroke-linecap:butt;stroke-linejoin:miter;stroke-opacity:1" d="M 850.586,484.064 840.627,480.08 z" id="boundary" inkscape:connector-curvature="0" />
	<path style="fill:none;stroke:red;stroke-width:1px;stroke-linecap:butt;stroke-linejoin:miter;stroke-opacity:1" d="M 898.394,497.012 908.353,497.012 z" id="boundary" inkscape:connector-curvature="0" />
	<path style="fill:none;stroke:red;stroke-width:1px;stroke-linecap:butt;stroke-linejoin:miter;stroke-opacity:1" d="M 937.237,501.992 927.277,501.992 z" id="boundary" inkscape:connector-curvature="0" />
	<path style="fill:none;stroke:red;stroke-width:1px;stroke-linecap:butt;stroke-linejoin:miter;stroke-opacity:1" d="M 927.277,501.992 918.313,497.012 z" id="boundary" inkscape:connector-curvature="0" />
	<path style="fill:none;stroke:red;stroke-width:1px;stroke-linecap:butt;stroke-linejoin:miter;stroke-opacity:1" d="M 918.313,497.012 908.353,497.012 z" id="boundary" inkscape:connector-curvature="0" />
	<path style="fill:none;stroke:red;stroke-width:1px;stroke-linecap:butt;stroke-linejoin:miter;stroke-opacity:1" d="M 937.237,501.992 946.201,506.972 z" id="boundary" inkscape:connector-curvature="0" />
	<path style="fill:none;stroke:red;stroke-width:1px;stroke-linecap:butt;stroke-linejoin:miter;stroke-opacity:1" d="M 946.201,506.972 956.161,509.96 z" id="boundary" inkscape:connector-curvature="0" />
	<path style="fill:none;stroke:red;stroke-width:1px;stroke-linecap:butt;stroke-linejoin:miter;stroke-opacity:1" d="M 971.1,522.908 976.08,531.871 z" id="boundary" inkscape:connector-curvature="0" />
	<path style="fill:none;stroke:red;stroke-width:1px;stroke-linecap:butt;stroke-linejoin:miter;stroke-opacity:1" d="M 956.161,509.96 965.124,514.94 z" id="boundary" inkscape:connector-curvature="0" />
	<path style="fill:none;stroke:red;stroke-width:1px;stroke-linecap:butt;stroke-linejoin:miter;stroke-opacity:1" d="M 965.124,514.94 971.1,522.908 z" id="boundary" inkscape:connector-curvature="0" />
	<path style="fill:none;stroke:red;stroke-width:1px;stroke-linecap:butt;stroke-linejoin:miter;stroke-opacity:1" d="M 976.08,531.871 981.06,540.835 z" id="boundary" inkscape:connector-curvature="0" />
	<path style="fill:none;stroke:red;stroke-width:1px;stroke-linecap:butt;stroke-linejoin:miter;stroke-opacity:1" d="M 981.06,540.835 989.028,547.807 z" id="boundary" inkscape:connector-curvature="0" />
	<path style="fill:none;stroke:red;stroke-width:1px;stroke-linecap:butt;stroke-linejoin:miter;stroke-opacity:1" d="M 989.028,547.807 993.012,557.767 z" id="boundary" inkscape:connector-curvature="0" />
	<path style="fill:none;stroke:red;stroke-width:1px;stroke-linecap:butt;stroke-linejoin:miter;stroke-opacity:1" d="M 993.012,557.767 996,567.727 z" id="boundary" inkscape:connector-curvature="0" />
	<path style="fill:none;stroke:red;stroke-width:1px;stroke-linecap:butt;stroke-linejoin:miter;stroke-opacity:1" d="M 996,577.687 991.02,587.647 z" id="boundary" inkscape:connector-curvature="0" />
	<path style="fill:none;stroke:red;stroke-width:1px;stroke-linecap:butt;stroke-linejoin:miter;stroke-opacity:1" d="M 996,567.727 996,577.687 z" id="boundary" inkscape:connector-curvature="0" />
	<path style="fill:none;stroke:red;stroke-width:1px;stroke-linecap:butt;stroke-linejoin:miter;stroke-opacity:1" d="M 926.281,672.305 918.313,681.269 z" id="boundary" inkscape:connector-curvature="0" />
	<path style="fill:none;stroke:red;stroke-width:1px;stroke-linecap:butt;stroke-linejoin:miter;stroke-opacity:1" d="M 918.313,681.269 908.353,686.249 z" id="boundary" inkscape:connector-curvature="0" />
	<path style="fill:none;stroke:red;stroke-width:1px;stroke-linecap:butt;stroke-linejoin:miter;stroke-opacity:1" d="M 908.353,686.249 898.394,691.229 z" id="boundary" inkscape:connector-curvature="0" />
	<path style="fill:none;stroke:red;stroke-width:1px;stroke-linecap:butt;stroke-linejoin:miter;stroke-opacity:1" d="M 926.281,672.305 935.245,667.325 z" id="boundary" inkscape:connector-curvature="0" />
	<path style="fill:none;stroke:red;stroke-width:1px;stroke-linecap:butt;stroke-linejoin:miter;stroke-opacity:1" d="M 898.394,691.229 888.434,696.209 z" id="boundary" inkscape:connector-curvature="0" />
	<path style="fill:none;stroke:red;stroke-width:1px;stroke-linecap:butt;stroke-linejoin:miter;stroke-opacity:1" d="M 888.434,696.209 878.474,697.205 z" id="boundary" inkscape:connector-curvature="0" />
	<path style="fill:none;stroke:red;stroke-width:1px;stroke-linecap:butt;stroke-linejoin:miter;stroke-opacity:1" d="M 841.622,712.145 851.582,712.145 z" id="boundary" inkscape:connector-curvature="0" />
	<path style="fill:none;stroke:red;stroke-width:1px;stroke-linecap:butt;stroke-linejoin:miter;stroke-opacity:1" d="M 860.546,707.165 851.582,712.145 z" id="boundary" inkscape:connector-curvature="0" />
	<path style="fill:none;stroke:red;stroke-width:1px;stroke-linecap:butt;stroke-linejoin:miter;stroke-opacity:1" d="M 860.546,707.165 869.51,702.185 z" id="boundary" inkscape:connector-curvature="0" />
	<path style="fill:none;stroke:red;stroke-width:1px;stroke-linecap:butt;stroke-linejoin:miter;stroke-opacity:1" d="M 869.51,702.185 878.474,697.205 z" id="boundary" inkscape:connector-curvature="0" />
	<path style="fill:none;stroke:red;stroke-width:1px;stroke-linecap:butt;stroke-linejoin:miter;stroke-opacity:1" d="M 971.1,627.486 976.08,617.526 z" id="boundary" inkscape:connector-curvature="0" />
	<path style="fill:none;stroke:red;stroke-width:1px;stroke-linecap:butt;stroke-linejoin:miter;stroke-opacity:1" d="M 976.08,617.526 984.048,610.554 z" id="boundary" inkscape:connector-curvature="0" />
	<path style="fill:none;stroke:red;stroke-width:1px;stroke-linecap:butt;stroke-linejoin:miter;stroke-opacity:1" d="M 989.028,600.594 984.048,610.554 z" id="boundary" inkscape:connector-curvature="0" />
	<path style="fill:none;stroke:red;stroke-width:1px;stroke-linecap:butt;stroke-linejoin:miter;stroke-opacity:1" d="M 991.02,587.647 989.028,600.594 z" id="boundary" inkscape:connector-curvature="0" />
	<path style="fill:none;stroke:red;stroke-width:1px;stroke-linecap:butt;stroke-linejoin:miter;stroke-opacity:1" d="M 966.12,637.446 971.1,627.486 z" id="boundary" inkscape:connector-curvature="0" />
	<path style="fill:none;stroke:red;stroke-width:1px;stroke-linecap:butt;stroke-linejoin:miter;stroke-opacity:1" d="M 935.245,667.325 943.213,661.349 z" id="boundary" inkscape:connector-curvature="0" />
	<path style="fill:none;stroke:red;stroke-width:1px;stroke-linecap:butt;stroke-linejoin:miter;stroke-opacity:1" d="M 951.181,652.386 943.213,661.349 z" id="boundary" inkscape:connector-curvature="0" />
	<path style="fill:none;stroke:red;stroke-width:1px;stroke-linecap:butt;stroke-linejoin:miter;stroke-opacity:1" d="M 966.12,637.446 961.141,647.406 z" id="boundary" inkscape:connector-curvature="0" />
	<path style="fill:none;stroke:red;stroke-width:1px;stroke-linecap:butt;stroke-linejoin:miter;stroke-opacity:1" d="M 961.141,647.406 951.181,652.386 z" id="boundary" inkscape:connector-curvature="0" />
	<circle cx="4" cy="579.679" r="4" fill="#0" id="circle0"/>
	<circle cx="4" cy="589.639" r="4" fill="#0" id="circle1"/>
	<circle cx="4" cy="599.598" r="4" fill="#0" id="circle2"/>
	<circle cx="8.97992" cy="569.719" r="4" fill="#0" id="circle3"/>
	<circle cx="8.97992" cy="608.562" r="4" fill="#0" id="circle4"/>
	<circle cx="13.9598" cy="617.526" r="4" fill="#0" id="circle5"/>
	<circle cx="16.9478" cy="561.751" r="4" fill="#0" id="circle6"/>
	<circle cx="18.9398" cy="626.49" r="4" fill="#0" id="circle7"/>
	<circle cx="24.9157" cy="553.783" r="4" fill="#0" id="circle8"/>
	<circle cx="24.9157" cy="634.458" r="4" fill="#0" id="circle9"/>
	<circle cx="31.8876" cy="642.426" r="4" fill="#0" id="circle10"/>
	<circle cx="32.8835" cy="546.811" r="4" fill="#0" id="circle11"/>
	<circle cx="38.8594" cy="650.394" r="4" fill="#0" id="circle12"/>
	<circle cx="39.8554" cy="538.843" r="4" fill="#0" id="circle13"/>
	<circle cx="43.8394" cy="659.357" r="4" fill="#0" id="circle14"/>
	<circle cx="44.8353" cy="528.884" r="4" fill="#0" id="circle15"/>
	<circle cx="48.8193" cy="668.321" r="4" fill="#0" id="circle16"/>
	<circle cx="54.7952" cy="523.904" r="4" fill="#0" id="circle17"/>
	<circle cx="55.7912" cy="676.289" r="4" fill="#0" id="circle18"/>
	<circle cx="63.759" cy="682.265" r="4" fill="#0" id="circle19"/>
	<circle cx="64.755" cy="518.924" r="4" fill="#0" id="circle20"/>
	<circle cx="72.7229" cy="511.952" r="4" fill="#0" id="circle21"/>
	<circle cx="72.7229" cy="687.245" r="4" fill="#0" id="circle22"/>
	<circle cx="81.6867" cy="506.972" r="4" fill="#0" id="circle23"/>
	<circle cx="81.6867" cy="692.225" r="4" fill="#0" id="circle24"/>
	<circle cx="89.6546" cy="499.004" r="4" fill="#0" id="circle25"/>
	<circle cx="91.6466" cy="692.225" r="4" fill="#0" id="circle26"/>
	<circle cx="97.6225" cy="492.032" r="4" fill="#0" id="circle27"/>
	<circle cx="100.61" cy="697.205" r="4" fill="#0" id="circle28"/>
	<circle cx="106.586" cy="487.052" r="4" fill="#0" id="circle29"/>
	<circle cx="110.57" cy="700.193" r="4" fill="#0" id="circle30"/>
	<circle cx="115.55" cy="482.072" r="4" fill="#0" id="circle31"/>
	<circle cx="120.53" cy="702.185" r="4" fill="#0" id="circle32"/>
	<circle cx="124.514" cy="477.092" r="4" fill="#0" id="circle33"/>
	<circle cx="130.49" cy="702.185" r="4" fill="#0" id="circle34"/>
	<circle cx="133.478" cy="470.12" r="4" fill="#0" id="circle35"/>
	<circle cx="140.45" cy="705.173" r="4" fill="#0" id="circle36"/>
	<circle cx="141.446" cy="462.153" r="4" fill="#0" id="circle37"/>
	<circle cx="150.41" cy="707.165" r="4" fill="#0" id="circle38"/>
	<circle cx="151.406" cy="457.173" r="4" fill="#0" id="circle39"/>
	<circle cx="160.369" cy="707.165" r="4" fill="#0" id="circle40"/>
	<circle cx="161.365" cy="452.193" r="4" fill="#0" id="circle41"/>
	<circle cx="169.333" cy="712.145" r="4" fill="#0" id="circle42"/>
	<circle cx="170.329" cy="447.213" r="4" fill="#0" id="circle43"/>
	<circle cx="179.293" cy="442.233" r="4" fill="#0" id="circle44"/>
	<circle cx="179.293" cy="712.145" r="4" fill="#0" id="circle45"/>
	<circle cx="188.257" cy="435.261" r="4" fill="#0" id="circle46"/>
	<circle cx="188.257" cy="717.124" r="4" fill="#0" id="circle47"/>
	<circle cx="193.237" cy="420.321" r="4" fill="#0" id="circle48"/>
	<circle cx="198.217" cy="410.361" r="4" fill="#0" id="circle49"/>
	<circle cx="198.217" cy="717.124" r="4" fill="#0" id="circle50"/>
	<circle cx="203.197" cy="400.402" r="4" fill="#0" id="circle51"/>
	<circle cx="208.177" cy="717.124" r="4" fill="#0" id="circle52"/>
	<circle cx="213.157" cy="395.422" r="4" fill="#0" id="circle53"/>
	<circle cx="218.137" cy="717.124" r="4" fill="#0" id="circle54"/>
	<circle cx="221.124" cy="387.454" r="4" fill="#0" id="circle55"/>
	<circle cx="227.1" cy="722.104" r="4" fill="#0" id="circle56"/>
	<circle cx="231.084" cy="382.474" r="4" fill="#0" id="circle57"/>
	<circle cx="237.06" cy="722.104" r="4" fill="#0" id="circle58"/>
	<circle cx="241.044" cy="382.474" r="4" fill="#0" id="circle59"/>
	<circle cx="246.024" cy="727.084" r="4" fill="#0" id="circle60"/>
	<circle cx="250.008" cy="377.494" r="4" fill="#0" id="circle61"/>
	<circle cx="255.984" cy="727.084" r="4" fill="#0" id="circle62"/>
	<circle cx="259.968" cy="377.494" r="4" fill="#0" id="circle63"/>
	<circle cx="265.944" cy="727.084" r="4" fill="#0" id="circle64"/>
	<circle cx="268.932" cy="372.514" r="4" fill="#0" id="circle65"/>
	<circle cx="275.904" cy="727.084" r="4" fill="#0" id="circle66"/>
	<circle cx="278.892" cy="369.526" r="4" fill="#0" id="circle67"/>
	<circle cx="284.867" cy="732.064" r="4" fill="#0" id="circle68"/>
	<circle cx="288.851" cy="367.534" r="4" fill="#0" id="circle69"/>
	<circle cx="294.827" cy="732.064" r="4" fill="#0" id="circle70"/>
	<circle cx="298.811" cy="364.546" r="4" fill="#0" id="circle71"/>
	<circle cx="304.787" cy="732.064" r="4" fill="#0" id="circle72"/>
	<circle cx="308.771" cy="362.554" r="4" fill="#0" id="circle73"/>
	<circle cx="314.747" cy="735.052" r="4" fill="#0" id="circle74"/>
	<circle cx="317.735" cy="357.574" r="4" fill="#0" id="circle75"/>
	<circle cx="324.707" cy="737.044" r="4" fill="#0" id="circle76"/>
	<circle cx="327.695" cy="357.574" r="4" fill="#0" id="circle77"/>
	<circle cx="334.667" cy="737.044" r="4" fill="#0" id="circle78"/>
	<circle cx="337.655" cy="355.582" r="4" fill="#0" id="circle79"/>
	<circle cx="344.627" cy="740.032" r="4" fill="#0" id="circle80"/>
	<circle cx="347.614" cy="352.594" r="4" fill="#0" id="circle81"/>
	<circle cx="354.586" cy="742.024" r="4" fill="#0" id="circle82"/>
	<circle cx="357.574" cy="151.406" r="4" fill="#0" id="circle83"/>
	<circle cx="357.574" cy="161.365" r="4" fill="#0" id="circle84"/>
	<circle cx="357.574" cy="171.325" r="4" fill="#0" id="circle85"/>
	<circle cx="357.574" cy="350.602" r="4" fill="#0" id="circle86"/>
	<circle cx="362.554" cy="141.446" r="4" fill="#0" id="circle87"/>
	<circle cx="364.546" cy="742.024" r="4" fill="#0" id="circle88"/>
	<circle cx="365.542" cy="178.297" r="4" fill="#0" id="circle89"/>
	<circle cx="367.534" cy="347.614" r="4" fill="#0" id="circle90"/>
	<circle cx="372.514" cy="136.466" r="4" fill="#0" id="circle91"/>
	<circle cx="373.51" cy="184.273" r="4" fill="#0" id="circle92"/>
	<circle cx="374.506" cy="742.024" r="4" fill="#0" id="circle93"/>
	<circle cx="376.498" cy="342.635" r="4" fill="#0" id="circle94"/>
	<circle cx="382.474" cy="131.486" r="4" fill="#0" id="circle95"/>
	<circle cx="383.47" cy="184.273" r="4" fill="#0" id="circle96"/>
	<circle cx="384.466" cy="742.024" r="4" fill="#0" id="circle97"/>
	<circle cx="386.458" cy="342.635" r="4" fill="#0" id="circle98"/>
	<circle cx="392.434" cy="128.498" r="4" fill="#0" id="circle99"/>
	<circle cx="393.43" cy="184.273" r="4" fill="#0" id="circle100"/>
	<circle cx="394.426" cy="742.024" r="4" fill="#0" id="circle101"/>
	<circle cx="396.418" cy="342.635" r="4" fill="#0" id="circle102"/>
	<circle cx="401.398" cy="123.518" r="4" fill="#0" id="circle103"/>
	<circle cx="403.39" cy="184.273" r="4" fill="#0" id="circle104"/>
	<circle cx="403.39" cy="747.004" r="4" fill="#0" id="circle105"/>
	<circle cx="406.378" cy="342.635" r="4" fill="#0" id="circle106"/>
	<circle cx="411.357" cy="123.518" r="4" fill="#0" id="circle107"/>
	<circle cx="413.349" cy="184.273" r="4" fill="#0" id="circle108"/>
	<circle cx="413.349" cy="747.004" r="4" fill="#0" id="circle109"/>
	<circle cx="415.341" cy="337.655" r="4" fill="#0" id="circle110"/>
	<circle cx="420.321" cy="118.538" r="4" fill="#0" id="circle111"/>
	<circle cx="423.309" cy="184.273" r="4" fill="#0" id="circle112"/>
	<circle cx="423.309" cy="747.004" r="4" fill="#0" id="circle113"/>
	<circle cx="425.301" cy="337.655" r="4" fill="#0" id="circle114"/>
	<circle cx="430.281" cy="118.538" r="4" fill="#0" id="circle115"/>
	<circle cx="430.281" cy="327.695" r="4" fill="#0" id="circle116"/>
	<circle cx="433.269" cy="184.273" r="4" fill="#0" id="circle117"/>
	<circle cx="433.269" cy="747.004" r="4" fill="#0" id="circle118"/>
	<circle cx="435.261" cy="317.735" r="4" fill="#0" id="circle119"/>
	<circle cx="440.241" cy="118.538" r="4" fill="#0" id="circle120"/>
	<circle cx="442.233" cy="189.253" r="4" fill="#0" id="circle121"/>
	<circle cx="442.233" cy="199.213" r="4" fill="#0" id="circle122"/>
	<circle cx="442.233" cy="209.173" r="4" fill="#0" id="circle123"/>
	<circle cx="442.233" cy="219.133" r="4" fill="#0" id="circle124"/>
	<circle cx="442.233" cy="229.092" r="4" fill="#0" id="circle125"/>
	<circle cx="442.233" cy="239.052" r="4" fill="#0" id="circle126"/>
	<circle cx="442.233" cy="249.012" r="4" fill="#0" id="circle127"/>
	<circle cx="442.233" cy="258.972" r="4" fill="#0" id="circle128"/>
	<circle cx="442.233" cy="268.932" r="4" fill="#0" id="circle129"/>
	<circle cx="442.233" cy="278.892" r="4" fill="#0" id="circle130"/>
	<circle cx="442.233" cy="288.851" r="4" fill="#0" id="circle131"/>
	<circle cx="442.233" cy="298.811" r="4" fill="#0" id="circle132"/>
	<circle cx="442.233" cy="308.771" r="4" fill="#0" id="circle133"/>
	<circle cx="443.229" cy="747.004" r="4" fill="#0" id="circle134"/>
	<circle cx="450.201" cy="113.558" r="4" fill="#0" id="circle135"/>
	<circle cx="453.189" cy="747.004" r="4" fill="#0" id="circle136"/>
	<circle cx="460.161" cy="113.558" r="4" fill="#0" id="circle137"/>
	<circle cx="462.153" cy="751.984" r="4" fill="#0" id="circle138"/>
	<circle cx="470.12" cy="108.578" r="4" fill="#0" id="circle139"/>
	<circle cx="472.112" cy="751.984" r="4" fill="#0" id="circle140"/>
	<circle cx="477.092" cy="26.9076" r="4" fill="#0" id="circle141"/>
	<circle cx="477.092" cy="36.8675" r="4" fill="#0" id="circle142"/>
	<circle cx="477.092" cy="46.8273" r="4" fill="#0" id="circle143"/>
	<circle cx="477.092" cy="56.7871" r="4" fill="#0" id="circle144"/>
	<circle cx="477.092" cy="66.747" r="4" fill="#0" id="circle145"/>
	<circle cx="477.092" cy="76.7068" r="4" fill="#0" id="circle146"/>
	<circle cx="477.092" cy="86.6667" r="4" fill="#0" id="circle147"/>
	<circle cx="477.092" cy="96.6265" r="4" fill="#0" id="circle148"/>
	<circle cx="482.072" cy="16.9478" r="4" fill="#0" id="circle149"/>
	<circle cx="482.072" cy="751.984" r="4" fill="#0" id="circle150"/>
	<circle cx="492.032" cy="11.9679" r="4" fill="#0" id="circle151"/>
	<circle cx="492.032" cy="751.984" r="4" fill="#0" id="circle152"/>
	<circle cx="501.992" cy="8.97992" r="4" fill="#0" id="circle153"/>
	<circle cx="501.992" cy="751.984" r="4" fill="#0" id="circle154"/>
	<circle cx="510.956" cy="4" r="4" fill="#0" id="circle155"/>
	<circle cx="511.952" cy="751.984" r="4" fill="#0" id="circle156"/>
	<circle cx="519.92" cy="8.97992" r="4" fill="#0" id="circle157"/>
	<circle cx="521.912" cy="751.984" r="4" fill="#0" id="circle158"/>
	<circle cx="526.892" cy="16.9478" r="4" fill="#0" id="circle159"/>
	<circle cx="527.888" cy="26.9076" r="4" fill="#0" id="circle160"/>
	<circle cx="527.888" cy="36.8675" r="4" fill="#0" id="circle161"/>
	<circle cx="527.888" cy="46.8273" r="4" fill="#0" id="circle162"/>
	<circle cx="527.888" cy="56.7871" r="4" fill="#0" id="circle163"/>
	<circle cx="531.871" cy="66.747" r="4" fill="#0" id="circle164"/>
	<circle cx="531.871" cy="751.984" r="4" fill="#0" id="circle165"/>
	<circle cx="532.867" cy="76.7068" r="4" fill="#0" id="circle166"/>
	<circle cx="532.867" cy="86.6667" r="4" fill="#0" id="circle167"/>
	<circle cx="537.847" cy="95.6305" r="4" fill="#0" id="circle168"/>
	<circle cx="540.835" cy="105.59" r="4" fill="#0" id="circle169"/>
	<circle cx="541.831" cy="751.984" r="4" fill="#0" id="circle170"/>
	<circle cx="542.827" cy="184.273" r="4" fill="#0" id="circle171"/>
	<circle cx="542.827" cy="194.233" r="4" fill="#0" id="circle172"/>
	<circle cx="542.827" cy="204.193" r="4" fill="#0" id="circle173"/>
	<circle cx="542.827" cy="214.153" r="4" fill="#0" id="circle174"/>
	<circle cx="542.827" cy="224.112" r="4" fill="#0" id="circle175"/>
	<circle cx="542.827" cy="234.072" r="4" fill="#0" id="circle176"/>
	<circle cx="542.827" cy="244.032" r="4" fill="#0" id="circle177"/>
	<circle cx="542.827" cy="253.992" r="4" fill="#0" id="circle178"/>
	<circle cx="542.827" cy="263.952" r="4" fill="#0" id="circle179"/>
	<circle cx="542.827" cy="273.912" r="4" fill="#0" id="circle180"/>
	<circle cx="542.827" cy="283.871" r="4" fill="#0" id="circle181"/>
	<circle cx="542.827" cy="293.831" r="4" fill="#0" id="circle182"/>
	<circle cx="542.827" cy="303.791" r="4" fill="#0" id="circle183"/>
	<circle cx="542.827" cy="313.751" r="4" fill="#0" id="circle184"/>
	<circle cx="542.827" cy="323.711" r="4" fill="#0" id="circle185"/>
	<circle cx="545.815" cy="114.554" r="4" fill="#0" id="circle186"/>
	<circle cx="547.807" cy="332.675" r="4" fill="#0" id="circle187"/>
	<circle cx="551.791" cy="179.293" r="4" fill="#0" id="circle188"/>
	<circle cx="551.791" cy="751.984" r="4" fill="#0" id="circle189"/>
	<circle cx="552.787" cy="122.522" r="4" fill="#0" id="circle190"/>
	<circle cx="552.787" cy="341.639" r="4" fill="#0" id="circle191"/>
	<circle cx="560.755" cy="348.61" r="4" fill="#0" id="circle192"/>
	<circle cx="561.751" cy="179.293" r="4" fill="#0" id="circle193"/>
	<circle cx="561.751" cy="751.984" r="4" fill="#0" id="circle194"/>
	<circle cx="562.747" cy="123.518" r="4" fill="#0" id="circle195"/>
	<circle cx="570.715" cy="352.594" r="4" fill="#0" id="circle196"/>
	<circle cx="571.711" cy="179.293" r="4" fill="#0" id="circle197"/>
	<circle cx="571.711" cy="751.984" r="4" fill="#0" id="circle198"/>
	<circle cx="572.707" cy="123.518" r="4" fill="#0" id="circle199"/>
	<circle cx="580.675" cy="174.313" r="4" fill="#0" id="circle200"/>
	<circle cx="580.675" cy="352.594" r="4" fill="#0" id="circle201"/>
	<circle cx="581.671" cy="118.538" r="4" fill="#0" id="circle202"/>
	<circle cx="581.671" cy="751.984" r="4" fill="#0" id="circle203"/>
	<circle cx="590.635" cy="174.313" r="4" fill="#0" id="circle204"/>
	<circle cx="590.635" cy="353.59" r="4" fill="#0" id="circle205"/>
	<circle cx="591.631" cy="120.53" r="4" fill="#0" id="circle206"/>
	<circle cx="591.631" cy="751.984" r="4" fill="#0" id="circle207"/>
	<circle cx="600.594" cy="174.313" r="4" fill="#0" id="circle208"/>
	<circle cx="600.594" cy="357.574" r="4" fill="#0" id="circle209"/>
	<circle cx="600.594" cy="756.964" r="4" fill="#0" id="circle210"/>
	<circle cx="601.59" cy="123.518" r="4" fill="#0" id="circle211"/>
	<circle cx="610.554" cy="174.313" r="4" fill="#0" id="circle212"/>
	<circle cx="610.554" cy="357.574" r="4" fill="#0" id="circle213"/>
	<circle cx="610.554" cy="756.964" r="4" fill="#0" id="circle214"/>
	<circle cx="611.55" cy="123.518" r="4" fill="#0" id="circle215"/>
	<circle cx="620.514" cy="174.313" r="4" fill="#0" id="circle216"/>
	<circle cx="620.514" cy="358.57" r="4" fill="#0" id="circle217"/>
	<circle cx="620.514" cy="756.964" r="4" fill="#0" id="circle218"/>
	<circle cx="621.51" cy="123.518" r="4" fill="#0" id="circle219"/>
	<circle cx="629.478" cy="169.333" r="4" fill="#0" id="circle220"/>
	<circle cx="630.474" cy="128.498" r="4" fill="#0" id="circle221"/>
	<circle cx="630.474" cy="362.554" r="4" fill="#0" id="circle222"/>
	<circle cx="630.474" cy="756.964" r="4" fill="#0" id="circle223"/>
	<circle cx="637.446" cy="136.466" r="4" fill="#0" id="circle224"/>
	<circle cx="637.446" cy="159.373" r="4" fill="#0" id="circle225"/>
	<circle cx="640.434" cy="363.55" r="4" fill="#0" id="circle226"/>
	<circle cx="640.434" cy="756.964" r="4" fill="#0" id="circle227"/>
	<circle cx="642.426" cy="145.43" r="4" fill="#0" id="circle228"/>
	<circle cx="650.394" cy="367.534" r="4" fill="#0" id="circle229"/>
	<circle cx="650.394" cy="756.964" r="4" fill="#0" id="circle230"/>
	<circle cx="660.353" cy="367.534" r="4" fill="#0" id="circle231"/>
	<circle cx="660.353" cy="756.964" r="4" fill="#0" id="circle232"/>
	<circle cx="670.313" cy="368.53" r="4" fill="#0" id="circle233"/>
	<circle cx="670.313" cy="756.964" r="4" fill="#0" id="circle234"/>
	<circle cx="680.273" cy="372.514" r="4" fill="#0" id="circle235"/>
	<circle cx="680.273" cy="756.964" r="4" fill="#0" id="circle236"/>
	<circle cx="690.233" cy="372.514" r="4" fill="#0" id="circle237"/>
	<circle cx="690.233" cy="756.964" r="4" fill="#0" id="circle238"/>
	<circle cx="700.193" cy="372.514" r="4" fill="#0" id="circle239"/>
	<circle cx="700.193" cy="756.964" r="4" fill="#0" id="circle240"/>
	<circle cx="710.153" cy="372.514" r="4" fill="#0" id="circle241"/>
	<circle cx="710.153" cy="756.964" r="4" fill="#0" id="circle242"/>
	<circle cx="720.112" cy="372.514" r="4" fill="#0" id="circle243"/>
	<circle cx="720.112" cy="756.964" r="4" fill="#0" id="circle244"/>
	<circle cx="730.072" cy="372.514" r="4" fill="#0" id="circle245"/>
	<circle cx="730.072" cy="756.964" r="4" fill="#0" id="circle246"/>
	<circle cx="740.032" cy="372.514" r="4" fill="#0" id="circle247"/>
	<circle cx="740.032" cy="756.964" r="4" fill="#0" id="circle248"/>
	<circle cx="749.992" cy="372.514" r="4" fill="#0" id="circle249"/>
	<circle cx="749.992" cy="756.964" r="4" fill="#0" id="circle250"/>
	<circle cx="758.956" cy="751.984" r="4" fill="#0" id="circle251"/>
	<circle cx="759.952" cy="372.514" r="4" fill="#0" id="circle252"/>
	<circle cx="767.92" cy="747.004" r="4" fill="#0" id="circle253"/>
	<circle cx="769.912" cy="372.514" r="4" fill="#0" id="circle254"/>
	<circle cx="777.88" cy="747.004" r="4" fill="#0" id="circle255"/>
	<circle cx="779.871" cy="372.514" r="4" fill="#0" id="circle256"/>
	<circle cx="786.843" cy="742.024" r="4" fill="#0" id="circle257"/>
	<circle cx="788.835" cy="377.494" r="4" fill="#0" id="circle258"/>
	<circle cx="795.807" cy="737.044" r="4" fill="#0" id="circle259"/>
	<circle cx="797.799" cy="382.474" r="4" fill="#0" id="circle260"/>
	<circle cx="804.771" cy="732.064" r="4" fill="#0" id="circle261"/>
	<circle cx="805.767" cy="389.446" r="4" fill="#0" id="circle262"/>
	<circle cx="806.763" cy="399.406" r="4" fill="#0" id="circle263"/>
	<circle cx="806.763" cy="409.365" r="4" fill="#0" id="circle264"/>
	<circle cx="806.763" cy="419.325" r="4" fill="#0" id="circle265"/>
	<circle cx="806.763" cy="429.285" r="4" fill="#0" id="circle266"/>
	<circle cx="806.763" cy="439.245" r="4" fill="#0" id="circle267"/>
	<circle cx="806.763" cy="449.205" r="4" fill="#0" id="circle268"/>
	<circle cx="806.763" cy="459.165" r="4" fill="#0" id="circle269"/>
	<circle cx="812.739" cy="467.133" r="4" fill="#0" id="circle270"/>
	<circle cx="813.735" cy="727.084" r="4" fill="#0" id="circle271"/>
	<circle cx="821.703" cy="472.112" r="4" fill="#0" id="circle272"/>
	<circle cx="822.699" cy="722.104" r="4" fill="#0" id="circle273"/>
	<circle cx="831.663" cy="475.1" r="4" fill="#0" id="circle274"/>
	<circle cx="831.663" cy="717.124" r="4" fill="#0" id="circle275"/>
	<circle cx="840.627" cy="480.08" r="4" fill="#0" id="circle276"/>
	<circle cx="841.622" cy="712.145" r="4" fill="#0" id="circle277"/>
	<circle cx="850.586" cy="484.064" r="4" fill="#0" id="circle278"/>
	<circle cx="851.582" cy="712.145" r="4" fill="#0" id="circle279"/>
	<circle cx="859.55" cy="489.044" r="4" fill="#0" id="circle280"/>
	<circle cx="860.546" cy="707.165" r="4" fill="#0" id="circle281"/>
	<circle cx="869.51" cy="492.032" r="4" fill="#0" id="circle282"/>
	<circle cx="869.51" cy="702.185" r="4" fill="#0" id="circle283"/>
	<circle cx="878.474" cy="497.012" r="4" fill="#0" id="circle284"/>
	<circle cx="878.474" cy="697.205" r="4" fill="#0" id="circle285"/>
	<circle cx="888.434" cy="497.012" r="4" fill="#0" id="circle286"/>
	<circle cx="888.434" cy="696.209" r="4" fill="#0" id="circle287"/>
	<circle cx="898.394" cy="497.012" r="4" fill="#0" id="circle288"/>
	<circle cx="898.394" cy="691.229" r="4" fill="#0" id="circle289"/>
	<circle cx="908.353" cy="497.012" r="4" fill="#0" id="circle290"/>
	<circle cx="908.353" cy="686.249" r="4" fill="#0" id="circle291"/>
	<circle cx="918.313" cy="497.012" r="4" fill="#0" id="circle292"/>
	<circle cx="918.313" cy="681.269" r="4" fill="#0" id="circle293"/>
	<circle cx="926.281" cy="672.305" r="4" fill="#0" id="circle294"/>
	<circle cx="927.277" cy="501.992" r="4" fill="#0" id="circle295"/>
	<circle cx="935.245" cy="667.325" r="4" fill="#0" id="circle296"/>
	<circle cx="937.237" cy="501.992" r="4" fill="#0" id="circle297"/>
	<circle cx="943.213" cy="661.349" r="4" fill="#0" id="circle298"/>
	<circle cx="946.201" cy="506.972" r="4" fill="#0" id="circle299"/>
	<circle cx="951.181" cy="652.386" r="4" fill="#0" id="circle300"/>
	<circle cx="956.161" cy="509.96" r="4" fill="#0" id="circle301"/>
	<circle cx="961.141" cy="647.406" r="4" fill="#0" id="circle302"/>
	<circle cx="965.124" cy="514.94" r="4" fill="#0" id="circle303"/>
	<circle cx="966.12" cy="637.446" r="4" fill="#0" id="circle304"/>
	<circle cx="971.1" cy="522.908" r="4" fill="#0" id="circle305"/>
	<circle cx="971.1" cy="627.486" r="4" fill="#0" id="circle306"/>
	<circle cx="976.08" cy="531.871" r="4" fill="#0" id="circle307"/>
	<circle cx="976.08" cy="617.526" r="4" fill="#0" id="circle308"/>
	<circle cx="981.06" cy="540.835" r="4" fill="#0" id="circle309"/>
	<circle cx="984.048" cy="610.554" r="4" fill="#0" id="circle310"/>
	<circle cx="989.028" cy="547.807" r="4" fill="#0" id="circle311"/>
	<circle cx="989.028" cy="600.594" r="4" fill="#0" id="circle312"/>
	<circle cx="991.02" cy="587.647" r="4" fill="#0" id="circle313"/>
	<circle cx="993.012" cy="557.767" r="4" fill="#0" id="circle314"/>
	<circle cx="996" cy="567.727" r="4" fill="#0" id="circle315"/>
	<circle cx="996" cy="577.687" r="4" fill="#0" id="circle316"/>
	</g>
</svg>