<?xml version="1.0" encoding="UTF-8" standalone="no"?>
<!-- Created with CurveBenchmark -->
<svg
	xmlns:dc="http://purl.org/dc/elements/1.1/"
	xmlns:cc="http://creativecommons.org/ns#"
	xmlns:rdf="http://www.w3.org/1999/02/22-rdf-syntax-ns#"
	xmlns:svg="http://www.w3.org/2000/svg"
	xmlns="http://www.w3.org/2000/svg"
	xmlns:sodipodi="http://sodipodi.sourceforge.net/DTD/sodipodi-0.dtd"
	xmlns:inkscape="http://www.inkscape.org/namespaces/inkscape"
	width="1000"
	height="1000"
	id="svg2"
	version="1.1"
	sodipodi:docname="manifold/nncrust-hammer055.png.txt">
<defs
	id="defs4" />
<metadata
	id="metadata7">
	<rdf:RDF>
		<cc:Work
			rdf:about="">
			<dc:format>image/svg+xml</dc:format>
			<dc:type
				rdf:resource="http://purl.org/dc/dcmitype/StillImage" />
			<dc:title></dc:title>
		</cc:Work>
	</rdf:RDF>
</metadata>
<g
	inkscape:label="Layer 1"
	inkscape:groupmode="layer"
	id="layer1">
	<path style="fill:none;stroke:red;stroke-width:1px;stroke-linecap:butt;stroke-linejoin:miter;stroke-opacity:1" d="M 21.2522,101.762 35.629,75.8841 z" id="boundary" inkscape:connector-curvature="0" />
	<path style="fill:none;stroke:red;stroke-width:1px;stroke-linecap:butt;stroke-linejoin:miter;stroke-opacity:1" d="M 35.629,75.8841 50.0058,50.0058 z" id="boundary" inkscape:connector-curvature="0" />
	<path style="fill:none;stroke:red;stroke-width:1px;stroke-linecap:butt;stroke-linejoin:miter;stroke-opacity:1" d="M 50.0058,50.0058 67.258,27.0029 z" id="boundary" inkscape:connector-curvature="0" />
	<path style="fill:none;stroke:red;stroke-width:1px;stroke-linecap:butt;stroke-linejoin:miter;stroke-opacity:1" d="M 4,165.02 9.75072,136.267 z" id="boundary" inkscape:connector-curvature="0" />
	<path style="fill:none;stroke:red;stroke-width:1px;stroke-linecap:butt;stroke-linejoin:miter;stroke-opacity:1" d="M 29.8783,179.397 4,165.02 z" id="boundary" inkscape:connector-curvature="0" />
	<path style="fill:none;stroke:red;stroke-width:1px;stroke-linecap:butt;stroke-linejoin:miter;stroke-opacity:1" d="M 29.8783,179.397 58.6319,179.397 z" id="boundary" inkscape:connector-curvature="0" />
	<path style="fill:none;stroke:red;stroke-width:1px;stroke-linecap:butt;stroke-linejoin:miter;stroke-opacity:1" d="M 9.75072,136.267 21.2522,101.762 z" id="boundary" inkscape:connector-curvature="0" />
	<path style="fill:none;stroke:red;stroke-width:1px;stroke-linecap:butt;stroke-linejoin:miter;stroke-opacity:1" d="M 58.6319,179.397 87.3855,179.397 z" id="boundary" inkscape:connector-curvature="0" />
	<path style="fill:none;stroke:red;stroke-width:1px;stroke-linecap:butt;stroke-linejoin:miter;stroke-opacity:1" d="M 67.258,27.0029 90.2609,4 z" id="boundary" inkscape:connector-curvature="0" />
	<path style="fill:none;stroke:red;stroke-width:1px;stroke-linecap:butt;stroke-linejoin:miter;stroke-opacity:1" d="M 90.2609,4 119.014,4 z" id="boundary" inkscape:connector-curvature="0" />
	<path style="fill:none;stroke:red;stroke-width:1px;stroke-linecap:butt;stroke-linejoin:miter;stroke-opacity:1" d="M 113.264,193.774 87.3855,179.397 z" id="boundary" inkscape:connector-curvature="0" />
	<path style="fill:none;stroke:red;stroke-width:1px;stroke-linecap:butt;stroke-linejoin:miter;stroke-opacity:1" d="M 121.89,251.281 119.014,222.528 z" id="boundary" inkscape:connector-curvature="0" />
	<path style="fill:none;stroke:red;stroke-width:1px;stroke-linecap:butt;stroke-linejoin:miter;stroke-opacity:1" d="M 119.014,222.528 113.264,193.774 z" id="boundary" inkscape:connector-curvature="0" />
	<path style="fill:none;stroke:red;stroke-width:1px;stroke-linecap:butt;stroke-linejoin:miter;stroke-opacity:1" d="M 124.765,280.035 121.89,251.281 z" id="boundary" inkscape:connector-curvature="0" />
	<path style="fill:none;stroke:red;stroke-width:1px;stroke-linecap:butt;stroke-linejoin:miter;stroke-opacity:1" d="M 124.765,280.035 124.765,308.788 z" id="boundary" inkscape:connector-curvature="0" />
	<path style="fill:none;stroke:red;stroke-width:1px;stroke-linecap:butt;stroke-linejoin:miter;stroke-opacity:1" d="M 124.765,337.542 124.765,366.296 z" id="boundary" inkscape:connector-curvature="0" />
	<path style="fill:none;stroke:red;stroke-width:1px;stroke-linecap:butt;stroke-linejoin:miter;stroke-opacity:1" d="M 124.765,395.049 124.765,366.296 z" id="boundary" inkscape:connector-curvature="0" />
	<path style="fill:none;stroke:red;stroke-width:1px;stroke-linecap:butt;stroke-linejoin:miter;stroke-opacity:1" d="M 124.765,337.542 124.765,308.788 z" id="boundary" inkscape:connector-curvature="0" />
	<path style="fill:none;stroke:red;stroke-width:1px;stroke-linecap:butt;stroke-linejoin:miter;stroke-opacity:1" d="M 113.264,441.055 124.765,395.049 z" id="boundary" inkscape:connector-curvature="0" />
	<path style="fill:none;stroke:red;stroke-width:1px;stroke-linecap:butt;stroke-linejoin:miter;stroke-opacity:1" d="M 96.0116,550.319 96.0116,579.072 z" id="boundary" inkscape:connector-curvature="0" />
	<path style="fill:none;stroke:red;stroke-width:1px;stroke-linecap:butt;stroke-linejoin:miter;stroke-opacity:1" d="M 96.0116,550.319 96.0116,521.565 z" id="boundary" inkscape:connector-curvature="0" />
	<path style="fill:none;stroke:red;stroke-width:1px;stroke-linecap:butt;stroke-linejoin:miter;stroke-opacity:1" d="M 96.0116,607.826 96.0116,636.58 z" id="boundary" inkscape:connector-curvature="0" />
	<path style="fill:none;stroke:red;stroke-width:1px;stroke-linecap:butt;stroke-linejoin:miter;stroke-opacity:1" d="M 96.0116,607.826 96.0116,579.072 z" id="boundary" inkscape:connector-curvature="0" />
	<path style="fill:none;stroke:red;stroke-width:1px;stroke-linecap:butt;stroke-linejoin:miter;stroke-opacity:1" d="M 101.762,469.809 113.264,441.055 z" id="boundary" inkscape:connector-curvature="0" />
	<path style="fill:none;stroke:red;stroke-width:1px;stroke-linecap:butt;stroke-linejoin:miter;stroke-opacity:1" d="M 96.0116,636.58 96.0116,665.333 z" id="boundary" inkscape:connector-curvature="0" />
	<path style="fill:none;stroke:red;stroke-width:1px;stroke-linecap:butt;stroke-linejoin:miter;stroke-opacity:1" d="M 96.0116,694.087 96.0116,722.841 z" id="boundary" inkscape:connector-curvature="0" />
	<path style="fill:none;stroke:red;stroke-width:1px;stroke-linecap:butt;stroke-linejoin:miter;stroke-opacity:1" d="M 96.0116,665.333 96.0116,694.087 z" id="boundary" inkscape:connector-curvature="0" />
	<path style="fill:none;stroke:red;stroke-width:1px;stroke-linecap:butt;stroke-linejoin:miter;stroke-opacity:1" d="M 96.0116,722.841 96.0116,751.594 z" id="boundary" inkscape:connector-curvature="0" />
	<path style="fill:none;stroke:red;stroke-width:1px;stroke-linecap:butt;stroke-linejoin:miter;stroke-opacity:1" d="M 96.0116,780.348 96.0116,751.594 z" id="boundary" inkscape:connector-curvature="0" />
	<path style="fill:none;stroke:red;stroke-width:1px;stroke-linecap:butt;stroke-linejoin:miter;stroke-opacity:1" d="M 96.0116,780.348 96.0116,809.101 z" id="boundary" inkscape:connector-curvature="0" />
	<path style="fill:none;stroke:red;stroke-width:1px;stroke-linecap:butt;stroke-linejoin:miter;stroke-opacity:1" d="M 96.0116,837.855 96.0116,809.101 z" id="boundary" inkscape:connector-curvature="0" />
	<path style="fill:none;stroke:red;stroke-width:1px;stroke-linecap:butt;stroke-linejoin:miter;stroke-opacity:1" d="M 96.0116,866.609 96.0116,837.855 z" id="boundary" inkscape:connector-curvature="0" />
	<path style="fill:none;stroke:red;stroke-width:1px;stroke-linecap:butt;stroke-linejoin:miter;stroke-opacity:1" d="M 96.0116,521.565 101.762,469.809 z" id="boundary" inkscape:connector-curvature="0" />
	<path style="fill:none;stroke:red;stroke-width:1px;stroke-linecap:butt;stroke-linejoin:miter;stroke-opacity:1" d="M 96.0116,866.609 96.0116,895.362 z" id="boundary" inkscape:connector-curvature="0" />
	<path style="fill:none;stroke:red;stroke-width:1px;stroke-linecap:butt;stroke-linejoin:miter;stroke-opacity:1" d="M 96.0116,924.116 96.0116,895.362 z" id="boundary" inkscape:connector-curvature="0" />
	<path style="fill:none;stroke:red;stroke-width:1px;stroke-linecap:butt;stroke-linejoin:miter;stroke-opacity:1" d="M 133.391,996 104.638,996 z" id="boundary" inkscape:connector-curvature="0" />
	<path style="fill:none;stroke:red;stroke-width:1px;stroke-linecap:butt;stroke-linejoin:miter;stroke-opacity:1" d="M 104.638,996 90.2609,970.122 z" id="boundary" inkscape:connector-curvature="0" />
	<path style="fill:none;stroke:red;stroke-width:1px;stroke-linecap:butt;stroke-linejoin:miter;stroke-opacity:1" d="M 162.145,996 133.391,996 z" id="boundary" inkscape:connector-curvature="0" />
	<path style="fill:none;stroke:red;stroke-width:1px;stroke-linecap:butt;stroke-linejoin:miter;stroke-opacity:1" d="M 90.2609,970.122 96.0116,924.116 z" id="boundary" inkscape:connector-curvature="0" />
	<path style="fill:none;stroke:red;stroke-width:1px;stroke-linecap:butt;stroke-linejoin:miter;stroke-opacity:1" d="M 119.014,4 147.768,4 z" id="boundary" inkscape:connector-curvature="0" />
	<path style="fill:none;stroke:red;stroke-width:1px;stroke-linecap:butt;stroke-linejoin:miter;stroke-opacity:1" d="M 196.649,262.783 196.649,291.536 z" id="boundary" inkscape:connector-curvature="0" />
	<path style="fill:none;stroke:red;stroke-width:1px;stroke-linecap:butt;stroke-linejoin:miter;stroke-opacity:1" d="M 202.4,205.275 202.4,234.029 z" id="boundary" inkscape:connector-curvature="0" />
	<path style="fill:none;stroke:red;stroke-width:1px;stroke-linecap:butt;stroke-linejoin:miter;stroke-opacity:1" d="M 196.649,262.783 202.4,234.029 z" id="boundary" inkscape:connector-curvature="0" />
	<path style="fill:none;stroke:red;stroke-width:1px;stroke-linecap:butt;stroke-linejoin:miter;stroke-opacity:1" d="M 196.649,320.29 196.649,291.536 z" id="boundary" inkscape:connector-curvature="0" />
	<path style="fill:none;stroke:red;stroke-width:1px;stroke-linecap:butt;stroke-linejoin:miter;stroke-opacity:1" d="M 213.901,159.27 202.4,205.275 z" id="boundary" inkscape:connector-curvature="0" />
	<path style="fill:none;stroke:red;stroke-width:1px;stroke-linecap:butt;stroke-linejoin:miter;stroke-opacity:1" d="M 196.649,320.29 196.649,349.043 z" id="boundary" inkscape:connector-curvature="0" />
	<path style="fill:none;stroke:red;stroke-width:1px;stroke-linecap:butt;stroke-linejoin:miter;stroke-opacity:1" d="M 196.649,377.797 196.649,349.043 z" id="boundary" inkscape:connector-curvature="0" />
	<path style="fill:none;stroke:red;stroke-width:1px;stroke-linecap:butt;stroke-linejoin:miter;stroke-opacity:1" d="M 202.4,435.304 196.649,406.551 z" id="boundary" inkscape:connector-curvature="0" />
	<path style="fill:none;stroke:red;stroke-width:1px;stroke-linecap:butt;stroke-linejoin:miter;stroke-opacity:1" d="M 196.649,406.551 196.649,377.797 z" id="boundary" inkscape:connector-curvature="0" />
	<path style="fill:none;stroke:red;stroke-width:1px;stroke-linecap:butt;stroke-linejoin:miter;stroke-opacity:1" d="M 213.901,464.058 202.4,435.304 z" id="boundary" inkscape:connector-curvature="0" />
	<path style="fill:none;stroke:red;stroke-width:1px;stroke-linecap:butt;stroke-linejoin:miter;stroke-opacity:1" d="M 205.275,4 234.029,4 z" id="boundary" inkscape:connector-curvature="0" />
	<path style="fill:none;stroke:red;stroke-width:1px;stroke-linecap:butt;stroke-linejoin:miter;stroke-opacity:1" d="M 262.783,4 288.661,18.3768 z" id="boundary" inkscape:connector-curvature="0" />
	<path style="fill:none;stroke:red;stroke-width:1px;stroke-linecap:butt;stroke-linejoin:miter;stroke-opacity:1" d="M 234.029,4 262.783,4 z" id="boundary" inkscape:connector-curvature="0" />
	<path style="fill:none;stroke:red;stroke-width:1px;stroke-linecap:butt;stroke-linejoin:miter;stroke-opacity:1" d="M 288.661,18.3768 300.162,47.1304 z" id="boundary" inkscape:connector-curvature="0" />
	<path style="fill:none;stroke:red;stroke-width:1px;stroke-linecap:butt;stroke-linejoin:miter;stroke-opacity:1" d="M 225.403,101.762 225.403,130.516 z" id="boundary" inkscape:connector-curvature="0" />
	<path style="fill:none;stroke:red;stroke-width:1px;stroke-linecap:butt;stroke-linejoin:miter;stroke-opacity:1" d="M 225.403,130.516 213.901,159.27 z" id="boundary" inkscape:connector-curvature="0" />
	<path style="fill:none;stroke:red;stroke-width:1px;stroke-linecap:butt;stroke-linejoin:miter;stroke-opacity:1" d="M 254.157,93.1362 282.91,84.5101 z" id="boundary" inkscape:connector-curvature="0" />
	<path style="fill:none;stroke:red;stroke-width:1px;stroke-linecap:butt;stroke-linejoin:miter;stroke-opacity:1" d="M 225.403,101.762 254.157,93.1362 z" id="boundary" inkscape:connector-curvature="0" />
	<path style="fill:none;stroke:red;stroke-width:1px;stroke-linecap:butt;stroke-linejoin:miter;stroke-opacity:1" d="M 300.162,47.1304 282.91,84.5101 z" id="boundary" inkscape:connector-curvature="0" />
	<path style="fill:none;stroke:red;stroke-width:1px;stroke-linecap:butt;stroke-linejoin:miter;stroke-opacity:1" d="M 176.522,4 205.275,4 z" id="boundary" inkscape:connector-curvature="0" />
	<path style="fill:none;stroke:red;stroke-width:1px;stroke-linecap:butt;stroke-linejoin:miter;stroke-opacity:1" d="M 219.652,492.812 225.403,521.565 z" id="boundary" inkscape:connector-curvature="0" />
	<path style="fill:none;stroke:red;stroke-width:1px;stroke-linecap:butt;stroke-linejoin:miter;stroke-opacity:1" d="M 219.652,492.812 213.901,464.058 z" id="boundary" inkscape:connector-curvature="0" />
	<path style="fill:none;stroke:red;stroke-width:1px;stroke-linecap:butt;stroke-linejoin:miter;stroke-opacity:1" d="M 225.403,521.565 225.403,550.319 z" id="boundary" inkscape:connector-curvature="0" />
	<path style="fill:none;stroke:red;stroke-width:1px;stroke-linecap:butt;stroke-linejoin:miter;stroke-opacity:1" d="M 225.403,579.072 225.403,550.319 z" id="boundary" inkscape:connector-curvature="0" />
	<path style="fill:none;stroke:red;stroke-width:1px;stroke-linecap:butt;stroke-linejoin:miter;stroke-opacity:1" d="M 225.403,579.072 225.403,607.826 z" id="boundary" inkscape:connector-curvature="0" />
	<path style="fill:none;stroke:red;stroke-width:1px;stroke-linecap:butt;stroke-linejoin:miter;stroke-opacity:1" d="M 190.899,996 162.145,996 z" id="boundary" inkscape:connector-curvature="0" />
	<path style="fill:none;stroke:red;stroke-width:1px;stroke-linecap:butt;stroke-linejoin:miter;stroke-opacity:1" d="M 219.652,996 190.899,996 z" id="boundary" inkscape:connector-curvature="0" />
	<path style="fill:none;stroke:red;stroke-width:1px;stroke-linecap:butt;stroke-linejoin:miter;stroke-opacity:1" d="M 225.403,952.87 219.652,996 z" id="boundary" inkscape:connector-curvature="0" />
	<path style="fill:none;stroke:red;stroke-width:1px;stroke-linecap:butt;stroke-linejoin:miter;stroke-opacity:1" d="M 225.403,636.58 225.403,665.333 z" id="boundary" inkscape:connector-curvature="0" />
	<path style="fill:none;stroke:red;stroke-width:1px;stroke-linecap:butt;stroke-linejoin:miter;stroke-opacity:1" d="M 225.403,636.58 225.403,607.826 z" id="boundary" inkscape:connector-curvature="0" />
	<path style="fill:none;stroke:red;stroke-width:1px;stroke-linecap:butt;stroke-linejoin:miter;stroke-opacity:1" d="M 225.403,665.333 225.403,694.087 z" id="boundary" inkscape:connector-curvature="0" />
	<path style="fill:none;stroke:red;stroke-width:1px;stroke-linecap:butt;stroke-linejoin:miter;stroke-opacity:1" d="M 225.403,694.087 225.403,722.841 z" id="boundary" inkscape:connector-curvature="0" />
	<path style="fill:none;stroke:red;stroke-width:1px;stroke-linecap:butt;stroke-linejoin:miter;stroke-opacity:1" d="M 225.403,751.594 225.403,780.348 z" id="boundary" inkscape:connector-curvature="0" />
	<path style="fill:none;stroke:red;stroke-width:1px;stroke-linecap:butt;stroke-linejoin:miter;stroke-opacity:1" d="M 225.403,751.594 225.403,722.841 z" id="boundary" inkscape:connector-curvature="0" />
	<path style="fill:none;stroke:red;stroke-width:1px;stroke-linecap:butt;stroke-linejoin:miter;stroke-opacity:1" d="M 225.403,780.348 225.403,809.101 z" id="boundary" inkscape:connector-curvature="0" />
	<path style="fill:none;stroke:red;stroke-width:1px;stroke-linecap:butt;stroke-linejoin:miter;stroke-opacity:1" d="M 225.403,837.855 225.403,866.609 z" id="boundary" inkscape:connector-curvature="0" />
	<path style="fill:none;stroke:red;stroke-width:1px;stroke-linecap:butt;stroke-linejoin:miter;stroke-opacity:1" d="M 225.403,837.855 225.403,809.101 z" id="boundary" inkscape:connector-curvature="0" />
	<path style="fill:none;stroke:red;stroke-width:1px;stroke-linecap:butt;stroke-linejoin:miter;stroke-opacity:1" d="M 225.403,866.609 225.403,895.362 z" id="boundary" inkscape:connector-curvature="0" />
	<path style="fill:none;stroke:red;stroke-width:1px;stroke-linecap:butt;stroke-linejoin:miter;stroke-opacity:1" d="M 225.403,924.116 225.403,895.362 z" id="boundary" inkscape:connector-curvature="0" />
	<path style="fill:none;stroke:red;stroke-width:1px;stroke-linecap:butt;stroke-linejoin:miter;stroke-opacity:1" d="M 225.403,952.87 225.403,924.116 z" id="boundary" inkscape:connector-curvature="0" />
	<path style="fill:none;stroke:red;stroke-width:1px;stroke-linecap:butt;stroke-linejoin:miter;stroke-opacity:1" d="M 147.768,4 176.522,4 z" id="boundary" inkscape:connector-curvature="0" />
	<circle cx="4" cy="165.02" r="4" fill="#0" id="circle0"/>
	<circle cx="9.75072" cy="136.267" r="4" fill="#0" id="circle1"/>
	<circle cx="21.2522" cy="101.762" r="4" fill="#0" id="circle2"/>
	<circle cx="29.8783" cy="179.397" r="4" fill="#0" id="circle3"/>
	<circle cx="35.629" cy="75.8841" r="4" fill="#0" id="circle4"/>
	<circle cx="50.0058" cy="50.0058" r="4" fill="#0" id="circle5"/>
	<circle cx="58.6319" cy="179.397" r="4" fill="#0" id="circle6"/>
	<circle cx="67.258" cy="27.0029" r="4" fill="#0" id="circle7"/>
	<circle cx="87.3855" cy="179.397" r="4" fill="#0" id="circle8"/>
	<circle cx="90.2609" cy="4" r="4" fill="#0" id="circle9"/>
	<circle cx="90.2609" cy="970.122" r="4" fill="#0" id="circle10"/>
	<circle cx="96.0116" cy="521.565" r="4" fill="#0" id="circle11"/>
	<circle cx="96.0116" cy="550.319" r="4" fill="#0" id="circle12"/>
	<circle cx="96.0116" cy="579.072" r="4" fill="#0" id="circle13"/>
	<circle cx="96.0116" cy="607.826" r="4" fill="#0" id="circle14"/>
	<circle cx="96.0116" cy="636.58" r="4" fill="#0" id="circle15"/>
	<circle cx="96.0116" cy="665.333" r="4" fill="#0" id="circle16"/>
	<circle cx="96.0116" cy="694.087" r="4" fill="#0" id="circle17"/>
	<circle cx="96.0116" cy="722.841" r="4" fill="#0" id="circle18"/>
	<circle cx="96.0116" cy="751.594" r="4" fill="#0" id="circle19"/>
	<circle cx="96.0116" cy="780.348" r="4" fill="#0" id="circle20"/>
	<circle cx="96.0116" cy="809.101" r="4" fill="#0" id="circle21"/>
	<circle cx="96.0116" cy="837.855" r="4" fill="#0" id="circle22"/>
	<circle cx="96.0116" cy="866.609" r="4" fill="#0" id="circle23"/>
	<circle cx="96.0116" cy="895.362" r="4" fill="#0" id="circle24"/>
	<circle cx="96.0116" cy="924.116" r="4" fill="#0" id="circle25"/>
	<circle cx="101.762" cy="469.809" r="4" fill="#0" id="circle26"/>
	<circle cx="104.638" cy="996" r="4" fill="#0" id="circle27"/>
	<circle cx="113.264" cy="193.774" r="4" fill="#0" id="circle28"/>
	<circle cx="113.264" cy="441.055" r="4" fill="#0" id="circle29"/>
	<circle cx="119.014" cy="4" r="4" fill="#0" id="circle30"/>
	<circle cx="119.014" cy="222.528" r="4" fill="#0" id="circle31"/>
	<circle cx="121.89" cy="251.281" r="4" fill="#0" id="circle32"/>
	<circle cx="124.765" cy="280.035" r="4" fill="#0" id="circle33"/>
	<circle cx="124.765" cy="308.788" r="4" fill="#0" id="circle34"/>
	<circle cx="124.765" cy="337.542" r="4" fill="#0" id="circle35"/>
	<circle cx="124.765" cy="366.296" r="4" fill="#0" id="circle36"/>
	<circle cx="124.765" cy="395.049" r="4" fill="#0" id="circle37"/>
	<circle cx="133.391" cy="996" r="4" fill="#0" id="circle38"/>
	<circle cx="147.768" cy="4" r="4" fill="#0" id="circle39"/>
	<circle cx="162.145" cy="996" r="4" fill="#0" id="circle40"/>
	<circle cx="176.522" cy="4" r="4" fill="#0" id="circle41"/>
	<circle cx="190.899" cy="996" r="4" fill="#0" id="circle42"/>
	<circle cx="196.649" cy="262.783" r="4" fill="#0" id="circle43"/>
	<circle cx="196.649" cy="291.536" r="4" fill="#0" id="circle44"/>
	<circle cx="196.649" cy="320.29" r="4" fill="#0" id="circle45"/>
	<circle cx="196.649" cy="349.043" r="4" fill="#0" id="circle46"/>
	<circle cx="196.649" cy="377.797" r="4" fill="#0" id="circle47"/>
	<circle cx="196.649" cy="406.551" r="4" fill="#0" id="circle48"/>
	<circle cx="202.4" cy="205.275" r="4" fill="#0" id="circle49"/>
	<circle cx="202.4" cy="234.029" r="4" fill="#0" id="circle50"/>
	<circle cx="202.4" cy="435.304" r="4" fill="#0" id="circle51"/>
	<circle cx="205.275" cy="4" r="4" fill="#0" id="circle52"/>
	<circle cx="213.901" cy="159.27" r="4" fill="#0" id="circle53"/>
	<circle cx="213.901" cy="464.058" r="4" fill="#0" id="circle54"/>
	<circle cx="219.652" cy="492.812" r="4" fill="#0" id="circle55"/>
	<circle cx="219.652" cy="996" r="4" fill="#0" id="circle56"/>
	<circle cx="225.403" cy="101.762" r="4" fill="#0" id="circle57"/>
	<circle cx="225.403" cy="130.516" r="4" fill="#0" id="circle58"/>
	<circle cx="225.403" cy="521.565" r="4" fill="#0" id="circle59"/>
	<circle cx="225.403" cy="550.319" r="4" fill="#0" id="circle60"/>
	<circle cx="225.403" cy="579.072" r="4" fill="#0" id="circle61"/>
	<circle cx="225.403" cy="607.826" r="4" fill="#0" id="circle62"/>
	<circle cx="225.403" cy="636.58" r="4" fill="#0" id="circle63"/>
	<circle cx="225.403" cy="665.333" r="4" fill="#0" id="circle64"/>
	<circle cx="225.403" cy="694.087" r="4" fill="#0" id="circle65"/>
	<circle cx="225.403" cy="722.841" r="4" fill="#0" id="circle66"/>
	<circle cx="225.403" cy="751.594" r="4" fill="#0" id="circle67"/>
	<circle cx="225.403" cy="780.348" r="4" fill="#0" id="circle68"/>
	<circle cx="225.403" cy="809.101" r="4" fill="#0" id="circle69"/>
	<circle cx="225.403" cy="837.855" r="4" fill="#0" id="circle70"/>
	<circle cx="225.403" cy="866.609" r="4" fill="#0" id="circle71"/>
	<circle cx="225.403" cy="895.362" r="4" fill="#0" id="circle72"/>
	<circle cx="225.403" cy="924.116" r="4" fill="#0" id="circle73"/>
	<circle cx="225.403" cy="952.87" r="4" fill="#0" id="circle74"/>
	<circle cx="234.029" cy="4" r="4" fill="#0" id="circle75"/>
	<circle cx="254.157" cy="93.1362" r="4" fill="#0" id="circle76"/>
	<circle cx="262.783" cy="4" r="4" fill="#0" id="circle77"/>
	<circle cx="282.91" cy="84.5101" r="4" fill="#0" id="circle78"/>
	<circle cx="288.661" cy="18.3768" r="4" fill="#0" id="circle79"/>
	<circle cx="300.162" cy="47.1304" r="4" fill="#0" id="circle80"/>
	</g>
</svg>