<?xml version="1.0" encoding="UTF-8" standalone="no"?>
<!-- Created with CurveBenchmark -->
<svg
	xmlns:dc="http://purl.org/dc/elements/1.1/"
	xmlns:cc="http://creativecommons.org/ns#"
	xmlns:rdf="http://www.w3.org/1999/02/22-rdf-syntax-ns#"
	xmlns:svg="http://www.w3.org/2000/svg"
	xmlns="http://www.w3.org/2000/svg"
	xmlns:sodipodi="http://sodipodi.sourceforge.net/DTD/sodipodi-0.dtd"
	xmlns:inkscape="http://www.inkscape.org/namespaces/inkscape"
	width="1000"
	height="1000"
	id="svg2"
	version="1.1"
	sodipodi:docname="manifold/nncrust-flatfish08.png.txt">
<defs
	id="defs4" />
<metadata
	id="metadata7">
	<rdf:RDF>
		<cc:Work
			rdf:about="">
			<dc:format>image/svg+xml</dc:format>
			<dc:type
				rdf:resource="http://purl.org/dc/dcmitype/StillImage" />
			<dc:title></dc:title>
		</cc:Work>
	</rdf:RDF>
</metadata>
<g
	inkscape:label="Layer 1"
	inkscape:groupmode="layer"
	id="layer1">
	<path style="fill:none;stroke:red;stroke-width:1px;stroke-linecap:butt;stroke-linejoin:miter;stroke-opacity:1" d="M 148.882,137.055 160.709,125.228 z" id="boundary" inkscape:connector-curvature="0" />
	<path style="fill:none;stroke:red;stroke-width:1px;stroke-linecap:butt;stroke-linejoin:miter;stroke-opacity:1" d="M 148.882,137.055 135.577,144.447 z" id="boundary" inkscape:connector-curvature="0" />
	<path style="fill:none;stroke:red;stroke-width:1px;stroke-linecap:butt;stroke-linejoin:miter;stroke-opacity:1" d="M 123.75,154.796 135.577,144.447 z" id="boundary" inkscape:connector-curvature="0" />
	<path style="fill:none;stroke:red;stroke-width:1px;stroke-linecap:butt;stroke-linejoin:miter;stroke-opacity:1" d="M 123.75,154.796 113.401,166.623 z" id="boundary" inkscape:connector-curvature="0" />
	<path style="fill:none;stroke:red;stroke-width:1px;stroke-linecap:butt;stroke-linejoin:miter;stroke-opacity:1" d="M 113.401,166.623 101.574,176.972 z" id="boundary" inkscape:connector-curvature="0" />
	<path style="fill:none;stroke:red;stroke-width:1px;stroke-linecap:butt;stroke-linejoin:miter;stroke-opacity:1" d="M 172.537,114.879 160.709,125.228 z" id="boundary" inkscape:connector-curvature="0" />
	<path style="fill:none;stroke:red;stroke-width:1px;stroke-linecap:butt;stroke-linejoin:miter;stroke-opacity:1" d="M 213.931,100.095 228.715,94.1818 z" id="boundary" inkscape:connector-curvature="0" />
	<path style="fill:none;stroke:red;stroke-width:1px;stroke-linecap:butt;stroke-linejoin:miter;stroke-opacity:1" d="M 200.626,107.487 213.931,100.095 z" id="boundary" inkscape:connector-curvature="0" />
	<path style="fill:none;stroke:red;stroke-width:1px;stroke-linecap:butt;stroke-linejoin:miter;stroke-opacity:1" d="M 240.542,85.3115 228.715,94.1818 z" id="boundary" inkscape:connector-curvature="0" />
	<path style="fill:none;stroke:red;stroke-width:1px;stroke-linecap:butt;stroke-linejoin:miter;stroke-opacity:1" d="M 172.537,114.879 185.842,107.487 z" id="boundary" inkscape:connector-curvature="0" />
	<path style="fill:none;stroke:red;stroke-width:1px;stroke-linecap:butt;stroke-linejoin:miter;stroke-opacity:1" d="M 185.842,107.487 200.626,107.487 z" id="boundary" inkscape:connector-curvature="0" />
	<path style="fill:none;stroke:red;stroke-width:1px;stroke-linecap:butt;stroke-linejoin:miter;stroke-opacity:1" d="M 38.003,247.934 49.8301,236.107 z" id="boundary" inkscape:connector-curvature="0" />
	<path style="fill:none;stroke:red;stroke-width:1px;stroke-linecap:butt;stroke-linejoin:miter;stroke-opacity:1" d="M 38.003,247.934 23.2191,255.326 z" id="boundary" inkscape:connector-curvature="0" />
	<path style="fill:none;stroke:red;stroke-width:1px;stroke-linecap:butt;stroke-linejoin:miter;stroke-opacity:1" d="M 4,281.937 11.392,267.154 z" id="boundary" inkscape:connector-curvature="0" />
	<path style="fill:none;stroke:red;stroke-width:1px;stroke-linecap:butt;stroke-linejoin:miter;stroke-opacity:1" d="M 11.392,267.154 23.2191,255.326 z" id="boundary" inkscape:connector-curvature="0" />
	<path style="fill:none;stroke:red;stroke-width:1px;stroke-linecap:butt;stroke-linejoin:miter;stroke-opacity:1" d="M 57.2221,221.323 49.8301,236.107 z" id="boundary" inkscape:connector-curvature="0" />
	<path style="fill:none;stroke:red;stroke-width:1px;stroke-linecap:butt;stroke-linejoin:miter;stroke-opacity:1" d="M 91.225,188.799 101.574,176.972 z" id="boundary" inkscape:connector-curvature="0" />
	<path style="fill:none;stroke:red;stroke-width:1px;stroke-linecap:butt;stroke-linejoin:miter;stroke-opacity:1" d="M 91.225,188.799 79.3979,199.148 z" id="boundary" inkscape:connector-curvature="0" />
	<path style="fill:none;stroke:red;stroke-width:1px;stroke-linecap:butt;stroke-linejoin:miter;stroke-opacity:1" d="M 79.3979,199.148 69.0492,210.975 z" id="boundary" inkscape:connector-curvature="0" />
	<path style="fill:none;stroke:red;stroke-width:1px;stroke-linecap:butt;stroke-linejoin:miter;stroke-opacity:1" d="M 69.0492,210.975 57.2221,221.323 z" id="boundary" inkscape:connector-curvature="0" />
	<path style="fill:none;stroke:red;stroke-width:1px;stroke-linecap:butt;stroke-linejoin:miter;stroke-opacity:1" d="M 432.733,8.43517 417.949,11.392 z" id="boundary" inkscape:connector-curvature="0" />
	<path style="fill:none;stroke:red;stroke-width:1px;stroke-linecap:butt;stroke-linejoin:miter;stroke-opacity:1" d="M 417.949,11.392 403.165,11.392 z" id="boundary" inkscape:connector-curvature="0" />
	<path style="fill:none;stroke:red;stroke-width:1px;stroke-linecap:butt;stroke-linejoin:miter;stroke-opacity:1" d="M 447.517,4 432.733,8.43517 z" id="boundary" inkscape:connector-curvature="0" />
	<path style="fill:none;stroke:red;stroke-width:1px;stroke-linecap:butt;stroke-linejoin:miter;stroke-opacity:1" d="M 375.076,18.7839 360.292,18.7839 z" id="boundary" inkscape:connector-curvature="0" />
	<path style="fill:none;stroke:red;stroke-width:1px;stroke-linecap:butt;stroke-linejoin:miter;stroke-opacity:1" d="M 389.86,18.7839 375.076,18.7839 z" id="boundary" inkscape:connector-curvature="0" />
	<path style="fill:none;stroke:red;stroke-width:1px;stroke-linecap:butt;stroke-linejoin:miter;stroke-opacity:1" d="M 403.165,11.392 389.86,18.7839 z" id="boundary" inkscape:connector-curvature="0" />
	<path style="fill:none;stroke:red;stroke-width:1px;stroke-linecap:butt;stroke-linejoin:miter;stroke-opacity:1" d="M 346.987,26.1759 360.292,18.7839 z" id="boundary" inkscape:connector-curvature="0" />
	<path style="fill:none;stroke:red;stroke-width:1px;stroke-linecap:butt;stroke-linejoin:miter;stroke-opacity:1" d="M 447.517,4 462.301,4 z" id="boundary" inkscape:connector-curvature="0" />
	<path style="fill:none;stroke:red;stroke-width:1px;stroke-linecap:butt;stroke-linejoin:miter;stroke-opacity:1" d="M 462.301,4 477.085,4 z" id="boundary" inkscape:connector-curvature="0" />
	<path style="fill:none;stroke:red;stroke-width:1px;stroke-linecap:butt;stroke-linejoin:miter;stroke-opacity:1" d="M 280.459,63.1356 293.765,55.7437 z" id="boundary" inkscape:connector-curvature="0" />
	<path style="fill:none;stroke:red;stroke-width:1px;stroke-linecap:butt;stroke-linejoin:miter;stroke-opacity:1" d="M 253.848,77.9195 267.154,70.5276 z" id="boundary" inkscape:connector-curvature="0" />
	<path style="fill:none;stroke:red;stroke-width:1px;stroke-linecap:butt;stroke-linejoin:miter;stroke-opacity:1" d="M 253.848,77.9195 240.542,85.3115 z" id="boundary" inkscape:connector-curvature="0" />
	<path style="fill:none;stroke:red;stroke-width:1px;stroke-linecap:butt;stroke-linejoin:miter;stroke-opacity:1" d="M 267.154,70.5276 280.459,63.1356 z" id="boundary" inkscape:connector-curvature="0" />
	<path style="fill:none;stroke:red;stroke-width:1px;stroke-linecap:butt;stroke-linejoin:miter;stroke-opacity:1" d="M 333.681,33.5678 346.987,26.1759 z" id="boundary" inkscape:connector-curvature="0" />
	<path style="fill:none;stroke:red;stroke-width:1px;stroke-linecap:butt;stroke-linejoin:miter;stroke-opacity:1" d="M 307.07,48.3517 320.376,40.9598 z" id="boundary" inkscape:connector-curvature="0" />
	<path style="fill:none;stroke:red;stroke-width:1px;stroke-linecap:butt;stroke-linejoin:miter;stroke-opacity:1" d="M 333.681,33.5678 320.376,40.9598 z" id="boundary" inkscape:connector-curvature="0" />
	<path style="fill:none;stroke:red;stroke-width:1px;stroke-linecap:butt;stroke-linejoin:miter;stroke-opacity:1" d="M 293.765,55.7437 307.07,48.3517 z" id="boundary" inkscape:connector-curvature="0" />
	<path style="fill:none;stroke:red;stroke-width:1px;stroke-linecap:butt;stroke-linejoin:miter;stroke-opacity:1" d="M 477.085,4 491.869,4 z" id="boundary" inkscape:connector-curvature="0" />
	<path style="fill:none;stroke:red;stroke-width:1px;stroke-linecap:butt;stroke-linejoin:miter;stroke-opacity:1" d="M 4,296.721 4,281.937 z" id="boundary" inkscape:connector-curvature="0" />
	<path style="fill:none;stroke:red;stroke-width:1px;stroke-linecap:butt;stroke-linejoin:miter;stroke-opacity:1" d="M 11.392,310.027 4,296.721 z" id="boundary" inkscape:connector-curvature="0" />
	<path style="fill:none;stroke:red;stroke-width:1px;stroke-linecap:butt;stroke-linejoin:miter;stroke-opacity:1" d="M 21.7407,321.854 33.5678,330.724 z" id="boundary" inkscape:connector-curvature="0" />
	<path style="fill:none;stroke:red;stroke-width:1px;stroke-linecap:butt;stroke-linejoin:miter;stroke-opacity:1" d="M 33.5678,330.724 42.4382,342.551 z" id="boundary" inkscape:connector-curvature="0" />
	<path style="fill:none;stroke:red;stroke-width:1px;stroke-linecap:butt;stroke-linejoin:miter;stroke-opacity:1" d="M 21.7407,321.854 11.392,310.027 z" id="boundary" inkscape:connector-curvature="0" />
	<path style="fill:none;stroke:red;stroke-width:1px;stroke-linecap:butt;stroke-linejoin:miter;stroke-opacity:1" d="M 57.2221,348.465 42.4382,342.551 z" id="boundary" inkscape:connector-curvature="0" />
	<path style="fill:none;stroke:red;stroke-width:1px;stroke-linecap:butt;stroke-linejoin:miter;stroke-opacity:1" d="M 57.2221,348.465 70.5276,355.857 z" id="boundary" inkscape:connector-curvature="0" />
	<path style="fill:none;stroke:red;stroke-width:1px;stroke-linecap:butt;stroke-linejoin:miter;stroke-opacity:1" d="M 70.5276,355.857 82.3547,366.206 z" id="boundary" inkscape:connector-curvature="0" />
	<path style="fill:none;stroke:red;stroke-width:1px;stroke-linecap:butt;stroke-linejoin:miter;stroke-opacity:1" d="M 95.6602,373.598 82.3547,366.206 z" id="boundary" inkscape:connector-curvature="0" />
	<path style="fill:none;stroke:red;stroke-width:1px;stroke-linecap:butt;stroke-linejoin:miter;stroke-opacity:1" d="M 110.444,379.511 95.6602,373.598 z" id="boundary" inkscape:connector-curvature="0" />
	<path style="fill:none;stroke:red;stroke-width:1px;stroke-linecap:butt;stroke-linejoin:miter;stroke-opacity:1" d="M 110.444,379.511 122.271,389.86 z" id="boundary" inkscape:connector-curvature="0" />
	<path style="fill:none;stroke:red;stroke-width:1px;stroke-linecap:butt;stroke-linejoin:miter;stroke-opacity:1" d="M 122.271,389.86 135.577,397.252 z" id="boundary" inkscape:connector-curvature="0" />
	<path style="fill:none;stroke:red;stroke-width:1px;stroke-linecap:butt;stroke-linejoin:miter;stroke-opacity:1" d="M 148.882,404.644 162.188,412.036 z" id="boundary" inkscape:connector-curvature="0" />
	<path style="fill:none;stroke:red;stroke-width:1px;stroke-linecap:butt;stroke-linejoin:miter;stroke-opacity:1" d="M 162.188,412.036 169.58,425.341 z" id="boundary" inkscape:connector-curvature="0" />
	<path style="fill:none;stroke:red;stroke-width:1px;stroke-linecap:butt;stroke-linejoin:miter;stroke-opacity:1" d="M 148.882,404.644 135.577,397.252 z" id="boundary" inkscape:connector-curvature="0" />
	<path style="fill:none;stroke:red;stroke-width:1px;stroke-linecap:butt;stroke-linejoin:miter;stroke-opacity:1" d="M 169.58,425.341 176.972,438.647 z" id="boundary" inkscape:connector-curvature="0" />
	<path style="fill:none;stroke:red;stroke-width:1px;stroke-linecap:butt;stroke-linejoin:miter;stroke-opacity:1" d="M 176.972,438.647 188.799,448.996 z" id="boundary" inkscape:connector-curvature="0" />
	<path style="fill:none;stroke:red;stroke-width:1px;stroke-linecap:butt;stroke-linejoin:miter;stroke-opacity:1" d="M 203.583,448.996 188.799,448.996 z" id="boundary" inkscape:connector-curvature="0" />
	<path style="fill:none;stroke:red;stroke-width:1px;stroke-linecap:butt;stroke-linejoin:miter;stroke-opacity:1" d="M 203.583,448.996 218.367,448.996 z" id="boundary" inkscape:connector-curvature="0" />
	<path style="fill:none;stroke:red;stroke-width:1px;stroke-linecap:butt;stroke-linejoin:miter;stroke-opacity:1" d="M 218.367,448.996 233.151,448.996 z" id="boundary" inkscape:connector-curvature="0" />
	<path style="fill:none;stroke:red;stroke-width:1px;stroke-linecap:butt;stroke-linejoin:miter;stroke-opacity:1" d="M 233.151,448.996 242.021,460.823 z" id="boundary" inkscape:connector-curvature="0" />
	<path style="fill:none;stroke:red;stroke-width:1px;stroke-linecap:butt;stroke-linejoin:miter;stroke-opacity:1" d="M 253.848,471.171 264.197,482.999 z" id="boundary" inkscape:connector-curvature="0" />
	<path style="fill:none;stroke:red;stroke-width:1px;stroke-linecap:butt;stroke-linejoin:miter;stroke-opacity:1" d="M 304.113,500.739 289.329,500.739 z" id="boundary" inkscape:connector-curvature="0" />
	<path style="fill:none;stroke:red;stroke-width:1px;stroke-linecap:butt;stroke-linejoin:miter;stroke-opacity:1" d="M 289.329,500.739 276.024,493.347 z" id="boundary" inkscape:connector-curvature="0" />
	<path style="fill:none;stroke:red;stroke-width:1px;stroke-linecap:butt;stroke-linejoin:miter;stroke-opacity:1" d="M 276.024,493.347 264.197,482.999 z" id="boundary" inkscape:connector-curvature="0" />
	<path style="fill:none;stroke:red;stroke-width:1px;stroke-linecap:butt;stroke-linejoin:miter;stroke-opacity:1" d="M 253.848,471.171 242.021,460.823 z" id="boundary" inkscape:connector-curvature="0" />
	<path style="fill:none;stroke:red;stroke-width:1px;stroke-linecap:butt;stroke-linejoin:miter;stroke-opacity:1" d="M 318.897,506.653 332.203,514.045 z" id="boundary" inkscape:connector-curvature="0" />
	<path style="fill:none;stroke:red;stroke-width:1px;stroke-linecap:butt;stroke-linejoin:miter;stroke-opacity:1" d="M 358.814,522.915 344.03,522.915 z" id="boundary" inkscape:connector-curvature="0" />
	<path style="fill:none;stroke:red;stroke-width:1px;stroke-linecap:butt;stroke-linejoin:miter;stroke-opacity:1" d="M 344.03,522.915 332.203,514.045 z" id="boundary" inkscape:connector-curvature="0" />
	<path style="fill:none;stroke:red;stroke-width:1px;stroke-linecap:butt;stroke-linejoin:miter;stroke-opacity:1" d="M 358.814,522.915 372.119,530.307 z" id="boundary" inkscape:connector-curvature="0" />
	<path style="fill:none;stroke:red;stroke-width:1px;stroke-linecap:butt;stroke-linejoin:miter;stroke-opacity:1" d="M 304.113,500.739 318.897,506.653 z" id="boundary" inkscape:connector-curvature="0" />
	<path style="fill:none;stroke:red;stroke-width:1px;stroke-linecap:butt;stroke-linejoin:miter;stroke-opacity:1" d="M 372.119,530.307 385.425,537.699 z" id="boundary" inkscape:connector-curvature="0" />
	<path style="fill:none;stroke:red;stroke-width:1px;stroke-linecap:butt;stroke-linejoin:miter;stroke-opacity:1" d="M 400.209,537.699 385.425,537.699 z" id="boundary" inkscape:connector-curvature="0" />
	<path style="fill:none;stroke:red;stroke-width:1px;stroke-linecap:butt;stroke-linejoin:miter;stroke-opacity:1" d="M 400.209,537.699 414.993,537.699 z" id="boundary" inkscape:connector-curvature="0" />
	<path style="fill:none;stroke:red;stroke-width:1px;stroke-linecap:butt;stroke-linejoin:miter;stroke-opacity:1" d="M 414.993,537.699 428.298,545.091 z" id="boundary" inkscape:connector-curvature="0" />
	<path style="fill:none;stroke:red;stroke-width:1px;stroke-linecap:butt;stroke-linejoin:miter;stroke-opacity:1" d="M 443.082,549.526 428.298,545.091 z" id="boundary" inkscape:connector-curvature="0" />
	<path style="fill:none;stroke:red;stroke-width:1px;stroke-linecap:butt;stroke-linejoin:miter;stroke-opacity:1" d="M 514.045,537.699 500.739,545.091 z" id="boundary" inkscape:connector-curvature="0" />
	<path style="fill:none;stroke:red;stroke-width:1px;stroke-linecap:butt;stroke-linejoin:miter;stroke-opacity:1" d="M 500.739,545.091 485.955,545.091 z" id="boundary" inkscape:connector-curvature="0" />
	<path style="fill:none;stroke:red;stroke-width:1px;stroke-linecap:butt;stroke-linejoin:miter;stroke-opacity:1" d="M 514.045,537.699 528.829,537.699 z" id="boundary" inkscape:connector-curvature="0" />
	<path style="fill:none;stroke:red;stroke-width:1px;stroke-linecap:butt;stroke-linejoin:miter;stroke-opacity:1" d="M 472.65,552.483 485.955,545.091 z" id="boundary" inkscape:connector-curvature="0" />
	<path style="fill:none;stroke:red;stroke-width:1px;stroke-linecap:butt;stroke-linejoin:miter;stroke-opacity:1" d="M 457.866,552.483 443.082,549.526 z" id="boundary" inkscape:connector-curvature="0" />
	<path style="fill:none;stroke:red;stroke-width:1px;stroke-linecap:butt;stroke-linejoin:miter;stroke-opacity:1" d="M 472.65,552.483 457.866,552.483 z" id="boundary" inkscape:connector-curvature="0" />
	<path style="fill:none;stroke:red;stroke-width:1px;stroke-linecap:butt;stroke-linejoin:miter;stroke-opacity:1" d="M 491.869,4 506.653,4 z" id="boundary" inkscape:connector-curvature="0" />
	<path style="fill:none;stroke:red;stroke-width:1px;stroke-linecap:butt;stroke-linejoin:miter;stroke-opacity:1" d="M 521.437,4 536.221,4 z" id="boundary" inkscape:connector-curvature="0" />
	<path style="fill:none;stroke:red;stroke-width:1px;stroke-linecap:butt;stroke-linejoin:miter;stroke-opacity:1" d="M 579.094,20.2623 564.31,14.3487 z" id="boundary" inkscape:connector-curvature="0" />
	<path style="fill:none;stroke:red;stroke-width:1px;stroke-linecap:butt;stroke-linejoin:miter;stroke-opacity:1" d="M 564.31,14.3487 551.004,6.95678 z" id="boundary" inkscape:connector-curvature="0" />
	<path style="fill:none;stroke:red;stroke-width:1px;stroke-linecap:butt;stroke-linejoin:miter;stroke-opacity:1" d="M 536.221,4 551.004,6.95678 z" id="boundary" inkscape:connector-curvature="0" />
	<path style="fill:none;stroke:red;stroke-width:1px;stroke-linecap:butt;stroke-linejoin:miter;stroke-opacity:1" d="M 579.094,20.2623 589.443,32.0894 z" id="boundary" inkscape:connector-curvature="0" />
	<path style="fill:none;stroke:red;stroke-width:1px;stroke-linecap:butt;stroke-linejoin:miter;stroke-opacity:1" d="M 589.443,32.0894 604.227,38.003 z" id="boundary" inkscape:connector-curvature="0" />
	<path style="fill:none;stroke:red;stroke-width:1px;stroke-linecap:butt;stroke-linejoin:miter;stroke-opacity:1" d="M 604.227,38.003 614.575,49.8301 z" id="boundary" inkscape:connector-curvature="0" />
	<path style="fill:none;stroke:red;stroke-width:1px;stroke-linecap:butt;stroke-linejoin:miter;stroke-opacity:1" d="M 614.575,49.8301 626.402,60.1788 z" id="boundary" inkscape:connector-curvature="0" />
	<path style="fill:none;stroke:red;stroke-width:1px;stroke-linecap:butt;stroke-linejoin:miter;stroke-opacity:1" d="M 626.402,60.1788 636.751,72.006 z" id="boundary" inkscape:connector-curvature="0" />
	<path style="fill:none;stroke:red;stroke-width:1px;stroke-linecap:butt;stroke-linejoin:miter;stroke-opacity:1" d="M 651.535,77.9195 636.751,72.006 z" id="boundary" inkscape:connector-curvature="0" />
	<path style="fill:none;stroke:red;stroke-width:1px;stroke-linecap:butt;stroke-linejoin:miter;stroke-opacity:1" d="M 651.535,77.9195 664.841,85.3115 z" id="boundary" inkscape:connector-curvature="0" />
	<path style="fill:none;stroke:red;stroke-width:1px;stroke-linecap:butt;stroke-linejoin:miter;stroke-opacity:1" d="M 664.841,85.3115 676.668,95.6602 z" id="boundary" inkscape:connector-curvature="0" />
	<path style="fill:none;stroke:red;stroke-width:1px;stroke-linecap:butt;stroke-linejoin:miter;stroke-opacity:1" d="M 697.365,116.358 685.538,107.487 z" id="boundary" inkscape:connector-curvature="0" />
	<path style="fill:none;stroke:red;stroke-width:1px;stroke-linecap:butt;stroke-linejoin:miter;stroke-opacity:1" d="M 685.538,107.487 676.668,95.6602 z" id="boundary" inkscape:connector-curvature="0" />
	<path style="fill:none;stroke:red;stroke-width:1px;stroke-linecap:butt;stroke-linejoin:miter;stroke-opacity:1" d="M 697.365,116.358 707.714,128.185 z" id="boundary" inkscape:connector-curvature="0" />
	<path style="fill:none;stroke:red;stroke-width:1px;stroke-linecap:butt;stroke-linejoin:miter;stroke-opacity:1" d="M 707.714,128.185 719.541,138.534 z" id="boundary" inkscape:connector-curvature="0" />
	<path style="fill:none;stroke:red;stroke-width:1px;stroke-linecap:butt;stroke-linejoin:miter;stroke-opacity:1" d="M 719.541,138.534 729.89,150.361 z" id="boundary" inkscape:connector-curvature="0" />
	<path style="fill:none;stroke:red;stroke-width:1px;stroke-linecap:butt;stroke-linejoin:miter;stroke-opacity:1" d="M 729.89,150.361 741.717,160.709 z" id="boundary" inkscape:connector-curvature="0" />
	<path style="fill:none;stroke:red;stroke-width:1px;stroke-linecap:butt;stroke-linejoin:miter;stroke-opacity:1" d="M 752.066,172.537 741.717,160.709 z" id="boundary" inkscape:connector-curvature="0" />
	<path style="fill:none;stroke:red;stroke-width:1px;stroke-linecap:butt;stroke-linejoin:miter;stroke-opacity:1" d="M 752.066,172.537 759.458,185.842 z" id="boundary" inkscape:connector-curvature="0" />
	<path style="fill:none;stroke:red;stroke-width:1px;stroke-linecap:butt;stroke-linejoin:miter;stroke-opacity:1" d="M 802.331,196.191 787.547,196.191 z" id="boundary" inkscape:connector-curvature="0" />
	<path style="fill:none;stroke:red;stroke-width:1px;stroke-linecap:butt;stroke-linejoin:miter;stroke-opacity:1" d="M 859.988,188.799 845.204,188.799 z" id="boundary" inkscape:connector-curvature="0" />
	<path style="fill:none;stroke:red;stroke-width:1px;stroke-linecap:butt;stroke-linejoin:miter;stroke-opacity:1" d="M 874.772,188.799 859.988,188.799 z" id="boundary" inkscape:connector-curvature="0" />
	<path style="fill:none;stroke:red;stroke-width:1px;stroke-linecap:butt;stroke-linejoin:miter;stroke-opacity:1" d="M 889.556,188.799 874.772,188.799 z" id="boundary" inkscape:connector-curvature="0" />
	<path style="fill:none;stroke:red;stroke-width:1px;stroke-linecap:butt;stroke-linejoin:miter;stroke-opacity:1" d="M 831.899,196.191 845.204,188.799 z" id="boundary" inkscape:connector-curvature="0" />
	<path style="fill:none;stroke:red;stroke-width:1px;stroke-linecap:butt;stroke-linejoin:miter;stroke-opacity:1" d="M 917.645,181.407 904.34,188.799 z" id="boundary" inkscape:connector-curvature="0" />
	<path style="fill:none;stroke:red;stroke-width:1px;stroke-linecap:butt;stroke-linejoin:miter;stroke-opacity:1" d="M 904.34,188.799 889.556,188.799 z" id="boundary" inkscape:connector-curvature="0" />
	<path style="fill:none;stroke:red;stroke-width:1px;stroke-linecap:butt;stroke-linejoin:miter;stroke-opacity:1" d="M 932.429,181.407 917.645,181.407 z" id="boundary" inkscape:connector-curvature="0" />
	<path style="fill:none;stroke:red;stroke-width:1px;stroke-linecap:butt;stroke-linejoin:miter;stroke-opacity:1" d="M 932.429,181.407 947.213,181.407 z" id="boundary" inkscape:connector-curvature="0" />
	<path style="fill:none;stroke:red;stroke-width:1px;stroke-linecap:butt;stroke-linejoin:miter;stroke-opacity:1" d="M 961.997,181.407 947.213,181.407 z" id="boundary" inkscape:connector-curvature="0" />
	<path style="fill:none;stroke:red;stroke-width:1px;stroke-linecap:butt;stroke-linejoin:miter;stroke-opacity:1" d="M 976.781,181.407 961.997,181.407 z" id="boundary" inkscape:connector-curvature="0" />
	<path style="fill:none;stroke:red;stroke-width:1px;stroke-linecap:butt;stroke-linejoin:miter;stroke-opacity:1" d="M 976.781,181.407 987.13,193.234 z" id="boundary" inkscape:connector-curvature="0" />
	<path style="fill:none;stroke:red;stroke-width:1px;stroke-linecap:butt;stroke-linejoin:miter;stroke-opacity:1" d="M 772.763,193.234 787.547,196.191 z" id="boundary" inkscape:connector-curvature="0" />
	<path style="fill:none;stroke:red;stroke-width:1px;stroke-linecap:butt;stroke-linejoin:miter;stroke-opacity:1" d="M 772.763,193.234 759.458,185.842 z" id="boundary" inkscape:connector-curvature="0" />
	<path style="fill:none;stroke:red;stroke-width:1px;stroke-linecap:butt;stroke-linejoin:miter;stroke-opacity:1" d="M 802.331,196.191 817.115,196.191 z" id="boundary" inkscape:connector-curvature="0" />
	<path style="fill:none;stroke:red;stroke-width:1px;stroke-linecap:butt;stroke-linejoin:miter;stroke-opacity:1" d="M 831.899,196.191 817.115,196.191 z" id="boundary" inkscape:connector-curvature="0" />
	<path style="fill:none;stroke:red;stroke-width:1px;stroke-linecap:butt;stroke-linejoin:miter;stroke-opacity:1" d="M 996,221.323 996,236.107 z" id="boundary" inkscape:connector-curvature="0" />
	<path style="fill:none;stroke:red;stroke-width:1px;stroke-linecap:butt;stroke-linejoin:miter;stroke-opacity:1" d="M 987.13,193.234 994.522,206.539 z" id="boundary" inkscape:connector-curvature="0" />
	<path style="fill:none;stroke:red;stroke-width:1px;stroke-linecap:butt;stroke-linejoin:miter;stroke-opacity:1" d="M 994.522,206.539 996,221.323 z" id="boundary" inkscape:connector-curvature="0" />
	<path style="fill:none;stroke:red;stroke-width:1px;stroke-linecap:butt;stroke-linejoin:miter;stroke-opacity:1" d="M 689.973,409.079 700.322,397.252 z" id="boundary" inkscape:connector-curvature="0" />
	<path style="fill:none;stroke:red;stroke-width:1px;stroke-linecap:butt;stroke-linejoin:miter;stroke-opacity:1" d="M 700.322,397.252 712.149,386.903 z" id="boundary" inkscape:connector-curvature="0" />
	<path style="fill:none;stroke:red;stroke-width:1px;stroke-linecap:butt;stroke-linejoin:miter;stroke-opacity:1" d="M 689.973,409.079 675.189,416.471 z" id="boundary" inkscape:connector-curvature="0" />
	<path style="fill:none;stroke:red;stroke-width:1px;stroke-linecap:butt;stroke-linejoin:miter;stroke-opacity:1" d="M 663.362,426.82 675.189,416.471 z" id="boundary" inkscape:connector-curvature="0" />
	<path style="fill:none;stroke:red;stroke-width:1px;stroke-linecap:butt;stroke-linejoin:miter;stroke-opacity:1" d="M 663.362,426.82 653.013,438.647 z" id="boundary" inkscape:connector-curvature="0" />
	<path style="fill:none;stroke:red;stroke-width:1px;stroke-linecap:butt;stroke-linejoin:miter;stroke-opacity:1" d="M 653.013,438.647 638.23,446.039 z" id="boundary" inkscape:connector-curvature="0" />
	<path style="fill:none;stroke:red;stroke-width:1px;stroke-linecap:butt;stroke-linejoin:miter;stroke-opacity:1" d="M 744.674,352.9 756.501,342.551 z" id="boundary" inkscape:connector-curvature="0" />
	<path style="fill:none;stroke:red;stroke-width:1px;stroke-linecap:butt;stroke-linejoin:miter;stroke-opacity:1" d="M 734.325,364.727 744.674,352.9 z" id="boundary" inkscape:connector-curvature="0" />
	<path style="fill:none;stroke:red;stroke-width:1px;stroke-linecap:butt;stroke-linejoin:miter;stroke-opacity:1" d="M 763.893,327.768 756.501,342.551 z" id="boundary" inkscape:connector-curvature="0" />
	<path style="fill:none;stroke:red;stroke-width:1px;stroke-linecap:butt;stroke-linejoin:miter;stroke-opacity:1" d="M 712.149,386.903 722.498,375.076 z" id="boundary" inkscape:connector-curvature="0" />
	<path style="fill:none;stroke:red;stroke-width:1px;stroke-linecap:butt;stroke-linejoin:miter;stroke-opacity:1" d="M 722.498,375.076 734.325,364.727 z" id="boundary" inkscape:connector-curvature="0" />
	<path style="fill:none;stroke:red;stroke-width:1px;stroke-linecap:butt;stroke-linejoin:miter;stroke-opacity:1" d="M 570.224,521.437 585.007,514.045 z" id="boundary" inkscape:connector-curvature="0" />
	<path style="fill:none;stroke:red;stroke-width:1px;stroke-linecap:butt;stroke-linejoin:miter;stroke-opacity:1" d="M 596.835,493.347 585.007,514.045 z" id="boundary" inkscape:connector-curvature="0" />
	<path style="fill:none;stroke:red;stroke-width:1px;stroke-linecap:butt;stroke-linejoin:miter;stroke-opacity:1" d="M 555.44,528.829 543.613,537.699 z" id="boundary" inkscape:connector-curvature="0" />
	<path style="fill:none;stroke:red;stroke-width:1px;stroke-linecap:butt;stroke-linejoin:miter;stroke-opacity:1" d="M 543.613,537.699 528.829,537.699 z" id="boundary" inkscape:connector-curvature="0" />
	<path style="fill:none;stroke:red;stroke-width:1px;stroke-linecap:butt;stroke-linejoin:miter;stroke-opacity:1" d="M 570.224,521.437 555.44,528.829 z" id="boundary" inkscape:connector-curvature="0" />
	<path style="fill:none;stroke:red;stroke-width:1px;stroke-linecap:butt;stroke-linejoin:miter;stroke-opacity:1" d="M 626.402,456.387 638.23,446.039 z" id="boundary" inkscape:connector-curvature="0" />
	<path style="fill:none;stroke:red;stroke-width:1px;stroke-linecap:butt;stroke-linejoin:miter;stroke-opacity:1" d="M 596.835,493.347 604.227,478.563 z" id="boundary" inkscape:connector-curvature="0" />
	<path style="fill:none;stroke:red;stroke-width:1px;stroke-linecap:butt;stroke-linejoin:miter;stroke-opacity:1" d="M 604.227,478.563 616.054,468.215 z" id="boundary" inkscape:connector-curvature="0" />
	<path style="fill:none;stroke:red;stroke-width:1px;stroke-linecap:butt;stroke-linejoin:miter;stroke-opacity:1" d="M 626.402,456.387 616.054,468.215 z" id="boundary" inkscape:connector-curvature="0" />
	<path style="fill:none;stroke:red;stroke-width:1px;stroke-linecap:butt;stroke-linejoin:miter;stroke-opacity:1" d="M 781.633,301.156 796.417,301.156 z" id="boundary" inkscape:connector-curvature="0" />
	<path style="fill:none;stroke:red;stroke-width:1px;stroke-linecap:butt;stroke-linejoin:miter;stroke-opacity:1" d="M 771.285,312.984 781.633,301.156 z" id="boundary" inkscape:connector-curvature="0" />
	<path style="fill:none;stroke:red;stroke-width:1px;stroke-linecap:butt;stroke-linejoin:miter;stroke-opacity:1" d="M 796.417,301.156 811.201,301.156 z" id="boundary" inkscape:connector-curvature="0" />
	<path style="fill:none;stroke:red;stroke-width:1px;stroke-linecap:butt;stroke-linejoin:miter;stroke-opacity:1" d="M 763.893,327.768 771.285,312.984 z" id="boundary" inkscape:connector-curvature="0" />
	<path style="fill:none;stroke:red;stroke-width:1px;stroke-linecap:butt;stroke-linejoin:miter;stroke-opacity:1" d="M 825.985,301.156 811.201,301.156 z" id="boundary" inkscape:connector-curvature="0" />
	<path style="fill:none;stroke:red;stroke-width:1px;stroke-linecap:butt;stroke-linejoin:miter;stroke-opacity:1" d="M 988.608,271.589 996,250.891 z" id="boundary" inkscape:connector-curvature="0" />
	<path style="fill:none;stroke:red;stroke-width:1px;stroke-linecap:butt;stroke-linejoin:miter;stroke-opacity:1" d="M 988.608,286.373 988.608,271.589 z" id="boundary" inkscape:connector-curvature="0" />
	<path style="fill:none;stroke:red;stroke-width:1px;stroke-linecap:butt;stroke-linejoin:miter;stroke-opacity:1" d="M 988.608,301.156 988.608,286.373 z" id="boundary" inkscape:connector-curvature="0" />
	<path style="fill:none;stroke:red;stroke-width:1px;stroke-linecap:butt;stroke-linejoin:miter;stroke-opacity:1" d="M 840.769,304.113 851.118,315.94 z" id="boundary" inkscape:connector-curvature="0" />
	<path style="fill:none;stroke:red;stroke-width:1px;stroke-linecap:butt;stroke-linejoin:miter;stroke-opacity:1" d="M 825.985,301.156 840.769,304.113 z" id="boundary" inkscape:connector-curvature="0" />
	<path style="fill:none;stroke:red;stroke-width:1px;stroke-linecap:butt;stroke-linejoin:miter;stroke-opacity:1" d="M 996,236.107 996,250.891 z" id="boundary" inkscape:connector-curvature="0" />
	<path style="fill:none;stroke:red;stroke-width:1px;stroke-linecap:butt;stroke-linejoin:miter;stroke-opacity:1" d="M 988.608,301.156 981.216,315.94 z" id="boundary" inkscape:connector-curvature="0" />
	<path style="fill:none;stroke:red;stroke-width:1px;stroke-linecap:butt;stroke-linejoin:miter;stroke-opacity:1" d="M 851.118,315.94 865.902,321.854 z" id="boundary" inkscape:connector-curvature="0" />
	<path style="fill:none;stroke:red;stroke-width:1px;stroke-linecap:butt;stroke-linejoin:miter;stroke-opacity:1" d="M 865.902,321.854 880.686,323.332 z" id="boundary" inkscape:connector-curvature="0" />
	<path style="fill:none;stroke:red;stroke-width:1px;stroke-linecap:butt;stroke-linejoin:miter;stroke-opacity:1" d="M 880.686,323.332 895.469,323.332 z" id="boundary" inkscape:connector-curvature="0" />
	<path style="fill:none;stroke:red;stroke-width:1px;stroke-linecap:butt;stroke-linejoin:miter;stroke-opacity:1" d="M 895.469,323.332 910.253,329.246 z" id="boundary" inkscape:connector-curvature="0" />
	<path style="fill:none;stroke:red;stroke-width:1px;stroke-linecap:butt;stroke-linejoin:miter;stroke-opacity:1" d="M 981.216,315.94 966.432,330.724 z" id="boundary" inkscape:connector-curvature="0" />
	<path style="fill:none;stroke:red;stroke-width:1px;stroke-linecap:butt;stroke-linejoin:miter;stroke-opacity:1" d="M 938.343,338.116 923.559,336.638 z" id="boundary" inkscape:connector-curvature="0" />
	<path style="fill:none;stroke:red;stroke-width:1px;stroke-linecap:butt;stroke-linejoin:miter;stroke-opacity:1" d="M 923.559,336.638 910.253,329.246 z" id="boundary" inkscape:connector-curvature="0" />
	<path style="fill:none;stroke:red;stroke-width:1px;stroke-linecap:butt;stroke-linejoin:miter;stroke-opacity:1" d="M 966.432,330.724 953.127,338.116 z" id="boundary" inkscape:connector-curvature="0" />
	<path style="fill:none;stroke:red;stroke-width:1px;stroke-linecap:butt;stroke-linejoin:miter;stroke-opacity:1" d="M 953.127,338.116 938.343,338.116 z" id="boundary" inkscape:connector-curvature="0" />
	<path style="fill:none;stroke:red;stroke-width:1px;stroke-linecap:butt;stroke-linejoin:miter;stroke-opacity:1" d="M 506.653,4 521.437,4 z" id="boundary" inkscape:connector-curvature="0" />
	<circle cx="4" cy="281.937" r="4" fill="#0" id="circle0"/>
	<circle cx="4" cy="296.721" r="4" fill="#0" id="circle1"/>
	<circle cx="11.392" cy="267.154" r="4" fill="#0" id="circle2"/>
	<circle cx="11.392" cy="310.027" r="4" fill="#0" id="circle3"/>
	<circle cx="21.7407" cy="321.854" r="4" fill="#0" id="circle4"/>
	<circle cx="23.2191" cy="255.326" r="4" fill="#0" id="circle5"/>
	<circle cx="33.5678" cy="330.724" r="4" fill="#0" id="circle6"/>
	<circle cx="38.003" cy="247.934" r="4" fill="#0" id="circle7"/>
	<circle cx="42.4382" cy="342.551" r="4" fill="#0" id="circle8"/>
	<circle cx="49.8301" cy="236.107" r="4" fill="#0" id="circle9"/>
	<circle cx="57.2221" cy="221.323" r="4" fill="#0" id="circle10"/>
	<circle cx="57.2221" cy="348.465" r="4" fill="#0" id="circle11"/>
	<circle cx="69.0492" cy="210.975" r="4" fill="#0" id="circle12"/>
	<circle cx="70.5276" cy="355.857" r="4" fill="#0" id="circle13"/>
	<circle cx="79.3979" cy="199.148" r="4" fill="#0" id="circle14"/>
	<circle cx="82.3547" cy="366.206" r="4" fill="#0" id="circle15"/>
	<circle cx="91.225" cy="188.799" r="4" fill="#0" id="circle16"/>
	<circle cx="95.6602" cy="373.598" r="4" fill="#0" id="circle17"/>
	<circle cx="101.574" cy="176.972" r="4" fill="#0" id="circle18"/>
	<circle cx="110.444" cy="379.511" r="4" fill="#0" id="circle19"/>
	<circle cx="113.401" cy="166.623" r="4" fill="#0" id="circle20"/>
	<circle cx="122.271" cy="389.86" r="4" fill="#0" id="circle21"/>
	<circle cx="123.75" cy="154.796" r="4" fill="#0" id="circle22"/>
	<circle cx="135.577" cy="144.447" r="4" fill="#0" id="circle23"/>
	<circle cx="135.577" cy="397.252" r="4" fill="#0" id="circle24"/>
	<circle cx="148.882" cy="137.055" r="4" fill="#0" id="circle25"/>
	<circle cx="148.882" cy="404.644" r="4" fill="#0" id="circle26"/>
	<circle cx="160.709" cy="125.228" r="4" fill="#0" id="circle27"/>
	<circle cx="162.188" cy="412.036" r="4" fill="#0" id="circle28"/>
	<circle cx="169.58" cy="425.341" r="4" fill="#0" id="circle29"/>
	<circle cx="172.537" cy="114.879" r="4" fill="#0" id="circle30"/>
	<circle cx="176.972" cy="438.647" r="4" fill="#0" id="circle31"/>
	<circle cx="185.842" cy="107.487" r="4" fill="#0" id="circle32"/>
	<circle cx="188.799" cy="448.996" r="4" fill="#0" id="circle33"/>
	<circle cx="200.626" cy="107.487" r="4" fill="#0" id="circle34"/>
	<circle cx="203.583" cy="448.996" r="4" fill="#0" id="circle35"/>
	<circle cx="213.931" cy="100.095" r="4" fill="#0" id="circle36"/>
	<circle cx="218.367" cy="448.996" r="4" fill="#0" id="circle37"/>
	<circle cx="228.715" cy="94.1818" r="4" fill="#0" id="circle38"/>
	<circle cx="233.151" cy="448.996" r="4" fill="#0" id="circle39"/>
	<circle cx="240.542" cy="85.3115" r="4" fill="#0" id="circle40"/>
	<circle cx="242.021" cy="460.823" r="4" fill="#0" id="circle41"/>
	<circle cx="253.848" cy="77.9195" r="4" fill="#0" id="circle42"/>
	<circle cx="253.848" cy="471.171" r="4" fill="#0" id="circle43"/>
	<circle cx="264.197" cy="482.999" r="4" fill="#0" id="circle44"/>
	<circle cx="267.154" cy="70.5276" r="4" fill="#0" id="circle45"/>
	<circle cx="276.024" cy="493.347" r="4" fill="#0" id="circle46"/>
	<circle cx="280.459" cy="63.1356" r="4" fill="#0" id="circle47"/>
	<circle cx="289.329" cy="500.739" r="4" fill="#0" id="circle48"/>
	<circle cx="293.765" cy="55.7437" r="4" fill="#0" id="circle49"/>
	<circle cx="304.113" cy="500.739" r="4" fill="#0" id="circle50"/>
	<circle cx="307.07" cy="48.3517" r="4" fill="#0" id="circle51"/>
	<circle cx="318.897" cy="506.653" r="4" fill="#0" id="circle52"/>
	<circle cx="320.376" cy="40.9598" r="4" fill="#0" id="circle53"/>
	<circle cx="332.203" cy="514.045" r="4" fill="#0" id="circle54"/>
	<circle cx="333.681" cy="33.5678" r="4" fill="#0" id="circle55"/>
	<circle cx="344.03" cy="522.915" r="4" fill="#0" id="circle56"/>
	<circle cx="346.987" cy="26.1759" r="4" fill="#0" id="circle57"/>
	<circle cx="358.814" cy="522.915" r="4" fill="#0" id="circle58"/>
	<circle cx="360.292" cy="18.7839" r="4" fill="#0" id="circle59"/>
	<circle cx="372.119" cy="530.307" r="4" fill="#0" id="circle60"/>
	<circle cx="375.076" cy="18.7839" r="4" fill="#0" id="circle61"/>
	<circle cx="385.425" cy="537.699" r="4" fill="#0" id="circle62"/>
	<circle cx="389.86" cy="18.7839" r="4" fill="#0" id="circle63"/>
	<circle cx="400.209" cy="537.699" r="4" fill="#0" id="circle64"/>
	<circle cx="403.165" cy="11.392" r="4" fill="#0" id="circle65"/>
	<circle cx="414.993" cy="537.699" r="4" fill="#0" id="circle66"/>
	<circle cx="417.949" cy="11.392" r="4" fill="#0" id="circle67"/>
	<circle cx="428.298" cy="545.091" r="4" fill="#0" id="circle68"/>
	<circle cx="432.733" cy="8.43517" r="4" fill="#0" id="circle69"/>
	<circle cx="443.082" cy="549.526" r="4" fill="#0" id="circle70"/>
	<circle cx="447.517" cy="4" r="4" fill="#0" id="circle71"/>
	<circle cx="457.866" cy="552.483" r="4" fill="#0" id="circle72"/>
	<circle cx="462.301" cy="4" r="4" fill="#0" id="circle73"/>
	<circle cx="472.65" cy="552.483" r="4" fill="#0" id="circle74"/>
	<circle cx="477.085" cy="4" r="4" fill="#0" id="circle75"/>
	<circle cx="485.955" cy="545.091" r="4" fill="#0" id="circle76"/>
	<circle cx="491.869" cy="4" r="4" fill="#0" id="circle77"/>
	<circle cx="500.739" cy="545.091" r="4" fill="#0" id="circle78"/>
	<circle cx="506.653" cy="4" r="4" fill="#0" id="circle79"/>
	<circle cx="514.045" cy="537.699" r="4" fill="#0" id="circle80"/>
	<circle cx="521.437" cy="4" r="4" fill="#0" id="circle81"/>
	<circle cx="528.829" cy="537.699" r="4" fill="#0" id="circle82"/>
	<circle cx="536.221" cy="4" r="4" fill="#0" id="circle83"/>
	<circle cx="543.613" cy="537.699" r="4" fill="#0" id="circle84"/>
	<circle cx="551.004" cy="6.95678" r="4" fill="#0" id="circle85"/>
	<circle cx="555.44" cy="528.829" r="4" fill="#0" id="circle86"/>
	<circle cx="564.31" cy="14.3487" r="4" fill="#0" id="circle87"/>
	<circle cx="570.224" cy="521.437" r="4" fill="#0" id="circle88"/>
	<circle cx="579.094" cy="20.2623" r="4" fill="#0" id="circle89"/>
	<circle cx="585.007" cy="514.045" r="4" fill="#0" id="circle90"/>
	<circle cx="589.443" cy="32.0894" r="4" fill="#0" id="circle91"/>
	<circle cx="596.835" cy="493.347" r="4" fill="#0" id="circle92"/>
	<circle cx="604.227" cy="38.003" r="4" fill="#0" id="circle93"/>
	<circle cx="604.227" cy="478.563" r="4" fill="#0" id="circle94"/>
	<circle cx="614.575" cy="49.8301" r="4" fill="#0" id="circle95"/>
	<circle cx="616.054" cy="468.215" r="4" fill="#0" id="circle96"/>
	<circle cx="626.402" cy="60.1788" r="4" fill="#0" id="circle97"/>
	<circle cx="626.402" cy="456.387" r="4" fill="#0" id="circle98"/>
	<circle cx="636.751" cy="72.006" r="4" fill="#0" id="circle99"/>
	<circle cx="638.23" cy="446.039" r="4" fill="#0" id="circle100"/>
	<circle cx="651.535" cy="77.9195" r="4" fill="#0" id="circle101"/>
	<circle cx="653.013" cy="438.647" r="4" fill="#0" id="circle102"/>
	<circle cx="663.362" cy="426.82" r="4" fill="#0" id="circle103"/>
	<circle cx="664.841" cy="85.3115" r="4" fill="#0" id="circle104"/>
	<circle cx="675.189" cy="416.471" r="4" fill="#0" id="circle105"/>
	<circle cx="676.668" cy="95.6602" r="4" fill="#0" id="circle106"/>
	<circle cx="685.538" cy="107.487" r="4" fill="#0" id="circle107"/>
	<circle cx="689.973" cy="409.079" r="4" fill="#0" id="circle108"/>
	<circle cx="697.365" cy="116.358" r="4" fill="#0" id="circle109"/>
	<circle cx="700.322" cy="397.252" r="4" fill="#0" id="circle110"/>
	<circle cx="707.714" cy="128.185" r="4" fill="#0" id="circle111"/>
	<circle cx="712.149" cy="386.903" r="4" fill="#0" id="circle112"/>
	<circle cx="719.541" cy="138.534" r="4" fill="#0" id="circle113"/>
	<circle cx="722.498" cy="375.076" r="4" fill="#0" id="circle114"/>
	<circle cx="729.89" cy="150.361" r="4" fill="#0" id="circle115"/>
	<circle cx="734.325" cy="364.727" r="4" fill="#0" id="circle116"/>
	<circle cx="741.717" cy="160.709" r="4" fill="#0" id="circle117"/>
	<circle cx="744.674" cy="352.9" r="4" fill="#0" id="circle118"/>
	<circle cx="752.066" cy="172.537" r="4" fill="#0" id="circle119"/>
	<circle cx="756.501" cy="342.551" r="4" fill="#0" id="circle120"/>
	<circle cx="759.458" cy="185.842" r="4" fill="#0" id="circle121"/>
	<circle cx="763.893" cy="327.768" r="4" fill="#0" id="circle122"/>
	<circle cx="771.285" cy="312.984" r="4" fill="#0" id="circle123"/>
	<circle cx="772.763" cy="193.234" r="4" fill="#0" id="circle124"/>
	<circle cx="781.633" cy="301.156" r="4" fill="#0" id="circle125"/>
	<circle cx="787.547" cy="196.191" r="4" fill="#0" id="circle126"/>
	<circle cx="796.417" cy="301.156" r="4" fill="#0" id="circle127"/>
	<circle cx="802.331" cy="196.191" r="4" fill="#0" id="circle128"/>
	<circle cx="811.201" cy="301.156" r="4" fill="#0" id="circle129"/>
	<circle cx="817.115" cy="196.191" r="4" fill="#0" id="circle130"/>
	<circle cx="825.985" cy="301.156" r="4" fill="#0" id="circle131"/>
	<circle cx="831.899" cy="196.191" r="4" fill="#0" id="circle132"/>
	<circle cx="840.769" cy="304.113" r="4" fill="#0" id="circle133"/>
	<circle cx="845.204" cy="188.799" r="4" fill="#0" id="circle134"/>
	<circle cx="851.118" cy="315.94" r="4" fill="#0" id="circle135"/>
	<circle cx="859.988" cy="188.799" r="4" fill="#0" id="circle136"/>
	<circle cx="865.902" cy="321.854" r="4" fill="#0" id="circle137"/>
	<circle cx="874.772" cy="188.799" r="4" fill="#0" id="circle138"/>
	<circle cx="880.686" cy="323.332" r="4" fill="#0" id="circle139"/>
	<circle cx="889.556" cy="188.799" r="4" fill="#0" id="circle140"/>
	<circle cx="895.469" cy="323.332" r="4" fill="#0" id="circle141"/>
	<circle cx="904.34" cy="188.799" r="4" fill="#0" id="circle142"/>
	<circle cx="910.253" cy="329.246" r="4" fill="#0" id="circle143"/>
	<circle cx="917.645" cy="181.407" r="4" fill="#0" id="circle144"/>
	<circle cx="923.559" cy="336.638" r="4" fill="#0" id="circle145"/>
	<circle cx="932.429" cy="181.407" r="4" fill="#0" id="circle146"/>
	<circle cx="938.343" cy="338.116" r="4" fill="#0" id="circle147"/>
	<circle cx="947.213" cy="181.407" r="4" fill="#0" id="circle148"/>
	<circle cx="953.127" cy="338.116" r="4" fill="#0" id="circle149"/>
	<circle cx="961.997" cy="181.407" r="4" fill="#0" id="circle150"/>
	<circle cx="966.432" cy="330.724" r="4" fill="#0" id="circle151"/>
	<circle cx="976.781" cy="181.407" r="4" fill="#0" id="circle152"/>
	<circle cx="981.216" cy="315.94" r="4" fill="#0" id="circle153"/>
	<circle cx="987.13" cy="193.234" r="4" fill="#0" id="circle154"/>
	<circle cx="988.608" cy="271.589" r="4" fill="#0" id="circle155"/>
	<circle cx="988.608" cy="286.373" r="4" fill="#0" id="circle156"/>
	<circle cx="988.608" cy="301.156" r="4" fill="#0" id="circle157"/>
	<circle cx="994.522" cy="206.539" r="4" fill="#0" id="circle158"/>
	<circle cx="996" cy="221.323" r="4" fill="#0" id="circle159"/>
	<circle cx="996" cy="236.107" r="4" fill="#0" id="circle160"/>
	<circle cx="996" cy="250.891" r="4" fill="#0" id="circle161"/>
	</g>
</svg>