<?xml version="1.0" encoding="UTF-8" standalone="no"?>
<!-- Created with CurveBenchmark -->
<svg
	xmlns:dc="http://purl.org/dc/elements/1.1/"
	xmlns:cc="http://creativecommons.org/ns#"
	xmlns:rdf="http://www.w3.org/1999/02/22-rdf-syntax-ns#"
	xmlns:svg="http://www.w3.org/2000/svg"
	xmlns="http://www.w3.org/2000/svg"
	xmlns:sodipodi="http://sodipodi.sourceforge.net/DTD/sodipodi-0.dtd"
	xmlns:inkscape="http://www.inkscape.org/namespaces/inkscape"
	width="1000"
	height="1000"
	id="svg2"
	version="1.1"
	sodipodi:docname="manifold/nncrust-kk0729.png.txt">
<defs
	id="defs4" />
<metadata
	id="metadata7">
	<rdf:RDF>
		<cc:Work
			rdf:about="">
			<dc:format>image/svg+xml</dc:format>
			<dc:type
				rdf:resource="http://purl.org/dc/dcmitype/StillImage" />
			<dc:title></dc:title>
		</cc:Work>
	</rdf:RDF>
</metadata>
<g
	inkscape:label="Layer 1"
	inkscape:groupmode="layer"
	id="layer1">
	<path style="fill:none;stroke:red;stroke-width:1px;stroke-linecap:butt;stroke-linejoin:miter;stroke-opacity:1" d="M 128.204,129.839 115.13,142.913 z" id="boundary" inkscape:connector-curvature="0" />
	<path style="fill:none;stroke:red;stroke-width:1px;stroke-linecap:butt;stroke-linejoin:miter;stroke-opacity:1" d="M 115.13,142.913 98.7875,151.084 z" id="boundary" inkscape:connector-curvature="0" />
	<path style="fill:none;stroke:red;stroke-width:1px;stroke-linecap:butt;stroke-linejoin:miter;stroke-opacity:1" d="M 90.6161,167.427 98.7875,151.084 z" id="boundary" inkscape:connector-curvature="0" />
	<path style="fill:none;stroke:red;stroke-width:1px;stroke-linecap:butt;stroke-linejoin:miter;stroke-opacity:1" d="M 90.6161,167.427 75.9077,175.598 z" id="boundary" inkscape:connector-curvature="0" />
	<path style="fill:none;stroke:red;stroke-width:1px;stroke-linecap:butt;stroke-linejoin:miter;stroke-opacity:1" d="M 167.427,66.1021 180.501,53.028 z" id="boundary" inkscape:connector-curvature="0" />
	<path style="fill:none;stroke:red;stroke-width:1px;stroke-linecap:butt;stroke-linejoin:miter;stroke-opacity:1" d="M 155.987,85.7133 167.427,66.1021 z" id="boundary" inkscape:connector-curvature="0" />
	<path style="fill:none;stroke:red;stroke-width:1px;stroke-linecap:butt;stroke-linejoin:miter;stroke-opacity:1" d="M 147.815,102.056 155.987,85.7133 z" id="boundary" inkscape:connector-curvature="0" />
	<path style="fill:none;stroke:red;stroke-width:1px;stroke-linecap:butt;stroke-linejoin:miter;stroke-opacity:1" d="M 147.815,102.056 141.278,118.399 z" id="boundary" inkscape:connector-curvature="0" />
	<path style="fill:none;stroke:red;stroke-width:1px;stroke-linecap:butt;stroke-linejoin:miter;stroke-opacity:1" d="M 141.278,118.399 128.204,129.839 z" id="boundary" inkscape:connector-curvature="0" />
	<path style="fill:none;stroke:red;stroke-width:1px;stroke-linecap:butt;stroke-linejoin:miter;stroke-opacity:1" d="M 12.1713,245.871 12.1713,262.214 z" id="boundary" inkscape:connector-curvature="0" />
	<path style="fill:none;stroke:red;stroke-width:1px;stroke-linecap:butt;stroke-linejoin:miter;stroke-opacity:1" d="M 12.1713,262.214 4,278.557 z" id="boundary" inkscape:connector-curvature="0" />
	<path style="fill:none;stroke:red;stroke-width:1px;stroke-linecap:butt;stroke-linejoin:miter;stroke-opacity:1" d="M 12.1713,245.871 25.2455,232.797 z" id="boundary" inkscape:connector-curvature="0" />
	<path style="fill:none;stroke:red;stroke-width:1px;stroke-linecap:butt;stroke-linejoin:miter;stroke-opacity:1" d="M 4,278.557 12.1713,293.265 z" id="boundary" inkscape:connector-curvature="0" />
	<path style="fill:none;stroke:red;stroke-width:1px;stroke-linecap:butt;stroke-linejoin:miter;stroke-opacity:1" d="M 20.3427,307.974 12.1713,293.265 z" id="boundary" inkscape:connector-curvature="0" />
	<path style="fill:none;stroke:red;stroke-width:1px;stroke-linecap:butt;stroke-linejoin:miter;stroke-opacity:1" d="M 62.8336,187.038 75.9077,175.598 z" id="boundary" inkscape:connector-curvature="0" />
	<path style="fill:none;stroke:red;stroke-width:1px;stroke-linecap:butt;stroke-linejoin:miter;stroke-opacity:1" d="M 25.2455,232.797 36.6853,213.186 z" id="boundary" inkscape:connector-curvature="0" />
	<path style="fill:none;stroke:red;stroke-width:1px;stroke-linecap:butt;stroke-linejoin:miter;stroke-opacity:1" d="M 36.6853,213.186 49.7595,200.112 z" id="boundary" inkscape:connector-curvature="0" />
	<path style="fill:none;stroke:red;stroke-width:1px;stroke-linecap:butt;stroke-linejoin:miter;stroke-opacity:1" d="M 62.8336,187.038 49.7595,200.112 z" id="boundary" inkscape:connector-curvature="0" />
	<path style="fill:none;stroke:red;stroke-width:1px;stroke-linecap:butt;stroke-linejoin:miter;stroke-opacity:1" d="M 239.334,12.1713 254.043,4 z" id="boundary" inkscape:connector-curvature="0" />
	<path style="fill:none;stroke:red;stroke-width:1px;stroke-linecap:butt;stroke-linejoin:miter;stroke-opacity:1" d="M 254.043,4 270.386,4 z" id="boundary" inkscape:connector-curvature="0" />
	<path style="fill:none;stroke:red;stroke-width:1px;stroke-linecap:butt;stroke-linejoin:miter;stroke-opacity:1" d="M 193.575,39.9539 208.283,25.2455 z" id="boundary" inkscape:connector-curvature="0" />
	<path style="fill:none;stroke:red;stroke-width:1px;stroke-linecap:butt;stroke-linejoin:miter;stroke-opacity:1" d="M 208.283,25.2455 224.626,20.3427 z" id="boundary" inkscape:connector-curvature="0" />
	<path style="fill:none;stroke:red;stroke-width:1px;stroke-linecap:butt;stroke-linejoin:miter;stroke-opacity:1" d="M 239.334,12.1713 224.626,20.3427 z" id="boundary" inkscape:connector-curvature="0" />
	<path style="fill:none;stroke:red;stroke-width:1px;stroke-linecap:butt;stroke-linejoin:miter;stroke-opacity:1" d="M 270.386,4 286.728,4 z" id="boundary" inkscape:connector-curvature="0" />
	<path style="fill:none;stroke:red;stroke-width:1px;stroke-linecap:butt;stroke-linejoin:miter;stroke-opacity:1" d="M 286.728,4 301.437,12.1713 z" id="boundary" inkscape:connector-curvature="0" />
	<path style="fill:none;stroke:red;stroke-width:1px;stroke-linecap:butt;stroke-linejoin:miter;stroke-opacity:1" d="M 332.488,25.2455 316.145,20.3427 z" id="boundary" inkscape:connector-curvature="0" />
	<path style="fill:none;stroke:red;stroke-width:1px;stroke-linecap:butt;stroke-linejoin:miter;stroke-opacity:1" d="M 316.145,20.3427 301.437,12.1713 z" id="boundary" inkscape:connector-curvature="0" />
	<path style="fill:none;stroke:red;stroke-width:1px;stroke-linecap:butt;stroke-linejoin:miter;stroke-opacity:1" d="M 332.488,25.2455 345.562,36.6853 z" id="boundary" inkscape:connector-curvature="0" />
	<path style="fill:none;stroke:red;stroke-width:1px;stroke-linecap:butt;stroke-linejoin:miter;stroke-opacity:1" d="M 345.562,36.6853 361.904,38.3196 z" id="boundary" inkscape:connector-curvature="0" />
	<path style="fill:none;stroke:red;stroke-width:1px;stroke-linecap:butt;stroke-linejoin:miter;stroke-opacity:1" d="M 361.904,38.3196 373.344,51.3937 z" id="boundary" inkscape:connector-curvature="0" />
	<path style="fill:none;stroke:red;stroke-width:1px;stroke-linecap:butt;stroke-linejoin:miter;stroke-opacity:1" d="M 373.344,51.3937 386.418,61.1993 z" id="boundary" inkscape:connector-curvature="0" />
	<path style="fill:none;stroke:red;stroke-width:1px;stroke-linecap:butt;stroke-linejoin:miter;stroke-opacity:1" d="M 401.127,69.3707 386.418,61.1993 z" id="boundary" inkscape:connector-curvature="0" />
	<path style="fill:none;stroke:red;stroke-width:1px;stroke-linecap:butt;stroke-linejoin:miter;stroke-opacity:1" d="M 414.201,79.1763 401.127,69.3707 z" id="boundary" inkscape:connector-curvature="0" />
	<path style="fill:none;stroke:red;stroke-width:1px;stroke-linecap:butt;stroke-linejoin:miter;stroke-opacity:1" d="M 427.275,88.9819 438.715,102.056 z" id="boundary" inkscape:connector-curvature="0" />
	<path style="fill:none;stroke:red;stroke-width:1px;stroke-linecap:butt;stroke-linejoin:miter;stroke-opacity:1" d="M 438.715,102.056 446.886,116.764 z" id="boundary" inkscape:connector-curvature="0" />
	<path style="fill:none;stroke:red;stroke-width:1px;stroke-linecap:butt;stroke-linejoin:miter;stroke-opacity:1" d="M 414.201,79.1763 427.275,88.9819 z" id="boundary" inkscape:connector-curvature="0" />
	<path style="fill:none;stroke:red;stroke-width:1px;stroke-linecap:butt;stroke-linejoin:miter;stroke-opacity:1" d="M 180.501,53.028 193.575,39.9539 z" id="boundary" inkscape:connector-curvature="0" />
	<path style="fill:none;stroke:red;stroke-width:1px;stroke-linecap:butt;stroke-linejoin:miter;stroke-opacity:1" d="M 20.3427,307.974 25.2455,324.316 z" id="boundary" inkscape:connector-curvature="0" />
	<path style="fill:none;stroke:red;stroke-width:1px;stroke-linecap:butt;stroke-linejoin:miter;stroke-opacity:1" d="M 36.6853,337.39 25.2455,324.316 z" id="boundary" inkscape:connector-curvature="0" />
	<path style="fill:none;stroke:red;stroke-width:1px;stroke-linecap:butt;stroke-linejoin:miter;stroke-opacity:1" d="M 36.6853,337.39 38.3196,353.733 z" id="boundary" inkscape:connector-curvature="0" />
	<path style="fill:none;stroke:red;stroke-width:1px;stroke-linecap:butt;stroke-linejoin:miter;stroke-opacity:1" d="M 51.3937,365.173 38.3196,353.733 z" id="boundary" inkscape:connector-curvature="0" />
	<path style="fill:none;stroke:red;stroke-width:1px;stroke-linecap:butt;stroke-linejoin:miter;stroke-opacity:1" d="M 51.3937,365.173 57.9308,381.516 z" id="boundary" inkscape:connector-curvature="0" />
	<path style="fill:none;stroke:red;stroke-width:1px;stroke-linecap:butt;stroke-linejoin:miter;stroke-opacity:1" d="M 71.0049,392.956 57.9308,381.516 z" id="boundary" inkscape:connector-curvature="0" />
	<path style="fill:none;stroke:red;stroke-width:1px;stroke-linecap:butt;stroke-linejoin:miter;stroke-opacity:1" d="M 95.5189,417.47 82.4448,406.03 z" id="boundary" inkscape:connector-curvature="0" />
	<path style="fill:none;stroke:red;stroke-width:1px;stroke-linecap:butt;stroke-linejoin:miter;stroke-opacity:1" d="M 82.4448,406.03 71.0049,392.956 z" id="boundary" inkscape:connector-curvature="0" />
	<path style="fill:none;stroke:red;stroke-width:1px;stroke-linecap:butt;stroke-linejoin:miter;stroke-opacity:1" d="M 95.5189,417.47 106.959,430.544 z" id="boundary" inkscape:connector-curvature="0" />
	<path style="fill:none;stroke:red;stroke-width:1px;stroke-linecap:butt;stroke-linejoin:miter;stroke-opacity:1" d="M 106.959,430.544 120.033,441.984 z" id="boundary" inkscape:connector-curvature="0" />
	<path style="fill:none;stroke:red;stroke-width:1px;stroke-linecap:butt;stroke-linejoin:miter;stroke-opacity:1" d="M 120.033,441.984 131.473,455.058 z" id="boundary" inkscape:connector-curvature="0" />
	<path style="fill:none;stroke:red;stroke-width:1px;stroke-linecap:butt;stroke-linejoin:miter;stroke-opacity:1" d="M 131.473,455.058 144.547,466.498 z" id="boundary" inkscape:connector-curvature="0" />
	<path style="fill:none;stroke:red;stroke-width:1px;stroke-linecap:butt;stroke-linejoin:miter;stroke-opacity:1" d="M 451.789,419.104 443.618,435.446 z" id="boundary" inkscape:connector-curvature="0" />
	<path style="fill:none;stroke:red;stroke-width:1px;stroke-linecap:butt;stroke-linejoin:miter;stroke-opacity:1" d="M 164.158,494.28 170.695,510.623 z" id="boundary" inkscape:connector-curvature="0" />
	<path style="fill:none;stroke:red;stroke-width:1px;stroke-linecap:butt;stroke-linejoin:miter;stroke-opacity:1" d="M 170.695,510.623 183.769,520.428 z" id="boundary" inkscape:connector-curvature="0" />
	<path style="fill:none;stroke:red;stroke-width:1px;stroke-linecap:butt;stroke-linejoin:miter;stroke-opacity:1" d="M 183.769,520.428 188.672,536.771 z" id="boundary" inkscape:connector-curvature="0" />
	<path style="fill:none;stroke:red;stroke-width:1px;stroke-linecap:butt;stroke-linejoin:miter;stroke-opacity:1" d="M 201.746,548.211 188.672,536.771 z" id="boundary" inkscape:connector-curvature="0" />
	<path style="fill:none;stroke:red;stroke-width:1px;stroke-linecap:butt;stroke-linejoin:miter;stroke-opacity:1" d="M 164.158,494.28 155.987,479.572 z" id="boundary" inkscape:connector-curvature="0" />
	<path style="fill:none;stroke:red;stroke-width:1px;stroke-linecap:butt;stroke-linejoin:miter;stroke-opacity:1" d="M 144.547,466.498 155.987,479.572 z" id="boundary" inkscape:connector-curvature="0" />
	<path style="fill:none;stroke:red;stroke-width:1px;stroke-linecap:butt;stroke-linejoin:miter;stroke-opacity:1" d="M 381.516,520.428 394.59,508.988 z" id="boundary" inkscape:connector-curvature="0" />
	<path style="fill:none;stroke:red;stroke-width:1px;stroke-linecap:butt;stroke-linejoin:miter;stroke-opacity:1" d="M 381.516,520.428 366.807,528.6 z" id="boundary" inkscape:connector-curvature="0" />
	<path style="fill:none;stroke:red;stroke-width:1px;stroke-linecap:butt;stroke-linejoin:miter;stroke-opacity:1" d="M 352.099,536.771 366.807,528.6 z" id="boundary" inkscape:connector-curvature="0" />
	<path style="fill:none;stroke:red;stroke-width:1px;stroke-linecap:butt;stroke-linejoin:miter;stroke-opacity:1" d="M 406.03,495.914 394.59,508.988 z" id="boundary" inkscape:connector-curvature="0" />
	<path style="fill:none;stroke:red;stroke-width:1px;stroke-linecap:butt;stroke-linejoin:miter;stroke-opacity:1" d="M 435.446,451.789 443.618,435.446 z" id="boundary" inkscape:connector-curvature="0" />
	<path style="fill:none;stroke:red;stroke-width:1px;stroke-linecap:butt;stroke-linejoin:miter;stroke-opacity:1" d="M 427.275,468.132 419.104,484.474 z" id="boundary" inkscape:connector-curvature="0" />
	<path style="fill:none;stroke:red;stroke-width:1px;stroke-linecap:butt;stroke-linejoin:miter;stroke-opacity:1" d="M 419.104,484.474 406.03,495.914 z" id="boundary" inkscape:connector-curvature="0" />
	<path style="fill:none;stroke:red;stroke-width:1px;stroke-linecap:butt;stroke-linejoin:miter;stroke-opacity:1" d="M 435.446,451.789 427.275,468.132 z" id="boundary" inkscape:connector-curvature="0" />
	<path style="fill:none;stroke:red;stroke-width:1px;stroke-linecap:butt;stroke-linejoin:miter;stroke-opacity:1" d="M 201.746,548.211 213.186,561.285 z" id="boundary" inkscape:connector-curvature="0" />
	<path style="fill:none;stroke:red;stroke-width:1px;stroke-linecap:butt;stroke-linejoin:miter;stroke-opacity:1" d="M 229.529,561.285 213.186,561.285 z" id="boundary" inkscape:connector-curvature="0" />
	<path style="fill:none;stroke:red;stroke-width:1px;stroke-linecap:butt;stroke-linejoin:miter;stroke-opacity:1" d="M 260.58,569.456 244.237,569.456 z" id="boundary" inkscape:connector-curvature="0" />
	<path style="fill:none;stroke:red;stroke-width:1px;stroke-linecap:butt;stroke-linejoin:miter;stroke-opacity:1" d="M 244.237,569.456 229.529,561.285 z" id="boundary" inkscape:connector-curvature="0" />
	<path style="fill:none;stroke:red;stroke-width:1px;stroke-linecap:butt;stroke-linejoin:miter;stroke-opacity:1" d="M 321.048,549.845 337.39,544.942 z" id="boundary" inkscape:connector-curvature="0" />
	<path style="fill:none;stroke:red;stroke-width:1px;stroke-linecap:butt;stroke-linejoin:miter;stroke-opacity:1" d="M 307.974,561.285 321.048,549.845 z" id="boundary" inkscape:connector-curvature="0" />
	<path style="fill:none;stroke:red;stroke-width:1px;stroke-linecap:butt;stroke-linejoin:miter;stroke-opacity:1" d="M 276.923,569.456 291.631,561.285 z" id="boundary" inkscape:connector-curvature="0" />
	<path style="fill:none;stroke:red;stroke-width:1px;stroke-linecap:butt;stroke-linejoin:miter;stroke-opacity:1" d="M 291.631,561.285 307.974,561.285 z" id="boundary" inkscape:connector-curvature="0" />
	<path style="fill:none;stroke:red;stroke-width:1px;stroke-linecap:butt;stroke-linejoin:miter;stroke-opacity:1" d="M 276.923,569.456 260.58,569.456 z" id="boundary" inkscape:connector-curvature="0" />
	<path style="fill:none;stroke:red;stroke-width:1px;stroke-linecap:butt;stroke-linejoin:miter;stroke-opacity:1" d="M 352.099,536.771 337.39,544.942 z" id="boundary" inkscape:connector-curvature="0" />
	<path style="fill:none;stroke:red;stroke-width:1px;stroke-linecap:butt;stroke-linejoin:miter;stroke-opacity:1" d="M 455.058,131.473 463.229,146.181 z" id="boundary" inkscape:connector-curvature="0" />
	<path style="fill:none;stroke:red;stroke-width:1px;stroke-linecap:butt;stroke-linejoin:miter;stroke-opacity:1" d="M 463.229,146.181 463.229,162.524 z" id="boundary" inkscape:connector-curvature="0" />
	<path style="fill:none;stroke:red;stroke-width:1px;stroke-linecap:butt;stroke-linejoin:miter;stroke-opacity:1" d="M 463.229,162.524 463.229,178.867 z" id="boundary" inkscape:connector-curvature="0" />
	<path style="fill:none;stroke:red;stroke-width:1px;stroke-linecap:butt;stroke-linejoin:miter;stroke-opacity:1" d="M 463.229,178.867 468.132,195.209 z" id="boundary" inkscape:connector-curvature="0" />
	<path style="fill:none;stroke:red;stroke-width:1px;stroke-linecap:butt;stroke-linejoin:miter;stroke-opacity:1" d="M 468.132,195.209 484.474,200.112 z" id="boundary" inkscape:connector-curvature="0" />
	<path style="fill:none;stroke:red;stroke-width:1px;stroke-linecap:butt;stroke-linejoin:miter;stroke-opacity:1" d="M 515.526,209.918 528.6,221.357 z" id="boundary" inkscape:connector-curvature="0" />
	<path style="fill:none;stroke:red;stroke-width:1px;stroke-linecap:butt;stroke-linejoin:miter;stroke-opacity:1" d="M 515.526,209.918 500.817,201.746 z" id="boundary" inkscape:connector-curvature="0" />
	<path style="fill:none;stroke:red;stroke-width:1px;stroke-linecap:butt;stroke-linejoin:miter;stroke-opacity:1" d="M 484.474,200.112 500.817,201.746 z" id="boundary" inkscape:connector-curvature="0" />
	<path style="fill:none;stroke:red;stroke-width:1px;stroke-linecap:butt;stroke-linejoin:miter;stroke-opacity:1" d="M 540.04,234.432 544.942,250.774 z" id="boundary" inkscape:connector-curvature="0" />
	<path style="fill:none;stroke:red;stroke-width:1px;stroke-linecap:butt;stroke-linejoin:miter;stroke-opacity:1" d="M 528.6,221.357 540.04,234.432 z" id="boundary" inkscape:connector-curvature="0" />
	<path style="fill:none;stroke:red;stroke-width:1px;stroke-linecap:butt;stroke-linejoin:miter;stroke-opacity:1" d="M 584.165,276.923 567.822,273.654 z" id="boundary" inkscape:connector-curvature="0" />
	<path style="fill:none;stroke:red;stroke-width:1px;stroke-linecap:butt;stroke-linejoin:miter;stroke-opacity:1" d="M 553.114,265.483 567.822,273.654 z" id="boundary" inkscape:connector-curvature="0" />
	<path style="fill:none;stroke:red;stroke-width:1px;stroke-linecap:butt;stroke-linejoin:miter;stroke-opacity:1" d="M 553.114,265.483 544.942,250.774 z" id="boundary" inkscape:connector-curvature="0" />
	<path style="fill:none;stroke:red;stroke-width:1px;stroke-linecap:butt;stroke-linejoin:miter;stroke-opacity:1" d="M 600.507,281.825 584.165,276.923 z" id="boundary" inkscape:connector-curvature="0" />
	<path style="fill:none;stroke:red;stroke-width:1px;stroke-linecap:butt;stroke-linejoin:miter;stroke-opacity:1" d="M 616.85,281.825 600.507,281.825 z" id="boundary" inkscape:connector-curvature="0" />
	<path style="fill:none;stroke:red;stroke-width:1px;stroke-linecap:butt;stroke-linejoin:miter;stroke-opacity:1" d="M 616.85,281.825 633.193,285.094 z" id="boundary" inkscape:connector-curvature="0" />
	<path style="fill:none;stroke:red;stroke-width:1px;stroke-linecap:butt;stroke-linejoin:miter;stroke-opacity:1" d="M 633.193,285.094 649.535,289.997 z" id="boundary" inkscape:connector-curvature="0" />
	<path style="fill:none;stroke:red;stroke-width:1px;stroke-linecap:butt;stroke-linejoin:miter;stroke-opacity:1" d="M 665.878,289.997 649.535,289.997 z" id="boundary" inkscape:connector-curvature="0" />
	<path style="fill:none;stroke:red;stroke-width:1px;stroke-linecap:butt;stroke-linejoin:miter;stroke-opacity:1" d="M 665.878,289.997 682.221,289.997 z" id="boundary" inkscape:connector-curvature="0" />
	<path style="fill:none;stroke:red;stroke-width:1px;stroke-linecap:butt;stroke-linejoin:miter;stroke-opacity:1" d="M 682.221,289.997 698.563,289.997 z" id="boundary" inkscape:connector-curvature="0" />
	<path style="fill:none;stroke:red;stroke-width:1px;stroke-linecap:butt;stroke-linejoin:miter;stroke-opacity:1" d="M 455.058,131.473 446.886,116.764 z" id="boundary" inkscape:connector-curvature="0" />
	<path style="fill:none;stroke:red;stroke-width:1px;stroke-linecap:butt;stroke-linejoin:miter;stroke-opacity:1" d="M 698.563,289.997 714.906,293.265 z" id="boundary" inkscape:connector-curvature="0" />
	<path style="fill:none;stroke:red;stroke-width:1px;stroke-linecap:butt;stroke-linejoin:miter;stroke-opacity:1" d="M 731.249,298.168 747.591,298.168 z" id="boundary" inkscape:connector-curvature="0" />
	<path style="fill:none;stroke:red;stroke-width:1px;stroke-linecap:butt;stroke-linejoin:miter;stroke-opacity:1" d="M 731.249,298.168 714.906,293.265 z" id="boundary" inkscape:connector-curvature="0" />
	<path style="fill:none;stroke:red;stroke-width:1px;stroke-linecap:butt;stroke-linejoin:miter;stroke-opacity:1" d="M 762.3,306.339 778.643,306.339 z" id="boundary" inkscape:connector-curvature="0" />
	<path style="fill:none;stroke:red;stroke-width:1px;stroke-linecap:butt;stroke-linejoin:miter;stroke-opacity:1" d="M 762.3,306.339 747.591,298.168 z" id="boundary" inkscape:connector-curvature="0" />
	<path style="fill:none;stroke:red;stroke-width:1px;stroke-linecap:butt;stroke-linejoin:miter;stroke-opacity:1" d="M 794.985,306.339 778.643,306.339 z" id="boundary" inkscape:connector-curvature="0" />
	<path style="fill:none;stroke:red;stroke-width:1px;stroke-linecap:butt;stroke-linejoin:miter;stroke-opacity:1" d="M 811.328,306.339 794.985,306.339 z" id="boundary" inkscape:connector-curvature="0" />
	<path style="fill:none;stroke:red;stroke-width:1px;stroke-linecap:butt;stroke-linejoin:miter;stroke-opacity:1" d="M 811.328,306.339 827.671,307.974 z" id="boundary" inkscape:connector-curvature="0" />
	<path style="fill:none;stroke:red;stroke-width:1px;stroke-linecap:butt;stroke-linejoin:miter;stroke-opacity:1" d="M 844.013,314.511 860.356,314.511 z" id="boundary" inkscape:connector-curvature="0" />
	<path style="fill:none;stroke:red;stroke-width:1px;stroke-linecap:butt;stroke-linejoin:miter;stroke-opacity:1" d="M 844.013,314.511 827.671,307.974 z" id="boundary" inkscape:connector-curvature="0" />
	<path style="fill:none;stroke:red;stroke-width:1px;stroke-linecap:butt;stroke-linejoin:miter;stroke-opacity:1" d="M 876.699,314.511 860.356,314.511 z" id="boundary" inkscape:connector-curvature="0" />
	<path style="fill:none;stroke:red;stroke-width:1px;stroke-linecap:butt;stroke-linejoin:miter;stroke-opacity:1" d="M 893.041,314.511 876.699,314.511 z" id="boundary" inkscape:connector-curvature="0" />
	<path style="fill:none;stroke:red;stroke-width:1px;stroke-linecap:butt;stroke-linejoin:miter;stroke-opacity:1" d="M 893.041,314.511 909.384,316.145 z" id="boundary" inkscape:connector-curvature="0" />
	<path style="fill:none;stroke:red;stroke-width:1px;stroke-linecap:butt;stroke-linejoin:miter;stroke-opacity:1" d="M 956.778,330.853 940.435,330.853 z" id="boundary" inkscape:connector-curvature="0" />
	<path style="fill:none;stroke:red;stroke-width:1px;stroke-linecap:butt;stroke-linejoin:miter;stroke-opacity:1" d="M 940.435,330.853 925.727,322.682 z" id="boundary" inkscape:connector-curvature="0" />
	<path style="fill:none;stroke:red;stroke-width:1px;stroke-linecap:butt;stroke-linejoin:miter;stroke-opacity:1" d="M 973.12,330.853 956.778,330.853 z" id="boundary" inkscape:connector-curvature="0" />
	<path style="fill:none;stroke:red;stroke-width:1px;stroke-linecap:butt;stroke-linejoin:miter;stroke-opacity:1" d="M 909.384,316.145 925.727,322.682 z" id="boundary" inkscape:connector-curvature="0" />
	<path style="fill:none;stroke:red;stroke-width:1px;stroke-linecap:butt;stroke-linejoin:miter;stroke-opacity:1" d="M 571.091,340.659 587.433,340.659 z" id="boundary" inkscape:connector-curvature="0" />
	<path style="fill:none;stroke:red;stroke-width:1px;stroke-linecap:butt;stroke-linejoin:miter;stroke-opacity:1" d="M 556.382,348.83 571.091,340.659 z" id="boundary" inkscape:connector-curvature="0" />
	<path style="fill:none;stroke:red;stroke-width:1px;stroke-linecap:butt;stroke-linejoin:miter;stroke-opacity:1" d="M 603.776,340.659 620.119,340.659 z" id="boundary" inkscape:connector-curvature="0" />
	<path style="fill:none;stroke:red;stroke-width:1px;stroke-linecap:butt;stroke-linejoin:miter;stroke-opacity:1" d="M 603.776,340.659 587.433,340.659 z" id="boundary" inkscape:connector-curvature="0" />
	<path style="fill:none;stroke:red;stroke-width:1px;stroke-linecap:butt;stroke-linejoin:miter;stroke-opacity:1" d="M 636.461,340.659 652.804,340.659 z" id="boundary" inkscape:connector-curvature="0" />
	<path style="fill:none;stroke:red;stroke-width:1px;stroke-linecap:butt;stroke-linejoin:miter;stroke-opacity:1" d="M 669.147,340.659 685.489,340.659 z" id="boundary" inkscape:connector-curvature="0" />
	<path style="fill:none;stroke:red;stroke-width:1px;stroke-linecap:butt;stroke-linejoin:miter;stroke-opacity:1" d="M 701.832,340.659 685.489,340.659 z" id="boundary" inkscape:connector-curvature="0" />
	<path style="fill:none;stroke:red;stroke-width:1px;stroke-linecap:butt;stroke-linejoin:miter;stroke-opacity:1" d="M 669.147,340.659 652.804,340.659 z" id="boundary" inkscape:connector-curvature="0" />
	<path style="fill:none;stroke:red;stroke-width:1px;stroke-linecap:butt;stroke-linejoin:miter;stroke-opacity:1" d="M 636.461,340.659 620.119,340.659 z" id="boundary" inkscape:connector-curvature="0" />
	<path style="fill:none;stroke:red;stroke-width:1px;stroke-linecap:butt;stroke-linejoin:miter;stroke-opacity:1" d="M 477.937,397.858 494.28,397.858 z" id="boundary" inkscape:connector-curvature="0" />
	<path style="fill:none;stroke:red;stroke-width:1px;stroke-linecap:butt;stroke-linejoin:miter;stroke-opacity:1" d="M 463.229,406.03 477.937,397.858 z" id="boundary" inkscape:connector-curvature="0" />
	<path style="fill:none;stroke:red;stroke-width:1px;stroke-linecap:butt;stroke-linejoin:miter;stroke-opacity:1" d="M 451.789,419.104 463.229,406.03 z" id="boundary" inkscape:connector-curvature="0" />
	<path style="fill:none;stroke:red;stroke-width:1px;stroke-linecap:butt;stroke-linejoin:miter;stroke-opacity:1" d="M 494.28,397.858 510.623,397.858 z" id="boundary" inkscape:connector-curvature="0" />
	<path style="fill:none;stroke:red;stroke-width:1px;stroke-linecap:butt;stroke-linejoin:miter;stroke-opacity:1" d="M 523.697,388.053 510.623,397.858 z" id="boundary" inkscape:connector-curvature="0" />
	<path style="fill:none;stroke:red;stroke-width:1px;stroke-linecap:butt;stroke-linejoin:miter;stroke-opacity:1" d="M 523.697,388.053 531.868,371.71 z" id="boundary" inkscape:connector-curvature="0" />
	<path style="fill:none;stroke:red;stroke-width:1px;stroke-linecap:butt;stroke-linejoin:miter;stroke-opacity:1" d="M 701.832,340.659 718.175,340.659 z" id="boundary" inkscape:connector-curvature="0" />
	<path style="fill:none;stroke:red;stroke-width:1px;stroke-linecap:butt;stroke-linejoin:miter;stroke-opacity:1" d="M 540.04,355.367 531.868,371.71 z" id="boundary" inkscape:connector-curvature="0" />
	<path style="fill:none;stroke:red;stroke-width:1px;stroke-linecap:butt;stroke-linejoin:miter;stroke-opacity:1" d="M 540.04,355.367 556.382,348.83 z" id="boundary" inkscape:connector-curvature="0" />
	<path style="fill:none;stroke:red;stroke-width:1px;stroke-linecap:butt;stroke-linejoin:miter;stroke-opacity:1" d="M 718.175,340.659 734.517,340.659 z" id="boundary" inkscape:connector-curvature="0" />
	<path style="fill:none;stroke:red;stroke-width:1px;stroke-linecap:butt;stroke-linejoin:miter;stroke-opacity:1" d="M 750.86,340.659 734.517,340.659 z" id="boundary" inkscape:connector-curvature="0" />
	<path style="fill:none;stroke:red;stroke-width:1px;stroke-linecap:butt;stroke-linejoin:miter;stroke-opacity:1" d="M 767.203,340.659 783.545,340.659 z" id="boundary" inkscape:connector-curvature="0" />
	<path style="fill:none;stroke:red;stroke-width:1px;stroke-linecap:butt;stroke-linejoin:miter;stroke-opacity:1" d="M 767.203,340.659 750.86,340.659 z" id="boundary" inkscape:connector-curvature="0" />
	<path style="fill:none;stroke:red;stroke-width:1px;stroke-linecap:butt;stroke-linejoin:miter;stroke-opacity:1" d="M 865.259,348.83 848.916,348.83 z" id="boundary" inkscape:connector-curvature="0" />
	<path style="fill:none;stroke:red;stroke-width:1px;stroke-linecap:butt;stroke-linejoin:miter;stroke-opacity:1" d="M 989.463,330.853 973.12,330.853 z" id="boundary" inkscape:connector-curvature="0" />
	<path style="fill:none;stroke:red;stroke-width:1px;stroke-linecap:butt;stroke-linejoin:miter;stroke-opacity:1" d="M 832.573,348.83 816.231,345.562 z" id="boundary" inkscape:connector-curvature="0" />
	<path style="fill:none;stroke:red;stroke-width:1px;stroke-linecap:butt;stroke-linejoin:miter;stroke-opacity:1" d="M 816.231,345.562 799.888,340.659 z" id="boundary" inkscape:connector-curvature="0" />
	<path style="fill:none;stroke:red;stroke-width:1px;stroke-linecap:butt;stroke-linejoin:miter;stroke-opacity:1" d="M 783.545,340.659 799.888,340.659 z" id="boundary" inkscape:connector-curvature="0" />
	<path style="fill:none;stroke:red;stroke-width:1px;stroke-linecap:butt;stroke-linejoin:miter;stroke-opacity:1" d="M 848.916,348.83 832.573,348.83 z" id="boundary" inkscape:connector-curvature="0" />
	<path style="fill:none;stroke:red;stroke-width:1px;stroke-linecap:butt;stroke-linejoin:miter;stroke-opacity:1" d="M 881.601,348.83 897.944,348.83 z" id="boundary" inkscape:connector-curvature="0" />
	<path style="fill:none;stroke:red;stroke-width:1px;stroke-linecap:butt;stroke-linejoin:miter;stroke-opacity:1" d="M 914.287,348.83 897.944,348.83 z" id="boundary" inkscape:connector-curvature="0" />
	<path style="fill:none;stroke:red;stroke-width:1px;stroke-linecap:butt;stroke-linejoin:miter;stroke-opacity:1" d="M 881.601,348.83 865.259,348.83 z" id="boundary" inkscape:connector-curvature="0" />
	<path style="fill:none;stroke:red;stroke-width:1px;stroke-linecap:butt;stroke-linejoin:miter;stroke-opacity:1" d="M 930.629,348.83 946.972,348.83 z" id="boundary" inkscape:connector-curvature="0" />
	<path style="fill:none;stroke:red;stroke-width:1px;stroke-linecap:butt;stroke-linejoin:miter;stroke-opacity:1" d="M 963.315,348.83 979.657,348.83 z" id="boundary" inkscape:connector-curvature="0" />
	<path style="fill:none;stroke:red;stroke-width:1px;stroke-linecap:butt;stroke-linejoin:miter;stroke-opacity:1" d="M 996,348.83 979.657,348.83 z" id="boundary" inkscape:connector-curvature="0" />
	<path style="fill:none;stroke:red;stroke-width:1px;stroke-linecap:butt;stroke-linejoin:miter;stroke-opacity:1" d="M 989.463,330.853 996,348.83 z" id="boundary" inkscape:connector-curvature="0" />
	<path style="fill:none;stroke:red;stroke-width:1px;stroke-linecap:butt;stroke-linejoin:miter;stroke-opacity:1" d="M 963.315,348.83 946.972,348.83 z" id="boundary" inkscape:connector-curvature="0" />
	<path style="fill:none;stroke:red;stroke-width:1px;stroke-linecap:butt;stroke-linejoin:miter;stroke-opacity:1" d="M 930.629,348.83 914.287,348.83 z" id="boundary" inkscape:connector-curvature="0" />
	<circle cx="4" cy="278.557" r="4" fill="#0" id="circle0"/>
	<circle cx="12.1713" cy="245.871" r="4" fill="#0" id="circle1"/>
	<circle cx="12.1713" cy="262.214" r="4" fill="#0" id="circle2"/>
	<circle cx="12.1713" cy="293.265" r="4" fill="#0" id="circle3"/>
	<circle cx="20.3427" cy="307.974" r="4" fill="#0" id="circle4"/>
	<circle cx="25.2455" cy="232.797" r="4" fill="#0" id="circle5"/>
	<circle cx="25.2455" cy="324.316" r="4" fill="#0" id="circle6"/>
	<circle cx="36.6853" cy="213.186" r="4" fill="#0" id="circle7"/>
	<circle cx="36.6853" cy="337.39" r="4" fill="#0" id="circle8"/>
	<circle cx="38.3196" cy="353.733" r="4" fill="#0" id="circle9"/>
	<circle cx="49.7595" cy="200.112" r="4" fill="#0" id="circle10"/>
	<circle cx="51.3937" cy="365.173" r="4" fill="#0" id="circle11"/>
	<circle cx="57.9308" cy="381.516" r="4" fill="#0" id="circle12"/>
	<circle cx="62.8336" cy="187.038" r="4" fill="#0" id="circle13"/>
	<circle cx="71.0049" cy="392.956" r="4" fill="#0" id="circle14"/>
	<circle cx="75.9077" cy="175.598" r="4" fill="#0" id="circle15"/>
	<circle cx="82.4448" cy="406.03" r="4" fill="#0" id="circle16"/>
	<circle cx="90.6161" cy="167.427" r="4" fill="#0" id="circle17"/>
	<circle cx="95.5189" cy="417.47" r="4" fill="#0" id="circle18"/>
	<circle cx="98.7875" cy="151.084" r="4" fill="#0" id="circle19"/>
	<circle cx="106.959" cy="430.544" r="4" fill="#0" id="circle20"/>
	<circle cx="115.13" cy="142.913" r="4" fill="#0" id="circle21"/>
	<circle cx="120.033" cy="441.984" r="4" fill="#0" id="circle22"/>
	<circle cx="128.204" cy="129.839" r="4" fill="#0" id="circle23"/>
	<circle cx="131.473" cy="455.058" r="4" fill="#0" id="circle24"/>
	<circle cx="141.278" cy="118.399" r="4" fill="#0" id="circle25"/>
	<circle cx="144.547" cy="466.498" r="4" fill="#0" id="circle26"/>
	<circle cx="147.815" cy="102.056" r="4" fill="#0" id="circle27"/>
	<circle cx="155.987" cy="85.7133" r="4" fill="#0" id="circle28"/>
	<circle cx="155.987" cy="479.572" r="4" fill="#0" id="circle29"/>
	<circle cx="164.158" cy="494.28" r="4" fill="#0" id="circle30"/>
	<circle cx="167.427" cy="66.1021" r="4" fill="#0" id="circle31"/>
	<circle cx="170.695" cy="510.623" r="4" fill="#0" id="circle32"/>
	<circle cx="180.501" cy="53.028" r="4" fill="#0" id="circle33"/>
	<circle cx="183.769" cy="520.428" r="4" fill="#0" id="circle34"/>
	<circle cx="188.672" cy="536.771" r="4" fill="#0" id="circle35"/>
	<circle cx="193.575" cy="39.9539" r="4" fill="#0" id="circle36"/>
	<circle cx="201.746" cy="548.211" r="4" fill="#0" id="circle37"/>
	<circle cx="208.283" cy="25.2455" r="4" fill="#0" id="circle38"/>
	<circle cx="213.186" cy="561.285" r="4" fill="#0" id="circle39"/>
	<circle cx="224.626" cy="20.3427" r="4" fill="#0" id="circle40"/>
	<circle cx="229.529" cy="561.285" r="4" fill="#0" id="circle41"/>
	<circle cx="239.334" cy="12.1713" r="4" fill="#0" id="circle42"/>
	<circle cx="244.237" cy="569.456" r="4" fill="#0" id="circle43"/>
	<circle cx="254.043" cy="4" r="4" fill="#0" id="circle44"/>
	<circle cx="260.58" cy="569.456" r="4" fill="#0" id="circle45"/>
	<circle cx="270.386" cy="4" r="4" fill="#0" id="circle46"/>
	<circle cx="276.923" cy="569.456" r="4" fill="#0" id="circle47"/>
	<circle cx="286.728" cy="4" r="4" fill="#0" id="circle48"/>
	<circle cx="291.631" cy="561.285" r="4" fill="#0" id="circle49"/>
	<circle cx="301.437" cy="12.1713" r="4" fill="#0" id="circle50"/>
	<circle cx="307.974" cy="561.285" r="4" fill="#0" id="circle51"/>
	<circle cx="316.145" cy="20.3427" r="4" fill="#0" id="circle52"/>
	<circle cx="321.048" cy="549.845" r="4" fill="#0" id="circle53"/>
	<circle cx="332.488" cy="25.2455" r="4" fill="#0" id="circle54"/>
	<circle cx="337.39" cy="544.942" r="4" fill="#0" id="circle55"/>
	<circle cx="345.562" cy="36.6853" r="4" fill="#0" id="circle56"/>
	<circle cx="352.099" cy="536.771" r="4" fill="#0" id="circle57"/>
	<circle cx="361.904" cy="38.3196" r="4" fill="#0" id="circle58"/>
	<circle cx="366.807" cy="528.6" r="4" fill="#0" id="circle59"/>
	<circle cx="373.344" cy="51.3937" r="4" fill="#0" id="circle60"/>
	<circle cx="381.516" cy="520.428" r="4" fill="#0" id="circle61"/>
	<circle cx="386.418" cy="61.1993" r="4" fill="#0" id="circle62"/>
	<circle cx="394.59" cy="508.988" r="4" fill="#0" id="circle63"/>
	<circle cx="401.127" cy="69.3707" r="4" fill="#0" id="circle64"/>
	<circle cx="406.03" cy="495.914" r="4" fill="#0" id="circle65"/>
	<circle cx="414.201" cy="79.1763" r="4" fill="#0" id="circle66"/>
	<circle cx="419.104" cy="484.474" r="4" fill="#0" id="circle67"/>
	<circle cx="427.275" cy="88.9819" r="4" fill="#0" id="circle68"/>
	<circle cx="427.275" cy="468.132" r="4" fill="#0" id="circle69"/>
	<circle cx="435.446" cy="451.789" r="4" fill="#0" id="circle70"/>
	<circle cx="438.715" cy="102.056" r="4" fill="#0" id="circle71"/>
	<circle cx="443.618" cy="435.446" r="4" fill="#0" id="circle72"/>
	<circle cx="446.886" cy="116.764" r="4" fill="#0" id="circle73"/>
	<circle cx="451.789" cy="419.104" r="4" fill="#0" id="circle74"/>
	<circle cx="455.058" cy="131.473" r="4" fill="#0" id="circle75"/>
	<circle cx="463.229" cy="146.181" r="4" fill="#0" id="circle76"/>
	<circle cx="463.229" cy="162.524" r="4" fill="#0" id="circle77"/>
	<circle cx="463.229" cy="178.867" r="4" fill="#0" id="circle78"/>
	<circle cx="463.229" cy="406.03" r="4" fill="#0" id="circle79"/>
	<circle cx="468.132" cy="195.209" r="4" fill="#0" id="circle80"/>
	<circle cx="477.937" cy="397.858" r="4" fill="#0" id="circle81"/>
	<circle cx="484.474" cy="200.112" r="4" fill="#0" id="circle82"/>
	<circle cx="494.28" cy="397.858" r="4" fill="#0" id="circle83"/>
	<circle cx="500.817" cy="201.746" r="4" fill="#0" id="circle84"/>
	<circle cx="510.623" cy="397.858" r="4" fill="#0" id="circle85"/>
	<circle cx="515.526" cy="209.918" r="4" fill="#0" id="circle86"/>
	<circle cx="523.697" cy="388.053" r="4" fill="#0" id="circle87"/>
	<circle cx="528.6" cy="221.357" r="4" fill="#0" id="circle88"/>
	<circle cx="531.868" cy="371.71" r="4" fill="#0" id="circle89"/>
	<circle cx="540.04" cy="234.432" r="4" fill="#0" id="circle90"/>
	<circle cx="540.04" cy="355.367" r="4" fill="#0" id="circle91"/>
	<circle cx="544.942" cy="250.774" r="4" fill="#0" id="circle92"/>
	<circle cx="553.114" cy="265.483" r="4" fill="#0" id="circle93"/>
	<circle cx="556.382" cy="348.83" r="4" fill="#0" id="circle94"/>
	<circle cx="567.822" cy="273.654" r="4" fill="#0" id="circle95"/>
	<circle cx="571.091" cy="340.659" r="4" fill="#0" id="circle96"/>
	<circle cx="584.165" cy="276.923" r="4" fill="#0" id="circle97"/>
	<circle cx="587.433" cy="340.659" r="4" fill="#0" id="circle98"/>
	<circle cx="600.507" cy="281.825" r="4" fill="#0" id="circle99"/>
	<circle cx="603.776" cy="340.659" r="4" fill="#0" id="circle100"/>
	<circle cx="616.85" cy="281.825" r="4" fill="#0" id="circle101"/>
	<circle cx="620.119" cy="340.659" r="4" fill="#0" id="circle102"/>
	<circle cx="633.193" cy="285.094" r="4" fill="#0" id="circle103"/>
	<circle cx="636.461" cy="340.659" r="4" fill="#0" id="circle104"/>
	<circle cx="649.535" cy="289.997" r="4" fill="#0" id="circle105"/>
	<circle cx="652.804" cy="340.659" r="4" fill="#0" id="circle106"/>
	<circle cx="665.878" cy="289.997" r="4" fill="#0" id="circle107"/>
	<circle cx="669.147" cy="340.659" r="4" fill="#0" id="circle108"/>
	<circle cx="682.221" cy="289.997" r="4" fill="#0" id="circle109"/>
	<circle cx="685.489" cy="340.659" r="4" fill="#0" id="circle110"/>
	<circle cx="698.563" cy="289.997" r="4" fill="#0" id="circle111"/>
	<circle cx="701.832" cy="340.659" r="4" fill="#0" id="circle112"/>
	<circle cx="714.906" cy="293.265" r="4" fill="#0" id="circle113"/>
	<circle cx="718.175" cy="340.659" r="4" fill="#0" id="circle114"/>
	<circle cx="731.249" cy="298.168" r="4" fill="#0" id="circle115"/>
	<circle cx="734.517" cy="340.659" r="4" fill="#0" id="circle116"/>
	<circle cx="747.591" cy="298.168" r="4" fill="#0" id="circle117"/>
	<circle cx="750.86" cy="340.659" r="4" fill="#0" id="circle118"/>
	<circle cx="762.3" cy="306.339" r="4" fill="#0" id="circle119"/>
	<circle cx="767.203" cy="340.659" r="4" fill="#0" id="circle120"/>
	<circle cx="778.643" cy="306.339" r="4" fill="#0" id="circle121"/>
	<circle cx="783.545" cy="340.659" r="4" fill="#0" id="circle122"/>
	<circle cx="794.985" cy="306.339" r="4" fill="#0" id="circle123"/>
	<circle cx="799.888" cy="340.659" r="4" fill="#0" id="circle124"/>
	<circle cx="811.328" cy="306.339" r="4" fill="#0" id="circle125"/>
	<circle cx="816.231" cy="345.562" r="4" fill="#0" id="circle126"/>
	<circle cx="827.671" cy="307.974" r="4" fill="#0" id="circle127"/>
	<circle cx="832.573" cy="348.83" r="4" fill="#0" id="circle128"/>
	<circle cx="844.013" cy="314.511" r="4" fill="#0" id="circle129"/>
	<circle cx="848.916" cy="348.83" r="4" fill="#0" id="circle130"/>
	<circle cx="860.356" cy="314.511" r="4" fill="#0" id="circle131"/>
	<circle cx="865.259" cy="348.83" r="4" fill="#0" id="circle132"/>
	<circle cx="876.699" cy="314.511" r="4" fill="#0" id="circle133"/>
	<circle cx="881.601" cy="348.83" r="4" fill="#0" id="circle134"/>
	<circle cx="893.041" cy="314.511" r="4" fill="#0" id="circle135"/>
	<circle cx="897.944" cy="348.83" r="4" fill="#0" id="circle136"/>
	<circle cx="909.384" cy="316.145" r="4" fill="#0" id="circle137"/>
	<circle cx="914.287" cy="348.83" r="4" fill="#0" id="circle138"/>
	<circle cx="925.727" cy="322.682" r="4" fill="#0" id="circle139"/>
	<circle cx="930.629" cy="348.83" r="4" fill="#0" id="circle140"/>
	<circle cx="940.435" cy="330.853" r="4" fill="#0" id="circle141"/>
	<circle cx="946.972" cy="348.83" r="4" fill="#0" id="circle142"/>
	<circle cx="956.778" cy="330.853" r="4" fill="#0" id="circle143"/>
	<circle cx="963.315" cy="348.83" r="4" fill="#0" id="circle144"/>
	<circle cx="973.12" cy="330.853" r="4" fill="#0" id="circle145"/>
	<circle cx="979.657" cy="348.83" r="4" fill="#0" id="circle146"/>
	<circle cx="989.463" cy="330.853" r="4" fill="#0" id="circle147"/>
	<circle cx="996" cy="348.83" r="4" fill="#0" id="circle148"/>
	</g>
</svg>