<?xml version="1.0" encoding="UTF-8" standalone="no"?>
<!-- Created with CurveBenchmark -->
<svg
	xmlns:dc="http://purl.org/dc/elements/1.1/"
	xmlns:cc="http://creativecommons.org/ns#"
	xmlns:rdf="http://www.w3.org/1999/02/22-rdf-syntax-ns#"
	xmlns:svg="http://www.w3.org/2000/svg"
	xmlns="http://www.w3.org/2000/svg"
	xmlns:sodipodi="http://sodipodi.sourceforge.net/DTD/sodipodi-0.dtd"
	xmlns:inkscape="http://www.inkscape.org/namespaces/inkscape"
	width="1000"
	height="1000"
	id="svg2"
	version="1.1"
	sodipodi:docname="manifold/nncrust-brick11.png.txt">
<defs
	id="defs4" />
<metadata
	id="metadata7">
	<rdf:RDF>
		<cc:Work
			rdf:about="">
			<dc:format>image/svg+xml</dc:format>
			<dc:type
				rdf:resource="http://purl.org/dc/dcmitype/StillImage" />
			<dc:title></dc:title>
		</cc:Work>
	</rdf:RDF>
</metadata>
<g
	inkscape:label="Layer 1"
	inkscape:groupmode="layer"
	id="layer1">
	<path style="fill:none;stroke:red;stroke-width:1px;stroke-linecap:butt;stroke-linejoin:miter;stroke-opacity:1" d="M 88.8669,37.9468 103.954,22.8593 z" id="boundary" inkscape:connector-curvature="0" />
	<path style="fill:none;stroke:red;stroke-width:1px;stroke-linecap:butt;stroke-linejoin:miter;stroke-opacity:1" d="M 88.8669,56.8061 88.8669,37.9468 z" id="boundary" inkscape:connector-curvature="0" />
	<path style="fill:none;stroke:red;stroke-width:1px;stroke-linecap:butt;stroke-linejoin:miter;stroke-opacity:1" d="M 88.8669,56.8061 98.2966,73.7795 z" id="boundary" inkscape:connector-curvature="0" />
	<path style="fill:none;stroke:red;stroke-width:1px;stroke-linecap:butt;stroke-linejoin:miter;stroke-opacity:1" d="M 98.2966,73.7795 98.2966,92.6388 z" id="boundary" inkscape:connector-curvature="0" />
	<path style="fill:none;stroke:red;stroke-width:1px;stroke-linecap:butt;stroke-linejoin:miter;stroke-opacity:1" d="M 103.954,22.8593 122.814,13.4297 z" id="boundary" inkscape:connector-curvature="0" />
	<path style="fill:none;stroke:red;stroke-width:1px;stroke-linecap:butt;stroke-linejoin:miter;stroke-opacity:1" d="M 141.673,13.4297 122.814,13.4297 z" id="boundary" inkscape:connector-curvature="0" />
	<path style="fill:none;stroke:red;stroke-width:1px;stroke-linecap:butt;stroke-linejoin:miter;stroke-opacity:1" d="M 141.673,13.4297 160.532,13.4297 z" id="boundary" inkscape:connector-curvature="0" />
	<path style="fill:none;stroke:red;stroke-width:1px;stroke-linecap:butt;stroke-linejoin:miter;stroke-opacity:1" d="M 177.506,4 160.532,13.4297 z" id="boundary" inkscape:connector-curvature="0" />
	<path style="fill:none;stroke:red;stroke-width:1px;stroke-linecap:butt;stroke-linejoin:miter;stroke-opacity:1" d="M 66.2357,192.593 81.3232,177.506 z" id="boundary" inkscape:connector-curvature="0" />
	<path style="fill:none;stroke:red;stroke-width:1px;stroke-linecap:butt;stroke-linejoin:miter;stroke-opacity:1" d="M 36.0608,220.882 51.1483,207.681 z" id="boundary" inkscape:connector-curvature="0" />
	<path style="fill:none;stroke:red;stroke-width:1px;stroke-linecap:butt;stroke-linejoin:miter;stroke-opacity:1" d="M 66.2357,192.593 51.1483,207.681 z" id="boundary" inkscape:connector-curvature="0" />
	<path style="fill:none;stroke:red;stroke-width:1px;stroke-linecap:butt;stroke-linejoin:miter;stroke-opacity:1" d="M 98.2966,92.6388 107.726,109.612 z" id="boundary" inkscape:connector-curvature="0" />
	<path style="fill:none;stroke:red;stroke-width:1px;stroke-linecap:butt;stroke-linejoin:miter;stroke-opacity:1" d="M 107.726,109.612 107.726,128.471 z" id="boundary" inkscape:connector-curvature="0" />
	<path style="fill:none;stroke:red;stroke-width:1px;stroke-linecap:butt;stroke-linejoin:miter;stroke-opacity:1" d="M 107.726,128.471 107.726,147.331 z" id="boundary" inkscape:connector-curvature="0" />
	<path style="fill:none;stroke:red;stroke-width:1px;stroke-linecap:butt;stroke-linejoin:miter;stroke-opacity:1" d="M 107.726,147.331 96.4106,164.304 z" id="boundary" inkscape:connector-curvature="0" />
	<path style="fill:none;stroke:red;stroke-width:1px;stroke-linecap:butt;stroke-linejoin:miter;stroke-opacity:1" d="M 96.4106,164.304 81.3232,177.506 z" id="boundary" inkscape:connector-curvature="0" />
	<path style="fill:none;stroke:red;stroke-width:1px;stroke-linecap:butt;stroke-linejoin:miter;stroke-opacity:1" d="M 177.506,4 196.365,4 z" id="boundary" inkscape:connector-curvature="0" />
	<path style="fill:none;stroke:red;stroke-width:1px;stroke-linecap:butt;stroke-linejoin:miter;stroke-opacity:1" d="M 36.0608,220.882 19.0875,230.312 z" id="boundary" inkscape:connector-curvature="0" />
	<path style="fill:none;stroke:red;stroke-width:1px;stroke-linecap:butt;stroke-linejoin:miter;stroke-opacity:1" d="M 196.365,4 215.224,4 z" id="boundary" inkscape:connector-curvature="0" />
	<path style="fill:none;stroke:red;stroke-width:1px;stroke-linecap:butt;stroke-linejoin:miter;stroke-opacity:1" d="M 215.224,4 232.198,13.4297 z" id="boundary" inkscape:connector-curvature="0" />
	<path style="fill:none;stroke:red;stroke-width:1px;stroke-linecap:butt;stroke-linejoin:miter;stroke-opacity:1" d="M 232.198,13.4297 249.171,22.8593 z" id="boundary" inkscape:connector-curvature="0" />
	<path style="fill:none;stroke:red;stroke-width:1px;stroke-linecap:butt;stroke-linejoin:miter;stroke-opacity:1" d="M 266.144,32.289 249.171,22.8593 z" id="boundary" inkscape:connector-curvature="0" />
	<path style="fill:none;stroke:red;stroke-width:1px;stroke-linecap:butt;stroke-linejoin:miter;stroke-opacity:1" d="M 266.144,32.289 283.118,41.7186 z" id="boundary" inkscape:connector-curvature="0" />
	<path style="fill:none;stroke:red;stroke-width:1px;stroke-linecap:butt;stroke-linejoin:miter;stroke-opacity:1" d="M 300.091,51.1483 317.065,60.5779 z" id="boundary" inkscape:connector-curvature="0" />
	<path style="fill:none;stroke:red;stroke-width:1px;stroke-linecap:butt;stroke-linejoin:miter;stroke-opacity:1" d="M 300.091,51.1483 283.118,41.7186 z" id="boundary" inkscape:connector-curvature="0" />
	<path style="fill:none;stroke:red;stroke-width:1px;stroke-linecap:butt;stroke-linejoin:miter;stroke-opacity:1" d="M 317.065,60.5779 332.152,71.8935 z" id="boundary" inkscape:connector-curvature="0" />
	<path style="fill:none;stroke:red;stroke-width:1px;stroke-linecap:butt;stroke-linejoin:miter;stroke-opacity:1" d="M 351.011,79.4373 332.152,71.8935 z" id="boundary" inkscape:connector-curvature="0" />
	<path style="fill:none;stroke:red;stroke-width:1px;stroke-linecap:butt;stroke-linejoin:miter;stroke-opacity:1" d="M 369.871,79.4373 351.011,79.4373 z" id="boundary" inkscape:connector-curvature="0" />
	<path style="fill:none;stroke:red;stroke-width:1px;stroke-linecap:butt;stroke-linejoin:miter;stroke-opacity:1" d="M 388.73,79.4373 369.871,79.4373 z" id="boundary" inkscape:connector-curvature="0" />
	<path style="fill:none;stroke:red;stroke-width:1px;stroke-linecap:butt;stroke-linejoin:miter;stroke-opacity:1" d="M 388.73,79.4373 407.589,79.4373 z" id="boundary" inkscape:connector-curvature="0" />
	<path style="fill:none;stroke:red;stroke-width:1px;stroke-linecap:butt;stroke-linejoin:miter;stroke-opacity:1" d="M 426.449,79.4373 445.308,79.4373 z" id="boundary" inkscape:connector-curvature="0" />
	<path style="fill:none;stroke:red;stroke-width:1px;stroke-linecap:butt;stroke-linejoin:miter;stroke-opacity:1" d="M 464.167,79.4373 445.308,79.4373 z" id="boundary" inkscape:connector-curvature="0" />
	<path style="fill:none;stroke:red;stroke-width:1px;stroke-linecap:butt;stroke-linejoin:miter;stroke-opacity:1" d="M 426.449,79.4373 407.589,79.4373 z" id="boundary" inkscape:connector-curvature="0" />
	<path style="fill:none;stroke:red;stroke-width:1px;stroke-linecap:butt;stroke-linejoin:miter;stroke-opacity:1" d="M 483.027,79.4373 464.167,79.4373 z" id="boundary" inkscape:connector-curvature="0" />
	<path style="fill:none;stroke:red;stroke-width:1px;stroke-linecap:butt;stroke-linejoin:miter;stroke-opacity:1" d="M 4,264.259 4,245.399 z" id="boundary" inkscape:connector-curvature="0" />
	<path style="fill:none;stroke:red;stroke-width:1px;stroke-linecap:butt;stroke-linejoin:miter;stroke-opacity:1" d="M 4,245.399 19.0875,230.312 z" id="boundary" inkscape:connector-curvature="0" />
	<path style="fill:none;stroke:red;stroke-width:1px;stroke-linecap:butt;stroke-linejoin:miter;stroke-opacity:1" d="M 4,301.977 4,283.118 z" id="boundary" inkscape:connector-curvature="0" />
	<path style="fill:none;stroke:red;stroke-width:1px;stroke-linecap:butt;stroke-linejoin:miter;stroke-opacity:1" d="M 4,320.837 4,301.977 z" id="boundary" inkscape:connector-curvature="0" />
	<path style="fill:none;stroke:red;stroke-width:1px;stroke-linecap:butt;stroke-linejoin:miter;stroke-opacity:1" d="M 4,283.118 4,264.259 z" id="boundary" inkscape:connector-curvature="0" />
	<path style="fill:none;stroke:red;stroke-width:1px;stroke-linecap:butt;stroke-linejoin:miter;stroke-opacity:1" d="M 13.4297,356.669 4,339.696 z" id="boundary" inkscape:connector-curvature="0" />
	<path style="fill:none;stroke:red;stroke-width:1px;stroke-linecap:butt;stroke-linejoin:miter;stroke-opacity:1" d="M 4,339.696 4,320.837 z" id="boundary" inkscape:connector-curvature="0" />
	<path style="fill:none;stroke:red;stroke-width:1px;stroke-linecap:butt;stroke-linejoin:miter;stroke-opacity:1" d="M 171.848,345.354 152.989,351.011 z" id="boundary" inkscape:connector-curvature="0" />
	<path style="fill:none;stroke:red;stroke-width:1px;stroke-linecap:butt;stroke-linejoin:miter;stroke-opacity:1" d="M 58.692,364.213 41.7186,373.643 z" id="boundary" inkscape:connector-curvature="0" />
	<path style="fill:none;stroke:red;stroke-width:1px;stroke-linecap:butt;stroke-linejoin:miter;stroke-opacity:1" d="M 22.8593,373.643 41.7186,373.643 z" id="boundary" inkscape:connector-curvature="0" />
	<path style="fill:none;stroke:red;stroke-width:1px;stroke-linecap:butt;stroke-linejoin:miter;stroke-opacity:1" d="M 22.8593,373.643 13.4297,356.669 z" id="boundary" inkscape:connector-curvature="0" />
	<path style="fill:none;stroke:red;stroke-width:1px;stroke-linecap:butt;stroke-linejoin:miter;stroke-opacity:1" d="M 58.692,364.213 77.5513,364.213 z" id="boundary" inkscape:connector-curvature="0" />
	<path style="fill:none;stroke:red;stroke-width:1px;stroke-linecap:butt;stroke-linejoin:miter;stroke-opacity:1" d="M 134.129,360.441 152.989,351.011 z" id="boundary" inkscape:connector-curvature="0" />
	<path style="fill:none;stroke:red;stroke-width:1px;stroke-linecap:butt;stroke-linejoin:miter;stroke-opacity:1" d="M 134.129,360.441 115.27,364.213 z" id="boundary" inkscape:connector-curvature="0" />
	<path style="fill:none;stroke:red;stroke-width:1px;stroke-linecap:butt;stroke-linejoin:miter;stroke-opacity:1" d="M 77.5513,364.213 96.4106,364.213 z" id="boundary" inkscape:connector-curvature="0" />
	<path style="fill:none;stroke:red;stroke-width:1px;stroke-linecap:butt;stroke-linejoin:miter;stroke-opacity:1" d="M 115.27,364.213 96.4106,364.213 z" id="boundary" inkscape:connector-curvature="0" />
	<path style="fill:none;stroke:red;stroke-width:1px;stroke-linecap:butt;stroke-linejoin:miter;stroke-opacity:1" d="M 171.848,345.354 185.049,360.441 z" id="boundary" inkscape:connector-curvature="0" />
	<path style="fill:none;stroke:red;stroke-width:1px;stroke-linecap:butt;stroke-linejoin:miter;stroke-opacity:1" d="M 185.049,360.441 200.137,373.643 z" id="boundary" inkscape:connector-curvature="0" />
	<path style="fill:none;stroke:red;stroke-width:1px;stroke-linecap:butt;stroke-linejoin:miter;stroke-opacity:1" d="M 217.11,383.072 200.137,373.643 z" id="boundary" inkscape:connector-curvature="0" />
	<path style="fill:none;stroke:red;stroke-width:1px;stroke-linecap:butt;stroke-linejoin:miter;stroke-opacity:1" d="M 217.11,383.072 234.084,392.502 z" id="boundary" inkscape:connector-curvature="0" />
	<path style="fill:none;stroke:red;stroke-width:1px;stroke-linecap:butt;stroke-linejoin:miter;stroke-opacity:1" d="M 252.943,398.16 234.084,392.502 z" id="boundary" inkscape:connector-curvature="0" />
	<path style="fill:none;stroke:red;stroke-width:1px;stroke-linecap:butt;stroke-linejoin:miter;stroke-opacity:1" d="M 435.878,401.932 454.738,401.932 z" id="boundary" inkscape:connector-curvature="0" />
	<path style="fill:none;stroke:red;stroke-width:1px;stroke-linecap:butt;stroke-linejoin:miter;stroke-opacity:1" d="M 417.019,407.589 435.878,401.932 z" id="boundary" inkscape:connector-curvature="0" />
	<path style="fill:none;stroke:red;stroke-width:1px;stroke-linecap:butt;stroke-linejoin:miter;stroke-opacity:1" d="M 471.711,392.502 454.738,401.932 z" id="boundary" inkscape:connector-curvature="0" />
	<path style="fill:none;stroke:red;stroke-width:1px;stroke-linecap:butt;stroke-linejoin:miter;stroke-opacity:1" d="M 471.711,392.502 490.57,392.502 z" id="boundary" inkscape:connector-curvature="0" />
	<path style="fill:none;stroke:red;stroke-width:1px;stroke-linecap:butt;stroke-linejoin:miter;stroke-opacity:1" d="M 252.943,398.16 269.916,407.589 z" id="boundary" inkscape:connector-curvature="0" />
	<path style="fill:none;stroke:red;stroke-width:1px;stroke-linecap:butt;stroke-linejoin:miter;stroke-opacity:1" d="M 269.916,407.589 285.004,420.791 z" id="boundary" inkscape:connector-curvature="0" />
	<path style="fill:none;stroke:red;stroke-width:1px;stroke-linecap:butt;stroke-linejoin:miter;stroke-opacity:1" d="M 303.863,420.791 285.004,420.791 z" id="boundary" inkscape:connector-curvature="0" />
	<path style="fill:none;stroke:red;stroke-width:1px;stroke-linecap:butt;stroke-linejoin:miter;stroke-opacity:1" d="M 303.863,420.791 322.722,420.791 z" id="boundary" inkscape:connector-curvature="0" />
	<path style="fill:none;stroke:red;stroke-width:1px;stroke-linecap:butt;stroke-linejoin:miter;stroke-opacity:1" d="M 398.16,411.361 417.019,407.589 z" id="boundary" inkscape:connector-curvature="0" />
	<path style="fill:none;stroke:red;stroke-width:1px;stroke-linecap:butt;stroke-linejoin:miter;stroke-opacity:1" d="M 379.3,417.019 398.16,411.361 z" id="boundary" inkscape:connector-curvature="0" />
	<path style="fill:none;stroke:red;stroke-width:1px;stroke-linecap:butt;stroke-linejoin:miter;stroke-opacity:1" d="M 341.582,420.791 322.722,420.791 z" id="boundary" inkscape:connector-curvature="0" />
	<path style="fill:none;stroke:red;stroke-width:1px;stroke-linecap:butt;stroke-linejoin:miter;stroke-opacity:1" d="M 379.3,417.019 360.441,420.791 z" id="boundary" inkscape:connector-curvature="0" />
	<path style="fill:none;stroke:red;stroke-width:1px;stroke-linecap:butt;stroke-linejoin:miter;stroke-opacity:1" d="M 360.441,420.791 341.582,420.791 z" id="boundary" inkscape:connector-curvature="0" />
	<path style="fill:none;stroke:red;stroke-width:1px;stroke-linecap:butt;stroke-linejoin:miter;stroke-opacity:1" d="M 575.437,60.5779 556.578,60.5779 z" id="boundary" inkscape:connector-curvature="0" />
	<path style="fill:none;stroke:red;stroke-width:1px;stroke-linecap:butt;stroke-linejoin:miter;stroke-opacity:1" d="M 575.437,60.5779 594.297,60.5779 z" id="boundary" inkscape:connector-curvature="0" />
	<path style="fill:none;stroke:red;stroke-width:1px;stroke-linecap:butt;stroke-linejoin:miter;stroke-opacity:1" d="M 611.27,51.1483 594.297,60.5779 z" id="boundary" inkscape:connector-curvature="0" />
	<path style="fill:none;stroke:red;stroke-width:1px;stroke-linecap:butt;stroke-linejoin:miter;stroke-opacity:1" d="M 611.27,51.1483 630.129,51.1483 z" id="boundary" inkscape:connector-curvature="0" />
	<path style="fill:none;stroke:red;stroke-width:1px;stroke-linecap:butt;stroke-linejoin:miter;stroke-opacity:1" d="M 537.719,70.0076 556.578,60.5779 z" id="boundary" inkscape:connector-curvature="0" />
	<path style="fill:none;stroke:red;stroke-width:1px;stroke-linecap:butt;stroke-linejoin:miter;stroke-opacity:1" d="M 630.129,51.1483 648.989,51.1483 z" id="boundary" inkscape:connector-curvature="0" />
	<path style="fill:none;stroke:red;stroke-width:1px;stroke-linecap:butt;stroke-linejoin:miter;stroke-opacity:1" d="M 648.989,51.1483 667.848,51.1483 z" id="boundary" inkscape:connector-curvature="0" />
	<path style="fill:none;stroke:red;stroke-width:1px;stroke-linecap:butt;stroke-linejoin:miter;stroke-opacity:1" d="M 686.707,51.1483 667.848,51.1483 z" id="boundary" inkscape:connector-curvature="0" />
	<path style="fill:none;stroke:red;stroke-width:1px;stroke-linecap:butt;stroke-linejoin:miter;stroke-opacity:1" d="M 686.707,51.1483 703.681,60.5779 z" id="boundary" inkscape:connector-curvature="0" />
	<path style="fill:none;stroke:red;stroke-width:1px;stroke-linecap:butt;stroke-linejoin:miter;stroke-opacity:1" d="M 537.719,70.0076 518.859,70.0076 z" id="boundary" inkscape:connector-curvature="0" />
	<path style="fill:none;stroke:red;stroke-width:1px;stroke-linecap:butt;stroke-linejoin:miter;stroke-opacity:1" d="M 501.886,79.4373 518.859,70.0076 z" id="boundary" inkscape:connector-curvature="0" />
	<path style="fill:none;stroke:red;stroke-width:1px;stroke-linecap:butt;stroke-linejoin:miter;stroke-opacity:1" d="M 731.97,85.0951 745.171,100.183 z" id="boundary" inkscape:connector-curvature="0" />
	<path style="fill:none;stroke:red;stroke-width:1px;stroke-linecap:butt;stroke-linejoin:miter;stroke-opacity:1" d="M 501.886,79.4373 483.027,79.4373 z" id="boundary" inkscape:connector-curvature="0" />
	<path style="fill:none;stroke:red;stroke-width:1px;stroke-linecap:butt;stroke-linejoin:miter;stroke-opacity:1" d="M 720.654,70.0076 731.97,85.0951 z" id="boundary" inkscape:connector-curvature="0" />
	<path style="fill:none;stroke:red;stroke-width:1px;stroke-linecap:butt;stroke-linejoin:miter;stroke-opacity:1" d="M 703.681,60.5779 720.654,70.0076 z" id="boundary" inkscape:connector-curvature="0" />
	<path style="fill:none;stroke:red;stroke-width:1px;stroke-linecap:butt;stroke-linejoin:miter;stroke-opacity:1" d="M 745.171,100.183 760.259,113.384 z" id="boundary" inkscape:connector-curvature="0" />
	<path style="fill:none;stroke:red;stroke-width:1px;stroke-linecap:butt;stroke-linejoin:miter;stroke-opacity:1" d="M 760.259,113.384 773.46,128.471 z" id="boundary" inkscape:connector-curvature="0" />
	<path style="fill:none;stroke:red;stroke-width:1px;stroke-linecap:butt;stroke-linejoin:miter;stroke-opacity:1" d="M 792.319,136.015 773.46,128.471 z" id="boundary" inkscape:connector-curvature="0" />
	<path style="fill:none;stroke:red;stroke-width:1px;stroke-linecap:butt;stroke-linejoin:miter;stroke-opacity:1" d="M 811.179,136.015 792.319,136.015 z" id="boundary" inkscape:connector-curvature="0" />
	<path style="fill:none;stroke:red;stroke-width:1px;stroke-linecap:butt;stroke-linejoin:miter;stroke-opacity:1" d="M 905.475,126.586 886.616,126.586 z" id="boundary" inkscape:connector-curvature="0" />
	<path style="fill:none;stroke:red;stroke-width:1px;stroke-linecap:butt;stroke-linejoin:miter;stroke-opacity:1" d="M 905.475,126.586 924.335,126.586 z" id="boundary" inkscape:connector-curvature="0" />
	<path style="fill:none;stroke:red;stroke-width:1px;stroke-linecap:butt;stroke-linejoin:miter;stroke-opacity:1" d="M 867.757,136.015 886.616,126.586 z" id="boundary" inkscape:connector-curvature="0" />
	<path style="fill:none;stroke:red;stroke-width:1px;stroke-linecap:butt;stroke-linejoin:miter;stroke-opacity:1" d="M 941.308,117.156 924.335,126.586 z" id="boundary" inkscape:connector-curvature="0" />
	<path style="fill:none;stroke:red;stroke-width:1px;stroke-linecap:butt;stroke-linejoin:miter;stroke-opacity:1" d="M 958.281,107.726 977.141,107.726 z" id="boundary" inkscape:connector-curvature="0" />
	<path style="fill:none;stroke:red;stroke-width:1px;stroke-linecap:butt;stroke-linejoin:miter;stroke-opacity:1" d="M 977.141,107.726 986.57,124.7 z" id="boundary" inkscape:connector-curvature="0" />
	<path style="fill:none;stroke:red;stroke-width:1px;stroke-linecap:butt;stroke-linejoin:miter;stroke-opacity:1" d="M 941.308,117.156 958.281,107.726 z" id="boundary" inkscape:connector-curvature="0" />
	<path style="fill:none;stroke:red;stroke-width:1px;stroke-linecap:butt;stroke-linejoin:miter;stroke-opacity:1" d="M 986.57,124.7 986.57,143.559 z" id="boundary" inkscape:connector-curvature="0" />
	<path style="fill:none;stroke:red;stroke-width:1px;stroke-linecap:butt;stroke-linejoin:miter;stroke-opacity:1" d="M 811.179,136.015 830.038,136.015 z" id="boundary" inkscape:connector-curvature="0" />
	<path style="fill:none;stroke:red;stroke-width:1px;stroke-linecap:butt;stroke-linejoin:miter;stroke-opacity:1" d="M 848.897,136.015 867.757,136.015 z" id="boundary" inkscape:connector-curvature="0" />
	<path style="fill:none;stroke:red;stroke-width:1px;stroke-linecap:butt;stroke-linejoin:miter;stroke-opacity:1" d="M 848.897,136.015 830.038,136.015 z" id="boundary" inkscape:connector-curvature="0" />
	<path style="fill:none;stroke:red;stroke-width:1px;stroke-linecap:butt;stroke-linejoin:miter;stroke-opacity:1" d="M 986.57,162.418 986.57,143.559 z" id="boundary" inkscape:connector-curvature="0" />
	<path style="fill:none;stroke:red;stroke-width:1px;stroke-linecap:butt;stroke-linejoin:miter;stroke-opacity:1" d="M 996,179.392 986.57,162.418 z" id="boundary" inkscape:connector-curvature="0" />
	<path style="fill:none;stroke:red;stroke-width:1px;stroke-linecap:butt;stroke-linejoin:miter;stroke-opacity:1" d="M 996,179.392 996,198.251 z" id="boundary" inkscape:connector-curvature="0" />
	<path style="fill:none;stroke:red;stroke-width:1px;stroke-linecap:butt;stroke-linejoin:miter;stroke-opacity:1" d="M 996,198.251 996,217.11 z" id="boundary" inkscape:connector-curvature="0" />
	<path style="fill:none;stroke:red;stroke-width:1px;stroke-linecap:butt;stroke-linejoin:miter;stroke-opacity:1" d="M 996,217.11 982.798,237.856 z" id="boundary" inkscape:connector-curvature="0" />
	<path style="fill:none;stroke:red;stroke-width:1px;stroke-linecap:butt;stroke-linejoin:miter;stroke-opacity:1" d="M 526.403,383.072 509.43,392.502 z" id="boundary" inkscape:connector-curvature="0" />
	<path style="fill:none;stroke:red;stroke-width:1px;stroke-linecap:butt;stroke-linejoin:miter;stroke-opacity:1" d="M 509.43,392.502 490.57,392.502 z" id="boundary" inkscape:connector-curvature="0" />
	<path style="fill:none;stroke:red;stroke-width:1px;stroke-linecap:butt;stroke-linejoin:miter;stroke-opacity:1" d="M 545.262,383.072 526.403,383.072 z" id="boundary" inkscape:connector-curvature="0" />
	<path style="fill:none;stroke:red;stroke-width:1px;stroke-linecap:butt;stroke-linejoin:miter;stroke-opacity:1" d="M 545.262,383.072 564.122,383.072 z" id="boundary" inkscape:connector-curvature="0" />
	<path style="fill:none;stroke:red;stroke-width:1px;stroke-linecap:butt;stroke-linejoin:miter;stroke-opacity:1" d="M 581.095,373.643 564.122,383.072 z" id="boundary" inkscape:connector-curvature="0" />
	<path style="fill:none;stroke:red;stroke-width:1px;stroke-linecap:butt;stroke-linejoin:miter;stroke-opacity:1" d="M 599.954,373.643 581.095,373.643 z" id="boundary" inkscape:connector-curvature="0" />
	<path style="fill:none;stroke:red;stroke-width:1px;stroke-linecap:butt;stroke-linejoin:miter;stroke-opacity:1" d="M 618.814,373.643 635.787,383.072 z" id="boundary" inkscape:connector-curvature="0" />
	<path style="fill:none;stroke:red;stroke-width:1px;stroke-linecap:butt;stroke-linejoin:miter;stroke-opacity:1" d="M 599.954,373.643 618.814,373.643 z" id="boundary" inkscape:connector-curvature="0" />
	<path style="fill:none;stroke:red;stroke-width:1px;stroke-linecap:butt;stroke-linejoin:miter;stroke-opacity:1" d="M 635.787,383.072 652.76,392.502 z" id="boundary" inkscape:connector-curvature="0" />
	<path style="fill:none;stroke:red;stroke-width:1px;stroke-linecap:butt;stroke-linejoin:miter;stroke-opacity:1" d="M 698.023,418.905 713.11,430.221 z" id="boundary" inkscape:connector-curvature="0" />
	<path style="fill:none;stroke:red;stroke-width:1px;stroke-linecap:butt;stroke-linejoin:miter;stroke-opacity:1" d="M 652.76,392.502 671.62,392.502 z" id="boundary" inkscape:connector-curvature="0" />
	<path style="fill:none;stroke:red;stroke-width:1px;stroke-linecap:butt;stroke-linejoin:miter;stroke-opacity:1" d="M 786.662,439.65 767.802,439.65 z" id="boundary" inkscape:connector-curvature="0" />
	<path style="fill:none;stroke:red;stroke-width:1px;stroke-linecap:butt;stroke-linejoin:miter;stroke-opacity:1" d="M 688.593,401.932 698.023,418.905 z" id="boundary" inkscape:connector-curvature="0" />
	<path style="fill:none;stroke:red;stroke-width:1px;stroke-linecap:butt;stroke-linejoin:miter;stroke-opacity:1" d="M 671.62,392.502 688.593,401.932 z" id="boundary" inkscape:connector-curvature="0" />
	<path style="fill:none;stroke:red;stroke-width:1px;stroke-linecap:butt;stroke-linejoin:miter;stroke-opacity:1" d="M 748.943,439.65 730.084,439.65 z" id="boundary" inkscape:connector-curvature="0" />
	<path style="fill:none;stroke:red;stroke-width:1px;stroke-linecap:butt;stroke-linejoin:miter;stroke-opacity:1" d="M 730.084,439.65 713.11,430.221 z" id="boundary" inkscape:connector-curvature="0" />
	<path style="fill:none;stroke:red;stroke-width:1px;stroke-linecap:butt;stroke-linejoin:miter;stroke-opacity:1" d="M 767.802,439.65 748.943,439.65 z" id="boundary" inkscape:connector-curvature="0" />
	<path style="fill:none;stroke:red;stroke-width:1px;stroke-linecap:butt;stroke-linejoin:miter;stroke-opacity:1" d="M 911.133,335.924 911.133,317.065 z" id="boundary" inkscape:connector-curvature="0" />
	<path style="fill:none;stroke:red;stroke-width:1px;stroke-linecap:butt;stroke-linejoin:miter;stroke-opacity:1" d="M 911.133,335.924 911.133,354.783 z" id="boundary" inkscape:connector-curvature="0" />
	<path style="fill:none;stroke:red;stroke-width:1px;stroke-linecap:butt;stroke-linejoin:miter;stroke-opacity:1" d="M 911.133,317.065 920.563,298.205 z" id="boundary" inkscape:connector-curvature="0" />
	<path style="fill:none;stroke:red;stroke-width:1px;stroke-linecap:butt;stroke-linejoin:miter;stroke-opacity:1" d="M 920.563,298.205 939.422,288.776 z" id="boundary" inkscape:connector-curvature="0" />
	<path style="fill:none;stroke:red;stroke-width:1px;stroke-linecap:butt;stroke-linejoin:miter;stroke-opacity:1" d="M 967.711,251.057 982.798,237.856 z" id="boundary" inkscape:connector-curvature="0" />
	<path style="fill:none;stroke:red;stroke-width:1px;stroke-linecap:butt;stroke-linejoin:miter;stroke-opacity:1" d="M 954.51,275.574 967.711,251.057 z" id="boundary" inkscape:connector-curvature="0" />
	<path style="fill:none;stroke:red;stroke-width:1px;stroke-linecap:butt;stroke-linejoin:miter;stroke-opacity:1" d="M 939.422,288.776 954.51,275.574 z" id="boundary" inkscape:connector-curvature="0" />
	<path style="fill:none;stroke:red;stroke-width:1px;stroke-linecap:butt;stroke-linejoin:miter;stroke-opacity:1" d="M 911.133,373.643 911.133,354.783 z" id="boundary" inkscape:connector-curvature="0" />
	<path style="fill:none;stroke:red;stroke-width:1px;stroke-linecap:butt;stroke-linejoin:miter;stroke-opacity:1" d="M 805.521,439.65 786.662,439.65 z" id="boundary" inkscape:connector-curvature="0" />
	<path style="fill:none;stroke:red;stroke-width:1px;stroke-linecap:butt;stroke-linejoin:miter;stroke-opacity:1" d="M 843.24,439.65 824.38,439.65 z" id="boundary" inkscape:connector-curvature="0" />
	<path style="fill:none;stroke:red;stroke-width:1px;stroke-linecap:butt;stroke-linejoin:miter;stroke-opacity:1" d="M 824.38,439.65 805.521,439.65 z" id="boundary" inkscape:connector-curvature="0" />
	<path style="fill:none;stroke:red;stroke-width:1px;stroke-linecap:butt;stroke-linejoin:miter;stroke-opacity:1" d="M 911.133,373.643 911.133,392.502 z" id="boundary" inkscape:connector-curvature="0" />
	<path style="fill:none;stroke:red;stroke-width:1px;stroke-linecap:butt;stroke-linejoin:miter;stroke-opacity:1" d="M 880.958,433.992 862.099,439.65 z" id="boundary" inkscape:connector-curvature="0" />
	<path style="fill:none;stroke:red;stroke-width:1px;stroke-linecap:butt;stroke-linejoin:miter;stroke-opacity:1" d="M 911.133,392.502 899.817,424.563 z" id="boundary" inkscape:connector-curvature="0" />
	<path style="fill:none;stroke:red;stroke-width:1px;stroke-linecap:butt;stroke-linejoin:miter;stroke-opacity:1" d="M 899.817,424.563 880.958,433.992 z" id="boundary" inkscape:connector-curvature="0" />
	<path style="fill:none;stroke:red;stroke-width:1px;stroke-linecap:butt;stroke-linejoin:miter;stroke-opacity:1" d="M 862.099,439.65 843.24,439.65 z" id="boundary" inkscape:connector-curvature="0" />
	<circle cx="4" cy="245.399" r="4" fill="#0" id="circle0"/>
	<circle cx="4" cy="264.259" r="4" fill="#0" id="circle1"/>
	<circle cx="4" cy="283.118" r="4" fill="#0" id="circle2"/>
	<circle cx="4" cy="301.977" r="4" fill="#0" id="circle3"/>
	<circle cx="4" cy="320.837" r="4" fill="#0" id="circle4"/>
	<circle cx="4" cy="339.696" r="4" fill="#0" id="circle5"/>
	<circle cx="13.4297" cy="356.669" r="4" fill="#0" id="circle6"/>
	<circle cx="19.0875" cy="230.312" r="4" fill="#0" id="circle7"/>
	<circle cx="22.8593" cy="373.643" r="4" fill="#0" id="circle8"/>
	<circle cx="36.0608" cy="220.882" r="4" fill="#0" id="circle9"/>
	<circle cx="41.7186" cy="373.643" r="4" fill="#0" id="circle10"/>
	<circle cx="51.1483" cy="207.681" r="4" fill="#0" id="circle11"/>
	<circle cx="58.692" cy="364.213" r="4" fill="#0" id="circle12"/>
	<circle cx="66.2357" cy="192.593" r="4" fill="#0" id="circle13"/>
	<circle cx="77.5513" cy="364.213" r="4" fill="#0" id="circle14"/>
	<circle cx="81.3232" cy="177.506" r="4" fill="#0" id="circle15"/>
	<circle cx="88.8669" cy="37.9468" r="4" fill="#0" id="circle16"/>
	<circle cx="88.8669" cy="56.8061" r="4" fill="#0" id="circle17"/>
	<circle cx="96.4106" cy="164.304" r="4" fill="#0" id="circle18"/>
	<circle cx="96.4106" cy="364.213" r="4" fill="#0" id="circle19"/>
	<circle cx="98.2966" cy="73.7795" r="4" fill="#0" id="circle20"/>
	<circle cx="98.2966" cy="92.6388" r="4" fill="#0" id="circle21"/>
	<circle cx="103.954" cy="22.8593" r="4" fill="#0" id="circle22"/>
	<circle cx="107.726" cy="109.612" r="4" fill="#0" id="circle23"/>
	<circle cx="107.726" cy="128.471" r="4" fill="#0" id="circle24"/>
	<circle cx="107.726" cy="147.331" r="4" fill="#0" id="circle25"/>
	<circle cx="115.27" cy="364.213" r="4" fill="#0" id="circle26"/>
	<circle cx="122.814" cy="13.4297" r="4" fill="#0" id="circle27"/>
	<circle cx="134.129" cy="360.441" r="4" fill="#0" id="circle28"/>
	<circle cx="141.673" cy="13.4297" r="4" fill="#0" id="circle29"/>
	<circle cx="152.989" cy="351.011" r="4" fill="#0" id="circle30"/>
	<circle cx="160.532" cy="13.4297" r="4" fill="#0" id="circle31"/>
	<circle cx="171.848" cy="345.354" r="4" fill="#0" id="circle32"/>
	<circle cx="177.506" cy="4" r="4" fill="#0" id="circle33"/>
	<circle cx="185.049" cy="360.441" r="4" fill="#0" id="circle34"/>
	<circle cx="196.365" cy="4" r="4" fill="#0" id="circle35"/>
	<circle cx="200.137" cy="373.643" r="4" fill="#0" id="circle36"/>
	<circle cx="215.224" cy="4" r="4" fill="#0" id="circle37"/>
	<circle cx="217.11" cy="383.072" r="4" fill="#0" id="circle38"/>
	<circle cx="232.198" cy="13.4297" r="4" fill="#0" id="circle39"/>
	<circle cx="234.084" cy="392.502" r="4" fill="#0" id="circle40"/>
	<circle cx="249.171" cy="22.8593" r="4" fill="#0" id="circle41"/>
	<circle cx="252.943" cy="398.16" r="4" fill="#0" id="circle42"/>
	<circle cx="266.144" cy="32.289" r="4" fill="#0" id="circle43"/>
	<circle cx="269.916" cy="407.589" r="4" fill="#0" id="circle44"/>
	<circle cx="283.118" cy="41.7186" r="4" fill="#0" id="circle45"/>
	<circle cx="285.004" cy="420.791" r="4" fill="#0" id="circle46"/>
	<circle cx="300.091" cy="51.1483" r="4" fill="#0" id="circle47"/>
	<circle cx="303.863" cy="420.791" r="4" fill="#0" id="circle48"/>
	<circle cx="317.065" cy="60.5779" r="4" fill="#0" id="circle49"/>
	<circle cx="322.722" cy="420.791" r="4" fill="#0" id="circle50"/>
	<circle cx="332.152" cy="71.8935" r="4" fill="#0" id="circle51"/>
	<circle cx="341.582" cy="420.791" r="4" fill="#0" id="circle52"/>
	<circle cx="351.011" cy="79.4373" r="4" fill="#0" id="circle53"/>
	<circle cx="360.441" cy="420.791" r="4" fill="#0" id="circle54"/>
	<circle cx="369.871" cy="79.4373" r="4" fill="#0" id="circle55"/>
	<circle cx="379.3" cy="417.019" r="4" fill="#0" id="circle56"/>
	<circle cx="388.73" cy="79.4373" r="4" fill="#0" id="circle57"/>
	<circle cx="398.16" cy="411.361" r="4" fill="#0" id="circle58"/>
	<circle cx="407.589" cy="79.4373" r="4" fill="#0" id="circle59"/>
	<circle cx="417.019" cy="407.589" r="4" fill="#0" id="circle60"/>
	<circle cx="426.449" cy="79.4373" r="4" fill="#0" id="circle61"/>
	<circle cx="435.878" cy="401.932" r="4" fill="#0" id="circle62"/>
	<circle cx="445.308" cy="79.4373" r="4" fill="#0" id="circle63"/>
	<circle cx="454.738" cy="401.932" r="4" fill="#0" id="circle64"/>
	<circle cx="464.167" cy="79.4373" r="4" fill="#0" id="circle65"/>
	<circle cx="471.711" cy="392.502" r="4" fill="#0" id="circle66"/>
	<circle cx="483.027" cy="79.4373" r="4" fill="#0" id="circle67"/>
	<circle cx="490.57" cy="392.502" r="4" fill="#0" id="circle68"/>
	<circle cx="501.886" cy="79.4373" r="4" fill="#0" id="circle69"/>
	<circle cx="509.43" cy="392.502" r="4" fill="#0" id="circle70"/>
	<circle cx="518.859" cy="70.0076" r="4" fill="#0" id="circle71"/>
	<circle cx="526.403" cy="383.072" r="4" fill="#0" id="circle72"/>
	<circle cx="537.719" cy="70.0076" r="4" fill="#0" id="circle73"/>
	<circle cx="545.262" cy="383.072" r="4" fill="#0" id="circle74"/>
	<circle cx="556.578" cy="60.5779" r="4" fill="#0" id="circle75"/>
	<circle cx="564.122" cy="383.072" r="4" fill="#0" id="circle76"/>
	<circle cx="575.437" cy="60.5779" r="4" fill="#0" id="circle77"/>
	<circle cx="581.095" cy="373.643" r="4" fill="#0" id="circle78"/>
	<circle cx="594.297" cy="60.5779" r="4" fill="#0" id="circle79"/>
	<circle cx="599.954" cy="373.643" r="4" fill="#0" id="circle80"/>
	<circle cx="611.27" cy="51.1483" r="4" fill="#0" id="circle81"/>
	<circle cx="618.814" cy="373.643" r="4" fill="#0" id="circle82"/>
	<circle cx="630.129" cy="51.1483" r="4" fill="#0" id="circle83"/>
	<circle cx="635.787" cy="383.072" r="4" fill="#0" id="circle84"/>
	<circle cx="648.989" cy="51.1483" r="4" fill="#0" id="circle85"/>
	<circle cx="652.76" cy="392.502" r="4" fill="#0" id="circle86"/>
	<circle cx="667.848" cy="51.1483" r="4" fill="#0" id="circle87"/>
	<circle cx="671.62" cy="392.502" r="4" fill="#0" id="circle88"/>
	<circle cx="686.707" cy="51.1483" r="4" fill="#0" id="circle89"/>
	<circle cx="688.593" cy="401.932" r="4" fill="#0" id="circle90"/>
	<circle cx="698.023" cy="418.905" r="4" fill="#0" id="circle91"/>
	<circle cx="703.681" cy="60.5779" r="4" fill="#0" id="circle92"/>
	<circle cx="713.11" cy="430.221" r="4" fill="#0" id="circle93"/>
	<circle cx="720.654" cy="70.0076" r="4" fill="#0" id="circle94"/>
	<circle cx="730.084" cy="439.65" r="4" fill="#0" id="circle95"/>
	<circle cx="731.97" cy="85.0951" r="4" fill="#0" id="circle96"/>
	<circle cx="745.171" cy="100.183" r="4" fill="#0" id="circle97"/>
	<circle cx="748.943" cy="439.65" r="4" fill="#0" id="circle98"/>
	<circle cx="760.259" cy="113.384" r="4" fill="#0" id="circle99"/>
	<circle cx="767.802" cy="439.65" r="4" fill="#0" id="circle100"/>
	<circle cx="773.46" cy="128.471" r="4" fill="#0" id="circle101"/>
	<circle cx="786.662" cy="439.65" r="4" fill="#0" id="circle102"/>
	<circle cx="792.319" cy="136.015" r="4" fill="#0" id="circle103"/>
	<circle cx="805.521" cy="439.65" r="4" fill="#0" id="circle104"/>
	<circle cx="811.179" cy="136.015" r="4" fill="#0" id="circle105"/>
	<circle cx="824.38" cy="439.65" r="4" fill="#0" id="circle106"/>
	<circle cx="830.038" cy="136.015" r="4" fill="#0" id="circle107"/>
	<circle cx="843.24" cy="439.65" r="4" fill="#0" id="circle108"/>
	<circle cx="848.897" cy="136.015" r="4" fill="#0" id="circle109"/>
	<circle cx="862.099" cy="439.65" r="4" fill="#0" id="circle110"/>
	<circle cx="867.757" cy="136.015" r="4" fill="#0" id="circle111"/>
	<circle cx="880.958" cy="433.992" r="4" fill="#0" id="circle112"/>
	<circle cx="886.616" cy="126.586" r="4" fill="#0" id="circle113"/>
	<circle cx="899.817" cy="424.563" r="4" fill="#0" id="circle114"/>
	<circle cx="905.475" cy="126.586" r="4" fill="#0" id="circle115"/>
	<circle cx="911.133" cy="317.065" r="4" fill="#0" id="circle116"/>
	<circle cx="911.133" cy="335.924" r="4" fill="#0" id="circle117"/>
	<circle cx="911.133" cy="354.783" r="4" fill="#0" id="circle118"/>
	<circle cx="911.133" cy="373.643" r="4" fill="#0" id="circle119"/>
	<circle cx="911.133" cy="392.502" r="4" fill="#0" id="circle120"/>
	<circle cx="920.563" cy="298.205" r="4" fill="#0" id="circle121"/>
	<circle cx="924.335" cy="126.586" r="4" fill="#0" id="circle122"/>
	<circle cx="939.422" cy="288.776" r="4" fill="#0" id="circle123"/>
	<circle cx="941.308" cy="117.156" r="4" fill="#0" id="circle124"/>
	<circle cx="954.51" cy="275.574" r="4" fill="#0" id="circle125"/>
	<circle cx="958.281" cy="107.726" r="4" fill="#0" id="circle126"/>
	<circle cx="967.711" cy="251.057" r="4" fill="#0" id="circle127"/>
	<circle cx="977.141" cy="107.726" r="4" fill="#0" id="circle128"/>
	<circle cx="982.798" cy="237.856" r="4" fill="#0" id="circle129"/>
	<circle cx="986.57" cy="124.7" r="4" fill="#0" id="circle130"/>
	<circle cx="986.57" cy="143.559" r="4" fill="#0" id="circle131"/>
	<circle cx="986.57" cy="162.418" r="4" fill="#0" id="circle132"/>
	<circle cx="996" cy="179.392" r="4" fill="#0" id="circle133"/>
	<circle cx="996" cy="198.251" r="4" fill="#0" id="circle134"/>
	<circle cx="996" cy="217.11" r="4" fill="#0" id="circle135"/>
	</g>
</svg>