<?xml version="1.0" encoding="UTF-8" standalone="no"?>
<!-- Created with CurveBenchmark -->
<svg
	xmlns:dc="http://purl.org/dc/elements/1.1/"
	xmlns:cc="http://creativecommons.org/ns#"
	xmlns:rdf="http://www.w3.org/1999/02/22-rdf-syntax-ns#"
	xmlns:svg="http://www.w3.org/2000/svg"
	xmlns="http://www.w3.org/2000/svg"
	xmlns:sodipodi="http://sodipodi.sourceforge.net/DTD/sodipodi-0.dtd"
	xmlns:inkscape="http://www.inkscape.org/namespaces/inkscape"
	width="1000"
	height="1000"
	id="svg2"
	version="1.1"
	sodipodi:docname="manifold/nncrust-bird20.png.txt">
<defs
	id="defs4" />
<metadata
	id="metadata7">
	<rdf:RDF>
		<cc:Work
			rdf:about="">
			<dc:format>image/svg+xml</dc:format>
			<dc:type
				rdf:resource="http://purl.org/dc/dcmitype/StillImage" />
			<dc:title></dc:title>
		</cc:Work>
	</rdf:RDF>
</metadata>
<g
	inkscape:label="Layer 1"
	inkscape:groupmode="layer"
	id="layer1">
	<path style="fill:none;stroke:red;stroke-width:1px;stroke-linecap:butt;stroke-linejoin:miter;stroke-opacity:1" d="M 13.1682,82.8466 31.5046,73.6784 z" id="boundary" inkscape:connector-curvature="0" />
	<path style="fill:none;stroke:red;stroke-width:1px;stroke-linecap:butt;stroke-linejoin:miter;stroke-opacity:1" d="M 46.1738,59.0092 31.5046,73.6784 z" id="boundary" inkscape:connector-curvature="0" />
	<path style="fill:none;stroke:red;stroke-width:1px;stroke-linecap:butt;stroke-linejoin:miter;stroke-opacity:1" d="M 22.3364,106.684 4,101.183 z" id="boundary" inkscape:connector-curvature="0" />
	<path style="fill:none;stroke:red;stroke-width:1px;stroke-linecap:butt;stroke-linejoin:miter;stroke-opacity:1" d="M 4,101.183 13.1682,82.8466 z" id="boundary" inkscape:connector-curvature="0" />
	<path style="fill:none;stroke:red;stroke-width:1px;stroke-linecap:butt;stroke-linejoin:miter;stroke-opacity:1" d="M 40.6728,106.684 22.3364,106.684 z" id="boundary" inkscape:connector-curvature="0" />
	<path style="fill:none;stroke:red;stroke-width:1px;stroke-linecap:butt;stroke-linejoin:miter;stroke-opacity:1" d="M 40.6728,106.684 57.1756,115.852 z" id="boundary" inkscape:connector-curvature="0" />
	<path style="fill:none;stroke:red;stroke-width:1px;stroke-linecap:butt;stroke-linejoin:miter;stroke-opacity:1" d="M 82.8466,59.0092 64.5102,59.0092 z" id="boundary" inkscape:connector-curvature="0" />
	<path style="fill:none;stroke:red;stroke-width:1px;stroke-linecap:butt;stroke-linejoin:miter;stroke-opacity:1" d="M 64.5102,59.0092 46.1738,59.0092 z" id="boundary" inkscape:connector-curvature="0" />
	<path style="fill:none;stroke:red;stroke-width:1px;stroke-linecap:butt;stroke-linejoin:miter;stroke-opacity:1" d="M 101.183,59.0092 119.519,49.841 z" id="boundary" inkscape:connector-curvature="0" />
	<path style="fill:none;stroke:red;stroke-width:1px;stroke-linecap:butt;stroke-linejoin:miter;stroke-opacity:1" d="M 152.525,26.0037 137.856,40.6728 z" id="boundary" inkscape:connector-curvature="0" />
	<path style="fill:none;stroke:red;stroke-width:1px;stroke-linecap:butt;stroke-linejoin:miter;stroke-opacity:1" d="M 137.856,40.6728 119.519,49.841 z" id="boundary" inkscape:connector-curvature="0" />
	<path style="fill:none;stroke:red;stroke-width:1px;stroke-linecap:butt;stroke-linejoin:miter;stroke-opacity:1" d="M 101.183,59.0092 82.8466,59.0092 z" id="boundary" inkscape:connector-curvature="0" />
	<path style="fill:none;stroke:red;stroke-width:1px;stroke-linecap:butt;stroke-linejoin:miter;stroke-opacity:1" d="M 92.0148,196.532 77.3457,211.201 z" id="boundary" inkscape:connector-curvature="0" />
	<path style="fill:none;stroke:red;stroke-width:1px;stroke-linecap:butt;stroke-linejoin:miter;stroke-opacity:1" d="M 73.6784,106.684 57.1756,115.852 z" id="boundary" inkscape:connector-curvature="0" />
	<path style="fill:none;stroke:red;stroke-width:1px;stroke-linecap:butt;stroke-linejoin:miter;stroke-opacity:1" d="M 59.0092,284.547 59.0092,266.211 z" id="boundary" inkscape:connector-curvature="0" />
	<path style="fill:none;stroke:red;stroke-width:1px;stroke-linecap:butt;stroke-linejoin:miter;stroke-opacity:1" d="M 59.0092,266.211 68.1774,238.706 z" id="boundary" inkscape:connector-curvature="0" />
	<path style="fill:none;stroke:red;stroke-width:1px;stroke-linecap:butt;stroke-linejoin:miter;stroke-opacity:1" d="M 77.3457,211.201 68.1774,238.706 z" id="boundary" inkscape:connector-curvature="0" />
	<path style="fill:none;stroke:red;stroke-width:1px;stroke-linecap:butt;stroke-linejoin:miter;stroke-opacity:1" d="M 92.0148,106.684 110.351,114.018 z" id="boundary" inkscape:connector-curvature="0" />
	<path style="fill:none;stroke:red;stroke-width:1px;stroke-linecap:butt;stroke-linejoin:miter;stroke-opacity:1" d="M 110.351,114.018 114.018,132.355 z" id="boundary" inkscape:connector-curvature="0" />
	<path style="fill:none;stroke:red;stroke-width:1px;stroke-linecap:butt;stroke-linejoin:miter;stroke-opacity:1" d="M 114.018,132.355 104.85,156.192 z" id="boundary" inkscape:connector-curvature="0" />
	<path style="fill:none;stroke:red;stroke-width:1px;stroke-linecap:butt;stroke-linejoin:miter;stroke-opacity:1" d="M 101.183,178.196 92.0148,196.532 z" id="boundary" inkscape:connector-curvature="0" />
	<path style="fill:none;stroke:red;stroke-width:1px;stroke-linecap:butt;stroke-linejoin:miter;stroke-opacity:1" d="M 104.85,156.192 101.183,178.196 z" id="boundary" inkscape:connector-curvature="0" />
	<path style="fill:none;stroke:red;stroke-width:1px;stroke-linecap:butt;stroke-linejoin:miter;stroke-opacity:1" d="M 73.6784,106.684 92.0148,106.684 z" id="boundary" inkscape:connector-curvature="0" />
	<path style="fill:none;stroke:red;stroke-width:1px;stroke-linecap:butt;stroke-linejoin:miter;stroke-opacity:1" d="M 202.033,4 220.37,4 z" id="boundary" inkscape:connector-curvature="0" />
	<path style="fill:none;stroke:red;stroke-width:1px;stroke-linecap:butt;stroke-linejoin:miter;stroke-opacity:1" d="M 185.53,13.1682 202.033,4 z" id="boundary" inkscape:connector-curvature="0" />
	<path style="fill:none;stroke:red;stroke-width:1px;stroke-linecap:butt;stroke-linejoin:miter;stroke-opacity:1" d="M 152.525,26.0037 167.194,13.1682 z" id="boundary" inkscape:connector-curvature="0" />
	<path style="fill:none;stroke:red;stroke-width:1px;stroke-linecap:butt;stroke-linejoin:miter;stroke-opacity:1" d="M 167.194,13.1682 185.53,13.1682 z" id="boundary" inkscape:connector-curvature="0" />
	<path style="fill:none;stroke:red;stroke-width:1px;stroke-linecap:butt;stroke-linejoin:miter;stroke-opacity:1" d="M 220.37,4 236.872,13.1682 z" id="boundary" inkscape:connector-curvature="0" />
	<path style="fill:none;stroke:red;stroke-width:1px;stroke-linecap:butt;stroke-linejoin:miter;stroke-opacity:1" d="M 253.375,22.3364 268.044,33.3383 z" id="boundary" inkscape:connector-curvature="0" />
	<path style="fill:none;stroke:red;stroke-width:1px;stroke-linecap:butt;stroke-linejoin:miter;stroke-opacity:1" d="M 268.044,33.3383 280.88,48.0074 z" id="boundary" inkscape:connector-curvature="0" />
	<path style="fill:none;stroke:red;stroke-width:1px;stroke-linecap:butt;stroke-linejoin:miter;stroke-opacity:1" d="M 280.88,48.0074 295.549,60.8429 z" id="boundary" inkscape:connector-curvature="0" />
	<path style="fill:none;stroke:red;stroke-width:1px;stroke-linecap:butt;stroke-linejoin:miter;stroke-opacity:1" d="M 295.549,60.8429 299.216,79.1793 z" id="boundary" inkscape:connector-curvature="0" />
	<path style="fill:none;stroke:red;stroke-width:1px;stroke-linecap:butt;stroke-linejoin:miter;stroke-opacity:1" d="M 308.384,95.6821 299.216,79.1793 z" id="boundary" inkscape:connector-curvature="0" />
	<path style="fill:none;stroke:red;stroke-width:1px;stroke-linecap:butt;stroke-linejoin:miter;stroke-opacity:1" d="M 236.872,13.1682 253.375,22.3364 z" id="boundary" inkscape:connector-curvature="0" />
	<path style="fill:none;stroke:red;stroke-width:1px;stroke-linecap:butt;stroke-linejoin:miter;stroke-opacity:1" d="M 319.386,205.701 302.884,196.532 z" id="boundary" inkscape:connector-curvature="0" />
	<path style="fill:none;stroke:red;stroke-width:1px;stroke-linecap:butt;stroke-linejoin:miter;stroke-opacity:1" d="M 308.384,115.852 304.717,148.858 z" id="boundary" inkscape:connector-curvature="0" />
	<path style="fill:none;stroke:red;stroke-width:1px;stroke-linecap:butt;stroke-linejoin:miter;stroke-opacity:1" d="M 304.717,148.858 290.048,161.693 z" id="boundary" inkscape:connector-curvature="0" />
	<path style="fill:none;stroke:red;stroke-width:1px;stroke-linecap:butt;stroke-linejoin:miter;stroke-opacity:1" d="M 293.715,180.03 290.048,161.693 z" id="boundary" inkscape:connector-curvature="0" />
	<path style="fill:none;stroke:red;stroke-width:1px;stroke-linecap:butt;stroke-linejoin:miter;stroke-opacity:1" d="M 302.884,196.532 293.715,180.03 z" id="boundary" inkscape:connector-curvature="0" />
	<path style="fill:none;stroke:red;stroke-width:1px;stroke-linecap:butt;stroke-linejoin:miter;stroke-opacity:1" d="M 308.384,95.6821 308.384,115.852 z" id="boundary" inkscape:connector-curvature="0" />
	<path style="fill:none;stroke:red;stroke-width:1px;stroke-linecap:butt;stroke-linejoin:miter;stroke-opacity:1" d="M 335.889,214.869 319.386,205.701 z" id="boundary" inkscape:connector-curvature="0" />
	<path style="fill:none;stroke:red;stroke-width:1px;stroke-linecap:butt;stroke-linejoin:miter;stroke-opacity:1" d="M 352.392,224.037 335.889,214.869 z" id="boundary" inkscape:connector-curvature="0" />
	<path style="fill:none;stroke:red;stroke-width:1px;stroke-linecap:butt;stroke-linejoin:miter;stroke-opacity:1" d="M 379.896,247.874 363.394,238.706 z" id="boundary" inkscape:connector-curvature="0" />
	<path style="fill:none;stroke:red;stroke-width:1px;stroke-linecap:butt;stroke-linejoin:miter;stroke-opacity:1" d="M 363.394,238.706 352.392,224.037 z" id="boundary" inkscape:connector-curvature="0" />
	<path style="fill:none;stroke:red;stroke-width:1px;stroke-linecap:butt;stroke-linejoin:miter;stroke-opacity:1" d="M 398.233,255.209 379.896,247.874 z" id="boundary" inkscape:connector-curvature="0" />
	<path style="fill:none;stroke:red;stroke-width:1px;stroke-linecap:butt;stroke-linejoin:miter;stroke-opacity:1" d="M 59.0092,284.547 59.0092,302.884 z" id="boundary" inkscape:connector-curvature="0" />
	<path style="fill:none;stroke:red;stroke-width:1px;stroke-linecap:butt;stroke-linejoin:miter;stroke-opacity:1" d="M 68.1774,319.386 59.0092,302.884 z" id="boundary" inkscape:connector-curvature="0" />
	<path style="fill:none;stroke:red;stroke-width:1px;stroke-linecap:butt;stroke-linejoin:miter;stroke-opacity:1" d="M 68.1774,319.386 77.3457,335.889 z" id="boundary" inkscape:connector-curvature="0" />
	<path style="fill:none;stroke:red;stroke-width:1px;stroke-linecap:butt;stroke-linejoin:miter;stroke-opacity:1" d="M 77.3457,335.889 77.3457,354.226 z" id="boundary" inkscape:connector-curvature="0" />
	<path style="fill:none;stroke:red;stroke-width:1px;stroke-linecap:butt;stroke-linejoin:miter;stroke-opacity:1" d="M 88.3475,368.895 77.3457,354.226 z" id="boundary" inkscape:connector-curvature="0" />
	<path style="fill:none;stroke:red;stroke-width:1px;stroke-linecap:butt;stroke-linejoin:miter;stroke-opacity:1" d="M 114.018,394.566 97.5157,385.397 z" id="boundary" inkscape:connector-curvature="0" />
	<path style="fill:none;stroke:red;stroke-width:1px;stroke-linecap:butt;stroke-linejoin:miter;stroke-opacity:1" d="M 97.5157,385.397 88.3475,368.895 z" id="boundary" inkscape:connector-curvature="0" />
	<path style="fill:none;stroke:red;stroke-width:1px;stroke-linecap:butt;stroke-linejoin:miter;stroke-opacity:1" d="M 114.018,394.566 125.02,409.235 z" id="boundary" inkscape:connector-curvature="0" />
	<path style="fill:none;stroke:red;stroke-width:1px;stroke-linecap:butt;stroke-linejoin:miter;stroke-opacity:1" d="M 150.691,434.906 136.022,423.904 z" id="boundary" inkscape:connector-curvature="0" />
	<path style="fill:none;stroke:red;stroke-width:1px;stroke-linecap:butt;stroke-linejoin:miter;stroke-opacity:1" d="M 136.022,423.904 125.02,409.235 z" id="boundary" inkscape:connector-curvature="0" />
	<path style="fill:none;stroke:red;stroke-width:1px;stroke-linecap:butt;stroke-linejoin:miter;stroke-opacity:1" d="M 165.36,445.908 180.03,458.743 z" id="boundary" inkscape:connector-curvature="0" />
	<path style="fill:none;stroke:red;stroke-width:1px;stroke-linecap:butt;stroke-linejoin:miter;stroke-opacity:1" d="M 180.03,458.743 192.865,473.412 z" id="boundary" inkscape:connector-curvature="0" />
	<path style="fill:none;stroke:red;stroke-width:1px;stroke-linecap:butt;stroke-linejoin:miter;stroke-opacity:1" d="M 224.037,495.416 207.534,486.248 z" id="boundary" inkscape:connector-curvature="0" />
	<path style="fill:none;stroke:red;stroke-width:1px;stroke-linecap:butt;stroke-linejoin:miter;stroke-opacity:1" d="M 207.534,486.248 192.865,473.412 z" id="boundary" inkscape:connector-curvature="0" />
	<path style="fill:none;stroke:red;stroke-width:1px;stroke-linecap:butt;stroke-linejoin:miter;stroke-opacity:1" d="M 224.037,495.416 238.706,508.251 z" id="boundary" inkscape:connector-curvature="0" />
	<path style="fill:none;stroke:red;stroke-width:1px;stroke-linecap:butt;stroke-linejoin:miter;stroke-opacity:1" d="M 165.36,445.908 150.691,434.906 z" id="boundary" inkscape:connector-curvature="0" />
	<path style="fill:none;stroke:red;stroke-width:1px;stroke-linecap:butt;stroke-linejoin:miter;stroke-opacity:1" d="M 238.706,508.251 255.209,517.42 z" id="boundary" inkscape:connector-curvature="0" />
	<path style="fill:none;stroke:red;stroke-width:1px;stroke-linecap:butt;stroke-linejoin:miter;stroke-opacity:1" d="M 255.209,517.42 269.878,528.421 z" id="boundary" inkscape:connector-curvature="0" />
	<path style="fill:none;stroke:red;stroke-width:1px;stroke-linecap:butt;stroke-linejoin:miter;stroke-opacity:1" d="M 233.205,715.453 251.542,706.285 z" id="boundary" inkscape:connector-curvature="0" />
	<path style="fill:none;stroke:red;stroke-width:1px;stroke-linecap:butt;stroke-linejoin:miter;stroke-opacity:1" d="M 251.542,706.285 260.71,722.787 z" id="boundary" inkscape:connector-curvature="0" />
	<path style="fill:none;stroke:red;stroke-width:1px;stroke-linecap:butt;stroke-linejoin:miter;stroke-opacity:1" d="M 275.379,709.952 260.71,722.787 z" id="boundary" inkscape:connector-curvature="0" />
	<path style="fill:none;stroke:red;stroke-width:1px;stroke-linecap:butt;stroke-linejoin:miter;stroke-opacity:1" d="M 269.878,528.421 286.381,537.59 z" id="boundary" inkscape:connector-curvature="0" />
	<path style="fill:none;stroke:red;stroke-width:1px;stroke-linecap:butt;stroke-linejoin:miter;stroke-opacity:1" d="M 321.22,554.092 302.884,546.758 z" id="boundary" inkscape:connector-curvature="0" />
	<path style="fill:none;stroke:red;stroke-width:1px;stroke-linecap:butt;stroke-linejoin:miter;stroke-opacity:1" d="M 310.218,700.784 319.386,684.281 z" id="boundary" inkscape:connector-curvature="0" />
	<path style="fill:none;stroke:red;stroke-width:1px;stroke-linecap:butt;stroke-linejoin:miter;stroke-opacity:1" d="M 319.386,684.281 337.723,691.616 z" id="boundary" inkscape:connector-curvature="0" />
	<path style="fill:none;stroke:red;stroke-width:1px;stroke-linecap:butt;stroke-linejoin:miter;stroke-opacity:1" d="M 310.218,700.784 293.715,709.952 z" id="boundary" inkscape:connector-curvature="0" />
	<path style="fill:none;stroke:red;stroke-width:1px;stroke-linecap:butt;stroke-linejoin:miter;stroke-opacity:1" d="M 337.723,563.261 356.059,570.595 z" id="boundary" inkscape:connector-curvature="0" />
	<path style="fill:none;stroke:red;stroke-width:1px;stroke-linecap:butt;stroke-linejoin:miter;stroke-opacity:1" d="M 356.059,570.595 363.394,588.932 z" id="boundary" inkscape:connector-curvature="0" />
	<path style="fill:none;stroke:red;stroke-width:1px;stroke-linecap:butt;stroke-linejoin:miter;stroke-opacity:1" d="M 363.394,588.932 361.56,614.603 z" id="boundary" inkscape:connector-curvature="0" />
	<path style="fill:none;stroke:red;stroke-width:1px;stroke-linecap:butt;stroke-linejoin:miter;stroke-opacity:1" d="M 361.56,614.603 370.728,631.105 z" id="boundary" inkscape:connector-curvature="0" />
	<path style="fill:none;stroke:red;stroke-width:1px;stroke-linecap:butt;stroke-linejoin:miter;stroke-opacity:1" d="M 354.226,700.784 337.723,691.616 z" id="boundary" inkscape:connector-curvature="0" />
	<path style="fill:none;stroke:red;stroke-width:1px;stroke-linecap:butt;stroke-linejoin:miter;stroke-opacity:1" d="M 321.22,554.092 337.723,563.261 z" id="boundary" inkscape:connector-curvature="0" />
	<path style="fill:none;stroke:red;stroke-width:1px;stroke-linecap:butt;stroke-linejoin:miter;stroke-opacity:1" d="M 302.884,546.758 286.381,537.59 z" id="boundary" inkscape:connector-curvature="0" />
	<path style="fill:none;stroke:red;stroke-width:1px;stroke-linecap:butt;stroke-linejoin:miter;stroke-opacity:1" d="M 275.379,709.952 293.715,709.952 z" id="boundary" inkscape:connector-curvature="0" />
	<path style="fill:none;stroke:red;stroke-width:1px;stroke-linecap:butt;stroke-linejoin:miter;stroke-opacity:1" d="M 273.545,737.457 269.878,761.294 z" id="boundary" inkscape:connector-curvature="0" />
	<path style="fill:none;stroke:red;stroke-width:1px;stroke-linecap:butt;stroke-linejoin:miter;stroke-opacity:1" d="M 260.71,722.787 273.545,737.457 z" id="boundary" inkscape:connector-curvature="0" />
	<path style="fill:none;stroke:red;stroke-width:1px;stroke-linecap:butt;stroke-linejoin:miter;stroke-opacity:1" d="M 288.214,766.795 269.878,761.294 z" id="boundary" inkscape:connector-curvature="0" />
	<path style="fill:none;stroke:red;stroke-width:1px;stroke-linecap:butt;stroke-linejoin:miter;stroke-opacity:1" d="M 306.551,770.462 288.214,766.795 z" id="boundary" inkscape:connector-curvature="0" />
	<path style="fill:none;stroke:red;stroke-width:1px;stroke-linecap:butt;stroke-linejoin:miter;stroke-opacity:1" d="M 324.887,770.462 306.551,770.462 z" id="boundary" inkscape:connector-curvature="0" />
	<path style="fill:none;stroke:red;stroke-width:1px;stroke-linecap:butt;stroke-linejoin:miter;stroke-opacity:1" d="M 354.226,700.784 372.562,700.784 z" id="boundary" inkscape:connector-curvature="0" />
	<path style="fill:none;stroke:red;stroke-width:1px;stroke-linecap:butt;stroke-linejoin:miter;stroke-opacity:1" d="M 379.896,665.945 372.562,700.784 z" id="boundary" inkscape:connector-curvature="0" />
	<path style="fill:none;stroke:red;stroke-width:1px;stroke-linecap:butt;stroke-linejoin:miter;stroke-opacity:1" d="M 396.399,753.959 378.063,757.627 z" id="boundary" inkscape:connector-curvature="0" />
	<path style="fill:none;stroke:red;stroke-width:1px;stroke-linecap:butt;stroke-linejoin:miter;stroke-opacity:1" d="M 378.063,757.627 361.56,766.795 z" id="boundary" inkscape:connector-curvature="0" />
	<path style="fill:none;stroke:red;stroke-width:1px;stroke-linecap:butt;stroke-linejoin:miter;stroke-opacity:1" d="M 324.887,770.462 343.224,766.795 z" id="boundary" inkscape:connector-curvature="0" />
	<path style="fill:none;stroke:red;stroke-width:1px;stroke-linecap:butt;stroke-linejoin:miter;stroke-opacity:1" d="M 343.224,766.795 361.56,766.795 z" id="boundary" inkscape:connector-curvature="0" />
	<path style="fill:none;stroke:red;stroke-width:1px;stroke-linecap:butt;stroke-linejoin:miter;stroke-opacity:1" d="M 370.728,631.105 379.896,647.608 z" id="boundary" inkscape:connector-curvature="0" />
	<path style="fill:none;stroke:red;stroke-width:1px;stroke-linecap:butt;stroke-linejoin:miter;stroke-opacity:1" d="M 414.736,264.377 398.233,255.209 z" id="boundary" inkscape:connector-curvature="0" />
	<path style="fill:none;stroke:red;stroke-width:1px;stroke-linecap:butt;stroke-linejoin:miter;stroke-opacity:1" d="M 433.072,271.712 414.736,264.377 z" id="boundary" inkscape:connector-curvature="0" />
	<path style="fill:none;stroke:red;stroke-width:1px;stroke-linecap:butt;stroke-linejoin:miter;stroke-opacity:1" d="M 464.244,293.715 445.908,286.381 z" id="boundary" inkscape:connector-curvature="0" />
	<path style="fill:none;stroke:red;stroke-width:1px;stroke-linecap:butt;stroke-linejoin:miter;stroke-opacity:1" d="M 445.908,286.381 433.072,271.712 z" id="boundary" inkscape:connector-curvature="0" />
	<path style="fill:none;stroke:red;stroke-width:1px;stroke-linecap:butt;stroke-linejoin:miter;stroke-opacity:1" d="M 464.244,293.715 480.747,302.884 z" id="boundary" inkscape:connector-curvature="0" />
	<path style="fill:none;stroke:red;stroke-width:1px;stroke-linecap:butt;stroke-linejoin:miter;stroke-opacity:1" d="M 480.747,302.884 499.083,310.218 z" id="boundary" inkscape:connector-curvature="0" />
	<path style="fill:none;stroke:red;stroke-width:1px;stroke-linecap:butt;stroke-linejoin:miter;stroke-opacity:1" d="M 499.083,310.218 510.085,324.887 z" id="boundary" inkscape:connector-curvature="0" />
	<path style="fill:none;stroke:red;stroke-width:1px;stroke-linecap:butt;stroke-linejoin:miter;stroke-opacity:1" d="M 526.588,334.055 510.085,324.887 z" id="boundary" inkscape:connector-curvature="0" />
	<path style="fill:none;stroke:red;stroke-width:1px;stroke-linecap:butt;stroke-linejoin:miter;stroke-opacity:1" d="M 526.588,334.055 543.091,343.224 z" id="boundary" inkscape:connector-curvature="0" />
	<path style="fill:none;stroke:red;stroke-width:1px;stroke-linecap:butt;stroke-linejoin:miter;stroke-opacity:1" d="M 559.593,352.392 543.091,343.224 z" id="boundary" inkscape:connector-curvature="0" />
	<path style="fill:none;stroke:red;stroke-width:1px;stroke-linecap:butt;stroke-linejoin:miter;stroke-opacity:1" d="M 559.593,352.392 572.429,367.061 z" id="boundary" inkscape:connector-curvature="0" />
	<path style="fill:none;stroke:red;stroke-width:1px;stroke-linecap:butt;stroke-linejoin:miter;stroke-opacity:1" d="M 418.403,583.431 434.906,574.262 z" id="boundary" inkscape:connector-curvature="0" />
	<path style="fill:none;stroke:red;stroke-width:1px;stroke-linecap:butt;stroke-linejoin:miter;stroke-opacity:1" d="M 418.403,601.767 418.403,583.431 z" id="boundary" inkscape:connector-curvature="0" />
	<path style="fill:none;stroke:red;stroke-width:1px;stroke-linecap:butt;stroke-linejoin:miter;stroke-opacity:1" d="M 453.242,574.262 434.906,574.262 z" id="boundary" inkscape:connector-curvature="0" />
	<path style="fill:none;stroke:red;stroke-width:1px;stroke-linecap:butt;stroke-linejoin:miter;stroke-opacity:1" d="M 453.242,574.262 471.579,574.262 z" id="boundary" inkscape:connector-curvature="0" />
	<path style="fill:none;stroke:red;stroke-width:1px;stroke-linecap:butt;stroke-linejoin:miter;stroke-opacity:1" d="M 471.579,574.262 488.081,583.431 z" id="boundary" inkscape:connector-curvature="0" />
	<path style="fill:none;stroke:red;stroke-width:1px;stroke-linecap:butt;stroke-linejoin:miter;stroke-opacity:1" d="M 506.418,583.431 488.081,583.431 z" id="boundary" inkscape:connector-curvature="0" />
	<path style="fill:none;stroke:red;stroke-width:1px;stroke-linecap:butt;stroke-linejoin:miter;stroke-opacity:1" d="M 590.765,374.396 572.429,367.061 z" id="boundary" inkscape:connector-curvature="0" />
	<path style="fill:none;stroke:red;stroke-width:1px;stroke-linecap:butt;stroke-linejoin:miter;stroke-opacity:1" d="M 607.268,383.564 590.765,374.396 z" id="boundary" inkscape:connector-curvature="0" />
	<path style="fill:none;stroke:red;stroke-width:1px;stroke-linecap:butt;stroke-linejoin:miter;stroke-opacity:1" d="M 506.418,583.431 524.754,583.431 z" id="boundary" inkscape:connector-curvature="0" />
	<path style="fill:none;stroke:red;stroke-width:1px;stroke-linecap:butt;stroke-linejoin:miter;stroke-opacity:1" d="M 524.754,583.431 541.257,592.599 z" id="boundary" inkscape:connector-curvature="0" />
	<path style="fill:none;stroke:red;stroke-width:1px;stroke-linecap:butt;stroke-linejoin:miter;stroke-opacity:1" d="M 559.593,592.599 541.257,592.599 z" id="boundary" inkscape:connector-curvature="0" />
	<path style="fill:none;stroke:red;stroke-width:1px;stroke-linecap:butt;stroke-linejoin:miter;stroke-opacity:1" d="M 464.244,724.621 488.081,583.431 z" id="boundary" inkscape:connector-curvature="0" />
	<path style="fill:none;stroke:red;stroke-width:1px;stroke-linecap:butt;stroke-linejoin:miter;stroke-opacity:1" d="M 607.268,383.564 620.104,398.233 z" id="boundary" inkscape:connector-curvature="0" />
	<path style="fill:none;stroke:red;stroke-width:1px;stroke-linecap:butt;stroke-linejoin:miter;stroke-opacity:1" d="M 620.104,398.233 638.44,403.734 z" id="boundary" inkscape:connector-curvature="0" />
	<path style="fill:none;stroke:red;stroke-width:1px;stroke-linecap:butt;stroke-linejoin:miter;stroke-opacity:1" d="M 638.44,403.734 653.109,416.569 z" id="boundary" inkscape:connector-curvature="0" />
	<path style="fill:none;stroke:red;stroke-width:1px;stroke-linecap:butt;stroke-linejoin:miter;stroke-opacity:1" d="M 653.109,416.569 669.612,425.738 z" id="boundary" inkscape:connector-curvature="0" />
	<path style="fill:none;stroke:red;stroke-width:1px;stroke-linecap:butt;stroke-linejoin:miter;stroke-opacity:1" d="M 686.115,434.906 669.612,425.738 z" id="boundary" inkscape:connector-curvature="0" />
	<path style="fill:none;stroke:red;stroke-width:1px;stroke-linecap:butt;stroke-linejoin:miter;stroke-opacity:1" d="M 686.115,434.906 700.784,447.741 z" id="boundary" inkscape:connector-curvature="0" />
	<path style="fill:none;stroke:red;stroke-width:1px;stroke-linecap:butt;stroke-linejoin:miter;stroke-opacity:1" d="M 717.287,456.909 700.784,447.741 z" id="boundary" inkscape:connector-curvature="0" />
	<path style="fill:none;stroke:red;stroke-width:1px;stroke-linecap:butt;stroke-linejoin:miter;stroke-opacity:1" d="M 735.623,464.244 717.287,456.909 z" id="boundary" inkscape:connector-curvature="0" />
	<path style="fill:none;stroke:red;stroke-width:1px;stroke-linecap:butt;stroke-linejoin:miter;stroke-opacity:1" d="M 783.298,495.416 766.795,486.248 z" id="boundary" inkscape:connector-curvature="0" />
	<path style="fill:none;stroke:red;stroke-width:1px;stroke-linecap:butt;stroke-linejoin:miter;stroke-opacity:1" d="M 766.795,486.248 752.126,473.412 z" id="boundary" inkscape:connector-curvature="0" />
	<path style="fill:none;stroke:red;stroke-width:1px;stroke-linecap:butt;stroke-linejoin:miter;stroke-opacity:1" d="M 735.623,464.244 752.126,473.412 z" id="boundary" inkscape:connector-curvature="0" />
	<path style="fill:none;stroke:red;stroke-width:1px;stroke-linecap:butt;stroke-linejoin:miter;stroke-opacity:1" d="M 797.967,508.251 816.303,508.251 z" id="boundary" inkscape:connector-curvature="0" />
	<path style="fill:none;stroke:red;stroke-width:1px;stroke-linecap:butt;stroke-linejoin:miter;stroke-opacity:1" d="M 816.303,508.251 832.806,517.42 z" id="boundary" inkscape:connector-curvature="0" />
	<path style="fill:none;stroke:red;stroke-width:1px;stroke-linecap:butt;stroke-linejoin:miter;stroke-opacity:1" d="M 797.967,508.251 783.298,495.416 z" id="boundary" inkscape:connector-curvature="0" />
	<path style="fill:none;stroke:red;stroke-width:1px;stroke-linecap:butt;stroke-linejoin:miter;stroke-opacity:1" d="M 849.309,526.588 867.645,532.089 z" id="boundary" inkscape:connector-curvature="0" />
	<path style="fill:none;stroke:red;stroke-width:1px;stroke-linecap:butt;stroke-linejoin:miter;stroke-opacity:1" d="M 867.645,532.089 884.148,541.257 z" id="boundary" inkscape:connector-curvature="0" />
	<path style="fill:none;stroke:red;stroke-width:1px;stroke-linecap:butt;stroke-linejoin:miter;stroke-opacity:1" d="M 849.309,526.588 832.806,517.42 z" id="boundary" inkscape:connector-curvature="0" />
	<path style="fill:none;stroke:red;stroke-width:1px;stroke-linecap:butt;stroke-linejoin:miter;stroke-opacity:1" d="M 902.484,548.591 884.148,541.257 z" id="boundary" inkscape:connector-curvature="0" />
	<path style="fill:none;stroke:red;stroke-width:1px;stroke-linecap:butt;stroke-linejoin:miter;stroke-opacity:1" d="M 931.823,563.261 913.486,563.261 z" id="boundary" inkscape:connector-curvature="0" />
	<path style="fill:none;stroke:red;stroke-width:1px;stroke-linecap:butt;stroke-linejoin:miter;stroke-opacity:1" d="M 913.486,563.261 902.484,548.591 z" id="boundary" inkscape:connector-curvature="0" />
	<path style="fill:none;stroke:red;stroke-width:1px;stroke-linecap:butt;stroke-linejoin:miter;stroke-opacity:1" d="M 931.823,563.261 948.325,572.429 z" id="boundary" inkscape:connector-curvature="0" />
	<path style="fill:none;stroke:red;stroke-width:1px;stroke-linecap:butt;stroke-linejoin:miter;stroke-opacity:1" d="M 983.165,583.431 964.828,581.597 z" id="boundary" inkscape:connector-curvature="0" />
	<path style="fill:none;stroke:red;stroke-width:1px;stroke-linecap:butt;stroke-linejoin:miter;stroke-opacity:1" d="M 964.828,581.597 948.325,572.429 z" id="boundary" inkscape:connector-curvature="0" />
	<path style="fill:none;stroke:red;stroke-width:1px;stroke-linecap:butt;stroke-linejoin:miter;stroke-opacity:1" d="M 983.165,583.431 996,598.1 z" id="boundary" inkscape:connector-curvature="0" />
	<path style="fill:none;stroke:red;stroke-width:1px;stroke-linecap:butt;stroke-linejoin:miter;stroke-opacity:1" d="M 418.403,656.776 418.403,638.44 z" id="boundary" inkscape:connector-curvature="0" />
	<path style="fill:none;stroke:red;stroke-width:1px;stroke-linecap:butt;stroke-linejoin:miter;stroke-opacity:1" d="M 577.93,592.599 559.593,592.599 z" id="boundary" inkscape:connector-curvature="0" />
	<path style="fill:none;stroke:red;stroke-width:1px;stroke-linecap:butt;stroke-linejoin:miter;stroke-opacity:1" d="M 418.403,620.104 418.403,601.767 z" id="boundary" inkscape:connector-curvature="0" />
	<path style="fill:none;stroke:red;stroke-width:1px;stroke-linecap:butt;stroke-linejoin:miter;stroke-opacity:1" d="M 418.403,638.44 418.403,620.104 z" id="boundary" inkscape:connector-curvature="0" />
	<path style="fill:none;stroke:red;stroke-width:1px;stroke-linecap:butt;stroke-linejoin:miter;stroke-opacity:1" d="M 577.93,592.599 594.433,601.767 z" id="boundary" inkscape:connector-curvature="0" />
	<path style="fill:none;stroke:red;stroke-width:1px;stroke-linecap:butt;stroke-linejoin:miter;stroke-opacity:1" d="M 594.433,601.767 612.769,601.767 z" id="boundary" inkscape:connector-curvature="0" />
	<path style="fill:none;stroke:red;stroke-width:1px;stroke-linecap:butt;stroke-linejoin:miter;stroke-opacity:1" d="M 612.769,601.767 631.105,607.268 z" id="boundary" inkscape:connector-curvature="0" />
	<path style="fill:none;stroke:red;stroke-width:1px;stroke-linecap:butt;stroke-linejoin:miter;stroke-opacity:1" d="M 649.442,607.268 631.105,607.268 z" id="boundary" inkscape:connector-curvature="0" />
	<path style="fill:none;stroke:red;stroke-width:1px;stroke-linecap:butt;stroke-linejoin:miter;stroke-opacity:1" d="M 649.442,607.268 664.111,618.27 z" id="boundary" inkscape:connector-curvature="0" />
	<path style="fill:none;stroke:red;stroke-width:1px;stroke-linecap:butt;stroke-linejoin:miter;stroke-opacity:1" d="M 678.78,629.272 664.111,618.27 z" id="boundary" inkscape:connector-curvature="0" />
	<path style="fill:none;stroke:red;stroke-width:1px;stroke-linecap:butt;stroke-linejoin:miter;stroke-opacity:1" d="M 379.896,665.945 379.896,647.608 z" id="boundary" inkscape:connector-curvature="0" />
	<path style="fill:none;stroke:red;stroke-width:1px;stroke-linecap:butt;stroke-linejoin:miter;stroke-opacity:1" d="M 409.235,739.29 396.399,753.959 z" id="boundary" inkscape:connector-curvature="0" />
	<path style="fill:none;stroke:red;stroke-width:1px;stroke-linecap:butt;stroke-linejoin:miter;stroke-opacity:1" d="M 418.403,656.776 422.07,675.113 z" id="boundary" inkscape:connector-curvature="0" />
	<path style="fill:none;stroke:red;stroke-width:1px;stroke-linecap:butt;stroke-linejoin:miter;stroke-opacity:1" d="M 436.739,709.952 427.571,693.449 z" id="boundary" inkscape:connector-curvature="0" />
	<path style="fill:none;stroke:red;stroke-width:1px;stroke-linecap:butt;stroke-linejoin:miter;stroke-opacity:1" d="M 427.571,693.449 422.07,675.113 z" id="boundary" inkscape:connector-curvature="0" />
	<path style="fill:none;stroke:red;stroke-width:1px;stroke-linecap:butt;stroke-linejoin:miter;stroke-opacity:1" d="M 436.739,709.952 427.571,730.122 z" id="boundary" inkscape:connector-curvature="0" />
	<path style="fill:none;stroke:red;stroke-width:1px;stroke-linecap:butt;stroke-linejoin:miter;stroke-opacity:1" d="M 427.571,730.122 409.235,739.29 z" id="boundary" inkscape:connector-curvature="0" />
	<path style="fill:none;stroke:red;stroke-width:1px;stroke-linecap:butt;stroke-linejoin:miter;stroke-opacity:1" d="M 445.908,730.122 427.571,730.122 z" id="boundary" inkscape:connector-curvature="0" />
	<path style="fill:none;stroke:red;stroke-width:1px;stroke-linecap:butt;stroke-linejoin:miter;stroke-opacity:1" d="M 464.244,724.621 445.908,730.122 z" id="boundary" inkscape:connector-curvature="0" />
	<path style="fill:none;stroke:red;stroke-width:1px;stroke-linecap:butt;stroke-linejoin:miter;stroke-opacity:1" d="M 678.78,629.272 693.449,642.107 z" id="boundary" inkscape:connector-curvature="0" />
	<path style="fill:none;stroke:red;stroke-width:1px;stroke-linecap:butt;stroke-linejoin:miter;stroke-opacity:1" d="M 709.952,651.275 693.449,642.107 z" id="boundary" inkscape:connector-curvature="0" />
	<path style="fill:none;stroke:red;stroke-width:1px;stroke-linecap:butt;stroke-linejoin:miter;stroke-opacity:1" d="M 728.288,656.776 744.791,665.945 z" id="boundary" inkscape:connector-curvature="0" />
	<path style="fill:none;stroke:red;stroke-width:1px;stroke-linecap:butt;stroke-linejoin:miter;stroke-opacity:1" d="M 744.791,665.945 752.126,684.281 z" id="boundary" inkscape:connector-curvature="0" />
	<path style="fill:none;stroke:red;stroke-width:1px;stroke-linecap:butt;stroke-linejoin:miter;stroke-opacity:1" d="M 770.462,684.281 752.126,684.281 z" id="boundary" inkscape:connector-curvature="0" />
	<path style="fill:none;stroke:red;stroke-width:1px;stroke-linecap:butt;stroke-linejoin:miter;stroke-opacity:1" d="M 709.952,651.275 728.288,656.776 z" id="boundary" inkscape:connector-curvature="0" />
	<path style="fill:none;stroke:red;stroke-width:1px;stroke-linecap:butt;stroke-linejoin:miter;stroke-opacity:1" d="M 996,616.436 996,634.773 z" id="boundary" inkscape:connector-curvature="0" />
	<path style="fill:none;stroke:red;stroke-width:1px;stroke-linecap:butt;stroke-linejoin:miter;stroke-opacity:1" d="M 996,634.773 981.331,664.111 z" id="boundary" inkscape:connector-curvature="0" />
	<path style="fill:none;stroke:red;stroke-width:1px;stroke-linecap:butt;stroke-linejoin:miter;stroke-opacity:1" d="M 981.331,664.111 966.662,675.113 z" id="boundary" inkscape:connector-curvature="0" />
	<path style="fill:none;stroke:red;stroke-width:1px;stroke-linecap:butt;stroke-linejoin:miter;stroke-opacity:1" d="M 770.462,684.281 785.131,697.116 z" id="boundary" inkscape:connector-curvature="0" />
	<path style="fill:none;stroke:red;stroke-width:1px;stroke-linecap:butt;stroke-linejoin:miter;stroke-opacity:1" d="M 803.468,702.617 785.131,697.116 z" id="boundary" inkscape:connector-curvature="0" />
	<path style="fill:none;stroke:red;stroke-width:1px;stroke-linecap:butt;stroke-linejoin:miter;stroke-opacity:1" d="M 856.643,706.285 838.307,711.786 z" id="boundary" inkscape:connector-curvature="0" />
	<path style="fill:none;stroke:red;stroke-width:1px;stroke-linecap:butt;stroke-linejoin:miter;stroke-opacity:1" d="M 803.468,702.617 819.97,711.786 z" id="boundary" inkscape:connector-curvature="0" />
	<path style="fill:none;stroke:red;stroke-width:1px;stroke-linecap:butt;stroke-linejoin:miter;stroke-opacity:1" d="M 819.97,711.786 838.307,711.786 z" id="boundary" inkscape:connector-curvature="0" />
	<path style="fill:none;stroke:red;stroke-width:1px;stroke-linecap:butt;stroke-linejoin:miter;stroke-opacity:1" d="M 856.643,706.285 874.98,711.786 z" id="boundary" inkscape:connector-curvature="0" />
	<path style="fill:none;stroke:red;stroke-width:1px;stroke-linecap:butt;stroke-linejoin:miter;stroke-opacity:1" d="M 891.482,702.617 874.98,711.786 z" id="boundary" inkscape:connector-curvature="0" />
	<path style="fill:none;stroke:red;stroke-width:1px;stroke-linecap:butt;stroke-linejoin:miter;stroke-opacity:1" d="M 924.488,709.952 909.819,698.95 z" id="boundary" inkscape:connector-curvature="0" />
	<path style="fill:none;stroke:red;stroke-width:1px;stroke-linecap:butt;stroke-linejoin:miter;stroke-opacity:1" d="M 909.819,698.95 931.823,684.281 z" id="boundary" inkscape:connector-curvature="0" />
	<path style="fill:none;stroke:red;stroke-width:1px;stroke-linecap:butt;stroke-linejoin:miter;stroke-opacity:1" d="M 909.819,698.95 891.482,702.617 z" id="boundary" inkscape:connector-curvature="0" />
	<path style="fill:none;stroke:red;stroke-width:1px;stroke-linecap:butt;stroke-linejoin:miter;stroke-opacity:1" d="M 950.159,684.281 931.823,684.281 z" id="boundary" inkscape:connector-curvature="0" />
	<path style="fill:none;stroke:red;stroke-width:1px;stroke-linecap:butt;stroke-linejoin:miter;stroke-opacity:1" d="M 966.662,675.113 950.159,684.281 z" id="boundary" inkscape:connector-curvature="0" />
	<path style="fill:none;stroke:red;stroke-width:1px;stroke-linecap:butt;stroke-linejoin:miter;stroke-opacity:1" d="M 940.991,700.784 931.823,684.281 z" id="boundary" inkscape:connector-curvature="0" />
	<path style="fill:none;stroke:red;stroke-width:1px;stroke-linecap:butt;stroke-linejoin:miter;stroke-opacity:1" d="M 940.991,700.784 924.488,709.952 z" id="boundary" inkscape:connector-curvature="0" />
	<path style="fill:none;stroke:red;stroke-width:1px;stroke-linecap:butt;stroke-linejoin:miter;stroke-opacity:1" d="M 996,598.1 996,616.436 z" id="boundary" inkscape:connector-curvature="0" />
	<circle cx="4" cy="101.183" r="4" fill="#0" id="circle0"/>
	<circle cx="13.1682" cy="82.8466" r="4" fill="#0" id="circle1"/>
	<circle cx="22.3364" cy="106.684" r="4" fill="#0" id="circle2"/>
	<circle cx="31.5046" cy="73.6784" r="4" fill="#0" id="circle3"/>
	<circle cx="40.6728" cy="106.684" r="4" fill="#0" id="circle4"/>
	<circle cx="46.1738" cy="59.0092" r="4" fill="#0" id="circle5"/>
	<circle cx="57.1756" cy="115.852" r="4" fill="#0" id="circle6"/>
	<circle cx="59.0092" cy="266.211" r="4" fill="#0" id="circle7"/>
	<circle cx="59.0092" cy="284.547" r="4" fill="#0" id="circle8"/>
	<circle cx="59.0092" cy="302.884" r="4" fill="#0" id="circle9"/>
	<circle cx="64.5102" cy="59.0092" r="4" fill="#0" id="circle10"/>
	<circle cx="68.1774" cy="238.706" r="4" fill="#0" id="circle11"/>
	<circle cx="68.1774" cy="319.386" r="4" fill="#0" id="circle12"/>
	<circle cx="73.6784" cy="106.684" r="4" fill="#0" id="circle13"/>
	<circle cx="77.3457" cy="211.201" r="4" fill="#0" id="circle14"/>
	<circle cx="77.3457" cy="335.889" r="4" fill="#0" id="circle15"/>
	<circle cx="77.3457" cy="354.226" r="4" fill="#0" id="circle16"/>
	<circle cx="82.8466" cy="59.0092" r="4" fill="#0" id="circle17"/>
	<circle cx="88.3475" cy="368.895" r="4" fill="#0" id="circle18"/>
	<circle cx="92.0148" cy="106.684" r="4" fill="#0" id="circle19"/>
	<circle cx="92.0148" cy="196.532" r="4" fill="#0" id="circle20"/>
	<circle cx="97.5157" cy="385.397" r="4" fill="#0" id="circle21"/>
	<circle cx="101.183" cy="59.0092" r="4" fill="#0" id="circle22"/>
	<circle cx="101.183" cy="178.196" r="4" fill="#0" id="circle23"/>
	<circle cx="104.85" cy="156.192" r="4" fill="#0" id="circle24"/>
	<circle cx="110.351" cy="114.018" r="4" fill="#0" id="circle25"/>
	<circle cx="114.018" cy="132.355" r="4" fill="#0" id="circle26"/>
	<circle cx="114.018" cy="394.566" r="4" fill="#0" id="circle27"/>
	<circle cx="119.519" cy="49.841" r="4" fill="#0" id="circle28"/>
	<circle cx="125.02" cy="409.235" r="4" fill="#0" id="circle29"/>
	<circle cx="136.022" cy="423.904" r="4" fill="#0" id="circle30"/>
	<circle cx="137.856" cy="40.6728" r="4" fill="#0" id="circle31"/>
	<circle cx="150.691" cy="434.906" r="4" fill="#0" id="circle32"/>
	<circle cx="152.525" cy="26.0037" r="4" fill="#0" id="circle33"/>
	<circle cx="165.36" cy="445.908" r="4" fill="#0" id="circle34"/>
	<circle cx="167.194" cy="13.1682" r="4" fill="#0" id="circle35"/>
	<circle cx="180.03" cy="458.743" r="4" fill="#0" id="circle36"/>
	<circle cx="185.53" cy="13.1682" r="4" fill="#0" id="circle37"/>
	<circle cx="192.865" cy="473.412" r="4" fill="#0" id="circle38"/>
	<circle cx="202.033" cy="4" r="4" fill="#0" id="circle39"/>
	<circle cx="207.534" cy="486.248" r="4" fill="#0" id="circle40"/>
	<circle cx="220.37" cy="4" r="4" fill="#0" id="circle41"/>
	<circle cx="224.037" cy="495.416" r="4" fill="#0" id="circle42"/>
	<circle cx="233.205" cy="715.453" r="4" fill="#0" id="circle43"/>
	<circle cx="236.872" cy="13.1682" r="4" fill="#0" id="circle44"/>
	<circle cx="238.706" cy="508.251" r="4" fill="#0" id="circle45"/>
	<circle cx="251.542" cy="706.285" r="4" fill="#0" id="circle46"/>
	<circle cx="253.375" cy="22.3364" r="4" fill="#0" id="circle47"/>
	<circle cx="255.209" cy="517.42" r="4" fill="#0" id="circle48"/>
	<circle cx="260.71" cy="722.787" r="4" fill="#0" id="circle49"/>
	<circle cx="268.044" cy="33.3383" r="4" fill="#0" id="circle50"/>
	<circle cx="269.878" cy="528.421" r="4" fill="#0" id="circle51"/>
	<circle cx="269.878" cy="761.294" r="4" fill="#0" id="circle52"/>
	<circle cx="273.545" cy="737.457" r="4" fill="#0" id="circle53"/>
	<circle cx="275.379" cy="709.952" r="4" fill="#0" id="circle54"/>
	<circle cx="280.88" cy="48.0074" r="4" fill="#0" id="circle55"/>
	<circle cx="286.381" cy="537.59" r="4" fill="#0" id="circle56"/>
	<circle cx="288.214" cy="766.795" r="4" fill="#0" id="circle57"/>
	<circle cx="290.048" cy="161.693" r="4" fill="#0" id="circle58"/>
	<circle cx="293.715" cy="180.03" r="4" fill="#0" id="circle59"/>
	<circle cx="293.715" cy="709.952" r="4" fill="#0" id="circle60"/>
	<circle cx="295.549" cy="60.8429" r="4" fill="#0" id="circle61"/>
	<circle cx="299.216" cy="79.1793" r="4" fill="#0" id="circle62"/>
	<circle cx="302.884" cy="196.532" r="4" fill="#0" id="circle63"/>
	<circle cx="302.884" cy="546.758" r="4" fill="#0" id="circle64"/>
	<circle cx="304.717" cy="148.858" r="4" fill="#0" id="circle65"/>
	<circle cx="306.551" cy="770.462" r="4" fill="#0" id="circle66"/>
	<circle cx="308.384" cy="95.6821" r="4" fill="#0" id="circle67"/>
	<circle cx="308.384" cy="115.852" r="4" fill="#0" id="circle68"/>
	<circle cx="310.218" cy="700.784" r="4" fill="#0" id="circle69"/>
	<circle cx="319.386" cy="205.701" r="4" fill="#0" id="circle70"/>
	<circle cx="319.386" cy="684.281" r="4" fill="#0" id="circle71"/>
	<circle cx="321.22" cy="554.092" r="4" fill="#0" id="circle72"/>
	<circle cx="324.887" cy="770.462" r="4" fill="#0" id="circle73"/>
	<circle cx="335.889" cy="214.869" r="4" fill="#0" id="circle74"/>
	<circle cx="337.723" cy="563.261" r="4" fill="#0" id="circle75"/>
	<circle cx="337.723" cy="691.616" r="4" fill="#0" id="circle76"/>
	<circle cx="343.224" cy="766.795" r="4" fill="#0" id="circle77"/>
	<circle cx="352.392" cy="224.037" r="4" fill="#0" id="circle78"/>
	<circle cx="354.226" cy="700.784" r="4" fill="#0" id="circle79"/>
	<circle cx="356.059" cy="570.595" r="4" fill="#0" id="circle80"/>
	<circle cx="361.56" cy="614.603" r="4" fill="#0" id="circle81"/>
	<circle cx="361.56" cy="766.795" r="4" fill="#0" id="circle82"/>
	<circle cx="363.394" cy="238.706" r="4" fill="#0" id="circle83"/>
	<circle cx="363.394" cy="588.932" r="4" fill="#0" id="circle84"/>
	<circle cx="370.728" cy="631.105" r="4" fill="#0" id="circle85"/>
	<circle cx="372.562" cy="700.784" r="4" fill="#0" id="circle86"/>
	<circle cx="378.063" cy="757.627" r="4" fill="#0" id="circle87"/>
	<circle cx="379.896" cy="247.874" r="4" fill="#0" id="circle88"/>
	<circle cx="379.896" cy="647.608" r="4" fill="#0" id="circle89"/>
	<circle cx="379.896" cy="665.945" r="4" fill="#0" id="circle90"/>
	<circle cx="396.399" cy="753.959" r="4" fill="#0" id="circle91"/>
	<circle cx="398.233" cy="255.209" r="4" fill="#0" id="circle92"/>
	<circle cx="409.235" cy="739.29" r="4" fill="#0" id="circle93"/>
	<circle cx="414.736" cy="264.377" r="4" fill="#0" id="circle94"/>
	<circle cx="418.403" cy="583.431" r="4" fill="#0" id="circle95"/>
	<circle cx="418.403" cy="601.767" r="4" fill="#0" id="circle96"/>
	<circle cx="418.403" cy="620.104" r="4" fill="#0" id="circle97"/>
	<circle cx="418.403" cy="638.44" r="4" fill="#0" id="circle98"/>
	<circle cx="418.403" cy="656.776" r="4" fill="#0" id="circle99"/>
	<circle cx="422.07" cy="675.113" r="4" fill="#0" id="circle100"/>
	<circle cx="427.571" cy="693.449" r="4" fill="#0" id="circle101"/>
	<circle cx="427.571" cy="730.122" r="4" fill="#0" id="circle102"/>
	<circle cx="433.072" cy="271.712" r="4" fill="#0" id="circle103"/>
	<circle cx="434.906" cy="574.262" r="4" fill="#0" id="circle104"/>
	<circle cx="436.739" cy="709.952" r="4" fill="#0" id="circle105"/>
	<circle cx="445.908" cy="286.381" r="4" fill="#0" id="circle106"/>
	<circle cx="445.908" cy="730.122" r="4" fill="#0" id="circle107"/>
	<circle cx="453.242" cy="574.262" r="4" fill="#0" id="circle108"/>
	<circle cx="464.244" cy="293.715" r="4" fill="#0" id="circle109"/>
	<circle cx="464.244" cy="724.621" r="4" fill="#0" id="circle110"/>
	<circle cx="471.579" cy="574.262" r="4" fill="#0" id="circle111"/>
	<circle cx="480.747" cy="302.884" r="4" fill="#0" id="circle112"/>
	<circle cx="488.081" cy="583.431" r="4" fill="#0" id="circle113"/>
	<circle cx="499.083" cy="310.218" r="4" fill="#0" id="circle114"/>
	<circle cx="506.418" cy="583.431" r="4" fill="#0" id="circle115"/>
	<circle cx="510.085" cy="324.887" r="4" fill="#0" id="circle116"/>
	<circle cx="524.754" cy="583.431" r="4" fill="#0" id="circle117"/>
	<circle cx="526.588" cy="334.055" r="4" fill="#0" id="circle118"/>
	<circle cx="541.257" cy="592.599" r="4" fill="#0" id="circle119"/>
	<circle cx="543.091" cy="343.224" r="4" fill="#0" id="circle120"/>
	<circle cx="559.593" cy="352.392" r="4" fill="#0" id="circle121"/>
	<circle cx="559.593" cy="592.599" r="4" fill="#0" id="circle122"/>
	<circle cx="572.429" cy="367.061" r="4" fill="#0" id="circle123"/>
	<circle cx="577.93" cy="592.599" r="4" fill="#0" id="circle124"/>
	<circle cx="590.765" cy="374.396" r="4" fill="#0" id="circle125"/>
	<circle cx="594.433" cy="601.767" r="4" fill="#0" id="circle126"/>
	<circle cx="607.268" cy="383.564" r="4" fill="#0" id="circle127"/>
	<circle cx="612.769" cy="601.767" r="4" fill="#0" id="circle128"/>
	<circle cx="620.104" cy="398.233" r="4" fill="#0" id="circle129"/>
	<circle cx="631.105" cy="607.268" r="4" fill="#0" id="circle130"/>
	<circle cx="638.44" cy="403.734" r="4" fill="#0" id="circle131"/>
	<circle cx="649.442" cy="607.268" r="4" fill="#0" id="circle132"/>
	<circle cx="653.109" cy="416.569" r="4" fill="#0" id="circle133"/>
	<circle cx="664.111" cy="618.27" r="4" fill="#0" id="circle134"/>
	<circle cx="669.612" cy="425.738" r="4" fill="#0" id="circle135"/>
	<circle cx="678.78" cy="629.272" r="4" fill="#0" id="circle136"/>
	<circle cx="686.115" cy="434.906" r="4" fill="#0" id="circle137"/>
	<circle cx="693.449" cy="642.107" r="4" fill="#0" id="circle138"/>
	<circle cx="700.784" cy="447.741" r="4" fill="#0" id="circle139"/>
	<circle cx="709.952" cy="651.275" r="4" fill="#0" id="circle140"/>
	<circle cx="717.287" cy="456.909" r="4" fill="#0" id="circle141"/>
	<circle cx="728.288" cy="656.776" r="4" fill="#0" id="circle142"/>
	<circle cx="735.623" cy="464.244" r="4" fill="#0" id="circle143"/>
	<circle cx="744.791" cy="665.945" r="4" fill="#0" id="circle144"/>
	<circle cx="752.126" cy="473.412" r="4" fill="#0" id="circle145"/>
	<circle cx="752.126" cy="684.281" r="4" fill="#0" id="circle146"/>
	<circle cx="766.795" cy="486.248" r="4" fill="#0" id="circle147"/>
	<circle cx="770.462" cy="684.281" r="4" fill="#0" id="circle148"/>
	<circle cx="783.298" cy="495.416" r="4" fill="#0" id="circle149"/>
	<circle cx="785.131" cy="697.116" r="4" fill="#0" id="circle150"/>
	<circle cx="797.967" cy="508.251" r="4" fill="#0" id="circle151"/>
	<circle cx="803.468" cy="702.617" r="4" fill="#0" id="circle152"/>
	<circle cx="816.303" cy="508.251" r="4" fill="#0" id="circle153"/>
	<circle cx="819.97" cy="711.786" r="4" fill="#0" id="circle154"/>
	<circle cx="832.806" cy="517.42" r="4" fill="#0" id="circle155"/>
	<circle cx="838.307" cy="711.786" r="4" fill="#0" id="circle156"/>
	<circle cx="849.309" cy="526.588" r="4" fill="#0" id="circle157"/>
	<circle cx="856.643" cy="706.285" r="4" fill="#0" id="circle158"/>
	<circle cx="867.645" cy="532.089" r="4" fill="#0" id="circle159"/>
	<circle cx="874.98" cy="711.786" r="4" fill="#0" id="circle160"/>
	<circle cx="884.148" cy="541.257" r="4" fill="#0" id="circle161"/>
	<circle cx="891.482" cy="702.617" r="4" fill="#0" id="circle162"/>
	<circle cx="902.484" cy="548.591" r="4" fill="#0" id="circle163"/>
	<circle cx="909.819" cy="698.95" r="4" fill="#0" id="circle164"/>
	<circle cx="913.486" cy="563.261" r="4" fill="#0" id="circle165"/>
	<circle cx="924.488" cy="709.952" r="4" fill="#0" id="circle166"/>
	<circle cx="931.823" cy="563.261" r="4" fill="#0" id="circle167"/>
	<circle cx="931.823" cy="684.281" r="4" fill="#0" id="circle168"/>
	<circle cx="940.991" cy="700.784" r="4" fill="#0" id="circle169"/>
	<circle cx="948.325" cy="572.429" r="4" fill="#0" id="circle170"/>
	<circle cx="950.159" cy="684.281" r="4" fill="#0" id="circle171"/>
	<circle cx="964.828" cy="581.597" r="4" fill="#0" id="circle172"/>
	<circle cx="966.662" cy="675.113" r="4" fill="#0" id="circle173"/>
	<circle cx="981.331" cy="664.111" r="4" fill="#0" id="circle174"/>
	<circle cx="983.165" cy="583.431" r="4" fill="#0" id="circle175"/>
	<circle cx="996" cy="598.1" r="4" fill="#0" id="circle176"/>
	<circle cx="996" cy="616.436" r="4" fill="#0" id="circle177"/>
	<circle cx="996" cy="634.773" r="4" fill="#0" id="circle178"/>
	</g>
</svg>