<?xml version="1.0" encoding="UTF-8" standalone="no"?>
<!-- Created with CurveBenchmark -->
<svg
	xmlns:dc="http://purl.org/dc/elements/1.1/"
	xmlns:cc="http://creativecommons.org/ns#"
	xmlns:rdf="http://www.w3.org/1999/02/22-rdf-syntax-ns#"
	xmlns:svg="http://www.w3.org/2000/svg"
	xmlns="http://www.w3.org/2000/svg"
	xmlns:sodipodi="http://sodipodi.sourceforge.net/DTD/sodipodi-0.dtd"
	xmlns:inkscape="http://www.inkscape.org/namespaces/inkscape"
	width="1000"
	height="1000"
	id="svg2"
	version="1.1"
	sodipodi:docname="manifold/nncrust-tool08.png.txt">
<defs
	id="defs4" />
<metadata
	id="metadata7">
	<rdf:RDF>
		<cc:Work
			rdf:about="">
			<dc:format>image/svg+xml</dc:format>
			<dc:type
				rdf:resource="http://purl.org/dc/dcmitype/StillImage" />
			<dc:title></dc:title>
		</cc:Work>
	</rdf:RDF>
</metadata>
<g
	inkscape:label="Layer 1"
	inkscape:groupmode="layer"
	id="layer1">
	<path style="fill:none;stroke:red;stroke-width:1px;stroke-linecap:butt;stroke-linejoin:miter;stroke-opacity:1" d="M 74.6888,110.033 98.2518,110.033 z" id="boundary" inkscape:connector-curvature="0" />
	<path style="fill:none;stroke:red;stroke-width:1px;stroke-linecap:butt;stroke-linejoin:miter;stroke-opacity:1" d="M 121.815,110.033 98.2518,110.033 z" id="boundary" inkscape:connector-curvature="0" />
	<path style="fill:none;stroke:red;stroke-width:1px;stroke-linecap:butt;stroke-linejoin:miter;stroke-opacity:1" d="M 121.815,110.033 117.102,171.297 z" id="boundary" inkscape:connector-curvature="0" />
	<path style="fill:none;stroke:red;stroke-width:1px;stroke-linecap:butt;stroke-linejoin:miter;stroke-opacity:1" d="M 145.378,110.033 168.941,110.033 z" id="boundary" inkscape:connector-curvature="0" />
	<path style="fill:none;stroke:red;stroke-width:1px;stroke-linecap:butt;stroke-linejoin:miter;stroke-opacity:1" d="M 192.504,110.033 168.941,110.033 z" id="boundary" inkscape:connector-curvature="0" />
	<path style="fill:none;stroke:red;stroke-width:1px;stroke-linecap:butt;stroke-linejoin:miter;stroke-opacity:1" d="M 145.378,110.033 121.815,110.033 z" id="boundary" inkscape:connector-curvature="0" />
	<path style="fill:none;stroke:red;stroke-width:1px;stroke-linecap:butt;stroke-linejoin:miter;stroke-opacity:1" d="M 4,128.884 27.5629,121.815 z" id="boundary" inkscape:connector-curvature="0" />
	<path style="fill:none;stroke:red;stroke-width:1px;stroke-linecap:butt;stroke-linejoin:miter;stroke-opacity:1" d="M 4,152.447 4,128.884 z" id="boundary" inkscape:connector-curvature="0" />
	<path style="fill:none;stroke:red;stroke-width:1px;stroke-linecap:butt;stroke-linejoin:miter;stroke-opacity:1" d="M 15.7815,173.653 4,152.447 z" id="boundary" inkscape:connector-curvature="0" />
	<path style="fill:none;stroke:red;stroke-width:1px;stroke-linecap:butt;stroke-linejoin:miter;stroke-opacity:1" d="M 117.102,171.297 93.5392,171.297 z" id="boundary" inkscape:connector-curvature="0" />
	<path style="fill:none;stroke:red;stroke-width:1px;stroke-linecap:butt;stroke-linejoin:miter;stroke-opacity:1" d="M 81.7577,192.504 93.5392,171.297 z" id="boundary" inkscape:connector-curvature="0" />
	<path style="fill:none;stroke:red;stroke-width:1px;stroke-linecap:butt;stroke-linejoin:miter;stroke-opacity:1" d="M 51.1259,117.102 74.6888,110.033 z" id="boundary" inkscape:connector-curvature="0" />
	<path style="fill:none;stroke:red;stroke-width:1px;stroke-linecap:butt;stroke-linejoin:miter;stroke-opacity:1" d="M 192.504,110.033 216.067,110.033 z" id="boundary" inkscape:connector-curvature="0" />
	<path style="fill:none;stroke:red;stroke-width:1px;stroke-linecap:butt;stroke-linejoin:miter;stroke-opacity:1" d="M 27.5629,121.815 51.1259,117.102 z" id="boundary" inkscape:connector-curvature="0" />
	<path style="fill:none;stroke:red;stroke-width:1px;stroke-linecap:butt;stroke-linejoin:miter;stroke-opacity:1" d="M 286.755,121.815 263.192,121.815 z" id="boundary" inkscape:connector-curvature="0" />
	<path style="fill:none;stroke:red;stroke-width:1px;stroke-linecap:butt;stroke-linejoin:miter;stroke-opacity:1" d="M 263.192,121.815 239.629,114.746 z" id="boundary" inkscape:connector-curvature="0" />
	<path style="fill:none;stroke:red;stroke-width:1px;stroke-linecap:butt;stroke-linejoin:miter;stroke-opacity:1" d="M 310.318,121.815 286.755,121.815 z" id="boundary" inkscape:connector-curvature="0" />
	<path style="fill:none;stroke:red;stroke-width:1px;stroke-linecap:butt;stroke-linejoin:miter;stroke-opacity:1" d="M 216.067,110.033 239.629,114.746 z" id="boundary" inkscape:connector-curvature="0" />
	<path style="fill:none;stroke:red;stroke-width:1px;stroke-linecap:butt;stroke-linejoin:miter;stroke-opacity:1" d="M 310.318,121.815 333.881,121.815 z" id="boundary" inkscape:connector-curvature="0" />
	<path style="fill:none;stroke:red;stroke-width:1px;stroke-linecap:butt;stroke-linejoin:miter;stroke-opacity:1" d="M 357.444,126.527 333.881,121.815 z" id="boundary" inkscape:connector-curvature="0" />
	<path style="fill:none;stroke:red;stroke-width:1px;stroke-linecap:butt;stroke-linejoin:miter;stroke-opacity:1" d="M 357.444,126.527 381.007,133.596 z" id="boundary" inkscape:connector-curvature="0" />
	<path style="fill:none;stroke:red;stroke-width:1px;stroke-linecap:butt;stroke-linejoin:miter;stroke-opacity:1" d="M 404.57,133.596 381.007,133.596 z" id="boundary" inkscape:connector-curvature="0" />
	<path style="fill:none;stroke:red;stroke-width:1px;stroke-linecap:butt;stroke-linejoin:miter;stroke-opacity:1" d="M 428.133,133.596 404.57,133.596 z" id="boundary" inkscape:connector-curvature="0" />
	<path style="fill:none;stroke:red;stroke-width:1px;stroke-linecap:butt;stroke-linejoin:miter;stroke-opacity:1" d="M 428.133,133.596 451.696,133.596 z" id="boundary" inkscape:connector-curvature="0" />
	<path style="fill:none;stroke:red;stroke-width:1px;stroke-linecap:butt;stroke-linejoin:miter;stroke-opacity:1" d="M 475.259,133.596 451.696,133.596 z" id="boundary" inkscape:connector-curvature="0" />
	<path style="fill:none;stroke:red;stroke-width:1px;stroke-linecap:butt;stroke-linejoin:miter;stroke-opacity:1" d="M 475.259,133.596 498.822,133.596 z" id="boundary" inkscape:connector-curvature="0" />
	<path style="fill:none;stroke:red;stroke-width:1px;stroke-linecap:butt;stroke-linejoin:miter;stroke-opacity:1" d="M 522.385,133.596 498.822,133.596 z" id="boundary" inkscape:connector-curvature="0" />
	<path style="fill:none;stroke:red;stroke-width:1px;stroke-linecap:butt;stroke-linejoin:miter;stroke-opacity:1" d="M 15.7815,173.653 39.3444,183.078 z" id="boundary" inkscape:connector-curvature="0" />
	<path style="fill:none;stroke:red;stroke-width:1px;stroke-linecap:butt;stroke-linejoin:miter;stroke-opacity:1" d="M 39.3444,183.078 39.3444,211.354 z" id="boundary" inkscape:connector-curvature="0" />
	<path style="fill:none;stroke:red;stroke-width:1px;stroke-linecap:butt;stroke-linejoin:miter;stroke-opacity:1" d="M 39.3444,183.078 62.9074,176.01 z" id="boundary" inkscape:connector-curvature="0" />
	<path style="fill:none;stroke:red;stroke-width:1px;stroke-linecap:butt;stroke-linejoin:miter;stroke-opacity:1" d="M 39.3444,211.354 39.3444,234.917 z" id="boundary" inkscape:connector-curvature="0" />
	<path style="fill:none;stroke:red;stroke-width:1px;stroke-linecap:butt;stroke-linejoin:miter;stroke-opacity:1" d="M 81.7577,192.504 62.9074,176.01 z" id="boundary" inkscape:connector-curvature="0" />
	<path style="fill:none;stroke:red;stroke-width:1px;stroke-linecap:butt;stroke-linejoin:miter;stroke-opacity:1" d="M 197.216,206.641 176.01,218.423 z" id="boundary" inkscape:connector-curvature="0" />
	<path style="fill:none;stroke:red;stroke-width:1px;stroke-linecap:butt;stroke-linejoin:miter;stroke-opacity:1" d="M 39.3444,211.354 81.7577,192.504 z" id="boundary" inkscape:connector-curvature="0" />
	<path style="fill:none;stroke:red;stroke-width:1px;stroke-linecap:butt;stroke-linejoin:miter;stroke-opacity:1" d="M 176.01,218.423 157.159,234.917 z" id="boundary" inkscape:connector-curvature="0" />
	<path style="fill:none;stroke:red;stroke-width:1px;stroke-linecap:butt;stroke-linejoin:miter;stroke-opacity:1" d="M 62.9074,241.986 39.3444,234.917 z" id="boundary" inkscape:connector-curvature="0" />
	<path style="fill:none;stroke:red;stroke-width:1px;stroke-linecap:butt;stroke-linejoin:miter;stroke-opacity:1" d="M 86.4703,241.986 62.9074,241.986 z" id="boundary" inkscape:connector-curvature="0" />
	<path style="fill:none;stroke:red;stroke-width:1px;stroke-linecap:butt;stroke-linejoin:miter;stroke-opacity:1" d="M 133.596,241.986 110.033,241.986 z" id="boundary" inkscape:connector-curvature="0" />
	<path style="fill:none;stroke:red;stroke-width:1px;stroke-linecap:butt;stroke-linejoin:miter;stroke-opacity:1" d="M 133.596,241.986 157.159,234.917 z" id="boundary" inkscape:connector-curvature="0" />
	<path style="fill:none;stroke:red;stroke-width:1px;stroke-linecap:butt;stroke-linejoin:miter;stroke-opacity:1" d="M 110.033,241.986 86.4703,241.986 z" id="boundary" inkscape:connector-curvature="0" />
	<path style="fill:none;stroke:red;stroke-width:1px;stroke-linecap:butt;stroke-linejoin:miter;stroke-opacity:1" d="M 197.216,206.641 220.779,206.641 z" id="boundary" inkscape:connector-curvature="0" />
	<path style="fill:none;stroke:red;stroke-width:1px;stroke-linecap:butt;stroke-linejoin:miter;stroke-opacity:1" d="M 244.342,206.641 220.779,206.641 z" id="boundary" inkscape:connector-curvature="0" />
	<path style="fill:none;stroke:red;stroke-width:1px;stroke-linecap:butt;stroke-linejoin:miter;stroke-opacity:1" d="M 244.342,206.641 267.905,206.641 z" id="boundary" inkscape:connector-curvature="0" />
	<path style="fill:none;stroke:red;stroke-width:1px;stroke-linecap:butt;stroke-linejoin:miter;stroke-opacity:1" d="M 267.905,206.641 289.112,218.423 z" id="boundary" inkscape:connector-curvature="0" />
	<path style="fill:none;stroke:red;stroke-width:1px;stroke-linecap:butt;stroke-linejoin:miter;stroke-opacity:1" d="M 289.112,218.423 312.675,218.423 z" id="boundary" inkscape:connector-curvature="0" />
	<path style="fill:none;stroke:red;stroke-width:1px;stroke-linecap:butt;stroke-linejoin:miter;stroke-opacity:1" d="M 336.238,218.423 359.8,218.423 z" id="boundary" inkscape:connector-curvature="0" />
	<path style="fill:none;stroke:red;stroke-width:1px;stroke-linecap:butt;stroke-linejoin:miter;stroke-opacity:1" d="M 359.8,218.423 383.363,223.135 z" id="boundary" inkscape:connector-curvature="0" />
	<path style="fill:none;stroke:red;stroke-width:1px;stroke-linecap:butt;stroke-linejoin:miter;stroke-opacity:1" d="M 336.238,218.423 312.675,218.423 z" id="boundary" inkscape:connector-curvature="0" />
	<path style="fill:none;stroke:red;stroke-width:1px;stroke-linecap:butt;stroke-linejoin:miter;stroke-opacity:1" d="M 406.926,230.204 383.363,223.135 z" id="boundary" inkscape:connector-curvature="0" />
	<path style="fill:none;stroke:red;stroke-width:1px;stroke-linecap:butt;stroke-linejoin:miter;stroke-opacity:1" d="M 430.489,230.204 406.926,230.204 z" id="boundary" inkscape:connector-curvature="0" />
	<path style="fill:none;stroke:red;stroke-width:1px;stroke-linecap:butt;stroke-linejoin:miter;stroke-opacity:1" d="M 454.052,230.204 477.615,230.204 z" id="boundary" inkscape:connector-curvature="0" />
	<path style="fill:none;stroke:red;stroke-width:1px;stroke-linecap:butt;stroke-linejoin:miter;stroke-opacity:1" d="M 454.052,230.204 430.489,230.204 z" id="boundary" inkscape:connector-curvature="0" />
	<path style="fill:none;stroke:red;stroke-width:1px;stroke-linecap:butt;stroke-linejoin:miter;stroke-opacity:1" d="M 477.615,230.204 501.178,230.204 z" id="boundary" inkscape:connector-curvature="0" />
	<path style="fill:none;stroke:red;stroke-width:1px;stroke-linecap:butt;stroke-linejoin:miter;stroke-opacity:1" d="M 524.741,230.204 501.178,230.204 z" id="boundary" inkscape:connector-curvature="0" />
	<path style="fill:none;stroke:red;stroke-width:1px;stroke-linecap:butt;stroke-linejoin:miter;stroke-opacity:1" d="M 545.948,218.423 524.741,230.204 z" id="boundary" inkscape:connector-curvature="0" />
	<path style="fill:none;stroke:red;stroke-width:1px;stroke-linecap:butt;stroke-linejoin:miter;stroke-opacity:1" d="M 793.359,34.6318 769.796,58.1948 z" id="boundary" inkscape:connector-curvature="0" />
	<path style="fill:none;stroke:red;stroke-width:1px;stroke-linecap:butt;stroke-linejoin:miter;stroke-opacity:1" d="M 769.796,58.1948 750.945,74.6888 z" id="boundary" inkscape:connector-curvature="0" />
	<path style="fill:none;stroke:red;stroke-width:1px;stroke-linecap:butt;stroke-linejoin:miter;stroke-opacity:1" d="M 750.945,74.6888 729.739,86.4703 z" id="boundary" inkscape:connector-curvature="0" />
	<path style="fill:none;stroke:red;stroke-width:1px;stroke-linecap:butt;stroke-linejoin:miter;stroke-opacity:1" d="M 816.922,27.5629 838.128,15.7815 z" id="boundary" inkscape:connector-curvature="0" />
	<path style="fill:none;stroke:red;stroke-width:1px;stroke-linecap:butt;stroke-linejoin:miter;stroke-opacity:1" d="M 816.922,27.5629 793.359,34.6318 z" id="boundary" inkscape:connector-curvature="0" />
	<path style="fill:none;stroke:red;stroke-width:1px;stroke-linecap:butt;stroke-linejoin:miter;stroke-opacity:1" d="M 861.691,15.7815 838.128,15.7815 z" id="boundary" inkscape:connector-curvature="0" />
	<path style="fill:none;stroke:red;stroke-width:1px;stroke-linecap:butt;stroke-linejoin:miter;stroke-opacity:1" d="M 593.074,128.884 616.637,121.815 z" id="boundary" inkscape:connector-curvature="0" />
	<path style="fill:none;stroke:red;stroke-width:1px;stroke-linecap:butt;stroke-linejoin:miter;stroke-opacity:1" d="M 545.948,133.596 522.385,133.596 z" id="boundary" inkscape:connector-curvature="0" />
	<path style="fill:none;stroke:red;stroke-width:1px;stroke-linecap:butt;stroke-linejoin:miter;stroke-opacity:1" d="M 640.2,121.815 616.637,121.815 z" id="boundary" inkscape:connector-curvature="0" />
	<path style="fill:none;stroke:red;stroke-width:1px;stroke-linecap:butt;stroke-linejoin:miter;stroke-opacity:1" d="M 661.406,110.033 640.2,121.815 z" id="boundary" inkscape:connector-curvature="0" />
	<path style="fill:none;stroke:red;stroke-width:1px;stroke-linecap:butt;stroke-linejoin:miter;stroke-opacity:1" d="M 684.969,110.033 706.176,98.2518 z" id="boundary" inkscape:connector-curvature="0" />
	<path style="fill:none;stroke:red;stroke-width:1px;stroke-linecap:butt;stroke-linejoin:miter;stroke-opacity:1" d="M 729.739,86.4703 706.176,98.2518 z" id="boundary" inkscape:connector-curvature="0" />
	<path style="fill:none;stroke:red;stroke-width:1px;stroke-linecap:butt;stroke-linejoin:miter;stroke-opacity:1" d="M 684.969,110.033 661.406,110.033 z" id="boundary" inkscape:connector-curvature="0" />
	<path style="fill:none;stroke:red;stroke-width:1px;stroke-linecap:butt;stroke-linejoin:miter;stroke-opacity:1" d="M 906.461,4 885.254,15.7815 z" id="boundary" inkscape:connector-curvature="0" />
	<path style="fill:none;stroke:red;stroke-width:1px;stroke-linecap:butt;stroke-linejoin:miter;stroke-opacity:1" d="M 885.254,15.7815 861.691,15.7815 z" id="boundary" inkscape:connector-curvature="0" />
	<path style="fill:none;stroke:red;stroke-width:1px;stroke-linecap:butt;stroke-linejoin:miter;stroke-opacity:1" d="M 906.461,4 927.667,15.7815 z" id="boundary" inkscape:connector-curvature="0" />
	<path style="fill:none;stroke:red;stroke-width:1px;stroke-linecap:butt;stroke-linejoin:miter;stroke-opacity:1" d="M 901.748,65.2637 885.254,84.114 z" id="boundary" inkscape:connector-curvature="0" />
	<path style="fill:none;stroke:red;stroke-width:1px;stroke-linecap:butt;stroke-linejoin:miter;stroke-opacity:1" d="M 927.667,15.7815 948.874,27.5629 z" id="boundary" inkscape:connector-curvature="0" />
	<path style="fill:none;stroke:red;stroke-width:1px;stroke-linecap:butt;stroke-linejoin:miter;stroke-opacity:1" d="M 948.874,27.5629 946.518,53.4822 z" id="boundary" inkscape:connector-curvature="0" />
	<path style="fill:none;stroke:red;stroke-width:1px;stroke-linecap:butt;stroke-linejoin:miter;stroke-opacity:1" d="M 925.311,65.2637 946.518,53.4822 z" id="boundary" inkscape:connector-curvature="0" />
	<path style="fill:none;stroke:red;stroke-width:1px;stroke-linecap:butt;stroke-linejoin:miter;stroke-opacity:1" d="M 948.874,114.746 925.311,65.2637 z" id="boundary" inkscape:connector-curvature="0" />
	<path style="fill:none;stroke:red;stroke-width:1px;stroke-linecap:butt;stroke-linejoin:miter;stroke-opacity:1" d="M 925.311,65.2637 901.748,65.2637 z" id="boundary" inkscape:connector-curvature="0" />
	<path style="fill:none;stroke:red;stroke-width:1px;stroke-linecap:butt;stroke-linejoin:miter;stroke-opacity:1" d="M 866.404,100.608 885.254,84.114 z" id="boundary" inkscape:connector-curvature="0" />
	<path style="fill:none;stroke:red;stroke-width:1px;stroke-linecap:butt;stroke-linejoin:miter;stroke-opacity:1" d="M 878.185,121.815 866.404,100.608 z" id="boundary" inkscape:connector-curvature="0" />
	<path style="fill:none;stroke:red;stroke-width:1px;stroke-linecap:butt;stroke-linejoin:miter;stroke-opacity:1" d="M 901.748,121.815 878.185,121.815 z" id="boundary" inkscape:connector-curvature="0" />
	<path style="fill:none;stroke:red;stroke-width:1px;stroke-linecap:butt;stroke-linejoin:miter;stroke-opacity:1" d="M 925.311,121.815 901.748,121.815 z" id="boundary" inkscape:connector-curvature="0" />
	<path style="fill:none;stroke:red;stroke-width:1px;stroke-linecap:butt;stroke-linejoin:miter;stroke-opacity:1" d="M 948.874,114.746 948.874,138.309 z" id="boundary" inkscape:connector-curvature="0" />
	<path style="fill:none;stroke:red;stroke-width:1px;stroke-linecap:butt;stroke-linejoin:miter;stroke-opacity:1" d="M 925.311,121.815 948.874,114.746 z" id="boundary" inkscape:connector-curvature="0" />
	<path style="fill:none;stroke:red;stroke-width:1px;stroke-linecap:butt;stroke-linejoin:miter;stroke-opacity:1" d="M 970.081,126.527 948.874,114.746 z" id="boundary" inkscape:connector-curvature="0" />
	<path style="fill:none;stroke:red;stroke-width:1px;stroke-linecap:butt;stroke-linejoin:miter;stroke-opacity:1" d="M 986.575,147.734 970.081,126.527 z" id="boundary" inkscape:connector-curvature="0" />
	<path style="fill:none;stroke:red;stroke-width:1px;stroke-linecap:butt;stroke-linejoin:miter;stroke-opacity:1" d="M 545.948,133.596 569.511,133.596 z" id="boundary" inkscape:connector-curvature="0" />
	<path style="fill:none;stroke:red;stroke-width:1px;stroke-linecap:butt;stroke-linejoin:miter;stroke-opacity:1" d="M 593.074,128.884 569.511,133.596 z" id="boundary" inkscape:connector-curvature="0" />
	<path style="fill:none;stroke:red;stroke-width:1px;stroke-linecap:butt;stroke-linejoin:miter;stroke-opacity:1" d="M 708.532,194.86 684.969,201.929 z" id="boundary" inkscape:connector-curvature="0" />
	<path style="fill:none;stroke:red;stroke-width:1px;stroke-linecap:butt;stroke-linejoin:miter;stroke-opacity:1" d="M 684.969,201.929 661.406,206.641 z" id="boundary" inkscape:connector-curvature="0" />
	<path style="fill:none;stroke:red;stroke-width:1px;stroke-linecap:butt;stroke-linejoin:miter;stroke-opacity:1" d="M 732.095,194.86 708.532,194.86 z" id="boundary" inkscape:connector-curvature="0" />
	<path style="fill:none;stroke:red;stroke-width:1px;stroke-linecap:butt;stroke-linejoin:miter;stroke-opacity:1" d="M 779.221,194.86 755.658,194.86 z" id="boundary" inkscape:connector-curvature="0" />
	<path style="fill:none;stroke:red;stroke-width:1px;stroke-linecap:butt;stroke-linejoin:miter;stroke-opacity:1" d="M 732.095,194.86 755.658,194.86 z" id="boundary" inkscape:connector-curvature="0" />
	<path style="fill:none;stroke:red;stroke-width:1px;stroke-linecap:butt;stroke-linejoin:miter;stroke-opacity:1" d="M 569.511,218.423 593.074,218.423 z" id="boundary" inkscape:connector-curvature="0" />
	<path style="fill:none;stroke:red;stroke-width:1px;stroke-linecap:butt;stroke-linejoin:miter;stroke-opacity:1" d="M 569.511,218.423 545.948,218.423 z" id="boundary" inkscape:connector-curvature="0" />
	<path style="fill:none;stroke:red;stroke-width:1px;stroke-linecap:butt;stroke-linejoin:miter;stroke-opacity:1" d="M 593.074,218.423 616.637,218.423 z" id="boundary" inkscape:connector-curvature="0" />
	<path style="fill:none;stroke:red;stroke-width:1px;stroke-linecap:butt;stroke-linejoin:miter;stroke-opacity:1" d="M 637.843,206.641 616.637,218.423 z" id="boundary" inkscape:connector-curvature="0" />
	<path style="fill:none;stroke:red;stroke-width:1px;stroke-linecap:butt;stroke-linejoin:miter;stroke-opacity:1" d="M 661.406,206.641 637.843,206.641 z" id="boundary" inkscape:connector-curvature="0" />
	<path style="fill:none;stroke:red;stroke-width:1px;stroke-linecap:butt;stroke-linejoin:miter;stroke-opacity:1" d="M 779.221,194.86 795.715,213.71 z" id="boundary" inkscape:connector-curvature="0" />
	<path style="fill:none;stroke:red;stroke-width:1px;stroke-linecap:butt;stroke-linejoin:miter;stroke-opacity:1" d="M 963.012,157.159 948.874,138.309 z" id="boundary" inkscape:connector-curvature="0" />
	<path style="fill:none;stroke:red;stroke-width:1px;stroke-linecap:butt;stroke-linejoin:miter;stroke-opacity:1" d="M 996,171.297 984.219,194.86 z" id="boundary" inkscape:connector-curvature="0" />
	<path style="fill:none;stroke:red;stroke-width:1px;stroke-linecap:butt;stroke-linejoin:miter;stroke-opacity:1" d="M 996,171.297 986.575,147.734 z" id="boundary" inkscape:connector-curvature="0" />
	<path style="fill:none;stroke:red;stroke-width:1px;stroke-linecap:butt;stroke-linejoin:miter;stroke-opacity:1" d="M 984.219,194.86 972.437,218.423 z" id="boundary" inkscape:connector-curvature="0" />
	<path style="fill:none;stroke:red;stroke-width:1px;stroke-linecap:butt;stroke-linejoin:miter;stroke-opacity:1" d="M 963.012,157.159 986.575,147.734 z" id="boundary" inkscape:connector-curvature="0" />
	<path style="fill:none;stroke:red;stroke-width:1px;stroke-linecap:butt;stroke-linejoin:miter;stroke-opacity:1" d="M 972.437,218.423 951.23,230.204 z" id="boundary" inkscape:connector-curvature="0" />
	<path style="fill:none;stroke:red;stroke-width:1px;stroke-linecap:butt;stroke-linejoin:miter;stroke-opacity:1" d="M 859.335,241.986 835.772,241.986 z" id="boundary" inkscape:connector-curvature="0" />
	<path style="fill:none;stroke:red;stroke-width:1px;stroke-linecap:butt;stroke-linejoin:miter;stroke-opacity:1" d="M 835.772,241.986 814.565,230.204 z" id="boundary" inkscape:connector-curvature="0" />
	<path style="fill:none;stroke:red;stroke-width:1px;stroke-linecap:butt;stroke-linejoin:miter;stroke-opacity:1" d="M 814.565,230.204 795.715,213.71 z" id="boundary" inkscape:connector-curvature="0" />
	<path style="fill:none;stroke:red;stroke-width:1px;stroke-linecap:butt;stroke-linejoin:miter;stroke-opacity:1" d="M 906.461,241.986 882.898,241.986 z" id="boundary" inkscape:connector-curvature="0" />
	<path style="fill:none;stroke:red;stroke-width:1px;stroke-linecap:butt;stroke-linejoin:miter;stroke-opacity:1" d="M 882.898,241.986 859.335,241.986 z" id="boundary" inkscape:connector-curvature="0" />
	<path style="fill:none;stroke:red;stroke-width:1px;stroke-linecap:butt;stroke-linejoin:miter;stroke-opacity:1" d="M 930.024,241.986 906.461,241.986 z" id="boundary" inkscape:connector-curvature="0" />
	<path style="fill:none;stroke:red;stroke-width:1px;stroke-linecap:butt;stroke-linejoin:miter;stroke-opacity:1" d="M 951.23,230.204 930.024,241.986 z" id="boundary" inkscape:connector-curvature="0" />
	<circle cx="4" cy="128.884" r="4" fill="#0" id="circle0"/>
	<circle cx="4" cy="152.447" r="4" fill="#0" id="circle1"/>
	<circle cx="15.7815" cy="173.653" r="4" fill="#0" id="circle2"/>
	<circle cx="27.5629" cy="121.815" r="4" fill="#0" id="circle3"/>
	<circle cx="39.3444" cy="183.078" r="4" fill="#0" id="circle4"/>
	<circle cx="39.3444" cy="211.354" r="4" fill="#0" id="circle5"/>
	<circle cx="39.3444" cy="234.917" r="4" fill="#0" id="circle6"/>
	<circle cx="51.1259" cy="117.102" r="4" fill="#0" id="circle7"/>
	<circle cx="62.9074" cy="176.01" r="4" fill="#0" id="circle8"/>
	<circle cx="62.9074" cy="241.986" r="4" fill="#0" id="circle9"/>
	<circle cx="74.6888" cy="110.033" r="4" fill="#0" id="circle10"/>
	<circle cx="81.7577" cy="192.504" r="4" fill="#0" id="circle11"/>
	<circle cx="86.4703" cy="241.986" r="4" fill="#0" id="circle12"/>
	<circle cx="93.5392" cy="171.297" r="4" fill="#0" id="circle13"/>
	<circle cx="98.2518" cy="110.033" r="4" fill="#0" id="circle14"/>
	<circle cx="110.033" cy="241.986" r="4" fill="#0" id="circle15"/>
	<circle cx="117.102" cy="171.297" r="4" fill="#0" id="circle16"/>
	<circle cx="121.815" cy="110.033" r="4" fill="#0" id="circle17"/>
	<circle cx="133.596" cy="241.986" r="4" fill="#0" id="circle18"/>
	<circle cx="145.378" cy="110.033" r="4" fill="#0" id="circle19"/>
	<circle cx="157.159" cy="234.917" r="4" fill="#0" id="circle20"/>
	<circle cx="168.941" cy="110.033" r="4" fill="#0" id="circle21"/>
	<circle cx="176.01" cy="218.423" r="4" fill="#0" id="circle22"/>
	<circle cx="192.504" cy="110.033" r="4" fill="#0" id="circle23"/>
	<circle cx="197.216" cy="206.641" r="4" fill="#0" id="circle24"/>
	<circle cx="216.067" cy="110.033" r="4" fill="#0" id="circle25"/>
	<circle cx="220.779" cy="206.641" r="4" fill="#0" id="circle26"/>
	<circle cx="239.629" cy="114.746" r="4" fill="#0" id="circle27"/>
	<circle cx="244.342" cy="206.641" r="4" fill="#0" id="circle28"/>
	<circle cx="263.192" cy="121.815" r="4" fill="#0" id="circle29"/>
	<circle cx="267.905" cy="206.641" r="4" fill="#0" id="circle30"/>
	<circle cx="286.755" cy="121.815" r="4" fill="#0" id="circle31"/>
	<circle cx="289.112" cy="218.423" r="4" fill="#0" id="circle32"/>
	<circle cx="310.318" cy="121.815" r="4" fill="#0" id="circle33"/>
	<circle cx="312.675" cy="218.423" r="4" fill="#0" id="circle34"/>
	<circle cx="333.881" cy="121.815" r="4" fill="#0" id="circle35"/>
	<circle cx="336.238" cy="218.423" r="4" fill="#0" id="circle36"/>
	<circle cx="357.444" cy="126.527" r="4" fill="#0" id="circle37"/>
	<circle cx="359.8" cy="218.423" r="4" fill="#0" id="circle38"/>
	<circle cx="381.007" cy="133.596" r="4" fill="#0" id="circle39"/>
	<circle cx="383.363" cy="223.135" r="4" fill="#0" id="circle40"/>
	<circle cx="404.57" cy="133.596" r="4" fill="#0" id="circle41"/>
	<circle cx="406.926" cy="230.204" r="4" fill="#0" id="circle42"/>
	<circle cx="428.133" cy="133.596" r="4" fill="#0" id="circle43"/>
	<circle cx="430.489" cy="230.204" r="4" fill="#0" id="circle44"/>
	<circle cx="451.696" cy="133.596" r="4" fill="#0" id="circle45"/>
	<circle cx="454.052" cy="230.204" r="4" fill="#0" id="circle46"/>
	<circle cx="475.259" cy="133.596" r="4" fill="#0" id="circle47"/>
	<circle cx="477.615" cy="230.204" r="4" fill="#0" id="circle48"/>
	<circle cx="498.822" cy="133.596" r="4" fill="#0" id="circle49"/>
	<circle cx="501.178" cy="230.204" r="4" fill="#0" id="circle50"/>
	<circle cx="522.385" cy="133.596" r="4" fill="#0" id="circle51"/>
	<circle cx="524.741" cy="230.204" r="4" fill="#0" id="circle52"/>
	<circle cx="545.948" cy="133.596" r="4" fill="#0" id="circle53"/>
	<circle cx="545.948" cy="218.423" r="4" fill="#0" id="circle54"/>
	<circle cx="569.511" cy="133.596" r="4" fill="#0" id="circle55"/>
	<circle cx="569.511" cy="218.423" r="4" fill="#0" id="circle56"/>
	<circle cx="593.074" cy="128.884" r="4" fill="#0" id="circle57"/>
	<circle cx="593.074" cy="218.423" r="4" fill="#0" id="circle58"/>
	<circle cx="616.637" cy="121.815" r="4" fill="#0" id="circle59"/>
	<circle cx="616.637" cy="218.423" r="4" fill="#0" id="circle60"/>
	<circle cx="637.843" cy="206.641" r="4" fill="#0" id="circle61"/>
	<circle cx="640.2" cy="121.815" r="4" fill="#0" id="circle62"/>
	<circle cx="661.406" cy="110.033" r="4" fill="#0" id="circle63"/>
	<circle cx="661.406" cy="206.641" r="4" fill="#0" id="circle64"/>
	<circle cx="684.969" cy="110.033" r="4" fill="#0" id="circle65"/>
	<circle cx="684.969" cy="201.929" r="4" fill="#0" id="circle66"/>
	<circle cx="706.176" cy="98.2518" r="4" fill="#0" id="circle67"/>
	<circle cx="708.532" cy="194.86" r="4" fill="#0" id="circle68"/>
	<circle cx="729.739" cy="86.4703" r="4" fill="#0" id="circle69"/>
	<circle cx="732.095" cy="194.86" r="4" fill="#0" id="circle70"/>
	<circle cx="750.945" cy="74.6888" r="4" fill="#0" id="circle71"/>
	<circle cx="755.658" cy="194.86" r="4" fill="#0" id="circle72"/>
	<circle cx="769.796" cy="58.1948" r="4" fill="#0" id="circle73"/>
	<circle cx="779.221" cy="194.86" r="4" fill="#0" id="circle74"/>
	<circle cx="793.359" cy="34.6318" r="4" fill="#0" id="circle75"/>
	<circle cx="795.715" cy="213.71" r="4" fill="#0" id="circle76"/>
	<circle cx="814.565" cy="230.204" r="4" fill="#0" id="circle77"/>
	<circle cx="816.922" cy="27.5629" r="4" fill="#0" id="circle78"/>
	<circle cx="835.772" cy="241.986" r="4" fill="#0" id="circle79"/>
	<circle cx="838.128" cy="15.7815" r="4" fill="#0" id="circle80"/>
	<circle cx="859.335" cy="241.986" r="4" fill="#0" id="circle81"/>
	<circle cx="861.691" cy="15.7815" r="4" fill="#0" id="circle82"/>
	<circle cx="866.404" cy="100.608" r="4" fill="#0" id="circle83"/>
	<circle cx="878.185" cy="121.815" r="4" fill="#0" id="circle84"/>
	<circle cx="882.898" cy="241.986" r="4" fill="#0" id="circle85"/>
	<circle cx="885.254" cy="15.7815" r="4" fill="#0" id="circle86"/>
	<circle cx="885.254" cy="84.114" r="4" fill="#0" id="circle87"/>
	<circle cx="901.748" cy="65.2637" r="4" fill="#0" id="circle88"/>
	<circle cx="901.748" cy="121.815" r="4" fill="#0" id="circle89"/>
	<circle cx="906.461" cy="4" r="4" fill="#0" id="circle90"/>
	<circle cx="906.461" cy="241.986" r="4" fill="#0" id="circle91"/>
	<circle cx="925.311" cy="65.2637" r="4" fill="#0" id="circle92"/>
	<circle cx="925.311" cy="121.815" r="4" fill="#0" id="circle93"/>
	<circle cx="927.667" cy="15.7815" r="4" fill="#0" id="circle94"/>
	<circle cx="930.024" cy="241.986" r="4" fill="#0" id="circle95"/>
	<circle cx="946.518" cy="53.4822" r="4" fill="#0" id="circle96"/>
	<circle cx="948.874" cy="27.5629" r="4" fill="#0" id="circle97"/>
	<circle cx="948.874" cy="114.746" r="4" fill="#0" id="circle98"/>
	<circle cx="948.874" cy="138.309" r="4" fill="#0" id="circle99"/>
	<circle cx="951.23" cy="230.204" r="4" fill="#0" id="circle100"/>
	<circle cx="963.012" cy="157.159" r="4" fill="#0" id="circle101"/>
	<circle cx="970.081" cy="126.527" r="4" fill="#0" id="circle102"/>
	<circle cx="972.437" cy="218.423" r="4" fill="#0" id="circle103"/>
	<circle cx="984.219" cy="194.86" r="4" fill="#0" id="circle104"/>
	<circle cx="986.575" cy="147.734" r="4" fill="#0" id="circle105"/>
	<circle cx="996" cy="171.297" r="4" fill="#0" id="circle106"/>
	</g>
</svg>