<?xml version="1.0" encoding="UTF-8" standalone="no"?>
<!-- Created with CurveBenchmark -->
<svg
	xmlns:dc="http://purl.org/dc/elements/1.1/"
	xmlns:cc="http://creativecommons.org/ns#"
	xmlns:rdf="http://www.w3.org/1999/02/22-rdf-syntax-ns#"
	xmlns:svg="http://www.w3.org/2000/svg"
	xmlns="http://www.w3.org/2000/svg"
	xmlns:sodipodi="http://sodipodi.sourceforge.net/DTD/sodipodi-0.dtd"
	xmlns:inkscape="http://www.inkscape.org/namespaces/inkscape"
	width="1000"
	height="1000"
	id="svg2"
	version="1.1"
	sodipodi:docname="manifold/nncrust-textbox50.png.txt">
<defs
	id="defs4" />
<metadata
	id="metadata7">
	<rdf:RDF>
		<cc:Work
			rdf:about="">
			<dc:format>image/svg+xml</dc:format>
			<dc:type
				rdf:resource="http://purl.org/dc/dcmitype/StillImage" />
			<dc:title></dc:title>
		</cc:Work>
	</rdf:RDF>
</metadata>
<g
	inkscape:label="Layer 1"
	inkscape:groupmode="layer"
	id="layer1">
	<path style="fill:none;stroke:red;stroke-width:1px;stroke-linecap:butt;stroke-linejoin:miter;stroke-opacity:1" d="M 56.8061,305.749 47.3764,324.608 z" id="boundary" inkscape:connector-curvature="0" />
	<path style="fill:none;stroke:red;stroke-width:1px;stroke-linecap:butt;stroke-linejoin:miter;stroke-opacity:1" d="M 47.3764,324.608 32.289,339.696 z" id="boundary" inkscape:connector-curvature="0" />
	<path style="fill:none;stroke:red;stroke-width:1px;stroke-linecap:butt;stroke-linejoin:miter;stroke-opacity:1" d="M 32.289,339.696 32.289,358.555 z" id="boundary" inkscape:connector-curvature="0" />
	<path style="fill:none;stroke:red;stroke-width:1px;stroke-linecap:butt;stroke-linejoin:miter;stroke-opacity:1" d="M 32.289,358.555 13.4297,367.985 z" id="boundary" inkscape:connector-curvature="0" />
	<path style="fill:none;stroke:red;stroke-width:1px;stroke-linecap:butt;stroke-linejoin:miter;stroke-opacity:1" d="M 4,396.274 13.4297,367.985 z" id="boundary" inkscape:connector-curvature="0" />
	<path style="fill:none;stroke:red;stroke-width:1px;stroke-linecap:butt;stroke-linejoin:miter;stroke-opacity:1" d="M 56.8061,305.749 75.6654,305.749 z" id="boundary" inkscape:connector-curvature="0" />
	<path style="fill:none;stroke:red;stroke-width:1px;stroke-linecap:butt;stroke-linejoin:miter;stroke-opacity:1" d="M 98.2966,207.681 98.2966,226.54 z" id="boundary" inkscape:connector-curvature="0" />
	<path style="fill:none;stroke:red;stroke-width:1px;stroke-linecap:butt;stroke-linejoin:miter;stroke-opacity:1" d="M 98.2966,207.681 117.156,198.251 z" id="boundary" inkscape:connector-curvature="0" />
	<path style="fill:none;stroke:red;stroke-width:1px;stroke-linecap:butt;stroke-linejoin:miter;stroke-opacity:1" d="M 98.2966,245.399 98.2966,226.54 z" id="boundary" inkscape:connector-curvature="0" />
	<path style="fill:none;stroke:red;stroke-width:1px;stroke-linecap:butt;stroke-linejoin:miter;stroke-opacity:1" d="M 98.2966,245.399 79.4373,254.829 z" id="boundary" inkscape:connector-curvature="0" />
	<path style="fill:none;stroke:red;stroke-width:1px;stroke-linecap:butt;stroke-linejoin:miter;stroke-opacity:1" d="M 79.4373,273.688 75.6654,305.749 z" id="boundary" inkscape:connector-curvature="0" />
	<path style="fill:none;stroke:red;stroke-width:1px;stroke-linecap:butt;stroke-linejoin:miter;stroke-opacity:1" d="M 79.4373,254.829 79.4373,273.688 z" id="boundary" inkscape:connector-curvature="0" />
	<path style="fill:none;stroke:red;stroke-width:1px;stroke-linecap:butt;stroke-linejoin:miter;stroke-opacity:1" d="M 4,433.992 13.4297,450.966 z" id="boundary" inkscape:connector-curvature="0" />
	<path style="fill:none;stroke:red;stroke-width:1px;stroke-linecap:butt;stroke-linejoin:miter;stroke-opacity:1" d="M 13.4297,450.966 13.4297,469.825 z" id="boundary" inkscape:connector-curvature="0" />
	<path style="fill:none;stroke:red;stroke-width:1px;stroke-linecap:butt;stroke-linejoin:miter;stroke-opacity:1" d="M 4,433.992 4,415.133 z" id="boundary" inkscape:connector-curvature="0" />
	<path style="fill:none;stroke:red;stroke-width:1px;stroke-linecap:butt;stroke-linejoin:miter;stroke-opacity:1" d="M 32.289,477.369 13.4297,469.825 z" id="boundary" inkscape:connector-curvature="0" />
	<path style="fill:none;stroke:red;stroke-width:1px;stroke-linecap:butt;stroke-linejoin:miter;stroke-opacity:1" d="M 4,415.133 4,396.274 z" id="boundary" inkscape:connector-curvature="0" />
	<path style="fill:none;stroke:red;stroke-width:1px;stroke-linecap:butt;stroke-linejoin:miter;stroke-opacity:1" d="M 41.7186,494.342 41.7186,518.859 z" id="boundary" inkscape:connector-curvature="0" />
	<path style="fill:none;stroke:red;stroke-width:1px;stroke-linecap:butt;stroke-linejoin:miter;stroke-opacity:1" d="M 41.7186,518.859 32.289,547.148 z" id="boundary" inkscape:connector-curvature="0" />
	<path style="fill:none;stroke:red;stroke-width:1px;stroke-linecap:butt;stroke-linejoin:miter;stroke-opacity:1" d="M 32.289,547.148 32.289,566.008 z" id="boundary" inkscape:connector-curvature="0" />
	<path style="fill:none;stroke:red;stroke-width:1px;stroke-linecap:butt;stroke-linejoin:miter;stroke-opacity:1" d="M 32.289,584.867 32.289,566.008 z" id="boundary" inkscape:connector-curvature="0" />
	<path style="fill:none;stroke:red;stroke-width:1px;stroke-linecap:butt;stroke-linejoin:miter;stroke-opacity:1" d="M 32.289,477.369 41.7186,494.342 z" id="boundary" inkscape:connector-curvature="0" />
	<path style="fill:none;stroke:red;stroke-width:1px;stroke-linecap:butt;stroke-linejoin:miter;stroke-opacity:1" d="M 32.289,584.867 32.289,603.726 z" id="boundary" inkscape:connector-curvature="0" />
	<path style="fill:none;stroke:red;stroke-width:1px;stroke-linecap:butt;stroke-linejoin:miter;stroke-opacity:1" d="M 228.426,88.8669 211.452,98.2966 z" id="boundary" inkscape:connector-curvature="0" />
	<path style="fill:none;stroke:red;stroke-width:1px;stroke-linecap:butt;stroke-linejoin:miter;stroke-opacity:1" d="M 211.452,98.2966 192.593,98.2966 z" id="boundary" inkscape:connector-curvature="0" />
	<path style="fill:none;stroke:red;stroke-width:1px;stroke-linecap:butt;stroke-linejoin:miter;stroke-opacity:1" d="M 247.285,88.8669 228.426,88.8669 z" id="boundary" inkscape:connector-curvature="0" />
	<path style="fill:none;stroke:red;stroke-width:1px;stroke-linecap:butt;stroke-linejoin:miter;stroke-opacity:1" d="M 266.144,88.8669 283.118,98.2966 z" id="boundary" inkscape:connector-curvature="0" />
	<path style="fill:none;stroke:red;stroke-width:1px;stroke-linecap:butt;stroke-linejoin:miter;stroke-opacity:1" d="M 247.285,88.8669 266.144,88.8669 z" id="boundary" inkscape:connector-curvature="0" />
	<path style="fill:none;stroke:red;stroke-width:1px;stroke-linecap:butt;stroke-linejoin:miter;stroke-opacity:1" d="M 371.757,66.2357 356.669,88.8669 z" id="boundary" inkscape:connector-curvature="0" />
	<path style="fill:none;stroke:red;stroke-width:1px;stroke-linecap:butt;stroke-linejoin:miter;stroke-opacity:1" d="M 405.703,51.1483 386.844,51.1483 z" id="boundary" inkscape:connector-curvature="0" />
	<path style="fill:none;stroke:red;stroke-width:1px;stroke-linecap:butt;stroke-linejoin:miter;stroke-opacity:1" d="M 424.563,41.7186 405.703,51.1483 z" id="boundary" inkscape:connector-curvature="0" />
	<path style="fill:none;stroke:red;stroke-width:1px;stroke-linecap:butt;stroke-linejoin:miter;stroke-opacity:1" d="M 443.422,41.7186 424.563,41.7186 z" id="boundary" inkscape:connector-curvature="0" />
	<path style="fill:none;stroke:red;stroke-width:1px;stroke-linecap:butt;stroke-linejoin:miter;stroke-opacity:1" d="M 443.422,41.7186 460.395,51.1483 z" id="boundary" inkscape:connector-curvature="0" />
	<path style="fill:none;stroke:red;stroke-width:1px;stroke-linecap:butt;stroke-linejoin:miter;stroke-opacity:1" d="M 371.757,66.2357 386.844,51.1483 z" id="boundary" inkscape:connector-curvature="0" />
	<path style="fill:none;stroke:red;stroke-width:1px;stroke-linecap:butt;stroke-linejoin:miter;stroke-opacity:1" d="M 479.255,51.1483 460.395,51.1483 z" id="boundary" inkscape:connector-curvature="0" />
	<path style="fill:none;stroke:red;stroke-width:1px;stroke-linecap:butt;stroke-linejoin:miter;stroke-opacity:1" d="M 126.586,151.103 141.673,136.015 z" id="boundary" inkscape:connector-curvature="0" />
	<path style="fill:none;stroke:red;stroke-width:1px;stroke-linecap:butt;stroke-linejoin:miter;stroke-opacity:1" d="M 117.156,179.392 126.586,151.103 z" id="boundary" inkscape:connector-curvature="0" />
	<path style="fill:none;stroke:red;stroke-width:1px;stroke-linecap:butt;stroke-linejoin:miter;stroke-opacity:1" d="M 117.156,198.251 117.156,179.392 z" id="boundary" inkscape:connector-curvature="0" />
	<path style="fill:none;stroke:red;stroke-width:1px;stroke-linecap:butt;stroke-linejoin:miter;stroke-opacity:1" d="M 141.673,136.015 156.76,120.928 z" id="boundary" inkscape:connector-curvature="0" />
	<path style="fill:none;stroke:red;stroke-width:1px;stroke-linecap:butt;stroke-linejoin:miter;stroke-opacity:1" d="M 301.977,98.2966 283.118,98.2966 z" id="boundary" inkscape:connector-curvature="0" />
	<path style="fill:none;stroke:red;stroke-width:1px;stroke-linecap:butt;stroke-linejoin:miter;stroke-opacity:1" d="M 320.837,98.2966 339.696,98.2966 z" id="boundary" inkscape:connector-curvature="0" />
	<path style="fill:none;stroke:red;stroke-width:1px;stroke-linecap:butt;stroke-linejoin:miter;stroke-opacity:1" d="M 301.977,98.2966 320.837,98.2966 z" id="boundary" inkscape:connector-curvature="0" />
	<path style="fill:none;stroke:red;stroke-width:1px;stroke-linecap:butt;stroke-linejoin:miter;stroke-opacity:1" d="M 356.669,88.8669 339.696,98.2966 z" id="boundary" inkscape:connector-curvature="0" />
	<path style="fill:none;stroke:red;stroke-width:1px;stroke-linecap:butt;stroke-linejoin:miter;stroke-opacity:1" d="M 156.76,120.928 173.734,103.954 z" id="boundary" inkscape:connector-curvature="0" />
	<path style="fill:none;stroke:red;stroke-width:1px;stroke-linecap:butt;stroke-linejoin:miter;stroke-opacity:1" d="M 173.734,103.954 192.593,98.2966 z" id="boundary" inkscape:connector-curvature="0" />
	<path style="fill:none;stroke:red;stroke-width:1px;stroke-linecap:butt;stroke-linejoin:miter;stroke-opacity:1" d="M 32.289,603.726 41.7186,620.7 z" id="boundary" inkscape:connector-curvature="0" />
	<path style="fill:none;stroke:red;stroke-width:1px;stroke-linecap:butt;stroke-linejoin:miter;stroke-opacity:1" d="M 41.7186,620.7 41.7186,639.559 z" id="boundary" inkscape:connector-curvature="0" />
	<path style="fill:none;stroke:red;stroke-width:1px;stroke-linecap:butt;stroke-linejoin:miter;stroke-opacity:1" d="M 41.7186,639.559 51.1483,656.532 z" id="boundary" inkscape:connector-curvature="0" />
	<path style="fill:none;stroke:red;stroke-width:1px;stroke-linecap:butt;stroke-linejoin:miter;stroke-opacity:1" d="M 51.1483,656.532 51.1483,675.392 z" id="boundary" inkscape:connector-curvature="0" />
	<path style="fill:none;stroke:red;stroke-width:1px;stroke-linecap:butt;stroke-linejoin:miter;stroke-opacity:1" d="M 68.1217,684.821 51.1483,675.392 z" id="boundary" inkscape:connector-curvature="0" />
	<path style="fill:none;stroke:red;stroke-width:1px;stroke-linecap:butt;stroke-linejoin:miter;stroke-opacity:1" d="M 103.954,694.251 85.0951,694.251 z" id="boundary" inkscape:connector-curvature="0" />
	<path style="fill:none;stroke:red;stroke-width:1px;stroke-linecap:butt;stroke-linejoin:miter;stroke-opacity:1" d="M 85.0951,694.251 68.1217,684.821 z" id="boundary" inkscape:connector-curvature="0" />
	<path style="fill:none;stroke:red;stroke-width:1px;stroke-linecap:butt;stroke-linejoin:miter;stroke-opacity:1" d="M 103.954,694.251 119.042,707.452 z" id="boundary" inkscape:connector-curvature="0" />
	<path style="fill:none;stroke:red;stroke-width:1px;stroke-linecap:butt;stroke-linejoin:miter;stroke-opacity:1" d="M 119.042,707.452 137.901,713.11 z" id="boundary" inkscape:connector-curvature="0" />
	<path style="fill:none;stroke:red;stroke-width:1px;stroke-linecap:butt;stroke-linejoin:miter;stroke-opacity:1" d="M 154.875,722.54 164.304,739.513 z" id="boundary" inkscape:connector-curvature="0" />
	<path style="fill:none;stroke:red;stroke-width:1px;stroke-linecap:butt;stroke-linejoin:miter;stroke-opacity:1" d="M 137.901,713.11 154.875,722.54 z" id="boundary" inkscape:connector-curvature="0" />
	<path style="fill:none;stroke:red;stroke-width:1px;stroke-linecap:butt;stroke-linejoin:miter;stroke-opacity:1" d="M 164.304,739.513 173.734,756.487 z" id="boundary" inkscape:connector-curvature="0" />
	<path style="fill:none;stroke:red;stroke-width:1px;stroke-linecap:butt;stroke-linejoin:miter;stroke-opacity:1" d="M 173.734,756.487 175.62,775.346 z" id="boundary" inkscape:connector-curvature="0" />
	<path style="fill:none;stroke:red;stroke-width:1px;stroke-linecap:butt;stroke-linejoin:miter;stroke-opacity:1" d="M 175.62,775.346 194.479,779.118 z" id="boundary" inkscape:connector-curvature="0" />
	<path style="fill:none;stroke:red;stroke-width:1px;stroke-linecap:butt;stroke-linejoin:miter;stroke-opacity:1" d="M 194.479,779.118 205.795,794.205 z" id="boundary" inkscape:connector-curvature="0" />
	<path style="fill:none;stroke:red;stroke-width:1px;stroke-linecap:butt;stroke-linejoin:miter;stroke-opacity:1" d="M 222.768,803.635 205.795,794.205 z" id="boundary" inkscape:connector-curvature="0" />
	<path style="fill:none;stroke:red;stroke-width:1px;stroke-linecap:butt;stroke-linejoin:miter;stroke-opacity:1" d="M 260.487,807.407 241.627,807.407 z" id="boundary" inkscape:connector-curvature="0" />
	<path style="fill:none;stroke:red;stroke-width:1px;stroke-linecap:butt;stroke-linejoin:miter;stroke-opacity:1" d="M 222.768,803.635 241.627,807.407 z" id="boundary" inkscape:connector-curvature="0" />
	<path style="fill:none;stroke:red;stroke-width:1px;stroke-linecap:butt;stroke-linejoin:miter;stroke-opacity:1" d="M 258.601,848.897 258.601,867.757 z" id="boundary" inkscape:connector-curvature="0" />
	<path style="fill:none;stroke:red;stroke-width:1px;stroke-linecap:butt;stroke-linejoin:miter;stroke-opacity:1" d="M 258.601,867.757 258.601,886.616 z" id="boundary" inkscape:connector-curvature="0" />
	<path style="fill:none;stroke:red;stroke-width:1px;stroke-linecap:butt;stroke-linejoin:miter;stroke-opacity:1" d="M 277.46,892.274 258.601,886.616 z" id="boundary" inkscape:connector-curvature="0" />
	<path style="fill:none;stroke:red;stroke-width:1px;stroke-linecap:butt;stroke-linejoin:miter;stroke-opacity:1" d="M 258.601,914.905 258.601,886.616 z" id="boundary" inkscape:connector-curvature="0" />
	<path style="fill:none;stroke:red;stroke-width:1px;stroke-linecap:butt;stroke-linejoin:miter;stroke-opacity:1" d="M 258.601,848.897 277.46,835.696 z" id="boundary" inkscape:connector-curvature="0" />
	<path style="fill:none;stroke:red;stroke-width:1px;stroke-linecap:butt;stroke-linejoin:miter;stroke-opacity:1" d="M 258.601,914.905 258.601,933.764 z" id="boundary" inkscape:connector-curvature="0" />
	<path style="fill:none;stroke:red;stroke-width:1px;stroke-linecap:butt;stroke-linejoin:miter;stroke-opacity:1" d="M 260.487,807.407 277.46,816.837 z" id="boundary" inkscape:connector-curvature="0" />
	<path style="fill:none;stroke:red;stroke-width:1px;stroke-linecap:butt;stroke-linejoin:miter;stroke-opacity:1" d="M 277.46,816.837 277.46,835.696 z" id="boundary" inkscape:connector-curvature="0" />
	<path style="fill:none;stroke:red;stroke-width:1px;stroke-linecap:butt;stroke-linejoin:miter;stroke-opacity:1" d="M 269.916,967.711 277.46,892.274 z" id="boundary" inkscape:connector-curvature="0" />
	<path style="fill:none;stroke:red;stroke-width:1px;stroke-linecap:butt;stroke-linejoin:miter;stroke-opacity:1" d="M 449.08,845.125 277.46,835.696 z" id="boundary" inkscape:connector-curvature="0" />
	<path style="fill:none;stroke:red;stroke-width:1px;stroke-linecap:butt;stroke-linejoin:miter;stroke-opacity:1" d="M 449.08,845.125 467.939,848.897 z" id="boundary" inkscape:connector-curvature="0" />
	<path style="fill:none;stroke:red;stroke-width:1px;stroke-linecap:butt;stroke-linejoin:miter;stroke-opacity:1" d="M 449.08,863.985 449.08,845.125 z" id="boundary" inkscape:connector-curvature="0" />
	<path style="fill:none;stroke:red;stroke-width:1px;stroke-linecap:butt;stroke-linejoin:miter;stroke-opacity:1" d="M 449.08,882.844 449.08,863.985 z" id="boundary" inkscape:connector-curvature="0" />
	<path style="fill:none;stroke:red;stroke-width:1px;stroke-linecap:butt;stroke-linejoin:miter;stroke-opacity:1" d="M 420.791,911.133 430.221,892.274 z" id="boundary" inkscape:connector-curvature="0" />
	<path style="fill:none;stroke:red;stroke-width:1px;stroke-linecap:butt;stroke-linejoin:miter;stroke-opacity:1" d="M 430.221,892.274 449.08,882.844 z" id="boundary" inkscape:connector-curvature="0" />
	<path style="fill:none;stroke:red;stroke-width:1px;stroke-linecap:butt;stroke-linejoin:miter;stroke-opacity:1" d="M 467.939,848.897 486.798,854.555 z" id="boundary" inkscape:connector-curvature="0" />
	<path style="fill:none;stroke:red;stroke-width:1px;stroke-linecap:butt;stroke-linejoin:miter;stroke-opacity:1" d="M 420.791,911.133 401.932,929.992 z" id="boundary" inkscape:connector-curvature="0" />
	<path style="fill:none;stroke:red;stroke-width:1px;stroke-linecap:butt;stroke-linejoin:miter;stroke-opacity:1" d="M 401.932,929.992 383.072,929.992 z" id="boundary" inkscape:connector-curvature="0" />
	<path style="fill:none;stroke:red;stroke-width:1px;stroke-linecap:butt;stroke-linejoin:miter;stroke-opacity:1" d="M 258.601,933.764 258.601,952.624 z" id="boundary" inkscape:connector-curvature="0" />
	<path style="fill:none;stroke:red;stroke-width:1px;stroke-linecap:butt;stroke-linejoin:miter;stroke-opacity:1" d="M 269.916,967.711 258.601,952.624 z" id="boundary" inkscape:connector-curvature="0" />
	<path style="fill:none;stroke:red;stroke-width:1px;stroke-linecap:butt;stroke-linejoin:miter;stroke-opacity:1" d="M 281.232,982.798 269.916,967.711 z" id="boundary" inkscape:connector-curvature="0" />
	<path style="fill:none;stroke:red;stroke-width:1px;stroke-linecap:butt;stroke-linejoin:miter;stroke-opacity:1" d="M 296.319,996 281.232,982.798 z" id="boundary" inkscape:connector-curvature="0" />
	<path style="fill:none;stroke:red;stroke-width:1px;stroke-linecap:butt;stroke-linejoin:miter;stroke-opacity:1" d="M 315.179,996 296.319,996 z" id="boundary" inkscape:connector-curvature="0" />
	<path style="fill:none;stroke:red;stroke-width:1px;stroke-linecap:butt;stroke-linejoin:miter;stroke-opacity:1" d="M 377.414,965.825 367.985,984.684 z" id="boundary" inkscape:connector-curvature="0" />
	<path style="fill:none;stroke:red;stroke-width:1px;stroke-linecap:butt;stroke-linejoin:miter;stroke-opacity:1" d="M 334.038,996 315.179,996 z" id="boundary" inkscape:connector-curvature="0" />
	<path style="fill:none;stroke:red;stroke-width:1px;stroke-linecap:butt;stroke-linejoin:miter;stroke-opacity:1" d="M 352.897,996 334.038,996 z" id="boundary" inkscape:connector-curvature="0" />
	<path style="fill:none;stroke:red;stroke-width:1px;stroke-linecap:butt;stroke-linejoin:miter;stroke-opacity:1" d="M 367.985,984.684 352.897,996 z" id="boundary" inkscape:connector-curvature="0" />
	<path style="fill:none;stroke:red;stroke-width:1px;stroke-linecap:butt;stroke-linejoin:miter;stroke-opacity:1" d="M 383.072,929.992 377.414,965.825 z" id="boundary" inkscape:connector-curvature="0" />
	<path style="fill:none;stroke:red;stroke-width:1px;stroke-linecap:butt;stroke-linejoin:miter;stroke-opacity:1" d="M 586.753,4 605.612,4 z" id="boundary" inkscape:connector-curvature="0" />
	<path style="fill:none;stroke:red;stroke-width:1px;stroke-linecap:butt;stroke-linejoin:miter;stroke-opacity:1" d="M 569.779,13.4297 586.753,4 z" id="boundary" inkscape:connector-curvature="0" />
	<path style="fill:none;stroke:red;stroke-width:1px;stroke-linecap:butt;stroke-linejoin:miter;stroke-opacity:1" d="M 545.262,43.6046 550.92,19.0875 z" id="boundary" inkscape:connector-curvature="0" />
	<path style="fill:none;stroke:red;stroke-width:1px;stroke-linecap:butt;stroke-linejoin:miter;stroke-opacity:1" d="M 550.92,19.0875 569.779,13.4297 z" id="boundary" inkscape:connector-curvature="0" />
	<path style="fill:none;stroke:red;stroke-width:1px;stroke-linecap:butt;stroke-linejoin:miter;stroke-opacity:1" d="M 624.471,4 641.445,13.4297 z" id="boundary" inkscape:connector-curvature="0" />
	<path style="fill:none;stroke:red;stroke-width:1px;stroke-linecap:butt;stroke-linejoin:miter;stroke-opacity:1" d="M 605.612,4 624.471,4 z" id="boundary" inkscape:connector-curvature="0" />
	<path style="fill:none;stroke:red;stroke-width:1px;stroke-linecap:butt;stroke-linejoin:miter;stroke-opacity:1" d="M 748.943,9.65779 767.802,4 z" id="boundary" inkscape:connector-curvature="0" />
	<path style="fill:none;stroke:red;stroke-width:1px;stroke-linecap:butt;stroke-linejoin:miter;stroke-opacity:1" d="M 767.802,4 786.662,7.77186 z" id="boundary" inkscape:connector-curvature="0" />
	<path style="fill:none;stroke:red;stroke-width:1px;stroke-linecap:butt;stroke-linejoin:miter;stroke-opacity:1" d="M 748.943,9.65779 730.084,13.4297 z" id="boundary" inkscape:connector-curvature="0" />
	<path style="fill:none;stroke:red;stroke-width:1px;stroke-linecap:butt;stroke-linejoin:miter;stroke-opacity:1" d="M 660.304,13.4297 641.445,13.4297 z" id="boundary" inkscape:connector-curvature="0" />
	<path style="fill:none;stroke:red;stroke-width:1px;stroke-linecap:butt;stroke-linejoin:miter;stroke-opacity:1" d="M 660.304,13.4297 665.962,32.289 z" id="boundary" inkscape:connector-curvature="0" />
	<path style="fill:none;stroke:red;stroke-width:1px;stroke-linecap:butt;stroke-linejoin:miter;stroke-opacity:1" d="M 730.084,13.4297 711.224,19.0875 z" id="boundary" inkscape:connector-curvature="0" />
	<path style="fill:none;stroke:red;stroke-width:1px;stroke-linecap:butt;stroke-linejoin:miter;stroke-opacity:1" d="M 479.255,51.1483 496.228,60.5779 z" id="boundary" inkscape:connector-curvature="0" />
	<path style="fill:none;stroke:red;stroke-width:1px;stroke-linecap:butt;stroke-linejoin:miter;stroke-opacity:1" d="M 496.228,60.5779 505.658,77.5513 z" id="boundary" inkscape:connector-curvature="0" />
	<path style="fill:none;stroke:red;stroke-width:1px;stroke-linecap:butt;stroke-linejoin:miter;stroke-opacity:1" d="M 545.262,43.6046 535.833,62.4639 z" id="boundary" inkscape:connector-curvature="0" />
	<path style="fill:none;stroke:red;stroke-width:1px;stroke-linecap:butt;stroke-linejoin:miter;stroke-opacity:1" d="M 535.833,62.4639 524.517,79.4373 z" id="boundary" inkscape:connector-curvature="0" />
	<path style="fill:none;stroke:red;stroke-width:1px;stroke-linecap:butt;stroke-linejoin:miter;stroke-opacity:1" d="M 524.517,79.4373 505.658,77.5513 z" id="boundary" inkscape:connector-curvature="0" />
	<path style="fill:none;stroke:red;stroke-width:1px;stroke-linecap:butt;stroke-linejoin:miter;stroke-opacity:1" d="M 665.962,32.289 675.392,49.2624 z" id="boundary" inkscape:connector-curvature="0" />
	<path style="fill:none;stroke:red;stroke-width:1px;stroke-linecap:butt;stroke-linejoin:miter;stroke-opacity:1" d="M 711.224,19.0875 703.681,45.4905 z" id="boundary" inkscape:connector-curvature="0" />
	<path style="fill:none;stroke:red;stroke-width:1px;stroke-linecap:butt;stroke-linejoin:miter;stroke-opacity:1" d="M 703.681,45.4905 690.479,60.5779 z" id="boundary" inkscape:connector-curvature="0" />
	<path style="fill:none;stroke:red;stroke-width:1px;stroke-linecap:butt;stroke-linejoin:miter;stroke-opacity:1" d="M 690.479,60.5779 675.392,49.2624 z" id="boundary" inkscape:connector-curvature="0" />
	<path style="fill:none;stroke:red;stroke-width:1px;stroke-linecap:butt;stroke-linejoin:miter;stroke-opacity:1" d="M 816.837,28.5171 830.038,43.6046 z" id="boundary" inkscape:connector-curvature="0" />
	<path style="fill:none;stroke:red;stroke-width:1px;stroke-linecap:butt;stroke-linejoin:miter;stroke-opacity:1" d="M 816.837,28.5171 805.521,13.4297 z" id="boundary" inkscape:connector-curvature="0" />
	<path style="fill:none;stroke:red;stroke-width:1px;stroke-linecap:butt;stroke-linejoin:miter;stroke-opacity:1" d="M 862.099,66.2357 845.125,56.8061 z" id="boundary" inkscape:connector-curvature="0" />
	<path style="fill:none;stroke:red;stroke-width:1px;stroke-linecap:butt;stroke-linejoin:miter;stroke-opacity:1" d="M 845.125,56.8061 830.038,43.6046 z" id="boundary" inkscape:connector-curvature="0" />
	<path style="fill:none;stroke:red;stroke-width:1px;stroke-linecap:butt;stroke-linejoin:miter;stroke-opacity:1" d="M 862.099,66.2357 863.985,85.0951 z" id="boundary" inkscape:connector-curvature="0" />
	<path style="fill:none;stroke:red;stroke-width:1px;stroke-linecap:butt;stroke-linejoin:miter;stroke-opacity:1" d="M 901.703,126.586 884.73,117.156 z" id="boundary" inkscape:connector-curvature="0" />
	<path style="fill:none;stroke:red;stroke-width:1px;stroke-linecap:butt;stroke-linejoin:miter;stroke-opacity:1" d="M 884.73,117.156 873.414,102.068 z" id="boundary" inkscape:connector-curvature="0" />
	<path style="fill:none;stroke:red;stroke-width:1px;stroke-linecap:butt;stroke-linejoin:miter;stroke-opacity:1" d="M 873.414,102.068 863.985,85.0951 z" id="boundary" inkscape:connector-curvature="0" />
	<path style="fill:none;stroke:red;stroke-width:1px;stroke-linecap:butt;stroke-linejoin:miter;stroke-opacity:1" d="M 935.65,145.445 916.791,137.901 z" id="boundary" inkscape:connector-curvature="0" />
	<path style="fill:none;stroke:red;stroke-width:1px;stroke-linecap:butt;stroke-linejoin:miter;stroke-opacity:1" d="M 916.791,137.901 901.703,126.586 z" id="boundary" inkscape:connector-curvature="0" />
	<path style="fill:none;stroke:red;stroke-width:1px;stroke-linecap:butt;stroke-linejoin:miter;stroke-opacity:1" d="M 935.65,145.445 948.852,160.532 z" id="boundary" inkscape:connector-curvature="0" />
	<path style="fill:none;stroke:red;stroke-width:1px;stroke-linecap:butt;stroke-linejoin:miter;stroke-opacity:1" d="M 956.395,179.392 948.852,160.532 z" id="boundary" inkscape:connector-curvature="0" />
	<path style="fill:none;stroke:red;stroke-width:1px;stroke-linecap:butt;stroke-linejoin:miter;stroke-opacity:1" d="M 967.711,194.479 956.395,179.392 z" id="boundary" inkscape:connector-curvature="0" />
	<path style="fill:none;stroke:red;stroke-width:1px;stroke-linecap:butt;stroke-linejoin:miter;stroke-opacity:1" d="M 967.711,194.479 977.141,211.452 z" id="boundary" inkscape:connector-curvature="0" />
	<path style="fill:none;stroke:red;stroke-width:1px;stroke-linecap:butt;stroke-linejoin:miter;stroke-opacity:1" d="M 967.711,326.494 967.711,307.635 z" id="boundary" inkscape:connector-curvature="0" />
	<path style="fill:none;stroke:red;stroke-width:1px;stroke-linecap:butt;stroke-linejoin:miter;stroke-opacity:1" d="M 967.711,307.635 986.57,285.004 z" id="boundary" inkscape:connector-curvature="0" />
	<path style="fill:none;stroke:red;stroke-width:1px;stroke-linecap:butt;stroke-linejoin:miter;stroke-opacity:1" d="M 967.711,326.494 967.711,345.354 z" id="boundary" inkscape:connector-curvature="0" />
	<path style="fill:none;stroke:red;stroke-width:1px;stroke-linecap:butt;stroke-linejoin:miter;stroke-opacity:1" d="M 977.141,211.452 986.57,228.426 z" id="boundary" inkscape:connector-curvature="0" />
	<path style="fill:none;stroke:red;stroke-width:1px;stroke-linecap:butt;stroke-linejoin:miter;stroke-opacity:1" d="M 986.57,228.426 986.57,247.285 z" id="boundary" inkscape:connector-curvature="0" />
	<path style="fill:none;stroke:red;stroke-width:1px;stroke-linecap:butt;stroke-linejoin:miter;stroke-opacity:1" d="M 986.57,247.285 986.57,266.144 z" id="boundary" inkscape:connector-curvature="0" />
	<path style="fill:none;stroke:red;stroke-width:1px;stroke-linecap:butt;stroke-linejoin:miter;stroke-opacity:1" d="M 982.798,356.669 967.711,345.354 z" id="boundary" inkscape:connector-curvature="0" />
	<path style="fill:none;stroke:red;stroke-width:1px;stroke-linecap:butt;stroke-linejoin:miter;stroke-opacity:1" d="M 986.57,266.144 986.57,285.004 z" id="boundary" inkscape:connector-curvature="0" />
	<path style="fill:none;stroke:red;stroke-width:1px;stroke-linecap:butt;stroke-linejoin:miter;stroke-opacity:1" d="M 786.662,7.77186 805.521,13.4297 z" id="boundary" inkscape:connector-curvature="0" />
	<path style="fill:none;stroke:red;stroke-width:1px;stroke-linecap:butt;stroke-linejoin:miter;stroke-opacity:1" d="M 665.962,741.399 682.935,750.829 z" id="boundary" inkscape:connector-curvature="0" />
	<path style="fill:none;stroke:red;stroke-width:1px;stroke-linecap:butt;stroke-linejoin:miter;stroke-opacity:1" d="M 656.532,760.259 665.962,741.399 z" id="boundary" inkscape:connector-curvature="0" />
	<path style="fill:none;stroke:red;stroke-width:1px;stroke-linecap:butt;stroke-linejoin:miter;stroke-opacity:1" d="M 701.795,750.829 682.935,750.829 z" id="boundary" inkscape:connector-curvature="0" />
	<path style="fill:none;stroke:red;stroke-width:1px;stroke-linecap:butt;stroke-linejoin:miter;stroke-opacity:1" d="M 656.532,779.118 656.532,760.259 z" id="boundary" inkscape:connector-curvature="0" />
	<path style="fill:none;stroke:red;stroke-width:1px;stroke-linecap:butt;stroke-linejoin:miter;stroke-opacity:1" d="M 718.768,760.259 701.795,750.829 z" id="boundary" inkscape:connector-curvature="0" />
	<path style="fill:none;stroke:red;stroke-width:1px;stroke-linecap:butt;stroke-linejoin:miter;stroke-opacity:1" d="M 541.49,845.125 665.962,741.399 z" id="boundary" inkscape:connector-curvature="0" />
	<path style="fill:none;stroke:red;stroke-width:1px;stroke-linecap:butt;stroke-linejoin:miter;stroke-opacity:1" d="M 824.38,722.54 807.407,731.97 z" id="boundary" inkscape:connector-curvature="0" />
	<path style="fill:none;stroke:red;stroke-width:1px;stroke-linecap:butt;stroke-linejoin:miter;stroke-opacity:1" d="M 807.407,731.97 788.548,731.97 z" id="boundary" inkscape:connector-curvature="0" />
	<path style="fill:none;stroke:red;stroke-width:1px;stroke-linecap:butt;stroke-linejoin:miter;stroke-opacity:1" d="M 773.46,750.829 788.548,731.97 z" id="boundary" inkscape:connector-curvature="0" />
	<path style="fill:none;stroke:red;stroke-width:1px;stroke-linecap:butt;stroke-linejoin:miter;stroke-opacity:1" d="M 737.627,760.259 754.601,750.829 z" id="boundary" inkscape:connector-curvature="0" />
	<path style="fill:none;stroke:red;stroke-width:1px;stroke-linecap:butt;stroke-linejoin:miter;stroke-opacity:1" d="M 754.601,750.829 773.46,750.829 z" id="boundary" inkscape:connector-curvature="0" />
	<path style="fill:none;stroke:red;stroke-width:1px;stroke-linecap:butt;stroke-linejoin:miter;stroke-opacity:1" d="M 737.627,760.259 718.768,760.259 z" id="boundary" inkscape:connector-curvature="0" />
	<path style="fill:none;stroke:red;stroke-width:1px;stroke-linecap:butt;stroke-linejoin:miter;stroke-opacity:1" d="M 541.49,845.125 560.35,845.125 z" id="boundary" inkscape:connector-curvature="0" />
	<path style="fill:none;stroke:red;stroke-width:1px;stroke-linecap:butt;stroke-linejoin:miter;stroke-opacity:1" d="M 524.517,854.555 541.49,845.125 z" id="boundary" inkscape:connector-curvature="0" />
	<path style="fill:none;stroke:red;stroke-width:1px;stroke-linecap:butt;stroke-linejoin:miter;stroke-opacity:1" d="M 579.209,839.468 560.35,845.125 z" id="boundary" inkscape:connector-curvature="0" />
	<path style="fill:none;stroke:red;stroke-width:1px;stroke-linecap:butt;stroke-linejoin:miter;stroke-opacity:1" d="M 486.798,854.555 505.658,854.555 z" id="boundary" inkscape:connector-curvature="0" />
	<path style="fill:none;stroke:red;stroke-width:1px;stroke-linecap:butt;stroke-linejoin:miter;stroke-opacity:1" d="M 524.517,854.555 505.658,854.555 z" id="boundary" inkscape:connector-curvature="0" />
	<path style="fill:none;stroke:red;stroke-width:1px;stroke-linecap:butt;stroke-linejoin:miter;stroke-opacity:1" d="M 645.217,797.977 628.243,807.407 z" id="boundary" inkscape:connector-curvature="0" />
	<path style="fill:none;stroke:red;stroke-width:1px;stroke-linecap:butt;stroke-linejoin:miter;stroke-opacity:1" d="M 628.243,807.407 609.384,816.837 z" id="boundary" inkscape:connector-curvature="0" />
	<path style="fill:none;stroke:red;stroke-width:1px;stroke-linecap:butt;stroke-linejoin:miter;stroke-opacity:1" d="M 645.217,797.977 656.532,779.118 z" id="boundary" inkscape:connector-curvature="0" />
	<path style="fill:none;stroke:red;stroke-width:1px;stroke-linecap:butt;stroke-linejoin:miter;stroke-opacity:1" d="M 609.384,816.837 598.068,835.696 z" id="boundary" inkscape:connector-curvature="0" />
	<path style="fill:none;stroke:red;stroke-width:1px;stroke-linecap:butt;stroke-linejoin:miter;stroke-opacity:1" d="M 598.068,835.696 579.209,839.468 z" id="boundary" inkscape:connector-curvature="0" />
	<path style="fill:none;stroke:red;stroke-width:1px;stroke-linecap:butt;stroke-linejoin:miter;stroke-opacity:1" d="M 986.57,375.529 982.798,356.669 z" id="boundary" inkscape:connector-curvature="0" />
	<path style="fill:none;stroke:red;stroke-width:1px;stroke-linecap:butt;stroke-linejoin:miter;stroke-opacity:1" d="M 939.422,571.665 948.852,543.376 z" id="boundary" inkscape:connector-curvature="0" />
	<path style="fill:none;stroke:red;stroke-width:1px;stroke-linecap:butt;stroke-linejoin:miter;stroke-opacity:1" d="M 948.852,543.376 958.281,524.517 z" id="boundary" inkscape:connector-curvature="0" />
	<path style="fill:none;stroke:red;stroke-width:1px;stroke-linecap:butt;stroke-linejoin:miter;stroke-opacity:1" d="M 967.711,505.658 958.281,524.517 z" id="boundary" inkscape:connector-curvature="0" />
	<path style="fill:none;stroke:red;stroke-width:1px;stroke-linecap:butt;stroke-linejoin:miter;stroke-opacity:1" d="M 967.711,505.658 986.57,486.798 z" id="boundary" inkscape:connector-curvature="0" />
	<path style="fill:none;stroke:red;stroke-width:1px;stroke-linecap:butt;stroke-linejoin:miter;stroke-opacity:1" d="M 986.57,375.529 986.57,394.388 z" id="boundary" inkscape:connector-curvature="0" />
	<path style="fill:none;stroke:red;stroke-width:1px;stroke-linecap:butt;stroke-linejoin:miter;stroke-opacity:1" d="M 986.57,394.388 996,411.361 z" id="boundary" inkscape:connector-curvature="0" />
	<path style="fill:none;stroke:red;stroke-width:1px;stroke-linecap:butt;stroke-linejoin:miter;stroke-opacity:1" d="M 996,411.361 996,430.221 z" id="boundary" inkscape:connector-curvature="0" />
	<path style="fill:none;stroke:red;stroke-width:1px;stroke-linecap:butt;stroke-linejoin:miter;stroke-opacity:1" d="M 986.57,467.939 996,449.08 z" id="boundary" inkscape:connector-curvature="0" />
	<path style="fill:none;stroke:red;stroke-width:1px;stroke-linecap:butt;stroke-linejoin:miter;stroke-opacity:1" d="M 986.57,486.798 986.57,467.939 z" id="boundary" inkscape:connector-curvature="0" />
	<path style="fill:none;stroke:red;stroke-width:1px;stroke-linecap:butt;stroke-linejoin:miter;stroke-opacity:1" d="M 996,430.221 996,449.08 z" id="boundary" inkscape:connector-curvature="0" />
	<path style="fill:none;stroke:red;stroke-width:1px;stroke-linecap:butt;stroke-linejoin:miter;stroke-opacity:1" d="M 863.985,637.673 863.985,656.532 z" id="boundary" inkscape:connector-curvature="0" />
	<path style="fill:none;stroke:red;stroke-width:1px;stroke-linecap:butt;stroke-linejoin:miter;stroke-opacity:1" d="M 863.985,637.673 873.414,618.814 z" id="boundary" inkscape:connector-curvature="0" />
	<path style="fill:none;stroke:red;stroke-width:1px;stroke-linecap:butt;stroke-linejoin:miter;stroke-opacity:1" d="M 839.468,711.224 845.125,684.821 z" id="boundary" inkscape:connector-curvature="0" />
	<path style="fill:none;stroke:red;stroke-width:1px;stroke-linecap:butt;stroke-linejoin:miter;stroke-opacity:1" d="M 845.125,684.821 863.985,675.392 z" id="boundary" inkscape:connector-curvature="0" />
	<path style="fill:none;stroke:red;stroke-width:1px;stroke-linecap:butt;stroke-linejoin:miter;stroke-opacity:1" d="M 839.468,711.224 824.38,722.54 z" id="boundary" inkscape:connector-curvature="0" />
	<path style="fill:none;stroke:red;stroke-width:1px;stroke-linecap:butt;stroke-linejoin:miter;stroke-opacity:1" d="M 863.985,656.532 863.985,675.392 z" id="boundary" inkscape:connector-curvature="0" />
	<path style="fill:none;stroke:red;stroke-width:1px;stroke-linecap:butt;stroke-linejoin:miter;stroke-opacity:1" d="M 909.247,590.525 920.563,571.665 z" id="boundary" inkscape:connector-curvature="0" />
	<path style="fill:none;stroke:red;stroke-width:1px;stroke-linecap:butt;stroke-linejoin:miter;stroke-opacity:1" d="M 920.563,571.665 939.422,571.665 z" id="boundary" inkscape:connector-curvature="0" />
	<path style="fill:none;stroke:red;stroke-width:1px;stroke-linecap:butt;stroke-linejoin:miter;stroke-opacity:1" d="M 873.414,599.954 892.274,599.954 z" id="boundary" inkscape:connector-curvature="0" />
	<path style="fill:none;stroke:red;stroke-width:1px;stroke-linecap:butt;stroke-linejoin:miter;stroke-opacity:1" d="M 873.414,618.814 873.414,599.954 z" id="boundary" inkscape:connector-curvature="0" />
	<path style="fill:none;stroke:red;stroke-width:1px;stroke-linecap:butt;stroke-linejoin:miter;stroke-opacity:1" d="M 909.247,590.525 892.274,599.954 z" id="boundary" inkscape:connector-curvature="0" />
	<path style="fill:none;stroke:red;stroke-width:1px;stroke-linecap:butt;stroke-linejoin:miter;stroke-opacity:1" d="M 863.985,637.673 873.414,599.954 z" id="boundary" inkscape:connector-curvature="0" />
	<circle cx="4" cy="396.274" r="4" fill="#0" id="circle0"/>
	<circle cx="4" cy="415.133" r="4" fill="#0" id="circle1"/>
	<circle cx="4" cy="433.992" r="4" fill="#0" id="circle2"/>
	<circle cx="13.4297" cy="367.985" r="4" fill="#0" id="circle3"/>
	<circle cx="13.4297" cy="450.966" r="4" fill="#0" id="circle4"/>
	<circle cx="13.4297" cy="469.825" r="4" fill="#0" id="circle5"/>
	<circle cx="32.289" cy="339.696" r="4" fill="#0" id="circle6"/>
	<circle cx="32.289" cy="358.555" r="4" fill="#0" id="circle7"/>
	<circle cx="32.289" cy="477.369" r="4" fill="#0" id="circle8"/>
	<circle cx="32.289" cy="547.148" r="4" fill="#0" id="circle9"/>
	<circle cx="32.289" cy="566.008" r="4" fill="#0" id="circle10"/>
	<circle cx="32.289" cy="584.867" r="4" fill="#0" id="circle11"/>
	<circle cx="32.289" cy="603.726" r="4" fill="#0" id="circle12"/>
	<circle cx="41.7186" cy="494.342" r="4" fill="#0" id="circle13"/>
	<circle cx="41.7186" cy="518.859" r="4" fill="#0" id="circle14"/>
	<circle cx="41.7186" cy="620.7" r="4" fill="#0" id="circle15"/>
	<circle cx="41.7186" cy="639.559" r="4" fill="#0" id="circle16"/>
	<circle cx="47.3764" cy="324.608" r="4" fill="#0" id="circle17"/>
	<circle cx="51.1483" cy="656.532" r="4" fill="#0" id="circle18"/>
	<circle cx="51.1483" cy="675.392" r="4" fill="#0" id="circle19"/>
	<circle cx="56.8061" cy="305.749" r="4" fill="#0" id="circle20"/>
	<circle cx="68.1217" cy="684.821" r="4" fill="#0" id="circle21"/>
	<circle cx="75.6654" cy="305.749" r="4" fill="#0" id="circle22"/>
	<circle cx="79.4373" cy="254.829" r="4" fill="#0" id="circle23"/>
	<circle cx="79.4373" cy="273.688" r="4" fill="#0" id="circle24"/>
	<circle cx="85.0951" cy="694.251" r="4" fill="#0" id="circle25"/>
	<circle cx="98.2966" cy="207.681" r="4" fill="#0" id="circle26"/>
	<circle cx="98.2966" cy="226.54" r="4" fill="#0" id="circle27"/>
	<circle cx="98.2966" cy="245.399" r="4" fill="#0" id="circle28"/>
	<circle cx="103.954" cy="694.251" r="4" fill="#0" id="circle29"/>
	<circle cx="117.156" cy="179.392" r="4" fill="#0" id="circle30"/>
	<circle cx="117.156" cy="198.251" r="4" fill="#0" id="circle31"/>
	<circle cx="119.042" cy="707.452" r="4" fill="#0" id="circle32"/>
	<circle cx="126.586" cy="151.103" r="4" fill="#0" id="circle33"/>
	<circle cx="137.901" cy="713.11" r="4" fill="#0" id="circle34"/>
	<circle cx="141.673" cy="136.015" r="4" fill="#0" id="circle35"/>
	<circle cx="154.875" cy="722.54" r="4" fill="#0" id="circle36"/>
	<circle cx="156.76" cy="120.928" r="4" fill="#0" id="circle37"/>
	<circle cx="164.304" cy="739.513" r="4" fill="#0" id="circle38"/>
	<circle cx="173.734" cy="103.954" r="4" fill="#0" id="circle39"/>
	<circle cx="173.734" cy="756.487" r="4" fill="#0" id="circle40"/>
	<circle cx="175.62" cy="775.346" r="4" fill="#0" id="circle41"/>
	<circle cx="192.593" cy="98.2966" r="4" fill="#0" id="circle42"/>
	<circle cx="194.479" cy="779.118" r="4" fill="#0" id="circle43"/>
	<circle cx="205.795" cy="794.205" r="4" fill="#0" id="circle44"/>
	<circle cx="211.452" cy="98.2966" r="4" fill="#0" id="circle45"/>
	<circle cx="222.768" cy="803.635" r="4" fill="#0" id="circle46"/>
	<circle cx="228.426" cy="88.8669" r="4" fill="#0" id="circle47"/>
	<circle cx="241.627" cy="807.407" r="4" fill="#0" id="circle48"/>
	<circle cx="247.285" cy="88.8669" r="4" fill="#0" id="circle49"/>
	<circle cx="258.601" cy="848.897" r="4" fill="#0" id="circle50"/>
	<circle cx="258.601" cy="867.757" r="4" fill="#0" id="circle51"/>
	<circle cx="258.601" cy="886.616" r="4" fill="#0" id="circle52"/>
	<circle cx="258.601" cy="914.905" r="4" fill="#0" id="circle53"/>
	<circle cx="258.601" cy="933.764" r="4" fill="#0" id="circle54"/>
	<circle cx="258.601" cy="952.624" r="4" fill="#0" id="circle55"/>
	<circle cx="260.487" cy="807.407" r="4" fill="#0" id="circle56"/>
	<circle cx="266.144" cy="88.8669" r="4" fill="#0" id="circle57"/>
	<circle cx="269.916" cy="967.711" r="4" fill="#0" id="circle58"/>
	<circle cx="277.46" cy="816.837" r="4" fill="#0" id="circle59"/>
	<circle cx="277.46" cy="835.696" r="4" fill="#0" id="circle60"/>
	<circle cx="277.46" cy="892.274" r="4" fill="#0" id="circle61"/>
	<circle cx="281.232" cy="982.798" r="4" fill="#0" id="circle62"/>
	<circle cx="283.118" cy="98.2966" r="4" fill="#0" id="circle63"/>
	<circle cx="296.319" cy="996" r="4" fill="#0" id="circle64"/>
	<circle cx="301.977" cy="98.2966" r="4" fill="#0" id="circle65"/>
	<circle cx="315.179" cy="996" r="4" fill="#0" id="circle66"/>
	<circle cx="320.837" cy="98.2966" r="4" fill="#0" id="circle67"/>
	<circle cx="334.038" cy="996" r="4" fill="#0" id="circle68"/>
	<circle cx="339.696" cy="98.2966" r="4" fill="#0" id="circle69"/>
	<circle cx="352.897" cy="996" r="4" fill="#0" id="circle70"/>
	<circle cx="356.669" cy="88.8669" r="4" fill="#0" id="circle71"/>
	<circle cx="367.985" cy="984.684" r="4" fill="#0" id="circle72"/>
	<circle cx="371.757" cy="66.2357" r="4" fill="#0" id="circle73"/>
	<circle cx="377.414" cy="965.825" r="4" fill="#0" id="circle74"/>
	<circle cx="383.072" cy="929.992" r="4" fill="#0" id="circle75"/>
	<circle cx="386.844" cy="51.1483" r="4" fill="#0" id="circle76"/>
	<circle cx="401.932" cy="929.992" r="4" fill="#0" id="circle77"/>
	<circle cx="405.703" cy="51.1483" r="4" fill="#0" id="circle78"/>
	<circle cx="420.791" cy="911.133" r="4" fill="#0" id="circle79"/>
	<circle cx="424.563" cy="41.7186" r="4" fill="#0" id="circle80"/>
	<circle cx="430.221" cy="892.274" r="4" fill="#0" id="circle81"/>
	<circle cx="443.422" cy="41.7186" r="4" fill="#0" id="circle82"/>
	<circle cx="449.08" cy="845.125" r="4" fill="#0" id="circle83"/>
	<circle cx="449.08" cy="863.985" r="4" fill="#0" id="circle84"/>
	<circle cx="449.08" cy="882.844" r="4" fill="#0" id="circle85"/>
	<circle cx="460.395" cy="51.1483" r="4" fill="#0" id="circle86"/>
	<circle cx="467.939" cy="848.897" r="4" fill="#0" id="circle87"/>
	<circle cx="479.255" cy="51.1483" r="4" fill="#0" id="circle88"/>
	<circle cx="486.798" cy="854.555" r="4" fill="#0" id="circle89"/>
	<circle cx="496.228" cy="60.5779" r="4" fill="#0" id="circle90"/>
	<circle cx="505.658" cy="77.5513" r="4" fill="#0" id="circle91"/>
	<circle cx="505.658" cy="854.555" r="4" fill="#0" id="circle92"/>
	<circle cx="524.517" cy="79.4373" r="4" fill="#0" id="circle93"/>
	<circle cx="524.517" cy="854.555" r="4" fill="#0" id="circle94"/>
	<circle cx="535.833" cy="62.4639" r="4" fill="#0" id="circle95"/>
	<circle cx="541.49" cy="845.125" r="4" fill="#0" id="circle96"/>
	<circle cx="545.262" cy="43.6046" r="4" fill="#0" id="circle97"/>
	<circle cx="550.92" cy="19.0875" r="4" fill="#0" id="circle98"/>
	<circle cx="560.35" cy="845.125" r="4" fill="#0" id="circle99"/>
	<circle cx="569.779" cy="13.4297" r="4" fill="#0" id="circle100"/>
	<circle cx="579.209" cy="839.468" r="4" fill="#0" id="circle101"/>
	<circle cx="586.753" cy="4" r="4" fill="#0" id="circle102"/>
	<circle cx="598.068" cy="835.696" r="4" fill="#0" id="circle103"/>
	<circle cx="605.612" cy="4" r="4" fill="#0" id="circle104"/>
	<circle cx="609.384" cy="816.837" r="4" fill="#0" id="circle105"/>
	<circle cx="624.471" cy="4" r="4" fill="#0" id="circle106"/>
	<circle cx="628.243" cy="807.407" r="4" fill="#0" id="circle107"/>
	<circle cx="641.445" cy="13.4297" r="4" fill="#0" id="circle108"/>
	<circle cx="645.217" cy="797.977" r="4" fill="#0" id="circle109"/>
	<circle cx="656.532" cy="760.259" r="4" fill="#0" id="circle110"/>
	<circle cx="656.532" cy="779.118" r="4" fill="#0" id="circle111"/>
	<circle cx="660.304" cy="13.4297" r="4" fill="#0" id="circle112"/>
	<circle cx="665.962" cy="32.289" r="4" fill="#0" id="circle113"/>
	<circle cx="665.962" cy="741.399" r="4" fill="#0" id="circle114"/>
	<circle cx="675.392" cy="49.2624" r="4" fill="#0" id="circle115"/>
	<circle cx="682.935" cy="750.829" r="4" fill="#0" id="circle116"/>
	<circle cx="690.479" cy="60.5779" r="4" fill="#0" id="circle117"/>
	<circle cx="701.795" cy="750.829" r="4" fill="#0" id="circle118"/>
	<circle cx="703.681" cy="45.4905" r="4" fill="#0" id="circle119"/>
	<circle cx="711.224" cy="19.0875" r="4" fill="#0" id="circle120"/>
	<circle cx="718.768" cy="760.259" r="4" fill="#0" id="circle121"/>
	<circle cx="730.084" cy="13.4297" r="4" fill="#0" id="circle122"/>
	<circle cx="737.627" cy="760.259" r="4" fill="#0" id="circle123"/>
	<circle cx="748.943" cy="9.65779" r="4" fill="#0" id="circle124"/>
	<circle cx="754.601" cy="750.829" r="4" fill="#0" id="circle125"/>
	<circle cx="767.802" cy="4" r="4" fill="#0" id="circle126"/>
	<circle cx="773.46" cy="750.829" r="4" fill="#0" id="circle127"/>
	<circle cx="786.662" cy="7.77186" r="4" fill="#0" id="circle128"/>
	<circle cx="788.548" cy="731.97" r="4" fill="#0" id="circle129"/>
	<circle cx="805.521" cy="13.4297" r="4" fill="#0" id="circle130"/>
	<circle cx="807.407" cy="731.97" r="4" fill="#0" id="circle131"/>
	<circle cx="816.837" cy="28.5171" r="4" fill="#0" id="circle132"/>
	<circle cx="824.38" cy="722.54" r="4" fill="#0" id="circle133"/>
	<circle cx="830.038" cy="43.6046" r="4" fill="#0" id="circle134"/>
	<circle cx="839.468" cy="711.224" r="4" fill="#0" id="circle135"/>
	<circle cx="845.125" cy="56.8061" r="4" fill="#0" id="circle136"/>
	<circle cx="845.125" cy="684.821" r="4" fill="#0" id="circle137"/>
	<circle cx="862.099" cy="66.2357" r="4" fill="#0" id="circle138"/>
	<circle cx="863.985" cy="85.0951" r="4" fill="#0" id="circle139"/>
	<circle cx="863.985" cy="637.673" r="4" fill="#0" id="circle140"/>
	<circle cx="863.985" cy="656.532" r="4" fill="#0" id="circle141"/>
	<circle cx="863.985" cy="675.392" r="4" fill="#0" id="circle142"/>
	<circle cx="873.414" cy="102.068" r="4" fill="#0" id="circle143"/>
	<circle cx="873.414" cy="599.954" r="4" fill="#0" id="circle144"/>
	<circle cx="873.414" cy="618.814" r="4" fill="#0" id="circle145"/>
	<circle cx="884.73" cy="117.156" r="4" fill="#0" id="circle146"/>
	<circle cx="892.274" cy="599.954" r="4" fill="#0" id="circle147"/>
	<circle cx="901.703" cy="126.586" r="4" fill="#0" id="circle148"/>
	<circle cx="909.247" cy="590.525" r="4" fill="#0" id="circle149"/>
	<circle cx="916.791" cy="137.901" r="4" fill="#0" id="circle150"/>
	<circle cx="920.563" cy="571.665" r="4" fill="#0" id="circle151"/>
	<circle cx="935.65" cy="145.445" r="4" fill="#0" id="circle152"/>
	<circle cx="939.422" cy="571.665" r="4" fill="#0" id="circle153"/>
	<circle cx="948.852" cy="160.532" r="4" fill="#0" id="circle154"/>
	<circle cx="948.852" cy="543.376" r="4" fill="#0" id="circle155"/>
	<circle cx="956.395" cy="179.392" r="4" fill="#0" id="circle156"/>
	<circle cx="958.281" cy="524.517" r="4" fill="#0" id="circle157"/>
	<circle cx="967.711" cy="194.479" r="4" fill="#0" id="circle158"/>
	<circle cx="967.711" cy="307.635" r="4" fill="#0" id="circle159"/>
	<circle cx="967.711" cy="326.494" r="4" fill="#0" id="circle160"/>
	<circle cx="967.711" cy="345.354" r="4" fill="#0" id="circle161"/>
	<circle cx="967.711" cy="505.658" r="4" fill="#0" id="circle162"/>
	<circle cx="977.141" cy="211.452" r="4" fill="#0" id="circle163"/>
	<circle cx="982.798" cy="356.669" r="4" fill="#0" id="circle164"/>
	<circle cx="986.57" cy="228.426" r="4" fill="#0" id="circle165"/>
	<circle cx="986.57" cy="247.285" r="4" fill="#0" id="circle166"/>
	<circle cx="986.57" cy="266.144" r="4" fill="#0" id="circle167"/>
	<circle cx="986.57" cy="285.004" r="4" fill="#0" id="circle168"/>
	<circle cx="986.57" cy="375.529" r="4" fill="#0" id="circle169"/>
	<circle cx="986.57" cy="394.388" r="4" fill="#0" id="circle170"/>
	<circle cx="986.57" cy="467.939" r="4" fill="#0" id="circle171"/>
	<circle cx="986.57" cy="486.798" r="4" fill="#0" id="circle172"/>
	<circle cx="996" cy="411.361" r="4" fill="#0" id="circle173"/>
	<circle cx="996" cy="430.221" r="4" fill="#0" id="circle174"/>
	<circle cx="996" cy="449.08" r="4" fill="#0" id="circle175"/>
	</g>
</svg>