<?xml version="1.0" encoding="UTF-8" standalone="no"?>
<!-- Created with CurveBenchmark -->
<svg
	xmlns:dc="http://purl.org/dc/elements/1.1/"
	xmlns:cc="http://creativecommons.org/ns#"
	xmlns:rdf="http://www.w3.org/1999/02/22-rdf-syntax-ns#"
	xmlns:svg="http://www.w3.org/2000/svg"
	xmlns="http://www.w3.org/2000/svg"
	xmlns:sodipodi="http://sodipodi.sourceforge.net/DTD/sodipodi-0.dtd"
	xmlns:inkscape="http://www.inkscape.org/namespaces/inkscape"
	width="1000"
	height="1000"
	id="svg2"
	version="1.1"
	sodipodi:docname="manifold/nncrust-bird27.png.txt">
<defs
	id="defs4" />
<metadata
	id="metadata7">
	<rdf:RDF>
		<cc:Work
			rdf:about="">
			<dc:format>image/svg+xml</dc:format>
			<dc:type
				rdf:resource="http://purl.org/dc/dcmitype/StillImage" />
			<dc:title></dc:title>
		</cc:Work>
	</rdf:RDF>
</metadata>
<g
	inkscape:label="Layer 1"
	inkscape:groupmode="layer"
	id="layer1">
	<path style="fill:none;stroke:red;stroke-width:1px;stroke-linecap:butt;stroke-linejoin:miter;stroke-opacity:1" d="M 70.6007,109.159 79.364,91.6325 z" id="boundary" inkscape:connector-curvature="0" />
	<path style="fill:none;stroke:red;stroke-width:1px;stroke-linecap:butt;stroke-linejoin:miter;stroke-opacity:1" d="M 70.6007,109.159 56.5795,123.18 z" id="boundary" inkscape:connector-curvature="0" />
	<path style="fill:none;stroke:red;stroke-width:1px;stroke-linecap:butt;stroke-linejoin:miter;stroke-opacity:1" d="M 56.5795,123.18 47.8163,140.707 z" id="boundary" inkscape:connector-curvature="0" />
	<path style="fill:none;stroke:red;stroke-width:1px;stroke-linecap:butt;stroke-linejoin:miter;stroke-opacity:1" d="M 47.8163,140.707 33.7951,152.975 z" id="boundary" inkscape:connector-curvature="0" />
	<path style="fill:none;stroke:red;stroke-width:1px;stroke-linecap:butt;stroke-linejoin:miter;stroke-opacity:1" d="M 82.8693,70.6007 79.364,91.6325 z" id="boundary" inkscape:connector-curvature="0" />
	<path style="fill:none;stroke:red;stroke-width:1px;stroke-linecap:butt;stroke-linejoin:miter;stroke-opacity:1" d="M 96.8905,56.5795 105.654,39.053 z" id="boundary" inkscape:connector-curvature="0" />
	<path style="fill:none;stroke:red;stroke-width:1px;stroke-linecap:butt;stroke-linejoin:miter;stroke-opacity:1" d="M 105.654,39.053 119.675,25.0318 z" id="boundary" inkscape:connector-curvature="0" />
	<path style="fill:none;stroke:red;stroke-width:1px;stroke-linecap:butt;stroke-linejoin:miter;stroke-opacity:1" d="M 123.18,152.975 105.654,145.965 z" id="boundary" inkscape:connector-curvature="0" />
	<path style="fill:none;stroke:red;stroke-width:1px;stroke-linecap:butt;stroke-linejoin:miter;stroke-opacity:1" d="M 96.8905,56.5795 82.8693,70.6007 z" id="boundary" inkscape:connector-curvature="0" />
	<path style="fill:none;stroke:red;stroke-width:1px;stroke-linecap:butt;stroke-linejoin:miter;stroke-opacity:1" d="M 33.7951,152.975 18.0212,161.739 z" id="boundary" inkscape:connector-curvature="0" />
	<path style="fill:none;stroke:red;stroke-width:1px;stroke-linecap:butt;stroke-linejoin:miter;stroke-opacity:1" d="M 105.654,145.965 89.8799,154.728 z" id="boundary" inkscape:connector-curvature="0" />
	<path style="fill:none;stroke:red;stroke-width:1px;stroke-linecap:butt;stroke-linejoin:miter;stroke-opacity:1" d="M 54.8269,168.749 37.3004,172.254 z" id="boundary" inkscape:connector-curvature="0" />
	<path style="fill:none;stroke:red;stroke-width:1px;stroke-linecap:butt;stroke-linejoin:miter;stroke-opacity:1" d="M 72.3534,159.986 54.8269,168.749 z" id="boundary" inkscape:connector-curvature="0" />
	<path style="fill:none;stroke:red;stroke-width:1px;stroke-linecap:butt;stroke-linejoin:miter;stroke-opacity:1" d="M 18.0212,161.739 21.5265,181.018 z" id="boundary" inkscape:connector-curvature="0" />
	<path style="fill:none;stroke:red;stroke-width:1px;stroke-linecap:butt;stroke-linejoin:miter;stroke-opacity:1" d="M 21.5265,181.018 4,175.76 z" id="boundary" inkscape:connector-curvature="0" />
	<path style="fill:none;stroke:red;stroke-width:1px;stroke-linecap:butt;stroke-linejoin:miter;stroke-opacity:1" d="M 37.3004,172.254 21.5265,181.018 z" id="boundary" inkscape:connector-curvature="0" />
	<path style="fill:none;stroke:red;stroke-width:1px;stroke-linecap:butt;stroke-linejoin:miter;stroke-opacity:1" d="M 123.18,152.975 130.191,170.502 z" id="boundary" inkscape:connector-curvature="0" />
	<path style="fill:none;stroke:red;stroke-width:1px;stroke-linecap:butt;stroke-linejoin:miter;stroke-opacity:1" d="M 130.191,170.502 135.449,188.028 z" id="boundary" inkscape:connector-curvature="0" />
	<path style="fill:none;stroke:red;stroke-width:1px;stroke-linecap:butt;stroke-linejoin:miter;stroke-opacity:1" d="M 138.954,223.081 135.449,205.555 z" id="boundary" inkscape:connector-curvature="0" />
	<path style="fill:none;stroke:red;stroke-width:1px;stroke-linecap:butt;stroke-linejoin:miter;stroke-opacity:1" d="M 135.449,205.555 135.449,188.028 z" id="boundary" inkscape:connector-curvature="0" />
	<path style="fill:none;stroke:red;stroke-width:1px;stroke-linecap:butt;stroke-linejoin:miter;stroke-opacity:1" d="M 72.3534,159.986 89.8799,154.728 z" id="boundary" inkscape:connector-curvature="0" />
	<path style="fill:none;stroke:red;stroke-width:1px;stroke-linecap:butt;stroke-linejoin:miter;stroke-opacity:1" d="M 138.954,223.081 144.212,240.608 z" id="boundary" inkscape:connector-curvature="0" />
	<path style="fill:none;stroke:red;stroke-width:1px;stroke-linecap:butt;stroke-linejoin:miter;stroke-opacity:1" d="M 119.675,25.0318 133.696,12.7633 z" id="boundary" inkscape:connector-curvature="0" />
	<path style="fill:none;stroke:red;stroke-width:1px;stroke-linecap:butt;stroke-linejoin:miter;stroke-opacity:1" d="M 133.696,12.7633 151.223,12.7633 z" id="boundary" inkscape:connector-curvature="0" />
	<path style="fill:none;stroke:red;stroke-width:1px;stroke-linecap:butt;stroke-linejoin:miter;stroke-opacity:1" d="M 166.996,4 184.523,4 z" id="boundary" inkscape:connector-curvature="0" />
	<path style="fill:none;stroke:red;stroke-width:1px;stroke-linecap:butt;stroke-linejoin:miter;stroke-opacity:1" d="M 151.223,12.7633 166.996,4 z" id="boundary" inkscape:connector-curvature="0" />
	<path style="fill:none;stroke:red;stroke-width:1px;stroke-linecap:butt;stroke-linejoin:miter;stroke-opacity:1" d="M 184.523,4 202.049,4 z" id="boundary" inkscape:connector-curvature="0" />
	<path style="fill:none;stroke:red;stroke-width:1px;stroke-linecap:butt;stroke-linejoin:miter;stroke-opacity:1" d="M 202.049,4 219.576,4 z" id="boundary" inkscape:connector-curvature="0" />
	<path style="fill:none;stroke:red;stroke-width:1px;stroke-linecap:butt;stroke-linejoin:miter;stroke-opacity:1" d="M 263.392,30.2898 249.371,18.0212 z" id="boundary" inkscape:connector-curvature="0" />
	<path style="fill:none;stroke:red;stroke-width:1px;stroke-linecap:butt;stroke-linejoin:miter;stroke-opacity:1" d="M 249.371,18.0212 237.102,4 z" id="boundary" inkscape:connector-curvature="0" />
	<path style="fill:none;stroke:red;stroke-width:1px;stroke-linecap:butt;stroke-linejoin:miter;stroke-opacity:1" d="M 294.94,74.106 284.424,60.0848 z" id="boundary" inkscape:connector-curvature="0" />
	<path style="fill:none;stroke:red;stroke-width:1px;stroke-linecap:butt;stroke-linejoin:miter;stroke-opacity:1" d="M 284.424,60.0848 275.661,44.311 z" id="boundary" inkscape:connector-curvature="0" />
	<path style="fill:none;stroke:red;stroke-width:1px;stroke-linecap:butt;stroke-linejoin:miter;stroke-opacity:1" d="M 263.392,30.2898 275.661,44.311 z" id="boundary" inkscape:connector-curvature="0" />
	<path style="fill:none;stroke:red;stroke-width:1px;stroke-linecap:butt;stroke-linejoin:miter;stroke-opacity:1" d="M 219.576,4 237.102,4 z" id="boundary" inkscape:connector-curvature="0" />
	<path style="fill:none;stroke:red;stroke-width:1px;stroke-linecap:butt;stroke-linejoin:miter;stroke-opacity:1" d="M 294.94,74.106 303.703,89.8799 z" id="boundary" inkscape:connector-curvature="0" />
	<path style="fill:none;stroke:red;stroke-width:1px;stroke-linecap:butt;stroke-linejoin:miter;stroke-opacity:1" d="M 351.025,109.159 333.498,109.159 z" id="boundary" inkscape:connector-curvature="0" />
	<path style="fill:none;stroke:red;stroke-width:1px;stroke-linecap:butt;stroke-linejoin:miter;stroke-opacity:1" d="M 333.498,109.159 317.724,100.396 z" id="boundary" inkscape:connector-curvature="0" />
	<path style="fill:none;stroke:red;stroke-width:1px;stroke-linecap:butt;stroke-linejoin:miter;stroke-opacity:1" d="M 317.724,100.396 303.703,89.8799 z" id="boundary" inkscape:connector-curvature="0" />
	<path style="fill:none;stroke:red;stroke-width:1px;stroke-linecap:butt;stroke-linejoin:miter;stroke-opacity:1" d="M 147.717,258.134 144.212,240.608 z" id="boundary" inkscape:connector-curvature="0" />
	<path style="fill:none;stroke:red;stroke-width:1px;stroke-linecap:butt;stroke-linejoin:miter;stroke-opacity:1" d="M 351.025,109.159 368.551,109.159 z" id="boundary" inkscape:connector-curvature="0" />
	<path style="fill:none;stroke:red;stroke-width:1px;stroke-linecap:butt;stroke-linejoin:miter;stroke-opacity:1" d="M 368.551,109.159 384.325,117.922 z" id="boundary" inkscape:connector-curvature="0" />
	<path style="fill:none;stroke:red;stroke-width:1px;stroke-linecap:butt;stroke-linejoin:miter;stroke-opacity:1" d="M 384.325,117.922 401.852,117.922 z" id="boundary" inkscape:connector-curvature="0" />
	<path style="fill:none;stroke:red;stroke-width:1px;stroke-linecap:butt;stroke-linejoin:miter;stroke-opacity:1" d="M 401.852,117.922 417.625,126.686 z" id="boundary" inkscape:connector-curvature="0" />
	<path style="fill:none;stroke:red;stroke-width:1px;stroke-linecap:butt;stroke-linejoin:miter;stroke-opacity:1" d="M 435.152,131.943 417.625,126.686 z" id="boundary" inkscape:connector-curvature="0" />
	<path style="fill:none;stroke:red;stroke-width:1px;stroke-linecap:butt;stroke-linejoin:miter;stroke-opacity:1" d="M 435.152,131.943 452.678,135.449 z" id="boundary" inkscape:connector-curvature="0" />
	<path style="fill:none;stroke:red;stroke-width:1px;stroke-linecap:butt;stroke-linejoin:miter;stroke-opacity:1" d="M 452.678,135.449 468.452,144.212 z" id="boundary" inkscape:connector-curvature="0" />
	<path style="fill:none;stroke:red;stroke-width:1px;stroke-linecap:butt;stroke-linejoin:miter;stroke-opacity:1" d="M 152.975,275.661 156.481,293.187 z" id="boundary" inkscape:connector-curvature="0" />
	<path style="fill:none;stroke:red;stroke-width:1px;stroke-linecap:butt;stroke-linejoin:miter;stroke-opacity:1" d="M 152.975,275.661 147.717,258.134 z" id="boundary" inkscape:connector-curvature="0" />
	<path style="fill:none;stroke:red;stroke-width:1px;stroke-linecap:butt;stroke-linejoin:miter;stroke-opacity:1" d="M 156.481,293.187 170.502,303.703 z" id="boundary" inkscape:connector-curvature="0" />
	<path style="fill:none;stroke:red;stroke-width:1px;stroke-linecap:butt;stroke-linejoin:miter;stroke-opacity:1" d="M 170.502,303.703 175.76,321.23 z" id="boundary" inkscape:connector-curvature="0" />
	<path style="fill:none;stroke:red;stroke-width:1px;stroke-linecap:butt;stroke-linejoin:miter;stroke-opacity:1" d="M 184.523,337.004 175.76,321.23 z" id="boundary" inkscape:connector-curvature="0" />
	<path style="fill:none;stroke:red;stroke-width:1px;stroke-linecap:butt;stroke-linejoin:miter;stroke-opacity:1" d="M 196.792,351.025 184.523,337.004 z" id="boundary" inkscape:connector-curvature="0" />
	<path style="fill:none;stroke:red;stroke-width:1px;stroke-linecap:butt;stroke-linejoin:miter;stroke-opacity:1" d="M 210.813,363.293 196.792,351.025 z" id="boundary" inkscape:connector-curvature="0" />
	<path style="fill:none;stroke:red;stroke-width:1px;stroke-linecap:butt;stroke-linejoin:miter;stroke-opacity:1" d="M 210.813,363.293 217.823,380.82 z" id="boundary" inkscape:connector-curvature="0" />
	<path style="fill:none;stroke:red;stroke-width:1px;stroke-linecap:butt;stroke-linejoin:miter;stroke-opacity:1" d="M 217.823,380.82 231.845,391.336 z" id="boundary" inkscape:connector-curvature="0" />
	<path style="fill:none;stroke:red;stroke-width:1px;stroke-linecap:butt;stroke-linejoin:miter;stroke-opacity:1" d="M 231.845,391.336 242.36,405.357 z" id="boundary" inkscape:connector-curvature="0" />
	<path style="fill:none;stroke:red;stroke-width:1px;stroke-linecap:butt;stroke-linejoin:miter;stroke-opacity:1" d="M 259.887,412.367 242.36,405.357 z" id="boundary" inkscape:connector-curvature="0" />
	<path style="fill:none;stroke:red;stroke-width:1px;stroke-linecap:butt;stroke-linejoin:miter;stroke-opacity:1" d="M 287.929,435.152 272.155,426.389 z" id="boundary" inkscape:connector-curvature="0" />
	<path style="fill:none;stroke:red;stroke-width:1px;stroke-linecap:butt;stroke-linejoin:miter;stroke-opacity:1" d="M 272.155,426.389 259.887,412.367 z" id="boundary" inkscape:connector-curvature="0" />
	<path style="fill:none;stroke:red;stroke-width:1px;stroke-linecap:butt;stroke-linejoin:miter;stroke-opacity:1" d="M 287.929,435.152 301.951,445.668 z" id="boundary" inkscape:connector-curvature="0" />
	<path style="fill:none;stroke:red;stroke-width:1px;stroke-linecap:butt;stroke-linejoin:miter;stroke-opacity:1" d="M 301.951,445.668 319.477,452.678 z" id="boundary" inkscape:connector-curvature="0" />
	<path style="fill:none;stroke:red;stroke-width:1px;stroke-linecap:butt;stroke-linejoin:miter;stroke-opacity:1" d="M 319.477,452.678 329.993,466.7 z" id="boundary" inkscape:connector-curvature="0" />
	<path style="fill:none;stroke:red;stroke-width:1px;stroke-linecap:butt;stroke-linejoin:miter;stroke-opacity:1" d="M 347.519,470.205 329.993,466.7 z" id="boundary" inkscape:connector-curvature="0" />
	<path style="fill:none;stroke:red;stroke-width:1px;stroke-linecap:butt;stroke-linejoin:miter;stroke-opacity:1" d="M 329.993,466.7 345.767,666.502 z" id="boundary" inkscape:connector-curvature="0" />
	<path style="fill:none;stroke:red;stroke-width:1px;stroke-linecap:butt;stroke-linejoin:miter;stroke-opacity:1" d="M 363.293,657.739 380.82,652.481 z" id="boundary" inkscape:connector-curvature="0" />
	<path style="fill:none;stroke:red;stroke-width:1px;stroke-linecap:butt;stroke-linejoin:miter;stroke-opacity:1" d="M 363.293,657.739 345.767,666.502 z" id="boundary" inkscape:connector-curvature="0" />
	<path style="fill:none;stroke:red;stroke-width:1px;stroke-linecap:butt;stroke-linejoin:miter;stroke-opacity:1" d="M 359.788,678.77 345.767,666.502 z" id="boundary" inkscape:connector-curvature="0" />
	<path style="fill:none;stroke:red;stroke-width:1px;stroke-linecap:butt;stroke-linejoin:miter;stroke-opacity:1" d="M 377.314,680.523 359.788,678.77 z" id="boundary" inkscape:connector-curvature="0" />
	<path style="fill:none;stroke:red;stroke-width:1px;stroke-linecap:butt;stroke-linejoin:miter;stroke-opacity:1" d="M 363.293,478.968 379.067,487.731 z" id="boundary" inkscape:connector-curvature="0" />
	<path style="fill:none;stroke:red;stroke-width:1px;stroke-linecap:butt;stroke-linejoin:miter;stroke-opacity:1" d="M 347.519,470.205 363.293,478.968 z" id="boundary" inkscape:connector-curvature="0" />
	<path style="fill:none;stroke:red;stroke-width:1px;stroke-linecap:butt;stroke-linejoin:miter;stroke-opacity:1" d="M 379.067,487.731 394.841,496.495 z" id="boundary" inkscape:connector-curvature="0" />
	<path style="fill:none;stroke:red;stroke-width:1px;stroke-linecap:butt;stroke-linejoin:miter;stroke-opacity:1" d="M 412.367,503.505 394.841,496.495 z" id="boundary" inkscape:connector-curvature="0" />
	<path style="fill:none;stroke:red;stroke-width:1px;stroke-linecap:butt;stroke-linejoin:miter;stroke-opacity:1" d="M 443.915,568.353 435.152,585.88 z" id="boundary" inkscape:connector-curvature="0" />
	<path style="fill:none;stroke:red;stroke-width:1px;stroke-linecap:butt;stroke-linejoin:miter;stroke-opacity:1" d="M 428.141,512.269 412.367,503.505 z" id="boundary" inkscape:connector-curvature="0" />
	<path style="fill:none;stroke:red;stroke-width:1px;stroke-linecap:butt;stroke-linejoin:miter;stroke-opacity:1" d="M 435.152,585.88 426.389,603.406 z" id="boundary" inkscape:connector-curvature="0" />
	<path style="fill:none;stroke:red;stroke-width:1px;stroke-linecap:butt;stroke-linejoin:miter;stroke-opacity:1" d="M 478.968,531.548 450.926,538.558 z" id="boundary" inkscape:connector-curvature="0" />
	<path style="fill:none;stroke:red;stroke-width:1px;stroke-linecap:butt;stroke-linejoin:miter;stroke-opacity:1" d="M 450.926,538.558 442.163,522.784 z" id="boundary" inkscape:connector-curvature="0" />
	<path style="fill:none;stroke:red;stroke-width:1px;stroke-linecap:butt;stroke-linejoin:miter;stroke-opacity:1" d="M 494.742,522.784 478.968,531.548 z" id="boundary" inkscape:connector-curvature="0" />
	<path style="fill:none;stroke:red;stroke-width:1px;stroke-linecap:butt;stroke-linejoin:miter;stroke-opacity:1" d="M 478.968,531.548 478.968,549.074 z" id="boundary" inkscape:connector-curvature="0" />
	<path style="fill:none;stroke:red;stroke-width:1px;stroke-linecap:butt;stroke-linejoin:miter;stroke-opacity:1" d="M 450.926,538.558 443.915,568.353 z" id="boundary" inkscape:connector-curvature="0" />
	<path style="fill:none;stroke:red;stroke-width:1px;stroke-linecap:butt;stroke-linejoin:miter;stroke-opacity:1" d="M 478.968,566.601 466.7,580.622 z" id="boundary" inkscape:connector-curvature="0" />
	<path style="fill:none;stroke:red;stroke-width:1px;stroke-linecap:butt;stroke-linejoin:miter;stroke-opacity:1" d="M 478.968,549.074 478.968,566.601 z" id="boundary" inkscape:connector-curvature="0" />
	<path style="fill:none;stroke:red;stroke-width:1px;stroke-linecap:butt;stroke-linejoin:miter;stroke-opacity:1" d="M 428.141,512.269 442.163,522.784 z" id="boundary" inkscape:connector-curvature="0" />
	<path style="fill:none;stroke:red;stroke-width:1px;stroke-linecap:butt;stroke-linejoin:miter;stroke-opacity:1" d="M 466.7,580.622 457.936,598.148 z" id="boundary" inkscape:connector-curvature="0" />
	<path style="fill:none;stroke:red;stroke-width:1px;stroke-linecap:butt;stroke-linejoin:miter;stroke-opacity:1" d="M 417.625,620.933 408.862,638.459 z" id="boundary" inkscape:connector-curvature="0" />
	<path style="fill:none;stroke:red;stroke-width:1px;stroke-linecap:butt;stroke-linejoin:miter;stroke-opacity:1" d="M 408.862,638.459 398.346,652.481 z" id="boundary" inkscape:connector-curvature="0" />
	<path style="fill:none;stroke:red;stroke-width:1px;stroke-linecap:butt;stroke-linejoin:miter;stroke-opacity:1" d="M 398.346,652.481 380.82,652.481 z" id="boundary" inkscape:connector-curvature="0" />
	<path style="fill:none;stroke:red;stroke-width:1px;stroke-linecap:butt;stroke-linejoin:miter;stroke-opacity:1" d="M 412.367,671.76 394.841,678.77 z" id="boundary" inkscape:connector-curvature="0" />
	<path style="fill:none;stroke:red;stroke-width:1px;stroke-linecap:butt;stroke-linejoin:miter;stroke-opacity:1" d="M 412.367,671.76 429.894,670.007 z" id="boundary" inkscape:connector-curvature="0" />
	<path style="fill:none;stroke:red;stroke-width:1px;stroke-linecap:butt;stroke-linejoin:miter;stroke-opacity:1" d="M 417.625,620.933 435.152,627.943 z" id="boundary" inkscape:connector-curvature="0" />
	<path style="fill:none;stroke:red;stroke-width:1px;stroke-linecap:butt;stroke-linejoin:miter;stroke-opacity:1" d="M 394.841,678.77 377.314,680.523 z" id="boundary" inkscape:connector-curvature="0" />
	<path style="fill:none;stroke:red;stroke-width:1px;stroke-linecap:butt;stroke-linejoin:miter;stroke-opacity:1" d="M 443.915,610.417 426.389,603.406 z" id="boundary" inkscape:connector-curvature="0" />
	<path style="fill:none;stroke:red;stroke-width:1px;stroke-linecap:butt;stroke-linejoin:miter;stroke-opacity:1" d="M 457.936,598.148 443.915,610.417 z" id="boundary" inkscape:connector-curvature="0" />
	<path style="fill:none;stroke:red;stroke-width:1px;stroke-linecap:butt;stroke-linejoin:miter;stroke-opacity:1" d="M 435.152,645.47 429.894,670.007 z" id="boundary" inkscape:connector-curvature="0" />
	<path style="fill:none;stroke:red;stroke-width:1px;stroke-linecap:butt;stroke-linejoin:miter;stroke-opacity:1" d="M 435.152,627.943 435.152,645.47 z" id="boundary" inkscape:connector-curvature="0" />
	<path style="fill:none;stroke:red;stroke-width:1px;stroke-linecap:butt;stroke-linejoin:miter;stroke-opacity:1" d="M 494.742,684.028 429.894,670.007 z" id="boundary" inkscape:connector-curvature="0" />
	<path style="fill:none;stroke:red;stroke-width:1px;stroke-linecap:butt;stroke-linejoin:miter;stroke-opacity:1" d="M 417.625,620.933 426.389,603.406 z" id="boundary" inkscape:connector-curvature="0" />
	<path style="fill:none;stroke:red;stroke-width:1px;stroke-linecap:butt;stroke-linejoin:miter;stroke-opacity:1" d="M 468.452,144.212 484.226,152.975 z" id="boundary" inkscape:connector-curvature="0" />
	<path style="fill:none;stroke:red;stroke-width:1px;stroke-linecap:butt;stroke-linejoin:miter;stroke-opacity:1" d="M 500,161.739 484.226,152.975 z" id="boundary" inkscape:connector-curvature="0" />
	<path style="fill:none;stroke:red;stroke-width:1px;stroke-linecap:butt;stroke-linejoin:miter;stroke-opacity:1" d="M 517.527,161.739 500,161.739 z" id="boundary" inkscape:connector-curvature="0" />
	<path style="fill:none;stroke:red;stroke-width:1px;stroke-linecap:butt;stroke-linejoin:miter;stroke-opacity:1" d="M 517.527,161.739 533.3,170.502 z" id="boundary" inkscape:connector-curvature="0" />
	<path style="fill:none;stroke:red;stroke-width:1px;stroke-linecap:butt;stroke-linejoin:miter;stroke-opacity:1" d="M 549.074,179.265 533.3,170.502 z" id="boundary" inkscape:connector-curvature="0" />
	<path style="fill:none;stroke:red;stroke-width:1px;stroke-linecap:butt;stroke-linejoin:miter;stroke-opacity:1" d="M 549.074,179.265 564.848,188.028 z" id="boundary" inkscape:connector-curvature="0" />
	<path style="fill:none;stroke:red;stroke-width:1px;stroke-linecap:butt;stroke-linejoin:miter;stroke-opacity:1" d="M 580.622,196.792 564.848,188.028 z" id="boundary" inkscape:connector-curvature="0" />
	<path style="fill:none;stroke:red;stroke-width:1px;stroke-linecap:butt;stroke-linejoin:miter;stroke-opacity:1" d="M 596.396,205.555 580.622,196.792 z" id="boundary" inkscape:connector-curvature="0" />
	<path style="fill:none;stroke:red;stroke-width:1px;stroke-linecap:butt;stroke-linejoin:miter;stroke-opacity:1" d="M 596.396,205.555 612.17,214.318 z" id="boundary" inkscape:connector-curvature="0" />
	<path style="fill:none;stroke:red;stroke-width:1px;stroke-linecap:butt;stroke-linejoin:miter;stroke-opacity:1" d="M 627.943,223.081 612.17,214.318 z" id="boundary" inkscape:connector-curvature="0" />
	<path style="fill:none;stroke:red;stroke-width:1px;stroke-linecap:butt;stroke-linejoin:miter;stroke-opacity:1" d="M 643.717,231.845 627.943,223.081 z" id="boundary" inkscape:connector-curvature="0" />
	<path style="fill:none;stroke:red;stroke-width:1px;stroke-linecap:butt;stroke-linejoin:miter;stroke-opacity:1" d="M 643.717,231.845 657.739,242.36 z" id="boundary" inkscape:connector-curvature="0" />
	<path style="fill:none;stroke:red;stroke-width:1px;stroke-linecap:butt;stroke-linejoin:miter;stroke-opacity:1" d="M 657.739,242.36 675.265,249.371 z" id="boundary" inkscape:connector-curvature="0" />
	<path style="fill:none;stroke:red;stroke-width:1px;stroke-linecap:butt;stroke-linejoin:miter;stroke-opacity:1" d="M 675.265,249.371 680.523,266.898 z" id="boundary" inkscape:connector-curvature="0" />
	<path style="fill:none;stroke:red;stroke-width:1px;stroke-linecap:butt;stroke-linejoin:miter;stroke-opacity:1" d="M 696.297,275.661 680.523,266.898 z" id="boundary" inkscape:connector-curvature="0" />
	<path style="fill:none;stroke:red;stroke-width:1px;stroke-linecap:butt;stroke-linejoin:miter;stroke-opacity:1" d="M 696.297,275.661 710.318,286.177 z" id="boundary" inkscape:connector-curvature="0" />
	<path style="fill:none;stroke:red;stroke-width:1px;stroke-linecap:butt;stroke-linejoin:miter;stroke-opacity:1" d="M 727.845,293.187 710.318,286.177 z" id="boundary" inkscape:connector-curvature="0" />
	<path style="fill:none;stroke:red;stroke-width:1px;stroke-linecap:butt;stroke-linejoin:miter;stroke-opacity:1" d="M 769.908,328.24 754.134,319.477 z" id="boundary" inkscape:connector-curvature="0" />
	<path style="fill:none;stroke:red;stroke-width:1px;stroke-linecap:butt;stroke-linejoin:miter;stroke-opacity:1" d="M 754.134,319.477 740.113,307.208 z" id="boundary" inkscape:connector-curvature="0" />
	<path style="fill:none;stroke:red;stroke-width:1px;stroke-linecap:butt;stroke-linejoin:miter;stroke-opacity:1" d="M 740.113,307.208 727.845,293.187 z" id="boundary" inkscape:connector-curvature="0" />
	<path style="fill:none;stroke:red;stroke-width:1px;stroke-linecap:butt;stroke-linejoin:miter;stroke-opacity:1" d="M 724.339,487.731 706.813,487.731 z" id="boundary" inkscape:connector-curvature="0" />
	<path style="fill:none;stroke:red;stroke-width:1px;stroke-linecap:butt;stroke-linejoin:miter;stroke-opacity:1" d="M 757.64,478.968 741.866,487.731 z" id="boundary" inkscape:connector-curvature="0" />
	<path style="fill:none;stroke:red;stroke-width:1px;stroke-linecap:butt;stroke-linejoin:miter;stroke-opacity:1" d="M 741.866,487.731 724.339,487.731 z" id="boundary" inkscape:connector-curvature="0" />
	<path style="fill:none;stroke:red;stroke-width:1px;stroke-linecap:butt;stroke-linejoin:miter;stroke-opacity:1" d="M 757.64,478.968 775.166,478.968 z" id="boundary" inkscape:connector-curvature="0" />
	<path style="fill:none;stroke:red;stroke-width:1px;stroke-linecap:butt;stroke-linejoin:miter;stroke-opacity:1" d="M 689.286,496.495 706.813,487.731 z" id="boundary" inkscape:connector-curvature="0" />
	<path style="fill:none;stroke:red;stroke-width:1px;stroke-linecap:butt;stroke-linejoin:miter;stroke-opacity:1" d="M 785.682,337.004 799.703,347.519 z" id="boundary" inkscape:connector-curvature="0" />
	<path style="fill:none;stroke:red;stroke-width:1px;stroke-linecap:butt;stroke-linejoin:miter;stroke-opacity:1" d="M 785.682,337.004 769.908,328.24 z" id="boundary" inkscape:connector-curvature="0" />
	<path style="fill:none;stroke:red;stroke-width:1px;stroke-linecap:butt;stroke-linejoin:miter;stroke-opacity:1" d="M 799.703,347.519 817.23,354.53 z" id="boundary" inkscape:connector-curvature="0" />
	<path style="fill:none;stroke:red;stroke-width:1px;stroke-linecap:butt;stroke-linejoin:miter;stroke-opacity:1" d="M 833.004,363.293 817.23,354.53 z" id="boundary" inkscape:connector-curvature="0" />
	<path style="fill:none;stroke:red;stroke-width:1px;stroke-linecap:butt;stroke-linejoin:miter;stroke-opacity:1" d="M 833.004,363.293 848.777,372.057 z" id="boundary" inkscape:connector-curvature="0" />
	<path style="fill:none;stroke:red;stroke-width:1px;stroke-linecap:butt;stroke-linejoin:miter;stroke-opacity:1" d="M 864.551,380.82 848.777,372.057 z" id="boundary" inkscape:connector-curvature="0" />
	<path style="fill:none;stroke:red;stroke-width:1px;stroke-linecap:butt;stroke-linejoin:miter;stroke-opacity:1" d="M 880.325,389.583 864.551,380.82 z" id="boundary" inkscape:connector-curvature="0" />
	<path style="fill:none;stroke:red;stroke-width:1px;stroke-linecap:butt;stroke-linejoin:miter;stroke-opacity:1" d="M 897.852,393.088 880.325,389.583 z" id="boundary" inkscape:connector-curvature="0" />
	<path style="fill:none;stroke:red;stroke-width:1px;stroke-linecap:butt;stroke-linejoin:miter;stroke-opacity:1" d="M 932.905,401.852 915.378,398.346 z" id="boundary" inkscape:connector-curvature="0" />
	<path style="fill:none;stroke:red;stroke-width:1px;stroke-linecap:butt;stroke-linejoin:miter;stroke-opacity:1" d="M 915.378,398.346 897.852,393.088 z" id="boundary" inkscape:connector-curvature="0" />
	<path style="fill:none;stroke:red;stroke-width:1px;stroke-linecap:butt;stroke-linejoin:miter;stroke-opacity:1" d="M 925.894,443.915 915.378,398.346 z" id="boundary" inkscape:connector-curvature="0" />
	<path style="fill:none;stroke:red;stroke-width:1px;stroke-linecap:butt;stroke-linejoin:miter;stroke-opacity:1" d="M 825.993,487.731 808.466,487.731 z" id="boundary" inkscape:connector-curvature="0" />
	<path style="fill:none;stroke:red;stroke-width:1px;stroke-linecap:butt;stroke-linejoin:miter;stroke-opacity:1" d="M 929.399,461.442 925.894,443.915 z" id="boundary" inkscape:connector-curvature="0" />
	<path style="fill:none;stroke:red;stroke-width:1px;stroke-linecap:butt;stroke-linejoin:miter;stroke-opacity:1" d="M 925.894,443.915 943.42,443.915 z" id="boundary" inkscape:connector-curvature="0" />
	<path style="fill:none;stroke:red;stroke-width:1px;stroke-linecap:butt;stroke-linejoin:miter;stroke-opacity:1" d="M 790.94,487.731 808.466,487.731 z" id="boundary" inkscape:connector-curvature="0" />
	<path style="fill:none;stroke:red;stroke-width:1px;stroke-linecap:butt;stroke-linejoin:miter;stroke-opacity:1" d="M 790.94,487.731 775.166,478.968 z" id="boundary" inkscape:connector-curvature="0" />
	<path style="fill:none;stroke:red;stroke-width:1px;stroke-linecap:butt;stroke-linejoin:miter;stroke-opacity:1" d="M 825.993,487.731 841.767,496.495 z" id="boundary" inkscape:connector-curvature="0" />
	<path style="fill:none;stroke:red;stroke-width:1px;stroke-linecap:butt;stroke-linejoin:miter;stroke-opacity:1" d="M 948.678,410.615 960.947,424.636 z" id="boundary" inkscape:connector-curvature="0" />
	<path style="fill:none;stroke:red;stroke-width:1px;stroke-linecap:butt;stroke-linejoin:miter;stroke-opacity:1" d="M 960.947,424.636 943.42,443.915 z" id="boundary" inkscape:connector-curvature="0" />
	<path style="fill:none;stroke:red;stroke-width:1px;stroke-linecap:butt;stroke-linejoin:miter;stroke-opacity:1" d="M 946.926,468.452 962.7,477.216 z" id="boundary" inkscape:connector-curvature="0" />
	<path style="fill:none;stroke:red;stroke-width:1px;stroke-linecap:butt;stroke-linejoin:miter;stroke-opacity:1" d="M 946.926,468.452 943.42,443.915 z" id="boundary" inkscape:connector-curvature="0" />
	<path style="fill:none;stroke:red;stroke-width:1px;stroke-linecap:butt;stroke-linejoin:miter;stroke-opacity:1" d="M 976.721,489.484 962.7,477.216 z" id="boundary" inkscape:connector-curvature="0" />
	<path style="fill:none;stroke:red;stroke-width:1px;stroke-linecap:butt;stroke-linejoin:miter;stroke-opacity:1" d="M 929.399,461.442 946.926,468.452 z" id="boundary" inkscape:connector-curvature="0" />
	<path style="fill:none;stroke:red;stroke-width:1px;stroke-linecap:butt;stroke-linejoin:miter;stroke-opacity:1" d="M 992.495,498.247 976.721,489.484 z" id="boundary" inkscape:connector-curvature="0" />
	<path style="fill:none;stroke:red;stroke-width:1px;stroke-linecap:butt;stroke-linejoin:miter;stroke-opacity:1" d="M 932.905,401.852 948.678,410.615 z" id="boundary" inkscape:connector-curvature="0" />
	<path style="fill:none;stroke:red;stroke-width:1px;stroke-linecap:butt;stroke-linejoin:miter;stroke-opacity:1" d="M 510.516,514.021 528.042,514.021 z" id="boundary" inkscape:connector-curvature="0" />
	<path style="fill:none;stroke:red;stroke-width:1px;stroke-linecap:butt;stroke-linejoin:miter;stroke-opacity:1" d="M 494.742,522.784 510.516,514.021 z" id="boundary" inkscape:connector-curvature="0" />
	<path style="fill:none;stroke:red;stroke-width:1px;stroke-linecap:butt;stroke-linejoin:miter;stroke-opacity:1" d="M 528.042,514.021 545.569,514.021 z" id="boundary" inkscape:connector-curvature="0" />
	<path style="fill:none;stroke:red;stroke-width:1px;stroke-linecap:butt;stroke-linejoin:miter;stroke-opacity:1" d="M 570.106,531.548 564.848,561.343 z" id="boundary" inkscape:connector-curvature="0" />
	<path style="fill:none;stroke:red;stroke-width:1px;stroke-linecap:butt;stroke-linejoin:miter;stroke-opacity:1" d="M 570.106,531.548 563.095,514.021 z" id="boundary" inkscape:connector-curvature="0" />
	<path style="fill:none;stroke:red;stroke-width:1px;stroke-linecap:butt;stroke-linejoin:miter;stroke-opacity:1" d="M 592.89,531.548 570.106,531.548 z" id="boundary" inkscape:connector-curvature="0" />
	<path style="fill:none;stroke:red;stroke-width:1px;stroke-linecap:butt;stroke-linejoin:miter;stroke-opacity:1" d="M 564.848,587.633 564.848,561.343 z" id="boundary" inkscape:connector-curvature="0" />
	<path style="fill:none;stroke:red;stroke-width:1px;stroke-linecap:butt;stroke-linejoin:miter;stroke-opacity:1" d="M 564.848,587.633 564.848,605.159 z" id="boundary" inkscape:connector-curvature="0" />
	<path style="fill:none;stroke:red;stroke-width:1px;stroke-linecap:butt;stroke-linejoin:miter;stroke-opacity:1" d="M 564.848,605.159 556.085,622.686 z" id="boundary" inkscape:connector-curvature="0" />
	<path style="fill:none;stroke:red;stroke-width:1px;stroke-linecap:butt;stroke-linejoin:miter;stroke-opacity:1" d="M 584.127,636.707 575.364,654.233 z" id="boundary" inkscape:connector-curvature="0" />
	<path style="fill:none;stroke:red;stroke-width:1px;stroke-linecap:butt;stroke-linejoin:miter;stroke-opacity:1" d="M 545.569,514.021 563.095,514.021 z" id="boundary" inkscape:connector-curvature="0" />
	<path style="fill:none;stroke:red;stroke-width:1px;stroke-linecap:butt;stroke-linejoin:miter;stroke-opacity:1" d="M 508.763,696.297 494.742,684.028 z" id="boundary" inkscape:connector-curvature="0" />
	<path style="fill:none;stroke:red;stroke-width:1px;stroke-linecap:butt;stroke-linejoin:miter;stroke-opacity:1" d="M 494.742,684.028 512.269,678.77 z" id="boundary" inkscape:connector-curvature="0" />
	<path style="fill:none;stroke:red;stroke-width:1px;stroke-linecap:butt;stroke-linejoin:miter;stroke-opacity:1" d="M 512.269,678.77 508.763,696.297 z" id="boundary" inkscape:connector-curvature="0" />
	<path style="fill:none;stroke:red;stroke-width:1px;stroke-linecap:butt;stroke-linejoin:miter;stroke-opacity:1" d="M 529.795,678.77 512.269,678.77 z" id="boundary" inkscape:connector-curvature="0" />
	<path style="fill:none;stroke:red;stroke-width:1px;stroke-linecap:butt;stroke-linejoin:miter;stroke-opacity:1" d="M 526.29,698.049 508.763,696.297 z" id="boundary" inkscape:connector-curvature="0" />
	<path style="fill:none;stroke:red;stroke-width:1px;stroke-linecap:butt;stroke-linejoin:miter;stroke-opacity:1" d="M 543.816,698.049 526.29,698.049 z" id="boundary" inkscape:connector-curvature="0" />
	<path style="fill:none;stroke:red;stroke-width:1px;stroke-linecap:butt;stroke-linejoin:miter;stroke-opacity:1" d="M 529.795,678.77 545.569,670.007 z" id="boundary" inkscape:connector-curvature="0" />
	<path style="fill:none;stroke:red;stroke-width:1px;stroke-linecap:butt;stroke-linejoin:miter;stroke-opacity:1" d="M 545.569,670.007 552.58,652.481 z" id="boundary" inkscape:connector-curvature="0" />
	<path style="fill:none;stroke:red;stroke-width:1px;stroke-linecap:butt;stroke-linejoin:miter;stroke-opacity:1" d="M 575.364,654.233 552.58,652.481 z" id="boundary" inkscape:connector-curvature="0" />
	<path style="fill:none;stroke:red;stroke-width:1px;stroke-linecap:butt;stroke-linejoin:miter;stroke-opacity:1" d="M 552.58,652.481 556.085,622.686 z" id="boundary" inkscape:connector-curvature="0" />
	<path style="fill:none;stroke:red;stroke-width:1px;stroke-linecap:butt;stroke-linejoin:miter;stroke-opacity:1" d="M 575.364,654.233 578.869,671.76 z" id="boundary" inkscape:connector-curvature="0" />
	<path style="fill:none;stroke:red;stroke-width:1px;stroke-linecap:butt;stroke-linejoin:miter;stroke-opacity:1" d="M 578.869,671.76 578.869,696.297 z" id="boundary" inkscape:connector-curvature="0" />
	<path style="fill:none;stroke:red;stroke-width:1px;stroke-linecap:butt;stroke-linejoin:miter;stroke-opacity:1" d="M 578.869,696.297 561.343,698.049 z" id="boundary" inkscape:connector-curvature="0" />
	<path style="fill:none;stroke:red;stroke-width:1px;stroke-linecap:butt;stroke-linejoin:miter;stroke-opacity:1" d="M 561.343,698.049 543.816,698.049 z" id="boundary" inkscape:connector-curvature="0" />
	<path style="fill:none;stroke:red;stroke-width:1px;stroke-linecap:butt;stroke-linejoin:miter;stroke-opacity:1" d="M 636.707,496.495 654.233,496.495 z" id="boundary" inkscape:connector-curvature="0" />
	<path style="fill:none;stroke:red;stroke-width:1px;stroke-linecap:butt;stroke-linejoin:miter;stroke-opacity:1" d="M 619.18,505.258 636.707,496.495 z" id="boundary" inkscape:connector-curvature="0" />
	<path style="fill:none;stroke:red;stroke-width:1px;stroke-linecap:butt;stroke-linejoin:miter;stroke-opacity:1" d="M 671.76,496.495 654.233,496.495 z" id="boundary" inkscape:connector-curvature="0" />
	<path style="fill:none;stroke:red;stroke-width:1px;stroke-linecap:butt;stroke-linejoin:miter;stroke-opacity:1" d="M 606.912,519.279 619.18,505.258 z" id="boundary" inkscape:connector-curvature="0" />
	<path style="fill:none;stroke:red;stroke-width:1px;stroke-linecap:butt;stroke-linejoin:miter;stroke-opacity:1" d="M 671.76,496.495 689.286,496.495 z" id="boundary" inkscape:connector-curvature="0" />
	<path style="fill:none;stroke:red;stroke-width:1px;stroke-linecap:butt;stroke-linejoin:miter;stroke-opacity:1" d="M 859.293,496.495 876.82,496.495 z" id="boundary" inkscape:connector-curvature="0" />
	<path style="fill:none;stroke:red;stroke-width:1px;stroke-linecap:butt;stroke-linejoin:miter;stroke-opacity:1" d="M 876.82,496.495 892.594,505.258 z" id="boundary" inkscape:connector-curvature="0" />
	<path style="fill:none;stroke:red;stroke-width:1px;stroke-linecap:butt;stroke-linejoin:miter;stroke-opacity:1" d="M 910.12,510.516 892.594,505.258 z" id="boundary" inkscape:connector-curvature="0" />
	<path style="fill:none;stroke:red;stroke-width:1px;stroke-linecap:butt;stroke-linejoin:miter;stroke-opacity:1" d="M 927.647,514.021 910.12,510.516 z" id="boundary" inkscape:connector-curvature="0" />
	<path style="fill:none;stroke:red;stroke-width:1px;stroke-linecap:butt;stroke-linejoin:miter;stroke-opacity:1" d="M 960.947,522.784 943.42,522.784 z" id="boundary" inkscape:connector-curvature="0" />
	<path style="fill:none;stroke:red;stroke-width:1px;stroke-linecap:butt;stroke-linejoin:miter;stroke-opacity:1" d="M 841.767,496.495 859.293,496.495 z" id="boundary" inkscape:connector-curvature="0" />
	<path style="fill:none;stroke:red;stroke-width:1px;stroke-linecap:butt;stroke-linejoin:miter;stroke-opacity:1" d="M 927.647,514.021 943.42,522.784 z" id="boundary" inkscape:connector-curvature="0" />
	<path style="fill:none;stroke:red;stroke-width:1px;stroke-linecap:butt;stroke-linejoin:miter;stroke-opacity:1" d="M 592.89,549.074 592.89,566.601 z" id="boundary" inkscape:connector-curvature="0" />
	<path style="fill:none;stroke:red;stroke-width:1px;stroke-linecap:butt;stroke-linejoin:miter;stroke-opacity:1" d="M 592.89,549.074 592.89,531.548 z" id="boundary" inkscape:connector-curvature="0" />
	<path style="fill:none;stroke:red;stroke-width:1px;stroke-linecap:butt;stroke-linejoin:miter;stroke-opacity:1" d="M 592.89,531.548 606.912,519.279 z" id="boundary" inkscape:connector-curvature="0" />
	<path style="fill:none;stroke:red;stroke-width:1px;stroke-linecap:butt;stroke-linejoin:miter;stroke-opacity:1" d="M 592.89,566.601 592.89,584.127 z" id="boundary" inkscape:connector-curvature="0" />
	<path style="fill:none;stroke:red;stroke-width:1px;stroke-linecap:butt;stroke-linejoin:miter;stroke-opacity:1" d="M 584.127,601.654 584.127,619.18 z" id="boundary" inkscape:connector-curvature="0" />
	<path style="fill:none;stroke:red;stroke-width:1px;stroke-linecap:butt;stroke-linejoin:miter;stroke-opacity:1" d="M 584.127,601.654 592.89,584.127 z" id="boundary" inkscape:connector-curvature="0" />
	<path style="fill:none;stroke:red;stroke-width:1px;stroke-linecap:butt;stroke-linejoin:miter;stroke-opacity:1" d="M 584.127,636.707 584.127,619.18 z" id="boundary" inkscape:connector-curvature="0" />
	<path style="fill:none;stroke:red;stroke-width:1px;stroke-linecap:butt;stroke-linejoin:miter;stroke-opacity:1" d="M 996,515.774 978.473,522.784 z" id="boundary" inkscape:connector-curvature="0" />
	<path style="fill:none;stroke:red;stroke-width:1px;stroke-linecap:butt;stroke-linejoin:miter;stroke-opacity:1" d="M 992.495,498.247 996,515.774 z" id="boundary" inkscape:connector-curvature="0" />
	<path style="fill:none;stroke:red;stroke-width:1px;stroke-linecap:butt;stroke-linejoin:miter;stroke-opacity:1" d="M 960.947,522.784 978.473,522.784 z" id="boundary" inkscape:connector-curvature="0" />
	<circle cx="4" cy="175.76" r="4" fill="#0" id="circle0"/>
	<circle cx="18.0212" cy="161.739" r="4" fill="#0" id="circle1"/>
	<circle cx="21.5265" cy="181.018" r="4" fill="#0" id="circle2"/>
	<circle cx="33.7951" cy="152.975" r="4" fill="#0" id="circle3"/>
	<circle cx="37.3004" cy="172.254" r="4" fill="#0" id="circle4"/>
	<circle cx="47.8163" cy="140.707" r="4" fill="#0" id="circle5"/>
	<circle cx="54.8269" cy="168.749" r="4" fill="#0" id="circle6"/>
	<circle cx="56.5795" cy="123.18" r="4" fill="#0" id="circle7"/>
	<circle cx="70.6007" cy="109.159" r="4" fill="#0" id="circle8"/>
	<circle cx="72.3534" cy="159.986" r="4" fill="#0" id="circle9"/>
	<circle cx="79.364" cy="91.6325" r="4" fill="#0" id="circle10"/>
	<circle cx="82.8693" cy="70.6007" r="4" fill="#0" id="circle11"/>
	<circle cx="89.8799" cy="154.728" r="4" fill="#0" id="circle12"/>
	<circle cx="96.8905" cy="56.5795" r="4" fill="#0" id="circle13"/>
	<circle cx="105.654" cy="39.053" r="4" fill="#0" id="circle14"/>
	<circle cx="105.654" cy="145.965" r="4" fill="#0" id="circle15"/>
	<circle cx="119.675" cy="25.0318" r="4" fill="#0" id="circle16"/>
	<circle cx="123.18" cy="152.975" r="4" fill="#0" id="circle17"/>
	<circle cx="130.191" cy="170.502" r="4" fill="#0" id="circle18"/>
	<circle cx="133.696" cy="12.7633" r="4" fill="#0" id="circle19"/>
	<circle cx="135.449" cy="188.028" r="4" fill="#0" id="circle20"/>
	<circle cx="135.449" cy="205.555" r="4" fill="#0" id="circle21"/>
	<circle cx="138.954" cy="223.081" r="4" fill="#0" id="circle22"/>
	<circle cx="144.212" cy="240.608" r="4" fill="#0" id="circle23"/>
	<circle cx="147.717" cy="258.134" r="4" fill="#0" id="circle24"/>
	<circle cx="151.223" cy="12.7633" r="4" fill="#0" id="circle25"/>
	<circle cx="152.975" cy="275.661" r="4" fill="#0" id="circle26"/>
	<circle cx="156.481" cy="293.187" r="4" fill="#0" id="circle27"/>
	<circle cx="166.996" cy="4" r="4" fill="#0" id="circle28"/>
	<circle cx="170.502" cy="303.703" r="4" fill="#0" id="circle29"/>
	<circle cx="175.76" cy="321.23" r="4" fill="#0" id="circle30"/>
	<circle cx="184.523" cy="4" r="4" fill="#0" id="circle31"/>
	<circle cx="184.523" cy="337.004" r="4" fill="#0" id="circle32"/>
	<circle cx="196.792" cy="351.025" r="4" fill="#0" id="circle33"/>
	<circle cx="202.049" cy="4" r="4" fill="#0" id="circle34"/>
	<circle cx="210.813" cy="363.293" r="4" fill="#0" id="circle35"/>
	<circle cx="217.823" cy="380.82" r="4" fill="#0" id="circle36"/>
	<circle cx="219.576" cy="4" r="4" fill="#0" id="circle37"/>
	<circle cx="231.845" cy="391.336" r="4" fill="#0" id="circle38"/>
	<circle cx="237.102" cy="4" r="4" fill="#0" id="circle39"/>
	<circle cx="242.36" cy="405.357" r="4" fill="#0" id="circle40"/>
	<circle cx="249.371" cy="18.0212" r="4" fill="#0" id="circle41"/>
	<circle cx="259.887" cy="412.367" r="4" fill="#0" id="circle42"/>
	<circle cx="263.392" cy="30.2898" r="4" fill="#0" id="circle43"/>
	<circle cx="272.155" cy="426.389" r="4" fill="#0" id="circle44"/>
	<circle cx="275.661" cy="44.311" r="4" fill="#0" id="circle45"/>
	<circle cx="284.424" cy="60.0848" r="4" fill="#0" id="circle46"/>
	<circle cx="287.929" cy="435.152" r="4" fill="#0" id="circle47"/>
	<circle cx="294.94" cy="74.106" r="4" fill="#0" id="circle48"/>
	<circle cx="301.951" cy="445.668" r="4" fill="#0" id="circle49"/>
	<circle cx="303.703" cy="89.8799" r="4" fill="#0" id="circle50"/>
	<circle cx="317.724" cy="100.396" r="4" fill="#0" id="circle51"/>
	<circle cx="319.477" cy="452.678" r="4" fill="#0" id="circle52"/>
	<circle cx="329.993" cy="466.7" r="4" fill="#0" id="circle53"/>
	<circle cx="333.498" cy="109.159" r="4" fill="#0" id="circle54"/>
	<circle cx="345.767" cy="666.502" r="4" fill="#0" id="circle55"/>
	<circle cx="347.519" cy="470.205" r="4" fill="#0" id="circle56"/>
	<circle cx="351.025" cy="109.159" r="4" fill="#0" id="circle57"/>
	<circle cx="359.788" cy="678.77" r="4" fill="#0" id="circle58"/>
	<circle cx="363.293" cy="478.968" r="4" fill="#0" id="circle59"/>
	<circle cx="363.293" cy="657.739" r="4" fill="#0" id="circle60"/>
	<circle cx="368.551" cy="109.159" r="4" fill="#0" id="circle61"/>
	<circle cx="377.314" cy="680.523" r="4" fill="#0" id="circle62"/>
	<circle cx="379.067" cy="487.731" r="4" fill="#0" id="circle63"/>
	<circle cx="380.82" cy="652.481" r="4" fill="#0" id="circle64"/>
	<circle cx="384.325" cy="117.922" r="4" fill="#0" id="circle65"/>
	<circle cx="394.841" cy="496.495" r="4" fill="#0" id="circle66"/>
	<circle cx="394.841" cy="678.77" r="4" fill="#0" id="circle67"/>
	<circle cx="398.346" cy="652.481" r="4" fill="#0" id="circle68"/>
	<circle cx="401.852" cy="117.922" r="4" fill="#0" id="circle69"/>
	<circle cx="408.862" cy="638.459" r="4" fill="#0" id="circle70"/>
	<circle cx="412.367" cy="503.505" r="4" fill="#0" id="circle71"/>
	<circle cx="412.367" cy="671.76" r="4" fill="#0" id="circle72"/>
	<circle cx="417.625" cy="126.686" r="4" fill="#0" id="circle73"/>
	<circle cx="417.625" cy="620.933" r="4" fill="#0" id="circle74"/>
	<circle cx="426.389" cy="603.406" r="4" fill="#0" id="circle75"/>
	<circle cx="428.141" cy="512.269" r="4" fill="#0" id="circle76"/>
	<circle cx="429.894" cy="670.007" r="4" fill="#0" id="circle77"/>
	<circle cx="435.152" cy="131.943" r="4" fill="#0" id="circle78"/>
	<circle cx="435.152" cy="585.88" r="4" fill="#0" id="circle79"/>
	<circle cx="435.152" cy="627.943" r="4" fill="#0" id="circle80"/>
	<circle cx="435.152" cy="645.47" r="4" fill="#0" id="circle81"/>
	<circle cx="442.163" cy="522.784" r="4" fill="#0" id="circle82"/>
	<circle cx="443.915" cy="568.353" r="4" fill="#0" id="circle83"/>
	<circle cx="443.915" cy="610.417" r="4" fill="#0" id="circle84"/>
	<circle cx="450.926" cy="538.558" r="4" fill="#0" id="circle85"/>
	<circle cx="452.678" cy="135.449" r="4" fill="#0" id="circle86"/>
	<circle cx="457.936" cy="598.148" r="4" fill="#0" id="circle87"/>
	<circle cx="466.7" cy="580.622" r="4" fill="#0" id="circle88"/>
	<circle cx="468.452" cy="144.212" r="4" fill="#0" id="circle89"/>
	<circle cx="478.968" cy="531.548" r="4" fill="#0" id="circle90"/>
	<circle cx="478.968" cy="549.074" r="4" fill="#0" id="circle91"/>
	<circle cx="478.968" cy="566.601" r="4" fill="#0" id="circle92"/>
	<circle cx="484.226" cy="152.975" r="4" fill="#0" id="circle93"/>
	<circle cx="494.742" cy="522.784" r="4" fill="#0" id="circle94"/>
	<circle cx="494.742" cy="684.028" r="4" fill="#0" id="circle95"/>
	<circle cx="500" cy="161.739" r="4" fill="#0" id="circle96"/>
	<circle cx="508.763" cy="696.297" r="4" fill="#0" id="circle97"/>
	<circle cx="510.516" cy="514.021" r="4" fill="#0" id="circle98"/>
	<circle cx="512.269" cy="678.77" r="4" fill="#0" id="circle99"/>
	<circle cx="517.527" cy="161.739" r="4" fill="#0" id="circle100"/>
	<circle cx="526.29" cy="698.049" r="4" fill="#0" id="circle101"/>
	<circle cx="528.042" cy="514.021" r="4" fill="#0" id="circle102"/>
	<circle cx="529.795" cy="678.77" r="4" fill="#0" id="circle103"/>
	<circle cx="533.3" cy="170.502" r="4" fill="#0" id="circle104"/>
	<circle cx="543.816" cy="698.049" r="4" fill="#0" id="circle105"/>
	<circle cx="545.569" cy="514.021" r="4" fill="#0" id="circle106"/>
	<circle cx="545.569" cy="670.007" r="4" fill="#0" id="circle107"/>
	<circle cx="549.074" cy="179.265" r="4" fill="#0" id="circle108"/>
	<circle cx="552.58" cy="652.481" r="4" fill="#0" id="circle109"/>
	<circle cx="556.085" cy="622.686" r="4" fill="#0" id="circle110"/>
	<circle cx="561.343" cy="698.049" r="4" fill="#0" id="circle111"/>
	<circle cx="563.095" cy="514.021" r="4" fill="#0" id="circle112"/>
	<circle cx="564.848" cy="188.028" r="4" fill="#0" id="circle113"/>
	<circle cx="564.848" cy="561.343" r="4" fill="#0" id="circle114"/>
	<circle cx="564.848" cy="587.633" r="4" fill="#0" id="circle115"/>
	<circle cx="564.848" cy="605.159" r="4" fill="#0" id="circle116"/>
	<circle cx="570.106" cy="531.548" r="4" fill="#0" id="circle117"/>
	<circle cx="575.364" cy="654.233" r="4" fill="#0" id="circle118"/>
	<circle cx="578.869" cy="671.76" r="4" fill="#0" id="circle119"/>
	<circle cx="578.869" cy="696.297" r="4" fill="#0" id="circle120"/>
	<circle cx="580.622" cy="196.792" r="4" fill="#0" id="circle121"/>
	<circle cx="584.127" cy="601.654" r="4" fill="#0" id="circle122"/>
	<circle cx="584.127" cy="619.18" r="4" fill="#0" id="circle123"/>
	<circle cx="584.127" cy="636.707" r="4" fill="#0" id="circle124"/>
	<circle cx="592.89" cy="531.548" r="4" fill="#0" id="circle125"/>
	<circle cx="592.89" cy="549.074" r="4" fill="#0" id="circle126"/>
	<circle cx="592.89" cy="566.601" r="4" fill="#0" id="circle127"/>
	<circle cx="592.89" cy="584.127" r="4" fill="#0" id="circle128"/>
	<circle cx="596.396" cy="205.555" r="4" fill="#0" id="circle129"/>
	<circle cx="606.912" cy="519.279" r="4" fill="#0" id="circle130"/>
	<circle cx="612.17" cy="214.318" r="4" fill="#0" id="circle131"/>
	<circle cx="619.18" cy="505.258" r="4" fill="#0" id="circle132"/>
	<circle cx="627.943" cy="223.081" r="4" fill="#0" id="circle133"/>
	<circle cx="636.707" cy="496.495" r="4" fill="#0" id="circle134"/>
	<circle cx="643.717" cy="231.845" r="4" fill="#0" id="circle135"/>
	<circle cx="654.233" cy="496.495" r="4" fill="#0" id="circle136"/>
	<circle cx="657.739" cy="242.36" r="4" fill="#0" id="circle137"/>
	<circle cx="671.76" cy="496.495" r="4" fill="#0" id="circle138"/>
	<circle cx="675.265" cy="249.371" r="4" fill="#0" id="circle139"/>
	<circle cx="680.523" cy="266.898" r="4" fill="#0" id="circle140"/>
	<circle cx="689.286" cy="496.495" r="4" fill="#0" id="circle141"/>
	<circle cx="696.297" cy="275.661" r="4" fill="#0" id="circle142"/>
	<circle cx="706.813" cy="487.731" r="4" fill="#0" id="circle143"/>
	<circle cx="710.318" cy="286.177" r="4" fill="#0" id="circle144"/>
	<circle cx="724.339" cy="487.731" r="4" fill="#0" id="circle145"/>
	<circle cx="727.845" cy="293.187" r="4" fill="#0" id="circle146"/>
	<circle cx="740.113" cy="307.208" r="4" fill="#0" id="circle147"/>
	<circle cx="741.866" cy="487.731" r="4" fill="#0" id="circle148"/>
	<circle cx="754.134" cy="319.477" r="4" fill="#0" id="circle149"/>
	<circle cx="757.64" cy="478.968" r="4" fill="#0" id="circle150"/>
	<circle cx="769.908" cy="328.24" r="4" fill="#0" id="circle151"/>
	<circle cx="775.166" cy="478.968" r="4" fill="#0" id="circle152"/>
	<circle cx="785.682" cy="337.004" r="4" fill="#0" id="circle153"/>
	<circle cx="790.94" cy="487.731" r="4" fill="#0" id="circle154"/>
	<circle cx="799.703" cy="347.519" r="4" fill="#0" id="circle155"/>
	<circle cx="808.466" cy="487.731" r="4" fill="#0" id="circle156"/>
	<circle cx="817.23" cy="354.53" r="4" fill="#0" id="circle157"/>
	<circle cx="825.993" cy="487.731" r="4" fill="#0" id="circle158"/>
	<circle cx="833.004" cy="363.293" r="4" fill="#0" id="circle159"/>
	<circle cx="841.767" cy="496.495" r="4" fill="#0" id="circle160"/>
	<circle cx="848.777" cy="372.057" r="4" fill="#0" id="circle161"/>
	<circle cx="859.293" cy="496.495" r="4" fill="#0" id="circle162"/>
	<circle cx="864.551" cy="380.82" r="4" fill="#0" id="circle163"/>
	<circle cx="876.82" cy="496.495" r="4" fill="#0" id="circle164"/>
	<circle cx="880.325" cy="389.583" r="4" fill="#0" id="circle165"/>
	<circle cx="892.594" cy="505.258" r="4" fill="#0" id="circle166"/>
	<circle cx="897.852" cy="393.088" r="4" fill="#0" id="circle167"/>
	<circle cx="910.12" cy="510.516" r="4" fill="#0" id="circle168"/>
	<circle cx="915.378" cy="398.346" r="4" fill="#0" id="circle169"/>
	<circle cx="925.894" cy="443.915" r="4" fill="#0" id="circle170"/>
	<circle cx="927.647" cy="514.021" r="4" fill="#0" id="circle171"/>
	<circle cx="929.399" cy="461.442" r="4" fill="#0" id="circle172"/>
	<circle cx="932.905" cy="401.852" r="4" fill="#0" id="circle173"/>
	<circle cx="943.42" cy="443.915" r="4" fill="#0" id="circle174"/>
	<circle cx="943.42" cy="522.784" r="4" fill="#0" id="circle175"/>
	<circle cx="946.926" cy="468.452" r="4" fill="#0" id="circle176"/>
	<circle cx="948.678" cy="410.615" r="4" fill="#0" id="circle177"/>
	<circle cx="960.947" cy="424.636" r="4" fill="#0" id="circle178"/>
	<circle cx="960.947" cy="522.784" r="4" fill="#0" id="circle179"/>
	<circle cx="962.7" cy="477.216" r="4" fill="#0" id="circle180"/>
	<circle cx="976.721" cy="489.484" r="4" fill="#0" id="circle181"/>
	<circle cx="978.473" cy="522.784" r="4" fill="#0" id="circle182"/>
	<circle cx="992.495" cy="498.247" r="4" fill="#0" id="circle183"/>
	<circle cx="996" cy="515.774" r="4" fill="#0" id="circle184"/>
	</g>
</svg>