<?xml version="1.0" encoding="UTF-8" standalone="no"?>
<!-- Created with CurveBenchmark -->
<svg
	xmlns:dc="http://purl.org/dc/elements/1.1/"
	xmlns:cc="http://creativecommons.org/ns#"
	xmlns:rdf="http://www.w3.org/1999/02/22-rdf-syntax-ns#"
	xmlns:svg="http://www.w3.org/2000/svg"
	xmlns="http://www.w3.org/2000/svg"
	xmlns:sodipodi="http://sodipodi.sourceforge.net/DTD/sodipodi-0.dtd"
	xmlns:inkscape="http://www.inkscape.org/namespaces/inkscape"
	width="1000"
	height="1000"
	id="svg2"
	version="1.1"
	sodipodi:docname="manifold/nncrust-Bone05.png.txt">
<defs
	id="defs4" />
<metadata
	id="metadata7">
	<rdf:RDF>
		<cc:Work
			rdf:about="">
			<dc:format>image/svg+xml</dc:format>
			<dc:type
				rdf:resource="http://purl.org/dc/dcmitype/StillImage" />
			<dc:title></dc:title>
		</cc:Work>
	</rdf:RDF>
</metadata>
<g
	inkscape:label="Layer 1"
	inkscape:groupmode="layer"
	id="layer1">
	<path style="fill:none;stroke:red;stroke-width:1px;stroke-linecap:butt;stroke-linejoin:miter;stroke-opacity:1" d="M 222.547,695.497 231.084,678.423 z" id="boundary" inkscape:connector-curvature="0" />
	<path style="fill:none;stroke:red;stroke-width:1px;stroke-linecap:butt;stroke-linejoin:miter;stroke-opacity:1" d="M 244.744,664.764 231.084,678.423 z" id="boundary" inkscape:connector-curvature="0" />
	<path style="fill:none;stroke:red;stroke-width:1px;stroke-linecap:butt;stroke-linejoin:miter;stroke-opacity:1" d="M 253.281,647.69 244.744,664.764 z" id="boundary" inkscape:connector-curvature="0" />
	<path style="fill:none;stroke:red;stroke-width:1px;stroke-linecap:butt;stroke-linejoin:miter;stroke-opacity:1" d="M 214.01,712.571 222.547,695.497 z" id="boundary" inkscape:connector-curvature="0" />
	<path style="fill:none;stroke:red;stroke-width:1px;stroke-linecap:butt;stroke-linejoin:miter;stroke-opacity:1" d="M 214.01,712.571 200.351,726.231 z" id="boundary" inkscape:connector-curvature="0" />
	<path style="fill:none;stroke:red;stroke-width:1px;stroke-linecap:butt;stroke-linejoin:miter;stroke-opacity:1" d="M 304.503,722.816 292.551,736.475 z" id="boundary" inkscape:connector-curvature="0" />
	<path style="fill:none;stroke:red;stroke-width:1px;stroke-linecap:butt;stroke-linejoin:miter;stroke-opacity:1" d="M 261.818,630.616 275.477,618.664 z" id="boundary" inkscape:connector-curvature="0" />
	<path style="fill:none;stroke:red;stroke-width:1px;stroke-linecap:butt;stroke-linejoin:miter;stroke-opacity:1" d="M 290.843,584.516 282.306,601.59 z" id="boundary" inkscape:connector-curvature="0" />
	<path style="fill:none;stroke:red;stroke-width:1px;stroke-linecap:butt;stroke-linejoin:miter;stroke-opacity:1" d="M 253.281,647.69 261.818,630.616 z" id="boundary" inkscape:connector-curvature="0" />
	<path style="fill:none;stroke:red;stroke-width:1px;stroke-linecap:butt;stroke-linejoin:miter;stroke-opacity:1" d="M 282.306,601.59 275.477,618.664 z" id="boundary" inkscape:connector-curvature="0" />
	<path style="fill:none;stroke:red;stroke-width:1px;stroke-linecap:butt;stroke-linejoin:miter;stroke-opacity:1" d="M 44.9776,772.33 56.9294,758.671 z" id="boundary" inkscape:connector-curvature="0" />
	<path style="fill:none;stroke:red;stroke-width:1px;stroke-linecap:butt;stroke-linejoin:miter;stroke-opacity:1" d="M 56.9294,758.671 74.0034,755.256 z" id="boundary" inkscape:connector-curvature="0" />
	<path style="fill:none;stroke:red;stroke-width:1px;stroke-linecap:butt;stroke-linejoin:miter;stroke-opacity:1" d="M 191.814,743.305 178.155,765.501 z" id="boundary" inkscape:connector-curvature="0" />
	<path style="fill:none;stroke:red;stroke-width:1px;stroke-linecap:butt;stroke-linejoin:miter;stroke-opacity:1" d="M 106.444,768.916 91.0775,760.379 z" id="boundary" inkscape:connector-curvature="0" />
	<path style="fill:none;stroke:red;stroke-width:1px;stroke-linecap:butt;stroke-linejoin:miter;stroke-opacity:1" d="M 120.103,780.867 106.444,768.916 z" id="boundary" inkscape:connector-curvature="0" />
	<path style="fill:none;stroke:red;stroke-width:1px;stroke-linecap:butt;stroke-linejoin:miter;stroke-opacity:1" d="M 74.0034,755.256 91.0775,760.379 z" id="boundary" inkscape:connector-curvature="0" />
	<path style="fill:none;stroke:red;stroke-width:1px;stroke-linecap:butt;stroke-linejoin:miter;stroke-opacity:1" d="M 284.014,753.549 270.355,765.501 z" id="boundary" inkscape:connector-curvature="0" />
	<path style="fill:none;stroke:red;stroke-width:1px;stroke-linecap:butt;stroke-linejoin:miter;stroke-opacity:1" d="M 292.551,736.475 284.014,753.549 z" id="boundary" inkscape:connector-curvature="0" />
	<path style="fill:none;stroke:red;stroke-width:1px;stroke-linecap:butt;stroke-linejoin:miter;stroke-opacity:1" d="M 191.814,743.305 200.351,726.231 z" id="boundary" inkscape:connector-curvature="0" />
	<path style="fill:none;stroke:red;stroke-width:1px;stroke-linecap:butt;stroke-linejoin:miter;stroke-opacity:1" d="M 261.818,782.575 270.355,765.501 z" id="boundary" inkscape:connector-curvature="0" />
	<path style="fill:none;stroke:red;stroke-width:1px;stroke-linecap:butt;stroke-linejoin:miter;stroke-opacity:1" d="M 403.532,574.272 389.873,586.224 z" id="boundary" inkscape:connector-curvature="0" />
	<path style="fill:none;stroke:red;stroke-width:1px;stroke-linecap:butt;stroke-linejoin:miter;stroke-opacity:1" d="M 347.188,502.561 338.651,519.635 z" id="boundary" inkscape:connector-curvature="0" />
	<path style="fill:none;stroke:red;stroke-width:1px;stroke-linecap:butt;stroke-linejoin:miter;stroke-opacity:1" d="M 338.651,519.635 324.991,533.294 z" id="boundary" inkscape:connector-curvature="0" />
	<path style="fill:none;stroke:red;stroke-width:1px;stroke-linecap:butt;stroke-linejoin:miter;stroke-opacity:1" d="M 311.332,546.954 324.991,533.294 z" id="boundary" inkscape:connector-curvature="0" />
	<path style="fill:none;stroke:red;stroke-width:1px;stroke-linecap:butt;stroke-linejoin:miter;stroke-opacity:1" d="M 355.725,485.487 347.188,502.561 z" id="boundary" inkscape:connector-curvature="0" />
	<path style="fill:none;stroke:red;stroke-width:1px;stroke-linecap:butt;stroke-linejoin:miter;stroke-opacity:1" d="M 369.384,473.535 376.213,456.461 z" id="boundary" inkscape:connector-curvature="0" />
	<path style="fill:none;stroke:red;stroke-width:1px;stroke-linecap:butt;stroke-linejoin:miter;stroke-opacity:1" d="M 369.384,473.535 355.725,485.487 z" id="boundary" inkscape:connector-curvature="0" />
	<path style="fill:none;stroke:red;stroke-width:1px;stroke-linecap:butt;stroke-linejoin:miter;stroke-opacity:1" d="M 384.75,439.387 376.213,456.461 z" id="boundary" inkscape:connector-curvature="0" />
	<path style="fill:none;stroke:red;stroke-width:1px;stroke-linecap:butt;stroke-linejoin:miter;stroke-opacity:1" d="M 396.702,418.898 384.75,439.387 z" id="boundary" inkscape:connector-curvature="0" />
	<path style="fill:none;stroke:red;stroke-width:1px;stroke-linecap:butt;stroke-linejoin:miter;stroke-opacity:1" d="M 335.236,676.716 321.577,688.668 z" id="boundary" inkscape:connector-curvature="0" />
	<path style="fill:none;stroke:red;stroke-width:1px;stroke-linecap:butt;stroke-linejoin:miter;stroke-opacity:1" d="M 343.773,659.642 335.236,676.716 z" id="boundary" inkscape:connector-curvature="0" />
	<path style="fill:none;stroke:red;stroke-width:1px;stroke-linecap:butt;stroke-linejoin:miter;stroke-opacity:1" d="M 304.503,722.816 313.04,705.742 z" id="boundary" inkscape:connector-curvature="0" />
	<path style="fill:none;stroke:red;stroke-width:1px;stroke-linecap:butt;stroke-linejoin:miter;stroke-opacity:1" d="M 321.577,688.668 313.04,705.742 z" id="boundary" inkscape:connector-curvature="0" />
	<path style="fill:none;stroke:red;stroke-width:1px;stroke-linecap:butt;stroke-linejoin:miter;stroke-opacity:1" d="M 290.843,584.516 302.795,564.028 z" id="boundary" inkscape:connector-curvature="0" />
	<path style="fill:none;stroke:red;stroke-width:1px;stroke-linecap:butt;stroke-linejoin:miter;stroke-opacity:1" d="M 377.921,608.42 364.262,620.372 z" id="boundary" inkscape:connector-curvature="0" />
	<path style="fill:none;stroke:red;stroke-width:1px;stroke-linecap:butt;stroke-linejoin:miter;stroke-opacity:1" d="M 355.725,637.446 343.773,659.642 z" id="boundary" inkscape:connector-curvature="0" />
	<path style="fill:none;stroke:red;stroke-width:1px;stroke-linecap:butt;stroke-linejoin:miter;stroke-opacity:1" d="M 364.262,620.372 355.725,637.446 z" id="boundary" inkscape:connector-curvature="0" />
	<path style="fill:none;stroke:red;stroke-width:1px;stroke-linecap:butt;stroke-linejoin:miter;stroke-opacity:1" d="M 389.873,586.224 377.921,608.42 z" id="boundary" inkscape:connector-curvature="0" />
	<path style="fill:none;stroke:red;stroke-width:1px;stroke-linecap:butt;stroke-linejoin:miter;stroke-opacity:1" d="M 302.795,564.028 311.332,546.954 z" id="boundary" inkscape:connector-curvature="0" />
	<path style="fill:none;stroke:red;stroke-width:1px;stroke-linecap:butt;stroke-linejoin:miter;stroke-opacity:1" d="M 12.537,861.115 4,845.749 z" id="boundary" inkscape:connector-curvature="0" />
	<path style="fill:none;stroke:red;stroke-width:1px;stroke-linecap:butt;stroke-linejoin:miter;stroke-opacity:1" d="M 4,845.749 4,828.675 z" id="boundary" inkscape:connector-curvature="0" />
	<path style="fill:none;stroke:red;stroke-width:1px;stroke-linecap:butt;stroke-linejoin:miter;stroke-opacity:1" d="M 4,828.675 4,811.601 z" id="boundary" inkscape:connector-curvature="0" />
	<path style="fill:none;stroke:red;stroke-width:1px;stroke-linecap:butt;stroke-linejoin:miter;stroke-opacity:1" d="M 4,811.601 17.6592,797.941 z" id="boundary" inkscape:connector-curvature="0" />
	<path style="fill:none;stroke:red;stroke-width:1px;stroke-linecap:butt;stroke-linejoin:miter;stroke-opacity:1" d="M 31.3184,784.282 44.9776,772.33 z" id="boundary" inkscape:connector-curvature="0" />
	<path style="fill:none;stroke:red;stroke-width:1px;stroke-linecap:butt;stroke-linejoin:miter;stroke-opacity:1" d="M 21.074,876.482 12.537,861.115 z" id="boundary" inkscape:connector-curvature="0" />
	<path style="fill:none;stroke:red;stroke-width:1px;stroke-linecap:butt;stroke-linejoin:miter;stroke-opacity:1" d="M 31.3184,784.282 17.6592,797.941 z" id="boundary" inkscape:connector-curvature="0" />
	<path style="fill:none;stroke:red;stroke-width:1px;stroke-linecap:butt;stroke-linejoin:miter;stroke-opacity:1" d="M 31.3184,890.141 44.9776,902.093 z" id="boundary" inkscape:connector-curvature="0" />
	<path style="fill:none;stroke:red;stroke-width:1px;stroke-linecap:butt;stroke-linejoin:miter;stroke-opacity:1" d="M 62.0516,902.093 44.9776,902.093 z" id="boundary" inkscape:connector-curvature="0" />
	<path style="fill:none;stroke:red;stroke-width:1px;stroke-linecap:butt;stroke-linejoin:miter;stroke-opacity:1" d="M 89.3701,922.582 80.833,948.193 z" id="boundary" inkscape:connector-curvature="0" />
	<path style="fill:none;stroke:red;stroke-width:1px;stroke-linecap:butt;stroke-linejoin:miter;stroke-opacity:1" d="M 31.3184,890.141 21.074,876.482 z" id="boundary" inkscape:connector-curvature="0" />
	<path style="fill:none;stroke:red;stroke-width:1px;stroke-linecap:butt;stroke-linejoin:miter;stroke-opacity:1" d="M 62.0516,902.093 79.1256,902.093 z" id="boundary" inkscape:connector-curvature="0" />
	<path style="fill:none;stroke:red;stroke-width:1px;stroke-linecap:butt;stroke-linejoin:miter;stroke-opacity:1" d="M 80.833,948.193 89.3701,963.559 z" id="boundary" inkscape:connector-curvature="0" />
	<path style="fill:none;stroke:red;stroke-width:1px;stroke-linecap:butt;stroke-linejoin:miter;stroke-opacity:1" d="M 89.3701,922.582 96.1997,902.093 z" id="boundary" inkscape:connector-curvature="0" />
	<path style="fill:none;stroke:red;stroke-width:1px;stroke-linecap:butt;stroke-linejoin:miter;stroke-opacity:1" d="M 96.1997,902.093 121.811,978.926 z" id="boundary" inkscape:connector-curvature="0" />
	<path style="fill:none;stroke:red;stroke-width:1px;stroke-linecap:butt;stroke-linejoin:miter;stroke-opacity:1" d="M 79.1256,902.093 96.1997,902.093 z" id="boundary" inkscape:connector-curvature="0" />
	<path style="fill:none;stroke:red;stroke-width:1px;stroke-linecap:butt;stroke-linejoin:miter;stroke-opacity:1" d="M 89.3701,963.559 106.444,970.389 z" id="boundary" inkscape:connector-curvature="0" />
	<path style="fill:none;stroke:red;stroke-width:1px;stroke-linecap:butt;stroke-linejoin:miter;stroke-opacity:1" d="M 106.444,970.389 121.811,978.926 z" id="boundary" inkscape:connector-curvature="0" />
	<path style="fill:none;stroke:red;stroke-width:1px;stroke-linecap:butt;stroke-linejoin:miter;stroke-opacity:1" d="M 121.811,978.926 137.177,987.463 z" id="boundary" inkscape:connector-curvature="0" />
	<path style="fill:none;stroke:red;stroke-width:1px;stroke-linecap:butt;stroke-linejoin:miter;stroke-opacity:1" d="M 120.103,780.867 135.47,789.404 z" id="boundary" inkscape:connector-curvature="0" />
	<path style="fill:none;stroke:red;stroke-width:1px;stroke-linecap:butt;stroke-linejoin:miter;stroke-opacity:1" d="M 167.91,780.867 152.544,789.404 z" id="boundary" inkscape:connector-curvature="0" />
	<path style="fill:none;stroke:red;stroke-width:1px;stroke-linecap:butt;stroke-linejoin:miter;stroke-opacity:1" d="M 152.544,789.404 135.47,789.404 z" id="boundary" inkscape:connector-curvature="0" />
	<path style="fill:none;stroke:red;stroke-width:1px;stroke-linecap:butt;stroke-linejoin:miter;stroke-opacity:1" d="M 227.67,833.797 227.67,850.871 z" id="boundary" inkscape:connector-curvature="0" />
	<path style="fill:none;stroke:red;stroke-width:1px;stroke-linecap:butt;stroke-linejoin:miter;stroke-opacity:1" d="M 227.67,833.797 236.207,816.723 z" id="boundary" inkscape:connector-curvature="0" />
	<path style="fill:none;stroke:red;stroke-width:1px;stroke-linecap:butt;stroke-linejoin:miter;stroke-opacity:1" d="M 227.67,850.871 231.084,867.945 z" id="boundary" inkscape:connector-curvature="0" />
	<path style="fill:none;stroke:red;stroke-width:1px;stroke-linecap:butt;stroke-linejoin:miter;stroke-opacity:1" d="M 244.744,900.386 236.207,885.019 z" id="boundary" inkscape:connector-curvature="0" />
	<path style="fill:none;stroke:red;stroke-width:1px;stroke-linecap:butt;stroke-linejoin:miter;stroke-opacity:1" d="M 167.91,780.867 178.155,765.501 z" id="boundary" inkscape:connector-curvature="0" />
	<path style="fill:none;stroke:red;stroke-width:1px;stroke-linecap:butt;stroke-linejoin:miter;stroke-opacity:1" d="M 236.207,816.723 249.866,804.771 z" id="boundary" inkscape:connector-curvature="0" />
	<path style="fill:none;stroke:red;stroke-width:1px;stroke-linecap:butt;stroke-linejoin:miter;stroke-opacity:1" d="M 236.207,885.019 231.084,867.945 z" id="boundary" inkscape:connector-curvature="0" />
	<path style="fill:none;stroke:red;stroke-width:1px;stroke-linecap:butt;stroke-linejoin:miter;stroke-opacity:1" d="M 249.866,804.771 261.818,782.575 z" id="boundary" inkscape:connector-curvature="0" />
	<path style="fill:none;stroke:red;stroke-width:1px;stroke-linecap:butt;stroke-linejoin:miter;stroke-opacity:1" d="M 202.059,978.926 186.692,987.463 z" id="boundary" inkscape:connector-curvature="0" />
	<path style="fill:none;stroke:red;stroke-width:1px;stroke-linecap:butt;stroke-linejoin:miter;stroke-opacity:1" d="M 186.692,987.463 171.325,996 z" id="boundary" inkscape:connector-curvature="0" />
	<path style="fill:none;stroke:red;stroke-width:1px;stroke-linecap:butt;stroke-linejoin:miter;stroke-opacity:1" d="M 171.325,996 154.251,994.293 z" id="boundary" inkscape:connector-curvature="0" />
	<path style="fill:none;stroke:red;stroke-width:1px;stroke-linecap:butt;stroke-linejoin:miter;stroke-opacity:1" d="M 154.251,994.293 137.177,987.463 z" id="boundary" inkscape:connector-curvature="0" />
	<path style="fill:none;stroke:red;stroke-width:1px;stroke-linecap:butt;stroke-linejoin:miter;stroke-opacity:1" d="M 202.059,978.926 219.133,970.389 z" id="boundary" inkscape:connector-curvature="0" />
	<path style="fill:none;stroke:red;stroke-width:1px;stroke-linecap:butt;stroke-linejoin:miter;stroke-opacity:1" d="M 232.792,958.437 219.133,970.389 z" id="boundary" inkscape:connector-curvature="0" />
	<path style="fill:none;stroke:red;stroke-width:1px;stroke-linecap:butt;stroke-linejoin:miter;stroke-opacity:1" d="M 244.744,917.46 244.744,934.534 z" id="boundary" inkscape:connector-curvature="0" />
	<path style="fill:none;stroke:red;stroke-width:1px;stroke-linecap:butt;stroke-linejoin:miter;stroke-opacity:1" d="M 244.744,934.534 232.792,958.437 z" id="boundary" inkscape:connector-curvature="0" />
	<path style="fill:none;stroke:red;stroke-width:1px;stroke-linecap:butt;stroke-linejoin:miter;stroke-opacity:1" d="M 244.744,917.46 244.744,900.386 z" id="boundary" inkscape:connector-curvature="0" />
	<path style="fill:none;stroke:red;stroke-width:1px;stroke-linecap:butt;stroke-linejoin:miter;stroke-opacity:1" d="M 569.15,7.4148 586.224,4 z" id="boundary" inkscape:connector-curvature="0" />
	<path style="fill:none;stroke:red;stroke-width:1px;stroke-linecap:butt;stroke-linejoin:miter;stroke-opacity:1" d="M 557.198,21.074 569.15,7.4148 z" id="boundary" inkscape:connector-curvature="0" />
	<path style="fill:none;stroke:red;stroke-width:1px;stroke-linecap:butt;stroke-linejoin:miter;stroke-opacity:1" d="M 557.198,21.074 543.539,33.0258 z" id="boundary" inkscape:connector-curvature="0" />
	<path style="fill:none;stroke:red;stroke-width:1px;stroke-linecap:butt;stroke-linejoin:miter;stroke-opacity:1" d="M 586.224,4 603.298,4 z" id="boundary" inkscape:connector-curvature="0" />
	<path style="fill:none;stroke:red;stroke-width:1px;stroke-linecap:butt;stroke-linejoin:miter;stroke-opacity:1" d="M 637.446,4 654.52,4 z" id="boundary" inkscape:connector-curvature="0" />
	<path style="fill:none;stroke:red;stroke-width:1px;stroke-linecap:butt;stroke-linejoin:miter;stroke-opacity:1" d="M 654.52,4 668.179,14.2444 z" id="boundary" inkscape:connector-curvature="0" />
	<path style="fill:none;stroke:red;stroke-width:1px;stroke-linecap:butt;stroke-linejoin:miter;stroke-opacity:1" d="M 620.372,4 637.446,4 z" id="boundary" inkscape:connector-curvature="0" />
	<path style="fill:none;stroke:red;stroke-width:1px;stroke-linecap:butt;stroke-linejoin:miter;stroke-opacity:1" d="M 603.298,4 620.372,4 z" id="boundary" inkscape:connector-curvature="0" />
	<path style="fill:none;stroke:red;stroke-width:1px;stroke-linecap:butt;stroke-linejoin:miter;stroke-opacity:1" d="M 507.683,77.4182 516.22,60.3442 z" id="boundary" inkscape:connector-curvature="0" />
	<path style="fill:none;stroke:red;stroke-width:1px;stroke-linecap:butt;stroke-linejoin:miter;stroke-opacity:1" d="M 507.683,94.4923 516.22,109.859 z" id="boundary" inkscape:connector-curvature="0" />
	<path style="fill:none;stroke:red;stroke-width:1px;stroke-linecap:butt;stroke-linejoin:miter;stroke-opacity:1" d="M 507.683,94.4923 507.683,77.4182 z" id="boundary" inkscape:connector-curvature="0" />
	<path style="fill:none;stroke:red;stroke-width:1px;stroke-linecap:butt;stroke-linejoin:miter;stroke-opacity:1" d="M 524.757,125.225 516.22,109.859 z" id="boundary" inkscape:connector-curvature="0" />
	<path style="fill:none;stroke:red;stroke-width:1px;stroke-linecap:butt;stroke-linejoin:miter;stroke-opacity:1" d="M 516.22,60.3442 529.88,46.685 z" id="boundary" inkscape:connector-curvature="0" />
	<path style="fill:none;stroke:red;stroke-width:1px;stroke-linecap:butt;stroke-linejoin:miter;stroke-opacity:1" d="M 529.88,46.685 543.539,33.0258 z" id="boundary" inkscape:connector-curvature="0" />
	<path style="fill:none;stroke:red;stroke-width:1px;stroke-linecap:butt;stroke-linejoin:miter;stroke-opacity:1" d="M 533.294,140.592 524.757,125.225 z" id="boundary" inkscape:connector-curvature="0" />
	<path style="fill:none;stroke:red;stroke-width:1px;stroke-linecap:butt;stroke-linejoin:miter;stroke-opacity:1" d="M 533.294,140.592 541.831,155.959 z" id="boundary" inkscape:connector-curvature="0" />
	<path style="fill:none;stroke:red;stroke-width:1px;stroke-linecap:butt;stroke-linejoin:miter;stroke-opacity:1" d="M 541.831,155.959 541.831,173.033 z" id="boundary" inkscape:connector-curvature="0" />
	<path style="fill:none;stroke:red;stroke-width:1px;stroke-linecap:butt;stroke-linejoin:miter;stroke-opacity:1" d="M 538.417,200.351 541.831,173.033 z" id="boundary" inkscape:connector-curvature="0" />
	<path style="fill:none;stroke:red;stroke-width:1px;stroke-linecap:butt;stroke-linejoin:miter;stroke-opacity:1" d="M 538.417,200.351 524.757,214.01 z" id="boundary" inkscape:connector-curvature="0" />
	<path style="fill:none;stroke:red;stroke-width:1px;stroke-linecap:butt;stroke-linejoin:miter;stroke-opacity:1" d="M 668.179,14.2444 680.131,27.9036 z" id="boundary" inkscape:connector-curvature="0" />
	<path style="fill:none;stroke:red;stroke-width:1px;stroke-linecap:butt;stroke-linejoin:miter;stroke-opacity:1" d="M 680.131,27.9036 688.668,43.2702 z" id="boundary" inkscape:connector-curvature="0" />
	<path style="fill:none;stroke:red;stroke-width:1px;stroke-linecap:butt;stroke-linejoin:miter;stroke-opacity:1" d="M 688.668,43.2702 688.668,60.3442 z" id="boundary" inkscape:connector-curvature="0" />
	<path style="fill:none;stroke:red;stroke-width:1px;stroke-linecap:butt;stroke-linejoin:miter;stroke-opacity:1" d="M 714.279,80.833 697.205,75.7108 z" id="boundary" inkscape:connector-curvature="0" />
	<path style="fill:none;stroke:red;stroke-width:1px;stroke-linecap:butt;stroke-linejoin:miter;stroke-opacity:1" d="M 697.205,75.7108 688.668,60.3442 z" id="boundary" inkscape:connector-curvature="0" />
	<path style="fill:none;stroke:red;stroke-width:1px;stroke-linecap:butt;stroke-linejoin:miter;stroke-opacity:1" d="M 714.279,80.833 731.353,80.833 z" id="boundary" inkscape:connector-curvature="0" />
	<path style="fill:none;stroke:red;stroke-width:1px;stroke-linecap:butt;stroke-linejoin:miter;stroke-opacity:1" d="M 777.453,99.6145 763.793,89.3701 z" id="boundary" inkscape:connector-curvature="0" />
	<path style="fill:none;stroke:red;stroke-width:1px;stroke-linecap:butt;stroke-linejoin:miter;stroke-opacity:1" d="M 731.353,80.833 748.427,80.833 z" id="boundary" inkscape:connector-curvature="0" />
	<path style="fill:none;stroke:red;stroke-width:1px;stroke-linecap:butt;stroke-linejoin:miter;stroke-opacity:1" d="M 748.427,80.833 763.793,89.3701 z" id="boundary" inkscape:connector-curvature="0" />
	<path style="fill:none;stroke:red;stroke-width:1px;stroke-linecap:butt;stroke-linejoin:miter;stroke-opacity:1" d="M 777.453,200.351 760.379,202.059 z" id="boundary" inkscape:connector-curvature="0" />
	<path style="fill:none;stroke:red;stroke-width:1px;stroke-linecap:butt;stroke-linejoin:miter;stroke-opacity:1" d="M 710.864,210.596 693.79,210.596 z" id="boundary" inkscape:connector-curvature="0" />
	<path style="fill:none;stroke:red;stroke-width:1px;stroke-linecap:butt;stroke-linejoin:miter;stroke-opacity:1" d="M 760.379,202.059 743.305,202.059 z" id="boundary" inkscape:connector-curvature="0" />
	<path style="fill:none;stroke:red;stroke-width:1px;stroke-linecap:butt;stroke-linejoin:miter;stroke-opacity:1" d="M 727.938,210.596 743.305,202.059 z" id="boundary" inkscape:connector-curvature="0" />
	<path style="fill:none;stroke:red;stroke-width:1px;stroke-linecap:butt;stroke-linejoin:miter;stroke-opacity:1" d="M 777.453,99.6145 791.112,111.566 z" id="boundary" inkscape:connector-curvature="0" />
	<path style="fill:none;stroke:red;stroke-width:1px;stroke-linecap:butt;stroke-linejoin:miter;stroke-opacity:1" d="M 791.112,111.566 791.112,128.64 z" id="boundary" inkscape:connector-curvature="0" />
	<path style="fill:none;stroke:red;stroke-width:1px;stroke-linecap:butt;stroke-linejoin:miter;stroke-opacity:1" d="M 794.527,193.522 777.453,200.351 z" id="boundary" inkscape:connector-curvature="0" />
	<path style="fill:none;stroke:red;stroke-width:1px;stroke-linecap:butt;stroke-linejoin:miter;stroke-opacity:1" d="M 799.649,144.007 791.112,128.64 z" id="boundary" inkscape:connector-curvature="0" />
	<path style="fill:none;stroke:red;stroke-width:1px;stroke-linecap:butt;stroke-linejoin:miter;stroke-opacity:1" d="M 808.186,159.373 808.186,176.448 z" id="boundary" inkscape:connector-curvature="0" />
	<path style="fill:none;stroke:red;stroke-width:1px;stroke-linecap:butt;stroke-linejoin:miter;stroke-opacity:1" d="M 808.186,176.448 794.527,193.522 z" id="boundary" inkscape:connector-curvature="0" />
	<path style="fill:none;stroke:red;stroke-width:1px;stroke-linecap:butt;stroke-linejoin:miter;stroke-opacity:1" d="M 799.649,144.007 808.186,159.373 z" id="boundary" inkscape:connector-curvature="0" />
	<path style="fill:none;stroke:red;stroke-width:1px;stroke-linecap:butt;stroke-linejoin:miter;stroke-opacity:1" d="M 693.79,210.596 678.423,219.133 z" id="boundary" inkscape:connector-curvature="0" />
	<path style="fill:none;stroke:red;stroke-width:1px;stroke-linecap:butt;stroke-linejoin:miter;stroke-opacity:1" d="M 418.898,388.165 427.435,371.091 z" id="boundary" inkscape:connector-curvature="0" />
	<path style="fill:none;stroke:red;stroke-width:1px;stroke-linecap:butt;stroke-linejoin:miter;stroke-opacity:1" d="M 439.387,350.602 427.435,371.091 z" id="boundary" inkscape:connector-curvature="0" />
	<path style="fill:none;stroke:red;stroke-width:1px;stroke-linecap:butt;stroke-linejoin:miter;stroke-opacity:1" d="M 447.924,333.528 439.387,350.602 z" id="boundary" inkscape:connector-curvature="0" />
	<path style="fill:none;stroke:red;stroke-width:1px;stroke-linecap:butt;stroke-linejoin:miter;stroke-opacity:1" d="M 410.361,405.239 418.898,388.165 z" id="boundary" inkscape:connector-curvature="0" />
	<path style="fill:none;stroke:red;stroke-width:1px;stroke-linecap:butt;stroke-linejoin:miter;stroke-opacity:1" d="M 410.361,405.239 396.702,418.898 z" id="boundary" inkscape:connector-curvature="0" />
	<path style="fill:none;stroke:red;stroke-width:1px;stroke-linecap:butt;stroke-linejoin:miter;stroke-opacity:1" d="M 509.391,406.947 500.854,424.021 z" id="boundary" inkscape:connector-curvature="0" />
	<path style="fill:none;stroke:red;stroke-width:1px;stroke-linecap:butt;stroke-linejoin:miter;stroke-opacity:1" d="M 473.535,299.38 482.072,282.306 z" id="boundary" inkscape:connector-curvature="0" />
	<path style="fill:none;stroke:red;stroke-width:1px;stroke-linecap:butt;stroke-linejoin:miter;stroke-opacity:1" d="M 495.731,268.647 482.072,282.306 z" id="boundary" inkscape:connector-curvature="0" />
	<path style="fill:none;stroke:red;stroke-width:1px;stroke-linecap:butt;stroke-linejoin:miter;stroke-opacity:1" d="M 504.269,251.573 495.731,268.647 z" id="boundary" inkscape:connector-curvature="0" />
	<path style="fill:none;stroke:red;stroke-width:1px;stroke-linecap:butt;stroke-linejoin:miter;stroke-opacity:1" d="M 473.535,299.38 461.583,319.869 z" id="boundary" inkscape:connector-curvature="0" />
	<path style="fill:none;stroke:red;stroke-width:1px;stroke-linecap:butt;stroke-linejoin:miter;stroke-opacity:1" d="M 461.583,319.869 447.924,333.528 z" id="boundary" inkscape:connector-curvature="0" />
	<path style="fill:none;stroke:red;stroke-width:1px;stroke-linecap:butt;stroke-linejoin:miter;stroke-opacity:1" d="M 437.68,523.05 449.632,509.391 z" id="boundary" inkscape:connector-curvature="0" />
	<path style="fill:none;stroke:red;stroke-width:1px;stroke-linecap:butt;stroke-linejoin:miter;stroke-opacity:1" d="M 429.143,540.124 437.68,523.05 z" id="boundary" inkscape:connector-curvature="0" />
	<path style="fill:none;stroke:red;stroke-width:1px;stroke-linecap:butt;stroke-linejoin:miter;stroke-opacity:1" d="M 403.532,574.272 415.484,552.076 z" id="boundary" inkscape:connector-curvature="0" />
	<path style="fill:none;stroke:red;stroke-width:1px;stroke-linecap:butt;stroke-linejoin:miter;stroke-opacity:1" d="M 415.484,552.076 429.143,540.124 z" id="boundary" inkscape:connector-curvature="0" />
	<path style="fill:none;stroke:red;stroke-width:1px;stroke-linecap:butt;stroke-linejoin:miter;stroke-opacity:1" d="M 480.365,463.291 488.902,446.217 z" id="boundary" inkscape:connector-curvature="0" />
	<path style="fill:none;stroke:red;stroke-width:1px;stroke-linecap:butt;stroke-linejoin:miter;stroke-opacity:1" d="M 458.169,492.317 466.706,475.243 z" id="boundary" inkscape:connector-curvature="0" />
	<path style="fill:none;stroke:red;stroke-width:1px;stroke-linecap:butt;stroke-linejoin:miter;stroke-opacity:1" d="M 466.706,475.243 480.365,463.291 z" id="boundary" inkscape:connector-curvature="0" />
	<path style="fill:none;stroke:red;stroke-width:1px;stroke-linecap:butt;stroke-linejoin:miter;stroke-opacity:1" d="M 458.169,492.317 449.632,509.391 z" id="boundary" inkscape:connector-curvature="0" />
	<path style="fill:none;stroke:red;stroke-width:1px;stroke-linecap:butt;stroke-linejoin:miter;stroke-opacity:1" d="M 488.902,446.217 500.854,424.021 z" id="boundary" inkscape:connector-curvature="0" />
	<path style="fill:none;stroke:red;stroke-width:1px;stroke-linecap:butt;stroke-linejoin:miter;stroke-opacity:1" d="M 516.22,231.084 524.757,214.01 z" id="boundary" inkscape:connector-curvature="0" />
	<path style="fill:none;stroke:red;stroke-width:1px;stroke-linecap:butt;stroke-linejoin:miter;stroke-opacity:1" d="M 504.269,251.573 516.22,231.084 z" id="boundary" inkscape:connector-curvature="0" />
	<path style="fill:none;stroke:red;stroke-width:1px;stroke-linecap:butt;stroke-linejoin:miter;stroke-opacity:1" d="M 620.372,253.281 608.42,266.94 z" id="boundary" inkscape:connector-curvature="0" />
	<path style="fill:none;stroke:red;stroke-width:1px;stroke-linecap:butt;stroke-linejoin:miter;stroke-opacity:1" d="M 620.372,253.281 628.909,236.207 z" id="boundary" inkscape:connector-curvature="0" />
	<path style="fill:none;stroke:red;stroke-width:1px;stroke-linecap:butt;stroke-linejoin:miter;stroke-opacity:1" d="M 628.909,236.207 645.983,227.67 z" id="boundary" inkscape:connector-curvature="0" />
	<path style="fill:none;stroke:red;stroke-width:1px;stroke-linecap:butt;stroke-linejoin:miter;stroke-opacity:1" d="M 710.864,210.596 727.938,210.596 z" id="boundary" inkscape:connector-curvature="0" />
	<path style="fill:none;stroke:red;stroke-width:1px;stroke-linecap:butt;stroke-linejoin:miter;stroke-opacity:1" d="M 678.423,219.133 663.057,227.67 z" id="boundary" inkscape:connector-curvature="0" />
	<path style="fill:none;stroke:red;stroke-width:1px;stroke-linecap:butt;stroke-linejoin:miter;stroke-opacity:1" d="M 663.057,227.67 645.983,227.67 z" id="boundary" inkscape:connector-curvature="0" />
	<path style="fill:none;stroke:red;stroke-width:1px;stroke-linecap:butt;stroke-linejoin:miter;stroke-opacity:1" d="M 548.661,360.847 557.198,343.773 z" id="boundary" inkscape:connector-curvature="0" />
	<path style="fill:none;stroke:red;stroke-width:1px;stroke-linecap:butt;stroke-linejoin:miter;stroke-opacity:1" d="M 548.661,360.847 535.002,372.799 z" id="boundary" inkscape:connector-curvature="0" />
	<path style="fill:none;stroke:red;stroke-width:1px;stroke-linecap:butt;stroke-linejoin:miter;stroke-opacity:1" d="M 523.05,394.995 509.391,406.947 z" id="boundary" inkscape:connector-curvature="0" />
	<path style="fill:none;stroke:red;stroke-width:1px;stroke-linecap:butt;stroke-linejoin:miter;stroke-opacity:1" d="M 535.002,372.799 523.05,394.995 z" id="boundary" inkscape:connector-curvature="0" />
	<path style="fill:none;stroke:red;stroke-width:1px;stroke-linecap:butt;stroke-linejoin:miter;stroke-opacity:1" d="M 599.883,284.014 608.42,266.94 z" id="boundary" inkscape:connector-curvature="0" />
	<path style="fill:none;stroke:red;stroke-width:1px;stroke-linecap:butt;stroke-linejoin:miter;stroke-opacity:1" d="M 577.687,313.04 591.346,301.088 z" id="boundary" inkscape:connector-curvature="0" />
	<path style="fill:none;stroke:red;stroke-width:1px;stroke-linecap:butt;stroke-linejoin:miter;stroke-opacity:1" d="M 577.687,313.04 565.735,326.699 z" id="boundary" inkscape:connector-curvature="0" />
	<path style="fill:none;stroke:red;stroke-width:1px;stroke-linecap:butt;stroke-linejoin:miter;stroke-opacity:1" d="M 599.883,284.014 591.346,301.088 z" id="boundary" inkscape:connector-curvature="0" />
	<path style="fill:none;stroke:red;stroke-width:1px;stroke-linecap:butt;stroke-linejoin:miter;stroke-opacity:1" d="M 557.198,343.773 565.735,326.699 z" id="boundary" inkscape:connector-curvature="0" />
	<circle cx="4" cy="811.601" r="4" fill="#0" id="circle0"/>
	<circle cx="4" cy="828.675" r="4" fill="#0" id="circle1"/>
	<circle cx="4" cy="845.749" r="4" fill="#0" id="circle2"/>
	<circle cx="12.537" cy="861.115" r="4" fill="#0" id="circle3"/>
	<circle cx="17.6592" cy="797.941" r="4" fill="#0" id="circle4"/>
	<circle cx="21.074" cy="876.482" r="4" fill="#0" id="circle5"/>
	<circle cx="31.3184" cy="784.282" r="4" fill="#0" id="circle6"/>
	<circle cx="31.3184" cy="890.141" r="4" fill="#0" id="circle7"/>
	<circle cx="44.9776" cy="772.33" r="4" fill="#0" id="circle8"/>
	<circle cx="44.9776" cy="902.093" r="4" fill="#0" id="circle9"/>
	<circle cx="56.9294" cy="758.671" r="4" fill="#0" id="circle10"/>
	<circle cx="62.0516" cy="902.093" r="4" fill="#0" id="circle11"/>
	<circle cx="74.0034" cy="755.256" r="4" fill="#0" id="circle12"/>
	<circle cx="79.1256" cy="902.093" r="4" fill="#0" id="circle13"/>
	<circle cx="80.833" cy="948.193" r="4" fill="#0" id="circle14"/>
	<circle cx="89.3701" cy="922.582" r="4" fill="#0" id="circle15"/>
	<circle cx="89.3701" cy="963.559" r="4" fill="#0" id="circle16"/>
	<circle cx="91.0775" cy="760.379" r="4" fill="#0" id="circle17"/>
	<circle cx="96.1997" cy="902.093" r="4" fill="#0" id="circle18"/>
	<circle cx="106.444" cy="768.916" r="4" fill="#0" id="circle19"/>
	<circle cx="106.444" cy="970.389" r="4" fill="#0" id="circle20"/>
	<circle cx="120.103" cy="780.867" r="4" fill="#0" id="circle21"/>
	<circle cx="121.811" cy="978.926" r="4" fill="#0" id="circle22"/>
	<circle cx="135.47" cy="789.404" r="4" fill="#0" id="circle23"/>
	<circle cx="137.177" cy="987.463" r="4" fill="#0" id="circle24"/>
	<circle cx="152.544" cy="789.404" r="4" fill="#0" id="circle25"/>
	<circle cx="154.251" cy="994.293" r="4" fill="#0" id="circle26"/>
	<circle cx="167.91" cy="780.867" r="4" fill="#0" id="circle27"/>
	<circle cx="171.325" cy="996" r="4" fill="#0" id="circle28"/>
	<circle cx="178.155" cy="765.501" r="4" fill="#0" id="circle29"/>
	<circle cx="186.692" cy="987.463" r="4" fill="#0" id="circle30"/>
	<circle cx="191.814" cy="743.305" r="4" fill="#0" id="circle31"/>
	<circle cx="200.351" cy="726.231" r="4" fill="#0" id="circle32"/>
	<circle cx="202.059" cy="978.926" r="4" fill="#0" id="circle33"/>
	<circle cx="214.01" cy="712.571" r="4" fill="#0" id="circle34"/>
	<circle cx="219.133" cy="970.389" r="4" fill="#0" id="circle35"/>
	<circle cx="222.547" cy="695.497" r="4" fill="#0" id="circle36"/>
	<circle cx="227.67" cy="833.797" r="4" fill="#0" id="circle37"/>
	<circle cx="227.67" cy="850.871" r="4" fill="#0" id="circle38"/>
	<circle cx="231.084" cy="678.423" r="4" fill="#0" id="circle39"/>
	<circle cx="231.084" cy="867.945" r="4" fill="#0" id="circle40"/>
	<circle cx="232.792" cy="958.437" r="4" fill="#0" id="circle41"/>
	<circle cx="236.207" cy="816.723" r="4" fill="#0" id="circle42"/>
	<circle cx="236.207" cy="885.019" r="4" fill="#0" id="circle43"/>
	<circle cx="244.744" cy="664.764" r="4" fill="#0" id="circle44"/>
	<circle cx="244.744" cy="900.386" r="4" fill="#0" id="circle45"/>
	<circle cx="244.744" cy="917.46" r="4" fill="#0" id="circle46"/>
	<circle cx="244.744" cy="934.534" r="4" fill="#0" id="circle47"/>
	<circle cx="249.866" cy="804.771" r="4" fill="#0" id="circle48"/>
	<circle cx="253.281" cy="647.69" r="4" fill="#0" id="circle49"/>
	<circle cx="261.818" cy="630.616" r="4" fill="#0" id="circle50"/>
	<circle cx="261.818" cy="782.575" r="4" fill="#0" id="circle51"/>
	<circle cx="270.355" cy="765.501" r="4" fill="#0" id="circle52"/>
	<circle cx="275.477" cy="618.664" r="4" fill="#0" id="circle53"/>
	<circle cx="282.306" cy="601.59" r="4" fill="#0" id="circle54"/>
	<circle cx="284.014" cy="753.549" r="4" fill="#0" id="circle55"/>
	<circle cx="290.843" cy="584.516" r="4" fill="#0" id="circle56"/>
	<circle cx="292.551" cy="736.475" r="4" fill="#0" id="circle57"/>
	<circle cx="302.795" cy="564.028" r="4" fill="#0" id="circle58"/>
	<circle cx="304.503" cy="722.816" r="4" fill="#0" id="circle59"/>
	<circle cx="311.332" cy="546.954" r="4" fill="#0" id="circle60"/>
	<circle cx="313.04" cy="705.742" r="4" fill="#0" id="circle61"/>
	<circle cx="321.577" cy="688.668" r="4" fill="#0" id="circle62"/>
	<circle cx="324.991" cy="533.294" r="4" fill="#0" id="circle63"/>
	<circle cx="335.236" cy="676.716" r="4" fill="#0" id="circle64"/>
	<circle cx="338.651" cy="519.635" r="4" fill="#0" id="circle65"/>
	<circle cx="343.773" cy="659.642" r="4" fill="#0" id="circle66"/>
	<circle cx="347.188" cy="502.561" r="4" fill="#0" id="circle67"/>
	<circle cx="355.725" cy="485.487" r="4" fill="#0" id="circle68"/>
	<circle cx="355.725" cy="637.446" r="4" fill="#0" id="circle69"/>
	<circle cx="364.262" cy="620.372" r="4" fill="#0" id="circle70"/>
	<circle cx="369.384" cy="473.535" r="4" fill="#0" id="circle71"/>
	<circle cx="376.213" cy="456.461" r="4" fill="#0" id="circle72"/>
	<circle cx="377.921" cy="608.42" r="4" fill="#0" id="circle73"/>
	<circle cx="384.75" cy="439.387" r="4" fill="#0" id="circle74"/>
	<circle cx="389.873" cy="586.224" r="4" fill="#0" id="circle75"/>
	<circle cx="396.702" cy="418.898" r="4" fill="#0" id="circle76"/>
	<circle cx="403.532" cy="574.272" r="4" fill="#0" id="circle77"/>
	<circle cx="410.361" cy="405.239" r="4" fill="#0" id="circle78"/>
	<circle cx="415.484" cy="552.076" r="4" fill="#0" id="circle79"/>
	<circle cx="418.898" cy="388.165" r="4" fill="#0" id="circle80"/>
	<circle cx="427.435" cy="371.091" r="4" fill="#0" id="circle81"/>
	<circle cx="429.143" cy="540.124" r="4" fill="#0" id="circle82"/>
	<circle cx="437.68" cy="523.05" r="4" fill="#0" id="circle83"/>
	<circle cx="439.387" cy="350.602" r="4" fill="#0" id="circle84"/>
	<circle cx="447.924" cy="333.528" r="4" fill="#0" id="circle85"/>
	<circle cx="449.632" cy="509.391" r="4" fill="#0" id="circle86"/>
	<circle cx="458.169" cy="492.317" r="4" fill="#0" id="circle87"/>
	<circle cx="461.583" cy="319.869" r="4" fill="#0" id="circle88"/>
	<circle cx="466.706" cy="475.243" r="4" fill="#0" id="circle89"/>
	<circle cx="473.535" cy="299.38" r="4" fill="#0" id="circle90"/>
	<circle cx="480.365" cy="463.291" r="4" fill="#0" id="circle91"/>
	<circle cx="482.072" cy="282.306" r="4" fill="#0" id="circle92"/>
	<circle cx="488.902" cy="446.217" r="4" fill="#0" id="circle93"/>
	<circle cx="495.731" cy="268.647" r="4" fill="#0" id="circle94"/>
	<circle cx="500.854" cy="424.021" r="4" fill="#0" id="circle95"/>
	<circle cx="504.269" cy="251.573" r="4" fill="#0" id="circle96"/>
	<circle cx="507.683" cy="77.4182" r="4" fill="#0" id="circle97"/>
	<circle cx="507.683" cy="94.4923" r="4" fill="#0" id="circle98"/>
	<circle cx="509.391" cy="406.947" r="4" fill="#0" id="circle99"/>
	<circle cx="516.22" cy="60.3442" r="4" fill="#0" id="circle100"/>
	<circle cx="516.22" cy="109.859" r="4" fill="#0" id="circle101"/>
	<circle cx="516.22" cy="231.084" r="4" fill="#0" id="circle102"/>
	<circle cx="523.05" cy="394.995" r="4" fill="#0" id="circle103"/>
	<circle cx="524.757" cy="125.225" r="4" fill="#0" id="circle104"/>
	<circle cx="524.757" cy="214.01" r="4" fill="#0" id="circle105"/>
	<circle cx="529.88" cy="46.685" r="4" fill="#0" id="circle106"/>
	<circle cx="533.294" cy="140.592" r="4" fill="#0" id="circle107"/>
	<circle cx="535.002" cy="372.799" r="4" fill="#0" id="circle108"/>
	<circle cx="538.417" cy="200.351" r="4" fill="#0" id="circle109"/>
	<circle cx="541.831" cy="155.959" r="4" fill="#0" id="circle110"/>
	<circle cx="541.831" cy="173.033" r="4" fill="#0" id="circle111"/>
	<circle cx="543.539" cy="33.0258" r="4" fill="#0" id="circle112"/>
	<circle cx="548.661" cy="360.847" r="4" fill="#0" id="circle113"/>
	<circle cx="557.198" cy="21.074" r="4" fill="#0" id="circle114"/>
	<circle cx="557.198" cy="343.773" r="4" fill="#0" id="circle115"/>
	<circle cx="565.735" cy="326.699" r="4" fill="#0" id="circle116"/>
	<circle cx="569.15" cy="7.4148" r="4" fill="#0" id="circle117"/>
	<circle cx="577.687" cy="313.04" r="4" fill="#0" id="circle118"/>
	<circle cx="586.224" cy="4" r="4" fill="#0" id="circle119"/>
	<circle cx="591.346" cy="301.088" r="4" fill="#0" id="circle120"/>
	<circle cx="599.883" cy="284.014" r="4" fill="#0" id="circle121"/>
	<circle cx="603.298" cy="4" r="4" fill="#0" id="circle122"/>
	<circle cx="608.42" cy="266.94" r="4" fill="#0" id="circle123"/>
	<circle cx="620.372" cy="4" r="4" fill="#0" id="circle124"/>
	<circle cx="620.372" cy="253.281" r="4" fill="#0" id="circle125"/>
	<circle cx="628.909" cy="236.207" r="4" fill="#0" id="circle126"/>
	<circle cx="637.446" cy="4" r="4" fill="#0" id="circle127"/>
	<circle cx="645.983" cy="227.67" r="4" fill="#0" id="circle128"/>
	<circle cx="654.52" cy="4" r="4" fill="#0" id="circle129"/>
	<circle cx="663.057" cy="227.67" r="4" fill="#0" id="circle130"/>
	<circle cx="668.179" cy="14.2444" r="4" fill="#0" id="circle131"/>
	<circle cx="678.423" cy="219.133" r="4" fill="#0" id="circle132"/>
	<circle cx="680.131" cy="27.9036" r="4" fill="#0" id="circle133"/>
	<circle cx="688.668" cy="43.2702" r="4" fill="#0" id="circle134"/>
	<circle cx="688.668" cy="60.3442" r="4" fill="#0" id="circle135"/>
	<circle cx="693.79" cy="210.596" r="4" fill="#0" id="circle136"/>
	<circle cx="697.205" cy="75.7108" r="4" fill="#0" id="circle137"/>
	<circle cx="710.864" cy="210.596" r="4" fill="#0" id="circle138"/>
	<circle cx="714.279" cy="80.833" r="4" fill="#0" id="circle139"/>
	<circle cx="727.938" cy="210.596" r="4" fill="#0" id="circle140"/>
	<circle cx="731.353" cy="80.833" r="4" fill="#0" id="circle141"/>
	<circle cx="743.305" cy="202.059" r="4" fill="#0" id="circle142"/>
	<circle cx="748.427" cy="80.833" r="4" fill="#0" id="circle143"/>
	<circle cx="760.379" cy="202.059" r="4" fill="#0" id="circle144"/>
	<circle cx="763.793" cy="89.3701" r="4" fill="#0" id="circle145"/>
	<circle cx="777.453" cy="99.6145" r="4" fill="#0" id="circle146"/>
	<circle cx="777.453" cy="200.351" r="4" fill="#0" id="circle147"/>
	<circle cx="791.112" cy="111.566" r="4" fill="#0" id="circle148"/>
	<circle cx="791.112" cy="128.64" r="4" fill="#0" id="circle149"/>
	<circle cx="794.527" cy="193.522" r="4" fill="#0" id="circle150"/>
	<circle cx="799.649" cy="144.007" r="4" fill="#0" id="circle151"/>
	<circle cx="808.186" cy="159.373" r="4" fill="#0" id="circle152"/>
	<circle cx="808.186" cy="176.448" r="4" fill="#0" id="circle153"/>
	</g>
</svg>