<?xml version="1.0" encoding="UTF-8" standalone="no"?>
<!-- Created with CurveBenchmark -->
<svg
	xmlns:dc="http://purl.org/dc/elements/1.1/"
	xmlns:cc="http://creativecommons.org/ns#"
	xmlns:rdf="http://www.w3.org/1999/02/22-rdf-syntax-ns#"
	xmlns:svg="http://www.w3.org/2000/svg"
	xmlns="http://www.w3.org/2000/svg"
	xmlns:sodipodi="http://sodipodi.sourceforge.net/DTD/sodipodi-0.dtd"
	xmlns:inkscape="http://www.inkscape.org/namespaces/inkscape"
	width="1000"
	height="1000"
	id="svg2"
	version="1.1"
	sodipodi:docname="manifold/nncrust-kk0736.png.txt">
<defs
	id="defs4" />
<metadata
	id="metadata7">
	<rdf:RDF>
		<cc:Work
			rdf:about="">
			<dc:format>image/svg+xml</dc:format>
			<dc:type
				rdf:resource="http://purl.org/dc/dcmitype/StillImage" />
			<dc:title></dc:title>
		</cc:Work>
	</rdf:RDF>
</metadata>
<g
	inkscape:label="Layer 1"
	inkscape:groupmode="layer"
	id="layer1">
	<path style="fill:none;stroke:red;stroke-width:1px;stroke-linecap:butt;stroke-linejoin:miter;stroke-opacity:1" d="M 111.862,187.038 124.936,175.598 z" id="boundary" inkscape:connector-curvature="0" />
	<path style="fill:none;stroke:red;stroke-width:1px;stroke-linecap:butt;stroke-linejoin:miter;stroke-opacity:1" d="M 144.547,146.181 136.376,162.524 z" id="boundary" inkscape:connector-curvature="0" />
	<path style="fill:none;stroke:red;stroke-width:1px;stroke-linecap:butt;stroke-linejoin:miter;stroke-opacity:1" d="M 136.376,162.524 124.936,175.598 z" id="boundary" inkscape:connector-curvature="0" />
	<path style="fill:none;stroke:red;stroke-width:1px;stroke-linecap:butt;stroke-linejoin:miter;stroke-opacity:1" d="M 98.7875,200.112 111.862,187.038 z" id="boundary" inkscape:connector-curvature="0" />
	<path style="fill:none;stroke:red;stroke-width:1px;stroke-linecap:butt;stroke-linejoin:miter;stroke-opacity:1" d="M 85.7133,213.186 98.7875,200.112 z" id="boundary" inkscape:connector-curvature="0" />
	<path style="fill:none;stroke:red;stroke-width:1px;stroke-linecap:butt;stroke-linejoin:miter;stroke-opacity:1" d="M 175.598,98.7875 188.672,85.7133 z" id="boundary" inkscape:connector-curvature="0" />
	<path style="fill:none;stroke:red;stroke-width:1px;stroke-linecap:butt;stroke-linejoin:miter;stroke-opacity:1" d="M 167.427,115.13 175.598,98.7875 z" id="boundary" inkscape:connector-curvature="0" />
	<path style="fill:none;stroke:red;stroke-width:1px;stroke-linecap:butt;stroke-linejoin:miter;stroke-opacity:1" d="M 196.843,69.3707 188.672,85.7133 z" id="boundary" inkscape:connector-curvature="0" />
	<path style="fill:none;stroke:red;stroke-width:1px;stroke-linecap:butt;stroke-linejoin:miter;stroke-opacity:1" d="M 167.427,115.13 157.621,134.741 z" id="boundary" inkscape:connector-curvature="0" />
	<path style="fill:none;stroke:red;stroke-width:1px;stroke-linecap:butt;stroke-linejoin:miter;stroke-opacity:1" d="M 157.621,134.741 144.547,146.181 z" id="boundary" inkscape:connector-curvature="0" />
	<path style="fill:none;stroke:red;stroke-width:1px;stroke-linecap:butt;stroke-linejoin:miter;stroke-opacity:1" d="M 23.6112,347.196 12.1713,334.122 z" id="boundary" inkscape:connector-curvature="0" />
	<path style="fill:none;stroke:red;stroke-width:1px;stroke-linecap:butt;stroke-linejoin:miter;stroke-opacity:1" d="M 12.1713,334.122 4,319.414 z" id="boundary" inkscape:connector-curvature="0" />
	<path style="fill:none;stroke:red;stroke-width:1px;stroke-linecap:butt;stroke-linejoin:miter;stroke-opacity:1" d="M 4,319.414 12.1713,303.071 z" id="boundary" inkscape:connector-curvature="0" />
	<path style="fill:none;stroke:red;stroke-width:1px;stroke-linecap:butt;stroke-linejoin:miter;stroke-opacity:1" d="M 12.1713,303.071 20.3427,286.728 z" id="boundary" inkscape:connector-curvature="0" />
	<path style="fill:none;stroke:red;stroke-width:1px;stroke-linecap:butt;stroke-linejoin:miter;stroke-opacity:1" d="M 69.3707,221.357 85.7133,213.186 z" id="boundary" inkscape:connector-curvature="0" />
	<path style="fill:none;stroke:red;stroke-width:1px;stroke-linecap:butt;stroke-linejoin:miter;stroke-opacity:1" d="M 44.8567,254.043 33.4168,273.654 z" id="boundary" inkscape:connector-curvature="0" />
	<path style="fill:none;stroke:red;stroke-width:1px;stroke-linecap:butt;stroke-linejoin:miter;stroke-opacity:1" d="M 33.4168,273.654 20.3427,286.728 z" id="boundary" inkscape:connector-curvature="0" />
	<path style="fill:none;stroke:red;stroke-width:1px;stroke-linecap:butt;stroke-linejoin:miter;stroke-opacity:1" d="M 53.028,237.7 44.8567,254.043 z" id="boundary" inkscape:connector-curvature="0" />
	<path style="fill:none;stroke:red;stroke-width:1px;stroke-linecap:butt;stroke-linejoin:miter;stroke-opacity:1" d="M 53.028,237.7 69.3707,221.357 z" id="boundary" inkscape:connector-curvature="0" />
	<path style="fill:none;stroke:red;stroke-width:1px;stroke-linecap:butt;stroke-linejoin:miter;stroke-opacity:1" d="M 247.506,20.3427 262.214,12.1713 z" id="boundary" inkscape:connector-curvature="0" />
	<path style="fill:none;stroke:red;stroke-width:1px;stroke-linecap:butt;stroke-linejoin:miter;stroke-opacity:1" d="M 234.432,31.7825 247.506,20.3427 z" id="boundary" inkscape:connector-curvature="0" />
	<path style="fill:none;stroke:red;stroke-width:1px;stroke-linecap:butt;stroke-linejoin:miter;stroke-opacity:1" d="M 234.432,31.7825 218.089,39.9539 z" id="boundary" inkscape:connector-curvature="0" />
	<path style="fill:none;stroke:red;stroke-width:1px;stroke-linecap:butt;stroke-linejoin:miter;stroke-opacity:1" d="M 262.214,12.1713 276.923,4 z" id="boundary" inkscape:connector-curvature="0" />
	<path style="fill:none;stroke:red;stroke-width:1px;stroke-linecap:butt;stroke-linejoin:miter;stroke-opacity:1" d="M 276.923,4 293.265,4 z" id="boundary" inkscape:connector-curvature="0" />
	<path style="fill:none;stroke:red;stroke-width:1px;stroke-linecap:butt;stroke-linejoin:miter;stroke-opacity:1" d="M 293.265,4 307.974,12.1713 z" id="boundary" inkscape:connector-curvature="0" />
	<path style="fill:none;stroke:red;stroke-width:1px;stroke-linecap:butt;stroke-linejoin:miter;stroke-opacity:1" d="M 324.316,17.0741 307.974,12.1713 z" id="boundary" inkscape:connector-curvature="0" />
	<path style="fill:none;stroke:red;stroke-width:1px;stroke-linecap:butt;stroke-linejoin:miter;stroke-opacity:1" d="M 324.316,17.0741 340.659,20.3427 z" id="boundary" inkscape:connector-curvature="0" />
	<path style="fill:none;stroke:red;stroke-width:1px;stroke-linecap:butt;stroke-linejoin:miter;stroke-opacity:1" d="M 340.659,20.3427 353.733,30.1483 z" id="boundary" inkscape:connector-curvature="0" />
	<path style="fill:none;stroke:red;stroke-width:1px;stroke-linecap:butt;stroke-linejoin:miter;stroke-opacity:1" d="M 368.442,38.3196 353.733,30.1483 z" id="boundary" inkscape:connector-curvature="0" />
	<path style="fill:none;stroke:red;stroke-width:1px;stroke-linecap:butt;stroke-linejoin:miter;stroke-opacity:1" d="M 209.918,56.2965 218.089,39.9539 z" id="boundary" inkscape:connector-curvature="0" />
	<path style="fill:none;stroke:red;stroke-width:1px;stroke-linecap:butt;stroke-linejoin:miter;stroke-opacity:1" d="M 209.918,56.2965 196.843,69.3707 z" id="boundary" inkscape:connector-curvature="0" />
	<path style="fill:none;stroke:red;stroke-width:1px;stroke-linecap:butt;stroke-linejoin:miter;stroke-opacity:1" d="M 368.442,38.3196 384.784,44.8567 z" id="boundary" inkscape:connector-curvature="0" />
	<path style="fill:none;stroke:red;stroke-width:1px;stroke-linecap:butt;stroke-linejoin:miter;stroke-opacity:1" d="M 384.784,44.8567 396.224,57.9308 z" id="boundary" inkscape:connector-curvature="0" />
	<path style="fill:none;stroke:red;stroke-width:1px;stroke-linecap:butt;stroke-linejoin:miter;stroke-opacity:1" d="M 396.224,57.9308 409.298,69.3707 z" id="boundary" inkscape:connector-curvature="0" />
	<path style="fill:none;stroke:red;stroke-width:1px;stroke-linecap:butt;stroke-linejoin:miter;stroke-opacity:1" d="M 409.298,69.3707 420.738,82.4448 z" id="boundary" inkscape:connector-curvature="0" />
	<path style="fill:none;stroke:red;stroke-width:1px;stroke-linecap:butt;stroke-linejoin:miter;stroke-opacity:1" d="M 420.738,82.4448 433.812,93.8847 z" id="boundary" inkscape:connector-curvature="0" />
	<path style="fill:none;stroke:red;stroke-width:1px;stroke-linecap:butt;stroke-linejoin:miter;stroke-opacity:1" d="M 433.812,93.8847 445.252,106.959 z" id="boundary" inkscape:connector-curvature="0" />
	<path style="fill:none;stroke:red;stroke-width:1px;stroke-linecap:butt;stroke-linejoin:miter;stroke-opacity:1" d="M 458.326,118.399 445.252,106.959 z" id="boundary" inkscape:connector-curvature="0" />
	<path style="fill:none;stroke:red;stroke-width:1px;stroke-linecap:butt;stroke-linejoin:miter;stroke-opacity:1" d="M 23.6112,347.196 36.6853,357.002 z" id="boundary" inkscape:connector-curvature="0" />
	<path style="fill:none;stroke:red;stroke-width:1px;stroke-linecap:butt;stroke-linejoin:miter;stroke-opacity:1" d="M 36.6853,357.002 41.5881,373.344 z" id="boundary" inkscape:connector-curvature="0" />
	<path style="fill:none;stroke:red;stroke-width:1px;stroke-linecap:butt;stroke-linejoin:miter;stroke-opacity:1" d="M 41.5881,373.344 54.6623,384.784 z" id="boundary" inkscape:connector-curvature="0" />
	<path style="fill:none;stroke:red;stroke-width:1px;stroke-linecap:butt;stroke-linejoin:miter;stroke-opacity:1" d="M 54.6623,384.784 61.1993,401.127 z" id="boundary" inkscape:connector-curvature="0" />
	<path style="fill:none;stroke:red;stroke-width:1px;stroke-linecap:butt;stroke-linejoin:miter;stroke-opacity:1" d="M 61.1993,401.127 74.2735,412.567 z" id="boundary" inkscape:connector-curvature="0" />
	<path style="fill:none;stroke:red;stroke-width:1px;stroke-linecap:butt;stroke-linejoin:miter;stroke-opacity:1" d="M 74.2735,412.567 85.7133,425.641 z" id="boundary" inkscape:connector-curvature="0" />
	<path style="fill:none;stroke:red;stroke-width:1px;stroke-linecap:butt;stroke-linejoin:miter;stroke-opacity:1" d="M 85.7133,425.641 98.7875,437.081 z" id="boundary" inkscape:connector-curvature="0" />
	<path style="fill:none;stroke:red;stroke-width:1px;stroke-linecap:butt;stroke-linejoin:miter;stroke-opacity:1" d="M 98.7875,437.081 110.227,450.155 z" id="boundary" inkscape:connector-curvature="0" />
	<path style="fill:none;stroke:red;stroke-width:1px;stroke-linecap:butt;stroke-linejoin:miter;stroke-opacity:1" d="M 123.301,461.595 110.227,450.155 z" id="boundary" inkscape:connector-curvature="0" />
	<path style="fill:none;stroke:red;stroke-width:1px;stroke-linecap:butt;stroke-linejoin:miter;stroke-opacity:1" d="M 123.301,461.595 129.839,477.937 z" id="boundary" inkscape:connector-curvature="0" />
	<path style="fill:none;stroke:red;stroke-width:1px;stroke-linecap:butt;stroke-linejoin:miter;stroke-opacity:1" d="M 142.913,487.743 129.839,477.937 z" id="boundary" inkscape:connector-curvature="0" />
	<path style="fill:none;stroke:red;stroke-width:1px;stroke-linecap:butt;stroke-linejoin:miter;stroke-opacity:1" d="M 142.913,487.743 151.084,502.451 z" id="boundary" inkscape:connector-curvature="0" />
	<path style="fill:none;stroke:red;stroke-width:1px;stroke-linecap:butt;stroke-linejoin:miter;stroke-opacity:1" d="M 160.89,515.526 151.084,502.451 z" id="boundary" inkscape:connector-curvature="0" />
	<path style="fill:none;stroke:red;stroke-width:1px;stroke-linecap:butt;stroke-linejoin:miter;stroke-opacity:1" d="M 160.89,515.526 172.329,528.6 z" id="boundary" inkscape:connector-curvature="0" />
	<path style="fill:none;stroke:red;stroke-width:1px;stroke-linecap:butt;stroke-linejoin:miter;stroke-opacity:1" d="M 183.769,541.674 191.941,556.382 z" id="boundary" inkscape:connector-curvature="0" />
	<path style="fill:none;stroke:red;stroke-width:1px;stroke-linecap:butt;stroke-linejoin:miter;stroke-opacity:1" d="M 172.329,528.6 183.769,541.674 z" id="boundary" inkscape:connector-curvature="0" />
	<path style="fill:none;stroke:red;stroke-width:1px;stroke-linecap:butt;stroke-linejoin:miter;stroke-opacity:1" d="M 200.112,571.091 191.941,556.382 z" id="boundary" inkscape:connector-curvature="0" />
	<path style="fill:none;stroke:red;stroke-width:1px;stroke-linecap:butt;stroke-linejoin:miter;stroke-opacity:1" d="M 211.552,584.165 200.112,571.091 z" id="boundary" inkscape:connector-curvature="0" />
	<path style="fill:none;stroke:red;stroke-width:1px;stroke-linecap:butt;stroke-linejoin:miter;stroke-opacity:1" d="M 211.552,584.165 224.626,593.97 z" id="boundary" inkscape:connector-curvature="0" />
	<path style="fill:none;stroke:red;stroke-width:1px;stroke-linecap:butt;stroke-linejoin:miter;stroke-opacity:1" d="M 224.626,593.97 229.529,610.313 z" id="boundary" inkscape:connector-curvature="0" />
	<path style="fill:none;stroke:red;stroke-width:1px;stroke-linecap:butt;stroke-linejoin:miter;stroke-opacity:1" d="M 242.603,621.753 229.529,610.313 z" id="boundary" inkscape:connector-curvature="0" />
	<path style="fill:none;stroke:red;stroke-width:1px;stroke-linecap:butt;stroke-linejoin:miter;stroke-opacity:1" d="M 438.715,553.114 451.789,541.674 z" id="boundary" inkscape:connector-curvature="0" />
	<path style="fill:none;stroke:red;stroke-width:1px;stroke-linecap:butt;stroke-linejoin:miter;stroke-opacity:1" d="M 427.275,566.188 438.715,553.114 z" id="boundary" inkscape:connector-curvature="0" />
	<path style="fill:none;stroke:red;stroke-width:1px;stroke-linecap:butt;stroke-linejoin:miter;stroke-opacity:1" d="M 402.761,590.702 414.201,577.628 z" id="boundary" inkscape:connector-curvature="0" />
	<path style="fill:none;stroke:red;stroke-width:1px;stroke-linecap:butt;stroke-linejoin:miter;stroke-opacity:1" d="M 414.201,577.628 427.275,566.188 z" id="boundary" inkscape:connector-curvature="0" />
	<path style="fill:none;stroke:red;stroke-width:1px;stroke-linecap:butt;stroke-linejoin:miter;stroke-opacity:1" d="M 402.761,590.702 386.418,598.873 z" id="boundary" inkscape:connector-curvature="0" />
	<path style="fill:none;stroke:red;stroke-width:1px;stroke-linecap:butt;stroke-linejoin:miter;stroke-opacity:1" d="M 463.229,528.6 451.789,541.674 z" id="boundary" inkscape:connector-curvature="0" />
	<path style="fill:none;stroke:red;stroke-width:1px;stroke-linecap:butt;stroke-linejoin:miter;stroke-opacity:1" d="M 373.344,610.313 386.418,598.873 z" id="boundary" inkscape:connector-curvature="0" />
	<path style="fill:none;stroke:red;stroke-width:1px;stroke-linecap:butt;stroke-linejoin:miter;stroke-opacity:1" d="M 242.603,621.753 254.043,634.827 z" id="boundary" inkscape:connector-curvature="0" />
	<path style="fill:none;stroke:red;stroke-width:1px;stroke-linecap:butt;stroke-linejoin:miter;stroke-opacity:1" d="M 268.751,642.998 254.043,634.827 z" id="boundary" inkscape:connector-curvature="0" />
	<path style="fill:none;stroke:red;stroke-width:1px;stroke-linecap:butt;stroke-linejoin:miter;stroke-opacity:1" d="M 299.802,651.17 283.46,651.17 z" id="boundary" inkscape:connector-curvature="0" />
	<path style="fill:none;stroke:red;stroke-width:1px;stroke-linecap:butt;stroke-linejoin:miter;stroke-opacity:1" d="M 283.46,651.17 268.751,642.998 z" id="boundary" inkscape:connector-curvature="0" />
	<path style="fill:none;stroke:red;stroke-width:1px;stroke-linecap:butt;stroke-linejoin:miter;stroke-opacity:1" d="M 314.511,642.998 299.802,651.17 z" id="boundary" inkscape:connector-curvature="0" />
	<path style="fill:none;stroke:red;stroke-width:1px;stroke-linecap:butt;stroke-linejoin:miter;stroke-opacity:1" d="M 357.002,618.484 373.344,610.313 z" id="boundary" inkscape:connector-curvature="0" />
	<path style="fill:none;stroke:red;stroke-width:1px;stroke-linecap:butt;stroke-linejoin:miter;stroke-opacity:1" d="M 345.562,631.558 357.002,618.484 z" id="boundary" inkscape:connector-curvature="0" />
	<path style="fill:none;stroke:red;stroke-width:1px;stroke-linecap:butt;stroke-linejoin:miter;stroke-opacity:1" d="M 314.511,642.998 329.219,634.827 z" id="boundary" inkscape:connector-curvature="0" />
	<path style="fill:none;stroke:red;stroke-width:1px;stroke-linecap:butt;stroke-linejoin:miter;stroke-opacity:1" d="M 329.219,634.827 345.562,631.558 z" id="boundary" inkscape:connector-curvature="0" />
	<path style="fill:none;stroke:red;stroke-width:1px;stroke-linecap:butt;stroke-linejoin:miter;stroke-opacity:1" d="M 458.326,118.399 469.766,131.473 z" id="boundary" inkscape:connector-curvature="0" />
	<path style="fill:none;stroke:red;stroke-width:1px;stroke-linecap:butt;stroke-linejoin:miter;stroke-opacity:1" d="M 469.766,131.473 477.937,146.181 z" id="boundary" inkscape:connector-curvature="0" />
	<path style="fill:none;stroke:red;stroke-width:1px;stroke-linecap:butt;stroke-linejoin:miter;stroke-opacity:1" d="M 477.937,146.181 487.743,159.255 z" id="boundary" inkscape:connector-curvature="0" />
	<path style="fill:none;stroke:red;stroke-width:1px;stroke-linecap:butt;stroke-linejoin:miter;stroke-opacity:1" d="M 487.743,159.255 495.914,173.964 z" id="boundary" inkscape:connector-curvature="0" />
	<path style="fill:none;stroke:red;stroke-width:1px;stroke-linecap:butt;stroke-linejoin:miter;stroke-opacity:1" d="M 495.914,173.964 508.988,185.404 z" id="boundary" inkscape:connector-curvature="0" />
	<path style="fill:none;stroke:red;stroke-width:1px;stroke-linecap:butt;stroke-linejoin:miter;stroke-opacity:1" d="M 508.988,185.404 520.428,198.478 z" id="boundary" inkscape:connector-curvature="0" />
	<path style="fill:none;stroke:red;stroke-width:1px;stroke-linecap:butt;stroke-linejoin:miter;stroke-opacity:1" d="M 520.428,198.478 536.771,205.015 z" id="boundary" inkscape:connector-curvature="0" />
	<path style="fill:none;stroke:red;stroke-width:1px;stroke-linecap:butt;stroke-linejoin:miter;stroke-opacity:1" d="M 536.771,205.015 551.479,213.186 z" id="boundary" inkscape:connector-curvature="0" />
	<path style="fill:none;stroke:red;stroke-width:1px;stroke-linecap:butt;stroke-linejoin:miter;stroke-opacity:1" d="M 567.822,216.455 551.479,213.186 z" id="boundary" inkscape:connector-curvature="0" />
	<path style="fill:none;stroke:red;stroke-width:1px;stroke-linecap:butt;stroke-linejoin:miter;stroke-opacity:1" d="M 580.896,226.26 567.822,216.455 z" id="boundary" inkscape:connector-curvature="0" />
	<path style="fill:none;stroke:red;stroke-width:1px;stroke-linecap:butt;stroke-linejoin:miter;stroke-opacity:1" d="M 597.239,232.797 580.896,226.26 z" id="boundary" inkscape:connector-curvature="0" />
	<path style="fill:none;stroke:red;stroke-width:1px;stroke-linecap:butt;stroke-linejoin:miter;stroke-opacity:1" d="M 597.239,232.797 608.679,245.871 z" id="boundary" inkscape:connector-curvature="0" />
	<path style="fill:none;stroke:red;stroke-width:1px;stroke-linecap:butt;stroke-linejoin:miter;stroke-opacity:1" d="M 688.758,289.997 672.415,289.997 z" id="boundary" inkscape:connector-curvature="0" />
	<path style="fill:none;stroke:red;stroke-width:1px;stroke-linecap:butt;stroke-linejoin:miter;stroke-opacity:1" d="M 608.679,245.871 616.85,260.58 z" id="boundary" inkscape:connector-curvature="0" />
	<path style="fill:none;stroke:red;stroke-width:1px;stroke-linecap:butt;stroke-linejoin:miter;stroke-opacity:1" d="M 616.85,260.58 623.387,276.923 z" id="boundary" inkscape:connector-curvature="0" />
	<path style="fill:none;stroke:red;stroke-width:1px;stroke-linecap:butt;stroke-linejoin:miter;stroke-opacity:1" d="M 639.73,283.46 623.387,276.923 z" id="boundary" inkscape:connector-curvature="0" />
	<path style="fill:none;stroke:red;stroke-width:1px;stroke-linecap:butt;stroke-linejoin:miter;stroke-opacity:1" d="M 672.415,289.997 656.072,289.997 z" id="boundary" inkscape:connector-curvature="0" />
	<path style="fill:none;stroke:red;stroke-width:1px;stroke-linecap:butt;stroke-linejoin:miter;stroke-opacity:1" d="M 656.072,289.997 639.73,283.46 z" id="boundary" inkscape:connector-curvature="0" />
	<path style="fill:none;stroke:red;stroke-width:1px;stroke-linecap:butt;stroke-linejoin:miter;stroke-opacity:1" d="M 688.758,289.997 705.1,289.997 z" id="boundary" inkscape:connector-curvature="0" />
	<path style="fill:none;stroke:red;stroke-width:1px;stroke-linecap:butt;stroke-linejoin:miter;stroke-opacity:1" d="M 705.1,289.997 721.443,289.997 z" id="boundary" inkscape:connector-curvature="0" />
	<path style="fill:none;stroke:red;stroke-width:1px;stroke-linecap:butt;stroke-linejoin:miter;stroke-opacity:1" d="M 737.786,291.631 721.443,289.997 z" id="boundary" inkscape:connector-curvature="0" />
	<path style="fill:none;stroke:red;stroke-width:1px;stroke-linecap:butt;stroke-linejoin:miter;stroke-opacity:1" d="M 754.129,298.168 770.471,298.168 z" id="boundary" inkscape:connector-curvature="0" />
	<path style="fill:none;stroke:red;stroke-width:1px;stroke-linecap:butt;stroke-linejoin:miter;stroke-opacity:1" d="M 754.129,298.168 737.786,291.631 z" id="boundary" inkscape:connector-curvature="0" />
	<path style="fill:none;stroke:red;stroke-width:1px;stroke-linecap:butt;stroke-linejoin:miter;stroke-opacity:1" d="M 803.157,306.339 786.814,299.802 z" id="boundary" inkscape:connector-curvature="0" />
	<path style="fill:none;stroke:red;stroke-width:1px;stroke-linecap:butt;stroke-linejoin:miter;stroke-opacity:1" d="M 819.499,306.339 803.157,306.339 z" id="boundary" inkscape:connector-curvature="0" />
	<path style="fill:none;stroke:red;stroke-width:1px;stroke-linecap:butt;stroke-linejoin:miter;stroke-opacity:1" d="M 786.814,299.802 770.471,298.168 z" id="boundary" inkscape:connector-curvature="0" />
	<path style="fill:none;stroke:red;stroke-width:1px;stroke-linecap:butt;stroke-linejoin:miter;stroke-opacity:1" d="M 819.499,306.339 835.842,306.339 z" id="boundary" inkscape:connector-curvature="0" />
	<path style="fill:none;stroke:red;stroke-width:1px;stroke-linecap:butt;stroke-linejoin:miter;stroke-opacity:1" d="M 852.185,306.339 868.527,306.339 z" id="boundary" inkscape:connector-curvature="0" />
	<path style="fill:none;stroke:red;stroke-width:1px;stroke-linecap:butt;stroke-linejoin:miter;stroke-opacity:1" d="M 884.87,306.339 868.527,306.339 z" id="boundary" inkscape:connector-curvature="0" />
	<path style="fill:none;stroke:red;stroke-width:1px;stroke-linecap:butt;stroke-linejoin:miter;stroke-opacity:1" d="M 899.578,298.168 884.87,306.339 z" id="boundary" inkscape:connector-curvature="0" />
	<path style="fill:none;stroke:red;stroke-width:1px;stroke-linecap:butt;stroke-linejoin:miter;stroke-opacity:1" d="M 852.185,306.339 835.842,306.339 z" id="boundary" inkscape:connector-curvature="0" />
	<path style="fill:none;stroke:red;stroke-width:1px;stroke-linecap:butt;stroke-linejoin:miter;stroke-opacity:1" d="M 914.287,306.339 930.629,306.339 z" id="boundary" inkscape:connector-curvature="0" />
	<path style="fill:none;stroke:red;stroke-width:1px;stroke-linecap:butt;stroke-linejoin:miter;stroke-opacity:1" d="M 914.287,306.339 899.578,298.168 z" id="boundary" inkscape:connector-curvature="0" />
	<path style="fill:none;stroke:red;stroke-width:1px;stroke-linecap:butt;stroke-linejoin:miter;stroke-opacity:1" d="M 946.972,306.339 963.315,306.339 z" id="boundary" inkscape:connector-curvature="0" />
	<path style="fill:none;stroke:red;stroke-width:1px;stroke-linecap:butt;stroke-linejoin:miter;stroke-opacity:1" d="M 979.657,306.339 963.315,306.339 z" id="boundary" inkscape:connector-curvature="0" />
	<path style="fill:none;stroke:red;stroke-width:1px;stroke-linecap:butt;stroke-linejoin:miter;stroke-opacity:1" d="M 946.972,306.339 930.629,306.339 z" id="boundary" inkscape:connector-curvature="0" />
	<path style="fill:none;stroke:red;stroke-width:1px;stroke-linecap:butt;stroke-linejoin:miter;stroke-opacity:1" d="M 602.142,389.687 615.216,378.247 z" id="boundary" inkscape:connector-curvature="0" />
	<path style="fill:none;stroke:red;stroke-width:1px;stroke-linecap:butt;stroke-linejoin:miter;stroke-opacity:1" d="M 590.702,402.761 602.142,389.687 z" id="boundary" inkscape:connector-curvature="0" />
	<path style="fill:none;stroke:red;stroke-width:1px;stroke-linecap:butt;stroke-linejoin:miter;stroke-opacity:1" d="M 577.628,414.201 590.702,402.761 z" id="boundary" inkscape:connector-curvature="0" />
	<path style="fill:none;stroke:red;stroke-width:1px;stroke-linecap:butt;stroke-linejoin:miter;stroke-opacity:1" d="M 674.049,348.83 690.392,348.83 z" id="boundary" inkscape:connector-curvature="0" />
	<path style="fill:none;stroke:red;stroke-width:1px;stroke-linecap:butt;stroke-linejoin:miter;stroke-opacity:1" d="M 657.707,352.099 674.049,348.83 z" id="boundary" inkscape:connector-curvature="0" />
	<path style="fill:none;stroke:red;stroke-width:1px;stroke-linecap:butt;stroke-linejoin:miter;stroke-opacity:1" d="M 641.364,357.002 657.707,352.099 z" id="boundary" inkscape:connector-curvature="0" />
	<path style="fill:none;stroke:red;stroke-width:1px;stroke-linecap:butt;stroke-linejoin:miter;stroke-opacity:1" d="M 641.364,357.002 626.656,365.173 z" id="boundary" inkscape:connector-curvature="0" />
	<path style="fill:none;stroke:red;stroke-width:1px;stroke-linecap:butt;stroke-linejoin:miter;stroke-opacity:1" d="M 615.216,378.247 626.656,365.173 z" id="boundary" inkscape:connector-curvature="0" />
	<path style="fill:none;stroke:red;stroke-width:1px;stroke-linecap:butt;stroke-linejoin:miter;stroke-opacity:1" d="M 504.086,446.886 504.086,463.229 z" id="boundary" inkscape:connector-curvature="0" />
	<path style="fill:none;stroke:red;stroke-width:1px;stroke-linecap:butt;stroke-linejoin:miter;stroke-opacity:1" d="M 504.086,463.229 495.914,479.572 z" id="boundary" inkscape:connector-curvature="0" />
	<path style="fill:none;stroke:red;stroke-width:1px;stroke-linecap:butt;stroke-linejoin:miter;stroke-opacity:1" d="M 495.914,479.572 487.743,495.914 z" id="boundary" inkscape:connector-curvature="0" />
	<path style="fill:none;stroke:red;stroke-width:1px;stroke-linecap:butt;stroke-linejoin:miter;stroke-opacity:1" d="M 487.743,495.914 476.303,517.16 z" id="boundary" inkscape:connector-curvature="0" />
	<path style="fill:none;stroke:red;stroke-width:1px;stroke-linecap:butt;stroke-linejoin:miter;stroke-opacity:1" d="M 476.303,517.16 463.229,528.6 z" id="boundary" inkscape:connector-curvature="0" />
	<path style="fill:none;stroke:red;stroke-width:1px;stroke-linecap:butt;stroke-linejoin:miter;stroke-opacity:1" d="M 561.285,422.372 577.628,414.201 z" id="boundary" inkscape:connector-curvature="0" />
	<path style="fill:none;stroke:red;stroke-width:1px;stroke-linecap:butt;stroke-linejoin:miter;stroke-opacity:1" d="M 528.6,422.372 544.942,422.372 z" id="boundary" inkscape:connector-curvature="0" />
	<path style="fill:none;stroke:red;stroke-width:1px;stroke-linecap:butt;stroke-linejoin:miter;stroke-opacity:1" d="M 504.086,446.886 512.257,430.544 z" id="boundary" inkscape:connector-curvature="0" />
	<path style="fill:none;stroke:red;stroke-width:1px;stroke-linecap:butt;stroke-linejoin:miter;stroke-opacity:1" d="M 512.257,430.544 528.6,422.372 z" id="boundary" inkscape:connector-curvature="0" />
	<path style="fill:none;stroke:red;stroke-width:1px;stroke-linecap:butt;stroke-linejoin:miter;stroke-opacity:1" d="M 544.942,422.372 561.285,422.372 z" id="boundary" inkscape:connector-curvature="0" />
	<path style="fill:none;stroke:red;stroke-width:1px;stroke-linecap:butt;stroke-linejoin:miter;stroke-opacity:1" d="M 690.392,348.83 706.735,348.83 z" id="boundary" inkscape:connector-curvature="0" />
	<path style="fill:none;stroke:red;stroke-width:1px;stroke-linecap:butt;stroke-linejoin:miter;stroke-opacity:1" d="M 803.157,332.488 819.499,332.488 z" id="boundary" inkscape:connector-curvature="0" />
	<path style="fill:none;stroke:red;stroke-width:1px;stroke-linecap:butt;stroke-linejoin:miter;stroke-opacity:1" d="M 788.448,340.659 803.157,332.488 z" id="boundary" inkscape:connector-curvature="0" />
	<path style="fill:none;stroke:red;stroke-width:1px;stroke-linecap:butt;stroke-linejoin:miter;stroke-opacity:1" d="M 835.842,332.488 852.185,332.488 z" id="boundary" inkscape:connector-curvature="0" />
	<path style="fill:none;stroke:red;stroke-width:1px;stroke-linecap:butt;stroke-linejoin:miter;stroke-opacity:1" d="M 835.842,332.488 819.499,332.488 z" id="boundary" inkscape:connector-curvature="0" />
	<path style="fill:none;stroke:red;stroke-width:1px;stroke-linecap:butt;stroke-linejoin:miter;stroke-opacity:1" d="M 979.657,306.339 982.926,324.316 z" id="boundary" inkscape:connector-curvature="0" />
	<path style="fill:none;stroke:red;stroke-width:1px;stroke-linecap:butt;stroke-linejoin:miter;stroke-opacity:1" d="M 982.926,324.316 966.583,324.316 z" id="boundary" inkscape:connector-curvature="0" />
	<path style="fill:none;stroke:red;stroke-width:1px;stroke-linecap:butt;stroke-linejoin:miter;stroke-opacity:1" d="M 884.87,332.488 868.527,332.488 z" id="boundary" inkscape:connector-curvature="0" />
	<path style="fill:none;stroke:red;stroke-width:1px;stroke-linecap:butt;stroke-linejoin:miter;stroke-opacity:1" d="M 966.583,324.316 950.241,329.219 z" id="boundary" inkscape:connector-curvature="0" />
	<path style="fill:none;stroke:red;stroke-width:1px;stroke-linecap:butt;stroke-linejoin:miter;stroke-opacity:1" d="M 933.898,332.488 950.241,329.219 z" id="boundary" inkscape:connector-curvature="0" />
	<path style="fill:none;stroke:red;stroke-width:1px;stroke-linecap:butt;stroke-linejoin:miter;stroke-opacity:1" d="M 868.527,332.488 852.185,332.488 z" id="boundary" inkscape:connector-curvature="0" />
	<path style="fill:none;stroke:red;stroke-width:1px;stroke-linecap:butt;stroke-linejoin:miter;stroke-opacity:1" d="M 996,314.511 982.926,324.316 z" id="boundary" inkscape:connector-curvature="0" />
	<path style="fill:none;stroke:red;stroke-width:1px;stroke-linecap:butt;stroke-linejoin:miter;stroke-opacity:1" d="M 755.763,340.659 772.105,340.659 z" id="boundary" inkscape:connector-curvature="0" />
	<path style="fill:none;stroke:red;stroke-width:1px;stroke-linecap:butt;stroke-linejoin:miter;stroke-opacity:1" d="M 739.42,343.928 755.763,340.659 z" id="boundary" inkscape:connector-curvature="0" />
	<path style="fill:none;stroke:red;stroke-width:1px;stroke-linecap:butt;stroke-linejoin:miter;stroke-opacity:1" d="M 723.077,348.83 706.735,348.83 z" id="boundary" inkscape:connector-curvature="0" />
	<path style="fill:none;stroke:red;stroke-width:1px;stroke-linecap:butt;stroke-linejoin:miter;stroke-opacity:1" d="M 723.077,348.83 739.42,343.928 z" id="boundary" inkscape:connector-curvature="0" />
	<path style="fill:none;stroke:red;stroke-width:1px;stroke-linecap:butt;stroke-linejoin:miter;stroke-opacity:1" d="M 772.105,340.659 788.448,340.659 z" id="boundary" inkscape:connector-curvature="0" />
	<path style="fill:none;stroke:red;stroke-width:1px;stroke-linecap:butt;stroke-linejoin:miter;stroke-opacity:1" d="M 884.87,332.488 901.213,332.488 z" id="boundary" inkscape:connector-curvature="0" />
	<path style="fill:none;stroke:red;stroke-width:1px;stroke-linecap:butt;stroke-linejoin:miter;stroke-opacity:1" d="M 917.555,332.488 933.898,332.488 z" id="boundary" inkscape:connector-curvature="0" />
	<path style="fill:none;stroke:red;stroke-width:1px;stroke-linecap:butt;stroke-linejoin:miter;stroke-opacity:1" d="M 901.213,332.488 917.555,332.488 z" id="boundary" inkscape:connector-curvature="0" />
	<circle cx="4" cy="319.414" r="4" fill="#0" id="circle0"/>
	<circle cx="12.1713" cy="303.071" r="4" fill="#0" id="circle1"/>
	<circle cx="12.1713" cy="334.122" r="4" fill="#0" id="circle2"/>
	<circle cx="20.3427" cy="286.728" r="4" fill="#0" id="circle3"/>
	<circle cx="23.6112" cy="347.196" r="4" fill="#0" id="circle4"/>
	<circle cx="33.4168" cy="273.654" r="4" fill="#0" id="circle5"/>
	<circle cx="36.6853" cy="357.002" r="4" fill="#0" id="circle6"/>
	<circle cx="41.5881" cy="373.344" r="4" fill="#0" id="circle7"/>
	<circle cx="44.8567" cy="254.043" r="4" fill="#0" id="circle8"/>
	<circle cx="53.028" cy="237.7" r="4" fill="#0" id="circle9"/>
	<circle cx="54.6623" cy="384.784" r="4" fill="#0" id="circle10"/>
	<circle cx="61.1993" cy="401.127" r="4" fill="#0" id="circle11"/>
	<circle cx="69.3707" cy="221.357" r="4" fill="#0" id="circle12"/>
	<circle cx="74.2735" cy="412.567" r="4" fill="#0" id="circle13"/>
	<circle cx="85.7133" cy="213.186" r="4" fill="#0" id="circle14"/>
	<circle cx="85.7133" cy="425.641" r="4" fill="#0" id="circle15"/>
	<circle cx="98.7875" cy="200.112" r="4" fill="#0" id="circle16"/>
	<circle cx="98.7875" cy="437.081" r="4" fill="#0" id="circle17"/>
	<circle cx="110.227" cy="450.155" r="4" fill="#0" id="circle18"/>
	<circle cx="111.862" cy="187.038" r="4" fill="#0" id="circle19"/>
	<circle cx="123.301" cy="461.595" r="4" fill="#0" id="circle20"/>
	<circle cx="124.936" cy="175.598" r="4" fill="#0" id="circle21"/>
	<circle cx="129.839" cy="477.937" r="4" fill="#0" id="circle22"/>
	<circle cx="136.376" cy="162.524" r="4" fill="#0" id="circle23"/>
	<circle cx="142.913" cy="487.743" r="4" fill="#0" id="circle24"/>
	<circle cx="144.547" cy="146.181" r="4" fill="#0" id="circle25"/>
	<circle cx="151.084" cy="502.451" r="4" fill="#0" id="circle26"/>
	<circle cx="157.621" cy="134.741" r="4" fill="#0" id="circle27"/>
	<circle cx="160.89" cy="515.526" r="4" fill="#0" id="circle28"/>
	<circle cx="167.427" cy="115.13" r="4" fill="#0" id="circle29"/>
	<circle cx="172.329" cy="528.6" r="4" fill="#0" id="circle30"/>
	<circle cx="175.598" cy="98.7875" r="4" fill="#0" id="circle31"/>
	<circle cx="183.769" cy="541.674" r="4" fill="#0" id="circle32"/>
	<circle cx="188.672" cy="85.7133" r="4" fill="#0" id="circle33"/>
	<circle cx="191.941" cy="556.382" r="4" fill="#0" id="circle34"/>
	<circle cx="196.843" cy="69.3707" r="4" fill="#0" id="circle35"/>
	<circle cx="200.112" cy="571.091" r="4" fill="#0" id="circle36"/>
	<circle cx="209.918" cy="56.2965" r="4" fill="#0" id="circle37"/>
	<circle cx="211.552" cy="584.165" r="4" fill="#0" id="circle38"/>
	<circle cx="218.089" cy="39.9539" r="4" fill="#0" id="circle39"/>
	<circle cx="224.626" cy="593.97" r="4" fill="#0" id="circle40"/>
	<circle cx="229.529" cy="610.313" r="4" fill="#0" id="circle41"/>
	<circle cx="234.432" cy="31.7825" r="4" fill="#0" id="circle42"/>
	<circle cx="242.603" cy="621.753" r="4" fill="#0" id="circle43"/>
	<circle cx="247.506" cy="20.3427" r="4" fill="#0" id="circle44"/>
	<circle cx="254.043" cy="634.827" r="4" fill="#0" id="circle45"/>
	<circle cx="262.214" cy="12.1713" r="4" fill="#0" id="circle46"/>
	<circle cx="268.751" cy="642.998" r="4" fill="#0" id="circle47"/>
	<circle cx="276.923" cy="4" r="4" fill="#0" id="circle48"/>
	<circle cx="283.46" cy="651.17" r="4" fill="#0" id="circle49"/>
	<circle cx="293.265" cy="4" r="4" fill="#0" id="circle50"/>
	<circle cx="299.802" cy="651.17" r="4" fill="#0" id="circle51"/>
	<circle cx="307.974" cy="12.1713" r="4" fill="#0" id="circle52"/>
	<circle cx="314.511" cy="642.998" r="4" fill="#0" id="circle53"/>
	<circle cx="324.316" cy="17.0741" r="4" fill="#0" id="circle54"/>
	<circle cx="329.219" cy="634.827" r="4" fill="#0" id="circle55"/>
	<circle cx="340.659" cy="20.3427" r="4" fill="#0" id="circle56"/>
	<circle cx="345.562" cy="631.558" r="4" fill="#0" id="circle57"/>
	<circle cx="353.733" cy="30.1483" r="4" fill="#0" id="circle58"/>
	<circle cx="357.002" cy="618.484" r="4" fill="#0" id="circle59"/>
	<circle cx="368.442" cy="38.3196" r="4" fill="#0" id="circle60"/>
	<circle cx="373.344" cy="610.313" r="4" fill="#0" id="circle61"/>
	<circle cx="384.784" cy="44.8567" r="4" fill="#0" id="circle62"/>
	<circle cx="386.418" cy="598.873" r="4" fill="#0" id="circle63"/>
	<circle cx="396.224" cy="57.9308" r="4" fill="#0" id="circle64"/>
	<circle cx="402.761" cy="590.702" r="4" fill="#0" id="circle65"/>
	<circle cx="409.298" cy="69.3707" r="4" fill="#0" id="circle66"/>
	<circle cx="414.201" cy="577.628" r="4" fill="#0" id="circle67"/>
	<circle cx="420.738" cy="82.4448" r="4" fill="#0" id="circle68"/>
	<circle cx="427.275" cy="566.188" r="4" fill="#0" id="circle69"/>
	<circle cx="433.812" cy="93.8847" r="4" fill="#0" id="circle70"/>
	<circle cx="438.715" cy="553.114" r="4" fill="#0" id="circle71"/>
	<circle cx="445.252" cy="106.959" r="4" fill="#0" id="circle72"/>
	<circle cx="451.789" cy="541.674" r="4" fill="#0" id="circle73"/>
	<circle cx="458.326" cy="118.399" r="4" fill="#0" id="circle74"/>
	<circle cx="463.229" cy="528.6" r="4" fill="#0" id="circle75"/>
	<circle cx="469.766" cy="131.473" r="4" fill="#0" id="circle76"/>
	<circle cx="476.303" cy="517.16" r="4" fill="#0" id="circle77"/>
	<circle cx="477.937" cy="146.181" r="4" fill="#0" id="circle78"/>
	<circle cx="487.743" cy="159.255" r="4" fill="#0" id="circle79"/>
	<circle cx="487.743" cy="495.914" r="4" fill="#0" id="circle80"/>
	<circle cx="495.914" cy="173.964" r="4" fill="#0" id="circle81"/>
	<circle cx="495.914" cy="479.572" r="4" fill="#0" id="circle82"/>
	<circle cx="504.086" cy="446.886" r="4" fill="#0" id="circle83"/>
	<circle cx="504.086" cy="463.229" r="4" fill="#0" id="circle84"/>
	<circle cx="508.988" cy="185.404" r="4" fill="#0" id="circle85"/>
	<circle cx="512.257" cy="430.544" r="4" fill="#0" id="circle86"/>
	<circle cx="520.428" cy="198.478" r="4" fill="#0" id="circle87"/>
	<circle cx="528.6" cy="422.372" r="4" fill="#0" id="circle88"/>
	<circle cx="536.771" cy="205.015" r="4" fill="#0" id="circle89"/>
	<circle cx="544.942" cy="422.372" r="4" fill="#0" id="circle90"/>
	<circle cx="551.479" cy="213.186" r="4" fill="#0" id="circle91"/>
	<circle cx="561.285" cy="422.372" r="4" fill="#0" id="circle92"/>
	<circle cx="567.822" cy="216.455" r="4" fill="#0" id="circle93"/>
	<circle cx="577.628" cy="414.201" r="4" fill="#0" id="circle94"/>
	<circle cx="580.896" cy="226.26" r="4" fill="#0" id="circle95"/>
	<circle cx="590.702" cy="402.761" r="4" fill="#0" id="circle96"/>
	<circle cx="597.239" cy="232.797" r="4" fill="#0" id="circle97"/>
	<circle cx="602.142" cy="389.687" r="4" fill="#0" id="circle98"/>
	<circle cx="608.679" cy="245.871" r="4" fill="#0" id="circle99"/>
	<circle cx="615.216" cy="378.247" r="4" fill="#0" id="circle100"/>
	<circle cx="616.85" cy="260.58" r="4" fill="#0" id="circle101"/>
	<circle cx="623.387" cy="276.923" r="4" fill="#0" id="circle102"/>
	<circle cx="626.656" cy="365.173" r="4" fill="#0" id="circle103"/>
	<circle cx="639.73" cy="283.46" r="4" fill="#0" id="circle104"/>
	<circle cx="641.364" cy="357.002" r="4" fill="#0" id="circle105"/>
	<circle cx="656.072" cy="289.997" r="4" fill="#0" id="circle106"/>
	<circle cx="657.707" cy="352.099" r="4" fill="#0" id="circle107"/>
	<circle cx="672.415" cy="289.997" r="4" fill="#0" id="circle108"/>
	<circle cx="674.049" cy="348.83" r="4" fill="#0" id="circle109"/>
	<circle cx="688.758" cy="289.997" r="4" fill="#0" id="circle110"/>
	<circle cx="690.392" cy="348.83" r="4" fill="#0" id="circle111"/>
	<circle cx="705.1" cy="289.997" r="4" fill="#0" id="circle112"/>
	<circle cx="706.735" cy="348.83" r="4" fill="#0" id="circle113"/>
	<circle cx="721.443" cy="289.997" r="4" fill="#0" id="circle114"/>
	<circle cx="723.077" cy="348.83" r="4" fill="#0" id="circle115"/>
	<circle cx="737.786" cy="291.631" r="4" fill="#0" id="circle116"/>
	<circle cx="739.42" cy="343.928" r="4" fill="#0" id="circle117"/>
	<circle cx="754.129" cy="298.168" r="4" fill="#0" id="circle118"/>
	<circle cx="755.763" cy="340.659" r="4" fill="#0" id="circle119"/>
	<circle cx="770.471" cy="298.168" r="4" fill="#0" id="circle120"/>
	<circle cx="772.105" cy="340.659" r="4" fill="#0" id="circle121"/>
	<circle cx="786.814" cy="299.802" r="4" fill="#0" id="circle122"/>
	<circle cx="788.448" cy="340.659" r="4" fill="#0" id="circle123"/>
	<circle cx="803.157" cy="306.339" r="4" fill="#0" id="circle124"/>
	<circle cx="803.157" cy="332.488" r="4" fill="#0" id="circle125"/>
	<circle cx="819.499" cy="306.339" r="4" fill="#0" id="circle126"/>
	<circle cx="819.499" cy="332.488" r="4" fill="#0" id="circle127"/>
	<circle cx="835.842" cy="306.339" r="4" fill="#0" id="circle128"/>
	<circle cx="835.842" cy="332.488" r="4" fill="#0" id="circle129"/>
	<circle cx="852.185" cy="306.339" r="4" fill="#0" id="circle130"/>
	<circle cx="852.185" cy="332.488" r="4" fill="#0" id="circle131"/>
	<circle cx="868.527" cy="306.339" r="4" fill="#0" id="circle132"/>
	<circle cx="868.527" cy="332.488" r="4" fill="#0" id="circle133"/>
	<circle cx="884.87" cy="306.339" r="4" fill="#0" id="circle134"/>
	<circle cx="884.87" cy="332.488" r="4" fill="#0" id="circle135"/>
	<circle cx="899.578" cy="298.168" r="4" fill="#0" id="circle136"/>
	<circle cx="901.213" cy="332.488" r="4" fill="#0" id="circle137"/>
	<circle cx="914.287" cy="306.339" r="4" fill="#0" id="circle138"/>
	<circle cx="917.555" cy="332.488" r="4" fill="#0" id="circle139"/>
	<circle cx="930.629" cy="306.339" r="4" fill="#0" id="circle140"/>
	<circle cx="933.898" cy="332.488" r="4" fill="#0" id="circle141"/>
	<circle cx="946.972" cy="306.339" r="4" fill="#0" id="circle142"/>
	<circle cx="950.241" cy="329.219" r="4" fill="#0" id="circle143"/>
	<circle cx="963.315" cy="306.339" r="4" fill="#0" id="circle144"/>
	<circle cx="966.583" cy="324.316" r="4" fill="#0" id="circle145"/>
	<circle cx="979.657" cy="306.339" r="4" fill="#0" id="circle146"/>
	<circle cx="982.926" cy="324.316" r="4" fill="#0" id="circle147"/>
	<circle cx="996" cy="314.511" r="4" fill="#0" id="circle148"/>
	</g>
</svg>