<?xml version="1.0" encoding="UTF-8" standalone="no"?>
<!-- Created with CurveBenchmark -->
<svg
	xmlns:dc="http://purl.org/dc/elements/1.1/"
	xmlns:cc="http://creativecommons.org/ns#"
	xmlns:rdf="http://www.w3.org/1999/02/22-rdf-syntax-ns#"
	xmlns:svg="http://www.w3.org/2000/svg"
	xmlns="http://www.w3.org/2000/svg"
	xmlns:sodipodi="http://sodipodi.sourceforge.net/DTD/sodipodi-0.dtd"
	xmlns:inkscape="http://www.inkscape.org/namespaces/inkscape"
	width="1000"
	height="1000"
	id="svg2"
	version="1.1"
	sodipodi:docname="manifold/nncrust-bird000.png.txt">
<defs
	id="defs4" />
<metadata
	id="metadata7">
	<rdf:RDF>
		<cc:Work
			rdf:about="">
			<dc:format>image/svg+xml</dc:format>
			<dc:type
				rdf:resource="http://purl.org/dc/dcmitype/StillImage" />
			<dc:title></dc:title>
		</cc:Work>
	</rdf:RDF>
</metadata>
<g
	inkscape:label="Layer 1"
	inkscape:groupmode="layer"
	id="layer1">
	<path style="fill:none;stroke:red;stroke-width:1px;stroke-linecap:butt;stroke-linejoin:miter;stroke-opacity:1" d="M 54.6861,264.672 76.4088,235.708 z" id="boundary" inkscape:connector-curvature="0" />
	<path style="fill:none;stroke:red;stroke-width:1px;stroke-linecap:butt;stroke-linejoin:miter;stroke-opacity:1" d="M 76.4088,235.708 105.372,206.745 z" id="boundary" inkscape:connector-curvature="0" />
	<path style="fill:none;stroke:red;stroke-width:1px;stroke-linecap:butt;stroke-linejoin:miter;stroke-opacity:1" d="M 239.328,376.905 203.124,387.766 z" id="boundary" inkscape:connector-curvature="0" />
	<path style="fill:none;stroke:red;stroke-width:1px;stroke-linecap:butt;stroke-linejoin:miter;stroke-opacity:1" d="M 105.372,206.745 134.336,177.781 z" id="boundary" inkscape:connector-curvature="0" />
	<path style="fill:none;stroke:red;stroke-width:1px;stroke-linecap:butt;stroke-linejoin:miter;stroke-opacity:1" d="M 134.336,177.781 163.299,148.818 z" id="boundary" inkscape:connector-curvature="0" />
	<path style="fill:none;stroke:red;stroke-width:1px;stroke-linecap:butt;stroke-linejoin:miter;stroke-opacity:1" d="M 4,373.285 18.4818,329.839 z" id="boundary" inkscape:connector-curvature="0" />
	<path style="fill:none;stroke:red;stroke-width:1px;stroke-linecap:butt;stroke-linejoin:miter;stroke-opacity:1" d="M 32.9635,398.628 4,373.285 z" id="boundary" inkscape:connector-curvature="0" />
	<path style="fill:none;stroke:red;stroke-width:1px;stroke-linecap:butt;stroke-linejoin:miter;stroke-opacity:1" d="M 69.1679,398.628 32.9635,398.628 z" id="boundary" inkscape:connector-curvature="0" />
	<path style="fill:none;stroke:red;stroke-width:1px;stroke-linecap:butt;stroke-linejoin:miter;stroke-opacity:1" d="M 101.752,380.526 69.1679,398.628 z" id="boundary" inkscape:connector-curvature="0" />
	<path style="fill:none;stroke:red;stroke-width:1px;stroke-linecap:butt;stroke-linejoin:miter;stroke-opacity:1" d="M 36.5839,297.255 54.6861,264.672 z" id="boundary" inkscape:connector-curvature="0" />
	<path style="fill:none;stroke:red;stroke-width:1px;stroke-linecap:butt;stroke-linejoin:miter;stroke-opacity:1" d="M 203.124,387.766 166.92,398.628 z" id="boundary" inkscape:connector-curvature="0" />
	<path style="fill:none;stroke:red;stroke-width:1px;stroke-linecap:butt;stroke-linejoin:miter;stroke-opacity:1" d="M 101.752,380.526 130.715,402.248 z" id="boundary" inkscape:connector-curvature="0" />
	<path style="fill:none;stroke:red;stroke-width:1px;stroke-linecap:butt;stroke-linejoin:miter;stroke-opacity:1" d="M 18.4818,329.839 36.5839,297.255 z" id="boundary" inkscape:connector-curvature="0" />
	<path style="fill:none;stroke:red;stroke-width:1px;stroke-linecap:butt;stroke-linejoin:miter;stroke-opacity:1" d="M 163.299,148.818 192.263,119.854 z" id="boundary" inkscape:connector-curvature="0" />
	<path style="fill:none;stroke:red;stroke-width:1px;stroke-linecap:butt;stroke-linejoin:miter;stroke-opacity:1" d="M 221.226,98.1314 250.19,69.1679 z" id="boundary" inkscape:connector-curvature="0" />
	<path style="fill:none;stroke:red;stroke-width:1px;stroke-linecap:butt;stroke-linejoin:miter;stroke-opacity:1" d="M 250.19,69.1679 282.774,51.0657 z" id="boundary" inkscape:connector-curvature="0" />
	<path style="fill:none;stroke:red;stroke-width:1px;stroke-linecap:butt;stroke-linejoin:miter;stroke-opacity:1" d="M 282.774,51.0657 315.358,32.9635 z" id="boundary" inkscape:connector-curvature="0" />
	<path style="fill:none;stroke:red;stroke-width:1px;stroke-linecap:butt;stroke-linejoin:miter;stroke-opacity:1" d="M 351.562,18.4818 387.766,4 z" id="boundary" inkscape:connector-curvature="0" />
	<path style="fill:none;stroke:red;stroke-width:1px;stroke-linecap:butt;stroke-linejoin:miter;stroke-opacity:1" d="M 387.766,4 423.971,4 z" id="boundary" inkscape:connector-curvature="0" />
	<path style="fill:none;stroke:red;stroke-width:1px;stroke-linecap:butt;stroke-linejoin:miter;stroke-opacity:1" d="M 315.358,32.9635 351.562,18.4818 z" id="boundary" inkscape:connector-curvature="0" />
	<path style="fill:none;stroke:red;stroke-width:1px;stroke-linecap:butt;stroke-linejoin:miter;stroke-opacity:1" d="M 275.533,366.044 239.328,376.905 z" id="boundary" inkscape:connector-curvature="0" />
	<path style="fill:none;stroke:red;stroke-width:1px;stroke-linecap:butt;stroke-linejoin:miter;stroke-opacity:1" d="M 308.117,347.942 275.533,366.044 z" id="boundary" inkscape:connector-curvature="0" />
	<path style="fill:none;stroke:red;stroke-width:1px;stroke-linecap:butt;stroke-linejoin:miter;stroke-opacity:1" d="M 192.263,119.854 221.226,98.1314 z" id="boundary" inkscape:connector-curvature="0" />
	<path style="fill:none;stroke:red;stroke-width:1px;stroke-linecap:butt;stroke-linejoin:miter;stroke-opacity:1" d="M 344.321,333.46 380.526,329.839 z" id="boundary" inkscape:connector-curvature="0" />
	<path style="fill:none;stroke:red;stroke-width:1px;stroke-linecap:butt;stroke-linejoin:miter;stroke-opacity:1" d="M 380.526,329.839 373.285,366.044 z" id="boundary" inkscape:connector-curvature="0" />
	<path style="fill:none;stroke:red;stroke-width:1px;stroke-linecap:butt;stroke-linejoin:miter;stroke-opacity:1" d="M 308.117,347.942 344.321,333.46 z" id="boundary" inkscape:connector-curvature="0" />
	<path style="fill:none;stroke:red;stroke-width:1px;stroke-linecap:butt;stroke-linejoin:miter;stroke-opacity:1" d="M 373.285,402.248 373.285,366.044 z" id="boundary" inkscape:connector-curvature="0" />
	<path style="fill:none;stroke:red;stroke-width:1px;stroke-linecap:butt;stroke-linejoin:miter;stroke-opacity:1" d="M 380.526,329.839 471.036,344.321 z" id="boundary" inkscape:connector-curvature="0" />
	<path style="fill:none;stroke:red;stroke-width:1px;stroke-linecap:butt;stroke-linejoin:miter;stroke-opacity:1" d="M 130.715,402.248 166.92,398.628 z" id="boundary" inkscape:connector-curvature="0" />
	<path style="fill:none;stroke:red;stroke-width:1px;stroke-linecap:butt;stroke-linejoin:miter;stroke-opacity:1" d="M 373.285,402.248 373.285,438.453 z" id="boundary" inkscape:connector-curvature="0" />
	<path style="fill:none;stroke:red;stroke-width:1px;stroke-linecap:butt;stroke-linejoin:miter;stroke-opacity:1" d="M 373.285,438.453 373.285,474.657 z" id="boundary" inkscape:connector-curvature="0" />
	<path style="fill:none;stroke:red;stroke-width:1px;stroke-linecap:butt;stroke-linejoin:miter;stroke-opacity:1" d="M 373.285,474.657 373.285,510.861 z" id="boundary" inkscape:connector-curvature="0" />
	<path style="fill:none;stroke:red;stroke-width:1px;stroke-linecap:butt;stroke-linejoin:miter;stroke-opacity:1" d="M 373.285,547.066 373.285,510.861 z" id="boundary" inkscape:connector-curvature="0" />
	<path style="fill:none;stroke:red;stroke-width:1px;stroke-linecap:butt;stroke-linejoin:miter;stroke-opacity:1" d="M 449.314,452.934 442.073,489.139 z" id="boundary" inkscape:connector-curvature="0" />
	<path style="fill:none;stroke:red;stroke-width:1px;stroke-linecap:butt;stroke-linejoin:miter;stroke-opacity:1" d="M 373.285,547.066 373.285,583.27 z" id="boundary" inkscape:connector-curvature="0" />
	<path style="fill:none;stroke:red;stroke-width:1px;stroke-linecap:butt;stroke-linejoin:miter;stroke-opacity:1" d="M 373.285,619.474 373.285,583.27 z" id="boundary" inkscape:connector-curvature="0" />
	<path style="fill:none;stroke:red;stroke-width:1px;stroke-linecap:butt;stroke-linejoin:miter;stroke-opacity:1" d="M 373.285,655.679 373.285,619.474 z" id="boundary" inkscape:connector-curvature="0" />
	<path style="fill:none;stroke:red;stroke-width:1px;stroke-linecap:butt;stroke-linejoin:miter;stroke-opacity:1" d="M 373.285,655.679 380.526,691.883 z" id="boundary" inkscape:connector-curvature="0" />
	<path style="fill:none;stroke:red;stroke-width:1px;stroke-linecap:butt;stroke-linejoin:miter;stroke-opacity:1" d="M 395.007,764.292 387.766,728.088 z" id="boundary" inkscape:connector-curvature="0" />
	<path style="fill:none;stroke:red;stroke-width:1px;stroke-linecap:butt;stroke-linejoin:miter;stroke-opacity:1" d="M 387.766,728.088 380.526,691.883 z" id="boundary" inkscape:connector-curvature="0" />
	<path style="fill:none;stroke:red;stroke-width:1px;stroke-linecap:butt;stroke-linejoin:miter;stroke-opacity:1" d="M 395.007,764.292 398.628,800.496 z" id="boundary" inkscape:connector-curvature="0" />
	<path style="fill:none;stroke:red;stroke-width:1px;stroke-linecap:butt;stroke-linejoin:miter;stroke-opacity:1" d="M 420.35,619.474 420.35,655.679 z" id="boundary" inkscape:connector-curvature="0" />
	<path style="fill:none;stroke:red;stroke-width:1px;stroke-linecap:butt;stroke-linejoin:miter;stroke-opacity:1" d="M 420.35,619.474 420.35,583.27 z" id="boundary" inkscape:connector-curvature="0" />
	<path style="fill:none;stroke:red;stroke-width:1px;stroke-linecap:butt;stroke-linejoin:miter;stroke-opacity:1" d="M 420.35,583.27 427.591,547.066 z" id="boundary" inkscape:connector-curvature="0" />
	<path style="fill:none;stroke:red;stroke-width:1px;stroke-linecap:butt;stroke-linejoin:miter;stroke-opacity:1" d="M 427.591,691.883 420.35,655.679 z" id="boundary" inkscape:connector-curvature="0" />
	<path style="fill:none;stroke:red;stroke-width:1px;stroke-linecap:butt;stroke-linejoin:miter;stroke-opacity:1" d="M 442.073,489.139 427.591,547.066 z" id="boundary" inkscape:connector-curvature="0" />
	<path style="fill:none;stroke:red;stroke-width:1px;stroke-linecap:butt;stroke-linejoin:miter;stroke-opacity:1" d="M 431.212,728.088 427.591,691.883 z" id="boundary" inkscape:connector-curvature="0" />
	<path style="fill:none;stroke:red;stroke-width:1px;stroke-linecap:butt;stroke-linejoin:miter;stroke-opacity:1" d="M 409.489,872.905 402.248,836.701 z" id="boundary" inkscape:connector-curvature="0" />
	<path style="fill:none;stroke:red;stroke-width:1px;stroke-linecap:butt;stroke-linejoin:miter;stroke-opacity:1" d="M 402.248,836.701 398.628,800.496 z" id="boundary" inkscape:connector-curvature="0" />
	<path style="fill:none;stroke:red;stroke-width:1px;stroke-linecap:butt;stroke-linejoin:miter;stroke-opacity:1" d="M 409.489,872.905 409.489,909.109 z" id="boundary" inkscape:connector-curvature="0" />
	<path style="fill:none;stroke:red;stroke-width:1px;stroke-linecap:butt;stroke-linejoin:miter;stroke-opacity:1" d="M 434.832,764.292 442.073,800.496 z" id="boundary" inkscape:connector-curvature="0" />
	<path style="fill:none;stroke:red;stroke-width:1px;stroke-linecap:butt;stroke-linejoin:miter;stroke-opacity:1" d="M 442.073,800.496 449.314,836.701 z" id="boundary" inkscape:connector-curvature="0" />
	<path style="fill:none;stroke:red;stroke-width:1px;stroke-linecap:butt;stroke-linejoin:miter;stroke-opacity:1" d="M 434.832,764.292 431.212,728.088 z" id="boundary" inkscape:connector-curvature="0" />
	<path style="fill:none;stroke:red;stroke-width:1px;stroke-linecap:butt;stroke-linejoin:miter;stroke-opacity:1" d="M 460.175,4 496.38,4 z" id="boundary" inkscape:connector-curvature="0" />
	<path style="fill:none;stroke:red;stroke-width:1px;stroke-linecap:butt;stroke-linejoin:miter;stroke-opacity:1" d="M 532.584,11.2409 496.38,4 z" id="boundary" inkscape:connector-curvature="0" />
	<path style="fill:none;stroke:red;stroke-width:1px;stroke-linecap:butt;stroke-linejoin:miter;stroke-opacity:1" d="M 568.788,25.7226 604.993,40.2044 z" id="boundary" inkscape:connector-curvature="0" />
	<path style="fill:none;stroke:red;stroke-width:1px;stroke-linecap:butt;stroke-linejoin:miter;stroke-opacity:1" d="M 753.431,76.4088 724.467,101.752 z" id="boundary" inkscape:connector-curvature="0" />
	<path style="fill:none;stroke:red;stroke-width:1px;stroke-linecap:butt;stroke-linejoin:miter;stroke-opacity:1" d="M 532.584,11.2409 568.788,25.7226 z" id="boundary" inkscape:connector-curvature="0" />
	<path style="fill:none;stroke:red;stroke-width:1px;stroke-linecap:butt;stroke-linejoin:miter;stroke-opacity:1" d="M 604.993,40.2044 633.956,65.5474 z" id="boundary" inkscape:connector-curvature="0" />
	<path style="fill:none;stroke:red;stroke-width:1px;stroke-linecap:butt;stroke-linejoin:miter;stroke-opacity:1" d="M 594.131,210.365 557.927,213.985 z" id="boundary" inkscape:connector-curvature="0" />
	<path style="fill:none;stroke:red;stroke-width:1px;stroke-linecap:butt;stroke-linejoin:miter;stroke-opacity:1" d="M 633.956,65.5474 655.679,94.5109 z" id="boundary" inkscape:connector-curvature="0" />
	<path style="fill:none;stroke:red;stroke-width:1px;stroke-linecap:butt;stroke-linejoin:miter;stroke-opacity:1" d="M 655.679,94.5109 666.54,130.715 z" id="boundary" inkscape:connector-curvature="0" />
	<path style="fill:none;stroke:red;stroke-width:1px;stroke-linecap:butt;stroke-linejoin:miter;stroke-opacity:1" d="M 594.131,210.365 604.993,246.569 z" id="boundary" inkscape:connector-curvature="0" />
	<path style="fill:none;stroke:red;stroke-width:1px;stroke-linecap:butt;stroke-linejoin:miter;stroke-opacity:1" d="M 702.745,130.715 666.54,130.715 z" id="boundary" inkscape:connector-curvature="0" />
	<path style="fill:none;stroke:red;stroke-width:1px;stroke-linecap:butt;stroke-linejoin:miter;stroke-opacity:1" d="M 724.467,101.752 702.745,130.715 z" id="boundary" inkscape:connector-curvature="0" />
	<path style="fill:none;stroke:red;stroke-width:1px;stroke-linecap:butt;stroke-linejoin:miter;stroke-opacity:1" d="M 767.912,185.022 681.022,166.92 z" id="boundary" inkscape:connector-curvature="0" />
	<path style="fill:none;stroke:red;stroke-width:1px;stroke-linecap:butt;stroke-linejoin:miter;stroke-opacity:1" d="M 681.022,166.92 666.54,130.715 z" id="boundary" inkscape:connector-curvature="0" />
	<path style="fill:none;stroke:red;stroke-width:1px;stroke-linecap:butt;stroke-linejoin:miter;stroke-opacity:1" d="M 557.927,213.985 528.964,235.708 z" id="boundary" inkscape:connector-curvature="0" />
	<path style="fill:none;stroke:red;stroke-width:1px;stroke-linecap:butt;stroke-linejoin:miter;stroke-opacity:1" d="M 753.431,76.4088 789.635,69.1679 z" id="boundary" inkscape:connector-curvature="0" />
	<path style="fill:none;stroke:red;stroke-width:1px;stroke-linecap:butt;stroke-linejoin:miter;stroke-opacity:1" d="M 825.839,69.1679 789.635,69.1679 z" id="boundary" inkscape:connector-curvature="0" />
	<path style="fill:none;stroke:red;stroke-width:1px;stroke-linecap:butt;stroke-linejoin:miter;stroke-opacity:1" d="M 862.044,76.4088 898.248,90.8905 z" id="boundary" inkscape:connector-curvature="0" />
	<path style="fill:none;stroke:red;stroke-width:1px;stroke-linecap:butt;stroke-linejoin:miter;stroke-opacity:1" d="M 825.839,69.1679 862.044,76.4088 z" id="boundary" inkscape:connector-curvature="0" />
	<path style="fill:none;stroke:red;stroke-width:1px;stroke-linecap:butt;stroke-linejoin:miter;stroke-opacity:1" d="M 898.248,90.8905 919.971,119.854 z" id="boundary" inkscape:connector-curvature="0" />
	<path style="fill:none;stroke:red;stroke-width:1px;stroke-linecap:butt;stroke-linejoin:miter;stroke-opacity:1" d="M 771.533,221.226 767.912,185.022 z" id="boundary" inkscape:connector-curvature="0" />
	<path style="fill:none;stroke:red;stroke-width:1px;stroke-linecap:butt;stroke-linejoin:miter;stroke-opacity:1" d="M 767.912,185.022 800.496,166.92 z" id="boundary" inkscape:connector-curvature="0" />
	<path style="fill:none;stroke:red;stroke-width:1px;stroke-linecap:butt;stroke-linejoin:miter;stroke-opacity:1" d="M 829.46,188.642 800.496,166.92 z" id="boundary" inkscape:connector-curvature="0" />
	<path style="fill:none;stroke:red;stroke-width:1px;stroke-linecap:butt;stroke-linejoin:miter;stroke-opacity:1" d="M 901.869,217.606 865.664,203.124 z" id="boundary" inkscape:connector-curvature="0" />
	<path style="fill:none;stroke:red;stroke-width:1px;stroke-linecap:butt;stroke-linejoin:miter;stroke-opacity:1" d="M 952.555,185.022 930.832,156.058 z" id="boundary" inkscape:connector-curvature="0" />
	<path style="fill:none;stroke:red;stroke-width:1px;stroke-linecap:butt;stroke-linejoin:miter;stroke-opacity:1" d="M 930.832,156.058 919.971,119.854 z" id="boundary" inkscape:connector-curvature="0" />
	<path style="fill:none;stroke:red;stroke-width:1px;stroke-linecap:butt;stroke-linejoin:miter;stroke-opacity:1" d="M 829.46,188.642 865.664,203.124 z" id="boundary" inkscape:connector-curvature="0" />
	<path style="fill:none;stroke:red;stroke-width:1px;stroke-linecap:butt;stroke-linejoin:miter;stroke-opacity:1" d="M 974.277,213.985 952.555,185.022 z" id="boundary" inkscape:connector-curvature="0" />
	<path style="fill:none;stroke:red;stroke-width:1px;stroke-linecap:butt;stroke-linejoin:miter;stroke-opacity:1" d="M 996,242.949 974.277,213.985 z" id="boundary" inkscape:connector-curvature="0" />
	<path style="fill:none;stroke:red;stroke-width:1px;stroke-linecap:butt;stroke-linejoin:miter;stroke-opacity:1" d="M 463.796,387.766 449.314,452.934 z" id="boundary" inkscape:connector-curvature="0" />
	<path style="fill:none;stroke:red;stroke-width:1px;stroke-linecap:butt;stroke-linejoin:miter;stroke-opacity:1" d="M 471.036,344.321 463.796,387.766 z" id="boundary" inkscape:connector-curvature="0" />
	<path style="fill:none;stroke:red;stroke-width:1px;stroke-linecap:butt;stroke-linejoin:miter;stroke-opacity:1" d="M 478.277,293.635 500,264.672 z" id="boundary" inkscape:connector-curvature="0" />
	<path style="fill:none;stroke:red;stroke-width:1px;stroke-linecap:butt;stroke-linejoin:miter;stroke-opacity:1" d="M 528.964,235.708 500,264.672 z" id="boundary" inkscape:connector-curvature="0" />
	<path style="fill:none;stroke:red;stroke-width:1px;stroke-linecap:butt;stroke-linejoin:miter;stroke-opacity:1" d="M 471.036,344.321 478.277,293.635 z" id="boundary" inkscape:connector-curvature="0" />
	<path style="fill:none;stroke:red;stroke-width:1px;stroke-linecap:butt;stroke-linejoin:miter;stroke-opacity:1" d="M 442.073,927.212 409.489,909.109 z" id="boundary" inkscape:connector-curvature="0" />
	<path style="fill:none;stroke:red;stroke-width:1px;stroke-linecap:butt;stroke-linejoin:miter;stroke-opacity:1" d="M 449.314,836.701 456.555,872.905 z" id="boundary" inkscape:connector-curvature="0" />
	<path style="fill:none;stroke:red;stroke-width:1px;stroke-linecap:butt;stroke-linejoin:miter;stroke-opacity:1" d="M 492.759,880.146 456.555,872.905 z" id="boundary" inkscape:connector-curvature="0" />
	<path style="fill:none;stroke:red;stroke-width:1px;stroke-linecap:butt;stroke-linejoin:miter;stroke-opacity:1" d="M 478.277,927.212 442.073,927.212 z" id="boundary" inkscape:connector-curvature="0" />
	<path style="fill:none;stroke:red;stroke-width:1px;stroke-linecap:butt;stroke-linejoin:miter;stroke-opacity:1" d="M 492.759,880.146 528.964,887.387 z" id="boundary" inkscape:connector-curvature="0" />
	<path style="fill:none;stroke:red;stroke-width:1px;stroke-linecap:butt;stroke-linejoin:miter;stroke-opacity:1" d="M 514.482,923.591 478.277,927.212 z" id="boundary" inkscape:connector-curvature="0" />
	<path style="fill:none;stroke:red;stroke-width:1px;stroke-linecap:butt;stroke-linejoin:miter;stroke-opacity:1" d="M 528.964,887.387 550.686,919.971 z" id="boundary" inkscape:connector-curvature="0" />
	<path style="fill:none;stroke:red;stroke-width:1px;stroke-linecap:butt;stroke-linejoin:miter;stroke-opacity:1" d="M 550.686,919.971 514.482,923.591 z" id="boundary" inkscape:connector-curvature="0" />
	<path style="fill:none;stroke:red;stroke-width:1px;stroke-linecap:butt;stroke-linejoin:miter;stroke-opacity:1" d="M 775.153,257.431 771.533,221.226 z" id="boundary" inkscape:connector-curvature="0" />
	<path style="fill:none;stroke:red;stroke-width:1px;stroke-linecap:butt;stroke-linejoin:miter;stroke-opacity:1" d="M 612.234,282.774 604.993,246.569 z" id="boundary" inkscape:connector-curvature="0" />
	<path style="fill:none;stroke:red;stroke-width:1px;stroke-linecap:butt;stroke-linejoin:miter;stroke-opacity:1" d="M 901.869,217.606 930.832,242.949 z" id="boundary" inkscape:connector-curvature="0" />
	<path style="fill:none;stroke:red;stroke-width:1px;stroke-linecap:butt;stroke-linejoin:miter;stroke-opacity:1" d="M 959.796,264.672 996,242.949 z" id="boundary" inkscape:connector-curvature="0" />
	<path style="fill:none;stroke:red;stroke-width:1px;stroke-linecap:butt;stroke-linejoin:miter;stroke-opacity:1" d="M 996,242.949 550.686,919.971 z" id="boundary" inkscape:connector-curvature="0" />
	<path style="fill:none;stroke:red;stroke-width:1px;stroke-linecap:butt;stroke-linejoin:miter;stroke-opacity:1" d="M 959.796,264.672 930.832,242.949 z" id="boundary" inkscape:connector-curvature="0" />
	<path style="fill:none;stroke:red;stroke-width:1px;stroke-linecap:butt;stroke-linejoin:miter;stroke-opacity:1" d="M 757.051,311.737 775.153,257.431 z" id="boundary" inkscape:connector-curvature="0" />
	<path style="fill:none;stroke:red;stroke-width:1px;stroke-linecap:butt;stroke-linejoin:miter;stroke-opacity:1" d="M 626.715,318.978 655.679,340.701 z" id="boundary" inkscape:connector-curvature="0" />
	<path style="fill:none;stroke:red;stroke-width:1px;stroke-linecap:butt;stroke-linejoin:miter;stroke-opacity:1" d="M 612.234,282.774 626.715,318.978 z" id="boundary" inkscape:connector-curvature="0" />
	<path style="fill:none;stroke:red;stroke-width:1px;stroke-linecap:butt;stroke-linejoin:miter;stroke-opacity:1" d="M 655.679,340.701 691.883,347.942 z" id="boundary" inkscape:connector-curvature="0" />
	<path style="fill:none;stroke:red;stroke-width:1px;stroke-linecap:butt;stroke-linejoin:miter;stroke-opacity:1" d="M 728.088,340.701 550.686,919.971 z" id="boundary" inkscape:connector-curvature="0" />
	<path style="fill:none;stroke:red;stroke-width:1px;stroke-linecap:butt;stroke-linejoin:miter;stroke-opacity:1" d="M 728.088,340.701 691.883,347.942 z" id="boundary" inkscape:connector-curvature="0" />
	<path style="fill:none;stroke:red;stroke-width:1px;stroke-linecap:butt;stroke-linejoin:miter;stroke-opacity:1" d="M 757.051,311.737 728.088,340.701 z" id="boundary" inkscape:connector-curvature="0" />
	<path style="fill:none;stroke:red;stroke-width:1px;stroke-linecap:butt;stroke-linejoin:miter;stroke-opacity:1" d="M 423.971,4 460.175,4 z" id="boundary" inkscape:connector-curvature="0" />
	<circle cx="4" cy="373.285" r="4" fill="#0" id="circle0"/>
	<circle cx="18.4818" cy="329.839" r="4" fill="#0" id="circle1"/>
	<circle cx="32.9635" cy="398.628" r="4" fill="#0" id="circle2"/>
	<circle cx="36.5839" cy="297.255" r="4" fill="#0" id="circle3"/>
	<circle cx="54.6861" cy="264.672" r="4" fill="#0" id="circle4"/>
	<circle cx="69.1679" cy="398.628" r="4" fill="#0" id="circle5"/>
	<circle cx="76.4088" cy="235.708" r="4" fill="#0" id="circle6"/>
	<circle cx="101.752" cy="380.526" r="4" fill="#0" id="circle7"/>
	<circle cx="105.372" cy="206.745" r="4" fill="#0" id="circle8"/>
	<circle cx="130.715" cy="402.248" r="4" fill="#0" id="circle9"/>
	<circle cx="134.336" cy="177.781" r="4" fill="#0" id="circle10"/>
	<circle cx="163.299" cy="148.818" r="4" fill="#0" id="circle11"/>
	<circle cx="166.92" cy="398.628" r="4" fill="#0" id="circle12"/>
	<circle cx="192.263" cy="119.854" r="4" fill="#0" id="circle13"/>
	<circle cx="203.124" cy="387.766" r="4" fill="#0" id="circle14"/>
	<circle cx="221.226" cy="98.1314" r="4" fill="#0" id="circle15"/>
	<circle cx="239.328" cy="376.905" r="4" fill="#0" id="circle16"/>
	<circle cx="250.19" cy="69.1679" r="4" fill="#0" id="circle17"/>
	<circle cx="275.533" cy="366.044" r="4" fill="#0" id="circle18"/>
	<circle cx="282.774" cy="51.0657" r="4" fill="#0" id="circle19"/>
	<circle cx="308.117" cy="347.942" r="4" fill="#0" id="circle20"/>
	<circle cx="315.358" cy="32.9635" r="4" fill="#0" id="circle21"/>
	<circle cx="344.321" cy="333.46" r="4" fill="#0" id="circle22"/>
	<circle cx="351.562" cy="18.4818" r="4" fill="#0" id="circle23"/>
	<circle cx="373.285" cy="366.044" r="4" fill="#0" id="circle24"/>
	<circle cx="373.285" cy="402.248" r="4" fill="#0" id="circle25"/>
	<circle cx="373.285" cy="438.453" r="4" fill="#0" id="circle26"/>
	<circle cx="373.285" cy="474.657" r="4" fill="#0" id="circle27"/>
	<circle cx="373.285" cy="510.861" r="4" fill="#0" id="circle28"/>
	<circle cx="373.285" cy="547.066" r="4" fill="#0" id="circle29"/>
	<circle cx="373.285" cy="583.27" r="4" fill="#0" id="circle30"/>
	<circle cx="373.285" cy="619.474" r="4" fill="#0" id="circle31"/>
	<circle cx="373.285" cy="655.679" r="4" fill="#0" id="circle32"/>
	<circle cx="380.526" cy="329.839" r="4" fill="#0" id="circle33"/>
	<circle cx="380.526" cy="691.883" r="4" fill="#0" id="circle34"/>
	<circle cx="387.766" cy="4" r="4" fill="#0" id="circle35"/>
	<circle cx="387.766" cy="728.088" r="4" fill="#0" id="circle36"/>
	<circle cx="395.007" cy="764.292" r="4" fill="#0" id="circle37"/>
	<circle cx="398.628" cy="800.496" r="4" fill="#0" id="circle38"/>
	<circle cx="402.248" cy="836.701" r="4" fill="#0" id="circle39"/>
	<circle cx="409.489" cy="872.905" r="4" fill="#0" id="circle40"/>
	<circle cx="409.489" cy="909.109" r="4" fill="#0" id="circle41"/>
	<circle cx="420.35" cy="583.27" r="4" fill="#0" id="circle42"/>
	<circle cx="420.35" cy="619.474" r="4" fill="#0" id="circle43"/>
	<circle cx="420.35" cy="655.679" r="4" fill="#0" id="circle44"/>
	<circle cx="423.971" cy="4" r="4" fill="#0" id="circle45"/>
	<circle cx="427.591" cy="547.066" r="4" fill="#0" id="circle46"/>
	<circle cx="427.591" cy="691.883" r="4" fill="#0" id="circle47"/>
	<circle cx="431.212" cy="728.088" r="4" fill="#0" id="circle48"/>
	<circle cx="434.832" cy="764.292" r="4" fill="#0" id="circle49"/>
	<circle cx="442.073" cy="489.139" r="4" fill="#0" id="circle50"/>
	<circle cx="442.073" cy="800.496" r="4" fill="#0" id="circle51"/>
	<circle cx="442.073" cy="927.212" r="4" fill="#0" id="circle52"/>
	<circle cx="449.314" cy="452.934" r="4" fill="#0" id="circle53"/>
	<circle cx="449.314" cy="836.701" r="4" fill="#0" id="circle54"/>
	<circle cx="456.555" cy="872.905" r="4" fill="#0" id="circle55"/>
	<circle cx="460.175" cy="4" r="4" fill="#0" id="circle56"/>
	<circle cx="463.796" cy="387.766" r="4" fill="#0" id="circle57"/>
	<circle cx="471.036" cy="344.321" r="4" fill="#0" id="circle58"/>
	<circle cx="478.277" cy="293.635" r="4" fill="#0" id="circle59"/>
	<circle cx="478.277" cy="927.212" r="4" fill="#0" id="circle60"/>
	<circle cx="492.759" cy="880.146" r="4" fill="#0" id="circle61"/>
	<circle cx="496.38" cy="4" r="4" fill="#0" id="circle62"/>
	<circle cx="500" cy="264.672" r="4" fill="#0" id="circle63"/>
	<circle cx="514.482" cy="923.591" r="4" fill="#0" id="circle64"/>
	<circle cx="528.964" cy="235.708" r="4" fill="#0" id="circle65"/>
	<circle cx="528.964" cy="887.387" r="4" fill="#0" id="circle66"/>
	<circle cx="532.584" cy="11.2409" r="4" fill="#0" id="circle67"/>
	<circle cx="550.686" cy="919.971" r="4" fill="#0" id="circle68"/>
	<circle cx="557.927" cy="213.985" r="4" fill="#0" id="circle69"/>
	<circle cx="568.788" cy="25.7226" r="4" fill="#0" id="circle70"/>
	<circle cx="594.131" cy="210.365" r="4" fill="#0" id="circle71"/>
	<circle cx="604.993" cy="40.2044" r="4" fill="#0" id="circle72"/>
	<circle cx="604.993" cy="246.569" r="4" fill="#0" id="circle73"/>
	<circle cx="612.234" cy="282.774" r="4" fill="#0" id="circle74"/>
	<circle cx="626.715" cy="318.978" r="4" fill="#0" id="circle75"/>
	<circle cx="633.956" cy="65.5474" r="4" fill="#0" id="circle76"/>
	<circle cx="655.679" cy="94.5109" r="4" fill="#0" id="circle77"/>
	<circle cx="655.679" cy="340.701" r="4" fill="#0" id="circle78"/>
	<circle cx="666.54" cy="130.715" r="4" fill="#0" id="circle79"/>
	<circle cx="681.022" cy="166.92" r="4" fill="#0" id="circle80"/>
	<circle cx="691.883" cy="347.942" r="4" fill="#0" id="circle81"/>
	<circle cx="702.745" cy="130.715" r="4" fill="#0" id="circle82"/>
	<circle cx="724.467" cy="101.752" r="4" fill="#0" id="circle83"/>
	<circle cx="728.088" cy="340.701" r="4" fill="#0" id="circle84"/>
	<circle cx="753.431" cy="76.4088" r="4" fill="#0" id="circle85"/>
	<circle cx="757.051" cy="311.737" r="4" fill="#0" id="circle86"/>
	<circle cx="767.912" cy="185.022" r="4" fill="#0" id="circle87"/>
	<circle cx="771.533" cy="221.226" r="4" fill="#0" id="circle88"/>
	<circle cx="775.153" cy="257.431" r="4" fill="#0" id="circle89"/>
	<circle cx="789.635" cy="69.1679" r="4" fill="#0" id="circle90"/>
	<circle cx="800.496" cy="166.92" r="4" fill="#0" id="circle91"/>
	<circle cx="825.839" cy="69.1679" r="4" fill="#0" id="circle92"/>
	<circle cx="829.46" cy="188.642" r="4" fill="#0" id="circle93"/>
	<circle cx="862.044" cy="76.4088" r="4" fill="#0" id="circle94"/>
	<circle cx="865.664" cy="203.124" r="4" fill="#0" id="circle95"/>
	<circle cx="898.248" cy="90.8905" r="4" fill="#0" id="circle96"/>
	<circle cx="901.869" cy="217.606" r="4" fill="#0" id="circle97"/>
	<circle cx="919.971" cy="119.854" r="4" fill="#0" id="circle98"/>
	<circle cx="930.832" cy="156.058" r="4" fill="#0" id="circle99"/>
	<circle cx="930.832" cy="242.949" r="4" fill="#0" id="circle100"/>
	<circle cx="952.555" cy="185.022" r="4" fill="#0" id="circle101"/>
	<circle cx="959.796" cy="264.672" r="4" fill="#0" id="circle102"/>
	<circle cx="974.277" cy="213.985" r="4" fill="#0" id="circle103"/>
	<circle cx="996" cy="242.949" r="4" fill="#0" id="circle104"/>
	</g>
</svg>