<?xml version="1.0" encoding="UTF-8" standalone="no"?>
<!-- Created with CurveBenchmark -->
<svg
	xmlns:dc="http://purl.org/dc/elements/1.1/"
	xmlns:cc="http://creativecommons.org/ns#"
	xmlns:rdf="http://www.w3.org/1999/02/22-rdf-syntax-ns#"
	xmlns:svg="http://www.w3.org/2000/svg"
	xmlns="http://www.w3.org/2000/svg"
	xmlns:sodipodi="http://sodipodi.sourceforge.net/DTD/sodipodi-0.dtd"
	xmlns:inkscape="http://www.inkscape.org/namespaces/inkscape"
	width="1000"
	height="1000"
	id="svg2"
	version="1.1"
	sodipodi:docname="manifold/nncrust-carriage02.png.txt">
<defs
	id="defs4" />
<metadata
	id="metadata7">
	<rdf:RDF>
		<cc:Work
			rdf:about="">
			<dc:format>image/svg+xml</dc:format>
			<dc:type
				rdf:resource="http://purl.org/dc/dcmitype/StillImage" />
			<dc:title></dc:title>
		</cc:Work>
	</rdf:RDF>
</metadata>
<g
	inkscape:label="Layer 1"
	inkscape:groupmode="layer"
	id="layer1">
	<path style="fill:none;stroke:red;stroke-width:1px;stroke-linecap:butt;stroke-linejoin:miter;stroke-opacity:1" d="M 25.6376,70.5772 38.953,57.2617 z" id="boundary" inkscape:connector-curvature="0" />
	<path style="fill:none;stroke:red;stroke-width:1px;stroke-linecap:butt;stroke-linejoin:miter;stroke-opacity:1" d="M 38.953,57.2617 53.9329,113.852 z" id="boundary" inkscape:connector-curvature="0" />
	<path style="fill:none;stroke:red;stroke-width:1px;stroke-linecap:butt;stroke-linejoin:miter;stroke-opacity:1" d="M 38.953,57.2617 55.5973,48.9396 z" id="boundary" inkscape:connector-curvature="0" />
	<path style="fill:none;stroke:red;stroke-width:1px;stroke-linecap:butt;stroke-linejoin:miter;stroke-opacity:1" d="M 4,108.859 12.3221,83.8926 z" id="boundary" inkscape:connector-curvature="0" />
	<path style="fill:none;stroke:red;stroke-width:1px;stroke-linecap:butt;stroke-linejoin:miter;stroke-opacity:1" d="M 12.3221,83.8926 25.6376,70.5772 z" id="boundary" inkscape:connector-curvature="0" />
	<path style="fill:none;stroke:red;stroke-width:1px;stroke-linecap:butt;stroke-linejoin:miter;stroke-opacity:1" d="M 55.5973,48.9396 72.2416,40.6174 z" id="boundary" inkscape:connector-curvature="0" />
	<path style="fill:none;stroke:red;stroke-width:1px;stroke-linecap:butt;stroke-linejoin:miter;stroke-opacity:1" d="M 113.852,67.2483 100.537,55.5973 z" id="boundary" inkscape:connector-curvature="0" />
	<path style="fill:none;stroke:red;stroke-width:1px;stroke-linecap:butt;stroke-linejoin:miter;stroke-opacity:1" d="M 100.537,55.5973 88.8859,42.2819 z" id="boundary" inkscape:connector-curvature="0" />
	<path style="fill:none;stroke:red;stroke-width:1px;stroke-linecap:butt;stroke-linejoin:miter;stroke-opacity:1" d="M 125.503,80.5638 113.852,67.2483 z" id="boundary" inkscape:connector-curvature="0" />
	<path style="fill:none;stroke:red;stroke-width:1px;stroke-linecap:butt;stroke-linejoin:miter;stroke-opacity:1" d="M 72.2416,40.6174 88.8859,42.2819 z" id="boundary" inkscape:connector-curvature="0" />
	<path style="fill:none;stroke:red;stroke-width:1px;stroke-linecap:butt;stroke-linejoin:miter;stroke-opacity:1" d="M 138.819,92.2148 125.503,80.5638 z" id="boundary" inkscape:connector-curvature="0" />
	<path style="fill:none;stroke:red;stroke-width:1px;stroke-linecap:butt;stroke-linejoin:miter;stroke-opacity:1" d="M 138.819,92.2148 152.134,103.866 z" id="boundary" inkscape:connector-curvature="0" />
	<path style="fill:none;stroke:red;stroke-width:1px;stroke-linecap:butt;stroke-linejoin:miter;stroke-opacity:1" d="M 183.758,112.188 167.114,112.188 z" id="boundary" inkscape:connector-curvature="0" />
	<path style="fill:none;stroke:red;stroke-width:1px;stroke-linecap:butt;stroke-linejoin:miter;stroke-opacity:1" d="M 167.114,112.188 152.134,103.866 z" id="boundary" inkscape:connector-curvature="0" />
	<path style="fill:none;stroke:red;stroke-width:1px;stroke-linecap:butt;stroke-linejoin:miter;stroke-opacity:1" d="M 12.3221,123.839 4,108.859 z" id="boundary" inkscape:connector-curvature="0" />
	<path style="fill:none;stroke:red;stroke-width:1px;stroke-linecap:butt;stroke-linejoin:miter;stroke-opacity:1" d="M 53.9329,113.852 38.953,122.174 z" id="boundary" inkscape:connector-curvature="0" />
	<path style="fill:none;stroke:red;stroke-width:1px;stroke-linecap:butt;stroke-linejoin:miter;stroke-opacity:1" d="M 38.953,122.174 33.9597,145.477 z" id="boundary" inkscape:connector-curvature="0" />
	<path style="fill:none;stroke:red;stroke-width:1px;stroke-linecap:butt;stroke-linejoin:miter;stroke-opacity:1" d="M 12.3221,140.483 20.6443,155.463 z" id="boundary" inkscape:connector-curvature="0" />
	<path style="fill:none;stroke:red;stroke-width:1px;stroke-linecap:butt;stroke-linejoin:miter;stroke-opacity:1" d="M 33.9597,145.477 20.6443,155.463 z" id="boundary" inkscape:connector-curvature="0" />
	<path style="fill:none;stroke:red;stroke-width:1px;stroke-linecap:butt;stroke-linejoin:miter;stroke-opacity:1" d="M 12.3221,140.483 12.3221,123.839 z" id="boundary" inkscape:connector-curvature="0" />
	<path style="fill:none;stroke:red;stroke-width:1px;stroke-linecap:butt;stroke-linejoin:miter;stroke-opacity:1" d="M 53.9329,142.148 33.9597,145.477 z" id="boundary" inkscape:connector-curvature="0" />
	<path style="fill:none;stroke:red;stroke-width:1px;stroke-linecap:butt;stroke-linejoin:miter;stroke-opacity:1" d="M 53.9329,142.148 62.255,157.128 z" id="boundary" inkscape:connector-curvature="0" />
	<path style="fill:none;stroke:red;stroke-width:1px;stroke-linecap:butt;stroke-linejoin:miter;stroke-opacity:1" d="M 70.5772,172.107 75.5705,188.752 z" id="boundary" inkscape:connector-curvature="0" />
	<path style="fill:none;stroke:red;stroke-width:1px;stroke-linecap:butt;stroke-linejoin:miter;stroke-opacity:1" d="M 62.255,157.128 70.5772,172.107 z" id="boundary" inkscape:connector-curvature="0" />
	<path style="fill:none;stroke:red;stroke-width:1px;stroke-linecap:butt;stroke-linejoin:miter;stroke-opacity:1" d="M 83.8926,203.732 95.5436,217.047 z" id="boundary" inkscape:connector-curvature="0" />
	<path style="fill:none;stroke:red;stroke-width:1px;stroke-linecap:butt;stroke-linejoin:miter;stroke-opacity:1" d="M 95.5436,217.047 103.866,232.027 z" id="boundary" inkscape:connector-curvature="0" />
	<path style="fill:none;stroke:red;stroke-width:1px;stroke-linecap:butt;stroke-linejoin:miter;stroke-opacity:1" d="M 83.8926,203.732 75.5705,188.752 z" id="boundary" inkscape:connector-curvature="0" />
	<path style="fill:none;stroke:red;stroke-width:1px;stroke-linecap:butt;stroke-linejoin:miter;stroke-opacity:1" d="M 112.188,296.94 20.6443,155.463 z" id="boundary" inkscape:connector-curvature="0" />
	<path style="fill:none;stroke:red;stroke-width:1px;stroke-linecap:butt;stroke-linejoin:miter;stroke-opacity:1" d="M 112.188,247.007 103.866,232.027 z" id="boundary" inkscape:connector-curvature="0" />
	<path style="fill:none;stroke:red;stroke-width:1px;stroke-linecap:butt;stroke-linejoin:miter;stroke-opacity:1" d="M 112.188,247.007 112.188,263.651 z" id="boundary" inkscape:connector-curvature="0" />
	<path style="fill:none;stroke:red;stroke-width:1px;stroke-linecap:butt;stroke-linejoin:miter;stroke-opacity:1" d="M 215.383,120.51 198.738,120.51 z" id="boundary" inkscape:connector-curvature="0" />
	<path style="fill:none;stroke:red;stroke-width:1px;stroke-linecap:butt;stroke-linejoin:miter;stroke-opacity:1" d="M 198.738,120.51 183.758,112.188 z" id="boundary" inkscape:connector-curvature="0" />
	<path style="fill:none;stroke:red;stroke-width:1px;stroke-linecap:butt;stroke-linejoin:miter;stroke-opacity:1" d="M 232.027,120.51 215.383,120.51 z" id="boundary" inkscape:connector-curvature="0" />
	<path style="fill:none;stroke:red;stroke-width:1px;stroke-linecap:butt;stroke-linejoin:miter;stroke-opacity:1" d="M 232.027,120.51 248.671,120.51 z" id="boundary" inkscape:connector-curvature="0" />
	<path style="fill:none;stroke:red;stroke-width:1px;stroke-linecap:butt;stroke-linejoin:miter;stroke-opacity:1" d="M 248.671,120.51 265.315,120.51 z" id="boundary" inkscape:connector-curvature="0" />
	<path style="fill:none;stroke:red;stroke-width:1px;stroke-linecap:butt;stroke-linejoin:miter;stroke-opacity:1" d="M 281.96,120.51 298.604,120.51 z" id="boundary" inkscape:connector-curvature="0" />
	<path style="fill:none;stroke:red;stroke-width:1px;stroke-linecap:butt;stroke-linejoin:miter;stroke-opacity:1" d="M 281.96,120.51 265.315,120.51 z" id="boundary" inkscape:connector-curvature="0" />
	<path style="fill:none;stroke:red;stroke-width:1px;stroke-linecap:butt;stroke-linejoin:miter;stroke-opacity:1" d="M 298.604,120.51 315.248,120.51 z" id="boundary" inkscape:connector-curvature="0" />
	<path style="fill:none;stroke:red;stroke-width:1px;stroke-linecap:butt;stroke-linejoin:miter;stroke-opacity:1" d="M 331.893,120.51 348.537,120.51 z" id="boundary" inkscape:connector-curvature="0" />
	<path style="fill:none;stroke:red;stroke-width:1px;stroke-linecap:butt;stroke-linejoin:miter;stroke-opacity:1" d="M 331.893,120.51 315.248,120.51 z" id="boundary" inkscape:connector-curvature="0" />
	<path style="fill:none;stroke:red;stroke-width:1px;stroke-linecap:butt;stroke-linejoin:miter;stroke-opacity:1" d="M 365.181,120.51 348.537,120.51 z" id="boundary" inkscape:connector-curvature="0" />
	<path style="fill:none;stroke:red;stroke-width:1px;stroke-linecap:butt;stroke-linejoin:miter;stroke-opacity:1" d="M 365.181,120.51 378.497,132.161 z" id="boundary" inkscape:connector-curvature="0" />
	<path style="fill:none;stroke:red;stroke-width:1px;stroke-linecap:butt;stroke-linejoin:miter;stroke-opacity:1" d="M 393.477,163.785 385.154,148.805 z" id="boundary" inkscape:connector-curvature="0" />
	<path style="fill:none;stroke:red;stroke-width:1px;stroke-linecap:butt;stroke-linejoin:miter;stroke-opacity:1" d="M 385.154,148.805 378.497,132.161 z" id="boundary" inkscape:connector-curvature="0" />
	<path style="fill:none;stroke:red;stroke-width:1px;stroke-linecap:butt;stroke-linejoin:miter;stroke-opacity:1" d="M 393.477,163.785 396.805,188.752 z" id="boundary" inkscape:connector-curvature="0" />
	<path style="fill:none;stroke:red;stroke-width:1px;stroke-linecap:butt;stroke-linejoin:miter;stroke-opacity:1" d="M 396.805,188.752 405.128,203.732 z" id="boundary" inkscape:connector-curvature="0" />
	<path style="fill:none;stroke:red;stroke-width:1px;stroke-linecap:butt;stroke-linejoin:miter;stroke-opacity:1" d="M 405.128,203.732 405.128,220.376 z" id="boundary" inkscape:connector-curvature="0" />
	<path style="fill:none;stroke:red;stroke-width:1px;stroke-linecap:butt;stroke-linejoin:miter;stroke-opacity:1" d="M 405.128,237.02 405.128,220.376 z" id="boundary" inkscape:connector-curvature="0" />
	<path style="fill:none;stroke:red;stroke-width:1px;stroke-linecap:butt;stroke-linejoin:miter;stroke-opacity:1" d="M 461.718,150.47 470.04,133.826 z" id="boundary" inkscape:connector-curvature="0" />
	<path style="fill:none;stroke:red;stroke-width:1px;stroke-linecap:butt;stroke-linejoin:miter;stroke-opacity:1" d="M 470.04,133.826 483.356,120.51 z" id="boundary" inkscape:connector-curvature="0" />
	<path style="fill:none;stroke:red;stroke-width:1px;stroke-linecap:butt;stroke-linejoin:miter;stroke-opacity:1" d="M 453.396,175.436 436.752,192.081 z" id="boundary" inkscape:connector-curvature="0" />
	<path style="fill:none;stroke:red;stroke-width:1px;stroke-linecap:butt;stroke-linejoin:miter;stroke-opacity:1" d="M 461.718,150.47 453.396,175.436 z" id="boundary" inkscape:connector-curvature="0" />
	<path style="fill:none;stroke:red;stroke-width:1px;stroke-linecap:butt;stroke-linejoin:miter;stroke-opacity:1" d="M 563.248,230.362 453.396,175.436 z" id="boundary" inkscape:connector-curvature="0" />
	<path style="fill:none;stroke:red;stroke-width:1px;stroke-linecap:butt;stroke-linejoin:miter;stroke-opacity:1" d="M 436.752,208.725 436.752,225.369 z" id="boundary" inkscape:connector-curvature="0" />
	<path style="fill:none;stroke:red;stroke-width:1px;stroke-linecap:butt;stroke-linejoin:miter;stroke-opacity:1" d="M 436.752,192.081 436.752,208.725 z" id="boundary" inkscape:connector-curvature="0" />
	<path style="fill:none;stroke:red;stroke-width:1px;stroke-linecap:butt;stroke-linejoin:miter;stroke-opacity:1" d="M 436.752,225.369 428.43,242.013 z" id="boundary" inkscape:connector-curvature="0" />
	<path style="fill:none;stroke:red;stroke-width:1px;stroke-linecap:butt;stroke-linejoin:miter;stroke-opacity:1" d="M 491.678,103.866 483.356,120.51 z" id="boundary" inkscape:connector-curvature="0" />
	<path style="fill:none;stroke:red;stroke-width:1px;stroke-linecap:butt;stroke-linejoin:miter;stroke-opacity:1" d="M 413.45,252 405.128,237.02 z" id="boundary" inkscape:connector-curvature="0" />
	<path style="fill:none;stroke:red;stroke-width:1px;stroke-linecap:butt;stroke-linejoin:miter;stroke-opacity:1" d="M 428.43,242.013 413.45,252 z" id="boundary" inkscape:connector-curvature="0" />
	<path style="fill:none;stroke:red;stroke-width:1px;stroke-linecap:butt;stroke-linejoin:miter;stroke-opacity:1" d="M 112.188,280.295 112.188,263.651 z" id="boundary" inkscape:connector-curvature="0" />
	<path style="fill:none;stroke:red;stroke-width:1px;stroke-linecap:butt;stroke-linejoin:miter;stroke-opacity:1" d="M 185.423,268.644 172.107,280.295 z" id="boundary" inkscape:connector-curvature="0" />
	<path style="fill:none;stroke:red;stroke-width:1px;stroke-linecap:butt;stroke-linejoin:miter;stroke-opacity:1" d="M 112.188,280.295 112.188,296.94 z" id="boundary" inkscape:connector-curvature="0" />
	<path style="fill:none;stroke:red;stroke-width:1px;stroke-linecap:butt;stroke-linejoin:miter;stroke-opacity:1" d="M 172.107,280.295 163.785,305.262 z" id="boundary" inkscape:connector-curvature="0" />
	<path style="fill:none;stroke:red;stroke-width:1px;stroke-linecap:butt;stroke-linejoin:miter;stroke-opacity:1" d="M 163.785,305.262 155.463,321.906 z" id="boundary" inkscape:connector-curvature="0" />
	<path style="fill:none;stroke:red;stroke-width:1px;stroke-linecap:butt;stroke-linejoin:miter;stroke-opacity:1" d="M 112.188,296.94 112.188,313.584 z" id="boundary" inkscape:connector-curvature="0" />
	<path style="fill:none;stroke:red;stroke-width:1px;stroke-linecap:butt;stroke-linejoin:miter;stroke-opacity:1" d="M 245.342,247.007 228.698,247.007 z" id="boundary" inkscape:connector-curvature="0" />
	<path style="fill:none;stroke:red;stroke-width:1px;stroke-linecap:butt;stroke-linejoin:miter;stroke-opacity:1" d="M 261.987,247.007 245.342,247.007 z" id="boundary" inkscape:connector-curvature="0" />
	<path style="fill:none;stroke:red;stroke-width:1px;stroke-linecap:butt;stroke-linejoin:miter;stroke-opacity:1" d="M 212.054,250.336 228.698,247.007 z" id="boundary" inkscape:connector-curvature="0" />
	<path style="fill:none;stroke:red;stroke-width:1px;stroke-linecap:butt;stroke-linejoin:miter;stroke-opacity:1" d="M 195.409,255.329 185.423,268.644 z" id="boundary" inkscape:connector-curvature="0" />
	<path style="fill:none;stroke:red;stroke-width:1px;stroke-linecap:butt;stroke-linejoin:miter;stroke-opacity:1" d="M 293.611,255.329 278.631,247.007 z" id="boundary" inkscape:connector-curvature="0" />
	<path style="fill:none;stroke:red;stroke-width:1px;stroke-linecap:butt;stroke-linejoin:miter;stroke-opacity:1" d="M 261.987,247.007 278.631,247.007 z" id="boundary" inkscape:connector-curvature="0" />
	<path style="fill:none;stroke:red;stroke-width:1px;stroke-linecap:butt;stroke-linejoin:miter;stroke-opacity:1" d="M 195.409,255.329 212.054,250.336 z" id="boundary" inkscape:connector-curvature="0" />
	<path style="fill:none;stroke:red;stroke-width:1px;stroke-linecap:butt;stroke-linejoin:miter;stroke-opacity:1" d="M 112.188,313.584 112.188,330.228 z" id="boundary" inkscape:connector-curvature="0" />
	<path style="fill:none;stroke:red;stroke-width:1px;stroke-linecap:butt;stroke-linejoin:miter;stroke-opacity:1" d="M 155.463,338.55 147.141,355.195 z" id="boundary" inkscape:connector-curvature="0" />
	<path style="fill:none;stroke:red;stroke-width:1px;stroke-linecap:butt;stroke-linejoin:miter;stroke-opacity:1" d="M 112.188,346.872 112.188,330.228 z" id="boundary" inkscape:connector-curvature="0" />
	<path style="fill:none;stroke:red;stroke-width:1px;stroke-linecap:butt;stroke-linejoin:miter;stroke-opacity:1" d="M 112.188,346.872 103.866,375.168 z" id="boundary" inkscape:connector-curvature="0" />
	<path style="fill:none;stroke:red;stroke-width:1px;stroke-linecap:butt;stroke-linejoin:miter;stroke-opacity:1" d="M 117.181,386.819 103.866,375.168 z" id="boundary" inkscape:connector-curvature="0" />
	<path style="fill:none;stroke:red;stroke-width:1px;stroke-linecap:butt;stroke-linejoin:miter;stroke-opacity:1" d="M 133.826,380.161 117.181,386.819 z" id="boundary" inkscape:connector-curvature="0" />
	<path style="fill:none;stroke:red;stroke-width:1px;stroke-linecap:butt;stroke-linejoin:miter;stroke-opacity:1" d="M 133.826,380.161 147.141,355.195 z" id="boundary" inkscape:connector-curvature="0" />
	<path style="fill:none;stroke:red;stroke-width:1px;stroke-linecap:butt;stroke-linejoin:miter;stroke-opacity:1" d="M 155.463,338.55 155.463,321.906 z" id="boundary" inkscape:connector-curvature="0" />
	<path style="fill:none;stroke:red;stroke-width:1px;stroke-linecap:butt;stroke-linejoin:miter;stroke-opacity:1" d="M 283.624,353.53 270.309,366.846 z" id="boundary" inkscape:connector-curvature="0" />
	<path style="fill:none;stroke:red;stroke-width:1px;stroke-linecap:butt;stroke-linejoin:miter;stroke-opacity:1" d="M 270.309,366.846 270.309,383.49 z" id="boundary" inkscape:connector-curvature="0" />
	<path style="fill:none;stroke:red;stroke-width:1px;stroke-linecap:butt;stroke-linejoin:miter;stroke-opacity:1" d="M 296.94,396.805 280.295,396.805 z" id="boundary" inkscape:connector-curvature="0" />
	<path style="fill:none;stroke:red;stroke-width:1px;stroke-linecap:butt;stroke-linejoin:miter;stroke-opacity:1" d="M 280.295,396.805 270.309,383.49 z" id="boundary" inkscape:connector-curvature="0" />
	<path style="fill:none;stroke:red;stroke-width:1px;stroke-linecap:butt;stroke-linejoin:miter;stroke-opacity:1" d="M 283.624,353.53 296.94,340.215 z" id="boundary" inkscape:connector-curvature="0" />
	<path style="fill:none;stroke:red;stroke-width:1px;stroke-linecap:butt;stroke-linejoin:miter;stroke-opacity:1" d="M 303.597,321.906 296.94,340.215 z" id="boundary" inkscape:connector-curvature="0" />
	<path style="fill:none;stroke:red;stroke-width:1px;stroke-linecap:butt;stroke-linejoin:miter;stroke-opacity:1" d="M 293.611,255.329 300.268,271.973 z" id="boundary" inkscape:connector-curvature="0" />
	<path style="fill:none;stroke:red;stroke-width:1px;stroke-linecap:butt;stroke-linejoin:miter;stroke-opacity:1" d="M 303.597,288.617 300.268,271.973 z" id="boundary" inkscape:connector-curvature="0" />
	<path style="fill:none;stroke:red;stroke-width:1px;stroke-linecap:butt;stroke-linejoin:miter;stroke-opacity:1" d="M 380.161,280.295 380.161,296.94 z" id="boundary" inkscape:connector-curvature="0" />
	<path style="fill:none;stroke:red;stroke-width:1px;stroke-linecap:butt;stroke-linejoin:miter;stroke-opacity:1" d="M 303.597,288.617 303.597,305.262 z" id="boundary" inkscape:connector-curvature="0" />
	<path style="fill:none;stroke:red;stroke-width:1px;stroke-linecap:butt;stroke-linejoin:miter;stroke-opacity:1" d="M 303.597,321.906 303.597,305.262 z" id="boundary" inkscape:connector-curvature="0" />
	<path style="fill:none;stroke:red;stroke-width:1px;stroke-linecap:butt;stroke-linejoin:miter;stroke-opacity:1" d="M 380.161,296.94 380.161,313.584 z" id="boundary" inkscape:connector-curvature="0" />
	<path style="fill:none;stroke:red;stroke-width:1px;stroke-linecap:butt;stroke-linejoin:miter;stroke-opacity:1" d="M 380.161,280.295 396.805,283.624 z" id="boundary" inkscape:connector-curvature="0" />
	<path style="fill:none;stroke:red;stroke-width:1px;stroke-linecap:butt;stroke-linejoin:miter;stroke-opacity:1" d="M 396.805,283.624 413.45,252 z" id="boundary" inkscape:connector-curvature="0" />
	<path style="fill:none;stroke:red;stroke-width:1px;stroke-linecap:butt;stroke-linejoin:miter;stroke-opacity:1" d="M 413.45,288.617 396.805,283.624 z" id="boundary" inkscape:connector-curvature="0" />
	<path style="fill:none;stroke:red;stroke-width:1px;stroke-linecap:butt;stroke-linejoin:miter;stroke-opacity:1" d="M 430.094,288.617 413.45,288.617 z" id="boundary" inkscape:connector-curvature="0" />
	<path style="fill:none;stroke:red;stroke-width:1px;stroke-linecap:butt;stroke-linejoin:miter;stroke-opacity:1" d="M 440.081,301.933 445.074,318.577 z" id="boundary" inkscape:connector-curvature="0" />
	<path style="fill:none;stroke:red;stroke-width:1px;stroke-linecap:butt;stroke-linejoin:miter;stroke-opacity:1" d="M 430.094,288.617 440.081,301.933 z" id="boundary" inkscape:connector-curvature="0" />
	<path style="fill:none;stroke:red;stroke-width:1px;stroke-linecap:butt;stroke-linejoin:miter;stroke-opacity:1" d="M 453.396,333.557 445.074,318.577 z" id="boundary" inkscape:connector-curvature="0" />
	<path style="fill:none;stroke:red;stroke-width:1px;stroke-linecap:butt;stroke-linejoin:miter;stroke-opacity:1" d="M 380.161,313.584 380.161,330.228 z" id="boundary" inkscape:connector-curvature="0" />
	<path style="fill:none;stroke:red;stroke-width:1px;stroke-linecap:butt;stroke-linejoin:miter;stroke-opacity:1" d="M 380.161,280.295 413.45,252 z" id="boundary" inkscape:connector-curvature="0" />
	<path style="fill:none;stroke:red;stroke-width:1px;stroke-linecap:butt;stroke-linejoin:miter;stroke-opacity:1" d="M 375.168,378.497 361.852,388.483 z" id="boundary" inkscape:connector-curvature="0" />
	<path style="fill:none;stroke:red;stroke-width:1px;stroke-linecap:butt;stroke-linejoin:miter;stroke-opacity:1" d="M 380.161,355.195 375.168,378.497 z" id="boundary" inkscape:connector-curvature="0" />
	<path style="fill:none;stroke:red;stroke-width:1px;stroke-linecap:butt;stroke-linejoin:miter;stroke-opacity:1" d="M 296.94,396.805 313.584,396.805 z" id="boundary" inkscape:connector-curvature="0" />
	<path style="fill:none;stroke:red;stroke-width:1px;stroke-linecap:butt;stroke-linejoin:miter;stroke-opacity:1" d="M 330.228,396.805 346.872,396.805 z" id="boundary" inkscape:connector-curvature="0" />
	<path style="fill:none;stroke:red;stroke-width:1px;stroke-linecap:butt;stroke-linejoin:miter;stroke-opacity:1" d="M 361.852,388.483 346.872,396.805 z" id="boundary" inkscape:connector-curvature="0" />
	<path style="fill:none;stroke:red;stroke-width:1px;stroke-linecap:butt;stroke-linejoin:miter;stroke-opacity:1" d="M 330.228,396.805 313.584,396.805 z" id="boundary" inkscape:connector-curvature="0" />
	<path style="fill:none;stroke:red;stroke-width:1px;stroke-linecap:butt;stroke-linejoin:miter;stroke-opacity:1" d="M 380.161,330.228 380.161,355.195 z" id="boundary" inkscape:connector-curvature="0" />
	<path style="fill:none;stroke:red;stroke-width:1px;stroke-linecap:butt;stroke-linejoin:miter;stroke-opacity:1" d="M 453.396,350.201 453.396,333.557 z" id="boundary" inkscape:connector-curvature="0" />
	<path style="fill:none;stroke:red;stroke-width:1px;stroke-linecap:butt;stroke-linejoin:miter;stroke-opacity:1" d="M 461.718,365.181 453.396,350.201 z" id="boundary" inkscape:connector-curvature="0" />
	<path style="fill:none;stroke:red;stroke-width:1px;stroke-linecap:butt;stroke-linejoin:miter;stroke-opacity:1" d="M 461.718,365.181 461.718,381.826 z" id="boundary" inkscape:connector-curvature="0" />
	<path style="fill:none;stroke:red;stroke-width:1px;stroke-linecap:butt;stroke-linejoin:miter;stroke-opacity:1" d="M 495.007,405.128 478.362,405.128 z" id="boundary" inkscape:connector-curvature="0" />
	<path style="fill:none;stroke:red;stroke-width:1px;stroke-linecap:butt;stroke-linejoin:miter;stroke-opacity:1" d="M 461.718,398.47 478.362,405.128 z" id="boundary" inkscape:connector-curvature="0" />
	<path style="fill:none;stroke:red;stroke-width:1px;stroke-linecap:butt;stroke-linejoin:miter;stroke-opacity:1" d="M 461.718,398.47 461.718,381.826 z" id="boundary" inkscape:connector-curvature="0" />
	<path style="fill:none;stroke:red;stroke-width:1px;stroke-linecap:butt;stroke-linejoin:miter;stroke-opacity:1" d="M 553.262,48.9396 544.94,33.9597 z" id="boundary" inkscape:connector-curvature="0" />
	<path style="fill:none;stroke:red;stroke-width:1px;stroke-linecap:butt;stroke-linejoin:miter;stroke-opacity:1" d="M 544.94,33.9597 544.94,17.3154 z" id="boundary" inkscape:connector-curvature="0" />
	<path style="fill:none;stroke:red;stroke-width:1px;stroke-linecap:butt;stroke-linejoin:miter;stroke-opacity:1" d="M 553.262,48.9396 553.262,65.5839 z" id="boundary" inkscape:connector-curvature="0" />
	<path style="fill:none;stroke:red;stroke-width:1px;stroke-linecap:butt;stroke-linejoin:miter;stroke-opacity:1" d="M 553.262,65.5839 553.262,82.2282 z" id="boundary" inkscape:connector-curvature="0" />
	<path style="fill:none;stroke:red;stroke-width:1px;stroke-linecap:butt;stroke-linejoin:miter;stroke-opacity:1" d="M 541.611,95.5436 524.966,95.5436 z" id="boundary" inkscape:connector-curvature="0" />
	<path style="fill:none;stroke:red;stroke-width:1px;stroke-linecap:butt;stroke-linejoin:miter;stroke-opacity:1" d="M 553.262,82.2282 541.611,95.5436 z" id="boundary" inkscape:connector-curvature="0" />
	<path style="fill:none;stroke:red;stroke-width:1px;stroke-linecap:butt;stroke-linejoin:miter;stroke-opacity:1" d="M 573.235,12.3221 579.893,28.9664 z" id="boundary" inkscape:connector-curvature="0" />
	<path style="fill:none;stroke:red;stroke-width:1px;stroke-linecap:butt;stroke-linejoin:miter;stroke-opacity:1" d="M 573.235,12.3221 558.255,4 z" id="boundary" inkscape:connector-curvature="0" />
	<path style="fill:none;stroke:red;stroke-width:1px;stroke-linecap:butt;stroke-linejoin:miter;stroke-opacity:1" d="M 593.208,38.953 579.893,28.9664 z" id="boundary" inkscape:connector-curvature="0" />
	<path style="fill:none;stroke:red;stroke-width:1px;stroke-linecap:butt;stroke-linejoin:miter;stroke-opacity:1" d="M 604.859,52.2685 613.181,67.2483 z" id="boundary" inkscape:connector-curvature="0" />
	<path style="fill:none;stroke:red;stroke-width:1px;stroke-linecap:butt;stroke-linejoin:miter;stroke-opacity:1" d="M 604.859,52.2685 593.208,38.953 z" id="boundary" inkscape:connector-curvature="0" />
	<path style="fill:none;stroke:red;stroke-width:1px;stroke-linecap:butt;stroke-linejoin:miter;stroke-opacity:1" d="M 613.181,67.2483 619.839,83.8926 z" id="boundary" inkscape:connector-curvature="0" />
	<path style="fill:none;stroke:red;stroke-width:1px;stroke-linecap:butt;stroke-linejoin:miter;stroke-opacity:1" d="M 544.94,17.3154 558.255,4 z" id="boundary" inkscape:connector-curvature="0" />
	<path style="fill:none;stroke:red;stroke-width:1px;stroke-linecap:butt;stroke-linejoin:miter;stroke-opacity:1" d="M 619.839,83.8926 621.503,105.53 z" id="boundary" inkscape:connector-curvature="0" />
	<path style="fill:none;stroke:red;stroke-width:1px;stroke-linecap:butt;stroke-linejoin:miter;stroke-opacity:1" d="M 524.966,95.5436 508.322,103.866 z" id="boundary" inkscape:connector-curvature="0" />
	<path style="fill:none;stroke:red;stroke-width:1px;stroke-linecap:butt;stroke-linejoin:miter;stroke-opacity:1" d="M 508.322,103.866 491.678,103.866 z" id="boundary" inkscape:connector-curvature="0" />
	<path style="fill:none;stroke:red;stroke-width:1px;stroke-linecap:butt;stroke-linejoin:miter;stroke-opacity:1" d="M 563.248,230.362 579.893,230.362 z" id="boundary" inkscape:connector-curvature="0" />
	<path style="fill:none;stroke:red;stroke-width:1px;stroke-linecap:butt;stroke-linejoin:miter;stroke-opacity:1" d="M 563.248,247.007 563.248,230.362 z" id="boundary" inkscape:connector-curvature="0" />
	<path style="fill:none;stroke:red;stroke-width:1px;stroke-linecap:butt;stroke-linejoin:miter;stroke-opacity:1" d="M 596.537,230.362 613.181,230.362 z" id="boundary" inkscape:connector-curvature="0" />
	<path style="fill:none;stroke:red;stroke-width:1px;stroke-linecap:butt;stroke-linejoin:miter;stroke-opacity:1" d="M 596.537,230.362 579.893,230.362 z" id="boundary" inkscape:connector-curvature="0" />
	<path style="fill:none;stroke:red;stroke-width:1px;stroke-linecap:butt;stroke-linejoin:miter;stroke-opacity:1" d="M 621.503,105.53 629.826,120.51 z" id="boundary" inkscape:connector-curvature="0" />
	<path style="fill:none;stroke:red;stroke-width:1px;stroke-linecap:butt;stroke-linejoin:miter;stroke-opacity:1" d="M 629.826,120.51 629.826,137.154 z" id="boundary" inkscape:connector-curvature="0" />
	<path style="fill:none;stroke:red;stroke-width:1px;stroke-linecap:butt;stroke-linejoin:miter;stroke-opacity:1" d="M 629.826,137.154 629.826,153.799 z" id="boundary" inkscape:connector-curvature="0" />
	<path style="fill:none;stroke:red;stroke-width:1px;stroke-linecap:butt;stroke-linejoin:miter;stroke-opacity:1" d="M 629.826,153.799 638.148,168.779 z" id="boundary" inkscape:connector-curvature="0" />
	<path style="fill:none;stroke:red;stroke-width:1px;stroke-linecap:butt;stroke-linejoin:miter;stroke-opacity:1" d="M 646.47,183.758 654.792,198.738 z" id="boundary" inkscape:connector-curvature="0" />
	<path style="fill:none;stroke:red;stroke-width:1px;stroke-linecap:butt;stroke-linejoin:miter;stroke-opacity:1" d="M 646.47,183.758 638.148,168.779 z" id="boundary" inkscape:connector-curvature="0" />
	<path style="fill:none;stroke:red;stroke-width:1px;stroke-linecap:butt;stroke-linejoin:miter;stroke-opacity:1" d="M 628.161,238.685 613.181,230.362 z" id="boundary" inkscape:connector-curvature="0" />
	<path style="fill:none;stroke:red;stroke-width:1px;stroke-linecap:butt;stroke-linejoin:miter;stroke-opacity:1" d="M 749.664,70.5772 766.309,70.5772 z" id="boundary" inkscape:connector-curvature="0" />
	<path style="fill:none;stroke:red;stroke-width:1px;stroke-linecap:butt;stroke-linejoin:miter;stroke-opacity:1" d="M 736.349,83.8926 749.664,70.5772 z" id="boundary" inkscape:connector-curvature="0" />
	<path style="fill:none;stroke:red;stroke-width:1px;stroke-linecap:butt;stroke-linejoin:miter;stroke-opacity:1" d="M 782.953,70.5772 766.309,70.5772 z" id="boundary" inkscape:connector-curvature="0" />
	<path style="fill:none;stroke:red;stroke-width:1px;stroke-linecap:butt;stroke-linejoin:miter;stroke-opacity:1" d="M 782.953,70.5772 797.933,78.8993 z" id="boundary" inkscape:connector-curvature="0" />
	<path style="fill:none;stroke:red;stroke-width:1px;stroke-linecap:butt;stroke-linejoin:miter;stroke-opacity:1" d="M 728.027,108.859 736.349,83.8926 z" id="boundary" inkscape:connector-curvature="0" />
	<path style="fill:none;stroke:red;stroke-width:1px;stroke-linecap:butt;stroke-linejoin:miter;stroke-opacity:1" d="M 724.698,128.832 728.027,108.859 z" id="boundary" inkscape:connector-curvature="0" />
	<path style="fill:none;stroke:red;stroke-width:1px;stroke-linecap:butt;stroke-linejoin:miter;stroke-opacity:1" d="M 812.913,87.2215 829.557,87.2215 z" id="boundary" inkscape:connector-curvature="0" />
	<path style="fill:none;stroke:red;stroke-width:1px;stroke-linecap:butt;stroke-linejoin:miter;stroke-opacity:1" d="M 829.557,87.2215 844.537,95.5436 z" id="boundary" inkscape:connector-curvature="0" />
	<path style="fill:none;stroke:red;stroke-width:1px;stroke-linecap:butt;stroke-linejoin:miter;stroke-opacity:1" d="M 812.913,87.2215 797.933,78.8993 z" id="boundary" inkscape:connector-curvature="0" />
	<path style="fill:none;stroke:red;stroke-width:1px;stroke-linecap:butt;stroke-linejoin:miter;stroke-opacity:1" d="M 844.537,95.5436 857.852,105.53 z" id="boundary" inkscape:connector-curvature="0" />
	<path style="fill:none;stroke:red;stroke-width:1px;stroke-linecap:butt;stroke-linejoin:miter;stroke-opacity:1" d="M 874.497,112.188 857.852,105.53 z" id="boundary" inkscape:connector-curvature="0" />
	<path style="fill:none;stroke:red;stroke-width:1px;stroke-linecap:butt;stroke-linejoin:miter;stroke-opacity:1" d="M 891.141,112.188 874.497,112.188 z" id="boundary" inkscape:connector-curvature="0" />
	<path style="fill:none;stroke:red;stroke-width:1px;stroke-linecap:butt;stroke-linejoin:miter;stroke-opacity:1" d="M 891.141,112.188 906.121,120.51 z" id="boundary" inkscape:connector-curvature="0" />
	<path style="fill:none;stroke:red;stroke-width:1px;stroke-linecap:butt;stroke-linejoin:miter;stroke-opacity:1" d="M 699.732,162.121 711.383,142.148 z" id="boundary" inkscape:connector-curvature="0" />
	<path style="fill:none;stroke:red;stroke-width:1px;stroke-linecap:butt;stroke-linejoin:miter;stroke-opacity:1" d="M 711.383,142.148 724.698,128.832 z" id="boundary" inkscape:connector-curvature="0" />
	<path style="fill:none;stroke:red;stroke-width:1px;stroke-linecap:butt;stroke-linejoin:miter;stroke-opacity:1" d="M 906.121,120.51 921.101,128.832 z" id="boundary" inkscape:connector-curvature="0" />
	<path style="fill:none;stroke:red;stroke-width:1px;stroke-linecap:butt;stroke-linejoin:miter;stroke-opacity:1" d="M 686.416,192.081 671.436,203.732 z" id="boundary" inkscape:connector-curvature="0" />
	<path style="fill:none;stroke:red;stroke-width:1px;stroke-linecap:butt;stroke-linejoin:miter;stroke-opacity:1" d="M 671.436,203.732 654.792,198.738 z" id="boundary" inkscape:connector-curvature="0" />
	<path style="fill:none;stroke:red;stroke-width:1px;stroke-linecap:butt;stroke-linejoin:miter;stroke-opacity:1" d="M 686.416,175.436 686.416,192.081 z" id="boundary" inkscape:connector-curvature="0" />
	<path style="fill:none;stroke:red;stroke-width:1px;stroke-linecap:butt;stroke-linejoin:miter;stroke-opacity:1" d="M 686.416,175.436 699.732,162.121 z" id="boundary" inkscape:connector-curvature="0" />
	<path style="fill:none;stroke:red;stroke-width:1px;stroke-linecap:butt;stroke-linejoin:miter;stroke-opacity:1" d="M 934.416,138.819 949.396,147.141 z" id="boundary" inkscape:connector-curvature="0" />
	<path style="fill:none;stroke:red;stroke-width:1px;stroke-linecap:butt;stroke-linejoin:miter;stroke-opacity:1" d="M 949.396,147.141 954.389,163.785 z" id="boundary" inkscape:connector-curvature="0" />
	<path style="fill:none;stroke:red;stroke-width:1px;stroke-linecap:butt;stroke-linejoin:miter;stroke-opacity:1" d="M 934.416,138.819 921.101,128.832 z" id="boundary" inkscape:connector-curvature="0" />
	<path style="fill:none;stroke:red;stroke-width:1px;stroke-linecap:butt;stroke-linejoin:miter;stroke-opacity:1" d="M 954.389,163.785 954.389,180.43 z" id="boundary" inkscape:connector-curvature="0" />
	<path style="fill:none;stroke:red;stroke-width:1px;stroke-linecap:butt;stroke-linejoin:miter;stroke-opacity:1" d="M 954.389,180.43 954.389,197.074 z" id="boundary" inkscape:connector-curvature="0" />
	<path style="fill:none;stroke:red;stroke-width:1px;stroke-linecap:butt;stroke-linejoin:miter;stroke-opacity:1" d="M 976.027,238.685 962.711,228.698 z" id="boundary" inkscape:connector-curvature="0" />
	<path style="fill:none;stroke:red;stroke-width:1px;stroke-linecap:butt;stroke-linejoin:miter;stroke-opacity:1" d="M 962.711,228.698 954.389,213.718 z" id="boundary" inkscape:connector-curvature="0" />
	<path style="fill:none;stroke:red;stroke-width:1px;stroke-linecap:butt;stroke-linejoin:miter;stroke-opacity:1" d="M 954.389,213.718 954.389,197.074 z" id="boundary" inkscape:connector-curvature="0" />
	<path style="fill:none;stroke:red;stroke-width:1px;stroke-linecap:butt;stroke-linejoin:miter;stroke-opacity:1" d="M 571.57,278.631 563.248,263.651 z" id="boundary" inkscape:connector-curvature="0" />
	<path style="fill:none;stroke:red;stroke-width:1px;stroke-linecap:butt;stroke-linejoin:miter;stroke-opacity:1" d="M 584.886,288.617 571.57,278.631 z" id="boundary" inkscape:connector-curvature="0" />
	<path style="fill:none;stroke:red;stroke-width:1px;stroke-linecap:butt;stroke-linejoin:miter;stroke-opacity:1" d="M 591.544,305.262 584.886,288.617 z" id="boundary" inkscape:connector-curvature="0" />
	<path style="fill:none;stroke:red;stroke-width:1px;stroke-linecap:butt;stroke-linejoin:miter;stroke-opacity:1" d="M 596.537,321.906 591.544,305.262 z" id="boundary" inkscape:connector-curvature="0" />
	<path style="fill:none;stroke:red;stroke-width:1px;stroke-linecap:butt;stroke-linejoin:miter;stroke-opacity:1" d="M 563.248,263.651 563.248,247.007 z" id="boundary" inkscape:connector-curvature="0" />
	<path style="fill:none;stroke:red;stroke-width:1px;stroke-linecap:butt;stroke-linejoin:miter;stroke-opacity:1" d="M 596.537,321.906 596.537,338.55 z" id="boundary" inkscape:connector-curvature="0" />
	<path style="fill:none;stroke:red;stroke-width:1px;stroke-linecap:butt;stroke-linejoin:miter;stroke-opacity:1" d="M 628.161,271.973 628.161,255.329 z" id="boundary" inkscape:connector-curvature="0" />
	<path style="fill:none;stroke:red;stroke-width:1px;stroke-linecap:butt;stroke-linejoin:miter;stroke-opacity:1" d="M 636.483,286.953 628.161,271.973 z" id="boundary" inkscape:connector-curvature="0" />
	<path style="fill:none;stroke:red;stroke-width:1px;stroke-linecap:butt;stroke-linejoin:miter;stroke-opacity:1" d="M 644.805,301.933 646.47,318.577 z" id="boundary" inkscape:connector-curvature="0" />
	<path style="fill:none;stroke:red;stroke-width:1px;stroke-linecap:butt;stroke-linejoin:miter;stroke-opacity:1" d="M 679.758,321.906 663.114,321.906 z" id="boundary" inkscape:connector-curvature="0" />
	<path style="fill:none;stroke:red;stroke-width:1px;stroke-linecap:butt;stroke-linejoin:miter;stroke-opacity:1" d="M 663.114,321.906 646.47,318.577 z" id="boundary" inkscape:connector-curvature="0" />
	<path style="fill:none;stroke:red;stroke-width:1px;stroke-linecap:butt;stroke-linejoin:miter;stroke-opacity:1" d="M 644.805,301.933 636.483,286.953 z" id="boundary" inkscape:connector-curvature="0" />
	<path style="fill:none;stroke:red;stroke-width:1px;stroke-linecap:butt;stroke-linejoin:miter;stroke-opacity:1" d="M 628.161,255.329 628.161,238.685 z" id="boundary" inkscape:connector-curvature="0" />
	<path style="fill:none;stroke:red;stroke-width:1px;stroke-linecap:butt;stroke-linejoin:miter;stroke-opacity:1" d="M 588.215,371.839 574.899,386.819 z" id="boundary" inkscape:connector-curvature="0" />
	<path style="fill:none;stroke:red;stroke-width:1px;stroke-linecap:butt;stroke-linejoin:miter;stroke-opacity:1" d="M 574.899,386.819 561.584,400.134 z" id="boundary" inkscape:connector-curvature="0" />
	<path style="fill:none;stroke:red;stroke-width:1px;stroke-linecap:butt;stroke-linejoin:miter;stroke-opacity:1" d="M 561.584,400.134 544.94,405.128 z" id="boundary" inkscape:connector-curvature="0" />
	<path style="fill:none;stroke:red;stroke-width:1px;stroke-linecap:butt;stroke-linejoin:miter;stroke-opacity:1" d="M 495.007,405.128 511.651,405.128 z" id="boundary" inkscape:connector-curvature="0" />
	<path style="fill:none;stroke:red;stroke-width:1px;stroke-linecap:butt;stroke-linejoin:miter;stroke-opacity:1" d="M 528.295,405.128 511.651,405.128 z" id="boundary" inkscape:connector-curvature="0" />
	<path style="fill:none;stroke:red;stroke-width:1px;stroke-linecap:butt;stroke-linejoin:miter;stroke-opacity:1" d="M 528.295,405.128 544.94,405.128 z" id="boundary" inkscape:connector-curvature="0" />
	<path style="fill:none;stroke:red;stroke-width:1px;stroke-linecap:butt;stroke-linejoin:miter;stroke-opacity:1" d="M 696.403,321.906 679.758,321.906 z" id="boundary" inkscape:connector-curvature="0" />
	<path style="fill:none;stroke:red;stroke-width:1px;stroke-linecap:butt;stroke-linejoin:miter;stroke-opacity:1" d="M 696.403,321.906 713.047,321.906 z" id="boundary" inkscape:connector-curvature="0" />
	<path style="fill:none;stroke:red;stroke-width:1px;stroke-linecap:butt;stroke-linejoin:miter;stroke-opacity:1" d="M 596.537,338.55 596.537,355.195 z" id="boundary" inkscape:connector-curvature="0" />
	<path style="fill:none;stroke:red;stroke-width:1px;stroke-linecap:butt;stroke-linejoin:miter;stroke-opacity:1" d="M 596.537,355.195 588.215,371.839 z" id="boundary" inkscape:connector-curvature="0" />
	<path style="fill:none;stroke:red;stroke-width:1px;stroke-linecap:butt;stroke-linejoin:miter;stroke-opacity:1" d="M 744.671,330.228 729.691,321.906 z" id="boundary" inkscape:connector-curvature="0" />
	<path style="fill:none;stroke:red;stroke-width:1px;stroke-linecap:butt;stroke-linejoin:miter;stroke-opacity:1" d="M 713.047,321.906 729.691,321.906 z" id="boundary" inkscape:connector-curvature="0" />
	<path style="fill:none;stroke:red;stroke-width:1px;stroke-linecap:butt;stroke-linejoin:miter;stroke-opacity:1" d="M 744.671,330.228 752.993,345.208 z" id="boundary" inkscape:connector-curvature="0" />
	<path style="fill:none;stroke:red;stroke-width:1px;stroke-linecap:butt;stroke-linejoin:miter;stroke-opacity:1" d="M 987.678,252 976.027,238.685 z" id="boundary" inkscape:connector-curvature="0" />
	<path style="fill:none;stroke:red;stroke-width:1px;stroke-linecap:butt;stroke-linejoin:miter;stroke-opacity:1" d="M 752.993,361.852 762.98,375.168 z" id="boundary" inkscape:connector-curvature="0" />
	<path style="fill:none;stroke:red;stroke-width:1px;stroke-linecap:butt;stroke-linejoin:miter;stroke-opacity:1" d="M 752.993,361.852 752.993,345.208 z" id="boundary" inkscape:connector-curvature="0" />
	<path style="fill:none;stroke:red;stroke-width:1px;stroke-linecap:butt;stroke-linejoin:miter;stroke-opacity:1" d="M 779.624,380.161 794.604,388.483 z" id="boundary" inkscape:connector-curvature="0" />
	<path style="fill:none;stroke:red;stroke-width:1px;stroke-linecap:butt;stroke-linejoin:miter;stroke-opacity:1" d="M 762.98,375.168 779.624,380.161 z" id="boundary" inkscape:connector-curvature="0" />
	<path style="fill:none;stroke:red;stroke-width:1px;stroke-linecap:butt;stroke-linejoin:miter;stroke-opacity:1" d="M 811.248,388.483 794.604,388.483 z" id="boundary" inkscape:connector-curvature="0" />
	<path style="fill:none;stroke:red;stroke-width:1px;stroke-linecap:butt;stroke-linejoin:miter;stroke-opacity:1" d="M 996,283.624 996,300.268 z" id="boundary" inkscape:connector-curvature="0" />
	<path style="fill:none;stroke:red;stroke-width:1px;stroke-linecap:butt;stroke-linejoin:miter;stroke-opacity:1" d="M 996,316.913 996,333.557 z" id="boundary" inkscape:connector-curvature="0" />
	<path style="fill:none;stroke:red;stroke-width:1px;stroke-linecap:butt;stroke-linejoin:miter;stroke-opacity:1" d="M 996,300.268 996,316.913 z" id="boundary" inkscape:connector-curvature="0" />
	<path style="fill:none;stroke:red;stroke-width:1px;stroke-linecap:butt;stroke-linejoin:miter;stroke-opacity:1" d="M 996,333.557 996,350.201 z" id="boundary" inkscape:connector-curvature="0" />
	<path style="fill:none;stroke:red;stroke-width:1px;stroke-linecap:butt;stroke-linejoin:miter;stroke-opacity:1" d="M 996,350.201 987.678,371.839 z" id="boundary" inkscape:connector-curvature="0" />
	<path style="fill:none;stroke:red;stroke-width:1px;stroke-linecap:butt;stroke-linejoin:miter;stroke-opacity:1" d="M 987.678,252 996,266.98 z" id="boundary" inkscape:connector-curvature="0" />
	<path style="fill:none;stroke:red;stroke-width:1px;stroke-linecap:butt;stroke-linejoin:miter;stroke-opacity:1" d="M 996,266.98 996,283.624 z" id="boundary" inkscape:connector-curvature="0" />
	<path style="fill:none;stroke:red;stroke-width:1px;stroke-linecap:butt;stroke-linejoin:miter;stroke-opacity:1" d="M 811.248,388.483 827.893,388.483 z" id="boundary" inkscape:connector-curvature="0" />
	<path style="fill:none;stroke:red;stroke-width:1px;stroke-linecap:butt;stroke-linejoin:miter;stroke-opacity:1" d="M 827.893,388.483 827.893,405.128 z" id="boundary" inkscape:connector-curvature="0" />
	<path style="fill:none;stroke:red;stroke-width:1px;stroke-linecap:butt;stroke-linejoin:miter;stroke-opacity:1" d="M 827.893,388.483 837.879,418.443 z" id="boundary" inkscape:connector-curvature="0" />
	<path style="fill:none;stroke:red;stroke-width:1px;stroke-linecap:butt;stroke-linejoin:miter;stroke-opacity:1" d="M 837.879,418.443 827.893,405.128 z" id="boundary" inkscape:connector-curvature="0" />
	<path style="fill:none;stroke:red;stroke-width:1px;stroke-linecap:butt;stroke-linejoin:miter;stroke-opacity:1" d="M 837.879,418.443 846.201,433.423 z" id="boundary" inkscape:connector-curvature="0" />
	<path style="fill:none;stroke:red;stroke-width:1px;stroke-linecap:butt;stroke-linejoin:miter;stroke-opacity:1" d="M 862.846,438.416 846.201,433.423 z" id="boundary" inkscape:connector-curvature="0" />
	<path style="fill:none;stroke:red;stroke-width:1px;stroke-linecap:butt;stroke-linejoin:miter;stroke-opacity:1" d="M 862.846,438.416 877.826,446.738 z" id="boundary" inkscape:connector-curvature="0" />
	<path style="fill:none;stroke:red;stroke-width:1px;stroke-linecap:butt;stroke-linejoin:miter;stroke-opacity:1" d="M 894.47,446.738 877.826,446.738 z" id="boundary" inkscape:connector-curvature="0" />
	<path style="fill:none;stroke:red;stroke-width:1px;stroke-linecap:butt;stroke-linejoin:miter;stroke-opacity:1" d="M 979.356,388.483 971.034,405.128 z" id="boundary" inkscape:connector-curvature="0" />
	<path style="fill:none;stroke:red;stroke-width:1px;stroke-linecap:butt;stroke-linejoin:miter;stroke-opacity:1" d="M 971.034,405.128 956.054,413.45 z" id="boundary" inkscape:connector-curvature="0" />
	<path style="fill:none;stroke:red;stroke-width:1px;stroke-linecap:butt;stroke-linejoin:miter;stroke-opacity:1" d="M 956.054,413.45 941.074,421.772 z" id="boundary" inkscape:connector-curvature="0" />
	<path style="fill:none;stroke:red;stroke-width:1px;stroke-linecap:butt;stroke-linejoin:miter;stroke-opacity:1" d="M 911.114,441.745 894.47,446.738 z" id="boundary" inkscape:connector-curvature="0" />
	<path style="fill:none;stroke:red;stroke-width:1px;stroke-linecap:butt;stroke-linejoin:miter;stroke-opacity:1" d="M 927.758,433.423 941.074,421.772 z" id="boundary" inkscape:connector-curvature="0" />
	<path style="fill:none;stroke:red;stroke-width:1px;stroke-linecap:butt;stroke-linejoin:miter;stroke-opacity:1" d="M 927.758,433.423 911.114,441.745 z" id="boundary" inkscape:connector-curvature="0" />
	<path style="fill:none;stroke:red;stroke-width:1px;stroke-linecap:butt;stroke-linejoin:miter;stroke-opacity:1" d="M 987.678,371.839 979.356,388.483 z" id="boundary" inkscape:connector-curvature="0" />
	<circle cx="4" cy="108.859" r="4" fill="#0" id="circle0"/>
	<circle cx="12.3221" cy="83.8926" r="4" fill="#0" id="circle1"/>
	<circle cx="12.3221" cy="123.839" r="4" fill="#0" id="circle2"/>
	<circle cx="12.3221" cy="140.483" r="4" fill="#0" id="circle3"/>
	<circle cx="20.6443" cy="155.463" r="4" fill="#0" id="circle4"/>
	<circle cx="25.6376" cy="70.5772" r="4" fill="#0" id="circle5"/>
	<circle cx="33.9597" cy="145.477" r="4" fill="#0" id="circle6"/>
	<circle cx="38.953" cy="57.2617" r="4" fill="#0" id="circle7"/>
	<circle cx="38.953" cy="122.174" r="4" fill="#0" id="circle8"/>
	<circle cx="53.9329" cy="113.852" r="4" fill="#0" id="circle9"/>
	<circle cx="53.9329" cy="142.148" r="4" fill="#0" id="circle10"/>
	<circle cx="55.5973" cy="48.9396" r="4" fill="#0" id="circle11"/>
	<circle cx="62.255" cy="157.128" r="4" fill="#0" id="circle12"/>
	<circle cx="70.5772" cy="172.107" r="4" fill="#0" id="circle13"/>
	<circle cx="72.2416" cy="40.6174" r="4" fill="#0" id="circle14"/>
	<circle cx="75.5705" cy="188.752" r="4" fill="#0" id="circle15"/>
	<circle cx="83.8926" cy="203.732" r="4" fill="#0" id="circle16"/>
	<circle cx="88.8859" cy="42.2819" r="4" fill="#0" id="circle17"/>
	<circle cx="95.5436" cy="217.047" r="4" fill="#0" id="circle18"/>
	<circle cx="100.537" cy="55.5973" r="4" fill="#0" id="circle19"/>
	<circle cx="103.866" cy="232.027" r="4" fill="#0" id="circle20"/>
	<circle cx="103.866" cy="375.168" r="4" fill="#0" id="circle21"/>
	<circle cx="112.188" cy="247.007" r="4" fill="#0" id="circle22"/>
	<circle cx="112.188" cy="263.651" r="4" fill="#0" id="circle23"/>
	<circle cx="112.188" cy="280.295" r="4" fill="#0" id="circle24"/>
	<circle cx="112.188" cy="296.94" r="4" fill="#0" id="circle25"/>
	<circle cx="112.188" cy="313.584" r="4" fill="#0" id="circle26"/>
	<circle cx="112.188" cy="330.228" r="4" fill="#0" id="circle27"/>
	<circle cx="112.188" cy="346.872" r="4" fill="#0" id="circle28"/>
	<circle cx="113.852" cy="67.2483" r="4" fill="#0" id="circle29"/>
	<circle cx="117.181" cy="386.819" r="4" fill="#0" id="circle30"/>
	<circle cx="125.503" cy="80.5638" r="4" fill="#0" id="circle31"/>
	<circle cx="133.826" cy="380.161" r="4" fill="#0" id="circle32"/>
	<circle cx="138.819" cy="92.2148" r="4" fill="#0" id="circle33"/>
	<circle cx="147.141" cy="355.195" r="4" fill="#0" id="circle34"/>
	<circle cx="152.134" cy="103.866" r="4" fill="#0" id="circle35"/>
	<circle cx="155.463" cy="321.906" r="4" fill="#0" id="circle36"/>
	<circle cx="155.463" cy="338.55" r="4" fill="#0" id="circle37"/>
	<circle cx="163.785" cy="305.262" r="4" fill="#0" id="circle38"/>
	<circle cx="167.114" cy="112.188" r="4" fill="#0" id="circle39"/>
	<circle cx="172.107" cy="280.295" r="4" fill="#0" id="circle40"/>
	<circle cx="183.758" cy="112.188" r="4" fill="#0" id="circle41"/>
	<circle cx="185.423" cy="268.644" r="4" fill="#0" id="circle42"/>
	<circle cx="195.409" cy="255.329" r="4" fill="#0" id="circle43"/>
	<circle cx="198.738" cy="120.51" r="4" fill="#0" id="circle44"/>
	<circle cx="212.054" cy="250.336" r="4" fill="#0" id="circle45"/>
	<circle cx="215.383" cy="120.51" r="4" fill="#0" id="circle46"/>
	<circle cx="228.698" cy="247.007" r="4" fill="#0" id="circle47"/>
	<circle cx="232.027" cy="120.51" r="4" fill="#0" id="circle48"/>
	<circle cx="245.342" cy="247.007" r="4" fill="#0" id="circle49"/>
	<circle cx="248.671" cy="120.51" r="4" fill="#0" id="circle50"/>
	<circle cx="261.987" cy="247.007" r="4" fill="#0" id="circle51"/>
	<circle cx="265.315" cy="120.51" r="4" fill="#0" id="circle52"/>
	<circle cx="270.309" cy="366.846" r="4" fill="#0" id="circle53"/>
	<circle cx="270.309" cy="383.49" r="4" fill="#0" id="circle54"/>
	<circle cx="278.631" cy="247.007" r="4" fill="#0" id="circle55"/>
	<circle cx="280.295" cy="396.805" r="4" fill="#0" id="circle56"/>
	<circle cx="281.96" cy="120.51" r="4" fill="#0" id="circle57"/>
	<circle cx="283.624" cy="353.53" r="4" fill="#0" id="circle58"/>
	<circle cx="293.611" cy="255.329" r="4" fill="#0" id="circle59"/>
	<circle cx="296.94" cy="340.215" r="4" fill="#0" id="circle60"/>
	<circle cx="296.94" cy="396.805" r="4" fill="#0" id="circle61"/>
	<circle cx="298.604" cy="120.51" r="4" fill="#0" id="circle62"/>
	<circle cx="300.268" cy="271.973" r="4" fill="#0" id="circle63"/>
	<circle cx="303.597" cy="288.617" r="4" fill="#0" id="circle64"/>
	<circle cx="303.597" cy="305.262" r="4" fill="#0" id="circle65"/>
	<circle cx="303.597" cy="321.906" r="4" fill="#0" id="circle66"/>
	<circle cx="313.584" cy="396.805" r="4" fill="#0" id="circle67"/>
	<circle cx="315.248" cy="120.51" r="4" fill="#0" id="circle68"/>
	<circle cx="330.228" cy="396.805" r="4" fill="#0" id="circle69"/>
	<circle cx="331.893" cy="120.51" r="4" fill="#0" id="circle70"/>
	<circle cx="346.872" cy="396.805" r="4" fill="#0" id="circle71"/>
	<circle cx="348.537" cy="120.51" r="4" fill="#0" id="circle72"/>
	<circle cx="361.852" cy="388.483" r="4" fill="#0" id="circle73"/>
	<circle cx="365.181" cy="120.51" r="4" fill="#0" id="circle74"/>
	<circle cx="375.168" cy="378.497" r="4" fill="#0" id="circle75"/>
	<circle cx="378.497" cy="132.161" r="4" fill="#0" id="circle76"/>
	<circle cx="380.161" cy="280.295" r="4" fill="#0" id="circle77"/>
	<circle cx="380.161" cy="296.94" r="4" fill="#0" id="circle78"/>
	<circle cx="380.161" cy="313.584" r="4" fill="#0" id="circle79"/>
	<circle cx="380.161" cy="330.228" r="4" fill="#0" id="circle80"/>
	<circle cx="380.161" cy="355.195" r="4" fill="#0" id="circle81"/>
	<circle cx="385.154" cy="148.805" r="4" fill="#0" id="circle82"/>
	<circle cx="393.477" cy="163.785" r="4" fill="#0" id="circle83"/>
	<circle cx="396.805" cy="188.752" r="4" fill="#0" id="circle84"/>
	<circle cx="396.805" cy="283.624" r="4" fill="#0" id="circle85"/>
	<circle cx="405.128" cy="203.732" r="4" fill="#0" id="circle86"/>
	<circle cx="405.128" cy="220.376" r="4" fill="#0" id="circle87"/>
	<circle cx="405.128" cy="237.02" r="4" fill="#0" id="circle88"/>
	<circle cx="413.45" cy="252" r="4" fill="#0" id="circle89"/>
	<circle cx="413.45" cy="288.617" r="4" fill="#0" id="circle90"/>
	<circle cx="428.43" cy="242.013" r="4" fill="#0" id="circle91"/>
	<circle cx="430.094" cy="288.617" r="4" fill="#0" id="circle92"/>
	<circle cx="436.752" cy="192.081" r="4" fill="#0" id="circle93"/>
	<circle cx="436.752" cy="208.725" r="4" fill="#0" id="circle94"/>
	<circle cx="436.752" cy="225.369" r="4" fill="#0" id="circle95"/>
	<circle cx="440.081" cy="301.933" r="4" fill="#0" id="circle96"/>
	<circle cx="445.074" cy="318.577" r="4" fill="#0" id="circle97"/>
	<circle cx="453.396" cy="175.436" r="4" fill="#0" id="circle98"/>
	<circle cx="453.396" cy="333.557" r="4" fill="#0" id="circle99"/>
	<circle cx="453.396" cy="350.201" r="4" fill="#0" id="circle100"/>
	<circle cx="461.718" cy="150.47" r="4" fill="#0" id="circle101"/>
	<circle cx="461.718" cy="365.181" r="4" fill="#0" id="circle102"/>
	<circle cx="461.718" cy="381.826" r="4" fill="#0" id="circle103"/>
	<circle cx="461.718" cy="398.47" r="4" fill="#0" id="circle104"/>
	<circle cx="470.04" cy="133.826" r="4" fill="#0" id="circle105"/>
	<circle cx="478.362" cy="405.128" r="4" fill="#0" id="circle106"/>
	<circle cx="483.356" cy="120.51" r="4" fill="#0" id="circle107"/>
	<circle cx="491.678" cy="103.866" r="4" fill="#0" id="circle108"/>
	<circle cx="495.007" cy="405.128" r="4" fill="#0" id="circle109"/>
	<circle cx="508.322" cy="103.866" r="4" fill="#0" id="circle110"/>
	<circle cx="511.651" cy="405.128" r="4" fill="#0" id="circle111"/>
	<circle cx="524.966" cy="95.5436" r="4" fill="#0" id="circle112"/>
	<circle cx="528.295" cy="405.128" r="4" fill="#0" id="circle113"/>
	<circle cx="541.611" cy="95.5436" r="4" fill="#0" id="circle114"/>
	<circle cx="544.94" cy="17.3154" r="4" fill="#0" id="circle115"/>
	<circle cx="544.94" cy="33.9597" r="4" fill="#0" id="circle116"/>
	<circle cx="544.94" cy="405.128" r="4" fill="#0" id="circle117"/>
	<circle cx="553.262" cy="48.9396" r="4" fill="#0" id="circle118"/>
	<circle cx="553.262" cy="65.5839" r="4" fill="#0" id="circle119"/>
	<circle cx="553.262" cy="82.2282" r="4" fill="#0" id="circle120"/>
	<circle cx="558.255" cy="4" r="4" fill="#0" id="circle121"/>
	<circle cx="561.584" cy="400.134" r="4" fill="#0" id="circle122"/>
	<circle cx="563.248" cy="230.362" r="4" fill="#0" id="circle123"/>
	<circle cx="563.248" cy="247.007" r="4" fill="#0" id="circle124"/>
	<circle cx="563.248" cy="263.651" r="4" fill="#0" id="circle125"/>
	<circle cx="571.57" cy="278.631" r="4" fill="#0" id="circle126"/>
	<circle cx="573.235" cy="12.3221" r="4" fill="#0" id="circle127"/>
	<circle cx="574.899" cy="386.819" r="4" fill="#0" id="circle128"/>
	<circle cx="579.893" cy="28.9664" r="4" fill="#0" id="circle129"/>
	<circle cx="579.893" cy="230.362" r="4" fill="#0" id="circle130"/>
	<circle cx="584.886" cy="288.617" r="4" fill="#0" id="circle131"/>
	<circle cx="588.215" cy="371.839" r="4" fill="#0" id="circle132"/>
	<circle cx="591.544" cy="305.262" r="4" fill="#0" id="circle133"/>
	<circle cx="593.208" cy="38.953" r="4" fill="#0" id="circle134"/>
	<circle cx="596.537" cy="230.362" r="4" fill="#0" id="circle135"/>
	<circle cx="596.537" cy="321.906" r="4" fill="#0" id="circle136"/>
	<circle cx="596.537" cy="338.55" r="4" fill="#0" id="circle137"/>
	<circle cx="596.537" cy="355.195" r="4" fill="#0" id="circle138"/>
	<circle cx="604.859" cy="52.2685" r="4" fill="#0" id="circle139"/>
	<circle cx="613.181" cy="67.2483" r="4" fill="#0" id="circle140"/>
	<circle cx="613.181" cy="230.362" r="4" fill="#0" id="circle141"/>
	<circle cx="619.839" cy="83.8926" r="4" fill="#0" id="circle142"/>
	<circle cx="621.503" cy="105.53" r="4" fill="#0" id="circle143"/>
	<circle cx="628.161" cy="238.685" r="4" fill="#0" id="circle144"/>
	<circle cx="628.161" cy="255.329" r="4" fill="#0" id="circle145"/>
	<circle cx="628.161" cy="271.973" r="4" fill="#0" id="circle146"/>
	<circle cx="629.826" cy="120.51" r="4" fill="#0" id="circle147"/>
	<circle cx="629.826" cy="137.154" r="4" fill="#0" id="circle148"/>
	<circle cx="629.826" cy="153.799" r="4" fill="#0" id="circle149"/>
	<circle cx="636.483" cy="286.953" r="4" fill="#0" id="circle150"/>
	<circle cx="638.148" cy="168.779" r="4" fill="#0" id="circle151"/>
	<circle cx="644.805" cy="301.933" r="4" fill="#0" id="circle152"/>
	<circle cx="646.47" cy="183.758" r="4" fill="#0" id="circle153"/>
	<circle cx="646.47" cy="318.577" r="4" fill="#0" id="circle154"/>
	<circle cx="654.792" cy="198.738" r="4" fill="#0" id="circle155"/>
	<circle cx="663.114" cy="321.906" r="4" fill="#0" id="circle156"/>
	<circle cx="671.436" cy="203.732" r="4" fill="#0" id="circle157"/>
	<circle cx="679.758" cy="321.906" r="4" fill="#0" id="circle158"/>
	<circle cx="686.416" cy="175.436" r="4" fill="#0" id="circle159"/>
	<circle cx="686.416" cy="192.081" r="4" fill="#0" id="circle160"/>
	<circle cx="696.403" cy="321.906" r="4" fill="#0" id="circle161"/>
	<circle cx="699.732" cy="162.121" r="4" fill="#0" id="circle162"/>
	<circle cx="711.383" cy="142.148" r="4" fill="#0" id="circle163"/>
	<circle cx="713.047" cy="321.906" r="4" fill="#0" id="circle164"/>
	<circle cx="724.698" cy="128.832" r="4" fill="#0" id="circle165"/>
	<circle cx="728.027" cy="108.859" r="4" fill="#0" id="circle166"/>
	<circle cx="729.691" cy="321.906" r="4" fill="#0" id="circle167"/>
	<circle cx="736.349" cy="83.8926" r="4" fill="#0" id="circle168"/>
	<circle cx="744.671" cy="330.228" r="4" fill="#0" id="circle169"/>
	<circle cx="749.664" cy="70.5772" r="4" fill="#0" id="circle170"/>
	<circle cx="752.993" cy="345.208" r="4" fill="#0" id="circle171"/>
	<circle cx="752.993" cy="361.852" r="4" fill="#0" id="circle172"/>
	<circle cx="762.98" cy="375.168" r="4" fill="#0" id="circle173"/>
	<circle cx="766.309" cy="70.5772" r="4" fill="#0" id="circle174"/>
	<circle cx="779.624" cy="380.161" r="4" fill="#0" id="circle175"/>
	<circle cx="782.953" cy="70.5772" r="4" fill="#0" id="circle176"/>
	<circle cx="794.604" cy="388.483" r="4" fill="#0" id="circle177"/>
	<circle cx="797.933" cy="78.8993" r="4" fill="#0" id="circle178"/>
	<circle cx="811.248" cy="388.483" r="4" fill="#0" id="circle179"/>
	<circle cx="812.913" cy="87.2215" r="4" fill="#0" id="circle180"/>
	<circle cx="827.893" cy="388.483" r="4" fill="#0" id="circle181"/>
	<circle cx="827.893" cy="405.128" r="4" fill="#0" id="circle182"/>
	<circle cx="829.557" cy="87.2215" r="4" fill="#0" id="circle183"/>
	<circle cx="837.879" cy="418.443" r="4" fill="#0" id="circle184"/>
	<circle cx="844.537" cy="95.5436" r="4" fill="#0" id="circle185"/>
	<circle cx="846.201" cy="433.423" r="4" fill="#0" id="circle186"/>
	<circle cx="857.852" cy="105.53" r="4" fill="#0" id="circle187"/>
	<circle cx="862.846" cy="438.416" r="4" fill="#0" id="circle188"/>
	<circle cx="874.497" cy="112.188" r="4" fill="#0" id="circle189"/>
	<circle cx="877.826" cy="446.738" r="4" fill="#0" id="circle190"/>
	<circle cx="891.141" cy="112.188" r="4" fill="#0" id="circle191"/>
	<circle cx="894.47" cy="446.738" r="4" fill="#0" id="circle192"/>
	<circle cx="906.121" cy="120.51" r="4" fill="#0" id="circle193"/>
	<circle cx="911.114" cy="441.745" r="4" fill="#0" id="circle194"/>
	<circle cx="921.101" cy="128.832" r="4" fill="#0" id="circle195"/>
	<circle cx="927.758" cy="433.423" r="4" fill="#0" id="circle196"/>
	<circle cx="934.416" cy="138.819" r="4" fill="#0" id="circle197"/>
	<circle cx="941.074" cy="421.772" r="4" fill="#0" id="circle198"/>
	<circle cx="949.396" cy="147.141" r="4" fill="#0" id="circle199"/>
	<circle cx="954.389" cy="163.785" r="4" fill="#0" id="circle200"/>
	<circle cx="954.389" cy="180.43" r="4" fill="#0" id="circle201"/>
	<circle cx="954.389" cy="197.074" r="4" fill="#0" id="circle202"/>
	<circle cx="954.389" cy="213.718" r="4" fill="#0" id="circle203"/>
	<circle cx="956.054" cy="413.45" r="4" fill="#0" id="circle204"/>
	<circle cx="962.711" cy="228.698" r="4" fill="#0" id="circle205"/>
	<circle cx="971.034" cy="405.128" r="4" fill="#0" id="circle206"/>
	<circle cx="976.027" cy="238.685" r="4" fill="#0" id="circle207"/>
	<circle cx="979.356" cy="388.483" r="4" fill="#0" id="circle208"/>
	<circle cx="987.678" cy="252" r="4" fill="#0" id="circle209"/>
	<circle cx="987.678" cy="371.839" r="4" fill="#0" id="circle210"/>
	<circle cx="996" cy="266.98" r="4" fill="#0" id="circle211"/>
	<circle cx="996" cy="283.624" r="4" fill="#0" id="circle212"/>
	<circle cx="996" cy="300.268" r="4" fill="#0" id="circle213"/>
	<circle cx="996" cy="316.913" r="4" fill="#0" id="circle214"/>
	<circle cx="996" cy="333.557" r="4" fill="#0" id="circle215"/>
	<circle cx="996" cy="350.201" r="4" fill="#0" id="circle216"/>
	</g>
</svg>