<?xml version="1.0" encoding="UTF-8" standalone="no"?>
<!-- Created with CurveBenchmark -->
<svg
	xmlns:dc="http://purl.org/dc/elements/1.1/"
	xmlns:cc="http://creativecommons.org/ns#"
	xmlns:rdf="http://www.w3.org/1999/02/22-rdf-syntax-ns#"
	xmlns:svg="http://www.w3.org/2000/svg"
	xmlns="http://www.w3.org/2000/svg"
	xmlns:sodipodi="http://sodipodi.sourceforge.net/DTD/sodipodi-0.dtd"
	xmlns:inkscape="http://www.inkscape.org/namespaces/inkscape"
	width="1000"
	height="1000"
	id="svg2"
	version="1.1"
	sodipodi:docname="manifold/nncrust-children03.png.txt">
<defs
	id="defs4" />
<metadata
	id="metadata7">
	<rdf:RDF>
		<cc:Work
			rdf:about="">
			<dc:format>image/svg+xml</dc:format>
			<dc:type
				rdf:resource="http://purl.org/dc/dcmitype/StillImage" />
			<dc:title></dc:title>
		</cc:Work>
	</rdf:RDF>
</metadata>
<g
	inkscape:label="Layer 1"
	inkscape:groupmode="layer"
	id="layer1">
	<path style="fill:none;stroke:red;stroke-width:1px;stroke-linecap:butt;stroke-linejoin:miter;stroke-opacity:1" d="M 20.5058,74.975 20.5058,91.4809 z" id="boundary" inkscape:connector-curvature="0" />
	<path style="fill:none;stroke:red;stroke-width:1px;stroke-linecap:butt;stroke-linejoin:miter;stroke-opacity:1" d="M 20.5058,74.975 28.7587,58.4692 z" id="boundary" inkscape:connector-curvature="0" />
	<path style="fill:none;stroke:red;stroke-width:1px;stroke-linecap:butt;stroke-linejoin:miter;stroke-opacity:1" d="M 4,330.815 4,314.309 z" id="boundary" inkscape:connector-curvature="0" />
	<path style="fill:none;stroke:red;stroke-width:1px;stroke-linecap:butt;stroke-linejoin:miter;stroke-opacity:1" d="M 4,314.309 12.2529,289.551 z" id="boundary" inkscape:connector-curvature="0" />
	<path style="fill:none;stroke:red;stroke-width:1px;stroke-linecap:butt;stroke-linejoin:miter;stroke-opacity:1" d="M 20.5058,91.4809 20.5058,107.987 z" id="boundary" inkscape:connector-curvature="0" />
	<path style="fill:none;stroke:red;stroke-width:1px;stroke-linecap:butt;stroke-linejoin:miter;stroke-opacity:1" d="M 20.5058,124.493 20.5058,107.987 z" id="boundary" inkscape:connector-curvature="0" />
	<path style="fill:none;stroke:red;stroke-width:1px;stroke-linecap:butt;stroke-linejoin:miter;stroke-opacity:1" d="M 28.7587,139.348 20.5058,124.493 z" id="boundary" inkscape:connector-curvature="0" />
	<path style="fill:none;stroke:red;stroke-width:1px;stroke-linecap:butt;stroke-linejoin:miter;stroke-opacity:1" d="M 20.5058,273.045 12.2529,289.551 z" id="boundary" inkscape:connector-curvature="0" />
	<path style="fill:none;stroke:red;stroke-width:1px;stroke-linecap:butt;stroke-linejoin:miter;stroke-opacity:1" d="M 28.7587,58.4692 41.9634,45.2646 z" id="boundary" inkscape:connector-curvature="0" />
	<path style="fill:none;stroke:red;stroke-width:1px;stroke-linecap:butt;stroke-linejoin:miter;stroke-opacity:1" d="M 4,347.321 4,330.815 z" id="boundary" inkscape:connector-curvature="0" />
	<path style="fill:none;stroke:red;stroke-width:1px;stroke-linecap:butt;stroke-linejoin:miter;stroke-opacity:1" d="M 4,380.333 4,363.827 z" id="boundary" inkscape:connector-curvature="0" />
	<path style="fill:none;stroke:red;stroke-width:1px;stroke-linecap:butt;stroke-linejoin:miter;stroke-opacity:1" d="M 4,363.827 4,347.321 z" id="boundary" inkscape:connector-curvature="0" />
	<path style="fill:none;stroke:red;stroke-width:1px;stroke-linecap:butt;stroke-linejoin:miter;stroke-opacity:1" d="M 12.2529,461.211 4,446.356 z" id="boundary" inkscape:connector-curvature="0" />
	<path style="fill:none;stroke:red;stroke-width:1px;stroke-linecap:butt;stroke-linejoin:miter;stroke-opacity:1" d="M 4,446.356 4,429.85 z" id="boundary" inkscape:connector-curvature="0" />
	<path style="fill:none;stroke:red;stroke-width:1px;stroke-linecap:butt;stroke-linejoin:miter;stroke-opacity:1" d="M 4,429.85 4,413.344 z" id="boundary" inkscape:connector-curvature="0" />
	<path style="fill:none;stroke:red;stroke-width:1px;stroke-linecap:butt;stroke-linejoin:miter;stroke-opacity:1" d="M 12.2529,461.211 12.2529,477.717 z" id="boundary" inkscape:connector-curvature="0" />
	<path style="fill:none;stroke:red;stroke-width:1px;stroke-linecap:butt;stroke-linejoin:miter;stroke-opacity:1" d="M 4,413.344 4,396.839 z" id="boundary" inkscape:connector-curvature="0" />
	<path style="fill:none;stroke:red;stroke-width:1px;stroke-linecap:butt;stroke-linejoin:miter;stroke-opacity:1" d="M 4,396.839 4,380.333 z" id="boundary" inkscape:connector-curvature="0" />
	<path style="fill:none;stroke:red;stroke-width:1px;stroke-linecap:butt;stroke-linejoin:miter;stroke-opacity:1" d="M 20.5058,273.045 33.7105,259.84 z" id="boundary" inkscape:connector-curvature="0" />
	<path style="fill:none;stroke:red;stroke-width:1px;stroke-linecap:butt;stroke-linejoin:miter;stroke-opacity:1" d="M 68.3727,20.5058 83.228,12.2529 z" id="boundary" inkscape:connector-curvature="0" />
	<path style="fill:none;stroke:red;stroke-width:1px;stroke-linecap:butt;stroke-linejoin:miter;stroke-opacity:1" d="M 55.1681,32.0599 68.3727,20.5058 z" id="boundary" inkscape:connector-curvature="0" />
	<path style="fill:none;stroke:red;stroke-width:1px;stroke-linecap:butt;stroke-linejoin:miter;stroke-opacity:1" d="M 41.9634,45.2646 55.1681,32.0599 z" id="boundary" inkscape:connector-curvature="0" />
	<path style="fill:none;stroke:red;stroke-width:1px;stroke-linecap:butt;stroke-linejoin:miter;stroke-opacity:1" d="M 132.745,4 149.251,4 z" id="boundary" inkscape:connector-curvature="0" />
	<path style="fill:none;stroke:red;stroke-width:1px;stroke-linecap:butt;stroke-linejoin:miter;stroke-opacity:1" d="M 149.251,4 164.106,12.2529 z" id="boundary" inkscape:connector-curvature="0" />
	<path style="fill:none;stroke:red;stroke-width:1px;stroke-linecap:butt;stroke-linejoin:miter;stroke-opacity:1" d="M 180.612,12.2529 164.106,12.2529 z" id="boundary" inkscape:connector-curvature="0" />
	<path style="fill:none;stroke:red;stroke-width:1px;stroke-linecap:butt;stroke-linejoin:miter;stroke-opacity:1" d="M 116.24,4 132.745,4 z" id="boundary" inkscape:connector-curvature="0" />
	<path style="fill:none;stroke:red;stroke-width:1px;stroke-linecap:butt;stroke-linejoin:miter;stroke-opacity:1" d="M 83.228,12.2529 99.7338,4 z" id="boundary" inkscape:connector-curvature="0" />
	<path style="fill:none;stroke:red;stroke-width:1px;stroke-linecap:butt;stroke-linejoin:miter;stroke-opacity:1" d="M 99.7338,4 116.24,4 z" id="boundary" inkscape:connector-curvature="0" />
	<path style="fill:none;stroke:red;stroke-width:1px;stroke-linecap:butt;stroke-linejoin:miter;stroke-opacity:1" d="M 28.7587,139.348 37.0116,154.203 z" id="boundary" inkscape:connector-curvature="0" />
	<path style="fill:none;stroke:red;stroke-width:1px;stroke-linecap:butt;stroke-linejoin:miter;stroke-opacity:1" d="M 37.0116,154.203 41.9634,170.709 z" id="boundary" inkscape:connector-curvature="0" />
	<path style="fill:none;stroke:red;stroke-width:1px;stroke-linecap:butt;stroke-linejoin:miter;stroke-opacity:1" d="M 41.9634,170.709 55.1681,182.263 z" id="boundary" inkscape:connector-curvature="0" />
	<path style="fill:none;stroke:red;stroke-width:1px;stroke-linecap:butt;stroke-linejoin:miter;stroke-opacity:1" d="M 55.1681,182.263 66.7221,195.468 z" id="boundary" inkscape:connector-curvature="0" />
	<path style="fill:none;stroke:red;stroke-width:1px;stroke-linecap:butt;stroke-linejoin:miter;stroke-opacity:1" d="M 66.7221,195.468 70.0233,211.973 z" id="boundary" inkscape:connector-curvature="0" />
	<path style="fill:none;stroke:red;stroke-width:1px;stroke-linecap:butt;stroke-linejoin:miter;stroke-opacity:1" d="M 70.0233,211.973 61.7704,240.033 z" id="boundary" inkscape:connector-curvature="0" />
	<path style="fill:none;stroke:red;stroke-width:1px;stroke-linecap:butt;stroke-linejoin:miter;stroke-opacity:1" d="M 61.7704,240.033 48.5657,251.587 z" id="boundary" inkscape:connector-curvature="0" />
	<path style="fill:none;stroke:red;stroke-width:1px;stroke-linecap:butt;stroke-linejoin:miter;stroke-opacity:1" d="M 48.5657,251.587 33.7105,259.84 z" id="boundary" inkscape:connector-curvature="0" />
	<path style="fill:none;stroke:red;stroke-width:1px;stroke-linecap:butt;stroke-linejoin:miter;stroke-opacity:1" d="M 12.2529,477.717 12.2529,494.223 z" id="boundary" inkscape:connector-curvature="0" />
	<path style="fill:none;stroke:red;stroke-width:1px;stroke-linecap:butt;stroke-linejoin:miter;stroke-opacity:1" d="M 20.5058,509.078 12.2529,494.223 z" id="boundary" inkscape:connector-curvature="0" />
	<path style="fill:none;stroke:red;stroke-width:1px;stroke-linecap:butt;stroke-linejoin:miter;stroke-opacity:1" d="M 20.5058,509.078 25.4576,525.584 z" id="boundary" inkscape:connector-curvature="0" />
	<path style="fill:none;stroke:red;stroke-width:1px;stroke-linecap:butt;stroke-linejoin:miter;stroke-opacity:1" d="M 28.7587,542.09 25.4576,525.584 z" id="boundary" inkscape:connector-curvature="0" />
	<path style="fill:none;stroke:red;stroke-width:1px;stroke-linecap:butt;stroke-linejoin:miter;stroke-opacity:1" d="M 28.7587,542.09 28.7587,558.596 z" id="boundary" inkscape:connector-curvature="0" />
	<path style="fill:none;stroke:red;stroke-width:1px;stroke-linecap:butt;stroke-linejoin:miter;stroke-opacity:1" d="M 37.0116,573.451 28.7587,558.596 z" id="boundary" inkscape:connector-curvature="0" />
	<path style="fill:none;stroke:red;stroke-width:1px;stroke-linecap:butt;stroke-linejoin:miter;stroke-opacity:1" d="M 37.0116,573.451 37.0116,589.957 z" id="boundary" inkscape:connector-curvature="0" />
	<path style="fill:none;stroke:red;stroke-width:1px;stroke-linecap:butt;stroke-linejoin:miter;stroke-opacity:1" d="M 37.0116,589.957 37.0116,606.463 z" id="boundary" inkscape:connector-curvature="0" />
	<path style="fill:none;stroke:red;stroke-width:1px;stroke-linecap:butt;stroke-linejoin:miter;stroke-opacity:1" d="M 94.782,702.196 83.228,688.992 z" id="boundary" inkscape:connector-curvature="0" />
	<path style="fill:none;stroke:red;stroke-width:1px;stroke-linecap:butt;stroke-linejoin:miter;stroke-opacity:1" d="M 37.0116,606.463 37.0116,622.968 z" id="boundary" inkscape:connector-curvature="0" />
	<path style="fill:none;stroke:red;stroke-width:1px;stroke-linecap:butt;stroke-linejoin:miter;stroke-opacity:1" d="M 45.2646,637.824 37.0116,622.968 z" id="boundary" inkscape:connector-curvature="0" />
	<path style="fill:none;stroke:red;stroke-width:1px;stroke-linecap:butt;stroke-linejoin:miter;stroke-opacity:1" d="M 45.2646,637.824 46.9151,654.329 z" id="boundary" inkscape:connector-curvature="0" />
	<path style="fill:none;stroke:red;stroke-width:1px;stroke-linecap:butt;stroke-linejoin:miter;stroke-opacity:1" d="M 55.1681,669.185 46.9151,654.329 z" id="boundary" inkscape:connector-curvature="0" />
	<path style="fill:none;stroke:red;stroke-width:1px;stroke-linecap:butt;stroke-linejoin:miter;stroke-opacity:1" d="M 55.1681,669.185 66.7221,682.389 z" id="boundary" inkscape:connector-curvature="0" />
	<path style="fill:none;stroke:red;stroke-width:1px;stroke-linecap:butt;stroke-linejoin:miter;stroke-opacity:1" d="M 83.228,688.992 66.7221,682.389 z" id="boundary" inkscape:connector-curvature="0" />
	<path style="fill:none;stroke:red;stroke-width:1px;stroke-linecap:butt;stroke-linejoin:miter;stroke-opacity:1" d="M 86.5291,776.473 86.5291,792.978 z" id="boundary" inkscape:connector-curvature="0" />
	<path style="fill:none;stroke:red;stroke-width:1px;stroke-linecap:butt;stroke-linejoin:miter;stroke-opacity:1" d="M 86.5291,776.473 94.782,759.967 z" id="boundary" inkscape:connector-curvature="0" />
	<path style="fill:none;stroke:red;stroke-width:1px;stroke-linecap:butt;stroke-linejoin:miter;stroke-opacity:1" d="M 86.5291,792.978 86.5291,809.484 z" id="boundary" inkscape:connector-curvature="0" />
	<path style="fill:none;stroke:red;stroke-width:1px;stroke-linecap:butt;stroke-linejoin:miter;stroke-opacity:1" d="M 86.5291,825.99 86.5291,842.496 z" id="boundary" inkscape:connector-curvature="0" />
	<path style="fill:none;stroke:red;stroke-width:1px;stroke-linecap:butt;stroke-linejoin:miter;stroke-opacity:1" d="M 94.782,857.351 86.5291,842.496 z" id="boundary" inkscape:connector-curvature="0" />
	<path style="fill:none;stroke:red;stroke-width:1px;stroke-linecap:butt;stroke-linejoin:miter;stroke-opacity:1" d="M 86.5291,809.484 86.5291,825.99 z" id="boundary" inkscape:connector-curvature="0" />
	<path style="fill:none;stroke:red;stroke-width:1px;stroke-linecap:butt;stroke-linejoin:miter;stroke-opacity:1" d="M 103.035,733.557 94.782,759.967 z" id="boundary" inkscape:connector-curvature="0" />
	<path style="fill:none;stroke:red;stroke-width:1px;stroke-linecap:butt;stroke-linejoin:miter;stroke-opacity:1" d="M 103.035,872.206 94.782,857.351 z" id="boundary" inkscape:connector-curvature="0" />
	<path style="fill:none;stroke:red;stroke-width:1px;stroke-linecap:butt;stroke-linejoin:miter;stroke-opacity:1" d="M 103.035,872.206 103.035,888.712 z" id="boundary" inkscape:connector-curvature="0" />
	<path style="fill:none;stroke:red;stroke-width:1px;stroke-linecap:butt;stroke-linejoin:miter;stroke-opacity:1" d="M 94.782,702.196 103.035,717.052 z" id="boundary" inkscape:connector-curvature="0" />
	<path style="fill:none;stroke:red;stroke-width:1px;stroke-linecap:butt;stroke-linejoin:miter;stroke-opacity:1" d="M 103.035,717.052 103.035,733.557 z" id="boundary" inkscape:connector-curvature="0" />
	<path style="fill:none;stroke:red;stroke-width:1px;stroke-linecap:butt;stroke-linejoin:miter;stroke-opacity:1" d="M 103.035,888.712 103.035,905.218 z" id="boundary" inkscape:connector-curvature="0" />
	<path style="fill:none;stroke:red;stroke-width:1px;stroke-linecap:butt;stroke-linejoin:miter;stroke-opacity:1" d="M 103.035,905.218 94.782,925.025 z" id="boundary" inkscape:connector-curvature="0" />
	<path style="fill:none;stroke:red;stroke-width:1px;stroke-linecap:butt;stroke-linejoin:miter;stroke-opacity:1" d="M 94.782,925.025 94.782,941.531 z" id="boundary" inkscape:connector-curvature="0" />
	<path style="fill:none;stroke:red;stroke-width:1px;stroke-linecap:butt;stroke-linejoin:miter;stroke-opacity:1" d="M 103.035,956.386 94.782,941.531 z" id="boundary" inkscape:connector-curvature="0" />
	<path style="fill:none;stroke:red;stroke-width:1px;stroke-linecap:butt;stroke-linejoin:miter;stroke-opacity:1" d="M 114.589,969.591 103.035,956.386 z" id="boundary" inkscape:connector-curvature="0" />
	<path style="fill:none;stroke:red;stroke-width:1px;stroke-linecap:butt;stroke-linejoin:miter;stroke-opacity:1" d="M 131.095,976.193 114.589,969.591 z" id="boundary" inkscape:connector-curvature="0" />
	<path style="fill:none;stroke:red;stroke-width:1px;stroke-linecap:butt;stroke-linejoin:miter;stroke-opacity:1" d="M 131.095,976.193 147.601,979.494 z" id="boundary" inkscape:connector-curvature="0" />
	<path style="fill:none;stroke:red;stroke-width:1px;stroke-linecap:butt;stroke-linejoin:miter;stroke-opacity:1" d="M 147.601,979.494 162.456,987.747 z" id="boundary" inkscape:connector-curvature="0" />
	<path style="fill:none;stroke:red;stroke-width:1px;stroke-linecap:butt;stroke-linejoin:miter;stroke-opacity:1" d="M 162.456,987.747 177.311,996 z" id="boundary" inkscape:connector-curvature="0" />
	<path style="fill:none;stroke:red;stroke-width:1px;stroke-linecap:butt;stroke-linejoin:miter;stroke-opacity:1" d="M 180.612,12.2529 197.118,12.2529 z" id="boundary" inkscape:connector-curvature="0" />
	<path style="fill:none;stroke:red;stroke-width:1px;stroke-linecap:butt;stroke-linejoin:miter;stroke-opacity:1" d="M 197.118,12.2529 211.973,20.5058 z" id="boundary" inkscape:connector-curvature="0" />
	<path style="fill:none;stroke:red;stroke-width:1px;stroke-linecap:butt;stroke-linejoin:miter;stroke-opacity:1" d="M 211.973,20.5058 225.178,30.4093 z" id="boundary" inkscape:connector-curvature="0" />
	<path style="fill:none;stroke:red;stroke-width:1px;stroke-linecap:butt;stroke-linejoin:miter;stroke-opacity:1" d="M 225.178,30.4093 236.732,43.614 z" id="boundary" inkscape:connector-curvature="0" />
	<path style="fill:none;stroke:red;stroke-width:1px;stroke-linecap:butt;stroke-linejoin:miter;stroke-opacity:1" d="M 236.732,43.614 249.937,55.1681 z" id="boundary" inkscape:connector-curvature="0" />
	<path style="fill:none;stroke:red;stroke-width:1px;stroke-linecap:butt;stroke-linejoin:miter;stroke-opacity:1" d="M 261.491,68.3727 261.491,84.8785 z" id="boundary" inkscape:connector-curvature="0" />
	<path style="fill:none;stroke:red;stroke-width:1px;stroke-linecap:butt;stroke-linejoin:miter;stroke-opacity:1" d="M 249.937,55.1681 261.491,68.3727 z" id="boundary" inkscape:connector-curvature="0" />
	<path style="fill:none;stroke:red;stroke-width:1px;stroke-linecap:butt;stroke-linejoin:miter;stroke-opacity:1" d="M 261.491,84.8785 261.491,101.384 z" id="boundary" inkscape:connector-curvature="0" />
	<path style="fill:none;stroke:red;stroke-width:1px;stroke-linecap:butt;stroke-linejoin:miter;stroke-opacity:1" d="M 253.238,220.226 253.238,203.72 z" id="boundary" inkscape:connector-curvature="0" />
	<path style="fill:none;stroke:red;stroke-width:1px;stroke-linecap:butt;stroke-linejoin:miter;stroke-opacity:1" d="M 253.238,203.72 261.491,178.962 z" id="boundary" inkscape:connector-curvature="0" />
	<path style="fill:none;stroke:red;stroke-width:1px;stroke-linecap:butt;stroke-linejoin:miter;stroke-opacity:1" d="M 261.491,101.384 261.491,117.89 z" id="boundary" inkscape:connector-curvature="0" />
	<path style="fill:none;stroke:red;stroke-width:1px;stroke-linecap:butt;stroke-linejoin:miter;stroke-opacity:1" d="M 253.238,220.226 256.539,236.732 z" id="boundary" inkscape:connector-curvature="0" />
	<path style="fill:none;stroke:red;stroke-width:1px;stroke-linecap:butt;stroke-linejoin:miter;stroke-opacity:1" d="M 264.792,251.587 256.539,236.732 z" id="boundary" inkscape:connector-curvature="0" />
	<path style="fill:none;stroke:red;stroke-width:1px;stroke-linecap:butt;stroke-linejoin:miter;stroke-opacity:1" d="M 261.491,117.89 261.491,134.396 z" id="boundary" inkscape:connector-curvature="0" />
	<path style="fill:none;stroke:red;stroke-width:1px;stroke-linecap:butt;stroke-linejoin:miter;stroke-opacity:1" d="M 269.744,149.251 261.491,134.396 z" id="boundary" inkscape:connector-curvature="0" />
	<path style="fill:none;stroke:red;stroke-width:1px;stroke-linecap:butt;stroke-linejoin:miter;stroke-opacity:1" d="M 269.744,149.251 261.491,178.962 z" id="boundary" inkscape:connector-curvature="0" />
	<path style="fill:none;stroke:red;stroke-width:1px;stroke-linecap:butt;stroke-linejoin:miter;stroke-opacity:1" d="M 264.792,251.587 269.744,268.093 z" id="boundary" inkscape:connector-curvature="0" />
	<path style="fill:none;stroke:red;stroke-width:1px;stroke-linecap:butt;stroke-linejoin:miter;stroke-opacity:1" d="M 269.744,268.093 277.997,282.948 z" id="boundary" inkscape:connector-curvature="0" />
	<path style="fill:none;stroke:red;stroke-width:1px;stroke-linecap:butt;stroke-linejoin:miter;stroke-opacity:1" d="M 286.25,297.804 286.25,314.309 z" id="boundary" inkscape:connector-curvature="0" />
	<path style="fill:none;stroke:red;stroke-width:1px;stroke-linecap:butt;stroke-linejoin:miter;stroke-opacity:1" d="M 277.997,282.948 286.25,297.804 z" id="boundary" inkscape:connector-curvature="0" />
	<path style="fill:none;stroke:red;stroke-width:1px;stroke-linecap:butt;stroke-linejoin:miter;stroke-opacity:1" d="M 286.25,314.309 286.25,330.815 z" id="boundary" inkscape:connector-curvature="0" />
	<path style="fill:none;stroke:red;stroke-width:1px;stroke-linecap:butt;stroke-linejoin:miter;stroke-opacity:1" d="M 286.25,330.815 292.852,347.321 z" id="boundary" inkscape:connector-curvature="0" />
	<path style="fill:none;stroke:red;stroke-width:1px;stroke-linecap:butt;stroke-linejoin:miter;stroke-opacity:1" d="M 292.852,347.321 286.25,377.032 z" id="boundary" inkscape:connector-curvature="0" />
	<path style="fill:none;stroke:red;stroke-width:1px;stroke-linecap:butt;stroke-linejoin:miter;stroke-opacity:1" d="M 297.804,408.393 289.551,393.537 z" id="boundary" inkscape:connector-curvature="0" />
	<path style="fill:none;stroke:red;stroke-width:1px;stroke-linecap:butt;stroke-linejoin:miter;stroke-opacity:1" d="M 289.551,393.537 286.25,377.032 z" id="boundary" inkscape:connector-curvature="0" />
	<path style="fill:none;stroke:red;stroke-width:1px;stroke-linecap:butt;stroke-linejoin:miter;stroke-opacity:1" d="M 302.755,424.899 297.804,408.393 z" id="boundary" inkscape:connector-curvature="0" />
	<path style="fill:none;stroke:red;stroke-width:1px;stroke-linecap:butt;stroke-linejoin:miter;stroke-opacity:1" d="M 302.755,424.899 302.755,441.404 z" id="boundary" inkscape:connector-curvature="0" />
	<path style="fill:none;stroke:red;stroke-width:1px;stroke-linecap:butt;stroke-linejoin:miter;stroke-opacity:1" d="M 311.008,472.765 302.755,457.91 z" id="boundary" inkscape:connector-curvature="0" />
	<path style="fill:none;stroke:red;stroke-width:1px;stroke-linecap:butt;stroke-linejoin:miter;stroke-opacity:1" d="M 302.755,457.91 302.755,441.404 z" id="boundary" inkscape:connector-curvature="0" />
	<path style="fill:none;stroke:red;stroke-width:1px;stroke-linecap:butt;stroke-linejoin:miter;stroke-opacity:1" d="M 319.261,487.621 311.008,472.765 z" id="boundary" inkscape:connector-curvature="0" />
	<path style="fill:none;stroke:red;stroke-width:1px;stroke-linecap:butt;stroke-linejoin:miter;stroke-opacity:1" d="M 319.261,487.621 325.864,504.126 z" id="boundary" inkscape:connector-curvature="0" />
	<path style="fill:none;stroke:red;stroke-width:1px;stroke-linecap:butt;stroke-linejoin:miter;stroke-opacity:1" d="M 325.864,504.126 327.514,520.632 z" id="boundary" inkscape:connector-curvature="0" />
	<path style="fill:none;stroke:red;stroke-width:1px;stroke-linecap:butt;stroke-linejoin:miter;stroke-opacity:1" d="M 335.767,551.993 327.514,537.138 z" id="boundary" inkscape:connector-curvature="0" />
	<path style="fill:none;stroke:red;stroke-width:1px;stroke-linecap:butt;stroke-linejoin:miter;stroke-opacity:1" d="M 327.514,537.138 327.514,520.632 z" id="boundary" inkscape:connector-curvature="0" />
	<path style="fill:none;stroke:red;stroke-width:1px;stroke-linecap:butt;stroke-linejoin:miter;stroke-opacity:1" d="M 335.767,551.993 335.767,568.499 z" id="boundary" inkscape:connector-curvature="0" />
	<path style="fill:none;stroke:red;stroke-width:1px;stroke-linecap:butt;stroke-linejoin:miter;stroke-opacity:1" d="M 236.732,863.953 244.985,847.448 z" id="boundary" inkscape:connector-curvature="0" />
	<path style="fill:none;stroke:red;stroke-width:1px;stroke-linecap:butt;stroke-linejoin:miter;stroke-opacity:1" d="M 240.033,880.459 236.732,863.953 z" id="boundary" inkscape:connector-curvature="0" />
	<path style="fill:none;stroke:red;stroke-width:1px;stroke-linecap:butt;stroke-linejoin:miter;stroke-opacity:1" d="M 263.141,903.567 248.286,895.314 z" id="boundary" inkscape:connector-curvature="0" />
	<path style="fill:none;stroke:red;stroke-width:1px;stroke-linecap:butt;stroke-linejoin:miter;stroke-opacity:1" d="M 248.286,895.314 240.033,880.459 z" id="boundary" inkscape:connector-curvature="0" />
	<path style="fill:none;stroke:red;stroke-width:1px;stroke-linecap:butt;stroke-linejoin:miter;stroke-opacity:1" d="M 269.744,764.918 269.744,781.424 z" id="boundary" inkscape:connector-curvature="0" />
	<path style="fill:none;stroke:red;stroke-width:1px;stroke-linecap:butt;stroke-linejoin:miter;stroke-opacity:1" d="M 269.744,781.424 261.491,806.183 z" id="boundary" inkscape:connector-curvature="0" />
	<path style="fill:none;stroke:red;stroke-width:1px;stroke-linecap:butt;stroke-linejoin:miter;stroke-opacity:1" d="M 294.502,916.772 277.997,911.82 z" id="boundary" inkscape:connector-curvature="0" />
	<path style="fill:none;stroke:red;stroke-width:1px;stroke-linecap:butt;stroke-linejoin:miter;stroke-opacity:1" d="M 261.491,806.183 253.238,822.689 z" id="boundary" inkscape:connector-curvature="0" />
	<path style="fill:none;stroke:red;stroke-width:1px;stroke-linecap:butt;stroke-linejoin:miter;stroke-opacity:1" d="M 244.985,847.448 253.238,822.689 z" id="boundary" inkscape:connector-curvature="0" />
	<path style="fill:none;stroke:red;stroke-width:1px;stroke-linecap:butt;stroke-linejoin:miter;stroke-opacity:1" d="M 193.817,996 177.311,996 z" id="boundary" inkscape:connector-curvature="0" />
	<path style="fill:none;stroke:red;stroke-width:1px;stroke-linecap:butt;stroke-linejoin:miter;stroke-opacity:1" d="M 226.829,996 210.323,996 z" id="boundary" inkscape:connector-curvature="0" />
	<path style="fill:none;stroke:red;stroke-width:1px;stroke-linecap:butt;stroke-linejoin:miter;stroke-opacity:1" d="M 210.323,996 193.817,996 z" id="boundary" inkscape:connector-curvature="0" />
	<path style="fill:none;stroke:red;stroke-width:1px;stroke-linecap:butt;stroke-linejoin:miter;stroke-opacity:1" d="M 263.141,903.567 277.997,911.82 z" id="boundary" inkscape:connector-curvature="0" />
	<path style="fill:none;stroke:red;stroke-width:1px;stroke-linecap:butt;stroke-linejoin:miter;stroke-opacity:1" d="M 274.696,987.747 259.84,996 z" id="boundary" inkscape:connector-curvature="0" />
	<path style="fill:none;stroke:red;stroke-width:1px;stroke-linecap:butt;stroke-linejoin:miter;stroke-opacity:1" d="M 259.84,996 243.334,996 z" id="boundary" inkscape:connector-curvature="0" />
	<path style="fill:none;stroke:red;stroke-width:1px;stroke-linecap:butt;stroke-linejoin:miter;stroke-opacity:1" d="M 289.551,977.844 274.696,987.747 z" id="boundary" inkscape:connector-curvature="0" />
	<path style="fill:none;stroke:red;stroke-width:1px;stroke-linecap:butt;stroke-linejoin:miter;stroke-opacity:1" d="M 243.334,996 226.829,996 z" id="boundary" inkscape:connector-curvature="0" />
	<path style="fill:none;stroke:red;stroke-width:1px;stroke-linecap:butt;stroke-linejoin:miter;stroke-opacity:1" d="M 269.744,764.918 282.948,753.364 z" id="boundary" inkscape:connector-curvature="0" />
	<path style="fill:none;stroke:red;stroke-width:1px;stroke-linecap:butt;stroke-linejoin:miter;stroke-opacity:1" d="M 311.008,616.366 311.008,632.872 z" id="boundary" inkscape:connector-curvature="0" />
	<path style="fill:none;stroke:red;stroke-width:1px;stroke-linecap:butt;stroke-linejoin:miter;stroke-opacity:1" d="M 299.454,662.582 286.25,674.136 z" id="boundary" inkscape:connector-curvature="0" />
	<path style="fill:none;stroke:red;stroke-width:1px;stroke-linecap:butt;stroke-linejoin:miter;stroke-opacity:1" d="M 286.25,690.642 289.551,707.148 z" id="boundary" inkscape:connector-curvature="0" />
	<path style="fill:none;stroke:red;stroke-width:1px;stroke-linecap:butt;stroke-linejoin:miter;stroke-opacity:1" d="M 286.25,690.642 286.25,674.136 z" id="boundary" inkscape:connector-curvature="0" />
	<path style="fill:none;stroke:red;stroke-width:1px;stroke-linecap:butt;stroke-linejoin:miter;stroke-opacity:1" d="M 335.767,568.499 335.767,585.005 z" id="boundary" inkscape:connector-curvature="0" />
	<path style="fill:none;stroke:red;stroke-width:1px;stroke-linecap:butt;stroke-linejoin:miter;stroke-opacity:1" d="M 335.767,585.005 324.213,604.812 z" id="boundary" inkscape:connector-curvature="0" />
	<path style="fill:none;stroke:red;stroke-width:1px;stroke-linecap:butt;stroke-linejoin:miter;stroke-opacity:1" d="M 311.008,649.378 311.008,632.872 z" id="boundary" inkscape:connector-curvature="0" />
	<path style="fill:none;stroke:red;stroke-width:1px;stroke-linecap:butt;stroke-linejoin:miter;stroke-opacity:1" d="M 311.008,616.366 324.213,604.812 z" id="boundary" inkscape:connector-curvature="0" />
	<path style="fill:none;stroke:red;stroke-width:1px;stroke-linecap:butt;stroke-linejoin:miter;stroke-opacity:1" d="M 311.008,649.378 299.454,662.582 z" id="boundary" inkscape:connector-curvature="0" />
	<path style="fill:none;stroke:red;stroke-width:1px;stroke-linecap:butt;stroke-linejoin:miter;stroke-opacity:1" d="M 291.201,736.859 282.948,753.364 z" id="boundary" inkscape:connector-curvature="0" />
	<path style="fill:none;stroke:red;stroke-width:1px;stroke-linecap:butt;stroke-linejoin:miter;stroke-opacity:1" d="M 291.201,736.859 289.551,707.148 z" id="boundary" inkscape:connector-curvature="0" />
	<path style="fill:none;stroke:red;stroke-width:1px;stroke-linecap:butt;stroke-linejoin:miter;stroke-opacity:1" d="M 294.502,916.772 309.358,925.025 z" id="boundary" inkscape:connector-curvature="0" />
	<path style="fill:none;stroke:red;stroke-width:1px;stroke-linecap:butt;stroke-linejoin:miter;stroke-opacity:1" d="M 319.261,954.735 306.057,969.591 z" id="boundary" inkscape:connector-curvature="0" />
	<path style="fill:none;stroke:red;stroke-width:1px;stroke-linecap:butt;stroke-linejoin:miter;stroke-opacity:1" d="M 309.358,925.025 325.864,931.627 z" id="boundary" inkscape:connector-curvature="0" />
	<path style="fill:none;stroke:red;stroke-width:1px;stroke-linecap:butt;stroke-linejoin:miter;stroke-opacity:1" d="M 325.864,931.627 319.261,954.735 z" id="boundary" inkscape:connector-curvature="0" />
	<path style="fill:none;stroke:red;stroke-width:1px;stroke-linecap:butt;stroke-linejoin:miter;stroke-opacity:1" d="M 306.057,969.591 289.551,977.844 z" id="boundary" inkscape:connector-curvature="0" />
	<circle cx="4" cy="314.309" r="4" fill="#0" id="circle0"/>
	<circle cx="4" cy="330.815" r="4" fill="#0" id="circle1"/>
	<circle cx="4" cy="347.321" r="4" fill="#0" id="circle2"/>
	<circle cx="4" cy="363.827" r="4" fill="#0" id="circle3"/>
	<circle cx="4" cy="380.333" r="4" fill="#0" id="circle4"/>
	<circle cx="4" cy="396.839" r="4" fill="#0" id="circle5"/>
	<circle cx="4" cy="413.344" r="4" fill="#0" id="circle6"/>
	<circle cx="4" cy="429.85" r="4" fill="#0" id="circle7"/>
	<circle cx="4" cy="446.356" r="4" fill="#0" id="circle8"/>
	<circle cx="12.2529" cy="289.551" r="4" fill="#0" id="circle9"/>
	<circle cx="12.2529" cy="461.211" r="4" fill="#0" id="circle10"/>
	<circle cx="12.2529" cy="477.717" r="4" fill="#0" id="circle11"/>
	<circle cx="12.2529" cy="494.223" r="4" fill="#0" id="circle12"/>
	<circle cx="20.5058" cy="74.975" r="4" fill="#0" id="circle13"/>
	<circle cx="20.5058" cy="91.4809" r="4" fill="#0" id="circle14"/>
	<circle cx="20.5058" cy="107.987" r="4" fill="#0" id="circle15"/>
	<circle cx="20.5058" cy="124.493" r="4" fill="#0" id="circle16"/>
	<circle cx="20.5058" cy="273.045" r="4" fill="#0" id="circle17"/>
	<circle cx="20.5058" cy="509.078" r="4" fill="#0" id="circle18"/>
	<circle cx="25.4576" cy="525.584" r="4" fill="#0" id="circle19"/>
	<circle cx="28.7587" cy="58.4692" r="4" fill="#0" id="circle20"/>
	<circle cx="28.7587" cy="139.348" r="4" fill="#0" id="circle21"/>
	<circle cx="28.7587" cy="542.09" r="4" fill="#0" id="circle22"/>
	<circle cx="28.7587" cy="558.596" r="4" fill="#0" id="circle23"/>
	<circle cx="33.7105" cy="259.84" r="4" fill="#0" id="circle24"/>
	<circle cx="37.0116" cy="154.203" r="4" fill="#0" id="circle25"/>
	<circle cx="37.0116" cy="573.451" r="4" fill="#0" id="circle26"/>
	<circle cx="37.0116" cy="589.957" r="4" fill="#0" id="circle27"/>
	<circle cx="37.0116" cy="606.463" r="4" fill="#0" id="circle28"/>
	<circle cx="37.0116" cy="622.968" r="4" fill="#0" id="circle29"/>
	<circle cx="41.9634" cy="45.2646" r="4" fill="#0" id="circle30"/>
	<circle cx="41.9634" cy="170.709" r="4" fill="#0" id="circle31"/>
	<circle cx="45.2646" cy="637.824" r="4" fill="#0" id="circle32"/>
	<circle cx="46.9151" cy="654.329" r="4" fill="#0" id="circle33"/>
	<circle cx="48.5657" cy="251.587" r="4" fill="#0" id="circle34"/>
	<circle cx="55.1681" cy="32.0599" r="4" fill="#0" id="circle35"/>
	<circle cx="55.1681" cy="182.263" r="4" fill="#0" id="circle36"/>
	<circle cx="55.1681" cy="669.185" r="4" fill="#0" id="circle37"/>
	<circle cx="61.7704" cy="240.033" r="4" fill="#0" id="circle38"/>
	<circle cx="66.7221" cy="195.468" r="4" fill="#0" id="circle39"/>
	<circle cx="66.7221" cy="682.389" r="4" fill="#0" id="circle40"/>
	<circle cx="68.3727" cy="20.5058" r="4" fill="#0" id="circle41"/>
	<circle cx="70.0233" cy="211.973" r="4" fill="#0" id="circle42"/>
	<circle cx="83.228" cy="12.2529" r="4" fill="#0" id="circle43"/>
	<circle cx="83.228" cy="688.992" r="4" fill="#0" id="circle44"/>
	<circle cx="86.5291" cy="776.473" r="4" fill="#0" id="circle45"/>
	<circle cx="86.5291" cy="792.978" r="4" fill="#0" id="circle46"/>
	<circle cx="86.5291" cy="809.484" r="4" fill="#0" id="circle47"/>
	<circle cx="86.5291" cy="825.99" r="4" fill="#0" id="circle48"/>
	<circle cx="86.5291" cy="842.496" r="4" fill="#0" id="circle49"/>
	<circle cx="94.782" cy="702.196" r="4" fill="#0" id="circle50"/>
	<circle cx="94.782" cy="759.967" r="4" fill="#0" id="circle51"/>
	<circle cx="94.782" cy="857.351" r="4" fill="#0" id="circle52"/>
	<circle cx="94.782" cy="925.025" r="4" fill="#0" id="circle53"/>
	<circle cx="94.782" cy="941.531" r="4" fill="#0" id="circle54"/>
	<circle cx="99.7338" cy="4" r="4" fill="#0" id="circle55"/>
	<circle cx="103.035" cy="717.052" r="4" fill="#0" id="circle56"/>
	<circle cx="103.035" cy="733.557" r="4" fill="#0" id="circle57"/>
	<circle cx="103.035" cy="872.206" r="4" fill="#0" id="circle58"/>
	<circle cx="103.035" cy="888.712" r="4" fill="#0" id="circle59"/>
	<circle cx="103.035" cy="905.218" r="4" fill="#0" id="circle60"/>
	<circle cx="103.035" cy="956.386" r="4" fill="#0" id="circle61"/>
	<circle cx="114.589" cy="969.591" r="4" fill="#0" id="circle62"/>
	<circle cx="116.24" cy="4" r="4" fill="#0" id="circle63"/>
	<circle cx="131.095" cy="976.193" r="4" fill="#0" id="circle64"/>
	<circle cx="132.745" cy="4" r="4" fill="#0" id="circle65"/>
	<circle cx="147.601" cy="979.494" r="4" fill="#0" id="circle66"/>
	<circle cx="149.251" cy="4" r="4" fill="#0" id="circle67"/>
	<circle cx="162.456" cy="987.747" r="4" fill="#0" id="circle68"/>
	<circle cx="164.106" cy="12.2529" r="4" fill="#0" id="circle69"/>
	<circle cx="177.311" cy="996" r="4" fill="#0" id="circle70"/>
	<circle cx="180.612" cy="12.2529" r="4" fill="#0" id="circle71"/>
	<circle cx="193.817" cy="996" r="4" fill="#0" id="circle72"/>
	<circle cx="197.118" cy="12.2529" r="4" fill="#0" id="circle73"/>
	<circle cx="210.323" cy="996" r="4" fill="#0" id="circle74"/>
	<circle cx="211.973" cy="20.5058" r="4" fill="#0" id="circle75"/>
	<circle cx="225.178" cy="30.4093" r="4" fill="#0" id="circle76"/>
	<circle cx="226.829" cy="996" r="4" fill="#0" id="circle77"/>
	<circle cx="236.732" cy="43.614" r="4" fill="#0" id="circle78"/>
	<circle cx="236.732" cy="863.953" r="4" fill="#0" id="circle79"/>
	<circle cx="240.033" cy="880.459" r="4" fill="#0" id="circle80"/>
	<circle cx="243.334" cy="996" r="4" fill="#0" id="circle81"/>
	<circle cx="244.985" cy="847.448" r="4" fill="#0" id="circle82"/>
	<circle cx="248.286" cy="895.314" r="4" fill="#0" id="circle83"/>
	<circle cx="249.937" cy="55.1681" r="4" fill="#0" id="circle84"/>
	<circle cx="253.238" cy="203.72" r="4" fill="#0" id="circle85"/>
	<circle cx="253.238" cy="220.226" r="4" fill="#0" id="circle86"/>
	<circle cx="253.238" cy="822.689" r="4" fill="#0" id="circle87"/>
	<circle cx="256.539" cy="236.732" r="4" fill="#0" id="circle88"/>
	<circle cx="259.84" cy="996" r="4" fill="#0" id="circle89"/>
	<circle cx="261.491" cy="68.3727" r="4" fill="#0" id="circle90"/>
	<circle cx="261.491" cy="84.8785" r="4" fill="#0" id="circle91"/>
	<circle cx="261.491" cy="101.384" r="4" fill="#0" id="circle92"/>
	<circle cx="261.491" cy="117.89" r="4" fill="#0" id="circle93"/>
	<circle cx="261.491" cy="134.396" r="4" fill="#0" id="circle94"/>
	<circle cx="261.491" cy="178.962" r="4" fill="#0" id="circle95"/>
	<circle cx="261.491" cy="806.183" r="4" fill="#0" id="circle96"/>
	<circle cx="263.141" cy="903.567" r="4" fill="#0" id="circle97"/>
	<circle cx="264.792" cy="251.587" r="4" fill="#0" id="circle98"/>
	<circle cx="269.744" cy="149.251" r="4" fill="#0" id="circle99"/>
	<circle cx="269.744" cy="268.093" r="4" fill="#0" id="circle100"/>
	<circle cx="269.744" cy="764.918" r="4" fill="#0" id="circle101"/>
	<circle cx="269.744" cy="781.424" r="4" fill="#0" id="circle102"/>
	<circle cx="274.696" cy="987.747" r="4" fill="#0" id="circle103"/>
	<circle cx="277.997" cy="282.948" r="4" fill="#0" id="circle104"/>
	<circle cx="277.997" cy="911.82" r="4" fill="#0" id="circle105"/>
	<circle cx="282.948" cy="753.364" r="4" fill="#0" id="circle106"/>
	<circle cx="286.25" cy="297.804" r="4" fill="#0" id="circle107"/>
	<circle cx="286.25" cy="314.309" r="4" fill="#0" id="circle108"/>
	<circle cx="286.25" cy="330.815" r="4" fill="#0" id="circle109"/>
	<circle cx="286.25" cy="377.032" r="4" fill="#0" id="circle110"/>
	<circle cx="286.25" cy="674.136" r="4" fill="#0" id="circle111"/>
	<circle cx="286.25" cy="690.642" r="4" fill="#0" id="circle112"/>
	<circle cx="289.551" cy="393.537" r="4" fill="#0" id="circle113"/>
	<circle cx="289.551" cy="707.148" r="4" fill="#0" id="circle114"/>
	<circle cx="289.551" cy="977.844" r="4" fill="#0" id="circle115"/>
	<circle cx="291.201" cy="736.859" r="4" fill="#0" id="circle116"/>
	<circle cx="292.852" cy="347.321" r="4" fill="#0" id="circle117"/>
	<circle cx="294.502" cy="916.772" r="4" fill="#0" id="circle118"/>
	<circle cx="297.804" cy="408.393" r="4" fill="#0" id="circle119"/>
	<circle cx="299.454" cy="662.582" r="4" fill="#0" id="circle120"/>
	<circle cx="302.755" cy="424.899" r="4" fill="#0" id="circle121"/>
	<circle cx="302.755" cy="441.404" r="4" fill="#0" id="circle122"/>
	<circle cx="302.755" cy="457.91" r="4" fill="#0" id="circle123"/>
	<circle cx="306.057" cy="969.591" r="4" fill="#0" id="circle124"/>
	<circle cx="309.358" cy="925.025" r="4" fill="#0" id="circle125"/>
	<circle cx="311.008" cy="472.765" r="4" fill="#0" id="circle126"/>
	<circle cx="311.008" cy="616.366" r="4" fill="#0" id="circle127"/>
	<circle cx="311.008" cy="632.872" r="4" fill="#0" id="circle128"/>
	<circle cx="311.008" cy="649.378" r="4" fill="#0" id="circle129"/>
	<circle cx="319.261" cy="487.621" r="4" fill="#0" id="circle130"/>
	<circle cx="319.261" cy="954.735" r="4" fill="#0" id="circle131"/>
	<circle cx="324.213" cy="604.812" r="4" fill="#0" id="circle132"/>
	<circle cx="325.864" cy="504.126" r="4" fill="#0" id="circle133"/>
	<circle cx="325.864" cy="931.627" r="4" fill="#0" id="circle134"/>
	<circle cx="327.514" cy="520.632" r="4" fill="#0" id="circle135"/>
	<circle cx="327.514" cy="537.138" r="4" fill="#0" id="circle136"/>
	<circle cx="335.767" cy="551.993" r="4" fill="#0" id="circle137"/>
	<circle cx="335.767" cy="568.499" r="4" fill="#0" id="circle138"/>
	<circle cx="335.767" cy="585.005" r="4" fill="#0" id="circle139"/>
	</g>
</svg>