<?xml version="1.0" encoding="UTF-8" standalone="no"?>
<!-- Created with CurveBenchmark -->
<svg
	xmlns:dc="http://purl.org/dc/elements/1.1/"
	xmlns:cc="http://creativecommons.org/ns#"
	xmlns:rdf="http://www.w3.org/1999/02/22-rdf-syntax-ns#"
	xmlns:svg="http://www.w3.org/2000/svg"
	xmlns="http://www.w3.org/2000/svg"
	xmlns:sodipodi="http://sodipodi.sourceforge.net/DTD/sodipodi-0.dtd"
	xmlns:inkscape="http://www.inkscape.org/namespaces/inkscape"
	width="1000"
	height="1000"
	id="svg2"
	version="1.1"
	sodipodi:docname="manifold/nncrust-fish190.png.txt">
<defs
	id="defs4" />
<metadata
	id="metadata7">
	<rdf:RDF>
		<cc:Work
			rdf:about="">
			<dc:format>image/svg+xml</dc:format>
			<dc:type
				rdf:resource="http://purl.org/dc/dcmitype/StillImage" />
			<dc:title></dc:title>
		</cc:Work>
	</rdf:RDF>
</metadata>
<g
	inkscape:label="Layer 1"
	inkscape:groupmode="layer"
	id="layer1">
	<path style="fill:none;stroke:red;stroke-width:1px;stroke-linecap:butt;stroke-linejoin:miter;stroke-opacity:1" d="M 9.65242,148.137 4,119.875 z" id="boundary" inkscape:connector-curvature="0" />
	<path style="fill:none;stroke:red;stroke-width:1px;stroke-linecap:butt;stroke-linejoin:miter;stroke-opacity:1" d="M 4,119.875 32.2621,114.222 z" id="boundary" inkscape:connector-curvature="0" />
	<path style="fill:none;stroke:red;stroke-width:1px;stroke-linecap:butt;stroke-linejoin:miter;stroke-opacity:1" d="M 32.2621,114.222 60.5242,119.875 z" id="boundary" inkscape:connector-curvature="0" />
	<path style="fill:none;stroke:red;stroke-width:1px;stroke-linecap:butt;stroke-linejoin:miter;stroke-opacity:1" d="M 88.7863,131.179 60.5242,119.875 z" id="boundary" inkscape:connector-curvature="0" />
	<path style="fill:none;stroke:red;stroke-width:1px;stroke-linecap:butt;stroke-linejoin:miter;stroke-opacity:1" d="M 117.048,142.484 88.7863,131.179 z" id="boundary" inkscape:connector-curvature="0" />
	<path style="fill:none;stroke:red;stroke-width:1px;stroke-linecap:butt;stroke-linejoin:miter;stroke-opacity:1" d="M 20.9573,204.661 15.3048,176.399 z" id="boundary" inkscape:connector-curvature="0" />
	<path style="fill:none;stroke:red;stroke-width:1px;stroke-linecap:butt;stroke-linejoin:miter;stroke-opacity:1" d="M 9.65242,148.137 15.3048,176.399 z" id="boundary" inkscape:connector-curvature="0" />
	<path style="fill:none;stroke:red;stroke-width:1px;stroke-linecap:butt;stroke-linejoin:miter;stroke-opacity:1" d="M 218.792,159.442 196.182,176.399 z" id="boundary" inkscape:connector-curvature="0" />
	<path style="fill:none;stroke:red;stroke-width:1px;stroke-linecap:butt;stroke-linejoin:miter;stroke-opacity:1" d="M 196.182,176.399 167.92,170.746 z" id="boundary" inkscape:connector-curvature="0" />
	<path style="fill:none;stroke:red;stroke-width:1px;stroke-linecap:butt;stroke-linejoin:miter;stroke-opacity:1" d="M 167.92,170.746 142.484,156.615 z" id="boundary" inkscape:connector-curvature="0" />
	<path style="fill:none;stroke:red;stroke-width:1px;stroke-linecap:butt;stroke-linejoin:miter;stroke-opacity:1" d="M 117.048,142.484 142.484,156.615 z" id="boundary" inkscape:connector-curvature="0" />
	<path style="fill:none;stroke:red;stroke-width:1px;stroke-linecap:butt;stroke-linejoin:miter;stroke-opacity:1" d="M 303.578,80.3077 331.84,69.0028 z" id="boundary" inkscape:connector-curvature="0" />
	<path style="fill:none;stroke:red;stroke-width:1px;stroke-linecap:butt;stroke-linejoin:miter;stroke-opacity:1" d="M 331.84,69.0028 360.103,74.6553 z" id="boundary" inkscape:connector-curvature="0" />
	<path style="fill:none;stroke:red;stroke-width:1px;stroke-linecap:butt;stroke-linejoin:miter;stroke-opacity:1" d="M 388.365,85.9601 360.103,74.6553 z" id="boundary" inkscape:connector-curvature="0" />
	<path style="fill:none;stroke:red;stroke-width:1px;stroke-linecap:butt;stroke-linejoin:miter;stroke-opacity:1" d="M 416.627,97.265 439.236,80.3077 z" id="boundary" inkscape:connector-curvature="0" />
	<path style="fill:none;stroke:red;stroke-width:1px;stroke-linecap:butt;stroke-linejoin:miter;stroke-opacity:1" d="M 280.969,97.265 303.578,80.3077 z" id="boundary" inkscape:connector-curvature="0" />
	<path style="fill:none;stroke:red;stroke-width:1px;stroke-linecap:butt;stroke-linejoin:miter;stroke-opacity:1" d="M 461.846,63.3504 439.236,80.3077 z" id="boundary" inkscape:connector-curvature="0" />
	<path style="fill:none;stroke:red;stroke-width:1px;stroke-linecap:butt;stroke-linejoin:miter;stroke-opacity:1" d="M 218.792,159.442 235.749,136.832 z" id="boundary" inkscape:connector-curvature="0" />
	<path style="fill:none;stroke:red;stroke-width:1px;stroke-linecap:butt;stroke-linejoin:miter;stroke-opacity:1" d="M 258.359,114.222 235.749,136.832 z" id="boundary" inkscape:connector-curvature="0" />
	<path style="fill:none;stroke:red;stroke-width:1px;stroke-linecap:butt;stroke-linejoin:miter;stroke-opacity:1" d="M 416.627,97.265 388.365,85.9601 z" id="boundary" inkscape:connector-curvature="0" />
	<path style="fill:none;stroke:red;stroke-width:1px;stroke-linecap:butt;stroke-linejoin:miter;stroke-opacity:1" d="M 258.359,114.222 280.969,97.265 z" id="boundary" inkscape:connector-curvature="0" />
	<path style="fill:none;stroke:red;stroke-width:1px;stroke-linecap:butt;stroke-linejoin:miter;stroke-opacity:1" d="M 470.325,343.145 442.063,343.145 z" id="boundary" inkscape:connector-curvature="0" />
	<path style="fill:none;stroke:red;stroke-width:1px;stroke-linecap:butt;stroke-linejoin:miter;stroke-opacity:1" d="M 20.9573,232.923 15.3048,272.49 z" id="boundary" inkscape:connector-curvature="0" />
	<path style="fill:none;stroke:red;stroke-width:1px;stroke-linecap:butt;stroke-linejoin:miter;stroke-opacity:1" d="M 15.3048,272.49 4,306.405 z" id="boundary" inkscape:connector-curvature="0" />
	<path style="fill:none;stroke:red;stroke-width:1px;stroke-linecap:butt;stroke-linejoin:miter;stroke-opacity:1" d="M 20.9573,232.923 20.9573,204.661 z" id="boundary" inkscape:connector-curvature="0" />
	<path style="fill:none;stroke:red;stroke-width:1px;stroke-linecap:butt;stroke-linejoin:miter;stroke-opacity:1" d="M 131.179,300.752 153.789,283.795 z" id="boundary" inkscape:connector-curvature="0" />
	<path style="fill:none;stroke:red;stroke-width:1px;stroke-linecap:butt;stroke-linejoin:miter;stroke-opacity:1" d="M 179.225,269.664 153.789,283.795 z" id="boundary" inkscape:connector-curvature="0" />
	<path style="fill:none;stroke:red;stroke-width:1px;stroke-linecap:butt;stroke-linejoin:miter;stroke-opacity:1" d="M 46.3932,331.84 18.1311,331.84 z" id="boundary" inkscape:connector-curvature="0" />
	<path style="fill:none;stroke:red;stroke-width:1px;stroke-linecap:butt;stroke-linejoin:miter;stroke-opacity:1" d="M 18.1311,331.84 4,306.405 z" id="boundary" inkscape:connector-curvature="0" />
	<path style="fill:none;stroke:red;stroke-width:1px;stroke-linecap:butt;stroke-linejoin:miter;stroke-opacity:1" d="M 74.6553,326.188 46.3932,331.84 z" id="boundary" inkscape:connector-curvature="0" />
	<path style="fill:none;stroke:red;stroke-width:1px;stroke-linecap:butt;stroke-linejoin:miter;stroke-opacity:1" d="M 102.917,314.883 74.6553,326.188 z" id="boundary" inkscape:connector-curvature="0" />
	<path style="fill:none;stroke:red;stroke-width:1px;stroke-linecap:butt;stroke-linejoin:miter;stroke-opacity:1" d="M 102.917,314.883 131.179,300.752 z" id="boundary" inkscape:connector-curvature="0" />
	<path style="fill:none;stroke:red;stroke-width:1px;stroke-linecap:butt;stroke-linejoin:miter;stroke-opacity:1" d="M 207.487,269.664 218.792,297.926 z" id="boundary" inkscape:connector-curvature="0" />
	<path style="fill:none;stroke:red;stroke-width:1px;stroke-linecap:butt;stroke-linejoin:miter;stroke-opacity:1" d="M 179.225,269.664 207.487,269.664 z" id="boundary" inkscape:connector-curvature="0" />
	<path style="fill:none;stroke:red;stroke-width:1px;stroke-linecap:butt;stroke-linejoin:miter;stroke-opacity:1" d="M 230.097,326.188 218.792,297.926 z" id="boundary" inkscape:connector-curvature="0" />
	<path style="fill:none;stroke:red;stroke-width:1px;stroke-linecap:butt;stroke-linejoin:miter;stroke-opacity:1" d="M 413.801,343.145 385.538,337.493 z" id="boundary" inkscape:connector-curvature="0" />
	<path style="fill:none;stroke:red;stroke-width:1px;stroke-linecap:butt;stroke-linejoin:miter;stroke-opacity:1" d="M 357.276,345.972 385.538,337.493 z" id="boundary" inkscape:connector-curvature="0" />
	<path style="fill:none;stroke:red;stroke-width:1px;stroke-linecap:butt;stroke-linejoin:miter;stroke-opacity:1" d="M 272.49,360.103 244.228,351.624 z" id="boundary" inkscape:connector-curvature="0" />
	<path style="fill:none;stroke:red;stroke-width:1px;stroke-linecap:butt;stroke-linejoin:miter;stroke-opacity:1" d="M 244.228,351.624 230.097,326.188 z" id="boundary" inkscape:connector-curvature="0" />
	<path style="fill:none;stroke:red;stroke-width:1px;stroke-linecap:butt;stroke-linejoin:miter;stroke-opacity:1" d="M 300.752,360.103 272.49,360.103 z" id="boundary" inkscape:connector-curvature="0" />
	<path style="fill:none;stroke:red;stroke-width:1px;stroke-linecap:butt;stroke-linejoin:miter;stroke-opacity:1" d="M 329.014,354.45 357.276,345.972 z" id="boundary" inkscape:connector-curvature="0" />
	<path style="fill:none;stroke:red;stroke-width:1px;stroke-linecap:butt;stroke-linejoin:miter;stroke-opacity:1" d="M 329.014,354.45 300.752,360.103 z" id="boundary" inkscape:connector-curvature="0" />
	<path style="fill:none;stroke:red;stroke-width:1px;stroke-linecap:butt;stroke-linejoin:miter;stroke-opacity:1" d="M 413.801,343.145 442.063,343.145 z" id="boundary" inkscape:connector-curvature="0" />
	<path style="fill:none;stroke:red;stroke-width:1px;stroke-linecap:butt;stroke-linejoin:miter;stroke-opacity:1" d="M 461.846,63.3504 490.108,52.0456 z" id="boundary" inkscape:connector-curvature="0" />
	<path style="fill:none;stroke:red;stroke-width:1px;stroke-linecap:butt;stroke-linejoin:miter;stroke-opacity:1" d="M 518.37,35.0883 546.632,18.1311 z" id="boundary" inkscape:connector-curvature="0" />
	<path style="fill:none;stroke:red;stroke-width:1px;stroke-linecap:butt;stroke-linejoin:miter;stroke-opacity:1" d="M 546.632,18.1311 574.895,12.4786 z" id="boundary" inkscape:connector-curvature="0" />
	<path style="fill:none;stroke:red;stroke-width:1px;stroke-linecap:butt;stroke-linejoin:miter;stroke-opacity:1" d="M 659.681,4 631.419,9.65242 z" id="boundary" inkscape:connector-curvature="0" />
	<path style="fill:none;stroke:red;stroke-width:1px;stroke-linecap:butt;stroke-linejoin:miter;stroke-opacity:1" d="M 631.419,9.65242 603.157,6.82621 z" id="boundary" inkscape:connector-curvature="0" />
	<path style="fill:none;stroke:red;stroke-width:1px;stroke-linecap:butt;stroke-linejoin:miter;stroke-opacity:1" d="M 659.681,4 673.812,29.4359 z" id="boundary" inkscape:connector-curvature="0" />
	<path style="fill:none;stroke:red;stroke-width:1px;stroke-linecap:butt;stroke-linejoin:miter;stroke-opacity:1" d="M 574.895,12.4786 603.157,6.82621 z" id="boundary" inkscape:connector-curvature="0" />
	<path style="fill:none;stroke:red;stroke-width:1px;stroke-linecap:butt;stroke-linejoin:miter;stroke-opacity:1" d="M 490.108,52.0456 518.37,35.0883 z" id="boundary" inkscape:connector-curvature="0" />
	<path style="fill:none;stroke:red;stroke-width:1px;stroke-linecap:butt;stroke-linejoin:miter;stroke-opacity:1" d="M 724.684,91.6125 702.074,71.8291 z" id="boundary" inkscape:connector-curvature="0" />
	<path style="fill:none;stroke:red;stroke-width:1px;stroke-linecap:butt;stroke-linejoin:miter;stroke-opacity:1" d="M 702.074,71.8291 699.248,43.567 z" id="boundary" inkscape:connector-curvature="0" />
	<path style="fill:none;stroke:red;stroke-width:1px;stroke-linecap:butt;stroke-linejoin:miter;stroke-opacity:1" d="M 752.946,97.265 724.684,91.6125 z" id="boundary" inkscape:connector-curvature="0" />
	<path style="fill:none;stroke:red;stroke-width:1px;stroke-linecap:butt;stroke-linejoin:miter;stroke-opacity:1" d="M 673.812,29.4359 699.248,43.567 z" id="boundary" inkscape:connector-curvature="0" />
	<path style="fill:none;stroke:red;stroke-width:1px;stroke-linecap:butt;stroke-linejoin:miter;stroke-opacity:1" d="M 752.946,97.265 781.208,108.57 z" id="boundary" inkscape:connector-curvature="0" />
	<path style="fill:none;stroke:red;stroke-width:1px;stroke-linecap:butt;stroke-linejoin:miter;stroke-opacity:1" d="M 781.208,108.57 809.47,114.222 z" id="boundary" inkscape:connector-curvature="0" />
	<path style="fill:none;stroke:red;stroke-width:1px;stroke-linecap:butt;stroke-linejoin:miter;stroke-opacity:1" d="M 837.732,125.527 809.47,114.222 z" id="boundary" inkscape:connector-curvature="0" />
	<path style="fill:none;stroke:red;stroke-width:1px;stroke-linecap:butt;stroke-linejoin:miter;stroke-opacity:1" d="M 865.994,136.832 837.732,125.527 z" id="boundary" inkscape:connector-curvature="0" />
	<path style="fill:none;stroke:red;stroke-width:1px;stroke-linecap:butt;stroke-linejoin:miter;stroke-opacity:1" d="M 891.43,150.963 919.692,159.442 z" id="boundary" inkscape:connector-curvature="0" />
	<path style="fill:none;stroke:red;stroke-width:1px;stroke-linecap:butt;stroke-linejoin:miter;stroke-opacity:1" d="M 891.43,150.963 865.994,136.832 z" id="boundary" inkscape:connector-curvature="0" />
	<path style="fill:none;stroke:red;stroke-width:1px;stroke-linecap:butt;stroke-linejoin:miter;stroke-opacity:1" d="M 945.128,173.573 919.692,159.442 z" id="boundary" inkscape:connector-curvature="0" />
	<path style="fill:none;stroke:red;stroke-width:1px;stroke-linecap:butt;stroke-linejoin:miter;stroke-opacity:1" d="M 970.564,187.704 996,201.835 z" id="boundary" inkscape:connector-curvature="0" />
	<path style="fill:none;stroke:red;stroke-width:1px;stroke-linecap:butt;stroke-linejoin:miter;stroke-opacity:1" d="M 996,201.835 979.043,232.923 z" id="boundary" inkscape:connector-curvature="0" />
	<path style="fill:none;stroke:red;stroke-width:1px;stroke-linecap:butt;stroke-linejoin:miter;stroke-opacity:1" d="M 945.128,173.573 970.564,187.704 z" id="boundary" inkscape:connector-curvature="0" />
	<path style="fill:none;stroke:red;stroke-width:1px;stroke-linecap:butt;stroke-linejoin:miter;stroke-opacity:1" d="M 979.043,232.923 956.433,255.533 z" id="boundary" inkscape:connector-curvature="0" />
	<path style="fill:none;stroke:red;stroke-width:1px;stroke-linecap:butt;stroke-linejoin:miter;stroke-opacity:1" d="M 470.325,343.145 498.587,348.798 z" id="boundary" inkscape:connector-curvature="0" />
	<path style="fill:none;stroke:red;stroke-width:1px;stroke-linecap:butt;stroke-linejoin:miter;stroke-opacity:1" d="M 526.849,348.798 552.285,374.234 z" id="boundary" inkscape:connector-curvature="0" />
	<path style="fill:none;stroke:red;stroke-width:1px;stroke-linecap:butt;stroke-linejoin:miter;stroke-opacity:1" d="M 552.285,374.234 552.285,402.496 z" id="boundary" inkscape:connector-curvature="0" />
	<path style="fill:none;stroke:red;stroke-width:1px;stroke-linecap:butt;stroke-linejoin:miter;stroke-opacity:1" d="M 696.422,385.538 682.291,410.974 z" id="boundary" inkscape:connector-curvature="0" />
	<path style="fill:none;stroke:red;stroke-width:1px;stroke-linecap:butt;stroke-linejoin:miter;stroke-opacity:1" d="M 498.587,348.798 526.849,348.798 z" id="boundary" inkscape:connector-curvature="0" />
	<path style="fill:none;stroke:red;stroke-width:1px;stroke-linecap:butt;stroke-linejoin:miter;stroke-opacity:1" d="M 552.285,402.496 557.937,430.758 z" id="boundary" inkscape:connector-curvature="0" />
	<path style="fill:none;stroke:red;stroke-width:1px;stroke-linecap:butt;stroke-linejoin:miter;stroke-opacity:1" d="M 608.809,450.541 580.547,450.541 z" id="boundary" inkscape:connector-curvature="0" />
	<path style="fill:none;stroke:red;stroke-width:1px;stroke-linecap:butt;stroke-linejoin:miter;stroke-opacity:1" d="M 580.547,450.541 557.937,430.758 z" id="boundary" inkscape:connector-curvature="0" />
	<path style="fill:none;stroke:red;stroke-width:1px;stroke-linecap:butt;stroke-linejoin:miter;stroke-opacity:1" d="M 659.681,433.584 637.071,450.541 z" id="boundary" inkscape:connector-curvature="0" />
	<path style="fill:none;stroke:red;stroke-width:1px;stroke-linecap:butt;stroke-linejoin:miter;stroke-opacity:1" d="M 637.071,450.541 608.809,450.541 z" id="boundary" inkscape:connector-curvature="0" />
	<path style="fill:none;stroke:red;stroke-width:1px;stroke-linecap:butt;stroke-linejoin:miter;stroke-opacity:1" d="M 659.681,433.584 682.291,410.974 z" id="boundary" inkscape:connector-curvature="0" />
	<path style="fill:none;stroke:red;stroke-width:1px;stroke-linecap:butt;stroke-linejoin:miter;stroke-opacity:1" d="M 854.689,320.536 882.952,309.231 z" id="boundary" inkscape:connector-curvature="0" />
	<path style="fill:none;stroke:red;stroke-width:1px;stroke-linecap:butt;stroke-linejoin:miter;stroke-opacity:1" d="M 911.214,295.1 882.952,309.231 z" id="boundary" inkscape:connector-curvature="0" />
	<path style="fill:none;stroke:red;stroke-width:1px;stroke-linecap:butt;stroke-linejoin:miter;stroke-opacity:1" d="M 933.823,275.316 911.214,295.1 z" id="boundary" inkscape:connector-curvature="0" />
	<path style="fill:none;stroke:red;stroke-width:1px;stroke-linecap:butt;stroke-linejoin:miter;stroke-opacity:1" d="M 854.689,320.536 826.427,329.014 z" id="boundary" inkscape:connector-curvature="0" />
	<path style="fill:none;stroke:red;stroke-width:1px;stroke-linecap:butt;stroke-linejoin:miter;stroke-opacity:1" d="M 696.422,385.538 713.379,357.276 z" id="boundary" inkscape:connector-curvature="0" />
	<path style="fill:none;stroke:red;stroke-width:1px;stroke-linecap:butt;stroke-linejoin:miter;stroke-opacity:1" d="M 713.379,357.276 741.641,354.45 z" id="boundary" inkscape:connector-curvature="0" />
	<path style="fill:none;stroke:red;stroke-width:1px;stroke-linecap:butt;stroke-linejoin:miter;stroke-opacity:1" d="M 741.641,354.45 769.903,348.798 z" id="boundary" inkscape:connector-curvature="0" />
	<path style="fill:none;stroke:red;stroke-width:1px;stroke-linecap:butt;stroke-linejoin:miter;stroke-opacity:1" d="M 798.165,340.319 769.903,348.798 z" id="boundary" inkscape:connector-curvature="0" />
	<path style="fill:none;stroke:red;stroke-width:1px;stroke-linecap:butt;stroke-linejoin:miter;stroke-opacity:1" d="M 798.165,340.319 826.427,329.014 z" id="boundary" inkscape:connector-curvature="0" />
	<path style="fill:none;stroke:red;stroke-width:1px;stroke-linecap:butt;stroke-linejoin:miter;stroke-opacity:1" d="M 956.433,255.533 933.823,275.316 z" id="boundary" inkscape:connector-curvature="0" />
	<circle cx="4" cy="119.875" r="4" fill="#0" id="circle0"/>
	<circle cx="4" cy="306.405" r="4" fill="#0" id="circle1"/>
	<circle cx="9.65242" cy="148.137" r="4" fill="#0" id="circle2"/>
	<circle cx="15.3048" cy="176.399" r="4" fill="#0" id="circle3"/>
	<circle cx="15.3048" cy="272.49" r="4" fill="#0" id="circle4"/>
	<circle cx="18.1311" cy="331.84" r="4" fill="#0" id="circle5"/>
	<circle cx="20.9573" cy="204.661" r="4" fill="#0" id="circle6"/>
	<circle cx="20.9573" cy="232.923" r="4" fill="#0" id="circle7"/>
	<circle cx="32.2621" cy="114.222" r="4" fill="#0" id="circle8"/>
	<circle cx="46.3932" cy="331.84" r="4" fill="#0" id="circle9"/>
	<circle cx="60.5242" cy="119.875" r="4" fill="#0" id="circle10"/>
	<circle cx="74.6553" cy="326.188" r="4" fill="#0" id="circle11"/>
	<circle cx="88.7863" cy="131.179" r="4" fill="#0" id="circle12"/>
	<circle cx="102.917" cy="314.883" r="4" fill="#0" id="circle13"/>
	<circle cx="117.048" cy="142.484" r="4" fill="#0" id="circle14"/>
	<circle cx="131.179" cy="300.752" r="4" fill="#0" id="circle15"/>
	<circle cx="142.484" cy="156.615" r="4" fill="#0" id="circle16"/>
	<circle cx="153.789" cy="283.795" r="4" fill="#0" id="circle17"/>
	<circle cx="167.92" cy="170.746" r="4" fill="#0" id="circle18"/>
	<circle cx="179.225" cy="269.664" r="4" fill="#0" id="circle19"/>
	<circle cx="196.182" cy="176.399" r="4" fill="#0" id="circle20"/>
	<circle cx="207.487" cy="269.664" r="4" fill="#0" id="circle21"/>
	<circle cx="218.792" cy="159.442" r="4" fill="#0" id="circle22"/>
	<circle cx="218.792" cy="297.926" r="4" fill="#0" id="circle23"/>
	<circle cx="230.097" cy="326.188" r="4" fill="#0" id="circle24"/>
	<circle cx="235.749" cy="136.832" r="4" fill="#0" id="circle25"/>
	<circle cx="244.228" cy="351.624" r="4" fill="#0" id="circle26"/>
	<circle cx="258.359" cy="114.222" r="4" fill="#0" id="circle27"/>
	<circle cx="272.49" cy="360.103" r="4" fill="#0" id="circle28"/>
	<circle cx="280.969" cy="97.265" r="4" fill="#0" id="circle29"/>
	<circle cx="300.752" cy="360.103" r="4" fill="#0" id="circle30"/>
	<circle cx="303.578" cy="80.3077" r="4" fill="#0" id="circle31"/>
	<circle cx="329.014" cy="354.45" r="4" fill="#0" id="circle32"/>
	<circle cx="331.84" cy="69.0028" r="4" fill="#0" id="circle33"/>
	<circle cx="357.276" cy="345.972" r="4" fill="#0" id="circle34"/>
	<circle cx="360.103" cy="74.6553" r="4" fill="#0" id="circle35"/>
	<circle cx="385.538" cy="337.493" r="4" fill="#0" id="circle36"/>
	<circle cx="388.365" cy="85.9601" r="4" fill="#0" id="circle37"/>
	<circle cx="413.801" cy="343.145" r="4" fill="#0" id="circle38"/>
	<circle cx="416.627" cy="97.265" r="4" fill="#0" id="circle39"/>
	<circle cx="439.236" cy="80.3077" r="4" fill="#0" id="circle40"/>
	<circle cx="442.063" cy="343.145" r="4" fill="#0" id="circle41"/>
	<circle cx="461.846" cy="63.3504" r="4" fill="#0" id="circle42"/>
	<circle cx="470.325" cy="343.145" r="4" fill="#0" id="circle43"/>
	<circle cx="490.108" cy="52.0456" r="4" fill="#0" id="circle44"/>
	<circle cx="498.587" cy="348.798" r="4" fill="#0" id="circle45"/>
	<circle cx="518.37" cy="35.0883" r="4" fill="#0" id="circle46"/>
	<circle cx="526.849" cy="348.798" r="4" fill="#0" id="circle47"/>
	<circle cx="546.632" cy="18.1311" r="4" fill="#0" id="circle48"/>
	<circle cx="552.285" cy="374.234" r="4" fill="#0" id="circle49"/>
	<circle cx="552.285" cy="402.496" r="4" fill="#0" id="circle50"/>
	<circle cx="557.937" cy="430.758" r="4" fill="#0" id="circle51"/>
	<circle cx="574.895" cy="12.4786" r="4" fill="#0" id="circle52"/>
	<circle cx="580.547" cy="450.541" r="4" fill="#0" id="circle53"/>
	<circle cx="603.157" cy="6.82621" r="4" fill="#0" id="circle54"/>
	<circle cx="608.809" cy="450.541" r="4" fill="#0" id="circle55"/>
	<circle cx="631.419" cy="9.65242" r="4" fill="#0" id="circle56"/>
	<circle cx="637.071" cy="450.541" r="4" fill="#0" id="circle57"/>
	<circle cx="659.681" cy="4" r="4" fill="#0" id="circle58"/>
	<circle cx="659.681" cy="433.584" r="4" fill="#0" id="circle59"/>
	<circle cx="673.812" cy="29.4359" r="4" fill="#0" id="circle60"/>
	<circle cx="682.291" cy="410.974" r="4" fill="#0" id="circle61"/>
	<circle cx="696.422" cy="385.538" r="4" fill="#0" id="circle62"/>
	<circle cx="699.248" cy="43.567" r="4" fill="#0" id="circle63"/>
	<circle cx="702.074" cy="71.8291" r="4" fill="#0" id="circle64"/>
	<circle cx="713.379" cy="357.276" r="4" fill="#0" id="circle65"/>
	<circle cx="724.684" cy="91.6125" r="4" fill="#0" id="circle66"/>
	<circle cx="741.641" cy="354.45" r="4" fill="#0" id="circle67"/>
	<circle cx="752.946" cy="97.265" r="4" fill="#0" id="circle68"/>
	<circle cx="769.903" cy="348.798" r="4" fill="#0" id="circle69"/>
	<circle cx="781.208" cy="108.57" r="4" fill="#0" id="circle70"/>
	<circle cx="798.165" cy="340.319" r="4" fill="#0" id="circle71"/>
	<circle cx="809.47" cy="114.222" r="4" fill="#0" id="circle72"/>
	<circle cx="826.427" cy="329.014" r="4" fill="#0" id="circle73"/>
	<circle cx="837.732" cy="125.527" r="4" fill="#0" id="circle74"/>
	<circle cx="854.689" cy="320.536" r="4" fill="#0" id="circle75"/>
	<circle cx="865.994" cy="136.832" r="4" fill="#0" id="circle76"/>
	<circle cx="882.952" cy="309.231" r="4" fill="#0" id="circle77"/>
	<circle cx="891.43" cy="150.963" r="4" fill="#0" id="circle78"/>
	<circle cx="911.214" cy="295.1" r="4" fill="#0" id="circle79"/>
	<circle cx="919.692" cy="159.442" r="4" fill="#0" id="circle80"/>
	<circle cx="933.823" cy="275.316" r="4" fill="#0" id="circle81"/>
	<circle cx="945.128" cy="173.573" r="4" fill="#0" id="circle82"/>
	<circle cx="956.433" cy="255.533" r="4" fill="#0" id="circle83"/>
	<circle cx="970.564" cy="187.704" r="4" fill="#0" id="circle84"/>
	<circle cx="979.043" cy="232.923" r="4" fill="#0" id="circle85"/>
	<circle cx="996" cy="201.835" r="4" fill="#0" id="circle86"/>
	</g>
</svg>