<?xml version="1.0" encoding="UTF-8" standalone="no"?>
<!-- Created with CurveBenchmark -->
<svg
	xmlns:dc="http://purl.org/dc/elements/1.1/"
	xmlns:cc="http://creativecommons.org/ns#"
	xmlns:rdf="http://www.w3.org/1999/02/22-rdf-syntax-ns#"
	xmlns:svg="http://www.w3.org/2000/svg"
	xmlns="http://www.w3.org/2000/svg"
	xmlns:sodipodi="http://sodipodi.sourceforge.net/DTD/sodipodi-0.dtd"
	xmlns:inkscape="http://www.inkscape.org/namespaces/inkscape"
	width="1000"
	height="1000"
	id="svg2"
	version="1.1"
	sodipodi:docname="manifold/nncrust-bird195.png.txt">
<defs
	id="defs4" />
<metadata
	id="metadata7">
	<rdf:RDF>
		<cc:Work
			rdf:about="">
			<dc:format>image/svg+xml</dc:format>
			<dc:type
				rdf:resource="http://purl.org/dc/dcmitype/StillImage" />
			<dc:title></dc:title>
		</cc:Work>
	</rdf:RDF>
</metadata>
<g
	inkscape:label="Layer 1"
	inkscape:groupmode="layer"
	id="layer1">
	<path style="fill:none;stroke:red;stroke-width:1px;stroke-linecap:butt;stroke-linejoin:miter;stroke-opacity:1" d="M 79.4373,139.787 98.2966,105.84 z" id="boundary" inkscape:connector-curvature="0" />
	<path style="fill:none;stroke:red;stroke-width:1px;stroke-linecap:butt;stroke-linejoin:miter;stroke-opacity:1" d="M 98.2966,105.84 128.471,83.2091 z" id="boundary" inkscape:connector-curvature="0" />
	<path style="fill:none;stroke:red;stroke-width:1px;stroke-linecap:butt;stroke-linejoin:miter;stroke-opacity:1" d="M 166.19,71.8935 203.909,71.8935 z" id="boundary" inkscape:connector-curvature="0" />
	<path style="fill:none;stroke:red;stroke-width:1px;stroke-linecap:butt;stroke-linejoin:miter;stroke-opacity:1" d="M 230.312,230.312 207.681,173.734 z" id="boundary" inkscape:connector-curvature="0" />
	<path style="fill:none;stroke:red;stroke-width:1px;stroke-linecap:butt;stroke-linejoin:miter;stroke-opacity:1" d="M 317.065,166.19 230.312,230.312 z" id="boundary" inkscape:connector-curvature="0" />
	<path style="fill:none;stroke:red;stroke-width:1px;stroke-linecap:butt;stroke-linejoin:miter;stroke-opacity:1" d="M 128.471,83.2091 166.19,71.8935 z" id="boundary" inkscape:connector-curvature="0" />
	<path style="fill:none;stroke:red;stroke-width:1px;stroke-linecap:butt;stroke-linejoin:miter;stroke-opacity:1" d="M 207.681,173.734 177.506,196.365 z" id="boundary" inkscape:connector-curvature="0" />
	<path style="fill:none;stroke:red;stroke-width:1px;stroke-linecap:butt;stroke-linejoin:miter;stroke-opacity:1" d="M 34.1749,215.224 56.8061,185.049 z" id="boundary" inkscape:connector-curvature="0" />
	<path style="fill:none;stroke:red;stroke-width:1px;stroke-linecap:butt;stroke-linejoin:miter;stroke-opacity:1" d="M 79.4373,139.787 56.8061,185.049 z" id="boundary" inkscape:connector-curvature="0" />
	<path style="fill:none;stroke:red;stroke-width:1px;stroke-linecap:butt;stroke-linejoin:miter;stroke-opacity:1" d="M 102.068,226.54 71.8935,256.715 z" id="boundary" inkscape:connector-curvature="0" />
	<path style="fill:none;stroke:red;stroke-width:1px;stroke-linecap:butt;stroke-linejoin:miter;stroke-opacity:1" d="M 139.787,211.452 177.506,196.365 z" id="boundary" inkscape:connector-curvature="0" />
	<path style="fill:none;stroke:red;stroke-width:1px;stroke-linecap:butt;stroke-linejoin:miter;stroke-opacity:1" d="M 139.787,211.452 102.068,226.54 z" id="boundary" inkscape:connector-curvature="0" />
	<path style="fill:none;stroke:red;stroke-width:1px;stroke-linecap:butt;stroke-linejoin:miter;stroke-opacity:1" d="M 230.312,230.312 230.312,268.03 z" id="boundary" inkscape:connector-curvature="0" />
	<path style="fill:none;stroke:red;stroke-width:1px;stroke-linecap:butt;stroke-linejoin:miter;stroke-opacity:1" d="M 203.909,71.8935 241.627,79.4373 z" id="boundary" inkscape:connector-curvature="0" />
	<path style="fill:none;stroke:red;stroke-width:1px;stroke-linecap:butt;stroke-linejoin:miter;stroke-opacity:1" d="M 241.627,79.4373 207.681,173.734 z" id="boundary" inkscape:connector-curvature="0" />
	<path style="fill:none;stroke:red;stroke-width:1px;stroke-linecap:butt;stroke-linejoin:miter;stroke-opacity:1" d="M 34.1749,215.224 4,245.399 z" id="boundary" inkscape:connector-curvature="0" />
	<path style="fill:none;stroke:red;stroke-width:1px;stroke-linecap:butt;stroke-linejoin:miter;stroke-opacity:1" d="M 407.589,37.9468 377.414,60.5779 z" id="boundary" inkscape:connector-curvature="0" />
	<path style="fill:none;stroke:red;stroke-width:1px;stroke-linecap:butt;stroke-linejoin:miter;stroke-opacity:1" d="M 275.574,98.2966 241.627,79.4373 z" id="boundary" inkscape:connector-curvature="0" />
	<path style="fill:none;stroke:red;stroke-width:1px;stroke-linecap:butt;stroke-linejoin:miter;stroke-opacity:1" d="M 445.308,22.8593 483.027,11.5437 z" id="boundary" inkscape:connector-curvature="0" />
	<path style="fill:none;stroke:red;stroke-width:1px;stroke-linecap:butt;stroke-linejoin:miter;stroke-opacity:1" d="M 445.308,22.8593 407.589,37.9468 z" id="boundary" inkscape:connector-curvature="0" />
	<path style="fill:none;stroke:red;stroke-width:1px;stroke-linecap:butt;stroke-linejoin:miter;stroke-opacity:1" d="M 520.745,4 483.027,11.5437 z" id="boundary" inkscape:connector-curvature="0" />
	<path style="fill:none;stroke:red;stroke-width:1px;stroke-linecap:butt;stroke-linejoin:miter;stroke-opacity:1" d="M 301.977,128.471 317.065,166.19 z" id="boundary" inkscape:connector-curvature="0" />
	<path style="fill:none;stroke:red;stroke-width:1px;stroke-linecap:butt;stroke-linejoin:miter;stroke-opacity:1" d="M 301.977,128.471 275.574,98.2966 z" id="boundary" inkscape:connector-curvature="0" />
	<path style="fill:none;stroke:red;stroke-width:1px;stroke-linecap:butt;stroke-linejoin:miter;stroke-opacity:1" d="M 301.977,128.471 339.696,128.471 z" id="boundary" inkscape:connector-curvature="0" />
	<path style="fill:none;stroke:red;stroke-width:1px;stroke-linecap:butt;stroke-linejoin:miter;stroke-opacity:1" d="M 339.696,128.471 354.783,90.7529 z" id="boundary" inkscape:connector-curvature="0" />
	<path style="fill:none;stroke:red;stroke-width:1px;stroke-linecap:butt;stroke-linejoin:miter;stroke-opacity:1" d="M 430.221,215.224 400.046,237.856 z" id="boundary" inkscape:connector-curvature="0" />
	<path style="fill:none;stroke:red;stroke-width:1px;stroke-linecap:butt;stroke-linejoin:miter;stroke-opacity:1" d="M 354.783,90.7529 377.414,60.5779 z" id="boundary" inkscape:connector-curvature="0" />
	<path style="fill:none;stroke:red;stroke-width:1px;stroke-linecap:butt;stroke-linejoin:miter;stroke-opacity:1" d="M 464.167,234.084 430.221,215.224 z" id="boundary" inkscape:connector-curvature="0" />
	<path style="fill:none;stroke:red;stroke-width:1px;stroke-linecap:butt;stroke-linejoin:miter;stroke-opacity:1" d="M 486.798,264.259 464.167,234.084 z" id="boundary" inkscape:connector-curvature="0" />
	<path style="fill:none;stroke:red;stroke-width:1px;stroke-linecap:butt;stroke-linejoin:miter;stroke-opacity:1" d="M 71.8935,256.715 41.7186,279.346 z" id="boundary" inkscape:connector-curvature="0" />
	<path style="fill:none;stroke:red;stroke-width:1px;stroke-linecap:butt;stroke-linejoin:miter;stroke-opacity:1" d="M 41.7186,279.346 4,283.118 z" id="boundary" inkscape:connector-curvature="0" />
	<path style="fill:none;stroke:red;stroke-width:1px;stroke-linecap:butt;stroke-linejoin:miter;stroke-opacity:1" d="M 4,283.118 4,245.399 z" id="boundary" inkscape:connector-curvature="0" />
	<path style="fill:none;stroke:red;stroke-width:1px;stroke-linecap:butt;stroke-linejoin:miter;stroke-opacity:1" d="M 400.046,237.856 400.046,275.574 z" id="boundary" inkscape:connector-curvature="0" />
	<path style="fill:none;stroke:red;stroke-width:1px;stroke-linecap:butt;stroke-linejoin:miter;stroke-opacity:1" d="M 230.312,268.03 234.084,305.749 z" id="boundary" inkscape:connector-curvature="0" />
	<path style="fill:none;stroke:red;stroke-width:1px;stroke-linecap:butt;stroke-linejoin:miter;stroke-opacity:1" d="M 400.046,275.574 384.958,313.293 z" id="boundary" inkscape:connector-curvature="0" />
	<path style="fill:none;stroke:red;stroke-width:1px;stroke-linecap:butt;stroke-linejoin:miter;stroke-opacity:1" d="M 252.943,339.696 4,283.118 z" id="boundary" inkscape:connector-curvature="0" />
	<path style="fill:none;stroke:red;stroke-width:1px;stroke-linecap:butt;stroke-linejoin:miter;stroke-opacity:1" d="M 234.084,305.749 252.943,339.696 z" id="boundary" inkscape:connector-curvature="0" />
	<path style="fill:none;stroke:red;stroke-width:1px;stroke-linecap:butt;stroke-linejoin:miter;stroke-opacity:1" d="M 290.662,354.783 252.943,339.696 z" id="boundary" inkscape:connector-curvature="0" />
	<path style="fill:none;stroke:red;stroke-width:1px;stroke-linecap:butt;stroke-linejoin:miter;stroke-opacity:1" d="M 366.099,347.24 384.958,313.293 z" id="boundary" inkscape:connector-curvature="0" />
	<path style="fill:none;stroke:red;stroke-width:1px;stroke-linecap:butt;stroke-linejoin:miter;stroke-opacity:1" d="M 366.099,347.24 328.38,362.327 z" id="boundary" inkscape:connector-curvature="0" />
	<path style="fill:none;stroke:red;stroke-width:1px;stroke-linecap:butt;stroke-linejoin:miter;stroke-opacity:1" d="M 290.662,354.783 328.38,362.327 z" id="boundary" inkscape:connector-curvature="0" />
	<path style="fill:none;stroke:red;stroke-width:1px;stroke-linecap:butt;stroke-linejoin:miter;stroke-opacity:1" d="M 328.38,362.327 411.361,939.422 z" id="boundary" inkscape:connector-curvature="0" />
	<path style="fill:none;stroke:red;stroke-width:1px;stroke-linecap:butt;stroke-linejoin:miter;stroke-opacity:1" d="M 486.798,264.259 509.43,294.433 z" id="boundary" inkscape:connector-curvature="0" />
	<path style="fill:none;stroke:red;stroke-width:1px;stroke-linecap:butt;stroke-linejoin:miter;stroke-opacity:1" d="M 509.43,294.433 509.43,332.152 z" id="boundary" inkscape:connector-curvature="0" />
	<path style="fill:none;stroke:red;stroke-width:1px;stroke-linecap:butt;stroke-linejoin:miter;stroke-opacity:1" d="M 516.973,369.871 509.43,332.152 z" id="boundary" inkscape:connector-curvature="0" />
	<path style="fill:none;stroke:red;stroke-width:1px;stroke-linecap:butt;stroke-linejoin:miter;stroke-opacity:1" d="M 509.43,332.152 648.989,351.011 z" id="boundary" inkscape:connector-curvature="0" />
	<path style="fill:none;stroke:red;stroke-width:1px;stroke-linecap:butt;stroke-linejoin:miter;stroke-opacity:1" d="M 516.973,369.871 524.517,407.589 z" id="boundary" inkscape:connector-curvature="0" />
	<path style="fill:none;stroke:red;stroke-width:1px;stroke-linecap:butt;stroke-linejoin:miter;stroke-opacity:1" d="M 532.061,445.308 524.517,407.589 z" id="boundary" inkscape:connector-curvature="0" />
	<path style="fill:none;stroke:red;stroke-width:1px;stroke-linecap:butt;stroke-linejoin:miter;stroke-opacity:1" d="M 532.061,445.308 539.605,483.027 z" id="boundary" inkscape:connector-curvature="0" />
	<path style="fill:none;stroke:red;stroke-width:1px;stroke-linecap:butt;stroke-linejoin:miter;stroke-opacity:1" d="M 464.167,924.335 445.308,958.281 z" id="boundary" inkscape:connector-curvature="0" />
	<path style="fill:none;stroke:red;stroke-width:1px;stroke-linecap:butt;stroke-linejoin:miter;stroke-opacity:1" d="M 445.308,958.281 411.361,939.422 z" id="boundary" inkscape:connector-curvature="0" />
	<path style="fill:none;stroke:red;stroke-width:1px;stroke-linecap:butt;stroke-linejoin:miter;stroke-opacity:1" d="M 483.027,965.825 445.308,958.281 z" id="boundary" inkscape:connector-curvature="0" />
	<path style="fill:none;stroke:red;stroke-width:1px;stroke-linecap:butt;stroke-linejoin:miter;stroke-opacity:1" d="M 558.464,965.825 520.745,965.825 z" id="boundary" inkscape:connector-curvature="0" />
	<path style="fill:none;stroke:red;stroke-width:1px;stroke-linecap:butt;stroke-linejoin:miter;stroke-opacity:1" d="M 464.167,924.335 501.886,916.791 z" id="boundary" inkscape:connector-curvature="0" />
	<path style="fill:none;stroke:red;stroke-width:1px;stroke-linecap:butt;stroke-linejoin:miter;stroke-opacity:1" d="M 520.745,965.825 483.027,965.825 z" id="boundary" inkscape:connector-curvature="0" />
	<path style="fill:none;stroke:red;stroke-width:1px;stroke-linecap:butt;stroke-linejoin:miter;stroke-opacity:1" d="M 520.745,4 558.464,4 z" id="boundary" inkscape:connector-curvature="0" />
	<path style="fill:none;stroke:red;stroke-width:1px;stroke-linecap:butt;stroke-linejoin:miter;stroke-opacity:1" d="M 596.183,4 633.901,11.5437 z" id="boundary" inkscape:connector-curvature="0" />
	<path style="fill:none;stroke:red;stroke-width:1px;stroke-linecap:butt;stroke-linejoin:miter;stroke-opacity:1" d="M 633.901,11.5437 671.62,26.6312 z" id="boundary" inkscape:connector-curvature="0" />
	<path style="fill:none;stroke:red;stroke-width:1px;stroke-linecap:butt;stroke-linejoin:miter;stroke-opacity:1" d="M 671.62,26.6312 709.338,41.7186 z" id="boundary" inkscape:connector-curvature="0" />
	<path style="fill:none;stroke:red;stroke-width:1px;stroke-linecap:butt;stroke-linejoin:miter;stroke-opacity:1" d="M 709.338,41.7186 743.285,60.5779 z" id="boundary" inkscape:connector-curvature="0" />
	<path style="fill:none;stroke:red;stroke-width:1px;stroke-linecap:butt;stroke-linejoin:miter;stroke-opacity:1" d="M 648.989,351.011 686.707,354.783 z" id="boundary" inkscape:connector-curvature="0" />
	<path style="fill:none;stroke:red;stroke-width:1px;stroke-linecap:butt;stroke-linejoin:miter;stroke-opacity:1" d="M 648.989,388.73 648.989,351.011 z" id="boundary" inkscape:connector-curvature="0" />
	<path style="fill:none;stroke:red;stroke-width:1px;stroke-linecap:butt;stroke-linejoin:miter;stroke-opacity:1" d="M 686.707,354.783 720.654,373.643 z" id="boundary" inkscape:connector-curvature="0" />
	<path style="fill:none;stroke:red;stroke-width:1px;stroke-linecap:butt;stroke-linejoin:miter;stroke-opacity:1" d="M 754.601,392.502 720.654,373.643 z" id="boundary" inkscape:connector-curvature="0" />
	<path style="fill:none;stroke:red;stroke-width:1px;stroke-linecap:butt;stroke-linejoin:miter;stroke-opacity:1" d="M 773.46,83.2091 799.863,113.384 z" id="boundary" inkscape:connector-curvature="0" />
	<path style="fill:none;stroke:red;stroke-width:1px;stroke-linecap:butt;stroke-linejoin:miter;stroke-opacity:1" d="M 648.989,426.449 648.989,388.73 z" id="boundary" inkscape:connector-curvature="0" />
	<path style="fill:none;stroke:red;stroke-width:1px;stroke-linecap:butt;stroke-linejoin:miter;stroke-opacity:1" d="M 743.285,60.5779 773.46,83.2091 z" id="boundary" inkscape:connector-curvature="0" />
	<path style="fill:none;stroke:red;stroke-width:1px;stroke-linecap:butt;stroke-linejoin:miter;stroke-opacity:1" d="M 830.038,139.787 856.441,169.962 z" id="boundary" inkscape:connector-curvature="0" />
	<path style="fill:none;stroke:red;stroke-width:1px;stroke-linecap:butt;stroke-linejoin:miter;stroke-opacity:1" d="M 830.038,139.787 799.863,113.384 z" id="boundary" inkscape:connector-curvature="0" />
	<path style="fill:none;stroke:red;stroke-width:1px;stroke-linecap:butt;stroke-linejoin:miter;stroke-opacity:1" d="M 886.616,196.365 856.441,169.962 z" id="boundary" inkscape:connector-curvature="0" />
	<path style="fill:none;stroke:red;stroke-width:1px;stroke-linecap:butt;stroke-linejoin:miter;stroke-opacity:1" d="M 886.616,196.365 913.019,226.54 z" id="boundary" inkscape:connector-curvature="0" />
	<path style="fill:none;stroke:red;stroke-width:1px;stroke-linecap:butt;stroke-linejoin:miter;stroke-opacity:1" d="M 792.319,400.046 754.601,392.502 z" id="boundary" inkscape:connector-curvature="0" />
	<path style="fill:none;stroke:red;stroke-width:1px;stroke-linecap:butt;stroke-linejoin:miter;stroke-opacity:1" d="M 913.019,226.54 935.65,256.715 z" id="boundary" inkscape:connector-curvature="0" />
	<path style="fill:none;stroke:red;stroke-width:1px;stroke-linecap:butt;stroke-linejoin:miter;stroke-opacity:1" d="M 830.038,415.133 792.319,400.046 z" id="boundary" inkscape:connector-curvature="0" />
	<path style="fill:none;stroke:red;stroke-width:1px;stroke-linecap:butt;stroke-linejoin:miter;stroke-opacity:1" d="M 867.757,422.677 830.038,415.133 z" id="boundary" inkscape:connector-curvature="0" />
	<path style="fill:none;stroke:red;stroke-width:1px;stroke-linecap:butt;stroke-linejoin:miter;stroke-opacity:1" d="M 905.475,403.817 867.757,422.677 z" id="boundary" inkscape:connector-curvature="0" />
	<path style="fill:none;stroke:red;stroke-width:1px;stroke-linecap:butt;stroke-linejoin:miter;stroke-opacity:1" d="M 980.913,317.065 996,354.783 z" id="boundary" inkscape:connector-curvature="0" />
	<path style="fill:none;stroke:red;stroke-width:1px;stroke-linecap:butt;stroke-linejoin:miter;stroke-opacity:1" d="M 996,354.783 980.913,415.133 z" id="boundary" inkscape:connector-curvature="0" />
	<path style="fill:none;stroke:red;stroke-width:1px;stroke-linecap:butt;stroke-linejoin:miter;stroke-opacity:1" d="M 980.913,415.133 943.194,415.133 z" id="boundary" inkscape:connector-curvature="0" />
	<path style="fill:none;stroke:red;stroke-width:1px;stroke-linecap:butt;stroke-linejoin:miter;stroke-opacity:1" d="M 943.194,415.133 905.475,403.817 z" id="boundary" inkscape:connector-curvature="0" />
	<path style="fill:none;stroke:red;stroke-width:1px;stroke-linecap:butt;stroke-linejoin:miter;stroke-opacity:1" d="M 958.281,286.89 980.913,317.065 z" id="boundary" inkscape:connector-curvature="0" />
	<path style="fill:none;stroke:red;stroke-width:1px;stroke-linecap:butt;stroke-linejoin:miter;stroke-opacity:1" d="M 935.65,256.715 958.281,286.89 z" id="boundary" inkscape:connector-curvature="0" />
	<path style="fill:none;stroke:red;stroke-width:1px;stroke-linecap:butt;stroke-linejoin:miter;stroke-opacity:1" d="M 562.236,558.464 554.692,520.745 z" id="boundary" inkscape:connector-curvature="0" />
	<path style="fill:none;stroke:red;stroke-width:1px;stroke-linecap:butt;stroke-linejoin:miter;stroke-opacity:1" d="M 569.779,633.901 569.779,698.023 z" id="boundary" inkscape:connector-curvature="0" />
	<path style="fill:none;stroke:red;stroke-width:1px;stroke-linecap:butt;stroke-linejoin:miter;stroke-opacity:1" d="M 562.236,743.285 554.692,796.091 z" id="boundary" inkscape:connector-curvature="0" />
	<path style="fill:none;stroke:red;stroke-width:1px;stroke-linecap:butt;stroke-linejoin:miter;stroke-opacity:1" d="M 569.779,596.183 569.779,633.901 z" id="boundary" inkscape:connector-curvature="0" />
	<path style="fill:none;stroke:red;stroke-width:1px;stroke-linecap:butt;stroke-linejoin:miter;stroke-opacity:1" d="M 562.236,558.464 569.779,596.183 z" id="boundary" inkscape:connector-curvature="0" />
	<path style="fill:none;stroke:red;stroke-width:1px;stroke-linecap:butt;stroke-linejoin:miter;stroke-opacity:1" d="M 562.236,743.285 569.779,698.023 z" id="boundary" inkscape:connector-curvature="0" />
	<path style="fill:none;stroke:red;stroke-width:1px;stroke-linecap:butt;stroke-linejoin:miter;stroke-opacity:1" d="M 539.605,886.616 547.148,833.81 z" id="boundary" inkscape:connector-curvature="0" />
	<path style="fill:none;stroke:red;stroke-width:1px;stroke-linecap:butt;stroke-linejoin:miter;stroke-opacity:1" d="M 539.605,886.616 501.886,916.791 z" id="boundary" inkscape:connector-curvature="0" />
	<path style="fill:none;stroke:red;stroke-width:1px;stroke-linecap:butt;stroke-linejoin:miter;stroke-opacity:1" d="M 554.692,796.091 547.148,833.81 z" id="boundary" inkscape:connector-curvature="0" />
	<path style="fill:none;stroke:red;stroke-width:1px;stroke-linecap:butt;stroke-linejoin:miter;stroke-opacity:1" d="M 618.814,841.354 611.27,886.616 z" id="boundary" inkscape:connector-curvature="0" />
	<path style="fill:none;stroke:red;stroke-width:1px;stroke-linecap:butt;stroke-linejoin:miter;stroke-opacity:1" d="M 611.27,924.335 611.27,886.616 z" id="boundary" inkscape:connector-curvature="0" />
	<path style="fill:none;stroke:red;stroke-width:1px;stroke-linecap:butt;stroke-linejoin:miter;stroke-opacity:1" d="M 596.183,962.053 558.464,965.825 z" id="boundary" inkscape:connector-curvature="0" />
	<path style="fill:none;stroke:red;stroke-width:1px;stroke-linecap:butt;stroke-linejoin:miter;stroke-opacity:1" d="M 611.27,924.335 596.183,962.053 z" id="boundary" inkscape:connector-curvature="0" />
	<path style="fill:none;stroke:red;stroke-width:1px;stroke-linecap:butt;stroke-linejoin:miter;stroke-opacity:1" d="M 539.605,483.027 554.692,520.745 z" id="boundary" inkscape:connector-curvature="0" />
	<path style="fill:none;stroke:red;stroke-width:1px;stroke-linecap:butt;stroke-linejoin:miter;stroke-opacity:1" d="M 648.989,464.167 648.989,501.886 z" id="boundary" inkscape:connector-curvature="0" />
	<path style="fill:none;stroke:red;stroke-width:1px;stroke-linecap:butt;stroke-linejoin:miter;stroke-opacity:1" d="M 648.989,464.167 648.989,426.449 z" id="boundary" inkscape:connector-curvature="0" />
	<path style="fill:none;stroke:red;stroke-width:1px;stroke-linecap:butt;stroke-linejoin:miter;stroke-opacity:1" d="M 648.989,501.886 648.989,539.605 z" id="boundary" inkscape:connector-curvature="0" />
	<path style="fill:none;stroke:red;stroke-width:1px;stroke-linecap:butt;stroke-linejoin:miter;stroke-opacity:1" d="M 648.989,577.323 648.989,539.605 z" id="boundary" inkscape:connector-curvature="0" />
	<path style="fill:none;stroke:red;stroke-width:1px;stroke-linecap:butt;stroke-linejoin:miter;stroke-opacity:1" d="M 626.357,788.548 633.901,743.285 z" id="boundary" inkscape:connector-curvature="0" />
	<path style="fill:none;stroke:red;stroke-width:1px;stroke-linecap:butt;stroke-linejoin:miter;stroke-opacity:1" d="M 626.357,788.548 618.814,841.354 z" id="boundary" inkscape:connector-curvature="0" />
	<path style="fill:none;stroke:red;stroke-width:1px;stroke-linecap:butt;stroke-linejoin:miter;stroke-opacity:1" d="M 633.901,743.285 641.445,690.479 z" id="boundary" inkscape:connector-curvature="0" />
	<path style="fill:none;stroke:red;stroke-width:1px;stroke-linecap:butt;stroke-linejoin:miter;stroke-opacity:1" d="M 648.989,615.042 648.989,652.76 z" id="boundary" inkscape:connector-curvature="0" />
	<path style="fill:none;stroke:red;stroke-width:1px;stroke-linecap:butt;stroke-linejoin:miter;stroke-opacity:1" d="M 648.989,615.042 648.989,577.323 z" id="boundary" inkscape:connector-curvature="0" />
	<path style="fill:none;stroke:red;stroke-width:1px;stroke-linecap:butt;stroke-linejoin:miter;stroke-opacity:1" d="M 641.445,690.479 648.989,652.76 z" id="boundary" inkscape:connector-curvature="0" />
	<path style="fill:none;stroke:red;stroke-width:1px;stroke-linecap:butt;stroke-linejoin:miter;stroke-opacity:1" d="M 558.464,4 596.183,4 z" id="boundary" inkscape:connector-curvature="0" />
	<circle cx="4" cy="245.399" r="4" fill="#0" id="circle0"/>
	<circle cx="4" cy="283.118" r="4" fill="#0" id="circle1"/>
	<circle cx="34.1749" cy="215.224" r="4" fill="#0" id="circle2"/>
	<circle cx="41.7186" cy="279.346" r="4" fill="#0" id="circle3"/>
	<circle cx="56.8061" cy="185.049" r="4" fill="#0" id="circle4"/>
	<circle cx="71.8935" cy="256.715" r="4" fill="#0" id="circle5"/>
	<circle cx="79.4373" cy="139.787" r="4" fill="#0" id="circle6"/>
	<circle cx="98.2966" cy="105.84" r="4" fill="#0" id="circle7"/>
	<circle cx="102.068" cy="226.54" r="4" fill="#0" id="circle8"/>
	<circle cx="128.471" cy="83.2091" r="4" fill="#0" id="circle9"/>
	<circle cx="139.787" cy="211.452" r="4" fill="#0" id="circle10"/>
	<circle cx="166.19" cy="71.8935" r="4" fill="#0" id="circle11"/>
	<circle cx="177.506" cy="196.365" r="4" fill="#0" id="circle12"/>
	<circle cx="203.909" cy="71.8935" r="4" fill="#0" id="circle13"/>
	<circle cx="207.681" cy="173.734" r="4" fill="#0" id="circle14"/>
	<circle cx="230.312" cy="230.312" r="4" fill="#0" id="circle15"/>
	<circle cx="230.312" cy="268.03" r="4" fill="#0" id="circle16"/>
	<circle cx="234.084" cy="305.749" r="4" fill="#0" id="circle17"/>
	<circle cx="241.627" cy="79.4373" r="4" fill="#0" id="circle18"/>
	<circle cx="252.943" cy="339.696" r="4" fill="#0" id="circle19"/>
	<circle cx="275.574" cy="98.2966" r="4" fill="#0" id="circle20"/>
	<circle cx="290.662" cy="354.783" r="4" fill="#0" id="circle21"/>
	<circle cx="301.977" cy="128.471" r="4" fill="#0" id="circle22"/>
	<circle cx="317.065" cy="166.19" r="4" fill="#0" id="circle23"/>
	<circle cx="328.38" cy="362.327" r="4" fill="#0" id="circle24"/>
	<circle cx="339.696" cy="128.471" r="4" fill="#0" id="circle25"/>
	<circle cx="354.783" cy="90.7529" r="4" fill="#0" id="circle26"/>
	<circle cx="366.099" cy="347.24" r="4" fill="#0" id="circle27"/>
	<circle cx="377.414" cy="60.5779" r="4" fill="#0" id="circle28"/>
	<circle cx="384.958" cy="313.293" r="4" fill="#0" id="circle29"/>
	<circle cx="400.046" cy="237.856" r="4" fill="#0" id="circle30"/>
	<circle cx="400.046" cy="275.574" r="4" fill="#0" id="circle31"/>
	<circle cx="407.589" cy="37.9468" r="4" fill="#0" id="circle32"/>
	<circle cx="411.361" cy="939.422" r="4" fill="#0" id="circle33"/>
	<circle cx="430.221" cy="215.224" r="4" fill="#0" id="circle34"/>
	<circle cx="445.308" cy="22.8593" r="4" fill="#0" id="circle35"/>
	<circle cx="445.308" cy="958.281" r="4" fill="#0" id="circle36"/>
	<circle cx="464.167" cy="234.084" r="4" fill="#0" id="circle37"/>
	<circle cx="464.167" cy="924.335" r="4" fill="#0" id="circle38"/>
	<circle cx="483.027" cy="11.5437" r="4" fill="#0" id="circle39"/>
	<circle cx="483.027" cy="965.825" r="4" fill="#0" id="circle40"/>
	<circle cx="486.798" cy="264.259" r="4" fill="#0" id="circle41"/>
	<circle cx="501.886" cy="916.791" r="4" fill="#0" id="circle42"/>
	<circle cx="509.43" cy="294.433" r="4" fill="#0" id="circle43"/>
	<circle cx="509.43" cy="332.152" r="4" fill="#0" id="circle44"/>
	<circle cx="516.973" cy="369.871" r="4" fill="#0" id="circle45"/>
	<circle cx="520.745" cy="4" r="4" fill="#0" id="circle46"/>
	<circle cx="520.745" cy="965.825" r="4" fill="#0" id="circle47"/>
	<circle cx="524.517" cy="407.589" r="4" fill="#0" id="circle48"/>
	<circle cx="532.061" cy="445.308" r="4" fill="#0" id="circle49"/>
	<circle cx="539.605" cy="483.027" r="4" fill="#0" id="circle50"/>
	<circle cx="539.605" cy="886.616" r="4" fill="#0" id="circle51"/>
	<circle cx="547.148" cy="833.81" r="4" fill="#0" id="circle52"/>
	<circle cx="554.692" cy="520.745" r="4" fill="#0" id="circle53"/>
	<circle cx="554.692" cy="796.091" r="4" fill="#0" id="circle54"/>
	<circle cx="558.464" cy="4" r="4" fill="#0" id="circle55"/>
	<circle cx="558.464" cy="965.825" r="4" fill="#0" id="circle56"/>
	<circle cx="562.236" cy="558.464" r="4" fill="#0" id="circle57"/>
	<circle cx="562.236" cy="743.285" r="4" fill="#0" id="circle58"/>
	<circle cx="569.779" cy="596.183" r="4" fill="#0" id="circle59"/>
	<circle cx="569.779" cy="633.901" r="4" fill="#0" id="circle60"/>
	<circle cx="569.779" cy="698.023" r="4" fill="#0" id="circle61"/>
	<circle cx="596.183" cy="4" r="4" fill="#0" id="circle62"/>
	<circle cx="596.183" cy="962.053" r="4" fill="#0" id="circle63"/>
	<circle cx="611.27" cy="886.616" r="4" fill="#0" id="circle64"/>
	<circle cx="611.27" cy="924.335" r="4" fill="#0" id="circle65"/>
	<circle cx="618.814" cy="841.354" r="4" fill="#0" id="circle66"/>
	<circle cx="626.357" cy="788.548" r="4" fill="#0" id="circle67"/>
	<circle cx="633.901" cy="11.5437" r="4" fill="#0" id="circle68"/>
	<circle cx="633.901" cy="743.285" r="4" fill="#0" id="circle69"/>
	<circle cx="641.445" cy="690.479" r="4" fill="#0" id="circle70"/>
	<circle cx="648.989" cy="351.011" r="4" fill="#0" id="circle71"/>
	<circle cx="648.989" cy="388.73" r="4" fill="#0" id="circle72"/>
	<circle cx="648.989" cy="426.449" r="4" fill="#0" id="circle73"/>
	<circle cx="648.989" cy="464.167" r="4" fill="#0" id="circle74"/>
	<circle cx="648.989" cy="501.886" r="4" fill="#0" id="circle75"/>
	<circle cx="648.989" cy="539.605" r="4" fill="#0" id="circle76"/>
	<circle cx="648.989" cy="577.323" r="4" fill="#0" id="circle77"/>
	<circle cx="648.989" cy="615.042" r="4" fill="#0" id="circle78"/>
	<circle cx="648.989" cy="652.76" r="4" fill="#0" id="circle79"/>
	<circle cx="671.62" cy="26.6312" r="4" fill="#0" id="circle80"/>
	<circle cx="686.707" cy="354.783" r="4" fill="#0" id="circle81"/>
	<circle cx="709.338" cy="41.7186" r="4" fill="#0" id="circle82"/>
	<circle cx="720.654" cy="373.643" r="4" fill="#0" id="circle83"/>
	<circle cx="743.285" cy="60.5779" r="4" fill="#0" id="circle84"/>
	<circle cx="754.601" cy="392.502" r="4" fill="#0" id="circle85"/>
	<circle cx="773.46" cy="83.2091" r="4" fill="#0" id="circle86"/>
	<circle cx="792.319" cy="400.046" r="4" fill="#0" id="circle87"/>
	<circle cx="799.863" cy="113.384" r="4" fill="#0" id="circle88"/>
	<circle cx="830.038" cy="139.787" r="4" fill="#0" id="circle89"/>
	<circle cx="830.038" cy="415.133" r="4" fill="#0" id="circle90"/>
	<circle cx="856.441" cy="169.962" r="4" fill="#0" id="circle91"/>
	<circle cx="867.757" cy="422.677" r="4" fill="#0" id="circle92"/>
	<circle cx="886.616" cy="196.365" r="4" fill="#0" id="circle93"/>
	<circle cx="905.475" cy="403.817" r="4" fill="#0" id="circle94"/>
	<circle cx="913.019" cy="226.54" r="4" fill="#0" id="circle95"/>
	<circle cx="935.65" cy="256.715" r="4" fill="#0" id="circle96"/>
	<circle cx="943.194" cy="415.133" r="4" fill="#0" id="circle97"/>
	<circle cx="958.281" cy="286.89" r="4" fill="#0" id="circle98"/>
	<circle cx="980.913" cy="317.065" r="4" fill="#0" id="circle99"/>
	<circle cx="980.913" cy="415.133" r="4" fill="#0" id="circle100"/>
	<circle cx="996" cy="354.783" r="4" fill="#0" id="circle101"/>
	</g>
</svg>