<?xml version="1.0" encoding="UTF-8" standalone="no"?>
<!-- Created with CurveBenchmark -->
<svg
	xmlns:dc="http://purl.org/dc/elements/1.1/"
	xmlns:cc="http://creativecommons.org/ns#"
	xmlns:rdf="http://www.w3.org/1999/02/22-rdf-syntax-ns#"
	xmlns:svg="http://www.w3.org/2000/svg"
	xmlns="http://www.w3.org/2000/svg"
	xmlns:sodipodi="http://sodipodi.sourceforge.net/DTD/sodipodi-0.dtd"
	xmlns:inkscape="http://www.inkscape.org/namespaces/inkscape"
	width="1000"
	height="1000"
	id="svg2"
	version="1.1"
	sodipodi:docname="manifold/nncrust-ray0464.png.txt">
<defs
	id="defs4" />
<metadata
	id="metadata7">
	<rdf:RDF>
		<cc:Work
			rdf:about="">
			<dc:format>image/svg+xml</dc:format>
			<dc:type
				rdf:resource="http://purl.org/dc/dcmitype/StillImage" />
			<dc:title></dc:title>
		</cc:Work>
	</rdf:RDF>
</metadata>
<g
	inkscape:label="Layer 1"
	inkscape:groupmode="layer"
	id="layer1">
	<path style="fill:none;stroke:red;stroke-width:1px;stroke-linecap:butt;stroke-linejoin:miter;stroke-opacity:1" d="M 29.9008,299.269 40.2611,288.909 z" id="boundary" inkscape:connector-curvature="0" />
	<path style="fill:none;stroke:red;stroke-width:1px;stroke-linecap:butt;stroke-linejoin:miter;stroke-opacity:1" d="M 29.9008,299.269 16.9504,305.744 z" id="boundary" inkscape:connector-curvature="0" />
	<path style="fill:none;stroke:red;stroke-width:1px;stroke-linecap:butt;stroke-linejoin:miter;stroke-opacity:1" d="M 4,344.595 4,331.645 z" id="boundary" inkscape:connector-curvature="0" />
	<path style="fill:none;stroke:red;stroke-width:1px;stroke-linecap:butt;stroke-linejoin:miter;stroke-opacity:1" d="M 4,331.645 14.3603,321.285 z" id="boundary" inkscape:connector-curvature="0" />
	<path style="fill:none;stroke:red;stroke-width:1px;stroke-linecap:butt;stroke-linejoin:miter;stroke-opacity:1" d="M 14.3603,321.285 16.9504,305.744 z" id="boundary" inkscape:connector-curvature="0" />
	<path style="fill:none;stroke:red;stroke-width:1px;stroke-linecap:butt;stroke-linejoin:miter;stroke-opacity:1" d="M 4,357.546 4,344.595 z" id="boundary" inkscape:connector-curvature="0" />
	<path style="fill:none;stroke:red;stroke-width:1px;stroke-linecap:butt;stroke-linejoin:miter;stroke-opacity:1" d="M 53.2115,282.433 66.1619,282.433 z" id="boundary" inkscape:connector-curvature="0" />
	<path style="fill:none;stroke:red;stroke-width:1px;stroke-linecap:butt;stroke-linejoin:miter;stroke-opacity:1" d="M 40.2611,288.909 53.2115,282.433 z" id="boundary" inkscape:connector-curvature="0" />
	<path style="fill:none;stroke:red;stroke-width:1px;stroke-linecap:butt;stroke-linejoin:miter;stroke-opacity:1" d="M 79.1123,275.958 92.0627,275.958 z" id="boundary" inkscape:connector-curvature="0" />
	<path style="fill:none;stroke:red;stroke-width:1px;stroke-linecap:butt;stroke-linejoin:miter;stroke-opacity:1" d="M 66.1619,282.433 79.1123,275.958 z" id="boundary" inkscape:connector-curvature="0" />
	<path style="fill:none;stroke:red;stroke-width:1px;stroke-linecap:butt;stroke-linejoin:miter;stroke-opacity:1" d="M 105.013,275.958 92.0627,275.958 z" id="boundary" inkscape:connector-curvature="0" />
	<path style="fill:none;stroke:red;stroke-width:1px;stroke-linecap:butt;stroke-linejoin:miter;stroke-opacity:1" d="M 155.52,269.483 142.569,269.483 z" id="boundary" inkscape:connector-curvature="0" />
	<path style="fill:none;stroke:red;stroke-width:1px;stroke-linecap:butt;stroke-linejoin:miter;stroke-opacity:1" d="M 130.914,275.958 142.569,269.483 z" id="boundary" inkscape:connector-curvature="0" />
	<path style="fill:none;stroke:red;stroke-width:1px;stroke-linecap:butt;stroke-linejoin:miter;stroke-opacity:1" d="M 105.013,275.958 117.963,275.958 z" id="boundary" inkscape:connector-curvature="0" />
	<path style="fill:none;stroke:red;stroke-width:1px;stroke-linecap:butt;stroke-linejoin:miter;stroke-opacity:1" d="M 130.914,275.958 117.963,275.958 z" id="boundary" inkscape:connector-curvature="0" />
	<path style="fill:none;stroke:red;stroke-width:1px;stroke-linecap:butt;stroke-linejoin:miter;stroke-opacity:1" d="M 4,370.496 4,357.546 z" id="boundary" inkscape:connector-curvature="0" />
	<path style="fill:none;stroke:red;stroke-width:1px;stroke-linecap:butt;stroke-linejoin:miter;stroke-opacity:1" d="M 4,396.397 4,383.446 z" id="boundary" inkscape:connector-curvature="0" />
	<path style="fill:none;stroke:red;stroke-width:1px;stroke-linecap:butt;stroke-linejoin:miter;stroke-opacity:1" d="M 4,383.446 4,370.496 z" id="boundary" inkscape:connector-curvature="0" />
	<path style="fill:none;stroke:red;stroke-width:1px;stroke-linecap:butt;stroke-linejoin:miter;stroke-opacity:1" d="M 4,422.298 4,409.347 z" id="boundary" inkscape:connector-curvature="0" />
	<path style="fill:none;stroke:red;stroke-width:1px;stroke-linecap:butt;stroke-linejoin:miter;stroke-opacity:1" d="M 10.4752,433.953 4,422.298 z" id="boundary" inkscape:connector-curvature="0" />
	<path style="fill:none;stroke:red;stroke-width:1px;stroke-linecap:butt;stroke-linejoin:miter;stroke-opacity:1" d="M 10.4752,433.953 10.4752,446.903 z" id="boundary" inkscape:connector-curvature="0" />
	<path style="fill:none;stroke:red;stroke-width:1px;stroke-linecap:butt;stroke-linejoin:miter;stroke-opacity:1" d="M 4,409.347 4,396.397 z" id="boundary" inkscape:connector-curvature="0" />
	<path style="fill:none;stroke:red;stroke-width:1px;stroke-linecap:butt;stroke-linejoin:miter;stroke-opacity:1" d="M 10.4752,446.903 10.4752,459.854 z" id="boundary" inkscape:connector-curvature="0" />
	<path style="fill:none;stroke:red;stroke-width:1px;stroke-linecap:butt;stroke-linejoin:miter;stroke-opacity:1" d="M 10.4752,459.854 16.9504,471.509 z" id="boundary" inkscape:connector-curvature="0" />
	<path style="fill:none;stroke:red;stroke-width:1px;stroke-linecap:butt;stroke-linejoin:miter;stroke-opacity:1" d="M 16.9504,471.509 16.9504,484.46 z" id="boundary" inkscape:connector-curvature="0" />
	<path style="fill:none;stroke:red;stroke-width:1px;stroke-linecap:butt;stroke-linejoin:miter;stroke-opacity:1" d="M 16.9504,484.46 16.9504,497.41 z" id="boundary" inkscape:connector-curvature="0" />
	<path style="fill:none;stroke:red;stroke-width:1px;stroke-linecap:butt;stroke-linejoin:miter;stroke-opacity:1" d="M 20.8355,510.36 16.9504,497.41 z" id="boundary" inkscape:connector-curvature="0" />
	<path style="fill:none;stroke:red;stroke-width:1px;stroke-linecap:butt;stroke-linejoin:miter;stroke-opacity:1" d="M 20.8355,510.36 23.4256,523.311 z" id="boundary" inkscape:connector-curvature="0" />
	<path style="fill:none;stroke:red;stroke-width:1px;stroke-linecap:butt;stroke-linejoin:miter;stroke-opacity:1" d="M 29.9008,534.966 23.4256,523.311 z" id="boundary" inkscape:connector-curvature="0" />
	<path style="fill:none;stroke:red;stroke-width:1px;stroke-linecap:butt;stroke-linejoin:miter;stroke-opacity:1" d="M 29.9008,534.966 29.9008,547.916 z" id="boundary" inkscape:connector-curvature="0" />
	<path style="fill:none;stroke:red;stroke-width:1px;stroke-linecap:butt;stroke-linejoin:miter;stroke-opacity:1" d="M 29.9008,547.916 29.9008,560.867 z" id="boundary" inkscape:connector-curvature="0" />
	<path style="fill:none;stroke:red;stroke-width:1px;stroke-linecap:butt;stroke-linejoin:miter;stroke-opacity:1" d="M 155.52,269.483 168.47,269.483 z" id="boundary" inkscape:connector-curvature="0" />
	<path style="fill:none;stroke:red;stroke-width:1px;stroke-linecap:butt;stroke-linejoin:miter;stroke-opacity:1" d="M 366.611,253.943 379.561,247.467 z" id="boundary" inkscape:connector-curvature="0" />
	<path style="fill:none;stroke:red;stroke-width:1px;stroke-linecap:butt;stroke-linejoin:miter;stroke-opacity:1" d="M 392.512,250.057 400.282,260.418 z" id="boundary" inkscape:connector-curvature="0" />
	<path style="fill:none;stroke:red;stroke-width:1px;stroke-linecap:butt;stroke-linejoin:miter;stroke-opacity:1" d="M 379.561,247.467 392.512,250.057 z" id="boundary" inkscape:connector-curvature="0" />
	<path style="fill:none;stroke:red;stroke-width:1px;stroke-linecap:butt;stroke-linejoin:miter;stroke-opacity:1" d="M 443.018,250.057 432.658,259.123 z" id="boundary" inkscape:connector-curvature="0" />
	<path style="fill:none;stroke:red;stroke-width:1px;stroke-linecap:butt;stroke-linejoin:miter;stroke-opacity:1" d="M 218.977,259.123 231.927,256.533 z" id="boundary" inkscape:connector-curvature="0" />
	<path style="fill:none;stroke:red;stroke-width:1px;stroke-linecap:butt;stroke-linejoin:miter;stroke-opacity:1" d="M 231.927,256.533 244.877,256.533 z" id="boundary" inkscape:connector-curvature="0" />
	<path style="fill:none;stroke:red;stroke-width:1px;stroke-linecap:butt;stroke-linejoin:miter;stroke-opacity:1" d="M 244.877,256.533 257.828,260.418 z" id="boundary" inkscape:connector-curvature="0" />
	<path style="fill:none;stroke:red;stroke-width:1px;stroke-linecap:butt;stroke-linejoin:miter;stroke-opacity:1" d="M 443.018,250.057 455.969,250.057 z" id="boundary" inkscape:connector-curvature="0" />
	<path style="fill:none;stroke:red;stroke-width:1px;stroke-linecap:butt;stroke-linejoin:miter;stroke-opacity:1" d="M 480.574,243.582 493.525,243.582 z" id="boundary" inkscape:connector-curvature="0" />
	<path style="fill:none;stroke:red;stroke-width:1px;stroke-linecap:butt;stroke-linejoin:miter;stroke-opacity:1" d="M 468.919,250.057 480.574,243.582 z" id="boundary" inkscape:connector-curvature="0" />
	<path style="fill:none;stroke:red;stroke-width:1px;stroke-linecap:butt;stroke-linejoin:miter;stroke-opacity:1" d="M 542.736,243.582 531.081,250.057 z" id="boundary" inkscape:connector-curvature="0" />
	<path style="fill:none;stroke:red;stroke-width:1px;stroke-linecap:butt;stroke-linejoin:miter;stroke-opacity:1" d="M 506.475,243.582 493.525,243.582 z" id="boundary" inkscape:connector-curvature="0" />
	<path style="fill:none;stroke:red;stroke-width:1px;stroke-linecap:butt;stroke-linejoin:miter;stroke-opacity:1" d="M 506.475,243.582 518.131,250.057 z" id="boundary" inkscape:connector-curvature="0" />
	<path style="fill:none;stroke:red;stroke-width:1px;stroke-linecap:butt;stroke-linejoin:miter;stroke-opacity:1" d="M 423.593,269.483 432.658,259.123 z" id="boundary" inkscape:connector-curvature="0" />
	<path style="fill:none;stroke:red;stroke-width:1px;stroke-linecap:butt;stroke-linejoin:miter;stroke-opacity:1" d="M 468.919,250.057 455.969,250.057 z" id="boundary" inkscape:connector-curvature="0" />
	<path style="fill:none;stroke:red;stroke-width:1px;stroke-linecap:butt;stroke-linejoin:miter;stroke-opacity:1" d="M 531.081,250.057 518.131,250.057 z" id="boundary" inkscape:connector-curvature="0" />
	<path style="fill:none;stroke:red;stroke-width:1px;stroke-linecap:butt;stroke-linejoin:miter;stroke-opacity:1" d="M 410.642,269.483 423.593,269.483 z" id="boundary" inkscape:connector-curvature="0" />
	<path style="fill:none;stroke:red;stroke-width:1px;stroke-linecap:butt;stroke-linejoin:miter;stroke-opacity:1" d="M 193.076,263.008 206.026,263.008 z" id="boundary" inkscape:connector-curvature="0" />
	<path style="fill:none;stroke:red;stroke-width:1px;stroke-linecap:butt;stroke-linejoin:miter;stroke-opacity:1" d="M 181.42,269.483 193.076,263.008 z" id="boundary" inkscape:connector-curvature="0" />
	<path style="fill:none;stroke:red;stroke-width:1px;stroke-linecap:butt;stroke-linejoin:miter;stroke-opacity:1" d="M 218.977,259.123 206.026,263.008 z" id="boundary" inkscape:connector-curvature="0" />
	<path style="fill:none;stroke:red;stroke-width:1px;stroke-linecap:butt;stroke-linejoin:miter;stroke-opacity:1" d="M 257.828,260.418 270.778,263.008 z" id="boundary" inkscape:connector-curvature="0" />
	<path style="fill:none;stroke:red;stroke-width:1px;stroke-linecap:butt;stroke-linejoin:miter;stroke-opacity:1" d="M 283.728,263.008 270.778,263.008 z" id="boundary" inkscape:connector-curvature="0" />
	<path style="fill:none;stroke:red;stroke-width:1px;stroke-linecap:butt;stroke-linejoin:miter;stroke-opacity:1" d="M 181.42,269.483 168.47,269.483 z" id="boundary" inkscape:connector-curvature="0" />
	<path style="fill:none;stroke:red;stroke-width:1px;stroke-linecap:butt;stroke-linejoin:miter;stroke-opacity:1" d="M 295.384,269.483 283.728,263.008 z" id="boundary" inkscape:connector-curvature="0" />
	<path style="fill:none;stroke:red;stroke-width:1px;stroke-linecap:butt;stroke-linejoin:miter;stroke-opacity:1" d="M 308.334,269.483 295.384,269.483 z" id="boundary" inkscape:connector-curvature="0" />
	<path style="fill:none;stroke:red;stroke-width:1px;stroke-linecap:butt;stroke-linejoin:miter;stroke-opacity:1" d="M 308.334,269.483 321.285,269.483 z" id="boundary" inkscape:connector-curvature="0" />
	<path style="fill:none;stroke:red;stroke-width:1px;stroke-linecap:butt;stroke-linejoin:miter;stroke-opacity:1" d="M 321.285,269.483 334.235,272.073 z" id="boundary" inkscape:connector-curvature="0" />
	<path style="fill:none;stroke:red;stroke-width:1px;stroke-linecap:butt;stroke-linejoin:miter;stroke-opacity:1" d="M 410.642,269.483 400.282,260.418 z" id="boundary" inkscape:connector-curvature="0" />
	<path style="fill:none;stroke:red;stroke-width:1px;stroke-linecap:butt;stroke-linejoin:miter;stroke-opacity:1" d="M 334.235,272.073 347.185,275.958 z" id="boundary" inkscape:connector-curvature="0" />
	<path style="fill:none;stroke:red;stroke-width:1px;stroke-linecap:butt;stroke-linejoin:miter;stroke-opacity:1" d="M 347.185,275.958 360.136,273.368 z" id="boundary" inkscape:connector-curvature="0" />
	<path style="fill:none;stroke:red;stroke-width:1px;stroke-linecap:butt;stroke-linejoin:miter;stroke-opacity:1" d="M 366.611,253.943 360.136,273.368 z" id="boundary" inkscape:connector-curvature="0" />
	<path style="fill:none;stroke:red;stroke-width:1px;stroke-linecap:butt;stroke-linejoin:miter;stroke-opacity:1" d="M 29.9008,560.867 36.376,572.522 z" id="boundary" inkscape:connector-curvature="0" />
	<path style="fill:none;stroke:red;stroke-width:1px;stroke-linecap:butt;stroke-linejoin:miter;stroke-opacity:1" d="M 36.376,572.522 37.671,585.473 z" id="boundary" inkscape:connector-curvature="0" />
	<path style="fill:none;stroke:red;stroke-width:1px;stroke-linecap:butt;stroke-linejoin:miter;stroke-opacity:1" d="M 37.671,585.473 42.8512,598.423 z" id="boundary" inkscape:connector-curvature="0" />
	<path style="fill:none;stroke:red;stroke-width:1px;stroke-linecap:butt;stroke-linejoin:miter;stroke-opacity:1" d="M 42.8512,598.423 42.8512,611.373 z" id="boundary" inkscape:connector-curvature="0" />
	<path style="fill:none;stroke:red;stroke-width:1px;stroke-linecap:butt;stroke-linejoin:miter;stroke-opacity:1" d="M 42.8512,611.373 42.8512,624.324 z" id="boundary" inkscape:connector-curvature="0" />
	<path style="fill:none;stroke:red;stroke-width:1px;stroke-linecap:butt;stroke-linejoin:miter;stroke-opacity:1" d="M 49.3264,635.979 42.8512,624.324 z" id="boundary" inkscape:connector-curvature="0" />
	<path style="fill:none;stroke:red;stroke-width:1px;stroke-linecap:butt;stroke-linejoin:miter;stroke-opacity:1" d="M 49.3264,635.979 49.3264,648.93 z" id="boundary" inkscape:connector-curvature="0" />
	<path style="fill:none;stroke:red;stroke-width:1px;stroke-linecap:butt;stroke-linejoin:miter;stroke-opacity:1" d="M 49.3264,648.93 49.3264,661.88 z" id="boundary" inkscape:connector-curvature="0" />
	<path style="fill:none;stroke:red;stroke-width:1px;stroke-linecap:butt;stroke-linejoin:miter;stroke-opacity:1" d="M 49.3264,661.88 49.3264,674.83 z" id="boundary" inkscape:connector-curvature="0" />
	<path style="fill:none;stroke:red;stroke-width:1px;stroke-linecap:butt;stroke-linejoin:miter;stroke-opacity:1" d="M 49.3264,687.781 49.3264,700.731 z" id="boundary" inkscape:connector-curvature="0" />
	<path style="fill:none;stroke:red;stroke-width:1px;stroke-linecap:butt;stroke-linejoin:miter;stroke-opacity:1" d="M 49.3264,687.781 49.3264,674.83 z" id="boundary" inkscape:connector-curvature="0" />
	<path style="fill:none;stroke:red;stroke-width:1px;stroke-linecap:butt;stroke-linejoin:miter;stroke-opacity:1" d="M 49.3264,713.681 55.8016,725.337 z" id="boundary" inkscape:connector-curvature="0" />
	<path style="fill:none;stroke:red;stroke-width:1px;stroke-linecap:butt;stroke-linejoin:miter;stroke-opacity:1" d="M 55.8016,725.337 55.8016,738.287 z" id="boundary" inkscape:connector-curvature="0" />
	<path style="fill:none;stroke:red;stroke-width:1px;stroke-linecap:butt;stroke-linejoin:miter;stroke-opacity:1" d="M 49.3264,713.681 49.3264,700.731 z" id="boundary" inkscape:connector-curvature="0" />
	<path style="fill:none;stroke:red;stroke-width:1px;stroke-linecap:butt;stroke-linejoin:miter;stroke-opacity:1" d="M 55.8016,738.287 62.2768,749.943 z" id="boundary" inkscape:connector-curvature="0" />
	<path style="fill:none;stroke:red;stroke-width:1px;stroke-linecap:butt;stroke-linejoin:miter;stroke-opacity:1" d="M 62.2768,749.943 62.2768,762.893 z" id="boundary" inkscape:connector-curvature="0" />
	<path style="fill:none;stroke:red;stroke-width:1px;stroke-linecap:butt;stroke-linejoin:miter;stroke-opacity:1" d="M 62.2768,762.893 62.2768,775.843 z" id="boundary" inkscape:connector-curvature="0" />
	<path style="fill:none;stroke:red;stroke-width:1px;stroke-linecap:butt;stroke-linejoin:miter;stroke-opacity:1" d="M 68.752,787.499 62.2768,775.843 z" id="boundary" inkscape:connector-curvature="0" />
	<path style="fill:none;stroke:red;stroke-width:1px;stroke-linecap:butt;stroke-linejoin:miter;stroke-opacity:1" d="M 68.752,787.499 75.2272,799.154 z" id="boundary" inkscape:connector-curvature="0" />
	<path style="fill:none;stroke:red;stroke-width:1px;stroke-linecap:butt;stroke-linejoin:miter;stroke-opacity:1" d="M 81.7023,810.809 81.7023,823.76 z" id="boundary" inkscape:connector-curvature="0" />
	<path style="fill:none;stroke:red;stroke-width:1px;stroke-linecap:butt;stroke-linejoin:miter;stroke-opacity:1" d="M 75.2272,799.154 81.7023,810.809 z" id="boundary" inkscape:connector-curvature="0" />
	<path style="fill:none;stroke:red;stroke-width:1px;stroke-linecap:butt;stroke-linejoin:miter;stroke-opacity:1" d="M 88.1775,835.415 81.7023,823.76 z" id="boundary" inkscape:connector-curvature="0" />
	<path style="fill:none;stroke:red;stroke-width:1px;stroke-linecap:butt;stroke-linejoin:miter;stroke-opacity:1" d="M 88.1775,835.415 88.1775,848.366 z" id="boundary" inkscape:connector-curvature="0" />
	<path style="fill:none;stroke:red;stroke-width:1px;stroke-linecap:butt;stroke-linejoin:miter;stroke-opacity:1" d="M 88.1775,861.316 88.1775,848.366 z" id="boundary" inkscape:connector-curvature="0" />
	<path style="fill:none;stroke:red;stroke-width:1px;stroke-linecap:butt;stroke-linejoin:miter;stroke-opacity:1" d="M 88.1775,861.316 88.1775,874.266 z" id="boundary" inkscape:connector-curvature="0" />
	<path style="fill:none;stroke:red;stroke-width:1px;stroke-linecap:butt;stroke-linejoin:miter;stroke-opacity:1" d="M 134.799,898.872 121.849,905.347 z" id="boundary" inkscape:connector-curvature="0" />
	<path style="fill:none;stroke:red;stroke-width:1px;stroke-linecap:butt;stroke-linejoin:miter;stroke-opacity:1" d="M 88.1775,887.217 88.1775,874.266 z" id="boundary" inkscape:connector-curvature="0" />
	<path style="fill:none;stroke:red;stroke-width:1px;stroke-linecap:butt;stroke-linejoin:miter;stroke-opacity:1" d="M 147.749,892.397 134.799,898.872 z" id="boundary" inkscape:connector-curvature="0" />
	<path style="fill:none;stroke:red;stroke-width:1px;stroke-linecap:butt;stroke-linejoin:miter;stroke-opacity:1" d="M 97.2428,910.527 88.1775,900.167 z" id="boundary" inkscape:connector-curvature="0" />
	<path style="fill:none;stroke:red;stroke-width:1px;stroke-linecap:butt;stroke-linejoin:miter;stroke-opacity:1" d="M 110.193,911.822 97.2428,910.527 z" id="boundary" inkscape:connector-curvature="0" />
	<path style="fill:none;stroke:red;stroke-width:1px;stroke-linecap:butt;stroke-linejoin:miter;stroke-opacity:1" d="M 110.193,911.822 121.849,905.347 z" id="boundary" inkscape:connector-curvature="0" />
	<path style="fill:none;stroke:red;stroke-width:1px;stroke-linecap:butt;stroke-linejoin:miter;stroke-opacity:1" d="M 88.1775,900.167 88.1775,887.217 z" id="boundary" inkscape:connector-curvature="0" />
	<path style="fill:none;stroke:red;stroke-width:1px;stroke-linecap:butt;stroke-linejoin:miter;stroke-opacity:1" d="M 402.872,878.151 415.822,872.971 z" id="boundary" inkscape:connector-curvature="0" />
	<path style="fill:none;stroke:red;stroke-width:1px;stroke-linecap:butt;stroke-linejoin:miter;stroke-opacity:1" d="M 427.478,866.496 415.822,872.971 z" id="boundary" inkscape:connector-curvature="0" />
	<path style="fill:none;stroke:red;stroke-width:1px;stroke-linecap:butt;stroke-linejoin:miter;stroke-opacity:1" d="M 427.478,866.496 440.428,866.496 z" id="boundary" inkscape:connector-curvature="0" />
	<path style="fill:none;stroke:red;stroke-width:1px;stroke-linecap:butt;stroke-linejoin:miter;stroke-opacity:1" d="M 402.872,878.151 389.922,879.446 z" id="boundary" inkscape:connector-curvature="0" />
	<path style="fill:none;stroke:red;stroke-width:1px;stroke-linecap:butt;stroke-linejoin:miter;stroke-opacity:1" d="M 440.428,866.496 453.379,866.496 z" id="boundary" inkscape:connector-curvature="0" />
	<path style="fill:none;stroke:red;stroke-width:1px;stroke-linecap:butt;stroke-linejoin:miter;stroke-opacity:1" d="M 173.65,885.922 186.601,885.922 z" id="boundary" inkscape:connector-curvature="0" />
	<path style="fill:none;stroke:red;stroke-width:1px;stroke-linecap:butt;stroke-linejoin:miter;stroke-opacity:1" d="M 160.7,892.397 173.65,885.922 z" id="boundary" inkscape:connector-curvature="0" />
	<path style="fill:none;stroke:red;stroke-width:1px;stroke-linecap:butt;stroke-linejoin:miter;stroke-opacity:1" d="M 352.366,885.922 339.415,885.922 z" id="boundary" inkscape:connector-curvature="0" />
	<path style="fill:none;stroke:red;stroke-width:1px;stroke-linecap:butt;stroke-linejoin:miter;stroke-opacity:1" d="M 378.266,885.922 389.922,879.446 z" id="boundary" inkscape:connector-curvature="0" />
	<path style="fill:none;stroke:red;stroke-width:1px;stroke-linecap:butt;stroke-linejoin:miter;stroke-opacity:1" d="M 453.379,866.496 466.329,866.496 z" id="boundary" inkscape:connector-curvature="0" />
	<path style="fill:none;stroke:red;stroke-width:1px;stroke-linecap:butt;stroke-linejoin:miter;stroke-opacity:1" d="M 479.279,866.496 492.23,866.496 z" id="boundary" inkscape:connector-curvature="0" />
	<path style="fill:none;stroke:red;stroke-width:1px;stroke-linecap:butt;stroke-linejoin:miter;stroke-opacity:1" d="M 479.279,866.496 466.329,866.496 z" id="boundary" inkscape:connector-curvature="0" />
	<path style="fill:none;stroke:red;stroke-width:1px;stroke-linecap:butt;stroke-linejoin:miter;stroke-opacity:1" d="M 492.23,866.496 505.18,866.496 z" id="boundary" inkscape:connector-curvature="0" />
	<path style="fill:none;stroke:red;stroke-width:1px;stroke-linecap:butt;stroke-linejoin:miter;stroke-opacity:1" d="M 518.131,866.496 531.081,866.496 z" id="boundary" inkscape:connector-curvature="0" />
	<path style="fill:none;stroke:red;stroke-width:1px;stroke-linecap:butt;stroke-linejoin:miter;stroke-opacity:1" d="M 518.131,866.496 505.18,866.496 z" id="boundary" inkscape:connector-curvature="0" />
	<path style="fill:none;stroke:red;stroke-width:1px;stroke-linecap:butt;stroke-linejoin:miter;stroke-opacity:1" d="M 531.081,866.496 544.031,866.496 z" id="boundary" inkscape:connector-curvature="0" />
	<path style="fill:none;stroke:red;stroke-width:1px;stroke-linecap:butt;stroke-linejoin:miter;stroke-opacity:1" d="M 160.7,892.397 147.749,892.397 z" id="boundary" inkscape:connector-curvature="0" />
	<path style="fill:none;stroke:red;stroke-width:1px;stroke-linecap:butt;stroke-linejoin:miter;stroke-opacity:1" d="M 199.551,888.512 212.501,892.397 z" id="boundary" inkscape:connector-curvature="0" />
	<path style="fill:none;stroke:red;stroke-width:1px;stroke-linecap:butt;stroke-linejoin:miter;stroke-opacity:1" d="M 225.452,892.397 212.501,892.397 z" id="boundary" inkscape:connector-curvature="0" />
	<path style="fill:none;stroke:red;stroke-width:1px;stroke-linecap:butt;stroke-linejoin:miter;stroke-opacity:1" d="M 186.601,885.922 199.551,888.512 z" id="boundary" inkscape:connector-curvature="0" />
	<path style="fill:none;stroke:red;stroke-width:1px;stroke-linecap:butt;stroke-linejoin:miter;stroke-opacity:1" d="M 225.452,892.397 237.107,898.872 z" id="boundary" inkscape:connector-curvature="0" />
	<path style="fill:none;stroke:red;stroke-width:1px;stroke-linecap:butt;stroke-linejoin:miter;stroke-opacity:1" d="M 250.057,898.872 237.107,898.872 z" id="boundary" inkscape:connector-curvature="0" />
	<path style="fill:none;stroke:red;stroke-width:1px;stroke-linecap:butt;stroke-linejoin:miter;stroke-opacity:1" d="M 250.057,898.872 263.008,898.872 z" id="boundary" inkscape:connector-curvature="0" />
	<path style="fill:none;stroke:red;stroke-width:1px;stroke-linecap:butt;stroke-linejoin:miter;stroke-opacity:1" d="M 352.366,885.922 365.316,885.922 z" id="boundary" inkscape:connector-curvature="0" />
	<path style="fill:none;stroke:red;stroke-width:1px;stroke-linecap:butt;stroke-linejoin:miter;stroke-opacity:1" d="M 339.415,885.922 326.465,889.807 z" id="boundary" inkscape:connector-curvature="0" />
	<path style="fill:none;stroke:red;stroke-width:1px;stroke-linecap:butt;stroke-linejoin:miter;stroke-opacity:1" d="M 365.316,885.922 378.266,885.922 z" id="boundary" inkscape:connector-curvature="0" />
	<path style="fill:none;stroke:red;stroke-width:1px;stroke-linecap:butt;stroke-linejoin:miter;stroke-opacity:1" d="M 313.514,892.397 326.465,889.807 z" id="boundary" inkscape:connector-curvature="0" />
	<path style="fill:none;stroke:red;stroke-width:1px;stroke-linecap:butt;stroke-linejoin:miter;stroke-opacity:1" d="M 275.958,898.872 287.614,892.397 z" id="boundary" inkscape:connector-curvature="0" />
	<path style="fill:none;stroke:red;stroke-width:1px;stroke-linecap:butt;stroke-linejoin:miter;stroke-opacity:1" d="M 287.614,892.397 300.564,892.397 z" id="boundary" inkscape:connector-curvature="0" />
	<path style="fill:none;stroke:red;stroke-width:1px;stroke-linecap:butt;stroke-linejoin:miter;stroke-opacity:1" d="M 275.958,898.872 263.008,898.872 z" id="boundary" inkscape:connector-curvature="0" />
	<path style="fill:none;stroke:red;stroke-width:1px;stroke-linecap:butt;stroke-linejoin:miter;stroke-opacity:1" d="M 300.564,892.397 313.514,892.397 z" id="boundary" inkscape:connector-curvature="0" />
	<path style="fill:none;stroke:red;stroke-width:1px;stroke-linecap:butt;stroke-linejoin:miter;stroke-opacity:1" d="M 544.031,866.496 556.982,866.496 z" id="boundary" inkscape:connector-curvature="0" />
	<path style="fill:none;stroke:red;stroke-width:1px;stroke-linecap:butt;stroke-linejoin:miter;stroke-opacity:1" d="M 713.681,133.504 724.042,123.144 z" id="boundary" inkscape:connector-curvature="0" />
	<path style="fill:none;stroke:red;stroke-width:1px;stroke-linecap:butt;stroke-linejoin:miter;stroke-opacity:1" d="M 736.992,116.668 724.042,123.144 z" id="boundary" inkscape:connector-curvature="0" />
	<path style="fill:none;stroke:red;stroke-width:1px;stroke-linecap:butt;stroke-linejoin:miter;stroke-opacity:1" d="M 760.303,101.128 749.943,110.193 z" id="boundary" inkscape:connector-curvature="0" />
	<path style="fill:none;stroke:red;stroke-width:1px;stroke-linecap:butt;stroke-linejoin:miter;stroke-opacity:1" d="M 749.943,110.193 736.992,116.668 z" id="boundary" inkscape:connector-curvature="0" />
	<path style="fill:none;stroke:red;stroke-width:1px;stroke-linecap:butt;stroke-linejoin:miter;stroke-opacity:1" d="M 677.42,150.339 690.371,143.864 z" id="boundary" inkscape:connector-curvature="0" />
	<path style="fill:none;stroke:red;stroke-width:1px;stroke-linecap:butt;stroke-linejoin:miter;stroke-opacity:1" d="M 700.731,133.504 690.371,143.864 z" id="boundary" inkscape:connector-curvature="0" />
	<path style="fill:none;stroke:red;stroke-width:1px;stroke-linecap:butt;stroke-linejoin:miter;stroke-opacity:1" d="M 700.731,133.504 713.681,133.504 z" id="boundary" inkscape:connector-curvature="0" />
	<path style="fill:none;stroke:red;stroke-width:1px;stroke-linecap:butt;stroke-linejoin:miter;stroke-opacity:1" d="M 773.253,101.128 760.303,101.128 z" id="boundary" inkscape:connector-curvature="0" />
	<path style="fill:none;stroke:red;stroke-width:1px;stroke-linecap:butt;stroke-linejoin:miter;stroke-opacity:1" d="M 782.319,90.7676 773.253,101.128 z" id="boundary" inkscape:connector-curvature="0" />
	<path style="fill:none;stroke:red;stroke-width:1px;stroke-linecap:butt;stroke-linejoin:miter;stroke-opacity:1" d="M 782.319,90.7676 795.269,88.1775 z" id="boundary" inkscape:connector-curvature="0" />
	<path style="fill:none;stroke:red;stroke-width:1px;stroke-linecap:butt;stroke-linejoin:miter;stroke-opacity:1" d="M 808.219,88.1775 795.269,88.1775 z" id="boundary" inkscape:connector-curvature="0" />
	<path style="fill:none;stroke:red;stroke-width:1px;stroke-linecap:butt;stroke-linejoin:miter;stroke-opacity:1" d="M 819.875,79.1123 808.219,88.1775 z" id="boundary" inkscape:connector-curvature="0" />
	<path style="fill:none;stroke:red;stroke-width:1px;stroke-linecap:butt;stroke-linejoin:miter;stroke-opacity:1" d="M 806.924,141.274 795.269,147.749 z" id="boundary" inkscape:connector-curvature="0" />
	<path style="fill:none;stroke:red;stroke-width:1px;stroke-linecap:butt;stroke-linejoin:miter;stroke-opacity:1" d="M 806.924,141.274 818.58,134.799 z" id="boundary" inkscape:connector-curvature="0" />
	<path style="fill:none;stroke:red;stroke-width:1px;stroke-linecap:butt;stroke-linejoin:miter;stroke-opacity:1" d="M 784.909,159.405 795.269,147.749 z" id="boundary" inkscape:connector-curvature="0" />
	<path style="fill:none;stroke:red;stroke-width:1px;stroke-linecap:butt;stroke-linejoin:miter;stroke-opacity:1" d="M 830.235,127.029 818.58,134.799 z" id="boundary" inkscape:connector-curvature="0" />
	<path style="fill:none;stroke:red;stroke-width:1px;stroke-linecap:butt;stroke-linejoin:miter;stroke-opacity:1" d="M 608.783,198.256 619.144,189.191 z" id="boundary" inkscape:connector-curvature="0" />
	<path style="fill:none;stroke:red;stroke-width:1px;stroke-linecap:butt;stroke-linejoin:miter;stroke-opacity:1" d="M 632.094,182.715 619.144,189.191 z" id="boundary" inkscape:connector-curvature="0" />
	<path style="fill:none;stroke:red;stroke-width:1px;stroke-linecap:butt;stroke-linejoin:miter;stroke-opacity:1" d="M 642.454,172.355 632.094,182.715 z" id="boundary" inkscape:connector-curvature="0" />
	<path style="fill:none;stroke:red;stroke-width:1px;stroke-linecap:butt;stroke-linejoin:miter;stroke-opacity:1" d="M 654.11,165.88 642.454,172.355 z" id="boundary" inkscape:connector-curvature="0" />
	<path style="fill:none;stroke:red;stroke-width:1px;stroke-linecap:butt;stroke-linejoin:miter;stroke-opacity:1" d="M 573.817,217.681 585.473,211.206 z" id="boundary" inkscape:connector-curvature="0" />
	<path style="fill:none;stroke:red;stroke-width:1px;stroke-linecap:butt;stroke-linejoin:miter;stroke-opacity:1" d="M 597.128,204.731 585.473,211.206 z" id="boundary" inkscape:connector-curvature="0" />
	<path style="fill:none;stroke:red;stroke-width:1px;stroke-linecap:butt;stroke-linejoin:miter;stroke-opacity:1" d="M 597.128,204.731 608.783,198.256 z" id="boundary" inkscape:connector-curvature="0" />
	<path style="fill:none;stroke:red;stroke-width:1px;stroke-linecap:butt;stroke-linejoin:miter;stroke-opacity:1" d="M 752.533,185.305 742.172,193.076 z" id="boundary" inkscape:connector-curvature="0" />
	<path style="fill:none;stroke:red;stroke-width:1px;stroke-linecap:butt;stroke-linejoin:miter;stroke-opacity:1" d="M 762.893,173.65 752.533,185.305 z" id="boundary" inkscape:connector-curvature="0" />
	<path style="fill:none;stroke:red;stroke-width:1px;stroke-linecap:butt;stroke-linejoin:miter;stroke-opacity:1" d="M 774.548,167.175 762.893,173.65 z" id="boundary" inkscape:connector-curvature="0" />
	<path style="fill:none;stroke:red;stroke-width:1px;stroke-linecap:butt;stroke-linejoin:miter;stroke-opacity:1" d="M 784.909,159.405 774.548,167.175 z" id="boundary" inkscape:connector-curvature="0" />
	<path style="fill:none;stroke:red;stroke-width:1px;stroke-linecap:butt;stroke-linejoin:miter;stroke-opacity:1" d="M 720.157,211.206 730.517,199.551 z" id="boundary" inkscape:connector-curvature="0" />
	<path style="fill:none;stroke:red;stroke-width:1px;stroke-linecap:butt;stroke-linejoin:miter;stroke-opacity:1" d="M 730.517,199.551 742.172,193.076 z" id="boundary" inkscape:connector-curvature="0" />
	<path style="fill:none;stroke:red;stroke-width:1px;stroke-linecap:butt;stroke-linejoin:miter;stroke-opacity:1" d="M 667.06,160.7 677.42,150.339 z" id="boundary" inkscape:connector-curvature="0" />
	<path style="fill:none;stroke:red;stroke-width:1px;stroke-linecap:butt;stroke-linejoin:miter;stroke-opacity:1" d="M 654.11,165.88 667.06,160.7 z" id="boundary" inkscape:connector-curvature="0" />
	<path style="fill:none;stroke:red;stroke-width:1px;stroke-linecap:butt;stroke-linejoin:miter;stroke-opacity:1" d="M 720.157,211.206 709.796,218.977 z" id="boundary" inkscape:connector-curvature="0" />
	<path style="fill:none;stroke:red;stroke-width:1px;stroke-linecap:butt;stroke-linejoin:miter;stroke-opacity:1" d="M 573.817,217.681 560.867,221.567 z" id="boundary" inkscape:connector-curvature="0" />
	<path style="fill:none;stroke:red;stroke-width:1px;stroke-linecap:butt;stroke-linejoin:miter;stroke-opacity:1" d="M 918.298,42.8512 929.953,36.376 z" id="boundary" inkscape:connector-curvature="0" />
	<path style="fill:none;stroke:red;stroke-width:1px;stroke-linecap:butt;stroke-linejoin:miter;stroke-opacity:1" d="M 963.624,50.6214 950.674,50.6214 z" id="boundary" inkscape:connector-curvature="0" />
	<path style="fill:none;stroke:red;stroke-width:1px;stroke-linecap:butt;stroke-linejoin:miter;stroke-opacity:1" d="M 950.674,19.5405 941.608,29.9008 z" id="boundary" inkscape:connector-curvature="0" />
	<path style="fill:none;stroke:red;stroke-width:1px;stroke-linecap:butt;stroke-linejoin:miter;stroke-opacity:1" d="M 941.608,29.9008 929.953,36.376 z" id="boundary" inkscape:connector-curvature="0" />
	<path style="fill:none;stroke:red;stroke-width:1px;stroke-linecap:butt;stroke-linejoin:miter;stroke-opacity:1" d="M 883.332,62.2768 870.381,62.2768 z" id="boundary" inkscape:connector-curvature="0" />
	<path style="fill:none;stroke:red;stroke-width:1px;stroke-linecap:butt;stroke-linejoin:miter;stroke-opacity:1" d="M 894.987,55.8016 883.332,62.2768 z" id="boundary" inkscape:connector-curvature="0" />
	<path style="fill:none;stroke:red;stroke-width:1px;stroke-linecap:butt;stroke-linejoin:miter;stroke-opacity:1" d="M 906.642,49.3264 894.987,55.8016 z" id="boundary" inkscape:connector-curvature="0" />
	<path style="fill:none;stroke:red;stroke-width:1px;stroke-linecap:butt;stroke-linejoin:miter;stroke-opacity:1" d="M 906.642,49.3264 918.298,42.8512 z" id="boundary" inkscape:connector-curvature="0" />
	<path style="fill:none;stroke:red;stroke-width:1px;stroke-linecap:butt;stroke-linejoin:miter;stroke-opacity:1" d="M 950.674,50.6214 940.313,62.2768 z" id="boundary" inkscape:connector-curvature="0" />
	<path style="fill:none;stroke:red;stroke-width:1px;stroke-linecap:butt;stroke-linejoin:miter;stroke-opacity:1" d="M 963.624,13.0653 973.984,4 z" id="boundary" inkscape:connector-curvature="0" />
	<path style="fill:none;stroke:red;stroke-width:1px;stroke-linecap:butt;stroke-linejoin:miter;stroke-opacity:1" d="M 963.624,13.0653 950.674,19.5405 z" id="boundary" inkscape:connector-curvature="0" />
	<path style="fill:none;stroke:red;stroke-width:1px;stroke-linecap:butt;stroke-linejoin:miter;stroke-opacity:1" d="M 986.935,4 996,14.3603 z" id="boundary" inkscape:connector-curvature="0" />
	<path style="fill:none;stroke:red;stroke-width:1px;stroke-linecap:butt;stroke-linejoin:miter;stroke-opacity:1" d="M 973.984,4 986.935,4 z" id="boundary" inkscape:connector-curvature="0" />
	<path style="fill:none;stroke:red;stroke-width:1px;stroke-linecap:butt;stroke-linejoin:miter;stroke-opacity:1" d="M 976.574,50.6214 963.624,50.6214 z" id="boundary" inkscape:connector-curvature="0" />
	<path style="fill:none;stroke:red;stroke-width:1px;stroke-linecap:butt;stroke-linejoin:miter;stroke-opacity:1" d="M 983.05,37.671 976.574,50.6214 z" id="boundary" inkscape:connector-curvature="0" />
	<path style="fill:none;stroke:red;stroke-width:1px;stroke-linecap:butt;stroke-linejoin:miter;stroke-opacity:1" d="M 983.05,37.671 996,27.3107 z" id="boundary" inkscape:connector-curvature="0" />
	<path style="fill:none;stroke:red;stroke-width:1px;stroke-linecap:butt;stroke-linejoin:miter;stroke-opacity:1" d="M 996,14.3603 996,27.3107 z" id="boundary" inkscape:connector-curvature="0" />
	<path style="fill:none;stroke:red;stroke-width:1px;stroke-linecap:butt;stroke-linejoin:miter;stroke-opacity:1" d="M 819.875,79.1123 832.825,72.6371 z" id="boundary" inkscape:connector-curvature="0" />
	<path style="fill:none;stroke:red;stroke-width:1px;stroke-linecap:butt;stroke-linejoin:miter;stroke-opacity:1" d="M 832.825,72.6371 845.775,68.752 z" id="boundary" inkscape:connector-curvature="0" />
	<path style="fill:none;stroke:red;stroke-width:1px;stroke-linecap:butt;stroke-linejoin:miter;stroke-opacity:1" d="M 870.381,62.2768 858.726,68.752 z" id="boundary" inkscape:connector-curvature="0" />
	<path style="fill:none;stroke:red;stroke-width:1px;stroke-linecap:butt;stroke-linejoin:miter;stroke-opacity:1" d="M 858.726,68.752 845.775,68.752 z" id="boundary" inkscape:connector-curvature="0" />
	<path style="fill:none;stroke:red;stroke-width:1px;stroke-linecap:butt;stroke-linejoin:miter;stroke-opacity:1" d="M 843.185,121.849 830.235,127.029 z" id="boundary" inkscape:connector-curvature="0" />
	<path style="fill:none;stroke:red;stroke-width:1px;stroke-linecap:butt;stroke-linejoin:miter;stroke-opacity:1" d="M 854.841,115.373 866.496,108.898 z" id="boundary" inkscape:connector-curvature="0" />
	<path style="fill:none;stroke:red;stroke-width:1px;stroke-linecap:butt;stroke-linejoin:miter;stroke-opacity:1" d="M 866.496,108.898 879.446,108.898 z" id="boundary" inkscape:connector-curvature="0" />
	<path style="fill:none;stroke:red;stroke-width:1px;stroke-linecap:butt;stroke-linejoin:miter;stroke-opacity:1" d="M 854.841,115.373 843.185,121.849 z" id="boundary" inkscape:connector-curvature="0" />
	<path style="fill:none;stroke:red;stroke-width:1px;stroke-linecap:butt;stroke-linejoin:miter;stroke-opacity:1" d="M 918.298,76.5222 911.822,89.4726 z" id="boundary" inkscape:connector-curvature="0" />
	<path style="fill:none;stroke:red;stroke-width:1px;stroke-linecap:butt;stroke-linejoin:miter;stroke-opacity:1" d="M 929.953,70.047 940.313,62.2768 z" id="boundary" inkscape:connector-curvature="0" />
	<path style="fill:none;stroke:red;stroke-width:1px;stroke-linecap:butt;stroke-linejoin:miter;stroke-opacity:1" d="M 929.953,70.047 918.298,76.5222 z" id="boundary" inkscape:connector-curvature="0" />
	<path style="fill:none;stroke:red;stroke-width:1px;stroke-linecap:butt;stroke-linejoin:miter;stroke-opacity:1" d="M 879.446,108.898 892.397,108.898 z" id="boundary" inkscape:connector-curvature="0" />
	<path style="fill:none;stroke:red;stroke-width:1px;stroke-linecap:butt;stroke-linejoin:miter;stroke-opacity:1" d="M 905.347,102.423 911.822,89.4726 z" id="boundary" inkscape:connector-curvature="0" />
	<path style="fill:none;stroke:red;stroke-width:1px;stroke-linecap:butt;stroke-linejoin:miter;stroke-opacity:1" d="M 905.347,102.423 892.397,108.898 z" id="boundary" inkscape:connector-curvature="0" />
	<path style="fill:none;stroke:red;stroke-width:1px;stroke-linecap:butt;stroke-linejoin:miter;stroke-opacity:1" d="M 560.867,221.567 554.392,234.517 z" id="boundary" inkscape:connector-curvature="0" />
	<path style="fill:none;stroke:red;stroke-width:1px;stroke-linecap:butt;stroke-linejoin:miter;stroke-opacity:1" d="M 554.392,234.517 542.736,243.582 z" id="boundary" inkscape:connector-curvature="0" />
	<path style="fill:none;stroke:red;stroke-width:1px;stroke-linecap:butt;stroke-linejoin:miter;stroke-opacity:1" d="M 601.013,322.58 601.013,335.53 z" id="boundary" inkscape:connector-curvature="0" />
	<path style="fill:none;stroke:red;stroke-width:1px;stroke-linecap:butt;stroke-linejoin:miter;stroke-opacity:1" d="M 601.013,322.58 613.963,316.104 z" id="boundary" inkscape:connector-curvature="0" />
	<path style="fill:none;stroke:red;stroke-width:1px;stroke-linecap:butt;stroke-linejoin:miter;stroke-opacity:1" d="M 601.013,335.53 601.013,348.48 z" id="boundary" inkscape:connector-curvature="0" />
	<path style="fill:none;stroke:red;stroke-width:1px;stroke-linecap:butt;stroke-linejoin:miter;stroke-opacity:1" d="M 594.538,393.807 594.538,406.757 z" id="boundary" inkscape:connector-curvature="0" />
	<path style="fill:none;stroke:red;stroke-width:1px;stroke-linecap:butt;stroke-linejoin:miter;stroke-opacity:1" d="M 594.538,393.807 601.013,374.381 z" id="boundary" inkscape:connector-curvature="0" />
	<path style="fill:none;stroke:red;stroke-width:1px;stroke-linecap:butt;stroke-linejoin:miter;stroke-opacity:1" d="M 601.013,431.363 594.538,419.708 z" id="boundary" inkscape:connector-curvature="0" />
	<path style="fill:none;stroke:red;stroke-width:1px;stroke-linecap:butt;stroke-linejoin:miter;stroke-opacity:1" d="M 594.538,419.708 594.538,406.757 z" id="boundary" inkscape:connector-curvature="0" />
	<path style="fill:none;stroke:red;stroke-width:1px;stroke-linecap:butt;stroke-linejoin:miter;stroke-opacity:1" d="M 601.013,348.48 601.013,361.431 z" id="boundary" inkscape:connector-curvature="0" />
	<path style="fill:none;stroke:red;stroke-width:1px;stroke-linecap:butt;stroke-linejoin:miter;stroke-opacity:1" d="M 613.963,303.154 626.914,296.679 z" id="boundary" inkscape:connector-curvature="0" />
	<path style="fill:none;stroke:red;stroke-width:1px;stroke-linecap:butt;stroke-linejoin:miter;stroke-opacity:1" d="M 613.963,316.104 613.963,303.154 z" id="boundary" inkscape:connector-curvature="0" />
	<path style="fill:none;stroke:red;stroke-width:1px;stroke-linecap:butt;stroke-linejoin:miter;stroke-opacity:1" d="M 633.389,283.728 626.914,296.679 z" id="boundary" inkscape:connector-curvature="0" />
	<path style="fill:none;stroke:red;stroke-width:1px;stroke-linecap:butt;stroke-linejoin:miter;stroke-opacity:1" d="M 633.389,283.728 646.339,270.778 z" id="boundary" inkscape:connector-curvature="0" />
	<path style="fill:none;stroke:red;stroke-width:1px;stroke-linecap:butt;stroke-linejoin:miter;stroke-opacity:1" d="M 601.013,361.431 601.013,374.381 z" id="boundary" inkscape:connector-curvature="0" />
	<path style="fill:none;stroke:red;stroke-width:1px;stroke-linecap:butt;stroke-linejoin:miter;stroke-opacity:1" d="M 611.373,439.133 601.013,431.363 z" id="boundary" inkscape:connector-curvature="0" />
	<path style="fill:none;stroke:red;stroke-width:1px;stroke-linecap:butt;stroke-linejoin:miter;stroke-opacity:1" d="M 633.389,510.36 639.864,522.016 z" id="boundary" inkscape:connector-curvature="0" />
	<path style="fill:none;stroke:red;stroke-width:1px;stroke-linecap:butt;stroke-linejoin:miter;stroke-opacity:1" d="M 611.373,439.133 620.439,449.493 z" id="boundary" inkscape:connector-curvature="0" />
	<path style="fill:none;stroke:red;stroke-width:1px;stroke-linecap:butt;stroke-linejoin:miter;stroke-opacity:1" d="M 569.932,866.496 556.982,866.496 z" id="boundary" inkscape:connector-curvature="0" />
	<path style="fill:none;stroke:red;stroke-width:1px;stroke-linecap:butt;stroke-linejoin:miter;stroke-opacity:1" d="M 633.389,454.674 620.439,449.493 z" id="boundary" inkscape:connector-curvature="0" />
	<path style="fill:none;stroke:red;stroke-width:1px;stroke-linecap:butt;stroke-linejoin:miter;stroke-opacity:1" d="M 582.883,866.496 569.932,866.496 z" id="boundary" inkscape:connector-curvature="0" />
	<path style="fill:none;stroke:red;stroke-width:1px;stroke-linecap:butt;stroke-linejoin:miter;stroke-opacity:1" d="M 595.833,866.496 608.783,866.496 z" id="boundary" inkscape:connector-curvature="0" />
	<path style="fill:none;stroke:red;stroke-width:1px;stroke-linecap:butt;stroke-linejoin:miter;stroke-opacity:1" d="M 620.439,860.021 608.783,866.496 z" id="boundary" inkscape:connector-curvature="0" />
	<path style="fill:none;stroke:red;stroke-width:1px;stroke-linecap:butt;stroke-linejoin:miter;stroke-opacity:1" d="M 595.833,866.496 582.883,866.496 z" id="boundary" inkscape:connector-curvature="0" />
	<path style="fill:none;stroke:red;stroke-width:1px;stroke-linecap:butt;stroke-linejoin:miter;stroke-opacity:1" d="M 620.439,860.021 633.389,860.021 z" id="boundary" inkscape:connector-curvature="0" />
	<path style="fill:none;stroke:red;stroke-width:1px;stroke-linecap:butt;stroke-linejoin:miter;stroke-opacity:1" d="M 633.389,454.674 642.454,465.034 z" id="boundary" inkscape:connector-curvature="0" />
	<path style="fill:none;stroke:red;stroke-width:1px;stroke-linecap:butt;stroke-linejoin:miter;stroke-opacity:1" d="M 633.389,484.46 646.339,477.984 z" id="boundary" inkscape:connector-curvature="0" />
	<path style="fill:none;stroke:red;stroke-width:1px;stroke-linecap:butt;stroke-linejoin:miter;stroke-opacity:1" d="M 633.389,497.41 633.389,484.46 z" id="boundary" inkscape:connector-curvature="0" />
	<path style="fill:none;stroke:red;stroke-width:1px;stroke-linecap:butt;stroke-linejoin:miter;stroke-opacity:1" d="M 639.864,522.016 646.339,533.671 z" id="boundary" inkscape:connector-curvature="0" />
	<path style="fill:none;stroke:red;stroke-width:1px;stroke-linecap:butt;stroke-linejoin:miter;stroke-opacity:1" d="M 645.044,853.546 633.389,860.021 z" id="boundary" inkscape:connector-curvature="0" />
	<path style="fill:none;stroke:red;stroke-width:1px;stroke-linecap:butt;stroke-linejoin:miter;stroke-opacity:1" d="M 633.389,510.36 633.389,497.41 z" id="boundary" inkscape:connector-curvature="0" />
	<path style="fill:none;stroke:red;stroke-width:1px;stroke-linecap:butt;stroke-linejoin:miter;stroke-opacity:1" d="M 645.044,853.546 657.995,849.661 z" id="boundary" inkscape:connector-curvature="0" />
	<path style="fill:none;stroke:red;stroke-width:1px;stroke-linecap:butt;stroke-linejoin:miter;stroke-opacity:1" d="M 642.454,465.034 646.339,477.984 z" id="boundary" inkscape:connector-curvature="0" />
	<path style="fill:none;stroke:red;stroke-width:1px;stroke-linecap:butt;stroke-linejoin:miter;stroke-opacity:1" d="M 646.339,270.778 659.29,264.303 z" id="boundary" inkscape:connector-curvature="0" />
	<path style="fill:none;stroke:red;stroke-width:1px;stroke-linecap:butt;stroke-linejoin:miter;stroke-opacity:1" d="M 652.815,545.326 646.339,533.671 z" id="boundary" inkscape:connector-curvature="0" />
	<path style="fill:none;stroke:red;stroke-width:1px;stroke-linecap:butt;stroke-linejoin:miter;stroke-opacity:1" d="M 678.715,244.877 689.076,235.812 z" id="boundary" inkscape:connector-curvature="0" />
	<path style="fill:none;stroke:red;stroke-width:1px;stroke-linecap:butt;stroke-linejoin:miter;stroke-opacity:1" d="M 665.765,251.352 659.29,264.303 z" id="boundary" inkscape:connector-curvature="0" />
	<path style="fill:none;stroke:red;stroke-width:1px;stroke-linecap:butt;stroke-linejoin:miter;stroke-opacity:1" d="M 657.995,558.277 652.815,545.326 z" id="boundary" inkscape:connector-curvature="0" />
	<path style="fill:none;stroke:red;stroke-width:1px;stroke-linecap:butt;stroke-linejoin:miter;stroke-opacity:1" d="M 664.47,569.932 657.995,558.277 z" id="boundary" inkscape:connector-curvature="0" />
	<path style="fill:none;stroke:red;stroke-width:1px;stroke-linecap:butt;stroke-linejoin:miter;stroke-opacity:1" d="M 664.47,569.932 665.765,582.883 z" id="boundary" inkscape:connector-curvature="0" />
	<path style="fill:none;stroke:red;stroke-width:1px;stroke-linecap:butt;stroke-linejoin:miter;stroke-opacity:1" d="M 669.65,595.833 665.765,582.883 z" id="boundary" inkscape:connector-curvature="0" />
	<path style="fill:none;stroke:red;stroke-width:1px;stroke-linecap:butt;stroke-linejoin:miter;stroke-opacity:1" d="M 665.765,251.352 678.715,244.877 z" id="boundary" inkscape:connector-curvature="0" />
	<path style="fill:none;stroke:red;stroke-width:1px;stroke-linecap:butt;stroke-linejoin:miter;stroke-opacity:1" d="M 698.141,225.452 709.796,218.977 z" id="boundary" inkscape:connector-curvature="0" />
	<path style="fill:none;stroke:red;stroke-width:1px;stroke-linecap:butt;stroke-linejoin:miter;stroke-opacity:1" d="M 689.076,235.812 698.141,225.452 z" id="boundary" inkscape:connector-curvature="0" />
	<path style="fill:none;stroke:red;stroke-width:1px;stroke-linecap:butt;stroke-linejoin:miter;stroke-opacity:1" d="M 669.65,595.833 672.24,608.783 z" id="boundary" inkscape:connector-curvature="0" />
	<path style="fill:none;stroke:red;stroke-width:1px;stroke-linecap:butt;stroke-linejoin:miter;stroke-opacity:1" d="M 678.715,620.439 672.24,608.783 z" id="boundary" inkscape:connector-curvature="0" />
	<path style="fill:none;stroke:red;stroke-width:1px;stroke-linecap:butt;stroke-linejoin:miter;stroke-opacity:1" d="M 678.715,620.439 678.715,633.389 z" id="boundary" inkscape:connector-curvature="0" />
	<path style="fill:none;stroke:red;stroke-width:1px;stroke-linecap:butt;stroke-linejoin:miter;stroke-opacity:1" d="M 678.715,633.389 678.715,646.339 z" id="boundary" inkscape:connector-curvature="0" />
	<path style="fill:none;stroke:red;stroke-width:1px;stroke-linecap:butt;stroke-linejoin:miter;stroke-opacity:1" d="M 678.715,646.339 685.191,657.995 z" id="boundary" inkscape:connector-curvature="0" />
	<path style="fill:none;stroke:red;stroke-width:1px;stroke-linecap:butt;stroke-linejoin:miter;stroke-opacity:1" d="M 685.191,657.995 685.191,670.945 z" id="boundary" inkscape:connector-curvature="0" />
	<path style="fill:none;stroke:red;stroke-width:1px;stroke-linecap:butt;stroke-linejoin:miter;stroke-opacity:1" d="M 685.191,670.945 685.191,683.896 z" id="boundary" inkscape:connector-curvature="0" />
	<path style="fill:none;stroke:red;stroke-width:1px;stroke-linecap:butt;stroke-linejoin:miter;stroke-opacity:1" d="M 691.666,695.551 685.191,683.896 z" id="boundary" inkscape:connector-curvature="0" />
	<path style="fill:none;stroke:red;stroke-width:1px;stroke-linecap:butt;stroke-linejoin:miter;stroke-opacity:1" d="M 668.355,839.3 657.995,849.661 z" id="boundary" inkscape:connector-curvature="0" />
	<path style="fill:none;stroke:red;stroke-width:1px;stroke-linecap:butt;stroke-linejoin:miter;stroke-opacity:1" d="M 678.715,821.17 685.191,801.744 z" id="boundary" inkscape:connector-curvature="0" />
	<path style="fill:none;stroke:red;stroke-width:1px;stroke-linecap:butt;stroke-linejoin:miter;stroke-opacity:1" d="M 685.191,801.744 691.666,786.204 z" id="boundary" inkscape:connector-curvature="0" />
	<path style="fill:none;stroke:red;stroke-width:1px;stroke-linecap:butt;stroke-linejoin:miter;stroke-opacity:1" d="M 678.715,821.17 668.355,839.3 z" id="boundary" inkscape:connector-curvature="0" />
	<path style="fill:none;stroke:red;stroke-width:1px;stroke-linecap:butt;stroke-linejoin:miter;stroke-opacity:1" d="M 691.666,734.402 691.666,747.352 z" id="boundary" inkscape:connector-curvature="0" />
	<path style="fill:none;stroke:red;stroke-width:1px;stroke-linecap:butt;stroke-linejoin:miter;stroke-opacity:1" d="M 691.666,695.551 691.666,708.501 z" id="boundary" inkscape:connector-curvature="0" />
	<path style="fill:none;stroke:red;stroke-width:1px;stroke-linecap:butt;stroke-linejoin:miter;stroke-opacity:1" d="M 691.666,721.452 691.666,734.402 z" id="boundary" inkscape:connector-curvature="0" />
	<path style="fill:none;stroke:red;stroke-width:1px;stroke-linecap:butt;stroke-linejoin:miter;stroke-opacity:1" d="M 691.666,721.452 691.666,708.501 z" id="boundary" inkscape:connector-curvature="0" />
	<path style="fill:none;stroke:red;stroke-width:1px;stroke-linecap:butt;stroke-linejoin:miter;stroke-opacity:1" d="M 691.666,773.253 691.666,786.204 z" id="boundary" inkscape:connector-curvature="0" />
	<path style="fill:none;stroke:red;stroke-width:1px;stroke-linecap:butt;stroke-linejoin:miter;stroke-opacity:1" d="M 691.666,773.253 691.666,760.303 z" id="boundary" inkscape:connector-curvature="0" />
	<path style="fill:none;stroke:red;stroke-width:1px;stroke-linecap:butt;stroke-linejoin:miter;stroke-opacity:1" d="M 691.666,760.303 691.666,747.352 z" id="boundary" inkscape:connector-curvature="0" />
	<circle cx="4" cy="331.645" r="4" fill="#0" id="circle0"/>
	<circle cx="4" cy="344.595" r="4" fill="#0" id="circle1"/>
	<circle cx="4" cy="357.546" r="4" fill="#0" id="circle2"/>
	<circle cx="4" cy="370.496" r="4" fill="#0" id="circle3"/>
	<circle cx="4" cy="383.446" r="4" fill="#0" id="circle4"/>
	<circle cx="4" cy="396.397" r="4" fill="#0" id="circle5"/>
	<circle cx="4" cy="409.347" r="4" fill="#0" id="circle6"/>
	<circle cx="4" cy="422.298" r="4" fill="#0" id="circle7"/>
	<circle cx="10.4752" cy="433.953" r="4" fill="#0" id="circle8"/>
	<circle cx="10.4752" cy="446.903" r="4" fill="#0" id="circle9"/>
	<circle cx="10.4752" cy="459.854" r="4" fill="#0" id="circle10"/>
	<circle cx="14.3603" cy="321.285" r="4" fill="#0" id="circle11"/>
	<circle cx="16.9504" cy="305.744" r="4" fill="#0" id="circle12"/>
	<circle cx="16.9504" cy="471.509" r="4" fill="#0" id="circle13"/>
	<circle cx="16.9504" cy="484.46" r="4" fill="#0" id="circle14"/>
	<circle cx="16.9504" cy="497.41" r="4" fill="#0" id="circle15"/>
	<circle cx="20.8355" cy="510.36" r="4" fill="#0" id="circle16"/>
	<circle cx="23.4256" cy="523.311" r="4" fill="#0" id="circle17"/>
	<circle cx="29.9008" cy="299.269" r="4" fill="#0" id="circle18"/>
	<circle cx="29.9008" cy="534.966" r="4" fill="#0" id="circle19"/>
	<circle cx="29.9008" cy="547.916" r="4" fill="#0" id="circle20"/>
	<circle cx="29.9008" cy="560.867" r="4" fill="#0" id="circle21"/>
	<circle cx="36.376" cy="572.522" r="4" fill="#0" id="circle22"/>
	<circle cx="37.671" cy="585.473" r="4" fill="#0" id="circle23"/>
	<circle cx="40.2611" cy="288.909" r="4" fill="#0" id="circle24"/>
	<circle cx="42.8512" cy="598.423" r="4" fill="#0" id="circle25"/>
	<circle cx="42.8512" cy="611.373" r="4" fill="#0" id="circle26"/>
	<circle cx="42.8512" cy="624.324" r="4" fill="#0" id="circle27"/>
	<circle cx="49.3264" cy="635.979" r="4" fill="#0" id="circle28"/>
	<circle cx="49.3264" cy="648.93" r="4" fill="#0" id="circle29"/>
	<circle cx="49.3264" cy="661.88" r="4" fill="#0" id="circle30"/>
	<circle cx="49.3264" cy="674.83" r="4" fill="#0" id="circle31"/>
	<circle cx="49.3264" cy="687.781" r="4" fill="#0" id="circle32"/>
	<circle cx="49.3264" cy="700.731" r="4" fill="#0" id="circle33"/>
	<circle cx="49.3264" cy="713.681" r="4" fill="#0" id="circle34"/>
	<circle cx="53.2115" cy="282.433" r="4" fill="#0" id="circle35"/>
	<circle cx="55.8016" cy="725.337" r="4" fill="#0" id="circle36"/>
	<circle cx="55.8016" cy="738.287" r="4" fill="#0" id="circle37"/>
	<circle cx="62.2768" cy="749.943" r="4" fill="#0" id="circle38"/>
	<circle cx="62.2768" cy="762.893" r="4" fill="#0" id="circle39"/>
	<circle cx="62.2768" cy="775.843" r="4" fill="#0" id="circle40"/>
	<circle cx="66.1619" cy="282.433" r="4" fill="#0" id="circle41"/>
	<circle cx="68.752" cy="787.499" r="4" fill="#0" id="circle42"/>
	<circle cx="75.2272" cy="799.154" r="4" fill="#0" id="circle43"/>
	<circle cx="79.1123" cy="275.958" r="4" fill="#0" id="circle44"/>
	<circle cx="81.7023" cy="810.809" r="4" fill="#0" id="circle45"/>
	<circle cx="81.7023" cy="823.76" r="4" fill="#0" id="circle46"/>
	<circle cx="88.1775" cy="835.415" r="4" fill="#0" id="circle47"/>
	<circle cx="88.1775" cy="848.366" r="4" fill="#0" id="circle48"/>
	<circle cx="88.1775" cy="861.316" r="4" fill="#0" id="circle49"/>
	<circle cx="88.1775" cy="874.266" r="4" fill="#0" id="circle50"/>
	<circle cx="88.1775" cy="887.217" r="4" fill="#0" id="circle51"/>
	<circle cx="88.1775" cy="900.167" r="4" fill="#0" id="circle52"/>
	<circle cx="92.0627" cy="275.958" r="4" fill="#0" id="circle53"/>
	<circle cx="97.2428" cy="910.527" r="4" fill="#0" id="circle54"/>
	<circle cx="105.013" cy="275.958" r="4" fill="#0" id="circle55"/>
	<circle cx="110.193" cy="911.822" r="4" fill="#0" id="circle56"/>
	<circle cx="117.963" cy="275.958" r="4" fill="#0" id="circle57"/>
	<circle cx="121.849" cy="905.347" r="4" fill="#0" id="circle58"/>
	<circle cx="130.914" cy="275.958" r="4" fill="#0" id="circle59"/>
	<circle cx="134.799" cy="898.872" r="4" fill="#0" id="circle60"/>
	<circle cx="142.569" cy="269.483" r="4" fill="#0" id="circle61"/>
	<circle cx="147.749" cy="892.397" r="4" fill="#0" id="circle62"/>
	<circle cx="155.52" cy="269.483" r="4" fill="#0" id="circle63"/>
	<circle cx="160.7" cy="892.397" r="4" fill="#0" id="circle64"/>
	<circle cx="168.47" cy="269.483" r="4" fill="#0" id="circle65"/>
	<circle cx="173.65" cy="885.922" r="4" fill="#0" id="circle66"/>
	<circle cx="181.42" cy="269.483" r="4" fill="#0" id="circle67"/>
	<circle cx="186.601" cy="885.922" r="4" fill="#0" id="circle68"/>
	<circle cx="193.076" cy="263.008" r="4" fill="#0" id="circle69"/>
	<circle cx="199.551" cy="888.512" r="4" fill="#0" id="circle70"/>
	<circle cx="206.026" cy="263.008" r="4" fill="#0" id="circle71"/>
	<circle cx="212.501" cy="892.397" r="4" fill="#0" id="circle72"/>
	<circle cx="218.977" cy="259.123" r="4" fill="#0" id="circle73"/>
	<circle cx="225.452" cy="892.397" r="4" fill="#0" id="circle74"/>
	<circle cx="231.927" cy="256.533" r="4" fill="#0" id="circle75"/>
	<circle cx="237.107" cy="898.872" r="4" fill="#0" id="circle76"/>
	<circle cx="244.877" cy="256.533" r="4" fill="#0" id="circle77"/>
	<circle cx="250.057" cy="898.872" r="4" fill="#0" id="circle78"/>
	<circle cx="257.828" cy="260.418" r="4" fill="#0" id="circle79"/>
	<circle cx="263.008" cy="898.872" r="4" fill="#0" id="circle80"/>
	<circle cx="270.778" cy="263.008" r="4" fill="#0" id="circle81"/>
	<circle cx="275.958" cy="898.872" r="4" fill="#0" id="circle82"/>
	<circle cx="283.728" cy="263.008" r="4" fill="#0" id="circle83"/>
	<circle cx="287.614" cy="892.397" r="4" fill="#0" id="circle84"/>
	<circle cx="295.384" cy="269.483" r="4" fill="#0" id="circle85"/>
	<circle cx="300.564" cy="892.397" r="4" fill="#0" id="circle86"/>
	<circle cx="308.334" cy="269.483" r="4" fill="#0" id="circle87"/>
	<circle cx="313.514" cy="892.397" r="4" fill="#0" id="circle88"/>
	<circle cx="321.285" cy="269.483" r="4" fill="#0" id="circle89"/>
	<circle cx="326.465" cy="889.807" r="4" fill="#0" id="circle90"/>
	<circle cx="334.235" cy="272.073" r="4" fill="#0" id="circle91"/>
	<circle cx="339.415" cy="885.922" r="4" fill="#0" id="circle92"/>
	<circle cx="347.185" cy="275.958" r="4" fill="#0" id="circle93"/>
	<circle cx="352.366" cy="885.922" r="4" fill="#0" id="circle94"/>
	<circle cx="360.136" cy="273.368" r="4" fill="#0" id="circle95"/>
	<circle cx="365.316" cy="885.922" r="4" fill="#0" id="circle96"/>
	<circle cx="366.611" cy="253.943" r="4" fill="#0" id="circle97"/>
	<circle cx="378.266" cy="885.922" r="4" fill="#0" id="circle98"/>
	<circle cx="379.561" cy="247.467" r="4" fill="#0" id="circle99"/>
	<circle cx="389.922" cy="879.446" r="4" fill="#0" id="circle100"/>
	<circle cx="392.512" cy="250.057" r="4" fill="#0" id="circle101"/>
	<circle cx="400.282" cy="260.418" r="4" fill="#0" id="circle102"/>
	<circle cx="402.872" cy="878.151" r="4" fill="#0" id="circle103"/>
	<circle cx="410.642" cy="269.483" r="4" fill="#0" id="circle104"/>
	<circle cx="415.822" cy="872.971" r="4" fill="#0" id="circle105"/>
	<circle cx="423.593" cy="269.483" r="4" fill="#0" id="circle106"/>
	<circle cx="427.478" cy="866.496" r="4" fill="#0" id="circle107"/>
	<circle cx="432.658" cy="259.123" r="4" fill="#0" id="circle108"/>
	<circle cx="440.428" cy="866.496" r="4" fill="#0" id="circle109"/>
	<circle cx="443.018" cy="250.057" r="4" fill="#0" id="circle110"/>
	<circle cx="453.379" cy="866.496" r="4" fill="#0" id="circle111"/>
	<circle cx="455.969" cy="250.057" r="4" fill="#0" id="circle112"/>
	<circle cx="466.329" cy="866.496" r="4" fill="#0" id="circle113"/>
	<circle cx="468.919" cy="250.057" r="4" fill="#0" id="circle114"/>
	<circle cx="479.279" cy="866.496" r="4" fill="#0" id="circle115"/>
	<circle cx="480.574" cy="243.582" r="4" fill="#0" id="circle116"/>
	<circle cx="492.23" cy="866.496" r="4" fill="#0" id="circle117"/>
	<circle cx="493.525" cy="243.582" r="4" fill="#0" id="circle118"/>
	<circle cx="505.18" cy="866.496" r="4" fill="#0" id="circle119"/>
	<circle cx="506.475" cy="243.582" r="4" fill="#0" id="circle120"/>
	<circle cx="518.131" cy="250.057" r="4" fill="#0" id="circle121"/>
	<circle cx="518.131" cy="866.496" r="4" fill="#0" id="circle122"/>
	<circle cx="531.081" cy="250.057" r="4" fill="#0" id="circle123"/>
	<circle cx="531.081" cy="866.496" r="4" fill="#0" id="circle124"/>
	<circle cx="542.736" cy="243.582" r="4" fill="#0" id="circle125"/>
	<circle cx="544.031" cy="866.496" r="4" fill="#0" id="circle126"/>
	<circle cx="554.392" cy="234.517" r="4" fill="#0" id="circle127"/>
	<circle cx="556.982" cy="866.496" r="4" fill="#0" id="circle128"/>
	<circle cx="560.867" cy="221.567" r="4" fill="#0" id="circle129"/>
	<circle cx="569.932" cy="866.496" r="4" fill="#0" id="circle130"/>
	<circle cx="573.817" cy="217.681" r="4" fill="#0" id="circle131"/>
	<circle cx="582.883" cy="866.496" r="4" fill="#0" id="circle132"/>
	<circle cx="585.473" cy="211.206" r="4" fill="#0" id="circle133"/>
	<circle cx="594.538" cy="393.807" r="4" fill="#0" id="circle134"/>
	<circle cx="594.538" cy="406.757" r="4" fill="#0" id="circle135"/>
	<circle cx="594.538" cy="419.708" r="4" fill="#0" id="circle136"/>
	<circle cx="595.833" cy="866.496" r="4" fill="#0" id="circle137"/>
	<circle cx="597.128" cy="204.731" r="4" fill="#0" id="circle138"/>
	<circle cx="601.013" cy="322.58" r="4" fill="#0" id="circle139"/>
	<circle cx="601.013" cy="335.53" r="4" fill="#0" id="circle140"/>
	<circle cx="601.013" cy="348.48" r="4" fill="#0" id="circle141"/>
	<circle cx="601.013" cy="361.431" r="4" fill="#0" id="circle142"/>
	<circle cx="601.013" cy="374.381" r="4" fill="#0" id="circle143"/>
	<circle cx="601.013" cy="431.363" r="4" fill="#0" id="circle144"/>
	<circle cx="608.783" cy="198.256" r="4" fill="#0" id="circle145"/>
	<circle cx="608.783" cy="866.496" r="4" fill="#0" id="circle146"/>
	<circle cx="611.373" cy="439.133" r="4" fill="#0" id="circle147"/>
	<circle cx="613.963" cy="303.154" r="4" fill="#0" id="circle148"/>
	<circle cx="613.963" cy="316.104" r="4" fill="#0" id="circle149"/>
	<circle cx="619.144" cy="189.191" r="4" fill="#0" id="circle150"/>
	<circle cx="620.439" cy="449.493" r="4" fill="#0" id="circle151"/>
	<circle cx="620.439" cy="860.021" r="4" fill="#0" id="circle152"/>
	<circle cx="626.914" cy="296.679" r="4" fill="#0" id="circle153"/>
	<circle cx="632.094" cy="182.715" r="4" fill="#0" id="circle154"/>
	<circle cx="633.389" cy="283.728" r="4" fill="#0" id="circle155"/>
	<circle cx="633.389" cy="454.674" r="4" fill="#0" id="circle156"/>
	<circle cx="633.389" cy="484.46" r="4" fill="#0" id="circle157"/>
	<circle cx="633.389" cy="497.41" r="4" fill="#0" id="circle158"/>
	<circle cx="633.389" cy="510.36" r="4" fill="#0" id="circle159"/>
	<circle cx="633.389" cy="860.021" r="4" fill="#0" id="circle160"/>
	<circle cx="639.864" cy="522.016" r="4" fill="#0" id="circle161"/>
	<circle cx="642.454" cy="172.355" r="4" fill="#0" id="circle162"/>
	<circle cx="642.454" cy="465.034" r="4" fill="#0" id="circle163"/>
	<circle cx="645.044" cy="853.546" r="4" fill="#0" id="circle164"/>
	<circle cx="646.339" cy="270.778" r="4" fill="#0" id="circle165"/>
	<circle cx="646.339" cy="477.984" r="4" fill="#0" id="circle166"/>
	<circle cx="646.339" cy="533.671" r="4" fill="#0" id="circle167"/>
	<circle cx="652.815" cy="545.326" r="4" fill="#0" id="circle168"/>
	<circle cx="654.11" cy="165.88" r="4" fill="#0" id="circle169"/>
	<circle cx="657.995" cy="558.277" r="4" fill="#0" id="circle170"/>
	<circle cx="657.995" cy="849.661" r="4" fill="#0" id="circle171"/>
	<circle cx="659.29" cy="264.303" r="4" fill="#0" id="circle172"/>
	<circle cx="664.47" cy="569.932" r="4" fill="#0" id="circle173"/>
	<circle cx="665.765" cy="251.352" r="4" fill="#0" id="circle174"/>
	<circle cx="665.765" cy="582.883" r="4" fill="#0" id="circle175"/>
	<circle cx="667.06" cy="160.7" r="4" fill="#0" id="circle176"/>
	<circle cx="668.355" cy="839.3" r="4" fill="#0" id="circle177"/>
	<circle cx="669.65" cy="595.833" r="4" fill="#0" id="circle178"/>
	<circle cx="672.24" cy="608.783" r="4" fill="#0" id="circle179"/>
	<circle cx="677.42" cy="150.339" r="4" fill="#0" id="circle180"/>
	<circle cx="678.715" cy="244.877" r="4" fill="#0" id="circle181"/>
	<circle cx="678.715" cy="620.439" r="4" fill="#0" id="circle182"/>
	<circle cx="678.715" cy="633.389" r="4" fill="#0" id="circle183"/>
	<circle cx="678.715" cy="646.339" r="4" fill="#0" id="circle184"/>
	<circle cx="678.715" cy="821.17" r="4" fill="#0" id="circle185"/>
	<circle cx="685.191" cy="657.995" r="4" fill="#0" id="circle186"/>
	<circle cx="685.191" cy="670.945" r="4" fill="#0" id="circle187"/>
	<circle cx="685.191" cy="683.896" r="4" fill="#0" id="circle188"/>
	<circle cx="685.191" cy="801.744" r="4" fill="#0" id="circle189"/>
	<circle cx="689.076" cy="235.812" r="4" fill="#0" id="circle190"/>
	<circle cx="690.371" cy="143.864" r="4" fill="#0" id="circle191"/>
	<circle cx="691.666" cy="695.551" r="4" fill="#0" id="circle192"/>
	<circle cx="691.666" cy="708.501" r="4" fill="#0" id="circle193"/>
	<circle cx="691.666" cy="721.452" r="4" fill="#0" id="circle194"/>
	<circle cx="691.666" cy="734.402" r="4" fill="#0" id="circle195"/>
	<circle cx="691.666" cy="747.352" r="4" fill="#0" id="circle196"/>
	<circle cx="691.666" cy="760.303" r="4" fill="#0" id="circle197"/>
	<circle cx="691.666" cy="773.253" r="4" fill="#0" id="circle198"/>
	<circle cx="691.666" cy="786.204" r="4" fill="#0" id="circle199"/>
	<circle cx="698.141" cy="225.452" r="4" fill="#0" id="circle200"/>
	<circle cx="700.731" cy="133.504" r="4" fill="#0" id="circle201"/>
	<circle cx="709.796" cy="218.977" r="4" fill="#0" id="circle202"/>
	<circle cx="713.681" cy="133.504" r="4" fill="#0" id="circle203"/>
	<circle cx="720.157" cy="211.206" r="4" fill="#0" id="circle204"/>
	<circle cx="724.042" cy="123.144" r="4" fill="#0" id="circle205"/>
	<circle cx="730.517" cy="199.551" r="4" fill="#0" id="circle206"/>
	<circle cx="736.992" cy="116.668" r="4" fill="#0" id="circle207"/>
	<circle cx="742.172" cy="193.076" r="4" fill="#0" id="circle208"/>
	<circle cx="749.943" cy="110.193" r="4" fill="#0" id="circle209"/>
	<circle cx="752.533" cy="185.305" r="4" fill="#0" id="circle210"/>
	<circle cx="760.303" cy="101.128" r="4" fill="#0" id="circle211"/>
	<circle cx="762.893" cy="173.65" r="4" fill="#0" id="circle212"/>
	<circle cx="773.253" cy="101.128" r="4" fill="#0" id="circle213"/>
	<circle cx="774.548" cy="167.175" r="4" fill="#0" id="circle214"/>
	<circle cx="782.319" cy="90.7676" r="4" fill="#0" id="circle215"/>
	<circle cx="784.909" cy="159.405" r="4" fill="#0" id="circle216"/>
	<circle cx="795.269" cy="88.1775" r="4" fill="#0" id="circle217"/>
	<circle cx="795.269" cy="147.749" r="4" fill="#0" id="circle218"/>
	<circle cx="806.924" cy="141.274" r="4" fill="#0" id="circle219"/>
	<circle cx="808.219" cy="88.1775" r="4" fill="#0" id="circle220"/>
	<circle cx="818.58" cy="134.799" r="4" fill="#0" id="circle221"/>
	<circle cx="819.875" cy="79.1123" r="4" fill="#0" id="circle222"/>
	<circle cx="830.235" cy="127.029" r="4" fill="#0" id="circle223"/>
	<circle cx="832.825" cy="72.6371" r="4" fill="#0" id="circle224"/>
	<circle cx="843.185" cy="121.849" r="4" fill="#0" id="circle225"/>
	<circle cx="845.775" cy="68.752" r="4" fill="#0" id="circle226"/>
	<circle cx="854.841" cy="115.373" r="4" fill="#0" id="circle227"/>
	<circle cx="858.726" cy="68.752" r="4" fill="#0" id="circle228"/>
	<circle cx="866.496" cy="108.898" r="4" fill="#0" id="circle229"/>
	<circle cx="870.381" cy="62.2768" r="4" fill="#0" id="circle230"/>
	<circle cx="879.446" cy="108.898" r="4" fill="#0" id="circle231"/>
	<circle cx="883.332" cy="62.2768" r="4" fill="#0" id="circle232"/>
	<circle cx="892.397" cy="108.898" r="4" fill="#0" id="circle233"/>
	<circle cx="894.987" cy="55.8016" r="4" fill="#0" id="circle234"/>
	<circle cx="905.347" cy="102.423" r="4" fill="#0" id="circle235"/>
	<circle cx="906.642" cy="49.3264" r="4" fill="#0" id="circle236"/>
	<circle cx="911.822" cy="89.4726" r="4" fill="#0" id="circle237"/>
	<circle cx="918.298" cy="42.8512" r="4" fill="#0" id="circle238"/>
	<circle cx="918.298" cy="76.5222" r="4" fill="#0" id="circle239"/>
	<circle cx="929.953" cy="36.376" r="4" fill="#0" id="circle240"/>
	<circle cx="929.953" cy="70.047" r="4" fill="#0" id="circle241"/>
	<circle cx="940.313" cy="62.2768" r="4" fill="#0" id="circle242"/>
	<circle cx="941.608" cy="29.9008" r="4" fill="#0" id="circle243"/>
	<circle cx="950.674" cy="19.5405" r="4" fill="#0" id="circle244"/>
	<circle cx="950.674" cy="50.6214" r="4" fill="#0" id="circle245"/>
	<circle cx="963.624" cy="13.0653" r="4" fill="#0" id="circle246"/>
	<circle cx="963.624" cy="50.6214" r="4" fill="#0" id="circle247"/>
	<circle cx="973.984" cy="4" r="4" fill="#0" id="circle248"/>
	<circle cx="976.574" cy="50.6214" r="4" fill="#0" id="circle249"/>
	<circle cx="983.05" cy="37.671" r="4" fill="#0" id="circle250"/>
	<circle cx="986.935" cy="4" r="4" fill="#0" id="circle251"/>
	<circle cx="996" cy="14.3603" r="4" fill="#0" id="circle252"/>
	<circle cx="996" cy="27.3107" r="4" fill="#0" id="circle253"/>
	</g>
</svg>