<?xml version="1.0" encoding="UTF-8" standalone="no"?>
<!-- Created with CurveBenchmark -->
<svg
	xmlns:dc="http://purl.org/dc/elements/1.1/"
	xmlns:cc="http://creativecommons.org/ns#"
	xmlns:rdf="http://www.w3.org/1999/02/22-rdf-syntax-ns#"
	xmlns:svg="http://www.w3.org/2000/svg"
	xmlns="http://www.w3.org/2000/svg"
	xmlns:sodipodi="http://sodipodi.sourceforge.net/DTD/sodipodi-0.dtd"
	xmlns:inkscape="http://www.inkscape.org/namespaces/inkscape"
	width="1000"
	height="1000"
	id="svg2"
	version="1.1"
	sodipodi:docname="manifold/nncrust-brick10.png.txt">
<defs
	id="defs4" />
<metadata
	id="metadata7">
	<rdf:RDF>
		<cc:Work
			rdf:about="">
			<dc:format>image/svg+xml</dc:format>
			<dc:type
				rdf:resource="http://purl.org/dc/dcmitype/StillImage" />
			<dc:title></dc:title>
		</cc:Work>
	</rdf:RDF>
</metadata>
<g
	inkscape:label="Layer 1"
	inkscape:groupmode="layer"
	id="layer1">
	<path style="fill:none;stroke:red;stroke-width:1px;stroke-linecap:butt;stroke-linejoin:miter;stroke-opacity:1" d="M 116.302,45.1774 106.943,28.3321 z" id="boundary" inkscape:connector-curvature="0" />
	<path style="fill:none;stroke:red;stroke-width:1px;stroke-linecap:butt;stroke-linejoin:miter;stroke-opacity:1" d="M 106.943,9.61509 106.943,28.3321 z" id="boundary" inkscape:connector-curvature="0" />
	<path style="fill:none;stroke:red;stroke-width:1px;stroke-linecap:butt;stroke-linejoin:miter;stroke-opacity:1" d="M 106.943,9.61509 125.66,4 z" id="boundary" inkscape:connector-curvature="0" />
	<path style="fill:none;stroke:red;stroke-width:1px;stroke-linecap:butt;stroke-linejoin:miter;stroke-opacity:1" d="M 125.66,4 144.377,4 z" id="boundary" inkscape:connector-curvature="0" />
	<path style="fill:none;stroke:red;stroke-width:1px;stroke-linecap:butt;stroke-linejoin:miter;stroke-opacity:1" d="M 163.094,4 181.811,4 z" id="boundary" inkscape:connector-curvature="0" />
	<path style="fill:none;stroke:red;stroke-width:1px;stroke-linecap:butt;stroke-linejoin:miter;stroke-opacity:1" d="M 181.811,4 200.528,4 z" id="boundary" inkscape:connector-curvature="0" />
	<path style="fill:none;stroke:red;stroke-width:1px;stroke-linecap:butt;stroke-linejoin:miter;stroke-opacity:1" d="M 144.377,4 163.094,4 z" id="boundary" inkscape:connector-curvature="0" />
	<path style="fill:none;stroke:red;stroke-width:1px;stroke-linecap:butt;stroke-linejoin:miter;stroke-opacity:1" d="M 80.7396,129.404 99.4566,120.045 z" id="boundary" inkscape:connector-curvature="0" />
	<path style="fill:none;stroke:red;stroke-width:1px;stroke-linecap:butt;stroke-linejoin:miter;stroke-opacity:1" d="M 67.6377,144.377 80.7396,129.404 z" id="boundary" inkscape:connector-curvature="0" />
	<path style="fill:none;stroke:red;stroke-width:1px;stroke-linecap:butt;stroke-linejoin:miter;stroke-opacity:1" d="M 52.6642,157.479 67.6377,144.377 z" id="boundary" inkscape:connector-curvature="0" />
	<path style="fill:none;stroke:red;stroke-width:1px;stroke-linecap:butt;stroke-linejoin:miter;stroke-opacity:1" d="M 116.302,45.1774 125.66,62.0226 z" id="boundary" inkscape:connector-curvature="0" />
	<path style="fill:none;stroke:red;stroke-width:1px;stroke-linecap:butt;stroke-linejoin:miter;stroke-opacity:1" d="M 125.66,62.0226 125.66,80.7396 z" id="boundary" inkscape:connector-curvature="0" />
	<path style="fill:none;stroke:red;stroke-width:1px;stroke-linecap:butt;stroke-linejoin:miter;stroke-opacity:1" d="M 114.43,106.943 125.66,80.7396 z" id="boundary" inkscape:connector-curvature="0" />
	<path style="fill:none;stroke:red;stroke-width:1px;stroke-linecap:butt;stroke-linejoin:miter;stroke-opacity:1" d="M 114.43,106.943 99.4566,120.045 z" id="boundary" inkscape:connector-curvature="0" />
	<path style="fill:none;stroke:red;stroke-width:1px;stroke-linecap:butt;stroke-linejoin:miter;stroke-opacity:1" d="M 200.528,4 219.245,7.7434 z" id="boundary" inkscape:connector-curvature="0" />
	<path style="fill:none;stroke:red;stroke-width:1px;stroke-linecap:butt;stroke-linejoin:miter;stroke-opacity:1" d="M 219.245,7.7434 236.091,17.1019 z" id="boundary" inkscape:connector-curvature="0" />
	<path style="fill:none;stroke:red;stroke-width:1px;stroke-linecap:butt;stroke-linejoin:miter;stroke-opacity:1" d="M 427.004,45.1774 408.287,50.7925 z" id="boundary" inkscape:connector-curvature="0" />
	<path style="fill:none;stroke:red;stroke-width:1px;stroke-linecap:butt;stroke-linejoin:miter;stroke-opacity:1" d="M 271.653,33.9472 254.808,24.5887 z" id="boundary" inkscape:connector-curvature="0" />
	<path style="fill:none;stroke:red;stroke-width:1px;stroke-linecap:butt;stroke-linejoin:miter;stroke-opacity:1" d="M 254.808,24.5887 236.091,17.1019 z" id="boundary" inkscape:connector-curvature="0" />
	<path style="fill:none;stroke:red;stroke-width:1px;stroke-linecap:butt;stroke-linejoin:miter;stroke-opacity:1" d="M 271.653,33.9472 286.626,47.0491 z" id="boundary" inkscape:connector-curvature="0" />
	<path style="fill:none;stroke:red;stroke-width:1px;stroke-linecap:butt;stroke-linejoin:miter;stroke-opacity:1" d="M 483.155,32.0755 501.872,32.0755 z" id="boundary" inkscape:connector-curvature="0" />
	<path style="fill:none;stroke:red;stroke-width:1px;stroke-linecap:butt;stroke-linejoin:miter;stroke-opacity:1" d="M 464.438,35.8189 483.155,32.0755 z" id="boundary" inkscape:connector-curvature="0" />
	<path style="fill:none;stroke:red;stroke-width:1px;stroke-linecap:butt;stroke-linejoin:miter;stroke-opacity:1" d="M 445.721,41.434 464.438,35.8189 z" id="boundary" inkscape:connector-curvature="0" />
	<path style="fill:none;stroke:red;stroke-width:1px;stroke-linecap:butt;stroke-linejoin:miter;stroke-opacity:1" d="M 445.721,41.434 427.004,45.1774 z" id="boundary" inkscape:connector-curvature="0" />
	<path style="fill:none;stroke:red;stroke-width:1px;stroke-linecap:butt;stroke-linejoin:miter;stroke-opacity:1" d="M 286.626,47.0491 301.6,60.1509 z" id="boundary" inkscape:connector-curvature="0" />
	<path style="fill:none;stroke:red;stroke-width:1px;stroke-linecap:butt;stroke-linejoin:miter;stroke-opacity:1" d="M 301.6,60.1509 318.445,69.5094 z" id="boundary" inkscape:connector-curvature="0" />
	<path style="fill:none;stroke:red;stroke-width:1px;stroke-linecap:butt;stroke-linejoin:miter;stroke-opacity:1" d="M 337.162,69.5094 318.445,69.5094 z" id="boundary" inkscape:connector-curvature="0" />
	<path style="fill:none;stroke:red;stroke-width:1px;stroke-linecap:butt;stroke-linejoin:miter;stroke-opacity:1" d="M 408.287,50.7925 391.442,60.1509 z" id="boundary" inkscape:connector-curvature="0" />
	<path style="fill:none;stroke:red;stroke-width:1px;stroke-linecap:butt;stroke-linejoin:miter;stroke-opacity:1" d="M 391.442,60.1509 372.725,60.1509 z" id="boundary" inkscape:connector-curvature="0" />
	<path style="fill:none;stroke:red;stroke-width:1px;stroke-linecap:butt;stroke-linejoin:miter;stroke-opacity:1" d="M 355.879,69.5094 372.725,60.1509 z" id="boundary" inkscape:connector-curvature="0" />
	<path style="fill:none;stroke:red;stroke-width:1px;stroke-linecap:butt;stroke-linejoin:miter;stroke-opacity:1" d="M 355.879,69.5094 337.162,69.5094 z" id="boundary" inkscape:connector-curvature="0" />
	<path style="fill:none;stroke:red;stroke-width:1px;stroke-linecap:butt;stroke-linejoin:miter;stroke-opacity:1" d="M 4,196.785 18.9736,181.811 z" id="boundary" inkscape:connector-curvature="0" />
	<path style="fill:none;stroke:red;stroke-width:1px;stroke-linecap:butt;stroke-linejoin:miter;stroke-opacity:1" d="M 4,215.502 18.9736,228.604 z" id="boundary" inkscape:connector-curvature="0" />
	<path style="fill:none;stroke:red;stroke-width:1px;stroke-linecap:butt;stroke-linejoin:miter;stroke-opacity:1" d="M 18.9736,228.604 26.4604,247.321 z" id="boundary" inkscape:connector-curvature="0" />
	<path style="fill:none;stroke:red;stroke-width:1px;stroke-linecap:butt;stroke-linejoin:miter;stroke-opacity:1" d="M 4,215.502 4,196.785 z" id="boundary" inkscape:connector-curvature="0" />
	<path style="fill:none;stroke:red;stroke-width:1px;stroke-linecap:butt;stroke-linejoin:miter;stroke-opacity:1" d="M 18.9736,181.811 37.6906,172.453 z" id="boundary" inkscape:connector-curvature="0" />
	<path style="fill:none;stroke:red;stroke-width:1px;stroke-linecap:butt;stroke-linejoin:miter;stroke-opacity:1" d="M 50.7925,277.268 35.8189,264.166 z" id="boundary" inkscape:connector-curvature="0" />
	<path style="fill:none;stroke:red;stroke-width:1px;stroke-linecap:butt;stroke-linejoin:miter;stroke-opacity:1" d="M 35.8189,264.166 26.4604,247.321 z" id="boundary" inkscape:connector-curvature="0" />
	<path style="fill:none;stroke:red;stroke-width:1px;stroke-linecap:butt;stroke-linejoin:miter;stroke-opacity:1" d="M 67.6377,286.626 50.7925,277.268 z" id="boundary" inkscape:connector-curvature="0" />
	<path style="fill:none;stroke:red;stroke-width:1px;stroke-linecap:butt;stroke-linejoin:miter;stroke-opacity:1" d="M 52.6642,157.479 37.6906,172.453 z" id="boundary" inkscape:connector-curvature="0" />
	<path style="fill:none;stroke:red;stroke-width:1px;stroke-linecap:butt;stroke-linejoin:miter;stroke-opacity:1" d="M 121.917,286.626 103.2,294.113 z" id="boundary" inkscape:connector-curvature="0" />
	<path style="fill:none;stroke:red;stroke-width:1px;stroke-linecap:butt;stroke-linejoin:miter;stroke-opacity:1" d="M 84.483,295.985 103.2,294.113 z" id="boundary" inkscape:connector-curvature="0" />
	<path style="fill:none;stroke:red;stroke-width:1px;stroke-linecap:butt;stroke-linejoin:miter;stroke-opacity:1" d="M 84.483,295.985 67.6377,286.626 z" id="boundary" inkscape:connector-curvature="0" />
	<path style="fill:none;stroke:red;stroke-width:1px;stroke-linecap:butt;stroke-linejoin:miter;stroke-opacity:1" d="M 121.917,286.626 140.634,286.626 z" id="boundary" inkscape:connector-curvature="0" />
	<path style="fill:none;stroke:red;stroke-width:1px;stroke-linecap:butt;stroke-linejoin:miter;stroke-opacity:1" d="M 178.068,277.268 196.785,277.268 z" id="boundary" inkscape:connector-curvature="0" />
	<path style="fill:none;stroke:red;stroke-width:1px;stroke-linecap:butt;stroke-linejoin:miter;stroke-opacity:1" d="M 159.351,284.755 178.068,277.268 z" id="boundary" inkscape:connector-curvature="0" />
	<path style="fill:none;stroke:red;stroke-width:1px;stroke-linecap:butt;stroke-linejoin:miter;stroke-opacity:1" d="M 140.634,286.626 159.351,284.755 z" id="boundary" inkscape:connector-curvature="0" />
	<path style="fill:none;stroke:red;stroke-width:1px;stroke-linecap:butt;stroke-linejoin:miter;stroke-opacity:1" d="M 215.502,277.268 234.219,277.268 z" id="boundary" inkscape:connector-curvature="0" />
	<path style="fill:none;stroke:red;stroke-width:1px;stroke-linecap:butt;stroke-linejoin:miter;stroke-opacity:1" d="M 234.219,277.268 252.936,284.755 z" id="boundary" inkscape:connector-curvature="0" />
	<path style="fill:none;stroke:red;stroke-width:1px;stroke-linecap:butt;stroke-linejoin:miter;stroke-opacity:1" d="M 215.502,277.268 196.785,277.268 z" id="boundary" inkscape:connector-curvature="0" />
	<path style="fill:none;stroke:red;stroke-width:1px;stroke-linecap:butt;stroke-linejoin:miter;stroke-opacity:1" d="M 252.936,284.755 269.781,294.113 z" id="boundary" inkscape:connector-curvature="0" />
	<path style="fill:none;stroke:red;stroke-width:1px;stroke-linecap:butt;stroke-linejoin:miter;stroke-opacity:1" d="M 305.343,310.958 288.498,301.6 z" id="boundary" inkscape:connector-curvature="0" />
	<path style="fill:none;stroke:red;stroke-width:1px;stroke-linecap:butt;stroke-linejoin:miter;stroke-opacity:1" d="M 288.498,301.6 269.781,294.113 z" id="boundary" inkscape:connector-curvature="0" />
	<path style="fill:none;stroke:red;stroke-width:1px;stroke-linecap:butt;stroke-linejoin:miter;stroke-opacity:1" d="M 468.181,314.702 485.026,305.343 z" id="boundary" inkscape:connector-curvature="0" />
	<path style="fill:none;stroke:red;stroke-width:1px;stroke-linecap:butt;stroke-linejoin:miter;stroke-opacity:1" d="M 485.026,305.343 503.743,305.343 z" id="boundary" inkscape:connector-curvature="0" />
	<path style="fill:none;stroke:red;stroke-width:1px;stroke-linecap:butt;stroke-linejoin:miter;stroke-opacity:1" d="M 324.06,318.445 340.906,327.804 z" id="boundary" inkscape:connector-curvature="0" />
	<path style="fill:none;stroke:red;stroke-width:1px;stroke-linecap:butt;stroke-linejoin:miter;stroke-opacity:1" d="M 305.343,310.958 324.06,318.445 z" id="boundary" inkscape:connector-curvature="0" />
	<path style="fill:none;stroke:red;stroke-width:1px;stroke-linecap:butt;stroke-linejoin:miter;stroke-opacity:1" d="M 359.623,333.419 340.906,327.804 z" id="boundary" inkscape:connector-curvature="0" />
	<path style="fill:none;stroke:red;stroke-width:1px;stroke-linecap:butt;stroke-linejoin:miter;stroke-opacity:1" d="M 359.623,333.419 378.34,333.419 z" id="boundary" inkscape:connector-curvature="0" />
	<path style="fill:none;stroke:red;stroke-width:1px;stroke-linecap:butt;stroke-linejoin:miter;stroke-opacity:1" d="M 395.185,324.06 378.34,333.419 z" id="boundary" inkscape:connector-curvature="0" />
	<path style="fill:none;stroke:red;stroke-width:1px;stroke-linecap:butt;stroke-linejoin:miter;stroke-opacity:1" d="M 449.464,314.702 468.181,314.702 z" id="boundary" inkscape:connector-curvature="0" />
	<path style="fill:none;stroke:red;stroke-width:1px;stroke-linecap:butt;stroke-linejoin:miter;stroke-opacity:1" d="M 432.619,324.06 449.464,314.702 z" id="boundary" inkscape:connector-curvature="0" />
	<path style="fill:none;stroke:red;stroke-width:1px;stroke-linecap:butt;stroke-linejoin:miter;stroke-opacity:1" d="M 395.185,324.06 413.902,324.06 z" id="boundary" inkscape:connector-curvature="0" />
	<path style="fill:none;stroke:red;stroke-width:1px;stroke-linecap:butt;stroke-linejoin:miter;stroke-opacity:1" d="M 432.619,324.06 413.902,324.06 z" id="boundary" inkscape:connector-curvature="0" />
	<path style="fill:none;stroke:red;stroke-width:1px;stroke-linecap:butt;stroke-linejoin:miter;stroke-opacity:1" d="M 503.743,305.343 522.46,305.343 z" id="boundary" inkscape:connector-curvature="0" />
	<path style="fill:none;stroke:red;stroke-width:1px;stroke-linecap:butt;stroke-linejoin:miter;stroke-opacity:1" d="M 558.023,22.717 576.74,22.717 z" id="boundary" inkscape:connector-curvature="0" />
	<path style="fill:none;stroke:red;stroke-width:1px;stroke-linecap:butt;stroke-linejoin:miter;stroke-opacity:1" d="M 539.306,26.4604 558.023,22.717 z" id="boundary" inkscape:connector-curvature="0" />
	<path style="fill:none;stroke:red;stroke-width:1px;stroke-linecap:butt;stroke-linejoin:miter;stroke-opacity:1" d="M 595.457,22.717 614.174,22.717 z" id="boundary" inkscape:connector-curvature="0" />
	<path style="fill:none;stroke:red;stroke-width:1px;stroke-linecap:butt;stroke-linejoin:miter;stroke-opacity:1" d="M 595.457,22.717 576.74,22.717 z" id="boundary" inkscape:connector-curvature="0" />
	<path style="fill:none;stroke:red;stroke-width:1px;stroke-linecap:butt;stroke-linejoin:miter;stroke-opacity:1" d="M 632.891,22.717 651.608,22.717 z" id="boundary" inkscape:connector-curvature="0" />
	<path style="fill:none;stroke:red;stroke-width:1px;stroke-linecap:butt;stroke-linejoin:miter;stroke-opacity:1" d="M 670.325,22.717 689.042,22.717 z" id="boundary" inkscape:connector-curvature="0" />
	<path style="fill:none;stroke:red;stroke-width:1px;stroke-linecap:butt;stroke-linejoin:miter;stroke-opacity:1" d="M 689.042,22.717 705.887,32.0755 z" id="boundary" inkscape:connector-curvature="0" />
	<path style="fill:none;stroke:red;stroke-width:1px;stroke-linecap:butt;stroke-linejoin:miter;stroke-opacity:1" d="M 670.325,22.717 651.608,22.717 z" id="boundary" inkscape:connector-curvature="0" />
	<path style="fill:none;stroke:red;stroke-width:1px;stroke-linecap:butt;stroke-linejoin:miter;stroke-opacity:1" d="M 632.891,22.717 614.174,22.717 z" id="boundary" inkscape:connector-curvature="0" />
	<path style="fill:none;stroke:red;stroke-width:1px;stroke-linecap:butt;stroke-linejoin:miter;stroke-opacity:1" d="M 520.589,32.0755 539.306,26.4604 z" id="boundary" inkscape:connector-curvature="0" />
	<path style="fill:none;stroke:red;stroke-width:1px;stroke-linecap:butt;stroke-linejoin:miter;stroke-opacity:1" d="M 520.589,32.0755 501.872,32.0755 z" id="boundary" inkscape:connector-curvature="0" />
	<path style="fill:none;stroke:red;stroke-width:1px;stroke-linecap:butt;stroke-linejoin:miter;stroke-opacity:1" d="M 722.732,41.434 705.887,32.0755 z" id="boundary" inkscape:connector-curvature="0" />
	<path style="fill:none;stroke:red;stroke-width:1px;stroke-linecap:butt;stroke-linejoin:miter;stroke-opacity:1" d="M 739.577,50.7925 756.423,60.1509 z" id="boundary" inkscape:connector-curvature="0" />
	<path style="fill:none;stroke:red;stroke-width:1px;stroke-linecap:butt;stroke-linejoin:miter;stroke-opacity:1" d="M 756.423,60.1509 771.396,73.2528 z" id="boundary" inkscape:connector-curvature="0" />
	<path style="fill:none;stroke:red;stroke-width:1px;stroke-linecap:butt;stroke-linejoin:miter;stroke-opacity:1" d="M 771.396,73.2528 782.626,88.2264 z" id="boundary" inkscape:connector-curvature="0" />
	<path style="fill:none;stroke:red;stroke-width:1px;stroke-linecap:butt;stroke-linejoin:miter;stroke-opacity:1" d="M 799.472,97.5849 782.626,88.2264 z" id="boundary" inkscape:connector-curvature="0" />
	<path style="fill:none;stroke:red;stroke-width:1px;stroke-linecap:butt;stroke-linejoin:miter;stroke-opacity:1" d="M 722.732,41.434 739.577,50.7925 z" id="boundary" inkscape:connector-curvature="0" />
	<path style="fill:none;stroke:red;stroke-width:1px;stroke-linecap:butt;stroke-linejoin:miter;stroke-opacity:1" d="M 887.442,88.2264 868.725,88.2264 z" id="boundary" inkscape:connector-curvature="0" />
	<path style="fill:none;stroke:red;stroke-width:1px;stroke-linecap:butt;stroke-linejoin:miter;stroke-opacity:1" d="M 939.849,69.5094 923.004,78.8679 z" id="boundary" inkscape:connector-curvature="0" />
	<path style="fill:none;stroke:red;stroke-width:1px;stroke-linecap:butt;stroke-linejoin:miter;stroke-opacity:1" d="M 887.442,88.2264 906.158,88.2264 z" id="boundary" inkscape:connector-curvature="0" />
	<path style="fill:none;stroke:red;stroke-width:1px;stroke-linecap:butt;stroke-linejoin:miter;stroke-opacity:1" d="M 923.004,78.8679 906.158,88.2264 z" id="boundary" inkscape:connector-curvature="0" />
	<path style="fill:none;stroke:red;stroke-width:1px;stroke-linecap:butt;stroke-linejoin:miter;stroke-opacity:1" d="M 851.879,97.5849 868.725,88.2264 z" id="boundary" inkscape:connector-curvature="0" />
	<path style="fill:none;stroke:red;stroke-width:1px;stroke-linecap:butt;stroke-linejoin:miter;stroke-opacity:1" d="M 939.849,69.5094 958.566,69.5094 z" id="boundary" inkscape:connector-curvature="0" />
	<path style="fill:none;stroke:red;stroke-width:1px;stroke-linecap:butt;stroke-linejoin:miter;stroke-opacity:1" d="M 958.566,69.5094 973.54,80.7396 z" id="boundary" inkscape:connector-curvature="0" />
	<path style="fill:none;stroke:red;stroke-width:1px;stroke-linecap:butt;stroke-linejoin:miter;stroke-opacity:1" d="M 973.54,80.7396 988.513,93.8415 z" id="boundary" inkscape:connector-curvature="0" />
	<path style="fill:none;stroke:red;stroke-width:1px;stroke-linecap:butt;stroke-linejoin:miter;stroke-opacity:1" d="M 988.513,93.8415 988.513,112.558 z" id="boundary" inkscape:connector-curvature="0" />
	<path style="fill:none;stroke:red;stroke-width:1px;stroke-linecap:butt;stroke-linejoin:miter;stroke-opacity:1" d="M 851.879,97.5849 835.034,106.943 z" id="boundary" inkscape:connector-curvature="0" />
	<path style="fill:none;stroke:red;stroke-width:1px;stroke-linecap:butt;stroke-linejoin:miter;stroke-opacity:1" d="M 816.317,106.943 835.034,106.943 z" id="boundary" inkscape:connector-curvature="0" />
	<path style="fill:none;stroke:red;stroke-width:1px;stroke-linecap:butt;stroke-linejoin:miter;stroke-opacity:1" d="M 816.317,106.943 799.472,97.5849 z" id="boundary" inkscape:connector-curvature="0" />
	<path style="fill:none;stroke:red;stroke-width:1px;stroke-linecap:butt;stroke-linejoin:miter;stroke-opacity:1" d="M 988.513,112.558 996,131.275 z" id="boundary" inkscape:connector-curvature="0" />
	<path style="fill:none;stroke:red;stroke-width:1px;stroke-linecap:butt;stroke-linejoin:miter;stroke-opacity:1" d="M 996,131.275 992.257,163.094 z" id="boundary" inkscape:connector-curvature="0" />
	<path style="fill:none;stroke:red;stroke-width:1px;stroke-linecap:butt;stroke-linejoin:miter;stroke-opacity:1" d="M 982.898,181.811 992.257,163.094 z" id="boundary" inkscape:connector-curvature="0" />
	<path style="fill:none;stroke:red;stroke-width:1px;stroke-linecap:butt;stroke-linejoin:miter;stroke-opacity:1" d="M 982.898,181.811 967.925,193.042 z" id="boundary" inkscape:connector-curvature="0" />
	<path style="fill:none;stroke:red;stroke-width:1px;stroke-linecap:butt;stroke-linejoin:miter;stroke-opacity:1" d="M 576.74,295.985 558.023,295.985 z" id="boundary" inkscape:connector-curvature="0" />
	<path style="fill:none;stroke:red;stroke-width:1px;stroke-linecap:butt;stroke-linejoin:miter;stroke-opacity:1" d="M 576.74,295.985 595.457,295.985 z" id="boundary" inkscape:connector-curvature="0" />
	<path style="fill:none;stroke:red;stroke-width:1px;stroke-linecap:butt;stroke-linejoin:miter;stroke-opacity:1" d="M 612.302,286.626 595.457,295.985 z" id="boundary" inkscape:connector-curvature="0" />
	<path style="fill:none;stroke:red;stroke-width:1px;stroke-linecap:butt;stroke-linejoin:miter;stroke-opacity:1" d="M 612.302,286.626 631.019,286.626 z" id="boundary" inkscape:connector-curvature="0" />
	<path style="fill:none;stroke:red;stroke-width:1px;stroke-linecap:butt;stroke-linejoin:miter;stroke-opacity:1" d="M 541.177,305.343 558.023,295.985 z" id="boundary" inkscape:connector-curvature="0" />
	<path style="fill:none;stroke:red;stroke-width:1px;stroke-linecap:butt;stroke-linejoin:miter;stroke-opacity:1" d="M 631.019,286.626 649.736,286.626 z" id="boundary" inkscape:connector-curvature="0" />
	<path style="fill:none;stroke:red;stroke-width:1px;stroke-linecap:butt;stroke-linejoin:miter;stroke-opacity:1" d="M 649.736,286.626 668.453,286.626 z" id="boundary" inkscape:connector-curvature="0" />
	<path style="fill:none;stroke:red;stroke-width:1px;stroke-linecap:butt;stroke-linejoin:miter;stroke-opacity:1" d="M 687.17,286.626 668.453,286.626 z" id="boundary" inkscape:connector-curvature="0" />
	<path style="fill:none;stroke:red;stroke-width:1px;stroke-linecap:butt;stroke-linejoin:miter;stroke-opacity:1" d="M 687.17,286.626 704.015,295.985 z" id="boundary" inkscape:connector-curvature="0" />
	<path style="fill:none;stroke:red;stroke-width:1px;stroke-linecap:butt;stroke-linejoin:miter;stroke-opacity:1" d="M 541.177,305.343 522.46,305.343 z" id="boundary" inkscape:connector-curvature="0" />
	<path style="fill:none;stroke:red;stroke-width:1px;stroke-linecap:butt;stroke-linejoin:miter;stroke-opacity:1" d="M 704.015,295.985 717.117,310.958 z" id="boundary" inkscape:connector-curvature="0" />
	<path style="fill:none;stroke:red;stroke-width:1px;stroke-linecap:butt;stroke-linejoin:miter;stroke-opacity:1" d="M 717.117,310.958 732.091,324.06 z" id="boundary" inkscape:connector-curvature="0" />
	<path style="fill:none;stroke:red;stroke-width:1px;stroke-linecap:butt;stroke-linejoin:miter;stroke-opacity:1" d="M 732.091,324.06 748.936,333.419 z" id="boundary" inkscape:connector-curvature="0" />
	<path style="fill:none;stroke:red;stroke-width:1px;stroke-linecap:butt;stroke-linejoin:miter;stroke-opacity:1" d="M 767.653,340.906 784.498,350.264 z" id="boundary" inkscape:connector-curvature="0" />
	<path style="fill:none;stroke:red;stroke-width:1px;stroke-linecap:butt;stroke-linejoin:miter;stroke-opacity:1" d="M 748.936,333.419 767.653,340.906 z" id="boundary" inkscape:connector-curvature="0" />
	<path style="fill:none;stroke:red;stroke-width:1px;stroke-linecap:butt;stroke-linejoin:miter;stroke-opacity:1" d="M 803.215,352.136 784.498,350.264 z" id="boundary" inkscape:connector-curvature="0" />
	<path style="fill:none;stroke:red;stroke-width:1px;stroke-linecap:butt;stroke-linejoin:miter;stroke-opacity:1" d="M 913.645,249.192 917.389,267.909 z" id="boundary" inkscape:connector-curvature="0" />
	<path style="fill:none;stroke:red;stroke-width:1px;stroke-linecap:butt;stroke-linejoin:miter;stroke-opacity:1" d="M 923.004,286.626 917.389,267.909 z" id="boundary" inkscape:connector-curvature="0" />
	<path style="fill:none;stroke:red;stroke-width:1px;stroke-linecap:butt;stroke-linejoin:miter;stroke-opacity:1" d="M 932.362,322.189 923.004,305.343 z" id="boundary" inkscape:connector-curvature="0" />
	<path style="fill:none;stroke:red;stroke-width:1px;stroke-linecap:butt;stroke-linejoin:miter;stroke-opacity:1" d="M 923.004,305.343 923.004,286.626 z" id="boundary" inkscape:connector-curvature="0" />
	<path style="fill:none;stroke:red;stroke-width:1px;stroke-linecap:butt;stroke-linejoin:miter;stroke-opacity:1" d="M 913.645,249.192 928.619,236.091 z" id="boundary" inkscape:connector-curvature="0" />
	<path style="fill:none;stroke:red;stroke-width:1px;stroke-linecap:butt;stroke-linejoin:miter;stroke-opacity:1" d="M 956.694,208.015 967.925,193.042 z" id="boundary" inkscape:connector-curvature="0" />
	<path style="fill:none;stroke:red;stroke-width:1px;stroke-linecap:butt;stroke-linejoin:miter;stroke-opacity:1" d="M 928.619,236.091 947.336,226.732 z" id="boundary" inkscape:connector-curvature="0" />
	<path style="fill:none;stroke:red;stroke-width:1px;stroke-linecap:butt;stroke-linejoin:miter;stroke-opacity:1" d="M 956.694,208.015 947.336,226.732 z" id="boundary" inkscape:connector-curvature="0" />
	<path style="fill:none;stroke:red;stroke-width:1px;stroke-linecap:butt;stroke-linejoin:miter;stroke-opacity:1" d="M 803.215,352.136 820.06,361.494 z" id="boundary" inkscape:connector-curvature="0" />
	<path style="fill:none;stroke:red;stroke-width:1px;stroke-linecap:butt;stroke-linejoin:miter;stroke-opacity:1" d="M 838.777,361.494 820.06,361.494 z" id="boundary" inkscape:connector-curvature="0" />
	<path style="fill:none;stroke:red;stroke-width:1px;stroke-linecap:butt;stroke-linejoin:miter;stroke-opacity:1" d="M 857.494,361.494 838.777,361.494 z" id="boundary" inkscape:connector-curvature="0" />
	<path style="fill:none;stroke:red;stroke-width:1px;stroke-linecap:butt;stroke-linejoin:miter;stroke-opacity:1" d="M 926.747,340.906 932.362,322.189 z" id="boundary" inkscape:connector-curvature="0" />
	<path style="fill:none;stroke:red;stroke-width:1px;stroke-linecap:butt;stroke-linejoin:miter;stroke-opacity:1" d="M 926.747,340.906 911.774,352.136 z" id="boundary" inkscape:connector-curvature="0" />
	<path style="fill:none;stroke:red;stroke-width:1px;stroke-linecap:butt;stroke-linejoin:miter;stroke-opacity:1" d="M 876.211,361.494 893.057,352.136 z" id="boundary" inkscape:connector-curvature="0" />
	<path style="fill:none;stroke:red;stroke-width:1px;stroke-linecap:butt;stroke-linejoin:miter;stroke-opacity:1" d="M 893.057,352.136 911.774,352.136 z" id="boundary" inkscape:connector-curvature="0" />
	<path style="fill:none;stroke:red;stroke-width:1px;stroke-linecap:butt;stroke-linejoin:miter;stroke-opacity:1" d="M 876.211,361.494 857.494,361.494 z" id="boundary" inkscape:connector-curvature="0" />
	<circle cx="4" cy="196.785" r="4" fill="#0" id="circle0"/>
	<circle cx="4" cy="215.502" r="4" fill="#0" id="circle1"/>
	<circle cx="18.9736" cy="181.811" r="4" fill="#0" id="circle2"/>
	<circle cx="18.9736" cy="228.604" r="4" fill="#0" id="circle3"/>
	<circle cx="26.4604" cy="247.321" r="4" fill="#0" id="circle4"/>
	<circle cx="35.8189" cy="264.166" r="4" fill="#0" id="circle5"/>
	<circle cx="37.6906" cy="172.453" r="4" fill="#0" id="circle6"/>
	<circle cx="50.7925" cy="277.268" r="4" fill="#0" id="circle7"/>
	<circle cx="52.6642" cy="157.479" r="4" fill="#0" id="circle8"/>
	<circle cx="67.6377" cy="144.377" r="4" fill="#0" id="circle9"/>
	<circle cx="67.6377" cy="286.626" r="4" fill="#0" id="circle10"/>
	<circle cx="80.7396" cy="129.404" r="4" fill="#0" id="circle11"/>
	<circle cx="84.483" cy="295.985" r="4" fill="#0" id="circle12"/>
	<circle cx="99.4566" cy="120.045" r="4" fill="#0" id="circle13"/>
	<circle cx="103.2" cy="294.113" r="4" fill="#0" id="circle14"/>
	<circle cx="106.943" cy="9.61509" r="4" fill="#0" id="circle15"/>
	<circle cx="106.943" cy="28.3321" r="4" fill="#0" id="circle16"/>
	<circle cx="114.43" cy="106.943" r="4" fill="#0" id="circle17"/>
	<circle cx="116.302" cy="45.1774" r="4" fill="#0" id="circle18"/>
	<circle cx="121.917" cy="286.626" r="4" fill="#0" id="circle19"/>
	<circle cx="125.66" cy="4" r="4" fill="#0" id="circle20"/>
	<circle cx="125.66" cy="62.0226" r="4" fill="#0" id="circle21"/>
	<circle cx="125.66" cy="80.7396" r="4" fill="#0" id="circle22"/>
	<circle cx="140.634" cy="286.626" r="4" fill="#0" id="circle23"/>
	<circle cx="144.377" cy="4" r="4" fill="#0" id="circle24"/>
	<circle cx="159.351" cy="284.755" r="4" fill="#0" id="circle25"/>
	<circle cx="163.094" cy="4" r="4" fill="#0" id="circle26"/>
	<circle cx="178.068" cy="277.268" r="4" fill="#0" id="circle27"/>
	<circle cx="181.811" cy="4" r="4" fill="#0" id="circle28"/>
	<circle cx="196.785" cy="277.268" r="4" fill="#0" id="circle29"/>
	<circle cx="200.528" cy="4" r="4" fill="#0" id="circle30"/>
	<circle cx="215.502" cy="277.268" r="4" fill="#0" id="circle31"/>
	<circle cx="219.245" cy="7.7434" r="4" fill="#0" id="circle32"/>
	<circle cx="234.219" cy="277.268" r="4" fill="#0" id="circle33"/>
	<circle cx="236.091" cy="17.1019" r="4" fill="#0" id="circle34"/>
	<circle cx="252.936" cy="284.755" r="4" fill="#0" id="circle35"/>
	<circle cx="254.808" cy="24.5887" r="4" fill="#0" id="circle36"/>
	<circle cx="269.781" cy="294.113" r="4" fill="#0" id="circle37"/>
	<circle cx="271.653" cy="33.9472" r="4" fill="#0" id="circle38"/>
	<circle cx="286.626" cy="47.0491" r="4" fill="#0" id="circle39"/>
	<circle cx="288.498" cy="301.6" r="4" fill="#0" id="circle40"/>
	<circle cx="301.6" cy="60.1509" r="4" fill="#0" id="circle41"/>
	<circle cx="305.343" cy="310.958" r="4" fill="#0" id="circle42"/>
	<circle cx="318.445" cy="69.5094" r="4" fill="#0" id="circle43"/>
	<circle cx="324.06" cy="318.445" r="4" fill="#0" id="circle44"/>
	<circle cx="337.162" cy="69.5094" r="4" fill="#0" id="circle45"/>
	<circle cx="340.906" cy="327.804" r="4" fill="#0" id="circle46"/>
	<circle cx="355.879" cy="69.5094" r="4" fill="#0" id="circle47"/>
	<circle cx="359.623" cy="333.419" r="4" fill="#0" id="circle48"/>
	<circle cx="372.725" cy="60.1509" r="4" fill="#0" id="circle49"/>
	<circle cx="378.34" cy="333.419" r="4" fill="#0" id="circle50"/>
	<circle cx="391.442" cy="60.1509" r="4" fill="#0" id="circle51"/>
	<circle cx="395.185" cy="324.06" r="4" fill="#0" id="circle52"/>
	<circle cx="408.287" cy="50.7925" r="4" fill="#0" id="circle53"/>
	<circle cx="413.902" cy="324.06" r="4" fill="#0" id="circle54"/>
	<circle cx="427.004" cy="45.1774" r="4" fill="#0" id="circle55"/>
	<circle cx="432.619" cy="324.06" r="4" fill="#0" id="circle56"/>
	<circle cx="445.721" cy="41.434" r="4" fill="#0" id="circle57"/>
	<circle cx="449.464" cy="314.702" r="4" fill="#0" id="circle58"/>
	<circle cx="464.438" cy="35.8189" r="4" fill="#0" id="circle59"/>
	<circle cx="468.181" cy="314.702" r="4" fill="#0" id="circle60"/>
	<circle cx="483.155" cy="32.0755" r="4" fill="#0" id="circle61"/>
	<circle cx="485.026" cy="305.343" r="4" fill="#0" id="circle62"/>
	<circle cx="501.872" cy="32.0755" r="4" fill="#0" id="circle63"/>
	<circle cx="503.743" cy="305.343" r="4" fill="#0" id="circle64"/>
	<circle cx="520.589" cy="32.0755" r="4" fill="#0" id="circle65"/>
	<circle cx="522.46" cy="305.343" r="4" fill="#0" id="circle66"/>
	<circle cx="539.306" cy="26.4604" r="4" fill="#0" id="circle67"/>
	<circle cx="541.177" cy="305.343" r="4" fill="#0" id="circle68"/>
	<circle cx="558.023" cy="22.717" r="4" fill="#0" id="circle69"/>
	<circle cx="558.023" cy="295.985" r="4" fill="#0" id="circle70"/>
	<circle cx="576.74" cy="22.717" r="4" fill="#0" id="circle71"/>
	<circle cx="576.74" cy="295.985" r="4" fill="#0" id="circle72"/>
	<circle cx="595.457" cy="22.717" r="4" fill="#0" id="circle73"/>
	<circle cx="595.457" cy="295.985" r="4" fill="#0" id="circle74"/>
	<circle cx="612.302" cy="286.626" r="4" fill="#0" id="circle75"/>
	<circle cx="614.174" cy="22.717" r="4" fill="#0" id="circle76"/>
	<circle cx="631.019" cy="286.626" r="4" fill="#0" id="circle77"/>
	<circle cx="632.891" cy="22.717" r="4" fill="#0" id="circle78"/>
	<circle cx="649.736" cy="286.626" r="4" fill="#0" id="circle79"/>
	<circle cx="651.608" cy="22.717" r="4" fill="#0" id="circle80"/>
	<circle cx="668.453" cy="286.626" r="4" fill="#0" id="circle81"/>
	<circle cx="670.325" cy="22.717" r="4" fill="#0" id="circle82"/>
	<circle cx="687.17" cy="286.626" r="4" fill="#0" id="circle83"/>
	<circle cx="689.042" cy="22.717" r="4" fill="#0" id="circle84"/>
	<circle cx="704.015" cy="295.985" r="4" fill="#0" id="circle85"/>
	<circle cx="705.887" cy="32.0755" r="4" fill="#0" id="circle86"/>
	<circle cx="717.117" cy="310.958" r="4" fill="#0" id="circle87"/>
	<circle cx="722.732" cy="41.434" r="4" fill="#0" id="circle88"/>
	<circle cx="732.091" cy="324.06" r="4" fill="#0" id="circle89"/>
	<circle cx="739.577" cy="50.7925" r="4" fill="#0" id="circle90"/>
	<circle cx="748.936" cy="333.419" r="4" fill="#0" id="circle91"/>
	<circle cx="756.423" cy="60.1509" r="4" fill="#0" id="circle92"/>
	<circle cx="767.653" cy="340.906" r="4" fill="#0" id="circle93"/>
	<circle cx="771.396" cy="73.2528" r="4" fill="#0" id="circle94"/>
	<circle cx="782.626" cy="88.2264" r="4" fill="#0" id="circle95"/>
	<circle cx="784.498" cy="350.264" r="4" fill="#0" id="circle96"/>
	<circle cx="799.472" cy="97.5849" r="4" fill="#0" id="circle97"/>
	<circle cx="803.215" cy="352.136" r="4" fill="#0" id="circle98"/>
	<circle cx="816.317" cy="106.943" r="4" fill="#0" id="circle99"/>
	<circle cx="820.06" cy="361.494" r="4" fill="#0" id="circle100"/>
	<circle cx="835.034" cy="106.943" r="4" fill="#0" id="circle101"/>
	<circle cx="838.777" cy="361.494" r="4" fill="#0" id="circle102"/>
	<circle cx="851.879" cy="97.5849" r="4" fill="#0" id="circle103"/>
	<circle cx="857.494" cy="361.494" r="4" fill="#0" id="circle104"/>
	<circle cx="868.725" cy="88.2264" r="4" fill="#0" id="circle105"/>
	<circle cx="876.211" cy="361.494" r="4" fill="#0" id="circle106"/>
	<circle cx="887.442" cy="88.2264" r="4" fill="#0" id="circle107"/>
	<circle cx="893.057" cy="352.136" r="4" fill="#0" id="circle108"/>
	<circle cx="906.158" cy="88.2264" r="4" fill="#0" id="circle109"/>
	<circle cx="911.774" cy="352.136" r="4" fill="#0" id="circle110"/>
	<circle cx="913.645" cy="249.192" r="4" fill="#0" id="circle111"/>
	<circle cx="917.389" cy="267.909" r="4" fill="#0" id="circle112"/>
	<circle cx="923.004" cy="78.8679" r="4" fill="#0" id="circle113"/>
	<circle cx="923.004" cy="286.626" r="4" fill="#0" id="circle114"/>
	<circle cx="923.004" cy="305.343" r="4" fill="#0" id="circle115"/>
	<circle cx="926.747" cy="340.906" r="4" fill="#0" id="circle116"/>
	<circle cx="928.619" cy="236.091" r="4" fill="#0" id="circle117"/>
	<circle cx="932.362" cy="322.189" r="4" fill="#0" id="circle118"/>
	<circle cx="939.849" cy="69.5094" r="4" fill="#0" id="circle119"/>
	<circle cx="947.336" cy="226.732" r="4" fill="#0" id="circle120"/>
	<circle cx="956.694" cy="208.015" r="4" fill="#0" id="circle121"/>
	<circle cx="958.566" cy="69.5094" r="4" fill="#0" id="circle122"/>
	<circle cx="967.925" cy="193.042" r="4" fill="#0" id="circle123"/>
	<circle cx="973.54" cy="80.7396" r="4" fill="#0" id="circle124"/>
	<circle cx="982.898" cy="181.811" r="4" fill="#0" id="circle125"/>
	<circle cx="988.513" cy="93.8415" r="4" fill="#0" id="circle126"/>
	<circle cx="988.513" cy="112.558" r="4" fill="#0" id="circle127"/>
	<circle cx="992.257" cy="163.094" r="4" fill="#0" id="circle128"/>
	<circle cx="996" cy="131.275" r="4" fill="#0" id="circle129"/>
	</g>
</svg>