<?xml version="1.0" encoding="UTF-8" standalone="no"?>
<!-- Created with CurveBenchmark -->
<svg
	xmlns:dc="http://purl.org/dc/elements/1.1/"
	xmlns:cc="http://creativecommons.org/ns#"
	xmlns:rdf="http://www.w3.org/1999/02/22-rdf-syntax-ns#"
	xmlns:svg="http://www.w3.org/2000/svg"
	xmlns="http://www.w3.org/2000/svg"
	xmlns:sodipodi="http://sodipodi.sourceforge.net/DTD/sodipodi-0.dtd"
	xmlns:inkscape="http://www.inkscape.org/namespaces/inkscape"
	width="1000"
	height="1000"
	id="svg2"
	version="1.1"
	sodipodi:docname="manifold/nncrust-bird15.png.txt">
<defs
	id="defs4" />
<metadata
	id="metadata7">
	<rdf:RDF>
		<cc:Work
			rdf:about="">
			<dc:format>image/svg+xml</dc:format>
			<dc:type
				rdf:resource="http://purl.org/dc/dcmitype/StillImage" />
			<dc:title></dc:title>
		</cc:Work>
	</rdf:RDF>
</metadata>
<g
	inkscape:label="Layer 1"
	inkscape:groupmode="layer"
	id="layer1">
	<path style="fill:none;stroke:red;stroke-width:1px;stroke-linecap:butt;stroke-linejoin:miter;stroke-opacity:1" d="M 49.9107,53.1901 36.7934,66.3074 z" id="boundary" inkscape:connector-curvature="0" />
	<path style="fill:none;stroke:red;stroke-width:1px;stroke-linecap:butt;stroke-linejoin:miter;stroke-opacity:1" d="M 36.7934,66.3074 20.3967,74.5058 z" id="boundary" inkscape:connector-curvature="0" />
	<path style="fill:none;stroke:red;stroke-width:1px;stroke-linecap:butt;stroke-linejoin:miter;stroke-opacity:1" d="M 61.3884,104.02 44.9917,104.02 z" id="boundary" inkscape:connector-curvature="0" />
	<path style="fill:none;stroke:red;stroke-width:1px;stroke-linecap:butt;stroke-linejoin:miter;stroke-opacity:1" d="M 12.1983,105.66 4,90.9025 z" id="boundary" inkscape:connector-curvature="0" />
	<path style="fill:none;stroke:red;stroke-width:1px;stroke-linecap:butt;stroke-linejoin:miter;stroke-opacity:1" d="M 4,90.9025 20.3967,74.5058 z" id="boundary" inkscape:connector-curvature="0" />
	<path style="fill:none;stroke:red;stroke-width:1px;stroke-linecap:butt;stroke-linejoin:miter;stroke-opacity:1" d="M 28.595,107.299 12.1983,105.66 z" id="boundary" inkscape:connector-curvature="0" />
	<path style="fill:none;stroke:red;stroke-width:1px;stroke-linecap:butt;stroke-linejoin:miter;stroke-opacity:1" d="M 44.9917,104.02 28.595,107.299 z" id="boundary" inkscape:connector-curvature="0" />
	<path style="fill:none;stroke:red;stroke-width:1px;stroke-linecap:butt;stroke-linejoin:miter;stroke-opacity:1" d="M 79.4248,31.8744 92.5421,20.3967 z" id="boundary" inkscape:connector-curvature="0" />
	<path style="fill:none;stroke:red;stroke-width:1px;stroke-linecap:butt;stroke-linejoin:miter;stroke-opacity:1" d="M 77.7851,104.02 61.3884,104.02 z" id="boundary" inkscape:connector-curvature="0" />
	<path style="fill:none;stroke:red;stroke-width:1px;stroke-linecap:butt;stroke-linejoin:miter;stroke-opacity:1" d="M 49.9107,53.1901 66.3074,44.9917 z" id="boundary" inkscape:connector-curvature="0" />
	<path style="fill:none;stroke:red;stroke-width:1px;stroke-linecap:butt;stroke-linejoin:miter;stroke-opacity:1" d="M 66.3074,44.9917 79.4248,31.8744 z" id="boundary" inkscape:connector-curvature="0" />
	<path style="fill:none;stroke:red;stroke-width:1px;stroke-linecap:butt;stroke-linejoin:miter;stroke-opacity:1" d="M 92.5421,20.3967 107.299,12.1983 z" id="boundary" inkscape:connector-curvature="0" />
	<path style="fill:none;stroke:red;stroke-width:1px;stroke-linecap:butt;stroke-linejoin:miter;stroke-opacity:1" d="M 77.7851,104.02 87.6231,117.137 z" id="boundary" inkscape:connector-curvature="0" />
	<path style="fill:none;stroke:red;stroke-width:1px;stroke-linecap:butt;stroke-linejoin:miter;stroke-opacity:1" d="M 102.38,125.336 87.6231,117.137 z" id="boundary" inkscape:connector-curvature="0" />
	<path style="fill:none;stroke:red;stroke-width:1px;stroke-linecap:butt;stroke-linejoin:miter;stroke-opacity:1" d="M 94.1818,328.655 94.1818,312.258 z" id="boundary" inkscape:connector-curvature="0" />
	<path style="fill:none;stroke:red;stroke-width:1px;stroke-linecap:butt;stroke-linejoin:miter;stroke-opacity:1" d="M 94.1818,312.258 102.38,295.861 z" id="boundary" inkscape:connector-curvature="0" />
	<path style="fill:none;stroke:red;stroke-width:1px;stroke-linecap:butt;stroke-linejoin:miter;stroke-opacity:1" d="M 94.1818,345.051 94.1818,328.655 z" id="boundary" inkscape:connector-curvature="0" />
	<path style="fill:none;stroke:red;stroke-width:1px;stroke-linecap:butt;stroke-linejoin:miter;stroke-opacity:1" d="M 102.38,125.336 110.579,140.093 z" id="boundary" inkscape:connector-curvature="0" />
	<path style="fill:none;stroke:red;stroke-width:1px;stroke-linecap:butt;stroke-linejoin:miter;stroke-opacity:1" d="M 118.777,154.85 110.579,140.093 z" id="boundary" inkscape:connector-curvature="0" />
	<path style="fill:none;stroke:red;stroke-width:1px;stroke-linecap:butt;stroke-linejoin:miter;stroke-opacity:1" d="M 110.579,230.274 110.579,213.878 z" id="boundary" inkscape:connector-curvature="0" />
	<path style="fill:none;stroke:red;stroke-width:1px;stroke-linecap:butt;stroke-linejoin:miter;stroke-opacity:1" d="M 110.579,213.878 118.777,187.643 z" id="boundary" inkscape:connector-curvature="0" />
	<path style="fill:none;stroke:red;stroke-width:1px;stroke-linecap:butt;stroke-linejoin:miter;stroke-opacity:1" d="M 102.38,254.869 102.38,279.464 z" id="boundary" inkscape:connector-curvature="0" />
	<path style="fill:none;stroke:red;stroke-width:1px;stroke-linecap:butt;stroke-linejoin:miter;stroke-opacity:1" d="M 102.38,254.869 110.579,230.274 z" id="boundary" inkscape:connector-curvature="0" />
	<path style="fill:none;stroke:red;stroke-width:1px;stroke-linecap:butt;stroke-linejoin:miter;stroke-opacity:1" d="M 102.38,295.861 102.38,279.464 z" id="boundary" inkscape:connector-curvature="0" />
	<path style="fill:none;stroke:red;stroke-width:1px;stroke-linecap:butt;stroke-linejoin:miter;stroke-opacity:1" d="M 118.777,154.85 118.777,171.246 z" id="boundary" inkscape:connector-curvature="0" />
	<path style="fill:none;stroke:red;stroke-width:1px;stroke-linecap:butt;stroke-linejoin:miter;stroke-opacity:1" d="M 94.1818,345.051 85.9835,361.448 z" id="boundary" inkscape:connector-curvature="0" />
	<path style="fill:none;stroke:red;stroke-width:1px;stroke-linecap:butt;stroke-linejoin:miter;stroke-opacity:1" d="M 138.453,4 154.85,4 z" id="boundary" inkscape:connector-curvature="0" />
	<path style="fill:none;stroke:red;stroke-width:1px;stroke-linecap:butt;stroke-linejoin:miter;stroke-opacity:1" d="M 202.4,17.1174 186.003,12.1983 z" id="boundary" inkscape:connector-curvature="0" />
	<path style="fill:none;stroke:red;stroke-width:1px;stroke-linecap:butt;stroke-linejoin:miter;stroke-opacity:1" d="M 186.003,12.1983 171.246,4 z" id="boundary" inkscape:connector-curvature="0" />
	<path style="fill:none;stroke:red;stroke-width:1px;stroke-linecap:butt;stroke-linejoin:miter;stroke-opacity:1" d="M 154.85,4 171.246,4 z" id="boundary" inkscape:connector-curvature="0" />
	<path style="fill:none;stroke:red;stroke-width:1px;stroke-linecap:butt;stroke-linejoin:miter;stroke-opacity:1" d="M 202.4,17.1174 213.878,30.2347 z" id="boundary" inkscape:connector-curvature="0" />
	<path style="fill:none;stroke:red;stroke-width:1px;stroke-linecap:butt;stroke-linejoin:miter;stroke-opacity:1" d="M 213.878,30.2347 226.995,41.7124 z" id="boundary" inkscape:connector-curvature="0" />
	<path style="fill:none;stroke:red;stroke-width:1px;stroke-linecap:butt;stroke-linejoin:miter;stroke-opacity:1" d="M 226.995,41.7124 235.193,56.4694 z" id="boundary" inkscape:connector-curvature="0" />
	<path style="fill:none;stroke:red;stroke-width:1px;stroke-linecap:butt;stroke-linejoin:miter;stroke-opacity:1" d="M 235.193,56.4694 243.392,71.2264 z" id="boundary" inkscape:connector-curvature="0" />
	<path style="fill:none;stroke:red;stroke-width:1px;stroke-linecap:butt;stroke-linejoin:miter;stroke-opacity:1" d="M 243.392,71.2264 251.59,85.9835 z" id="boundary" inkscape:connector-curvature="0" />
	<path style="fill:none;stroke:red;stroke-width:1px;stroke-linecap:butt;stroke-linejoin:miter;stroke-opacity:1" d="M 251.59,85.9835 251.59,102.38 z" id="boundary" inkscape:connector-curvature="0" />
	<path style="fill:none;stroke:red;stroke-width:1px;stroke-linecap:butt;stroke-linejoin:miter;stroke-opacity:1" d="M 251.59,102.38 259.788,117.137 z" id="boundary" inkscape:connector-curvature="0" />
	<path style="fill:none;stroke:red;stroke-width:1px;stroke-linecap:butt;stroke-linejoin:miter;stroke-opacity:1" d="M 267.987,131.894 259.788,117.137 z" id="boundary" inkscape:connector-curvature="0" />
	<path style="fill:none;stroke:red;stroke-width:1px;stroke-linecap:butt;stroke-linejoin:miter;stroke-opacity:1" d="M 276.185,163.048 267.987,148.291 z" id="boundary" inkscape:connector-curvature="0" />
	<path style="fill:none;stroke:red;stroke-width:1px;stroke-linecap:butt;stroke-linejoin:miter;stroke-opacity:1" d="M 267.987,148.291 267.987,131.894 z" id="boundary" inkscape:connector-curvature="0" />
	<path style="fill:none;stroke:red;stroke-width:1px;stroke-linecap:butt;stroke-linejoin:miter;stroke-opacity:1" d="M 276.185,163.048 276.185,179.445 z" id="boundary" inkscape:connector-curvature="0" />
	<path style="fill:none;stroke:red;stroke-width:1px;stroke-linecap:butt;stroke-linejoin:miter;stroke-opacity:1" d="M 118.777,187.643 118.777,171.246 z" id="boundary" inkscape:connector-curvature="0" />
	<path style="fill:none;stroke:red;stroke-width:1px;stroke-linecap:butt;stroke-linejoin:miter;stroke-opacity:1" d="M 276.185,179.445 276.185,195.841 z" id="boundary" inkscape:connector-curvature="0" />
	<path style="fill:none;stroke:red;stroke-width:1px;stroke-linecap:butt;stroke-linejoin:miter;stroke-opacity:1" d="M 276.185,195.841 284.383,210.598 z" id="boundary" inkscape:connector-curvature="0" />
	<path style="fill:none;stroke:red;stroke-width:1px;stroke-linecap:butt;stroke-linejoin:miter;stroke-opacity:1" d="M 284.383,210.598 284.383,235.193 z" id="boundary" inkscape:connector-curvature="0" />
	<path style="fill:none;stroke:red;stroke-width:1px;stroke-linecap:butt;stroke-linejoin:miter;stroke-opacity:1" d="M 292.582,249.95 284.383,235.193 z" id="boundary" inkscape:connector-curvature="0" />
	<path style="fill:none;stroke:red;stroke-width:1px;stroke-linecap:butt;stroke-linejoin:miter;stroke-opacity:1" d="M 292.582,249.95 300.78,264.707 z" id="boundary" inkscape:connector-curvature="0" />
	<path style="fill:none;stroke:red;stroke-width:1px;stroke-linecap:butt;stroke-linejoin:miter;stroke-opacity:1" d="M 308.979,279.464 308.979,295.861 z" id="boundary" inkscape:connector-curvature="0" />
	<path style="fill:none;stroke:red;stroke-width:1px;stroke-linecap:butt;stroke-linejoin:miter;stroke-opacity:1" d="M 300.78,264.707 308.979,279.464 z" id="boundary" inkscape:connector-curvature="0" />
	<path style="fill:none;stroke:red;stroke-width:1px;stroke-linecap:butt;stroke-linejoin:miter;stroke-opacity:1" d="M 317.177,310.618 308.979,295.861 z" id="boundary" inkscape:connector-curvature="0" />
	<path style="fill:none;stroke:red;stroke-width:1px;stroke-linecap:butt;stroke-linejoin:miter;stroke-opacity:1" d="M 107.299,12.1983 122.056,4 z" id="boundary" inkscape:connector-curvature="0" />
	<path style="fill:none;stroke:red;stroke-width:1px;stroke-linecap:butt;stroke-linejoin:miter;stroke-opacity:1" d="M 122.056,4 138.453,4 z" id="boundary" inkscape:connector-curvature="0" />
	<path style="fill:none;stroke:red;stroke-width:1px;stroke-linecap:butt;stroke-linejoin:miter;stroke-opacity:1" d="M 85.9835,361.448 85.9835,377.845 z" id="boundary" inkscape:connector-curvature="0" />
	<path style="fill:none;stroke:red;stroke-width:1px;stroke-linecap:butt;stroke-linejoin:miter;stroke-opacity:1" d="M 85.9835,394.241 85.9835,377.845 z" id="boundary" inkscape:connector-curvature="0" />
	<path style="fill:none;stroke:red;stroke-width:1px;stroke-linecap:butt;stroke-linejoin:miter;stroke-opacity:1" d="M 85.9835,418.836 85.9835,394.241 z" id="boundary" inkscape:connector-curvature="0" />
	<path style="fill:none;stroke:red;stroke-width:1px;stroke-linecap:butt;stroke-linejoin:miter;stroke-opacity:1" d="M 85.9835,418.836 85.9835,435.233 z" id="boundary" inkscape:connector-curvature="0" />
	<path style="fill:none;stroke:red;stroke-width:1px;stroke-linecap:butt;stroke-linejoin:miter;stroke-opacity:1" d="M 85.9835,459.828 85.9835,435.233 z" id="boundary" inkscape:connector-curvature="0" />
	<path style="fill:none;stroke:red;stroke-width:1px;stroke-linecap:butt;stroke-linejoin:miter;stroke-opacity:1" d="M 94.1818,515.577 85.9835,500.82 z" id="boundary" inkscape:connector-curvature="0" />
	<path style="fill:none;stroke:red;stroke-width:1px;stroke-linecap:butt;stroke-linejoin:miter;stroke-opacity:1" d="M 85.9835,500.82 85.9835,484.423 z" id="boundary" inkscape:connector-curvature="0" />
	<path style="fill:none;stroke:red;stroke-width:1px;stroke-linecap:butt;stroke-linejoin:miter;stroke-opacity:1" d="M 102.38,530.334 94.1818,515.577 z" id="boundary" inkscape:connector-curvature="0" />
	<path style="fill:none;stroke:red;stroke-width:1px;stroke-linecap:butt;stroke-linejoin:miter;stroke-opacity:1" d="M 102.38,530.334 102.38,546.731 z" id="boundary" inkscape:connector-curvature="0" />
	<path style="fill:none;stroke:red;stroke-width:1px;stroke-linecap:butt;stroke-linejoin:miter;stroke-opacity:1" d="M 110.579,561.488 102.38,546.731 z" id="boundary" inkscape:connector-curvature="0" />
	<path style="fill:none;stroke:red;stroke-width:1px;stroke-linecap:butt;stroke-linejoin:miter;stroke-opacity:1" d="M 110.579,561.488 113.858,577.884 z" id="boundary" inkscape:connector-curvature="0" />
	<path style="fill:none;stroke:red;stroke-width:1px;stroke-linecap:butt;stroke-linejoin:miter;stroke-opacity:1" d="M 85.9835,484.423 85.9835,459.828 z" id="boundary" inkscape:connector-curvature="0" />
	<path style="fill:none;stroke:red;stroke-width:1px;stroke-linecap:butt;stroke-linejoin:miter;stroke-opacity:1" d="M 122.056,592.641 135.174,604.119 z" id="boundary" inkscape:connector-curvature="0" />
	<path style="fill:none;stroke:red;stroke-width:1px;stroke-linecap:butt;stroke-linejoin:miter;stroke-opacity:1" d="M 135.174,604.119 140.093,620.516 z" id="boundary" inkscape:connector-curvature="0" />
	<path style="fill:none;stroke:red;stroke-width:1px;stroke-linecap:butt;stroke-linejoin:miter;stroke-opacity:1" d="M 122.056,592.641 113.858,577.884 z" id="boundary" inkscape:connector-curvature="0" />
	<path style="fill:none;stroke:red;stroke-width:1px;stroke-linecap:butt;stroke-linejoin:miter;stroke-opacity:1" d="M 153.21,631.993 140.093,620.516 z" id="boundary" inkscape:connector-curvature="0" />
	<path style="fill:none;stroke:red;stroke-width:1px;stroke-linecap:butt;stroke-linejoin:miter;stroke-opacity:1" d="M 172.886,659.868 159.769,648.39 z" id="boundary" inkscape:connector-curvature="0" />
	<path style="fill:none;stroke:red;stroke-width:1px;stroke-linecap:butt;stroke-linejoin:miter;stroke-opacity:1" d="M 159.769,648.39 153.21,631.993 z" id="boundary" inkscape:connector-curvature="0" />
	<path style="fill:none;stroke:red;stroke-width:1px;stroke-linecap:butt;stroke-linejoin:miter;stroke-opacity:1" d="M 172.886,659.868 184.364,672.985 z" id="boundary" inkscape:connector-curvature="0" />
	<path style="fill:none;stroke:red;stroke-width:1px;stroke-linecap:butt;stroke-linejoin:miter;stroke-opacity:1" d="M 184.364,672.985 200.76,677.904 z" id="boundary" inkscape:connector-curvature="0" />
	<path style="fill:none;stroke:red;stroke-width:1px;stroke-linecap:butt;stroke-linejoin:miter;stroke-opacity:1" d="M 200.76,677.904 210.598,691.021 z" id="boundary" inkscape:connector-curvature="0" />
	<path style="fill:none;stroke:red;stroke-width:1px;stroke-linecap:butt;stroke-linejoin:miter;stroke-opacity:1" d="M 223.716,702.499 210.598,691.021 z" id="boundary" inkscape:connector-curvature="0" />
	<path style="fill:none;stroke:red;stroke-width:1px;stroke-linecap:butt;stroke-linejoin:miter;stroke-opacity:1" d="M 205.679,946.81 208.959,964.846 z" id="boundary" inkscape:connector-curvature="0" />
	<path style="fill:none;stroke:red;stroke-width:1px;stroke-linecap:butt;stroke-linejoin:miter;stroke-opacity:1" d="M 208.959,964.846 192.562,959.927 z" id="boundary" inkscape:connector-curvature="0" />
	<path style="fill:none;stroke:red;stroke-width:1px;stroke-linecap:butt;stroke-linejoin:miter;stroke-opacity:1" d="M 192.562,959.927 184.364,672.985 z" id="boundary" inkscape:connector-curvature="0" />
	<path style="fill:none;stroke:red;stroke-width:1px;stroke-linecap:butt;stroke-linejoin:miter;stroke-opacity:1" d="M 205.679,946.81 222.076,938.612 z" id="boundary" inkscape:connector-curvature="0" />
	<path style="fill:none;stroke:red;stroke-width:1px;stroke-linecap:butt;stroke-linejoin:miter;stroke-opacity:1" d="M 222.076,938.612 223.716,956.648 z" id="boundary" inkscape:connector-curvature="0" />
	<path style="fill:none;stroke:red;stroke-width:1px;stroke-linecap:butt;stroke-linejoin:miter;stroke-opacity:1" d="M 223.716,956.648 208.959,964.846 z" id="boundary" inkscape:connector-curvature="0" />
	<path style="fill:none;stroke:red;stroke-width:1px;stroke-linecap:butt;stroke-linejoin:miter;stroke-opacity:1" d="M 248.311,727.094 235.193,715.617 z" id="boundary" inkscape:connector-curvature="0" />
	<path style="fill:none;stroke:red;stroke-width:1px;stroke-linecap:butt;stroke-linejoin:miter;stroke-opacity:1" d="M 235.193,715.617 223.716,702.499 z" id="boundary" inkscape:connector-curvature="0" />
	<path style="fill:none;stroke:red;stroke-width:1px;stroke-linecap:butt;stroke-linejoin:miter;stroke-opacity:1" d="M 248.311,727.094 254.869,743.491 z" id="boundary" inkscape:connector-curvature="0" />
	<path style="fill:none;stroke:red;stroke-width:1px;stroke-linecap:butt;stroke-linejoin:miter;stroke-opacity:1" d="M 274.545,771.365 263.068,758.248 z" id="boundary" inkscape:connector-curvature="0" />
	<path style="fill:none;stroke:red;stroke-width:1px;stroke-linecap:butt;stroke-linejoin:miter;stroke-opacity:1" d="M 263.068,758.248 254.869,743.491 z" id="boundary" inkscape:connector-curvature="0" />
	<path style="fill:none;stroke:red;stroke-width:1px;stroke-linecap:butt;stroke-linejoin:miter;stroke-opacity:1" d="M 274.545,771.365 282.744,786.122 z" id="boundary" inkscape:connector-curvature="0" />
	<path style="fill:none;stroke:red;stroke-width:1px;stroke-linecap:butt;stroke-linejoin:miter;stroke-opacity:1" d="M 238.473,930.413 222.076,938.612 z" id="boundary" inkscape:connector-curvature="0" />
	<path style="fill:none;stroke:red;stroke-width:1px;stroke-linecap:butt;stroke-linejoin:miter;stroke-opacity:1" d="M 282.744,786.122 290.942,800.879 z" id="boundary" inkscape:connector-curvature="0" />
	<path style="fill:none;stroke:red;stroke-width:1px;stroke-linecap:butt;stroke-linejoin:miter;stroke-opacity:1" d="M 290.942,800.879 299.14,815.636 z" id="boundary" inkscape:connector-curvature="0" />
	<path style="fill:none;stroke:red;stroke-width:1px;stroke-linecap:butt;stroke-linejoin:miter;stroke-opacity:1" d="M 284.383,900.899 297.501,889.421 z" id="boundary" inkscape:connector-curvature="0" />
	<path style="fill:none;stroke:red;stroke-width:1px;stroke-linecap:butt;stroke-linejoin:miter;stroke-opacity:1" d="M 308.979,846.79 304.06,873.025 z" id="boundary" inkscape:connector-curvature="0" />
	<path style="fill:none;stroke:red;stroke-width:1px;stroke-linecap:butt;stroke-linejoin:miter;stroke-opacity:1" d="M 308.979,846.79 307.339,830.393 z" id="boundary" inkscape:connector-curvature="0" />
	<path style="fill:none;stroke:red;stroke-width:1px;stroke-linecap:butt;stroke-linejoin:miter;stroke-opacity:1" d="M 299.14,815.636 307.339,830.393 z" id="boundary" inkscape:connector-curvature="0" />
	<path style="fill:none;stroke:red;stroke-width:1px;stroke-linecap:butt;stroke-linejoin:miter;stroke-opacity:1" d="M 297.501,889.421 304.06,873.025 z" id="boundary" inkscape:connector-curvature="0" />
	<path style="fill:none;stroke:red;stroke-width:1px;stroke-linecap:butt;stroke-linejoin:miter;stroke-opacity:1" d="M 240.112,956.648 223.716,956.648 z" id="boundary" inkscape:connector-curvature="0" />
	<path style="fill:none;stroke:red;stroke-width:1px;stroke-linecap:butt;stroke-linejoin:miter;stroke-opacity:1" d="M 254.869,922.215 238.473,930.413 z" id="boundary" inkscape:connector-curvature="0" />
	<path style="fill:none;stroke:red;stroke-width:1px;stroke-linecap:butt;stroke-linejoin:miter;stroke-opacity:1" d="M 254.869,948.45 240.112,956.648 z" id="boundary" inkscape:connector-curvature="0" />
	<path style="fill:none;stroke:red;stroke-width:1px;stroke-linecap:butt;stroke-linejoin:miter;stroke-opacity:1" d="M 233.554,984.522 240.112,956.648 z" id="boundary" inkscape:connector-curvature="0" />
	<path style="fill:none;stroke:red;stroke-width:1px;stroke-linecap:butt;stroke-linejoin:miter;stroke-opacity:1" d="M 246.671,996 233.554,984.522 z" id="boundary" inkscape:connector-curvature="0" />
	<path style="fill:none;stroke:red;stroke-width:1px;stroke-linecap:butt;stroke-linejoin:miter;stroke-opacity:1" d="M 276.185,948.45 254.869,948.45 z" id="boundary" inkscape:connector-curvature="0" />
	<path style="fill:none;stroke:red;stroke-width:1px;stroke-linecap:butt;stroke-linejoin:miter;stroke-opacity:1" d="M 254.869,922.215 271.266,914.017 z" id="boundary" inkscape:connector-curvature="0" />
	<path style="fill:none;stroke:red;stroke-width:1px;stroke-linecap:butt;stroke-linejoin:miter;stroke-opacity:1" d="M 284.383,900.899 271.266,914.017 z" id="boundary" inkscape:connector-curvature="0" />
	<path style="fill:none;stroke:red;stroke-width:1px;stroke-linecap:butt;stroke-linejoin:miter;stroke-opacity:1" d="M 276.185,981.243 263.068,996 z" id="boundary" inkscape:connector-curvature="0" />
	<path style="fill:none;stroke:red;stroke-width:1px;stroke-linecap:butt;stroke-linejoin:miter;stroke-opacity:1" d="M 263.068,996 246.671,996 z" id="boundary" inkscape:connector-curvature="0" />
	<path style="fill:none;stroke:red;stroke-width:1px;stroke-linecap:butt;stroke-linejoin:miter;stroke-opacity:1" d="M 292.582,973.045 276.185,981.243 z" id="boundary" inkscape:connector-curvature="0" />
	<path style="fill:none;stroke:red;stroke-width:1px;stroke-linecap:butt;stroke-linejoin:miter;stroke-opacity:1" d="M 276.185,948.45 292.582,973.045 z" id="boundary" inkscape:connector-curvature="0" />
	<path style="fill:none;stroke:red;stroke-width:1px;stroke-linecap:butt;stroke-linejoin:miter;stroke-opacity:1" d="M 292.582,973.045 308.979,973.045 z" id="boundary" inkscape:connector-curvature="0" />
	<path style="fill:none;stroke:red;stroke-width:1px;stroke-linecap:butt;stroke-linejoin:miter;stroke-opacity:1" d="M 325.375,325.375 333.574,340.132 z" id="boundary" inkscape:connector-curvature="0" />
	<path style="fill:none;stroke:red;stroke-width:1px;stroke-linecap:butt;stroke-linejoin:miter;stroke-opacity:1" d="M 325.375,325.375 317.177,310.618 z" id="boundary" inkscape:connector-curvature="0" />
	<path style="fill:none;stroke:red;stroke-width:1px;stroke-linecap:butt;stroke-linejoin:miter;stroke-opacity:1" d="M 333.574,340.132 341.772,354.889 z" id="boundary" inkscape:connector-curvature="0" />
	<path style="fill:none;stroke:red;stroke-width:1px;stroke-linecap:butt;stroke-linejoin:miter;stroke-opacity:1" d="M 341.772,354.889 349.97,369.646 z" id="boundary" inkscape:connector-curvature="0" />
	<path style="fill:none;stroke:red;stroke-width:1px;stroke-linecap:butt;stroke-linejoin:miter;stroke-opacity:1" d="M 349.97,369.646 356.529,386.043 z" id="boundary" inkscape:connector-curvature="0" />
	<path style="fill:none;stroke:red;stroke-width:1px;stroke-linecap:butt;stroke-linejoin:miter;stroke-opacity:1" d="M 369.646,397.521 356.529,386.043 z" id="boundary" inkscape:connector-curvature="0" />
	<path style="fill:none;stroke:red;stroke-width:1px;stroke-linecap:butt;stroke-linejoin:miter;stroke-opacity:1" d="M 394.241,422.116 381.124,410.638 z" id="boundary" inkscape:connector-curvature="0" />
	<path style="fill:none;stroke:red;stroke-width:1px;stroke-linecap:butt;stroke-linejoin:miter;stroke-opacity:1" d="M 381.124,410.638 369.646,397.521 z" id="boundary" inkscape:connector-curvature="0" />
	<path style="fill:none;stroke:red;stroke-width:1px;stroke-linecap:butt;stroke-linejoin:miter;stroke-opacity:1" d="M 394.241,422.116 399.16,438.512 z" id="boundary" inkscape:connector-curvature="0" />
	<path style="fill:none;stroke:red;stroke-width:1px;stroke-linecap:butt;stroke-linejoin:miter;stroke-opacity:1" d="M 399.16,438.512 412.278,448.35 z" id="boundary" inkscape:connector-curvature="0" />
	<path style="fill:none;stroke:red;stroke-width:1px;stroke-linecap:butt;stroke-linejoin:miter;stroke-opacity:1" d="M 412.278,448.35 423.755,461.468 z" id="boundary" inkscape:connector-curvature="0" />
	<path style="fill:none;stroke:red;stroke-width:1px;stroke-linecap:butt;stroke-linejoin:miter;stroke-opacity:1" d="M 423.755,461.468 436.873,472.945 z" id="boundary" inkscape:connector-curvature="0" />
	<path style="fill:none;stroke:red;stroke-width:1px;stroke-linecap:butt;stroke-linejoin:miter;stroke-opacity:1" d="M 436.873,472.945 443.431,489.342 z" id="boundary" inkscape:connector-curvature="0" />
	<path style="fill:none;stroke:red;stroke-width:1px;stroke-linecap:butt;stroke-linejoin:miter;stroke-opacity:1" d="M 456.549,500.82 443.431,489.342 z" id="boundary" inkscape:connector-curvature="0" />
	<path style="fill:none;stroke:red;stroke-width:1px;stroke-linecap:butt;stroke-linejoin:miter;stroke-opacity:1" d="M 431.954,809.078 415.557,809.078 z" id="boundary" inkscape:connector-curvature="0" />
	<path style="fill:none;stroke:red;stroke-width:1px;stroke-linecap:butt;stroke-linejoin:miter;stroke-opacity:1" d="M 423.755,823.835 431.954,809.078 z" id="boundary" inkscape:connector-curvature="0" />
	<path style="fill:none;stroke:red;stroke-width:1px;stroke-linecap:butt;stroke-linejoin:miter;stroke-opacity:1" d="M 431.954,809.078 446.711,817.276 z" id="boundary" inkscape:connector-curvature="0" />
	<path style="fill:none;stroke:red;stroke-width:1px;stroke-linecap:butt;stroke-linejoin:miter;stroke-opacity:1" d="M 463.107,817.276 446.711,817.276 z" id="boundary" inkscape:connector-curvature="0" />
	<path style="fill:none;stroke:red;stroke-width:1px;stroke-linecap:butt;stroke-linejoin:miter;stroke-opacity:1" d="M 423.755,841.871 423.755,823.835 z" id="boundary" inkscape:connector-curvature="0" />
	<path style="fill:none;stroke:red;stroke-width:1px;stroke-linecap:butt;stroke-linejoin:miter;stroke-opacity:1" d="M 456.549,500.82 468.026,513.937 z" id="boundary" inkscape:connector-curvature="0" />
	<path style="fill:none;stroke:red;stroke-width:1px;stroke-linecap:butt;stroke-linejoin:miter;stroke-opacity:1" d="M 468.026,513.937 481.144,525.415 z" id="boundary" inkscape:connector-curvature="0" />
	<path style="fill:none;stroke:red;stroke-width:1px;stroke-linecap:butt;stroke-linejoin:miter;stroke-opacity:1" d="M 481.144,525.415 487.702,541.812 z" id="boundary" inkscape:connector-curvature="0" />
	<path style="fill:none;stroke:red;stroke-width:1px;stroke-linecap:butt;stroke-linejoin:miter;stroke-opacity:1" d="M 495.901,556.569 487.702,541.812 z" id="boundary" inkscape:connector-curvature="0" />
	<path style="fill:none;stroke:red;stroke-width:1px;stroke-linecap:butt;stroke-linejoin:miter;stroke-opacity:1" d="M 495.901,556.569 505.739,569.686 z" id="boundary" inkscape:connector-curvature="0" />
	<path style="fill:none;stroke:red;stroke-width:1px;stroke-linecap:butt;stroke-linejoin:miter;stroke-opacity:1" d="M 477.864,825.474 463.107,817.276 z" id="boundary" inkscape:connector-curvature="0" />
	<path style="fill:none;stroke:red;stroke-width:1px;stroke-linecap:butt;stroke-linejoin:miter;stroke-opacity:1" d="M 518.856,579.524 505.739,569.686 z" id="boundary" inkscape:connector-curvature="0" />
	<path style="fill:none;stroke:red;stroke-width:1px;stroke-linecap:butt;stroke-linejoin:miter;stroke-opacity:1" d="M 415.557,809.078 399.16,882.863 z" id="boundary" inkscape:connector-curvature="0" />
	<path style="fill:none;stroke:red;stroke-width:1px;stroke-linecap:butt;stroke-linejoin:miter;stroke-opacity:1" d="M 543.451,604.119 530.334,592.641 z" id="boundary" inkscape:connector-curvature="0" />
	<path style="fill:none;stroke:red;stroke-width:1px;stroke-linecap:butt;stroke-linejoin:miter;stroke-opacity:1" d="M 530.334,592.641 518.856,579.524 z" id="boundary" inkscape:connector-curvature="0" />
	<path style="fill:none;stroke:red;stroke-width:1px;stroke-linecap:butt;stroke-linejoin:miter;stroke-opacity:1" d="M 543.451,604.119 554.929,617.236 z" id="boundary" inkscape:connector-curvature="0" />
	<path style="fill:none;stroke:red;stroke-width:1px;stroke-linecap:butt;stroke-linejoin:miter;stroke-opacity:1" d="M 568.046,628.714 579.524,641.831 z" id="boundary" inkscape:connector-curvature="0" />
	<path style="fill:none;stroke:red;stroke-width:1px;stroke-linecap:butt;stroke-linejoin:miter;stroke-opacity:1" d="M 568.046,628.714 554.929,617.236 z" id="boundary" inkscape:connector-curvature="0" />
	<path style="fill:none;stroke:red;stroke-width:1px;stroke-linecap:butt;stroke-linejoin:miter;stroke-opacity:1" d="M 592.641,653.309 579.524,641.831 z" id="boundary" inkscape:connector-curvature="0" />
	<path style="fill:none;stroke:red;stroke-width:1px;stroke-linecap:butt;stroke-linejoin:miter;stroke-opacity:1" d="M 620.516,672.985 604.119,666.426 z" id="boundary" inkscape:connector-curvature="0" />
	<path style="fill:none;stroke:red;stroke-width:1px;stroke-linecap:butt;stroke-linejoin:miter;stroke-opacity:1" d="M 604.119,666.426 592.641,653.309 z" id="boundary" inkscape:connector-curvature="0" />
	<path style="fill:none;stroke:red;stroke-width:1px;stroke-linecap:butt;stroke-linejoin:miter;stroke-opacity:1" d="M 620.516,672.985 631.993,686.102 z" id="boundary" inkscape:connector-curvature="0" />
	<path style="fill:none;stroke:red;stroke-width:1px;stroke-linecap:butt;stroke-linejoin:miter;stroke-opacity:1" d="M 645.111,697.58 631.993,686.102 z" id="boundary" inkscape:connector-curvature="0" />
	<path style="fill:none;stroke:red;stroke-width:1px;stroke-linecap:butt;stroke-linejoin:miter;stroke-opacity:1" d="M 684.463,730.374 669.706,722.175 z" id="boundary" inkscape:connector-curvature="0" />
	<path style="fill:none;stroke:red;stroke-width:1px;stroke-linecap:butt;stroke-linejoin:miter;stroke-opacity:1" d="M 669.706,722.175 656.588,710.698 z" id="boundary" inkscape:connector-curvature="0" />
	<path style="fill:none;stroke:red;stroke-width:1px;stroke-linecap:butt;stroke-linejoin:miter;stroke-opacity:1" d="M 656.588,710.698 645.111,697.58 z" id="boundary" inkscape:connector-curvature="0" />
	<path style="fill:none;stroke:red;stroke-width:1px;stroke-linecap:butt;stroke-linejoin:miter;stroke-opacity:1" d="M 525.415,833.673 509.018,832.033 z" id="boundary" inkscape:connector-curvature="0" />
	<path style="fill:none;stroke:red;stroke-width:1px;stroke-linecap:butt;stroke-linejoin:miter;stroke-opacity:1" d="M 712.337,750.05 697.58,741.851 z" id="boundary" inkscape:connector-curvature="0" />
	<path style="fill:none;stroke:red;stroke-width:1px;stroke-linecap:butt;stroke-linejoin:miter;stroke-opacity:1" d="M 697.58,741.851 684.463,730.374 z" id="boundary" inkscape:connector-curvature="0" />
	<path style="fill:none;stroke:red;stroke-width:1px;stroke-linecap:butt;stroke-linejoin:miter;stroke-opacity:1" d="M 712.337,750.05 725.455,761.527 z" id="boundary" inkscape:connector-curvature="0" />
	<path style="fill:none;stroke:red;stroke-width:1px;stroke-linecap:butt;stroke-linejoin:miter;stroke-opacity:1" d="M 740.212,769.726 725.455,761.527 z" id="boundary" inkscape:connector-curvature="0" />
	<path style="fill:none;stroke:red;stroke-width:1px;stroke-linecap:butt;stroke-linejoin:miter;stroke-opacity:1" d="M 740.212,769.726 750.05,782.843 z" id="boundary" inkscape:connector-curvature="0" />
	<path style="fill:none;stroke:red;stroke-width:1px;stroke-linecap:butt;stroke-linejoin:miter;stroke-opacity:1" d="M 750.05,782.843 764.807,791.041 z" id="boundary" inkscape:connector-curvature="0" />
	<path style="fill:none;stroke:red;stroke-width:1px;stroke-linecap:butt;stroke-linejoin:miter;stroke-opacity:1" d="M 779.564,799.24 764.807,791.041 z" id="boundary" inkscape:connector-curvature="0" />
	<path style="fill:none;stroke:red;stroke-width:1px;stroke-linecap:butt;stroke-linejoin:miter;stroke-opacity:1" d="M 794.321,807.438 809.078,815.636 z" id="boundary" inkscape:connector-curvature="0" />
	<path style="fill:none;stroke:red;stroke-width:1px;stroke-linecap:butt;stroke-linejoin:miter;stroke-opacity:1" d="M 809.078,815.636 817.276,830.393 z" id="boundary" inkscape:connector-curvature="0" />
	<path style="fill:none;stroke:red;stroke-width:1px;stroke-linecap:butt;stroke-linejoin:miter;stroke-opacity:1" d="M 817.276,830.393 833.673,828.754 z" id="boundary" inkscape:connector-curvature="0" />
	<path style="fill:none;stroke:red;stroke-width:1px;stroke-linecap:butt;stroke-linejoin:miter;stroke-opacity:1" d="M 833.673,828.754 845.15,841.871 z" id="boundary" inkscape:connector-curvature="0" />
	<path style="fill:none;stroke:red;stroke-width:1px;stroke-linecap:butt;stroke-linejoin:miter;stroke-opacity:1" d="M 794.321,807.438 779.564,799.24 z" id="boundary" inkscape:connector-curvature="0" />
	<path style="fill:none;stroke:red;stroke-width:1px;stroke-linecap:butt;stroke-linejoin:miter;stroke-opacity:1" d="M 817.276,830.393 800.879,874.664 z" id="boundary" inkscape:connector-curvature="0" />
	<path style="fill:none;stroke:red;stroke-width:1px;stroke-linecap:butt;stroke-linejoin:miter;stroke-opacity:1" d="M 492.621,833.673 477.864,825.474 z" id="boundary" inkscape:connector-curvature="0" />
	<path style="fill:none;stroke:red;stroke-width:1px;stroke-linecap:butt;stroke-linejoin:miter;stroke-opacity:1" d="M 509.018,832.033 492.621,833.673 z" id="boundary" inkscape:connector-curvature="0" />
	<path style="fill:none;stroke:red;stroke-width:1px;stroke-linecap:butt;stroke-linejoin:miter;stroke-opacity:1" d="M 423.755,858.268 423.755,841.871 z" id="boundary" inkscape:connector-curvature="0" />
	<path style="fill:none;stroke:red;stroke-width:1px;stroke-linecap:butt;stroke-linejoin:miter;stroke-opacity:1" d="M 525.415,833.673 540.172,841.871 z" id="boundary" inkscape:connector-curvature="0" />
	<path style="fill:none;stroke:red;stroke-width:1px;stroke-linecap:butt;stroke-linejoin:miter;stroke-opacity:1" d="M 412.278,871.385 423.755,858.268 z" id="boundary" inkscape:connector-curvature="0" />
	<path style="fill:none;stroke:red;stroke-width:1px;stroke-linecap:butt;stroke-linejoin:miter;stroke-opacity:1" d="M 556.569,841.871 540.172,841.871 z" id="boundary" inkscape:connector-curvature="0" />
	<path style="fill:none;stroke:red;stroke-width:1px;stroke-linecap:butt;stroke-linejoin:miter;stroke-opacity:1" d="M 412.278,871.385 399.16,882.863 z" id="boundary" inkscape:connector-curvature="0" />
	<path style="fill:none;stroke:red;stroke-width:1px;stroke-linecap:butt;stroke-linejoin:miter;stroke-opacity:1" d="M 589.362,846.79 572.965,846.79 z" id="boundary" inkscape:connector-curvature="0" />
	<path style="fill:none;stroke:red;stroke-width:1px;stroke-linecap:butt;stroke-linejoin:miter;stroke-opacity:1" d="M 572.965,846.79 556.569,841.871 z" id="boundary" inkscape:connector-curvature="0" />
	<path style="fill:none;stroke:red;stroke-width:1px;stroke-linecap:butt;stroke-linejoin:miter;stroke-opacity:1" d="M 605.759,850.069 620.516,858.268 z" id="boundary" inkscape:connector-curvature="0" />
	<path style="fill:none;stroke:red;stroke-width:1px;stroke-linecap:butt;stroke-linejoin:miter;stroke-opacity:1" d="M 589.362,846.79 605.759,850.069 z" id="boundary" inkscape:connector-curvature="0" />
	<path style="fill:none;stroke:red;stroke-width:1px;stroke-linecap:butt;stroke-linejoin:miter;stroke-opacity:1" d="M 636.912,861.547 620.516,858.268 z" id="boundary" inkscape:connector-curvature="0" />
	<path style="fill:none;stroke:red;stroke-width:1px;stroke-linecap:butt;stroke-linejoin:miter;stroke-opacity:1" d="M 636.912,861.547 651.669,869.745 z" id="boundary" inkscape:connector-curvature="0" />
	<path style="fill:none;stroke:red;stroke-width:1px;stroke-linecap:butt;stroke-linejoin:miter;stroke-opacity:1" d="M 358.169,923.855 358.169,940.251 z" id="boundary" inkscape:connector-curvature="0" />
	<path style="fill:none;stroke:red;stroke-width:1px;stroke-linecap:butt;stroke-linejoin:miter;stroke-opacity:1" d="M 356.529,964.846 341.772,973.045 z" id="boundary" inkscape:connector-curvature="0" />
	<path style="fill:none;stroke:red;stroke-width:1px;stroke-linecap:butt;stroke-linejoin:miter;stroke-opacity:1" d="M 358.169,923.855 374.565,907.458 z" id="boundary" inkscape:connector-curvature="0" />
	<path style="fill:none;stroke:red;stroke-width:1px;stroke-linecap:butt;stroke-linejoin:miter;stroke-opacity:1" d="M 358.169,940.251 371.286,956.648 z" id="boundary" inkscape:connector-curvature="0" />
	<path style="fill:none;stroke:red;stroke-width:1px;stroke-linecap:butt;stroke-linejoin:miter;stroke-opacity:1" d="M 371.286,956.648 356.529,964.846 z" id="boundary" inkscape:connector-curvature="0" />
	<path style="fill:none;stroke:red;stroke-width:1px;stroke-linecap:butt;stroke-linejoin:miter;stroke-opacity:1" d="M 325.375,976.324 308.979,973.045 z" id="boundary" inkscape:connector-curvature="0" />
	<path style="fill:none;stroke:red;stroke-width:1px;stroke-linecap:butt;stroke-linejoin:miter;stroke-opacity:1" d="M 341.772,973.045 325.375,976.324 z" id="boundary" inkscape:connector-curvature="0" />
	<path style="fill:none;stroke:red;stroke-width:1px;stroke-linecap:butt;stroke-linejoin:miter;stroke-opacity:1" d="M 387.683,895.98 374.565,907.458 z" id="boundary" inkscape:connector-curvature="0" />
	<path style="fill:none;stroke:red;stroke-width:1px;stroke-linecap:butt;stroke-linejoin:miter;stroke-opacity:1" d="M 399.16,882.863 387.683,895.98 z" id="boundary" inkscape:connector-curvature="0" />
	<path style="fill:none;stroke:red;stroke-width:1px;stroke-linecap:butt;stroke-linejoin:miter;stroke-opacity:1" d="M 399.16,882.863 402.44,963.207 z" id="boundary" inkscape:connector-curvature="0" />
	<path style="fill:none;stroke:red;stroke-width:1px;stroke-linecap:butt;stroke-linejoin:miter;stroke-opacity:1" d="M 386.043,964.846 394.241,979.603 z" id="boundary" inkscape:connector-curvature="0" />
	<path style="fill:none;stroke:red;stroke-width:1px;stroke-linecap:butt;stroke-linejoin:miter;stroke-opacity:1" d="M 386.043,964.846 371.286,956.648 z" id="boundary" inkscape:connector-curvature="0" />
	<path style="fill:none;stroke:red;stroke-width:1px;stroke-linecap:butt;stroke-linejoin:miter;stroke-opacity:1" d="M 402.44,963.207 386.043,964.846 z" id="boundary" inkscape:connector-curvature="0" />
	<path style="fill:none;stroke:red;stroke-width:1px;stroke-linecap:butt;stroke-linejoin:miter;stroke-opacity:1" d="M 651.669,869.745 394.241,979.603 z" id="boundary" inkscape:connector-curvature="0" />
	<path style="fill:none;stroke:red;stroke-width:1px;stroke-linecap:butt;stroke-linejoin:miter;stroke-opacity:1" d="M 682.823,882.863 668.066,874.664 z" id="boundary" inkscape:connector-curvature="0" />
	<path style="fill:none;stroke:red;stroke-width:1px;stroke-linecap:butt;stroke-linejoin:miter;stroke-opacity:1" d="M 697.58,891.061 682.823,882.863 z" id="boundary" inkscape:connector-curvature="0" />
	<path style="fill:none;stroke:red;stroke-width:1px;stroke-linecap:butt;stroke-linejoin:miter;stroke-opacity:1" d="M 651.669,869.745 668.066,874.664 z" id="boundary" inkscape:connector-curvature="0" />
	<path style="fill:none;stroke:red;stroke-width:1px;stroke-linecap:butt;stroke-linejoin:miter;stroke-opacity:1" d="M 712.337,899.26 697.58,891.061 z" id="boundary" inkscape:connector-curvature="0" />
	<path style="fill:none;stroke:red;stroke-width:1px;stroke-linecap:butt;stroke-linejoin:miter;stroke-opacity:1" d="M 727.094,907.458 712.337,899.26 z" id="boundary" inkscape:connector-curvature="0" />
	<path style="fill:none;stroke:red;stroke-width:1px;stroke-linecap:butt;stroke-linejoin:miter;stroke-opacity:1" d="M 800.879,874.664 813.997,884.502 z" id="boundary" inkscape:connector-curvature="0" />
	<path style="fill:none;stroke:red;stroke-width:1px;stroke-linecap:butt;stroke-linejoin:miter;stroke-opacity:1" d="M 845.15,841.871 858.268,853.349 z" id="boundary" inkscape:connector-curvature="0" />
	<path style="fill:none;stroke:red;stroke-width:1px;stroke-linecap:butt;stroke-linejoin:miter;stroke-opacity:1" d="M 863.187,871.385 858.268,853.349 z" id="boundary" inkscape:connector-curvature="0" />
	<path style="fill:none;stroke:red;stroke-width:1px;stroke-linecap:butt;stroke-linejoin:miter;stroke-opacity:1" d="M 882.863,940.251 863.187,871.385 z" id="boundary" inkscape:connector-curvature="0" />
	<path style="fill:none;stroke:red;stroke-width:1px;stroke-linecap:butt;stroke-linejoin:miter;stroke-opacity:1" d="M 863.187,871.385 850.069,882.863 z" id="boundary" inkscape:connector-curvature="0" />
	<path style="fill:none;stroke:red;stroke-width:1px;stroke-linecap:butt;stroke-linejoin:miter;stroke-opacity:1" d="M 825.474,897.62 833.673,882.863 z" id="boundary" inkscape:connector-curvature="0" />
	<path style="fill:none;stroke:red;stroke-width:1px;stroke-linecap:butt;stroke-linejoin:miter;stroke-opacity:1" d="M 841.871,902.539 825.474,897.62 z" id="boundary" inkscape:connector-curvature="0" />
	<path style="fill:none;stroke:red;stroke-width:1px;stroke-linecap:butt;stroke-linejoin:miter;stroke-opacity:1" d="M 825.474,897.62 813.997,884.502 z" id="boundary" inkscape:connector-curvature="0" />
	<path style="fill:none;stroke:red;stroke-width:1px;stroke-linecap:butt;stroke-linejoin:miter;stroke-opacity:1" d="M 856.628,910.737 841.871,902.539 z" id="boundary" inkscape:connector-curvature="0" />
	<path style="fill:none;stroke:red;stroke-width:1px;stroke-linecap:butt;stroke-linejoin:miter;stroke-opacity:1" d="M 833.673,882.863 850.069,882.863 z" id="boundary" inkscape:connector-curvature="0" />
	<path style="fill:none;stroke:red;stroke-width:1px;stroke-linecap:butt;stroke-linejoin:miter;stroke-opacity:1" d="M 820.555,940.251 825.474,897.62 z" id="boundary" inkscape:connector-curvature="0" />
	<path style="fill:none;stroke:red;stroke-width:1px;stroke-linecap:butt;stroke-linejoin:miter;stroke-opacity:1" d="M 727.094,907.458 741.851,915.656 z" id="boundary" inkscape:connector-curvature="0" />
	<path style="fill:none;stroke:red;stroke-width:1px;stroke-linecap:butt;stroke-linejoin:miter;stroke-opacity:1" d="M 756.608,923.855 741.851,915.656 z" id="boundary" inkscape:connector-curvature="0" />
	<path style="fill:none;stroke:red;stroke-width:1px;stroke-linecap:butt;stroke-linejoin:miter;stroke-opacity:1" d="M 773.005,923.855 756.608,923.855 z" id="boundary" inkscape:connector-curvature="0" />
	<path style="fill:none;stroke:red;stroke-width:1px;stroke-linecap:butt;stroke-linejoin:miter;stroke-opacity:1" d="M 804.159,938.612 787.762,932.053 z" id="boundary" inkscape:connector-curvature="0" />
	<path style="fill:none;stroke:red;stroke-width:1px;stroke-linecap:butt;stroke-linejoin:miter;stroke-opacity:1" d="M 787.762,932.053 773.005,923.855 z" id="boundary" inkscape:connector-curvature="0" />
	<path style="fill:none;stroke:red;stroke-width:1px;stroke-linecap:butt;stroke-linejoin:miter;stroke-opacity:1" d="M 836.952,940.251 820.555,940.251 z" id="boundary" inkscape:connector-curvature="0" />
	<path style="fill:none;stroke:red;stroke-width:1px;stroke-linecap:butt;stroke-linejoin:miter;stroke-opacity:1" d="M 820.555,940.251 804.159,938.612 z" id="boundary" inkscape:connector-curvature="0" />
	<path style="fill:none;stroke:red;stroke-width:1px;stroke-linecap:butt;stroke-linejoin:miter;stroke-opacity:1" d="M 869.745,922.215 856.628,910.737 z" id="boundary" inkscape:connector-curvature="0" />
	<path style="fill:none;stroke:red;stroke-width:1px;stroke-linecap:butt;stroke-linejoin:miter;stroke-opacity:1" d="M 836.952,940.251 851.709,948.45 z" id="boundary" inkscape:connector-curvature="0" />
	<path style="fill:none;stroke:red;stroke-width:1px;stroke-linecap:butt;stroke-linejoin:miter;stroke-opacity:1" d="M 868.106,948.45 851.709,948.45 z" id="boundary" inkscape:connector-curvature="0" />
	<path style="fill:none;stroke:red;stroke-width:1px;stroke-linecap:butt;stroke-linejoin:miter;stroke-opacity:1" d="M 882.863,940.251 868.106,948.45 z" id="boundary" inkscape:connector-curvature="0" />
	<path style="fill:none;stroke:red;stroke-width:1px;stroke-linecap:butt;stroke-linejoin:miter;stroke-opacity:1" d="M 869.745,922.215 882.863,940.251 z" id="boundary" inkscape:connector-curvature="0" />
	<circle cx="4" cy="90.9025" r="4" fill="#0" id="circle0"/>
	<circle cx="12.1983" cy="105.66" r="4" fill="#0" id="circle1"/>
	<circle cx="20.3967" cy="74.5058" r="4" fill="#0" id="circle2"/>
	<circle cx="28.595" cy="107.299" r="4" fill="#0" id="circle3"/>
	<circle cx="36.7934" cy="66.3074" r="4" fill="#0" id="circle4"/>
	<circle cx="44.9917" cy="104.02" r="4" fill="#0" id="circle5"/>
	<circle cx="49.9107" cy="53.1901" r="4" fill="#0" id="circle6"/>
	<circle cx="61.3884" cy="104.02" r="4" fill="#0" id="circle7"/>
	<circle cx="66.3074" cy="44.9917" r="4" fill="#0" id="circle8"/>
	<circle cx="77.7851" cy="104.02" r="4" fill="#0" id="circle9"/>
	<circle cx="79.4248" cy="31.8744" r="4" fill="#0" id="circle10"/>
	<circle cx="85.9835" cy="361.448" r="4" fill="#0" id="circle11"/>
	<circle cx="85.9835" cy="377.845" r="4" fill="#0" id="circle12"/>
	<circle cx="85.9835" cy="394.241" r="4" fill="#0" id="circle13"/>
	<circle cx="85.9835" cy="418.836" r="4" fill="#0" id="circle14"/>
	<circle cx="85.9835" cy="435.233" r="4" fill="#0" id="circle15"/>
	<circle cx="85.9835" cy="459.828" r="4" fill="#0" id="circle16"/>
	<circle cx="85.9835" cy="484.423" r="4" fill="#0" id="circle17"/>
	<circle cx="85.9835" cy="500.82" r="4" fill="#0" id="circle18"/>
	<circle cx="87.6231" cy="117.137" r="4" fill="#0" id="circle19"/>
	<circle cx="92.5421" cy="20.3967" r="4" fill="#0" id="circle20"/>
	<circle cx="94.1818" cy="312.258" r="4" fill="#0" id="circle21"/>
	<circle cx="94.1818" cy="328.655" r="4" fill="#0" id="circle22"/>
	<circle cx="94.1818" cy="345.051" r="4" fill="#0" id="circle23"/>
	<circle cx="94.1818" cy="515.577" r="4" fill="#0" id="circle24"/>
	<circle cx="102.38" cy="125.336" r="4" fill="#0" id="circle25"/>
	<circle cx="102.38" cy="254.869" r="4" fill="#0" id="circle26"/>
	<circle cx="102.38" cy="279.464" r="4" fill="#0" id="circle27"/>
	<circle cx="102.38" cy="295.861" r="4" fill="#0" id="circle28"/>
	<circle cx="102.38" cy="530.334" r="4" fill="#0" id="circle29"/>
	<circle cx="102.38" cy="546.731" r="4" fill="#0" id="circle30"/>
	<circle cx="107.299" cy="12.1983" r="4" fill="#0" id="circle31"/>
	<circle cx="110.579" cy="140.093" r="4" fill="#0" id="circle32"/>
	<circle cx="110.579" cy="213.878" r="4" fill="#0" id="circle33"/>
	<circle cx="110.579" cy="230.274" r="4" fill="#0" id="circle34"/>
	<circle cx="110.579" cy="561.488" r="4" fill="#0" id="circle35"/>
	<circle cx="113.858" cy="577.884" r="4" fill="#0" id="circle36"/>
	<circle cx="118.777" cy="154.85" r="4" fill="#0" id="circle37"/>
	<circle cx="118.777" cy="171.246" r="4" fill="#0" id="circle38"/>
	<circle cx="118.777" cy="187.643" r="4" fill="#0" id="circle39"/>
	<circle cx="122.056" cy="4" r="4" fill="#0" id="circle40"/>
	<circle cx="122.056" cy="592.641" r="4" fill="#0" id="circle41"/>
	<circle cx="135.174" cy="604.119" r="4" fill="#0" id="circle42"/>
	<circle cx="138.453" cy="4" r="4" fill="#0" id="circle43"/>
	<circle cx="140.093" cy="620.516" r="4" fill="#0" id="circle44"/>
	<circle cx="153.21" cy="631.993" r="4" fill="#0" id="circle45"/>
	<circle cx="154.85" cy="4" r="4" fill="#0" id="circle46"/>
	<circle cx="159.769" cy="648.39" r="4" fill="#0" id="circle47"/>
	<circle cx="171.246" cy="4" r="4" fill="#0" id="circle48"/>
	<circle cx="172.886" cy="659.868" r="4" fill="#0" id="circle49"/>
	<circle cx="184.364" cy="672.985" r="4" fill="#0" id="circle50"/>
	<circle cx="186.003" cy="12.1983" r="4" fill="#0" id="circle51"/>
	<circle cx="192.562" cy="959.927" r="4" fill="#0" id="circle52"/>
	<circle cx="200.76" cy="677.904" r="4" fill="#0" id="circle53"/>
	<circle cx="202.4" cy="17.1174" r="4" fill="#0" id="circle54"/>
	<circle cx="205.679" cy="946.81" r="4" fill="#0" id="circle55"/>
	<circle cx="208.959" cy="964.846" r="4" fill="#0" id="circle56"/>
	<circle cx="210.598" cy="691.021" r="4" fill="#0" id="circle57"/>
	<circle cx="213.878" cy="30.2347" r="4" fill="#0" id="circle58"/>
	<circle cx="222.076" cy="938.612" r="4" fill="#0" id="circle59"/>
	<circle cx="223.716" cy="702.499" r="4" fill="#0" id="circle60"/>
	<circle cx="223.716" cy="956.648" r="4" fill="#0" id="circle61"/>
	<circle cx="226.995" cy="41.7124" r="4" fill="#0" id="circle62"/>
	<circle cx="233.554" cy="984.522" r="4" fill="#0" id="circle63"/>
	<circle cx="235.193" cy="56.4694" r="4" fill="#0" id="circle64"/>
	<circle cx="235.193" cy="715.617" r="4" fill="#0" id="circle65"/>
	<circle cx="238.473" cy="930.413" r="4" fill="#0" id="circle66"/>
	<circle cx="240.112" cy="956.648" r="4" fill="#0" id="circle67"/>
	<circle cx="243.392" cy="71.2264" r="4" fill="#0" id="circle68"/>
	<circle cx="246.671" cy="996" r="4" fill="#0" id="circle69"/>
	<circle cx="248.311" cy="727.094" r="4" fill="#0" id="circle70"/>
	<circle cx="251.59" cy="85.9835" r="4" fill="#0" id="circle71"/>
	<circle cx="251.59" cy="102.38" r="4" fill="#0" id="circle72"/>
	<circle cx="254.869" cy="743.491" r="4" fill="#0" id="circle73"/>
	<circle cx="254.869" cy="922.215" r="4" fill="#0" id="circle74"/>
	<circle cx="254.869" cy="948.45" r="4" fill="#0" id="circle75"/>
	<circle cx="259.788" cy="117.137" r="4" fill="#0" id="circle76"/>
	<circle cx="263.068" cy="758.248" r="4" fill="#0" id="circle77"/>
	<circle cx="263.068" cy="996" r="4" fill="#0" id="circle78"/>
	<circle cx="267.987" cy="131.894" r="4" fill="#0" id="circle79"/>
	<circle cx="267.987" cy="148.291" r="4" fill="#0" id="circle80"/>
	<circle cx="271.266" cy="914.017" r="4" fill="#0" id="circle81"/>
	<circle cx="274.545" cy="771.365" r="4" fill="#0" id="circle82"/>
	<circle cx="276.185" cy="163.048" r="4" fill="#0" id="circle83"/>
	<circle cx="276.185" cy="179.445" r="4" fill="#0" id="circle84"/>
	<circle cx="276.185" cy="195.841" r="4" fill="#0" id="circle85"/>
	<circle cx="276.185" cy="948.45" r="4" fill="#0" id="circle86"/>
	<circle cx="276.185" cy="981.243" r="4" fill="#0" id="circle87"/>
	<circle cx="282.744" cy="786.122" r="4" fill="#0" id="circle88"/>
	<circle cx="284.383" cy="210.598" r="4" fill="#0" id="circle89"/>
	<circle cx="284.383" cy="235.193" r="4" fill="#0" id="circle90"/>
	<circle cx="284.383" cy="900.899" r="4" fill="#0" id="circle91"/>
	<circle cx="290.942" cy="800.879" r="4" fill="#0" id="circle92"/>
	<circle cx="292.582" cy="249.95" r="4" fill="#0" id="circle93"/>
	<circle cx="292.582" cy="973.045" r="4" fill="#0" id="circle94"/>
	<circle cx="297.501" cy="889.421" r="4" fill="#0" id="circle95"/>
	<circle cx="299.14" cy="815.636" r="4" fill="#0" id="circle96"/>
	<circle cx="300.78" cy="264.707" r="4" fill="#0" id="circle97"/>
	<circle cx="304.06" cy="873.025" r="4" fill="#0" id="circle98"/>
	<circle cx="307.339" cy="830.393" r="4" fill="#0" id="circle99"/>
	<circle cx="308.979" cy="279.464" r="4" fill="#0" id="circle100"/>
	<circle cx="308.979" cy="295.861" r="4" fill="#0" id="circle101"/>
	<circle cx="308.979" cy="846.79" r="4" fill="#0" id="circle102"/>
	<circle cx="308.979" cy="973.045" r="4" fill="#0" id="circle103"/>
	<circle cx="317.177" cy="310.618" r="4" fill="#0" id="circle104"/>
	<circle cx="325.375" cy="325.375" r="4" fill="#0" id="circle105"/>
	<circle cx="325.375" cy="976.324" r="4" fill="#0" id="circle106"/>
	<circle cx="333.574" cy="340.132" r="4" fill="#0" id="circle107"/>
	<circle cx="341.772" cy="354.889" r="4" fill="#0" id="circle108"/>
	<circle cx="341.772" cy="973.045" r="4" fill="#0" id="circle109"/>
	<circle cx="349.97" cy="369.646" r="4" fill="#0" id="circle110"/>
	<circle cx="356.529" cy="386.043" r="4" fill="#0" id="circle111"/>
	<circle cx="356.529" cy="964.846" r="4" fill="#0" id="circle112"/>
	<circle cx="358.169" cy="923.855" r="4" fill="#0" id="circle113"/>
	<circle cx="358.169" cy="940.251" r="4" fill="#0" id="circle114"/>
	<circle cx="369.646" cy="397.521" r="4" fill="#0" id="circle115"/>
	<circle cx="371.286" cy="956.648" r="4" fill="#0" id="circle116"/>
	<circle cx="374.565" cy="907.458" r="4" fill="#0" id="circle117"/>
	<circle cx="381.124" cy="410.638" r="4" fill="#0" id="circle118"/>
	<circle cx="386.043" cy="964.846" r="4" fill="#0" id="circle119"/>
	<circle cx="387.683" cy="895.98" r="4" fill="#0" id="circle120"/>
	<circle cx="394.241" cy="422.116" r="4" fill="#0" id="circle121"/>
	<circle cx="394.241" cy="979.603" r="4" fill="#0" id="circle122"/>
	<circle cx="399.16" cy="438.512" r="4" fill="#0" id="circle123"/>
	<circle cx="399.16" cy="882.863" r="4" fill="#0" id="circle124"/>
	<circle cx="402.44" cy="963.207" r="4" fill="#0" id="circle125"/>
	<circle cx="412.278" cy="448.35" r="4" fill="#0" id="circle126"/>
	<circle cx="412.278" cy="871.385" r="4" fill="#0" id="circle127"/>
	<circle cx="415.557" cy="809.078" r="4" fill="#0" id="circle128"/>
	<circle cx="423.755" cy="461.468" r="4" fill="#0" id="circle129"/>
	<circle cx="423.755" cy="823.835" r="4" fill="#0" id="circle130"/>
	<circle cx="423.755" cy="841.871" r="4" fill="#0" id="circle131"/>
	<circle cx="423.755" cy="858.268" r="4" fill="#0" id="circle132"/>
	<circle cx="431.954" cy="809.078" r="4" fill="#0" id="circle133"/>
	<circle cx="436.873" cy="472.945" r="4" fill="#0" id="circle134"/>
	<circle cx="443.431" cy="489.342" r="4" fill="#0" id="circle135"/>
	<circle cx="446.711" cy="817.276" r="4" fill="#0" id="circle136"/>
	<circle cx="456.549" cy="500.82" r="4" fill="#0" id="circle137"/>
	<circle cx="463.107" cy="817.276" r="4" fill="#0" id="circle138"/>
	<circle cx="468.026" cy="513.937" r="4" fill="#0" id="circle139"/>
	<circle cx="477.864" cy="825.474" r="4" fill="#0" id="circle140"/>
	<circle cx="481.144" cy="525.415" r="4" fill="#0" id="circle141"/>
	<circle cx="487.702" cy="541.812" r="4" fill="#0" id="circle142"/>
	<circle cx="492.621" cy="833.673" r="4" fill="#0" id="circle143"/>
	<circle cx="495.901" cy="556.569" r="4" fill="#0" id="circle144"/>
	<circle cx="505.739" cy="569.686" r="4" fill="#0" id="circle145"/>
	<circle cx="509.018" cy="832.033" r="4" fill="#0" id="circle146"/>
	<circle cx="518.856" cy="579.524" r="4" fill="#0" id="circle147"/>
	<circle cx="525.415" cy="833.673" r="4" fill="#0" id="circle148"/>
	<circle cx="530.334" cy="592.641" r="4" fill="#0" id="circle149"/>
	<circle cx="540.172" cy="841.871" r="4" fill="#0" id="circle150"/>
	<circle cx="543.451" cy="604.119" r="4" fill="#0" id="circle151"/>
	<circle cx="554.929" cy="617.236" r="4" fill="#0" id="circle152"/>
	<circle cx="556.569" cy="841.871" r="4" fill="#0" id="circle153"/>
	<circle cx="568.046" cy="628.714" r="4" fill="#0" id="circle154"/>
	<circle cx="572.965" cy="846.79" r="4" fill="#0" id="circle155"/>
	<circle cx="579.524" cy="641.831" r="4" fill="#0" id="circle156"/>
	<circle cx="589.362" cy="846.79" r="4" fill="#0" id="circle157"/>
	<circle cx="592.641" cy="653.309" r="4" fill="#0" id="circle158"/>
	<circle cx="604.119" cy="666.426" r="4" fill="#0" id="circle159"/>
	<circle cx="605.759" cy="850.069" r="4" fill="#0" id="circle160"/>
	<circle cx="620.516" cy="672.985" r="4" fill="#0" id="circle161"/>
	<circle cx="620.516" cy="858.268" r="4" fill="#0" id="circle162"/>
	<circle cx="631.993" cy="686.102" r="4" fill="#0" id="circle163"/>
	<circle cx="636.912" cy="861.547" r="4" fill="#0" id="circle164"/>
	<circle cx="645.111" cy="697.58" r="4" fill="#0" id="circle165"/>
	<circle cx="651.669" cy="869.745" r="4" fill="#0" id="circle166"/>
	<circle cx="656.588" cy="710.698" r="4" fill="#0" id="circle167"/>
	<circle cx="668.066" cy="874.664" r="4" fill="#0" id="circle168"/>
	<circle cx="669.706" cy="722.175" r="4" fill="#0" id="circle169"/>
	<circle cx="682.823" cy="882.863" r="4" fill="#0" id="circle170"/>
	<circle cx="684.463" cy="730.374" r="4" fill="#0" id="circle171"/>
	<circle cx="697.58" cy="741.851" r="4" fill="#0" id="circle172"/>
	<circle cx="697.58" cy="891.061" r="4" fill="#0" id="circle173"/>
	<circle cx="712.337" cy="750.05" r="4" fill="#0" id="circle174"/>
	<circle cx="712.337" cy="899.26" r="4" fill="#0" id="circle175"/>
	<circle cx="725.455" cy="761.527" r="4" fill="#0" id="circle176"/>
	<circle cx="727.094" cy="907.458" r="4" fill="#0" id="circle177"/>
	<circle cx="740.212" cy="769.726" r="4" fill="#0" id="circle178"/>
	<circle cx="741.851" cy="915.656" r="4" fill="#0" id="circle179"/>
	<circle cx="750.05" cy="782.843" r="4" fill="#0" id="circle180"/>
	<circle cx="756.608" cy="923.855" r="4" fill="#0" id="circle181"/>
	<circle cx="764.807" cy="791.041" r="4" fill="#0" id="circle182"/>
	<circle cx="773.005" cy="923.855" r="4" fill="#0" id="circle183"/>
	<circle cx="779.564" cy="799.24" r="4" fill="#0" id="circle184"/>
	<circle cx="787.762" cy="932.053" r="4" fill="#0" id="circle185"/>
	<circle cx="794.321" cy="807.438" r="4" fill="#0" id="circle186"/>
	<circle cx="800.879" cy="874.664" r="4" fill="#0" id="circle187"/>
	<circle cx="804.159" cy="938.612" r="4" fill="#0" id="circle188"/>
	<circle cx="809.078" cy="815.636" r="4" fill="#0" id="circle189"/>
	<circle cx="813.997" cy="884.502" r="4" fill="#0" id="circle190"/>
	<circle cx="817.276" cy="830.393" r="4" fill="#0" id="circle191"/>
	<circle cx="820.555" cy="940.251" r="4" fill="#0" id="circle192"/>
	<circle cx="825.474" cy="897.62" r="4" fill="#0" id="circle193"/>
	<circle cx="833.673" cy="828.754" r="4" fill="#0" id="circle194"/>
	<circle cx="833.673" cy="882.863" r="4" fill="#0" id="circle195"/>
	<circle cx="836.952" cy="940.251" r="4" fill="#0" id="circle196"/>
	<circle cx="841.871" cy="902.539" r="4" fill="#0" id="circle197"/>
	<circle cx="845.15" cy="841.871" r="4" fill="#0" id="circle198"/>
	<circle cx="850.069" cy="882.863" r="4" fill="#0" id="circle199"/>
	<circle cx="851.709" cy="948.45" r="4" fill="#0" id="circle200"/>
	<circle cx="856.628" cy="910.737" r="4" fill="#0" id="circle201"/>
	<circle cx="858.268" cy="853.349" r="4" fill="#0" id="circle202"/>
	<circle cx="863.187" cy="871.385" r="4" fill="#0" id="circle203"/>
	<circle cx="868.106" cy="948.45" r="4" fill="#0" id="circle204"/>
	<circle cx="869.745" cy="922.215" r="4" fill="#0" id="circle205"/>
	<circle cx="882.863" cy="940.251" r="4" fill="#0" id="circle206"/>
	</g>
</svg>