<?xml version="1.0" encoding="UTF-8" standalone="no"?>
<!-- Created with CurveBenchmark -->
<svg
	xmlns:dc="http://purl.org/dc/elements/1.1/"
	xmlns:cc="http://creativecommons.org/ns#"
	xmlns:rdf="http://www.w3.org/1999/02/22-rdf-syntax-ns#"
	xmlns:svg="http://www.w3.org/2000/svg"
	xmlns="http://www.w3.org/2000/svg"
	xmlns:sodipodi="http://sodipodi.sourceforge.net/DTD/sodipodi-0.dtd"
	xmlns:inkscape="http://www.inkscape.org/namespaces/inkscape"
	width="1000"
	height="1000"
	id="svg2"
	version="1.1"
	sodipodi:docname="manifold/nncrust-textbox13.png.txt">
<defs
	id="defs4" />
<metadata
	id="metadata7">
	<rdf:RDF>
		<cc:Work
			rdf:about="">
			<dc:format>image/svg+xml</dc:format>
			<dc:type
				rdf:resource="http://purl.org/dc/dcmitype/StillImage" />
			<dc:title></dc:title>
		</cc:Work>
	</rdf:RDF>
</metadata>
<g
	inkscape:label="Layer 1"
	inkscape:groupmode="layer"
	id="layer1">
	<path style="fill:none;stroke:red;stroke-width:1px;stroke-linecap:butt;stroke-linejoin:miter;stroke-opacity:1" d="M 4,41.1227 24.6237,34.9356 z" id="boundary" inkscape:connector-curvature="0" />
	<path style="fill:none;stroke:red;stroke-width:1px;stroke-linecap:butt;stroke-linejoin:miter;stroke-opacity:1" d="M 4,61.7464 4,41.1227 z" id="boundary" inkscape:connector-curvature="0" />
	<path style="fill:none;stroke:red;stroke-width:1px;stroke-linecap:butt;stroke-linejoin:miter;stroke-opacity:1" d="M 4,82.3701 4,61.7464 z" id="boundary" inkscape:connector-curvature="0" />
	<path style="fill:none;stroke:red;stroke-width:1px;stroke-linecap:butt;stroke-linejoin:miter;stroke-opacity:1" d="M 4,102.994 4,82.3701 z" id="boundary" inkscape:connector-curvature="0" />
	<path style="fill:none;stroke:red;stroke-width:1px;stroke-linecap:butt;stroke-linejoin:miter;stroke-opacity:1" d="M 24.6237,34.9356 45.2474,34.9356 z" id="boundary" inkscape:connector-curvature="0" />
	<path style="fill:none;stroke:red;stroke-width:1px;stroke-linecap:butt;stroke-linejoin:miter;stroke-opacity:1" d="M 45.2474,34.9356 65.8711,34.9356 z" id="boundary" inkscape:connector-curvature="0" />
	<path style="fill:none;stroke:red;stroke-width:1px;stroke-linecap:butt;stroke-linejoin:miter;stroke-opacity:1" d="M 4,123.617 4,102.994 z" id="boundary" inkscape:connector-curvature="0" />
	<path style="fill:none;stroke:red;stroke-width:1px;stroke-linecap:butt;stroke-linejoin:miter;stroke-opacity:1" d="M 107.119,34.9356 86.4948,34.9356 z" id="boundary" inkscape:connector-curvature="0" />
	<path style="fill:none;stroke:red;stroke-width:1px;stroke-linecap:butt;stroke-linejoin:miter;stroke-opacity:1" d="M 127.742,34.9356 107.119,34.9356 z" id="boundary" inkscape:connector-curvature="0" />
	<path style="fill:none;stroke:red;stroke-width:1px;stroke-linecap:butt;stroke-linejoin:miter;stroke-opacity:1" d="M 86.4948,34.9356 65.8711,34.9356 z" id="boundary" inkscape:connector-curvature="0" />
	<path style="fill:none;stroke:red;stroke-width:1px;stroke-linecap:butt;stroke-linejoin:miter;stroke-opacity:1" d="M 4,144.241 4,123.617 z" id="boundary" inkscape:connector-curvature="0" />
	<path style="fill:none;stroke:red;stroke-width:1px;stroke-linecap:butt;stroke-linejoin:miter;stroke-opacity:1" d="M 4,185.489 4,164.865 z" id="boundary" inkscape:connector-curvature="0" />
	<path style="fill:none;stroke:red;stroke-width:1px;stroke-linecap:butt;stroke-linejoin:miter;stroke-opacity:1" d="M 4,206.112 4,185.489 z" id="boundary" inkscape:connector-curvature="0" />
	<path style="fill:none;stroke:red;stroke-width:1px;stroke-linecap:butt;stroke-linejoin:miter;stroke-opacity:1" d="M 4,164.865 4,144.241 z" id="boundary" inkscape:connector-curvature="0" />
	<path style="fill:none;stroke:red;stroke-width:1px;stroke-linecap:butt;stroke-linejoin:miter;stroke-opacity:1" d="M 4,247.36 4,226.736 z" id="boundary" inkscape:connector-curvature="0" />
	<path style="fill:none;stroke:red;stroke-width:1px;stroke-linecap:butt;stroke-linejoin:miter;stroke-opacity:1" d="M 4,288.607 4,267.983 z" id="boundary" inkscape:connector-curvature="0" />
	<path style="fill:none;stroke:red;stroke-width:1px;stroke-linecap:butt;stroke-linejoin:miter;stroke-opacity:1" d="M 4,309.231 4,288.607 z" id="boundary" inkscape:connector-curvature="0" />
	<path style="fill:none;stroke:red;stroke-width:1px;stroke-linecap:butt;stroke-linejoin:miter;stroke-opacity:1" d="M 4,267.983 4,247.36 z" id="boundary" inkscape:connector-curvature="0" />
	<path style="fill:none;stroke:red;stroke-width:1px;stroke-linecap:butt;stroke-linejoin:miter;stroke-opacity:1" d="M 4,226.736 4,206.112 z" id="boundary" inkscape:connector-curvature="0" />
	<path style="fill:none;stroke:red;stroke-width:1px;stroke-linecap:butt;stroke-linejoin:miter;stroke-opacity:1" d="M 127.742,34.9356 148.366,34.9356 z" id="boundary" inkscape:connector-curvature="0" />
	<path style="fill:none;stroke:red;stroke-width:1px;stroke-linecap:butt;stroke-linejoin:miter;stroke-opacity:1" d="M 222.611,14.3119 243.235,14.3119 z" id="boundary" inkscape:connector-curvature="0" />
	<path style="fill:none;stroke:red;stroke-width:1px;stroke-linecap:butt;stroke-linejoin:miter;stroke-opacity:1" d="M 263.859,14.3119 284.482,14.3119 z" id="boundary" inkscape:connector-curvature="0" />
	<path style="fill:none;stroke:red;stroke-width:1px;stroke-linecap:butt;stroke-linejoin:miter;stroke-opacity:1" d="M 305.106,14.3119 284.482,14.3119 z" id="boundary" inkscape:connector-curvature="0" />
	<path style="fill:none;stroke:red;stroke-width:1px;stroke-linecap:butt;stroke-linejoin:miter;stroke-opacity:1" d="M 263.859,14.3119 243.235,14.3119 z" id="boundary" inkscape:connector-curvature="0" />
	<path style="fill:none;stroke:red;stroke-width:1px;stroke-linecap:butt;stroke-linejoin:miter;stroke-opacity:1" d="M 305.106,14.3119 325.73,14.3119 z" id="boundary" inkscape:connector-curvature="0" />
	<path style="fill:none;stroke:red;stroke-width:1px;stroke-linecap:butt;stroke-linejoin:miter;stroke-opacity:1" d="M 346.353,14.3119 325.73,14.3119 z" id="boundary" inkscape:connector-curvature="0" />
	<path style="fill:none;stroke:red;stroke-width:1px;stroke-linecap:butt;stroke-linejoin:miter;stroke-opacity:1" d="M 346.353,14.3119 366.977,14.3119 z" id="boundary" inkscape:connector-curvature="0" />
	<path style="fill:none;stroke:red;stroke-width:1px;stroke-linecap:butt;stroke-linejoin:miter;stroke-opacity:1" d="M 387.601,14.3119 366.977,14.3119 z" id="boundary" inkscape:connector-curvature="0" />
	<path style="fill:none;stroke:red;stroke-width:1px;stroke-linecap:butt;stroke-linejoin:miter;stroke-opacity:1" d="M 408.225,14.3119 387.601,14.3119 z" id="boundary" inkscape:connector-curvature="0" />
	<path style="fill:none;stroke:red;stroke-width:1px;stroke-linecap:butt;stroke-linejoin:miter;stroke-opacity:1" d="M 189.613,34.9356 201.988,18.4366 z" id="boundary" inkscape:connector-curvature="0" />
	<path style="fill:none;stroke:red;stroke-width:1px;stroke-linecap:butt;stroke-linejoin:miter;stroke-opacity:1" d="M 201.988,18.4366 222.611,14.3119 z" id="boundary" inkscape:connector-curvature="0" />
	<path style="fill:none;stroke:red;stroke-width:1px;stroke-linecap:butt;stroke-linejoin:miter;stroke-opacity:1" d="M 148.366,34.9356 168.99,34.9356 z" id="boundary" inkscape:connector-curvature="0" />
	<path style="fill:none;stroke:red;stroke-width:1px;stroke-linecap:butt;stroke-linejoin:miter;stroke-opacity:1" d="M 189.613,34.9356 168.99,34.9356 z" id="boundary" inkscape:connector-curvature="0" />
	<path style="fill:none;stroke:red;stroke-width:1px;stroke-linecap:butt;stroke-linejoin:miter;stroke-opacity:1" d="M 408.225,14.3119 428.848,14.3119 z" id="boundary" inkscape:connector-curvature="0" />
	<path style="fill:none;stroke:red;stroke-width:1px;stroke-linecap:butt;stroke-linejoin:miter;stroke-opacity:1" d="M 428.848,14.3119 449.472,14.3119 z" id="boundary" inkscape:connector-curvature="0" />
	<path style="fill:none;stroke:red;stroke-width:1px;stroke-linecap:butt;stroke-linejoin:miter;stroke-opacity:1" d="M 470.096,14.3119 449.472,14.3119 z" id="boundary" inkscape:connector-curvature="0" />
	<path style="fill:none;stroke:red;stroke-width:1px;stroke-linecap:butt;stroke-linejoin:miter;stroke-opacity:1" d="M 470.096,14.3119 490.719,14.3119 z" id="boundary" inkscape:connector-curvature="0" />
	<path style="fill:none;stroke:red;stroke-width:1px;stroke-linecap:butt;stroke-linejoin:miter;stroke-opacity:1" d="M 511.343,14.3119 490.719,14.3119 z" id="boundary" inkscape:connector-curvature="0" />
	<path style="fill:none;stroke:red;stroke-width:1px;stroke-linecap:butt;stroke-linejoin:miter;stroke-opacity:1" d="M 531.967,14.3119 511.343,14.3119 z" id="boundary" inkscape:connector-curvature="0" />
	<path style="fill:none;stroke:red;stroke-width:1px;stroke-linecap:butt;stroke-linejoin:miter;stroke-opacity:1" d="M 4,350.478 4,329.854 z" id="boundary" inkscape:connector-curvature="0" />
	<path style="fill:none;stroke:red;stroke-width:1px;stroke-linecap:butt;stroke-linejoin:miter;stroke-opacity:1" d="M 4,371.102 24.6237,377.289 z" id="boundary" inkscape:connector-curvature="0" />
	<path style="fill:none;stroke:red;stroke-width:1px;stroke-linecap:butt;stroke-linejoin:miter;stroke-opacity:1" d="M 24.6237,377.289 24.6237,397.913 z" id="boundary" inkscape:connector-curvature="0" />
	<path style="fill:none;stroke:red;stroke-width:1px;stroke-linecap:butt;stroke-linejoin:miter;stroke-opacity:1" d="M 4,371.102 4,350.478 z" id="boundary" inkscape:connector-curvature="0" />
	<path style="fill:none;stroke:red;stroke-width:1px;stroke-linecap:butt;stroke-linejoin:miter;stroke-opacity:1" d="M 24.6237,418.536 24.6237,397.913 z" id="boundary" inkscape:connector-curvature="0" />
	<path style="fill:none;stroke:red;stroke-width:1px;stroke-linecap:butt;stroke-linejoin:miter;stroke-opacity:1" d="M 4,329.854 4,309.231 z" id="boundary" inkscape:connector-curvature="0" />
	<path style="fill:none;stroke:red;stroke-width:1px;stroke-linecap:butt;stroke-linejoin:miter;stroke-opacity:1" d="M 24.6237,418.536 24.6237,439.16 z" id="boundary" inkscape:connector-curvature="0" />
	<path style="fill:none;stroke:red;stroke-width:1px;stroke-linecap:butt;stroke-linejoin:miter;stroke-opacity:1" d="M 24.6237,459.784 24.6237,439.16 z" id="boundary" inkscape:connector-curvature="0" />
	<path style="fill:none;stroke:red;stroke-width:1px;stroke-linecap:butt;stroke-linejoin:miter;stroke-opacity:1" d="M 24.6237,459.784 24.6237,480.407 z" id="boundary" inkscape:connector-curvature="0" />
	<path style="fill:none;stroke:red;stroke-width:1px;stroke-linecap:butt;stroke-linejoin:miter;stroke-opacity:1" d="M 24.6237,501.031 24.6237,480.407 z" id="boundary" inkscape:connector-curvature="0" />
	<path style="fill:none;stroke:red;stroke-width:1px;stroke-linecap:butt;stroke-linejoin:miter;stroke-opacity:1" d="M 24.6237,521.655 24.6237,501.031 z" id="boundary" inkscape:connector-curvature="0" />
	<path style="fill:none;stroke:red;stroke-width:1px;stroke-linecap:butt;stroke-linejoin:miter;stroke-opacity:1" d="M 24.6237,521.655 24.6237,542.279 z" id="boundary" inkscape:connector-curvature="0" />
	<path style="fill:none;stroke:red;stroke-width:1px;stroke-linecap:butt;stroke-linejoin:miter;stroke-opacity:1" d="M 125.68,635.085 105.056,635.085 z" id="boundary" inkscape:connector-curvature="0" />
	<path style="fill:none;stroke:red;stroke-width:1px;stroke-linecap:butt;stroke-linejoin:miter;stroke-opacity:1" d="M 24.6237,562.902 24.6237,583.526 z" id="boundary" inkscape:connector-curvature="0" />
	<path style="fill:none;stroke:red;stroke-width:1px;stroke-linecap:butt;stroke-linejoin:miter;stroke-opacity:1" d="M 24.6237,604.15 24.6237,583.526 z" id="boundary" inkscape:connector-curvature="0" />
	<path style="fill:none;stroke:red;stroke-width:1px;stroke-linecap:butt;stroke-linejoin:miter;stroke-opacity:1" d="M 24.6237,562.902 24.6237,542.279 z" id="boundary" inkscape:connector-curvature="0" />
	<path style="fill:none;stroke:red;stroke-width:1px;stroke-linecap:butt;stroke-linejoin:miter;stroke-opacity:1" d="M 24.6237,624.773 24.6237,604.15 z" id="boundary" inkscape:connector-curvature="0" />
	<path style="fill:none;stroke:red;stroke-width:1px;stroke-linecap:butt;stroke-linejoin:miter;stroke-opacity:1" d="M 43.185,635.085 24.6237,624.773 z" id="boundary" inkscape:connector-curvature="0" />
	<path style="fill:none;stroke:red;stroke-width:1px;stroke-linecap:butt;stroke-linejoin:miter;stroke-opacity:1" d="M 63.8087,635.085 84.4324,635.085 z" id="boundary" inkscape:connector-curvature="0" />
	<path style="fill:none;stroke:red;stroke-width:1px;stroke-linecap:butt;stroke-linejoin:miter;stroke-opacity:1" d="M 63.8087,635.085 43.185,635.085 z" id="boundary" inkscape:connector-curvature="0" />
	<path style="fill:none;stroke:red;stroke-width:1px;stroke-linecap:butt;stroke-linejoin:miter;stroke-opacity:1" d="M 84.4324,635.085 105.056,635.085 z" id="boundary" inkscape:connector-curvature="0" />
	<path style="fill:none;stroke:red;stroke-width:1px;stroke-linecap:butt;stroke-linejoin:miter;stroke-opacity:1" d="M 305.106,614.462 325.73,614.462 z" id="boundary" inkscape:connector-curvature="0" />
	<path style="fill:none;stroke:red;stroke-width:1px;stroke-linecap:butt;stroke-linejoin:miter;stroke-opacity:1" d="M 290.669,635.085 305.106,614.462 z" id="boundary" inkscape:connector-curvature="0" />
	<path style="fill:none;stroke:red;stroke-width:1px;stroke-linecap:butt;stroke-linejoin:miter;stroke-opacity:1" d="M 346.353,614.462 366.977,614.462 z" id="boundary" inkscape:connector-curvature="0" />
	<path style="fill:none;stroke:red;stroke-width:1px;stroke-linecap:butt;stroke-linejoin:miter;stroke-opacity:1" d="M 346.353,614.462 325.73,614.462 z" id="boundary" inkscape:connector-curvature="0" />
	<path style="fill:none;stroke:red;stroke-width:1px;stroke-linecap:butt;stroke-linejoin:miter;stroke-opacity:1" d="M 366.977,614.462 387.601,614.462 z" id="boundary" inkscape:connector-curvature="0" />
	<path style="fill:none;stroke:red;stroke-width:1px;stroke-linecap:butt;stroke-linejoin:miter;stroke-opacity:1" d="M 387.601,614.462 408.225,614.462 z" id="boundary" inkscape:connector-curvature="0" />
	<path style="fill:none;stroke:red;stroke-width:1px;stroke-linecap:butt;stroke-linejoin:miter;stroke-opacity:1" d="M 428.848,614.462 449.472,614.462 z" id="boundary" inkscape:connector-curvature="0" />
	<path style="fill:none;stroke:red;stroke-width:1px;stroke-linecap:butt;stroke-linejoin:miter;stroke-opacity:1" d="M 470.096,614.462 449.472,614.462 z" id="boundary" inkscape:connector-curvature="0" />
	<path style="fill:none;stroke:red;stroke-width:1px;stroke-linecap:butt;stroke-linejoin:miter;stroke-opacity:1" d="M 428.848,614.462 408.225,614.462 z" id="boundary" inkscape:connector-curvature="0" />
	<path style="fill:none;stroke:red;stroke-width:1px;stroke-linecap:butt;stroke-linejoin:miter;stroke-opacity:1" d="M 125.68,635.085 146.304,635.085 z" id="boundary" inkscape:connector-curvature="0" />
	<path style="fill:none;stroke:red;stroke-width:1px;stroke-linecap:butt;stroke-linejoin:miter;stroke-opacity:1" d="M 166.927,635.085 187.551,635.085 z" id="boundary" inkscape:connector-curvature="0" />
	<path style="fill:none;stroke:red;stroke-width:1px;stroke-linecap:butt;stroke-linejoin:miter;stroke-opacity:1" d="M 208.175,635.085 187.551,635.085 z" id="boundary" inkscape:connector-curvature="0" />
	<path style="fill:none;stroke:red;stroke-width:1px;stroke-linecap:butt;stroke-linejoin:miter;stroke-opacity:1" d="M 166.927,635.085 146.304,635.085 z" id="boundary" inkscape:connector-curvature="0" />
	<path style="fill:none;stroke:red;stroke-width:1px;stroke-linecap:butt;stroke-linejoin:miter;stroke-opacity:1" d="M 249.422,635.085 228.798,635.085 z" id="boundary" inkscape:connector-curvature="0" />
	<path style="fill:none;stroke:red;stroke-width:1px;stroke-linecap:butt;stroke-linejoin:miter;stroke-opacity:1" d="M 228.798,635.085 208.175,635.085 z" id="boundary" inkscape:connector-curvature="0" />
	<path style="fill:none;stroke:red;stroke-width:1px;stroke-linecap:butt;stroke-linejoin:miter;stroke-opacity:1" d="M 249.422,635.085 270.046,635.085 z" id="boundary" inkscape:connector-curvature="0" />
	<path style="fill:none;stroke:red;stroke-width:1px;stroke-linecap:butt;stroke-linejoin:miter;stroke-opacity:1" d="M 290.669,635.085 270.046,635.085 z" id="boundary" inkscape:connector-curvature="0" />
	<path style="fill:none;stroke:red;stroke-width:1px;stroke-linecap:butt;stroke-linejoin:miter;stroke-opacity:1" d="M 490.719,614.462 511.343,614.462 z" id="boundary" inkscape:connector-curvature="0" />
	<path style="fill:none;stroke:red;stroke-width:1px;stroke-linecap:butt;stroke-linejoin:miter;stroke-opacity:1" d="M 470.096,614.462 490.719,614.462 z" id="boundary" inkscape:connector-curvature="0" />
	<path style="fill:none;stroke:red;stroke-width:1px;stroke-linecap:butt;stroke-linejoin:miter;stroke-opacity:1" d="M 531.967,614.462 511.343,614.462 z" id="boundary" inkscape:connector-curvature="0" />
	<path style="fill:none;stroke:red;stroke-width:1px;stroke-linecap:butt;stroke-linejoin:miter;stroke-opacity:1" d="M 635.085,4 655.709,4 z" id="boundary" inkscape:connector-curvature="0" />
	<path style="fill:none;stroke:red;stroke-width:1px;stroke-linecap:butt;stroke-linejoin:miter;stroke-opacity:1" d="M 614.462,8.12474 635.085,4 z" id="boundary" inkscape:connector-curvature="0" />
	<path style="fill:none;stroke:red;stroke-width:1px;stroke-linecap:butt;stroke-linejoin:miter;stroke-opacity:1" d="M 676.333,4 696.956,4 z" id="boundary" inkscape:connector-curvature="0" />
	<path style="fill:none;stroke:red;stroke-width:1px;stroke-linecap:butt;stroke-linejoin:miter;stroke-opacity:1" d="M 655.709,4 676.333,4 z" id="boundary" inkscape:connector-curvature="0" />
	<path style="fill:none;stroke:red;stroke-width:1px;stroke-linecap:butt;stroke-linejoin:miter;stroke-opacity:1" d="M 717.58,4 738.204,4 z" id="boundary" inkscape:connector-curvature="0" />
	<path style="fill:none;stroke:red;stroke-width:1px;stroke-linecap:butt;stroke-linejoin:miter;stroke-opacity:1" d="M 758.827,4 779.451,4 z" id="boundary" inkscape:connector-curvature="0" />
	<path style="fill:none;stroke:red;stroke-width:1px;stroke-linecap:butt;stroke-linejoin:miter;stroke-opacity:1" d="M 779.451,4 800.075,4 z" id="boundary" inkscape:connector-curvature="0" />
	<path style="fill:none;stroke:red;stroke-width:1px;stroke-linecap:butt;stroke-linejoin:miter;stroke-opacity:1" d="M 738.204,4 758.827,4 z" id="boundary" inkscape:connector-curvature="0" />
	<path style="fill:none;stroke:red;stroke-width:1px;stroke-linecap:butt;stroke-linejoin:miter;stroke-opacity:1" d="M 696.956,4 717.58,4 z" id="boundary" inkscape:connector-curvature="0" />
	<path style="fill:none;stroke:red;stroke-width:1px;stroke-linecap:butt;stroke-linejoin:miter;stroke-opacity:1" d="M 593.838,14.3119 614.462,8.12474 z" id="boundary" inkscape:connector-curvature="0" />
	<path style="fill:none;stroke:red;stroke-width:1px;stroke-linecap:butt;stroke-linejoin:miter;stroke-opacity:1" d="M 800.075,4 820.699,4 z" id="boundary" inkscape:connector-curvature="0" />
	<path style="fill:none;stroke:red;stroke-width:1px;stroke-linecap:butt;stroke-linejoin:miter;stroke-opacity:1" d="M 552.59,14.3119 573.214,14.3119 z" id="boundary" inkscape:connector-curvature="0" />
	<path style="fill:none;stroke:red;stroke-width:1px;stroke-linecap:butt;stroke-linejoin:miter;stroke-opacity:1" d="M 593.838,14.3119 573.214,14.3119 z" id="boundary" inkscape:connector-curvature="0" />
	<path style="fill:none;stroke:red;stroke-width:1px;stroke-linecap:butt;stroke-linejoin:miter;stroke-opacity:1" d="M 820.699,4 841.322,4 z" id="boundary" inkscape:connector-curvature="0" />
	<path style="fill:none;stroke:red;stroke-width:1px;stroke-linecap:butt;stroke-linejoin:miter;stroke-opacity:1" d="M 552.59,14.3119 531.967,14.3119 z" id="boundary" inkscape:connector-curvature="0" />
	<path style="fill:none;stroke:red;stroke-width:1px;stroke-linecap:butt;stroke-linejoin:miter;stroke-opacity:1" d="M 841.322,4 861.946,4 z" id="boundary" inkscape:connector-curvature="0" />
	<path style="fill:none;stroke:red;stroke-width:1px;stroke-linecap:butt;stroke-linejoin:miter;stroke-opacity:1" d="M 882.57,4 903.193,4 z" id="boundary" inkscape:connector-curvature="0" />
	<path style="fill:none;stroke:red;stroke-width:1px;stroke-linecap:butt;stroke-linejoin:miter;stroke-opacity:1" d="M 903.193,4 923.817,4 z" id="boundary" inkscape:connector-curvature="0" />
	<path style="fill:none;stroke:red;stroke-width:1px;stroke-linecap:butt;stroke-linejoin:miter;stroke-opacity:1" d="M 861.946,4 882.57,4 z" id="boundary" inkscape:connector-curvature="0" />
	<path style="fill:none;stroke:red;stroke-width:1px;stroke-linecap:butt;stroke-linejoin:miter;stroke-opacity:1" d="M 923.817,4 944.441,4 z" id="boundary" inkscape:connector-curvature="0" />
	<path style="fill:none;stroke:red;stroke-width:1px;stroke-linecap:butt;stroke-linejoin:miter;stroke-opacity:1" d="M 975.376,22.5613 975.376,43.185 z" id="boundary" inkscape:connector-curvature="0" />
	<path style="fill:none;stroke:red;stroke-width:1px;stroke-linecap:butt;stroke-linejoin:miter;stroke-opacity:1" d="M 975.376,43.185 975.376,63.8087 z" id="boundary" inkscape:connector-curvature="0" />
	<path style="fill:none;stroke:red;stroke-width:1px;stroke-linecap:butt;stroke-linejoin:miter;stroke-opacity:1" d="M 975.376,84.4324 975.376,63.8087 z" id="boundary" inkscape:connector-curvature="0" />
	<path style="fill:none;stroke:red;stroke-width:1px;stroke-linecap:butt;stroke-linejoin:miter;stroke-opacity:1" d="M 975.376,84.4324 975.376,105.056 z" id="boundary" inkscape:connector-curvature="0" />
	<path style="fill:none;stroke:red;stroke-width:1px;stroke-linecap:butt;stroke-linejoin:miter;stroke-opacity:1" d="M 975.376,105.056 975.376,125.68 z" id="boundary" inkscape:connector-curvature="0" />
	<path style="fill:none;stroke:red;stroke-width:1px;stroke-linecap:butt;stroke-linejoin:miter;stroke-opacity:1" d="M 975.376,146.304 975.376,166.927 z" id="boundary" inkscape:connector-curvature="0" />
	<path style="fill:none;stroke:red;stroke-width:1px;stroke-linecap:butt;stroke-linejoin:miter;stroke-opacity:1" d="M 975.376,187.551 975.376,166.927 z" id="boundary" inkscape:connector-curvature="0" />
	<path style="fill:none;stroke:red;stroke-width:1px;stroke-linecap:butt;stroke-linejoin:miter;stroke-opacity:1" d="M 975.376,146.304 975.376,125.68 z" id="boundary" inkscape:connector-curvature="0" />
	<path style="fill:none;stroke:red;stroke-width:1px;stroke-linecap:butt;stroke-linejoin:miter;stroke-opacity:1" d="M 975.376,187.551 975.376,208.175 z" id="boundary" inkscape:connector-curvature="0" />
	<path style="fill:none;stroke:red;stroke-width:1px;stroke-linecap:butt;stroke-linejoin:miter;stroke-opacity:1" d="M 975.376,208.175 975.376,228.798 z" id="boundary" inkscape:connector-curvature="0" />
	<path style="fill:none;stroke:red;stroke-width:1px;stroke-linecap:butt;stroke-linejoin:miter;stroke-opacity:1" d="M 975.376,249.422 991.875,263.859 z" id="boundary" inkscape:connector-curvature="0" />
	<path style="fill:none;stroke:red;stroke-width:1px;stroke-linecap:butt;stroke-linejoin:miter;stroke-opacity:1" d="M 991.875,263.859 996,284.482 z" id="boundary" inkscape:connector-curvature="0" />
	<path style="fill:none;stroke:red;stroke-width:1px;stroke-linecap:butt;stroke-linejoin:miter;stroke-opacity:1" d="M 975.376,249.422 975.376,228.798 z" id="boundary" inkscape:connector-curvature="0" />
	<path style="fill:none;stroke:red;stroke-width:1px;stroke-linecap:butt;stroke-linejoin:miter;stroke-opacity:1" d="M 996,284.482 996,305.106 z" id="boundary" inkscape:connector-curvature="0" />
	<path style="fill:none;stroke:red;stroke-width:1px;stroke-linecap:butt;stroke-linejoin:miter;stroke-opacity:1" d="M 996,305.106 996,325.73 z" id="boundary" inkscape:connector-curvature="0" />
	<path style="fill:none;stroke:red;stroke-width:1px;stroke-linecap:butt;stroke-linejoin:miter;stroke-opacity:1" d="M 996,346.353 996,366.977 z" id="boundary" inkscape:connector-curvature="0" />
	<path style="fill:none;stroke:red;stroke-width:1px;stroke-linecap:butt;stroke-linejoin:miter;stroke-opacity:1" d="M 996,325.73 996,346.353 z" id="boundary" inkscape:connector-curvature="0" />
	<path style="fill:none;stroke:red;stroke-width:1px;stroke-linecap:butt;stroke-linejoin:miter;stroke-opacity:1" d="M 944.441,4 965.064,4 z" id="boundary" inkscape:connector-curvature="0" />
	<path style="fill:none;stroke:red;stroke-width:1px;stroke-linecap:butt;stroke-linejoin:miter;stroke-opacity:1" d="M 965.064,4 975.376,22.5613 z" id="boundary" inkscape:connector-curvature="0" />
	<path style="fill:none;stroke:red;stroke-width:1px;stroke-linecap:butt;stroke-linejoin:miter;stroke-opacity:1" d="M 996,366.977 996,387.601 z" id="boundary" inkscape:connector-curvature="0" />
	<path style="fill:none;stroke:red;stroke-width:1px;stroke-linecap:butt;stroke-linejoin:miter;stroke-opacity:1" d="M 531.967,614.462 552.59,614.462 z" id="boundary" inkscape:connector-curvature="0" />
	<path style="fill:none;stroke:red;stroke-width:1px;stroke-linecap:butt;stroke-linejoin:miter;stroke-opacity:1" d="M 571.152,624.773 571.152,645.397 z" id="boundary" inkscape:connector-curvature="0" />
	<path style="fill:none;stroke:red;stroke-width:1px;stroke-linecap:butt;stroke-linejoin:miter;stroke-opacity:1" d="M 552.59,614.462 571.152,624.773 z" id="boundary" inkscape:connector-curvature="0" />
	<path style="fill:none;stroke:red;stroke-width:1px;stroke-linecap:butt;stroke-linejoin:miter;stroke-opacity:1" d="M 571.152,666.021 571.152,645.397 z" id="boundary" inkscape:connector-curvature="0" />
	<path style="fill:none;stroke:red;stroke-width:1px;stroke-linecap:butt;stroke-linejoin:miter;stroke-opacity:1" d="M 571.152,666.021 571.152,686.644 z" id="boundary" inkscape:connector-curvature="0" />
	<path style="fill:none;stroke:red;stroke-width:1px;stroke-linecap:butt;stroke-linejoin:miter;stroke-opacity:1" d="M 738.204,676.333 756.765,666.021 z" id="boundary" inkscape:connector-curvature="0" />
	<path style="fill:none;stroke:red;stroke-width:1px;stroke-linecap:butt;stroke-linejoin:miter;stroke-opacity:1" d="M 725.83,696.956 738.204,676.333 z" id="boundary" inkscape:connector-curvature="0" />
	<path style="fill:none;stroke:red;stroke-width:1px;stroke-linecap:butt;stroke-linejoin:miter;stroke-opacity:1" d="M 725.83,696.956 705.206,701.081 z" id="boundary" inkscape:connector-curvature="0" />
	<path style="fill:none;stroke:red;stroke-width:1px;stroke-linecap:butt;stroke-linejoin:miter;stroke-opacity:1" d="M 705.206,701.081 684.582,707.268 z" id="boundary" inkscape:connector-curvature="0" />
	<path style="fill:none;stroke:red;stroke-width:1px;stroke-linecap:butt;stroke-linejoin:miter;stroke-opacity:1" d="M 769.139,645.397 756.765,666.021 z" id="boundary" inkscape:connector-curvature="0" />
	<path style="fill:none;stroke:red;stroke-width:1px;stroke-linecap:butt;stroke-linejoin:miter;stroke-opacity:1" d="M 571.152,686.644 571.152,707.268 z" id="boundary" inkscape:connector-curvature="0" />
	<path style="fill:none;stroke:red;stroke-width:1px;stroke-linecap:butt;stroke-linejoin:miter;stroke-opacity:1" d="M 571.152,707.268 571.152,727.892 z" id="boundary" inkscape:connector-curvature="0" />
	<path style="fill:none;stroke:red;stroke-width:1px;stroke-linecap:butt;stroke-linejoin:miter;stroke-opacity:1" d="M 571.152,748.516 571.152,727.892 z" id="boundary" inkscape:connector-curvature="0" />
	<path style="fill:none;stroke:red;stroke-width:1px;stroke-linecap:butt;stroke-linejoin:miter;stroke-opacity:1" d="M 597.963,777.389 577.339,769.139 z" id="boundary" inkscape:connector-curvature="0" />
	<path style="fill:none;stroke:red;stroke-width:1px;stroke-linecap:butt;stroke-linejoin:miter;stroke-opacity:1" d="M 577.339,769.139 571.152,748.516 z" id="boundary" inkscape:connector-curvature="0" />
	<path style="fill:none;stroke:red;stroke-width:1px;stroke-linecap:butt;stroke-linejoin:miter;stroke-opacity:1" d="M 618.586,769.139 597.963,777.389 z" id="boundary" inkscape:connector-curvature="0" />
	<path style="fill:none;stroke:red;stroke-width:1px;stroke-linecap:butt;stroke-linejoin:miter;stroke-opacity:1" d="M 666.021,717.58 684.582,707.268 z" id="boundary" inkscape:connector-curvature="0" />
	<path style="fill:none;stroke:red;stroke-width:1px;stroke-linecap:butt;stroke-linejoin:miter;stroke-opacity:1" d="M 655.709,738.204 666.021,717.58 z" id="boundary" inkscape:connector-curvature="0" />
	<path style="fill:none;stroke:red;stroke-width:1px;stroke-linecap:butt;stroke-linejoin:miter;stroke-opacity:1" d="M 618.586,769.139 635.085,738.204 z" id="boundary" inkscape:connector-curvature="0" />
	<path style="fill:none;stroke:red;stroke-width:1px;stroke-linecap:butt;stroke-linejoin:miter;stroke-opacity:1" d="M 635.085,738.204 655.709,738.204 z" id="boundary" inkscape:connector-curvature="0" />
	<path style="fill:none;stroke:red;stroke-width:1px;stroke-linecap:butt;stroke-linejoin:miter;stroke-opacity:1" d="M 996,408.225 996,428.848 z" id="boundary" inkscape:connector-curvature="0" />
	<path style="fill:none;stroke:red;stroke-width:1px;stroke-linecap:butt;stroke-linejoin:miter;stroke-opacity:1" d="M 857.821,604.15 837.198,604.15 z" id="boundary" inkscape:connector-curvature="0" />
	<path style="fill:none;stroke:red;stroke-width:1px;stroke-linecap:butt;stroke-linejoin:miter;stroke-opacity:1" d="M 996,428.848 996,449.472 z" id="boundary" inkscape:connector-curvature="0" />
	<path style="fill:none;stroke:red;stroke-width:1px;stroke-linecap:butt;stroke-linejoin:miter;stroke-opacity:1" d="M 996,449.472 996,470.096 z" id="boundary" inkscape:connector-curvature="0" />
	<path style="fill:none;stroke:red;stroke-width:1px;stroke-linecap:butt;stroke-linejoin:miter;stroke-opacity:1" d="M 837.198,604.15 818.636,614.462 z" id="boundary" inkscape:connector-curvature="0" />
	<path style="fill:none;stroke:red;stroke-width:1px;stroke-linecap:butt;stroke-linejoin:miter;stroke-opacity:1" d="M 996,470.096 996,490.719 z" id="boundary" inkscape:connector-curvature="0" />
	<path style="fill:none;stroke:red;stroke-width:1px;stroke-linecap:butt;stroke-linejoin:miter;stroke-opacity:1" d="M 996,511.343 996,531.967 z" id="boundary" inkscape:connector-curvature="0" />
	<path style="fill:none;stroke:red;stroke-width:1px;stroke-linecap:butt;stroke-linejoin:miter;stroke-opacity:1" d="M 996,531.967 996,552.59 z" id="boundary" inkscape:connector-curvature="0" />
	<path style="fill:none;stroke:red;stroke-width:1px;stroke-linecap:butt;stroke-linejoin:miter;stroke-opacity:1" d="M 996,490.719 996,511.343 z" id="boundary" inkscape:connector-curvature="0" />
	<path style="fill:none;stroke:red;stroke-width:1px;stroke-linecap:butt;stroke-linejoin:miter;stroke-opacity:1" d="M 996,552.59 996,573.214 z" id="boundary" inkscape:connector-curvature="0" />
	<path style="fill:none;stroke:red;stroke-width:1px;stroke-linecap:butt;stroke-linejoin:miter;stroke-opacity:1" d="M 806.262,630.96 818.636,614.462 z" id="boundary" inkscape:connector-curvature="0" />
	<path style="fill:none;stroke:red;stroke-width:1px;stroke-linecap:butt;stroke-linejoin:miter;stroke-opacity:1" d="M 806.262,630.96 789.763,645.397 z" id="boundary" inkscape:connector-curvature="0" />
	<path style="fill:none;stroke:red;stroke-width:1px;stroke-linecap:butt;stroke-linejoin:miter;stroke-opacity:1" d="M 789.763,645.397 769.139,645.397 z" id="boundary" inkscape:connector-curvature="0" />
	<path style="fill:none;stroke:red;stroke-width:1px;stroke-linecap:butt;stroke-linejoin:miter;stroke-opacity:1" d="M 857.821,604.15 878.445,604.15 z" id="boundary" inkscape:connector-curvature="0" />
	<path style="fill:none;stroke:red;stroke-width:1px;stroke-linecap:butt;stroke-linejoin:miter;stroke-opacity:1" d="M 878.445,604.15 899.069,604.15 z" id="boundary" inkscape:connector-curvature="0" />
	<path style="fill:none;stroke:red;stroke-width:1px;stroke-linecap:butt;stroke-linejoin:miter;stroke-opacity:1" d="M 919.692,604.15 899.069,604.15 z" id="boundary" inkscape:connector-curvature="0" />
	<path style="fill:none;stroke:red;stroke-width:1px;stroke-linecap:butt;stroke-linejoin:miter;stroke-opacity:1" d="M 940.316,604.15 960.94,604.15 z" id="boundary" inkscape:connector-curvature="0" />
	<path style="fill:none;stroke:red;stroke-width:1px;stroke-linecap:butt;stroke-linejoin:miter;stroke-opacity:1" d="M 981.563,604.15 960.94,604.15 z" id="boundary" inkscape:connector-curvature="0" />
	<path style="fill:none;stroke:red;stroke-width:1px;stroke-linecap:butt;stroke-linejoin:miter;stroke-opacity:1" d="M 996,573.214 981.563,604.15 z" id="boundary" inkscape:connector-curvature="0" />
	<path style="fill:none;stroke:red;stroke-width:1px;stroke-linecap:butt;stroke-linejoin:miter;stroke-opacity:1" d="M 940.316,604.15 919.692,604.15 z" id="boundary" inkscape:connector-curvature="0" />
	<path style="fill:none;stroke:red;stroke-width:1px;stroke-linecap:butt;stroke-linejoin:miter;stroke-opacity:1" d="M 996,387.601 996,408.225 z" id="boundary" inkscape:connector-curvature="0" />
	<circle cx="4" cy="41.1227" r="4" fill="#0" id="circle0"/>
	<circle cx="4" cy="61.7464" r="4" fill="#0" id="circle1"/>
	<circle cx="4" cy="82.3701" r="4" fill="#0" id="circle2"/>
	<circle cx="4" cy="102.994" r="4" fill="#0" id="circle3"/>
	<circle cx="4" cy="123.617" r="4" fill="#0" id="circle4"/>
	<circle cx="4" cy="144.241" r="4" fill="#0" id="circle5"/>
	<circle cx="4" cy="164.865" r="4" fill="#0" id="circle6"/>
	<circle cx="4" cy="185.489" r="4" fill="#0" id="circle7"/>
	<circle cx="4" cy="206.112" r="4" fill="#0" id="circle8"/>
	<circle cx="4" cy="226.736" r="4" fill="#0" id="circle9"/>
	<circle cx="4" cy="247.36" r="4" fill="#0" id="circle10"/>
	<circle cx="4" cy="267.983" r="4" fill="#0" id="circle11"/>
	<circle cx="4" cy="288.607" r="4" fill="#0" id="circle12"/>
	<circle cx="4" cy="309.231" r="4" fill="#0" id="circle13"/>
	<circle cx="4" cy="329.854" r="4" fill="#0" id="circle14"/>
	<circle cx="4" cy="350.478" r="4" fill="#0" id="circle15"/>
	<circle cx="4" cy="371.102" r="4" fill="#0" id="circle16"/>
	<circle cx="24.6237" cy="34.9356" r="4" fill="#0" id="circle17"/>
	<circle cx="24.6237" cy="377.289" r="4" fill="#0" id="circle18"/>
	<circle cx="24.6237" cy="397.913" r="4" fill="#0" id="circle19"/>
	<circle cx="24.6237" cy="418.536" r="4" fill="#0" id="circle20"/>
	<circle cx="24.6237" cy="439.16" r="4" fill="#0" id="circle21"/>
	<circle cx="24.6237" cy="459.784" r="4" fill="#0" id="circle22"/>
	<circle cx="24.6237" cy="480.407" r="4" fill="#0" id="circle23"/>
	<circle cx="24.6237" cy="501.031" r="4" fill="#0" id="circle24"/>
	<circle cx="24.6237" cy="521.655" r="4" fill="#0" id="circle25"/>
	<circle cx="24.6237" cy="542.279" r="4" fill="#0" id="circle26"/>
	<circle cx="24.6237" cy="562.902" r="4" fill="#0" id="circle27"/>
	<circle cx="24.6237" cy="583.526" r="4" fill="#0" id="circle28"/>
	<circle cx="24.6237" cy="604.15" r="4" fill="#0" id="circle29"/>
	<circle cx="24.6237" cy="624.773" r="4" fill="#0" id="circle30"/>
	<circle cx="43.185" cy="635.085" r="4" fill="#0" id="circle31"/>
	<circle cx="45.2474" cy="34.9356" r="4" fill="#0" id="circle32"/>
	<circle cx="63.8087" cy="635.085" r="4" fill="#0" id="circle33"/>
	<circle cx="65.8711" cy="34.9356" r="4" fill="#0" id="circle34"/>
	<circle cx="84.4324" cy="635.085" r="4" fill="#0" id="circle35"/>
	<circle cx="86.4948" cy="34.9356" r="4" fill="#0" id="circle36"/>
	<circle cx="105.056" cy="635.085" r="4" fill="#0" id="circle37"/>
	<circle cx="107.119" cy="34.9356" r="4" fill="#0" id="circle38"/>
	<circle cx="125.68" cy="635.085" r="4" fill="#0" id="circle39"/>
	<circle cx="127.742" cy="34.9356" r="4" fill="#0" id="circle40"/>
	<circle cx="146.304" cy="635.085" r="4" fill="#0" id="circle41"/>
	<circle cx="148.366" cy="34.9356" r="4" fill="#0" id="circle42"/>
	<circle cx="166.927" cy="635.085" r="4" fill="#0" id="circle43"/>
	<circle cx="168.99" cy="34.9356" r="4" fill="#0" id="circle44"/>
	<circle cx="187.551" cy="635.085" r="4" fill="#0" id="circle45"/>
	<circle cx="189.613" cy="34.9356" r="4" fill="#0" id="circle46"/>
	<circle cx="201.988" cy="18.4366" r="4" fill="#0" id="circle47"/>
	<circle cx="208.175" cy="635.085" r="4" fill="#0" id="circle48"/>
	<circle cx="222.611" cy="14.3119" r="4" fill="#0" id="circle49"/>
	<circle cx="228.798" cy="635.085" r="4" fill="#0" id="circle50"/>
	<circle cx="243.235" cy="14.3119" r="4" fill="#0" id="circle51"/>
	<circle cx="249.422" cy="635.085" r="4" fill="#0" id="circle52"/>
	<circle cx="263.859" cy="14.3119" r="4" fill="#0" id="circle53"/>
	<circle cx="270.046" cy="635.085" r="4" fill="#0" id="circle54"/>
	<circle cx="284.482" cy="14.3119" r="4" fill="#0" id="circle55"/>
	<circle cx="290.669" cy="635.085" r="4" fill="#0" id="circle56"/>
	<circle cx="305.106" cy="14.3119" r="4" fill="#0" id="circle57"/>
	<circle cx="305.106" cy="614.462" r="4" fill="#0" id="circle58"/>
	<circle cx="325.73" cy="14.3119" r="4" fill="#0" id="circle59"/>
	<circle cx="325.73" cy="614.462" r="4" fill="#0" id="circle60"/>
	<circle cx="346.353" cy="14.3119" r="4" fill="#0" id="circle61"/>
	<circle cx="346.353" cy="614.462" r="4" fill="#0" id="circle62"/>
	<circle cx="366.977" cy="14.3119" r="4" fill="#0" id="circle63"/>
	<circle cx="366.977" cy="614.462" r="4" fill="#0" id="circle64"/>
	<circle cx="387.601" cy="14.3119" r="4" fill="#0" id="circle65"/>
	<circle cx="387.601" cy="614.462" r="4" fill="#0" id="circle66"/>
	<circle cx="408.225" cy="14.3119" r="4" fill="#0" id="circle67"/>
	<circle cx="408.225" cy="614.462" r="4" fill="#0" id="circle68"/>
	<circle cx="428.848" cy="14.3119" r="4" fill="#0" id="circle69"/>
	<circle cx="428.848" cy="614.462" r="4" fill="#0" id="circle70"/>
	<circle cx="449.472" cy="14.3119" r="4" fill="#0" id="circle71"/>
	<circle cx="449.472" cy="614.462" r="4" fill="#0" id="circle72"/>
	<circle cx="470.096" cy="14.3119" r="4" fill="#0" id="circle73"/>
	<circle cx="470.096" cy="614.462" r="4" fill="#0" id="circle74"/>
	<circle cx="490.719" cy="14.3119" r="4" fill="#0" id="circle75"/>
	<circle cx="490.719" cy="614.462" r="4" fill="#0" id="circle76"/>
	<circle cx="511.343" cy="14.3119" r="4" fill="#0" id="circle77"/>
	<circle cx="511.343" cy="614.462" r="4" fill="#0" id="circle78"/>
	<circle cx="531.967" cy="14.3119" r="4" fill="#0" id="circle79"/>
	<circle cx="531.967" cy="614.462" r="4" fill="#0" id="circle80"/>
	<circle cx="552.59" cy="14.3119" r="4" fill="#0" id="circle81"/>
	<circle cx="552.59" cy="614.462" r="4" fill="#0" id="circle82"/>
	<circle cx="571.152" cy="624.773" r="4" fill="#0" id="circle83"/>
	<circle cx="571.152" cy="645.397" r="4" fill="#0" id="circle84"/>
	<circle cx="571.152" cy="666.021" r="4" fill="#0" id="circle85"/>
	<circle cx="571.152" cy="686.644" r="4" fill="#0" id="circle86"/>
	<circle cx="571.152" cy="707.268" r="4" fill="#0" id="circle87"/>
	<circle cx="571.152" cy="727.892" r="4" fill="#0" id="circle88"/>
	<circle cx="571.152" cy="748.516" r="4" fill="#0" id="circle89"/>
	<circle cx="573.214" cy="14.3119" r="4" fill="#0" id="circle90"/>
	<circle cx="577.339" cy="769.139" r="4" fill="#0" id="circle91"/>
	<circle cx="593.838" cy="14.3119" r="4" fill="#0" id="circle92"/>
	<circle cx="597.963" cy="777.389" r="4" fill="#0" id="circle93"/>
	<circle cx="614.462" cy="8.12474" r="4" fill="#0" id="circle94"/>
	<circle cx="618.586" cy="769.139" r="4" fill="#0" id="circle95"/>
	<circle cx="635.085" cy="4" r="4" fill="#0" id="circle96"/>
	<circle cx="635.085" cy="738.204" r="4" fill="#0" id="circle97"/>
	<circle cx="655.709" cy="4" r="4" fill="#0" id="circle98"/>
	<circle cx="655.709" cy="738.204" r="4" fill="#0" id="circle99"/>
	<circle cx="666.021" cy="717.58" r="4" fill="#0" id="circle100"/>
	<circle cx="676.333" cy="4" r="4" fill="#0" id="circle101"/>
	<circle cx="684.582" cy="707.268" r="4" fill="#0" id="circle102"/>
	<circle cx="696.956" cy="4" r="4" fill="#0" id="circle103"/>
	<circle cx="705.206" cy="701.081" r="4" fill="#0" id="circle104"/>
	<circle cx="717.58" cy="4" r="4" fill="#0" id="circle105"/>
	<circle cx="725.83" cy="696.956" r="4" fill="#0" id="circle106"/>
	<circle cx="738.204" cy="4" r="4" fill="#0" id="circle107"/>
	<circle cx="738.204" cy="676.333" r="4" fill="#0" id="circle108"/>
	<circle cx="756.765" cy="666.021" r="4" fill="#0" id="circle109"/>
	<circle cx="758.827" cy="4" r="4" fill="#0" id="circle110"/>
	<circle cx="769.139" cy="645.397" r="4" fill="#0" id="circle111"/>
	<circle cx="779.451" cy="4" r="4" fill="#0" id="circle112"/>
	<circle cx="789.763" cy="645.397" r="4" fill="#0" id="circle113"/>
	<circle cx="800.075" cy="4" r="4" fill="#0" id="circle114"/>
	<circle cx="806.262" cy="630.96" r="4" fill="#0" id="circle115"/>
	<circle cx="818.636" cy="614.462" r="4" fill="#0" id="circle116"/>
	<circle cx="820.699" cy="4" r="4" fill="#0" id="circle117"/>
	<circle cx="837.198" cy="604.15" r="4" fill="#0" id="circle118"/>
	<circle cx="841.322" cy="4" r="4" fill="#0" id="circle119"/>
	<circle cx="857.821" cy="604.15" r="4" fill="#0" id="circle120"/>
	<circle cx="861.946" cy="4" r="4" fill="#0" id="circle121"/>
	<circle cx="878.445" cy="604.15" r="4" fill="#0" id="circle122"/>
	<circle cx="882.57" cy="4" r="4" fill="#0" id="circle123"/>
	<circle cx="899.069" cy="604.15" r="4" fill="#0" id="circle124"/>
	<circle cx="903.193" cy="4" r="4" fill="#0" id="circle125"/>
	<circle cx="919.692" cy="604.15" r="4" fill="#0" id="circle126"/>
	<circle cx="923.817" cy="4" r="4" fill="#0" id="circle127"/>
	<circle cx="940.316" cy="604.15" r="4" fill="#0" id="circle128"/>
	<circle cx="944.441" cy="4" r="4" fill="#0" id="circle129"/>
	<circle cx="960.94" cy="604.15" r="4" fill="#0" id="circle130"/>
	<circle cx="965.064" cy="4" r="4" fill="#0" id="circle131"/>
	<circle cx="975.376" cy="22.5613" r="4" fill="#0" id="circle132"/>
	<circle cx="975.376" cy="43.185" r="4" fill="#0" id="circle133"/>
	<circle cx="975.376" cy="63.8087" r="4" fill="#0" id="circle134"/>
	<circle cx="975.376" cy="84.4324" r="4" fill="#0" id="circle135"/>
	<circle cx="975.376" cy="105.056" r="4" fill="#0" id="circle136"/>
	<circle cx="975.376" cy="125.68" r="4" fill="#0" id="circle137"/>
	<circle cx="975.376" cy="146.304" r="4" fill="#0" id="circle138"/>
	<circle cx="975.376" cy="166.927" r="4" fill="#0" id="circle139"/>
	<circle cx="975.376" cy="187.551" r="4" fill="#0" id="circle140"/>
	<circle cx="975.376" cy="208.175" r="4" fill="#0" id="circle141"/>
	<circle cx="975.376" cy="228.798" r="4" fill="#0" id="circle142"/>
	<circle cx="975.376" cy="249.422" r="4" fill="#0" id="circle143"/>
	<circle cx="981.563" cy="604.15" r="4" fill="#0" id="circle144"/>
	<circle cx="991.875" cy="263.859" r="4" fill="#0" id="circle145"/>
	<circle cx="996" cy="284.482" r="4" fill="#0" id="circle146"/>
	<circle cx="996" cy="305.106" r="4" fill="#0" id="circle147"/>
	<circle cx="996" cy="325.73" r="4" fill="#0" id="circle148"/>
	<circle cx="996" cy="346.353" r="4" fill="#0" id="circle149"/>
	<circle cx="996" cy="366.977" r="4" fill="#0" id="circle150"/>
	<circle cx="996" cy="387.601" r="4" fill="#0" id="circle151"/>
	<circle cx="996" cy="408.225" r="4" fill="#0" id="circle152"/>
	<circle cx="996" cy="428.848" r="4" fill="#0" id="circle153"/>
	<circle cx="996" cy="449.472" r="4" fill="#0" id="circle154"/>
	<circle cx="996" cy="470.096" r="4" fill="#0" id="circle155"/>
	<circle cx="996" cy="490.719" r="4" fill="#0" id="circle156"/>
	<circle cx="996" cy="511.343" r="4" fill="#0" id="circle157"/>
	<circle cx="996" cy="531.967" r="4" fill="#0" id="circle158"/>
	<circle cx="996" cy="552.59" r="4" fill="#0" id="circle159"/>
	<circle cx="996" cy="573.214" r="4" fill="#0" id="circle160"/>
	</g>
</svg>