<?xml version="1.0" encoding="UTF-8" standalone="no"?>
<!-- Created with CurveBenchmark -->
<svg
	xmlns:dc="http://purl.org/dc/elements/1.1/"
	xmlns:cc="http://creativecommons.org/ns#"
	xmlns:rdf="http://www.w3.org/1999/02/22-rdf-syntax-ns#"
	xmlns:svg="http://www.w3.org/2000/svg"
	xmlns="http://www.w3.org/2000/svg"
	xmlns:sodipodi="http://sodipodi.sourceforge.net/DTD/sodipodi-0.dtd"
	xmlns:inkscape="http://www.inkscape.org/namespaces/inkscape"
	width="1000"
	height="1000"
	id="svg2"
	version="1.1"
	sodipodi:docname="manifold/nncrust-bed235.png.txt">
<defs
	id="defs4" />
<metadata
	id="metadata7">
	<rdf:RDF>
		<cc:Work
			rdf:about="">
			<dc:format>image/svg+xml</dc:format>
			<dc:type
				rdf:resource="http://purl.org/dc/dcmitype/StillImage" />
			<dc:title></dc:title>
		</cc:Work>
	</rdf:RDF>
</metadata>
<g
	inkscape:label="Layer 1"
	inkscape:groupmode="layer"
	id="layer1">
	<path style="fill:none;stroke:red;stroke-width:1px;stroke-linecap:butt;stroke-linejoin:miter;stroke-opacity:1" d="M 120.515,262.923 136.698,262.923 z" id="boundary" inkscape:connector-curvature="0" />
	<path style="fill:none;stroke:red;stroke-width:1px;stroke-linecap:butt;stroke-linejoin:miter;stroke-opacity:1" d="M 104.333,266.16 120.515,262.923 z" id="boundary" inkscape:connector-curvature="0" />
	<path style="fill:none;stroke:red;stroke-width:1px;stroke-linecap:butt;stroke-linejoin:miter;stroke-opacity:1" d="M 146.408,249.977 136.698,262.923 z" id="boundary" inkscape:connector-curvature="0" />
	<path style="fill:none;stroke:red;stroke-width:1px;stroke-linecap:butt;stroke-linejoin:miter;stroke-opacity:1" d="M 71.9674,275.869 88.1501,269.396 z" id="boundary" inkscape:connector-curvature="0" />
	<path style="fill:none;stroke:red;stroke-width:1px;stroke-linecap:butt;stroke-linejoin:miter;stroke-opacity:1" d="M 104.333,266.16 88.1501,269.396 z" id="boundary" inkscape:connector-curvature="0" />
	<path style="fill:none;stroke:red;stroke-width:1px;stroke-linecap:butt;stroke-linejoin:miter;stroke-opacity:1" d="M 173.918,232.176 186.865,220.848 z" id="boundary" inkscape:connector-curvature="0" />
	<path style="fill:none;stroke:red;stroke-width:1px;stroke-linecap:butt;stroke-linejoin:miter;stroke-opacity:1" d="M 186.865,220.848 203.047,224.085 z" id="boundary" inkscape:connector-curvature="0" />
	<path style="fill:none;stroke:red;stroke-width:1px;stroke-linecap:butt;stroke-linejoin:miter;stroke-opacity:1" d="M 203.047,224.085 215.993,233.794 z" id="boundary" inkscape:connector-curvature="0" />
	<path style="fill:none;stroke:red;stroke-width:1px;stroke-linecap:butt;stroke-linejoin:miter;stroke-opacity:1" d="M 160.972,241.886 146.408,249.977 z" id="boundary" inkscape:connector-curvature="0" />
	<path style="fill:none;stroke:red;stroke-width:1px;stroke-linecap:butt;stroke-linejoin:miter;stroke-opacity:1" d="M 173.918,232.176 160.972,241.886 z" id="boundary" inkscape:connector-curvature="0" />
	<path style="fill:none;stroke:red;stroke-width:1px;stroke-linecap:butt;stroke-linejoin:miter;stroke-opacity:1" d="M 71.9674,275.869 55.7847,279.106 z" id="boundary" inkscape:connector-curvature="0" />
	<path style="fill:none;stroke:red;stroke-width:1px;stroke-linecap:butt;stroke-linejoin:miter;stroke-opacity:1" d="M 4,321.181 12.0914,306.617 z" id="boundary" inkscape:connector-curvature="0" />
	<path style="fill:none;stroke:red;stroke-width:1px;stroke-linecap:butt;stroke-linejoin:miter;stroke-opacity:1" d="M 8.85481,337.364 4,321.181 z" id="boundary" inkscape:connector-curvature="0" />
	<path style="fill:none;stroke:red;stroke-width:1px;stroke-linecap:butt;stroke-linejoin:miter;stroke-opacity:1" d="M 8.85481,337.364 16.9462,351.928 z" id="boundary" inkscape:connector-curvature="0" />
	<path style="fill:none;stroke:red;stroke-width:1px;stroke-linecap:butt;stroke-linejoin:miter;stroke-opacity:1" d="M 16.9462,351.928 16.9462,368.111 z" id="boundary" inkscape:connector-curvature="0" />
	<path style="fill:none;stroke:red;stroke-width:1px;stroke-linecap:butt;stroke-linejoin:miter;stroke-opacity:1" d="M 12.0914,306.617 25.0375,293.67 z" id="boundary" inkscape:connector-curvature="0" />
	<path style="fill:none;stroke:red;stroke-width:1px;stroke-linecap:butt;stroke-linejoin:miter;stroke-opacity:1" d="M 16.9462,368.111 16.9462,384.294 z" id="boundary" inkscape:connector-curvature="0" />
	<path style="fill:none;stroke:red;stroke-width:1px;stroke-linecap:butt;stroke-linejoin:miter;stroke-opacity:1" d="M 39.602,285.579 55.7847,279.106 z" id="boundary" inkscape:connector-curvature="0" />
	<path style="fill:none;stroke:red;stroke-width:1px;stroke-linecap:butt;stroke-linejoin:miter;stroke-opacity:1" d="M 16.9462,384.294 23.4192,400.476 z" id="boundary" inkscape:connector-curvature="0" />
	<path style="fill:none;stroke:red;stroke-width:1px;stroke-linecap:butt;stroke-linejoin:miter;stroke-opacity:1" d="M 23.4192,400.476 23.4192,416.659 z" id="boundary" inkscape:connector-curvature="0" />
	<path style="fill:none;stroke:red;stroke-width:1px;stroke-linecap:butt;stroke-linejoin:miter;stroke-opacity:1" d="M 25.0375,293.67 39.602,285.579 z" id="boundary" inkscape:connector-curvature="0" />
	<path style="fill:none;stroke:red;stroke-width:1px;stroke-linecap:butt;stroke-linejoin:miter;stroke-opacity:1" d="M 23.4192,416.659 16.9462,437.697 z" id="boundary" inkscape:connector-curvature="0" />
	<path style="fill:none;stroke:red;stroke-width:1px;stroke-linecap:butt;stroke-linejoin:miter;stroke-opacity:1" d="M 215.993,233.794 228.94,243.504 z" id="boundary" inkscape:connector-curvature="0" />
	<path style="fill:none;stroke:red;stroke-width:1px;stroke-linecap:butt;stroke-linejoin:miter;stroke-opacity:1" d="M 228.94,243.504 241.886,253.214 z" id="boundary" inkscape:connector-curvature="0" />
	<path style="fill:none;stroke:red;stroke-width:1px;stroke-linecap:butt;stroke-linejoin:miter;stroke-opacity:1" d="M 254.832,262.923 271.015,262.923 z" id="boundary" inkscape:connector-curvature="0" />
	<path style="fill:none;stroke:red;stroke-width:1px;stroke-linecap:butt;stroke-linejoin:miter;stroke-opacity:1" d="M 271.015,262.923 287.197,266.16 z" id="boundary" inkscape:connector-curvature="0" />
	<path style="fill:none;stroke:red;stroke-width:1px;stroke-linecap:butt;stroke-linejoin:miter;stroke-opacity:1" d="M 254.832,262.923 241.886,253.214 z" id="boundary" inkscape:connector-curvature="0" />
	<path style="fill:none;stroke:red;stroke-width:1px;stroke-linecap:butt;stroke-linejoin:miter;stroke-opacity:1" d="M 526.701,248.359 539.648,235.413 z" id="boundary" inkscape:connector-curvature="0" />
	<path style="fill:none;stroke:red;stroke-width:1px;stroke-linecap:butt;stroke-linejoin:miter;stroke-opacity:1" d="M 552.594,225.703 539.648,235.413 z" id="boundary" inkscape:connector-curvature="0" />
	<path style="fill:none;stroke:red;stroke-width:1px;stroke-linecap:butt;stroke-linejoin:miter;stroke-opacity:1" d="M 526.701,248.359 513.755,259.687 z" id="boundary" inkscape:connector-curvature="0" />
	<path style="fill:none;stroke:red;stroke-width:1px;stroke-linecap:butt;stroke-linejoin:miter;stroke-opacity:1" d="M 500.809,271.015 513.755,259.687 z" id="boundary" inkscape:connector-curvature="0" />
	<path style="fill:none;stroke:red;stroke-width:1px;stroke-linecap:butt;stroke-linejoin:miter;stroke-opacity:1" d="M 492.718,285.579 500.809,271.015 z" id="boundary" inkscape:connector-curvature="0" />
	<path style="fill:none;stroke:red;stroke-width:1px;stroke-linecap:butt;stroke-linejoin:miter;stroke-opacity:1" d="M 552.594,436.078 536.411,436.078 z" id="boundary" inkscape:connector-curvature="0" />
	<path style="fill:none;stroke:red;stroke-width:1px;stroke-linecap:butt;stroke-linejoin:miter;stroke-opacity:1" d="M 303.38,269.396 287.197,266.16 z" id="boundary" inkscape:connector-curvature="0" />
	<path style="fill:none;stroke:red;stroke-width:1px;stroke-linecap:butt;stroke-linejoin:miter;stroke-opacity:1" d="M 319.563,275.869 335.746,279.106 z" id="boundary" inkscape:connector-curvature="0" />
	<path style="fill:none;stroke:red;stroke-width:1px;stroke-linecap:butt;stroke-linejoin:miter;stroke-opacity:1" d="M 319.563,275.869 303.38,269.396 z" id="boundary" inkscape:connector-curvature="0" />
	<path style="fill:none;stroke:red;stroke-width:1px;stroke-linecap:butt;stroke-linejoin:miter;stroke-opacity:1" d="M 413.423,295.289 397.24,295.289 z" id="boundary" inkscape:connector-curvature="0" />
	<path style="fill:none;stroke:red;stroke-width:1px;stroke-linecap:butt;stroke-linejoin:miter;stroke-opacity:1" d="M 335.746,279.106 351.928,285.579 z" id="boundary" inkscape:connector-curvature="0" />
	<path style="fill:none;stroke:red;stroke-width:1px;stroke-linecap:butt;stroke-linejoin:miter;stroke-opacity:1" d="M 351.928,285.579 364.874,295.289 z" id="boundary" inkscape:connector-curvature="0" />
	<path style="fill:none;stroke:red;stroke-width:1px;stroke-linecap:butt;stroke-linejoin:miter;stroke-opacity:1" d="M 381.057,295.289 364.874,295.289 z" id="boundary" inkscape:connector-curvature="0" />
	<path style="fill:none;stroke:red;stroke-width:1px;stroke-linecap:butt;stroke-linejoin:miter;stroke-opacity:1" d="M 397.24,295.289 381.057,295.289 z" id="boundary" inkscape:connector-curvature="0" />
	<path style="fill:none;stroke:red;stroke-width:1px;stroke-linecap:butt;stroke-linejoin:miter;stroke-opacity:1" d="M 429.605,295.289 413.423,295.289 z" id="boundary" inkscape:connector-curvature="0" />
	<path style="fill:none;stroke:red;stroke-width:1px;stroke-linecap:butt;stroke-linejoin:miter;stroke-opacity:1" d="M 478.153,293.67 492.718,285.579 z" id="boundary" inkscape:connector-curvature="0" />
	<path style="fill:none;stroke:red;stroke-width:1px;stroke-linecap:butt;stroke-linejoin:miter;stroke-opacity:1" d="M 478.153,293.67 461.971,295.289 z" id="boundary" inkscape:connector-curvature="0" />
	<path style="fill:none;stroke:red;stroke-width:1px;stroke-linecap:butt;stroke-linejoin:miter;stroke-opacity:1" d="M 445.788,295.289 429.605,295.289 z" id="boundary" inkscape:connector-curvature="0" />
	<path style="fill:none;stroke:red;stroke-width:1px;stroke-linecap:butt;stroke-linejoin:miter;stroke-opacity:1" d="M 461.971,295.289 445.788,295.289 z" id="boundary" inkscape:connector-curvature="0" />
	<path style="fill:none;stroke:red;stroke-width:1px;stroke-linecap:butt;stroke-linejoin:miter;stroke-opacity:1" d="M 31.5106,445.788 16.9462,437.697 z" id="boundary" inkscape:connector-curvature="0" />
	<path style="fill:none;stroke:red;stroke-width:1px;stroke-linecap:butt;stroke-linejoin:miter;stroke-opacity:1" d="M 47.6933,442.551 31.5106,445.788 z" id="boundary" inkscape:connector-curvature="0" />
	<path style="fill:none;stroke:red;stroke-width:1px;stroke-linecap:butt;stroke-linejoin:miter;stroke-opacity:1" d="M 47.6933,442.551 63.876,449.024 z" id="boundary" inkscape:connector-curvature="0" />
	<path style="fill:none;stroke:red;stroke-width:1px;stroke-linecap:butt;stroke-linejoin:miter;stroke-opacity:1" d="M 78.4405,457.116 63.876,449.024 z" id="boundary" inkscape:connector-curvature="0" />
	<path style="fill:none;stroke:red;stroke-width:1px;stroke-linecap:butt;stroke-linejoin:miter;stroke-opacity:1" d="M 91.3866,445.788 78.4405,457.116 z" id="boundary" inkscape:connector-curvature="0" />
	<path style="fill:none;stroke:red;stroke-width:1px;stroke-linecap:butt;stroke-linejoin:miter;stroke-opacity:1" d="M 10.4731,460.352 16.9462,437.697 z" id="boundary" inkscape:connector-curvature="0" />
	<path style="fill:none;stroke:red;stroke-width:1px;stroke-linecap:butt;stroke-linejoin:miter;stroke-opacity:1" d="M 123.752,444.17 107.569,439.315 z" id="boundary" inkscape:connector-curvature="0" />
	<path style="fill:none;stroke:red;stroke-width:1px;stroke-linecap:butt;stroke-linejoin:miter;stroke-opacity:1" d="M 138.316,452.261 123.752,444.17 z" id="boundary" inkscape:connector-curvature="0" />
	<path style="fill:none;stroke:red;stroke-width:1px;stroke-linecap:butt;stroke-linejoin:miter;stroke-opacity:1" d="M 91.3866,445.788 107.569,439.315 z" id="boundary" inkscape:connector-curvature="0" />
	<path style="fill:none;stroke:red;stroke-width:1px;stroke-linecap:butt;stroke-linejoin:miter;stroke-opacity:1" d="M 259.687,442.551 246.741,452.261 z" id="boundary" inkscape:connector-curvature="0" />
	<path style="fill:none;stroke:red;stroke-width:1px;stroke-linecap:butt;stroke-linejoin:miter;stroke-opacity:1" d="M 138.316,452.261 151.263,461.971 z" id="boundary" inkscape:connector-curvature="0" />
	<path style="fill:none;stroke:red;stroke-width:1px;stroke-linecap:butt;stroke-linejoin:miter;stroke-opacity:1" d="M 246.741,452.261 232.176,460.352 z" id="boundary" inkscape:connector-curvature="0" />
	<path style="fill:none;stroke:red;stroke-width:1px;stroke-linecap:butt;stroke-linejoin:miter;stroke-opacity:1" d="M 10.4731,460.352 26.6558,465.207 z" id="boundary" inkscape:connector-curvature="0" />
	<path style="fill:none;stroke:red;stroke-width:1px;stroke-linecap:butt;stroke-linejoin:miter;stroke-opacity:1" d="M 12.0914,476.535 10.4731,460.352 z" id="boundary" inkscape:connector-curvature="0" />
	<path style="fill:none;stroke:red;stroke-width:1px;stroke-linecap:butt;stroke-linejoin:miter;stroke-opacity:1" d="M 26.6558,465.207 28.2741,481.39 z" id="boundary" inkscape:connector-curvature="0" />
	<path style="fill:none;stroke:red;stroke-width:1px;stroke-linecap:butt;stroke-linejoin:miter;stroke-opacity:1" d="M 28.2741,481.39 12.0914,476.535 z" id="boundary" inkscape:connector-curvature="0" />
	<path style="fill:none;stroke:red;stroke-width:1px;stroke-linecap:butt;stroke-linejoin:miter;stroke-opacity:1" d="M 12.0914,476.535 10.4731,499.191 z" id="boundary" inkscape:connector-curvature="0" />
	<path style="fill:none;stroke:red;stroke-width:1px;stroke-linecap:butt;stroke-linejoin:miter;stroke-opacity:1" d="M 28.2741,481.39 26.6558,500.809 z" id="boundary" inkscape:connector-curvature="0" />
	<path style="fill:none;stroke:red;stroke-width:1px;stroke-linecap:butt;stroke-linejoin:miter;stroke-opacity:1" d="M 26.6558,500.809 10.4731,499.191 z" id="boundary" inkscape:connector-curvature="0" />
	<path style="fill:none;stroke:red;stroke-width:1px;stroke-linecap:butt;stroke-linejoin:miter;stroke-opacity:1" d="M 78.4405,457.116 26.6558,500.809 z" id="boundary" inkscape:connector-curvature="0" />
	<path style="fill:none;stroke:red;stroke-width:1px;stroke-linecap:butt;stroke-linejoin:miter;stroke-opacity:1" d="M 167.445,468.444 151.263,461.971 z" id="boundary" inkscape:connector-curvature="0" />
	<path style="fill:none;stroke:red;stroke-width:1px;stroke-linecap:butt;stroke-linejoin:miter;stroke-opacity:1" d="M 232.176,460.352 215.993,468.444 z" id="boundary" inkscape:connector-curvature="0" />
	<path style="fill:none;stroke:red;stroke-width:1px;stroke-linecap:butt;stroke-linejoin:miter;stroke-opacity:1" d="M 199.811,473.299 183.628,474.917 z" id="boundary" inkscape:connector-curvature="0" />
	<path style="fill:none;stroke:red;stroke-width:1px;stroke-linecap:butt;stroke-linejoin:miter;stroke-opacity:1" d="M 183.628,474.917 167.445,468.444 z" id="boundary" inkscape:connector-curvature="0" />
	<path style="fill:none;stroke:red;stroke-width:1px;stroke-linecap:butt;stroke-linejoin:miter;stroke-opacity:1" d="M 215.993,468.444 199.811,473.299 z" id="boundary" inkscape:connector-curvature="0" />
	<path style="fill:none;stroke:red;stroke-width:1px;stroke-linecap:butt;stroke-linejoin:miter;stroke-opacity:1" d="M 374.584,437.697 390.767,436.078 z" id="boundary" inkscape:connector-curvature="0" />
	<path style="fill:none;stroke:red;stroke-width:1px;stroke-linecap:butt;stroke-linejoin:miter;stroke-opacity:1" d="M 374.584,453.879 374.584,437.697 z" id="boundary" inkscape:connector-curvature="0" />
	<path style="fill:none;stroke:red;stroke-width:1px;stroke-linecap:butt;stroke-linejoin:miter;stroke-opacity:1" d="M 406.949,436.078 390.767,436.078 z" id="boundary" inkscape:connector-curvature="0" />
	<path style="fill:none;stroke:red;stroke-width:1px;stroke-linecap:butt;stroke-linejoin:miter;stroke-opacity:1" d="M 406.949,436.078 423.132,436.078 z" id="boundary" inkscape:connector-curvature="0" />
	<path style="fill:none;stroke:red;stroke-width:1px;stroke-linecap:butt;stroke-linejoin:miter;stroke-opacity:1" d="M 439.315,436.078 423.132,436.078 z" id="boundary" inkscape:connector-curvature="0" />
	<path style="fill:none;stroke:red;stroke-width:1px;stroke-linecap:butt;stroke-linejoin:miter;stroke-opacity:1" d="M 439.315,436.078 455.498,436.078 z" id="boundary" inkscape:connector-curvature="0" />
	<path style="fill:none;stroke:red;stroke-width:1px;stroke-linecap:butt;stroke-linejoin:miter;stroke-opacity:1" d="M 471.68,436.078 455.498,436.078 z" id="boundary" inkscape:connector-curvature="0" />
	<path style="fill:none;stroke:red;stroke-width:1px;stroke-linecap:butt;stroke-linejoin:miter;stroke-opacity:1" d="M 487.863,436.078 471.68,436.078 z" id="boundary" inkscape:connector-curvature="0" />
	<path style="fill:none;stroke:red;stroke-width:1px;stroke-linecap:butt;stroke-linejoin:miter;stroke-opacity:1" d="M 471.68,436.078 366.493,504.046 z" id="boundary" inkscape:connector-curvature="0" />
	<path style="fill:none;stroke:red;stroke-width:1px;stroke-linecap:butt;stroke-linejoin:miter;stroke-opacity:1" d="M 487.863,436.078 504.046,436.078 z" id="boundary" inkscape:connector-curvature="0" />
	<path style="fill:none;stroke:red;stroke-width:1px;stroke-linecap:butt;stroke-linejoin:miter;stroke-opacity:1" d="M 520.228,436.078 504.046,436.078 z" id="boundary" inkscape:connector-curvature="0" />
	<path style="fill:none;stroke:red;stroke-width:1px;stroke-linecap:butt;stroke-linejoin:miter;stroke-opacity:1" d="M 536.411,436.078 520.228,436.078 z" id="boundary" inkscape:connector-curvature="0" />
	<path style="fill:none;stroke:red;stroke-width:1px;stroke-linecap:butt;stroke-linejoin:miter;stroke-opacity:1" d="M 664.254,495.954 366.493,504.046 z" id="boundary" inkscape:connector-curvature="0" />
	<path style="fill:none;stroke:red;stroke-width:1px;stroke-linecap:butt;stroke-linejoin:miter;stroke-opacity:1" d="M 348.692,442.551 332.509,442.551 z" id="boundary" inkscape:connector-curvature="0" />
	<path style="fill:none;stroke:red;stroke-width:1px;stroke-linecap:butt;stroke-linejoin:miter;stroke-opacity:1" d="M 316.326,447.406 332.509,442.551 z" id="boundary" inkscape:connector-curvature="0" />
	<path style="fill:none;stroke:red;stroke-width:1px;stroke-linecap:butt;stroke-linejoin:miter;stroke-opacity:1" d="M 316.326,447.406 303.38,457.116 z" id="boundary" inkscape:connector-curvature="0" />
	<path style="fill:none;stroke:red;stroke-width:1px;stroke-linecap:butt;stroke-linejoin:miter;stroke-opacity:1" d="M 303.38,457.116 290.434,447.406 z" id="boundary" inkscape:connector-curvature="0" />
	<path style="fill:none;stroke:red;stroke-width:1px;stroke-linecap:butt;stroke-linejoin:miter;stroke-opacity:1" d="M 290.434,447.406 275.869,439.315 z" id="boundary" inkscape:connector-curvature="0" />
	<path style="fill:none;stroke:red;stroke-width:1px;stroke-linecap:butt;stroke-linejoin:miter;stroke-opacity:1" d="M 348.692,442.551 353.546,458.734 z" id="boundary" inkscape:connector-curvature="0" />
	<path style="fill:none;stroke:red;stroke-width:1px;stroke-linecap:butt;stroke-linejoin:miter;stroke-opacity:1" d="M 353.546,474.917 353.546,458.734 z" id="boundary" inkscape:connector-curvature="0" />
	<path style="fill:none;stroke:red;stroke-width:1px;stroke-linecap:butt;stroke-linejoin:miter;stroke-opacity:1" d="M 371.347,479.772 353.546,474.917 z" id="boundary" inkscape:connector-curvature="0" />
	<path style="fill:none;stroke:red;stroke-width:1px;stroke-linecap:butt;stroke-linejoin:miter;stroke-opacity:1" d="M 374.584,453.879 353.546,458.734 z" id="boundary" inkscape:connector-curvature="0" />
	<path style="fill:none;stroke:red;stroke-width:1px;stroke-linecap:butt;stroke-linejoin:miter;stroke-opacity:1" d="M 371.347,479.772 366.493,504.046 z" id="boundary" inkscape:connector-curvature="0" />
	<path style="fill:none;stroke:red;stroke-width:1px;stroke-linecap:butt;stroke-linejoin:miter;stroke-opacity:1" d="M 366.493,504.046 356.783,491.1 z" id="boundary" inkscape:connector-curvature="0" />
	<path style="fill:none;stroke:red;stroke-width:1px;stroke-linecap:butt;stroke-linejoin:miter;stroke-opacity:1" d="M 356.783,491.1 353.546,474.917 z" id="boundary" inkscape:connector-curvature="0" />
	<path style="fill:none;stroke:red;stroke-width:1px;stroke-linecap:butt;stroke-linejoin:miter;stroke-opacity:1" d="M 259.687,442.551 275.869,439.315 z" id="boundary" inkscape:connector-curvature="0" />
	<path style="fill:none;stroke:red;stroke-width:1px;stroke-linecap:butt;stroke-linejoin:miter;stroke-opacity:1" d="M 703.093,88.1501 719.276,81.677 z" id="boundary" inkscape:connector-curvature="0" />
	<path style="fill:none;stroke:red;stroke-width:1px;stroke-linecap:butt;stroke-linejoin:miter;stroke-opacity:1" d="M 735.458,75.2039 719.276,81.677 z" id="boundary" inkscape:connector-curvature="0" />
	<path style="fill:none;stroke:red;stroke-width:1px;stroke-linecap:butt;stroke-linejoin:miter;stroke-opacity:1" d="M 677.201,107.569 690.147,97.8597 z" id="boundary" inkscape:connector-curvature="0" />
	<path style="fill:none;stroke:red;stroke-width:1px;stroke-linecap:butt;stroke-linejoin:miter;stroke-opacity:1" d="M 703.093,88.1501 690.147,97.8597 z" id="boundary" inkscape:connector-curvature="0" />
	<path style="fill:none;stroke:red;stroke-width:1px;stroke-linecap:butt;stroke-linejoin:miter;stroke-opacity:1" d="M 809.899,10.4731 800.189,26.6558 z" id="boundary" inkscape:connector-curvature="0" />
	<path style="fill:none;stroke:red;stroke-width:1px;stroke-linecap:butt;stroke-linejoin:miter;stroke-opacity:1" d="M 800.189,26.6558 787.243,39.602 z" id="boundary" inkscape:connector-curvature="0" />
	<path style="fill:none;stroke:red;stroke-width:1px;stroke-linecap:butt;stroke-linejoin:miter;stroke-opacity:1" d="M 787.243,39.602 774.297,49.3116 z" id="boundary" inkscape:connector-curvature="0" />
	<path style="fill:none;stroke:red;stroke-width:1px;stroke-linecap:butt;stroke-linejoin:miter;stroke-opacity:1" d="M 774.297,49.3116 767.824,65.4943 z" id="boundary" inkscape:connector-curvature="0" />
	<path style="fill:none;stroke:red;stroke-width:1px;stroke-linecap:butt;stroke-linejoin:miter;stroke-opacity:1" d="M 767.824,65.4943 751.641,68.7308 z" id="boundary" inkscape:connector-curvature="0" />
	<path style="fill:none;stroke:red;stroke-width:1px;stroke-linecap:butt;stroke-linejoin:miter;stroke-opacity:1" d="M 751.641,68.7308 735.458,75.2039 z" id="boundary" inkscape:connector-curvature="0" />
	<path style="fill:none;stroke:red;stroke-width:1px;stroke-linecap:butt;stroke-linejoin:miter;stroke-opacity:1" d="M 615.706,204.666 631.889,204.666 z" id="boundary" inkscape:connector-curvature="0" />
	<path style="fill:none;stroke:red;stroke-width:1px;stroke-linecap:butt;stroke-linejoin:miter;stroke-opacity:1" d="M 599.524,207.902 615.706,204.666 z" id="boundary" inkscape:connector-curvature="0" />
	<path style="fill:none;stroke:red;stroke-width:1px;stroke-linecap:butt;stroke-linejoin:miter;stroke-opacity:1" d="M 648.072,204.666 631.889,204.666 z" id="boundary" inkscape:connector-curvature="0" />
	<path style="fill:none;stroke:red;stroke-width:1px;stroke-linecap:butt;stroke-linejoin:miter;stroke-opacity:1" d="M 661.018,191.719 648.072,204.666 z" id="boundary" inkscape:connector-curvature="0" />
	<path style="fill:none;stroke:red;stroke-width:1px;stroke-linecap:butt;stroke-linejoin:miter;stroke-opacity:1" d="M 567.158,217.612 583.341,211.139 z" id="boundary" inkscape:connector-curvature="0" />
	<path style="fill:none;stroke:red;stroke-width:1px;stroke-linecap:butt;stroke-linejoin:miter;stroke-opacity:1" d="M 583.341,211.139 599.524,207.902 z" id="boundary" inkscape:connector-curvature="0" />
	<path style="fill:none;stroke:red;stroke-width:1px;stroke-linecap:butt;stroke-linejoin:miter;stroke-opacity:1" d="M 664.254,136.698 664.254,120.515 z" id="boundary" inkscape:connector-curvature="0" />
	<path style="fill:none;stroke:red;stroke-width:1px;stroke-linecap:butt;stroke-linejoin:miter;stroke-opacity:1" d="M 664.254,120.515 677.201,107.569 z" id="boundary" inkscape:connector-curvature="0" />
	<path style="fill:none;stroke:red;stroke-width:1px;stroke-linecap:butt;stroke-linejoin:miter;stroke-opacity:1" d="M 670.728,152.881 664.254,136.698 z" id="boundary" inkscape:connector-curvature="0" />
	<path style="fill:none;stroke:red;stroke-width:1px;stroke-linecap:butt;stroke-linejoin:miter;stroke-opacity:1" d="M 677.201,169.064 677.201,185.246 z" id="boundary" inkscape:connector-curvature="0" />
	<path style="fill:none;stroke:red;stroke-width:1px;stroke-linecap:butt;stroke-linejoin:miter;stroke-opacity:1" d="M 677.201,185.246 661.018,191.719 z" id="boundary" inkscape:connector-curvature="0" />
	<path style="fill:none;stroke:red;stroke-width:1px;stroke-linecap:butt;stroke-linejoin:miter;stroke-opacity:1" d="M 670.728,152.881 677.201,169.064 z" id="boundary" inkscape:connector-curvature="0" />
	<path style="fill:none;stroke:red;stroke-width:1px;stroke-linecap:butt;stroke-linejoin:miter;stroke-opacity:1" d="M 567.158,217.612 552.594,225.703 z" id="boundary" inkscape:connector-curvature="0" />
	<path style="fill:none;stroke:red;stroke-width:1px;stroke-linecap:butt;stroke-linejoin:miter;stroke-opacity:1" d="M 835.791,16.9462 840.646,33.1289 z" id="boundary" inkscape:connector-curvature="0" />
	<path style="fill:none;stroke:red;stroke-width:1px;stroke-linecap:butt;stroke-linejoin:miter;stroke-opacity:1" d="M 840.646,33.1289 856.829,39.602 z" id="boundary" inkscape:connector-curvature="0" />
	<path style="fill:none;stroke:red;stroke-width:1px;stroke-linecap:butt;stroke-linejoin:miter;stroke-opacity:1" d="M 869.775,49.3116 856.829,39.602 z" id="boundary" inkscape:connector-curvature="0" />
	<path style="fill:none;stroke:red;stroke-width:1px;stroke-linecap:butt;stroke-linejoin:miter;stroke-opacity:1" d="M 869.775,49.3116 879.485,62.2577 z" id="boundary" inkscape:connector-curvature="0" />
	<path style="fill:none;stroke:red;stroke-width:1px;stroke-linecap:butt;stroke-linejoin:miter;stroke-opacity:1" d="M 835.791,16.9462 826.082,4 z" id="boundary" inkscape:connector-curvature="0" />
	<path style="fill:none;stroke:red;stroke-width:1px;stroke-linecap:butt;stroke-linejoin:miter;stroke-opacity:1" d="M 809.899,10.4731 826.082,4 z" id="boundary" inkscape:connector-curvature="0" />
	<path style="fill:none;stroke:red;stroke-width:1px;stroke-linecap:butt;stroke-linejoin:miter;stroke-opacity:1" d="M 879.485,62.2577 895.667,65.4943 z" id="boundary" inkscape:connector-curvature="0" />
	<path style="fill:none;stroke:red;stroke-width:1px;stroke-linecap:butt;stroke-linejoin:miter;stroke-opacity:1" d="M 895.667,65.4943 911.85,71.9674 z" id="boundary" inkscape:connector-curvature="0" />
	<path style="fill:none;stroke:red;stroke-width:1px;stroke-linecap:butt;stroke-linejoin:miter;stroke-opacity:1" d="M 928.033,75.2039 911.85,71.9674 z" id="boundary" inkscape:connector-curvature="0" />
	<path style="fill:none;stroke:red;stroke-width:1px;stroke-linecap:butt;stroke-linejoin:miter;stroke-opacity:1" d="M 944.215,81.677 928.033,75.2039 z" id="boundary" inkscape:connector-curvature="0" />
	<path style="fill:none;stroke:red;stroke-width:1px;stroke-linecap:butt;stroke-linejoin:miter;stroke-opacity:1" d="M 960.398,88.1501 944.215,81.677 z" id="boundary" inkscape:connector-curvature="0" />
	<path style="fill:none;stroke:red;stroke-width:1px;stroke-linecap:butt;stroke-linejoin:miter;stroke-opacity:1" d="M 960.398,88.1501 971.726,101.096 z" id="boundary" inkscape:connector-curvature="0" />
	<path style="fill:none;stroke:red;stroke-width:1px;stroke-linecap:butt;stroke-linejoin:miter;stroke-opacity:1" d="M 992.763,146.408 989.527,172.3 z" id="boundary" inkscape:connector-curvature="0" />
	<path style="fill:none;stroke:red;stroke-width:1px;stroke-linecap:butt;stroke-linejoin:miter;stroke-opacity:1" d="M 986.29,109.188 971.726,101.096 z" id="boundary" inkscape:connector-curvature="0" />
	<path style="fill:none;stroke:red;stroke-width:1px;stroke-linecap:butt;stroke-linejoin:miter;stroke-opacity:1" d="M 989.527,172.3 989.527,188.483 z" id="boundary" inkscape:connector-curvature="0" />
	<path style="fill:none;stroke:red;stroke-width:1px;stroke-linecap:butt;stroke-linejoin:miter;stroke-opacity:1" d="M 989.527,188.483 989.527,204.666 z" id="boundary" inkscape:connector-curvature="0" />
	<path style="fill:none;stroke:red;stroke-width:1px;stroke-linecap:butt;stroke-linejoin:miter;stroke-opacity:1" d="M 989.527,220.848 989.527,204.666 z" id="boundary" inkscape:connector-curvature="0" />
	<path style="fill:none;stroke:red;stroke-width:1px;stroke-linecap:butt;stroke-linejoin:miter;stroke-opacity:1" d="M 989.527,220.848 989.527,237.031 z" id="boundary" inkscape:connector-curvature="0" />
	<path style="fill:none;stroke:red;stroke-width:1px;stroke-linecap:butt;stroke-linejoin:miter;stroke-opacity:1" d="M 992.763,146.408 996,122.134 z" id="boundary" inkscape:connector-curvature="0" />
	<path style="fill:none;stroke:red;stroke-width:1px;stroke-linecap:butt;stroke-linejoin:miter;stroke-opacity:1" d="M 986.29,109.188 996,122.134 z" id="boundary" inkscape:connector-curvature="0" />
	<path style="fill:none;stroke:red;stroke-width:1px;stroke-linecap:butt;stroke-linejoin:miter;stroke-opacity:1" d="M 992.763,285.579 989.527,269.396 z" id="boundary" inkscape:connector-curvature="0" />
	<path style="fill:none;stroke:red;stroke-width:1px;stroke-linecap:butt;stroke-linejoin:miter;stroke-opacity:1" d="M 989.527,269.396 989.527,253.214 z" id="boundary" inkscape:connector-curvature="0" />
	<path style="fill:none;stroke:red;stroke-width:1px;stroke-linecap:butt;stroke-linejoin:miter;stroke-opacity:1" d="M 989.527,253.214 989.527,237.031 z" id="boundary" inkscape:connector-curvature="0" />
	<path style="fill:none;stroke:red;stroke-width:1px;stroke-linecap:butt;stroke-linejoin:miter;stroke-opacity:1" d="M 992.763,285.579 992.763,301.762 z" id="boundary" inkscape:connector-curvature="0" />
	<path style="fill:none;stroke:red;stroke-width:1px;stroke-linecap:butt;stroke-linejoin:miter;stroke-opacity:1" d="M 552.594,436.078 568.777,436.078 z" id="boundary" inkscape:connector-curvature="0" />
	<path style="fill:none;stroke:red;stroke-width:1px;stroke-linecap:butt;stroke-linejoin:miter;stroke-opacity:1" d="M 584.959,436.078 601.142,436.078 z" id="boundary" inkscape:connector-curvature="0" />
	<path style="fill:none;stroke:red;stroke-width:1px;stroke-linecap:butt;stroke-linejoin:miter;stroke-opacity:1" d="M 617.325,436.078 601.142,436.078 z" id="boundary" inkscape:connector-curvature="0" />
	<path style="fill:none;stroke:red;stroke-width:1px;stroke-linecap:butt;stroke-linejoin:miter;stroke-opacity:1" d="M 584.959,436.078 568.777,436.078 z" id="boundary" inkscape:connector-curvature="0" />
	<path style="fill:none;stroke:red;stroke-width:1px;stroke-linecap:butt;stroke-linejoin:miter;stroke-opacity:1" d="M 633.507,436.078 649.69,436.078 z" id="boundary" inkscape:connector-curvature="0" />
	<path style="fill:none;stroke:red;stroke-width:1px;stroke-linecap:butt;stroke-linejoin:miter;stroke-opacity:1" d="M 701.475,436.078 685.292,440.933 z" id="boundary" inkscape:connector-curvature="0" />
	<path style="fill:none;stroke:red;stroke-width:1px;stroke-linecap:butt;stroke-linejoin:miter;stroke-opacity:1" d="M 717.657,436.078 733.84,436.078 z" id="boundary" inkscape:connector-curvature="0" />
	<path style="fill:none;stroke:red;stroke-width:1px;stroke-linecap:butt;stroke-linejoin:miter;stroke-opacity:1" d="M 733.84,436.078 680.437,489.481 z" id="boundary" inkscape:connector-curvature="0" />
	<path style="fill:none;stroke:red;stroke-width:1px;stroke-linecap:butt;stroke-linejoin:miter;stroke-opacity:1" d="M 750.023,436.078 733.84,436.078 z" id="boundary" inkscape:connector-curvature="0" />
	<path style="fill:none;stroke:red;stroke-width:1px;stroke-linecap:butt;stroke-linejoin:miter;stroke-opacity:1" d="M 717.657,436.078 701.475,436.078 z" id="boundary" inkscape:connector-curvature="0" />
	<path style="fill:none;stroke:red;stroke-width:1px;stroke-linecap:butt;stroke-linejoin:miter;stroke-opacity:1" d="M 633.507,436.078 617.325,436.078 z" id="boundary" inkscape:connector-curvature="0" />
	<path style="fill:none;stroke:red;stroke-width:1px;stroke-linecap:butt;stroke-linejoin:miter;stroke-opacity:1" d="M 680.437,458.734 664.254,463.589 z" id="boundary" inkscape:connector-curvature="0" />
	<path style="fill:none;stroke:red;stroke-width:1px;stroke-linecap:butt;stroke-linejoin:miter;stroke-opacity:1" d="M 664.254,463.589 664.254,447.406 z" id="boundary" inkscape:connector-curvature="0" />
	<path style="fill:none;stroke:red;stroke-width:1px;stroke-linecap:butt;stroke-linejoin:miter;stroke-opacity:1" d="M 685.292,440.933 680.437,458.734 z" id="boundary" inkscape:connector-curvature="0" />
	<path style="fill:none;stroke:red;stroke-width:1px;stroke-linecap:butt;stroke-linejoin:miter;stroke-opacity:1" d="M 667.491,479.772 664.254,463.589 z" id="boundary" inkscape:connector-curvature="0" />
	<path style="fill:none;stroke:red;stroke-width:1px;stroke-linecap:butt;stroke-linejoin:miter;stroke-opacity:1" d="M 649.69,436.078 664.254,447.406 z" id="boundary" inkscape:connector-curvature="0" />
	<path style="fill:none;stroke:red;stroke-width:1px;stroke-linecap:butt;stroke-linejoin:miter;stroke-opacity:1" d="M 664.254,495.954 667.491,479.772 z" id="boundary" inkscape:connector-curvature="0" />
	<path style="fill:none;stroke:red;stroke-width:1px;stroke-linecap:butt;stroke-linejoin:miter;stroke-opacity:1" d="M 667.491,479.772 680.437,489.481 z" id="boundary" inkscape:connector-curvature="0" />
	<path style="fill:none;stroke:red;stroke-width:1px;stroke-linecap:butt;stroke-linejoin:miter;stroke-opacity:1" d="M 766.206,436.078 782.388,436.078 z" id="boundary" inkscape:connector-curvature="0" />
	<path style="fill:none;stroke:red;stroke-width:1px;stroke-linecap:butt;stroke-linejoin:miter;stroke-opacity:1" d="M 798.571,436.078 782.388,436.078 z" id="boundary" inkscape:connector-curvature="0" />
	<path style="fill:none;stroke:red;stroke-width:1px;stroke-linecap:butt;stroke-linejoin:miter;stroke-opacity:1" d="M 814.754,436.078 830.936,436.078 z" id="boundary" inkscape:connector-curvature="0" />
	<path style="fill:none;stroke:red;stroke-width:1px;stroke-linecap:butt;stroke-linejoin:miter;stroke-opacity:1" d="M 798.571,436.078 814.754,436.078 z" id="boundary" inkscape:connector-curvature="0" />
	<path style="fill:none;stroke:red;stroke-width:1px;stroke-linecap:butt;stroke-linejoin:miter;stroke-opacity:1" d="M 750.023,436.078 766.206,436.078 z" id="boundary" inkscape:connector-curvature="0" />
	<path style="fill:none;stroke:red;stroke-width:1px;stroke-linecap:butt;stroke-linejoin:miter;stroke-opacity:1" d="M 895.667,436.078 879.485,436.078 z" id="boundary" inkscape:connector-curvature="0" />
	<path style="fill:none;stroke:red;stroke-width:1px;stroke-linecap:butt;stroke-linejoin:miter;stroke-opacity:1" d="M 996,317.945 992.763,301.762 z" id="boundary" inkscape:connector-curvature="0" />
	<path style="fill:none;stroke:red;stroke-width:1px;stroke-linecap:butt;stroke-linejoin:miter;stroke-opacity:1" d="M 847.119,436.078 863.302,436.078 z" id="boundary" inkscape:connector-curvature="0" />
	<path style="fill:none;stroke:red;stroke-width:1px;stroke-linecap:butt;stroke-linejoin:miter;stroke-opacity:1" d="M 879.485,436.078 863.302,436.078 z" id="boundary" inkscape:connector-curvature="0" />
	<path style="fill:none;stroke:red;stroke-width:1px;stroke-linecap:butt;stroke-linejoin:miter;stroke-opacity:1" d="M 996,317.945 996,334.127 z" id="boundary" inkscape:connector-curvature="0" />
	<path style="fill:none;stroke:red;stroke-width:1px;stroke-linecap:butt;stroke-linejoin:miter;stroke-opacity:1" d="M 847.119,436.078 830.936,436.078 z" id="boundary" inkscape:connector-curvature="0" />
	<path style="fill:none;stroke:red;stroke-width:1px;stroke-linecap:butt;stroke-linejoin:miter;stroke-opacity:1" d="M 996,334.127 996,350.31 z" id="boundary" inkscape:connector-curvature="0" />
	<path style="fill:none;stroke:red;stroke-width:1px;stroke-linecap:butt;stroke-linejoin:miter;stroke-opacity:1" d="M 996,366.493 996,382.675 z" id="boundary" inkscape:connector-curvature="0" />
	<path style="fill:none;stroke:red;stroke-width:1px;stroke-linecap:butt;stroke-linejoin:miter;stroke-opacity:1" d="M 996,382.675 996,398.858 z" id="boundary" inkscape:connector-curvature="0" />
	<path style="fill:none;stroke:red;stroke-width:1px;stroke-linecap:butt;stroke-linejoin:miter;stroke-opacity:1" d="M 996,350.31 996,366.493 z" id="boundary" inkscape:connector-curvature="0" />
	<path style="fill:none;stroke:red;stroke-width:1px;stroke-linecap:butt;stroke-linejoin:miter;stroke-opacity:1" d="M 996,398.858 996,415.041 z" id="boundary" inkscape:connector-curvature="0" />
	<path style="fill:none;stroke:red;stroke-width:1px;stroke-linecap:butt;stroke-linejoin:miter;stroke-opacity:1" d="M 895.667,436.078 911.85,436.078 z" id="boundary" inkscape:connector-curvature="0" />
	<path style="fill:none;stroke:red;stroke-width:1px;stroke-linecap:butt;stroke-linejoin:miter;stroke-opacity:1" d="M 928.033,436.078 911.85,436.078 z" id="boundary" inkscape:connector-curvature="0" />
	<path style="fill:none;stroke:red;stroke-width:1px;stroke-linecap:butt;stroke-linejoin:miter;stroke-opacity:1" d="M 944.215,436.078 960.398,436.078 z" id="boundary" inkscape:connector-curvature="0" />
	<path style="fill:none;stroke:red;stroke-width:1px;stroke-linecap:butt;stroke-linejoin:miter;stroke-opacity:1" d="M 960.398,436.078 971.726,449.024 z" id="boundary" inkscape:connector-curvature="0" />
	<path style="fill:none;stroke:red;stroke-width:1px;stroke-linecap:butt;stroke-linejoin:miter;stroke-opacity:1" d="M 992.763,440.933 971.726,449.024 z" id="boundary" inkscape:connector-curvature="0" />
	<path style="fill:none;stroke:red;stroke-width:1px;stroke-linecap:butt;stroke-linejoin:miter;stroke-opacity:1" d="M 928.033,436.078 944.215,436.078 z" id="boundary" inkscape:connector-curvature="0" />
	<path style="fill:none;stroke:red;stroke-width:1px;stroke-linecap:butt;stroke-linejoin:miter;stroke-opacity:1" d="M 971.726,449.024 971.726,465.207 z" id="boundary" inkscape:connector-curvature="0" />
	<path style="fill:none;stroke:red;stroke-width:1px;stroke-linecap:butt;stroke-linejoin:miter;stroke-opacity:1" d="M 989.527,463.589 971.726,465.207 z" id="boundary" inkscape:connector-curvature="0" />
	<path style="fill:none;stroke:red;stroke-width:1px;stroke-linecap:butt;stroke-linejoin:miter;stroke-opacity:1" d="M 992.763,440.933 989.527,463.589 z" id="boundary" inkscape:connector-curvature="0" />
	<path style="fill:none;stroke:red;stroke-width:1px;stroke-linecap:butt;stroke-linejoin:miter;stroke-opacity:1" d="M 974.962,481.39 971.726,465.207 z" id="boundary" inkscape:connector-curvature="0" />
	<path style="fill:none;stroke:red;stroke-width:1px;stroke-linecap:butt;stroke-linejoin:miter;stroke-opacity:1" d="M 974.962,481.39 989.527,489.481 z" id="boundary" inkscape:connector-curvature="0" />
	<path style="fill:none;stroke:red;stroke-width:1px;stroke-linecap:butt;stroke-linejoin:miter;stroke-opacity:1" d="M 974.962,497.573 974.962,481.39 z" id="boundary" inkscape:connector-curvature="0" />
	<path style="fill:none;stroke:red;stroke-width:1px;stroke-linecap:butt;stroke-linejoin:miter;stroke-opacity:1" d="M 992.763,440.933 996,415.041 z" id="boundary" inkscape:connector-curvature="0" />
	<path style="fill:none;stroke:red;stroke-width:1px;stroke-linecap:butt;stroke-linejoin:miter;stroke-opacity:1" d="M 974.962,497.573 366.493,504.046 z" id="boundary" inkscape:connector-curvature="0" />
	<circle cx="4" cy="321.181" r="4" fill="#0" id="circle0"/>
	<circle cx="8.85481" cy="337.364" r="4" fill="#0" id="circle1"/>
	<circle cx="10.4731" cy="460.352" r="4" fill="#0" id="circle2"/>
	<circle cx="10.4731" cy="499.191" r="4" fill="#0" id="circle3"/>
	<circle cx="12.0914" cy="306.617" r="4" fill="#0" id="circle4"/>
	<circle cx="12.0914" cy="476.535" r="4" fill="#0" id="circle5"/>
	<circle cx="16.9462" cy="351.928" r="4" fill="#0" id="circle6"/>
	<circle cx="16.9462" cy="368.111" r="4" fill="#0" id="circle7"/>
	<circle cx="16.9462" cy="384.294" r="4" fill="#0" id="circle8"/>
	<circle cx="16.9462" cy="437.697" r="4" fill="#0" id="circle9"/>
	<circle cx="23.4192" cy="400.476" r="4" fill="#0" id="circle10"/>
	<circle cx="23.4192" cy="416.659" r="4" fill="#0" id="circle11"/>
	<circle cx="25.0375" cy="293.67" r="4" fill="#0" id="circle12"/>
	<circle cx="26.6558" cy="465.207" r="4" fill="#0" id="circle13"/>
	<circle cx="26.6558" cy="500.809" r="4" fill="#0" id="circle14"/>
	<circle cx="28.2741" cy="481.39" r="4" fill="#0" id="circle15"/>
	<circle cx="31.5106" cy="445.788" r="4" fill="#0" id="circle16"/>
	<circle cx="39.602" cy="285.579" r="4" fill="#0" id="circle17"/>
	<circle cx="47.6933" cy="442.551" r="4" fill="#0" id="circle18"/>
	<circle cx="55.7847" cy="279.106" r="4" fill="#0" id="circle19"/>
	<circle cx="63.876" cy="449.024" r="4" fill="#0" id="circle20"/>
	<circle cx="71.9674" cy="275.869" r="4" fill="#0" id="circle21"/>
	<circle cx="78.4405" cy="457.116" r="4" fill="#0" id="circle22"/>
	<circle cx="88.1501" cy="269.396" r="4" fill="#0" id="circle23"/>
	<circle cx="91.3866" cy="445.788" r="4" fill="#0" id="circle24"/>
	<circle cx="104.333" cy="266.16" r="4" fill="#0" id="circle25"/>
	<circle cx="107.569" cy="439.315" r="4" fill="#0" id="circle26"/>
	<circle cx="120.515" cy="262.923" r="4" fill="#0" id="circle27"/>
	<circle cx="123.752" cy="444.17" r="4" fill="#0" id="circle28"/>
	<circle cx="136.698" cy="262.923" r="4" fill="#0" id="circle29"/>
	<circle cx="138.316" cy="452.261" r="4" fill="#0" id="circle30"/>
	<circle cx="146.408" cy="249.977" r="4" fill="#0" id="circle31"/>
	<circle cx="151.263" cy="461.971" r="4" fill="#0" id="circle32"/>
	<circle cx="160.972" cy="241.886" r="4" fill="#0" id="circle33"/>
	<circle cx="167.445" cy="468.444" r="4" fill="#0" id="circle34"/>
	<circle cx="173.918" cy="232.176" r="4" fill="#0" id="circle35"/>
	<circle cx="183.628" cy="474.917" r="4" fill="#0" id="circle36"/>
	<circle cx="186.865" cy="220.848" r="4" fill="#0" id="circle37"/>
	<circle cx="199.811" cy="473.299" r="4" fill="#0" id="circle38"/>
	<circle cx="203.047" cy="224.085" r="4" fill="#0" id="circle39"/>
	<circle cx="215.993" cy="233.794" r="4" fill="#0" id="circle40"/>
	<circle cx="215.993" cy="468.444" r="4" fill="#0" id="circle41"/>
	<circle cx="228.94" cy="243.504" r="4" fill="#0" id="circle42"/>
	<circle cx="232.176" cy="460.352" r="4" fill="#0" id="circle43"/>
	<circle cx="241.886" cy="253.214" r="4" fill="#0" id="circle44"/>
	<circle cx="246.741" cy="452.261" r="4" fill="#0" id="circle45"/>
	<circle cx="254.832" cy="262.923" r="4" fill="#0" id="circle46"/>
	<circle cx="259.687" cy="442.551" r="4" fill="#0" id="circle47"/>
	<circle cx="271.015" cy="262.923" r="4" fill="#0" id="circle48"/>
	<circle cx="275.869" cy="439.315" r="4" fill="#0" id="circle49"/>
	<circle cx="287.197" cy="266.16" r="4" fill="#0" id="circle50"/>
	<circle cx="290.434" cy="447.406" r="4" fill="#0" id="circle51"/>
	<circle cx="303.38" cy="269.396" r="4" fill="#0" id="circle52"/>
	<circle cx="303.38" cy="457.116" r="4" fill="#0" id="circle53"/>
	<circle cx="316.326" cy="447.406" r="4" fill="#0" id="circle54"/>
	<circle cx="319.563" cy="275.869" r="4" fill="#0" id="circle55"/>
	<circle cx="332.509" cy="442.551" r="4" fill="#0" id="circle56"/>
	<circle cx="335.746" cy="279.106" r="4" fill="#0" id="circle57"/>
	<circle cx="348.692" cy="442.551" r="4" fill="#0" id="circle58"/>
	<circle cx="351.928" cy="285.579" r="4" fill="#0" id="circle59"/>
	<circle cx="353.546" cy="458.734" r="4" fill="#0" id="circle60"/>
	<circle cx="353.546" cy="474.917" r="4" fill="#0" id="circle61"/>
	<circle cx="356.783" cy="491.1" r="4" fill="#0" id="circle62"/>
	<circle cx="364.874" cy="295.289" r="4" fill="#0" id="circle63"/>
	<circle cx="366.493" cy="504.046" r="4" fill="#0" id="circle64"/>
	<circle cx="371.347" cy="479.772" r="4" fill="#0" id="circle65"/>
	<circle cx="374.584" cy="437.697" r="4" fill="#0" id="circle66"/>
	<circle cx="374.584" cy="453.879" r="4" fill="#0" id="circle67"/>
	<circle cx="381.057" cy="295.289" r="4" fill="#0" id="circle68"/>
	<circle cx="390.767" cy="436.078" r="4" fill="#0" id="circle69"/>
	<circle cx="397.24" cy="295.289" r="4" fill="#0" id="circle70"/>
	<circle cx="406.949" cy="436.078" r="4" fill="#0" id="circle71"/>
	<circle cx="413.423" cy="295.289" r="4" fill="#0" id="circle72"/>
	<circle cx="423.132" cy="436.078" r="4" fill="#0" id="circle73"/>
	<circle cx="429.605" cy="295.289" r="4" fill="#0" id="circle74"/>
	<circle cx="439.315" cy="436.078" r="4" fill="#0" id="circle75"/>
	<circle cx="445.788" cy="295.289" r="4" fill="#0" id="circle76"/>
	<circle cx="455.498" cy="436.078" r="4" fill="#0" id="circle77"/>
	<circle cx="461.971" cy="295.289" r="4" fill="#0" id="circle78"/>
	<circle cx="471.68" cy="436.078" r="4" fill="#0" id="circle79"/>
	<circle cx="478.153" cy="293.67" r="4" fill="#0" id="circle80"/>
	<circle cx="487.863" cy="436.078" r="4" fill="#0" id="circle81"/>
	<circle cx="492.718" cy="285.579" r="4" fill="#0" id="circle82"/>
	<circle cx="500.809" cy="271.015" r="4" fill="#0" id="circle83"/>
	<circle cx="504.046" cy="436.078" r="4" fill="#0" id="circle84"/>
	<circle cx="513.755" cy="259.687" r="4" fill="#0" id="circle85"/>
	<circle cx="520.228" cy="436.078" r="4" fill="#0" id="circle86"/>
	<circle cx="526.701" cy="248.359" r="4" fill="#0" id="circle87"/>
	<circle cx="536.411" cy="436.078" r="4" fill="#0" id="circle88"/>
	<circle cx="539.648" cy="235.413" r="4" fill="#0" id="circle89"/>
	<circle cx="552.594" cy="225.703" r="4" fill="#0" id="circle90"/>
	<circle cx="552.594" cy="436.078" r="4" fill="#0" id="circle91"/>
	<circle cx="567.158" cy="217.612" r="4" fill="#0" id="circle92"/>
	<circle cx="568.777" cy="436.078" r="4" fill="#0" id="circle93"/>
	<circle cx="583.341" cy="211.139" r="4" fill="#0" id="circle94"/>
	<circle cx="584.959" cy="436.078" r="4" fill="#0" id="circle95"/>
	<circle cx="599.524" cy="207.902" r="4" fill="#0" id="circle96"/>
	<circle cx="601.142" cy="436.078" r="4" fill="#0" id="circle97"/>
	<circle cx="615.706" cy="204.666" r="4" fill="#0" id="circle98"/>
	<circle cx="617.325" cy="436.078" r="4" fill="#0" id="circle99"/>
	<circle cx="631.889" cy="204.666" r="4" fill="#0" id="circle100"/>
	<circle cx="633.507" cy="436.078" r="4" fill="#0" id="circle101"/>
	<circle cx="648.072" cy="204.666" r="4" fill="#0" id="circle102"/>
	<circle cx="649.69" cy="436.078" r="4" fill="#0" id="circle103"/>
	<circle cx="661.018" cy="191.719" r="4" fill="#0" id="circle104"/>
	<circle cx="664.254" cy="120.515" r="4" fill="#0" id="circle105"/>
	<circle cx="664.254" cy="136.698" r="4" fill="#0" id="circle106"/>
	<circle cx="664.254" cy="447.406" r="4" fill="#0" id="circle107"/>
	<circle cx="664.254" cy="463.589" r="4" fill="#0" id="circle108"/>
	<circle cx="664.254" cy="495.954" r="4" fill="#0" id="circle109"/>
	<circle cx="667.491" cy="479.772" r="4" fill="#0" id="circle110"/>
	<circle cx="670.728" cy="152.881" r="4" fill="#0" id="circle111"/>
	<circle cx="677.201" cy="107.569" r="4" fill="#0" id="circle112"/>
	<circle cx="677.201" cy="169.064" r="4" fill="#0" id="circle113"/>
	<circle cx="677.201" cy="185.246" r="4" fill="#0" id="circle114"/>
	<circle cx="680.437" cy="458.734" r="4" fill="#0" id="circle115"/>
	<circle cx="680.437" cy="489.481" r="4" fill="#0" id="circle116"/>
	<circle cx="685.292" cy="440.933" r="4" fill="#0" id="circle117"/>
	<circle cx="690.147" cy="97.8597" r="4" fill="#0" id="circle118"/>
	<circle cx="701.475" cy="436.078" r="4" fill="#0" id="circle119"/>
	<circle cx="703.093" cy="88.1501" r="4" fill="#0" id="circle120"/>
	<circle cx="717.657" cy="436.078" r="4" fill="#0" id="circle121"/>
	<circle cx="719.276" cy="81.677" r="4" fill="#0" id="circle122"/>
	<circle cx="733.84" cy="436.078" r="4" fill="#0" id="circle123"/>
	<circle cx="735.458" cy="75.2039" r="4" fill="#0" id="circle124"/>
	<circle cx="750.023" cy="436.078" r="4" fill="#0" id="circle125"/>
	<circle cx="751.641" cy="68.7308" r="4" fill="#0" id="circle126"/>
	<circle cx="766.206" cy="436.078" r="4" fill="#0" id="circle127"/>
	<circle cx="767.824" cy="65.4943" r="4" fill="#0" id="circle128"/>
	<circle cx="774.297" cy="49.3116" r="4" fill="#0" id="circle129"/>
	<circle cx="782.388" cy="436.078" r="4" fill="#0" id="circle130"/>
	<circle cx="787.243" cy="39.602" r="4" fill="#0" id="circle131"/>
	<circle cx="798.571" cy="436.078" r="4" fill="#0" id="circle132"/>
	<circle cx="800.189" cy="26.6558" r="4" fill="#0" id="circle133"/>
	<circle cx="809.899" cy="10.4731" r="4" fill="#0" id="circle134"/>
	<circle cx="814.754" cy="436.078" r="4" fill="#0" id="circle135"/>
	<circle cx="826.082" cy="4" r="4" fill="#0" id="circle136"/>
	<circle cx="830.936" cy="436.078" r="4" fill="#0" id="circle137"/>
	<circle cx="835.791" cy="16.9462" r="4" fill="#0" id="circle138"/>
	<circle cx="840.646" cy="33.1289" r="4" fill="#0" id="circle139"/>
	<circle cx="847.119" cy="436.078" r="4" fill="#0" id="circle140"/>
	<circle cx="856.829" cy="39.602" r="4" fill="#0" id="circle141"/>
	<circle cx="863.302" cy="436.078" r="4" fill="#0" id="circle142"/>
	<circle cx="869.775" cy="49.3116" r="4" fill="#0" id="circle143"/>
	<circle cx="879.485" cy="62.2577" r="4" fill="#0" id="circle144"/>
	<circle cx="879.485" cy="436.078" r="4" fill="#0" id="circle145"/>
	<circle cx="895.667" cy="65.4943" r="4" fill="#0" id="circle146"/>
	<circle cx="895.667" cy="436.078" r="4" fill="#0" id="circle147"/>
	<circle cx="911.85" cy="71.9674" r="4" fill="#0" id="circle148"/>
	<circle cx="911.85" cy="436.078" r="4" fill="#0" id="circle149"/>
	<circle cx="928.033" cy="75.2039" r="4" fill="#0" id="circle150"/>
	<circle cx="928.033" cy="436.078" r="4" fill="#0" id="circle151"/>
	<circle cx="944.215" cy="81.677" r="4" fill="#0" id="circle152"/>
	<circle cx="944.215" cy="436.078" r="4" fill="#0" id="circle153"/>
	<circle cx="960.398" cy="88.1501" r="4" fill="#0" id="circle154"/>
	<circle cx="960.398" cy="436.078" r="4" fill="#0" id="circle155"/>
	<circle cx="971.726" cy="101.096" r="4" fill="#0" id="circle156"/>
	<circle cx="971.726" cy="449.024" r="4" fill="#0" id="circle157"/>
	<circle cx="971.726" cy="465.207" r="4" fill="#0" id="circle158"/>
	<circle cx="974.962" cy="481.39" r="4" fill="#0" id="circle159"/>
	<circle cx="974.962" cy="497.573" r="4" fill="#0" id="circle160"/>
	<circle cx="986.29" cy="109.188" r="4" fill="#0" id="circle161"/>
	<circle cx="989.527" cy="172.3" r="4" fill="#0" id="circle162"/>
	<circle cx="989.527" cy="188.483" r="4" fill="#0" id="circle163"/>
	<circle cx="989.527" cy="204.666" r="4" fill="#0" id="circle164"/>
	<circle cx="989.527" cy="220.848" r="4" fill="#0" id="circle165"/>
	<circle cx="989.527" cy="237.031" r="4" fill="#0" id="circle166"/>
	<circle cx="989.527" cy="253.214" r="4" fill="#0" id="circle167"/>
	<circle cx="989.527" cy="269.396" r="4" fill="#0" id="circle168"/>
	<circle cx="989.527" cy="463.589" r="4" fill="#0" id="circle169"/>
	<circle cx="989.527" cy="489.481" r="4" fill="#0" id="circle170"/>
	<circle cx="992.763" cy="146.408" r="4" fill="#0" id="circle171"/>
	<circle cx="992.763" cy="285.579" r="4" fill="#0" id="circle172"/>
	<circle cx="992.763" cy="301.762" r="4" fill="#0" id="circle173"/>
	<circle cx="992.763" cy="440.933" r="4" fill="#0" id="circle174"/>
	<circle cx="996" cy="122.134" r="4" fill="#0" id="circle175"/>
	<circle cx="996" cy="317.945" r="4" fill="#0" id="circle176"/>
	<circle cx="996" cy="334.127" r="4" fill="#0" id="circle177"/>
	<circle cx="996" cy="350.31" r="4" fill="#0" id="circle178"/>
	<circle cx="996" cy="366.493" r="4" fill="#0" id="circle179"/>
	<circle cx="996" cy="382.675" r="4" fill="#0" id="circle180"/>
	<circle cx="996" cy="398.858" r="4" fill="#0" id="circle181"/>
	<circle cx="996" cy="415.041" r="4" fill="#0" id="circle182"/>
	</g>
</svg>