<?xml version="1.0" encoding="UTF-8" standalone="no"?>
<!-- Created with CurveBenchmark -->
<svg
	xmlns:dc="http://purl.org/dc/elements/1.1/"
	xmlns:cc="http://creativecommons.org/ns#"
	xmlns:rdf="http://www.w3.org/1999/02/22-rdf-syntax-ns#"
	xmlns:svg="http://www.w3.org/2000/svg"
	xmlns="http://www.w3.org/2000/svg"
	xmlns:sodipodi="http://sodipodi.sourceforge.net/DTD/sodipodi-0.dtd"
	xmlns:inkscape="http://www.inkscape.org/namespaces/inkscape"
	width="1000"
	height="1000"
	id="svg2"
	version="1.1"
	sodipodi:docname="manifold/nncrust-dino05.png.txt">
<defs
	id="defs4" />
<metadata
	id="metadata7">
	<rdf:RDF>
		<cc:Work
			rdf:about="">
			<dc:format>image/svg+xml</dc:format>
			<dc:type
				rdf:resource="http://purl.org/dc/dcmitype/StillImage" />
			<dc:title></dc:title>
		</cc:Work>
	</rdf:RDF>
</metadata>
<g
	inkscape:label="Layer 1"
	inkscape:groupmode="layer"
	id="layer1">
	<path style="fill:none;stroke:red;stroke-width:1px;stroke-linecap:butt;stroke-linejoin:miter;stroke-opacity:1" d="M 15.9338,86.0451 27.8677,74.1113 z" id="boundary" inkscape:connector-curvature="0" />
	<path style="fill:none;stroke:red;stroke-width:1px;stroke-linecap:butt;stroke-linejoin:miter;stroke-opacity:1" d="M 59.194,132.289 44.2767,132.289 z" id="boundary" inkscape:connector-curvature="0" />
	<path style="fill:none;stroke:red;stroke-width:1px;stroke-linecap:butt;stroke-linejoin:miter;stroke-opacity:1" d="M 53.2271,56.2105 39.8015,63.6692 z" id="boundary" inkscape:connector-curvature="0" />
	<path style="fill:none;stroke:red;stroke-width:1px;stroke-linecap:butt;stroke-linejoin:miter;stroke-opacity:1" d="M 27.8677,74.1113 39.8015,63.6692 z" id="boundary" inkscape:connector-curvature="0" />
	<path style="fill:none;stroke:red;stroke-width:1px;stroke-linecap:butt;stroke-linejoin:miter;stroke-opacity:1" d="M 4,112.896 4,97.9789 z" id="boundary" inkscape:connector-curvature="0" />
	<path style="fill:none;stroke:red;stroke-width:1px;stroke-linecap:butt;stroke-linejoin:miter;stroke-opacity:1" d="M 15.9338,123.338 4,112.896 z" id="boundary" inkscape:connector-curvature="0" />
	<path style="fill:none;stroke:red;stroke-width:1px;stroke-linecap:butt;stroke-linejoin:miter;stroke-opacity:1" d="M 4,97.9789 15.9338,86.0451 z" id="boundary" inkscape:connector-curvature="0" />
	<path style="fill:none;stroke:red;stroke-width:1px;stroke-linecap:butt;stroke-linejoin:miter;stroke-opacity:1" d="M 29.3594,130.797 15.9338,123.338 z" id="boundary" inkscape:connector-curvature="0" />
	<path style="fill:none;stroke:red;stroke-width:1px;stroke-linecap:butt;stroke-linejoin:miter;stroke-opacity:1" d="M 29.3594,130.797 44.2767,132.289 z" id="boundary" inkscape:connector-curvature="0" />
	<path style="fill:none;stroke:red;stroke-width:1px;stroke-linecap:butt;stroke-linejoin:miter;stroke-opacity:1" d="M 78.5865,38.3098 90.5203,26.3759 z" id="boundary" inkscape:connector-curvature="0" />
	<path style="fill:none;stroke:red;stroke-width:1px;stroke-linecap:butt;stroke-linejoin:miter;stroke-opacity:1" d="M 78.5865,38.3098 66.6526,48.7519 z" id="boundary" inkscape:connector-curvature="0" />
	<path style="fill:none;stroke:red;stroke-width:1px;stroke-linecap:butt;stroke-linejoin:miter;stroke-opacity:1" d="M 66.6526,48.7519 53.2271,56.2105 z" id="boundary" inkscape:connector-curvature="0" />
	<path style="fill:none;stroke:red;stroke-width:1px;stroke-linecap:butt;stroke-linejoin:miter;stroke-opacity:1" d="M 132.289,127.814 117.371,124.83 z" id="boundary" inkscape:connector-curvature="0" />
	<path style="fill:none;stroke:red;stroke-width:1px;stroke-linecap:butt;stroke-linejoin:miter;stroke-opacity:1" d="M 115.88,8.47519 103.946,18.9173 z" id="boundary" inkscape:connector-curvature="0" />
	<path style="fill:none;stroke:red;stroke-width:1px;stroke-linecap:butt;stroke-linejoin:miter;stroke-opacity:1" d="M 103.946,18.9173 90.5203,26.3759 z" id="boundary" inkscape:connector-curvature="0" />
	<path style="fill:none;stroke:red;stroke-width:1px;stroke-linecap:butt;stroke-linejoin:miter;stroke-opacity:1" d="M 87.5368,124.83 74.1113,132.289 z" id="boundary" inkscape:connector-curvature="0" />
	<path style="fill:none;stroke:red;stroke-width:1px;stroke-linecap:butt;stroke-linejoin:miter;stroke-opacity:1" d="M 74.1113,132.289 59.194,132.289 z" id="boundary" inkscape:connector-curvature="0" />
	<path style="fill:none;stroke:red;stroke-width:1px;stroke-linecap:butt;stroke-linejoin:miter;stroke-opacity:1" d="M 102.454,124.83 87.5368,124.83 z" id="boundary" inkscape:connector-curvature="0" />
	<path style="fill:none;stroke:red;stroke-width:1px;stroke-linecap:butt;stroke-linejoin:miter;stroke-opacity:1" d="M 117.371,124.83 102.454,124.83 z" id="boundary" inkscape:connector-curvature="0" />
	<path style="fill:none;stroke:red;stroke-width:1px;stroke-linecap:butt;stroke-linejoin:miter;stroke-opacity:1" d="M 115.88,8.47519 130.797,4 z" id="boundary" inkscape:connector-curvature="0" />
	<path style="fill:none;stroke:red;stroke-width:1px;stroke-linecap:butt;stroke-linejoin:miter;stroke-opacity:1" d="M 78.5865,381.408 71.1278,396.325 z" id="boundary" inkscape:connector-curvature="0" />
	<path style="fill:none;stroke:red;stroke-width:1px;stroke-linecap:butt;stroke-linejoin:miter;stroke-opacity:1" d="M 86.0451,366.49 78.5865,381.408 z" id="boundary" inkscape:connector-curvature="0" />
	<path style="fill:none;stroke:red;stroke-width:1px;stroke-linecap:butt;stroke-linejoin:miter;stroke-opacity:1" d="M 115.88,306.821 108.421,329.197 z" id="boundary" inkscape:connector-curvature="0" />
	<path style="fill:none;stroke:red;stroke-width:1px;stroke-linecap:butt;stroke-linejoin:miter;stroke-opacity:1" d="M 71.1278,411.242 71.1278,396.325 z" id="boundary" inkscape:connector-curvature="0" />
	<path style="fill:none;stroke:red;stroke-width:1px;stroke-linecap:butt;stroke-linejoin:miter;stroke-opacity:1" d="M 71.1278,411.242 71.1278,426.159 z" id="boundary" inkscape:connector-curvature="0" />
	<path style="fill:none;stroke:red;stroke-width:1px;stroke-linecap:butt;stroke-linejoin:miter;stroke-opacity:1" d="M 71.1278,441.077 78.5865,454.502 z" id="boundary" inkscape:connector-curvature="0" />
	<path style="fill:none;stroke:red;stroke-width:1px;stroke-linecap:butt;stroke-linejoin:miter;stroke-opacity:1" d="M 78.5865,454.502 78.5865,469.42 z" id="boundary" inkscape:connector-curvature="0" />
	<path style="fill:none;stroke:red;stroke-width:1px;stroke-linecap:butt;stroke-linejoin:miter;stroke-opacity:1" d="M 71.1278,441.077 71.1278,426.159 z" id="boundary" inkscape:connector-curvature="0" />
	<path style="fill:none;stroke:red;stroke-width:1px;stroke-linecap:butt;stroke-linejoin:miter;stroke-opacity:1" d="M 86.0451,482.845 78.5865,469.42 z" id="boundary" inkscape:connector-curvature="0" />
	<path style="fill:none;stroke:red;stroke-width:1px;stroke-linecap:butt;stroke-linejoin:miter;stroke-opacity:1" d="M 86.0451,366.49 97.9789,354.556 z" id="boundary" inkscape:connector-curvature="0" />
	<path style="fill:none;stroke:red;stroke-width:1px;stroke-linecap:butt;stroke-linejoin:miter;stroke-opacity:1" d="M 108.421,329.197 97.9789,354.556 z" id="boundary" inkscape:connector-curvature="0" />
	<path style="fill:none;stroke:red;stroke-width:1px;stroke-linecap:butt;stroke-linejoin:miter;stroke-opacity:1" d="M 86.0451,497.762 93.5038,511.188 z" id="boundary" inkscape:connector-curvature="0" />
	<path style="fill:none;stroke:red;stroke-width:1px;stroke-linecap:butt;stroke-linejoin:miter;stroke-opacity:1" d="M 93.5038,511.188 96.4872,526.105 z" id="boundary" inkscape:connector-curvature="0" />
	<path style="fill:none;stroke:red;stroke-width:1px;stroke-linecap:butt;stroke-linejoin:miter;stroke-opacity:1" d="M 86.0451,497.762 86.0451,482.845 z" id="boundary" inkscape:connector-curvature="0" />
	<path style="fill:none;stroke:red;stroke-width:1px;stroke-linecap:butt;stroke-linejoin:miter;stroke-opacity:1" d="M 96.4872,526.105 100.962,541.023 z" id="boundary" inkscape:connector-curvature="0" />
	<path style="fill:none;stroke:red;stroke-width:1px;stroke-linecap:butt;stroke-linejoin:miter;stroke-opacity:1" d="M 100.962,541.023 93.5038,567.874 z" id="boundary" inkscape:connector-curvature="0" />
	<path style="fill:none;stroke:red;stroke-width:1px;stroke-linecap:butt;stroke-linejoin:miter;stroke-opacity:1" d="M 115.88,306.821 127.814,294.887 z" id="boundary" inkscape:connector-curvature="0" />
	<path style="fill:none;stroke:red;stroke-width:1px;stroke-linecap:butt;stroke-linejoin:miter;stroke-opacity:1" d="M 93.5038,567.874 93.5038,582.791 z" id="boundary" inkscape:connector-curvature="0" />
	<path style="fill:none;stroke:red;stroke-width:1px;stroke-linecap:butt;stroke-linejoin:miter;stroke-opacity:1" d="M 145.714,4 160.632,4 z" id="boundary" inkscape:connector-curvature="0" />
	<path style="fill:none;stroke:red;stroke-width:1px;stroke-linecap:butt;stroke-linejoin:miter;stroke-opacity:1" d="M 147.206,132.289 132.289,127.814 z" id="boundary" inkscape:connector-curvature="0" />
	<path style="fill:none;stroke:red;stroke-width:1px;stroke-linecap:butt;stroke-linejoin:miter;stroke-opacity:1" d="M 156.156,144.223 162.123,159.14 z" id="boundary" inkscape:connector-curvature="0" />
	<path style="fill:none;stroke:red;stroke-width:1px;stroke-linecap:butt;stroke-linejoin:miter;stroke-opacity:1" d="M 156.156,144.223 147.206,132.289 z" id="boundary" inkscape:connector-curvature="0" />
	<path style="fill:none;stroke:red;stroke-width:1px;stroke-linecap:butt;stroke-linejoin:miter;stroke-opacity:1" d="M 162.123,159.14 168.09,174.057 z" id="boundary" inkscape:connector-curvature="0" />
	<path style="fill:none;stroke:red;stroke-width:1px;stroke-linecap:butt;stroke-linejoin:miter;stroke-opacity:1" d="M 168.09,174.057 168.09,188.974 z" id="boundary" inkscape:connector-curvature="0" />
	<path style="fill:none;stroke:red;stroke-width:1px;stroke-linecap:butt;stroke-linejoin:miter;stroke-opacity:1" d="M 281.462,191.958 274.003,214.334 z" id="boundary" inkscape:connector-curvature="0" />
	<path style="fill:none;stroke:red;stroke-width:1px;stroke-linecap:butt;stroke-linejoin:miter;stroke-opacity:1" d="M 160.632,4 175.549,4 z" id="boundary" inkscape:connector-curvature="0" />
	<path style="fill:none;stroke:red;stroke-width:1px;stroke-linecap:butt;stroke-linejoin:miter;stroke-opacity:1" d="M 205.383,4 218.809,11.4586 z" id="boundary" inkscape:connector-curvature="0" />
	<path style="fill:none;stroke:red;stroke-width:1px;stroke-linecap:butt;stroke-linejoin:miter;stroke-opacity:1" d="M 190.466,4 205.383,4 z" id="boundary" inkscape:connector-curvature="0" />
	<path style="fill:none;stroke:red;stroke-width:1px;stroke-linecap:butt;stroke-linejoin:miter;stroke-opacity:1" d="M 218.809,11.4586 232.235,18.9173 z" id="boundary" inkscape:connector-curvature="0" />
	<path style="fill:none;stroke:red;stroke-width:1px;stroke-linecap:butt;stroke-linejoin:miter;stroke-opacity:1" d="M 168.09,203.892 168.09,188.974 z" id="boundary" inkscape:connector-curvature="0" />
	<path style="fill:none;stroke:red;stroke-width:1px;stroke-linecap:butt;stroke-linejoin:miter;stroke-opacity:1" d="M 269.528,41.2932 257.594,30.8511 z" id="boundary" inkscape:connector-curvature="0" />
	<path style="fill:none;stroke:red;stroke-width:1px;stroke-linecap:butt;stroke-linejoin:miter;stroke-opacity:1" d="M 257.594,30.8511 247.152,18.9173 z" id="boundary" inkscape:connector-curvature="0" />
	<path style="fill:none;stroke:red;stroke-width:1px;stroke-linecap:butt;stroke-linejoin:miter;stroke-opacity:1" d="M 232.235,18.9173 247.152,18.9173 z" id="boundary" inkscape:connector-curvature="0" />
	<path style="fill:none;stroke:red;stroke-width:1px;stroke-linecap:butt;stroke-linejoin:miter;stroke-opacity:1" d="M 175.549,4 190.466,4 z" id="boundary" inkscape:connector-curvature="0" />
	<path style="fill:none;stroke:red;stroke-width:1px;stroke-linecap:butt;stroke-linejoin:miter;stroke-opacity:1" d="M 168.09,203.892 160.632,217.317 z" id="boundary" inkscape:connector-curvature="0" />
	<path style="fill:none;stroke:red;stroke-width:1px;stroke-linecap:butt;stroke-linejoin:miter;stroke-opacity:1" d="M 135.272,279.97 138.256,262.069 z" id="boundary" inkscape:connector-curvature="0" />
	<path style="fill:none;stroke:red;stroke-width:1px;stroke-linecap:butt;stroke-linejoin:miter;stroke-opacity:1" d="M 145.714,247.152 138.256,262.069 z" id="boundary" inkscape:connector-curvature="0" />
	<path style="fill:none;stroke:red;stroke-width:1px;stroke-linecap:butt;stroke-linejoin:miter;stroke-opacity:1" d="M 145.714,247.152 153.173,232.235 z" id="boundary" inkscape:connector-curvature="0" />
	<path style="fill:none;stroke:red;stroke-width:1px;stroke-linecap:butt;stroke-linejoin:miter;stroke-opacity:1" d="M 160.632,217.317 153.173,232.235 z" id="boundary" inkscape:connector-curvature="0" />
	<path style="fill:none;stroke:red;stroke-width:1px;stroke-linecap:butt;stroke-linejoin:miter;stroke-opacity:1" d="M 127.814,294.887 135.272,279.97 z" id="boundary" inkscape:connector-curvature="0" />
	<path style="fill:none;stroke:red;stroke-width:1px;stroke-linecap:butt;stroke-linejoin:miter;stroke-opacity:1" d="M 229.251,318.755 229.251,333.672 z" id="boundary" inkscape:connector-curvature="0" />
	<path style="fill:none;stroke:red;stroke-width:1px;stroke-linecap:butt;stroke-linejoin:miter;stroke-opacity:1" d="M 229.251,333.672 221.792,348.589 z" id="boundary" inkscape:connector-curvature="0" />
	<path style="fill:none;stroke:red;stroke-width:1px;stroke-linecap:butt;stroke-linejoin:miter;stroke-opacity:1" d="M 236.71,296.379 229.251,318.755 z" id="boundary" inkscape:connector-curvature="0" />
	<path style="fill:none;stroke:red;stroke-width:1px;stroke-linecap:butt;stroke-linejoin:miter;stroke-opacity:1" d="M 221.792,348.589 229.251,362.015 z" id="boundary" inkscape:connector-curvature="0" />
	<path style="fill:none;stroke:red;stroke-width:1px;stroke-linecap:butt;stroke-linejoin:miter;stroke-opacity:1" d="M 251.627,259.086 263.561,248.644 z" id="boundary" inkscape:connector-curvature="0" />
	<path style="fill:none;stroke:red;stroke-width:1px;stroke-linecap:butt;stroke-linejoin:miter;stroke-opacity:1" d="M 244.168,281.462 251.627,259.086 z" id="boundary" inkscape:connector-curvature="0" />
	<path style="fill:none;stroke:red;stroke-width:1px;stroke-linecap:butt;stroke-linejoin:miter;stroke-opacity:1" d="M 271.02,233.726 263.561,248.644 z" id="boundary" inkscape:connector-curvature="0" />
	<path style="fill:none;stroke:red;stroke-width:1px;stroke-linecap:butt;stroke-linejoin:miter;stroke-opacity:1" d="M 274.003,214.334 271.02,233.726 z" id="boundary" inkscape:connector-curvature="0" />
	<path style="fill:none;stroke:red;stroke-width:1px;stroke-linecap:butt;stroke-linejoin:miter;stroke-opacity:1" d="M 244.168,362.015 229.251,362.015 z" id="boundary" inkscape:connector-curvature="0" />
	<path style="fill:none;stroke:red;stroke-width:1px;stroke-linecap:butt;stroke-linejoin:miter;stroke-opacity:1" d="M 259.086,362.015 244.168,362.015 z" id="boundary" inkscape:connector-curvature="0" />
	<path style="fill:none;stroke:red;stroke-width:1px;stroke-linecap:butt;stroke-linejoin:miter;stroke-opacity:1" d="M 236.71,296.379 244.168,281.462 z" id="boundary" inkscape:connector-curvature="0" />
	<path style="fill:none;stroke:red;stroke-width:1px;stroke-linecap:butt;stroke-linejoin:miter;stroke-opacity:1" d="M 259.086,362.015 274.003,362.015 z" id="boundary" inkscape:connector-curvature="0" />
	<path style="fill:none;stroke:red;stroke-width:1px;stroke-linecap:butt;stroke-linejoin:miter;stroke-opacity:1" d="M 130.797,4 145.714,4 z" id="boundary" inkscape:connector-curvature="0" />
	<path style="fill:none;stroke:red;stroke-width:1px;stroke-linecap:butt;stroke-linejoin:miter;stroke-opacity:1" d="M 93.5038,582.791 93.5038,597.708 z" id="boundary" inkscape:connector-curvature="0" />
	<path style="fill:none;stroke:red;stroke-width:1px;stroke-linecap:butt;stroke-linejoin:miter;stroke-opacity:1" d="M 147.206,579.808 147.206,594.725 z" id="boundary" inkscape:connector-curvature="0" />
	<path style="fill:none;stroke:red;stroke-width:1px;stroke-linecap:butt;stroke-linejoin:miter;stroke-opacity:1" d="M 147.206,579.808 160.632,572.349 z" id="boundary" inkscape:connector-curvature="0" />
	<path style="fill:none;stroke:red;stroke-width:1px;stroke-linecap:butt;stroke-linejoin:miter;stroke-opacity:1" d="M 100.962,611.134 93.5038,597.708 z" id="boundary" inkscape:connector-curvature="0" />
	<path style="fill:none;stroke:red;stroke-width:1px;stroke-linecap:butt;stroke-linejoin:miter;stroke-opacity:1" d="M 100.962,611.134 100.962,626.051 z" id="boundary" inkscape:connector-curvature="0" />
	<path style="fill:none;stroke:red;stroke-width:1px;stroke-linecap:butt;stroke-linejoin:miter;stroke-opacity:1" d="M 100.962,640.968 100.962,655.886 z" id="boundary" inkscape:connector-curvature="0" />
	<path style="fill:none;stroke:red;stroke-width:1px;stroke-linecap:butt;stroke-linejoin:miter;stroke-opacity:1" d="M 100.962,670.803 100.962,655.886 z" id="boundary" inkscape:connector-curvature="0" />
	<path style="fill:none;stroke:red;stroke-width:1px;stroke-linecap:butt;stroke-linejoin:miter;stroke-opacity:1" d="M 100.962,640.968 100.962,626.051 z" id="boundary" inkscape:connector-curvature="0" />
	<path style="fill:none;stroke:red;stroke-width:1px;stroke-linecap:butt;stroke-linejoin:miter;stroke-opacity:1" d="M 147.206,594.725 147.206,609.642 z" id="boundary" inkscape:connector-curvature="0" />
	<path style="fill:none;stroke:red;stroke-width:1px;stroke-linecap:butt;stroke-linejoin:miter;stroke-opacity:1" d="M 100.962,670.803 100.962,685.72 z" id="boundary" inkscape:connector-curvature="0" />
	<path style="fill:none;stroke:red;stroke-width:1px;stroke-linecap:butt;stroke-linejoin:miter;stroke-opacity:1" d="M 147.206,609.642 147.206,624.559 z" id="boundary" inkscape:connector-curvature="0" />
	<path style="fill:none;stroke:red;stroke-width:1px;stroke-linecap:butt;stroke-linejoin:miter;stroke-opacity:1" d="M 174.057,579.808 160.632,572.349 z" id="boundary" inkscape:connector-curvature="0" />
	<path style="fill:none;stroke:red;stroke-width:1px;stroke-linecap:butt;stroke-linejoin:miter;stroke-opacity:1" d="M 150.189,639.477 162.123,649.919 z" id="boundary" inkscape:connector-curvature="0" />
	<path style="fill:none;stroke:red;stroke-width:1px;stroke-linecap:butt;stroke-linejoin:miter;stroke-opacity:1" d="M 162.123,649.919 147.206,684.229 z" id="boundary" inkscape:connector-curvature="0" />
	<path style="fill:none;stroke:red;stroke-width:1px;stroke-linecap:butt;stroke-linejoin:miter;stroke-opacity:1" d="M 168.09,664.836 169.582,679.753 z" id="boundary" inkscape:connector-curvature="0" />
	<path style="fill:none;stroke:red;stroke-width:1px;stroke-linecap:butt;stroke-linejoin:miter;stroke-opacity:1" d="M 168.09,664.836 162.123,649.919 z" id="boundary" inkscape:connector-curvature="0" />
	<path style="fill:none;stroke:red;stroke-width:1px;stroke-linecap:butt;stroke-linejoin:miter;stroke-opacity:1" d="M 197.925,687.212 175.549,694.671 z" id="boundary" inkscape:connector-curvature="0" />
	<path style="fill:none;stroke:red;stroke-width:1px;stroke-linecap:butt;stroke-linejoin:miter;stroke-opacity:1" d="M 150.189,639.477 147.206,624.559 z" id="boundary" inkscape:connector-curvature="0" />
	<path style="fill:none;stroke:red;stroke-width:1px;stroke-linecap:butt;stroke-linejoin:miter;stroke-opacity:1" d="M 169.582,679.753 160.632,691.687 z" id="boundary" inkscape:connector-curvature="0" />
	<path style="fill:none;stroke:red;stroke-width:1px;stroke-linecap:butt;stroke-linejoin:miter;stroke-opacity:1" d="M 160.632,691.687 147.206,684.229 z" id="boundary" inkscape:connector-curvature="0" />
	<path style="fill:none;stroke:red;stroke-width:1px;stroke-linecap:butt;stroke-linejoin:miter;stroke-opacity:1" d="M 100.962,685.72 100.962,700.638 z" id="boundary" inkscape:connector-curvature="0" />
	<path style="fill:none;stroke:red;stroke-width:1px;stroke-linecap:butt;stroke-linejoin:miter;stroke-opacity:1" d="M 135.272,706.605 123.338,717.047 z" id="boundary" inkscape:connector-curvature="0" />
	<path style="fill:none;stroke:red;stroke-width:1px;stroke-linecap:butt;stroke-linejoin:miter;stroke-opacity:1" d="M 123.338,717.047 108.421,714.063 z" id="boundary" inkscape:connector-curvature="0" />
	<path style="fill:none;stroke:red;stroke-width:1px;stroke-linecap:butt;stroke-linejoin:miter;stroke-opacity:1" d="M 108.421,714.063 100.962,700.638 z" id="boundary" inkscape:connector-curvature="0" />
	<path style="fill:none;stroke:red;stroke-width:1px;stroke-linecap:butt;stroke-linejoin:miter;stroke-opacity:1" d="M 150.189,876.662 138.256,888.595 z" id="boundary" inkscape:connector-curvature="0" />
	<path style="fill:none;stroke:red;stroke-width:1px;stroke-linecap:butt;stroke-linejoin:miter;stroke-opacity:1" d="M 147.206,900.529 145.714,925.889 z" id="boundary" inkscape:connector-curvature="0" />
	<path style="fill:none;stroke:red;stroke-width:1px;stroke-linecap:butt;stroke-linejoin:miter;stroke-opacity:1" d="M 145.714,925.889 138.256,888.595 z" id="boundary" inkscape:connector-curvature="0" />
	<path style="fill:none;stroke:red;stroke-width:1px;stroke-linecap:butt;stroke-linejoin:miter;stroke-opacity:1" d="M 138.256,888.595 147.206,900.529 z" id="boundary" inkscape:connector-curvature="0" />
	<path style="fill:none;stroke:red;stroke-width:1px;stroke-linecap:butt;stroke-linejoin:miter;stroke-opacity:1" d="M 142.731,720.03 154.665,728.98 z" id="boundary" inkscape:connector-curvature="0" />
	<path style="fill:none;stroke:red;stroke-width:1px;stroke-linecap:butt;stroke-linejoin:miter;stroke-opacity:1" d="M 160.632,925.889 145.714,925.889 z" id="boundary" inkscape:connector-curvature="0" />
	<path style="fill:none;stroke:red;stroke-width:1px;stroke-linecap:butt;stroke-linejoin:miter;stroke-opacity:1" d="M 135.272,706.605 142.731,720.03 z" id="boundary" inkscape:connector-curvature="0" />
	<path style="fill:none;stroke:red;stroke-width:1px;stroke-linecap:butt;stroke-linejoin:miter;stroke-opacity:1" d="M 135.272,706.605 150.189,705.113 z" id="boundary" inkscape:connector-curvature="0" />
	<path style="fill:none;stroke:red;stroke-width:1px;stroke-linecap:butt;stroke-linejoin:miter;stroke-opacity:1" d="M 160.632,691.687 175.549,694.671 z" id="boundary" inkscape:connector-curvature="0" />
	<path style="fill:none;stroke:red;stroke-width:1px;stroke-linecap:butt;stroke-linejoin:miter;stroke-opacity:1" d="M 150.189,705.113 160.632,691.687 z" id="boundary" inkscape:connector-curvature="0" />
	<path style="fill:none;stroke:red;stroke-width:1px;stroke-linecap:butt;stroke-linejoin:miter;stroke-opacity:1" d="M 150.189,876.662 163.615,869.203 z" id="boundary" inkscape:connector-curvature="0" />
	<path style="fill:none;stroke:red;stroke-width:1px;stroke-linecap:butt;stroke-linejoin:miter;stroke-opacity:1" d="M 147.206,900.529 175.549,922.905 z" id="boundary" inkscape:connector-curvature="0" />
	<path style="fill:none;stroke:red;stroke-width:1px;stroke-linecap:butt;stroke-linejoin:miter;stroke-opacity:1" d="M 175.549,922.905 160.632,925.889 z" id="boundary" inkscape:connector-curvature="0" />
	<path style="fill:none;stroke:red;stroke-width:1px;stroke-linecap:butt;stroke-linejoin:miter;stroke-opacity:1" d="M 175.549,922.905 175.549,937.823 z" id="boundary" inkscape:connector-curvature="0" />
	<path style="fill:none;stroke:red;stroke-width:1px;stroke-linecap:butt;stroke-linejoin:miter;stroke-opacity:1" d="M 163.615,869.203 178.532,869.203 z" id="boundary" inkscape:connector-curvature="0" />
	<path style="fill:none;stroke:red;stroke-width:1px;stroke-linecap:butt;stroke-linejoin:miter;stroke-opacity:1" d="M 175.549,922.905 191.958,930.364 z" id="boundary" inkscape:connector-curvature="0" />
	<path style="fill:none;stroke:red;stroke-width:1px;stroke-linecap:butt;stroke-linejoin:miter;stroke-opacity:1" d="M 190.466,717.047 154.665,728.98 z" id="boundary" inkscape:connector-curvature="0" />
	<path style="fill:none;stroke:red;stroke-width:1px;stroke-linecap:butt;stroke-linejoin:miter;stroke-opacity:1" d="M 175.549,937.823 184.499,949.756 z" id="boundary" inkscape:connector-curvature="0" />
	<path style="fill:none;stroke:red;stroke-width:1px;stroke-linecap:butt;stroke-linejoin:miter;stroke-opacity:1" d="M 174.057,579.808 180.024,594.725 z" id="boundary" inkscape:connector-curvature="0" />
	<path style="fill:none;stroke:red;stroke-width:1px;stroke-linecap:butt;stroke-linejoin:miter;stroke-opacity:1" d="M 190.466,606.659 202.4,617.101 z" id="boundary" inkscape:connector-curvature="0" />
	<path style="fill:none;stroke:red;stroke-width:1px;stroke-linecap:butt;stroke-linejoin:miter;stroke-opacity:1" d="M 215.826,624.559 202.4,617.101 z" id="boundary" inkscape:connector-curvature="0" />
	<path style="fill:none;stroke:red;stroke-width:1px;stroke-linecap:butt;stroke-linejoin:miter;stroke-opacity:1" d="M 190.466,606.659 180.024,594.725 z" id="boundary" inkscape:connector-curvature="0" />
	<path style="fill:none;stroke:red;stroke-width:1px;stroke-linecap:butt;stroke-linejoin:miter;stroke-opacity:1" d="M 209.859,675.278 197.925,687.212 z" id="boundary" inkscape:connector-curvature="0" />
	<path style="fill:none;stroke:red;stroke-width:1px;stroke-linecap:butt;stroke-linejoin:miter;stroke-opacity:1" d="M 197.925,702.129 190.466,717.047 z" id="boundary" inkscape:connector-curvature="0" />
	<path style="fill:none;stroke:red;stroke-width:1px;stroke-linecap:butt;stroke-linejoin:miter;stroke-opacity:1" d="M 197.925,687.212 197.925,702.129 z" id="boundary" inkscape:connector-curvature="0" />
	<path style="fill:none;stroke:red;stroke-width:1px;stroke-linecap:butt;stroke-linejoin:miter;stroke-opacity:1" d="M 197.925,730.472 190.466,717.047 z" id="boundary" inkscape:connector-curvature="0" />
	<path style="fill:none;stroke:red;stroke-width:1px;stroke-linecap:butt;stroke-linejoin:miter;stroke-opacity:1" d="M 229.251,728.98 197.925,730.472 z" id="boundary" inkscape:connector-curvature="0" />
	<path style="fill:none;stroke:red;stroke-width:1px;stroke-linecap:butt;stroke-linejoin:miter;stroke-opacity:1" d="M 197.925,745.389 197.925,730.472 z" id="boundary" inkscape:connector-curvature="0" />
	<path style="fill:none;stroke:red;stroke-width:1px;stroke-linecap:butt;stroke-linejoin:miter;stroke-opacity:1" d="M 197.925,745.389 208.367,757.323 z" id="boundary" inkscape:connector-curvature="0" />
	<path style="fill:none;stroke:red;stroke-width:1px;stroke-linecap:butt;stroke-linejoin:miter;stroke-opacity:1" d="M 209.859,675.278 221.792,663.344 z" id="boundary" inkscape:connector-curvature="0" />
	<path style="fill:none;stroke:red;stroke-width:1px;stroke-linecap:butt;stroke-linejoin:miter;stroke-opacity:1" d="M 227.759,648.427 221.792,663.344 z" id="boundary" inkscape:connector-curvature="0" />
	<path style="fill:none;stroke:red;stroke-width:1px;stroke-linecap:butt;stroke-linejoin:miter;stroke-opacity:1" d="M 227.759,633.51 227.759,648.427 z" id="boundary" inkscape:connector-curvature="0" />
	<path style="fill:none;stroke:red;stroke-width:1px;stroke-linecap:butt;stroke-linejoin:miter;stroke-opacity:1" d="M 215.826,624.559 227.759,633.51 z" id="boundary" inkscape:connector-curvature="0" />
	<path style="fill:none;stroke:red;stroke-width:1px;stroke-linecap:butt;stroke-linejoin:miter;stroke-opacity:1" d="M 220.301,746.881 229.251,728.98 z" id="boundary" inkscape:connector-curvature="0" />
	<path style="fill:none;stroke:red;stroke-width:1px;stroke-linecap:butt;stroke-linejoin:miter;stroke-opacity:1" d="M 229.251,728.98 242.677,736.439 z" id="boundary" inkscape:connector-curvature="0" />
	<path style="fill:none;stroke:red;stroke-width:1px;stroke-linecap:butt;stroke-linejoin:miter;stroke-opacity:1" d="M 272.511,736.439 257.594,739.423 z" id="boundary" inkscape:connector-curvature="0" />
	<path style="fill:none;stroke:red;stroke-width:1px;stroke-linecap:butt;stroke-linejoin:miter;stroke-opacity:1" d="M 257.594,739.423 242.677,736.439 z" id="boundary" inkscape:connector-curvature="0" />
	<path style="fill:none;stroke:red;stroke-width:1px;stroke-linecap:butt;stroke-linejoin:miter;stroke-opacity:1" d="M 276.986,751.356 272.511,776.716 z" id="boundary" inkscape:connector-curvature="0" />
	<path style="fill:none;stroke:red;stroke-width:1px;stroke-linecap:butt;stroke-linejoin:miter;stroke-opacity:1" d="M 220.301,746.881 208.367,757.323 z" id="boundary" inkscape:connector-curvature="0" />
	<path style="fill:none;stroke:red;stroke-width:1px;stroke-linecap:butt;stroke-linejoin:miter;stroke-opacity:1" d="M 205.383,851.302 191.958,861.744 z" id="boundary" inkscape:connector-curvature="0" />
	<path style="fill:none;stroke:red;stroke-width:1px;stroke-linecap:butt;stroke-linejoin:miter;stroke-opacity:1" d="M 217.317,839.368 205.383,851.302 z" id="boundary" inkscape:connector-curvature="0" />
	<path style="fill:none;stroke:red;stroke-width:1px;stroke-linecap:butt;stroke-linejoin:miter;stroke-opacity:1" d="M 229.251,827.435 217.317,839.368 z" id="boundary" inkscape:connector-curvature="0" />
	<path style="fill:none;stroke:red;stroke-width:1px;stroke-linecap:butt;stroke-linejoin:miter;stroke-opacity:1" d="M 191.958,861.744 178.532,869.203 z" id="boundary" inkscape:connector-curvature="0" />
	<path style="fill:none;stroke:red;stroke-width:1px;stroke-linecap:butt;stroke-linejoin:miter;stroke-opacity:1" d="M 191.958,930.364 205.383,922.905 z" id="boundary" inkscape:connector-curvature="0" />
	<path style="fill:none;stroke:red;stroke-width:1px;stroke-linecap:butt;stroke-linejoin:miter;stroke-opacity:1" d="M 205.383,922.905 220.301,925.889 z" id="boundary" inkscape:connector-curvature="0" />
	<path style="fill:none;stroke:red;stroke-width:1px;stroke-linecap:butt;stroke-linejoin:miter;stroke-opacity:1" d="M 220.301,925.889 184.499,949.756 z" id="boundary" inkscape:connector-curvature="0" />
	<path style="fill:none;stroke:red;stroke-width:1px;stroke-linecap:butt;stroke-linejoin:miter;stroke-opacity:1" d="M 227.759,910.971 220.301,925.889 z" id="boundary" inkscape:connector-curvature="0" />
	<path style="fill:none;stroke:red;stroke-width:1px;stroke-linecap:butt;stroke-linejoin:miter;stroke-opacity:1" d="M 229.251,827.435 241.185,816.992 z" id="boundary" inkscape:connector-curvature="0" />
	<path style="fill:none;stroke:red;stroke-width:1px;stroke-linecap:butt;stroke-linejoin:miter;stroke-opacity:1" d="M 251.627,805.059 208.367,757.323 z" id="boundary" inkscape:connector-curvature="0" />
	<path style="fill:none;stroke:red;stroke-width:1px;stroke-linecap:butt;stroke-linejoin:miter;stroke-opacity:1" d="M 251.627,805.059 241.185,816.992 z" id="boundary" inkscape:connector-curvature="0" />
	<path style="fill:none;stroke:red;stroke-width:1px;stroke-linecap:butt;stroke-linejoin:miter;stroke-opacity:1" d="M 251.627,805.059 263.561,794.617 z" id="boundary" inkscape:connector-curvature="0" />
	<path style="fill:none;stroke:red;stroke-width:1px;stroke-linecap:butt;stroke-linejoin:miter;stroke-opacity:1" d="M 274.003,840.86 266.544,855.777 z" id="boundary" inkscape:connector-curvature="0" />
	<path style="fill:none;stroke:red;stroke-width:1px;stroke-linecap:butt;stroke-linejoin:miter;stroke-opacity:1" d="M 227.759,910.971 235.218,896.054 z" id="boundary" inkscape:connector-curvature="0" />
	<path style="fill:none;stroke:red;stroke-width:1px;stroke-linecap:butt;stroke-linejoin:miter;stroke-opacity:1" d="M 235.218,896.054 247.152,884.12 z" id="boundary" inkscape:connector-curvature="0" />
	<path style="fill:none;stroke:red;stroke-width:1px;stroke-linecap:butt;stroke-linejoin:miter;stroke-opacity:1" d="M 247.152,884.12 254.611,869.203 z" id="boundary" inkscape:connector-curvature="0" />
	<path style="fill:none;stroke:red;stroke-width:1px;stroke-linecap:butt;stroke-linejoin:miter;stroke-opacity:1" d="M 254.611,869.203 266.544,855.777 z" id="boundary" inkscape:connector-curvature="0" />
	<path style="fill:none;stroke:red;stroke-width:1px;stroke-linecap:butt;stroke-linejoin:miter;stroke-opacity:1" d="M 263.561,794.617 272.511,776.716 z" id="boundary" inkscape:connector-curvature="0" />
	<path style="fill:none;stroke:red;stroke-width:1px;stroke-linecap:butt;stroke-linejoin:miter;stroke-opacity:1" d="M 272.511,736.439 276.986,751.356 z" id="boundary" inkscape:connector-curvature="0" />
	<path style="fill:none;stroke:red;stroke-width:1px;stroke-linecap:butt;stroke-linejoin:miter;stroke-opacity:1" d="M 279.97,53.2271 287.429,66.6526 z" id="boundary" inkscape:connector-curvature="0" />
	<path style="fill:none;stroke:red;stroke-width:1px;stroke-linecap:butt;stroke-linejoin:miter;stroke-opacity:1" d="M 287.429,66.6526 288.92,81.5699 z" id="boundary" inkscape:connector-curvature="0" />
	<path style="fill:none;stroke:red;stroke-width:1px;stroke-linecap:butt;stroke-linejoin:miter;stroke-opacity:1" d="M 288.92,81.5699 293.395,96.4872 z" id="boundary" inkscape:connector-curvature="0" />
	<path style="fill:none;stroke:red;stroke-width:1px;stroke-linecap:butt;stroke-linejoin:miter;stroke-opacity:1" d="M 293.395,96.4872 296.379,111.405 z" id="boundary" inkscape:connector-curvature="0" />
	<path style="fill:none;stroke:red;stroke-width:1px;stroke-linecap:butt;stroke-linejoin:miter;stroke-opacity:1" d="M 281.462,191.958 288.92,169.582 z" id="boundary" inkscape:connector-curvature="0" />
	<path style="fill:none;stroke:red;stroke-width:1px;stroke-linecap:butt;stroke-linejoin:miter;stroke-opacity:1" d="M 288.92,169.582 296.379,156.156 z" id="boundary" inkscape:connector-curvature="0" />
	<path style="fill:none;stroke:red;stroke-width:1px;stroke-linecap:butt;stroke-linejoin:miter;stroke-opacity:1" d="M 296.379,126.322 296.379,141.239 z" id="boundary" inkscape:connector-curvature="0" />
	<path style="fill:none;stroke:red;stroke-width:1px;stroke-linecap:butt;stroke-linejoin:miter;stroke-opacity:1" d="M 450.027,354.556 435.11,348.589 z" id="boundary" inkscape:connector-curvature="0" />
	<path style="fill:none;stroke:red;stroke-width:1px;stroke-linecap:butt;stroke-linejoin:miter;stroke-opacity:1" d="M 296.379,111.405 296.379,126.322 z" id="boundary" inkscape:connector-curvature="0" />
	<path style="fill:none;stroke:red;stroke-width:1px;stroke-linecap:butt;stroke-linejoin:miter;stroke-opacity:1" d="M 296.379,141.239 296.379,156.156 z" id="boundary" inkscape:connector-curvature="0" />
	<path style="fill:none;stroke:red;stroke-width:1px;stroke-linecap:butt;stroke-linejoin:miter;stroke-opacity:1" d="M 375.441,339.639 360.523,339.639 z" id="boundary" inkscape:connector-curvature="0" />
	<path style="fill:none;stroke:red;stroke-width:1px;stroke-linecap:butt;stroke-linejoin:miter;stroke-opacity:1" d="M 375.441,339.639 390.358,339.639 z" id="boundary" inkscape:connector-curvature="0" />
	<path style="fill:none;stroke:red;stroke-width:1px;stroke-linecap:butt;stroke-linejoin:miter;stroke-opacity:1" d="M 405.275,341.131 390.358,339.639 z" id="boundary" inkscape:connector-curvature="0" />
	<path style="fill:none;stroke:red;stroke-width:1px;stroke-linecap:butt;stroke-linejoin:miter;stroke-opacity:1" d="M 347.098,347.098 360.523,339.639 z" id="boundary" inkscape:connector-curvature="0" />
	<path style="fill:none;stroke:red;stroke-width:1px;stroke-linecap:butt;stroke-linejoin:miter;stroke-opacity:1" d="M 317.263,351.573 332.18,347.098 z" id="boundary" inkscape:connector-curvature="0" />
	<path style="fill:none;stroke:red;stroke-width:1px;stroke-linecap:butt;stroke-linejoin:miter;stroke-opacity:1" d="M 332.18,347.098 347.098,347.098 z" id="boundary" inkscape:connector-curvature="0" />
	<path style="fill:none;stroke:red;stroke-width:1px;stroke-linecap:butt;stroke-linejoin:miter;stroke-opacity:1" d="M 435.11,348.589 420.192,347.098 z" id="boundary" inkscape:connector-curvature="0" />
	<path style="fill:none;stroke:red;stroke-width:1px;stroke-linecap:butt;stroke-linejoin:miter;stroke-opacity:1" d="M 420.192,347.098 405.275,341.131 z" id="boundary" inkscape:connector-curvature="0" />
	<path style="fill:none;stroke:red;stroke-width:1px;stroke-linecap:butt;stroke-linejoin:miter;stroke-opacity:1" d="M 287.429,354.556 302.346,354.556 z" id="boundary" inkscape:connector-curvature="0" />
	<path style="fill:none;stroke:red;stroke-width:1px;stroke-linecap:butt;stroke-linejoin:miter;stroke-opacity:1" d="M 274.003,362.015 287.429,354.556 z" id="boundary" inkscape:connector-curvature="0" />
	<path style="fill:none;stroke:red;stroke-width:1px;stroke-linecap:butt;stroke-linejoin:miter;stroke-opacity:1" d="M 302.346,354.556 317.263,351.573 z" id="boundary" inkscape:connector-curvature="0" />
	<path style="fill:none;stroke:red;stroke-width:1px;stroke-linecap:butt;stroke-linejoin:miter;stroke-opacity:1" d="M 450.027,354.556 463.453,362.015 z" id="boundary" inkscape:connector-curvature="0" />
	<path style="fill:none;stroke:red;stroke-width:1px;stroke-linecap:butt;stroke-linejoin:miter;stroke-opacity:1" d="M 463.453,362.015 476.878,369.474 z" id="boundary" inkscape:connector-curvature="0" />
	<path style="fill:none;stroke:red;stroke-width:1px;stroke-linecap:butt;stroke-linejoin:miter;stroke-opacity:1" d="M 476.878,369.474 490.304,376.932 z" id="boundary" inkscape:connector-curvature="0" />
	<path style="fill:none;stroke:red;stroke-width:1px;stroke-linecap:butt;stroke-linejoin:miter;stroke-opacity:1" d="M 490.304,376.932 502.238,385.883 z" id="boundary" inkscape:connector-curvature="0" />
	<path style="fill:none;stroke:red;stroke-width:1px;stroke-linecap:butt;stroke-linejoin:miter;stroke-opacity:1" d="M 515.663,393.341 502.238,385.883 z" id="boundary" inkscape:connector-curvature="0" />
	<path style="fill:none;stroke:red;stroke-width:1px;stroke-linecap:butt;stroke-linejoin:miter;stroke-opacity:1" d="M 539.531,414.226 552.956,421.684 z" id="boundary" inkscape:connector-curvature="0" />
	<path style="fill:none;stroke:red;stroke-width:1px;stroke-linecap:butt;stroke-linejoin:miter;stroke-opacity:1" d="M 552.956,421.684 563.398,433.618 z" id="boundary" inkscape:connector-curvature="0" />
	<path style="fill:none;stroke:red;stroke-width:1px;stroke-linecap:butt;stroke-linejoin:miter;stroke-opacity:1" d="M 539.531,414.226 527.597,403.783 z" id="boundary" inkscape:connector-curvature="0" />
	<path style="fill:none;stroke:red;stroke-width:1px;stroke-linecap:butt;stroke-linejoin:miter;stroke-opacity:1" d="M 527.597,403.783 515.663,393.341 z" id="boundary" inkscape:connector-curvature="0" />
	<path style="fill:none;stroke:red;stroke-width:1px;stroke-linecap:butt;stroke-linejoin:miter;stroke-opacity:1" d="M 576.824,587.266 561.907,587.266 z" id="boundary" inkscape:connector-curvature="0" />
	<path style="fill:none;stroke:red;stroke-width:1px;stroke-linecap:butt;stroke-linejoin:miter;stroke-opacity:1" d="M 563.398,433.618 578.316,439.585 z" id="boundary" inkscape:connector-curvature="0" />
	<path style="fill:none;stroke:red;stroke-width:1px;stroke-linecap:butt;stroke-linejoin:miter;stroke-opacity:1" d="M 578.316,439.585 587.266,451.519 z" id="boundary" inkscape:connector-curvature="0" />
	<path style="fill:none;stroke:red;stroke-width:1px;stroke-linecap:butt;stroke-linejoin:miter;stroke-opacity:1" d="M 600.692,458.977 587.266,451.519 z" id="boundary" inkscape:connector-curvature="0" />
	<path style="fill:none;stroke:red;stroke-width:1px;stroke-linecap:butt;stroke-linejoin:miter;stroke-opacity:1" d="M 546.989,591.741 561.907,587.266 z" id="boundary" inkscape:connector-curvature="0" />
	<path style="fill:none;stroke:red;stroke-width:1px;stroke-linecap:butt;stroke-linejoin:miter;stroke-opacity:1" d="M 784.174,354.556 515.663,393.341 z" id="boundary" inkscape:connector-curvature="0" />
	<path style="fill:none;stroke:red;stroke-width:1px;stroke-linecap:butt;stroke-linejoin:miter;stroke-opacity:1" d="M 269.528,41.2932 279.97,53.2271 z" id="boundary" inkscape:connector-curvature="0" />
	<path style="fill:none;stroke:red;stroke-width:1px;stroke-linecap:butt;stroke-linejoin:miter;stroke-opacity:1" d="M 715.555,451.519 727.489,441.077 z" id="boundary" inkscape:connector-curvature="0" />
	<path style="fill:none;stroke:red;stroke-width:1px;stroke-linecap:butt;stroke-linejoin:miter;stroke-opacity:1" d="M 742.406,426.159 727.489,441.077 z" id="boundary" inkscape:connector-curvature="0" />
	<path style="fill:none;stroke:red;stroke-width:1px;stroke-linecap:butt;stroke-linejoin:miter;stroke-opacity:1" d="M 742.406,426.159 754.34,414.226 z" id="boundary" inkscape:connector-curvature="0" />
	<path style="fill:none;stroke:red;stroke-width:1px;stroke-linecap:butt;stroke-linejoin:miter;stroke-opacity:1" d="M 764.782,396.325 754.34,414.226 z" id="boundary" inkscape:connector-curvature="0" />
	<path style="fill:none;stroke:red;stroke-width:1px;stroke-linecap:butt;stroke-linejoin:miter;stroke-opacity:1" d="M 591.741,587.266 576.824,587.266 z" id="boundary" inkscape:connector-curvature="0" />
	<path style="fill:none;stroke:red;stroke-width:1px;stroke-linecap:butt;stroke-linejoin:miter;stroke-opacity:1" d="M 614.117,466.436 600.692,458.977 z" id="boundary" inkscape:connector-curvature="0" />
	<path style="fill:none;stroke:red;stroke-width:1px;stroke-linecap:butt;stroke-linejoin:miter;stroke-opacity:1" d="M 629.035,466.436 614.117,466.436 z" id="boundary" inkscape:connector-curvature="0" />
	<path style="fill:none;stroke:red;stroke-width:1px;stroke-linecap:butt;stroke-linejoin:miter;stroke-opacity:1" d="M 643.952,466.436 629.035,466.436 z" id="boundary" inkscape:connector-curvature="0" />
	<path style="fill:none;stroke:red;stroke-width:1px;stroke-linecap:butt;stroke-linejoin:miter;stroke-opacity:1" d="M 702.129,458.977 687.212,458.977 z" id="boundary" inkscape:connector-curvature="0" />
	<path style="fill:none;stroke:red;stroke-width:1px;stroke-linecap:butt;stroke-linejoin:miter;stroke-opacity:1" d="M 715.555,451.519 702.129,458.977 z" id="boundary" inkscape:connector-curvature="0" />
	<path style="fill:none;stroke:red;stroke-width:1px;stroke-linecap:butt;stroke-linejoin:miter;stroke-opacity:1" d="M 673.786,466.436 687.212,458.977 z" id="boundary" inkscape:connector-curvature="0" />
	<path style="fill:none;stroke:red;stroke-width:1px;stroke-linecap:butt;stroke-linejoin:miter;stroke-opacity:1" d="M 772.241,366.49 772.241,381.408 z" id="boundary" inkscape:connector-curvature="0" />
	<path style="fill:none;stroke:red;stroke-width:1px;stroke-linecap:butt;stroke-linejoin:miter;stroke-opacity:1" d="M 772.241,381.408 764.782,396.325 z" id="boundary" inkscape:connector-curvature="0" />
	<path style="fill:none;stroke:red;stroke-width:1px;stroke-linecap:butt;stroke-linejoin:miter;stroke-opacity:1" d="M 788.65,369.474 772.241,381.408 z" id="boundary" inkscape:connector-curvature="0" />
	<path style="fill:none;stroke:red;stroke-width:1px;stroke-linecap:butt;stroke-linejoin:miter;stroke-opacity:1" d="M 784.174,354.556 788.65,369.474 z" id="boundary" inkscape:connector-curvature="0" />
	<path style="fill:none;stroke:red;stroke-width:1px;stroke-linecap:butt;stroke-linejoin:miter;stroke-opacity:1" d="M 772.241,366.49 784.174,354.556 z" id="boundary" inkscape:connector-curvature="0" />
	<path style="fill:none;stroke:red;stroke-width:1px;stroke-linecap:butt;stroke-linejoin:miter;stroke-opacity:1" d="M 781.191,393.341 772.241,381.408 z" id="boundary" inkscape:connector-curvature="0" />
	<path style="fill:none;stroke:red;stroke-width:1px;stroke-linecap:butt;stroke-linejoin:miter;stroke-opacity:1" d="M 764.782,396.325 781.191,408.259 z" id="boundary" inkscape:connector-curvature="0" />
	<path style="fill:none;stroke:red;stroke-width:1px;stroke-linecap:butt;stroke-linejoin:miter;stroke-opacity:1" d="M 781.191,423.176 773.732,445.552 z" id="boundary" inkscape:connector-curvature="0" />
	<path style="fill:none;stroke:red;stroke-width:1px;stroke-linecap:butt;stroke-linejoin:miter;stroke-opacity:1" d="M 781.191,393.341 781.191,408.259 z" id="boundary" inkscape:connector-curvature="0" />
	<path style="fill:none;stroke:red;stroke-width:1px;stroke-linecap:butt;stroke-linejoin:miter;stroke-opacity:1" d="M 781.191,423.176 781.191,408.259 z" id="boundary" inkscape:connector-curvature="0" />
	<path style="fill:none;stroke:red;stroke-width:1px;stroke-linecap:butt;stroke-linejoin:miter;stroke-opacity:1" d="M 773.732,445.552 766.274,467.928 z" id="boundary" inkscape:connector-curvature="0" />
	<path style="fill:none;stroke:red;stroke-width:1px;stroke-linecap:butt;stroke-linejoin:miter;stroke-opacity:1" d="M 663.344,572.349 648.427,572.349 z" id="boundary" inkscape:connector-curvature="0" />
	<path style="fill:none;stroke:red;stroke-width:1px;stroke-linecap:butt;stroke-linejoin:miter;stroke-opacity:1" d="M 676.77,564.89 663.344,572.349 z" id="boundary" inkscape:connector-curvature="0" />
	<path style="fill:none;stroke:red;stroke-width:1px;stroke-linecap:butt;stroke-linejoin:miter;stroke-opacity:1" d="M 673.786,466.436 658.869,466.436 z" id="boundary" inkscape:connector-curvature="0" />
	<path style="fill:none;stroke:red;stroke-width:1px;stroke-linecap:butt;stroke-linejoin:miter;stroke-opacity:1" d="M 658.869,466.436 643.952,466.436 z" id="boundary" inkscape:connector-curvature="0" />
	<path style="fill:none;stroke:red;stroke-width:1px;stroke-linecap:butt;stroke-linejoin:miter;stroke-opacity:1" d="M 591.741,587.266 606.659,587.266 z" id="boundary" inkscape:connector-curvature="0" />
	<path style="fill:none;stroke:red;stroke-width:1px;stroke-linecap:butt;stroke-linejoin:miter;stroke-opacity:1" d="M 620.084,579.808 606.659,587.266 z" id="boundary" inkscape:connector-curvature="0" />
	<path style="fill:none;stroke:red;stroke-width:1px;stroke-linecap:butt;stroke-linejoin:miter;stroke-opacity:1" d="M 648.427,572.349 635.002,579.808 z" id="boundary" inkscape:connector-curvature="0" />
	<path style="fill:none;stroke:red;stroke-width:1px;stroke-linecap:butt;stroke-linejoin:miter;stroke-opacity:1" d="M 635.002,579.808 620.084,579.808 z" id="boundary" inkscape:connector-curvature="0" />
	<path style="fill:none;stroke:red;stroke-width:1px;stroke-linecap:butt;stroke-linejoin:miter;stroke-opacity:1" d="M 740.914,517.155 751.356,505.221 z" id="boundary" inkscape:connector-curvature="0" />
	<path style="fill:none;stroke:red;stroke-width:1px;stroke-linecap:butt;stroke-linejoin:miter;stroke-opacity:1" d="M 740.914,517.155 728.98,527.597 z" id="boundary" inkscape:connector-curvature="0" />
	<path style="fill:none;stroke:red;stroke-width:1px;stroke-linecap:butt;stroke-linejoin:miter;stroke-opacity:1" d="M 676.77,564.89 690.195,557.432 z" id="boundary" inkscape:connector-curvature="0" />
	<path style="fill:none;stroke:red;stroke-width:1px;stroke-linecap:butt;stroke-linejoin:miter;stroke-opacity:1" d="M 717.047,541.023 702.129,548.481 z" id="boundary" inkscape:connector-curvature="0" />
	<path style="fill:none;stroke:red;stroke-width:1px;stroke-linecap:butt;stroke-linejoin:miter;stroke-opacity:1" d="M 702.129,548.481 690.195,557.432 z" id="boundary" inkscape:connector-curvature="0" />
	<path style="fill:none;stroke:red;stroke-width:1px;stroke-linecap:butt;stroke-linejoin:miter;stroke-opacity:1" d="M 717.047,541.023 728.98,527.597 z" id="boundary" inkscape:connector-curvature="0" />
	<path style="fill:none;stroke:red;stroke-width:1px;stroke-linecap:butt;stroke-linejoin:miter;stroke-opacity:1" d="M 758.815,490.304 751.356,505.221 z" id="boundary" inkscape:connector-curvature="0" />
	<path style="fill:none;stroke:red;stroke-width:1px;stroke-linecap:butt;stroke-linejoin:miter;stroke-opacity:1" d="M 766.274,467.928 758.815,490.304 z" id="boundary" inkscape:connector-curvature="0" />
	<path style="fill:none;stroke:red;stroke-width:1px;stroke-linecap:butt;stroke-linejoin:miter;stroke-opacity:1" d="M 341.131,684.229 341.131,699.146 z" id="boundary" inkscape:connector-curvature="0" />
	<path style="fill:none;stroke:red;stroke-width:1px;stroke-linecap:butt;stroke-linejoin:miter;stroke-opacity:1" d="M 341.131,684.229 341.131,669.311 z" id="boundary" inkscape:connector-curvature="0" />
	<path style="fill:none;stroke:red;stroke-width:1px;stroke-linecap:butt;stroke-linejoin:miter;stroke-opacity:1" d="M 341.131,714.063 341.131,699.146 z" id="boundary" inkscape:connector-curvature="0" />
	<path style="fill:none;stroke:red;stroke-width:1px;stroke-linecap:butt;stroke-linejoin:miter;stroke-opacity:1" d="M 341.131,714.063 341.131,728.98 z" id="boundary" inkscape:connector-curvature="0" />
	<path style="fill:none;stroke:red;stroke-width:1px;stroke-linecap:butt;stroke-linejoin:miter;stroke-opacity:1" d="M 341.131,728.98 341.131,743.898 z" id="boundary" inkscape:connector-curvature="0" />
	<path style="fill:none;stroke:red;stroke-width:1px;stroke-linecap:butt;stroke-linejoin:miter;stroke-opacity:1" d="M 341.131,758.815 341.131,743.898 z" id="boundary" inkscape:connector-curvature="0" />
	<path style="fill:none;stroke:red;stroke-width:1px;stroke-linecap:butt;stroke-linejoin:miter;stroke-opacity:1" d="M 341.131,758.815 332.18,773.732 z" id="boundary" inkscape:connector-curvature="0" />
	<path style="fill:none;stroke:red;stroke-width:1px;stroke-linecap:butt;stroke-linejoin:miter;stroke-opacity:1" d="M 341.131,669.311 348.589,654.394 z" id="boundary" inkscape:connector-curvature="0" />
	<path style="fill:none;stroke:red;stroke-width:1px;stroke-linecap:butt;stroke-linejoin:miter;stroke-opacity:1" d="M 362.015,646.935 375.441,639.477 z" id="boundary" inkscape:connector-curvature="0" />
	<path style="fill:none;stroke:red;stroke-width:1px;stroke-linecap:butt;stroke-linejoin:miter;stroke-opacity:1" d="M 388.866,632.018 391.85,649.919 z" id="boundary" inkscape:connector-curvature="0" />
	<path style="fill:none;stroke:red;stroke-width:1px;stroke-linecap:butt;stroke-linejoin:miter;stroke-opacity:1" d="M 375.441,639.477 388.866,632.018 z" id="boundary" inkscape:connector-curvature="0" />
	<path style="fill:none;stroke:red;stroke-width:1px;stroke-linecap:butt;stroke-linejoin:miter;stroke-opacity:1" d="M 391.85,649.919 391.85,664.836 z" id="boundary" inkscape:connector-curvature="0" />
	<path style="fill:none;stroke:red;stroke-width:1px;stroke-linecap:butt;stroke-linejoin:miter;stroke-opacity:1" d="M 391.85,664.836 391.85,679.753 z" id="boundary" inkscape:connector-curvature="0" />
	<path style="fill:none;stroke:red;stroke-width:1px;stroke-linecap:butt;stroke-linejoin:miter;stroke-opacity:1" d="M 403.783,690.195 391.85,679.753 z" id="boundary" inkscape:connector-curvature="0" />
	<path style="fill:none;stroke:red;stroke-width:1px;stroke-linecap:butt;stroke-linejoin:miter;stroke-opacity:1" d="M 424.668,711.08 409.75,705.113 z" id="boundary" inkscape:connector-curvature="0" />
	<path style="fill:none;stroke:red;stroke-width:1px;stroke-linecap:butt;stroke-linejoin:miter;stroke-opacity:1" d="M 409.75,705.113 403.783,690.195 z" id="boundary" inkscape:connector-curvature="0" />
	<path style="fill:none;stroke:red;stroke-width:1px;stroke-linecap:butt;stroke-linejoin:miter;stroke-opacity:1" d="M 388.866,632.018 490.304,624.559 z" id="boundary" inkscape:connector-curvature="0" />
	<path style="fill:none;stroke:red;stroke-width:1px;stroke-linecap:butt;stroke-linejoin:miter;stroke-opacity:1" d="M 348.589,654.394 362.015,646.935 z" id="boundary" inkscape:connector-curvature="0" />
	<path style="fill:none;stroke:red;stroke-width:1px;stroke-linecap:butt;stroke-linejoin:miter;stroke-opacity:1" d="M 293.395,815.501 303.838,796.108 z" id="boundary" inkscape:connector-curvature="0" />
	<path style="fill:none;stroke:red;stroke-width:1px;stroke-linecap:butt;stroke-linejoin:miter;stroke-opacity:1" d="M 293.395,815.501 285.937,830.418 z" id="boundary" inkscape:connector-curvature="0" />
	<path style="fill:none;stroke:red;stroke-width:1px;stroke-linecap:butt;stroke-linejoin:miter;stroke-opacity:1" d="M 318.755,781.191 332.18,773.732 z" id="boundary" inkscape:connector-curvature="0" />
	<path style="fill:none;stroke:red;stroke-width:1px;stroke-linecap:butt;stroke-linejoin:miter;stroke-opacity:1" d="M 303.838,796.108 318.755,781.191 z" id="boundary" inkscape:connector-curvature="0" />
	<path style="fill:none;stroke:red;stroke-width:1px;stroke-linecap:butt;stroke-linejoin:miter;stroke-opacity:1" d="M 285.937,830.418 274.003,840.86 z" id="boundary" inkscape:connector-curvature="0" />
	<path style="fill:none;stroke:red;stroke-width:1px;stroke-linecap:butt;stroke-linejoin:miter;stroke-opacity:1" d="M 376.932,948.265 385.883,960.198 z" id="boundary" inkscape:connector-curvature="0" />
	<path style="fill:none;stroke:red;stroke-width:1px;stroke-linecap:butt;stroke-linejoin:miter;stroke-opacity:1" d="M 385.883,960.198 384.391,978.099 z" id="boundary" inkscape:connector-curvature="0" />
	<path style="fill:none;stroke:red;stroke-width:1px;stroke-linecap:butt;stroke-linejoin:miter;stroke-opacity:1" d="M 376.932,948.265 376.932,933.347 z" id="boundary" inkscape:connector-curvature="0" />
	<path style="fill:none;stroke:red;stroke-width:1px;stroke-linecap:butt;stroke-linejoin:miter;stroke-opacity:1" d="M 376.932,933.347 388.866,921.414 z" id="boundary" inkscape:connector-curvature="0" />
	<path style="fill:none;stroke:red;stroke-width:1px;stroke-linecap:butt;stroke-linejoin:miter;stroke-opacity:1" d="M 388.866,921.414 400.8,909.48 z" id="boundary" inkscape:connector-curvature="0" />
	<path style="fill:none;stroke:red;stroke-width:1px;stroke-linecap:butt;stroke-linejoin:miter;stroke-opacity:1" d="M 412.734,899.038 400.8,909.48 z" id="boundary" inkscape:connector-curvature="0" />
	<path style="fill:none;stroke:red;stroke-width:1px;stroke-linecap:butt;stroke-linejoin:miter;stroke-opacity:1" d="M 412.734,899.038 423.176,887.104 z" id="boundary" inkscape:connector-curvature="0" />
	<path style="fill:none;stroke:red;stroke-width:1px;stroke-linecap:butt;stroke-linejoin:miter;stroke-opacity:1" d="M 429.143,866.22 423.176,887.104 z" id="boundary" inkscape:connector-curvature="0" />
	<path style="fill:none;stroke:red;stroke-width:1px;stroke-linecap:butt;stroke-linejoin:miter;stroke-opacity:1" d="M 396.325,988.541 411.242,982.574 z" id="boundary" inkscape:connector-curvature="0" />
	<path style="fill:none;stroke:red;stroke-width:1px;stroke-linecap:butt;stroke-linejoin:miter;stroke-opacity:1" d="M 411.242,982.574 418.701,996 z" id="boundary" inkscape:connector-curvature="0" />
	<path style="fill:none;stroke:red;stroke-width:1px;stroke-linecap:butt;stroke-linejoin:miter;stroke-opacity:1" d="M 396.325,988.541 384.391,978.099 z" id="boundary" inkscape:connector-curvature="0" />
	<path style="fill:none;stroke:red;stroke-width:1px;stroke-linecap:butt;stroke-linejoin:miter;stroke-opacity:1" d="M 430.635,982.574 418.701,996 z" id="boundary" inkscape:connector-curvature="0" />
	<path style="fill:none;stroke:red;stroke-width:1px;stroke-linecap:butt;stroke-linejoin:miter;stroke-opacity:1" d="M 436.602,843.844 429.143,866.22 z" id="boundary" inkscape:connector-curvature="0" />
	<path style="fill:none;stroke:red;stroke-width:1px;stroke-linecap:butt;stroke-linejoin:miter;stroke-opacity:1" d="M 424.668,711.08 430.635,725.997 z" id="boundary" inkscape:connector-curvature="0" />
	<path style="fill:none;stroke:red;stroke-width:1px;stroke-linecap:butt;stroke-linejoin:miter;stroke-opacity:1" d="M 493.287,639.477 500.746,652.902 z" id="boundary" inkscape:connector-curvature="0" />
	<path style="fill:none;stroke:red;stroke-width:1px;stroke-linecap:butt;stroke-linejoin:miter;stroke-opacity:1" d="M 493.287,639.477 490.304,624.559 z" id="boundary" inkscape:connector-curvature="0" />
	<path style="fill:none;stroke:red;stroke-width:1px;stroke-linecap:butt;stroke-linejoin:miter;stroke-opacity:1" d="M 490.304,624.559 502.238,614.117 z" id="boundary" inkscape:connector-curvature="0" />
	<path style="fill:none;stroke:red;stroke-width:1px;stroke-linecap:butt;stroke-linejoin:miter;stroke-opacity:1" d="M 511.188,664.836 500.746,652.902 z" id="boundary" inkscape:connector-curvature="0" />
	<path style="fill:none;stroke:red;stroke-width:1px;stroke-linecap:butt;stroke-linejoin:miter;stroke-opacity:1" d="M 438.093,739.423 444.06,754.34 z" id="boundary" inkscape:connector-curvature="0" />
	<path style="fill:none;stroke:red;stroke-width:1px;stroke-linecap:butt;stroke-linejoin:miter;stroke-opacity:1" d="M 438.093,739.423 430.635,725.997 z" id="boundary" inkscape:connector-curvature="0" />
	<path style="fill:none;stroke:red;stroke-width:1px;stroke-linecap:butt;stroke-linejoin:miter;stroke-opacity:1" d="M 451.519,767.765 444.06,754.34 z" id="boundary" inkscape:connector-curvature="0" />
	<path style="fill:none;stroke:red;stroke-width:1px;stroke-linecap:butt;stroke-linejoin:miter;stroke-opacity:1" d="M 511.188,664.836 512.68,679.753 z" id="boundary" inkscape:connector-curvature="0" />
	<path style="fill:none;stroke:red;stroke-width:1px;stroke-linecap:butt;stroke-linejoin:miter;stroke-opacity:1" d="M 451.519,767.765 451.519,791.633 z" id="boundary" inkscape:connector-curvature="0" />
	<path style="fill:none;stroke:red;stroke-width:1px;stroke-linecap:butt;stroke-linejoin:miter;stroke-opacity:1" d="M 512.68,679.753 512.68,694.671 z" id="boundary" inkscape:connector-curvature="0" />
	<path style="fill:none;stroke:red;stroke-width:1px;stroke-linecap:butt;stroke-linejoin:miter;stroke-opacity:1" d="M 502.238,614.117 517.155,606.659 z" id="boundary" inkscape:connector-curvature="0" />
	<path style="fill:none;stroke:red;stroke-width:1px;stroke-linecap:butt;stroke-linejoin:miter;stroke-opacity:1" d="M 532.072,599.2 546.989,591.741 z" id="boundary" inkscape:connector-curvature="0" />
	<path style="fill:none;stroke:red;stroke-width:1px;stroke-linecap:butt;stroke-linejoin:miter;stroke-opacity:1" d="M 517.155,606.659 532.072,599.2 z" id="boundary" inkscape:connector-curvature="0" />
	<path style="fill:none;stroke:red;stroke-width:1px;stroke-linecap:butt;stroke-linejoin:miter;stroke-opacity:1" d="M 512.68,724.505 512.68,739.423 z" id="boundary" inkscape:connector-curvature="0" />
	<path style="fill:none;stroke:red;stroke-width:1px;stroke-linecap:butt;stroke-linejoin:miter;stroke-opacity:1" d="M 512.68,724.505 512.68,709.588 z" id="boundary" inkscape:connector-curvature="0" />
	<path style="fill:none;stroke:red;stroke-width:1px;stroke-linecap:butt;stroke-linejoin:miter;stroke-opacity:1" d="M 512.68,754.34 512.68,739.423 z" id="boundary" inkscape:connector-curvature="0" />
	<path style="fill:none;stroke:red;stroke-width:1px;stroke-linecap:butt;stroke-linejoin:miter;stroke-opacity:1" d="M 512.68,709.588 512.68,694.671 z" id="boundary" inkscape:connector-curvature="0" />
	<path style="fill:none;stroke:red;stroke-width:1px;stroke-linecap:butt;stroke-linejoin:miter;stroke-opacity:1" d="M 512.68,754.34 512.68,769.257 z" id="boundary" inkscape:connector-curvature="0" />
	<path style="fill:none;stroke:red;stroke-width:1px;stroke-linecap:butt;stroke-linejoin:miter;stroke-opacity:1" d="M 475.386,878.153 467.928,893.071 z" id="boundary" inkscape:connector-curvature="0" />
	<path style="fill:none;stroke:red;stroke-width:1px;stroke-linecap:butt;stroke-linejoin:miter;stroke-opacity:1" d="M 444.06,828.926 436.602,843.844 z" id="boundary" inkscape:connector-curvature="0" />
	<path style="fill:none;stroke:red;stroke-width:1px;stroke-linecap:butt;stroke-linejoin:miter;stroke-opacity:1" d="M 451.519,791.633 451.519,806.55 z" id="boundary" inkscape:connector-curvature="0" />
	<path style="fill:none;stroke:red;stroke-width:1px;stroke-linecap:butt;stroke-linejoin:miter;stroke-opacity:1" d="M 451.519,806.55 444.06,828.926 z" id="boundary" inkscape:connector-curvature="0" />
	<path style="fill:none;stroke:red;stroke-width:1px;stroke-linecap:butt;stroke-linejoin:miter;stroke-opacity:1" d="M 430.635,982.574 444.06,975.116 z" id="boundary" inkscape:connector-curvature="0" />
	<path style="fill:none;stroke:red;stroke-width:1px;stroke-linecap:butt;stroke-linejoin:miter;stroke-opacity:1" d="M 457.486,967.657 444.06,975.116 z" id="boundary" inkscape:connector-curvature="0" />
	<path style="fill:none;stroke:red;stroke-width:1px;stroke-linecap:butt;stroke-linejoin:miter;stroke-opacity:1" d="M 467.928,907.988 467.928,922.905 z" id="boundary" inkscape:connector-curvature="0" />
	<path style="fill:none;stroke:red;stroke-width:1px;stroke-linecap:butt;stroke-linejoin:miter;stroke-opacity:1" d="M 467.928,907.988 467.928,893.071 z" id="boundary" inkscape:connector-curvature="0" />
	<path style="fill:none;stroke:red;stroke-width:1px;stroke-linecap:butt;stroke-linejoin:miter;stroke-opacity:1" d="M 490.304,840.86 497.762,818.484 z" id="boundary" inkscape:connector-curvature="0" />
	<path style="fill:none;stroke:red;stroke-width:1px;stroke-linecap:butt;stroke-linejoin:miter;stroke-opacity:1" d="M 497.762,818.484 509.696,808.042 z" id="boundary" inkscape:connector-curvature="0" />
	<path style="fill:none;stroke:red;stroke-width:1px;stroke-linecap:butt;stroke-linejoin:miter;stroke-opacity:1" d="M 512.68,769.257 517.155,793.125 z" id="boundary" inkscape:connector-curvature="0" />
	<path style="fill:none;stroke:red;stroke-width:1px;stroke-linecap:butt;stroke-linejoin:miter;stroke-opacity:1" d="M 517.155,793.125 509.696,808.042 z" id="boundary" inkscape:connector-curvature="0" />
	<path style="fill:none;stroke:red;stroke-width:1px;stroke-linecap:butt;stroke-linejoin:miter;stroke-opacity:1" d="M 490.304,840.86 482.845,863.236 z" id="boundary" inkscape:connector-curvature="0" />
	<path style="fill:none;stroke:red;stroke-width:1px;stroke-linecap:butt;stroke-linejoin:miter;stroke-opacity:1" d="M 467.928,922.905 475.386,936.331 z" id="boundary" inkscape:connector-curvature="0" />
	<path style="fill:none;stroke:red;stroke-width:1px;stroke-linecap:butt;stroke-linejoin:miter;stroke-opacity:1" d="M 475.386,936.331 470.911,958.707 z" id="boundary" inkscape:connector-curvature="0" />
	<path style="fill:none;stroke:red;stroke-width:1px;stroke-linecap:butt;stroke-linejoin:miter;stroke-opacity:1" d="M 470.911,958.707 457.486,967.657 z" id="boundary" inkscape:connector-curvature="0" />
	<path style="fill:none;stroke:red;stroke-width:1px;stroke-linecap:butt;stroke-linejoin:miter;stroke-opacity:1" d="M 475.386,878.153 482.845,863.236 z" id="boundary" inkscape:connector-curvature="0" />
	<circle cx="4" cy="97.9789" r="4" fill="#0" id="circle0"/>
	<circle cx="4" cy="112.896" r="4" fill="#0" id="circle1"/>
	<circle cx="15.9338" cy="86.0451" r="4" fill="#0" id="circle2"/>
	<circle cx="15.9338" cy="123.338" r="4" fill="#0" id="circle3"/>
	<circle cx="27.8677" cy="74.1113" r="4" fill="#0" id="circle4"/>
	<circle cx="29.3594" cy="130.797" r="4" fill="#0" id="circle5"/>
	<circle cx="39.8015" cy="63.6692" r="4" fill="#0" id="circle6"/>
	<circle cx="44.2767" cy="132.289" r="4" fill="#0" id="circle7"/>
	<circle cx="53.2271" cy="56.2105" r="4" fill="#0" id="circle8"/>
	<circle cx="59.194" cy="132.289" r="4" fill="#0" id="circle9"/>
	<circle cx="66.6526" cy="48.7519" r="4" fill="#0" id="circle10"/>
	<circle cx="71.1278" cy="396.325" r="4" fill="#0" id="circle11"/>
	<circle cx="71.1278" cy="411.242" r="4" fill="#0" id="circle12"/>
	<circle cx="71.1278" cy="426.159" r="4" fill="#0" id="circle13"/>
	<circle cx="71.1278" cy="441.077" r="4" fill="#0" id="circle14"/>
	<circle cx="74.1113" cy="132.289" r="4" fill="#0" id="circle15"/>
	<circle cx="78.5865" cy="38.3098" r="4" fill="#0" id="circle16"/>
	<circle cx="78.5865" cy="381.408" r="4" fill="#0" id="circle17"/>
	<circle cx="78.5865" cy="454.502" r="4" fill="#0" id="circle18"/>
	<circle cx="78.5865" cy="469.42" r="4" fill="#0" id="circle19"/>
	<circle cx="86.0451" cy="366.49" r="4" fill="#0" id="circle20"/>
	<circle cx="86.0451" cy="482.845" r="4" fill="#0" id="circle21"/>
	<circle cx="86.0451" cy="497.762" r="4" fill="#0" id="circle22"/>
	<circle cx="87.5368" cy="124.83" r="4" fill="#0" id="circle23"/>
	<circle cx="90.5203" cy="26.3759" r="4" fill="#0" id="circle24"/>
	<circle cx="93.5038" cy="511.188" r="4" fill="#0" id="circle25"/>
	<circle cx="93.5038" cy="567.874" r="4" fill="#0" id="circle26"/>
	<circle cx="93.5038" cy="582.791" r="4" fill="#0" id="circle27"/>
	<circle cx="93.5038" cy="597.708" r="4" fill="#0" id="circle28"/>
	<circle cx="96.4872" cy="526.105" r="4" fill="#0" id="circle29"/>
	<circle cx="97.9789" cy="354.556" r="4" fill="#0" id="circle30"/>
	<circle cx="100.962" cy="541.023" r="4" fill="#0" id="circle31"/>
	<circle cx="100.962" cy="611.134" r="4" fill="#0" id="circle32"/>
	<circle cx="100.962" cy="626.051" r="4" fill="#0" id="circle33"/>
	<circle cx="100.962" cy="640.968" r="4" fill="#0" id="circle34"/>
	<circle cx="100.962" cy="655.886" r="4" fill="#0" id="circle35"/>
	<circle cx="100.962" cy="670.803" r="4" fill="#0" id="circle36"/>
	<circle cx="100.962" cy="685.72" r="4" fill="#0" id="circle37"/>
	<circle cx="100.962" cy="700.638" r="4" fill="#0" id="circle38"/>
	<circle cx="102.454" cy="124.83" r="4" fill="#0" id="circle39"/>
	<circle cx="103.946" cy="18.9173" r="4" fill="#0" id="circle40"/>
	<circle cx="108.421" cy="329.197" r="4" fill="#0" id="circle41"/>
	<circle cx="108.421" cy="714.063" r="4" fill="#0" id="circle42"/>
	<circle cx="115.88" cy="8.47519" r="4" fill="#0" id="circle43"/>
	<circle cx="115.88" cy="306.821" r="4" fill="#0" id="circle44"/>
	<circle cx="117.371" cy="124.83" r="4" fill="#0" id="circle45"/>
	<circle cx="123.338" cy="717.047" r="4" fill="#0" id="circle46"/>
	<circle cx="127.814" cy="294.887" r="4" fill="#0" id="circle47"/>
	<circle cx="130.797" cy="4" r="4" fill="#0" id="circle48"/>
	<circle cx="132.289" cy="127.814" r="4" fill="#0" id="circle49"/>
	<circle cx="135.272" cy="279.97" r="4" fill="#0" id="circle50"/>
	<circle cx="135.272" cy="706.605" r="4" fill="#0" id="circle51"/>
	<circle cx="138.256" cy="262.069" r="4" fill="#0" id="circle52"/>
	<circle cx="138.256" cy="888.595" r="4" fill="#0" id="circle53"/>
	<circle cx="142.731" cy="720.03" r="4" fill="#0" id="circle54"/>
	<circle cx="145.714" cy="4" r="4" fill="#0" id="circle55"/>
	<circle cx="145.714" cy="247.152" r="4" fill="#0" id="circle56"/>
	<circle cx="145.714" cy="925.889" r="4" fill="#0" id="circle57"/>
	<circle cx="147.206" cy="132.289" r="4" fill="#0" id="circle58"/>
	<circle cx="147.206" cy="579.808" r="4" fill="#0" id="circle59"/>
	<circle cx="147.206" cy="594.725" r="4" fill="#0" id="circle60"/>
	<circle cx="147.206" cy="609.642" r="4" fill="#0" id="circle61"/>
	<circle cx="147.206" cy="624.559" r="4" fill="#0" id="circle62"/>
	<circle cx="147.206" cy="684.229" r="4" fill="#0" id="circle63"/>
	<circle cx="147.206" cy="900.529" r="4" fill="#0" id="circle64"/>
	<circle cx="150.189" cy="639.477" r="4" fill="#0" id="circle65"/>
	<circle cx="150.189" cy="705.113" r="4" fill="#0" id="circle66"/>
	<circle cx="150.189" cy="876.662" r="4" fill="#0" id="circle67"/>
	<circle cx="153.173" cy="232.235" r="4" fill="#0" id="circle68"/>
	<circle cx="154.665" cy="728.98" r="4" fill="#0" id="circle69"/>
	<circle cx="156.156" cy="144.223" r="4" fill="#0" id="circle70"/>
	<circle cx="160.632" cy="4" r="4" fill="#0" id="circle71"/>
	<circle cx="160.632" cy="217.317" r="4" fill="#0" id="circle72"/>
	<circle cx="160.632" cy="572.349" r="4" fill="#0" id="circle73"/>
	<circle cx="160.632" cy="691.687" r="4" fill="#0" id="circle74"/>
	<circle cx="160.632" cy="925.889" r="4" fill="#0" id="circle75"/>
	<circle cx="162.123" cy="159.14" r="4" fill="#0" id="circle76"/>
	<circle cx="162.123" cy="649.919" r="4" fill="#0" id="circle77"/>
	<circle cx="163.615" cy="869.203" r="4" fill="#0" id="circle78"/>
	<circle cx="168.09" cy="174.057" r="4" fill="#0" id="circle79"/>
	<circle cx="168.09" cy="188.974" r="4" fill="#0" id="circle80"/>
	<circle cx="168.09" cy="203.892" r="4" fill="#0" id="circle81"/>
	<circle cx="168.09" cy="664.836" r="4" fill="#0" id="circle82"/>
	<circle cx="169.582" cy="679.753" r="4" fill="#0" id="circle83"/>
	<circle cx="174.057" cy="579.808" r="4" fill="#0" id="circle84"/>
	<circle cx="175.549" cy="4" r="4" fill="#0" id="circle85"/>
	<circle cx="175.549" cy="694.671" r="4" fill="#0" id="circle86"/>
	<circle cx="175.549" cy="922.905" r="4" fill="#0" id="circle87"/>
	<circle cx="175.549" cy="937.823" r="4" fill="#0" id="circle88"/>
	<circle cx="178.532" cy="869.203" r="4" fill="#0" id="circle89"/>
	<circle cx="180.024" cy="594.725" r="4" fill="#0" id="circle90"/>
	<circle cx="184.499" cy="949.756" r="4" fill="#0" id="circle91"/>
	<circle cx="190.466" cy="4" r="4" fill="#0" id="circle92"/>
	<circle cx="190.466" cy="606.659" r="4" fill="#0" id="circle93"/>
	<circle cx="190.466" cy="717.047" r="4" fill="#0" id="circle94"/>
	<circle cx="191.958" cy="861.744" r="4" fill="#0" id="circle95"/>
	<circle cx="191.958" cy="930.364" r="4" fill="#0" id="circle96"/>
	<circle cx="197.925" cy="687.212" r="4" fill="#0" id="circle97"/>
	<circle cx="197.925" cy="702.129" r="4" fill="#0" id="circle98"/>
	<circle cx="197.925" cy="730.472" r="4" fill="#0" id="circle99"/>
	<circle cx="197.925" cy="745.389" r="4" fill="#0" id="circle100"/>
	<circle cx="202.4" cy="617.101" r="4" fill="#0" id="circle101"/>
	<circle cx="205.383" cy="4" r="4" fill="#0" id="circle102"/>
	<circle cx="205.383" cy="851.302" r="4" fill="#0" id="circle103"/>
	<circle cx="205.383" cy="922.905" r="4" fill="#0" id="circle104"/>
	<circle cx="208.367" cy="757.323" r="4" fill="#0" id="circle105"/>
	<circle cx="209.859" cy="675.278" r="4" fill="#0" id="circle106"/>
	<circle cx="215.826" cy="624.559" r="4" fill="#0" id="circle107"/>
	<circle cx="217.317" cy="839.368" r="4" fill="#0" id="circle108"/>
	<circle cx="218.809" cy="11.4586" r="4" fill="#0" id="circle109"/>
	<circle cx="220.301" cy="746.881" r="4" fill="#0" id="circle110"/>
	<circle cx="220.301" cy="925.889" r="4" fill="#0" id="circle111"/>
	<circle cx="221.792" cy="348.589" r="4" fill="#0" id="circle112"/>
	<circle cx="221.792" cy="663.344" r="4" fill="#0" id="circle113"/>
	<circle cx="227.759" cy="633.51" r="4" fill="#0" id="circle114"/>
	<circle cx="227.759" cy="648.427" r="4" fill="#0" id="circle115"/>
	<circle cx="227.759" cy="910.971" r="4" fill="#0" id="circle116"/>
	<circle cx="229.251" cy="318.755" r="4" fill="#0" id="circle117"/>
	<circle cx="229.251" cy="333.672" r="4" fill="#0" id="circle118"/>
	<circle cx="229.251" cy="362.015" r="4" fill="#0" id="circle119"/>
	<circle cx="229.251" cy="728.98" r="4" fill="#0" id="circle120"/>
	<circle cx="229.251" cy="827.435" r="4" fill="#0" id="circle121"/>
	<circle cx="232.235" cy="18.9173" r="4" fill="#0" id="circle122"/>
	<circle cx="235.218" cy="896.054" r="4" fill="#0" id="circle123"/>
	<circle cx="236.71" cy="296.379" r="4" fill="#0" id="circle124"/>
	<circle cx="241.185" cy="816.992" r="4" fill="#0" id="circle125"/>
	<circle cx="242.677" cy="736.439" r="4" fill="#0" id="circle126"/>
	<circle cx="244.168" cy="281.462" r="4" fill="#0" id="circle127"/>
	<circle cx="244.168" cy="362.015" r="4" fill="#0" id="circle128"/>
	<circle cx="247.152" cy="18.9173" r="4" fill="#0" id="circle129"/>
	<circle cx="247.152" cy="884.12" r="4" fill="#0" id="circle130"/>
	<circle cx="251.627" cy="259.086" r="4" fill="#0" id="circle131"/>
	<circle cx="251.627" cy="805.059" r="4" fill="#0" id="circle132"/>
	<circle cx="254.611" cy="869.203" r="4" fill="#0" id="circle133"/>
	<circle cx="257.594" cy="30.8511" r="4" fill="#0" id="circle134"/>
	<circle cx="257.594" cy="739.423" r="4" fill="#0" id="circle135"/>
	<circle cx="259.086" cy="362.015" r="4" fill="#0" id="circle136"/>
	<circle cx="263.561" cy="248.644" r="4" fill="#0" id="circle137"/>
	<circle cx="263.561" cy="794.617" r="4" fill="#0" id="circle138"/>
	<circle cx="266.544" cy="855.777" r="4" fill="#0" id="circle139"/>
	<circle cx="269.528" cy="41.2932" r="4" fill="#0" id="circle140"/>
	<circle cx="271.02" cy="233.726" r="4" fill="#0" id="circle141"/>
	<circle cx="272.511" cy="736.439" r="4" fill="#0" id="circle142"/>
	<circle cx="272.511" cy="776.716" r="4" fill="#0" id="circle143"/>
	<circle cx="274.003" cy="214.334" r="4" fill="#0" id="circle144"/>
	<circle cx="274.003" cy="362.015" r="4" fill="#0" id="circle145"/>
	<circle cx="274.003" cy="840.86" r="4" fill="#0" id="circle146"/>
	<circle cx="276.986" cy="751.356" r="4" fill="#0" id="circle147"/>
	<circle cx="279.97" cy="53.2271" r="4" fill="#0" id="circle148"/>
	<circle cx="281.462" cy="191.958" r="4" fill="#0" id="circle149"/>
	<circle cx="285.937" cy="830.418" r="4" fill="#0" id="circle150"/>
	<circle cx="287.429" cy="66.6526" r="4" fill="#0" id="circle151"/>
	<circle cx="287.429" cy="354.556" r="4" fill="#0" id="circle152"/>
	<circle cx="288.92" cy="81.5699" r="4" fill="#0" id="circle153"/>
	<circle cx="288.92" cy="169.582" r="4" fill="#0" id="circle154"/>
	<circle cx="293.395" cy="96.4872" r="4" fill="#0" id="circle155"/>
	<circle cx="293.395" cy="815.501" r="4" fill="#0" id="circle156"/>
	<circle cx="296.379" cy="111.405" r="4" fill="#0" id="circle157"/>
	<circle cx="296.379" cy="126.322" r="4" fill="#0" id="circle158"/>
	<circle cx="296.379" cy="141.239" r="4" fill="#0" id="circle159"/>
	<circle cx="296.379" cy="156.156" r="4" fill="#0" id="circle160"/>
	<circle cx="302.346" cy="354.556" r="4" fill="#0" id="circle161"/>
	<circle cx="303.838" cy="796.108" r="4" fill="#0" id="circle162"/>
	<circle cx="317.263" cy="351.573" r="4" fill="#0" id="circle163"/>
	<circle cx="318.755" cy="781.191" r="4" fill="#0" id="circle164"/>
	<circle cx="332.18" cy="347.098" r="4" fill="#0" id="circle165"/>
	<circle cx="332.18" cy="773.732" r="4" fill="#0" id="circle166"/>
	<circle cx="341.131" cy="669.311" r="4" fill="#0" id="circle167"/>
	<circle cx="341.131" cy="684.229" r="4" fill="#0" id="circle168"/>
	<circle cx="341.131" cy="699.146" r="4" fill="#0" id="circle169"/>
	<circle cx="341.131" cy="714.063" r="4" fill="#0" id="circle170"/>
	<circle cx="341.131" cy="728.98" r="4" fill="#0" id="circle171"/>
	<circle cx="341.131" cy="743.898" r="4" fill="#0" id="circle172"/>
	<circle cx="341.131" cy="758.815" r="4" fill="#0" id="circle173"/>
	<circle cx="347.098" cy="347.098" r="4" fill="#0" id="circle174"/>
	<circle cx="348.589" cy="654.394" r="4" fill="#0" id="circle175"/>
	<circle cx="360.523" cy="339.639" r="4" fill="#0" id="circle176"/>
	<circle cx="362.015" cy="646.935" r="4" fill="#0" id="circle177"/>
	<circle cx="375.441" cy="339.639" r="4" fill="#0" id="circle178"/>
	<circle cx="375.441" cy="639.477" r="4" fill="#0" id="circle179"/>
	<circle cx="376.932" cy="933.347" r="4" fill="#0" id="circle180"/>
	<circle cx="376.932" cy="948.265" r="4" fill="#0" id="circle181"/>
	<circle cx="384.391" cy="978.099" r="4" fill="#0" id="circle182"/>
	<circle cx="385.883" cy="960.198" r="4" fill="#0" id="circle183"/>
	<circle cx="388.866" cy="632.018" r="4" fill="#0" id="circle184"/>
	<circle cx="388.866" cy="921.414" r="4" fill="#0" id="circle185"/>
	<circle cx="390.358" cy="339.639" r="4" fill="#0" id="circle186"/>
	<circle cx="391.85" cy="649.919" r="4" fill="#0" id="circle187"/>
	<circle cx="391.85" cy="664.836" r="4" fill="#0" id="circle188"/>
	<circle cx="391.85" cy="679.753" r="4" fill="#0" id="circle189"/>
	<circle cx="396.325" cy="988.541" r="4" fill="#0" id="circle190"/>
	<circle cx="400.8" cy="909.48" r="4" fill="#0" id="circle191"/>
	<circle cx="403.783" cy="690.195" r="4" fill="#0" id="circle192"/>
	<circle cx="405.275" cy="341.131" r="4" fill="#0" id="circle193"/>
	<circle cx="409.75" cy="705.113" r="4" fill="#0" id="circle194"/>
	<circle cx="411.242" cy="982.574" r="4" fill="#0" id="circle195"/>
	<circle cx="412.734" cy="899.038" r="4" fill="#0" id="circle196"/>
	<circle cx="418.701" cy="996" r="4" fill="#0" id="circle197"/>
	<circle cx="420.192" cy="347.098" r="4" fill="#0" id="circle198"/>
	<circle cx="423.176" cy="887.104" r="4" fill="#0" id="circle199"/>
	<circle cx="424.668" cy="711.08" r="4" fill="#0" id="circle200"/>
	<circle cx="429.143" cy="866.22" r="4" fill="#0" id="circle201"/>
	<circle cx="430.635" cy="725.997" r="4" fill="#0" id="circle202"/>
	<circle cx="430.635" cy="982.574" r="4" fill="#0" id="circle203"/>
	<circle cx="435.11" cy="348.589" r="4" fill="#0" id="circle204"/>
	<circle cx="436.602" cy="843.844" r="4" fill="#0" id="circle205"/>
	<circle cx="438.093" cy="739.423" r="4" fill="#0" id="circle206"/>
	<circle cx="444.06" cy="754.34" r="4" fill="#0" id="circle207"/>
	<circle cx="444.06" cy="828.926" r="4" fill="#0" id="circle208"/>
	<circle cx="444.06" cy="975.116" r="4" fill="#0" id="circle209"/>
	<circle cx="450.027" cy="354.556" r="4" fill="#0" id="circle210"/>
	<circle cx="451.519" cy="767.765" r="4" fill="#0" id="circle211"/>
	<circle cx="451.519" cy="791.633" r="4" fill="#0" id="circle212"/>
	<circle cx="451.519" cy="806.55" r="4" fill="#0" id="circle213"/>
	<circle cx="457.486" cy="967.657" r="4" fill="#0" id="circle214"/>
	<circle cx="463.453" cy="362.015" r="4" fill="#0" id="circle215"/>
	<circle cx="467.928" cy="893.071" r="4" fill="#0" id="circle216"/>
	<circle cx="467.928" cy="907.988" r="4" fill="#0" id="circle217"/>
	<circle cx="467.928" cy="922.905" r="4" fill="#0" id="circle218"/>
	<circle cx="470.911" cy="958.707" r="4" fill="#0" id="circle219"/>
	<circle cx="475.386" cy="878.153" r="4" fill="#0" id="circle220"/>
	<circle cx="475.386" cy="936.331" r="4" fill="#0" id="circle221"/>
	<circle cx="476.878" cy="369.474" r="4" fill="#0" id="circle222"/>
	<circle cx="482.845" cy="863.236" r="4" fill="#0" id="circle223"/>
	<circle cx="490.304" cy="376.932" r="4" fill="#0" id="circle224"/>
	<circle cx="490.304" cy="624.559" r="4" fill="#0" id="circle225"/>
	<circle cx="490.304" cy="840.86" r="4" fill="#0" id="circle226"/>
	<circle cx="493.287" cy="639.477" r="4" fill="#0" id="circle227"/>
	<circle cx="497.762" cy="818.484" r="4" fill="#0" id="circle228"/>
	<circle cx="500.746" cy="652.902" r="4" fill="#0" id="circle229"/>
	<circle cx="502.238" cy="385.883" r="4" fill="#0" id="circle230"/>
	<circle cx="502.238" cy="614.117" r="4" fill="#0" id="circle231"/>
	<circle cx="509.696" cy="808.042" r="4" fill="#0" id="circle232"/>
	<circle cx="511.188" cy="664.836" r="4" fill="#0" id="circle233"/>
	<circle cx="512.68" cy="679.753" r="4" fill="#0" id="circle234"/>
	<circle cx="512.68" cy="694.671" r="4" fill="#0" id="circle235"/>
	<circle cx="512.68" cy="709.588" r="4" fill="#0" id="circle236"/>
	<circle cx="512.68" cy="724.505" r="4" fill="#0" id="circle237"/>
	<circle cx="512.68" cy="739.423" r="4" fill="#0" id="circle238"/>
	<circle cx="512.68" cy="754.34" r="4" fill="#0" id="circle239"/>
	<circle cx="512.68" cy="769.257" r="4" fill="#0" id="circle240"/>
	<circle cx="515.663" cy="393.341" r="4" fill="#0" id="circle241"/>
	<circle cx="517.155" cy="606.659" r="4" fill="#0" id="circle242"/>
	<circle cx="517.155" cy="793.125" r="4" fill="#0" id="circle243"/>
	<circle cx="527.597" cy="403.783" r="4" fill="#0" id="circle244"/>
	<circle cx="532.072" cy="599.2" r="4" fill="#0" id="circle245"/>
	<circle cx="539.531" cy="414.226" r="4" fill="#0" id="circle246"/>
	<circle cx="546.989" cy="591.741" r="4" fill="#0" id="circle247"/>
	<circle cx="552.956" cy="421.684" r="4" fill="#0" id="circle248"/>
	<circle cx="561.907" cy="587.266" r="4" fill="#0" id="circle249"/>
	<circle cx="563.398" cy="433.618" r="4" fill="#0" id="circle250"/>
	<circle cx="576.824" cy="587.266" r="4" fill="#0" id="circle251"/>
	<circle cx="578.316" cy="439.585" r="4" fill="#0" id="circle252"/>
	<circle cx="587.266" cy="451.519" r="4" fill="#0" id="circle253"/>
	<circle cx="591.741" cy="587.266" r="4" fill="#0" id="circle254"/>
	<circle cx="600.692" cy="458.977" r="4" fill="#0" id="circle255"/>
	<circle cx="606.659" cy="587.266" r="4" fill="#0" id="circle256"/>
	<circle cx="614.117" cy="466.436" r="4" fill="#0" id="circle257"/>
	<circle cx="620.084" cy="579.808" r="4" fill="#0" id="circle258"/>
	<circle cx="629.035" cy="466.436" r="4" fill="#0" id="circle259"/>
	<circle cx="635.002" cy="579.808" r="4" fill="#0" id="circle260"/>
	<circle cx="643.952" cy="466.436" r="4" fill="#0" id="circle261"/>
	<circle cx="648.427" cy="572.349" r="4" fill="#0" id="circle262"/>
	<circle cx="658.869" cy="466.436" r="4" fill="#0" id="circle263"/>
	<circle cx="663.344" cy="572.349" r="4" fill="#0" id="circle264"/>
	<circle cx="673.786" cy="466.436" r="4" fill="#0" id="circle265"/>
	<circle cx="676.77" cy="564.89" r="4" fill="#0" id="circle266"/>
	<circle cx="687.212" cy="458.977" r="4" fill="#0" id="circle267"/>
	<circle cx="690.195" cy="557.432" r="4" fill="#0" id="circle268"/>
	<circle cx="702.129" cy="458.977" r="4" fill="#0" id="circle269"/>
	<circle cx="702.129" cy="548.481" r="4" fill="#0" id="circle270"/>
	<circle cx="715.555" cy="451.519" r="4" fill="#0" id="circle271"/>
	<circle cx="717.047" cy="541.023" r="4" fill="#0" id="circle272"/>
	<circle cx="727.489" cy="441.077" r="4" fill="#0" id="circle273"/>
	<circle cx="728.98" cy="527.597" r="4" fill="#0" id="circle274"/>
	<circle cx="740.914" cy="517.155" r="4" fill="#0" id="circle275"/>
	<circle cx="742.406" cy="426.159" r="4" fill="#0" id="circle276"/>
	<circle cx="751.356" cy="505.221" r="4" fill="#0" id="circle277"/>
	<circle cx="754.34" cy="414.226" r="4" fill="#0" id="circle278"/>
	<circle cx="758.815" cy="490.304" r="4" fill="#0" id="circle279"/>
	<circle cx="764.782" cy="396.325" r="4" fill="#0" id="circle280"/>
	<circle cx="766.274" cy="467.928" r="4" fill="#0" id="circle281"/>
	<circle cx="772.241" cy="366.49" r="4" fill="#0" id="circle282"/>
	<circle cx="772.241" cy="381.408" r="4" fill="#0" id="circle283"/>
	<circle cx="773.732" cy="445.552" r="4" fill="#0" id="circle284"/>
	<circle cx="781.191" cy="393.341" r="4" fill="#0" id="circle285"/>
	<circle cx="781.191" cy="408.259" r="4" fill="#0" id="circle286"/>
	<circle cx="781.191" cy="423.176" r="4" fill="#0" id="circle287"/>
	<circle cx="784.174" cy="354.556" r="4" fill="#0" id="circle288"/>
	<circle cx="788.65" cy="369.474" r="4" fill="#0" id="circle289"/>
	</g>
</svg>