<?xml version="1.0" encoding="UTF-8" standalone="no"?>
<!-- Created with CurveBenchmark -->
<svg
	xmlns:dc="http://purl.org/dc/elements/1.1/"
	xmlns:cc="http://creativecommons.org/ns#"
	xmlns:rdf="http://www.w3.org/1999/02/22-rdf-syntax-ns#"
	xmlns:svg="http://www.w3.org/2000/svg"
	xmlns="http://www.w3.org/2000/svg"
	xmlns:sodipodi="http://sodipodi.sourceforge.net/DTD/sodipodi-0.dtd"
	xmlns:inkscape="http://www.inkscape.org/namespaces/inkscape"
	width="1000"
	height="1000"
	id="svg2"
	version="1.1"
	sodipodi:docname="manifold/nncrust-brick16.png.txt">
<defs
	id="defs4" />
<metadata
	id="metadata7">
	<rdf:RDF>
		<cc:Work
			rdf:about="">
			<dc:format>image/svg+xml</dc:format>
			<dc:type
				rdf:resource="http://purl.org/dc/dcmitype/StillImage" />
			<dc:title></dc:title>
		</cc:Work>
	</rdf:RDF>
</metadata>
<g
	inkscape:label="Layer 1"
	inkscape:groupmode="layer"
	id="layer1">
	<path style="fill:none;stroke:red;stroke-width:1px;stroke-linecap:butt;stroke-linejoin:miter;stroke-opacity:1" d="M 106.75,37.6271 125.431,32.0226 z" id="boundary" inkscape:connector-curvature="0" />
	<path style="fill:none;stroke:red;stroke-width:1px;stroke-linecap:butt;stroke-linejoin:miter;stroke-opacity:1" d="M 88.0678,46.968 88.0678,65.6497 z" id="boundary" inkscape:connector-curvature="0" />
	<path style="fill:none;stroke:red;stroke-width:1px;stroke-linecap:butt;stroke-linejoin:miter;stroke-opacity:1" d="M 88.0678,46.968 106.75,37.6271 z" id="boundary" inkscape:connector-curvature="0" />
	<path style="fill:none;stroke:red;stroke-width:1px;stroke-linecap:butt;stroke-linejoin:miter;stroke-opacity:1" d="M 198.29,13.3409 181.476,22.6817 z" id="boundary" inkscape:connector-curvature="0" />
	<path style="fill:none;stroke:red;stroke-width:1px;stroke-linecap:butt;stroke-linejoin:miter;stroke-opacity:1" d="M 181.476,22.6817 162.795,22.6817 z" id="boundary" inkscape:connector-curvature="0" />
	<path style="fill:none;stroke:red;stroke-width:1px;stroke-linecap:butt;stroke-linejoin:miter;stroke-opacity:1" d="M 125.431,32.0226 144.113,28.2863 z" id="boundary" inkscape:connector-curvature="0" />
	<path style="fill:none;stroke:red;stroke-width:1px;stroke-linecap:butt;stroke-linejoin:miter;stroke-opacity:1" d="M 144.113,28.2863 162.795,22.6817 z" id="boundary" inkscape:connector-curvature="0" />
	<path style="fill:none;stroke:red;stroke-width:1px;stroke-linecap:butt;stroke-linejoin:miter;stroke-opacity:1" d="M 63.7815,181.476 78.7269,159.058 z" id="boundary" inkscape:connector-curvature="0" />
	<path style="fill:none;stroke:red;stroke-width:1px;stroke-linecap:butt;stroke-linejoin:miter;stroke-opacity:1" d="M 63.7815,181.476 46.968,190.817 z" id="boundary" inkscape:connector-curvature="0" />
	<path style="fill:none;stroke:red;stroke-width:1px;stroke-linecap:butt;stroke-linejoin:miter;stroke-opacity:1" d="M 32.0226,205.763 46.968,190.817 z" id="boundary" inkscape:connector-curvature="0" />
	<path style="fill:none;stroke:red;stroke-width:1px;stroke-linecap:butt;stroke-linejoin:miter;stroke-opacity:1" d="M 88.0678,84.3315 97.4087,101.145 z" id="boundary" inkscape:connector-curvature="0" />
	<path style="fill:none;stroke:red;stroke-width:1px;stroke-linecap:butt;stroke-linejoin:miter;stroke-opacity:1" d="M 97.4087,101.145 97.4087,119.827 z" id="boundary" inkscape:connector-curvature="0" />
	<path style="fill:none;stroke:red;stroke-width:1px;stroke-linecap:butt;stroke-linejoin:miter;stroke-opacity:1" d="M 88.0678,84.3315 88.0678,65.6497 z" id="boundary" inkscape:connector-curvature="0" />
	<path style="fill:none;stroke:red;stroke-width:1px;stroke-linecap:butt;stroke-linejoin:miter;stroke-opacity:1" d="M 93.6723,144.113 97.4087,119.827 z" id="boundary" inkscape:connector-curvature="0" />
	<path style="fill:none;stroke:red;stroke-width:1px;stroke-linecap:butt;stroke-linejoin:miter;stroke-opacity:1" d="M 93.6723,144.113 78.7269,159.058 z" id="boundary" inkscape:connector-curvature="0" />
	<path style="fill:none;stroke:red;stroke-width:1px;stroke-linecap:butt;stroke-linejoin:miter;stroke-opacity:1" d="M 198.29,13.3409 216.972,13.3409 z" id="boundary" inkscape:connector-curvature="0" />
	<path style="fill:none;stroke:red;stroke-width:1px;stroke-linecap:butt;stroke-linejoin:miter;stroke-opacity:1" d="M 216.972,13.3409 233.785,4 z" id="boundary" inkscape:connector-curvature="0" />
	<path style="fill:none;stroke:red;stroke-width:1px;stroke-linecap:butt;stroke-linejoin:miter;stroke-opacity:1" d="M 233.785,4 250.599,13.3409 z" id="boundary" inkscape:connector-curvature="0" />
	<path style="fill:none;stroke:red;stroke-width:1px;stroke-linecap:butt;stroke-linejoin:miter;stroke-opacity:1" d="M 250.599,13.3409 265.544,26.4181 z" id="boundary" inkscape:connector-curvature="0" />
	<path style="fill:none;stroke:red;stroke-width:1px;stroke-linecap:butt;stroke-linejoin:miter;stroke-opacity:1" d="M 282.358,35.7589 265.544,26.4181 z" id="boundary" inkscape:connector-curvature="0" />
	<path style="fill:none;stroke:red;stroke-width:1px;stroke-linecap:butt;stroke-linejoin:miter;stroke-opacity:1" d="M 282.358,35.7589 295.435,50.7043 z" id="boundary" inkscape:connector-curvature="0" />
	<path style="fill:none;stroke:red;stroke-width:1px;stroke-linecap:butt;stroke-linejoin:miter;stroke-opacity:1" d="M 312.249,60.0452 295.435,50.7043 z" id="boundary" inkscape:connector-curvature="0" />
	<path style="fill:none;stroke:red;stroke-width:1px;stroke-linecap:butt;stroke-linejoin:miter;stroke-opacity:1" d="M 312.249,60.0452 323.458,74.9906 z" id="boundary" inkscape:connector-curvature="0" />
	<path style="fill:none;stroke:red;stroke-width:1px;stroke-linecap:butt;stroke-linejoin:miter;stroke-opacity:1" d="M 323.458,74.9906 338.403,88.0678 z" id="boundary" inkscape:connector-curvature="0" />
	<path style="fill:none;stroke:red;stroke-width:1px;stroke-linecap:butt;stroke-linejoin:miter;stroke-opacity:1" d="M 357.085,88.0678 338.403,88.0678 z" id="boundary" inkscape:connector-curvature="0" />
	<path style="fill:none;stroke:red;stroke-width:1px;stroke-linecap:butt;stroke-linejoin:miter;stroke-opacity:1" d="M 357.085,88.0678 375.766,88.0678 z" id="boundary" inkscape:connector-curvature="0" />
	<path style="fill:none;stroke:red;stroke-width:1px;stroke-linecap:butt;stroke-linejoin:miter;stroke-opacity:1" d="M 394.448,88.0678 375.766,88.0678 z" id="boundary" inkscape:connector-curvature="0" />
	<path style="fill:none;stroke:red;stroke-width:1px;stroke-linecap:butt;stroke-linejoin:miter;stroke-opacity:1" d="M 431.812,88.0678 413.13,88.0678 z" id="boundary" inkscape:connector-curvature="0" />
	<path style="fill:none;stroke:red;stroke-width:1px;stroke-linecap:butt;stroke-linejoin:miter;stroke-opacity:1" d="M 413.13,88.0678 394.448,88.0678 z" id="boundary" inkscape:connector-curvature="0" />
	<path style="fill:none;stroke:red;stroke-width:1px;stroke-linecap:butt;stroke-linejoin:miter;stroke-opacity:1" d="M 450.493,88.0678 431.812,88.0678 z" id="boundary" inkscape:connector-curvature="0" />
	<path style="fill:none;stroke:red;stroke-width:1px;stroke-linecap:butt;stroke-linejoin:miter;stroke-opacity:1" d="M 469.175,88.0678 450.493,88.0678 z" id="boundary" inkscape:connector-curvature="0" />
	<path style="fill:none;stroke:red;stroke-width:1px;stroke-linecap:butt;stroke-linejoin:miter;stroke-opacity:1" d="M 485.989,78.7269 469.175,88.0678 z" id="boundary" inkscape:connector-curvature="0" />
	<path style="fill:none;stroke:red;stroke-width:1px;stroke-linecap:butt;stroke-linejoin:miter;stroke-opacity:1" d="M 4,261.808 4,243.126 z" id="boundary" inkscape:connector-curvature="0" />
	<path style="fill:none;stroke:red;stroke-width:1px;stroke-linecap:butt;stroke-linejoin:miter;stroke-opacity:1" d="M 4,243.126 18.9454,228.181 z" id="boundary" inkscape:connector-curvature="0" />
	<path style="fill:none;stroke:red;stroke-width:1px;stroke-linecap:butt;stroke-linejoin:miter;stroke-opacity:1" d="M 4,299.171 4,280.49 z" id="boundary" inkscape:connector-curvature="0" />
	<path style="fill:none;stroke:red;stroke-width:1px;stroke-linecap:butt;stroke-linejoin:miter;stroke-opacity:1" d="M 4,280.49 4,261.808 z" id="boundary" inkscape:connector-curvature="0" />
	<path style="fill:none;stroke:red;stroke-width:1px;stroke-linecap:butt;stroke-linejoin:miter;stroke-opacity:1" d="M 144.113,308.512 125.431,314.117 z" id="boundary" inkscape:connector-curvature="0" />
	<path style="fill:none;stroke:red;stroke-width:1px;stroke-linecap:butt;stroke-linejoin:miter;stroke-opacity:1" d="M 162.795,304.776 144.113,308.512 z" id="boundary" inkscape:connector-curvature="0" />
	<path style="fill:none;stroke:red;stroke-width:1px;stroke-linecap:butt;stroke-linejoin:miter;stroke-opacity:1" d="M 162.795,304.776 181.476,304.776 z" id="boundary" inkscape:connector-curvature="0" />
	<path style="fill:none;stroke:red;stroke-width:1px;stroke-linecap:butt;stroke-linejoin:miter;stroke-opacity:1" d="M 181.476,304.776 198.29,314.117 z" id="boundary" inkscape:connector-curvature="0" />
	<path style="fill:none;stroke:red;stroke-width:1px;stroke-linecap:butt;stroke-linejoin:miter;stroke-opacity:1" d="M 32.0226,205.763 18.9454,228.181 z" id="boundary" inkscape:connector-curvature="0" />
	<path style="fill:none;stroke:red;stroke-width:1px;stroke-linecap:butt;stroke-linejoin:miter;stroke-opacity:1" d="M 125.431,314.117 106.75,317.853 z" id="boundary" inkscape:connector-curvature="0" />
	<path style="fill:none;stroke:red;stroke-width:1px;stroke-linecap:butt;stroke-linejoin:miter;stroke-opacity:1" d="M 13.3409,315.985 4,299.171 z" id="boundary" inkscape:connector-curvature="0" />
	<path style="fill:none;stroke:red;stroke-width:1px;stroke-linecap:butt;stroke-linejoin:miter;stroke-opacity:1" d="M 32.0226,323.458 13.3409,315.985 z" id="boundary" inkscape:connector-curvature="0" />
	<path style="fill:none;stroke:red;stroke-width:1px;stroke-linecap:butt;stroke-linejoin:miter;stroke-opacity:1" d="M 50.7043,323.458 69.3861,323.458 z" id="boundary" inkscape:connector-curvature="0" />
	<path style="fill:none;stroke:red;stroke-width:1px;stroke-linecap:butt;stroke-linejoin:miter;stroke-opacity:1" d="M 50.7043,323.458 32.0226,323.458 z" id="boundary" inkscape:connector-curvature="0" />
	<path style="fill:none;stroke:red;stroke-width:1px;stroke-linecap:butt;stroke-linejoin:miter;stroke-opacity:1" d="M 88.0678,323.458 106.75,317.853 z" id="boundary" inkscape:connector-curvature="0" />
	<path style="fill:none;stroke:red;stroke-width:1px;stroke-linecap:butt;stroke-linejoin:miter;stroke-opacity:1" d="M 88.0678,323.458 69.3861,323.458 z" id="boundary" inkscape:connector-curvature="0" />
	<path style="fill:none;stroke:red;stroke-width:1px;stroke-linecap:butt;stroke-linejoin:miter;stroke-opacity:1" d="M 198.29,314.117 211.367,329.062 z" id="boundary" inkscape:connector-curvature="0" />
	<path style="fill:none;stroke:red;stroke-width:1px;stroke-linecap:butt;stroke-linejoin:miter;stroke-opacity:1" d="M 211.367,329.062 226.313,342.139 z" id="boundary" inkscape:connector-curvature="0" />
	<path style="fill:none;stroke:red;stroke-width:1px;stroke-linecap:butt;stroke-linejoin:miter;stroke-opacity:1" d="M 243.126,351.48 261.808,351.48 z" id="boundary" inkscape:connector-curvature="0" />
	<path style="fill:none;stroke:red;stroke-width:1px;stroke-linecap:butt;stroke-linejoin:miter;stroke-opacity:1" d="M 261.808,351.48 280.49,358.953 z" id="boundary" inkscape:connector-curvature="0" />
	<path style="fill:none;stroke:red;stroke-width:1px;stroke-linecap:butt;stroke-linejoin:miter;stroke-opacity:1" d="M 243.126,351.48 226.313,342.139 z" id="boundary" inkscape:connector-curvature="0" />
	<path style="fill:none;stroke:red;stroke-width:1px;stroke-linecap:butt;stroke-linejoin:miter;stroke-opacity:1" d="M 280.49,358.953 299.171,360.821 z" id="boundary" inkscape:connector-curvature="0" />
	<path style="fill:none;stroke:red;stroke-width:1px;stroke-linecap:butt;stroke-linejoin:miter;stroke-opacity:1" d="M 317.853,360.821 336.535,360.821 z" id="boundary" inkscape:connector-curvature="0" />
	<path style="fill:none;stroke:red;stroke-width:1px;stroke-linecap:butt;stroke-linejoin:miter;stroke-opacity:1" d="M 336.535,360.821 353.348,370.162 z" id="boundary" inkscape:connector-curvature="0" />
	<path style="fill:none;stroke:red;stroke-width:1px;stroke-linecap:butt;stroke-linejoin:miter;stroke-opacity:1" d="M 317.853,360.821 299.171,360.821 z" id="boundary" inkscape:connector-curvature="0" />
	<path style="fill:none;stroke:red;stroke-width:1px;stroke-linecap:butt;stroke-linejoin:miter;stroke-opacity:1" d="M 353.348,370.162 372.03,370.162 z" id="boundary" inkscape:connector-curvature="0" />
	<path style="fill:none;stroke:red;stroke-width:1px;stroke-linecap:butt;stroke-linejoin:miter;stroke-opacity:1" d="M 390.712,370.162 409.394,370.162 z" id="boundary" inkscape:connector-curvature="0" />
	<path style="fill:none;stroke:red;stroke-width:1px;stroke-linecap:butt;stroke-linejoin:miter;stroke-opacity:1" d="M 390.712,370.162 372.03,370.162 z" id="boundary" inkscape:connector-curvature="0" />
	<path style="fill:none;stroke:red;stroke-width:1px;stroke-linecap:butt;stroke-linejoin:miter;stroke-opacity:1" d="M 463.571,360.821 482.252,360.821 z" id="boundary" inkscape:connector-curvature="0" />
	<path style="fill:none;stroke:red;stroke-width:1px;stroke-linecap:butt;stroke-linejoin:miter;stroke-opacity:1" d="M 446.757,370.162 463.571,360.821 z" id="boundary" inkscape:connector-curvature="0" />
	<path style="fill:none;stroke:red;stroke-width:1px;stroke-linecap:butt;stroke-linejoin:miter;stroke-opacity:1" d="M 446.757,370.162 428.075,370.162 z" id="boundary" inkscape:connector-curvature="0" />
	<path style="fill:none;stroke:red;stroke-width:1px;stroke-linecap:butt;stroke-linejoin:miter;stroke-opacity:1" d="M 482.252,360.821 500.934,360.821 z" id="boundary" inkscape:connector-curvature="0" />
	<path style="fill:none;stroke:red;stroke-width:1px;stroke-linecap:butt;stroke-linejoin:miter;stroke-opacity:1" d="M 428.075,370.162 409.394,370.162 z" id="boundary" inkscape:connector-curvature="0" />
	<path style="fill:none;stroke:red;stroke-width:1px;stroke-linecap:butt;stroke-linejoin:miter;stroke-opacity:1" d="M 517.748,351.48 500.934,360.821 z" id="boundary" inkscape:connector-curvature="0" />
	<path style="fill:none;stroke:red;stroke-width:1px;stroke-linecap:butt;stroke-linejoin:miter;stroke-opacity:1" d="M 485.989,78.7269 504.67,78.7269 z" id="boundary" inkscape:connector-curvature="0" />
	<path style="fill:none;stroke:red;stroke-width:1px;stroke-linecap:butt;stroke-linejoin:miter;stroke-opacity:1" d="M 611.156,50.7043 629.838,50.7043 z" id="boundary" inkscape:connector-curvature="0" />
	<path style="fill:none;stroke:red;stroke-width:1px;stroke-linecap:butt;stroke-linejoin:miter;stroke-opacity:1" d="M 594.343,60.0452 611.156,50.7043 z" id="boundary" inkscape:connector-curvature="0" />
	<path style="fill:none;stroke:red;stroke-width:1px;stroke-linecap:butt;stroke-linejoin:miter;stroke-opacity:1" d="M 575.661,60.0452 594.343,60.0452 z" id="boundary" inkscape:connector-curvature="0" />
	<path style="fill:none;stroke:red;stroke-width:1px;stroke-linecap:butt;stroke-linejoin:miter;stroke-opacity:1" d="M 558.847,69.3861 575.661,60.0452 z" id="boundary" inkscape:connector-curvature="0" />
	<path style="fill:none;stroke:red;stroke-width:1px;stroke-linecap:butt;stroke-linejoin:miter;stroke-opacity:1" d="M 629.838,50.7043 648.52,50.7043 z" id="boundary" inkscape:connector-curvature="0" />
	<path style="fill:none;stroke:red;stroke-width:1px;stroke-linecap:butt;stroke-linejoin:miter;stroke-opacity:1" d="M 648.52,50.7043 667.202,50.7043 z" id="boundary" inkscape:connector-curvature="0" />
	<path style="fill:none;stroke:red;stroke-width:1px;stroke-linecap:butt;stroke-linejoin:miter;stroke-opacity:1" d="M 685.883,50.7043 702.697,60.0452 z" id="boundary" inkscape:connector-curvature="0" />
	<path style="fill:none;stroke:red;stroke-width:1px;stroke-linecap:butt;stroke-linejoin:miter;stroke-opacity:1" d="M 667.202,50.7043 685.883,50.7043 z" id="boundary" inkscape:connector-curvature="0" />
	<path style="fill:none;stroke:red;stroke-width:1px;stroke-linecap:butt;stroke-linejoin:miter;stroke-opacity:1" d="M 719.51,69.3861 702.697,60.0452 z" id="boundary" inkscape:connector-curvature="0" />
	<path style="fill:none;stroke:red;stroke-width:1px;stroke-linecap:butt;stroke-linejoin:miter;stroke-opacity:1" d="M 540.166,69.3861 558.847,69.3861 z" id="boundary" inkscape:connector-curvature="0" />
	<path style="fill:none;stroke:red;stroke-width:1px;stroke-linecap:butt;stroke-linejoin:miter;stroke-opacity:1" d="M 523.352,78.7269 540.166,69.3861 z" id="boundary" inkscape:connector-curvature="0" />
	<path style="fill:none;stroke:red;stroke-width:1px;stroke-linecap:butt;stroke-linejoin:miter;stroke-opacity:1" d="M 523.352,78.7269 504.67,78.7269 z" id="boundary" inkscape:connector-curvature="0" />
	<path style="fill:none;stroke:red;stroke-width:1px;stroke-linecap:butt;stroke-linejoin:miter;stroke-opacity:1" d="M 719.51,69.3861 736.324,78.7269 z" id="boundary" inkscape:connector-curvature="0" />
	<path style="fill:none;stroke:red;stroke-width:1px;stroke-linecap:butt;stroke-linejoin:miter;stroke-opacity:1" d="M 736.324,78.7269 753.137,88.0678 z" id="boundary" inkscape:connector-curvature="0" />
	<path style="fill:none;stroke:red;stroke-width:1px;stroke-linecap:butt;stroke-linejoin:miter;stroke-opacity:1" d="M 771.819,93.6723 753.137,88.0678 z" id="boundary" inkscape:connector-curvature="0" />
	<path style="fill:none;stroke:red;stroke-width:1px;stroke-linecap:butt;stroke-linejoin:miter;stroke-opacity:1" d="M 771.819,93.6723 788.633,103.013 z" id="boundary" inkscape:connector-curvature="0" />
	<path style="fill:none;stroke:red;stroke-width:1px;stroke-linecap:butt;stroke-linejoin:miter;stroke-opacity:1" d="M 788.633,103.013 803.578,116.09 z" id="boundary" inkscape:connector-curvature="0" />
	<path style="fill:none;stroke:red;stroke-width:1px;stroke-linecap:butt;stroke-linejoin:miter;stroke-opacity:1" d="M 822.26,116.09 803.578,116.09 z" id="boundary" inkscape:connector-curvature="0" />
	<path style="fill:none;stroke:red;stroke-width:1px;stroke-linecap:butt;stroke-linejoin:miter;stroke-opacity:1" d="M 822.26,116.09 840.942,116.09 z" id="boundary" inkscape:connector-curvature="0" />
	<path style="fill:none;stroke:red;stroke-width:1px;stroke-linecap:butt;stroke-linejoin:miter;stroke-opacity:1" d="M 876.437,106.75 893.25,97.4087 z" id="boundary" inkscape:connector-curvature="0" />
	<path style="fill:none;stroke:red;stroke-width:1px;stroke-linecap:butt;stroke-linejoin:miter;stroke-opacity:1" d="M 893.25,97.4087 910.064,106.75 z" id="boundary" inkscape:connector-curvature="0" />
	<path style="fill:none;stroke:red;stroke-width:1px;stroke-linecap:butt;stroke-linejoin:miter;stroke-opacity:1" d="M 859.623,116.09 876.437,106.75 z" id="boundary" inkscape:connector-curvature="0" />
	<path style="fill:none;stroke:red;stroke-width:1px;stroke-linecap:butt;stroke-linejoin:miter;stroke-opacity:1" d="M 928.746,106.75 910.064,106.75 z" id="boundary" inkscape:connector-curvature="0" />
	<path style="fill:none;stroke:red;stroke-width:1px;stroke-linecap:butt;stroke-linejoin:miter;stroke-opacity:1" d="M 859.623,116.09 840.942,116.09 z" id="boundary" inkscape:connector-curvature="0" />
	<path style="fill:none;stroke:red;stroke-width:1px;stroke-linecap:butt;stroke-linejoin:miter;stroke-opacity:1" d="M 928.746,106.75 945.559,116.09 z" id="boundary" inkscape:connector-curvature="0" />
	<path style="fill:none;stroke:red;stroke-width:1px;stroke-linecap:butt;stroke-linejoin:miter;stroke-opacity:1" d="M 977.318,211.367 967.977,230.049 z" id="boundary" inkscape:connector-curvature="0" />
	<path style="fill:none;stroke:red;stroke-width:1px;stroke-linecap:butt;stroke-linejoin:miter;stroke-opacity:1" d="M 945.559,116.09 962.373,125.431 z" id="boundary" inkscape:connector-curvature="0" />
	<path style="fill:none;stroke:red;stroke-width:1px;stroke-linecap:butt;stroke-linejoin:miter;stroke-opacity:1" d="M 979.186,134.772 994.132,147.849 z" id="boundary" inkscape:connector-curvature="0" />
	<path style="fill:none;stroke:red;stroke-width:1px;stroke-linecap:butt;stroke-linejoin:miter;stroke-opacity:1" d="M 994.132,147.849 996,166.531 z" id="boundary" inkscape:connector-curvature="0" />
	<path style="fill:none;stroke:red;stroke-width:1px;stroke-linecap:butt;stroke-linejoin:miter;stroke-opacity:1" d="M 996,166.531 992.264,198.29 z" id="boundary" inkscape:connector-curvature="0" />
	<path style="fill:none;stroke:red;stroke-width:1px;stroke-linecap:butt;stroke-linejoin:miter;stroke-opacity:1" d="M 992.264,198.29 977.318,211.367 z" id="boundary" inkscape:connector-curvature="0" />
	<path style="fill:none;stroke:red;stroke-width:1px;stroke-linecap:butt;stroke-linejoin:miter;stroke-opacity:1" d="M 962.373,125.431 979.186,134.772 z" id="boundary" inkscape:connector-curvature="0" />
	<path style="fill:none;stroke:red;stroke-width:1px;stroke-linecap:butt;stroke-linejoin:miter;stroke-opacity:1" d="M 967.977,230.049 954.9,244.994 z" id="boundary" inkscape:connector-curvature="0" />
	<path style="fill:none;stroke:red;stroke-width:1px;stroke-linecap:butt;stroke-linejoin:miter;stroke-opacity:1" d="M 573.793,342.139 592.475,336.535 z" id="boundary" inkscape:connector-curvature="0" />
	<path style="fill:none;stroke:red;stroke-width:1px;stroke-linecap:butt;stroke-linejoin:miter;stroke-opacity:1" d="M 611.156,332.798 592.475,336.535 z" id="boundary" inkscape:connector-curvature="0" />
	<path style="fill:none;stroke:red;stroke-width:1px;stroke-linecap:butt;stroke-linejoin:miter;stroke-opacity:1" d="M 536.429,351.48 555.111,345.876 z" id="boundary" inkscape:connector-curvature="0" />
	<path style="fill:none;stroke:red;stroke-width:1px;stroke-linecap:butt;stroke-linejoin:miter;stroke-opacity:1" d="M 555.111,345.876 573.793,342.139 z" id="boundary" inkscape:connector-curvature="0" />
	<path style="fill:none;stroke:red;stroke-width:1px;stroke-linecap:butt;stroke-linejoin:miter;stroke-opacity:1" d="M 611.156,332.798 629.838,332.798 z" id="boundary" inkscape:connector-curvature="0" />
	<path style="fill:none;stroke:red;stroke-width:1px;stroke-linecap:butt;stroke-linejoin:miter;stroke-opacity:1" d="M 629.838,332.798 648.52,332.798 z" id="boundary" inkscape:connector-curvature="0" />
	<path style="fill:none;stroke:red;stroke-width:1px;stroke-linecap:butt;stroke-linejoin:miter;stroke-opacity:1" d="M 667.202,332.798 684.015,342.139 z" id="boundary" inkscape:connector-curvature="0" />
	<path style="fill:none;stroke:red;stroke-width:1px;stroke-linecap:butt;stroke-linejoin:miter;stroke-opacity:1" d="M 648.52,332.798 667.202,332.798 z" id="boundary" inkscape:connector-curvature="0" />
	<path style="fill:none;stroke:red;stroke-width:1px;stroke-linecap:butt;stroke-linejoin:miter;stroke-opacity:1" d="M 700.829,351.48 684.015,342.139 z" id="boundary" inkscape:connector-curvature="0" />
	<path style="fill:none;stroke:red;stroke-width:1px;stroke-linecap:butt;stroke-linejoin:miter;stroke-opacity:1" d="M 536.429,351.48 517.748,351.48 z" id="boundary" inkscape:connector-curvature="0" />
	<path style="fill:none;stroke:red;stroke-width:1px;stroke-linecap:butt;stroke-linejoin:miter;stroke-opacity:1" d="M 715.774,364.557 700.829,351.48 z" id="boundary" inkscape:connector-curvature="0" />
	<path style="fill:none;stroke:red;stroke-width:1px;stroke-linecap:butt;stroke-linejoin:miter;stroke-opacity:1" d="M 732.588,373.898 715.774,364.557 z" id="boundary" inkscape:connector-curvature="0" />
	<path style="fill:none;stroke:red;stroke-width:1px;stroke-linecap:butt;stroke-linejoin:miter;stroke-opacity:1" d="M 732.588,373.898 747.533,386.976 z" id="boundary" inkscape:connector-curvature="0" />
	<path style="fill:none;stroke:red;stroke-width:1px;stroke-linecap:butt;stroke-linejoin:miter;stroke-opacity:1" d="M 766.215,388.844 747.533,386.976 z" id="boundary" inkscape:connector-curvature="0" />
	<path style="fill:none;stroke:red;stroke-width:1px;stroke-linecap:butt;stroke-linejoin:miter;stroke-opacity:1" d="M 766.215,388.844 784.896,396.316 z" id="boundary" inkscape:connector-curvature="0" />
	<path style="fill:none;stroke:red;stroke-width:1px;stroke-linecap:butt;stroke-linejoin:miter;stroke-opacity:1" d="M 803.578,398.185 784.896,396.316 z" id="boundary" inkscape:connector-curvature="0" />
	<path style="fill:none;stroke:red;stroke-width:1px;stroke-linecap:butt;stroke-linejoin:miter;stroke-opacity:1" d="M 911.932,295.435 926.878,282.358 z" id="boundary" inkscape:connector-curvature="0" />
	<path style="fill:none;stroke:red;stroke-width:1px;stroke-linecap:butt;stroke-linejoin:miter;stroke-opacity:1" d="M 921.273,312.249 911.932,295.435 z" id="boundary" inkscape:connector-curvature="0" />
	<path style="fill:none;stroke:red;stroke-width:1px;stroke-linecap:butt;stroke-linejoin:miter;stroke-opacity:1" d="M 939.955,258.072 926.878,282.358 z" id="boundary" inkscape:connector-curvature="0" />
	<path style="fill:none;stroke:red;stroke-width:1px;stroke-linecap:butt;stroke-linejoin:miter;stroke-opacity:1" d="M 921.273,312.249 930.614,329.062 z" id="boundary" inkscape:connector-curvature="0" />
	<path style="fill:none;stroke:red;stroke-width:1px;stroke-linecap:butt;stroke-linejoin:miter;stroke-opacity:1" d="M 939.955,345.876 930.614,329.062 z" id="boundary" inkscape:connector-curvature="0" />
	<path style="fill:none;stroke:red;stroke-width:1px;stroke-linecap:butt;stroke-linejoin:miter;stroke-opacity:1" d="M 947.427,364.557 939.955,345.876 z" id="boundary" inkscape:connector-curvature="0" />
	<path style="fill:none;stroke:red;stroke-width:1px;stroke-linecap:butt;stroke-linejoin:miter;stroke-opacity:1" d="M 939.955,258.072 954.9,244.994 z" id="boundary" inkscape:connector-curvature="0" />
	<path style="fill:none;stroke:red;stroke-width:1px;stroke-linecap:butt;stroke-linejoin:miter;stroke-opacity:1" d="M 803.578,398.185 822.26,405.657 z" id="boundary" inkscape:connector-curvature="0" />
	<path style="fill:none;stroke:red;stroke-width:1px;stroke-linecap:butt;stroke-linejoin:miter;stroke-opacity:1" d="M 840.942,407.525 822.26,405.657 z" id="boundary" inkscape:connector-curvature="0" />
	<path style="fill:none;stroke:red;stroke-width:1px;stroke-linecap:butt;stroke-linejoin:miter;stroke-opacity:1" d="M 859.623,407.525 840.942,407.525 z" id="boundary" inkscape:connector-curvature="0" />
	<path style="fill:none;stroke:red;stroke-width:1px;stroke-linecap:butt;stroke-linejoin:miter;stroke-opacity:1" d="M 896.987,407.525 878.305,407.525 z" id="boundary" inkscape:connector-curvature="0" />
	<path style="fill:none;stroke:red;stroke-width:1px;stroke-linecap:butt;stroke-linejoin:miter;stroke-opacity:1" d="M 878.305,407.525 859.623,407.525 z" id="boundary" inkscape:connector-curvature="0" />
	<path style="fill:none;stroke:red;stroke-width:1px;stroke-linecap:butt;stroke-linejoin:miter;stroke-opacity:1" d="M 915.669,407.525 896.987,407.525 z" id="boundary" inkscape:connector-curvature="0" />
	<path style="fill:none;stroke:red;stroke-width:1px;stroke-linecap:butt;stroke-linejoin:miter;stroke-opacity:1" d="M 934.35,407.525 915.669,407.525 z" id="boundary" inkscape:connector-curvature="0" />
	<path style="fill:none;stroke:red;stroke-width:1px;stroke-linecap:butt;stroke-linejoin:miter;stroke-opacity:1" d="M 949.296,383.239 934.35,407.525 z" id="boundary" inkscape:connector-curvature="0" />
	<path style="fill:none;stroke:red;stroke-width:1px;stroke-linecap:butt;stroke-linejoin:miter;stroke-opacity:1" d="M 947.427,364.557 949.296,383.239 z" id="boundary" inkscape:connector-curvature="0" />
	<circle cx="4" cy="243.126" r="4" fill="#0" id="circle0"/>
	<circle cx="4" cy="261.808" r="4" fill="#0" id="circle1"/>
	<circle cx="4" cy="280.49" r="4" fill="#0" id="circle2"/>
	<circle cx="4" cy="299.171" r="4" fill="#0" id="circle3"/>
	<circle cx="13.3409" cy="315.985" r="4" fill="#0" id="circle4"/>
	<circle cx="18.9454" cy="228.181" r="4" fill="#0" id="circle5"/>
	<circle cx="32.0226" cy="205.763" r="4" fill="#0" id="circle6"/>
	<circle cx="32.0226" cy="323.458" r="4" fill="#0" id="circle7"/>
	<circle cx="46.968" cy="190.817" r="4" fill="#0" id="circle8"/>
	<circle cx="50.7043" cy="323.458" r="4" fill="#0" id="circle9"/>
	<circle cx="63.7815" cy="181.476" r="4" fill="#0" id="circle10"/>
	<circle cx="69.3861" cy="323.458" r="4" fill="#0" id="circle11"/>
	<circle cx="78.7269" cy="159.058" r="4" fill="#0" id="circle12"/>
	<circle cx="88.0678" cy="46.968" r="4" fill="#0" id="circle13"/>
	<circle cx="88.0678" cy="65.6497" r="4" fill="#0" id="circle14"/>
	<circle cx="88.0678" cy="84.3315" r="4" fill="#0" id="circle15"/>
	<circle cx="88.0678" cy="323.458" r="4" fill="#0" id="circle16"/>
	<circle cx="93.6723" cy="144.113" r="4" fill="#0" id="circle17"/>
	<circle cx="97.4087" cy="101.145" r="4" fill="#0" id="circle18"/>
	<circle cx="97.4087" cy="119.827" r="4" fill="#0" id="circle19"/>
	<circle cx="106.75" cy="37.6271" r="4" fill="#0" id="circle20"/>
	<circle cx="106.75" cy="317.853" r="4" fill="#0" id="circle21"/>
	<circle cx="125.431" cy="32.0226" r="4" fill="#0" id="circle22"/>
	<circle cx="125.431" cy="314.117" r="4" fill="#0" id="circle23"/>
	<circle cx="144.113" cy="28.2863" r="4" fill="#0" id="circle24"/>
	<circle cx="144.113" cy="308.512" r="4" fill="#0" id="circle25"/>
	<circle cx="162.795" cy="22.6817" r="4" fill="#0" id="circle26"/>
	<circle cx="162.795" cy="304.776" r="4" fill="#0" id="circle27"/>
	<circle cx="181.476" cy="22.6817" r="4" fill="#0" id="circle28"/>
	<circle cx="181.476" cy="304.776" r="4" fill="#0" id="circle29"/>
	<circle cx="198.29" cy="13.3409" r="4" fill="#0" id="circle30"/>
	<circle cx="198.29" cy="314.117" r="4" fill="#0" id="circle31"/>
	<circle cx="211.367" cy="329.062" r="4" fill="#0" id="circle32"/>
	<circle cx="216.972" cy="13.3409" r="4" fill="#0" id="circle33"/>
	<circle cx="226.313" cy="342.139" r="4" fill="#0" id="circle34"/>
	<circle cx="233.785" cy="4" r="4" fill="#0" id="circle35"/>
	<circle cx="243.126" cy="351.48" r="4" fill="#0" id="circle36"/>
	<circle cx="250.599" cy="13.3409" r="4" fill="#0" id="circle37"/>
	<circle cx="261.808" cy="351.48" r="4" fill="#0" id="circle38"/>
	<circle cx="265.544" cy="26.4181" r="4" fill="#0" id="circle39"/>
	<circle cx="280.49" cy="358.953" r="4" fill="#0" id="circle40"/>
	<circle cx="282.358" cy="35.7589" r="4" fill="#0" id="circle41"/>
	<circle cx="295.435" cy="50.7043" r="4" fill="#0" id="circle42"/>
	<circle cx="299.171" cy="360.821" r="4" fill="#0" id="circle43"/>
	<circle cx="312.249" cy="60.0452" r="4" fill="#0" id="circle44"/>
	<circle cx="317.853" cy="360.821" r="4" fill="#0" id="circle45"/>
	<circle cx="323.458" cy="74.9906" r="4" fill="#0" id="circle46"/>
	<circle cx="336.535" cy="360.821" r="4" fill="#0" id="circle47"/>
	<circle cx="338.403" cy="88.0678" r="4" fill="#0" id="circle48"/>
	<circle cx="353.348" cy="370.162" r="4" fill="#0" id="circle49"/>
	<circle cx="357.085" cy="88.0678" r="4" fill="#0" id="circle50"/>
	<circle cx="372.03" cy="370.162" r="4" fill="#0" id="circle51"/>
	<circle cx="375.766" cy="88.0678" r="4" fill="#0" id="circle52"/>
	<circle cx="390.712" cy="370.162" r="4" fill="#0" id="circle53"/>
	<circle cx="394.448" cy="88.0678" r="4" fill="#0" id="circle54"/>
	<circle cx="409.394" cy="370.162" r="4" fill="#0" id="circle55"/>
	<circle cx="413.13" cy="88.0678" r="4" fill="#0" id="circle56"/>
	<circle cx="428.075" cy="370.162" r="4" fill="#0" id="circle57"/>
	<circle cx="431.812" cy="88.0678" r="4" fill="#0" id="circle58"/>
	<circle cx="446.757" cy="370.162" r="4" fill="#0" id="circle59"/>
	<circle cx="450.493" cy="88.0678" r="4" fill="#0" id="circle60"/>
	<circle cx="463.571" cy="360.821" r="4" fill="#0" id="circle61"/>
	<circle cx="469.175" cy="88.0678" r="4" fill="#0" id="circle62"/>
	<circle cx="482.252" cy="360.821" r="4" fill="#0" id="circle63"/>
	<circle cx="485.989" cy="78.7269" r="4" fill="#0" id="circle64"/>
	<circle cx="500.934" cy="360.821" r="4" fill="#0" id="circle65"/>
	<circle cx="504.67" cy="78.7269" r="4" fill="#0" id="circle66"/>
	<circle cx="517.748" cy="351.48" r="4" fill="#0" id="circle67"/>
	<circle cx="523.352" cy="78.7269" r="4" fill="#0" id="circle68"/>
	<circle cx="536.429" cy="351.48" r="4" fill="#0" id="circle69"/>
	<circle cx="540.166" cy="69.3861" r="4" fill="#0" id="circle70"/>
	<circle cx="555.111" cy="345.876" r="4" fill="#0" id="circle71"/>
	<circle cx="558.847" cy="69.3861" r="4" fill="#0" id="circle72"/>
	<circle cx="573.793" cy="342.139" r="4" fill="#0" id="circle73"/>
	<circle cx="575.661" cy="60.0452" r="4" fill="#0" id="circle74"/>
	<circle cx="592.475" cy="336.535" r="4" fill="#0" id="circle75"/>
	<circle cx="594.343" cy="60.0452" r="4" fill="#0" id="circle76"/>
	<circle cx="611.156" cy="50.7043" r="4" fill="#0" id="circle77"/>
	<circle cx="611.156" cy="332.798" r="4" fill="#0" id="circle78"/>
	<circle cx="629.838" cy="50.7043" r="4" fill="#0" id="circle79"/>
	<circle cx="629.838" cy="332.798" r="4" fill="#0" id="circle80"/>
	<circle cx="648.52" cy="50.7043" r="4" fill="#0" id="circle81"/>
	<circle cx="648.52" cy="332.798" r="4" fill="#0" id="circle82"/>
	<circle cx="667.202" cy="50.7043" r="4" fill="#0" id="circle83"/>
	<circle cx="667.202" cy="332.798" r="4" fill="#0" id="circle84"/>
	<circle cx="684.015" cy="342.139" r="4" fill="#0" id="circle85"/>
	<circle cx="685.883" cy="50.7043" r="4" fill="#0" id="circle86"/>
	<circle cx="700.829" cy="351.48" r="4" fill="#0" id="circle87"/>
	<circle cx="702.697" cy="60.0452" r="4" fill="#0" id="circle88"/>
	<circle cx="715.774" cy="364.557" r="4" fill="#0" id="circle89"/>
	<circle cx="719.51" cy="69.3861" r="4" fill="#0" id="circle90"/>
	<circle cx="732.588" cy="373.898" r="4" fill="#0" id="circle91"/>
	<circle cx="736.324" cy="78.7269" r="4" fill="#0" id="circle92"/>
	<circle cx="747.533" cy="386.976" r="4" fill="#0" id="circle93"/>
	<circle cx="753.137" cy="88.0678" r="4" fill="#0" id="circle94"/>
	<circle cx="766.215" cy="388.844" r="4" fill="#0" id="circle95"/>
	<circle cx="771.819" cy="93.6723" r="4" fill="#0" id="circle96"/>
	<circle cx="784.896" cy="396.316" r="4" fill="#0" id="circle97"/>
	<circle cx="788.633" cy="103.013" r="4" fill="#0" id="circle98"/>
	<circle cx="803.578" cy="116.09" r="4" fill="#0" id="circle99"/>
	<circle cx="803.578" cy="398.185" r="4" fill="#0" id="circle100"/>
	<circle cx="822.26" cy="116.09" r="4" fill="#0" id="circle101"/>
	<circle cx="822.26" cy="405.657" r="4" fill="#0" id="circle102"/>
	<circle cx="840.942" cy="116.09" r="4" fill="#0" id="circle103"/>
	<circle cx="840.942" cy="407.525" r="4" fill="#0" id="circle104"/>
	<circle cx="859.623" cy="116.09" r="4" fill="#0" id="circle105"/>
	<circle cx="859.623" cy="407.525" r="4" fill="#0" id="circle106"/>
	<circle cx="876.437" cy="106.75" r="4" fill="#0" id="circle107"/>
	<circle cx="878.305" cy="407.525" r="4" fill="#0" id="circle108"/>
	<circle cx="893.25" cy="97.4087" r="4" fill="#0" id="circle109"/>
	<circle cx="896.987" cy="407.525" r="4" fill="#0" id="circle110"/>
	<circle cx="910.064" cy="106.75" r="4" fill="#0" id="circle111"/>
	<circle cx="911.932" cy="295.435" r="4" fill="#0" id="circle112"/>
	<circle cx="915.669" cy="407.525" r="4" fill="#0" id="circle113"/>
	<circle cx="921.273" cy="312.249" r="4" fill="#0" id="circle114"/>
	<circle cx="926.878" cy="282.358" r="4" fill="#0" id="circle115"/>
	<circle cx="928.746" cy="106.75" r="4" fill="#0" id="circle116"/>
	<circle cx="930.614" cy="329.062" r="4" fill="#0" id="circle117"/>
	<circle cx="934.35" cy="407.525" r="4" fill="#0" id="circle118"/>
	<circle cx="939.955" cy="258.072" r="4" fill="#0" id="circle119"/>
	<circle cx="939.955" cy="345.876" r="4" fill="#0" id="circle120"/>
	<circle cx="945.559" cy="116.09" r="4" fill="#0" id="circle121"/>
	<circle cx="947.427" cy="364.557" r="4" fill="#0" id="circle122"/>
	<circle cx="949.296" cy="383.239" r="4" fill="#0" id="circle123"/>
	<circle cx="954.9" cy="244.994" r="4" fill="#0" id="circle124"/>
	<circle cx="962.373" cy="125.431" r="4" fill="#0" id="circle125"/>
	<circle cx="967.977" cy="230.049" r="4" fill="#0" id="circle126"/>
	<circle cx="977.318" cy="211.367" r="4" fill="#0" id="circle127"/>
	<circle cx="979.186" cy="134.772" r="4" fill="#0" id="circle128"/>
	<circle cx="992.264" cy="198.29" r="4" fill="#0" id="circle129"/>
	<circle cx="994.132" cy="147.849" r="4" fill="#0" id="circle130"/>
	<circle cx="996" cy="166.531" r="4" fill="#0" id="circle131"/>
	</g>
</svg>