<?xml version="1.0" encoding="UTF-8" standalone="no"?>
<!-- Created with CurveBenchmark -->
<svg
	xmlns:dc="http://purl.org/dc/elements/1.1/"
	xmlns:cc="http://creativecommons.org/ns#"
	xmlns:rdf="http://www.w3.org/1999/02/22-rdf-syntax-ns#"
	xmlns:svg="http://www.w3.org/2000/svg"
	xmlns="http://www.w3.org/2000/svg"
	xmlns:sodipodi="http://sodipodi.sourceforge.net/DTD/sodipodi-0.dtd"
	xmlns:inkscape="http://www.inkscape.org/namespaces/inkscape"
	width="1000"
	height="1000"
	id="svg2"
	version="1.1"
	sodipodi:docname="manifold/nncrust-flatfish06.png.txt">
<defs
	id="defs4" />
<metadata
	id="metadata7">
	<rdf:RDF>
		<cc:Work
			rdf:about="">
			<dc:format>image/svg+xml</dc:format>
			<dc:type
				rdf:resource="http://purl.org/dc/dcmitype/StillImage" />
			<dc:title></dc:title>
		</cc:Work>
	</rdf:RDF>
</metadata>
<g
	inkscape:label="Layer 1"
	inkscape:groupmode="layer"
	id="layer1">
	<path style="fill:none;stroke:red;stroke-width:1px;stroke-linecap:butt;stroke-linejoin:miter;stroke-opacity:1" d="M 127.266,77.3728 140.473,70.0355 z" id="boundary" inkscape:connector-curvature="0" />
	<path style="fill:none;stroke:red;stroke-width:1px;stroke-linecap:butt;stroke-linejoin:miter;stroke-opacity:1" d="M 115.527,87.645 127.266,77.3728 z" id="boundary" inkscape:connector-curvature="0" />
	<path style="fill:none;stroke:red;stroke-width:1px;stroke-linecap:butt;stroke-linejoin:miter;stroke-opacity:1" d="M 152.213,58.2959 140.473,70.0355 z" id="boundary" inkscape:connector-curvature="0" />
	<path style="fill:none;stroke:red;stroke-width:1px;stroke-linecap:butt;stroke-linejoin:miter;stroke-opacity:1" d="M 103.787,99.3846 115.527,87.645 z" id="boundary" inkscape:connector-curvature="0" />
	<path style="fill:none;stroke:red;stroke-width:1px;stroke-linecap:butt;stroke-linejoin:miter;stroke-opacity:1" d="M 207.976,33.3491 194.769,40.6864 z" id="boundary" inkscape:connector-curvature="0" />
	<path style="fill:none;stroke:red;stroke-width:1px;stroke-linecap:butt;stroke-linejoin:miter;stroke-opacity:1" d="M 166.888,50.9586 181.562,48.0237 z" id="boundary" inkscape:connector-curvature="0" />
	<path style="fill:none;stroke:red;stroke-width:1px;stroke-linecap:butt;stroke-linejoin:miter;stroke-opacity:1" d="M 194.769,40.6864 181.562,48.0237 z" id="boundary" inkscape:connector-curvature="0" />
	<path style="fill:none;stroke:red;stroke-width:1px;stroke-linecap:butt;stroke-linejoin:miter;stroke-opacity:1" d="M 152.213,58.2959 166.888,50.9586 z" id="boundary" inkscape:connector-curvature="0" />
	<path style="fill:none;stroke:red;stroke-width:1px;stroke-linecap:butt;stroke-linejoin:miter;stroke-opacity:1" d="M 221.183,26.0118 207.976,33.3491 z" id="boundary" inkscape:connector-curvature="0" />
	<path style="fill:none;stroke:red;stroke-width:1px;stroke-linecap:butt;stroke-linejoin:miter;stroke-opacity:1" d="M 11.3373,191.834 23.0769,180.095 z" id="boundary" inkscape:connector-curvature="0" />
	<path style="fill:none;stroke:red;stroke-width:1px;stroke-linecap:butt;stroke-linejoin:miter;stroke-opacity:1" d="M 4,221.183 4,206.509 z" id="boundary" inkscape:connector-curvature="0" />
	<path style="fill:none;stroke:red;stroke-width:1px;stroke-linecap:butt;stroke-linejoin:miter;stroke-opacity:1" d="M 15.7396,231.456 4,221.183 z" id="boundary" inkscape:connector-curvature="0" />
	<path style="fill:none;stroke:red;stroke-width:1px;stroke-linecap:butt;stroke-linejoin:miter;stroke-opacity:1" d="M 4,206.509 11.3373,191.834 z" id="boundary" inkscape:connector-curvature="0" />
	<path style="fill:none;stroke:red;stroke-width:1px;stroke-linecap:butt;stroke-linejoin:miter;stroke-opacity:1" d="M 23.0769,180.095 34.8166,168.355 z" id="boundary" inkscape:connector-curvature="0" />
	<path style="fill:none;stroke:red;stroke-width:1px;stroke-linecap:butt;stroke-linejoin:miter;stroke-opacity:1" d="M 83.2426,128.734 92.0473,111.124 z" id="boundary" inkscape:connector-curvature="0" />
	<path style="fill:none;stroke:red;stroke-width:1px;stroke-linecap:butt;stroke-linejoin:miter;stroke-opacity:1" d="M 92.0473,111.124 103.787,99.3846 z" id="boundary" inkscape:connector-curvature="0" />
	<path style="fill:none;stroke:red;stroke-width:1px;stroke-linecap:butt;stroke-linejoin:miter;stroke-opacity:1" d="M 83.2426,128.734 71.503,139.006 z" id="boundary" inkscape:connector-curvature="0" />
	<path style="fill:none;stroke:red;stroke-width:1px;stroke-linecap:butt;stroke-linejoin:miter;stroke-opacity:1" d="M 71.503,139.006 59.7633,150.746 z" id="boundary" inkscape:connector-curvature="0" />
	<path style="fill:none;stroke:red;stroke-width:1px;stroke-linecap:butt;stroke-linejoin:miter;stroke-opacity:1" d="M 59.7633,150.746 46.5562,158.083 z" id="boundary" inkscape:connector-curvature="0" />
	<path style="fill:none;stroke:red;stroke-width:1px;stroke-linecap:butt;stroke-linejoin:miter;stroke-opacity:1" d="M 34.8166,168.355 46.5562,158.083 z" id="boundary" inkscape:connector-curvature="0" />
	<path style="fill:none;stroke:red;stroke-width:1px;stroke-linecap:butt;stroke-linejoin:miter;stroke-opacity:1" d="M 291.621,11.3373 276.947,11.3373 z" id="boundary" inkscape:connector-curvature="0" />
	<path style="fill:none;stroke:red;stroke-width:1px;stroke-linecap:butt;stroke-linejoin:miter;stroke-opacity:1" d="M 392.876,4 407.55,4 z" id="boundary" inkscape:connector-curvature="0" />
	<path style="fill:none;stroke:red;stroke-width:1px;stroke-linecap:butt;stroke-linejoin:miter;stroke-opacity:1" d="M 378.201,4 392.876,4 z" id="boundary" inkscape:connector-curvature="0" />
	<path style="fill:none;stroke:red;stroke-width:1px;stroke-linecap:butt;stroke-linejoin:miter;stroke-opacity:1" d="M 364.994,11.3373 378.201,4 z" id="boundary" inkscape:connector-curvature="0" />
	<path style="fill:none;stroke:red;stroke-width:1px;stroke-linecap:butt;stroke-linejoin:miter;stroke-opacity:1" d="M 407.55,4 422.225,4 z" id="boundary" inkscape:connector-curvature="0" />
	<path style="fill:none;stroke:red;stroke-width:1px;stroke-linecap:butt;stroke-linejoin:miter;stroke-opacity:1" d="M 422.225,4 436.899,4 z" id="boundary" inkscape:connector-curvature="0" />
	<path style="fill:none;stroke:red;stroke-width:1px;stroke-linecap:butt;stroke-linejoin:miter;stroke-opacity:1" d="M 436.899,4 451.574,4 z" id="boundary" inkscape:connector-curvature="0" />
	<path style="fill:none;stroke:red;stroke-width:1px;stroke-linecap:butt;stroke-linejoin:miter;stroke-opacity:1" d="M 451.574,4 466.249,4 z" id="boundary" inkscape:connector-curvature="0" />
	<path style="fill:none;stroke:red;stroke-width:1px;stroke-linecap:butt;stroke-linejoin:miter;stroke-opacity:1" d="M 249.065,18.6746 234.391,18.6746 z" id="boundary" inkscape:connector-curvature="0" />
	<path style="fill:none;stroke:red;stroke-width:1px;stroke-linecap:butt;stroke-linejoin:miter;stroke-opacity:1" d="M 263.74,18.6746 276.947,11.3373 z" id="boundary" inkscape:connector-curvature="0" />
	<path style="fill:none;stroke:red;stroke-width:1px;stroke-linecap:butt;stroke-linejoin:miter;stroke-opacity:1" d="M 249.065,18.6746 263.74,18.6746 z" id="boundary" inkscape:connector-curvature="0" />
	<path style="fill:none;stroke:red;stroke-width:1px;stroke-linecap:butt;stroke-linejoin:miter;stroke-opacity:1" d="M 221.183,26.0118 234.391,18.6746 z" id="boundary" inkscape:connector-curvature="0" />
	<path style="fill:none;stroke:red;stroke-width:1px;stroke-linecap:butt;stroke-linejoin:miter;stroke-opacity:1" d="M 291.621,11.3373 306.296,11.3373 z" id="boundary" inkscape:connector-curvature="0" />
	<path style="fill:none;stroke:red;stroke-width:1px;stroke-linecap:butt;stroke-linejoin:miter;stroke-opacity:1" d="M 306.296,11.3373 320.97,11.3373 z" id="boundary" inkscape:connector-curvature="0" />
	<path style="fill:none;stroke:red;stroke-width:1px;stroke-linecap:butt;stroke-linejoin:miter;stroke-opacity:1" d="M 320.97,11.3373 335.645,11.3373 z" id="boundary" inkscape:connector-curvature="0" />
	<path style="fill:none;stroke:red;stroke-width:1px;stroke-linecap:butt;stroke-linejoin:miter;stroke-opacity:1" d="M 350.32,11.3373 335.645,11.3373 z" id="boundary" inkscape:connector-curvature="0" />
	<path style="fill:none;stroke:red;stroke-width:1px;stroke-linecap:butt;stroke-linejoin:miter;stroke-opacity:1" d="M 364.994,11.3373 350.32,11.3373 z" id="boundary" inkscape:connector-curvature="0" />
	<path style="fill:none;stroke:red;stroke-width:1px;stroke-linecap:butt;stroke-linejoin:miter;stroke-opacity:1" d="M 466.249,4 480.923,4 z" id="boundary" inkscape:connector-curvature="0" />
	<path style="fill:none;stroke:red;stroke-width:1px;stroke-linecap:butt;stroke-linejoin:miter;stroke-opacity:1" d="M 15.7396,231.456 26.0118,243.195 z" id="boundary" inkscape:connector-curvature="0" />
	<path style="fill:none;stroke:red;stroke-width:1px;stroke-linecap:butt;stroke-linejoin:miter;stroke-opacity:1" d="M 37.7515,253.467 50.9586,260.805 z" id="boundary" inkscape:connector-curvature="0" />
	<path style="fill:none;stroke:red;stroke-width:1px;stroke-linecap:butt;stroke-linejoin:miter;stroke-opacity:1" d="M 50.9586,260.805 62.6982,269.609 z" id="boundary" inkscape:connector-curvature="0" />
	<path style="fill:none;stroke:red;stroke-width:1px;stroke-linecap:butt;stroke-linejoin:miter;stroke-opacity:1" d="M 37.7515,253.467 26.0118,243.195 z" id="boundary" inkscape:connector-curvature="0" />
	<path style="fill:none;stroke:red;stroke-width:1px;stroke-linecap:butt;stroke-linejoin:miter;stroke-opacity:1" d="M 62.6982,269.609 75.9053,276.947 z" id="boundary" inkscape:connector-curvature="0" />
	<path style="fill:none;stroke:red;stroke-width:1px;stroke-linecap:butt;stroke-linejoin:miter;stroke-opacity:1" d="M 89.1124,284.284 102.32,291.621 z" id="boundary" inkscape:connector-curvature="0" />
	<path style="fill:none;stroke:red;stroke-width:1px;stroke-linecap:butt;stroke-linejoin:miter;stroke-opacity:1" d="M 89.1124,284.284 75.9053,276.947 z" id="boundary" inkscape:connector-curvature="0" />
	<path style="fill:none;stroke:red;stroke-width:1px;stroke-linecap:butt;stroke-linejoin:miter;stroke-opacity:1" d="M 199.172,357.657 185.964,350.32 z" id="boundary" inkscape:connector-curvature="0" />
	<path style="fill:none;stroke:red;stroke-width:1px;stroke-linecap:butt;stroke-linejoin:miter;stroke-opacity:1" d="M 102.32,291.621 114.059,300.426 z" id="boundary" inkscape:connector-curvature="0" />
	<path style="fill:none;stroke:red;stroke-width:1px;stroke-linecap:butt;stroke-linejoin:miter;stroke-opacity:1" d="M 124.331,312.166 136.071,320.97 z" id="boundary" inkscape:connector-curvature="0" />
	<path style="fill:none;stroke:red;stroke-width:1px;stroke-linecap:butt;stroke-linejoin:miter;stroke-opacity:1" d="M 136.071,320.97 136.071,335.645 z" id="boundary" inkscape:connector-curvature="0" />
	<path style="fill:none;stroke:red;stroke-width:1px;stroke-linecap:butt;stroke-linejoin:miter;stroke-opacity:1" d="M 124.331,312.166 114.059,300.426 z" id="boundary" inkscape:connector-curvature="0" />
	<path style="fill:none;stroke:red;stroke-width:1px;stroke-linecap:butt;stroke-linejoin:miter;stroke-opacity:1" d="M 159.55,357.657 144.876,362.059 z" id="boundary" inkscape:connector-curvature="0" />
	<path style="fill:none;stroke:red;stroke-width:1px;stroke-linecap:butt;stroke-linejoin:miter;stroke-opacity:1" d="M 144.876,362.059 136.071,350.32 z" id="boundary" inkscape:connector-curvature="0" />
	<path style="fill:none;stroke:red;stroke-width:1px;stroke-linecap:butt;stroke-linejoin:miter;stroke-opacity:1" d="M 136.071,350.32 136.071,335.645 z" id="boundary" inkscape:connector-curvature="0" />
	<path style="fill:none;stroke:red;stroke-width:1px;stroke-linecap:butt;stroke-linejoin:miter;stroke-opacity:1" d="M 171.29,347.385 185.964,350.32 z" id="boundary" inkscape:connector-curvature="0" />
	<path style="fill:none;stroke:red;stroke-width:1px;stroke-linecap:butt;stroke-linejoin:miter;stroke-opacity:1" d="M 159.55,357.657 171.29,347.385 z" id="boundary" inkscape:connector-curvature="0" />
	<path style="fill:none;stroke:red;stroke-width:1px;stroke-linecap:butt;stroke-linejoin:miter;stroke-opacity:1" d="M 210.911,367.929 199.172,357.657 z" id="boundary" inkscape:connector-curvature="0" />
	<path style="fill:none;stroke:red;stroke-width:1px;stroke-linecap:butt;stroke-linejoin:miter;stroke-opacity:1" d="M 210.911,367.929 216.781,382.604 z" id="boundary" inkscape:connector-curvature="0" />
	<path style="fill:none;stroke:red;stroke-width:1px;stroke-linecap:butt;stroke-linejoin:miter;stroke-opacity:1" d="M 216.781,382.604 228.521,392.876 z" id="boundary" inkscape:connector-curvature="0" />
	<path style="fill:none;stroke:red;stroke-width:1px;stroke-linecap:butt;stroke-linejoin:miter;stroke-opacity:1" d="M 281.349,416.355 266.675,416.355 z" id="boundary" inkscape:connector-curvature="0" />
	<path style="fill:none;stroke:red;stroke-width:1px;stroke-linecap:butt;stroke-linejoin:miter;stroke-opacity:1" d="M 266.675,416.355 253.467,409.018 z" id="boundary" inkscape:connector-curvature="0" />
	<path style="fill:none;stroke:red;stroke-width:1px;stroke-linecap:butt;stroke-linejoin:miter;stroke-opacity:1" d="M 253.467,409.018 241.728,400.213 z" id="boundary" inkscape:connector-curvature="0" />
	<path style="fill:none;stroke:red;stroke-width:1px;stroke-linecap:butt;stroke-linejoin:miter;stroke-opacity:1" d="M 228.521,392.876 241.728,400.213 z" id="boundary" inkscape:connector-curvature="0" />
	<path style="fill:none;stroke:red;stroke-width:1px;stroke-linecap:butt;stroke-linejoin:miter;stroke-opacity:1" d="M 281.349,416.355 294.556,423.692 z" id="boundary" inkscape:connector-curvature="0" />
	<path style="fill:none;stroke:red;stroke-width:1px;stroke-linecap:butt;stroke-linejoin:miter;stroke-opacity:1" d="M 381.136,431.03 366.462,431.03 z" id="boundary" inkscape:connector-curvature="0" />
	<path style="fill:none;stroke:red;stroke-width:1px;stroke-linecap:butt;stroke-linejoin:miter;stroke-opacity:1" d="M 322.438,431.03 307.763,431.03 z" id="boundary" inkscape:connector-curvature="0" />
	<path style="fill:none;stroke:red;stroke-width:1px;stroke-linecap:butt;stroke-linejoin:miter;stroke-opacity:1" d="M 307.763,431.03 294.556,423.692 z" id="boundary" inkscape:connector-curvature="0" />
	<path style="fill:none;stroke:red;stroke-width:1px;stroke-linecap:butt;stroke-linejoin:miter;stroke-opacity:1" d="M 454.509,431.03 467.716,423.692 z" id="boundary" inkscape:connector-curvature="0" />
	<path style="fill:none;stroke:red;stroke-width:1px;stroke-linecap:butt;stroke-linejoin:miter;stroke-opacity:1" d="M 467.716,423.692 482.391,423.692 z" id="boundary" inkscape:connector-curvature="0" />
	<path style="fill:none;stroke:red;stroke-width:1px;stroke-linecap:butt;stroke-linejoin:miter;stroke-opacity:1" d="M 395.811,431.03 381.136,431.03 z" id="boundary" inkscape:connector-curvature="0" />
	<path style="fill:none;stroke:red;stroke-width:1px;stroke-linecap:butt;stroke-linejoin:miter;stroke-opacity:1" d="M 337.112,431.03 322.438,431.03 z" id="boundary" inkscape:connector-curvature="0" />
	<path style="fill:none;stroke:red;stroke-width:1px;stroke-linecap:butt;stroke-linejoin:miter;stroke-opacity:1" d="M 366.462,431.03 351.787,431.03 z" id="boundary" inkscape:connector-curvature="0" />
	<path style="fill:none;stroke:red;stroke-width:1px;stroke-linecap:butt;stroke-linejoin:miter;stroke-opacity:1" d="M 351.787,431.03 337.112,431.03 z" id="boundary" inkscape:connector-curvature="0" />
	<path style="fill:none;stroke:red;stroke-width:1px;stroke-linecap:butt;stroke-linejoin:miter;stroke-opacity:1" d="M 410.485,431.03 395.811,431.03 z" id="boundary" inkscape:connector-curvature="0" />
	<path style="fill:none;stroke:red;stroke-width:1px;stroke-linecap:butt;stroke-linejoin:miter;stroke-opacity:1" d="M 439.834,431.03 425.16,431.03 z" id="boundary" inkscape:connector-curvature="0" />
	<path style="fill:none;stroke:red;stroke-width:1px;stroke-linecap:butt;stroke-linejoin:miter;stroke-opacity:1" d="M 454.509,431.03 439.834,431.03 z" id="boundary" inkscape:connector-curvature="0" />
	<path style="fill:none;stroke:red;stroke-width:1px;stroke-linecap:butt;stroke-linejoin:miter;stroke-opacity:1" d="M 425.16,431.03 410.485,431.03 z" id="boundary" inkscape:connector-curvature="0" />
	<path style="fill:none;stroke:red;stroke-width:1px;stroke-linecap:butt;stroke-linejoin:miter;stroke-opacity:1" d="M 495.598,416.355 482.391,423.692 z" id="boundary" inkscape:connector-curvature="0" />
	<path style="fill:none;stroke:red;stroke-width:1px;stroke-linecap:butt;stroke-linejoin:miter;stroke-opacity:1" d="M 480.923,4 495.598,4 z" id="boundary" inkscape:connector-curvature="0" />
	<path style="fill:none;stroke:red;stroke-width:1px;stroke-linecap:butt;stroke-linejoin:miter;stroke-opacity:1" d="M 523.479,11.3373 510.272,4 z" id="boundary" inkscape:connector-curvature="0" />
	<path style="fill:none;stroke:red;stroke-width:1px;stroke-linecap:butt;stroke-linejoin:miter;stroke-opacity:1" d="M 538.154,12.8047 523.479,11.3373 z" id="boundary" inkscape:connector-curvature="0" />
	<path style="fill:none;stroke:red;stroke-width:1px;stroke-linecap:butt;stroke-linejoin:miter;stroke-opacity:1" d="M 538.154,12.8047 551.361,20.142 z" id="boundary" inkscape:connector-curvature="0" />
	<path style="fill:none;stroke:red;stroke-width:1px;stroke-linecap:butt;stroke-linejoin:miter;stroke-opacity:1" d="M 566.036,26.0118 551.361,20.142 z" id="boundary" inkscape:connector-curvature="0" />
	<path style="fill:none;stroke:red;stroke-width:1px;stroke-linecap:butt;stroke-linejoin:miter;stroke-opacity:1" d="M 566.036,26.0118 579.243,33.3491 z" id="boundary" inkscape:connector-curvature="0" />
	<path style="fill:none;stroke:red;stroke-width:1px;stroke-linecap:butt;stroke-linejoin:miter;stroke-opacity:1" d="M 593.917,33.3491 579.243,33.3491 z" id="boundary" inkscape:connector-curvature="0" />
	<path style="fill:none;stroke:red;stroke-width:1px;stroke-linecap:butt;stroke-linejoin:miter;stroke-opacity:1" d="M 593.917,33.3491 607.124,40.6864 z" id="boundary" inkscape:connector-curvature="0" />
	<path style="fill:none;stroke:red;stroke-width:1px;stroke-linecap:butt;stroke-linejoin:miter;stroke-opacity:1" d="M 620.331,48.0237 607.124,40.6864 z" id="boundary" inkscape:connector-curvature="0" />
	<path style="fill:none;stroke:red;stroke-width:1px;stroke-linecap:butt;stroke-linejoin:miter;stroke-opacity:1" d="M 635.006,50.9586 620.331,48.0237 z" id="boundary" inkscape:connector-curvature="0" />
	<path style="fill:none;stroke:red;stroke-width:1px;stroke-linecap:butt;stroke-linejoin:miter;stroke-opacity:1" d="M 635.006,50.9586 648.213,58.2959 z" id="boundary" inkscape:connector-curvature="0" />
	<path style="fill:none;stroke:red;stroke-width:1px;stroke-linecap:butt;stroke-linejoin:miter;stroke-opacity:1" d="M 648.213,58.2959 658.485,70.0355 z" id="boundary" inkscape:connector-curvature="0" />
	<path style="fill:none;stroke:red;stroke-width:1px;stroke-linecap:butt;stroke-linejoin:miter;stroke-opacity:1" d="M 658.485,70.0355 673.16,74.4379 z" id="boundary" inkscape:connector-curvature="0" />
	<path style="fill:none;stroke:red;stroke-width:1px;stroke-linecap:butt;stroke-linejoin:miter;stroke-opacity:1" d="M 686.367,81.7751 673.16,74.4379 z" id="boundary" inkscape:connector-curvature="0" />
	<path style="fill:none;stroke:red;stroke-width:1px;stroke-linecap:butt;stroke-linejoin:miter;stroke-opacity:1" d="M 686.367,81.7751 693.704,94.9822 z" id="boundary" inkscape:connector-curvature="0" />
	<path style="fill:none;stroke:red;stroke-width:1px;stroke-linecap:butt;stroke-linejoin:miter;stroke-opacity:1" d="M 702.509,106.722 709.846,119.929 z" id="boundary" inkscape:connector-curvature="0" />
	<path style="fill:none;stroke:red;stroke-width:1px;stroke-linecap:butt;stroke-linejoin:miter;stroke-opacity:1" d="M 702.509,106.722 693.704,94.9822 z" id="boundary" inkscape:connector-curvature="0" />
	<path style="fill:none;stroke:red;stroke-width:1px;stroke-linecap:butt;stroke-linejoin:miter;stroke-opacity:1" d="M 709.846,119.929 721.586,130.201 z" id="boundary" inkscape:connector-curvature="0" />
	<path style="fill:none;stroke:red;stroke-width:1px;stroke-linecap:butt;stroke-linejoin:miter;stroke-opacity:1" d="M 721.586,130.201 731.858,141.941 z" id="boundary" inkscape:connector-curvature="0" />
	<path style="fill:none;stroke:red;stroke-width:1px;stroke-linecap:butt;stroke-linejoin:miter;stroke-opacity:1" d="M 746.533,147.811 731.858,141.941 z" id="boundary" inkscape:connector-curvature="0" />
	<path style="fill:none;stroke:red;stroke-width:1px;stroke-linecap:butt;stroke-linejoin:miter;stroke-opacity:1" d="M 746.533,147.811 759.74,155.148 z" id="boundary" inkscape:connector-curvature="0" />
	<path style="fill:none;stroke:red;stroke-width:1px;stroke-linecap:butt;stroke-linejoin:miter;stroke-opacity:1" d="M 759.74,155.148 771.479,165.42 z" id="boundary" inkscape:connector-curvature="0" />
	<path style="fill:none;stroke:red;stroke-width:1px;stroke-linecap:butt;stroke-linejoin:miter;stroke-opacity:1" d="M 913.822,165.42 899.148,169.822 z" id="boundary" inkscape:connector-curvature="0" />
	<path style="fill:none;stroke:red;stroke-width:1px;stroke-linecap:butt;stroke-linejoin:miter;stroke-opacity:1" d="M 884.473,172.757 869.799,172.757 z" id="boundary" inkscape:connector-curvature="0" />
	<path style="fill:none;stroke:red;stroke-width:1px;stroke-linecap:butt;stroke-linejoin:miter;stroke-opacity:1" d="M 899.148,169.822 884.473,172.757 z" id="boundary" inkscape:connector-curvature="0" />
	<path style="fill:none;stroke:red;stroke-width:1px;stroke-linecap:butt;stroke-linejoin:miter;stroke-opacity:1" d="M 869.799,172.757 855.124,177.16 z" id="boundary" inkscape:connector-curvature="0" />
	<path style="fill:none;stroke:red;stroke-width:1px;stroke-linecap:butt;stroke-linejoin:miter;stroke-opacity:1" d="M 943.172,165.42 957.846,165.42 z" id="boundary" inkscape:connector-curvature="0" />
	<path style="fill:none;stroke:red;stroke-width:1px;stroke-linecap:butt;stroke-linejoin:miter;stroke-opacity:1" d="M 943.172,165.42 928.497,165.42 z" id="boundary" inkscape:connector-curvature="0" />
	<path style="fill:none;stroke:red;stroke-width:1px;stroke-linecap:butt;stroke-linejoin:miter;stroke-opacity:1" d="M 972.521,168.355 957.846,165.42 z" id="boundary" inkscape:connector-curvature="0" />
	<path style="fill:none;stroke:red;stroke-width:1px;stroke-linecap:butt;stroke-linejoin:miter;stroke-opacity:1" d="M 928.497,165.42 913.822,165.42 z" id="boundary" inkscape:connector-curvature="0" />
	<path style="fill:none;stroke:red;stroke-width:1px;stroke-linecap:butt;stroke-linejoin:miter;stroke-opacity:1" d="M 972.521,168.355 981.325,180.095 z" id="boundary" inkscape:connector-curvature="0" />
	<path style="fill:none;stroke:red;stroke-width:1px;stroke-linecap:butt;stroke-linejoin:miter;stroke-opacity:1" d="M 781.751,177.16 796.426,183.03 z" id="boundary" inkscape:connector-curvature="0" />
	<path style="fill:none;stroke:red;stroke-width:1px;stroke-linecap:butt;stroke-linejoin:miter;stroke-opacity:1" d="M 825.775,187.432 811.101,187.432 z" id="boundary" inkscape:connector-curvature="0" />
	<path style="fill:none;stroke:red;stroke-width:1px;stroke-linecap:butt;stroke-linejoin:miter;stroke-opacity:1" d="M 811.101,187.432 796.426,183.03 z" id="boundary" inkscape:connector-curvature="0" />
	<path style="fill:none;stroke:red;stroke-width:1px;stroke-linecap:butt;stroke-linejoin:miter;stroke-opacity:1" d="M 840.45,184.497 825.775,187.432 z" id="boundary" inkscape:connector-curvature="0" />
	<path style="fill:none;stroke:red;stroke-width:1px;stroke-linecap:butt;stroke-linejoin:miter;stroke-opacity:1" d="M 855.124,177.16 840.45,184.497 z" id="boundary" inkscape:connector-curvature="0" />
	<path style="fill:none;stroke:red;stroke-width:1px;stroke-linecap:butt;stroke-linejoin:miter;stroke-opacity:1" d="M 781.751,177.16 771.479,165.42 z" id="boundary" inkscape:connector-curvature="0" />
	<path style="fill:none;stroke:red;stroke-width:1px;stroke-linecap:butt;stroke-linejoin:miter;stroke-opacity:1" d="M 981.325,180.095 988.663,193.302 z" id="boundary" inkscape:connector-curvature="0" />
	<path style="fill:none;stroke:red;stroke-width:1px;stroke-linecap:butt;stroke-linejoin:miter;stroke-opacity:1" d="M 988.663,193.302 996,206.509 z" id="boundary" inkscape:connector-curvature="0" />
	<path style="fill:none;stroke:red;stroke-width:1px;stroke-linecap:butt;stroke-linejoin:miter;stroke-opacity:1" d="M 996,206.509 996,221.183 z" id="boundary" inkscape:connector-curvature="0" />
	<path style="fill:none;stroke:red;stroke-width:1px;stroke-linecap:butt;stroke-linejoin:miter;stroke-opacity:1" d="M 679.03,357.657 690.769,348.852 z" id="boundary" inkscape:connector-curvature="0" />
	<path style="fill:none;stroke:red;stroke-width:1px;stroke-linecap:butt;stroke-linejoin:miter;stroke-opacity:1" d="M 679.03,357.657 664.355,360.592 z" id="boundary" inkscape:connector-curvature="0" />
	<path style="fill:none;stroke:red;stroke-width:1px;stroke-linecap:butt;stroke-linejoin:miter;stroke-opacity:1" d="M 664.355,360.592 649.68,364.994 z" id="boundary" inkscape:connector-curvature="0" />
	<path style="fill:none;stroke:red;stroke-width:1px;stroke-linecap:butt;stroke-linejoin:miter;stroke-opacity:1" d="M 702.509,335.645 690.769,348.852 z" id="boundary" inkscape:connector-curvature="0" />
	<path style="fill:none;stroke:red;stroke-width:1px;stroke-linecap:butt;stroke-linejoin:miter;stroke-opacity:1" d="M 636.473,372.331 649.68,364.994 z" id="boundary" inkscape:connector-curvature="0" />
	<path style="fill:none;stroke:red;stroke-width:1px;stroke-linecap:butt;stroke-linejoin:miter;stroke-opacity:1" d="M 636.473,372.331 621.799,372.331 z" id="boundary" inkscape:connector-curvature="0" />
	<path style="fill:none;stroke:red;stroke-width:1px;stroke-linecap:butt;stroke-linejoin:miter;stroke-opacity:1" d="M 743.598,310.698 753.87,298.959 z" id="boundary" inkscape:connector-curvature="0" />
	<path style="fill:none;stroke:red;stroke-width:1px;stroke-linecap:butt;stroke-linejoin:miter;stroke-opacity:1" d="M 702.509,335.645 717.183,328.308 z" id="boundary" inkscape:connector-curvature="0" />
	<path style="fill:none;stroke:red;stroke-width:1px;stroke-linecap:butt;stroke-linejoin:miter;stroke-opacity:1" d="M 731.858,320.97 717.183,328.308 z" id="boundary" inkscape:connector-curvature="0" />
	<path style="fill:none;stroke:red;stroke-width:1px;stroke-linecap:butt;stroke-linejoin:miter;stroke-opacity:1" d="M 743.598,310.698 731.858,320.97 z" id="boundary" inkscape:connector-curvature="0" />
	<path style="fill:none;stroke:red;stroke-width:1px;stroke-linecap:butt;stroke-linejoin:miter;stroke-opacity:1" d="M 538.154,398.746 552.828,394.343 z" id="boundary" inkscape:connector-curvature="0" />
	<path style="fill:none;stroke:red;stroke-width:1px;stroke-linecap:butt;stroke-linejoin:miter;stroke-opacity:1" d="M 523.479,406.083 538.154,398.746 z" id="boundary" inkscape:connector-curvature="0" />
	<path style="fill:none;stroke:red;stroke-width:1px;stroke-linecap:butt;stroke-linejoin:miter;stroke-opacity:1" d="M 566.036,387.006 552.828,394.343 z" id="boundary" inkscape:connector-curvature="0" />
	<path style="fill:none;stroke:red;stroke-width:1px;stroke-linecap:butt;stroke-linejoin:miter;stroke-opacity:1" d="M 495.598,416.355 508.805,409.018 z" id="boundary" inkscape:connector-curvature="0" />
	<path style="fill:none;stroke:red;stroke-width:1px;stroke-linecap:butt;stroke-linejoin:miter;stroke-opacity:1" d="M 508.805,409.018 523.479,406.083 z" id="boundary" inkscape:connector-curvature="0" />
	<path style="fill:none;stroke:red;stroke-width:1px;stroke-linecap:butt;stroke-linejoin:miter;stroke-opacity:1" d="M 593.917,379.669 579.243,379.669 z" id="boundary" inkscape:connector-curvature="0" />
	<path style="fill:none;stroke:red;stroke-width:1px;stroke-linecap:butt;stroke-linejoin:miter;stroke-opacity:1" d="M 608.592,379.669 621.799,372.331 z" id="boundary" inkscape:connector-curvature="0" />
	<path style="fill:none;stroke:red;stroke-width:1px;stroke-linecap:butt;stroke-linejoin:miter;stroke-opacity:1" d="M 593.917,379.669 608.592,379.669 z" id="boundary" inkscape:connector-curvature="0" />
	<path style="fill:none;stroke:red;stroke-width:1px;stroke-linecap:butt;stroke-linejoin:miter;stroke-opacity:1" d="M 566.036,387.006 579.243,379.669 z" id="boundary" inkscape:connector-curvature="0" />
	<path style="fill:none;stroke:red;stroke-width:1px;stroke-linecap:butt;stroke-linejoin:miter;stroke-opacity:1" d="M 789.089,269.609 803.763,269.609 z" id="boundary" inkscape:connector-curvature="0" />
	<path style="fill:none;stroke:red;stroke-width:1px;stroke-linecap:butt;stroke-linejoin:miter;stroke-opacity:1" d="M 775.882,276.947 789.089,269.609 z" id="boundary" inkscape:connector-curvature="0" />
	<path style="fill:none;stroke:red;stroke-width:1px;stroke-linecap:butt;stroke-linejoin:miter;stroke-opacity:1" d="M 765.609,288.686 775.882,276.947 z" id="boundary" inkscape:connector-curvature="0" />
	<path style="fill:none;stroke:red;stroke-width:1px;stroke-linecap:butt;stroke-linejoin:miter;stroke-opacity:1" d="M 803.763,269.609 818.438,269.609 z" id="boundary" inkscape:connector-curvature="0" />
	<path style="fill:none;stroke:red;stroke-width:1px;stroke-linecap:butt;stroke-linejoin:miter;stroke-opacity:1" d="M 818.438,269.609 831.645,276.947 z" id="boundary" inkscape:connector-curvature="0" />
	<path style="fill:none;stroke:red;stroke-width:1px;stroke-linecap:butt;stroke-linejoin:miter;stroke-opacity:1" d="M 996,235.858 991.598,253.467 z" id="boundary" inkscape:connector-curvature="0" />
	<path style="fill:none;stroke:red;stroke-width:1px;stroke-linecap:butt;stroke-linejoin:miter;stroke-opacity:1" d="M 991.598,253.467 984.26,268.142 z" id="boundary" inkscape:connector-curvature="0" />
	<path style="fill:none;stroke:red;stroke-width:1px;stroke-linecap:butt;stroke-linejoin:miter;stroke-opacity:1" d="M 984.26,268.142 972.521,279.882 z" id="boundary" inkscape:connector-curvature="0" />
	<path style="fill:none;stroke:red;stroke-width:1px;stroke-linecap:butt;stroke-linejoin:miter;stroke-opacity:1" d="M 888.876,291.621 874.201,291.621 z" id="boundary" inkscape:connector-curvature="0" />
	<path style="fill:none;stroke:red;stroke-width:1px;stroke-linecap:butt;stroke-linejoin:miter;stroke-opacity:1" d="M 996,221.183 996,235.858 z" id="boundary" inkscape:connector-curvature="0" />
	<path style="fill:none;stroke:red;stroke-width:1px;stroke-linecap:butt;stroke-linejoin:miter;stroke-opacity:1" d="M 844.852,284.284 859.527,290.154 z" id="boundary" inkscape:connector-curvature="0" />
	<path style="fill:none;stroke:red;stroke-width:1px;stroke-linecap:butt;stroke-linejoin:miter;stroke-opacity:1" d="M 831.645,276.947 844.852,284.284 z" id="boundary" inkscape:connector-curvature="0" />
	<path style="fill:none;stroke:red;stroke-width:1px;stroke-linecap:butt;stroke-linejoin:miter;stroke-opacity:1" d="M 874.201,291.621 859.527,290.154 z" id="boundary" inkscape:connector-curvature="0" />
	<path style="fill:none;stroke:red;stroke-width:1px;stroke-linecap:butt;stroke-linejoin:miter;stroke-opacity:1" d="M 888.876,291.621 903.55,297.491 z" id="boundary" inkscape:connector-curvature="0" />
	<path style="fill:none;stroke:red;stroke-width:1px;stroke-linecap:butt;stroke-linejoin:miter;stroke-opacity:1" d="M 918.225,298.959 903.55,297.491 z" id="boundary" inkscape:connector-curvature="0" />
	<path style="fill:none;stroke:red;stroke-width:1px;stroke-linecap:butt;stroke-linejoin:miter;stroke-opacity:1" d="M 918.225,298.959 932.899,298.959 z" id="boundary" inkscape:connector-curvature="0" />
	<path style="fill:none;stroke:red;stroke-width:1px;stroke-linecap:butt;stroke-linejoin:miter;stroke-opacity:1" d="M 947.574,298.959 932.899,298.959 z" id="boundary" inkscape:connector-curvature="0" />
	<path style="fill:none;stroke:red;stroke-width:1px;stroke-linecap:butt;stroke-linejoin:miter;stroke-opacity:1" d="M 960.781,291.621 947.574,298.959 z" id="boundary" inkscape:connector-curvature="0" />
	<path style="fill:none;stroke:red;stroke-width:1px;stroke-linecap:butt;stroke-linejoin:miter;stroke-opacity:1" d="M 972.521,279.882 960.781,291.621 z" id="boundary" inkscape:connector-curvature="0" />
	<path style="fill:none;stroke:red;stroke-width:1px;stroke-linecap:butt;stroke-linejoin:miter;stroke-opacity:1" d="M 753.87,298.959 765.609,288.686 z" id="boundary" inkscape:connector-curvature="0" />
	<path style="fill:none;stroke:red;stroke-width:1px;stroke-linecap:butt;stroke-linejoin:miter;stroke-opacity:1" d="M 495.598,4 510.272,4 z" id="boundary" inkscape:connector-curvature="0" />
	<circle cx="4" cy="206.509" r="4" fill="#0" id="circle0"/>
	<circle cx="4" cy="221.183" r="4" fill="#0" id="circle1"/>
	<circle cx="11.3373" cy="191.834" r="4" fill="#0" id="circle2"/>
	<circle cx="15.7396" cy="231.456" r="4" fill="#0" id="circle3"/>
	<circle cx="23.0769" cy="180.095" r="4" fill="#0" id="circle4"/>
	<circle cx="26.0118" cy="243.195" r="4" fill="#0" id="circle5"/>
	<circle cx="34.8166" cy="168.355" r="4" fill="#0" id="circle6"/>
	<circle cx="37.7515" cy="253.467" r="4" fill="#0" id="circle7"/>
	<circle cx="46.5562" cy="158.083" r="4" fill="#0" id="circle8"/>
	<circle cx="50.9586" cy="260.805" r="4" fill="#0" id="circle9"/>
	<circle cx="59.7633" cy="150.746" r="4" fill="#0" id="circle10"/>
	<circle cx="62.6982" cy="269.609" r="4" fill="#0" id="circle11"/>
	<circle cx="71.503" cy="139.006" r="4" fill="#0" id="circle12"/>
	<circle cx="75.9053" cy="276.947" r="4" fill="#0" id="circle13"/>
	<circle cx="83.2426" cy="128.734" r="4" fill="#0" id="circle14"/>
	<circle cx="89.1124" cy="284.284" r="4" fill="#0" id="circle15"/>
	<circle cx="92.0473" cy="111.124" r="4" fill="#0" id="circle16"/>
	<circle cx="102.32" cy="291.621" r="4" fill="#0" id="circle17"/>
	<circle cx="103.787" cy="99.3846" r="4" fill="#0" id="circle18"/>
	<circle cx="114.059" cy="300.426" r="4" fill="#0" id="circle19"/>
	<circle cx="115.527" cy="87.645" r="4" fill="#0" id="circle20"/>
	<circle cx="124.331" cy="312.166" r="4" fill="#0" id="circle21"/>
	<circle cx="127.266" cy="77.3728" r="4" fill="#0" id="circle22"/>
	<circle cx="136.071" cy="320.97" r="4" fill="#0" id="circle23"/>
	<circle cx="136.071" cy="335.645" r="4" fill="#0" id="circle24"/>
	<circle cx="136.071" cy="350.32" r="4" fill="#0" id="circle25"/>
	<circle cx="140.473" cy="70.0355" r="4" fill="#0" id="circle26"/>
	<circle cx="144.876" cy="362.059" r="4" fill="#0" id="circle27"/>
	<circle cx="152.213" cy="58.2959" r="4" fill="#0" id="circle28"/>
	<circle cx="159.55" cy="357.657" r="4" fill="#0" id="circle29"/>
	<circle cx="166.888" cy="50.9586" r="4" fill="#0" id="circle30"/>
	<circle cx="171.29" cy="347.385" r="4" fill="#0" id="circle31"/>
	<circle cx="181.562" cy="48.0237" r="4" fill="#0" id="circle32"/>
	<circle cx="185.964" cy="350.32" r="4" fill="#0" id="circle33"/>
	<circle cx="194.769" cy="40.6864" r="4" fill="#0" id="circle34"/>
	<circle cx="199.172" cy="357.657" r="4" fill="#0" id="circle35"/>
	<circle cx="207.976" cy="33.3491" r="4" fill="#0" id="circle36"/>
	<circle cx="210.911" cy="367.929" r="4" fill="#0" id="circle37"/>
	<circle cx="216.781" cy="382.604" r="4" fill="#0" id="circle38"/>
	<circle cx="221.183" cy="26.0118" r="4" fill="#0" id="circle39"/>
	<circle cx="228.521" cy="392.876" r="4" fill="#0" id="circle40"/>
	<circle cx="234.391" cy="18.6746" r="4" fill="#0" id="circle41"/>
	<circle cx="241.728" cy="400.213" r="4" fill="#0" id="circle42"/>
	<circle cx="249.065" cy="18.6746" r="4" fill="#0" id="circle43"/>
	<circle cx="253.467" cy="409.018" r="4" fill="#0" id="circle44"/>
	<circle cx="263.74" cy="18.6746" r="4" fill="#0" id="circle45"/>
	<circle cx="266.675" cy="416.355" r="4" fill="#0" id="circle46"/>
	<circle cx="276.947" cy="11.3373" r="4" fill="#0" id="circle47"/>
	<circle cx="281.349" cy="416.355" r="4" fill="#0" id="circle48"/>
	<circle cx="291.621" cy="11.3373" r="4" fill="#0" id="circle49"/>
	<circle cx="294.556" cy="423.692" r="4" fill="#0" id="circle50"/>
	<circle cx="306.296" cy="11.3373" r="4" fill="#0" id="circle51"/>
	<circle cx="307.763" cy="431.03" r="4" fill="#0" id="circle52"/>
	<circle cx="320.97" cy="11.3373" r="4" fill="#0" id="circle53"/>
	<circle cx="322.438" cy="431.03" r="4" fill="#0" id="circle54"/>
	<circle cx="335.645" cy="11.3373" r="4" fill="#0" id="circle55"/>
	<circle cx="337.112" cy="431.03" r="4" fill="#0" id="circle56"/>
	<circle cx="350.32" cy="11.3373" r="4" fill="#0" id="circle57"/>
	<circle cx="351.787" cy="431.03" r="4" fill="#0" id="circle58"/>
	<circle cx="364.994" cy="11.3373" r="4" fill="#0" id="circle59"/>
	<circle cx="366.462" cy="431.03" r="4" fill="#0" id="circle60"/>
	<circle cx="378.201" cy="4" r="4" fill="#0" id="circle61"/>
	<circle cx="381.136" cy="431.03" r="4" fill="#0" id="circle62"/>
	<circle cx="392.876" cy="4" r="4" fill="#0" id="circle63"/>
	<circle cx="395.811" cy="431.03" r="4" fill="#0" id="circle64"/>
	<circle cx="407.55" cy="4" r="4" fill="#0" id="circle65"/>
	<circle cx="410.485" cy="431.03" r="4" fill="#0" id="circle66"/>
	<circle cx="422.225" cy="4" r="4" fill="#0" id="circle67"/>
	<circle cx="425.16" cy="431.03" r="4" fill="#0" id="circle68"/>
	<circle cx="436.899" cy="4" r="4" fill="#0" id="circle69"/>
	<circle cx="439.834" cy="431.03" r="4" fill="#0" id="circle70"/>
	<circle cx="451.574" cy="4" r="4" fill="#0" id="circle71"/>
	<circle cx="454.509" cy="431.03" r="4" fill="#0" id="circle72"/>
	<circle cx="466.249" cy="4" r="4" fill="#0" id="circle73"/>
	<circle cx="467.716" cy="423.692" r="4" fill="#0" id="circle74"/>
	<circle cx="480.923" cy="4" r="4" fill="#0" id="circle75"/>
	<circle cx="482.391" cy="423.692" r="4" fill="#0" id="circle76"/>
	<circle cx="495.598" cy="4" r="4" fill="#0" id="circle77"/>
	<circle cx="495.598" cy="416.355" r="4" fill="#0" id="circle78"/>
	<circle cx="508.805" cy="409.018" r="4" fill="#0" id="circle79"/>
	<circle cx="510.272" cy="4" r="4" fill="#0" id="circle80"/>
	<circle cx="523.479" cy="11.3373" r="4" fill="#0" id="circle81"/>
	<circle cx="523.479" cy="406.083" r="4" fill="#0" id="circle82"/>
	<circle cx="538.154" cy="12.8047" r="4" fill="#0" id="circle83"/>
	<circle cx="538.154" cy="398.746" r="4" fill="#0" id="circle84"/>
	<circle cx="551.361" cy="20.142" r="4" fill="#0" id="circle85"/>
	<circle cx="552.828" cy="394.343" r="4" fill="#0" id="circle86"/>
	<circle cx="566.036" cy="26.0118" r="4" fill="#0" id="circle87"/>
	<circle cx="566.036" cy="387.006" r="4" fill="#0" id="circle88"/>
	<circle cx="579.243" cy="33.3491" r="4" fill="#0" id="circle89"/>
	<circle cx="579.243" cy="379.669" r="4" fill="#0" id="circle90"/>
	<circle cx="593.917" cy="33.3491" r="4" fill="#0" id="circle91"/>
	<circle cx="593.917" cy="379.669" r="4" fill="#0" id="circle92"/>
	<circle cx="607.124" cy="40.6864" r="4" fill="#0" id="circle93"/>
	<circle cx="608.592" cy="379.669" r="4" fill="#0" id="circle94"/>
	<circle cx="620.331" cy="48.0237" r="4" fill="#0" id="circle95"/>
	<circle cx="621.799" cy="372.331" r="4" fill="#0" id="circle96"/>
	<circle cx="635.006" cy="50.9586" r="4" fill="#0" id="circle97"/>
	<circle cx="636.473" cy="372.331" r="4" fill="#0" id="circle98"/>
	<circle cx="648.213" cy="58.2959" r="4" fill="#0" id="circle99"/>
	<circle cx="649.68" cy="364.994" r="4" fill="#0" id="circle100"/>
	<circle cx="658.485" cy="70.0355" r="4" fill="#0" id="circle101"/>
	<circle cx="664.355" cy="360.592" r="4" fill="#0" id="circle102"/>
	<circle cx="673.16" cy="74.4379" r="4" fill="#0" id="circle103"/>
	<circle cx="679.03" cy="357.657" r="4" fill="#0" id="circle104"/>
	<circle cx="686.367" cy="81.7751" r="4" fill="#0" id="circle105"/>
	<circle cx="690.769" cy="348.852" r="4" fill="#0" id="circle106"/>
	<circle cx="693.704" cy="94.9822" r="4" fill="#0" id="circle107"/>
	<circle cx="702.509" cy="106.722" r="4" fill="#0" id="circle108"/>
	<circle cx="702.509" cy="335.645" r="4" fill="#0" id="circle109"/>
	<circle cx="709.846" cy="119.929" r="4" fill="#0" id="circle110"/>
	<circle cx="717.183" cy="328.308" r="4" fill="#0" id="circle111"/>
	<circle cx="721.586" cy="130.201" r="4" fill="#0" id="circle112"/>
	<circle cx="731.858" cy="141.941" r="4" fill="#0" id="circle113"/>
	<circle cx="731.858" cy="320.97" r="4" fill="#0" id="circle114"/>
	<circle cx="743.598" cy="310.698" r="4" fill="#0" id="circle115"/>
	<circle cx="746.533" cy="147.811" r="4" fill="#0" id="circle116"/>
	<circle cx="753.87" cy="298.959" r="4" fill="#0" id="circle117"/>
	<circle cx="759.74" cy="155.148" r="4" fill="#0" id="circle118"/>
	<circle cx="765.609" cy="288.686" r="4" fill="#0" id="circle119"/>
	<circle cx="771.479" cy="165.42" r="4" fill="#0" id="circle120"/>
	<circle cx="775.882" cy="276.947" r="4" fill="#0" id="circle121"/>
	<circle cx="781.751" cy="177.16" r="4" fill="#0" id="circle122"/>
	<circle cx="789.089" cy="269.609" r="4" fill="#0" id="circle123"/>
	<circle cx="796.426" cy="183.03" r="4" fill="#0" id="circle124"/>
	<circle cx="803.763" cy="269.609" r="4" fill="#0" id="circle125"/>
	<circle cx="811.101" cy="187.432" r="4" fill="#0" id="circle126"/>
	<circle cx="818.438" cy="269.609" r="4" fill="#0" id="circle127"/>
	<circle cx="825.775" cy="187.432" r="4" fill="#0" id="circle128"/>
	<circle cx="831.645" cy="276.947" r="4" fill="#0" id="circle129"/>
	<circle cx="840.45" cy="184.497" r="4" fill="#0" id="circle130"/>
	<circle cx="844.852" cy="284.284" r="4" fill="#0" id="circle131"/>
	<circle cx="855.124" cy="177.16" r="4" fill="#0" id="circle132"/>
	<circle cx="859.527" cy="290.154" r="4" fill="#0" id="circle133"/>
	<circle cx="869.799" cy="172.757" r="4" fill="#0" id="circle134"/>
	<circle cx="874.201" cy="291.621" r="4" fill="#0" id="circle135"/>
	<circle cx="884.473" cy="172.757" r="4" fill="#0" id="circle136"/>
	<circle cx="888.876" cy="291.621" r="4" fill="#0" id="circle137"/>
	<circle cx="899.148" cy="169.822" r="4" fill="#0" id="circle138"/>
	<circle cx="903.55" cy="297.491" r="4" fill="#0" id="circle139"/>
	<circle cx="913.822" cy="165.42" r="4" fill="#0" id="circle140"/>
	<circle cx="918.225" cy="298.959" r="4" fill="#0" id="circle141"/>
	<circle cx="928.497" cy="165.42" r="4" fill="#0" id="circle142"/>
	<circle cx="932.899" cy="298.959" r="4" fill="#0" id="circle143"/>
	<circle cx="943.172" cy="165.42" r="4" fill="#0" id="circle144"/>
	<circle cx="947.574" cy="298.959" r="4" fill="#0" id="circle145"/>
	<circle cx="957.846" cy="165.42" r="4" fill="#0" id="circle146"/>
	<circle cx="960.781" cy="291.621" r="4" fill="#0" id="circle147"/>
	<circle cx="972.521" cy="168.355" r="4" fill="#0" id="circle148"/>
	<circle cx="972.521" cy="279.882" r="4" fill="#0" id="circle149"/>
	<circle cx="981.325" cy="180.095" r="4" fill="#0" id="circle150"/>
	<circle cx="984.26" cy="268.142" r="4" fill="#0" id="circle151"/>
	<circle cx="988.663" cy="193.302" r="4" fill="#0" id="circle152"/>
	<circle cx="991.598" cy="253.467" r="4" fill="#0" id="circle153"/>
	<circle cx="996" cy="206.509" r="4" fill="#0" id="circle154"/>
	<circle cx="996" cy="221.183" r="4" fill="#0" id="circle155"/>
	<circle cx="996" cy="235.858" r="4" fill="#0" id="circle156"/>
	</g>
</svg>