<?xml version="1.0" encoding="UTF-8" standalone="no"?>
<!-- Created with CurveBenchmark -->
<svg
	xmlns:dc="http://purl.org/dc/elements/1.1/"
	xmlns:cc="http://creativecommons.org/ns#"
	xmlns:rdf="http://www.w3.org/1999/02/22-rdf-syntax-ns#"
	xmlns:svg="http://www.w3.org/2000/svg"
	xmlns="http://www.w3.org/2000/svg"
	xmlns:sodipodi="http://sodipodi.sourceforge.net/DTD/sodipodi-0.dtd"
	xmlns:inkscape="http://www.inkscape.org/namespaces/inkscape"
	width="1000"
	height="1000"
	id="svg2"
	version="1.1"
	sodipodi:docname="manifold/nncrust-bed180.png.txt">
<defs
	id="defs4" />
<metadata
	id="metadata7">
	<rdf:RDF>
		<cc:Work
			rdf:about="">
			<dc:format>image/svg+xml</dc:format>
			<dc:type
				rdf:resource="http://purl.org/dc/dcmitype/StillImage" />
			<dc:title></dc:title>
		</cc:Work>
	</rdf:RDF>
</metadata>
<g
	inkscape:label="Layer 1"
	inkscape:groupmode="layer"
	id="layer1">
	<path style="fill:none;stroke:red;stroke-width:1px;stroke-linecap:butt;stroke-linejoin:miter;stroke-opacity:1" d="M 69.6285,190.789 84.7735,170.595 z" id="boundary" inkscape:connector-curvature="0" />
	<path style="fill:none;stroke:red;stroke-width:1px;stroke-linecap:butt;stroke-linejoin:miter;stroke-opacity:1" d="M 69.6285,216.031 69.6285,190.789 z" id="boundary" inkscape:connector-curvature="0" />
	<path style="fill:none;stroke:red;stroke-width:1px;stroke-linecap:butt;stroke-linejoin:miter;stroke-opacity:1" d="M 69.6285,216.031 82.2494,238.748 z" id="boundary" inkscape:connector-curvature="0" />
	<path style="fill:none;stroke:red;stroke-width:1px;stroke-linecap:butt;stroke-linejoin:miter;stroke-opacity:1" d="M 89.8219,263.99 82.2494,238.748 z" id="boundary" inkscape:connector-curvature="0" />
	<path style="fill:none;stroke:red;stroke-width:1px;stroke-linecap:butt;stroke-linejoin:miter;stroke-opacity:1" d="M 89.8219,263.99 89.8219,289.232 z" id="boundary" inkscape:connector-curvature="0" />
	<path style="fill:none;stroke:red;stroke-width:1px;stroke-linecap:butt;stroke-linejoin:miter;stroke-opacity:1" d="M 94.8702,314.473 89.8219,289.232 z" id="boundary" inkscape:connector-curvature="0" />
	<path style="fill:none;stroke:red;stroke-width:1px;stroke-linecap:butt;stroke-linejoin:miter;stroke-opacity:1" d="M 94.8702,314.473 94.8702,339.715 z" id="boundary" inkscape:connector-curvature="0" />
	<path style="fill:none;stroke:red;stroke-width:1px;stroke-linecap:butt;stroke-linejoin:miter;stroke-opacity:1" d="M 84.7735,170.595 107.491,157.975 z" id="boundary" inkscape:connector-curvature="0" />
	<path style="fill:none;stroke:red;stroke-width:1px;stroke-linecap:butt;stroke-linejoin:miter;stroke-opacity:1" d="M 21.6692,534.076 6.52417,513.883 z" id="boundary" inkscape:connector-curvature="0" />
	<path style="fill:none;stroke:red;stroke-width:1px;stroke-linecap:butt;stroke-linejoin:miter;stroke-opacity:1" d="M 39.3384,453.303 19.145,468.448 z" id="boundary" inkscape:connector-curvature="0" />
	<path style="fill:none;stroke:red;stroke-width:1px;stroke-linecap:butt;stroke-linejoin:miter;stroke-opacity:1" d="M 4,488.641 6.52417,513.883 z" id="boundary" inkscape:connector-curvature="0" />
	<path style="fill:none;stroke:red;stroke-width:1px;stroke-linecap:butt;stroke-linejoin:miter;stroke-opacity:1" d="M 4,488.641 19.145,468.448 z" id="boundary" inkscape:connector-curvature="0" />
	<path style="fill:none;stroke:red;stroke-width:1px;stroke-linecap:butt;stroke-linejoin:miter;stroke-opacity:1" d="M 89.8219,402.819 94.8702,364.957 z" id="boundary" inkscape:connector-curvature="0" />
	<path style="fill:none;stroke:red;stroke-width:1px;stroke-linecap:butt;stroke-linejoin:miter;stroke-opacity:1" d="M 89.8219,428.061 89.8219,402.819 z" id="boundary" inkscape:connector-curvature="0" />
	<path style="fill:none;stroke:red;stroke-width:1px;stroke-linecap:butt;stroke-linejoin:miter;stroke-opacity:1" d="M 64.5802,443.206 39.3384,453.303 z" id="boundary" inkscape:connector-curvature="0" />
	<path style="fill:none;stroke:red;stroke-width:1px;stroke-linecap:butt;stroke-linejoin:miter;stroke-opacity:1" d="M 89.8219,428.061 64.5802,443.206 z" id="boundary" inkscape:connector-curvature="0" />
	<path style="fill:none;stroke:red;stroke-width:1px;stroke-linecap:butt;stroke-linejoin:miter;stroke-opacity:1" d="M 94.8702,339.715 94.8702,364.957 z" id="boundary" inkscape:connector-curvature="0" />
	<path style="fill:none;stroke:red;stroke-width:1px;stroke-linecap:butt;stroke-linejoin:miter;stroke-opacity:1" d="M 375.053,74.6768 400.295,64.5802 z" id="boundary" inkscape:connector-curvature="0" />
	<path style="fill:none;stroke:red;stroke-width:1px;stroke-linecap:butt;stroke-linejoin:miter;stroke-opacity:1" d="M 359.908,94.8702 375.053,74.6768 z" id="boundary" inkscape:connector-curvature="0" />
	<path style="fill:none;stroke:red;stroke-width:1px;stroke-linecap:butt;stroke-linejoin:miter;stroke-opacity:1" d="M 359.908,94.8702 334.667,99.9186 z" id="boundary" inkscape:connector-curvature="0" />
	<path style="fill:none;stroke:red;stroke-width:1px;stroke-linecap:butt;stroke-linejoin:miter;stroke-opacity:1" d="M 400.295,64.5802 425.537,57.0076 z" id="boundary" inkscape:connector-curvature="0" />
	<path style="fill:none;stroke:red;stroke-width:1px;stroke-linecap:butt;stroke-linejoin:miter;stroke-opacity:1" d="M 334.667,99.9186 309.425,104.967 z" id="boundary" inkscape:connector-curvature="0" />
	<path style="fill:none;stroke:red;stroke-width:1px;stroke-linecap:butt;stroke-linejoin:miter;stroke-opacity:1" d="M 450.779,46.9109 465.924,26.7176 z" id="boundary" inkscape:connector-curvature="0" />
	<path style="fill:none;stroke:red;stroke-width:1px;stroke-linecap:butt;stroke-linejoin:miter;stroke-opacity:1" d="M 450.779,46.9109 425.537,57.0076 z" id="boundary" inkscape:connector-curvature="0" />
	<path style="fill:none;stroke:red;stroke-width:1px;stroke-linecap:butt;stroke-linejoin:miter;stroke-opacity:1" d="M 486.117,6.52417 465.924,26.7176 z" id="boundary" inkscape:connector-curvature="0" />
	<path style="fill:none;stroke:red;stroke-width:1px;stroke-linecap:butt;stroke-linejoin:miter;stroke-opacity:1" d="M 157.975,137.781 183.216,135.257 z" id="boundary" inkscape:connector-curvature="0" />
	<path style="fill:none;stroke:red;stroke-width:1px;stroke-linecap:butt;stroke-linejoin:miter;stroke-opacity:1" d="M 132.733,147.878 157.975,137.781 z" id="boundary" inkscape:connector-curvature="0" />
	<path style="fill:none;stroke:red;stroke-width:1px;stroke-linecap:butt;stroke-linejoin:miter;stroke-opacity:1" d="M 208.458,125.16 183.216,135.257 z" id="boundary" inkscape:connector-curvature="0" />
	<path style="fill:none;stroke:red;stroke-width:1px;stroke-linecap:butt;stroke-linejoin:miter;stroke-opacity:1" d="M 284.183,110.015 309.425,104.967 z" id="boundary" inkscape:connector-curvature="0" />
	<path style="fill:none;stroke:red;stroke-width:1px;stroke-linecap:butt;stroke-linejoin:miter;stroke-opacity:1" d="M 208.458,125.16 233.7,120.112 z" id="boundary" inkscape:connector-curvature="0" />
	<path style="fill:none;stroke:red;stroke-width:1px;stroke-linecap:butt;stroke-linejoin:miter;stroke-opacity:1" d="M 258.941,115.064 233.7,120.112 z" id="boundary" inkscape:connector-curvature="0" />
	<path style="fill:none;stroke:red;stroke-width:1px;stroke-linecap:butt;stroke-linejoin:miter;stroke-opacity:1" d="M 258.941,115.064 284.183,110.015 z" id="boundary" inkscape:connector-curvature="0" />
	<path style="fill:none;stroke:red;stroke-width:1px;stroke-linecap:butt;stroke-linejoin:miter;stroke-opacity:1" d="M 107.491,157.975 132.733,147.878 z" id="boundary" inkscape:connector-curvature="0" />
	<path style="fill:none;stroke:red;stroke-width:1px;stroke-linecap:butt;stroke-linejoin:miter;stroke-opacity:1" d="M 34.2901,556.794 21.6692,534.076 z" id="boundary" inkscape:connector-curvature="0" />
	<path style="fill:none;stroke:red;stroke-width:1px;stroke-linecap:butt;stroke-linejoin:miter;stroke-opacity:1" d="M 24.1934,710.768 29.2417,685.527 z" id="boundary" inkscape:connector-curvature="0" />
	<path style="fill:none;stroke:red;stroke-width:1px;stroke-linecap:butt;stroke-linejoin:miter;stroke-opacity:1" d="M 62.056,715.817 24.1934,710.768 z" id="boundary" inkscape:connector-curvature="0" />
	<path style="fill:none;stroke:red;stroke-width:1px;stroke-linecap:butt;stroke-linejoin:miter;stroke-opacity:1" d="M 34.2901,556.794 34.2901,582.036 z" id="boundary" inkscape:connector-curvature="0" />
	<path style="fill:none;stroke:red;stroke-width:1px;stroke-linecap:butt;stroke-linejoin:miter;stroke-opacity:1" d="M 34.2901,582.036 34.2901,607.277 z" id="boundary" inkscape:connector-curvature="0" />
	<path style="fill:none;stroke:red;stroke-width:1px;stroke-linecap:butt;stroke-linejoin:miter;stroke-opacity:1" d="M 34.2901,632.519 34.2901,607.277 z" id="boundary" inkscape:connector-curvature="0" />
	<path style="fill:none;stroke:red;stroke-width:1px;stroke-linecap:butt;stroke-linejoin:miter;stroke-opacity:1" d="M 34.2901,632.519 34.2901,657.761 z" id="boundary" inkscape:connector-curvature="0" />
	<path style="fill:none;stroke:red;stroke-width:1px;stroke-linecap:butt;stroke-linejoin:miter;stroke-opacity:1" d="M 34.2901,657.761 29.2417,685.527 z" id="boundary" inkscape:connector-curvature="0" />
	<path style="fill:none;stroke:red;stroke-width:1px;stroke-linecap:butt;stroke-linejoin:miter;stroke-opacity:1" d="M 24.1934,766.3 26.7176,736.01 z" id="boundary" inkscape:connector-curvature="0" />
	<path style="fill:none;stroke:red;stroke-width:1px;stroke-linecap:butt;stroke-linejoin:miter;stroke-opacity:1" d="M 26.7176,736.01 24.1934,710.768 z" id="boundary" inkscape:connector-curvature="0" />
	<path style="fill:none;stroke:red;stroke-width:1px;stroke-linecap:butt;stroke-linejoin:miter;stroke-opacity:1" d="M 44.3868,783.969 24.1934,766.3 z" id="boundary" inkscape:connector-curvature="0" />
	<path style="fill:none;stroke:red;stroke-width:1px;stroke-linecap:butt;stroke-linejoin:miter;stroke-opacity:1" d="M 62.056,715.817 62.056,741.059 z" id="boundary" inkscape:connector-curvature="0" />
	<path style="fill:none;stroke:red;stroke-width:1px;stroke-linecap:butt;stroke-linejoin:miter;stroke-opacity:1" d="M 74.6768,763.776 62.056,741.059 z" id="boundary" inkscape:connector-curvature="0" />
	<path style="fill:none;stroke:red;stroke-width:1px;stroke-linecap:butt;stroke-linejoin:miter;stroke-opacity:1" d="M 74.6768,763.776 94.8702,778.921 z" id="boundary" inkscape:connector-curvature="0" />
	<path style="fill:none;stroke:red;stroke-width:1px;stroke-linecap:butt;stroke-linejoin:miter;stroke-opacity:1" d="M 44.3868,783.969 74.6768,763.776 z" id="boundary" inkscape:connector-curvature="0" />
	<path style="fill:none;stroke:red;stroke-width:1px;stroke-linecap:butt;stroke-linejoin:miter;stroke-opacity:1" d="M 107.491,746.107 94.8702,778.921 z" id="boundary" inkscape:connector-curvature="0" />
	<path style="fill:none;stroke:red;stroke-width:1px;stroke-linecap:butt;stroke-linejoin:miter;stroke-opacity:1" d="M 107.491,720.865 107.491,746.107 z" id="boundary" inkscape:connector-curvature="0" />
	<path style="fill:none;stroke:red;stroke-width:1px;stroke-linecap:butt;stroke-linejoin:miter;stroke-opacity:1" d="M 112.539,695.623 107.491,720.865 z" id="boundary" inkscape:connector-curvature="0" />
	<path style="fill:none;stroke:red;stroke-width:1px;stroke-linecap:butt;stroke-linejoin:miter;stroke-opacity:1" d="M 137.781,693.099 163.023,698.148 z" id="boundary" inkscape:connector-curvature="0" />
	<path style="fill:none;stroke:red;stroke-width:1px;stroke-linecap:butt;stroke-linejoin:miter;stroke-opacity:1" d="M 137.781,693.099 112.539,695.623 z" id="boundary" inkscape:connector-curvature="0" />
	<path style="fill:none;stroke:red;stroke-width:1px;stroke-linecap:butt;stroke-linejoin:miter;stroke-opacity:1" d="M 188.265,708.244 163.023,698.148 z" id="boundary" inkscape:connector-curvature="0" />
	<path style="fill:none;stroke:red;stroke-width:1px;stroke-linecap:butt;stroke-linejoin:miter;stroke-opacity:1" d="M 258.941,688.051 284.183,683.003 z" id="boundary" inkscape:connector-curvature="0" />
	<path style="fill:none;stroke:red;stroke-width:1px;stroke-linecap:butt;stroke-linejoin:miter;stroke-opacity:1" d="M 284.183,683.003 309.425,688.051 z" id="boundary" inkscape:connector-curvature="0" />
	<path style="fill:none;stroke:red;stroke-width:1px;stroke-linecap:butt;stroke-linejoin:miter;stroke-opacity:1" d="M 334.667,698.148 309.425,688.051 z" id="boundary" inkscape:connector-curvature="0" />
	<path style="fill:none;stroke:red;stroke-width:1px;stroke-linecap:butt;stroke-linejoin:miter;stroke-opacity:1" d="M 233.7,695.623 258.941,688.051 z" id="boundary" inkscape:connector-curvature="0" />
	<path style="fill:none;stroke:red;stroke-width:1px;stroke-linecap:butt;stroke-linejoin:miter;stroke-opacity:1" d="M 213.506,713.293 233.7,695.623 z" id="boundary" inkscape:connector-curvature="0" />
	<path style="fill:none;stroke:red;stroke-width:1px;stroke-linecap:butt;stroke-linejoin:miter;stroke-opacity:1" d="M 213.506,713.293 188.265,708.244 z" id="boundary" inkscape:connector-curvature="0" />
	<path style="fill:none;stroke:red;stroke-width:1px;stroke-linecap:butt;stroke-linejoin:miter;stroke-opacity:1" d="M 334.667,698.148 359.908,708.244 z" id="boundary" inkscape:connector-curvature="0" />
	<path style="fill:none;stroke:red;stroke-width:1px;stroke-linecap:butt;stroke-linejoin:miter;stroke-opacity:1" d="M 94.8702,778.921 188.265,708.244 z" id="boundary" inkscape:connector-curvature="0" />
	<path style="fill:none;stroke:red;stroke-width:1px;stroke-linecap:butt;stroke-linejoin:miter;stroke-opacity:1" d="M 385.15,713.293 410.392,723.389 z" id="boundary" inkscape:connector-curvature="0" />
	<path style="fill:none;stroke:red;stroke-width:1px;stroke-linecap:butt;stroke-linejoin:miter;stroke-opacity:1" d="M 359.908,708.244 385.15,713.293 z" id="boundary" inkscape:connector-curvature="0" />
	<path style="fill:none;stroke:red;stroke-width:1px;stroke-linecap:butt;stroke-linejoin:miter;stroke-opacity:1" d="M 435.634,728.438 410.392,723.389 z" id="boundary" inkscape:connector-curvature="0" />
	<path style="fill:none;stroke:red;stroke-width:1px;stroke-linecap:butt;stroke-linejoin:miter;stroke-opacity:1" d="M 486.117,738.534 460.875,738.534 z" id="boundary" inkscape:connector-curvature="0" />
	<path style="fill:none;stroke:red;stroke-width:1px;stroke-linecap:butt;stroke-linejoin:miter;stroke-opacity:1" d="M 460.875,738.534 435.634,728.438 z" id="boundary" inkscape:connector-curvature="0" />
	<path style="fill:none;stroke:red;stroke-width:1px;stroke-linecap:butt;stroke-linejoin:miter;stroke-opacity:1" d="M 511.359,738.534 486.117,738.534 z" id="boundary" inkscape:connector-curvature="0" />
	<path style="fill:none;stroke:red;stroke-width:1px;stroke-linecap:butt;stroke-linejoin:miter;stroke-opacity:1" d="M 526.504,24.1934 546.697,39.3384 z" id="boundary" inkscape:connector-curvature="0" />
	<path style="fill:none;stroke:red;stroke-width:1px;stroke-linecap:butt;stroke-linejoin:miter;stroke-opacity:1" d="M 526.504,24.1934 511.359,4 z" id="boundary" inkscape:connector-curvature="0" />
	<path style="fill:none;stroke:red;stroke-width:1px;stroke-linecap:butt;stroke-linejoin:miter;stroke-opacity:1" d="M 592.132,59.5318 566.891,54.4835 z" id="boundary" inkscape:connector-curvature="0" />
	<path style="fill:none;stroke:red;stroke-width:1px;stroke-linecap:butt;stroke-linejoin:miter;stroke-opacity:1" d="M 566.891,54.4835 546.697,39.3384 z" id="boundary" inkscape:connector-curvature="0" />
	<path style="fill:none;stroke:red;stroke-width:1px;stroke-linecap:butt;stroke-linejoin:miter;stroke-opacity:1" d="M 592.132,59.5318 614.85,72.1527 z" id="boundary" inkscape:connector-curvature="0" />
	<path style="fill:none;stroke:red;stroke-width:1px;stroke-linecap:butt;stroke-linejoin:miter;stroke-opacity:1" d="M 614.85,72.1527 632.519,92.3461 z" id="boundary" inkscape:connector-curvature="0" />
	<path style="fill:none;stroke:red;stroke-width:1px;stroke-linecap:butt;stroke-linejoin:miter;stroke-opacity:1" d="M 632.519,92.3461 657.761,94.8702 z" id="boundary" inkscape:connector-curvature="0" />
	<path style="fill:none;stroke:red;stroke-width:1px;stroke-linecap:butt;stroke-linejoin:miter;stroke-opacity:1" d="M 657.761,94.8702 683.003,99.9186 z" id="boundary" inkscape:connector-curvature="0" />
	<path style="fill:none;stroke:red;stroke-width:1px;stroke-linecap:butt;stroke-linejoin:miter;stroke-opacity:1" d="M 683.003,99.9186 708.244,104.967 z" id="boundary" inkscape:connector-curvature="0" />
	<path style="fill:none;stroke:red;stroke-width:1px;stroke-linecap:butt;stroke-linejoin:miter;stroke-opacity:1" d="M 733.486,110.015 758.728,115.064 z" id="boundary" inkscape:connector-curvature="0" />
	<path style="fill:none;stroke:red;stroke-width:1px;stroke-linecap:butt;stroke-linejoin:miter;stroke-opacity:1" d="M 733.486,110.015 708.244,104.967 z" id="boundary" inkscape:connector-curvature="0" />
	<path style="fill:none;stroke:red;stroke-width:1px;stroke-linecap:butt;stroke-linejoin:miter;stroke-opacity:1" d="M 783.969,120.112 809.211,130.209 z" id="boundary" inkscape:connector-curvature="0" />
	<path style="fill:none;stroke:red;stroke-width:1px;stroke-linecap:butt;stroke-linejoin:miter;stroke-opacity:1" d="M 758.728,115.064 783.969,120.112 z" id="boundary" inkscape:connector-curvature="0" />
	<path style="fill:none;stroke:red;stroke-width:1px;stroke-linecap:butt;stroke-linejoin:miter;stroke-opacity:1" d="M 834.453,135.257 809.211,130.209 z" id="boundary" inkscape:connector-curvature="0" />
	<path style="fill:none;stroke:red;stroke-width:1px;stroke-linecap:butt;stroke-linejoin:miter;stroke-opacity:1" d="M 834.453,135.257 859.695,140.305 z" id="boundary" inkscape:connector-curvature="0" />
	<path style="fill:none;stroke:red;stroke-width:1px;stroke-linecap:butt;stroke-linejoin:miter;stroke-opacity:1" d="M 927.847,238.748 915.226,261.466 z" id="boundary" inkscape:connector-curvature="0" />
	<path style="fill:none;stroke:red;stroke-width:1px;stroke-linecap:butt;stroke-linejoin:miter;stroke-opacity:1" d="M 915.226,286.707 910.178,327.094 z" id="boundary" inkscape:connector-curvature="0" />
	<path style="fill:none;stroke:red;stroke-width:1px;stroke-linecap:butt;stroke-linejoin:miter;stroke-opacity:1" d="M 915.226,261.466 915.226,286.707 z" id="boundary" inkscape:connector-curvature="0" />
	<path style="fill:none;stroke:red;stroke-width:1px;stroke-linecap:butt;stroke-linejoin:miter;stroke-opacity:1" d="M 884.936,150.402 910.178,160.499 z" id="boundary" inkscape:connector-curvature="0" />
	<path style="fill:none;stroke:red;stroke-width:1px;stroke-linecap:butt;stroke-linejoin:miter;stroke-opacity:1" d="M 910.178,327.094 910.178,352.336 z" id="boundary" inkscape:connector-curvature="0" />
	<path style="fill:none;stroke:red;stroke-width:1px;stroke-linecap:butt;stroke-linejoin:miter;stroke-opacity:1" d="M 940.468,200.885 927.847,238.748 z" id="boundary" inkscape:connector-curvature="0" />
	<path style="fill:none;stroke:red;stroke-width:1px;stroke-linecap:butt;stroke-linejoin:miter;stroke-opacity:1" d="M 910.178,160.499 930.372,175.644 z" id="boundary" inkscape:connector-curvature="0" />
	<path style="fill:none;stroke:red;stroke-width:1px;stroke-linecap:butt;stroke-linejoin:miter;stroke-opacity:1" d="M 930.372,175.644 940.468,200.885 z" id="boundary" inkscape:connector-curvature="0" />
	<path style="fill:none;stroke:red;stroke-width:1px;stroke-linecap:butt;stroke-linejoin:miter;stroke-opacity:1" d="M 910.178,352.336 910.178,377.578 z" id="boundary" inkscape:connector-curvature="0" />
	<path style="fill:none;stroke:red;stroke-width:1px;stroke-linecap:butt;stroke-linejoin:miter;stroke-opacity:1" d="M 915.226,402.819 910.178,377.578 z" id="boundary" inkscape:connector-curvature="0" />
	<path style="fill:none;stroke:red;stroke-width:1px;stroke-linecap:butt;stroke-linejoin:miter;stroke-opacity:1" d="M 915.226,402.819 915.226,428.061 z" id="boundary" inkscape:connector-curvature="0" />
	<path style="fill:none;stroke:red;stroke-width:1px;stroke-linecap:butt;stroke-linejoin:miter;stroke-opacity:1" d="M 935.42,443.206 915.226,428.061 z" id="boundary" inkscape:connector-curvature="0" />
	<path style="fill:none;stroke:red;stroke-width:1px;stroke-linecap:butt;stroke-linejoin:miter;stroke-opacity:1" d="M 935.42,443.206 960.662,453.303 z" id="boundary" inkscape:connector-curvature="0" />
	<path style="fill:none;stroke:red;stroke-width:1px;stroke-linecap:butt;stroke-linejoin:miter;stroke-opacity:1" d="M 983.379,465.924 996,488.641 z" id="boundary" inkscape:connector-curvature="0" />
	<path style="fill:none;stroke:red;stroke-width:1px;stroke-linecap:butt;stroke-linejoin:miter;stroke-opacity:1" d="M 996,488.641 985.903,529.028 z" id="boundary" inkscape:connector-curvature="0" />
	<path style="fill:none;stroke:red;stroke-width:1px;stroke-linecap:butt;stroke-linejoin:miter;stroke-opacity:1" d="M 960.662,453.303 983.379,465.924 z" id="boundary" inkscape:connector-curvature="0" />
	<path style="fill:none;stroke:red;stroke-width:1px;stroke-linecap:butt;stroke-linejoin:miter;stroke-opacity:1" d="M 859.695,140.305 884.936,150.402 z" id="boundary" inkscape:connector-curvature="0" />
	<path style="fill:none;stroke:red;stroke-width:1px;stroke-linecap:butt;stroke-linejoin:miter;stroke-opacity:1" d="M 985.903,529.028 970.758,549.221 z" id="boundary" inkscape:connector-curvature="0" />
	<path style="fill:none;stroke:red;stroke-width:1px;stroke-linecap:butt;stroke-linejoin:miter;stroke-opacity:1" d="M 713.293,683.003 738.534,688.051 z" id="boundary" inkscape:connector-curvature="0" />
	<path style="fill:none;stroke:red;stroke-width:1px;stroke-linecap:butt;stroke-linejoin:miter;stroke-opacity:1" d="M 688.051,690.575 713.293,683.003 z" id="boundary" inkscape:connector-curvature="0" />
	<path style="fill:none;stroke:red;stroke-width:1px;stroke-linecap:butt;stroke-linejoin:miter;stroke-opacity:1" d="M 763.776,693.099 738.534,688.051 z" id="boundary" inkscape:connector-curvature="0" />
	<path style="fill:none;stroke:red;stroke-width:1px;stroke-linecap:butt;stroke-linejoin:miter;stroke-opacity:1" d="M 662.809,698.148 688.051,690.575 z" id="boundary" inkscape:connector-curvature="0" />
	<path style="fill:none;stroke:red;stroke-width:1px;stroke-linecap:butt;stroke-linejoin:miter;stroke-opacity:1" d="M 857.17,693.099 831.929,698.148 z" id="boundary" inkscape:connector-curvature="0" />
	<path style="fill:none;stroke:red;stroke-width:1px;stroke-linecap:butt;stroke-linejoin:miter;stroke-opacity:1" d="M 806.687,708.244 831.929,698.148 z" id="boundary" inkscape:connector-curvature="0" />
	<path style="fill:none;stroke:red;stroke-width:1px;stroke-linecap:butt;stroke-linejoin:miter;stroke-opacity:1" d="M 882.412,693.099 857.17,693.099 z" id="boundary" inkscape:connector-curvature="0" />
	<path style="fill:none;stroke:red;stroke-width:1px;stroke-linecap:butt;stroke-linejoin:miter;stroke-opacity:1" d="M 763.776,693.099 781.445,713.293 z" id="boundary" inkscape:connector-curvature="0" />
	<path style="fill:none;stroke:red;stroke-width:1px;stroke-linecap:butt;stroke-linejoin:miter;stroke-opacity:1" d="M 561.842,733.486 587.084,723.389 z" id="boundary" inkscape:connector-curvature="0" />
	<path style="fill:none;stroke:red;stroke-width:1px;stroke-linecap:butt;stroke-linejoin:miter;stroke-opacity:1" d="M 511.359,738.534 536.601,738.534 z" id="boundary" inkscape:connector-curvature="0" />
	<path style="fill:none;stroke:red;stroke-width:1px;stroke-linecap:butt;stroke-linejoin:miter;stroke-opacity:1" d="M 561.842,733.486 536.601,738.534 z" id="boundary" inkscape:connector-curvature="0" />
	<path style="fill:none;stroke:red;stroke-width:1px;stroke-linecap:butt;stroke-linejoin:miter;stroke-opacity:1" d="M 637.567,705.72 662.809,698.148 z" id="boundary" inkscape:connector-curvature="0" />
	<path style="fill:none;stroke:red;stroke-width:1px;stroke-linecap:butt;stroke-linejoin:miter;stroke-opacity:1" d="M 806.687,708.244 781.445,713.293 z" id="boundary" inkscape:connector-curvature="0" />
	<path style="fill:none;stroke:red;stroke-width:1px;stroke-linecap:butt;stroke-linejoin:miter;stroke-opacity:1" d="M 587.084,723.389 612.326,713.293 z" id="boundary" inkscape:connector-curvature="0" />
	<path style="fill:none;stroke:red;stroke-width:1px;stroke-linecap:butt;stroke-linejoin:miter;stroke-opacity:1" d="M 612.326,713.293 637.567,705.72 z" id="boundary" inkscape:connector-curvature="0" />
	<path style="fill:none;stroke:red;stroke-width:1px;stroke-linecap:butt;stroke-linejoin:miter;stroke-opacity:1" d="M 882.412,693.099 897.557,713.293 z" id="boundary" inkscape:connector-curvature="0" />
	<path style="fill:none;stroke:red;stroke-width:1px;stroke-linecap:butt;stroke-linejoin:miter;stroke-opacity:1" d="M 970.758,574.463 970.758,599.705 z" id="boundary" inkscape:connector-curvature="0" />
	<path style="fill:none;stroke:red;stroke-width:1px;stroke-linecap:butt;stroke-linejoin:miter;stroke-opacity:1" d="M 970.758,624.947 970.758,650.188 z" id="boundary" inkscape:connector-curvature="0" />
	<path style="fill:none;stroke:red;stroke-width:1px;stroke-linecap:butt;stroke-linejoin:miter;stroke-opacity:1" d="M 970.758,599.705 970.758,624.947 z" id="boundary" inkscape:connector-curvature="0" />
	<path style="fill:none;stroke:red;stroke-width:1px;stroke-linecap:butt;stroke-linejoin:miter;stroke-opacity:1" d="M 970.758,675.43 975.807,700.672 z" id="boundary" inkscape:connector-curvature="0" />
	<path style="fill:none;stroke:red;stroke-width:1px;stroke-linecap:butt;stroke-linejoin:miter;stroke-opacity:1" d="M 975.807,700.672 935.42,710.768 z" id="boundary" inkscape:connector-curvature="0" />
	<path style="fill:none;stroke:red;stroke-width:1px;stroke-linecap:butt;stroke-linejoin:miter;stroke-opacity:1" d="M 970.758,675.43 970.758,650.188 z" id="boundary" inkscape:connector-curvature="0" />
	<path style="fill:none;stroke:red;stroke-width:1px;stroke-linecap:butt;stroke-linejoin:miter;stroke-opacity:1" d="M 970.758,574.463 970.758,549.221 z" id="boundary" inkscape:connector-curvature="0" />
	<path style="fill:none;stroke:red;stroke-width:1px;stroke-linecap:butt;stroke-linejoin:miter;stroke-opacity:1" d="M 975.807,700.672 980.855,725.913 z" id="boundary" inkscape:connector-curvature="0" />
	<path style="fill:none;stroke:red;stroke-width:1px;stroke-linecap:butt;stroke-linejoin:miter;stroke-opacity:1" d="M 897.557,713.293 897.557,738.534 z" id="boundary" inkscape:connector-curvature="0" />
	<path style="fill:none;stroke:red;stroke-width:1px;stroke-linecap:butt;stroke-linejoin:miter;stroke-opacity:1" d="M 902.606,763.776 897.557,738.534 z" id="boundary" inkscape:connector-curvature="0" />
	<path style="fill:none;stroke:red;stroke-width:1px;stroke-linecap:butt;stroke-linejoin:miter;stroke-opacity:1" d="M 902.606,763.776 922.799,778.921 z" id="boundary" inkscape:connector-curvature="0" />
	<path style="fill:none;stroke:red;stroke-width:1px;stroke-linecap:butt;stroke-linejoin:miter;stroke-opacity:1" d="M 942.992,758.728 922.799,778.921 z" id="boundary" inkscape:connector-curvature="0" />
	<path style="fill:none;stroke:red;stroke-width:1px;stroke-linecap:butt;stroke-linejoin:miter;stroke-opacity:1" d="M 980.855,725.913 970.758,751.155 z" id="boundary" inkscape:connector-curvature="0" />
	<path style="fill:none;stroke:red;stroke-width:1px;stroke-linecap:butt;stroke-linejoin:miter;stroke-opacity:1" d="M 935.42,710.768 930.372,736.01 z" id="boundary" inkscape:connector-curvature="0" />
	<path style="fill:none;stroke:red;stroke-width:1px;stroke-linecap:butt;stroke-linejoin:miter;stroke-opacity:1" d="M 942.992,758.728 970.758,751.155 z" id="boundary" inkscape:connector-curvature="0" />
	<path style="fill:none;stroke:red;stroke-width:1px;stroke-linecap:butt;stroke-linejoin:miter;stroke-opacity:1" d="M 955.613,781.445 942.992,758.728 z" id="boundary" inkscape:connector-curvature="0" />
	<path style="fill:none;stroke:red;stroke-width:1px;stroke-linecap:butt;stroke-linejoin:miter;stroke-opacity:1" d="M 942.992,758.728 930.372,736.01 z" id="boundary" inkscape:connector-curvature="0" />
	<path style="fill:none;stroke:red;stroke-width:1px;stroke-linecap:butt;stroke-linejoin:miter;stroke-opacity:1" d="M 486.117,6.52417 511.359,4 z" id="boundary" inkscape:connector-curvature="0" />
	<circle cx="4" cy="488.641" r="4" fill="#0" id="circle0"/>
	<circle cx="6.52417" cy="513.883" r="4" fill="#0" id="circle1"/>
	<circle cx="19.145" cy="468.448" r="4" fill="#0" id="circle2"/>
	<circle cx="21.6692" cy="534.076" r="4" fill="#0" id="circle3"/>
	<circle cx="24.1934" cy="710.768" r="4" fill="#0" id="circle4"/>
	<circle cx="24.1934" cy="766.3" r="4" fill="#0" id="circle5"/>
	<circle cx="26.7176" cy="736.01" r="4" fill="#0" id="circle6"/>
	<circle cx="29.2417" cy="685.527" r="4" fill="#0" id="circle7"/>
	<circle cx="34.2901" cy="556.794" r="4" fill="#0" id="circle8"/>
	<circle cx="34.2901" cy="582.036" r="4" fill="#0" id="circle9"/>
	<circle cx="34.2901" cy="607.277" r="4" fill="#0" id="circle10"/>
	<circle cx="34.2901" cy="632.519" r="4" fill="#0" id="circle11"/>
	<circle cx="34.2901" cy="657.761" r="4" fill="#0" id="circle12"/>
	<circle cx="39.3384" cy="453.303" r="4" fill="#0" id="circle13"/>
	<circle cx="44.3868" cy="783.969" r="4" fill="#0" id="circle14"/>
	<circle cx="62.056" cy="715.817" r="4" fill="#0" id="circle15"/>
	<circle cx="62.056" cy="741.059" r="4" fill="#0" id="circle16"/>
	<circle cx="64.5802" cy="443.206" r="4" fill="#0" id="circle17"/>
	<circle cx="69.6285" cy="190.789" r="4" fill="#0" id="circle18"/>
	<circle cx="69.6285" cy="216.031" r="4" fill="#0" id="circle19"/>
	<circle cx="74.6768" cy="763.776" r="4" fill="#0" id="circle20"/>
	<circle cx="82.2494" cy="238.748" r="4" fill="#0" id="circle21"/>
	<circle cx="84.7735" cy="170.595" r="4" fill="#0" id="circle22"/>
	<circle cx="89.8219" cy="263.99" r="4" fill="#0" id="circle23"/>
	<circle cx="89.8219" cy="289.232" r="4" fill="#0" id="circle24"/>
	<circle cx="89.8219" cy="402.819" r="4" fill="#0" id="circle25"/>
	<circle cx="89.8219" cy="428.061" r="4" fill="#0" id="circle26"/>
	<circle cx="94.8702" cy="314.473" r="4" fill="#0" id="circle27"/>
	<circle cx="94.8702" cy="339.715" r="4" fill="#0" id="circle28"/>
	<circle cx="94.8702" cy="364.957" r="4" fill="#0" id="circle29"/>
	<circle cx="94.8702" cy="778.921" r="4" fill="#0" id="circle30"/>
	<circle cx="107.491" cy="157.975" r="4" fill="#0" id="circle31"/>
	<circle cx="107.491" cy="720.865" r="4" fill="#0" id="circle32"/>
	<circle cx="107.491" cy="746.107" r="4" fill="#0" id="circle33"/>
	<circle cx="112.539" cy="695.623" r="4" fill="#0" id="circle34"/>
	<circle cx="132.733" cy="147.878" r="4" fill="#0" id="circle35"/>
	<circle cx="137.781" cy="693.099" r="4" fill="#0" id="circle36"/>
	<circle cx="157.975" cy="137.781" r="4" fill="#0" id="circle37"/>
	<circle cx="163.023" cy="698.148" r="4" fill="#0" id="circle38"/>
	<circle cx="183.216" cy="135.257" r="4" fill="#0" id="circle39"/>
	<circle cx="188.265" cy="708.244" r="4" fill="#0" id="circle40"/>
	<circle cx="208.458" cy="125.16" r="4" fill="#0" id="circle41"/>
	<circle cx="213.506" cy="713.293" r="4" fill="#0" id="circle42"/>
	<circle cx="233.7" cy="120.112" r="4" fill="#0" id="circle43"/>
	<circle cx="233.7" cy="695.623" r="4" fill="#0" id="circle44"/>
	<circle cx="258.941" cy="115.064" r="4" fill="#0" id="circle45"/>
	<circle cx="258.941" cy="688.051" r="4" fill="#0" id="circle46"/>
	<circle cx="284.183" cy="110.015" r="4" fill="#0" id="circle47"/>
	<circle cx="284.183" cy="683.003" r="4" fill="#0" id="circle48"/>
	<circle cx="309.425" cy="104.967" r="4" fill="#0" id="circle49"/>
	<circle cx="309.425" cy="688.051" r="4" fill="#0" id="circle50"/>
	<circle cx="334.667" cy="99.9186" r="4" fill="#0" id="circle51"/>
	<circle cx="334.667" cy="698.148" r="4" fill="#0" id="circle52"/>
	<circle cx="359.908" cy="94.8702" r="4" fill="#0" id="circle53"/>
	<circle cx="359.908" cy="708.244" r="4" fill="#0" id="circle54"/>
	<circle cx="375.053" cy="74.6768" r="4" fill="#0" id="circle55"/>
	<circle cx="385.15" cy="713.293" r="4" fill="#0" id="circle56"/>
	<circle cx="400.295" cy="64.5802" r="4" fill="#0" id="circle57"/>
	<circle cx="410.392" cy="723.389" r="4" fill="#0" id="circle58"/>
	<circle cx="425.537" cy="57.0076" r="4" fill="#0" id="circle59"/>
	<circle cx="435.634" cy="728.438" r="4" fill="#0" id="circle60"/>
	<circle cx="450.779" cy="46.9109" r="4" fill="#0" id="circle61"/>
	<circle cx="460.875" cy="738.534" r="4" fill="#0" id="circle62"/>
	<circle cx="465.924" cy="26.7176" r="4" fill="#0" id="circle63"/>
	<circle cx="486.117" cy="6.52417" r="4" fill="#0" id="circle64"/>
	<circle cx="486.117" cy="738.534" r="4" fill="#0" id="circle65"/>
	<circle cx="511.359" cy="4" r="4" fill="#0" id="circle66"/>
	<circle cx="511.359" cy="738.534" r="4" fill="#0" id="circle67"/>
	<circle cx="526.504" cy="24.1934" r="4" fill="#0" id="circle68"/>
	<circle cx="536.601" cy="738.534" r="4" fill="#0" id="circle69"/>
	<circle cx="546.697" cy="39.3384" r="4" fill="#0" id="circle70"/>
	<circle cx="561.842" cy="733.486" r="4" fill="#0" id="circle71"/>
	<circle cx="566.891" cy="54.4835" r="4" fill="#0" id="circle72"/>
	<circle cx="587.084" cy="723.389" r="4" fill="#0" id="circle73"/>
	<circle cx="592.132" cy="59.5318" r="4" fill="#0" id="circle74"/>
	<circle cx="612.326" cy="713.293" r="4" fill="#0" id="circle75"/>
	<circle cx="614.85" cy="72.1527" r="4" fill="#0" id="circle76"/>
	<circle cx="632.519" cy="92.3461" r="4" fill="#0" id="circle77"/>
	<circle cx="637.567" cy="705.72" r="4" fill="#0" id="circle78"/>
	<circle cx="657.761" cy="94.8702" r="4" fill="#0" id="circle79"/>
	<circle cx="662.809" cy="698.148" r="4" fill="#0" id="circle80"/>
	<circle cx="683.003" cy="99.9186" r="4" fill="#0" id="circle81"/>
	<circle cx="688.051" cy="690.575" r="4" fill="#0" id="circle82"/>
	<circle cx="708.244" cy="104.967" r="4" fill="#0" id="circle83"/>
	<circle cx="713.293" cy="683.003" r="4" fill="#0" id="circle84"/>
	<circle cx="733.486" cy="110.015" r="4" fill="#0" id="circle85"/>
	<circle cx="738.534" cy="688.051" r="4" fill="#0" id="circle86"/>
	<circle cx="758.728" cy="115.064" r="4" fill="#0" id="circle87"/>
	<circle cx="763.776" cy="693.099" r="4" fill="#0" id="circle88"/>
	<circle cx="781.445" cy="713.293" r="4" fill="#0" id="circle89"/>
	<circle cx="783.969" cy="120.112" r="4" fill="#0" id="circle90"/>
	<circle cx="806.687" cy="708.244" r="4" fill="#0" id="circle91"/>
	<circle cx="809.211" cy="130.209" r="4" fill="#0" id="circle92"/>
	<circle cx="831.929" cy="698.148" r="4" fill="#0" id="circle93"/>
	<circle cx="834.453" cy="135.257" r="4" fill="#0" id="circle94"/>
	<circle cx="857.17" cy="693.099" r="4" fill="#0" id="circle95"/>
	<circle cx="859.695" cy="140.305" r="4" fill="#0" id="circle96"/>
	<circle cx="882.412" cy="693.099" r="4" fill="#0" id="circle97"/>
	<circle cx="884.936" cy="150.402" r="4" fill="#0" id="circle98"/>
	<circle cx="897.557" cy="713.293" r="4" fill="#0" id="circle99"/>
	<circle cx="897.557" cy="738.534" r="4" fill="#0" id="circle100"/>
	<circle cx="902.606" cy="763.776" r="4" fill="#0" id="circle101"/>
	<circle cx="910.178" cy="160.499" r="4" fill="#0" id="circle102"/>
	<circle cx="910.178" cy="327.094" r="4" fill="#0" id="circle103"/>
	<circle cx="910.178" cy="352.336" r="4" fill="#0" id="circle104"/>
	<circle cx="910.178" cy="377.578" r="4" fill="#0" id="circle105"/>
	<circle cx="915.226" cy="261.466" r="4" fill="#0" id="circle106"/>
	<circle cx="915.226" cy="286.707" r="4" fill="#0" id="circle107"/>
	<circle cx="915.226" cy="402.819" r="4" fill="#0" id="circle108"/>
	<circle cx="915.226" cy="428.061" r="4" fill="#0" id="circle109"/>
	<circle cx="922.799" cy="778.921" r="4" fill="#0" id="circle110"/>
	<circle cx="927.847" cy="238.748" r="4" fill="#0" id="circle111"/>
	<circle cx="930.372" cy="175.644" r="4" fill="#0" id="circle112"/>
	<circle cx="930.372" cy="736.01" r="4" fill="#0" id="circle113"/>
	<circle cx="935.42" cy="443.206" r="4" fill="#0" id="circle114"/>
	<circle cx="935.42" cy="710.768" r="4" fill="#0" id="circle115"/>
	<circle cx="940.468" cy="200.885" r="4" fill="#0" id="circle116"/>
	<circle cx="942.992" cy="758.728" r="4" fill="#0" id="circle117"/>
	<circle cx="955.613" cy="781.445" r="4" fill="#0" id="circle118"/>
	<circle cx="960.662" cy="453.303" r="4" fill="#0" id="circle119"/>
	<circle cx="970.758" cy="549.221" r="4" fill="#0" id="circle120"/>
	<circle cx="970.758" cy="574.463" r="4" fill="#0" id="circle121"/>
	<circle cx="970.758" cy="599.705" r="4" fill="#0" id="circle122"/>
	<circle cx="970.758" cy="624.947" r="4" fill="#0" id="circle123"/>
	<circle cx="970.758" cy="650.188" r="4" fill="#0" id="circle124"/>
	<circle cx="970.758" cy="675.43" r="4" fill="#0" id="circle125"/>
	<circle cx="970.758" cy="751.155" r="4" fill="#0" id="circle126"/>
	<circle cx="975.807" cy="700.672" r="4" fill="#0" id="circle127"/>
	<circle cx="980.855" cy="725.913" r="4" fill="#0" id="circle128"/>
	<circle cx="983.379" cy="465.924" r="4" fill="#0" id="circle129"/>
	<circle cx="985.903" cy="529.028" r="4" fill="#0" id="circle130"/>
	<circle cx="996" cy="488.641" r="4" fill="#0" id="circle131"/>
	</g>
</svg>