<?xml version="1.0" encoding="UTF-8" standalone="no"?>
<!-- Created with CurveBenchmark -->
<svg
	xmlns:dc="http://purl.org/dc/elements/1.1/"
	xmlns:cc="http://creativecommons.org/ns#"
	xmlns:rdf="http://www.w3.org/1999/02/22-rdf-syntax-ns#"
	xmlns:svg="http://www.w3.org/2000/svg"
	xmlns="http://www.w3.org/2000/svg"
	xmlns:sodipodi="http://sodipodi.sourceforge.net/DTD/sodipodi-0.dtd"
	xmlns:inkscape="http://www.inkscape.org/namespaces/inkscape"
	width="1000"
	height="1000"
	id="svg2"
	version="1.1"
	sodipodi:docname="manifold/nncrust-tool61.png.txt">
<defs
	id="defs4" />
<metadata
	id="metadata7">
	<rdf:RDF>
		<cc:Work
			rdf:about="">
			<dc:format>image/svg+xml</dc:format>
			<dc:type
				rdf:resource="http://purl.org/dc/dcmitype/StillImage" />
			<dc:title></dc:title>
		</cc:Work>
	</rdf:RDF>
</metadata>
<g
	inkscape:label="Layer 1"
	inkscape:groupmode="layer"
	id="layer1">
	<path style="fill:none;stroke:red;stroke-width:1px;stroke-linecap:butt;stroke-linejoin:miter;stroke-opacity:1" d="M 69.0919,56.0735 63.8845,82.1102 z" id="boundary" inkscape:connector-curvature="0" />
	<path style="fill:none;stroke:red;stroke-width:1px;stroke-linecap:butt;stroke-linejoin:miter;stroke-opacity:1" d="M 43.0551,63.8845 69.0919,56.0735 z" id="boundary" inkscape:connector-curvature="0" />
	<path style="fill:none;stroke:red;stroke-width:1px;stroke-linecap:butt;stroke-linejoin:miter;stroke-opacity:1" d="M 95.1286,50.8661 69.0919,56.0735 z" id="boundary" inkscape:connector-curvature="0" />
	<path style="fill:none;stroke:red;stroke-width:1px;stroke-linecap:butt;stroke-linejoin:miter;stroke-opacity:1" d="M 121.165,43.0551 95.1286,50.8661 z" id="boundary" inkscape:connector-curvature="0" />
	<path style="fill:none;stroke:red;stroke-width:1px;stroke-linecap:butt;stroke-linejoin:miter;stroke-opacity:1" d="M 170.635,56.0735 144.598,56.0735 z" id="boundary" inkscape:connector-curvature="0" />
	<path style="fill:none;stroke:red;stroke-width:1px;stroke-linecap:butt;stroke-linejoin:miter;stroke-opacity:1" d="M 144.598,56.0735 121.165,43.0551 z" id="boundary" inkscape:connector-curvature="0" />
	<path style="fill:none;stroke:red;stroke-width:1px;stroke-linecap:butt;stroke-linejoin:miter;stroke-opacity:1" d="M 170.635,56.0735 194.068,69.0919 z" id="boundary" inkscape:connector-curvature="0" />
	<path style="fill:none;stroke:red;stroke-width:1px;stroke-linecap:butt;stroke-linejoin:miter;stroke-opacity:1" d="M 30.0367,152.409 43.0551,63.8845 z" id="boundary" inkscape:connector-curvature="0" />
	<path style="fill:none;stroke:red;stroke-width:1px;stroke-linecap:butt;stroke-linejoin:miter;stroke-opacity:1" d="M 63.8845,82.1102 87.3176,95.1286 z" id="boundary" inkscape:connector-curvature="0" />
	<path style="fill:none;stroke:red;stroke-width:1px;stroke-linecap:butt;stroke-linejoin:miter;stroke-opacity:1" d="M 87.3176,95.1286 82.1102,128.976 z" id="boundary" inkscape:connector-curvature="0" />
	<path style="fill:none;stroke:red;stroke-width:1px;stroke-linecap:butt;stroke-linejoin:miter;stroke-opacity:1" d="M 56.0735,160.22 30.0367,152.409 z" id="boundary" inkscape:connector-curvature="0" />
	<path style="fill:none;stroke:red;stroke-width:1px;stroke-linecap:butt;stroke-linejoin:miter;stroke-opacity:1" d="M 194.068,69.0919 217.501,82.1102 z" id="boundary" inkscape:connector-curvature="0" />
	<path style="fill:none;stroke:red;stroke-width:1px;stroke-linecap:butt;stroke-linejoin:miter;stroke-opacity:1" d="M 102.94,147.202 82.1102,128.976 z" id="boundary" inkscape:connector-curvature="0" />
	<path style="fill:none;stroke:red;stroke-width:1px;stroke-linecap:butt;stroke-linejoin:miter;stroke-opacity:1" d="M 30.0367,152.409 4,155.013 z" id="boundary" inkscape:connector-curvature="0" />
	<path style="fill:none;stroke:red;stroke-width:1px;stroke-linecap:butt;stroke-linejoin:miter;stroke-opacity:1" d="M 264.367,108.147 238.331,100.336 z" id="boundary" inkscape:connector-curvature="0" />
	<path style="fill:none;stroke:red;stroke-width:1px;stroke-linecap:butt;stroke-linejoin:miter;stroke-opacity:1" d="M 238.331,100.336 217.501,82.1102 z" id="boundary" inkscape:connector-curvature="0" />
	<path style="fill:none;stroke:red;stroke-width:1px;stroke-linecap:butt;stroke-linejoin:miter;stroke-opacity:1" d="M 290.404,113.354 264.367,108.147 z" id="boundary" inkscape:connector-curvature="0" />
	<path style="fill:none;stroke:red;stroke-width:1px;stroke-linecap:butt;stroke-linejoin:miter;stroke-opacity:1" d="M 493.491,82.1102 470.058,95.1286 z" id="boundary" inkscape:connector-curvature="0" />
	<path style="fill:none;stroke:red;stroke-width:1px;stroke-linecap:butt;stroke-linejoin:miter;stroke-opacity:1" d="M 470.058,95.1286 444.021,95.1286 z" id="boundary" inkscape:connector-curvature="0" />
	<path style="fill:none;stroke:red;stroke-width:1px;stroke-linecap:butt;stroke-linejoin:miter;stroke-opacity:1" d="M 519.528,69.0919 493.491,82.1102 z" id="boundary" inkscape:connector-curvature="0" />
	<path style="fill:none;stroke:red;stroke-width:1px;stroke-linecap:butt;stroke-linejoin:miter;stroke-opacity:1" d="M 420.588,108.147 444.021,95.1286 z" id="boundary" inkscape:connector-curvature="0" />
	<path style="fill:none;stroke:red;stroke-width:1px;stroke-linecap:butt;stroke-linejoin:miter;stroke-opacity:1" d="M 342.478,121.165 316.441,121.165 z" id="boundary" inkscape:connector-curvature="0" />
	<path style="fill:none;stroke:red;stroke-width:1px;stroke-linecap:butt;stroke-linejoin:miter;stroke-opacity:1" d="M 316.441,121.165 290.404,113.354 z" id="boundary" inkscape:connector-curvature="0" />
	<path style="fill:none;stroke:red;stroke-width:1px;stroke-linecap:butt;stroke-linejoin:miter;stroke-opacity:1" d="M 368.514,115.958 342.478,121.165 z" id="boundary" inkscape:connector-curvature="0" />
	<path style="fill:none;stroke:red;stroke-width:1px;stroke-linecap:butt;stroke-linejoin:miter;stroke-opacity:1" d="M 368.514,115.958 394.551,108.147 z" id="boundary" inkscape:connector-curvature="0" />
	<path style="fill:none;stroke:red;stroke-width:1px;stroke-linecap:butt;stroke-linejoin:miter;stroke-opacity:1" d="M 420.588,108.147 394.551,108.147 z" id="boundary" inkscape:connector-curvature="0" />
	<path style="fill:none;stroke:red;stroke-width:1px;stroke-linecap:butt;stroke-linejoin:miter;stroke-opacity:1" d="M 17.0184,178.446 4,155.013 z" id="boundary" inkscape:connector-curvature="0" />
	<path style="fill:none;stroke:red;stroke-width:1px;stroke-linecap:butt;stroke-linejoin:miter;stroke-opacity:1" d="M 30.0367,201.879 17.0184,178.446 z" id="boundary" inkscape:connector-curvature="0" />
	<path style="fill:none;stroke:red;stroke-width:1px;stroke-linecap:butt;stroke-linejoin:miter;stroke-opacity:1" d="M 79.5066,173.239 56.0735,160.22 z" id="boundary" inkscape:connector-curvature="0" />
	<path style="fill:none;stroke:red;stroke-width:1px;stroke-linecap:butt;stroke-linejoin:miter;stroke-opacity:1" d="M 102.94,147.202 105.543,173.239 z" id="boundary" inkscape:connector-curvature="0" />
	<path style="fill:none;stroke:red;stroke-width:1px;stroke-linecap:butt;stroke-linejoin:miter;stroke-opacity:1" d="M 105.543,173.239 79.5066,173.239 z" id="boundary" inkscape:connector-curvature="0" />
	<path style="fill:none;stroke:red;stroke-width:1px;stroke-linecap:butt;stroke-linejoin:miter;stroke-opacity:1" d="M 53.4698,214.898 30.0367,201.879 z" id="boundary" inkscape:connector-curvature="0" />
	<path style="fill:none;stroke:red;stroke-width:1px;stroke-linecap:butt;stroke-linejoin:miter;stroke-opacity:1" d="M 76.9029,227.916 53.4698,214.898 z" id="boundary" inkscape:connector-curvature="0" />
	<path style="fill:none;stroke:red;stroke-width:1px;stroke-linecap:butt;stroke-linejoin:miter;stroke-opacity:1" d="M 102.94,227.916 76.9029,227.916 z" id="boundary" inkscape:connector-curvature="0" />
	<path style="fill:none;stroke:red;stroke-width:1px;stroke-linecap:butt;stroke-linejoin:miter;stroke-opacity:1" d="M 128.976,227.916 152.409,214.898 z" id="boundary" inkscape:connector-curvature="0" />
	<path style="fill:none;stroke:red;stroke-width:1px;stroke-linecap:butt;stroke-linejoin:miter;stroke-opacity:1" d="M 152.409,214.898 178.446,214.898 z" id="boundary" inkscape:connector-curvature="0" />
	<path style="fill:none;stroke:red;stroke-width:1px;stroke-linecap:butt;stroke-linejoin:miter;stroke-opacity:1" d="M 128.976,227.916 102.94,227.916 z" id="boundary" inkscape:connector-curvature="0" />
	<path style="fill:none;stroke:red;stroke-width:1px;stroke-linecap:butt;stroke-linejoin:miter;stroke-opacity:1" d="M 105.543,173.239 128.976,227.916 z" id="boundary" inkscape:connector-curvature="0" />
	<path style="fill:none;stroke:red;stroke-width:1px;stroke-linecap:butt;stroke-linejoin:miter;stroke-opacity:1" d="M 201.879,201.879 178.446,214.898 z" id="boundary" inkscape:connector-curvature="0" />
	<path style="fill:none;stroke:red;stroke-width:1px;stroke-linecap:butt;stroke-linejoin:miter;stroke-opacity:1" d="M 227.916,201.879 201.879,201.879 z" id="boundary" inkscape:connector-curvature="0" />
	<path style="fill:none;stroke:red;stroke-width:1px;stroke-linecap:butt;stroke-linejoin:miter;stroke-opacity:1" d="M 431.003,196.672 404.966,201.879 z" id="boundary" inkscape:connector-curvature="0" />
	<path style="fill:none;stroke:red;stroke-width:1px;stroke-linecap:butt;stroke-linejoin:miter;stroke-opacity:1" d="M 227.916,201.879 253.953,201.879 z" id="boundary" inkscape:connector-curvature="0" />
	<path style="fill:none;stroke:red;stroke-width:1px;stroke-linecap:butt;stroke-linejoin:miter;stroke-opacity:1" d="M 457.039,188.861 480.472,175.843 z" id="boundary" inkscape:connector-curvature="0" />
	<path style="fill:none;stroke:red;stroke-width:1px;stroke-linecap:butt;stroke-linejoin:miter;stroke-opacity:1" d="M 480.472,175.843 506.509,175.843 z" id="boundary" inkscape:connector-curvature="0" />
	<path style="fill:none;stroke:red;stroke-width:1px;stroke-linecap:butt;stroke-linejoin:miter;stroke-opacity:1" d="M 457.039,188.861 431.003,196.672 z" id="boundary" inkscape:connector-curvature="0" />
	<path style="fill:none;stroke:red;stroke-width:1px;stroke-linecap:butt;stroke-linejoin:miter;stroke-opacity:1" d="M 306.026,201.879 279.99,201.879 z" id="boundary" inkscape:connector-curvature="0" />
	<path style="fill:none;stroke:red;stroke-width:1px;stroke-linecap:butt;stroke-linejoin:miter;stroke-opacity:1" d="M 253.953,201.879 279.99,201.879 z" id="boundary" inkscape:connector-curvature="0" />
	<path style="fill:none;stroke:red;stroke-width:1px;stroke-linecap:butt;stroke-linejoin:miter;stroke-opacity:1" d="M 306.026,201.879 329.459,214.898 z" id="boundary" inkscape:connector-curvature="0" />
	<path style="fill:none;stroke:red;stroke-width:1px;stroke-linecap:butt;stroke-linejoin:miter;stroke-opacity:1" d="M 355.496,214.898 329.459,214.898 z" id="boundary" inkscape:connector-curvature="0" />
	<path style="fill:none;stroke:red;stroke-width:1px;stroke-linecap:butt;stroke-linejoin:miter;stroke-opacity:1" d="M 355.496,214.898 381.533,214.898 z" id="boundary" inkscape:connector-curvature="0" />
	<path style="fill:none;stroke:red;stroke-width:1px;stroke-linecap:butt;stroke-linejoin:miter;stroke-opacity:1" d="M 381.533,214.898 404.966,201.879 z" id="boundary" inkscape:connector-curvature="0" />
	<path style="fill:none;stroke:red;stroke-width:1px;stroke-linecap:butt;stroke-linejoin:miter;stroke-opacity:1" d="M 506.509,175.843 532.546,175.843 z" id="boundary" inkscape:connector-curvature="0" />
	<path style="fill:none;stroke:red;stroke-width:1px;stroke-linecap:butt;stroke-linejoin:miter;stroke-opacity:1" d="M 647.108,43.0551 673.144,32.6404 z" id="boundary" inkscape:connector-curvature="0" />
	<path style="fill:none;stroke:red;stroke-width:1px;stroke-linecap:butt;stroke-linejoin:miter;stroke-opacity:1" d="M 699.181,30.0367 673.144,32.6404 z" id="boundary" inkscape:connector-curvature="0" />
	<path style="fill:none;stroke:red;stroke-width:1px;stroke-linecap:butt;stroke-linejoin:miter;stroke-opacity:1" d="M 725.218,30.0367 699.181,30.0367 z" id="boundary" inkscape:connector-curvature="0" />
	<path style="fill:none;stroke:red;stroke-width:1px;stroke-linecap:butt;stroke-linejoin:miter;stroke-opacity:1" d="M 748.651,17.0184 725.218,30.0367 z" id="boundary" inkscape:connector-curvature="0" />
	<path style="fill:none;stroke:red;stroke-width:1px;stroke-linecap:butt;stroke-linejoin:miter;stroke-opacity:1" d="M 800.724,11.811 774.688,17.0184 z" id="boundary" inkscape:connector-curvature="0" />
	<path style="fill:none;stroke:red;stroke-width:1px;stroke-linecap:butt;stroke-linejoin:miter;stroke-opacity:1" d="M 774.688,17.0184 748.651,17.0184 z" id="boundary" inkscape:connector-curvature="0" />
	<path style="fill:none;stroke:red;stroke-width:1px;stroke-linecap:butt;stroke-linejoin:miter;stroke-opacity:1" d="M 800.724,11.811 826.761,17.0184 z" id="boundary" inkscape:connector-curvature="0" />
	<path style="fill:none;stroke:red;stroke-width:1px;stroke-linecap:butt;stroke-linejoin:miter;stroke-opacity:1" d="M 568.997,56.0735 545.564,69.0919 z" id="boundary" inkscape:connector-curvature="0" />
	<path style="fill:none;stroke:red;stroke-width:1px;stroke-linecap:butt;stroke-linejoin:miter;stroke-opacity:1" d="M 545.564,69.0919 519.528,69.0919 z" id="boundary" inkscape:connector-curvature="0" />
	<path style="fill:none;stroke:red;stroke-width:1px;stroke-linecap:butt;stroke-linejoin:miter;stroke-opacity:1" d="M 568.997,56.0735 595.034,56.0735 z" id="boundary" inkscape:connector-curvature="0" />
	<path style="fill:none;stroke:red;stroke-width:1px;stroke-linecap:butt;stroke-linejoin:miter;stroke-opacity:1" d="M 595.034,56.0735 621.071,45.6588 z" id="boundary" inkscape:connector-curvature="0" />
	<path style="fill:none;stroke:red;stroke-width:1px;stroke-linecap:butt;stroke-linejoin:miter;stroke-opacity:1" d="M 647.108,43.0551 621.071,45.6588 z" id="boundary" inkscape:connector-curvature="0" />
	<path style="fill:none;stroke:red;stroke-width:1px;stroke-linecap:butt;stroke-linejoin:miter;stroke-opacity:1" d="M 826.761,17.0184 850.194,4 z" id="boundary" inkscape:connector-curvature="0" />
	<path style="fill:none;stroke:red;stroke-width:1px;stroke-linecap:butt;stroke-linejoin:miter;stroke-opacity:1" d="M 850.194,4 876.231,4 z" id="boundary" inkscape:connector-curvature="0" />
	<path style="fill:none;stroke:red;stroke-width:1px;stroke-linecap:butt;stroke-linejoin:miter;stroke-opacity:1" d="M 876.231,4 899.664,17.0184 z" id="boundary" inkscape:connector-curvature="0" />
	<path style="fill:none;stroke:red;stroke-width:1px;stroke-linecap:butt;stroke-linejoin:miter;stroke-opacity:1" d="M 923.097,30.0367 899.664,17.0184 z" id="boundary" inkscape:connector-curvature="0" />
	<path style="fill:none;stroke:red;stroke-width:1px;stroke-linecap:butt;stroke-linejoin:miter;stroke-opacity:1" d="M 946.53,43.0551 923.097,30.0367 z" id="boundary" inkscape:connector-curvature="0" />
	<path style="fill:none;stroke:red;stroke-width:1px;stroke-linecap:butt;stroke-linejoin:miter;stroke-opacity:1" d="M 923.097,30.0367 878.835,97.7323 z" id="boundary" inkscape:connector-curvature="0" />
	<path style="fill:none;stroke:red;stroke-width:1px;stroke-linecap:butt;stroke-linejoin:miter;stroke-opacity:1" d="M 902.268,110.751 878.835,97.7323 z" id="boundary" inkscape:connector-curvature="0" />
	<path style="fill:none;stroke:red;stroke-width:1px;stroke-linecap:butt;stroke-linejoin:miter;stroke-opacity:1" d="M 878.835,123.769 878.835,97.7323 z" id="boundary" inkscape:connector-curvature="0" />
	<path style="fill:none;stroke:red;stroke-width:1px;stroke-linecap:butt;stroke-linejoin:miter;stroke-opacity:1" d="M 969.963,56.0735 996,63.8845 z" id="boundary" inkscape:connector-curvature="0" />
	<path style="fill:none;stroke:red;stroke-width:1px;stroke-linecap:butt;stroke-linejoin:miter;stroke-opacity:1" d="M 996,63.8845 977.774,105.543 z" id="boundary" inkscape:connector-curvature="0" />
	<path style="fill:none;stroke:red;stroke-width:1px;stroke-linecap:butt;stroke-linejoin:miter;stroke-opacity:1" d="M 969.963,56.0735 946.53,43.0551 z" id="boundary" inkscape:connector-curvature="0" />
	<path style="fill:none;stroke:red;stroke-width:1px;stroke-linecap:butt;stroke-linejoin:miter;stroke-opacity:1" d="M 996,63.8845 969.963,201.879 z" id="boundary" inkscape:connector-curvature="0" />
	<path style="fill:none;stroke:red;stroke-width:1px;stroke-linecap:butt;stroke-linejoin:miter;stroke-opacity:1" d="M 977.774,105.543 951.738,118.562 z" id="boundary" inkscape:connector-curvature="0" />
	<path style="fill:none;stroke:red;stroke-width:1px;stroke-linecap:butt;stroke-linejoin:miter;stroke-opacity:1" d="M 925.701,123.769 902.268,110.751 z" id="boundary" inkscape:connector-curvature="0" />
	<path style="fill:none;stroke:red;stroke-width:1px;stroke-linecap:butt;stroke-linejoin:miter;stroke-opacity:1" d="M 951.738,118.562 925.701,123.769 z" id="boundary" inkscape:connector-curvature="0" />
	<path style="fill:none;stroke:red;stroke-width:1px;stroke-linecap:butt;stroke-linejoin:miter;stroke-opacity:1" d="M 582.016,162.824 608.052,162.824 z" id="boundary" inkscape:connector-curvature="0" />
	<path style="fill:none;stroke:red;stroke-width:1px;stroke-linecap:butt;stroke-linejoin:miter;stroke-opacity:1" d="M 558.583,175.843 582.016,162.824 z" id="boundary" inkscape:connector-curvature="0" />
	<path style="fill:none;stroke:red;stroke-width:1px;stroke-linecap:butt;stroke-linejoin:miter;stroke-opacity:1" d="M 634.089,162.824 608.052,162.824 z" id="boundary" inkscape:connector-curvature="0" />
	<path style="fill:none;stroke:red;stroke-width:1px;stroke-linecap:butt;stroke-linejoin:miter;stroke-opacity:1" d="M 660.126,162.824 683.559,149.806 z" id="boundary" inkscape:connector-curvature="0" />
	<path style="fill:none;stroke:red;stroke-width:1px;stroke-linecap:butt;stroke-linejoin:miter;stroke-opacity:1" d="M 683.559,149.806 709.596,149.806 z" id="boundary" inkscape:connector-curvature="0" />
	<path style="fill:none;stroke:red;stroke-width:1px;stroke-linecap:butt;stroke-linejoin:miter;stroke-opacity:1" d="M 660.126,162.824 634.089,162.824 z" id="boundary" inkscape:connector-curvature="0" />
	<path style="fill:none;stroke:red;stroke-width:1px;stroke-linecap:butt;stroke-linejoin:miter;stroke-opacity:1" d="M 709.596,149.806 733.029,162.824 z" id="boundary" inkscape:connector-curvature="0" />
	<path style="fill:none;stroke:red;stroke-width:1px;stroke-linecap:butt;stroke-linejoin:miter;stroke-opacity:1" d="M 558.583,175.843 532.546,175.843 z" id="boundary" inkscape:connector-curvature="0" />
	<path style="fill:none;stroke:red;stroke-width:1px;stroke-linecap:butt;stroke-linejoin:miter;stroke-opacity:1" d="M 733.029,162.824 756.462,175.843 z" id="boundary" inkscape:connector-curvature="0" />
	<path style="fill:none;stroke:red;stroke-width:1px;stroke-linecap:butt;stroke-linejoin:miter;stroke-opacity:1" d="M 756.462,175.843 782.499,175.843 z" id="boundary" inkscape:connector-curvature="0" />
	<path style="fill:none;stroke:red;stroke-width:1px;stroke-linecap:butt;stroke-linejoin:miter;stroke-opacity:1" d="M 808.535,175.843 782.499,175.843 z" id="boundary" inkscape:connector-curvature="0" />
	<path style="fill:none;stroke:red;stroke-width:1px;stroke-linecap:butt;stroke-linejoin:miter;stroke-opacity:1" d="M 808.535,175.843 826.761,196.672 z" id="boundary" inkscape:connector-curvature="0" />
	<path style="fill:none;stroke:red;stroke-width:1px;stroke-linecap:butt;stroke-linejoin:miter;stroke-opacity:1" d="M 910.079,160.22 884.042,149.806 z" id="boundary" inkscape:connector-curvature="0" />
	<path style="fill:none;stroke:red;stroke-width:1px;stroke-linecap:butt;stroke-linejoin:miter;stroke-opacity:1" d="M 884.042,149.806 878.835,123.769 z" id="boundary" inkscape:connector-curvature="0" />
	<path style="fill:none;stroke:red;stroke-width:1px;stroke-linecap:butt;stroke-linejoin:miter;stroke-opacity:1" d="M 959.549,173.239 933.512,173.239 z" id="boundary" inkscape:connector-curvature="0" />
	<path style="fill:none;stroke:red;stroke-width:1px;stroke-linecap:butt;stroke-linejoin:miter;stroke-opacity:1" d="M 959.549,173.239 969.963,201.879 z" id="boundary" inkscape:connector-curvature="0" />
	<path style="fill:none;stroke:red;stroke-width:1px;stroke-linecap:butt;stroke-linejoin:miter;stroke-opacity:1" d="M 933.512,173.239 910.079,160.22 z" id="boundary" inkscape:connector-curvature="0" />
	<path style="fill:none;stroke:red;stroke-width:1px;stroke-linecap:butt;stroke-linejoin:miter;stroke-opacity:1" d="M 871.024,227.916 847.591,214.898 z" id="boundary" inkscape:connector-curvature="0" />
	<path style="fill:none;stroke:red;stroke-width:1px;stroke-linecap:butt;stroke-linejoin:miter;stroke-opacity:1" d="M 847.591,214.898 826.761,196.672 z" id="boundary" inkscape:connector-curvature="0" />
	<path style="fill:none;stroke:red;stroke-width:1px;stroke-linecap:butt;stroke-linejoin:miter;stroke-opacity:1" d="M 949.134,225.312 923.097,227.916 z" id="boundary" inkscape:connector-curvature="0" />
	<path style="fill:none;stroke:red;stroke-width:1px;stroke-linecap:butt;stroke-linejoin:miter;stroke-opacity:1" d="M 923.097,227.916 897.06,227.916 z" id="boundary" inkscape:connector-curvature="0" />
	<path style="fill:none;stroke:red;stroke-width:1px;stroke-linecap:butt;stroke-linejoin:miter;stroke-opacity:1" d="M 897.06,227.916 871.024,227.916 z" id="boundary" inkscape:connector-curvature="0" />
	<path style="fill:none;stroke:red;stroke-width:1px;stroke-linecap:butt;stroke-linejoin:miter;stroke-opacity:1" d="M 969.963,201.879 949.134,225.312 z" id="boundary" inkscape:connector-curvature="0" />
	<circle cx="4" cy="155.013" r="4" fill="#0" id="circle0"/>
	<circle cx="17.0184" cy="178.446" r="4" fill="#0" id="circle1"/>
	<circle cx="30.0367" cy="152.409" r="4" fill="#0" id="circle2"/>
	<circle cx="30.0367" cy="201.879" r="4" fill="#0" id="circle3"/>
	<circle cx="43.0551" cy="63.8845" r="4" fill="#0" id="circle4"/>
	<circle cx="53.4698" cy="214.898" r="4" fill="#0" id="circle5"/>
	<circle cx="56.0735" cy="160.22" r="4" fill="#0" id="circle6"/>
	<circle cx="63.8845" cy="82.1102" r="4" fill="#0" id="circle7"/>
	<circle cx="69.0919" cy="56.0735" r="4" fill="#0" id="circle8"/>
	<circle cx="76.9029" cy="227.916" r="4" fill="#0" id="circle9"/>
	<circle cx="79.5066" cy="173.239" r="4" fill="#0" id="circle10"/>
	<circle cx="82.1102" cy="128.976" r="4" fill="#0" id="circle11"/>
	<circle cx="87.3176" cy="95.1286" r="4" fill="#0" id="circle12"/>
	<circle cx="95.1286" cy="50.8661" r="4" fill="#0" id="circle13"/>
	<circle cx="102.94" cy="147.202" r="4" fill="#0" id="circle14"/>
	<circle cx="102.94" cy="227.916" r="4" fill="#0" id="circle15"/>
	<circle cx="105.543" cy="173.239" r="4" fill="#0" id="circle16"/>
	<circle cx="121.165" cy="43.0551" r="4" fill="#0" id="circle17"/>
	<circle cx="128.976" cy="227.916" r="4" fill="#0" id="circle18"/>
	<circle cx="144.598" cy="56.0735" r="4" fill="#0" id="circle19"/>
	<circle cx="152.409" cy="214.898" r="4" fill="#0" id="circle20"/>
	<circle cx="170.635" cy="56.0735" r="4" fill="#0" id="circle21"/>
	<circle cx="178.446" cy="214.898" r="4" fill="#0" id="circle22"/>
	<circle cx="194.068" cy="69.0919" r="4" fill="#0" id="circle23"/>
	<circle cx="201.879" cy="201.879" r="4" fill="#0" id="circle24"/>
	<circle cx="217.501" cy="82.1102" r="4" fill="#0" id="circle25"/>
	<circle cx="227.916" cy="201.879" r="4" fill="#0" id="circle26"/>
	<circle cx="238.331" cy="100.336" r="4" fill="#0" id="circle27"/>
	<circle cx="253.953" cy="201.879" r="4" fill="#0" id="circle28"/>
	<circle cx="264.367" cy="108.147" r="4" fill="#0" id="circle29"/>
	<circle cx="279.99" cy="201.879" r="4" fill="#0" id="circle30"/>
	<circle cx="290.404" cy="113.354" r="4" fill="#0" id="circle31"/>
	<circle cx="306.026" cy="201.879" r="4" fill="#0" id="circle32"/>
	<circle cx="316.441" cy="121.165" r="4" fill="#0" id="circle33"/>
	<circle cx="329.459" cy="214.898" r="4" fill="#0" id="circle34"/>
	<circle cx="342.478" cy="121.165" r="4" fill="#0" id="circle35"/>
	<circle cx="355.496" cy="214.898" r="4" fill="#0" id="circle36"/>
	<circle cx="368.514" cy="115.958" r="4" fill="#0" id="circle37"/>
	<circle cx="381.533" cy="214.898" r="4" fill="#0" id="circle38"/>
	<circle cx="394.551" cy="108.147" r="4" fill="#0" id="circle39"/>
	<circle cx="404.966" cy="201.879" r="4" fill="#0" id="circle40"/>
	<circle cx="420.588" cy="108.147" r="4" fill="#0" id="circle41"/>
	<circle cx="431.003" cy="196.672" r="4" fill="#0" id="circle42"/>
	<circle cx="444.021" cy="95.1286" r="4" fill="#0" id="circle43"/>
	<circle cx="457.039" cy="188.861" r="4" fill="#0" id="circle44"/>
	<circle cx="470.058" cy="95.1286" r="4" fill="#0" id="circle45"/>
	<circle cx="480.472" cy="175.843" r="4" fill="#0" id="circle46"/>
	<circle cx="493.491" cy="82.1102" r="4" fill="#0" id="circle47"/>
	<circle cx="506.509" cy="175.843" r="4" fill="#0" id="circle48"/>
	<circle cx="519.528" cy="69.0919" r="4" fill="#0" id="circle49"/>
	<circle cx="532.546" cy="175.843" r="4" fill="#0" id="circle50"/>
	<circle cx="545.564" cy="69.0919" r="4" fill="#0" id="circle51"/>
	<circle cx="558.583" cy="175.843" r="4" fill="#0" id="circle52"/>
	<circle cx="568.997" cy="56.0735" r="4" fill="#0" id="circle53"/>
	<circle cx="582.016" cy="162.824" r="4" fill="#0" id="circle54"/>
	<circle cx="595.034" cy="56.0735" r="4" fill="#0" id="circle55"/>
	<circle cx="608.052" cy="162.824" r="4" fill="#0" id="circle56"/>
	<circle cx="621.071" cy="45.6588" r="4" fill="#0" id="circle57"/>
	<circle cx="634.089" cy="162.824" r="4" fill="#0" id="circle58"/>
	<circle cx="647.108" cy="43.0551" r="4" fill="#0" id="circle59"/>
	<circle cx="660.126" cy="162.824" r="4" fill="#0" id="circle60"/>
	<circle cx="673.144" cy="32.6404" r="4" fill="#0" id="circle61"/>
	<circle cx="683.559" cy="149.806" r="4" fill="#0" id="circle62"/>
	<circle cx="699.181" cy="30.0367" r="4" fill="#0" id="circle63"/>
	<circle cx="709.596" cy="149.806" r="4" fill="#0" id="circle64"/>
	<circle cx="725.218" cy="30.0367" r="4" fill="#0" id="circle65"/>
	<circle cx="733.029" cy="162.824" r="4" fill="#0" id="circle66"/>
	<circle cx="748.651" cy="17.0184" r="4" fill="#0" id="circle67"/>
	<circle cx="756.462" cy="175.843" r="4" fill="#0" id="circle68"/>
	<circle cx="774.688" cy="17.0184" r="4" fill="#0" id="circle69"/>
	<circle cx="782.499" cy="175.843" r="4" fill="#0" id="circle70"/>
	<circle cx="800.724" cy="11.811" r="4" fill="#0" id="circle71"/>
	<circle cx="808.535" cy="175.843" r="4" fill="#0" id="circle72"/>
	<circle cx="826.761" cy="17.0184" r="4" fill="#0" id="circle73"/>
	<circle cx="826.761" cy="196.672" r="4" fill="#0" id="circle74"/>
	<circle cx="847.591" cy="214.898" r="4" fill="#0" id="circle75"/>
	<circle cx="850.194" cy="4" r="4" fill="#0" id="circle76"/>
	<circle cx="871.024" cy="227.916" r="4" fill="#0" id="circle77"/>
	<circle cx="876.231" cy="4" r="4" fill="#0" id="circle78"/>
	<circle cx="878.835" cy="97.7323" r="4" fill="#0" id="circle79"/>
	<circle cx="878.835" cy="123.769" r="4" fill="#0" id="circle80"/>
	<circle cx="884.042" cy="149.806" r="4" fill="#0" id="circle81"/>
	<circle cx="897.06" cy="227.916" r="4" fill="#0" id="circle82"/>
	<circle cx="899.664" cy="17.0184" r="4" fill="#0" id="circle83"/>
	<circle cx="902.268" cy="110.751" r="4" fill="#0" id="circle84"/>
	<circle cx="910.079" cy="160.22" r="4" fill="#0" id="circle85"/>
	<circle cx="923.097" cy="30.0367" r="4" fill="#0" id="circle86"/>
	<circle cx="923.097" cy="227.916" r="4" fill="#0" id="circle87"/>
	<circle cx="925.701" cy="123.769" r="4" fill="#0" id="circle88"/>
	<circle cx="933.512" cy="173.239" r="4" fill="#0" id="circle89"/>
	<circle cx="946.53" cy="43.0551" r="4" fill="#0" id="circle90"/>
	<circle cx="949.134" cy="225.312" r="4" fill="#0" id="circle91"/>
	<circle cx="951.738" cy="118.562" r="4" fill="#0" id="circle92"/>
	<circle cx="959.549" cy="173.239" r="4" fill="#0" id="circle93"/>
	<circle cx="969.963" cy="56.0735" r="4" fill="#0" id="circle94"/>
	<circle cx="969.963" cy="201.879" r="4" fill="#0" id="circle95"/>
	<circle cx="977.774" cy="105.543" r="4" fill="#0" id="circle96"/>
	<circle cx="996" cy="63.8845" r="4" fill="#0" id="circle97"/>
	</g>
</svg>