<?xml version="1.0" encoding="UTF-8" standalone="no"?>
<!-- Created with CurveBenchmark -->
<svg
	xmlns:dc="http://purl.org/dc/elements/1.1/"
	xmlns:cc="http://creativecommons.org/ns#"
	xmlns:rdf="http://www.w3.org/1999/02/22-rdf-syntax-ns#"
	xmlns:svg="http://www.w3.org/2000/svg"
	xmlns="http://www.w3.org/2000/svg"
	xmlns:sodipodi="http://sodipodi.sourceforge.net/DTD/sodipodi-0.dtd"
	xmlns:inkscape="http://www.inkscape.org/namespaces/inkscape"
	width="1000"
	height="1000"
	id="svg2"
	version="1.1"
	sodipodi:docname="manifold/nncrust-bird275.png.txt">
<defs
	id="defs4" />
<metadata
	id="metadata7">
	<rdf:RDF>
		<cc:Work
			rdf:about="">
			<dc:format>image/svg+xml</dc:format>
			<dc:type
				rdf:resource="http://purl.org/dc/dcmitype/StillImage" />
			<dc:title></dc:title>
		</cc:Work>
	</rdf:RDF>
</metadata>
<g
	inkscape:label="Layer 1"
	inkscape:groupmode="layer"
	id="layer1">
	<path style="fill:none;stroke:red;stroke-width:1px;stroke-linecap:butt;stroke-linejoin:miter;stroke-opacity:1" d="M 4,198.51 4,159.608 z" id="boundary" inkscape:connector-curvature="0" />
	<path style="fill:none;stroke:red;stroke-width:1px;stroke-linecap:butt;stroke-linejoin:miter;stroke-opacity:1" d="M 11.7804,276.314 4,237.412 z" id="boundary" inkscape:connector-curvature="0" />
	<path style="fill:none;stroke:red;stroke-width:1px;stroke-linecap:butt;stroke-linejoin:miter;stroke-opacity:1" d="M 4,159.608 11.7804,97.3647 z" id="boundary" inkscape:connector-curvature="0" />
	<path style="fill:none;stroke:red;stroke-width:1px;stroke-linecap:butt;stroke-linejoin:miter;stroke-opacity:1" d="M 4,237.412 4,198.51 z" id="boundary" inkscape:connector-curvature="0" />
	<path style="fill:none;stroke:red;stroke-width:1px;stroke-linecap:butt;stroke-linejoin:miter;stroke-opacity:1" d="M 11.7804,276.314 11.7804,315.216 z" id="boundary" inkscape:connector-curvature="0" />
	<path style="fill:none;stroke:red;stroke-width:1px;stroke-linecap:butt;stroke-linejoin:miter;stroke-opacity:1" d="M 23.451,354.118 50.6824,385.239 z" id="boundary" inkscape:connector-curvature="0" />
	<path style="fill:none;stroke:red;stroke-width:1px;stroke-linecap:butt;stroke-linejoin:miter;stroke-opacity:1" d="M 50.6824,385.239 50.6824,424.141 z" id="boundary" inkscape:connector-curvature="0" />
	<path style="fill:none;stroke:red;stroke-width:1px;stroke-linecap:butt;stroke-linejoin:miter;stroke-opacity:1" d="M 23.451,354.118 11.7804,315.216 z" id="boundary" inkscape:connector-curvature="0" />
	<path style="fill:none;stroke:red;stroke-width:1px;stroke-linecap:butt;stroke-linejoin:miter;stroke-opacity:1" d="M 147.937,416.361 116.816,439.702 z" id="boundary" inkscape:connector-curvature="0" />
	<path style="fill:none;stroke:red;stroke-width:1px;stroke-linecap:butt;stroke-linejoin:miter;stroke-opacity:1" d="M 27.3412,58.4627 58.4627,35.1216 z" id="boundary" inkscape:connector-curvature="0" />
	<path style="fill:none;stroke:red;stroke-width:1px;stroke-linecap:butt;stroke-linejoin:miter;stroke-opacity:1" d="M 11.7804,97.3647 27.3412,58.4627 z" id="boundary" inkscape:connector-curvature="0" />
	<path style="fill:none;stroke:red;stroke-width:1px;stroke-linecap:butt;stroke-linejoin:miter;stroke-opacity:1" d="M 58.4627,35.1216 93.4745,15.6706 z" id="boundary" inkscape:connector-curvature="0" />
	<path style="fill:none;stroke:red;stroke-width:1px;stroke-linecap:butt;stroke-linejoin:miter;stroke-opacity:1" d="M 58.4627,463.043 50.6824,424.141 z" id="boundary" inkscape:connector-curvature="0" />
	<path style="fill:none;stroke:red;stroke-width:1px;stroke-linecap:butt;stroke-linejoin:miter;stroke-opacity:1" d="M 116.816,439.702 116.816,478.604 z" id="boundary" inkscape:connector-curvature="0" />
	<path style="fill:none;stroke:red;stroke-width:1px;stroke-linecap:butt;stroke-linejoin:miter;stroke-opacity:1" d="M 58.4627,501.945 58.4627,463.043 z" id="boundary" inkscape:connector-curvature="0" />
	<path style="fill:none;stroke:red;stroke-width:1px;stroke-linecap:butt;stroke-linejoin:miter;stroke-opacity:1" d="M 58.4627,501.945 62.3529,540.847 z" id="boundary" inkscape:connector-curvature="0" />
	<path style="fill:none;stroke:red;stroke-width:1px;stroke-linecap:butt;stroke-linejoin:miter;stroke-opacity:1" d="M 66.2431,579.749 62.3529,540.847 z" id="boundary" inkscape:connector-curvature="0" />
	<path style="fill:none;stroke:red;stroke-width:1px;stroke-linecap:butt;stroke-linejoin:miter;stroke-opacity:1" d="M 116.816,517.506 116.816,556.408 z" id="boundary" inkscape:connector-curvature="0" />
	<path style="fill:none;stroke:red;stroke-width:1px;stroke-linecap:butt;stroke-linejoin:miter;stroke-opacity:1" d="M 116.816,517.506 167.388,556.408 z" id="boundary" inkscape:connector-curvature="0" />
	<path style="fill:none;stroke:red;stroke-width:1px;stroke-linecap:butt;stroke-linejoin:miter;stroke-opacity:1" d="M 116.816,556.408 116.816,595.31 z" id="boundary" inkscape:connector-curvature="0" />
	<path style="fill:none;stroke:red;stroke-width:1px;stroke-linecap:butt;stroke-linejoin:miter;stroke-opacity:1" d="M 116.816,478.604 116.816,517.506 z" id="boundary" inkscape:connector-curvature="0" />
	<path style="fill:none;stroke:red;stroke-width:1px;stroke-linecap:butt;stroke-linejoin:miter;stroke-opacity:1" d="M 66.2431,579.749 66.2431,618.651 z" id="boundary" inkscape:connector-curvature="0" />
	<path style="fill:none;stroke:red;stroke-width:1px;stroke-linecap:butt;stroke-linejoin:miter;stroke-opacity:1" d="M 74.0235,696.455 66.2431,657.553 z" id="boundary" inkscape:connector-curvature="0" />
	<path style="fill:none;stroke:red;stroke-width:1px;stroke-linecap:butt;stroke-linejoin:miter;stroke-opacity:1" d="M 74.0235,696.455 74.0235,735.357 z" id="boundary" inkscape:connector-curvature="0" />
	<path style="fill:none;stroke:red;stroke-width:1px;stroke-linecap:butt;stroke-linejoin:miter;stroke-opacity:1" d="M 74.0235,774.259 74.0235,735.357 z" id="boundary" inkscape:connector-curvature="0" />
	<path style="fill:none;stroke:red;stroke-width:1px;stroke-linecap:butt;stroke-linejoin:miter;stroke-opacity:1" d="M 66.2431,657.553 66.2431,618.651 z" id="boundary" inkscape:connector-curvature="0" />
	<path style="fill:none;stroke:red;stroke-width:1px;stroke-linecap:butt;stroke-linejoin:miter;stroke-opacity:1" d="M 74.0235,813.161 74.0235,852.063 z" id="boundary" inkscape:connector-curvature="0" />
	<path style="fill:none;stroke:red;stroke-width:1px;stroke-linecap:butt;stroke-linejoin:miter;stroke-opacity:1" d="M 74.0235,774.259 74.0235,813.161 z" id="boundary" inkscape:connector-curvature="0" />
	<path style="fill:none;stroke:red;stroke-width:1px;stroke-linecap:butt;stroke-linejoin:miter;stroke-opacity:1" d="M 74.0235,852.063 74.0235,890.965 z" id="boundary" inkscape:connector-curvature="0" />
	<path style="fill:none;stroke:red;stroke-width:1px;stroke-linecap:butt;stroke-linejoin:miter;stroke-opacity:1" d="M 74.0235,929.867 74.0235,890.965 z" id="boundary" inkscape:connector-curvature="0" />
	<path style="fill:none;stroke:red;stroke-width:1px;stroke-linecap:butt;stroke-linejoin:miter;stroke-opacity:1" d="M 74.0235,929.867 50.6824,968.769 z" id="boundary" inkscape:connector-curvature="0" />
	<path style="fill:none;stroke:red;stroke-width:1px;stroke-linecap:butt;stroke-linejoin:miter;stroke-opacity:1" d="M 81.8039,996 50.6824,968.769 z" id="boundary" inkscape:connector-curvature="0" />
	<path style="fill:none;stroke:red;stroke-width:1px;stroke-linecap:butt;stroke-linejoin:miter;stroke-opacity:1" d="M 116.816,634.212 116.816,673.114 z" id="boundary" inkscape:connector-curvature="0" />
	<path style="fill:none;stroke:red;stroke-width:1px;stroke-linecap:butt;stroke-linejoin:miter;stroke-opacity:1" d="M 116.816,634.212 116.816,595.31 z" id="boundary" inkscape:connector-curvature="0" />
	<path style="fill:none;stroke:red;stroke-width:1px;stroke-linecap:butt;stroke-linejoin:miter;stroke-opacity:1" d="M 116.816,712.016 116.816,750.918 z" id="boundary" inkscape:connector-curvature="0" />
	<path style="fill:none;stroke:red;stroke-width:1px;stroke-linecap:butt;stroke-linejoin:miter;stroke-opacity:1" d="M 116.816,712.016 116.816,673.114 z" id="boundary" inkscape:connector-curvature="0" />
	<path style="fill:none;stroke:red;stroke-width:1px;stroke-linecap:butt;stroke-linejoin:miter;stroke-opacity:1" d="M 116.816,750.918 116.816,789.82 z" id="boundary" inkscape:connector-curvature="0" />
	<path style="fill:none;stroke:red;stroke-width:1px;stroke-linecap:butt;stroke-linejoin:miter;stroke-opacity:1" d="M 116.816,828.722 116.816,867.624 z" id="boundary" inkscape:connector-curvature="0" />
	<path style="fill:none;stroke:red;stroke-width:1px;stroke-linecap:butt;stroke-linejoin:miter;stroke-opacity:1" d="M 116.816,789.82 116.816,828.722 z" id="boundary" inkscape:connector-curvature="0" />
	<path style="fill:none;stroke:red;stroke-width:1px;stroke-linecap:butt;stroke-linejoin:miter;stroke-opacity:1" d="M 116.816,867.624 116.816,906.525 z" id="boundary" inkscape:connector-curvature="0" />
	<path style="fill:none;stroke:red;stroke-width:1px;stroke-linecap:butt;stroke-linejoin:miter;stroke-opacity:1" d="M 116.816,906.525 116.816,945.427 z" id="boundary" inkscape:connector-curvature="0" />
	<path style="fill:none;stroke:red;stroke-width:1px;stroke-linecap:butt;stroke-linejoin:miter;stroke-opacity:1" d="M 116.816,945.427 120.706,988.22 z" id="boundary" inkscape:connector-curvature="0" />
	<path style="fill:none;stroke:red;stroke-width:1px;stroke-linecap:butt;stroke-linejoin:miter;stroke-opacity:1" d="M 120.706,988.22 81.8039,996 z" id="boundary" inkscape:connector-curvature="0" />
	<path style="fill:none;stroke:red;stroke-width:1px;stroke-linecap:butt;stroke-linejoin:miter;stroke-opacity:1" d="M 147.937,416.361 175.169,447.482 z" id="boundary" inkscape:connector-curvature="0" />
	<path style="fill:none;stroke:red;stroke-width:1px;stroke-linecap:butt;stroke-linejoin:miter;stroke-opacity:1" d="M 256.863,299.655 241.302,346.337 z" id="boundary" inkscape:connector-curvature="0" />
	<path style="fill:none;stroke:red;stroke-width:1px;stroke-linecap:butt;stroke-linejoin:miter;stroke-opacity:1" d="M 175.169,486.384 175.169,447.482 z" id="boundary" inkscape:connector-curvature="0" />
	<path style="fill:none;stroke:red;stroke-width:1px;stroke-linecap:butt;stroke-linejoin:miter;stroke-opacity:1" d="M 132.376,4 171.278,4 z" id="boundary" inkscape:connector-curvature="0" />
	<path style="fill:none;stroke:red;stroke-width:1px;stroke-linecap:butt;stroke-linejoin:miter;stroke-opacity:1" d="M 171.278,4 210.18,19.5608 z" id="boundary" inkscape:connector-curvature="0" />
	<path style="fill:none;stroke:red;stroke-width:1px;stroke-linecap:butt;stroke-linejoin:miter;stroke-opacity:1" d="M 167.388,556.408 167.388,595.31 z" id="boundary" inkscape:connector-curvature="0" />
	<path style="fill:none;stroke:red;stroke-width:1px;stroke-linecap:butt;stroke-linejoin:miter;stroke-opacity:1" d="M 167.388,556.408 217.961,571.969 z" id="boundary" inkscape:connector-curvature="0" />
	<path style="fill:none;stroke:red;stroke-width:1px;stroke-linecap:butt;stroke-linejoin:miter;stroke-opacity:1" d="M 217.961,571.969 217.961,610.871 z" id="boundary" inkscape:connector-curvature="0" />
	<path style="fill:none;stroke:red;stroke-width:1px;stroke-linecap:butt;stroke-linejoin:miter;stroke-opacity:1" d="M 175.169,486.384 225.741,501.945 z" id="boundary" inkscape:connector-curvature="0" />
	<path style="fill:none;stroke:red;stroke-width:1px;stroke-linecap:butt;stroke-linejoin:miter;stroke-opacity:1" d="M 217.961,571.969 225.741,501.945 z" id="boundary" inkscape:connector-curvature="0" />
	<path style="fill:none;stroke:red;stroke-width:1px;stroke-linecap:butt;stroke-linejoin:miter;stroke-opacity:1" d="M 167.388,634.212 167.388,595.31 z" id="boundary" inkscape:connector-curvature="0" />
	<path style="fill:none;stroke:red;stroke-width:1px;stroke-linecap:butt;stroke-linejoin:miter;stroke-opacity:1" d="M 272.424,66.2431 280.204,105.145 z" id="boundary" inkscape:connector-curvature="0" />
	<path style="fill:none;stroke:red;stroke-width:1px;stroke-linecap:butt;stroke-linejoin:miter;stroke-opacity:1" d="M 287.984,144.047 280.204,214.071 z" id="boundary" inkscape:connector-curvature="0" />
	<path style="fill:none;stroke:red;stroke-width:1px;stroke-linecap:butt;stroke-linejoin:miter;stroke-opacity:1" d="M 280.204,105.145 287.984,144.047 z" id="boundary" inkscape:connector-curvature="0" />
	<path style="fill:none;stroke:red;stroke-width:1px;stroke-linecap:butt;stroke-linejoin:miter;stroke-opacity:1" d="M 280.204,214.071 272.424,252.973 z" id="boundary" inkscape:connector-curvature="0" />
	<path style="fill:none;stroke:red;stroke-width:1px;stroke-linecap:butt;stroke-linejoin:miter;stroke-opacity:1" d="M 233.522,455.263 225.741,501.945 z" id="boundary" inkscape:connector-curvature="0" />
	<path style="fill:none;stroke:red;stroke-width:1px;stroke-linecap:butt;stroke-linejoin:miter;stroke-opacity:1" d="M 233.522,416.361 233.522,455.263 z" id="boundary" inkscape:connector-curvature="0" />
	<path style="fill:none;stroke:red;stroke-width:1px;stroke-linecap:butt;stroke-linejoin:miter;stroke-opacity:1" d="M 217.961,649.773 217.961,610.871 z" id="boundary" inkscape:connector-curvature="0" />
	<path style="fill:none;stroke:red;stroke-width:1px;stroke-linecap:butt;stroke-linejoin:miter;stroke-opacity:1" d="M 233.522,416.361 241.302,346.337 z" id="boundary" inkscape:connector-curvature="0" />
	<path style="fill:none;stroke:red;stroke-width:1px;stroke-linecap:butt;stroke-linejoin:miter;stroke-opacity:1" d="M 272.424,252.973 256.863,299.655 z" id="boundary" inkscape:connector-curvature="0" />
	<path style="fill:none;stroke:red;stroke-width:1px;stroke-linecap:butt;stroke-linejoin:miter;stroke-opacity:1" d="M 210.18,19.5608 249.082,35.1216 z" id="boundary" inkscape:connector-curvature="0" />
	<path style="fill:none;stroke:red;stroke-width:1px;stroke-linecap:butt;stroke-linejoin:miter;stroke-opacity:1" d="M 249.082,35.1216 272.424,66.2431 z" id="boundary" inkscape:connector-curvature="0" />
	<path style="fill:none;stroke:red;stroke-width:1px;stroke-linecap:butt;stroke-linejoin:miter;stroke-opacity:1" d="M 167.388,673.114 167.388,712.016 z" id="boundary" inkscape:connector-curvature="0" />
	<path style="fill:none;stroke:red;stroke-width:1px;stroke-linecap:butt;stroke-linejoin:miter;stroke-opacity:1" d="M 210.18,704.235 167.388,712.016 z" id="boundary" inkscape:connector-curvature="0" />
	<path style="fill:none;stroke:red;stroke-width:1px;stroke-linecap:butt;stroke-linejoin:miter;stroke-opacity:1" d="M 171.278,750.918 175.169,789.82 z" id="boundary" inkscape:connector-curvature="0" />
	<path style="fill:none;stroke:red;stroke-width:1px;stroke-linecap:butt;stroke-linejoin:miter;stroke-opacity:1" d="M 171.278,750.918 167.388,712.016 z" id="boundary" inkscape:connector-curvature="0" />
	<path style="fill:none;stroke:red;stroke-width:1px;stroke-linecap:butt;stroke-linejoin:miter;stroke-opacity:1" d="M 175.169,789.82 175.169,828.722 z" id="boundary" inkscape:connector-curvature="0" />
	<path style="fill:none;stroke:red;stroke-width:1px;stroke-linecap:butt;stroke-linejoin:miter;stroke-opacity:1" d="M 167.388,673.114 167.388,634.212 z" id="boundary" inkscape:connector-curvature="0" />
	<path style="fill:none;stroke:red;stroke-width:1px;stroke-linecap:butt;stroke-linejoin:miter;stroke-opacity:1" d="M 175.169,867.624 175.169,906.525 z" id="boundary" inkscape:connector-curvature="0" />
	<path style="fill:none;stroke:red;stroke-width:1px;stroke-linecap:butt;stroke-linejoin:miter;stroke-opacity:1" d="M 175.169,828.722 175.169,867.624 z" id="boundary" inkscape:connector-curvature="0" />
	<path style="fill:none;stroke:red;stroke-width:1px;stroke-linecap:butt;stroke-linejoin:miter;stroke-opacity:1" d="M 175.169,906.525 175.169,945.427 z" id="boundary" inkscape:connector-curvature="0" />
	<path style="fill:none;stroke:red;stroke-width:1px;stroke-linecap:butt;stroke-linejoin:miter;stroke-opacity:1" d="M 175.169,945.427 175.169,984.329 z" id="boundary" inkscape:connector-curvature="0" />
	<path style="fill:none;stroke:red;stroke-width:1px;stroke-linecap:butt;stroke-linejoin:miter;stroke-opacity:1" d="M 210.18,704.235 217.961,649.773 z" id="boundary" inkscape:connector-curvature="0" />
	<path style="fill:none;stroke:red;stroke-width:1px;stroke-linecap:butt;stroke-linejoin:miter;stroke-opacity:1" d="M 217.961,743.137 210.18,704.235 z" id="boundary" inkscape:connector-curvature="0" />
	<path style="fill:none;stroke:red;stroke-width:1px;stroke-linecap:butt;stroke-linejoin:miter;stroke-opacity:1" d="M 217.961,743.137 217.961,782.039 z" id="boundary" inkscape:connector-curvature="0" />
	<path style="fill:none;stroke:red;stroke-width:1px;stroke-linecap:butt;stroke-linejoin:miter;stroke-opacity:1" d="M 217.961,820.941 217.961,782.039 z" id="boundary" inkscape:connector-curvature="0" />
	<path style="fill:none;stroke:red;stroke-width:1px;stroke-linecap:butt;stroke-linejoin:miter;stroke-opacity:1" d="M 217.961,820.941 217.961,859.843 z" id="boundary" inkscape:connector-curvature="0" />
	<path style="fill:none;stroke:red;stroke-width:1px;stroke-linecap:butt;stroke-linejoin:miter;stroke-opacity:1" d="M 214.071,996 175.169,984.329 z" id="boundary" inkscape:connector-curvature="0" />
	<path style="fill:none;stroke:red;stroke-width:1px;stroke-linecap:butt;stroke-linejoin:miter;stroke-opacity:1" d="M 217.961,859.843 217.961,898.745 z" id="boundary" inkscape:connector-curvature="0" />
	<path style="fill:none;stroke:red;stroke-width:1px;stroke-linecap:butt;stroke-linejoin:miter;stroke-opacity:1" d="M 217.961,898.745 217.961,937.647 z" id="boundary" inkscape:connector-curvature="0" />
	<path style="fill:none;stroke:red;stroke-width:1px;stroke-linecap:butt;stroke-linejoin:miter;stroke-opacity:1" d="M 249.082,960.988 217.961,937.647 z" id="boundary" inkscape:connector-curvature="0" />
	<path style="fill:none;stroke:red;stroke-width:1px;stroke-linecap:butt;stroke-linejoin:miter;stroke-opacity:1" d="M 249.082,960.988 214.071,996 z" id="boundary" inkscape:connector-curvature="0" />
	<path style="fill:none;stroke:red;stroke-width:1px;stroke-linecap:butt;stroke-linejoin:miter;stroke-opacity:1" d="M 93.4745,15.6706 132.376,4 z" id="boundary" inkscape:connector-curvature="0" />
	<circle cx="4" cy="159.608" r="4" fill="#0" id="circle0"/>
	<circle cx="4" cy="198.51" r="4" fill="#0" id="circle1"/>
	<circle cx="4" cy="237.412" r="4" fill="#0" id="circle2"/>
	<circle cx="11.7804" cy="97.3647" r="4" fill="#0" id="circle3"/>
	<circle cx="11.7804" cy="276.314" r="4" fill="#0" id="circle4"/>
	<circle cx="11.7804" cy="315.216" r="4" fill="#0" id="circle5"/>
	<circle cx="23.451" cy="354.118" r="4" fill="#0" id="circle6"/>
	<circle cx="27.3412" cy="58.4627" r="4" fill="#0" id="circle7"/>
	<circle cx="50.6824" cy="385.239" r="4" fill="#0" id="circle8"/>
	<circle cx="50.6824" cy="424.141" r="4" fill="#0" id="circle9"/>
	<circle cx="50.6824" cy="968.769" r="4" fill="#0" id="circle10"/>
	<circle cx="58.4627" cy="35.1216" r="4" fill="#0" id="circle11"/>
	<circle cx="58.4627" cy="463.043" r="4" fill="#0" id="circle12"/>
	<circle cx="58.4627" cy="501.945" r="4" fill="#0" id="circle13"/>
	<circle cx="62.3529" cy="540.847" r="4" fill="#0" id="circle14"/>
	<circle cx="66.2431" cy="579.749" r="4" fill="#0" id="circle15"/>
	<circle cx="66.2431" cy="618.651" r="4" fill="#0" id="circle16"/>
	<circle cx="66.2431" cy="657.553" r="4" fill="#0" id="circle17"/>
	<circle cx="74.0235" cy="696.455" r="4" fill="#0" id="circle18"/>
	<circle cx="74.0235" cy="735.357" r="4" fill="#0" id="circle19"/>
	<circle cx="74.0235" cy="774.259" r="4" fill="#0" id="circle20"/>
	<circle cx="74.0235" cy="813.161" r="4" fill="#0" id="circle21"/>
	<circle cx="74.0235" cy="852.063" r="4" fill="#0" id="circle22"/>
	<circle cx="74.0235" cy="890.965" r="4" fill="#0" id="circle23"/>
	<circle cx="74.0235" cy="929.867" r="4" fill="#0" id="circle24"/>
	<circle cx="81.8039" cy="996" r="4" fill="#0" id="circle25"/>
	<circle cx="93.4745" cy="15.6706" r="4" fill="#0" id="circle26"/>
	<circle cx="116.816" cy="439.702" r="4" fill="#0" id="circle27"/>
	<circle cx="116.816" cy="478.604" r="4" fill="#0" id="circle28"/>
	<circle cx="116.816" cy="517.506" r="4" fill="#0" id="circle29"/>
	<circle cx="116.816" cy="556.408" r="4" fill="#0" id="circle30"/>
	<circle cx="116.816" cy="595.31" r="4" fill="#0" id="circle31"/>
	<circle cx="116.816" cy="634.212" r="4" fill="#0" id="circle32"/>
	<circle cx="116.816" cy="673.114" r="4" fill="#0" id="circle33"/>
	<circle cx="116.816" cy="712.016" r="4" fill="#0" id="circle34"/>
	<circle cx="116.816" cy="750.918" r="4" fill="#0" id="circle35"/>
	<circle cx="116.816" cy="789.82" r="4" fill="#0" id="circle36"/>
	<circle cx="116.816" cy="828.722" r="4" fill="#0" id="circle37"/>
	<circle cx="116.816" cy="867.624" r="4" fill="#0" id="circle38"/>
	<circle cx="116.816" cy="906.525" r="4" fill="#0" id="circle39"/>
	<circle cx="116.816" cy="945.427" r="4" fill="#0" id="circle40"/>
	<circle cx="120.706" cy="988.22" r="4" fill="#0" id="circle41"/>
	<circle cx="132.376" cy="4" r="4" fill="#0" id="circle42"/>
	<circle cx="147.937" cy="416.361" r="4" fill="#0" id="circle43"/>
	<circle cx="167.388" cy="556.408" r="4" fill="#0" id="circle44"/>
	<circle cx="167.388" cy="595.31" r="4" fill="#0" id="circle45"/>
	<circle cx="167.388" cy="634.212" r="4" fill="#0" id="circle46"/>
	<circle cx="167.388" cy="673.114" r="4" fill="#0" id="circle47"/>
	<circle cx="167.388" cy="712.016" r="4" fill="#0" id="circle48"/>
	<circle cx="171.278" cy="4" r="4" fill="#0" id="circle49"/>
	<circle cx="171.278" cy="750.918" r="4" fill="#0" id="circle50"/>
	<circle cx="175.169" cy="447.482" r="4" fill="#0" id="circle51"/>
	<circle cx="175.169" cy="486.384" r="4" fill="#0" id="circle52"/>
	<circle cx="175.169" cy="789.82" r="4" fill="#0" id="circle53"/>
	<circle cx="175.169" cy="828.722" r="4" fill="#0" id="circle54"/>
	<circle cx="175.169" cy="867.624" r="4" fill="#0" id="circle55"/>
	<circle cx="175.169" cy="906.525" r="4" fill="#0" id="circle56"/>
	<circle cx="175.169" cy="945.427" r="4" fill="#0" id="circle57"/>
	<circle cx="175.169" cy="984.329" r="4" fill="#0" id="circle58"/>
	<circle cx="210.18" cy="19.5608" r="4" fill="#0" id="circle59"/>
	<circle cx="210.18" cy="704.235" r="4" fill="#0" id="circle60"/>
	<circle cx="214.071" cy="996" r="4" fill="#0" id="circle61"/>
	<circle cx="217.961" cy="571.969" r="4" fill="#0" id="circle62"/>
	<circle cx="217.961" cy="610.871" r="4" fill="#0" id="circle63"/>
	<circle cx="217.961" cy="649.773" r="4" fill="#0" id="circle64"/>
	<circle cx="217.961" cy="743.137" r="4" fill="#0" id="circle65"/>
	<circle cx="217.961" cy="782.039" r="4" fill="#0" id="circle66"/>
	<circle cx="217.961" cy="820.941" r="4" fill="#0" id="circle67"/>
	<circle cx="217.961" cy="859.843" r="4" fill="#0" id="circle68"/>
	<circle cx="217.961" cy="898.745" r="4" fill="#0" id="circle69"/>
	<circle cx="217.961" cy="937.647" r="4" fill="#0" id="circle70"/>
	<circle cx="225.741" cy="501.945" r="4" fill="#0" id="circle71"/>
	<circle cx="233.522" cy="416.361" r="4" fill="#0" id="circle72"/>
	<circle cx="233.522" cy="455.263" r="4" fill="#0" id="circle73"/>
	<circle cx="241.302" cy="346.337" r="4" fill="#0" id="circle74"/>
	<circle cx="249.082" cy="35.1216" r="4" fill="#0" id="circle75"/>
	<circle cx="249.082" cy="960.988" r="4" fill="#0" id="circle76"/>
	<circle cx="256.863" cy="299.655" r="4" fill="#0" id="circle77"/>
	<circle cx="272.424" cy="66.2431" r="4" fill="#0" id="circle78"/>
	<circle cx="272.424" cy="252.973" r="4" fill="#0" id="circle79"/>
	<circle cx="280.204" cy="105.145" r="4" fill="#0" id="circle80"/>
	<circle cx="280.204" cy="214.071" r="4" fill="#0" id="circle81"/>
	<circle cx="287.984" cy="144.047" r="4" fill="#0" id="circle82"/>
	</g>
</svg>