<?xml version="1.0" encoding="UTF-8" standalone="no"?>
<!-- Created with CurveBenchmark -->
<svg
	xmlns:dc="http://purl.org/dc/elements/1.1/"
	xmlns:cc="http://creativecommons.org/ns#"
	xmlns:rdf="http://www.w3.org/1999/02/22-rdf-syntax-ns#"
	xmlns:svg="http://www.w3.org/2000/svg"
	xmlns="http://www.w3.org/2000/svg"
	xmlns:sodipodi="http://sodipodi.sourceforge.net/DTD/sodipodi-0.dtd"
	xmlns:inkscape="http://www.inkscape.org/namespaces/inkscape"
	width="1000"
	height="1000"
	id="svg2"
	version="1.1"
	sodipodi:docname="manifold/nncrust-hammer080.png.txt">
<defs
	id="defs4" />
<metadata
	id="metadata7">
	<rdf:RDF>
		<cc:Work
			rdf:about="">
			<dc:format>image/svg+xml</dc:format>
			<dc:type
				rdf:resource="http://purl.org/dc/dcmitype/StillImage" />
			<dc:title></dc:title>
		</cc:Work>
	</rdf:RDF>
</metadata>
<g
	inkscape:label="Layer 1"
	inkscape:groupmode="layer"
	id="layer1">
	<path style="fill:none;stroke:red;stroke-width:1px;stroke-linecap:butt;stroke-linejoin:miter;stroke-opacity:1" d="M 4,130.516 9.75072,90.2609 z" id="boundary" inkscape:connector-curvature="0" />
	<path style="fill:none;stroke:red;stroke-width:1px;stroke-linecap:butt;stroke-linejoin:miter;stroke-opacity:1" d="M 9.75072,90.2609 21.2522,44.2551 z" id="boundary" inkscape:connector-curvature="0" />
	<path style="fill:none;stroke:red;stroke-width:1px;stroke-linecap:butt;stroke-linejoin:miter;stroke-opacity:1" d="M 4,159.27 4,130.516 z" id="boundary" inkscape:connector-curvature="0" />
	<path style="fill:none;stroke:red;stroke-width:1px;stroke-linecap:butt;stroke-linejoin:miter;stroke-opacity:1" d="M 27.0029,179.397 4,159.27 z" id="boundary" inkscape:connector-curvature="0" />
	<path style="fill:none;stroke:red;stroke-width:1px;stroke-linecap:butt;stroke-linejoin:miter;stroke-opacity:1" d="M 32.7536,498.562 32.7536,469.809 z" id="boundary" inkscape:connector-curvature="0" />
	<path style="fill:none;stroke:red;stroke-width:1px;stroke-linecap:butt;stroke-linejoin:miter;stroke-opacity:1" d="M 50.0058,196.649 55.7565,225.403 z" id="boundary" inkscape:connector-curvature="0" />
	<path style="fill:none;stroke:red;stroke-width:1px;stroke-linecap:butt;stroke-linejoin:miter;stroke-opacity:1" d="M 27.0029,179.397 50.0058,196.649 z" id="boundary" inkscape:connector-curvature="0" />
	<path style="fill:none;stroke:red;stroke-width:1px;stroke-linecap:butt;stroke-linejoin:miter;stroke-opacity:1" d="M 32.7536,498.562 32.7536,527.316 z" id="boundary" inkscape:connector-curvature="0" />
	<path style="fill:none;stroke:red;stroke-width:1px;stroke-linecap:butt;stroke-linejoin:miter;stroke-opacity:1" d="M 21.2522,44.2551 32.7536,15.5014 z" id="boundary" inkscape:connector-curvature="0" />
	<path style="fill:none;stroke:red;stroke-width:1px;stroke-linecap:butt;stroke-linejoin:miter;stroke-opacity:1" d="M 32.7536,15.5014 61.5072,4 z" id="boundary" inkscape:connector-curvature="0" />
	<path style="fill:none;stroke:red;stroke-width:1px;stroke-linecap:butt;stroke-linejoin:miter;stroke-opacity:1" d="M 55.7565,254.157 55.7565,282.91 z" id="boundary" inkscape:connector-curvature="0" />
	<path style="fill:none;stroke:red;stroke-width:1px;stroke-linecap:butt;stroke-linejoin:miter;stroke-opacity:1" d="M 55.7565,254.157 55.7565,225.403 z" id="boundary" inkscape:connector-curvature="0" />
	<path style="fill:none;stroke:red;stroke-width:1px;stroke-linecap:butt;stroke-linejoin:miter;stroke-opacity:1" d="M 61.5072,311.664 55.7565,282.91 z" id="boundary" inkscape:connector-curvature="0" />
	<path style="fill:none;stroke:red;stroke-width:1px;stroke-linecap:butt;stroke-linejoin:miter;stroke-opacity:1" d="M 55.7565,412.301 50.0058,441.055 z" id="boundary" inkscape:connector-curvature="0" />
	<path style="fill:none;stroke:red;stroke-width:1px;stroke-linecap:butt;stroke-linejoin:miter;stroke-opacity:1" d="M 50.0058,441.055 32.7536,469.809 z" id="boundary" inkscape:connector-curvature="0" />
	<path style="fill:none;stroke:red;stroke-width:1px;stroke-linecap:butt;stroke-linejoin:miter;stroke-opacity:1" d="M 55.7565,383.548 55.7565,412.301 z" id="boundary" inkscape:connector-curvature="0" />
	<path style="fill:none;stroke:red;stroke-width:1px;stroke-linecap:butt;stroke-linejoin:miter;stroke-opacity:1" d="M 61.5072,340.417 55.7565,383.548 z" id="boundary" inkscape:connector-curvature="0" />
	<path style="fill:none;stroke:red;stroke-width:1px;stroke-linecap:butt;stroke-linejoin:miter;stroke-opacity:1" d="M 61.5072,311.664 61.5072,340.417 z" id="boundary" inkscape:connector-curvature="0" />
	<path style="fill:none;stroke:red;stroke-width:1px;stroke-linecap:butt;stroke-linejoin:miter;stroke-opacity:1" d="M 32.7536,556.07 32.7536,584.823 z" id="boundary" inkscape:connector-curvature="0" />
	<path style="fill:none;stroke:red;stroke-width:1px;stroke-linecap:butt;stroke-linejoin:miter;stroke-opacity:1" d="M 32.7536,556.07 32.7536,527.316 z" id="boundary" inkscape:connector-curvature="0" />
	<path style="fill:none;stroke:red;stroke-width:1px;stroke-linecap:butt;stroke-linejoin:miter;stroke-opacity:1" d="M 32.7536,613.577 32.7536,642.33 z" id="boundary" inkscape:connector-curvature="0" />
	<path style="fill:none;stroke:red;stroke-width:1px;stroke-linecap:butt;stroke-linejoin:miter;stroke-opacity:1" d="M 32.7536,613.577 32.7536,584.823 z" id="boundary" inkscape:connector-curvature="0" />
	<path style="fill:none;stroke:red;stroke-width:1px;stroke-linecap:butt;stroke-linejoin:miter;stroke-opacity:1" d="M 27.0029,952.87 27.0029,981.623 z" id="boundary" inkscape:connector-curvature="0" />
	<path style="fill:none;stroke:red;stroke-width:1px;stroke-linecap:butt;stroke-linejoin:miter;stroke-opacity:1" d="M 52.8812,996 27.0029,981.623 z" id="boundary" inkscape:connector-curvature="0" />
	<path style="fill:none;stroke:red;stroke-width:1px;stroke-linecap:butt;stroke-linejoin:miter;stroke-opacity:1" d="M 32.7536,671.084 32.7536,699.838 z" id="boundary" inkscape:connector-curvature="0" />
	<path style="fill:none;stroke:red;stroke-width:1px;stroke-linecap:butt;stroke-linejoin:miter;stroke-opacity:1" d="M 32.7536,728.591 32.7536,699.838 z" id="boundary" inkscape:connector-curvature="0" />
	<path style="fill:none;stroke:red;stroke-width:1px;stroke-linecap:butt;stroke-linejoin:miter;stroke-opacity:1" d="M 32.7536,642.33 32.7536,671.084 z" id="boundary" inkscape:connector-curvature="0" />
	<path style="fill:none;stroke:red;stroke-width:1px;stroke-linecap:butt;stroke-linejoin:miter;stroke-opacity:1" d="M 32.7536,728.591 32.7536,757.345 z" id="boundary" inkscape:connector-curvature="0" />
	<path style="fill:none;stroke:red;stroke-width:1px;stroke-linecap:butt;stroke-linejoin:miter;stroke-opacity:1" d="M 32.7536,786.099 32.7536,757.345 z" id="boundary" inkscape:connector-curvature="0" />
	<path style="fill:none;stroke:red;stroke-width:1px;stroke-linecap:butt;stroke-linejoin:miter;stroke-opacity:1" d="M 32.7536,786.099 32.7536,814.852 z" id="boundary" inkscape:connector-curvature="0" />
	<path style="fill:none;stroke:red;stroke-width:1px;stroke-linecap:butt;stroke-linejoin:miter;stroke-opacity:1" d="M 32.7536,843.606 32.7536,814.852 z" id="boundary" inkscape:connector-curvature="0" />
	<path style="fill:none;stroke:red;stroke-width:1px;stroke-linecap:butt;stroke-linejoin:miter;stroke-opacity:1" d="M 32.7536,843.606 32.7536,872.359 z" id="boundary" inkscape:connector-curvature="0" />
	<path style="fill:none;stroke:red;stroke-width:1px;stroke-linecap:butt;stroke-linejoin:miter;stroke-opacity:1" d="M 32.7536,901.113 32.7536,872.359 z" id="boundary" inkscape:connector-curvature="0" />
	<path style="fill:none;stroke:red;stroke-width:1px;stroke-linecap:butt;stroke-linejoin:miter;stroke-opacity:1" d="M 81.6348,996 52.8812,996 z" id="boundary" inkscape:connector-curvature="0" />
	<path style="fill:none;stroke:red;stroke-width:1px;stroke-linecap:butt;stroke-linejoin:miter;stroke-opacity:1" d="M 27.0029,952.87 32.7536,901.113 z" id="boundary" inkscape:connector-curvature="0" />
	<path style="fill:none;stroke:red;stroke-width:1px;stroke-linecap:butt;stroke-linejoin:miter;stroke-opacity:1" d="M 61.5072,4 90.2609,4 z" id="boundary" inkscape:connector-curvature="0" />
	<path style="fill:none;stroke:red;stroke-width:1px;stroke-linecap:butt;stroke-linejoin:miter;stroke-opacity:1" d="M 127.641,188.023 121.89,222.528 z" id="boundary" inkscape:connector-curvature="0" />
	<path style="fill:none;stroke:red;stroke-width:1px;stroke-linecap:butt;stroke-linejoin:miter;stroke-opacity:1" d="M 121.89,222.528 121.89,251.281 z" id="boundary" inkscape:connector-curvature="0" />
	<path style="fill:none;stroke:red;stroke-width:1px;stroke-linecap:butt;stroke-linejoin:miter;stroke-opacity:1" d="M 90.2609,4 119.014,4 z" id="boundary" inkscape:connector-curvature="0" />
	<path style="fill:none;stroke:red;stroke-width:1px;stroke-linecap:butt;stroke-linejoin:miter;stroke-opacity:1" d="M 121.89,251.281 121.89,280.035 z" id="boundary" inkscape:connector-curvature="0" />
	<path style="fill:none;stroke:red;stroke-width:1px;stroke-linecap:butt;stroke-linejoin:miter;stroke-opacity:1" d="M 121.89,280.035 121.89,308.788 z" id="boundary" inkscape:connector-curvature="0" />
	<path style="fill:none;stroke:red;stroke-width:1px;stroke-linecap:butt;stroke-linejoin:miter;stroke-opacity:1" d="M 121.89,337.542 121.89,366.296 z" id="boundary" inkscape:connector-curvature="0" />
	<path style="fill:none;stroke:red;stroke-width:1px;stroke-linecap:butt;stroke-linejoin:miter;stroke-opacity:1" d="M 121.89,395.049 121.89,366.296 z" id="boundary" inkscape:connector-curvature="0" />
	<path style="fill:none;stroke:red;stroke-width:1px;stroke-linecap:butt;stroke-linejoin:miter;stroke-opacity:1" d="M 144.893,478.435 130.516,452.557 z" id="boundary" inkscape:connector-curvature="0" />
	<path style="fill:none;stroke:red;stroke-width:1px;stroke-linecap:butt;stroke-linejoin:miter;stroke-opacity:1" d="M 121.89,308.788 121.89,337.542 z" id="boundary" inkscape:connector-curvature="0" />
	<path style="fill:none;stroke:red;stroke-width:1px;stroke-linecap:butt;stroke-linejoin:miter;stroke-opacity:1" d="M 121.89,395.049 121.89,423.803 z" id="boundary" inkscape:connector-curvature="0" />
	<path style="fill:none;stroke:red;stroke-width:1px;stroke-linecap:butt;stroke-linejoin:miter;stroke-opacity:1" d="M 153.519,75.8841 139.142,101.762 z" id="boundary" inkscape:connector-curvature="0" />
	<path style="fill:none;stroke:red;stroke-width:1px;stroke-linecap:butt;stroke-linejoin:miter;stroke-opacity:1" d="M 139.142,101.762 139.142,130.516 z" id="boundary" inkscape:connector-curvature="0" />
	<path style="fill:none;stroke:red;stroke-width:1px;stroke-linecap:butt;stroke-linejoin:miter;stroke-opacity:1" d="M 162.145,35.629 153.519,75.8841 z" id="boundary" inkscape:connector-curvature="0" />
	<path style="fill:none;stroke:red;stroke-width:1px;stroke-linecap:butt;stroke-linejoin:miter;stroke-opacity:1" d="M 130.516,452.557 121.89,423.803 z" id="boundary" inkscape:connector-curvature="0" />
	<path style="fill:none;stroke:red;stroke-width:1px;stroke-linecap:butt;stroke-linejoin:miter;stroke-opacity:1" d="M 127.641,188.023 133.391,159.27 z" id="boundary" inkscape:connector-curvature="0" />
	<path style="fill:none;stroke:red;stroke-width:1px;stroke-linecap:butt;stroke-linejoin:miter;stroke-opacity:1" d="M 133.391,159.27 139.142,130.516 z" id="boundary" inkscape:connector-curvature="0" />
	<path style="fill:none;stroke:red;stroke-width:1px;stroke-linecap:butt;stroke-linejoin:miter;stroke-opacity:1" d="M 147.768,9.75072 162.145,35.629 z" id="boundary" inkscape:connector-curvature="0" />
	<path style="fill:none;stroke:red;stroke-width:1px;stroke-linecap:butt;stroke-linejoin:miter;stroke-opacity:1" d="M 119.014,4 147.768,9.75072 z" id="boundary" inkscape:connector-curvature="0" />
	<path style="fill:none;stroke:red;stroke-width:1px;stroke-linecap:butt;stroke-linejoin:miter;stroke-opacity:1" d="M 144.893,780.348 144.893,809.101 z" id="boundary" inkscape:connector-curvature="0" />
	<path style="fill:none;stroke:red;stroke-width:1px;stroke-linecap:butt;stroke-linejoin:miter;stroke-opacity:1" d="M 150.643,622.203 150.643,650.957 z" id="boundary" inkscape:connector-curvature="0" />
	<path style="fill:none;stroke:red;stroke-width:1px;stroke-linecap:butt;stroke-linejoin:miter;stroke-opacity:1" d="M 150.643,507.188 150.643,535.942 z" id="boundary" inkscape:connector-curvature="0" />
	<path style="fill:none;stroke:red;stroke-width:1px;stroke-linecap:butt;stroke-linejoin:miter;stroke-opacity:1" d="M 150.643,507.188 144.893,478.435 z" id="boundary" inkscape:connector-curvature="0" />
	<path style="fill:none;stroke:red;stroke-width:1px;stroke-linecap:butt;stroke-linejoin:miter;stroke-opacity:1" d="M 144.893,780.348 150.643,737.217 z" id="boundary" inkscape:connector-curvature="0" />
	<path style="fill:none;stroke:red;stroke-width:1px;stroke-linecap:butt;stroke-linejoin:miter;stroke-opacity:1" d="M 150.643,952.87 139.142,996 z" id="boundary" inkscape:connector-curvature="0" />
	<path style="fill:none;stroke:red;stroke-width:1px;stroke-linecap:butt;stroke-linejoin:miter;stroke-opacity:1" d="M 139.142,996 110.388,996 z" id="boundary" inkscape:connector-curvature="0" />
	<path style="fill:none;stroke:red;stroke-width:1px;stroke-linecap:butt;stroke-linejoin:miter;stroke-opacity:1" d="M 144.893,837.855 144.893,866.609 z" id="boundary" inkscape:connector-curvature="0" />
	<path style="fill:none;stroke:red;stroke-width:1px;stroke-linecap:butt;stroke-linejoin:miter;stroke-opacity:1" d="M 144.893,837.855 144.893,809.101 z" id="boundary" inkscape:connector-curvature="0" />
	<path style="fill:none;stroke:red;stroke-width:1px;stroke-linecap:butt;stroke-linejoin:miter;stroke-opacity:1" d="M 150.643,895.362 144.893,866.609 z" id="boundary" inkscape:connector-curvature="0" />
	<path style="fill:none;stroke:red;stroke-width:1px;stroke-linecap:butt;stroke-linejoin:miter;stroke-opacity:1" d="M 150.643,895.362 150.643,924.116 z" id="boundary" inkscape:connector-curvature="0" />
	<path style="fill:none;stroke:red;stroke-width:1px;stroke-linecap:butt;stroke-linejoin:miter;stroke-opacity:1" d="M 150.643,535.942 150.643,564.696 z" id="boundary" inkscape:connector-curvature="0" />
	<path style="fill:none;stroke:red;stroke-width:1px;stroke-linecap:butt;stroke-linejoin:miter;stroke-opacity:1" d="M 150.643,564.696 150.643,593.449 z" id="boundary" inkscape:connector-curvature="0" />
	<path style="fill:none;stroke:red;stroke-width:1px;stroke-linecap:butt;stroke-linejoin:miter;stroke-opacity:1" d="M 150.643,650.957 150.643,679.71 z" id="boundary" inkscape:connector-curvature="0" />
	<path style="fill:none;stroke:red;stroke-width:1px;stroke-linecap:butt;stroke-linejoin:miter;stroke-opacity:1" d="M 150.643,679.71 150.643,708.464 z" id="boundary" inkscape:connector-curvature="0" />
	<path style="fill:none;stroke:red;stroke-width:1px;stroke-linecap:butt;stroke-linejoin:miter;stroke-opacity:1" d="M 150.643,622.203 150.643,593.449 z" id="boundary" inkscape:connector-curvature="0" />
	<path style="fill:none;stroke:red;stroke-width:1px;stroke-linecap:butt;stroke-linejoin:miter;stroke-opacity:1" d="M 150.643,737.217 150.643,708.464 z" id="boundary" inkscape:connector-curvature="0" />
	<path style="fill:none;stroke:red;stroke-width:1px;stroke-linecap:butt;stroke-linejoin:miter;stroke-opacity:1" d="M 150.643,924.116 150.643,952.87 z" id="boundary" inkscape:connector-curvature="0" />
	<path style="fill:none;stroke:red;stroke-width:1px;stroke-linecap:butt;stroke-linejoin:miter;stroke-opacity:1" d="M 110.388,996 81.6348,996 z" id="boundary" inkscape:connector-curvature="0" />
	<circle cx="4" cy="130.516" r="4" fill="#0" id="circle0"/>
	<circle cx="4" cy="159.27" r="4" fill="#0" id="circle1"/>
	<circle cx="9.75072" cy="90.2609" r="4" fill="#0" id="circle2"/>
	<circle cx="21.2522" cy="44.2551" r="4" fill="#0" id="circle3"/>
	<circle cx="27.0029" cy="179.397" r="4" fill="#0" id="circle4"/>
	<circle cx="27.0029" cy="952.87" r="4" fill="#0" id="circle5"/>
	<circle cx="27.0029" cy="981.623" r="4" fill="#0" id="circle6"/>
	<circle cx="32.7536" cy="15.5014" r="4" fill="#0" id="circle7"/>
	<circle cx="32.7536" cy="469.809" r="4" fill="#0" id="circle8"/>
	<circle cx="32.7536" cy="498.562" r="4" fill="#0" id="circle9"/>
	<circle cx="32.7536" cy="527.316" r="4" fill="#0" id="circle10"/>
	<circle cx="32.7536" cy="556.07" r="4" fill="#0" id="circle11"/>
	<circle cx="32.7536" cy="584.823" r="4" fill="#0" id="circle12"/>
	<circle cx="32.7536" cy="613.577" r="4" fill="#0" id="circle13"/>
	<circle cx="32.7536" cy="642.33" r="4" fill="#0" id="circle14"/>
	<circle cx="32.7536" cy="671.084" r="4" fill="#0" id="circle15"/>
	<circle cx="32.7536" cy="699.838" r="4" fill="#0" id="circle16"/>
	<circle cx="32.7536" cy="728.591" r="4" fill="#0" id="circle17"/>
	<circle cx="32.7536" cy="757.345" r="4" fill="#0" id="circle18"/>
	<circle cx="32.7536" cy="786.099" r="4" fill="#0" id="circle19"/>
	<circle cx="32.7536" cy="814.852" r="4" fill="#0" id="circle20"/>
	<circle cx="32.7536" cy="843.606" r="4" fill="#0" id="circle21"/>
	<circle cx="32.7536" cy="872.359" r="4" fill="#0" id="circle22"/>
	<circle cx="32.7536" cy="901.113" r="4" fill="#0" id="circle23"/>
	<circle cx="50.0058" cy="196.649" r="4" fill="#0" id="circle24"/>
	<circle cx="50.0058" cy="441.055" r="4" fill="#0" id="circle25"/>
	<circle cx="52.8812" cy="996" r="4" fill="#0" id="circle26"/>
	<circle cx="55.7565" cy="225.403" r="4" fill="#0" id="circle27"/>
	<circle cx="55.7565" cy="254.157" r="4" fill="#0" id="circle28"/>
	<circle cx="55.7565" cy="282.91" r="4" fill="#0" id="circle29"/>
	<circle cx="55.7565" cy="383.548" r="4" fill="#0" id="circle30"/>
	<circle cx="55.7565" cy="412.301" r="4" fill="#0" id="circle31"/>
	<circle cx="61.5072" cy="4" r="4" fill="#0" id="circle32"/>
	<circle cx="61.5072" cy="311.664" r="4" fill="#0" id="circle33"/>
	<circle cx="61.5072" cy="340.417" r="4" fill="#0" id="circle34"/>
	<circle cx="81.6348" cy="996" r="4" fill="#0" id="circle35"/>
	<circle cx="90.2609" cy="4" r="4" fill="#0" id="circle36"/>
	<circle cx="110.388" cy="996" r="4" fill="#0" id="circle37"/>
	<circle cx="119.014" cy="4" r="4" fill="#0" id="circle38"/>
	<circle cx="121.89" cy="222.528" r="4" fill="#0" id="circle39"/>
	<circle cx="121.89" cy="251.281" r="4" fill="#0" id="circle40"/>
	<circle cx="121.89" cy="280.035" r="4" fill="#0" id="circle41"/>
	<circle cx="121.89" cy="308.788" r="4" fill="#0" id="circle42"/>
	<circle cx="121.89" cy="337.542" r="4" fill="#0" id="circle43"/>
	<circle cx="121.89" cy="366.296" r="4" fill="#0" id="circle44"/>
	<circle cx="121.89" cy="395.049" r="4" fill="#0" id="circle45"/>
	<circle cx="121.89" cy="423.803" r="4" fill="#0" id="circle46"/>
	<circle cx="127.641" cy="188.023" r="4" fill="#0" id="circle47"/>
	<circle cx="130.516" cy="452.557" r="4" fill="#0" id="circle48"/>
	<circle cx="133.391" cy="159.27" r="4" fill="#0" id="circle49"/>
	<circle cx="139.142" cy="101.762" r="4" fill="#0" id="circle50"/>
	<circle cx="139.142" cy="130.516" r="4" fill="#0" id="circle51"/>
	<circle cx="139.142" cy="996" r="4" fill="#0" id="circle52"/>
	<circle cx="144.893" cy="478.435" r="4" fill="#0" id="circle53"/>
	<circle cx="144.893" cy="780.348" r="4" fill="#0" id="circle54"/>
	<circle cx="144.893" cy="809.101" r="4" fill="#0" id="circle55"/>
	<circle cx="144.893" cy="837.855" r="4" fill="#0" id="circle56"/>
	<circle cx="144.893" cy="866.609" r="4" fill="#0" id="circle57"/>
	<circle cx="147.768" cy="9.75072" r="4" fill="#0" id="circle58"/>
	<circle cx="150.643" cy="507.188" r="4" fill="#0" id="circle59"/>
	<circle cx="150.643" cy="535.942" r="4" fill="#0" id="circle60"/>
	<circle cx="150.643" cy="564.696" r="4" fill="#0" id="circle61"/>
	<circle cx="150.643" cy="593.449" r="4" fill="#0" id="circle62"/>
	<circle cx="150.643" cy="622.203" r="4" fill="#0" id="circle63"/>
	<circle cx="150.643" cy="650.957" r="4" fill="#0" id="circle64"/>
	<circle cx="150.643" cy="679.71" r="4" fill="#0" id="circle65"/>
	<circle cx="150.643" cy="708.464" r="4" fill="#0" id="circle66"/>
	<circle cx="150.643" cy="737.217" r="4" fill="#0" id="circle67"/>
	<circle cx="150.643" cy="895.362" r="4" fill="#0" id="circle68"/>
	<circle cx="150.643" cy="924.116" r="4" fill="#0" id="circle69"/>
	<circle cx="150.643" cy="952.87" r="4" fill="#0" id="circle70"/>
	<circle cx="153.519" cy="75.8841" r="4" fill="#0" id="circle71"/>
	<circle cx="162.145" cy="35.629" r="4" fill="#0" id="circle72"/>
	</g>
</svg>