<?xml version="1.0" encoding="UTF-8" standalone="no"?>
<!-- Created with CurveBenchmark -->
<svg
	xmlns:dc="http://purl.org/dc/elements/1.1/"
	xmlns:cc="http://creativecommons.org/ns#"
	xmlns:rdf="http://www.w3.org/1999/02/22-rdf-syntax-ns#"
	xmlns:svg="http://www.w3.org/2000/svg"
	xmlns="http://www.w3.org/2000/svg"
	xmlns:sodipodi="http://sodipodi.sourceforge.net/DTD/sodipodi-0.dtd"
	xmlns:inkscape="http://www.inkscape.org/namespaces/inkscape"
	width="1000"
	height="1000"
	id="svg2"
	version="1.1"
	sodipodi:docname="manifold/nncrust-bed150.png.txt">
<defs
	id="defs4" />
<metadata
	id="metadata7">
	<rdf:RDF>
		<cc:Work
			rdf:about="">
			<dc:format>image/svg+xml</dc:format>
			<dc:type
				rdf:resource="http://purl.org/dc/dcmitype/StillImage" />
			<dc:title></dc:title>
		</cc:Work>
	</rdf:RDF>
</metadata>
<g
	inkscape:label="Layer 1"
	inkscape:groupmode="layer"
	id="layer1">
	<path style="fill:none;stroke:red;stroke-width:1px;stroke-linecap:butt;stroke-linejoin:miter;stroke-opacity:1" d="M 14.7243,121.968 29.0234,111.243 z" id="boundary" inkscape:connector-curvature="0" />
	<path style="fill:none;stroke:red;stroke-width:1px;stroke-linecap:butt;stroke-linejoin:miter;stroke-opacity:1" d="M 4,154.141 4,136.267 z" id="boundary" inkscape:connector-curvature="0" />
	<path style="fill:none;stroke:red;stroke-width:1px;stroke-linecap:butt;stroke-linejoin:miter;stroke-opacity:1" d="M 4,136.267 14.7243,121.968 z" id="boundary" inkscape:connector-curvature="0" />
	<path style="fill:none;stroke:red;stroke-width:1px;stroke-linecap:butt;stroke-linejoin:miter;stroke-opacity:1" d="M 11.1495,172.014 4,154.141 z" id="boundary" inkscape:connector-curvature="0" />
	<path style="fill:none;stroke:red;stroke-width:1px;stroke-linecap:butt;stroke-linejoin:miter;stroke-opacity:1" d="M 29.0234,111.243 46.8973,104.094 z" id="boundary" inkscape:connector-curvature="0" />
	<path style="fill:none;stroke:red;stroke-width:1px;stroke-linecap:butt;stroke-linejoin:miter;stroke-opacity:1" d="M 100.519,86.2198 118.393,82.645 z" id="boundary" inkscape:connector-curvature="0" />
	<path style="fill:none;stroke:red;stroke-width:1px;stroke-linecap:butt;stroke-linejoin:miter;stroke-opacity:1" d="M 82.645,93.3694 100.519,86.2198 z" id="boundary" inkscape:connector-curvature="0" />
	<path style="fill:none;stroke:red;stroke-width:1px;stroke-linecap:butt;stroke-linejoin:miter;stroke-opacity:1" d="M 14.7243,189.888 11.1495,172.014 z" id="boundary" inkscape:connector-curvature="0" />
	<path style="fill:none;stroke:red;stroke-width:1px;stroke-linecap:butt;stroke-linejoin:miter;stroke-opacity:1" d="M 64.7712,96.9441 46.8973,104.094 z" id="boundary" inkscape:connector-curvature="0" />
	<path style="fill:none;stroke:red;stroke-width:1px;stroke-linecap:butt;stroke-linejoin:miter;stroke-opacity:1" d="M 82.645,93.3694 64.7712,96.9441 z" id="boundary" inkscape:connector-curvature="0" />
	<path style="fill:none;stroke:red;stroke-width:1px;stroke-linecap:butt;stroke-linejoin:miter;stroke-opacity:1" d="M 14.7243,207.762 14.7243,225.636 z" id="boundary" inkscape:connector-curvature="0" />
	<path style="fill:none;stroke:red;stroke-width:1px;stroke-linecap:butt;stroke-linejoin:miter;stroke-opacity:1" d="M 11.1495,307.856 7.57477,336.454 z" id="boundary" inkscape:connector-curvature="0" />
	<path style="fill:none;stroke:red;stroke-width:1px;stroke-linecap:butt;stroke-linejoin:miter;stroke-opacity:1" d="M 4,386.501 4,368.627 z" id="boundary" inkscape:connector-curvature="0" />
	<path style="fill:none;stroke:red;stroke-width:1px;stroke-linecap:butt;stroke-linejoin:miter;stroke-opacity:1" d="M 7.57477,336.454 4,368.627 z" id="boundary" inkscape:connector-curvature="0" />
	<path style="fill:none;stroke:red;stroke-width:1px;stroke-linecap:butt;stroke-linejoin:miter;stroke-opacity:1" d="M 11.1495,307.856 14.7243,286.407 z" id="boundary" inkscape:connector-curvature="0" />
	<path style="fill:none;stroke:red;stroke-width:1px;stroke-linecap:butt;stroke-linejoin:miter;stroke-opacity:1" d="M 14.7243,189.888 14.7243,207.762 z" id="boundary" inkscape:connector-curvature="0" />
	<path style="fill:none;stroke:red;stroke-width:1px;stroke-linecap:butt;stroke-linejoin:miter;stroke-opacity:1" d="M 18.2991,243.51 14.7243,225.636 z" id="boundary" inkscape:connector-curvature="0" />
	<path style="fill:none;stroke:red;stroke-width:1px;stroke-linecap:butt;stroke-linejoin:miter;stroke-opacity:1" d="M 14.7243,268.533 18.2991,243.51 z" id="boundary" inkscape:connector-curvature="0" />
	<path style="fill:none;stroke:red;stroke-width:1px;stroke-linecap:butt;stroke-linejoin:miter;stroke-opacity:1" d="M 14.7243,286.407 14.7243,268.533 z" id="boundary" inkscape:connector-curvature="0" />
	<path style="fill:none;stroke:red;stroke-width:1px;stroke-linecap:butt;stroke-linejoin:miter;stroke-opacity:1" d="M 118.393,82.645 136.267,79.0703 z" id="boundary" inkscape:connector-curvature="0" />
	<path style="fill:none;stroke:red;stroke-width:1px;stroke-linecap:butt;stroke-linejoin:miter;stroke-opacity:1" d="M 238.148,34.3856 248.872,20.0865 z" id="boundary" inkscape:connector-curvature="0" />
	<path style="fill:none;stroke:red;stroke-width:1px;stroke-linecap:butt;stroke-linejoin:miter;stroke-opacity:1" d="M 263.171,5.78739 248.872,20.0865 z" id="boundary" inkscape:connector-curvature="0" />
	<path style="fill:none;stroke:red;stroke-width:1px;stroke-linecap:butt;stroke-linejoin:miter;stroke-opacity:1" d="M 222.061,43.3225 204.187,46.8973 z" id="boundary" inkscape:connector-curvature="0" />
	<path style="fill:none;stroke:red;stroke-width:1px;stroke-linecap:butt;stroke-linejoin:miter;stroke-opacity:1" d="M 238.148,34.3856 222.061,43.3225 z" id="boundary" inkscape:connector-curvature="0" />
	<path style="fill:none;stroke:red;stroke-width:1px;stroke-linecap:butt;stroke-linejoin:miter;stroke-opacity:1" d="M 189.888,57.6216 204.187,46.8973 z" id="boundary" inkscape:connector-curvature="0" />
	<path style="fill:none;stroke:red;stroke-width:1px;stroke-linecap:butt;stroke-linejoin:miter;stroke-opacity:1" d="M 281.045,4 293.557,18.2991 z" id="boundary" inkscape:connector-curvature="0" />
	<path style="fill:none;stroke:red;stroke-width:1px;stroke-linecap:butt;stroke-linejoin:miter;stroke-opacity:1" d="M 263.171,5.78739 281.045,4 z" id="boundary" inkscape:connector-curvature="0" />
	<path style="fill:none;stroke:red;stroke-width:1px;stroke-linecap:butt;stroke-linejoin:miter;stroke-opacity:1" d="M 306.068,32.5982 323.942,39.7477 z" id="boundary" inkscape:connector-curvature="0" />
	<path style="fill:none;stroke:red;stroke-width:1px;stroke-linecap:butt;stroke-linejoin:miter;stroke-opacity:1" d="M 306.068,32.5982 293.557,18.2991 z" id="boundary" inkscape:connector-curvature="0" />
	<path style="fill:none;stroke:red;stroke-width:1px;stroke-linecap:butt;stroke-linejoin:miter;stroke-opacity:1" d="M 341.816,46.8973 323.942,39.7477 z" id="boundary" inkscape:connector-curvature="0" />
	<path style="fill:none;stroke:red;stroke-width:1px;stroke-linecap:butt;stroke-linejoin:miter;stroke-opacity:1" d="M 341.816,46.8973 356.115,57.6216 z" id="boundary" inkscape:connector-curvature="0" />
	<path style="fill:none;stroke:red;stroke-width:1px;stroke-linecap:butt;stroke-linejoin:miter;stroke-opacity:1" d="M 172.014,68.3459 189.888,57.6216 z" id="boundary" inkscape:connector-curvature="0" />
	<path style="fill:none;stroke:red;stroke-width:1px;stroke-linecap:butt;stroke-linejoin:miter;stroke-opacity:1" d="M 356.115,57.6216 370.414,68.3459 z" id="boundary" inkscape:connector-curvature="0" />
	<path style="fill:none;stroke:red;stroke-width:1px;stroke-linecap:butt;stroke-linejoin:miter;stroke-opacity:1" d="M 172.014,68.3459 154.141,75.4955 z" id="boundary" inkscape:connector-curvature="0" />
	<path style="fill:none;stroke:red;stroke-width:1px;stroke-linecap:butt;stroke-linejoin:miter;stroke-opacity:1" d="M 154.141,75.4955 136.267,79.0703 z" id="boundary" inkscape:connector-curvature="0" />
	<path style="fill:none;stroke:red;stroke-width:1px;stroke-linecap:butt;stroke-linejoin:miter;stroke-opacity:1" d="M 388.288,71.9207 370.414,68.3459 z" id="boundary" inkscape:connector-curvature="0" />
	<path style="fill:none;stroke:red;stroke-width:1px;stroke-linecap:butt;stroke-linejoin:miter;stroke-opacity:1" d="M 388.288,71.9207 406.162,75.4955 z" id="boundary" inkscape:connector-curvature="0" />
	<path style="fill:none;stroke:red;stroke-width:1px;stroke-linecap:butt;stroke-linejoin:miter;stroke-opacity:1" d="M 406.162,75.4955 424.036,82.645 z" id="boundary" inkscape:connector-curvature="0" />
	<path style="fill:none;stroke:red;stroke-width:1px;stroke-linecap:butt;stroke-linejoin:miter;stroke-opacity:1" d="M 424.036,82.645 441.91,86.2198 z" id="boundary" inkscape:connector-curvature="0" />
	<path style="fill:none;stroke:red;stroke-width:1px;stroke-linecap:butt;stroke-linejoin:miter;stroke-opacity:1" d="M 441.91,86.2198 459.784,93.3694 z" id="boundary" inkscape:connector-curvature="0" />
	<path style="fill:none;stroke:red;stroke-width:1px;stroke-linecap:butt;stroke-linejoin:miter;stroke-opacity:1" d="M 477.658,96.9441 459.784,93.3694 z" id="boundary" inkscape:connector-curvature="0" />
	<path style="fill:none;stroke:red;stroke-width:1px;stroke-linecap:butt;stroke-linejoin:miter;stroke-opacity:1" d="M 4,422.249 4,404.375 z" id="boundary" inkscape:connector-curvature="0" />
	<path style="fill:none;stroke:red;stroke-width:1px;stroke-linecap:butt;stroke-linejoin:miter;stroke-opacity:1" d="M 4,457.996 4,440.123 z" id="boundary" inkscape:connector-curvature="0" />
	<path style="fill:none;stroke:red;stroke-width:1px;stroke-linecap:butt;stroke-linejoin:miter;stroke-opacity:1" d="M 4,475.87 4,457.996 z" id="boundary" inkscape:connector-curvature="0" />
	<path style="fill:none;stroke:red;stroke-width:1px;stroke-linecap:butt;stroke-linejoin:miter;stroke-opacity:1" d="M 4,440.123 4,422.249 z" id="boundary" inkscape:connector-curvature="0" />
	<path style="fill:none;stroke:red;stroke-width:1px;stroke-linecap:butt;stroke-linejoin:miter;stroke-opacity:1" d="M 52.2595,481.232 70.1333,481.232 z" id="boundary" inkscape:connector-curvature="0" />
	<path style="fill:none;stroke:red;stroke-width:1px;stroke-linecap:butt;stroke-linejoin:miter;stroke-opacity:1" d="M 88.0072,481.232 105.881,481.232 z" id="boundary" inkscape:connector-curvature="0" />
	<path style="fill:none;stroke:red;stroke-width:1px;stroke-linecap:butt;stroke-linejoin:miter;stroke-opacity:1" d="M 29.0234,552.728 88.0072,481.232 z" id="boundary" inkscape:connector-curvature="0" />
	<path style="fill:none;stroke:red;stroke-width:1px;stroke-linecap:butt;stroke-linejoin:miter;stroke-opacity:1" d="M 4,404.375 4,386.501 z" id="boundary" inkscape:connector-curvature="0" />
	<path style="fill:none;stroke:red;stroke-width:1px;stroke-linecap:butt;stroke-linejoin:miter;stroke-opacity:1" d="M 105.881,481.232 123.755,481.232 z" id="boundary" inkscape:connector-curvature="0" />
	<path style="fill:none;stroke:red;stroke-width:1px;stroke-linecap:butt;stroke-linejoin:miter;stroke-opacity:1" d="M 88.0072,481.232 70.1333,481.232 z" id="boundary" inkscape:connector-curvature="0" />
	<path style="fill:none;stroke:red;stroke-width:1px;stroke-linecap:butt;stroke-linejoin:miter;stroke-opacity:1" d="M 52.2595,481.232 34.3856,483.02 z" id="boundary" inkscape:connector-curvature="0" />
	<path style="fill:none;stroke:red;stroke-width:1px;stroke-linecap:butt;stroke-linejoin:miter;stroke-opacity:1" d="M 7.57477,493.744 7.57477,511.618 z" id="boundary" inkscape:connector-curvature="0" />
	<path style="fill:none;stroke:red;stroke-width:1px;stroke-linecap:butt;stroke-linejoin:miter;stroke-opacity:1" d="M 4,475.87 7.57477,493.744 z" id="boundary" inkscape:connector-curvature="0" />
	<path style="fill:none;stroke:red;stroke-width:1px;stroke-linecap:butt;stroke-linejoin:miter;stroke-opacity:1" d="M 30.8108,525.917 7.57477,529.492 z" id="boundary" inkscape:connector-curvature="0" />
	<path style="fill:none;stroke:red;stroke-width:1px;stroke-linecap:butt;stroke-linejoin:miter;stroke-opacity:1" d="M 7.57477,529.492 7.57477,511.618 z" id="boundary" inkscape:connector-curvature="0" />
	<path style="fill:none;stroke:red;stroke-width:1px;stroke-linecap:butt;stroke-linejoin:miter;stroke-opacity:1" d="M 29.0234,552.728 11.1495,547.366 z" id="boundary" inkscape:connector-curvature="0" />
	<path style="fill:none;stroke:red;stroke-width:1px;stroke-linecap:butt;stroke-linejoin:miter;stroke-opacity:1" d="M 11.1495,547.366 7.57477,529.492 z" id="boundary" inkscape:connector-curvature="0" />
	<path style="fill:none;stroke:red;stroke-width:1px;stroke-linecap:butt;stroke-linejoin:miter;stroke-opacity:1" d="M 141.629,481.232 159.503,481.232 z" id="boundary" inkscape:connector-curvature="0" />
	<path style="fill:none;stroke:red;stroke-width:1px;stroke-linecap:butt;stroke-linejoin:miter;stroke-opacity:1" d="M 141.629,481.232 123.755,481.232 z" id="boundary" inkscape:connector-curvature="0" />
	<path style="fill:none;stroke:red;stroke-width:1px;stroke-linecap:butt;stroke-linejoin:miter;stroke-opacity:1" d="M 159.503,481.232 177.377,481.232 z" id="boundary" inkscape:connector-curvature="0" />
	<path style="fill:none;stroke:red;stroke-width:1px;stroke-linecap:butt;stroke-linejoin:miter;stroke-opacity:1" d="M 34.3856,500.894 30.8108,525.917 z" id="boundary" inkscape:connector-curvature="0" />
	<path style="fill:none;stroke:red;stroke-width:1px;stroke-linecap:butt;stroke-linejoin:miter;stroke-opacity:1" d="M 34.3856,483.02 34.3856,500.894 z" id="boundary" inkscape:connector-curvature="0" />
	<path style="fill:none;stroke:red;stroke-width:1px;stroke-linecap:butt;stroke-linejoin:miter;stroke-opacity:1" d="M 177.377,481.232 195.25,481.232 z" id="boundary" inkscape:connector-curvature="0" />
	<path style="fill:none;stroke:red;stroke-width:1px;stroke-linecap:butt;stroke-linejoin:miter;stroke-opacity:1" d="M 230.998,481.232 248.872,481.232 z" id="boundary" inkscape:connector-curvature="0" />
	<path style="fill:none;stroke:red;stroke-width:1px;stroke-linecap:butt;stroke-linejoin:miter;stroke-opacity:1" d="M 230.998,481.232 213.124,481.232 z" id="boundary" inkscape:connector-curvature="0" />
	<path style="fill:none;stroke:red;stroke-width:1px;stroke-linecap:butt;stroke-linejoin:miter;stroke-opacity:1" d="M 248.872,481.232 266.746,481.232 z" id="boundary" inkscape:connector-curvature="0" />
	<path style="fill:none;stroke:red;stroke-width:1px;stroke-linecap:butt;stroke-linejoin:miter;stroke-opacity:1" d="M 213.124,481.232 195.25,481.232 z" id="boundary" inkscape:connector-curvature="0" />
	<path style="fill:none;stroke:red;stroke-width:1px;stroke-linecap:butt;stroke-linejoin:miter;stroke-opacity:1" d="M 284.62,481.232 302.494,481.232 z" id="boundary" inkscape:connector-curvature="0" />
	<path style="fill:none;stroke:red;stroke-width:1px;stroke-linecap:butt;stroke-linejoin:miter;stroke-opacity:1" d="M 284.62,481.232 266.746,481.232 z" id="boundary" inkscape:connector-curvature="0" />
	<path style="fill:none;stroke:red;stroke-width:1px;stroke-linecap:butt;stroke-linejoin:miter;stroke-opacity:1" d="M 320.368,481.232 338.241,481.232 z" id="boundary" inkscape:connector-curvature="0" />
	<path style="fill:none;stroke:red;stroke-width:1px;stroke-linecap:butt;stroke-linejoin:miter;stroke-opacity:1" d="M 320.368,481.232 302.494,481.232 z" id="boundary" inkscape:connector-curvature="0" />
	<path style="fill:none;stroke:red;stroke-width:1px;stroke-linecap:butt;stroke-linejoin:miter;stroke-opacity:1" d="M 338.241,481.232 356.115,481.232 z" id="boundary" inkscape:connector-curvature="0" />
	<path style="fill:none;stroke:red;stroke-width:1px;stroke-linecap:butt;stroke-linejoin:miter;stroke-opacity:1" d="M 373.989,481.232 391.863,481.232 z" id="boundary" inkscape:connector-curvature="0" />
	<path style="fill:none;stroke:red;stroke-width:1px;stroke-linecap:butt;stroke-linejoin:miter;stroke-opacity:1" d="M 391.863,481.232 397.225,499.106 z" id="boundary" inkscape:connector-curvature="0" />
	<path style="fill:none;stroke:red;stroke-width:1px;stroke-linecap:butt;stroke-linejoin:miter;stroke-opacity:1" d="M 373.989,481.232 356.115,481.232 z" id="boundary" inkscape:connector-curvature="0" />
	<path style="fill:none;stroke:red;stroke-width:1px;stroke-linecap:butt;stroke-linejoin:miter;stroke-opacity:1" d="M 400.8,534.854 397.225,516.98 z" id="boundary" inkscape:connector-curvature="0" />
	<path style="fill:none;stroke:red;stroke-width:1px;stroke-linecap:butt;stroke-linejoin:miter;stroke-opacity:1" d="M 397.225,516.98 397.225,499.106 z" id="boundary" inkscape:connector-curvature="0" />
	<path style="fill:none;stroke:red;stroke-width:1px;stroke-linecap:butt;stroke-linejoin:miter;stroke-opacity:1" d="M 400.8,534.854 400.8,552.728 z" id="boundary" inkscape:connector-curvature="0" />
	<path style="fill:none;stroke:red;stroke-width:1px;stroke-linecap:butt;stroke-linejoin:miter;stroke-opacity:1" d="M 427.611,511.618 431.186,493.744 z" id="boundary" inkscape:connector-curvature="0" />
	<path style="fill:none;stroke:red;stroke-width:1px;stroke-linecap:butt;stroke-linejoin:miter;stroke-opacity:1" d="M 431.186,493.744 449.059,491.957 z" id="boundary" inkscape:connector-curvature="0" />
	<path style="fill:none;stroke:red;stroke-width:1px;stroke-linecap:butt;stroke-linejoin:miter;stroke-opacity:1" d="M 427.611,511.618 424.036,533.067 z" id="boundary" inkscape:connector-curvature="0" />
	<path style="fill:none;stroke:red;stroke-width:1px;stroke-linecap:butt;stroke-linejoin:miter;stroke-opacity:1" d="M 418.674,552.728 400.8,552.728 z" id="boundary" inkscape:connector-curvature="0" />
	<path style="fill:none;stroke:red;stroke-width:1px;stroke-linecap:butt;stroke-linejoin:miter;stroke-opacity:1" d="M 424.036,533.067 418.674,552.728 z" id="boundary" inkscape:connector-curvature="0" />
	<path style="fill:none;stroke:red;stroke-width:1px;stroke-linecap:butt;stroke-linejoin:miter;stroke-opacity:1" d="M 424.036,533.067 518.768,552.728 z" id="boundary" inkscape:connector-curvature="0" />
	<path style="fill:none;stroke:red;stroke-width:1px;stroke-linecap:butt;stroke-linejoin:miter;stroke-opacity:1" d="M 449.059,491.957 466.933,491.957 z" id="boundary" inkscape:connector-curvature="0" />
	<path style="fill:none;stroke:red;stroke-width:1px;stroke-linecap:butt;stroke-linejoin:miter;stroke-opacity:1" d="M 477.658,96.9441 495.532,104.094 z" id="boundary" inkscape:connector-curvature="0" />
	<path style="fill:none;stroke:red;stroke-width:1px;stroke-linecap:butt;stroke-linejoin:miter;stroke-opacity:1" d="M 524.13,179.164 522.342,213.124 z" id="boundary" inkscape:connector-curvature="0" />
	<path style="fill:none;stroke:red;stroke-width:1px;stroke-linecap:butt;stroke-linejoin:miter;stroke-opacity:1" d="M 513.405,111.243 529.492,120.18 z" id="boundary" inkscape:connector-curvature="0" />
	<path style="fill:none;stroke:red;stroke-width:1px;stroke-linecap:butt;stroke-linejoin:miter;stroke-opacity:1" d="M 524.13,179.164 538.429,164.865 z" id="boundary" inkscape:connector-curvature="0" />
	<path style="fill:none;stroke:red;stroke-width:1px;stroke-linecap:butt;stroke-linejoin:miter;stroke-opacity:1" d="M 495.532,104.094 513.405,111.243 z" id="boundary" inkscape:connector-curvature="0" />
	<path style="fill:none;stroke:red;stroke-width:1px;stroke-linecap:butt;stroke-linejoin:miter;stroke-opacity:1" d="M 522.342,213.124 524.13,230.998 z" id="boundary" inkscape:connector-curvature="0" />
	<path style="fill:none;stroke:red;stroke-width:1px;stroke-linecap:butt;stroke-linejoin:miter;stroke-opacity:1" d="M 529.492,120.18 542.004,134.479 z" id="boundary" inkscape:connector-curvature="0" />
	<path style="fill:none;stroke:red;stroke-width:1px;stroke-linecap:butt;stroke-linejoin:miter;stroke-opacity:1" d="M 542.004,134.479 538.429,164.865 z" id="boundary" inkscape:connector-curvature="0" />
	<path style="fill:none;stroke:red;stroke-width:1px;stroke-linecap:butt;stroke-linejoin:miter;stroke-opacity:1" d="M 542.004,236.36 524.13,230.998 z" id="boundary" inkscape:connector-curvature="0" />
	<path style="fill:none;stroke:red;stroke-width:1px;stroke-linecap:butt;stroke-linejoin:miter;stroke-opacity:1" d="M 556.303,247.085 542.004,236.36 z" id="boundary" inkscape:connector-curvature="0" />
	<path style="fill:none;stroke:red;stroke-width:1px;stroke-linecap:butt;stroke-linejoin:miter;stroke-opacity:1" d="M 556.303,247.085 567.027,261.384 z" id="boundary" inkscape:connector-curvature="0" />
	<path style="fill:none;stroke:red;stroke-width:1px;stroke-linecap:butt;stroke-linejoin:miter;stroke-opacity:1" d="M 613.499,273.895 595.625,282.832 z" id="boundary" inkscape:connector-curvature="0" />
	<path style="fill:none;stroke:red;stroke-width:1px;stroke-linecap:butt;stroke-linejoin:miter;stroke-opacity:1" d="M 595.625,282.832 581.326,272.108 z" id="boundary" inkscape:connector-curvature="0" />
	<path style="fill:none;stroke:red;stroke-width:1px;stroke-linecap:butt;stroke-linejoin:miter;stroke-opacity:1" d="M 581.326,272.108 567.027,261.384 z" id="boundary" inkscape:connector-curvature="0" />
	<path style="fill:none;stroke:red;stroke-width:1px;stroke-linecap:butt;stroke-linejoin:miter;stroke-opacity:1" d="M 613.499,273.895 631.373,268.533 z" id="boundary" inkscape:connector-curvature="0" />
	<path style="fill:none;stroke:red;stroke-width:1px;stroke-linecap:butt;stroke-linejoin:miter;stroke-opacity:1" d="M 665.333,250.659 681.42,241.723 z" id="boundary" inkscape:connector-curvature="0" />
	<path style="fill:none;stroke:red;stroke-width:1px;stroke-linecap:butt;stroke-linejoin:miter;stroke-opacity:1" d="M 681.42,241.723 699.294,243.51 z" id="boundary" inkscape:connector-curvature="0" />
	<path style="fill:none;stroke:red;stroke-width:1px;stroke-linecap:butt;stroke-linejoin:miter;stroke-opacity:1" d="M 699.294,243.51 717.168,250.659 z" id="boundary" inkscape:connector-curvature="0" />
	<path style="fill:none;stroke:red;stroke-width:1px;stroke-linecap:butt;stroke-linejoin:miter;stroke-opacity:1" d="M 631.373,268.533 647.459,257.809 z" id="boundary" inkscape:connector-curvature="0" />
	<path style="fill:none;stroke:red;stroke-width:1px;stroke-linecap:butt;stroke-linejoin:miter;stroke-opacity:1" d="M 647.459,257.809 665.333,250.659 z" id="boundary" inkscape:connector-curvature="0" />
	<path style="fill:none;stroke:red;stroke-width:1px;stroke-linecap:butt;stroke-linejoin:miter;stroke-opacity:1" d="M 735.041,257.809 717.168,250.659 z" id="boundary" inkscape:connector-curvature="0" />
	<path style="fill:none;stroke:red;stroke-width:1px;stroke-linecap:butt;stroke-linejoin:miter;stroke-opacity:1" d="M 749.341,268.533 735.041,257.809 z" id="boundary" inkscape:connector-curvature="0" />
	<path style="fill:none;stroke:red;stroke-width:1px;stroke-linecap:butt;stroke-linejoin:miter;stroke-opacity:1" d="M 767.214,272.108 749.341,268.533 z" id="boundary" inkscape:connector-curvature="0" />
	<path style="fill:none;stroke:red;stroke-width:1px;stroke-linecap:butt;stroke-linejoin:miter;stroke-opacity:1" d="M 799.387,284.62 781.514,282.832 z" id="boundary" inkscape:connector-curvature="0" />
	<path style="fill:none;stroke:red;stroke-width:1px;stroke-linecap:butt;stroke-linejoin:miter;stroke-opacity:1" d="M 781.514,282.832 767.214,272.108 z" id="boundary" inkscape:connector-curvature="0" />
	<path style="fill:none;stroke:red;stroke-width:1px;stroke-linecap:butt;stroke-linejoin:miter;stroke-opacity:1" d="M 817.261,286.407 799.387,284.62 z" id="boundary" inkscape:connector-curvature="0" />
	<path style="fill:none;stroke:red;stroke-width:1px;stroke-linecap:butt;stroke-linejoin:miter;stroke-opacity:1" d="M 835.135,289.982 817.261,286.407 z" id="boundary" inkscape:connector-curvature="0" />
	<path style="fill:none;stroke:red;stroke-width:1px;stroke-linecap:butt;stroke-linejoin:miter;stroke-opacity:1" d="M 853.009,291.769 835.135,289.982 z" id="boundary" inkscape:connector-curvature="0" />
	<path style="fill:none;stroke:red;stroke-width:1px;stroke-linecap:butt;stroke-linejoin:miter;stroke-opacity:1" d="M 853.009,291.769 870.883,293.557 z" id="boundary" inkscape:connector-curvature="0" />
	<path style="fill:none;stroke:red;stroke-width:1px;stroke-linecap:butt;stroke-linejoin:miter;stroke-opacity:1" d="M 906.631,297.132 888.757,297.132 z" id="boundary" inkscape:connector-curvature="0" />
	<path style="fill:none;stroke:red;stroke-width:1px;stroke-linecap:butt;stroke-linejoin:miter;stroke-opacity:1" d="M 888.757,297.132 870.883,293.557 z" id="boundary" inkscape:connector-curvature="0" />
	<path style="fill:none;stroke:red;stroke-width:1px;stroke-linecap:butt;stroke-linejoin:miter;stroke-opacity:1" d="M 924.505,304.281 906.631,297.132 z" id="boundary" inkscape:connector-curvature="0" />
	<path style="fill:none;stroke:red;stroke-width:1px;stroke-linecap:butt;stroke-linejoin:miter;stroke-opacity:1" d="M 942.378,307.856 924.505,304.281 z" id="boundary" inkscape:connector-curvature="0" />
	<path style="fill:none;stroke:red;stroke-width:1px;stroke-linecap:butt;stroke-linejoin:miter;stroke-opacity:1" d="M 942.378,307.856 960.252,315.005 z" id="boundary" inkscape:connector-curvature="0" />
	<path style="fill:none;stroke:red;stroke-width:1px;stroke-linecap:butt;stroke-linejoin:miter;stroke-opacity:1" d="M 960.252,315.005 976.339,323.942 z" id="boundary" inkscape:connector-curvature="0" />
	<path style="fill:none;stroke:red;stroke-width:1px;stroke-linecap:butt;stroke-linejoin:miter;stroke-opacity:1" d="M 990.638,334.667 996,365.052 z" id="boundary" inkscape:connector-curvature="0" />
	<path style="fill:none;stroke:red;stroke-width:1px;stroke-linecap:butt;stroke-linejoin:miter;stroke-opacity:1" d="M 996,365.052 981.701,382.926 z" id="boundary" inkscape:connector-curvature="0" />
	<path style="fill:none;stroke:red;stroke-width:1px;stroke-linecap:butt;stroke-linejoin:miter;stroke-opacity:1" d="M 976.339,323.942 990.638,334.667 z" id="boundary" inkscape:connector-curvature="0" />
	<path style="fill:none;stroke:red;stroke-width:1px;stroke-linecap:butt;stroke-linejoin:miter;stroke-opacity:1" d="M 978.126,415.099 981.701,382.926 z" id="boundary" inkscape:connector-curvature="0" />
	<path style="fill:none;stroke:red;stroke-width:1px;stroke-linecap:butt;stroke-linejoin:miter;stroke-opacity:1" d="M 978.126,432.973 978.126,415.099 z" id="boundary" inkscape:connector-curvature="0" />
	<path style="fill:none;stroke:red;stroke-width:1px;stroke-linecap:butt;stroke-linejoin:miter;stroke-opacity:1" d="M 978.126,450.847 978.126,432.973 z" id="boundary" inkscape:connector-curvature="0" />
	<path style="fill:none;stroke:red;stroke-width:1px;stroke-linecap:butt;stroke-linejoin:miter;stroke-opacity:1" d="M 484.807,495.532 466.933,491.957 z" id="boundary" inkscape:connector-curvature="0" />
	<path style="fill:none;stroke:red;stroke-width:1px;stroke-linecap:butt;stroke-linejoin:miter;stroke-opacity:1" d="M 502.681,502.681 484.807,495.532 z" id="boundary" inkscape:connector-curvature="0" />
	<path style="fill:none;stroke:red;stroke-width:1px;stroke-linecap:butt;stroke-linejoin:miter;stroke-opacity:1" d="M 515.193,516.98 502.681,502.681 z" id="boundary" inkscape:connector-curvature="0" />
	<path style="fill:none;stroke:red;stroke-width:1px;stroke-linecap:butt;stroke-linejoin:miter;stroke-opacity:1" d="M 538.429,490.169 538.429,508.043 z" id="boundary" inkscape:connector-curvature="0" />
	<path style="fill:none;stroke:red;stroke-width:1px;stroke-linecap:butt;stroke-linejoin:miter;stroke-opacity:1" d="M 538.429,490.169 556.303,484.807 z" id="boundary" inkscape:connector-curvature="0" />
	<path style="fill:none;stroke:red;stroke-width:1px;stroke-linecap:butt;stroke-linejoin:miter;stroke-opacity:1" d="M 534.854,525.917 538.429,508.043 z" id="boundary" inkscape:connector-curvature="0" />
	<path style="fill:none;stroke:red;stroke-width:1px;stroke-linecap:butt;stroke-linejoin:miter;stroke-opacity:1" d="M 592.05,495.532 574.177,488.382 z" id="boundary" inkscape:connector-curvature="0" />
	<path style="fill:none;stroke:red;stroke-width:1px;stroke-linecap:butt;stroke-linejoin:miter;stroke-opacity:1" d="M 627.798,509.831 609.924,502.681 z" id="boundary" inkscape:connector-curvature="0" />
	<path style="fill:none;stroke:red;stroke-width:1px;stroke-linecap:butt;stroke-linejoin:miter;stroke-opacity:1" d="M 592.05,495.532 609.924,502.681 z" id="boundary" inkscape:connector-curvature="0" />
	<path style="fill:none;stroke:red;stroke-width:1px;stroke-linecap:butt;stroke-linejoin:miter;stroke-opacity:1" d="M 556.303,484.807 574.177,488.382 z" id="boundary" inkscape:connector-curvature="0" />
	<path style="fill:none;stroke:red;stroke-width:1px;stroke-linecap:butt;stroke-linejoin:miter;stroke-opacity:1" d="M 534.854,525.917 515.193,534.854 z" id="boundary" inkscape:connector-curvature="0" />
	<path style="fill:none;stroke:red;stroke-width:1px;stroke-linecap:butt;stroke-linejoin:miter;stroke-opacity:1" d="M 515.193,534.854 515.193,516.98 z" id="boundary" inkscape:connector-curvature="0" />
	<path style="fill:none;stroke:red;stroke-width:1px;stroke-linecap:butt;stroke-linejoin:miter;stroke-opacity:1" d="M 536.641,549.153 518.768,552.728 z" id="boundary" inkscape:connector-curvature="0" />
	<path style="fill:none;stroke:red;stroke-width:1px;stroke-linecap:butt;stroke-linejoin:miter;stroke-opacity:1" d="M 518.768,552.728 515.193,534.854 z" id="boundary" inkscape:connector-curvature="0" />
	<path style="fill:none;stroke:red;stroke-width:1px;stroke-linecap:butt;stroke-linejoin:miter;stroke-opacity:1" d="M 534.854,525.917 536.641,549.153 z" id="boundary" inkscape:connector-curvature="0" />
	<path style="fill:none;stroke:red;stroke-width:1px;stroke-linecap:butt;stroke-linejoin:miter;stroke-opacity:1" d="M 699.294,524.13 681.42,524.13 z" id="boundary" inkscape:connector-curvature="0" />
	<path style="fill:none;stroke:red;stroke-width:1px;stroke-linecap:butt;stroke-linejoin:miter;stroke-opacity:1" d="M 645.672,516.98 627.798,509.831 z" id="boundary" inkscape:connector-curvature="0" />
	<path style="fill:none;stroke:red;stroke-width:1px;stroke-linecap:butt;stroke-linejoin:miter;stroke-opacity:1" d="M 717.168,522.342 735.041,516.98 z" id="boundary" inkscape:connector-curvature="0" />
	<path style="fill:none;stroke:red;stroke-width:1px;stroke-linecap:butt;stroke-linejoin:miter;stroke-opacity:1" d="M 717.168,522.342 699.294,524.13 z" id="boundary" inkscape:connector-curvature="0" />
	<path style="fill:none;stroke:red;stroke-width:1px;stroke-linecap:butt;stroke-linejoin:miter;stroke-opacity:1" d="M 663.546,524.13 681.42,524.13 z" id="boundary" inkscape:connector-curvature="0" />
	<path style="fill:none;stroke:red;stroke-width:1px;stroke-linecap:butt;stroke-linejoin:miter;stroke-opacity:1" d="M 663.546,524.13 645.672,516.98 z" id="boundary" inkscape:connector-curvature="0" />
	<path style="fill:none;stroke:red;stroke-width:1px;stroke-linecap:butt;stroke-linejoin:miter;stroke-opacity:1" d="M 822.623,484.807 840.497,488.382 z" id="boundary" inkscape:connector-curvature="0" />
	<path style="fill:none;stroke:red;stroke-width:1px;stroke-linecap:butt;stroke-linejoin:miter;stroke-opacity:1" d="M 804.75,491.957 822.623,484.807 z" id="boundary" inkscape:connector-curvature="0" />
	<path style="fill:none;stroke:red;stroke-width:1px;stroke-linecap:butt;stroke-linejoin:miter;stroke-opacity:1" d="M 786.876,495.532 804.75,491.957 z" id="boundary" inkscape:connector-curvature="0" />
	<path style="fill:none;stroke:red;stroke-width:1px;stroke-linecap:butt;stroke-linejoin:miter;stroke-opacity:1" d="M 840.497,488.382 854.796,499.106 z" id="boundary" inkscape:connector-curvature="0" />
	<path style="fill:none;stroke:red;stroke-width:1px;stroke-linecap:butt;stroke-linejoin:miter;stroke-opacity:1" d="M 908.418,491.957 890.544,499.106 z" id="boundary" inkscape:connector-curvature="0" />
	<path style="fill:none;stroke:red;stroke-width:1px;stroke-linecap:butt;stroke-linejoin:miter;stroke-opacity:1" d="M 786.876,495.532 769.002,502.681 z" id="boundary" inkscape:connector-curvature="0" />
	<path style="fill:none;stroke:red;stroke-width:1px;stroke-linecap:butt;stroke-linejoin:miter;stroke-opacity:1" d="M 978.126,468.721 981.701,486.595 z" id="boundary" inkscape:connector-curvature="0" />
	<path style="fill:none;stroke:red;stroke-width:1px;stroke-linecap:butt;stroke-linejoin:miter;stroke-opacity:1" d="M 978.126,468.721 978.126,450.847 z" id="boundary" inkscape:connector-curvature="0" />
	<path style="fill:none;stroke:red;stroke-width:1px;stroke-linecap:butt;stroke-linejoin:miter;stroke-opacity:1" d="M 926.292,491.957 944.166,491.957 z" id="boundary" inkscape:connector-curvature="0" />
	<path style="fill:none;stroke:red;stroke-width:1px;stroke-linecap:butt;stroke-linejoin:miter;stroke-opacity:1" d="M 962.04,497.319 944.166,491.957 z" id="boundary" inkscape:connector-curvature="0" />
	<path style="fill:none;stroke:red;stroke-width:1px;stroke-linecap:butt;stroke-linejoin:miter;stroke-opacity:1" d="M 908.418,491.957 926.292,491.957 z" id="boundary" inkscape:connector-curvature="0" />
	<path style="fill:none;stroke:red;stroke-width:1px;stroke-linecap:butt;stroke-linejoin:miter;stroke-opacity:1" d="M 981.701,486.595 988.85,504.468 z" id="boundary" inkscape:connector-curvature="0" />
	<path style="fill:none;stroke:red;stroke-width:1px;stroke-linecap:butt;stroke-linejoin:miter;stroke-opacity:1" d="M 962.04,497.319 965.614,515.193 z" id="boundary" inkscape:connector-curvature="0" />
	<path style="fill:none;stroke:red;stroke-width:1px;stroke-linecap:butt;stroke-linejoin:miter;stroke-opacity:1" d="M 890.544,499.106 872.67,506.256 z" id="boundary" inkscape:connector-curvature="0" />
	<path style="fill:none;stroke:red;stroke-width:1px;stroke-linecap:butt;stroke-linejoin:miter;stroke-opacity:1" d="M 872.67,506.256 854.796,499.106 z" id="boundary" inkscape:connector-curvature="0" />
	<path style="fill:none;stroke:red;stroke-width:1px;stroke-linecap:butt;stroke-linejoin:miter;stroke-opacity:1" d="M 752.915,511.618 769.002,502.681 z" id="boundary" inkscape:connector-curvature="0" />
	<path style="fill:none;stroke:red;stroke-width:1px;stroke-linecap:butt;stroke-linejoin:miter;stroke-opacity:1" d="M 752.915,511.618 735.041,516.98 z" id="boundary" inkscape:connector-curvature="0" />
	<path style="fill:none;stroke:red;stroke-width:1px;stroke-linecap:butt;stroke-linejoin:miter;stroke-opacity:1" d="M 965.614,515.193 988.85,504.468 z" id="boundary" inkscape:connector-curvature="0" />
	<path style="fill:none;stroke:red;stroke-width:1px;stroke-linecap:butt;stroke-linejoin:miter;stroke-opacity:1" d="M 983.488,531.279 965.614,515.193 z" id="boundary" inkscape:connector-curvature="0" />
	<path style="fill:none;stroke:red;stroke-width:1px;stroke-linecap:butt;stroke-linejoin:miter;stroke-opacity:1" d="M 965.614,515.193 962.04,533.067 z" id="boundary" inkscape:connector-curvature="0" />
	<path style="fill:none;stroke:red;stroke-width:1px;stroke-linecap:butt;stroke-linejoin:miter;stroke-opacity:1" d="M 988.85,504.468 983.488,552.728 z" id="boundary" inkscape:connector-curvature="0" />
	<path style="fill:none;stroke:red;stroke-width:1px;stroke-linecap:butt;stroke-linejoin:miter;stroke-opacity:1" d="M 983.488,552.728 983.488,531.279 z" id="boundary" inkscape:connector-curvature="0" />
	<path style="fill:none;stroke:red;stroke-width:1px;stroke-linecap:butt;stroke-linejoin:miter;stroke-opacity:1" d="M 965.614,550.941 962.04,533.067 z" id="boundary" inkscape:connector-curvature="0" />
	<path style="fill:none;stroke:red;stroke-width:1px;stroke-linecap:butt;stroke-linejoin:miter;stroke-opacity:1" d="M 983.488,552.728 965.614,550.941 z" id="boundary" inkscape:connector-curvature="0" />
	<circle cx="4" cy="136.267" r="4" fill="#0" id="circle0"/>
	<circle cx="4" cy="154.141" r="4" fill="#0" id="circle1"/>
	<circle cx="4" cy="368.627" r="4" fill="#0" id="circle2"/>
	<circle cx="4" cy="386.501" r="4" fill="#0" id="circle3"/>
	<circle cx="4" cy="404.375" r="4" fill="#0" id="circle4"/>
	<circle cx="4" cy="422.249" r="4" fill="#0" id="circle5"/>
	<circle cx="4" cy="440.123" r="4" fill="#0" id="circle6"/>
	<circle cx="4" cy="457.996" r="4" fill="#0" id="circle7"/>
	<circle cx="4" cy="475.87" r="4" fill="#0" id="circle8"/>
	<circle cx="7.57477" cy="336.454" r="4" fill="#0" id="circle9"/>
	<circle cx="7.57477" cy="493.744" r="4" fill="#0" id="circle10"/>
	<circle cx="7.57477" cy="511.618" r="4" fill="#0" id="circle11"/>
	<circle cx="7.57477" cy="529.492" r="4" fill="#0" id="circle12"/>
	<circle cx="11.1495" cy="172.014" r="4" fill="#0" id="circle13"/>
	<circle cx="11.1495" cy="307.856" r="4" fill="#0" id="circle14"/>
	<circle cx="11.1495" cy="547.366" r="4" fill="#0" id="circle15"/>
	<circle cx="14.7243" cy="121.968" r="4" fill="#0" id="circle16"/>
	<circle cx="14.7243" cy="189.888" r="4" fill="#0" id="circle17"/>
	<circle cx="14.7243" cy="207.762" r="4" fill="#0" id="circle18"/>
	<circle cx="14.7243" cy="225.636" r="4" fill="#0" id="circle19"/>
	<circle cx="14.7243" cy="268.533" r="4" fill="#0" id="circle20"/>
	<circle cx="14.7243" cy="286.407" r="4" fill="#0" id="circle21"/>
	<circle cx="18.2991" cy="243.51" r="4" fill="#0" id="circle22"/>
	<circle cx="29.0234" cy="111.243" r="4" fill="#0" id="circle23"/>
	<circle cx="29.0234" cy="552.728" r="4" fill="#0" id="circle24"/>
	<circle cx="30.8108" cy="525.917" r="4" fill="#0" id="circle25"/>
	<circle cx="34.3856" cy="483.02" r="4" fill="#0" id="circle26"/>
	<circle cx="34.3856" cy="500.894" r="4" fill="#0" id="circle27"/>
	<circle cx="46.8973" cy="104.094" r="4" fill="#0" id="circle28"/>
	<circle cx="52.2595" cy="481.232" r="4" fill="#0" id="circle29"/>
	<circle cx="64.7712" cy="96.9441" r="4" fill="#0" id="circle30"/>
	<circle cx="70.1333" cy="481.232" r="4" fill="#0" id="circle31"/>
	<circle cx="82.645" cy="93.3694" r="4" fill="#0" id="circle32"/>
	<circle cx="88.0072" cy="481.232" r="4" fill="#0" id="circle33"/>
	<circle cx="100.519" cy="86.2198" r="4" fill="#0" id="circle34"/>
	<circle cx="105.881" cy="481.232" r="4" fill="#0" id="circle35"/>
	<circle cx="118.393" cy="82.645" r="4" fill="#0" id="circle36"/>
	<circle cx="123.755" cy="481.232" r="4" fill="#0" id="circle37"/>
	<circle cx="136.267" cy="79.0703" r="4" fill="#0" id="circle38"/>
	<circle cx="141.629" cy="481.232" r="4" fill="#0" id="circle39"/>
	<circle cx="154.141" cy="75.4955" r="4" fill="#0" id="circle40"/>
	<circle cx="159.503" cy="481.232" r="4" fill="#0" id="circle41"/>
	<circle cx="172.014" cy="68.3459" r="4" fill="#0" id="circle42"/>
	<circle cx="177.377" cy="481.232" r="4" fill="#0" id="circle43"/>
	<circle cx="189.888" cy="57.6216" r="4" fill="#0" id="circle44"/>
	<circle cx="195.25" cy="481.232" r="4" fill="#0" id="circle45"/>
	<circle cx="204.187" cy="46.8973" r="4" fill="#0" id="circle46"/>
	<circle cx="213.124" cy="481.232" r="4" fill="#0" id="circle47"/>
	<circle cx="222.061" cy="43.3225" r="4" fill="#0" id="circle48"/>
	<circle cx="230.998" cy="481.232" r="4" fill="#0" id="circle49"/>
	<circle cx="238.148" cy="34.3856" r="4" fill="#0" id="circle50"/>
	<circle cx="248.872" cy="20.0865" r="4" fill="#0" id="circle51"/>
	<circle cx="248.872" cy="481.232" r="4" fill="#0" id="circle52"/>
	<circle cx="263.171" cy="5.78739" r="4" fill="#0" id="circle53"/>
	<circle cx="266.746" cy="481.232" r="4" fill="#0" id="circle54"/>
	<circle cx="281.045" cy="4" r="4" fill="#0" id="circle55"/>
	<circle cx="284.62" cy="481.232" r="4" fill="#0" id="circle56"/>
	<circle cx="293.557" cy="18.2991" r="4" fill="#0" id="circle57"/>
	<circle cx="302.494" cy="481.232" r="4" fill="#0" id="circle58"/>
	<circle cx="306.068" cy="32.5982" r="4" fill="#0" id="circle59"/>
	<circle cx="320.368" cy="481.232" r="4" fill="#0" id="circle60"/>
	<circle cx="323.942" cy="39.7477" r="4" fill="#0" id="circle61"/>
	<circle cx="338.241" cy="481.232" r="4" fill="#0" id="circle62"/>
	<circle cx="341.816" cy="46.8973" r="4" fill="#0" id="circle63"/>
	<circle cx="356.115" cy="57.6216" r="4" fill="#0" id="circle64"/>
	<circle cx="356.115" cy="481.232" r="4" fill="#0" id="circle65"/>
	<circle cx="370.414" cy="68.3459" r="4" fill="#0" id="circle66"/>
	<circle cx="373.989" cy="481.232" r="4" fill="#0" id="circle67"/>
	<circle cx="388.288" cy="71.9207" r="4" fill="#0" id="circle68"/>
	<circle cx="391.863" cy="481.232" r="4" fill="#0" id="circle69"/>
	<circle cx="397.225" cy="499.106" r="4" fill="#0" id="circle70"/>
	<circle cx="397.225" cy="516.98" r="4" fill="#0" id="circle71"/>
	<circle cx="400.8" cy="534.854" r="4" fill="#0" id="circle72"/>
	<circle cx="400.8" cy="552.728" r="4" fill="#0" id="circle73"/>
	<circle cx="406.162" cy="75.4955" r="4" fill="#0" id="circle74"/>
	<circle cx="418.674" cy="552.728" r="4" fill="#0" id="circle75"/>
	<circle cx="424.036" cy="82.645" r="4" fill="#0" id="circle76"/>
	<circle cx="424.036" cy="533.067" r="4" fill="#0" id="circle77"/>
	<circle cx="427.611" cy="511.618" r="4" fill="#0" id="circle78"/>
	<circle cx="431.186" cy="493.744" r="4" fill="#0" id="circle79"/>
	<circle cx="441.91" cy="86.2198" r="4" fill="#0" id="circle80"/>
	<circle cx="449.059" cy="491.957" r="4" fill="#0" id="circle81"/>
	<circle cx="459.784" cy="93.3694" r="4" fill="#0" id="circle82"/>
	<circle cx="466.933" cy="491.957" r="4" fill="#0" id="circle83"/>
	<circle cx="477.658" cy="96.9441" r="4" fill="#0" id="circle84"/>
	<circle cx="484.807" cy="495.532" r="4" fill="#0" id="circle85"/>
	<circle cx="495.532" cy="104.094" r="4" fill="#0" id="circle86"/>
	<circle cx="502.681" cy="502.681" r="4" fill="#0" id="circle87"/>
	<circle cx="513.405" cy="111.243" r="4" fill="#0" id="circle88"/>
	<circle cx="515.193" cy="516.98" r="4" fill="#0" id="circle89"/>
	<circle cx="515.193" cy="534.854" r="4" fill="#0" id="circle90"/>
	<circle cx="518.768" cy="552.728" r="4" fill="#0" id="circle91"/>
	<circle cx="522.342" cy="213.124" r="4" fill="#0" id="circle92"/>
	<circle cx="524.13" cy="179.164" r="4" fill="#0" id="circle93"/>
	<circle cx="524.13" cy="230.998" r="4" fill="#0" id="circle94"/>
	<circle cx="529.492" cy="120.18" r="4" fill="#0" id="circle95"/>
	<circle cx="534.854" cy="525.917" r="4" fill="#0" id="circle96"/>
	<circle cx="536.641" cy="549.153" r="4" fill="#0" id="circle97"/>
	<circle cx="538.429" cy="164.865" r="4" fill="#0" id="circle98"/>
	<circle cx="538.429" cy="490.169" r="4" fill="#0" id="circle99"/>
	<circle cx="538.429" cy="508.043" r="4" fill="#0" id="circle100"/>
	<circle cx="542.004" cy="134.479" r="4" fill="#0" id="circle101"/>
	<circle cx="542.004" cy="236.36" r="4" fill="#0" id="circle102"/>
	<circle cx="556.303" cy="247.085" r="4" fill="#0" id="circle103"/>
	<circle cx="556.303" cy="484.807" r="4" fill="#0" id="circle104"/>
	<circle cx="567.027" cy="261.384" r="4" fill="#0" id="circle105"/>
	<circle cx="574.177" cy="488.382" r="4" fill="#0" id="circle106"/>
	<circle cx="581.326" cy="272.108" r="4" fill="#0" id="circle107"/>
	<circle cx="592.05" cy="495.532" r="4" fill="#0" id="circle108"/>
	<circle cx="595.625" cy="282.832" r="4" fill="#0" id="circle109"/>
	<circle cx="609.924" cy="502.681" r="4" fill="#0" id="circle110"/>
	<circle cx="613.499" cy="273.895" r="4" fill="#0" id="circle111"/>
	<circle cx="627.798" cy="509.831" r="4" fill="#0" id="circle112"/>
	<circle cx="631.373" cy="268.533" r="4" fill="#0" id="circle113"/>
	<circle cx="645.672" cy="516.98" r="4" fill="#0" id="circle114"/>
	<circle cx="647.459" cy="257.809" r="4" fill="#0" id="circle115"/>
	<circle cx="663.546" cy="524.13" r="4" fill="#0" id="circle116"/>
	<circle cx="665.333" cy="250.659" r="4" fill="#0" id="circle117"/>
	<circle cx="681.42" cy="241.723" r="4" fill="#0" id="circle118"/>
	<circle cx="681.42" cy="524.13" r="4" fill="#0" id="circle119"/>
	<circle cx="699.294" cy="243.51" r="4" fill="#0" id="circle120"/>
	<circle cx="699.294" cy="524.13" r="4" fill="#0" id="circle121"/>
	<circle cx="717.168" cy="250.659" r="4" fill="#0" id="circle122"/>
	<circle cx="717.168" cy="522.342" r="4" fill="#0" id="circle123"/>
	<circle cx="735.041" cy="257.809" r="4" fill="#0" id="circle124"/>
	<circle cx="735.041" cy="516.98" r="4" fill="#0" id="circle125"/>
	<circle cx="749.341" cy="268.533" r="4" fill="#0" id="circle126"/>
	<circle cx="752.915" cy="511.618" r="4" fill="#0" id="circle127"/>
	<circle cx="767.214" cy="272.108" r="4" fill="#0" id="circle128"/>
	<circle cx="769.002" cy="502.681" r="4" fill="#0" id="circle129"/>
	<circle cx="781.514" cy="282.832" r="4" fill="#0" id="circle130"/>
	<circle cx="786.876" cy="495.532" r="4" fill="#0" id="circle131"/>
	<circle cx="799.387" cy="284.62" r="4" fill="#0" id="circle132"/>
	<circle cx="804.75" cy="491.957" r="4" fill="#0" id="circle133"/>
	<circle cx="817.261" cy="286.407" r="4" fill="#0" id="circle134"/>
	<circle cx="822.623" cy="484.807" r="4" fill="#0" id="circle135"/>
	<circle cx="835.135" cy="289.982" r="4" fill="#0" id="circle136"/>
	<circle cx="840.497" cy="488.382" r="4" fill="#0" id="circle137"/>
	<circle cx="853.009" cy="291.769" r="4" fill="#0" id="circle138"/>
	<circle cx="854.796" cy="499.106" r="4" fill="#0" id="circle139"/>
	<circle cx="870.883" cy="293.557" r="4" fill="#0" id="circle140"/>
	<circle cx="872.67" cy="506.256" r="4" fill="#0" id="circle141"/>
	<circle cx="888.757" cy="297.132" r="4" fill="#0" id="circle142"/>
	<circle cx="890.544" cy="499.106" r="4" fill="#0" id="circle143"/>
	<circle cx="906.631" cy="297.132" r="4" fill="#0" id="circle144"/>
	<circle cx="908.418" cy="491.957" r="4" fill="#0" id="circle145"/>
	<circle cx="924.505" cy="304.281" r="4" fill="#0" id="circle146"/>
	<circle cx="926.292" cy="491.957" r="4" fill="#0" id="circle147"/>
	<circle cx="942.378" cy="307.856" r="4" fill="#0" id="circle148"/>
	<circle cx="944.166" cy="491.957" r="4" fill="#0" id="circle149"/>
	<circle cx="960.252" cy="315.005" r="4" fill="#0" id="circle150"/>
	<circle cx="962.04" cy="497.319" r="4" fill="#0" id="circle151"/>
	<circle cx="962.04" cy="533.067" r="4" fill="#0" id="circle152"/>
	<circle cx="965.614" cy="515.193" r="4" fill="#0" id="circle153"/>
	<circle cx="965.614" cy="550.941" r="4" fill="#0" id="circle154"/>
	<circle cx="976.339" cy="323.942" r="4" fill="#0" id="circle155"/>
	<circle cx="978.126" cy="415.099" r="4" fill="#0" id="circle156"/>
	<circle cx="978.126" cy="432.973" r="4" fill="#0" id="circle157"/>
	<circle cx="978.126" cy="450.847" r="4" fill="#0" id="circle158"/>
	<circle cx="978.126" cy="468.721" r="4" fill="#0" id="circle159"/>
	<circle cx="981.701" cy="382.926" r="4" fill="#0" id="circle160"/>
	<circle cx="981.701" cy="486.595" r="4" fill="#0" id="circle161"/>
	<circle cx="983.488" cy="531.279" r="4" fill="#0" id="circle162"/>
	<circle cx="983.488" cy="552.728" r="4" fill="#0" id="circle163"/>
	<circle cx="988.85" cy="504.468" r="4" fill="#0" id="circle164"/>
	<circle cx="990.638" cy="334.667" r="4" fill="#0" id="circle165"/>
	<circle cx="996" cy="365.052" r="4" fill="#0" id="circle166"/>
	</g>
</svg>