<?xml version="1.0" encoding="UTF-8" standalone="no"?>
<!-- Created with CurveBenchmark -->
<svg
	xmlns:dc="http://purl.org/dc/elements/1.1/"
	xmlns:cc="http://creativecommons.org/ns#"
	xmlns:rdf="http://www.w3.org/1999/02/22-rdf-syntax-ns#"
	xmlns:svg="http://www.w3.org/2000/svg"
	xmlns="http://www.w3.org/2000/svg"
	xmlns:sodipodi="http://sodipodi.sourceforge.net/DTD/sodipodi-0.dtd"
	xmlns:inkscape="http://www.inkscape.org/namespaces/inkscape"
	width="1000"
	height="1000"
	id="svg2"
	version="1.1"
	sodipodi:docname="manifold/nncrust-spoon-13.png.txt">
<defs
	id="defs4" />
<metadata
	id="metadata7">
	<rdf:RDF>
		<cc:Work
			rdf:about="">
			<dc:format>image/svg+xml</dc:format>
			<dc:type
				rdf:resource="http://purl.org/dc/dcmitype/StillImage" />
			<dc:title></dc:title>
		</cc:Work>
	</rdf:RDF>
</metadata>
<g
	inkscape:label="Layer 1"
	inkscape:groupmode="layer"
	id="layer1">
	<path style="fill:none;stroke:red;stroke-width:1px;stroke-linecap:butt;stroke-linejoin:miter;stroke-opacity:1" d="M 64.5934,119.127 64.5934,127.784 z" id="boundary" inkscape:connector-curvature="0" />
	<path style="fill:none;stroke:red;stroke-width:1px;stroke-linecap:butt;stroke-linejoin:miter;stroke-opacity:1" d="M 64.5934,119.127 68.9215,110.471 z" id="boundary" inkscape:connector-curvature="0" />
	<path style="fill:none;stroke:red;stroke-width:1px;stroke-linecap:butt;stroke-linejoin:miter;stroke-opacity:1" d="M 64.5934,136.44 64.5934,145.096 z" id="boundary" inkscape:connector-curvature="0" />
	<path style="fill:none;stroke:red;stroke-width:1px;stroke-linecap:butt;stroke-linejoin:miter;stroke-opacity:1" d="M 64.5934,136.44 64.5934,127.784 z" id="boundary" inkscape:connector-curvature="0" />
	<path style="fill:none;stroke:red;stroke-width:1px;stroke-linecap:butt;stroke-linejoin:miter;stroke-opacity:1" d="M 64.5934,153.752 64.5934,162.408 z" id="boundary" inkscape:connector-curvature="0" />
	<path style="fill:none;stroke:red;stroke-width:1px;stroke-linecap:butt;stroke-linejoin:miter;stroke-opacity:1" d="M 64.5934,171.065 64.5934,162.408 z" id="boundary" inkscape:connector-curvature="0" />
	<path style="fill:none;stroke:red;stroke-width:1px;stroke-linecap:butt;stroke-linejoin:miter;stroke-opacity:1" d="M 64.5934,171.065 64.5934,179.721 z" id="boundary" inkscape:connector-curvature="0" />
	<path style="fill:none;stroke:red;stroke-width:1px;stroke-linecap:butt;stroke-linejoin:miter;stroke-opacity:1" d="M 64.5934,153.752 64.5934,145.096 z" id="boundary" inkscape:connector-curvature="0" />
	<path style="fill:none;stroke:red;stroke-width:1px;stroke-linecap:butt;stroke-linejoin:miter;stroke-opacity:1" d="M 81.9058,67.1902 86.2339,58.534 z" id="boundary" inkscape:connector-curvature="0" />
	<path style="fill:none;stroke:red;stroke-width:1px;stroke-linecap:butt;stroke-linejoin:miter;stroke-opacity:1" d="M 86.2339,58.534 93.1588,51.6091 z" id="boundary" inkscape:connector-curvature="0" />
	<path style="fill:none;stroke:red;stroke-width:1px;stroke-linecap:butt;stroke-linejoin:miter;stroke-opacity:1" d="M 97.4869,42.9529 93.1588,51.6091 z" id="boundary" inkscape:connector-curvature="0" />
	<path style="fill:none;stroke:red;stroke-width:1px;stroke-linecap:butt;stroke-linejoin:miter;stroke-opacity:1" d="M 101.815,34.2967 97.4869,42.9529 z" id="boundary" inkscape:connector-curvature="0" />
	<path style="fill:none;stroke:red;stroke-width:1px;stroke-linecap:butt;stroke-linejoin:miter;stroke-opacity:1" d="M 77.5777,80.1745 81.9058,67.1902 z" id="boundary" inkscape:connector-curvature="0" />
	<path style="fill:none;stroke:red;stroke-width:1px;stroke-linecap:butt;stroke-linejoin:miter;stroke-opacity:1" d="M 68.9215,101.815 68.9215,110.471 z" id="boundary" inkscape:connector-curvature="0" />
	<path style="fill:none;stroke:red;stroke-width:1px;stroke-linecap:butt;stroke-linejoin:miter;stroke-opacity:1" d="M 68.9215,101.815 73.2496,93.1588 z" id="boundary" inkscape:connector-curvature="0" />
	<path style="fill:none;stroke:red;stroke-width:1px;stroke-linecap:butt;stroke-linejoin:miter;stroke-opacity:1" d="M 73.2496,93.1588 77.5777,80.1745 z" id="boundary" inkscape:connector-curvature="0" />
	<path style="fill:none;stroke:red;stroke-width:1px;stroke-linecap:butt;stroke-linejoin:miter;stroke-opacity:1" d="M 64.5934,188.377 68.9215,196.168 z" id="boundary" inkscape:connector-curvature="0" />
	<path style="fill:none;stroke:red;stroke-width:1px;stroke-linecap:butt;stroke-linejoin:miter;stroke-opacity:1" d="M 68.9215,196.168 68.9215,204.824 z" id="boundary" inkscape:connector-curvature="0" />
	<path style="fill:none;stroke:red;stroke-width:1px;stroke-linecap:butt;stroke-linejoin:miter;stroke-opacity:1" d="M 64.5934,188.377 64.5934,179.721 z" id="boundary" inkscape:connector-curvature="0" />
	<path style="fill:none;stroke:red;stroke-width:1px;stroke-linecap:butt;stroke-linejoin:miter;stroke-opacity:1" d="M 68.9215,204.824 68.9215,213.48 z" id="boundary" inkscape:connector-curvature="0" />
	<path style="fill:none;stroke:red;stroke-width:1px;stroke-linecap:butt;stroke-linejoin:miter;stroke-opacity:1" d="M 68.9215,213.48 68.9215,222.136 z" id="boundary" inkscape:connector-curvature="0" />
	<path style="fill:none;stroke:red;stroke-width:1px;stroke-linecap:butt;stroke-linejoin:miter;stroke-opacity:1" d="M 68.9215,222.136 68.9215,230.792 z" id="boundary" inkscape:connector-curvature="0" />
	<path style="fill:none;stroke:red;stroke-width:1px;stroke-linecap:butt;stroke-linejoin:miter;stroke-opacity:1" d="M 73.2496,238.583 68.9215,230.792 z" id="boundary" inkscape:connector-curvature="0" />
	<path style="fill:none;stroke:red;stroke-width:1px;stroke-linecap:butt;stroke-linejoin:miter;stroke-opacity:1" d="M 73.2496,238.583 73.2496,247.239 z" id="boundary" inkscape:connector-curvature="0" />
	<path style="fill:none;stroke:red;stroke-width:1px;stroke-linecap:butt;stroke-linejoin:miter;stroke-opacity:1" d="M 75.8464,255.895 73.2496,247.239 z" id="boundary" inkscape:connector-curvature="0" />
	<path style="fill:none;stroke:red;stroke-width:1px;stroke-linecap:butt;stroke-linejoin:miter;stroke-opacity:1" d="M 75.8464,255.895 80.1745,263.686 z" id="boundary" inkscape:connector-curvature="0" />
	<path style="fill:none;stroke:red;stroke-width:1px;stroke-linecap:butt;stroke-linejoin:miter;stroke-opacity:1" d="M 80.1745,263.686 83.637,272.342 z" id="boundary" inkscape:connector-curvature="0" />
	<path style="fill:none;stroke:red;stroke-width:1px;stroke-linecap:butt;stroke-linejoin:miter;stroke-opacity:1" d="M 94.8901,286.192 87.9651,280.133 z" id="boundary" inkscape:connector-curvature="0" />
	<path style="fill:none;stroke:red;stroke-width:1px;stroke-linecap:butt;stroke-linejoin:miter;stroke-opacity:1" d="M 87.9651,280.133 83.637,272.342 z" id="boundary" inkscape:connector-curvature="0" />
	<path style="fill:none;stroke:red;stroke-width:1px;stroke-linecap:butt;stroke-linejoin:miter;stroke-opacity:1" d="M 74.1152,503.462 82.7714,499.134 z" id="boundary" inkscape:connector-curvature="0" />
	<path style="fill:none;stroke:red;stroke-width:1px;stroke-linecap:butt;stroke-linejoin:miter;stroke-opacity:1" d="M 68.0558,510.387 74.1152,503.462 z" id="boundary" inkscape:connector-curvature="0" />
	<path style="fill:none;stroke:red;stroke-width:1px;stroke-linecap:butt;stroke-linejoin:miter;stroke-opacity:1" d="M 94.8901,286.192 99.2182,293.983 z" id="boundary" inkscape:connector-curvature="0" />
	<path style="fill:none;stroke:red;stroke-width:1px;stroke-linecap:butt;stroke-linejoin:miter;stroke-opacity:1" d="M 98.3525,488.747 91.4276,494.806 z" id="boundary" inkscape:connector-curvature="0" />
	<path style="fill:none;stroke:red;stroke-width:1px;stroke-linecap:butt;stroke-linejoin:miter;stroke-opacity:1" d="M 91.4276,494.806 82.7714,499.134 z" id="boundary" inkscape:connector-curvature="0" />
	<path style="fill:none;stroke:red;stroke-width:1px;stroke-linecap:butt;stroke-linejoin:miter;stroke-opacity:1" d="M 101.815,34.2967 108.74,27.3717 z" id="boundary" inkscape:connector-curvature="0" />
	<path style="fill:none;stroke:red;stroke-width:1px;stroke-linecap:butt;stroke-linejoin:miter;stroke-opacity:1" d="M 103.546,301.773 99.2182,293.983 z" id="boundary" inkscape:connector-curvature="0" />
	<path style="fill:none;stroke:red;stroke-width:1px;stroke-linecap:butt;stroke-linejoin:miter;stroke-opacity:1" d="M 103.546,301.773 103.546,310.429 z" id="boundary" inkscape:connector-curvature="0" />
	<path style="fill:none;stroke:red;stroke-width:1px;stroke-linecap:butt;stroke-linejoin:miter;stroke-opacity:1" d="M 103.546,310.429 107.874,318.22 z" id="boundary" inkscape:connector-curvature="0" />
	<path style="fill:none;stroke:red;stroke-width:1px;stroke-linecap:butt;stroke-linejoin:miter;stroke-opacity:1" d="M 107.874,318.22 107.874,326.876 z" id="boundary" inkscape:connector-curvature="0" />
	<path style="fill:none;stroke:red;stroke-width:1px;stroke-linecap:butt;stroke-linejoin:miter;stroke-opacity:1" d="M 107.874,326.876 112.202,334.667 z" id="boundary" inkscape:connector-curvature="0" />
	<path style="fill:none;stroke:red;stroke-width:1px;stroke-linecap:butt;stroke-linejoin:miter;stroke-opacity:1" d="M 112.202,334.667 112.202,343.323 z" id="boundary" inkscape:connector-curvature="0" />
	<path style="fill:none;stroke:red;stroke-width:1px;stroke-linecap:butt;stroke-linejoin:miter;stroke-opacity:1" d="M 139.037,8.3281 146.827,4 z" id="boundary" inkscape:connector-curvature="0" />
	<path style="fill:none;stroke:red;stroke-width:1px;stroke-linecap:butt;stroke-linejoin:miter;stroke-opacity:1" d="M 146.827,4 155.483,4 z" id="boundary" inkscape:connector-curvature="0" />
	<path style="fill:none;stroke:red;stroke-width:1px;stroke-linecap:butt;stroke-linejoin:miter;stroke-opacity:1" d="M 131.246,12.6562 139.037,8.3281 z" id="boundary" inkscape:connector-curvature="0" />
	<path style="fill:none;stroke:red;stroke-width:1px;stroke-linecap:butt;stroke-linejoin:miter;stroke-opacity:1" d="M 108.74,27.3717 115.665,21.3124 z" id="boundary" inkscape:connector-curvature="0" />
	<path style="fill:none;stroke:red;stroke-width:1px;stroke-linecap:butt;stroke-linejoin:miter;stroke-opacity:1" d="M 115.665,21.3124 123.455,16.9843 z" id="boundary" inkscape:connector-curvature="0" />
	<path style="fill:none;stroke:red;stroke-width:1px;stroke-linecap:butt;stroke-linejoin:miter;stroke-opacity:1" d="M 123.455,16.9843 131.246,12.6562 z" id="boundary" inkscape:connector-curvature="0" />
	<path style="fill:none;stroke:red;stroke-width:1px;stroke-linecap:butt;stroke-linejoin:miter;stroke-opacity:1" d="M 112.202,351.979 112.202,343.323 z" id="boundary" inkscape:connector-curvature="0" />
	<path style="fill:none;stroke:red;stroke-width:1px;stroke-linecap:butt;stroke-linejoin:miter;stroke-opacity:1" d="M 112.202,360.635 112.202,369.291 z" id="boundary" inkscape:connector-curvature="0" />
	<path style="fill:none;stroke:red;stroke-width:1px;stroke-linecap:butt;stroke-linejoin:miter;stroke-opacity:1" d="M 112.202,360.635 112.202,351.979 z" id="boundary" inkscape:connector-curvature="0" />
	<path style="fill:none;stroke:red;stroke-width:1px;stroke-linecap:butt;stroke-linejoin:miter;stroke-opacity:1" d="M 112.202,377.948 112.202,386.604 z" id="boundary" inkscape:connector-curvature="0" />
	<path style="fill:none;stroke:red;stroke-width:1px;stroke-linecap:butt;stroke-linejoin:miter;stroke-opacity:1" d="M 112.202,377.948 112.202,369.291 z" id="boundary" inkscape:connector-curvature="0" />
	<path style="fill:none;stroke:red;stroke-width:1px;stroke-linecap:butt;stroke-linejoin:miter;stroke-opacity:1" d="M 98.3525,488.747 106.143,484.419 z" id="boundary" inkscape:connector-curvature="0" />
	<path style="fill:none;stroke:red;stroke-width:1px;stroke-linecap:butt;stroke-linejoin:miter;stroke-opacity:1" d="M 107.874,469.703 106.143,484.419 z" id="boundary" inkscape:connector-curvature="0" />
	<path style="fill:none;stroke:red;stroke-width:1px;stroke-linecap:butt;stroke-linejoin:miter;stroke-opacity:1" d="M 107.874,461.047 107.874,469.703 z" id="boundary" inkscape:connector-curvature="0" />
	<path style="fill:none;stroke:red;stroke-width:1px;stroke-linecap:butt;stroke-linejoin:miter;stroke-opacity:1" d="M 107.874,461.047 112.202,447.197 z" id="boundary" inkscape:connector-curvature="0" />
	<path style="fill:none;stroke:red;stroke-width:1px;stroke-linecap:butt;stroke-linejoin:miter;stroke-opacity:1" d="M 112.202,386.604 112.202,395.26 z" id="boundary" inkscape:connector-curvature="0" />
	<path style="fill:none;stroke:red;stroke-width:1px;stroke-linecap:butt;stroke-linejoin:miter;stroke-opacity:1" d="M 112.202,395.26 112.202,403.916 z" id="boundary" inkscape:connector-curvature="0" />
	<path style="fill:none;stroke:red;stroke-width:1px;stroke-linecap:butt;stroke-linejoin:miter;stroke-opacity:1" d="M 112.202,412.572 112.202,421.229 z" id="boundary" inkscape:connector-curvature="0" />
	<path style="fill:none;stroke:red;stroke-width:1px;stroke-linecap:butt;stroke-linejoin:miter;stroke-opacity:1" d="M 112.202,412.572 112.202,403.916 z" id="boundary" inkscape:connector-curvature="0" />
	<path style="fill:none;stroke:red;stroke-width:1px;stroke-linecap:butt;stroke-linejoin:miter;stroke-opacity:1" d="M 112.202,429.885 112.202,438.541 z" id="boundary" inkscape:connector-curvature="0" />
	<path style="fill:none;stroke:red;stroke-width:1px;stroke-linecap:butt;stroke-linejoin:miter;stroke-opacity:1" d="M 112.202,429.885 112.202,421.229 z" id="boundary" inkscape:connector-curvature="0" />
	<path style="fill:none;stroke:red;stroke-width:1px;stroke-linecap:butt;stroke-linejoin:miter;stroke-opacity:1" d="M 112.202,438.541 112.202,447.197 z" id="boundary" inkscape:connector-curvature="0" />
	<path style="fill:none;stroke:red;stroke-width:1px;stroke-linecap:butt;stroke-linejoin:miter;stroke-opacity:1" d="M 4,686.108 4,677.452 z" id="boundary" inkscape:connector-curvature="0" />
	<path style="fill:none;stroke:red;stroke-width:1px;stroke-linecap:butt;stroke-linejoin:miter;stroke-opacity:1" d="M 4,677.452 8.3281,668.796 z" id="boundary" inkscape:connector-curvature="0" />
	<path style="fill:none;stroke:red;stroke-width:1px;stroke-linecap:butt;stroke-linejoin:miter;stroke-opacity:1" d="M 4,703.421 4,694.764 z" id="boundary" inkscape:connector-curvature="0" />
	<path style="fill:none;stroke:red;stroke-width:1px;stroke-linecap:butt;stroke-linejoin:miter;stroke-opacity:1" d="M 4,694.764 4,686.108 z" id="boundary" inkscape:connector-curvature="0" />
	<path style="fill:none;stroke:red;stroke-width:1px;stroke-linecap:butt;stroke-linejoin:miter;stroke-opacity:1" d="M 4,712.077 4,703.421 z" id="boundary" inkscape:connector-curvature="0" />
	<path style="fill:none;stroke:red;stroke-width:1px;stroke-linecap:butt;stroke-linejoin:miter;stroke-opacity:1" d="M 4,738.045 4,729.389 z" id="boundary" inkscape:connector-curvature="0" />
	<path style="fill:none;stroke:red;stroke-width:1px;stroke-linecap:butt;stroke-linejoin:miter;stroke-opacity:1" d="M 4,720.733 4,712.077 z" id="boundary" inkscape:connector-curvature="0" />
	<path style="fill:none;stroke:red;stroke-width:1px;stroke-linecap:butt;stroke-linejoin:miter;stroke-opacity:1" d="M 8.3281,634.171 8.3281,642.827 z" id="boundary" inkscape:connector-curvature="0" />
	<path style="fill:none;stroke:red;stroke-width:1px;stroke-linecap:butt;stroke-linejoin:miter;stroke-opacity:1" d="M 8.3281,634.171 12.6562,625.515 z" id="boundary" inkscape:connector-curvature="0" />
	<path style="fill:none;stroke:red;stroke-width:1px;stroke-linecap:butt;stroke-linejoin:miter;stroke-opacity:1" d="M 12.6562,625.515 12.6562,616.859 z" id="boundary" inkscape:connector-curvature="0" />
	<path style="fill:none;stroke:red;stroke-width:1px;stroke-linecap:butt;stroke-linejoin:miter;stroke-opacity:1" d="M 12.6562,616.859 16.9843,608.202 z" id="boundary" inkscape:connector-curvature="0" />
	<path style="fill:none;stroke:red;stroke-width:1px;stroke-linecap:butt;stroke-linejoin:miter;stroke-opacity:1" d="M 21.3124,595.218 16.9843,608.202 z" id="boundary" inkscape:connector-curvature="0" />
	<path style="fill:none;stroke:red;stroke-width:1px;stroke-linecap:butt;stroke-linejoin:miter;stroke-opacity:1" d="M 8.3281,642.827 8.3281,651.483 z" id="boundary" inkscape:connector-curvature="0" />
	<path style="fill:none;stroke:red;stroke-width:1px;stroke-linecap:butt;stroke-linejoin:miter;stroke-opacity:1" d="M 8.3281,660.14 8.3281,668.796 z" id="boundary" inkscape:connector-curvature="0" />
	<path style="fill:none;stroke:red;stroke-width:1px;stroke-linecap:butt;stroke-linejoin:miter;stroke-opacity:1" d="M 8.3281,660.14 8.3281,651.483 z" id="boundary" inkscape:connector-curvature="0" />
	<path style="fill:none;stroke:red;stroke-width:1px;stroke-linecap:butt;stroke-linejoin:miter;stroke-opacity:1" d="M 4,746.702 4,738.045 z" id="boundary" inkscape:connector-curvature="0" />
	<path style="fill:none;stroke:red;stroke-width:1px;stroke-linecap:butt;stroke-linejoin:miter;stroke-opacity:1" d="M 4,729.389 4,720.733 z" id="boundary" inkscape:connector-curvature="0" />
	<path style="fill:none;stroke:red;stroke-width:1px;stroke-linecap:butt;stroke-linejoin:miter;stroke-opacity:1" d="M 4,764.014 4,755.358 z" id="boundary" inkscape:connector-curvature="0" />
	<path style="fill:none;stroke:red;stroke-width:1px;stroke-linecap:butt;stroke-linejoin:miter;stroke-opacity:1" d="M 4,781.326 4,772.67 z" id="boundary" inkscape:connector-curvature="0" />
	<path style="fill:none;stroke:red;stroke-width:1px;stroke-linecap:butt;stroke-linejoin:miter;stroke-opacity:1" d="M 4,798.639 4,789.983 z" id="boundary" inkscape:connector-curvature="0" />
	<path style="fill:none;stroke:red;stroke-width:1px;stroke-linecap:butt;stroke-linejoin:miter;stroke-opacity:1" d="M 8.3281,806.429 4,798.639 z" id="boundary" inkscape:connector-curvature="0" />
	<path style="fill:none;stroke:red;stroke-width:1px;stroke-linecap:butt;stroke-linejoin:miter;stroke-opacity:1" d="M 4,789.983 4,781.326 z" id="boundary" inkscape:connector-curvature="0" />
	<path style="fill:none;stroke:red;stroke-width:1px;stroke-linecap:butt;stroke-linejoin:miter;stroke-opacity:1" d="M 4,772.67 4,764.014 z" id="boundary" inkscape:connector-curvature="0" />
	<path style="fill:none;stroke:red;stroke-width:1px;stroke-linecap:butt;stroke-linejoin:miter;stroke-opacity:1" d="M 8.3281,806.429 12.6562,814.22 z" id="boundary" inkscape:connector-curvature="0" />
	<path style="fill:none;stroke:red;stroke-width:1px;stroke-linecap:butt;stroke-linejoin:miter;stroke-opacity:1" d="M 12.6562,814.22 12.6562,822.876 z" id="boundary" inkscape:connector-curvature="0" />
	<path style="fill:none;stroke:red;stroke-width:1px;stroke-linecap:butt;stroke-linejoin:miter;stroke-opacity:1" d="M 12.6562,822.876 16.9843,830.667 z" id="boundary" inkscape:connector-curvature="0" />
	<path style="fill:none;stroke:red;stroke-width:1px;stroke-linecap:butt;stroke-linejoin:miter;stroke-opacity:1" d="M 16.9843,830.667 16.9843,839.323 z" id="boundary" inkscape:connector-curvature="0" />
	<path style="fill:none;stroke:red;stroke-width:1px;stroke-linecap:butt;stroke-linejoin:miter;stroke-opacity:1" d="M 16.9843,839.323 21.3124,847.113 z" id="boundary" inkscape:connector-curvature="0" />
	<path style="fill:none;stroke:red;stroke-width:1px;stroke-linecap:butt;stroke-linejoin:miter;stroke-opacity:1" d="M 21.3124,847.113 21.3124,855.77 z" id="boundary" inkscape:connector-curvature="0" />
	<path style="fill:none;stroke:red;stroke-width:1px;stroke-linecap:butt;stroke-linejoin:miter;stroke-opacity:1" d="M 21.3124,855.77 22.178,864.426 z" id="boundary" inkscape:connector-curvature="0" />
	<path style="fill:none;stroke:red;stroke-width:1px;stroke-linecap:butt;stroke-linejoin:miter;stroke-opacity:1" d="M 26.5061,872.216 22.178,864.426 z" id="boundary" inkscape:connector-curvature="0" />
	<path style="fill:none;stroke:red;stroke-width:1px;stroke-linecap:butt;stroke-linejoin:miter;stroke-opacity:1" d="M 4,755.358 4,746.702 z" id="boundary" inkscape:connector-curvature="0" />
	<path style="fill:none;stroke:red;stroke-width:1px;stroke-linecap:butt;stroke-linejoin:miter;stroke-opacity:1" d="M 21.3124,595.218 25.6405,586.562 z" id="boundary" inkscape:connector-curvature="0" />
	<path style="fill:none;stroke:red;stroke-width:1px;stroke-linecap:butt;stroke-linejoin:miter;stroke-opacity:1" d="M 25.6405,577.906 29.9686,569.25 z" id="boundary" inkscape:connector-curvature="0" />
	<path style="fill:none;stroke:red;stroke-width:1px;stroke-linecap:butt;stroke-linejoin:miter;stroke-opacity:1" d="M 25.6405,586.562 25.6405,577.906 z" id="boundary" inkscape:connector-curvature="0" />
	<path style="fill:none;stroke:red;stroke-width:1px;stroke-linecap:butt;stroke-linejoin:miter;stroke-opacity:1" d="M 34.2967,556.265 29.9686,569.25 z" id="boundary" inkscape:connector-curvature="0" />
	<path style="fill:none;stroke:red;stroke-width:1px;stroke-linecap:butt;stroke-linejoin:miter;stroke-opacity:1" d="M 38.6248,547.609 34.2967,556.265 z" id="boundary" inkscape:connector-curvature="0" />
	<path style="fill:none;stroke:red;stroke-width:1px;stroke-linecap:butt;stroke-linejoin:miter;stroke-opacity:1" d="M 38.6248,896.454 34.2967,888.663 z" id="boundary" inkscape:connector-curvature="0" />
	<path style="fill:none;stroke:red;stroke-width:1px;stroke-linecap:butt;stroke-linejoin:miter;stroke-opacity:1" d="M 34.2967,888.663 29.9686,880.873 z" id="boundary" inkscape:connector-curvature="0" />
	<path style="fill:none;stroke:red;stroke-width:1px;stroke-linecap:butt;stroke-linejoin:miter;stroke-opacity:1" d="M 29.9686,880.873 26.5061,872.216 z" id="boundary" inkscape:connector-curvature="0" />
	<path style="fill:none;stroke:red;stroke-width:1px;stroke-linecap:butt;stroke-linejoin:miter;stroke-opacity:1" d="M 38.6248,547.609 45.5497,540.684 z" id="boundary" inkscape:connector-curvature="0" />
	<path style="fill:none;stroke:red;stroke-width:1px;stroke-linecap:butt;stroke-linejoin:miter;stroke-opacity:1" d="M 49.8778,532.028 56.8028,525.103 z" id="boundary" inkscape:connector-curvature="0" />
	<path style="fill:none;stroke:red;stroke-width:1px;stroke-linecap:butt;stroke-linejoin:miter;stroke-opacity:1" d="M 45.5497,540.684 49.8778,532.028 z" id="boundary" inkscape:connector-curvature="0" />
	<path style="fill:none;stroke:red;stroke-width:1px;stroke-linecap:butt;stroke-linejoin:miter;stroke-opacity:1" d="M 61.1309,516.447 56.8028,525.103 z" id="boundary" inkscape:connector-curvature="0" />
	<path style="fill:none;stroke:red;stroke-width:1px;stroke-linecap:butt;stroke-linejoin:miter;stroke-opacity:1" d="M 61.1309,516.447 68.0558,510.387 z" id="boundary" inkscape:connector-curvature="0" />
	<path style="fill:none;stroke:red;stroke-width:1px;stroke-linecap:butt;stroke-linejoin:miter;stroke-opacity:1" d="M 42.9529,904.244 38.6248,896.454 z" id="boundary" inkscape:connector-curvature="0" />
	<path style="fill:none;stroke:red;stroke-width:1px;stroke-linecap:butt;stroke-linejoin:miter;stroke-opacity:1" d="M 48.1466,911.169 42.9529,904.244 z" id="boundary" inkscape:connector-curvature="0" />
	<path style="fill:none;stroke:red;stroke-width:1px;stroke-linecap:butt;stroke-linejoin:miter;stroke-opacity:1" d="M 54.2059,918.094 61.1309,924.154 z" id="boundary" inkscape:connector-curvature="0" />
	<path style="fill:none;stroke:red;stroke-width:1px;stroke-linecap:butt;stroke-linejoin:miter;stroke-opacity:1" d="M 54.2059,918.094 48.1466,911.169 z" id="boundary" inkscape:connector-curvature="0" />
	<path style="fill:none;stroke:red;stroke-width:1px;stroke-linecap:butt;stroke-linejoin:miter;stroke-opacity:1" d="M 67.1902,931.079 71.5183,938.869 z" id="boundary" inkscape:connector-curvature="0" />
	<path style="fill:none;stroke:red;stroke-width:1px;stroke-linecap:butt;stroke-linejoin:miter;stroke-opacity:1" d="M 61.1309,924.154 67.1902,931.079 z" id="boundary" inkscape:connector-curvature="0" />
	<path style="fill:none;stroke:red;stroke-width:1px;stroke-linecap:butt;stroke-linejoin:miter;stroke-opacity:1" d="M 77.5777,945.794 71.5183,938.869 z" id="boundary" inkscape:connector-curvature="0" />
	<path style="fill:none;stroke:red;stroke-width:1px;stroke-linecap:butt;stroke-linejoin:miter;stroke-opacity:1" d="M 77.5777,945.794 81.9058,953.585 z" id="boundary" inkscape:connector-curvature="0" />
	<path style="fill:none;stroke:red;stroke-width:1px;stroke-linecap:butt;stroke-linejoin:miter;stroke-opacity:1" d="M 87.9651,960.51 81.9058,953.585 z" id="boundary" inkscape:connector-curvature="0" />
	<path style="fill:none;stroke:red;stroke-width:1px;stroke-linecap:butt;stroke-linejoin:miter;stroke-opacity:1" d="M 87.9651,960.51 94.8901,965.703 z" id="boundary" inkscape:connector-curvature="0" />
	<path style="fill:none;stroke:red;stroke-width:1px;stroke-linecap:butt;stroke-linejoin:miter;stroke-opacity:1" d="M 94.8901,965.703 100.084,972.628 z" id="boundary" inkscape:connector-curvature="0" />
	<path style="fill:none;stroke:red;stroke-width:1px;stroke-linecap:butt;stroke-linejoin:miter;stroke-opacity:1" d="M 107.009,978.688 100.084,972.628 z" id="boundary" inkscape:connector-curvature="0" />
	<path style="fill:none;stroke:red;stroke-width:1px;stroke-linecap:butt;stroke-linejoin:miter;stroke-opacity:1" d="M 114.799,983.016 107.009,978.688 z" id="boundary" inkscape:connector-curvature="0" />
	<path style="fill:none;stroke:red;stroke-width:1px;stroke-linecap:butt;stroke-linejoin:miter;stroke-opacity:1" d="M 114.799,983.016 123.455,986.478 z" id="boundary" inkscape:connector-curvature="0" />
	<path style="fill:none;stroke:red;stroke-width:1px;stroke-linecap:butt;stroke-linejoin:miter;stroke-opacity:1" d="M 123.455,986.478 131.246,990.806 z" id="boundary" inkscape:connector-curvature="0" />
	<path style="fill:none;stroke:red;stroke-width:1px;stroke-linecap:butt;stroke-linejoin:miter;stroke-opacity:1" d="M 131.246,990.806 139.902,991.672 z" id="boundary" inkscape:connector-curvature="0" />
	<path style="fill:none;stroke:red;stroke-width:1px;stroke-linecap:butt;stroke-linejoin:miter;stroke-opacity:1" d="M 139.902,991.672 148.558,994.269 z" id="boundary" inkscape:connector-curvature="0" />
	<path style="fill:none;stroke:red;stroke-width:1px;stroke-linecap:butt;stroke-linejoin:miter;stroke-opacity:1" d="M 165.871,996 157.215,996 z" id="boundary" inkscape:connector-curvature="0" />
	<path style="fill:none;stroke:red;stroke-width:1px;stroke-linecap:butt;stroke-linejoin:miter;stroke-opacity:1" d="M 157.215,996 148.558,994.269 z" id="boundary" inkscape:connector-curvature="0" />
	<path style="fill:none;stroke:red;stroke-width:1px;stroke-linecap:butt;stroke-linejoin:miter;stroke-opacity:1" d="M 155.483,4 164.14,4 z" id="boundary" inkscape:connector-curvature="0" />
	<path style="fill:none;stroke:red;stroke-width:1px;stroke-linecap:butt;stroke-linejoin:miter;stroke-opacity:1" d="M 164.14,4 172.796,5.73124 z" id="boundary" inkscape:connector-curvature="0" />
	<path style="fill:none;stroke:red;stroke-width:1px;stroke-linecap:butt;stroke-linejoin:miter;stroke-opacity:1" d="M 181.452,8.3281 172.796,5.73124 z" id="boundary" inkscape:connector-curvature="0" />
	<path style="fill:none;stroke:red;stroke-width:1px;stroke-linecap:butt;stroke-linejoin:miter;stroke-opacity:1" d="M 190.108,8.3281 181.452,8.3281 z" id="boundary" inkscape:connector-curvature="0" />
	<path style="fill:none;stroke:red;stroke-width:1px;stroke-linecap:butt;stroke-linejoin:miter;stroke-opacity:1" d="M 190.108,8.3281 197.899,12.6562 z" id="boundary" inkscape:connector-curvature="0" />
	<path style="fill:none;stroke:red;stroke-width:1px;stroke-linecap:butt;stroke-linejoin:miter;stroke-opacity:1" d="M 205.689,16.9843 211.749,23.9092 z" id="boundary" inkscape:connector-curvature="0" />
	<path style="fill:none;stroke:red;stroke-width:1px;stroke-linecap:butt;stroke-linejoin:miter;stroke-opacity:1" d="M 197.899,12.6562 205.689,16.9843 z" id="boundary" inkscape:connector-curvature="0" />
	<path style="fill:none;stroke:red;stroke-width:1px;stroke-linecap:butt;stroke-linejoin:miter;stroke-opacity:1" d="M 218.674,29.9686 211.749,23.9092 z" id="boundary" inkscape:connector-curvature="0" />
	<path style="fill:none;stroke:red;stroke-width:1px;stroke-linecap:butt;stroke-linejoin:miter;stroke-opacity:1" d="M 218.674,29.9686 224.733,36.8935 z" id="boundary" inkscape:connector-curvature="0" />
	<path style="fill:none;stroke:red;stroke-width:1px;stroke-linecap:butt;stroke-linejoin:miter;stroke-opacity:1" d="M 234.255,51.6091 229.927,43.8185 z" id="boundary" inkscape:connector-curvature="0" />
	<path style="fill:none;stroke:red;stroke-width:1px;stroke-linecap:butt;stroke-linejoin:miter;stroke-opacity:1" d="M 241.18,56.8028 234.255,51.6091 z" id="boundary" inkscape:connector-curvature="0" />
	<path style="fill:none;stroke:red;stroke-width:1px;stroke-linecap:butt;stroke-linejoin:miter;stroke-opacity:1" d="M 238.583,277.536 238.583,286.192 z" id="boundary" inkscape:connector-curvature="0" />
	<path style="fill:none;stroke:red;stroke-width:1px;stroke-linecap:butt;stroke-linejoin:miter;stroke-opacity:1" d="M 238.583,277.536 242.911,268.88 z" id="boundary" inkscape:connector-curvature="0" />
	<path style="fill:none;stroke:red;stroke-width:1px;stroke-linecap:butt;stroke-linejoin:miter;stroke-opacity:1" d="M 238.583,286.192 238.583,294.848 z" id="boundary" inkscape:connector-curvature="0" />
	<path style="fill:none;stroke:red;stroke-width:1px;stroke-linecap:butt;stroke-linejoin:miter;stroke-opacity:1" d="M 238.583,294.848 238.583,303.504 z" id="boundary" inkscape:connector-curvature="0" />
	<path style="fill:none;stroke:red;stroke-width:1px;stroke-linecap:butt;stroke-linejoin:miter;stroke-opacity:1" d="M 238.583,312.161 238.583,320.817 z" id="boundary" inkscape:connector-curvature="0" />
	<path style="fill:none;stroke:red;stroke-width:1px;stroke-linecap:butt;stroke-linejoin:miter;stroke-opacity:1" d="M 238.583,312.161 238.583,303.504 z" id="boundary" inkscape:connector-curvature="0" />
	<path style="fill:none;stroke:red;stroke-width:1px;stroke-linecap:butt;stroke-linejoin:miter;stroke-opacity:1" d="M 224.733,36.8935 229.927,43.8185 z" id="boundary" inkscape:connector-curvature="0" />
	<path style="fill:none;stroke:red;stroke-width:1px;stroke-linecap:butt;stroke-linejoin:miter;stroke-opacity:1" d="M 238.583,320.817 238.583,329.473 z" id="boundary" inkscape:connector-curvature="0" />
	<path style="fill:none;stroke:red;stroke-width:1px;stroke-linecap:butt;stroke-linejoin:miter;stroke-opacity:1" d="M 229.927,429.019 229.927,437.675 z" id="boundary" inkscape:connector-curvature="0" />
	<path style="fill:none;stroke:red;stroke-width:1px;stroke-linecap:butt;stroke-linejoin:miter;stroke-opacity:1" d="M 229.927,429.019 234.255,420.363 z" id="boundary" inkscape:connector-curvature="0" />
	<path style="fill:none;stroke:red;stroke-width:1px;stroke-linecap:butt;stroke-linejoin:miter;stroke-opacity:1" d="M 229.927,446.332 229.927,454.988 z" id="boundary" inkscape:connector-curvature="0" />
	<path style="fill:none;stroke:red;stroke-width:1px;stroke-linecap:butt;stroke-linejoin:miter;stroke-opacity:1" d="M 229.927,446.332 229.927,437.675 z" id="boundary" inkscape:connector-curvature="0" />
	<path style="fill:none;stroke:red;stroke-width:1px;stroke-linecap:butt;stroke-linejoin:miter;stroke-opacity:1" d="M 229.927,463.644 229.927,472.3 z" id="boundary" inkscape:connector-curvature="0" />
	<path style="fill:none;stroke:red;stroke-width:1px;stroke-linecap:butt;stroke-linejoin:miter;stroke-opacity:1" d="M 229.927,480.956 229.927,472.3 z" id="boundary" inkscape:connector-curvature="0" />
	<path style="fill:none;stroke:red;stroke-width:1px;stroke-linecap:butt;stroke-linejoin:miter;stroke-opacity:1" d="M 229.927,480.956 229.927,489.613 z" id="boundary" inkscape:connector-curvature="0" />
	<path style="fill:none;stroke:red;stroke-width:1px;stroke-linecap:butt;stroke-linejoin:miter;stroke-opacity:1" d="M 229.927,498.269 229.927,489.613 z" id="boundary" inkscape:connector-curvature="0" />
	<path style="fill:none;stroke:red;stroke-width:1px;stroke-linecap:butt;stroke-linejoin:miter;stroke-opacity:1" d="M 229.927,454.988 229.927,463.644 z" id="boundary" inkscape:connector-curvature="0" />
	<path style="fill:none;stroke:red;stroke-width:1px;stroke-linecap:butt;stroke-linejoin:miter;stroke-opacity:1" d="M 234.255,394.394 234.255,385.738 z" id="boundary" inkscape:connector-curvature="0" />
	<path style="fill:none;stroke:red;stroke-width:1px;stroke-linecap:butt;stroke-linejoin:miter;stroke-opacity:1" d="M 234.255,385.738 238.583,372.754 z" id="boundary" inkscape:connector-curvature="0" />
	<path style="fill:none;stroke:red;stroke-width:1px;stroke-linecap:butt;stroke-linejoin:miter;stroke-opacity:1" d="M 234.255,411.707 234.255,403.051 z" id="boundary" inkscape:connector-curvature="0" />
	<path style="fill:none;stroke:red;stroke-width:1px;stroke-linecap:butt;stroke-linejoin:miter;stroke-opacity:1" d="M 234.255,403.051 234.255,394.394 z" id="boundary" inkscape:connector-curvature="0" />
	<path style="fill:none;stroke:red;stroke-width:1px;stroke-linecap:butt;stroke-linejoin:miter;stroke-opacity:1" d="M 255.895,521.64 248.97,515.581 z" id="boundary" inkscape:connector-curvature="0" />
	<path style="fill:none;stroke:red;stroke-width:1px;stroke-linecap:butt;stroke-linejoin:miter;stroke-opacity:1" d="M 234.255,411.707 234.255,420.363 z" id="boundary" inkscape:connector-curvature="0" />
	<path style="fill:none;stroke:red;stroke-width:1px;stroke-linecap:butt;stroke-linejoin:miter;stroke-opacity:1" d="M 242.045,510.387 234.255,506.059 z" id="boundary" inkscape:connector-curvature="0" />
	<path style="fill:none;stroke:red;stroke-width:1px;stroke-linecap:butt;stroke-linejoin:miter;stroke-opacity:1" d="M 234.255,506.059 229.927,498.269 z" id="boundary" inkscape:connector-curvature="0" />
	<path style="fill:none;stroke:red;stroke-width:1px;stroke-linecap:butt;stroke-linejoin:miter;stroke-opacity:1" d="M 238.583,338.129 238.583,346.785 z" id="boundary" inkscape:connector-curvature="0" />
	<path style="fill:none;stroke:red;stroke-width:1px;stroke-linecap:butt;stroke-linejoin:miter;stroke-opacity:1" d="M 238.583,329.473 238.583,338.129 z" id="boundary" inkscape:connector-curvature="0" />
	<path style="fill:none;stroke:red;stroke-width:1px;stroke-linecap:butt;stroke-linejoin:miter;stroke-opacity:1" d="M 244.642,65.459 241.18,56.8028 z" id="boundary" inkscape:connector-curvature="0" />
	<path style="fill:none;stroke:red;stroke-width:1px;stroke-linecap:butt;stroke-linejoin:miter;stroke-opacity:1" d="M 248.97,73.2496 244.642,65.459 z" id="boundary" inkscape:connector-curvature="0" />
	<path style="fill:none;stroke:red;stroke-width:1px;stroke-linecap:butt;stroke-linejoin:miter;stroke-opacity:1" d="M 248.97,73.2496 251.567,81.9058 z" id="boundary" inkscape:connector-curvature="0" />
	<path style="fill:none;stroke:red;stroke-width:1px;stroke-linecap:butt;stroke-linejoin:miter;stroke-opacity:1" d="M 255.895,89.6963 251.567,81.9058 z" id="boundary" inkscape:connector-curvature="0" />
	<path style="fill:none;stroke:red;stroke-width:1px;stroke-linecap:butt;stroke-linejoin:miter;stroke-opacity:1" d="M 255.895,89.6963 260.223,97.4869 z" id="boundary" inkscape:connector-curvature="0" />
	<path style="fill:none;stroke:red;stroke-width:1px;stroke-linecap:butt;stroke-linejoin:miter;stroke-opacity:1" d="M 264.551,105.277 264.551,113.934 z" id="boundary" inkscape:connector-curvature="0" />
	<path style="fill:none;stroke:red;stroke-width:1px;stroke-linecap:butt;stroke-linejoin:miter;stroke-opacity:1" d="M 260.223,97.4869 264.551,105.277 z" id="boundary" inkscape:connector-curvature="0" />
	<path style="fill:none;stroke:red;stroke-width:1px;stroke-linecap:butt;stroke-linejoin:miter;stroke-opacity:1" d="M 267.148,122.59 264.551,113.934 z" id="boundary" inkscape:connector-curvature="0" />
	<path style="fill:none;stroke:red;stroke-width:1px;stroke-linecap:butt;stroke-linejoin:miter;stroke-opacity:1" d="M 267.148,122.59 268.88,131.246 z" id="boundary" inkscape:connector-curvature="0" />
	<path style="fill:none;stroke:red;stroke-width:1px;stroke-linecap:butt;stroke-linejoin:miter;stroke-opacity:1" d="M 268.88,131.246 268.88,139.902 z" id="boundary" inkscape:connector-curvature="0" />
	<path style="fill:none;stroke:red;stroke-width:1px;stroke-linecap:butt;stroke-linejoin:miter;stroke-opacity:1" d="M 268.88,148.558 268.88,139.902 z" id="boundary" inkscape:connector-curvature="0" />
	<path style="fill:none;stroke:red;stroke-width:1px;stroke-linecap:butt;stroke-linejoin:miter;stroke-opacity:1" d="M 264.551,169.333 264.551,177.99 z" id="boundary" inkscape:connector-curvature="0" />
	<path style="fill:none;stroke:red;stroke-width:1px;stroke-linecap:butt;stroke-linejoin:miter;stroke-opacity:1" d="M 264.551,169.333 268.88,157.215 z" id="boundary" inkscape:connector-curvature="0" />
	<path style="fill:none;stroke:red;stroke-width:1px;stroke-linecap:butt;stroke-linejoin:miter;stroke-opacity:1" d="M 264.551,195.302 264.551,186.646 z" id="boundary" inkscape:connector-curvature="0" />
	<path style="fill:none;stroke:red;stroke-width:1px;stroke-linecap:butt;stroke-linejoin:miter;stroke-opacity:1" d="M 264.551,186.646 264.551,177.99 z" id="boundary" inkscape:connector-curvature="0" />
	<path style="fill:none;stroke:red;stroke-width:1px;stroke-linecap:butt;stroke-linejoin:miter;stroke-opacity:1" d="M 268.88,148.558 268.88,157.215 z" id="boundary" inkscape:connector-curvature="0" />
	<path style="fill:none;stroke:red;stroke-width:1px;stroke-linecap:butt;stroke-linejoin:miter;stroke-opacity:1" d="M 238.583,346.785 238.583,355.442 z" id="boundary" inkscape:connector-curvature="0" />
	<path style="fill:none;stroke:red;stroke-width:1px;stroke-linecap:butt;stroke-linejoin:miter;stroke-opacity:1" d="M 247.239,260.223 251.567,251.567 z" id="boundary" inkscape:connector-curvature="0" />
	<path style="fill:none;stroke:red;stroke-width:1px;stroke-linecap:butt;stroke-linejoin:miter;stroke-opacity:1" d="M 247.239,260.223 242.911,268.88 z" id="boundary" inkscape:connector-curvature="0" />
	<path style="fill:none;stroke:red;stroke-width:1px;stroke-linecap:butt;stroke-linejoin:miter;stroke-opacity:1" d="M 238.583,364.098 238.583,355.442 z" id="boundary" inkscape:connector-curvature="0" />
	<path style="fill:none;stroke:red;stroke-width:1px;stroke-linecap:butt;stroke-linejoin:miter;stroke-opacity:1" d="M 238.583,372.754 238.583,364.098 z" id="boundary" inkscape:connector-curvature="0" />
	<path style="fill:none;stroke:red;stroke-width:1px;stroke-linecap:butt;stroke-linejoin:miter;stroke-opacity:1" d="M 248.97,515.581 242.045,510.387 z" id="boundary" inkscape:connector-curvature="0" />
	<path style="fill:none;stroke:red;stroke-width:1px;stroke-linecap:butt;stroke-linejoin:miter;stroke-opacity:1" d="M 260.223,212.614 260.223,221.271 z" id="boundary" inkscape:connector-curvature="0" />
	<path style="fill:none;stroke:red;stroke-width:1px;stroke-linecap:butt;stroke-linejoin:miter;stroke-opacity:1" d="M 260.223,221.271 255.895,229.927 z" id="boundary" inkscape:connector-curvature="0" />
	<path style="fill:none;stroke:red;stroke-width:1px;stroke-linecap:butt;stroke-linejoin:miter;stroke-opacity:1" d="M 260.223,212.614 264.551,203.958 z" id="boundary" inkscape:connector-curvature="0" />
	<path style="fill:none;stroke:red;stroke-width:1px;stroke-linecap:butt;stroke-linejoin:miter;stroke-opacity:1" d="M 264.551,195.302 264.551,203.958 z" id="boundary" inkscape:connector-curvature="0" />
	<path style="fill:none;stroke:red;stroke-width:1px;stroke-linecap:butt;stroke-linejoin:miter;stroke-opacity:1" d="M 251.567,251.567 255.895,238.583 z" id="boundary" inkscape:connector-curvature="0" />
	<path style="fill:none;stroke:red;stroke-width:1px;stroke-linecap:butt;stroke-linejoin:miter;stroke-opacity:1" d="M 255.895,229.927 255.895,238.583 z" id="boundary" inkscape:connector-curvature="0" />
	<path style="fill:none;stroke:red;stroke-width:1px;stroke-linecap:butt;stroke-linejoin:miter;stroke-opacity:1" d="M 260.223,529.431 265.417,536.356 z" id="boundary" inkscape:connector-curvature="0" />
	<path style="fill:none;stroke:red;stroke-width:1px;stroke-linecap:butt;stroke-linejoin:miter;stroke-opacity:1" d="M 260.223,529.431 255.895,521.64 z" id="boundary" inkscape:connector-curvature="0" />
	<path style="fill:none;stroke:red;stroke-width:1px;stroke-linecap:butt;stroke-linejoin:miter;stroke-opacity:1" d="M 265.417,536.356 272.342,542.415 z" id="boundary" inkscape:connector-curvature="0" />
	<path style="fill:none;stroke:red;stroke-width:1px;stroke-linecap:butt;stroke-linejoin:miter;stroke-opacity:1" d="M 272.342,542.415 277.536,549.34 z" id="boundary" inkscape:connector-curvature="0" />
	<path style="fill:none;stroke:red;stroke-width:1px;stroke-linecap:butt;stroke-linejoin:miter;stroke-opacity:1" d="M 281.864,557.131 277.536,549.34 z" id="boundary" inkscape:connector-curvature="0" />
	<path style="fill:none;stroke:red;stroke-width:1px;stroke-linecap:butt;stroke-linejoin:miter;stroke-opacity:1" d="M 288.789,563.19 281.864,557.131 z" id="boundary" inkscape:connector-curvature="0" />
	<path style="fill:none;stroke:red;stroke-width:1px;stroke-linecap:butt;stroke-linejoin:miter;stroke-opacity:1" d="M 288.789,563.19 292.251,571.846 z" id="boundary" inkscape:connector-curvature="0" />
	<path style="fill:none;stroke:red;stroke-width:1px;stroke-linecap:butt;stroke-linejoin:miter;stroke-opacity:1" d="M 288.789,907.707 284.461,916.363 z" id="boundary" inkscape:connector-curvature="0" />
	<path style="fill:none;stroke:red;stroke-width:1px;stroke-linecap:butt;stroke-linejoin:miter;stroke-opacity:1" d="M 292.251,571.846 296.579,579.637 z" id="boundary" inkscape:connector-curvature="0" />
	<path style="fill:none;stroke:red;stroke-width:1px;stroke-linecap:butt;stroke-linejoin:miter;stroke-opacity:1" d="M 296.579,579.637 299.176,588.293 z" id="boundary" inkscape:connector-curvature="0" />
	<path style="fill:none;stroke:red;stroke-width:1px;stroke-linecap:butt;stroke-linejoin:miter;stroke-opacity:1" d="M 299.176,588.293 303.504,596.084 z" id="boundary" inkscape:connector-curvature="0" />
	<path style="fill:none;stroke:red;stroke-width:1px;stroke-linecap:butt;stroke-linejoin:miter;stroke-opacity:1" d="M 307.832,603.874 303.504,596.084 z" id="boundary" inkscape:connector-curvature="0" />
	<path style="fill:none;stroke:red;stroke-width:1px;stroke-linecap:butt;stroke-linejoin:miter;stroke-opacity:1" d="M 329.473,766.611 329.473,775.267 z" id="boundary" inkscape:connector-curvature="0" />
	<path style="fill:none;stroke:red;stroke-width:1px;stroke-linecap:butt;stroke-linejoin:miter;stroke-opacity:1" d="M 288.789,907.707 293.117,899.051 z" id="boundary" inkscape:connector-curvature="0" />
	<path style="fill:none;stroke:red;stroke-width:1px;stroke-linecap:butt;stroke-linejoin:miter;stroke-opacity:1" d="M 293.117,899.051 299.176,892.126 z" id="boundary" inkscape:connector-curvature="0" />
	<path style="fill:none;stroke:red;stroke-width:1px;stroke-linecap:butt;stroke-linejoin:miter;stroke-opacity:1" d="M 307.832,874.813 303.504,883.469 z" id="boundary" inkscape:connector-curvature="0" />
	<path style="fill:none;stroke:red;stroke-width:1px;stroke-linecap:butt;stroke-linejoin:miter;stroke-opacity:1" d="M 303.504,883.469 299.176,892.126 z" id="boundary" inkscape:connector-curvature="0" />
	<path style="fill:none;stroke:red;stroke-width:1px;stroke-linecap:butt;stroke-linejoin:miter;stroke-opacity:1" d="M 280.133,925.019 284.461,916.363 z" id="boundary" inkscape:connector-curvature="0" />
	<path style="fill:none;stroke:red;stroke-width:1px;stroke-linecap:butt;stroke-linejoin:miter;stroke-opacity:1" d="M 216.077,978.688 208.286,983.016 z" id="boundary" inkscape:connector-curvature="0" />
	<path style="fill:none;stroke:red;stroke-width:1px;stroke-linecap:butt;stroke-linejoin:miter;stroke-opacity:1" d="M 223.867,974.36 216.077,978.688 z" id="boundary" inkscape:connector-curvature="0" />
	<path style="fill:none;stroke:red;stroke-width:1px;stroke-linecap:butt;stroke-linejoin:miter;stroke-opacity:1" d="M 208.286,983.016 199.63,987.344 z" id="boundary" inkscape:connector-curvature="0" />
	<path style="fill:none;stroke:red;stroke-width:1px;stroke-linecap:butt;stroke-linejoin:miter;stroke-opacity:1" d="M 174.527,996 165.871,996 z" id="boundary" inkscape:connector-curvature="0" />
	<path style="fill:none;stroke:red;stroke-width:1px;stroke-linecap:butt;stroke-linejoin:miter;stroke-opacity:1" d="M 182.318,991.672 174.527,996 z" id="boundary" inkscape:connector-curvature="0" />
	<path style="fill:none;stroke:red;stroke-width:1px;stroke-linecap:butt;stroke-linejoin:miter;stroke-opacity:1" d="M 182.318,991.672 190.974,991.672 z" id="boundary" inkscape:connector-curvature="0" />
	<path style="fill:none;stroke:red;stroke-width:1px;stroke-linecap:butt;stroke-linejoin:miter;stroke-opacity:1" d="M 199.63,987.344 190.974,991.672 z" id="boundary" inkscape:connector-curvature="0" />
	<path style="fill:none;stroke:red;stroke-width:1px;stroke-linecap:butt;stroke-linejoin:miter;stroke-opacity:1" d="M 260.223,944.063 267.148,938.003 z" id="boundary" inkscape:connector-curvature="0" />
	<path style="fill:none;stroke:red;stroke-width:1px;stroke-linecap:butt;stroke-linejoin:miter;stroke-opacity:1" d="M 253.298,951.853 260.223,944.063 z" id="boundary" inkscape:connector-curvature="0" />
	<path style="fill:none;stroke:red;stroke-width:1px;stroke-linecap:butt;stroke-linejoin:miter;stroke-opacity:1" d="M 273.208,931.079 267.148,938.003 z" id="boundary" inkscape:connector-curvature="0" />
	<path style="fill:none;stroke:red;stroke-width:1px;stroke-linecap:butt;stroke-linejoin:miter;stroke-opacity:1" d="M 273.208,931.079 280.133,925.019 z" id="boundary" inkscape:connector-curvature="0" />
	<path style="fill:none;stroke:red;stroke-width:1px;stroke-linecap:butt;stroke-linejoin:miter;stroke-opacity:1" d="M 239.449,965.703 231.658,970.031 z" id="boundary" inkscape:connector-curvature="0" />
	<path style="fill:none;stroke:red;stroke-width:1px;stroke-linecap:butt;stroke-linejoin:miter;stroke-opacity:1" d="M 246.373,958.778 239.449,965.703 z" id="boundary" inkscape:connector-curvature="0" />
	<path style="fill:none;stroke:red;stroke-width:1px;stroke-linecap:butt;stroke-linejoin:miter;stroke-opacity:1" d="M 231.658,970.031 223.867,974.36 z" id="boundary" inkscape:connector-curvature="0" />
	<path style="fill:none;stroke:red;stroke-width:1px;stroke-linecap:butt;stroke-linejoin:miter;stroke-opacity:1" d="M 253.298,951.853 246.373,958.778 z" id="boundary" inkscape:connector-curvature="0" />
	<path style="fill:none;stroke:red;stroke-width:1px;stroke-linecap:butt;stroke-linejoin:miter;stroke-opacity:1" d="M 307.832,603.874 312.161,611.665 z" id="boundary" inkscape:connector-curvature="0" />
	<path style="fill:none;stroke:red;stroke-width:1px;stroke-linecap:butt;stroke-linejoin:miter;stroke-opacity:1" d="M 312.161,611.665 314.757,620.321 z" id="boundary" inkscape:connector-curvature="0" />
	<path style="fill:none;stroke:red;stroke-width:1px;stroke-linecap:butt;stroke-linejoin:miter;stroke-opacity:1" d="M 314.757,620.321 319.086,628.112 z" id="boundary" inkscape:connector-curvature="0" />
	<path style="fill:none;stroke:red;stroke-width:1px;stroke-linecap:butt;stroke-linejoin:miter;stroke-opacity:1" d="M 319.086,628.112 322.548,636.768 z" id="boundary" inkscape:connector-curvature="0" />
	<path style="fill:none;stroke:red;stroke-width:1px;stroke-linecap:butt;stroke-linejoin:miter;stroke-opacity:1" d="M 322.548,636.768 326.876,644.558 z" id="boundary" inkscape:connector-curvature="0" />
	<path style="fill:none;stroke:red;stroke-width:1px;stroke-linecap:butt;stroke-linejoin:miter;stroke-opacity:1" d="M 329.473,653.215 329.473,661.871 z" id="boundary" inkscape:connector-curvature="0" />
	<path style="fill:none;stroke:red;stroke-width:1px;stroke-linecap:butt;stroke-linejoin:miter;stroke-opacity:1" d="M 326.876,644.558 329.473,653.215 z" id="boundary" inkscape:connector-curvature="0" />
	<path style="fill:none;stroke:red;stroke-width:1px;stroke-linecap:butt;stroke-linejoin:miter;stroke-opacity:1" d="M 329.473,661.871 329.473,670.527 z" id="boundary" inkscape:connector-curvature="0" />
	<path style="fill:none;stroke:red;stroke-width:1px;stroke-linecap:butt;stroke-linejoin:miter;stroke-opacity:1" d="M 329.473,670.527 333.801,678.318 z" id="boundary" inkscape:connector-curvature="0" />
	<path style="fill:none;stroke:red;stroke-width:1px;stroke-linecap:butt;stroke-linejoin:miter;stroke-opacity:1" d="M 333.801,678.318 333.801,686.974 z" id="boundary" inkscape:connector-curvature="0" />
	<path style="fill:none;stroke:red;stroke-width:1px;stroke-linecap:butt;stroke-linejoin:miter;stroke-opacity:1" d="M 333.801,686.974 333.801,695.63 z" id="boundary" inkscape:connector-curvature="0" />
	<path style="fill:none;stroke:red;stroke-width:1px;stroke-linecap:butt;stroke-linejoin:miter;stroke-opacity:1" d="M 333.801,695.63 333.801,704.286 z" id="boundary" inkscape:connector-curvature="0" />
	<path style="fill:none;stroke:red;stroke-width:1px;stroke-linecap:butt;stroke-linejoin:miter;stroke-opacity:1" d="M 333.801,704.286 333.801,712.942 z" id="boundary" inkscape:connector-curvature="0" />
	<path style="fill:none;stroke:red;stroke-width:1px;stroke-linecap:butt;stroke-linejoin:miter;stroke-opacity:1" d="M 333.801,721.599 333.801,730.255 z" id="boundary" inkscape:connector-curvature="0" />
	<path style="fill:none;stroke:red;stroke-width:1px;stroke-linecap:butt;stroke-linejoin:miter;stroke-opacity:1" d="M 333.801,712.942 333.801,721.599 z" id="boundary" inkscape:connector-curvature="0" />
	<path style="fill:none;stroke:red;stroke-width:1px;stroke-linecap:butt;stroke-linejoin:miter;stroke-opacity:1" d="M 320.817,827.204 320.817,835.86 z" id="boundary" inkscape:connector-curvature="0" />
	<path style="fill:none;stroke:red;stroke-width:1px;stroke-linecap:butt;stroke-linejoin:miter;stroke-opacity:1" d="M 320.817,835.86 316.489,848.845 z" id="boundary" inkscape:connector-curvature="0" />
	<path style="fill:none;stroke:red;stroke-width:1px;stroke-linecap:butt;stroke-linejoin:miter;stroke-opacity:1" d="M 320.817,827.204 325.145,818.548 z" id="boundary" inkscape:connector-curvature="0" />
	<path style="fill:none;stroke:red;stroke-width:1px;stroke-linecap:butt;stroke-linejoin:miter;stroke-opacity:1" d="M 325.145,809.892 325.145,818.548 z" id="boundary" inkscape:connector-curvature="0" />
	<path style="fill:none;stroke:red;stroke-width:1px;stroke-linecap:butt;stroke-linejoin:miter;stroke-opacity:1" d="M 325.145,809.892 329.473,801.236 z" id="boundary" inkscape:connector-curvature="0" />
	<path style="fill:none;stroke:red;stroke-width:1px;stroke-linecap:butt;stroke-linejoin:miter;stroke-opacity:1" d="M 312.161,866.157 307.832,874.813 z" id="boundary" inkscape:connector-curvature="0" />
	<path style="fill:none;stroke:red;stroke-width:1px;stroke-linecap:butt;stroke-linejoin:miter;stroke-opacity:1" d="M 316.489,848.845 316.489,857.501 z" id="boundary" inkscape:connector-curvature="0" />
	<path style="fill:none;stroke:red;stroke-width:1px;stroke-linecap:butt;stroke-linejoin:miter;stroke-opacity:1" d="M 316.489,857.501 312.161,866.157 z" id="boundary" inkscape:connector-curvature="0" />
	<path style="fill:none;stroke:red;stroke-width:1px;stroke-linecap:butt;stroke-linejoin:miter;stroke-opacity:1" d="M 333.801,738.911 333.801,747.567 z" id="boundary" inkscape:connector-curvature="0" />
	<path style="fill:none;stroke:red;stroke-width:1px;stroke-linecap:butt;stroke-linejoin:miter;stroke-opacity:1" d="M 333.801,747.567 333.801,756.223 z" id="boundary" inkscape:connector-curvature="0" />
	<path style="fill:none;stroke:red;stroke-width:1px;stroke-linecap:butt;stroke-linejoin:miter;stroke-opacity:1" d="M 333.801,756.223 329.473,766.611 z" id="boundary" inkscape:connector-curvature="0" />
	<path style="fill:none;stroke:red;stroke-width:1px;stroke-linecap:butt;stroke-linejoin:miter;stroke-opacity:1" d="M 329.473,775.267 329.473,783.923 z" id="boundary" inkscape:connector-curvature="0" />
	<path style="fill:none;stroke:red;stroke-width:1px;stroke-linecap:butt;stroke-linejoin:miter;stroke-opacity:1" d="M 329.473,792.579 329.473,801.236 z" id="boundary" inkscape:connector-curvature="0" />
	<path style="fill:none;stroke:red;stroke-width:1px;stroke-linecap:butt;stroke-linejoin:miter;stroke-opacity:1" d="M 329.473,792.579 329.473,783.923 z" id="boundary" inkscape:connector-curvature="0" />
	<path style="fill:none;stroke:red;stroke-width:1px;stroke-linecap:butt;stroke-linejoin:miter;stroke-opacity:1" d="M 333.801,730.255 333.801,738.911 z" id="boundary" inkscape:connector-curvature="0" />
	<circle cx="4" cy="677.452" r="4" fill="#0" id="circle0"/>
	<circle cx="4" cy="686.108" r="4" fill="#0" id="circle1"/>
	<circle cx="4" cy="694.764" r="4" fill="#0" id="circle2"/>
	<circle cx="4" cy="703.421" r="4" fill="#0" id="circle3"/>
	<circle cx="4" cy="712.077" r="4" fill="#0" id="circle4"/>
	<circle cx="4" cy="720.733" r="4" fill="#0" id="circle5"/>
	<circle cx="4" cy="729.389" r="4" fill="#0" id="circle6"/>
	<circle cx="4" cy="738.045" r="4" fill="#0" id="circle7"/>
	<circle cx="4" cy="746.702" r="4" fill="#0" id="circle8"/>
	<circle cx="4" cy="755.358" r="4" fill="#0" id="circle9"/>
	<circle cx="4" cy="764.014" r="4" fill="#0" id="circle10"/>
	<circle cx="4" cy="772.67" r="4" fill="#0" id="circle11"/>
	<circle cx="4" cy="781.326" r="4" fill="#0" id="circle12"/>
	<circle cx="4" cy="789.983" r="4" fill="#0" id="circle13"/>
	<circle cx="4" cy="798.639" r="4" fill="#0" id="circle14"/>
	<circle cx="8.3281" cy="634.171" r="4" fill="#0" id="circle15"/>
	<circle cx="8.3281" cy="642.827" r="4" fill="#0" id="circle16"/>
	<circle cx="8.3281" cy="651.483" r="4" fill="#0" id="circle17"/>
	<circle cx="8.3281" cy="660.14" r="4" fill="#0" id="circle18"/>
	<circle cx="8.3281" cy="668.796" r="4" fill="#0" id="circle19"/>
	<circle cx="8.3281" cy="806.429" r="4" fill="#0" id="circle20"/>
	<circle cx="12.6562" cy="616.859" r="4" fill="#0" id="circle21"/>
	<circle cx="12.6562" cy="625.515" r="4" fill="#0" id="circle22"/>
	<circle cx="12.6562" cy="814.22" r="4" fill="#0" id="circle23"/>
	<circle cx="12.6562" cy="822.876" r="4" fill="#0" id="circle24"/>
	<circle cx="16.9843" cy="608.202" r="4" fill="#0" id="circle25"/>
	<circle cx="16.9843" cy="830.667" r="4" fill="#0" id="circle26"/>
	<circle cx="16.9843" cy="839.323" r="4" fill="#0" id="circle27"/>
	<circle cx="21.3124" cy="595.218" r="4" fill="#0" id="circle28"/>
	<circle cx="21.3124" cy="847.113" r="4" fill="#0" id="circle29"/>
	<circle cx="21.3124" cy="855.77" r="4" fill="#0" id="circle30"/>
	<circle cx="22.178" cy="864.426" r="4" fill="#0" id="circle31"/>
	<circle cx="25.6405" cy="577.906" r="4" fill="#0" id="circle32"/>
	<circle cx="25.6405" cy="586.562" r="4" fill="#0" id="circle33"/>
	<circle cx="26.5061" cy="872.216" r="4" fill="#0" id="circle34"/>
	<circle cx="29.9686" cy="569.25" r="4" fill="#0" id="circle35"/>
	<circle cx="29.9686" cy="880.873" r="4" fill="#0" id="circle36"/>
	<circle cx="34.2967" cy="556.265" r="4" fill="#0" id="circle37"/>
	<circle cx="34.2967" cy="888.663" r="4" fill="#0" id="circle38"/>
	<circle cx="38.6248" cy="547.609" r="4" fill="#0" id="circle39"/>
	<circle cx="38.6248" cy="896.454" r="4" fill="#0" id="circle40"/>
	<circle cx="42.9529" cy="904.244" r="4" fill="#0" id="circle41"/>
	<circle cx="45.5497" cy="540.684" r="4" fill="#0" id="circle42"/>
	<circle cx="48.1466" cy="911.169" r="4" fill="#0" id="circle43"/>
	<circle cx="49.8778" cy="532.028" r="4" fill="#0" id="circle44"/>
	<circle cx="54.2059" cy="918.094" r="4" fill="#0" id="circle45"/>
	<circle cx="56.8028" cy="525.103" r="4" fill="#0" id="circle46"/>
	<circle cx="61.1309" cy="516.447" r="4" fill="#0" id="circle47"/>
	<circle cx="61.1309" cy="924.154" r="4" fill="#0" id="circle48"/>
	<circle cx="64.5934" cy="119.127" r="4" fill="#0" id="circle49"/>
	<circle cx="64.5934" cy="127.784" r="4" fill="#0" id="circle50"/>
	<circle cx="64.5934" cy="136.44" r="4" fill="#0" id="circle51"/>
	<circle cx="64.5934" cy="145.096" r="4" fill="#0" id="circle52"/>
	<circle cx="64.5934" cy="153.752" r="4" fill="#0" id="circle53"/>
	<circle cx="64.5934" cy="162.408" r="4" fill="#0" id="circle54"/>
	<circle cx="64.5934" cy="171.065" r="4" fill="#0" id="circle55"/>
	<circle cx="64.5934" cy="179.721" r="4" fill="#0" id="circle56"/>
	<circle cx="64.5934" cy="188.377" r="4" fill="#0" id="circle57"/>
	<circle cx="67.1902" cy="931.079" r="4" fill="#0" id="circle58"/>
	<circle cx="68.0558" cy="510.387" r="4" fill="#0" id="circle59"/>
	<circle cx="68.9215" cy="101.815" r="4" fill="#0" id="circle60"/>
	<circle cx="68.9215" cy="110.471" r="4" fill="#0" id="circle61"/>
	<circle cx="68.9215" cy="196.168" r="4" fill="#0" id="circle62"/>
	<circle cx="68.9215" cy="204.824" r="4" fill="#0" id="circle63"/>
	<circle cx="68.9215" cy="213.48" r="4" fill="#0" id="circle64"/>
	<circle cx="68.9215" cy="222.136" r="4" fill="#0" id="circle65"/>
	<circle cx="68.9215" cy="230.792" r="4" fill="#0" id="circle66"/>
	<circle cx="71.5183" cy="938.869" r="4" fill="#0" id="circle67"/>
	<circle cx="73.2496" cy="93.1588" r="4" fill="#0" id="circle68"/>
	<circle cx="73.2496" cy="238.583" r="4" fill="#0" id="circle69"/>
	<circle cx="73.2496" cy="247.239" r="4" fill="#0" id="circle70"/>
	<circle cx="74.1152" cy="503.462" r="4" fill="#0" id="circle71"/>
	<circle cx="75.8464" cy="255.895" r="4" fill="#0" id="circle72"/>
	<circle cx="77.5777" cy="80.1745" r="4" fill="#0" id="circle73"/>
	<circle cx="77.5777" cy="945.794" r="4" fill="#0" id="circle74"/>
	<circle cx="80.1745" cy="263.686" r="4" fill="#0" id="circle75"/>
	<circle cx="81.9058" cy="67.1902" r="4" fill="#0" id="circle76"/>
	<circle cx="81.9058" cy="953.585" r="4" fill="#0" id="circle77"/>
	<circle cx="82.7714" cy="499.134" r="4" fill="#0" id="circle78"/>
	<circle cx="83.637" cy="272.342" r="4" fill="#0" id="circle79"/>
	<circle cx="86.2339" cy="58.534" r="4" fill="#0" id="circle80"/>
	<circle cx="87.9651" cy="280.133" r="4" fill="#0" id="circle81"/>
	<circle cx="87.9651" cy="960.51" r="4" fill="#0" id="circle82"/>
	<circle cx="91.4276" cy="494.806" r="4" fill="#0" id="circle83"/>
	<circle cx="93.1588" cy="51.6091" r="4" fill="#0" id="circle84"/>
	<circle cx="94.8901" cy="286.192" r="4" fill="#0" id="circle85"/>
	<circle cx="94.8901" cy="965.703" r="4" fill="#0" id="circle86"/>
	<circle cx="97.4869" cy="42.9529" r="4" fill="#0" id="circle87"/>
	<circle cx="98.3525" cy="488.747" r="4" fill="#0" id="circle88"/>
	<circle cx="99.2182" cy="293.983" r="4" fill="#0" id="circle89"/>
	<circle cx="100.084" cy="972.628" r="4" fill="#0" id="circle90"/>
	<circle cx="101.815" cy="34.2967" r="4" fill="#0" id="circle91"/>
	<circle cx="103.546" cy="301.773" r="4" fill="#0" id="circle92"/>
	<circle cx="103.546" cy="310.429" r="4" fill="#0" id="circle93"/>
	<circle cx="106.143" cy="484.419" r="4" fill="#0" id="circle94"/>
	<circle cx="107.009" cy="978.688" r="4" fill="#0" id="circle95"/>
	<circle cx="107.874" cy="318.22" r="4" fill="#0" id="circle96"/>
	<circle cx="107.874" cy="326.876" r="4" fill="#0" id="circle97"/>
	<circle cx="107.874" cy="461.047" r="4" fill="#0" id="circle98"/>
	<circle cx="107.874" cy="469.703" r="4" fill="#0" id="circle99"/>
	<circle cx="108.74" cy="27.3717" r="4" fill="#0" id="circle100"/>
	<circle cx="112.202" cy="334.667" r="4" fill="#0" id="circle101"/>
	<circle cx="112.202" cy="343.323" r="4" fill="#0" id="circle102"/>
	<circle cx="112.202" cy="351.979" r="4" fill="#0" id="circle103"/>
	<circle cx="112.202" cy="360.635" r="4" fill="#0" id="circle104"/>
	<circle cx="112.202" cy="369.291" r="4" fill="#0" id="circle105"/>
	<circle cx="112.202" cy="377.948" r="4" fill="#0" id="circle106"/>
	<circle cx="112.202" cy="386.604" r="4" fill="#0" id="circle107"/>
	<circle cx="112.202" cy="395.26" r="4" fill="#0" id="circle108"/>
	<circle cx="112.202" cy="403.916" r="4" fill="#0" id="circle109"/>
	<circle cx="112.202" cy="412.572" r="4" fill="#0" id="circle110"/>
	<circle cx="112.202" cy="421.229" r="4" fill="#0" id="circle111"/>
	<circle cx="112.202" cy="429.885" r="4" fill="#0" id="circle112"/>
	<circle cx="112.202" cy="438.541" r="4" fill="#0" id="circle113"/>
	<circle cx="112.202" cy="447.197" r="4" fill="#0" id="circle114"/>
	<circle cx="114.799" cy="983.016" r="4" fill="#0" id="circle115"/>
	<circle cx="115.665" cy="21.3124" r="4" fill="#0" id="circle116"/>
	<circle cx="123.455" cy="16.9843" r="4" fill="#0" id="circle117"/>
	<circle cx="123.455" cy="986.478" r="4" fill="#0" id="circle118"/>
	<circle cx="131.246" cy="12.6562" r="4" fill="#0" id="circle119"/>
	<circle cx="131.246" cy="990.806" r="4" fill="#0" id="circle120"/>
	<circle cx="139.037" cy="8.3281" r="4" fill="#0" id="circle121"/>
	<circle cx="139.902" cy="991.672" r="4" fill="#0" id="circle122"/>
	<circle cx="146.827" cy="4" r="4" fill="#0" id="circle123"/>
	<circle cx="148.558" cy="994.269" r="4" fill="#0" id="circle124"/>
	<circle cx="155.483" cy="4" r="4" fill="#0" id="circle125"/>
	<circle cx="157.215" cy="996" r="4" fill="#0" id="circle126"/>
	<circle cx="164.14" cy="4" r="4" fill="#0" id="circle127"/>
	<circle cx="165.871" cy="996" r="4" fill="#0" id="circle128"/>
	<circle cx="172.796" cy="5.73124" r="4" fill="#0" id="circle129"/>
	<circle cx="174.527" cy="996" r="4" fill="#0" id="circle130"/>
	<circle cx="181.452" cy="8.3281" r="4" fill="#0" id="circle131"/>
	<circle cx="182.318" cy="991.672" r="4" fill="#0" id="circle132"/>
	<circle cx="190.108" cy="8.3281" r="4" fill="#0" id="circle133"/>
	<circle cx="190.974" cy="991.672" r="4" fill="#0" id="circle134"/>
	<circle cx="197.899" cy="12.6562" r="4" fill="#0" id="circle135"/>
	<circle cx="199.63" cy="987.344" r="4" fill="#0" id="circle136"/>
	<circle cx="205.689" cy="16.9843" r="4" fill="#0" id="circle137"/>
	<circle cx="208.286" cy="983.016" r="4" fill="#0" id="circle138"/>
	<circle cx="211.749" cy="23.9092" r="4" fill="#0" id="circle139"/>
	<circle cx="216.077" cy="978.688" r="4" fill="#0" id="circle140"/>
	<circle cx="218.674" cy="29.9686" r="4" fill="#0" id="circle141"/>
	<circle cx="223.867" cy="974.36" r="4" fill="#0" id="circle142"/>
	<circle cx="224.733" cy="36.8935" r="4" fill="#0" id="circle143"/>
	<circle cx="229.927" cy="43.8185" r="4" fill="#0" id="circle144"/>
	<circle cx="229.927" cy="429.019" r="4" fill="#0" id="circle145"/>
	<circle cx="229.927" cy="437.675" r="4" fill="#0" id="circle146"/>
	<circle cx="229.927" cy="446.332" r="4" fill="#0" id="circle147"/>
	<circle cx="229.927" cy="454.988" r="4" fill="#0" id="circle148"/>
	<circle cx="229.927" cy="463.644" r="4" fill="#0" id="circle149"/>
	<circle cx="229.927" cy="472.3" r="4" fill="#0" id="circle150"/>
	<circle cx="229.927" cy="480.956" r="4" fill="#0" id="circle151"/>
	<circle cx="229.927" cy="489.613" r="4" fill="#0" id="circle152"/>
	<circle cx="229.927" cy="498.269" r="4" fill="#0" id="circle153"/>
	<circle cx="231.658" cy="970.031" r="4" fill="#0" id="circle154"/>
	<circle cx="234.255" cy="51.6091" r="4" fill="#0" id="circle155"/>
	<circle cx="234.255" cy="385.738" r="4" fill="#0" id="circle156"/>
	<circle cx="234.255" cy="394.394" r="4" fill="#0" id="circle157"/>
	<circle cx="234.255" cy="403.051" r="4" fill="#0" id="circle158"/>
	<circle cx="234.255" cy="411.707" r="4" fill="#0" id="circle159"/>
	<circle cx="234.255" cy="420.363" r="4" fill="#0" id="circle160"/>
	<circle cx="234.255" cy="506.059" r="4" fill="#0" id="circle161"/>
	<circle cx="238.583" cy="277.536" r="4" fill="#0" id="circle162"/>
	<circle cx="238.583" cy="286.192" r="4" fill="#0" id="circle163"/>
	<circle cx="238.583" cy="294.848" r="4" fill="#0" id="circle164"/>
	<circle cx="238.583" cy="303.504" r="4" fill="#0" id="circle165"/>
	<circle cx="238.583" cy="312.161" r="4" fill="#0" id="circle166"/>
	<circle cx="238.583" cy="320.817" r="4" fill="#0" id="circle167"/>
	<circle cx="238.583" cy="329.473" r="4" fill="#0" id="circle168"/>
	<circle cx="238.583" cy="338.129" r="4" fill="#0" id="circle169"/>
	<circle cx="238.583" cy="346.785" r="4" fill="#0" id="circle170"/>
	<circle cx="238.583" cy="355.442" r="4" fill="#0" id="circle171"/>
	<circle cx="238.583" cy="364.098" r="4" fill="#0" id="circle172"/>
	<circle cx="238.583" cy="372.754" r="4" fill="#0" id="circle173"/>
	<circle cx="239.449" cy="965.703" r="4" fill="#0" id="circle174"/>
	<circle cx="241.18" cy="56.8028" r="4" fill="#0" id="circle175"/>
	<circle cx="242.045" cy="510.387" r="4" fill="#0" id="circle176"/>
	<circle cx="242.911" cy="268.88" r="4" fill="#0" id="circle177"/>
	<circle cx="244.642" cy="65.459" r="4" fill="#0" id="circle178"/>
	<circle cx="246.373" cy="958.778" r="4" fill="#0" id="circle179"/>
	<circle cx="247.239" cy="260.223" r="4" fill="#0" id="circle180"/>
	<circle cx="248.97" cy="73.2496" r="4" fill="#0" id="circle181"/>
	<circle cx="248.97" cy="515.581" r="4" fill="#0" id="circle182"/>
	<circle cx="251.567" cy="81.9058" r="4" fill="#0" id="circle183"/>
	<circle cx="251.567" cy="251.567" r="4" fill="#0" id="circle184"/>
	<circle cx="253.298" cy="951.853" r="4" fill="#0" id="circle185"/>
	<circle cx="255.895" cy="89.6963" r="4" fill="#0" id="circle186"/>
	<circle cx="255.895" cy="229.927" r="4" fill="#0" id="circle187"/>
	<circle cx="255.895" cy="238.583" r="4" fill="#0" id="circle188"/>
	<circle cx="255.895" cy="521.64" r="4" fill="#0" id="circle189"/>
	<circle cx="260.223" cy="97.4869" r="4" fill="#0" id="circle190"/>
	<circle cx="260.223" cy="212.614" r="4" fill="#0" id="circle191"/>
	<circle cx="260.223" cy="221.271" r="4" fill="#0" id="circle192"/>
	<circle cx="260.223" cy="529.431" r="4" fill="#0" id="circle193"/>
	<circle cx="260.223" cy="944.063" r="4" fill="#0" id="circle194"/>
	<circle cx="264.551" cy="105.277" r="4" fill="#0" id="circle195"/>
	<circle cx="264.551" cy="113.934" r="4" fill="#0" id="circle196"/>
	<circle cx="264.551" cy="169.333" r="4" fill="#0" id="circle197"/>
	<circle cx="264.551" cy="177.99" r="4" fill="#0" id="circle198"/>
	<circle cx="264.551" cy="186.646" r="4" fill="#0" id="circle199"/>
	<circle cx="264.551" cy="195.302" r="4" fill="#0" id="circle200"/>
	<circle cx="264.551" cy="203.958" r="4" fill="#0" id="circle201"/>
	<circle cx="265.417" cy="536.356" r="4" fill="#0" id="circle202"/>
	<circle cx="267.148" cy="122.59" r="4" fill="#0" id="circle203"/>
	<circle cx="267.148" cy="938.003" r="4" fill="#0" id="circle204"/>
	<circle cx="268.88" cy="131.246" r="4" fill="#0" id="circle205"/>
	<circle cx="268.88" cy="139.902" r="4" fill="#0" id="circle206"/>
	<circle cx="268.88" cy="148.558" r="4" fill="#0" id="circle207"/>
	<circle cx="268.88" cy="157.215" r="4" fill="#0" id="circle208"/>
	<circle cx="272.342" cy="542.415" r="4" fill="#0" id="circle209"/>
	<circle cx="273.208" cy="931.079" r="4" fill="#0" id="circle210"/>
	<circle cx="277.536" cy="549.34" r="4" fill="#0" id="circle211"/>
	<circle cx="280.133" cy="925.019" r="4" fill="#0" id="circle212"/>
	<circle cx="281.864" cy="557.131" r="4" fill="#0" id="circle213"/>
	<circle cx="284.461" cy="916.363" r="4" fill="#0" id="circle214"/>
	<circle cx="288.789" cy="563.19" r="4" fill="#0" id="circle215"/>
	<circle cx="288.789" cy="907.707" r="4" fill="#0" id="circle216"/>
	<circle cx="292.251" cy="571.846" r="4" fill="#0" id="circle217"/>
	<circle cx="293.117" cy="899.051" r="4" fill="#0" id="circle218"/>
	<circle cx="296.579" cy="579.637" r="4" fill="#0" id="circle219"/>
	<circle cx="299.176" cy="588.293" r="4" fill="#0" id="circle220"/>
	<circle cx="299.176" cy="892.126" r="4" fill="#0" id="circle221"/>
	<circle cx="303.504" cy="596.084" r="4" fill="#0" id="circle222"/>
	<circle cx="303.504" cy="883.469" r="4" fill="#0" id="circle223"/>
	<circle cx="307.832" cy="603.874" r="4" fill="#0" id="circle224"/>
	<circle cx="307.832" cy="874.813" r="4" fill="#0" id="circle225"/>
	<circle cx="312.161" cy="611.665" r="4" fill="#0" id="circle226"/>
	<circle cx="312.161" cy="866.157" r="4" fill="#0" id="circle227"/>
	<circle cx="314.757" cy="620.321" r="4" fill="#0" id="circle228"/>
	<circle cx="316.489" cy="848.845" r="4" fill="#0" id="circle229"/>
	<circle cx="316.489" cy="857.501" r="4" fill="#0" id="circle230"/>
	<circle cx="319.086" cy="628.112" r="4" fill="#0" id="circle231"/>
	<circle cx="320.817" cy="827.204" r="4" fill="#0" id="circle232"/>
	<circle cx="320.817" cy="835.86" r="4" fill="#0" id="circle233"/>
	<circle cx="322.548" cy="636.768" r="4" fill="#0" id="circle234"/>
	<circle cx="325.145" cy="809.892" r="4" fill="#0" id="circle235"/>
	<circle cx="325.145" cy="818.548" r="4" fill="#0" id="circle236"/>
	<circle cx="326.876" cy="644.558" r="4" fill="#0" id="circle237"/>
	<circle cx="329.473" cy="653.215" r="4" fill="#0" id="circle238"/>
	<circle cx="329.473" cy="661.871" r="4" fill="#0" id="circle239"/>
	<circle cx="329.473" cy="670.527" r="4" fill="#0" id="circle240"/>
	<circle cx="329.473" cy="766.611" r="4" fill="#0" id="circle241"/>
	<circle cx="329.473" cy="775.267" r="4" fill="#0" id="circle242"/>
	<circle cx="329.473" cy="783.923" r="4" fill="#0" id="circle243"/>
	<circle cx="329.473" cy="792.579" r="4" fill="#0" id="circle244"/>
	<circle cx="329.473" cy="801.236" r="4" fill="#0" id="circle245"/>
	<circle cx="333.801" cy="678.318" r="4" fill="#0" id="circle246"/>
	<circle cx="333.801" cy="686.974" r="4" fill="#0" id="circle247"/>
	<circle cx="333.801" cy="695.63" r="4" fill="#0" id="circle248"/>
	<circle cx="333.801" cy="704.286" r="4" fill="#0" id="circle249"/>
	<circle cx="333.801" cy="712.942" r="4" fill="#0" id="circle250"/>
	<circle cx="333.801" cy="721.599" r="4" fill="#0" id="circle251"/>
	<circle cx="333.801" cy="730.255" r="4" fill="#0" id="circle252"/>
	<circle cx="333.801" cy="738.911" r="4" fill="#0" id="circle253"/>
	<circle cx="333.801" cy="747.567" r="4" fill="#0" id="circle254"/>
	<circle cx="333.801" cy="756.223" r="4" fill="#0" id="circle255"/>
	</g>
</svg>