<?xml version="1.0" encoding="UTF-8" standalone="no"?>
<!-- Created with CurveBenchmark -->
<svg
	xmlns:dc="http://purl.org/dc/elements/1.1/"
	xmlns:cc="http://creativecommons.org/ns#"
	xmlns:rdf="http://www.w3.org/1999/02/22-rdf-syntax-ns#"
	xmlns:svg="http://www.w3.org/2000/svg"
	xmlns="http://www.w3.org/2000/svg"
	xmlns:sodipodi="http://sodipodi.sourceforge.net/DTD/sodipodi-0.dtd"
	xmlns:inkscape="http://www.inkscape.org/namespaces/inkscape"
	width="1000"
	height="1000"
	id="svg2"
	version="1.1"
	sodipodi:docname="manifold/nncrust-sink290.png.txt">
<defs
	id="defs4" />
<metadata
	id="metadata7">
	<rdf:RDF>
		<cc:Work
			rdf:about="">
			<dc:format>image/svg+xml</dc:format>
			<dc:type
				rdf:resource="http://purl.org/dc/dcmitype/StillImage" />
			<dc:title></dc:title>
		</cc:Work>
	</rdf:RDF>
</metadata>
<g
	inkscape:label="Layer 1"
	inkscape:groupmode="layer"
	id="layer1">
	<path style="fill:none;stroke:red;stroke-width:1px;stroke-linecap:butt;stroke-linejoin:miter;stroke-opacity:1" d="M 43.0936,209.241 52.867,160.374 z" id="boundary" inkscape:connector-curvature="0" />
	<path style="fill:none;stroke:red;stroke-width:1px;stroke-linecap:butt;stroke-linejoin:miter;stroke-opacity:1" d="M 52.867,160.374 101.734,160.374 z" id="boundary" inkscape:connector-curvature="0" />
	<path style="fill:none;stroke:red;stroke-width:1px;stroke-linecap:butt;stroke-linejoin:miter;stroke-opacity:1" d="M 43.0936,209.241 4,287.429 z" id="boundary" inkscape:connector-curvature="0" />
	<path style="fill:none;stroke:red;stroke-width:1px;stroke-linecap:butt;stroke-linejoin:miter;stroke-opacity:1" d="M 4,287.429 47.9803,311.862 z" id="boundary" inkscape:connector-curvature="0" />
	<path style="fill:none;stroke:red;stroke-width:1px;stroke-linecap:butt;stroke-linejoin:miter;stroke-opacity:1" d="M 96.8473,311.862 140.828,336.296 z" id="boundary" inkscape:connector-curvature="0" />
	<path style="fill:none;stroke:red;stroke-width:1px;stroke-linecap:butt;stroke-linejoin:miter;stroke-opacity:1" d="M 47.9803,311.862 96.8473,311.862 z" id="boundary" inkscape:connector-curvature="0" />
	<path style="fill:none;stroke:red;stroke-width:1px;stroke-linecap:butt;stroke-linejoin:miter;stroke-opacity:1" d="M 140.828,336.296 170.148,375.389 z" id="boundary" inkscape:connector-curvature="0" />
	<path style="fill:none;stroke:red;stroke-width:1px;stroke-linecap:butt;stroke-linejoin:miter;stroke-opacity:1" d="M 101.734,160.374 150.601,160.374 z" id="boundary" inkscape:connector-curvature="0" />
	<path style="fill:none;stroke:red;stroke-width:1px;stroke-linecap:butt;stroke-linejoin:miter;stroke-opacity:1" d="M 199.468,160.374 248.335,160.374 z" id="boundary" inkscape:connector-curvature="0" />
	<path style="fill:none;stroke:red;stroke-width:1px;stroke-linecap:butt;stroke-linejoin:miter;stroke-opacity:1" d="M 199.468,160.374 150.601,160.374 z" id="boundary" inkscape:connector-curvature="0" />
	<path style="fill:none;stroke:red;stroke-width:1px;stroke-linecap:butt;stroke-linejoin:miter;stroke-opacity:1" d="M 365.616,4 199.468,160.374 z" id="boundary" inkscape:connector-curvature="0" />
	<path style="fill:none;stroke:red;stroke-width:1px;stroke-linecap:butt;stroke-linejoin:miter;stroke-opacity:1" d="M 355.842,62.6404 385.163,101.734 z" id="boundary" inkscape:connector-curvature="0" />
	<path style="fill:none;stroke:red;stroke-width:1px;stroke-linecap:butt;stroke-linejoin:miter;stroke-opacity:1" d="M 385.163,101.734 346.069,160.374 z" id="boundary" inkscape:connector-curvature="0" />
	<path style="fill:none;stroke:red;stroke-width:1px;stroke-linecap:butt;stroke-linejoin:miter;stroke-opacity:1" d="M 365.616,4 355.842,62.6404 z" id="boundary" inkscape:connector-curvature="0" />
	<path style="fill:none;stroke:red;stroke-width:1px;stroke-linecap:butt;stroke-linejoin:miter;stroke-opacity:1" d="M 248.335,160.374 297.202,160.374 z" id="boundary" inkscape:connector-curvature="0" />
	<path style="fill:none;stroke:red;stroke-width:1px;stroke-linecap:butt;stroke-linejoin:miter;stroke-opacity:1" d="M 209.241,409.596 170.148,375.389 z" id="boundary" inkscape:connector-curvature="0" />
	<path style="fill:none;stroke:red;stroke-width:1px;stroke-linecap:butt;stroke-linejoin:miter;stroke-opacity:1" d="M 346.069,160.374 297.202,160.374 z" id="boundary" inkscape:connector-curvature="0" />
	<path style="fill:none;stroke:red;stroke-width:1px;stroke-linecap:butt;stroke-linejoin:miter;stroke-opacity:1" d="M 209.241,409.596 248.335,438.916 z" id="boundary" inkscape:connector-curvature="0" />
	<path style="fill:none;stroke:red;stroke-width:1px;stroke-linecap:butt;stroke-linejoin:miter;stroke-opacity:1" d="M 248.335,438.916 267.882,487.783 z" id="boundary" inkscape:connector-curvature="0" />
	<path style="fill:none;stroke:red;stroke-width:1px;stroke-linecap:butt;stroke-linejoin:miter;stroke-opacity:1" d="M 267.882,487.783 267.882,536.65 z" id="boundary" inkscape:connector-curvature="0" />
	<path style="fill:none;stroke:red;stroke-width:1px;stroke-linecap:butt;stroke-linejoin:miter;stroke-opacity:1" d="M 267.882,683.251 267.882,732.118 z" id="boundary" inkscape:connector-curvature="0" />
	<path style="fill:none;stroke:red;stroke-width:1px;stroke-linecap:butt;stroke-linejoin:miter;stroke-opacity:1" d="M 209.241,961.793 238.562,922.7 z" id="boundary" inkscape:connector-curvature="0" />
	<path style="fill:none;stroke:red;stroke-width:1px;stroke-linecap:butt;stroke-linejoin:miter;stroke-opacity:1" d="M 248.335,996 209.241,961.793 z" id="boundary" inkscape:connector-curvature="0" />
	<path style="fill:none;stroke:red;stroke-width:1px;stroke-linecap:butt;stroke-linejoin:miter;stroke-opacity:1" d="M 262.995,878.719 238.562,922.7 z" id="boundary" inkscape:connector-curvature="0" />
	<path style="fill:none;stroke:red;stroke-width:1px;stroke-linecap:butt;stroke-linejoin:miter;stroke-opacity:1" d="M 267.882,829.852 262.995,878.719 z" id="boundary" inkscape:connector-curvature="0" />
	<path style="fill:none;stroke:red;stroke-width:1px;stroke-linecap:butt;stroke-linejoin:miter;stroke-opacity:1" d="M 297.202,996 248.335,996 z" id="boundary" inkscape:connector-curvature="0" />
	<path style="fill:none;stroke:red;stroke-width:1px;stroke-linecap:butt;stroke-linejoin:miter;stroke-opacity:1" d="M 267.882,536.65 267.882,585.517 z" id="boundary" inkscape:connector-curvature="0" />
	<path style="fill:none;stroke:red;stroke-width:1px;stroke-linecap:butt;stroke-linejoin:miter;stroke-opacity:1" d="M 267.882,585.517 267.882,634.384 z" id="boundary" inkscape:connector-curvature="0" />
	<path style="fill:none;stroke:red;stroke-width:1px;stroke-linecap:butt;stroke-linejoin:miter;stroke-opacity:1" d="M 267.882,683.251 267.882,634.384 z" id="boundary" inkscape:connector-curvature="0" />
	<path style="fill:none;stroke:red;stroke-width:1px;stroke-linecap:butt;stroke-linejoin:miter;stroke-opacity:1" d="M 267.882,780.985 267.882,732.118 z" id="boundary" inkscape:connector-curvature="0" />
	<path style="fill:none;stroke:red;stroke-width:1px;stroke-linecap:butt;stroke-linejoin:miter;stroke-opacity:1" d="M 267.882,780.985 267.882,829.852 z" id="boundary" inkscape:connector-curvature="0" />
	<path style="fill:none;stroke:red;stroke-width:1px;stroke-linecap:butt;stroke-linejoin:miter;stroke-opacity:1" d="M 346.069,996 297.202,996 z" id="boundary" inkscape:connector-curvature="0" />
	<path style="fill:none;stroke:red;stroke-width:1px;stroke-linecap:butt;stroke-linejoin:miter;stroke-opacity:1" d="M 365.616,4 409.596,28.4335 z" id="boundary" inkscape:connector-curvature="0" />
	<path style="fill:none;stroke:red;stroke-width:1px;stroke-linecap:butt;stroke-linejoin:miter;stroke-opacity:1" d="M 385.163,101.734 409.596,28.4335 z" id="boundary" inkscape:connector-curvature="0" />
	<path style="fill:none;stroke:red;stroke-width:1px;stroke-linecap:butt;stroke-linejoin:miter;stroke-opacity:1" d="M 419.369,140.828 385.163,101.734 z" id="boundary" inkscape:connector-curvature="0" />
	<path style="fill:none;stroke:red;stroke-width:1px;stroke-linecap:butt;stroke-linejoin:miter;stroke-opacity:1" d="M 468.236,160.374 419.369,140.828 z" id="boundary" inkscape:connector-curvature="0" />
	<path style="fill:none;stroke:red;stroke-width:1px;stroke-linecap:butt;stroke-linejoin:miter;stroke-opacity:1" d="M 517.103,160.374 468.236,160.374 z" id="boundary" inkscape:connector-curvature="0" />
	<path style="fill:none;stroke:red;stroke-width:1px;stroke-linecap:butt;stroke-linejoin:miter;stroke-opacity:1" d="M 517.103,160.374 565.97,160.374 z" id="boundary" inkscape:connector-curvature="0" />
	<path style="fill:none;stroke:red;stroke-width:1px;stroke-linecap:butt;stroke-linejoin:miter;stroke-opacity:1" d="M 575.744,375.389 605.064,326.522 z" id="boundary" inkscape:connector-curvature="0" />
	<path style="fill:none;stroke:red;stroke-width:1px;stroke-linecap:butt;stroke-linejoin:miter;stroke-opacity:1" d="M 605.064,326.522 653.931,311.862 z" id="boundary" inkscape:connector-curvature="0" />
	<path style="fill:none;stroke:red;stroke-width:1px;stroke-linecap:butt;stroke-linejoin:miter;stroke-opacity:1" d="M 565.97,160.374 614.837,160.374 z" id="boundary" inkscape:connector-curvature="0" />
	<path style="fill:none;stroke:red;stroke-width:1px;stroke-linecap:butt;stroke-linejoin:miter;stroke-opacity:1" d="M 575.744,375.389 536.65,404.709 z" id="boundary" inkscape:connector-curvature="0" />
	<path style="fill:none;stroke:red;stroke-width:1px;stroke-linecap:butt;stroke-linejoin:miter;stroke-opacity:1" d="M 614.837,160.374 663.704,160.374 z" id="boundary" inkscape:connector-curvature="0" />
	<path style="fill:none;stroke:red;stroke-width:1px;stroke-linecap:butt;stroke-linejoin:miter;stroke-opacity:1" d="M 712.571,160.374 741.892,199.468 z" id="boundary" inkscape:connector-curvature="0" />
	<path style="fill:none;stroke:red;stroke-width:1px;stroke-linecap:butt;stroke-linejoin:miter;stroke-opacity:1" d="M 663.704,160.374 712.571,160.374 z" id="boundary" inkscape:connector-curvature="0" />
	<path style="fill:none;stroke:red;stroke-width:1px;stroke-linecap:butt;stroke-linejoin:miter;stroke-opacity:1" d="M 741.892,199.468 741.892,248.335 z" id="boundary" inkscape:connector-curvature="0" />
	<path style="fill:none;stroke:red;stroke-width:1px;stroke-linecap:butt;stroke-linejoin:miter;stroke-opacity:1" d="M 653.931,311.862 702.798,311.862 z" id="boundary" inkscape:connector-curvature="0" />
	<path style="fill:none;stroke:red;stroke-width:1px;stroke-linecap:butt;stroke-linejoin:miter;stroke-opacity:1" d="M 741.892,248.335 751.665,297.202 z" id="boundary" inkscape:connector-curvature="0" />
	<path style="fill:none;stroke:red;stroke-width:1px;stroke-linecap:butt;stroke-linejoin:miter;stroke-opacity:1" d="M 751.665,297.202 702.798,311.862 z" id="boundary" inkscape:connector-curvature="0" />
	<path style="fill:none;stroke:red;stroke-width:1px;stroke-linecap:butt;stroke-linejoin:miter;stroke-opacity:1" d="M 448.69,502.443 448.69,551.31 z" id="boundary" inkscape:connector-curvature="0" />
	<path style="fill:none;stroke:red;stroke-width:1px;stroke-linecap:butt;stroke-linejoin:miter;stroke-opacity:1" d="M 448.69,502.443 448.69,453.576 z" id="boundary" inkscape:connector-curvature="0" />
	<path style="fill:none;stroke:red;stroke-width:1px;stroke-linecap:butt;stroke-linejoin:miter;stroke-opacity:1" d="M 448.69,453.576 497.557,434.03 z" id="boundary" inkscape:connector-curvature="0" />
	<path style="fill:none;stroke:red;stroke-width:1px;stroke-linecap:butt;stroke-linejoin:miter;stroke-opacity:1" d="M 448.69,600.177 448.69,649.044 z" id="boundary" inkscape:connector-curvature="0" />
	<path style="fill:none;stroke:red;stroke-width:1px;stroke-linecap:butt;stroke-linejoin:miter;stroke-opacity:1" d="M 448.69,600.177 448.69,551.31 z" id="boundary" inkscape:connector-curvature="0" />
	<path style="fill:none;stroke:red;stroke-width:1px;stroke-linecap:butt;stroke-linejoin:miter;stroke-opacity:1" d="M 443.803,996 394.936,996 z" id="boundary" inkscape:connector-curvature="0" />
	<path style="fill:none;stroke:red;stroke-width:1px;stroke-linecap:butt;stroke-linejoin:miter;stroke-opacity:1" d="M 448.69,697.911 448.69,746.778 z" id="boundary" inkscape:connector-curvature="0" />
	<path style="fill:none;stroke:red;stroke-width:1px;stroke-linecap:butt;stroke-linejoin:miter;stroke-opacity:1" d="M 448.69,649.044 448.69,697.911 z" id="boundary" inkscape:connector-curvature="0" />
	<path style="fill:none;stroke:red;stroke-width:1px;stroke-linecap:butt;stroke-linejoin:miter;stroke-opacity:1" d="M 448.69,746.778 448.69,795.645 z" id="boundary" inkscape:connector-curvature="0" />
	<path style="fill:none;stroke:red;stroke-width:1px;stroke-linecap:butt;stroke-linejoin:miter;stroke-opacity:1" d="M 448.69,795.645 448.69,844.512 z" id="boundary" inkscape:connector-curvature="0" />
	<path style="fill:none;stroke:red;stroke-width:1px;stroke-linecap:butt;stroke-linejoin:miter;stroke-opacity:1" d="M 497.557,434.03 536.65,404.709 z" id="boundary" inkscape:connector-curvature="0" />
	<path style="fill:none;stroke:red;stroke-width:1px;stroke-linecap:butt;stroke-linejoin:miter;stroke-opacity:1" d="M 463.35,893.379 487.783,937.36 z" id="boundary" inkscape:connector-curvature="0" />
	<path style="fill:none;stroke:red;stroke-width:1px;stroke-linecap:butt;stroke-linejoin:miter;stroke-opacity:1" d="M 463.35,893.379 448.69,844.512 z" id="boundary" inkscape:connector-curvature="0" />
	<path style="fill:none;stroke:red;stroke-width:1px;stroke-linecap:butt;stroke-linejoin:miter;stroke-opacity:1" d="M 492.67,996 443.803,996 z" id="boundary" inkscape:connector-curvature="0" />
	<path style="fill:none;stroke:red;stroke-width:1px;stroke-linecap:butt;stroke-linejoin:miter;stroke-opacity:1" d="M 487.783,937.36 492.67,996 z" id="boundary" inkscape:connector-curvature="0" />
	<path style="fill:none;stroke:red;stroke-width:1px;stroke-linecap:butt;stroke-linejoin:miter;stroke-opacity:1" d="M 394.936,996 346.069,996 z" id="boundary" inkscape:connector-curvature="0" />
	<path style="fill:none;stroke:red;stroke-width:1px;stroke-linecap:butt;stroke-linejoin:miter;stroke-opacity:1" d="M 751.665,297.202 492.67,996 z" id="boundary" inkscape:connector-curvature="0" />
	<circle cx="4" cy="287.429" r="4" fill="#0" id="circle0"/>
	<circle cx="43.0936" cy="209.241" r="4" fill="#0" id="circle1"/>
	<circle cx="47.9803" cy="311.862" r="4" fill="#0" id="circle2"/>
	<circle cx="52.867" cy="160.374" r="4" fill="#0" id="circle3"/>
	<circle cx="96.8473" cy="311.862" r="4" fill="#0" id="circle4"/>
	<circle cx="101.734" cy="160.374" r="4" fill="#0" id="circle5"/>
	<circle cx="140.828" cy="336.296" r="4" fill="#0" id="circle6"/>
	<circle cx="150.601" cy="160.374" r="4" fill="#0" id="circle7"/>
	<circle cx="170.148" cy="375.389" r="4" fill="#0" id="circle8"/>
	<circle cx="199.468" cy="160.374" r="4" fill="#0" id="circle9"/>
	<circle cx="209.241" cy="409.596" r="4" fill="#0" id="circle10"/>
	<circle cx="209.241" cy="961.793" r="4" fill="#0" id="circle11"/>
	<circle cx="238.562" cy="922.7" r="4" fill="#0" id="circle12"/>
	<circle cx="248.335" cy="160.374" r="4" fill="#0" id="circle13"/>
	<circle cx="248.335" cy="438.916" r="4" fill="#0" id="circle14"/>
	<circle cx="248.335" cy="996" r="4" fill="#0" id="circle15"/>
	<circle cx="262.995" cy="878.719" r="4" fill="#0" id="circle16"/>
	<circle cx="267.882" cy="487.783" r="4" fill="#0" id="circle17"/>
	<circle cx="267.882" cy="536.65" r="4" fill="#0" id="circle18"/>
	<circle cx="267.882" cy="585.517" r="4" fill="#0" id="circle19"/>
	<circle cx="267.882" cy="634.384" r="4" fill="#0" id="circle20"/>
	<circle cx="267.882" cy="683.251" r="4" fill="#0" id="circle21"/>
	<circle cx="267.882" cy="732.118" r="4" fill="#0" id="circle22"/>
	<circle cx="267.882" cy="780.985" r="4" fill="#0" id="circle23"/>
	<circle cx="267.882" cy="829.852" r="4" fill="#0" id="circle24"/>
	<circle cx="297.202" cy="160.374" r="4" fill="#0" id="circle25"/>
	<circle cx="297.202" cy="996" r="4" fill="#0" id="circle26"/>
	<circle cx="346.069" cy="160.374" r="4" fill="#0" id="circle27"/>
	<circle cx="346.069" cy="996" r="4" fill="#0" id="circle28"/>
	<circle cx="355.842" cy="62.6404" r="4" fill="#0" id="circle29"/>
	<circle cx="365.616" cy="4" r="4" fill="#0" id="circle30"/>
	<circle cx="385.163" cy="101.734" r="4" fill="#0" id="circle31"/>
	<circle cx="394.936" cy="996" r="4" fill="#0" id="circle32"/>
	<circle cx="409.596" cy="28.4335" r="4" fill="#0" id="circle33"/>
	<circle cx="419.369" cy="140.828" r="4" fill="#0" id="circle34"/>
	<circle cx="443.803" cy="996" r="4" fill="#0" id="circle35"/>
	<circle cx="448.69" cy="453.576" r="4" fill="#0" id="circle36"/>
	<circle cx="448.69" cy="502.443" r="4" fill="#0" id="circle37"/>
	<circle cx="448.69" cy="551.31" r="4" fill="#0" id="circle38"/>
	<circle cx="448.69" cy="600.177" r="4" fill="#0" id="circle39"/>
	<circle cx="448.69" cy="649.044" r="4" fill="#0" id="circle40"/>
	<circle cx="448.69" cy="697.911" r="4" fill="#0" id="circle41"/>
	<circle cx="448.69" cy="746.778" r="4" fill="#0" id="circle42"/>
	<circle cx="448.69" cy="795.645" r="4" fill="#0" id="circle43"/>
	<circle cx="448.69" cy="844.512" r="4" fill="#0" id="circle44"/>
	<circle cx="463.35" cy="893.379" r="4" fill="#0" id="circle45"/>
	<circle cx="468.236" cy="160.374" r="4" fill="#0" id="circle46"/>
	<circle cx="487.783" cy="937.36" r="4" fill="#0" id="circle47"/>
	<circle cx="492.67" cy="996" r="4" fill="#0" id="circle48"/>
	<circle cx="497.557" cy="434.03" r="4" fill="#0" id="circle49"/>
	<circle cx="517.103" cy="160.374" r="4" fill="#0" id="circle50"/>
	<circle cx="536.65" cy="404.709" r="4" fill="#0" id="circle51"/>
	<circle cx="565.97" cy="160.374" r="4" fill="#0" id="circle52"/>
	<circle cx="575.744" cy="375.389" r="4" fill="#0" id="circle53"/>
	<circle cx="605.064" cy="326.522" r="4" fill="#0" id="circle54"/>
	<circle cx="614.837" cy="160.374" r="4" fill="#0" id="circle55"/>
	<circle cx="653.931" cy="311.862" r="4" fill="#0" id="circle56"/>
	<circle cx="663.704" cy="160.374" r="4" fill="#0" id="circle57"/>
	<circle cx="702.798" cy="311.862" r="4" fill="#0" id="circle58"/>
	<circle cx="712.571" cy="160.374" r="4" fill="#0" id="circle59"/>
	<circle cx="741.892" cy="199.468" r="4" fill="#0" id="circle60"/>
	<circle cx="741.892" cy="248.335" r="4" fill="#0" id="circle61"/>
	<circle cx="751.665" cy="297.202" r="4" fill="#0" id="circle62"/>
	</g>
</svg>