<?xml version="1.0" encoding="UTF-8" standalone="no"?>
<!-- Created with CurveBenchmark -->
<svg
	xmlns:dc="http://purl.org/dc/elements/1.1/"
	xmlns:cc="http://creativecommons.org/ns#"
	xmlns:rdf="http://www.w3.org/1999/02/22-rdf-syntax-ns#"
	xmlns:svg="http://www.w3.org/2000/svg"
	xmlns="http://www.w3.org/2000/svg"
	xmlns:sodipodi="http://sodipodi.sourceforge.net/DTD/sodipodi-0.dtd"
	xmlns:inkscape="http://www.inkscape.org/namespaces/inkscape"
	width="1000"
	height="1000"
	id="svg2"
	version="1.1"
	sodipodi:docname="manifold/nncrust-fish170.png.txt">
<defs
	id="defs4" />
<metadata
	id="metadata7">
	<rdf:RDF>
		<cc:Work
			rdf:about="">
			<dc:format>image/svg+xml</dc:format>
			<dc:type
				rdf:resource="http://purl.org/dc/dcmitype/StillImage" />
			<dc:title></dc:title>
		</cc:Work>
	</rdf:RDF>
</metadata>
<g
	inkscape:label="Layer 1"
	inkscape:groupmode="layer"
	id="layer1">
	<path style="fill:none;stroke:red;stroke-width:1px;stroke-linecap:butt;stroke-linejoin:miter;stroke-opacity:1" d="M 12.4545,156.182 4,128 z" id="boundary" inkscape:connector-curvature="0" />
	<path style="fill:none;stroke:red;stroke-width:1px;stroke-linecap:butt;stroke-linejoin:miter;stroke-opacity:1" d="M 4,128 32.1818,116.727 z" id="boundary" inkscape:connector-curvature="0" />
	<path style="fill:none;stroke:red;stroke-width:1px;stroke-linecap:butt;stroke-linejoin:miter;stroke-opacity:1" d="M 32.1818,116.727 60.3636,122.364 z" id="boundary" inkscape:connector-curvature="0" />
	<path style="fill:none;stroke:red;stroke-width:1px;stroke-linecap:butt;stroke-linejoin:miter;stroke-opacity:1" d="M 88.5455,133.636 60.3636,122.364 z" id="boundary" inkscape:connector-curvature="0" />
	<path style="fill:none;stroke:red;stroke-width:1px;stroke-linecap:butt;stroke-linejoin:miter;stroke-opacity:1" d="M 116.727,144.909 88.5455,133.636 z" id="boundary" inkscape:connector-curvature="0" />
	<path style="fill:none;stroke:red;stroke-width:1px;stroke-linecap:butt;stroke-linejoin:miter;stroke-opacity:1" d="M 12.4545,156.182 20.9091,184.364 z" id="boundary" inkscape:connector-curvature="0" />
	<path style="fill:none;stroke:red;stroke-width:1px;stroke-linecap:butt;stroke-linejoin:miter;stroke-opacity:1" d="M 26.5455,212.545 20.9091,184.364 z" id="boundary" inkscape:connector-curvature="0" />
	<path style="fill:none;stroke:red;stroke-width:1px;stroke-linecap:butt;stroke-linejoin:miter;stroke-opacity:1" d="M 223.818,156.182 198.455,178.727 z" id="boundary" inkscape:connector-curvature="0" />
	<path style="fill:none;stroke:red;stroke-width:1px;stroke-linecap:butt;stroke-linejoin:miter;stroke-opacity:1" d="M 198.455,178.727 170.273,170.273 z" id="boundary" inkscape:connector-curvature="0" />
	<path style="fill:none;stroke:red;stroke-width:1px;stroke-linecap:butt;stroke-linejoin:miter;stroke-opacity:1" d="M 170.273,170.273 144.909,156.182 z" id="boundary" inkscape:connector-curvature="0" />
	<path style="fill:none;stroke:red;stroke-width:1px;stroke-linecap:butt;stroke-linejoin:miter;stroke-opacity:1" d="M 116.727,144.909 144.909,156.182 z" id="boundary" inkscape:connector-curvature="0" />
	<path style="fill:none;stroke:red;stroke-width:1px;stroke-linecap:butt;stroke-linejoin:miter;stroke-opacity:1" d="M 26.5455,212.545 26.5455,240.727 z" id="boundary" inkscape:connector-curvature="0" />
	<path style="fill:none;stroke:red;stroke-width:1px;stroke-linecap:butt;stroke-linejoin:miter;stroke-opacity:1" d="M 314,77.2727 342.182,71.6364 z" id="boundary" inkscape:connector-curvature="0" />
	<path style="fill:none;stroke:red;stroke-width:1px;stroke-linecap:butt;stroke-linejoin:miter;stroke-opacity:1" d="M 342.182,71.6364 370.364,80.0909 z" id="boundary" inkscape:connector-curvature="0" />
	<path style="fill:none;stroke:red;stroke-width:1px;stroke-linecap:butt;stroke-linejoin:miter;stroke-opacity:1" d="M 474.636,63.1818 449.273,77.2727 z" id="boundary" inkscape:connector-curvature="0" />
	<path style="fill:none;stroke:red;stroke-width:1px;stroke-linecap:butt;stroke-linejoin:miter;stroke-opacity:1" d="M 500,350.636 471.818,345 z" id="boundary" inkscape:connector-curvature="0" />
	<path style="fill:none;stroke:red;stroke-width:1px;stroke-linecap:butt;stroke-linejoin:miter;stroke-opacity:1" d="M 398.545,91.3636 370.364,80.0909 z" id="boundary" inkscape:connector-curvature="0" />
	<path style="fill:none;stroke:red;stroke-width:1px;stroke-linecap:butt;stroke-linejoin:miter;stroke-opacity:1" d="M 500,49.0909 474.636,63.1818 z" id="boundary" inkscape:connector-curvature="0" />
	<path style="fill:none;stroke:red;stroke-width:1px;stroke-linecap:butt;stroke-linejoin:miter;stroke-opacity:1" d="M 291.455,94.1818 314,77.2727 z" id="boundary" inkscape:connector-curvature="0" />
	<path style="fill:none;stroke:red;stroke-width:1px;stroke-linecap:butt;stroke-linejoin:miter;stroke-opacity:1" d="M 223.818,156.182 246.364,133.636 z" id="boundary" inkscape:connector-curvature="0" />
	<path style="fill:none;stroke:red;stroke-width:1px;stroke-linecap:butt;stroke-linejoin:miter;stroke-opacity:1" d="M 268.909,111.091 246.364,133.636 z" id="boundary" inkscape:connector-curvature="0" />
	<path style="fill:none;stroke:red;stroke-width:1px;stroke-linecap:butt;stroke-linejoin:miter;stroke-opacity:1" d="M 426.727,94.1818 398.545,91.3636 z" id="boundary" inkscape:connector-curvature="0" />
	<path style="fill:none;stroke:red;stroke-width:1px;stroke-linecap:butt;stroke-linejoin:miter;stroke-opacity:1" d="M 449.273,77.2727 426.727,94.1818 z" id="boundary" inkscape:connector-curvature="0" />
	<path style="fill:none;stroke:red;stroke-width:1px;stroke-linecap:butt;stroke-linejoin:miter;stroke-opacity:1" d="M 268.909,111.091 291.455,94.1818 z" id="boundary" inkscape:connector-curvature="0" />
	<path style="fill:none;stroke:red;stroke-width:1px;stroke-linecap:butt;stroke-linejoin:miter;stroke-opacity:1" d="M 20.9091,268.909 26.5455,240.727 z" id="boundary" inkscape:connector-curvature="0" />
	<path style="fill:none;stroke:red;stroke-width:1px;stroke-linecap:butt;stroke-linejoin:miter;stroke-opacity:1" d="M 20.9091,268.909 9.63636,308.364 z" id="boundary" inkscape:connector-curvature="0" />
	<path style="fill:none;stroke:red;stroke-width:1px;stroke-linecap:butt;stroke-linejoin:miter;stroke-opacity:1" d="M 159,285.818 184.364,271.727 z" id="boundary" inkscape:connector-curvature="0" />
	<path style="fill:none;stroke:red;stroke-width:1px;stroke-linecap:butt;stroke-linejoin:miter;stroke-opacity:1" d="M 159,285.818 133.636,299.909 z" id="boundary" inkscape:connector-curvature="0" />
	<path style="fill:none;stroke:red;stroke-width:1px;stroke-linecap:butt;stroke-linejoin:miter;stroke-opacity:1" d="M 212.545,271.727 184.364,271.727 z" id="boundary" inkscape:connector-curvature="0" />
	<path style="fill:none;stroke:red;stroke-width:1px;stroke-linecap:butt;stroke-linejoin:miter;stroke-opacity:1" d="M 51.9091,333.727 23.7273,333.727 z" id="boundary" inkscape:connector-curvature="0" />
	<path style="fill:none;stroke:red;stroke-width:1px;stroke-linecap:butt;stroke-linejoin:miter;stroke-opacity:1" d="M 23.7273,333.727 9.63636,308.364 z" id="boundary" inkscape:connector-curvature="0" />
	<path style="fill:none;stroke:red;stroke-width:1px;stroke-linecap:butt;stroke-linejoin:miter;stroke-opacity:1" d="M 80.0909,325.273 51.9091,333.727 z" id="boundary" inkscape:connector-curvature="0" />
	<path style="fill:none;stroke:red;stroke-width:1px;stroke-linecap:butt;stroke-linejoin:miter;stroke-opacity:1" d="M 108.273,316.818 80.0909,325.273 z" id="boundary" inkscape:connector-curvature="0" />
	<path style="fill:none;stroke:red;stroke-width:1px;stroke-linecap:butt;stroke-linejoin:miter;stroke-opacity:1" d="M 108.273,316.818 133.636,299.909 z" id="boundary" inkscape:connector-curvature="0" />
	<path style="fill:none;stroke:red;stroke-width:1px;stroke-linecap:butt;stroke-linejoin:miter;stroke-opacity:1" d="M 212.545,271.727 223.818,299.909 z" id="boundary" inkscape:connector-curvature="0" />
	<path style="fill:none;stroke:red;stroke-width:1px;stroke-linecap:butt;stroke-linejoin:miter;stroke-opacity:1" d="M 223.818,299.909 229.455,328.091 z" id="boundary" inkscape:connector-curvature="0" />
	<path style="fill:none;stroke:red;stroke-width:1px;stroke-linecap:butt;stroke-linejoin:miter;stroke-opacity:1" d="M 359.091,345 387.273,339.364 z" id="boundary" inkscape:connector-curvature="0" />
	<path style="fill:none;stroke:red;stroke-width:1px;stroke-linecap:butt;stroke-linejoin:miter;stroke-opacity:1" d="M 387.273,339.364 415.455,345 z" id="boundary" inkscape:connector-curvature="0" />
	<path style="fill:none;stroke:red;stroke-width:1px;stroke-linecap:butt;stroke-linejoin:miter;stroke-opacity:1" d="M 330.909,356.273 359.091,345 z" id="boundary" inkscape:connector-curvature="0" />
	<path style="fill:none;stroke:red;stroke-width:1px;stroke-linecap:butt;stroke-linejoin:miter;stroke-opacity:1" d="M 274.545,361.909 246.364,350.636 z" id="boundary" inkscape:connector-curvature="0" />
	<path style="fill:none;stroke:red;stroke-width:1px;stroke-linecap:butt;stroke-linejoin:miter;stroke-opacity:1" d="M 246.364,350.636 229.455,328.091 z" id="boundary" inkscape:connector-curvature="0" />
	<path style="fill:none;stroke:red;stroke-width:1px;stroke-linecap:butt;stroke-linejoin:miter;stroke-opacity:1" d="M 302.727,361.909 274.545,361.909 z" id="boundary" inkscape:connector-curvature="0" />
	<path style="fill:none;stroke:red;stroke-width:1px;stroke-linecap:butt;stroke-linejoin:miter;stroke-opacity:1" d="M 415.455,345 443.636,345 z" id="boundary" inkscape:connector-curvature="0" />
	<path style="fill:none;stroke:red;stroke-width:1px;stroke-linecap:butt;stroke-linejoin:miter;stroke-opacity:1" d="M 330.909,356.273 302.727,361.909 z" id="boundary" inkscape:connector-curvature="0" />
	<path style="fill:none;stroke:red;stroke-width:1px;stroke-linecap:butt;stroke-linejoin:miter;stroke-opacity:1" d="M 443.636,345 471.818,345 z" id="boundary" inkscape:connector-curvature="0" />
	<path style="fill:none;stroke:red;stroke-width:1px;stroke-linecap:butt;stroke-linejoin:miter;stroke-opacity:1" d="M 525.364,35 550.727,20.9091 z" id="boundary" inkscape:connector-curvature="0" />
	<path style="fill:none;stroke:red;stroke-width:1px;stroke-linecap:butt;stroke-linejoin:miter;stroke-opacity:1" d="M 550.727,20.9091 578.909,15.2727 z" id="boundary" inkscape:connector-curvature="0" />
	<path style="fill:none;stroke:red;stroke-width:1px;stroke-linecap:butt;stroke-linejoin:miter;stroke-opacity:1" d="M 607.091,4 578.909,15.2727 z" id="boundary" inkscape:connector-curvature="0" />
	<path style="fill:none;stroke:red;stroke-width:1px;stroke-linecap:butt;stroke-linejoin:miter;stroke-opacity:1" d="M 607.091,4 635.273,4 z" id="boundary" inkscape:connector-curvature="0" />
	<path style="fill:none;stroke:red;stroke-width:1px;stroke-linecap:butt;stroke-linejoin:miter;stroke-opacity:1" d="M 663.455,12.4545 677.545,37.8182 z" id="boundary" inkscape:connector-curvature="0" />
	<path style="fill:none;stroke:red;stroke-width:1px;stroke-linecap:butt;stroke-linejoin:miter;stroke-opacity:1" d="M 635.273,4 663.455,12.4545 z" id="boundary" inkscape:connector-curvature="0" />
	<path style="fill:none;stroke:red;stroke-width:1px;stroke-linecap:butt;stroke-linejoin:miter;stroke-opacity:1" d="M 500,49.0909 525.364,35 z" id="boundary" inkscape:connector-curvature="0" />
	<path style="fill:none;stroke:red;stroke-width:1px;stroke-linecap:butt;stroke-linejoin:miter;stroke-opacity:1" d="M 702.909,85.7273 705.727,49.0909 z" id="boundary" inkscape:connector-curvature="0" />
	<path style="fill:none;stroke:red;stroke-width:1px;stroke-linecap:butt;stroke-linejoin:miter;stroke-opacity:1" d="M 728.273,99.8182 702.909,85.7273 z" id="boundary" inkscape:connector-curvature="0" />
	<path style="fill:none;stroke:red;stroke-width:1px;stroke-linecap:butt;stroke-linejoin:miter;stroke-opacity:1" d="M 677.545,37.8182 705.727,49.0909 z" id="boundary" inkscape:connector-curvature="0" />
	<path style="fill:none;stroke:red;stroke-width:1px;stroke-linecap:butt;stroke-linejoin:miter;stroke-opacity:1" d="M 756.455,99.8182 728.273,99.8182 z" id="boundary" inkscape:connector-curvature="0" />
	<path style="fill:none;stroke:red;stroke-width:1px;stroke-linecap:butt;stroke-linejoin:miter;stroke-opacity:1" d="M 784.636,111.091 756.455,99.8182 z" id="boundary" inkscape:connector-curvature="0" />
	<path style="fill:none;stroke:red;stroke-width:1px;stroke-linecap:butt;stroke-linejoin:miter;stroke-opacity:1" d="M 812.818,122.364 841,128 z" id="boundary" inkscape:connector-curvature="0" />
	<path style="fill:none;stroke:red;stroke-width:1px;stroke-linecap:butt;stroke-linejoin:miter;stroke-opacity:1" d="M 812.818,122.364 784.636,111.091 z" id="boundary" inkscape:connector-curvature="0" />
	<path style="fill:none;stroke:red;stroke-width:1px;stroke-linecap:butt;stroke-linejoin:miter;stroke-opacity:1" d="M 869.182,139.273 841,128 z" id="boundary" inkscape:connector-curvature="0" />
	<path style="fill:none;stroke:red;stroke-width:1px;stroke-linecap:butt;stroke-linejoin:miter;stroke-opacity:1" d="M 894.545,153.364 922.727,161.818 z" id="boundary" inkscape:connector-curvature="0" />
	<path style="fill:none;stroke:red;stroke-width:1px;stroke-linecap:butt;stroke-linejoin:miter;stroke-opacity:1" d="M 894.545,153.364 869.182,139.273 z" id="boundary" inkscape:connector-curvature="0" />
	<path style="fill:none;stroke:red;stroke-width:1px;stroke-linecap:butt;stroke-linejoin:miter;stroke-opacity:1" d="M 948.091,175.909 922.727,161.818 z" id="boundary" inkscape:connector-curvature="0" />
	<path style="fill:none;stroke:red;stroke-width:1px;stroke-linecap:butt;stroke-linejoin:miter;stroke-opacity:1" d="M 973.455,190 996,206.909 z" id="boundary" inkscape:connector-curvature="0" />
	<path style="fill:none;stroke:red;stroke-width:1px;stroke-linecap:butt;stroke-linejoin:miter;stroke-opacity:1" d="M 996,206.909 979.091,232.273 z" id="boundary" inkscape:connector-curvature="0" />
	<path style="fill:none;stroke:red;stroke-width:1px;stroke-linecap:butt;stroke-linejoin:miter;stroke-opacity:1" d="M 948.091,175.909 973.455,190 z" id="boundary" inkscape:connector-curvature="0" />
	<path style="fill:none;stroke:red;stroke-width:1px;stroke-linecap:butt;stroke-linejoin:miter;stroke-opacity:1" d="M 979.091,232.273 956.545,254.818 z" id="boundary" inkscape:connector-curvature="0" />
	<path style="fill:none;stroke:red;stroke-width:1px;stroke-linecap:butt;stroke-linejoin:miter;stroke-opacity:1" d="M 500,350.636 528.182,350.636 z" id="boundary" inkscape:connector-curvature="0" />
	<path style="fill:none;stroke:red;stroke-width:1px;stroke-linecap:butt;stroke-linejoin:miter;stroke-opacity:1" d="M 556.364,350.636 556.364,378.818 z" id="boundary" inkscape:connector-curvature="0" />
	<path style="fill:none;stroke:red;stroke-width:1px;stroke-linecap:butt;stroke-linejoin:miter;stroke-opacity:1" d="M 528.182,350.636 556.364,350.636 z" id="boundary" inkscape:connector-curvature="0" />
	<path style="fill:none;stroke:red;stroke-width:1px;stroke-linecap:butt;stroke-linejoin:miter;stroke-opacity:1" d="M 556.364,407 556.364,378.818 z" id="boundary" inkscape:connector-curvature="0" />
	<path style="fill:none;stroke:red;stroke-width:1px;stroke-linecap:butt;stroke-linejoin:miter;stroke-opacity:1" d="M 474.636,63.1818 556.364,350.636 z" id="boundary" inkscape:connector-curvature="0" />
	<path style="fill:none;stroke:red;stroke-width:1px;stroke-linecap:butt;stroke-linejoin:miter;stroke-opacity:1" d="M 556.364,407 562,435.182 z" id="boundary" inkscape:connector-curvature="0" />
	<path style="fill:none;stroke:red;stroke-width:1px;stroke-linecap:butt;stroke-linejoin:miter;stroke-opacity:1" d="M 612.727,454.909 584.545,454.909 z" id="boundary" inkscape:connector-curvature="0" />
	<path style="fill:none;stroke:red;stroke-width:1px;stroke-linecap:butt;stroke-linejoin:miter;stroke-opacity:1" d="M 584.545,454.909 562,435.182 z" id="boundary" inkscape:connector-curvature="0" />
	<path style="fill:none;stroke:red;stroke-width:1px;stroke-linecap:butt;stroke-linejoin:miter;stroke-opacity:1" d="M 663.455,435.182 640.909,452.091 z" id="boundary" inkscape:connector-curvature="0" />
	<path style="fill:none;stroke:red;stroke-width:1px;stroke-linecap:butt;stroke-linejoin:miter;stroke-opacity:1" d="M 640.909,452.091 612.727,454.909 z" id="boundary" inkscape:connector-curvature="0" />
	<path style="fill:none;stroke:red;stroke-width:1px;stroke-linecap:butt;stroke-linejoin:miter;stroke-opacity:1" d="M 663.455,435.182 683.182,409.818 z" id="boundary" inkscape:connector-curvature="0" />
	<path style="fill:none;stroke:red;stroke-width:1px;stroke-linecap:butt;stroke-linejoin:miter;stroke-opacity:1" d="M 700.091,387.273 683.182,409.818 z" id="boundary" inkscape:connector-curvature="0" />
	<path style="fill:none;stroke:red;stroke-width:1px;stroke-linecap:butt;stroke-linejoin:miter;stroke-opacity:1" d="M 855.091,322.455 883.273,311.182 z" id="boundary" inkscape:connector-curvature="0" />
	<path style="fill:none;stroke:red;stroke-width:1px;stroke-linecap:butt;stroke-linejoin:miter;stroke-opacity:1" d="M 934,277.364 911.455,299.909 z" id="boundary" inkscape:connector-curvature="0" />
	<path style="fill:none;stroke:red;stroke-width:1px;stroke-linecap:butt;stroke-linejoin:miter;stroke-opacity:1" d="M 911.455,299.909 883.273,311.182 z" id="boundary" inkscape:connector-curvature="0" />
	<path style="fill:none;stroke:red;stroke-width:1px;stroke-linecap:butt;stroke-linejoin:miter;stroke-opacity:1" d="M 855.091,322.455 826.909,333.727 z" id="boundary" inkscape:connector-curvature="0" />
	<path style="fill:none;stroke:red;stroke-width:1px;stroke-linecap:butt;stroke-linejoin:miter;stroke-opacity:1" d="M 700.091,387.273 714.182,361.909 z" id="boundary" inkscape:connector-curvature="0" />
	<path style="fill:none;stroke:red;stroke-width:1px;stroke-linecap:butt;stroke-linejoin:miter;stroke-opacity:1" d="M 714.182,361.909 742.364,356.273 z" id="boundary" inkscape:connector-curvature="0" />
	<path style="fill:none;stroke:red;stroke-width:1px;stroke-linecap:butt;stroke-linejoin:miter;stroke-opacity:1" d="M 742.364,356.273 770.545,350.636 z" id="boundary" inkscape:connector-curvature="0" />
	<path style="fill:none;stroke:red;stroke-width:1px;stroke-linecap:butt;stroke-linejoin:miter;stroke-opacity:1" d="M 798.727,345 770.545,350.636 z" id="boundary" inkscape:connector-curvature="0" />
	<path style="fill:none;stroke:red;stroke-width:1px;stroke-linecap:butt;stroke-linejoin:miter;stroke-opacity:1" d="M 798.727,345 826.909,333.727 z" id="boundary" inkscape:connector-curvature="0" />
	<path style="fill:none;stroke:red;stroke-width:1px;stroke-linecap:butt;stroke-linejoin:miter;stroke-opacity:1" d="M 956.545,254.818 934,277.364 z" id="boundary" inkscape:connector-curvature="0" />
	<circle cx="4" cy="128" r="4" fill="#0" id="circle0"/>
	<circle cx="9.63636" cy="308.364" r="4" fill="#0" id="circle1"/>
	<circle cx="12.4545" cy="156.182" r="4" fill="#0" id="circle2"/>
	<circle cx="20.9091" cy="184.364" r="4" fill="#0" id="circle3"/>
	<circle cx="20.9091" cy="268.909" r="4" fill="#0" id="circle4"/>
	<circle cx="23.7273" cy="333.727" r="4" fill="#0" id="circle5"/>
	<circle cx="26.5455" cy="212.545" r="4" fill="#0" id="circle6"/>
	<circle cx="26.5455" cy="240.727" r="4" fill="#0" id="circle7"/>
	<circle cx="32.1818" cy="116.727" r="4" fill="#0" id="circle8"/>
	<circle cx="51.9091" cy="333.727" r="4" fill="#0" id="circle9"/>
	<circle cx="60.3636" cy="122.364" r="4" fill="#0" id="circle10"/>
	<circle cx="80.0909" cy="325.273" r="4" fill="#0" id="circle11"/>
	<circle cx="88.5455" cy="133.636" r="4" fill="#0" id="circle12"/>
	<circle cx="108.273" cy="316.818" r="4" fill="#0" id="circle13"/>
	<circle cx="116.727" cy="144.909" r="4" fill="#0" id="circle14"/>
	<circle cx="133.636" cy="299.909" r="4" fill="#0" id="circle15"/>
	<circle cx="144.909" cy="156.182" r="4" fill="#0" id="circle16"/>
	<circle cx="159" cy="285.818" r="4" fill="#0" id="circle17"/>
	<circle cx="170.273" cy="170.273" r="4" fill="#0" id="circle18"/>
	<circle cx="184.364" cy="271.727" r="4" fill="#0" id="circle19"/>
	<circle cx="198.455" cy="178.727" r="4" fill="#0" id="circle20"/>
	<circle cx="212.545" cy="271.727" r="4" fill="#0" id="circle21"/>
	<circle cx="223.818" cy="156.182" r="4" fill="#0" id="circle22"/>
	<circle cx="223.818" cy="299.909" r="4" fill="#0" id="circle23"/>
	<circle cx="229.455" cy="328.091" r="4" fill="#0" id="circle24"/>
	<circle cx="246.364" cy="133.636" r="4" fill="#0" id="circle25"/>
	<circle cx="246.364" cy="350.636" r="4" fill="#0" id="circle26"/>
	<circle cx="268.909" cy="111.091" r="4" fill="#0" id="circle27"/>
	<circle cx="274.545" cy="361.909" r="4" fill="#0" id="circle28"/>
	<circle cx="291.455" cy="94.1818" r="4" fill="#0" id="circle29"/>
	<circle cx="302.727" cy="361.909" r="4" fill="#0" id="circle30"/>
	<circle cx="314" cy="77.2727" r="4" fill="#0" id="circle31"/>
	<circle cx="330.909" cy="356.273" r="4" fill="#0" id="circle32"/>
	<circle cx="342.182" cy="71.6364" r="4" fill="#0" id="circle33"/>
	<circle cx="359.091" cy="345" r="4" fill="#0" id="circle34"/>
	<circle cx="370.364" cy="80.0909" r="4" fill="#0" id="circle35"/>
	<circle cx="387.273" cy="339.364" r="4" fill="#0" id="circle36"/>
	<circle cx="398.545" cy="91.3636" r="4" fill="#0" id="circle37"/>
	<circle cx="415.455" cy="345" r="4" fill="#0" id="circle38"/>
	<circle cx="426.727" cy="94.1818" r="4" fill="#0" id="circle39"/>
	<circle cx="443.636" cy="345" r="4" fill="#0" id="circle40"/>
	<circle cx="449.273" cy="77.2727" r="4" fill="#0" id="circle41"/>
	<circle cx="471.818" cy="345" r="4" fill="#0" id="circle42"/>
	<circle cx="474.636" cy="63.1818" r="4" fill="#0" id="circle43"/>
	<circle cx="500" cy="49.0909" r="4" fill="#0" id="circle44"/>
	<circle cx="500" cy="350.636" r="4" fill="#0" id="circle45"/>
	<circle cx="525.364" cy="35" r="4" fill="#0" id="circle46"/>
	<circle cx="528.182" cy="350.636" r="4" fill="#0" id="circle47"/>
	<circle cx="550.727" cy="20.9091" r="4" fill="#0" id="circle48"/>
	<circle cx="556.364" cy="350.636" r="4" fill="#0" id="circle49"/>
	<circle cx="556.364" cy="378.818" r="4" fill="#0" id="circle50"/>
	<circle cx="556.364" cy="407" r="4" fill="#0" id="circle51"/>
	<circle cx="562" cy="435.182" r="4" fill="#0" id="circle52"/>
	<circle cx="578.909" cy="15.2727" r="4" fill="#0" id="circle53"/>
	<circle cx="584.545" cy="454.909" r="4" fill="#0" id="circle54"/>
	<circle cx="607.091" cy="4" r="4" fill="#0" id="circle55"/>
	<circle cx="612.727" cy="454.909" r="4" fill="#0" id="circle56"/>
	<circle cx="635.273" cy="4" r="4" fill="#0" id="circle57"/>
	<circle cx="640.909" cy="452.091" r="4" fill="#0" id="circle58"/>
	<circle cx="663.455" cy="12.4545" r="4" fill="#0" id="circle59"/>
	<circle cx="663.455" cy="435.182" r="4" fill="#0" id="circle60"/>
	<circle cx="677.545" cy="37.8182" r="4" fill="#0" id="circle61"/>
	<circle cx="683.182" cy="409.818" r="4" fill="#0" id="circle62"/>
	<circle cx="700.091" cy="387.273" r="4" fill="#0" id="circle63"/>
	<circle cx="702.909" cy="85.7273" r="4" fill="#0" id="circle64"/>
	<circle cx="705.727" cy="49.0909" r="4" fill="#0" id="circle65"/>
	<circle cx="714.182" cy="361.909" r="4" fill="#0" id="circle66"/>
	<circle cx="728.273" cy="99.8182" r="4" fill="#0" id="circle67"/>
	<circle cx="742.364" cy="356.273" r="4" fill="#0" id="circle68"/>
	<circle cx="756.455" cy="99.8182" r="4" fill="#0" id="circle69"/>
	<circle cx="770.545" cy="350.636" r="4" fill="#0" id="circle70"/>
	<circle cx="784.636" cy="111.091" r="4" fill="#0" id="circle71"/>
	<circle cx="798.727" cy="345" r="4" fill="#0" id="circle72"/>
	<circle cx="812.818" cy="122.364" r="4" fill="#0" id="circle73"/>
	<circle cx="826.909" cy="333.727" r="4" fill="#0" id="circle74"/>
	<circle cx="841" cy="128" r="4" fill="#0" id="circle75"/>
	<circle cx="855.091" cy="322.455" r="4" fill="#0" id="circle76"/>
	<circle cx="869.182" cy="139.273" r="4" fill="#0" id="circle77"/>
	<circle cx="883.273" cy="311.182" r="4" fill="#0" id="circle78"/>
	<circle cx="894.545" cy="153.364" r="4" fill="#0" id="circle79"/>
	<circle cx="911.455" cy="299.909" r="4" fill="#0" id="circle80"/>
	<circle cx="922.727" cy="161.818" r="4" fill="#0" id="circle81"/>
	<circle cx="934" cy="277.364" r="4" fill="#0" id="circle82"/>
	<circle cx="948.091" cy="175.909" r="4" fill="#0" id="circle83"/>
	<circle cx="956.545" cy="254.818" r="4" fill="#0" id="circle84"/>
	<circle cx="973.455" cy="190" r="4" fill="#0" id="circle85"/>
	<circle cx="979.091" cy="232.273" r="4" fill="#0" id="circle86"/>
	<circle cx="996" cy="206.909" r="4" fill="#0" id="circle87"/>
	</g>
</svg>