<?xml version="1.0" encoding="UTF-8" standalone="no"?>
<!-- Created with CurveBenchmark -->
<svg
	xmlns:dc="http://purl.org/dc/elements/1.1/"
	xmlns:cc="http://creativecommons.org/ns#"
	xmlns:rdf="http://www.w3.org/1999/02/22-rdf-syntax-ns#"
	xmlns:svg="http://www.w3.org/2000/svg"
	xmlns="http://www.w3.org/2000/svg"
	xmlns:sodipodi="http://sodipodi.sourceforge.net/DTD/sodipodi-0.dtd"
	xmlns:inkscape="http://www.inkscape.org/namespaces/inkscape"
	width="1000"
	height="1000"
	id="svg2"
	version="1.1"
	sodipodi:docname="manifold/nncrust-hammer-17.png.txt">
<defs
	id="defs4" />
<metadata
	id="metadata7">
	<rdf:RDF>
		<cc:Work
			rdf:about="">
			<dc:format>image/svg+xml</dc:format>
			<dc:type
				rdf:resource="http://purl.org/dc/dcmitype/StillImage" />
			<dc:title></dc:title>
		</cc:Work>
	</rdf:RDF>
</metadata>
<g
	inkscape:label="Layer 1"
	inkscape:groupmode="layer"
	id="layer1">
	<path style="fill:none;stroke:red;stroke-width:1px;stroke-linecap:butt;stroke-linejoin:miter;stroke-opacity:1" d="M 49.0454,112.109 57.0535,104.101 z" id="boundary" inkscape:connector-curvature="0" />
	<path style="fill:none;stroke:red;stroke-width:1px;stroke-linecap:butt;stroke-linejoin:miter;stroke-opacity:1" d="M 65.0616,96.0928 57.0535,104.101 z" id="boundary" inkscape:connector-curvature="0" />
	<path style="fill:none;stroke:red;stroke-width:1px;stroke-linecap:butt;stroke-linejoin:miter;stroke-opacity:1" d="M 73.0696,89.0858 77.0737,79.0757 z" id="boundary" inkscape:connector-curvature="0" />
	<path style="fill:none;stroke:red;stroke-width:1px;stroke-linecap:butt;stroke-linejoin:miter;stroke-opacity:1" d="M 77.0737,79.0757 86.0827,74.0706 z" id="boundary" inkscape:connector-curvature="0" />
	<path style="fill:none;stroke:red;stroke-width:1px;stroke-linecap:butt;stroke-linejoin:miter;stroke-opacity:1" d="M 73.0696,89.0858 65.0616,96.0928 z" id="boundary" inkscape:connector-curvature="0" />
	<path style="fill:none;stroke:red;stroke-width:1px;stroke-linecap:butt;stroke-linejoin:miter;stroke-opacity:1" d="M 24.0202,152.149 32.0283,144.141 z" id="boundary" inkscape:connector-curvature="0" />
	<path style="fill:none;stroke:red;stroke-width:1px;stroke-linecap:butt;stroke-linejoin:miter;stroke-opacity:1" d="M 37.0333,134.131 32.0283,144.141 z" id="boundary" inkscape:connector-curvature="0" />
	<path style="fill:none;stroke:red;stroke-width:1px;stroke-linecap:butt;stroke-linejoin:miter;stroke-opacity:1" d="M 42.0383,124.121 49.0454,112.109 z" id="boundary" inkscape:connector-curvature="0" />
	<path style="fill:none;stroke:red;stroke-width:1px;stroke-linecap:butt;stroke-linejoin:miter;stroke-opacity:1" d="M 42.0383,124.121 37.0333,134.131 z" id="boundary" inkscape:connector-curvature="0" />
	<path style="fill:none;stroke:red;stroke-width:1px;stroke-linecap:butt;stroke-linejoin:miter;stroke-opacity:1" d="M 124.121,52.0484 134.131,47.0434 z" id="boundary" inkscape:connector-curvature="0" />
	<path style="fill:none;stroke:red;stroke-width:1px;stroke-linecap:butt;stroke-linejoin:miter;stroke-opacity:1" d="M 134.131,47.0434 144.141,44.0404 z" id="boundary" inkscape:connector-curvature="0" />
	<path style="fill:none;stroke:red;stroke-width:1px;stroke-linecap:butt;stroke-linejoin:miter;stroke-opacity:1" d="M 153.15,39.0353 144.141,44.0404 z" id="boundary" inkscape:connector-curvature="0" />
	<path style="fill:none;stroke:red;stroke-width:1px;stroke-linecap:butt;stroke-linejoin:miter;stroke-opacity:1" d="M 114.111,57.0535 124.121,52.0484 z" id="boundary" inkscape:connector-curvature="0" />
	<path style="fill:none;stroke:red;stroke-width:1px;stroke-linecap:butt;stroke-linejoin:miter;stroke-opacity:1" d="M 86.0827,74.0706 94.0908,67.0636 z" id="boundary" inkscape:connector-curvature="0" />
	<path style="fill:none;stroke:red;stroke-width:1px;stroke-linecap:butt;stroke-linejoin:miter;stroke-opacity:1" d="M 94.0908,67.0636 104.101,62.0585 z" id="boundary" inkscape:connector-curvature="0" />
	<path style="fill:none;stroke:red;stroke-width:1px;stroke-linecap:butt;stroke-linejoin:miter;stroke-opacity:1" d="M 104.101,62.0585 114.111,57.0535 z" id="boundary" inkscape:connector-curvature="0" />
	<path style="fill:none;stroke:red;stroke-width:1px;stroke-linecap:butt;stroke-linejoin:miter;stroke-opacity:1" d="M 115.112,155.152 105.102,155.152 z" id="boundary" inkscape:connector-curvature="0" />
	<path style="fill:none;stroke:red;stroke-width:1px;stroke-linecap:butt;stroke-linejoin:miter;stroke-opacity:1" d="M 9.00505,182.18 14.0101,172.17 z" id="boundary" inkscape:connector-curvature="0" />
	<path style="fill:none;stroke:red;stroke-width:1px;stroke-linecap:butt;stroke-linejoin:miter;stroke-opacity:1" d="M 14.0101,172.17 19.0151,162.159 z" id="boundary" inkscape:connector-curvature="0" />
	<path style="fill:none;stroke:red;stroke-width:1px;stroke-linecap:butt;stroke-linejoin:miter;stroke-opacity:1" d="M 19.0151,162.159 24.0202,152.149 z" id="boundary" inkscape:connector-curvature="0" />
	<path style="fill:none;stroke:red;stroke-width:1px;stroke-linecap:butt;stroke-linejoin:miter;stroke-opacity:1" d="M 45.0414,175.173 38.0343,183.181 z" id="boundary" inkscape:connector-curvature="0" />
	<path style="fill:none;stroke:red;stroke-width:1px;stroke-linecap:butt;stroke-linejoin:miter;stroke-opacity:1" d="M 4,192.19 10.0061,200.198 z" id="boundary" inkscape:connector-curvature="0" />
	<path style="fill:none;stroke:red;stroke-width:1px;stroke-linecap:butt;stroke-linejoin:miter;stroke-opacity:1" d="M 18.0141,193.191 10.0061,200.198 z" id="boundary" inkscape:connector-curvature="0" />
	<path style="fill:none;stroke:red;stroke-width:1px;stroke-linecap:butt;stroke-linejoin:miter;stroke-opacity:1" d="M 18.0141,193.191 28.0242,188.186 z" id="boundary" inkscape:connector-curvature="0" />
	<path style="fill:none;stroke:red;stroke-width:1px;stroke-linecap:butt;stroke-linejoin:miter;stroke-opacity:1" d="M 28.0242,188.186 10.0061,200.198 z" id="boundary" inkscape:connector-curvature="0" />
	<path style="fill:none;stroke:red;stroke-width:1px;stroke-linecap:butt;stroke-linejoin:miter;stroke-opacity:1" d="M 4,192.19 9.00505,182.18 z" id="boundary" inkscape:connector-curvature="0" />
	<path style="fill:none;stroke:red;stroke-width:1px;stroke-linecap:butt;stroke-linejoin:miter;stroke-opacity:1" d="M 28.0242,188.186 38.0343,183.181 z" id="boundary" inkscape:connector-curvature="0" />
	<path style="fill:none;stroke:red;stroke-width:1px;stroke-linecap:butt;stroke-linejoin:miter;stroke-opacity:1" d="M 45.0414,175.173 55.0515,175.173 z" id="boundary" inkscape:connector-curvature="0" />
	<path style="fill:none;stroke:red;stroke-width:1px;stroke-linecap:butt;stroke-linejoin:miter;stroke-opacity:1" d="M 115.112,155.152 125.122,155.152 z" id="boundary" inkscape:connector-curvature="0" />
	<path style="fill:none;stroke:red;stroke-width:1px;stroke-linecap:butt;stroke-linejoin:miter;stroke-opacity:1" d="M 125.122,155.152 135.132,155.152 z" id="boundary" inkscape:connector-curvature="0" />
	<path style="fill:none;stroke:red;stroke-width:1px;stroke-linecap:butt;stroke-linejoin:miter;stroke-opacity:1" d="M 145.142,155.152 135.132,155.152 z" id="boundary" inkscape:connector-curvature="0" />
	<path style="fill:none;stroke:red;stroke-width:1px;stroke-linecap:butt;stroke-linejoin:miter;stroke-opacity:1" d="M 155.152,155.152 145.142,155.152 z" id="boundary" inkscape:connector-curvature="0" />
	<path style="fill:none;stroke:red;stroke-width:1px;stroke-linecap:butt;stroke-linejoin:miter;stroke-opacity:1" d="M 55.0515,175.173 65.0616,170.168 z" id="boundary" inkscape:connector-curvature="0" />
	<path style="fill:none;stroke:red;stroke-width:1px;stroke-linecap:butt;stroke-linejoin:miter;stroke-opacity:1" d="M 75.0716,165.162 85.0817,160.157 z" id="boundary" inkscape:connector-curvature="0" />
	<path style="fill:none;stroke:red;stroke-width:1px;stroke-linecap:butt;stroke-linejoin:miter;stroke-opacity:1" d="M 85.0817,160.157 95.0918,160.157 z" id="boundary" inkscape:connector-curvature="0" />
	<path style="fill:none;stroke:red;stroke-width:1px;stroke-linecap:butt;stroke-linejoin:miter;stroke-opacity:1" d="M 75.0716,165.162 65.0616,170.168 z" id="boundary" inkscape:connector-curvature="0" />
	<path style="fill:none;stroke:red;stroke-width:1px;stroke-linecap:butt;stroke-linejoin:miter;stroke-opacity:1" d="M 105.102,155.152 95.0918,160.157 z" id="boundary" inkscape:connector-curvature="0" />
	<path style="fill:none;stroke:red;stroke-width:1px;stroke-linecap:butt;stroke-linejoin:miter;stroke-opacity:1" d="M 155.152,155.152 164.161,160.157 z" id="boundary" inkscape:connector-curvature="0" />
	<path style="fill:none;stroke:red;stroke-width:1px;stroke-linecap:butt;stroke-linejoin:miter;stroke-opacity:1" d="M 153.15,39.0353 163.16,39.0353 z" id="boundary" inkscape:connector-curvature="0" />
	<path style="fill:none;stroke:red;stroke-width:1px;stroke-linecap:butt;stroke-linejoin:miter;stroke-opacity:1" d="M 202.2,24.0202 192.19,29.0252 z" id="boundary" inkscape:connector-curvature="0" />
	<path style="fill:none;stroke:red;stroke-width:1px;stroke-linecap:butt;stroke-linejoin:miter;stroke-opacity:1" d="M 192.19,29.0252 182.18,29.0252 z" id="boundary" inkscape:connector-curvature="0" />
	<path style="fill:none;stroke:red;stroke-width:1px;stroke-linecap:butt;stroke-linejoin:miter;stroke-opacity:1" d="M 212.21,19.0151 202.2,24.0202 z" id="boundary" inkscape:connector-curvature="0" />
	<path style="fill:none;stroke:red;stroke-width:1px;stroke-linecap:butt;stroke-linejoin:miter;stroke-opacity:1" d="M 212.21,19.0151 222.22,19.0151 z" id="boundary" inkscape:connector-curvature="0" />
	<path style="fill:none;stroke:red;stroke-width:1px;stroke-linecap:butt;stroke-linejoin:miter;stroke-opacity:1" d="M 232.23,14.0101 222.22,19.0151 z" id="boundary" inkscape:connector-curvature="0" />
	<path style="fill:none;stroke:red;stroke-width:1px;stroke-linecap:butt;stroke-linejoin:miter;stroke-opacity:1" d="M 174.172,160.157 164.161,160.157 z" id="boundary" inkscape:connector-curvature="0" />
	<path style="fill:none;stroke:red;stroke-width:1px;stroke-linecap:butt;stroke-linejoin:miter;stroke-opacity:1" d="M 184.182,160.157 174.172,160.157 z" id="boundary" inkscape:connector-curvature="0" />
	<path style="fill:none;stroke:red;stroke-width:1px;stroke-linecap:butt;stroke-linejoin:miter;stroke-opacity:1" d="M 172.17,34.0303 182.18,29.0252 z" id="boundary" inkscape:connector-curvature="0" />
	<path style="fill:none;stroke:red;stroke-width:1px;stroke-linecap:butt;stroke-linejoin:miter;stroke-opacity:1" d="M 163.16,39.0353 172.17,34.0303 z" id="boundary" inkscape:connector-curvature="0" />
	<path style="fill:none;stroke:red;stroke-width:1px;stroke-linecap:butt;stroke-linejoin:miter;stroke-opacity:1" d="M 271.269,9.00505 281.28,9.00505 z" id="boundary" inkscape:connector-curvature="0" />
	<path style="fill:none;stroke:red;stroke-width:1px;stroke-linecap:butt;stroke-linejoin:miter;stroke-opacity:1" d="M 262.26,14.0101 271.269,9.00505 z" id="boundary" inkscape:connector-curvature="0" />
	<path style="fill:none;stroke:red;stroke-width:1px;stroke-linecap:butt;stroke-linejoin:miter;stroke-opacity:1" d="M 301.3,9.00505 291.29,9.00505 z" id="boundary" inkscape:connector-curvature="0" />
	<path style="fill:none;stroke:red;stroke-width:1px;stroke-linecap:butt;stroke-linejoin:miter;stroke-opacity:1" d="M 311.31,9.00505 301.3,9.00505 z" id="boundary" inkscape:connector-curvature="0" />
	<path style="fill:none;stroke:red;stroke-width:1px;stroke-linecap:butt;stroke-linejoin:miter;stroke-opacity:1" d="M 291.29,9.00505 281.28,9.00505 z" id="boundary" inkscape:connector-curvature="0" />
	<path style="fill:none;stroke:red;stroke-width:1px;stroke-linecap:butt;stroke-linejoin:miter;stroke-opacity:1" d="M 232.23,14.0101 242.24,14.0101 z" id="boundary" inkscape:connector-curvature="0" />
	<path style="fill:none;stroke:red;stroke-width:1px;stroke-linecap:butt;stroke-linejoin:miter;stroke-opacity:1" d="M 262.26,14.0101 252.25,14.0101 z" id="boundary" inkscape:connector-curvature="0" />
	<path style="fill:none;stroke:red;stroke-width:1px;stroke-linecap:butt;stroke-linejoin:miter;stroke-opacity:1" d="M 252.25,14.0101 242.24,14.0101 z" id="boundary" inkscape:connector-curvature="0" />
	<path style="fill:none;stroke:red;stroke-width:1px;stroke-linecap:butt;stroke-linejoin:miter;stroke-opacity:1" d="M 321.32,9.00505 311.31,9.00505 z" id="boundary" inkscape:connector-curvature="0" />
	<path style="fill:none;stroke:red;stroke-width:1px;stroke-linecap:butt;stroke-linejoin:miter;stroke-opacity:1" d="M 184.182,160.157 194.192,160.157 z" id="boundary" inkscape:connector-curvature="0" />
	<path style="fill:none;stroke:red;stroke-width:1px;stroke-linecap:butt;stroke-linejoin:miter;stroke-opacity:1" d="M 194.192,160.157 203.201,165.162 z" id="boundary" inkscape:connector-curvature="0" />
	<path style="fill:none;stroke:red;stroke-width:1px;stroke-linecap:butt;stroke-linejoin:miter;stroke-opacity:1" d="M 212.21,170.168 203.201,165.162 z" id="boundary" inkscape:connector-curvature="0" />
	<path style="fill:none;stroke:red;stroke-width:1px;stroke-linecap:butt;stroke-linejoin:miter;stroke-opacity:1" d="M 212.21,170.168 220.218,177.175 z" id="boundary" inkscape:connector-curvature="0" />
	<path style="fill:none;stroke:red;stroke-width:1px;stroke-linecap:butt;stroke-linejoin:miter;stroke-opacity:1" d="M 220.218,177.175 227.225,185.183 z" id="boundary" inkscape:connector-curvature="0" />
	<path style="fill:none;stroke:red;stroke-width:1px;stroke-linecap:butt;stroke-linejoin:miter;stroke-opacity:1" d="M 236.234,190.188 227.225,185.183 z" id="boundary" inkscape:connector-curvature="0" />
	<path style="fill:none;stroke:red;stroke-width:1px;stroke-linecap:butt;stroke-linejoin:miter;stroke-opacity:1" d="M 236.234,190.188 245.243,195.193 z" id="boundary" inkscape:connector-curvature="0" />
	<path style="fill:none;stroke:red;stroke-width:1px;stroke-linecap:butt;stroke-linejoin:miter;stroke-opacity:1" d="M 245.243,195.193 254.252,200.198 z" id="boundary" inkscape:connector-curvature="0" />
	<path style="fill:none;stroke:red;stroke-width:1px;stroke-linecap:butt;stroke-linejoin:miter;stroke-opacity:1" d="M 263.261,205.203 269.267,213.211 z" id="boundary" inkscape:connector-curvature="0" />
	<path style="fill:none;stroke:red;stroke-width:1px;stroke-linecap:butt;stroke-linejoin:miter;stroke-opacity:1" d="M 269.267,213.211 269.267,223.221 z" id="boundary" inkscape:connector-curvature="0" />
	<path style="fill:none;stroke:red;stroke-width:1px;stroke-linecap:butt;stroke-linejoin:miter;stroke-opacity:1" d="M 269.267,223.221 269.267,233.231 z" id="boundary" inkscape:connector-curvature="0" />
	<path style="fill:none;stroke:red;stroke-width:1px;stroke-linecap:butt;stroke-linejoin:miter;stroke-opacity:1" d="M 269.267,243.241 269.267,233.231 z" id="boundary" inkscape:connector-curvature="0" />
	<path style="fill:none;stroke:red;stroke-width:1px;stroke-linecap:butt;stroke-linejoin:miter;stroke-opacity:1" d="M 269.267,243.241 269.267,253.251 z" id="boundary" inkscape:connector-curvature="0" />
	<path style="fill:none;stroke:red;stroke-width:1px;stroke-linecap:butt;stroke-linejoin:miter;stroke-opacity:1" d="M 269.267,253.251 269.267,263.261 z" id="boundary" inkscape:connector-curvature="0" />
	<path style="fill:none;stroke:red;stroke-width:1px;stroke-linecap:butt;stroke-linejoin:miter;stroke-opacity:1" d="M 269.267,273.271 269.267,283.282 z" id="boundary" inkscape:connector-curvature="0" />
	<path style="fill:none;stroke:red;stroke-width:1px;stroke-linecap:butt;stroke-linejoin:miter;stroke-opacity:1" d="M 269.267,293.292 269.267,283.282 z" id="boundary" inkscape:connector-curvature="0" />
	<path style="fill:none;stroke:red;stroke-width:1px;stroke-linecap:butt;stroke-linejoin:miter;stroke-opacity:1" d="M 269.267,273.271 269.267,263.261 z" id="boundary" inkscape:connector-curvature="0" />
	<path style="fill:none;stroke:red;stroke-width:1px;stroke-linecap:butt;stroke-linejoin:miter;stroke-opacity:1" d="M 254.252,200.198 263.261,205.203 z" id="boundary" inkscape:connector-curvature="0" />
	<path style="fill:none;stroke:red;stroke-width:1px;stroke-linecap:butt;stroke-linejoin:miter;stroke-opacity:1" d="M 269.267,303.302 269.267,293.292 z" id="boundary" inkscape:connector-curvature="0" />
	<path style="fill:none;stroke:red;stroke-width:1px;stroke-linecap:butt;stroke-linejoin:miter;stroke-opacity:1" d="M 269.267,303.302 269.267,313.312 z" id="boundary" inkscape:connector-curvature="0" />
	<path style="fill:none;stroke:red;stroke-width:1px;stroke-linecap:butt;stroke-linejoin:miter;stroke-opacity:1" d="M 269.267,323.322 269.267,333.332 z" id="boundary" inkscape:connector-curvature="0" />
	<path style="fill:none;stroke:red;stroke-width:1px;stroke-linecap:butt;stroke-linejoin:miter;stroke-opacity:1" d="M 269.267,323.322 269.267,313.312 z" id="boundary" inkscape:connector-curvature="0" />
	<path style="fill:none;stroke:red;stroke-width:1px;stroke-linecap:butt;stroke-linejoin:miter;stroke-opacity:1" d="M 269.267,343.342 269.267,353.352 z" id="boundary" inkscape:connector-curvature="0" />
	<path style="fill:none;stroke:red;stroke-width:1px;stroke-linecap:butt;stroke-linejoin:miter;stroke-opacity:1" d="M 269.267,363.362 269.267,373.372 z" id="boundary" inkscape:connector-curvature="0" />
	<path style="fill:none;stroke:red;stroke-width:1px;stroke-linecap:butt;stroke-linejoin:miter;stroke-opacity:1" d="M 269.267,383.382 269.267,373.372 z" id="boundary" inkscape:connector-curvature="0" />
	<path style="fill:none;stroke:red;stroke-width:1px;stroke-linecap:butt;stroke-linejoin:miter;stroke-opacity:1" d="M 269.267,363.362 269.267,353.352 z" id="boundary" inkscape:connector-curvature="0" />
	<path style="fill:none;stroke:red;stroke-width:1px;stroke-linecap:butt;stroke-linejoin:miter;stroke-opacity:1" d="M 269.267,343.342 269.267,333.332 z" id="boundary" inkscape:connector-curvature="0" />
	<path style="fill:none;stroke:red;stroke-width:1px;stroke-linecap:butt;stroke-linejoin:miter;stroke-opacity:1" d="M 269.267,393.393 269.267,403.403 z" id="boundary" inkscape:connector-curvature="0" />
	<path style="fill:none;stroke:red;stroke-width:1px;stroke-linecap:butt;stroke-linejoin:miter;stroke-opacity:1" d="M 269.267,413.413 269.267,423.423 z" id="boundary" inkscape:connector-curvature="0" />
	<path style="fill:none;stroke:red;stroke-width:1px;stroke-linecap:butt;stroke-linejoin:miter;stroke-opacity:1" d="M 269.267,413.413 269.267,403.403 z" id="boundary" inkscape:connector-curvature="0" />
	<path style="fill:none;stroke:red;stroke-width:1px;stroke-linecap:butt;stroke-linejoin:miter;stroke-opacity:1" d="M 269.267,433.433 269.267,443.443 z" id="boundary" inkscape:connector-curvature="0" />
	<path style="fill:none;stroke:red;stroke-width:1px;stroke-linecap:butt;stroke-linejoin:miter;stroke-opacity:1" d="M 269.267,453.453 269.267,463.463 z" id="boundary" inkscape:connector-curvature="0" />
	<path style="fill:none;stroke:red;stroke-width:1px;stroke-linecap:butt;stroke-linejoin:miter;stroke-opacity:1" d="M 269.267,473.473 269.267,463.463 z" id="boundary" inkscape:connector-curvature="0" />
	<path style="fill:none;stroke:red;stroke-width:1px;stroke-linecap:butt;stroke-linejoin:miter;stroke-opacity:1" d="M 269.267,453.453 269.267,443.443 z" id="boundary" inkscape:connector-curvature="0" />
	<path style="fill:none;stroke:red;stroke-width:1px;stroke-linecap:butt;stroke-linejoin:miter;stroke-opacity:1" d="M 269.267,433.433 269.267,423.423 z" id="boundary" inkscape:connector-curvature="0" />
	<path style="fill:none;stroke:red;stroke-width:1px;stroke-linecap:butt;stroke-linejoin:miter;stroke-opacity:1" d="M 269.267,393.393 269.267,383.382 z" id="boundary" inkscape:connector-curvature="0" />
	<path style="fill:none;stroke:red;stroke-width:1px;stroke-linecap:butt;stroke-linejoin:miter;stroke-opacity:1" d="M 269.267,483.483 269.267,493.493 z" id="boundary" inkscape:connector-curvature="0" />
	<path style="fill:none;stroke:red;stroke-width:1px;stroke-linecap:butt;stroke-linejoin:miter;stroke-opacity:1" d="M 269.267,503.504 269.267,513.514 z" id="boundary" inkscape:connector-curvature="0" />
	<path style="fill:none;stroke:red;stroke-width:1px;stroke-linecap:butt;stroke-linejoin:miter;stroke-opacity:1" d="M 269.267,523.524 269.267,513.514 z" id="boundary" inkscape:connector-curvature="0" />
	<path style="fill:none;stroke:red;stroke-width:1px;stroke-linecap:butt;stroke-linejoin:miter;stroke-opacity:1" d="M 269.267,503.504 269.267,493.493 z" id="boundary" inkscape:connector-curvature="0" />
	<path style="fill:none;stroke:red;stroke-width:1px;stroke-linecap:butt;stroke-linejoin:miter;stroke-opacity:1" d="M 269.267,523.524 269.267,533.534 z" id="boundary" inkscape:connector-curvature="0" />
	<path style="fill:none;stroke:red;stroke-width:1px;stroke-linecap:butt;stroke-linejoin:miter;stroke-opacity:1" d="M 269.267,543.544 269.267,533.534 z" id="boundary" inkscape:connector-curvature="0" />
	<path style="fill:none;stroke:red;stroke-width:1px;stroke-linecap:butt;stroke-linejoin:miter;stroke-opacity:1" d="M 269.267,543.544 269.267,553.554 z" id="boundary" inkscape:connector-curvature="0" />
	<path style="fill:none;stroke:red;stroke-width:1px;stroke-linecap:butt;stroke-linejoin:miter;stroke-opacity:1" d="M 269.267,563.564 269.267,553.554 z" id="boundary" inkscape:connector-curvature="0" />
	<path style="fill:none;stroke:red;stroke-width:1px;stroke-linecap:butt;stroke-linejoin:miter;stroke-opacity:1" d="M 269.267,573.574 269.267,563.564 z" id="boundary" inkscape:connector-curvature="0" />
	<path style="fill:none;stroke:red;stroke-width:1px;stroke-linecap:butt;stroke-linejoin:miter;stroke-opacity:1" d="M 269.267,573.574 269.267,583.584 z" id="boundary" inkscape:connector-curvature="0" />
	<path style="fill:none;stroke:red;stroke-width:1px;stroke-linecap:butt;stroke-linejoin:miter;stroke-opacity:1" d="M 269.267,593.594 269.267,583.584 z" id="boundary" inkscape:connector-curvature="0" />
	<path style="fill:none;stroke:red;stroke-width:1px;stroke-linecap:butt;stroke-linejoin:miter;stroke-opacity:1" d="M 269.267,593.594 269.267,603.604 z" id="boundary" inkscape:connector-curvature="0" />
	<path style="fill:none;stroke:red;stroke-width:1px;stroke-linecap:butt;stroke-linejoin:miter;stroke-opacity:1" d="M 269.267,613.615 269.267,603.604 z" id="boundary" inkscape:connector-curvature="0" />
	<path style="fill:none;stroke:red;stroke-width:1px;stroke-linecap:butt;stroke-linejoin:miter;stroke-opacity:1" d="M 269.267,623.625 269.267,613.615 z" id="boundary" inkscape:connector-curvature="0" />
	<path style="fill:none;stroke:red;stroke-width:1px;stroke-linecap:butt;stroke-linejoin:miter;stroke-opacity:1" d="M 269.267,623.625 269.267,633.635 z" id="boundary" inkscape:connector-curvature="0" />
	<path style="fill:none;stroke:red;stroke-width:1px;stroke-linecap:butt;stroke-linejoin:miter;stroke-opacity:1" d="M 269.267,643.645 269.267,633.635 z" id="boundary" inkscape:connector-curvature="0" />
	<path style="fill:none;stroke:red;stroke-width:1px;stroke-linecap:butt;stroke-linejoin:miter;stroke-opacity:1" d="M 269.267,643.645 269.267,653.655 z" id="boundary" inkscape:connector-curvature="0" />
	<path style="fill:none;stroke:red;stroke-width:1px;stroke-linecap:butt;stroke-linejoin:miter;stroke-opacity:1" d="M 269.267,663.665 269.267,653.655 z" id="boundary" inkscape:connector-curvature="0" />
	<path style="fill:none;stroke:red;stroke-width:1px;stroke-linecap:butt;stroke-linejoin:miter;stroke-opacity:1" d="M 269.267,673.675 269.267,663.665 z" id="boundary" inkscape:connector-curvature="0" />
	<path style="fill:none;stroke:red;stroke-width:1px;stroke-linecap:butt;stroke-linejoin:miter;stroke-opacity:1" d="M 269.267,483.483 269.267,473.473 z" id="boundary" inkscape:connector-curvature="0" />
	<path style="fill:none;stroke:red;stroke-width:1px;stroke-linecap:butt;stroke-linejoin:miter;stroke-opacity:1" d="M 269.267,673.675 269.267,683.685 z" id="boundary" inkscape:connector-curvature="0" />
	<path style="fill:none;stroke:red;stroke-width:1px;stroke-linecap:butt;stroke-linejoin:miter;stroke-opacity:1" d="M 269.267,693.695 269.267,683.685 z" id="boundary" inkscape:connector-curvature="0" />
	<path style="fill:none;stroke:red;stroke-width:1px;stroke-linecap:butt;stroke-linejoin:miter;stroke-opacity:1" d="M 269.267,693.695 269.267,703.705 z" id="boundary" inkscape:connector-curvature="0" />
	<path style="fill:none;stroke:red;stroke-width:1px;stroke-linecap:butt;stroke-linejoin:miter;stroke-opacity:1" d="M 269.267,713.715 269.267,703.705 z" id="boundary" inkscape:connector-curvature="0" />
	<path style="fill:none;stroke:red;stroke-width:1px;stroke-linecap:butt;stroke-linejoin:miter;stroke-opacity:1" d="M 269.267,713.715 269.267,723.726 z" id="boundary" inkscape:connector-curvature="0" />
	<path style="fill:none;stroke:red;stroke-width:1px;stroke-linecap:butt;stroke-linejoin:miter;stroke-opacity:1" d="M 269.267,733.736 269.267,723.726 z" id="boundary" inkscape:connector-curvature="0" />
	<path style="fill:none;stroke:red;stroke-width:1px;stroke-linecap:butt;stroke-linejoin:miter;stroke-opacity:1" d="M 269.267,733.736 269.267,743.746 z" id="boundary" inkscape:connector-curvature="0" />
	<path style="fill:none;stroke:red;stroke-width:1px;stroke-linecap:butt;stroke-linejoin:miter;stroke-opacity:1" d="M 269.267,753.756 269.267,743.746 z" id="boundary" inkscape:connector-curvature="0" />
	<path style="fill:none;stroke:red;stroke-width:1px;stroke-linecap:butt;stroke-linejoin:miter;stroke-opacity:1" d="M 269.267,763.766 269.267,753.756 z" id="boundary" inkscape:connector-curvature="0" />
	<path style="fill:none;stroke:red;stroke-width:1px;stroke-linecap:butt;stroke-linejoin:miter;stroke-opacity:1" d="M 269.267,763.766 269.267,773.776 z" id="boundary" inkscape:connector-curvature="0" />
	<path style="fill:none;stroke:red;stroke-width:1px;stroke-linecap:butt;stroke-linejoin:miter;stroke-opacity:1" d="M 269.267,783.786 269.267,773.776 z" id="boundary" inkscape:connector-curvature="0" />
	<path style="fill:none;stroke:red;stroke-width:1px;stroke-linecap:butt;stroke-linejoin:miter;stroke-opacity:1" d="M 269.267,783.786 269.267,793.796 z" id="boundary" inkscape:connector-curvature="0" />
	<path style="fill:none;stroke:red;stroke-width:1px;stroke-linecap:butt;stroke-linejoin:miter;stroke-opacity:1" d="M 269.267,803.806 269.267,793.796 z" id="boundary" inkscape:connector-curvature="0" />
	<path style="fill:none;stroke:red;stroke-width:1px;stroke-linecap:butt;stroke-linejoin:miter;stroke-opacity:1" d="M 269.267,813.816 269.267,803.806 z" id="boundary" inkscape:connector-curvature="0" />
	<path style="fill:none;stroke:red;stroke-width:1px;stroke-linecap:butt;stroke-linejoin:miter;stroke-opacity:1" d="M 269.267,813.816 269.267,823.826 z" id="boundary" inkscape:connector-curvature="0" />
	<path style="fill:none;stroke:red;stroke-width:1px;stroke-linecap:butt;stroke-linejoin:miter;stroke-opacity:1" d="M 269.267,833.837 269.267,823.826 z" id="boundary" inkscape:connector-curvature="0" />
	<path style="fill:none;stroke:red;stroke-width:1px;stroke-linecap:butt;stroke-linejoin:miter;stroke-opacity:1" d="M 269.267,833.837 269.267,843.847 z" id="boundary" inkscape:connector-curvature="0" />
	<path style="fill:none;stroke:red;stroke-width:1px;stroke-linecap:butt;stroke-linejoin:miter;stroke-opacity:1" d="M 269.267,853.857 269.267,843.847 z" id="boundary" inkscape:connector-curvature="0" />
	<path style="fill:none;stroke:red;stroke-width:1px;stroke-linecap:butt;stroke-linejoin:miter;stroke-opacity:1" d="M 269.267,863.867 269.267,853.857 z" id="boundary" inkscape:connector-curvature="0" />
	<path style="fill:none;stroke:red;stroke-width:1px;stroke-linecap:butt;stroke-linejoin:miter;stroke-opacity:1" d="M 269.267,863.867 269.267,873.877 z" id="boundary" inkscape:connector-curvature="0" />
	<path style="fill:none;stroke:red;stroke-width:1px;stroke-linecap:butt;stroke-linejoin:miter;stroke-opacity:1" d="M 269.267,883.887 269.267,873.877 z" id="boundary" inkscape:connector-curvature="0" />
	<path style="fill:none;stroke:red;stroke-width:1px;stroke-linecap:butt;stroke-linejoin:miter;stroke-opacity:1" d="M 269.267,883.887 269.267,893.897 z" id="boundary" inkscape:connector-curvature="0" />
	<path style="fill:none;stroke:red;stroke-width:1px;stroke-linecap:butt;stroke-linejoin:miter;stroke-opacity:1" d="M 269.267,903.907 269.267,893.897 z" id="boundary" inkscape:connector-curvature="0" />
	<path style="fill:none;stroke:red;stroke-width:1px;stroke-linecap:butt;stroke-linejoin:miter;stroke-opacity:1" d="M 269.267,903.907 269.267,913.917 z" id="boundary" inkscape:connector-curvature="0" />
	<path style="fill:none;stroke:red;stroke-width:1px;stroke-linecap:butt;stroke-linejoin:miter;stroke-opacity:1" d="M 269.267,923.927 269.267,913.917 z" id="boundary" inkscape:connector-curvature="0" />
	<path style="fill:none;stroke:red;stroke-width:1px;stroke-linecap:butt;stroke-linejoin:miter;stroke-opacity:1" d="M 269.267,923.927 269.267,933.937 z" id="boundary" inkscape:connector-curvature="0" />
	<path style="fill:none;stroke:red;stroke-width:1px;stroke-linecap:butt;stroke-linejoin:miter;stroke-opacity:1" d="M 269.267,943.948 269.267,933.937 z" id="boundary" inkscape:connector-curvature="0" />
	<path style="fill:none;stroke:red;stroke-width:1px;stroke-linecap:butt;stroke-linejoin:miter;stroke-opacity:1" d="M 269.267,953.958 269.267,963.968 z" id="boundary" inkscape:connector-curvature="0" />
	<path style="fill:none;stroke:red;stroke-width:1px;stroke-linecap:butt;stroke-linejoin:miter;stroke-opacity:1" d="M 269.267,973.978 269.267,963.968 z" id="boundary" inkscape:connector-curvature="0" />
	<path style="fill:none;stroke:red;stroke-width:1px;stroke-linecap:butt;stroke-linejoin:miter;stroke-opacity:1" d="M 280.279,996 270.268,993.998 z" id="boundary" inkscape:connector-curvature="0" />
	<path style="fill:none;stroke:red;stroke-width:1px;stroke-linecap:butt;stroke-linejoin:miter;stroke-opacity:1" d="M 270.268,993.998 269.267,983.988 z" id="boundary" inkscape:connector-curvature="0" />
	<path style="fill:none;stroke:red;stroke-width:1px;stroke-linecap:butt;stroke-linejoin:miter;stroke-opacity:1" d="M 269.267,983.988 269.267,973.978 z" id="boundary" inkscape:connector-curvature="0" />
	<path style="fill:none;stroke:red;stroke-width:1px;stroke-linecap:butt;stroke-linejoin:miter;stroke-opacity:1" d="M 290.289,996 280.279,996 z" id="boundary" inkscape:connector-curvature="0" />
	<path style="fill:none;stroke:red;stroke-width:1px;stroke-linecap:butt;stroke-linejoin:miter;stroke-opacity:1" d="M 310.309,996 300.299,996 z" id="boundary" inkscape:connector-curvature="0" />
	<path style="fill:none;stroke:red;stroke-width:1px;stroke-linecap:butt;stroke-linejoin:miter;stroke-opacity:1" d="M 320.319,996 310.309,996 z" id="boundary" inkscape:connector-curvature="0" />
	<path style="fill:none;stroke:red;stroke-width:1px;stroke-linecap:butt;stroke-linejoin:miter;stroke-opacity:1" d="M 300.299,996 290.289,996 z" id="boundary" inkscape:connector-curvature="0" />
	<path style="fill:none;stroke:red;stroke-width:1px;stroke-linecap:butt;stroke-linejoin:miter;stroke-opacity:1" d="M 269.267,953.958 269.267,943.948 z" id="boundary" inkscape:connector-curvature="0" />
	<path style="fill:none;stroke:red;stroke-width:1px;stroke-linecap:butt;stroke-linejoin:miter;stroke-opacity:1" d="M 331.33,9.00505 341.34,9.00505 z" id="boundary" inkscape:connector-curvature="0" />
	<path style="fill:none;stroke:red;stroke-width:1px;stroke-linecap:butt;stroke-linejoin:miter;stroke-opacity:1" d="M 341.34,9.00505 350.349,14.0101 z" id="boundary" inkscape:connector-curvature="0" />
	<path style="fill:none;stroke:red;stroke-width:1px;stroke-linecap:butt;stroke-linejoin:miter;stroke-opacity:1" d="M 350.349,14.0101 360.359,14.0101 z" id="boundary" inkscape:connector-curvature="0" />
	<path style="fill:none;stroke:red;stroke-width:1px;stroke-linecap:butt;stroke-linejoin:miter;stroke-opacity:1" d="M 360.359,14.0101 370.369,17.0131 z" id="boundary" inkscape:connector-curvature="0" />
	<path style="fill:none;stroke:red;stroke-width:1px;stroke-linecap:butt;stroke-linejoin:miter;stroke-opacity:1" d="M 370.369,17.0131 380.379,19.0151 z" id="boundary" inkscape:connector-curvature="0" />
	<path style="fill:none;stroke:red;stroke-width:1px;stroke-linecap:butt;stroke-linejoin:miter;stroke-opacity:1" d="M 380.379,19.0151 389.388,24.0202 z" id="boundary" inkscape:connector-curvature="0" />
	<path style="fill:none;stroke:red;stroke-width:1px;stroke-linecap:butt;stroke-linejoin:miter;stroke-opacity:1" d="M 389.388,24.0202 398.398,29.0252 z" id="boundary" inkscape:connector-curvature="0" />
	<path style="fill:none;stroke:red;stroke-width:1px;stroke-linecap:butt;stroke-linejoin:miter;stroke-opacity:1" d="M 409.409,17.0131 398.398,29.0252 z" id="boundary" inkscape:connector-curvature="0" />
	<path style="fill:none;stroke:red;stroke-width:1px;stroke-linecap:butt;stroke-linejoin:miter;stroke-opacity:1" d="M 398.398,29.0252 407.407,34.0303 z" id="boundary" inkscape:connector-curvature="0" />
	<path style="fill:none;stroke:red;stroke-width:1px;stroke-linecap:butt;stroke-linejoin:miter;stroke-opacity:1" d="M 405.405,190.188 395.395,195.193 z" id="boundary" inkscape:connector-curvature="0" />
	<path style="fill:none;stroke:red;stroke-width:1px;stroke-linecap:butt;stroke-linejoin:miter;stroke-opacity:1" d="M 407.407,34.0303 405.405,190.188 z" id="boundary" inkscape:connector-curvature="0" />
	<path style="fill:none;stroke:red;stroke-width:1px;stroke-linecap:butt;stroke-linejoin:miter;stroke-opacity:1" d="M 419.419,4 429.429,4 z" id="boundary" inkscape:connector-curvature="0" />
	<path style="fill:none;stroke:red;stroke-width:1px;stroke-linecap:butt;stroke-linejoin:miter;stroke-opacity:1" d="M 439.439,4 449.449,4 z" id="boundary" inkscape:connector-curvature="0" />
	<path style="fill:none;stroke:red;stroke-width:1px;stroke-linecap:butt;stroke-linejoin:miter;stroke-opacity:1" d="M 429.429,4 439.439,4 z" id="boundary" inkscape:connector-curvature="0" />
	<path style="fill:none;stroke:red;stroke-width:1px;stroke-linecap:butt;stroke-linejoin:miter;stroke-opacity:1" d="M 407.407,34.0303 429.429,4 z" id="boundary" inkscape:connector-curvature="0" />
	<path style="fill:none;stroke:red;stroke-width:1px;stroke-linecap:butt;stroke-linejoin:miter;stroke-opacity:1" d="M 409.409,7.00303 409.409,17.0131 z" id="boundary" inkscape:connector-curvature="0" />
	<path style="fill:none;stroke:red;stroke-width:1px;stroke-linecap:butt;stroke-linejoin:miter;stroke-opacity:1" d="M 459.459,4 469.469,4 z" id="boundary" inkscape:connector-curvature="0" />
	<path style="fill:none;stroke:red;stroke-width:1px;stroke-linecap:butt;stroke-linejoin:miter;stroke-opacity:1" d="M 409.409,7.00303 419.419,4 z" id="boundary" inkscape:connector-curvature="0" />
	<path style="fill:none;stroke:red;stroke-width:1px;stroke-linecap:butt;stroke-linejoin:miter;stroke-opacity:1" d="M 449.449,4 459.459,4 z" id="boundary" inkscape:connector-curvature="0" />
	<path style="fill:none;stroke:red;stroke-width:1px;stroke-linecap:butt;stroke-linejoin:miter;stroke-opacity:1" d="M 472.472,220.218 462.462,220.218 z" id="boundary" inkscape:connector-curvature="0" />
	<path style="fill:none;stroke:red;stroke-width:1px;stroke-linecap:butt;stroke-linejoin:miter;stroke-opacity:1" d="M 331.33,9.00505 321.32,9.00505 z" id="boundary" inkscape:connector-curvature="0" />
	<path style="fill:none;stroke:red;stroke-width:1px;stroke-linecap:butt;stroke-linejoin:miter;stroke-opacity:1" d="M 375.374,205.203 375.374,215.213 z" id="boundary" inkscape:connector-curvature="0" />
	<path style="fill:none;stroke:red;stroke-width:1px;stroke-linecap:butt;stroke-linejoin:miter;stroke-opacity:1" d="M 375.374,205.203 385.384,200.198 z" id="boundary" inkscape:connector-curvature="0" />
	<path style="fill:none;stroke:red;stroke-width:1px;stroke-linecap:butt;stroke-linejoin:miter;stroke-opacity:1" d="M 375.374,225.223 375.374,235.233 z" id="boundary" inkscape:connector-curvature="0" />
	<path style="fill:none;stroke:red;stroke-width:1px;stroke-linecap:butt;stroke-linejoin:miter;stroke-opacity:1" d="M 375.374,225.223 375.374,215.213 z" id="boundary" inkscape:connector-curvature="0" />
	<path style="fill:none;stroke:red;stroke-width:1px;stroke-linecap:butt;stroke-linejoin:miter;stroke-opacity:1" d="M 375.374,245.243 375.374,255.253 z" id="boundary" inkscape:connector-curvature="0" />
	<path style="fill:none;stroke:red;stroke-width:1px;stroke-linecap:butt;stroke-linejoin:miter;stroke-opacity:1" d="M 375.374,265.263 375.374,275.273 z" id="boundary" inkscape:connector-curvature="0" />
	<path style="fill:none;stroke:red;stroke-width:1px;stroke-linecap:butt;stroke-linejoin:miter;stroke-opacity:1" d="M 375.374,285.284 375.374,275.273 z" id="boundary" inkscape:connector-curvature="0" />
	<path style="fill:none;stroke:red;stroke-width:1px;stroke-linecap:butt;stroke-linejoin:miter;stroke-opacity:1" d="M 375.374,265.263 375.374,255.253 z" id="boundary" inkscape:connector-curvature="0" />
	<path style="fill:none;stroke:red;stroke-width:1px;stroke-linecap:butt;stroke-linejoin:miter;stroke-opacity:1" d="M 375.374,245.243 375.374,235.233 z" id="boundary" inkscape:connector-curvature="0" />
	<path style="fill:none;stroke:red;stroke-width:1px;stroke-linecap:butt;stroke-linejoin:miter;stroke-opacity:1" d="M 385.384,200.198 395.395,195.193 z" id="boundary" inkscape:connector-curvature="0" />
	<path style="fill:none;stroke:red;stroke-width:1px;stroke-linecap:butt;stroke-linejoin:miter;stroke-opacity:1" d="M 422.422,220.218 412.412,220.218 z" id="boundary" inkscape:connector-curvature="0" />
	<path style="fill:none;stroke:red;stroke-width:1px;stroke-linecap:butt;stroke-linejoin:miter;stroke-opacity:1" d="M 412.412,220.218 409.409,210.208 z" id="boundary" inkscape:connector-curvature="0" />
	<path style="fill:none;stroke:red;stroke-width:1px;stroke-linecap:butt;stroke-linejoin:miter;stroke-opacity:1" d="M 409.409,210.208 409.409,200.198 z" id="boundary" inkscape:connector-curvature="0" />
	<path style="fill:none;stroke:red;stroke-width:1px;stroke-linecap:butt;stroke-linejoin:miter;stroke-opacity:1" d="M 405.405,190.188 409.409,200.198 z" id="boundary" inkscape:connector-curvature="0" />
	<path style="fill:none;stroke:red;stroke-width:1px;stroke-linecap:butt;stroke-linejoin:miter;stroke-opacity:1" d="M 422.422,220.218 432.432,220.218 z" id="boundary" inkscape:connector-curvature="0" />
	<path style="fill:none;stroke:red;stroke-width:1px;stroke-linecap:butt;stroke-linejoin:miter;stroke-opacity:1" d="M 375.374,295.294 375.374,285.284 z" id="boundary" inkscape:connector-curvature="0" />
	<path style="fill:none;stroke:red;stroke-width:1px;stroke-linecap:butt;stroke-linejoin:miter;stroke-opacity:1" d="M 452.452,220.218 442.442,220.218 z" id="boundary" inkscape:connector-curvature="0" />
	<path style="fill:none;stroke:red;stroke-width:1px;stroke-linecap:butt;stroke-linejoin:miter;stroke-opacity:1" d="M 442.442,220.218 432.432,220.218 z" id="boundary" inkscape:connector-curvature="0" />
	<path style="fill:none;stroke:red;stroke-width:1px;stroke-linecap:butt;stroke-linejoin:miter;stroke-opacity:1" d="M 462.462,220.218 452.452,220.218 z" id="boundary" inkscape:connector-curvature="0" />
	<path style="fill:none;stroke:red;stroke-width:1px;stroke-linecap:butt;stroke-linejoin:miter;stroke-opacity:1" d="M 479.479,4 489.489,4 z" id="boundary" inkscape:connector-curvature="0" />
	<path style="fill:none;stroke:red;stroke-width:1px;stroke-linecap:butt;stroke-linejoin:miter;stroke-opacity:1" d="M 499.499,4 509.51,4 z" id="boundary" inkscape:connector-curvature="0" />
	<path style="fill:none;stroke:red;stroke-width:1px;stroke-linecap:butt;stroke-linejoin:miter;stroke-opacity:1" d="M 489.489,4 499.499,4 z" id="boundary" inkscape:connector-curvature="0" />
	<path style="fill:none;stroke:red;stroke-width:1px;stroke-linecap:butt;stroke-linejoin:miter;stroke-opacity:1" d="M 519.52,4 529.53,4 z" id="boundary" inkscape:connector-curvature="0" />
	<path style="fill:none;stroke:red;stroke-width:1px;stroke-linecap:butt;stroke-linejoin:miter;stroke-opacity:1" d="M 539.54,4 549.55,4 z" id="boundary" inkscape:connector-curvature="0" />
	<path style="fill:none;stroke:red;stroke-width:1px;stroke-linecap:butt;stroke-linejoin:miter;stroke-opacity:1" d="M 529.53,4 539.54,4 z" id="boundary" inkscape:connector-curvature="0" />
	<path style="fill:none;stroke:red;stroke-width:1px;stroke-linecap:butt;stroke-linejoin:miter;stroke-opacity:1" d="M 509.51,4 519.52,4 z" id="boundary" inkscape:connector-curvature="0" />
	<path style="fill:none;stroke:red;stroke-width:1px;stroke-linecap:butt;stroke-linejoin:miter;stroke-opacity:1" d="M 549.55,4 559.56,6.00202 z" id="boundary" inkscape:connector-curvature="0" />
	<path style="fill:none;stroke:red;stroke-width:1px;stroke-linecap:butt;stroke-linejoin:miter;stroke-opacity:1" d="M 559.56,6.00202 560.561,16.0121 z" id="boundary" inkscape:connector-curvature="0" />
	<path style="fill:none;stroke:red;stroke-width:1px;stroke-linecap:butt;stroke-linejoin:miter;stroke-opacity:1" d="M 560.561,16.0121 560.561,26.0222 z" id="boundary" inkscape:connector-curvature="0" />
	<path style="fill:none;stroke:red;stroke-width:1px;stroke-linecap:butt;stroke-linejoin:miter;stroke-opacity:1" d="M 560.561,36.0323 560.561,46.0424 z" id="boundary" inkscape:connector-curvature="0" />
	<path style="fill:none;stroke:red;stroke-width:1px;stroke-linecap:butt;stroke-linejoin:miter;stroke-opacity:1" d="M 560.561,46.0424 560.561,56.0525 z" id="boundary" inkscape:connector-curvature="0" />
	<path style="fill:none;stroke:red;stroke-width:1px;stroke-linecap:butt;stroke-linejoin:miter;stroke-opacity:1" d="M 560.561,26.0222 560.561,36.0323 z" id="boundary" inkscape:connector-curvature="0" />
	<path style="fill:none;stroke:red;stroke-width:1px;stroke-linecap:butt;stroke-linejoin:miter;stroke-opacity:1" d="M 560.561,66.0626 560.561,76.0727 z" id="boundary" inkscape:connector-curvature="0" />
	<path style="fill:none;stroke:red;stroke-width:1px;stroke-linecap:butt;stroke-linejoin:miter;stroke-opacity:1" d="M 560.561,86.0827 560.561,96.0928 z" id="boundary" inkscape:connector-curvature="0" />
	<path style="fill:none;stroke:red;stroke-width:1px;stroke-linecap:butt;stroke-linejoin:miter;stroke-opacity:1" d="M 560.561,96.0928 560.561,106.103 z" id="boundary" inkscape:connector-curvature="0" />
	<path style="fill:none;stroke:red;stroke-width:1px;stroke-linecap:butt;stroke-linejoin:miter;stroke-opacity:1" d="M 560.561,76.0727 560.561,86.0827 z" id="boundary" inkscape:connector-curvature="0" />
	<path style="fill:none;stroke:red;stroke-width:1px;stroke-linecap:butt;stroke-linejoin:miter;stroke-opacity:1" d="M 560.561,56.0525 560.561,66.0626 z" id="boundary" inkscape:connector-curvature="0" />
	<path style="fill:none;stroke:red;stroke-width:1px;stroke-linecap:butt;stroke-linejoin:miter;stroke-opacity:1" d="M 560.561,106.103 560.561,116.113 z" id="boundary" inkscape:connector-curvature="0" />
	<path style="fill:none;stroke:red;stroke-width:1px;stroke-linecap:butt;stroke-linejoin:miter;stroke-opacity:1" d="M 482.482,220.218 472.472,220.218 z" id="boundary" inkscape:connector-curvature="0" />
	<path style="fill:none;stroke:red;stroke-width:1px;stroke-linecap:butt;stroke-linejoin:miter;stroke-opacity:1" d="M 482.482,220.218 492.492,220.218 z" id="boundary" inkscape:connector-curvature="0" />
	<path style="fill:none;stroke:red;stroke-width:1px;stroke-linecap:butt;stroke-linejoin:miter;stroke-opacity:1" d="M 502.503,220.218 492.492,220.218 z" id="boundary" inkscape:connector-curvature="0" />
	<path style="fill:none;stroke:red;stroke-width:1px;stroke-linecap:butt;stroke-linejoin:miter;stroke-opacity:1" d="M 502.503,220.218 512.513,220.218 z" id="boundary" inkscape:connector-curvature="0" />
	<path style="fill:none;stroke:red;stroke-width:1px;stroke-linecap:butt;stroke-linejoin:miter;stroke-opacity:1" d="M 522.523,220.218 512.513,220.218 z" id="boundary" inkscape:connector-curvature="0" />
	<path style="fill:none;stroke:red;stroke-width:1px;stroke-linecap:butt;stroke-linejoin:miter;stroke-opacity:1" d="M 522.523,220.218 532.533,220.218 z" id="boundary" inkscape:connector-curvature="0" />
	<path style="fill:none;stroke:red;stroke-width:1px;stroke-linecap:butt;stroke-linejoin:miter;stroke-opacity:1" d="M 542.543,220.218 532.533,220.218 z" id="boundary" inkscape:connector-curvature="0" />
	<path style="fill:none;stroke:red;stroke-width:1px;stroke-linecap:butt;stroke-linejoin:miter;stroke-opacity:1" d="M 552.553,220.218 542.543,220.218 z" id="boundary" inkscape:connector-curvature="0" />
	<path style="fill:none;stroke:red;stroke-width:1px;stroke-linecap:butt;stroke-linejoin:miter;stroke-opacity:1" d="M 560.561,206.204 552.553,220.218 z" id="boundary" inkscape:connector-curvature="0" />
	<path style="fill:none;stroke:red;stroke-width:1px;stroke-linecap:butt;stroke-linejoin:miter;stroke-opacity:1" d="M 560.561,126.123 560.561,136.133 z" id="boundary" inkscape:connector-curvature="0" />
	<path style="fill:none;stroke:red;stroke-width:1px;stroke-linecap:butt;stroke-linejoin:miter;stroke-opacity:1" d="M 560.561,136.133 560.561,146.143 z" id="boundary" inkscape:connector-curvature="0" />
	<path style="fill:none;stroke:red;stroke-width:1px;stroke-linecap:butt;stroke-linejoin:miter;stroke-opacity:1" d="M 560.561,146.143 560.561,156.153 z" id="boundary" inkscape:connector-curvature="0" />
	<path style="fill:none;stroke:red;stroke-width:1px;stroke-linecap:butt;stroke-linejoin:miter;stroke-opacity:1" d="M 560.561,166.163 560.561,176.174 z" id="boundary" inkscape:connector-curvature="0" />
	<path style="fill:none;stroke:red;stroke-width:1px;stroke-linecap:butt;stroke-linejoin:miter;stroke-opacity:1" d="M 560.561,186.184 560.561,196.194 z" id="boundary" inkscape:connector-curvature="0" />
	<path style="fill:none;stroke:red;stroke-width:1px;stroke-linecap:butt;stroke-linejoin:miter;stroke-opacity:1" d="M 560.561,196.194 560.561,206.204 z" id="boundary" inkscape:connector-curvature="0" />
	<path style="fill:none;stroke:red;stroke-width:1px;stroke-linecap:butt;stroke-linejoin:miter;stroke-opacity:1" d="M 560.561,176.174 560.561,186.184 z" id="boundary" inkscape:connector-curvature="0" />
	<path style="fill:none;stroke:red;stroke-width:1px;stroke-linecap:butt;stroke-linejoin:miter;stroke-opacity:1" d="M 560.561,156.153 560.561,166.163 z" id="boundary" inkscape:connector-curvature="0" />
	<path style="fill:none;stroke:red;stroke-width:1px;stroke-linecap:butt;stroke-linejoin:miter;stroke-opacity:1" d="M 560.561,116.113 560.561,126.123 z" id="boundary" inkscape:connector-curvature="0" />
	<path style="fill:none;stroke:red;stroke-width:1px;stroke-linecap:butt;stroke-linejoin:miter;stroke-opacity:1" d="M 469.469,4 479.479,4 z" id="boundary" inkscape:connector-curvature="0" />
	<path style="fill:none;stroke:red;stroke-width:1px;stroke-linecap:butt;stroke-linejoin:miter;stroke-opacity:1" d="M 375.374,305.304 375.374,315.314 z" id="boundary" inkscape:connector-curvature="0" />
	<path style="fill:none;stroke:red;stroke-width:1px;stroke-linecap:butt;stroke-linejoin:miter;stroke-opacity:1" d="M 375.374,305.304 375.374,295.294 z" id="boundary" inkscape:connector-curvature="0" />
	<path style="fill:none;stroke:red;stroke-width:1px;stroke-linecap:butt;stroke-linejoin:miter;stroke-opacity:1" d="M 375.374,325.324 375.374,335.334 z" id="boundary" inkscape:connector-curvature="0" />
	<path style="fill:none;stroke:red;stroke-width:1px;stroke-linecap:butt;stroke-linejoin:miter;stroke-opacity:1" d="M 375.374,325.324 375.374,315.314 z" id="boundary" inkscape:connector-curvature="0" />
	<path style="fill:none;stroke:red;stroke-width:1px;stroke-linecap:butt;stroke-linejoin:miter;stroke-opacity:1" d="M 375.374,345.344 375.374,355.354 z" id="boundary" inkscape:connector-curvature="0" />
	<path style="fill:none;stroke:red;stroke-width:1px;stroke-linecap:butt;stroke-linejoin:miter;stroke-opacity:1" d="M 375.374,345.344 375.374,335.334 z" id="boundary" inkscape:connector-curvature="0" />
	<path style="fill:none;stroke:red;stroke-width:1px;stroke-linecap:butt;stroke-linejoin:miter;stroke-opacity:1" d="M 375.374,365.364 375.374,375.374 z" id="boundary" inkscape:connector-curvature="0" />
	<path style="fill:none;stroke:red;stroke-width:1px;stroke-linecap:butt;stroke-linejoin:miter;stroke-opacity:1" d="M 375.374,365.364 375.374,355.354 z" id="boundary" inkscape:connector-curvature="0" />
	<path style="fill:none;stroke:red;stroke-width:1px;stroke-linecap:butt;stroke-linejoin:miter;stroke-opacity:1" d="M 375.374,375.374 375.374,385.384 z" id="boundary" inkscape:connector-curvature="0" />
	<path style="fill:none;stroke:red;stroke-width:1px;stroke-linecap:butt;stroke-linejoin:miter;stroke-opacity:1" d="M 375.374,395.395 375.374,405.405 z" id="boundary" inkscape:connector-curvature="0" />
	<path style="fill:none;stroke:red;stroke-width:1px;stroke-linecap:butt;stroke-linejoin:miter;stroke-opacity:1" d="M 375.374,395.395 375.374,385.384 z" id="boundary" inkscape:connector-curvature="0" />
	<path style="fill:none;stroke:red;stroke-width:1px;stroke-linecap:butt;stroke-linejoin:miter;stroke-opacity:1" d="M 375.374,415.415 375.374,425.425 z" id="boundary" inkscape:connector-curvature="0" />
	<path style="fill:none;stroke:red;stroke-width:1px;stroke-linecap:butt;stroke-linejoin:miter;stroke-opacity:1" d="M 375.374,415.415 375.374,405.405 z" id="boundary" inkscape:connector-curvature="0" />
	<path style="fill:none;stroke:red;stroke-width:1px;stroke-linecap:butt;stroke-linejoin:miter;stroke-opacity:1" d="M 375.374,435.435 375.374,445.445 z" id="boundary" inkscape:connector-curvature="0" />
	<path style="fill:none;stroke:red;stroke-width:1px;stroke-linecap:butt;stroke-linejoin:miter;stroke-opacity:1" d="M 375.374,435.435 375.374,425.425 z" id="boundary" inkscape:connector-curvature="0" />
	<path style="fill:none;stroke:red;stroke-width:1px;stroke-linecap:butt;stroke-linejoin:miter;stroke-opacity:1" d="M 375.374,455.455 375.374,465.465 z" id="boundary" inkscape:connector-curvature="0" />
	<path style="fill:none;stroke:red;stroke-width:1px;stroke-linecap:butt;stroke-linejoin:miter;stroke-opacity:1" d="M 375.374,455.455 375.374,445.445 z" id="boundary" inkscape:connector-curvature="0" />
	<path style="fill:none;stroke:red;stroke-width:1px;stroke-linecap:butt;stroke-linejoin:miter;stroke-opacity:1" d="M 375.374,465.465 375.374,475.475 z" id="boundary" inkscape:connector-curvature="0" />
	<path style="fill:none;stroke:red;stroke-width:1px;stroke-linecap:butt;stroke-linejoin:miter;stroke-opacity:1" d="M 375.374,485.485 375.374,495.495 z" id="boundary" inkscape:connector-curvature="0" />
	<path style="fill:none;stroke:red;stroke-width:1px;stroke-linecap:butt;stroke-linejoin:miter;stroke-opacity:1" d="M 375.374,485.485 375.374,475.475 z" id="boundary" inkscape:connector-curvature="0" />
	<path style="fill:none;stroke:red;stroke-width:1px;stroke-linecap:butt;stroke-linejoin:miter;stroke-opacity:1" d="M 375.374,505.506 375.374,515.516 z" id="boundary" inkscape:connector-curvature="0" />
	<path style="fill:none;stroke:red;stroke-width:1px;stroke-linecap:butt;stroke-linejoin:miter;stroke-opacity:1" d="M 375.374,505.506 375.374,495.495 z" id="boundary" inkscape:connector-curvature="0" />
	<path style="fill:none;stroke:red;stroke-width:1px;stroke-linecap:butt;stroke-linejoin:miter;stroke-opacity:1" d="M 340.339,996 330.329,996 z" id="boundary" inkscape:connector-curvature="0" />
	<path style="fill:none;stroke:red;stroke-width:1px;stroke-linecap:butt;stroke-linejoin:miter;stroke-opacity:1" d="M 360.359,996 350.349,996 z" id="boundary" inkscape:connector-curvature="0" />
	<path style="fill:none;stroke:red;stroke-width:1px;stroke-linecap:butt;stroke-linejoin:miter;stroke-opacity:1" d="M 375.374,985.99 370.369,996 z" id="boundary" inkscape:connector-curvature="0" />
	<path style="fill:none;stroke:red;stroke-width:1px;stroke-linecap:butt;stroke-linejoin:miter;stroke-opacity:1" d="M 370.369,996 360.359,996 z" id="boundary" inkscape:connector-curvature="0" />
	<path style="fill:none;stroke:red;stroke-width:1px;stroke-linecap:butt;stroke-linejoin:miter;stroke-opacity:1" d="M 350.349,996 340.339,996 z" id="boundary" inkscape:connector-curvature="0" />
	<path style="fill:none;stroke:red;stroke-width:1px;stroke-linecap:butt;stroke-linejoin:miter;stroke-opacity:1" d="M 375.374,515.516 375.374,525.526 z" id="boundary" inkscape:connector-curvature="0" />
	<path style="fill:none;stroke:red;stroke-width:1px;stroke-linecap:butt;stroke-linejoin:miter;stroke-opacity:1" d="M 375.374,525.526 375.374,535.536 z" id="boundary" inkscape:connector-curvature="0" />
	<path style="fill:none;stroke:red;stroke-width:1px;stroke-linecap:butt;stroke-linejoin:miter;stroke-opacity:1" d="M 375.374,545.546 375.374,555.556 z" id="boundary" inkscape:connector-curvature="0" />
	<path style="fill:none;stroke:red;stroke-width:1px;stroke-linecap:butt;stroke-linejoin:miter;stroke-opacity:1" d="M 375.374,545.546 375.374,535.536 z" id="boundary" inkscape:connector-curvature="0" />
	<path style="fill:none;stroke:red;stroke-width:1px;stroke-linecap:butt;stroke-linejoin:miter;stroke-opacity:1" d="M 375.374,555.556 375.374,565.566 z" id="boundary" inkscape:connector-curvature="0" />
	<path style="fill:none;stroke:red;stroke-width:1px;stroke-linecap:butt;stroke-linejoin:miter;stroke-opacity:1" d="M 375.374,575.576 375.374,585.586 z" id="boundary" inkscape:connector-curvature="0" />
	<path style="fill:none;stroke:red;stroke-width:1px;stroke-linecap:butt;stroke-linejoin:miter;stroke-opacity:1" d="M 375.374,575.576 375.374,565.566 z" id="boundary" inkscape:connector-curvature="0" />
	<path style="fill:none;stroke:red;stroke-width:1px;stroke-linecap:butt;stroke-linejoin:miter;stroke-opacity:1" d="M 375.374,595.596 375.374,605.606 z" id="boundary" inkscape:connector-curvature="0" />
	<path style="fill:none;stroke:red;stroke-width:1px;stroke-linecap:butt;stroke-linejoin:miter;stroke-opacity:1" d="M 375.374,595.596 375.374,585.586 z" id="boundary" inkscape:connector-curvature="0" />
	<path style="fill:none;stroke:red;stroke-width:1px;stroke-linecap:butt;stroke-linejoin:miter;stroke-opacity:1" d="M 375.374,605.606 375.374,615.617 z" id="boundary" inkscape:connector-curvature="0" />
	<path style="fill:none;stroke:red;stroke-width:1px;stroke-linecap:butt;stroke-linejoin:miter;stroke-opacity:1" d="M 375.374,615.617 375.374,625.627 z" id="boundary" inkscape:connector-curvature="0" />
	<path style="fill:none;stroke:red;stroke-width:1px;stroke-linecap:butt;stroke-linejoin:miter;stroke-opacity:1" d="M 375.374,625.627 375.374,635.637 z" id="boundary" inkscape:connector-curvature="0" />
	<path style="fill:none;stroke:red;stroke-width:1px;stroke-linecap:butt;stroke-linejoin:miter;stroke-opacity:1" d="M 375.374,645.647 375.374,655.657 z" id="boundary" inkscape:connector-curvature="0" />
	<path style="fill:none;stroke:red;stroke-width:1px;stroke-linecap:butt;stroke-linejoin:miter;stroke-opacity:1" d="M 375.374,645.647 375.374,635.637 z" id="boundary" inkscape:connector-curvature="0" />
	<path style="fill:none;stroke:red;stroke-width:1px;stroke-linecap:butt;stroke-linejoin:miter;stroke-opacity:1" d="M 375.374,665.667 375.374,675.677 z" id="boundary" inkscape:connector-curvature="0" />
	<path style="fill:none;stroke:red;stroke-width:1px;stroke-linecap:butt;stroke-linejoin:miter;stroke-opacity:1" d="M 375.374,665.667 375.374,655.657 z" id="boundary" inkscape:connector-curvature="0" />
	<path style="fill:none;stroke:red;stroke-width:1px;stroke-linecap:butt;stroke-linejoin:miter;stroke-opacity:1" d="M 375.374,685.687 375.374,695.697 z" id="boundary" inkscape:connector-curvature="0" />
	<path style="fill:none;stroke:red;stroke-width:1px;stroke-linecap:butt;stroke-linejoin:miter;stroke-opacity:1" d="M 375.374,685.687 375.374,675.677 z" id="boundary" inkscape:connector-curvature="0" />
	<path style="fill:none;stroke:red;stroke-width:1px;stroke-linecap:butt;stroke-linejoin:miter;stroke-opacity:1" d="M 375.374,695.697 375.374,705.707 z" id="boundary" inkscape:connector-curvature="0" />
	<path style="fill:none;stroke:red;stroke-width:1px;stroke-linecap:butt;stroke-linejoin:miter;stroke-opacity:1" d="M 375.374,715.717 375.374,725.728 z" id="boundary" inkscape:connector-curvature="0" />
	<path style="fill:none;stroke:red;stroke-width:1px;stroke-linecap:butt;stroke-linejoin:miter;stroke-opacity:1" d="M 375.374,715.717 375.374,705.707 z" id="boundary" inkscape:connector-curvature="0" />
	<path style="fill:none;stroke:red;stroke-width:1px;stroke-linecap:butt;stroke-linejoin:miter;stroke-opacity:1" d="M 375.374,735.738 375.374,745.748 z" id="boundary" inkscape:connector-curvature="0" />
	<path style="fill:none;stroke:red;stroke-width:1px;stroke-linecap:butt;stroke-linejoin:miter;stroke-opacity:1" d="M 375.374,735.738 375.374,725.728 z" id="boundary" inkscape:connector-curvature="0" />
	<path style="fill:none;stroke:red;stroke-width:1px;stroke-linecap:butt;stroke-linejoin:miter;stroke-opacity:1" d="M 375.374,745.748 375.374,755.758 z" id="boundary" inkscape:connector-curvature="0" />
	<path style="fill:none;stroke:red;stroke-width:1px;stroke-linecap:butt;stroke-linejoin:miter;stroke-opacity:1" d="M 375.374,765.768 375.374,775.778 z" id="boundary" inkscape:connector-curvature="0" />
	<path style="fill:none;stroke:red;stroke-width:1px;stroke-linecap:butt;stroke-linejoin:miter;stroke-opacity:1" d="M 375.374,765.768 375.374,755.758 z" id="boundary" inkscape:connector-curvature="0" />
	<path style="fill:none;stroke:red;stroke-width:1px;stroke-linecap:butt;stroke-linejoin:miter;stroke-opacity:1" d="M 375.374,785.788 375.374,795.798 z" id="boundary" inkscape:connector-curvature="0" />
	<path style="fill:none;stroke:red;stroke-width:1px;stroke-linecap:butt;stroke-linejoin:miter;stroke-opacity:1" d="M 375.374,785.788 375.374,775.778 z" id="boundary" inkscape:connector-curvature="0" />
	<path style="fill:none;stroke:red;stroke-width:1px;stroke-linecap:butt;stroke-linejoin:miter;stroke-opacity:1" d="M 375.374,795.798 375.374,805.808 z" id="boundary" inkscape:connector-curvature="0" />
	<path style="fill:none;stroke:red;stroke-width:1px;stroke-linecap:butt;stroke-linejoin:miter;stroke-opacity:1" d="M 375.374,815.818 375.374,825.828 z" id="boundary" inkscape:connector-curvature="0" />
	<path style="fill:none;stroke:red;stroke-width:1px;stroke-linecap:butt;stroke-linejoin:miter;stroke-opacity:1" d="M 375.374,815.818 375.374,805.808 z" id="boundary" inkscape:connector-curvature="0" />
	<path style="fill:none;stroke:red;stroke-width:1px;stroke-linecap:butt;stroke-linejoin:miter;stroke-opacity:1" d="M 375.374,835.839 375.374,845.849 z" id="boundary" inkscape:connector-curvature="0" />
	<path style="fill:none;stroke:red;stroke-width:1px;stroke-linecap:butt;stroke-linejoin:miter;stroke-opacity:1" d="M 375.374,835.839 375.374,825.828 z" id="boundary" inkscape:connector-curvature="0" />
	<path style="fill:none;stroke:red;stroke-width:1px;stroke-linecap:butt;stroke-linejoin:miter;stroke-opacity:1" d="M 375.374,855.859 375.374,865.869 z" id="boundary" inkscape:connector-curvature="0" />
	<path style="fill:none;stroke:red;stroke-width:1px;stroke-linecap:butt;stroke-linejoin:miter;stroke-opacity:1" d="M 375.374,855.859 375.374,845.849 z" id="boundary" inkscape:connector-curvature="0" />
	<path style="fill:none;stroke:red;stroke-width:1px;stroke-linecap:butt;stroke-linejoin:miter;stroke-opacity:1" d="M 375.374,875.879 375.374,885.889 z" id="boundary" inkscape:connector-curvature="0" />
	<path style="fill:none;stroke:red;stroke-width:1px;stroke-linecap:butt;stroke-linejoin:miter;stroke-opacity:1" d="M 375.374,875.879 375.374,865.869 z" id="boundary" inkscape:connector-curvature="0" />
	<path style="fill:none;stroke:red;stroke-width:1px;stroke-linecap:butt;stroke-linejoin:miter;stroke-opacity:1" d="M 375.374,885.889 375.374,895.899 z" id="boundary" inkscape:connector-curvature="0" />
	<path style="fill:none;stroke:red;stroke-width:1px;stroke-linecap:butt;stroke-linejoin:miter;stroke-opacity:1" d="M 375.374,905.909 375.374,915.919 z" id="boundary" inkscape:connector-curvature="0" />
	<path style="fill:none;stroke:red;stroke-width:1px;stroke-linecap:butt;stroke-linejoin:miter;stroke-opacity:1" d="M 375.374,905.909 375.374,895.899 z" id="boundary" inkscape:connector-curvature="0" />
	<path style="fill:none;stroke:red;stroke-width:1px;stroke-linecap:butt;stroke-linejoin:miter;stroke-opacity:1" d="M 375.374,925.929 375.374,935.939 z" id="boundary" inkscape:connector-curvature="0" />
	<path style="fill:none;stroke:red;stroke-width:1px;stroke-linecap:butt;stroke-linejoin:miter;stroke-opacity:1" d="M 375.374,925.929 375.374,915.919 z" id="boundary" inkscape:connector-curvature="0" />
	<path style="fill:none;stroke:red;stroke-width:1px;stroke-linecap:butt;stroke-linejoin:miter;stroke-opacity:1" d="M 375.374,935.939 375.374,945.95 z" id="boundary" inkscape:connector-curvature="0" />
	<path style="fill:none;stroke:red;stroke-width:1px;stroke-linecap:butt;stroke-linejoin:miter;stroke-opacity:1" d="M 375.374,945.95 375.374,955.96 z" id="boundary" inkscape:connector-curvature="0" />
	<path style="fill:none;stroke:red;stroke-width:1px;stroke-linecap:butt;stroke-linejoin:miter;stroke-opacity:1" d="M 375.374,965.97 375.374,975.98 z" id="boundary" inkscape:connector-curvature="0" />
	<path style="fill:none;stroke:red;stroke-width:1px;stroke-linecap:butt;stroke-linejoin:miter;stroke-opacity:1" d="M 375.374,985.99 375.374,975.98 z" id="boundary" inkscape:connector-curvature="0" />
	<path style="fill:none;stroke:red;stroke-width:1px;stroke-linecap:butt;stroke-linejoin:miter;stroke-opacity:1" d="M 375.374,965.97 375.374,955.96 z" id="boundary" inkscape:connector-curvature="0" />
	<path style="fill:none;stroke:red;stroke-width:1px;stroke-linecap:butt;stroke-linejoin:miter;stroke-opacity:1" d="M 330.329,996 320.319,996 z" id="boundary" inkscape:connector-curvature="0" />
	<circle cx="4" cy="192.19" r="4" fill="#0" id="circle0"/>
	<circle cx="9.00505" cy="182.18" r="4" fill="#0" id="circle1"/>
	<circle cx="10.0061" cy="200.198" r="4" fill="#0" id="circle2"/>
	<circle cx="14.0101" cy="172.17" r="4" fill="#0" id="circle3"/>
	<circle cx="18.0141" cy="193.191" r="4" fill="#0" id="circle4"/>
	<circle cx="19.0151" cy="162.159" r="4" fill="#0" id="circle5"/>
	<circle cx="24.0202" cy="152.149" r="4" fill="#0" id="circle6"/>
	<circle cx="28.0242" cy="188.186" r="4" fill="#0" id="circle7"/>
	<circle cx="32.0283" cy="144.141" r="4" fill="#0" id="circle8"/>
	<circle cx="37.0333" cy="134.131" r="4" fill="#0" id="circle9"/>
	<circle cx="38.0343" cy="183.181" r="4" fill="#0" id="circle10"/>
	<circle cx="42.0383" cy="124.121" r="4" fill="#0" id="circle11"/>
	<circle cx="45.0414" cy="175.173" r="4" fill="#0" id="circle12"/>
	<circle cx="49.0454" cy="112.109" r="4" fill="#0" id="circle13"/>
	<circle cx="55.0515" cy="175.173" r="4" fill="#0" id="circle14"/>
	<circle cx="57.0535" cy="104.101" r="4" fill="#0" id="circle15"/>
	<circle cx="65.0616" cy="96.0928" r="4" fill="#0" id="circle16"/>
	<circle cx="65.0616" cy="170.168" r="4" fill="#0" id="circle17"/>
	<circle cx="73.0696" cy="89.0858" r="4" fill="#0" id="circle18"/>
	<circle cx="75.0716" cy="165.162" r="4" fill="#0" id="circle19"/>
	<circle cx="77.0737" cy="79.0757" r="4" fill="#0" id="circle20"/>
	<circle cx="85.0817" cy="160.157" r="4" fill="#0" id="circle21"/>
	<circle cx="86.0827" cy="74.0706" r="4" fill="#0" id="circle22"/>
	<circle cx="94.0908" cy="67.0636" r="4" fill="#0" id="circle23"/>
	<circle cx="95.0918" cy="160.157" r="4" fill="#0" id="circle24"/>
	<circle cx="104.101" cy="62.0585" r="4" fill="#0" id="circle25"/>
	<circle cx="105.102" cy="155.152" r="4" fill="#0" id="circle26"/>
	<circle cx="114.111" cy="57.0535" r="4" fill="#0" id="circle27"/>
	<circle cx="115.112" cy="155.152" r="4" fill="#0" id="circle28"/>
	<circle cx="124.121" cy="52.0484" r="4" fill="#0" id="circle29"/>
	<circle cx="125.122" cy="155.152" r="4" fill="#0" id="circle30"/>
	<circle cx="134.131" cy="47.0434" r="4" fill="#0" id="circle31"/>
	<circle cx="135.132" cy="155.152" r="4" fill="#0" id="circle32"/>
	<circle cx="144.141" cy="44.0404" r="4" fill="#0" id="circle33"/>
	<circle cx="145.142" cy="155.152" r="4" fill="#0" id="circle34"/>
	<circle cx="153.15" cy="39.0353" r="4" fill="#0" id="circle35"/>
	<circle cx="155.152" cy="155.152" r="4" fill="#0" id="circle36"/>
	<circle cx="163.16" cy="39.0353" r="4" fill="#0" id="circle37"/>
	<circle cx="164.161" cy="160.157" r="4" fill="#0" id="circle38"/>
	<circle cx="172.17" cy="34.0303" r="4" fill="#0" id="circle39"/>
	<circle cx="174.172" cy="160.157" r="4" fill="#0" id="circle40"/>
	<circle cx="182.18" cy="29.0252" r="4" fill="#0" id="circle41"/>
	<circle cx="184.182" cy="160.157" r="4" fill="#0" id="circle42"/>
	<circle cx="192.19" cy="29.0252" r="4" fill="#0" id="circle43"/>
	<circle cx="194.192" cy="160.157" r="4" fill="#0" id="circle44"/>
	<circle cx="202.2" cy="24.0202" r="4" fill="#0" id="circle45"/>
	<circle cx="203.201" cy="165.162" r="4" fill="#0" id="circle46"/>
	<circle cx="212.21" cy="19.0151" r="4" fill="#0" id="circle47"/>
	<circle cx="212.21" cy="170.168" r="4" fill="#0" id="circle48"/>
	<circle cx="220.218" cy="177.175" r="4" fill="#0" id="circle49"/>
	<circle cx="222.22" cy="19.0151" r="4" fill="#0" id="circle50"/>
	<circle cx="227.225" cy="185.183" r="4" fill="#0" id="circle51"/>
	<circle cx="232.23" cy="14.0101" r="4" fill="#0" id="circle52"/>
	<circle cx="236.234" cy="190.188" r="4" fill="#0" id="circle53"/>
	<circle cx="242.24" cy="14.0101" r="4" fill="#0" id="circle54"/>
	<circle cx="245.243" cy="195.193" r="4" fill="#0" id="circle55"/>
	<circle cx="252.25" cy="14.0101" r="4" fill="#0" id="circle56"/>
	<circle cx="254.252" cy="200.198" r="4" fill="#0" id="circle57"/>
	<circle cx="262.26" cy="14.0101" r="4" fill="#0" id="circle58"/>
	<circle cx="263.261" cy="205.203" r="4" fill="#0" id="circle59"/>
	<circle cx="269.267" cy="213.211" r="4" fill="#0" id="circle60"/>
	<circle cx="269.267" cy="223.221" r="4" fill="#0" id="circle61"/>
	<circle cx="269.267" cy="233.231" r="4" fill="#0" id="circle62"/>
	<circle cx="269.267" cy="243.241" r="4" fill="#0" id="circle63"/>
	<circle cx="269.267" cy="253.251" r="4" fill="#0" id="circle64"/>
	<circle cx="269.267" cy="263.261" r="4" fill="#0" id="circle65"/>
	<circle cx="269.267" cy="273.271" r="4" fill="#0" id="circle66"/>
	<circle cx="269.267" cy="283.282" r="4" fill="#0" id="circle67"/>
	<circle cx="269.267" cy="293.292" r="4" fill="#0" id="circle68"/>
	<circle cx="269.267" cy="303.302" r="4" fill="#0" id="circle69"/>
	<circle cx="269.267" cy="313.312" r="4" fill="#0" id="circle70"/>
	<circle cx="269.267" cy="323.322" r="4" fill="#0" id="circle71"/>
	<circle cx="269.267" cy="333.332" r="4" fill="#0" id="circle72"/>
	<circle cx="269.267" cy="343.342" r="4" fill="#0" id="circle73"/>
	<circle cx="269.267" cy="353.352" r="4" fill="#0" id="circle74"/>
	<circle cx="269.267" cy="363.362" r="4" fill="#0" id="circle75"/>
	<circle cx="269.267" cy="373.372" r="4" fill="#0" id="circle76"/>
	<circle cx="269.267" cy="383.382" r="4" fill="#0" id="circle77"/>
	<circle cx="269.267" cy="393.393" r="4" fill="#0" id="circle78"/>
	<circle cx="269.267" cy="403.403" r="4" fill="#0" id="circle79"/>
	<circle cx="269.267" cy="413.413" r="4" fill="#0" id="circle80"/>
	<circle cx="269.267" cy="423.423" r="4" fill="#0" id="circle81"/>
	<circle cx="269.267" cy="433.433" r="4" fill="#0" id="circle82"/>
	<circle cx="269.267" cy="443.443" r="4" fill="#0" id="circle83"/>
	<circle cx="269.267" cy="453.453" r="4" fill="#0" id="circle84"/>
	<circle cx="269.267" cy="463.463" r="4" fill="#0" id="circle85"/>
	<circle cx="269.267" cy="473.473" r="4" fill="#0" id="circle86"/>
	<circle cx="269.267" cy="483.483" r="4" fill="#0" id="circle87"/>
	<circle cx="269.267" cy="493.493" r="4" fill="#0" id="circle88"/>
	<circle cx="269.267" cy="503.504" r="4" fill="#0" id="circle89"/>
	<circle cx="269.267" cy="513.514" r="4" fill="#0" id="circle90"/>
	<circle cx="269.267" cy="523.524" r="4" fill="#0" id="circle91"/>
	<circle cx="269.267" cy="533.534" r="4" fill="#0" id="circle92"/>
	<circle cx="269.267" cy="543.544" r="4" fill="#0" id="circle93"/>
	<circle cx="269.267" cy="553.554" r="4" fill="#0" id="circle94"/>
	<circle cx="269.267" cy="563.564" r="4" fill="#0" id="circle95"/>
	<circle cx="269.267" cy="573.574" r="4" fill="#0" id="circle96"/>
	<circle cx="269.267" cy="583.584" r="4" fill="#0" id="circle97"/>
	<circle cx="269.267" cy="593.594" r="4" fill="#0" id="circle98"/>
	<circle cx="269.267" cy="603.604" r="4" fill="#0" id="circle99"/>
	<circle cx="269.267" cy="613.615" r="4" fill="#0" id="circle100"/>
	<circle cx="269.267" cy="623.625" r="4" fill="#0" id="circle101"/>
	<circle cx="269.267" cy="633.635" r="4" fill="#0" id="circle102"/>
	<circle cx="269.267" cy="643.645" r="4" fill="#0" id="circle103"/>
	<circle cx="269.267" cy="653.655" r="4" fill="#0" id="circle104"/>
	<circle cx="269.267" cy="663.665" r="4" fill="#0" id="circle105"/>
	<circle cx="269.267" cy="673.675" r="4" fill="#0" id="circle106"/>
	<circle cx="269.267" cy="683.685" r="4" fill="#0" id="circle107"/>
	<circle cx="269.267" cy="693.695" r="4" fill="#0" id="circle108"/>
	<circle cx="269.267" cy="703.705" r="4" fill="#0" id="circle109"/>
	<circle cx="269.267" cy="713.715" r="4" fill="#0" id="circle110"/>
	<circle cx="269.267" cy="723.726" r="4" fill="#0" id="circle111"/>
	<circle cx="269.267" cy="733.736" r="4" fill="#0" id="circle112"/>
	<circle cx="269.267" cy="743.746" r="4" fill="#0" id="circle113"/>
	<circle cx="269.267" cy="753.756" r="4" fill="#0" id="circle114"/>
	<circle cx="269.267" cy="763.766" r="4" fill="#0" id="circle115"/>
	<circle cx="269.267" cy="773.776" r="4" fill="#0" id="circle116"/>
	<circle cx="269.267" cy="783.786" r="4" fill="#0" id="circle117"/>
	<circle cx="269.267" cy="793.796" r="4" fill="#0" id="circle118"/>
	<circle cx="269.267" cy="803.806" r="4" fill="#0" id="circle119"/>
	<circle cx="269.267" cy="813.816" r="4" fill="#0" id="circle120"/>
	<circle cx="269.267" cy="823.826" r="4" fill="#0" id="circle121"/>
	<circle cx="269.267" cy="833.837" r="4" fill="#0" id="circle122"/>
	<circle cx="269.267" cy="843.847" r="4" fill="#0" id="circle123"/>
	<circle cx="269.267" cy="853.857" r="4" fill="#0" id="circle124"/>
	<circle cx="269.267" cy="863.867" r="4" fill="#0" id="circle125"/>
	<circle cx="269.267" cy="873.877" r="4" fill="#0" id="circle126"/>
	<circle cx="269.267" cy="883.887" r="4" fill="#0" id="circle127"/>
	<circle cx="269.267" cy="893.897" r="4" fill="#0" id="circle128"/>
	<circle cx="269.267" cy="903.907" r="4" fill="#0" id="circle129"/>
	<circle cx="269.267" cy="913.917" r="4" fill="#0" id="circle130"/>
	<circle cx="269.267" cy="923.927" r="4" fill="#0" id="circle131"/>
	<circle cx="269.267" cy="933.937" r="4" fill="#0" id="circle132"/>
	<circle cx="269.267" cy="943.948" r="4" fill="#0" id="circle133"/>
	<circle cx="269.267" cy="953.958" r="4" fill="#0" id="circle134"/>
	<circle cx="269.267" cy="963.968" r="4" fill="#0" id="circle135"/>
	<circle cx="269.267" cy="973.978" r="4" fill="#0" id="circle136"/>
	<circle cx="269.267" cy="983.988" r="4" fill="#0" id="circle137"/>
	<circle cx="270.268" cy="993.998" r="4" fill="#0" id="circle138"/>
	<circle cx="271.269" cy="9.00505" r="4" fill="#0" id="circle139"/>
	<circle cx="280.279" cy="996" r="4" fill="#0" id="circle140"/>
	<circle cx="281.28" cy="9.00505" r="4" fill="#0" id="circle141"/>
	<circle cx="290.289" cy="996" r="4" fill="#0" id="circle142"/>
	<circle cx="291.29" cy="9.00505" r="4" fill="#0" id="circle143"/>
	<circle cx="300.299" cy="996" r="4" fill="#0" id="circle144"/>
	<circle cx="301.3" cy="9.00505" r="4" fill="#0" id="circle145"/>
	<circle cx="310.309" cy="996" r="4" fill="#0" id="circle146"/>
	<circle cx="311.31" cy="9.00505" r="4" fill="#0" id="circle147"/>
	<circle cx="320.319" cy="996" r="4" fill="#0" id="circle148"/>
	<circle cx="321.32" cy="9.00505" r="4" fill="#0" id="circle149"/>
	<circle cx="330.329" cy="996" r="4" fill="#0" id="circle150"/>
	<circle cx="331.33" cy="9.00505" r="4" fill="#0" id="circle151"/>
	<circle cx="340.339" cy="996" r="4" fill="#0" id="circle152"/>
	<circle cx="341.34" cy="9.00505" r="4" fill="#0" id="circle153"/>
	<circle cx="350.349" cy="14.0101" r="4" fill="#0" id="circle154"/>
	<circle cx="350.349" cy="996" r="4" fill="#0" id="circle155"/>
	<circle cx="360.359" cy="14.0101" r="4" fill="#0" id="circle156"/>
	<circle cx="360.359" cy="996" r="4" fill="#0" id="circle157"/>
	<circle cx="370.369" cy="17.0131" r="4" fill="#0" id="circle158"/>
	<circle cx="370.369" cy="996" r="4" fill="#0" id="circle159"/>
	<circle cx="375.374" cy="205.203" r="4" fill="#0" id="circle160"/>
	<circle cx="375.374" cy="215.213" r="4" fill="#0" id="circle161"/>
	<circle cx="375.374" cy="225.223" r="4" fill="#0" id="circle162"/>
	<circle cx="375.374" cy="235.233" r="4" fill="#0" id="circle163"/>
	<circle cx="375.374" cy="245.243" r="4" fill="#0" id="circle164"/>
	<circle cx="375.374" cy="255.253" r="4" fill="#0" id="circle165"/>
	<circle cx="375.374" cy="265.263" r="4" fill="#0" id="circle166"/>
	<circle cx="375.374" cy="275.273" r="4" fill="#0" id="circle167"/>
	<circle cx="375.374" cy="285.284" r="4" fill="#0" id="circle168"/>
	<circle cx="375.374" cy="295.294" r="4" fill="#0" id="circle169"/>
	<circle cx="375.374" cy="305.304" r="4" fill="#0" id="circle170"/>
	<circle cx="375.374" cy="315.314" r="4" fill="#0" id="circle171"/>
	<circle cx="375.374" cy="325.324" r="4" fill="#0" id="circle172"/>
	<circle cx="375.374" cy="335.334" r="4" fill="#0" id="circle173"/>
	<circle cx="375.374" cy="345.344" r="4" fill="#0" id="circle174"/>
	<circle cx="375.374" cy="355.354" r="4" fill="#0" id="circle175"/>
	<circle cx="375.374" cy="365.364" r="4" fill="#0" id="circle176"/>
	<circle cx="375.374" cy="375.374" r="4" fill="#0" id="circle177"/>
	<circle cx="375.374" cy="385.384" r="4" fill="#0" id="circle178"/>
	<circle cx="375.374" cy="395.395" r="4" fill="#0" id="circle179"/>
	<circle cx="375.374" cy="405.405" r="4" fill="#0" id="circle180"/>
	<circle cx="375.374" cy="415.415" r="4" fill="#0" id="circle181"/>
	<circle cx="375.374" cy="425.425" r="4" fill="#0" id="circle182"/>
	<circle cx="375.374" cy="435.435" r="4" fill="#0" id="circle183"/>
	<circle cx="375.374" cy="445.445" r="4" fill="#0" id="circle184"/>
	<circle cx="375.374" cy="455.455" r="4" fill="#0" id="circle185"/>
	<circle cx="375.374" cy="465.465" r="4" fill="#0" id="circle186"/>
	<circle cx="375.374" cy="475.475" r="4" fill="#0" id="circle187"/>
	<circle cx="375.374" cy="485.485" r="4" fill="#0" id="circle188"/>
	<circle cx="375.374" cy="495.495" r="4" fill="#0" id="circle189"/>
	<circle cx="375.374" cy="505.506" r="4" fill="#0" id="circle190"/>
	<circle cx="375.374" cy="515.516" r="4" fill="#0" id="circle191"/>
	<circle cx="375.374" cy="525.526" r="4" fill="#0" id="circle192"/>
	<circle cx="375.374" cy="535.536" r="4" fill="#0" id="circle193"/>
	<circle cx="375.374" cy="545.546" r="4" fill="#0" id="circle194"/>
	<circle cx="375.374" cy="555.556" r="4" fill="#0" id="circle195"/>
	<circle cx="375.374" cy="565.566" r="4" fill="#0" id="circle196"/>
	<circle cx="375.374" cy="575.576" r="4" fill="#0" id="circle197"/>
	<circle cx="375.374" cy="585.586" r="4" fill="#0" id="circle198"/>
	<circle cx="375.374" cy="595.596" r="4" fill="#0" id="circle199"/>
	<circle cx="375.374" cy="605.606" r="4" fill="#0" id="circle200"/>
	<circle cx="375.374" cy="615.617" r="4" fill="#0" id="circle201"/>
	<circle cx="375.374" cy="625.627" r="4" fill="#0" id="circle202"/>
	<circle cx="375.374" cy="635.637" r="4" fill="#0" id="circle203"/>
	<circle cx="375.374" cy="645.647" r="4" fill="#0" id="circle204"/>
	<circle cx="375.374" cy="655.657" r="4" fill="#0" id="circle205"/>
	<circle cx="375.374" cy="665.667" r="4" fill="#0" id="circle206"/>
	<circle cx="375.374" cy="675.677" r="4" fill="#0" id="circle207"/>
	<circle cx="375.374" cy="685.687" r="4" fill="#0" id="circle208"/>
	<circle cx="375.374" cy="695.697" r="4" fill="#0" id="circle209"/>
	<circle cx="375.374" cy="705.707" r="4" fill="#0" id="circle210"/>
	<circle cx="375.374" cy="715.717" r="4" fill="#0" id="circle211"/>
	<circle cx="375.374" cy="725.728" r="4" fill="#0" id="circle212"/>
	<circle cx="375.374" cy="735.738" r="4" fill="#0" id="circle213"/>
	<circle cx="375.374" cy="745.748" r="4" fill="#0" id="circle214"/>
	<circle cx="375.374" cy="755.758" r="4" fill="#0" id="circle215"/>
	<circle cx="375.374" cy="765.768" r="4" fill="#0" id="circle216"/>
	<circle cx="375.374" cy="775.778" r="4" fill="#0" id="circle217"/>
	<circle cx="375.374" cy="785.788" r="4" fill="#0" id="circle218"/>
	<circle cx="375.374" cy="795.798" r="4" fill="#0" id="circle219"/>
	<circle cx="375.374" cy="805.808" r="4" fill="#0" id="circle220"/>
	<circle cx="375.374" cy="815.818" r="4" fill="#0" id="circle221"/>
	<circle cx="375.374" cy="825.828" r="4" fill="#0" id="circle222"/>
	<circle cx="375.374" cy="835.839" r="4" fill="#0" id="circle223"/>
	<circle cx="375.374" cy="845.849" r="4" fill="#0" id="circle224"/>
	<circle cx="375.374" cy="855.859" r="4" fill="#0" id="circle225"/>
	<circle cx="375.374" cy="865.869" r="4" fill="#0" id="circle226"/>
	<circle cx="375.374" cy="875.879" r="4" fill="#0" id="circle227"/>
	<circle cx="375.374" cy="885.889" r="4" fill="#0" id="circle228"/>
	<circle cx="375.374" cy="895.899" r="4" fill="#0" id="circle229"/>
	<circle cx="375.374" cy="905.909" r="4" fill="#0" id="circle230"/>
	<circle cx="375.374" cy="915.919" r="4" fill="#0" id="circle231"/>
	<circle cx="375.374" cy="925.929" r="4" fill="#0" id="circle232"/>
	<circle cx="375.374" cy="935.939" r="4" fill="#0" id="circle233"/>
	<circle cx="375.374" cy="945.95" r="4" fill="#0" id="circle234"/>
	<circle cx="375.374" cy="955.96" r="4" fill="#0" id="circle235"/>
	<circle cx="375.374" cy="965.97" r="4" fill="#0" id="circle236"/>
	<circle cx="375.374" cy="975.98" r="4" fill="#0" id="circle237"/>
	<circle cx="375.374" cy="985.99" r="4" fill="#0" id="circle238"/>
	<circle cx="380.379" cy="19.0151" r="4" fill="#0" id="circle239"/>
	<circle cx="385.384" cy="200.198" r="4" fill="#0" id="circle240"/>
	<circle cx="389.388" cy="24.0202" r="4" fill="#0" id="circle241"/>
	<circle cx="395.395" cy="195.193" r="4" fill="#0" id="circle242"/>
	<circle cx="398.398" cy="29.0252" r="4" fill="#0" id="circle243"/>
	<circle cx="405.405" cy="190.188" r="4" fill="#0" id="circle244"/>
	<circle cx="407.407" cy="34.0303" r="4" fill="#0" id="circle245"/>
	<circle cx="409.409" cy="7.00303" r="4" fill="#0" id="circle246"/>
	<circle cx="409.409" cy="17.0131" r="4" fill="#0" id="circle247"/>
	<circle cx="409.409" cy="200.198" r="4" fill="#0" id="circle248"/>
	<circle cx="409.409" cy="210.208" r="4" fill="#0" id="circle249"/>
	<circle cx="412.412" cy="220.218" r="4" fill="#0" id="circle250"/>
	<circle cx="419.419" cy="4" r="4" fill="#0" id="circle251"/>
	<circle cx="422.422" cy="220.218" r="4" fill="#0" id="circle252"/>
	<circle cx="429.429" cy="4" r="4" fill="#0" id="circle253"/>
	<circle cx="432.432" cy="220.218" r="4" fill="#0" id="circle254"/>
	<circle cx="439.439" cy="4" r="4" fill="#0" id="circle255"/>
	<circle cx="442.442" cy="220.218" r="4" fill="#0" id="circle256"/>
	<circle cx="449.449" cy="4" r="4" fill="#0" id="circle257"/>
	<circle cx="452.452" cy="220.218" r="4" fill="#0" id="circle258"/>
	<circle cx="459.459" cy="4" r="4" fill="#0" id="circle259"/>
	<circle cx="462.462" cy="220.218" r="4" fill="#0" id="circle260"/>
	<circle cx="469.469" cy="4" r="4" fill="#0" id="circle261"/>
	<circle cx="472.472" cy="220.218" r="4" fill="#0" id="circle262"/>
	<circle cx="479.479" cy="4" r="4" fill="#0" id="circle263"/>
	<circle cx="482.482" cy="220.218" r="4" fill="#0" id="circle264"/>
	<circle cx="489.489" cy="4" r="4" fill="#0" id="circle265"/>
	<circle cx="492.492" cy="220.218" r="4" fill="#0" id="circle266"/>
	<circle cx="499.499" cy="4" r="4" fill="#0" id="circle267"/>
	<circle cx="502.503" cy="220.218" r="4" fill="#0" id="circle268"/>
	<circle cx="509.51" cy="4" r="4" fill="#0" id="circle269"/>
	<circle cx="512.513" cy="220.218" r="4" fill="#0" id="circle270"/>
	<circle cx="519.52" cy="4" r="4" fill="#0" id="circle271"/>
	<circle cx="522.523" cy="220.218" r="4" fill="#0" id="circle272"/>
	<circle cx="529.53" cy="4" r="4" fill="#0" id="circle273"/>
	<circle cx="532.533" cy="220.218" r="4" fill="#0" id="circle274"/>
	<circle cx="539.54" cy="4" r="4" fill="#0" id="circle275"/>
	<circle cx="542.543" cy="220.218" r="4" fill="#0" id="circle276"/>
	<circle cx="549.55" cy="4" r="4" fill="#0" id="circle277"/>
	<circle cx="552.553" cy="220.218" r="4" fill="#0" id="circle278"/>
	<circle cx="559.56" cy="6.00202" r="4" fill="#0" id="circle279"/>
	<circle cx="560.561" cy="16.0121" r="4" fill="#0" id="circle280"/>
	<circle cx="560.561" cy="26.0222" r="4" fill="#0" id="circle281"/>
	<circle cx="560.561" cy="36.0323" r="4" fill="#0" id="circle282"/>
	<circle cx="560.561" cy="46.0424" r="4" fill="#0" id="circle283"/>
	<circle cx="560.561" cy="56.0525" r="4" fill="#0" id="circle284"/>
	<circle cx="560.561" cy="66.0626" r="4" fill="#0" id="circle285"/>
	<circle cx="560.561" cy="76.0727" r="4" fill="#0" id="circle286"/>
	<circle cx="560.561" cy="86.0827" r="4" fill="#0" id="circle287"/>
	<circle cx="560.561" cy="96.0928" r="4" fill="#0" id="circle288"/>
	<circle cx="560.561" cy="106.103" r="4" fill="#0" id="circle289"/>
	<circle cx="560.561" cy="116.113" r="4" fill="#0" id="circle290"/>
	<circle cx="560.561" cy="126.123" r="4" fill="#0" id="circle291"/>
	<circle cx="560.561" cy="136.133" r="4" fill="#0" id="circle292"/>
	<circle cx="560.561" cy="146.143" r="4" fill="#0" id="circle293"/>
	<circle cx="560.561" cy="156.153" r="4" fill="#0" id="circle294"/>
	<circle cx="560.561" cy="166.163" r="4" fill="#0" id="circle295"/>
	<circle cx="560.561" cy="176.174" r="4" fill="#0" id="circle296"/>
	<circle cx="560.561" cy="186.184" r="4" fill="#0" id="circle297"/>
	<circle cx="560.561" cy="196.194" r="4" fill="#0" id="circle298"/>
	<circle cx="560.561" cy="206.204" r="4" fill="#0" id="circle299"/>
	</g>
</svg>