<?xml version="1.0" encoding="UTF-8" standalone="no"?>
<!-- Created with CurveBenchmark -->
<svg
	xmlns:dc="http://purl.org/dc/elements/1.1/"
	xmlns:cc="http://creativecommons.org/ns#"
	xmlns:rdf="http://www.w3.org/1999/02/22-rdf-syntax-ns#"
	xmlns:svg="http://www.w3.org/2000/svg"
	xmlns="http://www.w3.org/2000/svg"
	xmlns:sodipodi="http://sodipodi.sourceforge.net/DTD/sodipodi-0.dtd"
	xmlns:inkscape="http://www.inkscape.org/namespaces/inkscape"
	width="1000"
	height="1000"
	id="svg2"
	version="1.1"
	sodipodi:docname="manifold/nncrust-television245.png.txt">
<defs
	id="defs4" />
<metadata
	id="metadata7">
	<rdf:RDF>
		<cc:Work
			rdf:about="">
			<dc:format>image/svg+xml</dc:format>
			<dc:type
				rdf:resource="http://purl.org/dc/dcmitype/StillImage" />
			<dc:title></dc:title>
		</cc:Work>
	</rdf:RDF>
</metadata>
<g
	inkscape:label="Layer 1"
	inkscape:groupmode="layer"
	id="layer1">
	<path style="fill:none;stroke:red;stroke-width:1px;stroke-linecap:butt;stroke-linejoin:miter;stroke-opacity:1" d="M 184.364,82.419 184.364,121.628 z" id="boundary" inkscape:connector-curvature="0" />
	<path style="fill:none;stroke:red;stroke-width:1px;stroke-linecap:butt;stroke-linejoin:miter;stroke-opacity:1" d="M 184.364,160.838 184.364,200.047 z" id="boundary" inkscape:connector-curvature="0" />
	<path style="fill:none;stroke:red;stroke-width:1px;stroke-linecap:butt;stroke-linejoin:miter;stroke-opacity:1" d="M 184.364,160.838 184.364,121.628 z" id="boundary" inkscape:connector-curvature="0" />
	<path style="fill:none;stroke:red;stroke-width:1px;stroke-linecap:butt;stroke-linejoin:miter;stroke-opacity:1" d="M 188.285,239.257 184.364,200.047 z" id="boundary" inkscape:connector-curvature="0" />
	<path style="fill:none;stroke:red;stroke-width:1px;stroke-linecap:butt;stroke-linejoin:miter;stroke-opacity:1" d="M 188.285,239.257 192.206,278.466 z" id="boundary" inkscape:connector-curvature="0" />
	<path style="fill:none;stroke:red;stroke-width:1px;stroke-linecap:butt;stroke-linejoin:miter;stroke-opacity:1" d="M 192.206,278.466 192.206,317.676 z" id="boundary" inkscape:connector-curvature="0" />
	<path style="fill:none;stroke:red;stroke-width:1px;stroke-linecap:butt;stroke-linejoin:miter;stroke-opacity:1" d="M 192.206,356.885 192.206,317.676 z" id="boundary" inkscape:connector-curvature="0" />
	<path style="fill:none;stroke:red;stroke-width:1px;stroke-linecap:butt;stroke-linejoin:miter;stroke-opacity:1" d="M 184.364,82.419 192.206,11.8419 z" id="boundary" inkscape:connector-curvature="0" />
	<path style="fill:none;stroke:red;stroke-width:1px;stroke-linecap:butt;stroke-linejoin:miter;stroke-opacity:1" d="M 192.206,11.8419 231.415,4 z" id="boundary" inkscape:connector-curvature="0" />
	<path style="fill:none;stroke:red;stroke-width:1px;stroke-linecap:butt;stroke-linejoin:miter;stroke-opacity:1" d="M 192.206,356.885 192.206,396.095 z" id="boundary" inkscape:connector-curvature="0" />
	<path style="fill:none;stroke:red;stroke-width:1px;stroke-linecap:butt;stroke-linejoin:miter;stroke-opacity:1" d="M 137.312,670.561 172.601,690.166 z" id="boundary" inkscape:connector-curvature="0" />
	<path style="fill:none;stroke:red;stroke-width:1px;stroke-linecap:butt;stroke-linejoin:miter;stroke-opacity:1" d="M 172.601,690.166 137.312,788.19 z" id="boundary" inkscape:connector-curvature="0" />
	<path style="fill:none;stroke:red;stroke-width:1px;stroke-linecap:butt;stroke-linejoin:miter;stroke-opacity:1" d="M 192.206,654.877 172.601,690.166 z" id="boundary" inkscape:connector-curvature="0" />
	<path style="fill:none;stroke:red;stroke-width:1px;stroke-linecap:butt;stroke-linejoin:miter;stroke-opacity:1" d="M 192.206,396.095 192.206,435.304 z" id="boundary" inkscape:connector-curvature="0" />
	<path style="fill:none;stroke:red;stroke-width:1px;stroke-linecap:butt;stroke-linejoin:miter;stroke-opacity:1" d="M 192.206,435.304 192.206,474.514 z" id="boundary" inkscape:connector-curvature="0" />
	<path style="fill:none;stroke:red;stroke-width:1px;stroke-linecap:butt;stroke-linejoin:miter;stroke-opacity:1" d="M 231.415,525.486 192.206,513.723 z" id="boundary" inkscape:connector-curvature="0" />
	<path style="fill:none;stroke:red;stroke-width:1px;stroke-linecap:butt;stroke-linejoin:miter;stroke-opacity:1" d="M 192.206,513.723 192.206,474.514 z" id="boundary" inkscape:connector-curvature="0" />
	<path style="fill:none;stroke:red;stroke-width:1px;stroke-linecap:butt;stroke-linejoin:miter;stroke-opacity:1" d="M 192.206,654.877 231.415,654.877 z" id="boundary" inkscape:connector-curvature="0" />
	<path style="fill:none;stroke:red;stroke-width:1px;stroke-linecap:butt;stroke-linejoin:miter;stroke-opacity:1" d="M 211.81,690.166 172.601,690.166 z" id="boundary" inkscape:connector-curvature="0" />
	<path style="fill:none;stroke:red;stroke-width:1px;stroke-linecap:butt;stroke-linejoin:miter;stroke-opacity:1" d="M 137.312,670.561 192.206,513.723 z" id="boundary" inkscape:connector-curvature="0" />
	<path style="fill:none;stroke:red;stroke-width:1px;stroke-linecap:butt;stroke-linejoin:miter;stroke-opacity:1" d="M 231.415,4 270.625,4 z" id="boundary" inkscape:connector-curvature="0" />
	<path style="fill:none;stroke:red;stroke-width:1px;stroke-linecap:butt;stroke-linejoin:miter;stroke-opacity:1" d="M 309.834,4 349.043,4 z" id="boundary" inkscape:connector-curvature="0" />
	<path style="fill:none;stroke:red;stroke-width:1px;stroke-linecap:butt;stroke-linejoin:miter;stroke-opacity:1" d="M 349.043,4 388.253,4 z" id="boundary" inkscape:connector-curvature="0" />
	<path style="fill:none;stroke:red;stroke-width:1px;stroke-linecap:butt;stroke-linejoin:miter;stroke-opacity:1" d="M 270.625,4 309.834,4 z" id="boundary" inkscape:connector-curvature="0" />
	<path style="fill:none;stroke:red;stroke-width:1px;stroke-linecap:butt;stroke-linejoin:miter;stroke-opacity:1" d="M 388.253,4 427.462,4 z" id="boundary" inkscape:connector-curvature="0" />
	<path style="fill:none;stroke:red;stroke-width:1px;stroke-linecap:butt;stroke-linejoin:miter;stroke-opacity:1" d="M 454.909,525.486 415.7,529.407 z" id="boundary" inkscape:connector-curvature="0" />
	<path style="fill:none;stroke:red;stroke-width:1px;stroke-linecap:butt;stroke-linejoin:miter;stroke-opacity:1" d="M 454.909,654.877 474.514,690.166 z" id="boundary" inkscape:connector-curvature="0" />
	<path style="fill:none;stroke:red;stroke-width:1px;stroke-linecap:butt;stroke-linejoin:miter;stroke-opacity:1" d="M 415.7,568.617 415.7,529.407 z" id="boundary" inkscape:connector-curvature="0" />
	<path style="fill:none;stroke:red;stroke-width:1px;stroke-linecap:butt;stroke-linejoin:miter;stroke-opacity:1" d="M 254.941,556.854 231.415,525.486 z" id="boundary" inkscape:connector-curvature="0" />
	<path style="fill:none;stroke:red;stroke-width:1px;stroke-linecap:butt;stroke-linejoin:miter;stroke-opacity:1" d="M 254.941,596.063 231.415,654.877 z" id="boundary" inkscape:connector-curvature="0" />
	<path style="fill:none;stroke:red;stroke-width:1px;stroke-linecap:butt;stroke-linejoin:miter;stroke-opacity:1" d="M 254.941,596.063 254.941,556.854 z" id="boundary" inkscape:connector-curvature="0" />
	<path style="fill:none;stroke:red;stroke-width:1px;stroke-linecap:butt;stroke-linejoin:miter;stroke-opacity:1" d="M 231.415,654.877 251.02,690.166 z" id="boundary" inkscape:connector-curvature="0" />
	<path style="fill:none;stroke:red;stroke-width:1px;stroke-linecap:butt;stroke-linejoin:miter;stroke-opacity:1" d="M 251.02,690.166 211.81,690.166 z" id="boundary" inkscape:connector-curvature="0" />
	<path style="fill:none;stroke:red;stroke-width:1px;stroke-linecap:butt;stroke-linejoin:miter;stroke-opacity:1" d="M 415.7,568.617 415.7,607.826 z" id="boundary" inkscape:connector-curvature="0" />
	<path style="fill:none;stroke:red;stroke-width:1px;stroke-linecap:butt;stroke-linejoin:miter;stroke-opacity:1" d="M 415.7,647.036 454.909,654.877 z" id="boundary" inkscape:connector-curvature="0" />
	<path style="fill:none;stroke:red;stroke-width:1px;stroke-linecap:butt;stroke-linejoin:miter;stroke-opacity:1" d="M 415.7,701.929 415.7,647.036 z" id="boundary" inkscape:connector-curvature="0" />
	<path style="fill:none;stroke:red;stroke-width:1px;stroke-linecap:butt;stroke-linejoin:miter;stroke-opacity:1" d="M 415.7,647.036 415.7,607.826 z" id="boundary" inkscape:connector-curvature="0" />
	<path style="fill:none;stroke:red;stroke-width:1px;stroke-linecap:butt;stroke-linejoin:miter;stroke-opacity:1" d="M 415.7,741.138 415.7,701.929 z" id="boundary" inkscape:connector-curvature="0" />
	<path style="fill:none;stroke:red;stroke-width:1px;stroke-linecap:butt;stroke-linejoin:miter;stroke-opacity:1" d="M 494.119,654.877 454.909,654.877 z" id="boundary" inkscape:connector-curvature="0" />
	<path style="fill:none;stroke:red;stroke-width:1px;stroke-linecap:butt;stroke-linejoin:miter;stroke-opacity:1" d="M 251.02,690.166 254.941,729.375 z" id="boundary" inkscape:connector-curvature="0" />
	<path style="fill:none;stroke:red;stroke-width:1px;stroke-linecap:butt;stroke-linejoin:miter;stroke-opacity:1" d="M 454.909,525.486 494.119,525.486 z" id="boundary" inkscape:connector-curvature="0" />
	<path style="fill:none;stroke:red;stroke-width:1px;stroke-linecap:butt;stroke-linejoin:miter;stroke-opacity:1" d="M 43.2095,897.976 4,913.66 z" id="boundary" inkscape:connector-curvature="0" />
	<path style="fill:none;stroke:red;stroke-width:1px;stroke-linecap:butt;stroke-linejoin:miter;stroke-opacity:1" d="M 105.945,897.976 74.5771,921.502 z" id="boundary" inkscape:connector-curvature="0" />
	<path style="fill:none;stroke:red;stroke-width:1px;stroke-linecap:butt;stroke-linejoin:miter;stroke-opacity:1" d="M 74.5771,921.502 43.2095,897.976 z" id="boundary" inkscape:connector-curvature="0" />
	<path style="fill:none;stroke:red;stroke-width:1px;stroke-linecap:butt;stroke-linejoin:miter;stroke-opacity:1" d="M 4,952.87 4,913.66 z" id="boundary" inkscape:connector-curvature="0" />
	<path style="fill:none;stroke:red;stroke-width:1px;stroke-linecap:butt;stroke-linejoin:miter;stroke-opacity:1" d="M 137.312,788.19 168.68,815.636 z" id="boundary" inkscape:connector-curvature="0" />
	<path style="fill:none;stroke:red;stroke-width:1px;stroke-linecap:butt;stroke-linejoin:miter;stroke-opacity:1" d="M 188.285,780.348 227.494,780.348 z" id="boundary" inkscape:connector-curvature="0" />
	<path style="fill:none;stroke:red;stroke-width:1px;stroke-linecap:butt;stroke-linejoin:miter;stroke-opacity:1" d="M 168.68,815.636 207.889,815.636 z" id="boundary" inkscape:connector-curvature="0" />
	<path style="fill:none;stroke:red;stroke-width:1px;stroke-linecap:butt;stroke-linejoin:miter;stroke-opacity:1" d="M 168.68,815.636 188.285,780.348 z" id="boundary" inkscape:connector-curvature="0" />
	<path style="fill:none;stroke:red;stroke-width:1px;stroke-linecap:butt;stroke-linejoin:miter;stroke-opacity:1" d="M 231.415,897.976 200.047,921.502 z" id="boundary" inkscape:connector-curvature="0" />
	<path style="fill:none;stroke:red;stroke-width:1px;stroke-linecap:butt;stroke-linejoin:miter;stroke-opacity:1" d="M 200.047,921.502 168.68,897.976 z" id="boundary" inkscape:connector-curvature="0" />
	<path style="fill:none;stroke:red;stroke-width:1px;stroke-linecap:butt;stroke-linejoin:miter;stroke-opacity:1" d="M 137.312,921.502 105.945,897.976 z" id="boundary" inkscape:connector-curvature="0" />
	<path style="fill:none;stroke:red;stroke-width:1px;stroke-linecap:butt;stroke-linejoin:miter;stroke-opacity:1" d="M 168.68,897.976 137.312,921.502 z" id="boundary" inkscape:connector-curvature="0" />
	<path style="fill:none;stroke:red;stroke-width:1px;stroke-linecap:butt;stroke-linejoin:miter;stroke-opacity:1" d="M 35.3676,980.316 4,952.87 z" id="boundary" inkscape:connector-curvature="0" />
	<path style="fill:none;stroke:red;stroke-width:1px;stroke-linecap:butt;stroke-linejoin:miter;stroke-opacity:1" d="M 35.3676,980.316 74.5771,980.316 z" id="boundary" inkscape:connector-curvature="0" />
	<path style="fill:none;stroke:red;stroke-width:1px;stroke-linecap:butt;stroke-linejoin:miter;stroke-opacity:1" d="M 113.787,980.316 74.5771,980.316 z" id="boundary" inkscape:connector-curvature="0" />
	<path style="fill:none;stroke:red;stroke-width:1px;stroke-linecap:butt;stroke-linejoin:miter;stroke-opacity:1" d="M 113.787,980.316 152.996,980.316 z" id="boundary" inkscape:connector-curvature="0" />
	<path style="fill:none;stroke:red;stroke-width:1px;stroke-linecap:butt;stroke-linejoin:miter;stroke-opacity:1" d="M 192.206,980.316 152.996,980.316 z" id="boundary" inkscape:connector-curvature="0" />
	<path style="fill:none;stroke:red;stroke-width:1px;stroke-linecap:butt;stroke-linejoin:miter;stroke-opacity:1" d="M 231.415,980.316 192.206,980.316 z" id="boundary" inkscape:connector-curvature="0" />
	<path style="fill:none;stroke:red;stroke-width:1px;stroke-linecap:butt;stroke-linejoin:miter;stroke-opacity:1" d="M 247.099,815.636 207.889,815.636 z" id="boundary" inkscape:connector-curvature="0" />
	<path style="fill:none;stroke:red;stroke-width:1px;stroke-linecap:butt;stroke-linejoin:miter;stroke-opacity:1" d="M 227.494,780.348 247.099,815.636 z" id="boundary" inkscape:connector-curvature="0" />
	<path style="fill:none;stroke:red;stroke-width:1px;stroke-linecap:butt;stroke-linejoin:miter;stroke-opacity:1" d="M 254.941,854.846 247.099,815.636 z" id="boundary" inkscape:connector-curvature="0" />
	<path style="fill:none;stroke:red;stroke-width:1px;stroke-linecap:butt;stroke-linejoin:miter;stroke-opacity:1" d="M 231.415,897.976 254.941,854.846 z" id="boundary" inkscape:connector-curvature="0" />
	<path style="fill:none;stroke:red;stroke-width:1px;stroke-linecap:butt;stroke-linejoin:miter;stroke-opacity:1" d="M 227.494,780.348 254.941,729.375 z" id="boundary" inkscape:connector-curvature="0" />
	<path style="fill:none;stroke:red;stroke-width:1px;stroke-linecap:butt;stroke-linejoin:miter;stroke-opacity:1" d="M 419.621,780.348 415.7,819.557 z" id="boundary" inkscape:connector-curvature="0" />
	<path style="fill:none;stroke:red;stroke-width:1px;stroke-linecap:butt;stroke-linejoin:miter;stroke-opacity:1" d="M 474.514,780.348 454.909,815.636 z" id="boundary" inkscape:connector-curvature="0" />
	<path style="fill:none;stroke:red;stroke-width:1px;stroke-linecap:butt;stroke-linejoin:miter;stroke-opacity:1" d="M 415.7,819.557 454.909,815.636 z" id="boundary" inkscape:connector-curvature="0" />
	<path style="fill:none;stroke:red;stroke-width:1px;stroke-linecap:butt;stroke-linejoin:miter;stroke-opacity:1" d="M 415.7,858.767 415.7,819.557 z" id="boundary" inkscape:connector-curvature="0" />
	<path style="fill:none;stroke:red;stroke-width:1px;stroke-linecap:butt;stroke-linejoin:miter;stroke-opacity:1" d="M 419.621,780.348 415.7,741.138 z" id="boundary" inkscape:connector-curvature="0" />
	<path style="fill:none;stroke:red;stroke-width:1px;stroke-linecap:butt;stroke-linejoin:miter;stroke-opacity:1" d="M 415.7,858.767 419.621,897.976 z" id="boundary" inkscape:connector-curvature="0" />
	<path style="fill:none;stroke:red;stroke-width:1px;stroke-linecap:butt;stroke-linejoin:miter;stroke-opacity:1" d="M 231.415,980.316 270.625,980.316 z" id="boundary" inkscape:connector-curvature="0" />
	<path style="fill:none;stroke:red;stroke-width:1px;stroke-linecap:butt;stroke-linejoin:miter;stroke-opacity:1" d="M 270.625,980.316 309.834,992.079 z" id="boundary" inkscape:connector-curvature="0" />
	<path style="fill:none;stroke:red;stroke-width:1px;stroke-linecap:butt;stroke-linejoin:miter;stroke-opacity:1" d="M 309.834,992.079 349.043,980.316 z" id="boundary" inkscape:connector-curvature="0" />
	<path style="fill:none;stroke:red;stroke-width:1px;stroke-linecap:butt;stroke-linejoin:miter;stroke-opacity:1" d="M 349.043,980.316 388.253,980.316 z" id="boundary" inkscape:connector-curvature="0" />
	<path style="fill:none;stroke:red;stroke-width:1px;stroke-linecap:butt;stroke-linejoin:miter;stroke-opacity:1" d="M 419.621,897.976 458.83,897.976 z" id="boundary" inkscape:connector-curvature="0" />
	<path style="fill:none;stroke:red;stroke-width:1px;stroke-linecap:butt;stroke-linejoin:miter;stroke-opacity:1" d="M 427.462,980.316 388.253,980.316 z" id="boundary" inkscape:connector-curvature="0" />
	<path style="fill:none;stroke:red;stroke-width:1px;stroke-linecap:butt;stroke-linejoin:miter;stroke-opacity:1" d="M 466.672,980.316 427.462,980.316 z" id="boundary" inkscape:connector-curvature="0" />
	<path style="fill:none;stroke:red;stroke-width:1px;stroke-linecap:butt;stroke-linejoin:miter;stroke-opacity:1" d="M 458.83,897.976 498.04,897.976 z" id="boundary" inkscape:connector-curvature="0" />
	<path style="fill:none;stroke:red;stroke-width:1px;stroke-linecap:butt;stroke-linejoin:miter;stroke-opacity:1" d="M 466.672,980.316 505.881,996 z" id="boundary" inkscape:connector-curvature="0" />
	<path style="fill:none;stroke:red;stroke-width:1px;stroke-linecap:butt;stroke-linejoin:miter;stroke-opacity:1" d="M 454.909,815.636 494.119,815.636 z" id="boundary" inkscape:connector-curvature="0" />
	<path style="fill:none;stroke:red;stroke-width:1px;stroke-linecap:butt;stroke-linejoin:miter;stroke-opacity:1" d="M 427.462,4 466.672,4 z" id="boundary" inkscape:connector-curvature="0" />
	<path style="fill:none;stroke:red;stroke-width:1px;stroke-linecap:butt;stroke-linejoin:miter;stroke-opacity:1" d="M 619.589,258.862 619.589,298.071 z" id="boundary" inkscape:connector-curvature="0" />
	<path style="fill:none;stroke:red;stroke-width:1px;stroke-linecap:butt;stroke-linejoin:miter;stroke-opacity:1" d="M 494.119,525.486 533.328,525.486 z" id="boundary" inkscape:connector-curvature="0" />
	<path style="fill:none;stroke:red;stroke-width:1px;stroke-linecap:butt;stroke-linejoin:miter;stroke-opacity:1" d="M 505.881,4 545.091,4 z" id="boundary" inkscape:connector-curvature="0" />
	<path style="fill:none;stroke:red;stroke-width:1px;stroke-linecap:butt;stroke-linejoin:miter;stroke-opacity:1" d="M 584.3,4 619.589,23.6047 z" id="boundary" inkscape:connector-curvature="0" />
	<path style="fill:none;stroke:red;stroke-width:1px;stroke-linecap:butt;stroke-linejoin:miter;stroke-opacity:1" d="M 619.589,23.6047 619.589,62.8142 z" id="boundary" inkscape:connector-curvature="0" />
	<path style="fill:none;stroke:red;stroke-width:1px;stroke-linecap:butt;stroke-linejoin:miter;stroke-opacity:1" d="M 572.538,525.486 533.328,525.486 z" id="boundary" inkscape:connector-curvature="0" />
	<path style="fill:none;stroke:red;stroke-width:1px;stroke-linecap:butt;stroke-linejoin:miter;stroke-opacity:1" d="M 619.589,62.8142 619.589,102.024 z" id="boundary" inkscape:connector-curvature="0" />
	<path style="fill:none;stroke:red;stroke-width:1px;stroke-linecap:butt;stroke-linejoin:miter;stroke-opacity:1" d="M 650.957,654.877 611.747,654.877 z" id="boundary" inkscape:connector-curvature="0" />
	<path style="fill:none;stroke:red;stroke-width:1px;stroke-linecap:butt;stroke-linejoin:miter;stroke-opacity:1" d="M 545.091,4 584.3,4 z" id="boundary" inkscape:connector-curvature="0" />
	<path style="fill:none;stroke:red;stroke-width:1px;stroke-linecap:butt;stroke-linejoin:miter;stroke-opacity:1" d="M 611.747,521.565 572.538,525.486 z" id="boundary" inkscape:connector-curvature="0" />
	<path style="fill:none;stroke:red;stroke-width:1px;stroke-linecap:butt;stroke-linejoin:miter;stroke-opacity:1" d="M 619.589,454.909 611.747,521.565 z" id="boundary" inkscape:connector-curvature="0" />
	<path style="fill:none;stroke:red;stroke-width:1px;stroke-linecap:butt;stroke-linejoin:miter;stroke-opacity:1" d="M 494.119,654.877 533.328,654.877 z" id="boundary" inkscape:connector-curvature="0" />
	<path style="fill:none;stroke:red;stroke-width:1px;stroke-linecap:butt;stroke-linejoin:miter;stroke-opacity:1" d="M 474.514,690.166 513.723,690.166 z" id="boundary" inkscape:connector-curvature="0" />
	<path style="fill:none;stroke:red;stroke-width:1px;stroke-linecap:butt;stroke-linejoin:miter;stroke-opacity:1" d="M 552.933,690.166 513.723,690.166 z" id="boundary" inkscape:connector-curvature="0" />
	<path style="fill:none;stroke:red;stroke-width:1px;stroke-linecap:butt;stroke-linejoin:miter;stroke-opacity:1" d="M 533.328,654.877 572.538,654.877 z" id="boundary" inkscape:connector-curvature="0" />
	<path style="fill:none;stroke:red;stroke-width:1px;stroke-linecap:butt;stroke-linejoin:miter;stroke-opacity:1" d="M 611.747,654.877 572.538,654.877 z" id="boundary" inkscape:connector-curvature="0" />
	<path style="fill:none;stroke:red;stroke-width:1px;stroke-linecap:butt;stroke-linejoin:miter;stroke-opacity:1" d="M 592.142,690.166 552.933,690.166 z" id="boundary" inkscape:connector-curvature="0" />
	<path style="fill:none;stroke:red;stroke-width:1px;stroke-linecap:butt;stroke-linejoin:miter;stroke-opacity:1" d="M 631.352,690.166 592.142,690.166 z" id="boundary" inkscape:connector-curvature="0" />
	<path style="fill:none;stroke:red;stroke-width:1px;stroke-linecap:butt;stroke-linejoin:miter;stroke-opacity:1" d="M 619.589,102.024 619.589,141.233 z" id="boundary" inkscape:connector-curvature="0" />
	<path style="fill:none;stroke:red;stroke-width:1px;stroke-linecap:butt;stroke-linejoin:miter;stroke-opacity:1" d="M 466.672,4 505.881,4 z" id="boundary" inkscape:connector-curvature="0" />
	<path style="fill:none;stroke:red;stroke-width:1px;stroke-linecap:butt;stroke-linejoin:miter;stroke-opacity:1" d="M 619.589,141.233 619.589,180.443 z" id="boundary" inkscape:connector-curvature="0" />
	<path style="fill:none;stroke:red;stroke-width:1px;stroke-linecap:butt;stroke-linejoin:miter;stroke-opacity:1" d="M 619.589,219.652 619.589,258.862 z" id="boundary" inkscape:connector-curvature="0" />
	<path style="fill:none;stroke:red;stroke-width:1px;stroke-linecap:butt;stroke-linejoin:miter;stroke-opacity:1" d="M 619.589,219.652 619.589,180.443 z" id="boundary" inkscape:connector-curvature="0" />
	<path style="fill:none;stroke:red;stroke-width:1px;stroke-linecap:butt;stroke-linejoin:miter;stroke-opacity:1" d="M 619.589,337.281 619.589,376.49 z" id="boundary" inkscape:connector-curvature="0" />
	<path style="fill:none;stroke:red;stroke-width:1px;stroke-linecap:butt;stroke-linejoin:miter;stroke-opacity:1" d="M 619.589,337.281 619.589,298.071 z" id="boundary" inkscape:connector-curvature="0" />
	<path style="fill:none;stroke:red;stroke-width:1px;stroke-linecap:butt;stroke-linejoin:miter;stroke-opacity:1" d="M 619.589,376.49 619.589,415.7 z" id="boundary" inkscape:connector-curvature="0" />
	<path style="fill:none;stroke:red;stroke-width:1px;stroke-linecap:butt;stroke-linejoin:miter;stroke-opacity:1" d="M 619.589,454.909 619.589,415.7 z" id="boundary" inkscape:connector-curvature="0" />
	<path style="fill:none;stroke:red;stroke-width:1px;stroke-linecap:butt;stroke-linejoin:miter;stroke-opacity:1" d="M 650.957,654.877 690.166,654.877 z" id="boundary" inkscape:connector-curvature="0" />
	<path style="fill:none;stroke:red;stroke-width:1px;stroke-linecap:butt;stroke-linejoin:miter;stroke-opacity:1" d="M 631.352,690.166 670.561,690.166 z" id="boundary" inkscape:connector-curvature="0" />
	<path style="fill:none;stroke:red;stroke-width:1px;stroke-linecap:butt;stroke-linejoin:miter;stroke-opacity:1" d="M 709.771,690.166 670.561,690.166 z" id="boundary" inkscape:connector-curvature="0" />
	<path style="fill:none;stroke:red;stroke-width:1px;stroke-linecap:butt;stroke-linejoin:miter;stroke-opacity:1" d="M 729.375,654.877 768.585,654.877 z" id="boundary" inkscape:connector-curvature="0" />
	<path style="fill:none;stroke:red;stroke-width:1px;stroke-linecap:butt;stroke-linejoin:miter;stroke-opacity:1" d="M 709.771,690.166 748.98,690.166 z" id="boundary" inkscape:connector-curvature="0" />
	<path style="fill:none;stroke:red;stroke-width:1px;stroke-linecap:butt;stroke-linejoin:miter;stroke-opacity:1" d="M 788.19,690.166 748.98,690.166 z" id="boundary" inkscape:connector-curvature="0" />
	<path style="fill:none;stroke:red;stroke-width:1px;stroke-linecap:butt;stroke-linejoin:miter;stroke-opacity:1" d="M 768.585,654.877 788.19,690.166 z" id="boundary" inkscape:connector-curvature="0" />
	<path style="fill:none;stroke:red;stroke-width:1px;stroke-linecap:butt;stroke-linejoin:miter;stroke-opacity:1" d="M 690.166,654.877 729.375,654.877 z" id="boundary" inkscape:connector-curvature="0" />
	<path style="fill:none;stroke:red;stroke-width:1px;stroke-linecap:butt;stroke-linejoin:miter;stroke-opacity:1" d="M 474.514,780.348 513.723,780.348 z" id="boundary" inkscape:connector-curvature="0" />
	<path style="fill:none;stroke:red;stroke-width:1px;stroke-linecap:butt;stroke-linejoin:miter;stroke-opacity:1" d="M 494.119,815.636 533.328,815.636 z" id="boundary" inkscape:connector-curvature="0" />
	<path style="fill:none;stroke:red;stroke-width:1px;stroke-linecap:butt;stroke-linejoin:miter;stroke-opacity:1" d="M 513.723,780.348 552.933,780.348 z" id="boundary" inkscape:connector-curvature="0" />
	<path style="fill:none;stroke:red;stroke-width:1px;stroke-linecap:butt;stroke-linejoin:miter;stroke-opacity:1" d="M 552.933,780.348 592.142,780.348 z" id="boundary" inkscape:connector-curvature="0" />
	<path style="fill:none;stroke:red;stroke-width:1px;stroke-linecap:butt;stroke-linejoin:miter;stroke-opacity:1" d="M 611.747,815.636 572.538,815.636 z" id="boundary" inkscape:connector-curvature="0" />
	<path style="fill:none;stroke:red;stroke-width:1px;stroke-linecap:butt;stroke-linejoin:miter;stroke-opacity:1" d="M 592.142,780.348 631.352,780.348 z" id="boundary" inkscape:connector-curvature="0" />
	<path style="fill:none;stroke:red;stroke-width:1px;stroke-linecap:butt;stroke-linejoin:miter;stroke-opacity:1" d="M 611.747,815.636 650.957,815.636 z" id="boundary" inkscape:connector-curvature="0" />
	<path style="fill:none;stroke:red;stroke-width:1px;stroke-linecap:butt;stroke-linejoin:miter;stroke-opacity:1" d="M 572.538,815.636 533.328,815.636 z" id="boundary" inkscape:connector-curvature="0" />
	<path style="fill:none;stroke:red;stroke-width:1px;stroke-linecap:butt;stroke-linejoin:miter;stroke-opacity:1" d="M 529.407,921.502 498.04,897.976 z" id="boundary" inkscape:connector-curvature="0" />
	<path style="fill:none;stroke:red;stroke-width:1px;stroke-linecap:butt;stroke-linejoin:miter;stroke-opacity:1" d="M 560.775,897.976 529.407,921.502 z" id="boundary" inkscape:connector-curvature="0" />
	<path style="fill:none;stroke:red;stroke-width:1px;stroke-linecap:butt;stroke-linejoin:miter;stroke-opacity:1" d="M 505.881,996 545.091,980.316 z" id="boundary" inkscape:connector-curvature="0" />
	<path style="fill:none;stroke:red;stroke-width:1px;stroke-linecap:butt;stroke-linejoin:miter;stroke-opacity:1" d="M 545.091,980.316 584.3,980.316 z" id="boundary" inkscape:connector-curvature="0" />
	<path style="fill:none;stroke:red;stroke-width:1px;stroke-linecap:butt;stroke-linejoin:miter;stroke-opacity:1" d="M 623.51,897.976 592.142,921.502 z" id="boundary" inkscape:connector-curvature="0" />
	<path style="fill:none;stroke:red;stroke-width:1px;stroke-linecap:butt;stroke-linejoin:miter;stroke-opacity:1" d="M 592.142,921.502 560.775,897.976 z" id="boundary" inkscape:connector-curvature="0" />
	<path style="fill:none;stroke:red;stroke-width:1px;stroke-linecap:butt;stroke-linejoin:miter;stroke-opacity:1" d="M 623.51,980.316 584.3,980.316 z" id="boundary" inkscape:connector-curvature="0" />
	<path style="fill:none;stroke:red;stroke-width:1px;stroke-linecap:butt;stroke-linejoin:miter;stroke-opacity:1" d="M 623.51,897.976 654.877,921.502 z" id="boundary" inkscape:connector-curvature="0" />
	<path style="fill:none;stroke:red;stroke-width:1px;stroke-linecap:butt;stroke-linejoin:miter;stroke-opacity:1" d="M 623.51,980.316 662.719,980.316 z" id="boundary" inkscape:connector-curvature="0" />
	<path style="fill:none;stroke:red;stroke-width:1px;stroke-linecap:butt;stroke-linejoin:miter;stroke-opacity:1" d="M 690.166,815.636 650.957,815.636 z" id="boundary" inkscape:connector-curvature="0" />
	<path style="fill:none;stroke:red;stroke-width:1px;stroke-linecap:butt;stroke-linejoin:miter;stroke-opacity:1" d="M 631.352,780.348 670.561,780.348 z" id="boundary" inkscape:connector-curvature="0" />
	<path style="fill:none;stroke:red;stroke-width:1px;stroke-linecap:butt;stroke-linejoin:miter;stroke-opacity:1" d="M 725.455,897.976 686.245,897.976 z" id="boundary" inkscape:connector-curvature="0" />
	<path style="fill:none;stroke:red;stroke-width:1px;stroke-linecap:butt;stroke-linejoin:miter;stroke-opacity:1" d="M 670.561,780.348 709.771,780.348 z" id="boundary" inkscape:connector-curvature="0" />
	<path style="fill:none;stroke:red;stroke-width:1px;stroke-linecap:butt;stroke-linejoin:miter;stroke-opacity:1" d="M 686.245,897.976 654.877,921.502 z" id="boundary" inkscape:connector-curvature="0" />
	<path style="fill:none;stroke:red;stroke-width:1px;stroke-linecap:butt;stroke-linejoin:miter;stroke-opacity:1" d="M 709.771,780.348 748.98,780.348 z" id="boundary" inkscape:connector-curvature="0" />
	<path style="fill:none;stroke:red;stroke-width:1px;stroke-linecap:butt;stroke-linejoin:miter;stroke-opacity:1" d="M 768.585,815.636 729.375,815.636 z" id="boundary" inkscape:connector-curvature="0" />
	<path style="fill:none;stroke:red;stroke-width:1px;stroke-linecap:butt;stroke-linejoin:miter;stroke-opacity:1" d="M 748.98,780.348 788.19,780.348 z" id="boundary" inkscape:connector-curvature="0" />
	<path style="fill:none;stroke:red;stroke-width:1px;stroke-linecap:butt;stroke-linejoin:miter;stroke-opacity:1" d="M 788.19,780.348 768.585,815.636 z" id="boundary" inkscape:connector-curvature="0" />
	<path style="fill:none;stroke:red;stroke-width:1px;stroke-linecap:butt;stroke-linejoin:miter;stroke-opacity:1" d="M 788.19,780.348 803.874,897.976 z" id="boundary" inkscape:connector-curvature="0" />
	<path style="fill:none;stroke:red;stroke-width:1px;stroke-linecap:butt;stroke-linejoin:miter;stroke-opacity:1" d="M 690.166,815.636 729.375,815.636 z" id="boundary" inkscape:connector-curvature="0" />
	<path style="fill:none;stroke:red;stroke-width:1px;stroke-linecap:butt;stroke-linejoin:miter;stroke-opacity:1" d="M 662.719,980.316 701.929,980.316 z" id="boundary" inkscape:connector-curvature="0" />
	<path style="fill:none;stroke:red;stroke-width:1px;stroke-linecap:butt;stroke-linejoin:miter;stroke-opacity:1" d="M 741.138,980.316 701.929,980.316 z" id="boundary" inkscape:connector-curvature="0" />
	<path style="fill:none;stroke:red;stroke-width:1px;stroke-linecap:butt;stroke-linejoin:miter;stroke-opacity:1" d="M 741.138,980.316 780.348,996 z" id="boundary" inkscape:connector-curvature="0" />
	<path style="fill:none;stroke:red;stroke-width:1px;stroke-linecap:butt;stroke-linejoin:miter;stroke-opacity:1" d="M 725.455,897.976 764.664,897.976 z" id="boundary" inkscape:connector-curvature="0" />
	<path style="fill:none;stroke:red;stroke-width:1px;stroke-linecap:butt;stroke-linejoin:miter;stroke-opacity:1" d="M 764.664,897.976 803.874,897.976 z" id="boundary" inkscape:connector-curvature="0" />
	<path style="fill:none;stroke:red;stroke-width:1px;stroke-linecap:butt;stroke-linejoin:miter;stroke-opacity:1" d="M 803.874,897.976 831.32,929.344 z" id="boundary" inkscape:connector-curvature="0" />
	<path style="fill:none;stroke:red;stroke-width:1px;stroke-linecap:butt;stroke-linejoin:miter;stroke-opacity:1" d="M 819.557,980.316 780.348,996 z" id="boundary" inkscape:connector-curvature="0" />
	<path style="fill:none;stroke:red;stroke-width:1px;stroke-linecap:butt;stroke-linejoin:miter;stroke-opacity:1" d="M 831.32,929.344 819.557,980.316 z" id="boundary" inkscape:connector-curvature="0" />
	<path style="fill:none;stroke:red;stroke-width:1px;stroke-linecap:butt;stroke-linejoin:miter;stroke-opacity:1" d="M 788.19,690.166 831.32,929.344 z" id="boundary" inkscape:connector-curvature="0" />
	<circle cx="4" cy="913.66" r="4" fill="#0" id="circle0"/>
	<circle cx="4" cy="952.87" r="4" fill="#0" id="circle1"/>
	<circle cx="35.3676" cy="980.316" r="4" fill="#0" id="circle2"/>
	<circle cx="43.2095" cy="897.976" r="4" fill="#0" id="circle3"/>
	<circle cx="74.5771" cy="921.502" r="4" fill="#0" id="circle4"/>
	<circle cx="74.5771" cy="980.316" r="4" fill="#0" id="circle5"/>
	<circle cx="105.945" cy="897.976" r="4" fill="#0" id="circle6"/>
	<circle cx="113.787" cy="980.316" r="4" fill="#0" id="circle7"/>
	<circle cx="137.312" cy="670.561" r="4" fill="#0" id="circle8"/>
	<circle cx="137.312" cy="788.19" r="4" fill="#0" id="circle9"/>
	<circle cx="137.312" cy="921.502" r="4" fill="#0" id="circle10"/>
	<circle cx="152.996" cy="980.316" r="4" fill="#0" id="circle11"/>
	<circle cx="168.68" cy="815.636" r="4" fill="#0" id="circle12"/>
	<circle cx="168.68" cy="897.976" r="4" fill="#0" id="circle13"/>
	<circle cx="172.601" cy="690.166" r="4" fill="#0" id="circle14"/>
	<circle cx="184.364" cy="82.419" r="4" fill="#0" id="circle15"/>
	<circle cx="184.364" cy="121.628" r="4" fill="#0" id="circle16"/>
	<circle cx="184.364" cy="160.838" r="4" fill="#0" id="circle17"/>
	<circle cx="184.364" cy="200.047" r="4" fill="#0" id="circle18"/>
	<circle cx="188.285" cy="239.257" r="4" fill="#0" id="circle19"/>
	<circle cx="188.285" cy="780.348" r="4" fill="#0" id="circle20"/>
	<circle cx="192.206" cy="11.8419" r="4" fill="#0" id="circle21"/>
	<circle cx="192.206" cy="278.466" r="4" fill="#0" id="circle22"/>
	<circle cx="192.206" cy="317.676" r="4" fill="#0" id="circle23"/>
	<circle cx="192.206" cy="356.885" r="4" fill="#0" id="circle24"/>
	<circle cx="192.206" cy="396.095" r="4" fill="#0" id="circle25"/>
	<circle cx="192.206" cy="435.304" r="4" fill="#0" id="circle26"/>
	<circle cx="192.206" cy="474.514" r="4" fill="#0" id="circle27"/>
	<circle cx="192.206" cy="513.723" r="4" fill="#0" id="circle28"/>
	<circle cx="192.206" cy="654.877" r="4" fill="#0" id="circle29"/>
	<circle cx="192.206" cy="980.316" r="4" fill="#0" id="circle30"/>
	<circle cx="200.047" cy="921.502" r="4" fill="#0" id="circle31"/>
	<circle cx="207.889" cy="815.636" r="4" fill="#0" id="circle32"/>
	<circle cx="211.81" cy="690.166" r="4" fill="#0" id="circle33"/>
	<circle cx="227.494" cy="780.348" r="4" fill="#0" id="circle34"/>
	<circle cx="231.415" cy="4" r="4" fill="#0" id="circle35"/>
	<circle cx="231.415" cy="525.486" r="4" fill="#0" id="circle36"/>
	<circle cx="231.415" cy="654.877" r="4" fill="#0" id="circle37"/>
	<circle cx="231.415" cy="897.976" r="4" fill="#0" id="circle38"/>
	<circle cx="231.415" cy="980.316" r="4" fill="#0" id="circle39"/>
	<circle cx="247.099" cy="815.636" r="4" fill="#0" id="circle40"/>
	<circle cx="251.02" cy="690.166" r="4" fill="#0" id="circle41"/>
	<circle cx="254.941" cy="556.854" r="4" fill="#0" id="circle42"/>
	<circle cx="254.941" cy="596.063" r="4" fill="#0" id="circle43"/>
	<circle cx="254.941" cy="729.375" r="4" fill="#0" id="circle44"/>
	<circle cx="254.941" cy="854.846" r="4" fill="#0" id="circle45"/>
	<circle cx="270.625" cy="4" r="4" fill="#0" id="circle46"/>
	<circle cx="270.625" cy="980.316" r="4" fill="#0" id="circle47"/>
	<circle cx="309.834" cy="4" r="4" fill="#0" id="circle48"/>
	<circle cx="309.834" cy="992.079" r="4" fill="#0" id="circle49"/>
	<circle cx="349.043" cy="4" r="4" fill="#0" id="circle50"/>
	<circle cx="349.043" cy="980.316" r="4" fill="#0" id="circle51"/>
	<circle cx="388.253" cy="4" r="4" fill="#0" id="circle52"/>
	<circle cx="388.253" cy="980.316" r="4" fill="#0" id="circle53"/>
	<circle cx="415.7" cy="529.407" r="4" fill="#0" id="circle54"/>
	<circle cx="415.7" cy="568.617" r="4" fill="#0" id="circle55"/>
	<circle cx="415.7" cy="607.826" r="4" fill="#0" id="circle56"/>
	<circle cx="415.7" cy="647.036" r="4" fill="#0" id="circle57"/>
	<circle cx="415.7" cy="701.929" r="4" fill="#0" id="circle58"/>
	<circle cx="415.7" cy="741.138" r="4" fill="#0" id="circle59"/>
	<circle cx="415.7" cy="819.557" r="4" fill="#0" id="circle60"/>
	<circle cx="415.7" cy="858.767" r="4" fill="#0" id="circle61"/>
	<circle cx="419.621" cy="780.348" r="4" fill="#0" id="circle62"/>
	<circle cx="419.621" cy="897.976" r="4" fill="#0" id="circle63"/>
	<circle cx="427.462" cy="4" r="4" fill="#0" id="circle64"/>
	<circle cx="427.462" cy="980.316" r="4" fill="#0" id="circle65"/>
	<circle cx="454.909" cy="525.486" r="4" fill="#0" id="circle66"/>
	<circle cx="454.909" cy="654.877" r="4" fill="#0" id="circle67"/>
	<circle cx="454.909" cy="815.636" r="4" fill="#0" id="circle68"/>
	<circle cx="458.83" cy="897.976" r="4" fill="#0" id="circle69"/>
	<circle cx="466.672" cy="4" r="4" fill="#0" id="circle70"/>
	<circle cx="466.672" cy="980.316" r="4" fill="#0" id="circle71"/>
	<circle cx="474.514" cy="690.166" r="4" fill="#0" id="circle72"/>
	<circle cx="474.514" cy="780.348" r="4" fill="#0" id="circle73"/>
	<circle cx="494.119" cy="525.486" r="4" fill="#0" id="circle74"/>
	<circle cx="494.119" cy="654.877" r="4" fill="#0" id="circle75"/>
	<circle cx="494.119" cy="815.636" r="4" fill="#0" id="circle76"/>
	<circle cx="498.04" cy="897.976" r="4" fill="#0" id="circle77"/>
	<circle cx="505.881" cy="4" r="4" fill="#0" id="circle78"/>
	<circle cx="505.881" cy="996" r="4" fill="#0" id="circle79"/>
	<circle cx="513.723" cy="690.166" r="4" fill="#0" id="circle80"/>
	<circle cx="513.723" cy="780.348" r="4" fill="#0" id="circle81"/>
	<circle cx="529.407" cy="921.502" r="4" fill="#0" id="circle82"/>
	<circle cx="533.328" cy="525.486" r="4" fill="#0" id="circle83"/>
	<circle cx="533.328" cy="654.877" r="4" fill="#0" id="circle84"/>
	<circle cx="533.328" cy="815.636" r="4" fill="#0" id="circle85"/>
	<circle cx="545.091" cy="4" r="4" fill="#0" id="circle86"/>
	<circle cx="545.091" cy="980.316" r="4" fill="#0" id="circle87"/>
	<circle cx="552.933" cy="690.166" r="4" fill="#0" id="circle88"/>
	<circle cx="552.933" cy="780.348" r="4" fill="#0" id="circle89"/>
	<circle cx="560.775" cy="897.976" r="4" fill="#0" id="circle90"/>
	<circle cx="572.538" cy="525.486" r="4" fill="#0" id="circle91"/>
	<circle cx="572.538" cy="654.877" r="4" fill="#0" id="circle92"/>
	<circle cx="572.538" cy="815.636" r="4" fill="#0" id="circle93"/>
	<circle cx="584.3" cy="4" r="4" fill="#0" id="circle94"/>
	<circle cx="584.3" cy="980.316" r="4" fill="#0" id="circle95"/>
	<circle cx="592.142" cy="690.166" r="4" fill="#0" id="circle96"/>
	<circle cx="592.142" cy="780.348" r="4" fill="#0" id="circle97"/>
	<circle cx="592.142" cy="921.502" r="4" fill="#0" id="circle98"/>
	<circle cx="611.747" cy="521.565" r="4" fill="#0" id="circle99"/>
	<circle cx="611.747" cy="654.877" r="4" fill="#0" id="circle100"/>
	<circle cx="611.747" cy="815.636" r="4" fill="#0" id="circle101"/>
	<circle cx="619.589" cy="23.6047" r="4" fill="#0" id="circle102"/>
	<circle cx="619.589" cy="62.8142" r="4" fill="#0" id="circle103"/>
	<circle cx="619.589" cy="102.024" r="4" fill="#0" id="circle104"/>
	<circle cx="619.589" cy="141.233" r="4" fill="#0" id="circle105"/>
	<circle cx="619.589" cy="180.443" r="4" fill="#0" id="circle106"/>
	<circle cx="619.589" cy="219.652" r="4" fill="#0" id="circle107"/>
	<circle cx="619.589" cy="258.862" r="4" fill="#0" id="circle108"/>
	<circle cx="619.589" cy="298.071" r="4" fill="#0" id="circle109"/>
	<circle cx="619.589" cy="337.281" r="4" fill="#0" id="circle110"/>
	<circle cx="619.589" cy="376.49" r="4" fill="#0" id="circle111"/>
	<circle cx="619.589" cy="415.7" r="4" fill="#0" id="circle112"/>
	<circle cx="619.589" cy="454.909" r="4" fill="#0" id="circle113"/>
	<circle cx="623.51" cy="897.976" r="4" fill="#0" id="circle114"/>
	<circle cx="623.51" cy="980.316" r="4" fill="#0" id="circle115"/>
	<circle cx="631.352" cy="690.166" r="4" fill="#0" id="circle116"/>
	<circle cx="631.352" cy="780.348" r="4" fill="#0" id="circle117"/>
	<circle cx="650.957" cy="654.877" r="4" fill="#0" id="circle118"/>
	<circle cx="650.957" cy="815.636" r="4" fill="#0" id="circle119"/>
	<circle cx="654.877" cy="921.502" r="4" fill="#0" id="circle120"/>
	<circle cx="662.719" cy="980.316" r="4" fill="#0" id="circle121"/>
	<circle cx="670.561" cy="690.166" r="4" fill="#0" id="circle122"/>
	<circle cx="670.561" cy="780.348" r="4" fill="#0" id="circle123"/>
	<circle cx="686.245" cy="897.976" r="4" fill="#0" id="circle124"/>
	<circle cx="690.166" cy="654.877" r="4" fill="#0" id="circle125"/>
	<circle cx="690.166" cy="815.636" r="4" fill="#0" id="circle126"/>
	<circle cx="701.929" cy="980.316" r="4" fill="#0" id="circle127"/>
	<circle cx="709.771" cy="690.166" r="4" fill="#0" id="circle128"/>
	<circle cx="709.771" cy="780.348" r="4" fill="#0" id="circle129"/>
	<circle cx="725.455" cy="897.976" r="4" fill="#0" id="circle130"/>
	<circle cx="729.375" cy="654.877" r="4" fill="#0" id="circle131"/>
	<circle cx="729.375" cy="815.636" r="4" fill="#0" id="circle132"/>
	<circle cx="741.138" cy="980.316" r="4" fill="#0" id="circle133"/>
	<circle cx="748.98" cy="690.166" r="4" fill="#0" id="circle134"/>
	<circle cx="748.98" cy="780.348" r="4" fill="#0" id="circle135"/>
	<circle cx="764.664" cy="897.976" r="4" fill="#0" id="circle136"/>
	<circle cx="768.585" cy="654.877" r="4" fill="#0" id="circle137"/>
	<circle cx="768.585" cy="815.636" r="4" fill="#0" id="circle138"/>
	<circle cx="780.348" cy="996" r="4" fill="#0" id="circle139"/>
	<circle cx="788.19" cy="690.166" r="4" fill="#0" id="circle140"/>
	<circle cx="788.19" cy="780.348" r="4" fill="#0" id="circle141"/>
	<circle cx="803.874" cy="897.976" r="4" fill="#0" id="circle142"/>
	<circle cx="819.557" cy="980.316" r="4" fill="#0" id="circle143"/>
	<circle cx="831.32" cy="929.344" r="4" fill="#0" id="circle144"/>
	</g>
</svg>