<?xml version="1.0" encoding="UTF-8" standalone="no"?>
<!-- Created with CurveBenchmark -->
<svg
	xmlns:dc="http://purl.org/dc/elements/1.1/"
	xmlns:cc="http://creativecommons.org/ns#"
	xmlns:rdf="http://www.w3.org/1999/02/22-rdf-syntax-ns#"
	xmlns:svg="http://www.w3.org/2000/svg"
	xmlns="http://www.w3.org/2000/svg"
	xmlns:sodipodi="http://sodipodi.sourceforge.net/DTD/sodipodi-0.dtd"
	xmlns:inkscape="http://www.inkscape.org/namespaces/inkscape"
	width="1000"
	height="1000"
	id="svg2"
	version="1.1"
	sodipodi:docname="manifold/nncrust-flatfish31.png.txt">
<defs
	id="defs4" />
<metadata
	id="metadata7">
	<rdf:RDF>
		<cc:Work
			rdf:about="">
			<dc:format>image/svg+xml</dc:format>
			<dc:type
				rdf:resource="http://purl.org/dc/dcmitype/StillImage" />
			<dc:title></dc:title>
		</cc:Work>
	</rdf:RDF>
</metadata>
<g
	inkscape:label="Layer 1"
	inkscape:groupmode="layer"
	id="layer1">
	<path style="fill:none;stroke:red;stroke-width:1px;stroke-linecap:butt;stroke-linejoin:miter;stroke-opacity:1" d="M 124.765,136.842 116.139,121.315 z" id="boundary" inkscape:connector-curvature="0" />
	<path style="fill:none;stroke:red;stroke-width:1px;stroke-linecap:butt;stroke-linejoin:miter;stroke-opacity:1" d="M 116.139,121.315 129.941,107.513 z" id="boundary" inkscape:connector-curvature="0" />
	<path style="fill:none;stroke:red;stroke-width:1px;stroke-linecap:butt;stroke-linejoin:miter;stroke-opacity:1" d="M 147.193,98.887 129.941,107.513 z" id="boundary" inkscape:connector-curvature="0" />
	<path style="fill:none;stroke:red;stroke-width:1px;stroke-linecap:butt;stroke-linejoin:miter;stroke-opacity:1" d="M 124.765,136.842 133.391,152.369 z" id="boundary" inkscape:connector-curvature="0" />
	<path style="fill:none;stroke:red;stroke-width:1px;stroke-linecap:butt;stroke-linejoin:miter;stroke-opacity:1" d="M 142.017,167.896 133.391,152.369 z" id="boundary" inkscape:connector-curvature="0" />
	<path style="fill:none;stroke:red;stroke-width:1px;stroke-linecap:butt;stroke-linejoin:miter;stroke-opacity:1" d="M 147.193,98.887 164.445,90.2609 z" id="boundary" inkscape:connector-curvature="0" />
	<path style="fill:none;stroke:red;stroke-width:1px;stroke-linecap:butt;stroke-linejoin:miter;stroke-opacity:1" d="M 159.27,198.95 150.643,183.423 z" id="boundary" inkscape:connector-curvature="0" />
	<path style="fill:none;stroke:red;stroke-width:1px;stroke-linecap:butt;stroke-linejoin:miter;stroke-opacity:1" d="M 150.643,183.423 142.017,167.896 z" id="boundary" inkscape:connector-curvature="0" />
	<path style="fill:none;stroke:red;stroke-width:1px;stroke-linecap:butt;stroke-linejoin:miter;stroke-opacity:1" d="M 167.896,214.477 159.27,198.95 z" id="boundary" inkscape:connector-curvature="0" />
	<path style="fill:none;stroke:red;stroke-width:1px;stroke-linecap:butt;stroke-linejoin:miter;stroke-opacity:1" d="M 160.995,248.981 148.918,262.783 z" id="boundary" inkscape:connector-curvature="0" />
	<path style="fill:none;stroke:red;stroke-width:1px;stroke-linecap:butt;stroke-linejoin:miter;stroke-opacity:1" d="M 167.896,214.477 176.522,230.003 z" id="boundary" inkscape:connector-curvature="0" />
	<path style="fill:none;stroke:red;stroke-width:1px;stroke-linecap:butt;stroke-linejoin:miter;stroke-opacity:1" d="M 176.522,230.003 160.995,248.981 z" id="boundary" inkscape:connector-curvature="0" />
	<path style="fill:none;stroke:red;stroke-width:1px;stroke-linecap:butt;stroke-linejoin:miter;stroke-opacity:1" d="M 164.445,90.2609 179.972,81.6348 z" id="boundary" inkscape:connector-curvature="0" />
	<path style="fill:none;stroke:red;stroke-width:1px;stroke-linecap:butt;stroke-linejoin:miter;stroke-opacity:1" d="M 148.918,262.783 135.117,274.859 z" id="boundary" inkscape:connector-curvature="0" />
	<path style="fill:none;stroke:red;stroke-width:1px;stroke-linecap:butt;stroke-linejoin:miter;stroke-opacity:1" d="M 69.5583,426.678 55.7565,440.48 z" id="boundary" inkscape:connector-curvature="0" />
	<path style="fill:none;stroke:red;stroke-width:1px;stroke-linecap:butt;stroke-linejoin:miter;stroke-opacity:1" d="M 73.0087,397.35 69.5583,426.678 z" id="boundary" inkscape:connector-curvature="0" />
	<path style="fill:none;stroke:red;stroke-width:1px;stroke-linecap:butt;stroke-linejoin:miter;stroke-opacity:1" d="M 73.0087,380.097 73.0087,397.35 z" id="boundary" inkscape:connector-curvature="0" />
	<path style="fill:none;stroke:red;stroke-width:1px;stroke-linecap:butt;stroke-linejoin:miter;stroke-opacity:1" d="M 47.1304,457.732 55.7565,440.48 z" id="boundary" inkscape:connector-curvature="0" />
	<path style="fill:none;stroke:red;stroke-width:1px;stroke-linecap:butt;stroke-linejoin:miter;stroke-opacity:1" d="M 29.8783,474.984 47.1304,457.732 z" id="boundary" inkscape:connector-curvature="0" />
	<path style="fill:none;stroke:red;stroke-width:1px;stroke-linecap:butt;stroke-linejoin:miter;stroke-opacity:1" d="M 38.5043,490.511 29.8783,474.984 z" id="boundary" inkscape:connector-curvature="0" />
	<path style="fill:none;stroke:red;stroke-width:1px;stroke-linecap:butt;stroke-linejoin:miter;stroke-opacity:1" d="M 38.5043,490.511 29.8783,509.489 z" id="boundary" inkscape:connector-curvature="0" />
	<path style="fill:none;stroke:red;stroke-width:1px;stroke-linecap:butt;stroke-linejoin:miter;stroke-opacity:1" d="M 107.513,302.463 121.315,288.661 z" id="boundary" inkscape:connector-curvature="0" />
	<path style="fill:none;stroke:red;stroke-width:1px;stroke-linecap:butt;stroke-linejoin:miter;stroke-opacity:1" d="M 95.4365,331.791 107.513,302.463 z" id="boundary" inkscape:connector-curvature="0" />
	<path style="fill:none;stroke:red;stroke-width:1px;stroke-linecap:butt;stroke-linejoin:miter;stroke-opacity:1" d="M 135.117,274.859 121.315,288.661 z" id="boundary" inkscape:connector-curvature="0" />
	<path style="fill:none;stroke:red;stroke-width:1px;stroke-linecap:butt;stroke-linejoin:miter;stroke-opacity:1" d="M 73.0087,380.097 81.6348,362.845 z" id="boundary" inkscape:connector-curvature="0" />
	<path style="fill:none;stroke:red;stroke-width:1px;stroke-linecap:butt;stroke-linejoin:miter;stroke-opacity:1" d="M 81.6348,345.593 81.6348,362.845 z" id="boundary" inkscape:connector-curvature="0" />
	<path style="fill:none;stroke:red;stroke-width:1px;stroke-linecap:butt;stroke-linejoin:miter;stroke-opacity:1" d="M 81.6348,345.593 95.4365,331.791 z" id="boundary" inkscape:connector-curvature="0" />
	<path style="fill:none;stroke:red;stroke-width:1px;stroke-linecap:butt;stroke-linejoin:miter;stroke-opacity:1" d="M 226.553,55.7565 242.08,47.1304 z" id="boundary" inkscape:connector-curvature="0" />
	<path style="fill:none;stroke:red;stroke-width:1px;stroke-linecap:butt;stroke-linejoin:miter;stroke-opacity:1" d="M 257.607,38.5043 242.08,47.1304 z" id="boundary" inkscape:connector-curvature="0" />
	<path style="fill:none;stroke:red;stroke-width:1px;stroke-linecap:butt;stroke-linejoin:miter;stroke-opacity:1" d="M 271.409,26.4278 257.607,38.5043 z" id="boundary" inkscape:connector-curvature="0" />
	<path style="fill:none;stroke:red;stroke-width:1px;stroke-linecap:butt;stroke-linejoin:miter;stroke-opacity:1" d="M 195.499,73.0087 179.972,81.6348 z" id="boundary" inkscape:connector-curvature="0" />
	<path style="fill:none;stroke:red;stroke-width:1px;stroke-linecap:butt;stroke-linejoin:miter;stroke-opacity:1" d="M 211.026,64.3826 195.499,73.0087 z" id="boundary" inkscape:connector-curvature="0" />
	<path style="fill:none;stroke:red;stroke-width:1px;stroke-linecap:butt;stroke-linejoin:miter;stroke-opacity:1" d="M 211.026,64.3826 226.553,55.7565 z" id="boundary" inkscape:connector-curvature="0" />
	<path style="fill:none;stroke:red;stroke-width:1px;stroke-linecap:butt;stroke-linejoin:miter;stroke-opacity:1" d="M 285.21,38.5043 297.287,52.3061 z" id="boundary" inkscape:connector-curvature="0" />
	<path style="fill:none;stroke:red;stroke-width:1px;stroke-linecap:butt;stroke-linejoin:miter;stroke-opacity:1" d="M 538.817,150.643 521.565,150.643 z" id="boundary" inkscape:connector-curvature="0" />
	<path style="fill:none;stroke:red;stroke-width:1px;stroke-linecap:butt;stroke-linejoin:miter;stroke-opacity:1" d="M 297.287,52.3061 305.913,67.833 z" id="boundary" inkscape:connector-curvature="0" />
	<path style="fill:none;stroke:red;stroke-width:1px;stroke-linecap:butt;stroke-linejoin:miter;stroke-opacity:1" d="M 305.913,67.833 312.814,85.0852 z" id="boundary" inkscape:connector-curvature="0" />
	<path style="fill:none;stroke:red;stroke-width:1px;stroke-linecap:butt;stroke-linejoin:miter;stroke-opacity:1" d="M 324.89,98.887 312.814,85.0852 z" id="boundary" inkscape:connector-curvature="0" />
	<path style="fill:none;stroke:red;stroke-width:1px;stroke-linecap:butt;stroke-linejoin:miter;stroke-opacity:1" d="M 324.89,98.887 333.517,114.414 z" id="boundary" inkscape:connector-curvature="0" />
	<path style="fill:none;stroke:red;stroke-width:1px;stroke-linecap:butt;stroke-linejoin:miter;stroke-opacity:1" d="M 271.409,26.4278 285.21,38.5043 z" id="boundary" inkscape:connector-curvature="0" />
	<path style="fill:none;stroke:red;stroke-width:1px;stroke-linecap:butt;stroke-linejoin:miter;stroke-opacity:1" d="M 333.517,114.414 342.143,129.941 z" id="boundary" inkscape:connector-curvature="0" />
	<path style="fill:none;stroke:red;stroke-width:1px;stroke-linecap:butt;stroke-linejoin:miter;stroke-opacity:1" d="M 349.043,147.193 342.143,129.941 z" id="boundary" inkscape:connector-curvature="0" />
	<path style="fill:none;stroke:red;stroke-width:1px;stroke-linecap:butt;stroke-linejoin:miter;stroke-opacity:1" d="M 366.296,154.094 349.043,147.193 z" id="boundary" inkscape:connector-curvature="0" />
	<path style="fill:none;stroke:red;stroke-width:1px;stroke-linecap:butt;stroke-linejoin:miter;stroke-opacity:1" d="M 383.548,150.643 366.296,154.094 z" id="boundary" inkscape:connector-curvature="0" />
	<path style="fill:none;stroke:red;stroke-width:1px;stroke-linecap:butt;stroke-linejoin:miter;stroke-opacity:1" d="M 383.548,150.643 400.8,150.643 z" id="boundary" inkscape:connector-curvature="0" />
	<path style="fill:none;stroke:red;stroke-width:1px;stroke-linecap:butt;stroke-linejoin:miter;stroke-opacity:1" d="M 400.8,150.643 418.052,150.643 z" id="boundary" inkscape:connector-curvature="0" />
	<path style="fill:none;stroke:red;stroke-width:1px;stroke-linecap:butt;stroke-linejoin:miter;stroke-opacity:1" d="M 435.304,150.643 418.052,150.643 z" id="boundary" inkscape:connector-curvature="0" />
	<path style="fill:none;stroke:red;stroke-width:1px;stroke-linecap:butt;stroke-linejoin:miter;stroke-opacity:1" d="M 469.809,150.643 452.557,150.643 z" id="boundary" inkscape:connector-curvature="0" />
	<path style="fill:none;stroke:red;stroke-width:1px;stroke-linecap:butt;stroke-linejoin:miter;stroke-opacity:1" d="M 469.809,150.643 487.061,150.643 z" id="boundary" inkscape:connector-curvature="0" />
	<path style="fill:none;stroke:red;stroke-width:1px;stroke-linecap:butt;stroke-linejoin:miter;stroke-opacity:1" d="M 504.313,150.643 487.061,150.643 z" id="boundary" inkscape:connector-curvature="0" />
	<path style="fill:none;stroke:red;stroke-width:1px;stroke-linecap:butt;stroke-linejoin:miter;stroke-opacity:1" d="M 452.557,150.643 435.304,150.643 z" id="boundary" inkscape:connector-curvature="0" />
	<path style="fill:none;stroke:red;stroke-width:1px;stroke-linecap:butt;stroke-linejoin:miter;stroke-opacity:1" d="M 521.565,150.643 504.313,150.643 z" id="boundary" inkscape:connector-curvature="0" />
	<path style="fill:none;stroke:red;stroke-width:1px;stroke-linecap:butt;stroke-linejoin:miter;stroke-opacity:1" d="M 21.2522,535.367 21.2522,552.619 z" id="boundary" inkscape:connector-curvature="0" />
	<path style="fill:none;stroke:red;stroke-width:1px;stroke-linecap:butt;stroke-linejoin:miter;stroke-opacity:1" d="M 21.2522,552.619 12.6261,569.871 z" id="boundary" inkscape:connector-curvature="0" />
	<path style="fill:none;stroke:red;stroke-width:1px;stroke-linecap:butt;stroke-linejoin:miter;stroke-opacity:1" d="M 21.2522,535.367 29.8783,509.489 z" id="boundary" inkscape:connector-curvature="0" />
	<path style="fill:none;stroke:red;stroke-width:1px;stroke-linecap:butt;stroke-linejoin:miter;stroke-opacity:1" d="M 12.6261,587.123 12.6261,569.871 z" id="boundary" inkscape:connector-curvature="0" />
	<path style="fill:none;stroke:red;stroke-width:1px;stroke-linecap:butt;stroke-linejoin:miter;stroke-opacity:1" d="M 4,604.376 12.6261,587.123 z" id="boundary" inkscape:connector-curvature="0" />
	<path style="fill:none;stroke:red;stroke-width:1px;stroke-linecap:butt;stroke-linejoin:miter;stroke-opacity:1" d="M 12.6261,619.903 4,604.376 z" id="boundary" inkscape:connector-curvature="0" />
	<path style="fill:none;stroke:red;stroke-width:1px;stroke-linecap:butt;stroke-linejoin:miter;stroke-opacity:1" d="M 21.2522,635.43 12.6261,619.903 z" id="boundary" inkscape:connector-curvature="0" />
	<path style="fill:none;stroke:red;stroke-width:1px;stroke-linecap:butt;stroke-linejoin:miter;stroke-opacity:1" d="M 21.2522,656.132 21.2522,635.43 z" id="boundary" inkscape:connector-curvature="0" />
	<path style="fill:none;stroke:red;stroke-width:1px;stroke-linecap:butt;stroke-linejoin:miter;stroke-opacity:1" d="M 35.0539,668.209 21.2522,656.132 z" id="boundary" inkscape:connector-curvature="0" />
	<path style="fill:none;stroke:red;stroke-width:1px;stroke-linecap:butt;stroke-linejoin:miter;stroke-opacity:1" d="M 95.4365,704.438 79.9096,695.812 z" id="boundary" inkscape:connector-curvature="0" />
	<path style="fill:none;stroke:red;stroke-width:1px;stroke-linecap:butt;stroke-linejoin:miter;stroke-opacity:1" d="M 79.9096,695.812 64.3826,687.186 z" id="boundary" inkscape:connector-curvature="0" />
	<path style="fill:none;stroke:red;stroke-width:1px;stroke-linecap:butt;stroke-linejoin:miter;stroke-opacity:1" d="M 35.0539,668.209 47.1304,682.01 z" id="boundary" inkscape:connector-curvature="0" />
	<path style="fill:none;stroke:red;stroke-width:1px;stroke-linecap:butt;stroke-linejoin:miter;stroke-opacity:1" d="M 64.3826,687.186 47.1304,682.01 z" id="boundary" inkscape:connector-curvature="0" />
	<path style="fill:none;stroke:red;stroke-width:1px;stroke-linecap:butt;stroke-linejoin:miter;stroke-opacity:1" d="M 109.238,716.515 95.4365,704.438 z" id="boundary" inkscape:connector-curvature="0" />
	<path style="fill:none;stroke:red;stroke-width:1px;stroke-linecap:butt;stroke-linejoin:miter;stroke-opacity:1" d="M 192.049,730.317 174.797,730.317 z" id="boundary" inkscape:connector-curvature="0" />
	<path style="fill:none;stroke:red;stroke-width:1px;stroke-linecap:butt;stroke-linejoin:miter;stroke-opacity:1" d="M 142.017,721.69 124.765,725.141 z" id="boundary" inkscape:connector-curvature="0" />
	<path style="fill:none;stroke:red;stroke-width:1px;stroke-linecap:butt;stroke-linejoin:miter;stroke-opacity:1" d="M 124.765,725.141 109.238,716.515 z" id="boundary" inkscape:connector-curvature="0" />
	<path style="fill:none;stroke:red;stroke-width:1px;stroke-linecap:butt;stroke-linejoin:miter;stroke-opacity:1" d="M 142.017,721.69 157.544,730.317 z" id="boundary" inkscape:connector-curvature="0" />
	<path style="fill:none;stroke:red;stroke-width:1px;stroke-linecap:butt;stroke-linejoin:miter;stroke-opacity:1" d="M 174.797,730.317 157.544,730.317 z" id="boundary" inkscape:connector-curvature="0" />
	<path style="fill:none;stroke:red;stroke-width:1px;stroke-linecap:butt;stroke-linejoin:miter;stroke-opacity:1" d="M 259.332,721.69 276.584,721.69 z" id="boundary" inkscape:connector-curvature="0" />
	<path style="fill:none;stroke:red;stroke-width:1px;stroke-linecap:butt;stroke-linejoin:miter;stroke-opacity:1" d="M 243.805,730.317 259.332,721.69 z" id="boundary" inkscape:connector-curvature="0" />
	<path style="fill:none;stroke:red;stroke-width:1px;stroke-linecap:butt;stroke-linejoin:miter;stroke-opacity:1" d="M 209.301,730.317 192.049,730.317 z" id="boundary" inkscape:connector-curvature="0" />
	<path style="fill:none;stroke:red;stroke-width:1px;stroke-linecap:butt;stroke-linejoin:miter;stroke-opacity:1" d="M 276.584,721.69 293.837,721.69 z" id="boundary" inkscape:connector-curvature="0" />
	<path style="fill:none;stroke:red;stroke-width:1px;stroke-linecap:butt;stroke-linejoin:miter;stroke-opacity:1" d="M 226.553,730.317 243.805,730.317 z" id="boundary" inkscape:connector-curvature="0" />
	<path style="fill:none;stroke:red;stroke-width:1px;stroke-linecap:butt;stroke-linejoin:miter;stroke-opacity:1" d="M 226.553,730.317 209.301,730.317 z" id="boundary" inkscape:connector-curvature="0" />
	<path style="fill:none;stroke:red;stroke-width:1px;stroke-linecap:butt;stroke-linejoin:miter;stroke-opacity:1" d="M 393.899,687.186 409.426,678.56 z" id="boundary" inkscape:connector-curvature="0" />
	<path style="fill:none;stroke:red;stroke-width:1px;stroke-linecap:butt;stroke-linejoin:miter;stroke-opacity:1" d="M 407.701,697.537 393.899,687.186 z" id="boundary" inkscape:connector-curvature="0" />
	<path style="fill:none;stroke:red;stroke-width:1px;stroke-linecap:butt;stroke-linejoin:miter;stroke-opacity:1" d="M 311.089,721.69 293.837,721.69 z" id="boundary" inkscape:connector-curvature="0" />
	<path style="fill:none;stroke:red;stroke-width:1px;stroke-linecap:butt;stroke-linejoin:miter;stroke-opacity:1" d="M 409.426,678.56 424.953,687.186 z" id="boundary" inkscape:connector-curvature="0" />
	<path style="fill:none;stroke:red;stroke-width:1px;stroke-linecap:butt;stroke-linejoin:miter;stroke-opacity:1" d="M 328.341,721.69 393.899,687.186 z" id="boundary" inkscape:connector-curvature="0" />
	<path style="fill:none;stroke:red;stroke-width:1px;stroke-linecap:butt;stroke-linejoin:miter;stroke-opacity:1" d="M 311.089,721.69 328.341,721.69 z" id="boundary" inkscape:connector-curvature="0" />
	<path style="fill:none;stroke:red;stroke-width:1px;stroke-linecap:butt;stroke-linejoin:miter;stroke-opacity:1" d="M 328.341,721.69 340.417,735.492 z" id="boundary" inkscape:connector-curvature="0" />
	<path style="fill:none;stroke:red;stroke-width:1px;stroke-linecap:butt;stroke-linejoin:miter;stroke-opacity:1" d="M 357.67,738.943 340.417,735.492 z" id="boundary" inkscape:connector-curvature="0" />
	<path style="fill:none;stroke:red;stroke-width:1px;stroke-linecap:butt;stroke-linejoin:miter;stroke-opacity:1" d="M 407.701,697.537 411.151,714.79 z" id="boundary" inkscape:connector-curvature="0" />
	<path style="fill:none;stroke:red;stroke-width:1px;stroke-linecap:butt;stroke-linejoin:miter;stroke-opacity:1" d="M 424.953,687.186 442.205,687.186 z" id="boundary" inkscape:connector-curvature="0" />
	<path style="fill:none;stroke:red;stroke-width:1px;stroke-linecap:butt;stroke-linejoin:miter;stroke-opacity:1" d="M 452.557,700.988 442.205,687.186 z" id="boundary" inkscape:connector-curvature="0" />
	<path style="fill:none;stroke:red;stroke-width:1px;stroke-linecap:butt;stroke-linejoin:miter;stroke-opacity:1" d="M 428.403,719.965 411.151,714.79 z" id="boundary" inkscape:connector-curvature="0" />
	<path style="fill:none;stroke:red;stroke-width:1px;stroke-linecap:butt;stroke-linejoin:miter;stroke-opacity:1" d="M 437.03,735.492 428.403,719.965 z" id="boundary" inkscape:connector-curvature="0" />
	<path style="fill:none;stroke:red;stroke-width:1px;stroke-linecap:butt;stroke-linejoin:miter;stroke-opacity:1" d="M 469.809,732.042 461.183,716.515 z" id="boundary" inkscape:connector-curvature="0" />
	<path style="fill:none;stroke:red;stroke-width:1px;stroke-linecap:butt;stroke-linejoin:miter;stroke-opacity:1" d="M 452.557,700.988 461.183,716.515 z" id="boundary" inkscape:connector-curvature="0" />
	<path style="fill:none;stroke:red;stroke-width:1px;stroke-linecap:butt;stroke-linejoin:miter;stroke-opacity:1" d="M 373.197,747.569 357.67,738.943 z" id="boundary" inkscape:connector-curvature="0" />
	<path style="fill:none;stroke:red;stroke-width:1px;stroke-linecap:butt;stroke-linejoin:miter;stroke-opacity:1" d="M 390.449,747.569 373.197,747.569 z" id="boundary" inkscape:connector-curvature="0" />
	<path style="fill:none;stroke:red;stroke-width:1px;stroke-linecap:butt;stroke-linejoin:miter;stroke-opacity:1" d="M 390.449,747.569 397.35,764.821 z" id="boundary" inkscape:connector-curvature="0" />
	<path style="fill:none;stroke:red;stroke-width:1px;stroke-linecap:butt;stroke-linejoin:miter;stroke-opacity:1" d="M 397.35,764.821 414.602,763.096 z" id="boundary" inkscape:connector-curvature="0" />
	<path style="fill:none;stroke:red;stroke-width:1px;stroke-linecap:butt;stroke-linejoin:miter;stroke-opacity:1" d="M 414.602,763.096 430.129,771.722 z" id="boundary" inkscape:connector-curvature="0" />
	<path style="fill:none;stroke:red;stroke-width:1px;stroke-linecap:butt;stroke-linejoin:miter;stroke-opacity:1" d="M 438.755,756.195 430.129,771.722 z" id="boundary" inkscape:connector-curvature="0" />
	<path style="fill:none;stroke:red;stroke-width:1px;stroke-linecap:butt;stroke-linejoin:miter;stroke-opacity:1" d="M 438.755,756.195 437.03,735.492 z" id="boundary" inkscape:connector-curvature="0" />
	<path style="fill:none;stroke:red;stroke-width:1px;stroke-linecap:butt;stroke-linejoin:miter;stroke-opacity:1" d="M 469.809,732.042 478.435,747.569 z" id="boundary" inkscape:connector-curvature="0" />
	<path style="fill:none;stroke:red;stroke-width:1px;stroke-linecap:butt;stroke-linejoin:miter;stroke-opacity:1" d="M 478.435,747.569 487.061,763.096 z" id="boundary" inkscape:connector-curvature="0" />
	<path style="fill:none;stroke:red;stroke-width:1px;stroke-linecap:butt;stroke-linejoin:miter;stroke-opacity:1" d="M 430.129,771.722 487.061,763.096 z" id="boundary" inkscape:connector-curvature="0" />
	<path style="fill:none;stroke:red;stroke-width:1px;stroke-linecap:butt;stroke-linejoin:miter;stroke-opacity:1" d="M 487.061,763.096 495.687,778.623 z" id="boundary" inkscape:connector-curvature="0" />
	<path style="fill:none;stroke:red;stroke-width:1px;stroke-linecap:butt;stroke-linejoin:miter;stroke-opacity:1" d="M 504.313,794.15 512.939,809.677 z" id="boundary" inkscape:connector-curvature="0" />
	<path style="fill:none;stroke:red;stroke-width:1px;stroke-linecap:butt;stroke-linejoin:miter;stroke-opacity:1" d="M 504.313,794.15 495.687,778.623 z" id="boundary" inkscape:connector-curvature="0" />
	<path style="fill:none;stroke:red;stroke-width:1px;stroke-linecap:butt;stroke-linejoin:miter;stroke-opacity:1" d="M 512.939,809.677 521.565,825.203 z" id="boundary" inkscape:connector-curvature="0" />
	<path style="fill:none;stroke:red;stroke-width:1px;stroke-linecap:butt;stroke-linejoin:miter;stroke-opacity:1" d="M 719.965,147.193 728.591,121.315 z" id="boundary" inkscape:connector-curvature="0" />
	<path style="fill:none;stroke:red;stroke-width:1px;stroke-linecap:butt;stroke-linejoin:miter;stroke-opacity:1" d="M 742.393,107.513 728.591,121.315 z" id="boundary" inkscape:connector-curvature="0" />
	<path style="fill:none;stroke:red;stroke-width:1px;stroke-linecap:butt;stroke-linejoin:miter;stroke-opacity:1" d="M 763.096,78.1843 757.92,98.887 z" id="boundary" inkscape:connector-curvature="0" />
	<path style="fill:none;stroke:red;stroke-width:1px;stroke-linecap:butt;stroke-linejoin:miter;stroke-opacity:1" d="M 757.92,98.887 742.393,107.513 z" id="boundary" inkscape:connector-curvature="0" />
	<path style="fill:none;stroke:red;stroke-width:1px;stroke-linecap:butt;stroke-linejoin:miter;stroke-opacity:1" d="M 538.817,150.643 556.07,154.094 z" id="boundary" inkscape:connector-curvature="0" />
	<path style="fill:none;stroke:red;stroke-width:1px;stroke-linecap:butt;stroke-linejoin:miter;stroke-opacity:1" d="M 556.07,154.094 566.421,167.896 z" id="boundary" inkscape:connector-curvature="0" />
	<path style="fill:none;stroke:red;stroke-width:1px;stroke-linecap:butt;stroke-linejoin:miter;stroke-opacity:1" d="M 776.897,64.3826 785.523,47.1304 z" id="boundary" inkscape:connector-curvature="0" />
	<path style="fill:none;stroke:red;stroke-width:1px;stroke-linecap:butt;stroke-linejoin:miter;stroke-opacity:1" d="M 776.897,64.3826 763.096,78.1843 z" id="boundary" inkscape:connector-curvature="0" />
	<path style="fill:none;stroke:red;stroke-width:1px;stroke-linecap:butt;stroke-linejoin:miter;stroke-opacity:1" d="M 811.402,21.2522 802.776,38.5043 z" id="boundary" inkscape:connector-curvature="0" />
	<path style="fill:none;stroke:red;stroke-width:1px;stroke-linecap:butt;stroke-linejoin:miter;stroke-opacity:1" d="M 802.776,38.5043 785.523,47.1304 z" id="boundary" inkscape:connector-curvature="0" />
	<path style="fill:none;stroke:red;stroke-width:1px;stroke-linecap:butt;stroke-linejoin:miter;stroke-opacity:1" d="M 813.127,97.1617 799.325,109.238 z" id="boundary" inkscape:connector-curvature="0" />
	<path style="fill:none;stroke:red;stroke-width:1px;stroke-linecap:butt;stroke-linejoin:miter;stroke-opacity:1" d="M 799.325,109.238 799.325,135.117 z" id="boundary" inkscape:connector-curvature="0" />
	<path style="fill:none;stroke:red;stroke-width:1px;stroke-linecap:butt;stroke-linejoin:miter;stroke-opacity:1" d="M 799.325,135.117 799.325,152.369 z" id="boundary" inkscape:connector-curvature="0" />
	<path style="fill:none;stroke:red;stroke-width:1px;stroke-linecap:butt;stroke-linejoin:miter;stroke-opacity:1" d="M 799.325,152.369 799.325,169.621 z" id="boundary" inkscape:connector-curvature="0" />
	<path style="fill:none;stroke:red;stroke-width:1px;stroke-linecap:butt;stroke-linejoin:miter;stroke-opacity:1" d="M 566.421,167.896 583.673,164.445 z" id="boundary" inkscape:connector-curvature="0" />
	<path style="fill:none;stroke:red;stroke-width:1px;stroke-linecap:butt;stroke-linejoin:miter;stroke-opacity:1" d="M 583.673,164.445 599.2,173.071 z" id="boundary" inkscape:connector-curvature="0" />
	<path style="fill:none;stroke:red;stroke-width:1px;stroke-linecap:butt;stroke-linejoin:miter;stroke-opacity:1" d="M 616.452,171.346 599.2,173.071 z" id="boundary" inkscape:connector-curvature="0" />
	<path style="fill:none;stroke:red;stroke-width:1px;stroke-linecap:butt;stroke-linejoin:miter;stroke-opacity:1" d="M 616.452,171.346 626.803,185.148 z" id="boundary" inkscape:connector-curvature="0" />
	<path style="fill:none;stroke:red;stroke-width:1px;stroke-linecap:butt;stroke-linejoin:miter;stroke-opacity:1" d="M 644.056,190.323 626.803,185.148 z" id="boundary" inkscape:connector-curvature="0" />
	<path style="fill:none;stroke:red;stroke-width:1px;stroke-linecap:butt;stroke-linejoin:miter;stroke-opacity:1" d="M 644.056,190.323 659.583,198.95 z" id="boundary" inkscape:connector-curvature="0" />
	<path style="fill:none;stroke:red;stroke-width:1px;stroke-linecap:butt;stroke-linejoin:miter;stroke-opacity:1" d="M 702.713,190.323 711.339,164.445 z" id="boundary" inkscape:connector-curvature="0" />
	<path style="fill:none;stroke:red;stroke-width:1px;stroke-linecap:butt;stroke-linejoin:miter;stroke-opacity:1" d="M 711.339,164.445 719.965,147.193 z" id="boundary" inkscape:connector-curvature="0" />
	<path style="fill:none;stroke:red;stroke-width:1px;stroke-linecap:butt;stroke-linejoin:miter;stroke-opacity:1" d="M 807.951,185.148 799.325,169.621 z" id="boundary" inkscape:connector-curvature="0" />
	<path style="fill:none;stroke:red;stroke-width:1px;stroke-linecap:butt;stroke-linejoin:miter;stroke-opacity:1" d="M 659.583,198.95 673.384,211.026 z" id="boundary" inkscape:connector-curvature="0" />
	<path style="fill:none;stroke:red;stroke-width:1px;stroke-linecap:butt;stroke-linejoin:miter;stroke-opacity:1" d="M 690.637,211.026 702.713,190.323 z" id="boundary" inkscape:connector-curvature="0" />
	<path style="fill:none;stroke:red;stroke-width:1px;stroke-linecap:butt;stroke-linejoin:miter;stroke-opacity:1" d="M 690.637,211.026 673.384,211.026 z" id="boundary" inkscape:connector-curvature="0" />
	<path style="fill:none;stroke:red;stroke-width:1px;stroke-linecap:butt;stroke-linejoin:miter;stroke-opacity:1" d="M 690.637,211.026 713.064,350.769 z" id="boundary" inkscape:connector-curvature="0" />
	<path style="fill:none;stroke:red;stroke-width:1px;stroke-linecap:butt;stroke-linejoin:miter;stroke-opacity:1" d="M 807.951,185.148 807.951,202.4 z" id="boundary" inkscape:connector-curvature="0" />
	<path style="fill:none;stroke:red;stroke-width:1px;stroke-linecap:butt;stroke-linejoin:miter;stroke-opacity:1" d="M 825.203,57.4817 821.753,79.9096 z" id="boundary" inkscape:connector-curvature="0" />
	<path style="fill:none;stroke:red;stroke-width:1px;stroke-linecap:butt;stroke-linejoin:miter;stroke-opacity:1" d="M 839.005,45.4052 825.203,57.4817 z" id="boundary" inkscape:connector-curvature="0" />
	<path style="fill:none;stroke:red;stroke-width:1px;stroke-linecap:butt;stroke-linejoin:miter;stroke-opacity:1" d="M 821.753,79.9096 813.127,97.1617 z" id="boundary" inkscape:connector-curvature="0" />
	<path style="fill:none;stroke:red;stroke-width:1px;stroke-linecap:butt;stroke-linejoin:miter;stroke-opacity:1" d="M 816.577,217.927 807.951,202.4 z" id="boundary" inkscape:connector-curvature="0" />
	<path style="fill:none;stroke:red;stroke-width:1px;stroke-linecap:butt;stroke-linejoin:miter;stroke-opacity:1" d="M 825.203,233.454 816.577,217.927 z" id="boundary" inkscape:connector-curvature="0" />
	<path style="fill:none;stroke:red;stroke-width:1px;stroke-linecap:butt;stroke-linejoin:miter;stroke-opacity:1" d="M 842.456,22.9774 828.654,12.6261 z" id="boundary" inkscape:connector-curvature="0" />
	<path style="fill:none;stroke:red;stroke-width:1px;stroke-linecap:butt;stroke-linejoin:miter;stroke-opacity:1" d="M 828.654,12.6261 845.906,4 z" id="boundary" inkscape:connector-curvature="0" />
	<path style="fill:none;stroke:red;stroke-width:1px;stroke-linecap:butt;stroke-linejoin:miter;stroke-opacity:1" d="M 828.654,12.6261 811.402,21.2522 z" id="boundary" inkscape:connector-curvature="0" />
	<path style="fill:none;stroke:red;stroke-width:1px;stroke-linecap:butt;stroke-linejoin:miter;stroke-opacity:1" d="M 845.906,4 859.708,14.3513 z" id="boundary" inkscape:connector-curvature="0" />
	<path style="fill:none;stroke:red;stroke-width:1px;stroke-linecap:butt;stroke-linejoin:miter;stroke-opacity:1" d="M 859.708,14.3513 842.456,22.9774 z" id="boundary" inkscape:connector-curvature="0" />
	<path style="fill:none;stroke:red;stroke-width:1px;stroke-linecap:butt;stroke-linejoin:miter;stroke-opacity:1" d="M 856.257,247.256 839.005,245.53 z" id="boundary" inkscape:connector-curvature="0" />
	<path style="fill:none;stroke:red;stroke-width:1px;stroke-linecap:butt;stroke-linejoin:miter;stroke-opacity:1" d="M 839.005,245.53 825.203,233.454 z" id="boundary" inkscape:connector-curvature="0" />
	<path style="fill:none;stroke:red;stroke-width:1px;stroke-linecap:butt;stroke-linejoin:miter;stroke-opacity:1" d="M 859.708,14.3513 839.005,45.4052 z" id="boundary" inkscape:connector-curvature="0" />
	<path style="fill:none;stroke:red;stroke-width:1px;stroke-linecap:butt;stroke-linejoin:miter;stroke-opacity:1" d="M 839.005,45.4052 842.456,22.9774 z" id="boundary" inkscape:connector-curvature="0" />
	<path style="fill:none;stroke:red;stroke-width:1px;stroke-linecap:butt;stroke-linejoin:miter;stroke-opacity:1" d="M 880.41,262.783 863.158,264.508 z" id="boundary" inkscape:connector-curvature="0" />
	<path style="fill:none;stroke:red;stroke-width:1px;stroke-linecap:butt;stroke-linejoin:miter;stroke-opacity:1" d="M 863.158,264.508 856.257,247.256 z" id="boundary" inkscape:connector-curvature="0" />
	<path style="fill:none;stroke:red;stroke-width:1px;stroke-linecap:butt;stroke-linejoin:miter;stroke-opacity:1" d="M 945.969,271.409 928.717,274.859 z" id="boundary" inkscape:connector-curvature="0" />
	<path style="fill:none;stroke:red;stroke-width:1px;stroke-linecap:butt;stroke-linejoin:miter;stroke-opacity:1" d="M 880.41,262.783 895.937,271.409 z" id="boundary" inkscape:connector-curvature="0" />
	<path style="fill:none;stroke:red;stroke-width:1px;stroke-linecap:butt;stroke-linejoin:miter;stroke-opacity:1" d="M 928.717,274.859 911.464,280.035 z" id="boundary" inkscape:connector-curvature="0" />
	<path style="fill:none;stroke:red;stroke-width:1px;stroke-linecap:butt;stroke-linejoin:miter;stroke-opacity:1" d="M 911.464,280.035 895.937,271.409 z" id="boundary" inkscape:connector-curvature="0" />
	<path style="fill:none;stroke:red;stroke-width:1px;stroke-linecap:butt;stroke-linejoin:miter;stroke-opacity:1" d="M 945.969,271.409 963.221,266.233 z" id="boundary" inkscape:connector-curvature="0" />
	<path style="fill:none;stroke:red;stroke-width:1px;stroke-linecap:butt;stroke-linejoin:miter;stroke-opacity:1" d="M 963.221,266.233 980.473,266.233 z" id="boundary" inkscape:connector-curvature="0" />
	<path style="fill:none;stroke:red;stroke-width:1px;stroke-linecap:butt;stroke-linejoin:miter;stroke-opacity:1" d="M 966.671,305.913 949.419,314.539 z" id="boundary" inkscape:connector-curvature="0" />
	<path style="fill:none;stroke:red;stroke-width:1px;stroke-linecap:butt;stroke-linejoin:miter;stroke-opacity:1" d="M 983.923,297.287 966.671,305.913 z" id="boundary" inkscape:connector-curvature="0" />
	<path style="fill:none;stroke:red;stroke-width:1px;stroke-linecap:butt;stroke-linejoin:miter;stroke-opacity:1" d="M 996,274.859 983.923,297.287 z" id="boundary" inkscape:connector-curvature="0" />
	<path style="fill:none;stroke:red;stroke-width:1px;stroke-linecap:butt;stroke-linejoin:miter;stroke-opacity:1" d="M 980.473,266.233 996,274.859 z" id="boundary" inkscape:connector-curvature="0" />
	<path style="fill:none;stroke:red;stroke-width:1px;stroke-linecap:butt;stroke-linejoin:miter;stroke-opacity:1" d="M 949.419,314.539 932.167,314.539 z" id="boundary" inkscape:connector-curvature="0" />
	<path style="fill:none;stroke:red;stroke-width:1px;stroke-linecap:butt;stroke-linejoin:miter;stroke-opacity:1" d="M 932.167,314.539 914.915,316.264 z" id="boundary" inkscape:connector-curvature="0" />
	<path style="fill:none;stroke:red;stroke-width:1px;stroke-linecap:butt;stroke-linejoin:miter;stroke-opacity:1" d="M 635.43,642.33 626.803,626.803 z" id="boundary" inkscape:connector-curvature="0" />
	<path style="fill:none;stroke:red;stroke-width:1px;stroke-linecap:butt;stroke-linejoin:miter;stroke-opacity:1" d="M 626.803,626.803 635.43,600.925 z" id="boundary" inkscape:connector-curvature="0" />
	<path style="fill:none;stroke:red;stroke-width:1px;stroke-linecap:butt;stroke-linejoin:miter;stroke-opacity:1" d="M 652.682,592.299 635.43,600.925 z" id="boundary" inkscape:connector-curvature="0" />
	<path style="fill:none;stroke:red;stroke-width:1px;stroke-linecap:butt;stroke-linejoin:miter;stroke-opacity:1" d="M 644.056,657.857 652.682,673.384 z" id="boundary" inkscape:connector-curvature="0" />
	<path style="fill:none;stroke:red;stroke-width:1px;stroke-linecap:butt;stroke-linejoin:miter;stroke-opacity:1" d="M 644.056,657.857 635.43,642.33 z" id="boundary" inkscape:connector-curvature="0" />
	<path style="fill:none;stroke:red;stroke-width:1px;stroke-linecap:butt;stroke-linejoin:miter;stroke-opacity:1" d="M 652.682,673.384 661.308,688.911 z" id="boundary" inkscape:connector-curvature="0" />
	<path style="fill:none;stroke:red;stroke-width:1px;stroke-linecap:butt;stroke-linejoin:miter;stroke-opacity:1" d="M 652.682,592.299 666.483,580.223 z" id="boundary" inkscape:connector-curvature="0" />
	<path style="fill:none;stroke:red;stroke-width:1px;stroke-linecap:butt;stroke-linejoin:miter;stroke-opacity:1" d="M 678.56,540.543 687.186,523.29 z" id="boundary" inkscape:connector-curvature="0" />
	<path style="fill:none;stroke:red;stroke-width:1px;stroke-linecap:butt;stroke-linejoin:miter;stroke-opacity:1" d="M 678.56,557.795 678.56,540.543 z" id="boundary" inkscape:connector-curvature="0" />
	<path style="fill:none;stroke:red;stroke-width:1px;stroke-linecap:butt;stroke-linejoin:miter;stroke-opacity:1" d="M 678.56,557.795 666.483,580.223 z" id="boundary" inkscape:connector-curvature="0" />
	<path style="fill:none;stroke:red;stroke-width:1px;stroke-linecap:butt;stroke-linejoin:miter;stroke-opacity:1" d="M 671.659,702.713 661.308,688.911 z" id="boundary" inkscape:connector-curvature="0" />
	<path style="fill:none;stroke:red;stroke-width:1px;stroke-linecap:butt;stroke-linejoin:miter;stroke-opacity:1" d="M 671.659,702.713 678.56,719.965 z" id="boundary" inkscape:connector-curvature="0" />
	<path style="fill:none;stroke:red;stroke-width:1px;stroke-linecap:butt;stroke-linejoin:miter;stroke-opacity:1" d="M 687.186,735.492 678.56,719.965 z" id="boundary" inkscape:connector-curvature="0" />
	<path style="fill:none;stroke:red;stroke-width:1px;stroke-linecap:butt;stroke-linejoin:miter;stroke-opacity:1" d="M 695.812,751.019 687.186,735.492 z" id="boundary" inkscape:connector-curvature="0" />
	<path style="fill:none;stroke:red;stroke-width:1px;stroke-linecap:butt;stroke-linejoin:miter;stroke-opacity:1" d="M 530.191,840.73 521.565,825.203 z" id="boundary" inkscape:connector-curvature="0" />
	<path style="fill:none;stroke:red;stroke-width:1px;stroke-linecap:butt;stroke-linejoin:miter;stroke-opacity:1" d="M 604.376,832.104 588.849,842.456 z" id="boundary" inkscape:connector-curvature="0" />
	<path style="fill:none;stroke:red;stroke-width:1px;stroke-linecap:butt;stroke-linejoin:miter;stroke-opacity:1" d="M 588.849,842.456 573.322,851.082 z" id="boundary" inkscape:connector-curvature="0" />
	<path style="fill:none;stroke:red;stroke-width:1px;stroke-linecap:butt;stroke-linejoin:miter;stroke-opacity:1" d="M 573.322,851.082 557.795,859.708 z" id="boundary" inkscape:connector-curvature="0" />
	<path style="fill:none;stroke:red;stroke-width:1px;stroke-linecap:butt;stroke-linejoin:miter;stroke-opacity:1" d="M 557.795,859.708 540.543,854.532 z" id="boundary" inkscape:connector-curvature="0" />
	<path style="fill:none;stroke:red;stroke-width:1px;stroke-linecap:butt;stroke-linejoin:miter;stroke-opacity:1" d="M 540.543,854.532 530.191,840.73 z" id="boundary" inkscape:connector-curvature="0" />
	<path style="fill:none;stroke:red;stroke-width:1px;stroke-linecap:butt;stroke-linejoin:miter;stroke-opacity:1" d="M 687.186,782.073 669.934,790.699 z" id="boundary" inkscape:connector-curvature="0" />
	<path style="fill:none;stroke:red;stroke-width:1px;stroke-linecap:butt;stroke-linejoin:miter;stroke-opacity:1" d="M 656.132,806.226 669.934,790.699 z" id="boundary" inkscape:connector-curvature="0" />
	<path style="fill:none;stroke:red;stroke-width:1px;stroke-linecap:butt;stroke-linejoin:miter;stroke-opacity:1" d="M 604.376,832.104 621.628,823.478 z" id="boundary" inkscape:connector-curvature="0" />
	<path style="fill:none;stroke:red;stroke-width:1px;stroke-linecap:butt;stroke-linejoin:miter;stroke-opacity:1" d="M 638.88,814.852 656.132,806.226 z" id="boundary" inkscape:connector-curvature="0" />
	<path style="fill:none;stroke:red;stroke-width:1px;stroke-linecap:butt;stroke-linejoin:miter;stroke-opacity:1" d="M 638.88,814.852 621.628,823.478 z" id="boundary" inkscape:connector-curvature="0" />
	<path style="fill:none;stroke:red;stroke-width:1px;stroke-linecap:butt;stroke-linejoin:miter;stroke-opacity:1" d="M 687.186,782.073 704.438,773.447 z" id="boundary" inkscape:connector-curvature="0" />
	<path style="fill:none;stroke:red;stroke-width:1px;stroke-linecap:butt;stroke-linejoin:miter;stroke-opacity:1" d="M 813.127,330.066 795.875,333.517 z" id="boundary" inkscape:connector-curvature="0" />
	<path style="fill:none;stroke:red;stroke-width:1px;stroke-linecap:butt;stroke-linejoin:miter;stroke-opacity:1" d="M 778.623,333.517 761.37,333.517 z" id="boundary" inkscape:connector-curvature="0" />
	<path style="fill:none;stroke:red;stroke-width:1px;stroke-linecap:butt;stroke-linejoin:miter;stroke-opacity:1" d="M 795.875,333.517 778.623,333.517 z" id="boundary" inkscape:connector-curvature="0" />
	<path style="fill:none;stroke:red;stroke-width:1px;stroke-linecap:butt;stroke-linejoin:miter;stroke-opacity:1" d="M 745.843,342.143 761.37,333.517 z" id="boundary" inkscape:connector-curvature="0" />
	<path style="fill:none;stroke:red;stroke-width:1px;stroke-linecap:butt;stroke-linejoin:miter;stroke-opacity:1" d="M 745.843,342.143 728.591,342.143 z" id="boundary" inkscape:connector-curvature="0" />
	<path style="fill:none;stroke:red;stroke-width:1px;stroke-linecap:butt;stroke-linejoin:miter;stroke-opacity:1" d="M 914.915,316.264 897.663,316.264 z" id="boundary" inkscape:connector-curvature="0" />
	<path style="fill:none;stroke:red;stroke-width:1px;stroke-linecap:butt;stroke-linejoin:miter;stroke-opacity:1" d="M 882.136,324.89 897.663,316.264 z" id="boundary" inkscape:connector-curvature="0" />
	<path style="fill:none;stroke:red;stroke-width:1px;stroke-linecap:butt;stroke-linejoin:miter;stroke-opacity:1" d="M 830.379,324.89 847.631,324.89 z" id="boundary" inkscape:connector-curvature="0" />
	<path style="fill:none;stroke:red;stroke-width:1px;stroke-linecap:butt;stroke-linejoin:miter;stroke-opacity:1" d="M 813.127,330.066 830.379,324.89 z" id="boundary" inkscape:connector-curvature="0" />
	<path style="fill:none;stroke:red;stroke-width:1px;stroke-linecap:butt;stroke-linejoin:miter;stroke-opacity:1" d="M 847.631,324.89 864.883,324.89 z" id="boundary" inkscape:connector-curvature="0" />
	<path style="fill:none;stroke:red;stroke-width:1px;stroke-linecap:butt;stroke-linejoin:miter;stroke-opacity:1" d="M 882.136,324.89 864.883,324.89 z" id="boundary" inkscape:connector-curvature="0" />
	<path style="fill:none;stroke:red;stroke-width:1px;stroke-linecap:butt;stroke-linejoin:miter;stroke-opacity:1" d="M 721.69,462.908 713.064,480.16 z" id="boundary" inkscape:connector-curvature="0" />
	<path style="fill:none;stroke:red;stroke-width:1px;stroke-linecap:butt;stroke-linejoin:miter;stroke-opacity:1" d="M 713.064,497.412 713.064,480.16 z" id="boundary" inkscape:connector-curvature="0" />
	<path style="fill:none;stroke:red;stroke-width:1px;stroke-linecap:butt;stroke-linejoin:miter;stroke-opacity:1" d="M 713.064,497.412 695.812,506.038 z" id="boundary" inkscape:connector-curvature="0" />
	<path style="fill:none;stroke:red;stroke-width:1px;stroke-linecap:butt;stroke-linejoin:miter;stroke-opacity:1" d="M 704.438,773.447 695.812,751.019 z" id="boundary" inkscape:connector-curvature="0" />
	<path style="fill:none;stroke:red;stroke-width:1px;stroke-linecap:butt;stroke-linejoin:miter;stroke-opacity:1" d="M 687.186,523.29 695.812,506.038 z" id="boundary" inkscape:connector-curvature="0" />
	<path style="fill:none;stroke:red;stroke-width:1px;stroke-linecap:butt;stroke-linejoin:miter;stroke-opacity:1" d="M 721.69,366.296 738.943,366.296 z" id="boundary" inkscape:connector-curvature="0" />
	<path style="fill:none;stroke:red;stroke-width:1px;stroke-linecap:butt;stroke-linejoin:miter;stroke-opacity:1" d="M 721.69,366.296 713.064,350.769 z" id="boundary" inkscape:connector-curvature="0" />
	<path style="fill:none;stroke:red;stroke-width:1px;stroke-linecap:butt;stroke-linejoin:miter;stroke-opacity:1" d="M 713.064,350.769 728.591,342.143 z" id="boundary" inkscape:connector-curvature="0" />
	<path style="fill:none;stroke:red;stroke-width:1px;stroke-linecap:butt;stroke-linejoin:miter;stroke-opacity:1" d="M 752.744,376.647 738.943,366.296 z" id="boundary" inkscape:connector-curvature="0" />
	<path style="fill:none;stroke:red;stroke-width:1px;stroke-linecap:butt;stroke-linejoin:miter;stroke-opacity:1" d="M 752.744,376.647 747.569,402.525 z" id="boundary" inkscape:connector-curvature="0" />
	<path style="fill:none;stroke:red;stroke-width:1px;stroke-linecap:butt;stroke-linejoin:miter;stroke-opacity:1" d="M 721.69,462.908 735.492,450.831 z" id="boundary" inkscape:connector-curvature="0" />
	<path style="fill:none;stroke:red;stroke-width:1px;stroke-linecap:butt;stroke-linejoin:miter;stroke-opacity:1" d="M 744.118,433.579 735.492,450.831 z" id="boundary" inkscape:connector-curvature="0" />
	<path style="fill:none;stroke:red;stroke-width:1px;stroke-linecap:butt;stroke-linejoin:miter;stroke-opacity:1" d="M 747.569,402.525 744.118,433.579 z" id="boundary" inkscape:connector-curvature="0" />
	<circle cx="4" cy="604.376" r="4" fill="#0" id="circle0"/>
	<circle cx="12.6261" cy="569.871" r="4" fill="#0" id="circle1"/>
	<circle cx="12.6261" cy="587.123" r="4" fill="#0" id="circle2"/>
	<circle cx="12.6261" cy="619.903" r="4" fill="#0" id="circle3"/>
	<circle cx="21.2522" cy="535.367" r="4" fill="#0" id="circle4"/>
	<circle cx="21.2522" cy="552.619" r="4" fill="#0" id="circle5"/>
	<circle cx="21.2522" cy="635.43" r="4" fill="#0" id="circle6"/>
	<circle cx="21.2522" cy="656.132" r="4" fill="#0" id="circle7"/>
	<circle cx="29.8783" cy="474.984" r="4" fill="#0" id="circle8"/>
	<circle cx="29.8783" cy="509.489" r="4" fill="#0" id="circle9"/>
	<circle cx="35.0539" cy="668.209" r="4" fill="#0" id="circle10"/>
	<circle cx="38.5043" cy="490.511" r="4" fill="#0" id="circle11"/>
	<circle cx="47.1304" cy="457.732" r="4" fill="#0" id="circle12"/>
	<circle cx="47.1304" cy="682.01" r="4" fill="#0" id="circle13"/>
	<circle cx="55.7565" cy="440.48" r="4" fill="#0" id="circle14"/>
	<circle cx="64.3826" cy="687.186" r="4" fill="#0" id="circle15"/>
	<circle cx="69.5583" cy="426.678" r="4" fill="#0" id="circle16"/>
	<circle cx="73.0087" cy="380.097" r="4" fill="#0" id="circle17"/>
	<circle cx="73.0087" cy="397.35" r="4" fill="#0" id="circle18"/>
	<circle cx="79.9096" cy="695.812" r="4" fill="#0" id="circle19"/>
	<circle cx="81.6348" cy="345.593" r="4" fill="#0" id="circle20"/>
	<circle cx="81.6348" cy="362.845" r="4" fill="#0" id="circle21"/>
	<circle cx="95.4365" cy="331.791" r="4" fill="#0" id="circle22"/>
	<circle cx="95.4365" cy="704.438" r="4" fill="#0" id="circle23"/>
	<circle cx="107.513" cy="302.463" r="4" fill="#0" id="circle24"/>
	<circle cx="109.238" cy="716.515" r="4" fill="#0" id="circle25"/>
	<circle cx="116.139" cy="121.315" r="4" fill="#0" id="circle26"/>
	<circle cx="121.315" cy="288.661" r="4" fill="#0" id="circle27"/>
	<circle cx="124.765" cy="136.842" r="4" fill="#0" id="circle28"/>
	<circle cx="124.765" cy="725.141" r="4" fill="#0" id="circle29"/>
	<circle cx="129.941" cy="107.513" r="4" fill="#0" id="circle30"/>
	<circle cx="133.391" cy="152.369" r="4" fill="#0" id="circle31"/>
	<circle cx="135.117" cy="274.859" r="4" fill="#0" id="circle32"/>
	<circle cx="142.017" cy="167.896" r="4" fill="#0" id="circle33"/>
	<circle cx="142.017" cy="721.69" r="4" fill="#0" id="circle34"/>
	<circle cx="147.193" cy="98.887" r="4" fill="#0" id="circle35"/>
	<circle cx="148.918" cy="262.783" r="4" fill="#0" id="circle36"/>
	<circle cx="150.643" cy="183.423" r="4" fill="#0" id="circle37"/>
	<circle cx="157.544" cy="730.317" r="4" fill="#0" id="circle38"/>
	<circle cx="159.27" cy="198.95" r="4" fill="#0" id="circle39"/>
	<circle cx="160.995" cy="248.981" r="4" fill="#0" id="circle40"/>
	<circle cx="164.445" cy="90.2609" r="4" fill="#0" id="circle41"/>
	<circle cx="167.896" cy="214.477" r="4" fill="#0" id="circle42"/>
	<circle cx="174.797" cy="730.317" r="4" fill="#0" id="circle43"/>
	<circle cx="176.522" cy="230.003" r="4" fill="#0" id="circle44"/>
	<circle cx="179.972" cy="81.6348" r="4" fill="#0" id="circle45"/>
	<circle cx="192.049" cy="730.317" r="4" fill="#0" id="circle46"/>
	<circle cx="195.499" cy="73.0087" r="4" fill="#0" id="circle47"/>
	<circle cx="209.301" cy="730.317" r="4" fill="#0" id="circle48"/>
	<circle cx="211.026" cy="64.3826" r="4" fill="#0" id="circle49"/>
	<circle cx="226.553" cy="55.7565" r="4" fill="#0" id="circle50"/>
	<circle cx="226.553" cy="730.317" r="4" fill="#0" id="circle51"/>
	<circle cx="242.08" cy="47.1304" r="4" fill="#0" id="circle52"/>
	<circle cx="243.805" cy="730.317" r="4" fill="#0" id="circle53"/>
	<circle cx="257.607" cy="38.5043" r="4" fill="#0" id="circle54"/>
	<circle cx="259.332" cy="721.69" r="4" fill="#0" id="circle55"/>
	<circle cx="271.409" cy="26.4278" r="4" fill="#0" id="circle56"/>
	<circle cx="276.584" cy="721.69" r="4" fill="#0" id="circle57"/>
	<circle cx="285.21" cy="38.5043" r="4" fill="#0" id="circle58"/>
	<circle cx="293.837" cy="721.69" r="4" fill="#0" id="circle59"/>
	<circle cx="297.287" cy="52.3061" r="4" fill="#0" id="circle60"/>
	<circle cx="305.913" cy="67.833" r="4" fill="#0" id="circle61"/>
	<circle cx="311.089" cy="721.69" r="4" fill="#0" id="circle62"/>
	<circle cx="312.814" cy="85.0852" r="4" fill="#0" id="circle63"/>
	<circle cx="324.89" cy="98.887" r="4" fill="#0" id="circle64"/>
	<circle cx="328.341" cy="721.69" r="4" fill="#0" id="circle65"/>
	<circle cx="333.517" cy="114.414" r="4" fill="#0" id="circle66"/>
	<circle cx="340.417" cy="735.492" r="4" fill="#0" id="circle67"/>
	<circle cx="342.143" cy="129.941" r="4" fill="#0" id="circle68"/>
	<circle cx="349.043" cy="147.193" r="4" fill="#0" id="circle69"/>
	<circle cx="357.67" cy="738.943" r="4" fill="#0" id="circle70"/>
	<circle cx="366.296" cy="154.094" r="4" fill="#0" id="circle71"/>
	<circle cx="373.197" cy="747.569" r="4" fill="#0" id="circle72"/>
	<circle cx="383.548" cy="150.643" r="4" fill="#0" id="circle73"/>
	<circle cx="390.449" cy="747.569" r="4" fill="#0" id="circle74"/>
	<circle cx="393.899" cy="687.186" r="4" fill="#0" id="circle75"/>
	<circle cx="397.35" cy="764.821" r="4" fill="#0" id="circle76"/>
	<circle cx="400.8" cy="150.643" r="4" fill="#0" id="circle77"/>
	<circle cx="407.701" cy="697.537" r="4" fill="#0" id="circle78"/>
	<circle cx="409.426" cy="678.56" r="4" fill="#0" id="circle79"/>
	<circle cx="411.151" cy="714.79" r="4" fill="#0" id="circle80"/>
	<circle cx="414.602" cy="763.096" r="4" fill="#0" id="circle81"/>
	<circle cx="418.052" cy="150.643" r="4" fill="#0" id="circle82"/>
	<circle cx="424.953" cy="687.186" r="4" fill="#0" id="circle83"/>
	<circle cx="428.403" cy="719.965" r="4" fill="#0" id="circle84"/>
	<circle cx="430.129" cy="771.722" r="4" fill="#0" id="circle85"/>
	<circle cx="435.304" cy="150.643" r="4" fill="#0" id="circle86"/>
	<circle cx="437.03" cy="735.492" r="4" fill="#0" id="circle87"/>
	<circle cx="438.755" cy="756.195" r="4" fill="#0" id="circle88"/>
	<circle cx="442.205" cy="687.186" r="4" fill="#0" id="circle89"/>
	<circle cx="452.557" cy="150.643" r="4" fill="#0" id="circle90"/>
	<circle cx="452.557" cy="700.988" r="4" fill="#0" id="circle91"/>
	<circle cx="461.183" cy="716.515" r="4" fill="#0" id="circle92"/>
	<circle cx="469.809" cy="150.643" r="4" fill="#0" id="circle93"/>
	<circle cx="469.809" cy="732.042" r="4" fill="#0" id="circle94"/>
	<circle cx="478.435" cy="747.569" r="4" fill="#0" id="circle95"/>
	<circle cx="487.061" cy="150.643" r="4" fill="#0" id="circle96"/>
	<circle cx="487.061" cy="763.096" r="4" fill="#0" id="circle97"/>
	<circle cx="495.687" cy="778.623" r="4" fill="#0" id="circle98"/>
	<circle cx="504.313" cy="150.643" r="4" fill="#0" id="circle99"/>
	<circle cx="504.313" cy="794.15" r="4" fill="#0" id="circle100"/>
	<circle cx="512.939" cy="809.677" r="4" fill="#0" id="circle101"/>
	<circle cx="521.565" cy="150.643" r="4" fill="#0" id="circle102"/>
	<circle cx="521.565" cy="825.203" r="4" fill="#0" id="circle103"/>
	<circle cx="530.191" cy="840.73" r="4" fill="#0" id="circle104"/>
	<circle cx="538.817" cy="150.643" r="4" fill="#0" id="circle105"/>
	<circle cx="540.543" cy="854.532" r="4" fill="#0" id="circle106"/>
	<circle cx="556.07" cy="154.094" r="4" fill="#0" id="circle107"/>
	<circle cx="557.795" cy="859.708" r="4" fill="#0" id="circle108"/>
	<circle cx="566.421" cy="167.896" r="4" fill="#0" id="circle109"/>
	<circle cx="573.322" cy="851.082" r="4" fill="#0" id="circle110"/>
	<circle cx="583.673" cy="164.445" r="4" fill="#0" id="circle111"/>
	<circle cx="588.849" cy="842.456" r="4" fill="#0" id="circle112"/>
	<circle cx="599.2" cy="173.071" r="4" fill="#0" id="circle113"/>
	<circle cx="604.376" cy="832.104" r="4" fill="#0" id="circle114"/>
	<circle cx="616.452" cy="171.346" r="4" fill="#0" id="circle115"/>
	<circle cx="621.628" cy="823.478" r="4" fill="#0" id="circle116"/>
	<circle cx="626.803" cy="185.148" r="4" fill="#0" id="circle117"/>
	<circle cx="626.803" cy="626.803" r="4" fill="#0" id="circle118"/>
	<circle cx="635.43" cy="600.925" r="4" fill="#0" id="circle119"/>
	<circle cx="635.43" cy="642.33" r="4" fill="#0" id="circle120"/>
	<circle cx="638.88" cy="814.852" r="4" fill="#0" id="circle121"/>
	<circle cx="644.056" cy="190.323" r="4" fill="#0" id="circle122"/>
	<circle cx="644.056" cy="657.857" r="4" fill="#0" id="circle123"/>
	<circle cx="652.682" cy="592.299" r="4" fill="#0" id="circle124"/>
	<circle cx="652.682" cy="673.384" r="4" fill="#0" id="circle125"/>
	<circle cx="656.132" cy="806.226" r="4" fill="#0" id="circle126"/>
	<circle cx="659.583" cy="198.95" r="4" fill="#0" id="circle127"/>
	<circle cx="661.308" cy="688.911" r="4" fill="#0" id="circle128"/>
	<circle cx="666.483" cy="580.223" r="4" fill="#0" id="circle129"/>
	<circle cx="669.934" cy="790.699" r="4" fill="#0" id="circle130"/>
	<circle cx="671.659" cy="702.713" r="4" fill="#0" id="circle131"/>
	<circle cx="673.384" cy="211.026" r="4" fill="#0" id="circle132"/>
	<circle cx="678.56" cy="540.543" r="4" fill="#0" id="circle133"/>
	<circle cx="678.56" cy="557.795" r="4" fill="#0" id="circle134"/>
	<circle cx="678.56" cy="719.965" r="4" fill="#0" id="circle135"/>
	<circle cx="687.186" cy="523.29" r="4" fill="#0" id="circle136"/>
	<circle cx="687.186" cy="735.492" r="4" fill="#0" id="circle137"/>
	<circle cx="687.186" cy="782.073" r="4" fill="#0" id="circle138"/>
	<circle cx="690.637" cy="211.026" r="4" fill="#0" id="circle139"/>
	<circle cx="695.812" cy="506.038" r="4" fill="#0" id="circle140"/>
	<circle cx="695.812" cy="751.019" r="4" fill="#0" id="circle141"/>
	<circle cx="702.713" cy="190.323" r="4" fill="#0" id="circle142"/>
	<circle cx="704.438" cy="773.447" r="4" fill="#0" id="circle143"/>
	<circle cx="711.339" cy="164.445" r="4" fill="#0" id="circle144"/>
	<circle cx="713.064" cy="350.769" r="4" fill="#0" id="circle145"/>
	<circle cx="713.064" cy="480.16" r="4" fill="#0" id="circle146"/>
	<circle cx="713.064" cy="497.412" r="4" fill="#0" id="circle147"/>
	<circle cx="719.965" cy="147.193" r="4" fill="#0" id="circle148"/>
	<circle cx="721.69" cy="366.296" r="4" fill="#0" id="circle149"/>
	<circle cx="721.69" cy="462.908" r="4" fill="#0" id="circle150"/>
	<circle cx="728.591" cy="121.315" r="4" fill="#0" id="circle151"/>
	<circle cx="728.591" cy="342.143" r="4" fill="#0" id="circle152"/>
	<circle cx="735.492" cy="450.831" r="4" fill="#0" id="circle153"/>
	<circle cx="738.943" cy="366.296" r="4" fill="#0" id="circle154"/>
	<circle cx="742.393" cy="107.513" r="4" fill="#0" id="circle155"/>
	<circle cx="744.118" cy="433.579" r="4" fill="#0" id="circle156"/>
	<circle cx="745.843" cy="342.143" r="4" fill="#0" id="circle157"/>
	<circle cx="747.569" cy="402.525" r="4" fill="#0" id="circle158"/>
	<circle cx="752.744" cy="376.647" r="4" fill="#0" id="circle159"/>
	<circle cx="757.92" cy="98.887" r="4" fill="#0" id="circle160"/>
	<circle cx="761.37" cy="333.517" r="4" fill="#0" id="circle161"/>
	<circle cx="763.096" cy="78.1843" r="4" fill="#0" id="circle162"/>
	<circle cx="776.897" cy="64.3826" r="4" fill="#0" id="circle163"/>
	<circle cx="778.623" cy="333.517" r="4" fill="#0" id="circle164"/>
	<circle cx="785.523" cy="47.1304" r="4" fill="#0" id="circle165"/>
	<circle cx="795.875" cy="333.517" r="4" fill="#0" id="circle166"/>
	<circle cx="799.325" cy="109.238" r="4" fill="#0" id="circle167"/>
	<circle cx="799.325" cy="135.117" r="4" fill="#0" id="circle168"/>
	<circle cx="799.325" cy="152.369" r="4" fill="#0" id="circle169"/>
	<circle cx="799.325" cy="169.621" r="4" fill="#0" id="circle170"/>
	<circle cx="802.776" cy="38.5043" r="4" fill="#0" id="circle171"/>
	<circle cx="807.951" cy="185.148" r="4" fill="#0" id="circle172"/>
	<circle cx="807.951" cy="202.4" r="4" fill="#0" id="circle173"/>
	<circle cx="811.402" cy="21.2522" r="4" fill="#0" id="circle174"/>
	<circle cx="813.127" cy="97.1617" r="4" fill="#0" id="circle175"/>
	<circle cx="813.127" cy="330.066" r="4" fill="#0" id="circle176"/>
	<circle cx="816.577" cy="217.927" r="4" fill="#0" id="circle177"/>
	<circle cx="821.753" cy="79.9096" r="4" fill="#0" id="circle178"/>
	<circle cx="825.203" cy="57.4817" r="4" fill="#0" id="circle179"/>
	<circle cx="825.203" cy="233.454" r="4" fill="#0" id="circle180"/>
	<circle cx="828.654" cy="12.6261" r="4" fill="#0" id="circle181"/>
	<circle cx="830.379" cy="324.89" r="4" fill="#0" id="circle182"/>
	<circle cx="839.005" cy="45.4052" r="4" fill="#0" id="circle183"/>
	<circle cx="839.005" cy="245.53" r="4" fill="#0" id="circle184"/>
	<circle cx="842.456" cy="22.9774" r="4" fill="#0" id="circle185"/>
	<circle cx="845.906" cy="4" r="4" fill="#0" id="circle186"/>
	<circle cx="847.631" cy="324.89" r="4" fill="#0" id="circle187"/>
	<circle cx="856.257" cy="247.256" r="4" fill="#0" id="circle188"/>
	<circle cx="859.708" cy="14.3513" r="4" fill="#0" id="circle189"/>
	<circle cx="863.158" cy="264.508" r="4" fill="#0" id="circle190"/>
	<circle cx="864.883" cy="324.89" r="4" fill="#0" id="circle191"/>
	<circle cx="880.41" cy="262.783" r="4" fill="#0" id="circle192"/>
	<circle cx="882.136" cy="324.89" r="4" fill="#0" id="circle193"/>
	<circle cx="895.937" cy="271.409" r="4" fill="#0" id="circle194"/>
	<circle cx="897.663" cy="316.264" r="4" fill="#0" id="circle195"/>
	<circle cx="911.464" cy="280.035" r="4" fill="#0" id="circle196"/>
	<circle cx="914.915" cy="316.264" r="4" fill="#0" id="circle197"/>
	<circle cx="928.717" cy="274.859" r="4" fill="#0" id="circle198"/>
	<circle cx="932.167" cy="314.539" r="4" fill="#0" id="circle199"/>
	<circle cx="945.969" cy="271.409" r="4" fill="#0" id="circle200"/>
	<circle cx="949.419" cy="314.539" r="4" fill="#0" id="circle201"/>
	<circle cx="963.221" cy="266.233" r="4" fill="#0" id="circle202"/>
	<circle cx="966.671" cy="305.913" r="4" fill="#0" id="circle203"/>
	<circle cx="980.473" cy="266.233" r="4" fill="#0" id="circle204"/>
	<circle cx="983.923" cy="297.287" r="4" fill="#0" id="circle205"/>
	<circle cx="996" cy="274.859" r="4" fill="#0" id="circle206"/>
	</g>
</svg>