<?xml version="1.0" encoding="UTF-8" standalone="no"?>
<!-- Created with CurveBenchmark -->
<svg
	xmlns:dc="http://purl.org/dc/elements/1.1/"
	xmlns:cc="http://creativecommons.org/ns#"
	xmlns:rdf="http://www.w3.org/1999/02/22-rdf-syntax-ns#"
	xmlns:svg="http://www.w3.org/2000/svg"
	xmlns="http://www.w3.org/2000/svg"
	xmlns:sodipodi="http://sodipodi.sourceforge.net/DTD/sodipodi-0.dtd"
	xmlns:inkscape="http://www.inkscape.org/namespaces/inkscape"
	width="1000"
	height="1000"
	id="svg2"
	version="1.1"
	sodipodi:docname="manifold/nncrust-stef-10.png.txt">
<defs
	id="defs4" />
<metadata
	id="metadata7">
	<rdf:RDF>
		<cc:Work
			rdf:about="">
			<dc:format>image/svg+xml</dc:format>
			<dc:type
				rdf:resource="http://purl.org/dc/dcmitype/StillImage" />
			<dc:title></dc:title>
		</cc:Work>
	</rdf:RDF>
</metadata>
<g
	inkscape:label="Layer 1"
	inkscape:groupmode="layer"
	id="layer1">
	<path style="fill:none;stroke:red;stroke-width:1px;stroke-linecap:butt;stroke-linejoin:miter;stroke-opacity:1" d="M 78.4,42.0267 86.6667,25.4933 z" id="boundary" inkscape:connector-curvature="0" />
	<path style="fill:none;stroke:red;stroke-width:1px;stroke-linecap:butt;stroke-linejoin:miter;stroke-opacity:1" d="M 70.1333,83.36 70.1333,66.8267 z" id="boundary" inkscape:connector-curvature="0" />
	<path style="fill:none;stroke:red;stroke-width:1px;stroke-linecap:butt;stroke-linejoin:miter;stroke-opacity:1" d="M 70.1333,66.8267 78.4,42.0267 z" id="boundary" inkscape:connector-curvature="0" />
	<path style="fill:none;stroke:red;stroke-width:1px;stroke-linecap:butt;stroke-linejoin:miter;stroke-opacity:1" d="M 86.6667,25.4933 99.8933,12.2667 z" id="boundary" inkscape:connector-curvature="0" />
	<path style="fill:none;stroke:red;stroke-width:1px;stroke-linecap:butt;stroke-linejoin:miter;stroke-opacity:1" d="M 132.96,4 149.493,4 z" id="boundary" inkscape:connector-curvature="0" />
	<path style="fill:none;stroke:red;stroke-width:1px;stroke-linecap:butt;stroke-linejoin:miter;stroke-opacity:1" d="M 166.027,4 182.56,4 z" id="boundary" inkscape:connector-curvature="0" />
	<path style="fill:none;stroke:red;stroke-width:1px;stroke-linecap:butt;stroke-linejoin:miter;stroke-opacity:1" d="M 197.44,12.2667 182.56,4 z" id="boundary" inkscape:connector-curvature="0" />
	<path style="fill:none;stroke:red;stroke-width:1px;stroke-linecap:butt;stroke-linejoin:miter;stroke-opacity:1" d="M 99.8933,12.2667 116.427,4 z" id="boundary" inkscape:connector-curvature="0" />
	<path style="fill:none;stroke:red;stroke-width:1px;stroke-linecap:butt;stroke-linejoin:miter;stroke-opacity:1" d="M 116.427,4 132.96,4 z" id="boundary" inkscape:connector-curvature="0" />
	<path style="fill:none;stroke:red;stroke-width:1px;stroke-linecap:butt;stroke-linejoin:miter;stroke-opacity:1" d="M 149.493,4 166.027,4 z" id="boundary" inkscape:connector-curvature="0" />
	<path style="fill:none;stroke:red;stroke-width:1px;stroke-linecap:butt;stroke-linejoin:miter;stroke-opacity:1" d="M 113.12,121.387 96.5867,121.387 z" id="boundary" inkscape:connector-curvature="0" />
	<path style="fill:none;stroke:red;stroke-width:1px;stroke-linecap:butt;stroke-linejoin:miter;stroke-opacity:1" d="M 96.5867,121.387 83.36,111.467 z" id="boundary" inkscape:connector-curvature="0" />
	<path style="fill:none;stroke:red;stroke-width:1px;stroke-linecap:butt;stroke-linejoin:miter;stroke-opacity:1" d="M 83.36,111.467 70.1333,99.8933 z" id="boundary" inkscape:connector-curvature="0" />
	<path style="fill:none;stroke:red;stroke-width:1px;stroke-linecap:butt;stroke-linejoin:miter;stroke-opacity:1" d="M 70.1333,99.8933 70.1333,83.36 z" id="boundary" inkscape:connector-curvature="0" />
	<path style="fill:none;stroke:red;stroke-width:1px;stroke-linecap:butt;stroke-linejoin:miter;stroke-opacity:1" d="M 113.12,121.387 129.653,124.693 z" id="boundary" inkscape:connector-curvature="0" />
	<path style="fill:none;stroke:red;stroke-width:1px;stroke-linecap:butt;stroke-linejoin:miter;stroke-opacity:1" d="M 146.187,129.653 129.653,124.693 z" id="boundary" inkscape:connector-curvature="0" />
	<path style="fill:none;stroke:red;stroke-width:1px;stroke-linecap:butt;stroke-linejoin:miter;stroke-opacity:1" d="M 169.333,149.493 169.333,166.027 z" id="boundary" inkscape:connector-curvature="0" />
	<path style="fill:none;stroke:red;stroke-width:1px;stroke-linecap:butt;stroke-linejoin:miter;stroke-opacity:1" d="M 169.333,149.493 162.72,132.96 z" id="boundary" inkscape:connector-curvature="0" />
	<path style="fill:none;stroke:red;stroke-width:1px;stroke-linecap:butt;stroke-linejoin:miter;stroke-opacity:1" d="M 169.333,166.027 169.333,182.56 z" id="boundary" inkscape:connector-curvature="0" />
	<path style="fill:none;stroke:red;stroke-width:1px;stroke-linecap:butt;stroke-linejoin:miter;stroke-opacity:1" d="M 182.56,194.133 169.333,182.56 z" id="boundary" inkscape:connector-curvature="0" />
	<path style="fill:none;stroke:red;stroke-width:1px;stroke-linecap:butt;stroke-linejoin:miter;stroke-opacity:1" d="M 195.787,204.053 182.56,194.133 z" id="boundary" inkscape:connector-curvature="0" />
	<path style="fill:none;stroke:red;stroke-width:1px;stroke-linecap:butt;stroke-linejoin:miter;stroke-opacity:1" d="M 210.667,212.32 195.787,204.053 z" id="boundary" inkscape:connector-curvature="0" />
	<path style="fill:none;stroke:red;stroke-width:1px;stroke-linecap:butt;stroke-linejoin:miter;stroke-opacity:1" d="M 146.187,129.653 162.72,132.96 z" id="boundary" inkscape:connector-curvature="0" />
	<path style="fill:none;stroke:red;stroke-width:1px;stroke-linecap:butt;stroke-linejoin:miter;stroke-opacity:1" d="M 197.44,12.2667 204.053,28.8 z" id="boundary" inkscape:connector-curvature="0" />
	<path style="fill:none;stroke:red;stroke-width:1px;stroke-linecap:butt;stroke-linejoin:miter;stroke-opacity:1" d="M 70.1333,99.8933 4,579.36 z" id="boundary" inkscape:connector-curvature="0" />
	<path style="fill:none;stroke:red;stroke-width:1px;stroke-linecap:butt;stroke-linejoin:miter;stroke-opacity:1" d="M 212.32,43.68 204.053,28.8 z" id="boundary" inkscape:connector-curvature="0" />
	<path style="fill:none;stroke:red;stroke-width:1px;stroke-linecap:butt;stroke-linejoin:miter;stroke-opacity:1" d="M 240.427,45.3333 225.547,53.6 z" id="boundary" inkscape:connector-curvature="0" />
	<path style="fill:none;stroke:red;stroke-width:1px;stroke-linecap:butt;stroke-linejoin:miter;stroke-opacity:1" d="M 225.547,53.6 212.32,43.68 z" id="boundary" inkscape:connector-curvature="0" />
	<path style="fill:none;stroke:red;stroke-width:1px;stroke-linecap:butt;stroke-linejoin:miter;stroke-opacity:1" d="M 225.547,220.587 210.667,212.32 z" id="boundary" inkscape:connector-curvature="0" />
	<path style="fill:none;stroke:red;stroke-width:1px;stroke-linecap:butt;stroke-linejoin:miter;stroke-opacity:1" d="M 242.08,220.587 225.547,220.587 z" id="boundary" inkscape:connector-curvature="0" />
	<path style="fill:none;stroke:red;stroke-width:1px;stroke-linecap:butt;stroke-linejoin:miter;stroke-opacity:1" d="M 240.427,45.3333 256.96,45.3333 z" id="boundary" inkscape:connector-curvature="0" />
	<path style="fill:none;stroke:red;stroke-width:1px;stroke-linecap:butt;stroke-linejoin:miter;stroke-opacity:1" d="M 273.493,45.3333 256.96,45.3333 z" id="boundary" inkscape:connector-curvature="0" />
	<path style="fill:none;stroke:red;stroke-width:1px;stroke-linecap:butt;stroke-linejoin:miter;stroke-opacity:1" d="M 273.493,45.3333 290.027,45.3333 z" id="boundary" inkscape:connector-curvature="0" />
	<path style="fill:none;stroke:red;stroke-width:1px;stroke-linecap:butt;stroke-linejoin:miter;stroke-opacity:1" d="M 306.56,45.3333 290.027,45.3333 z" id="boundary" inkscape:connector-curvature="0" />
	<path style="fill:none;stroke:red;stroke-width:1px;stroke-linecap:butt;stroke-linejoin:miter;stroke-opacity:1" d="M 258.613,220.587 242.08,220.587 z" id="boundary" inkscape:connector-curvature="0" />
	<path style="fill:none;stroke:red;stroke-width:1px;stroke-linecap:butt;stroke-linejoin:miter;stroke-opacity:1" d="M 323.093,45.3333 306.56,45.3333 z" id="boundary" inkscape:connector-curvature="0" />
	<path style="fill:none;stroke:red;stroke-width:1px;stroke-linecap:butt;stroke-linejoin:miter;stroke-opacity:1" d="M 290.027,228.853 273.493,228.853 z" id="boundary" inkscape:connector-curvature="0" />
	<path style="fill:none;stroke:red;stroke-width:1px;stroke-linecap:butt;stroke-linejoin:miter;stroke-opacity:1" d="M 273.493,228.853 258.613,220.587 z" id="boundary" inkscape:connector-curvature="0" />
	<path style="fill:none;stroke:red;stroke-width:1px;stroke-linecap:butt;stroke-linejoin:miter;stroke-opacity:1" d="M 290.027,301.6 275.147,309.867 z" id="boundary" inkscape:connector-curvature="0" />
	<path style="fill:none;stroke:red;stroke-width:1px;stroke-linecap:butt;stroke-linejoin:miter;stroke-opacity:1" d="M 261.92,321.44 245.387,329.707 z" id="boundary" inkscape:connector-curvature="0" />
	<path style="fill:none;stroke:red;stroke-width:1px;stroke-linecap:butt;stroke-linejoin:miter;stroke-opacity:1" d="M 275.147,309.867 261.92,321.44 z" id="boundary" inkscape:connector-curvature="0" />
	<path style="fill:none;stroke:red;stroke-width:1px;stroke-linecap:butt;stroke-linejoin:miter;stroke-opacity:1" d="M 237.12,346.24 245.387,329.707 z" id="boundary" inkscape:connector-curvature="0" />
	<path style="fill:none;stroke:red;stroke-width:1px;stroke-linecap:butt;stroke-linejoin:miter;stroke-opacity:1" d="M 290.027,228.853 301.6,242.08 z" id="boundary" inkscape:connector-curvature="0" />
	<path style="fill:none;stroke:red;stroke-width:1px;stroke-linecap:butt;stroke-linejoin:miter;stroke-opacity:1" d="M 323.093,268.533 309.867,256.96 z" id="boundary" inkscape:connector-curvature="0" />
	<path style="fill:none;stroke:red;stroke-width:1px;stroke-linecap:butt;stroke-linejoin:miter;stroke-opacity:1" d="M 309.867,256.96 301.6,242.08 z" id="boundary" inkscape:connector-curvature="0" />
	<path style="fill:none;stroke:red;stroke-width:1px;stroke-linecap:butt;stroke-linejoin:miter;stroke-opacity:1" d="M 290.027,301.6 306.56,293.333 z" id="boundary" inkscape:connector-curvature="0" />
	<path style="fill:none;stroke:red;stroke-width:1px;stroke-linecap:butt;stroke-linejoin:miter;stroke-opacity:1" d="M 306.56,293.333 323.093,293.333 z" id="boundary" inkscape:connector-curvature="0" />
	<path style="fill:none;stroke:red;stroke-width:1px;stroke-linecap:butt;stroke-linejoin:miter;stroke-opacity:1" d="M 323.093,268.533 323.093,293.333 z" id="boundary" inkscape:connector-curvature="0" />
	<path style="fill:none;stroke:red;stroke-width:1px;stroke-linecap:butt;stroke-linejoin:miter;stroke-opacity:1" d="M 323.093,45.3333 337.973,53.6 z" id="boundary" inkscape:connector-curvature="0" />
	<path style="fill:none;stroke:red;stroke-width:1px;stroke-linecap:butt;stroke-linejoin:miter;stroke-opacity:1" d="M 17.2267,566.133 32.1067,557.867 z" id="boundary" inkscape:connector-curvature="0" />
	<path style="fill:none;stroke:red;stroke-width:1px;stroke-linecap:butt;stroke-linejoin:miter;stroke-opacity:1" d="M 48.64,557.867 32.1067,557.867 z" id="boundary" inkscape:connector-curvature="0" />
	<path style="fill:none;stroke:red;stroke-width:1px;stroke-linecap:butt;stroke-linejoin:miter;stroke-opacity:1" d="M 48.64,557.867 65.1733,557.867 z" id="boundary" inkscape:connector-curvature="0" />
	<path style="fill:none;stroke:red;stroke-width:1px;stroke-linecap:butt;stroke-linejoin:miter;stroke-opacity:1" d="M 81.7067,557.867 65.1733,557.867 z" id="boundary" inkscape:connector-curvature="0" />
	<path style="fill:none;stroke:red;stroke-width:1px;stroke-linecap:butt;stroke-linejoin:miter;stroke-opacity:1" d="M 152.8,471.893 144.533,488.427 z" id="boundary" inkscape:connector-curvature="0" />
	<path style="fill:none;stroke:red;stroke-width:1px;stroke-linecap:butt;stroke-linejoin:miter;stroke-opacity:1" d="M 144.533,488.427 132.96,508.267 z" id="boundary" inkscape:connector-curvature="0" />
	<path style="fill:none;stroke:red;stroke-width:1px;stroke-linecap:butt;stroke-linejoin:miter;stroke-opacity:1" d="M 132.96,508.267 119.733,521.493 z" id="boundary" inkscape:connector-curvature="0" />
	<path style="fill:none;stroke:red;stroke-width:1px;stroke-linecap:butt;stroke-linejoin:miter;stroke-opacity:1" d="M 111.467,538.027 119.733,521.493 z" id="boundary" inkscape:connector-curvature="0" />
	<path style="fill:none;stroke:red;stroke-width:1px;stroke-linecap:butt;stroke-linejoin:miter;stroke-opacity:1" d="M 98.24,557.867 111.467,538.027 z" id="boundary" inkscape:connector-curvature="0" />
	<path style="fill:none;stroke:red;stroke-width:1px;stroke-linecap:butt;stroke-linejoin:miter;stroke-opacity:1" d="M 98.24,557.867 81.7067,557.867 z" id="boundary" inkscape:connector-curvature="0" />
	<path style="fill:none;stroke:red;stroke-width:1px;stroke-linecap:butt;stroke-linejoin:miter;stroke-opacity:1" d="M 146.187,551.253 137.92,576.053 z" id="boundary" inkscape:connector-curvature="0" />
	<path style="fill:none;stroke:red;stroke-width:1px;stroke-linecap:butt;stroke-linejoin:miter;stroke-opacity:1" d="M 137.92,576.053 129.653,592.587 z" id="boundary" inkscape:connector-curvature="0" />
	<path style="fill:none;stroke:red;stroke-width:1px;stroke-linecap:butt;stroke-linejoin:miter;stroke-opacity:1" d="M 4,579.36 17.2267,590.933 z" id="boundary" inkscape:connector-curvature="0" />
	<path style="fill:none;stroke:red;stroke-width:1px;stroke-linecap:butt;stroke-linejoin:miter;stroke-opacity:1" d="M 4,579.36 17.2267,566.133 z" id="boundary" inkscape:connector-curvature="0" />
	<path style="fill:none;stroke:red;stroke-width:1px;stroke-linecap:butt;stroke-linejoin:miter;stroke-opacity:1" d="M 28.8,604.16 17.2267,590.933 z" id="boundary" inkscape:connector-curvature="0" />
	<path style="fill:none;stroke:red;stroke-width:1px;stroke-linecap:butt;stroke-linejoin:miter;stroke-opacity:1" d="M 28.8,604.16 37.0667,619.04 z" id="boundary" inkscape:connector-curvature="0" />
	<path style="fill:none;stroke:red;stroke-width:1px;stroke-linecap:butt;stroke-linejoin:miter;stroke-opacity:1" d="M 48.64,632.267 37.0667,619.04 z" id="boundary" inkscape:connector-curvature="0" />
	<path style="fill:none;stroke:red;stroke-width:1px;stroke-linecap:butt;stroke-linejoin:miter;stroke-opacity:1" d="M 61.8667,642.187 48.64,632.267 z" id="boundary" inkscape:connector-curvature="0" />
	<path style="fill:none;stroke:red;stroke-width:1px;stroke-linecap:butt;stroke-linejoin:miter;stroke-opacity:1" d="M 61.8667,642.187 66.8267,658.72 z" id="boundary" inkscape:connector-curvature="0" />
	<path style="fill:none;stroke:red;stroke-width:1px;stroke-linecap:butt;stroke-linejoin:miter;stroke-opacity:1" d="M 121.387,617.387 113.12,633.92 z" id="boundary" inkscape:connector-curvature="0" />
	<path style="fill:none;stroke:red;stroke-width:1px;stroke-linecap:butt;stroke-linejoin:miter;stroke-opacity:1" d="M 113.12,633.92 99.8933,657.067 z" id="boundary" inkscape:connector-curvature="0" />
	<path style="fill:none;stroke:red;stroke-width:1px;stroke-linecap:butt;stroke-linejoin:miter;stroke-opacity:1" d="M 121.387,617.387 129.653,592.587 z" id="boundary" inkscape:connector-curvature="0" />
	<path style="fill:none;stroke:red;stroke-width:1px;stroke-linecap:butt;stroke-linejoin:miter;stroke-opacity:1" d="M 83.36,665.333 66.8267,658.72 z" id="boundary" inkscape:connector-curvature="0" />
	<path style="fill:none;stroke:red;stroke-width:1px;stroke-linecap:butt;stroke-linejoin:miter;stroke-opacity:1" d="M 99.8933,657.067 83.36,665.333 z" id="boundary" inkscape:connector-curvature="0" />
	<path style="fill:none;stroke:red;stroke-width:1px;stroke-linecap:butt;stroke-linejoin:miter;stroke-opacity:1" d="M 207.36,367.733 220.587,354.507 z" id="boundary" inkscape:connector-curvature="0" />
	<path style="fill:none;stroke:red;stroke-width:1px;stroke-linecap:butt;stroke-linejoin:miter;stroke-opacity:1" d="M 237.12,346.24 220.587,354.507 z" id="boundary" inkscape:connector-curvature="0" />
	<path style="fill:none;stroke:red;stroke-width:1px;stroke-linecap:butt;stroke-linejoin:miter;stroke-opacity:1" d="M 194.133,380.96 207.36,367.733 z" id="boundary" inkscape:connector-curvature="0" />
	<path style="fill:none;stroke:red;stroke-width:1px;stroke-linecap:butt;stroke-linejoin:miter;stroke-opacity:1" d="M 177.6,414.027 185.867,397.493 z" id="boundary" inkscape:connector-curvature="0" />
	<path style="fill:none;stroke:red;stroke-width:1px;stroke-linecap:butt;stroke-linejoin:miter;stroke-opacity:1" d="M 185.867,397.493 194.133,380.96 z" id="boundary" inkscape:connector-curvature="0" />
	<path style="fill:none;stroke:red;stroke-width:1px;stroke-linecap:butt;stroke-linejoin:miter;stroke-opacity:1" d="M 285.067,397.493 301.6,394.187 z" id="boundary" inkscape:connector-curvature="0" />
	<path style="fill:none;stroke:red;stroke-width:1px;stroke-linecap:butt;stroke-linejoin:miter;stroke-opacity:1" d="M 301.6,394.187 318.133,394.187 z" id="boundary" inkscape:connector-curvature="0" />
	<path style="fill:none;stroke:red;stroke-width:1px;stroke-linecap:butt;stroke-linejoin:miter;stroke-opacity:1" d="M 285.067,397.493 268.533,402.453 z" id="boundary" inkscape:connector-curvature="0" />
	<path style="fill:none;stroke:red;stroke-width:1px;stroke-linecap:butt;stroke-linejoin:miter;stroke-opacity:1" d="M 228.853,427.253 237.12,410.72 z" id="boundary" inkscape:connector-curvature="0" />
	<path style="fill:none;stroke:red;stroke-width:1px;stroke-linecap:butt;stroke-linejoin:miter;stroke-opacity:1" d="M 237.12,410.72 252,402.453 z" id="boundary" inkscape:connector-curvature="0" />
	<path style="fill:none;stroke:red;stroke-width:1px;stroke-linecap:butt;stroke-linejoin:miter;stroke-opacity:1" d="M 268.533,402.453 252,402.453 z" id="boundary" inkscape:connector-curvature="0" />
	<path style="fill:none;stroke:red;stroke-width:1px;stroke-linecap:butt;stroke-linejoin:miter;stroke-opacity:1" d="M 333.013,385.92 318.133,394.187 z" id="boundary" inkscape:connector-curvature="0" />
	<path style="fill:none;stroke:red;stroke-width:1px;stroke-linecap:butt;stroke-linejoin:miter;stroke-opacity:1" d="M 169.333,438.827 166.027,458.667 z" id="boundary" inkscape:connector-curvature="0" />
	<path style="fill:none;stroke:red;stroke-width:1px;stroke-linecap:butt;stroke-linejoin:miter;stroke-opacity:1" d="M 166.027,458.667 152.8,471.893 z" id="boundary" inkscape:connector-curvature="0" />
	<path style="fill:none;stroke:red;stroke-width:1px;stroke-linecap:butt;stroke-linejoin:miter;stroke-opacity:1" d="M 184.213,514.88 170.987,526.453 z" id="boundary" inkscape:connector-curvature="0" />
	<path style="fill:none;stroke:red;stroke-width:1px;stroke-linecap:butt;stroke-linejoin:miter;stroke-opacity:1" d="M 159.413,539.68 146.187,551.253 z" id="boundary" inkscape:connector-curvature="0" />
	<path style="fill:none;stroke:red;stroke-width:1px;stroke-linecap:butt;stroke-linejoin:miter;stroke-opacity:1" d="M 170.987,526.453 159.413,539.68 z" id="boundary" inkscape:connector-curvature="0" />
	<path style="fill:none;stroke:red;stroke-width:1px;stroke-linecap:butt;stroke-linejoin:miter;stroke-opacity:1" d="M 225.547,457.013 217.28,473.547 z" id="boundary" inkscape:connector-curvature="0" />
	<path style="fill:none;stroke:red;stroke-width:1px;stroke-linecap:butt;stroke-linejoin:miter;stroke-opacity:1" d="M 217.28,473.547 204.053,485.12 z" id="boundary" inkscape:connector-curvature="0" />
	<path style="fill:none;stroke:red;stroke-width:1px;stroke-linecap:butt;stroke-linejoin:miter;stroke-opacity:1" d="M 225.547,457.013 228.853,427.253 z" id="boundary" inkscape:connector-curvature="0" />
	<path style="fill:none;stroke:red;stroke-width:1px;stroke-linecap:butt;stroke-linejoin:miter;stroke-opacity:1" d="M 195.787,501.653 184.213,514.88 z" id="boundary" inkscape:connector-curvature="0" />
	<path style="fill:none;stroke:red;stroke-width:1px;stroke-linecap:butt;stroke-linejoin:miter;stroke-opacity:1" d="M 204.053,485.12 195.787,501.653 z" id="boundary" inkscape:connector-curvature="0" />
	<path style="fill:none;stroke:red;stroke-width:1px;stroke-linecap:butt;stroke-linejoin:miter;stroke-opacity:1" d="M 169.333,438.827 177.6,414.027 z" id="boundary" inkscape:connector-curvature="0" />
	<path style="fill:none;stroke:red;stroke-width:1px;stroke-linecap:butt;stroke-linejoin:miter;stroke-opacity:1" d="M 323.093,293.333 333.013,385.92 z" id="boundary" inkscape:connector-curvature="0" />
	<path style="fill:none;stroke:red;stroke-width:1px;stroke-linecap:butt;stroke-linejoin:miter;stroke-opacity:1" d="M 351.2,65.1733 361.12,78.4 z" id="boundary" inkscape:connector-curvature="0" />
	<path style="fill:none;stroke:red;stroke-width:1px;stroke-linecap:butt;stroke-linejoin:miter;stroke-opacity:1" d="M 351.2,65.1733 337.973,53.6 z" id="boundary" inkscape:connector-curvature="0" />
	<path style="fill:none;stroke:red;stroke-width:1px;stroke-linecap:butt;stroke-linejoin:miter;stroke-opacity:1" d="M 361.12,78.4 374.347,88.32 z" id="boundary" inkscape:connector-curvature="0" />
	<path style="fill:none;stroke:red;stroke-width:1px;stroke-linecap:butt;stroke-linejoin:miter;stroke-opacity:1" d="M 374.347,88.32 385.92,101.547 z" id="boundary" inkscape:connector-curvature="0" />
	<path style="fill:none;stroke:red;stroke-width:1px;stroke-linecap:butt;stroke-linejoin:miter;stroke-opacity:1" d="M 399.147,113.12 385.92,101.547 z" id="boundary" inkscape:connector-curvature="0" />
	<path style="fill:none;stroke:red;stroke-width:1px;stroke-linecap:butt;stroke-linejoin:miter;stroke-opacity:1" d="M 418.987,141.227 405.76,129.653 z" id="boundary" inkscape:connector-curvature="0" />
	<path style="fill:none;stroke:red;stroke-width:1px;stroke-linecap:butt;stroke-linejoin:miter;stroke-opacity:1" d="M 405.76,129.653 399.147,113.12 z" id="boundary" inkscape:connector-curvature="0" />
	<path style="fill:none;stroke:red;stroke-width:1px;stroke-linecap:butt;stroke-linejoin:miter;stroke-opacity:1" d="M 418.987,141.227 430.56,154.453 z" id="boundary" inkscape:connector-curvature="0" />
	<path style="fill:none;stroke:red;stroke-width:1px;stroke-linecap:butt;stroke-linejoin:miter;stroke-opacity:1" d="M 430.56,154.453 443.787,166.027 z" id="boundary" inkscape:connector-curvature="0" />
	<path style="fill:none;stroke:red;stroke-width:1px;stroke-linecap:butt;stroke-linejoin:miter;stroke-opacity:1" d="M 443.787,166.027 450.4,182.56 z" id="boundary" inkscape:connector-curvature="0" />
	<path style="fill:none;stroke:red;stroke-width:1px;stroke-linecap:butt;stroke-linejoin:miter;stroke-opacity:1" d="M 466.933,189.173 450.4,182.56 z" id="boundary" inkscape:connector-curvature="0" />
	<path style="fill:none;stroke:red;stroke-width:1px;stroke-linecap:butt;stroke-linejoin:miter;stroke-opacity:1" d="M 412.373,361.12 427.253,352.853 z" id="boundary" inkscape:connector-curvature="0" />
	<path style="fill:none;stroke:red;stroke-width:1px;stroke-linecap:butt;stroke-linejoin:miter;stroke-opacity:1" d="M 443.787,352.853 427.253,352.853 z" id="boundary" inkscape:connector-curvature="0" />
	<path style="fill:none;stroke:red;stroke-width:1px;stroke-linecap:butt;stroke-linejoin:miter;stroke-opacity:1" d="M 443.787,352.853 453.707,366.08 z" id="boundary" inkscape:connector-curvature="0" />
	<path style="fill:none;stroke:red;stroke-width:1px;stroke-linecap:butt;stroke-linejoin:miter;stroke-opacity:1" d="M 382.613,377.653 366.08,377.653 z" id="boundary" inkscape:connector-curvature="0" />
	<path style="fill:none;stroke:red;stroke-width:1px;stroke-linecap:butt;stroke-linejoin:miter;stroke-opacity:1" d="M 397.493,369.387 382.613,377.653 z" id="boundary" inkscape:connector-curvature="0" />
	<path style="fill:none;stroke:red;stroke-width:1px;stroke-linecap:butt;stroke-linejoin:miter;stroke-opacity:1" d="M 397.493,369.387 412.373,361.12 z" id="boundary" inkscape:connector-curvature="0" />
	<path style="fill:none;stroke:red;stroke-width:1px;stroke-linecap:butt;stroke-linejoin:miter;stroke-opacity:1" d="M 493.387,207.36 476.853,202.4 z" id="boundary" inkscape:connector-curvature="0" />
	<path style="fill:none;stroke:red;stroke-width:1px;stroke-linecap:butt;stroke-linejoin:miter;stroke-opacity:1" d="M 476.853,202.4 466.933,189.173 z" id="boundary" inkscape:connector-curvature="0" />
	<path style="fill:none;stroke:red;stroke-width:1px;stroke-linecap:butt;stroke-linejoin:miter;stroke-opacity:1" d="M 493.387,207.36 504.96,220.587 z" id="boundary" inkscape:connector-curvature="0" />
	<path style="fill:none;stroke:red;stroke-width:1px;stroke-linecap:butt;stroke-linejoin:miter;stroke-opacity:1" d="M 524.8,248.693 513.227,235.467 z" id="boundary" inkscape:connector-curvature="0" />
	<path style="fill:none;stroke:red;stroke-width:1px;stroke-linecap:butt;stroke-linejoin:miter;stroke-opacity:1" d="M 513.227,235.467 504.96,220.587 z" id="boundary" inkscape:connector-curvature="0" />
	<path style="fill:none;stroke:red;stroke-width:1px;stroke-linecap:butt;stroke-linejoin:miter;stroke-opacity:1" d="M 366.08,377.653 349.547,382.613 z" id="boundary" inkscape:connector-curvature="0" />
	<path style="fill:none;stroke:red;stroke-width:1px;stroke-linecap:butt;stroke-linejoin:miter;stroke-opacity:1" d="M 534.72,280.107 534.72,296.64 z" id="boundary" inkscape:connector-curvature="0" />
	<path style="fill:none;stroke:red;stroke-width:1px;stroke-linecap:butt;stroke-linejoin:miter;stroke-opacity:1" d="M 534.72,280.107 533.067,263.573 z" id="boundary" inkscape:connector-curvature="0" />
	<path style="fill:none;stroke:red;stroke-width:1px;stroke-linecap:butt;stroke-linejoin:miter;stroke-opacity:1" d="M 544.64,309.867 534.72,296.64 z" id="boundary" inkscape:connector-curvature="0" />
	<path style="fill:none;stroke:red;stroke-width:1px;stroke-linecap:butt;stroke-linejoin:miter;stroke-opacity:1" d="M 524.8,248.693 533.067,263.573 z" id="boundary" inkscape:connector-curvature="0" />
	<path style="fill:none;stroke:red;stroke-width:1px;stroke-linecap:butt;stroke-linejoin:miter;stroke-opacity:1" d="M 544.64,309.867 557.867,321.44 z" id="boundary" inkscape:connector-curvature="0" />
	<path style="fill:none;stroke:red;stroke-width:1px;stroke-linecap:butt;stroke-linejoin:miter;stroke-opacity:1" d="M 567.787,334.667 557.867,321.44 z" id="boundary" inkscape:connector-curvature="0" />
	<path style="fill:none;stroke:red;stroke-width:1px;stroke-linecap:butt;stroke-linejoin:miter;stroke-opacity:1" d="M 835.627,326.4 852.16,326.4 z" id="boundary" inkscape:connector-curvature="0" />
	<path style="fill:none;stroke:red;stroke-width:1px;stroke-linecap:butt;stroke-linejoin:miter;stroke-opacity:1" d="M 820.747,334.667 835.627,326.4 z" id="boundary" inkscape:connector-curvature="0" />
	<path style="fill:none;stroke:red;stroke-width:1px;stroke-linecap:butt;stroke-linejoin:miter;stroke-opacity:1" d="M 852.16,326.4 868.693,326.4 z" id="boundary" inkscape:connector-curvature="0" />
	<path style="fill:none;stroke:red;stroke-width:1px;stroke-linecap:butt;stroke-linejoin:miter;stroke-opacity:1" d="M 868.693,326.4 883.573,334.667 z" id="boundary" inkscape:connector-curvature="0" />
	<path style="fill:none;stroke:red;stroke-width:1px;stroke-linecap:butt;stroke-linejoin:miter;stroke-opacity:1" d="M 807.52,346.24 820.747,334.667 z" id="boundary" inkscape:connector-curvature="0" />
	<path style="fill:none;stroke:red;stroke-width:1px;stroke-linecap:butt;stroke-linejoin:miter;stroke-opacity:1" d="M 584.32,364.427 576.053,349.547 z" id="boundary" inkscape:connector-curvature="0" />
	<path style="fill:none;stroke:red;stroke-width:1px;stroke-linecap:butt;stroke-linejoin:miter;stroke-opacity:1" d="M 746.347,367.733 729.813,367.733 z" id="boundary" inkscape:connector-curvature="0" />
	<path style="fill:none;stroke:red;stroke-width:1px;stroke-linecap:butt;stroke-linejoin:miter;stroke-opacity:1" d="M 576.053,349.547 567.787,334.667 z" id="boundary" inkscape:connector-curvature="0" />
	<path style="fill:none;stroke:red;stroke-width:1px;stroke-linecap:butt;stroke-linejoin:miter;stroke-opacity:1" d="M 714.933,376 729.813,367.733 z" id="boundary" inkscape:connector-curvature="0" />
	<path style="fill:none;stroke:red;stroke-width:1px;stroke-linecap:butt;stroke-linejoin:miter;stroke-opacity:1" d="M 762.88,367.733 746.347,367.733 z" id="boundary" inkscape:connector-curvature="0" />
	<path style="fill:none;stroke:red;stroke-width:1px;stroke-linecap:butt;stroke-linejoin:miter;stroke-opacity:1" d="M 794.293,359.467 807.52,346.24 z" id="boundary" inkscape:connector-curvature="0" />
	<path style="fill:none;stroke:red;stroke-width:1px;stroke-linecap:butt;stroke-linejoin:miter;stroke-opacity:1" d="M 794.293,359.467 779.413,367.733 z" id="boundary" inkscape:connector-curvature="0" />
	<path style="fill:none;stroke:red;stroke-width:1px;stroke-linecap:butt;stroke-linejoin:miter;stroke-opacity:1" d="M 779.413,367.733 762.88,367.733 z" id="boundary" inkscape:connector-curvature="0" />
	<path style="fill:none;stroke:red;stroke-width:1px;stroke-linecap:butt;stroke-linejoin:miter;stroke-opacity:1" d="M 883.573,334.667 898.453,342.933 z" id="boundary" inkscape:connector-curvature="0" />
	<path style="fill:none;stroke:red;stroke-width:1px;stroke-linecap:butt;stroke-linejoin:miter;stroke-opacity:1" d="M 898.453,342.933 911.68,352.853 z" id="boundary" inkscape:connector-curvature="0" />
	<path style="fill:none;stroke:red;stroke-width:1px;stroke-linecap:butt;stroke-linejoin:miter;stroke-opacity:1" d="M 911.68,352.853 923.253,366.08 z" id="boundary" inkscape:connector-curvature="0" />
	<path style="fill:none;stroke:red;stroke-width:1px;stroke-linecap:butt;stroke-linejoin:miter;stroke-opacity:1" d="M 939.787,372.693 923.253,366.08 z" id="boundary" inkscape:connector-curvature="0" />
	<path style="fill:none;stroke:red;stroke-width:1px;stroke-linecap:butt;stroke-linejoin:miter;stroke-opacity:1" d="M 466.933,377.653 453.707,366.08 z" id="boundary" inkscape:connector-curvature="0" />
	<path style="fill:none;stroke:red;stroke-width:1px;stroke-linecap:butt;stroke-linejoin:miter;stroke-opacity:1" d="M 714.933,376 698.4,380.96 z" id="boundary" inkscape:connector-curvature="0" />
	<path style="fill:none;stroke:red;stroke-width:1px;stroke-linecap:butt;stroke-linejoin:miter;stroke-opacity:1" d="M 466.933,377.653 471.893,394.187 z" id="boundary" inkscape:connector-curvature="0" />
	<path style="fill:none;stroke:red;stroke-width:1px;stroke-linecap:butt;stroke-linejoin:miter;stroke-opacity:1" d="M 471.893,394.187 485.12,405.76 z" id="boundary" inkscape:connector-curvature="0" />
	<path style="fill:none;stroke:red;stroke-width:1px;stroke-linecap:butt;stroke-linejoin:miter;stroke-opacity:1" d="M 349.547,382.613 333.013,385.92 z" id="boundary" inkscape:connector-curvature="0" />
	<path style="fill:none;stroke:red;stroke-width:1px;stroke-linecap:butt;stroke-linejoin:miter;stroke-opacity:1" d="M 602.507,392.533 592.587,379.307 z" id="boundary" inkscape:connector-curvature="0" />
	<path style="fill:none;stroke:red;stroke-width:1px;stroke-linecap:butt;stroke-linejoin:miter;stroke-opacity:1" d="M 592.587,379.307 584.32,364.427 z" id="boundary" inkscape:connector-curvature="0" />
	<path style="fill:none;stroke:red;stroke-width:1px;stroke-linecap:butt;stroke-linejoin:miter;stroke-opacity:1" d="M 496.693,418.987 485.12,405.76 z" id="boundary" inkscape:connector-curvature="0" />
	<path style="fill:none;stroke:red;stroke-width:1px;stroke-linecap:butt;stroke-linejoin:miter;stroke-opacity:1" d="M 602.507,392.533 617.387,400.8 z" id="boundary" inkscape:connector-curvature="0" />
	<path style="fill:none;stroke:red;stroke-width:1px;stroke-linecap:butt;stroke-linejoin:miter;stroke-opacity:1" d="M 633.92,400.8 617.387,400.8 z" id="boundary" inkscape:connector-curvature="0" />
	<path style="fill:none;stroke:red;stroke-width:1px;stroke-linecap:butt;stroke-linejoin:miter;stroke-opacity:1" d="M 650.453,400.8 633.92,400.8 z" id="boundary" inkscape:connector-curvature="0" />
	<path style="fill:none;stroke:red;stroke-width:1px;stroke-linecap:butt;stroke-linejoin:miter;stroke-opacity:1" d="M 665.333,392.533 650.453,400.8 z" id="boundary" inkscape:connector-curvature="0" />
	<path style="fill:none;stroke:red;stroke-width:1px;stroke-linecap:butt;stroke-linejoin:miter;stroke-opacity:1" d="M 671.947,493.387 655.413,493.387 z" id="boundary" inkscape:connector-curvature="0" />
	<path style="fill:none;stroke:red;stroke-width:1px;stroke-linecap:butt;stroke-linejoin:miter;stroke-opacity:1" d="M 504.96,433.867 511.573,450.4 z" id="boundary" inkscape:connector-curvature="0" />
	<path style="fill:none;stroke:red;stroke-width:1px;stroke-linecap:butt;stroke-linejoin:miter;stroke-opacity:1" d="M 504.96,433.867 496.693,418.987 z" id="boundary" inkscape:connector-curvature="0" />
	<path style="fill:none;stroke:red;stroke-width:1px;stroke-linecap:butt;stroke-linejoin:miter;stroke-opacity:1" d="M 528.107,457.013 511.573,450.4 z" id="boundary" inkscape:connector-curvature="0" />
	<path style="fill:none;stroke:red;stroke-width:1px;stroke-linecap:butt;stroke-linejoin:miter;stroke-opacity:1" d="M 542.987,465.28 528.107,457.013 z" id="boundary" inkscape:connector-curvature="0" />
	<path style="fill:none;stroke:red;stroke-width:1px;stroke-linecap:butt;stroke-linejoin:miter;stroke-opacity:1" d="M 559.52,471.893 542.987,465.28 z" id="boundary" inkscape:connector-curvature="0" />
	<path style="fill:none;stroke:red;stroke-width:1px;stroke-linecap:butt;stroke-linejoin:miter;stroke-opacity:1" d="M 607.467,485.12 590.933,485.12 z" id="boundary" inkscape:connector-curvature="0" />
	<path style="fill:none;stroke:red;stroke-width:1px;stroke-linecap:butt;stroke-linejoin:miter;stroke-opacity:1" d="M 590.933,485.12 576.053,476.853 z" id="boundary" inkscape:connector-curvature="0" />
	<path style="fill:none;stroke:red;stroke-width:1px;stroke-linecap:butt;stroke-linejoin:miter;stroke-opacity:1" d="M 576.053,476.853 559.52,471.893 z" id="boundary" inkscape:connector-curvature="0" />
	<path style="fill:none;stroke:red;stroke-width:1px;stroke-linecap:butt;stroke-linejoin:miter;stroke-opacity:1" d="M 607.467,485.12 622.347,493.387 z" id="boundary" inkscape:connector-curvature="0" />
	<path style="fill:none;stroke:red;stroke-width:1px;stroke-linecap:butt;stroke-linejoin:miter;stroke-opacity:1" d="M 622.347,493.387 638.88,493.387 z" id="boundary" inkscape:connector-curvature="0" />
	<path style="fill:none;stroke:red;stroke-width:1px;stroke-linecap:butt;stroke-linejoin:miter;stroke-opacity:1" d="M 638.88,493.387 655.413,493.387 z" id="boundary" inkscape:connector-curvature="0" />
	<path style="fill:none;stroke:red;stroke-width:1px;stroke-linecap:butt;stroke-linejoin:miter;stroke-opacity:1" d="M 681.867,389.227 698.4,380.96 z" id="boundary" inkscape:connector-curvature="0" />
	<path style="fill:none;stroke:red;stroke-width:1px;stroke-linecap:butt;stroke-linejoin:miter;stroke-opacity:1" d="M 681.867,389.227 665.333,392.533 z" id="boundary" inkscape:connector-curvature="0" />
	<path style="fill:none;stroke:red;stroke-width:1px;stroke-linecap:butt;stroke-linejoin:miter;stroke-opacity:1" d="M 914.987,435.52 898.453,435.52 z" id="boundary" inkscape:connector-curvature="0" />
	<path style="fill:none;stroke:red;stroke-width:1px;stroke-linecap:butt;stroke-linejoin:miter;stroke-opacity:1" d="M 865.387,443.787 848.853,443.787 z" id="boundary" inkscape:connector-curvature="0" />
	<path style="fill:none;stroke:red;stroke-width:1px;stroke-linecap:butt;stroke-linejoin:miter;stroke-opacity:1" d="M 881.92,443.787 865.387,443.787 z" id="boundary" inkscape:connector-curvature="0" />
	<path style="fill:none;stroke:red;stroke-width:1px;stroke-linecap:butt;stroke-linejoin:miter;stroke-opacity:1" d="M 898.453,435.52 881.92,443.787 z" id="boundary" inkscape:connector-curvature="0" />
	<path style="fill:none;stroke:red;stroke-width:1px;stroke-linecap:butt;stroke-linejoin:miter;stroke-opacity:1" d="M 832.32,452.053 848.853,443.787 z" id="boundary" inkscape:connector-curvature="0" />
	<path style="fill:none;stroke:red;stroke-width:1px;stroke-linecap:butt;stroke-linejoin:miter;stroke-opacity:1" d="M 832.32,452.053 817.44,460.32 z" id="boundary" inkscape:connector-curvature="0" />
	<path style="fill:none;stroke:red;stroke-width:1px;stroke-linecap:butt;stroke-linejoin:miter;stroke-opacity:1" d="M 951.36,385.92 959.627,400.8 z" id="boundary" inkscape:connector-curvature="0" />
	<path style="fill:none;stroke:red;stroke-width:1px;stroke-linecap:butt;stroke-linejoin:miter;stroke-opacity:1" d="M 964.587,417.333 959.627,400.8 z" id="boundary" inkscape:connector-curvature="0" />
	<path style="fill:none;stroke:red;stroke-width:1px;stroke-linecap:butt;stroke-linejoin:miter;stroke-opacity:1" d="M 996,430.56 964.587,417.333 z" id="boundary" inkscape:connector-curvature="0" />
	<path style="fill:none;stroke:red;stroke-width:1px;stroke-linecap:butt;stroke-linejoin:miter;stroke-opacity:1" d="M 964.587,417.333 948.053,435.52 z" id="boundary" inkscape:connector-curvature="0" />
	<path style="fill:none;stroke:red;stroke-width:1px;stroke-linecap:butt;stroke-linejoin:miter;stroke-opacity:1" d="M 948.053,435.52 931.52,435.52 z" id="boundary" inkscape:connector-curvature="0" />
	<path style="fill:none;stroke:red;stroke-width:1px;stroke-linecap:butt;stroke-linejoin:miter;stroke-opacity:1" d="M 914.987,435.52 931.52,435.52 z" id="boundary" inkscape:connector-curvature="0" />
	<path style="fill:none;stroke:red;stroke-width:1px;stroke-linecap:butt;stroke-linejoin:miter;stroke-opacity:1" d="M 951.36,385.92 939.787,372.693 z" id="boundary" inkscape:connector-curvature="0" />
	<path style="fill:none;stroke:red;stroke-width:1px;stroke-linecap:butt;stroke-linejoin:miter;stroke-opacity:1" d="M 705.013,493.387 688.48,493.387 z" id="boundary" inkscape:connector-curvature="0" />
	<path style="fill:none;stroke:red;stroke-width:1px;stroke-linecap:butt;stroke-linejoin:miter;stroke-opacity:1" d="M 688.48,493.387 671.947,493.387 z" id="boundary" inkscape:connector-curvature="0" />
	<path style="fill:none;stroke:red;stroke-width:1px;stroke-linecap:butt;stroke-linejoin:miter;stroke-opacity:1" d="M 738.08,490.08 754.613,485.12 z" id="boundary" inkscape:connector-curvature="0" />
	<path style="fill:none;stroke:red;stroke-width:1px;stroke-linecap:butt;stroke-linejoin:miter;stroke-opacity:1" d="M 738.08,490.08 721.547,493.387 z" id="boundary" inkscape:connector-curvature="0" />
	<path style="fill:none;stroke:red;stroke-width:1px;stroke-linecap:butt;stroke-linejoin:miter;stroke-opacity:1" d="M 721.547,493.387 705.013,493.387 z" id="boundary" inkscape:connector-curvature="0" />
	<path style="fill:none;stroke:red;stroke-width:1px;stroke-linecap:butt;stroke-linejoin:miter;stroke-opacity:1" d="M 802.56,468.587 786.027,475.2 z" id="boundary" inkscape:connector-curvature="0" />
	<path style="fill:none;stroke:red;stroke-width:1px;stroke-linecap:butt;stroke-linejoin:miter;stroke-opacity:1" d="M 802.56,468.587 817.44,460.32 z" id="boundary" inkscape:connector-curvature="0" />
	<path style="fill:none;stroke:red;stroke-width:1px;stroke-linecap:butt;stroke-linejoin:miter;stroke-opacity:1" d="M 786.027,475.2 769.493,476.853 z" id="boundary" inkscape:connector-curvature="0" />
	<path style="fill:none;stroke:red;stroke-width:1px;stroke-linecap:butt;stroke-linejoin:miter;stroke-opacity:1" d="M 769.493,476.853 754.613,485.12 z" id="boundary" inkscape:connector-curvature="0" />
	<circle cx="4" cy="579.36" r="4" fill="#0" id="circle0"/>
	<circle cx="17.2267" cy="566.133" r="4" fill="#0" id="circle1"/>
	<circle cx="17.2267" cy="590.933" r="4" fill="#0" id="circle2"/>
	<circle cx="28.8" cy="604.16" r="4" fill="#0" id="circle3"/>
	<circle cx="32.1067" cy="557.867" r="4" fill="#0" id="circle4"/>
	<circle cx="37.0667" cy="619.04" r="4" fill="#0" id="circle5"/>
	<circle cx="48.64" cy="557.867" r="4" fill="#0" id="circle6"/>
	<circle cx="48.64" cy="632.267" r="4" fill="#0" id="circle7"/>
	<circle cx="61.8667" cy="642.187" r="4" fill="#0" id="circle8"/>
	<circle cx="65.1733" cy="557.867" r="4" fill="#0" id="circle9"/>
	<circle cx="66.8267" cy="658.72" r="4" fill="#0" id="circle10"/>
	<circle cx="70.1333" cy="66.8267" r="4" fill="#0" id="circle11"/>
	<circle cx="70.1333" cy="83.36" r="4" fill="#0" id="circle12"/>
	<circle cx="70.1333" cy="99.8933" r="4" fill="#0" id="circle13"/>
	<circle cx="78.4" cy="42.0267" r="4" fill="#0" id="circle14"/>
	<circle cx="81.7067" cy="557.867" r="4" fill="#0" id="circle15"/>
	<circle cx="83.36" cy="111.467" r="4" fill="#0" id="circle16"/>
	<circle cx="83.36" cy="665.333" r="4" fill="#0" id="circle17"/>
	<circle cx="86.6667" cy="25.4933" r="4" fill="#0" id="circle18"/>
	<circle cx="96.5867" cy="121.387" r="4" fill="#0" id="circle19"/>
	<circle cx="98.24" cy="557.867" r="4" fill="#0" id="circle20"/>
	<circle cx="99.8933" cy="12.2667" r="4" fill="#0" id="circle21"/>
	<circle cx="99.8933" cy="657.067" r="4" fill="#0" id="circle22"/>
	<circle cx="111.467" cy="538.027" r="4" fill="#0" id="circle23"/>
	<circle cx="113.12" cy="121.387" r="4" fill="#0" id="circle24"/>
	<circle cx="113.12" cy="633.92" r="4" fill="#0" id="circle25"/>
	<circle cx="116.427" cy="4" r="4" fill="#0" id="circle26"/>
	<circle cx="119.733" cy="521.493" r="4" fill="#0" id="circle27"/>
	<circle cx="121.387" cy="617.387" r="4" fill="#0" id="circle28"/>
	<circle cx="129.653" cy="124.693" r="4" fill="#0" id="circle29"/>
	<circle cx="129.653" cy="592.587" r="4" fill="#0" id="circle30"/>
	<circle cx="132.96" cy="4" r="4" fill="#0" id="circle31"/>
	<circle cx="132.96" cy="508.267" r="4" fill="#0" id="circle32"/>
	<circle cx="137.92" cy="576.053" r="4" fill="#0" id="circle33"/>
	<circle cx="144.533" cy="488.427" r="4" fill="#0" id="circle34"/>
	<circle cx="146.187" cy="129.653" r="4" fill="#0" id="circle35"/>
	<circle cx="146.187" cy="551.253" r="4" fill="#0" id="circle36"/>
	<circle cx="149.493" cy="4" r="4" fill="#0" id="circle37"/>
	<circle cx="152.8" cy="471.893" r="4" fill="#0" id="circle38"/>
	<circle cx="159.413" cy="539.68" r="4" fill="#0" id="circle39"/>
	<circle cx="162.72" cy="132.96" r="4" fill="#0" id="circle40"/>
	<circle cx="166.027" cy="4" r="4" fill="#0" id="circle41"/>
	<circle cx="166.027" cy="458.667" r="4" fill="#0" id="circle42"/>
	<circle cx="169.333" cy="149.493" r="4" fill="#0" id="circle43"/>
	<circle cx="169.333" cy="166.027" r="4" fill="#0" id="circle44"/>
	<circle cx="169.333" cy="182.56" r="4" fill="#0" id="circle45"/>
	<circle cx="169.333" cy="438.827" r="4" fill="#0" id="circle46"/>
	<circle cx="170.987" cy="526.453" r="4" fill="#0" id="circle47"/>
	<circle cx="177.6" cy="414.027" r="4" fill="#0" id="circle48"/>
	<circle cx="182.56" cy="4" r="4" fill="#0" id="circle49"/>
	<circle cx="182.56" cy="194.133" r="4" fill="#0" id="circle50"/>
	<circle cx="184.213" cy="514.88" r="4" fill="#0" id="circle51"/>
	<circle cx="185.867" cy="397.493" r="4" fill="#0" id="circle52"/>
	<circle cx="194.133" cy="380.96" r="4" fill="#0" id="circle53"/>
	<circle cx="195.787" cy="204.053" r="4" fill="#0" id="circle54"/>
	<circle cx="195.787" cy="501.653" r="4" fill="#0" id="circle55"/>
	<circle cx="197.44" cy="12.2667" r="4" fill="#0" id="circle56"/>
	<circle cx="204.053" cy="28.8" r="4" fill="#0" id="circle57"/>
	<circle cx="204.053" cy="485.12" r="4" fill="#0" id="circle58"/>
	<circle cx="207.36" cy="367.733" r="4" fill="#0" id="circle59"/>
	<circle cx="210.667" cy="212.32" r="4" fill="#0" id="circle60"/>
	<circle cx="212.32" cy="43.68" r="4" fill="#0" id="circle61"/>
	<circle cx="217.28" cy="473.547" r="4" fill="#0" id="circle62"/>
	<circle cx="220.587" cy="354.507" r="4" fill="#0" id="circle63"/>
	<circle cx="225.547" cy="53.6" r="4" fill="#0" id="circle64"/>
	<circle cx="225.547" cy="220.587" r="4" fill="#0" id="circle65"/>
	<circle cx="225.547" cy="457.013" r="4" fill="#0" id="circle66"/>
	<circle cx="228.853" cy="427.253" r="4" fill="#0" id="circle67"/>
	<circle cx="237.12" cy="346.24" r="4" fill="#0" id="circle68"/>
	<circle cx="237.12" cy="410.72" r="4" fill="#0" id="circle69"/>
	<circle cx="240.427" cy="45.3333" r="4" fill="#0" id="circle70"/>
	<circle cx="242.08" cy="220.587" r="4" fill="#0" id="circle71"/>
	<circle cx="245.387" cy="329.707" r="4" fill="#0" id="circle72"/>
	<circle cx="252" cy="402.453" r="4" fill="#0" id="circle73"/>
	<circle cx="256.96" cy="45.3333" r="4" fill="#0" id="circle74"/>
	<circle cx="258.613" cy="220.587" r="4" fill="#0" id="circle75"/>
	<circle cx="261.92" cy="321.44" r="4" fill="#0" id="circle76"/>
	<circle cx="268.533" cy="402.453" r="4" fill="#0" id="circle77"/>
	<circle cx="273.493" cy="45.3333" r="4" fill="#0" id="circle78"/>
	<circle cx="273.493" cy="228.853" r="4" fill="#0" id="circle79"/>
	<circle cx="275.147" cy="309.867" r="4" fill="#0" id="circle80"/>
	<circle cx="285.067" cy="397.493" r="4" fill="#0" id="circle81"/>
	<circle cx="290.027" cy="45.3333" r="4" fill="#0" id="circle82"/>
	<circle cx="290.027" cy="228.853" r="4" fill="#0" id="circle83"/>
	<circle cx="290.027" cy="301.6" r="4" fill="#0" id="circle84"/>
	<circle cx="301.6" cy="242.08" r="4" fill="#0" id="circle85"/>
	<circle cx="301.6" cy="394.187" r="4" fill="#0" id="circle86"/>
	<circle cx="306.56" cy="45.3333" r="4" fill="#0" id="circle87"/>
	<circle cx="306.56" cy="293.333" r="4" fill="#0" id="circle88"/>
	<circle cx="309.867" cy="256.96" r="4" fill="#0" id="circle89"/>
	<circle cx="318.133" cy="394.187" r="4" fill="#0" id="circle90"/>
	<circle cx="323.093" cy="45.3333" r="4" fill="#0" id="circle91"/>
	<circle cx="323.093" cy="268.533" r="4" fill="#0" id="circle92"/>
	<circle cx="323.093" cy="293.333" r="4" fill="#0" id="circle93"/>
	<circle cx="333.013" cy="385.92" r="4" fill="#0" id="circle94"/>
	<circle cx="337.973" cy="53.6" r="4" fill="#0" id="circle95"/>
	<circle cx="349.547" cy="382.613" r="4" fill="#0" id="circle96"/>
	<circle cx="351.2" cy="65.1733" r="4" fill="#0" id="circle97"/>
	<circle cx="361.12" cy="78.4" r="4" fill="#0" id="circle98"/>
	<circle cx="366.08" cy="377.653" r="4" fill="#0" id="circle99"/>
	<circle cx="374.347" cy="88.32" r="4" fill="#0" id="circle100"/>
	<circle cx="382.613" cy="377.653" r="4" fill="#0" id="circle101"/>
	<circle cx="385.92" cy="101.547" r="4" fill="#0" id="circle102"/>
	<circle cx="397.493" cy="369.387" r="4" fill="#0" id="circle103"/>
	<circle cx="399.147" cy="113.12" r="4" fill="#0" id="circle104"/>
	<circle cx="405.76" cy="129.653" r="4" fill="#0" id="circle105"/>
	<circle cx="412.373" cy="361.12" r="4" fill="#0" id="circle106"/>
	<circle cx="418.987" cy="141.227" r="4" fill="#0" id="circle107"/>
	<circle cx="427.253" cy="352.853" r="4" fill="#0" id="circle108"/>
	<circle cx="430.56" cy="154.453" r="4" fill="#0" id="circle109"/>
	<circle cx="443.787" cy="166.027" r="4" fill="#0" id="circle110"/>
	<circle cx="443.787" cy="352.853" r="4" fill="#0" id="circle111"/>
	<circle cx="450.4" cy="182.56" r="4" fill="#0" id="circle112"/>
	<circle cx="453.707" cy="366.08" r="4" fill="#0" id="circle113"/>
	<circle cx="466.933" cy="189.173" r="4" fill="#0" id="circle114"/>
	<circle cx="466.933" cy="377.653" r="4" fill="#0" id="circle115"/>
	<circle cx="471.893" cy="394.187" r="4" fill="#0" id="circle116"/>
	<circle cx="476.853" cy="202.4" r="4" fill="#0" id="circle117"/>
	<circle cx="485.12" cy="405.76" r="4" fill="#0" id="circle118"/>
	<circle cx="493.387" cy="207.36" r="4" fill="#0" id="circle119"/>
	<circle cx="496.693" cy="418.987" r="4" fill="#0" id="circle120"/>
	<circle cx="504.96" cy="220.587" r="4" fill="#0" id="circle121"/>
	<circle cx="504.96" cy="433.867" r="4" fill="#0" id="circle122"/>
	<circle cx="511.573" cy="450.4" r="4" fill="#0" id="circle123"/>
	<circle cx="513.227" cy="235.467" r="4" fill="#0" id="circle124"/>
	<circle cx="524.8" cy="248.693" r="4" fill="#0" id="circle125"/>
	<circle cx="528.107" cy="457.013" r="4" fill="#0" id="circle126"/>
	<circle cx="533.067" cy="263.573" r="4" fill="#0" id="circle127"/>
	<circle cx="534.72" cy="280.107" r="4" fill="#0" id="circle128"/>
	<circle cx="534.72" cy="296.64" r="4" fill="#0" id="circle129"/>
	<circle cx="542.987" cy="465.28" r="4" fill="#0" id="circle130"/>
	<circle cx="544.64" cy="309.867" r="4" fill="#0" id="circle131"/>
	<circle cx="557.867" cy="321.44" r="4" fill="#0" id="circle132"/>
	<circle cx="559.52" cy="471.893" r="4" fill="#0" id="circle133"/>
	<circle cx="567.787" cy="334.667" r="4" fill="#0" id="circle134"/>
	<circle cx="576.053" cy="349.547" r="4" fill="#0" id="circle135"/>
	<circle cx="576.053" cy="476.853" r="4" fill="#0" id="circle136"/>
	<circle cx="584.32" cy="364.427" r="4" fill="#0" id="circle137"/>
	<circle cx="590.933" cy="485.12" r="4" fill="#0" id="circle138"/>
	<circle cx="592.587" cy="379.307" r="4" fill="#0" id="circle139"/>
	<circle cx="602.507" cy="392.533" r="4" fill="#0" id="circle140"/>
	<circle cx="607.467" cy="485.12" r="4" fill="#0" id="circle141"/>
	<circle cx="617.387" cy="400.8" r="4" fill="#0" id="circle142"/>
	<circle cx="622.347" cy="493.387" r="4" fill="#0" id="circle143"/>
	<circle cx="633.92" cy="400.8" r="4" fill="#0" id="circle144"/>
	<circle cx="638.88" cy="493.387" r="4" fill="#0" id="circle145"/>
	<circle cx="650.453" cy="400.8" r="4" fill="#0" id="circle146"/>
	<circle cx="655.413" cy="493.387" r="4" fill="#0" id="circle147"/>
	<circle cx="665.333" cy="392.533" r="4" fill="#0" id="circle148"/>
	<circle cx="671.947" cy="493.387" r="4" fill="#0" id="circle149"/>
	<circle cx="681.867" cy="389.227" r="4" fill="#0" id="circle150"/>
	<circle cx="688.48" cy="493.387" r="4" fill="#0" id="circle151"/>
	<circle cx="698.4" cy="380.96" r="4" fill="#0" id="circle152"/>
	<circle cx="705.013" cy="493.387" r="4" fill="#0" id="circle153"/>
	<circle cx="714.933" cy="376" r="4" fill="#0" id="circle154"/>
	<circle cx="721.547" cy="493.387" r="4" fill="#0" id="circle155"/>
	<circle cx="729.813" cy="367.733" r="4" fill="#0" id="circle156"/>
	<circle cx="738.08" cy="490.08" r="4" fill="#0" id="circle157"/>
	<circle cx="746.347" cy="367.733" r="4" fill="#0" id="circle158"/>
	<circle cx="754.613" cy="485.12" r="4" fill="#0" id="circle159"/>
	<circle cx="762.88" cy="367.733" r="4" fill="#0" id="circle160"/>
	<circle cx="769.493" cy="476.853" r="4" fill="#0" id="circle161"/>
	<circle cx="779.413" cy="367.733" r="4" fill="#0" id="circle162"/>
	<circle cx="786.027" cy="475.2" r="4" fill="#0" id="circle163"/>
	<circle cx="794.293" cy="359.467" r="4" fill="#0" id="circle164"/>
	<circle cx="802.56" cy="468.587" r="4" fill="#0" id="circle165"/>
	<circle cx="807.52" cy="346.24" r="4" fill="#0" id="circle166"/>
	<circle cx="817.44" cy="460.32" r="4" fill="#0" id="circle167"/>
	<circle cx="820.747" cy="334.667" r="4" fill="#0" id="circle168"/>
	<circle cx="832.32" cy="452.053" r="4" fill="#0" id="circle169"/>
	<circle cx="835.627" cy="326.4" r="4" fill="#0" id="circle170"/>
	<circle cx="848.853" cy="443.787" r="4" fill="#0" id="circle171"/>
	<circle cx="852.16" cy="326.4" r="4" fill="#0" id="circle172"/>
	<circle cx="865.387" cy="443.787" r="4" fill="#0" id="circle173"/>
	<circle cx="868.693" cy="326.4" r="4" fill="#0" id="circle174"/>
	<circle cx="881.92" cy="443.787" r="4" fill="#0" id="circle175"/>
	<circle cx="883.573" cy="334.667" r="4" fill="#0" id="circle176"/>
	<circle cx="898.453" cy="342.933" r="4" fill="#0" id="circle177"/>
	<circle cx="898.453" cy="435.52" r="4" fill="#0" id="circle178"/>
	<circle cx="911.68" cy="352.853" r="4" fill="#0" id="circle179"/>
	<circle cx="914.987" cy="435.52" r="4" fill="#0" id="circle180"/>
	<circle cx="923.253" cy="366.08" r="4" fill="#0" id="circle181"/>
	<circle cx="931.52" cy="435.52" r="4" fill="#0" id="circle182"/>
	<circle cx="939.787" cy="372.693" r="4" fill="#0" id="circle183"/>
	<circle cx="948.053" cy="435.52" r="4" fill="#0" id="circle184"/>
	<circle cx="951.36" cy="385.92" r="4" fill="#0" id="circle185"/>
	<circle cx="959.627" cy="400.8" r="4" fill="#0" id="circle186"/>
	<circle cx="964.587" cy="417.333" r="4" fill="#0" id="circle187"/>
	<circle cx="996" cy="430.56" r="4" fill="#0" id="circle188"/>
	</g>
</svg>