<?xml version="1.0" encoding="UTF-8" standalone="no"?>
<!-- Created with CurveBenchmark -->
<svg
	xmlns:dc="http://purl.org/dc/elements/1.1/"
	xmlns:cc="http://creativecommons.org/ns#"
	xmlns:rdf="http://www.w3.org/1999/02/22-rdf-syntax-ns#"
	xmlns:svg="http://www.w3.org/2000/svg"
	xmlns="http://www.w3.org/2000/svg"
	xmlns:sodipodi="http://sodipodi.sourceforge.net/DTD/sodipodi-0.dtd"
	xmlns:inkscape="http://www.inkscape.org/namespaces/inkscape"
	width="1000"
	height="1000"
	id="svg2"
	version="1.1"
	sodipodi:docname="manifold/nncrust-bed100.png.txt">
<defs
	id="defs4" />
<metadata
	id="metadata7">
	<rdf:RDF>
		<cc:Work
			rdf:about="">
			<dc:format>image/svg+xml</dc:format>
			<dc:type
				rdf:resource="http://purl.org/dc/dcmitype/StillImage" />
			<dc:title></dc:title>
		</cc:Work>
	</rdf:RDF>
</metadata>
<g
	inkscape:label="Layer 1"
	inkscape:groupmode="layer"
	id="layer1">
	<path style="fill:none;stroke:red;stroke-width:1px;stroke-linecap:butt;stroke-linejoin:miter;stroke-opacity:1" d="M 61.8215,54.5938 70.8561,38.3315 z" id="boundary" inkscape:connector-curvature="0" />
	<path style="fill:none;stroke:red;stroke-width:1px;stroke-linecap:butt;stroke-linejoin:miter;stroke-opacity:1" d="M 74.4699,20.2623 70.8561,38.3315 z" id="boundary" inkscape:connector-curvature="0" />
	<path style="fill:none;stroke:red;stroke-width:1px;stroke-linecap:butt;stroke-linejoin:miter;stroke-opacity:1" d="M 22.0692,101.574 32.9107,87.1184 z" id="boundary" inkscape:connector-curvature="0" />
	<path style="fill:none;stroke:red;stroke-width:1px;stroke-linecap:butt;stroke-linejoin:miter;stroke-opacity:1" d="M 61.8215,54.5938 47.3661,72.663 z" id="boundary" inkscape:connector-curvature="0" />
	<path style="fill:none;stroke:red;stroke-width:1px;stroke-linecap:butt;stroke-linejoin:miter;stroke-opacity:1" d="M 32.9107,87.1184 47.3661,72.663 z" id="boundary" inkscape:connector-curvature="0" />
	<path style="fill:none;stroke:red;stroke-width:1px;stroke-linecap:butt;stroke-linejoin:miter;stroke-opacity:1" d="M 74.4699,20.2623 83.5046,4 z" id="boundary" inkscape:connector-curvature="0" />
	<path style="fill:none;stroke:red;stroke-width:1px;stroke-linecap:butt;stroke-linejoin:miter;stroke-opacity:1" d="M 92.5392,20.2623 74.4699,20.2623 z" id="boundary" inkscape:connector-curvature="0" />
	<path style="fill:none;stroke:red;stroke-width:1px;stroke-linecap:butt;stroke-linejoin:miter;stroke-opacity:1" d="M 96.153,38.3315 99.7668,69.0492 z" id="boundary" inkscape:connector-curvature="0" />
	<path style="fill:none;stroke:red;stroke-width:1px;stroke-linecap:butt;stroke-linejoin:miter;stroke-opacity:1" d="M 96.153,38.3315 92.5392,20.2623 z" id="boundary" inkscape:connector-curvature="0" />
	<path style="fill:none;stroke:red;stroke-width:1px;stroke-linecap:butt;stroke-linejoin:miter;stroke-opacity:1" d="M 112.415,83.5046 99.7668,69.0492 z" id="boundary" inkscape:connector-curvature="0" />
	<path style="fill:none;stroke:red;stroke-width:1px;stroke-linecap:butt;stroke-linejoin:miter;stroke-opacity:1" d="M 14.8415,119.643 22.0692,101.574 z" id="boundary" inkscape:connector-curvature="0" />
	<path style="fill:none;stroke:red;stroke-width:1px;stroke-linecap:butt;stroke-linejoin:miter;stroke-opacity:1" d="M 7.61384,137.712 7.61384,155.781 z" id="boundary" inkscape:connector-curvature="0" />
	<path style="fill:none;stroke:red;stroke-width:1px;stroke-linecap:butt;stroke-linejoin:miter;stroke-opacity:1" d="M 7.61384,137.712 14.8415,119.643 z" id="boundary" inkscape:connector-curvature="0" />
	<path style="fill:none;stroke:red;stroke-width:1px;stroke-linecap:butt;stroke-linejoin:miter;stroke-opacity:1" d="M 7.61384,173.851 7.61384,191.92 z" id="boundary" inkscape:connector-curvature="0" />
	<path style="fill:none;stroke:red;stroke-width:1px;stroke-linecap:butt;stroke-linejoin:miter;stroke-opacity:1" d="M 11.2277,228.058 7.61384,209.989 z" id="boundary" inkscape:connector-curvature="0" />
	<path style="fill:none;stroke:red;stroke-width:1px;stroke-linecap:butt;stroke-linejoin:miter;stroke-opacity:1" d="M 7.61384,191.92 7.61384,209.989 z" id="boundary" inkscape:connector-curvature="0" />
	<path style="fill:none;stroke:red;stroke-width:1px;stroke-linecap:butt;stroke-linejoin:miter;stroke-opacity:1" d="M 7.61384,155.781 7.61384,173.851 z" id="boundary" inkscape:connector-curvature="0" />
	<path style="fill:none;stroke:red;stroke-width:1px;stroke-linecap:butt;stroke-linejoin:miter;stroke-opacity:1" d="M 11.2277,228.058 11.2277,246.128 z" id="boundary" inkscape:connector-curvature="0" />
	<path style="fill:none;stroke:red;stroke-width:1px;stroke-linecap:butt;stroke-linejoin:miter;stroke-opacity:1" d="M 7.61384,307.563 7.61384,289.494 z" id="boundary" inkscape:connector-curvature="0" />
	<path style="fill:none;stroke:red;stroke-width:1px;stroke-linecap:butt;stroke-linejoin:miter;stroke-opacity:1" d="M 11.2277,264.197 7.61384,289.494 z" id="boundary" inkscape:connector-curvature="0" />
	<path style="fill:none;stroke:red;stroke-width:1px;stroke-linecap:butt;stroke-linejoin:miter;stroke-opacity:1" d="M 11.2277,246.128 11.2277,264.197 z" id="boundary" inkscape:connector-curvature="0" />
	<path style="fill:none;stroke:red;stroke-width:1px;stroke-linecap:butt;stroke-linejoin:miter;stroke-opacity:1" d="M 121.45,99.7668 112.415,83.5046 z" id="boundary" inkscape:connector-curvature="0" />
	<path style="fill:none;stroke:red;stroke-width:1px;stroke-linecap:butt;stroke-linejoin:miter;stroke-opacity:1" d="M 132.291,114.222 121.45,99.7668 z" id="boundary" inkscape:connector-curvature="0" />
	<path style="fill:none;stroke:red;stroke-width:1px;stroke-linecap:butt;stroke-linejoin:miter;stroke-opacity:1" d="M 132.291,114.222 135.905,132.291 z" id="boundary" inkscape:connector-curvature="0" />
	<path style="fill:none;stroke:red;stroke-width:1px;stroke-linecap:butt;stroke-linejoin:miter;stroke-opacity:1" d="M 132.291,191.92 132.291,173.851 z" id="boundary" inkscape:connector-curvature="0" />
	<path style="fill:none;stroke:red;stroke-width:1px;stroke-linecap:butt;stroke-linejoin:miter;stroke-opacity:1" d="M 144.94,206.375 132.291,191.92 z" id="boundary" inkscape:connector-curvature="0" />
	<path style="fill:none;stroke:red;stroke-width:1px;stroke-linecap:butt;stroke-linejoin:miter;stroke-opacity:1" d="M 132.291,173.851 139.519,150.361 z" id="boundary" inkscape:connector-curvature="0" />
	<path style="fill:none;stroke:red;stroke-width:1px;stroke-linecap:butt;stroke-linejoin:miter;stroke-opacity:1" d="M 163.009,213.603 144.94,206.375 z" id="boundary" inkscape:connector-curvature="0" />
	<path style="fill:none;stroke:red;stroke-width:1px;stroke-linecap:butt;stroke-linejoin:miter;stroke-opacity:1" d="M 135.905,132.291 139.519,150.361 z" id="boundary" inkscape:connector-curvature="0" />
	<path style="fill:none;stroke:red;stroke-width:1px;stroke-linecap:butt;stroke-linejoin:miter;stroke-opacity:1" d="M 163.009,213.603 181.078,213.603 z" id="boundary" inkscape:connector-curvature="0" />
	<path style="fill:none;stroke:red;stroke-width:1px;stroke-linecap:butt;stroke-linejoin:miter;stroke-opacity:1" d="M 181.078,213.603 199.148,220.831 z" id="boundary" inkscape:connector-curvature="0" />
	<path style="fill:none;stroke:red;stroke-width:1px;stroke-linecap:butt;stroke-linejoin:miter;stroke-opacity:1" d="M 199.148,220.831 213.603,231.672 z" id="boundary" inkscape:connector-curvature="0" />
	<path style="fill:none;stroke:red;stroke-width:1px;stroke-linecap:butt;stroke-linejoin:miter;stroke-opacity:1" d="M 231.672,226.251 249.741,228.058 z" id="boundary" inkscape:connector-curvature="0" />
	<path style="fill:none;stroke:red;stroke-width:1px;stroke-linecap:butt;stroke-linejoin:miter;stroke-opacity:1" d="M 213.603,231.672 231.672,226.251 z" id="boundary" inkscape:connector-curvature="0" />
	<path style="fill:none;stroke:red;stroke-width:1px;stroke-linecap:butt;stroke-linejoin:miter;stroke-opacity:1" d="M 249.741,228.058 267.811,231.672 z" id="boundary" inkscape:connector-curvature="0" />
	<path style="fill:none;stroke:red;stroke-width:1px;stroke-linecap:butt;stroke-linejoin:miter;stroke-opacity:1" d="M 285.88,235.286 267.811,231.672 z" id="boundary" inkscape:connector-curvature="0" />
	<path style="fill:none;stroke:red;stroke-width:1px;stroke-linecap:butt;stroke-linejoin:miter;stroke-opacity:1" d="M 320.211,247.934 303.949,238.9 z" id="boundary" inkscape:connector-curvature="0" />
	<path style="fill:none;stroke:red;stroke-width:1px;stroke-linecap:butt;stroke-linejoin:miter;stroke-opacity:1" d="M 320.211,247.934 336.474,256.969 z" id="boundary" inkscape:connector-curvature="0" />
	<path style="fill:none;stroke:red;stroke-width:1px;stroke-linecap:butt;stroke-linejoin:miter;stroke-opacity:1" d="M 367.191,278.652 378.033,293.107 z" id="boundary" inkscape:connector-curvature="0" />
	<path style="fill:none;stroke:red;stroke-width:1px;stroke-linecap:butt;stroke-linejoin:miter;stroke-opacity:1" d="M 367.191,278.652 352.736,266.004 z" id="boundary" inkscape:connector-curvature="0" />
	<path style="fill:none;stroke:red;stroke-width:1px;stroke-linecap:butt;stroke-linejoin:miter;stroke-opacity:1" d="M 336.474,256.969 352.736,266.004 z" id="boundary" inkscape:connector-curvature="0" />
	<path style="fill:none;stroke:red;stroke-width:1px;stroke-linecap:butt;stroke-linejoin:miter;stroke-opacity:1" d="M 285.88,235.286 303.949,238.9 z" id="boundary" inkscape:connector-curvature="0" />
	<path style="fill:none;stroke:red;stroke-width:1px;stroke-linecap:butt;stroke-linejoin:miter;stroke-opacity:1" d="M 7.61384,325.632 7.61384,307.563 z" id="boundary" inkscape:connector-curvature="0" />
	<path style="fill:none;stroke:red;stroke-width:1px;stroke-linecap:butt;stroke-linejoin:miter;stroke-opacity:1" d="M 83.5046,4 929.144,249.741 z" id="boundary" inkscape:connector-curvature="0" />
	<path style="fill:none;stroke:red;stroke-width:1px;stroke-linecap:butt;stroke-linejoin:miter;stroke-opacity:1" d="M 7.61384,325.632 7.61384,343.701 z" id="boundary" inkscape:connector-curvature="0" />
	<path style="fill:none;stroke:red;stroke-width:1px;stroke-linecap:butt;stroke-linejoin:miter;stroke-opacity:1" d="M 7.61384,379.84 7.61384,361.77 z" id="boundary" inkscape:connector-curvature="0" />
	<path style="fill:none;stroke:red;stroke-width:1px;stroke-linecap:butt;stroke-linejoin:miter;stroke-opacity:1" d="M 65.4353,486.448 47.3661,486.448 z" id="boundary" inkscape:connector-curvature="0" />
	<path style="fill:none;stroke:red;stroke-width:1px;stroke-linecap:butt;stroke-linejoin:miter;stroke-opacity:1" d="M 4,448.503 4,430.434 z" id="boundary" inkscape:connector-curvature="0" />
	<path style="fill:none;stroke:red;stroke-width:1px;stroke-linecap:butt;stroke-linejoin:miter;stroke-opacity:1" d="M 7.61384,343.701 7.61384,361.77 z" id="boundary" inkscape:connector-curvature="0" />
	<path style="fill:none;stroke:red;stroke-width:1px;stroke-linecap:butt;stroke-linejoin:miter;stroke-opacity:1" d="M 7.61384,379.84 4,412.364 z" id="boundary" inkscape:connector-curvature="0" />
	<path style="fill:none;stroke:red;stroke-width:1px;stroke-linecap:butt;stroke-linejoin:miter;stroke-opacity:1" d="M 7.61384,466.572 4,448.503 z" id="boundary" inkscape:connector-curvature="0" />
	<path style="fill:none;stroke:red;stroke-width:1px;stroke-linecap:butt;stroke-linejoin:miter;stroke-opacity:1" d="M 4,430.434 4,412.364 z" id="boundary" inkscape:connector-curvature="0" />
	<path style="fill:none;stroke:red;stroke-width:1px;stroke-linecap:butt;stroke-linejoin:miter;stroke-opacity:1" d="M 29.2969,486.448 7.61384,484.641 z" id="boundary" inkscape:connector-curvature="0" />
	<path style="fill:none;stroke:red;stroke-width:1px;stroke-linecap:butt;stroke-linejoin:miter;stroke-opacity:1" d="M 7.61384,484.641 7.61384,466.572 z" id="boundary" inkscape:connector-curvature="0" />
	<path style="fill:none;stroke:red;stroke-width:1px;stroke-linecap:butt;stroke-linejoin:miter;stroke-opacity:1" d="M 47.3661,486.448 29.2969,486.448 z" id="boundary" inkscape:connector-curvature="0" />
	<path style="fill:none;stroke:red;stroke-width:1px;stroke-linecap:butt;stroke-linejoin:miter;stroke-opacity:1" d="M 34.7177,506.324 29.2969,486.448 z" id="boundary" inkscape:connector-curvature="0" />
	<path style="fill:none;stroke:red;stroke-width:1px;stroke-linecap:butt;stroke-linejoin:miter;stroke-opacity:1" d="M 11.2277,502.71 7.61384,484.641 z" id="boundary" inkscape:connector-curvature="0" />
	<path style="fill:none;stroke:red;stroke-width:1px;stroke-linecap:butt;stroke-linejoin:miter;stroke-opacity:1" d="M 34.7177,506.324 18.4554,520.78 z" id="boundary" inkscape:connector-curvature="0" />
	<path style="fill:none;stroke:red;stroke-width:1px;stroke-linecap:butt;stroke-linejoin:miter;stroke-opacity:1" d="M 18.4554,520.78 11.2277,502.71 z" id="boundary" inkscape:connector-curvature="0" />
	<path style="fill:none;stroke:red;stroke-width:1px;stroke-linecap:butt;stroke-linejoin:miter;stroke-opacity:1" d="M 18.4554,520.78 18.4554,538.849 z" id="boundary" inkscape:connector-curvature="0" />
	<path style="fill:none;stroke:red;stroke-width:1px;stroke-linecap:butt;stroke-linejoin:miter;stroke-opacity:1" d="M 34.7177,529.814 18.4554,538.849 z" id="boundary" inkscape:connector-curvature="0" />
	<path style="fill:none;stroke:red;stroke-width:1px;stroke-linecap:butt;stroke-linejoin:miter;stroke-opacity:1" d="M 36.5246,556.918 18.4554,556.918 z" id="boundary" inkscape:connector-curvature="0" />
	<path style="fill:none;stroke:red;stroke-width:1px;stroke-linecap:butt;stroke-linejoin:miter;stroke-opacity:1" d="M 18.4554,556.918 18.4554,538.849 z" id="boundary" inkscape:connector-curvature="0" />
	<path style="fill:none;stroke:red;stroke-width:1px;stroke-linecap:butt;stroke-linejoin:miter;stroke-opacity:1" d="M 18.4554,556.918 11.2277,502.71 z" id="boundary" inkscape:connector-curvature="0" />
	<path style="fill:none;stroke:red;stroke-width:1px;stroke-linecap:butt;stroke-linejoin:miter;stroke-opacity:1" d="M 34.7177,506.324 34.7177,529.814 z" id="boundary" inkscape:connector-curvature="0" />
	<path style="fill:none;stroke:red;stroke-width:1px;stroke-linecap:butt;stroke-linejoin:miter;stroke-opacity:1" d="M 65.4353,486.448 83.5046,486.448 z" id="boundary" inkscape:connector-curvature="0" />
	<path style="fill:none;stroke:red;stroke-width:1px;stroke-linecap:butt;stroke-linejoin:miter;stroke-opacity:1" d="M 101.574,486.448 83.5046,486.448 z" id="boundary" inkscape:connector-curvature="0" />
	<path style="fill:none;stroke:red;stroke-width:1px;stroke-linecap:butt;stroke-linejoin:miter;stroke-opacity:1" d="M 101.574,486.448 116.029,497.29 z" id="boundary" inkscape:connector-curvature="0" />
	<path style="fill:none;stroke:red;stroke-width:1px;stroke-linecap:butt;stroke-linejoin:miter;stroke-opacity:1" d="M 119.643,542.463 36.5246,556.918 z" id="boundary" inkscape:connector-curvature="0" />
	<path style="fill:none;stroke:red;stroke-width:1px;stroke-linecap:butt;stroke-linejoin:miter;stroke-opacity:1" d="M 116.029,497.29 123.257,515.359 z" id="boundary" inkscape:connector-curvature="0" />
	<path style="fill:none;stroke:red;stroke-width:1px;stroke-linecap:butt;stroke-linejoin:miter;stroke-opacity:1" d="M 135.905,488.255 116.029,497.29 z" id="boundary" inkscape:connector-curvature="0" />
	<path style="fill:none;stroke:red;stroke-width:1px;stroke-linecap:butt;stroke-linejoin:miter;stroke-opacity:1" d="M 153.974,486.448 172.044,486.448 z" id="boundary" inkscape:connector-curvature="0" />
	<path style="fill:none;stroke:red;stroke-width:1px;stroke-linecap:butt;stroke-linejoin:miter;stroke-opacity:1" d="M 190.113,486.448 208.182,486.448 z" id="boundary" inkscape:connector-curvature="0" />
	<path style="fill:none;stroke:red;stroke-width:1px;stroke-linecap:butt;stroke-linejoin:miter;stroke-opacity:1" d="M 226.251,486.448 208.182,486.448 z" id="boundary" inkscape:connector-curvature="0" />
	<path style="fill:none;stroke:red;stroke-width:1px;stroke-linecap:butt;stroke-linejoin:miter;stroke-opacity:1" d="M 172.044,486.448 190.113,486.448 z" id="boundary" inkscape:connector-curvature="0" />
	<path style="fill:none;stroke:red;stroke-width:1px;stroke-linecap:butt;stroke-linejoin:miter;stroke-opacity:1" d="M 262.39,486.448 244.321,486.448 z" id="boundary" inkscape:connector-curvature="0" />
	<path style="fill:none;stroke:red;stroke-width:1px;stroke-linecap:butt;stroke-linejoin:miter;stroke-opacity:1" d="M 244.321,486.448 226.251,486.448 z" id="boundary" inkscape:connector-curvature="0" />
	<path style="fill:none;stroke:red;stroke-width:1px;stroke-linecap:butt;stroke-linejoin:miter;stroke-opacity:1" d="M 399.716,322.018 388.874,307.563 z" id="boundary" inkscape:connector-curvature="0" />
	<path style="fill:none;stroke:red;stroke-width:1px;stroke-linecap:butt;stroke-linejoin:miter;stroke-opacity:1" d="M 417.785,329.246 399.716,322.018 z" id="boundary" inkscape:connector-curvature="0" />
	<path style="fill:none;stroke:red;stroke-width:1px;stroke-linecap:butt;stroke-linejoin:miter;stroke-opacity:1" d="M 316.597,486.448 298.528,486.448 z" id="boundary" inkscape:connector-curvature="0" />
	<path style="fill:none;stroke:red;stroke-width:1px;stroke-linecap:butt;stroke-linejoin:miter;stroke-opacity:1" d="M 262.39,486.448 280.459,486.448 z" id="boundary" inkscape:connector-curvature="0" />
	<path style="fill:none;stroke:red;stroke-width:1px;stroke-linecap:butt;stroke-linejoin:miter;stroke-opacity:1" d="M 128.678,558.725 262.39,486.448 z" id="boundary" inkscape:connector-curvature="0" />
	<path style="fill:none;stroke:red;stroke-width:1px;stroke-linecap:butt;stroke-linejoin:miter;stroke-opacity:1" d="M 298.528,486.448 280.459,486.448 z" id="boundary" inkscape:connector-curvature="0" />
	<path style="fill:none;stroke:red;stroke-width:1px;stroke-linecap:butt;stroke-linejoin:miter;stroke-opacity:1" d="M 153.974,486.448 135.905,488.255 z" id="boundary" inkscape:connector-curvature="0" />
	<path style="fill:none;stroke:red;stroke-width:1px;stroke-linecap:butt;stroke-linejoin:miter;stroke-opacity:1" d="M 123.257,515.359 139.519,506.324 z" id="boundary" inkscape:connector-curvature="0" />
	<path style="fill:none;stroke:red;stroke-width:1px;stroke-linecap:butt;stroke-linejoin:miter;stroke-opacity:1" d="M 139.519,506.324 135.905,531.621 z" id="boundary" inkscape:connector-curvature="0" />
	<path style="fill:none;stroke:red;stroke-width:1px;stroke-linecap:butt;stroke-linejoin:miter;stroke-opacity:1" d="M 135.905,488.255 139.519,506.324 z" id="boundary" inkscape:connector-curvature="0" />
	<path style="fill:none;stroke:red;stroke-width:1px;stroke-linecap:butt;stroke-linejoin:miter;stroke-opacity:1" d="M 119.643,542.463 135.905,531.621 z" id="boundary" inkscape:connector-curvature="0" />
	<path style="fill:none;stroke:red;stroke-width:1px;stroke-linecap:butt;stroke-linejoin:miter;stroke-opacity:1" d="M 128.678,558.725 119.643,542.463 z" id="boundary" inkscape:connector-curvature="0" />
	<path style="fill:none;stroke:red;stroke-width:1px;stroke-linecap:butt;stroke-linejoin:miter;stroke-opacity:1" d="M 119.643,542.463 123.257,515.359 z" id="boundary" inkscape:connector-curvature="0" />
	<path style="fill:none;stroke:red;stroke-width:1px;stroke-linecap:butt;stroke-linejoin:miter;stroke-opacity:1" d="M 316.597,486.448 334.667,486.448 z" id="boundary" inkscape:connector-curvature="0" />
	<path style="fill:none;stroke:red;stroke-width:1px;stroke-linecap:butt;stroke-linejoin:miter;stroke-opacity:1" d="M 352.736,486.448 334.667,486.448 z" id="boundary" inkscape:connector-curvature="0" />
	<path style="fill:none;stroke:red;stroke-width:1px;stroke-linecap:butt;stroke-linejoin:miter;stroke-opacity:1" d="M 370.805,486.448 388.874,486.448 z" id="boundary" inkscape:connector-curvature="0" />
	<path style="fill:none;stroke:red;stroke-width:1px;stroke-linecap:butt;stroke-linejoin:miter;stroke-opacity:1" d="M 352.736,486.448 370.805,486.448 z" id="boundary" inkscape:connector-curvature="0" />
	<path style="fill:none;stroke:red;stroke-width:1px;stroke-linecap:butt;stroke-linejoin:miter;stroke-opacity:1" d="M 388.874,486.448 406.944,486.448 z" id="boundary" inkscape:connector-curvature="0" />
	<path style="fill:none;stroke:red;stroke-width:1px;stroke-linecap:butt;stroke-linejoin:miter;stroke-opacity:1" d="M 378.033,293.107 388.874,307.563 z" id="boundary" inkscape:connector-curvature="0" />
	<path style="fill:none;stroke:red;stroke-width:1px;stroke-linecap:butt;stroke-linejoin:miter;stroke-opacity:1" d="M 417.785,329.246 435.854,329.246 z" id="boundary" inkscape:connector-curvature="0" />
	<path style="fill:none;stroke:red;stroke-width:1px;stroke-linecap:butt;stroke-linejoin:miter;stroke-opacity:1" d="M 453.923,329.246 471.993,329.246 z" id="boundary" inkscape:connector-curvature="0" />
	<path style="fill:none;stroke:red;stroke-width:1px;stroke-linecap:butt;stroke-linejoin:miter;stroke-opacity:1" d="M 490.062,329.246 471.993,329.246 z" id="boundary" inkscape:connector-curvature="0" />
	<path style="fill:none;stroke:red;stroke-width:1px;stroke-linecap:butt;stroke-linejoin:miter;stroke-opacity:1" d="M 453.923,329.246 435.854,329.246 z" id="boundary" inkscape:connector-curvature="0" />
	<path style="fill:none;stroke:red;stroke-width:1px;stroke-linecap:butt;stroke-linejoin:miter;stroke-opacity:1" d="M 508.131,329.246 526.2,329.246 z" id="boundary" inkscape:connector-curvature="0" />
	<path style="fill:none;stroke:red;stroke-width:1px;stroke-linecap:butt;stroke-linejoin:miter;stroke-opacity:1" d="M 544.27,329.246 562.339,329.246 z" id="boundary" inkscape:connector-curvature="0" />
	<path style="fill:none;stroke:red;stroke-width:1px;stroke-linecap:butt;stroke-linejoin:miter;stroke-opacity:1" d="M 580.408,329.246 562.339,329.246 z" id="boundary" inkscape:connector-curvature="0" />
	<path style="fill:none;stroke:red;stroke-width:1px;stroke-linecap:butt;stroke-linejoin:miter;stroke-opacity:1" d="M 544.27,329.246 526.2,329.246 z" id="boundary" inkscape:connector-curvature="0" />
	<path style="fill:none;stroke:red;stroke-width:1px;stroke-linecap:butt;stroke-linejoin:miter;stroke-opacity:1" d="M 508.131,329.246 490.062,329.246 z" id="boundary" inkscape:connector-curvature="0" />
	<path style="fill:none;stroke:red;stroke-width:1px;stroke-linecap:butt;stroke-linejoin:miter;stroke-opacity:1" d="M 598.477,329.246 616.546,329.246 z" id="boundary" inkscape:connector-curvature="0" />
	<path style="fill:none;stroke:red;stroke-width:1px;stroke-linecap:butt;stroke-linejoin:miter;stroke-opacity:1" d="M 634.616,329.246 652.685,329.246 z" id="boundary" inkscape:connector-curvature="0" />
	<path style="fill:none;stroke:red;stroke-width:1px;stroke-linecap:butt;stroke-linejoin:miter;stroke-opacity:1" d="M 670.754,329.246 652.685,329.246 z" id="boundary" inkscape:connector-curvature="0" />
	<path style="fill:none;stroke:red;stroke-width:1px;stroke-linecap:butt;stroke-linejoin:miter;stroke-opacity:1" d="M 634.616,329.246 616.546,329.246 z" id="boundary" inkscape:connector-curvature="0" />
	<path style="fill:none;stroke:red;stroke-width:1px;stroke-linecap:butt;stroke-linejoin:miter;stroke-opacity:1" d="M 724.962,332.86 706.893,332.86 z" id="boundary" inkscape:connector-curvature="0" />
	<path style="fill:none;stroke:red;stroke-width:1px;stroke-linecap:butt;stroke-linejoin:miter;stroke-opacity:1" d="M 706.893,332.86 688.823,329.246 z" id="boundary" inkscape:connector-curvature="0" />
	<path style="fill:none;stroke:red;stroke-width:1px;stroke-linecap:butt;stroke-linejoin:miter;stroke-opacity:1" d="M 743.031,332.86 724.962,332.86 z" id="boundary" inkscape:connector-curvature="0" />
	<path style="fill:none;stroke:red;stroke-width:1px;stroke-linecap:butt;stroke-linejoin:miter;stroke-opacity:1" d="M 670.754,329.246 688.823,329.246 z" id="boundary" inkscape:connector-curvature="0" />
	<path style="fill:none;stroke:red;stroke-width:1px;stroke-linecap:butt;stroke-linejoin:miter;stroke-opacity:1" d="M 743.031,332.86 761.1,332.86 z" id="boundary" inkscape:connector-curvature="0" />
	<path style="fill:none;stroke:red;stroke-width:1px;stroke-linecap:butt;stroke-linejoin:miter;stroke-opacity:1" d="M 779.169,332.86 761.1,332.86 z" id="boundary" inkscape:connector-curvature="0" />
	<path style="fill:none;stroke:red;stroke-width:1px;stroke-linecap:butt;stroke-linejoin:miter;stroke-opacity:1" d="M 580.408,329.246 598.477,329.246 z" id="boundary" inkscape:connector-curvature="0" />
	<path style="fill:none;stroke:red;stroke-width:1px;stroke-linecap:butt;stroke-linejoin:miter;stroke-opacity:1" d="M 893.005,296.721 903.847,275.038 z" id="boundary" inkscape:connector-curvature="0" />
	<path style="fill:none;stroke:red;stroke-width:1px;stroke-linecap:butt;stroke-linejoin:miter;stroke-opacity:1" d="M 797.239,332.86 779.169,332.86 z" id="boundary" inkscape:connector-curvature="0" />
	<path style="fill:none;stroke:red;stroke-width:1px;stroke-linecap:butt;stroke-linejoin:miter;stroke-opacity:1" d="M 851.446,336.474 864.095,318.404 z" id="boundary" inkscape:connector-curvature="0" />
	<path style="fill:none;stroke:red;stroke-width:1px;stroke-linecap:butt;stroke-linejoin:miter;stroke-opacity:1" d="M 864.095,318.404 878.55,307.563 z" id="boundary" inkscape:connector-curvature="0" />
	<path style="fill:none;stroke:red;stroke-width:1px;stroke-linecap:butt;stroke-linejoin:miter;stroke-opacity:1" d="M 893.005,296.721 878.55,307.563 z" id="boundary" inkscape:connector-curvature="0" />
	<path style="fill:none;stroke:red;stroke-width:1px;stroke-linecap:butt;stroke-linejoin:miter;stroke-opacity:1" d="M 903.847,275.038 914.689,260.583 z" id="boundary" inkscape:connector-curvature="0" />
	<path style="fill:none;stroke:red;stroke-width:1px;stroke-linecap:butt;stroke-linejoin:miter;stroke-opacity:1" d="M 938.179,266.004 945.406,284.073 z" id="boundary" inkscape:connector-curvature="0" />
	<path style="fill:none;stroke:red;stroke-width:1px;stroke-linecap:butt;stroke-linejoin:miter;stroke-opacity:1" d="M 938.179,266.004 929.144,249.741 z" id="boundary" inkscape:connector-curvature="0" />
	<path style="fill:none;stroke:red;stroke-width:1px;stroke-linecap:butt;stroke-linejoin:miter;stroke-opacity:1" d="M 929.144,249.741 974.317,307.563 z" id="boundary" inkscape:connector-curvature="0" />
	<path style="fill:none;stroke:red;stroke-width:1px;stroke-linecap:butt;stroke-linejoin:miter;stroke-opacity:1" d="M 959.862,296.721 945.406,284.073 z" id="boundary" inkscape:connector-curvature="0" />
	<path style="fill:none;stroke:red;stroke-width:1px;stroke-linecap:butt;stroke-linejoin:miter;stroke-opacity:1" d="M 914.689,260.583 929.144,249.741 z" id="boundary" inkscape:connector-curvature="0" />
	<path style="fill:none;stroke:red;stroke-width:1px;stroke-linecap:butt;stroke-linejoin:miter;stroke-opacity:1" d="M 959.862,296.721 974.317,307.563 z" id="boundary" inkscape:connector-curvature="0" />
	<path style="fill:none;stroke:red;stroke-width:1px;stroke-linecap:butt;stroke-linejoin:miter;stroke-opacity:1" d="M 974.317,307.563 985.158,322.018 z" id="boundary" inkscape:connector-curvature="0" />
	<path style="fill:none;stroke:red;stroke-width:1px;stroke-linecap:butt;stroke-linejoin:miter;stroke-opacity:1" d="M 985.158,322.018 992.386,340.087 z" id="boundary" inkscape:connector-curvature="0" />
	<path style="fill:none;stroke:red;stroke-width:1px;stroke-linecap:butt;stroke-linejoin:miter;stroke-opacity:1" d="M 797.239,332.86 815.308,336.474 z" id="boundary" inkscape:connector-curvature="0" />
	<path style="fill:none;stroke:red;stroke-width:1px;stroke-linecap:butt;stroke-linejoin:miter;stroke-opacity:1" d="M 833.377,336.474 851.446,336.474 z" id="boundary" inkscape:connector-curvature="0" />
	<path style="fill:none;stroke:red;stroke-width:1px;stroke-linecap:butt;stroke-linejoin:miter;stroke-opacity:1" d="M 833.377,336.474 815.308,336.474 z" id="boundary" inkscape:connector-curvature="0" />
	<path style="fill:none;stroke:red;stroke-width:1px;stroke-linecap:butt;stroke-linejoin:miter;stroke-opacity:1" d="M 992.386,419.592 992.386,437.661 z" id="boundary" inkscape:connector-curvature="0" />
	<path style="fill:none;stroke:red;stroke-width:1px;stroke-linecap:butt;stroke-linejoin:miter;stroke-opacity:1" d="M 992.386,340.087 996,358.157 z" id="boundary" inkscape:connector-curvature="0" />
	<path style="fill:none;stroke:red;stroke-width:1px;stroke-linecap:butt;stroke-linejoin:miter;stroke-opacity:1" d="M 996,358.157 992.386,383.454 z" id="boundary" inkscape:connector-curvature="0" />
	<path style="fill:none;stroke:red;stroke-width:1px;stroke-linecap:butt;stroke-linejoin:miter;stroke-opacity:1" d="M 992.386,401.523 992.386,383.454 z" id="boundary" inkscape:connector-curvature="0" />
	<path style="fill:none;stroke:red;stroke-width:1px;stroke-linecap:butt;stroke-linejoin:miter;stroke-opacity:1" d="M 992.386,419.592 992.386,401.523 z" id="boundary" inkscape:connector-curvature="0" />
	<path style="fill:none;stroke:red;stroke-width:1px;stroke-linecap:butt;stroke-linejoin:miter;stroke-opacity:1" d="M 988.772,470.186 992.386,437.661 z" id="boundary" inkscape:connector-curvature="0" />
	<path style="fill:none;stroke:red;stroke-width:1px;stroke-linecap:butt;stroke-linejoin:miter;stroke-opacity:1" d="M 990.579,488.255 988.772,470.186 z" id="boundary" inkscape:connector-curvature="0" />
	<path style="fill:none;stroke:red;stroke-width:1px;stroke-linecap:butt;stroke-linejoin:miter;stroke-opacity:1" d="M 425.013,486.448 443.082,486.448 z" id="boundary" inkscape:connector-curvature="0" />
	<path style="fill:none;stroke:red;stroke-width:1px;stroke-linecap:butt;stroke-linejoin:miter;stroke-opacity:1" d="M 425.013,486.448 406.944,486.448 z" id="boundary" inkscape:connector-curvature="0" />
	<path style="fill:none;stroke:red;stroke-width:1px;stroke-linecap:butt;stroke-linejoin:miter;stroke-opacity:1" d="M 461.151,486.448 479.22,486.448 z" id="boundary" inkscape:connector-curvature="0" />
	<path style="fill:none;stroke:red;stroke-width:1px;stroke-linecap:butt;stroke-linejoin:miter;stroke-opacity:1" d="M 461.151,486.448 443.082,486.448 z" id="boundary" inkscape:connector-curvature="0" />
	<path style="fill:none;stroke:red;stroke-width:1px;stroke-linecap:butt;stroke-linejoin:miter;stroke-opacity:1" d="M 479.22,486.448 497.29,486.448 z" id="boundary" inkscape:connector-curvature="0" />
	<path style="fill:none;stroke:red;stroke-width:1px;stroke-linecap:butt;stroke-linejoin:miter;stroke-opacity:1" d="M 497.29,486.448 515.359,486.448 z" id="boundary" inkscape:connector-curvature="0" />
	<path style="fill:none;stroke:red;stroke-width:1px;stroke-linecap:butt;stroke-linejoin:miter;stroke-opacity:1" d="M 533.428,486.448 515.359,486.448 z" id="boundary" inkscape:connector-curvature="0" />
	<path style="fill:none;stroke:red;stroke-width:1px;stroke-linecap:butt;stroke-linejoin:miter;stroke-opacity:1" d="M 551.497,486.448 569.566,486.448 z" id="boundary" inkscape:connector-curvature="0" />
	<path style="fill:none;stroke:red;stroke-width:1px;stroke-linecap:butt;stroke-linejoin:miter;stroke-opacity:1" d="M 587.636,486.448 569.566,486.448 z" id="boundary" inkscape:connector-curvature="0" />
	<path style="fill:none;stroke:red;stroke-width:1px;stroke-linecap:butt;stroke-linejoin:miter;stroke-opacity:1" d="M 551.497,486.448 533.428,486.448 z" id="boundary" inkscape:connector-curvature="0" />
	<path style="fill:none;stroke:red;stroke-width:1px;stroke-linecap:butt;stroke-linejoin:miter;stroke-opacity:1" d="M 605.705,486.448 623.774,486.448 z" id="boundary" inkscape:connector-curvature="0" />
	<path style="fill:none;stroke:red;stroke-width:1px;stroke-linecap:butt;stroke-linejoin:miter;stroke-opacity:1" d="M 641.843,486.448 659.913,486.448 z" id="boundary" inkscape:connector-curvature="0" />
	<path style="fill:none;stroke:red;stroke-width:1px;stroke-linecap:butt;stroke-linejoin:miter;stroke-opacity:1" d="M 677.982,486.448 659.913,486.448 z" id="boundary" inkscape:connector-curvature="0" />
	<path style="fill:none;stroke:red;stroke-width:1px;stroke-linecap:butt;stroke-linejoin:miter;stroke-opacity:1" d="M 641.843,486.448 623.774,486.448 z" id="boundary" inkscape:connector-curvature="0" />
	<path style="fill:none;stroke:red;stroke-width:1px;stroke-linecap:butt;stroke-linejoin:miter;stroke-opacity:1" d="M 696.051,486.448 714.12,486.448 z" id="boundary" inkscape:connector-curvature="0" />
	<path style="fill:none;stroke:red;stroke-width:1px;stroke-linecap:butt;stroke-linejoin:miter;stroke-opacity:1" d="M 732.189,486.448 714.12,486.448 z" id="boundary" inkscape:connector-curvature="0" />
	<path style="fill:none;stroke:red;stroke-width:1px;stroke-linecap:butt;stroke-linejoin:miter;stroke-opacity:1" d="M 750.259,486.448 768.328,486.448 z" id="boundary" inkscape:connector-curvature="0" />
	<path style="fill:none;stroke:red;stroke-width:1px;stroke-linecap:butt;stroke-linejoin:miter;stroke-opacity:1" d="M 786.397,486.448 768.328,486.448 z" id="boundary" inkscape:connector-curvature="0" />
	<path style="fill:none;stroke:red;stroke-width:1px;stroke-linecap:butt;stroke-linejoin:miter;stroke-opacity:1" d="M 750.259,486.448 732.189,486.448 z" id="boundary" inkscape:connector-curvature="0" />
	<path style="fill:none;stroke:red;stroke-width:1px;stroke-linecap:butt;stroke-linejoin:miter;stroke-opacity:1" d="M 696.051,486.448 677.982,486.448 z" id="boundary" inkscape:connector-curvature="0" />
	<path style="fill:none;stroke:red;stroke-width:1px;stroke-linecap:butt;stroke-linejoin:miter;stroke-opacity:1" d="M 605.705,486.448 587.636,486.448 z" id="boundary" inkscape:connector-curvature="0" />
	<path style="fill:none;stroke:red;stroke-width:1px;stroke-linecap:butt;stroke-linejoin:miter;stroke-opacity:1" d="M 804.466,486.448 822.536,486.448 z" id="boundary" inkscape:connector-curvature="0" />
	<path style="fill:none;stroke:red;stroke-width:1px;stroke-linecap:butt;stroke-linejoin:miter;stroke-opacity:1" d="M 840.605,486.448 856.867,495.483 z" id="boundary" inkscape:connector-curvature="0" />
	<path style="fill:none;stroke:red;stroke-width:1px;stroke-linecap:butt;stroke-linejoin:miter;stroke-opacity:1" d="M 856.867,495.483 860.481,513.552 z" id="boundary" inkscape:connector-curvature="0" />
	<path style="fill:none;stroke:red;stroke-width:1px;stroke-linecap:butt;stroke-linejoin:miter;stroke-opacity:1" d="M 880.357,502.71 860.481,513.552 z" id="boundary" inkscape:connector-curvature="0" />
	<path style="fill:none;stroke:red;stroke-width:1px;stroke-linecap:butt;stroke-linejoin:miter;stroke-opacity:1" d="M 822.536,486.448 840.605,486.448 z" id="boundary" inkscape:connector-curvature="0" />
	<path style="fill:none;stroke:red;stroke-width:1px;stroke-linecap:butt;stroke-linejoin:miter;stroke-opacity:1" d="M 860.481,513.552 860.481,531.621 z" id="boundary" inkscape:connector-curvature="0" />
	<path style="fill:none;stroke:red;stroke-width:1px;stroke-linecap:butt;stroke-linejoin:miter;stroke-opacity:1" d="M 898.426,499.097 909.268,513.552 z" id="boundary" inkscape:connector-curvature="0" />
	<path style="fill:none;stroke:red;stroke-width:1px;stroke-linecap:butt;stroke-linejoin:miter;stroke-opacity:1" d="M 880.357,502.71 898.426,499.097 z" id="boundary" inkscape:connector-curvature="0" />
	<path style="fill:none;stroke:red;stroke-width:1px;stroke-linecap:butt;stroke-linejoin:miter;stroke-opacity:1" d="M 961.668,511.745 945.406,502.71 z" id="boundary" inkscape:connector-curvature="0" />
	<path style="fill:none;stroke:red;stroke-width:1px;stroke-linecap:butt;stroke-linejoin:miter;stroke-opacity:1" d="M 990.579,488.255 992.386,506.324 z" id="boundary" inkscape:connector-curvature="0" />
	<path style="fill:none;stroke:red;stroke-width:1px;stroke-linecap:butt;stroke-linejoin:miter;stroke-opacity:1" d="M 992.386,506.324 976.124,522.587 z" id="boundary" inkscape:connector-curvature="0" />
	<path style="fill:none;stroke:red;stroke-width:1px;stroke-linecap:butt;stroke-linejoin:miter;stroke-opacity:1" d="M 976.124,522.587 961.668,511.745 z" id="boundary" inkscape:connector-curvature="0" />
	<path style="fill:none;stroke:red;stroke-width:1px;stroke-linecap:butt;stroke-linejoin:miter;stroke-opacity:1" d="M 945.406,502.71 909.268,513.552 z" id="boundary" inkscape:connector-curvature="0" />
	<path style="fill:none;stroke:red;stroke-width:1px;stroke-linecap:butt;stroke-linejoin:miter;stroke-opacity:1" d="M 938.179,520.78 945.406,502.71 z" id="boundary" inkscape:connector-curvature="0" />
	<path style="fill:none;stroke:red;stroke-width:1px;stroke-linecap:butt;stroke-linejoin:miter;stroke-opacity:1" d="M 878.55,537.042 860.481,531.621 z" id="boundary" inkscape:connector-curvature="0" />
	<path style="fill:none;stroke:red;stroke-width:1px;stroke-linecap:butt;stroke-linejoin:miter;stroke-opacity:1" d="M 878.55,537.042 876.743,560.532 z" id="boundary" inkscape:connector-curvature="0" />
	<path style="fill:none;stroke:red;stroke-width:1px;stroke-linecap:butt;stroke-linejoin:miter;stroke-opacity:1" d="M 876.743,560.532 862.288,549.69 z" id="boundary" inkscape:connector-curvature="0" />
	<path style="fill:none;stroke:red;stroke-width:1px;stroke-linecap:butt;stroke-linejoin:miter;stroke-opacity:1" d="M 862.288,549.69 860.481,531.621 z" id="boundary" inkscape:connector-curvature="0" />
	<path style="fill:none;stroke:red;stroke-width:1px;stroke-linecap:butt;stroke-linejoin:miter;stroke-opacity:1" d="M 920.109,528.007 876.743,560.532 z" id="boundary" inkscape:connector-curvature="0" />
	<path style="fill:none;stroke:red;stroke-width:1px;stroke-linecap:butt;stroke-linejoin:miter;stroke-opacity:1" d="M 909.268,513.552 920.109,528.007 z" id="boundary" inkscape:connector-curvature="0" />
	<path style="fill:none;stroke:red;stroke-width:1px;stroke-linecap:butt;stroke-linejoin:miter;stroke-opacity:1" d="M 920.109,528.007 938.179,520.78 z" id="boundary" inkscape:connector-curvature="0" />
	<path style="fill:none;stroke:red;stroke-width:1px;stroke-linecap:butt;stroke-linejoin:miter;stroke-opacity:1" d="M 976.124,540.656 992.386,531.621 z" id="boundary" inkscape:connector-curvature="0" />
	<path style="fill:none;stroke:red;stroke-width:1px;stroke-linecap:butt;stroke-linejoin:miter;stroke-opacity:1" d="M 979.738,558.725 976.124,540.656 z" id="boundary" inkscape:connector-curvature="0" />
	<path style="fill:none;stroke:red;stroke-width:1px;stroke-linecap:butt;stroke-linejoin:miter;stroke-opacity:1" d="M 976.124,540.656 976.124,522.587 z" id="boundary" inkscape:connector-curvature="0" />
	<path style="fill:none;stroke:red;stroke-width:1px;stroke-linecap:butt;stroke-linejoin:miter;stroke-opacity:1" d="M 992.386,506.324 992.386,531.621 z" id="boundary" inkscape:connector-curvature="0" />
	<path style="fill:none;stroke:red;stroke-width:1px;stroke-linecap:butt;stroke-linejoin:miter;stroke-opacity:1" d="M 786.397,486.448 804.466,486.448 z" id="boundary" inkscape:connector-curvature="0" />
	<circle cx="4" cy="412.364" r="4" fill="#0" id="circle0"/>
	<circle cx="4" cy="430.434" r="4" fill="#0" id="circle1"/>
	<circle cx="4" cy="448.503" r="4" fill="#0" id="circle2"/>
	<circle cx="7.61384" cy="137.712" r="4" fill="#0" id="circle3"/>
	<circle cx="7.61384" cy="155.781" r="4" fill="#0" id="circle4"/>
	<circle cx="7.61384" cy="173.851" r="4" fill="#0" id="circle5"/>
	<circle cx="7.61384" cy="191.92" r="4" fill="#0" id="circle6"/>
	<circle cx="7.61384" cy="209.989" r="4" fill="#0" id="circle7"/>
	<circle cx="7.61384" cy="289.494" r="4" fill="#0" id="circle8"/>
	<circle cx="7.61384" cy="307.563" r="4" fill="#0" id="circle9"/>
	<circle cx="7.61384" cy="325.632" r="4" fill="#0" id="circle10"/>
	<circle cx="7.61384" cy="343.701" r="4" fill="#0" id="circle11"/>
	<circle cx="7.61384" cy="361.77" r="4" fill="#0" id="circle12"/>
	<circle cx="7.61384" cy="379.84" r="4" fill="#0" id="circle13"/>
	<circle cx="7.61384" cy="466.572" r="4" fill="#0" id="circle14"/>
	<circle cx="7.61384" cy="484.641" r="4" fill="#0" id="circle15"/>
	<circle cx="11.2277" cy="228.058" r="4" fill="#0" id="circle16"/>
	<circle cx="11.2277" cy="246.128" r="4" fill="#0" id="circle17"/>
	<circle cx="11.2277" cy="264.197" r="4" fill="#0" id="circle18"/>
	<circle cx="11.2277" cy="502.71" r="4" fill="#0" id="circle19"/>
	<circle cx="14.8415" cy="119.643" r="4" fill="#0" id="circle20"/>
	<circle cx="18.4554" cy="520.78" r="4" fill="#0" id="circle21"/>
	<circle cx="18.4554" cy="538.849" r="4" fill="#0" id="circle22"/>
	<circle cx="18.4554" cy="556.918" r="4" fill="#0" id="circle23"/>
	<circle cx="22.0692" cy="101.574" r="4" fill="#0" id="circle24"/>
	<circle cx="29.2969" cy="486.448" r="4" fill="#0" id="circle25"/>
	<circle cx="32.9107" cy="87.1184" r="4" fill="#0" id="circle26"/>
	<circle cx="34.7177" cy="506.324" r="4" fill="#0" id="circle27"/>
	<circle cx="34.7177" cy="529.814" r="4" fill="#0" id="circle28"/>
	<circle cx="36.5246" cy="556.918" r="4" fill="#0" id="circle29"/>
	<circle cx="47.3661" cy="72.663" r="4" fill="#0" id="circle30"/>
	<circle cx="47.3661" cy="486.448" r="4" fill="#0" id="circle31"/>
	<circle cx="61.8215" cy="54.5938" r="4" fill="#0" id="circle32"/>
	<circle cx="65.4353" cy="486.448" r="4" fill="#0" id="circle33"/>
	<circle cx="70.8561" cy="38.3315" r="4" fill="#0" id="circle34"/>
	<circle cx="74.4699" cy="20.2623" r="4" fill="#0" id="circle35"/>
	<circle cx="83.5046" cy="4" r="4" fill="#0" id="circle36"/>
	<circle cx="83.5046" cy="486.448" r="4" fill="#0" id="circle37"/>
	<circle cx="92.5392" cy="20.2623" r="4" fill="#0" id="circle38"/>
	<circle cx="96.153" cy="38.3315" r="4" fill="#0" id="circle39"/>
	<circle cx="99.7668" cy="69.0492" r="4" fill="#0" id="circle40"/>
	<circle cx="101.574" cy="486.448" r="4" fill="#0" id="circle41"/>
	<circle cx="112.415" cy="83.5046" r="4" fill="#0" id="circle42"/>
	<circle cx="116.029" cy="497.29" r="4" fill="#0" id="circle43"/>
	<circle cx="119.643" cy="542.463" r="4" fill="#0" id="circle44"/>
	<circle cx="121.45" cy="99.7668" r="4" fill="#0" id="circle45"/>
	<circle cx="123.257" cy="515.359" r="4" fill="#0" id="circle46"/>
	<circle cx="128.678" cy="558.725" r="4" fill="#0" id="circle47"/>
	<circle cx="132.291" cy="114.222" r="4" fill="#0" id="circle48"/>
	<circle cx="132.291" cy="173.851" r="4" fill="#0" id="circle49"/>
	<circle cx="132.291" cy="191.92" r="4" fill="#0" id="circle50"/>
	<circle cx="135.905" cy="132.291" r="4" fill="#0" id="circle51"/>
	<circle cx="135.905" cy="488.255" r="4" fill="#0" id="circle52"/>
	<circle cx="135.905" cy="531.621" r="4" fill="#0" id="circle53"/>
	<circle cx="139.519" cy="150.361" r="4" fill="#0" id="circle54"/>
	<circle cx="139.519" cy="506.324" r="4" fill="#0" id="circle55"/>
	<circle cx="144.94" cy="206.375" r="4" fill="#0" id="circle56"/>
	<circle cx="153.974" cy="486.448" r="4" fill="#0" id="circle57"/>
	<circle cx="163.009" cy="213.603" r="4" fill="#0" id="circle58"/>
	<circle cx="172.044" cy="486.448" r="4" fill="#0" id="circle59"/>
	<circle cx="181.078" cy="213.603" r="4" fill="#0" id="circle60"/>
	<circle cx="190.113" cy="486.448" r="4" fill="#0" id="circle61"/>
	<circle cx="199.148" cy="220.831" r="4" fill="#0" id="circle62"/>
	<circle cx="208.182" cy="486.448" r="4" fill="#0" id="circle63"/>
	<circle cx="213.603" cy="231.672" r="4" fill="#0" id="circle64"/>
	<circle cx="226.251" cy="486.448" r="4" fill="#0" id="circle65"/>
	<circle cx="231.672" cy="226.251" r="4" fill="#0" id="circle66"/>
	<circle cx="244.321" cy="486.448" r="4" fill="#0" id="circle67"/>
	<circle cx="249.741" cy="228.058" r="4" fill="#0" id="circle68"/>
	<circle cx="262.39" cy="486.448" r="4" fill="#0" id="circle69"/>
	<circle cx="267.811" cy="231.672" r="4" fill="#0" id="circle70"/>
	<circle cx="280.459" cy="486.448" r="4" fill="#0" id="circle71"/>
	<circle cx="285.88" cy="235.286" r="4" fill="#0" id="circle72"/>
	<circle cx="298.528" cy="486.448" r="4" fill="#0" id="circle73"/>
	<circle cx="303.949" cy="238.9" r="4" fill="#0" id="circle74"/>
	<circle cx="316.597" cy="486.448" r="4" fill="#0" id="circle75"/>
	<circle cx="320.211" cy="247.934" r="4" fill="#0" id="circle76"/>
	<circle cx="334.667" cy="486.448" r="4" fill="#0" id="circle77"/>
	<circle cx="336.474" cy="256.969" r="4" fill="#0" id="circle78"/>
	<circle cx="352.736" cy="266.004" r="4" fill="#0" id="circle79"/>
	<circle cx="352.736" cy="486.448" r="4" fill="#0" id="circle80"/>
	<circle cx="367.191" cy="278.652" r="4" fill="#0" id="circle81"/>
	<circle cx="370.805" cy="486.448" r="4" fill="#0" id="circle82"/>
	<circle cx="378.033" cy="293.107" r="4" fill="#0" id="circle83"/>
	<circle cx="388.874" cy="307.563" r="4" fill="#0" id="circle84"/>
	<circle cx="388.874" cy="486.448" r="4" fill="#0" id="circle85"/>
	<circle cx="399.716" cy="322.018" r="4" fill="#0" id="circle86"/>
	<circle cx="406.944" cy="486.448" r="4" fill="#0" id="circle87"/>
	<circle cx="417.785" cy="329.246" r="4" fill="#0" id="circle88"/>
	<circle cx="425.013" cy="486.448" r="4" fill="#0" id="circle89"/>
	<circle cx="435.854" cy="329.246" r="4" fill="#0" id="circle90"/>
	<circle cx="443.082" cy="486.448" r="4" fill="#0" id="circle91"/>
	<circle cx="453.923" cy="329.246" r="4" fill="#0" id="circle92"/>
	<circle cx="461.151" cy="486.448" r="4" fill="#0" id="circle93"/>
	<circle cx="471.993" cy="329.246" r="4" fill="#0" id="circle94"/>
	<circle cx="479.22" cy="486.448" r="4" fill="#0" id="circle95"/>
	<circle cx="490.062" cy="329.246" r="4" fill="#0" id="circle96"/>
	<circle cx="497.29" cy="486.448" r="4" fill="#0" id="circle97"/>
	<circle cx="508.131" cy="329.246" r="4" fill="#0" id="circle98"/>
	<circle cx="515.359" cy="486.448" r="4" fill="#0" id="circle99"/>
	<circle cx="526.2" cy="329.246" r="4" fill="#0" id="circle100"/>
	<circle cx="533.428" cy="486.448" r="4" fill="#0" id="circle101"/>
	<circle cx="544.27" cy="329.246" r="4" fill="#0" id="circle102"/>
	<circle cx="551.497" cy="486.448" r="4" fill="#0" id="circle103"/>
	<circle cx="562.339" cy="329.246" r="4" fill="#0" id="circle104"/>
	<circle cx="569.566" cy="486.448" r="4" fill="#0" id="circle105"/>
	<circle cx="580.408" cy="329.246" r="4" fill="#0" id="circle106"/>
	<circle cx="587.636" cy="486.448" r="4" fill="#0" id="circle107"/>
	<circle cx="598.477" cy="329.246" r="4" fill="#0" id="circle108"/>
	<circle cx="605.705" cy="486.448" r="4" fill="#0" id="circle109"/>
	<circle cx="616.546" cy="329.246" r="4" fill="#0" id="circle110"/>
	<circle cx="623.774" cy="486.448" r="4" fill="#0" id="circle111"/>
	<circle cx="634.616" cy="329.246" r="4" fill="#0" id="circle112"/>
	<circle cx="641.843" cy="486.448" r="4" fill="#0" id="circle113"/>
	<circle cx="652.685" cy="329.246" r="4" fill="#0" id="circle114"/>
	<circle cx="659.913" cy="486.448" r="4" fill="#0" id="circle115"/>
	<circle cx="670.754" cy="329.246" r="4" fill="#0" id="circle116"/>
	<circle cx="677.982" cy="486.448" r="4" fill="#0" id="circle117"/>
	<circle cx="688.823" cy="329.246" r="4" fill="#0" id="circle118"/>
	<circle cx="696.051" cy="486.448" r="4" fill="#0" id="circle119"/>
	<circle cx="706.893" cy="332.86" r="4" fill="#0" id="circle120"/>
	<circle cx="714.12" cy="486.448" r="4" fill="#0" id="circle121"/>
	<circle cx="724.962" cy="332.86" r="4" fill="#0" id="circle122"/>
	<circle cx="732.189" cy="486.448" r="4" fill="#0" id="circle123"/>
	<circle cx="743.031" cy="332.86" r="4" fill="#0" id="circle124"/>
	<circle cx="750.259" cy="486.448" r="4" fill="#0" id="circle125"/>
	<circle cx="761.1" cy="332.86" r="4" fill="#0" id="circle126"/>
	<circle cx="768.328" cy="486.448" r="4" fill="#0" id="circle127"/>
	<circle cx="779.169" cy="332.86" r="4" fill="#0" id="circle128"/>
	<circle cx="786.397" cy="486.448" r="4" fill="#0" id="circle129"/>
	<circle cx="797.239" cy="332.86" r="4" fill="#0" id="circle130"/>
	<circle cx="804.466" cy="486.448" r="4" fill="#0" id="circle131"/>
	<circle cx="815.308" cy="336.474" r="4" fill="#0" id="circle132"/>
	<circle cx="822.536" cy="486.448" r="4" fill="#0" id="circle133"/>
	<circle cx="833.377" cy="336.474" r="4" fill="#0" id="circle134"/>
	<circle cx="840.605" cy="486.448" r="4" fill="#0" id="circle135"/>
	<circle cx="851.446" cy="336.474" r="4" fill="#0" id="circle136"/>
	<circle cx="856.867" cy="495.483" r="4" fill="#0" id="circle137"/>
	<circle cx="860.481" cy="513.552" r="4" fill="#0" id="circle138"/>
	<circle cx="860.481" cy="531.621" r="4" fill="#0" id="circle139"/>
	<circle cx="862.288" cy="549.69" r="4" fill="#0" id="circle140"/>
	<circle cx="864.095" cy="318.404" r="4" fill="#0" id="circle141"/>
	<circle cx="876.743" cy="560.532" r="4" fill="#0" id="circle142"/>
	<circle cx="878.55" cy="307.563" r="4" fill="#0" id="circle143"/>
	<circle cx="878.55" cy="537.042" r="4" fill="#0" id="circle144"/>
	<circle cx="880.357" cy="502.71" r="4" fill="#0" id="circle145"/>
	<circle cx="893.005" cy="296.721" r="4" fill="#0" id="circle146"/>
	<circle cx="898.426" cy="499.097" r="4" fill="#0" id="circle147"/>
	<circle cx="903.847" cy="275.038" r="4" fill="#0" id="circle148"/>
	<circle cx="909.268" cy="513.552" r="4" fill="#0" id="circle149"/>
	<circle cx="914.689" cy="260.583" r="4" fill="#0" id="circle150"/>
	<circle cx="920.109" cy="528.007" r="4" fill="#0" id="circle151"/>
	<circle cx="929.144" cy="249.741" r="4" fill="#0" id="circle152"/>
	<circle cx="938.179" cy="266.004" r="4" fill="#0" id="circle153"/>
	<circle cx="938.179" cy="520.78" r="4" fill="#0" id="circle154"/>
	<circle cx="945.406" cy="284.073" r="4" fill="#0" id="circle155"/>
	<circle cx="945.406" cy="502.71" r="4" fill="#0" id="circle156"/>
	<circle cx="959.862" cy="296.721" r="4" fill="#0" id="circle157"/>
	<circle cx="961.668" cy="511.745" r="4" fill="#0" id="circle158"/>
	<circle cx="974.317" cy="307.563" r="4" fill="#0" id="circle159"/>
	<circle cx="976.124" cy="522.587" r="4" fill="#0" id="circle160"/>
	<circle cx="976.124" cy="540.656" r="4" fill="#0" id="circle161"/>
	<circle cx="979.738" cy="558.725" r="4" fill="#0" id="circle162"/>
	<circle cx="985.158" cy="322.018" r="4" fill="#0" id="circle163"/>
	<circle cx="988.772" cy="470.186" r="4" fill="#0" id="circle164"/>
	<circle cx="990.579" cy="488.255" r="4" fill="#0" id="circle165"/>
	<circle cx="992.386" cy="340.087" r="4" fill="#0" id="circle166"/>
	<circle cx="992.386" cy="383.454" r="4" fill="#0" id="circle167"/>
	<circle cx="992.386" cy="401.523" r="4" fill="#0" id="circle168"/>
	<circle cx="992.386" cy="419.592" r="4" fill="#0" id="circle169"/>
	<circle cx="992.386" cy="437.661" r="4" fill="#0" id="circle170"/>
	<circle cx="992.386" cy="506.324" r="4" fill="#0" id="circle171"/>
	<circle cx="992.386" cy="531.621" r="4" fill="#0" id="circle172"/>
	<circle cx="996" cy="358.157" r="4" fill="#0" id="circle173"/>
	</g>
</svg>