<?xml version="1.0" encoding="UTF-8" standalone="no"?>
<!-- Created with CurveBenchmark -->
<svg
	xmlns:dc="http://purl.org/dc/elements/1.1/"
	xmlns:cc="http://creativecommons.org/ns#"
	xmlns:rdf="http://www.w3.org/1999/02/22-rdf-syntax-ns#"
	xmlns:svg="http://www.w3.org/2000/svg"
	xmlns="http://www.w3.org/2000/svg"
	xmlns:sodipodi="http://sodipodi.sourceforge.net/DTD/sodipodi-0.dtd"
	xmlns:inkscape="http://www.inkscape.org/namespaces/inkscape"
	width="1000"
	height="1000"
	id="svg2"
	version="1.1"
	sodipodi:docname="manifold/nncrust-watch-9.png.txt">
<defs
	id="defs4" />
<metadata
	id="metadata7">
	<rdf:RDF>
		<cc:Work
			rdf:about="">
			<dc:format>image/svg+xml</dc:format>
			<dc:type
				rdf:resource="http://purl.org/dc/dcmitype/StillImage" />
			<dc:title></dc:title>
		</cc:Work>
	</rdf:RDF>
</metadata>
<g
	inkscape:label="Layer 1"
	inkscape:groupmode="layer"
	id="layer1">
	<path style="fill:none;stroke:red;stroke-width:1px;stroke-linecap:butt;stroke-linejoin:miter;stroke-opacity:1" d="M 98.9923,83.6915 92.617,83.6915 z" id="boundary" inkscape:connector-curvature="0" />
	<path style="fill:none;stroke:red;stroke-width:1px;stroke-linecap:butt;stroke-linejoin:miter;stroke-opacity:1" d="M 129.594,83.6915 135.969,81.1414 z" id="boundary" inkscape:connector-curvature="0" />
	<path style="fill:none;stroke:red;stroke-width:1px;stroke-linecap:butt;stroke-linejoin:miter;stroke-opacity:1" d="M 135.969,81.1414 142.344,80.5039 z" id="boundary" inkscape:connector-curvature="0" />
	<path style="fill:none;stroke:red;stroke-width:1px;stroke-linecap:butt;stroke-linejoin:miter;stroke-opacity:1" d="M 148.72,80.5039 142.344,80.5039 z" id="boundary" inkscape:connector-curvature="0" />
	<path style="fill:none;stroke:red;stroke-width:1px;stroke-linecap:butt;stroke-linejoin:miter;stroke-opacity:1" d="M 155.095,77.9537 148.72,80.5039 z" id="boundary" inkscape:connector-curvature="0" />
	<path style="fill:none;stroke:red;stroke-width:1px;stroke-linecap:butt;stroke-linejoin:miter;stroke-opacity:1" d="M 117.481,80.5039 123.219,83.6915 z" id="boundary" inkscape:connector-curvature="0" />
	<path style="fill:none;stroke:red;stroke-width:1px;stroke-linecap:butt;stroke-linejoin:miter;stroke-opacity:1" d="M 111.105,80.5039 117.481,80.5039 z" id="boundary" inkscape:connector-curvature="0" />
	<path style="fill:none;stroke:red;stroke-width:1px;stroke-linecap:butt;stroke-linejoin:miter;stroke-opacity:1" d="M 60.7404,83.6915 67.1157,83.6915 z" id="boundary" inkscape:connector-curvature="0" />
	<path style="fill:none;stroke:red;stroke-width:1px;stroke-linecap:butt;stroke-linejoin:miter;stroke-opacity:1" d="M 55.0026,86.8792 60.7404,83.6915 z" id="boundary" inkscape:connector-curvature="0" />
	<path style="fill:none;stroke:red;stroke-width:1px;stroke-linecap:butt;stroke-linejoin:miter;stroke-opacity:1" d="M 73.491,83.6915 67.1157,83.6915 z" id="boundary" inkscape:connector-curvature="0" />
	<path style="fill:none;stroke:red;stroke-width:1px;stroke-linecap:butt;stroke-linejoin:miter;stroke-opacity:1" d="M 79.8663,83.6915 86.2416,83.6915 z" id="boundary" inkscape:connector-curvature="0" />
	<path style="fill:none;stroke:red;stroke-width:1px;stroke-linecap:butt;stroke-linejoin:miter;stroke-opacity:1" d="M 92.617,83.6915 86.2416,83.6915 z" id="boundary" inkscape:connector-curvature="0" />
	<path style="fill:none;stroke:red;stroke-width:1px;stroke-linecap:butt;stroke-linejoin:miter;stroke-opacity:1" d="M 79.8663,83.6915 73.491,83.6915 z" id="boundary" inkscape:connector-curvature="0" />
	<path style="fill:none;stroke:red;stroke-width:1px;stroke-linecap:butt;stroke-linejoin:miter;stroke-opacity:1" d="M 161.47,77.3162 167.846,77.3162 z" id="boundary" inkscape:connector-curvature="0" />
	<path style="fill:none;stroke:red;stroke-width:1px;stroke-linecap:butt;stroke-linejoin:miter;stroke-opacity:1" d="M 174.221,77.3162 167.846,77.3162 z" id="boundary" inkscape:connector-curvature="0" />
	<path style="fill:none;stroke:red;stroke-width:1px;stroke-linecap:butt;stroke-linejoin:miter;stroke-opacity:1" d="M 218.848,71.5784 212.473,74.1285 z" id="boundary" inkscape:connector-curvature="0" />
	<path style="fill:none;stroke:red;stroke-width:1px;stroke-linecap:butt;stroke-linejoin:miter;stroke-opacity:1" d="M 212.473,74.1285 206.098,74.7661 z" id="boundary" inkscape:connector-curvature="0" />
	<path style="fill:none;stroke:red;stroke-width:1px;stroke-linecap:butt;stroke-linejoin:miter;stroke-opacity:1" d="M 180.596,77.3162 174.221,77.3162 z" id="boundary" inkscape:connector-curvature="0" />
	<path style="fill:none;stroke:red;stroke-width:1px;stroke-linecap:butt;stroke-linejoin:miter;stroke-opacity:1" d="M 199.722,77.3162 206.098,74.7661 z" id="boundary" inkscape:connector-curvature="0" />
	<path style="fill:none;stroke:red;stroke-width:1px;stroke-linecap:butt;stroke-linejoin:miter;stroke-opacity:1" d="M 193.347,77.3162 186.972,77.3162 z" id="boundary" inkscape:connector-curvature="0" />
	<path style="fill:none;stroke:red;stroke-width:1px;stroke-linecap:butt;stroke-linejoin:miter;stroke-opacity:1" d="M 199.722,77.3162 193.347,77.3162 z" id="boundary" inkscape:connector-curvature="0" />
	<path style="fill:none;stroke:red;stroke-width:1px;stroke-linecap:butt;stroke-linejoin:miter;stroke-opacity:1" d="M 180.596,77.3162 186.972,77.3162 z" id="boundary" inkscape:connector-curvature="0" />
	<path style="fill:none;stroke:red;stroke-width:1px;stroke-linecap:butt;stroke-linejoin:miter;stroke-opacity:1" d="M 155.095,77.9537 161.47,77.3162 z" id="boundary" inkscape:connector-curvature="0" />
	<path style="fill:none;stroke:red;stroke-width:1px;stroke-linecap:butt;stroke-linejoin:miter;stroke-opacity:1" d="M 4,104.73 4,98.3548 z" id="boundary" inkscape:connector-curvature="0" />
	<path style="fill:none;stroke:red;stroke-width:1px;stroke-linecap:butt;stroke-linejoin:miter;stroke-opacity:1" d="M 4,98.3548 10.3753,91.9794 z" id="boundary" inkscape:connector-curvature="0" />
	<path style="fill:none;stroke:red;stroke-width:1px;stroke-linecap:butt;stroke-linejoin:miter;stroke-opacity:1" d="M 10.3753,113.018 4,111.105 z" id="boundary" inkscape:connector-curvature="0" />
	<path style="fill:none;stroke:red;stroke-width:1px;stroke-linecap:butt;stroke-linejoin:miter;stroke-opacity:1" d="M 4,111.105 4,104.73 z" id="boundary" inkscape:connector-curvature="0" />
	<path style="fill:none;stroke:red;stroke-width:1px;stroke-linecap:butt;stroke-linejoin:miter;stroke-opacity:1" d="M 10.3753,113.018 10.3753,119.393 z" id="boundary" inkscape:connector-curvature="0" />
	<path style="fill:none;stroke:red;stroke-width:1px;stroke-linecap:butt;stroke-linejoin:miter;stroke-opacity:1" d="M 10.3753,119.393 13.563,125.131 z" id="boundary" inkscape:connector-curvature="0" />
	<path style="fill:none;stroke:red;stroke-width:1px;stroke-linecap:butt;stroke-linejoin:miter;stroke-opacity:1" d="M 13.563,125.131 13.563,131.506 z" id="boundary" inkscape:connector-curvature="0" />
	<path style="fill:none;stroke:red;stroke-width:1px;stroke-linecap:butt;stroke-linejoin:miter;stroke-opacity:1" d="M 13.563,131.506 13.563,137.882 z" id="boundary" inkscape:connector-curvature="0" />
	<path style="fill:none;stroke:red;stroke-width:1px;stroke-linecap:butt;stroke-linejoin:miter;stroke-opacity:1" d="M 13.563,137.882 13.563,144.257 z" id="boundary" inkscape:connector-curvature="0" />
	<path style="fill:none;stroke:red;stroke-width:1px;stroke-linecap:butt;stroke-linejoin:miter;stroke-opacity:1" d="M 10.3753,91.9794 16.7506,88.7918 z" id="boundary" inkscape:connector-curvature="0" />
	<path style="fill:none;stroke:red;stroke-width:1px;stroke-linecap:butt;stroke-linejoin:miter;stroke-opacity:1" d="M 13.563,144.257 13.563,150.632 z" id="boundary" inkscape:connector-curvature="0" />
	<path style="fill:none;stroke:red;stroke-width:1px;stroke-linecap:butt;stroke-linejoin:miter;stroke-opacity:1" d="M 55.0026,86.8792 48.6272,88.7918 z" id="boundary" inkscape:connector-curvature="0" />
	<path style="fill:none;stroke:red;stroke-width:1px;stroke-linecap:butt;stroke-linejoin:miter;stroke-opacity:1" d="M 13.563,157.008 13.563,150.632 z" id="boundary" inkscape:connector-curvature="0" />
	<path style="fill:none;stroke:red;stroke-width:1px;stroke-linecap:butt;stroke-linejoin:miter;stroke-opacity:1" d="M 29.5013,88.1542 23.126,86.8792 z" id="boundary" inkscape:connector-curvature="0" />
	<path style="fill:none;stroke:red;stroke-width:1px;stroke-linecap:butt;stroke-linejoin:miter;stroke-opacity:1" d="M 105.368,83.6915 111.105,80.5039 z" id="boundary" inkscape:connector-curvature="0" />
	<path style="fill:none;stroke:red;stroke-width:1px;stroke-linecap:butt;stroke-linejoin:miter;stroke-opacity:1" d="M 129.594,83.6915 123.219,83.6915 z" id="boundary" inkscape:connector-curvature="0" />
	<path style="fill:none;stroke:red;stroke-width:1px;stroke-linecap:butt;stroke-linejoin:miter;stroke-opacity:1" d="M 98.9923,83.6915 105.368,83.6915 z" id="boundary" inkscape:connector-curvature="0" />
	<path style="fill:none;stroke:red;stroke-width:1px;stroke-linecap:butt;stroke-linejoin:miter;stroke-opacity:1" d="M 35.8766,90.0668 42.2519,90.0668 z" id="boundary" inkscape:connector-curvature="0" />
	<path style="fill:none;stroke:red;stroke-width:1px;stroke-linecap:butt;stroke-linejoin:miter;stroke-opacity:1" d="M 16.7506,88.7918 23.126,86.8792 z" id="boundary" inkscape:connector-curvature="0" />
	<path style="fill:none;stroke:red;stroke-width:1px;stroke-linecap:butt;stroke-linejoin:miter;stroke-opacity:1" d="M 29.5013,88.1542 35.8766,90.0668 z" id="boundary" inkscape:connector-curvature="0" />
	<path style="fill:none;stroke:red;stroke-width:1px;stroke-linecap:butt;stroke-linejoin:miter;stroke-opacity:1" d="M 48.6272,88.7918 42.2519,90.0668 z" id="boundary" inkscape:connector-curvature="0" />
	<path style="fill:none;stroke:red;stroke-width:1px;stroke-linecap:butt;stroke-linejoin:miter;stroke-opacity:1" d="M 13.563,157.008 10.3753,165.296 z" id="boundary" inkscape:connector-curvature="0" />
	<path style="fill:none;stroke:red;stroke-width:1px;stroke-linecap:butt;stroke-linejoin:miter;stroke-opacity:1" d="M 218.848,71.5784 225.224,70.9409 z" id="boundary" inkscape:connector-curvature="0" />
	<path style="fill:none;stroke:red;stroke-width:1px;stroke-linecap:butt;stroke-linejoin:miter;stroke-opacity:1" d="M 348.905,7.18766 355.28,7.18766 z" id="boundary" inkscape:connector-curvature="0" />
	<path style="fill:none;stroke:red;stroke-width:1px;stroke-linecap:butt;stroke-linejoin:miter;stroke-opacity:1" d="M 343.167,10.3753 348.905,7.18766 z" id="boundary" inkscape:connector-curvature="0" />
	<path style="fill:none;stroke:red;stroke-width:1px;stroke-linecap:butt;stroke-linejoin:miter;stroke-opacity:1" d="M 368.031,7.18766 361.656,7.18766 z" id="boundary" inkscape:connector-curvature="0" />
	<path style="fill:none;stroke:red;stroke-width:1px;stroke-linecap:butt;stroke-linejoin:miter;stroke-opacity:1" d="M 373.769,4 368.031,7.18766 z" id="boundary" inkscape:connector-curvature="0" />
	<path style="fill:none;stroke:red;stroke-width:1px;stroke-linecap:butt;stroke-linejoin:miter;stroke-opacity:1" d="M 361.656,7.18766 355.28,7.18766 z" id="boundary" inkscape:connector-curvature="0" />
	<path style="fill:none;stroke:red;stroke-width:1px;stroke-linecap:butt;stroke-linejoin:miter;stroke-opacity:1" d="M 373.769,4 380.144,4 z" id="boundary" inkscape:connector-curvature="0" />
	<path style="fill:none;stroke:red;stroke-width:1px;stroke-linecap:butt;stroke-linejoin:miter;stroke-opacity:1" d="M 330.416,10.3753 324.679,13.563 z" id="boundary" inkscape:connector-curvature="0" />
	<path style="fill:none;stroke:red;stroke-width:1px;stroke-linecap:butt;stroke-linejoin:miter;stroke-opacity:1" d="M 324.679,13.563 318.303,13.563 z" id="boundary" inkscape:connector-curvature="0" />
	<path style="fill:none;stroke:red;stroke-width:1px;stroke-linecap:butt;stroke-linejoin:miter;stroke-opacity:1" d="M 330.416,10.3753 336.792,10.3753 z" id="boundary" inkscape:connector-curvature="0" />
	<path style="fill:none;stroke:red;stroke-width:1px;stroke-linecap:butt;stroke-linejoin:miter;stroke-opacity:1" d="M 312.566,16.7506 318.303,13.563 z" id="boundary" inkscape:connector-curvature="0" />
	<path style="fill:none;stroke:red;stroke-width:1px;stroke-linecap:butt;stroke-linejoin:miter;stroke-opacity:1" d="M 343.167,10.3753 336.792,10.3753 z" id="boundary" inkscape:connector-curvature="0" />
	<path style="fill:none;stroke:red;stroke-width:1px;stroke-linecap:butt;stroke-linejoin:miter;stroke-opacity:1" d="M 380.144,4 386.519,4 z" id="boundary" inkscape:connector-curvature="0" />
	<path style="fill:none;stroke:red;stroke-width:1px;stroke-linecap:butt;stroke-linejoin:miter;stroke-opacity:1" d="M 386.519,4 392.895,4 z" id="boundary" inkscape:connector-curvature="0" />
	<path style="fill:none;stroke:red;stroke-width:1px;stroke-linecap:butt;stroke-linejoin:miter;stroke-opacity:1" d="M 392.895,4 399.27,5.27506 z" id="boundary" inkscape:connector-curvature="0" />
	<path style="fill:none;stroke:red;stroke-width:1px;stroke-linecap:butt;stroke-linejoin:miter;stroke-opacity:1" d="M 412.021,7.18766 405.645,7.18766 z" id="boundary" inkscape:connector-curvature="0" />
	<path style="fill:none;stroke:red;stroke-width:1px;stroke-linecap:butt;stroke-linejoin:miter;stroke-opacity:1" d="M 405.645,7.18766 399.27,5.27506 z" id="boundary" inkscape:connector-curvature="0" />
	<path style="fill:none;stroke:red;stroke-width:1px;stroke-linecap:butt;stroke-linejoin:miter;stroke-opacity:1" d="M 418.396,7.18766 412.021,7.18766 z" id="boundary" inkscape:connector-curvature="0" />
	<path style="fill:none;stroke:red;stroke-width:1px;stroke-linecap:butt;stroke-linejoin:miter;stroke-opacity:1" d="M 418.396,7.18766 424.771,7.18766 z" id="boundary" inkscape:connector-curvature="0" />
	<path style="fill:none;stroke:red;stroke-width:1px;stroke-linecap:butt;stroke-linejoin:miter;stroke-opacity:1" d="M 424.771,7.18766 430.509,10.3753 z" id="boundary" inkscape:connector-curvature="0" />
	<path style="fill:none;stroke:red;stroke-width:1px;stroke-linecap:butt;stroke-linejoin:miter;stroke-opacity:1" d="M 436.884,10.3753 430.509,10.3753 z" id="boundary" inkscape:connector-curvature="0" />
	<path style="fill:none;stroke:red;stroke-width:1px;stroke-linecap:butt;stroke-linejoin:miter;stroke-opacity:1" d="M 436.884,10.3753 443.26,11.0129 z" id="boundary" inkscape:connector-curvature="0" />
	<path style="fill:none;stroke:red;stroke-width:1px;stroke-linecap:butt;stroke-linejoin:miter;stroke-opacity:1" d="M 443.26,11.0129 449.635,13.563 z" id="boundary" inkscape:connector-curvature="0" />
	<path style="fill:none;stroke:red;stroke-width:1px;stroke-linecap:butt;stroke-linejoin:miter;stroke-opacity:1" d="M 449.635,13.563 455.373,16.7506 z" id="boundary" inkscape:connector-curvature="0" />
	<path style="fill:none;stroke:red;stroke-width:1px;stroke-linecap:butt;stroke-linejoin:miter;stroke-opacity:1" d="M 260.288,45.4396 266.663,42.8895 z" id="boundary" inkscape:connector-curvature="0" />
	<path style="fill:none;stroke:red;stroke-width:1px;stroke-linecap:butt;stroke-linejoin:miter;stroke-opacity:1" d="M 271.763,39.0643 266.663,42.8895 z" id="boundary" inkscape:connector-curvature="0" />
	<path style="fill:none;stroke:red;stroke-width:1px;stroke-linecap:butt;stroke-linejoin:miter;stroke-opacity:1" d="M 271.763,39.0643 277.501,35.8766 z" id="boundary" inkscape:connector-curvature="0" />
	<path style="fill:none;stroke:red;stroke-width:1px;stroke-linecap:butt;stroke-linejoin:miter;stroke-opacity:1" d="M 283.239,32.6889 277.501,35.8766 z" id="boundary" inkscape:connector-curvature="0" />
	<path style="fill:none;stroke:red;stroke-width:1px;stroke-linecap:butt;stroke-linejoin:miter;stroke-opacity:1" d="M 243.075,60.1028 237.974,65.2031 z" id="boundary" inkscape:connector-curvature="0" />
	<path style="fill:none;stroke:red;stroke-width:1px;stroke-linecap:butt;stroke-linejoin:miter;stroke-opacity:1" d="M 237.974,65.2031 231.599,68.3907 z" id="boundary" inkscape:connector-curvature="0" />
	<path style="fill:none;stroke:red;stroke-width:1px;stroke-linecap:butt;stroke-linejoin:miter;stroke-opacity:1" d="M 231.599,68.3907 225.224,70.9409 z" id="boundary" inkscape:connector-curvature="0" />
	<path style="fill:none;stroke:red;stroke-width:1px;stroke-linecap:butt;stroke-linejoin:miter;stroke-opacity:1" d="M 243.075,60.1028 249.45,53.7275 z" id="boundary" inkscape:connector-curvature="0" />
	<path style="fill:none;stroke:red;stroke-width:1px;stroke-linecap:butt;stroke-linejoin:miter;stroke-opacity:1" d="M 249.45,53.7275 254.55,48.6272 z" id="boundary" inkscape:connector-curvature="0" />
	<path style="fill:none;stroke:red;stroke-width:1px;stroke-linecap:butt;stroke-linejoin:miter;stroke-opacity:1" d="M 254.55,48.6272 260.288,45.4396 z" id="boundary" inkscape:connector-curvature="0" />
	<path style="fill:none;stroke:red;stroke-width:1px;stroke-linecap:butt;stroke-linejoin:miter;stroke-opacity:1" d="M 306.828,19.9383 312.566,16.7506 z" id="boundary" inkscape:connector-curvature="0" />
	<path style="fill:none;stroke:red;stroke-width:1px;stroke-linecap:butt;stroke-linejoin:miter;stroke-opacity:1" d="M 306.828,19.9383 300.452,21.8509 z" id="boundary" inkscape:connector-curvature="0" />
	<path style="fill:none;stroke:red;stroke-width:1px;stroke-linecap:butt;stroke-linejoin:miter;stroke-opacity:1" d="M 473.861,19.9383 467.486,19.9383 z" id="boundary" inkscape:connector-curvature="0" />
	<path style="fill:none;stroke:red;stroke-width:1px;stroke-linecap:butt;stroke-linejoin:miter;stroke-opacity:1" d="M 467.486,19.9383 461.748,16.7506 z" id="boundary" inkscape:connector-curvature="0" />
	<path style="fill:none;stroke:red;stroke-width:1px;stroke-linecap:butt;stroke-linejoin:miter;stroke-opacity:1" d="M 473.861,19.9383 479.599,23.126 z" id="boundary" inkscape:connector-curvature="0" />
	<path style="fill:none;stroke:red;stroke-width:1px;stroke-linecap:butt;stroke-linejoin:miter;stroke-opacity:1" d="M 455.373,16.7506 461.748,16.7506 z" id="boundary" inkscape:connector-curvature="0" />
	<path style="fill:none;stroke:red;stroke-width:1px;stroke-linecap:butt;stroke-linejoin:miter;stroke-opacity:1" d="M 300.452,21.8509 294.715,26.3136 z" id="boundary" inkscape:connector-curvature="0" />
	<path style="fill:none;stroke:red;stroke-width:1px;stroke-linecap:butt;stroke-linejoin:miter;stroke-opacity:1" d="M 294.715,26.3136 288.977,29.5013 z" id="boundary" inkscape:connector-curvature="0" />
	<path style="fill:none;stroke:red;stroke-width:1px;stroke-linecap:butt;stroke-linejoin:miter;stroke-opacity:1" d="M 288.977,29.5013 283.239,32.6889 z" id="boundary" inkscape:connector-curvature="0" />
	<path style="fill:none;stroke:red;stroke-width:1px;stroke-linecap:butt;stroke-linejoin:miter;stroke-opacity:1" d="M 485.337,26.3136 490.437,30.1388 z" id="boundary" inkscape:connector-curvature="0" />
	<path style="fill:none;stroke:red;stroke-width:1px;stroke-linecap:butt;stroke-linejoin:miter;stroke-opacity:1" d="M 485.337,26.3136 479.599,23.126 z" id="boundary" inkscape:connector-curvature="0" />
	<path style="fill:none;stroke:red;stroke-width:1px;stroke-linecap:butt;stroke-linejoin:miter;stroke-opacity:1" d="M 496.812,32.6889 490.437,30.1388 z" id="boundary" inkscape:connector-curvature="0" />
	<path style="fill:none;stroke:red;stroke-width:1px;stroke-linecap:butt;stroke-linejoin:miter;stroke-opacity:1" d="M 10.3753,165.296 13.563,171.033 z" id="boundary" inkscape:connector-curvature="0" />
	<path style="fill:none;stroke:red;stroke-width:1px;stroke-linecap:butt;stroke-linejoin:miter;stroke-opacity:1" d="M 13.563,171.033 13.563,177.409 z" id="boundary" inkscape:connector-curvature="0" />
	<path style="fill:none;stroke:red;stroke-width:1px;stroke-linecap:butt;stroke-linejoin:miter;stroke-opacity:1" d="M 13.563,177.409 16.7506,183.147 z" id="boundary" inkscape:connector-curvature="0" />
	<path style="fill:none;stroke:red;stroke-width:1px;stroke-linecap:butt;stroke-linejoin:miter;stroke-opacity:1" d="M 16.7506,183.147 16.7506,189.522 z" id="boundary" inkscape:connector-curvature="0" />
	<path style="fill:none;stroke:red;stroke-width:1px;stroke-linecap:butt;stroke-linejoin:miter;stroke-opacity:1" d="M 16.7506,189.522 16.7506,195.897 z" id="boundary" inkscape:connector-curvature="0" />
	<path style="fill:none;stroke:red;stroke-width:1px;stroke-linecap:butt;stroke-linejoin:miter;stroke-opacity:1" d="M 16.7506,195.897 18.6632,202.272 z" id="boundary" inkscape:connector-curvature="0" />
	<path style="fill:none;stroke:red;stroke-width:1px;stroke-linecap:butt;stroke-linejoin:miter;stroke-opacity:1" d="M 16.7506,219.486 16.7506,213.111 z" id="boundary" inkscape:connector-curvature="0" />
	<path style="fill:none;stroke:red;stroke-width:1px;stroke-linecap:butt;stroke-linejoin:miter;stroke-opacity:1" d="M 16.7506,213.111 23.126,207.373 z" id="boundary" inkscape:connector-curvature="0" />
	<path style="fill:none;stroke:red;stroke-width:1px;stroke-linecap:butt;stroke-linejoin:miter;stroke-opacity:1" d="M 16.7506,225.861 16.7506,219.486 z" id="boundary" inkscape:connector-curvature="0" />
	<path style="fill:none;stroke:red;stroke-width:1px;stroke-linecap:butt;stroke-linejoin:miter;stroke-opacity:1" d="M 18.6632,202.272 23.126,207.373 z" id="boundary" inkscape:connector-curvature="0" />
	<path style="fill:none;stroke:red;stroke-width:1px;stroke-linecap:butt;stroke-linejoin:miter;stroke-opacity:1" d="M 16.7506,225.861 16.7506,232.237 z" id="boundary" inkscape:connector-curvature="0" />
	<path style="fill:none;stroke:red;stroke-width:1px;stroke-linecap:butt;stroke-linejoin:miter;stroke-opacity:1" d="M 140.432,229.686 146.807,227.774 z" id="boundary" inkscape:connector-curvature="0" />
	<path style="fill:none;stroke:red;stroke-width:1px;stroke-linecap:butt;stroke-linejoin:miter;stroke-opacity:1" d="M 184.422,227.774 190.797,227.774 z" id="boundary" inkscape:connector-curvature="0" />
	<path style="fill:none;stroke:red;stroke-width:1px;stroke-linecap:butt;stroke-linejoin:miter;stroke-opacity:1" d="M 178.046,230.324 184.422,227.774 z" id="boundary" inkscape:connector-curvature="0" />
	<path style="fill:none;stroke:red;stroke-width:1px;stroke-linecap:butt;stroke-linejoin:miter;stroke-opacity:1" d="M 190.797,227.774 197.172,227.774 z" id="boundary" inkscape:connector-curvature="0" />
	<path style="fill:none;stroke:red;stroke-width:1px;stroke-linecap:butt;stroke-linejoin:miter;stroke-opacity:1" d="M 153.183,227.774 146.807,227.774 z" id="boundary" inkscape:connector-curvature="0" />
	<path style="fill:none;stroke:red;stroke-width:1px;stroke-linecap:butt;stroke-linejoin:miter;stroke-opacity:1" d="M 153.183,227.774 158.92,230.961 z" id="boundary" inkscape:connector-curvature="0" />
	<path style="fill:none;stroke:red;stroke-width:1px;stroke-linecap:butt;stroke-linejoin:miter;stroke-opacity:1" d="M 197.172,227.774 203.548,227.774 z" id="boundary" inkscape:connector-curvature="0" />
	<path style="fill:none;stroke:red;stroke-width:1px;stroke-linecap:butt;stroke-linejoin:miter;stroke-opacity:1" d="M 178.046,230.324 171.671,230.961 z" id="boundary" inkscape:connector-curvature="0" />
	<path style="fill:none;stroke:red;stroke-width:1px;stroke-linecap:butt;stroke-linejoin:miter;stroke-opacity:1" d="M 203.548,227.774 209.923,227.774 z" id="boundary" inkscape:connector-curvature="0" />
	<path style="fill:none;stroke:red;stroke-width:1px;stroke-linecap:butt;stroke-linejoin:miter;stroke-opacity:1" d="M 216.298,227.774 209.923,227.774 z" id="boundary" inkscape:connector-curvature="0" />
	<path style="fill:none;stroke:red;stroke-width:1px;stroke-linecap:butt;stroke-linejoin:miter;stroke-opacity:1" d="M 222.674,227.774 216.298,227.774 z" id="boundary" inkscape:connector-curvature="0" />
	<path style="fill:none;stroke:red;stroke-width:1px;stroke-linecap:butt;stroke-linejoin:miter;stroke-opacity:1" d="M 16.7506,232.237 23.126,234.149 z" id="boundary" inkscape:connector-curvature="0" />
	<path style="fill:none;stroke:red;stroke-width:1px;stroke-linecap:butt;stroke-linejoin:miter;stroke-opacity:1" d="M 23.126,234.149 26.9512,239.249 z" id="boundary" inkscape:connector-curvature="0" />
	<path style="fill:none;stroke:red;stroke-width:1px;stroke-linecap:butt;stroke-linejoin:miter;stroke-opacity:1" d="M 58.1902,234.149 64.5656,234.149 z" id="boundary" inkscape:connector-curvature="0" />
	<path style="fill:none;stroke:red;stroke-width:1px;stroke-linecap:butt;stroke-linejoin:miter;stroke-opacity:1" d="M 51.8149,235.424 58.1902,234.149 z" id="boundary" inkscape:connector-curvature="0" />
	<path style="fill:none;stroke:red;stroke-width:1px;stroke-linecap:butt;stroke-linejoin:miter;stroke-opacity:1" d="M 70.9409,234.149 64.5656,234.149 z" id="boundary" inkscape:connector-curvature="0" />
	<path style="fill:none;stroke:red;stroke-width:1px;stroke-linecap:butt;stroke-linejoin:miter;stroke-opacity:1" d="M 70.9409,234.149 76.6787,237.337 z" id="boundary" inkscape:connector-curvature="0" />
	<path style="fill:none;stroke:red;stroke-width:1px;stroke-linecap:butt;stroke-linejoin:miter;stroke-opacity:1" d="M 51.8149,235.424 45.4396,237.337 z" id="boundary" inkscape:connector-curvature="0" />
	<path style="fill:none;stroke:red;stroke-width:1px;stroke-linecap:butt;stroke-linejoin:miter;stroke-opacity:1" d="M 33.3265,240.524 26.9512,239.249 z" id="boundary" inkscape:connector-curvature="0" />
	<path style="fill:none;stroke:red;stroke-width:1px;stroke-linecap:butt;stroke-linejoin:miter;stroke-opacity:1" d="M 39.0643,237.337 33.3265,240.524 z" id="boundary" inkscape:connector-curvature="0" />
	<path style="fill:none;stroke:red;stroke-width:1px;stroke-linecap:butt;stroke-linejoin:miter;stroke-opacity:1" d="M 39.0643,237.337 45.4396,237.337 z" id="boundary" inkscape:connector-curvature="0" />
	<path style="fill:none;stroke:red;stroke-width:1px;stroke-linecap:butt;stroke-linejoin:miter;stroke-opacity:1" d="M 83.054,236.062 76.6787,237.337 z" id="boundary" inkscape:connector-curvature="0" />
	<path style="fill:none;stroke:red;stroke-width:1px;stroke-linecap:butt;stroke-linejoin:miter;stroke-opacity:1" d="M 121.306,232.874 127.681,230.961 z" id="boundary" inkscape:connector-curvature="0" />
	<path style="fill:none;stroke:red;stroke-width:1px;stroke-linecap:butt;stroke-linejoin:miter;stroke-opacity:1" d="M 127.681,230.961 134.057,230.961 z" id="boundary" inkscape:connector-curvature="0" />
	<path style="fill:none;stroke:red;stroke-width:1px;stroke-linecap:butt;stroke-linejoin:miter;stroke-opacity:1" d="M 140.432,229.686 134.057,230.961 z" id="boundary" inkscape:connector-curvature="0" />
	<path style="fill:none;stroke:red;stroke-width:1px;stroke-linecap:butt;stroke-linejoin:miter;stroke-opacity:1" d="M 114.931,234.149 121.306,232.874 z" id="boundary" inkscape:connector-curvature="0" />
	<path style="fill:none;stroke:red;stroke-width:1px;stroke-linecap:butt;stroke-linejoin:miter;stroke-opacity:1" d="M 165.296,230.961 158.92,230.961 z" id="boundary" inkscape:connector-curvature="0" />
	<path style="fill:none;stroke:red;stroke-width:1px;stroke-linecap:butt;stroke-linejoin:miter;stroke-opacity:1" d="M 171.671,230.961 165.296,230.961 z" id="boundary" inkscape:connector-curvature="0" />
	<path style="fill:none;stroke:red;stroke-width:1px;stroke-linecap:butt;stroke-linejoin:miter;stroke-opacity:1" d="M 83.054,236.062 89.4293,234.149 z" id="boundary" inkscape:connector-curvature="0" />
	<path style="fill:none;stroke:red;stroke-width:1px;stroke-linecap:butt;stroke-linejoin:miter;stroke-opacity:1" d="M 89.4293,234.149 95.8046,234.149 z" id="boundary" inkscape:connector-curvature="0" />
	<path style="fill:none;stroke:red;stroke-width:1px;stroke-linecap:butt;stroke-linejoin:miter;stroke-opacity:1" d="M 95.8046,234.149 102.18,234.149 z" id="boundary" inkscape:connector-curvature="0" />
	<path style="fill:none;stroke:red;stroke-width:1px;stroke-linecap:butt;stroke-linejoin:miter;stroke-opacity:1" d="M 102.18,234.149 108.555,234.149 z" id="boundary" inkscape:connector-curvature="0" />
	<path style="fill:none;stroke:red;stroke-width:1px;stroke-linecap:butt;stroke-linejoin:miter;stroke-opacity:1" d="M 114.931,234.149 108.555,234.149 z" id="boundary" inkscape:connector-curvature="0" />
	<path style="fill:none;stroke:red;stroke-width:1px;stroke-linecap:butt;stroke-linejoin:miter;stroke-opacity:1" d="M 222.674,227.774 229.049,230.324 z" id="boundary" inkscape:connector-curvature="0" />
	<path style="fill:none;stroke:red;stroke-width:1px;stroke-linecap:butt;stroke-linejoin:miter;stroke-opacity:1" d="M 229.049,230.324 235.424,230.961 z" id="boundary" inkscape:connector-curvature="0" />
	<path style="fill:none;stroke:red;stroke-width:1px;stroke-linecap:butt;stroke-linejoin:miter;stroke-opacity:1" d="M 241.799,230.961 248.175,230.961 z" id="boundary" inkscape:connector-curvature="0" />
	<path style="fill:none;stroke:red;stroke-width:1px;stroke-linecap:butt;stroke-linejoin:miter;stroke-opacity:1" d="M 248.175,230.961 253.275,235.424 z" id="boundary" inkscape:connector-curvature="0" />
	<path style="fill:none;stroke:red;stroke-width:1px;stroke-linecap:butt;stroke-linejoin:miter;stroke-opacity:1" d="M 241.799,230.961 235.424,230.961 z" id="boundary" inkscape:connector-curvature="0" />
	<path style="fill:none;stroke:red;stroke-width:1px;stroke-linecap:butt;stroke-linejoin:miter;stroke-opacity:1" d="M 259.65,237.337 253.275,235.424 z" id="boundary" inkscape:connector-curvature="0" />
	<path style="fill:none;stroke:red;stroke-width:1px;stroke-linecap:butt;stroke-linejoin:miter;stroke-opacity:1" d="M 259.65,237.337 265.388,240.524 z" id="boundary" inkscape:connector-curvature="0" />
	<path style="fill:none;stroke:red;stroke-width:1px;stroke-linecap:butt;stroke-linejoin:miter;stroke-opacity:1" d="M 265.388,240.524 269.213,245.625 z" id="boundary" inkscape:connector-curvature="0" />
	<path style="fill:none;stroke:red;stroke-width:1px;stroke-linecap:butt;stroke-linejoin:miter;stroke-opacity:1" d="M 275.589,248.175 269.213,245.625 z" id="boundary" inkscape:connector-curvature="0" />
	<path style="fill:none;stroke:red;stroke-width:1px;stroke-linecap:butt;stroke-linejoin:miter;stroke-opacity:1" d="M 275.589,248.175 281.964,250.087 z" id="boundary" inkscape:connector-curvature="0" />
	<path style="fill:none;stroke:red;stroke-width:1px;stroke-linecap:butt;stroke-linejoin:miter;stroke-opacity:1" d="M 281.964,250.087 287.702,253.275 z" id="boundary" inkscape:connector-curvature="0" />
	<path style="fill:none;stroke:red;stroke-width:1px;stroke-linecap:butt;stroke-linejoin:miter;stroke-opacity:1" d="M 287.702,253.275 293.44,256.463 z" id="boundary" inkscape:connector-curvature="0" />
	<path style="fill:none;stroke:red;stroke-width:1px;stroke-linecap:butt;stroke-linejoin:miter;stroke-opacity:1" d="M 484.062,253.275 478.961,257.738 z" id="boundary" inkscape:connector-curvature="0" />
	<path style="fill:none;stroke:red;stroke-width:1px;stroke-linecap:butt;stroke-linejoin:miter;stroke-opacity:1" d="M 478.961,257.738 472.586,259.65 z" id="boundary" inkscape:connector-curvature="0" />
	<path style="fill:none;stroke:red;stroke-width:1px;stroke-linecap:butt;stroke-linejoin:miter;stroke-opacity:1" d="M 495.537,246.9 490.437,252.638 z" id="boundary" inkscape:connector-curvature="0" />
	<path style="fill:none;stroke:red;stroke-width:1px;stroke-linecap:butt;stroke-linejoin:miter;stroke-opacity:1" d="M 490.437,252.638 484.062,253.275 z" id="boundary" inkscape:connector-curvature="0" />
	<path style="fill:none;stroke:red;stroke-width:1px;stroke-linecap:butt;stroke-linejoin:miter;stroke-opacity:1" d="M 495.537,246.9 501.913,243.712 z" id="boundary" inkscape:connector-curvature="0" />
	<path style="fill:none;stroke:red;stroke-width:1px;stroke-linecap:butt;stroke-linejoin:miter;stroke-opacity:1" d="M 311.29,264.751 304.915,262.838 z" id="boundary" inkscape:connector-curvature="0" />
	<path style="fill:none;stroke:red;stroke-width:1px;stroke-linecap:butt;stroke-linejoin:miter;stroke-opacity:1" d="M 304.915,262.838 299.177,259.65 z" id="boundary" inkscape:connector-curvature="0" />
	<path style="fill:none;stroke:red;stroke-width:1px;stroke-linecap:butt;stroke-linejoin:miter;stroke-opacity:1" d="M 317.666,266.026 311.29,264.751 z" id="boundary" inkscape:connector-curvature="0" />
	<path style="fill:none;stroke:red;stroke-width:1px;stroke-linecap:butt;stroke-linejoin:miter;stroke-opacity:1" d="M 472.586,259.65 466.848,262.838 z" id="boundary" inkscape:connector-curvature="0" />
	<path style="fill:none;stroke:red;stroke-width:1px;stroke-linecap:butt;stroke-linejoin:miter;stroke-opacity:1" d="M 466.848,262.838 460.473,262.838 z" id="boundary" inkscape:connector-curvature="0" />
	<path style="fill:none;stroke:red;stroke-width:1px;stroke-linecap:butt;stroke-linejoin:miter;stroke-opacity:1" d="M 299.177,259.65 293.44,256.463 z" id="boundary" inkscape:connector-curvature="0" />
	<path style="fill:none;stroke:red;stroke-width:1px;stroke-linecap:butt;stroke-linejoin:miter;stroke-opacity:1" d="M 454.098,266.026 460.473,262.838 z" id="boundary" inkscape:connector-curvature="0" />
	<path style="fill:none;stroke:red;stroke-width:1px;stroke-linecap:butt;stroke-linejoin:miter;stroke-opacity:1" d="M 324.041,267.938 317.666,266.026 z" id="boundary" inkscape:connector-curvature="0" />
	<path style="fill:none;stroke:red;stroke-width:1px;stroke-linecap:butt;stroke-linejoin:miter;stroke-opacity:1" d="M 330.416,269.213 324.041,267.938 z" id="boundary" inkscape:connector-curvature="0" />
	<path style="fill:none;stroke:red;stroke-width:1px;stroke-linecap:butt;stroke-linejoin:miter;stroke-opacity:1" d="M 342.53,272.401 336.154,272.401 z" id="boundary" inkscape:connector-curvature="0" />
	<path style="fill:none;stroke:red;stroke-width:1px;stroke-linecap:butt;stroke-linejoin:miter;stroke-opacity:1" d="M 336.154,272.401 330.416,269.213 z" id="boundary" inkscape:connector-curvature="0" />
	<path style="fill:none;stroke:red;stroke-width:1px;stroke-linecap:butt;stroke-linejoin:miter;stroke-opacity:1" d="M 342.53,272.401 348.905,273.676 z" id="boundary" inkscape:connector-curvature="0" />
	<path style="fill:none;stroke:red;stroke-width:1px;stroke-linecap:butt;stroke-linejoin:miter;stroke-opacity:1" d="M 361.656,275.589 355.28,275.589 z" id="boundary" inkscape:connector-curvature="0" />
	<path style="fill:none;stroke:red;stroke-width:1px;stroke-linecap:butt;stroke-linejoin:miter;stroke-opacity:1" d="M 355.28,275.589 348.905,273.676 z" id="boundary" inkscape:connector-curvature="0" />
	<path style="fill:none;stroke:red;stroke-width:1px;stroke-linecap:butt;stroke-linejoin:miter;stroke-opacity:1" d="M 368.031,275.589 361.656,275.589 z" id="boundary" inkscape:connector-curvature="0" />
	<path style="fill:none;stroke:red;stroke-width:1px;stroke-linecap:butt;stroke-linejoin:miter;stroke-opacity:1" d="M 368.031,275.589 374.406,275.589 z" id="boundary" inkscape:connector-curvature="0" />
	<path style="fill:none;stroke:red;stroke-width:1px;stroke-linecap:butt;stroke-linejoin:miter;stroke-opacity:1" d="M 374.406,275.589 380.781,275.589 z" id="boundary" inkscape:connector-curvature="0" />
	<path style="fill:none;stroke:red;stroke-width:1px;stroke-linecap:butt;stroke-linejoin:miter;stroke-opacity:1" d="M 380.781,275.589 386.519,278.776 z" id="boundary" inkscape:connector-curvature="0" />
	<path style="fill:none;stroke:red;stroke-width:1px;stroke-linecap:butt;stroke-linejoin:miter;stroke-opacity:1" d="M 422.221,272.401 428.596,272.401 z" id="boundary" inkscape:connector-curvature="0" />
	<path style="fill:none;stroke:red;stroke-width:1px;stroke-linecap:butt;stroke-linejoin:miter;stroke-opacity:1" d="M 417.121,278.139 422.221,272.401 z" id="boundary" inkscape:connector-curvature="0" />
	<path style="fill:none;stroke:red;stroke-width:1px;stroke-linecap:butt;stroke-linejoin:miter;stroke-opacity:1" d="M 434.972,272.401 428.596,272.401 z" id="boundary" inkscape:connector-curvature="0" />
	<path style="fill:none;stroke:red;stroke-width:1px;stroke-linecap:butt;stroke-linejoin:miter;stroke-opacity:1" d="M 441.347,269.213 434.972,272.401 z" id="boundary" inkscape:connector-curvature="0" />
	<path style="fill:none;stroke:red;stroke-width:1px;stroke-linecap:butt;stroke-linejoin:miter;stroke-opacity:1" d="M 441.347,269.213 447.722,266.026 z" id="boundary" inkscape:connector-curvature="0" />
	<path style="fill:none;stroke:red;stroke-width:1px;stroke-linecap:butt;stroke-linejoin:miter;stroke-opacity:1" d="M 447.722,266.026 454.098,266.026 z" id="boundary" inkscape:connector-curvature="0" />
	<path style="fill:none;stroke:red;stroke-width:1px;stroke-linecap:butt;stroke-linejoin:miter;stroke-opacity:1" d="M 386.519,278.776 392.895,278.776 z" id="boundary" inkscape:connector-curvature="0" />
	<path style="fill:none;stroke:red;stroke-width:1px;stroke-linecap:butt;stroke-linejoin:miter;stroke-opacity:1" d="M 392.895,278.776 398.632,281.964 z" id="boundary" inkscape:connector-curvature="0" />
	<path style="fill:none;stroke:red;stroke-width:1px;stroke-linecap:butt;stroke-linejoin:miter;stroke-opacity:1" d="M 405.008,281.964 410.746,278.776 z" id="boundary" inkscape:connector-curvature="0" />
	<path style="fill:none;stroke:red;stroke-width:1px;stroke-linecap:butt;stroke-linejoin:miter;stroke-opacity:1" d="M 410.746,278.776 417.121,278.139 z" id="boundary" inkscape:connector-curvature="0" />
	<path style="fill:none;stroke:red;stroke-width:1px;stroke-linecap:butt;stroke-linejoin:miter;stroke-opacity:1" d="M 405.008,281.964 398.632,281.964 z" id="boundary" inkscape:connector-curvature="0" />
	<path style="fill:none;stroke:red;stroke-width:1px;stroke-linecap:butt;stroke-linejoin:miter;stroke-opacity:1" d="M 496.812,32.6889 502.55,35.8766 z" id="boundary" inkscape:connector-curvature="0" />
	<path style="fill:none;stroke:red;stroke-width:1px;stroke-linecap:butt;stroke-linejoin:miter;stroke-opacity:1" d="M 502.55,35.8766 507.65,40.3393 z" id="boundary" inkscape:connector-curvature="0" />
	<path style="fill:none;stroke:red;stroke-width:1px;stroke-linecap:butt;stroke-linejoin:miter;stroke-opacity:1" d="M 507.65,40.3393 513.388,43.527 z" id="boundary" inkscape:connector-curvature="0" />
	<path style="fill:none;stroke:red;stroke-width:1px;stroke-linecap:butt;stroke-linejoin:miter;stroke-opacity:1" d="M 513.388,43.527 517.851,48.6272 z" id="boundary" inkscape:connector-curvature="0" />
	<path style="fill:none;stroke:red;stroke-width:1px;stroke-linecap:butt;stroke-linejoin:miter;stroke-opacity:1" d="M 524.226,48.6272 517.851,48.6272 z" id="boundary" inkscape:connector-curvature="0" />
	<path style="fill:none;stroke:red;stroke-width:1px;stroke-linecap:butt;stroke-linejoin:miter;stroke-opacity:1" d="M 593.717,51.8149 587.342,51.8149 z" id="boundary" inkscape:connector-curvature="0" />
	<path style="fill:none;stroke:red;stroke-width:1px;stroke-linecap:butt;stroke-linejoin:miter;stroke-opacity:1" d="M 637.707,48.6272 644.082,48.6272 z" id="boundary" inkscape:connector-curvature="0" />
	<path style="fill:none;stroke:red;stroke-width:1px;stroke-linecap:butt;stroke-linejoin:miter;stroke-opacity:1" d="M 631.969,51.8149 637.707,48.6272 z" id="boundary" inkscape:connector-curvature="0" />
	<path style="fill:none;stroke:red;stroke-width:1px;stroke-linecap:butt;stroke-linejoin:miter;stroke-opacity:1" d="M 650.458,48.6272 656.833,48.6272 z" id="boundary" inkscape:connector-curvature="0" />
	<path style="fill:none;stroke:red;stroke-width:1px;stroke-linecap:butt;stroke-linejoin:miter;stroke-opacity:1" d="M 663.208,48.6272 656.833,48.6272 z" id="boundary" inkscape:connector-curvature="0" />
	<path style="fill:none;stroke:red;stroke-width:1px;stroke-linecap:butt;stroke-linejoin:miter;stroke-opacity:1" d="M 650.458,48.6272 644.082,48.6272 z" id="boundary" inkscape:connector-curvature="0" />
	<path style="fill:none;stroke:red;stroke-width:1px;stroke-linecap:butt;stroke-linejoin:miter;stroke-opacity:1" d="M 524.226,48.6272 529.964,51.8149 z" id="boundary" inkscape:connector-curvature="0" />
	<path style="fill:none;stroke:red;stroke-width:1px;stroke-linecap:butt;stroke-linejoin:miter;stroke-opacity:1" d="M 669.584,48.6272 663.208,48.6272 z" id="boundary" inkscape:connector-curvature="0" />
	<path style="fill:none;stroke:red;stroke-width:1px;stroke-linecap:butt;stroke-linejoin:miter;stroke-opacity:1" d="M 713.573,45.4396 707.198,45.4396 z" id="boundary" inkscape:connector-curvature="0" />
	<path style="fill:none;stroke:red;stroke-width:1px;stroke-linecap:butt;stroke-linejoin:miter;stroke-opacity:1" d="M 726.324,45.4396 719.949,45.4396 z" id="boundary" inkscape:connector-curvature="0" />
	<path style="fill:none;stroke:red;stroke-width:1px;stroke-linecap:butt;stroke-linejoin:miter;stroke-opacity:1" d="M 719.949,45.4396 713.573,45.4396 z" id="boundary" inkscape:connector-curvature="0" />
	<path style="fill:none;stroke:red;stroke-width:1px;stroke-linecap:butt;stroke-linejoin:miter;stroke-opacity:1" d="M 732.699,45.4396 726.324,45.4396 z" id="boundary" inkscape:connector-curvature="0" />
	<path style="fill:none;stroke:red;stroke-width:1px;stroke-linecap:butt;stroke-linejoin:miter;stroke-opacity:1" d="M 701.46,48.6272 707.198,45.4396 z" id="boundary" inkscape:connector-curvature="0" />
	<path style="fill:none;stroke:red;stroke-width:1px;stroke-linecap:butt;stroke-linejoin:miter;stroke-opacity:1" d="M 739.075,45.4396 732.699,45.4396 z" id="boundary" inkscape:connector-curvature="0" />
	<path style="fill:none;stroke:red;stroke-width:1px;stroke-linecap:butt;stroke-linejoin:miter;stroke-opacity:1" d="M 745.45,45.4396 739.075,45.4396 z" id="boundary" inkscape:connector-curvature="0" />
	<path style="fill:none;stroke:red;stroke-width:1px;stroke-linecap:butt;stroke-linejoin:miter;stroke-opacity:1" d="M 758.201,45.4396 751.825,45.4396 z" id="boundary" inkscape:connector-curvature="0" />
	<path style="fill:none;stroke:red;stroke-width:1px;stroke-linecap:butt;stroke-linejoin:miter;stroke-opacity:1" d="M 764.576,45.4396 758.201,45.4396 z" id="boundary" inkscape:connector-curvature="0" />
	<path style="fill:none;stroke:red;stroke-width:1px;stroke-linecap:butt;stroke-linejoin:miter;stroke-opacity:1" d="M 770.314,42.2519 764.576,45.4396 z" id="boundary" inkscape:connector-curvature="0" />
	<path style="fill:none;stroke:red;stroke-width:1px;stroke-linecap:butt;stroke-linejoin:miter;stroke-opacity:1" d="M 745.45,45.4396 751.825,45.4396 z" id="boundary" inkscape:connector-curvature="0" />
	<path style="fill:none;stroke:red;stroke-width:1px;stroke-linecap:butt;stroke-linejoin:miter;stroke-opacity:1" d="M 770.314,42.2519 776.689,42.2519 z" id="boundary" inkscape:connector-curvature="0" />
	<path style="fill:none;stroke:red;stroke-width:1px;stroke-linecap:butt;stroke-linejoin:miter;stroke-opacity:1" d="M 529.964,51.8149 536.339,51.8149 z" id="boundary" inkscape:connector-curvature="0" />
	<path style="fill:none;stroke:red;stroke-width:1px;stroke-linecap:butt;stroke-linejoin:miter;stroke-opacity:1" d="M 549.09,53.09 542.715,51.8149 z" id="boundary" inkscape:connector-curvature="0" />
	<path style="fill:none;stroke:red;stroke-width:1px;stroke-linecap:butt;stroke-linejoin:miter;stroke-opacity:1" d="M 574.591,51.8149 568.216,51.8149 z" id="boundary" inkscape:connector-curvature="0" />
	<path style="fill:none;stroke:red;stroke-width:1px;stroke-linecap:butt;stroke-linejoin:miter;stroke-opacity:1" d="M 561.841,53.7275 568.216,51.8149 z" id="boundary" inkscape:connector-curvature="0" />
	<path style="fill:none;stroke:red;stroke-width:1px;stroke-linecap:butt;stroke-linejoin:miter;stroke-opacity:1" d="M 542.715,51.8149 536.339,51.8149 z" id="boundary" inkscape:connector-curvature="0" />
	<path style="fill:none;stroke:red;stroke-width:1px;stroke-linecap:butt;stroke-linejoin:miter;stroke-opacity:1" d="M 561.841,53.7275 555.465,55.0026 z" id="boundary" inkscape:connector-curvature="0" />
	<path style="fill:none;stroke:red;stroke-width:1px;stroke-linecap:butt;stroke-linejoin:miter;stroke-opacity:1" d="M 555.465,55.0026 549.09,53.09 z" id="boundary" inkscape:connector-curvature="0" />
	<path style="fill:none;stroke:red;stroke-width:1px;stroke-linecap:butt;stroke-linejoin:miter;stroke-opacity:1" d="M 580.967,51.8149 574.591,51.8149 z" id="boundary" inkscape:connector-curvature="0" />
	<path style="fill:none;stroke:red;stroke-width:1px;stroke-linecap:butt;stroke-linejoin:miter;stroke-opacity:1" d="M 587.342,51.8149 580.967,51.8149 z" id="boundary" inkscape:connector-curvature="0" />
	<path style="fill:none;stroke:red;stroke-width:1px;stroke-linecap:butt;stroke-linejoin:miter;stroke-opacity:1" d="M 675.959,48.6272 669.584,48.6272 z" id="boundary" inkscape:connector-curvature="0" />
	<path style="fill:none;stroke:red;stroke-width:1px;stroke-linecap:butt;stroke-linejoin:miter;stroke-opacity:1" d="M 682.334,48.6272 675.959,48.6272 z" id="boundary" inkscape:connector-curvature="0" />
	<path style="fill:none;stroke:red;stroke-width:1px;stroke-linecap:butt;stroke-linejoin:miter;stroke-opacity:1" d="M 682.334,48.6272 688.71,48.6272 z" id="boundary" inkscape:connector-curvature="0" />
	<path style="fill:none;stroke:red;stroke-width:1px;stroke-linecap:butt;stroke-linejoin:miter;stroke-opacity:1" d="M 695.085,48.6272 688.71,48.6272 z" id="boundary" inkscape:connector-curvature="0" />
	<path style="fill:none;stroke:red;stroke-width:1px;stroke-linecap:butt;stroke-linejoin:miter;stroke-opacity:1" d="M 701.46,48.6272 695.085,48.6272 z" id="boundary" inkscape:connector-curvature="0" />
	<path style="fill:none;stroke:red;stroke-width:1px;stroke-linecap:butt;stroke-linejoin:miter;stroke-opacity:1" d="M 593.717,51.8149 600.093,51.8149 z" id="boundary" inkscape:connector-curvature="0" />
	<path style="fill:none;stroke:red;stroke-width:1px;stroke-linecap:butt;stroke-linejoin:miter;stroke-opacity:1" d="M 606.468,51.8149 600.093,51.8149 z" id="boundary" inkscape:connector-curvature="0" />
	<path style="fill:none;stroke:red;stroke-width:1px;stroke-linecap:butt;stroke-linejoin:miter;stroke-opacity:1" d="M 612.843,51.8149 606.468,51.8149 z" id="boundary" inkscape:connector-curvature="0" />
	<path style="fill:none;stroke:red;stroke-width:1px;stroke-linecap:butt;stroke-linejoin:miter;stroke-opacity:1" d="M 612.843,51.8149 619.219,51.8149 z" id="boundary" inkscape:connector-curvature="0" />
	<path style="fill:none;stroke:red;stroke-width:1px;stroke-linecap:butt;stroke-linejoin:miter;stroke-opacity:1" d="M 625.594,51.8149 619.219,51.8149 z" id="boundary" inkscape:connector-curvature="0" />
	<path style="fill:none;stroke:red;stroke-width:1px;stroke-linecap:butt;stroke-linejoin:miter;stroke-opacity:1" d="M 631.969,51.8149 625.594,51.8149 z" id="boundary" inkscape:connector-curvature="0" />
	<path style="fill:none;stroke:red;stroke-width:1px;stroke-linecap:butt;stroke-linejoin:miter;stroke-opacity:1" d="M 858.931,39.0643 852.555,39.0643 z" id="boundary" inkscape:connector-curvature="0" />
	<path style="fill:none;stroke:red;stroke-width:1px;stroke-linecap:butt;stroke-linejoin:miter;stroke-opacity:1" d="M 883.794,35.8766 877.419,35.8766 z" id="boundary" inkscape:connector-curvature="0" />
	<path style="fill:none;stroke:red;stroke-width:1px;stroke-linecap:butt;stroke-linejoin:miter;stroke-opacity:1" d="M 896.545,35.8766 890.17,35.8766 z" id="boundary" inkscape:connector-curvature="0" />
	<path style="fill:none;stroke:red;stroke-width:1px;stroke-linecap:butt;stroke-linejoin:miter;stroke-opacity:1" d="M 902.283,32.6889 896.545,35.8766 z" id="boundary" inkscape:connector-curvature="0" />
	<path style="fill:none;stroke:red;stroke-width:1px;stroke-linecap:butt;stroke-linejoin:miter;stroke-opacity:1" d="M 890.17,35.8766 883.794,35.8766 z" id="boundary" inkscape:connector-curvature="0" />
	<path style="fill:none;stroke:red;stroke-width:1px;stroke-linecap:butt;stroke-linejoin:miter;stroke-opacity:1" d="M 908.658,32.6889 902.283,32.6889 z" id="boundary" inkscape:connector-curvature="0" />
	<path style="fill:none;stroke:red;stroke-width:1px;stroke-linecap:butt;stroke-linejoin:miter;stroke-opacity:1" d="M 871.681,39.0643 877.419,35.8766 z" id="boundary" inkscape:connector-curvature="0" />
	<path style="fill:none;stroke:red;stroke-width:1px;stroke-linecap:butt;stroke-linejoin:miter;stroke-opacity:1" d="M 827.054,39.0643 833.429,39.0643 z" id="boundary" inkscape:connector-curvature="0" />
	<path style="fill:none;stroke:red;stroke-width:1px;stroke-linecap:butt;stroke-linejoin:miter;stroke-opacity:1" d="M 821.316,42.2519 827.054,39.0643 z" id="boundary" inkscape:connector-curvature="0" />
	<path style="fill:none;stroke:red;stroke-width:1px;stroke-linecap:butt;stroke-linejoin:miter;stroke-opacity:1" d="M 839.805,39.0643 833.429,39.0643 z" id="boundary" inkscape:connector-curvature="0" />
	<path style="fill:none;stroke:red;stroke-width:1px;stroke-linecap:butt;stroke-linejoin:miter;stroke-opacity:1" d="M 852.555,39.0643 846.18,39.0643 z" id="boundary" inkscape:connector-curvature="0" />
	<path style="fill:none;stroke:red;stroke-width:1px;stroke-linecap:butt;stroke-linejoin:miter;stroke-opacity:1" d="M 846.18,39.0643 839.805,39.0643 z" id="boundary" inkscape:connector-curvature="0" />
	<path style="fill:none;stroke:red;stroke-width:1px;stroke-linecap:butt;stroke-linejoin:miter;stroke-opacity:1" d="M 908.658,32.6889 915.033,32.6889 z" id="boundary" inkscape:connector-curvature="0" />
	<path style="fill:none;stroke:red;stroke-width:1px;stroke-linecap:butt;stroke-linejoin:miter;stroke-opacity:1" d="M 915.033,32.6889 921.409,32.6889 z" id="boundary" inkscape:connector-curvature="0" />
	<path style="fill:none;stroke:red;stroke-width:1px;stroke-linecap:butt;stroke-linejoin:miter;stroke-opacity:1" d="M 927.784,32.6889 934.159,32.6889 z" id="boundary" inkscape:connector-curvature="0" />
	<path style="fill:none;stroke:red;stroke-width:1px;stroke-linecap:butt;stroke-linejoin:miter;stroke-opacity:1" d="M 940.535,32.6889 934.159,32.6889 z" id="boundary" inkscape:connector-curvature="0" />
	<path style="fill:none;stroke:red;stroke-width:1px;stroke-linecap:butt;stroke-linejoin:miter;stroke-opacity:1" d="M 940.535,32.6889 946.272,35.8766 z" id="boundary" inkscape:connector-curvature="0" />
	<path style="fill:none;stroke:red;stroke-width:1px;stroke-linecap:butt;stroke-linejoin:miter;stroke-opacity:1" d="M 927.784,32.6889 921.409,32.6889 z" id="boundary" inkscape:connector-curvature="0" />
	<path style="fill:none;stroke:red;stroke-width:1px;stroke-linecap:butt;stroke-linejoin:miter;stroke-opacity:1" d="M 952.648,35.8766 946.272,35.8766 z" id="boundary" inkscape:connector-curvature="0" />
	<path style="fill:none;stroke:red;stroke-width:1px;stroke-linecap:butt;stroke-linejoin:miter;stroke-opacity:1" d="M 959.023,35.8766 952.648,35.8766 z" id="boundary" inkscape:connector-curvature="0" />
	<path style="fill:none;stroke:red;stroke-width:1px;stroke-linecap:butt;stroke-linejoin:miter;stroke-opacity:1" d="M 959.023,35.8766 965.398,35.8766 z" id="boundary" inkscape:connector-curvature="0" />
	<path style="fill:none;stroke:red;stroke-width:1px;stroke-linecap:butt;stroke-linejoin:miter;stroke-opacity:1" d="M 971.774,35.8766 965.398,35.8766 z" id="boundary" inkscape:connector-curvature="0" />
	<path style="fill:none;stroke:red;stroke-width:1px;stroke-linecap:butt;stroke-linejoin:miter;stroke-opacity:1" d="M 978.149,35.8766 971.774,35.8766 z" id="boundary" inkscape:connector-curvature="0" />
	<path style="fill:none;stroke:red;stroke-width:1px;stroke-linecap:butt;stroke-linejoin:miter;stroke-opacity:1" d="M 783.064,42.2519 789.44,42.2519 z" id="boundary" inkscape:connector-curvature="0" />
	<path style="fill:none;stroke:red;stroke-width:1px;stroke-linecap:butt;stroke-linejoin:miter;stroke-opacity:1" d="M 783.064,42.2519 776.689,42.2519 z" id="boundary" inkscape:connector-curvature="0" />
	<path style="fill:none;stroke:red;stroke-width:1px;stroke-linecap:butt;stroke-linejoin:miter;stroke-opacity:1" d="M 865.306,39.0643 858.931,39.0643 z" id="boundary" inkscape:connector-curvature="0" />
	<path style="fill:none;stroke:red;stroke-width:1px;stroke-linecap:butt;stroke-linejoin:miter;stroke-opacity:1" d="M 871.681,39.0643 865.306,39.0643 z" id="boundary" inkscape:connector-curvature="0" />
	<path style="fill:none;stroke:red;stroke-width:1px;stroke-linecap:butt;stroke-linejoin:miter;stroke-opacity:1" d="M 789.44,42.2519 795.815,42.2519 z" id="boundary" inkscape:connector-curvature="0" />
	<path style="fill:none;stroke:red;stroke-width:1px;stroke-linecap:butt;stroke-linejoin:miter;stroke-opacity:1" d="M 802.19,42.2519 795.815,42.2519 z" id="boundary" inkscape:connector-curvature="0" />
	<path style="fill:none;stroke:red;stroke-width:1px;stroke-linecap:butt;stroke-linejoin:miter;stroke-opacity:1" d="M 808.566,42.2519 814.941,42.2519 z" id="boundary" inkscape:connector-curvature="0" />
	<path style="fill:none;stroke:red;stroke-width:1px;stroke-linecap:butt;stroke-linejoin:miter;stroke-opacity:1" d="M 821.316,42.2519 814.941,42.2519 z" id="boundary" inkscape:connector-curvature="0" />
	<path style="fill:none;stroke:red;stroke-width:1px;stroke-linecap:butt;stroke-linejoin:miter;stroke-opacity:1" d="M 808.566,42.2519 802.19,42.2519 z" id="boundary" inkscape:connector-curvature="0" />
	<path style="fill:none;stroke:red;stroke-width:1px;stroke-linecap:butt;stroke-linejoin:miter;stroke-opacity:1" d="M 983.249,65.2031 983.249,58.8278 z" id="boundary" inkscape:connector-curvature="0" />
	<path style="fill:none;stroke:red;stroke-width:1px;stroke-linecap:butt;stroke-linejoin:miter;stroke-opacity:1" d="M 986.437,70.9409 983.249,65.2031 z" id="boundary" inkscape:connector-curvature="0" />
	<path style="fill:none;stroke:red;stroke-width:1px;stroke-linecap:butt;stroke-linejoin:miter;stroke-opacity:1" d="M 986.437,45.4396 986.437,51.8149 z" id="boundary" inkscape:connector-curvature="0" />
	<path style="fill:none;stroke:red;stroke-width:1px;stroke-linecap:butt;stroke-linejoin:miter;stroke-opacity:1" d="M 986.437,51.8149 983.249,58.8278 z" id="boundary" inkscape:connector-curvature="0" />
	<path style="fill:none;stroke:red;stroke-width:1px;stroke-linecap:butt;stroke-linejoin:miter;stroke-opacity:1" d="M 986.437,70.9409 986.437,77.3162 z" id="boundary" inkscape:connector-curvature="0" />
	<path style="fill:none;stroke:red;stroke-width:1px;stroke-linecap:butt;stroke-linejoin:miter;stroke-opacity:1" d="M 986.437,77.3162 986.437,83.6915 z" id="boundary" inkscape:connector-curvature="0" />
	<path style="fill:none;stroke:red;stroke-width:1px;stroke-linecap:butt;stroke-linejoin:miter;stroke-opacity:1" d="M 986.437,90.0668 986.437,83.6915 z" id="boundary" inkscape:connector-curvature="0" />
	<path style="fill:none;stroke:red;stroke-width:1px;stroke-linecap:butt;stroke-linejoin:miter;stroke-opacity:1" d="M 986.437,90.0668 986.437,96.4422 z" id="boundary" inkscape:connector-curvature="0" />
	<path style="fill:none;stroke:red;stroke-width:1px;stroke-linecap:butt;stroke-linejoin:miter;stroke-opacity:1" d="M 986.437,96.4422 991.537,100.267 z" id="boundary" inkscape:connector-curvature="0" />
	<path style="fill:none;stroke:red;stroke-width:1px;stroke-linecap:butt;stroke-linejoin:miter;stroke-opacity:1" d="M 992.812,106.643 991.537,100.267 z" id="boundary" inkscape:connector-curvature="0" />
	<path style="fill:none;stroke:red;stroke-width:1px;stroke-linecap:butt;stroke-linejoin:miter;stroke-opacity:1" d="M 983.887,39.0643 986.437,45.4396 z" id="boundary" inkscape:connector-curvature="0" />
	<path style="fill:none;stroke:red;stroke-width:1px;stroke-linecap:butt;stroke-linejoin:miter;stroke-opacity:1" d="M 978.149,35.8766 983.887,39.0643 z" id="boundary" inkscape:connector-curvature="0" />
	<path style="fill:none;stroke:red;stroke-width:1px;stroke-linecap:butt;stroke-linejoin:miter;stroke-opacity:1" d="M 992.812,106.643 986.437,113.018 z" id="boundary" inkscape:connector-curvature="0" />
	<path style="fill:none;stroke:red;stroke-width:1px;stroke-linecap:butt;stroke-linejoin:miter;stroke-opacity:1" d="M 633.244,199.085 639.62,199.085 z" id="boundary" inkscape:connector-curvature="0" />
	<path style="fill:none;stroke:red;stroke-width:1px;stroke-linecap:butt;stroke-linejoin:miter;stroke-opacity:1" d="M 627.506,202.272 633.244,199.085 z" id="boundary" inkscape:connector-curvature="0" />
	<path style="fill:none;stroke:red;stroke-width:1px;stroke-linecap:butt;stroke-linejoin:miter;stroke-opacity:1" d="M 652.37,199.085 645.995,199.085 z" id="boundary" inkscape:connector-curvature="0" />
	<path style="fill:none;stroke:red;stroke-width:1px;stroke-linecap:butt;stroke-linejoin:miter;stroke-opacity:1" d="M 645.995,199.085 639.62,199.085 z" id="boundary" inkscape:connector-curvature="0" />
	<path style="fill:none;stroke:red;stroke-width:1px;stroke-linecap:butt;stroke-linejoin:miter;stroke-opacity:1" d="M 702.735,195.897 696.36,195.897 z" id="boundary" inkscape:connector-curvature="0" />
	<path style="fill:none;stroke:red;stroke-width:1px;stroke-linecap:butt;stroke-linejoin:miter;stroke-opacity:1" d="M 690.622,199.085 684.247,199.085 z" id="boundary" inkscape:connector-curvature="0" />
	<path style="fill:none;stroke:red;stroke-width:1px;stroke-linecap:butt;stroke-linejoin:miter;stroke-opacity:1" d="M 696.36,195.897 690.622,199.085 z" id="boundary" inkscape:connector-curvature="0" />
	<path style="fill:none;stroke:red;stroke-width:1px;stroke-linecap:butt;stroke-linejoin:miter;stroke-opacity:1" d="M 652.37,199.085 658.746,199.085 z" id="boundary" inkscape:connector-curvature="0" />
	<path style="fill:none;stroke:red;stroke-width:1px;stroke-linecap:butt;stroke-linejoin:miter;stroke-opacity:1" d="M 665.121,199.085 658.746,199.085 z" id="boundary" inkscape:connector-curvature="0" />
	<path style="fill:none;stroke:red;stroke-width:1px;stroke-linecap:butt;stroke-linejoin:miter;stroke-opacity:1" d="M 671.496,199.085 677.871,199.085 z" id="boundary" inkscape:connector-curvature="0" />
	<path style="fill:none;stroke:red;stroke-width:1px;stroke-linecap:butt;stroke-linejoin:miter;stroke-opacity:1" d="M 684.247,199.085 677.871,199.085 z" id="boundary" inkscape:connector-curvature="0" />
	<path style="fill:none;stroke:red;stroke-width:1px;stroke-linecap:butt;stroke-linejoin:miter;stroke-opacity:1" d="M 671.496,199.085 665.121,199.085 z" id="boundary" inkscape:connector-curvature="0" />
	<path style="fill:none;stroke:red;stroke-width:1px;stroke-linecap:butt;stroke-linejoin:miter;stroke-opacity:1" d="M 715.486,195.897 721.224,192.71 z" id="boundary" inkscape:connector-curvature="0" />
	<path style="fill:none;stroke:red;stroke-width:1px;stroke-linecap:butt;stroke-linejoin:miter;stroke-opacity:1" d="M 721.224,192.71 727.599,192.71 z" id="boundary" inkscape:connector-curvature="0" />
	<path style="fill:none;stroke:red;stroke-width:1px;stroke-linecap:butt;stroke-linejoin:miter;stroke-opacity:1" d="M 765.213,194.622 771.589,192.71 z" id="boundary" inkscape:connector-curvature="0" />
	<path style="fill:none;stroke:red;stroke-width:1px;stroke-linecap:butt;stroke-linejoin:miter;stroke-opacity:1" d="M 771.589,192.71 777.964,192.71 z" id="boundary" inkscape:connector-curvature="0" />
	<path style="fill:none;stroke:red;stroke-width:1px;stroke-linecap:butt;stroke-linejoin:miter;stroke-opacity:1" d="M 727.599,192.71 733.974,192.71 z" id="boundary" inkscape:connector-curvature="0" />
	<path style="fill:none;stroke:red;stroke-width:1px;stroke-linecap:butt;stroke-linejoin:miter;stroke-opacity:1" d="M 733.974,192.71 739.712,195.897 z" id="boundary" inkscape:connector-curvature="0" />
	<path style="fill:none;stroke:red;stroke-width:1px;stroke-linecap:butt;stroke-linejoin:miter;stroke-opacity:1" d="M 702.735,195.897 709.111,195.897 z" id="boundary" inkscape:connector-curvature="0" />
	<path style="fill:none;stroke:red;stroke-width:1px;stroke-linecap:butt;stroke-linejoin:miter;stroke-opacity:1" d="M 715.486,195.897 709.111,195.897 z" id="boundary" inkscape:connector-curvature="0" />
	<path style="fill:none;stroke:red;stroke-width:1px;stroke-linecap:butt;stroke-linejoin:miter;stroke-opacity:1" d="M 739.712,195.897 746.087,195.897 z" id="boundary" inkscape:connector-curvature="0" />
	<path style="fill:none;stroke:red;stroke-width:1px;stroke-linecap:butt;stroke-linejoin:miter;stroke-opacity:1" d="M 752.463,195.897 746.087,195.897 z" id="boundary" inkscape:connector-curvature="0" />
	<path style="fill:none;stroke:red;stroke-width:1px;stroke-linecap:butt;stroke-linejoin:miter;stroke-opacity:1" d="M 758.838,195.897 752.463,195.897 z" id="boundary" inkscape:connector-curvature="0" />
	<path style="fill:none;stroke:red;stroke-width:1px;stroke-linecap:butt;stroke-linejoin:miter;stroke-opacity:1" d="M 765.213,194.622 758.838,195.897 z" id="boundary" inkscape:connector-curvature="0" />
	<path style="fill:none;stroke:red;stroke-width:1px;stroke-linecap:butt;stroke-linejoin:miter;stroke-opacity:1" d="M 535.702,220.123 538.889,213.748 z" id="boundary" inkscape:connector-curvature="0" />
	<path style="fill:none;stroke:red;stroke-width:1px;stroke-linecap:butt;stroke-linejoin:miter;stroke-opacity:1" d="M 538.889,213.748 545.265,211.835 z" id="boundary" inkscape:connector-curvature="0" />
	<path style="fill:none;stroke:red;stroke-width:1px;stroke-linecap:butt;stroke-linejoin:miter;stroke-opacity:1" d="M 535.702,220.123 529.326,223.311 z" id="boundary" inkscape:connector-curvature="0" />
	<path style="fill:none;stroke:red;stroke-width:1px;stroke-linecap:butt;stroke-linejoin:miter;stroke-opacity:1" d="M 558.015,208.648 551.64,210.56 z" id="boundary" inkscape:connector-curvature="0" />
	<path style="fill:none;stroke:red;stroke-width:1px;stroke-linecap:butt;stroke-linejoin:miter;stroke-opacity:1" d="M 551.64,210.56 545.265,211.835 z" id="boundary" inkscape:connector-curvature="0" />
	<path style="fill:none;stroke:red;stroke-width:1px;stroke-linecap:butt;stroke-linejoin:miter;stroke-opacity:1" d="M 501.913,243.712 507.013,239.249 z" id="boundary" inkscape:connector-curvature="0" />
	<path style="fill:none;stroke:red;stroke-width:1px;stroke-linecap:butt;stroke-linejoin:miter;stroke-opacity:1" d="M 507.013,239.249 513.388,236.062 z" id="boundary" inkscape:connector-curvature="0" />
	<path style="fill:none;stroke:red;stroke-width:1px;stroke-linecap:butt;stroke-linejoin:miter;stroke-opacity:1" d="M 517.851,230.961 513.388,236.062 z" id="boundary" inkscape:connector-curvature="0" />
	<path style="fill:none;stroke:red;stroke-width:1px;stroke-linecap:butt;stroke-linejoin:miter;stroke-opacity:1" d="M 529.326,223.311 524.226,227.774 z" id="boundary" inkscape:connector-curvature="0" />
	<path style="fill:none;stroke:red;stroke-width:1px;stroke-linecap:butt;stroke-linejoin:miter;stroke-opacity:1" d="M 524.226,227.774 517.851,230.961 z" id="boundary" inkscape:connector-curvature="0" />
	<path style="fill:none;stroke:red;stroke-width:1px;stroke-linecap:butt;stroke-linejoin:miter;stroke-opacity:1" d="M 558.015,208.648 564.391,207.373 z" id="boundary" inkscape:connector-curvature="0" />
	<path style="fill:none;stroke:red;stroke-width:1px;stroke-linecap:butt;stroke-linejoin:miter;stroke-opacity:1" d="M 602.005,202.272 608.38,202.272 z" id="boundary" inkscape:connector-curvature="0" />
	<path style="fill:none;stroke:red;stroke-width:1px;stroke-linecap:butt;stroke-linejoin:miter;stroke-opacity:1" d="M 596.267,205.46 602.005,202.272 z" id="boundary" inkscape:connector-curvature="0" />
	<path style="fill:none;stroke:red;stroke-width:1px;stroke-linecap:butt;stroke-linejoin:miter;stroke-opacity:1" d="M 614.756,202.272 608.38,202.272 z" id="boundary" inkscape:connector-curvature="0" />
	<path style="fill:none;stroke:red;stroke-width:1px;stroke-linecap:butt;stroke-linejoin:miter;stroke-opacity:1" d="M 627.506,202.272 621.131,202.272 z" id="boundary" inkscape:connector-curvature="0" />
	<path style="fill:none;stroke:red;stroke-width:1px;stroke-linecap:butt;stroke-linejoin:miter;stroke-opacity:1" d="M 621.131,202.272 614.756,202.272 z" id="boundary" inkscape:connector-curvature="0" />
	<path style="fill:none;stroke:red;stroke-width:1px;stroke-linecap:butt;stroke-linejoin:miter;stroke-opacity:1" d="M 564.391,207.373 570.766,205.46 z" id="boundary" inkscape:connector-curvature="0" />
	<path style="fill:none;stroke:red;stroke-width:1px;stroke-linecap:butt;stroke-linejoin:miter;stroke-opacity:1" d="M 570.766,205.46 577.141,205.46 z" id="boundary" inkscape:connector-curvature="0" />
	<path style="fill:none;stroke:red;stroke-width:1px;stroke-linecap:butt;stroke-linejoin:miter;stroke-opacity:1" d="M 577.141,205.46 583.517,205.46 z" id="boundary" inkscape:connector-curvature="0" />
	<path style="fill:none;stroke:red;stroke-width:1px;stroke-linecap:butt;stroke-linejoin:miter;stroke-opacity:1" d="M 583.517,205.46 589.892,205.46 z" id="boundary" inkscape:connector-curvature="0" />
	<path style="fill:none;stroke:red;stroke-width:1px;stroke-linecap:butt;stroke-linejoin:miter;stroke-opacity:1" d="M 596.267,205.46 589.892,205.46 z" id="boundary" inkscape:connector-curvature="0" />
	<path style="fill:none;stroke:red;stroke-width:1px;stroke-linecap:butt;stroke-linejoin:miter;stroke-opacity:1" d="M 948.185,186.334 954.56,186.334 z" id="boundary" inkscape:connector-curvature="0" />
	<path style="fill:none;stroke:red;stroke-width:1px;stroke-linecap:butt;stroke-linejoin:miter;stroke-opacity:1" d="M 943.085,192.072 948.185,186.334 z" id="boundary" inkscape:connector-curvature="0" />
	<path style="fill:none;stroke:red;stroke-width:1px;stroke-linecap:butt;stroke-linejoin:miter;stroke-opacity:1" d="M 960.936,186.334 954.56,186.334 z" id="boundary" inkscape:connector-curvature="0" />
	<path style="fill:none;stroke:red;stroke-width:1px;stroke-linecap:butt;stroke-linejoin:miter;stroke-opacity:1" d="M 967.311,186.334 960.936,186.334 z" id="boundary" inkscape:connector-curvature="0" />
	<path style="fill:none;stroke:red;stroke-width:1px;stroke-linecap:butt;stroke-linejoin:miter;stroke-opacity:1" d="M 973.049,189.522 967.311,186.334 z" id="boundary" inkscape:connector-curvature="0" />
	<path style="fill:none;stroke:red;stroke-width:1px;stroke-linecap:butt;stroke-linejoin:miter;stroke-opacity:1" d="M 797.09,192.71 802.828,189.522 z" id="boundary" inkscape:connector-curvature="0" />
	<path style="fill:none;stroke:red;stroke-width:1px;stroke-linecap:butt;stroke-linejoin:miter;stroke-opacity:1" d="M 802.828,189.522 809.203,189.522 z" id="boundary" inkscape:connector-curvature="0" />
	<path style="fill:none;stroke:red;stroke-width:1px;stroke-linecap:butt;stroke-linejoin:miter;stroke-opacity:1" d="M 821.954,192.71 815.578,192.072 z" id="boundary" inkscape:connector-curvature="0" />
	<path style="fill:none;stroke:red;stroke-width:1px;stroke-linecap:butt;stroke-linejoin:miter;stroke-opacity:1" d="M 815.578,192.072 809.203,189.522 z" id="boundary" inkscape:connector-curvature="0" />
	<path style="fill:none;stroke:red;stroke-width:1px;stroke-linecap:butt;stroke-linejoin:miter;stroke-opacity:1" d="M 841.08,192.71 834.704,192.71 z" id="boundary" inkscape:connector-curvature="0" />
	<path style="fill:none;stroke:red;stroke-width:1px;stroke-linecap:butt;stroke-linejoin:miter;stroke-opacity:1" d="M 973.049,189.522 979.424,189.522 z" id="boundary" inkscape:connector-curvature="0" />
	<path style="fill:none;stroke:red;stroke-width:1px;stroke-linecap:butt;stroke-linejoin:miter;stroke-opacity:1" d="M 984.524,185.697 979.424,189.522 z" id="boundary" inkscape:connector-curvature="0" />
	<path style="fill:none;stroke:red;stroke-width:1px;stroke-linecap:butt;stroke-linejoin:miter;stroke-opacity:1" d="M 936.71,192.71 943.085,192.072 z" id="boundary" inkscape:connector-curvature="0" />
	<path style="fill:none;stroke:red;stroke-width:1px;stroke-linecap:butt;stroke-linejoin:miter;stroke-opacity:1" d="M 984.524,185.697 990.9,182.509 z" id="boundary" inkscape:connector-curvature="0" />
	<path style="fill:none;stroke:red;stroke-width:1px;stroke-linecap:butt;stroke-linejoin:miter;stroke-opacity:1" d="M 986.437,113.018 986.437,119.393 z" id="boundary" inkscape:connector-curvature="0" />
	<path style="fill:none;stroke:red;stroke-width:1px;stroke-linecap:butt;stroke-linejoin:miter;stroke-opacity:1" d="M 986.437,125.769 986.437,119.393 z" id="boundary" inkscape:connector-curvature="0" />
	<path style="fill:none;stroke:red;stroke-width:1px;stroke-linecap:butt;stroke-linejoin:miter;stroke-opacity:1" d="M 991.537,129.594 986.437,125.769 z" id="boundary" inkscape:connector-curvature="0" />
	<path style="fill:none;stroke:red;stroke-width:1px;stroke-linecap:butt;stroke-linejoin:miter;stroke-opacity:1" d="M 992.812,135.969 992.812,142.344 z" id="boundary" inkscape:connector-curvature="0" />
	<path style="fill:none;stroke:red;stroke-width:1px;stroke-linecap:butt;stroke-linejoin:miter;stroke-opacity:1" d="M 992.812,135.969 991.537,129.594 z" id="boundary" inkscape:connector-curvature="0" />
	<path style="fill:none;stroke:red;stroke-width:1px;stroke-linecap:butt;stroke-linejoin:miter;stroke-opacity:1" d="M 992.812,142.344 992.812,148.72 z" id="boundary" inkscape:connector-curvature="0" />
	<path style="fill:none;stroke:red;stroke-width:1px;stroke-linecap:butt;stroke-linejoin:miter;stroke-opacity:1" d="M 992.812,155.095 992.812,161.47 z" id="boundary" inkscape:connector-curvature="0" />
	<path style="fill:none;stroke:red;stroke-width:1px;stroke-linecap:butt;stroke-linejoin:miter;stroke-opacity:1" d="M 992.812,148.72 992.812,155.095 z" id="boundary" inkscape:connector-curvature="0" />
	<path style="fill:none;stroke:red;stroke-width:1px;stroke-linecap:butt;stroke-linejoin:miter;stroke-opacity:1" d="M 992.812,161.47 996,167.208 z" id="boundary" inkscape:connector-curvature="0" />
	<path style="fill:none;stroke:red;stroke-width:1px;stroke-linecap:butt;stroke-linejoin:miter;stroke-opacity:1" d="M 996,167.208 994.087,176.134 z" id="boundary" inkscape:connector-curvature="0" />
	<path style="fill:none;stroke:red;stroke-width:1px;stroke-linecap:butt;stroke-linejoin:miter;stroke-opacity:1" d="M 994.087,176.134 990.9,182.509 z" id="boundary" inkscape:connector-curvature="0" />
	<path style="fill:none;stroke:red;stroke-width:1px;stroke-linecap:butt;stroke-linejoin:miter;stroke-opacity:1" d="M 777.964,192.71 784.339,192.71 z" id="boundary" inkscape:connector-curvature="0" />
	<path style="fill:none;stroke:red;stroke-width:1px;stroke-linecap:butt;stroke-linejoin:miter;stroke-opacity:1" d="M 790.715,192.71 797.09,192.71 z" id="boundary" inkscape:connector-curvature="0" />
	<path style="fill:none;stroke:red;stroke-width:1px;stroke-linecap:butt;stroke-linejoin:miter;stroke-opacity:1" d="M 790.715,192.71 784.339,192.71 z" id="boundary" inkscape:connector-curvature="0" />
	<path style="fill:none;stroke:red;stroke-width:1px;stroke-linecap:butt;stroke-linejoin:miter;stroke-opacity:1" d="M 828.329,192.71 834.704,192.71 z" id="boundary" inkscape:connector-curvature="0" />
	<path style="fill:none;stroke:red;stroke-width:1px;stroke-linecap:butt;stroke-linejoin:miter;stroke-opacity:1" d="M 847.455,192.71 853.83,192.71 z" id="boundary" inkscape:connector-curvature="0" />
	<path style="fill:none;stroke:red;stroke-width:1px;stroke-linecap:butt;stroke-linejoin:miter;stroke-opacity:1" d="M 860.206,192.71 853.83,192.71 z" id="boundary" inkscape:connector-curvature="0" />
	<path style="fill:none;stroke:red;stroke-width:1px;stroke-linecap:butt;stroke-linejoin:miter;stroke-opacity:1" d="M 847.455,192.71 841.08,192.71 z" id="boundary" inkscape:connector-curvature="0" />
	<path style="fill:none;stroke:red;stroke-width:1px;stroke-linecap:butt;stroke-linejoin:miter;stroke-opacity:1" d="M 828.329,192.71 821.954,192.71 z" id="boundary" inkscape:connector-curvature="0" />
	<path style="fill:none;stroke:red;stroke-width:1px;stroke-linecap:butt;stroke-linejoin:miter;stroke-opacity:1" d="M 866.581,192.71 872.956,192.71 z" id="boundary" inkscape:connector-curvature="0" />
	<path style="fill:none;stroke:red;stroke-width:1px;stroke-linecap:butt;stroke-linejoin:miter;stroke-opacity:1" d="M 879.332,192.71 872.956,192.71 z" id="boundary" inkscape:connector-curvature="0" />
	<path style="fill:none;stroke:red;stroke-width:1px;stroke-linecap:butt;stroke-linejoin:miter;stroke-opacity:1" d="M 885.707,192.71 892.082,192.71 z" id="boundary" inkscape:connector-curvature="0" />
	<path style="fill:none;stroke:red;stroke-width:1px;stroke-linecap:butt;stroke-linejoin:miter;stroke-opacity:1" d="M 898.458,192.71 892.082,192.71 z" id="boundary" inkscape:connector-curvature="0" />
	<path style="fill:none;stroke:red;stroke-width:1px;stroke-linecap:butt;stroke-linejoin:miter;stroke-opacity:1" d="M 885.707,192.71 879.332,192.71 z" id="boundary" inkscape:connector-curvature="0" />
	<path style="fill:none;stroke:red;stroke-width:1px;stroke-linecap:butt;stroke-linejoin:miter;stroke-opacity:1" d="M 904.833,192.71 911.208,192.71 z" id="boundary" inkscape:connector-curvature="0" />
	<path style="fill:none;stroke:red;stroke-width:1px;stroke-linecap:butt;stroke-linejoin:miter;stroke-opacity:1" d="M 917.584,192.71 911.208,192.71 z" id="boundary" inkscape:connector-curvature="0" />
	<path style="fill:none;stroke:red;stroke-width:1px;stroke-linecap:butt;stroke-linejoin:miter;stroke-opacity:1" d="M 923.959,192.71 930.334,192.71 z" id="boundary" inkscape:connector-curvature="0" />
	<path style="fill:none;stroke:red;stroke-width:1px;stroke-linecap:butt;stroke-linejoin:miter;stroke-opacity:1" d="M 936.71,192.71 930.334,192.71 z" id="boundary" inkscape:connector-curvature="0" />
	<path style="fill:none;stroke:red;stroke-width:1px;stroke-linecap:butt;stroke-linejoin:miter;stroke-opacity:1" d="M 923.959,192.71 917.584,192.71 z" id="boundary" inkscape:connector-curvature="0" />
	<path style="fill:none;stroke:red;stroke-width:1px;stroke-linecap:butt;stroke-linejoin:miter;stroke-opacity:1" d="M 904.833,192.71 898.458,192.71 z" id="boundary" inkscape:connector-curvature="0" />
	<path style="fill:none;stroke:red;stroke-width:1px;stroke-linecap:butt;stroke-linejoin:miter;stroke-opacity:1" d="M 866.581,192.71 860.206,192.71 z" id="boundary" inkscape:connector-curvature="0" />
	<circle cx="4" cy="98.3548" r="4" fill="#0" id="circle0"/>
	<circle cx="4" cy="104.73" r="4" fill="#0" id="circle1"/>
	<circle cx="4" cy="111.105" r="4" fill="#0" id="circle2"/>
	<circle cx="10.3753" cy="91.9794" r="4" fill="#0" id="circle3"/>
	<circle cx="10.3753" cy="113.018" r="4" fill="#0" id="circle4"/>
	<circle cx="10.3753" cy="119.393" r="4" fill="#0" id="circle5"/>
	<circle cx="10.3753" cy="165.296" r="4" fill="#0" id="circle6"/>
	<circle cx="13.563" cy="125.131" r="4" fill="#0" id="circle7"/>
	<circle cx="13.563" cy="131.506" r="4" fill="#0" id="circle8"/>
	<circle cx="13.563" cy="137.882" r="4" fill="#0" id="circle9"/>
	<circle cx="13.563" cy="144.257" r="4" fill="#0" id="circle10"/>
	<circle cx="13.563" cy="150.632" r="4" fill="#0" id="circle11"/>
	<circle cx="13.563" cy="157.008" r="4" fill="#0" id="circle12"/>
	<circle cx="13.563" cy="171.033" r="4" fill="#0" id="circle13"/>
	<circle cx="13.563" cy="177.409" r="4" fill="#0" id="circle14"/>
	<circle cx="16.7506" cy="88.7918" r="4" fill="#0" id="circle15"/>
	<circle cx="16.7506" cy="183.147" r="4" fill="#0" id="circle16"/>
	<circle cx="16.7506" cy="189.522" r="4" fill="#0" id="circle17"/>
	<circle cx="16.7506" cy="195.897" r="4" fill="#0" id="circle18"/>
	<circle cx="16.7506" cy="213.111" r="4" fill="#0" id="circle19"/>
	<circle cx="16.7506" cy="219.486" r="4" fill="#0" id="circle20"/>
	<circle cx="16.7506" cy="225.861" r="4" fill="#0" id="circle21"/>
	<circle cx="16.7506" cy="232.237" r="4" fill="#0" id="circle22"/>
	<circle cx="18.6632" cy="202.272" r="4" fill="#0" id="circle23"/>
	<circle cx="23.126" cy="86.8792" r="4" fill="#0" id="circle24"/>
	<circle cx="23.126" cy="207.373" r="4" fill="#0" id="circle25"/>
	<circle cx="23.126" cy="234.149" r="4" fill="#0" id="circle26"/>
	<circle cx="26.9512" cy="239.249" r="4" fill="#0" id="circle27"/>
	<circle cx="29.5013" cy="88.1542" r="4" fill="#0" id="circle28"/>
	<circle cx="33.3265" cy="240.524" r="4" fill="#0" id="circle29"/>
	<circle cx="35.8766" cy="90.0668" r="4" fill="#0" id="circle30"/>
	<circle cx="39.0643" cy="237.337" r="4" fill="#0" id="circle31"/>
	<circle cx="42.2519" cy="90.0668" r="4" fill="#0" id="circle32"/>
	<circle cx="45.4396" cy="237.337" r="4" fill="#0" id="circle33"/>
	<circle cx="48.6272" cy="88.7918" r="4" fill="#0" id="circle34"/>
	<circle cx="51.8149" cy="235.424" r="4" fill="#0" id="circle35"/>
	<circle cx="55.0026" cy="86.8792" r="4" fill="#0" id="circle36"/>
	<circle cx="58.1902" cy="234.149" r="4" fill="#0" id="circle37"/>
	<circle cx="60.7404" cy="83.6915" r="4" fill="#0" id="circle38"/>
	<circle cx="64.5656" cy="234.149" r="4" fill="#0" id="circle39"/>
	<circle cx="67.1157" cy="83.6915" r="4" fill="#0" id="circle40"/>
	<circle cx="70.9409" cy="234.149" r="4" fill="#0" id="circle41"/>
	<circle cx="73.491" cy="83.6915" r="4" fill="#0" id="circle42"/>
	<circle cx="76.6787" cy="237.337" r="4" fill="#0" id="circle43"/>
	<circle cx="79.8663" cy="83.6915" r="4" fill="#0" id="circle44"/>
	<circle cx="83.054" cy="236.062" r="4" fill="#0" id="circle45"/>
	<circle cx="86.2416" cy="83.6915" r="4" fill="#0" id="circle46"/>
	<circle cx="89.4293" cy="234.149" r="4" fill="#0" id="circle47"/>
	<circle cx="92.617" cy="83.6915" r="4" fill="#0" id="circle48"/>
	<circle cx="95.8046" cy="234.149" r="4" fill="#0" id="circle49"/>
	<circle cx="98.9923" cy="83.6915" r="4" fill="#0" id="circle50"/>
	<circle cx="102.18" cy="234.149" r="4" fill="#0" id="circle51"/>
	<circle cx="105.368" cy="83.6915" r="4" fill="#0" id="circle52"/>
	<circle cx="108.555" cy="234.149" r="4" fill="#0" id="circle53"/>
	<circle cx="111.105" cy="80.5039" r="4" fill="#0" id="circle54"/>
	<circle cx="114.931" cy="234.149" r="4" fill="#0" id="circle55"/>
	<circle cx="117.481" cy="80.5039" r="4" fill="#0" id="circle56"/>
	<circle cx="121.306" cy="232.874" r="4" fill="#0" id="circle57"/>
	<circle cx="123.219" cy="83.6915" r="4" fill="#0" id="circle58"/>
	<circle cx="127.681" cy="230.961" r="4" fill="#0" id="circle59"/>
	<circle cx="129.594" cy="83.6915" r="4" fill="#0" id="circle60"/>
	<circle cx="134.057" cy="230.961" r="4" fill="#0" id="circle61"/>
	<circle cx="135.969" cy="81.1414" r="4" fill="#0" id="circle62"/>
	<circle cx="140.432" cy="229.686" r="4" fill="#0" id="circle63"/>
	<circle cx="142.344" cy="80.5039" r="4" fill="#0" id="circle64"/>
	<circle cx="146.807" cy="227.774" r="4" fill="#0" id="circle65"/>
	<circle cx="148.72" cy="80.5039" r="4" fill="#0" id="circle66"/>
	<circle cx="153.183" cy="227.774" r="4" fill="#0" id="circle67"/>
	<circle cx="155.095" cy="77.9537" r="4" fill="#0" id="circle68"/>
	<circle cx="158.92" cy="230.961" r="4" fill="#0" id="circle69"/>
	<circle cx="161.47" cy="77.3162" r="4" fill="#0" id="circle70"/>
	<circle cx="165.296" cy="230.961" r="4" fill="#0" id="circle71"/>
	<circle cx="167.846" cy="77.3162" r="4" fill="#0" id="circle72"/>
	<circle cx="171.671" cy="230.961" r="4" fill="#0" id="circle73"/>
	<circle cx="174.221" cy="77.3162" r="4" fill="#0" id="circle74"/>
	<circle cx="178.046" cy="230.324" r="4" fill="#0" id="circle75"/>
	<circle cx="180.596" cy="77.3162" r="4" fill="#0" id="circle76"/>
	<circle cx="184.422" cy="227.774" r="4" fill="#0" id="circle77"/>
	<circle cx="186.972" cy="77.3162" r="4" fill="#0" id="circle78"/>
	<circle cx="190.797" cy="227.774" r="4" fill="#0" id="circle79"/>
	<circle cx="193.347" cy="77.3162" r="4" fill="#0" id="circle80"/>
	<circle cx="197.172" cy="227.774" r="4" fill="#0" id="circle81"/>
	<circle cx="199.722" cy="77.3162" r="4" fill="#0" id="circle82"/>
	<circle cx="203.548" cy="227.774" r="4" fill="#0" id="circle83"/>
	<circle cx="206.098" cy="74.7661" r="4" fill="#0" id="circle84"/>
	<circle cx="209.923" cy="227.774" r="4" fill="#0" id="circle85"/>
	<circle cx="212.473" cy="74.1285" r="4" fill="#0" id="circle86"/>
	<circle cx="216.298" cy="227.774" r="4" fill="#0" id="circle87"/>
	<circle cx="218.848" cy="71.5784" r="4" fill="#0" id="circle88"/>
	<circle cx="222.674" cy="227.774" r="4" fill="#0" id="circle89"/>
	<circle cx="225.224" cy="70.9409" r="4" fill="#0" id="circle90"/>
	<circle cx="229.049" cy="230.324" r="4" fill="#0" id="circle91"/>
	<circle cx="231.599" cy="68.3907" r="4" fill="#0" id="circle92"/>
	<circle cx="235.424" cy="230.961" r="4" fill="#0" id="circle93"/>
	<circle cx="237.974" cy="65.2031" r="4" fill="#0" id="circle94"/>
	<circle cx="241.799" cy="230.961" r="4" fill="#0" id="circle95"/>
	<circle cx="243.075" cy="60.1028" r="4" fill="#0" id="circle96"/>
	<circle cx="248.175" cy="230.961" r="4" fill="#0" id="circle97"/>
	<circle cx="249.45" cy="53.7275" r="4" fill="#0" id="circle98"/>
	<circle cx="253.275" cy="235.424" r="4" fill="#0" id="circle99"/>
	<circle cx="254.55" cy="48.6272" r="4" fill="#0" id="circle100"/>
	<circle cx="259.65" cy="237.337" r="4" fill="#0" id="circle101"/>
	<circle cx="260.288" cy="45.4396" r="4" fill="#0" id="circle102"/>
	<circle cx="265.388" cy="240.524" r="4" fill="#0" id="circle103"/>
	<circle cx="266.663" cy="42.8895" r="4" fill="#0" id="circle104"/>
	<circle cx="269.213" cy="245.625" r="4" fill="#0" id="circle105"/>
	<circle cx="271.763" cy="39.0643" r="4" fill="#0" id="circle106"/>
	<circle cx="275.589" cy="248.175" r="4" fill="#0" id="circle107"/>
	<circle cx="277.501" cy="35.8766" r="4" fill="#0" id="circle108"/>
	<circle cx="281.964" cy="250.087" r="4" fill="#0" id="circle109"/>
	<circle cx="283.239" cy="32.6889" r="4" fill="#0" id="circle110"/>
	<circle cx="287.702" cy="253.275" r="4" fill="#0" id="circle111"/>
	<circle cx="288.977" cy="29.5013" r="4" fill="#0" id="circle112"/>
	<circle cx="293.44" cy="256.463" r="4" fill="#0" id="circle113"/>
	<circle cx="294.715" cy="26.3136" r="4" fill="#0" id="circle114"/>
	<circle cx="299.177" cy="259.65" r="4" fill="#0" id="circle115"/>
	<circle cx="300.452" cy="21.8509" r="4" fill="#0" id="circle116"/>
	<circle cx="304.915" cy="262.838" r="4" fill="#0" id="circle117"/>
	<circle cx="306.828" cy="19.9383" r="4" fill="#0" id="circle118"/>
	<circle cx="311.29" cy="264.751" r="4" fill="#0" id="circle119"/>
	<circle cx="312.566" cy="16.7506" r="4" fill="#0" id="circle120"/>
	<circle cx="317.666" cy="266.026" r="4" fill="#0" id="circle121"/>
	<circle cx="318.303" cy="13.563" r="4" fill="#0" id="circle122"/>
	<circle cx="324.041" cy="267.938" r="4" fill="#0" id="circle123"/>
	<circle cx="324.679" cy="13.563" r="4" fill="#0" id="circle124"/>
	<circle cx="330.416" cy="10.3753" r="4" fill="#0" id="circle125"/>
	<circle cx="330.416" cy="269.213" r="4" fill="#0" id="circle126"/>
	<circle cx="336.154" cy="272.401" r="4" fill="#0" id="circle127"/>
	<circle cx="336.792" cy="10.3753" r="4" fill="#0" id="circle128"/>
	<circle cx="342.53" cy="272.401" r="4" fill="#0" id="circle129"/>
	<circle cx="343.167" cy="10.3753" r="4" fill="#0" id="circle130"/>
	<circle cx="348.905" cy="7.18766" r="4" fill="#0" id="circle131"/>
	<circle cx="348.905" cy="273.676" r="4" fill="#0" id="circle132"/>
	<circle cx="355.28" cy="7.18766" r="4" fill="#0" id="circle133"/>
	<circle cx="355.28" cy="275.589" r="4" fill="#0" id="circle134"/>
	<circle cx="361.656" cy="7.18766" r="4" fill="#0" id="circle135"/>
	<circle cx="361.656" cy="275.589" r="4" fill="#0" id="circle136"/>
	<circle cx="368.031" cy="7.18766" r="4" fill="#0" id="circle137"/>
	<circle cx="368.031" cy="275.589" r="4" fill="#0" id="circle138"/>
	<circle cx="373.769" cy="4" r="4" fill="#0" id="circle139"/>
	<circle cx="374.406" cy="275.589" r="4" fill="#0" id="circle140"/>
	<circle cx="380.144" cy="4" r="4" fill="#0" id="circle141"/>
	<circle cx="380.781" cy="275.589" r="4" fill="#0" id="circle142"/>
	<circle cx="386.519" cy="4" r="4" fill="#0" id="circle143"/>
	<circle cx="386.519" cy="278.776" r="4" fill="#0" id="circle144"/>
	<circle cx="392.895" cy="4" r="4" fill="#0" id="circle145"/>
	<circle cx="392.895" cy="278.776" r="4" fill="#0" id="circle146"/>
	<circle cx="398.632" cy="281.964" r="4" fill="#0" id="circle147"/>
	<circle cx="399.27" cy="5.27506" r="4" fill="#0" id="circle148"/>
	<circle cx="405.008" cy="281.964" r="4" fill="#0" id="circle149"/>
	<circle cx="405.645" cy="7.18766" r="4" fill="#0" id="circle150"/>
	<circle cx="410.746" cy="278.776" r="4" fill="#0" id="circle151"/>
	<circle cx="412.021" cy="7.18766" r="4" fill="#0" id="circle152"/>
	<circle cx="417.121" cy="278.139" r="4" fill="#0" id="circle153"/>
	<circle cx="418.396" cy="7.18766" r="4" fill="#0" id="circle154"/>
	<circle cx="422.221" cy="272.401" r="4" fill="#0" id="circle155"/>
	<circle cx="424.771" cy="7.18766" r="4" fill="#0" id="circle156"/>
	<circle cx="428.596" cy="272.401" r="4" fill="#0" id="circle157"/>
	<circle cx="430.509" cy="10.3753" r="4" fill="#0" id="circle158"/>
	<circle cx="434.972" cy="272.401" r="4" fill="#0" id="circle159"/>
	<circle cx="436.884" cy="10.3753" r="4" fill="#0" id="circle160"/>
	<circle cx="441.347" cy="269.213" r="4" fill="#0" id="circle161"/>
	<circle cx="443.26" cy="11.0129" r="4" fill="#0" id="circle162"/>
	<circle cx="447.722" cy="266.026" r="4" fill="#0" id="circle163"/>
	<circle cx="449.635" cy="13.563" r="4" fill="#0" id="circle164"/>
	<circle cx="454.098" cy="266.026" r="4" fill="#0" id="circle165"/>
	<circle cx="455.373" cy="16.7506" r="4" fill="#0" id="circle166"/>
	<circle cx="460.473" cy="262.838" r="4" fill="#0" id="circle167"/>
	<circle cx="461.748" cy="16.7506" r="4" fill="#0" id="circle168"/>
	<circle cx="466.848" cy="262.838" r="4" fill="#0" id="circle169"/>
	<circle cx="467.486" cy="19.9383" r="4" fill="#0" id="circle170"/>
	<circle cx="472.586" cy="259.65" r="4" fill="#0" id="circle171"/>
	<circle cx="473.861" cy="19.9383" r="4" fill="#0" id="circle172"/>
	<circle cx="478.961" cy="257.738" r="4" fill="#0" id="circle173"/>
	<circle cx="479.599" cy="23.126" r="4" fill="#0" id="circle174"/>
	<circle cx="484.062" cy="253.275" r="4" fill="#0" id="circle175"/>
	<circle cx="485.337" cy="26.3136" r="4" fill="#0" id="circle176"/>
	<circle cx="490.437" cy="30.1388" r="4" fill="#0" id="circle177"/>
	<circle cx="490.437" cy="252.638" r="4" fill="#0" id="circle178"/>
	<circle cx="495.537" cy="246.9" r="4" fill="#0" id="circle179"/>
	<circle cx="496.812" cy="32.6889" r="4" fill="#0" id="circle180"/>
	<circle cx="501.913" cy="243.712" r="4" fill="#0" id="circle181"/>
	<circle cx="502.55" cy="35.8766" r="4" fill="#0" id="circle182"/>
	<circle cx="507.013" cy="239.249" r="4" fill="#0" id="circle183"/>
	<circle cx="507.65" cy="40.3393" r="4" fill="#0" id="circle184"/>
	<circle cx="513.388" cy="43.527" r="4" fill="#0" id="circle185"/>
	<circle cx="513.388" cy="236.062" r="4" fill="#0" id="circle186"/>
	<circle cx="517.851" cy="48.6272" r="4" fill="#0" id="circle187"/>
	<circle cx="517.851" cy="230.961" r="4" fill="#0" id="circle188"/>
	<circle cx="524.226" cy="48.6272" r="4" fill="#0" id="circle189"/>
	<circle cx="524.226" cy="227.774" r="4" fill="#0" id="circle190"/>
	<circle cx="529.326" cy="223.311" r="4" fill="#0" id="circle191"/>
	<circle cx="529.964" cy="51.8149" r="4" fill="#0" id="circle192"/>
	<circle cx="535.702" cy="220.123" r="4" fill="#0" id="circle193"/>
	<circle cx="536.339" cy="51.8149" r="4" fill="#0" id="circle194"/>
	<circle cx="538.889" cy="213.748" r="4" fill="#0" id="circle195"/>
	<circle cx="542.715" cy="51.8149" r="4" fill="#0" id="circle196"/>
	<circle cx="545.265" cy="211.835" r="4" fill="#0" id="circle197"/>
	<circle cx="549.09" cy="53.09" r="4" fill="#0" id="circle198"/>
	<circle cx="551.64" cy="210.56" r="4" fill="#0" id="circle199"/>
	<circle cx="555.465" cy="55.0026" r="4" fill="#0" id="circle200"/>
	<circle cx="558.015" cy="208.648" r="4" fill="#0" id="circle201"/>
	<circle cx="561.841" cy="53.7275" r="4" fill="#0" id="circle202"/>
	<circle cx="564.391" cy="207.373" r="4" fill="#0" id="circle203"/>
	<circle cx="568.216" cy="51.8149" r="4" fill="#0" id="circle204"/>
	<circle cx="570.766" cy="205.46" r="4" fill="#0" id="circle205"/>
	<circle cx="574.591" cy="51.8149" r="4" fill="#0" id="circle206"/>
	<circle cx="577.141" cy="205.46" r="4" fill="#0" id="circle207"/>
	<circle cx="580.967" cy="51.8149" r="4" fill="#0" id="circle208"/>
	<circle cx="583.517" cy="205.46" r="4" fill="#0" id="circle209"/>
	<circle cx="587.342" cy="51.8149" r="4" fill="#0" id="circle210"/>
	<circle cx="589.892" cy="205.46" r="4" fill="#0" id="circle211"/>
	<circle cx="593.717" cy="51.8149" r="4" fill="#0" id="circle212"/>
	<circle cx="596.267" cy="205.46" r="4" fill="#0" id="circle213"/>
	<circle cx="600.093" cy="51.8149" r="4" fill="#0" id="circle214"/>
	<circle cx="602.005" cy="202.272" r="4" fill="#0" id="circle215"/>
	<circle cx="606.468" cy="51.8149" r="4" fill="#0" id="circle216"/>
	<circle cx="608.38" cy="202.272" r="4" fill="#0" id="circle217"/>
	<circle cx="612.843" cy="51.8149" r="4" fill="#0" id="circle218"/>
	<circle cx="614.756" cy="202.272" r="4" fill="#0" id="circle219"/>
	<circle cx="619.219" cy="51.8149" r="4" fill="#0" id="circle220"/>
	<circle cx="621.131" cy="202.272" r="4" fill="#0" id="circle221"/>
	<circle cx="625.594" cy="51.8149" r="4" fill="#0" id="circle222"/>
	<circle cx="627.506" cy="202.272" r="4" fill="#0" id="circle223"/>
	<circle cx="631.969" cy="51.8149" r="4" fill="#0" id="circle224"/>
	<circle cx="633.244" cy="199.085" r="4" fill="#0" id="circle225"/>
	<circle cx="637.707" cy="48.6272" r="4" fill="#0" id="circle226"/>
	<circle cx="639.62" cy="199.085" r="4" fill="#0" id="circle227"/>
	<circle cx="644.082" cy="48.6272" r="4" fill="#0" id="circle228"/>
	<circle cx="645.995" cy="199.085" r="4" fill="#0" id="circle229"/>
	<circle cx="650.458" cy="48.6272" r="4" fill="#0" id="circle230"/>
	<circle cx="652.37" cy="199.085" r="4" fill="#0" id="circle231"/>
	<circle cx="656.833" cy="48.6272" r="4" fill="#0" id="circle232"/>
	<circle cx="658.746" cy="199.085" r="4" fill="#0" id="circle233"/>
	<circle cx="663.208" cy="48.6272" r="4" fill="#0" id="circle234"/>
	<circle cx="665.121" cy="199.085" r="4" fill="#0" id="circle235"/>
	<circle cx="669.584" cy="48.6272" r="4" fill="#0" id="circle236"/>
	<circle cx="671.496" cy="199.085" r="4" fill="#0" id="circle237"/>
	<circle cx="675.959" cy="48.6272" r="4" fill="#0" id="circle238"/>
	<circle cx="677.871" cy="199.085" r="4" fill="#0" id="circle239"/>
	<circle cx="682.334" cy="48.6272" r="4" fill="#0" id="circle240"/>
	<circle cx="684.247" cy="199.085" r="4" fill="#0" id="circle241"/>
	<circle cx="688.71" cy="48.6272" r="4" fill="#0" id="circle242"/>
	<circle cx="690.622" cy="199.085" r="4" fill="#0" id="circle243"/>
	<circle cx="695.085" cy="48.6272" r="4" fill="#0" id="circle244"/>
	<circle cx="696.36" cy="195.897" r="4" fill="#0" id="circle245"/>
	<circle cx="701.46" cy="48.6272" r="4" fill="#0" id="circle246"/>
	<circle cx="702.735" cy="195.897" r="4" fill="#0" id="circle247"/>
	<circle cx="707.198" cy="45.4396" r="4" fill="#0" id="circle248"/>
	<circle cx="709.111" cy="195.897" r="4" fill="#0" id="circle249"/>
	<circle cx="713.573" cy="45.4396" r="4" fill="#0" id="circle250"/>
	<circle cx="715.486" cy="195.897" r="4" fill="#0" id="circle251"/>
	<circle cx="719.949" cy="45.4396" r="4" fill="#0" id="circle252"/>
	<circle cx="721.224" cy="192.71" r="4" fill="#0" id="circle253"/>
	<circle cx="726.324" cy="45.4396" r="4" fill="#0" id="circle254"/>
	<circle cx="727.599" cy="192.71" r="4" fill="#0" id="circle255"/>
	<circle cx="732.699" cy="45.4396" r="4" fill="#0" id="circle256"/>
	<circle cx="733.974" cy="192.71" r="4" fill="#0" id="circle257"/>
	<circle cx="739.075" cy="45.4396" r="4" fill="#0" id="circle258"/>
	<circle cx="739.712" cy="195.897" r="4" fill="#0" id="circle259"/>
	<circle cx="745.45" cy="45.4396" r="4" fill="#0" id="circle260"/>
	<circle cx="746.087" cy="195.897" r="4" fill="#0" id="circle261"/>
	<circle cx="751.825" cy="45.4396" r="4" fill="#0" id="circle262"/>
	<circle cx="752.463" cy="195.897" r="4" fill="#0" id="circle263"/>
	<circle cx="758.201" cy="45.4396" r="4" fill="#0" id="circle264"/>
	<circle cx="758.838" cy="195.897" r="4" fill="#0" id="circle265"/>
	<circle cx="764.576" cy="45.4396" r="4" fill="#0" id="circle266"/>
	<circle cx="765.213" cy="194.622" r="4" fill="#0" id="circle267"/>
	<circle cx="770.314" cy="42.2519" r="4" fill="#0" id="circle268"/>
	<circle cx="771.589" cy="192.71" r="4" fill="#0" id="circle269"/>
	<circle cx="776.689" cy="42.2519" r="4" fill="#0" id="circle270"/>
	<circle cx="777.964" cy="192.71" r="4" fill="#0" id="circle271"/>
	<circle cx="783.064" cy="42.2519" r="4" fill="#0" id="circle272"/>
	<circle cx="784.339" cy="192.71" r="4" fill="#0" id="circle273"/>
	<circle cx="789.44" cy="42.2519" r="4" fill="#0" id="circle274"/>
	<circle cx="790.715" cy="192.71" r="4" fill="#0" id="circle275"/>
	<circle cx="795.815" cy="42.2519" r="4" fill="#0" id="circle276"/>
	<circle cx="797.09" cy="192.71" r="4" fill="#0" id="circle277"/>
	<circle cx="802.19" cy="42.2519" r="4" fill="#0" id="circle278"/>
	<circle cx="802.828" cy="189.522" r="4" fill="#0" id="circle279"/>
	<circle cx="808.566" cy="42.2519" r="4" fill="#0" id="circle280"/>
	<circle cx="809.203" cy="189.522" r="4" fill="#0" id="circle281"/>
	<circle cx="814.941" cy="42.2519" r="4" fill="#0" id="circle282"/>
	<circle cx="815.578" cy="192.072" r="4" fill="#0" id="circle283"/>
	<circle cx="821.316" cy="42.2519" r="4" fill="#0" id="circle284"/>
	<circle cx="821.954" cy="192.71" r="4" fill="#0" id="circle285"/>
	<circle cx="827.054" cy="39.0643" r="4" fill="#0" id="circle286"/>
	<circle cx="828.329" cy="192.71" r="4" fill="#0" id="circle287"/>
	<circle cx="833.429" cy="39.0643" r="4" fill="#0" id="circle288"/>
	<circle cx="834.704" cy="192.71" r="4" fill="#0" id="circle289"/>
	<circle cx="839.805" cy="39.0643" r="4" fill="#0" id="circle290"/>
	<circle cx="841.08" cy="192.71" r="4" fill="#0" id="circle291"/>
	<circle cx="846.18" cy="39.0643" r="4" fill="#0" id="circle292"/>
	<circle cx="847.455" cy="192.71" r="4" fill="#0" id="circle293"/>
	<circle cx="852.555" cy="39.0643" r="4" fill="#0" id="circle294"/>
	<circle cx="853.83" cy="192.71" r="4" fill="#0" id="circle295"/>
	<circle cx="858.931" cy="39.0643" r="4" fill="#0" id="circle296"/>
	<circle cx="860.206" cy="192.71" r="4" fill="#0" id="circle297"/>
	<circle cx="865.306" cy="39.0643" r="4" fill="#0" id="circle298"/>
	<circle cx="866.581" cy="192.71" r="4" fill="#0" id="circle299"/>
	<circle cx="871.681" cy="39.0643" r="4" fill="#0" id="circle300"/>
	<circle cx="872.956" cy="192.71" r="4" fill="#0" id="circle301"/>
	<circle cx="877.419" cy="35.8766" r="4" fill="#0" id="circle302"/>
	<circle cx="879.332" cy="192.71" r="4" fill="#0" id="circle303"/>
	<circle cx="883.794" cy="35.8766" r="4" fill="#0" id="circle304"/>
	<circle cx="885.707" cy="192.71" r="4" fill="#0" id="circle305"/>
	<circle cx="890.17" cy="35.8766" r="4" fill="#0" id="circle306"/>
	<circle cx="892.082" cy="192.71" r="4" fill="#0" id="circle307"/>
	<circle cx="896.545" cy="35.8766" r="4" fill="#0" id="circle308"/>
	<circle cx="898.458" cy="192.71" r="4" fill="#0" id="circle309"/>
	<circle cx="902.283" cy="32.6889" r="4" fill="#0" id="circle310"/>
	<circle cx="904.833" cy="192.71" r="4" fill="#0" id="circle311"/>
	<circle cx="908.658" cy="32.6889" r="4" fill="#0" id="circle312"/>
	<circle cx="911.208" cy="192.71" r="4" fill="#0" id="circle313"/>
	<circle cx="915.033" cy="32.6889" r="4" fill="#0" id="circle314"/>
	<circle cx="917.584" cy="192.71" r="4" fill="#0" id="circle315"/>
	<circle cx="921.409" cy="32.6889" r="4" fill="#0" id="circle316"/>
	<circle cx="923.959" cy="192.71" r="4" fill="#0" id="circle317"/>
	<circle cx="927.784" cy="32.6889" r="4" fill="#0" id="circle318"/>
	<circle cx="930.334" cy="192.71" r="4" fill="#0" id="circle319"/>
	<circle cx="934.159" cy="32.6889" r="4" fill="#0" id="circle320"/>
	<circle cx="936.71" cy="192.71" r="4" fill="#0" id="circle321"/>
	<circle cx="940.535" cy="32.6889" r="4" fill="#0" id="circle322"/>
	<circle cx="943.085" cy="192.072" r="4" fill="#0" id="circle323"/>
	<circle cx="946.272" cy="35.8766" r="4" fill="#0" id="circle324"/>
	<circle cx="948.185" cy="186.334" r="4" fill="#0" id="circle325"/>
	<circle cx="952.648" cy="35.8766" r="4" fill="#0" id="circle326"/>
	<circle cx="954.56" cy="186.334" r="4" fill="#0" id="circle327"/>
	<circle cx="959.023" cy="35.8766" r="4" fill="#0" id="circle328"/>
	<circle cx="960.936" cy="186.334" r="4" fill="#0" id="circle329"/>
	<circle cx="965.398" cy="35.8766" r="4" fill="#0" id="circle330"/>
	<circle cx="967.311" cy="186.334" r="4" fill="#0" id="circle331"/>
	<circle cx="971.774" cy="35.8766" r="4" fill="#0" id="circle332"/>
	<circle cx="973.049" cy="189.522" r="4" fill="#0" id="circle333"/>
	<circle cx="978.149" cy="35.8766" r="4" fill="#0" id="circle334"/>
	<circle cx="979.424" cy="189.522" r="4" fill="#0" id="circle335"/>
	<circle cx="983.249" cy="58.8278" r="4" fill="#0" id="circle336"/>
	<circle cx="983.249" cy="65.2031" r="4" fill="#0" id="circle337"/>
	<circle cx="983.887" cy="39.0643" r="4" fill="#0" id="circle338"/>
	<circle cx="984.524" cy="185.697" r="4" fill="#0" id="circle339"/>
	<circle cx="986.437" cy="45.4396" r="4" fill="#0" id="circle340"/>
	<circle cx="986.437" cy="51.8149" r="4" fill="#0" id="circle341"/>
	<circle cx="986.437" cy="70.9409" r="4" fill="#0" id="circle342"/>
	<circle cx="986.437" cy="77.3162" r="4" fill="#0" id="circle343"/>
	<circle cx="986.437" cy="83.6915" r="4" fill="#0" id="circle344"/>
	<circle cx="986.437" cy="90.0668" r="4" fill="#0" id="circle345"/>
	<circle cx="986.437" cy="96.4422" r="4" fill="#0" id="circle346"/>
	<circle cx="986.437" cy="113.018" r="4" fill="#0" id="circle347"/>
	<circle cx="986.437" cy="119.393" r="4" fill="#0" id="circle348"/>
	<circle cx="986.437" cy="125.769" r="4" fill="#0" id="circle349"/>
	<circle cx="990.9" cy="182.509" r="4" fill="#0" id="circle350"/>
	<circle cx="991.537" cy="100.267" r="4" fill="#0" id="circle351"/>
	<circle cx="991.537" cy="129.594" r="4" fill="#0" id="circle352"/>
	<circle cx="992.812" cy="106.643" r="4" fill="#0" id="circle353"/>
	<circle cx="992.812" cy="135.969" r="4" fill="#0" id="circle354"/>
	<circle cx="992.812" cy="142.344" r="4" fill="#0" id="circle355"/>
	<circle cx="992.812" cy="148.72" r="4" fill="#0" id="circle356"/>
	<circle cx="992.812" cy="155.095" r="4" fill="#0" id="circle357"/>
	<circle cx="992.812" cy="161.47" r="4" fill="#0" id="circle358"/>
	<circle cx="994.087" cy="176.134" r="4" fill="#0" id="circle359"/>
	<circle cx="996" cy="167.208" r="4" fill="#0" id="circle360"/>
	</g>
</svg>