<?xml version="1.0" encoding="UTF-8" standalone="no"?>
<!-- Created with CurveBenchmark -->
<svg
	xmlns:dc="http://purl.org/dc/elements/1.1/"
	xmlns:cc="http://creativecommons.org/ns#"
	xmlns:rdf="http://www.w3.org/1999/02/22-rdf-syntax-ns#"
	xmlns:svg="http://www.w3.org/2000/svg"
	xmlns="http://www.w3.org/2000/svg"
	xmlns:sodipodi="http://sodipodi.sourceforge.net/DTD/sodipodi-0.dtd"
	xmlns:inkscape="http://www.inkscape.org/namespaces/inkscape"
	width="1000"
	height="1000"
	id="svg2"
	version="1.1"
	sodipodi:docname="manifold/nncrust-fountain-07.png.txt">
<defs
	id="defs4" />
<metadata
	id="metadata7">
	<rdf:RDF>
		<cc:Work
			rdf:about="">
			<dc:format>image/svg+xml</dc:format>
			<dc:type
				rdf:resource="http://purl.org/dc/dcmitype/StillImage" />
			<dc:title></dc:title>
		</cc:Work>
	</rdf:RDF>
</metadata>
<g
	inkscape:label="Layer 1"
	inkscape:groupmode="layer"
	id="layer1">
	<path style="fill:none;stroke:red;stroke-width:1px;stroke-linecap:butt;stroke-linejoin:miter;stroke-opacity:1" d="M 355.496,158.268 355.496,168.031 z" id="boundary" inkscape:connector-curvature="0" />
	<path style="fill:none;stroke:red;stroke-width:1px;stroke-linecap:butt;stroke-linejoin:miter;stroke-opacity:1" d="M 355.496,158.268 363.307,150.457 z" id="boundary" inkscape:connector-curvature="0" />
	<path style="fill:none;stroke:red;stroke-width:1px;stroke-linecap:butt;stroke-linejoin:miter;stroke-opacity:1" d="M 372.094,145.575 363.307,150.457 z" id="boundary" inkscape:connector-curvature="0" />
	<path style="fill:none;stroke:red;stroke-width:1px;stroke-linecap:butt;stroke-linejoin:miter;stroke-opacity:1" d="M 380.882,140.693 372.094,145.575 z" id="boundary" inkscape:connector-curvature="0" />
	<path style="fill:none;stroke:red;stroke-width:1px;stroke-linecap:butt;stroke-linejoin:miter;stroke-opacity:1" d="M 380.882,175.843 371.118,175.843 z" id="boundary" inkscape:connector-curvature="0" />
	<path style="fill:none;stroke:red;stroke-width:1px;stroke-linecap:butt;stroke-linejoin:miter;stroke-opacity:1" d="M 365.26,355.496 355.496,355.496 z" id="boundary" inkscape:connector-curvature="0" />
	<path style="fill:none;stroke:red;stroke-width:1px;stroke-linecap:butt;stroke-linejoin:miter;stroke-opacity:1" d="M 355.496,168.031 361.354,175.843 z" id="boundary" inkscape:connector-curvature="0" />
	<path style="fill:none;stroke:red;stroke-width:1px;stroke-linecap:butt;stroke-linejoin:miter;stroke-opacity:1" d="M 375.024,355.496 365.26,355.496 z" id="boundary" inkscape:connector-curvature="0" />
	<path style="fill:none;stroke:red;stroke-width:1px;stroke-linecap:butt;stroke-linejoin:miter;stroke-opacity:1" d="M 383.811,350.614 375.024,355.496 z" id="boundary" inkscape:connector-curvature="0" />
	<path style="fill:none;stroke:red;stroke-width:1px;stroke-linecap:butt;stroke-linejoin:miter;stroke-opacity:1" d="M 371.118,175.843 361.354,175.843 z" id="boundary" inkscape:connector-curvature="0" />
	<path style="fill:none;stroke:red;stroke-width:1px;stroke-linecap:butt;stroke-linejoin:miter;stroke-opacity:1" d="M 345.732,358.425 355.496,355.496 z" id="boundary" inkscape:connector-curvature="0" />
	<path style="fill:none;stroke:red;stroke-width:1px;stroke-linecap:butt;stroke-linejoin:miter;stroke-opacity:1" d="M 390.646,175.843 380.882,175.843 z" id="boundary" inkscape:connector-curvature="0" />
	<path style="fill:none;stroke:red;stroke-width:1px;stroke-linecap:butt;stroke-linejoin:miter;stroke-opacity:1" d="M 380.882,140.693 390.646,137.764 z" id="boundary" inkscape:connector-curvature="0" />
	<path style="fill:none;stroke:red;stroke-width:1px;stroke-linecap:butt;stroke-linejoin:miter;stroke-opacity:1" d="M 390.646,137.764 400.409,135.811 z" id="boundary" inkscape:connector-curvature="0" />
	<path style="fill:none;stroke:red;stroke-width:1px;stroke-linecap:butt;stroke-linejoin:miter;stroke-opacity:1" d="M 400.409,175.843 390.646,175.843 z" id="boundary" inkscape:connector-curvature="0" />
	<path style="fill:none;stroke:red;stroke-width:1px;stroke-linecap:butt;stroke-linejoin:miter;stroke-opacity:1" d="M 409.197,130.929 400.409,135.811 z" id="boundary" inkscape:connector-curvature="0" />
	<path style="fill:none;stroke:red;stroke-width:1px;stroke-linecap:butt;stroke-linejoin:miter;stroke-opacity:1" d="M 383.811,350.614 393.575,350.614 z" id="boundary" inkscape:connector-curvature="0" />
	<path style="fill:none;stroke:red;stroke-width:1px;stroke-linecap:butt;stroke-linejoin:miter;stroke-opacity:1" d="M 410.173,175.843 400.409,175.843 z" id="boundary" inkscape:connector-curvature="0" />
	<path style="fill:none;stroke:red;stroke-width:1px;stroke-linecap:butt;stroke-linejoin:miter;stroke-opacity:1" d="M 403.339,350.614 393.575,350.614 z" id="boundary" inkscape:connector-curvature="0" />
	<path style="fill:none;stroke:red;stroke-width:1px;stroke-linecap:butt;stroke-linejoin:miter;stroke-opacity:1" d="M 409.197,130.929 418.961,130.929 z" id="boundary" inkscape:connector-curvature="0" />
	<path style="fill:none;stroke:red;stroke-width:1px;stroke-linecap:butt;stroke-linejoin:miter;stroke-opacity:1" d="M 211.969,399.433 221.732,394.551 z" id="boundary" inkscape:connector-curvature="0" />
	<path style="fill:none;stroke:red;stroke-width:1px;stroke-linecap:butt;stroke-linejoin:miter;stroke-opacity:1" d="M 230.52,389.669 221.732,394.551 z" id="boundary" inkscape:connector-curvature="0" />
	<path style="fill:none;stroke:red;stroke-width:1px;stroke-linecap:butt;stroke-linejoin:miter;stroke-opacity:1" d="M 230.52,389.669 239.307,384.787 z" id="boundary" inkscape:connector-curvature="0" />
	<path style="fill:none;stroke:red;stroke-width:1px;stroke-linecap:butt;stroke-linejoin:miter;stroke-opacity:1" d="M 239.307,384.787 249.071,384.787 z" id="boundary" inkscape:connector-curvature="0" />
	<path style="fill:none;stroke:red;stroke-width:1px;stroke-linecap:butt;stroke-linejoin:miter;stroke-opacity:1" d="M 257.858,379.906 249.071,384.787 z" id="boundary" inkscape:connector-curvature="0" />
	<path style="fill:none;stroke:red;stroke-width:1px;stroke-linecap:butt;stroke-linejoin:miter;stroke-opacity:1" d="M 194.394,426.772 194.394,436.535 z" id="boundary" inkscape:connector-curvature="0" />
	<path style="fill:none;stroke:red;stroke-width:1px;stroke-linecap:butt;stroke-linejoin:miter;stroke-opacity:1" d="M 199.276,417.008 194.394,426.772 z" id="boundary" inkscape:connector-curvature="0" />
	<path style="fill:none;stroke:red;stroke-width:1px;stroke-linecap:butt;stroke-linejoin:miter;stroke-opacity:1" d="M 199.276,417.008 204.157,407.244 z" id="boundary" inkscape:connector-curvature="0" />
	<path style="fill:none;stroke:red;stroke-width:1px;stroke-linecap:butt;stroke-linejoin:miter;stroke-opacity:1" d="M 204.157,407.244 211.969,399.433 z" id="boundary" inkscape:connector-curvature="0" />
	<path style="fill:none;stroke:red;stroke-width:1px;stroke-linecap:butt;stroke-linejoin:miter;stroke-opacity:1" d="M 192.441,448.252 194.394,436.535 z" id="boundary" inkscape:connector-curvature="0" />
	<path style="fill:none;stroke:red;stroke-width:1px;stroke-linecap:butt;stroke-linejoin:miter;stroke-opacity:1" d="M 306.677,368.189 316.441,365.26 z" id="boundary" inkscape:connector-curvature="0" />
	<path style="fill:none;stroke:red;stroke-width:1px;stroke-linecap:butt;stroke-linejoin:miter;stroke-opacity:1" d="M 316.441,365.26 326.205,363.307 z" id="boundary" inkscape:connector-curvature="0" />
	<path style="fill:none;stroke:red;stroke-width:1px;stroke-linecap:butt;stroke-linejoin:miter;stroke-opacity:1" d="M 306.677,368.189 296.913,370.142 z" id="boundary" inkscape:connector-curvature="0" />
	<path style="fill:none;stroke:red;stroke-width:1px;stroke-linecap:butt;stroke-linejoin:miter;stroke-opacity:1" d="M 326.205,363.307 335.969,360.378 z" id="boundary" inkscape:connector-curvature="0" />
	<path style="fill:none;stroke:red;stroke-width:1px;stroke-linecap:butt;stroke-linejoin:miter;stroke-opacity:1" d="M 335.969,360.378 345.732,358.425 z" id="boundary" inkscape:connector-curvature="0" />
	<path style="fill:none;stroke:red;stroke-width:1px;stroke-linecap:butt;stroke-linejoin:miter;stroke-opacity:1" d="M 257.858,379.906 267.622,377.953 z" id="boundary" inkscape:connector-curvature="0" />
	<path style="fill:none;stroke:red;stroke-width:1px;stroke-linecap:butt;stroke-linejoin:miter;stroke-opacity:1" d="M 277.386,375.024 267.622,377.953 z" id="boundary" inkscape:connector-curvature="0" />
	<path style="fill:none;stroke:red;stroke-width:1px;stroke-linecap:butt;stroke-linejoin:miter;stroke-opacity:1" d="M 296.913,370.142 287.15,373.071 z" id="boundary" inkscape:connector-curvature="0" />
	<path style="fill:none;stroke:red;stroke-width:1px;stroke-linecap:butt;stroke-linejoin:miter;stroke-opacity:1" d="M 287.15,373.071 277.386,375.024 z" id="boundary" inkscape:connector-curvature="0" />
	<path style="fill:none;stroke:red;stroke-width:1px;stroke-linecap:butt;stroke-linejoin:miter;stroke-opacity:1" d="M 192.441,448.252 182.677,448.252 z" id="boundary" inkscape:connector-curvature="0" />
	<path style="fill:none;stroke:red;stroke-width:1px;stroke-linecap:butt;stroke-linejoin:miter;stroke-opacity:1" d="M 403.339,350.614 413.102,350.614 z" id="boundary" inkscape:connector-curvature="0" />
	<path style="fill:none;stroke:red;stroke-width:1px;stroke-linecap:butt;stroke-linejoin:miter;stroke-opacity:1" d="M 462.898,21.5748 462.898,31.3386 z" id="boundary" inkscape:connector-curvature="0" />
	<path style="fill:none;stroke:red;stroke-width:1px;stroke-linecap:butt;stroke-linejoin:miter;stroke-opacity:1" d="M 462.898,21.5748 462.898,11.811 z" id="boundary" inkscape:connector-curvature="0" />
	<path style="fill:none;stroke:red;stroke-width:1px;stroke-linecap:butt;stroke-linejoin:miter;stroke-opacity:1" d="M 462.898,11.811 470.709,4 z" id="boundary" inkscape:connector-curvature="0" />
	<path style="fill:none;stroke:red;stroke-width:1px;stroke-linecap:butt;stroke-linejoin:miter;stroke-opacity:1" d="M 462.898,41.1024 462.898,50.8661 z" id="boundary" inkscape:connector-curvature="0" />
	<path style="fill:none;stroke:red;stroke-width:1px;stroke-linecap:butt;stroke-linejoin:miter;stroke-opacity:1" d="M 462.898,41.1024 462.898,31.3386 z" id="boundary" inkscape:connector-curvature="0" />
	<path style="fill:none;stroke:red;stroke-width:1px;stroke-linecap:butt;stroke-linejoin:miter;stroke-opacity:1" d="M 462.898,50.8661 462.898,60.6299 z" id="boundary" inkscape:connector-curvature="0" />
	<path style="fill:none;stroke:red;stroke-width:1px;stroke-linecap:butt;stroke-linejoin:miter;stroke-opacity:1" d="M 418.961,130.929 428.724,130.929 z" id="boundary" inkscape:connector-curvature="0" />
	<path style="fill:none;stroke:red;stroke-width:1px;stroke-linecap:butt;stroke-linejoin:miter;stroke-opacity:1" d="M 437.512,126.047 428.724,130.929 z" id="boundary" inkscape:connector-curvature="0" />
	<path style="fill:none;stroke:red;stroke-width:1px;stroke-linecap:butt;stroke-linejoin:miter;stroke-opacity:1" d="M 437.512,126.047 447.276,126.047 z" id="boundary" inkscape:connector-curvature="0" />
	<path style="fill:none;stroke:red;stroke-width:1px;stroke-linecap:butt;stroke-linejoin:miter;stroke-opacity:1" d="M 462.898,109.449 457.039,126.047 z" id="boundary" inkscape:connector-curvature="0" />
	<path style="fill:none;stroke:red;stroke-width:1px;stroke-linecap:butt;stroke-linejoin:miter;stroke-opacity:1" d="M 457.039,126.047 447.276,126.047 z" id="boundary" inkscape:connector-curvature="0" />
	<path style="fill:none;stroke:red;stroke-width:1px;stroke-linecap:butt;stroke-linejoin:miter;stroke-opacity:1" d="M 462.898,60.6299 462.898,70.3937 z" id="boundary" inkscape:connector-curvature="0" />
	<path style="fill:none;stroke:red;stroke-width:1px;stroke-linecap:butt;stroke-linejoin:miter;stroke-opacity:1" d="M 470.709,4 480.472,4 z" id="boundary" inkscape:connector-curvature="0" />
	<path style="fill:none;stroke:red;stroke-width:1px;stroke-linecap:butt;stroke-linejoin:miter;stroke-opacity:1" d="M 488.283,9.85827 493.165,18.6457 z" id="boundary" inkscape:connector-curvature="0" />
	<path style="fill:none;stroke:red;stroke-width:1px;stroke-linecap:butt;stroke-linejoin:miter;stroke-opacity:1" d="M 480.472,4 488.283,9.85827 z" id="boundary" inkscape:connector-curvature="0" />
	<path style="fill:none;stroke:red;stroke-width:1px;stroke-linecap:butt;stroke-linejoin:miter;stroke-opacity:1" d="M 462.898,80.1575 462.898,70.3937 z" id="boundary" inkscape:connector-curvature="0" />
	<path style="fill:none;stroke:red;stroke-width:1px;stroke-linecap:butt;stroke-linejoin:miter;stroke-opacity:1" d="M 462.898,89.9213 462.898,99.685 z" id="boundary" inkscape:connector-curvature="0" />
	<path style="fill:none;stroke:red;stroke-width:1px;stroke-linecap:butt;stroke-linejoin:miter;stroke-opacity:1" d="M 462.898,109.449 462.898,99.685 z" id="boundary" inkscape:connector-curvature="0" />
	<path style="fill:none;stroke:red;stroke-width:1px;stroke-linecap:butt;stroke-linejoin:miter;stroke-opacity:1" d="M 462.898,89.9213 462.898,80.1575 z" id="boundary" inkscape:connector-curvature="0" />
	<path style="fill:none;stroke:red;stroke-width:1px;stroke-linecap:butt;stroke-linejoin:miter;stroke-opacity:1" d="M 429.701,175.843 419.937,175.843 z" id="boundary" inkscape:connector-curvature="0" />
	<path style="fill:none;stroke:red;stroke-width:1px;stroke-linecap:butt;stroke-linejoin:miter;stroke-opacity:1" d="M 429.701,175.843 439.465,175.843 z" id="boundary" inkscape:connector-curvature="0" />
	<path style="fill:none;stroke:red;stroke-width:1px;stroke-linecap:butt;stroke-linejoin:miter;stroke-opacity:1" d="M 436.535,301.795 443.37,285.197 z" id="boundary" inkscape:connector-curvature="0" />
	<path style="fill:none;stroke:red;stroke-width:1px;stroke-linecap:butt;stroke-linejoin:miter;stroke-opacity:1" d="M 413.102,350.614 417.008,340.85 z" id="boundary" inkscape:connector-curvature="0" />
	<path style="fill:none;stroke:red;stroke-width:1px;stroke-linecap:butt;stroke-linejoin:miter;stroke-opacity:1" d="M 418.961,329.134 423.843,319.37 z" id="boundary" inkscape:connector-curvature="0" />
	<path style="fill:none;stroke:red;stroke-width:1px;stroke-linecap:butt;stroke-linejoin:miter;stroke-opacity:1" d="M 423.843,319.37 431.654,311.559 z" id="boundary" inkscape:connector-curvature="0" />
	<path style="fill:none;stroke:red;stroke-width:1px;stroke-linecap:butt;stroke-linejoin:miter;stroke-opacity:1" d="M 436.535,301.795 431.654,311.559 z" id="boundary" inkscape:connector-curvature="0" />
	<path style="fill:none;stroke:red;stroke-width:1px;stroke-linecap:butt;stroke-linejoin:miter;stroke-opacity:1" d="M 417.008,340.85 418.961,329.134 z" id="boundary" inkscape:connector-curvature="0" />
	<path style="fill:none;stroke:red;stroke-width:1px;stroke-linecap:butt;stroke-linejoin:miter;stroke-opacity:1" d="M 498.047,795.843 488.283,795.843 z" id="boundary" inkscape:connector-curvature="0" />
	<path style="fill:none;stroke:red;stroke-width:1px;stroke-linecap:butt;stroke-linejoin:miter;stroke-opacity:1" d="M 410.173,175.843 419.937,175.843 z" id="boundary" inkscape:connector-curvature="0" />
	<path style="fill:none;stroke:red;stroke-width:1px;stroke-linecap:butt;stroke-linejoin:miter;stroke-opacity:1" d="M 453.134,185.606 453.134,195.37 z" id="boundary" inkscape:connector-curvature="0" />
	<path style="fill:none;stroke:red;stroke-width:1px;stroke-linecap:butt;stroke-linejoin:miter;stroke-opacity:1" d="M 453.134,185.606 449.228,175.843 z" id="boundary" inkscape:connector-curvature="0" />
	<path style="fill:none;stroke:red;stroke-width:1px;stroke-linecap:butt;stroke-linejoin:miter;stroke-opacity:1" d="M 453.134,195.37 453.134,205.134 z" id="boundary" inkscape:connector-curvature="0" />
	<path style="fill:none;stroke:red;stroke-width:1px;stroke-linecap:butt;stroke-linejoin:miter;stroke-opacity:1" d="M 453.134,214.898 453.134,205.134 z" id="boundary" inkscape:connector-curvature="0" />
	<path style="fill:none;stroke:red;stroke-width:1px;stroke-linecap:butt;stroke-linejoin:miter;stroke-opacity:1" d="M 453.134,214.898 453.134,224.661 z" id="boundary" inkscape:connector-curvature="0" />
	<path style="fill:none;stroke:red;stroke-width:1px;stroke-linecap:butt;stroke-linejoin:miter;stroke-opacity:1" d="M 448.252,275.433 448.252,265.669 z" id="boundary" inkscape:connector-curvature="0" />
	<path style="fill:none;stroke:red;stroke-width:1px;stroke-linecap:butt;stroke-linejoin:miter;stroke-opacity:1" d="M 448.252,265.669 453.134,253.953 z" id="boundary" inkscape:connector-curvature="0" />
	<path style="fill:none;stroke:red;stroke-width:1px;stroke-linecap:butt;stroke-linejoin:miter;stroke-opacity:1" d="M 453.134,224.661 453.134,234.425 z" id="boundary" inkscape:connector-curvature="0" />
	<path style="fill:none;stroke:red;stroke-width:1px;stroke-linecap:butt;stroke-linejoin:miter;stroke-opacity:1" d="M 453.134,234.425 453.134,244.189 z" id="boundary" inkscape:connector-curvature="0" />
	<path style="fill:none;stroke:red;stroke-width:1px;stroke-linecap:butt;stroke-linejoin:miter;stroke-opacity:1" d="M 448.252,275.433 443.37,285.197 z" id="boundary" inkscape:connector-curvature="0" />
	<path style="fill:none;stroke:red;stroke-width:1px;stroke-linecap:butt;stroke-linejoin:miter;stroke-opacity:1" d="M 453.134,253.953 453.134,244.189 z" id="boundary" inkscape:connector-curvature="0" />
	<path style="fill:none;stroke:red;stroke-width:1px;stroke-linecap:butt;stroke-linejoin:miter;stroke-opacity:1" d="M 439.465,175.843 449.228,175.843 z" id="boundary" inkscape:connector-curvature="0" />
	<path style="fill:none;stroke:red;stroke-width:1px;stroke-linecap:butt;stroke-linejoin:miter;stroke-opacity:1" d="M 21.5748,560.535 28.4094,548.819 z" id="boundary" inkscape:connector-curvature="0" />
	<path style="fill:none;stroke:red;stroke-width:1px;stroke-linecap:butt;stroke-linejoin:miter;stroke-opacity:1" d="M 28.4094,548.819 36.2205,541.008 z" id="boundary" inkscape:connector-curvature="0" />
	<path style="fill:none;stroke:red;stroke-width:1px;stroke-linecap:butt;stroke-linejoin:miter;stroke-opacity:1" d="M 44.0315,533.197 51.8425,526.362 z" id="boundary" inkscape:connector-curvature="0" />
	<path style="fill:none;stroke:red;stroke-width:1px;stroke-linecap:butt;stroke-linejoin:miter;stroke-opacity:1" d="M 51.8425,526.362 60.6299,521.48 z" id="boundary" inkscape:connector-curvature="0" />
	<path style="fill:none;stroke:red;stroke-width:1px;stroke-linecap:butt;stroke-linejoin:miter;stroke-opacity:1" d="M 68.4409,513.669 60.6299,521.48 z" id="boundary" inkscape:connector-curvature="0" />
	<path style="fill:none;stroke:red;stroke-width:1px;stroke-linecap:butt;stroke-linejoin:miter;stroke-opacity:1" d="M 36.2205,541.008 44.0315,533.197 z" id="boundary" inkscape:connector-curvature="0" />
	<path style="fill:none;stroke:red;stroke-width:1px;stroke-linecap:butt;stroke-linejoin:miter;stroke-opacity:1" d="M 4,602.52 4,592.756 z" id="boundary" inkscape:connector-curvature="0" />
	<path style="fill:none;stroke:red;stroke-width:1px;stroke-linecap:butt;stroke-linejoin:miter;stroke-opacity:1" d="M 4,592.756 8.88189,578.11 z" id="boundary" inkscape:connector-curvature="0" />
	<path style="fill:none;stroke:red;stroke-width:1px;stroke-linecap:butt;stroke-linejoin:miter;stroke-opacity:1" d="M 8.88189,578.11 13.7638,568.346 z" id="boundary" inkscape:connector-curvature="0" />
	<path style="fill:none;stroke:red;stroke-width:1px;stroke-linecap:butt;stroke-linejoin:miter;stroke-opacity:1" d="M 13.7638,568.346 21.5748,560.535 z" id="boundary" inkscape:connector-curvature="0" />
	<path style="fill:none;stroke:red;stroke-width:1px;stroke-linecap:butt;stroke-linejoin:miter;stroke-opacity:1" d="M 4,612.283 4,602.52 z" id="boundary" inkscape:connector-curvature="0" />
	<path style="fill:none;stroke:red;stroke-width:1px;stroke-linecap:butt;stroke-linejoin:miter;stroke-opacity:1" d="M 109.449,482.425 118.236,477.543 z" id="boundary" inkscape:connector-curvature="0" />
	<path style="fill:none;stroke:red;stroke-width:1px;stroke-linecap:butt;stroke-linejoin:miter;stroke-opacity:1" d="M 126.047,470.709 118.236,477.543 z" id="boundary" inkscape:connector-curvature="0" />
	<path style="fill:none;stroke:red;stroke-width:1px;stroke-linecap:butt;stroke-linejoin:miter;stroke-opacity:1" d="M 126.047,470.709 135.811,465.827 z" id="boundary" inkscape:connector-curvature="0" />
	<path style="fill:none;stroke:red;stroke-width:1px;stroke-linecap:butt;stroke-linejoin:miter;stroke-opacity:1" d="M 145.575,460.945 135.811,465.827 z" id="boundary" inkscape:connector-curvature="0" />
	<path style="fill:none;stroke:red;stroke-width:1px;stroke-linecap:butt;stroke-linejoin:miter;stroke-opacity:1" d="M 109.449,482.425 100.661,487.307 z" id="boundary" inkscape:connector-curvature="0" />
	<path style="fill:none;stroke:red;stroke-width:1px;stroke-linecap:butt;stroke-linejoin:miter;stroke-opacity:1" d="M 68.4409,513.669 76.252,506.835 z" id="boundary" inkscape:connector-curvature="0" />
	<path style="fill:none;stroke:red;stroke-width:1px;stroke-linecap:butt;stroke-linejoin:miter;stroke-opacity:1" d="M 76.252,506.835 85.0394,501.953 z" id="boundary" inkscape:connector-curvature="0" />
	<path style="fill:none;stroke:red;stroke-width:1px;stroke-linecap:butt;stroke-linejoin:miter;stroke-opacity:1" d="M 92.8504,494.142 100.661,487.307 z" id="boundary" inkscape:connector-curvature="0" />
	<path style="fill:none;stroke:red;stroke-width:1px;stroke-linecap:butt;stroke-linejoin:miter;stroke-opacity:1" d="M 92.8504,494.142 85.0394,501.953 z" id="boundary" inkscape:connector-curvature="0" />
	<path style="fill:none;stroke:red;stroke-width:1px;stroke-linecap:butt;stroke-linejoin:miter;stroke-opacity:1" d="M 4,622.047 4,612.283 z" id="boundary" inkscape:connector-curvature="0" />
	<path style="fill:none;stroke:red;stroke-width:1px;stroke-linecap:butt;stroke-linejoin:miter;stroke-opacity:1" d="M 8.88189,640.598 4,631.811 z" id="boundary" inkscape:connector-curvature="0" />
	<path style="fill:none;stroke:red;stroke-width:1px;stroke-linecap:butt;stroke-linejoin:miter;stroke-opacity:1" d="M 4,631.811 4,622.047 z" id="boundary" inkscape:connector-curvature="0" />
	<path style="fill:none;stroke:red;stroke-width:1px;stroke-linecap:butt;stroke-linejoin:miter;stroke-opacity:1" d="M 13.7638,649.386 8.88189,640.598 z" id="boundary" inkscape:connector-curvature="0" />
	<path style="fill:none;stroke:red;stroke-width:1px;stroke-linecap:butt;stroke-linejoin:miter;stroke-opacity:1" d="M 19.622,657.197 27.4331,664.031 z" id="boundary" inkscape:connector-curvature="0" />
	<path style="fill:none;stroke:red;stroke-width:1px;stroke-linecap:butt;stroke-linejoin:miter;stroke-opacity:1" d="M 27.4331,664.031 31.3386,673.795 z" id="boundary" inkscape:connector-curvature="0" />
	<path style="fill:none;stroke:red;stroke-width:1px;stroke-linecap:butt;stroke-linejoin:miter;stroke-opacity:1" d="M 19.622,657.197 13.7638,649.386 z" id="boundary" inkscape:connector-curvature="0" />
	<path style="fill:none;stroke:red;stroke-width:1px;stroke-linecap:butt;stroke-linejoin:miter;stroke-opacity:1" d="M 31.3386,673.795 41.1024,677.701 z" id="boundary" inkscape:connector-curvature="0" />
	<path style="fill:none;stroke:red;stroke-width:1px;stroke-linecap:butt;stroke-linejoin:miter;stroke-opacity:1" d="M 41.1024,677.701 48.9134,683.559 z" id="boundary" inkscape:connector-curvature="0" />
	<path style="fill:none;stroke:red;stroke-width:1px;stroke-linecap:butt;stroke-linejoin:miter;stroke-opacity:1" d="M 57.7008,688.441 67.4646,688.441 z" id="boundary" inkscape:connector-curvature="0" />
	<path style="fill:none;stroke:red;stroke-width:1px;stroke-linecap:butt;stroke-linejoin:miter;stroke-opacity:1" d="M 67.4646,688.441 76.252,693.323 z" id="boundary" inkscape:connector-curvature="0" />
	<path style="fill:none;stroke:red;stroke-width:1px;stroke-linecap:butt;stroke-linejoin:miter;stroke-opacity:1" d="M 57.7008,688.441 48.9134,683.559 z" id="boundary" inkscape:connector-curvature="0" />
	<path style="fill:none;stroke:red;stroke-width:1px;stroke-linecap:butt;stroke-linejoin:miter;stroke-opacity:1" d="M 92.8504,705.039 83.0866,701.134 z" id="boundary" inkscape:connector-curvature="0" />
	<path style="fill:none;stroke:red;stroke-width:1px;stroke-linecap:butt;stroke-linejoin:miter;stroke-opacity:1" d="M 83.0866,701.134 76.252,693.323 z" id="boundary" inkscape:connector-curvature="0" />
	<path style="fill:none;stroke:red;stroke-width:1px;stroke-linecap:butt;stroke-linejoin:miter;stroke-opacity:1" d="M 92.8504,705.039 101.638,709.921 z" id="boundary" inkscape:connector-curvature="0" />
	<path style="fill:none;stroke:red;stroke-width:1px;stroke-linecap:butt;stroke-linejoin:miter;stroke-opacity:1" d="M 101.638,709.921 111.402,712.85 z" id="boundary" inkscape:connector-curvature="0" />
	<path style="fill:none;stroke:red;stroke-width:1px;stroke-linecap:butt;stroke-linejoin:miter;stroke-opacity:1" d="M 111.402,712.85 120.189,717.732 z" id="boundary" inkscape:connector-curvature="0" />
	<path style="fill:none;stroke:red;stroke-width:1px;stroke-linecap:butt;stroke-linejoin:miter;stroke-opacity:1" d="M 120.189,717.732 128.976,722.614 z" id="boundary" inkscape:connector-curvature="0" />
	<path style="fill:none;stroke:red;stroke-width:1px;stroke-linecap:butt;stroke-linejoin:miter;stroke-opacity:1" d="M 128.976,722.614 136.787,729.449 z" id="boundary" inkscape:connector-curvature="0" />
	<path style="fill:none;stroke:red;stroke-width:1px;stroke-linecap:butt;stroke-linejoin:miter;stroke-opacity:1" d="M 136.787,729.449 145.575,734.331 z" id="boundary" inkscape:connector-curvature="0" />
	<path style="fill:none;stroke:red;stroke-width:1px;stroke-linecap:butt;stroke-linejoin:miter;stroke-opacity:1" d="M 145.575,460.945 155.339,458.016 z" id="boundary" inkscape:connector-curvature="0" />
	<path style="fill:none;stroke:red;stroke-width:1px;stroke-linecap:butt;stroke-linejoin:miter;stroke-opacity:1" d="M 155.339,737.26 145.575,734.331 z" id="boundary" inkscape:connector-curvature="0" />
	<path style="fill:none;stroke:red;stroke-width:1px;stroke-linecap:butt;stroke-linejoin:miter;stroke-opacity:1" d="M 182.677,448.252 173.89,453.134 z" id="boundary" inkscape:connector-curvature="0" />
	<path style="fill:none;stroke:red;stroke-width:1px;stroke-linecap:butt;stroke-linejoin:miter;stroke-opacity:1" d="M 173.89,453.134 164.126,453.134 z" id="boundary" inkscape:connector-curvature="0" />
	<path style="fill:none;stroke:red;stroke-width:1px;stroke-linecap:butt;stroke-linejoin:miter;stroke-opacity:1" d="M 155.339,458.016 164.126,453.134 z" id="boundary" inkscape:connector-curvature="0" />
	<path style="fill:none;stroke:red;stroke-width:1px;stroke-linecap:butt;stroke-linejoin:miter;stroke-opacity:1" d="M 155.339,737.26 164.126,742.142 z" id="boundary" inkscape:connector-curvature="0" />
	<path style="fill:none;stroke:red;stroke-width:1px;stroke-linecap:butt;stroke-linejoin:miter;stroke-opacity:1" d="M 172.913,747.024 181.701,751.906 z" id="boundary" inkscape:connector-curvature="0" />
	<path style="fill:none;stroke:red;stroke-width:1px;stroke-linecap:butt;stroke-linejoin:miter;stroke-opacity:1" d="M 200.252,756.787 190.488,756.787 z" id="boundary" inkscape:connector-curvature="0" />
	<path style="fill:none;stroke:red;stroke-width:1px;stroke-linecap:butt;stroke-linejoin:miter;stroke-opacity:1" d="M 190.488,756.787 181.701,751.906 z" id="boundary" inkscape:connector-curvature="0" />
	<path style="fill:none;stroke:red;stroke-width:1px;stroke-linecap:butt;stroke-linejoin:miter;stroke-opacity:1" d="M 172.913,747.024 164.126,742.142 z" id="boundary" inkscape:connector-curvature="0" />
	<path style="fill:none;stroke:red;stroke-width:1px;stroke-linecap:butt;stroke-linejoin:miter;stroke-opacity:1" d="M 200.252,756.787 209.039,761.669 z" id="boundary" inkscape:connector-curvature="0" />
	<path style="fill:none;stroke:red;stroke-width:1px;stroke-linecap:butt;stroke-linejoin:miter;stroke-opacity:1" d="M 236.378,771.433 226.614,771.433 z" id="boundary" inkscape:connector-curvature="0" />
	<path style="fill:none;stroke:red;stroke-width:1px;stroke-linecap:butt;stroke-linejoin:miter;stroke-opacity:1" d="M 226.614,771.433 217.827,766.551 z" id="boundary" inkscape:connector-curvature="0" />
	<path style="fill:none;stroke:red;stroke-width:1px;stroke-linecap:butt;stroke-linejoin:miter;stroke-opacity:1" d="M 217.827,766.551 209.039,761.669 z" id="boundary" inkscape:connector-curvature="0" />
	<path style="fill:none;stroke:red;stroke-width:1px;stroke-linecap:butt;stroke-linejoin:miter;stroke-opacity:1" d="M 236.378,771.433 245.165,776.315 z" id="boundary" inkscape:connector-curvature="0" />
	<path style="fill:none;stroke:red;stroke-width:1px;stroke-linecap:butt;stroke-linejoin:miter;stroke-opacity:1" d="M 245.165,776.315 254.929,776.315 z" id="boundary" inkscape:connector-curvature="0" />
	<path style="fill:none;stroke:red;stroke-width:1px;stroke-linecap:butt;stroke-linejoin:miter;stroke-opacity:1" d="M 254.929,776.315 263.717,781.197 z" id="boundary" inkscape:connector-curvature="0" />
	<path style="fill:none;stroke:red;stroke-width:1px;stroke-linecap:butt;stroke-linejoin:miter;stroke-opacity:1" d="M 263.717,781.197 273.48,781.197 z" id="boundary" inkscape:connector-curvature="0" />
	<path style="fill:none;stroke:red;stroke-width:1px;stroke-linecap:butt;stroke-linejoin:miter;stroke-opacity:1" d="M 273.48,781.197 283.244,783.15 z" id="boundary" inkscape:connector-curvature="0" />
	<path style="fill:none;stroke:red;stroke-width:1px;stroke-linecap:butt;stroke-linejoin:miter;stroke-opacity:1" d="M 283.244,783.15 293.008,786.079 z" id="boundary" inkscape:connector-curvature="0" />
	<path style="fill:none;stroke:red;stroke-width:1px;stroke-linecap:butt;stroke-linejoin:miter;stroke-opacity:1" d="M 293.008,786.079 302.772,786.079 z" id="boundary" inkscape:connector-curvature="0" />
	<path style="fill:none;stroke:red;stroke-width:1px;stroke-linecap:butt;stroke-linejoin:miter;stroke-opacity:1" d="M 322.299,788.031 332.063,790.961 z" id="boundary" inkscape:connector-curvature="0" />
	<path style="fill:none;stroke:red;stroke-width:1px;stroke-linecap:butt;stroke-linejoin:miter;stroke-opacity:1" d="M 341.827,792.913 332.063,790.961 z" id="boundary" inkscape:connector-curvature="0" />
	<path style="fill:none;stroke:red;stroke-width:1px;stroke-linecap:butt;stroke-linejoin:miter;stroke-opacity:1" d="M 302.772,786.079 312.535,786.079 z" id="boundary" inkscape:connector-curvature="0" />
	<path style="fill:none;stroke:red;stroke-width:1px;stroke-linecap:butt;stroke-linejoin:miter;stroke-opacity:1" d="M 312.535,786.079 322.299,788.031 z" id="boundary" inkscape:connector-curvature="0" />
	<path style="fill:none;stroke:red;stroke-width:1px;stroke-linecap:butt;stroke-linejoin:miter;stroke-opacity:1" d="M 341.827,792.913 351.591,795.843 z" id="boundary" inkscape:connector-curvature="0" />
	<path style="fill:none;stroke:red;stroke-width:1px;stroke-linecap:butt;stroke-linejoin:miter;stroke-opacity:1" d="M 361.354,795.843 351.591,795.843 z" id="boundary" inkscape:connector-curvature="0" />
	<path style="fill:none;stroke:red;stroke-width:1px;stroke-linecap:butt;stroke-linejoin:miter;stroke-opacity:1" d="M 371.118,795.843 361.354,795.843 z" id="boundary" inkscape:connector-curvature="0" />
	<path style="fill:none;stroke:red;stroke-width:1px;stroke-linecap:butt;stroke-linejoin:miter;stroke-opacity:1" d="M 380.882,795.843 371.118,795.843 z" id="boundary" inkscape:connector-curvature="0" />
	<path style="fill:none;stroke:red;stroke-width:1px;stroke-linecap:butt;stroke-linejoin:miter;stroke-opacity:1" d="M 400.409,795.843 390.646,795.843 z" id="boundary" inkscape:connector-curvature="0" />
	<path style="fill:none;stroke:red;stroke-width:1px;stroke-linecap:butt;stroke-linejoin:miter;stroke-opacity:1" d="M 410.173,795.843 400.409,795.843 z" id="boundary" inkscape:connector-curvature="0" />
	<path style="fill:none;stroke:red;stroke-width:1px;stroke-linecap:butt;stroke-linejoin:miter;stroke-opacity:1" d="M 390.646,795.843 380.882,795.843 z" id="boundary" inkscape:connector-curvature="0" />
	<path style="fill:none;stroke:red;stroke-width:1px;stroke-linecap:butt;stroke-linejoin:miter;stroke-opacity:1" d="M 429.701,795.843 419.937,795.843 z" id="boundary" inkscape:connector-curvature="0" />
	<path style="fill:none;stroke:red;stroke-width:1px;stroke-linecap:butt;stroke-linejoin:miter;stroke-opacity:1" d="M 439.465,795.843 429.701,795.843 z" id="boundary" inkscape:connector-curvature="0" />
	<path style="fill:none;stroke:red;stroke-width:1px;stroke-linecap:butt;stroke-linejoin:miter;stroke-opacity:1" d="M 458.992,795.843 449.228,795.843 z" id="boundary" inkscape:connector-curvature="0" />
	<path style="fill:none;stroke:red;stroke-width:1px;stroke-linecap:butt;stroke-linejoin:miter;stroke-opacity:1" d="M 468.756,795.843 458.992,795.843 z" id="boundary" inkscape:connector-curvature="0" />
	<path style="fill:none;stroke:red;stroke-width:1px;stroke-linecap:butt;stroke-linejoin:miter;stroke-opacity:1" d="M 449.228,795.843 439.465,795.843 z" id="boundary" inkscape:connector-curvature="0" />
	<path style="fill:none;stroke:red;stroke-width:1px;stroke-linecap:butt;stroke-linejoin:miter;stroke-opacity:1" d="M 419.937,795.843 410.173,795.843 z" id="boundary" inkscape:connector-curvature="0" />
	<path style="fill:none;stroke:red;stroke-width:1px;stroke-linecap:butt;stroke-linejoin:miter;stroke-opacity:1" d="M 478.52,795.843 468.756,795.843 z" id="boundary" inkscape:connector-curvature="0" />
	<path style="fill:none;stroke:red;stroke-width:1px;stroke-linecap:butt;stroke-linejoin:miter;stroke-opacity:1" d="M 488.283,795.843 478.52,795.843 z" id="boundary" inkscape:connector-curvature="0" />
	<path style="fill:none;stroke:red;stroke-width:1px;stroke-linecap:butt;stroke-linejoin:miter;stroke-opacity:1" d="M 493.165,18.6457 493.165,28.4094 z" id="boundary" inkscape:connector-curvature="0" />
	<path style="fill:none;stroke:red;stroke-width:1px;stroke-linecap:butt;stroke-linejoin:miter;stroke-opacity:1" d="M 498.047,37.1969 502.929,45.9843 z" id="boundary" inkscape:connector-curvature="0" />
	<path style="fill:none;stroke:red;stroke-width:1px;stroke-linecap:butt;stroke-linejoin:miter;stroke-opacity:1" d="M 507.811,54.7717 512.693,63.5591 z" id="boundary" inkscape:connector-curvature="0" />
	<path style="fill:none;stroke:red;stroke-width:1px;stroke-linecap:butt;stroke-linejoin:miter;stroke-opacity:1" d="M 512.693,63.5591 514.646,73.3228 z" id="boundary" inkscape:connector-curvature="0" />
	<path style="fill:none;stroke:red;stroke-width:1px;stroke-linecap:butt;stroke-linejoin:miter;stroke-opacity:1" d="M 507.811,54.7717 502.929,45.9843 z" id="boundary" inkscape:connector-curvature="0" />
	<path style="fill:none;stroke:red;stroke-width:1px;stroke-linecap:butt;stroke-linejoin:miter;stroke-opacity:1" d="M 519.528,82.1102 522.457,91.874 z" id="boundary" inkscape:connector-curvature="0" />
	<path style="fill:none;stroke:red;stroke-width:1px;stroke-linecap:butt;stroke-linejoin:miter;stroke-opacity:1" d="M 519.528,82.1102 514.646,73.3228 z" id="boundary" inkscape:connector-curvature="0" />
	<path style="fill:none;stroke:red;stroke-width:1px;stroke-linecap:butt;stroke-linejoin:miter;stroke-opacity:1" d="M 522.457,91.874 527.339,100.661 z" id="boundary" inkscape:connector-curvature="0" />
	<path style="fill:none;stroke:red;stroke-width:1px;stroke-linecap:butt;stroke-linejoin:miter;stroke-opacity:1" d="M 527.339,100.661 527.339,110.425 z" id="boundary" inkscape:connector-curvature="0" />
	<path style="fill:none;stroke:red;stroke-width:1px;stroke-linecap:butt;stroke-linejoin:miter;stroke-opacity:1" d="M 532.22,119.213 527.339,110.425 z" id="boundary" inkscape:connector-curvature="0" />
	<path style="fill:none;stroke:red;stroke-width:1px;stroke-linecap:butt;stroke-linejoin:miter;stroke-opacity:1" d="M 590.803,135.811 581.039,135.811 z" id="boundary" inkscape:connector-curvature="0" />
	<path style="fill:none;stroke:red;stroke-width:1px;stroke-linecap:butt;stroke-linejoin:miter;stroke-opacity:1" d="M 532.22,119.213 532.22,128.976 z" id="boundary" inkscape:connector-curvature="0" />
	<path style="fill:none;stroke:red;stroke-width:1px;stroke-linecap:butt;stroke-linejoin:miter;stroke-opacity:1" d="M 541.984,130.929 532.22,128.976 z" id="boundary" inkscape:connector-curvature="0" />
	<path style="fill:none;stroke:red;stroke-width:1px;stroke-linecap:butt;stroke-linejoin:miter;stroke-opacity:1" d="M 541.984,130.929 551.748,130.929 z" id="boundary" inkscape:connector-curvature="0" />
	<path style="fill:none;stroke:red;stroke-width:1px;stroke-linecap:butt;stroke-linejoin:miter;stroke-opacity:1" d="M 551.748,130.929 561.512,133.858 z" id="boundary" inkscape:connector-curvature="0" />
	<path style="fill:none;stroke:red;stroke-width:1px;stroke-linecap:butt;stroke-linejoin:miter;stroke-opacity:1" d="M 580.063,190.488 570.299,190.488 z" id="boundary" inkscape:connector-curvature="0" />
	<path style="fill:none;stroke:red;stroke-width:1px;stroke-linecap:butt;stroke-linejoin:miter;stroke-opacity:1" d="M 561.512,133.858 571.276,135.811 z" id="boundary" inkscape:connector-curvature="0" />
	<path style="fill:none;stroke:red;stroke-width:1px;stroke-linecap:butt;stroke-linejoin:miter;stroke-opacity:1" d="M 589.827,187.559 580.063,190.488 z" id="boundary" inkscape:connector-curvature="0" />
	<path style="fill:none;stroke:red;stroke-width:1px;stroke-linecap:butt;stroke-linejoin:miter;stroke-opacity:1" d="M 571.276,135.811 581.039,135.811 z" id="boundary" inkscape:connector-curvature="0" />
	<path style="fill:none;stroke:red;stroke-width:1px;stroke-linecap:butt;stroke-linejoin:miter;stroke-opacity:1" d="M 561.512,195.37 570.299,190.488 z" id="boundary" inkscape:connector-curvature="0" />
	<path style="fill:none;stroke:red;stroke-width:1px;stroke-linecap:butt;stroke-linejoin:miter;stroke-opacity:1" d="M 498.047,37.1969 493.165,28.4094 z" id="boundary" inkscape:connector-curvature="0" />
	<path style="fill:none;stroke:red;stroke-width:1px;stroke-linecap:butt;stroke-linejoin:miter;stroke-opacity:1" d="M 532.22,200.252 532.22,210.016 z" id="boundary" inkscape:connector-curvature="0" />
	<path style="fill:none;stroke:red;stroke-width:1px;stroke-linecap:butt;stroke-linejoin:miter;stroke-opacity:1" d="M 532.22,219.78 532.22,210.016 z" id="boundary" inkscape:connector-curvature="0" />
	<path style="fill:none;stroke:red;stroke-width:1px;stroke-linecap:butt;stroke-linejoin:miter;stroke-opacity:1" d="M 532.22,219.78 532.22,229.543 z" id="boundary" inkscape:connector-curvature="0" />
	<path style="fill:none;stroke:red;stroke-width:1px;stroke-linecap:butt;stroke-linejoin:miter;stroke-opacity:1" d="M 532.22,239.307 532.22,229.543 z" id="boundary" inkscape:connector-curvature="0" />
	<path style="fill:none;stroke:red;stroke-width:1px;stroke-linecap:butt;stroke-linejoin:miter;stroke-opacity:1" d="M 532.22,249.071 532.22,258.835 z" id="boundary" inkscape:connector-curvature="0" />
	<path style="fill:none;stroke:red;stroke-width:1px;stroke-linecap:butt;stroke-linejoin:miter;stroke-opacity:1" d="M 532.22,268.598 537.102,277.386 z" id="boundary" inkscape:connector-curvature="0" />
	<path style="fill:none;stroke:red;stroke-width:1px;stroke-linecap:butt;stroke-linejoin:miter;stroke-opacity:1" d="M 537.102,277.386 537.102,287.15 z" id="boundary" inkscape:connector-curvature="0" />
	<path style="fill:none;stroke:red;stroke-width:1px;stroke-linecap:butt;stroke-linejoin:miter;stroke-opacity:1" d="M 532.22,268.598 532.22,258.835 z" id="boundary" inkscape:connector-curvature="0" />
	<path style="fill:none;stroke:red;stroke-width:1px;stroke-linecap:butt;stroke-linejoin:miter;stroke-opacity:1" d="M 537.102,287.15 537.102,296.913 z" id="boundary" inkscape:connector-curvature="0" />
	<path style="fill:none;stroke:red;stroke-width:1px;stroke-linecap:butt;stroke-linejoin:miter;stroke-opacity:1" d="M 532.22,249.071 532.22,239.307 z" id="boundary" inkscape:connector-curvature="0" />
	<path style="fill:none;stroke:red;stroke-width:1px;stroke-linecap:butt;stroke-linejoin:miter;stroke-opacity:1" d="M 532.22,200.252 541.984,195.37 z" id="boundary" inkscape:connector-curvature="0" />
	<path style="fill:none;stroke:red;stroke-width:1px;stroke-linecap:butt;stroke-linejoin:miter;stroke-opacity:1" d="M 551.748,195.37 561.512,195.37 z" id="boundary" inkscape:connector-curvature="0" />
	<path style="fill:none;stroke:red;stroke-width:1px;stroke-linecap:butt;stroke-linejoin:miter;stroke-opacity:1" d="M 541.984,195.37 551.748,195.37 z" id="boundary" inkscape:connector-curvature="0" />
	<path style="fill:none;stroke:red;stroke-width:1px;stroke-linecap:butt;stroke-linejoin:miter;stroke-opacity:1" d="M 541.984,305.701 537.102,296.913 z" id="boundary" inkscape:connector-curvature="0" />
	<path style="fill:none;stroke:red;stroke-width:1px;stroke-linecap:butt;stroke-linejoin:miter;stroke-opacity:1" d="M 580.063,328.157 570.299,326.205 z" id="boundary" inkscape:connector-curvature="0" />
	<path style="fill:none;stroke:red;stroke-width:1px;stroke-linecap:butt;stroke-linejoin:miter;stroke-opacity:1" d="M 541.984,305.701 546.866,314.488 z" id="boundary" inkscape:connector-curvature="0" />
	<path style="fill:none;stroke:red;stroke-width:1px;stroke-linecap:butt;stroke-linejoin:miter;stroke-opacity:1" d="M 546.866,314.488 550.772,324.252 z" id="boundary" inkscape:connector-curvature="0" />
	<path style="fill:none;stroke:red;stroke-width:1px;stroke-linecap:butt;stroke-linejoin:miter;stroke-opacity:1" d="M 560.535,326.205 550.772,324.252 z" id="boundary" inkscape:connector-curvature="0" />
	<path style="fill:none;stroke:red;stroke-width:1px;stroke-linecap:butt;stroke-linejoin:miter;stroke-opacity:1" d="M 560.535,326.205 570.299,326.205 z" id="boundary" inkscape:connector-curvature="0" />
	<path style="fill:none;stroke:red;stroke-width:1px;stroke-linecap:butt;stroke-linejoin:miter;stroke-opacity:1" d="M 580.063,328.157 589.827,331.087 z" id="boundary" inkscape:connector-curvature="0" />
	<path style="fill:none;stroke:red;stroke-width:1px;stroke-linecap:butt;stroke-linejoin:miter;stroke-opacity:1" d="M 590.803,135.811 600.567,135.811 z" id="boundary" inkscape:connector-curvature="0" />
	<path style="fill:none;stroke:red;stroke-width:1px;stroke-linecap:butt;stroke-linejoin:miter;stroke-opacity:1" d="M 617.165,174.866 608.378,180.724 z" id="boundary" inkscape:connector-curvature="0" />
	<path style="fill:none;stroke:red;stroke-width:1px;stroke-linecap:butt;stroke-linejoin:miter;stroke-opacity:1" d="M 600.567,135.811 610.331,135.811 z" id="boundary" inkscape:connector-curvature="0" />
	<path style="fill:none;stroke:red;stroke-width:1px;stroke-linecap:butt;stroke-linejoin:miter;stroke-opacity:1" d="M 624.976,166.079 617.165,174.866 z" id="boundary" inkscape:connector-curvature="0" />
	<path style="fill:none;stroke:red;stroke-width:1px;stroke-linecap:butt;stroke-linejoin:miter;stroke-opacity:1" d="M 599.591,185.606 608.378,180.724 z" id="boundary" inkscape:connector-curvature="0" />
	<path style="fill:none;stroke:red;stroke-width:1px;stroke-linecap:butt;stroke-linejoin:miter;stroke-opacity:1" d="M 599.591,333.039 589.827,331.087 z" id="boundary" inkscape:connector-curvature="0" />
	<path style="fill:none;stroke:red;stroke-width:1px;stroke-linecap:butt;stroke-linejoin:miter;stroke-opacity:1" d="M 589.827,187.559 599.591,185.606 z" id="boundary" inkscape:connector-curvature="0" />
	<path style="fill:none;stroke:red;stroke-width:1px;stroke-linecap:butt;stroke-linejoin:miter;stroke-opacity:1" d="M 599.591,333.039 609.354,335.969 z" id="boundary" inkscape:connector-curvature="0" />
	<path style="fill:none;stroke:red;stroke-width:1px;stroke-linecap:butt;stroke-linejoin:miter;stroke-opacity:1" d="M 609.354,335.969 618.142,340.85 z" id="boundary" inkscape:connector-curvature="0" />
	<path style="fill:none;stroke:red;stroke-width:1px;stroke-linecap:butt;stroke-linejoin:miter;stroke-opacity:1" d="M 627.906,341.827 618.142,340.85 z" id="boundary" inkscape:connector-curvature="0" />
	<path style="fill:none;stroke:red;stroke-width:1px;stroke-linecap:butt;stroke-linejoin:miter;stroke-opacity:1" d="M 620.094,135.811 629.858,135.811 z" id="boundary" inkscape:connector-curvature="0" />
	<path style="fill:none;stroke:red;stroke-width:1px;stroke-linecap:butt;stroke-linejoin:miter;stroke-opacity:1" d="M 639.622,138.74 644.504,151.433 z" id="boundary" inkscape:connector-curvature="0" />
	<path style="fill:none;stroke:red;stroke-width:1px;stroke-linecap:butt;stroke-linejoin:miter;stroke-opacity:1" d="M 644.504,151.433 634.74,161.197 z" id="boundary" inkscape:connector-curvature="0" />
	<path style="fill:none;stroke:red;stroke-width:1px;stroke-linecap:butt;stroke-linejoin:miter;stroke-opacity:1" d="M 629.858,135.811 639.622,138.74 z" id="boundary" inkscape:connector-curvature="0" />
	<path style="fill:none;stroke:red;stroke-width:1px;stroke-linecap:butt;stroke-linejoin:miter;stroke-opacity:1" d="M 634.74,161.197 624.976,166.079 z" id="boundary" inkscape:connector-curvature="0" />
	<path style="fill:none;stroke:red;stroke-width:1px;stroke-linecap:butt;stroke-linejoin:miter;stroke-opacity:1" d="M 637.669,345.732 647.433,346.709 z" id="boundary" inkscape:connector-curvature="0" />
	<path style="fill:none;stroke:red;stroke-width:1px;stroke-linecap:butt;stroke-linejoin:miter;stroke-opacity:1" d="M 647.433,346.709 657.197,350.614 z" id="boundary" inkscape:connector-curvature="0" />
	<path style="fill:none;stroke:red;stroke-width:1px;stroke-linecap:butt;stroke-linejoin:miter;stroke-opacity:1" d="M 637.669,345.732 627.906,341.827 z" id="boundary" inkscape:connector-curvature="0" />
	<path style="fill:none;stroke:red;stroke-width:1px;stroke-linecap:butt;stroke-linejoin:miter;stroke-opacity:1" d="M 666.961,350.614 657.197,350.614 z" id="boundary" inkscape:connector-curvature="0" />
	<path style="fill:none;stroke:red;stroke-width:1px;stroke-linecap:butt;stroke-linejoin:miter;stroke-opacity:1" d="M 610.331,135.811 620.094,135.811 z" id="boundary" inkscape:connector-curvature="0" />
	<path style="fill:none;stroke:red;stroke-width:1px;stroke-linecap:butt;stroke-linejoin:miter;stroke-opacity:1" d="M 666.961,350.614 675.748,355.496 z" id="boundary" inkscape:connector-curvature="0" />
	<path style="fill:none;stroke:red;stroke-width:1px;stroke-linecap:butt;stroke-linejoin:miter;stroke-opacity:1" d="M 685.512,355.496 675.748,355.496 z" id="boundary" inkscape:connector-curvature="0" />
	<path style="fill:none;stroke:red;stroke-width:1px;stroke-linecap:butt;stroke-linejoin:miter;stroke-opacity:1" d="M 704.063,360.378 694.299,360.378 z" id="boundary" inkscape:connector-curvature="0" />
	<path style="fill:none;stroke:red;stroke-width:1px;stroke-linecap:butt;stroke-linejoin:miter;stroke-opacity:1" d="M 694.299,360.378 685.512,355.496 z" id="boundary" inkscape:connector-curvature="0" />
	<path style="fill:none;stroke:red;stroke-width:1px;stroke-linecap:butt;stroke-linejoin:miter;stroke-opacity:1" d="M 704.063,360.378 712.85,365.26 z" id="boundary" inkscape:connector-curvature="0" />
	<path style="fill:none;stroke:red;stroke-width:1px;stroke-linecap:butt;stroke-linejoin:miter;stroke-opacity:1" d="M 712.85,365.26 722.614,365.26 z" id="boundary" inkscape:connector-curvature="0" />
	<path style="fill:none;stroke:red;stroke-width:1px;stroke-linecap:butt;stroke-linejoin:miter;stroke-opacity:1" d="M 722.614,365.26 731.402,370.142 z" id="boundary" inkscape:connector-curvature="0" />
	<path style="fill:none;stroke:red;stroke-width:1px;stroke-linecap:butt;stroke-linejoin:miter;stroke-opacity:1" d="M 731.402,370.142 741.165,372.094 z" id="boundary" inkscape:connector-curvature="0" />
	<path style="fill:none;stroke:red;stroke-width:1px;stroke-linecap:butt;stroke-linejoin:miter;stroke-opacity:1" d="M 760.693,375.024 750.929,375.024 z" id="boundary" inkscape:connector-curvature="0" />
	<path style="fill:none;stroke:red;stroke-width:1px;stroke-linecap:butt;stroke-linejoin:miter;stroke-opacity:1" d="M 750.929,375.024 741.165,372.094 z" id="boundary" inkscape:connector-curvature="0" />
	<path style="fill:none;stroke:red;stroke-width:1px;stroke-linecap:butt;stroke-linejoin:miter;stroke-opacity:1" d="M 770.457,376.976 760.693,375.024 z" id="boundary" inkscape:connector-curvature="0" />
	<path style="fill:none;stroke:red;stroke-width:1px;stroke-linecap:butt;stroke-linejoin:miter;stroke-opacity:1" d="M 780.22,379.906 789.984,379.906 z" id="boundary" inkscape:connector-curvature="0" />
	<path style="fill:none;stroke:red;stroke-width:1px;stroke-linecap:butt;stroke-linejoin:miter;stroke-opacity:1" d="M 780.22,379.906 770.457,376.976 z" id="boundary" inkscape:connector-curvature="0" />
	<path style="fill:none;stroke:red;stroke-width:1px;stroke-linecap:butt;stroke-linejoin:miter;stroke-opacity:1" d="M 789.984,379.906 799.748,381.858 z" id="boundary" inkscape:connector-curvature="0" />
	<path style="fill:none;stroke:red;stroke-width:1px;stroke-linecap:butt;stroke-linejoin:miter;stroke-opacity:1" d="M 799.748,381.858 805.606,389.669 z" id="boundary" inkscape:connector-curvature="0" />
	<path style="fill:none;stroke:red;stroke-width:1px;stroke-linecap:butt;stroke-linejoin:miter;stroke-opacity:1" d="M 805.606,389.669 810.488,398.457 z" id="boundary" inkscape:connector-curvature="0" />
	<path style="fill:none;stroke:red;stroke-width:1px;stroke-linecap:butt;stroke-linejoin:miter;stroke-opacity:1" d="M 810.488,398.457 810.488,408.22 z" id="boundary" inkscape:connector-curvature="0" />
	<path style="fill:none;stroke:red;stroke-width:1px;stroke-linecap:butt;stroke-linejoin:miter;stroke-opacity:1" d="M 810.488,417.984 810.488,408.22 z" id="boundary" inkscape:connector-curvature="0" />
	<path style="fill:none;stroke:red;stroke-width:1px;stroke-linecap:butt;stroke-linejoin:miter;stroke-opacity:1" d="M 818.299,433.606 810.488,427.748 z" id="boundary" inkscape:connector-curvature="0" />
	<path style="fill:none;stroke:red;stroke-width:1px;stroke-linecap:butt;stroke-linejoin:miter;stroke-opacity:1" d="M 810.488,427.748 810.488,417.984 z" id="boundary" inkscape:connector-curvature="0" />
	<path style="fill:none;stroke:red;stroke-width:1px;stroke-linecap:butt;stroke-linejoin:miter;stroke-opacity:1" d="M 828.063,433.606 818.299,433.606 z" id="boundary" inkscape:connector-curvature="0" />
	<path style="fill:none;stroke:red;stroke-width:1px;stroke-linecap:butt;stroke-linejoin:miter;stroke-opacity:1" d="M 740.189,786.079 730.425,786.079 z" id="boundary" inkscape:connector-curvature="0" />
	<path style="fill:none;stroke:red;stroke-width:1px;stroke-linecap:butt;stroke-linejoin:miter;stroke-opacity:1" d="M 795.843,766.551 786.079,771.433 z" id="boundary" inkscape:connector-curvature="0" />
	<path style="fill:none;stroke:red;stroke-width:1px;stroke-linecap:butt;stroke-linejoin:miter;stroke-opacity:1" d="M 768.504,781.197 777.291,776.315 z" id="boundary" inkscape:connector-curvature="0" />
	<path style="fill:none;stroke:red;stroke-width:1px;stroke-linecap:butt;stroke-linejoin:miter;stroke-opacity:1" d="M 768.504,781.197 758.74,781.197 z" id="boundary" inkscape:connector-curvature="0" />
	<path style="fill:none;stroke:red;stroke-width:1px;stroke-linecap:butt;stroke-linejoin:miter;stroke-opacity:1" d="M 786.079,771.433 777.291,776.315 z" id="boundary" inkscape:connector-curvature="0" />
	<path style="fill:none;stroke:red;stroke-width:1px;stroke-linecap:butt;stroke-linejoin:miter;stroke-opacity:1" d="M 749.953,786.079 758.74,781.197 z" id="boundary" inkscape:connector-curvature="0" />
	<path style="fill:none;stroke:red;stroke-width:1px;stroke-linecap:butt;stroke-linejoin:miter;stroke-opacity:1" d="M 740.189,786.079 749.953,786.079 z" id="boundary" inkscape:connector-curvature="0" />
	<path style="fill:none;stroke:red;stroke-width:1px;stroke-linecap:butt;stroke-linejoin:miter;stroke-opacity:1" d="M 721.638,790.961 711.874,790.961 z" id="boundary" inkscape:connector-curvature="0" />
	<path style="fill:none;stroke:red;stroke-width:1px;stroke-linecap:butt;stroke-linejoin:miter;stroke-opacity:1" d="M 730.425,786.079 721.638,790.961 z" id="boundary" inkscape:connector-curvature="0" />
	<path style="fill:none;stroke:red;stroke-width:1px;stroke-linecap:butt;stroke-linejoin:miter;stroke-opacity:1" d="M 703.087,795.843 711.874,790.961 z" id="boundary" inkscape:connector-curvature="0" />
	<path style="fill:none;stroke:red;stroke-width:1px;stroke-linecap:butt;stroke-linejoin:miter;stroke-opacity:1" d="M 507.811,795.843 498.047,795.843 z" id="boundary" inkscape:connector-curvature="0" />
	<path style="fill:none;stroke:red;stroke-width:1px;stroke-linecap:butt;stroke-linejoin:miter;stroke-opacity:1" d="M 836.85,438.488 845.638,443.37 z" id="boundary" inkscape:connector-curvature="0" />
	<path style="fill:none;stroke:red;stroke-width:1px;stroke-linecap:butt;stroke-linejoin:miter;stroke-opacity:1" d="M 836.85,438.488 828.063,433.606 z" id="boundary" inkscape:connector-curvature="0" />
	<path style="fill:none;stroke:red;stroke-width:1px;stroke-linecap:butt;stroke-linejoin:miter;stroke-opacity:1" d="M 849.543,737.26 839.78,742.142 z" id="boundary" inkscape:connector-curvature="0" />
	<path style="fill:none;stroke:red;stroke-width:1px;stroke-linecap:butt;stroke-linejoin:miter;stroke-opacity:1" d="M 845.638,443.37 854.425,448.252 z" id="boundary" inkscape:connector-curvature="0" />
	<path style="fill:none;stroke:red;stroke-width:1px;stroke-linecap:butt;stroke-linejoin:miter;stroke-opacity:1" d="M 831.969,750.929 839.78,742.142 z" id="boundary" inkscape:connector-curvature="0" />
	<path style="fill:none;stroke:red;stroke-width:1px;stroke-linecap:butt;stroke-linejoin:miter;stroke-opacity:1" d="M 795.843,766.551 805.606,766.551 z" id="boundary" inkscape:connector-curvature="0" />
	<path style="fill:none;stroke:red;stroke-width:1px;stroke-linecap:butt;stroke-linejoin:miter;stroke-opacity:1" d="M 814.394,761.669 805.606,766.551 z" id="boundary" inkscape:connector-curvature="0" />
	<path style="fill:none;stroke:red;stroke-width:1px;stroke-linecap:butt;stroke-linejoin:miter;stroke-opacity:1" d="M 823.181,756.787 814.394,761.669 z" id="boundary" inkscape:connector-curvature="0" />
	<path style="fill:none;stroke:red;stroke-width:1px;stroke-linecap:butt;stroke-linejoin:miter;stroke-opacity:1" d="M 823.181,756.787 831.969,750.929 z" id="boundary" inkscape:connector-curvature="0" />
	<path style="fill:none;stroke:red;stroke-width:1px;stroke-linecap:butt;stroke-linejoin:miter;stroke-opacity:1" d="M 849.543,737.26 859.307,732.378 z" id="boundary" inkscape:connector-curvature="0" />
	<path style="fill:none;stroke:red;stroke-width:1px;stroke-linecap:butt;stroke-linejoin:miter;stroke-opacity:1" d="M 517.575,795.843 507.811,795.843 z" id="boundary" inkscape:connector-curvature="0" />
	<path style="fill:none;stroke:red;stroke-width:1px;stroke-linecap:butt;stroke-linejoin:miter;stroke-opacity:1" d="M 537.102,795.843 527.339,795.843 z" id="boundary" inkscape:connector-curvature="0" />
	<path style="fill:none;stroke:red;stroke-width:1px;stroke-linecap:butt;stroke-linejoin:miter;stroke-opacity:1" d="M 546.866,795.843 537.102,795.843 z" id="boundary" inkscape:connector-curvature="0" />
	<path style="fill:none;stroke:red;stroke-width:1px;stroke-linecap:butt;stroke-linejoin:miter;stroke-opacity:1" d="M 527.339,795.843 517.575,795.843 z" id="boundary" inkscape:connector-curvature="0" />
	<path style="fill:none;stroke:red;stroke-width:1px;stroke-linecap:butt;stroke-linejoin:miter;stroke-opacity:1" d="M 566.394,795.843 556.63,795.843 z" id="boundary" inkscape:connector-curvature="0" />
	<path style="fill:none;stroke:red;stroke-width:1px;stroke-linecap:butt;stroke-linejoin:miter;stroke-opacity:1" d="M 585.921,795.843 576.157,795.843 z" id="boundary" inkscape:connector-curvature="0" />
	<path style="fill:none;stroke:red;stroke-width:1px;stroke-linecap:butt;stroke-linejoin:miter;stroke-opacity:1" d="M 595.685,795.843 585.921,795.843 z" id="boundary" inkscape:connector-curvature="0" />
	<path style="fill:none;stroke:red;stroke-width:1px;stroke-linecap:butt;stroke-linejoin:miter;stroke-opacity:1" d="M 576.157,795.843 566.394,795.843 z" id="boundary" inkscape:connector-curvature="0" />
	<path style="fill:none;stroke:red;stroke-width:1px;stroke-linecap:butt;stroke-linejoin:miter;stroke-opacity:1" d="M 556.63,795.843 546.866,795.843 z" id="boundary" inkscape:connector-curvature="0" />
	<path style="fill:none;stroke:red;stroke-width:1px;stroke-linecap:butt;stroke-linejoin:miter;stroke-opacity:1" d="M 615.213,795.843 605.449,795.843 z" id="boundary" inkscape:connector-curvature="0" />
	<path style="fill:none;stroke:red;stroke-width:1px;stroke-linecap:butt;stroke-linejoin:miter;stroke-opacity:1" d="M 634.74,795.843 624.976,795.843 z" id="boundary" inkscape:connector-curvature="0" />
	<path style="fill:none;stroke:red;stroke-width:1px;stroke-linecap:butt;stroke-linejoin:miter;stroke-opacity:1" d="M 644.504,795.843 634.74,795.843 z" id="boundary" inkscape:connector-curvature="0" />
	<path style="fill:none;stroke:red;stroke-width:1px;stroke-linecap:butt;stroke-linejoin:miter;stroke-opacity:1" d="M 624.976,795.843 615.213,795.843 z" id="boundary" inkscape:connector-curvature="0" />
	<path style="fill:none;stroke:red;stroke-width:1px;stroke-linecap:butt;stroke-linejoin:miter;stroke-opacity:1" d="M 664.031,795.843 654.268,795.843 z" id="boundary" inkscape:connector-curvature="0" />
	<path style="fill:none;stroke:red;stroke-width:1px;stroke-linecap:butt;stroke-linejoin:miter;stroke-opacity:1" d="M 673.795,795.843 664.031,795.843 z" id="boundary" inkscape:connector-curvature="0" />
	<path style="fill:none;stroke:red;stroke-width:1px;stroke-linecap:butt;stroke-linejoin:miter;stroke-opacity:1" d="M 693.323,795.843 683.559,795.843 z" id="boundary" inkscape:connector-curvature="0" />
	<path style="fill:none;stroke:red;stroke-width:1px;stroke-linecap:butt;stroke-linejoin:miter;stroke-opacity:1" d="M 703.087,795.843 693.323,795.843 z" id="boundary" inkscape:connector-curvature="0" />
	<path style="fill:none;stroke:red;stroke-width:1px;stroke-linecap:butt;stroke-linejoin:miter;stroke-opacity:1" d="M 683.559,795.843 673.795,795.843 z" id="boundary" inkscape:connector-curvature="0" />
	<path style="fill:none;stroke:red;stroke-width:1px;stroke-linecap:butt;stroke-linejoin:miter;stroke-opacity:1" d="M 654.268,795.843 644.504,795.843 z" id="boundary" inkscape:connector-curvature="0" />
	<path style="fill:none;stroke:red;stroke-width:1px;stroke-linecap:butt;stroke-linejoin:miter;stroke-opacity:1" d="M 605.449,795.843 595.685,795.843 z" id="boundary" inkscape:connector-curvature="0" />
	<path style="fill:none;stroke:red;stroke-width:1px;stroke-linecap:butt;stroke-linejoin:miter;stroke-opacity:1" d="M 854.425,448.252 864.189,451.181 z" id="boundary" inkscape:connector-curvature="0" />
	<path style="fill:none;stroke:red;stroke-width:1px;stroke-linecap:butt;stroke-linejoin:miter;stroke-opacity:1" d="M 864.189,451.181 872.976,456.063 z" id="boundary" inkscape:connector-curvature="0" />
	<path style="fill:none;stroke:red;stroke-width:1px;stroke-linecap:butt;stroke-linejoin:miter;stroke-opacity:1" d="M 880.787,462.898 887.622,470.709 z" id="boundary" inkscape:connector-curvature="0" />
	<path style="fill:none;stroke:red;stroke-width:1px;stroke-linecap:butt;stroke-linejoin:miter;stroke-opacity:1" d="M 880.787,462.898 872.976,456.063 z" id="boundary" inkscape:connector-curvature="0" />
	<path style="fill:none;stroke:red;stroke-width:1px;stroke-linecap:butt;stroke-linejoin:miter;stroke-opacity:1" d="M 895.433,477.543 887.622,470.709 z" id="boundary" inkscape:connector-curvature="0" />
	<path style="fill:none;stroke:red;stroke-width:1px;stroke-linecap:butt;stroke-linejoin:miter;stroke-opacity:1" d="M 895.433,477.543 902.268,485.354 z" id="boundary" inkscape:connector-curvature="0" />
	<path style="fill:none;stroke:red;stroke-width:1px;stroke-linecap:butt;stroke-linejoin:miter;stroke-opacity:1" d="M 910.079,492.189 902.268,485.354 z" id="boundary" inkscape:connector-curvature="0" />
	<path style="fill:none;stroke:red;stroke-width:1px;stroke-linecap:butt;stroke-linejoin:miter;stroke-opacity:1" d="M 924.724,506.835 916.913,500 z" id="boundary" inkscape:connector-curvature="0" />
	<path style="fill:none;stroke:red;stroke-width:1px;stroke-linecap:butt;stroke-linejoin:miter;stroke-opacity:1" d="M 916.913,500 910.079,492.189 z" id="boundary" inkscape:connector-curvature="0" />
	<path style="fill:none;stroke:red;stroke-width:1px;stroke-linecap:butt;stroke-linejoin:miter;stroke-opacity:1" d="M 924.724,506.835 931.559,514.646 z" id="boundary" inkscape:connector-curvature="0" />
	<path style="fill:none;stroke:red;stroke-width:1px;stroke-linecap:butt;stroke-linejoin:miter;stroke-opacity:1" d="M 931.559,514.646 941.323,518.551 z" id="boundary" inkscape:connector-curvature="0" />
	<path style="fill:none;stroke:red;stroke-width:1px;stroke-linecap:butt;stroke-linejoin:miter;stroke-opacity:1" d="M 941.323,518.551 947.181,526.362 z" id="boundary" inkscape:connector-curvature="0" />
	<path style="fill:none;stroke:red;stroke-width:1px;stroke-linecap:butt;stroke-linejoin:miter;stroke-opacity:1" d="M 947.181,526.362 956.945,529.291 z" id="boundary" inkscape:connector-curvature="0" />
	<path style="fill:none;stroke:red;stroke-width:1px;stroke-linecap:butt;stroke-linejoin:miter;stroke-opacity:1" d="M 956.945,529.291 963.78,537.102 z" id="boundary" inkscape:connector-curvature="0" />
	<path style="fill:none;stroke:red;stroke-width:1px;stroke-linecap:butt;stroke-linejoin:miter;stroke-opacity:1" d="M 973.543,541.008 963.78,537.102 z" id="boundary" inkscape:connector-curvature="0" />
	<path style="fill:none;stroke:red;stroke-width:1px;stroke-linecap:butt;stroke-linejoin:miter;stroke-opacity:1" d="M 973.543,541.008 982.331,545.89 z" id="boundary" inkscape:connector-curvature="0" />
	<path style="fill:none;stroke:red;stroke-width:1px;stroke-linecap:butt;stroke-linejoin:miter;stroke-opacity:1" d="M 996,559.559 996,569.323 z" id="boundary" inkscape:connector-curvature="0" />
	<path style="fill:none;stroke:red;stroke-width:1px;stroke-linecap:butt;stroke-linejoin:miter;stroke-opacity:1" d="M 982.331,545.89 991.118,550.772 z" id="boundary" inkscape:connector-curvature="0" />
	<path style="fill:none;stroke:red;stroke-width:1px;stroke-linecap:butt;stroke-linejoin:miter;stroke-opacity:1" d="M 991.118,550.772 996,559.559 z" id="boundary" inkscape:connector-curvature="0" />
	<path style="fill:none;stroke:red;stroke-width:1px;stroke-linecap:butt;stroke-linejoin:miter;stroke-opacity:1" d="M 996,569.323 996,579.087 z" id="boundary" inkscape:connector-curvature="0" />
	<path style="fill:none;stroke:red;stroke-width:1px;stroke-linecap:butt;stroke-linejoin:miter;stroke-opacity:1" d="M 905.197,706.992 914.961,702.11 z" id="boundary" inkscape:connector-curvature="0" />
	<path style="fill:none;stroke:red;stroke-width:1px;stroke-linecap:butt;stroke-linejoin:miter;stroke-opacity:1" d="M 896.409,712.85 905.197,706.992 z" id="boundary" inkscape:connector-curvature="0" />
	<path style="fill:none;stroke:red;stroke-width:1px;stroke-linecap:butt;stroke-linejoin:miter;stroke-opacity:1" d="M 922.772,693.323 914.961,702.11 z" id="boundary" inkscape:connector-curvature="0" />
	<path style="fill:none;stroke:red;stroke-width:1px;stroke-linecap:butt;stroke-linejoin:miter;stroke-opacity:1" d="M 922.772,693.323 932.535,688.441 z" id="boundary" inkscape:connector-curvature="0" />
	<path style="fill:none;stroke:red;stroke-width:1px;stroke-linecap:butt;stroke-linejoin:miter;stroke-opacity:1" d="M 942.299,683.559 932.535,688.441 z" id="boundary" inkscape:connector-curvature="0" />
	<path style="fill:none;stroke:red;stroke-width:1px;stroke-linecap:butt;stroke-linejoin:miter;stroke-opacity:1" d="M 942.299,683.559 952.063,678.677 z" id="boundary" inkscape:connector-curvature="0" />
	<path style="fill:none;stroke:red;stroke-width:1px;stroke-linecap:butt;stroke-linejoin:miter;stroke-opacity:1" d="M 859.307,732.378 869.071,727.496 z" id="boundary" inkscape:connector-curvature="0" />
	<path style="fill:none;stroke:red;stroke-width:1px;stroke-linecap:butt;stroke-linejoin:miter;stroke-opacity:1" d="M 878.835,722.614 869.071,727.496 z" id="boundary" inkscape:connector-curvature="0" />
	<path style="fill:none;stroke:red;stroke-width:1px;stroke-linecap:butt;stroke-linejoin:miter;stroke-opacity:1" d="M 878.835,722.614 887.622,717.732 z" id="boundary" inkscape:connector-curvature="0" />
	<path style="fill:none;stroke:red;stroke-width:1px;stroke-linecap:butt;stroke-linejoin:miter;stroke-opacity:1" d="M 887.622,717.732 896.409,712.85 z" id="boundary" inkscape:connector-curvature="0" />
	<path style="fill:none;stroke:red;stroke-width:1px;stroke-linecap:butt;stroke-linejoin:miter;stroke-opacity:1" d="M 996,598.614 996,608.378 z" id="boundary" inkscape:connector-curvature="0" />
	<path style="fill:none;stroke:red;stroke-width:1px;stroke-linecap:butt;stroke-linejoin:miter;stroke-opacity:1" d="M 996,608.378 991.118,624.976 z" id="boundary" inkscape:connector-curvature="0" />
	<path style="fill:none;stroke:red;stroke-width:1px;stroke-linecap:butt;stroke-linejoin:miter;stroke-opacity:1" d="M 989.165,637.669 991.118,624.976 z" id="boundary" inkscape:connector-curvature="0" />
	<path style="fill:none;stroke:red;stroke-width:1px;stroke-linecap:butt;stroke-linejoin:miter;stroke-opacity:1" d="M 952.063,678.677 959.874,671.843 z" id="boundary" inkscape:connector-curvature="0" />
	<path style="fill:none;stroke:red;stroke-width:1px;stroke-linecap:butt;stroke-linejoin:miter;stroke-opacity:1" d="M 959.874,671.843 969.638,666.961 z" id="boundary" inkscape:connector-curvature="0" />
	<path style="fill:none;stroke:red;stroke-width:1px;stroke-linecap:butt;stroke-linejoin:miter;stroke-opacity:1" d="M 976.472,654.268 969.638,666.961 z" id="boundary" inkscape:connector-curvature="0" />
	<path style="fill:none;stroke:red;stroke-width:1px;stroke-linecap:butt;stroke-linejoin:miter;stroke-opacity:1" d="M 989.165,637.669 984.283,647.433 z" id="boundary" inkscape:connector-curvature="0" />
	<path style="fill:none;stroke:red;stroke-width:1px;stroke-linecap:butt;stroke-linejoin:miter;stroke-opacity:1" d="M 984.283,647.433 976.472,654.268 z" id="boundary" inkscape:connector-curvature="0" />
	<path style="fill:none;stroke:red;stroke-width:1px;stroke-linecap:butt;stroke-linejoin:miter;stroke-opacity:1" d="M 996,588.85 996,598.614 z" id="boundary" inkscape:connector-curvature="0" />
	<path style="fill:none;stroke:red;stroke-width:1px;stroke-linecap:butt;stroke-linejoin:miter;stroke-opacity:1" d="M 996,579.087 996,588.85 z" id="boundary" inkscape:connector-curvature="0" />
	<circle cx="4" cy="592.756" r="4" fill="#0" id="circle0"/>
	<circle cx="4" cy="602.52" r="4" fill="#0" id="circle1"/>
	<circle cx="4" cy="612.283" r="4" fill="#0" id="circle2"/>
	<circle cx="4" cy="622.047" r="4" fill="#0" id="circle3"/>
	<circle cx="4" cy="631.811" r="4" fill="#0" id="circle4"/>
	<circle cx="8.88189" cy="578.11" r="4" fill="#0" id="circle5"/>
	<circle cx="8.88189" cy="640.598" r="4" fill="#0" id="circle6"/>
	<circle cx="13.7638" cy="568.346" r="4" fill="#0" id="circle7"/>
	<circle cx="13.7638" cy="649.386" r="4" fill="#0" id="circle8"/>
	<circle cx="19.622" cy="657.197" r="4" fill="#0" id="circle9"/>
	<circle cx="21.5748" cy="560.535" r="4" fill="#0" id="circle10"/>
	<circle cx="27.4331" cy="664.031" r="4" fill="#0" id="circle11"/>
	<circle cx="28.4094" cy="548.819" r="4" fill="#0" id="circle12"/>
	<circle cx="31.3386" cy="673.795" r="4" fill="#0" id="circle13"/>
	<circle cx="36.2205" cy="541.008" r="4" fill="#0" id="circle14"/>
	<circle cx="41.1024" cy="677.701" r="4" fill="#0" id="circle15"/>
	<circle cx="44.0315" cy="533.197" r="4" fill="#0" id="circle16"/>
	<circle cx="48.9134" cy="683.559" r="4" fill="#0" id="circle17"/>
	<circle cx="51.8425" cy="526.362" r="4" fill="#0" id="circle18"/>
	<circle cx="57.7008" cy="688.441" r="4" fill="#0" id="circle19"/>
	<circle cx="60.6299" cy="521.48" r="4" fill="#0" id="circle20"/>
	<circle cx="67.4646" cy="688.441" r="4" fill="#0" id="circle21"/>
	<circle cx="68.4409" cy="513.669" r="4" fill="#0" id="circle22"/>
	<circle cx="76.252" cy="506.835" r="4" fill="#0" id="circle23"/>
	<circle cx="76.252" cy="693.323" r="4" fill="#0" id="circle24"/>
	<circle cx="83.0866" cy="701.134" r="4" fill="#0" id="circle25"/>
	<circle cx="85.0394" cy="501.953" r="4" fill="#0" id="circle26"/>
	<circle cx="92.8504" cy="494.142" r="4" fill="#0" id="circle27"/>
	<circle cx="92.8504" cy="705.039" r="4" fill="#0" id="circle28"/>
	<circle cx="100.661" cy="487.307" r="4" fill="#0" id="circle29"/>
	<circle cx="101.638" cy="709.921" r="4" fill="#0" id="circle30"/>
	<circle cx="109.449" cy="482.425" r="4" fill="#0" id="circle31"/>
	<circle cx="111.402" cy="712.85" r="4" fill="#0" id="circle32"/>
	<circle cx="118.236" cy="477.543" r="4" fill="#0" id="circle33"/>
	<circle cx="120.189" cy="717.732" r="4" fill="#0" id="circle34"/>
	<circle cx="126.047" cy="470.709" r="4" fill="#0" id="circle35"/>
	<circle cx="128.976" cy="722.614" r="4" fill="#0" id="circle36"/>
	<circle cx="135.811" cy="465.827" r="4" fill="#0" id="circle37"/>
	<circle cx="136.787" cy="729.449" r="4" fill="#0" id="circle38"/>
	<circle cx="145.575" cy="460.945" r="4" fill="#0" id="circle39"/>
	<circle cx="145.575" cy="734.331" r="4" fill="#0" id="circle40"/>
	<circle cx="155.339" cy="458.016" r="4" fill="#0" id="circle41"/>
	<circle cx="155.339" cy="737.26" r="4" fill="#0" id="circle42"/>
	<circle cx="164.126" cy="453.134" r="4" fill="#0" id="circle43"/>
	<circle cx="164.126" cy="742.142" r="4" fill="#0" id="circle44"/>
	<circle cx="172.913" cy="747.024" r="4" fill="#0" id="circle45"/>
	<circle cx="173.89" cy="453.134" r="4" fill="#0" id="circle46"/>
	<circle cx="181.701" cy="751.906" r="4" fill="#0" id="circle47"/>
	<circle cx="182.677" cy="448.252" r="4" fill="#0" id="circle48"/>
	<circle cx="190.488" cy="756.787" r="4" fill="#0" id="circle49"/>
	<circle cx="192.441" cy="448.252" r="4" fill="#0" id="circle50"/>
	<circle cx="194.394" cy="426.772" r="4" fill="#0" id="circle51"/>
	<circle cx="194.394" cy="436.535" r="4" fill="#0" id="circle52"/>
	<circle cx="199.276" cy="417.008" r="4" fill="#0" id="circle53"/>
	<circle cx="200.252" cy="756.787" r="4" fill="#0" id="circle54"/>
	<circle cx="204.157" cy="407.244" r="4" fill="#0" id="circle55"/>
	<circle cx="209.039" cy="761.669" r="4" fill="#0" id="circle56"/>
	<circle cx="211.969" cy="399.433" r="4" fill="#0" id="circle57"/>
	<circle cx="217.827" cy="766.551" r="4" fill="#0" id="circle58"/>
	<circle cx="221.732" cy="394.551" r="4" fill="#0" id="circle59"/>
	<circle cx="226.614" cy="771.433" r="4" fill="#0" id="circle60"/>
	<circle cx="230.52" cy="389.669" r="4" fill="#0" id="circle61"/>
	<circle cx="236.378" cy="771.433" r="4" fill="#0" id="circle62"/>
	<circle cx="239.307" cy="384.787" r="4" fill="#0" id="circle63"/>
	<circle cx="245.165" cy="776.315" r="4" fill="#0" id="circle64"/>
	<circle cx="249.071" cy="384.787" r="4" fill="#0" id="circle65"/>
	<circle cx="254.929" cy="776.315" r="4" fill="#0" id="circle66"/>
	<circle cx="257.858" cy="379.906" r="4" fill="#0" id="circle67"/>
	<circle cx="263.717" cy="781.197" r="4" fill="#0" id="circle68"/>
	<circle cx="267.622" cy="377.953" r="4" fill="#0" id="circle69"/>
	<circle cx="273.48" cy="781.197" r="4" fill="#0" id="circle70"/>
	<circle cx="277.386" cy="375.024" r="4" fill="#0" id="circle71"/>
	<circle cx="283.244" cy="783.15" r="4" fill="#0" id="circle72"/>
	<circle cx="287.15" cy="373.071" r="4" fill="#0" id="circle73"/>
	<circle cx="293.008" cy="786.079" r="4" fill="#0" id="circle74"/>
	<circle cx="296.913" cy="370.142" r="4" fill="#0" id="circle75"/>
	<circle cx="302.772" cy="786.079" r="4" fill="#0" id="circle76"/>
	<circle cx="306.677" cy="368.189" r="4" fill="#0" id="circle77"/>
	<circle cx="312.535" cy="786.079" r="4" fill="#0" id="circle78"/>
	<circle cx="316.441" cy="365.26" r="4" fill="#0" id="circle79"/>
	<circle cx="322.299" cy="788.031" r="4" fill="#0" id="circle80"/>
	<circle cx="326.205" cy="363.307" r="4" fill="#0" id="circle81"/>
	<circle cx="332.063" cy="790.961" r="4" fill="#0" id="circle82"/>
	<circle cx="335.969" cy="360.378" r="4" fill="#0" id="circle83"/>
	<circle cx="341.827" cy="792.913" r="4" fill="#0" id="circle84"/>
	<circle cx="345.732" cy="358.425" r="4" fill="#0" id="circle85"/>
	<circle cx="351.591" cy="795.843" r="4" fill="#0" id="circle86"/>
	<circle cx="355.496" cy="158.268" r="4" fill="#0" id="circle87"/>
	<circle cx="355.496" cy="168.031" r="4" fill="#0" id="circle88"/>
	<circle cx="355.496" cy="355.496" r="4" fill="#0" id="circle89"/>
	<circle cx="361.354" cy="175.843" r="4" fill="#0" id="circle90"/>
	<circle cx="361.354" cy="795.843" r="4" fill="#0" id="circle91"/>
	<circle cx="363.307" cy="150.457" r="4" fill="#0" id="circle92"/>
	<circle cx="365.26" cy="355.496" r="4" fill="#0" id="circle93"/>
	<circle cx="371.118" cy="175.843" r="4" fill="#0" id="circle94"/>
	<circle cx="371.118" cy="795.843" r="4" fill="#0" id="circle95"/>
	<circle cx="372.094" cy="145.575" r="4" fill="#0" id="circle96"/>
	<circle cx="375.024" cy="355.496" r="4" fill="#0" id="circle97"/>
	<circle cx="380.882" cy="140.693" r="4" fill="#0" id="circle98"/>
	<circle cx="380.882" cy="175.843" r="4" fill="#0" id="circle99"/>
	<circle cx="380.882" cy="795.843" r="4" fill="#0" id="circle100"/>
	<circle cx="383.811" cy="350.614" r="4" fill="#0" id="circle101"/>
	<circle cx="390.646" cy="137.764" r="4" fill="#0" id="circle102"/>
	<circle cx="390.646" cy="175.843" r="4" fill="#0" id="circle103"/>
	<circle cx="390.646" cy="795.843" r="4" fill="#0" id="circle104"/>
	<circle cx="393.575" cy="350.614" r="4" fill="#0" id="circle105"/>
	<circle cx="400.409" cy="135.811" r="4" fill="#0" id="circle106"/>
	<circle cx="400.409" cy="175.843" r="4" fill="#0" id="circle107"/>
	<circle cx="400.409" cy="795.843" r="4" fill="#0" id="circle108"/>
	<circle cx="403.339" cy="350.614" r="4" fill="#0" id="circle109"/>
	<circle cx="409.197" cy="130.929" r="4" fill="#0" id="circle110"/>
	<circle cx="410.173" cy="175.843" r="4" fill="#0" id="circle111"/>
	<circle cx="410.173" cy="795.843" r="4" fill="#0" id="circle112"/>
	<circle cx="413.102" cy="350.614" r="4" fill="#0" id="circle113"/>
	<circle cx="417.008" cy="340.85" r="4" fill="#0" id="circle114"/>
	<circle cx="418.961" cy="130.929" r="4" fill="#0" id="circle115"/>
	<circle cx="418.961" cy="329.134" r="4" fill="#0" id="circle116"/>
	<circle cx="419.937" cy="175.843" r="4" fill="#0" id="circle117"/>
	<circle cx="419.937" cy="795.843" r="4" fill="#0" id="circle118"/>
	<circle cx="423.843" cy="319.37" r="4" fill="#0" id="circle119"/>
	<circle cx="428.724" cy="130.929" r="4" fill="#0" id="circle120"/>
	<circle cx="429.701" cy="175.843" r="4" fill="#0" id="circle121"/>
	<circle cx="429.701" cy="795.843" r="4" fill="#0" id="circle122"/>
	<circle cx="431.654" cy="311.559" r="4" fill="#0" id="circle123"/>
	<circle cx="436.535" cy="301.795" r="4" fill="#0" id="circle124"/>
	<circle cx="437.512" cy="126.047" r="4" fill="#0" id="circle125"/>
	<circle cx="439.465" cy="175.843" r="4" fill="#0" id="circle126"/>
	<circle cx="439.465" cy="795.843" r="4" fill="#0" id="circle127"/>
	<circle cx="443.37" cy="285.197" r="4" fill="#0" id="circle128"/>
	<circle cx="447.276" cy="126.047" r="4" fill="#0" id="circle129"/>
	<circle cx="448.252" cy="265.669" r="4" fill="#0" id="circle130"/>
	<circle cx="448.252" cy="275.433" r="4" fill="#0" id="circle131"/>
	<circle cx="449.228" cy="175.843" r="4" fill="#0" id="circle132"/>
	<circle cx="449.228" cy="795.843" r="4" fill="#0" id="circle133"/>
	<circle cx="453.134" cy="185.606" r="4" fill="#0" id="circle134"/>
	<circle cx="453.134" cy="195.37" r="4" fill="#0" id="circle135"/>
	<circle cx="453.134" cy="205.134" r="4" fill="#0" id="circle136"/>
	<circle cx="453.134" cy="214.898" r="4" fill="#0" id="circle137"/>
	<circle cx="453.134" cy="224.661" r="4" fill="#0" id="circle138"/>
	<circle cx="453.134" cy="234.425" r="4" fill="#0" id="circle139"/>
	<circle cx="453.134" cy="244.189" r="4" fill="#0" id="circle140"/>
	<circle cx="453.134" cy="253.953" r="4" fill="#0" id="circle141"/>
	<circle cx="457.039" cy="126.047" r="4" fill="#0" id="circle142"/>
	<circle cx="458.992" cy="795.843" r="4" fill="#0" id="circle143"/>
	<circle cx="462.898" cy="11.811" r="4" fill="#0" id="circle144"/>
	<circle cx="462.898" cy="21.5748" r="4" fill="#0" id="circle145"/>
	<circle cx="462.898" cy="31.3386" r="4" fill="#0" id="circle146"/>
	<circle cx="462.898" cy="41.1024" r="4" fill="#0" id="circle147"/>
	<circle cx="462.898" cy="50.8661" r="4" fill="#0" id="circle148"/>
	<circle cx="462.898" cy="60.6299" r="4" fill="#0" id="circle149"/>
	<circle cx="462.898" cy="70.3937" r="4" fill="#0" id="circle150"/>
	<circle cx="462.898" cy="80.1575" r="4" fill="#0" id="circle151"/>
	<circle cx="462.898" cy="89.9213" r="4" fill="#0" id="circle152"/>
	<circle cx="462.898" cy="99.685" r="4" fill="#0" id="circle153"/>
	<circle cx="462.898" cy="109.449" r="4" fill="#0" id="circle154"/>
	<circle cx="468.756" cy="795.843" r="4" fill="#0" id="circle155"/>
	<circle cx="470.709" cy="4" r="4" fill="#0" id="circle156"/>
	<circle cx="478.52" cy="795.843" r="4" fill="#0" id="circle157"/>
	<circle cx="480.472" cy="4" r="4" fill="#0" id="circle158"/>
	<circle cx="488.283" cy="9.85827" r="4" fill="#0" id="circle159"/>
	<circle cx="488.283" cy="795.843" r="4" fill="#0" id="circle160"/>
	<circle cx="493.165" cy="18.6457" r="4" fill="#0" id="circle161"/>
	<circle cx="493.165" cy="28.4094" r="4" fill="#0" id="circle162"/>
	<circle cx="498.047" cy="37.1969" r="4" fill="#0" id="circle163"/>
	<circle cx="498.047" cy="795.843" r="4" fill="#0" id="circle164"/>
	<circle cx="502.929" cy="45.9843" r="4" fill="#0" id="circle165"/>
	<circle cx="507.811" cy="54.7717" r="4" fill="#0" id="circle166"/>
	<circle cx="507.811" cy="795.843" r="4" fill="#0" id="circle167"/>
	<circle cx="512.693" cy="63.5591" r="4" fill="#0" id="circle168"/>
	<circle cx="514.646" cy="73.3228" r="4" fill="#0" id="circle169"/>
	<circle cx="517.575" cy="795.843" r="4" fill="#0" id="circle170"/>
	<circle cx="519.528" cy="82.1102" r="4" fill="#0" id="circle171"/>
	<circle cx="522.457" cy="91.874" r="4" fill="#0" id="circle172"/>
	<circle cx="527.339" cy="100.661" r="4" fill="#0" id="circle173"/>
	<circle cx="527.339" cy="110.425" r="4" fill="#0" id="circle174"/>
	<circle cx="527.339" cy="795.843" r="4" fill="#0" id="circle175"/>
	<circle cx="532.22" cy="119.213" r="4" fill="#0" id="circle176"/>
	<circle cx="532.22" cy="128.976" r="4" fill="#0" id="circle177"/>
	<circle cx="532.22" cy="200.252" r="4" fill="#0" id="circle178"/>
	<circle cx="532.22" cy="210.016" r="4" fill="#0" id="circle179"/>
	<circle cx="532.22" cy="219.78" r="4" fill="#0" id="circle180"/>
	<circle cx="532.22" cy="229.543" r="4" fill="#0" id="circle181"/>
	<circle cx="532.22" cy="239.307" r="4" fill="#0" id="circle182"/>
	<circle cx="532.22" cy="249.071" r="4" fill="#0" id="circle183"/>
	<circle cx="532.22" cy="258.835" r="4" fill="#0" id="circle184"/>
	<circle cx="532.22" cy="268.598" r="4" fill="#0" id="circle185"/>
	<circle cx="537.102" cy="277.386" r="4" fill="#0" id="circle186"/>
	<circle cx="537.102" cy="287.15" r="4" fill="#0" id="circle187"/>
	<circle cx="537.102" cy="296.913" r="4" fill="#0" id="circle188"/>
	<circle cx="537.102" cy="795.843" r="4" fill="#0" id="circle189"/>
	<circle cx="541.984" cy="130.929" r="4" fill="#0" id="circle190"/>
	<circle cx="541.984" cy="195.37" r="4" fill="#0" id="circle191"/>
	<circle cx="541.984" cy="305.701" r="4" fill="#0" id="circle192"/>
	<circle cx="546.866" cy="314.488" r="4" fill="#0" id="circle193"/>
	<circle cx="546.866" cy="795.843" r="4" fill="#0" id="circle194"/>
	<circle cx="550.772" cy="324.252" r="4" fill="#0" id="circle195"/>
	<circle cx="551.748" cy="130.929" r="4" fill="#0" id="circle196"/>
	<circle cx="551.748" cy="195.37" r="4" fill="#0" id="circle197"/>
	<circle cx="556.63" cy="795.843" r="4" fill="#0" id="circle198"/>
	<circle cx="560.535" cy="326.205" r="4" fill="#0" id="circle199"/>
	<circle cx="561.512" cy="133.858" r="4" fill="#0" id="circle200"/>
	<circle cx="561.512" cy="195.37" r="4" fill="#0" id="circle201"/>
	<circle cx="566.394" cy="795.843" r="4" fill="#0" id="circle202"/>
	<circle cx="570.299" cy="190.488" r="4" fill="#0" id="circle203"/>
	<circle cx="570.299" cy="326.205" r="4" fill="#0" id="circle204"/>
	<circle cx="571.276" cy="135.811" r="4" fill="#0" id="circle205"/>
	<circle cx="576.157" cy="795.843" r="4" fill="#0" id="circle206"/>
	<circle cx="580.063" cy="190.488" r="4" fill="#0" id="circle207"/>
	<circle cx="580.063" cy="328.157" r="4" fill="#0" id="circle208"/>
	<circle cx="581.039" cy="135.811" r="4" fill="#0" id="circle209"/>
	<circle cx="585.921" cy="795.843" r="4" fill="#0" id="circle210"/>
	<circle cx="589.827" cy="187.559" r="4" fill="#0" id="circle211"/>
	<circle cx="589.827" cy="331.087" r="4" fill="#0" id="circle212"/>
	<circle cx="590.803" cy="135.811" r="4" fill="#0" id="circle213"/>
	<circle cx="595.685" cy="795.843" r="4" fill="#0" id="circle214"/>
	<circle cx="599.591" cy="185.606" r="4" fill="#0" id="circle215"/>
	<circle cx="599.591" cy="333.039" r="4" fill="#0" id="circle216"/>
	<circle cx="600.567" cy="135.811" r="4" fill="#0" id="circle217"/>
	<circle cx="605.449" cy="795.843" r="4" fill="#0" id="circle218"/>
	<circle cx="608.378" cy="180.724" r="4" fill="#0" id="circle219"/>
	<circle cx="609.354" cy="335.969" r="4" fill="#0" id="circle220"/>
	<circle cx="610.331" cy="135.811" r="4" fill="#0" id="circle221"/>
	<circle cx="615.213" cy="795.843" r="4" fill="#0" id="circle222"/>
	<circle cx="617.165" cy="174.866" r="4" fill="#0" id="circle223"/>
	<circle cx="618.142" cy="340.85" r="4" fill="#0" id="circle224"/>
	<circle cx="620.094" cy="135.811" r="4" fill="#0" id="circle225"/>
	<circle cx="624.976" cy="166.079" r="4" fill="#0" id="circle226"/>
	<circle cx="624.976" cy="795.843" r="4" fill="#0" id="circle227"/>
	<circle cx="627.906" cy="341.827" r="4" fill="#0" id="circle228"/>
	<circle cx="629.858" cy="135.811" r="4" fill="#0" id="circle229"/>
	<circle cx="634.74" cy="161.197" r="4" fill="#0" id="circle230"/>
	<circle cx="634.74" cy="795.843" r="4" fill="#0" id="circle231"/>
	<circle cx="637.669" cy="345.732" r="4" fill="#0" id="circle232"/>
	<circle cx="639.622" cy="138.74" r="4" fill="#0" id="circle233"/>
	<circle cx="644.504" cy="151.433" r="4" fill="#0" id="circle234"/>
	<circle cx="644.504" cy="795.843" r="4" fill="#0" id="circle235"/>
	<circle cx="647.433" cy="346.709" r="4" fill="#0" id="circle236"/>
	<circle cx="654.268" cy="795.843" r="4" fill="#0" id="circle237"/>
	<circle cx="657.197" cy="350.614" r="4" fill="#0" id="circle238"/>
	<circle cx="664.031" cy="795.843" r="4" fill="#0" id="circle239"/>
	<circle cx="666.961" cy="350.614" r="4" fill="#0" id="circle240"/>
	<circle cx="673.795" cy="795.843" r="4" fill="#0" id="circle241"/>
	<circle cx="675.748" cy="355.496" r="4" fill="#0" id="circle242"/>
	<circle cx="683.559" cy="795.843" r="4" fill="#0" id="circle243"/>
	<circle cx="685.512" cy="355.496" r="4" fill="#0" id="circle244"/>
	<circle cx="693.323" cy="795.843" r="4" fill="#0" id="circle245"/>
	<circle cx="694.299" cy="360.378" r="4" fill="#0" id="circle246"/>
	<circle cx="703.087" cy="795.843" r="4" fill="#0" id="circle247"/>
	<circle cx="704.063" cy="360.378" r="4" fill="#0" id="circle248"/>
	<circle cx="711.874" cy="790.961" r="4" fill="#0" id="circle249"/>
	<circle cx="712.85" cy="365.26" r="4" fill="#0" id="circle250"/>
	<circle cx="721.638" cy="790.961" r="4" fill="#0" id="circle251"/>
	<circle cx="722.614" cy="365.26" r="4" fill="#0" id="circle252"/>
	<circle cx="730.425" cy="786.079" r="4" fill="#0" id="circle253"/>
	<circle cx="731.402" cy="370.142" r="4" fill="#0" id="circle254"/>
	<circle cx="740.189" cy="786.079" r="4" fill="#0" id="circle255"/>
	<circle cx="741.165" cy="372.094" r="4" fill="#0" id="circle256"/>
	<circle cx="749.953" cy="786.079" r="4" fill="#0" id="circle257"/>
	<circle cx="750.929" cy="375.024" r="4" fill="#0" id="circle258"/>
	<circle cx="758.74" cy="781.197" r="4" fill="#0" id="circle259"/>
	<circle cx="760.693" cy="375.024" r="4" fill="#0" id="circle260"/>
	<circle cx="768.504" cy="781.197" r="4" fill="#0" id="circle261"/>
	<circle cx="770.457" cy="376.976" r="4" fill="#0" id="circle262"/>
	<circle cx="777.291" cy="776.315" r="4" fill="#0" id="circle263"/>
	<circle cx="780.22" cy="379.906" r="4" fill="#0" id="circle264"/>
	<circle cx="786.079" cy="771.433" r="4" fill="#0" id="circle265"/>
	<circle cx="789.984" cy="379.906" r="4" fill="#0" id="circle266"/>
	<circle cx="795.843" cy="766.551" r="4" fill="#0" id="circle267"/>
	<circle cx="799.748" cy="381.858" r="4" fill="#0" id="circle268"/>
	<circle cx="805.606" cy="389.669" r="4" fill="#0" id="circle269"/>
	<circle cx="805.606" cy="766.551" r="4" fill="#0" id="circle270"/>
	<circle cx="810.488" cy="398.457" r="4" fill="#0" id="circle271"/>
	<circle cx="810.488" cy="408.22" r="4" fill="#0" id="circle272"/>
	<circle cx="810.488" cy="417.984" r="4" fill="#0" id="circle273"/>
	<circle cx="810.488" cy="427.748" r="4" fill="#0" id="circle274"/>
	<circle cx="814.394" cy="761.669" r="4" fill="#0" id="circle275"/>
	<circle cx="818.299" cy="433.606" r="4" fill="#0" id="circle276"/>
	<circle cx="823.181" cy="756.787" r="4" fill="#0" id="circle277"/>
	<circle cx="828.063" cy="433.606" r="4" fill="#0" id="circle278"/>
	<circle cx="831.969" cy="750.929" r="4" fill="#0" id="circle279"/>
	<circle cx="836.85" cy="438.488" r="4" fill="#0" id="circle280"/>
	<circle cx="839.78" cy="742.142" r="4" fill="#0" id="circle281"/>
	<circle cx="845.638" cy="443.37" r="4" fill="#0" id="circle282"/>
	<circle cx="849.543" cy="737.26" r="4" fill="#0" id="circle283"/>
	<circle cx="854.425" cy="448.252" r="4" fill="#0" id="circle284"/>
	<circle cx="859.307" cy="732.378" r="4" fill="#0" id="circle285"/>
	<circle cx="864.189" cy="451.181" r="4" fill="#0" id="circle286"/>
	<circle cx="869.071" cy="727.496" r="4" fill="#0" id="circle287"/>
	<circle cx="872.976" cy="456.063" r="4" fill="#0" id="circle288"/>
	<circle cx="878.835" cy="722.614" r="4" fill="#0" id="circle289"/>
	<circle cx="880.787" cy="462.898" r="4" fill="#0" id="circle290"/>
	<circle cx="887.622" cy="470.709" r="4" fill="#0" id="circle291"/>
	<circle cx="887.622" cy="717.732" r="4" fill="#0" id="circle292"/>
	<circle cx="895.433" cy="477.543" r="4" fill="#0" id="circle293"/>
	<circle cx="896.409" cy="712.85" r="4" fill="#0" id="circle294"/>
	<circle cx="902.268" cy="485.354" r="4" fill="#0" id="circle295"/>
	<circle cx="905.197" cy="706.992" r="4" fill="#0" id="circle296"/>
	<circle cx="910.079" cy="492.189" r="4" fill="#0" id="circle297"/>
	<circle cx="914.961" cy="702.11" r="4" fill="#0" id="circle298"/>
	<circle cx="916.913" cy="500" r="4" fill="#0" id="circle299"/>
	<circle cx="922.772" cy="693.323" r="4" fill="#0" id="circle300"/>
	<circle cx="924.724" cy="506.835" r="4" fill="#0" id="circle301"/>
	<circle cx="931.559" cy="514.646" r="4" fill="#0" id="circle302"/>
	<circle cx="932.535" cy="688.441" r="4" fill="#0" id="circle303"/>
	<circle cx="941.323" cy="518.551" r="4" fill="#0" id="circle304"/>
	<circle cx="942.299" cy="683.559" r="4" fill="#0" id="circle305"/>
	<circle cx="947.181" cy="526.362" r="4" fill="#0" id="circle306"/>
	<circle cx="952.063" cy="678.677" r="4" fill="#0" id="circle307"/>
	<circle cx="956.945" cy="529.291" r="4" fill="#0" id="circle308"/>
	<circle cx="959.874" cy="671.843" r="4" fill="#0" id="circle309"/>
	<circle cx="963.78" cy="537.102" r="4" fill="#0" id="circle310"/>
	<circle cx="969.638" cy="666.961" r="4" fill="#0" id="circle311"/>
	<circle cx="973.543" cy="541.008" r="4" fill="#0" id="circle312"/>
	<circle cx="976.472" cy="654.268" r="4" fill="#0" id="circle313"/>
	<circle cx="982.331" cy="545.89" r="4" fill="#0" id="circle314"/>
	<circle cx="984.283" cy="647.433" r="4" fill="#0" id="circle315"/>
	<circle cx="989.165" cy="637.669" r="4" fill="#0" id="circle316"/>
	<circle cx="991.118" cy="550.772" r="4" fill="#0" id="circle317"/>
	<circle cx="991.118" cy="624.976" r="4" fill="#0" id="circle318"/>
	<circle cx="996" cy="559.559" r="4" fill="#0" id="circle319"/>
	<circle cx="996" cy="569.323" r="4" fill="#0" id="circle320"/>
	<circle cx="996" cy="579.087" r="4" fill="#0" id="circle321"/>
	<circle cx="996" cy="588.85" r="4" fill="#0" id="circle322"/>
	<circle cx="996" cy="598.614" r="4" fill="#0" id="circle323"/>
	<circle cx="996" cy="608.378" r="4" fill="#0" id="circle324"/>
	</g>
</svg>