<?xml version="1.0" encoding="UTF-8" standalone="no"?>
<!-- Created with CurveBenchmark -->
<svg
	xmlns:dc="http://purl.org/dc/elements/1.1/"
	xmlns:cc="http://creativecommons.org/ns#"
	xmlns:rdf="http://www.w3.org/1999/02/22-rdf-syntax-ns#"
	xmlns:svg="http://www.w3.org/2000/svg"
	xmlns="http://www.w3.org/2000/svg"
	xmlns:sodipodi="http://sodipodi.sourceforge.net/DTD/sodipodi-0.dtd"
	xmlns:inkscape="http://www.inkscape.org/namespaces/inkscape"
	width="1000"
	height="1000"
	id="svg2"
	version="1.1"
	sodipodi:docname="manifold/nncrust-sink305.png.txt">
<defs
	id="defs4" />
<metadata
	id="metadata7">
	<rdf:RDF>
		<cc:Work
			rdf:about="">
			<dc:format>image/svg+xml</dc:format>
			<dc:type
				rdf:resource="http://purl.org/dc/dcmitype/StillImage" />
			<dc:title></dc:title>
		</cc:Work>
	</rdf:RDF>
</metadata>
<g
	inkscape:label="Layer 1"
	inkscape:groupmode="layer"
	id="layer1">
	<path style="fill:none;stroke:red;stroke-width:1px;stroke-linecap:butt;stroke-linejoin:miter;stroke-opacity:1" d="M 13.7734,209.241 13.7734,160.374 z" id="boundary" inkscape:connector-curvature="0" />
	<path style="fill:none;stroke:red;stroke-width:1px;stroke-linecap:butt;stroke-linejoin:miter;stroke-opacity:1" d="M 13.7734,160.374 62.6404,160.374 z" id="boundary" inkscape:connector-curvature="0" />
	<path style="fill:none;stroke:red;stroke-width:1px;stroke-linecap:butt;stroke-linejoin:miter;stroke-opacity:1" d="M 13.7734,160.374 336.296,4 z" id="boundary" inkscape:connector-curvature="0" />
	<path style="fill:none;stroke:red;stroke-width:1px;stroke-linecap:butt;stroke-linejoin:miter;stroke-opacity:1" d="M 111.507,165.261 62.6404,160.374 z" id="boundary" inkscape:connector-curvature="0" />
	<path style="fill:none;stroke:red;stroke-width:1px;stroke-linecap:butt;stroke-linejoin:miter;stroke-opacity:1" d="M 4,267.882 13.7734,209.241 z" id="boundary" inkscape:connector-curvature="0" />
	<path style="fill:none;stroke:red;stroke-width:1px;stroke-linecap:butt;stroke-linejoin:miter;stroke-opacity:1" d="M 28.4335,311.862 77.3005,311.862 z" id="boundary" inkscape:connector-curvature="0" />
	<path style="fill:none;stroke:red;stroke-width:1px;stroke-linecap:butt;stroke-linejoin:miter;stroke-opacity:1" d="M 28.4335,311.862 4,267.882 z" id="boundary" inkscape:connector-curvature="0" />
	<path style="fill:none;stroke:red;stroke-width:1px;stroke-linecap:butt;stroke-linejoin:miter;stroke-opacity:1" d="M 126.167,311.862 77.3005,311.862 z" id="boundary" inkscape:connector-curvature="0" />
	<path style="fill:none;stroke:red;stroke-width:1px;stroke-linecap:butt;stroke-linejoin:miter;stroke-opacity:1" d="M 209.241,160.374 160.374,160.374 z" id="boundary" inkscape:connector-curvature="0" />
	<path style="fill:none;stroke:red;stroke-width:1px;stroke-linecap:butt;stroke-linejoin:miter;stroke-opacity:1" d="M 160.374,160.374 111.507,165.261 z" id="boundary" inkscape:connector-curvature="0" />
	<path style="fill:none;stroke:red;stroke-width:1px;stroke-linecap:butt;stroke-linejoin:miter;stroke-opacity:1" d="M 336.296,4 336.296,52.867 z" id="boundary" inkscape:connector-curvature="0" />
	<path style="fill:none;stroke:red;stroke-width:1px;stroke-linecap:butt;stroke-linejoin:miter;stroke-opacity:1" d="M 336.296,101.734 336.296,52.867 z" id="boundary" inkscape:connector-curvature="0" />
	<path style="fill:none;stroke:red;stroke-width:1px;stroke-linecap:butt;stroke-linejoin:miter;stroke-opacity:1" d="M 380.276,77.3005 336.296,101.734 z" id="boundary" inkscape:connector-curvature="0" />
	<path style="fill:none;stroke:red;stroke-width:1px;stroke-linecap:butt;stroke-linejoin:miter;stroke-opacity:1" d="M 336.296,4 380.276,28.4335 z" id="boundary" inkscape:connector-curvature="0" />
	<path style="fill:none;stroke:red;stroke-width:1px;stroke-linecap:butt;stroke-linejoin:miter;stroke-opacity:1" d="M 209.241,160.374 258.108,160.374 z" id="boundary" inkscape:connector-curvature="0" />
	<path style="fill:none;stroke:red;stroke-width:1px;stroke-linecap:butt;stroke-linejoin:miter;stroke-opacity:1" d="M 306.975,160.374 258.108,160.374 z" id="boundary" inkscape:connector-curvature="0" />
	<path style="fill:none;stroke:red;stroke-width:1px;stroke-linecap:butt;stroke-linejoin:miter;stroke-opacity:1" d="M 126.167,311.862 140.828,360.729 z" id="boundary" inkscape:connector-curvature="0" />
	<path style="fill:none;stroke:red;stroke-width:1px;stroke-linecap:butt;stroke-linejoin:miter;stroke-opacity:1" d="M 179.921,394.936 140.828,360.729 z" id="boundary" inkscape:connector-curvature="0" />
	<path style="fill:none;stroke:red;stroke-width:1px;stroke-linecap:butt;stroke-linejoin:miter;stroke-opacity:1" d="M 223.901,419.369 267.882,443.803 z" id="boundary" inkscape:connector-curvature="0" />
	<path style="fill:none;stroke:red;stroke-width:1px;stroke-linecap:butt;stroke-linejoin:miter;stroke-opacity:1" d="M 267.882,443.803 287.429,492.67 z" id="boundary" inkscape:connector-curvature="0" />
	<path style="fill:none;stroke:red;stroke-width:1px;stroke-linecap:butt;stroke-linejoin:miter;stroke-opacity:1" d="M 223.901,419.369 179.921,394.936 z" id="boundary" inkscape:connector-curvature="0" />
	<path style="fill:none;stroke:red;stroke-width:1px;stroke-linecap:butt;stroke-linejoin:miter;stroke-opacity:1" d="M 302.089,996 253.222,996 z" id="boundary" inkscape:connector-curvature="0" />
	<path style="fill:none;stroke:red;stroke-width:1px;stroke-linecap:butt;stroke-linejoin:miter;stroke-opacity:1" d="M 253.222,996 228.788,952.02 z" id="boundary" inkscape:connector-curvature="0" />
	<path style="fill:none;stroke:red;stroke-width:1px;stroke-linecap:butt;stroke-linejoin:miter;stroke-opacity:1" d="M 287.429,492.67 287.429,541.537 z" id="boundary" inkscape:connector-curvature="0" />
	<path style="fill:none;stroke:red;stroke-width:1px;stroke-linecap:butt;stroke-linejoin:miter;stroke-opacity:1" d="M 267.882,893.379 228.788,952.02 z" id="boundary" inkscape:connector-curvature="0" />
	<path style="fill:none;stroke:red;stroke-width:1px;stroke-linecap:butt;stroke-linejoin:miter;stroke-opacity:1" d="M 287.429,541.537 287.429,590.404 z" id="boundary" inkscape:connector-curvature="0" />
	<path style="fill:none;stroke:red;stroke-width:1px;stroke-linecap:butt;stroke-linejoin:miter;stroke-opacity:1" d="M 287.429,639.271 287.429,688.138 z" id="boundary" inkscape:connector-curvature="0" />
	<path style="fill:none;stroke:red;stroke-width:1px;stroke-linecap:butt;stroke-linejoin:miter;stroke-opacity:1" d="M 287.429,639.271 287.429,590.404 z" id="boundary" inkscape:connector-curvature="0" />
	<path style="fill:none;stroke:red;stroke-width:1px;stroke-linecap:butt;stroke-linejoin:miter;stroke-opacity:1" d="M 287.429,737.005 287.429,785.872 z" id="boundary" inkscape:connector-curvature="0" />
	<path style="fill:none;stroke:red;stroke-width:1px;stroke-linecap:butt;stroke-linejoin:miter;stroke-opacity:1" d="M 287.429,834.739 287.429,785.872 z" id="boundary" inkscape:connector-curvature="0" />
	<path style="fill:none;stroke:red;stroke-width:1px;stroke-linecap:butt;stroke-linejoin:miter;stroke-opacity:1" d="M 350.956,996 302.089,996 z" id="boundary" inkscape:connector-curvature="0" />
	<path style="fill:none;stroke:red;stroke-width:1px;stroke-linecap:butt;stroke-linejoin:miter;stroke-opacity:1" d="M 267.882,893.379 287.429,834.739 z" id="boundary" inkscape:connector-curvature="0" />
	<path style="fill:none;stroke:red;stroke-width:1px;stroke-linecap:butt;stroke-linejoin:miter;stroke-opacity:1" d="M 287.429,688.138 287.429,737.005 z" id="boundary" inkscape:connector-curvature="0" />
	<path style="fill:none;stroke:red;stroke-width:1px;stroke-linecap:butt;stroke-linejoin:miter;stroke-opacity:1" d="M 336.296,101.734 360.729,145.714 z" id="boundary" inkscape:connector-curvature="0" />
	<path style="fill:none;stroke:red;stroke-width:1px;stroke-linecap:butt;stroke-linejoin:miter;stroke-opacity:1" d="M 360.729,145.714 306.975,160.374 z" id="boundary" inkscape:connector-curvature="0" />
	<path style="fill:none;stroke:red;stroke-width:1px;stroke-linecap:butt;stroke-linejoin:miter;stroke-opacity:1" d="M 380.276,28.4335 380.276,77.3005 z" id="boundary" inkscape:connector-curvature="0" />
	<path style="fill:none;stroke:red;stroke-width:1px;stroke-linecap:butt;stroke-linejoin:miter;stroke-opacity:1" d="M 409.596,160.374 360.729,145.714 z" id="boundary" inkscape:connector-curvature="0" />
	<path style="fill:none;stroke:red;stroke-width:1px;stroke-linecap:butt;stroke-linejoin:miter;stroke-opacity:1" d="M 458.463,160.374 409.596,160.374 z" id="boundary" inkscape:connector-curvature="0" />
	<path style="fill:none;stroke:red;stroke-width:1px;stroke-linecap:butt;stroke-linejoin:miter;stroke-opacity:1" d="M 595.291,346.069 556.197,394.936 z" id="boundary" inkscape:connector-curvature="0" />
	<path style="fill:none;stroke:red;stroke-width:1px;stroke-linecap:butt;stroke-linejoin:miter;stroke-opacity:1" d="M 507.33,160.374 458.463,160.374 z" id="boundary" inkscape:connector-curvature="0" />
	<path style="fill:none;stroke:red;stroke-width:1px;stroke-linecap:butt;stroke-linejoin:miter;stroke-opacity:1" d="M 507.33,160.374 556.197,160.374 z" id="boundary" inkscape:connector-curvature="0" />
	<path style="fill:none;stroke:red;stroke-width:1px;stroke-linecap:butt;stroke-linejoin:miter;stroke-opacity:1" d="M 605.064,160.374 556.197,160.374 z" id="boundary" inkscape:connector-curvature="0" />
	<path style="fill:none;stroke:red;stroke-width:1px;stroke-linecap:butt;stroke-linejoin:miter;stroke-opacity:1" d="M 556.197,394.936 512.217,419.369 z" id="boundary" inkscape:connector-curvature="0" />
	<path style="fill:none;stroke:red;stroke-width:1px;stroke-linecap:butt;stroke-linejoin:miter;stroke-opacity:1" d="M 605.064,160.374 653.931,160.374 z" id="boundary" inkscape:connector-curvature="0" />
	<path style="fill:none;stroke:red;stroke-width:1px;stroke-linecap:butt;stroke-linejoin:miter;stroke-opacity:1" d="M 693.025,189.695 702.798,238.562 z" id="boundary" inkscape:connector-curvature="0" />
	<path style="fill:none;stroke:red;stroke-width:1px;stroke-linecap:butt;stroke-linejoin:miter;stroke-opacity:1" d="M 653.931,160.374 693.025,189.695 z" id="boundary" inkscape:connector-curvature="0" />
	<path style="fill:none;stroke:red;stroke-width:1px;stroke-linecap:butt;stroke-linejoin:miter;stroke-opacity:1" d="M 732.118,297.202 702.798,238.562 z" id="boundary" inkscape:connector-curvature="0" />
	<path style="fill:none;stroke:red;stroke-width:1px;stroke-linecap:butt;stroke-linejoin:miter;stroke-opacity:1" d="M 595.291,346.069 634.384,311.862 z" id="boundary" inkscape:connector-curvature="0" />
	<path style="fill:none;stroke:red;stroke-width:1px;stroke-linecap:butt;stroke-linejoin:miter;stroke-opacity:1" d="M 634.384,311.862 683.251,311.862 z" id="boundary" inkscape:connector-curvature="0" />
	<path style="fill:none;stroke:red;stroke-width:1px;stroke-linecap:butt;stroke-linejoin:miter;stroke-opacity:1" d="M 732.118,297.202 683.251,311.862 z" id="boundary" inkscape:connector-curvature="0" />
	<path style="fill:none;stroke:red;stroke-width:1px;stroke-linecap:butt;stroke-linejoin:miter;stroke-opacity:1" d="M 468.236,492.67 468.236,541.537 z" id="boundary" inkscape:connector-curvature="0" />
	<path style="fill:none;stroke:red;stroke-width:1px;stroke-linecap:butt;stroke-linejoin:miter;stroke-opacity:1" d="M 468.236,492.67 468.236,443.803 z" id="boundary" inkscape:connector-curvature="0" />
	<path style="fill:none;stroke:red;stroke-width:1px;stroke-linecap:butt;stroke-linejoin:miter;stroke-opacity:1" d="M 468.236,443.803 512.217,419.369 z" id="boundary" inkscape:connector-curvature="0" />
	<path style="fill:none;stroke:red;stroke-width:1px;stroke-linecap:butt;stroke-linejoin:miter;stroke-opacity:1" d="M 468.236,590.404 468.236,639.271 z" id="boundary" inkscape:connector-curvature="0" />
	<path style="fill:none;stroke:red;stroke-width:1px;stroke-linecap:butt;stroke-linejoin:miter;stroke-opacity:1" d="M 468.236,541.537 468.236,590.404 z" id="boundary" inkscape:connector-curvature="0" />
	<path style="fill:none;stroke:red;stroke-width:1px;stroke-linecap:butt;stroke-linejoin:miter;stroke-opacity:1" d="M 399.823,996 350.956,996 z" id="boundary" inkscape:connector-curvature="0" />
	<path style="fill:none;stroke:red;stroke-width:1px;stroke-linecap:butt;stroke-linejoin:miter;stroke-opacity:1" d="M 468.236,688.138 468.236,737.005 z" id="boundary" inkscape:connector-curvature="0" />
	<path style="fill:none;stroke:red;stroke-width:1px;stroke-linecap:butt;stroke-linejoin:miter;stroke-opacity:1" d="M 448.69,996 399.823,996 z" id="boundary" inkscape:connector-curvature="0" />
	<path style="fill:none;stroke:red;stroke-width:1px;stroke-linecap:butt;stroke-linejoin:miter;stroke-opacity:1" d="M 468.236,639.271 468.236,688.138 z" id="boundary" inkscape:connector-curvature="0" />
	<path style="fill:none;stroke:red;stroke-width:1px;stroke-linecap:butt;stroke-linejoin:miter;stroke-opacity:1" d="M 468.236,737.005 468.236,785.872 z" id="boundary" inkscape:connector-curvature="0" />
	<path style="fill:none;stroke:red;stroke-width:1px;stroke-linecap:butt;stroke-linejoin:miter;stroke-opacity:1" d="M 468.236,785.872 468.236,834.739 z" id="boundary" inkscape:connector-curvature="0" />
	<path style="fill:none;stroke:red;stroke-width:1px;stroke-linecap:butt;stroke-linejoin:miter;stroke-opacity:1" d="M 473.123,883.606 468.236,834.739 z" id="boundary" inkscape:connector-curvature="0" />
	<path style="fill:none;stroke:red;stroke-width:1px;stroke-linecap:butt;stroke-linejoin:miter;stroke-opacity:1" d="M 497.557,927.586 473.123,883.606 z" id="boundary" inkscape:connector-curvature="0" />
	<path style="fill:none;stroke:red;stroke-width:1px;stroke-linecap:butt;stroke-linejoin:miter;stroke-opacity:1" d="M 497.557,996 448.69,996 z" id="boundary" inkscape:connector-curvature="0" />
	<path style="fill:none;stroke:red;stroke-width:1px;stroke-linecap:butt;stroke-linejoin:miter;stroke-opacity:1" d="M 497.557,927.586 497.557,996 z" id="boundary" inkscape:connector-curvature="0" />
	<path style="fill:none;stroke:red;stroke-width:1px;stroke-linecap:butt;stroke-linejoin:miter;stroke-opacity:1" d="M 732.118,297.202 497.557,996 z" id="boundary" inkscape:connector-curvature="0" />
	<circle cx="4" cy="267.882" r="4" fill="#0" id="circle0"/>
	<circle cx="13.7734" cy="160.374" r="4" fill="#0" id="circle1"/>
	<circle cx="13.7734" cy="209.241" r="4" fill="#0" id="circle2"/>
	<circle cx="28.4335" cy="311.862" r="4" fill="#0" id="circle3"/>
	<circle cx="62.6404" cy="160.374" r="4" fill="#0" id="circle4"/>
	<circle cx="77.3005" cy="311.862" r="4" fill="#0" id="circle5"/>
	<circle cx="111.507" cy="165.261" r="4" fill="#0" id="circle6"/>
	<circle cx="126.167" cy="311.862" r="4" fill="#0" id="circle7"/>
	<circle cx="140.828" cy="360.729" r="4" fill="#0" id="circle8"/>
	<circle cx="160.374" cy="160.374" r="4" fill="#0" id="circle9"/>
	<circle cx="179.921" cy="394.936" r="4" fill="#0" id="circle10"/>
	<circle cx="209.241" cy="160.374" r="4" fill="#0" id="circle11"/>
	<circle cx="223.901" cy="419.369" r="4" fill="#0" id="circle12"/>
	<circle cx="228.788" cy="952.02" r="4" fill="#0" id="circle13"/>
	<circle cx="253.222" cy="996" r="4" fill="#0" id="circle14"/>
	<circle cx="258.108" cy="160.374" r="4" fill="#0" id="circle15"/>
	<circle cx="267.882" cy="443.803" r="4" fill="#0" id="circle16"/>
	<circle cx="267.882" cy="893.379" r="4" fill="#0" id="circle17"/>
	<circle cx="287.429" cy="492.67" r="4" fill="#0" id="circle18"/>
	<circle cx="287.429" cy="541.537" r="4" fill="#0" id="circle19"/>
	<circle cx="287.429" cy="590.404" r="4" fill="#0" id="circle20"/>
	<circle cx="287.429" cy="639.271" r="4" fill="#0" id="circle21"/>
	<circle cx="287.429" cy="688.138" r="4" fill="#0" id="circle22"/>
	<circle cx="287.429" cy="737.005" r="4" fill="#0" id="circle23"/>
	<circle cx="287.429" cy="785.872" r="4" fill="#0" id="circle24"/>
	<circle cx="287.429" cy="834.739" r="4" fill="#0" id="circle25"/>
	<circle cx="302.089" cy="996" r="4" fill="#0" id="circle26"/>
	<circle cx="306.975" cy="160.374" r="4" fill="#0" id="circle27"/>
	<circle cx="336.296" cy="4" r="4" fill="#0" id="circle28"/>
	<circle cx="336.296" cy="52.867" r="4" fill="#0" id="circle29"/>
	<circle cx="336.296" cy="101.734" r="4" fill="#0" id="circle30"/>
	<circle cx="350.956" cy="996" r="4" fill="#0" id="circle31"/>
	<circle cx="360.729" cy="145.714" r="4" fill="#0" id="circle32"/>
	<circle cx="380.276" cy="28.4335" r="4" fill="#0" id="circle33"/>
	<circle cx="380.276" cy="77.3005" r="4" fill="#0" id="circle34"/>
	<circle cx="399.823" cy="996" r="4" fill="#0" id="circle35"/>
	<circle cx="409.596" cy="160.374" r="4" fill="#0" id="circle36"/>
	<circle cx="448.69" cy="996" r="4" fill="#0" id="circle37"/>
	<circle cx="458.463" cy="160.374" r="4" fill="#0" id="circle38"/>
	<circle cx="468.236" cy="443.803" r="4" fill="#0" id="circle39"/>
	<circle cx="468.236" cy="492.67" r="4" fill="#0" id="circle40"/>
	<circle cx="468.236" cy="541.537" r="4" fill="#0" id="circle41"/>
	<circle cx="468.236" cy="590.404" r="4" fill="#0" id="circle42"/>
	<circle cx="468.236" cy="639.271" r="4" fill="#0" id="circle43"/>
	<circle cx="468.236" cy="688.138" r="4" fill="#0" id="circle44"/>
	<circle cx="468.236" cy="737.005" r="4" fill="#0" id="circle45"/>
	<circle cx="468.236" cy="785.872" r="4" fill="#0" id="circle46"/>
	<circle cx="468.236" cy="834.739" r="4" fill="#0" id="circle47"/>
	<circle cx="473.123" cy="883.606" r="4" fill="#0" id="circle48"/>
	<circle cx="497.557" cy="927.586" r="4" fill="#0" id="circle49"/>
	<circle cx="497.557" cy="996" r="4" fill="#0" id="circle50"/>
	<circle cx="507.33" cy="160.374" r="4" fill="#0" id="circle51"/>
	<circle cx="512.217" cy="419.369" r="4" fill="#0" id="circle52"/>
	<circle cx="556.197" cy="160.374" r="4" fill="#0" id="circle53"/>
	<circle cx="556.197" cy="394.936" r="4" fill="#0" id="circle54"/>
	<circle cx="595.291" cy="346.069" r="4" fill="#0" id="circle55"/>
	<circle cx="605.064" cy="160.374" r="4" fill="#0" id="circle56"/>
	<circle cx="634.384" cy="311.862" r="4" fill="#0" id="circle57"/>
	<circle cx="653.931" cy="160.374" r="4" fill="#0" id="circle58"/>
	<circle cx="683.251" cy="311.862" r="4" fill="#0" id="circle59"/>
	<circle cx="693.025" cy="189.695" r="4" fill="#0" id="circle60"/>
	<circle cx="702.798" cy="238.562" r="4" fill="#0" id="circle61"/>
	<circle cx="732.118" cy="297.202" r="4" fill="#0" id="circle62"/>
	</g>
</svg>