<?xml version="1.0" encoding="UTF-8" standalone="no"?>
<!-- Created with CurveBenchmark -->
<svg
	xmlns:dc="http://purl.org/dc/elements/1.1/"
	xmlns:cc="http://creativecommons.org/ns#"
	xmlns:rdf="http://www.w3.org/1999/02/22-rdf-syntax-ns#"
	xmlns:svg="http://www.w3.org/2000/svg"
	xmlns="http://www.w3.org/2000/svg"
	xmlns:sodipodi="http://sodipodi.sourceforge.net/DTD/sodipodi-0.dtd"
	xmlns:inkscape="http://www.inkscape.org/namespaces/inkscape"
	width="1000"
	height="1000"
	id="svg2"
	version="1.1"
	sodipodi:docname="manifold/nncrust-teddy235.png.txt">
<defs
	id="defs4" />
<metadata
	id="metadata7">
	<rdf:RDF>
		<cc:Work
			rdf:about="">
			<dc:format>image/svg+xml</dc:format>
			<dc:type
				rdf:resource="http://purl.org/dc/dcmitype/StillImage" />
			<dc:title></dc:title>
		</cc:Work>
	</rdf:RDF>
</metadata>
<g
	inkscape:label="Layer 1"
	inkscape:groupmode="layer"
	id="layer1">
	<path style="fill:none;stroke:red;stroke-width:1px;stroke-linecap:butt;stroke-linejoin:miter;stroke-opacity:1" d="M 145.311,427.932 167.92,410.974 z" id="boundary" inkscape:connector-curvature="0" />
	<path style="fill:none;stroke:red;stroke-width:1px;stroke-linecap:butt;stroke-linejoin:miter;stroke-opacity:1" d="M 167.92,410.974 196.182,399.67 z" id="boundary" inkscape:connector-curvature="0" />
	<path style="fill:none;stroke:red;stroke-width:1px;stroke-linecap:butt;stroke-linejoin:miter;stroke-opacity:1" d="M 145.311,427.932 117.048,433.584 z" id="boundary" inkscape:connector-curvature="0" />
	<path style="fill:none;stroke:red;stroke-width:1px;stroke-linecap:butt;stroke-linejoin:miter;stroke-opacity:1" d="M 88.7863,439.236 117.048,433.584 z" id="boundary" inkscape:connector-curvature="0" />
	<path style="fill:none;stroke:red;stroke-width:1px;stroke-linecap:butt;stroke-linejoin:miter;stroke-opacity:1" d="M 230.097,83.1339 230.097,54.8718 z" id="boundary" inkscape:connector-curvature="0" />
	<path style="fill:none;stroke:red;stroke-width:1px;stroke-linecap:butt;stroke-linejoin:miter;stroke-opacity:1" d="M 230.097,54.8718 252.707,32.2621 z" id="boundary" inkscape:connector-curvature="0" />
	<path style="fill:none;stroke:red;stroke-width:1px;stroke-linecap:butt;stroke-linejoin:miter;stroke-opacity:1" d="M 224.444,388.365 196.182,399.67 z" id="boundary" inkscape:connector-curvature="0" />
	<path style="fill:none;stroke:red;stroke-width:1px;stroke-linecap:butt;stroke-linejoin:miter;stroke-opacity:1" d="M 230.097,83.1339 230.097,111.396 z" id="boundary" inkscape:connector-curvature="0" />
	<path style="fill:none;stroke:red;stroke-width:1px;stroke-linecap:butt;stroke-linejoin:miter;stroke-opacity:1" d="M 4,512.718 15.3048,478.803 z" id="boundary" inkscape:connector-curvature="0" />
	<path style="fill:none;stroke:red;stroke-width:1px;stroke-linecap:butt;stroke-linejoin:miter;stroke-opacity:1" d="M 9.65242,540.98 4,512.718 z" id="boundary" inkscape:connector-curvature="0" />
	<path style="fill:none;stroke:red;stroke-width:1px;stroke-linecap:butt;stroke-linejoin:miter;stroke-opacity:1" d="M 9.65242,540.98 18.1311,569.242 z" id="boundary" inkscape:connector-curvature="0" />
	<path style="fill:none;stroke:red;stroke-width:1px;stroke-linecap:butt;stroke-linejoin:miter;stroke-opacity:1" d="M 35.0883,591.852 18.1311,569.242 z" id="boundary" inkscape:connector-curvature="0" />
	<path style="fill:none;stroke:red;stroke-width:1px;stroke-linecap:butt;stroke-linejoin:miter;stroke-opacity:1" d="M 60.5242,450.541 32.2621,456.194 z" id="boundary" inkscape:connector-curvature="0" />
	<path style="fill:none;stroke:red;stroke-width:1px;stroke-linecap:butt;stroke-linejoin:miter;stroke-opacity:1" d="M 88.7863,439.236 60.5242,450.541 z" id="boundary" inkscape:connector-curvature="0" />
	<path style="fill:none;stroke:red;stroke-width:1px;stroke-linecap:butt;stroke-linejoin:miter;stroke-opacity:1" d="M 57.698,611.635 35.0883,591.852 z" id="boundary" inkscape:connector-curvature="0" />
	<path style="fill:none;stroke:red;stroke-width:1px;stroke-linecap:butt;stroke-linejoin:miter;stroke-opacity:1" d="M 57.698,611.635 83.1339,625.766 z" id="boundary" inkscape:connector-curvature="0" />
	<path style="fill:none;stroke:red;stroke-width:1px;stroke-linecap:butt;stroke-linejoin:miter;stroke-opacity:1" d="M 15.3048,478.803 32.2621,456.194 z" id="boundary" inkscape:connector-curvature="0" />
	<path style="fill:none;stroke:red;stroke-width:1px;stroke-linecap:butt;stroke-linejoin:miter;stroke-opacity:1" d="M 230.097,111.396 241.402,139.658 z" id="boundary" inkscape:connector-curvature="0" />
	<path style="fill:none;stroke:red;stroke-width:1px;stroke-linecap:butt;stroke-linejoin:miter;stroke-opacity:1" d="M 252.707,32.2621 275.316,15.3048 z" id="boundary" inkscape:connector-curvature="0" />
	<path style="fill:none;stroke:red;stroke-width:1px;stroke-linecap:butt;stroke-linejoin:miter;stroke-opacity:1" d="M 275.316,15.3048 303.578,9.65242 z" id="boundary" inkscape:connector-curvature="0" />
	<path style="fill:none;stroke:red;stroke-width:1px;stroke-linecap:butt;stroke-linejoin:miter;stroke-opacity:1" d="M 303.578,9.65242 331.84,4 z" id="boundary" inkscape:connector-curvature="0" />
	<path style="fill:none;stroke:red;stroke-width:1px;stroke-linecap:butt;stroke-linejoin:miter;stroke-opacity:1" d="M 331.84,4 360.103,9.65242 z" id="boundary" inkscape:connector-curvature="0" />
	<path style="fill:none;stroke:red;stroke-width:1px;stroke-linecap:butt;stroke-linejoin:miter;stroke-opacity:1" d="M 360.103,9.65242 388.365,20.9573 z" id="boundary" inkscape:connector-curvature="0" />
	<path style="fill:none;stroke:red;stroke-width:1px;stroke-linecap:butt;stroke-linejoin:miter;stroke-opacity:1" d="M 252.707,167.92 241.402,139.658 z" id="boundary" inkscape:connector-curvature="0" />
	<path style="fill:none;stroke:red;stroke-width:1px;stroke-linecap:butt;stroke-linejoin:miter;stroke-opacity:1" d="M 252.707,167.92 258.359,196.182 z" id="boundary" inkscape:connector-curvature="0" />
	<path style="fill:none;stroke:red;stroke-width:1px;stroke-linecap:butt;stroke-linejoin:miter;stroke-opacity:1" d="M 258.359,196.182 252.707,224.444 z" id="boundary" inkscape:connector-curvature="0" />
	<path style="fill:none;stroke:red;stroke-width:1px;stroke-linecap:butt;stroke-linejoin:miter;stroke-opacity:1" d="M 252.707,252.707 252.707,280.969 z" id="boundary" inkscape:connector-curvature="0" />
	<path style="fill:none;stroke:red;stroke-width:1px;stroke-linecap:butt;stroke-linejoin:miter;stroke-opacity:1" d="M 258.359,309.231 252.707,280.969 z" id="boundary" inkscape:connector-curvature="0" />
	<path style="fill:none;stroke:red;stroke-width:1px;stroke-linecap:butt;stroke-linejoin:miter;stroke-opacity:1" d="M 252.707,252.707 252.707,224.444 z" id="boundary" inkscape:connector-curvature="0" />
	<path style="fill:none;stroke:red;stroke-width:1px;stroke-linecap:butt;stroke-linejoin:miter;stroke-opacity:1" d="M 258.359,309.231 266.838,337.493 z" id="boundary" inkscape:connector-curvature="0" />
	<path style="fill:none;stroke:red;stroke-width:1px;stroke-linecap:butt;stroke-linejoin:miter;stroke-opacity:1" d="M 266.838,337.493 280.969,362.929 z" id="boundary" inkscape:connector-curvature="0" />
	<path style="fill:none;stroke:red;stroke-width:1px;stroke-linecap:butt;stroke-linejoin:miter;stroke-opacity:1" d="M 280.969,362.929 252.707,382.712 z" id="boundary" inkscape:connector-curvature="0" />
	<path style="fill:none;stroke:red;stroke-width:1px;stroke-linecap:butt;stroke-linejoin:miter;stroke-opacity:1" d="M 252.707,382.712 224.444,388.365 z" id="boundary" inkscape:connector-curvature="0" />
	<path style="fill:none;stroke:red;stroke-width:1px;stroke-linecap:butt;stroke-linejoin:miter;stroke-opacity:1" d="M 74.6553,730.336 49.2194,744.467 z" id="boundary" inkscape:connector-curvature="0" />
	<path style="fill:none;stroke:red;stroke-width:1px;stroke-linecap:butt;stroke-linejoin:miter;stroke-opacity:1" d="M 15.3048,795.339 26.6097,767.077 z" id="boundary" inkscape:connector-curvature="0" />
	<path style="fill:none;stroke:red;stroke-width:1px;stroke-linecap:butt;stroke-linejoin:miter;stroke-opacity:1" d="M 26.6097,767.077 49.2194,744.467 z" id="boundary" inkscape:connector-curvature="0" />
	<path style="fill:none;stroke:red;stroke-width:1px;stroke-linecap:butt;stroke-linejoin:miter;stroke-opacity:1" d="M 74.6553,730.336 102.917,727.51 z" id="boundary" inkscape:connector-curvature="0" />
	<path style="fill:none;stroke:red;stroke-width:1px;stroke-linecap:butt;stroke-linejoin:miter;stroke-opacity:1" d="M 108.57,639.897 136.832,645.55 z" id="boundary" inkscape:connector-curvature="0" />
	<path style="fill:none;stroke:red;stroke-width:1px;stroke-linecap:butt;stroke-linejoin:miter;stroke-opacity:1" d="M 108.57,639.897 83.1339,625.766 z" id="boundary" inkscape:connector-curvature="0" />
	<path style="fill:none;stroke:red;stroke-width:1px;stroke-linecap:butt;stroke-linejoin:miter;stroke-opacity:1" d="M 102.917,727.51 131.179,727.51 z" id="boundary" inkscape:connector-curvature="0" />
	<path style="fill:none;stroke:red;stroke-width:1px;stroke-linecap:butt;stroke-linejoin:miter;stroke-opacity:1" d="M 136.832,645.55 165.094,656.855 z" id="boundary" inkscape:connector-curvature="0" />
	<path style="fill:none;stroke:red;stroke-width:1px;stroke-linecap:butt;stroke-linejoin:miter;stroke-opacity:1" d="M 4,834.906 15.3048,795.339 z" id="boundary" inkscape:connector-curvature="0" />
	<path style="fill:none;stroke:red;stroke-width:1px;stroke-linecap:butt;stroke-linejoin:miter;stroke-opacity:1" d="M 4,863.168 4,834.906 z" id="boundary" inkscape:connector-curvature="0" />
	<path style="fill:none;stroke:red;stroke-width:1px;stroke-linecap:butt;stroke-linejoin:miter;stroke-opacity:1" d="M 4,919.692 4,891.43 z" id="boundary" inkscape:connector-curvature="0" />
	<path style="fill:none;stroke:red;stroke-width:1px;stroke-linecap:butt;stroke-linejoin:miter;stroke-opacity:1" d="M 4,891.43 4,863.168 z" id="boundary" inkscape:connector-curvature="0" />
	<path style="fill:none;stroke:red;stroke-width:1px;stroke-linecap:butt;stroke-linejoin:miter;stroke-opacity:1" d="M 12.4786,947.954 4,919.692 z" id="boundary" inkscape:connector-curvature="0" />
	<path style="fill:none;stroke:red;stroke-width:1px;stroke-linecap:butt;stroke-linejoin:miter;stroke-opacity:1" d="M 35.0883,964.912 12.4786,947.954 z" id="boundary" inkscape:connector-curvature="0" />
	<path style="fill:none;stroke:red;stroke-width:1px;stroke-linecap:butt;stroke-linejoin:miter;stroke-opacity:1" d="M 111.396,996 83.1339,996 z" id="boundary" inkscape:connector-curvature="0" />
	<path style="fill:none;stroke:red;stroke-width:1px;stroke-linecap:butt;stroke-linejoin:miter;stroke-opacity:1" d="M 83.1339,996 57.698,981.869 z" id="boundary" inkscape:connector-curvature="0" />
	<path style="fill:none;stroke:red;stroke-width:1px;stroke-linecap:butt;stroke-linejoin:miter;stroke-opacity:1" d="M 57.698,981.869 35.0883,964.912 z" id="boundary" inkscape:connector-curvature="0" />
	<path style="fill:none;stroke:red;stroke-width:1px;stroke-linecap:butt;stroke-linejoin:miter;stroke-opacity:1" d="M 139.658,996 111.396,996 z" id="boundary" inkscape:connector-curvature="0" />
	<path style="fill:none;stroke:red;stroke-width:1px;stroke-linecap:butt;stroke-linejoin:miter;stroke-opacity:1" d="M 165.094,656.855 193.356,656.855 z" id="boundary" inkscape:connector-curvature="0" />
	<path style="fill:none;stroke:red;stroke-width:1px;stroke-linecap:butt;stroke-linejoin:miter;stroke-opacity:1" d="M 159.442,727.51 187.704,727.51 z" id="boundary" inkscape:connector-curvature="0" />
	<path style="fill:none;stroke:red;stroke-width:1px;stroke-linecap:butt;stroke-linejoin:miter;stroke-opacity:1" d="M 215.966,716.205 187.704,727.51 z" id="boundary" inkscape:connector-curvature="0" />
	<path style="fill:none;stroke:red;stroke-width:1px;stroke-linecap:butt;stroke-linejoin:miter;stroke-opacity:1" d="M 159.442,727.51 131.179,727.51 z" id="boundary" inkscape:connector-curvature="0" />
	<path style="fill:none;stroke:red;stroke-width:1px;stroke-linecap:butt;stroke-linejoin:miter;stroke-opacity:1" d="M 221.618,662.507 249.88,668.16 z" id="boundary" inkscape:connector-curvature="0" />
	<path style="fill:none;stroke:red;stroke-width:1px;stroke-linecap:butt;stroke-linejoin:miter;stroke-opacity:1" d="M 249.88,668.16 244.228,713.379 z" id="boundary" inkscape:connector-curvature="0" />
	<path style="fill:none;stroke:red;stroke-width:1px;stroke-linecap:butt;stroke-linejoin:miter;stroke-opacity:1" d="M 215.966,716.205 244.228,713.379 z" id="boundary" inkscape:connector-curvature="0" />
	<path style="fill:none;stroke:red;stroke-width:1px;stroke-linecap:butt;stroke-linejoin:miter;stroke-opacity:1" d="M 193.356,656.855 221.618,662.507 z" id="boundary" inkscape:connector-curvature="0" />
	<path style="fill:none;stroke:red;stroke-width:1px;stroke-linecap:butt;stroke-linejoin:miter;stroke-opacity:1" d="M 167.92,996 139.658,996 z" id="boundary" inkscape:connector-curvature="0" />
	<path style="fill:none;stroke:red;stroke-width:1px;stroke-linecap:butt;stroke-linejoin:miter;stroke-opacity:1" d="M 196.182,996 167.92,996 z" id="boundary" inkscape:connector-curvature="0" />
	<path style="fill:none;stroke:red;stroke-width:1px;stroke-linecap:butt;stroke-linejoin:miter;stroke-opacity:1" d="M 224.444,984.695 196.182,996 z" id="boundary" inkscape:connector-curvature="0" />
	<path style="fill:none;stroke:red;stroke-width:1px;stroke-linecap:butt;stroke-linejoin:miter;stroke-opacity:1" d="M 280.969,970.564 309.231,973.39 z" id="boundary" inkscape:connector-curvature="0" />
	<path style="fill:none;stroke:red;stroke-width:1px;stroke-linecap:butt;stroke-linejoin:miter;stroke-opacity:1" d="M 280.969,970.564 252.707,973.39 z" id="boundary" inkscape:connector-curvature="0" />
	<path style="fill:none;stroke:red;stroke-width:1px;stroke-linecap:butt;stroke-linejoin:miter;stroke-opacity:1" d="M 309.231,973.39 337.493,979.043 z" id="boundary" inkscape:connector-curvature="0" />
	<path style="fill:none;stroke:red;stroke-width:1px;stroke-linecap:butt;stroke-linejoin:miter;stroke-opacity:1" d="M 365.755,984.695 337.493,979.043 z" id="boundary" inkscape:connector-curvature="0" />
	<path style="fill:none;stroke:red;stroke-width:1px;stroke-linecap:butt;stroke-linejoin:miter;stroke-opacity:1" d="M 224.444,984.695 252.707,973.39 z" id="boundary" inkscape:connector-curvature="0" />
	<path style="fill:none;stroke:red;stroke-width:1px;stroke-linecap:butt;stroke-linejoin:miter;stroke-opacity:1" d="M 365.755,984.695 394.017,990.348 z" id="boundary" inkscape:connector-curvature="0" />
	<path style="fill:none;stroke:red;stroke-width:1px;stroke-linecap:butt;stroke-linejoin:miter;stroke-opacity:1" d="M 388.365,20.9573 413.801,35.0883 z" id="boundary" inkscape:connector-curvature="0" />
	<path style="fill:none;stroke:red;stroke-width:1px;stroke-linecap:butt;stroke-linejoin:miter;stroke-opacity:1" d="M 442.063,43.567 413.801,35.0883 z" id="boundary" inkscape:connector-curvature="0" />
	<path style="fill:none;stroke:red;stroke-width:1px;stroke-linecap:butt;stroke-linejoin:miter;stroke-opacity:1" d="M 470.325,43.567 442.063,43.567 z" id="boundary" inkscape:connector-curvature="0" />
	<path style="fill:none;stroke:red;stroke-width:1px;stroke-linecap:butt;stroke-linejoin:miter;stroke-opacity:1" d="M 608.809,20.9573 583.373,35.0883 z" id="boundary" inkscape:connector-curvature="0" />
	<path style="fill:none;stroke:red;stroke-width:1px;stroke-linecap:butt;stroke-linejoin:miter;stroke-opacity:1" d="M 498.587,43.567 470.325,43.567 z" id="boundary" inkscape:connector-curvature="0" />
	<path style="fill:none;stroke:red;stroke-width:1px;stroke-linecap:butt;stroke-linejoin:miter;stroke-opacity:1" d="M 555.111,43.567 583.373,35.0883 z" id="boundary" inkscape:connector-curvature="0" />
	<path style="fill:none;stroke:red;stroke-width:1px;stroke-linecap:butt;stroke-linejoin:miter;stroke-opacity:1" d="M 637.071,9.65242 665.333,4 z" id="boundary" inkscape:connector-curvature="0" />
	<path style="fill:none;stroke:red;stroke-width:1px;stroke-linecap:butt;stroke-linejoin:miter;stroke-opacity:1" d="M 608.809,20.9573 637.071,9.65242 z" id="boundary" inkscape:connector-curvature="0" />
	<path style="fill:none;stroke:red;stroke-width:1px;stroke-linecap:butt;stroke-linejoin:miter;stroke-opacity:1" d="M 665.333,4 693.595,6.82621 z" id="boundary" inkscape:connector-curvature="0" />
	<path style="fill:none;stroke:red;stroke-width:1px;stroke-linecap:butt;stroke-linejoin:miter;stroke-opacity:1" d="M 730.336,252.707 724.684,292.274 z" id="boundary" inkscape:connector-curvature="0" />
	<path style="fill:none;stroke:red;stroke-width:1px;stroke-linecap:butt;stroke-linejoin:miter;stroke-opacity:1" d="M 555.111,43.567 526.849,43.567 z" id="boundary" inkscape:connector-curvature="0" />
	<path style="fill:none;stroke:red;stroke-width:1px;stroke-linecap:butt;stroke-linejoin:miter;stroke-opacity:1" d="M 526.849,43.567 498.587,43.567 z" id="boundary" inkscape:connector-curvature="0" />
	<path style="fill:none;stroke:red;stroke-width:1px;stroke-linecap:butt;stroke-linejoin:miter;stroke-opacity:1" d="M 724.684,292.274 724.684,320.536 z" id="boundary" inkscape:connector-curvature="0" />
	<path style="fill:none;stroke:red;stroke-width:1px;stroke-linecap:butt;stroke-linejoin:miter;stroke-opacity:1" d="M 724.684,320.536 710.553,345.972 z" id="boundary" inkscape:connector-curvature="0" />
	<path style="fill:none;stroke:red;stroke-width:1px;stroke-linecap:butt;stroke-linejoin:miter;stroke-opacity:1" d="M 696.422,371.407 710.553,345.972 z" id="boundary" inkscape:connector-curvature="0" />
	<path style="fill:none;stroke:red;stroke-width:1px;stroke-linecap:butt;stroke-linejoin:miter;stroke-opacity:1" d="M 724.684,382.712 696.422,371.407 z" id="boundary" inkscape:connector-curvature="0" />
	<path style="fill:none;stroke:red;stroke-width:1px;stroke-linecap:butt;stroke-linejoin:miter;stroke-opacity:1" d="M 752.946,388.365 724.684,382.712 z" id="boundary" inkscape:connector-curvature="0" />
	<path style="fill:none;stroke:red;stroke-width:1px;stroke-linecap:butt;stroke-linejoin:miter;stroke-opacity:1" d="M 693.595,662.507 696.422,371.407 z" id="boundary" inkscape:connector-curvature="0" />
	<path style="fill:none;stroke:red;stroke-width:1px;stroke-linecap:butt;stroke-linejoin:miter;stroke-opacity:1" d="M 693.595,6.82621 721.858,18.1311 z" id="boundary" inkscape:connector-curvature="0" />
	<path style="fill:none;stroke:red;stroke-width:1px;stroke-linecap:butt;stroke-linejoin:miter;stroke-opacity:1" d="M 755.772,142.484 744.467,170.746 z" id="boundary" inkscape:connector-curvature="0" />
	<path style="fill:none;stroke:red;stroke-width:1px;stroke-linecap:butt;stroke-linejoin:miter;stroke-opacity:1" d="M 744.467,170.746 730.336,196.182 z" id="boundary" inkscape:connector-curvature="0" />
	<path style="fill:none;stroke:red;stroke-width:1px;stroke-linecap:butt;stroke-linejoin:miter;stroke-opacity:1" d="M 730.336,196.182 730.336,224.444 z" id="boundary" inkscape:connector-curvature="0" />
	<path style="fill:none;stroke:red;stroke-width:1px;stroke-linecap:butt;stroke-linejoin:miter;stroke-opacity:1" d="M 730.336,252.707 730.336,224.444 z" id="boundary" inkscape:connector-curvature="0" />
	<path style="fill:none;stroke:red;stroke-width:1px;stroke-linecap:butt;stroke-linejoin:miter;stroke-opacity:1" d="M 721.858,18.1311 747.293,32.2621 z" id="boundary" inkscape:connector-curvature="0" />
	<path style="fill:none;stroke:red;stroke-width:1px;stroke-linecap:butt;stroke-linejoin:miter;stroke-opacity:1" d="M 769.903,83.1339 767.077,54.8718 z" id="boundary" inkscape:connector-curvature="0" />
	<path style="fill:none;stroke:red;stroke-width:1px;stroke-linecap:butt;stroke-linejoin:miter;stroke-opacity:1" d="M 769.903,111.396 755.772,142.484 z" id="boundary" inkscape:connector-curvature="0" />
	<path style="fill:none;stroke:red;stroke-width:1px;stroke-linecap:butt;stroke-linejoin:miter;stroke-opacity:1" d="M 769.903,83.1339 769.903,111.396 z" id="boundary" inkscape:connector-curvature="0" />
	<path style="fill:none;stroke:red;stroke-width:1px;stroke-linecap:butt;stroke-linejoin:miter;stroke-opacity:1" d="M 747.293,32.2621 767.077,54.8718 z" id="boundary" inkscape:connector-curvature="0" />
	<path style="fill:none;stroke:red;stroke-width:1px;stroke-linecap:butt;stroke-linejoin:miter;stroke-opacity:1" d="M 781.208,399.67 752.946,388.365 z" id="boundary" inkscape:connector-curvature="0" />
	<path style="fill:none;stroke:red;stroke-width:1px;stroke-linecap:butt;stroke-linejoin:miter;stroke-opacity:1" d="M 806.644,413.801 781.208,399.67 z" id="boundary" inkscape:connector-curvature="0" />
	<path style="fill:none;stroke:red;stroke-width:1px;stroke-linecap:butt;stroke-linejoin:miter;stroke-opacity:1" d="M 806.644,413.801 826.427,436.41 z" id="boundary" inkscape:connector-curvature="0" />
	<path style="fill:none;stroke:red;stroke-width:1px;stroke-linecap:butt;stroke-linejoin:miter;stroke-opacity:1" d="M 826.427,436.41 849.037,453.368 z" id="boundary" inkscape:connector-curvature="0" />
	<path style="fill:none;stroke:red;stroke-width:1px;stroke-linecap:butt;stroke-linejoin:miter;stroke-opacity:1" d="M 882.952,501.413 882.952,540.98 z" id="boundary" inkscape:connector-curvature="0" />
	<path style="fill:none;stroke:red;stroke-width:1px;stroke-linecap:butt;stroke-linejoin:miter;stroke-opacity:1" d="M 882.952,501.413 871.647,473.151 z" id="boundary" inkscape:connector-curvature="0" />
	<path style="fill:none;stroke:red;stroke-width:1px;stroke-linecap:butt;stroke-linejoin:miter;stroke-opacity:1" d="M 849.037,453.368 871.647,473.151 z" id="boundary" inkscape:connector-curvature="0" />
	<path style="fill:none;stroke:red;stroke-width:1px;stroke-linecap:butt;stroke-linejoin:miter;stroke-opacity:1" d="M 422.279,990.348 394.017,990.348 z" id="boundary" inkscape:connector-curvature="0" />
	<path style="fill:none;stroke:red;stroke-width:1px;stroke-linecap:butt;stroke-linejoin:miter;stroke-opacity:1" d="M 620.114,984.695 591.852,990.348 z" id="boundary" inkscape:connector-curvature="0" />
	<path style="fill:none;stroke:red;stroke-width:1px;stroke-linecap:butt;stroke-linejoin:miter;stroke-opacity:1" d="M 620.114,984.695 648.376,996 z" id="boundary" inkscape:connector-curvature="0" />
	<path style="fill:none;stroke:red;stroke-width:1px;stroke-linecap:butt;stroke-linejoin:miter;stroke-opacity:1" d="M 422.279,990.348 450.541,996 z" id="boundary" inkscape:connector-curvature="0" />
	<path style="fill:none;stroke:red;stroke-width:1px;stroke-linecap:butt;stroke-linejoin:miter;stroke-opacity:1" d="M 693.595,662.507 721.858,668.16 z" id="boundary" inkscape:connector-curvature="0" />
	<path style="fill:none;stroke:red;stroke-width:1px;stroke-linecap:butt;stroke-linejoin:miter;stroke-opacity:1" d="M 696.422,690.769 693.595,662.507 z" id="boundary" inkscape:connector-curvature="0" />
	<path style="fill:none;stroke:red;stroke-width:1px;stroke-linecap:butt;stroke-linejoin:miter;stroke-opacity:1" d="M 750.12,662.507 721.858,668.16 z" id="boundary" inkscape:connector-curvature="0" />
	<path style="fill:none;stroke:red;stroke-width:1px;stroke-linecap:butt;stroke-linejoin:miter;stroke-opacity:1" d="M 696.422,690.769 710.553,716.205 z" id="boundary" inkscape:connector-curvature="0" />
	<path style="fill:none;stroke:red;stroke-width:1px;stroke-linecap:butt;stroke-linejoin:miter;stroke-opacity:1" d="M 710.553,716.205 738.815,727.51 z" id="boundary" inkscape:connector-curvature="0" />
	<path style="fill:none;stroke:red;stroke-width:1px;stroke-linecap:butt;stroke-linejoin:miter;stroke-opacity:1" d="M 478.803,996 450.541,996 z" id="boundary" inkscape:connector-curvature="0" />
	<path style="fill:none;stroke:red;stroke-width:1px;stroke-linecap:butt;stroke-linejoin:miter;stroke-opacity:1" d="M 535.328,996 507.066,996 z" id="boundary" inkscape:connector-curvature="0" />
	<path style="fill:none;stroke:red;stroke-width:1px;stroke-linecap:butt;stroke-linejoin:miter;stroke-opacity:1" d="M 507.066,996 478.803,996 z" id="boundary" inkscape:connector-curvature="0" />
	<path style="fill:none;stroke:red;stroke-width:1px;stroke-linecap:butt;stroke-linejoin:miter;stroke-opacity:1" d="M 563.59,996 591.852,990.348 z" id="boundary" inkscape:connector-curvature="0" />
	<path style="fill:none;stroke:red;stroke-width:1px;stroke-linecap:butt;stroke-linejoin:miter;stroke-opacity:1" d="M 704.9,996 676.638,996 z" id="boundary" inkscape:connector-curvature="0" />
	<path style="fill:none;stroke:red;stroke-width:1px;stroke-linecap:butt;stroke-linejoin:miter;stroke-opacity:1" d="M 733.162,996 704.9,996 z" id="boundary" inkscape:connector-curvature="0" />
	<path style="fill:none;stroke:red;stroke-width:1px;stroke-linecap:butt;stroke-linejoin:miter;stroke-opacity:1" d="M 676.638,996 648.376,996 z" id="boundary" inkscape:connector-curvature="0" />
	<path style="fill:none;stroke:red;stroke-width:1px;stroke-linecap:butt;stroke-linejoin:miter;stroke-opacity:1" d="M 563.59,996 535.328,996 z" id="boundary" inkscape:connector-curvature="0" />
	<path style="fill:none;stroke:red;stroke-width:1px;stroke-linecap:butt;stroke-linejoin:miter;stroke-opacity:1" d="M 750.12,662.507 778.382,651.202 z" id="boundary" inkscape:connector-curvature="0" />
	<path style="fill:none;stroke:red;stroke-width:1px;stroke-linecap:butt;stroke-linejoin:miter;stroke-opacity:1" d="M 693.595,662.507 778.382,651.202 z" id="boundary" inkscape:connector-curvature="0" />
	<path style="fill:none;stroke:red;stroke-width:1px;stroke-linecap:butt;stroke-linejoin:miter;stroke-opacity:1" d="M 738.815,727.51 767.077,735.989 z" id="boundary" inkscape:connector-curvature="0" />
	<path style="fill:none;stroke:red;stroke-width:1px;stroke-linecap:butt;stroke-linejoin:miter;stroke-opacity:1" d="M 767.077,735.989 789.687,752.946 z" id="boundary" inkscape:connector-curvature="0" />
	<path style="fill:none;stroke:red;stroke-width:1px;stroke-linecap:butt;stroke-linejoin:miter;stroke-opacity:1" d="M 826.427,620.114 849.037,603.157 z" id="boundary" inkscape:connector-curvature="0" />
	<path style="fill:none;stroke:red;stroke-width:1px;stroke-linecap:butt;stroke-linejoin:miter;stroke-opacity:1" d="M 803.818,637.071 826.427,620.114 z" id="boundary" inkscape:connector-curvature="0" />
	<path style="fill:none;stroke:red;stroke-width:1px;stroke-linecap:butt;stroke-linejoin:miter;stroke-opacity:1" d="M 778.382,651.202 803.818,637.071 z" id="boundary" inkscape:connector-curvature="0" />
	<path style="fill:none;stroke:red;stroke-width:1px;stroke-linecap:butt;stroke-linejoin:miter;stroke-opacity:1" d="M 806.644,775.556 789.687,752.946 z" id="boundary" inkscape:connector-curvature="0" />
	<path style="fill:none;stroke:red;stroke-width:1px;stroke-linecap:butt;stroke-linejoin:miter;stroke-opacity:1" d="M 849.037,603.157 871.647,580.547 z" id="boundary" inkscape:connector-curvature="0" />
	<path style="fill:none;stroke:red;stroke-width:1px;stroke-linecap:butt;stroke-linejoin:miter;stroke-opacity:1" d="M 761.425,996 733.162,996 z" id="boundary" inkscape:connector-curvature="0" />
	<path style="fill:none;stroke:red;stroke-width:1px;stroke-linecap:butt;stroke-linejoin:miter;stroke-opacity:1" d="M 789.687,984.695 761.425,996 z" id="boundary" inkscape:connector-curvature="0" />
	<path style="fill:none;stroke:red;stroke-width:1px;stroke-linecap:butt;stroke-linejoin:miter;stroke-opacity:1" d="M 815.123,803.818 820.775,832.08 z" id="boundary" inkscape:connector-curvature="0" />
	<path style="fill:none;stroke:red;stroke-width:1px;stroke-linecap:butt;stroke-linejoin:miter;stroke-opacity:1" d="M 812.296,967.738 789.687,984.695 z" id="boundary" inkscape:connector-curvature="0" />
	<path style="fill:none;stroke:red;stroke-width:1px;stroke-linecap:butt;stroke-linejoin:miter;stroke-opacity:1" d="M 806.644,775.556 815.123,803.818 z" id="boundary" inkscape:connector-curvature="0" />
	<path style="fill:none;stroke:red;stroke-width:1px;stroke-linecap:butt;stroke-linejoin:miter;stroke-opacity:1" d="M 832.08,860.342 820.775,832.08 z" id="boundary" inkscape:connector-curvature="0" />
	<path style="fill:none;stroke:red;stroke-width:1px;stroke-linecap:butt;stroke-linejoin:miter;stroke-opacity:1" d="M 826.427,914.04 832.08,860.342 z" id="boundary" inkscape:connector-curvature="0" />
	<path style="fill:none;stroke:red;stroke-width:1px;stroke-linecap:butt;stroke-linejoin:miter;stroke-opacity:1" d="M 826.427,942.302 826.427,914.04 z" id="boundary" inkscape:connector-curvature="0" />
	<path style="fill:none;stroke:red;stroke-width:1px;stroke-linecap:butt;stroke-linejoin:miter;stroke-opacity:1" d="M 871.647,580.547 882.952,540.98 z" id="boundary" inkscape:connector-curvature="0" />
	<path style="fill:none;stroke:red;stroke-width:1px;stroke-linecap:butt;stroke-linejoin:miter;stroke-opacity:1" d="M 826.427,942.302 812.296,967.738 z" id="boundary" inkscape:connector-curvature="0" />
	<circle cx="4" cy="512.718" r="4" fill="#0" id="circle0"/>
	<circle cx="4" cy="834.906" r="4" fill="#0" id="circle1"/>
	<circle cx="4" cy="863.168" r="4" fill="#0" id="circle2"/>
	<circle cx="4" cy="891.43" r="4" fill="#0" id="circle3"/>
	<circle cx="4" cy="919.692" r="4" fill="#0" id="circle4"/>
	<circle cx="9.65242" cy="540.98" r="4" fill="#0" id="circle5"/>
	<circle cx="12.4786" cy="947.954" r="4" fill="#0" id="circle6"/>
	<circle cx="15.3048" cy="478.803" r="4" fill="#0" id="circle7"/>
	<circle cx="15.3048" cy="795.339" r="4" fill="#0" id="circle8"/>
	<circle cx="18.1311" cy="569.242" r="4" fill="#0" id="circle9"/>
	<circle cx="26.6097" cy="767.077" r="4" fill="#0" id="circle10"/>
	<circle cx="32.2621" cy="456.194" r="4" fill="#0" id="circle11"/>
	<circle cx="35.0883" cy="591.852" r="4" fill="#0" id="circle12"/>
	<circle cx="35.0883" cy="964.912" r="4" fill="#0" id="circle13"/>
	<circle cx="49.2194" cy="744.467" r="4" fill="#0" id="circle14"/>
	<circle cx="57.698" cy="611.635" r="4" fill="#0" id="circle15"/>
	<circle cx="57.698" cy="981.869" r="4" fill="#0" id="circle16"/>
	<circle cx="60.5242" cy="450.541" r="4" fill="#0" id="circle17"/>
	<circle cx="74.6553" cy="730.336" r="4" fill="#0" id="circle18"/>
	<circle cx="83.1339" cy="625.766" r="4" fill="#0" id="circle19"/>
	<circle cx="83.1339" cy="996" r="4" fill="#0" id="circle20"/>
	<circle cx="88.7863" cy="439.236" r="4" fill="#0" id="circle21"/>
	<circle cx="102.917" cy="727.51" r="4" fill="#0" id="circle22"/>
	<circle cx="108.57" cy="639.897" r="4" fill="#0" id="circle23"/>
	<circle cx="111.396" cy="996" r="4" fill="#0" id="circle24"/>
	<circle cx="117.048" cy="433.584" r="4" fill="#0" id="circle25"/>
	<circle cx="131.179" cy="727.51" r="4" fill="#0" id="circle26"/>
	<circle cx="136.832" cy="645.55" r="4" fill="#0" id="circle27"/>
	<circle cx="139.658" cy="996" r="4" fill="#0" id="circle28"/>
	<circle cx="145.311" cy="427.932" r="4" fill="#0" id="circle29"/>
	<circle cx="159.442" cy="727.51" r="4" fill="#0" id="circle30"/>
	<circle cx="165.094" cy="656.855" r="4" fill="#0" id="circle31"/>
	<circle cx="167.92" cy="410.974" r="4" fill="#0" id="circle32"/>
	<circle cx="167.92" cy="996" r="4" fill="#0" id="circle33"/>
	<circle cx="187.704" cy="727.51" r="4" fill="#0" id="circle34"/>
	<circle cx="193.356" cy="656.855" r="4" fill="#0" id="circle35"/>
	<circle cx="196.182" cy="399.67" r="4" fill="#0" id="circle36"/>
	<circle cx="196.182" cy="996" r="4" fill="#0" id="circle37"/>
	<circle cx="215.966" cy="716.205" r="4" fill="#0" id="circle38"/>
	<circle cx="221.618" cy="662.507" r="4" fill="#0" id="circle39"/>
	<circle cx="224.444" cy="388.365" r="4" fill="#0" id="circle40"/>
	<circle cx="224.444" cy="984.695" r="4" fill="#0" id="circle41"/>
	<circle cx="230.097" cy="54.8718" r="4" fill="#0" id="circle42"/>
	<circle cx="230.097" cy="83.1339" r="4" fill="#0" id="circle43"/>
	<circle cx="230.097" cy="111.396" r="4" fill="#0" id="circle44"/>
	<circle cx="241.402" cy="139.658" r="4" fill="#0" id="circle45"/>
	<circle cx="244.228" cy="713.379" r="4" fill="#0" id="circle46"/>
	<circle cx="249.88" cy="668.16" r="4" fill="#0" id="circle47"/>
	<circle cx="252.707" cy="32.2621" r="4" fill="#0" id="circle48"/>
	<circle cx="252.707" cy="167.92" r="4" fill="#0" id="circle49"/>
	<circle cx="252.707" cy="224.444" r="4" fill="#0" id="circle50"/>
	<circle cx="252.707" cy="252.707" r="4" fill="#0" id="circle51"/>
	<circle cx="252.707" cy="280.969" r="4" fill="#0" id="circle52"/>
	<circle cx="252.707" cy="382.712" r="4" fill="#0" id="circle53"/>
	<circle cx="252.707" cy="973.39" r="4" fill="#0" id="circle54"/>
	<circle cx="258.359" cy="196.182" r="4" fill="#0" id="circle55"/>
	<circle cx="258.359" cy="309.231" r="4" fill="#0" id="circle56"/>
	<circle cx="266.838" cy="337.493" r="4" fill="#0" id="circle57"/>
	<circle cx="275.316" cy="15.3048" r="4" fill="#0" id="circle58"/>
	<circle cx="280.969" cy="362.929" r="4" fill="#0" id="circle59"/>
	<circle cx="280.969" cy="970.564" r="4" fill="#0" id="circle60"/>
	<circle cx="303.578" cy="9.65242" r="4" fill="#0" id="circle61"/>
	<circle cx="309.231" cy="973.39" r="4" fill="#0" id="circle62"/>
	<circle cx="331.84" cy="4" r="4" fill="#0" id="circle63"/>
	<circle cx="337.493" cy="979.043" r="4" fill="#0" id="circle64"/>
	<circle cx="360.103" cy="9.65242" r="4" fill="#0" id="circle65"/>
	<circle cx="365.755" cy="984.695" r="4" fill="#0" id="circle66"/>
	<circle cx="388.365" cy="20.9573" r="4" fill="#0" id="circle67"/>
	<circle cx="394.017" cy="990.348" r="4" fill="#0" id="circle68"/>
	<circle cx="413.801" cy="35.0883" r="4" fill="#0" id="circle69"/>
	<circle cx="422.279" cy="990.348" r="4" fill="#0" id="circle70"/>
	<circle cx="442.063" cy="43.567" r="4" fill="#0" id="circle71"/>
	<circle cx="450.541" cy="996" r="4" fill="#0" id="circle72"/>
	<circle cx="470.325" cy="43.567" r="4" fill="#0" id="circle73"/>
	<circle cx="478.803" cy="996" r="4" fill="#0" id="circle74"/>
	<circle cx="498.587" cy="43.567" r="4" fill="#0" id="circle75"/>
	<circle cx="507.066" cy="996" r="4" fill="#0" id="circle76"/>
	<circle cx="526.849" cy="43.567" r="4" fill="#0" id="circle77"/>
	<circle cx="535.328" cy="996" r="4" fill="#0" id="circle78"/>
	<circle cx="555.111" cy="43.567" r="4" fill="#0" id="circle79"/>
	<circle cx="563.59" cy="996" r="4" fill="#0" id="circle80"/>
	<circle cx="583.373" cy="35.0883" r="4" fill="#0" id="circle81"/>
	<circle cx="591.852" cy="990.348" r="4" fill="#0" id="circle82"/>
	<circle cx="608.809" cy="20.9573" r="4" fill="#0" id="circle83"/>
	<circle cx="620.114" cy="984.695" r="4" fill="#0" id="circle84"/>
	<circle cx="637.071" cy="9.65242" r="4" fill="#0" id="circle85"/>
	<circle cx="648.376" cy="996" r="4" fill="#0" id="circle86"/>
	<circle cx="665.333" cy="4" r="4" fill="#0" id="circle87"/>
	<circle cx="676.638" cy="996" r="4" fill="#0" id="circle88"/>
	<circle cx="693.595" cy="6.82621" r="4" fill="#0" id="circle89"/>
	<circle cx="693.595" cy="662.507" r="4" fill="#0" id="circle90"/>
	<circle cx="696.422" cy="371.407" r="4" fill="#0" id="circle91"/>
	<circle cx="696.422" cy="690.769" r="4" fill="#0" id="circle92"/>
	<circle cx="704.9" cy="996" r="4" fill="#0" id="circle93"/>
	<circle cx="710.553" cy="345.972" r="4" fill="#0" id="circle94"/>
	<circle cx="710.553" cy="716.205" r="4" fill="#0" id="circle95"/>
	<circle cx="721.858" cy="18.1311" r="4" fill="#0" id="circle96"/>
	<circle cx="721.858" cy="668.16" r="4" fill="#0" id="circle97"/>
	<circle cx="724.684" cy="292.274" r="4" fill="#0" id="circle98"/>
	<circle cx="724.684" cy="320.536" r="4" fill="#0" id="circle99"/>
	<circle cx="724.684" cy="382.712" r="4" fill="#0" id="circle100"/>
	<circle cx="730.336" cy="196.182" r="4" fill="#0" id="circle101"/>
	<circle cx="730.336" cy="224.444" r="4" fill="#0" id="circle102"/>
	<circle cx="730.336" cy="252.707" r="4" fill="#0" id="circle103"/>
	<circle cx="733.162" cy="996" r="4" fill="#0" id="circle104"/>
	<circle cx="738.815" cy="727.51" r="4" fill="#0" id="circle105"/>
	<circle cx="744.467" cy="170.746" r="4" fill="#0" id="circle106"/>
	<circle cx="747.293" cy="32.2621" r="4" fill="#0" id="circle107"/>
	<circle cx="750.12" cy="662.507" r="4" fill="#0" id="circle108"/>
	<circle cx="752.946" cy="388.365" r="4" fill="#0" id="circle109"/>
	<circle cx="755.772" cy="142.484" r="4" fill="#0" id="circle110"/>
	<circle cx="761.425" cy="996" r="4" fill="#0" id="circle111"/>
	<circle cx="767.077" cy="54.8718" r="4" fill="#0" id="circle112"/>
	<circle cx="767.077" cy="735.989" r="4" fill="#0" id="circle113"/>
	<circle cx="769.903" cy="83.1339" r="4" fill="#0" id="circle114"/>
	<circle cx="769.903" cy="111.396" r="4" fill="#0" id="circle115"/>
	<circle cx="778.382" cy="651.202" r="4" fill="#0" id="circle116"/>
	<circle cx="781.208" cy="399.67" r="4" fill="#0" id="circle117"/>
	<circle cx="789.687" cy="752.946" r="4" fill="#0" id="circle118"/>
	<circle cx="789.687" cy="984.695" r="4" fill="#0" id="circle119"/>
	<circle cx="803.818" cy="637.071" r="4" fill="#0" id="circle120"/>
	<circle cx="806.644" cy="413.801" r="4" fill="#0" id="circle121"/>
	<circle cx="806.644" cy="775.556" r="4" fill="#0" id="circle122"/>
	<circle cx="812.296" cy="967.738" r="4" fill="#0" id="circle123"/>
	<circle cx="815.123" cy="803.818" r="4" fill="#0" id="circle124"/>
	<circle cx="820.775" cy="832.08" r="4" fill="#0" id="circle125"/>
	<circle cx="826.427" cy="436.41" r="4" fill="#0" id="circle126"/>
	<circle cx="826.427" cy="620.114" r="4" fill="#0" id="circle127"/>
	<circle cx="826.427" cy="914.04" r="4" fill="#0" id="circle128"/>
	<circle cx="826.427" cy="942.302" r="4" fill="#0" id="circle129"/>
	<circle cx="832.08" cy="860.342" r="4" fill="#0" id="circle130"/>
	<circle cx="849.037" cy="453.368" r="4" fill="#0" id="circle131"/>
	<circle cx="849.037" cy="603.157" r="4" fill="#0" id="circle132"/>
	<circle cx="871.647" cy="473.151" r="4" fill="#0" id="circle133"/>
	<circle cx="871.647" cy="580.547" r="4" fill="#0" id="circle134"/>
	<circle cx="882.952" cy="501.413" r="4" fill="#0" id="circle135"/>
	<circle cx="882.952" cy="540.98" r="4" fill="#0" id="circle136"/>
	</g>
</svg>