<?xml version="1.0" encoding="UTF-8" standalone="no"?>
<!-- Created with CurveBenchmark -->
<svg
	xmlns:dc="http://purl.org/dc/elements/1.1/"
	xmlns:cc="http://creativecommons.org/ns#"
	xmlns:rdf="http://www.w3.org/1999/02/22-rdf-syntax-ns#"
	xmlns:svg="http://www.w3.org/2000/svg"
	xmlns="http://www.w3.org/2000/svg"
	xmlns:sodipodi="http://sodipodi.sourceforge.net/DTD/sodipodi-0.dtd"
	xmlns:inkscape="http://www.inkscape.org/namespaces/inkscape"
	width="1000"
	height="1000"
	id="svg2"
	version="1.1"
	sodipodi:docname="manifold/nncrust-Misk10.png.txt">
<defs
	id="defs4" />
<metadata
	id="metadata7">
	<rdf:RDF>
		<cc:Work
			rdf:about="">
			<dc:format>image/svg+xml</dc:format>
			<dc:type
				rdf:resource="http://purl.org/dc/dcmitype/StillImage" />
			<dc:title></dc:title>
		</cc:Work>
	</rdf:RDF>
</metadata>
<g
	inkscape:label="Layer 1"
	inkscape:groupmode="layer"
	id="layer1">
	<path style="fill:none;stroke:red;stroke-width:1px;stroke-linecap:butt;stroke-linejoin:miter;stroke-opacity:1" d="M 39.8554,178.155 53.5146,166.203 z" id="boundary" inkscape:connector-curvature="0" />
	<path style="fill:none;stroke:red;stroke-width:1px;stroke-linecap:butt;stroke-linejoin:miter;stroke-opacity:1" d="M 68.8812,157.666 53.5146,166.203 z" id="boundary" inkscape:connector-curvature="0" />
	<path style="fill:none;stroke:red;stroke-width:1px;stroke-linecap:butt;stroke-linejoin:miter;stroke-opacity:1" d="M 84.2478,149.129 68.8812,157.666 z" id="boundary" inkscape:connector-curvature="0" />
	<path style="fill:none;stroke:red;stroke-width:1px;stroke-linecap:butt;stroke-linejoin:miter;stroke-opacity:1" d="M 92.7849,133.762 84.2478,149.129 z" id="boundary" inkscape:connector-curvature="0" />
	<path style="fill:none;stroke:red;stroke-width:1px;stroke-linecap:butt;stroke-linejoin:miter;stroke-opacity:1" d="M 4,239.621 4,222.547 z" id="boundary" inkscape:connector-curvature="0" />
	<path style="fill:none;stroke:red;stroke-width:1px;stroke-linecap:butt;stroke-linejoin:miter;stroke-opacity:1" d="M 4,222.547 12.537,205.473 z" id="boundary" inkscape:connector-curvature="0" />
	<path style="fill:none;stroke:red;stroke-width:1px;stroke-linecap:butt;stroke-linejoin:miter;stroke-opacity:1" d="M 26.1962,191.814 39.8554,178.155 z" id="boundary" inkscape:connector-curvature="0" />
	<path style="fill:none;stroke:red;stroke-width:1px;stroke-linecap:butt;stroke-linejoin:miter;stroke-opacity:1" d="M 12.537,205.473 26.1962,191.814 z" id="boundary" inkscape:connector-curvature="0" />
	<path style="fill:none;stroke:red;stroke-width:1px;stroke-linecap:butt;stroke-linejoin:miter;stroke-opacity:1" d="M 179.862,63.759 166.203,77.4182 z" id="boundary" inkscape:connector-curvature="0" />
	<path style="fill:none;stroke:red;stroke-width:1px;stroke-linecap:butt;stroke-linejoin:miter;stroke-opacity:1" d="M 166.203,77.4182 152.544,89.3701 z" id="boundary" inkscape:connector-curvature="0" />
	<path style="fill:none;stroke:red;stroke-width:1px;stroke-linecap:butt;stroke-linejoin:miter;stroke-opacity:1" d="M 152.544,89.3701 137.177,97.9071 z" id="boundary" inkscape:connector-curvature="0" />
	<path style="fill:none;stroke:red;stroke-width:1px;stroke-linecap:butt;stroke-linejoin:miter;stroke-opacity:1" d="M 92.7849,133.762 106.444,120.103 z" id="boundary" inkscape:connector-curvature="0" />
	<path style="fill:none;stroke:red;stroke-width:1px;stroke-linecap:butt;stroke-linejoin:miter;stroke-opacity:1" d="M 106.444,120.103 123.518,111.566 z" id="boundary" inkscape:connector-curvature="0" />
	<path style="fill:none;stroke:red;stroke-width:1px;stroke-linecap:butt;stroke-linejoin:miter;stroke-opacity:1" d="M 123.518,111.566 137.177,97.9071 z" id="boundary" inkscape:connector-curvature="0" />
	<path style="fill:none;stroke:red;stroke-width:1px;stroke-linecap:butt;stroke-linejoin:miter;stroke-opacity:1" d="M 12.537,272.062 4,256.695 z" id="boundary" inkscape:connector-curvature="0" />
	<path style="fill:none;stroke:red;stroke-width:1px;stroke-linecap:butt;stroke-linejoin:miter;stroke-opacity:1" d="M 4,256.695 4,239.621 z" id="boundary" inkscape:connector-curvature="0" />
	<path style="fill:none;stroke:red;stroke-width:1px;stroke-linecap:butt;stroke-linejoin:miter;stroke-opacity:1" d="M 24.4888,285.721 12.537,272.062 z" id="boundary" inkscape:connector-curvature="0" />
	<path style="fill:none;stroke:red;stroke-width:1px;stroke-linecap:butt;stroke-linejoin:miter;stroke-opacity:1" d="M 24.4888,285.721 38.148,295.966 z" id="boundary" inkscape:connector-curvature="0" />
	<path style="fill:none;stroke:red;stroke-width:1px;stroke-linecap:butt;stroke-linejoin:miter;stroke-opacity:1" d="M 53.5146,304.503 70.5886,304.503 z" id="boundary" inkscape:connector-curvature="0" />
	<path style="fill:none;stroke:red;stroke-width:1px;stroke-linecap:butt;stroke-linejoin:miter;stroke-opacity:1" d="M 53.5146,304.503 38.148,295.966 z" id="boundary" inkscape:connector-curvature="0" />
	<path style="fill:none;stroke:red;stroke-width:1px;stroke-linecap:butt;stroke-linejoin:miter;stroke-opacity:1" d="M 118.396,304.503 103.029,313.04 z" id="boundary" inkscape:connector-curvature="0" />
	<path style="fill:none;stroke:red;stroke-width:1px;stroke-linecap:butt;stroke-linejoin:miter;stroke-opacity:1" d="M 103.029,313.04 87.6627,304.503 z" id="boundary" inkscape:connector-curvature="0" />
	<path style="fill:none;stroke:red;stroke-width:1px;stroke-linecap:butt;stroke-linejoin:miter;stroke-opacity:1" d="M 87.6627,304.503 70.5886,304.503 z" id="boundary" inkscape:connector-curvature="0" />
	<path style="fill:none;stroke:red;stroke-width:1px;stroke-linecap:butt;stroke-linejoin:miter;stroke-opacity:1" d="M 118.396,304.503 135.47,304.503 z" id="boundary" inkscape:connector-curvature="0" />
	<path style="fill:none;stroke:red;stroke-width:1px;stroke-linecap:butt;stroke-linejoin:miter;stroke-opacity:1" d="M 135.47,304.503 152.544,309.625 z" id="boundary" inkscape:connector-curvature="0" />
	<path style="fill:none;stroke:red;stroke-width:1px;stroke-linecap:butt;stroke-linejoin:miter;stroke-opacity:1" d="M 169.618,304.503 184.985,313.04 z" id="boundary" inkscape:connector-curvature="0" />
	<path style="fill:none;stroke:red;stroke-width:1px;stroke-linecap:butt;stroke-linejoin:miter;stroke-opacity:1" d="M 152.544,309.625 169.618,304.503 z" id="boundary" inkscape:connector-curvature="0" />
	<path style="fill:none;stroke:red;stroke-width:1px;stroke-linecap:butt;stroke-linejoin:miter;stroke-opacity:1" d="M 202.059,313.04 184.985,313.04 z" id="boundary" inkscape:connector-curvature="0" />
	<path style="fill:none;stroke:red;stroke-width:1px;stroke-linecap:butt;stroke-linejoin:miter;stroke-opacity:1" d="M 179.862,63.759 196.936,55.222 z" id="boundary" inkscape:connector-curvature="0" />
	<path style="fill:none;stroke:red;stroke-width:1px;stroke-linecap:butt;stroke-linejoin:miter;stroke-opacity:1" d="M 309.625,4 326.699,4 z" id="boundary" inkscape:connector-curvature="0" />
	<path style="fill:none;stroke:red;stroke-width:1px;stroke-linecap:butt;stroke-linejoin:miter;stroke-opacity:1" d="M 294.258,12.537 309.625,4 z" id="boundary" inkscape:connector-curvature="0" />
	<path style="fill:none;stroke:red;stroke-width:1px;stroke-linecap:butt;stroke-linejoin:miter;stroke-opacity:1" d="M 326.699,4 343.773,4 z" id="boundary" inkscape:connector-curvature="0" />
	<path style="fill:none;stroke:red;stroke-width:1px;stroke-linecap:butt;stroke-linejoin:miter;stroke-opacity:1" d="M 244.744,29.611 260.11,21.074 z" id="boundary" inkscape:connector-curvature="0" />
	<path style="fill:none;stroke:red;stroke-width:1px;stroke-linecap:butt;stroke-linejoin:miter;stroke-opacity:1" d="M 260.11,21.074 277.184,17.6592 z" id="boundary" inkscape:connector-curvature="0" />
	<path style="fill:none;stroke:red;stroke-width:1px;stroke-linecap:butt;stroke-linejoin:miter;stroke-opacity:1" d="M 277.184,17.6592 294.258,12.537 z" id="boundary" inkscape:connector-curvature="0" />
	<path style="fill:none;stroke:red;stroke-width:1px;stroke-linecap:butt;stroke-linejoin:miter;stroke-opacity:1" d="M 360.847,4 377.921,4 z" id="boundary" inkscape:connector-curvature="0" />
	<path style="fill:none;stroke:red;stroke-width:1px;stroke-linecap:butt;stroke-linejoin:miter;stroke-opacity:1" d="M 377.921,4 394.995,5.7074 z" id="boundary" inkscape:connector-curvature="0" />
	<path style="fill:none;stroke:red;stroke-width:1px;stroke-linecap:butt;stroke-linejoin:miter;stroke-opacity:1" d="M 412.069,5.7074 394.995,5.7074 z" id="boundary" inkscape:connector-curvature="0" />
	<path style="fill:none;stroke:red;stroke-width:1px;stroke-linecap:butt;stroke-linejoin:miter;stroke-opacity:1" d="M 412.069,5.7074 429.143,12.537 z" id="boundary" inkscape:connector-curvature="0" />
	<path style="fill:none;stroke:red;stroke-width:1px;stroke-linecap:butt;stroke-linejoin:miter;stroke-opacity:1" d="M 446.217,12.537 429.143,12.537 z" id="boundary" inkscape:connector-curvature="0" />
	<path style="fill:none;stroke:red;stroke-width:1px;stroke-linecap:butt;stroke-linejoin:miter;stroke-opacity:1" d="M 446.217,12.537 461.583,21.074 z" id="boundary" inkscape:connector-curvature="0" />
	<path style="fill:none;stroke:red;stroke-width:1px;stroke-linecap:butt;stroke-linejoin:miter;stroke-opacity:1" d="M 478.657,21.074 461.583,21.074 z" id="boundary" inkscape:connector-curvature="0" />
	<path style="fill:none;stroke:red;stroke-width:1px;stroke-linecap:butt;stroke-linejoin:miter;stroke-opacity:1" d="M 343.773,4 360.847,4 z" id="boundary" inkscape:connector-curvature="0" />
	<path style="fill:none;stroke:red;stroke-width:1px;stroke-linecap:butt;stroke-linejoin:miter;stroke-opacity:1" d="M 229.377,38.148 214.01,46.685 z" id="boundary" inkscape:connector-curvature="0" />
	<path style="fill:none;stroke:red;stroke-width:1px;stroke-linecap:butt;stroke-linejoin:miter;stroke-opacity:1" d="M 214.01,46.685 196.936,55.222 z" id="boundary" inkscape:connector-curvature="0" />
	<path style="fill:none;stroke:red;stroke-width:1px;stroke-linecap:butt;stroke-linejoin:miter;stroke-opacity:1" d="M 244.744,29.611 229.377,38.148 z" id="boundary" inkscape:connector-curvature="0" />
	<path style="fill:none;stroke:red;stroke-width:1px;stroke-linecap:butt;stroke-linejoin:miter;stroke-opacity:1" d="M 202.059,313.04 219.133,313.04 z" id="boundary" inkscape:connector-curvature="0" />
	<path style="fill:none;stroke:red;stroke-width:1px;stroke-linecap:butt;stroke-linejoin:miter;stroke-opacity:1" d="M 219.133,313.04 234.499,321.577 z" id="boundary" inkscape:connector-curvature="0" />
	<path style="fill:none;stroke:red;stroke-width:1px;stroke-linecap:butt;stroke-linejoin:miter;stroke-opacity:1" d="M 234.499,321.577 251.573,321.577 z" id="boundary" inkscape:connector-curvature="0" />
	<path style="fill:none;stroke:red;stroke-width:1px;stroke-linecap:butt;stroke-linejoin:miter;stroke-opacity:1" d="M 251.573,321.577 266.94,330.114 z" id="boundary" inkscape:connector-curvature="0" />
	<path style="fill:none;stroke:red;stroke-width:1px;stroke-linecap:butt;stroke-linejoin:miter;stroke-opacity:1" d="M 299.38,345.48 282.306,338.651 z" id="boundary" inkscape:connector-curvature="0" />
	<path style="fill:none;stroke:red;stroke-width:1px;stroke-linecap:butt;stroke-linejoin:miter;stroke-opacity:1" d="M 282.306,338.651 266.94,330.114 z" id="boundary" inkscape:connector-curvature="0" />
	<path style="fill:none;stroke:red;stroke-width:1px;stroke-linecap:butt;stroke-linejoin:miter;stroke-opacity:1" d="M 272.062,413.776 287.429,405.239 z" id="boundary" inkscape:connector-curvature="0" />
	<path style="fill:none;stroke:red;stroke-width:1px;stroke-linecap:butt;stroke-linejoin:miter;stroke-opacity:1" d="M 302.795,396.702 287.429,405.239 z" id="boundary" inkscape:connector-curvature="0" />
	<path style="fill:none;stroke:red;stroke-width:1px;stroke-linecap:butt;stroke-linejoin:miter;stroke-opacity:1" d="M 311.332,359.139 313.04,383.043 z" id="boundary" inkscape:connector-curvature="0" />
	<path style="fill:none;stroke:red;stroke-width:1px;stroke-linecap:butt;stroke-linejoin:miter;stroke-opacity:1" d="M 313.04,383.043 302.795,396.702 z" id="boundary" inkscape:connector-curvature="0" />
	<path style="fill:none;stroke:red;stroke-width:1px;stroke-linecap:butt;stroke-linejoin:miter;stroke-opacity:1" d="M 299.38,345.48 311.332,359.139 z" id="boundary" inkscape:connector-curvature="0" />
	<path style="fill:none;stroke:red;stroke-width:1px;stroke-linecap:butt;stroke-linejoin:miter;stroke-opacity:1" d="M 94.4923,584.516 103.029,567.442 z" id="boundary" inkscape:connector-curvature="0" />
	<path style="fill:none;stroke:red;stroke-width:1px;stroke-linecap:butt;stroke-linejoin:miter;stroke-opacity:1" d="M 111.566,550.368 103.029,567.442 z" id="boundary" inkscape:connector-curvature="0" />
	<path style="fill:none;stroke:red;stroke-width:1px;stroke-linecap:butt;stroke-linejoin:miter;stroke-opacity:1" d="M 55.222,649.398 68.8812,635.738 z" id="boundary" inkscape:connector-curvature="0" />
	<path style="fill:none;stroke:red;stroke-width:1px;stroke-linecap:butt;stroke-linejoin:miter;stroke-opacity:1" d="M 55.222,666.472 55.222,649.398 z" id="boundary" inkscape:connector-curvature="0" />
	<path style="fill:none;stroke:red;stroke-width:1px;stroke-linecap:butt;stroke-linejoin:miter;stroke-opacity:1" d="M 77.4182,618.664 68.8812,635.738 z" id="boundary" inkscape:connector-curvature="0" />
	<path style="fill:none;stroke:red;stroke-width:1px;stroke-linecap:butt;stroke-linejoin:miter;stroke-opacity:1" d="M 77.4182,618.664 85.9552,601.59 z" id="boundary" inkscape:connector-curvature="0" />
	<path style="fill:none;stroke:red;stroke-width:1px;stroke-linecap:butt;stroke-linejoin:miter;stroke-opacity:1" d="M 85.9552,601.59 94.4923,584.516 z" id="boundary" inkscape:connector-curvature="0" />
	<path style="fill:none;stroke:red;stroke-width:1px;stroke-linecap:butt;stroke-linejoin:miter;stroke-opacity:1" d="M 140.592,427.435 157.666,422.313 z" id="boundary" inkscape:connector-curvature="0" />
	<path style="fill:none;stroke:red;stroke-width:1px;stroke-linecap:butt;stroke-linejoin:miter;stroke-opacity:1" d="M 140.592,444.509 140.592,427.435 z" id="boundary" inkscape:connector-curvature="0" />
	<path style="fill:none;stroke:red;stroke-width:1px;stroke-linecap:butt;stroke-linejoin:miter;stroke-opacity:1" d="M 140.592,461.583 140.592,444.509 z" id="boundary" inkscape:connector-curvature="0" />
	<path style="fill:none;stroke:red;stroke-width:1px;stroke-linecap:butt;stroke-linejoin:miter;stroke-opacity:1" d="M 111.566,550.368 120.103,533.294 z" id="boundary" inkscape:connector-curvature="0" />
	<path style="fill:none;stroke:red;stroke-width:1px;stroke-linecap:butt;stroke-linejoin:miter;stroke-opacity:1" d="M 128.64,516.22 120.103,533.294 z" id="boundary" inkscape:connector-curvature="0" />
	<path style="fill:none;stroke:red;stroke-width:1px;stroke-linecap:butt;stroke-linejoin:miter;stroke-opacity:1" d="M 132.055,487.194 128.64,516.22 z" id="boundary" inkscape:connector-curvature="0" />
	<path style="fill:none;stroke:red;stroke-width:1px;stroke-linecap:butt;stroke-linejoin:miter;stroke-opacity:1" d="M 140.592,461.583 132.055,487.194 z" id="boundary" inkscape:connector-curvature="0" />
	<path style="fill:none;stroke:red;stroke-width:1px;stroke-linecap:butt;stroke-linejoin:miter;stroke-opacity:1" d="M 46.685,683.546 55.222,666.472 z" id="boundary" inkscape:connector-curvature="0" />
	<path style="fill:none;stroke:red;stroke-width:1px;stroke-linecap:butt;stroke-linejoin:miter;stroke-opacity:1" d="M 46.685,700.62 46.685,683.546 z" id="boundary" inkscape:connector-curvature="0" />
	<path style="fill:none;stroke:red;stroke-width:1px;stroke-linecap:butt;stroke-linejoin:miter;stroke-opacity:1" d="M 46.685,717.694 55.222,733.06 z" id="boundary" inkscape:connector-curvature="0" />
	<path style="fill:none;stroke:red;stroke-width:1px;stroke-linecap:butt;stroke-linejoin:miter;stroke-opacity:1" d="M 46.685,717.694 46.685,700.62 z" id="boundary" inkscape:connector-curvature="0" />
	<path style="fill:none;stroke:red;stroke-width:1px;stroke-linecap:butt;stroke-linejoin:miter;stroke-opacity:1" d="M 63.759,748.427 68.8812,765.501 z" id="boundary" inkscape:connector-curvature="0" />
	<path style="fill:none;stroke:red;stroke-width:1px;stroke-linecap:butt;stroke-linejoin:miter;stroke-opacity:1" d="M 55.222,733.06 63.759,748.427 z" id="boundary" inkscape:connector-curvature="0" />
	<path style="fill:none;stroke:red;stroke-width:1px;stroke-linecap:butt;stroke-linejoin:miter;stroke-opacity:1" d="M 82.5404,777.453 68.8812,765.501 z" id="boundary" inkscape:connector-curvature="0" />
	<path style="fill:none;stroke:red;stroke-width:1px;stroke-linecap:butt;stroke-linejoin:miter;stroke-opacity:1" d="M 126.933,779.16 109.859,782.575 z" id="boundary" inkscape:connector-curvature="0" />
	<path style="fill:none;stroke:red;stroke-width:1px;stroke-linecap:butt;stroke-linejoin:miter;stroke-opacity:1" d="M 126.933,779.16 142.299,787.697 z" id="boundary" inkscape:connector-curvature="0" />
	<path style="fill:none;stroke:red;stroke-width:1px;stroke-linecap:butt;stroke-linejoin:miter;stroke-opacity:1" d="M 109.859,782.575 94.4923,791.112 z" id="boundary" inkscape:connector-curvature="0" />
	<path style="fill:none;stroke:red;stroke-width:1px;stroke-linecap:butt;stroke-linejoin:miter;stroke-opacity:1" d="M 94.4923,791.112 82.5404,777.453 z" id="boundary" inkscape:connector-curvature="0" />
	<path style="fill:none;stroke:red;stroke-width:1px;stroke-linecap:butt;stroke-linejoin:miter;stroke-opacity:1" d="M 142.299,787.697 155.959,799.649 z" id="boundary" inkscape:connector-curvature="0" />
	<path style="fill:none;stroke:red;stroke-width:1px;stroke-linecap:butt;stroke-linejoin:miter;stroke-opacity:1" d="M 155.959,799.649 166.203,813.308 z" id="boundary" inkscape:connector-curvature="0" />
	<path style="fill:none;stroke:red;stroke-width:1px;stroke-linecap:butt;stroke-linejoin:miter;stroke-opacity:1" d="M 166.203,813.308 174.74,828.675 z" id="boundary" inkscape:connector-curvature="0" />
	<path style="fill:none;stroke:red;stroke-width:1px;stroke-linecap:butt;stroke-linejoin:miter;stroke-opacity:1" d="M 157.666,422.313 173.033,430.85 z" id="boundary" inkscape:connector-curvature="0" />
	<path style="fill:none;stroke:red;stroke-width:1px;stroke-linecap:butt;stroke-linejoin:miter;stroke-opacity:1" d="M 173.033,430.85 188.399,422.313 z" id="boundary" inkscape:connector-curvature="0" />
	<path style="fill:none;stroke:red;stroke-width:1px;stroke-linecap:butt;stroke-linejoin:miter;stroke-opacity:1" d="M 188.399,422.313 205.473,422.313 z" id="boundary" inkscape:connector-curvature="0" />
	<path style="fill:none;stroke:red;stroke-width:1px;stroke-linecap:butt;stroke-linejoin:miter;stroke-opacity:1" d="M 174.74,828.675 183.277,844.041 z" id="boundary" inkscape:connector-curvature="0" />
	<path style="fill:none;stroke:red;stroke-width:1px;stroke-linecap:butt;stroke-linejoin:miter;stroke-opacity:1" d="M 191.814,859.408 183.277,844.041 z" id="boundary" inkscape:connector-curvature="0" />
	<path style="fill:none;stroke:red;stroke-width:1px;stroke-linecap:butt;stroke-linejoin:miter;stroke-opacity:1" d="M 191.814,859.408 200.351,874.775 z" id="boundary" inkscape:connector-curvature="0" />
	<path style="fill:none;stroke:red;stroke-width:1px;stroke-linecap:butt;stroke-linejoin:miter;stroke-opacity:1" d="M 205.473,422.313 222.547,422.313 z" id="boundary" inkscape:connector-curvature="0" />
	<path style="fill:none;stroke:red;stroke-width:1px;stroke-linecap:butt;stroke-linejoin:miter;stroke-opacity:1" d="M 239.621,422.313 222.547,422.313 z" id="boundary" inkscape:connector-curvature="0" />
	<path style="fill:none;stroke:red;stroke-width:1px;stroke-linecap:butt;stroke-linejoin:miter;stroke-opacity:1" d="M 254.988,413.776 239.621,422.313 z" id="boundary" inkscape:connector-curvature="0" />
	<path style="fill:none;stroke:red;stroke-width:1px;stroke-linecap:butt;stroke-linejoin:miter;stroke-opacity:1" d="M 272.062,413.776 254.988,413.776 z" id="boundary" inkscape:connector-curvature="0" />
	<path style="fill:none;stroke:red;stroke-width:1px;stroke-linecap:butt;stroke-linejoin:miter;stroke-opacity:1" d="M 210.596,888.434 222.547,902.093 z" id="boundary" inkscape:connector-curvature="0" />
	<path style="fill:none;stroke:red;stroke-width:1px;stroke-linecap:butt;stroke-linejoin:miter;stroke-opacity:1" d="M 239.621,908.923 222.547,902.093 z" id="boundary" inkscape:connector-curvature="0" />
	<path style="fill:none;stroke:red;stroke-width:1px;stroke-linecap:butt;stroke-linejoin:miter;stroke-opacity:1" d="M 210.596,888.434 200.351,874.775 z" id="boundary" inkscape:connector-curvature="0" />
	<path style="fill:none;stroke:red;stroke-width:1px;stroke-linecap:butt;stroke-linejoin:miter;stroke-opacity:1" d="M 239.621,908.923 253.281,919.167 z" id="boundary" inkscape:connector-curvature="0" />
	<path style="fill:none;stroke:red;stroke-width:1px;stroke-linecap:butt;stroke-linejoin:miter;stroke-opacity:1" d="M 253.281,919.167 270.355,919.167 z" id="boundary" inkscape:connector-curvature="0" />
	<path style="fill:none;stroke:red;stroke-width:1px;stroke-linecap:butt;stroke-linejoin:miter;stroke-opacity:1" d="M 270.355,919.167 285.721,927.704 z" id="boundary" inkscape:connector-curvature="0" />
	<path style="fill:none;stroke:red;stroke-width:1px;stroke-linecap:butt;stroke-linejoin:miter;stroke-opacity:1" d="M 302.795,927.704 285.721,927.704 z" id="boundary" inkscape:connector-curvature="0" />
	<path style="fill:none;stroke:red;stroke-width:1px;stroke-linecap:butt;stroke-linejoin:miter;stroke-opacity:1" d="M 302.795,927.704 319.869,927.704 z" id="boundary" inkscape:connector-curvature="0" />
	<path style="fill:none;stroke:red;stroke-width:1px;stroke-linecap:butt;stroke-linejoin:miter;stroke-opacity:1" d="M 319.869,927.704 335.236,936.241 z" id="boundary" inkscape:connector-curvature="0" />
	<path style="fill:none;stroke:red;stroke-width:1px;stroke-linecap:butt;stroke-linejoin:miter;stroke-opacity:1" d="M 335.236,936.241 350.602,944.778 z" id="boundary" inkscape:connector-curvature="0" />
	<path style="fill:none;stroke:red;stroke-width:1px;stroke-linecap:butt;stroke-linejoin:miter;stroke-opacity:1" d="M 367.676,951.608 350.602,944.778 z" id="boundary" inkscape:connector-curvature="0" />
	<path style="fill:none;stroke:red;stroke-width:1px;stroke-linecap:butt;stroke-linejoin:miter;stroke-opacity:1" d="M 398.41,965.267 381.336,961.852 z" id="boundary" inkscape:connector-curvature="0" />
	<path style="fill:none;stroke:red;stroke-width:1px;stroke-linecap:butt;stroke-linejoin:miter;stroke-opacity:1" d="M 381.336,961.852 367.676,951.608 z" id="boundary" inkscape:connector-curvature="0" />
	<path style="fill:none;stroke:red;stroke-width:1px;stroke-linecap:butt;stroke-linejoin:miter;stroke-opacity:1" d="M 398.41,965.267 413.776,973.804 z" id="boundary" inkscape:connector-curvature="0" />
	<path style="fill:none;stroke:red;stroke-width:1px;stroke-linecap:butt;stroke-linejoin:miter;stroke-opacity:1" d="M 413.776,973.804 430.85,978.926 z" id="boundary" inkscape:connector-curvature="0" />
	<path style="fill:none;stroke:red;stroke-width:1px;stroke-linecap:butt;stroke-linejoin:miter;stroke-opacity:1" d="M 430.85,978.926 446.217,987.463 z" id="boundary" inkscape:connector-curvature="0" />
	<path style="fill:none;stroke:red;stroke-width:1px;stroke-linecap:butt;stroke-linejoin:miter;stroke-opacity:1" d="M 446.217,987.463 463.291,987.463 z" id="boundary" inkscape:connector-curvature="0" />
	<path style="fill:none;stroke:red;stroke-width:1px;stroke-linecap:butt;stroke-linejoin:miter;stroke-opacity:1" d="M 480.365,987.463 463.291,987.463 z" id="boundary" inkscape:connector-curvature="0" />
	<path style="fill:none;stroke:red;stroke-width:1px;stroke-linecap:butt;stroke-linejoin:miter;stroke-opacity:1" d="M 494.024,29.611 509.391,38.148 z" id="boundary" inkscape:connector-curvature="0" />
	<path style="fill:none;stroke:red;stroke-width:1px;stroke-linecap:butt;stroke-linejoin:miter;stroke-opacity:1" d="M 509.391,38.148 523.05,48.3924 z" id="boundary" inkscape:connector-curvature="0" />
	<path style="fill:none;stroke:red;stroke-width:1px;stroke-linecap:butt;stroke-linejoin:miter;stroke-opacity:1" d="M 523.05,48.3924 538.417,56.9294 z" id="boundary" inkscape:connector-curvature="0" />
	<path style="fill:none;stroke:red;stroke-width:1px;stroke-linecap:butt;stroke-linejoin:miter;stroke-opacity:1" d="M 538.417,56.9294 552.076,68.8812 z" id="boundary" inkscape:connector-curvature="0" />
	<path style="fill:none;stroke:red;stroke-width:1px;stroke-linecap:butt;stroke-linejoin:miter;stroke-opacity:1" d="M 552.076,68.8812 567.442,77.4182 z" id="boundary" inkscape:connector-curvature="0" />
	<path style="fill:none;stroke:red;stroke-width:1px;stroke-linecap:butt;stroke-linejoin:miter;stroke-opacity:1" d="M 567.442,77.4182 575.979,92.7849 z" id="boundary" inkscape:connector-curvature="0" />
	<path style="fill:none;stroke:red;stroke-width:1px;stroke-linecap:butt;stroke-linejoin:miter;stroke-opacity:1" d="M 777.453,140.592 760.379,140.592 z" id="boundary" inkscape:connector-curvature="0" />
	<path style="fill:none;stroke:red;stroke-width:1px;stroke-linecap:butt;stroke-linejoin:miter;stroke-opacity:1" d="M 575.979,92.7849 591.346,101.322 z" id="boundary" inkscape:connector-curvature="0" />
	<path style="fill:none;stroke:red;stroke-width:1px;stroke-linecap:butt;stroke-linejoin:miter;stroke-opacity:1" d="M 591.346,101.322 603.298,114.981 z" id="boundary" inkscape:connector-curvature="0" />
	<path style="fill:none;stroke:red;stroke-width:1px;stroke-linecap:butt;stroke-linejoin:miter;stroke-opacity:1" d="M 616.957,125.225 603.298,114.981 z" id="boundary" inkscape:connector-curvature="0" />
	<path style="fill:none;stroke:red;stroke-width:1px;stroke-linecap:butt;stroke-linejoin:miter;stroke-opacity:1" d="M 616.957,125.225 632.324,133.762 z" id="boundary" inkscape:connector-curvature="0" />
	<path style="fill:none;stroke:red;stroke-width:1px;stroke-linecap:butt;stroke-linejoin:miter;stroke-opacity:1" d="M 632.324,133.762 645.983,145.714 z" id="boundary" inkscape:connector-curvature="0" />
	<path style="fill:none;stroke:red;stroke-width:1px;stroke-linecap:butt;stroke-linejoin:miter;stroke-opacity:1" d="M 743.305,140.592 760.379,140.592 z" id="boundary" inkscape:connector-curvature="0" />
	<path style="fill:none;stroke:red;stroke-width:1px;stroke-linecap:butt;stroke-linejoin:miter;stroke-opacity:1" d="M 726.231,149.129 743.305,140.592 z" id="boundary" inkscape:connector-curvature="0" />
	<path style="fill:none;stroke:red;stroke-width:1px;stroke-linecap:butt;stroke-linejoin:miter;stroke-opacity:1" d="M 494.024,29.611 478.657,21.074 z" id="boundary" inkscape:connector-curvature="0" />
	<path style="fill:none;stroke:red;stroke-width:1px;stroke-linecap:butt;stroke-linejoin:miter;stroke-opacity:1" d="M 676.716,157.666 659.642,157.666 z" id="boundary" inkscape:connector-curvature="0" />
	<path style="fill:none;stroke:red;stroke-width:1px;stroke-linecap:butt;stroke-linejoin:miter;stroke-opacity:1" d="M 659.642,157.666 645.983,145.714 z" id="boundary" inkscape:connector-curvature="0" />
	<path style="fill:none;stroke:red;stroke-width:1px;stroke-linecap:butt;stroke-linejoin:miter;stroke-opacity:1" d="M 693.79,157.666 676.716,157.666 z" id="boundary" inkscape:connector-curvature="0" />
	<path style="fill:none;stroke:red;stroke-width:1px;stroke-linecap:butt;stroke-linejoin:miter;stroke-opacity:1" d="M 726.231,149.129 710.864,157.666 z" id="boundary" inkscape:connector-curvature="0" />
	<path style="fill:none;stroke:red;stroke-width:1px;stroke-linecap:butt;stroke-linejoin:miter;stroke-opacity:1" d="M 710.864,157.666 693.79,157.666 z" id="boundary" inkscape:connector-curvature="0" />
	<path style="fill:none;stroke:red;stroke-width:1px;stroke-linecap:butt;stroke-linejoin:miter;stroke-opacity:1" d="M 714.279,441.095 714.279,458.169 z" id="boundary" inkscape:connector-curvature="0" />
	<path style="fill:none;stroke:red;stroke-width:1px;stroke-linecap:butt;stroke-linejoin:miter;stroke-opacity:1" d="M 714.279,441.095 731.353,441.095 z" id="boundary" inkscape:connector-curvature="0" />
	<path style="fill:none;stroke:red;stroke-width:1px;stroke-linecap:butt;stroke-linejoin:miter;stroke-opacity:1" d="M 745.012,429.143 714.279,441.095 z" id="boundary" inkscape:connector-curvature="0" />
	<path style="fill:none;stroke:red;stroke-width:1px;stroke-linecap:butt;stroke-linejoin:miter;stroke-opacity:1" d="M 745.012,429.143 731.353,441.095 z" id="boundary" inkscape:connector-curvature="0" />
	<path style="fill:none;stroke:red;stroke-width:1px;stroke-linecap:butt;stroke-linejoin:miter;stroke-opacity:1" d="M 722.816,473.535 714.279,458.169 z" id="boundary" inkscape:connector-curvature="0" />
	<path style="fill:none;stroke:red;stroke-width:1px;stroke-linecap:butt;stroke-linejoin:miter;stroke-opacity:1" d="M 722.816,473.535 731.353,488.902 z" id="boundary" inkscape:connector-curvature="0" />
	<path style="fill:none;stroke:red;stroke-width:1px;stroke-linecap:butt;stroke-linejoin:miter;stroke-opacity:1" d="M 731.353,488.902 739.89,504.269 z" id="boundary" inkscape:connector-curvature="0" />
	<path style="fill:none;stroke:red;stroke-width:1px;stroke-linecap:butt;stroke-linejoin:miter;stroke-opacity:1" d="M 760.379,533.294 746.719,521.343 z" id="boundary" inkscape:connector-curvature="0" />
	<path style="fill:none;stroke:red;stroke-width:1px;stroke-linecap:butt;stroke-linejoin:miter;stroke-opacity:1" d="M 746.719,521.343 739.89,504.269 z" id="boundary" inkscape:connector-curvature="0" />
	<path style="fill:none;stroke:red;stroke-width:1px;stroke-linecap:butt;stroke-linejoin:miter;stroke-opacity:1" d="M 745.012,429.143 762.086,420.606 z" id="boundary" inkscape:connector-curvature="0" />
	<path style="fill:none;stroke:red;stroke-width:1px;stroke-linecap:butt;stroke-linejoin:miter;stroke-opacity:1" d="M 791.112,210.596 782.575,227.67 z" id="boundary" inkscape:connector-curvature="0" />
	<path style="fill:none;stroke:red;stroke-width:1px;stroke-linecap:butt;stroke-linejoin:miter;stroke-opacity:1" d="M 799.649,184.985 791.112,210.596 z" id="boundary" inkscape:connector-curvature="0" />
	<path style="fill:none;stroke:red;stroke-width:1px;stroke-linecap:butt;stroke-linejoin:miter;stroke-opacity:1" d="M 774.038,277.184 765.501,261.818 z" id="boundary" inkscape:connector-curvature="0" />
	<path style="fill:none;stroke:red;stroke-width:1px;stroke-linecap:butt;stroke-linejoin:miter;stroke-opacity:1" d="M 765.501,261.818 779.16,249.866 z" id="boundary" inkscape:connector-curvature="0" />
	<path style="fill:none;stroke:red;stroke-width:1px;stroke-linecap:butt;stroke-linejoin:miter;stroke-opacity:1" d="M 791.112,282.306 774.038,277.184 z" id="boundary" inkscape:connector-curvature="0" />
	<path style="fill:none;stroke:red;stroke-width:1px;stroke-linecap:butt;stroke-linejoin:miter;stroke-opacity:1" d="M 779.16,249.866 782.575,227.67 z" id="boundary" inkscape:connector-curvature="0" />
	<path style="fill:none;stroke:red;stroke-width:1px;stroke-linecap:butt;stroke-linejoin:miter;stroke-opacity:1" d="M 791.112,282.306 803.064,295.966 z" id="boundary" inkscape:connector-curvature="0" />
	<path style="fill:none;stroke:red;stroke-width:1px;stroke-linecap:butt;stroke-linejoin:miter;stroke-opacity:1" d="M 806.478,154.251 799.649,184.985 z" id="boundary" inkscape:connector-curvature="0" />
	<path style="fill:none;stroke:red;stroke-width:1px;stroke-linecap:butt;stroke-linejoin:miter;stroke-opacity:1" d="M 803.064,295.966 816.723,307.917 z" id="boundary" inkscape:connector-curvature="0" />
	<path style="fill:none;stroke:red;stroke-width:1px;stroke-linecap:butt;stroke-linejoin:miter;stroke-opacity:1" d="M 816.723,307.917 823.552,324.991 z" id="boundary" inkscape:connector-curvature="0" />
	<path style="fill:none;stroke:red;stroke-width:1px;stroke-linecap:butt;stroke-linejoin:miter;stroke-opacity:1" d="M 820.138,354.017 823.552,324.991 z" id="boundary" inkscape:connector-curvature="0" />
	<path style="fill:none;stroke:red;stroke-width:1px;stroke-linecap:butt;stroke-linejoin:miter;stroke-opacity:1" d="M 777.453,140.592 794.527,140.592 z" id="boundary" inkscape:connector-curvature="0" />
	<path style="fill:none;stroke:red;stroke-width:1px;stroke-linecap:butt;stroke-linejoin:miter;stroke-opacity:1" d="M 794.527,140.592 806.478,154.251 z" id="boundary" inkscape:connector-curvature="0" />
	<path style="fill:none;stroke:red;stroke-width:1px;stroke-linecap:butt;stroke-linejoin:miter;stroke-opacity:1" d="M 820.138,354.017 811.601,371.091 z" id="boundary" inkscape:connector-curvature="0" />
	<path style="fill:none;stroke:red;stroke-width:1px;stroke-linecap:butt;stroke-linejoin:miter;stroke-opacity:1" d="M 762.086,420.606 774.038,406.947 z" id="boundary" inkscape:connector-curvature="0" />
	<path style="fill:none;stroke:red;stroke-width:1px;stroke-linecap:butt;stroke-linejoin:miter;stroke-opacity:1" d="M 774.038,406.947 789.404,398.41 z" id="boundary" inkscape:connector-curvature="0" />
	<path style="fill:none;stroke:red;stroke-width:1px;stroke-linecap:butt;stroke-linejoin:miter;stroke-opacity:1" d="M 760.379,533.294 772.33,546.954 z" id="boundary" inkscape:connector-curvature="0" />
	<path style="fill:none;stroke:red;stroke-width:1px;stroke-linecap:butt;stroke-linejoin:miter;stroke-opacity:1" d="M 772.33,546.954 785.99,558.905 z" id="boundary" inkscape:connector-curvature="0" />
	<path style="fill:none;stroke:red;stroke-width:1px;stroke-linecap:butt;stroke-linejoin:miter;stroke-opacity:1" d="M 797.941,572.565 785.99,558.905 z" id="boundary" inkscape:connector-curvature="0" />
	<path style="fill:none;stroke:red;stroke-width:1px;stroke-linecap:butt;stroke-linejoin:miter;stroke-opacity:1" d="M 797.941,572.565 806.478,587.931 z" id="boundary" inkscape:connector-curvature="0" />
	<path style="fill:none;stroke:red;stroke-width:1px;stroke-linecap:butt;stroke-linejoin:miter;stroke-opacity:1" d="M 789.404,398.41 803.064,388.165 z" id="boundary" inkscape:connector-curvature="0" />
	<path style="fill:none;stroke:red;stroke-width:1px;stroke-linecap:butt;stroke-linejoin:miter;stroke-opacity:1" d="M 803.064,388.165 811.601,371.091 z" id="boundary" inkscape:connector-curvature="0" />
	<path style="fill:none;stroke:red;stroke-width:1px;stroke-linecap:butt;stroke-linejoin:miter;stroke-opacity:1" d="M 813.308,605.005 821.845,620.372 z" id="boundary" inkscape:connector-curvature="0" />
	<path style="fill:none;stroke:red;stroke-width:1px;stroke-linecap:butt;stroke-linejoin:miter;stroke-opacity:1" d="M 821.845,620.372 825.26,637.446 z" id="boundary" inkscape:connector-curvature="0" />
	<path style="fill:none;stroke:red;stroke-width:1px;stroke-linecap:butt;stroke-linejoin:miter;stroke-opacity:1" d="M 813.308,605.005 806.478,587.931 z" id="boundary" inkscape:connector-curvature="0" />
	<path style="fill:none;stroke:red;stroke-width:1px;stroke-linecap:butt;stroke-linejoin:miter;stroke-opacity:1" d="M 825.26,637.446 825.26,654.52 z" id="boundary" inkscape:connector-curvature="0" />
	<path style="fill:none;stroke:red;stroke-width:1px;stroke-linecap:butt;stroke-linejoin:miter;stroke-opacity:1" d="M 825.26,654.52 816.723,680.131 z" id="boundary" inkscape:connector-curvature="0" />
	<path style="fill:none;stroke:red;stroke-width:1px;stroke-linecap:butt;stroke-linejoin:miter;stroke-opacity:1" d="M 543.539,705.742 531.587,727.938 z" id="boundary" inkscape:connector-curvature="0" />
	<path style="fill:none;stroke:red;stroke-width:1px;stroke-linecap:butt;stroke-linejoin:miter;stroke-opacity:1" d="M 531.587,727.938 517.928,739.89 z" id="boundary" inkscape:connector-curvature="0" />
	<path style="fill:none;stroke:red;stroke-width:1px;stroke-linecap:butt;stroke-linejoin:miter;stroke-opacity:1" d="M 567.442,792.819 550.368,789.404 z" id="boundary" inkscape:connector-curvature="0" />
	<path style="fill:none;stroke:red;stroke-width:1px;stroke-linecap:butt;stroke-linejoin:miter;stroke-opacity:1" d="M 517.928,780.867 509.391,765.501 z" id="boundary" inkscape:connector-curvature="0" />
	<path style="fill:none;stroke:red;stroke-width:1px;stroke-linecap:butt;stroke-linejoin:miter;stroke-opacity:1" d="M 535.002,780.867 517.928,780.867 z" id="boundary" inkscape:connector-curvature="0" />
	<path style="fill:none;stroke:red;stroke-width:1px;stroke-linecap:butt;stroke-linejoin:miter;stroke-opacity:1" d="M 535.002,780.867 550.368,789.404 z" id="boundary" inkscape:connector-curvature="0" />
	<path style="fill:none;stroke:red;stroke-width:1px;stroke-linecap:butt;stroke-linejoin:miter;stroke-opacity:1" d="M 509.391,765.501 517.928,739.89 z" id="boundary" inkscape:connector-curvature="0" />
	<path style="fill:none;stroke:red;stroke-width:1px;stroke-linecap:butt;stroke-linejoin:miter;stroke-opacity:1" d="M 543.539,705.742 560.613,697.205 z" id="boundary" inkscape:connector-curvature="0" />
	<path style="fill:none;stroke:red;stroke-width:1px;stroke-linecap:butt;stroke-linejoin:miter;stroke-opacity:1" d="M 577.687,688.668 594.761,688.668 z" id="boundary" inkscape:connector-curvature="0" />
	<path style="fill:none;stroke:red;stroke-width:1px;stroke-linecap:butt;stroke-linejoin:miter;stroke-opacity:1" d="M 560.613,697.205 577.687,688.668 z" id="boundary" inkscape:connector-curvature="0" />
	<path style="fill:none;stroke:red;stroke-width:1px;stroke-linecap:butt;stroke-linejoin:miter;stroke-opacity:1" d="M 611.835,688.668 594.761,688.668 z" id="boundary" inkscape:connector-curvature="0" />
	<path style="fill:none;stroke:red;stroke-width:1px;stroke-linecap:butt;stroke-linejoin:miter;stroke-opacity:1" d="M 611.835,688.668 628.909,688.668 z" id="boundary" inkscape:connector-curvature="0" />
	<path style="fill:none;stroke:red;stroke-width:1px;stroke-linecap:butt;stroke-linejoin:miter;stroke-opacity:1" d="M 584.516,797.941 567.442,792.819 z" id="boundary" inkscape:connector-curvature="0" />
	<path style="fill:none;stroke:red;stroke-width:1px;stroke-linecap:butt;stroke-linejoin:miter;stroke-opacity:1" d="M 584.516,797.941 599.883,806.478 z" id="boundary" inkscape:connector-curvature="0" />
	<path style="fill:none;stroke:red;stroke-width:1px;stroke-linecap:butt;stroke-linejoin:miter;stroke-opacity:1" d="M 562.32,987.463 545.246,987.463 z" id="boundary" inkscape:connector-curvature="0" />
	<path style="fill:none;stroke:red;stroke-width:1px;stroke-linecap:butt;stroke-linejoin:miter;stroke-opacity:1" d="M 529.88,996 545.246,987.463 z" id="boundary" inkscape:connector-curvature="0" />
	<path style="fill:none;stroke:red;stroke-width:1px;stroke-linecap:butt;stroke-linejoin:miter;stroke-opacity:1" d="M 495.731,996 480.365,987.463 z" id="boundary" inkscape:connector-curvature="0" />
	<path style="fill:none;stroke:red;stroke-width:1px;stroke-linecap:butt;stroke-linejoin:miter;stroke-opacity:1" d="M 512.806,996 495.731,996 z" id="boundary" inkscape:connector-curvature="0" />
	<path style="fill:none;stroke:red;stroke-width:1px;stroke-linecap:butt;stroke-linejoin:miter;stroke-opacity:1" d="M 529.88,996 512.806,996 z" id="boundary" inkscape:connector-curvature="0" />
	<path style="fill:none;stroke:red;stroke-width:1px;stroke-linecap:butt;stroke-linejoin:miter;stroke-opacity:1" d="M 562.32,987.463 579.394,987.463 z" id="boundary" inkscape:connector-curvature="0" />
	<path style="fill:none;stroke:red;stroke-width:1px;stroke-linecap:butt;stroke-linejoin:miter;stroke-opacity:1" d="M 594.761,978.926 579.394,987.463 z" id="boundary" inkscape:connector-curvature="0" />
	<path style="fill:none;stroke:red;stroke-width:1px;stroke-linecap:butt;stroke-linejoin:miter;stroke-opacity:1" d="M 599.883,806.478 616.957,806.478 z" id="boundary" inkscape:connector-curvature="0" />
	<path style="fill:none;stroke:red;stroke-width:1px;stroke-linecap:butt;stroke-linejoin:miter;stroke-opacity:1" d="M 616.957,806.478 632.324,815.015 z" id="boundary" inkscape:connector-curvature="0" />
	<path style="fill:none;stroke:red;stroke-width:1px;stroke-linecap:butt;stroke-linejoin:miter;stroke-opacity:1" d="M 649.398,815.015 632.324,815.015 z" id="boundary" inkscape:connector-curvature="0" />
	<path style="fill:none;stroke:red;stroke-width:1px;stroke-linecap:butt;stroke-linejoin:miter;stroke-opacity:1" d="M 594.761,978.926 611.835,970.389 z" id="boundary" inkscape:connector-curvature="0" />
	<path style="fill:none;stroke:red;stroke-width:1px;stroke-linecap:butt;stroke-linejoin:miter;stroke-opacity:1" d="M 611.835,970.389 628.909,970.389 z" id="boundary" inkscape:connector-curvature="0" />
	<path style="fill:none;stroke:red;stroke-width:1px;stroke-linecap:butt;stroke-linejoin:miter;stroke-opacity:1" d="M 628.909,970.389 644.275,961.852 z" id="boundary" inkscape:connector-curvature="0" />
	<path style="fill:none;stroke:red;stroke-width:1px;stroke-linecap:butt;stroke-linejoin:miter;stroke-opacity:1" d="M 659.642,953.315 644.275,961.852 z" id="boundary" inkscape:connector-curvature="0" />
	<path style="fill:none;stroke:red;stroke-width:1px;stroke-linecap:butt;stroke-linejoin:miter;stroke-opacity:1" d="M 678.423,697.205 661.349,697.205 z" id="boundary" inkscape:connector-curvature="0" />
	<path style="fill:none;stroke:red;stroke-width:1px;stroke-linecap:butt;stroke-linejoin:miter;stroke-opacity:1" d="M 661.349,697.205 645.983,688.668 z" id="boundary" inkscape:connector-curvature="0" />
	<path style="fill:none;stroke:red;stroke-width:1px;stroke-linecap:butt;stroke-linejoin:miter;stroke-opacity:1" d="M 678.423,697.205 688.668,710.864 z" id="boundary" inkscape:connector-curvature="0" />
	<path style="fill:none;stroke:red;stroke-width:1px;stroke-linecap:butt;stroke-linejoin:miter;stroke-opacity:1" d="M 664.764,823.552 649.398,815.015 z" id="boundary" inkscape:connector-curvature="0" />
	<path style="fill:none;stroke:red;stroke-width:1px;stroke-linecap:butt;stroke-linejoin:miter;stroke-opacity:1" d="M 705.742,709.157 721.108,717.694 z" id="boundary" inkscape:connector-curvature="0" />
	<path style="fill:none;stroke:red;stroke-width:1px;stroke-linecap:butt;stroke-linejoin:miter;stroke-opacity:1" d="M 688.668,710.864 705.742,709.157 z" id="boundary" inkscape:connector-curvature="0" />
	<path style="fill:none;stroke:red;stroke-width:1px;stroke-linecap:butt;stroke-linejoin:miter;stroke-opacity:1" d="M 628.909,688.668 645.983,688.668 z" id="boundary" inkscape:connector-curvature="0" />
	<path style="fill:none;stroke:red;stroke-width:1px;stroke-linecap:butt;stroke-linejoin:miter;stroke-opacity:1" d="M 816.723,680.131 813.308,702.327 z" id="boundary" inkscape:connector-curvature="0" />
	<path style="fill:none;stroke:red;stroke-width:1px;stroke-linecap:butt;stroke-linejoin:miter;stroke-opacity:1" d="M 813.308,702.327 799.649,714.279 z" id="boundary" inkscape:connector-curvature="0" />
	<path style="fill:none;stroke:red;stroke-width:1px;stroke-linecap:butt;stroke-linejoin:miter;stroke-opacity:1" d="M 787.697,727.938 799.649,714.279 z" id="boundary" inkscape:connector-curvature="0" />
	<path style="fill:none;stroke:red;stroke-width:1px;stroke-linecap:butt;stroke-linejoin:miter;stroke-opacity:1" d="M 738.182,722.816 755.256,722.816 z" id="boundary" inkscape:connector-curvature="0" />
	<path style="fill:none;stroke:red;stroke-width:1px;stroke-linecap:butt;stroke-linejoin:miter;stroke-opacity:1" d="M 755.256,722.816 770.623,731.353 z" id="boundary" inkscape:connector-curvature="0" />
	<path style="fill:none;stroke:red;stroke-width:1px;stroke-linecap:butt;stroke-linejoin:miter;stroke-opacity:1" d="M 738.182,722.816 721.108,717.694 z" id="boundary" inkscape:connector-curvature="0" />
	<path style="fill:none;stroke:red;stroke-width:1px;stroke-linecap:butt;stroke-linejoin:miter;stroke-opacity:1" d="M 787.697,727.938 770.623,731.353 z" id="boundary" inkscape:connector-curvature="0" />
	<path style="fill:none;stroke:red;stroke-width:1px;stroke-linecap:butt;stroke-linejoin:miter;stroke-opacity:1" d="M 697.205,832.09 680.131,832.09 z" id="boundary" inkscape:connector-curvature="0" />
	<path style="fill:none;stroke:red;stroke-width:1px;stroke-linecap:butt;stroke-linejoin:miter;stroke-opacity:1" d="M 680.131,832.09 664.764,823.552 z" id="boundary" inkscape:connector-curvature="0" />
	<path style="fill:none;stroke:red;stroke-width:1px;stroke-linecap:butt;stroke-linejoin:miter;stroke-opacity:1" d="M 659.642,953.315 675.009,944.778 z" id="boundary" inkscape:connector-curvature="0" />
	<path style="fill:none;stroke:red;stroke-width:1px;stroke-linecap:butt;stroke-linejoin:miter;stroke-opacity:1" d="M 690.375,936.241 707.449,936.241 z" id="boundary" inkscape:connector-curvature="0" />
	<path style="fill:none;stroke:red;stroke-width:1px;stroke-linecap:butt;stroke-linejoin:miter;stroke-opacity:1" d="M 675.009,944.778 690.375,936.241 z" id="boundary" inkscape:connector-curvature="0" />
	<path style="fill:none;stroke:red;stroke-width:1px;stroke-linecap:butt;stroke-linejoin:miter;stroke-opacity:1" d="M 722.816,927.704 707.449,936.241 z" id="boundary" inkscape:connector-curvature="0" />
	<path style="fill:none;stroke:red;stroke-width:1px;stroke-linecap:butt;stroke-linejoin:miter;stroke-opacity:1" d="M 697.205,832.09 712.571,840.627 z" id="boundary" inkscape:connector-curvature="0" />
	<path style="fill:none;stroke:red;stroke-width:1px;stroke-linecap:butt;stroke-linejoin:miter;stroke-opacity:1" d="M 712.571,840.627 727.938,849.164 z" id="boundary" inkscape:connector-curvature="0" />
	<path style="fill:none;stroke:red;stroke-width:1px;stroke-linecap:butt;stroke-linejoin:miter;stroke-opacity:1" d="M 727.938,849.164 743.305,857.701 z" id="boundary" inkscape:connector-curvature="0" />
	<path style="fill:none;stroke:red;stroke-width:1px;stroke-linecap:butt;stroke-linejoin:miter;stroke-opacity:1" d="M 756.964,867.945 743.305,857.701 z" id="boundary" inkscape:connector-curvature="0" />
	<path style="fill:none;stroke:red;stroke-width:1px;stroke-linecap:butt;stroke-linejoin:miter;stroke-opacity:1" d="M 722.816,927.704 736.475,915.752 z" id="boundary" inkscape:connector-curvature="0" />
	<path style="fill:none;stroke:red;stroke-width:1px;stroke-linecap:butt;stroke-linejoin:miter;stroke-opacity:1" d="M 736.475,915.752 753.549,907.215 z" id="boundary" inkscape:connector-curvature="0" />
	<path style="fill:none;stroke:red;stroke-width:1px;stroke-linecap:butt;stroke-linejoin:miter;stroke-opacity:1" d="M 756.964,867.945 765.501,893.556 z" id="boundary" inkscape:connector-curvature="0" />
	<path style="fill:none;stroke:red;stroke-width:1px;stroke-linecap:butt;stroke-linejoin:miter;stroke-opacity:1" d="M 765.501,893.556 753.549,907.215 z" id="boundary" inkscape:connector-curvature="0" />
	<circle cx="4" cy="222.547" r="4" fill="#0" id="circle0"/>
	<circle cx="4" cy="239.621" r="4" fill="#0" id="circle1"/>
	<circle cx="4" cy="256.695" r="4" fill="#0" id="circle2"/>
	<circle cx="12.537" cy="205.473" r="4" fill="#0" id="circle3"/>
	<circle cx="12.537" cy="272.062" r="4" fill="#0" id="circle4"/>
	<circle cx="24.4888" cy="285.721" r="4" fill="#0" id="circle5"/>
	<circle cx="26.1962" cy="191.814" r="4" fill="#0" id="circle6"/>
	<circle cx="38.148" cy="295.966" r="4" fill="#0" id="circle7"/>
	<circle cx="39.8554" cy="178.155" r="4" fill="#0" id="circle8"/>
	<circle cx="46.685" cy="683.546" r="4" fill="#0" id="circle9"/>
	<circle cx="46.685" cy="700.62" r="4" fill="#0" id="circle10"/>
	<circle cx="46.685" cy="717.694" r="4" fill="#0" id="circle11"/>
	<circle cx="53.5146" cy="166.203" r="4" fill="#0" id="circle12"/>
	<circle cx="53.5146" cy="304.503" r="4" fill="#0" id="circle13"/>
	<circle cx="55.222" cy="649.398" r="4" fill="#0" id="circle14"/>
	<circle cx="55.222" cy="666.472" r="4" fill="#0" id="circle15"/>
	<circle cx="55.222" cy="733.06" r="4" fill="#0" id="circle16"/>
	<circle cx="63.759" cy="748.427" r="4" fill="#0" id="circle17"/>
	<circle cx="68.8812" cy="157.666" r="4" fill="#0" id="circle18"/>
	<circle cx="68.8812" cy="635.738" r="4" fill="#0" id="circle19"/>
	<circle cx="68.8812" cy="765.501" r="4" fill="#0" id="circle20"/>
	<circle cx="70.5886" cy="304.503" r="4" fill="#0" id="circle21"/>
	<circle cx="77.4182" cy="618.664" r="4" fill="#0" id="circle22"/>
	<circle cx="82.5404" cy="777.453" r="4" fill="#0" id="circle23"/>
	<circle cx="84.2478" cy="149.129" r="4" fill="#0" id="circle24"/>
	<circle cx="85.9552" cy="601.59" r="4" fill="#0" id="circle25"/>
	<circle cx="87.6627" cy="304.503" r="4" fill="#0" id="circle26"/>
	<circle cx="92.7849" cy="133.762" r="4" fill="#0" id="circle27"/>
	<circle cx="94.4923" cy="584.516" r="4" fill="#0" id="circle28"/>
	<circle cx="94.4923" cy="791.112" r="4" fill="#0" id="circle29"/>
	<circle cx="103.029" cy="313.04" r="4" fill="#0" id="circle30"/>
	<circle cx="103.029" cy="567.442" r="4" fill="#0" id="circle31"/>
	<circle cx="106.444" cy="120.103" r="4" fill="#0" id="circle32"/>
	<circle cx="109.859" cy="782.575" r="4" fill="#0" id="circle33"/>
	<circle cx="111.566" cy="550.368" r="4" fill="#0" id="circle34"/>
	<circle cx="118.396" cy="304.503" r="4" fill="#0" id="circle35"/>
	<circle cx="120.103" cy="533.294" r="4" fill="#0" id="circle36"/>
	<circle cx="123.518" cy="111.566" r="4" fill="#0" id="circle37"/>
	<circle cx="126.933" cy="779.16" r="4" fill="#0" id="circle38"/>
	<circle cx="128.64" cy="516.22" r="4" fill="#0" id="circle39"/>
	<circle cx="132.055" cy="487.194" r="4" fill="#0" id="circle40"/>
	<circle cx="135.47" cy="304.503" r="4" fill="#0" id="circle41"/>
	<circle cx="137.177" cy="97.9071" r="4" fill="#0" id="circle42"/>
	<circle cx="140.592" cy="427.435" r="4" fill="#0" id="circle43"/>
	<circle cx="140.592" cy="444.509" r="4" fill="#0" id="circle44"/>
	<circle cx="140.592" cy="461.583" r="4" fill="#0" id="circle45"/>
	<circle cx="142.299" cy="787.697" r="4" fill="#0" id="circle46"/>
	<circle cx="152.544" cy="89.3701" r="4" fill="#0" id="circle47"/>
	<circle cx="152.544" cy="309.625" r="4" fill="#0" id="circle48"/>
	<circle cx="155.959" cy="799.649" r="4" fill="#0" id="circle49"/>
	<circle cx="157.666" cy="422.313" r="4" fill="#0" id="circle50"/>
	<circle cx="166.203" cy="77.4182" r="4" fill="#0" id="circle51"/>
	<circle cx="166.203" cy="813.308" r="4" fill="#0" id="circle52"/>
	<circle cx="169.618" cy="304.503" r="4" fill="#0" id="circle53"/>
	<circle cx="173.033" cy="430.85" r="4" fill="#0" id="circle54"/>
	<circle cx="174.74" cy="828.675" r="4" fill="#0" id="circle55"/>
	<circle cx="179.862" cy="63.759" r="4" fill="#0" id="circle56"/>
	<circle cx="183.277" cy="844.041" r="4" fill="#0" id="circle57"/>
	<circle cx="184.985" cy="313.04" r="4" fill="#0" id="circle58"/>
	<circle cx="188.399" cy="422.313" r="4" fill="#0" id="circle59"/>
	<circle cx="191.814" cy="859.408" r="4" fill="#0" id="circle60"/>
	<circle cx="196.936" cy="55.222" r="4" fill="#0" id="circle61"/>
	<circle cx="200.351" cy="874.775" r="4" fill="#0" id="circle62"/>
	<circle cx="202.059" cy="313.04" r="4" fill="#0" id="circle63"/>
	<circle cx="205.473" cy="422.313" r="4" fill="#0" id="circle64"/>
	<circle cx="210.596" cy="888.434" r="4" fill="#0" id="circle65"/>
	<circle cx="214.01" cy="46.685" r="4" fill="#0" id="circle66"/>
	<circle cx="219.133" cy="313.04" r="4" fill="#0" id="circle67"/>
	<circle cx="222.547" cy="422.313" r="4" fill="#0" id="circle68"/>
	<circle cx="222.547" cy="902.093" r="4" fill="#0" id="circle69"/>
	<circle cx="229.377" cy="38.148" r="4" fill="#0" id="circle70"/>
	<circle cx="234.499" cy="321.577" r="4" fill="#0" id="circle71"/>
	<circle cx="239.621" cy="422.313" r="4" fill="#0" id="circle72"/>
	<circle cx="239.621" cy="908.923" r="4" fill="#0" id="circle73"/>
	<circle cx="244.744" cy="29.611" r="4" fill="#0" id="circle74"/>
	<circle cx="251.573" cy="321.577" r="4" fill="#0" id="circle75"/>
	<circle cx="253.281" cy="919.167" r="4" fill="#0" id="circle76"/>
	<circle cx="254.988" cy="413.776" r="4" fill="#0" id="circle77"/>
	<circle cx="260.11" cy="21.074" r="4" fill="#0" id="circle78"/>
	<circle cx="266.94" cy="330.114" r="4" fill="#0" id="circle79"/>
	<circle cx="270.355" cy="919.167" r="4" fill="#0" id="circle80"/>
	<circle cx="272.062" cy="413.776" r="4" fill="#0" id="circle81"/>
	<circle cx="277.184" cy="17.6592" r="4" fill="#0" id="circle82"/>
	<circle cx="282.306" cy="338.651" r="4" fill="#0" id="circle83"/>
	<circle cx="285.721" cy="927.704" r="4" fill="#0" id="circle84"/>
	<circle cx="287.429" cy="405.239" r="4" fill="#0" id="circle85"/>
	<circle cx="294.258" cy="12.537" r="4" fill="#0" id="circle86"/>
	<circle cx="299.38" cy="345.48" r="4" fill="#0" id="circle87"/>
	<circle cx="302.795" cy="396.702" r="4" fill="#0" id="circle88"/>
	<circle cx="302.795" cy="927.704" r="4" fill="#0" id="circle89"/>
	<circle cx="309.625" cy="4" r="4" fill="#0" id="circle90"/>
	<circle cx="311.332" cy="359.139" r="4" fill="#0" id="circle91"/>
	<circle cx="313.04" cy="383.043" r="4" fill="#0" id="circle92"/>
	<circle cx="319.869" cy="927.704" r="4" fill="#0" id="circle93"/>
	<circle cx="326.699" cy="4" r="4" fill="#0" id="circle94"/>
	<circle cx="335.236" cy="936.241" r="4" fill="#0" id="circle95"/>
	<circle cx="343.773" cy="4" r="4" fill="#0" id="circle96"/>
	<circle cx="350.602" cy="944.778" r="4" fill="#0" id="circle97"/>
	<circle cx="360.847" cy="4" r="4" fill="#0" id="circle98"/>
	<circle cx="367.676" cy="951.608" r="4" fill="#0" id="circle99"/>
	<circle cx="377.921" cy="4" r="4" fill="#0" id="circle100"/>
	<circle cx="381.336" cy="961.852" r="4" fill="#0" id="circle101"/>
	<circle cx="394.995" cy="5.7074" r="4" fill="#0" id="circle102"/>
	<circle cx="398.41" cy="965.267" r="4" fill="#0" id="circle103"/>
	<circle cx="412.069" cy="5.7074" r="4" fill="#0" id="circle104"/>
	<circle cx="413.776" cy="973.804" r="4" fill="#0" id="circle105"/>
	<circle cx="429.143" cy="12.537" r="4" fill="#0" id="circle106"/>
	<circle cx="430.85" cy="978.926" r="4" fill="#0" id="circle107"/>
	<circle cx="446.217" cy="12.537" r="4" fill="#0" id="circle108"/>
	<circle cx="446.217" cy="987.463" r="4" fill="#0" id="circle109"/>
	<circle cx="461.583" cy="21.074" r="4" fill="#0" id="circle110"/>
	<circle cx="463.291" cy="987.463" r="4" fill="#0" id="circle111"/>
	<circle cx="478.657" cy="21.074" r="4" fill="#0" id="circle112"/>
	<circle cx="480.365" cy="987.463" r="4" fill="#0" id="circle113"/>
	<circle cx="494.024" cy="29.611" r="4" fill="#0" id="circle114"/>
	<circle cx="495.731" cy="996" r="4" fill="#0" id="circle115"/>
	<circle cx="509.391" cy="38.148" r="4" fill="#0" id="circle116"/>
	<circle cx="509.391" cy="765.501" r="4" fill="#0" id="circle117"/>
	<circle cx="512.806" cy="996" r="4" fill="#0" id="circle118"/>
	<circle cx="517.928" cy="739.89" r="4" fill="#0" id="circle119"/>
	<circle cx="517.928" cy="780.867" r="4" fill="#0" id="circle120"/>
	<circle cx="523.05" cy="48.3924" r="4" fill="#0" id="circle121"/>
	<circle cx="529.88" cy="996" r="4" fill="#0" id="circle122"/>
	<circle cx="531.587" cy="727.938" r="4" fill="#0" id="circle123"/>
	<circle cx="535.002" cy="780.867" r="4" fill="#0" id="circle124"/>
	<circle cx="538.417" cy="56.9294" r="4" fill="#0" id="circle125"/>
	<circle cx="543.539" cy="705.742" r="4" fill="#0" id="circle126"/>
	<circle cx="545.246" cy="987.463" r="4" fill="#0" id="circle127"/>
	<circle cx="550.368" cy="789.404" r="4" fill="#0" id="circle128"/>
	<circle cx="552.076" cy="68.8812" r="4" fill="#0" id="circle129"/>
	<circle cx="560.613" cy="697.205" r="4" fill="#0" id="circle130"/>
	<circle cx="562.32" cy="987.463" r="4" fill="#0" id="circle131"/>
	<circle cx="567.442" cy="77.4182" r="4" fill="#0" id="circle132"/>
	<circle cx="567.442" cy="792.819" r="4" fill="#0" id="circle133"/>
	<circle cx="575.979" cy="92.7849" r="4" fill="#0" id="circle134"/>
	<circle cx="577.687" cy="688.668" r="4" fill="#0" id="circle135"/>
	<circle cx="579.394" cy="987.463" r="4" fill="#0" id="circle136"/>
	<circle cx="584.516" cy="797.941" r="4" fill="#0" id="circle137"/>
	<circle cx="591.346" cy="101.322" r="4" fill="#0" id="circle138"/>
	<circle cx="594.761" cy="688.668" r="4" fill="#0" id="circle139"/>
	<circle cx="594.761" cy="978.926" r="4" fill="#0" id="circle140"/>
	<circle cx="599.883" cy="806.478" r="4" fill="#0" id="circle141"/>
	<circle cx="603.298" cy="114.981" r="4" fill="#0" id="circle142"/>
	<circle cx="611.835" cy="688.668" r="4" fill="#0" id="circle143"/>
	<circle cx="611.835" cy="970.389" r="4" fill="#0" id="circle144"/>
	<circle cx="616.957" cy="125.225" r="4" fill="#0" id="circle145"/>
	<circle cx="616.957" cy="806.478" r="4" fill="#0" id="circle146"/>
	<circle cx="628.909" cy="688.668" r="4" fill="#0" id="circle147"/>
	<circle cx="628.909" cy="970.389" r="4" fill="#0" id="circle148"/>
	<circle cx="632.324" cy="133.762" r="4" fill="#0" id="circle149"/>
	<circle cx="632.324" cy="815.015" r="4" fill="#0" id="circle150"/>
	<circle cx="644.275" cy="961.852" r="4" fill="#0" id="circle151"/>
	<circle cx="645.983" cy="145.714" r="4" fill="#0" id="circle152"/>
	<circle cx="645.983" cy="688.668" r="4" fill="#0" id="circle153"/>
	<circle cx="649.398" cy="815.015" r="4" fill="#0" id="circle154"/>
	<circle cx="659.642" cy="157.666" r="4" fill="#0" id="circle155"/>
	<circle cx="659.642" cy="953.315" r="4" fill="#0" id="circle156"/>
	<circle cx="661.349" cy="697.205" r="4" fill="#0" id="circle157"/>
	<circle cx="664.764" cy="823.552" r="4" fill="#0" id="circle158"/>
	<circle cx="675.009" cy="944.778" r="4" fill="#0" id="circle159"/>
	<circle cx="676.716" cy="157.666" r="4" fill="#0" id="circle160"/>
	<circle cx="678.423" cy="697.205" r="4" fill="#0" id="circle161"/>
	<circle cx="680.131" cy="832.09" r="4" fill="#0" id="circle162"/>
	<circle cx="688.668" cy="710.864" r="4" fill="#0" id="circle163"/>
	<circle cx="690.375" cy="936.241" r="4" fill="#0" id="circle164"/>
	<circle cx="693.79" cy="157.666" r="4" fill="#0" id="circle165"/>
	<circle cx="697.205" cy="832.09" r="4" fill="#0" id="circle166"/>
	<circle cx="705.742" cy="709.157" r="4" fill="#0" id="circle167"/>
	<circle cx="707.449" cy="936.241" r="4" fill="#0" id="circle168"/>
	<circle cx="710.864" cy="157.666" r="4" fill="#0" id="circle169"/>
	<circle cx="712.571" cy="840.627" r="4" fill="#0" id="circle170"/>
	<circle cx="714.279" cy="441.095" r="4" fill="#0" id="circle171"/>
	<circle cx="714.279" cy="458.169" r="4" fill="#0" id="circle172"/>
	<circle cx="721.108" cy="717.694" r="4" fill="#0" id="circle173"/>
	<circle cx="722.816" cy="473.535" r="4" fill="#0" id="circle174"/>
	<circle cx="722.816" cy="927.704" r="4" fill="#0" id="circle175"/>
	<circle cx="726.231" cy="149.129" r="4" fill="#0" id="circle176"/>
	<circle cx="727.938" cy="849.164" r="4" fill="#0" id="circle177"/>
	<circle cx="731.353" cy="441.095" r="4" fill="#0" id="circle178"/>
	<circle cx="731.353" cy="488.902" r="4" fill="#0" id="circle179"/>
	<circle cx="736.475" cy="915.752" r="4" fill="#0" id="circle180"/>
	<circle cx="738.182" cy="722.816" r="4" fill="#0" id="circle181"/>
	<circle cx="739.89" cy="504.269" r="4" fill="#0" id="circle182"/>
	<circle cx="743.305" cy="140.592" r="4" fill="#0" id="circle183"/>
	<circle cx="743.305" cy="857.701" r="4" fill="#0" id="circle184"/>
	<circle cx="745.012" cy="429.143" r="4" fill="#0" id="circle185"/>
	<circle cx="746.719" cy="521.343" r="4" fill="#0" id="circle186"/>
	<circle cx="753.549" cy="907.215" r="4" fill="#0" id="circle187"/>
	<circle cx="755.256" cy="722.816" r="4" fill="#0" id="circle188"/>
	<circle cx="756.964" cy="867.945" r="4" fill="#0" id="circle189"/>
	<circle cx="760.379" cy="140.592" r="4" fill="#0" id="circle190"/>
	<circle cx="760.379" cy="533.294" r="4" fill="#0" id="circle191"/>
	<circle cx="762.086" cy="420.606" r="4" fill="#0" id="circle192"/>
	<circle cx="765.501" cy="261.818" r="4" fill="#0" id="circle193"/>
	<circle cx="765.501" cy="893.556" r="4" fill="#0" id="circle194"/>
	<circle cx="770.623" cy="731.353" r="4" fill="#0" id="circle195"/>
	<circle cx="772.33" cy="546.954" r="4" fill="#0" id="circle196"/>
	<circle cx="774.038" cy="277.184" r="4" fill="#0" id="circle197"/>
	<circle cx="774.038" cy="406.947" r="4" fill="#0" id="circle198"/>
	<circle cx="777.453" cy="140.592" r="4" fill="#0" id="circle199"/>
	<circle cx="779.16" cy="249.866" r="4" fill="#0" id="circle200"/>
	<circle cx="782.575" cy="227.67" r="4" fill="#0" id="circle201"/>
	<circle cx="785.99" cy="558.905" r="4" fill="#0" id="circle202"/>
	<circle cx="787.697" cy="727.938" r="4" fill="#0" id="circle203"/>
	<circle cx="789.404" cy="398.41" r="4" fill="#0" id="circle204"/>
	<circle cx="791.112" cy="210.596" r="4" fill="#0" id="circle205"/>
	<circle cx="791.112" cy="282.306" r="4" fill="#0" id="circle206"/>
	<circle cx="794.527" cy="140.592" r="4" fill="#0" id="circle207"/>
	<circle cx="797.941" cy="572.565" r="4" fill="#0" id="circle208"/>
	<circle cx="799.649" cy="184.985" r="4" fill="#0" id="circle209"/>
	<circle cx="799.649" cy="714.279" r="4" fill="#0" id="circle210"/>
	<circle cx="803.064" cy="295.966" r="4" fill="#0" id="circle211"/>
	<circle cx="803.064" cy="388.165" r="4" fill="#0" id="circle212"/>
	<circle cx="806.478" cy="154.251" r="4" fill="#0" id="circle213"/>
	<circle cx="806.478" cy="587.931" r="4" fill="#0" id="circle214"/>
	<circle cx="811.601" cy="371.091" r="4" fill="#0" id="circle215"/>
	<circle cx="813.308" cy="605.005" r="4" fill="#0" id="circle216"/>
	<circle cx="813.308" cy="702.327" r="4" fill="#0" id="circle217"/>
	<circle cx="816.723" cy="307.917" r="4" fill="#0" id="circle218"/>
	<circle cx="816.723" cy="680.131" r="4" fill="#0" id="circle219"/>
	<circle cx="820.138" cy="354.017" r="4" fill="#0" id="circle220"/>
	<circle cx="821.845" cy="620.372" r="4" fill="#0" id="circle221"/>
	<circle cx="823.552" cy="324.991" r="4" fill="#0" id="circle222"/>
	<circle cx="825.26" cy="637.446" r="4" fill="#0" id="circle223"/>
	<circle cx="825.26" cy="654.52" r="4" fill="#0" id="circle224"/>
	</g>
</svg>