<?xml version="1.0" encoding="UTF-8" standalone="no"?>
<!-- Created with CurveBenchmark -->
<svg
	xmlns:dc="http://purl.org/dc/elements/1.1/"
	xmlns:cc="http://creativecommons.org/ns#"
	xmlns:rdf="http://www.w3.org/1999/02/22-rdf-syntax-ns#"
	xmlns:svg="http://www.w3.org/2000/svg"
	xmlns="http://www.w3.org/2000/svg"
	xmlns:sodipodi="http://sodipodi.sourceforge.net/DTD/sodipodi-0.dtd"
	xmlns:inkscape="http://www.inkscape.org/namespaces/inkscape"
	width="1000"
	height="1000"
	id="svg2"
	version="1.1"
	sodipodi:docname="manifold/nncrust-fish310.png.txt">
<defs
	id="defs4" />
<metadata
	id="metadata7">
	<rdf:RDF>
		<cc:Work
			rdf:about="">
			<dc:format>image/svg+xml</dc:format>
			<dc:type
				rdf:resource="http://purl.org/dc/dcmitype/StillImage" />
			<dc:title></dc:title>
		</cc:Work>
	</rdf:RDF>
</metadata>
<g
	inkscape:label="Layer 1"
	inkscape:groupmode="layer"
	id="layer1">
	<path style="fill:none;stroke:red;stroke-width:1px;stroke-linecap:butt;stroke-linejoin:miter;stroke-opacity:1" d="M 72.4138,234.897 115.172,217.793 z" id="boundary" inkscape:connector-curvature="0" />
	<path style="fill:none;stroke:red;stroke-width:1px;stroke-linecap:butt;stroke-linejoin:miter;stroke-opacity:1" d="M 38.2069,277.655 72.4138,234.897 z" id="boundary" inkscape:connector-curvature="0" />
	<path style="fill:none;stroke:red;stroke-width:1px;stroke-linecap:butt;stroke-linejoin:miter;stroke-opacity:1" d="M 115.172,217.793 157.931,200.69 z" id="boundary" inkscape:connector-curvature="0" />
	<path style="fill:none;stroke:red;stroke-width:1px;stroke-linecap:butt;stroke-linejoin:miter;stroke-opacity:1" d="M 200.69,183.586 157.931,200.69 z" id="boundary" inkscape:connector-curvature="0" />
	<path style="fill:none;stroke:red;stroke-width:1px;stroke-linecap:butt;stroke-linejoin:miter;stroke-opacity:1" d="M 4,354.621 4,311.862 z" id="boundary" inkscape:connector-curvature="0" />
	<path style="fill:none;stroke:red;stroke-width:1px;stroke-linecap:butt;stroke-linejoin:miter;stroke-opacity:1" d="M 4,311.862 38.2069,277.655 z" id="boundary" inkscape:connector-curvature="0" />
	<path style="fill:none;stroke:red;stroke-width:1px;stroke-linecap:butt;stroke-linejoin:miter;stroke-opacity:1" d="M 46.7586,431.586 25.3793,393.103 z" id="boundary" inkscape:connector-curvature="0" />
	<path style="fill:none;stroke:red;stroke-width:1px;stroke-linecap:butt;stroke-linejoin:miter;stroke-opacity:1" d="M 25.3793,393.103 4,354.621 z" id="boundary" inkscape:connector-curvature="0" />
	<path style="fill:none;stroke:red;stroke-width:1px;stroke-linecap:butt;stroke-linejoin:miter;stroke-opacity:1" d="M 337.517,38.2069 363.172,4 z" id="boundary" inkscape:connector-curvature="0" />
	<path style="fill:none;stroke:red;stroke-width:1px;stroke-linecap:butt;stroke-linejoin:miter;stroke-opacity:1" d="M 363.172,4 405.931,12.5517 z" id="boundary" inkscape:connector-curvature="0" />
	<path style="fill:none;stroke:red;stroke-width:1px;stroke-linecap:butt;stroke-linejoin:miter;stroke-opacity:1" d="M 337.517,38.2069 303.31,80.9655 z" id="boundary" inkscape:connector-curvature="0" />
	<path style="fill:none;stroke:red;stroke-width:1px;stroke-linecap:butt;stroke-linejoin:miter;stroke-opacity:1" d="M 405.931,12.5517 440.138,38.2069 z" id="boundary" inkscape:connector-curvature="0" />
	<path style="fill:none;stroke:red;stroke-width:1px;stroke-linecap:butt;stroke-linejoin:miter;stroke-opacity:1" d="M 478.621,59.5862 440.138,38.2069 z" id="boundary" inkscape:connector-curvature="0" />
	<path style="fill:none;stroke:red;stroke-width:1px;stroke-linecap:butt;stroke-linejoin:miter;stroke-opacity:1" d="M 243.448,166.483 286.207,149.379 z" id="boundary" inkscape:connector-curvature="0" />
	<path style="fill:none;stroke:red;stroke-width:1px;stroke-linecap:butt;stroke-linejoin:miter;stroke-opacity:1" d="M 303.31,80.9655 286.207,149.379 z" id="boundary" inkscape:connector-curvature="0" />
	<path style="fill:none;stroke:red;stroke-width:1px;stroke-linecap:butt;stroke-linejoin:miter;stroke-opacity:1" d="M 478.621,59.5862 517.103,80.9655 z" id="boundary" inkscape:connector-curvature="0" />
	<path style="fill:none;stroke:red;stroke-width:1px;stroke-linecap:butt;stroke-linejoin:miter;stroke-opacity:1" d="M 243.448,166.483 200.69,183.586 z" id="boundary" inkscape:connector-curvature="0" />
	<path style="fill:none;stroke:red;stroke-width:1px;stroke-linecap:butt;stroke-linejoin:miter;stroke-opacity:1" d="M 76.6897,465.793 46.7586,431.586 z" id="boundary" inkscape:connector-curvature="0" />
	<path style="fill:none;stroke:red;stroke-width:1px;stroke-linecap:butt;stroke-linejoin:miter;stroke-opacity:1" d="M 115.172,487.172 76.6897,465.793 z" id="boundary" inkscape:connector-curvature="0" />
	<path style="fill:none;stroke:red;stroke-width:1px;stroke-linecap:butt;stroke-linejoin:miter;stroke-opacity:1" d="M 115.172,487.172 157.931,504.276 z" id="boundary" inkscape:connector-curvature="0" />
	<path style="fill:none;stroke:red;stroke-width:1px;stroke-linecap:butt;stroke-linejoin:miter;stroke-opacity:1" d="M 239.172,538.483 196.414,525.655 z" id="boundary" inkscape:connector-curvature="0" />
	<path style="fill:none;stroke:red;stroke-width:1px;stroke-linecap:butt;stroke-linejoin:miter;stroke-opacity:1" d="M 239.172,538.483 260.552,576.966 z" id="boundary" inkscape:connector-curvature="0" />
	<path style="fill:none;stroke:red;stroke-width:1px;stroke-linecap:butt;stroke-linejoin:miter;stroke-opacity:1" d="M 196.414,525.655 157.931,504.276 z" id="boundary" inkscape:connector-curvature="0" />
	<path style="fill:none;stroke:red;stroke-width:1px;stroke-linecap:butt;stroke-linejoin:miter;stroke-opacity:1" d="M 260.552,576.966 260.552,619.724 z" id="boundary" inkscape:connector-curvature="0" />
	<path style="fill:none;stroke:red;stroke-width:1px;stroke-linecap:butt;stroke-linejoin:miter;stroke-opacity:1" d="M 260.552,619.724 273.379,662.483 z" id="boundary" inkscape:connector-curvature="0" />
	<path style="fill:none;stroke:red;stroke-width:1px;stroke-linecap:butt;stroke-linejoin:miter;stroke-opacity:1" d="M 367.448,645.379 410.207,632.552 z" id="boundary" inkscape:connector-curvature="0" />
	<path style="fill:none;stroke:red;stroke-width:1px;stroke-linecap:butt;stroke-linejoin:miter;stroke-opacity:1" d="M 410.207,632.552 440.138,666.759 z" id="boundary" inkscape:connector-curvature="0" />
	<path style="fill:none;stroke:red;stroke-width:1px;stroke-linecap:butt;stroke-linejoin:miter;stroke-opacity:1" d="M 491.448,538.483 512.828,576.966 z" id="boundary" inkscape:connector-curvature="0" />
	<path style="fill:none;stroke:red;stroke-width:1px;stroke-linecap:butt;stroke-linejoin:miter;stroke-opacity:1" d="M 410.207,632.552 491.448,538.483 z" id="boundary" inkscape:connector-curvature="0" />
	<path style="fill:none;stroke:red;stroke-width:1px;stroke-linecap:butt;stroke-linejoin:miter;stroke-opacity:1" d="M 491.448,538.483 534.207,529.931 z" id="boundary" inkscape:connector-curvature="0" />
	<path style="fill:none;stroke:red;stroke-width:1px;stroke-linecap:butt;stroke-linejoin:miter;stroke-opacity:1" d="M 273.379,662.483 299.034,696.69 z" id="boundary" inkscape:connector-curvature="0" />
	<path style="fill:none;stroke:red;stroke-width:1px;stroke-linecap:butt;stroke-linejoin:miter;stroke-opacity:1" d="M 341.793,679.586 299.034,696.69 z" id="boundary" inkscape:connector-curvature="0" />
	<path style="fill:none;stroke:red;stroke-width:1px;stroke-linecap:butt;stroke-linejoin:miter;stroke-opacity:1" d="M 440.138,666.759 474.345,692.414 z" id="boundary" inkscape:connector-curvature="0" />
	<path style="fill:none;stroke:red;stroke-width:1px;stroke-linecap:butt;stroke-linejoin:miter;stroke-opacity:1" d="M 367.448,645.379 341.793,679.586 z" id="boundary" inkscape:connector-curvature="0" />
	<path style="fill:none;stroke:red;stroke-width:1px;stroke-linecap:butt;stroke-linejoin:miter;stroke-opacity:1" d="M 474.345,692.414 517.103,692.414 z" id="boundary" inkscape:connector-curvature="0" />
	<path style="fill:none;stroke:red;stroke-width:1px;stroke-linecap:butt;stroke-linejoin:miter;stroke-opacity:1" d="M 512.828,576.966 521.379,619.724 z" id="boundary" inkscape:connector-curvature="0" />
	<path style="fill:none;stroke:red;stroke-width:1px;stroke-linecap:butt;stroke-linejoin:miter;stroke-opacity:1" d="M 619.724,140.828 576.966,140.828 z" id="boundary" inkscape:connector-curvature="0" />
	<path style="fill:none;stroke:red;stroke-width:1px;stroke-linecap:butt;stroke-linejoin:miter;stroke-opacity:1" d="M 576.966,140.828 551.31,106.621 z" id="boundary" inkscape:connector-curvature="0" />
	<path style="fill:none;stroke:red;stroke-width:1px;stroke-linecap:butt;stroke-linejoin:miter;stroke-opacity:1" d="M 653.931,115.172 619.724,140.828 z" id="boundary" inkscape:connector-curvature="0" />
	<path style="fill:none;stroke:red;stroke-width:1px;stroke-linecap:butt;stroke-linejoin:miter;stroke-opacity:1" d="M 696.69,123.724 653.931,115.172 z" id="boundary" inkscape:connector-curvature="0" />
	<path style="fill:none;stroke:red;stroke-width:1px;stroke-linecap:butt;stroke-linejoin:miter;stroke-opacity:1" d="M 551.31,106.621 517.103,80.9655 z" id="boundary" inkscape:connector-curvature="0" />
	<path style="fill:none;stroke:red;stroke-width:1px;stroke-linecap:butt;stroke-linejoin:miter;stroke-opacity:1" d="M 730.897,153.655 756.552,187.862 z" id="boundary" inkscape:connector-curvature="0" />
	<path style="fill:none;stroke:red;stroke-width:1px;stroke-linecap:butt;stroke-linejoin:miter;stroke-opacity:1" d="M 696.69,123.724 730.897,153.655 z" id="boundary" inkscape:connector-curvature="0" />
	<path style="fill:none;stroke:red;stroke-width:1px;stroke-linecap:butt;stroke-linejoin:miter;stroke-opacity:1" d="M 756.552,187.862 777.931,226.345 z" id="boundary" inkscape:connector-curvature="0" />
	<path style="fill:none;stroke:red;stroke-width:1px;stroke-linecap:butt;stroke-linejoin:miter;stroke-opacity:1" d="M 777.931,226.345 795.034,269.103 z" id="boundary" inkscape:connector-curvature="0" />
	<path style="fill:none;stroke:red;stroke-width:1px;stroke-linecap:butt;stroke-linejoin:miter;stroke-opacity:1" d="M 876.276,234.897 910.483,209.241 z" id="boundary" inkscape:connector-curvature="0" />
	<path style="fill:none;stroke:red;stroke-width:1px;stroke-linecap:butt;stroke-linejoin:miter;stroke-opacity:1" d="M 876.276,234.897 837.793,260.552 z" id="boundary" inkscape:connector-curvature="0" />
	<path style="fill:none;stroke:red;stroke-width:1px;stroke-linecap:butt;stroke-linejoin:miter;stroke-opacity:1" d="M 910.483,209.241 953.241,192.138 z" id="boundary" inkscape:connector-curvature="0" />
	<path style="fill:none;stroke:red;stroke-width:1px;stroke-linecap:butt;stroke-linejoin:miter;stroke-opacity:1" d="M 996,183.586 953.241,192.138 z" id="boundary" inkscape:connector-curvature="0" />
	<path style="fill:none;stroke:red;stroke-width:1px;stroke-linecap:butt;stroke-linejoin:miter;stroke-opacity:1" d="M 996,183.586 991.724,260.552 z" id="boundary" inkscape:connector-curvature="0" />
	<path style="fill:none;stroke:red;stroke-width:1px;stroke-linecap:butt;stroke-linejoin:miter;stroke-opacity:1" d="M 795.034,423.034 795.034,269.103 z" id="boundary" inkscape:connector-curvature="0" />
	<path style="fill:none;stroke:red;stroke-width:1px;stroke-linecap:butt;stroke-linejoin:miter;stroke-opacity:1" d="M 795.034,269.103 837.793,260.552 z" id="boundary" inkscape:connector-curvature="0" />
	<path style="fill:none;stroke:red;stroke-width:1px;stroke-linecap:butt;stroke-linejoin:miter;stroke-opacity:1" d="M 983.172,320.414 991.724,260.552 z" id="boundary" inkscape:connector-curvature="0" />
	<path style="fill:none;stroke:red;stroke-width:1px;stroke-linecap:butt;stroke-linejoin:miter;stroke-opacity:1" d="M 983.172,363.172 983.172,320.414 z" id="boundary" inkscape:connector-curvature="0" />
	<path style="fill:none;stroke:red;stroke-width:1px;stroke-linecap:butt;stroke-linejoin:miter;stroke-opacity:1" d="M 987.448,405.931 983.172,363.172 z" id="boundary" inkscape:connector-curvature="0" />
	<path style="fill:none;stroke:red;stroke-width:1px;stroke-linecap:butt;stroke-linejoin:miter;stroke-opacity:1" d="M 576.966,529.931 534.207,529.931 z" id="boundary" inkscape:connector-curvature="0" />
	<path style="fill:none;stroke:red;stroke-width:1px;stroke-linecap:butt;stroke-linejoin:miter;stroke-opacity:1" d="M 576.966,529.931 619.724,521.379 z" id="boundary" inkscape:connector-curvature="0" />
	<path style="fill:none;stroke:red;stroke-width:1px;stroke-linecap:butt;stroke-linejoin:miter;stroke-opacity:1" d="M 619.724,521.379 658.207,542.759 z" id="boundary" inkscape:connector-curvature="0" />
	<path style="fill:none;stroke:red;stroke-width:1px;stroke-linecap:butt;stroke-linejoin:miter;stroke-opacity:1" d="M 795.034,465.793 777.931,508.552 z" id="boundary" inkscape:connector-curvature="0" />
	<path style="fill:none;stroke:red;stroke-width:1px;stroke-linecap:butt;stroke-linejoin:miter;stroke-opacity:1" d="M 517.103,692.414 521.379,619.724 z" id="boundary" inkscape:connector-curvature="0" />
	<path style="fill:none;stroke:red;stroke-width:1px;stroke-linecap:butt;stroke-linejoin:miter;stroke-opacity:1" d="M 700.966,555.586 658.207,542.759 z" id="boundary" inkscape:connector-curvature="0" />
	<path style="fill:none;stroke:red;stroke-width:1px;stroke-linecap:butt;stroke-linejoin:miter;stroke-opacity:1" d="M 777.931,508.552 743.724,555.586 z" id="boundary" inkscape:connector-curvature="0" />
	<path style="fill:none;stroke:red;stroke-width:1px;stroke-linecap:butt;stroke-linejoin:miter;stroke-opacity:1" d="M 743.724,555.586 700.966,555.586 z" id="boundary" inkscape:connector-curvature="0" />
	<path style="fill:none;stroke:red;stroke-width:1px;stroke-linecap:butt;stroke-linejoin:miter;stroke-opacity:1" d="M 795.034,423.034 837.793,435.862 z" id="boundary" inkscape:connector-curvature="0" />
	<path style="fill:none;stroke:red;stroke-width:1px;stroke-linecap:butt;stroke-linejoin:miter;stroke-opacity:1" d="M 795.034,465.793 795.034,423.034 z" id="boundary" inkscape:connector-curvature="0" />
	<path style="fill:none;stroke:red;stroke-width:1px;stroke-linecap:butt;stroke-linejoin:miter;stroke-opacity:1" d="M 872,461.517 837.793,435.862 z" id="boundary" inkscape:connector-curvature="0" />
	<path style="fill:none;stroke:red;stroke-width:1px;stroke-linecap:butt;stroke-linejoin:miter;stroke-opacity:1" d="M 996,448.69 987.448,405.931 z" id="boundary" inkscape:connector-curvature="0" />
	<path style="fill:none;stroke:red;stroke-width:1px;stroke-linecap:butt;stroke-linejoin:miter;stroke-opacity:1" d="M 872,461.517 906.207,487.172 z" id="boundary" inkscape:connector-curvature="0" />
	<path style="fill:none;stroke:red;stroke-width:1px;stroke-linecap:butt;stroke-linejoin:miter;stroke-opacity:1" d="M 944.69,508.552 906.207,487.172 z" id="boundary" inkscape:connector-curvature="0" />
	<path style="fill:none;stroke:red;stroke-width:1px;stroke-linecap:butt;stroke-linejoin:miter;stroke-opacity:1" d="M 944.69,508.552 987.448,512.828 z" id="boundary" inkscape:connector-curvature="0" />
	<path style="fill:none;stroke:red;stroke-width:1px;stroke-linecap:butt;stroke-linejoin:miter;stroke-opacity:1" d="M 996,448.69 987.448,512.828 z" id="boundary" inkscape:connector-curvature="0" />
	<circle cx="4" cy="311.862" r="4" fill="#0" id="circle0"/>
	<circle cx="4" cy="354.621" r="4" fill="#0" id="circle1"/>
	<circle cx="25.3793" cy="393.103" r="4" fill="#0" id="circle2"/>
	<circle cx="38.2069" cy="277.655" r="4" fill="#0" id="circle3"/>
	<circle cx="46.7586" cy="431.586" r="4" fill="#0" id="circle4"/>
	<circle cx="72.4138" cy="234.897" r="4" fill="#0" id="circle5"/>
	<circle cx="76.6897" cy="465.793" r="4" fill="#0" id="circle6"/>
	<circle cx="115.172" cy="217.793" r="4" fill="#0" id="circle7"/>
	<circle cx="115.172" cy="487.172" r="4" fill="#0" id="circle8"/>
	<circle cx="157.931" cy="200.69" r="4" fill="#0" id="circle9"/>
	<circle cx="157.931" cy="504.276" r="4" fill="#0" id="circle10"/>
	<circle cx="196.414" cy="525.655" r="4" fill="#0" id="circle11"/>
	<circle cx="200.69" cy="183.586" r="4" fill="#0" id="circle12"/>
	<circle cx="239.172" cy="538.483" r="4" fill="#0" id="circle13"/>
	<circle cx="243.448" cy="166.483" r="4" fill="#0" id="circle14"/>
	<circle cx="260.552" cy="576.966" r="4" fill="#0" id="circle15"/>
	<circle cx="260.552" cy="619.724" r="4" fill="#0" id="circle16"/>
	<circle cx="273.379" cy="662.483" r="4" fill="#0" id="circle17"/>
	<circle cx="286.207" cy="149.379" r="4" fill="#0" id="circle18"/>
	<circle cx="299.034" cy="696.69" r="4" fill="#0" id="circle19"/>
	<circle cx="303.31" cy="80.9655" r="4" fill="#0" id="circle20"/>
	<circle cx="337.517" cy="38.2069" r="4" fill="#0" id="circle21"/>
	<circle cx="341.793" cy="679.586" r="4" fill="#0" id="circle22"/>
	<circle cx="363.172" cy="4" r="4" fill="#0" id="circle23"/>
	<circle cx="367.448" cy="645.379" r="4" fill="#0" id="circle24"/>
	<circle cx="405.931" cy="12.5517" r="4" fill="#0" id="circle25"/>
	<circle cx="410.207" cy="632.552" r="4" fill="#0" id="circle26"/>
	<circle cx="440.138" cy="38.2069" r="4" fill="#0" id="circle27"/>
	<circle cx="440.138" cy="666.759" r="4" fill="#0" id="circle28"/>
	<circle cx="474.345" cy="692.414" r="4" fill="#0" id="circle29"/>
	<circle cx="478.621" cy="59.5862" r="4" fill="#0" id="circle30"/>
	<circle cx="491.448" cy="538.483" r="4" fill="#0" id="circle31"/>
	<circle cx="512.828" cy="576.966" r="4" fill="#0" id="circle32"/>
	<circle cx="517.103" cy="80.9655" r="4" fill="#0" id="circle33"/>
	<circle cx="517.103" cy="692.414" r="4" fill="#0" id="circle34"/>
	<circle cx="521.379" cy="619.724" r="4" fill="#0" id="circle35"/>
	<circle cx="534.207" cy="529.931" r="4" fill="#0" id="circle36"/>
	<circle cx="551.31" cy="106.621" r="4" fill="#0" id="circle37"/>
	<circle cx="576.966" cy="140.828" r="4" fill="#0" id="circle38"/>
	<circle cx="576.966" cy="529.931" r="4" fill="#0" id="circle39"/>
	<circle cx="619.724" cy="140.828" r="4" fill="#0" id="circle40"/>
	<circle cx="619.724" cy="521.379" r="4" fill="#0" id="circle41"/>
	<circle cx="653.931" cy="115.172" r="4" fill="#0" id="circle42"/>
	<circle cx="658.207" cy="542.759" r="4" fill="#0" id="circle43"/>
	<circle cx="696.69" cy="123.724" r="4" fill="#0" id="circle44"/>
	<circle cx="700.966" cy="555.586" r="4" fill="#0" id="circle45"/>
	<circle cx="730.897" cy="153.655" r="4" fill="#0" id="circle46"/>
	<circle cx="743.724" cy="555.586" r="4" fill="#0" id="circle47"/>
	<circle cx="756.552" cy="187.862" r="4" fill="#0" id="circle48"/>
	<circle cx="777.931" cy="226.345" r="4" fill="#0" id="circle49"/>
	<circle cx="777.931" cy="508.552" r="4" fill="#0" id="circle50"/>
	<circle cx="795.034" cy="269.103" r="4" fill="#0" id="circle51"/>
	<circle cx="795.034" cy="423.034" r="4" fill="#0" id="circle52"/>
	<circle cx="795.034" cy="465.793" r="4" fill="#0" id="circle53"/>
	<circle cx="837.793" cy="260.552" r="4" fill="#0" id="circle54"/>
	<circle cx="837.793" cy="435.862" r="4" fill="#0" id="circle55"/>
	<circle cx="872" cy="461.517" r="4" fill="#0" id="circle56"/>
	<circle cx="876.276" cy="234.897" r="4" fill="#0" id="circle57"/>
	<circle cx="906.207" cy="487.172" r="4" fill="#0" id="circle58"/>
	<circle cx="910.483" cy="209.241" r="4" fill="#0" id="circle59"/>
	<circle cx="944.69" cy="508.552" r="4" fill="#0" id="circle60"/>
	<circle cx="953.241" cy="192.138" r="4" fill="#0" id="circle61"/>
	<circle cx="983.172" cy="320.414" r="4" fill="#0" id="circle62"/>
	<circle cx="983.172" cy="363.172" r="4" fill="#0" id="circle63"/>
	<circle cx="987.448" cy="405.931" r="4" fill="#0" id="circle64"/>
	<circle cx="987.448" cy="512.828" r="4" fill="#0" id="circle65"/>
	<circle cx="991.724" cy="260.552" r="4" fill="#0" id="circle66"/>
	<circle cx="996" cy="183.586" r="4" fill="#0" id="circle67"/>
	<circle cx="996" cy="448.69" r="4" fill="#0" id="circle68"/>
	</g>
</svg>