<?xml version="1.0" encoding="UTF-8" standalone="no"?>
<!-- Created with CurveBenchmark -->
<svg
	xmlns:dc="http://purl.org/dc/elements/1.1/"
	xmlns:cc="http://creativecommons.org/ns#"
	xmlns:rdf="http://www.w3.org/1999/02/22-rdf-syntax-ns#"
	xmlns:svg="http://www.w3.org/2000/svg"
	xmlns="http://www.w3.org/2000/svg"
	xmlns:sodipodi="http://sodipodi.sourceforge.net/DTD/sodipodi-0.dtd"
	xmlns:inkscape="http://www.inkscape.org/namespaces/inkscape"
	width="1000"
	height="1000"
	id="svg2"
	version="1.1"
	sodipodi:docname="manifold/nncrust-hammer225.png.txt">
<defs
	id="defs4" />
<metadata
	id="metadata7">
	<rdf:RDF>
		<cc:Work
			rdf:about="">
			<dc:format>image/svg+xml</dc:format>
			<dc:type
				rdf:resource="http://purl.org/dc/dcmitype/StillImage" />
			<dc:title></dc:title>
		</cc:Work>
	</rdf:RDF>
</metadata>
<g
	inkscape:label="Layer 1"
	inkscape:groupmode="layer"
	id="layer1">
	<path style="fill:none;stroke:red;stroke-width:1px;stroke-linecap:butt;stroke-linejoin:miter;stroke-opacity:1" d="M 4,38.5043 9.75072,67.258 z" id="boundary" inkscape:connector-curvature="0" />
	<path style="fill:none;stroke:red;stroke-width:1px;stroke-linecap:butt;stroke-linejoin:miter;stroke-opacity:1" d="M 75.8841,9.75072 47.1304,4 z" id="boundary" inkscape:connector-curvature="0" />
	<path style="fill:none;stroke:red;stroke-width:1px;stroke-linecap:butt;stroke-linejoin:miter;stroke-opacity:1" d="M 104.638,4 75.8841,9.75072 z" id="boundary" inkscape:connector-curvature="0" />
	<path style="fill:none;stroke:red;stroke-width:1px;stroke-linecap:butt;stroke-linejoin:miter;stroke-opacity:1" d="M 4,38.5043 18.3768,12.6261 z" id="boundary" inkscape:connector-curvature="0" />
	<path style="fill:none;stroke:red;stroke-width:1px;stroke-linecap:butt;stroke-linejoin:miter;stroke-opacity:1" d="M 18.3768,12.6261 47.1304,4 z" id="boundary" inkscape:connector-curvature="0" />
	<path style="fill:none;stroke:red;stroke-width:1px;stroke-linecap:butt;stroke-linejoin:miter;stroke-opacity:1" d="M 75.8841,9.75072 84.5101,78.7594 z" id="boundary" inkscape:connector-curvature="0" />
	<path style="fill:none;stroke:red;stroke-width:1px;stroke-linecap:butt;stroke-linejoin:miter;stroke-opacity:1" d="M 29.8783,90.2609 58.6319,93.1362 z" id="boundary" inkscape:connector-curvature="0" />
	<path style="fill:none;stroke:red;stroke-width:1px;stroke-linecap:butt;stroke-linejoin:miter;stroke-opacity:1" d="M 29.8783,90.2609 9.75072,67.258 z" id="boundary" inkscape:connector-curvature="0" />
	<path style="fill:none;stroke:red;stroke-width:1px;stroke-linecap:butt;stroke-linejoin:miter;stroke-opacity:1" d="M 96.0116,107.513 96.0116,136.267 z" id="boundary" inkscape:connector-curvature="0" />
	<path style="fill:none;stroke:red;stroke-width:1px;stroke-linecap:butt;stroke-linejoin:miter;stroke-opacity:1" d="M 96.0116,107.513 84.5101,78.7594 z" id="boundary" inkscape:connector-curvature="0" />
	<path style="fill:none;stroke:red;stroke-width:1px;stroke-linecap:butt;stroke-linejoin:miter;stroke-opacity:1" d="M 107.513,165.02 96.0116,136.267 z" id="boundary" inkscape:connector-curvature="0" />
	<path style="fill:none;stroke:red;stroke-width:1px;stroke-linecap:butt;stroke-linejoin:miter;stroke-opacity:1" d="M 58.6319,93.1362 84.5101,78.7594 z" id="boundary" inkscape:connector-curvature="0" />
	<path style="fill:none;stroke:red;stroke-width:1px;stroke-linecap:butt;stroke-linejoin:miter;stroke-opacity:1" d="M 104.638,4 133.391,4 z" id="boundary" inkscape:connector-curvature="0" />
	<path style="fill:none;stroke:red;stroke-width:1px;stroke-linecap:butt;stroke-linejoin:miter;stroke-opacity:1" d="M 133.391,4 162.145,4 z" id="boundary" inkscape:connector-curvature="0" />
	<path style="fill:none;stroke:red;stroke-width:1px;stroke-linecap:butt;stroke-linejoin:miter;stroke-opacity:1" d="M 116.139,193.774 107.513,165.02 z" id="boundary" inkscape:connector-curvature="0" />
	<path style="fill:none;stroke:red;stroke-width:1px;stroke-linecap:butt;stroke-linejoin:miter;stroke-opacity:1" d="M 124.765,222.528 116.139,193.774 z" id="boundary" inkscape:connector-curvature="0" />
	<path style="fill:none;stroke:red;stroke-width:1px;stroke-linecap:butt;stroke-linejoin:miter;stroke-opacity:1" d="M 124.765,222.528 124.765,251.281 z" id="boundary" inkscape:connector-curvature="0" />
	<path style="fill:none;stroke:red;stroke-width:1px;stroke-linecap:butt;stroke-linejoin:miter;stroke-opacity:1" d="M 124.765,280.035 124.765,251.281 z" id="boundary" inkscape:connector-curvature="0" />
	<path style="fill:none;stroke:red;stroke-width:1px;stroke-linecap:butt;stroke-linejoin:miter;stroke-opacity:1" d="M 124.765,308.788 124.765,337.542 z" id="boundary" inkscape:connector-curvature="0" />
	<path style="fill:none;stroke:red;stroke-width:1px;stroke-linecap:butt;stroke-linejoin:miter;stroke-opacity:1" d="M 124.765,366.296 124.765,337.542 z" id="boundary" inkscape:connector-curvature="0" />
	<path style="fill:none;stroke:red;stroke-width:1px;stroke-linecap:butt;stroke-linejoin:miter;stroke-opacity:1" d="M 124.765,308.788 124.765,280.035 z" id="boundary" inkscape:connector-curvature="0" />
	<path style="fill:none;stroke:red;stroke-width:1px;stroke-linecap:butt;stroke-linejoin:miter;stroke-opacity:1" d="M 124.765,395.049 124.765,366.296 z" id="boundary" inkscape:connector-curvature="0" />
	<path style="fill:none;stroke:red;stroke-width:1px;stroke-linecap:butt;stroke-linejoin:miter;stroke-opacity:1" d="M 101.762,504.313 101.762,533.067 z" id="boundary" inkscape:connector-curvature="0" />
	<path style="fill:none;stroke:red;stroke-width:1px;stroke-linecap:butt;stroke-linejoin:miter;stroke-opacity:1" d="M 101.762,504.313 101.762,475.559 z" id="boundary" inkscape:connector-curvature="0" />
	<path style="fill:none;stroke:red;stroke-width:1px;stroke-linecap:butt;stroke-linejoin:miter;stroke-opacity:1" d="M 101.762,475.559 116.139,449.681 z" id="boundary" inkscape:connector-curvature="0" />
	<path style="fill:none;stroke:red;stroke-width:1px;stroke-linecap:butt;stroke-linejoin:miter;stroke-opacity:1" d="M 101.762,561.82 101.762,590.574 z" id="boundary" inkscape:connector-curvature="0" />
	<path style="fill:none;stroke:red;stroke-width:1px;stroke-linecap:butt;stroke-linejoin:miter;stroke-opacity:1" d="M 101.762,561.82 101.762,533.067 z" id="boundary" inkscape:connector-curvature="0" />
	<path style="fill:none;stroke:red;stroke-width:1px;stroke-linecap:butt;stroke-linejoin:miter;stroke-opacity:1" d="M 101.762,590.574 101.762,619.328 z" id="boundary" inkscape:connector-curvature="0" />
	<path style="fill:none;stroke:red;stroke-width:1px;stroke-linecap:butt;stroke-linejoin:miter;stroke-opacity:1" d="M 96.0116,889.612 96.0116,918.365 z" id="boundary" inkscape:connector-curvature="0" />
	<path style="fill:none;stroke:red;stroke-width:1px;stroke-linecap:butt;stroke-linejoin:miter;stroke-opacity:1" d="M 173.646,996 144.893,996 z" id="boundary" inkscape:connector-curvature="0" />
	<path style="fill:none;stroke:red;stroke-width:1px;stroke-linecap:butt;stroke-linejoin:miter;stroke-opacity:1" d="M 96.0116,918.365 96.0116,947.119 z" id="boundary" inkscape:connector-curvature="0" />
	<path style="fill:none;stroke:red;stroke-width:1px;stroke-linecap:butt;stroke-linejoin:miter;stroke-opacity:1" d="M 96.0116,947.119 90.2609,981.623 z" id="boundary" inkscape:connector-curvature="0" />
	<path style="fill:none;stroke:red;stroke-width:1px;stroke-linecap:butt;stroke-linejoin:miter;stroke-opacity:1" d="M 101.762,648.081 101.762,676.835 z" id="boundary" inkscape:connector-curvature="0" />
	<path style="fill:none;stroke:red;stroke-width:1px;stroke-linecap:butt;stroke-linejoin:miter;stroke-opacity:1" d="M 101.762,648.081 101.762,619.328 z" id="boundary" inkscape:connector-curvature="0" />
	<path style="fill:none;stroke:red;stroke-width:1px;stroke-linecap:butt;stroke-linejoin:miter;stroke-opacity:1" d="M 101.762,676.835 101.762,705.588 z" id="boundary" inkscape:connector-curvature="0" />
	<path style="fill:none;stroke:red;stroke-width:1px;stroke-linecap:butt;stroke-linejoin:miter;stroke-opacity:1" d="M 116.139,996 90.2609,981.623 z" id="boundary" inkscape:connector-curvature="0" />
	<path style="fill:none;stroke:red;stroke-width:1px;stroke-linecap:butt;stroke-linejoin:miter;stroke-opacity:1" d="M 101.762,705.588 101.762,734.342 z" id="boundary" inkscape:connector-curvature="0" />
	<path style="fill:none;stroke:red;stroke-width:1px;stroke-linecap:butt;stroke-linejoin:miter;stroke-opacity:1" d="M 101.762,763.096 101.762,734.342 z" id="boundary" inkscape:connector-curvature="0" />
	<path style="fill:none;stroke:red;stroke-width:1px;stroke-linecap:butt;stroke-linejoin:miter;stroke-opacity:1" d="M 124.765,395.049 116.139,449.681 z" id="boundary" inkscape:connector-curvature="0" />
	<path style="fill:none;stroke:red;stroke-width:1px;stroke-linecap:butt;stroke-linejoin:miter;stroke-opacity:1" d="M 101.762,763.096 101.762,791.849 z" id="boundary" inkscape:connector-curvature="0" />
	<path style="fill:none;stroke:red;stroke-width:1px;stroke-linecap:butt;stroke-linejoin:miter;stroke-opacity:1" d="M 101.762,820.603 101.762,791.849 z" id="boundary" inkscape:connector-curvature="0" />
	<path style="fill:none;stroke:red;stroke-width:1px;stroke-linecap:butt;stroke-linejoin:miter;stroke-opacity:1" d="M 101.762,849.357 101.762,820.603 z" id="boundary" inkscape:connector-curvature="0" />
	<path style="fill:none;stroke:red;stroke-width:1px;stroke-linecap:butt;stroke-linejoin:miter;stroke-opacity:1" d="M 144.893,996 116.139,996 z" id="boundary" inkscape:connector-curvature="0" />
	<path style="fill:none;stroke:red;stroke-width:1px;stroke-linecap:butt;stroke-linejoin:miter;stroke-opacity:1" d="M 96.0116,889.612 101.762,849.357 z" id="boundary" inkscape:connector-curvature="0" />
	<path style="fill:none;stroke:red;stroke-width:1px;stroke-linecap:butt;stroke-linejoin:miter;stroke-opacity:1" d="M 202.4,239.78 202.4,268.533 z" id="boundary" inkscape:connector-curvature="0" />
	<path style="fill:none;stroke:red;stroke-width:1px;stroke-linecap:butt;stroke-linejoin:miter;stroke-opacity:1" d="M 208.151,199.525 202.4,239.78 z" id="boundary" inkscape:connector-curvature="0" />
	<path style="fill:none;stroke:red;stroke-width:1px;stroke-linecap:butt;stroke-linejoin:miter;stroke-opacity:1" d="M 219.652,159.27 208.151,199.525 z" id="boundary" inkscape:connector-curvature="0" />
	<path style="fill:none;stroke:red;stroke-width:1px;stroke-linecap:butt;stroke-linejoin:miter;stroke-opacity:1" d="M 190.899,4 219.652,4 z" id="boundary" inkscape:connector-curvature="0" />
	<path style="fill:none;stroke:red;stroke-width:1px;stroke-linecap:butt;stroke-linejoin:miter;stroke-opacity:1" d="M 202.4,268.533 202.4,297.287 z" id="boundary" inkscape:connector-curvature="0" />
	<path style="fill:none;stroke:red;stroke-width:1px;stroke-linecap:butt;stroke-linejoin:miter;stroke-opacity:1" d="M 202.4,326.041 202.4,297.287 z" id="boundary" inkscape:connector-curvature="0" />
	<path style="fill:none;stroke:red;stroke-width:1px;stroke-linecap:butt;stroke-linejoin:miter;stroke-opacity:1" d="M 202.4,354.794 202.4,383.548 z" id="boundary" inkscape:connector-curvature="0" />
	<path style="fill:none;stroke:red;stroke-width:1px;stroke-linecap:butt;stroke-linejoin:miter;stroke-opacity:1" d="M 202.4,412.301 202.4,383.548 z" id="boundary" inkscape:connector-curvature="0" />
	<path style="fill:none;stroke:red;stroke-width:1px;stroke-linecap:butt;stroke-linejoin:miter;stroke-opacity:1" d="M 202.4,354.794 202.4,326.041 z" id="boundary" inkscape:connector-curvature="0" />
	<path style="fill:none;stroke:red;stroke-width:1px;stroke-linecap:butt;stroke-linejoin:miter;stroke-opacity:1" d="M 202.4,412.301 208.151,441.055 z" id="boundary" inkscape:connector-curvature="0" />
	<path style="fill:none;stroke:red;stroke-width:1px;stroke-linecap:butt;stroke-linejoin:miter;stroke-opacity:1" d="M 268.533,32.7536 248.406,9.75072 z" id="boundary" inkscape:connector-curvature="0" />
	<path style="fill:none;stroke:red;stroke-width:1px;stroke-linecap:butt;stroke-linejoin:miter;stroke-opacity:1" d="M 291.536,52.8812 268.533,32.7536 z" id="boundary" inkscape:connector-curvature="0" />
	<path style="fill:none;stroke:red;stroke-width:1px;stroke-linecap:butt;stroke-linejoin:miter;stroke-opacity:1" d="M 291.536,52.8812 231.154,119.014 z" id="boundary" inkscape:connector-curvature="0" />
	<path style="fill:none;stroke:red;stroke-width:1px;stroke-linecap:butt;stroke-linejoin:miter;stroke-opacity:1" d="M 291.536,52.8812 305.913,78.7594 z" id="boundary" inkscape:connector-curvature="0" />
	<path style="fill:none;stroke:red;stroke-width:1px;stroke-linecap:butt;stroke-linejoin:miter;stroke-opacity:1" d="M 305.913,78.7594 320.29,104.638 z" id="boundary" inkscape:connector-curvature="0" />
	<path style="fill:none;stroke:red;stroke-width:1px;stroke-linecap:butt;stroke-linejoin:miter;stroke-opacity:1" d="M 251.281,142.017 262.783,170.771 z" id="boundary" inkscape:connector-curvature="0" />
	<path style="fill:none;stroke:red;stroke-width:1px;stroke-linecap:butt;stroke-linejoin:miter;stroke-opacity:1" d="M 219.652,159.27 251.281,142.017 z" id="boundary" inkscape:connector-curvature="0" />
	<path style="fill:none;stroke:red;stroke-width:1px;stroke-linecap:butt;stroke-linejoin:miter;stroke-opacity:1" d="M 251.281,142.017 231.154,119.014 z" id="boundary" inkscape:connector-curvature="0" />
	<path style="fill:none;stroke:red;stroke-width:1px;stroke-linecap:butt;stroke-linejoin:miter;stroke-opacity:1" d="M 291.536,179.397 262.783,170.771 z" id="boundary" inkscape:connector-curvature="0" />
	<path style="fill:none;stroke:red;stroke-width:1px;stroke-linecap:butt;stroke-linejoin:miter;stroke-opacity:1" d="M 328.916,133.391 320.29,179.397 z" id="boundary" inkscape:connector-curvature="0" />
	<path style="fill:none;stroke:red;stroke-width:1px;stroke-linecap:butt;stroke-linejoin:miter;stroke-opacity:1" d="M 320.29,179.397 291.536,179.397 z" id="boundary" inkscape:connector-curvature="0" />
	<path style="fill:none;stroke:red;stroke-width:1px;stroke-linecap:butt;stroke-linejoin:miter;stroke-opacity:1" d="M 231.154,996 320.29,179.397 z" id="boundary" inkscape:connector-curvature="0" />
	<path style="fill:none;stroke:red;stroke-width:1px;stroke-linecap:butt;stroke-linejoin:miter;stroke-opacity:1" d="M 320.29,104.638 328.916,133.391 z" id="boundary" inkscape:connector-curvature="0" />
	<path style="fill:none;stroke:red;stroke-width:1px;stroke-linecap:butt;stroke-linejoin:miter;stroke-opacity:1" d="M 219.652,4 248.406,9.75072 z" id="boundary" inkscape:connector-curvature="0" />
	<path style="fill:none;stroke:red;stroke-width:1px;stroke-linecap:butt;stroke-linejoin:miter;stroke-opacity:1" d="M 222.528,466.933 225.403,495.687 z" id="boundary" inkscape:connector-curvature="0" />
	<path style="fill:none;stroke:red;stroke-width:1px;stroke-linecap:butt;stroke-linejoin:miter;stroke-opacity:1" d="M 222.528,466.933 208.151,441.055 z" id="boundary" inkscape:connector-curvature="0" />
	<path style="fill:none;stroke:red;stroke-width:1px;stroke-linecap:butt;stroke-linejoin:miter;stroke-opacity:1" d="M 231.154,524.441 231.154,553.194 z" id="boundary" inkscape:connector-curvature="0" />
	<path style="fill:none;stroke:red;stroke-width:1px;stroke-linecap:butt;stroke-linejoin:miter;stroke-opacity:1" d="M 231.154,524.441 225.403,495.687 z" id="boundary" inkscape:connector-curvature="0" />
	<path style="fill:none;stroke:red;stroke-width:1px;stroke-linecap:butt;stroke-linejoin:miter;stroke-opacity:1" d="M 231.154,553.194 231.154,581.948 z" id="boundary" inkscape:connector-curvature="0" />
	<path style="fill:none;stroke:red;stroke-width:1px;stroke-linecap:butt;stroke-linejoin:miter;stroke-opacity:1" d="M 202.4,996 173.646,996 z" id="boundary" inkscape:connector-curvature="0" />
	<path style="fill:none;stroke:red;stroke-width:1px;stroke-linecap:butt;stroke-linejoin:miter;stroke-opacity:1" d="M 231.154,581.948 231.154,610.701 z" id="boundary" inkscape:connector-curvature="0" />
	<path style="fill:none;stroke:red;stroke-width:1px;stroke-linecap:butt;stroke-linejoin:miter;stroke-opacity:1" d="M 231.154,610.701 231.154,639.455 z" id="boundary" inkscape:connector-curvature="0" />
	<path style="fill:none;stroke:red;stroke-width:1px;stroke-linecap:butt;stroke-linejoin:miter;stroke-opacity:1" d="M 231.154,639.455 231.154,668.209 z" id="boundary" inkscape:connector-curvature="0" />
	<path style="fill:none;stroke:red;stroke-width:1px;stroke-linecap:butt;stroke-linejoin:miter;stroke-opacity:1" d="M 231.154,668.209 231.154,696.962 z" id="boundary" inkscape:connector-curvature="0" />
	<path style="fill:none;stroke:red;stroke-width:1px;stroke-linecap:butt;stroke-linejoin:miter;stroke-opacity:1" d="M 231.154,696.962 231.154,725.716 z" id="boundary" inkscape:connector-curvature="0" />
	<path style="fill:none;stroke:red;stroke-width:1px;stroke-linecap:butt;stroke-linejoin:miter;stroke-opacity:1" d="M 231.154,725.716 231.154,754.47 z" id="boundary" inkscape:connector-curvature="0" />
	<path style="fill:none;stroke:red;stroke-width:1px;stroke-linecap:butt;stroke-linejoin:miter;stroke-opacity:1" d="M 231.154,783.223 231.154,811.977 z" id="boundary" inkscape:connector-curvature="0" />
	<path style="fill:none;stroke:red;stroke-width:1px;stroke-linecap:butt;stroke-linejoin:miter;stroke-opacity:1" d="M 231.154,783.223 231.154,754.47 z" id="boundary" inkscape:connector-curvature="0" />
	<path style="fill:none;stroke:red;stroke-width:1px;stroke-linecap:butt;stroke-linejoin:miter;stroke-opacity:1" d="M 231.154,811.977 231.154,840.73 z" id="boundary" inkscape:connector-curvature="0" />
	<path style="fill:none;stroke:red;stroke-width:1px;stroke-linecap:butt;stroke-linejoin:miter;stroke-opacity:1" d="M 231.154,869.484 231.154,898.238 z" id="boundary" inkscape:connector-curvature="0" />
	<path style="fill:none;stroke:red;stroke-width:1px;stroke-linecap:butt;stroke-linejoin:miter;stroke-opacity:1" d="M 231.154,869.484 231.154,840.73 z" id="boundary" inkscape:connector-curvature="0" />
	<path style="fill:none;stroke:red;stroke-width:1px;stroke-linecap:butt;stroke-linejoin:miter;stroke-opacity:1" d="M 231.154,898.238 231.154,926.991 z" id="boundary" inkscape:connector-curvature="0" />
	<path style="fill:none;stroke:red;stroke-width:1px;stroke-linecap:butt;stroke-linejoin:miter;stroke-opacity:1" d="M 231.154,926.991 231.154,955.745 z" id="boundary" inkscape:connector-curvature="0" />
	<path style="fill:none;stroke:red;stroke-width:1px;stroke-linecap:butt;stroke-linejoin:miter;stroke-opacity:1" d="M 231.154,996 231.154,955.745 z" id="boundary" inkscape:connector-curvature="0" />
	<path style="fill:none;stroke:red;stroke-width:1px;stroke-linecap:butt;stroke-linejoin:miter;stroke-opacity:1" d="M 231.154,996 202.4,996 z" id="boundary" inkscape:connector-curvature="0" />
	<path style="fill:none;stroke:red;stroke-width:1px;stroke-linecap:butt;stroke-linejoin:miter;stroke-opacity:1" d="M 162.145,4 190.899,4 z" id="boundary" inkscape:connector-curvature="0" />
	<circle cx="4" cy="38.5043" r="4" fill="#0" id="circle0"/>
	<circle cx="9.75072" cy="67.258" r="4" fill="#0" id="circle1"/>
	<circle cx="18.3768" cy="12.6261" r="4" fill="#0" id="circle2"/>
	<circle cx="29.8783" cy="90.2609" r="4" fill="#0" id="circle3"/>
	<circle cx="47.1304" cy="4" r="4" fill="#0" id="circle4"/>
	<circle cx="58.6319" cy="93.1362" r="4" fill="#0" id="circle5"/>
	<circle cx="75.8841" cy="9.75072" r="4" fill="#0" id="circle6"/>
	<circle cx="84.5101" cy="78.7594" r="4" fill="#0" id="circle7"/>
	<circle cx="90.2609" cy="981.623" r="4" fill="#0" id="circle8"/>
	<circle cx="96.0116" cy="107.513" r="4" fill="#0" id="circle9"/>
	<circle cx="96.0116" cy="136.267" r="4" fill="#0" id="circle10"/>
	<circle cx="96.0116" cy="889.612" r="4" fill="#0" id="circle11"/>
	<circle cx="96.0116" cy="918.365" r="4" fill="#0" id="circle12"/>
	<circle cx="96.0116" cy="947.119" r="4" fill="#0" id="circle13"/>
	<circle cx="101.762" cy="475.559" r="4" fill="#0" id="circle14"/>
	<circle cx="101.762" cy="504.313" r="4" fill="#0" id="circle15"/>
	<circle cx="101.762" cy="533.067" r="4" fill="#0" id="circle16"/>
	<circle cx="101.762" cy="561.82" r="4" fill="#0" id="circle17"/>
	<circle cx="101.762" cy="590.574" r="4" fill="#0" id="circle18"/>
	<circle cx="101.762" cy="619.328" r="4" fill="#0" id="circle19"/>
	<circle cx="101.762" cy="648.081" r="4" fill="#0" id="circle20"/>
	<circle cx="101.762" cy="676.835" r="4" fill="#0" id="circle21"/>
	<circle cx="101.762" cy="705.588" r="4" fill="#0" id="circle22"/>
	<circle cx="101.762" cy="734.342" r="4" fill="#0" id="circle23"/>
	<circle cx="101.762" cy="763.096" r="4" fill="#0" id="circle24"/>
	<circle cx="101.762" cy="791.849" r="4" fill="#0" id="circle25"/>
	<circle cx="101.762" cy="820.603" r="4" fill="#0" id="circle26"/>
	<circle cx="101.762" cy="849.357" r="4" fill="#0" id="circle27"/>
	<circle cx="104.638" cy="4" r="4" fill="#0" id="circle28"/>
	<circle cx="107.513" cy="165.02" r="4" fill="#0" id="circle29"/>
	<circle cx="116.139" cy="193.774" r="4" fill="#0" id="circle30"/>
	<circle cx="116.139" cy="449.681" r="4" fill="#0" id="circle31"/>
	<circle cx="116.139" cy="996" r="4" fill="#0" id="circle32"/>
	<circle cx="124.765" cy="222.528" r="4" fill="#0" id="circle33"/>
	<circle cx="124.765" cy="251.281" r="4" fill="#0" id="circle34"/>
	<circle cx="124.765" cy="280.035" r="4" fill="#0" id="circle35"/>
	<circle cx="124.765" cy="308.788" r="4" fill="#0" id="circle36"/>
	<circle cx="124.765" cy="337.542" r="4" fill="#0" id="circle37"/>
	<circle cx="124.765" cy="366.296" r="4" fill="#0" id="circle38"/>
	<circle cx="124.765" cy="395.049" r="4" fill="#0" id="circle39"/>
	<circle cx="133.391" cy="4" r="4" fill="#0" id="circle40"/>
	<circle cx="144.893" cy="996" r="4" fill="#0" id="circle41"/>
	<circle cx="162.145" cy="4" r="4" fill="#0" id="circle42"/>
	<circle cx="173.646" cy="996" r="4" fill="#0" id="circle43"/>
	<circle cx="190.899" cy="4" r="4" fill="#0" id="circle44"/>
	<circle cx="202.4" cy="239.78" r="4" fill="#0" id="circle45"/>
	<circle cx="202.4" cy="268.533" r="4" fill="#0" id="circle46"/>
	<circle cx="202.4" cy="297.287" r="4" fill="#0" id="circle47"/>
	<circle cx="202.4" cy="326.041" r="4" fill="#0" id="circle48"/>
	<circle cx="202.4" cy="354.794" r="4" fill="#0" id="circle49"/>
	<circle cx="202.4" cy="383.548" r="4" fill="#0" id="circle50"/>
	<circle cx="202.4" cy="412.301" r="4" fill="#0" id="circle51"/>
	<circle cx="202.4" cy="996" r="4" fill="#0" id="circle52"/>
	<circle cx="208.151" cy="199.525" r="4" fill="#0" id="circle53"/>
	<circle cx="208.151" cy="441.055" r="4" fill="#0" id="circle54"/>
	<circle cx="219.652" cy="4" r="4" fill="#0" id="circle55"/>
	<circle cx="219.652" cy="159.27" r="4" fill="#0" id="circle56"/>
	<circle cx="222.528" cy="466.933" r="4" fill="#0" id="circle57"/>
	<circle cx="225.403" cy="495.687" r="4" fill="#0" id="circle58"/>
	<circle cx="231.154" cy="119.014" r="4" fill="#0" id="circle59"/>
	<circle cx="231.154" cy="524.441" r="4" fill="#0" id="circle60"/>
	<circle cx="231.154" cy="553.194" r="4" fill="#0" id="circle61"/>
	<circle cx="231.154" cy="581.948" r="4" fill="#0" id="circle62"/>
	<circle cx="231.154" cy="610.701" r="4" fill="#0" id="circle63"/>
	<circle cx="231.154" cy="639.455" r="4" fill="#0" id="circle64"/>
	<circle cx="231.154" cy="668.209" r="4" fill="#0" id="circle65"/>
	<circle cx="231.154" cy="696.962" r="4" fill="#0" id="circle66"/>
	<circle cx="231.154" cy="725.716" r="4" fill="#0" id="circle67"/>
	<circle cx="231.154" cy="754.47" r="4" fill="#0" id="circle68"/>
	<circle cx="231.154" cy="783.223" r="4" fill="#0" id="circle69"/>
	<circle cx="231.154" cy="811.977" r="4" fill="#0" id="circle70"/>
	<circle cx="231.154" cy="840.73" r="4" fill="#0" id="circle71"/>
	<circle cx="231.154" cy="869.484" r="4" fill="#0" id="circle72"/>
	<circle cx="231.154" cy="898.238" r="4" fill="#0" id="circle73"/>
	<circle cx="231.154" cy="926.991" r="4" fill="#0" id="circle74"/>
	<circle cx="231.154" cy="955.745" r="4" fill="#0" id="circle75"/>
	<circle cx="231.154" cy="996" r="4" fill="#0" id="circle76"/>
	<circle cx="248.406" cy="9.75072" r="4" fill="#0" id="circle77"/>
	<circle cx="251.281" cy="142.017" r="4" fill="#0" id="circle78"/>
	<circle cx="262.783" cy="170.771" r="4" fill="#0" id="circle79"/>
	<circle cx="268.533" cy="32.7536" r="4" fill="#0" id="circle80"/>
	<circle cx="291.536" cy="52.8812" r="4" fill="#0" id="circle81"/>
	<circle cx="291.536" cy="179.397" r="4" fill="#0" id="circle82"/>
	<circle cx="305.913" cy="78.7594" r="4" fill="#0" id="circle83"/>
	<circle cx="320.29" cy="104.638" r="4" fill="#0" id="circle84"/>
	<circle cx="320.29" cy="179.397" r="4" fill="#0" id="circle85"/>
	<circle cx="328.916" cy="133.391" r="4" fill="#0" id="circle86"/>
	</g>
</svg>