<?xml version="1.0" encoding="UTF-8" standalone="no"?>
<!-- Created with CurveBenchmark -->
<svg
	xmlns:dc="http://purl.org/dc/elements/1.1/"
	xmlns:cc="http://creativecommons.org/ns#"
	xmlns:rdf="http://www.w3.org/1999/02/22-rdf-syntax-ns#"
	xmlns:svg="http://www.w3.org/2000/svg"
	xmlns="http://www.w3.org/2000/svg"
	xmlns:sodipodi="http://sodipodi.sourceforge.net/DTD/sodipodi-0.dtd"
	xmlns:inkscape="http://www.inkscape.org/namespaces/inkscape"
	width="1000"
	height="1000"
	id="svg2"
	version="1.1"
	sodipodi:docname="manifold/nncrust-cat04.png.txt">
<defs
	id="defs4" />
<metadata
	id="metadata7">
	<rdf:RDF>
		<cc:Work
			rdf:about="">
			<dc:format>image/svg+xml</dc:format>
			<dc:type
				rdf:resource="http://purl.org/dc/dcmitype/StillImage" />
			<dc:title></dc:title>
		</cc:Work>
	</rdf:RDF>
</metadata>
<g
	inkscape:label="Layer 1"
	inkscape:groupmode="layer"
	id="layer1">
	<path style="fill:none;stroke:red;stroke-width:1px;stroke-linecap:butt;stroke-linejoin:miter;stroke-opacity:1" d="M 4,124.408 4,110.726 z" id="boundary" inkscape:connector-curvature="0" />
	<path style="fill:none;stroke:red;stroke-width:1px;stroke-linecap:butt;stroke-linejoin:miter;stroke-opacity:1" d="M 4,110.726 14.9462,99.7793 z" id="boundary" inkscape:connector-curvature="0" />
	<path style="fill:none;stroke:red;stroke-width:1px;stroke-linecap:butt;stroke-linejoin:miter;stroke-opacity:1" d="M 27.2607,92.9379 14.9462,99.7793 z" id="boundary" inkscape:connector-curvature="0" />
	<path style="fill:none;stroke:red;stroke-width:1px;stroke-linecap:butt;stroke-linejoin:miter;stroke-opacity:1" d="M 4,138.091 4,124.408 z" id="boundary" inkscape:connector-curvature="0" />
	<path style="fill:none;stroke:red;stroke-width:1px;stroke-linecap:butt;stroke-linejoin:miter;stroke-opacity:1" d="M 4,151.774 10.8414,164.088 z" id="boundary" inkscape:connector-curvature="0" />
	<path style="fill:none;stroke:red;stroke-width:1px;stroke-linecap:butt;stroke-linejoin:miter;stroke-opacity:1" d="M 4,151.774 4,138.091 z" id="boundary" inkscape:connector-curvature="0" />
	<path style="fill:none;stroke:red;stroke-width:1px;stroke-linecap:butt;stroke-linejoin:miter;stroke-opacity:1" d="M 20.4193,175.034 10.8414,164.088 z" id="boundary" inkscape:connector-curvature="0" />
	<path style="fill:none;stroke:red;stroke-width:1px;stroke-linecap:butt;stroke-linejoin:miter;stroke-opacity:1" d="M 27.2607,92.9379 40.9434,87.4648 z" id="boundary" inkscape:connector-curvature="0" />
	<path style="fill:none;stroke:red;stroke-width:1px;stroke-linecap:butt;stroke-linejoin:miter;stroke-opacity:1" d="M 99.7793,42.3117 87.4648,51.8897 z" id="boundary" inkscape:connector-curvature="0" />
	<path style="fill:none;stroke:red;stroke-width:1px;stroke-linecap:butt;stroke-linejoin:miter;stroke-opacity:1" d="M 106.621,21.7876 99.7793,42.3117 z" id="boundary" inkscape:connector-curvature="0" />
	<path style="fill:none;stroke:red;stroke-width:1px;stroke-linecap:butt;stroke-linejoin:miter;stroke-opacity:1" d="M 113.462,8.10483 106.621,21.7876 z" id="boundary" inkscape:connector-curvature="0" />
	<path style="fill:none;stroke:red;stroke-width:1px;stroke-linecap:butt;stroke-linejoin:miter;stroke-opacity:1" d="M 87.4648,51.8897 73.7821,54.6262 z" id="boundary" inkscape:connector-curvature="0" />
	<path style="fill:none;stroke:red;stroke-width:1px;stroke-linecap:butt;stroke-linejoin:miter;stroke-opacity:1" d="M 40.9434,87.4648 51.8897,76.5186 z" id="boundary" inkscape:connector-curvature="0" />
	<path style="fill:none;stroke:red;stroke-width:1px;stroke-linecap:butt;stroke-linejoin:miter;stroke-opacity:1" d="M 62.8359,65.5724 73.7821,54.6262 z" id="boundary" inkscape:connector-curvature="0" />
	<path style="fill:none;stroke:red;stroke-width:1px;stroke-linecap:butt;stroke-linejoin:miter;stroke-opacity:1" d="M 62.8359,65.5724 51.8897,76.5186 z" id="boundary" inkscape:connector-curvature="0" />
	<path style="fill:none;stroke:red;stroke-width:1px;stroke-linecap:butt;stroke-linejoin:miter;stroke-opacity:1" d="M 20.4193,175.034 31.3655,183.244 z" id="boundary" inkscape:connector-curvature="0" />
	<path style="fill:none;stroke:red;stroke-width:1px;stroke-linecap:butt;stroke-linejoin:miter;stroke-opacity:1" d="M 31.3655,183.244 31.3655,196.927 z" id="boundary" inkscape:connector-curvature="0" />
	<path style="fill:none;stroke:red;stroke-width:1px;stroke-linecap:butt;stroke-linejoin:miter;stroke-opacity:1" d="M 31.3655,196.927 31.3655,210.61 z" id="boundary" inkscape:connector-curvature="0" />
	<path style="fill:none;stroke:red;stroke-width:1px;stroke-linecap:butt;stroke-linejoin:miter;stroke-opacity:1" d="M 31.3655,224.292 31.3655,210.61 z" id="boundary" inkscape:connector-curvature="0" />
	<path style="fill:none;stroke:red;stroke-width:1px;stroke-linecap:butt;stroke-linejoin:miter;stroke-opacity:1" d="M 31.3655,224.292 35.4703,237.975 z" id="boundary" inkscape:connector-curvature="0" />
	<path style="fill:none;stroke:red;stroke-width:1px;stroke-linecap:butt;stroke-linejoin:miter;stroke-opacity:1" d="M 38.2069,274.919 31.3655,295.443 z" id="boundary" inkscape:connector-curvature="0" />
	<path style="fill:none;stroke:red;stroke-width:1px;stroke-linecap:butt;stroke-linejoin:miter;stroke-opacity:1" d="M 45.0483,261.236 38.2069,274.919 z" id="boundary" inkscape:connector-curvature="0" />
	<path style="fill:none;stroke:red;stroke-width:1px;stroke-linecap:butt;stroke-linejoin:miter;stroke-opacity:1" d="M 49.1531,243.448 35.4703,237.975 z" id="boundary" inkscape:connector-curvature="0" />
	<path style="fill:none;stroke:red;stroke-width:1px;stroke-linecap:butt;stroke-linejoin:miter;stroke-opacity:1" d="M 38.2069,307.757 31.3655,295.443 z" id="boundary" inkscape:connector-curvature="0" />
	<path style="fill:none;stroke:red;stroke-width:1px;stroke-linecap:butt;stroke-linejoin:miter;stroke-opacity:1" d="M 38.2069,307.757 38.2069,321.44 z" id="boundary" inkscape:connector-curvature="0" />
	<path style="fill:none;stroke:red;stroke-width:1px;stroke-linecap:butt;stroke-linejoin:miter;stroke-opacity:1" d="M 45.0483,333.754 38.2069,321.44 z" id="boundary" inkscape:connector-curvature="0" />
	<path style="fill:none;stroke:red;stroke-width:1px;stroke-linecap:butt;stroke-linejoin:miter;stroke-opacity:1" d="M 49.1531,243.448 45.0483,261.236 z" id="boundary" inkscape:connector-curvature="0" />
	<path style="fill:none;stroke:red;stroke-width:1px;stroke-linecap:butt;stroke-linejoin:miter;stroke-opacity:1" d="M 45.0483,333.754 53.2579,344.701 z" id="boundary" inkscape:connector-curvature="0" />
	<path style="fill:none;stroke:red;stroke-width:1px;stroke-linecap:butt;stroke-linejoin:miter;stroke-opacity:1" d="M 64.2041,354.279 73.7821,365.225 z" id="boundary" inkscape:connector-curvature="0" />
	<path style="fill:none;stroke:red;stroke-width:1px;stroke-linecap:butt;stroke-linejoin:miter;stroke-opacity:1" d="M 53.2579,344.701 64.2041,354.279 z" id="boundary" inkscape:connector-curvature="0" />
	<path style="fill:none;stroke:red;stroke-width:1px;stroke-linecap:butt;stroke-linejoin:miter;stroke-opacity:1" d="M 84.7283,374.803 73.7821,365.225 z" id="boundary" inkscape:connector-curvature="0" />
	<path style="fill:none;stroke:red;stroke-width:1px;stroke-linecap:butt;stroke-linejoin:miter;stroke-opacity:1" d="M 135.354,14.9462 140.828,28.629 z" id="boundary" inkscape:connector-curvature="0" />
	<path style="fill:none;stroke:red;stroke-width:1px;stroke-linecap:butt;stroke-linejoin:miter;stroke-opacity:1" d="M 135.354,14.9462 127.145,4 z" id="boundary" inkscape:connector-curvature="0" />
	<path style="fill:none;stroke:red;stroke-width:1px;stroke-linecap:butt;stroke-linejoin:miter;stroke-opacity:1" d="M 149.037,39.5752 140.828,28.629 z" id="boundary" inkscape:connector-curvature="0" />
	<path style="fill:none;stroke:red;stroke-width:1px;stroke-linecap:butt;stroke-linejoin:miter;stroke-opacity:1" d="M 149.037,39.5752 151.774,53.2579 z" id="boundary" inkscape:connector-curvature="0" />
	<path style="fill:none;stroke:red;stroke-width:1px;stroke-linecap:butt;stroke-linejoin:miter;stroke-opacity:1" d="M 165.457,58.731 151.774,53.2579 z" id="boundary" inkscape:connector-curvature="0" />
	<path style="fill:none;stroke:red;stroke-width:1px;stroke-linecap:butt;stroke-linejoin:miter;stroke-opacity:1" d="M 165.457,58.731 179.139,58.731 z" id="boundary" inkscape:connector-curvature="0" />
	<path style="fill:none;stroke:red;stroke-width:1px;stroke-linecap:butt;stroke-linejoin:miter;stroke-opacity:1" d="M 179.139,58.731 183.244,72.4138 z" id="boundary" inkscape:connector-curvature="0" />
	<path style="fill:none;stroke:red;stroke-width:1px;stroke-linecap:butt;stroke-linejoin:miter;stroke-opacity:1" d="M 113.462,8.10483 127.145,4 z" id="boundary" inkscape:connector-curvature="0" />
	<path style="fill:none;stroke:red;stroke-width:1px;stroke-linecap:butt;stroke-linejoin:miter;stroke-opacity:1" d="M 183.244,72.4138 194.19,80.6234 z" id="boundary" inkscape:connector-curvature="0" />
	<path style="fill:none;stroke:red;stroke-width:1px;stroke-linecap:butt;stroke-linejoin:miter;stroke-opacity:1" d="M 194.19,80.6234 203.768,91.5697 z" id="boundary" inkscape:connector-curvature="0" />
	<path style="fill:none;stroke:red;stroke-width:1px;stroke-linecap:butt;stroke-linejoin:miter;stroke-opacity:1" d="M 210.61,103.884 203.768,91.5697 z" id="boundary" inkscape:connector-curvature="0" />
	<path style="fill:none;stroke:red;stroke-width:1px;stroke-linecap:butt;stroke-linejoin:miter;stroke-opacity:1" d="M 210.61,103.884 210.61,117.567 z" id="boundary" inkscape:connector-curvature="0" />
	<path style="fill:none;stroke:red;stroke-width:1px;stroke-linecap:butt;stroke-linejoin:miter;stroke-opacity:1" d="M 210.61,117.567 210.61,131.25 z" id="boundary" inkscape:connector-curvature="0" />
	<path style="fill:none;stroke:red;stroke-width:1px;stroke-linecap:butt;stroke-linejoin:miter;stroke-opacity:1" d="M 216.083,144.932 210.61,131.25 z" id="boundary" inkscape:connector-curvature="0" />
	<path style="fill:none;stroke:red;stroke-width:1px;stroke-linecap:butt;stroke-linejoin:miter;stroke-opacity:1" d="M 216.083,144.932 217.451,158.615 z" id="boundary" inkscape:connector-curvature="0" />
	<path style="fill:none;stroke:red;stroke-width:1px;stroke-linecap:butt;stroke-linejoin:miter;stroke-opacity:1" d="M 217.451,158.615 222.924,172.298 z" id="boundary" inkscape:connector-curvature="0" />
	<path style="fill:none;stroke:red;stroke-width:1px;stroke-linecap:butt;stroke-linejoin:miter;stroke-opacity:1" d="M 222.924,172.298 229.766,184.612 z" id="boundary" inkscape:connector-curvature="0" />
	<path style="fill:none;stroke:red;stroke-width:1px;stroke-linecap:butt;stroke-linejoin:miter;stroke-opacity:1" d="M 243.448,188.717 229.766,184.612 z" id="boundary" inkscape:connector-curvature="0" />
	<path style="fill:none;stroke:red;stroke-width:1px;stroke-linecap:butt;stroke-linejoin:miter;stroke-opacity:1" d="M 243.448,188.717 257.131,191.454 z" id="boundary" inkscape:connector-curvature="0" />
	<path style="fill:none;stroke:red;stroke-width:1px;stroke-linecap:butt;stroke-linejoin:miter;stroke-opacity:1" d="M 257.131,191.454 269.446,198.295 z" id="boundary" inkscape:connector-curvature="0" />
	<path style="fill:none;stroke:red;stroke-width:1px;stroke-linecap:butt;stroke-linejoin:miter;stroke-opacity:1" d="M 283.128,202.4 269.446,198.295 z" id="boundary" inkscape:connector-curvature="0" />
	<path style="fill:none;stroke:red;stroke-width:1px;stroke-linecap:butt;stroke-linejoin:miter;stroke-opacity:1" d="M 295.443,195.559 283.128,202.4 z" id="boundary" inkscape:connector-curvature="0" />
	<path style="fill:none;stroke:red;stroke-width:1px;stroke-linecap:butt;stroke-linejoin:miter;stroke-opacity:1" d="M 295.443,195.559 309.126,195.559 z" id="boundary" inkscape:connector-curvature="0" />
	<path style="fill:none;stroke:red;stroke-width:1px;stroke-linecap:butt;stroke-linejoin:miter;stroke-opacity:1" d="M 321.44,188.717 309.126,195.559 z" id="boundary" inkscape:connector-curvature="0" />
	<path style="fill:none;stroke:red;stroke-width:1px;stroke-linecap:butt;stroke-linejoin:miter;stroke-opacity:1" d="M 373.434,175.034 387.117,175.034 z" id="boundary" inkscape:connector-curvature="0" />
	<path style="fill:none;stroke:red;stroke-width:1px;stroke-linecap:butt;stroke-linejoin:miter;stroke-opacity:1" d="M 361.12,181.876 373.434,175.034 z" id="boundary" inkscape:connector-curvature="0" />
	<path style="fill:none;stroke:red;stroke-width:1px;stroke-linecap:butt;stroke-linejoin:miter;stroke-opacity:1" d="M 413.114,168.193 400.8,175.034 z" id="boundary" inkscape:connector-curvature="0" />
	<path style="fill:none;stroke:red;stroke-width:1px;stroke-linecap:butt;stroke-linejoin:miter;stroke-opacity:1" d="M 400.8,175.034 387.117,175.034 z" id="boundary" inkscape:connector-curvature="0" />
	<path style="fill:none;stroke:red;stroke-width:1px;stroke-linecap:butt;stroke-linejoin:miter;stroke-opacity:1" d="M 321.44,188.717 335.123,188.717 z" id="boundary" inkscape:connector-curvature="0" />
	<path style="fill:none;stroke:red;stroke-width:1px;stroke-linecap:butt;stroke-linejoin:miter;stroke-opacity:1" d="M 348.806,188.717 361.12,181.876 z" id="boundary" inkscape:connector-curvature="0" />
	<path style="fill:none;stroke:red;stroke-width:1px;stroke-linecap:butt;stroke-linejoin:miter;stroke-opacity:1" d="M 348.806,188.717 335.123,188.717 z" id="boundary" inkscape:connector-curvature="0" />
	<path style="fill:none;stroke:red;stroke-width:1px;stroke-linecap:butt;stroke-linejoin:miter;stroke-opacity:1" d="M 84.7283,374.803 92.9379,385.749 z" id="boundary" inkscape:connector-curvature="0" />
	<path style="fill:none;stroke:red;stroke-width:1px;stroke-linecap:butt;stroke-linejoin:miter;stroke-opacity:1" d="M 99.7793,398.063 92.9379,385.749 z" id="boundary" inkscape:connector-curvature="0" />
	<path style="fill:none;stroke:red;stroke-width:1px;stroke-linecap:butt;stroke-linejoin:miter;stroke-opacity:1" d="M 196.927,456.899 183.244,456.899 z" id="boundary" inkscape:connector-curvature="0" />
	<path style="fill:none;stroke:red;stroke-width:1px;stroke-linecap:butt;stroke-linejoin:miter;stroke-opacity:1" d="M 99.7793,398.063 99.7793,411.746 z" id="boundary" inkscape:connector-curvature="0" />
	<path style="fill:none;stroke:red;stroke-width:1px;stroke-linecap:butt;stroke-linejoin:miter;stroke-opacity:1" d="M 106.621,473.319 106.621,487.001 z" id="boundary" inkscape:connector-curvature="0" />
	<path style="fill:none;stroke:red;stroke-width:1px;stroke-linecap:butt;stroke-linejoin:miter;stroke-opacity:1" d="M 106.621,500.684 106.621,487.001 z" id="boundary" inkscape:connector-curvature="0" />
	<path style="fill:none;stroke:red;stroke-width:1px;stroke-linecap:butt;stroke-linejoin:miter;stroke-opacity:1" d="M 106.621,473.319 113.462,459.636 z" id="boundary" inkscape:connector-curvature="0" />
	<path style="fill:none;stroke:red;stroke-width:1px;stroke-linecap:butt;stroke-linejoin:miter;stroke-opacity:1" d="M 110.726,421.324 99.7793,411.746 z" id="boundary" inkscape:connector-curvature="0" />
	<path style="fill:none;stroke:red;stroke-width:1px;stroke-linecap:butt;stroke-linejoin:miter;stroke-opacity:1" d="M 113.462,435.007 110.726,421.324 z" id="boundary" inkscape:connector-curvature="0" />
	<path style="fill:none;stroke:red;stroke-width:1px;stroke-linecap:butt;stroke-linejoin:miter;stroke-opacity:1" d="M 120.303,447.321 113.462,435.007 z" id="boundary" inkscape:connector-curvature="0" />
	<path style="fill:none;stroke:red;stroke-width:1px;stroke-linecap:butt;stroke-linejoin:miter;stroke-opacity:1" d="M 183.244,456.899 176.403,477.423 z" id="boundary" inkscape:connector-curvature="0" />
	<path style="fill:none;stroke:red;stroke-width:1px;stroke-linecap:butt;stroke-linejoin:miter;stroke-opacity:1" d="M 120.303,447.321 113.462,459.636 z" id="boundary" inkscape:connector-curvature="0" />
	<path style="fill:none;stroke:red;stroke-width:1px;stroke-linecap:butt;stroke-linejoin:miter;stroke-opacity:1" d="M 176.403,477.423 176.403,491.106 z" id="boundary" inkscape:connector-curvature="0" />
	<path style="fill:none;stroke:red;stroke-width:1px;stroke-linecap:butt;stroke-linejoin:miter;stroke-opacity:1" d="M 176.403,491.106 176.403,504.789 z" id="boundary" inkscape:connector-curvature="0" />
	<path style="fill:none;stroke:red;stroke-width:1px;stroke-linecap:butt;stroke-linejoin:miter;stroke-opacity:1" d="M 169.561,525.313 176.403,504.789 z" id="boundary" inkscape:connector-curvature="0" />
	<path style="fill:none;stroke:red;stroke-width:1px;stroke-linecap:butt;stroke-linejoin:miter;stroke-opacity:1" d="M 79.2552,555.415 90.2014,544.469 z" id="boundary" inkscape:connector-curvature="0" />
	<path style="fill:none;stroke:red;stroke-width:1px;stroke-linecap:butt;stroke-linejoin:miter;stroke-opacity:1" d="M 133.986,573.203 120.303,573.203 z" id="boundary" inkscape:connector-curvature="0" />
	<path style="fill:none;stroke:red;stroke-width:1px;stroke-linecap:butt;stroke-linejoin:miter;stroke-opacity:1" d="M 106.621,514.367 102.516,537.628 z" id="boundary" inkscape:connector-curvature="0" />
	<path style="fill:none;stroke:red;stroke-width:1px;stroke-linecap:butt;stroke-linejoin:miter;stroke-opacity:1" d="M 102.516,537.628 90.2014,544.469 z" id="boundary" inkscape:connector-curvature="0" />
	<path style="fill:none;stroke:red;stroke-width:1px;stroke-linecap:butt;stroke-linejoin:miter;stroke-opacity:1" d="M 106.621,500.684 106.621,514.367 z" id="boundary" inkscape:connector-curvature="0" />
	<path style="fill:none;stroke:red;stroke-width:1px;stroke-linecap:butt;stroke-linejoin:miter;stroke-opacity:1" d="M 79.2552,569.098 79.2552,555.415 z" id="boundary" inkscape:connector-curvature="0" />
	<path style="fill:none;stroke:red;stroke-width:1px;stroke-linecap:butt;stroke-linejoin:miter;stroke-opacity:1" d="M 92.9379,573.203 79.2552,569.098 z" id="boundary" inkscape:connector-curvature="0" />
	<path style="fill:none;stroke:red;stroke-width:1px;stroke-linecap:butt;stroke-linejoin:miter;stroke-opacity:1" d="M 106.621,573.203 120.303,573.203 z" id="boundary" inkscape:connector-curvature="0" />
	<path style="fill:none;stroke:red;stroke-width:1px;stroke-linecap:butt;stroke-linejoin:miter;stroke-opacity:1" d="M 106.621,573.203 92.9379,573.203 z" id="boundary" inkscape:connector-curvature="0" />
	<path style="fill:none;stroke:red;stroke-width:1px;stroke-linecap:butt;stroke-linejoin:miter;stroke-opacity:1" d="M 169.561,525.313 169.561,545.837 z" id="boundary" inkscape:connector-curvature="0" />
	<path style="fill:none;stroke:red;stroke-width:1px;stroke-linecap:butt;stroke-linejoin:miter;stroke-opacity:1" d="M 169.561,545.837 155.879,552.679 z" id="boundary" inkscape:connector-curvature="0" />
	<path style="fill:none;stroke:red;stroke-width:1px;stroke-linecap:butt;stroke-linejoin:miter;stroke-opacity:1" d="M 185.981,551.31 169.561,545.837 z" id="boundary" inkscape:connector-curvature="0" />
	<path style="fill:none;stroke:red;stroke-width:1px;stroke-linecap:butt;stroke-linejoin:miter;stroke-opacity:1" d="M 198.295,544.469 185.981,551.31 z" id="boundary" inkscape:connector-curvature="0" />
	<path style="fill:none;stroke:red;stroke-width:1px;stroke-linecap:butt;stroke-linejoin:miter;stroke-opacity:1" d="M 185.981,551.31 175.034,562.257 z" id="boundary" inkscape:connector-curvature="0" />
	<path style="fill:none;stroke:red;stroke-width:1px;stroke-linecap:butt;stroke-linejoin:miter;stroke-opacity:1" d="M 133.986,573.203 147.669,573.203 z" id="boundary" inkscape:connector-curvature="0" />
	<path style="fill:none;stroke:red;stroke-width:1px;stroke-linecap:butt;stroke-linejoin:miter;stroke-opacity:1" d="M 155.879,552.679 147.669,573.203 z" id="boundary" inkscape:connector-curvature="0" />
	<path style="fill:none;stroke:red;stroke-width:1px;stroke-linecap:butt;stroke-linejoin:miter;stroke-opacity:1" d="M 175.034,562.257 183.244,573.203 z" id="boundary" inkscape:connector-curvature="0" />
	<path style="fill:none;stroke:red;stroke-width:1px;stroke-linecap:butt;stroke-linejoin:miter;stroke-opacity:1" d="M 196.927,573.203 183.244,573.203 z" id="boundary" inkscape:connector-curvature="0" />
	<path style="fill:none;stroke:red;stroke-width:1px;stroke-linecap:butt;stroke-linejoin:miter;stroke-opacity:1" d="M 305.021,450.058 296.811,461.004 z" id="boundary" inkscape:connector-curvature="0" />
	<path style="fill:none;stroke:red;stroke-width:1px;stroke-linecap:butt;stroke-linejoin:miter;stroke-opacity:1" d="M 209.241,463.741 196.927,456.899 z" id="boundary" inkscape:connector-curvature="0" />
	<path style="fill:none;stroke:red;stroke-width:1px;stroke-linecap:butt;stroke-linejoin:miter;stroke-opacity:1" d="M 305.021,450.058 317.335,456.899 z" id="boundary" inkscape:connector-curvature="0" />
	<path style="fill:none;stroke:red;stroke-width:1px;stroke-linecap:butt;stroke-linejoin:miter;stroke-opacity:1" d="M 285.865,470.582 296.811,461.004 z" id="boundary" inkscape:connector-curvature="0" />
	<path style="fill:none;stroke:red;stroke-width:1px;stroke-linecap:butt;stroke-linejoin:miter;stroke-opacity:1" d="M 216.083,476.055 209.241,463.741 z" id="boundary" inkscape:connector-curvature="0" />
	<path style="fill:none;stroke:red;stroke-width:1px;stroke-linecap:butt;stroke-linejoin:miter;stroke-opacity:1" d="M 279.023,497.948 279.023,484.265 z" id="boundary" inkscape:connector-curvature="0" />
	<path style="fill:none;stroke:red;stroke-width:1px;stroke-linecap:butt;stroke-linejoin:miter;stroke-opacity:1" d="M 279.023,484.265 285.865,470.582 z" id="boundary" inkscape:connector-curvature="0" />
	<path style="fill:none;stroke:red;stroke-width:1px;stroke-linecap:butt;stroke-linejoin:miter;stroke-opacity:1" d="M 216.083,476.055 209.241,493.843 z" id="boundary" inkscape:connector-curvature="0" />
	<path style="fill:none;stroke:red;stroke-width:1px;stroke-linecap:butt;stroke-linejoin:miter;stroke-opacity:1" d="M 381.644,429.534 395.327,429.534 z" id="boundary" inkscape:connector-curvature="0" />
	<path style="fill:none;stroke:red;stroke-width:1px;stroke-linecap:butt;stroke-linejoin:miter;stroke-opacity:1" d="M 367.961,436.375 381.644,429.534 z" id="boundary" inkscape:connector-curvature="0" />
	<path style="fill:none;stroke:red;stroke-width:1px;stroke-linecap:butt;stroke-linejoin:miter;stroke-opacity:1" d="M 406.273,419.956 395.327,429.534 z" id="boundary" inkscape:connector-curvature="0" />
	<path style="fill:none;stroke:red;stroke-width:1px;stroke-linecap:butt;stroke-linejoin:miter;stroke-opacity:1" d="M 331.018,456.899 343.332,450.058 z" id="boundary" inkscape:connector-curvature="0" />
	<path style="fill:none;stroke:red;stroke-width:1px;stroke-linecap:butt;stroke-linejoin:miter;stroke-opacity:1" d="M 331.018,456.899 317.335,456.899 z" id="boundary" inkscape:connector-curvature="0" />
	<path style="fill:none;stroke:red;stroke-width:1px;stroke-linecap:butt;stroke-linejoin:miter;stroke-opacity:1" d="M 367.961,436.375 355.647,443.217 z" id="boundary" inkscape:connector-curvature="0" />
	<path style="fill:none;stroke:red;stroke-width:1px;stroke-linecap:butt;stroke-linejoin:miter;stroke-opacity:1" d="M 355.647,443.217 343.332,450.058 z" id="boundary" inkscape:connector-curvature="0" />
	<path style="fill:none;stroke:red;stroke-width:1px;stroke-linecap:butt;stroke-linejoin:miter;stroke-opacity:1" d="M 209.241,507.526 209.241,521.208 z" id="boundary" inkscape:connector-curvature="0" />
	<path style="fill:none;stroke:red;stroke-width:1px;stroke-linecap:butt;stroke-linejoin:miter;stroke-opacity:1" d="M 209.241,521.208 209.241,534.891 z" id="boundary" inkscape:connector-curvature="0" />
	<path style="fill:none;stroke:red;stroke-width:1px;stroke-linecap:butt;stroke-linejoin:miter;stroke-opacity:1" d="M 209.241,534.891 198.295,544.469 z" id="boundary" inkscape:connector-curvature="0" />
	<path style="fill:none;stroke:red;stroke-width:1px;stroke-linecap:butt;stroke-linejoin:miter;stroke-opacity:1" d="M 237.975,573.203 224.292,573.203 z" id="boundary" inkscape:connector-curvature="0" />
	<path style="fill:none;stroke:red;stroke-width:1px;stroke-linecap:butt;stroke-linejoin:miter;stroke-opacity:1" d="M 210.61,573.203 196.927,573.203 z" id="boundary" inkscape:connector-curvature="0" />
	<path style="fill:none;stroke:red;stroke-width:1px;stroke-linecap:butt;stroke-linejoin:miter;stroke-opacity:1" d="M 210.61,573.203 224.292,573.203 z" id="boundary" inkscape:connector-curvature="0" />
	<path style="fill:none;stroke:red;stroke-width:1px;stroke-linecap:butt;stroke-linejoin:miter;stroke-opacity:1" d="M 209.241,507.526 209.241,493.843 z" id="boundary" inkscape:connector-curvature="0" />
	<path style="fill:none;stroke:red;stroke-width:1px;stroke-linecap:butt;stroke-linejoin:miter;stroke-opacity:1" d="M 265.341,538.996 265.341,525.313 z" id="boundary" inkscape:connector-curvature="0" />
	<path style="fill:none;stroke:red;stroke-width:1px;stroke-linecap:butt;stroke-linejoin:miter;stroke-opacity:1" d="M 265.341,525.313 272.182,511.63 z" id="boundary" inkscape:connector-curvature="0" />
	<path style="fill:none;stroke:red;stroke-width:1px;stroke-linecap:butt;stroke-linejoin:miter;stroke-opacity:1" d="M 272.182,511.63 279.023,497.948 z" id="boundary" inkscape:connector-curvature="0" />
	<path style="fill:none;stroke:red;stroke-width:1px;stroke-linecap:butt;stroke-linejoin:miter;stroke-opacity:1" d="M 237.975,573.203 251.658,575.939 z" id="boundary" inkscape:connector-curvature="0" />
	<path style="fill:none;stroke:red;stroke-width:1px;stroke-linecap:butt;stroke-linejoin:miter;stroke-opacity:1" d="M 261.236,564.993 251.658,575.939 z" id="boundary" inkscape:connector-curvature="0" />
	<path style="fill:none;stroke:red;stroke-width:1px;stroke-linecap:butt;stroke-linejoin:miter;stroke-opacity:1" d="M 261.236,564.993 265.341,538.996 z" id="boundary" inkscape:connector-curvature="0" />
	<path style="fill:none;stroke:red;stroke-width:1px;stroke-linecap:butt;stroke-linejoin:miter;stroke-opacity:1" d="M 421.324,555.415 421.324,569.098 z" id="boundary" inkscape:connector-curvature="0" />
	<path style="fill:none;stroke:red;stroke-width:1px;stroke-linecap:butt;stroke-linejoin:miter;stroke-opacity:1" d="M 406.273,419.956 419.956,413.114 z" id="boundary" inkscape:connector-curvature="0" />
	<path style="fill:none;stroke:red;stroke-width:1px;stroke-linecap:butt;stroke-linejoin:miter;stroke-opacity:1" d="M 419.956,413.114 428.166,424.061 z" id="boundary" inkscape:connector-curvature="0" />
	<path style="fill:none;stroke:red;stroke-width:1px;stroke-linecap:butt;stroke-linejoin:miter;stroke-opacity:1" d="M 413.114,168.193 426.797,168.193 z" id="boundary" inkscape:connector-curvature="0" />
	<path style="fill:none;stroke:red;stroke-width:1px;stroke-linecap:butt;stroke-linejoin:miter;stroke-opacity:1" d="M 452.794,161.352 439.112,161.352 z" id="boundary" inkscape:connector-curvature="0" />
	<path style="fill:none;stroke:red;stroke-width:1px;stroke-linecap:butt;stroke-linejoin:miter;stroke-opacity:1" d="M 491.106,161.352 478.792,154.51 z" id="boundary" inkscape:connector-curvature="0" />
	<path style="fill:none;stroke:red;stroke-width:1px;stroke-linecap:butt;stroke-linejoin:miter;stroke-opacity:1" d="M 503.421,154.51 491.106,161.352 z" id="boundary" inkscape:connector-curvature="0" />
	<path style="fill:none;stroke:red;stroke-width:1px;stroke-linecap:butt;stroke-linejoin:miter;stroke-opacity:1" d="M 452.794,161.352 466.477,161.352 z" id="boundary" inkscape:connector-curvature="0" />
	<path style="fill:none;stroke:red;stroke-width:1px;stroke-linecap:butt;stroke-linejoin:miter;stroke-opacity:1" d="M 426.797,168.193 439.112,161.352 z" id="boundary" inkscape:connector-curvature="0" />
	<path style="fill:none;stroke:red;stroke-width:1px;stroke-linecap:butt;stroke-linejoin:miter;stroke-opacity:1" d="M 466.477,161.352 478.792,154.51 z" id="boundary" inkscape:connector-curvature="0" />
	<path style="fill:none;stroke:red;stroke-width:1px;stroke-linecap:butt;stroke-linejoin:miter;stroke-opacity:1" d="M 503.421,154.51 515.735,161.352 z" id="boundary" inkscape:connector-curvature="0" />
	<path style="fill:none;stroke:red;stroke-width:1px;stroke-linecap:butt;stroke-linejoin:miter;stroke-opacity:1" d="M 515.735,161.352 529.418,161.352 z" id="boundary" inkscape:connector-curvature="0" />
	<path style="fill:none;stroke:red;stroke-width:1px;stroke-linecap:butt;stroke-linejoin:miter;stroke-opacity:1" d="M 529.418,161.352 541.732,168.193 z" id="boundary" inkscape:connector-curvature="0" />
	<path style="fill:none;stroke:red;stroke-width:1px;stroke-linecap:butt;stroke-linejoin:miter;stroke-opacity:1" d="M 541.732,168.193 555.415,168.193 z" id="boundary" inkscape:connector-curvature="0" />
	<path style="fill:none;stroke:red;stroke-width:1px;stroke-linecap:butt;stroke-linejoin:miter;stroke-opacity:1" d="M 555.415,168.193 567.73,175.034 z" id="boundary" inkscape:connector-curvature="0" />
	<path style="fill:none;stroke:red;stroke-width:1px;stroke-linecap:butt;stroke-linejoin:miter;stroke-opacity:1" d="M 798.968,170.93 785.286,177.771 z" id="boundary" inkscape:connector-curvature="0" />
	<path style="fill:none;stroke:red;stroke-width:1px;stroke-linecap:butt;stroke-linejoin:miter;stroke-opacity:1" d="M 824.966,161.352 812.651,168.193 z" id="boundary" inkscape:connector-curvature="0" />
	<path style="fill:none;stroke:red;stroke-width:1px;stroke-linecap:butt;stroke-linejoin:miter;stroke-opacity:1" d="M 812.651,168.193 798.968,170.93 z" id="boundary" inkscape:connector-curvature="0" />
	<path style="fill:none;stroke:red;stroke-width:1px;stroke-linecap:butt;stroke-linejoin:miter;stroke-opacity:1" d="M 771.603,184.612 785.286,177.771 z" id="boundary" inkscape:connector-curvature="0" />
	<path style="fill:none;stroke:red;stroke-width:1px;stroke-linecap:butt;stroke-linejoin:miter;stroke-opacity:1" d="M 567.73,175.034 580.044,181.876 z" id="boundary" inkscape:connector-curvature="0" />
	<path style="fill:none;stroke:red;stroke-width:1px;stroke-linecap:butt;stroke-linejoin:miter;stroke-opacity:1" d="M 580.044,181.876 593.727,185.981 z" id="boundary" inkscape:connector-curvature="0" />
	<path style="fill:none;stroke:red;stroke-width:1px;stroke-linecap:butt;stroke-linejoin:miter;stroke-opacity:1" d="M 593.727,185.981 604.673,195.559 z" id="boundary" inkscape:connector-curvature="0" />
	<path style="fill:none;stroke:red;stroke-width:1px;stroke-linecap:butt;stroke-linejoin:miter;stroke-opacity:1" d="M 604.673,195.559 618.356,196.927 z" id="boundary" inkscape:connector-curvature="0" />
	<path style="fill:none;stroke:red;stroke-width:1px;stroke-linecap:butt;stroke-linejoin:miter;stroke-opacity:1" d="M 618.356,196.927 627.934,207.873 z" id="boundary" inkscape:connector-curvature="0" />
	<path style="fill:none;stroke:red;stroke-width:1px;stroke-linecap:butt;stroke-linejoin:miter;stroke-opacity:1" d="M 627.934,207.873 641.617,209.241 z" id="boundary" inkscape:connector-curvature="0" />
	<path style="fill:none;stroke:red;stroke-width:1px;stroke-linecap:butt;stroke-linejoin:miter;stroke-opacity:1" d="M 641.617,209.241 653.931,216.083 z" id="boundary" inkscape:connector-curvature="0" />
	<path style="fill:none;stroke:red;stroke-width:1px;stroke-linecap:butt;stroke-linejoin:miter;stroke-opacity:1" d="M 653.931,216.083 666.246,209.241 z" id="boundary" inkscape:connector-curvature="0" />
	<path style="fill:none;stroke:red;stroke-width:1px;stroke-linecap:butt;stroke-linejoin:miter;stroke-opacity:1" d="M 666.246,209.241 679.928,209.241 z" id="boundary" inkscape:connector-curvature="0" />
	<path style="fill:none;stroke:red;stroke-width:1px;stroke-linecap:butt;stroke-linejoin:miter;stroke-opacity:1" d="M 731.923,195.559 718.24,195.559 z" id="boundary" inkscape:connector-curvature="0" />
	<path style="fill:none;stroke:red;stroke-width:1px;stroke-linecap:butt;stroke-linejoin:miter;stroke-opacity:1" d="M 744.237,188.717 731.923,195.559 z" id="boundary" inkscape:connector-curvature="0" />
	<path style="fill:none;stroke:red;stroke-width:1px;stroke-linecap:butt;stroke-linejoin:miter;stroke-opacity:1" d="M 757.92,188.717 771.603,184.612 z" id="boundary" inkscape:connector-curvature="0" />
	<path style="fill:none;stroke:red;stroke-width:1px;stroke-linecap:butt;stroke-linejoin:miter;stroke-opacity:1" d="M 757.92,188.717 744.237,188.717 z" id="boundary" inkscape:connector-curvature="0" />
	<path style="fill:none;stroke:red;stroke-width:1px;stroke-linecap:butt;stroke-linejoin:miter;stroke-opacity:1" d="M 679.928,209.241 692.243,202.4 z" id="boundary" inkscape:connector-curvature="0" />
	<path style="fill:none;stroke:red;stroke-width:1px;stroke-linecap:butt;stroke-linejoin:miter;stroke-opacity:1" d="M 692.243,202.4 705.926,202.4 z" id="boundary" inkscape:connector-curvature="0" />
	<path style="fill:none;stroke:red;stroke-width:1px;stroke-linecap:butt;stroke-linejoin:miter;stroke-opacity:1" d="M 718.24,195.559 705.926,202.4 z" id="boundary" inkscape:connector-curvature="0" />
	<path style="fill:none;stroke:red;stroke-width:1px;stroke-linecap:butt;stroke-linejoin:miter;stroke-opacity:1" d="M 911.167,65.5724 920.745,49.1531 z" id="boundary" inkscape:connector-curvature="0" />
	<path style="fill:none;stroke:red;stroke-width:1px;stroke-linecap:butt;stroke-linejoin:miter;stroke-opacity:1" d="M 920.745,49.1531 934.428,42.3117 z" id="boundary" inkscape:connector-curvature="0" />
	<path style="fill:none;stroke:red;stroke-width:1px;stroke-linecap:butt;stroke-linejoin:miter;stroke-opacity:1" d="M 945.374,31.3655 934.428,42.3117 z" id="boundary" inkscape:connector-curvature="0" />
	<path style="fill:none;stroke:red;stroke-width:1px;stroke-linecap:butt;stroke-linejoin:miter;stroke-opacity:1" d="M 960.425,84.7283 949.479,94.3062 z" id="boundary" inkscape:connector-curvature="0" />
	<path style="fill:none;stroke:red;stroke-width:1px;stroke-linecap:butt;stroke-linejoin:miter;stroke-opacity:1" d="M 887.906,102.516 894.748,88.8331 z" id="boundary" inkscape:connector-curvature="0" />
	<path style="fill:none;stroke:red;stroke-width:1px;stroke-linecap:butt;stroke-linejoin:miter;stroke-opacity:1" d="M 887.906,102.516 876.96,113.462 z" id="boundary" inkscape:connector-curvature="0" />
	<path style="fill:none;stroke:red;stroke-width:1px;stroke-linecap:butt;stroke-linejoin:miter;stroke-opacity:1" d="M 894.748,88.8331 905.694,79.2552 z" id="boundary" inkscape:connector-curvature="0" />
	<path style="fill:none;stroke:red;stroke-width:1px;stroke-linecap:butt;stroke-linejoin:miter;stroke-opacity:1" d="M 905.694,79.2552 911.167,65.5724 z" id="boundary" inkscape:connector-curvature="0" />
	<path style="fill:none;stroke:red;stroke-width:1px;stroke-linecap:butt;stroke-linejoin:miter;stroke-opacity:1" d="M 945.374,31.3655 959.057,31.3655 z" id="boundary" inkscape:connector-curvature="0" />
	<path style="fill:none;stroke:red;stroke-width:1px;stroke-linecap:butt;stroke-linejoin:miter;stroke-opacity:1" d="M 959.057,31.3655 971.371,24.5241 z" id="boundary" inkscape:connector-curvature="0" />
	<path style="fill:none;stroke:red;stroke-width:1px;stroke-linecap:butt;stroke-linejoin:miter;stroke-opacity:1" d="M 971.371,24.5241 985.054,24.5241 z" id="boundary" inkscape:connector-curvature="0" />
	<path style="fill:none;stroke:red;stroke-width:1px;stroke-linecap:butt;stroke-linejoin:miter;stroke-opacity:1" d="M 996,34.1021 987.79,50.5214 z" id="boundary" inkscape:connector-curvature="0" />
	<path style="fill:none;stroke:red;stroke-width:1px;stroke-linecap:butt;stroke-linejoin:miter;stroke-opacity:1" d="M 985.054,24.5241 996,34.1021 z" id="boundary" inkscape:connector-curvature="0" />
	<path style="fill:none;stroke:red;stroke-width:1px;stroke-linecap:butt;stroke-linejoin:miter;stroke-opacity:1" d="M 960.425,84.7283 970.003,73.7821 z" id="boundary" inkscape:connector-curvature="0" />
	<path style="fill:none;stroke:red;stroke-width:1px;stroke-linecap:butt;stroke-linejoin:miter;stroke-opacity:1" d="M 976.844,60.0993 987.79,50.5214 z" id="boundary" inkscape:connector-curvature="0" />
	<path style="fill:none;stroke:red;stroke-width:1px;stroke-linecap:butt;stroke-linejoin:miter;stroke-opacity:1" d="M 970.003,73.7821 976.844,60.0993 z" id="boundary" inkscape:connector-curvature="0" />
	<path style="fill:none;stroke:red;stroke-width:1px;stroke-linecap:butt;stroke-linejoin:miter;stroke-opacity:1" d="M 949.479,107.989 949.479,94.3062 z" id="boundary" inkscape:connector-curvature="0" />
	<path style="fill:none;stroke:red;stroke-width:1px;stroke-linecap:butt;stroke-linejoin:miter;stroke-opacity:1" d="M 837.28,154.51 846.858,143.564 z" id="boundary" inkscape:connector-curvature="0" />
	<path style="fill:none;stroke:red;stroke-width:1px;stroke-linecap:butt;stroke-linejoin:miter;stroke-opacity:1" d="M 857.804,133.986 846.858,143.564 z" id="boundary" inkscape:connector-curvature="0" />
	<path style="fill:none;stroke:red;stroke-width:1px;stroke-linecap:butt;stroke-linejoin:miter;stroke-opacity:1" d="M 857.804,133.986 870.119,127.145 z" id="boundary" inkscape:connector-curvature="0" />
	<path style="fill:none;stroke:red;stroke-width:1px;stroke-linecap:butt;stroke-linejoin:miter;stroke-opacity:1" d="M 876.96,113.462 870.119,127.145 z" id="boundary" inkscape:connector-curvature="0" />
	<path style="fill:none;stroke:red;stroke-width:1px;stroke-linecap:butt;stroke-linejoin:miter;stroke-opacity:1" d="M 824.966,161.352 837.28,154.51 z" id="boundary" inkscape:connector-curvature="0" />
	<path style="fill:none;stroke:red;stroke-width:1px;stroke-linecap:butt;stroke-linejoin:miter;stroke-opacity:1" d="M 863.277,209.241 876.96,202.4 z" id="boundary" inkscape:connector-curvature="0" />
	<path style="fill:none;stroke:red;stroke-width:1px;stroke-linecap:butt;stroke-linejoin:miter;stroke-opacity:1" d="M 887.906,190.086 876.96,202.4 z" id="boundary" inkscape:connector-curvature="0" />
	<path style="fill:none;stroke:red;stroke-width:1px;stroke-linecap:butt;stroke-linejoin:miter;stroke-opacity:1" d="M 926.218,146.301 928.954,128.513 z" id="boundary" inkscape:connector-curvature="0" />
	<path style="fill:none;stroke:red;stroke-width:1px;stroke-linecap:butt;stroke-linejoin:miter;stroke-opacity:1" d="M 928.954,128.513 939.901,118.935 z" id="boundary" inkscape:connector-curvature="0" />
	<path style="fill:none;stroke:red;stroke-width:1px;stroke-linecap:butt;stroke-linejoin:miter;stroke-opacity:1" d="M 926.218,146.301 915.272,155.879 z" id="boundary" inkscape:connector-curvature="0" />
	<path style="fill:none;stroke:red;stroke-width:1px;stroke-linecap:butt;stroke-linejoin:miter;stroke-opacity:1" d="M 939.901,118.935 949.479,107.989 z" id="boundary" inkscape:connector-curvature="0" />
	<path style="fill:none;stroke:red;stroke-width:1px;stroke-linecap:butt;stroke-linejoin:miter;stroke-opacity:1" d="M 887.906,190.086 894.748,176.403 z" id="boundary" inkscape:connector-curvature="0" />
	<path style="fill:none;stroke:red;stroke-width:1px;stroke-linecap:butt;stroke-linejoin:miter;stroke-opacity:1" d="M 894.748,176.403 908.43,169.561 z" id="boundary" inkscape:connector-curvature="0" />
	<path style="fill:none;stroke:red;stroke-width:1px;stroke-linecap:butt;stroke-linejoin:miter;stroke-opacity:1" d="M 908.43,169.561 915.272,155.879 z" id="boundary" inkscape:connector-curvature="0" />
	<path style="fill:none;stroke:red;stroke-width:1px;stroke-linecap:butt;stroke-linejoin:miter;stroke-opacity:1" d="M 863.277,209.241 849.594,216.083 z" id="boundary" inkscape:connector-curvature="0" />
	<path style="fill:none;stroke:red;stroke-width:1px;stroke-linecap:butt;stroke-linejoin:miter;stroke-opacity:1" d="M 435.007,450.058 428.166,437.743 z" id="boundary" inkscape:connector-curvature="0" />
	<path style="fill:none;stroke:red;stroke-width:1px;stroke-linecap:butt;stroke-linejoin:miter;stroke-opacity:1" d="M 428.166,437.743 428.166,424.061 z" id="boundary" inkscape:connector-curvature="0" />
	<path style="fill:none;stroke:red;stroke-width:1px;stroke-linecap:butt;stroke-linejoin:miter;stroke-opacity:1" d="M 443.217,461.004 435.007,450.058 z" id="boundary" inkscape:connector-curvature="0" />
	<path style="fill:none;stroke:red;stroke-width:1px;stroke-linecap:butt;stroke-linejoin:miter;stroke-opacity:1" d="M 443.217,461.004 454.163,470.582 z" id="boundary" inkscape:connector-curvature="0" />
	<path style="fill:none;stroke:red;stroke-width:1px;stroke-linecap:butt;stroke-linejoin:miter;stroke-opacity:1" d="M 473.319,530.786 461.004,537.628 z" id="boundary" inkscape:connector-curvature="0" />
	<path style="fill:none;stroke:red;stroke-width:1px;stroke-linecap:butt;stroke-linejoin:miter;stroke-opacity:1" d="M 454.163,470.582 466.477,477.423 z" id="boundary" inkscape:connector-curvature="0" />
	<path style="fill:none;stroke:red;stroke-width:1px;stroke-linecap:butt;stroke-linejoin:miter;stroke-opacity:1" d="M 435.007,548.574 421.324,555.415 z" id="boundary" inkscape:connector-curvature="0" />
	<path style="fill:none;stroke:red;stroke-width:1px;stroke-linecap:butt;stroke-linejoin:miter;stroke-opacity:1" d="M 480.16,482.897 466.477,477.423 z" id="boundary" inkscape:connector-curvature="0" />
	<path style="fill:none;stroke:red;stroke-width:1px;stroke-linecap:butt;stroke-linejoin:miter;stroke-opacity:1" d="M 461.004,537.628 448.69,544.469 z" id="boundary" inkscape:connector-curvature="0" />
	<path style="fill:none;stroke:red;stroke-width:1px;stroke-linecap:butt;stroke-linejoin:miter;stroke-opacity:1" d="M 480.16,482.897 492.474,489.738 z" id="boundary" inkscape:connector-curvature="0" />
	<path style="fill:none;stroke:red;stroke-width:1px;stroke-linecap:butt;stroke-linejoin:miter;stroke-opacity:1" d="M 586.886,402.168 586.886,381.644 z" id="boundary" inkscape:connector-curvature="0" />
	<path style="fill:none;stroke:red;stroke-width:1px;stroke-linecap:butt;stroke-linejoin:miter;stroke-opacity:1" d="M 495.211,510.262 492.474,489.738 z" id="boundary" inkscape:connector-curvature="0" />
	<path style="fill:none;stroke:red;stroke-width:1px;stroke-linecap:butt;stroke-linejoin:miter;stroke-opacity:1" d="M 473.319,530.786 484.265,519.84 z" id="boundary" inkscape:connector-curvature="0" />
	<path style="fill:none;stroke:red;stroke-width:1px;stroke-linecap:butt;stroke-linejoin:miter;stroke-opacity:1" d="M 484.265,519.84 495.211,510.262 z" id="boundary" inkscape:connector-curvature="0" />
	<path style="fill:none;stroke:red;stroke-width:1px;stroke-linecap:butt;stroke-linejoin:miter;stroke-opacity:1" d="M 593.727,518.472 586.886,532.154 z" id="boundary" inkscape:connector-curvature="0" />
	<path style="fill:none;stroke:red;stroke-width:1px;stroke-linecap:butt;stroke-linejoin:miter;stroke-opacity:1" d="M 586.886,402.168 589.622,415.851 z" id="boundary" inkscape:connector-curvature="0" />
	<path style="fill:none;stroke:red;stroke-width:1px;stroke-linecap:butt;stroke-linejoin:miter;stroke-opacity:1" d="M 421.324,569.098 428.166,581.412 z" id="boundary" inkscape:connector-curvature="0" />
	<path style="fill:none;stroke:red;stroke-width:1px;stroke-linecap:butt;stroke-linejoin:miter;stroke-opacity:1" d="M 441.848,586.886 428.166,581.412 z" id="boundary" inkscape:connector-curvature="0" />
	<path style="fill:none;stroke:red;stroke-width:1px;stroke-linecap:butt;stroke-linejoin:miter;stroke-opacity:1" d="M 448.69,544.469 435.007,548.574 z" id="boundary" inkscape:connector-curvature="0" />
	<path style="fill:none;stroke:red;stroke-width:1px;stroke-linecap:butt;stroke-linejoin:miter;stroke-opacity:1" d="M 455.531,586.886 441.848,586.886 z" id="boundary" inkscape:connector-curvature="0" />
	<path style="fill:none;stroke:red;stroke-width:1px;stroke-linecap:butt;stroke-linejoin:miter;stroke-opacity:1" d="M 482.897,586.886 469.214,586.886 z" id="boundary" inkscape:connector-curvature="0" />
	<path style="fill:none;stroke:red;stroke-width:1px;stroke-linecap:butt;stroke-linejoin:miter;stroke-opacity:1" d="M 469.214,586.886 455.531,586.886 z" id="boundary" inkscape:connector-curvature="0" />
	<path style="fill:none;stroke:red;stroke-width:1px;stroke-linecap:butt;stroke-linejoin:miter;stroke-opacity:1" d="M 504.789,566.361 517.103,559.52 z" id="boundary" inkscape:connector-curvature="0" />
	<path style="fill:none;stroke:red;stroke-width:1px;stroke-linecap:butt;stroke-linejoin:miter;stroke-opacity:1" d="M 517.103,559.52 529.418,566.361 z" id="boundary" inkscape:connector-curvature="0" />
	<path style="fill:none;stroke:red;stroke-width:1px;stroke-linecap:butt;stroke-linejoin:miter;stroke-opacity:1" d="M 543.101,566.361 529.418,566.361 z" id="boundary" inkscape:connector-curvature="0" />
	<path style="fill:none;stroke:red;stroke-width:1px;stroke-linecap:butt;stroke-linejoin:miter;stroke-opacity:1" d="M 496.579,582.781 504.789,566.361 z" id="boundary" inkscape:connector-curvature="0" />
	<path style="fill:none;stroke:red;stroke-width:1px;stroke-linecap:butt;stroke-linejoin:miter;stroke-opacity:1" d="M 543.101,566.361 555.415,573.203 z" id="boundary" inkscape:connector-curvature="0" />
	<path style="fill:none;stroke:red;stroke-width:1px;stroke-linecap:butt;stroke-linejoin:miter;stroke-opacity:1" d="M 567.73,566.361 555.415,573.203 z" id="boundary" inkscape:connector-curvature="0" />
	<path style="fill:none;stroke:red;stroke-width:1px;stroke-linecap:butt;stroke-linejoin:miter;stroke-opacity:1" d="M 578.676,555.415 567.73,566.361 z" id="boundary" inkscape:connector-curvature="0" />
	<path style="fill:none;stroke:red;stroke-width:1px;stroke-linecap:butt;stroke-linejoin:miter;stroke-opacity:1" d="M 482.897,586.886 496.579,582.781 z" id="boundary" inkscape:connector-curvature="0" />
	<path style="fill:none;stroke:red;stroke-width:1px;stroke-linecap:butt;stroke-linejoin:miter;stroke-opacity:1" d="M 586.886,532.154 578.676,555.415 z" id="boundary" inkscape:connector-curvature="0" />
	<path style="fill:none;stroke:red;stroke-width:1px;stroke-linecap:butt;stroke-linejoin:miter;stroke-opacity:1" d="M 707.294,265.341 719.608,258.499 z" id="boundary" inkscape:connector-curvature="0" />
	<path style="fill:none;stroke:red;stroke-width:1px;stroke-linecap:butt;stroke-linejoin:miter;stroke-opacity:1" d="M 719.608,258.499 733.291,258.499 z" id="boundary" inkscape:connector-curvature="0" />
	<path style="fill:none;stroke:red;stroke-width:1px;stroke-linecap:butt;stroke-linejoin:miter;stroke-opacity:1" d="M 707.294,265.341 694.979,272.182 z" id="boundary" inkscape:connector-curvature="0" />
	<path style="fill:none;stroke:red;stroke-width:1px;stroke-linecap:butt;stroke-linejoin:miter;stroke-opacity:1" d="M 746.974,257.131 733.291,258.499 z" id="boundary" inkscape:connector-curvature="0" />
	<path style="fill:none;stroke:red;stroke-width:1px;stroke-linecap:butt;stroke-linejoin:miter;stroke-opacity:1" d="M 655.299,285.865 667.614,279.023 z" id="boundary" inkscape:connector-curvature="0" />
	<path style="fill:none;stroke:red;stroke-width:1px;stroke-linecap:butt;stroke-linejoin:miter;stroke-opacity:1" d="M 667.614,279.023 681.297,274.919 z" id="boundary" inkscape:connector-curvature="0" />
	<path style="fill:none;stroke:red;stroke-width:1px;stroke-linecap:butt;stroke-linejoin:miter;stroke-opacity:1" d="M 694.979,272.182 681.297,274.919 z" id="boundary" inkscape:connector-curvature="0" />
	<path style="fill:none;stroke:red;stroke-width:1px;stroke-linecap:butt;stroke-linejoin:miter;stroke-opacity:1" d="M 798.968,237.975 811.283,231.134 z" id="boundary" inkscape:connector-curvature="0" />
	<path style="fill:none;stroke:red;stroke-width:1px;stroke-linecap:butt;stroke-linejoin:miter;stroke-opacity:1" d="M 811.283,231.134 824.966,227.029 z" id="boundary" inkscape:connector-curvature="0" />
	<path style="fill:none;stroke:red;stroke-width:1px;stroke-linecap:butt;stroke-linejoin:miter;stroke-opacity:1" d="M 838.648,224.292 849.594,216.083 z" id="boundary" inkscape:connector-curvature="0" />
	<path style="fill:none;stroke:red;stroke-width:1px;stroke-linecap:butt;stroke-linejoin:miter;stroke-opacity:1" d="M 838.648,224.292 824.966,227.029 z" id="boundary" inkscape:connector-curvature="0" />
	<path style="fill:none;stroke:red;stroke-width:1px;stroke-linecap:butt;stroke-linejoin:miter;stroke-opacity:1" d="M 772.971,244.817 760.657,251.658 z" id="boundary" inkscape:connector-curvature="0" />
	<path style="fill:none;stroke:red;stroke-width:1px;stroke-linecap:butt;stroke-linejoin:miter;stroke-opacity:1" d="M 772.971,244.817 786.654,244.817 z" id="boundary" inkscape:connector-curvature="0" />
	<path style="fill:none;stroke:red;stroke-width:1px;stroke-linecap:butt;stroke-linejoin:miter;stroke-opacity:1" d="M 760.657,251.658 746.974,257.131 z" id="boundary" inkscape:connector-curvature="0" />
	<path style="fill:none;stroke:red;stroke-width:1px;stroke-linecap:butt;stroke-linejoin:miter;stroke-opacity:1" d="M 786.654,244.817 798.968,237.975 z" id="boundary" inkscape:connector-curvature="0" />
	<path style="fill:none;stroke:red;stroke-width:1px;stroke-linecap:butt;stroke-linejoin:miter;stroke-opacity:1" d="M 586.886,381.644 593.727,361.12 z" id="boundary" inkscape:connector-curvature="0" />
	<path style="fill:none;stroke:red;stroke-width:1px;stroke-linecap:butt;stroke-linejoin:miter;stroke-opacity:1" d="M 593.727,361.12 593.727,347.437 z" id="boundary" inkscape:connector-curvature="0" />
	<path style="fill:none;stroke:red;stroke-width:1px;stroke-linecap:butt;stroke-linejoin:miter;stroke-opacity:1" d="M 593.727,347.437 604.673,337.859 z" id="boundary" inkscape:connector-curvature="0" />
	<path style="fill:none;stroke:red;stroke-width:1px;stroke-linecap:butt;stroke-linejoin:miter;stroke-opacity:1" d="M 607.41,320.072 604.673,337.859 z" id="boundary" inkscape:connector-curvature="0" />
	<path style="fill:none;stroke:red;stroke-width:1px;stroke-linecap:butt;stroke-linejoin:miter;stroke-opacity:1" d="M 615.619,428.166 603.305,421.324 z" id="boundary" inkscape:connector-curvature="0" />
	<path style="fill:none;stroke:red;stroke-width:1px;stroke-linecap:butt;stroke-linejoin:miter;stroke-opacity:1" d="M 600.568,497.948 593.727,518.472 z" id="boundary" inkscape:connector-curvature="0" />
	<path style="fill:none;stroke:red;stroke-width:1px;stroke-linecap:butt;stroke-linejoin:miter;stroke-opacity:1" d="M 589.622,415.851 603.305,421.324 z" id="boundary" inkscape:connector-curvature="0" />
	<path style="fill:none;stroke:red;stroke-width:1px;stroke-linecap:butt;stroke-linejoin:miter;stroke-opacity:1" d="M 600.568,497.948 611.514,488.37 z" id="boundary" inkscape:connector-curvature="0" />
	<path style="fill:none;stroke:red;stroke-width:1px;stroke-linecap:butt;stroke-linejoin:miter;stroke-opacity:1" d="M 641.617,292.706 655.299,285.865 z" id="boundary" inkscape:connector-curvature="0" />
	<path style="fill:none;stroke:red;stroke-width:1px;stroke-linecap:butt;stroke-linejoin:miter;stroke-opacity:1" d="M 627.934,292.706 641.617,292.706 z" id="boundary" inkscape:connector-curvature="0" />
	<path style="fill:none;stroke:red;stroke-width:1px;stroke-linecap:butt;stroke-linejoin:miter;stroke-opacity:1" d="M 627.934,292.706 614.251,299.548 z" id="boundary" inkscape:connector-curvature="0" />
	<path style="fill:none;stroke:red;stroke-width:1px;stroke-linecap:butt;stroke-linejoin:miter;stroke-opacity:1" d="M 626.566,437.743 615.619,428.166 z" id="boundary" inkscape:connector-curvature="0" />
	<path style="fill:none;stroke:red;stroke-width:1px;stroke-linecap:butt;stroke-linejoin:miter;stroke-opacity:1" d="M 618.356,474.687 625.197,461.004 z" id="boundary" inkscape:connector-curvature="0" />
	<path style="fill:none;stroke:red;stroke-width:1px;stroke-linecap:butt;stroke-linejoin:miter;stroke-opacity:1" d="M 618.356,474.687 611.514,488.37 z" id="boundary" inkscape:connector-curvature="0" />
	<path style="fill:none;stroke:red;stroke-width:1px;stroke-linecap:butt;stroke-linejoin:miter;stroke-opacity:1" d="M 626.566,437.743 625.197,461.004 z" id="boundary" inkscape:connector-curvature="0" />
	<path style="fill:none;stroke:red;stroke-width:1px;stroke-linecap:butt;stroke-linejoin:miter;stroke-opacity:1" d="M 607.41,320.072 614.251,299.548 z" id="boundary" inkscape:connector-curvature="0" />
	<circle cx="4" cy="110.726" r="4" fill="#0" id="circle0"/>
	<circle cx="4" cy="124.408" r="4" fill="#0" id="circle1"/>
	<circle cx="4" cy="138.091" r="4" fill="#0" id="circle2"/>
	<circle cx="4" cy="151.774" r="4" fill="#0" id="circle3"/>
	<circle cx="10.8414" cy="164.088" r="4" fill="#0" id="circle4"/>
	<circle cx="14.9462" cy="99.7793" r="4" fill="#0" id="circle5"/>
	<circle cx="20.4193" cy="175.034" r="4" fill="#0" id="circle6"/>
	<circle cx="27.2607" cy="92.9379" r="4" fill="#0" id="circle7"/>
	<circle cx="31.3655" cy="183.244" r="4" fill="#0" id="circle8"/>
	<circle cx="31.3655" cy="196.927" r="4" fill="#0" id="circle9"/>
	<circle cx="31.3655" cy="210.61" r="4" fill="#0" id="circle10"/>
	<circle cx="31.3655" cy="224.292" r="4" fill="#0" id="circle11"/>
	<circle cx="31.3655" cy="295.443" r="4" fill="#0" id="circle12"/>
	<circle cx="35.4703" cy="237.975" r="4" fill="#0" id="circle13"/>
	<circle cx="38.2069" cy="274.919" r="4" fill="#0" id="circle14"/>
	<circle cx="38.2069" cy="307.757" r="4" fill="#0" id="circle15"/>
	<circle cx="38.2069" cy="321.44" r="4" fill="#0" id="circle16"/>
	<circle cx="40.9434" cy="87.4648" r="4" fill="#0" id="circle17"/>
	<circle cx="45.0483" cy="261.236" r="4" fill="#0" id="circle18"/>
	<circle cx="45.0483" cy="333.754" r="4" fill="#0" id="circle19"/>
	<circle cx="49.1531" cy="243.448" r="4" fill="#0" id="circle20"/>
	<circle cx="51.8897" cy="76.5186" r="4" fill="#0" id="circle21"/>
	<circle cx="53.2579" cy="344.701" r="4" fill="#0" id="circle22"/>
	<circle cx="62.8359" cy="65.5724" r="4" fill="#0" id="circle23"/>
	<circle cx="64.2041" cy="354.279" r="4" fill="#0" id="circle24"/>
	<circle cx="73.7821" cy="54.6262" r="4" fill="#0" id="circle25"/>
	<circle cx="73.7821" cy="365.225" r="4" fill="#0" id="circle26"/>
	<circle cx="79.2552" cy="555.415" r="4" fill="#0" id="circle27"/>
	<circle cx="79.2552" cy="569.098" r="4" fill="#0" id="circle28"/>
	<circle cx="84.7283" cy="374.803" r="4" fill="#0" id="circle29"/>
	<circle cx="87.4648" cy="51.8897" r="4" fill="#0" id="circle30"/>
	<circle cx="90.2014" cy="544.469" r="4" fill="#0" id="circle31"/>
	<circle cx="92.9379" cy="385.749" r="4" fill="#0" id="circle32"/>
	<circle cx="92.9379" cy="573.203" r="4" fill="#0" id="circle33"/>
	<circle cx="99.7793" cy="42.3117" r="4" fill="#0" id="circle34"/>
	<circle cx="99.7793" cy="398.063" r="4" fill="#0" id="circle35"/>
	<circle cx="99.7793" cy="411.746" r="4" fill="#0" id="circle36"/>
	<circle cx="102.516" cy="537.628" r="4" fill="#0" id="circle37"/>
	<circle cx="106.621" cy="21.7876" r="4" fill="#0" id="circle38"/>
	<circle cx="106.621" cy="473.319" r="4" fill="#0" id="circle39"/>
	<circle cx="106.621" cy="487.001" r="4" fill="#0" id="circle40"/>
	<circle cx="106.621" cy="500.684" r="4" fill="#0" id="circle41"/>
	<circle cx="106.621" cy="514.367" r="4" fill="#0" id="circle42"/>
	<circle cx="106.621" cy="573.203" r="4" fill="#0" id="circle43"/>
	<circle cx="110.726" cy="421.324" r="4" fill="#0" id="circle44"/>
	<circle cx="113.462" cy="8.10483" r="4" fill="#0" id="circle45"/>
	<circle cx="113.462" cy="435.007" r="4" fill="#0" id="circle46"/>
	<circle cx="113.462" cy="459.636" r="4" fill="#0" id="circle47"/>
	<circle cx="120.303" cy="447.321" r="4" fill="#0" id="circle48"/>
	<circle cx="120.303" cy="573.203" r="4" fill="#0" id="circle49"/>
	<circle cx="127.145" cy="4" r="4" fill="#0" id="circle50"/>
	<circle cx="133.986" cy="573.203" r="4" fill="#0" id="circle51"/>
	<circle cx="135.354" cy="14.9462" r="4" fill="#0" id="circle52"/>
	<circle cx="140.828" cy="28.629" r="4" fill="#0" id="circle53"/>
	<circle cx="147.669" cy="573.203" r="4" fill="#0" id="circle54"/>
	<circle cx="149.037" cy="39.5752" r="4" fill="#0" id="circle55"/>
	<circle cx="151.774" cy="53.2579" r="4" fill="#0" id="circle56"/>
	<circle cx="155.879" cy="552.679" r="4" fill="#0" id="circle57"/>
	<circle cx="165.457" cy="58.731" r="4" fill="#0" id="circle58"/>
	<circle cx="169.561" cy="525.313" r="4" fill="#0" id="circle59"/>
	<circle cx="169.561" cy="545.837" r="4" fill="#0" id="circle60"/>
	<circle cx="175.034" cy="562.257" r="4" fill="#0" id="circle61"/>
	<circle cx="176.403" cy="477.423" r="4" fill="#0" id="circle62"/>
	<circle cx="176.403" cy="491.106" r="4" fill="#0" id="circle63"/>
	<circle cx="176.403" cy="504.789" r="4" fill="#0" id="circle64"/>
	<circle cx="179.139" cy="58.731" r="4" fill="#0" id="circle65"/>
	<circle cx="183.244" cy="72.4138" r="4" fill="#0" id="circle66"/>
	<circle cx="183.244" cy="456.899" r="4" fill="#0" id="circle67"/>
	<circle cx="183.244" cy="573.203" r="4" fill="#0" id="circle68"/>
	<circle cx="185.981" cy="551.31" r="4" fill="#0" id="circle69"/>
	<circle cx="194.19" cy="80.6234" r="4" fill="#0" id="circle70"/>
	<circle cx="196.927" cy="456.899" r="4" fill="#0" id="circle71"/>
	<circle cx="196.927" cy="573.203" r="4" fill="#0" id="circle72"/>
	<circle cx="198.295" cy="544.469" r="4" fill="#0" id="circle73"/>
	<circle cx="203.768" cy="91.5697" r="4" fill="#0" id="circle74"/>
	<circle cx="209.241" cy="463.741" r="4" fill="#0" id="circle75"/>
	<circle cx="209.241" cy="493.843" r="4" fill="#0" id="circle76"/>
	<circle cx="209.241" cy="507.526" r="4" fill="#0" id="circle77"/>
	<circle cx="209.241" cy="521.208" r="4" fill="#0" id="circle78"/>
	<circle cx="209.241" cy="534.891" r="4" fill="#0" id="circle79"/>
	<circle cx="210.61" cy="103.884" r="4" fill="#0" id="circle80"/>
	<circle cx="210.61" cy="117.567" r="4" fill="#0" id="circle81"/>
	<circle cx="210.61" cy="131.25" r="4" fill="#0" id="circle82"/>
	<circle cx="210.61" cy="573.203" r="4" fill="#0" id="circle83"/>
	<circle cx="216.083" cy="144.932" r="4" fill="#0" id="circle84"/>
	<circle cx="216.083" cy="476.055" r="4" fill="#0" id="circle85"/>
	<circle cx="217.451" cy="158.615" r="4" fill="#0" id="circle86"/>
	<circle cx="222.924" cy="172.298" r="4" fill="#0" id="circle87"/>
	<circle cx="224.292" cy="573.203" r="4" fill="#0" id="circle88"/>
	<circle cx="229.766" cy="184.612" r="4" fill="#0" id="circle89"/>
	<circle cx="237.975" cy="573.203" r="4" fill="#0" id="circle90"/>
	<circle cx="243.448" cy="188.717" r="4" fill="#0" id="circle91"/>
	<circle cx="251.658" cy="575.939" r="4" fill="#0" id="circle92"/>
	<circle cx="257.131" cy="191.454" r="4" fill="#0" id="circle93"/>
	<circle cx="261.236" cy="564.993" r="4" fill="#0" id="circle94"/>
	<circle cx="265.341" cy="525.313" r="4" fill="#0" id="circle95"/>
	<circle cx="265.341" cy="538.996" r="4" fill="#0" id="circle96"/>
	<circle cx="269.446" cy="198.295" r="4" fill="#0" id="circle97"/>
	<circle cx="272.182" cy="511.63" r="4" fill="#0" id="circle98"/>
	<circle cx="279.023" cy="484.265" r="4" fill="#0" id="circle99"/>
	<circle cx="279.023" cy="497.948" r="4" fill="#0" id="circle100"/>
	<circle cx="283.128" cy="202.4" r="4" fill="#0" id="circle101"/>
	<circle cx="285.865" cy="470.582" r="4" fill="#0" id="circle102"/>
	<circle cx="295.443" cy="195.559" r="4" fill="#0" id="circle103"/>
	<circle cx="296.811" cy="461.004" r="4" fill="#0" id="circle104"/>
	<circle cx="305.021" cy="450.058" r="4" fill="#0" id="circle105"/>
	<circle cx="309.126" cy="195.559" r="4" fill="#0" id="circle106"/>
	<circle cx="317.335" cy="456.899" r="4" fill="#0" id="circle107"/>
	<circle cx="321.44" cy="188.717" r="4" fill="#0" id="circle108"/>
	<circle cx="331.018" cy="456.899" r="4" fill="#0" id="circle109"/>
	<circle cx="335.123" cy="188.717" r="4" fill="#0" id="circle110"/>
	<circle cx="343.332" cy="450.058" r="4" fill="#0" id="circle111"/>
	<circle cx="348.806" cy="188.717" r="4" fill="#0" id="circle112"/>
	<circle cx="355.647" cy="443.217" r="4" fill="#0" id="circle113"/>
	<circle cx="361.12" cy="181.876" r="4" fill="#0" id="circle114"/>
	<circle cx="367.961" cy="436.375" r="4" fill="#0" id="circle115"/>
	<circle cx="373.434" cy="175.034" r="4" fill="#0" id="circle116"/>
	<circle cx="381.644" cy="429.534" r="4" fill="#0" id="circle117"/>
	<circle cx="387.117" cy="175.034" r="4" fill="#0" id="circle118"/>
	<circle cx="395.327" cy="429.534" r="4" fill="#0" id="circle119"/>
	<circle cx="400.8" cy="175.034" r="4" fill="#0" id="circle120"/>
	<circle cx="406.273" cy="419.956" r="4" fill="#0" id="circle121"/>
	<circle cx="413.114" cy="168.193" r="4" fill="#0" id="circle122"/>
	<circle cx="419.956" cy="413.114" r="4" fill="#0" id="circle123"/>
	<circle cx="421.324" cy="555.415" r="4" fill="#0" id="circle124"/>
	<circle cx="421.324" cy="569.098" r="4" fill="#0" id="circle125"/>
	<circle cx="426.797" cy="168.193" r="4" fill="#0" id="circle126"/>
	<circle cx="428.166" cy="424.061" r="4" fill="#0" id="circle127"/>
	<circle cx="428.166" cy="437.743" r="4" fill="#0" id="circle128"/>
	<circle cx="428.166" cy="581.412" r="4" fill="#0" id="circle129"/>
	<circle cx="435.007" cy="450.058" r="4" fill="#0" id="circle130"/>
	<circle cx="435.007" cy="548.574" r="4" fill="#0" id="circle131"/>
	<circle cx="439.112" cy="161.352" r="4" fill="#0" id="circle132"/>
	<circle cx="441.848" cy="586.886" r="4" fill="#0" id="circle133"/>
	<circle cx="443.217" cy="461.004" r="4" fill="#0" id="circle134"/>
	<circle cx="448.69" cy="544.469" r="4" fill="#0" id="circle135"/>
	<circle cx="452.794" cy="161.352" r="4" fill="#0" id="circle136"/>
	<circle cx="454.163" cy="470.582" r="4" fill="#0" id="circle137"/>
	<circle cx="455.531" cy="586.886" r="4" fill="#0" id="circle138"/>
	<circle cx="461.004" cy="537.628" r="4" fill="#0" id="circle139"/>
	<circle cx="466.477" cy="161.352" r="4" fill="#0" id="circle140"/>
	<circle cx="466.477" cy="477.423" r="4" fill="#0" id="circle141"/>
	<circle cx="469.214" cy="586.886" r="4" fill="#0" id="circle142"/>
	<circle cx="473.319" cy="530.786" r="4" fill="#0" id="circle143"/>
	<circle cx="478.792" cy="154.51" r="4" fill="#0" id="circle144"/>
	<circle cx="480.16" cy="482.897" r="4" fill="#0" id="circle145"/>
	<circle cx="482.897" cy="586.886" r="4" fill="#0" id="circle146"/>
	<circle cx="484.265" cy="519.84" r="4" fill="#0" id="circle147"/>
	<circle cx="491.106" cy="161.352" r="4" fill="#0" id="circle148"/>
	<circle cx="492.474" cy="489.738" r="4" fill="#0" id="circle149"/>
	<circle cx="495.211" cy="510.262" r="4" fill="#0" id="circle150"/>
	<circle cx="496.579" cy="582.781" r="4" fill="#0" id="circle151"/>
	<circle cx="503.421" cy="154.51" r="4" fill="#0" id="circle152"/>
	<circle cx="504.789" cy="566.361" r="4" fill="#0" id="circle153"/>
	<circle cx="515.735" cy="161.352" r="4" fill="#0" id="circle154"/>
	<circle cx="517.103" cy="559.52" r="4" fill="#0" id="circle155"/>
	<circle cx="529.418" cy="161.352" r="4" fill="#0" id="circle156"/>
	<circle cx="529.418" cy="566.361" r="4" fill="#0" id="circle157"/>
	<circle cx="541.732" cy="168.193" r="4" fill="#0" id="circle158"/>
	<circle cx="543.101" cy="566.361" r="4" fill="#0" id="circle159"/>
	<circle cx="555.415" cy="168.193" r="4" fill="#0" id="circle160"/>
	<circle cx="555.415" cy="573.203" r="4" fill="#0" id="circle161"/>
	<circle cx="567.73" cy="175.034" r="4" fill="#0" id="circle162"/>
	<circle cx="567.73" cy="566.361" r="4" fill="#0" id="circle163"/>
	<circle cx="578.676" cy="555.415" r="4" fill="#0" id="circle164"/>
	<circle cx="580.044" cy="181.876" r="4" fill="#0" id="circle165"/>
	<circle cx="586.886" cy="381.644" r="4" fill="#0" id="circle166"/>
	<circle cx="586.886" cy="402.168" r="4" fill="#0" id="circle167"/>
	<circle cx="586.886" cy="532.154" r="4" fill="#0" id="circle168"/>
	<circle cx="589.622" cy="415.851" r="4" fill="#0" id="circle169"/>
	<circle cx="593.727" cy="185.981" r="4" fill="#0" id="circle170"/>
	<circle cx="593.727" cy="347.437" r="4" fill="#0" id="circle171"/>
	<circle cx="593.727" cy="361.12" r="4" fill="#0" id="circle172"/>
	<circle cx="593.727" cy="518.472" r="4" fill="#0" id="circle173"/>
	<circle cx="600.568" cy="497.948" r="4" fill="#0" id="circle174"/>
	<circle cx="603.305" cy="421.324" r="4" fill="#0" id="circle175"/>
	<circle cx="604.673" cy="195.559" r="4" fill="#0" id="circle176"/>
	<circle cx="604.673" cy="337.859" r="4" fill="#0" id="circle177"/>
	<circle cx="607.41" cy="320.072" r="4" fill="#0" id="circle178"/>
	<circle cx="611.514" cy="488.37" r="4" fill="#0" id="circle179"/>
	<circle cx="614.251" cy="299.548" r="4" fill="#0" id="circle180"/>
	<circle cx="615.619" cy="428.166" r="4" fill="#0" id="circle181"/>
	<circle cx="618.356" cy="196.927" r="4" fill="#0" id="circle182"/>
	<circle cx="618.356" cy="474.687" r="4" fill="#0" id="circle183"/>
	<circle cx="625.197" cy="461.004" r="4" fill="#0" id="circle184"/>
	<circle cx="626.566" cy="437.743" r="4" fill="#0" id="circle185"/>
	<circle cx="627.934" cy="207.873" r="4" fill="#0" id="circle186"/>
	<circle cx="627.934" cy="292.706" r="4" fill="#0" id="circle187"/>
	<circle cx="641.617" cy="209.241" r="4" fill="#0" id="circle188"/>
	<circle cx="641.617" cy="292.706" r="4" fill="#0" id="circle189"/>
	<circle cx="653.931" cy="216.083" r="4" fill="#0" id="circle190"/>
	<circle cx="655.299" cy="285.865" r="4" fill="#0" id="circle191"/>
	<circle cx="666.246" cy="209.241" r="4" fill="#0" id="circle192"/>
	<circle cx="667.614" cy="279.023" r="4" fill="#0" id="circle193"/>
	<circle cx="679.928" cy="209.241" r="4" fill="#0" id="circle194"/>
	<circle cx="681.297" cy="274.919" r="4" fill="#0" id="circle195"/>
	<circle cx="692.243" cy="202.4" r="4" fill="#0" id="circle196"/>
	<circle cx="694.979" cy="272.182" r="4" fill="#0" id="circle197"/>
	<circle cx="705.926" cy="202.4" r="4" fill="#0" id="circle198"/>
	<circle cx="707.294" cy="265.341" r="4" fill="#0" id="circle199"/>
	<circle cx="718.24" cy="195.559" r="4" fill="#0" id="circle200"/>
	<circle cx="719.608" cy="258.499" r="4" fill="#0" id="circle201"/>
	<circle cx="731.923" cy="195.559" r="4" fill="#0" id="circle202"/>
	<circle cx="733.291" cy="258.499" r="4" fill="#0" id="circle203"/>
	<circle cx="744.237" cy="188.717" r="4" fill="#0" id="circle204"/>
	<circle cx="746.974" cy="257.131" r="4" fill="#0" id="circle205"/>
	<circle cx="757.92" cy="188.717" r="4" fill="#0" id="circle206"/>
	<circle cx="760.657" cy="251.658" r="4" fill="#0" id="circle207"/>
	<circle cx="771.603" cy="184.612" r="4" fill="#0" id="circle208"/>
	<circle cx="772.971" cy="244.817" r="4" fill="#0" id="circle209"/>
	<circle cx="785.286" cy="177.771" r="4" fill="#0" id="circle210"/>
	<circle cx="786.654" cy="244.817" r="4" fill="#0" id="circle211"/>
	<circle cx="798.968" cy="170.93" r="4" fill="#0" id="circle212"/>
	<circle cx="798.968" cy="237.975" r="4" fill="#0" id="circle213"/>
	<circle cx="811.283" cy="231.134" r="4" fill="#0" id="circle214"/>
	<circle cx="812.651" cy="168.193" r="4" fill="#0" id="circle215"/>
	<circle cx="824.966" cy="161.352" r="4" fill="#0" id="circle216"/>
	<circle cx="824.966" cy="227.029" r="4" fill="#0" id="circle217"/>
	<circle cx="837.28" cy="154.51" r="4" fill="#0" id="circle218"/>
	<circle cx="838.648" cy="224.292" r="4" fill="#0" id="circle219"/>
	<circle cx="846.858" cy="143.564" r="4" fill="#0" id="circle220"/>
	<circle cx="849.594" cy="216.083" r="4" fill="#0" id="circle221"/>
	<circle cx="857.804" cy="133.986" r="4" fill="#0" id="circle222"/>
	<circle cx="863.277" cy="209.241" r="4" fill="#0" id="circle223"/>
	<circle cx="870.119" cy="127.145" r="4" fill="#0" id="circle224"/>
	<circle cx="876.96" cy="113.462" r="4" fill="#0" id="circle225"/>
	<circle cx="876.96" cy="202.4" r="4" fill="#0" id="circle226"/>
	<circle cx="887.906" cy="102.516" r="4" fill="#0" id="circle227"/>
	<circle cx="887.906" cy="190.086" r="4" fill="#0" id="circle228"/>
	<circle cx="894.748" cy="88.8331" r="4" fill="#0" id="circle229"/>
	<circle cx="894.748" cy="176.403" r="4" fill="#0" id="circle230"/>
	<circle cx="905.694" cy="79.2552" r="4" fill="#0" id="circle231"/>
	<circle cx="908.43" cy="169.561" r="4" fill="#0" id="circle232"/>
	<circle cx="911.167" cy="65.5724" r="4" fill="#0" id="circle233"/>
	<circle cx="915.272" cy="155.879" r="4" fill="#0" id="circle234"/>
	<circle cx="920.745" cy="49.1531" r="4" fill="#0" id="circle235"/>
	<circle cx="926.218" cy="146.301" r="4" fill="#0" id="circle236"/>
	<circle cx="928.954" cy="128.513" r="4" fill="#0" id="circle237"/>
	<circle cx="934.428" cy="42.3117" r="4" fill="#0" id="circle238"/>
	<circle cx="939.901" cy="118.935" r="4" fill="#0" id="circle239"/>
	<circle cx="945.374" cy="31.3655" r="4" fill="#0" id="circle240"/>
	<circle cx="949.479" cy="94.3062" r="4" fill="#0" id="circle241"/>
	<circle cx="949.479" cy="107.989" r="4" fill="#0" id="circle242"/>
	<circle cx="959.057" cy="31.3655" r="4" fill="#0" id="circle243"/>
	<circle cx="960.425" cy="84.7283" r="4" fill="#0" id="circle244"/>
	<circle cx="970.003" cy="73.7821" r="4" fill="#0" id="circle245"/>
	<circle cx="971.371" cy="24.5241" r="4" fill="#0" id="circle246"/>
	<circle cx="976.844" cy="60.0993" r="4" fill="#0" id="circle247"/>
	<circle cx="985.054" cy="24.5241" r="4" fill="#0" id="circle248"/>
	<circle cx="987.79" cy="50.5214" r="4" fill="#0" id="circle249"/>
	<circle cx="996" cy="34.1021" r="4" fill="#0" id="circle250"/>
	</g>
</svg>