<?xml version="1.0" encoding="UTF-8" standalone="no"?>
<!-- Created with CurveBenchmark -->
<svg
	xmlns:dc="http://purl.org/dc/elements/1.1/"
	xmlns:cc="http://creativecommons.org/ns#"
	xmlns:rdf="http://www.w3.org/1999/02/22-rdf-syntax-ns#"
	xmlns:svg="http://www.w3.org/2000/svg"
	xmlns="http://www.w3.org/2000/svg"
	xmlns:sodipodi="http://sodipodi.sourceforge.net/DTD/sodipodi-0.dtd"
	xmlns:inkscape="http://www.inkscape.org/namespaces/inkscape"
	width="1000"
	height="1000"
	id="svg2"
	version="1.1"
	sodipodi:docname="manifold/nncrust-stef-18.png.txt">
<defs
	id="defs4" />
<metadata
	id="metadata7">
	<rdf:RDF>
		<cc:Work
			rdf:about="">
			<dc:format>image/svg+xml</dc:format>
			<dc:type
				rdf:resource="http://purl.org/dc/dcmitype/StillImage" />
			<dc:title></dc:title>
		</cc:Work>
	</rdf:RDF>
</metadata>
<g
	inkscape:label="Layer 1"
	inkscape:groupmode="layer"
	id="layer1">
	<path style="fill:none;stroke:red;stroke-width:1px;stroke-linecap:butt;stroke-linejoin:miter;stroke-opacity:1" d="M 92.4883,15.6432 113.446,4 z" id="boundary" inkscape:connector-curvature="0" />
	<path style="fill:none;stroke:red;stroke-width:1px;stroke-linecap:butt;stroke-linejoin:miter;stroke-opacity:1" d="M 73.8592,34.2723 92.4883,15.6432 z" id="boundary" inkscape:connector-curvature="0" />
	<path style="fill:none;stroke:red;stroke-width:1px;stroke-linecap:butt;stroke-linejoin:miter;stroke-opacity:1" d="M 73.8592,57.5587 73.8592,34.2723 z" id="boundary" inkscape:connector-curvature="0" />
	<path style="fill:none;stroke:red;stroke-width:1px;stroke-linecap:butt;stroke-linejoin:miter;stroke-opacity:1" d="M 113.446,4 136.732,4 z" id="boundary" inkscape:connector-curvature="0" />
	<path style="fill:none;stroke:red;stroke-width:1px;stroke-linecap:butt;stroke-linejoin:miter;stroke-opacity:1" d="M 160.019,4 183.305,4 z" id="boundary" inkscape:connector-curvature="0" />
	<path style="fill:none;stroke:red;stroke-width:1px;stroke-linecap:butt;stroke-linejoin:miter;stroke-opacity:1" d="M 183.305,4 204.263,15.6432 z" id="boundary" inkscape:connector-curvature="0" />
	<path style="fill:none;stroke:red;stroke-width:1px;stroke-linecap:butt;stroke-linejoin:miter;stroke-opacity:1" d="M 204.263,15.6432 222.892,29.615 z" id="boundary" inkscape:connector-curvature="0" />
	<path style="fill:none;stroke:red;stroke-width:1px;stroke-linecap:butt;stroke-linejoin:miter;stroke-opacity:1" d="M 239.192,48.2441 222.892,29.615 z" id="boundary" inkscape:connector-curvature="0" />
	<path style="fill:none;stroke:red;stroke-width:1px;stroke-linecap:butt;stroke-linejoin:miter;stroke-opacity:1" d="M 136.732,4 160.019,4 z" id="boundary" inkscape:connector-curvature="0" />
	<path style="fill:none;stroke:red;stroke-width:1px;stroke-linecap:butt;stroke-linejoin:miter;stroke-opacity:1" d="M 85.5023,78.5164 108.789,87.831 z" id="boundary" inkscape:connector-curvature="0" />
	<path style="fill:none;stroke:red;stroke-width:1px;stroke-linecap:butt;stroke-linejoin:miter;stroke-opacity:1" d="M 108.789,87.831 122.761,106.46 z" id="boundary" inkscape:connector-curvature="0" />
	<path style="fill:none;stroke:red;stroke-width:1px;stroke-linecap:butt;stroke-linejoin:miter;stroke-opacity:1" d="M 85.5023,78.5164 73.8592,57.5587 z" id="boundary" inkscape:connector-curvature="0" />
	<path style="fill:none;stroke:red;stroke-width:1px;stroke-linecap:butt;stroke-linejoin:miter;stroke-opacity:1" d="M 122.761,106.46 141.39,122.761 z" id="boundary" inkscape:connector-curvature="0" />
	<path style="fill:none;stroke:red;stroke-width:1px;stroke-linecap:butt;stroke-linejoin:miter;stroke-opacity:1" d="M 141.39,122.761 157.69,141.39 z" id="boundary" inkscape:connector-curvature="0" />
	<path style="fill:none;stroke:red;stroke-width:1px;stroke-linecap:butt;stroke-linejoin:miter;stroke-opacity:1" d="M 180.977,150.704 157.69,141.39 z" id="boundary" inkscape:connector-curvature="0" />
	<path style="fill:none;stroke:red;stroke-width:1px;stroke-linecap:butt;stroke-linejoin:miter;stroke-opacity:1" d="M 180.977,150.704 201.934,162.347 z" id="boundary" inkscape:connector-curvature="0" />
	<path style="fill:none;stroke:red;stroke-width:1px;stroke-linecap:butt;stroke-linejoin:miter;stroke-opacity:1" d="M 201.934,162.347 201.934,185.634 z" id="boundary" inkscape:connector-curvature="0" />
	<path style="fill:none;stroke:red;stroke-width:1px;stroke-linecap:butt;stroke-linejoin:miter;stroke-opacity:1" d="M 220.563,225.221 201.934,208.92 z" id="boundary" inkscape:connector-curvature="0" />
	<path style="fill:none;stroke:red;stroke-width:1px;stroke-linecap:butt;stroke-linejoin:miter;stroke-opacity:1" d="M 201.934,208.92 201.934,185.634 z" id="boundary" inkscape:connector-curvature="0" />
	<path style="fill:none;stroke:red;stroke-width:1px;stroke-linecap:butt;stroke-linejoin:miter;stroke-opacity:1" d="M 239.192,48.2441 250.836,69.2019 z" id="boundary" inkscape:connector-curvature="0" />
	<path style="fill:none;stroke:red;stroke-width:1px;stroke-linecap:butt;stroke-linejoin:miter;stroke-opacity:1" d="M 274.122,73.8592 297.408,73.8592 z" id="boundary" inkscape:connector-curvature="0" />
	<path style="fill:none;stroke:red;stroke-width:1px;stroke-linecap:butt;stroke-linejoin:miter;stroke-opacity:1" d="M 274.122,73.8592 250.836,69.2019 z" id="boundary" inkscape:connector-curvature="0" />
	<path style="fill:none;stroke:red;stroke-width:1px;stroke-linecap:butt;stroke-linejoin:miter;stroke-opacity:1" d="M 239.192,239.192 262.479,243.85 z" id="boundary" inkscape:connector-curvature="0" />
	<path style="fill:none;stroke:red;stroke-width:1px;stroke-linecap:butt;stroke-linejoin:miter;stroke-opacity:1" d="M 239.192,239.192 220.563,225.221 z" id="boundary" inkscape:connector-curvature="0" />
	<path style="fill:none;stroke:red;stroke-width:1px;stroke-linecap:butt;stroke-linejoin:miter;stroke-opacity:1" d="M 285.765,250.836 262.479,243.85 z" id="boundary" inkscape:connector-curvature="0" />
	<path style="fill:none;stroke:red;stroke-width:1px;stroke-linecap:butt;stroke-linejoin:miter;stroke-opacity:1" d="M 306.723,262.479 285.765,250.836 z" id="boundary" inkscape:connector-curvature="0" />
	<path style="fill:none;stroke:red;stroke-width:1px;stroke-linecap:butt;stroke-linejoin:miter;stroke-opacity:1" d="M 320.695,73.8592 343.981,73.8592 z" id="boundary" inkscape:connector-curvature="0" />
	<path style="fill:none;stroke:red;stroke-width:1px;stroke-linecap:butt;stroke-linejoin:miter;stroke-opacity:1" d="M 343.981,73.8592 364.939,85.5023 z" id="boundary" inkscape:connector-curvature="0" />
	<path style="fill:none;stroke:red;stroke-width:1px;stroke-linecap:butt;stroke-linejoin:miter;stroke-opacity:1" d="M 388.225,90.1596 364.939,85.5023 z" id="boundary" inkscape:connector-curvature="0" />
	<path style="fill:none;stroke:red;stroke-width:1px;stroke-linecap:butt;stroke-linejoin:miter;stroke-opacity:1" d="M 327.681,274.122 306.723,262.479 z" id="boundary" inkscape:connector-curvature="0" />
	<path style="fill:none;stroke:red;stroke-width:1px;stroke-linecap:butt;stroke-linejoin:miter;stroke-opacity:1" d="M 320.695,73.8592 297.408,73.8592 z" id="boundary" inkscape:connector-curvature="0" />
	<path style="fill:none;stroke:red;stroke-width:1px;stroke-linecap:butt;stroke-linejoin:miter;stroke-opacity:1" d="M 285.765,451.099 304.394,434.798 z" id="boundary" inkscape:connector-curvature="0" />
	<path style="fill:none;stroke:red;stroke-width:1px;stroke-linecap:butt;stroke-linejoin:miter;stroke-opacity:1" d="M 325.352,423.155 304.394,434.798 z" id="boundary" inkscape:connector-curvature="0" />
	<path style="fill:none;stroke:red;stroke-width:1px;stroke-linecap:butt;stroke-linejoin:miter;stroke-opacity:1" d="M 243.85,481.371 262.479,462.742 z" id="boundary" inkscape:connector-curvature="0" />
	<path style="fill:none;stroke:red;stroke-width:1px;stroke-linecap:butt;stroke-linejoin:miter;stroke-opacity:1" d="M 285.765,451.099 262.479,462.742 z" id="boundary" inkscape:connector-curvature="0" />
	<path style="fill:none;stroke:red;stroke-width:1px;stroke-linecap:butt;stroke-linejoin:miter;stroke-opacity:1" d="M 343.981,292.751 327.681,274.122 z" id="boundary" inkscape:connector-curvature="0" />
	<path style="fill:none;stroke:red;stroke-width:1px;stroke-linecap:butt;stroke-linejoin:miter;stroke-opacity:1" d="M 362.61,309.052 343.981,292.751 z" id="boundary" inkscape:connector-curvature="0" />
	<path style="fill:none;stroke:red;stroke-width:1px;stroke-linecap:butt;stroke-linejoin:miter;stroke-opacity:1" d="M 346.31,411.512 325.352,423.155 z" id="boundary" inkscape:connector-curvature="0" />
	<path style="fill:none;stroke:red;stroke-width:1px;stroke-linecap:butt;stroke-linejoin:miter;stroke-opacity:1" d="M 367.268,399.869 346.31,411.512 z" id="boundary" inkscape:connector-curvature="0" />
	<path style="fill:none;stroke:red;stroke-width:1px;stroke-linecap:butt;stroke-linejoin:miter;stroke-opacity:1" d="M 376.582,374.254 367.268,399.869 z" id="boundary" inkscape:connector-curvature="0" />
	<path style="fill:none;stroke:red;stroke-width:1px;stroke-linecap:butt;stroke-linejoin:miter;stroke-opacity:1" d="M 376.582,500 353.296,511.643 z" id="boundary" inkscape:connector-curvature="0" />
	<path style="fill:none;stroke:red;stroke-width:1px;stroke-linecap:butt;stroke-linejoin:miter;stroke-opacity:1" d="M 376.582,327.681 362.61,309.052 z" id="boundary" inkscape:connector-curvature="0" />
	<path style="fill:none;stroke:red;stroke-width:1px;stroke-linecap:butt;stroke-linejoin:miter;stroke-opacity:1" d="M 69.2019,784.094 45.9155,784.094 z" id="boundary" inkscape:connector-curvature="0" />
	<path style="fill:none;stroke:red;stroke-width:1px;stroke-linecap:butt;stroke-linejoin:miter;stroke-opacity:1" d="M 45.9155,784.094 22.6291,784.094 z" id="boundary" inkscape:connector-curvature="0" />
	<path style="fill:none;stroke:red;stroke-width:1px;stroke-linecap:butt;stroke-linejoin:miter;stroke-opacity:1" d="M 92.4883,784.094 69.2019,784.094 z" id="boundary" inkscape:connector-curvature="0" />
	<path style="fill:none;stroke:red;stroke-width:1px;stroke-linecap:butt;stroke-linejoin:miter;stroke-opacity:1" d="M 115.775,772.451 92.4883,784.094 z" id="boundary" inkscape:connector-curvature="0" />
	<path style="fill:none;stroke:red;stroke-width:1px;stroke-linecap:butt;stroke-linejoin:miter;stroke-opacity:1" d="M 143.718,732.864 155.362,709.577 z" id="boundary" inkscape:connector-curvature="0" />
	<path style="fill:none;stroke:red;stroke-width:1px;stroke-linecap:butt;stroke-linejoin:miter;stroke-opacity:1" d="M 190.291,616.432 178.648,651.362 z" id="boundary" inkscape:connector-curvature="0" />
	<path style="fill:none;stroke:red;stroke-width:1px;stroke-linecap:butt;stroke-linejoin:miter;stroke-opacity:1" d="M 178.648,651.362 167.005,674.648 z" id="boundary" inkscape:connector-curvature="0" />
	<path style="fill:none;stroke:red;stroke-width:1px;stroke-linecap:butt;stroke-linejoin:miter;stroke-opacity:1" d="M 199.606,816.695 180.977,832.995 z" id="boundary" inkscape:connector-curvature="0" />
	<path style="fill:none;stroke:red;stroke-width:1px;stroke-linecap:butt;stroke-linejoin:miter;stroke-opacity:1" d="M 143.718,732.864 139.061,760.808 z" id="boundary" inkscape:connector-curvature="0" />
	<path style="fill:none;stroke:red;stroke-width:1px;stroke-linecap:butt;stroke-linejoin:miter;stroke-opacity:1" d="M 139.061,760.808 115.775,772.451 z" id="boundary" inkscape:connector-curvature="0" />
	<path style="fill:none;stroke:red;stroke-width:1px;stroke-linecap:butt;stroke-linejoin:miter;stroke-opacity:1" d="M 155.362,709.577 167.005,674.648 z" id="boundary" inkscape:connector-curvature="0" />
	<path style="fill:none;stroke:red;stroke-width:1px;stroke-linecap:butt;stroke-linejoin:miter;stroke-opacity:1" d="M 4,802.723 22.6291,784.094 z" id="boundary" inkscape:connector-curvature="0" />
	<path style="fill:none;stroke:red;stroke-width:1px;stroke-linecap:butt;stroke-linejoin:miter;stroke-opacity:1" d="M 15.6432,823.681 4,802.723 z" id="boundary" inkscape:connector-curvature="0" />
	<path style="fill:none;stroke:red;stroke-width:1px;stroke-linecap:butt;stroke-linejoin:miter;stroke-opacity:1" d="M 38.9296,832.995 59.8873,844.638 z" id="boundary" inkscape:connector-curvature="0" />
	<path style="fill:none;stroke:red;stroke-width:1px;stroke-linecap:butt;stroke-linejoin:miter;stroke-opacity:1" d="M 59.8873,844.638 76.1878,863.268 z" id="boundary" inkscape:connector-curvature="0" />
	<path style="fill:none;stroke:red;stroke-width:1px;stroke-linecap:butt;stroke-linejoin:miter;stroke-opacity:1" d="M 15.6432,823.681 38.9296,832.995 z" id="boundary" inkscape:connector-curvature="0" />
	<path style="fill:none;stroke:red;stroke-width:1px;stroke-linecap:butt;stroke-linejoin:miter;stroke-opacity:1" d="M 76.1878,863.268 94.8169,879.568 z" id="boundary" inkscape:connector-curvature="0" />
	<path style="fill:none;stroke:red;stroke-width:1px;stroke-linecap:butt;stroke-linejoin:miter;stroke-opacity:1" d="M 115.775,891.211 94.8169,879.568 z" id="boundary" inkscape:connector-curvature="0" />
	<path style="fill:none;stroke:red;stroke-width:1px;stroke-linecap:butt;stroke-linejoin:miter;stroke-opacity:1" d="M 176.319,874.911 180.977,832.995 z" id="boundary" inkscape:connector-curvature="0" />
	<path style="fill:none;stroke:red;stroke-width:1px;stroke-linecap:butt;stroke-linejoin:miter;stroke-opacity:1" d="M 176.319,874.911 157.69,891.211 z" id="boundary" inkscape:connector-curvature="0" />
	<path style="fill:none;stroke:red;stroke-width:1px;stroke-linecap:butt;stroke-linejoin:miter;stroke-opacity:1" d="M 157.69,891.211 136.732,902.854 z" id="boundary" inkscape:connector-curvature="0" />
	<path style="fill:none;stroke:red;stroke-width:1px;stroke-linecap:butt;stroke-linejoin:miter;stroke-opacity:1" d="M 136.732,902.854 115.775,891.211 z" id="boundary" inkscape:connector-curvature="0" />
	<path style="fill:none;stroke:red;stroke-width:1px;stroke-linecap:butt;stroke-linejoin:miter;stroke-opacity:1" d="M 213.577,523.286 232.207,504.657 z" id="boundary" inkscape:connector-curvature="0" />
	<path style="fill:none;stroke:red;stroke-width:1px;stroke-linecap:butt;stroke-linejoin:miter;stroke-opacity:1" d="M 243.85,481.371 232.207,504.657 z" id="boundary" inkscape:connector-curvature="0" />
	<path style="fill:none;stroke:red;stroke-width:1px;stroke-linecap:butt;stroke-linejoin:miter;stroke-opacity:1" d="M 201.934,569.859 201.934,546.573 z" id="boundary" inkscape:connector-curvature="0" />
	<path style="fill:none;stroke:red;stroke-width:1px;stroke-linecap:butt;stroke-linejoin:miter;stroke-opacity:1" d="M 201.934,546.573 213.577,523.286 z" id="boundary" inkscape:connector-curvature="0" />
	<path style="fill:none;stroke:red;stroke-width:1px;stroke-linecap:butt;stroke-linejoin:miter;stroke-opacity:1" d="M 285.765,541.915 285.765,565.202 z" id="boundary" inkscape:connector-curvature="0" />
	<path style="fill:none;stroke:red;stroke-width:1px;stroke-linecap:butt;stroke-linejoin:miter;stroke-opacity:1" d="M 330.009,523.286 353.296,511.643 z" id="boundary" inkscape:connector-curvature="0" />
	<path style="fill:none;stroke:red;stroke-width:1px;stroke-linecap:butt;stroke-linejoin:miter;stroke-opacity:1" d="M 306.723,530.272 285.765,541.915 z" id="boundary" inkscape:connector-curvature="0" />
	<path style="fill:none;stroke:red;stroke-width:1px;stroke-linecap:butt;stroke-linejoin:miter;stroke-opacity:1" d="M 306.723,530.272 330.009,523.286 z" id="boundary" inkscape:connector-curvature="0" />
	<path style="fill:none;stroke:red;stroke-width:1px;stroke-linecap:butt;stroke-linejoin:miter;stroke-opacity:1" d="M 285.765,588.488 285.765,565.202 z" id="boundary" inkscape:connector-curvature="0" />
	<path style="fill:none;stroke:red;stroke-width:1px;stroke-linecap:butt;stroke-linejoin:miter;stroke-opacity:1" d="M 201.934,593.146 201.934,569.859 z" id="boundary" inkscape:connector-curvature="0" />
	<path style="fill:none;stroke:red;stroke-width:1px;stroke-linecap:butt;stroke-linejoin:miter;stroke-opacity:1" d="M 239.192,739.85 227.549,774.779 z" id="boundary" inkscape:connector-curvature="0" />
	<path style="fill:none;stroke:red;stroke-width:1px;stroke-linecap:butt;stroke-linejoin:miter;stroke-opacity:1" d="M 201.934,593.146 190.291,616.432 z" id="boundary" inkscape:connector-curvature="0" />
	<path style="fill:none;stroke:red;stroke-width:1px;stroke-linecap:butt;stroke-linejoin:miter;stroke-opacity:1" d="M 215.906,798.066 199.606,816.695 z" id="boundary" inkscape:connector-curvature="0" />
	<path style="fill:none;stroke:red;stroke-width:1px;stroke-linecap:butt;stroke-linejoin:miter;stroke-opacity:1" d="M 227.549,774.779 215.906,798.066 z" id="boundary" inkscape:connector-curvature="0" />
	<path style="fill:none;stroke:red;stroke-width:1px;stroke-linecap:butt;stroke-linejoin:miter;stroke-opacity:1" d="M 274.122,646.704 262.479,669.991 z" id="boundary" inkscape:connector-curvature="0" />
	<path style="fill:none;stroke:red;stroke-width:1px;stroke-linecap:butt;stroke-linejoin:miter;stroke-opacity:1" d="M 262.479,669.991 262.479,693.277 z" id="boundary" inkscape:connector-curvature="0" />
	<path style="fill:none;stroke:red;stroke-width:1px;stroke-linecap:butt;stroke-linejoin:miter;stroke-opacity:1" d="M 274.122,646.704 274.122,623.418 z" id="boundary" inkscape:connector-curvature="0" />
	<path style="fill:none;stroke:red;stroke-width:1px;stroke-linecap:butt;stroke-linejoin:miter;stroke-opacity:1" d="M 274.122,623.418 285.765,588.488 z" id="boundary" inkscape:connector-curvature="0" />
	<path style="fill:none;stroke:red;stroke-width:1px;stroke-linecap:butt;stroke-linejoin:miter;stroke-opacity:1" d="M 239.192,739.85 250.836,716.563 z" id="boundary" inkscape:connector-curvature="0" />
	<path style="fill:none;stroke:red;stroke-width:1px;stroke-linecap:butt;stroke-linejoin:miter;stroke-opacity:1" d="M 262.479,693.277 250.836,716.563 z" id="boundary" inkscape:connector-curvature="0" />
	<path style="fill:none;stroke:red;stroke-width:1px;stroke-linecap:butt;stroke-linejoin:miter;stroke-opacity:1" d="M 376.582,327.681 376.582,350.967 z" id="boundary" inkscape:connector-curvature="0" />
	<path style="fill:none;stroke:red;stroke-width:1px;stroke-linecap:butt;stroke-linejoin:miter;stroke-opacity:1" d="M 411.512,97.1455 432.469,108.789 z" id="boundary" inkscape:connector-curvature="0" />
	<path style="fill:none;stroke:red;stroke-width:1px;stroke-linecap:butt;stroke-linejoin:miter;stroke-opacity:1" d="M 411.512,97.1455 388.225,90.1596 z" id="boundary" inkscape:connector-curvature="0" />
	<path style="fill:none;stroke:red;stroke-width:1px;stroke-linecap:butt;stroke-linejoin:miter;stroke-opacity:1" d="M 376.582,374.254 376.582,350.967 z" id="boundary" inkscape:connector-curvature="0" />
	<path style="fill:none;stroke:red;stroke-width:1px;stroke-linecap:butt;stroke-linejoin:miter;stroke-opacity:1" d="M 432.469,108.789 453.427,120.432 z" id="boundary" inkscape:connector-curvature="0" />
	<path style="fill:none;stroke:red;stroke-width:1px;stroke-linecap:butt;stroke-linejoin:miter;stroke-opacity:1" d="M 453.427,120.432 474.385,132.075 z" id="boundary" inkscape:connector-curvature="0" />
	<path style="fill:none;stroke:red;stroke-width:1px;stroke-linecap:butt;stroke-linejoin:miter;stroke-opacity:1" d="M 495.343,143.718 518.629,150.704 z" id="boundary" inkscape:connector-curvature="0" />
	<path style="fill:none;stroke:red;stroke-width:1px;stroke-linecap:butt;stroke-linejoin:miter;stroke-opacity:1" d="M 518.629,150.704 527.944,173.991 z" id="boundary" inkscape:connector-curvature="0" />
	<path style="fill:none;stroke:red;stroke-width:1px;stroke-linecap:butt;stroke-linejoin:miter;stroke-opacity:1" d="M 495.343,143.718 474.385,132.075 z" id="boundary" inkscape:connector-curvature="0" />
	<path style="fill:none;stroke:red;stroke-width:1px;stroke-linecap:butt;stroke-linejoin:miter;stroke-opacity:1" d="M 546.573,190.291 527.944,173.991 z" id="boundary" inkscape:connector-curvature="0" />
	<path style="fill:none;stroke:red;stroke-width:1px;stroke-linecap:butt;stroke-linejoin:miter;stroke-opacity:1" d="M 423.155,483.7 446.441,483.7 z" id="boundary" inkscape:connector-curvature="0" />
	<path style="fill:none;stroke:red;stroke-width:1px;stroke-linecap:butt;stroke-linejoin:miter;stroke-opacity:1" d="M 399.869,488.357 423.155,483.7 z" id="boundary" inkscape:connector-curvature="0" />
	<path style="fill:none;stroke:red;stroke-width:1px;stroke-linecap:butt;stroke-linejoin:miter;stroke-opacity:1" d="M 376.582,500 399.869,488.357 z" id="boundary" inkscape:connector-curvature="0" />
	<path style="fill:none;stroke:red;stroke-width:1px;stroke-linecap:butt;stroke-linejoin:miter;stroke-opacity:1" d="M 446.441,483.7 469.728,483.7 z" id="boundary" inkscape:connector-curvature="0" />
	<path style="fill:none;stroke:red;stroke-width:1px;stroke-linecap:butt;stroke-linejoin:miter;stroke-opacity:1" d="M 493.014,476.714 469.728,483.7 z" id="boundary" inkscape:connector-curvature="0" />
	<path style="fill:none;stroke:red;stroke-width:1px;stroke-linecap:butt;stroke-linejoin:miter;stroke-opacity:1" d="M 516.3,472.056 539.587,472.056 z" id="boundary" inkscape:connector-curvature="0" />
	<path style="fill:none;stroke:red;stroke-width:1px;stroke-linecap:butt;stroke-linejoin:miter;stroke-opacity:1" d="M 539.587,472.056 527.944,493.014 z" id="boundary" inkscape:connector-curvature="0" />
	<path style="fill:none;stroke:red;stroke-width:1px;stroke-linecap:butt;stroke-linejoin:miter;stroke-opacity:1" d="M 527.944,493.014 527.944,516.3 z" id="boundary" inkscape:connector-curvature="0" />
	<path style="fill:none;stroke:red;stroke-width:1px;stroke-linecap:butt;stroke-linejoin:miter;stroke-opacity:1" d="M 493.014,476.714 516.3,472.056 z" id="boundary" inkscape:connector-curvature="0" />
	<path style="fill:none;stroke:red;stroke-width:1px;stroke-linecap:butt;stroke-linejoin:miter;stroke-opacity:1" d="M 539.587,537.258 527.944,516.3 z" id="boundary" inkscape:connector-curvature="0" />
	<path style="fill:none;stroke:red;stroke-width:1px;stroke-linecap:butt;stroke-linejoin:miter;stroke-opacity:1" d="M 546.573,190.291 562.873,208.92 z" id="boundary" inkscape:connector-curvature="0" />
	<path style="fill:none;stroke:red;stroke-width:1px;stroke-linecap:butt;stroke-linejoin:miter;stroke-opacity:1" d="M 562.873,208.92 574.516,229.878 z" id="boundary" inkscape:connector-curvature="0" />
	<path style="fill:none;stroke:red;stroke-width:1px;stroke-linecap:butt;stroke-linejoin:miter;stroke-opacity:1" d="M 583.831,253.164 574.516,229.878 z" id="boundary" inkscape:connector-curvature="0" />
	<path style="fill:none;stroke:red;stroke-width:1px;stroke-linecap:butt;stroke-linejoin:miter;stroke-opacity:1" d="M 588.488,276.451 583.831,253.164 z" id="boundary" inkscape:connector-curvature="0" />
	<path style="fill:none;stroke:red;stroke-width:1px;stroke-linecap:butt;stroke-linejoin:miter;stroke-opacity:1" d="M 602.46,295.08 588.488,276.451 z" id="boundary" inkscape:connector-curvature="0" />
	<path style="fill:none;stroke:red;stroke-width:1px;stroke-linecap:butt;stroke-linejoin:miter;stroke-opacity:1" d="M 623.418,306.723 602.46,295.08 z" id="boundary" inkscape:connector-curvature="0" />
	<path style="fill:none;stroke:red;stroke-width:1px;stroke-linecap:butt;stroke-linejoin:miter;stroke-opacity:1" d="M 658.347,336.995 644.376,318.366 z" id="boundary" inkscape:connector-curvature="0" />
	<path style="fill:none;stroke:red;stroke-width:1px;stroke-linecap:butt;stroke-linejoin:miter;stroke-opacity:1" d="M 669.991,357.953 658.347,336.995 z" id="boundary" inkscape:connector-curvature="0" />
	<path style="fill:none;stroke:red;stroke-width:1px;stroke-linecap:butt;stroke-linejoin:miter;stroke-opacity:1" d="M 623.418,306.723 644.376,318.366 z" id="boundary" inkscape:connector-curvature="0" />
	<path style="fill:none;stroke:red;stroke-width:1px;stroke-linecap:butt;stroke-linejoin:miter;stroke-opacity:1" d="M 669.991,357.953 669.991,381.239 z" id="boundary" inkscape:connector-curvature="0" />
	<path style="fill:none;stroke:red;stroke-width:1px;stroke-linecap:butt;stroke-linejoin:miter;stroke-opacity:1" d="M 669.991,404.526 669.991,427.812 z" id="boundary" inkscape:connector-curvature="0" />
	<path style="fill:none;stroke:red;stroke-width:1px;stroke-linecap:butt;stroke-linejoin:miter;stroke-opacity:1" d="M 669.991,404.526 669.991,381.239 z" id="boundary" inkscape:connector-curvature="0" />
	<path style="fill:none;stroke:red;stroke-width:1px;stroke-linecap:butt;stroke-linejoin:miter;stroke-opacity:1" d="M 551.23,558.216 539.587,537.258 z" id="boundary" inkscape:connector-curvature="0" />
	<path style="fill:none;stroke:red;stroke-width:1px;stroke-linecap:butt;stroke-linejoin:miter;stroke-opacity:1" d="M 669.991,427.812 669.991,451.099 z" id="boundary" inkscape:connector-curvature="0" />
	<path style="fill:none;stroke:red;stroke-width:1px;stroke-linecap:butt;stroke-linejoin:miter;stroke-opacity:1" d="M 669.991,451.099 669.991,474.385 z" id="boundary" inkscape:connector-curvature="0" />
	<path style="fill:none;stroke:red;stroke-width:1px;stroke-linecap:butt;stroke-linejoin:miter;stroke-opacity:1" d="M 669.991,474.385 539.587,472.056 z" id="boundary" inkscape:connector-curvature="0" />
	<path style="fill:none;stroke:red;stroke-width:1px;stroke-linecap:butt;stroke-linejoin:miter;stroke-opacity:1" d="M 669.991,474.385 669.991,497.671 z" id="boundary" inkscape:connector-curvature="0" />
	<path style="fill:none;stroke:red;stroke-width:1px;stroke-linecap:butt;stroke-linejoin:miter;stroke-opacity:1" d="M 669.991,520.958 669.991,544.244 z" id="boundary" inkscape:connector-curvature="0" />
	<path style="fill:none;stroke:red;stroke-width:1px;stroke-linecap:butt;stroke-linejoin:miter;stroke-opacity:1" d="M 669.991,567.531 669.991,544.244 z" id="boundary" inkscape:connector-curvature="0" />
	<path style="fill:none;stroke:red;stroke-width:1px;stroke-linecap:butt;stroke-linejoin:miter;stroke-opacity:1" d="M 669.991,520.958 669.991,497.671 z" id="boundary" inkscape:connector-curvature="0" />
	<path style="fill:none;stroke:red;stroke-width:1px;stroke-linecap:butt;stroke-linejoin:miter;stroke-opacity:1" d="M 551.23,558.216 551.23,581.502 z" id="boundary" inkscape:connector-curvature="0" />
	<path style="fill:none;stroke:red;stroke-width:1px;stroke-linecap:butt;stroke-linejoin:miter;stroke-opacity:1" d="M 562.873,602.46 551.23,581.502 z" id="boundary" inkscape:connector-curvature="0" />
	<path style="fill:none;stroke:red;stroke-width:1px;stroke-linecap:butt;stroke-linejoin:miter;stroke-opacity:1" d="M 669.991,567.531 669.991,590.817 z" id="boundary" inkscape:connector-curvature="0" />
	<path style="fill:none;stroke:red;stroke-width:1px;stroke-linecap:butt;stroke-linejoin:miter;stroke-opacity:1" d="M 579.174,621.089 562.873,602.46 z" id="boundary" inkscape:connector-curvature="0" />
	<path style="fill:none;stroke:red;stroke-width:1px;stroke-linecap:butt;stroke-linejoin:miter;stroke-opacity:1" d="M 597.803,635.061 579.174,621.089 z" id="boundary" inkscape:connector-curvature="0" />
	<path style="fill:none;stroke:red;stroke-width:1px;stroke-linecap:butt;stroke-linejoin:miter;stroke-opacity:1" d="M 618.761,646.704 597.803,635.061 z" id="boundary" inkscape:connector-curvature="0" />
	<path style="fill:none;stroke:red;stroke-width:1px;stroke-linecap:butt;stroke-linejoin:miter;stroke-opacity:1" d="M 693.277,597.803 716.563,604.789 z" id="boundary" inkscape:connector-curvature="0" />
	<path style="fill:none;stroke:red;stroke-width:1px;stroke-linecap:butt;stroke-linejoin:miter;stroke-opacity:1" d="M 737.521,616.432 760.808,625.746 z" id="boundary" inkscape:connector-curvature="0" />
	<path style="fill:none;stroke:red;stroke-width:1px;stroke-linecap:butt;stroke-linejoin:miter;stroke-opacity:1" d="M 737.521,616.432 716.563,604.789 z" id="boundary" inkscape:connector-curvature="0" />
	<path style="fill:none;stroke:red;stroke-width:1px;stroke-linecap:butt;stroke-linejoin:miter;stroke-opacity:1" d="M 805.052,644.376 781.765,637.39 z" id="boundary" inkscape:connector-curvature="0" />
	<path style="fill:none;stroke:red;stroke-width:1px;stroke-linecap:butt;stroke-linejoin:miter;stroke-opacity:1" d="M 828.338,644.376 805.052,644.376 z" id="boundary" inkscape:connector-curvature="0" />
	<path style="fill:none;stroke:red;stroke-width:1px;stroke-linecap:butt;stroke-linejoin:miter;stroke-opacity:1" d="M 781.765,637.39 760.808,625.746 z" id="boundary" inkscape:connector-curvature="0" />
	<path style="fill:none;stroke:red;stroke-width:1px;stroke-linecap:butt;stroke-linejoin:miter;stroke-opacity:1" d="M 669.991,590.817 693.277,597.803 z" id="boundary" inkscape:connector-curvature="0" />
	<path style="fill:none;stroke:red;stroke-width:1px;stroke-linecap:butt;stroke-linejoin:miter;stroke-opacity:1" d="M 618.761,646.704 642.047,646.704 z" id="boundary" inkscape:connector-curvature="0" />
	<path style="fill:none;stroke:red;stroke-width:1px;stroke-linecap:butt;stroke-linejoin:miter;stroke-opacity:1" d="M 642.047,646.704 663.005,658.347 z" id="boundary" inkscape:connector-curvature="0" />
	<path style="fill:none;stroke:red;stroke-width:1px;stroke-linecap:butt;stroke-linejoin:miter;stroke-opacity:1" d="M 663.005,658.347 686.291,667.662 z" id="boundary" inkscape:connector-curvature="0" />
	<path style="fill:none;stroke:red;stroke-width:1px;stroke-linecap:butt;stroke-linejoin:miter;stroke-opacity:1" d="M 707.249,679.305 686.291,667.662 z" id="boundary" inkscape:connector-curvature="0" />
	<path style="fill:none;stroke:red;stroke-width:1px;stroke-linecap:butt;stroke-linejoin:miter;stroke-opacity:1" d="M 707.249,679.305 725.878,693.277 z" id="boundary" inkscape:connector-curvature="0" />
	<path style="fill:none;stroke:red;stroke-width:1px;stroke-linecap:butt;stroke-linejoin:miter;stroke-opacity:1" d="M 746.836,704.92 725.878,693.277 z" id="boundary" inkscape:connector-curvature="0" />
	<path style="fill:none;stroke:red;stroke-width:1px;stroke-linecap:butt;stroke-linejoin:miter;stroke-opacity:1" d="M 763.136,723.549 746.836,704.92 z" id="boundary" inkscape:connector-curvature="0" />
	<path style="fill:none;stroke:red;stroke-width:1px;stroke-linecap:butt;stroke-linejoin:miter;stroke-opacity:1" d="M 763.136,723.549 786.423,732.864 z" id="boundary" inkscape:connector-curvature="0" />
	<path style="fill:none;stroke:red;stroke-width:1px;stroke-linecap:butt;stroke-linejoin:miter;stroke-opacity:1" d="M 786.423,732.864 802.723,751.493 z" id="boundary" inkscape:connector-curvature="0" />
	<path style="fill:none;stroke:red;stroke-width:1px;stroke-linecap:butt;stroke-linejoin:miter;stroke-opacity:1" d="M 821.352,767.793 802.723,751.493 z" id="boundary" inkscape:connector-curvature="0" />
	<path style="fill:none;stroke:red;stroke-width:1px;stroke-linecap:butt;stroke-linejoin:miter;stroke-opacity:1" d="M 919.155,667.662 895.869,658.347 z" id="boundary" inkscape:connector-curvature="0" />
	<path style="fill:none;stroke:red;stroke-width:1px;stroke-linecap:butt;stroke-linejoin:miter;stroke-opacity:1" d="M 895.869,658.347 874.911,646.704 z" id="boundary" inkscape:connector-curvature="0" />
	<path style="fill:none;stroke:red;stroke-width:1px;stroke-linecap:butt;stroke-linejoin:miter;stroke-opacity:1" d="M 851.624,644.376 874.911,646.704 z" id="boundary" inkscape:connector-curvature="0" />
	<path style="fill:none;stroke:red;stroke-width:1px;stroke-linecap:butt;stroke-linejoin:miter;stroke-opacity:1" d="M 851.624,644.376 828.338,644.376 z" id="boundary" inkscape:connector-curvature="0" />
	<path style="fill:none;stroke:red;stroke-width:1px;stroke-linecap:butt;stroke-linejoin:miter;stroke-opacity:1" d="M 919.155,667.662 935.455,686.291 z" id="boundary" inkscape:connector-curvature="0" />
	<path style="fill:none;stroke:red;stroke-width:1px;stroke-linecap:butt;stroke-linejoin:miter;stroke-opacity:1" d="M 935.455,686.291 954.085,702.592 z" id="boundary" inkscape:connector-curvature="0" />
	<path style="fill:none;stroke:red;stroke-width:1px;stroke-linecap:butt;stroke-linejoin:miter;stroke-opacity:1" d="M 970.385,721.221 982.028,742.178 z" id="boundary" inkscape:connector-curvature="0" />
	<path style="fill:none;stroke:red;stroke-width:1px;stroke-linecap:butt;stroke-linejoin:miter;stroke-opacity:1" d="M 954.085,702.592 970.385,721.221 z" id="boundary" inkscape:connector-curvature="0" />
	<path style="fill:none;stroke:red;stroke-width:1px;stroke-linecap:butt;stroke-linejoin:miter;stroke-opacity:1" d="M 982.028,742.178 991.343,765.465 z" id="boundary" inkscape:connector-curvature="0" />
	<path style="fill:none;stroke:red;stroke-width:1px;stroke-linecap:butt;stroke-linejoin:miter;stroke-opacity:1" d="M 821.352,767.793 837.653,786.423 z" id="boundary" inkscape:connector-curvature="0" />
	<path style="fill:none;stroke:red;stroke-width:1px;stroke-linecap:butt;stroke-linejoin:miter;stroke-opacity:1" d="M 860.939,795.737 837.653,786.423 z" id="boundary" inkscape:connector-curvature="0" />
	<path style="fill:none;stroke:red;stroke-width:1px;stroke-linecap:butt;stroke-linejoin:miter;stroke-opacity:1" d="M 900.526,821.352 877.239,814.366 z" id="boundary" inkscape:connector-curvature="0" />
	<path style="fill:none;stroke:red;stroke-width:1px;stroke-linecap:butt;stroke-linejoin:miter;stroke-opacity:1" d="M 877.239,814.366 860.939,795.737 z" id="boundary" inkscape:connector-curvature="0" />
	<path style="fill:none;stroke:red;stroke-width:1px;stroke-linecap:butt;stroke-linejoin:miter;stroke-opacity:1" d="M 900.526,821.352 921.484,832.995 z" id="boundary" inkscape:connector-curvature="0" />
	<path style="fill:none;stroke:red;stroke-width:1px;stroke-linecap:butt;stroke-linejoin:miter;stroke-opacity:1" d="M 996,788.751 996,812.038 z" id="boundary" inkscape:connector-curvature="0" />
	<path style="fill:none;stroke:red;stroke-width:1px;stroke-linecap:butt;stroke-linejoin:miter;stroke-opacity:1" d="M 942.441,844.638 921.484,832.995 z" id="boundary" inkscape:connector-curvature="0" />
	<path style="fill:none;stroke:red;stroke-width:1px;stroke-linecap:butt;stroke-linejoin:miter;stroke-opacity:1" d="M 984.357,844.638 963.399,856.282 z" id="boundary" inkscape:connector-curvature="0" />
	<path style="fill:none;stroke:red;stroke-width:1px;stroke-linecap:butt;stroke-linejoin:miter;stroke-opacity:1" d="M 963.399,856.282 942.441,844.638 z" id="boundary" inkscape:connector-curvature="0" />
	<path style="fill:none;stroke:red;stroke-width:1px;stroke-linecap:butt;stroke-linejoin:miter;stroke-opacity:1" d="M 996,812.038 984.357,844.638 z" id="boundary" inkscape:connector-curvature="0" />
	<path style="fill:none;stroke:red;stroke-width:1px;stroke-linecap:butt;stroke-linejoin:miter;stroke-opacity:1" d="M 991.343,765.465 996,788.751 z" id="boundary" inkscape:connector-curvature="0" />
	<circle cx="4" cy="802.723" r="4" fill="#0" id="circle0"/>
	<circle cx="15.6432" cy="823.681" r="4" fill="#0" id="circle1"/>
	<circle cx="22.6291" cy="784.094" r="4" fill="#0" id="circle2"/>
	<circle cx="38.9296" cy="832.995" r="4" fill="#0" id="circle3"/>
	<circle cx="45.9155" cy="784.094" r="4" fill="#0" id="circle4"/>
	<circle cx="59.8873" cy="844.638" r="4" fill="#0" id="circle5"/>
	<circle cx="69.2019" cy="784.094" r="4" fill="#0" id="circle6"/>
	<circle cx="73.8592" cy="34.2723" r="4" fill="#0" id="circle7"/>
	<circle cx="73.8592" cy="57.5587" r="4" fill="#0" id="circle8"/>
	<circle cx="76.1878" cy="863.268" r="4" fill="#0" id="circle9"/>
	<circle cx="85.5023" cy="78.5164" r="4" fill="#0" id="circle10"/>
	<circle cx="92.4883" cy="15.6432" r="4" fill="#0" id="circle11"/>
	<circle cx="92.4883" cy="784.094" r="4" fill="#0" id="circle12"/>
	<circle cx="94.8169" cy="879.568" r="4" fill="#0" id="circle13"/>
	<circle cx="108.789" cy="87.831" r="4" fill="#0" id="circle14"/>
	<circle cx="113.446" cy="4" r="4" fill="#0" id="circle15"/>
	<circle cx="115.775" cy="772.451" r="4" fill="#0" id="circle16"/>
	<circle cx="115.775" cy="891.211" r="4" fill="#0" id="circle17"/>
	<circle cx="122.761" cy="106.46" r="4" fill="#0" id="circle18"/>
	<circle cx="136.732" cy="4" r="4" fill="#0" id="circle19"/>
	<circle cx="136.732" cy="902.854" r="4" fill="#0" id="circle20"/>
	<circle cx="139.061" cy="760.808" r="4" fill="#0" id="circle21"/>
	<circle cx="141.39" cy="122.761" r="4" fill="#0" id="circle22"/>
	<circle cx="143.718" cy="732.864" r="4" fill="#0" id="circle23"/>
	<circle cx="155.362" cy="709.577" r="4" fill="#0" id="circle24"/>
	<circle cx="157.69" cy="141.39" r="4" fill="#0" id="circle25"/>
	<circle cx="157.69" cy="891.211" r="4" fill="#0" id="circle26"/>
	<circle cx="160.019" cy="4" r="4" fill="#0" id="circle27"/>
	<circle cx="167.005" cy="674.648" r="4" fill="#0" id="circle28"/>
	<circle cx="176.319" cy="874.911" r="4" fill="#0" id="circle29"/>
	<circle cx="178.648" cy="651.362" r="4" fill="#0" id="circle30"/>
	<circle cx="180.977" cy="150.704" r="4" fill="#0" id="circle31"/>
	<circle cx="180.977" cy="832.995" r="4" fill="#0" id="circle32"/>
	<circle cx="183.305" cy="4" r="4" fill="#0" id="circle33"/>
	<circle cx="190.291" cy="616.432" r="4" fill="#0" id="circle34"/>
	<circle cx="199.606" cy="816.695" r="4" fill="#0" id="circle35"/>
	<circle cx="201.934" cy="162.347" r="4" fill="#0" id="circle36"/>
	<circle cx="201.934" cy="185.634" r="4" fill="#0" id="circle37"/>
	<circle cx="201.934" cy="208.92" r="4" fill="#0" id="circle38"/>
	<circle cx="201.934" cy="546.573" r="4" fill="#0" id="circle39"/>
	<circle cx="201.934" cy="569.859" r="4" fill="#0" id="circle40"/>
	<circle cx="201.934" cy="593.146" r="4" fill="#0" id="circle41"/>
	<circle cx="204.263" cy="15.6432" r="4" fill="#0" id="circle42"/>
	<circle cx="213.577" cy="523.286" r="4" fill="#0" id="circle43"/>
	<circle cx="215.906" cy="798.066" r="4" fill="#0" id="circle44"/>
	<circle cx="220.563" cy="225.221" r="4" fill="#0" id="circle45"/>
	<circle cx="222.892" cy="29.615" r="4" fill="#0" id="circle46"/>
	<circle cx="227.549" cy="774.779" r="4" fill="#0" id="circle47"/>
	<circle cx="232.207" cy="504.657" r="4" fill="#0" id="circle48"/>
	<circle cx="239.192" cy="48.2441" r="4" fill="#0" id="circle49"/>
	<circle cx="239.192" cy="239.192" r="4" fill="#0" id="circle50"/>
	<circle cx="239.192" cy="739.85" r="4" fill="#0" id="circle51"/>
	<circle cx="243.85" cy="481.371" r="4" fill="#0" id="circle52"/>
	<circle cx="250.836" cy="69.2019" r="4" fill="#0" id="circle53"/>
	<circle cx="250.836" cy="716.563" r="4" fill="#0" id="circle54"/>
	<circle cx="262.479" cy="243.85" r="4" fill="#0" id="circle55"/>
	<circle cx="262.479" cy="462.742" r="4" fill="#0" id="circle56"/>
	<circle cx="262.479" cy="669.991" r="4" fill="#0" id="circle57"/>
	<circle cx="262.479" cy="693.277" r="4" fill="#0" id="circle58"/>
	<circle cx="274.122" cy="73.8592" r="4" fill="#0" id="circle59"/>
	<circle cx="274.122" cy="623.418" r="4" fill="#0" id="circle60"/>
	<circle cx="274.122" cy="646.704" r="4" fill="#0" id="circle61"/>
	<circle cx="285.765" cy="250.836" r="4" fill="#0" id="circle62"/>
	<circle cx="285.765" cy="451.099" r="4" fill="#0" id="circle63"/>
	<circle cx="285.765" cy="541.915" r="4" fill="#0" id="circle64"/>
	<circle cx="285.765" cy="565.202" r="4" fill="#0" id="circle65"/>
	<circle cx="285.765" cy="588.488" r="4" fill="#0" id="circle66"/>
	<circle cx="297.408" cy="73.8592" r="4" fill="#0" id="circle67"/>
	<circle cx="304.394" cy="434.798" r="4" fill="#0" id="circle68"/>
	<circle cx="306.723" cy="262.479" r="4" fill="#0" id="circle69"/>
	<circle cx="306.723" cy="530.272" r="4" fill="#0" id="circle70"/>
	<circle cx="320.695" cy="73.8592" r="4" fill="#0" id="circle71"/>
	<circle cx="325.352" cy="423.155" r="4" fill="#0" id="circle72"/>
	<circle cx="327.681" cy="274.122" r="4" fill="#0" id="circle73"/>
	<circle cx="330.009" cy="523.286" r="4" fill="#0" id="circle74"/>
	<circle cx="343.981" cy="73.8592" r="4" fill="#0" id="circle75"/>
	<circle cx="343.981" cy="292.751" r="4" fill="#0" id="circle76"/>
	<circle cx="346.31" cy="411.512" r="4" fill="#0" id="circle77"/>
	<circle cx="353.296" cy="511.643" r="4" fill="#0" id="circle78"/>
	<circle cx="362.61" cy="309.052" r="4" fill="#0" id="circle79"/>
	<circle cx="364.939" cy="85.5023" r="4" fill="#0" id="circle80"/>
	<circle cx="367.268" cy="399.869" r="4" fill="#0" id="circle81"/>
	<circle cx="376.582" cy="327.681" r="4" fill="#0" id="circle82"/>
	<circle cx="376.582" cy="350.967" r="4" fill="#0" id="circle83"/>
	<circle cx="376.582" cy="374.254" r="4" fill="#0" id="circle84"/>
	<circle cx="376.582" cy="500" r="4" fill="#0" id="circle85"/>
	<circle cx="388.225" cy="90.1596" r="4" fill="#0" id="circle86"/>
	<circle cx="399.869" cy="488.357" r="4" fill="#0" id="circle87"/>
	<circle cx="411.512" cy="97.1455" r="4" fill="#0" id="circle88"/>
	<circle cx="423.155" cy="483.7" r="4" fill="#0" id="circle89"/>
	<circle cx="432.469" cy="108.789" r="4" fill="#0" id="circle90"/>
	<circle cx="446.441" cy="483.7" r="4" fill="#0" id="circle91"/>
	<circle cx="453.427" cy="120.432" r="4" fill="#0" id="circle92"/>
	<circle cx="469.728" cy="483.7" r="4" fill="#0" id="circle93"/>
	<circle cx="474.385" cy="132.075" r="4" fill="#0" id="circle94"/>
	<circle cx="493.014" cy="476.714" r="4" fill="#0" id="circle95"/>
	<circle cx="495.343" cy="143.718" r="4" fill="#0" id="circle96"/>
	<circle cx="516.3" cy="472.056" r="4" fill="#0" id="circle97"/>
	<circle cx="518.629" cy="150.704" r="4" fill="#0" id="circle98"/>
	<circle cx="527.944" cy="173.991" r="4" fill="#0" id="circle99"/>
	<circle cx="527.944" cy="493.014" r="4" fill="#0" id="circle100"/>
	<circle cx="527.944" cy="516.3" r="4" fill="#0" id="circle101"/>
	<circle cx="539.587" cy="472.056" r="4" fill="#0" id="circle102"/>
	<circle cx="539.587" cy="537.258" r="4" fill="#0" id="circle103"/>
	<circle cx="546.573" cy="190.291" r="4" fill="#0" id="circle104"/>
	<circle cx="551.23" cy="558.216" r="4" fill="#0" id="circle105"/>
	<circle cx="551.23" cy="581.502" r="4" fill="#0" id="circle106"/>
	<circle cx="562.873" cy="208.92" r="4" fill="#0" id="circle107"/>
	<circle cx="562.873" cy="602.46" r="4" fill="#0" id="circle108"/>
	<circle cx="574.516" cy="229.878" r="4" fill="#0" id="circle109"/>
	<circle cx="579.174" cy="621.089" r="4" fill="#0" id="circle110"/>
	<circle cx="583.831" cy="253.164" r="4" fill="#0" id="circle111"/>
	<circle cx="588.488" cy="276.451" r="4" fill="#0" id="circle112"/>
	<circle cx="597.803" cy="635.061" r="4" fill="#0" id="circle113"/>
	<circle cx="602.46" cy="295.08" r="4" fill="#0" id="circle114"/>
	<circle cx="618.761" cy="646.704" r="4" fill="#0" id="circle115"/>
	<circle cx="623.418" cy="306.723" r="4" fill="#0" id="circle116"/>
	<circle cx="642.047" cy="646.704" r="4" fill="#0" id="circle117"/>
	<circle cx="644.376" cy="318.366" r="4" fill="#0" id="circle118"/>
	<circle cx="658.347" cy="336.995" r="4" fill="#0" id="circle119"/>
	<circle cx="663.005" cy="658.347" r="4" fill="#0" id="circle120"/>
	<circle cx="669.991" cy="357.953" r="4" fill="#0" id="circle121"/>
	<circle cx="669.991" cy="381.239" r="4" fill="#0" id="circle122"/>
	<circle cx="669.991" cy="404.526" r="4" fill="#0" id="circle123"/>
	<circle cx="669.991" cy="427.812" r="4" fill="#0" id="circle124"/>
	<circle cx="669.991" cy="451.099" r="4" fill="#0" id="circle125"/>
	<circle cx="669.991" cy="474.385" r="4" fill="#0" id="circle126"/>
	<circle cx="669.991" cy="497.671" r="4" fill="#0" id="circle127"/>
	<circle cx="669.991" cy="520.958" r="4" fill="#0" id="circle128"/>
	<circle cx="669.991" cy="544.244" r="4" fill="#0" id="circle129"/>
	<circle cx="669.991" cy="567.531" r="4" fill="#0" id="circle130"/>
	<circle cx="669.991" cy="590.817" r="4" fill="#0" id="circle131"/>
	<circle cx="686.291" cy="667.662" r="4" fill="#0" id="circle132"/>
	<circle cx="693.277" cy="597.803" r="4" fill="#0" id="circle133"/>
	<circle cx="707.249" cy="679.305" r="4" fill="#0" id="circle134"/>
	<circle cx="716.563" cy="604.789" r="4" fill="#0" id="circle135"/>
	<circle cx="725.878" cy="693.277" r="4" fill="#0" id="circle136"/>
	<circle cx="737.521" cy="616.432" r="4" fill="#0" id="circle137"/>
	<circle cx="746.836" cy="704.92" r="4" fill="#0" id="circle138"/>
	<circle cx="760.808" cy="625.746" r="4" fill="#0" id="circle139"/>
	<circle cx="763.136" cy="723.549" r="4" fill="#0" id="circle140"/>
	<circle cx="781.765" cy="637.39" r="4" fill="#0" id="circle141"/>
	<circle cx="786.423" cy="732.864" r="4" fill="#0" id="circle142"/>
	<circle cx="802.723" cy="751.493" r="4" fill="#0" id="circle143"/>
	<circle cx="805.052" cy="644.376" r="4" fill="#0" id="circle144"/>
	<circle cx="821.352" cy="767.793" r="4" fill="#0" id="circle145"/>
	<circle cx="828.338" cy="644.376" r="4" fill="#0" id="circle146"/>
	<circle cx="837.653" cy="786.423" r="4" fill="#0" id="circle147"/>
	<circle cx="851.624" cy="644.376" r="4" fill="#0" id="circle148"/>
	<circle cx="860.939" cy="795.737" r="4" fill="#0" id="circle149"/>
	<circle cx="874.911" cy="646.704" r="4" fill="#0" id="circle150"/>
	<circle cx="877.239" cy="814.366" r="4" fill="#0" id="circle151"/>
	<circle cx="895.869" cy="658.347" r="4" fill="#0" id="circle152"/>
	<circle cx="900.526" cy="821.352" r="4" fill="#0" id="circle153"/>
	<circle cx="919.155" cy="667.662" r="4" fill="#0" id="circle154"/>
	<circle cx="921.484" cy="832.995" r="4" fill="#0" id="circle155"/>
	<circle cx="935.455" cy="686.291" r="4" fill="#0" id="circle156"/>
	<circle cx="942.441" cy="844.638" r="4" fill="#0" id="circle157"/>
	<circle cx="954.085" cy="702.592" r="4" fill="#0" id="circle158"/>
	<circle cx="963.399" cy="856.282" r="4" fill="#0" id="circle159"/>
	<circle cx="970.385" cy="721.221" r="4" fill="#0" id="circle160"/>
	<circle cx="982.028" cy="742.178" r="4" fill="#0" id="circle161"/>
	<circle cx="984.357" cy="844.638" r="4" fill="#0" id="circle162"/>
	<circle cx="991.343" cy="765.465" r="4" fill="#0" id="circle163"/>
	<circle cx="996" cy="788.751" r="4" fill="#0" id="circle164"/>
	<circle cx="996" cy="812.038" r="4" fill="#0" id="circle165"/>
	</g>
</svg>