<?xml version="1.0" encoding="UTF-8" standalone="no"?>
<!-- Created with CurveBenchmark -->
<svg
	xmlns:dc="http://purl.org/dc/elements/1.1/"
	xmlns:cc="http://creativecommons.org/ns#"
	xmlns:rdf="http://www.w3.org/1999/02/22-rdf-syntax-ns#"
	xmlns:svg="http://www.w3.org/2000/svg"
	xmlns="http://www.w3.org/2000/svg"
	xmlns:sodipodi="http://sodipodi.sourceforge.net/DTD/sodipodi-0.dtd"
	xmlns:inkscape="http://www.inkscape.org/namespaces/inkscape"
	width="1000"
	height="1000"
	id="svg2"
	version="1.1"
	sodipodi:docname="manifold/nncrust-brick-14.png.txt">
<defs
	id="defs4" />
<metadata
	id="metadata7">
	<rdf:RDF>
		<cc:Work
			rdf:about="">
			<dc:format>image/svg+xml</dc:format>
			<dc:type
				rdf:resource="http://purl.org/dc/dcmitype/StillImage" />
			<dc:title></dc:title>
		</cc:Work>
	</rdf:RDF>
</metadata>
<g
	inkscape:label="Layer 1"
	inkscape:groupmode="layer"
	id="layer1">
	<path style="fill:none;stroke:red;stroke-width:1px;stroke-linecap:butt;stroke-linejoin:miter;stroke-opacity:1" d="M 107.027,6.94362 116.839,4 z" id="boundary" inkscape:connector-curvature="0" />
	<path style="fill:none;stroke:red;stroke-width:1px;stroke-linecap:butt;stroke-linejoin:miter;stroke-opacity:1" d="M 116.839,4 126.651,4 z" id="boundary" inkscape:connector-curvature="0" />
	<path style="fill:none;stroke:red;stroke-width:1px;stroke-linecap:butt;stroke-linejoin:miter;stroke-opacity:1" d="M 126.651,4 136.463,4 z" id="boundary" inkscape:connector-curvature="0" />
	<path style="fill:none;stroke:red;stroke-width:1px;stroke-linecap:butt;stroke-linejoin:miter;stroke-opacity:1" d="M 92.3086,21.6617 92.3086,31.4738 z" id="boundary" inkscape:connector-curvature="0" />
	<path style="fill:none;stroke:red;stroke-width:1px;stroke-linecap:butt;stroke-linejoin:miter;stroke-opacity:1" d="M 92.3086,21.6617 97.2146,11.8497 z" id="boundary" inkscape:connector-curvature="0" />
	<path style="fill:none;stroke:red;stroke-width:1px;stroke-linecap:butt;stroke-linejoin:miter;stroke-opacity:1" d="M 97.2146,11.8497 107.027,6.94362 z" id="boundary" inkscape:connector-curvature="0" />
	<path style="fill:none;stroke:red;stroke-width:1px;stroke-linecap:butt;stroke-linejoin:miter;stroke-opacity:1" d="M 92.3086,41.2859 92.3086,31.4738 z" id="boundary" inkscape:connector-curvature="0" />
	<path style="fill:none;stroke:red;stroke-width:1px;stroke-linecap:butt;stroke-linejoin:miter;stroke-opacity:1" d="M 92.3086,51.0979 92.3086,41.2859 z" id="boundary" inkscape:connector-curvature="0" />
	<path style="fill:none;stroke:red;stroke-width:1px;stroke-linecap:butt;stroke-linejoin:miter;stroke-opacity:1" d="M 136.463,4 146.275,4 z" id="boundary" inkscape:connector-curvature="0" />
	<path style="fill:none;stroke:red;stroke-width:1px;stroke-linecap:butt;stroke-linejoin:miter;stroke-opacity:1" d="M 156.087,4 165.899,4 z" id="boundary" inkscape:connector-curvature="0" />
	<path style="fill:none;stroke:red;stroke-width:1px;stroke-linecap:butt;stroke-linejoin:miter;stroke-opacity:1" d="M 146.275,4 156.087,4 z" id="boundary" inkscape:connector-curvature="0" />
	<path style="fill:none;stroke:red;stroke-width:1px;stroke-linecap:butt;stroke-linejoin:miter;stroke-opacity:1" d="M 175.711,4 185.523,4 z" id="boundary" inkscape:connector-curvature="0" />
	<path style="fill:none;stroke:red;stroke-width:1px;stroke-linecap:butt;stroke-linejoin:miter;stroke-opacity:1" d="M 195.335,4 205.147,4 z" id="boundary" inkscape:connector-curvature="0" />
	<path style="fill:none;stroke:red;stroke-width:1px;stroke-linecap:butt;stroke-linejoin:miter;stroke-opacity:1" d="M 185.523,4 195.335,4 z" id="boundary" inkscape:connector-curvature="0" />
	<path style="fill:none;stroke:red;stroke-width:1px;stroke-linecap:butt;stroke-linejoin:miter;stroke-opacity:1" d="M 165.899,4 175.711,4 z" id="boundary" inkscape:connector-curvature="0" />
	<path style="fill:none;stroke:red;stroke-width:1px;stroke-linecap:butt;stroke-linejoin:miter;stroke-opacity:1" d="M 205.147,4 214.959,4 z" id="boundary" inkscape:connector-curvature="0" />
	<path style="fill:none;stroke:red;stroke-width:1px;stroke-linecap:butt;stroke-linejoin:miter;stroke-opacity:1" d="M 73.6657,153.143 81.5153,146.275 z" id="boundary" inkscape:connector-curvature="0" />
	<path style="fill:none;stroke:red;stroke-width:1px;stroke-linecap:butt;stroke-linejoin:miter;stroke-opacity:1" d="M 88.3838,138.425 81.5153,146.275 z" id="boundary" inkscape:connector-curvature="0" />
	<path style="fill:none;stroke:red;stroke-width:1px;stroke-linecap:butt;stroke-linejoin:miter;stroke-opacity:1" d="M 92.3086,51.0979 92.3086,60.91 z" id="boundary" inkscape:connector-curvature="0" />
	<path style="fill:none;stroke:red;stroke-width:1px;stroke-linecap:butt;stroke-linejoin:miter;stroke-opacity:1" d="M 73.6657,153.143 63.8536,158.049 z" id="boundary" inkscape:connector-curvature="0" />
	<path style="fill:none;stroke:red;stroke-width:1px;stroke-linecap:butt;stroke-linejoin:miter;stroke-opacity:1" d="M 88.3838,138.425 96.2334,131.557 z" id="boundary" inkscape:connector-curvature="0" />
	<path style="fill:none;stroke:red;stroke-width:1px;stroke-linecap:butt;stroke-linejoin:miter;stroke-opacity:1" d="M 41.2859,180.617 46.1919,170.805 z" id="boundary" inkscape:connector-curvature="0" />
	<path style="fill:none;stroke:red;stroke-width:1px;stroke-linecap:butt;stroke-linejoin:miter;stroke-opacity:1" d="M 46.1919,170.805 56.004,165.899 z" id="boundary" inkscape:connector-curvature="0" />
	<path style="fill:none;stroke:red;stroke-width:1px;stroke-linecap:butt;stroke-linejoin:miter;stroke-opacity:1" d="M 56.004,165.899 63.8536,158.049 z" id="boundary" inkscape:connector-curvature="0" />
	<path style="fill:none;stroke:red;stroke-width:1px;stroke-linecap:butt;stroke-linejoin:miter;stroke-opacity:1" d="M 36.3798,190.429 41.2859,180.617 z" id="boundary" inkscape:connector-curvature="0" />
	<path style="fill:none;stroke:red;stroke-width:1px;stroke-linecap:butt;stroke-linejoin:miter;stroke-opacity:1" d="M 97.2146,69.7409 92.3086,60.91 z" id="boundary" inkscape:connector-curvature="0" />
	<path style="fill:none;stroke:red;stroke-width:1px;stroke-linecap:butt;stroke-linejoin:miter;stroke-opacity:1" d="M 102.121,78.5717 105.064,88.3838 z" id="boundary" inkscape:connector-curvature="0" />
	<path style="fill:none;stroke:red;stroke-width:1px;stroke-linecap:butt;stroke-linejoin:miter;stroke-opacity:1" d="M 97.2146,69.7409 102.121,78.5717 z" id="boundary" inkscape:connector-curvature="0" />
	<path style="fill:none;stroke:red;stroke-width:1px;stroke-linecap:butt;stroke-linejoin:miter;stroke-opacity:1" d="M 105.064,88.3838 107.027,98.1958 z" id="boundary" inkscape:connector-curvature="0" />
	<path style="fill:none;stroke:red;stroke-width:1px;stroke-linecap:butt;stroke-linejoin:miter;stroke-opacity:1" d="M 96.2334,131.557 103.102,123.707 z" id="boundary" inkscape:connector-curvature="0" />
	<path style="fill:none;stroke:red;stroke-width:1px;stroke-linecap:butt;stroke-linejoin:miter;stroke-opacity:1" d="M 107.027,98.1958 108.008,113.895 z" id="boundary" inkscape:connector-curvature="0" />
	<path style="fill:none;stroke:red;stroke-width:1px;stroke-linecap:butt;stroke-linejoin:miter;stroke-opacity:1" d="M 108.008,113.895 103.102,123.707 z" id="boundary" inkscape:connector-curvature="0" />
	<path style="fill:none;stroke:red;stroke-width:1px;stroke-linecap:butt;stroke-linejoin:miter;stroke-opacity:1" d="M 214.959,4 224.772,4 z" id="boundary" inkscape:connector-curvature="0" />
	<path style="fill:none;stroke:red;stroke-width:1px;stroke-linecap:butt;stroke-linejoin:miter;stroke-opacity:1" d="M 224.772,4 234.584,4 z" id="boundary" inkscape:connector-curvature="0" />
	<path style="fill:none;stroke:red;stroke-width:1px;stroke-linecap:butt;stroke-linejoin:miter;stroke-opacity:1" d="M 244.396,4 253.227,8.90603 z" id="boundary" inkscape:connector-curvature="0" />
	<path style="fill:none;stroke:red;stroke-width:1px;stroke-linecap:butt;stroke-linejoin:miter;stroke-opacity:1" d="M 234.584,4 244.396,4 z" id="boundary" inkscape:connector-curvature="0" />
	<path style="fill:none;stroke:red;stroke-width:1px;stroke-linecap:butt;stroke-linejoin:miter;stroke-opacity:1" d="M 263.039,8.90603 253.227,8.90603 z" id="boundary" inkscape:connector-curvature="0" />
	<path style="fill:none;stroke:red;stroke-width:1px;stroke-linecap:butt;stroke-linejoin:miter;stroke-opacity:1" d="M 263.039,8.90603 271.869,13.8121 z" id="boundary" inkscape:connector-curvature="0" />
	<path style="fill:none;stroke:red;stroke-width:1px;stroke-linecap:butt;stroke-linejoin:miter;stroke-opacity:1" d="M 289.531,23.6241 280.7,18.7181 z" id="boundary" inkscape:connector-curvature="0" />
	<path style="fill:none;stroke:red;stroke-width:1px;stroke-linecap:butt;stroke-linejoin:miter;stroke-opacity:1" d="M 299.343,26.5678 289.531,23.6241 z" id="boundary" inkscape:connector-curvature="0" />
	<path style="fill:none;stroke:red;stroke-width:1px;stroke-linecap:butt;stroke-linejoin:miter;stroke-opacity:1" d="M 280.7,18.7181 271.869,13.8121 z" id="boundary" inkscape:connector-curvature="0" />
	<path style="fill:none;stroke:red;stroke-width:1px;stroke-linecap:butt;stroke-linejoin:miter;stroke-opacity:1" d="M 306.212,34.4174 311.118,43.2483 z" id="boundary" inkscape:connector-curvature="0" />
	<path style="fill:none;stroke:red;stroke-width:1px;stroke-linecap:butt;stroke-linejoin:miter;stroke-opacity:1" d="M 311.118,43.2483 314.061,53.0603 z" id="boundary" inkscape:connector-curvature="0" />
	<path style="fill:none;stroke:red;stroke-width:1px;stroke-linecap:butt;stroke-linejoin:miter;stroke-opacity:1" d="M 299.343,26.5678 306.212,34.4174 z" id="boundary" inkscape:connector-curvature="0" />
	<path style="fill:none;stroke:red;stroke-width:1px;stroke-linecap:butt;stroke-linejoin:miter;stroke-opacity:1" d="M 318.967,61.8912 328.779,62.8724 z" id="boundary" inkscape:connector-curvature="0" />
	<path style="fill:none;stroke:red;stroke-width:1px;stroke-linecap:butt;stroke-linejoin:miter;stroke-opacity:1" d="M 328.779,62.8724 337.61,67.7784 z" id="boundary" inkscape:connector-curvature="0" />
	<path style="fill:none;stroke:red;stroke-width:1px;stroke-linecap:butt;stroke-linejoin:miter;stroke-opacity:1" d="M 318.967,61.8912 314.061,53.0603 z" id="boundary" inkscape:connector-curvature="0" />
	<path style="fill:none;stroke:red;stroke-width:1px;stroke-linecap:butt;stroke-linejoin:miter;stroke-opacity:1" d="M 337.61,67.7784 347.422,67.7784 z" id="boundary" inkscape:connector-curvature="0" />
	<path style="fill:none;stroke:red;stroke-width:1px;stroke-linecap:butt;stroke-linejoin:miter;stroke-opacity:1" d="M 347.422,67.7784 356.253,72.6845 z" id="boundary" inkscape:connector-curvature="0" />
	<path style="fill:none;stroke:red;stroke-width:1px;stroke-linecap:butt;stroke-linejoin:miter;stroke-opacity:1" d="M 366.065,72.6845 356.253,72.6845 z" id="boundary" inkscape:connector-curvature="0" />
	<path style="fill:none;stroke:red;stroke-width:1px;stroke-linecap:butt;stroke-linejoin:miter;stroke-opacity:1" d="M 366.065,72.6845 375.877,72.6845 z" id="boundary" inkscape:connector-curvature="0" />
	<path style="fill:none;stroke:red;stroke-width:1px;stroke-linecap:butt;stroke-linejoin:miter;stroke-opacity:1" d="M 385.689,72.6845 375.877,72.6845 z" id="boundary" inkscape:connector-curvature="0" />
	<path style="fill:none;stroke:red;stroke-width:1px;stroke-linecap:butt;stroke-linejoin:miter;stroke-opacity:1" d="M 385.689,72.6845 395.501,72.6845 z" id="boundary" inkscape:connector-curvature="0" />
	<path style="fill:none;stroke:red;stroke-width:1px;stroke-linecap:butt;stroke-linejoin:miter;stroke-opacity:1" d="M 405.314,72.6845 395.501,72.6845 z" id="boundary" inkscape:connector-curvature="0" />
	<path style="fill:none;stroke:red;stroke-width:1px;stroke-linecap:butt;stroke-linejoin:miter;stroke-opacity:1" d="M 405.314,72.6845 415.126,72.6845 z" id="boundary" inkscape:connector-curvature="0" />
	<path style="fill:none;stroke:red;stroke-width:1px;stroke-linecap:butt;stroke-linejoin:miter;stroke-opacity:1" d="M 424.938,72.6845 415.126,72.6845 z" id="boundary" inkscape:connector-curvature="0" />
	<path style="fill:none;stroke:red;stroke-width:1px;stroke-linecap:butt;stroke-linejoin:miter;stroke-opacity:1" d="M 424.938,72.6845 434.75,72.6845 z" id="boundary" inkscape:connector-curvature="0" />
	<path style="fill:none;stroke:red;stroke-width:1px;stroke-linecap:butt;stroke-linejoin:miter;stroke-opacity:1" d="M 444.562,72.6845 434.75,72.6845 z" id="boundary" inkscape:connector-curvature="0" />
	<path style="fill:none;stroke:red;stroke-width:1px;stroke-linecap:butt;stroke-linejoin:miter;stroke-opacity:1" d="M 444.562,72.6845 454.374,72.6845 z" id="boundary" inkscape:connector-curvature="0" />
	<path style="fill:none;stroke:red;stroke-width:1px;stroke-linecap:butt;stroke-linejoin:miter;stroke-opacity:1" d="M 464.186,72.6845 454.374,72.6845 z" id="boundary" inkscape:connector-curvature="0" />
	<path style="fill:none;stroke:red;stroke-width:1px;stroke-linecap:butt;stroke-linejoin:miter;stroke-opacity:1" d="M 464.186,72.6845 473.998,72.6845 z" id="boundary" inkscape:connector-curvature="0" />
	<path style="fill:none;stroke:red;stroke-width:1px;stroke-linecap:butt;stroke-linejoin:miter;stroke-opacity:1" d="M 483.81,72.6845 473.998,72.6845 z" id="boundary" inkscape:connector-curvature="0" />
	<path style="fill:none;stroke:red;stroke-width:1px;stroke-linecap:butt;stroke-linejoin:miter;stroke-opacity:1" d="M 483.81,72.6845 493.622,72.6845 z" id="boundary" inkscape:connector-curvature="0" />
	<path style="fill:none;stroke:red;stroke-width:1px;stroke-linecap:butt;stroke-linejoin:miter;stroke-opacity:1" d="M 503.434,72.6845 493.622,72.6845 z" id="boundary" inkscape:connector-curvature="0" />
	<path style="fill:none;stroke:red;stroke-width:1px;stroke-linecap:butt;stroke-linejoin:miter;stroke-opacity:1" d="M 4,227.715 4,217.903 z" id="boundary" inkscape:connector-curvature="0" />
	<path style="fill:none;stroke:red;stroke-width:1px;stroke-linecap:butt;stroke-linejoin:miter;stroke-opacity:1" d="M 4,217.903 11.8497,210.053 z" id="boundary" inkscape:connector-curvature="0" />
	<path style="fill:none;stroke:red;stroke-width:1px;stroke-linecap:butt;stroke-linejoin:miter;stroke-opacity:1" d="M 8.90603,236.546 4,227.715 z" id="boundary" inkscape:connector-curvature="0" />
	<path style="fill:none;stroke:red;stroke-width:1px;stroke-linecap:butt;stroke-linejoin:miter;stroke-opacity:1" d="M 19.6993,202.204 11.8497,210.053 z" id="boundary" inkscape:connector-curvature="0" />
	<path style="fill:none;stroke:red;stroke-width:1px;stroke-linecap:butt;stroke-linejoin:miter;stroke-opacity:1" d="M 8.90603,236.546 13.8121,245.377 z" id="boundary" inkscape:connector-curvature="0" />
	<path style="fill:none;stroke:red;stroke-width:1px;stroke-linecap:butt;stroke-linejoin:miter;stroke-opacity:1" d="M 19.6993,253.227 24.6053,262.057 z" id="boundary" inkscape:connector-curvature="0" />
	<path style="fill:none;stroke:red;stroke-width:1px;stroke-linecap:butt;stroke-linejoin:miter;stroke-opacity:1" d="M 13.8121,245.377 19.6993,253.227 z" id="boundary" inkscape:connector-curvature="0" />
	<path style="fill:none;stroke:red;stroke-width:1px;stroke-linecap:butt;stroke-linejoin:miter;stroke-opacity:1" d="M 24.6053,262.057 28.5302,271.869 z" id="boundary" inkscape:connector-curvature="0" />
	<path style="fill:none;stroke:red;stroke-width:1px;stroke-linecap:butt;stroke-linejoin:miter;stroke-opacity:1" d="M 19.6993,202.204 27.549,195.335 z" id="boundary" inkscape:connector-curvature="0" />
	<path style="fill:none;stroke:red;stroke-width:1px;stroke-linecap:butt;stroke-linejoin:miter;stroke-opacity:1" d="M 27.549,195.335 36.3798,190.429 z" id="boundary" inkscape:connector-curvature="0" />
	<path style="fill:none;stroke:red;stroke-width:1px;stroke-linecap:butt;stroke-linejoin:miter;stroke-opacity:1" d="M 33.4362,280.7 28.5302,271.869 z" id="boundary" inkscape:connector-curvature="0" />
	<path style="fill:none;stroke:red;stroke-width:1px;stroke-linecap:butt;stroke-linejoin:miter;stroke-opacity:1" d="M 146.275,291.494 156.087,286.588 z" id="boundary" inkscape:connector-curvature="0" />
	<path style="fill:none;stroke:red;stroke-width:1px;stroke-linecap:butt;stroke-linejoin:miter;stroke-opacity:1" d="M 156.087,286.588 165.899,284.625 z" id="boundary" inkscape:connector-curvature="0" />
	<path style="fill:none;stroke:red;stroke-width:1px;stroke-linecap:butt;stroke-linejoin:miter;stroke-opacity:1" d="M 165.899,284.625 175.711,284.625 z" id="boundary" inkscape:connector-curvature="0" />
	<path style="fill:none;stroke:red;stroke-width:1px;stroke-linecap:butt;stroke-linejoin:miter;stroke-opacity:1" d="M 175.711,284.625 185.523,284.625 z" id="boundary" inkscape:connector-curvature="0" />
	<path style="fill:none;stroke:red;stroke-width:1px;stroke-linecap:butt;stroke-linejoin:miter;stroke-opacity:1" d="M 185.523,284.625 194.354,289.531 z" id="boundary" inkscape:connector-curvature="0" />
	<path style="fill:none;stroke:red;stroke-width:1px;stroke-linecap:butt;stroke-linejoin:miter;stroke-opacity:1" d="M 38.3422,289.531 38.3422,299.343 z" id="boundary" inkscape:connector-curvature="0" />
	<path style="fill:none;stroke:red;stroke-width:1px;stroke-linecap:butt;stroke-linejoin:miter;stroke-opacity:1" d="M 33.4362,280.7 38.3422,289.531 z" id="boundary" inkscape:connector-curvature="0" />
	<path style="fill:none;stroke:red;stroke-width:1px;stroke-linecap:butt;stroke-linejoin:miter;stroke-opacity:1" d="M 43.2483,308.174 38.3422,299.343 z" id="boundary" inkscape:connector-curvature="0" />
	<path style="fill:none;stroke:red;stroke-width:1px;stroke-linecap:butt;stroke-linejoin:miter;stroke-opacity:1" d="M 88.3838,304.249 78.5717,309.155 z" id="boundary" inkscape:connector-curvature="0" />
	<path style="fill:none;stroke:red;stroke-width:1px;stroke-linecap:butt;stroke-linejoin:miter;stroke-opacity:1" d="M 59.9288,318.967 51.0979,314.061 z" id="boundary" inkscape:connector-curvature="0" />
	<path style="fill:none;stroke:red;stroke-width:1px;stroke-linecap:butt;stroke-linejoin:miter;stroke-opacity:1" d="M 68.7596,314.061 59.9288,318.967 z" id="boundary" inkscape:connector-curvature="0" />
	<path style="fill:none;stroke:red;stroke-width:1px;stroke-linecap:butt;stroke-linejoin:miter;stroke-opacity:1" d="M 51.0979,314.061 43.2483,308.174 z" id="boundary" inkscape:connector-curvature="0" />
	<path style="fill:none;stroke:red;stroke-width:1px;stroke-linecap:butt;stroke-linejoin:miter;stroke-opacity:1" d="M 78.5717,309.155 68.7596,314.061 z" id="boundary" inkscape:connector-curvature="0" />
	<path style="fill:none;stroke:red;stroke-width:1px;stroke-linecap:butt;stroke-linejoin:miter;stroke-opacity:1" d="M 88.3838,304.249 98.1958,304.249 z" id="boundary" inkscape:connector-curvature="0" />
	<path style="fill:none;stroke:red;stroke-width:1px;stroke-linecap:butt;stroke-linejoin:miter;stroke-opacity:1" d="M 127.632,299.343 136.463,294.437 z" id="boundary" inkscape:connector-curvature="0" />
	<path style="fill:none;stroke:red;stroke-width:1px;stroke-linecap:butt;stroke-linejoin:miter;stroke-opacity:1" d="M 136.463,294.437 146.275,291.494 z" id="boundary" inkscape:connector-curvature="0" />
	<path style="fill:none;stroke:red;stroke-width:1px;stroke-linecap:butt;stroke-linejoin:miter;stroke-opacity:1" d="M 194.354,289.531 203.185,294.437 z" id="boundary" inkscape:connector-curvature="0" />
	<path style="fill:none;stroke:red;stroke-width:1px;stroke-linecap:butt;stroke-linejoin:miter;stroke-opacity:1" d="M 212.997,294.437 203.185,294.437 z" id="boundary" inkscape:connector-curvature="0" />
	<path style="fill:none;stroke:red;stroke-width:1px;stroke-linecap:butt;stroke-linejoin:miter;stroke-opacity:1" d="M 98.1958,304.249 108.008,299.343 z" id="boundary" inkscape:connector-curvature="0" />
	<path style="fill:none;stroke:red;stroke-width:1px;stroke-linecap:butt;stroke-linejoin:miter;stroke-opacity:1" d="M 108.008,299.343 117.82,299.343 z" id="boundary" inkscape:connector-curvature="0" />
	<path style="fill:none;stroke:red;stroke-width:1px;stroke-linecap:butt;stroke-linejoin:miter;stroke-opacity:1" d="M 117.82,299.343 127.632,299.343 z" id="boundary" inkscape:connector-curvature="0" />
	<path style="fill:none;stroke:red;stroke-width:1px;stroke-linecap:butt;stroke-linejoin:miter;stroke-opacity:1" d="M 212.997,294.437 221.828,299.343 z" id="boundary" inkscape:connector-curvature="0" />
	<path style="fill:none;stroke:red;stroke-width:1px;stroke-linecap:butt;stroke-linejoin:miter;stroke-opacity:1" d="M 230.659,304.249 240.471,306.212 z" id="boundary" inkscape:connector-curvature="0" />
	<path style="fill:none;stroke:red;stroke-width:1px;stroke-linecap:butt;stroke-linejoin:miter;stroke-opacity:1" d="M 230.659,304.249 221.828,299.343 z" id="boundary" inkscape:connector-curvature="0" />
	<path style="fill:none;stroke:red;stroke-width:1px;stroke-linecap:butt;stroke-linejoin:miter;stroke-opacity:1" d="M 250.283,309.155 259.114,314.061 z" id="boundary" inkscape:connector-curvature="0" />
	<path style="fill:none;stroke:red;stroke-width:1px;stroke-linecap:butt;stroke-linejoin:miter;stroke-opacity:1" d="M 240.471,306.212 250.283,309.155 z" id="boundary" inkscape:connector-curvature="0" />
	<path style="fill:none;stroke:red;stroke-width:1px;stroke-linecap:butt;stroke-linejoin:miter;stroke-opacity:1" d="M 267.945,318.967 276.775,323.873 z" id="boundary" inkscape:connector-curvature="0" />
	<path style="fill:none;stroke:red;stroke-width:1px;stroke-linecap:butt;stroke-linejoin:miter;stroke-opacity:1" d="M 267.945,318.967 259.114,314.061 z" id="boundary" inkscape:connector-curvature="0" />
	<path style="fill:none;stroke:red;stroke-width:1px;stroke-linecap:butt;stroke-linejoin:miter;stroke-opacity:1" d="M 276.775,323.873 285.606,328.779 z" id="boundary" inkscape:connector-curvature="0" />
	<path style="fill:none;stroke:red;stroke-width:1px;stroke-linecap:butt;stroke-linejoin:miter;stroke-opacity:1" d="M 285.606,328.779 294.437,333.685 z" id="boundary" inkscape:connector-curvature="0" />
	<path style="fill:none;stroke:red;stroke-width:1px;stroke-linecap:butt;stroke-linejoin:miter;stroke-opacity:1" d="M 303.268,338.591 313.08,338.591 z" id="boundary" inkscape:connector-curvature="0" />
	<path style="fill:none;stroke:red;stroke-width:1px;stroke-linecap:butt;stroke-linejoin:miter;stroke-opacity:1" d="M 313.08,338.591 321.911,343.498 z" id="boundary" inkscape:connector-curvature="0" />
	<path style="fill:none;stroke:red;stroke-width:1px;stroke-linecap:butt;stroke-linejoin:miter;stroke-opacity:1" d="M 303.268,338.591 294.437,333.685 z" id="boundary" inkscape:connector-curvature="0" />
	<path style="fill:none;stroke:red;stroke-width:1px;stroke-linecap:butt;stroke-linejoin:miter;stroke-opacity:1" d="M 493.622,338.591 484.791,343.498 z" id="boundary" inkscape:connector-curvature="0" />
	<path style="fill:none;stroke:red;stroke-width:1px;stroke-linecap:butt;stroke-linejoin:miter;stroke-opacity:1" d="M 484.791,343.498 474.979,345.46 z" id="boundary" inkscape:connector-curvature="0" />
	<path style="fill:none;stroke:red;stroke-width:1px;stroke-linecap:butt;stroke-linejoin:miter;stroke-opacity:1" d="M 493.622,338.591 503.434,338.591 z" id="boundary" inkscape:connector-curvature="0" />
	<path style="fill:none;stroke:red;stroke-width:1px;stroke-linecap:butt;stroke-linejoin:miter;stroke-opacity:1" d="M 503.434,338.591 513.246,338.591 z" id="boundary" inkscape:connector-curvature="0" />
	<path style="fill:none;stroke:red;stroke-width:1px;stroke-linecap:butt;stroke-linejoin:miter;stroke-opacity:1" d="M 330.742,348.404 338.591,355.272 z" id="boundary" inkscape:connector-curvature="0" />
	<path style="fill:none;stroke:red;stroke-width:1px;stroke-linecap:butt;stroke-linejoin:miter;stroke-opacity:1" d="M 321.911,343.498 330.742,348.404 z" id="boundary" inkscape:connector-curvature="0" />
	<path style="fill:none;stroke:red;stroke-width:1px;stroke-linecap:butt;stroke-linejoin:miter;stroke-opacity:1" d="M 348.404,358.216 338.591,355.272 z" id="boundary" inkscape:connector-curvature="0" />
	<path style="fill:none;stroke:red;stroke-width:1px;stroke-linecap:butt;stroke-linejoin:miter;stroke-opacity:1" d="M 377.84,358.216 387.652,353.31 z" id="boundary" inkscape:connector-curvature="0" />
	<path style="fill:none;stroke:red;stroke-width:1px;stroke-linecap:butt;stroke-linejoin:miter;stroke-opacity:1" d="M 387.652,353.31 397.464,353.31 z" id="boundary" inkscape:connector-curvature="0" />
	<path style="fill:none;stroke:red;stroke-width:1px;stroke-linecap:butt;stroke-linejoin:miter;stroke-opacity:1" d="M 348.404,358.216 358.216,358.216 z" id="boundary" inkscape:connector-curvature="0" />
	<path style="fill:none;stroke:red;stroke-width:1px;stroke-linecap:butt;stroke-linejoin:miter;stroke-opacity:1" d="M 368.028,358.216 377.84,358.216 z" id="boundary" inkscape:connector-curvature="0" />
	<path style="fill:none;stroke:red;stroke-width:1px;stroke-linecap:butt;stroke-linejoin:miter;stroke-opacity:1" d="M 368.028,358.216 358.216,358.216 z" id="boundary" inkscape:connector-curvature="0" />
	<path style="fill:none;stroke:red;stroke-width:1px;stroke-linecap:butt;stroke-linejoin:miter;stroke-opacity:1" d="M 397.464,353.31 407.276,353.31 z" id="boundary" inkscape:connector-curvature="0" />
	<path style="fill:none;stroke:red;stroke-width:1px;stroke-linecap:butt;stroke-linejoin:miter;stroke-opacity:1" d="M 445.543,348.404 455.355,348.404 z" id="boundary" inkscape:connector-curvature="0" />
	<path style="fill:none;stroke:red;stroke-width:1px;stroke-linecap:butt;stroke-linejoin:miter;stroke-opacity:1" d="M 436.712,353.31 445.543,348.404 z" id="boundary" inkscape:connector-curvature="0" />
	<path style="fill:none;stroke:red;stroke-width:1px;stroke-linecap:butt;stroke-linejoin:miter;stroke-opacity:1" d="M 465.167,348.404 474.979,345.46 z" id="boundary" inkscape:connector-curvature="0" />
	<path style="fill:none;stroke:red;stroke-width:1px;stroke-linecap:butt;stroke-linejoin:miter;stroke-opacity:1" d="M 465.167,348.404 455.355,348.404 z" id="boundary" inkscape:connector-curvature="0" />
	<path style="fill:none;stroke:red;stroke-width:1px;stroke-linecap:butt;stroke-linejoin:miter;stroke-opacity:1" d="M 407.276,353.31 417.088,353.31 z" id="boundary" inkscape:connector-curvature="0" />
	<path style="fill:none;stroke:red;stroke-width:1px;stroke-linecap:butt;stroke-linejoin:miter;stroke-opacity:1" d="M 426.9,353.31 436.712,353.31 z" id="boundary" inkscape:connector-curvature="0" />
	<path style="fill:none;stroke:red;stroke-width:1px;stroke-linecap:butt;stroke-linejoin:miter;stroke-opacity:1" d="M 426.9,353.31 417.088,353.31 z" id="boundary" inkscape:connector-curvature="0" />
	<path style="fill:none;stroke:red;stroke-width:1px;stroke-linecap:butt;stroke-linejoin:miter;stroke-opacity:1" d="M 609.405,57.9664 619.217,54.0415 z" id="boundary" inkscape:connector-curvature="0" />
	<path style="fill:none;stroke:red;stroke-width:1px;stroke-linecap:butt;stroke-linejoin:miter;stroke-opacity:1" d="M 619.217,54.0415 629.029,53.0603 z" id="boundary" inkscape:connector-curvature="0" />
	<path style="fill:none;stroke:red;stroke-width:1px;stroke-linecap:butt;stroke-linejoin:miter;stroke-opacity:1" d="M 658.465,44.2295 648.653,49.1355 z" id="boundary" inkscape:connector-curvature="0" />
	<path style="fill:none;stroke:red;stroke-width:1px;stroke-linecap:butt;stroke-linejoin:miter;stroke-opacity:1" d="M 638.841,53.0603 648.653,49.1355 z" id="boundary" inkscape:connector-curvature="0" />
	<path style="fill:none;stroke:red;stroke-width:1px;stroke-linecap:butt;stroke-linejoin:miter;stroke-opacity:1" d="M 638.841,53.0603 629.029,53.0603 z" id="boundary" inkscape:connector-curvature="0" />
	<path style="fill:none;stroke:red;stroke-width:1px;stroke-linecap:butt;stroke-linejoin:miter;stroke-opacity:1" d="M 580.95,62.8724 590.762,62.8724 z" id="boundary" inkscape:connector-curvature="0" />
	<path style="fill:none;stroke:red;stroke-width:1px;stroke-linecap:butt;stroke-linejoin:miter;stroke-opacity:1" d="M 571.137,67.7784 580.95,62.8724 z" id="boundary" inkscape:connector-curvature="0" />
	<path style="fill:none;stroke:red;stroke-width:1px;stroke-linecap:butt;stroke-linejoin:miter;stroke-opacity:1" d="M 599.592,57.9664 590.762,62.8724 z" id="boundary" inkscape:connector-curvature="0" />
	<path style="fill:none;stroke:red;stroke-width:1px;stroke-linecap:butt;stroke-linejoin:miter;stroke-opacity:1" d="M 599.592,57.9664 609.405,57.9664 z" id="boundary" inkscape:connector-curvature="0" />
	<path style="fill:none;stroke:red;stroke-width:1px;stroke-linecap:butt;stroke-linejoin:miter;stroke-opacity:1" d="M 513.246,72.6845 503.434,72.6845 z" id="boundary" inkscape:connector-curvature="0" />
	<path style="fill:none;stroke:red;stroke-width:1px;stroke-linecap:butt;stroke-linejoin:miter;stroke-opacity:1" d="M 668.277,43.2483 678.089,43.2483 z" id="boundary" inkscape:connector-curvature="0" />
	<path style="fill:none;stroke:red;stroke-width:1px;stroke-linecap:butt;stroke-linejoin:miter;stroke-opacity:1" d="M 687.901,43.2483 697.713,43.2483 z" id="boundary" inkscape:connector-curvature="0" />
	<path style="fill:none;stroke:red;stroke-width:1px;stroke-linecap:butt;stroke-linejoin:miter;stroke-opacity:1" d="M 697.713,43.2483 706.544,48.1543 z" id="boundary" inkscape:connector-curvature="0" />
	<path style="fill:none;stroke:red;stroke-width:1px;stroke-linecap:butt;stroke-linejoin:miter;stroke-opacity:1" d="M 687.901,43.2483 678.089,43.2483 z" id="boundary" inkscape:connector-curvature="0" />
	<path style="fill:none;stroke:red;stroke-width:1px;stroke-linecap:butt;stroke-linejoin:miter;stroke-opacity:1" d="M 716.356,51.0979 725.187,56.004 z" id="boundary" inkscape:connector-curvature="0" />
	<path style="fill:none;stroke:red;stroke-width:1px;stroke-linecap:butt;stroke-linejoin:miter;stroke-opacity:1" d="M 706.544,48.1543 716.356,51.0979 z" id="boundary" inkscape:connector-curvature="0" />
	<path style="fill:none;stroke:red;stroke-width:1px;stroke-linecap:butt;stroke-linejoin:miter;stroke-opacity:1" d="M 658.465,44.2295 668.277,43.2483 z" id="boundary" inkscape:connector-curvature="0" />
	<path style="fill:none;stroke:red;stroke-width:1px;stroke-linecap:butt;stroke-linejoin:miter;stroke-opacity:1" d="M 725.187,56.004 733.037,62.8724 z" id="boundary" inkscape:connector-curvature="0" />
	<path style="fill:none;stroke:red;stroke-width:1px;stroke-linecap:butt;stroke-linejoin:miter;stroke-opacity:1" d="M 523.058,72.6845 513.246,72.6845 z" id="boundary" inkscape:connector-curvature="0" />
	<path style="fill:none;stroke:red;stroke-width:1px;stroke-linecap:butt;stroke-linejoin:miter;stroke-opacity:1" d="M 552.495,72.6845 561.325,67.7784 z" id="boundary" inkscape:connector-curvature="0" />
	<path style="fill:none;stroke:red;stroke-width:1px;stroke-linecap:butt;stroke-linejoin:miter;stroke-opacity:1" d="M 561.325,67.7784 571.137,67.7784 z" id="boundary" inkscape:connector-curvature="0" />
	<path style="fill:none;stroke:red;stroke-width:1px;stroke-linecap:butt;stroke-linejoin:miter;stroke-opacity:1" d="M 733.037,62.8724 741.867,67.7784 z" id="boundary" inkscape:connector-curvature="0" />
	<path style="fill:none;stroke:red;stroke-width:1px;stroke-linecap:butt;stroke-linejoin:miter;stroke-opacity:1" d="M 523.058,72.6845 532.87,72.6845 z" id="boundary" inkscape:connector-curvature="0" />
	<path style="fill:none;stroke:red;stroke-width:1px;stroke-linecap:butt;stroke-linejoin:miter;stroke-opacity:1" d="M 542.682,72.6845 552.495,72.6845 z" id="boundary" inkscape:connector-curvature="0" />
	<path style="fill:none;stroke:red;stroke-width:1px;stroke-linecap:butt;stroke-linejoin:miter;stroke-opacity:1" d="M 542.682,72.6845 532.87,72.6845 z" id="boundary" inkscape:connector-curvature="0" />
	<path style="fill:none;stroke:red;stroke-width:1px;stroke-linecap:butt;stroke-linejoin:miter;stroke-opacity:1" d="M 741.867,67.7784 750.698,72.6845 z" id="boundary" inkscape:connector-curvature="0" />
	<path style="fill:none;stroke:red;stroke-width:1px;stroke-linecap:butt;stroke-linejoin:miter;stroke-opacity:1" d="M 768.36,82.4965 759.529,77.5905 z" id="boundary" inkscape:connector-curvature="0" />
	<path style="fill:none;stroke:red;stroke-width:1px;stroke-linecap:butt;stroke-linejoin:miter;stroke-opacity:1" d="M 778.172,83.4777 768.36,82.4965 z" id="boundary" inkscape:connector-curvature="0" />
	<path style="fill:none;stroke:red;stroke-width:1px;stroke-linecap:butt;stroke-linejoin:miter;stroke-opacity:1" d="M 759.529,77.5905 750.698,72.6845 z" id="boundary" inkscape:connector-curvature="0" />
	<path style="fill:none;stroke:red;stroke-width:1px;stroke-linecap:butt;stroke-linejoin:miter;stroke-opacity:1" d="M 787.003,88.3838 794.853,95.2522 z" id="boundary" inkscape:connector-curvature="0" />
	<path style="fill:none;stroke:red;stroke-width:1px;stroke-linecap:butt;stroke-linejoin:miter;stroke-opacity:1" d="M 787.003,88.3838 778.172,83.4777 z" id="boundary" inkscape:connector-curvature="0" />
	<path style="fill:none;stroke:red;stroke-width:1px;stroke-linecap:butt;stroke-linejoin:miter;stroke-opacity:1" d="M 803.683,100.158 794.853,95.2522 z" id="boundary" inkscape:connector-curvature="0" />
	<path style="fill:none;stroke:red;stroke-width:1px;stroke-linecap:butt;stroke-linejoin:miter;stroke-opacity:1" d="M 803.683,100.158 811.533,107.027 z" id="boundary" inkscape:connector-curvature="0" />
	<path style="fill:none;stroke:red;stroke-width:1px;stroke-linecap:butt;stroke-linejoin:miter;stroke-opacity:1" d="M 885.124,97.2146 894.936,92.3086 z" id="boundary" inkscape:connector-curvature="0" />
	<path style="fill:none;stroke:red;stroke-width:1px;stroke-linecap:butt;stroke-linejoin:miter;stroke-opacity:1" d="M 894.936,92.3086 904.748,92.3086 z" id="boundary" inkscape:connector-curvature="0" />
	<path style="fill:none;stroke:red;stroke-width:1px;stroke-linecap:butt;stroke-linejoin:miter;stroke-opacity:1" d="M 904.748,92.3086 914.56,92.3086 z" id="boundary" inkscape:connector-curvature="0" />
	<path style="fill:none;stroke:red;stroke-width:1px;stroke-linecap:butt;stroke-linejoin:miter;stroke-opacity:1" d="M 924.372,87.4026 914.56,92.3086 z" id="boundary" inkscape:connector-curvature="0" />
	<path style="fill:none;stroke:red;stroke-width:1px;stroke-linecap:butt;stroke-linejoin:miter;stroke-opacity:1" d="M 875.312,102.121 885.124,97.2146 z" id="boundary" inkscape:connector-curvature="0" />
	<path style="fill:none;stroke:red;stroke-width:1px;stroke-linecap:butt;stroke-linejoin:miter;stroke-opacity:1" d="M 855.687,107.027 846.857,111.933 z" id="boundary" inkscape:connector-curvature="0" />
	<path style="fill:none;stroke:red;stroke-width:1px;stroke-linecap:butt;stroke-linejoin:miter;stroke-opacity:1" d="M 865.5,107.027 875.312,102.121 z" id="boundary" inkscape:connector-curvature="0" />
	<path style="fill:none;stroke:red;stroke-width:1px;stroke-linecap:butt;stroke-linejoin:miter;stroke-opacity:1" d="M 865.5,107.027 855.687,107.027 z" id="boundary" inkscape:connector-curvature="0" />
	<path style="fill:none;stroke:red;stroke-width:1px;stroke-linecap:butt;stroke-linejoin:miter;stroke-opacity:1" d="M 943.015,82.4965 952.827,78.5717 z" id="boundary" inkscape:connector-curvature="0" />
	<path style="fill:none;stroke:red;stroke-width:1px;stroke-linecap:butt;stroke-linejoin:miter;stroke-opacity:1" d="M 962.639,77.5905 971.47,82.4965 z" id="boundary" inkscape:connector-curvature="0" />
	<path style="fill:none;stroke:red;stroke-width:1px;stroke-linecap:butt;stroke-linejoin:miter;stroke-opacity:1" d="M 952.827,78.5717 962.639,77.5905 z" id="boundary" inkscape:connector-curvature="0" />
	<path style="fill:none;stroke:red;stroke-width:1px;stroke-linecap:butt;stroke-linejoin:miter;stroke-opacity:1" d="M 971.47,82.4965 976.376,91.3274 z" id="boundary" inkscape:connector-curvature="0" />
	<path style="fill:none;stroke:red;stroke-width:1px;stroke-linecap:butt;stroke-linejoin:miter;stroke-opacity:1" d="M 934.184,87.4026 924.372,87.4026 z" id="boundary" inkscape:connector-curvature="0" />
	<path style="fill:none;stroke:red;stroke-width:1px;stroke-linecap:butt;stroke-linejoin:miter;stroke-opacity:1" d="M 943.015,82.4965 934.184,87.4026 z" id="boundary" inkscape:connector-curvature="0" />
	<path style="fill:none;stroke:red;stroke-width:1px;stroke-linecap:butt;stroke-linejoin:miter;stroke-opacity:1" d="M 976.376,91.3274 981.282,100.158 z" id="boundary" inkscape:connector-curvature="0" />
	<path style="fill:none;stroke:red;stroke-width:1px;stroke-linecap:butt;stroke-linejoin:miter;stroke-opacity:1" d="M 981.282,100.158 986.188,108.989 z" id="boundary" inkscape:connector-curvature="0" />
	<path style="fill:none;stroke:red;stroke-width:1px;stroke-linecap:butt;stroke-linejoin:miter;stroke-opacity:1" d="M 818.402,114.876 828.214,116.839 z" id="boundary" inkscape:connector-curvature="0" />
	<path style="fill:none;stroke:red;stroke-width:1px;stroke-linecap:butt;stroke-linejoin:miter;stroke-opacity:1" d="M 818.402,114.876 811.533,107.027 z" id="boundary" inkscape:connector-curvature="0" />
	<path style="fill:none;stroke:red;stroke-width:1px;stroke-linecap:butt;stroke-linejoin:miter;stroke-opacity:1" d="M 838.026,116.839 846.857,111.933 z" id="boundary" inkscape:connector-curvature="0" />
	<path style="fill:none;stroke:red;stroke-width:1px;stroke-linecap:butt;stroke-linejoin:miter;stroke-opacity:1" d="M 838.026,116.839 828.214,116.839 z" id="boundary" inkscape:connector-curvature="0" />
	<path style="fill:none;stroke:red;stroke-width:1px;stroke-linecap:butt;stroke-linejoin:miter;stroke-opacity:1" d="M 951.846,220.847 959.695,213.978 z" id="boundary" inkscape:connector-curvature="0" />
	<path style="fill:none;stroke:red;stroke-width:1px;stroke-linecap:butt;stroke-linejoin:miter;stroke-opacity:1" d="M 946.94,230.659 951.846,220.847 z" id="boundary" inkscape:connector-curvature="0" />
	<path style="fill:none;stroke:red;stroke-width:1px;stroke-linecap:butt;stroke-linejoin:miter;stroke-opacity:1" d="M 964.601,204.166 959.695,213.978 z" id="boundary" inkscape:connector-curvature="0" />
	<path style="fill:none;stroke:red;stroke-width:1px;stroke-linecap:butt;stroke-linejoin:miter;stroke-opacity:1" d="M 964.601,204.166 969.507,194.354 z" id="boundary" inkscape:connector-curvature="0" />
	<path style="fill:none;stroke:red;stroke-width:1px;stroke-linecap:butt;stroke-linejoin:miter;stroke-opacity:1" d="M 971.47,176.692 969.507,194.354 z" id="boundary" inkscape:connector-curvature="0" />
	<path style="fill:none;stroke:red;stroke-width:1px;stroke-linecap:butt;stroke-linejoin:miter;stroke-opacity:1" d="M 986.188,108.989 991.094,117.82 z" id="boundary" inkscape:connector-curvature="0" />
	<path style="fill:none;stroke:red;stroke-width:1px;stroke-linecap:butt;stroke-linejoin:miter;stroke-opacity:1" d="M 996,126.651 996,136.463 z" id="boundary" inkscape:connector-curvature="0" />
	<path style="fill:none;stroke:red;stroke-width:1px;stroke-linecap:butt;stroke-linejoin:miter;stroke-opacity:1" d="M 991.094,117.82 996,126.651 z" id="boundary" inkscape:connector-curvature="0" />
	<path style="fill:none;stroke:red;stroke-width:1px;stroke-linecap:butt;stroke-linejoin:miter;stroke-opacity:1" d="M 996,136.463 991.094,152.162 z" id="boundary" inkscape:connector-curvature="0" />
	<path style="fill:none;stroke:red;stroke-width:1px;stroke-linecap:butt;stroke-linejoin:miter;stroke-opacity:1" d="M 971.47,176.692 979.319,169.824 z" id="boundary" inkscape:connector-curvature="0" />
	<path style="fill:none;stroke:red;stroke-width:1px;stroke-linecap:butt;stroke-linejoin:miter;stroke-opacity:1" d="M 986.188,161.974 991.094,152.162 z" id="boundary" inkscape:connector-curvature="0" />
	<path style="fill:none;stroke:red;stroke-width:1px;stroke-linecap:butt;stroke-linejoin:miter;stroke-opacity:1" d="M 986.188,161.974 979.319,169.824 z" id="boundary" inkscape:connector-curvature="0" />
	<path style="fill:none;stroke:red;stroke-width:1px;stroke-linecap:butt;stroke-linejoin:miter;stroke-opacity:1" d="M 571.137,323.873 580.95,323.873 z" id="boundary" inkscape:connector-curvature="0" />
	<path style="fill:none;stroke:red;stroke-width:1px;stroke-linecap:butt;stroke-linejoin:miter;stroke-opacity:1" d="M 562.307,328.779 571.137,323.873 z" id="boundary" inkscape:connector-curvature="0" />
	<path style="fill:none;stroke:red;stroke-width:1px;stroke-linecap:butt;stroke-linejoin:miter;stroke-opacity:1" d="M 590.762,323.873 599.592,318.967 z" id="boundary" inkscape:connector-curvature="0" />
	<path style="fill:none;stroke:red;stroke-width:1px;stroke-linecap:butt;stroke-linejoin:miter;stroke-opacity:1" d="M 599.592,318.967 609.405,318.967 z" id="boundary" inkscape:connector-curvature="0" />
	<path style="fill:none;stroke:red;stroke-width:1px;stroke-linecap:butt;stroke-linejoin:miter;stroke-opacity:1" d="M 590.762,323.873 580.95,323.873 z" id="boundary" inkscape:connector-curvature="0" />
	<path style="fill:none;stroke:red;stroke-width:1px;stroke-linecap:butt;stroke-linejoin:miter;stroke-opacity:1" d="M 532.87,336.629 542.682,333.685 z" id="boundary" inkscape:connector-curvature="0" />
	<path style="fill:none;stroke:red;stroke-width:1px;stroke-linecap:butt;stroke-linejoin:miter;stroke-opacity:1" d="M 542.682,333.685 552.495,331.723 z" id="boundary" inkscape:connector-curvature="0" />
	<path style="fill:none;stroke:red;stroke-width:1px;stroke-linecap:butt;stroke-linejoin:miter;stroke-opacity:1" d="M 552.495,331.723 562.307,328.779 z" id="boundary" inkscape:connector-curvature="0" />
	<path style="fill:none;stroke:red;stroke-width:1px;stroke-linecap:butt;stroke-linejoin:miter;stroke-opacity:1" d="M 619.217,318.967 609.405,318.967 z" id="boundary" inkscape:connector-curvature="0" />
	<path style="fill:none;stroke:red;stroke-width:1px;stroke-linecap:butt;stroke-linejoin:miter;stroke-opacity:1" d="M 628.047,314.061 619.217,318.967 z" id="boundary" inkscape:connector-curvature="0" />
	<path style="fill:none;stroke:red;stroke-width:1px;stroke-linecap:butt;stroke-linejoin:miter;stroke-opacity:1" d="M 628.047,314.061 637.86,314.061 z" id="boundary" inkscape:connector-curvature="0" />
	<path style="fill:none;stroke:red;stroke-width:1px;stroke-linecap:butt;stroke-linejoin:miter;stroke-opacity:1" d="M 647.672,316.024 637.86,314.061 z" id="boundary" inkscape:connector-curvature="0" />
	<path style="fill:none;stroke:red;stroke-width:1px;stroke-linecap:butt;stroke-linejoin:miter;stroke-opacity:1" d="M 656.502,320.93 664.352,327.798 z" id="boundary" inkscape:connector-curvature="0" />
	<path style="fill:none;stroke:red;stroke-width:1px;stroke-linecap:butt;stroke-linejoin:miter;stroke-opacity:1" d="M 647.672,316.024 656.502,320.93 z" id="boundary" inkscape:connector-curvature="0" />
	<path style="fill:none;stroke:red;stroke-width:1px;stroke-linecap:butt;stroke-linejoin:miter;stroke-opacity:1" d="M 673.183,332.704 664.352,327.798 z" id="boundary" inkscape:connector-curvature="0" />
	<path style="fill:none;stroke:red;stroke-width:1px;stroke-linecap:butt;stroke-linejoin:miter;stroke-opacity:1" d="M 681.033,338.591 673.183,332.704 z" id="boundary" inkscape:connector-curvature="0" />
	<path style="fill:none;stroke:red;stroke-width:1px;stroke-linecap:butt;stroke-linejoin:miter;stroke-opacity:1" d="M 523.058,338.591 513.246,338.591 z" id="boundary" inkscape:connector-curvature="0" />
	<path style="fill:none;stroke:red;stroke-width:1px;stroke-linecap:butt;stroke-linejoin:miter;stroke-opacity:1" d="M 532.87,336.629 523.058,338.591 z" id="boundary" inkscape:connector-curvature="0" />
	<path style="fill:none;stroke:red;stroke-width:1px;stroke-linecap:butt;stroke-linejoin:miter;stroke-opacity:1" d="M 686.92,346.441 681.033,338.591 z" id="boundary" inkscape:connector-curvature="0" />
	<path style="fill:none;stroke:red;stroke-width:1px;stroke-linecap:butt;stroke-linejoin:miter;stroke-opacity:1" d="M 696.732,350.366 686.92,346.441 z" id="boundary" inkscape:connector-curvature="0" />
	<path style="fill:none;stroke:red;stroke-width:1px;stroke-linecap:butt;stroke-linejoin:miter;stroke-opacity:1" d="M 696.732,350.366 706.544,353.31 z" id="boundary" inkscape:connector-curvature="0" />
	<path style="fill:none;stroke:red;stroke-width:1px;stroke-linecap:butt;stroke-linejoin:miter;stroke-opacity:1" d="M 715.375,358.216 721.262,366.065 z" id="boundary" inkscape:connector-curvature="0" />
	<path style="fill:none;stroke:red;stroke-width:1px;stroke-linecap:butt;stroke-linejoin:miter;stroke-opacity:1" d="M 706.544,353.31 715.375,358.216 z" id="boundary" inkscape:connector-curvature="0" />
	<path style="fill:none;stroke:red;stroke-width:1px;stroke-linecap:butt;stroke-linejoin:miter;stroke-opacity:1" d="M 731.074,369.99 721.262,366.065 z" id="boundary" inkscape:connector-curvature="0" />
	<path style="fill:none;stroke:red;stroke-width:1px;stroke-linecap:butt;stroke-linejoin:miter;stroke-opacity:1" d="M 731.074,369.99 737.943,377.84 z" id="boundary" inkscape:connector-curvature="0" />
	<path style="fill:none;stroke:red;stroke-width:1px;stroke-linecap:butt;stroke-linejoin:miter;stroke-opacity:1" d="M 746.773,382.746 737.943,377.84 z" id="boundary" inkscape:connector-curvature="0" />
	<path style="fill:none;stroke:red;stroke-width:1px;stroke-linecap:butt;stroke-linejoin:miter;stroke-opacity:1" d="M 746.773,382.746 754.623,388.633 z" id="boundary" inkscape:connector-curvature="0" />
	<path style="fill:none;stroke:red;stroke-width:1px;stroke-linecap:butt;stroke-linejoin:miter;stroke-opacity:1" d="M 764.435,392.558 754.623,388.633 z" id="boundary" inkscape:connector-curvature="0" />
	<path style="fill:none;stroke:red;stroke-width:1px;stroke-linecap:butt;stroke-linejoin:miter;stroke-opacity:1" d="M 764.435,392.558 773.266,397.464 z" id="boundary" inkscape:connector-curvature="0" />
	<path style="fill:none;stroke:red;stroke-width:1px;stroke-linecap:butt;stroke-linejoin:miter;stroke-opacity:1" d="M 800.74,397.464 791.909,402.37 z" id="boundary" inkscape:connector-curvature="0" />
	<path style="fill:none;stroke:red;stroke-width:1px;stroke-linecap:butt;stroke-linejoin:miter;stroke-opacity:1" d="M 791.909,402.37 782.097,402.37 z" id="boundary" inkscape:connector-curvature="0" />
	<path style="fill:none;stroke:red;stroke-width:1px;stroke-linecap:butt;stroke-linejoin:miter;stroke-opacity:1" d="M 782.097,402.37 773.266,397.464 z" id="boundary" inkscape:connector-curvature="0" />
	<path style="fill:none;stroke:red;stroke-width:1px;stroke-linecap:butt;stroke-linejoin:miter;stroke-opacity:1" d="M 912.597,274.813 914.56,284.625 z" id="boundary" inkscape:connector-curvature="0" />
	<path style="fill:none;stroke:red;stroke-width:1px;stroke-linecap:butt;stroke-linejoin:miter;stroke-opacity:1" d="M 912.597,274.813 920.447,267.945 z" id="boundary" inkscape:connector-curvature="0" />
	<path style="fill:none;stroke:red;stroke-width:1px;stroke-linecap:butt;stroke-linejoin:miter;stroke-opacity:1" d="M 919.466,304.249 917.503,294.437 z" id="boundary" inkscape:connector-curvature="0" />
	<path style="fill:none;stroke:red;stroke-width:1px;stroke-linecap:butt;stroke-linejoin:miter;stroke-opacity:1" d="M 917.503,294.437 914.56,284.625 z" id="boundary" inkscape:connector-curvature="0" />
	<path style="fill:none;stroke:red;stroke-width:1px;stroke-linecap:butt;stroke-linejoin:miter;stroke-opacity:1" d="M 927.316,255.189 920.447,267.945 z" id="boundary" inkscape:connector-curvature="0" />
	<path style="fill:none;stroke:red;stroke-width:1px;stroke-linecap:butt;stroke-linejoin:miter;stroke-opacity:1" d="M 919.466,304.249 922.409,314.061 z" id="boundary" inkscape:connector-curvature="0" />
	<path style="fill:none;stroke:red;stroke-width:1px;stroke-linecap:butt;stroke-linejoin:miter;stroke-opacity:1" d="M 922.409,314.061 922.409,323.873 z" id="boundary" inkscape:connector-curvature="0" />
	<path style="fill:none;stroke:red;stroke-width:1px;stroke-linecap:butt;stroke-linejoin:miter;stroke-opacity:1" d="M 922.409,323.873 924.372,333.685 z" id="boundary" inkscape:connector-curvature="0" />
	<path style="fill:none;stroke:red;stroke-width:1px;stroke-linecap:butt;stroke-linejoin:miter;stroke-opacity:1" d="M 935.165,248.32 942.034,240.471 z" id="boundary" inkscape:connector-curvature="0" />
	<path style="fill:none;stroke:red;stroke-width:1px;stroke-linecap:butt;stroke-linejoin:miter;stroke-opacity:1" d="M 935.165,248.32 927.316,255.189 z" id="boundary" inkscape:connector-curvature="0" />
	<path style="fill:none;stroke:red;stroke-width:1px;stroke-linecap:butt;stroke-linejoin:miter;stroke-opacity:1" d="M 942.034,240.471 946.94,230.659 z" id="boundary" inkscape:connector-curvature="0" />
	<path style="fill:none;stroke:red;stroke-width:1px;stroke-linecap:butt;stroke-linejoin:miter;stroke-opacity:1" d="M 927.316,343.498 932.222,352.328 z" id="boundary" inkscape:connector-curvature="0" />
	<path style="fill:none;stroke:red;stroke-width:1px;stroke-linecap:butt;stroke-linejoin:miter;stroke-opacity:1" d="M 941.052,357.234 932.222,352.328 z" id="boundary" inkscape:connector-curvature="0" />
	<path style="fill:none;stroke:red;stroke-width:1px;stroke-linecap:butt;stroke-linejoin:miter;stroke-opacity:1" d="M 927.316,343.498 924.372,333.685 z" id="boundary" inkscape:connector-curvature="0" />
	<path style="fill:none;stroke:red;stroke-width:1px;stroke-linecap:butt;stroke-linejoin:miter;stroke-opacity:1" d="M 948.902,363.122 941.052,357.234 z" id="boundary" inkscape:connector-curvature="0" />
	<path style="fill:none;stroke:red;stroke-width:1px;stroke-linecap:butt;stroke-linejoin:miter;stroke-opacity:1" d="M 948.902,363.122 945.958,374.896 z" id="boundary" inkscape:connector-curvature="0" />
	<path style="fill:none;stroke:red;stroke-width:1px;stroke-linecap:butt;stroke-linejoin:miter;stroke-opacity:1" d="M 810.552,397.464 800.74,397.464 z" id="boundary" inkscape:connector-curvature="0" />
	<path style="fill:none;stroke:red;stroke-width:1px;stroke-linecap:butt;stroke-linejoin:miter;stroke-opacity:1" d="M 858.631,392.558 867.462,387.652 z" id="boundary" inkscape:connector-curvature="0" />
	<path style="fill:none;stroke:red;stroke-width:1px;stroke-linecap:butt;stroke-linejoin:miter;stroke-opacity:1" d="M 867.462,387.652 877.274,384.708 z" id="boundary" inkscape:connector-curvature="0" />
	<path style="fill:none;stroke:red;stroke-width:1px;stroke-linecap:butt;stroke-linejoin:miter;stroke-opacity:1" d="M 858.631,392.558 848.819,392.558 z" id="boundary" inkscape:connector-curvature="0" />
	<path style="fill:none;stroke:red;stroke-width:1px;stroke-linecap:butt;stroke-linejoin:miter;stroke-opacity:1" d="M 839.988,397.464 848.819,392.558 z" id="boundary" inkscape:connector-curvature="0" />
	<path style="fill:none;stroke:red;stroke-width:1px;stroke-linecap:butt;stroke-linejoin:miter;stroke-opacity:1" d="M 810.552,397.464 820.364,397.464 z" id="boundary" inkscape:connector-curvature="0" />
	<path style="fill:none;stroke:red;stroke-width:1px;stroke-linecap:butt;stroke-linejoin:miter;stroke-opacity:1" d="M 830.176,397.464 839.988,397.464 z" id="boundary" inkscape:connector-curvature="0" />
	<path style="fill:none;stroke:red;stroke-width:1px;stroke-linecap:butt;stroke-linejoin:miter;stroke-opacity:1" d="M 830.176,397.464 820.364,397.464 z" id="boundary" inkscape:connector-curvature="0" />
	<path style="fill:none;stroke:red;stroke-width:1px;stroke-linecap:butt;stroke-linejoin:miter;stroke-opacity:1" d="M 906.71,377.84 916.522,377.84 z" id="boundary" inkscape:connector-curvature="0" />
	<path style="fill:none;stroke:red;stroke-width:1px;stroke-linecap:butt;stroke-linejoin:miter;stroke-opacity:1" d="M 896.898,379.802 906.71,377.84 z" id="boundary" inkscape:connector-curvature="0" />
	<path style="fill:none;stroke:red;stroke-width:1px;stroke-linecap:butt;stroke-linejoin:miter;stroke-opacity:1" d="M 936.146,377.84 926.334,377.84 z" id="boundary" inkscape:connector-curvature="0" />
	<path style="fill:none;stroke:red;stroke-width:1px;stroke-linecap:butt;stroke-linejoin:miter;stroke-opacity:1" d="M 926.334,377.84 916.522,377.84 z" id="boundary" inkscape:connector-curvature="0" />
	<path style="fill:none;stroke:red;stroke-width:1px;stroke-linecap:butt;stroke-linejoin:miter;stroke-opacity:1" d="M 945.958,374.896 936.146,377.84 z" id="boundary" inkscape:connector-curvature="0" />
	<path style="fill:none;stroke:red;stroke-width:1px;stroke-linecap:butt;stroke-linejoin:miter;stroke-opacity:1" d="M 887.086,382.746 877.274,384.708 z" id="boundary" inkscape:connector-curvature="0" />
	<path style="fill:none;stroke:red;stroke-width:1px;stroke-linecap:butt;stroke-linejoin:miter;stroke-opacity:1" d="M 887.086,382.746 896.898,379.802 z" id="boundary" inkscape:connector-curvature="0" />
	<circle cx="4" cy="217.903" r="4" fill="#0" id="circle0"/>
	<circle cx="4" cy="227.715" r="4" fill="#0" id="circle1"/>
	<circle cx="8.90603" cy="236.546" r="4" fill="#0" id="circle2"/>
	<circle cx="11.8497" cy="210.053" r="4" fill="#0" id="circle3"/>
	<circle cx="13.8121" cy="245.377" r="4" fill="#0" id="circle4"/>
	<circle cx="19.6993" cy="202.204" r="4" fill="#0" id="circle5"/>
	<circle cx="19.6993" cy="253.227" r="4" fill="#0" id="circle6"/>
	<circle cx="24.6053" cy="262.057" r="4" fill="#0" id="circle7"/>
	<circle cx="27.549" cy="195.335" r="4" fill="#0" id="circle8"/>
	<circle cx="28.5302" cy="271.869" r="4" fill="#0" id="circle9"/>
	<circle cx="33.4362" cy="280.7" r="4" fill="#0" id="circle10"/>
	<circle cx="36.3798" cy="190.429" r="4" fill="#0" id="circle11"/>
	<circle cx="38.3422" cy="289.531" r="4" fill="#0" id="circle12"/>
	<circle cx="38.3422" cy="299.343" r="4" fill="#0" id="circle13"/>
	<circle cx="41.2859" cy="180.617" r="4" fill="#0" id="circle14"/>
	<circle cx="43.2483" cy="308.174" r="4" fill="#0" id="circle15"/>
	<circle cx="46.1919" cy="170.805" r="4" fill="#0" id="circle16"/>
	<circle cx="51.0979" cy="314.061" r="4" fill="#0" id="circle17"/>
	<circle cx="56.004" cy="165.899" r="4" fill="#0" id="circle18"/>
	<circle cx="59.9288" cy="318.967" r="4" fill="#0" id="circle19"/>
	<circle cx="63.8536" cy="158.049" r="4" fill="#0" id="circle20"/>
	<circle cx="68.7596" cy="314.061" r="4" fill="#0" id="circle21"/>
	<circle cx="73.6657" cy="153.143" r="4" fill="#0" id="circle22"/>
	<circle cx="78.5717" cy="309.155" r="4" fill="#0" id="circle23"/>
	<circle cx="81.5153" cy="146.275" r="4" fill="#0" id="circle24"/>
	<circle cx="88.3838" cy="138.425" r="4" fill="#0" id="circle25"/>
	<circle cx="88.3838" cy="304.249" r="4" fill="#0" id="circle26"/>
	<circle cx="92.3086" cy="21.6617" r="4" fill="#0" id="circle27"/>
	<circle cx="92.3086" cy="31.4738" r="4" fill="#0" id="circle28"/>
	<circle cx="92.3086" cy="41.2859" r="4" fill="#0" id="circle29"/>
	<circle cx="92.3086" cy="51.0979" r="4" fill="#0" id="circle30"/>
	<circle cx="92.3086" cy="60.91" r="4" fill="#0" id="circle31"/>
	<circle cx="96.2334" cy="131.557" r="4" fill="#0" id="circle32"/>
	<circle cx="97.2146" cy="11.8497" r="4" fill="#0" id="circle33"/>
	<circle cx="97.2146" cy="69.7409" r="4" fill="#0" id="circle34"/>
	<circle cx="98.1958" cy="304.249" r="4" fill="#0" id="circle35"/>
	<circle cx="102.121" cy="78.5717" r="4" fill="#0" id="circle36"/>
	<circle cx="103.102" cy="123.707" r="4" fill="#0" id="circle37"/>
	<circle cx="105.064" cy="88.3838" r="4" fill="#0" id="circle38"/>
	<circle cx="107.027" cy="6.94362" r="4" fill="#0" id="circle39"/>
	<circle cx="107.027" cy="98.1958" r="4" fill="#0" id="circle40"/>
	<circle cx="108.008" cy="113.895" r="4" fill="#0" id="circle41"/>
	<circle cx="108.008" cy="299.343" r="4" fill="#0" id="circle42"/>
	<circle cx="116.839" cy="4" r="4" fill="#0" id="circle43"/>
	<circle cx="117.82" cy="299.343" r="4" fill="#0" id="circle44"/>
	<circle cx="126.651" cy="4" r="4" fill="#0" id="circle45"/>
	<circle cx="127.632" cy="299.343" r="4" fill="#0" id="circle46"/>
	<circle cx="136.463" cy="4" r="4" fill="#0" id="circle47"/>
	<circle cx="136.463" cy="294.437" r="4" fill="#0" id="circle48"/>
	<circle cx="146.275" cy="4" r="4" fill="#0" id="circle49"/>
	<circle cx="146.275" cy="291.494" r="4" fill="#0" id="circle50"/>
	<circle cx="156.087" cy="4" r="4" fill="#0" id="circle51"/>
	<circle cx="156.087" cy="286.588" r="4" fill="#0" id="circle52"/>
	<circle cx="165.899" cy="4" r="4" fill="#0" id="circle53"/>
	<circle cx="165.899" cy="284.625" r="4" fill="#0" id="circle54"/>
	<circle cx="175.711" cy="4" r="4" fill="#0" id="circle55"/>
	<circle cx="175.711" cy="284.625" r="4" fill="#0" id="circle56"/>
	<circle cx="185.523" cy="4" r="4" fill="#0" id="circle57"/>
	<circle cx="185.523" cy="284.625" r="4" fill="#0" id="circle58"/>
	<circle cx="194.354" cy="289.531" r="4" fill="#0" id="circle59"/>
	<circle cx="195.335" cy="4" r="4" fill="#0" id="circle60"/>
	<circle cx="203.185" cy="294.437" r="4" fill="#0" id="circle61"/>
	<circle cx="205.147" cy="4" r="4" fill="#0" id="circle62"/>
	<circle cx="212.997" cy="294.437" r="4" fill="#0" id="circle63"/>
	<circle cx="214.959" cy="4" r="4" fill="#0" id="circle64"/>
	<circle cx="221.828" cy="299.343" r="4" fill="#0" id="circle65"/>
	<circle cx="224.772" cy="4" r="4" fill="#0" id="circle66"/>
	<circle cx="230.659" cy="304.249" r="4" fill="#0" id="circle67"/>
	<circle cx="234.584" cy="4" r="4" fill="#0" id="circle68"/>
	<circle cx="240.471" cy="306.212" r="4" fill="#0" id="circle69"/>
	<circle cx="244.396" cy="4" r="4" fill="#0" id="circle70"/>
	<circle cx="250.283" cy="309.155" r="4" fill="#0" id="circle71"/>
	<circle cx="253.227" cy="8.90603" r="4" fill="#0" id="circle72"/>
	<circle cx="259.114" cy="314.061" r="4" fill="#0" id="circle73"/>
	<circle cx="263.039" cy="8.90603" r="4" fill="#0" id="circle74"/>
	<circle cx="267.945" cy="318.967" r="4" fill="#0" id="circle75"/>
	<circle cx="271.869" cy="13.8121" r="4" fill="#0" id="circle76"/>
	<circle cx="276.775" cy="323.873" r="4" fill="#0" id="circle77"/>
	<circle cx="280.7" cy="18.7181" r="4" fill="#0" id="circle78"/>
	<circle cx="285.606" cy="328.779" r="4" fill="#0" id="circle79"/>
	<circle cx="289.531" cy="23.6241" r="4" fill="#0" id="circle80"/>
	<circle cx="294.437" cy="333.685" r="4" fill="#0" id="circle81"/>
	<circle cx="299.343" cy="26.5678" r="4" fill="#0" id="circle82"/>
	<circle cx="303.268" cy="338.591" r="4" fill="#0" id="circle83"/>
	<circle cx="306.212" cy="34.4174" r="4" fill="#0" id="circle84"/>
	<circle cx="311.118" cy="43.2483" r="4" fill="#0" id="circle85"/>
	<circle cx="313.08" cy="338.591" r="4" fill="#0" id="circle86"/>
	<circle cx="314.061" cy="53.0603" r="4" fill="#0" id="circle87"/>
	<circle cx="318.967" cy="61.8912" r="4" fill="#0" id="circle88"/>
	<circle cx="321.911" cy="343.498" r="4" fill="#0" id="circle89"/>
	<circle cx="328.779" cy="62.8724" r="4" fill="#0" id="circle90"/>
	<circle cx="330.742" cy="348.404" r="4" fill="#0" id="circle91"/>
	<circle cx="337.61" cy="67.7784" r="4" fill="#0" id="circle92"/>
	<circle cx="338.591" cy="355.272" r="4" fill="#0" id="circle93"/>
	<circle cx="347.422" cy="67.7784" r="4" fill="#0" id="circle94"/>
	<circle cx="348.404" cy="358.216" r="4" fill="#0" id="circle95"/>
	<circle cx="356.253" cy="72.6845" r="4" fill="#0" id="circle96"/>
	<circle cx="358.216" cy="358.216" r="4" fill="#0" id="circle97"/>
	<circle cx="366.065" cy="72.6845" r="4" fill="#0" id="circle98"/>
	<circle cx="368.028" cy="358.216" r="4" fill="#0" id="circle99"/>
	<circle cx="375.877" cy="72.6845" r="4" fill="#0" id="circle100"/>
	<circle cx="377.84" cy="358.216" r="4" fill="#0" id="circle101"/>
	<circle cx="385.689" cy="72.6845" r="4" fill="#0" id="circle102"/>
	<circle cx="387.652" cy="353.31" r="4" fill="#0" id="circle103"/>
	<circle cx="395.501" cy="72.6845" r="4" fill="#0" id="circle104"/>
	<circle cx="397.464" cy="353.31" r="4" fill="#0" id="circle105"/>
	<circle cx="405.314" cy="72.6845" r="4" fill="#0" id="circle106"/>
	<circle cx="407.276" cy="353.31" r="4" fill="#0" id="circle107"/>
	<circle cx="415.126" cy="72.6845" r="4" fill="#0" id="circle108"/>
	<circle cx="417.088" cy="353.31" r="4" fill="#0" id="circle109"/>
	<circle cx="424.938" cy="72.6845" r="4" fill="#0" id="circle110"/>
	<circle cx="426.9" cy="353.31" r="4" fill="#0" id="circle111"/>
	<circle cx="434.75" cy="72.6845" r="4" fill="#0" id="circle112"/>
	<circle cx="436.712" cy="353.31" r="4" fill="#0" id="circle113"/>
	<circle cx="444.562" cy="72.6845" r="4" fill="#0" id="circle114"/>
	<circle cx="445.543" cy="348.404" r="4" fill="#0" id="circle115"/>
	<circle cx="454.374" cy="72.6845" r="4" fill="#0" id="circle116"/>
	<circle cx="455.355" cy="348.404" r="4" fill="#0" id="circle117"/>
	<circle cx="464.186" cy="72.6845" r="4" fill="#0" id="circle118"/>
	<circle cx="465.167" cy="348.404" r="4" fill="#0" id="circle119"/>
	<circle cx="473.998" cy="72.6845" r="4" fill="#0" id="circle120"/>
	<circle cx="474.979" cy="345.46" r="4" fill="#0" id="circle121"/>
	<circle cx="483.81" cy="72.6845" r="4" fill="#0" id="circle122"/>
	<circle cx="484.791" cy="343.498" r="4" fill="#0" id="circle123"/>
	<circle cx="493.622" cy="72.6845" r="4" fill="#0" id="circle124"/>
	<circle cx="493.622" cy="338.591" r="4" fill="#0" id="circle125"/>
	<circle cx="503.434" cy="72.6845" r="4" fill="#0" id="circle126"/>
	<circle cx="503.434" cy="338.591" r="4" fill="#0" id="circle127"/>
	<circle cx="513.246" cy="72.6845" r="4" fill="#0" id="circle128"/>
	<circle cx="513.246" cy="338.591" r="4" fill="#0" id="circle129"/>
	<circle cx="523.058" cy="72.6845" r="4" fill="#0" id="circle130"/>
	<circle cx="523.058" cy="338.591" r="4" fill="#0" id="circle131"/>
	<circle cx="532.87" cy="72.6845" r="4" fill="#0" id="circle132"/>
	<circle cx="532.87" cy="336.629" r="4" fill="#0" id="circle133"/>
	<circle cx="542.682" cy="72.6845" r="4" fill="#0" id="circle134"/>
	<circle cx="542.682" cy="333.685" r="4" fill="#0" id="circle135"/>
	<circle cx="552.495" cy="72.6845" r="4" fill="#0" id="circle136"/>
	<circle cx="552.495" cy="331.723" r="4" fill="#0" id="circle137"/>
	<circle cx="561.325" cy="67.7784" r="4" fill="#0" id="circle138"/>
	<circle cx="562.307" cy="328.779" r="4" fill="#0" id="circle139"/>
	<circle cx="571.137" cy="67.7784" r="4" fill="#0" id="circle140"/>
	<circle cx="571.137" cy="323.873" r="4" fill="#0" id="circle141"/>
	<circle cx="580.95" cy="62.8724" r="4" fill="#0" id="circle142"/>
	<circle cx="580.95" cy="323.873" r="4" fill="#0" id="circle143"/>
	<circle cx="590.762" cy="62.8724" r="4" fill="#0" id="circle144"/>
	<circle cx="590.762" cy="323.873" r="4" fill="#0" id="circle145"/>
	<circle cx="599.592" cy="57.9664" r="4" fill="#0" id="circle146"/>
	<circle cx="599.592" cy="318.967" r="4" fill="#0" id="circle147"/>
	<circle cx="609.405" cy="57.9664" r="4" fill="#0" id="circle148"/>
	<circle cx="609.405" cy="318.967" r="4" fill="#0" id="circle149"/>
	<circle cx="619.217" cy="54.0415" r="4" fill="#0" id="circle150"/>
	<circle cx="619.217" cy="318.967" r="4" fill="#0" id="circle151"/>
	<circle cx="628.047" cy="314.061" r="4" fill="#0" id="circle152"/>
	<circle cx="629.029" cy="53.0603" r="4" fill="#0" id="circle153"/>
	<circle cx="637.86" cy="314.061" r="4" fill="#0" id="circle154"/>
	<circle cx="638.841" cy="53.0603" r="4" fill="#0" id="circle155"/>
	<circle cx="647.672" cy="316.024" r="4" fill="#0" id="circle156"/>
	<circle cx="648.653" cy="49.1355" r="4" fill="#0" id="circle157"/>
	<circle cx="656.502" cy="320.93" r="4" fill="#0" id="circle158"/>
	<circle cx="658.465" cy="44.2295" r="4" fill="#0" id="circle159"/>
	<circle cx="664.352" cy="327.798" r="4" fill="#0" id="circle160"/>
	<circle cx="668.277" cy="43.2483" r="4" fill="#0" id="circle161"/>
	<circle cx="673.183" cy="332.704" r="4" fill="#0" id="circle162"/>
	<circle cx="678.089" cy="43.2483" r="4" fill="#0" id="circle163"/>
	<circle cx="681.033" cy="338.591" r="4" fill="#0" id="circle164"/>
	<circle cx="686.92" cy="346.441" r="4" fill="#0" id="circle165"/>
	<circle cx="687.901" cy="43.2483" r="4" fill="#0" id="circle166"/>
	<circle cx="696.732" cy="350.366" r="4" fill="#0" id="circle167"/>
	<circle cx="697.713" cy="43.2483" r="4" fill="#0" id="circle168"/>
	<circle cx="706.544" cy="48.1543" r="4" fill="#0" id="circle169"/>
	<circle cx="706.544" cy="353.31" r="4" fill="#0" id="circle170"/>
	<circle cx="715.375" cy="358.216" r="4" fill="#0" id="circle171"/>
	<circle cx="716.356" cy="51.0979" r="4" fill="#0" id="circle172"/>
	<circle cx="721.262" cy="366.065" r="4" fill="#0" id="circle173"/>
	<circle cx="725.187" cy="56.004" r="4" fill="#0" id="circle174"/>
	<circle cx="731.074" cy="369.99" r="4" fill="#0" id="circle175"/>
	<circle cx="733.037" cy="62.8724" r="4" fill="#0" id="circle176"/>
	<circle cx="737.943" cy="377.84" r="4" fill="#0" id="circle177"/>
	<circle cx="741.867" cy="67.7784" r="4" fill="#0" id="circle178"/>
	<circle cx="746.773" cy="382.746" r="4" fill="#0" id="circle179"/>
	<circle cx="750.698" cy="72.6845" r="4" fill="#0" id="circle180"/>
	<circle cx="754.623" cy="388.633" r="4" fill="#0" id="circle181"/>
	<circle cx="759.529" cy="77.5905" r="4" fill="#0" id="circle182"/>
	<circle cx="764.435" cy="392.558" r="4" fill="#0" id="circle183"/>
	<circle cx="768.36" cy="82.4965" r="4" fill="#0" id="circle184"/>
	<circle cx="773.266" cy="397.464" r="4" fill="#0" id="circle185"/>
	<circle cx="778.172" cy="83.4777" r="4" fill="#0" id="circle186"/>
	<circle cx="782.097" cy="402.37" r="4" fill="#0" id="circle187"/>
	<circle cx="787.003" cy="88.3838" r="4" fill="#0" id="circle188"/>
	<circle cx="791.909" cy="402.37" r="4" fill="#0" id="circle189"/>
	<circle cx="794.853" cy="95.2522" r="4" fill="#0" id="circle190"/>
	<circle cx="800.74" cy="397.464" r="4" fill="#0" id="circle191"/>
	<circle cx="803.683" cy="100.158" r="4" fill="#0" id="circle192"/>
	<circle cx="810.552" cy="397.464" r="4" fill="#0" id="circle193"/>
	<circle cx="811.533" cy="107.027" r="4" fill="#0" id="circle194"/>
	<circle cx="818.402" cy="114.876" r="4" fill="#0" id="circle195"/>
	<circle cx="820.364" cy="397.464" r="4" fill="#0" id="circle196"/>
	<circle cx="828.214" cy="116.839" r="4" fill="#0" id="circle197"/>
	<circle cx="830.176" cy="397.464" r="4" fill="#0" id="circle198"/>
	<circle cx="838.026" cy="116.839" r="4" fill="#0" id="circle199"/>
	<circle cx="839.988" cy="397.464" r="4" fill="#0" id="circle200"/>
	<circle cx="846.857" cy="111.933" r="4" fill="#0" id="circle201"/>
	<circle cx="848.819" cy="392.558" r="4" fill="#0" id="circle202"/>
	<circle cx="855.687" cy="107.027" r="4" fill="#0" id="circle203"/>
	<circle cx="858.631" cy="392.558" r="4" fill="#0" id="circle204"/>
	<circle cx="865.5" cy="107.027" r="4" fill="#0" id="circle205"/>
	<circle cx="867.462" cy="387.652" r="4" fill="#0" id="circle206"/>
	<circle cx="875.312" cy="102.121" r="4" fill="#0" id="circle207"/>
	<circle cx="877.274" cy="384.708" r="4" fill="#0" id="circle208"/>
	<circle cx="885.124" cy="97.2146" r="4" fill="#0" id="circle209"/>
	<circle cx="887.086" cy="382.746" r="4" fill="#0" id="circle210"/>
	<circle cx="894.936" cy="92.3086" r="4" fill="#0" id="circle211"/>
	<circle cx="896.898" cy="379.802" r="4" fill="#0" id="circle212"/>
	<circle cx="904.748" cy="92.3086" r="4" fill="#0" id="circle213"/>
	<circle cx="906.71" cy="377.84" r="4" fill="#0" id="circle214"/>
	<circle cx="912.597" cy="274.813" r="4" fill="#0" id="circle215"/>
	<circle cx="914.56" cy="92.3086" r="4" fill="#0" id="circle216"/>
	<circle cx="914.56" cy="284.625" r="4" fill="#0" id="circle217"/>
	<circle cx="916.522" cy="377.84" r="4" fill="#0" id="circle218"/>
	<circle cx="917.503" cy="294.437" r="4" fill="#0" id="circle219"/>
	<circle cx="919.466" cy="304.249" r="4" fill="#0" id="circle220"/>
	<circle cx="920.447" cy="267.945" r="4" fill="#0" id="circle221"/>
	<circle cx="922.409" cy="314.061" r="4" fill="#0" id="circle222"/>
	<circle cx="922.409" cy="323.873" r="4" fill="#0" id="circle223"/>
	<circle cx="924.372" cy="87.4026" r="4" fill="#0" id="circle224"/>
	<circle cx="924.372" cy="333.685" r="4" fill="#0" id="circle225"/>
	<circle cx="926.334" cy="377.84" r="4" fill="#0" id="circle226"/>
	<circle cx="927.316" cy="255.189" r="4" fill="#0" id="circle227"/>
	<circle cx="927.316" cy="343.498" r="4" fill="#0" id="circle228"/>
	<circle cx="932.222" cy="352.328" r="4" fill="#0" id="circle229"/>
	<circle cx="934.184" cy="87.4026" r="4" fill="#0" id="circle230"/>
	<circle cx="935.165" cy="248.32" r="4" fill="#0" id="circle231"/>
	<circle cx="936.146" cy="377.84" r="4" fill="#0" id="circle232"/>
	<circle cx="941.052" cy="357.234" r="4" fill="#0" id="circle233"/>
	<circle cx="942.034" cy="240.471" r="4" fill="#0" id="circle234"/>
	<circle cx="943.015" cy="82.4965" r="4" fill="#0" id="circle235"/>
	<circle cx="945.958" cy="374.896" r="4" fill="#0" id="circle236"/>
	<circle cx="946.94" cy="230.659" r="4" fill="#0" id="circle237"/>
	<circle cx="948.902" cy="363.122" r="4" fill="#0" id="circle238"/>
	<circle cx="951.846" cy="220.847" r="4" fill="#0" id="circle239"/>
	<circle cx="952.827" cy="78.5717" r="4" fill="#0" id="circle240"/>
	<circle cx="959.695" cy="213.978" r="4" fill="#0" id="circle241"/>
	<circle cx="962.639" cy="77.5905" r="4" fill="#0" id="circle242"/>
	<circle cx="964.601" cy="204.166" r="4" fill="#0" id="circle243"/>
	<circle cx="969.507" cy="194.354" r="4" fill="#0" id="circle244"/>
	<circle cx="971.47" cy="82.4965" r="4" fill="#0" id="circle245"/>
	<circle cx="971.47" cy="176.692" r="4" fill="#0" id="circle246"/>
	<circle cx="976.376" cy="91.3274" r="4" fill="#0" id="circle247"/>
	<circle cx="979.319" cy="169.824" r="4" fill="#0" id="circle248"/>
	<circle cx="981.282" cy="100.158" r="4" fill="#0" id="circle249"/>
	<circle cx="986.188" cy="108.989" r="4" fill="#0" id="circle250"/>
	<circle cx="986.188" cy="161.974" r="4" fill="#0" id="circle251"/>
	<circle cx="991.094" cy="117.82" r="4" fill="#0" id="circle252"/>
	<circle cx="991.094" cy="152.162" r="4" fill="#0" id="circle253"/>
	<circle cx="996" cy="126.651" r="4" fill="#0" id="circle254"/>
	<circle cx="996" cy="136.463" r="4" fill="#0" id="circle255"/>
	</g>
</svg>