<?xml version="1.0" encoding="UTF-8" standalone="no"?>
<!-- Created with CurveBenchmark -->
<svg
	xmlns:dc="http://purl.org/dc/elements/1.1/"
	xmlns:cc="http://creativecommons.org/ns#"
	xmlns:rdf="http://www.w3.org/1999/02/22-rdf-syntax-ns#"
	xmlns:svg="http://www.w3.org/2000/svg"
	xmlns="http://www.w3.org/2000/svg"
	xmlns:sodipodi="http://sodipodi.sourceforge.net/DTD/sodipodi-0.dtd"
	xmlns:inkscape="http://www.inkscape.org/namespaces/inkscape"
	width="1000"
	height="1000"
	id="svg2"
	version="1.1"
	sodipodi:docname="manifold/nncrust-television350.png.txt">
<defs
	id="defs4" />
<metadata
	id="metadata7">
	<rdf:RDF>
		<cc:Work
			rdf:about="">
			<dc:format>image/svg+xml</dc:format>
			<dc:type
				rdf:resource="http://purl.org/dc/dcmitype/StillImage" />
			<dc:title></dc:title>
		</cc:Work>
	</rdf:RDF>
</metadata>
<g
	inkscape:label="Layer 1"
	inkscape:groupmode="layer"
	id="layer1">
	<path style="fill:none;stroke:red;stroke-width:1px;stroke-linecap:butt;stroke-linejoin:miter;stroke-opacity:1" d="M 108.766,10.5479 108.766,43.2871 z" id="boundary" inkscape:connector-curvature="0" />
	<path style="fill:none;stroke:red;stroke-width:1px;stroke-linecap:butt;stroke-linejoin:miter;stroke-opacity:1" d="M 108.766,10.5479 141.505,4 z" id="boundary" inkscape:connector-curvature="0" />
	<path style="fill:none;stroke:red;stroke-width:1px;stroke-linecap:butt;stroke-linejoin:miter;stroke-opacity:1" d="M 108.766,76.0264 108.766,43.2871 z" id="boundary" inkscape:connector-curvature="0" />
	<path style="fill:none;stroke:red;stroke-width:1px;stroke-linecap:butt;stroke-linejoin:miter;stroke-opacity:1" d="M 108.766,108.766 108.766,141.505 z" id="boundary" inkscape:connector-curvature="0" />
	<path style="fill:none;stroke:red;stroke-width:1px;stroke-linecap:butt;stroke-linejoin:miter;stroke-opacity:1" d="M 108.766,174.244 108.766,141.505 z" id="boundary" inkscape:connector-curvature="0" />
	<path style="fill:none;stroke:red;stroke-width:1px;stroke-linecap:butt;stroke-linejoin:miter;stroke-opacity:1" d="M 108.766,108.766 108.766,76.0264 z" id="boundary" inkscape:connector-curvature="0" />
	<path style="fill:none;stroke:red;stroke-width:1px;stroke-linecap:butt;stroke-linejoin:miter;stroke-opacity:1" d="M 174.244,4 206.983,4 z" id="boundary" inkscape:connector-curvature="0" />
	<path style="fill:none;stroke:red;stroke-width:1px;stroke-linecap:butt;stroke-linejoin:miter;stroke-opacity:1" d="M 108.766,206.983 108.766,174.244 z" id="boundary" inkscape:connector-curvature="0" />
	<path style="fill:none;stroke:red;stroke-width:1px;stroke-linecap:butt;stroke-linejoin:miter;stroke-opacity:1" d="M 108.766,206.983 108.766,239.723 z" id="boundary" inkscape:connector-curvature="0" />
	<path style="fill:none;stroke:red;stroke-width:1px;stroke-linecap:butt;stroke-linejoin:miter;stroke-opacity:1" d="M 108.766,272.462 108.766,305.201 z" id="boundary" inkscape:connector-curvature="0" />
	<path style="fill:none;stroke:red;stroke-width:1px;stroke-linecap:butt;stroke-linejoin:miter;stroke-opacity:1" d="M 108.766,337.941 108.766,305.201 z" id="boundary" inkscape:connector-curvature="0" />
	<path style="fill:none;stroke:red;stroke-width:1px;stroke-linecap:butt;stroke-linejoin:miter;stroke-opacity:1" d="M 108.766,239.723 108.766,272.462 z" id="boundary" inkscape:connector-curvature="0" />
	<path style="fill:none;stroke:red;stroke-width:1px;stroke-linecap:butt;stroke-linejoin:miter;stroke-opacity:1" d="M 141.505,4 174.244,4 z" id="boundary" inkscape:connector-curvature="0" />
	<path style="fill:none;stroke:red;stroke-width:1px;stroke-linecap:butt;stroke-linejoin:miter;stroke-opacity:1" d="M 108.766,337.941 108.766,370.68 z" id="boundary" inkscape:connector-curvature="0" />
	<path style="fill:none;stroke:red;stroke-width:1px;stroke-linecap:butt;stroke-linejoin:miter;stroke-opacity:1" d="M 108.766,403.419 108.766,370.68 z" id="boundary" inkscape:connector-curvature="0" />
	<path style="fill:none;stroke:red;stroke-width:1px;stroke-linecap:butt;stroke-linejoin:miter;stroke-opacity:1" d="M 112.04,436.158 108.766,403.419 z" id="boundary" inkscape:connector-curvature="0" />
	<path style="fill:none;stroke:red;stroke-width:1px;stroke-linecap:butt;stroke-linejoin:miter;stroke-opacity:1" d="M 144.779,439.432 112.04,436.158 z" id="boundary" inkscape:connector-curvature="0" />
	<path style="fill:none;stroke:red;stroke-width:1px;stroke-linecap:butt;stroke-linejoin:miter;stroke-opacity:1" d="M 69.4785,560.568 98.9439,576.937 z" id="boundary" inkscape:connector-curvature="0" />
	<path style="fill:none;stroke:red;stroke-width:1px;stroke-linecap:butt;stroke-linejoin:miter;stroke-opacity:1" d="M 98.9439,576.937 69.4785,658.785 z" id="boundary" inkscape:connector-curvature="0" />
	<path style="fill:none;stroke:red;stroke-width:1px;stroke-linecap:butt;stroke-linejoin:miter;stroke-opacity:1" d="M 115.314,547.472 98.9439,576.937 z" id="boundary" inkscape:connector-curvature="0" />
	<path style="fill:none;stroke:red;stroke-width:1px;stroke-linecap:butt;stroke-linejoin:miter;stroke-opacity:1" d="M 69.4785,560.568 112.04,436.158 z" id="boundary" inkscape:connector-curvature="0" />
	<path style="fill:none;stroke:red;stroke-width:1px;stroke-linecap:butt;stroke-linejoin:miter;stroke-opacity:1" d="M 131.683,576.937 98.9439,576.937 z" id="boundary" inkscape:connector-curvature="0" />
	<path style="fill:none;stroke:red;stroke-width:1px;stroke-linecap:butt;stroke-linejoin:miter;stroke-opacity:1" d="M 144.779,439.432 177.518,439.432 z" id="boundary" inkscape:connector-curvature="0" />
	<path style="fill:none;stroke:red;stroke-width:1px;stroke-linecap:butt;stroke-linejoin:miter;stroke-opacity:1" d="M 180.792,547.472 148.053,547.472 z" id="boundary" inkscape:connector-curvature="0" />
	<path style="fill:none;stroke:red;stroke-width:1px;stroke-linecap:butt;stroke-linejoin:miter;stroke-opacity:1" d="M 115.314,547.472 148.053,547.472 z" id="boundary" inkscape:connector-curvature="0" />
	<path style="fill:none;stroke:red;stroke-width:1px;stroke-linecap:butt;stroke-linejoin:miter;stroke-opacity:1" d="M 131.683,576.937 164.422,576.937 z" id="boundary" inkscape:connector-curvature="0" />
	<path style="fill:none;stroke:red;stroke-width:1px;stroke-linecap:butt;stroke-linejoin:miter;stroke-opacity:1" d="M 197.162,576.937 164.422,576.937 z" id="boundary" inkscape:connector-curvature="0" />
	<path style="fill:none;stroke:red;stroke-width:1px;stroke-linecap:butt;stroke-linejoin:miter;stroke-opacity:1" d="M 180.792,547.472 213.531,547.472 z" id="boundary" inkscape:connector-curvature="0" />
	<path style="fill:none;stroke:red;stroke-width:1px;stroke-linecap:butt;stroke-linejoin:miter;stroke-opacity:1" d="M 177.518,439.432 210.257,439.432 z" id="boundary" inkscape:connector-curvature="0" />
	<path style="fill:none;stroke:red;stroke-width:1px;stroke-linecap:butt;stroke-linejoin:miter;stroke-opacity:1" d="M 206.983,4 239.723,4 z" id="boundary" inkscape:connector-curvature="0" />
	<path style="fill:none;stroke:red;stroke-width:1px;stroke-linecap:butt;stroke-linejoin:miter;stroke-opacity:1" d="M 272.462,4 305.201,4 z" id="boundary" inkscape:connector-curvature="0" />
	<path style="fill:none;stroke:red;stroke-width:1px;stroke-linecap:butt;stroke-linejoin:miter;stroke-opacity:1" d="M 305.201,4 337.941,4 z" id="boundary" inkscape:connector-curvature="0" />
	<path style="fill:none;stroke:red;stroke-width:1px;stroke-linecap:butt;stroke-linejoin:miter;stroke-opacity:1" d="M 210.257,439.432 242.997,439.432 z" id="boundary" inkscape:connector-curvature="0" />
	<path style="fill:none;stroke:red;stroke-width:1px;stroke-linecap:butt;stroke-linejoin:miter;stroke-opacity:1" d="M 275.736,439.432 242.997,439.432 z" id="boundary" inkscape:connector-curvature="0" />
	<path style="fill:none;stroke:red;stroke-width:1px;stroke-linecap:butt;stroke-linejoin:miter;stroke-opacity:1" d="M 308.475,439.432 275.736,439.432 z" id="boundary" inkscape:connector-curvature="0" />
	<path style="fill:none;stroke:red;stroke-width:1px;stroke-linecap:butt;stroke-linejoin:miter;stroke-opacity:1" d="M 239.723,4 272.462,4 z" id="boundary" inkscape:connector-curvature="0" />
	<path style="fill:none;stroke:red;stroke-width:1px;stroke-linecap:butt;stroke-linejoin:miter;stroke-opacity:1" d="M 337.941,4 370.68,4 z" id="boundary" inkscape:connector-curvature="0" />
	<path style="fill:none;stroke:red;stroke-width:1px;stroke-linecap:butt;stroke-linejoin:miter;stroke-opacity:1" d="M 403.419,4 436.158,4 z" id="boundary" inkscape:connector-curvature="0" />
	<path style="fill:none;stroke:red;stroke-width:1px;stroke-linecap:butt;stroke-linejoin:miter;stroke-opacity:1" d="M 436.158,4 468.898,4 z" id="boundary" inkscape:connector-curvature="0" />
	<path style="fill:none;stroke:red;stroke-width:1px;stroke-linecap:butt;stroke-linejoin:miter;stroke-opacity:1" d="M 370.68,4 403.419,4 z" id="boundary" inkscape:connector-curvature="0" />
	<path style="fill:none;stroke:red;stroke-width:1px;stroke-linecap:butt;stroke-linejoin:miter;stroke-opacity:1" d="M 468.898,4 501.637,4 z" id="boundary" inkscape:connector-curvature="0" />
	<path style="fill:none;stroke:red;stroke-width:1px;stroke-linecap:butt;stroke-linejoin:miter;stroke-opacity:1" d="M 246.271,547.472 213.531,547.472 z" id="boundary" inkscape:connector-curvature="0" />
	<path style="fill:none;stroke:red;stroke-width:1px;stroke-linecap:butt;stroke-linejoin:miter;stroke-opacity:1" d="M 279.01,547.472 246.271,547.472 z" id="boundary" inkscape:connector-curvature="0" />
	<path style="fill:none;stroke:red;stroke-width:1px;stroke-linecap:butt;stroke-linejoin:miter;stroke-opacity:1" d="M 229.901,576.937 262.64,576.937 z" id="boundary" inkscape:connector-curvature="0" />
	<path style="fill:none;stroke:red;stroke-width:1px;stroke-linecap:butt;stroke-linejoin:miter;stroke-opacity:1" d="M 295.38,576.937 262.64,576.937 z" id="boundary" inkscape:connector-curvature="0" />
	<path style="fill:none;stroke:red;stroke-width:1px;stroke-linecap:butt;stroke-linejoin:miter;stroke-opacity:1" d="M 279.01,547.472 311.749,547.472 z" id="boundary" inkscape:connector-curvature="0" />
	<path style="fill:none;stroke:red;stroke-width:1px;stroke-linecap:butt;stroke-linejoin:miter;stroke-opacity:1" d="M 229.901,576.937 197.162,576.937 z" id="boundary" inkscape:connector-curvature="0" />
	<path style="fill:none;stroke:red;stroke-width:1px;stroke-linecap:butt;stroke-linejoin:miter;stroke-opacity:1" d="M 341.215,439.432 373.954,439.432 z" id="boundary" inkscape:connector-curvature="0" />
	<path style="fill:none;stroke:red;stroke-width:1px;stroke-linecap:butt;stroke-linejoin:miter;stroke-opacity:1" d="M 373.954,439.432 390.323,468.898 z" id="boundary" inkscape:connector-curvature="0" />
	<path style="fill:none;stroke:red;stroke-width:1px;stroke-linecap:butt;stroke-linejoin:miter;stroke-opacity:1" d="M 390.323,468.898 390.323,501.637 z" id="boundary" inkscape:connector-curvature="0" />
	<path style="fill:none;stroke:red;stroke-width:1px;stroke-linecap:butt;stroke-linejoin:miter;stroke-opacity:1" d="M 328.119,576.937 295.38,576.937 z" id="boundary" inkscape:connector-curvature="0" />
	<path style="fill:none;stroke:red;stroke-width:1px;stroke-linecap:butt;stroke-linejoin:miter;stroke-opacity:1" d="M 344.488,547.472 311.749,547.472 z" id="boundary" inkscape:connector-curvature="0" />
	<path style="fill:none;stroke:red;stroke-width:1px;stroke-linecap:butt;stroke-linejoin:miter;stroke-opacity:1" d="M 390.323,593.307 377.228,547.472 z" id="boundary" inkscape:connector-curvature="0" />
	<path style="fill:none;stroke:red;stroke-width:1px;stroke-linecap:butt;stroke-linejoin:miter;stroke-opacity:1" d="M 377.228,547.472 390.323,501.637 z" id="boundary" inkscape:connector-curvature="0" />
	<path style="fill:none;stroke:red;stroke-width:1px;stroke-linecap:butt;stroke-linejoin:miter;stroke-opacity:1" d="M 377.228,547.472 344.488,547.472 z" id="boundary" inkscape:connector-curvature="0" />
	<path style="fill:none;stroke:red;stroke-width:1px;stroke-linecap:butt;stroke-linejoin:miter;stroke-opacity:1" d="M 308.475,439.432 341.215,439.432 z" id="boundary" inkscape:connector-curvature="0" />
	<path style="fill:none;stroke:red;stroke-width:1px;stroke-linecap:butt;stroke-linejoin:miter;stroke-opacity:1" d="M 377.228,547.472 360.858,576.937 z" id="boundary" inkscape:connector-curvature="0" />
	<path style="fill:none;stroke:red;stroke-width:1px;stroke-linecap:butt;stroke-linejoin:miter;stroke-opacity:1" d="M 112.04,652.238 95.67,681.703 z" id="boundary" inkscape:connector-curvature="0" />
	<path style="fill:none;stroke:red;stroke-width:1px;stroke-linecap:butt;stroke-linejoin:miter;stroke-opacity:1" d="M 95.67,681.703 69.4785,658.785 z" id="boundary" inkscape:connector-curvature="0" />
	<path style="fill:none;stroke:red;stroke-width:1px;stroke-linecap:butt;stroke-linejoin:miter;stroke-opacity:1" d="M 128.409,681.703 95.67,681.703 z" id="boundary" inkscape:connector-curvature="0" />
	<path style="fill:none;stroke:red;stroke-width:1px;stroke-linecap:butt;stroke-linejoin:miter;stroke-opacity:1" d="M 69.4785,750.455 36.7393,750.455 z" id="boundary" inkscape:connector-curvature="0" />
	<path style="fill:none;stroke:red;stroke-width:1px;stroke-linecap:butt;stroke-linejoin:miter;stroke-opacity:1" d="M 102.218,750.455 69.4785,750.455 z" id="boundary" inkscape:connector-curvature="0" />
	<path style="fill:none;stroke:red;stroke-width:1px;stroke-linecap:butt;stroke-linejoin:miter;stroke-opacity:1" d="M 112.04,652.238 144.779,652.238 z" id="boundary" inkscape:connector-curvature="0" />
	<path style="fill:none;stroke:red;stroke-width:1px;stroke-linecap:butt;stroke-linejoin:miter;stroke-opacity:1" d="M 36.7393,750.455 4,763.551 z" id="boundary" inkscape:connector-curvature="0" />
	<path style="fill:none;stroke:red;stroke-width:1px;stroke-linecap:butt;stroke-linejoin:miter;stroke-opacity:1" d="M 144.779,652.238 177.518,652.238 z" id="boundary" inkscape:connector-curvature="0" />
	<path style="fill:none;stroke:red;stroke-width:1px;stroke-linecap:butt;stroke-linejoin:miter;stroke-opacity:1" d="M 210.257,652.238 177.518,652.238 z" id="boundary" inkscape:connector-curvature="0" />
	<path style="fill:none;stroke:red;stroke-width:1px;stroke-linecap:butt;stroke-linejoin:miter;stroke-opacity:1" d="M 128.409,681.703 161.149,681.703 z" id="boundary" inkscape:connector-curvature="0" />
	<path style="fill:none;stroke:red;stroke-width:1px;stroke-linecap:butt;stroke-linejoin:miter;stroke-opacity:1" d="M 193.888,681.703 161.149,681.703 z" id="boundary" inkscape:connector-curvature="0" />
	<path style="fill:none;stroke:red;stroke-width:1px;stroke-linecap:butt;stroke-linejoin:miter;stroke-opacity:1" d="M 226.627,681.703 259.366,681.703 z" id="boundary" inkscape:connector-curvature="0" />
	<path style="fill:none;stroke:red;stroke-width:1px;stroke-linecap:butt;stroke-linejoin:miter;stroke-opacity:1" d="M 226.627,681.703 193.888,681.703 z" id="boundary" inkscape:connector-curvature="0" />
	<path style="fill:none;stroke:red;stroke-width:1px;stroke-linecap:butt;stroke-linejoin:miter;stroke-opacity:1" d="M 210.257,652.238 242.997,652.238 z" id="boundary" inkscape:connector-curvature="0" />
	<path style="fill:none;stroke:red;stroke-width:1px;stroke-linecap:butt;stroke-linejoin:miter;stroke-opacity:1" d="M 4,796.29 4,763.551 z" id="boundary" inkscape:connector-curvature="0" />
	<path style="fill:none;stroke:red;stroke-width:1px;stroke-linecap:butt;stroke-linejoin:miter;stroke-opacity:1" d="M 59.6568,822.482 26.9175,822.482 z" id="boundary" inkscape:connector-curvature="0" />
	<path style="fill:none;stroke:red;stroke-width:1px;stroke-linecap:butt;stroke-linejoin:miter;stroke-opacity:1" d="M 59.6568,822.482 92.396,832.304 z" id="boundary" inkscape:connector-curvature="0" />
	<path style="fill:none;stroke:red;stroke-width:1px;stroke-linecap:butt;stroke-linejoin:miter;stroke-opacity:1" d="M 26.9175,822.482 4,796.29 z" id="boundary" inkscape:connector-curvature="0" />
	<path style="fill:none;stroke:red;stroke-width:1px;stroke-linecap:butt;stroke-linejoin:miter;stroke-opacity:1" d="M 92.396,832.304 125.135,819.208 z" id="boundary" inkscape:connector-curvature="0" />
	<path style="fill:none;stroke:red;stroke-width:1px;stroke-linecap:butt;stroke-linejoin:miter;stroke-opacity:1" d="M 125.135,819.208 157.875,819.208 z" id="boundary" inkscape:connector-curvature="0" />
	<path style="fill:none;stroke:red;stroke-width:1px;stroke-linecap:butt;stroke-linejoin:miter;stroke-opacity:1" d="M 102.218,750.455 134.957,750.455 z" id="boundary" inkscape:connector-curvature="0" />
	<path style="fill:none;stroke:red;stroke-width:1px;stroke-linecap:butt;stroke-linejoin:miter;stroke-opacity:1" d="M 134.957,750.455 167.696,750.455 z" id="boundary" inkscape:connector-curvature="0" />
	<path style="fill:none;stroke:red;stroke-width:1px;stroke-linecap:butt;stroke-linejoin:miter;stroke-opacity:1" d="M 200.436,750.455 167.696,750.455 z" id="boundary" inkscape:connector-curvature="0" />
	<path style="fill:none;stroke:red;stroke-width:1px;stroke-linecap:butt;stroke-linejoin:miter;stroke-opacity:1" d="M 157.875,819.208 190.614,819.208 z" id="boundary" inkscape:connector-curvature="0" />
	<path style="fill:none;stroke:red;stroke-width:1px;stroke-linecap:butt;stroke-linejoin:miter;stroke-opacity:1" d="M 256.092,819.208 223.353,819.208 z" id="boundary" inkscape:connector-curvature="0" />
	<path style="fill:none;stroke:red;stroke-width:1px;stroke-linecap:butt;stroke-linejoin:miter;stroke-opacity:1" d="M 223.353,819.208 190.614,819.208 z" id="boundary" inkscape:connector-curvature="0" />
	<path style="fill:none;stroke:red;stroke-width:1px;stroke-linecap:butt;stroke-linejoin:miter;stroke-opacity:1" d="M 200.436,750.455 233.175,750.455 z" id="boundary" inkscape:connector-curvature="0" />
	<path style="fill:none;stroke:red;stroke-width:1px;stroke-linecap:butt;stroke-linejoin:miter;stroke-opacity:1" d="M 308.475,652.238 275.736,652.238 z" id="boundary" inkscape:connector-curvature="0" />
	<path style="fill:none;stroke:red;stroke-width:1px;stroke-linecap:butt;stroke-linejoin:miter;stroke-opacity:1" d="M 275.736,652.238 242.997,652.238 z" id="boundary" inkscape:connector-curvature="0" />
	<path style="fill:none;stroke:red;stroke-width:1px;stroke-linecap:butt;stroke-linejoin:miter;stroke-opacity:1" d="M 308.475,652.238 341.215,652.238 z" id="boundary" inkscape:connector-curvature="0" />
	<path style="fill:none;stroke:red;stroke-width:1px;stroke-linecap:butt;stroke-linejoin:miter;stroke-opacity:1" d="M 259.366,681.703 292.106,681.703 z" id="boundary" inkscape:connector-curvature="0" />
	<path style="fill:none;stroke:red;stroke-width:1px;stroke-linecap:butt;stroke-linejoin:miter;stroke-opacity:1" d="M 324.845,681.703 292.106,681.703 z" id="boundary" inkscape:connector-curvature="0" />
	<path style="fill:none;stroke:red;stroke-width:1px;stroke-linecap:butt;stroke-linejoin:miter;stroke-opacity:1" d="M 373.954,652.238 341.215,652.238 z" id="boundary" inkscape:connector-curvature="0" />
	<path style="fill:none;stroke:red;stroke-width:1px;stroke-linecap:butt;stroke-linejoin:miter;stroke-opacity:1" d="M 328.119,576.937 360.858,576.937 z" id="boundary" inkscape:connector-curvature="0" />
	<path style="fill:none;stroke:red;stroke-width:1px;stroke-linecap:butt;stroke-linejoin:miter;stroke-opacity:1" d="M 390.323,593.307 360.858,576.937 z" id="boundary" inkscape:connector-curvature="0" />
	<path style="fill:none;stroke:red;stroke-width:1px;stroke-linecap:butt;stroke-linejoin:miter;stroke-opacity:1" d="M 390.323,593.307 373.954,652.238 z" id="boundary" inkscape:connector-curvature="0" />
	<path style="fill:none;stroke:red;stroke-width:1px;stroke-linecap:butt;stroke-linejoin:miter;stroke-opacity:1" d="M 373.954,652.238 390.323,684.977 z" id="boundary" inkscape:connector-curvature="0" />
	<path style="fill:none;stroke:red;stroke-width:1px;stroke-linecap:butt;stroke-linejoin:miter;stroke-opacity:1" d="M 390.323,684.977 357.584,681.703 z" id="boundary" inkscape:connector-curvature="0" />
	<path style="fill:none;stroke:red;stroke-width:1px;stroke-linecap:butt;stroke-linejoin:miter;stroke-opacity:1" d="M 390.323,684.977 390.323,717.716 z" id="boundary" inkscape:connector-curvature="0" />
	<path style="fill:none;stroke:red;stroke-width:1px;stroke-linecap:butt;stroke-linejoin:miter;stroke-opacity:1" d="M 324.845,681.703 357.584,681.703 z" id="boundary" inkscape:connector-curvature="0" />
	<path style="fill:none;stroke:red;stroke-width:1px;stroke-linecap:butt;stroke-linejoin:miter;stroke-opacity:1" d="M 390.323,717.716 364.132,750.455 z" id="boundary" inkscape:connector-curvature="0" />
	<path style="fill:none;stroke:red;stroke-width:1px;stroke-linecap:butt;stroke-linejoin:miter;stroke-opacity:1" d="M 265.914,750.455 298.653,750.455 z" id="boundary" inkscape:connector-curvature="0" />
	<path style="fill:none;stroke:red;stroke-width:1px;stroke-linecap:butt;stroke-linejoin:miter;stroke-opacity:1" d="M 331.393,750.455 298.653,750.455 z" id="boundary" inkscape:connector-curvature="0" />
	<path style="fill:none;stroke:red;stroke-width:1px;stroke-linecap:butt;stroke-linejoin:miter;stroke-opacity:1" d="M 256.092,819.208 288.832,819.208 z" id="boundary" inkscape:connector-curvature="0" />
	<path style="fill:none;stroke:red;stroke-width:1px;stroke-linecap:butt;stroke-linejoin:miter;stroke-opacity:1" d="M 321.571,819.208 354.31,819.208 z" id="boundary" inkscape:connector-curvature="0" />
	<path style="fill:none;stroke:red;stroke-width:1px;stroke-linecap:butt;stroke-linejoin:miter;stroke-opacity:1" d="M 321.571,819.208 288.832,819.208 z" id="boundary" inkscape:connector-curvature="0" />
	<path style="fill:none;stroke:red;stroke-width:1px;stroke-linecap:butt;stroke-linejoin:miter;stroke-opacity:1" d="M 331.393,750.455 364.132,750.455 z" id="boundary" inkscape:connector-curvature="0" />
	<path style="fill:none;stroke:red;stroke-width:1px;stroke-linecap:butt;stroke-linejoin:miter;stroke-opacity:1" d="M 233.175,750.455 265.914,750.455 z" id="boundary" inkscape:connector-curvature="0" />
	<path style="fill:none;stroke:red;stroke-width:1px;stroke-linecap:butt;stroke-linejoin:miter;stroke-opacity:1" d="M 419.789,819.208 387.05,819.208 z" id="boundary" inkscape:connector-curvature="0" />
	<path style="fill:none;stroke:red;stroke-width:1px;stroke-linecap:butt;stroke-linejoin:miter;stroke-opacity:1" d="M 387.05,819.208 354.31,819.208 z" id="boundary" inkscape:connector-curvature="0" />
	<path style="fill:none;stroke:red;stroke-width:1px;stroke-linecap:butt;stroke-linejoin:miter;stroke-opacity:1" d="M 452.528,819.208 485.267,819.208 z" id="boundary" inkscape:connector-curvature="0" />
	<path style="fill:none;stroke:red;stroke-width:1px;stroke-linecap:butt;stroke-linejoin:miter;stroke-opacity:1" d="M 452.528,819.208 419.789,819.208 z" id="boundary" inkscape:connector-curvature="0" />
	<path style="fill:none;stroke:red;stroke-width:1px;stroke-linecap:butt;stroke-linejoin:miter;stroke-opacity:1" d="M 518.007,819.208 550.746,819.208 z" id="boundary" inkscape:connector-curvature="0" />
	<path style="fill:none;stroke:red;stroke-width:1px;stroke-linecap:butt;stroke-linejoin:miter;stroke-opacity:1" d="M 518.007,819.208 485.267,819.208 z" id="boundary" inkscape:connector-curvature="0" />
	<path style="fill:none;stroke:red;stroke-width:1px;stroke-linecap:butt;stroke-linejoin:miter;stroke-opacity:1" d="M 550.746,819.208 583.485,819.208 z" id="boundary" inkscape:connector-curvature="0" />
	<path style="fill:none;stroke:red;stroke-width:1px;stroke-linecap:butt;stroke-linejoin:miter;stroke-opacity:1" d="M 501.637,4 534.376,4 z" id="boundary" inkscape:connector-curvature="0" />
	<path style="fill:none;stroke:red;stroke-width:1px;stroke-linecap:butt;stroke-linejoin:miter;stroke-opacity:1" d="M 567.116,4 599.855,4 z" id="boundary" inkscape:connector-curvature="0" />
	<path style="fill:none;stroke:red;stroke-width:1px;stroke-linecap:butt;stroke-linejoin:miter;stroke-opacity:1" d="M 599.855,4 632.594,4 z" id="boundary" inkscape:connector-curvature="0" />
	<path style="fill:none;stroke:red;stroke-width:1px;stroke-linecap:butt;stroke-linejoin:miter;stroke-opacity:1" d="M 648.964,439.432 616.224,439.432 z" id="boundary" inkscape:connector-curvature="0" />
	<path style="fill:none;stroke:red;stroke-width:1px;stroke-linecap:butt;stroke-linejoin:miter;stroke-opacity:1" d="M 632.594,4 665.333,4 z" id="boundary" inkscape:connector-curvature="0" />
	<path style="fill:none;stroke:red;stroke-width:1px;stroke-linecap:butt;stroke-linejoin:miter;stroke-opacity:1" d="M 681.703,439.432 648.964,439.432 z" id="boundary" inkscape:connector-curvature="0" />
	<path style="fill:none;stroke:red;stroke-width:1px;stroke-linecap:butt;stroke-linejoin:miter;stroke-opacity:1" d="M 616.224,439.432 583.485,442.706 z" id="boundary" inkscape:connector-curvature="0" />
	<path style="fill:none;stroke:red;stroke-width:1px;stroke-linecap:butt;stroke-linejoin:miter;stroke-opacity:1" d="M 665.333,4 698.073,4 z" id="boundary" inkscape:connector-curvature="0" />
	<path style="fill:none;stroke:red;stroke-width:1px;stroke-linecap:butt;stroke-linejoin:miter;stroke-opacity:1" d="M 698.073,4 730.812,4 z" id="boundary" inkscape:connector-curvature="0" />
	<path style="fill:none;stroke:red;stroke-width:1px;stroke-linecap:butt;stroke-linejoin:miter;stroke-opacity:1" d="M 681.703,439.432 714.442,439.432 z" id="boundary" inkscape:connector-curvature="0" />
	<path style="fill:none;stroke:red;stroke-width:1px;stroke-linecap:butt;stroke-linejoin:miter;stroke-opacity:1" d="M 747.182,439.432 779.921,439.432 z" id="boundary" inkscape:connector-curvature="0" />
	<path style="fill:none;stroke:red;stroke-width:1px;stroke-linecap:butt;stroke-linejoin:miter;stroke-opacity:1" d="M 747.182,439.432 714.442,439.432 z" id="boundary" inkscape:connector-curvature="0" />
	<path style="fill:none;stroke:red;stroke-width:1px;stroke-linecap:butt;stroke-linejoin:miter;stroke-opacity:1" d="M 730.812,4 763.551,4 z" id="boundary" inkscape:connector-curvature="0" />
	<path style="fill:none;stroke:red;stroke-width:1px;stroke-linecap:butt;stroke-linejoin:miter;stroke-opacity:1" d="M 583.485,442.706 583.485,475.446 z" id="boundary" inkscape:connector-curvature="0" />
	<path style="fill:none;stroke:red;stroke-width:1px;stroke-linecap:butt;stroke-linejoin:miter;stroke-opacity:1" d="M 583.485,508.185 583.485,475.446 z" id="boundary" inkscape:connector-curvature="0" />
	<path style="fill:none;stroke:red;stroke-width:1px;stroke-linecap:butt;stroke-linejoin:miter;stroke-opacity:1" d="M 583.485,580.211 583.485,540.924 z" id="boundary" inkscape:connector-curvature="0" />
	<path style="fill:none;stroke:red;stroke-width:1px;stroke-linecap:butt;stroke-linejoin:miter;stroke-opacity:1" d="M 583.485,540.924 616.224,547.472 z" id="boundary" inkscape:connector-curvature="0" />
	<path style="fill:none;stroke:red;stroke-width:1px;stroke-linecap:butt;stroke-linejoin:miter;stroke-opacity:1" d="M 583.485,540.924 583.485,508.185 z" id="boundary" inkscape:connector-curvature="0" />
	<path style="fill:none;stroke:red;stroke-width:1px;stroke-linecap:butt;stroke-linejoin:miter;stroke-opacity:1" d="M 665.333,576.937 632.594,576.937 z" id="boundary" inkscape:connector-curvature="0" />
	<path style="fill:none;stroke:red;stroke-width:1px;stroke-linecap:butt;stroke-linejoin:miter;stroke-opacity:1" d="M 632.594,576.937 616.224,547.472 z" id="boundary" inkscape:connector-curvature="0" />
	<path style="fill:none;stroke:red;stroke-width:1px;stroke-linecap:butt;stroke-linejoin:miter;stroke-opacity:1" d="M 616.224,547.472 648.964,547.472 z" id="boundary" inkscape:connector-curvature="0" />
	<path style="fill:none;stroke:red;stroke-width:1px;stroke-linecap:butt;stroke-linejoin:miter;stroke-opacity:1" d="M 681.703,547.472 714.442,547.472 z" id="boundary" inkscape:connector-curvature="0" />
	<path style="fill:none;stroke:red;stroke-width:1px;stroke-linecap:butt;stroke-linejoin:miter;stroke-opacity:1" d="M 681.703,547.472 648.964,547.472 z" id="boundary" inkscape:connector-curvature="0" />
	<path style="fill:none;stroke:red;stroke-width:1px;stroke-linecap:butt;stroke-linejoin:miter;stroke-opacity:1" d="M 714.442,547.472 747.182,547.472 z" id="boundary" inkscape:connector-curvature="0" />
	<path style="fill:none;stroke:red;stroke-width:1px;stroke-linecap:butt;stroke-linejoin:miter;stroke-opacity:1" d="M 665.333,576.937 698.073,576.937 z" id="boundary" inkscape:connector-curvature="0" />
	<path style="fill:none;stroke:red;stroke-width:1px;stroke-linecap:butt;stroke-linejoin:miter;stroke-opacity:1" d="M 730.812,576.937 763.551,576.937 z" id="boundary" inkscape:connector-curvature="0" />
	<path style="fill:none;stroke:red;stroke-width:1px;stroke-linecap:butt;stroke-linejoin:miter;stroke-opacity:1" d="M 730.812,576.937 698.073,576.937 z" id="boundary" inkscape:connector-curvature="0" />
	<path style="fill:none;stroke:red;stroke-width:1px;stroke-linecap:butt;stroke-linejoin:miter;stroke-opacity:1" d="M 747.182,547.472 779.921,547.472 z" id="boundary" inkscape:connector-curvature="0" />
	<path style="fill:none;stroke:red;stroke-width:1px;stroke-linecap:butt;stroke-linejoin:miter;stroke-opacity:1" d="M 796.29,4 829.03,4 z" id="boundary" inkscape:connector-curvature="0" />
	<path style="fill:none;stroke:red;stroke-width:1px;stroke-linecap:butt;stroke-linejoin:miter;stroke-opacity:1" d="M 829.03,4 861.769,4 z" id="boundary" inkscape:connector-curvature="0" />
	<path style="fill:none;stroke:red;stroke-width:1px;stroke-linecap:butt;stroke-linejoin:miter;stroke-opacity:1" d="M 861.769,4 884.686,30.1914 z" id="boundary" inkscape:connector-curvature="0" />
	<path style="fill:none;stroke:red;stroke-width:1px;stroke-linecap:butt;stroke-linejoin:miter;stroke-opacity:1" d="M 884.686,30.1914 884.686,62.9307 z" id="boundary" inkscape:connector-curvature="0" />
	<path style="fill:none;stroke:red;stroke-width:1px;stroke-linecap:butt;stroke-linejoin:miter;stroke-opacity:1" d="M 884.686,95.67 884.686,62.9307 z" id="boundary" inkscape:connector-curvature="0" />
	<path style="fill:none;stroke:red;stroke-width:1px;stroke-linecap:butt;stroke-linejoin:miter;stroke-opacity:1" d="M 884.686,128.409 884.686,95.67 z" id="boundary" inkscape:connector-curvature="0" />
	<path style="fill:none;stroke:red;stroke-width:1px;stroke-linecap:butt;stroke-linejoin:miter;stroke-opacity:1" d="M 884.686,128.409 884.686,161.149 z" id="boundary" inkscape:connector-curvature="0" />
	<path style="fill:none;stroke:red;stroke-width:1px;stroke-linecap:butt;stroke-linejoin:miter;stroke-opacity:1" d="M 884.686,193.888 884.686,161.149 z" id="boundary" inkscape:connector-curvature="0" />
	<path style="fill:none;stroke:red;stroke-width:1px;stroke-linecap:butt;stroke-linejoin:miter;stroke-opacity:1" d="M 884.686,226.627 884.686,193.888 z" id="boundary" inkscape:connector-curvature="0" />
	<path style="fill:none;stroke:red;stroke-width:1px;stroke-linecap:butt;stroke-linejoin:miter;stroke-opacity:1" d="M 884.686,226.627 884.686,259.366 z" id="boundary" inkscape:connector-curvature="0" />
	<path style="fill:none;stroke:red;stroke-width:1px;stroke-linecap:butt;stroke-linejoin:miter;stroke-opacity:1" d="M 884.686,292.106 884.686,259.366 z" id="boundary" inkscape:connector-curvature="0" />
	<path style="fill:none;stroke:red;stroke-width:1px;stroke-linecap:butt;stroke-linejoin:miter;stroke-opacity:1" d="M 884.686,292.106 884.686,324.845 z" id="boundary" inkscape:connector-curvature="0" />
	<path style="fill:none;stroke:red;stroke-width:1px;stroke-linecap:butt;stroke-linejoin:miter;stroke-opacity:1" d="M 884.686,357.584 884.686,324.845 z" id="boundary" inkscape:connector-curvature="0" />
	<path style="fill:none;stroke:red;stroke-width:1px;stroke-linecap:butt;stroke-linejoin:miter;stroke-opacity:1" d="M 812.66,547.472 779.921,547.472 z" id="boundary" inkscape:connector-curvature="0" />
	<path style="fill:none;stroke:red;stroke-width:1px;stroke-linecap:butt;stroke-linejoin:miter;stroke-opacity:1" d="M 779.921,439.432 812.66,439.432 z" id="boundary" inkscape:connector-curvature="0" />
	<path style="fill:none;stroke:red;stroke-width:1px;stroke-linecap:butt;stroke-linejoin:miter;stroke-opacity:1" d="M 845.399,439.432 812.66,439.432 z" id="boundary" inkscape:connector-curvature="0" />
	<path style="fill:none;stroke:red;stroke-width:1px;stroke-linecap:butt;stroke-linejoin:miter;stroke-opacity:1" d="M 829.03,576.937 796.29,576.937 z" id="boundary" inkscape:connector-curvature="0" />
	<path style="fill:none;stroke:red;stroke-width:1px;stroke-linecap:butt;stroke-linejoin:miter;stroke-opacity:1" d="M 861.769,576.937 829.03,576.937 z" id="boundary" inkscape:connector-curvature="0" />
	<path style="fill:none;stroke:red;stroke-width:1px;stroke-linecap:butt;stroke-linejoin:miter;stroke-opacity:1" d="M 812.66,547.472 845.399,547.472 z" id="boundary" inkscape:connector-curvature="0" />
	<path style="fill:none;stroke:red;stroke-width:1px;stroke-linecap:butt;stroke-linejoin:miter;stroke-opacity:1" d="M 878.139,547.472 845.399,547.472 z" id="boundary" inkscape:connector-curvature="0" />
	<path style="fill:none;stroke:red;stroke-width:1px;stroke-linecap:butt;stroke-linejoin:miter;stroke-opacity:1" d="M 796.29,576.937 763.551,576.937 z" id="boundary" inkscape:connector-curvature="0" />
	<path style="fill:none;stroke:red;stroke-width:1px;stroke-linecap:butt;stroke-linejoin:miter;stroke-opacity:1" d="M 884.686,390.323 878.139,436.158 z" id="boundary" inkscape:connector-curvature="0" />
	<path style="fill:none;stroke:red;stroke-width:1px;stroke-linecap:butt;stroke-linejoin:miter;stroke-opacity:1" d="M 878.139,436.158 845.399,439.432 z" id="boundary" inkscape:connector-curvature="0" />
	<path style="fill:none;stroke:red;stroke-width:1px;stroke-linecap:butt;stroke-linejoin:miter;stroke-opacity:1" d="M 927.248,576.937 910.878,547.472 z" id="boundary" inkscape:connector-curvature="0" />
	<path style="fill:none;stroke:red;stroke-width:1px;stroke-linecap:butt;stroke-linejoin:miter;stroke-opacity:1" d="M 894.508,576.937 861.769,576.937 z" id="boundary" inkscape:connector-curvature="0" />
	<path style="fill:none;stroke:red;stroke-width:1px;stroke-linecap:butt;stroke-linejoin:miter;stroke-opacity:1" d="M 927.248,576.937 894.508,576.937 z" id="boundary" inkscape:connector-curvature="0" />
	<path style="fill:none;stroke:red;stroke-width:1px;stroke-linecap:butt;stroke-linejoin:miter;stroke-opacity:1" d="M 878.139,547.472 910.878,547.472 z" id="boundary" inkscape:connector-curvature="0" />
	<path style="fill:none;stroke:red;stroke-width:1px;stroke-linecap:butt;stroke-linejoin:miter;stroke-opacity:1" d="M 884.686,390.323 884.686,357.584 z" id="boundary" inkscape:connector-curvature="0" />
	<path style="fill:none;stroke:red;stroke-width:1px;stroke-linecap:butt;stroke-linejoin:miter;stroke-opacity:1" d="M 763.551,4 796.29,4 z" id="boundary" inkscape:connector-curvature="0" />
	<path style="fill:none;stroke:red;stroke-width:1px;stroke-linecap:butt;stroke-linejoin:miter;stroke-opacity:1" d="M 583.485,580.211 583.485,612.95 z" id="boundary" inkscape:connector-curvature="0" />
	<path style="fill:none;stroke:red;stroke-width:1px;stroke-linecap:butt;stroke-linejoin:miter;stroke-opacity:1" d="M 583.485,645.69 583.485,612.95 z" id="boundary" inkscape:connector-curvature="0" />
	<path style="fill:none;stroke:red;stroke-width:1px;stroke-linecap:butt;stroke-linejoin:miter;stroke-opacity:1" d="M 616.224,652.238 583.485,645.69 z" id="boundary" inkscape:connector-curvature="0" />
	<path style="fill:none;stroke:red;stroke-width:1px;stroke-linecap:butt;stroke-linejoin:miter;stroke-opacity:1" d="M 616.224,652.238 648.964,652.238 z" id="boundary" inkscape:connector-curvature="0" />
	<path style="fill:none;stroke:red;stroke-width:1px;stroke-linecap:butt;stroke-linejoin:miter;stroke-opacity:1" d="M 632.594,681.703 616.224,652.238 z" id="boundary" inkscape:connector-curvature="0" />
	<path style="fill:none;stroke:red;stroke-width:1px;stroke-linecap:butt;stroke-linejoin:miter;stroke-opacity:1" d="M 665.333,681.703 632.594,681.703 z" id="boundary" inkscape:connector-curvature="0" />
	<path style="fill:none;stroke:red;stroke-width:1px;stroke-linecap:butt;stroke-linejoin:miter;stroke-opacity:1" d="M 583.485,684.977 583.485,645.69 z" id="boundary" inkscape:connector-curvature="0" />
	<path style="fill:none;stroke:red;stroke-width:1px;stroke-linecap:butt;stroke-linejoin:miter;stroke-opacity:1" d="M 681.703,652.238 714.442,652.238 z" id="boundary" inkscape:connector-curvature="0" />
	<path style="fill:none;stroke:red;stroke-width:1px;stroke-linecap:butt;stroke-linejoin:miter;stroke-opacity:1" d="M 681.703,652.238 648.964,652.238 z" id="boundary" inkscape:connector-curvature="0" />
	<path style="fill:none;stroke:red;stroke-width:1px;stroke-linecap:butt;stroke-linejoin:miter;stroke-opacity:1" d="M 714.442,652.238 747.182,652.238 z" id="boundary" inkscape:connector-curvature="0" />
	<path style="fill:none;stroke:red;stroke-width:1px;stroke-linecap:butt;stroke-linejoin:miter;stroke-opacity:1" d="M 665.333,681.703 698.073,681.703 z" id="boundary" inkscape:connector-curvature="0" />
	<path style="fill:none;stroke:red;stroke-width:1px;stroke-linecap:butt;stroke-linejoin:miter;stroke-opacity:1" d="M 730.812,681.703 763.551,681.703 z" id="boundary" inkscape:connector-curvature="0" />
	<path style="fill:none;stroke:red;stroke-width:1px;stroke-linecap:butt;stroke-linejoin:miter;stroke-opacity:1" d="M 730.812,681.703 698.073,681.703 z" id="boundary" inkscape:connector-curvature="0" />
	<path style="fill:none;stroke:red;stroke-width:1px;stroke-linecap:butt;stroke-linejoin:miter;stroke-opacity:1" d="M 747.182,652.238 779.921,652.238 z" id="boundary" inkscape:connector-curvature="0" />
	<path style="fill:none;stroke:red;stroke-width:1px;stroke-linecap:butt;stroke-linejoin:miter;stroke-opacity:1" d="M 619.498,750.455 586.759,750.455 z" id="boundary" inkscape:connector-curvature="0" />
	<path style="fill:none;stroke:red;stroke-width:1px;stroke-linecap:butt;stroke-linejoin:miter;stroke-opacity:1" d="M 586.759,750.455 583.485,717.716 z" id="boundary" inkscape:connector-curvature="0" />
	<path style="fill:none;stroke:red;stroke-width:1px;stroke-linecap:butt;stroke-linejoin:miter;stroke-opacity:1" d="M 583.485,717.716 583.485,684.977 z" id="boundary" inkscape:connector-curvature="0" />
	<path style="fill:none;stroke:red;stroke-width:1px;stroke-linecap:butt;stroke-linejoin:miter;stroke-opacity:1" d="M 583.485,819.208 616.224,819.208 z" id="boundary" inkscape:connector-curvature="0" />
	<path style="fill:none;stroke:red;stroke-width:1px;stroke-linecap:butt;stroke-linejoin:miter;stroke-opacity:1" d="M 648.964,819.208 616.224,819.208 z" id="boundary" inkscape:connector-curvature="0" />
	<path style="fill:none;stroke:red;stroke-width:1px;stroke-linecap:butt;stroke-linejoin:miter;stroke-opacity:1" d="M 619.498,750.455 652.238,750.455 z" id="boundary" inkscape:connector-curvature="0" />
	<path style="fill:none;stroke:red;stroke-width:1px;stroke-linecap:butt;stroke-linejoin:miter;stroke-opacity:1" d="M 652.238,750.455 684.977,750.455 z" id="boundary" inkscape:connector-curvature="0" />
	<path style="fill:none;stroke:red;stroke-width:1px;stroke-linecap:butt;stroke-linejoin:miter;stroke-opacity:1" d="M 684.977,750.455 717.716,750.455 z" id="boundary" inkscape:connector-curvature="0" />
	<path style="fill:none;stroke:red;stroke-width:1px;stroke-linecap:butt;stroke-linejoin:miter;stroke-opacity:1" d="M 681.703,819.208 714.442,819.208 z" id="boundary" inkscape:connector-curvature="0" />
	<path style="fill:none;stroke:red;stroke-width:1px;stroke-linecap:butt;stroke-linejoin:miter;stroke-opacity:1" d="M 779.921,819.208 747.182,819.208 z" id="boundary" inkscape:connector-curvature="0" />
	<path style="fill:none;stroke:red;stroke-width:1px;stroke-linecap:butt;stroke-linejoin:miter;stroke-opacity:1" d="M 747.182,819.208 714.442,819.208 z" id="boundary" inkscape:connector-curvature="0" />
	<path style="fill:none;stroke:red;stroke-width:1px;stroke-linecap:butt;stroke-linejoin:miter;stroke-opacity:1" d="M 717.716,750.455 750.455,750.455 z" id="boundary" inkscape:connector-curvature="0" />
	<path style="fill:none;stroke:red;stroke-width:1px;stroke-linecap:butt;stroke-linejoin:miter;stroke-opacity:1" d="M 681.703,819.208 648.964,819.208 z" id="boundary" inkscape:connector-curvature="0" />
	<path style="fill:none;stroke:red;stroke-width:1px;stroke-linecap:butt;stroke-linejoin:miter;stroke-opacity:1" d="M 783.195,750.455 750.455,750.455 z" id="boundary" inkscape:connector-curvature="0" />
	<path style="fill:none;stroke:red;stroke-width:1px;stroke-linecap:butt;stroke-linejoin:miter;stroke-opacity:1" d="M 779.921,652.238 812.66,652.238 z" id="boundary" inkscape:connector-curvature="0" />
	<path style="fill:none;stroke:red;stroke-width:1px;stroke-linecap:butt;stroke-linejoin:miter;stroke-opacity:1" d="M 845.399,652.238 812.66,652.238 z" id="boundary" inkscape:connector-curvature="0" />
	<path style="fill:none;stroke:red;stroke-width:1px;stroke-linecap:butt;stroke-linejoin:miter;stroke-opacity:1" d="M 815.934,750.455 783.195,750.455 z" id="boundary" inkscape:connector-curvature="0" />
	<path style="fill:none;stroke:red;stroke-width:1px;stroke-linecap:butt;stroke-linejoin:miter;stroke-opacity:1" d="M 763.551,681.703 796.29,681.703 z" id="boundary" inkscape:connector-curvature="0" />
	<path style="fill:none;stroke:red;stroke-width:1px;stroke-linecap:butt;stroke-linejoin:miter;stroke-opacity:1" d="M 829.03,681.703 796.29,681.703 z" id="boundary" inkscape:connector-curvature="0" />
	<path style="fill:none;stroke:red;stroke-width:1px;stroke-linecap:butt;stroke-linejoin:miter;stroke-opacity:1" d="M 861.769,681.703 829.03,681.703 z" id="boundary" inkscape:connector-curvature="0" />
	<path style="fill:none;stroke:red;stroke-width:1px;stroke-linecap:butt;stroke-linejoin:miter;stroke-opacity:1" d="M 910.878,652.238 878.139,652.238 z" id="boundary" inkscape:connector-curvature="0" />
	<path style="fill:none;stroke:red;stroke-width:1px;stroke-linecap:butt;stroke-linejoin:miter;stroke-opacity:1" d="M 878.139,652.238 845.399,652.238 z" id="boundary" inkscape:connector-curvature="0" />
	<path style="fill:none;stroke:red;stroke-width:1px;stroke-linecap:butt;stroke-linejoin:miter;stroke-opacity:1" d="M 927.248,576.937 943.617,652.238 z" id="boundary" inkscape:connector-curvature="0" />
	<path style="fill:none;stroke:red;stroke-width:1px;stroke-linecap:butt;stroke-linejoin:miter;stroke-opacity:1" d="M 943.617,652.238 910.878,652.238 z" id="boundary" inkscape:connector-curvature="0" />
	<path style="fill:none;stroke:red;stroke-width:1px;stroke-linecap:butt;stroke-linejoin:miter;stroke-opacity:1" d="M 894.508,681.703 861.769,681.703 z" id="boundary" inkscape:connector-curvature="0" />
	<path style="fill:none;stroke:red;stroke-width:1px;stroke-linecap:butt;stroke-linejoin:miter;stroke-opacity:1" d="M 927.248,681.703 943.617,652.238 z" id="boundary" inkscape:connector-curvature="0" />
	<path style="fill:none;stroke:red;stroke-width:1px;stroke-linecap:butt;stroke-linejoin:miter;stroke-opacity:1" d="M 943.617,652.238 979.63,750.455 z" id="boundary" inkscape:connector-curvature="0" />
	<path style="fill:none;stroke:red;stroke-width:1px;stroke-linecap:butt;stroke-linejoin:miter;stroke-opacity:1" d="M 927.248,681.703 894.508,681.703 z" id="boundary" inkscape:connector-curvature="0" />
	<path style="fill:none;stroke:red;stroke-width:1px;stroke-linecap:butt;stroke-linejoin:miter;stroke-opacity:1" d="M 815.934,750.455 848.673,750.455 z" id="boundary" inkscape:connector-curvature="0" />
	<path style="fill:none;stroke:red;stroke-width:1px;stroke-linecap:butt;stroke-linejoin:miter;stroke-opacity:1" d="M 881.413,750.455 848.673,750.455 z" id="boundary" inkscape:connector-curvature="0" />
	<path style="fill:none;stroke:red;stroke-width:1px;stroke-linecap:butt;stroke-linejoin:miter;stroke-opacity:1" d="M 779.921,819.208 812.66,819.208 z" id="boundary" inkscape:connector-curvature="0" />
	<path style="fill:none;stroke:red;stroke-width:1px;stroke-linecap:butt;stroke-linejoin:miter;stroke-opacity:1" d="M 845.399,819.208 878.139,819.208 z" id="boundary" inkscape:connector-curvature="0" />
	<path style="fill:none;stroke:red;stroke-width:1px;stroke-linecap:butt;stroke-linejoin:miter;stroke-opacity:1" d="M 845.399,819.208 812.66,819.208 z" id="boundary" inkscape:connector-curvature="0" />
	<path style="fill:none;stroke:red;stroke-width:1px;stroke-linecap:butt;stroke-linejoin:miter;stroke-opacity:1" d="M 910.878,819.208 878.139,819.208 z" id="boundary" inkscape:connector-curvature="0" />
	<path style="fill:none;stroke:red;stroke-width:1px;stroke-linecap:butt;stroke-linejoin:miter;stroke-opacity:1" d="M 914.152,750.455 946.891,750.455 z" id="boundary" inkscape:connector-curvature="0" />
	<path style="fill:none;stroke:red;stroke-width:1px;stroke-linecap:butt;stroke-linejoin:miter;stroke-opacity:1" d="M 979.63,750.455 946.891,750.455 z" id="boundary" inkscape:connector-curvature="0" />
	<path style="fill:none;stroke:red;stroke-width:1px;stroke-linecap:butt;stroke-linejoin:miter;stroke-opacity:1" d="M 979.63,750.455 996,779.921 z" id="boundary" inkscape:connector-curvature="0" />
	<path style="fill:none;stroke:red;stroke-width:1px;stroke-linecap:butt;stroke-linejoin:miter;stroke-opacity:1" d="M 910.878,819.208 943.617,825.756 z" id="boundary" inkscape:connector-curvature="0" />
	<path style="fill:none;stroke:red;stroke-width:1px;stroke-linecap:butt;stroke-linejoin:miter;stroke-opacity:1" d="M 976.356,822.482 943.617,825.756 z" id="boundary" inkscape:connector-curvature="0" />
	<path style="fill:none;stroke:red;stroke-width:1px;stroke-linecap:butt;stroke-linejoin:miter;stroke-opacity:1" d="M 996,779.921 976.356,822.482 z" id="boundary" inkscape:connector-curvature="0" />
	<path style="fill:none;stroke:red;stroke-width:1px;stroke-linecap:butt;stroke-linejoin:miter;stroke-opacity:1" d="M 881.413,750.455 914.152,750.455 z" id="boundary" inkscape:connector-curvature="0" />
	<path style="fill:none;stroke:red;stroke-width:1px;stroke-linecap:butt;stroke-linejoin:miter;stroke-opacity:1" d="M 534.376,4 567.116,4 z" id="boundary" inkscape:connector-curvature="0" />
	<circle cx="4" cy="763.551" r="4" fill="#0" id="circle0"/>
	<circle cx="4" cy="796.29" r="4" fill="#0" id="circle1"/>
	<circle cx="26.9175" cy="822.482" r="4" fill="#0" id="circle2"/>
	<circle cx="36.7393" cy="750.455" r="4" fill="#0" id="circle3"/>
	<circle cx="59.6568" cy="822.482" r="4" fill="#0" id="circle4"/>
	<circle cx="69.4785" cy="560.568" r="4" fill="#0" id="circle5"/>
	<circle cx="69.4785" cy="658.785" r="4" fill="#0" id="circle6"/>
	<circle cx="69.4785" cy="750.455" r="4" fill="#0" id="circle7"/>
	<circle cx="92.396" cy="832.304" r="4" fill="#0" id="circle8"/>
	<circle cx="95.67" cy="681.703" r="4" fill="#0" id="circle9"/>
	<circle cx="98.9439" cy="576.937" r="4" fill="#0" id="circle10"/>
	<circle cx="102.218" cy="750.455" r="4" fill="#0" id="circle11"/>
	<circle cx="108.766" cy="10.5479" r="4" fill="#0" id="circle12"/>
	<circle cx="108.766" cy="43.2871" r="4" fill="#0" id="circle13"/>
	<circle cx="108.766" cy="76.0264" r="4" fill="#0" id="circle14"/>
	<circle cx="108.766" cy="108.766" r="4" fill="#0" id="circle15"/>
	<circle cx="108.766" cy="141.505" r="4" fill="#0" id="circle16"/>
	<circle cx="108.766" cy="174.244" r="4" fill="#0" id="circle17"/>
	<circle cx="108.766" cy="206.983" r="4" fill="#0" id="circle18"/>
	<circle cx="108.766" cy="239.723" r="4" fill="#0" id="circle19"/>
	<circle cx="108.766" cy="272.462" r="4" fill="#0" id="circle20"/>
	<circle cx="108.766" cy="305.201" r="4" fill="#0" id="circle21"/>
	<circle cx="108.766" cy="337.941" r="4" fill="#0" id="circle22"/>
	<circle cx="108.766" cy="370.68" r="4" fill="#0" id="circle23"/>
	<circle cx="108.766" cy="403.419" r="4" fill="#0" id="circle24"/>
	<circle cx="112.04" cy="436.158" r="4" fill="#0" id="circle25"/>
	<circle cx="112.04" cy="652.238" r="4" fill="#0" id="circle26"/>
	<circle cx="115.314" cy="547.472" r="4" fill="#0" id="circle27"/>
	<circle cx="125.135" cy="819.208" r="4" fill="#0" id="circle28"/>
	<circle cx="128.409" cy="681.703" r="4" fill="#0" id="circle29"/>
	<circle cx="131.683" cy="576.937" r="4" fill="#0" id="circle30"/>
	<circle cx="134.957" cy="750.455" r="4" fill="#0" id="circle31"/>
	<circle cx="141.505" cy="4" r="4" fill="#0" id="circle32"/>
	<circle cx="144.779" cy="439.432" r="4" fill="#0" id="circle33"/>
	<circle cx="144.779" cy="652.238" r="4" fill="#0" id="circle34"/>
	<circle cx="148.053" cy="547.472" r="4" fill="#0" id="circle35"/>
	<circle cx="157.875" cy="819.208" r="4" fill="#0" id="circle36"/>
	<circle cx="161.149" cy="681.703" r="4" fill="#0" id="circle37"/>
	<circle cx="164.422" cy="576.937" r="4" fill="#0" id="circle38"/>
	<circle cx="167.696" cy="750.455" r="4" fill="#0" id="circle39"/>
	<circle cx="174.244" cy="4" r="4" fill="#0" id="circle40"/>
	<circle cx="177.518" cy="439.432" r="4" fill="#0" id="circle41"/>
	<circle cx="177.518" cy="652.238" r="4" fill="#0" id="circle42"/>
	<circle cx="180.792" cy="547.472" r="4" fill="#0" id="circle43"/>
	<circle cx="190.614" cy="819.208" r="4" fill="#0" id="circle44"/>
	<circle cx="193.888" cy="681.703" r="4" fill="#0" id="circle45"/>
	<circle cx="197.162" cy="576.937" r="4" fill="#0" id="circle46"/>
	<circle cx="200.436" cy="750.455" r="4" fill="#0" id="circle47"/>
	<circle cx="206.983" cy="4" r="4" fill="#0" id="circle48"/>
	<circle cx="210.257" cy="439.432" r="4" fill="#0" id="circle49"/>
	<circle cx="210.257" cy="652.238" r="4" fill="#0" id="circle50"/>
	<circle cx="213.531" cy="547.472" r="4" fill="#0" id="circle51"/>
	<circle cx="223.353" cy="819.208" r="4" fill="#0" id="circle52"/>
	<circle cx="226.627" cy="681.703" r="4" fill="#0" id="circle53"/>
	<circle cx="229.901" cy="576.937" r="4" fill="#0" id="circle54"/>
	<circle cx="233.175" cy="750.455" r="4" fill="#0" id="circle55"/>
	<circle cx="239.723" cy="4" r="4" fill="#0" id="circle56"/>
	<circle cx="242.997" cy="439.432" r="4" fill="#0" id="circle57"/>
	<circle cx="242.997" cy="652.238" r="4" fill="#0" id="circle58"/>
	<circle cx="246.271" cy="547.472" r="4" fill="#0" id="circle59"/>
	<circle cx="256.092" cy="819.208" r="4" fill="#0" id="circle60"/>
	<circle cx="259.366" cy="681.703" r="4" fill="#0" id="circle61"/>
	<circle cx="262.64" cy="576.937" r="4" fill="#0" id="circle62"/>
	<circle cx="265.914" cy="750.455" r="4" fill="#0" id="circle63"/>
	<circle cx="272.462" cy="4" r="4" fill="#0" id="circle64"/>
	<circle cx="275.736" cy="439.432" r="4" fill="#0" id="circle65"/>
	<circle cx="275.736" cy="652.238" r="4" fill="#0" id="circle66"/>
	<circle cx="279.01" cy="547.472" r="4" fill="#0" id="circle67"/>
	<circle cx="288.832" cy="819.208" r="4" fill="#0" id="circle68"/>
	<circle cx="292.106" cy="681.703" r="4" fill="#0" id="circle69"/>
	<circle cx="295.38" cy="576.937" r="4" fill="#0" id="circle70"/>
	<circle cx="298.653" cy="750.455" r="4" fill="#0" id="circle71"/>
	<circle cx="305.201" cy="4" r="4" fill="#0" id="circle72"/>
	<circle cx="308.475" cy="439.432" r="4" fill="#0" id="circle73"/>
	<circle cx="308.475" cy="652.238" r="4" fill="#0" id="circle74"/>
	<circle cx="311.749" cy="547.472" r="4" fill="#0" id="circle75"/>
	<circle cx="321.571" cy="819.208" r="4" fill="#0" id="circle76"/>
	<circle cx="324.845" cy="681.703" r="4" fill="#0" id="circle77"/>
	<circle cx="328.119" cy="576.937" r="4" fill="#0" id="circle78"/>
	<circle cx="331.393" cy="750.455" r="4" fill="#0" id="circle79"/>
	<circle cx="337.941" cy="4" r="4" fill="#0" id="circle80"/>
	<circle cx="341.215" cy="439.432" r="4" fill="#0" id="circle81"/>
	<circle cx="341.215" cy="652.238" r="4" fill="#0" id="circle82"/>
	<circle cx="344.488" cy="547.472" r="4" fill="#0" id="circle83"/>
	<circle cx="354.31" cy="819.208" r="4" fill="#0" id="circle84"/>
	<circle cx="357.584" cy="681.703" r="4" fill="#0" id="circle85"/>
	<circle cx="360.858" cy="576.937" r="4" fill="#0" id="circle86"/>
	<circle cx="364.132" cy="750.455" r="4" fill="#0" id="circle87"/>
	<circle cx="370.68" cy="4" r="4" fill="#0" id="circle88"/>
	<circle cx="373.954" cy="439.432" r="4" fill="#0" id="circle89"/>
	<circle cx="373.954" cy="652.238" r="4" fill="#0" id="circle90"/>
	<circle cx="377.228" cy="547.472" r="4" fill="#0" id="circle91"/>
	<circle cx="387.05" cy="819.208" r="4" fill="#0" id="circle92"/>
	<circle cx="390.323" cy="468.898" r="4" fill="#0" id="circle93"/>
	<circle cx="390.323" cy="501.637" r="4" fill="#0" id="circle94"/>
	<circle cx="390.323" cy="593.307" r="4" fill="#0" id="circle95"/>
	<circle cx="390.323" cy="684.977" r="4" fill="#0" id="circle96"/>
	<circle cx="390.323" cy="717.716" r="4" fill="#0" id="circle97"/>
	<circle cx="403.419" cy="4" r="4" fill="#0" id="circle98"/>
	<circle cx="419.789" cy="819.208" r="4" fill="#0" id="circle99"/>
	<circle cx="436.158" cy="4" r="4" fill="#0" id="circle100"/>
	<circle cx="452.528" cy="819.208" r="4" fill="#0" id="circle101"/>
	<circle cx="468.898" cy="4" r="4" fill="#0" id="circle102"/>
	<circle cx="485.267" cy="819.208" r="4" fill="#0" id="circle103"/>
	<circle cx="501.637" cy="4" r="4" fill="#0" id="circle104"/>
	<circle cx="518.007" cy="819.208" r="4" fill="#0" id="circle105"/>
	<circle cx="534.376" cy="4" r="4" fill="#0" id="circle106"/>
	<circle cx="550.746" cy="819.208" r="4" fill="#0" id="circle107"/>
	<circle cx="567.116" cy="4" r="4" fill="#0" id="circle108"/>
	<circle cx="583.485" cy="442.706" r="4" fill="#0" id="circle109"/>
	<circle cx="583.485" cy="475.446" r="4" fill="#0" id="circle110"/>
	<circle cx="583.485" cy="508.185" r="4" fill="#0" id="circle111"/>
	<circle cx="583.485" cy="540.924" r="4" fill="#0" id="circle112"/>
	<circle cx="583.485" cy="580.211" r="4" fill="#0" id="circle113"/>
	<circle cx="583.485" cy="612.95" r="4" fill="#0" id="circle114"/>
	<circle cx="583.485" cy="645.69" r="4" fill="#0" id="circle115"/>
	<circle cx="583.485" cy="684.977" r="4" fill="#0" id="circle116"/>
	<circle cx="583.485" cy="717.716" r="4" fill="#0" id="circle117"/>
	<circle cx="583.485" cy="819.208" r="4" fill="#0" id="circle118"/>
	<circle cx="586.759" cy="750.455" r="4" fill="#0" id="circle119"/>
	<circle cx="599.855" cy="4" r="4" fill="#0" id="circle120"/>
	<circle cx="616.224" cy="439.432" r="4" fill="#0" id="circle121"/>
	<circle cx="616.224" cy="547.472" r="4" fill="#0" id="circle122"/>
	<circle cx="616.224" cy="652.238" r="4" fill="#0" id="circle123"/>
	<circle cx="616.224" cy="819.208" r="4" fill="#0" id="circle124"/>
	<circle cx="619.498" cy="750.455" r="4" fill="#0" id="circle125"/>
	<circle cx="632.594" cy="4" r="4" fill="#0" id="circle126"/>
	<circle cx="632.594" cy="576.937" r="4" fill="#0" id="circle127"/>
	<circle cx="632.594" cy="681.703" r="4" fill="#0" id="circle128"/>
	<circle cx="648.964" cy="439.432" r="4" fill="#0" id="circle129"/>
	<circle cx="648.964" cy="547.472" r="4" fill="#0" id="circle130"/>
	<circle cx="648.964" cy="652.238" r="4" fill="#0" id="circle131"/>
	<circle cx="648.964" cy="819.208" r="4" fill="#0" id="circle132"/>
	<circle cx="652.238" cy="750.455" r="4" fill="#0" id="circle133"/>
	<circle cx="665.333" cy="4" r="4" fill="#0" id="circle134"/>
	<circle cx="665.333" cy="576.937" r="4" fill="#0" id="circle135"/>
	<circle cx="665.333" cy="681.703" r="4" fill="#0" id="circle136"/>
	<circle cx="681.703" cy="439.432" r="4" fill="#0" id="circle137"/>
	<circle cx="681.703" cy="547.472" r="4" fill="#0" id="circle138"/>
	<circle cx="681.703" cy="652.238" r="4" fill="#0" id="circle139"/>
	<circle cx="681.703" cy="819.208" r="4" fill="#0" id="circle140"/>
	<circle cx="684.977" cy="750.455" r="4" fill="#0" id="circle141"/>
	<circle cx="698.073" cy="4" r="4" fill="#0" id="circle142"/>
	<circle cx="698.073" cy="576.937" r="4" fill="#0" id="circle143"/>
	<circle cx="698.073" cy="681.703" r="4" fill="#0" id="circle144"/>
	<circle cx="714.442" cy="439.432" r="4" fill="#0" id="circle145"/>
	<circle cx="714.442" cy="547.472" r="4" fill="#0" id="circle146"/>
	<circle cx="714.442" cy="652.238" r="4" fill="#0" id="circle147"/>
	<circle cx="714.442" cy="819.208" r="4" fill="#0" id="circle148"/>
	<circle cx="717.716" cy="750.455" r="4" fill="#0" id="circle149"/>
	<circle cx="730.812" cy="4" r="4" fill="#0" id="circle150"/>
	<circle cx="730.812" cy="576.937" r="4" fill="#0" id="circle151"/>
	<circle cx="730.812" cy="681.703" r="4" fill="#0" id="circle152"/>
	<circle cx="747.182" cy="439.432" r="4" fill="#0" id="circle153"/>
	<circle cx="747.182" cy="547.472" r="4" fill="#0" id="circle154"/>
	<circle cx="747.182" cy="652.238" r="4" fill="#0" id="circle155"/>
	<circle cx="747.182" cy="819.208" r="4" fill="#0" id="circle156"/>
	<circle cx="750.455" cy="750.455" r="4" fill="#0" id="circle157"/>
	<circle cx="763.551" cy="4" r="4" fill="#0" id="circle158"/>
	<circle cx="763.551" cy="576.937" r="4" fill="#0" id="circle159"/>
	<circle cx="763.551" cy="681.703" r="4" fill="#0" id="circle160"/>
	<circle cx="779.921" cy="439.432" r="4" fill="#0" id="circle161"/>
	<circle cx="779.921" cy="547.472" r="4" fill="#0" id="circle162"/>
	<circle cx="779.921" cy="652.238" r="4" fill="#0" id="circle163"/>
	<circle cx="779.921" cy="819.208" r="4" fill="#0" id="circle164"/>
	<circle cx="783.195" cy="750.455" r="4" fill="#0" id="circle165"/>
	<circle cx="796.29" cy="4" r="4" fill="#0" id="circle166"/>
	<circle cx="796.29" cy="576.937" r="4" fill="#0" id="circle167"/>
	<circle cx="796.29" cy="681.703" r="4" fill="#0" id="circle168"/>
	<circle cx="812.66" cy="439.432" r="4" fill="#0" id="circle169"/>
	<circle cx="812.66" cy="547.472" r="4" fill="#0" id="circle170"/>
	<circle cx="812.66" cy="652.238" r="4" fill="#0" id="circle171"/>
	<circle cx="812.66" cy="819.208" r="4" fill="#0" id="circle172"/>
	<circle cx="815.934" cy="750.455" r="4" fill="#0" id="circle173"/>
	<circle cx="829.03" cy="4" r="4" fill="#0" id="circle174"/>
	<circle cx="829.03" cy="576.937" r="4" fill="#0" id="circle175"/>
	<circle cx="829.03" cy="681.703" r="4" fill="#0" id="circle176"/>
	<circle cx="845.399" cy="439.432" r="4" fill="#0" id="circle177"/>
	<circle cx="845.399" cy="547.472" r="4" fill="#0" id="circle178"/>
	<circle cx="845.399" cy="652.238" r="4" fill="#0" id="circle179"/>
	<circle cx="845.399" cy="819.208" r="4" fill="#0" id="circle180"/>
	<circle cx="848.673" cy="750.455" r="4" fill="#0" id="circle181"/>
	<circle cx="861.769" cy="4" r="4" fill="#0" id="circle182"/>
	<circle cx="861.769" cy="576.937" r="4" fill="#0" id="circle183"/>
	<circle cx="861.769" cy="681.703" r="4" fill="#0" id="circle184"/>
	<circle cx="878.139" cy="436.158" r="4" fill="#0" id="circle185"/>
	<circle cx="878.139" cy="547.472" r="4" fill="#0" id="circle186"/>
	<circle cx="878.139" cy="652.238" r="4" fill="#0" id="circle187"/>
	<circle cx="878.139" cy="819.208" r="4" fill="#0" id="circle188"/>
	<circle cx="881.413" cy="750.455" r="4" fill="#0" id="circle189"/>
	<circle cx="884.686" cy="30.1914" r="4" fill="#0" id="circle190"/>
	<circle cx="884.686" cy="62.9307" r="4" fill="#0" id="circle191"/>
	<circle cx="884.686" cy="95.67" r="4" fill="#0" id="circle192"/>
	<circle cx="884.686" cy="128.409" r="4" fill="#0" id="circle193"/>
	<circle cx="884.686" cy="161.149" r="4" fill="#0" id="circle194"/>
	<circle cx="884.686" cy="193.888" r="4" fill="#0" id="circle195"/>
	<circle cx="884.686" cy="226.627" r="4" fill="#0" id="circle196"/>
	<circle cx="884.686" cy="259.366" r="4" fill="#0" id="circle197"/>
	<circle cx="884.686" cy="292.106" r="4" fill="#0" id="circle198"/>
	<circle cx="884.686" cy="324.845" r="4" fill="#0" id="circle199"/>
	<circle cx="884.686" cy="357.584" r="4" fill="#0" id="circle200"/>
	<circle cx="884.686" cy="390.323" r="4" fill="#0" id="circle201"/>
	<circle cx="894.508" cy="576.937" r="4" fill="#0" id="circle202"/>
	<circle cx="894.508" cy="681.703" r="4" fill="#0" id="circle203"/>
	<circle cx="910.878" cy="547.472" r="4" fill="#0" id="circle204"/>
	<circle cx="910.878" cy="652.238" r="4" fill="#0" id="circle205"/>
	<circle cx="910.878" cy="819.208" r="4" fill="#0" id="circle206"/>
	<circle cx="914.152" cy="750.455" r="4" fill="#0" id="circle207"/>
	<circle cx="927.248" cy="576.937" r="4" fill="#0" id="circle208"/>
	<circle cx="927.248" cy="681.703" r="4" fill="#0" id="circle209"/>
	<circle cx="943.617" cy="652.238" r="4" fill="#0" id="circle210"/>
	<circle cx="943.617" cy="825.756" r="4" fill="#0" id="circle211"/>
	<circle cx="946.891" cy="750.455" r="4" fill="#0" id="circle212"/>
	<circle cx="976.356" cy="822.482" r="4" fill="#0" id="circle213"/>
	<circle cx="979.63" cy="750.455" r="4" fill="#0" id="circle214"/>
	<circle cx="996" cy="779.921" r="4" fill="#0" id="circle215"/>
	</g>
</svg>