<?xml version="1.0" encoding="UTF-8" standalone="no"?>
<!-- Created with CurveBenchmark -->
<svg
	xmlns:dc="http://purl.org/dc/elements/1.1/"
	xmlns:cc="http://creativecommons.org/ns#"
	xmlns:rdf="http://www.w3.org/1999/02/22-rdf-syntax-ns#"
	xmlns:svg="http://www.w3.org/2000/svg"
	xmlns="http://www.w3.org/2000/svg"
	xmlns:sodipodi="http://sodipodi.sourceforge.net/DTD/sodipodi-0.dtd"
	xmlns:inkscape="http://www.inkscape.org/namespaces/inkscape"
	width="1000"
	height="1000"
	id="svg2"
	version="1.1"
	sodipodi:docname="manifold/nncrust-television175.png.txt">
<defs
	id="defs4" />
<metadata
	id="metadata7">
	<rdf:RDF>
		<cc:Work
			rdf:about="">
			<dc:format>image/svg+xml</dc:format>
			<dc:type
				rdf:resource="http://purl.org/dc/dcmitype/StillImage" />
			<dc:title></dc:title>
		</cc:Work>
	</rdf:RDF>
</metadata>
<g
	inkscape:label="Layer 1"
	inkscape:groupmode="layer"
	id="layer1">
	<path style="fill:none;stroke:red;stroke-width:1px;stroke-linecap:butt;stroke-linejoin:miter;stroke-opacity:1" d="M 103.866,10.6577 103.866,43.9463 z" id="boundary" inkscape:connector-curvature="0" />
	<path style="fill:none;stroke:red;stroke-width:1px;stroke-linecap:butt;stroke-linejoin:miter;stroke-opacity:1" d="M 103.866,10.6577 137.154,4 z" id="boundary" inkscape:connector-curvature="0" />
	<path style="fill:none;stroke:red;stroke-width:1px;stroke-linecap:butt;stroke-linejoin:miter;stroke-opacity:1" d="M 103.866,77.2349 103.866,43.9463 z" id="boundary" inkscape:connector-curvature="0" />
	<path style="fill:none;stroke:red;stroke-width:1px;stroke-linecap:butt;stroke-linejoin:miter;stroke-opacity:1" d="M 103.866,110.523 103.866,143.812 z" id="boundary" inkscape:connector-curvature="0" />
	<path style="fill:none;stroke:red;stroke-width:1px;stroke-linecap:butt;stroke-linejoin:miter;stroke-opacity:1" d="M 103.866,177.101 103.866,143.812 z" id="boundary" inkscape:connector-curvature="0" />
	<path style="fill:none;stroke:red;stroke-width:1px;stroke-linecap:butt;stroke-linejoin:miter;stroke-opacity:1" d="M 103.866,110.523 103.866,77.2349 z" id="boundary" inkscape:connector-curvature="0" />
	<path style="fill:none;stroke:red;stroke-width:1px;stroke-linecap:butt;stroke-linejoin:miter;stroke-opacity:1" d="M 103.866,210.389 103.866,177.101 z" id="boundary" inkscape:connector-curvature="0" />
	<path style="fill:none;stroke:red;stroke-width:1px;stroke-linecap:butt;stroke-linejoin:miter;stroke-opacity:1" d="M 137.154,4 170.443,4 z" id="boundary" inkscape:connector-curvature="0" />
	<path style="fill:none;stroke:red;stroke-width:1px;stroke-linecap:butt;stroke-linejoin:miter;stroke-opacity:1" d="M 103.866,276.966 103.866,243.678 z" id="boundary" inkscape:connector-curvature="0" />
	<path style="fill:none;stroke:red;stroke-width:1px;stroke-linecap:butt;stroke-linejoin:miter;stroke-opacity:1" d="M 103.866,310.255 103.866,276.966 z" id="boundary" inkscape:connector-curvature="0" />
	<path style="fill:none;stroke:red;stroke-width:1px;stroke-linecap:butt;stroke-linejoin:miter;stroke-opacity:1" d="M 103.866,310.255 103.866,343.544 z" id="boundary" inkscape:connector-curvature="0" />
	<path style="fill:none;stroke:red;stroke-width:1px;stroke-linecap:butt;stroke-linejoin:miter;stroke-opacity:1" d="M 207.06,446.738 173.772,446.738 z" id="boundary" inkscape:connector-curvature="0" />
	<path style="fill:none;stroke:red;stroke-width:1px;stroke-linecap:butt;stroke-linejoin:miter;stroke-opacity:1" d="M 103.866,243.678 103.866,210.389 z" id="boundary" inkscape:connector-curvature="0" />
	<path style="fill:none;stroke:red;stroke-width:1px;stroke-linecap:butt;stroke-linejoin:miter;stroke-opacity:1" d="M 140.483,446.738 107.195,443.409 z" id="boundary" inkscape:connector-curvature="0" />
	<path style="fill:none;stroke:red;stroke-width:1px;stroke-linecap:butt;stroke-linejoin:miter;stroke-opacity:1" d="M 107.195,443.409 103.866,410.121 z" id="boundary" inkscape:connector-curvature="0" />
	<path style="fill:none;stroke:red;stroke-width:1px;stroke-linecap:butt;stroke-linejoin:miter;stroke-opacity:1" d="M 133.826,556.591 100.537,556.591 z" id="boundary" inkscape:connector-curvature="0" />
	<path style="fill:none;stroke:red;stroke-width:1px;stroke-linecap:butt;stroke-linejoin:miter;stroke-opacity:1" d="M 107.195,443.409 57.2617,563.248 z" id="boundary" inkscape:connector-curvature="0" />
	<path style="fill:none;stroke:red;stroke-width:1px;stroke-linecap:butt;stroke-linejoin:miter;stroke-opacity:1" d="M 103.866,376.832 103.866,410.121 z" id="boundary" inkscape:connector-curvature="0" />
	<path style="fill:none;stroke:red;stroke-width:1px;stroke-linecap:butt;stroke-linejoin:miter;stroke-opacity:1" d="M 57.2617,563.248 83.8926,586.55 z" id="boundary" inkscape:connector-curvature="0" />
	<path style="fill:none;stroke:red;stroke-width:1px;stroke-linecap:butt;stroke-linejoin:miter;stroke-opacity:1" d="M 100.537,556.591 83.8926,586.55 z" id="boundary" inkscape:connector-curvature="0" />
	<path style="fill:none;stroke:red;stroke-width:1px;stroke-linecap:butt;stroke-linejoin:miter;stroke-opacity:1" d="M 117.181,586.55 83.8926,586.55 z" id="boundary" inkscape:connector-curvature="0" />
	<path style="fill:none;stroke:red;stroke-width:1px;stroke-linecap:butt;stroke-linejoin:miter;stroke-opacity:1" d="M 103.866,343.544 103.866,376.832 z" id="boundary" inkscape:connector-curvature="0" />
	<path style="fill:none;stroke:red;stroke-width:1px;stroke-linecap:butt;stroke-linejoin:miter;stroke-opacity:1" d="M 167.114,556.591 133.826,556.591 z" id="boundary" inkscape:connector-curvature="0" />
	<path style="fill:none;stroke:red;stroke-width:1px;stroke-linecap:butt;stroke-linejoin:miter;stroke-opacity:1" d="M 173.772,446.738 140.483,446.738 z" id="boundary" inkscape:connector-curvature="0" />
	<path style="fill:none;stroke:red;stroke-width:1px;stroke-linecap:butt;stroke-linejoin:miter;stroke-opacity:1" d="M 183.758,586.55 150.47,586.55 z" id="boundary" inkscape:connector-curvature="0" />
	<path style="fill:none;stroke:red;stroke-width:1px;stroke-linecap:butt;stroke-linejoin:miter;stroke-opacity:1" d="M 217.047,586.55 183.758,586.55 z" id="boundary" inkscape:connector-curvature="0" />
	<path style="fill:none;stroke:red;stroke-width:1px;stroke-linecap:butt;stroke-linejoin:miter;stroke-opacity:1" d="M 167.114,556.591 200.403,556.591 z" id="boundary" inkscape:connector-curvature="0" />
	<path style="fill:none;stroke:red;stroke-width:1px;stroke-linecap:butt;stroke-linejoin:miter;stroke-opacity:1" d="M 150.47,586.55 117.181,586.55 z" id="boundary" inkscape:connector-curvature="0" />
	<path style="fill:none;stroke:red;stroke-width:1px;stroke-linecap:butt;stroke-linejoin:miter;stroke-opacity:1" d="M 170.443,4 203.732,4 z" id="boundary" inkscape:connector-curvature="0" />
	<path style="fill:none;stroke:red;stroke-width:1px;stroke-linecap:butt;stroke-linejoin:miter;stroke-opacity:1" d="M 237.02,4 270.309,4 z" id="boundary" inkscape:connector-curvature="0" />
	<path style="fill:none;stroke:red;stroke-width:1px;stroke-linecap:butt;stroke-linejoin:miter;stroke-opacity:1" d="M 270.309,4 303.597,4 z" id="boundary" inkscape:connector-curvature="0" />
	<path style="fill:none;stroke:red;stroke-width:1px;stroke-linecap:butt;stroke-linejoin:miter;stroke-opacity:1" d="M 207.06,446.738 240.349,446.738 z" id="boundary" inkscape:connector-curvature="0" />
	<path style="fill:none;stroke:red;stroke-width:1px;stroke-linecap:butt;stroke-linejoin:miter;stroke-opacity:1" d="M 273.638,446.738 240.349,446.738 z" id="boundary" inkscape:connector-curvature="0" />
	<path style="fill:none;stroke:red;stroke-width:1px;stroke-linecap:butt;stroke-linejoin:miter;stroke-opacity:1" d="M 303.597,4 336.886,4 z" id="boundary" inkscape:connector-curvature="0" />
	<path style="fill:none;stroke:red;stroke-width:1px;stroke-linecap:butt;stroke-linejoin:miter;stroke-opacity:1" d="M 203.732,4 237.02,4 z" id="boundary" inkscape:connector-curvature="0" />
	<path style="fill:none;stroke:red;stroke-width:1px;stroke-linecap:butt;stroke-linejoin:miter;stroke-opacity:1" d="M 336.886,4 370.174,4 z" id="boundary" inkscape:connector-curvature="0" />
	<path style="fill:none;stroke:red;stroke-width:1px;stroke-linecap:butt;stroke-linejoin:miter;stroke-opacity:1" d="M 306.926,446.738 340.215,446.738 z" id="boundary" inkscape:connector-curvature="0" />
	<path style="fill:none;stroke:red;stroke-width:1px;stroke-linecap:butt;stroke-linejoin:miter;stroke-opacity:1" d="M 370.174,4 403.463,4 z" id="boundary" inkscape:connector-curvature="0" />
	<path style="fill:none;stroke:red;stroke-width:1px;stroke-linecap:butt;stroke-linejoin:miter;stroke-opacity:1" d="M 373.503,446.738 340.215,446.738 z" id="boundary" inkscape:connector-curvature="0" />
	<path style="fill:none;stroke:red;stroke-width:1px;stroke-linecap:butt;stroke-linejoin:miter;stroke-opacity:1" d="M 403.463,4 436.752,4 z" id="boundary" inkscape:connector-curvature="0" />
	<path style="fill:none;stroke:red;stroke-width:1px;stroke-linecap:butt;stroke-linejoin:miter;stroke-opacity:1" d="M 306.926,446.738 273.638,446.738 z" id="boundary" inkscape:connector-curvature="0" />
	<path style="fill:none;stroke:red;stroke-width:1px;stroke-linecap:butt;stroke-linejoin:miter;stroke-opacity:1" d="M 233.691,556.591 266.98,556.591 z" id="boundary" inkscape:connector-curvature="0" />
	<path style="fill:none;stroke:red;stroke-width:1px;stroke-linecap:butt;stroke-linejoin:miter;stroke-opacity:1" d="M 300.268,556.591 266.98,556.591 z" id="boundary" inkscape:connector-curvature="0" />
	<path style="fill:none;stroke:red;stroke-width:1px;stroke-linecap:butt;stroke-linejoin:miter;stroke-opacity:1" d="M 217.047,586.55 250.336,586.55 z" id="boundary" inkscape:connector-curvature="0" />
	<path style="fill:none;stroke:red;stroke-width:1px;stroke-linecap:butt;stroke-linejoin:miter;stroke-opacity:1" d="M 283.624,586.55 316.913,586.55 z" id="boundary" inkscape:connector-curvature="0" />
	<path style="fill:none;stroke:red;stroke-width:1px;stroke-linecap:butt;stroke-linejoin:miter;stroke-opacity:1" d="M 283.624,586.55 250.336,586.55 z" id="boundary" inkscape:connector-curvature="0" />
	<path style="fill:none;stroke:red;stroke-width:1px;stroke-linecap:butt;stroke-linejoin:miter;stroke-opacity:1" d="M 300.268,556.591 333.557,556.591 z" id="boundary" inkscape:connector-curvature="0" />
	<path style="fill:none;stroke:red;stroke-width:1px;stroke-linecap:butt;stroke-linejoin:miter;stroke-opacity:1" d="M 200.403,556.591 233.691,556.591 z" id="boundary" inkscape:connector-curvature="0" />
	<path style="fill:none;stroke:red;stroke-width:1px;stroke-linecap:butt;stroke-linejoin:miter;stroke-opacity:1" d="M 373.503,446.738 406.792,446.738 z" id="boundary" inkscape:connector-curvature="0" />
	<path style="fill:none;stroke:red;stroke-width:1px;stroke-linecap:butt;stroke-linejoin:miter;stroke-opacity:1" d="M 406.792,446.738 410.121,480.027 z" id="boundary" inkscape:connector-curvature="0" />
	<path style="fill:none;stroke:red;stroke-width:1px;stroke-linecap:butt;stroke-linejoin:miter;stroke-opacity:1" d="M 410.121,480.027 410.121,513.315 z" id="boundary" inkscape:connector-curvature="0" />
	<path style="fill:none;stroke:red;stroke-width:1px;stroke-linecap:butt;stroke-linejoin:miter;stroke-opacity:1" d="M 350.201,586.55 316.913,586.55 z" id="boundary" inkscape:connector-curvature="0" />
	<path style="fill:none;stroke:red;stroke-width:1px;stroke-linecap:butt;stroke-linejoin:miter;stroke-opacity:1" d="M 366.846,556.591 333.557,556.591 z" id="boundary" inkscape:connector-curvature="0" />
	<path style="fill:none;stroke:red;stroke-width:1px;stroke-linecap:butt;stroke-linejoin:miter;stroke-opacity:1" d="M 410.121,513.315 400.134,556.591 z" id="boundary" inkscape:connector-curvature="0" />
	<path style="fill:none;stroke:red;stroke-width:1px;stroke-linecap:butt;stroke-linejoin:miter;stroke-opacity:1" d="M 400.134,556.591 366.846,556.591 z" id="boundary" inkscape:connector-curvature="0" />
	<path style="fill:none;stroke:red;stroke-width:1px;stroke-linecap:butt;stroke-linejoin:miter;stroke-opacity:1" d="M 57.2617,663.114 90.5503,663.114 z" id="boundary" inkscape:connector-curvature="0" />
	<path style="fill:none;stroke:red;stroke-width:1px;stroke-linecap:butt;stroke-linejoin:miter;stroke-opacity:1" d="M 73.906,693.074 57.2617,663.114 z" id="boundary" inkscape:connector-curvature="0" />
	<path style="fill:none;stroke:red;stroke-width:1px;stroke-linecap:butt;stroke-linejoin:miter;stroke-opacity:1" d="M 107.195,693.074 73.906,693.074 z" id="boundary" inkscape:connector-curvature="0" />
	<path style="fill:none;stroke:red;stroke-width:1px;stroke-linecap:butt;stroke-linejoin:miter;stroke-opacity:1" d="M 37.2886,762.98 57.2617,663.114 z" id="boundary" inkscape:connector-curvature="0" />
	<path style="fill:none;stroke:red;stroke-width:1px;stroke-linecap:butt;stroke-linejoin:miter;stroke-opacity:1" d="M 70.5772,762.98 37.2886,762.98 z" id="boundary" inkscape:connector-curvature="0" />
	<path style="fill:none;stroke:red;stroke-width:1px;stroke-linecap:butt;stroke-linejoin:miter;stroke-opacity:1" d="M 103.866,762.98 70.5772,762.98 z" id="boundary" inkscape:connector-curvature="0" />
	<path style="fill:none;stroke:red;stroke-width:1px;stroke-linecap:butt;stroke-linejoin:miter;stroke-opacity:1" d="M 90.5503,663.114 123.839,663.114 z" id="boundary" inkscape:connector-curvature="0" />
	<path style="fill:none;stroke:red;stroke-width:1px;stroke-linecap:butt;stroke-linejoin:miter;stroke-opacity:1" d="M 37.2886,762.98 4,769.638 z" id="boundary" inkscape:connector-curvature="0" />
	<path style="fill:none;stroke:red;stroke-width:1px;stroke-linecap:butt;stroke-linejoin:miter;stroke-opacity:1" d="M 123.839,663.114 157.128,663.114 z" id="boundary" inkscape:connector-curvature="0" />
	<path style="fill:none;stroke:red;stroke-width:1px;stroke-linecap:butt;stroke-linejoin:miter;stroke-opacity:1" d="M 190.416,663.114 157.128,663.114 z" id="boundary" inkscape:connector-curvature="0" />
	<path style="fill:none;stroke:red;stroke-width:1px;stroke-linecap:butt;stroke-linejoin:miter;stroke-opacity:1" d="M 107.195,693.074 140.483,693.074 z" id="boundary" inkscape:connector-curvature="0" />
	<path style="fill:none;stroke:red;stroke-width:1px;stroke-linecap:butt;stroke-linejoin:miter;stroke-opacity:1" d="M 173.772,693.074 140.483,693.074 z" id="boundary" inkscape:connector-curvature="0" />
	<path style="fill:none;stroke:red;stroke-width:1px;stroke-linecap:butt;stroke-linejoin:miter;stroke-opacity:1" d="M 207.06,693.074 240.349,693.074 z" id="boundary" inkscape:connector-curvature="0" />
	<path style="fill:none;stroke:red;stroke-width:1px;stroke-linecap:butt;stroke-linejoin:miter;stroke-opacity:1" d="M 207.06,693.074 173.772,693.074 z" id="boundary" inkscape:connector-curvature="0" />
	<path style="fill:none;stroke:red;stroke-width:1px;stroke-linecap:butt;stroke-linejoin:miter;stroke-opacity:1" d="M 190.416,663.114 223.705,663.114 z" id="boundary" inkscape:connector-curvature="0" />
	<path style="fill:none;stroke:red;stroke-width:1px;stroke-linecap:butt;stroke-linejoin:miter;stroke-opacity:1" d="M 4,802.926 4,769.638 z" id="boundary" inkscape:connector-curvature="0" />
	<path style="fill:none;stroke:red;stroke-width:1px;stroke-linecap:butt;stroke-linejoin:miter;stroke-opacity:1" d="M 53.9329,839.544 20.6443,832.886 z" id="boundary" inkscape:connector-curvature="0" />
	<path style="fill:none;stroke:red;stroke-width:1px;stroke-linecap:butt;stroke-linejoin:miter;stroke-opacity:1" d="M 20.6443,832.886 4,802.926 z" id="boundary" inkscape:connector-curvature="0" />
	<path style="fill:none;stroke:red;stroke-width:1px;stroke-linecap:butt;stroke-linejoin:miter;stroke-opacity:1" d="M 87.2215,832.886 120.51,832.886 z" id="boundary" inkscape:connector-curvature="0" />
	<path style="fill:none;stroke:red;stroke-width:1px;stroke-linecap:butt;stroke-linejoin:miter;stroke-opacity:1" d="M 53.9329,839.544 87.2215,832.886 z" id="boundary" inkscape:connector-curvature="0" />
	<path style="fill:none;stroke:red;stroke-width:1px;stroke-linecap:butt;stroke-linejoin:miter;stroke-opacity:1" d="M 120.51,832.886 153.799,832.886 z" id="boundary" inkscape:connector-curvature="0" />
	<path style="fill:none;stroke:red;stroke-width:1px;stroke-linecap:butt;stroke-linejoin:miter;stroke-opacity:1" d="M 103.866,762.98 137.154,762.98 z" id="boundary" inkscape:connector-curvature="0" />
	<path style="fill:none;stroke:red;stroke-width:1px;stroke-linecap:butt;stroke-linejoin:miter;stroke-opacity:1" d="M 137.154,762.98 170.443,762.98 z" id="boundary" inkscape:connector-curvature="0" />
	<path style="fill:none;stroke:red;stroke-width:1px;stroke-linecap:butt;stroke-linejoin:miter;stroke-opacity:1" d="M 203.732,762.98 170.443,762.98 z" id="boundary" inkscape:connector-curvature="0" />
	<path style="fill:none;stroke:red;stroke-width:1px;stroke-linecap:butt;stroke-linejoin:miter;stroke-opacity:1" d="M 153.799,832.886 187.087,832.886 z" id="boundary" inkscape:connector-curvature="0" />
	<path style="fill:none;stroke:red;stroke-width:1px;stroke-linecap:butt;stroke-linejoin:miter;stroke-opacity:1" d="M 253.664,832.886 220.376,832.886 z" id="boundary" inkscape:connector-curvature="0" />
	<path style="fill:none;stroke:red;stroke-width:1px;stroke-linecap:butt;stroke-linejoin:miter;stroke-opacity:1" d="M 220.376,832.886 187.087,832.886 z" id="boundary" inkscape:connector-curvature="0" />
	<path style="fill:none;stroke:red;stroke-width:1px;stroke-linecap:butt;stroke-linejoin:miter;stroke-opacity:1" d="M 203.732,762.98 237.02,762.98 z" id="boundary" inkscape:connector-curvature="0" />
	<path style="fill:none;stroke:red;stroke-width:1px;stroke-linecap:butt;stroke-linejoin:miter;stroke-opacity:1" d="M 256.993,663.114 290.282,663.114 z" id="boundary" inkscape:connector-curvature="0" />
	<path style="fill:none;stroke:red;stroke-width:1px;stroke-linecap:butt;stroke-linejoin:miter;stroke-opacity:1" d="M 323.57,663.114 290.282,663.114 z" id="boundary" inkscape:connector-curvature="0" />
	<path style="fill:none;stroke:red;stroke-width:1px;stroke-linecap:butt;stroke-linejoin:miter;stroke-opacity:1" d="M 240.349,693.074 273.638,693.074 z" id="boundary" inkscape:connector-curvature="0" />
	<path style="fill:none;stroke:red;stroke-width:1px;stroke-linecap:butt;stroke-linejoin:miter;stroke-opacity:1" d="M 306.926,693.074 273.638,693.074 z" id="boundary" inkscape:connector-curvature="0" />
	<path style="fill:none;stroke:red;stroke-width:1px;stroke-linecap:butt;stroke-linejoin:miter;stroke-opacity:1" d="M 340.215,693.074 306.926,693.074 z" id="boundary" inkscape:connector-curvature="0" />
	<path style="fill:none;stroke:red;stroke-width:1px;stroke-linecap:butt;stroke-linejoin:miter;stroke-opacity:1" d="M 223.705,663.114 256.993,663.114 z" id="boundary" inkscape:connector-curvature="0" />
	<path style="fill:none;stroke:red;stroke-width:1px;stroke-linecap:butt;stroke-linejoin:miter;stroke-opacity:1" d="M 350.201,586.55 383.49,586.55 z" id="boundary" inkscape:connector-curvature="0" />
	<path style="fill:none;stroke:red;stroke-width:1px;stroke-linecap:butt;stroke-linejoin:miter;stroke-opacity:1" d="M 410.121,606.523 383.49,586.55 z" id="boundary" inkscape:connector-curvature="0" />
	<path style="fill:none;stroke:red;stroke-width:1px;stroke-linecap:butt;stroke-linejoin:miter;stroke-opacity:1" d="M 410.121,606.523 390.148,663.114 z" id="boundary" inkscape:connector-curvature="0" />
	<path style="fill:none;stroke:red;stroke-width:1px;stroke-linecap:butt;stroke-linejoin:miter;stroke-opacity:1" d="M 373.503,693.074 340.215,693.074 z" id="boundary" inkscape:connector-curvature="0" />
	<path style="fill:none;stroke:red;stroke-width:1px;stroke-linecap:butt;stroke-linejoin:miter;stroke-opacity:1" d="M 323.57,663.114 356.859,663.114 z" id="boundary" inkscape:connector-curvature="0" />
	<path style="fill:none;stroke:red;stroke-width:1px;stroke-linecap:butt;stroke-linejoin:miter;stroke-opacity:1" d="M 390.148,663.114 406.792,693.074 z" id="boundary" inkscape:connector-curvature="0" />
	<path style="fill:none;stroke:red;stroke-width:1px;stroke-linecap:butt;stroke-linejoin:miter;stroke-opacity:1" d="M 406.792,693.074 373.503,693.074 z" id="boundary" inkscape:connector-curvature="0" />
	<path style="fill:none;stroke:red;stroke-width:1px;stroke-linecap:butt;stroke-linejoin:miter;stroke-opacity:1" d="M 356.859,663.114 390.148,663.114 z" id="boundary" inkscape:connector-curvature="0" />
	<path style="fill:none;stroke:red;stroke-width:1px;stroke-linecap:butt;stroke-linejoin:miter;stroke-opacity:1" d="M 270.309,762.98 303.597,762.98 z" id="boundary" inkscape:connector-curvature="0" />
	<path style="fill:none;stroke:red;stroke-width:1px;stroke-linecap:butt;stroke-linejoin:miter;stroke-opacity:1" d="M 330.228,782.953 303.597,762.98 z" id="boundary" inkscape:connector-curvature="0" />
	<path style="fill:none;stroke:red;stroke-width:1px;stroke-linecap:butt;stroke-linejoin:miter;stroke-opacity:1" d="M 356.859,762.98 330.228,782.953 z" id="boundary" inkscape:connector-curvature="0" />
	<path style="fill:none;stroke:red;stroke-width:1px;stroke-linecap:butt;stroke-linejoin:miter;stroke-opacity:1" d="M 253.664,832.886 286.953,832.886 z" id="boundary" inkscape:connector-curvature="0" />
	<path style="fill:none;stroke:red;stroke-width:1px;stroke-linecap:butt;stroke-linejoin:miter;stroke-opacity:1" d="M 320.242,832.886 353.53,832.886 z" id="boundary" inkscape:connector-curvature="0" />
	<path style="fill:none;stroke:red;stroke-width:1px;stroke-linecap:butt;stroke-linejoin:miter;stroke-opacity:1" d="M 320.242,832.886 286.953,832.886 z" id="boundary" inkscape:connector-curvature="0" />
	<path style="fill:none;stroke:red;stroke-width:1px;stroke-linecap:butt;stroke-linejoin:miter;stroke-opacity:1" d="M 237.02,762.98 270.309,762.98 z" id="boundary" inkscape:connector-curvature="0" />
	<path style="fill:none;stroke:red;stroke-width:1px;stroke-linecap:butt;stroke-linejoin:miter;stroke-opacity:1" d="M 410.121,726.362 406.792,693.074 z" id="boundary" inkscape:connector-curvature="0" />
	<path style="fill:none;stroke:red;stroke-width:1px;stroke-linecap:butt;stroke-linejoin:miter;stroke-opacity:1" d="M 453.396,832.886 420.107,832.886 z" id="boundary" inkscape:connector-curvature="0" />
	<path style="fill:none;stroke:red;stroke-width:1px;stroke-linecap:butt;stroke-linejoin:miter;stroke-opacity:1" d="M 410.121,726.362 410.121,759.651 z" id="boundary" inkscape:connector-curvature="0" />
	<path style="fill:none;stroke:red;stroke-width:1px;stroke-linecap:butt;stroke-linejoin:miter;stroke-opacity:1" d="M 386.819,832.886 353.53,832.886 z" id="boundary" inkscape:connector-curvature="0" />
	<path style="fill:none;stroke:red;stroke-width:1px;stroke-linecap:butt;stroke-linejoin:miter;stroke-opacity:1" d="M 383.49,782.953 356.859,762.98 z" id="boundary" inkscape:connector-curvature="0" />
	<path style="fill:none;stroke:red;stroke-width:1px;stroke-linecap:butt;stroke-linejoin:miter;stroke-opacity:1" d="M 410.121,759.651 383.49,782.953 z" id="boundary" inkscape:connector-curvature="0" />
	<path style="fill:none;stroke:red;stroke-width:1px;stroke-linecap:butt;stroke-linejoin:miter;stroke-opacity:1" d="M 386.819,832.886 420.107,832.886 z" id="boundary" inkscape:connector-curvature="0" />
	<path style="fill:none;stroke:red;stroke-width:1px;stroke-linecap:butt;stroke-linejoin:miter;stroke-opacity:1" d="M 436.752,4 470.04,4 z" id="boundary" inkscape:connector-curvature="0" />
	<path style="fill:none;stroke:red;stroke-width:1px;stroke-linecap:butt;stroke-linejoin:miter;stroke-opacity:1" d="M 503.329,4 536.617,4 z" id="boundary" inkscape:connector-curvature="0" />
	<path style="fill:none;stroke:red;stroke-width:1px;stroke-linecap:butt;stroke-linejoin:miter;stroke-opacity:1" d="M 569.906,4 603.195,4 z" id="boundary" inkscape:connector-curvature="0" />
	<path style="fill:none;stroke:red;stroke-width:1px;stroke-linecap:butt;stroke-linejoin:miter;stroke-opacity:1" d="M 603.195,4 636.483,4 z" id="boundary" inkscape:connector-curvature="0" />
	<path style="fill:none;stroke:red;stroke-width:1px;stroke-linecap:butt;stroke-linejoin:miter;stroke-opacity:1" d="M 536.617,4 569.906,4 z" id="boundary" inkscape:connector-curvature="0" />
	<path style="fill:none;stroke:red;stroke-width:1px;stroke-linecap:butt;stroke-linejoin:miter;stroke-opacity:1" d="M 669.772,4 703.06,4 z" id="boundary" inkscape:connector-curvature="0" />
	<path style="fill:none;stroke:red;stroke-width:1px;stroke-linecap:butt;stroke-linejoin:miter;stroke-opacity:1" d="M 639.812,446.738 673.101,446.738 z" id="boundary" inkscape:connector-curvature="0" />
	<path style="fill:none;stroke:red;stroke-width:1px;stroke-linecap:butt;stroke-linejoin:miter;stroke-opacity:1" d="M 703.06,4 736.349,4 z" id="boundary" inkscape:connector-curvature="0" />
	<path style="fill:none;stroke:red;stroke-width:1px;stroke-linecap:butt;stroke-linejoin:miter;stroke-opacity:1" d="M 706.389,446.738 673.101,446.738 z" id="boundary" inkscape:connector-curvature="0" />
	<path style="fill:none;stroke:red;stroke-width:1px;stroke-linecap:butt;stroke-linejoin:miter;stroke-opacity:1" d="M 739.678,446.738 706.389,446.738 z" id="boundary" inkscape:connector-curvature="0" />
	<path style="fill:none;stroke:red;stroke-width:1px;stroke-linecap:butt;stroke-linejoin:miter;stroke-opacity:1" d="M 636.483,4 669.772,4 z" id="boundary" inkscape:connector-curvature="0" />
	<path style="fill:none;stroke:red;stroke-width:1px;stroke-linecap:butt;stroke-linejoin:miter;stroke-opacity:1" d="M 639.812,446.738 606.523,450.067 z" id="boundary" inkscape:connector-curvature="0" />
	<path style="fill:none;stroke:red;stroke-width:1px;stroke-linecap:butt;stroke-linejoin:miter;stroke-opacity:1" d="M 606.523,450.067 606.523,483.356 z" id="boundary" inkscape:connector-curvature="0" />
	<path style="fill:none;stroke:red;stroke-width:1px;stroke-linecap:butt;stroke-linejoin:miter;stroke-opacity:1" d="M 606.523,516.644 606.523,483.356 z" id="boundary" inkscape:connector-curvature="0" />
	<path style="fill:none;stroke:red;stroke-width:1px;stroke-linecap:butt;stroke-linejoin:miter;stroke-opacity:1" d="M 606.523,589.879 606.523,549.933 z" id="boundary" inkscape:connector-curvature="0" />
	<path style="fill:none;stroke:red;stroke-width:1px;stroke-linecap:butt;stroke-linejoin:miter;stroke-opacity:1" d="M 606.523,549.933 639.812,556.591 z" id="boundary" inkscape:connector-curvature="0" />
	<path style="fill:none;stroke:red;stroke-width:1px;stroke-linecap:butt;stroke-linejoin:miter;stroke-opacity:1" d="M 606.523,549.933 606.523,516.644 z" id="boundary" inkscape:connector-curvature="0" />
	<path style="fill:none;stroke:red;stroke-width:1px;stroke-linecap:butt;stroke-linejoin:miter;stroke-opacity:1" d="M 689.745,586.55 656.456,586.55 z" id="boundary" inkscape:connector-curvature="0" />
	<path style="fill:none;stroke:red;stroke-width:1px;stroke-linecap:butt;stroke-linejoin:miter;stroke-opacity:1" d="M 656.456,586.55 639.812,556.591 z" id="boundary" inkscape:connector-curvature="0" />
	<path style="fill:none;stroke:red;stroke-width:1px;stroke-linecap:butt;stroke-linejoin:miter;stroke-opacity:1" d="M 639.812,556.591 673.101,556.591 z" id="boundary" inkscape:connector-curvature="0" />
	<path style="fill:none;stroke:red;stroke-width:1px;stroke-linecap:butt;stroke-linejoin:miter;stroke-opacity:1" d="M 739.678,556.591 706.389,556.591 z" id="boundary" inkscape:connector-curvature="0" />
	<path style="fill:none;stroke:red;stroke-width:1px;stroke-linecap:butt;stroke-linejoin:miter;stroke-opacity:1" d="M 673.101,556.591 706.389,556.591 z" id="boundary" inkscape:connector-curvature="0" />
	<path style="fill:none;stroke:red;stroke-width:1px;stroke-linecap:butt;stroke-linejoin:miter;stroke-opacity:1" d="M 772.966,446.738 739.678,446.738 z" id="boundary" inkscape:connector-curvature="0" />
	<path style="fill:none;stroke:red;stroke-width:1px;stroke-linecap:butt;stroke-linejoin:miter;stroke-opacity:1" d="M 689.745,586.55 723.034,586.55 z" id="boundary" inkscape:connector-curvature="0" />
	<path style="fill:none;stroke:red;stroke-width:1px;stroke-linecap:butt;stroke-linejoin:miter;stroke-opacity:1" d="M 756.322,586.55 723.034,586.55 z" id="boundary" inkscape:connector-curvature="0" />
	<path style="fill:none;stroke:red;stroke-width:1px;stroke-linecap:butt;stroke-linejoin:miter;stroke-opacity:1" d="M 739.678,556.591 772.966,556.591 z" id="boundary" inkscape:connector-curvature="0" />
	<path style="fill:none;stroke:red;stroke-width:1px;stroke-linecap:butt;stroke-linejoin:miter;stroke-opacity:1" d="M 736.349,4 769.638,4 z" id="boundary" inkscape:connector-curvature="0" />
	<path style="fill:none;stroke:red;stroke-width:1px;stroke-linecap:butt;stroke-linejoin:miter;stroke-opacity:1" d="M 802.926,4 836.215,4 z" id="boundary" inkscape:connector-curvature="0" />
	<path style="fill:none;stroke:red;stroke-width:1px;stroke-linecap:butt;stroke-linejoin:miter;stroke-opacity:1" d="M 836.215,4 869.503,4 z" id="boundary" inkscape:connector-curvature="0" />
	<path style="fill:none;stroke:red;stroke-width:1px;stroke-linecap:butt;stroke-linejoin:miter;stroke-opacity:1" d="M 906.121,43.9463 906.121,77.2349 z" id="boundary" inkscape:connector-curvature="0" />
	<path style="fill:none;stroke:red;stroke-width:1px;stroke-linecap:butt;stroke-linejoin:miter;stroke-opacity:1" d="M 906.121,43.9463 902.792,10.6577 z" id="boundary" inkscape:connector-curvature="0" />
	<path style="fill:none;stroke:red;stroke-width:1px;stroke-linecap:butt;stroke-linejoin:miter;stroke-opacity:1" d="M 869.503,4 902.792,10.6577 z" id="boundary" inkscape:connector-curvature="0" />
	<path style="fill:none;stroke:red;stroke-width:1px;stroke-linecap:butt;stroke-linejoin:miter;stroke-opacity:1" d="M 906.121,77.2349 906.121,110.523 z" id="boundary" inkscape:connector-curvature="0" />
	<path style="fill:none;stroke:red;stroke-width:1px;stroke-linecap:butt;stroke-linejoin:miter;stroke-opacity:1" d="M 906.121,110.523 906.121,143.812 z" id="boundary" inkscape:connector-curvature="0" />
	<path style="fill:none;stroke:red;stroke-width:1px;stroke-linecap:butt;stroke-linejoin:miter;stroke-opacity:1" d="M 906.121,177.101 906.121,143.812 z" id="boundary" inkscape:connector-curvature="0" />
	<path style="fill:none;stroke:red;stroke-width:1px;stroke-linecap:butt;stroke-linejoin:miter;stroke-opacity:1" d="M 906.121,210.389 906.121,243.678 z" id="boundary" inkscape:connector-curvature="0" />
	<path style="fill:none;stroke:red;stroke-width:1px;stroke-linecap:butt;stroke-linejoin:miter;stroke-opacity:1" d="M 906.121,276.966 906.121,310.255 z" id="boundary" inkscape:connector-curvature="0" />
	<path style="fill:none;stroke:red;stroke-width:1px;stroke-linecap:butt;stroke-linejoin:miter;stroke-opacity:1" d="M 906.121,276.966 906.121,243.678 z" id="boundary" inkscape:connector-curvature="0" />
	<path style="fill:none;stroke:red;stroke-width:1px;stroke-linecap:butt;stroke-linejoin:miter;stroke-opacity:1" d="M 906.121,210.389 906.121,177.101 z" id="boundary" inkscape:connector-curvature="0" />
	<path style="fill:none;stroke:red;stroke-width:1px;stroke-linecap:butt;stroke-linejoin:miter;stroke-opacity:1" d="M 906.121,310.255 906.121,343.544 z" id="boundary" inkscape:connector-curvature="0" />
	<path style="fill:none;stroke:red;stroke-width:1px;stroke-linecap:butt;stroke-linejoin:miter;stroke-opacity:1" d="M 806.255,556.591 772.966,556.591 z" id="boundary" inkscape:connector-curvature="0" />
	<path style="fill:none;stroke:red;stroke-width:1px;stroke-linecap:butt;stroke-linejoin:miter;stroke-opacity:1" d="M 772.966,446.738 806.255,446.738 z" id="boundary" inkscape:connector-curvature="0" />
	<path style="fill:none;stroke:red;stroke-width:1px;stroke-linecap:butt;stroke-linejoin:miter;stroke-opacity:1" d="M 839.544,446.738 806.255,446.738 z" id="boundary" inkscape:connector-curvature="0" />
	<path style="fill:none;stroke:red;stroke-width:1px;stroke-linecap:butt;stroke-linejoin:miter;stroke-opacity:1" d="M 822.899,586.55 789.611,586.55 z" id="boundary" inkscape:connector-curvature="0" />
	<path style="fill:none;stroke:red;stroke-width:1px;stroke-linecap:butt;stroke-linejoin:miter;stroke-opacity:1" d="M 856.188,586.55 822.899,586.55 z" id="boundary" inkscape:connector-curvature="0" />
	<path style="fill:none;stroke:red;stroke-width:1px;stroke-linecap:butt;stroke-linejoin:miter;stroke-opacity:1" d="M 806.255,556.591 839.544,556.591 z" id="boundary" inkscape:connector-curvature="0" />
	<path style="fill:none;stroke:red;stroke-width:1px;stroke-linecap:butt;stroke-linejoin:miter;stroke-opacity:1" d="M 839.544,446.738 872.832,446.738 z" id="boundary" inkscape:connector-curvature="0" />
	<path style="fill:none;stroke:red;stroke-width:1px;stroke-linecap:butt;stroke-linejoin:miter;stroke-opacity:1" d="M 789.611,586.55 756.322,586.55 z" id="boundary" inkscape:connector-curvature="0" />
	<path style="fill:none;stroke:red;stroke-width:1px;stroke-linecap:butt;stroke-linejoin:miter;stroke-opacity:1" d="M 906.121,376.832 906.121,410.121 z" id="boundary" inkscape:connector-curvature="0" />
	<path style="fill:none;stroke:red;stroke-width:1px;stroke-linecap:butt;stroke-linejoin:miter;stroke-opacity:1" d="M 906.121,376.832 906.121,343.544 z" id="boundary" inkscape:connector-curvature="0" />
	<path style="fill:none;stroke:red;stroke-width:1px;stroke-linecap:butt;stroke-linejoin:miter;stroke-opacity:1" d="M 906.121,410.121 872.832,446.738 z" id="boundary" inkscape:connector-curvature="0" />
	<path style="fill:none;stroke:red;stroke-width:1px;stroke-linecap:butt;stroke-linejoin:miter;stroke-opacity:1" d="M 839.544,556.591 872.832,556.591 z" id="boundary" inkscape:connector-curvature="0" />
	<path style="fill:none;stroke:red;stroke-width:1px;stroke-linecap:butt;stroke-linejoin:miter;stroke-opacity:1" d="M 889.477,586.55 856.188,586.55 z" id="boundary" inkscape:connector-curvature="0" />
	<path style="fill:none;stroke:red;stroke-width:1px;stroke-linecap:butt;stroke-linejoin:miter;stroke-opacity:1" d="M 906.121,556.591 872.832,556.591 z" id="boundary" inkscape:connector-curvature="0" />
	<path style="fill:none;stroke:red;stroke-width:1px;stroke-linecap:butt;stroke-linejoin:miter;stroke-opacity:1" d="M 922.765,586.55 906.121,556.591 z" id="boundary" inkscape:connector-curvature="0" />
	<path style="fill:none;stroke:red;stroke-width:1px;stroke-linecap:butt;stroke-linejoin:miter;stroke-opacity:1" d="M 769.638,4 802.926,4 z" id="boundary" inkscape:connector-curvature="0" />
	<path style="fill:none;stroke:red;stroke-width:1px;stroke-linecap:butt;stroke-linejoin:miter;stroke-opacity:1" d="M 606.523,623.168 606.523,656.456 z" id="boundary" inkscape:connector-curvature="0" />
	<path style="fill:none;stroke:red;stroke-width:1px;stroke-linecap:butt;stroke-linejoin:miter;stroke-opacity:1" d="M 639.812,663.114 606.523,656.456 z" id="boundary" inkscape:connector-curvature="0" />
	<path style="fill:none;stroke:red;stroke-width:1px;stroke-linecap:butt;stroke-linejoin:miter;stroke-opacity:1" d="M 606.523,696.403 606.523,656.456 z" id="boundary" inkscape:connector-curvature="0" />
	<path style="fill:none;stroke:red;stroke-width:1px;stroke-linecap:butt;stroke-linejoin:miter;stroke-opacity:1" d="M 609.852,762.98 606.523,729.691 z" id="boundary" inkscape:connector-curvature="0" />
	<path style="fill:none;stroke:red;stroke-width:1px;stroke-linecap:butt;stroke-linejoin:miter;stroke-opacity:1" d="M 606.523,729.691 606.523,696.403 z" id="boundary" inkscape:connector-curvature="0" />
	<path style="fill:none;stroke:red;stroke-width:1px;stroke-linecap:butt;stroke-linejoin:miter;stroke-opacity:1" d="M 606.523,623.168 606.523,589.879 z" id="boundary" inkscape:connector-curvature="0" />
	<path style="fill:none;stroke:red;stroke-width:1px;stroke-linecap:butt;stroke-linejoin:miter;stroke-opacity:1" d="M 639.812,663.114 673.101,663.114 z" id="boundary" inkscape:connector-curvature="0" />
	<path style="fill:none;stroke:red;stroke-width:1px;stroke-linecap:butt;stroke-linejoin:miter;stroke-opacity:1" d="M 656.456,693.074 639.812,663.114 z" id="boundary" inkscape:connector-curvature="0" />
	<path style="fill:none;stroke:red;stroke-width:1px;stroke-linecap:butt;stroke-linejoin:miter;stroke-opacity:1" d="M 673.101,663.114 706.389,663.114 z" id="boundary" inkscape:connector-curvature="0" />
	<path style="fill:none;stroke:red;stroke-width:1px;stroke-linecap:butt;stroke-linejoin:miter;stroke-opacity:1" d="M 689.745,693.074 656.456,693.074 z" id="boundary" inkscape:connector-curvature="0" />
	<path style="fill:none;stroke:red;stroke-width:1px;stroke-linecap:butt;stroke-linejoin:miter;stroke-opacity:1" d="M 723.034,693.074 756.322,693.074 z" id="boundary" inkscape:connector-curvature="0" />
	<path style="fill:none;stroke:red;stroke-width:1px;stroke-linecap:butt;stroke-linejoin:miter;stroke-opacity:1" d="M 723.034,693.074 689.745,693.074 z" id="boundary" inkscape:connector-curvature="0" />
	<path style="fill:none;stroke:red;stroke-width:1px;stroke-linecap:butt;stroke-linejoin:miter;stroke-opacity:1" d="M 706.389,663.114 739.678,663.114 z" id="boundary" inkscape:connector-curvature="0" />
	<path style="fill:none;stroke:red;stroke-width:1px;stroke-linecap:butt;stroke-linejoin:miter;stroke-opacity:1" d="M 486.685,832.886 453.396,832.886 z" id="boundary" inkscape:connector-curvature="0" />
	<path style="fill:none;stroke:red;stroke-width:1px;stroke-linecap:butt;stroke-linejoin:miter;stroke-opacity:1" d="M 609.852,762.98 636.483,782.953 z" id="boundary" inkscape:connector-curvature="0" />
	<path style="fill:none;stroke:red;stroke-width:1px;stroke-linecap:butt;stroke-linejoin:miter;stroke-opacity:1" d="M 519.973,832.886 486.685,832.886 z" id="boundary" inkscape:connector-curvature="0" />
	<path style="fill:none;stroke:red;stroke-width:1px;stroke-linecap:butt;stroke-linejoin:miter;stroke-opacity:1" d="M 519.973,832.886 553.262,832.886 z" id="boundary" inkscape:connector-curvature="0" />
	<path style="fill:none;stroke:red;stroke-width:1px;stroke-linecap:butt;stroke-linejoin:miter;stroke-opacity:1" d="M 586.55,832.886 619.839,832.886 z" id="boundary" inkscape:connector-curvature="0" />
	<path style="fill:none;stroke:red;stroke-width:1px;stroke-linecap:butt;stroke-linejoin:miter;stroke-opacity:1" d="M 586.55,832.886 553.262,832.886 z" id="boundary" inkscape:connector-curvature="0" />
	<path style="fill:none;stroke:red;stroke-width:1px;stroke-linecap:butt;stroke-linejoin:miter;stroke-opacity:1" d="M 653.128,832.886 619.839,832.886 z" id="boundary" inkscape:connector-curvature="0" />
	<path style="fill:none;stroke:red;stroke-width:1px;stroke-linecap:butt;stroke-linejoin:miter;stroke-opacity:1" d="M 663.114,762.98 696.403,762.98 z" id="boundary" inkscape:connector-curvature="0" />
	<path style="fill:none;stroke:red;stroke-width:1px;stroke-linecap:butt;stroke-linejoin:miter;stroke-opacity:1" d="M 729.691,762.98 696.403,762.98 z" id="boundary" inkscape:connector-curvature="0" />
	<path style="fill:none;stroke:red;stroke-width:1px;stroke-linecap:butt;stroke-linejoin:miter;stroke-opacity:1" d="M 653.128,832.886 686.416,832.886 z" id="boundary" inkscape:connector-curvature="0" />
	<path style="fill:none;stroke:red;stroke-width:1px;stroke-linecap:butt;stroke-linejoin:miter;stroke-opacity:1" d="M 719.705,832.886 752.993,832.886 z" id="boundary" inkscape:connector-curvature="0" />
	<path style="fill:none;stroke:red;stroke-width:1px;stroke-linecap:butt;stroke-linejoin:miter;stroke-opacity:1" d="M 719.705,832.886 686.416,832.886 z" id="boundary" inkscape:connector-curvature="0" />
	<path style="fill:none;stroke:red;stroke-width:1px;stroke-linecap:butt;stroke-linejoin:miter;stroke-opacity:1" d="M 729.691,762.98 762.98,762.98 z" id="boundary" inkscape:connector-curvature="0" />
	<path style="fill:none;stroke:red;stroke-width:1px;stroke-linecap:butt;stroke-linejoin:miter;stroke-opacity:1" d="M 636.483,782.953 663.114,762.98 z" id="boundary" inkscape:connector-curvature="0" />
	<path style="fill:none;stroke:red;stroke-width:1px;stroke-linecap:butt;stroke-linejoin:miter;stroke-opacity:1" d="M 772.966,663.114 806.255,663.114 z" id="boundary" inkscape:connector-curvature="0" />
	<path style="fill:none;stroke:red;stroke-width:1px;stroke-linecap:butt;stroke-linejoin:miter;stroke-opacity:1" d="M 839.544,663.114 806.255,663.114 z" id="boundary" inkscape:connector-curvature="0" />
	<path style="fill:none;stroke:red;stroke-width:1px;stroke-linecap:butt;stroke-linejoin:miter;stroke-opacity:1" d="M 756.322,693.074 789.611,693.074 z" id="boundary" inkscape:connector-curvature="0" />
	<path style="fill:none;stroke:red;stroke-width:1px;stroke-linecap:butt;stroke-linejoin:miter;stroke-opacity:1" d="M 796.268,762.98 762.98,762.98 z" id="boundary" inkscape:connector-curvature="0" />
	<path style="fill:none;stroke:red;stroke-width:1px;stroke-linecap:butt;stroke-linejoin:miter;stroke-opacity:1" d="M 822.899,693.074 789.611,693.074 z" id="boundary" inkscape:connector-curvature="0" />
	<path style="fill:none;stroke:red;stroke-width:1px;stroke-linecap:butt;stroke-linejoin:miter;stroke-opacity:1" d="M 856.188,693.074 822.899,693.074 z" id="boundary" inkscape:connector-curvature="0" />
	<path style="fill:none;stroke:red;stroke-width:1px;stroke-linecap:butt;stroke-linejoin:miter;stroke-opacity:1" d="M 739.678,663.114 772.966,663.114 z" id="boundary" inkscape:connector-curvature="0" />
	<path style="fill:none;stroke:red;stroke-width:1px;stroke-linecap:butt;stroke-linejoin:miter;stroke-opacity:1" d="M 906.121,663.114 872.832,663.114 z" id="boundary" inkscape:connector-curvature="0" />
	<path style="fill:none;stroke:red;stroke-width:1px;stroke-linecap:butt;stroke-linejoin:miter;stroke-opacity:1" d="M 839.544,663.114 872.832,663.114 z" id="boundary" inkscape:connector-curvature="0" />
	<path style="fill:none;stroke:red;stroke-width:1px;stroke-linecap:butt;stroke-linejoin:miter;stroke-opacity:1" d="M 922.765,586.55 889.477,586.55 z" id="boundary" inkscape:connector-curvature="0" />
	<path style="fill:none;stroke:red;stroke-width:1px;stroke-linecap:butt;stroke-linejoin:miter;stroke-opacity:1" d="M 889.477,693.074 856.188,693.074 z" id="boundary" inkscape:connector-curvature="0" />
	<path style="fill:none;stroke:red;stroke-width:1px;stroke-linecap:butt;stroke-linejoin:miter;stroke-opacity:1" d="M 906.121,663.114 922.765,693.074 z" id="boundary" inkscape:connector-curvature="0" />
	<path style="fill:none;stroke:red;stroke-width:1px;stroke-linecap:butt;stroke-linejoin:miter;stroke-opacity:1" d="M 922.765,693.074 889.477,693.074 z" id="boundary" inkscape:connector-curvature="0" />
	<path style="fill:none;stroke:red;stroke-width:1px;stroke-linecap:butt;stroke-linejoin:miter;stroke-opacity:1" d="M 922.765,586.55 996,772.966 z" id="boundary" inkscape:connector-curvature="0" />
	<path style="fill:none;stroke:red;stroke-width:1px;stroke-linecap:butt;stroke-linejoin:miter;stroke-opacity:1" d="M 796.268,762.98 829.557,762.98 z" id="boundary" inkscape:connector-curvature="0" />
	<path style="fill:none;stroke:red;stroke-width:1px;stroke-linecap:butt;stroke-linejoin:miter;stroke-opacity:1" d="M 862.846,762.98 829.557,762.98 z" id="boundary" inkscape:connector-curvature="0" />
	<path style="fill:none;stroke:red;stroke-width:1px;stroke-linecap:butt;stroke-linejoin:miter;stroke-opacity:1" d="M 786.282,832.886 819.57,832.886 z" id="boundary" inkscape:connector-curvature="0" />
	<path style="fill:none;stroke:red;stroke-width:1px;stroke-linecap:butt;stroke-linejoin:miter;stroke-opacity:1" d="M 852.859,832.886 886.148,832.886 z" id="boundary" inkscape:connector-curvature="0" />
	<path style="fill:none;stroke:red;stroke-width:1px;stroke-linecap:butt;stroke-linejoin:miter;stroke-opacity:1" d="M 886.148,832.886 919.436,839.544 z" id="boundary" inkscape:connector-curvature="0" />
	<path style="fill:none;stroke:red;stroke-width:1px;stroke-linecap:butt;stroke-linejoin:miter;stroke-opacity:1" d="M 852.859,832.886 819.57,832.886 z" id="boundary" inkscape:connector-curvature="0" />
	<path style="fill:none;stroke:red;stroke-width:1px;stroke-linecap:butt;stroke-linejoin:miter;stroke-opacity:1" d="M 862.846,762.98 896.134,762.98 z" id="boundary" inkscape:connector-curvature="0" />
	<path style="fill:none;stroke:red;stroke-width:1px;stroke-linecap:butt;stroke-linejoin:miter;stroke-opacity:1" d="M 896.134,762.98 929.423,762.98 z" id="boundary" inkscape:connector-curvature="0" />
	<path style="fill:none;stroke:red;stroke-width:1px;stroke-linecap:butt;stroke-linejoin:miter;stroke-opacity:1" d="M 922.765,693.074 929.423,762.98 z" id="boundary" inkscape:connector-curvature="0" />
	<path style="fill:none;stroke:red;stroke-width:1px;stroke-linecap:butt;stroke-linejoin:miter;stroke-opacity:1" d="M 962.711,762.98 929.423,762.98 z" id="boundary" inkscape:connector-curvature="0" />
	<path style="fill:none;stroke:red;stroke-width:1px;stroke-linecap:butt;stroke-linejoin:miter;stroke-opacity:1" d="M 919.436,839.544 952.725,846.201 z" id="boundary" inkscape:connector-curvature="0" />
	<path style="fill:none;stroke:red;stroke-width:1px;stroke-linecap:butt;stroke-linejoin:miter;stroke-opacity:1" d="M 986.013,832.886 952.725,846.201 z" id="boundary" inkscape:connector-curvature="0" />
	<path style="fill:none;stroke:red;stroke-width:1px;stroke-linecap:butt;stroke-linejoin:miter;stroke-opacity:1" d="M 996,772.966 986.013,832.886 z" id="boundary" inkscape:connector-curvature="0" />
	<path style="fill:none;stroke:red;stroke-width:1px;stroke-linecap:butt;stroke-linejoin:miter;stroke-opacity:1" d="M 962.711,762.98 996,772.966 z" id="boundary" inkscape:connector-curvature="0" />
	<path style="fill:none;stroke:red;stroke-width:1px;stroke-linecap:butt;stroke-linejoin:miter;stroke-opacity:1" d="M 752.993,832.886 786.282,832.886 z" id="boundary" inkscape:connector-curvature="0" />
	<path style="fill:none;stroke:red;stroke-width:1px;stroke-linecap:butt;stroke-linejoin:miter;stroke-opacity:1" d="M 470.04,4 503.329,4 z" id="boundary" inkscape:connector-curvature="0" />
	<circle cx="4" cy="769.638" r="4" fill="#0" id="circle0"/>
	<circle cx="4" cy="802.926" r="4" fill="#0" id="circle1"/>
	<circle cx="20.6443" cy="832.886" r="4" fill="#0" id="circle2"/>
	<circle cx="37.2886" cy="762.98" r="4" fill="#0" id="circle3"/>
	<circle cx="53.9329" cy="839.544" r="4" fill="#0" id="circle4"/>
	<circle cx="57.2617" cy="563.248" r="4" fill="#0" id="circle5"/>
	<circle cx="57.2617" cy="663.114" r="4" fill="#0" id="circle6"/>
	<circle cx="70.5772" cy="762.98" r="4" fill="#0" id="circle7"/>
	<circle cx="73.906" cy="693.074" r="4" fill="#0" id="circle8"/>
	<circle cx="83.8926" cy="586.55" r="4" fill="#0" id="circle9"/>
	<circle cx="87.2215" cy="832.886" r="4" fill="#0" id="circle10"/>
	<circle cx="90.5503" cy="663.114" r="4" fill="#0" id="circle11"/>
	<circle cx="100.537" cy="556.591" r="4" fill="#0" id="circle12"/>
	<circle cx="103.866" cy="10.6577" r="4" fill="#0" id="circle13"/>
	<circle cx="103.866" cy="43.9463" r="4" fill="#0" id="circle14"/>
	<circle cx="103.866" cy="77.2349" r="4" fill="#0" id="circle15"/>
	<circle cx="103.866" cy="110.523" r="4" fill="#0" id="circle16"/>
	<circle cx="103.866" cy="143.812" r="4" fill="#0" id="circle17"/>
	<circle cx="103.866" cy="177.101" r="4" fill="#0" id="circle18"/>
	<circle cx="103.866" cy="210.389" r="4" fill="#0" id="circle19"/>
	<circle cx="103.866" cy="243.678" r="4" fill="#0" id="circle20"/>
	<circle cx="103.866" cy="276.966" r="4" fill="#0" id="circle21"/>
	<circle cx="103.866" cy="310.255" r="4" fill="#0" id="circle22"/>
	<circle cx="103.866" cy="343.544" r="4" fill="#0" id="circle23"/>
	<circle cx="103.866" cy="376.832" r="4" fill="#0" id="circle24"/>
	<circle cx="103.866" cy="410.121" r="4" fill="#0" id="circle25"/>
	<circle cx="103.866" cy="762.98" r="4" fill="#0" id="circle26"/>
	<circle cx="107.195" cy="443.409" r="4" fill="#0" id="circle27"/>
	<circle cx="107.195" cy="693.074" r="4" fill="#0" id="circle28"/>
	<circle cx="117.181" cy="586.55" r="4" fill="#0" id="circle29"/>
	<circle cx="120.51" cy="832.886" r="4" fill="#0" id="circle30"/>
	<circle cx="123.839" cy="663.114" r="4" fill="#0" id="circle31"/>
	<circle cx="133.826" cy="556.591" r="4" fill="#0" id="circle32"/>
	<circle cx="137.154" cy="4" r="4" fill="#0" id="circle33"/>
	<circle cx="137.154" cy="762.98" r="4" fill="#0" id="circle34"/>
	<circle cx="140.483" cy="446.738" r="4" fill="#0" id="circle35"/>
	<circle cx="140.483" cy="693.074" r="4" fill="#0" id="circle36"/>
	<circle cx="150.47" cy="586.55" r="4" fill="#0" id="circle37"/>
	<circle cx="153.799" cy="832.886" r="4" fill="#0" id="circle38"/>
	<circle cx="157.128" cy="663.114" r="4" fill="#0" id="circle39"/>
	<circle cx="167.114" cy="556.591" r="4" fill="#0" id="circle40"/>
	<circle cx="170.443" cy="4" r="4" fill="#0" id="circle41"/>
	<circle cx="170.443" cy="762.98" r="4" fill="#0" id="circle42"/>
	<circle cx="173.772" cy="446.738" r="4" fill="#0" id="circle43"/>
	<circle cx="173.772" cy="693.074" r="4" fill="#0" id="circle44"/>
	<circle cx="183.758" cy="586.55" r="4" fill="#0" id="circle45"/>
	<circle cx="187.087" cy="832.886" r="4" fill="#0" id="circle46"/>
	<circle cx="190.416" cy="663.114" r="4" fill="#0" id="circle47"/>
	<circle cx="200.403" cy="556.591" r="4" fill="#0" id="circle48"/>
	<circle cx="203.732" cy="4" r="4" fill="#0" id="circle49"/>
	<circle cx="203.732" cy="762.98" r="4" fill="#0" id="circle50"/>
	<circle cx="207.06" cy="446.738" r="4" fill="#0" id="circle51"/>
	<circle cx="207.06" cy="693.074" r="4" fill="#0" id="circle52"/>
	<circle cx="217.047" cy="586.55" r="4" fill="#0" id="circle53"/>
	<circle cx="220.376" cy="832.886" r="4" fill="#0" id="circle54"/>
	<circle cx="223.705" cy="663.114" r="4" fill="#0" id="circle55"/>
	<circle cx="233.691" cy="556.591" r="4" fill="#0" id="circle56"/>
	<circle cx="237.02" cy="4" r="4" fill="#0" id="circle57"/>
	<circle cx="237.02" cy="762.98" r="4" fill="#0" id="circle58"/>
	<circle cx="240.349" cy="446.738" r="4" fill="#0" id="circle59"/>
	<circle cx="240.349" cy="693.074" r="4" fill="#0" id="circle60"/>
	<circle cx="250.336" cy="586.55" r="4" fill="#0" id="circle61"/>
	<circle cx="253.664" cy="832.886" r="4" fill="#0" id="circle62"/>
	<circle cx="256.993" cy="663.114" r="4" fill="#0" id="circle63"/>
	<circle cx="266.98" cy="556.591" r="4" fill="#0" id="circle64"/>
	<circle cx="270.309" cy="4" r="4" fill="#0" id="circle65"/>
	<circle cx="270.309" cy="762.98" r="4" fill="#0" id="circle66"/>
	<circle cx="273.638" cy="446.738" r="4" fill="#0" id="circle67"/>
	<circle cx="273.638" cy="693.074" r="4" fill="#0" id="circle68"/>
	<circle cx="283.624" cy="586.55" r="4" fill="#0" id="circle69"/>
	<circle cx="286.953" cy="832.886" r="4" fill="#0" id="circle70"/>
	<circle cx="290.282" cy="663.114" r="4" fill="#0" id="circle71"/>
	<circle cx="300.268" cy="556.591" r="4" fill="#0" id="circle72"/>
	<circle cx="303.597" cy="4" r="4" fill="#0" id="circle73"/>
	<circle cx="303.597" cy="762.98" r="4" fill="#0" id="circle74"/>
	<circle cx="306.926" cy="446.738" r="4" fill="#0" id="circle75"/>
	<circle cx="306.926" cy="693.074" r="4" fill="#0" id="circle76"/>
	<circle cx="316.913" cy="586.55" r="4" fill="#0" id="circle77"/>
	<circle cx="320.242" cy="832.886" r="4" fill="#0" id="circle78"/>
	<circle cx="323.57" cy="663.114" r="4" fill="#0" id="circle79"/>
	<circle cx="330.228" cy="782.953" r="4" fill="#0" id="circle80"/>
	<circle cx="333.557" cy="556.591" r="4" fill="#0" id="circle81"/>
	<circle cx="336.886" cy="4" r="4" fill="#0" id="circle82"/>
	<circle cx="340.215" cy="446.738" r="4" fill="#0" id="circle83"/>
	<circle cx="340.215" cy="693.074" r="4" fill="#0" id="circle84"/>
	<circle cx="350.201" cy="586.55" r="4" fill="#0" id="circle85"/>
	<circle cx="353.53" cy="832.886" r="4" fill="#0" id="circle86"/>
	<circle cx="356.859" cy="663.114" r="4" fill="#0" id="circle87"/>
	<circle cx="356.859" cy="762.98" r="4" fill="#0" id="circle88"/>
	<circle cx="366.846" cy="556.591" r="4" fill="#0" id="circle89"/>
	<circle cx="370.174" cy="4" r="4" fill="#0" id="circle90"/>
	<circle cx="373.503" cy="446.738" r="4" fill="#0" id="circle91"/>
	<circle cx="373.503" cy="693.074" r="4" fill="#0" id="circle92"/>
	<circle cx="383.49" cy="586.55" r="4" fill="#0" id="circle93"/>
	<circle cx="383.49" cy="782.953" r="4" fill="#0" id="circle94"/>
	<circle cx="386.819" cy="832.886" r="4" fill="#0" id="circle95"/>
	<circle cx="390.148" cy="663.114" r="4" fill="#0" id="circle96"/>
	<circle cx="400.134" cy="556.591" r="4" fill="#0" id="circle97"/>
	<circle cx="403.463" cy="4" r="4" fill="#0" id="circle98"/>
	<circle cx="406.792" cy="446.738" r="4" fill="#0" id="circle99"/>
	<circle cx="406.792" cy="693.074" r="4" fill="#0" id="circle100"/>
	<circle cx="410.121" cy="480.027" r="4" fill="#0" id="circle101"/>
	<circle cx="410.121" cy="513.315" r="4" fill="#0" id="circle102"/>
	<circle cx="410.121" cy="606.523" r="4" fill="#0" id="circle103"/>
	<circle cx="410.121" cy="726.362" r="4" fill="#0" id="circle104"/>
	<circle cx="410.121" cy="759.651" r="4" fill="#0" id="circle105"/>
	<circle cx="420.107" cy="832.886" r="4" fill="#0" id="circle106"/>
	<circle cx="436.752" cy="4" r="4" fill="#0" id="circle107"/>
	<circle cx="453.396" cy="832.886" r="4" fill="#0" id="circle108"/>
	<circle cx="470.04" cy="4" r="4" fill="#0" id="circle109"/>
	<circle cx="486.685" cy="832.886" r="4" fill="#0" id="circle110"/>
	<circle cx="503.329" cy="4" r="4" fill="#0" id="circle111"/>
	<circle cx="519.973" cy="832.886" r="4" fill="#0" id="circle112"/>
	<circle cx="536.617" cy="4" r="4" fill="#0" id="circle113"/>
	<circle cx="553.262" cy="832.886" r="4" fill="#0" id="circle114"/>
	<circle cx="569.906" cy="4" r="4" fill="#0" id="circle115"/>
	<circle cx="586.55" cy="832.886" r="4" fill="#0" id="circle116"/>
	<circle cx="603.195" cy="4" r="4" fill="#0" id="circle117"/>
	<circle cx="606.523" cy="450.067" r="4" fill="#0" id="circle118"/>
	<circle cx="606.523" cy="483.356" r="4" fill="#0" id="circle119"/>
	<circle cx="606.523" cy="516.644" r="4" fill="#0" id="circle120"/>
	<circle cx="606.523" cy="549.933" r="4" fill="#0" id="circle121"/>
	<circle cx="606.523" cy="589.879" r="4" fill="#0" id="circle122"/>
	<circle cx="606.523" cy="623.168" r="4" fill="#0" id="circle123"/>
	<circle cx="606.523" cy="656.456" r="4" fill="#0" id="circle124"/>
	<circle cx="606.523" cy="696.403" r="4" fill="#0" id="circle125"/>
	<circle cx="606.523" cy="729.691" r="4" fill="#0" id="circle126"/>
	<circle cx="609.852" cy="762.98" r="4" fill="#0" id="circle127"/>
	<circle cx="619.839" cy="832.886" r="4" fill="#0" id="circle128"/>
	<circle cx="636.483" cy="4" r="4" fill="#0" id="circle129"/>
	<circle cx="636.483" cy="782.953" r="4" fill="#0" id="circle130"/>
	<circle cx="639.812" cy="446.738" r="4" fill="#0" id="circle131"/>
	<circle cx="639.812" cy="556.591" r="4" fill="#0" id="circle132"/>
	<circle cx="639.812" cy="663.114" r="4" fill="#0" id="circle133"/>
	<circle cx="653.128" cy="832.886" r="4" fill="#0" id="circle134"/>
	<circle cx="656.456" cy="586.55" r="4" fill="#0" id="circle135"/>
	<circle cx="656.456" cy="693.074" r="4" fill="#0" id="circle136"/>
	<circle cx="663.114" cy="762.98" r="4" fill="#0" id="circle137"/>
	<circle cx="669.772" cy="4" r="4" fill="#0" id="circle138"/>
	<circle cx="673.101" cy="446.738" r="4" fill="#0" id="circle139"/>
	<circle cx="673.101" cy="556.591" r="4" fill="#0" id="circle140"/>
	<circle cx="673.101" cy="663.114" r="4" fill="#0" id="circle141"/>
	<circle cx="686.416" cy="832.886" r="4" fill="#0" id="circle142"/>
	<circle cx="689.745" cy="586.55" r="4" fill="#0" id="circle143"/>
	<circle cx="689.745" cy="693.074" r="4" fill="#0" id="circle144"/>
	<circle cx="696.403" cy="762.98" r="4" fill="#0" id="circle145"/>
	<circle cx="703.06" cy="4" r="4" fill="#0" id="circle146"/>
	<circle cx="706.389" cy="446.738" r="4" fill="#0" id="circle147"/>
	<circle cx="706.389" cy="556.591" r="4" fill="#0" id="circle148"/>
	<circle cx="706.389" cy="663.114" r="4" fill="#0" id="circle149"/>
	<circle cx="719.705" cy="832.886" r="4" fill="#0" id="circle150"/>
	<circle cx="723.034" cy="586.55" r="4" fill="#0" id="circle151"/>
	<circle cx="723.034" cy="693.074" r="4" fill="#0" id="circle152"/>
	<circle cx="729.691" cy="762.98" r="4" fill="#0" id="circle153"/>
	<circle cx="736.349" cy="4" r="4" fill="#0" id="circle154"/>
	<circle cx="739.678" cy="446.738" r="4" fill="#0" id="circle155"/>
	<circle cx="739.678" cy="556.591" r="4" fill="#0" id="circle156"/>
	<circle cx="739.678" cy="663.114" r="4" fill="#0" id="circle157"/>
	<circle cx="752.993" cy="832.886" r="4" fill="#0" id="circle158"/>
	<circle cx="756.322" cy="586.55" r="4" fill="#0" id="circle159"/>
	<circle cx="756.322" cy="693.074" r="4" fill="#0" id="circle160"/>
	<circle cx="762.98" cy="762.98" r="4" fill="#0" id="circle161"/>
	<circle cx="769.638" cy="4" r="4" fill="#0" id="circle162"/>
	<circle cx="772.966" cy="446.738" r="4" fill="#0" id="circle163"/>
	<circle cx="772.966" cy="556.591" r="4" fill="#0" id="circle164"/>
	<circle cx="772.966" cy="663.114" r="4" fill="#0" id="circle165"/>
	<circle cx="786.282" cy="832.886" r="4" fill="#0" id="circle166"/>
	<circle cx="789.611" cy="586.55" r="4" fill="#0" id="circle167"/>
	<circle cx="789.611" cy="693.074" r="4" fill="#0" id="circle168"/>
	<circle cx="796.268" cy="762.98" r="4" fill="#0" id="circle169"/>
	<circle cx="802.926" cy="4" r="4" fill="#0" id="circle170"/>
	<circle cx="806.255" cy="446.738" r="4" fill="#0" id="circle171"/>
	<circle cx="806.255" cy="556.591" r="4" fill="#0" id="circle172"/>
	<circle cx="806.255" cy="663.114" r="4" fill="#0" id="circle173"/>
	<circle cx="819.57" cy="832.886" r="4" fill="#0" id="circle174"/>
	<circle cx="822.899" cy="586.55" r="4" fill="#0" id="circle175"/>
	<circle cx="822.899" cy="693.074" r="4" fill="#0" id="circle176"/>
	<circle cx="829.557" cy="762.98" r="4" fill="#0" id="circle177"/>
	<circle cx="836.215" cy="4" r="4" fill="#0" id="circle178"/>
	<circle cx="839.544" cy="446.738" r="4" fill="#0" id="circle179"/>
	<circle cx="839.544" cy="556.591" r="4" fill="#0" id="circle180"/>
	<circle cx="839.544" cy="663.114" r="4" fill="#0" id="circle181"/>
	<circle cx="852.859" cy="832.886" r="4" fill="#0" id="circle182"/>
	<circle cx="856.188" cy="586.55" r="4" fill="#0" id="circle183"/>
	<circle cx="856.188" cy="693.074" r="4" fill="#0" id="circle184"/>
	<circle cx="862.846" cy="762.98" r="4" fill="#0" id="circle185"/>
	<circle cx="869.503" cy="4" r="4" fill="#0" id="circle186"/>
	<circle cx="872.832" cy="446.738" r="4" fill="#0" id="circle187"/>
	<circle cx="872.832" cy="556.591" r="4" fill="#0" id="circle188"/>
	<circle cx="872.832" cy="663.114" r="4" fill="#0" id="circle189"/>
	<circle cx="886.148" cy="832.886" r="4" fill="#0" id="circle190"/>
	<circle cx="889.477" cy="586.55" r="4" fill="#0" id="circle191"/>
	<circle cx="889.477" cy="693.074" r="4" fill="#0" id="circle192"/>
	<circle cx="896.134" cy="762.98" r="4" fill="#0" id="circle193"/>
	<circle cx="902.792" cy="10.6577" r="4" fill="#0" id="circle194"/>
	<circle cx="906.121" cy="43.9463" r="4" fill="#0" id="circle195"/>
	<circle cx="906.121" cy="77.2349" r="4" fill="#0" id="circle196"/>
	<circle cx="906.121" cy="110.523" r="4" fill="#0" id="circle197"/>
	<circle cx="906.121" cy="143.812" r="4" fill="#0" id="circle198"/>
	<circle cx="906.121" cy="177.101" r="4" fill="#0" id="circle199"/>
	<circle cx="906.121" cy="210.389" r="4" fill="#0" id="circle200"/>
	<circle cx="906.121" cy="243.678" r="4" fill="#0" id="circle201"/>
	<circle cx="906.121" cy="276.966" r="4" fill="#0" id="circle202"/>
	<circle cx="906.121" cy="310.255" r="4" fill="#0" id="circle203"/>
	<circle cx="906.121" cy="343.544" r="4" fill="#0" id="circle204"/>
	<circle cx="906.121" cy="376.832" r="4" fill="#0" id="circle205"/>
	<circle cx="906.121" cy="410.121" r="4" fill="#0" id="circle206"/>
	<circle cx="906.121" cy="556.591" r="4" fill="#0" id="circle207"/>
	<circle cx="906.121" cy="663.114" r="4" fill="#0" id="circle208"/>
	<circle cx="919.436" cy="839.544" r="4" fill="#0" id="circle209"/>
	<circle cx="922.765" cy="586.55" r="4" fill="#0" id="circle210"/>
	<circle cx="922.765" cy="693.074" r="4" fill="#0" id="circle211"/>
	<circle cx="929.423" cy="762.98" r="4" fill="#0" id="circle212"/>
	<circle cx="952.725" cy="846.201" r="4" fill="#0" id="circle213"/>
	<circle cx="962.711" cy="762.98" r="4" fill="#0" id="circle214"/>
	<circle cx="986.013" cy="832.886" r="4" fill="#0" id="circle215"/>
	<circle cx="996" cy="772.966" r="4" fill="#0" id="circle216"/>
	</g>
</svg>