<?xml version="1.0" encoding="UTF-8" standalone="no"?>
<!-- Created with CurveBenchmark -->
<svg
	xmlns:dc="http://purl.org/dc/elements/1.1/"
	xmlns:cc="http://creativecommons.org/ns#"
	xmlns:rdf="http://www.w3.org/1999/02/22-rdf-syntax-ns#"
	xmlns:svg="http://www.w3.org/2000/svg"
	xmlns="http://www.w3.org/2000/svg"
	xmlns:sodipodi="http://sodipodi.sourceforge.net/DTD/sodipodi-0.dtd"
	xmlns:inkscape="http://www.inkscape.org/namespaces/inkscape"
	width="1000"
	height="1000"
	id="svg2"
	version="1.1"
	sodipodi:docname="manifold/nncrust-car-03.png.txt">
<defs
	id="defs4" />
<metadata
	id="metadata7">
	<rdf:RDF>
		<cc:Work
			rdf:about="">
			<dc:format>image/svg+xml</dc:format>
			<dc:type
				rdf:resource="http://purl.org/dc/dcmitype/StillImage" />
			<dc:title></dc:title>
		</cc:Work>
	</rdf:RDF>
</metadata>
<g
	inkscape:label="Layer 1"
	inkscape:groupmode="layer"
	id="layer1">
	<path style="fill:none;stroke:red;stroke-width:1px;stroke-linecap:butt;stroke-linejoin:miter;stroke-opacity:1" d="M 109.283,173.623 97.5849,173.623 z" id="boundary" inkscape:connector-curvature="0" />
	<path style="fill:none;stroke:red;stroke-width:1px;stroke-linecap:butt;stroke-linejoin:miter;stroke-opacity:1" d="M 119.811,167.774 109.283,173.623 z" id="boundary" inkscape:connector-curvature="0" />
	<path style="fill:none;stroke:red;stroke-width:1px;stroke-linecap:butt;stroke-linejoin:miter;stroke-opacity:1" d="M 131.509,167.774 119.811,167.774 z" id="boundary" inkscape:connector-curvature="0" />
	<path style="fill:none;stroke:red;stroke-width:1px;stroke-linecap:butt;stroke-linejoin:miter;stroke-opacity:1" d="M 76.5283,185.321 87.0566,179.472 z" id="boundary" inkscape:connector-curvature="0" />
	<path style="fill:none;stroke:red;stroke-width:1px;stroke-linecap:butt;stroke-linejoin:miter;stroke-opacity:1" d="M 87.0566,179.472 97.5849,173.623 z" id="boundary" inkscape:connector-curvature="0" />
	<path style="fill:none;stroke:red;stroke-width:1px;stroke-linecap:butt;stroke-linejoin:miter;stroke-opacity:1" d="M 131.509,167.774 143.208,167.774 z" id="boundary" inkscape:connector-curvature="0" />
	<path style="fill:none;stroke:red;stroke-width:1px;stroke-linecap:butt;stroke-linejoin:miter;stroke-opacity:1" d="M 154.906,167.774 143.208,167.774 z" id="boundary" inkscape:connector-curvature="0" />
	<path style="fill:none;stroke:red;stroke-width:1px;stroke-linecap:butt;stroke-linejoin:miter;stroke-opacity:1" d="M 166.604,167.774 154.906,167.774 z" id="boundary" inkscape:connector-curvature="0" />
	<path style="fill:none;stroke:red;stroke-width:1px;stroke-linecap:butt;stroke-linejoin:miter;stroke-opacity:1" d="M 190,167.774 178.302,167.774 z" id="boundary" inkscape:connector-curvature="0" />
	<path style="fill:none;stroke:red;stroke-width:1px;stroke-linecap:butt;stroke-linejoin:miter;stroke-opacity:1" d="M 213.396,167.774 201.698,167.774 z" id="boundary" inkscape:connector-curvature="0" />
	<path style="fill:none;stroke:red;stroke-width:1px;stroke-linecap:butt;stroke-linejoin:miter;stroke-opacity:1" d="M 201.698,167.774 190,167.774 z" id="boundary" inkscape:connector-curvature="0" />
	<path style="fill:none;stroke:red;stroke-width:1px;stroke-linecap:butt;stroke-linejoin:miter;stroke-opacity:1" d="M 166.604,167.774 178.302,167.774 z" id="boundary" inkscape:connector-curvature="0" />
	<path style="fill:none;stroke:red;stroke-width:1px;stroke-linecap:butt;stroke-linejoin:miter;stroke-opacity:1" d="M 4,235.623 4,223.925 z" id="boundary" inkscape:connector-curvature="0" />
	<path style="fill:none;stroke:red;stroke-width:1px;stroke-linecap:butt;stroke-linejoin:miter;stroke-opacity:1" d="M 9.84906,246.151 4,235.623 z" id="boundary" inkscape:connector-curvature="0" />
	<path style="fill:none;stroke:red;stroke-width:1px;stroke-linecap:butt;stroke-linejoin:miter;stroke-opacity:1" d="M 4,223.925 9.84906,212.226 z" id="boundary" inkscape:connector-curvature="0" />
	<path style="fill:none;stroke:red;stroke-width:1px;stroke-linecap:butt;stroke-linejoin:miter;stroke-opacity:1" d="M 9.84906,246.151 9.84906,257.849 z" id="boundary" inkscape:connector-curvature="0" />
	<path style="fill:none;stroke:red;stroke-width:1px;stroke-linecap:butt;stroke-linejoin:miter;stroke-opacity:1" d="M 9.84906,269.547 9.84906,257.849 z" id="boundary" inkscape:connector-curvature="0" />
	<path style="fill:none;stroke:red;stroke-width:1px;stroke-linecap:butt;stroke-linejoin:miter;stroke-opacity:1" d="M 15.6981,280.075 9.84906,269.547 z" id="boundary" inkscape:connector-curvature="0" />
	<path style="fill:none;stroke:red;stroke-width:1px;stroke-linecap:butt;stroke-linejoin:miter;stroke-opacity:1" d="M 9.84906,212.226 19.2075,202.868 z" id="boundary" inkscape:connector-curvature="0" />
	<path style="fill:none;stroke:red;stroke-width:1px;stroke-linecap:butt;stroke-linejoin:miter;stroke-opacity:1" d="M 42.6038,197.019 30.9057,197.019 z" id="boundary" inkscape:connector-curvature="0" />
	<path style="fill:none;stroke:red;stroke-width:1px;stroke-linecap:butt;stroke-linejoin:miter;stroke-opacity:1" d="M 76.5283,185.321 66,191.17 z" id="boundary" inkscape:connector-curvature="0" />
	<path style="fill:none;stroke:red;stroke-width:1px;stroke-linecap:butt;stroke-linejoin:miter;stroke-opacity:1" d="M 66,191.17 54.3019,197.019 z" id="boundary" inkscape:connector-curvature="0" />
	<path style="fill:none;stroke:red;stroke-width:1px;stroke-linecap:butt;stroke-linejoin:miter;stroke-opacity:1" d="M 54.3019,197.019 42.6038,197.019 z" id="boundary" inkscape:connector-curvature="0" />
	<path style="fill:none;stroke:red;stroke-width:1px;stroke-linecap:butt;stroke-linejoin:miter;stroke-opacity:1" d="M 19.2075,202.868 30.9057,197.019 z" id="boundary" inkscape:connector-curvature="0" />
	<path style="fill:none;stroke:red;stroke-width:1px;stroke-linecap:butt;stroke-linejoin:miter;stroke-opacity:1" d="M 15.6981,280.075 15.6981,291.774 z" id="boundary" inkscape:connector-curvature="0" />
	<path style="fill:none;stroke:red;stroke-width:1px;stroke-linecap:butt;stroke-linejoin:miter;stroke-opacity:1" d="M 15.6981,291.774 15.6981,303.472 z" id="boundary" inkscape:connector-curvature="0" />
	<path style="fill:none;stroke:red;stroke-width:1px;stroke-linecap:butt;stroke-linejoin:miter;stroke-opacity:1" d="M 385.358,94.0755 397.057,91.7358 z" id="boundary" inkscape:connector-curvature="0" />
	<path style="fill:none;stroke:red;stroke-width:1px;stroke-linecap:butt;stroke-linejoin:miter;stroke-opacity:1" d="M 397.057,91.7358 408.755,95.2453 z" id="boundary" inkscape:connector-curvature="0" />
	<path style="fill:none;stroke:red;stroke-width:1px;stroke-linecap:butt;stroke-linejoin:miter;stroke-opacity:1" d="M 408.755,95.2453 418.113,103.434 z" id="boundary" inkscape:connector-curvature="0" />
	<path style="fill:none;stroke:red;stroke-width:1px;stroke-linecap:butt;stroke-linejoin:miter;stroke-opacity:1" d="M 373.66,99.9245 385.358,94.0755 z" id="boundary" inkscape:connector-curvature="0" />
	<path style="fill:none;stroke:red;stroke-width:1px;stroke-linecap:butt;stroke-linejoin:miter;stroke-opacity:1" d="M 429.811,103.434 418.113,103.434 z" id="boundary" inkscape:connector-curvature="0" />
	<path style="fill:none;stroke:red;stroke-width:1px;stroke-linecap:butt;stroke-linejoin:miter;stroke-opacity:1" d="M 361.962,105.774 373.66,99.9245 z" id="boundary" inkscape:connector-curvature="0" />
	<path style="fill:none;stroke:red;stroke-width:1px;stroke-linecap:butt;stroke-linejoin:miter;stroke-opacity:1" d="M 484.792,23.8868 475.434,33.2453 z" id="boundary" inkscape:connector-curvature="0" />
	<path style="fill:none;stroke:red;stroke-width:1px;stroke-linecap:butt;stroke-linejoin:miter;stroke-opacity:1" d="M 460.226,54.3019 466.075,42.6038 z" id="boundary" inkscape:connector-curvature="0" />
	<path style="fill:none;stroke:red;stroke-width:1px;stroke-linecap:butt;stroke-linejoin:miter;stroke-opacity:1" d="M 466.075,42.6038 475.434,33.2453 z" id="boundary" inkscape:connector-curvature="0" />
	<path style="fill:none;stroke:red;stroke-width:1px;stroke-linecap:butt;stroke-linejoin:miter;stroke-opacity:1" d="M 441.509,103.434 429.811,103.434 z" id="boundary" inkscape:connector-curvature="0" />
	<path style="fill:none;stroke:red;stroke-width:1px;stroke-linecap:butt;stroke-linejoin:miter;stroke-opacity:1" d="M 449.698,94.0755 441.509,103.434 z" id="boundary" inkscape:connector-curvature="0" />
	<path style="fill:none;stroke:red;stroke-width:1px;stroke-linecap:butt;stroke-linejoin:miter;stroke-opacity:1" d="M 454.377,77.6981 449.698,94.0755 z" id="boundary" inkscape:connector-curvature="0" />
	<path style="fill:none;stroke:red;stroke-width:1px;stroke-linecap:butt;stroke-linejoin:miter;stroke-opacity:1" d="M 454.377,77.6981 454.377,66 z" id="boundary" inkscape:connector-curvature="0" />
	<path style="fill:none;stroke:red;stroke-width:1px;stroke-linecap:butt;stroke-linejoin:miter;stroke-opacity:1" d="M 454.377,66 460.226,54.3019 z" id="boundary" inkscape:connector-curvature="0" />
	<path style="fill:none;stroke:red;stroke-width:1px;stroke-linecap:butt;stroke-linejoin:miter;stroke-opacity:1" d="M 248.491,167.774 236.792,167.774 z" id="boundary" inkscape:connector-curvature="0" />
	<path style="fill:none;stroke:red;stroke-width:1px;stroke-linecap:butt;stroke-linejoin:miter;stroke-opacity:1" d="M 236.792,167.774 225.094,167.774 z" id="boundary" inkscape:connector-curvature="0" />
	<path style="fill:none;stroke:red;stroke-width:1px;stroke-linecap:butt;stroke-linejoin:miter;stroke-opacity:1" d="M 260.189,167.774 248.491,167.774 z" id="boundary" inkscape:connector-curvature="0" />
	<path style="fill:none;stroke:red;stroke-width:1px;stroke-linecap:butt;stroke-linejoin:miter;stroke-opacity:1" d="M 213.396,167.774 225.094,167.774 z" id="boundary" inkscape:connector-curvature="0" />
	<path style="fill:none;stroke:red;stroke-width:1px;stroke-linecap:butt;stroke-linejoin:miter;stroke-opacity:1" d="M 296.453,142.038 290.604,153.736 z" id="boundary" inkscape:connector-curvature="0" />
	<path style="fill:none;stroke:red;stroke-width:1px;stroke-linecap:butt;stroke-linejoin:miter;stroke-opacity:1" d="M 260.189,167.774 271.887,167.774 z" id="boundary" inkscape:connector-curvature="0" />
	<path style="fill:none;stroke:red;stroke-width:1px;stroke-linecap:butt;stroke-linejoin:miter;stroke-opacity:1" d="M 283.585,167.774 271.887,167.774 z" id="boundary" inkscape:connector-curvature="0" />
	<path style="fill:none;stroke:red;stroke-width:1px;stroke-linecap:butt;stroke-linejoin:miter;stroke-opacity:1" d="M 290.604,153.736 283.585,167.774 z" id="boundary" inkscape:connector-curvature="0" />
	<path style="fill:none;stroke:red;stroke-width:1px;stroke-linecap:butt;stroke-linejoin:miter;stroke-opacity:1" d="M 339.736,115.132 350.264,109.283 z" id="boundary" inkscape:connector-curvature="0" />
	<path style="fill:none;stroke:red;stroke-width:1px;stroke-linecap:butt;stroke-linejoin:miter;stroke-opacity:1" d="M 350.264,109.283 361.962,105.774 z" id="boundary" inkscape:connector-curvature="0" />
	<path style="fill:none;stroke:red;stroke-width:1px;stroke-linecap:butt;stroke-linejoin:miter;stroke-opacity:1" d="M 296.453,142.038 305.811,132.679 z" id="boundary" inkscape:connector-curvature="0" />
	<path style="fill:none;stroke:red;stroke-width:1px;stroke-linecap:butt;stroke-linejoin:miter;stroke-opacity:1" d="M 305.811,132.679 317.509,126.83 z" id="boundary" inkscape:connector-curvature="0" />
	<path style="fill:none;stroke:red;stroke-width:1px;stroke-linecap:butt;stroke-linejoin:miter;stroke-opacity:1" d="M 317.509,126.83 329.208,120.981 z" id="boundary" inkscape:connector-curvature="0" />
	<path style="fill:none;stroke:red;stroke-width:1px;stroke-linecap:butt;stroke-linejoin:miter;stroke-opacity:1" d="M 339.736,115.132 329.208,120.981 z" id="boundary" inkscape:connector-curvature="0" />
	<path style="fill:none;stroke:red;stroke-width:1px;stroke-linecap:butt;stroke-linejoin:miter;stroke-opacity:1" d="M 15.6981,303.472 19.2075,315.17 z" id="boundary" inkscape:connector-curvature="0" />
	<path style="fill:none;stroke:red;stroke-width:1px;stroke-linecap:butt;stroke-linejoin:miter;stroke-opacity:1" d="M 21.5472,326.868 19.2075,315.17 z" id="boundary" inkscape:connector-curvature="0" />
	<path style="fill:none;stroke:red;stroke-width:1px;stroke-linecap:butt;stroke-linejoin:miter;stroke-opacity:1" d="M 21.5472,326.868 21.5472,338.566 z" id="boundary" inkscape:connector-curvature="0" />
	<path style="fill:none;stroke:red;stroke-width:1px;stroke-linecap:butt;stroke-linejoin:miter;stroke-opacity:1" d="M 21.5472,338.566 25.0566,350.264 z" id="boundary" inkscape:connector-curvature="0" />
	<path style="fill:none;stroke:red;stroke-width:1px;stroke-linecap:butt;stroke-linejoin:miter;stroke-opacity:1" d="M 27.3962,361.962 25.0566,350.264 z" id="boundary" inkscape:connector-curvature="0" />
	<path style="fill:none;stroke:red;stroke-width:1px;stroke-linecap:butt;stroke-linejoin:miter;stroke-opacity:1" d="M 27.3962,361.962 27.3962,373.66 z" id="boundary" inkscape:connector-curvature="0" />
	<path style="fill:none;stroke:red;stroke-width:1px;stroke-linecap:butt;stroke-linejoin:miter;stroke-opacity:1" d="M 33.2453,395.887 27.3962,385.358 z" id="boundary" inkscape:connector-curvature="0" />
	<path style="fill:none;stroke:red;stroke-width:1px;stroke-linecap:butt;stroke-linejoin:miter;stroke-opacity:1" d="M 27.3962,385.358 27.3962,373.66 z" id="boundary" inkscape:connector-curvature="0" />
	<path style="fill:none;stroke:red;stroke-width:1px;stroke-linecap:butt;stroke-linejoin:miter;stroke-opacity:1" d="M 39.0943,406.415 40.2642,418.113 z" id="boundary" inkscape:connector-curvature="0" />
	<path style="fill:none;stroke:red;stroke-width:1px;stroke-linecap:butt;stroke-linejoin:miter;stroke-opacity:1" d="M 33.2453,395.887 39.0943,406.415 z" id="boundary" inkscape:connector-curvature="0" />
	<path style="fill:none;stroke:red;stroke-width:1px;stroke-linecap:butt;stroke-linejoin:miter;stroke-opacity:1" d="M 44.9434,429.811 40.2642,418.113 z" id="boundary" inkscape:connector-curvature="0" />
	<path style="fill:none;stroke:red;stroke-width:1px;stroke-linecap:butt;stroke-linejoin:miter;stroke-opacity:1" d="M 166.604,418.113 174.792,408.755 z" id="boundary" inkscape:connector-curvature="0" />
	<path style="fill:none;stroke:red;stroke-width:1px;stroke-linecap:butt;stroke-linejoin:miter;stroke-opacity:1" d="M 185.321,402.906 174.792,408.755 z" id="boundary" inkscape:connector-curvature="0" />
	<path style="fill:none;stroke:red;stroke-width:1px;stroke-linecap:butt;stroke-linejoin:miter;stroke-opacity:1" d="M 60.1509,448.528 50.7925,440.34 z" id="boundary" inkscape:connector-curvature="0" />
	<path style="fill:none;stroke:red;stroke-width:1px;stroke-linecap:butt;stroke-linejoin:miter;stroke-opacity:1" d="M 50.7925,440.34 44.9434,429.811 z" id="boundary" inkscape:connector-curvature="0" />
	<path style="fill:none;stroke:red;stroke-width:1px;stroke-linecap:butt;stroke-linejoin:miter;stroke-opacity:1" d="M 82.3774,455.547 70.6792,454.377 z" id="boundary" inkscape:connector-curvature="0" />
	<path style="fill:none;stroke:red;stroke-width:1px;stroke-linecap:butt;stroke-linejoin:miter;stroke-opacity:1" d="M 70.6792,454.377 60.1509,448.528 z" id="boundary" inkscape:connector-curvature="0" />
	<path style="fill:none;stroke:red;stroke-width:1px;stroke-linecap:butt;stroke-linejoin:miter;stroke-opacity:1" d="M 94.0755,455.547 82.3774,455.547 z" id="boundary" inkscape:connector-curvature="0" />
	<path style="fill:none;stroke:red;stroke-width:1px;stroke-linecap:butt;stroke-linejoin:miter;stroke-opacity:1" d="M 149.057,438 157.245,426.302 z" id="boundary" inkscape:connector-curvature="0" />
	<path style="fill:none;stroke:red;stroke-width:1px;stroke-linecap:butt;stroke-linejoin:miter;stroke-opacity:1" d="M 157.245,426.302 166.604,418.113 z" id="boundary" inkscape:connector-curvature="0" />
	<path style="fill:none;stroke:red;stroke-width:1px;stroke-linecap:butt;stroke-linejoin:miter;stroke-opacity:1" d="M 149.057,438 138.528,443.849 z" id="boundary" inkscape:connector-curvature="0" />
	<path style="fill:none;stroke:red;stroke-width:1px;stroke-linecap:butt;stroke-linejoin:miter;stroke-opacity:1" d="M 105.774,455.547 116.302,449.698 z" id="boundary" inkscape:connector-curvature="0" />
	<path style="fill:none;stroke:red;stroke-width:1px;stroke-linecap:butt;stroke-linejoin:miter;stroke-opacity:1" d="M 116.302,449.698 128,449.698 z" id="boundary" inkscape:connector-curvature="0" />
	<path style="fill:none;stroke:red;stroke-width:1px;stroke-linecap:butt;stroke-linejoin:miter;stroke-opacity:1" d="M 105.774,455.547 94.0755,455.547 z" id="boundary" inkscape:connector-curvature="0" />
	<path style="fill:none;stroke:red;stroke-width:1px;stroke-linecap:butt;stroke-linejoin:miter;stroke-opacity:1" d="M 128,449.698 138.528,443.849 z" id="boundary" inkscape:connector-curvature="0" />
	<path style="fill:none;stroke:red;stroke-width:1px;stroke-linecap:butt;stroke-linejoin:miter;stroke-opacity:1" d="M 185.321,402.906 197.019,402.906 z" id="boundary" inkscape:connector-curvature="0" />
	<path style="fill:none;stroke:red;stroke-width:1px;stroke-linecap:butt;stroke-linejoin:miter;stroke-opacity:1" d="M 220.415,397.057 232.113,397.057 z" id="boundary" inkscape:connector-curvature="0" />
	<path style="fill:none;stroke:red;stroke-width:1px;stroke-linecap:butt;stroke-linejoin:miter;stroke-opacity:1" d="M 208.717,399.396 220.415,397.057 z" id="boundary" inkscape:connector-curvature="0" />
	<path style="fill:none;stroke:red;stroke-width:1px;stroke-linecap:butt;stroke-linejoin:miter;stroke-opacity:1" d="M 232.113,397.057 243.811,397.057 z" id="boundary" inkscape:connector-curvature="0" />
	<path style="fill:none;stroke:red;stroke-width:1px;stroke-linecap:butt;stroke-linejoin:miter;stroke-opacity:1" d="M 267.208,397.057 278.906,397.057 z" id="boundary" inkscape:connector-curvature="0" />
	<path style="fill:none;stroke:red;stroke-width:1px;stroke-linecap:butt;stroke-linejoin:miter;stroke-opacity:1" d="M 255.509,397.057 243.811,397.057 z" id="boundary" inkscape:connector-curvature="0" />
	<path style="fill:none;stroke:red;stroke-width:1px;stroke-linecap:butt;stroke-linejoin:miter;stroke-opacity:1" d="M 267.208,397.057 255.509,397.057 z" id="boundary" inkscape:connector-curvature="0" />
	<path style="fill:none;stroke:red;stroke-width:1px;stroke-linecap:butt;stroke-linejoin:miter;stroke-opacity:1" d="M 278.906,397.057 290.604,397.057 z" id="boundary" inkscape:connector-curvature="0" />
	<path style="fill:none;stroke:red;stroke-width:1px;stroke-linecap:butt;stroke-linejoin:miter;stroke-opacity:1" d="M 290.604,397.057 302.302,397.057 z" id="boundary" inkscape:connector-curvature="0" />
	<path style="fill:none;stroke:red;stroke-width:1px;stroke-linecap:butt;stroke-linejoin:miter;stroke-opacity:1" d="M 302.302,397.057 314,397.057 z" id="boundary" inkscape:connector-curvature="0" />
	<path style="fill:none;stroke:red;stroke-width:1px;stroke-linecap:butt;stroke-linejoin:miter;stroke-opacity:1" d="M 325.698,397.057 337.396,397.057 z" id="boundary" inkscape:connector-curvature="0" />
	<path style="fill:none;stroke:red;stroke-width:1px;stroke-linecap:butt;stroke-linejoin:miter;stroke-opacity:1" d="M 325.698,397.057 314,397.057 z" id="boundary" inkscape:connector-curvature="0" />
	<path style="fill:none;stroke:red;stroke-width:1px;stroke-linecap:butt;stroke-linejoin:miter;stroke-opacity:1" d="M 349.094,397.057 360.792,397.057 z" id="boundary" inkscape:connector-curvature="0" />
	<path style="fill:none;stroke:red;stroke-width:1px;stroke-linecap:butt;stroke-linejoin:miter;stroke-opacity:1" d="M 349.094,397.057 337.396,397.057 z" id="boundary" inkscape:connector-curvature="0" />
	<path style="fill:none;stroke:red;stroke-width:1px;stroke-linecap:butt;stroke-linejoin:miter;stroke-opacity:1" d="M 392.377,419.283 401.736,426.302 z" id="boundary" inkscape:connector-curvature="0" />
	<path style="fill:none;stroke:red;stroke-width:1px;stroke-linecap:butt;stroke-linejoin:miter;stroke-opacity:1" d="M 360.792,397.057 372.491,397.057 z" id="boundary" inkscape:connector-curvature="0" />
	<path style="fill:none;stroke:red;stroke-width:1px;stroke-linecap:butt;stroke-linejoin:miter;stroke-opacity:1" d="M 372.491,397.057 384.189,397.057 z" id="boundary" inkscape:connector-curvature="0" />
	<path style="fill:none;stroke:red;stroke-width:1px;stroke-linecap:butt;stroke-linejoin:miter;stroke-opacity:1" d="M 384.189,397.057 390.038,407.585 z" id="boundary" inkscape:connector-curvature="0" />
	<path style="fill:none;stroke:red;stroke-width:1px;stroke-linecap:butt;stroke-linejoin:miter;stroke-opacity:1" d="M 401.736,426.302 412.264,432.151 z" id="boundary" inkscape:connector-curvature="0" />
	<path style="fill:none;stroke:red;stroke-width:1px;stroke-linecap:butt;stroke-linejoin:miter;stroke-opacity:1" d="M 390.038,407.585 392.377,419.283 z" id="boundary" inkscape:connector-curvature="0" />
	<path style="fill:none;stroke:red;stroke-width:1px;stroke-linecap:butt;stroke-linejoin:miter;stroke-opacity:1" d="M 197.019,402.906 208.717,399.396 z" id="boundary" inkscape:connector-curvature="0" />
	<path style="fill:none;stroke:red;stroke-width:1px;stroke-linecap:butt;stroke-linejoin:miter;stroke-opacity:1" d="M 423.962,432.151 412.264,432.151 z" id="boundary" inkscape:connector-curvature="0" />
	<path style="fill:none;stroke:red;stroke-width:1px;stroke-linecap:butt;stroke-linejoin:miter;stroke-opacity:1" d="M 435.66,432.151 423.962,432.151 z" id="boundary" inkscape:connector-curvature="0" />
	<path style="fill:none;stroke:red;stroke-width:1px;stroke-linecap:butt;stroke-linejoin:miter;stroke-opacity:1" d="M 435.66,432.151 447.358,432.151 z" id="boundary" inkscape:connector-curvature="0" />
	<path style="fill:none;stroke:red;stroke-width:1px;stroke-linecap:butt;stroke-linejoin:miter;stroke-opacity:1" d="M 459.057,432.151 470.755,432.151 z" id="boundary" inkscape:connector-curvature="0" />
	<path style="fill:none;stroke:red;stroke-width:1px;stroke-linecap:butt;stroke-linejoin:miter;stroke-opacity:1" d="M 481.283,426.302 470.755,432.151 z" id="boundary" inkscape:connector-curvature="0" />
	<path style="fill:none;stroke:red;stroke-width:1px;stroke-linecap:butt;stroke-linejoin:miter;stroke-opacity:1" d="M 459.057,432.151 447.358,432.151 z" id="boundary" inkscape:connector-curvature="0" />
	<path style="fill:none;stroke:red;stroke-width:1px;stroke-linecap:butt;stroke-linejoin:miter;stroke-opacity:1" d="M 481.283,426.302 492.981,425.132 z" id="boundary" inkscape:connector-curvature="0" />
	<path style="fill:none;stroke:red;stroke-width:1px;stroke-linecap:butt;stroke-linejoin:miter;stroke-opacity:1" d="M 515.208,4 526.906,4 z" id="boundary" inkscape:connector-curvature="0" />
	<path style="fill:none;stroke:red;stroke-width:1px;stroke-linecap:butt;stroke-linejoin:miter;stroke-opacity:1" d="M 504.679,9.84906 515.208,4 z" id="boundary" inkscape:connector-curvature="0" />
	<path style="fill:none;stroke:red;stroke-width:1px;stroke-linecap:butt;stroke-linejoin:miter;stroke-opacity:1" d="M 526.906,4 538.604,4 z" id="boundary" inkscape:connector-curvature="0" />
	<path style="fill:none;stroke:red;stroke-width:1px;stroke-linecap:butt;stroke-linejoin:miter;stroke-opacity:1" d="M 550.302,4 562,4 z" id="boundary" inkscape:connector-curvature="0" />
	<path style="fill:none;stroke:red;stroke-width:1px;stroke-linecap:butt;stroke-linejoin:miter;stroke-opacity:1" d="M 562,4 573.698,4 z" id="boundary" inkscape:connector-curvature="0" />
	<path style="fill:none;stroke:red;stroke-width:1px;stroke-linecap:butt;stroke-linejoin:miter;stroke-opacity:1" d="M 538.604,4 550.302,4 z" id="boundary" inkscape:connector-curvature="0" />
	<path style="fill:none;stroke:red;stroke-width:1px;stroke-linecap:butt;stroke-linejoin:miter;stroke-opacity:1" d="M 585.396,4 597.094,4 z" id="boundary" inkscape:connector-curvature="0" />
	<path style="fill:none;stroke:red;stroke-width:1px;stroke-linecap:butt;stroke-linejoin:miter;stroke-opacity:1" d="M 597.094,4 608.792,4 z" id="boundary" inkscape:connector-curvature="0" />
	<path style="fill:none;stroke:red;stroke-width:1px;stroke-linecap:butt;stroke-linejoin:miter;stroke-opacity:1" d="M 620.491,4 632.189,4 z" id="boundary" inkscape:connector-curvature="0" />
	<path style="fill:none;stroke:red;stroke-width:1px;stroke-linecap:butt;stroke-linejoin:miter;stroke-opacity:1" d="M 643.887,4 655.585,4 z" id="boundary" inkscape:connector-curvature="0" />
	<path style="fill:none;stroke:red;stroke-width:1px;stroke-linecap:butt;stroke-linejoin:miter;stroke-opacity:1" d="M 632.189,4 643.887,4 z" id="boundary" inkscape:connector-curvature="0" />
	<path style="fill:none;stroke:red;stroke-width:1px;stroke-linecap:butt;stroke-linejoin:miter;stroke-opacity:1" d="M 573.698,4 585.396,4 z" id="boundary" inkscape:connector-curvature="0" />
	<path style="fill:none;stroke:red;stroke-width:1px;stroke-linecap:butt;stroke-linejoin:miter;stroke-opacity:1" d="M 608.792,4 620.491,4 z" id="boundary" inkscape:connector-curvature="0" />
	<path style="fill:none;stroke:red;stroke-width:1px;stroke-linecap:butt;stroke-linejoin:miter;stroke-opacity:1" d="M 667.283,4 678.981,4 z" id="boundary" inkscape:connector-curvature="0" />
	<path style="fill:none;stroke:red;stroke-width:1px;stroke-linecap:butt;stroke-linejoin:miter;stroke-opacity:1" d="M 484.792,23.8868 494.151,15.6981 z" id="boundary" inkscape:connector-curvature="0" />
	<path style="fill:none;stroke:red;stroke-width:1px;stroke-linecap:butt;stroke-linejoin:miter;stroke-opacity:1" d="M 494.151,15.6981 504.679,9.84906 z" id="boundary" inkscape:connector-curvature="0" />
	<path style="fill:none;stroke:red;stroke-width:1px;stroke-linecap:butt;stroke-linejoin:miter;stroke-opacity:1" d="M 678.981,4 690.679,4 z" id="boundary" inkscape:connector-curvature="0" />
	<path style="fill:none;stroke:red;stroke-width:1px;stroke-linecap:butt;stroke-linejoin:miter;stroke-opacity:1" d="M 655.585,4 667.283,4 z" id="boundary" inkscape:connector-curvature="0" />
	<path style="fill:none;stroke:red;stroke-width:1px;stroke-linecap:butt;stroke-linejoin:miter;stroke-opacity:1" d="M 702.377,4 714.075,4 z" id="boundary" inkscape:connector-curvature="0" />
	<path style="fill:none;stroke:red;stroke-width:1px;stroke-linecap:butt;stroke-linejoin:miter;stroke-opacity:1" d="M 714.075,4 725.774,4 z" id="boundary" inkscape:connector-curvature="0" />
	<path style="fill:none;stroke:red;stroke-width:1px;stroke-linecap:butt;stroke-linejoin:miter;stroke-opacity:1" d="M 725.774,4 736.302,9.84906 z" id="boundary" inkscape:connector-curvature="0" />
	<path style="fill:none;stroke:red;stroke-width:1px;stroke-linecap:butt;stroke-linejoin:miter;stroke-opacity:1" d="M 736.302,9.84906 748,13.3585 z" id="boundary" inkscape:connector-curvature="0" />
	<path style="fill:none;stroke:red;stroke-width:1px;stroke-linecap:butt;stroke-linejoin:miter;stroke-opacity:1" d="M 748,13.3585 756.189,22.717 z" id="boundary" inkscape:connector-curvature="0" />
	<path style="fill:none;stroke:red;stroke-width:1px;stroke-linecap:butt;stroke-linejoin:miter;stroke-opacity:1" d="M 765.547,30.9057 756.189,22.717 z" id="boundary" inkscape:connector-curvature="0" />
	<path style="fill:none;stroke:red;stroke-width:1px;stroke-linecap:butt;stroke-linejoin:miter;stroke-opacity:1" d="M 690.679,4 702.377,4 z" id="boundary" inkscape:connector-curvature="0" />
	<path style="fill:none;stroke:red;stroke-width:1px;stroke-linecap:butt;stroke-linejoin:miter;stroke-opacity:1" d="M 765.547,30.9057 765.547,42.6038 z" id="boundary" inkscape:connector-curvature="0" />
	<path style="fill:none;stroke:red;stroke-width:1px;stroke-linecap:butt;stroke-linejoin:miter;stroke-opacity:1" d="M 765.547,42.6038 765.547,54.3019 z" id="boundary" inkscape:connector-curvature="0" />
	<path style="fill:none;stroke:red;stroke-width:1px;stroke-linecap:butt;stroke-linejoin:miter;stroke-opacity:1" d="M 765.547,66 765.547,54.3019 z" id="boundary" inkscape:connector-curvature="0" />
	<path style="fill:none;stroke:red;stroke-width:1px;stroke-linecap:butt;stroke-linejoin:miter;stroke-opacity:1" d="M 765.547,77.6981 770.226,89.3962 z" id="boundary" inkscape:connector-curvature="0" />
	<path style="fill:none;stroke:red;stroke-width:1px;stroke-linecap:butt;stroke-linejoin:miter;stroke-opacity:1" d="M 770.226,89.3962 771.396,101.094 z" id="boundary" inkscape:connector-curvature="0" />
	<path style="fill:none;stroke:red;stroke-width:1px;stroke-linecap:butt;stroke-linejoin:miter;stroke-opacity:1" d="M 765.547,77.6981 765.547,66 z" id="boundary" inkscape:connector-curvature="0" />
	<path style="fill:none;stroke:red;stroke-width:1px;stroke-linecap:butt;stroke-linejoin:miter;stroke-opacity:1" d="M 771.396,101.094 771.396,112.792 z" id="boundary" inkscape:connector-curvature="0" />
	<path style="fill:none;stroke:red;stroke-width:1px;stroke-linecap:butt;stroke-linejoin:miter;stroke-opacity:1" d="M 784.264,132.679 777.245,123.321 z" id="boundary" inkscape:connector-curvature="0" />
	<path style="fill:none;stroke:red;stroke-width:1px;stroke-linecap:butt;stroke-linejoin:miter;stroke-opacity:1" d="M 777.245,123.321 771.396,112.792 z" id="boundary" inkscape:connector-curvature="0" />
	<path style="fill:none;stroke:red;stroke-width:1px;stroke-linecap:butt;stroke-linejoin:miter;stroke-opacity:1" d="M 784.264,132.679 793.623,140.868 z" id="boundary" inkscape:connector-curvature="0" />
	<path style="fill:none;stroke:red;stroke-width:1px;stroke-linecap:butt;stroke-linejoin:miter;stroke-opacity:1" d="M 804.151,146.717 815.849,151.396 z" id="boundary" inkscape:connector-curvature="0" />
	<path style="fill:none;stroke:red;stroke-width:1px;stroke-linecap:butt;stroke-linejoin:miter;stroke-opacity:1" d="M 804.151,146.717 793.623,140.868 z" id="boundary" inkscape:connector-curvature="0" />
	<path style="fill:none;stroke:red;stroke-width:1px;stroke-linecap:butt;stroke-linejoin:miter;stroke-opacity:1" d="M 839.245,156.075 827.547,156.075 z" id="boundary" inkscape:connector-curvature="0" />
	<path style="fill:none;stroke:red;stroke-width:1px;stroke-linecap:butt;stroke-linejoin:miter;stroke-opacity:1" d="M 827.547,156.075 815.849,151.396 z" id="boundary" inkscape:connector-curvature="0" />
	<path style="fill:none;stroke:red;stroke-width:1px;stroke-linecap:butt;stroke-linejoin:miter;stroke-opacity:1" d="M 861.472,161.925 849.774,161.925 z" id="boundary" inkscape:connector-curvature="0" />
	<path style="fill:none;stroke:red;stroke-width:1px;stroke-linecap:butt;stroke-linejoin:miter;stroke-opacity:1" d="M 849.774,161.925 839.245,156.075 z" id="boundary" inkscape:connector-curvature="0" />
	<path style="fill:none;stroke:red;stroke-width:1px;stroke-linecap:butt;stroke-linejoin:miter;stroke-opacity:1" d="M 861.472,161.925 872,167.774 z" id="boundary" inkscape:connector-curvature="0" />
	<path style="fill:none;stroke:red;stroke-width:1px;stroke-linecap:butt;stroke-linejoin:miter;stroke-opacity:1" d="M 872,167.774 883.698,167.774 z" id="boundary" inkscape:connector-curvature="0" />
	<path style="fill:none;stroke:red;stroke-width:1px;stroke-linecap:butt;stroke-linejoin:miter;stroke-opacity:1" d="M 895.396,167.774 907.094,167.774 z" id="boundary" inkscape:connector-curvature="0" />
	<path style="fill:none;stroke:red;stroke-width:1px;stroke-linecap:butt;stroke-linejoin:miter;stroke-opacity:1" d="M 895.396,167.774 883.698,167.774 z" id="boundary" inkscape:connector-curvature="0" />
	<path style="fill:none;stroke:red;stroke-width:1px;stroke-linecap:butt;stroke-linejoin:miter;stroke-opacity:1" d="M 918.792,167.774 930.491,167.774 z" id="boundary" inkscape:connector-curvature="0" />
	<path style="fill:none;stroke:red;stroke-width:1px;stroke-linecap:butt;stroke-linejoin:miter;stroke-opacity:1" d="M 930.491,167.774 941.019,173.623 z" id="boundary" inkscape:connector-curvature="0" />
	<path style="fill:none;stroke:red;stroke-width:1px;stroke-linecap:butt;stroke-linejoin:miter;stroke-opacity:1" d="M 950.377,180.642 952.717,192.34 z" id="boundary" inkscape:connector-curvature="0" />
	<path style="fill:none;stroke:red;stroke-width:1px;stroke-linecap:butt;stroke-linejoin:miter;stroke-opacity:1" d="M 941.019,173.623 950.377,180.642 z" id="boundary" inkscape:connector-curvature="0" />
	<path style="fill:none;stroke:red;stroke-width:1px;stroke-linecap:butt;stroke-linejoin:miter;stroke-opacity:1" d="M 962.075,199.358 952.717,192.34 z" id="boundary" inkscape:connector-curvature="0" />
	<path style="fill:none;stroke:red;stroke-width:1px;stroke-linecap:butt;stroke-linejoin:miter;stroke-opacity:1" d="M 973.774,204.038 962.075,199.358 z" id="boundary" inkscape:connector-curvature="0" />
	<path style="fill:none;stroke:red;stroke-width:1px;stroke-linecap:butt;stroke-linejoin:miter;stroke-opacity:1" d="M 984.302,209.887 973.774,204.038 z" id="boundary" inkscape:connector-curvature="0" />
	<path style="fill:none;stroke:red;stroke-width:1px;stroke-linecap:butt;stroke-linejoin:miter;stroke-opacity:1" d="M 907.094,167.774 918.792,167.774 z" id="boundary" inkscape:connector-curvature="0" />
	<path style="fill:none;stroke:red;stroke-width:1px;stroke-linecap:butt;stroke-linejoin:miter;stroke-opacity:1" d="M 662.604,385.358 650.906,385.358 z" id="boundary" inkscape:connector-curvature="0" />
	<path style="fill:none;stroke:red;stroke-width:1px;stroke-linecap:butt;stroke-linejoin:miter;stroke-opacity:1" d="M 696.528,379.509 684.83,379.509 z" id="boundary" inkscape:connector-curvature="0" />
	<path style="fill:none;stroke:red;stroke-width:1px;stroke-linecap:butt;stroke-linejoin:miter;stroke-opacity:1" d="M 674.302,385.358 684.83,379.509 z" id="boundary" inkscape:connector-curvature="0" />
	<path style="fill:none;stroke:red;stroke-width:1px;stroke-linecap:butt;stroke-linejoin:miter;stroke-opacity:1" d="M 640.377,391.208 650.906,385.358 z" id="boundary" inkscape:connector-curvature="0" />
	<path style="fill:none;stroke:red;stroke-width:1px;stroke-linecap:butt;stroke-linejoin:miter;stroke-opacity:1" d="M 628.679,391.208 616.981,391.208 z" id="boundary" inkscape:connector-curvature="0" />
	<path style="fill:none;stroke:red;stroke-width:1px;stroke-linecap:butt;stroke-linejoin:miter;stroke-opacity:1" d="M 674.302,385.358 662.604,385.358 z" id="boundary" inkscape:connector-curvature="0" />
	<path style="fill:none;stroke:red;stroke-width:1px;stroke-linecap:butt;stroke-linejoin:miter;stroke-opacity:1" d="M 696.528,379.509 708.226,379.509 z" id="boundary" inkscape:connector-curvature="0" />
	<path style="fill:none;stroke:red;stroke-width:1px;stroke-linecap:butt;stroke-linejoin:miter;stroke-opacity:1" d="M 719.925,379.509 708.226,379.509 z" id="boundary" inkscape:connector-curvature="0" />
	<path style="fill:none;stroke:red;stroke-width:1px;stroke-linecap:butt;stroke-linejoin:miter;stroke-opacity:1" d="M 731.623,379.509 719.925,379.509 z" id="boundary" inkscape:connector-curvature="0" />
	<path style="fill:none;stroke:red;stroke-width:1px;stroke-linecap:butt;stroke-linejoin:miter;stroke-opacity:1" d="M 743.321,379.509 755.019,379.509 z" id="boundary" inkscape:connector-curvature="0" />
	<path style="fill:none;stroke:red;stroke-width:1px;stroke-linecap:butt;stroke-linejoin:miter;stroke-opacity:1" d="M 766.717,379.509 776.075,386.528 z" id="boundary" inkscape:connector-curvature="0" />
	<path style="fill:none;stroke:red;stroke-width:1px;stroke-linecap:butt;stroke-linejoin:miter;stroke-opacity:1" d="M 755.019,379.509 766.717,379.509 z" id="boundary" inkscape:connector-curvature="0" />
	<path style="fill:none;stroke:red;stroke-width:1px;stroke-linecap:butt;stroke-linejoin:miter;stroke-opacity:1" d="M 731.623,379.509 743.321,379.509 z" id="boundary" inkscape:connector-curvature="0" />
	<path style="fill:none;stroke:red;stroke-width:1px;stroke-linecap:butt;stroke-linejoin:miter;stroke-opacity:1" d="M 776.075,386.528 781.925,397.057 z" id="boundary" inkscape:connector-curvature="0" />
	<path style="fill:none;stroke:red;stroke-width:1px;stroke-linecap:butt;stroke-linejoin:miter;stroke-opacity:1" d="M 536.264,402.906 524.566,402.906 z" id="boundary" inkscape:connector-curvature="0" />
	<path style="fill:none;stroke:red;stroke-width:1px;stroke-linecap:butt;stroke-linejoin:miter;stroke-opacity:1" d="M 546.792,397.057 536.264,402.906 z" id="boundary" inkscape:connector-curvature="0" />
	<path style="fill:none;stroke:red;stroke-width:1px;stroke-linecap:butt;stroke-linejoin:miter;stroke-opacity:1" d="M 558.491,397.057 546.792,397.057 z" id="boundary" inkscape:connector-curvature="0" />
	<path style="fill:none;stroke:red;stroke-width:1px;stroke-linecap:butt;stroke-linejoin:miter;stroke-opacity:1" d="M 492.981,425.132 504.679,419.283 z" id="boundary" inkscape:connector-curvature="0" />
	<path style="fill:none;stroke:red;stroke-width:1px;stroke-linecap:butt;stroke-linejoin:miter;stroke-opacity:1" d="M 504.679,419.283 514.038,408.755 z" id="boundary" inkscape:connector-curvature="0" />
	<path style="fill:none;stroke:red;stroke-width:1px;stroke-linecap:butt;stroke-linejoin:miter;stroke-opacity:1" d="M 514.038,408.755 524.566,402.906 z" id="boundary" inkscape:connector-curvature="0" />
	<path style="fill:none;stroke:red;stroke-width:1px;stroke-linecap:butt;stroke-linejoin:miter;stroke-opacity:1" d="M 558.491,397.057 570.189,397.057 z" id="boundary" inkscape:connector-curvature="0" />
	<path style="fill:none;stroke:red;stroke-width:1px;stroke-linecap:butt;stroke-linejoin:miter;stroke-opacity:1" d="M 628.679,391.208 640.377,391.208 z" id="boundary" inkscape:connector-curvature="0" />
	<path style="fill:none;stroke:red;stroke-width:1px;stroke-linecap:butt;stroke-linejoin:miter;stroke-opacity:1" d="M 593.585,397.057 605.283,394.717 z" id="boundary" inkscape:connector-curvature="0" />
	<path style="fill:none;stroke:red;stroke-width:1px;stroke-linecap:butt;stroke-linejoin:miter;stroke-opacity:1" d="M 570.189,397.057 581.887,397.057 z" id="boundary" inkscape:connector-curvature="0" />
	<path style="fill:none;stroke:red;stroke-width:1px;stroke-linecap:butt;stroke-linejoin:miter;stroke-opacity:1" d="M 593.585,397.057 581.887,397.057 z" id="boundary" inkscape:connector-curvature="0" />
	<path style="fill:none;stroke:red;stroke-width:1px;stroke-linecap:butt;stroke-linejoin:miter;stroke-opacity:1" d="M 616.981,391.208 605.283,394.717 z" id="boundary" inkscape:connector-curvature="0" />
	<path style="fill:none;stroke:red;stroke-width:1px;stroke-linecap:butt;stroke-linejoin:miter;stroke-opacity:1" d="M 781.925,397.057 792.453,402.906 z" id="boundary" inkscape:connector-curvature="0" />
	<path style="fill:none;stroke:red;stroke-width:1px;stroke-linecap:butt;stroke-linejoin:miter;stroke-opacity:1" d="M 964.415,280.075 962.075,295.283 z" id="boundary" inkscape:connector-curvature="0" />
	<path style="fill:none;stroke:red;stroke-width:1px;stroke-linecap:butt;stroke-linejoin:miter;stroke-opacity:1" d="M 962.075,295.283 956.226,306.981 z" id="boundary" inkscape:connector-curvature="0" />
	<path style="fill:none;stroke:red;stroke-width:1px;stroke-linecap:butt;stroke-linejoin:miter;stroke-opacity:1" d="M 956.226,306.981 946.868,315.17 z" id="boundary" inkscape:connector-curvature="0" />
	<path style="fill:none;stroke:red;stroke-width:1px;stroke-linecap:butt;stroke-linejoin:miter;stroke-opacity:1" d="M 946.868,315.17 938.679,330.377 z" id="boundary" inkscape:connector-curvature="0" />
	<path style="fill:none;stroke:red;stroke-width:1px;stroke-linecap:butt;stroke-linejoin:miter;stroke-opacity:1" d="M 938.679,330.377 929.321,338.566 z" id="boundary" inkscape:connector-curvature="0" />
	<path style="fill:none;stroke:red;stroke-width:1px;stroke-linecap:butt;stroke-linejoin:miter;stroke-opacity:1" d="M 929.321,338.566 917.623,338.566 z" id="boundary" inkscape:connector-curvature="0" />
	<path style="fill:none;stroke:red;stroke-width:1px;stroke-linecap:butt;stroke-linejoin:miter;stroke-opacity:1" d="M 990.151,220.415 993.66,232.113 z" id="boundary" inkscape:connector-curvature="0" />
	<path style="fill:none;stroke:red;stroke-width:1px;stroke-linecap:butt;stroke-linejoin:miter;stroke-opacity:1" d="M 970.264,268.377 980.792,262.528 z" id="boundary" inkscape:connector-curvature="0" />
	<path style="fill:none;stroke:red;stroke-width:1px;stroke-linecap:butt;stroke-linejoin:miter;stroke-opacity:1" d="M 964.415,280.075 970.264,268.377 z" id="boundary" inkscape:connector-curvature="0" />
	<path style="fill:none;stroke:red;stroke-width:1px;stroke-linecap:butt;stroke-linejoin:miter;stroke-opacity:1" d="M 990.151,255.509 980.792,262.528 z" id="boundary" inkscape:connector-curvature="0" />
	<path style="fill:none;stroke:red;stroke-width:1px;stroke-linecap:butt;stroke-linejoin:miter;stroke-opacity:1" d="M 996,243.811 990.151,255.509 z" id="boundary" inkscape:connector-curvature="0" />
	<path style="fill:none;stroke:red;stroke-width:1px;stroke-linecap:butt;stroke-linejoin:miter;stroke-opacity:1" d="M 993.66,232.113 996,243.811 z" id="boundary" inkscape:connector-curvature="0" />
	<path style="fill:none;stroke:red;stroke-width:1px;stroke-linecap:butt;stroke-linejoin:miter;stroke-opacity:1" d="M 917.623,338.566 905.925,344.415 z" id="boundary" inkscape:connector-curvature="0" />
	<path style="fill:none;stroke:red;stroke-width:1px;stroke-linecap:butt;stroke-linejoin:miter;stroke-opacity:1" d="M 814.679,408.755 802.981,408.755 z" id="boundary" inkscape:connector-curvature="0" />
	<path style="fill:none;stroke:red;stroke-width:1px;stroke-linecap:butt;stroke-linejoin:miter;stroke-opacity:1" d="M 802.981,408.755 792.453,402.906 z" id="boundary" inkscape:connector-curvature="0" />
	<path style="fill:none;stroke:red;stroke-width:1px;stroke-linecap:butt;stroke-linejoin:miter;stroke-opacity:1" d="M 826.377,408.755 838.075,408.755 z" id="boundary" inkscape:connector-curvature="0" />
	<path style="fill:none;stroke:red;stroke-width:1px;stroke-linecap:butt;stroke-linejoin:miter;stroke-opacity:1" d="M 849.774,408.755 861.472,408.755 z" id="boundary" inkscape:connector-curvature="0" />
	<path style="fill:none;stroke:red;stroke-width:1px;stroke-linecap:butt;stroke-linejoin:miter;stroke-opacity:1" d="M 872,402.906 861.472,408.755 z" id="boundary" inkscape:connector-curvature="0" />
	<path style="fill:none;stroke:red;stroke-width:1px;stroke-linecap:butt;stroke-linejoin:miter;stroke-opacity:1" d="M 849.774,408.755 838.075,408.755 z" id="boundary" inkscape:connector-curvature="0" />
	<path style="fill:none;stroke:red;stroke-width:1px;stroke-linecap:butt;stroke-linejoin:miter;stroke-opacity:1" d="M 826.377,408.755 814.679,408.755 z" id="boundary" inkscape:connector-curvature="0" />
	<path style="fill:none;stroke:red;stroke-width:1px;stroke-linecap:butt;stroke-linejoin:miter;stroke-opacity:1" d="M 900.075,361.962 905.925,344.415 z" id="boundary" inkscape:connector-curvature="0" />
	<path style="fill:none;stroke:red;stroke-width:1px;stroke-linecap:butt;stroke-linejoin:miter;stroke-opacity:1" d="M 900.075,361.962 894.226,373.66 z" id="boundary" inkscape:connector-curvature="0" />
	<path style="fill:none;stroke:red;stroke-width:1px;stroke-linecap:butt;stroke-linejoin:miter;stroke-opacity:1" d="M 882.528,397.057 872,402.906 z" id="boundary" inkscape:connector-curvature="0" />
	<path style="fill:none;stroke:red;stroke-width:1px;stroke-linecap:butt;stroke-linejoin:miter;stroke-opacity:1" d="M 888.377,385.358 882.528,397.057 z" id="boundary" inkscape:connector-curvature="0" />
	<path style="fill:none;stroke:red;stroke-width:1px;stroke-linecap:butt;stroke-linejoin:miter;stroke-opacity:1" d="M 888.377,385.358 894.226,373.66 z" id="boundary" inkscape:connector-curvature="0" />
	<path style="fill:none;stroke:red;stroke-width:1px;stroke-linecap:butt;stroke-linejoin:miter;stroke-opacity:1" d="M 984.302,209.887 990.151,220.415 z" id="boundary" inkscape:connector-curvature="0" />
	<circle cx="4" cy="223.925" r="4" fill="#0" id="circle0"/>
	<circle cx="4" cy="235.623" r="4" fill="#0" id="circle1"/>
	<circle cx="9.84906" cy="212.226" r="4" fill="#0" id="circle2"/>
	<circle cx="9.84906" cy="246.151" r="4" fill="#0" id="circle3"/>
	<circle cx="9.84906" cy="257.849" r="4" fill="#0" id="circle4"/>
	<circle cx="9.84906" cy="269.547" r="4" fill="#0" id="circle5"/>
	<circle cx="15.6981" cy="280.075" r="4" fill="#0" id="circle6"/>
	<circle cx="15.6981" cy="291.774" r="4" fill="#0" id="circle7"/>
	<circle cx="15.6981" cy="303.472" r="4" fill="#0" id="circle8"/>
	<circle cx="19.2075" cy="202.868" r="4" fill="#0" id="circle9"/>
	<circle cx="19.2075" cy="315.17" r="4" fill="#0" id="circle10"/>
	<circle cx="21.5472" cy="326.868" r="4" fill="#0" id="circle11"/>
	<circle cx="21.5472" cy="338.566" r="4" fill="#0" id="circle12"/>
	<circle cx="25.0566" cy="350.264" r="4" fill="#0" id="circle13"/>
	<circle cx="27.3962" cy="361.962" r="4" fill="#0" id="circle14"/>
	<circle cx="27.3962" cy="373.66" r="4" fill="#0" id="circle15"/>
	<circle cx="27.3962" cy="385.358" r="4" fill="#0" id="circle16"/>
	<circle cx="30.9057" cy="197.019" r="4" fill="#0" id="circle17"/>
	<circle cx="33.2453" cy="395.887" r="4" fill="#0" id="circle18"/>
	<circle cx="39.0943" cy="406.415" r="4" fill="#0" id="circle19"/>
	<circle cx="40.2642" cy="418.113" r="4" fill="#0" id="circle20"/>
	<circle cx="42.6038" cy="197.019" r="4" fill="#0" id="circle21"/>
	<circle cx="44.9434" cy="429.811" r="4" fill="#0" id="circle22"/>
	<circle cx="50.7925" cy="440.34" r="4" fill="#0" id="circle23"/>
	<circle cx="54.3019" cy="197.019" r="4" fill="#0" id="circle24"/>
	<circle cx="60.1509" cy="448.528" r="4" fill="#0" id="circle25"/>
	<circle cx="66" cy="191.17" r="4" fill="#0" id="circle26"/>
	<circle cx="70.6792" cy="454.377" r="4" fill="#0" id="circle27"/>
	<circle cx="76.5283" cy="185.321" r="4" fill="#0" id="circle28"/>
	<circle cx="82.3774" cy="455.547" r="4" fill="#0" id="circle29"/>
	<circle cx="87.0566" cy="179.472" r="4" fill="#0" id="circle30"/>
	<circle cx="94.0755" cy="455.547" r="4" fill="#0" id="circle31"/>
	<circle cx="97.5849" cy="173.623" r="4" fill="#0" id="circle32"/>
	<circle cx="105.774" cy="455.547" r="4" fill="#0" id="circle33"/>
	<circle cx="109.283" cy="173.623" r="4" fill="#0" id="circle34"/>
	<circle cx="116.302" cy="449.698" r="4" fill="#0" id="circle35"/>
	<circle cx="119.811" cy="167.774" r="4" fill="#0" id="circle36"/>
	<circle cx="128" cy="449.698" r="4" fill="#0" id="circle37"/>
	<circle cx="131.509" cy="167.774" r="4" fill="#0" id="circle38"/>
	<circle cx="138.528" cy="443.849" r="4" fill="#0" id="circle39"/>
	<circle cx="143.208" cy="167.774" r="4" fill="#0" id="circle40"/>
	<circle cx="149.057" cy="438" r="4" fill="#0" id="circle41"/>
	<circle cx="154.906" cy="167.774" r="4" fill="#0" id="circle42"/>
	<circle cx="157.245" cy="426.302" r="4" fill="#0" id="circle43"/>
	<circle cx="166.604" cy="167.774" r="4" fill="#0" id="circle44"/>
	<circle cx="166.604" cy="418.113" r="4" fill="#0" id="circle45"/>
	<circle cx="174.792" cy="408.755" r="4" fill="#0" id="circle46"/>
	<circle cx="178.302" cy="167.774" r="4" fill="#0" id="circle47"/>
	<circle cx="185.321" cy="402.906" r="4" fill="#0" id="circle48"/>
	<circle cx="190" cy="167.774" r="4" fill="#0" id="circle49"/>
	<circle cx="197.019" cy="402.906" r="4" fill="#0" id="circle50"/>
	<circle cx="201.698" cy="167.774" r="4" fill="#0" id="circle51"/>
	<circle cx="208.717" cy="399.396" r="4" fill="#0" id="circle52"/>
	<circle cx="213.396" cy="167.774" r="4" fill="#0" id="circle53"/>
	<circle cx="220.415" cy="397.057" r="4" fill="#0" id="circle54"/>
	<circle cx="225.094" cy="167.774" r="4" fill="#0" id="circle55"/>
	<circle cx="232.113" cy="397.057" r="4" fill="#0" id="circle56"/>
	<circle cx="236.792" cy="167.774" r="4" fill="#0" id="circle57"/>
	<circle cx="243.811" cy="397.057" r="4" fill="#0" id="circle58"/>
	<circle cx="248.491" cy="167.774" r="4" fill="#0" id="circle59"/>
	<circle cx="255.509" cy="397.057" r="4" fill="#0" id="circle60"/>
	<circle cx="260.189" cy="167.774" r="4" fill="#0" id="circle61"/>
	<circle cx="267.208" cy="397.057" r="4" fill="#0" id="circle62"/>
	<circle cx="271.887" cy="167.774" r="4" fill="#0" id="circle63"/>
	<circle cx="278.906" cy="397.057" r="4" fill="#0" id="circle64"/>
	<circle cx="283.585" cy="167.774" r="4" fill="#0" id="circle65"/>
	<circle cx="290.604" cy="153.736" r="4" fill="#0" id="circle66"/>
	<circle cx="290.604" cy="397.057" r="4" fill="#0" id="circle67"/>
	<circle cx="296.453" cy="142.038" r="4" fill="#0" id="circle68"/>
	<circle cx="302.302" cy="397.057" r="4" fill="#0" id="circle69"/>
	<circle cx="305.811" cy="132.679" r="4" fill="#0" id="circle70"/>
	<circle cx="314" cy="397.057" r="4" fill="#0" id="circle71"/>
	<circle cx="317.509" cy="126.83" r="4" fill="#0" id="circle72"/>
	<circle cx="325.698" cy="397.057" r="4" fill="#0" id="circle73"/>
	<circle cx="329.208" cy="120.981" r="4" fill="#0" id="circle74"/>
	<circle cx="337.396" cy="397.057" r="4" fill="#0" id="circle75"/>
	<circle cx="339.736" cy="115.132" r="4" fill="#0" id="circle76"/>
	<circle cx="349.094" cy="397.057" r="4" fill="#0" id="circle77"/>
	<circle cx="350.264" cy="109.283" r="4" fill="#0" id="circle78"/>
	<circle cx="360.792" cy="397.057" r="4" fill="#0" id="circle79"/>
	<circle cx="361.962" cy="105.774" r="4" fill="#0" id="circle80"/>
	<circle cx="372.491" cy="397.057" r="4" fill="#0" id="circle81"/>
	<circle cx="373.66" cy="99.9245" r="4" fill="#0" id="circle82"/>
	<circle cx="384.189" cy="397.057" r="4" fill="#0" id="circle83"/>
	<circle cx="385.358" cy="94.0755" r="4" fill="#0" id="circle84"/>
	<circle cx="390.038" cy="407.585" r="4" fill="#0" id="circle85"/>
	<circle cx="392.377" cy="419.283" r="4" fill="#0" id="circle86"/>
	<circle cx="397.057" cy="91.7358" r="4" fill="#0" id="circle87"/>
	<circle cx="401.736" cy="426.302" r="4" fill="#0" id="circle88"/>
	<circle cx="408.755" cy="95.2453" r="4" fill="#0" id="circle89"/>
	<circle cx="412.264" cy="432.151" r="4" fill="#0" id="circle90"/>
	<circle cx="418.113" cy="103.434" r="4" fill="#0" id="circle91"/>
	<circle cx="423.962" cy="432.151" r="4" fill="#0" id="circle92"/>
	<circle cx="429.811" cy="103.434" r="4" fill="#0" id="circle93"/>
	<circle cx="435.66" cy="432.151" r="4" fill="#0" id="circle94"/>
	<circle cx="441.509" cy="103.434" r="4" fill="#0" id="circle95"/>
	<circle cx="447.358" cy="432.151" r="4" fill="#0" id="circle96"/>
	<circle cx="449.698" cy="94.0755" r="4" fill="#0" id="circle97"/>
	<circle cx="454.377" cy="66" r="4" fill="#0" id="circle98"/>
	<circle cx="454.377" cy="77.6981" r="4" fill="#0" id="circle99"/>
	<circle cx="459.057" cy="432.151" r="4" fill="#0" id="circle100"/>
	<circle cx="460.226" cy="54.3019" r="4" fill="#0" id="circle101"/>
	<circle cx="466.075" cy="42.6038" r="4" fill="#0" id="circle102"/>
	<circle cx="470.755" cy="432.151" r="4" fill="#0" id="circle103"/>
	<circle cx="475.434" cy="33.2453" r="4" fill="#0" id="circle104"/>
	<circle cx="481.283" cy="426.302" r="4" fill="#0" id="circle105"/>
	<circle cx="484.792" cy="23.8868" r="4" fill="#0" id="circle106"/>
	<circle cx="492.981" cy="425.132" r="4" fill="#0" id="circle107"/>
	<circle cx="494.151" cy="15.6981" r="4" fill="#0" id="circle108"/>
	<circle cx="504.679" cy="9.84906" r="4" fill="#0" id="circle109"/>
	<circle cx="504.679" cy="419.283" r="4" fill="#0" id="circle110"/>
	<circle cx="514.038" cy="408.755" r="4" fill="#0" id="circle111"/>
	<circle cx="515.208" cy="4" r="4" fill="#0" id="circle112"/>
	<circle cx="524.566" cy="402.906" r="4" fill="#0" id="circle113"/>
	<circle cx="526.906" cy="4" r="4" fill="#0" id="circle114"/>
	<circle cx="536.264" cy="402.906" r="4" fill="#0" id="circle115"/>
	<circle cx="538.604" cy="4" r="4" fill="#0" id="circle116"/>
	<circle cx="546.792" cy="397.057" r="4" fill="#0" id="circle117"/>
	<circle cx="550.302" cy="4" r="4" fill="#0" id="circle118"/>
	<circle cx="558.491" cy="397.057" r="4" fill="#0" id="circle119"/>
	<circle cx="562" cy="4" r="4" fill="#0" id="circle120"/>
	<circle cx="570.189" cy="397.057" r="4" fill="#0" id="circle121"/>
	<circle cx="573.698" cy="4" r="4" fill="#0" id="circle122"/>
	<circle cx="581.887" cy="397.057" r="4" fill="#0" id="circle123"/>
	<circle cx="585.396" cy="4" r="4" fill="#0" id="circle124"/>
	<circle cx="593.585" cy="397.057" r="4" fill="#0" id="circle125"/>
	<circle cx="597.094" cy="4" r="4" fill="#0" id="circle126"/>
	<circle cx="605.283" cy="394.717" r="4" fill="#0" id="circle127"/>
	<circle cx="608.792" cy="4" r="4" fill="#0" id="circle128"/>
	<circle cx="616.981" cy="391.208" r="4" fill="#0" id="circle129"/>
	<circle cx="620.491" cy="4" r="4" fill="#0" id="circle130"/>
	<circle cx="628.679" cy="391.208" r="4" fill="#0" id="circle131"/>
	<circle cx="632.189" cy="4" r="4" fill="#0" id="circle132"/>
	<circle cx="640.377" cy="391.208" r="4" fill="#0" id="circle133"/>
	<circle cx="643.887" cy="4" r="4" fill="#0" id="circle134"/>
	<circle cx="650.906" cy="385.358" r="4" fill="#0" id="circle135"/>
	<circle cx="655.585" cy="4" r="4" fill="#0" id="circle136"/>
	<circle cx="662.604" cy="385.358" r="4" fill="#0" id="circle137"/>
	<circle cx="667.283" cy="4" r="4" fill="#0" id="circle138"/>
	<circle cx="674.302" cy="385.358" r="4" fill="#0" id="circle139"/>
	<circle cx="678.981" cy="4" r="4" fill="#0" id="circle140"/>
	<circle cx="684.83" cy="379.509" r="4" fill="#0" id="circle141"/>
	<circle cx="690.679" cy="4" r="4" fill="#0" id="circle142"/>
	<circle cx="696.528" cy="379.509" r="4" fill="#0" id="circle143"/>
	<circle cx="702.377" cy="4" r="4" fill="#0" id="circle144"/>
	<circle cx="708.226" cy="379.509" r="4" fill="#0" id="circle145"/>
	<circle cx="714.075" cy="4" r="4" fill="#0" id="circle146"/>
	<circle cx="719.925" cy="379.509" r="4" fill="#0" id="circle147"/>
	<circle cx="725.774" cy="4" r="4" fill="#0" id="circle148"/>
	<circle cx="731.623" cy="379.509" r="4" fill="#0" id="circle149"/>
	<circle cx="736.302" cy="9.84906" r="4" fill="#0" id="circle150"/>
	<circle cx="743.321" cy="379.509" r="4" fill="#0" id="circle151"/>
	<circle cx="748" cy="13.3585" r="4" fill="#0" id="circle152"/>
	<circle cx="755.019" cy="379.509" r="4" fill="#0" id="circle153"/>
	<circle cx="756.189" cy="22.717" r="4" fill="#0" id="circle154"/>
	<circle cx="765.547" cy="30.9057" r="4" fill="#0" id="circle155"/>
	<circle cx="765.547" cy="42.6038" r="4" fill="#0" id="circle156"/>
	<circle cx="765.547" cy="54.3019" r="4" fill="#0" id="circle157"/>
	<circle cx="765.547" cy="66" r="4" fill="#0" id="circle158"/>
	<circle cx="765.547" cy="77.6981" r="4" fill="#0" id="circle159"/>
	<circle cx="766.717" cy="379.509" r="4" fill="#0" id="circle160"/>
	<circle cx="770.226" cy="89.3962" r="4" fill="#0" id="circle161"/>
	<circle cx="771.396" cy="101.094" r="4" fill="#0" id="circle162"/>
	<circle cx="771.396" cy="112.792" r="4" fill="#0" id="circle163"/>
	<circle cx="776.075" cy="386.528" r="4" fill="#0" id="circle164"/>
	<circle cx="777.245" cy="123.321" r="4" fill="#0" id="circle165"/>
	<circle cx="781.925" cy="397.057" r="4" fill="#0" id="circle166"/>
	<circle cx="784.264" cy="132.679" r="4" fill="#0" id="circle167"/>
	<circle cx="792.453" cy="402.906" r="4" fill="#0" id="circle168"/>
	<circle cx="793.623" cy="140.868" r="4" fill="#0" id="circle169"/>
	<circle cx="802.981" cy="408.755" r="4" fill="#0" id="circle170"/>
	<circle cx="804.151" cy="146.717" r="4" fill="#0" id="circle171"/>
	<circle cx="814.679" cy="408.755" r="4" fill="#0" id="circle172"/>
	<circle cx="815.849" cy="151.396" r="4" fill="#0" id="circle173"/>
	<circle cx="826.377" cy="408.755" r="4" fill="#0" id="circle174"/>
	<circle cx="827.547" cy="156.075" r="4" fill="#0" id="circle175"/>
	<circle cx="838.075" cy="408.755" r="4" fill="#0" id="circle176"/>
	<circle cx="839.245" cy="156.075" r="4" fill="#0" id="circle177"/>
	<circle cx="849.774" cy="161.925" r="4" fill="#0" id="circle178"/>
	<circle cx="849.774" cy="408.755" r="4" fill="#0" id="circle179"/>
	<circle cx="861.472" cy="161.925" r="4" fill="#0" id="circle180"/>
	<circle cx="861.472" cy="408.755" r="4" fill="#0" id="circle181"/>
	<circle cx="872" cy="167.774" r="4" fill="#0" id="circle182"/>
	<circle cx="872" cy="402.906" r="4" fill="#0" id="circle183"/>
	<circle cx="882.528" cy="397.057" r="4" fill="#0" id="circle184"/>
	<circle cx="883.698" cy="167.774" r="4" fill="#0" id="circle185"/>
	<circle cx="888.377" cy="385.358" r="4" fill="#0" id="circle186"/>
	<circle cx="894.226" cy="373.66" r="4" fill="#0" id="circle187"/>
	<circle cx="895.396" cy="167.774" r="4" fill="#0" id="circle188"/>
	<circle cx="900.075" cy="361.962" r="4" fill="#0" id="circle189"/>
	<circle cx="905.925" cy="344.415" r="4" fill="#0" id="circle190"/>
	<circle cx="907.094" cy="167.774" r="4" fill="#0" id="circle191"/>
	<circle cx="917.623" cy="338.566" r="4" fill="#0" id="circle192"/>
	<circle cx="918.792" cy="167.774" r="4" fill="#0" id="circle193"/>
	<circle cx="929.321" cy="338.566" r="4" fill="#0" id="circle194"/>
	<circle cx="930.491" cy="167.774" r="4" fill="#0" id="circle195"/>
	<circle cx="938.679" cy="330.377" r="4" fill="#0" id="circle196"/>
	<circle cx="941.019" cy="173.623" r="4" fill="#0" id="circle197"/>
	<circle cx="946.868" cy="315.17" r="4" fill="#0" id="circle198"/>
	<circle cx="950.377" cy="180.642" r="4" fill="#0" id="circle199"/>
	<circle cx="952.717" cy="192.34" r="4" fill="#0" id="circle200"/>
	<circle cx="956.226" cy="306.981" r="4" fill="#0" id="circle201"/>
	<circle cx="962.075" cy="199.358" r="4" fill="#0" id="circle202"/>
	<circle cx="962.075" cy="295.283" r="4" fill="#0" id="circle203"/>
	<circle cx="964.415" cy="280.075" r="4" fill="#0" id="circle204"/>
	<circle cx="970.264" cy="268.377" r="4" fill="#0" id="circle205"/>
	<circle cx="973.774" cy="204.038" r="4" fill="#0" id="circle206"/>
	<circle cx="980.792" cy="262.528" r="4" fill="#0" id="circle207"/>
	<circle cx="984.302" cy="209.887" r="4" fill="#0" id="circle208"/>
	<circle cx="990.151" cy="220.415" r="4" fill="#0" id="circle209"/>
	<circle cx="990.151" cy="255.509" r="4" fill="#0" id="circle210"/>
	<circle cx="993.66" cy="232.113" r="4" fill="#0" id="circle211"/>
	<circle cx="996" cy="243.811" r="4" fill="#0" id="circle212"/>
	</g>
</svg>