<?xml version="1.0" encoding="UTF-8" standalone="no"?>
<!-- Created with CurveBenchmark -->
<svg
	xmlns:dc="http://purl.org/dc/elements/1.1/"
	xmlns:cc="http://creativecommons.org/ns#"
	xmlns:rdf="http://www.w3.org/1999/02/22-rdf-syntax-ns#"
	xmlns:svg="http://www.w3.org/2000/svg"
	xmlns="http://www.w3.org/2000/svg"
	xmlns:sodipodi="http://sodipodi.sourceforge.net/DTD/sodipodi-0.dtd"
	xmlns:inkscape="http://www.inkscape.org/namespaces/inkscape"
	width="1000"
	height="1000"
	id="svg2"
	version="1.1"
	sodipodi:docname="manifold/nncrust-fish300.png.txt">
<defs
	id="defs4" />
<metadata
	id="metadata7">
	<rdf:RDF>
		<cc:Work
			rdf:about="">
			<dc:format>image/svg+xml</dc:format>
			<dc:type
				rdf:resource="http://purl.org/dc/dcmitype/StillImage" />
			<dc:title></dc:title>
		</cc:Work>
	</rdf:RDF>
</metadata>
<g
	inkscape:label="Layer 1"
	inkscape:groupmode="layer"
	id="layer1">
	<path style="fill:none;stroke:red;stroke-width:1px;stroke-linecap:butt;stroke-linejoin:miter;stroke-opacity:1" d="M 78.6667,281.333 132,260 z" id="boundary" inkscape:connector-curvature="0" />
	<path style="fill:none;stroke:red;stroke-width:1px;stroke-linecap:butt;stroke-linejoin:miter;stroke-opacity:1" d="M 46.6667,324 78.6667,281.333 z" id="boundary" inkscape:connector-curvature="0" />
	<path style="fill:none;stroke:red;stroke-width:1px;stroke-linecap:butt;stroke-linejoin:miter;stroke-opacity:1" d="M 185.333,238.667 132,260 z" id="boundary" inkscape:connector-curvature="0" />
	<path style="fill:none;stroke:red;stroke-width:1px;stroke-linecap:butt;stroke-linejoin:miter;stroke-opacity:1" d="M 4,441.333 4,388 z" id="boundary" inkscape:connector-curvature="0" />
	<path style="fill:none;stroke:red;stroke-width:1px;stroke-linecap:butt;stroke-linejoin:miter;stroke-opacity:1" d="M 4,388 46.6667,324 z" id="boundary" inkscape:connector-curvature="0" />
	<path style="fill:none;stroke:red;stroke-width:1px;stroke-linecap:butt;stroke-linejoin:miter;stroke-opacity:1" d="M 20,494.667 4,441.333 z" id="boundary" inkscape:connector-curvature="0" />
	<path style="fill:none;stroke:red;stroke-width:1px;stroke-linecap:butt;stroke-linejoin:miter;stroke-opacity:1" d="M 345.333,46.6667 377.333,4 z" id="boundary" inkscape:connector-curvature="0" />
	<path style="fill:none;stroke:red;stroke-width:1px;stroke-linecap:butt;stroke-linejoin:miter;stroke-opacity:1" d="M 377.333,4 425.333,30.6667 z" id="boundary" inkscape:connector-curvature="0" />
	<path style="fill:none;stroke:red;stroke-width:1px;stroke-linecap:butt;stroke-linejoin:miter;stroke-opacity:1" d="M 313.333,100 345.333,46.6667 z" id="boundary" inkscape:connector-curvature="0" />
	<path style="fill:none;stroke:red;stroke-width:1px;stroke-linecap:butt;stroke-linejoin:miter;stroke-opacity:1" d="M 473.333,57.3333 425.333,30.6667 z" id="boundary" inkscape:connector-curvature="0" />
	<path style="fill:none;stroke:red;stroke-width:1px;stroke-linecap:butt;stroke-linejoin:miter;stroke-opacity:1" d="M 185.333,238.667 233.333,212 z" id="boundary" inkscape:connector-curvature="0" />
	<path style="fill:none;stroke:red;stroke-width:1px;stroke-linecap:butt;stroke-linejoin:miter;stroke-opacity:1" d="M 286.667,196 233.333,212 z" id="boundary" inkscape:connector-curvature="0" />
	<path style="fill:none;stroke:red;stroke-width:1px;stroke-linecap:butt;stroke-linejoin:miter;stroke-opacity:1" d="M 313.333,100 286.667,196 z" id="boundary" inkscape:connector-curvature="0" />
	<path style="fill:none;stroke:red;stroke-width:1px;stroke-linecap:butt;stroke-linejoin:miter;stroke-opacity:1" d="M 473.333,57.3333 516,89.3333 z" id="boundary" inkscape:connector-curvature="0" />
	<path style="fill:none;stroke:red;stroke-width:1px;stroke-linecap:butt;stroke-linejoin:miter;stroke-opacity:1" d="M 41.3333,548 73.3333,590.667 z" id="boundary" inkscape:connector-curvature="0" />
	<path style="fill:none;stroke:red;stroke-width:1px;stroke-linecap:butt;stroke-linejoin:miter;stroke-opacity:1" d="M 121.333,617.333 73.3333,590.667 z" id="boundary" inkscape:connector-curvature="0" />
	<path style="fill:none;stroke:red;stroke-width:1px;stroke-linecap:butt;stroke-linejoin:miter;stroke-opacity:1" d="M 121.333,617.333 174.667,633.333 z" id="boundary" inkscape:connector-curvature="0" />
	<path style="fill:none;stroke:red;stroke-width:1px;stroke-linecap:butt;stroke-linejoin:miter;stroke-opacity:1" d="M 41.3333,548 20,494.667 z" id="boundary" inkscape:connector-curvature="0" />
	<path style="fill:none;stroke:red;stroke-width:1px;stroke-linecap:butt;stroke-linejoin:miter;stroke-opacity:1" d="M 222.667,660 174.667,633.333 z" id="boundary" inkscape:connector-curvature="0" />
	<path style="fill:none;stroke:red;stroke-width:1px;stroke-linecap:butt;stroke-linejoin:miter;stroke-opacity:1" d="M 238.667,713.333 238.667,766.667 z" id="boundary" inkscape:connector-curvature="0" />
	<path style="fill:none;stroke:red;stroke-width:1px;stroke-linecap:butt;stroke-linejoin:miter;stroke-opacity:1" d="M 238.667,713.333 222.667,660 z" id="boundary" inkscape:connector-curvature="0" />
	<path style="fill:none;stroke:red;stroke-width:1px;stroke-linecap:butt;stroke-linejoin:miter;stroke-opacity:1" d="M 382.667,729.333 238.667,713.333 z" id="boundary" inkscape:connector-curvature="0" />
	<path style="fill:none;stroke:red;stroke-width:1px;stroke-linecap:butt;stroke-linejoin:miter;stroke-opacity:1" d="M 238.667,766.667 238.667,820 z" id="boundary" inkscape:connector-curvature="0" />
	<path style="fill:none;stroke:red;stroke-width:1px;stroke-linecap:butt;stroke-linejoin:miter;stroke-opacity:1" d="M 238.667,820 265.333,868 z" id="boundary" inkscape:connector-curvature="0" />
	<path style="fill:none;stroke:red;stroke-width:1px;stroke-linecap:butt;stroke-linejoin:miter;stroke-opacity:1" d="M 350.667,793.333 382.667,729.333 z" id="boundary" inkscape:connector-curvature="0" />
	<path style="fill:none;stroke:red;stroke-width:1px;stroke-linecap:butt;stroke-linejoin:miter;stroke-opacity:1" d="M 382.667,729.333 425.333,766.667 z" id="boundary" inkscape:connector-curvature="0" />
	<path style="fill:none;stroke:red;stroke-width:1px;stroke-linecap:butt;stroke-linejoin:miter;stroke-opacity:1" d="M 350.667,793.333 318.667,846.667 z" id="boundary" inkscape:connector-curvature="0" />
	<path style="fill:none;stroke:red;stroke-width:1px;stroke-linecap:butt;stroke-linejoin:miter;stroke-opacity:1" d="M 462.667,809.333 425.333,766.667 z" id="boundary" inkscape:connector-curvature="0" />
	<path style="fill:none;stroke:red;stroke-width:1px;stroke-linecap:butt;stroke-linejoin:miter;stroke-opacity:1" d="M 382.667,729.333 521.333,676 z" id="boundary" inkscape:connector-curvature="0" />
	<path style="fill:none;stroke:red;stroke-width:1px;stroke-linecap:butt;stroke-linejoin:miter;stroke-opacity:1" d="M 265.333,868 318.667,846.667 z" id="boundary" inkscape:connector-curvature="0" />
	<path style="fill:none;stroke:red;stroke-width:1px;stroke-linecap:butt;stroke-linejoin:miter;stroke-opacity:1" d="M 462.667,809.333 505.333,846.667 z" id="boundary" inkscape:connector-curvature="0" />
	<path style="fill:none;stroke:red;stroke-width:1px;stroke-linecap:butt;stroke-linejoin:miter;stroke-opacity:1" d="M 564,777.333 505.333,846.667 z" id="boundary" inkscape:connector-curvature="0" />
	<path style="fill:none;stroke:red;stroke-width:1px;stroke-linecap:butt;stroke-linejoin:miter;stroke-opacity:1" d="M 505.333,846.667 553.333,873.333 z" id="boundary" inkscape:connector-curvature="0" />
	<path style="fill:none;stroke:red;stroke-width:1px;stroke-linecap:butt;stroke-linejoin:miter;stroke-opacity:1" d="M 521.333,676 548,724 z" id="boundary" inkscape:connector-curvature="0" />
	<path style="fill:none;stroke:red;stroke-width:1px;stroke-linecap:butt;stroke-linejoin:miter;stroke-opacity:1" d="M 516,89.3333 553.333,132 z" id="boundary" inkscape:connector-curvature="0" />
	<path style="fill:none;stroke:red;stroke-width:1px;stroke-linecap:butt;stroke-linejoin:miter;stroke-opacity:1" d="M 574.667,660 521.333,676 z" id="boundary" inkscape:connector-curvature="0" />
	<path style="fill:none;stroke:red;stroke-width:1px;stroke-linecap:butt;stroke-linejoin:miter;stroke-opacity:1" d="M 585.333,174.667 553.333,132 z" id="boundary" inkscape:connector-curvature="0" />
	<path style="fill:none;stroke:red;stroke-width:1px;stroke-linecap:butt;stroke-linejoin:miter;stroke-opacity:1" d="M 638.667,158.667 585.333,174.667 z" id="boundary" inkscape:connector-curvature="0" />
	<path style="fill:none;stroke:red;stroke-width:1px;stroke-linecap:butt;stroke-linejoin:miter;stroke-opacity:1" d="M 692,153.333 638.667,158.667 z" id="boundary" inkscape:connector-curvature="0" />
	<path style="fill:none;stroke:red;stroke-width:1px;stroke-linecap:butt;stroke-linejoin:miter;stroke-opacity:1" d="M 692,153.333 729.333,196 z" id="boundary" inkscape:connector-curvature="0" />
	<path style="fill:none;stroke:red;stroke-width:1px;stroke-linecap:butt;stroke-linejoin:miter;stroke-opacity:1" d="M 729.333,196 756,244 z" id="boundary" inkscape:connector-curvature="0" />
	<path style="fill:none;stroke:red;stroke-width:1px;stroke-linecap:butt;stroke-linejoin:miter;stroke-opacity:1" d="M 809.333,340 782.667,292 z" id="boundary" inkscape:connector-curvature="0" />
	<path style="fill:none;stroke:red;stroke-width:1px;stroke-linecap:butt;stroke-linejoin:miter;stroke-opacity:1" d="M 852,308 809.333,340 z" id="boundary" inkscape:connector-curvature="0" />
	<path style="fill:none;stroke:red;stroke-width:1px;stroke-linecap:butt;stroke-linejoin:miter;stroke-opacity:1" d="M 782.667,292 756,244 z" id="boundary" inkscape:connector-curvature="0" />
	<path style="fill:none;stroke:red;stroke-width:1px;stroke-linecap:butt;stroke-linejoin:miter;stroke-opacity:1" d="M 809.333,340 798.667,526.667 z" id="boundary" inkscape:connector-curvature="0" />
	<path style="fill:none;stroke:red;stroke-width:1px;stroke-linecap:butt;stroke-linejoin:miter;stroke-opacity:1" d="M 894.667,265.333 942.667,238.667 z" id="boundary" inkscape:connector-curvature="0" />
	<path style="fill:none;stroke:red;stroke-width:1px;stroke-linecap:butt;stroke-linejoin:miter;stroke-opacity:1" d="M 996,233.333 990.667,302.667 z" id="boundary" inkscape:connector-curvature="0" />
	<path style="fill:none;stroke:red;stroke-width:1px;stroke-linecap:butt;stroke-linejoin:miter;stroke-opacity:1" d="M 942.667,238.667 996,233.333 z" id="boundary" inkscape:connector-curvature="0" />
	<path style="fill:none;stroke:red;stroke-width:1px;stroke-linecap:butt;stroke-linejoin:miter;stroke-opacity:1" d="M 990.667,302.667 980,366.667 z" id="boundary" inkscape:connector-curvature="0" />
	<path style="fill:none;stroke:red;stroke-width:1px;stroke-linecap:butt;stroke-linejoin:miter;stroke-opacity:1" d="M 980,366.667 980,420 z" id="boundary" inkscape:connector-curvature="0" />
	<path style="fill:none;stroke:red;stroke-width:1px;stroke-linecap:butt;stroke-linejoin:miter;stroke-opacity:1" d="M 852,308 894.667,265.333 z" id="boundary" inkscape:connector-curvature="0" />
	<path style="fill:none;stroke:red;stroke-width:1px;stroke-linecap:butt;stroke-linejoin:miter;stroke-opacity:1" d="M 990.667,526.667 980,473.333 z" id="boundary" inkscape:connector-curvature="0" />
	<path style="fill:none;stroke:red;stroke-width:1px;stroke-linecap:butt;stroke-linejoin:miter;stroke-opacity:1" d="M 980,473.333 980,420 z" id="boundary" inkscape:connector-curvature="0" />
	<path style="fill:none;stroke:red;stroke-width:1px;stroke-linecap:butt;stroke-linejoin:miter;stroke-opacity:1" d="M 574.667,660 628,654.667 z" id="boundary" inkscape:connector-curvature="0" />
	<path style="fill:none;stroke:red;stroke-width:1px;stroke-linecap:butt;stroke-linejoin:miter;stroke-opacity:1" d="M 788,580 777.333,633.333 z" id="boundary" inkscape:connector-curvature="0" />
	<path style="fill:none;stroke:red;stroke-width:1px;stroke-linecap:butt;stroke-linejoin:miter;stroke-opacity:1" d="M 777.333,633.333 729.333,692 z" id="boundary" inkscape:connector-curvature="0" />
	<path style="fill:none;stroke:red;stroke-width:1px;stroke-linecap:butt;stroke-linejoin:miter;stroke-opacity:1" d="M 729.333,692 676,681.333 z" id="boundary" inkscape:connector-curvature="0" />
	<path style="fill:none;stroke:red;stroke-width:1px;stroke-linecap:butt;stroke-linejoin:miter;stroke-opacity:1" d="M 676,681.333 628,654.667 z" id="boundary" inkscape:connector-curvature="0" />
	<path style="fill:none;stroke:red;stroke-width:1px;stroke-linecap:butt;stroke-linejoin:miter;stroke-opacity:1" d="M 548,724 564,777.333 z" id="boundary" inkscape:connector-curvature="0" />
	<path style="fill:none;stroke:red;stroke-width:1px;stroke-linecap:butt;stroke-linejoin:miter;stroke-opacity:1" d="M 729.333,692 553.333,873.333 z" id="boundary" inkscape:connector-curvature="0" />
	<path style="fill:none;stroke:red;stroke-width:1px;stroke-linecap:butt;stroke-linejoin:miter;stroke-opacity:1" d="M 788,580 798.667,526.667 z" id="boundary" inkscape:connector-curvature="0" />
	<path style="fill:none;stroke:red;stroke-width:1px;stroke-linecap:butt;stroke-linejoin:miter;stroke-opacity:1" d="M 798.667,526.667 841.333,558.667 z" id="boundary" inkscape:connector-curvature="0" />
	<path style="fill:none;stroke:red;stroke-width:1px;stroke-linecap:butt;stroke-linejoin:miter;stroke-opacity:1" d="M 841.333,558.667 884,596 z" id="boundary" inkscape:connector-curvature="0" />
	<path style="fill:none;stroke:red;stroke-width:1px;stroke-linecap:butt;stroke-linejoin:miter;stroke-opacity:1" d="M 884,596 926.667,628 z" id="boundary" inkscape:connector-curvature="0" />
	<path style="fill:none;stroke:red;stroke-width:1px;stroke-linecap:butt;stroke-linejoin:miter;stroke-opacity:1" d="M 996,580 980,638.667 z" id="boundary" inkscape:connector-curvature="0" />
	<path style="fill:none;stroke:red;stroke-width:1px;stroke-linecap:butt;stroke-linejoin:miter;stroke-opacity:1" d="M 980,638.667 926.667,628 z" id="boundary" inkscape:connector-curvature="0" />
	<path style="fill:none;stroke:red;stroke-width:1px;stroke-linecap:butt;stroke-linejoin:miter;stroke-opacity:1" d="M 990.667,526.667 996,580 z" id="boundary" inkscape:connector-curvature="0" />
	<circle cx="4" cy="388" r="4" fill="#0" id="circle0"/>
	<circle cx="4" cy="441.333" r="4" fill="#0" id="circle1"/>
	<circle cx="20" cy="494.667" r="4" fill="#0" id="circle2"/>
	<circle cx="41.3333" cy="548" r="4" fill="#0" id="circle3"/>
	<circle cx="46.6667" cy="324" r="4" fill="#0" id="circle4"/>
	<circle cx="73.3333" cy="590.667" r="4" fill="#0" id="circle5"/>
	<circle cx="78.6667" cy="281.333" r="4" fill="#0" id="circle6"/>
	<circle cx="121.333" cy="617.333" r="4" fill="#0" id="circle7"/>
	<circle cx="132" cy="260" r="4" fill="#0" id="circle8"/>
	<circle cx="174.667" cy="633.333" r="4" fill="#0" id="circle9"/>
	<circle cx="185.333" cy="238.667" r="4" fill="#0" id="circle10"/>
	<circle cx="222.667" cy="660" r="4" fill="#0" id="circle11"/>
	<circle cx="233.333" cy="212" r="4" fill="#0" id="circle12"/>
	<circle cx="238.667" cy="713.333" r="4" fill="#0" id="circle13"/>
	<circle cx="238.667" cy="766.667" r="4" fill="#0" id="circle14"/>
	<circle cx="238.667" cy="820" r="4" fill="#0" id="circle15"/>
	<circle cx="265.333" cy="868" r="4" fill="#0" id="circle16"/>
	<circle cx="286.667" cy="196" r="4" fill="#0" id="circle17"/>
	<circle cx="313.333" cy="100" r="4" fill="#0" id="circle18"/>
	<circle cx="318.667" cy="846.667" r="4" fill="#0" id="circle19"/>
	<circle cx="345.333" cy="46.6667" r="4" fill="#0" id="circle20"/>
	<circle cx="350.667" cy="793.333" r="4" fill="#0" id="circle21"/>
	<circle cx="377.333" cy="4" r="4" fill="#0" id="circle22"/>
	<circle cx="382.667" cy="729.333" r="4" fill="#0" id="circle23"/>
	<circle cx="425.333" cy="30.6667" r="4" fill="#0" id="circle24"/>
	<circle cx="425.333" cy="766.667" r="4" fill="#0" id="circle25"/>
	<circle cx="462.667" cy="809.333" r="4" fill="#0" id="circle26"/>
	<circle cx="473.333" cy="57.3333" r="4" fill="#0" id="circle27"/>
	<circle cx="505.333" cy="846.667" r="4" fill="#0" id="circle28"/>
	<circle cx="516" cy="89.3333" r="4" fill="#0" id="circle29"/>
	<circle cx="521.333" cy="676" r="4" fill="#0" id="circle30"/>
	<circle cx="548" cy="724" r="4" fill="#0" id="circle31"/>
	<circle cx="553.333" cy="132" r="4" fill="#0" id="circle32"/>
	<circle cx="553.333" cy="873.333" r="4" fill="#0" id="circle33"/>
	<circle cx="564" cy="777.333" r="4" fill="#0" id="circle34"/>
	<circle cx="574.667" cy="660" r="4" fill="#0" id="circle35"/>
	<circle cx="585.333" cy="174.667" r="4" fill="#0" id="circle36"/>
	<circle cx="628" cy="654.667" r="4" fill="#0" id="circle37"/>
	<circle cx="638.667" cy="158.667" r="4" fill="#0" id="circle38"/>
	<circle cx="676" cy="681.333" r="4" fill="#0" id="circle39"/>
	<circle cx="692" cy="153.333" r="4" fill="#0" id="circle40"/>
	<circle cx="729.333" cy="196" r="4" fill="#0" id="circle41"/>
	<circle cx="729.333" cy="692" r="4" fill="#0" id="circle42"/>
	<circle cx="756" cy="244" r="4" fill="#0" id="circle43"/>
	<circle cx="777.333" cy="633.333" r="4" fill="#0" id="circle44"/>
	<circle cx="782.667" cy="292" r="4" fill="#0" id="circle45"/>
	<circle cx="788" cy="580" r="4" fill="#0" id="circle46"/>
	<circle cx="798.667" cy="526.667" r="4" fill="#0" id="circle47"/>
	<circle cx="809.333" cy="340" r="4" fill="#0" id="circle48"/>
	<circle cx="841.333" cy="558.667" r="4" fill="#0" id="circle49"/>
	<circle cx="852" cy="308" r="4" fill="#0" id="circle50"/>
	<circle cx="884" cy="596" r="4" fill="#0" id="circle51"/>
	<circle cx="894.667" cy="265.333" r="4" fill="#0" id="circle52"/>
	<circle cx="926.667" cy="628" r="4" fill="#0" id="circle53"/>
	<circle cx="942.667" cy="238.667" r="4" fill="#0" id="circle54"/>
	<circle cx="980" cy="366.667" r="4" fill="#0" id="circle55"/>
	<circle cx="980" cy="420" r="4" fill="#0" id="circle56"/>
	<circle cx="980" cy="473.333" r="4" fill="#0" id="circle57"/>
	<circle cx="980" cy="638.667" r="4" fill="#0" id="circle58"/>
	<circle cx="990.667" cy="302.667" r="4" fill="#0" id="circle59"/>
	<circle cx="990.667" cy="526.667" r="4" fill="#0" id="circle60"/>
	<circle cx="996" cy="233.333" r="4" fill="#0" id="circle61"/>
	<circle cx="996" cy="580" r="4" fill="#0" id="circle62"/>
	</g>
</svg>