<?xml version="1.0" encoding="UTF-8" standalone="no"?>
<!-- Created with CurveBenchmark -->
<svg
	xmlns:dc="http://purl.org/dc/elements/1.1/"
	xmlns:cc="http://creativecommons.org/ns#"
	xmlns:rdf="http://www.w3.org/1999/02/22-rdf-syntax-ns#"
	xmlns:svg="http://www.w3.org/2000/svg"
	xmlns="http://www.w3.org/2000/svg"
	xmlns:sodipodi="http://sodipodi.sourceforge.net/DTD/sodipodi-0.dtd"
	xmlns:inkscape="http://www.inkscape.org/namespaces/inkscape"
	width="1000"
	height="1000"
	id="svg2"
	version="1.1"
	sodipodi:docname="manifold/nncrust-kitchenknifebinary23.png.txt">
<defs
	id="defs4" />
<metadata
	id="metadata7">
	<rdf:RDF>
		<cc:Work
			rdf:about="">
			<dc:format>image/svg+xml</dc:format>
			<dc:type
				rdf:resource="http://purl.org/dc/dcmitype/StillImage" />
			<dc:title></dc:title>
		</cc:Work>
	</rdf:RDF>
</metadata>
<g
	inkscape:label="Layer 1"
	inkscape:groupmode="layer"
	id="layer1">
	<path style="fill:none;stroke:red;stroke-width:1px;stroke-linecap:butt;stroke-linejoin:miter;stroke-opacity:1" d="M 49.0191,35.5924 56.9172,33.2229 z" id="boundary" inkscape:connector-curvature="0" />
	<path style="fill:none;stroke:red;stroke-width:1px;stroke-linecap:butt;stroke-linejoin:miter;stroke-opacity:1" d="M 64.8153,33.2229 71.1338,37.9618 z" id="boundary" inkscape:connector-curvature="0" />
	<path style="fill:none;stroke:red;stroke-width:1px;stroke-linecap:butt;stroke-linejoin:miter;stroke-opacity:1" d="M 56.9172,33.2229 64.8153,33.2229 z" id="boundary" inkscape:connector-curvature="0" />
	<path style="fill:none;stroke:red;stroke-width:1px;stroke-linecap:butt;stroke-linejoin:miter;stroke-opacity:1" d="M 71.1338,37.9618 77.4522,42.7006 z" id="boundary" inkscape:connector-curvature="0" />
	<path style="fill:none;stroke:red;stroke-width:1px;stroke-linecap:butt;stroke-linejoin:miter;stroke-opacity:1" d="M 34.0127,42.7006 41.121,38.7516 z" id="boundary" inkscape:connector-curvature="0" />
	<path style="fill:none;stroke:red;stroke-width:1px;stroke-linecap:butt;stroke-linejoin:miter;stroke-opacity:1" d="M 34.0127,42.7006 26.1146,45.8599 z" id="boundary" inkscape:connector-curvature="0" />
	<path style="fill:none;stroke:red;stroke-width:1px;stroke-linecap:butt;stroke-linejoin:miter;stroke-opacity:1" d="M 180.127,41.9108 172.229,42.7006 z" id="boundary" inkscape:connector-curvature="0" />
	<path style="fill:none;stroke:red;stroke-width:1px;stroke-linecap:butt;stroke-linejoin:miter;stroke-opacity:1" d="M 41.121,38.7516 49.0191,35.5924 z" id="boundary" inkscape:connector-curvature="0" />
	<path style="fill:none;stroke:red;stroke-width:1px;stroke-linecap:butt;stroke-linejoin:miter;stroke-opacity:1" d="M 85.3503,45.8599 77.4522,42.7006 z" id="boundary" inkscape:connector-curvature="0" />
	<path style="fill:none;stroke:red;stroke-width:1px;stroke-linecap:butt;stroke-linejoin:miter;stroke-opacity:1" d="M 219.618,34.8025 227.516,32.4331 z" id="boundary" inkscape:connector-curvature="0" />
	<path style="fill:none;stroke:red;stroke-width:1px;stroke-linecap:butt;stroke-linejoin:miter;stroke-opacity:1" d="M 227.516,32.4331 235.414,32.4331 z" id="boundary" inkscape:connector-curvature="0" />
	<path style="fill:none;stroke:red;stroke-width:1px;stroke-linecap:butt;stroke-linejoin:miter;stroke-opacity:1" d="M 243.312,32.4331 235.414,32.4331 z" id="boundary" inkscape:connector-curvature="0" />
	<path style="fill:none;stroke:red;stroke-width:1px;stroke-linecap:butt;stroke-linejoin:miter;stroke-opacity:1" d="M 251.21,30.8535 243.312,32.4331 z" id="boundary" inkscape:connector-curvature="0" />
	<path style="fill:none;stroke:red;stroke-width:1px;stroke-linecap:butt;stroke-linejoin:miter;stroke-opacity:1" d="M 211.72,37.172 219.618,34.8025 z" id="boundary" inkscape:connector-curvature="0" />
	<path style="fill:none;stroke:red;stroke-width:1px;stroke-linecap:butt;stroke-linejoin:miter;stroke-opacity:1" d="M 188.025,41.121 195.924,37.9618 z" id="boundary" inkscape:connector-curvature="0" />
	<path style="fill:none;stroke:red;stroke-width:1px;stroke-linecap:butt;stroke-linejoin:miter;stroke-opacity:1" d="M 195.924,37.9618 203.822,37.9618 z" id="boundary" inkscape:connector-curvature="0" />
	<path style="fill:none;stroke:red;stroke-width:1px;stroke-linecap:butt;stroke-linejoin:miter;stroke-opacity:1" d="M 188.025,41.121 180.127,41.9108 z" id="boundary" inkscape:connector-curvature="0" />
	<path style="fill:none;stroke:red;stroke-width:1px;stroke-linecap:butt;stroke-linejoin:miter;stroke-opacity:1" d="M 211.72,37.172 203.822,37.9618 z" id="boundary" inkscape:connector-curvature="0" />
	<path style="fill:none;stroke:red;stroke-width:1px;stroke-linecap:butt;stroke-linejoin:miter;stroke-opacity:1" d="M 19.0064,49.8089 26.1146,45.8599 z" id="boundary" inkscape:connector-curvature="0" />
	<path style="fill:none;stroke:red;stroke-width:1px;stroke-linecap:butt;stroke-linejoin:miter;stroke-opacity:1" d="M 101.146,49.0191 93.2484,48.2293 z" id="boundary" inkscape:connector-curvature="0" />
	<path style="fill:none;stroke:red;stroke-width:1px;stroke-linecap:butt;stroke-linejoin:miter;stroke-opacity:1" d="M 93.2484,48.2293 85.3503,45.8599 z" id="boundary" inkscape:connector-curvature="0" />
	<path style="fill:none;stroke:red;stroke-width:1px;stroke-linecap:butt;stroke-linejoin:miter;stroke-opacity:1" d="M 4,65.6051 4,57.707 z" id="boundary" inkscape:connector-curvature="0" />
	<path style="fill:none;stroke:red;stroke-width:1px;stroke-linecap:butt;stroke-linejoin:miter;stroke-opacity:1" d="M 4,57.707 11.1083,52.9682 z" id="boundary" inkscape:connector-curvature="0" />
	<path style="fill:none;stroke:red;stroke-width:1px;stroke-linecap:butt;stroke-linejoin:miter;stroke-opacity:1" d="M 11.1083,52.9682 19.0064,49.8089 z" id="boundary" inkscape:connector-curvature="0" />
	<path style="fill:none;stroke:red;stroke-width:1px;stroke-linecap:butt;stroke-linejoin:miter;stroke-opacity:1" d="M 101.146,49.0191 109.045,50.5987 z" id="boundary" inkscape:connector-curvature="0" />
	<path style="fill:none;stroke:red;stroke-width:1px;stroke-linecap:butt;stroke-linejoin:miter;stroke-opacity:1" d="M 116.943,50.5987 109.045,50.5987 z" id="boundary" inkscape:connector-curvature="0" />
	<path style="fill:none;stroke:red;stroke-width:1px;stroke-linecap:butt;stroke-linejoin:miter;stroke-opacity:1" d="M 156.433,46.6497 148.535,46.6497 z" id="boundary" inkscape:connector-curvature="0" />
	<path style="fill:none;stroke:red;stroke-width:1px;stroke-linecap:butt;stroke-linejoin:miter;stroke-opacity:1" d="M 164.331,45.8599 172.229,42.7006 z" id="boundary" inkscape:connector-curvature="0" />
	<path style="fill:none;stroke:red;stroke-width:1px;stroke-linecap:butt;stroke-linejoin:miter;stroke-opacity:1" d="M 164.331,45.8599 156.433,46.6497 z" id="boundary" inkscape:connector-curvature="0" />
	<path style="fill:none;stroke:red;stroke-width:1px;stroke-linecap:butt;stroke-linejoin:miter;stroke-opacity:1" d="M 148.535,46.6497 140.637,47.4395 z" id="boundary" inkscape:connector-curvature="0" />
	<path style="fill:none;stroke:red;stroke-width:1px;stroke-linecap:butt;stroke-linejoin:miter;stroke-opacity:1" d="M 116.943,50.5987 124.841,49.8089 z" id="boundary" inkscape:connector-curvature="0" />
	<path style="fill:none;stroke:red;stroke-width:1px;stroke-linecap:butt;stroke-linejoin:miter;stroke-opacity:1" d="M 132.739,50.5987 140.637,47.4395 z" id="boundary" inkscape:connector-curvature="0" />
	<path style="fill:none;stroke:red;stroke-width:1px;stroke-linecap:butt;stroke-linejoin:miter;stroke-opacity:1" d="M 132.739,50.5987 124.841,49.8089 z" id="boundary" inkscape:connector-curvature="0" />
	<path style="fill:none;stroke:red;stroke-width:1px;stroke-linecap:butt;stroke-linejoin:miter;stroke-opacity:1" d="M 251.21,30.8535 259.108,30.8535 z" id="boundary" inkscape:connector-curvature="0" />
	<path style="fill:none;stroke:red;stroke-width:1px;stroke-linecap:butt;stroke-linejoin:miter;stroke-opacity:1" d="M 267.006,30.0637 259.108,30.8535 z" id="boundary" inkscape:connector-curvature="0" />
	<path style="fill:none;stroke:red;stroke-width:1px;stroke-linecap:butt;stroke-linejoin:miter;stroke-opacity:1" d="M 274.904,30.8535 267.006,30.0637 z" id="boundary" inkscape:connector-curvature="0" />
	<path style="fill:none;stroke:red;stroke-width:1px;stroke-linecap:butt;stroke-linejoin:miter;stroke-opacity:1" d="M 282.803,30.8535 274.904,30.8535 z" id="boundary" inkscape:connector-curvature="0" />
	<path style="fill:none;stroke:red;stroke-width:1px;stroke-linecap:butt;stroke-linejoin:miter;stroke-opacity:1" d="M 282.803,30.8535 290.701,31.6433 z" id="boundary" inkscape:connector-curvature="0" />
	<path style="fill:none;stroke:red;stroke-width:1px;stroke-linecap:butt;stroke-linejoin:miter;stroke-opacity:1" d="M 298.599,31.6433 290.701,31.6433 z" id="boundary" inkscape:connector-curvature="0" />
	<path style="fill:none;stroke:red;stroke-width:1px;stroke-linecap:butt;stroke-linejoin:miter;stroke-opacity:1" d="M 298.599,31.6433 306.497,34.0127 z" id="boundary" inkscape:connector-curvature="0" />
	<path style="fill:none;stroke:red;stroke-width:1px;stroke-linecap:butt;stroke-linejoin:miter;stroke-opacity:1" d="M 314.395,34.8025 306.497,34.0127 z" id="boundary" inkscape:connector-curvature="0" />
	<path style="fill:none;stroke:red;stroke-width:1px;stroke-linecap:butt;stroke-linejoin:miter;stroke-opacity:1" d="M 462.089,16.6369 469.987,15.0573 z" id="boundary" inkscape:connector-curvature="0" />
	<path style="fill:none;stroke:red;stroke-width:1px;stroke-linecap:butt;stroke-linejoin:miter;stroke-opacity:1" d="M 469.987,15.0573 476.306,19.7962 z" id="boundary" inkscape:connector-curvature="0" />
	<path style="fill:none;stroke:red;stroke-width:1px;stroke-linecap:butt;stroke-linejoin:miter;stroke-opacity:1" d="M 480.255,11.8981 476.306,19.7962 z" id="boundary" inkscape:connector-curvature="0" />
	<path style="fill:none;stroke:red;stroke-width:1px;stroke-linecap:butt;stroke-linejoin:miter;stroke-opacity:1" d="M 488.153,11.8981 480.255,11.8981 z" id="boundary" inkscape:connector-curvature="0" />
	<path style="fill:none;stroke:red;stroke-width:1px;stroke-linecap:butt;stroke-linejoin:miter;stroke-opacity:1" d="M 496.051,11.1083 488.153,11.8981 z" id="boundary" inkscape:connector-curvature="0" />
	<path style="fill:none;stroke:red;stroke-width:1px;stroke-linecap:butt;stroke-linejoin:miter;stroke-opacity:1" d="M 488.153,11.8981 476.306,19.7962 z" id="boundary" inkscape:connector-curvature="0" />
	<path style="fill:none;stroke:red;stroke-width:1px;stroke-linecap:butt;stroke-linejoin:miter;stroke-opacity:1" d="M 432.866,34.8025 440.764,30.8535 z" id="boundary" inkscape:connector-curvature="0" />
	<path style="fill:none;stroke:red;stroke-width:1px;stroke-linecap:butt;stroke-linejoin:miter;stroke-opacity:1" d="M 448.662,28.4841 440.764,30.8535 z" id="boundary" inkscape:connector-curvature="0" />
	<path style="fill:none;stroke:red;stroke-width:1px;stroke-linecap:butt;stroke-linejoin:miter;stroke-opacity:1" d="M 455.771,23.7452 448.662,28.4841 z" id="boundary" inkscape:connector-curvature="0" />
	<path style="fill:none;stroke:red;stroke-width:1px;stroke-linecap:butt;stroke-linejoin:miter;stroke-opacity:1" d="M 455.771,23.7452 462.089,16.6369 z" id="boundary" inkscape:connector-curvature="0" />
	<path style="fill:none;stroke:red;stroke-width:1px;stroke-linecap:butt;stroke-linejoin:miter;stroke-opacity:1" d="M 494.471,90.879 486.573,90.0892 z" id="boundary" inkscape:connector-curvature="0" />
	<path style="fill:none;stroke:red;stroke-width:1px;stroke-linecap:butt;stroke-linejoin:miter;stroke-opacity:1" d="M 314.395,34.8025 322.293,34.8025 z" id="boundary" inkscape:connector-curvature="0" />
	<path style="fill:none;stroke:red;stroke-width:1px;stroke-linecap:butt;stroke-linejoin:miter;stroke-opacity:1" d="M 330.191,35.5924 338.089,35.5924 z" id="boundary" inkscape:connector-curvature="0" />
	<path style="fill:none;stroke:red;stroke-width:1px;stroke-linecap:butt;stroke-linejoin:miter;stroke-opacity:1" d="M 330.191,35.5924 322.293,34.8025 z" id="boundary" inkscape:connector-curvature="0" />
	<path style="fill:none;stroke:red;stroke-width:1px;stroke-linecap:butt;stroke-linejoin:miter;stroke-opacity:1" d="M 345.987,36.3822 353.885,36.3822 z" id="boundary" inkscape:connector-curvature="0" />
	<path style="fill:none;stroke:red;stroke-width:1px;stroke-linecap:butt;stroke-linejoin:miter;stroke-opacity:1" d="M 345.987,36.3822 338.089,35.5924 z" id="boundary" inkscape:connector-curvature="0" />
	<path style="fill:none;stroke:red;stroke-width:1px;stroke-linecap:butt;stroke-linejoin:miter;stroke-opacity:1" d="M 353.885,36.3822 361.783,37.172 z" id="boundary" inkscape:connector-curvature="0" />
	<path style="fill:none;stroke:red;stroke-width:1px;stroke-linecap:butt;stroke-linejoin:miter;stroke-opacity:1" d="M 369.682,39.5414 361.783,37.172 z" id="boundary" inkscape:connector-curvature="0" />
	<path style="fill:none;stroke:red;stroke-width:1px;stroke-linecap:butt;stroke-linejoin:miter;stroke-opacity:1" d="M 409.172,39.5414 417.07,37.9618 z" id="boundary" inkscape:connector-curvature="0" />
	<path style="fill:none;stroke:red;stroke-width:1px;stroke-linecap:butt;stroke-linejoin:miter;stroke-opacity:1" d="M 424.968,37.9618 432.866,34.8025 z" id="boundary" inkscape:connector-curvature="0" />
	<path style="fill:none;stroke:red;stroke-width:1px;stroke-linecap:butt;stroke-linejoin:miter;stroke-opacity:1" d="M 424.968,37.9618 417.07,37.9618 z" id="boundary" inkscape:connector-curvature="0" />
	<path style="fill:none;stroke:red;stroke-width:1px;stroke-linecap:butt;stroke-linejoin:miter;stroke-opacity:1" d="M 377.58,41.121 385.478,40.3312 z" id="boundary" inkscape:connector-curvature="0" />
	<path style="fill:none;stroke:red;stroke-width:1px;stroke-linecap:butt;stroke-linejoin:miter;stroke-opacity:1" d="M 377.58,41.121 369.682,39.5414 z" id="boundary" inkscape:connector-curvature="0" />
	<path style="fill:none;stroke:red;stroke-width:1px;stroke-linecap:butt;stroke-linejoin:miter;stroke-opacity:1" d="M 385.478,40.3312 393.376,40.3312 z" id="boundary" inkscape:connector-curvature="0" />
	<path style="fill:none;stroke:red;stroke-width:1px;stroke-linecap:butt;stroke-linejoin:miter;stroke-opacity:1" d="M 401.274,40.3312 393.376,40.3312 z" id="boundary" inkscape:connector-curvature="0" />
	<path style="fill:none;stroke:red;stroke-width:1px;stroke-linecap:butt;stroke-linejoin:miter;stroke-opacity:1" d="M 409.172,39.5414 401.274,40.3312 z" id="boundary" inkscape:connector-curvature="0" />
	<path style="fill:none;stroke:red;stroke-width:1px;stroke-linecap:butt;stroke-linejoin:miter;stroke-opacity:1" d="M 4,65.6051 7.94904,72.7134 z" id="boundary" inkscape:connector-curvature="0" />
	<path style="fill:none;stroke:red;stroke-width:1px;stroke-linecap:butt;stroke-linejoin:miter;stroke-opacity:1" d="M 7.94904,72.7134 10.3185,80.6115 z" id="boundary" inkscape:connector-curvature="0" />
	<path style="fill:none;stroke:red;stroke-width:1px;stroke-linecap:butt;stroke-linejoin:miter;stroke-opacity:1" d="M 44.2803,109.834 36.3822,106.675 z" id="boundary" inkscape:connector-curvature="0" />
	<path style="fill:none;stroke:red;stroke-width:1px;stroke-linecap:butt;stroke-linejoin:miter;stroke-opacity:1" d="M 10.3185,80.6115 15.0573,86.9299 z" id="boundary" inkscape:connector-curvature="0" />
	<path style="fill:none;stroke:red;stroke-width:1px;stroke-linecap:butt;stroke-linejoin:miter;stroke-opacity:1" d="M 21.3758,92.4586 26.1146,98.7771 z" id="boundary" inkscape:connector-curvature="0" />
	<path style="fill:none;stroke:red;stroke-width:1px;stroke-linecap:butt;stroke-linejoin:miter;stroke-opacity:1" d="M 26.1146,98.7771 28.4841,106.675 z" id="boundary" inkscape:connector-curvature="0" />
	<path style="fill:none;stroke:red;stroke-width:1px;stroke-linecap:butt;stroke-linejoin:miter;stroke-opacity:1" d="M 28.4841,106.675 36.3822,106.675 z" id="boundary" inkscape:connector-curvature="0" />
	<path style="fill:none;stroke:red;stroke-width:1px;stroke-linecap:butt;stroke-linejoin:miter;stroke-opacity:1" d="M 15.0573,86.9299 21.3758,92.4586 z" id="boundary" inkscape:connector-curvature="0" />
	<path style="fill:none;stroke:red;stroke-width:1px;stroke-linecap:butt;stroke-linejoin:miter;stroke-opacity:1" d="M 210.14,111.414 202.242,112.204 z" id="boundary" inkscape:connector-curvature="0" />
	<path style="fill:none;stroke:red;stroke-width:1px;stroke-linecap:butt;stroke-linejoin:miter;stroke-opacity:1" d="M 218.038,110.624 225.936,110.624 z" id="boundary" inkscape:connector-curvature="0" />
	<path style="fill:none;stroke:red;stroke-width:1px;stroke-linecap:butt;stroke-linejoin:miter;stroke-opacity:1" d="M 210.14,111.414 218.038,110.624 z" id="boundary" inkscape:connector-curvature="0" />
	<path style="fill:none;stroke:red;stroke-width:1px;stroke-linecap:butt;stroke-linejoin:miter;stroke-opacity:1" d="M 178.548,112.204 170.65,112.994 z" id="boundary" inkscape:connector-curvature="0" />
	<path style="fill:none;stroke:red;stroke-width:1px;stroke-linecap:butt;stroke-linejoin:miter;stroke-opacity:1" d="M 154.854,112.994 146.955,114.573 z" id="boundary" inkscape:connector-curvature="0" />
	<path style="fill:none;stroke:red;stroke-width:1px;stroke-linecap:butt;stroke-linejoin:miter;stroke-opacity:1" d="M 52.1783,112.994 44.2803,109.834 z" id="boundary" inkscape:connector-curvature="0" />
	<path style="fill:none;stroke:red;stroke-width:1px;stroke-linecap:butt;stroke-linejoin:miter;stroke-opacity:1" d="M 170.65,112.994 162.752,112.204 z" id="boundary" inkscape:connector-curvature="0" />
	<path style="fill:none;stroke:red;stroke-width:1px;stroke-linecap:butt;stroke-linejoin:miter;stroke-opacity:1" d="M 202.242,112.204 194.344,112.994 z" id="boundary" inkscape:connector-curvature="0" />
	<path style="fill:none;stroke:red;stroke-width:1px;stroke-linecap:butt;stroke-linejoin:miter;stroke-opacity:1" d="M 162.752,112.204 154.854,112.994 z" id="boundary" inkscape:connector-curvature="0" />
	<path style="fill:none;stroke:red;stroke-width:1px;stroke-linecap:butt;stroke-linejoin:miter;stroke-opacity:1" d="M 60.0764,114.573 67.9745,114.573 z" id="boundary" inkscape:connector-curvature="0" />
	<path style="fill:none;stroke:red;stroke-width:1px;stroke-linecap:butt;stroke-linejoin:miter;stroke-opacity:1" d="M 67.9745,114.573 75.8726,115.363 z" id="boundary" inkscape:connector-curvature="0" />
	<path style="fill:none;stroke:red;stroke-width:1px;stroke-linecap:butt;stroke-linejoin:miter;stroke-opacity:1" d="M 60.0764,114.573 52.1783,112.994 z" id="boundary" inkscape:connector-curvature="0" />
	<path style="fill:none;stroke:red;stroke-width:1px;stroke-linecap:butt;stroke-linejoin:miter;stroke-opacity:1" d="M 75.8726,115.363 83.7707,116.153 z" id="boundary" inkscape:connector-curvature="0" />
	<path style="fill:none;stroke:red;stroke-width:1px;stroke-linecap:butt;stroke-linejoin:miter;stroke-opacity:1" d="M 83.7707,116.153 91.6688,116.943 z" id="boundary" inkscape:connector-curvature="0" />
	<path style="fill:none;stroke:red;stroke-width:1px;stroke-linecap:butt;stroke-linejoin:miter;stroke-opacity:1" d="M 107.465,116.943 115.363,116.153 z" id="boundary" inkscape:connector-curvature="0" />
	<path style="fill:none;stroke:red;stroke-width:1px;stroke-linecap:butt;stroke-linejoin:miter;stroke-opacity:1" d="M 107.465,116.943 99.5669,116.943 z" id="boundary" inkscape:connector-curvature="0" />
	<path style="fill:none;stroke:red;stroke-width:1px;stroke-linecap:butt;stroke-linejoin:miter;stroke-opacity:1" d="M 186.446,113.783 194.344,112.994 z" id="boundary" inkscape:connector-curvature="0" />
	<path style="fill:none;stroke:red;stroke-width:1px;stroke-linecap:butt;stroke-linejoin:miter;stroke-opacity:1" d="M 178.548,112.204 186.446,113.783 z" id="boundary" inkscape:connector-curvature="0" />
	<path style="fill:none;stroke:red;stroke-width:1px;stroke-linecap:butt;stroke-linejoin:miter;stroke-opacity:1" d="M 123.261,114.573 131.159,116.153 z" id="boundary" inkscape:connector-curvature="0" />
	<path style="fill:none;stroke:red;stroke-width:1px;stroke-linecap:butt;stroke-linejoin:miter;stroke-opacity:1" d="M 115.363,116.153 123.261,114.573 z" id="boundary" inkscape:connector-curvature="0" />
	<path style="fill:none;stroke:red;stroke-width:1px;stroke-linecap:butt;stroke-linejoin:miter;stroke-opacity:1" d="M 139.057,115.363 131.159,116.153 z" id="boundary" inkscape:connector-curvature="0" />
	<path style="fill:none;stroke:red;stroke-width:1px;stroke-linecap:butt;stroke-linejoin:miter;stroke-opacity:1" d="M 139.057,115.363 146.955,114.573 z" id="boundary" inkscape:connector-curvature="0" />
	<path style="fill:none;stroke:red;stroke-width:1px;stroke-linecap:butt;stroke-linejoin:miter;stroke-opacity:1" d="M 99.5669,116.943 91.6688,116.943 z" id="boundary" inkscape:connector-curvature="0" />
	<path style="fill:none;stroke:red;stroke-width:1px;stroke-linecap:butt;stroke-linejoin:miter;stroke-opacity:1" d="M 399.694,98.7771 391.796,97.9873 z" id="boundary" inkscape:connector-curvature="0" />
	<path style="fill:none;stroke:red;stroke-width:1px;stroke-linecap:butt;stroke-linejoin:miter;stroke-opacity:1" d="M 407.592,97.1975 399.694,98.7771 z" id="boundary" inkscape:connector-curvature="0" />
	<path style="fill:none;stroke:red;stroke-width:1px;stroke-linecap:butt;stroke-linejoin:miter;stroke-opacity:1" d="M 415.49,97.1975 423.389,96.4076 z" id="boundary" inkscape:connector-curvature="0" />
	<path style="fill:none;stroke:red;stroke-width:1px;stroke-linecap:butt;stroke-linejoin:miter;stroke-opacity:1" d="M 423.389,96.4076 431.287,96.4076 z" id="boundary" inkscape:connector-curvature="0" />
	<path style="fill:none;stroke:red;stroke-width:1px;stroke-linecap:butt;stroke-linejoin:miter;stroke-opacity:1" d="M 415.49,97.1975 407.592,97.1975 z" id="boundary" inkscape:connector-curvature="0" />
	<path style="fill:none;stroke:red;stroke-width:1px;stroke-linecap:butt;stroke-linejoin:miter;stroke-opacity:1" d="M 360.204,101.146 352.306,101.936 z" id="boundary" inkscape:connector-curvature="0" />
	<path style="fill:none;stroke:red;stroke-width:1px;stroke-linecap:butt;stroke-linejoin:miter;stroke-opacity:1" d="M 376,99.5669 368.102,101.146 z" id="boundary" inkscape:connector-curvature="0" />
	<path style="fill:none;stroke:red;stroke-width:1px;stroke-linecap:butt;stroke-linejoin:miter;stroke-opacity:1" d="M 383.898,99.5669 376,99.5669 z" id="boundary" inkscape:connector-curvature="0" />
	<path style="fill:none;stroke:red;stroke-width:1px;stroke-linecap:butt;stroke-linejoin:miter;stroke-opacity:1" d="M 383.898,99.5669 391.796,97.9873 z" id="boundary" inkscape:connector-curvature="0" />
	<path style="fill:none;stroke:red;stroke-width:1px;stroke-linecap:butt;stroke-linejoin:miter;stroke-opacity:1" d="M 328.611,101.146 320.713,103.516 z" id="boundary" inkscape:connector-curvature="0" />
	<path style="fill:none;stroke:red;stroke-width:1px;stroke-linecap:butt;stroke-linejoin:miter;stroke-opacity:1" d="M 462.879,93.2484 470.777,90.879 z" id="boundary" inkscape:connector-curvature="0" />
	<path style="fill:none;stroke:red;stroke-width:1px;stroke-linecap:butt;stroke-linejoin:miter;stroke-opacity:1" d="M 470.777,90.879 478.675,90.879 z" id="boundary" inkscape:connector-curvature="0" />
	<path style="fill:none;stroke:red;stroke-width:1px;stroke-linecap:butt;stroke-linejoin:miter;stroke-opacity:1" d="M 462.879,93.2484 454.981,94.828 z" id="boundary" inkscape:connector-curvature="0" />
	<path style="fill:none;stroke:red;stroke-width:1px;stroke-linecap:butt;stroke-linejoin:miter;stroke-opacity:1" d="M 431.287,96.4076 439.185,95.6178 z" id="boundary" inkscape:connector-curvature="0" />
	<path style="fill:none;stroke:red;stroke-width:1px;stroke-linecap:butt;stroke-linejoin:miter;stroke-opacity:1" d="M 447.083,94.828 454.981,94.828 z" id="boundary" inkscape:connector-curvature="0" />
	<path style="fill:none;stroke:red;stroke-width:1px;stroke-linecap:butt;stroke-linejoin:miter;stroke-opacity:1" d="M 439.185,95.6178 447.083,94.828 z" id="boundary" inkscape:connector-curvature="0" />
	<path style="fill:none;stroke:red;stroke-width:1px;stroke-linecap:butt;stroke-linejoin:miter;stroke-opacity:1" d="M 478.675,90.879 486.573,90.0892 z" id="boundary" inkscape:connector-curvature="0" />
	<path style="fill:none;stroke:red;stroke-width:1px;stroke-linecap:butt;stroke-linejoin:miter;stroke-opacity:1" d="M 265.427,108.255 273.325,108.255 z" id="boundary" inkscape:connector-curvature="0" />
	<path style="fill:none;stroke:red;stroke-width:1px;stroke-linecap:butt;stroke-linejoin:miter;stroke-opacity:1" d="M 257.529,109.045 265.427,108.255 z" id="boundary" inkscape:connector-curvature="0" />
	<path style="fill:none;stroke:red;stroke-width:1px;stroke-linecap:butt;stroke-linejoin:miter;stroke-opacity:1" d="M 281.223,107.465 289.121,106.675 z" id="boundary" inkscape:connector-curvature="0" />
	<path style="fill:none;stroke:red;stroke-width:1px;stroke-linecap:butt;stroke-linejoin:miter;stroke-opacity:1" d="M 281.223,107.465 273.325,108.255 z" id="boundary" inkscape:connector-curvature="0" />
	<path style="fill:none;stroke:red;stroke-width:1px;stroke-linecap:butt;stroke-linejoin:miter;stroke-opacity:1" d="M 233.834,109.834 241.732,109.834 z" id="boundary" inkscape:connector-curvature="0" />
	<path style="fill:none;stroke:red;stroke-width:1px;stroke-linecap:butt;stroke-linejoin:miter;stroke-opacity:1" d="M 225.936,110.624 233.834,109.834 z" id="boundary" inkscape:connector-curvature="0" />
	<path style="fill:none;stroke:red;stroke-width:1px;stroke-linecap:butt;stroke-linejoin:miter;stroke-opacity:1" d="M 249.631,109.045 257.529,109.045 z" id="boundary" inkscape:connector-curvature="0" />
	<path style="fill:none;stroke:red;stroke-width:1px;stroke-linecap:butt;stroke-linejoin:miter;stroke-opacity:1" d="M 241.732,109.834 249.631,109.045 z" id="boundary" inkscape:connector-curvature="0" />
	<path style="fill:none;stroke:red;stroke-width:1px;stroke-linecap:butt;stroke-linejoin:miter;stroke-opacity:1" d="M 336.51,101.936 344.408,101.936 z" id="boundary" inkscape:connector-curvature="0" />
	<path style="fill:none;stroke:red;stroke-width:1px;stroke-linecap:butt;stroke-linejoin:miter;stroke-opacity:1" d="M 336.51,101.936 328.611,101.146 z" id="boundary" inkscape:connector-curvature="0" />
	<path style="fill:none;stroke:red;stroke-width:1px;stroke-linecap:butt;stroke-linejoin:miter;stroke-opacity:1" d="M 352.306,101.936 344.408,101.936 z" id="boundary" inkscape:connector-curvature="0" />
	<path style="fill:none;stroke:red;stroke-width:1px;stroke-linecap:butt;stroke-linejoin:miter;stroke-opacity:1" d="M 368.102,101.146 360.204,101.146 z" id="boundary" inkscape:connector-curvature="0" />
	<path style="fill:none;stroke:red;stroke-width:1px;stroke-linecap:butt;stroke-linejoin:miter;stroke-opacity:1" d="M 297.019,105.096 304.917,104.306 z" id="boundary" inkscape:connector-curvature="0" />
	<path style="fill:none;stroke:red;stroke-width:1px;stroke-linecap:butt;stroke-linejoin:miter;stroke-opacity:1" d="M 304.917,104.306 312.815,105.096 z" id="boundary" inkscape:connector-curvature="0" />
	<path style="fill:none;stroke:red;stroke-width:1px;stroke-linecap:butt;stroke-linejoin:miter;stroke-opacity:1" d="M 312.815,105.096 320.713,103.516 z" id="boundary" inkscape:connector-curvature="0" />
	<path style="fill:none;stroke:red;stroke-width:1px;stroke-linecap:butt;stroke-linejoin:miter;stroke-opacity:1" d="M 289.121,106.675 297.019,105.096 z" id="boundary" inkscape:connector-curvature="0" />
	<path style="fill:none;stroke:red;stroke-width:1px;stroke-linecap:butt;stroke-linejoin:miter;stroke-opacity:1" d="M 654.013,4.78981 661.911,4.78981 z" id="boundary" inkscape:connector-curvature="0" />
	<path style="fill:none;stroke:red;stroke-width:1px;stroke-linecap:butt;stroke-linejoin:miter;stroke-opacity:1" d="M 654.013,4.78981 646.115,4.78981 z" id="boundary" inkscape:connector-curvature="0" />
	<path style="fill:none;stroke:red;stroke-width:1px;stroke-linecap:butt;stroke-linejoin:miter;stroke-opacity:1" d="M 638.217,5.57962 646.115,4.78981 z" id="boundary" inkscape:connector-curvature="0" />
	<path style="fill:none;stroke:red;stroke-width:1px;stroke-linecap:butt;stroke-linejoin:miter;stroke-opacity:1" d="M 622.42,6.36943 630.318,5.57962 z" id="boundary" inkscape:connector-curvature="0" />
	<path style="fill:none;stroke:red;stroke-width:1px;stroke-linecap:butt;stroke-linejoin:miter;stroke-opacity:1" d="M 638.217,5.57962 630.318,5.57962 z" id="boundary" inkscape:connector-curvature="0" />
	<path style="fill:none;stroke:red;stroke-width:1px;stroke-linecap:butt;stroke-linejoin:miter;stroke-opacity:1" d="M 677.707,5.57962 669.809,4.78981 z" id="boundary" inkscape:connector-curvature="0" />
	<path style="fill:none;stroke:red;stroke-width:1px;stroke-linecap:butt;stroke-linejoin:miter;stroke-opacity:1" d="M 661.911,4.78981 669.809,4.78981 z" id="boundary" inkscape:connector-curvature="0" />
	<path style="fill:none;stroke:red;stroke-width:1px;stroke-linecap:butt;stroke-linejoin:miter;stroke-opacity:1" d="M 622.42,6.36943 614.522,4.78981 z" id="boundary" inkscape:connector-curvature="0" />
	<path style="fill:none;stroke:red;stroke-width:1px;stroke-linecap:butt;stroke-linejoin:miter;stroke-opacity:1" d="M 685.605,5.57962 693.503,4.78981 z" id="boundary" inkscape:connector-curvature="0" />
	<path style="fill:none;stroke:red;stroke-width:1px;stroke-linecap:butt;stroke-linejoin:miter;stroke-opacity:1" d="M 701.401,4.78981 693.503,4.78981 z" id="boundary" inkscape:connector-curvature="0" />
	<path style="fill:none;stroke:red;stroke-width:1px;stroke-linecap:butt;stroke-linejoin:miter;stroke-opacity:1" d="M 709.299,4.78981 717.197,4 z" id="boundary" inkscape:connector-curvature="0" />
	<path style="fill:none;stroke:red;stroke-width:1px;stroke-linecap:butt;stroke-linejoin:miter;stroke-opacity:1" d="M 717.197,4 725.096,4.78981 z" id="boundary" inkscape:connector-curvature="0" />
	<path style="fill:none;stroke:red;stroke-width:1px;stroke-linecap:butt;stroke-linejoin:miter;stroke-opacity:1" d="M 709.299,4.78981 701.401,4.78981 z" id="boundary" inkscape:connector-curvature="0" />
	<path style="fill:none;stroke:red;stroke-width:1px;stroke-linecap:butt;stroke-linejoin:miter;stroke-opacity:1" d="M 725.096,4.78981 732.994,4.78981 z" id="boundary" inkscape:connector-curvature="0" />
	<path style="fill:none;stroke:red;stroke-width:1px;stroke-linecap:butt;stroke-linejoin:miter;stroke-opacity:1" d="M 740.892,5.57962 732.994,4.78981 z" id="boundary" inkscape:connector-curvature="0" />
	<path style="fill:none;stroke:red;stroke-width:1px;stroke-linecap:butt;stroke-linejoin:miter;stroke-opacity:1" d="M 748.79,5.57962 740.892,5.57962 z" id="boundary" inkscape:connector-curvature="0" />
	<path style="fill:none;stroke:red;stroke-width:1px;stroke-linecap:butt;stroke-linejoin:miter;stroke-opacity:1" d="M 677.707,5.57962 685.605,5.57962 z" id="boundary" inkscape:connector-curvature="0" />
	<path style="fill:none;stroke:red;stroke-width:1px;stroke-linecap:butt;stroke-linejoin:miter;stroke-opacity:1" d="M 543.439,8.73885 535.541,9.52866 z" id="boundary" inkscape:connector-curvature="0" />
	<path style="fill:none;stroke:red;stroke-width:1px;stroke-linecap:butt;stroke-linejoin:miter;stroke-opacity:1" d="M 511.847,10.3185 503.949,10.3185 z" id="boundary" inkscape:connector-curvature="0" />
	<path style="fill:none;stroke:red;stroke-width:1px;stroke-linecap:butt;stroke-linejoin:miter;stroke-opacity:1" d="M 551.338,8.73885 543.439,8.73885 z" id="boundary" inkscape:connector-curvature="0" />
	<path style="fill:none;stroke:red;stroke-width:1px;stroke-linecap:butt;stroke-linejoin:miter;stroke-opacity:1" d="M 559.236,7.15924 551.338,8.73885 z" id="boundary" inkscape:connector-curvature="0" />
	<path style="fill:none;stroke:red;stroke-width:1px;stroke-linecap:butt;stroke-linejoin:miter;stroke-opacity:1" d="M 527.643,10.3185 535.541,9.52866 z" id="boundary" inkscape:connector-curvature="0" />
	<path style="fill:none;stroke:red;stroke-width:1px;stroke-linecap:butt;stroke-linejoin:miter;stroke-opacity:1" d="M 496.051,11.1083 503.949,10.3185 z" id="boundary" inkscape:connector-curvature="0" />
	<path style="fill:none;stroke:red;stroke-width:1px;stroke-linecap:butt;stroke-linejoin:miter;stroke-opacity:1" d="M 511.847,10.3185 519.745,10.3185 z" id="boundary" inkscape:connector-curvature="0" />
	<path style="fill:none;stroke:red;stroke-width:1px;stroke-linecap:butt;stroke-linejoin:miter;stroke-opacity:1" d="M 527.643,10.3185 519.745,10.3185 z" id="boundary" inkscape:connector-curvature="0" />
	<path style="fill:none;stroke:red;stroke-width:1px;stroke-linecap:butt;stroke-linejoin:miter;stroke-opacity:1" d="M 590.828,7.15924 598.726,6.36943 z" id="boundary" inkscape:connector-curvature="0" />
	<path style="fill:none;stroke:red;stroke-width:1px;stroke-linecap:butt;stroke-linejoin:miter;stroke-opacity:1" d="M 606.624,6.36943 614.522,4.78981 z" id="boundary" inkscape:connector-curvature="0" />
	<path style="fill:none;stroke:red;stroke-width:1px;stroke-linecap:butt;stroke-linejoin:miter;stroke-opacity:1" d="M 606.624,6.36943 598.726,6.36943 z" id="boundary" inkscape:connector-curvature="0" />
	<path style="fill:none;stroke:red;stroke-width:1px;stroke-linecap:butt;stroke-linejoin:miter;stroke-opacity:1" d="M 575.032,7.94904 567.134,7.94904 z" id="boundary" inkscape:connector-curvature="0" />
	<path style="fill:none;stroke:red;stroke-width:1px;stroke-linecap:butt;stroke-linejoin:miter;stroke-opacity:1" d="M 582.93,7.15924 575.032,7.94904 z" id="boundary" inkscape:connector-curvature="0" />
	<path style="fill:none;stroke:red;stroke-width:1px;stroke-linecap:butt;stroke-linejoin:miter;stroke-opacity:1" d="M 590.828,7.15924 582.93,7.15924 z" id="boundary" inkscape:connector-curvature="0" />
	<path style="fill:none;stroke:red;stroke-width:1px;stroke-linecap:butt;stroke-linejoin:miter;stroke-opacity:1" d="M 567.134,7.94904 559.236,7.15924 z" id="boundary" inkscape:connector-curvature="0" />
	<path style="fill:none;stroke:red;stroke-width:1px;stroke-linecap:butt;stroke-linejoin:miter;stroke-opacity:1" d="M 748.79,5.57962 756.688,5.57962 z" id="boundary" inkscape:connector-curvature="0" />
	<path style="fill:none;stroke:red;stroke-width:1px;stroke-linecap:butt;stroke-linejoin:miter;stroke-opacity:1" d="M 764.586,5.57962 772.484,5.57962 z" id="boundary" inkscape:connector-curvature="0" />
	<path style="fill:none;stroke:red;stroke-width:1px;stroke-linecap:butt;stroke-linejoin:miter;stroke-opacity:1" d="M 764.586,5.57962 756.688,5.57962 z" id="boundary" inkscape:connector-curvature="0" />
	<path style="fill:none;stroke:red;stroke-width:1px;stroke-linecap:butt;stroke-linejoin:miter;stroke-opacity:1" d="M 780.382,6.36943 788.28,6.36943 z" id="boundary" inkscape:connector-curvature="0" />
	<path style="fill:none;stroke:red;stroke-width:1px;stroke-linecap:butt;stroke-linejoin:miter;stroke-opacity:1" d="M 780.382,6.36943 772.484,5.57962 z" id="boundary" inkscape:connector-curvature="0" />
	<path style="fill:none;stroke:red;stroke-width:1px;stroke-linecap:butt;stroke-linejoin:miter;stroke-opacity:1" d="M 796.178,7.15924 804.076,7.15924 z" id="boundary" inkscape:connector-curvature="0" />
	<path style="fill:none;stroke:red;stroke-width:1px;stroke-linecap:butt;stroke-linejoin:miter;stroke-opacity:1" d="M 796.178,7.15924 788.28,6.36943 z" id="boundary" inkscape:connector-curvature="0" />
	<path style="fill:none;stroke:red;stroke-width:1px;stroke-linecap:butt;stroke-linejoin:miter;stroke-opacity:1" d="M 811.975,7.15924 804.076,7.15924 z" id="boundary" inkscape:connector-curvature="0" />
	<path style="fill:none;stroke:red;stroke-width:1px;stroke-linecap:butt;stroke-linejoin:miter;stroke-opacity:1" d="M 819.873,7.94904 811.975,7.15924 z" id="boundary" inkscape:connector-curvature="0" />
	<path style="fill:none;stroke:red;stroke-width:1px;stroke-linecap:butt;stroke-linejoin:miter;stroke-opacity:1" d="M 827.771,7.94904 819.873,7.94904 z" id="boundary" inkscape:connector-curvature="0" />
	<path style="fill:none;stroke:red;stroke-width:1px;stroke-linecap:butt;stroke-linejoin:miter;stroke-opacity:1" d="M 835.669,8.73885 827.771,7.94904 z" id="boundary" inkscape:connector-curvature="0" />
	<path style="fill:none;stroke:red;stroke-width:1px;stroke-linecap:butt;stroke-linejoin:miter;stroke-opacity:1" d="M 843.567,8.73885 835.669,8.73885 z" id="boundary" inkscape:connector-curvature="0" />
	<path style="fill:none;stroke:red;stroke-width:1px;stroke-linecap:butt;stroke-linejoin:miter;stroke-opacity:1" d="M 851.465,9.52866 843.567,8.73885 z" id="boundary" inkscape:connector-curvature="0" />
	<path style="fill:none;stroke:red;stroke-width:1px;stroke-linecap:butt;stroke-linejoin:miter;stroke-opacity:1" d="M 851.465,9.52866 859.363,10.3185 z" id="boundary" inkscape:connector-curvature="0" />
	<path style="fill:none;stroke:red;stroke-width:1px;stroke-linecap:butt;stroke-linejoin:miter;stroke-opacity:1" d="M 867.261,11.1083 859.363,10.3185 z" id="boundary" inkscape:connector-curvature="0" />
	<path style="fill:none;stroke:red;stroke-width:1px;stroke-linecap:butt;stroke-linejoin:miter;stroke-opacity:1" d="M 875.159,11.1083 867.261,11.1083 z" id="boundary" inkscape:connector-curvature="0" />
	<path style="fill:none;stroke:red;stroke-width:1px;stroke-linecap:butt;stroke-linejoin:miter;stroke-opacity:1" d="M 875.159,11.1083 883.057,11.8981 z" id="boundary" inkscape:connector-curvature="0" />
	<path style="fill:none;stroke:red;stroke-width:1px;stroke-linecap:butt;stroke-linejoin:miter;stroke-opacity:1" d="M 890.955,12.6879 898.854,13.4777 z" id="boundary" inkscape:connector-curvature="0" />
	<path style="fill:none;stroke:red;stroke-width:1px;stroke-linecap:butt;stroke-linejoin:miter;stroke-opacity:1" d="M 890.955,12.6879 883.057,11.8981 z" id="boundary" inkscape:connector-curvature="0" />
	<path style="fill:none;stroke:red;stroke-width:1px;stroke-linecap:butt;stroke-linejoin:miter;stroke-opacity:1" d="M 906.752,14.2675 914.65,14.2675 z" id="boundary" inkscape:connector-curvature="0" />
	<path style="fill:none;stroke:red;stroke-width:1px;stroke-linecap:butt;stroke-linejoin:miter;stroke-opacity:1" d="M 906.752,14.2675 898.854,13.4777 z" id="boundary" inkscape:connector-curvature="0" />
	<path style="fill:none;stroke:red;stroke-width:1px;stroke-linecap:butt;stroke-linejoin:miter;stroke-opacity:1" d="M 922.548,15.8471 930.446,16.6369 z" id="boundary" inkscape:connector-curvature="0" />
	<path style="fill:none;stroke:red;stroke-width:1px;stroke-linecap:butt;stroke-linejoin:miter;stroke-opacity:1" d="M 922.548,15.8471 914.65,14.2675 z" id="boundary" inkscape:connector-curvature="0" />
	<path style="fill:none;stroke:red;stroke-width:1px;stroke-linecap:butt;stroke-linejoin:miter;stroke-opacity:1" d="M 938.344,19.0064 946.242,19.7962 z" id="boundary" inkscape:connector-curvature="0" />
	<path style="fill:none;stroke:red;stroke-width:1px;stroke-linecap:butt;stroke-linejoin:miter;stroke-opacity:1" d="M 938.344,19.0064 930.446,16.6369 z" id="boundary" inkscape:connector-curvature="0" />
	<path style="fill:none;stroke:red;stroke-width:1px;stroke-linecap:butt;stroke-linejoin:miter;stroke-opacity:1" d="M 946.242,19.7962 954.14,21.3758 z" id="boundary" inkscape:connector-curvature="0" />
	<path style="fill:none;stroke:red;stroke-width:1px;stroke-linecap:butt;stroke-linejoin:miter;stroke-opacity:1" d="M 954.14,21.3758 962.038,22.9554 z" id="boundary" inkscape:connector-curvature="0" />
	<path style="fill:none;stroke:red;stroke-width:1px;stroke-linecap:butt;stroke-linejoin:miter;stroke-opacity:1" d="M 962.038,22.9554 969.936,24.535 z" id="boundary" inkscape:connector-curvature="0" />
	<path style="fill:none;stroke:red;stroke-width:1px;stroke-linecap:butt;stroke-linejoin:miter;stroke-opacity:1" d="M 977.834,26.9045 969.936,24.535 z" id="boundary" inkscape:connector-curvature="0" />
	<path style="fill:none;stroke:red;stroke-width:1px;stroke-linecap:butt;stroke-linejoin:miter;stroke-opacity:1" d="M 985.732,28.4841 977.834,26.9045 z" id="boundary" inkscape:connector-curvature="0" />
	<path style="fill:none;stroke:red;stroke-width:1px;stroke-linecap:butt;stroke-linejoin:miter;stroke-opacity:1" d="M 985.732,28.4841 993.631,31.6433 z" id="boundary" inkscape:connector-curvature="0" />
	<path style="fill:none;stroke:red;stroke-width:1px;stroke-linecap:butt;stroke-linejoin:miter;stroke-opacity:1" d="M 648.484,90.0892 656.382,90.0892 z" id="boundary" inkscape:connector-curvature="0" />
	<path style="fill:none;stroke:red;stroke-width:1px;stroke-linecap:butt;stroke-linejoin:miter;stroke-opacity:1" d="M 640.586,90.879 648.484,90.0892 z" id="boundary" inkscape:connector-curvature="0" />
	<path style="fill:none;stroke:red;stroke-width:1px;stroke-linecap:butt;stroke-linejoin:miter;stroke-opacity:1" d="M 664.28,89.2994 672.178,88.5096 z" id="boundary" inkscape:connector-curvature="0" />
	<path style="fill:none;stroke:red;stroke-width:1px;stroke-linecap:butt;stroke-linejoin:miter;stroke-opacity:1" d="M 672.178,88.5096 680.076,88.5096 z" id="boundary" inkscape:connector-curvature="0" />
	<path style="fill:none;stroke:red;stroke-width:1px;stroke-linecap:butt;stroke-linejoin:miter;stroke-opacity:1" d="M 664.28,89.2994 656.382,90.0892 z" id="boundary" inkscape:connector-curvature="0" />
	<path style="fill:none;stroke:red;stroke-width:1px;stroke-linecap:butt;stroke-linejoin:miter;stroke-opacity:1" d="M 494.471,90.879 502.369,90.879 z" id="boundary" inkscape:connector-curvature="0" />
	<path style="fill:none;stroke:red;stroke-width:1px;stroke-linecap:butt;stroke-linejoin:miter;stroke-opacity:1" d="M 502.369,90.879 506.318,97.9873 z" id="boundary" inkscape:connector-curvature="0" />
	<path style="fill:none;stroke:red;stroke-width:1px;stroke-linecap:butt;stroke-linejoin:miter;stroke-opacity:1" d="M 632.688,90.879 640.586,90.879 z" id="boundary" inkscape:connector-curvature="0" />
	<path style="fill:none;stroke:red;stroke-width:1px;stroke-linecap:butt;stroke-linejoin:miter;stroke-opacity:1" d="M 624.79,91.6688 632.688,90.879 z" id="boundary" inkscape:connector-curvature="0" />
	<path style="fill:none;stroke:red;stroke-width:1px;stroke-linecap:butt;stroke-linejoin:miter;stroke-opacity:1" d="M 616.892,91.6688 608.994,92.4586 z" id="boundary" inkscape:connector-curvature="0" />
	<path style="fill:none;stroke:red;stroke-width:1px;stroke-linecap:butt;stroke-linejoin:miter;stroke-opacity:1" d="M 695.873,86.9299 687.975,87.7197 z" id="boundary" inkscape:connector-curvature="0" />
	<path style="fill:none;stroke:red;stroke-width:1px;stroke-linecap:butt;stroke-linejoin:miter;stroke-opacity:1" d="M 711.669,86.1401 719.567,85.3503 z" id="boundary" inkscape:connector-curvature="0" />
	<path style="fill:none;stroke:red;stroke-width:1px;stroke-linecap:butt;stroke-linejoin:miter;stroke-opacity:1" d="M 711.669,86.1401 703.771,86.9299 z" id="boundary" inkscape:connector-curvature="0" />
	<path style="fill:none;stroke:red;stroke-width:1px;stroke-linecap:butt;stroke-linejoin:miter;stroke-opacity:1" d="M 727.465,84.5605 735.363,84.5605 z" id="boundary" inkscape:connector-curvature="0" />
	<path style="fill:none;stroke:red;stroke-width:1px;stroke-linecap:butt;stroke-linejoin:miter;stroke-opacity:1" d="M 719.567,85.3503 727.465,84.5605 z" id="boundary" inkscape:connector-curvature="0" />
	<path style="fill:none;stroke:red;stroke-width:1px;stroke-linecap:butt;stroke-linejoin:miter;stroke-opacity:1" d="M 680.076,88.5096 687.975,87.7197 z" id="boundary" inkscape:connector-curvature="0" />
	<path style="fill:none;stroke:red;stroke-width:1px;stroke-linecap:butt;stroke-linejoin:miter;stroke-opacity:1" d="M 695.873,86.9299 703.771,86.9299 z" id="boundary" inkscape:connector-curvature="0" />
	<path style="fill:none;stroke:red;stroke-width:1px;stroke-linecap:butt;stroke-linejoin:miter;stroke-opacity:1" d="M 537.911,96.4076 545.809,96.4076 z" id="boundary" inkscape:connector-curvature="0" />
	<path style="fill:none;stroke:red;stroke-width:1px;stroke-linecap:butt;stroke-linejoin:miter;stroke-opacity:1" d="M 530.013,97.1975 537.911,96.4076 z" id="boundary" inkscape:connector-curvature="0" />
	<path style="fill:none;stroke:red;stroke-width:1px;stroke-linecap:butt;stroke-linejoin:miter;stroke-opacity:1" d="M 553.707,95.6178 561.605,95.6178 z" id="boundary" inkscape:connector-curvature="0" />
	<path style="fill:none;stroke:red;stroke-width:1px;stroke-linecap:butt;stroke-linejoin:miter;stroke-opacity:1" d="M 545.809,96.4076 553.707,95.6178 z" id="boundary" inkscape:connector-curvature="0" />
	<path style="fill:none;stroke:red;stroke-width:1px;stroke-linecap:butt;stroke-linejoin:miter;stroke-opacity:1" d="M 506.318,97.9873 514.217,97.9873 z" id="boundary" inkscape:connector-curvature="0" />
	<path style="fill:none;stroke:red;stroke-width:1px;stroke-linecap:butt;stroke-linejoin:miter;stroke-opacity:1" d="M 522.115,97.9873 530.013,97.1975 z" id="boundary" inkscape:connector-curvature="0" />
	<path style="fill:none;stroke:red;stroke-width:1px;stroke-linecap:butt;stroke-linejoin:miter;stroke-opacity:1" d="M 522.115,97.9873 514.217,97.9873 z" id="boundary" inkscape:connector-curvature="0" />
	<path style="fill:none;stroke:red;stroke-width:1px;stroke-linecap:butt;stroke-linejoin:miter;stroke-opacity:1" d="M 601.096,93.2484 593.197,93.2484 z" id="boundary" inkscape:connector-curvature="0" />
	<path style="fill:none;stroke:red;stroke-width:1px;stroke-linecap:butt;stroke-linejoin:miter;stroke-opacity:1" d="M 608.994,92.4586 601.096,93.2484 z" id="boundary" inkscape:connector-curvature="0" />
	<path style="fill:none;stroke:red;stroke-width:1px;stroke-linecap:butt;stroke-linejoin:miter;stroke-opacity:1" d="M 616.892,91.6688 624.79,91.6688 z" id="boundary" inkscape:connector-curvature="0" />
	<path style="fill:none;stroke:red;stroke-width:1px;stroke-linecap:butt;stroke-linejoin:miter;stroke-opacity:1" d="M 569.503,94.828 561.605,95.6178 z" id="boundary" inkscape:connector-curvature="0" />
	<path style="fill:none;stroke:red;stroke-width:1px;stroke-linecap:butt;stroke-linejoin:miter;stroke-opacity:1" d="M 569.503,94.828 577.401,94.828 z" id="boundary" inkscape:connector-curvature="0" />
	<path style="fill:none;stroke:red;stroke-width:1px;stroke-linecap:butt;stroke-linejoin:miter;stroke-opacity:1" d="M 577.401,94.828 585.299,94.0382 z" id="boundary" inkscape:connector-curvature="0" />
	<path style="fill:none;stroke:red;stroke-width:1px;stroke-linecap:butt;stroke-linejoin:miter;stroke-opacity:1" d="M 585.299,94.0382 593.197,93.2484 z" id="boundary" inkscape:connector-curvature="0" />
	<path style="fill:none;stroke:red;stroke-width:1px;stroke-linecap:butt;stroke-linejoin:miter;stroke-opacity:1" d="M 917.019,62.4459 909.121,64.0255 z" id="boundary" inkscape:connector-curvature="0" />
	<path style="fill:none;stroke:red;stroke-width:1px;stroke-linecap:butt;stroke-linejoin:miter;stroke-opacity:1" d="M 932.815,59.2866 924.917,60.8662 z" id="boundary" inkscape:connector-curvature="0" />
	<path style="fill:none;stroke:red;stroke-width:1px;stroke-linecap:butt;stroke-linejoin:miter;stroke-opacity:1" d="M 924.917,60.8662 917.019,62.4459 z" id="boundary" inkscape:connector-curvature="0" />
	<path style="fill:none;stroke:red;stroke-width:1px;stroke-linecap:butt;stroke-linejoin:miter;stroke-opacity:1" d="M 877.529,69.5541 885.427,68.7643 z" id="boundary" inkscape:connector-curvature="0" />
	<path style="fill:none;stroke:red;stroke-width:1px;stroke-linecap:butt;stroke-linejoin:miter;stroke-opacity:1" d="M 893.325,67.1847 885.427,68.7643 z" id="boundary" inkscape:connector-curvature="0" />
	<path style="fill:none;stroke:red;stroke-width:1px;stroke-linecap:butt;stroke-linejoin:miter;stroke-opacity:1" d="M 901.223,65.6051 893.325,67.1847 z" id="boundary" inkscape:connector-curvature="0" />
	<path style="fill:none;stroke:red;stroke-width:1px;stroke-linecap:butt;stroke-linejoin:miter;stroke-opacity:1" d="M 909.121,64.0255 901.223,65.6051 z" id="boundary" inkscape:connector-curvature="0" />
	<path style="fill:none;stroke:red;stroke-width:1px;stroke-linecap:butt;stroke-linejoin:miter;stroke-opacity:1" d="M 940.713,56.9172 932.815,59.2866 z" id="boundary" inkscape:connector-curvature="0" />
	<path style="fill:none;stroke:red;stroke-width:1px;stroke-linecap:butt;stroke-linejoin:miter;stroke-opacity:1" d="M 980.204,45.8599 972.306,48.2293 z" id="boundary" inkscape:connector-curvature="0" />
	<path style="fill:none;stroke:red;stroke-width:1px;stroke-linecap:butt;stroke-linejoin:miter;stroke-opacity:1" d="M 972.306,48.2293 964.408,50.5987 z" id="boundary" inkscape:connector-curvature="0" />
	<path style="fill:none;stroke:red;stroke-width:1px;stroke-linecap:butt;stroke-linejoin:miter;stroke-opacity:1" d="M 940.713,56.9172 948.611,55.3376 z" id="boundary" inkscape:connector-curvature="0" />
	<path style="fill:none;stroke:red;stroke-width:1px;stroke-linecap:butt;stroke-linejoin:miter;stroke-opacity:1" d="M 956.51,52.9682 948.611,55.3376 z" id="boundary" inkscape:connector-curvature="0" />
	<path style="fill:none;stroke:red;stroke-width:1px;stroke-linecap:butt;stroke-linejoin:miter;stroke-opacity:1" d="M 964.408,50.5987 956.51,52.9682 z" id="boundary" inkscape:connector-curvature="0" />
	<path style="fill:none;stroke:red;stroke-width:1px;stroke-linecap:butt;stroke-linejoin:miter;stroke-opacity:1" d="M 988.102,43.4904 980.204,45.8599 z" id="boundary" inkscape:connector-curvature="0" />
	<path style="fill:none;stroke:red;stroke-width:1px;stroke-linecap:butt;stroke-linejoin:miter;stroke-opacity:1" d="M 877.529,69.5541 869.631,70.3439 z" id="boundary" inkscape:connector-curvature="0" />
	<path style="fill:none;stroke:red;stroke-width:1px;stroke-linecap:butt;stroke-linejoin:miter;stroke-opacity:1" d="M 774.854,81.4013 766.955,82.1911 z" id="boundary" inkscape:connector-curvature="0" />
	<path style="fill:none;stroke:red;stroke-width:1px;stroke-linecap:butt;stroke-linejoin:miter;stroke-opacity:1" d="M 790.65,79.8217 782.752,80.6115 z" id="boundary" inkscape:connector-curvature="0" />
	<path style="fill:none;stroke:red;stroke-width:1px;stroke-linecap:butt;stroke-linejoin:miter;stroke-opacity:1" d="M 782.752,80.6115 774.854,81.4013 z" id="boundary" inkscape:connector-curvature="0" />
	<path style="fill:none;stroke:red;stroke-width:1px;stroke-linecap:butt;stroke-linejoin:miter;stroke-opacity:1" d="M 743.261,83.7707 751.159,82.9809 z" id="boundary" inkscape:connector-curvature="0" />
	<path style="fill:none;stroke:red;stroke-width:1px;stroke-linecap:butt;stroke-linejoin:miter;stroke-opacity:1" d="M 743.261,83.7707 735.363,84.5605 z" id="boundary" inkscape:connector-curvature="0" />
	<path style="fill:none;stroke:red;stroke-width:1px;stroke-linecap:butt;stroke-linejoin:miter;stroke-opacity:1" d="M 759.057,82.1911 766.955,82.1911 z" id="boundary" inkscape:connector-curvature="0" />
	<path style="fill:none;stroke:red;stroke-width:1px;stroke-linecap:butt;stroke-linejoin:miter;stroke-opacity:1" d="M 751.159,82.9809 759.057,82.1911 z" id="boundary" inkscape:connector-curvature="0" />
	<path style="fill:none;stroke:red;stroke-width:1px;stroke-linecap:butt;stroke-linejoin:miter;stroke-opacity:1" d="M 798.548,79.0318 790.65,79.8217 z" id="boundary" inkscape:connector-curvature="0" />
	<path style="fill:none;stroke:red;stroke-width:1px;stroke-linecap:butt;stroke-linejoin:miter;stroke-opacity:1" d="M 845.936,73.5032 853.834,72.7134 z" id="boundary" inkscape:connector-curvature="0" />
	<path style="fill:none;stroke:red;stroke-width:1px;stroke-linecap:butt;stroke-linejoin:miter;stroke-opacity:1" d="M 861.732,71.9236 869.631,70.3439 z" id="boundary" inkscape:connector-curvature="0" />
	<path style="fill:none;stroke:red;stroke-width:1px;stroke-linecap:butt;stroke-linejoin:miter;stroke-opacity:1" d="M 861.732,71.9236 853.834,72.7134 z" id="boundary" inkscape:connector-curvature="0" />
	<path style="fill:none;stroke:red;stroke-width:1px;stroke-linecap:butt;stroke-linejoin:miter;stroke-opacity:1" d="M 845.936,73.5032 838.038,74.293 z" id="boundary" inkscape:connector-curvature="0" />
	<path style="fill:none;stroke:red;stroke-width:1px;stroke-linecap:butt;stroke-linejoin:miter;stroke-opacity:1" d="M 814.344,77.4522 806.446,78.242 z" id="boundary" inkscape:connector-curvature="0" />
	<path style="fill:none;stroke:red;stroke-width:1px;stroke-linecap:butt;stroke-linejoin:miter;stroke-opacity:1" d="M 830.14,75.8726 822.242,76.6624 z" id="boundary" inkscape:connector-curvature="0" />
	<path style="fill:none;stroke:red;stroke-width:1px;stroke-linecap:butt;stroke-linejoin:miter;stroke-opacity:1" d="M 822.242,76.6624 814.344,77.4522 z" id="boundary" inkscape:connector-curvature="0" />
	<path style="fill:none;stroke:red;stroke-width:1px;stroke-linecap:butt;stroke-linejoin:miter;stroke-opacity:1" d="M 830.14,75.8726 838.038,74.293 z" id="boundary" inkscape:connector-curvature="0" />
	<path style="fill:none;stroke:red;stroke-width:1px;stroke-linecap:butt;stroke-linejoin:miter;stroke-opacity:1" d="M 806.446,78.242 798.548,79.0318 z" id="boundary" inkscape:connector-curvature="0" />
	<path style="fill:none;stroke:red;stroke-width:1px;stroke-linecap:butt;stroke-linejoin:miter;stroke-opacity:1" d="M 993.631,31.6433 996,41.121 z" id="boundary" inkscape:connector-curvature="0" />
	<path style="fill:none;stroke:red;stroke-width:1px;stroke-linecap:butt;stroke-linejoin:miter;stroke-opacity:1" d="M 996,41.121 988.102,43.4904 z" id="boundary" inkscape:connector-curvature="0" />
	<circle cx="4" cy="57.707" r="4" fill="#0" id="circle0"/>
	<circle cx="4" cy="65.6051" r="4" fill="#0" id="circle1"/>
	<circle cx="7.94904" cy="72.7134" r="4" fill="#0" id="circle2"/>
	<circle cx="10.3185" cy="80.6115" r="4" fill="#0" id="circle3"/>
	<circle cx="11.1083" cy="52.9682" r="4" fill="#0" id="circle4"/>
	<circle cx="15.0573" cy="86.9299" r="4" fill="#0" id="circle5"/>
	<circle cx="19.0064" cy="49.8089" r="4" fill="#0" id="circle6"/>
	<circle cx="21.3758" cy="92.4586" r="4" fill="#0" id="circle7"/>
	<circle cx="26.1146" cy="45.8599" r="4" fill="#0" id="circle8"/>
	<circle cx="26.1146" cy="98.7771" r="4" fill="#0" id="circle9"/>
	<circle cx="28.4841" cy="106.675" r="4" fill="#0" id="circle10"/>
	<circle cx="34.0127" cy="42.7006" r="4" fill="#0" id="circle11"/>
	<circle cx="36.3822" cy="106.675" r="4" fill="#0" id="circle12"/>
	<circle cx="41.121" cy="38.7516" r="4" fill="#0" id="circle13"/>
	<circle cx="44.2803" cy="109.834" r="4" fill="#0" id="circle14"/>
	<circle cx="49.0191" cy="35.5924" r="4" fill="#0" id="circle15"/>
	<circle cx="52.1783" cy="112.994" r="4" fill="#0" id="circle16"/>
	<circle cx="56.9172" cy="33.2229" r="4" fill="#0" id="circle17"/>
	<circle cx="60.0764" cy="114.573" r="4" fill="#0" id="circle18"/>
	<circle cx="64.8153" cy="33.2229" r="4" fill="#0" id="circle19"/>
	<circle cx="67.9745" cy="114.573" r="4" fill="#0" id="circle20"/>
	<circle cx="71.1338" cy="37.9618" r="4" fill="#0" id="circle21"/>
	<circle cx="75.8726" cy="115.363" r="4" fill="#0" id="circle22"/>
	<circle cx="77.4522" cy="42.7006" r="4" fill="#0" id="circle23"/>
	<circle cx="83.7707" cy="116.153" r="4" fill="#0" id="circle24"/>
	<circle cx="85.3503" cy="45.8599" r="4" fill="#0" id="circle25"/>
	<circle cx="91.6688" cy="116.943" r="4" fill="#0" id="circle26"/>
	<circle cx="93.2484" cy="48.2293" r="4" fill="#0" id="circle27"/>
	<circle cx="99.5669" cy="116.943" r="4" fill="#0" id="circle28"/>
	<circle cx="101.146" cy="49.0191" r="4" fill="#0" id="circle29"/>
	<circle cx="107.465" cy="116.943" r="4" fill="#0" id="circle30"/>
	<circle cx="109.045" cy="50.5987" r="4" fill="#0" id="circle31"/>
	<circle cx="115.363" cy="116.153" r="4" fill="#0" id="circle32"/>
	<circle cx="116.943" cy="50.5987" r="4" fill="#0" id="circle33"/>
	<circle cx="123.261" cy="114.573" r="4" fill="#0" id="circle34"/>
	<circle cx="124.841" cy="49.8089" r="4" fill="#0" id="circle35"/>
	<circle cx="131.159" cy="116.153" r="4" fill="#0" id="circle36"/>
	<circle cx="132.739" cy="50.5987" r="4" fill="#0" id="circle37"/>
	<circle cx="139.057" cy="115.363" r="4" fill="#0" id="circle38"/>
	<circle cx="140.637" cy="47.4395" r="4" fill="#0" id="circle39"/>
	<circle cx="146.955" cy="114.573" r="4" fill="#0" id="circle40"/>
	<circle cx="148.535" cy="46.6497" r="4" fill="#0" id="circle41"/>
	<circle cx="154.854" cy="112.994" r="4" fill="#0" id="circle42"/>
	<circle cx="156.433" cy="46.6497" r="4" fill="#0" id="circle43"/>
	<circle cx="162.752" cy="112.204" r="4" fill="#0" id="circle44"/>
	<circle cx="164.331" cy="45.8599" r="4" fill="#0" id="circle45"/>
	<circle cx="170.65" cy="112.994" r="4" fill="#0" id="circle46"/>
	<circle cx="172.229" cy="42.7006" r="4" fill="#0" id="circle47"/>
	<circle cx="178.548" cy="112.204" r="4" fill="#0" id="circle48"/>
	<circle cx="180.127" cy="41.9108" r="4" fill="#0" id="circle49"/>
	<circle cx="186.446" cy="113.783" r="4" fill="#0" id="circle50"/>
	<circle cx="188.025" cy="41.121" r="4" fill="#0" id="circle51"/>
	<circle cx="194.344" cy="112.994" r="4" fill="#0" id="circle52"/>
	<circle cx="195.924" cy="37.9618" r="4" fill="#0" id="circle53"/>
	<circle cx="202.242" cy="112.204" r="4" fill="#0" id="circle54"/>
	<circle cx="203.822" cy="37.9618" r="4" fill="#0" id="circle55"/>
	<circle cx="210.14" cy="111.414" r="4" fill="#0" id="circle56"/>
	<circle cx="211.72" cy="37.172" r="4" fill="#0" id="circle57"/>
	<circle cx="218.038" cy="110.624" r="4" fill="#0" id="circle58"/>
	<circle cx="219.618" cy="34.8025" r="4" fill="#0" id="circle59"/>
	<circle cx="225.936" cy="110.624" r="4" fill="#0" id="circle60"/>
	<circle cx="227.516" cy="32.4331" r="4" fill="#0" id="circle61"/>
	<circle cx="233.834" cy="109.834" r="4" fill="#0" id="circle62"/>
	<circle cx="235.414" cy="32.4331" r="4" fill="#0" id="circle63"/>
	<circle cx="241.732" cy="109.834" r="4" fill="#0" id="circle64"/>
	<circle cx="243.312" cy="32.4331" r="4" fill="#0" id="circle65"/>
	<circle cx="249.631" cy="109.045" r="4" fill="#0" id="circle66"/>
	<circle cx="251.21" cy="30.8535" r="4" fill="#0" id="circle67"/>
	<circle cx="257.529" cy="109.045" r="4" fill="#0" id="circle68"/>
	<circle cx="259.108" cy="30.8535" r="4" fill="#0" id="circle69"/>
	<circle cx="265.427" cy="108.255" r="4" fill="#0" id="circle70"/>
	<circle cx="267.006" cy="30.0637" r="4" fill="#0" id="circle71"/>
	<circle cx="273.325" cy="108.255" r="4" fill="#0" id="circle72"/>
	<circle cx="274.904" cy="30.8535" r="4" fill="#0" id="circle73"/>
	<circle cx="281.223" cy="107.465" r="4" fill="#0" id="circle74"/>
	<circle cx="282.803" cy="30.8535" r="4" fill="#0" id="circle75"/>
	<circle cx="289.121" cy="106.675" r="4" fill="#0" id="circle76"/>
	<circle cx="290.701" cy="31.6433" r="4" fill="#0" id="circle77"/>
	<circle cx="297.019" cy="105.096" r="4" fill="#0" id="circle78"/>
	<circle cx="298.599" cy="31.6433" r="4" fill="#0" id="circle79"/>
	<circle cx="304.917" cy="104.306" r="4" fill="#0" id="circle80"/>
	<circle cx="306.497" cy="34.0127" r="4" fill="#0" id="circle81"/>
	<circle cx="312.815" cy="105.096" r="4" fill="#0" id="circle82"/>
	<circle cx="314.395" cy="34.8025" r="4" fill="#0" id="circle83"/>
	<circle cx="320.713" cy="103.516" r="4" fill="#0" id="circle84"/>
	<circle cx="322.293" cy="34.8025" r="4" fill="#0" id="circle85"/>
	<circle cx="328.611" cy="101.146" r="4" fill="#0" id="circle86"/>
	<circle cx="330.191" cy="35.5924" r="4" fill="#0" id="circle87"/>
	<circle cx="336.51" cy="101.936" r="4" fill="#0" id="circle88"/>
	<circle cx="338.089" cy="35.5924" r="4" fill="#0" id="circle89"/>
	<circle cx="344.408" cy="101.936" r="4" fill="#0" id="circle90"/>
	<circle cx="345.987" cy="36.3822" r="4" fill="#0" id="circle91"/>
	<circle cx="352.306" cy="101.936" r="4" fill="#0" id="circle92"/>
	<circle cx="353.885" cy="36.3822" r="4" fill="#0" id="circle93"/>
	<circle cx="360.204" cy="101.146" r="4" fill="#0" id="circle94"/>
	<circle cx="361.783" cy="37.172" r="4" fill="#0" id="circle95"/>
	<circle cx="368.102" cy="101.146" r="4" fill="#0" id="circle96"/>
	<circle cx="369.682" cy="39.5414" r="4" fill="#0" id="circle97"/>
	<circle cx="376" cy="99.5669" r="4" fill="#0" id="circle98"/>
	<circle cx="377.58" cy="41.121" r="4" fill="#0" id="circle99"/>
	<circle cx="383.898" cy="99.5669" r="4" fill="#0" id="circle100"/>
	<circle cx="385.478" cy="40.3312" r="4" fill="#0" id="circle101"/>
	<circle cx="391.796" cy="97.9873" r="4" fill="#0" id="circle102"/>
	<circle cx="393.376" cy="40.3312" r="4" fill="#0" id="circle103"/>
	<circle cx="399.694" cy="98.7771" r="4" fill="#0" id="circle104"/>
	<circle cx="401.274" cy="40.3312" r="4" fill="#0" id="circle105"/>
	<circle cx="407.592" cy="97.1975" r="4" fill="#0" id="circle106"/>
	<circle cx="409.172" cy="39.5414" r="4" fill="#0" id="circle107"/>
	<circle cx="415.49" cy="97.1975" r="4" fill="#0" id="circle108"/>
	<circle cx="417.07" cy="37.9618" r="4" fill="#0" id="circle109"/>
	<circle cx="423.389" cy="96.4076" r="4" fill="#0" id="circle110"/>
	<circle cx="424.968" cy="37.9618" r="4" fill="#0" id="circle111"/>
	<circle cx="431.287" cy="96.4076" r="4" fill="#0" id="circle112"/>
	<circle cx="432.866" cy="34.8025" r="4" fill="#0" id="circle113"/>
	<circle cx="439.185" cy="95.6178" r="4" fill="#0" id="circle114"/>
	<circle cx="440.764" cy="30.8535" r="4" fill="#0" id="circle115"/>
	<circle cx="447.083" cy="94.828" r="4" fill="#0" id="circle116"/>
	<circle cx="448.662" cy="28.4841" r="4" fill="#0" id="circle117"/>
	<circle cx="454.981" cy="94.828" r="4" fill="#0" id="circle118"/>
	<circle cx="455.771" cy="23.7452" r="4" fill="#0" id="circle119"/>
	<circle cx="462.089" cy="16.6369" r="4" fill="#0" id="circle120"/>
	<circle cx="462.879" cy="93.2484" r="4" fill="#0" id="circle121"/>
	<circle cx="469.987" cy="15.0573" r="4" fill="#0" id="circle122"/>
	<circle cx="470.777" cy="90.879" r="4" fill="#0" id="circle123"/>
	<circle cx="476.306" cy="19.7962" r="4" fill="#0" id="circle124"/>
	<circle cx="478.675" cy="90.879" r="4" fill="#0" id="circle125"/>
	<circle cx="480.255" cy="11.8981" r="4" fill="#0" id="circle126"/>
	<circle cx="486.573" cy="90.0892" r="4" fill="#0" id="circle127"/>
	<circle cx="488.153" cy="11.8981" r="4" fill="#0" id="circle128"/>
	<circle cx="494.471" cy="90.879" r="4" fill="#0" id="circle129"/>
	<circle cx="496.051" cy="11.1083" r="4" fill="#0" id="circle130"/>
	<circle cx="502.369" cy="90.879" r="4" fill="#0" id="circle131"/>
	<circle cx="503.949" cy="10.3185" r="4" fill="#0" id="circle132"/>
	<circle cx="506.318" cy="97.9873" r="4" fill="#0" id="circle133"/>
	<circle cx="511.847" cy="10.3185" r="4" fill="#0" id="circle134"/>
	<circle cx="514.217" cy="97.9873" r="4" fill="#0" id="circle135"/>
	<circle cx="519.745" cy="10.3185" r="4" fill="#0" id="circle136"/>
	<circle cx="522.115" cy="97.9873" r="4" fill="#0" id="circle137"/>
	<circle cx="527.643" cy="10.3185" r="4" fill="#0" id="circle138"/>
	<circle cx="530.013" cy="97.1975" r="4" fill="#0" id="circle139"/>
	<circle cx="535.541" cy="9.52866" r="4" fill="#0" id="circle140"/>
	<circle cx="537.911" cy="96.4076" r="4" fill="#0" id="circle141"/>
	<circle cx="543.439" cy="8.73885" r="4" fill="#0" id="circle142"/>
	<circle cx="545.809" cy="96.4076" r="4" fill="#0" id="circle143"/>
	<circle cx="551.338" cy="8.73885" r="4" fill="#0" id="circle144"/>
	<circle cx="553.707" cy="95.6178" r="4" fill="#0" id="circle145"/>
	<circle cx="559.236" cy="7.15924" r="4" fill="#0" id="circle146"/>
	<circle cx="561.605" cy="95.6178" r="4" fill="#0" id="circle147"/>
	<circle cx="567.134" cy="7.94904" r="4" fill="#0" id="circle148"/>
	<circle cx="569.503" cy="94.828" r="4" fill="#0" id="circle149"/>
	<circle cx="575.032" cy="7.94904" r="4" fill="#0" id="circle150"/>
	<circle cx="577.401" cy="94.828" r="4" fill="#0" id="circle151"/>
	<circle cx="582.93" cy="7.15924" r="4" fill="#0" id="circle152"/>
	<circle cx="585.299" cy="94.0382" r="4" fill="#0" id="circle153"/>
	<circle cx="590.828" cy="7.15924" r="4" fill="#0" id="circle154"/>
	<circle cx="593.197" cy="93.2484" r="4" fill="#0" id="circle155"/>
	<circle cx="598.726" cy="6.36943" r="4" fill="#0" id="circle156"/>
	<circle cx="601.096" cy="93.2484" r="4" fill="#0" id="circle157"/>
	<circle cx="606.624" cy="6.36943" r="4" fill="#0" id="circle158"/>
	<circle cx="608.994" cy="92.4586" r="4" fill="#0" id="circle159"/>
	<circle cx="614.522" cy="4.78981" r="4" fill="#0" id="circle160"/>
	<circle cx="616.892" cy="91.6688" r="4" fill="#0" id="circle161"/>
	<circle cx="622.42" cy="6.36943" r="4" fill="#0" id="circle162"/>
	<circle cx="624.79" cy="91.6688" r="4" fill="#0" id="circle163"/>
	<circle cx="630.318" cy="5.57962" r="4" fill="#0" id="circle164"/>
	<circle cx="632.688" cy="90.879" r="4" fill="#0" id="circle165"/>
	<circle cx="638.217" cy="5.57962" r="4" fill="#0" id="circle166"/>
	<circle cx="640.586" cy="90.879" r="4" fill="#0" id="circle167"/>
	<circle cx="646.115" cy="4.78981" r="4" fill="#0" id="circle168"/>
	<circle cx="648.484" cy="90.0892" r="4" fill="#0" id="circle169"/>
	<circle cx="654.013" cy="4.78981" r="4" fill="#0" id="circle170"/>
	<circle cx="656.382" cy="90.0892" r="4" fill="#0" id="circle171"/>
	<circle cx="661.911" cy="4.78981" r="4" fill="#0" id="circle172"/>
	<circle cx="664.28" cy="89.2994" r="4" fill="#0" id="circle173"/>
	<circle cx="669.809" cy="4.78981" r="4" fill="#0" id="circle174"/>
	<circle cx="672.178" cy="88.5096" r="4" fill="#0" id="circle175"/>
	<circle cx="677.707" cy="5.57962" r="4" fill="#0" id="circle176"/>
	<circle cx="680.076" cy="88.5096" r="4" fill="#0" id="circle177"/>
	<circle cx="685.605" cy="5.57962" r="4" fill="#0" id="circle178"/>
	<circle cx="687.975" cy="87.7197" r="4" fill="#0" id="circle179"/>
	<circle cx="693.503" cy="4.78981" r="4" fill="#0" id="circle180"/>
	<circle cx="695.873" cy="86.9299" r="4" fill="#0" id="circle181"/>
	<circle cx="701.401" cy="4.78981" r="4" fill="#0" id="circle182"/>
	<circle cx="703.771" cy="86.9299" r="4" fill="#0" id="circle183"/>
	<circle cx="709.299" cy="4.78981" r="4" fill="#0" id="circle184"/>
	<circle cx="711.669" cy="86.1401" r="4" fill="#0" id="circle185"/>
	<circle cx="717.197" cy="4" r="4" fill="#0" id="circle186"/>
	<circle cx="719.567" cy="85.3503" r="4" fill="#0" id="circle187"/>
	<circle cx="725.096" cy="4.78981" r="4" fill="#0" id="circle188"/>
	<circle cx="727.465" cy="84.5605" r="4" fill="#0" id="circle189"/>
	<circle cx="732.994" cy="4.78981" r="4" fill="#0" id="circle190"/>
	<circle cx="735.363" cy="84.5605" r="4" fill="#0" id="circle191"/>
	<circle cx="740.892" cy="5.57962" r="4" fill="#0" id="circle192"/>
	<circle cx="743.261" cy="83.7707" r="4" fill="#0" id="circle193"/>
	<circle cx="748.79" cy="5.57962" r="4" fill="#0" id="circle194"/>
	<circle cx="751.159" cy="82.9809" r="4" fill="#0" id="circle195"/>
	<circle cx="756.688" cy="5.57962" r="4" fill="#0" id="circle196"/>
	<circle cx="759.057" cy="82.1911" r="4" fill="#0" id="circle197"/>
	<circle cx="764.586" cy="5.57962" r="4" fill="#0" id="circle198"/>
	<circle cx="766.955" cy="82.1911" r="4" fill="#0" id="circle199"/>
	<circle cx="772.484" cy="5.57962" r="4" fill="#0" id="circle200"/>
	<circle cx="774.854" cy="81.4013" r="4" fill="#0" id="circle201"/>
	<circle cx="780.382" cy="6.36943" r="4" fill="#0" id="circle202"/>
	<circle cx="782.752" cy="80.6115" r="4" fill="#0" id="circle203"/>
	<circle cx="788.28" cy="6.36943" r="4" fill="#0" id="circle204"/>
	<circle cx="790.65" cy="79.8217" r="4" fill="#0" id="circle205"/>
	<circle cx="796.178" cy="7.15924" r="4" fill="#0" id="circle206"/>
	<circle cx="798.548" cy="79.0318" r="4" fill="#0" id="circle207"/>
	<circle cx="804.076" cy="7.15924" r="4" fill="#0" id="circle208"/>
	<circle cx="806.446" cy="78.242" r="4" fill="#0" id="circle209"/>
	<circle cx="811.975" cy="7.15924" r="4" fill="#0" id="circle210"/>
	<circle cx="814.344" cy="77.4522" r="4" fill="#0" id="circle211"/>
	<circle cx="819.873" cy="7.94904" r="4" fill="#0" id="circle212"/>
	<circle cx="822.242" cy="76.6624" r="4" fill="#0" id="circle213"/>
	<circle cx="827.771" cy="7.94904" r="4" fill="#0" id="circle214"/>
	<circle cx="830.14" cy="75.8726" r="4" fill="#0" id="circle215"/>
	<circle cx="835.669" cy="8.73885" r="4" fill="#0" id="circle216"/>
	<circle cx="838.038" cy="74.293" r="4" fill="#0" id="circle217"/>
	<circle cx="843.567" cy="8.73885" r="4" fill="#0" id="circle218"/>
	<circle cx="845.936" cy="73.5032" r="4" fill="#0" id="circle219"/>
	<circle cx="851.465" cy="9.52866" r="4" fill="#0" id="circle220"/>
	<circle cx="853.834" cy="72.7134" r="4" fill="#0" id="circle221"/>
	<circle cx="859.363" cy="10.3185" r="4" fill="#0" id="circle222"/>
	<circle cx="861.732" cy="71.9236" r="4" fill="#0" id="circle223"/>
	<circle cx="867.261" cy="11.1083" r="4" fill="#0" id="circle224"/>
	<circle cx="869.631" cy="70.3439" r="4" fill="#0" id="circle225"/>
	<circle cx="875.159" cy="11.1083" r="4" fill="#0" id="circle226"/>
	<circle cx="877.529" cy="69.5541" r="4" fill="#0" id="circle227"/>
	<circle cx="883.057" cy="11.8981" r="4" fill="#0" id="circle228"/>
	<circle cx="885.427" cy="68.7643" r="4" fill="#0" id="circle229"/>
	<circle cx="890.955" cy="12.6879" r="4" fill="#0" id="circle230"/>
	<circle cx="893.325" cy="67.1847" r="4" fill="#0" id="circle231"/>
	<circle cx="898.854" cy="13.4777" r="4" fill="#0" id="circle232"/>
	<circle cx="901.223" cy="65.6051" r="4" fill="#0" id="circle233"/>
	<circle cx="906.752" cy="14.2675" r="4" fill="#0" id="circle234"/>
	<circle cx="909.121" cy="64.0255" r="4" fill="#0" id="circle235"/>
	<circle cx="914.65" cy="14.2675" r="4" fill="#0" id="circle236"/>
	<circle cx="917.019" cy="62.4459" r="4" fill="#0" id="circle237"/>
	<circle cx="922.548" cy="15.8471" r="4" fill="#0" id="circle238"/>
	<circle cx="924.917" cy="60.8662" r="4" fill="#0" id="circle239"/>
	<circle cx="930.446" cy="16.6369" r="4" fill="#0" id="circle240"/>
	<circle cx="932.815" cy="59.2866" r="4" fill="#0" id="circle241"/>
	<circle cx="938.344" cy="19.0064" r="4" fill="#0" id="circle242"/>
	<circle cx="940.713" cy="56.9172" r="4" fill="#0" id="circle243"/>
	<circle cx="946.242" cy="19.7962" r="4" fill="#0" id="circle244"/>
	<circle cx="948.611" cy="55.3376" r="4" fill="#0" id="circle245"/>
	<circle cx="954.14" cy="21.3758" r="4" fill="#0" id="circle246"/>
	<circle cx="956.51" cy="52.9682" r="4" fill="#0" id="circle247"/>
	<circle cx="962.038" cy="22.9554" r="4" fill="#0" id="circle248"/>
	<circle cx="964.408" cy="50.5987" r="4" fill="#0" id="circle249"/>
	<circle cx="969.936" cy="24.535" r="4" fill="#0" id="circle250"/>
	<circle cx="972.306" cy="48.2293" r="4" fill="#0" id="circle251"/>
	<circle cx="977.834" cy="26.9045" r="4" fill="#0" id="circle252"/>
	<circle cx="980.204" cy="45.8599" r="4" fill="#0" id="circle253"/>
	<circle cx="985.732" cy="28.4841" r="4" fill="#0" id="circle254"/>
	<circle cx="988.102" cy="43.4904" r="4" fill="#0" id="circle255"/>
	<circle cx="993.631" cy="31.6433" r="4" fill="#0" id="circle256"/>
	<circle cx="996" cy="41.121" r="4" fill="#0" id="circle257"/>
	</g>
</svg>