<?xml version="1.0" encoding="UTF-8" standalone="no"?>
<!-- Created with CurveBenchmark -->
<svg
	xmlns:dc="http://purl.org/dc/elements/1.1/"
	xmlns:cc="http://creativecommons.org/ns#"
	xmlns:rdf="http://www.w3.org/1999/02/22-rdf-syntax-ns#"
	xmlns:svg="http://www.w3.org/2000/svg"
	xmlns="http://www.w3.org/2000/svg"
	xmlns:sodipodi="http://sodipodi.sourceforge.net/DTD/sodipodi-0.dtd"
	xmlns:inkscape="http://www.inkscape.org/namespaces/inkscape"
	width="1000"
	height="1000"
	id="svg2"
	version="1.1"
	sodipodi:docname="manifold/nncrust-television250.png.txt">
<defs
	id="defs4" />
<metadata
	id="metadata7">
	<rdf:RDF>
		<cc:Work
			rdf:about="">
			<dc:format>image/svg+xml</dc:format>
			<dc:type
				rdf:resource="http://purl.org/dc/dcmitype/StillImage" />
			<dc:title></dc:title>
		</cc:Work>
	</rdf:RDF>
</metadata>
<g
	inkscape:label="Layer 1"
	inkscape:groupmode="layer"
	id="layer1">
	<path style="fill:none;stroke:red;stroke-width:1px;stroke-linecap:butt;stroke-linejoin:miter;stroke-opacity:1" d="M 168.68,90.2609 168.68,129.47 z" id="boundary" inkscape:connector-curvature="0" />
	<path style="fill:none;stroke:red;stroke-width:1px;stroke-linecap:butt;stroke-linejoin:miter;stroke-opacity:1" d="M 168.68,168.68 168.68,207.889 z" id="boundary" inkscape:connector-curvature="0" />
	<path style="fill:none;stroke:red;stroke-width:1px;stroke-linecap:butt;stroke-linejoin:miter;stroke-opacity:1" d="M 184.364,247.099 168.68,207.889 z" id="boundary" inkscape:connector-curvature="0" />
	<path style="fill:none;stroke:red;stroke-width:1px;stroke-linecap:butt;stroke-linejoin:miter;stroke-opacity:1" d="M 168.68,129.47 168.68,168.68 z" id="boundary" inkscape:connector-curvature="0" />
	<path style="fill:none;stroke:red;stroke-width:1px;stroke-linecap:butt;stroke-linejoin:miter;stroke-opacity:1" d="M 184.364,325.518 184.364,286.308 z" id="boundary" inkscape:connector-curvature="0" />
	<path style="fill:none;stroke:red;stroke-width:1px;stroke-linecap:butt;stroke-linejoin:miter;stroke-opacity:1" d="M 184.364,364.727 184.364,325.518 z" id="boundary" inkscape:connector-curvature="0" />
	<path style="fill:none;stroke:red;stroke-width:1px;stroke-linecap:butt;stroke-linejoin:miter;stroke-opacity:1" d="M 184.364,247.099 184.364,286.308 z" id="boundary" inkscape:connector-curvature="0" />
	<path style="fill:none;stroke:red;stroke-width:1px;stroke-linecap:butt;stroke-linejoin:miter;stroke-opacity:1" d="M 184.364,364.727 184.364,403.937 z" id="boundary" inkscape:connector-curvature="0" />
	<path style="fill:none;stroke:red;stroke-width:1px;stroke-linecap:butt;stroke-linejoin:miter;stroke-opacity:1" d="M 184.364,443.146 184.364,403.937 z" id="boundary" inkscape:connector-curvature="0" />
	<path style="fill:none;stroke:red;stroke-width:1px;stroke-linecap:butt;stroke-linejoin:miter;stroke-opacity:1" d="M 137.312,662.719 168.68,690.166 z" id="boundary" inkscape:connector-curvature="0" />
	<path style="fill:none;stroke:red;stroke-width:1px;stroke-linecap:butt;stroke-linejoin:miter;stroke-opacity:1" d="M 188.285,654.877 168.68,690.166 z" id="boundary" inkscape:connector-curvature="0" />
	<path style="fill:none;stroke:red;stroke-width:1px;stroke-linecap:butt;stroke-linejoin:miter;stroke-opacity:1" d="M 184.364,443.146 184.364,482.356 z" id="boundary" inkscape:connector-curvature="0" />
	<path style="fill:none;stroke:red;stroke-width:1px;stroke-linecap:butt;stroke-linejoin:miter;stroke-opacity:1" d="M 196.126,521.565 184.364,482.356 z" id="boundary" inkscape:connector-curvature="0" />
	<path style="fill:none;stroke:red;stroke-width:1px;stroke-linecap:butt;stroke-linejoin:miter;stroke-opacity:1" d="M 223.573,552.933 196.126,521.565 z" id="boundary" inkscape:connector-curvature="0" />
	<path style="fill:none;stroke:red;stroke-width:1px;stroke-linecap:butt;stroke-linejoin:miter;stroke-opacity:1" d="M 137.312,662.719 196.126,521.565 z" id="boundary" inkscape:connector-curvature="0" />
	<path style="fill:none;stroke:red;stroke-width:1px;stroke-linecap:butt;stroke-linejoin:miter;stroke-opacity:1" d="M 207.889,690.166 168.68,690.166 z" id="boundary" inkscape:connector-curvature="0" />
	<path style="fill:none;stroke:red;stroke-width:1px;stroke-linecap:butt;stroke-linejoin:miter;stroke-opacity:1" d="M 184.364,19.6838 223.573,4 z" id="boundary" inkscape:connector-curvature="0" />
	<path style="fill:none;stroke:red;stroke-width:1px;stroke-linecap:butt;stroke-linejoin:miter;stroke-opacity:1" d="M 168.68,90.2609 184.364,19.6838 z" id="boundary" inkscape:connector-curvature="0" />
	<path style="fill:none;stroke:red;stroke-width:1px;stroke-linecap:butt;stroke-linejoin:miter;stroke-opacity:1" d="M 262.783,4 301.992,4 z" id="boundary" inkscape:connector-curvature="0" />
	<path style="fill:none;stroke:red;stroke-width:1px;stroke-linecap:butt;stroke-linejoin:miter;stroke-opacity:1" d="M 301.992,4 341.202,4 z" id="boundary" inkscape:connector-curvature="0" />
	<path style="fill:none;stroke:red;stroke-width:1px;stroke-linecap:butt;stroke-linejoin:miter;stroke-opacity:1" d="M 223.573,552.933 223.573,592.142 z" id="boundary" inkscape:connector-curvature="0" />
	<path style="fill:none;stroke:red;stroke-width:1px;stroke-linecap:butt;stroke-linejoin:miter;stroke-opacity:1" d="M 368.648,529.407 368.648,568.617 z" id="boundary" inkscape:connector-curvature="0" />
	<path style="fill:none;stroke:red;stroke-width:1px;stroke-linecap:butt;stroke-linejoin:miter;stroke-opacity:1" d="M 407.858,525.486 368.648,529.407 z" id="boundary" inkscape:connector-curvature="0" />
	<path style="fill:none;stroke:red;stroke-width:1px;stroke-linecap:butt;stroke-linejoin:miter;stroke-opacity:1" d="M 341.202,4 380.411,4 z" id="boundary" inkscape:connector-curvature="0" />
	<path style="fill:none;stroke:red;stroke-width:1px;stroke-linecap:butt;stroke-linejoin:miter;stroke-opacity:1" d="M 188.285,654.877 223.573,631.352 z" id="boundary" inkscape:connector-curvature="0" />
	<path style="fill:none;stroke:red;stroke-width:1px;stroke-linecap:butt;stroke-linejoin:miter;stroke-opacity:1" d="M 223.573,631.352 223.573,592.142 z" id="boundary" inkscape:connector-curvature="0" />
	<path style="fill:none;stroke:red;stroke-width:1px;stroke-linecap:butt;stroke-linejoin:miter;stroke-opacity:1" d="M 207.889,690.166 223.573,729.375 z" id="boundary" inkscape:connector-curvature="0" />
	<path style="fill:none;stroke:red;stroke-width:1px;stroke-linecap:butt;stroke-linejoin:miter;stroke-opacity:1" d="M 368.648,568.617 368.648,607.826 z" id="boundary" inkscape:connector-curvature="0" />
	<path style="fill:none;stroke:red;stroke-width:1px;stroke-linecap:butt;stroke-linejoin:miter;stroke-opacity:1" d="M 368.648,647.036 407.858,654.877 z" id="boundary" inkscape:connector-curvature="0" />
	<path style="fill:none;stroke:red;stroke-width:1px;stroke-linecap:butt;stroke-linejoin:miter;stroke-opacity:1" d="M 368.648,701.929 368.648,647.036 z" id="boundary" inkscape:connector-curvature="0" />
	<path style="fill:none;stroke:red;stroke-width:1px;stroke-linecap:butt;stroke-linejoin:miter;stroke-opacity:1" d="M 368.648,647.036 368.648,607.826 z" id="boundary" inkscape:connector-curvature="0" />
	<path style="fill:none;stroke:red;stroke-width:1px;stroke-linecap:butt;stroke-linejoin:miter;stroke-opacity:1" d="M 368.648,741.138 368.648,701.929 z" id="boundary" inkscape:connector-curvature="0" />
	<path style="fill:none;stroke:red;stroke-width:1px;stroke-linecap:butt;stroke-linejoin:miter;stroke-opacity:1" d="M 447.067,654.877 407.858,654.877 z" id="boundary" inkscape:connector-curvature="0" />
	<path style="fill:none;stroke:red;stroke-width:1px;stroke-linecap:butt;stroke-linejoin:miter;stroke-opacity:1" d="M 407.858,654.877 427.462,690.166 z" id="boundary" inkscape:connector-curvature="0" />
	<path style="fill:none;stroke:red;stroke-width:1px;stroke-linecap:butt;stroke-linejoin:miter;stroke-opacity:1" d="M 223.573,4 262.783,4 z" id="boundary" inkscape:connector-curvature="0" />
	<path style="fill:none;stroke:red;stroke-width:1px;stroke-linecap:butt;stroke-linejoin:miter;stroke-opacity:1" d="M 137.312,780.348 105.945,897.976 z" id="boundary" inkscape:connector-curvature="0" />
	<path style="fill:none;stroke:red;stroke-width:1px;stroke-linecap:butt;stroke-linejoin:miter;stroke-opacity:1" d="M 43.2095,897.976 4,905.818 z" id="boundary" inkscape:connector-curvature="0" />
	<path style="fill:none;stroke:red;stroke-width:1px;stroke-linecap:butt;stroke-linejoin:miter;stroke-opacity:1" d="M 105.945,897.976 74.5771,921.502 z" id="boundary" inkscape:connector-curvature="0" />
	<path style="fill:none;stroke:red;stroke-width:1px;stroke-linecap:butt;stroke-linejoin:miter;stroke-opacity:1" d="M 74.5771,921.502 43.2095,897.976 z" id="boundary" inkscape:connector-curvature="0" />
	<path style="fill:none;stroke:red;stroke-width:1px;stroke-linecap:butt;stroke-linejoin:miter;stroke-opacity:1" d="M 4,945.028 4,905.818 z" id="boundary" inkscape:connector-curvature="0" />
	<path style="fill:none;stroke:red;stroke-width:1px;stroke-linecap:butt;stroke-linejoin:miter;stroke-opacity:1" d="M 137.312,780.348 156.917,815.636 z" id="boundary" inkscape:connector-curvature="0" />
	<path style="fill:none;stroke:red;stroke-width:1px;stroke-linecap:butt;stroke-linejoin:miter;stroke-opacity:1" d="M 196.126,815.636 156.917,815.636 z" id="boundary" inkscape:connector-curvature="0" />
	<path style="fill:none;stroke:red;stroke-width:1px;stroke-linecap:butt;stroke-linejoin:miter;stroke-opacity:1" d="M 137.312,780.348 176.522,780.348 z" id="boundary" inkscape:connector-curvature="0" />
	<path style="fill:none;stroke:red;stroke-width:1px;stroke-linecap:butt;stroke-linejoin:miter;stroke-opacity:1" d="M 137.312,921.502 168.68,897.976 z" id="boundary" inkscape:connector-curvature="0" />
	<path style="fill:none;stroke:red;stroke-width:1px;stroke-linecap:butt;stroke-linejoin:miter;stroke-opacity:1" d="M 168.68,897.976 200.047,921.502 z" id="boundary" inkscape:connector-curvature="0" />
	<path style="fill:none;stroke:red;stroke-width:1px;stroke-linecap:butt;stroke-linejoin:miter;stroke-opacity:1" d="M 176.522,780.348 215.731,780.348 z" id="boundary" inkscape:connector-curvature="0" />
	<path style="fill:none;stroke:red;stroke-width:1px;stroke-linecap:butt;stroke-linejoin:miter;stroke-opacity:1" d="M 215.731,780.348 196.126,815.636 z" id="boundary" inkscape:connector-curvature="0" />
	<path style="fill:none;stroke:red;stroke-width:1px;stroke-linecap:butt;stroke-linejoin:miter;stroke-opacity:1" d="M 137.312,921.502 105.945,897.976 z" id="boundary" inkscape:connector-curvature="0" />
	<path style="fill:none;stroke:red;stroke-width:1px;stroke-linecap:butt;stroke-linejoin:miter;stroke-opacity:1" d="M 23.6047,980.316 62.8142,980.316 z" id="boundary" inkscape:connector-curvature="0" />
	<path style="fill:none;stroke:red;stroke-width:1px;stroke-linecap:butt;stroke-linejoin:miter;stroke-opacity:1" d="M 23.6047,980.316 4,945.028 z" id="boundary" inkscape:connector-curvature="0" />
	<path style="fill:none;stroke:red;stroke-width:1px;stroke-linecap:butt;stroke-linejoin:miter;stroke-opacity:1" d="M 102.024,980.316 62.8142,980.316 z" id="boundary" inkscape:connector-curvature="0" />
	<path style="fill:none;stroke:red;stroke-width:1px;stroke-linecap:butt;stroke-linejoin:miter;stroke-opacity:1" d="M 141.233,980.316 102.024,980.316 z" id="boundary" inkscape:connector-curvature="0" />
	<path style="fill:none;stroke:red;stroke-width:1px;stroke-linecap:butt;stroke-linejoin:miter;stroke-opacity:1" d="M 141.233,980.316 180.443,980.316 z" id="boundary" inkscape:connector-curvature="0" />
	<path style="fill:none;stroke:red;stroke-width:1px;stroke-linecap:butt;stroke-linejoin:miter;stroke-opacity:1" d="M 200.047,921.502 180.443,980.316 z" id="boundary" inkscape:connector-curvature="0" />
	<path style="fill:none;stroke:red;stroke-width:1px;stroke-linecap:butt;stroke-linejoin:miter;stroke-opacity:1" d="M 196.126,815.636 223.573,847.004 z" id="boundary" inkscape:connector-curvature="0" />
	<path style="fill:none;stroke:red;stroke-width:1px;stroke-linecap:butt;stroke-linejoin:miter;stroke-opacity:1" d="M 223.573,729.375 215.731,780.348 z" id="boundary" inkscape:connector-curvature="0" />
	<path style="fill:none;stroke:red;stroke-width:1px;stroke-linecap:butt;stroke-linejoin:miter;stroke-opacity:1" d="M 223.573,847.004 223.573,886.213 z" id="boundary" inkscape:connector-curvature="0" />
	<path style="fill:none;stroke:red;stroke-width:1px;stroke-linecap:butt;stroke-linejoin:miter;stroke-opacity:1" d="M 368.648,741.138 372.569,780.348 z" id="boundary" inkscape:connector-curvature="0" />
	<path style="fill:none;stroke:red;stroke-width:1px;stroke-linecap:butt;stroke-linejoin:miter;stroke-opacity:1" d="M 223.573,886.213 200.047,921.502 z" id="boundary" inkscape:connector-curvature="0" />
	<path style="fill:none;stroke:red;stroke-width:1px;stroke-linecap:butt;stroke-linejoin:miter;stroke-opacity:1" d="M 407.858,815.636 368.648,819.557 z" id="boundary" inkscape:connector-curvature="0" />
	<path style="fill:none;stroke:red;stroke-width:1px;stroke-linecap:butt;stroke-linejoin:miter;stroke-opacity:1" d="M 368.648,819.557 372.569,780.348 z" id="boundary" inkscape:connector-curvature="0" />
	<path style="fill:none;stroke:red;stroke-width:1px;stroke-linecap:butt;stroke-linejoin:miter;stroke-opacity:1" d="M 427.462,780.348 407.858,815.636 z" id="boundary" inkscape:connector-curvature="0" />
	<path style="fill:none;stroke:red;stroke-width:1px;stroke-linecap:butt;stroke-linejoin:miter;stroke-opacity:1" d="M 368.648,819.557 368.648,858.767 z" id="boundary" inkscape:connector-curvature="0" />
	<path style="fill:none;stroke:red;stroke-width:1px;stroke-linecap:butt;stroke-linejoin:miter;stroke-opacity:1" d="M 368.648,858.767 372.569,897.976 z" id="boundary" inkscape:connector-curvature="0" />
	<path style="fill:none;stroke:red;stroke-width:1px;stroke-linecap:butt;stroke-linejoin:miter;stroke-opacity:1" d="M 219.652,980.316 180.443,980.316 z" id="boundary" inkscape:connector-curvature="0" />
	<path style="fill:none;stroke:red;stroke-width:1px;stroke-linecap:butt;stroke-linejoin:miter;stroke-opacity:1" d="M 258.862,980.316 219.652,980.316 z" id="boundary" inkscape:connector-curvature="0" />
	<path style="fill:none;stroke:red;stroke-width:1px;stroke-linecap:butt;stroke-linejoin:miter;stroke-opacity:1" d="M 258.862,980.316 298.071,980.316 z" id="boundary" inkscape:connector-curvature="0" />
	<path style="fill:none;stroke:red;stroke-width:1px;stroke-linecap:butt;stroke-linejoin:miter;stroke-opacity:1" d="M 298.071,980.316 337.281,992.079 z" id="boundary" inkscape:connector-curvature="0" />
	<path style="fill:none;stroke:red;stroke-width:1px;stroke-linecap:butt;stroke-linejoin:miter;stroke-opacity:1" d="M 372.569,897.976 411.779,897.976 z" id="boundary" inkscape:connector-curvature="0" />
	<path style="fill:none;stroke:red;stroke-width:1px;stroke-linecap:butt;stroke-linejoin:miter;stroke-opacity:1" d="M 337.281,992.079 376.49,980.316 z" id="boundary" inkscape:connector-curvature="0" />
	<path style="fill:none;stroke:red;stroke-width:1px;stroke-linecap:butt;stroke-linejoin:miter;stroke-opacity:1" d="M 376.49,980.316 415.7,992.079 z" id="boundary" inkscape:connector-curvature="0" />
	<path style="fill:none;stroke:red;stroke-width:1px;stroke-linecap:butt;stroke-linejoin:miter;stroke-opacity:1" d="M 454.909,980.316 415.7,992.079 z" id="boundary" inkscape:connector-curvature="0" />
	<path style="fill:none;stroke:red;stroke-width:1px;stroke-linecap:butt;stroke-linejoin:miter;stroke-opacity:1" d="M 407.858,815.636 447.067,815.636 z" id="boundary" inkscape:connector-curvature="0" />
	<path style="fill:none;stroke:red;stroke-width:1px;stroke-linecap:butt;stroke-linejoin:miter;stroke-opacity:1" d="M 407.858,525.486 447.067,525.486 z" id="boundary" inkscape:connector-curvature="0" />
	<path style="fill:none;stroke:red;stroke-width:1px;stroke-linecap:butt;stroke-linejoin:miter;stroke-opacity:1" d="M 541.17,286.308 541.17,325.518 z" id="boundary" inkscape:connector-curvature="0" />
	<path style="fill:none;stroke:red;stroke-width:1px;stroke-linecap:butt;stroke-linejoin:miter;stroke-opacity:1" d="M 458.83,4 498.04,4 z" id="boundary" inkscape:connector-curvature="0" />
	<path style="fill:none;stroke:red;stroke-width:1px;stroke-linecap:butt;stroke-linejoin:miter;stroke-opacity:1" d="M 419.621,4 458.83,4 z" id="boundary" inkscape:connector-curvature="0" />
	<path style="fill:none;stroke:red;stroke-width:1px;stroke-linecap:butt;stroke-linejoin:miter;stroke-opacity:1" d="M 541.17,51.0514 541.17,90.2609 z" id="boundary" inkscape:connector-curvature="0" />
	<path style="fill:none;stroke:red;stroke-width:1px;stroke-linecap:butt;stroke-linejoin:miter;stroke-opacity:1" d="M 541.17,90.2609 541.17,129.47 z" id="boundary" inkscape:connector-curvature="0" />
	<path style="fill:none;stroke:red;stroke-width:1px;stroke-linecap:butt;stroke-linejoin:miter;stroke-opacity:1" d="M 701.929,690.166 682.324,654.877 z" id="boundary" inkscape:connector-curvature="0" />
	<path style="fill:none;stroke:red;stroke-width:1px;stroke-linecap:butt;stroke-linejoin:miter;stroke-opacity:1" d="M 498.04,4 537.249,11.8419 z" id="boundary" inkscape:connector-curvature="0" />
	<path style="fill:none;stroke:red;stroke-width:1px;stroke-linecap:butt;stroke-linejoin:miter;stroke-opacity:1" d="M 537.249,11.8419 541.17,51.0514 z" id="boundary" inkscape:connector-curvature="0" />
	<path style="fill:none;stroke:red;stroke-width:1px;stroke-linecap:butt;stroke-linejoin:miter;stroke-opacity:1" d="M 486.277,525.486 447.067,525.486 z" id="boundary" inkscape:connector-curvature="0" />
	<path style="fill:none;stroke:red;stroke-width:1px;stroke-linecap:butt;stroke-linejoin:miter;stroke-opacity:1" d="M 447.067,654.877 486.277,654.877 z" id="boundary" inkscape:connector-curvature="0" />
	<path style="fill:none;stroke:red;stroke-width:1px;stroke-linecap:butt;stroke-linejoin:miter;stroke-opacity:1" d="M 427.462,690.166 466.672,690.166 z" id="boundary" inkscape:connector-curvature="0" />
	<path style="fill:none;stroke:red;stroke-width:1px;stroke-linecap:butt;stroke-linejoin:miter;stroke-opacity:1" d="M 525.486,654.877 486.277,654.877 z" id="boundary" inkscape:connector-curvature="0" />
	<path style="fill:none;stroke:red;stroke-width:1px;stroke-linecap:butt;stroke-linejoin:miter;stroke-opacity:1" d="M 486.277,525.486 525.486,525.486 z" id="boundary" inkscape:connector-curvature="0" />
	<path style="fill:none;stroke:red;stroke-width:1px;stroke-linecap:butt;stroke-linejoin:miter;stroke-opacity:1" d="M 545.091,690.166 505.881,690.166 z" id="boundary" inkscape:connector-curvature="0" />
	<path style="fill:none;stroke:red;stroke-width:1px;stroke-linecap:butt;stroke-linejoin:miter;stroke-opacity:1" d="M 564.696,654.877 525.486,654.877 z" id="boundary" inkscape:connector-curvature="0" />
	<path style="fill:none;stroke:red;stroke-width:1px;stroke-linecap:butt;stroke-linejoin:miter;stroke-opacity:1" d="M 505.881,690.166 466.672,690.166 z" id="boundary" inkscape:connector-curvature="0" />
	<path style="fill:none;stroke:red;stroke-width:1px;stroke-linecap:butt;stroke-linejoin:miter;stroke-opacity:1" d="M 541.17,482.356 525.486,525.486 z" id="boundary" inkscape:connector-curvature="0" />
	<path style="fill:none;stroke:red;stroke-width:1px;stroke-linecap:butt;stroke-linejoin:miter;stroke-opacity:1" d="M 541.17,129.47 541.17,168.68 z" id="boundary" inkscape:connector-curvature="0" />
	<path style="fill:none;stroke:red;stroke-width:1px;stroke-linecap:butt;stroke-linejoin:miter;stroke-opacity:1" d="M 541.17,168.68 541.17,207.889 z" id="boundary" inkscape:connector-curvature="0" />
	<path style="fill:none;stroke:red;stroke-width:1px;stroke-linecap:butt;stroke-linejoin:miter;stroke-opacity:1" d="M 541.17,247.099 541.17,286.308 z" id="boundary" inkscape:connector-curvature="0" />
	<path style="fill:none;stroke:red;stroke-width:1px;stroke-linecap:butt;stroke-linejoin:miter;stroke-opacity:1" d="M 541.17,247.099 541.17,207.889 z" id="boundary" inkscape:connector-curvature="0" />
	<path style="fill:none;stroke:red;stroke-width:1px;stroke-linecap:butt;stroke-linejoin:miter;stroke-opacity:1" d="M 541.17,364.727 541.17,403.937 z" id="boundary" inkscape:connector-curvature="0" />
	<path style="fill:none;stroke:red;stroke-width:1px;stroke-linecap:butt;stroke-linejoin:miter;stroke-opacity:1" d="M 541.17,364.727 541.17,325.518 z" id="boundary" inkscape:connector-curvature="0" />
	<path style="fill:none;stroke:red;stroke-width:1px;stroke-linecap:butt;stroke-linejoin:miter;stroke-opacity:1" d="M 541.17,403.937 541.17,443.146 z" id="boundary" inkscape:connector-curvature="0" />
	<path style="fill:none;stroke:red;stroke-width:1px;stroke-linecap:butt;stroke-linejoin:miter;stroke-opacity:1" d="M 564.696,654.877 603.905,654.877 z" id="boundary" inkscape:connector-curvature="0" />
	<path style="fill:none;stroke:red;stroke-width:1px;stroke-linecap:butt;stroke-linejoin:miter;stroke-opacity:1" d="M 545.091,690.166 584.3,690.166 z" id="boundary" inkscape:connector-curvature="0" />
	<path style="fill:none;stroke:red;stroke-width:1px;stroke-linecap:butt;stroke-linejoin:miter;stroke-opacity:1" d="M 603.905,654.877 643.115,654.877 z" id="boundary" inkscape:connector-curvature="0" />
	<path style="fill:none;stroke:red;stroke-width:1px;stroke-linecap:butt;stroke-linejoin:miter;stroke-opacity:1" d="M 662.719,690.166 623.51,690.166 z" id="boundary" inkscape:connector-curvature="0" />
	<path style="fill:none;stroke:red;stroke-width:1px;stroke-linecap:butt;stroke-linejoin:miter;stroke-opacity:1" d="M 643.115,654.877 682.324,654.877 z" id="boundary" inkscape:connector-curvature="0" />
	<path style="fill:none;stroke:red;stroke-width:1px;stroke-linecap:butt;stroke-linejoin:miter;stroke-opacity:1" d="M 701.929,690.166 662.719,690.166 z" id="boundary" inkscape:connector-curvature="0" />
	<path style="fill:none;stroke:red;stroke-width:1px;stroke-linecap:butt;stroke-linejoin:miter;stroke-opacity:1" d="M 623.51,690.166 584.3,690.166 z" id="boundary" inkscape:connector-curvature="0" />
	<path style="fill:none;stroke:red;stroke-width:1px;stroke-linecap:butt;stroke-linejoin:miter;stroke-opacity:1" d="M 541.17,482.356 541.17,443.146 z" id="boundary" inkscape:connector-curvature="0" />
	<path style="fill:none;stroke:red;stroke-width:1px;stroke-linecap:butt;stroke-linejoin:miter;stroke-opacity:1" d="M 427.462,780.348 466.672,780.348 z" id="boundary" inkscape:connector-curvature="0" />
	<path style="fill:none;stroke:red;stroke-width:1px;stroke-linecap:butt;stroke-linejoin:miter;stroke-opacity:1" d="M 447.067,815.636 486.277,815.636 z" id="boundary" inkscape:connector-curvature="0" />
	<path style="fill:none;stroke:red;stroke-width:1px;stroke-linecap:butt;stroke-linejoin:miter;stroke-opacity:1" d="M 466.672,780.348 505.881,780.348 z" id="boundary" inkscape:connector-curvature="0" />
	<path style="fill:none;stroke:red;stroke-width:1px;stroke-linecap:butt;stroke-linejoin:miter;stroke-opacity:1" d="M 450.988,897.976 411.779,897.976 z" id="boundary" inkscape:connector-curvature="0" />
	<path style="fill:none;stroke:red;stroke-width:1px;stroke-linecap:butt;stroke-linejoin:miter;stroke-opacity:1" d="M 505.881,780.348 545.091,780.348 z" id="boundary" inkscape:connector-curvature="0" />
	<path style="fill:none;stroke:red;stroke-width:1px;stroke-linecap:butt;stroke-linejoin:miter;stroke-opacity:1" d="M 525.486,815.636 564.696,815.636 z" id="boundary" inkscape:connector-curvature="0" />
	<path style="fill:none;stroke:red;stroke-width:1px;stroke-linecap:butt;stroke-linejoin:miter;stroke-opacity:1" d="M 545.091,780.348 584.3,780.348 z" id="boundary" inkscape:connector-curvature="0" />
	<path style="fill:none;stroke:red;stroke-width:1px;stroke-linecap:butt;stroke-linejoin:miter;stroke-opacity:1" d="M 525.486,815.636 486.277,815.636 z" id="boundary" inkscape:connector-curvature="0" />
	<path style="fill:none;stroke:red;stroke-width:1px;stroke-linecap:butt;stroke-linejoin:miter;stroke-opacity:1" d="M 450.988,897.976 482.356,921.502 z" id="boundary" inkscape:connector-curvature="0" />
	<path style="fill:none;stroke:red;stroke-width:1px;stroke-linecap:butt;stroke-linejoin:miter;stroke-opacity:1" d="M 513.723,897.976 482.356,921.502 z" id="boundary" inkscape:connector-curvature="0" />
	<path style="fill:none;stroke:red;stroke-width:1px;stroke-linecap:butt;stroke-linejoin:miter;stroke-opacity:1" d="M 494.119,980.316 533.328,980.316 z" id="boundary" inkscape:connector-curvature="0" />
	<path style="fill:none;stroke:red;stroke-width:1px;stroke-linecap:butt;stroke-linejoin:miter;stroke-opacity:1" d="M 494.119,980.316 454.909,980.316 z" id="boundary" inkscape:connector-curvature="0" />
	<path style="fill:none;stroke:red;stroke-width:1px;stroke-linecap:butt;stroke-linejoin:miter;stroke-opacity:1" d="M 576.458,897.976 545.091,921.502 z" id="boundary" inkscape:connector-curvature="0" />
	<path style="fill:none;stroke:red;stroke-width:1px;stroke-linecap:butt;stroke-linejoin:miter;stroke-opacity:1" d="M 545.091,921.502 513.723,897.976 z" id="boundary" inkscape:connector-curvature="0" />
	<path style="fill:none;stroke:red;stroke-width:1px;stroke-linecap:butt;stroke-linejoin:miter;stroke-opacity:1" d="M 572.538,980.316 533.328,980.316 z" id="boundary" inkscape:connector-curvature="0" />
	<path style="fill:none;stroke:red;stroke-width:1px;stroke-linecap:butt;stroke-linejoin:miter;stroke-opacity:1" d="M 576.458,897.976 607.826,921.502 z" id="boundary" inkscape:connector-curvature="0" />
	<path style="fill:none;stroke:red;stroke-width:1px;stroke-linecap:butt;stroke-linejoin:miter;stroke-opacity:1" d="M 564.696,815.636 603.905,815.636 z" id="boundary" inkscape:connector-curvature="0" />
	<path style="fill:none;stroke:red;stroke-width:1px;stroke-linecap:butt;stroke-linejoin:miter;stroke-opacity:1" d="M 584.3,780.348 623.51,780.348 z" id="boundary" inkscape:connector-curvature="0" />
	<path style="fill:none;stroke:red;stroke-width:1px;stroke-linecap:butt;stroke-linejoin:miter;stroke-opacity:1" d="M 603.905,815.636 643.115,815.636 z" id="boundary" inkscape:connector-curvature="0" />
	<path style="fill:none;stroke:red;stroke-width:1px;stroke-linecap:butt;stroke-linejoin:miter;stroke-opacity:1" d="M 623.51,780.348 662.719,780.348 z" id="boundary" inkscape:connector-curvature="0" />
	<path style="fill:none;stroke:red;stroke-width:1px;stroke-linecap:butt;stroke-linejoin:miter;stroke-opacity:1" d="M 701.929,780.348 662.719,780.348 z" id="boundary" inkscape:connector-curvature="0" />
	<path style="fill:none;stroke:red;stroke-width:1px;stroke-linecap:butt;stroke-linejoin:miter;stroke-opacity:1" d="M 682.324,815.636 701.929,780.348 z" id="boundary" inkscape:connector-curvature="0" />
	<path style="fill:none;stroke:red;stroke-width:1px;stroke-linecap:butt;stroke-linejoin:miter;stroke-opacity:1" d="M 701.929,780.348 717.613,897.976 z" id="boundary" inkscape:connector-curvature="0" />
	<path style="fill:none;stroke:red;stroke-width:1px;stroke-linecap:butt;stroke-linejoin:miter;stroke-opacity:1" d="M 701.929,690.166 745.059,929.344 z" id="boundary" inkscape:connector-curvature="0" />
	<path style="fill:none;stroke:red;stroke-width:1px;stroke-linecap:butt;stroke-linejoin:miter;stroke-opacity:1" d="M 682.324,815.636 643.115,815.636 z" id="boundary" inkscape:connector-curvature="0" />
	<path style="fill:none;stroke:red;stroke-width:1px;stroke-linecap:butt;stroke-linejoin:miter;stroke-opacity:1" d="M 607.826,921.502 639.194,897.976 z" id="boundary" inkscape:connector-curvature="0" />
	<path style="fill:none;stroke:red;stroke-width:1px;stroke-linecap:butt;stroke-linejoin:miter;stroke-opacity:1" d="M 611.747,980.316 650.957,980.316 z" id="boundary" inkscape:connector-curvature="0" />
	<path style="fill:none;stroke:red;stroke-width:1px;stroke-linecap:butt;stroke-linejoin:miter;stroke-opacity:1" d="M 650.957,980.316 690.166,996 z" id="boundary" inkscape:connector-curvature="0" />
	<path style="fill:none;stroke:red;stroke-width:1px;stroke-linecap:butt;stroke-linejoin:miter;stroke-opacity:1" d="M 639.194,897.976 678.403,897.976 z" id="boundary" inkscape:connector-curvature="0" />
	<path style="fill:none;stroke:red;stroke-width:1px;stroke-linecap:butt;stroke-linejoin:miter;stroke-opacity:1" d="M 611.747,980.316 572.538,980.316 z" id="boundary" inkscape:connector-curvature="0" />
	<path style="fill:none;stroke:red;stroke-width:1px;stroke-linecap:butt;stroke-linejoin:miter;stroke-opacity:1" d="M 678.403,897.976 717.613,897.976 z" id="boundary" inkscape:connector-curvature="0" />
	<path style="fill:none;stroke:red;stroke-width:1px;stroke-linecap:butt;stroke-linejoin:miter;stroke-opacity:1" d="M 729.375,980.316 690.166,996 z" id="boundary" inkscape:connector-curvature="0" />
	<path style="fill:none;stroke:red;stroke-width:1px;stroke-linecap:butt;stroke-linejoin:miter;stroke-opacity:1" d="M 717.613,897.976 745.059,929.344 z" id="boundary" inkscape:connector-curvature="0" />
	<path style="fill:none;stroke:red;stroke-width:1px;stroke-linecap:butt;stroke-linejoin:miter;stroke-opacity:1" d="M 745.059,929.344 729.375,980.316 z" id="boundary" inkscape:connector-curvature="0" />
	<path style="fill:none;stroke:red;stroke-width:1px;stroke-linecap:butt;stroke-linejoin:miter;stroke-opacity:1" d="M 380.411,4 419.621,4 z" id="boundary" inkscape:connector-curvature="0" />
	<circle cx="4" cy="905.818" r="4" fill="#0" id="circle0"/>
	<circle cx="4" cy="945.028" r="4" fill="#0" id="circle1"/>
	<circle cx="23.6047" cy="980.316" r="4" fill="#0" id="circle2"/>
	<circle cx="43.2095" cy="897.976" r="4" fill="#0" id="circle3"/>
	<circle cx="62.8142" cy="980.316" r="4" fill="#0" id="circle4"/>
	<circle cx="74.5771" cy="921.502" r="4" fill="#0" id="circle5"/>
	<circle cx="102.024" cy="980.316" r="4" fill="#0" id="circle6"/>
	<circle cx="105.945" cy="897.976" r="4" fill="#0" id="circle7"/>
	<circle cx="137.312" cy="662.719" r="4" fill="#0" id="circle8"/>
	<circle cx="137.312" cy="780.348" r="4" fill="#0" id="circle9"/>
	<circle cx="137.312" cy="921.502" r="4" fill="#0" id="circle10"/>
	<circle cx="141.233" cy="980.316" r="4" fill="#0" id="circle11"/>
	<circle cx="156.917" cy="815.636" r="4" fill="#0" id="circle12"/>
	<circle cx="168.68" cy="90.2609" r="4" fill="#0" id="circle13"/>
	<circle cx="168.68" cy="129.47" r="4" fill="#0" id="circle14"/>
	<circle cx="168.68" cy="168.68" r="4" fill="#0" id="circle15"/>
	<circle cx="168.68" cy="207.889" r="4" fill="#0" id="circle16"/>
	<circle cx="168.68" cy="690.166" r="4" fill="#0" id="circle17"/>
	<circle cx="168.68" cy="897.976" r="4" fill="#0" id="circle18"/>
	<circle cx="176.522" cy="780.348" r="4" fill="#0" id="circle19"/>
	<circle cx="180.443" cy="980.316" r="4" fill="#0" id="circle20"/>
	<circle cx="184.364" cy="19.6838" r="4" fill="#0" id="circle21"/>
	<circle cx="184.364" cy="247.099" r="4" fill="#0" id="circle22"/>
	<circle cx="184.364" cy="286.308" r="4" fill="#0" id="circle23"/>
	<circle cx="184.364" cy="325.518" r="4" fill="#0" id="circle24"/>
	<circle cx="184.364" cy="364.727" r="4" fill="#0" id="circle25"/>
	<circle cx="184.364" cy="403.937" r="4" fill="#0" id="circle26"/>
	<circle cx="184.364" cy="443.146" r="4" fill="#0" id="circle27"/>
	<circle cx="184.364" cy="482.356" r="4" fill="#0" id="circle28"/>
	<circle cx="188.285" cy="654.877" r="4" fill="#0" id="circle29"/>
	<circle cx="196.126" cy="521.565" r="4" fill="#0" id="circle30"/>
	<circle cx="196.126" cy="815.636" r="4" fill="#0" id="circle31"/>
	<circle cx="200.047" cy="921.502" r="4" fill="#0" id="circle32"/>
	<circle cx="207.889" cy="690.166" r="4" fill="#0" id="circle33"/>
	<circle cx="215.731" cy="780.348" r="4" fill="#0" id="circle34"/>
	<circle cx="219.652" cy="980.316" r="4" fill="#0" id="circle35"/>
	<circle cx="223.573" cy="4" r="4" fill="#0" id="circle36"/>
	<circle cx="223.573" cy="552.933" r="4" fill="#0" id="circle37"/>
	<circle cx="223.573" cy="592.142" r="4" fill="#0" id="circle38"/>
	<circle cx="223.573" cy="631.352" r="4" fill="#0" id="circle39"/>
	<circle cx="223.573" cy="729.375" r="4" fill="#0" id="circle40"/>
	<circle cx="223.573" cy="847.004" r="4" fill="#0" id="circle41"/>
	<circle cx="223.573" cy="886.213" r="4" fill="#0" id="circle42"/>
	<circle cx="258.862" cy="980.316" r="4" fill="#0" id="circle43"/>
	<circle cx="262.783" cy="4" r="4" fill="#0" id="circle44"/>
	<circle cx="298.071" cy="980.316" r="4" fill="#0" id="circle45"/>
	<circle cx="301.992" cy="4" r="4" fill="#0" id="circle46"/>
	<circle cx="337.281" cy="992.079" r="4" fill="#0" id="circle47"/>
	<circle cx="341.202" cy="4" r="4" fill="#0" id="circle48"/>
	<circle cx="368.648" cy="529.407" r="4" fill="#0" id="circle49"/>
	<circle cx="368.648" cy="568.617" r="4" fill="#0" id="circle50"/>
	<circle cx="368.648" cy="607.826" r="4" fill="#0" id="circle51"/>
	<circle cx="368.648" cy="647.036" r="4" fill="#0" id="circle52"/>
	<circle cx="368.648" cy="701.929" r="4" fill="#0" id="circle53"/>
	<circle cx="368.648" cy="741.138" r="4" fill="#0" id="circle54"/>
	<circle cx="368.648" cy="819.557" r="4" fill="#0" id="circle55"/>
	<circle cx="368.648" cy="858.767" r="4" fill="#0" id="circle56"/>
	<circle cx="372.569" cy="780.348" r="4" fill="#0" id="circle57"/>
	<circle cx="372.569" cy="897.976" r="4" fill="#0" id="circle58"/>
	<circle cx="376.49" cy="980.316" r="4" fill="#0" id="circle59"/>
	<circle cx="380.411" cy="4" r="4" fill="#0" id="circle60"/>
	<circle cx="407.858" cy="525.486" r="4" fill="#0" id="circle61"/>
	<circle cx="407.858" cy="654.877" r="4" fill="#0" id="circle62"/>
	<circle cx="407.858" cy="815.636" r="4" fill="#0" id="circle63"/>
	<circle cx="411.779" cy="897.976" r="4" fill="#0" id="circle64"/>
	<circle cx="415.7" cy="992.079" r="4" fill="#0" id="circle65"/>
	<circle cx="419.621" cy="4" r="4" fill="#0" id="circle66"/>
	<circle cx="427.462" cy="690.166" r="4" fill="#0" id="circle67"/>
	<circle cx="427.462" cy="780.348" r="4" fill="#0" id="circle68"/>
	<circle cx="447.067" cy="525.486" r="4" fill="#0" id="circle69"/>
	<circle cx="447.067" cy="654.877" r="4" fill="#0" id="circle70"/>
	<circle cx="447.067" cy="815.636" r="4" fill="#0" id="circle71"/>
	<circle cx="450.988" cy="897.976" r="4" fill="#0" id="circle72"/>
	<circle cx="454.909" cy="980.316" r="4" fill="#0" id="circle73"/>
	<circle cx="458.83" cy="4" r="4" fill="#0" id="circle74"/>
	<circle cx="466.672" cy="690.166" r="4" fill="#0" id="circle75"/>
	<circle cx="466.672" cy="780.348" r="4" fill="#0" id="circle76"/>
	<circle cx="482.356" cy="921.502" r="4" fill="#0" id="circle77"/>
	<circle cx="486.277" cy="525.486" r="4" fill="#0" id="circle78"/>
	<circle cx="486.277" cy="654.877" r="4" fill="#0" id="circle79"/>
	<circle cx="486.277" cy="815.636" r="4" fill="#0" id="circle80"/>
	<circle cx="494.119" cy="980.316" r="4" fill="#0" id="circle81"/>
	<circle cx="498.04" cy="4" r="4" fill="#0" id="circle82"/>
	<circle cx="505.881" cy="690.166" r="4" fill="#0" id="circle83"/>
	<circle cx="505.881" cy="780.348" r="4" fill="#0" id="circle84"/>
	<circle cx="513.723" cy="897.976" r="4" fill="#0" id="circle85"/>
	<circle cx="525.486" cy="525.486" r="4" fill="#0" id="circle86"/>
	<circle cx="525.486" cy="654.877" r="4" fill="#0" id="circle87"/>
	<circle cx="525.486" cy="815.636" r="4" fill="#0" id="circle88"/>
	<circle cx="533.328" cy="980.316" r="4" fill="#0" id="circle89"/>
	<circle cx="537.249" cy="11.8419" r="4" fill="#0" id="circle90"/>
	<circle cx="541.17" cy="51.0514" r="4" fill="#0" id="circle91"/>
	<circle cx="541.17" cy="90.2609" r="4" fill="#0" id="circle92"/>
	<circle cx="541.17" cy="129.47" r="4" fill="#0" id="circle93"/>
	<circle cx="541.17" cy="168.68" r="4" fill="#0" id="circle94"/>
	<circle cx="541.17" cy="207.889" r="4" fill="#0" id="circle95"/>
	<circle cx="541.17" cy="247.099" r="4" fill="#0" id="circle96"/>
	<circle cx="541.17" cy="286.308" r="4" fill="#0" id="circle97"/>
	<circle cx="541.17" cy="325.518" r="4" fill="#0" id="circle98"/>
	<circle cx="541.17" cy="364.727" r="4" fill="#0" id="circle99"/>
	<circle cx="541.17" cy="403.937" r="4" fill="#0" id="circle100"/>
	<circle cx="541.17" cy="443.146" r="4" fill="#0" id="circle101"/>
	<circle cx="541.17" cy="482.356" r="4" fill="#0" id="circle102"/>
	<circle cx="545.091" cy="690.166" r="4" fill="#0" id="circle103"/>
	<circle cx="545.091" cy="780.348" r="4" fill="#0" id="circle104"/>
	<circle cx="545.091" cy="921.502" r="4" fill="#0" id="circle105"/>
	<circle cx="564.696" cy="654.877" r="4" fill="#0" id="circle106"/>
	<circle cx="564.696" cy="815.636" r="4" fill="#0" id="circle107"/>
	<circle cx="572.538" cy="980.316" r="4" fill="#0" id="circle108"/>
	<circle cx="576.458" cy="897.976" r="4" fill="#0" id="circle109"/>
	<circle cx="584.3" cy="690.166" r="4" fill="#0" id="circle110"/>
	<circle cx="584.3" cy="780.348" r="4" fill="#0" id="circle111"/>
	<circle cx="603.905" cy="654.877" r="4" fill="#0" id="circle112"/>
	<circle cx="603.905" cy="815.636" r="4" fill="#0" id="circle113"/>
	<circle cx="607.826" cy="921.502" r="4" fill="#0" id="circle114"/>
	<circle cx="611.747" cy="980.316" r="4" fill="#0" id="circle115"/>
	<circle cx="623.51" cy="690.166" r="4" fill="#0" id="circle116"/>
	<circle cx="623.51" cy="780.348" r="4" fill="#0" id="circle117"/>
	<circle cx="639.194" cy="897.976" r="4" fill="#0" id="circle118"/>
	<circle cx="643.115" cy="654.877" r="4" fill="#0" id="circle119"/>
	<circle cx="643.115" cy="815.636" r="4" fill="#0" id="circle120"/>
	<circle cx="650.957" cy="980.316" r="4" fill="#0" id="circle121"/>
	<circle cx="662.719" cy="690.166" r="4" fill="#0" id="circle122"/>
	<circle cx="662.719" cy="780.348" r="4" fill="#0" id="circle123"/>
	<circle cx="678.403" cy="897.976" r="4" fill="#0" id="circle124"/>
	<circle cx="682.324" cy="654.877" r="4" fill="#0" id="circle125"/>
	<circle cx="682.324" cy="815.636" r="4" fill="#0" id="circle126"/>
	<circle cx="690.166" cy="996" r="4" fill="#0" id="circle127"/>
	<circle cx="701.929" cy="690.166" r="4" fill="#0" id="circle128"/>
	<circle cx="701.929" cy="780.348" r="4" fill="#0" id="circle129"/>
	<circle cx="717.613" cy="897.976" r="4" fill="#0" id="circle130"/>
	<circle cx="729.375" cy="980.316" r="4" fill="#0" id="circle131"/>
	<circle cx="745.059" cy="929.344" r="4" fill="#0" id="circle132"/>
	</g>
</svg>