<?xml version="1.0" encoding="UTF-8" standalone="no"?>
<!-- Created with CurveBenchmark -->
<svg
	xmlns:dc="http://purl.org/dc/elements/1.1/"
	xmlns:cc="http://creativecommons.org/ns#"
	xmlns:rdf="http://www.w3.org/1999/02/22-rdf-syntax-ns#"
	xmlns:svg="http://www.w3.org/2000/svg"
	xmlns="http://www.w3.org/2000/svg"
	xmlns:sodipodi="http://sodipodi.sourceforge.net/DTD/sodipodi-0.dtd"
	xmlns:inkscape="http://www.inkscape.org/namespaces/inkscape"
	width="1000"
	height="1000"
	id="svg2"
	version="1.1"
	sodipodi:docname="manifold/peel-fgen5fp.png.txt">
<defs
	id="defs4" />
<metadata
	id="metadata7">
	<rdf:RDF>
		<cc:Work
			rdf:about="">
			<dc:format>image/svg+xml</dc:format>
			<dc:type
				rdf:resource="http://purl.org/dc/dcmitype/StillImage" />
			<dc:title></dc:title>
		</cc:Work>
	</rdf:RDF>
</metadata>
<g
	inkscape:label="Layer 1"
	inkscape:groupmode="layer"
	id="layer1">
	<path style="fill:none;stroke:red;stroke-width:1px;stroke-linecap:butt;stroke-linejoin:miter;stroke-opacity:1" d="M 4,151.487 20.1629,135.324 z" id="boundary" inkscape:connector-curvature="0" />
	<path style="fill:none;stroke:red;stroke-width:1px;stroke-linecap:butt;stroke-linejoin:miter;stroke-opacity:1" d="M 4,151.487 20.1629,165.629 z" id="boundary" inkscape:connector-curvature="0" />
	<path style="fill:none;stroke:red;stroke-width:1px;stroke-linecap:butt;stroke-linejoin:miter;stroke-opacity:1" d="M 20.1629,135.324 36.3259,119.161 z" id="boundary" inkscape:connector-curvature="0" />
	<path style="fill:none;stroke:red;stroke-width:1px;stroke-linecap:butt;stroke-linejoin:miter;stroke-opacity:1" d="M 20.1629,165.629 36.3259,177.752 z" id="boundary" inkscape:connector-curvature="0" />
	<path style="fill:none;stroke:red;stroke-width:1px;stroke-linecap:butt;stroke-linejoin:miter;stroke-opacity:1" d="M 36.3259,119.161 52.4888,105.018 z" id="boundary" inkscape:connector-curvature="0" />
	<path style="fill:none;stroke:red;stroke-width:1px;stroke-linecap:butt;stroke-linejoin:miter;stroke-opacity:1" d="M 56.5295,177.752 36.3259,177.752 z" id="boundary" inkscape:connector-curvature="0" />
	<path style="fill:none;stroke:red;stroke-width:1px;stroke-linecap:butt;stroke-linejoin:miter;stroke-opacity:1" d="M 44.4073,414.134 44.4073,434.338 z" id="boundary" inkscape:connector-curvature="0" />
	<path style="fill:none;stroke:red;stroke-width:1px;stroke-linecap:butt;stroke-linejoin:miter;stroke-opacity:1" d="M 54.5092,343.422 44.4073,373.727 z" id="boundary" inkscape:connector-curvature="0" />
	<path style="fill:none;stroke:red;stroke-width:1px;stroke-linecap:butt;stroke-linejoin:miter;stroke-opacity:1" d="M 44.4073,434.338 44.4073,454.542 z" id="boundary" inkscape:connector-curvature="0" />
	<path style="fill:none;stroke:red;stroke-width:1px;stroke-linecap:butt;stroke-linejoin:miter;stroke-opacity:1" d="M 44.4073,454.542 64.611,460.603 z" id="boundary" inkscape:connector-curvature="0" />
	<path style="fill:none;stroke:red;stroke-width:1px;stroke-linecap:butt;stroke-linejoin:miter;stroke-opacity:1" d="M 54.5092,391.91 44.4073,414.134 z" id="boundary" inkscape:connector-curvature="0" />
	<path style="fill:none;stroke:red;stroke-width:1px;stroke-linecap:butt;stroke-linejoin:miter;stroke-opacity:1" d="M 54.5092,391.91 44.4073,373.727 z" id="boundary" inkscape:connector-curvature="0" />
	<path style="fill:none;stroke:red;stroke-width:1px;stroke-linecap:butt;stroke-linejoin:miter;stroke-opacity:1" d="M 74.7128,187.853 84.8147,206.037 z" id="boundary" inkscape:connector-curvature="0" />
	<path style="fill:none;stroke:red;stroke-width:1px;stroke-linecap:butt;stroke-linejoin:miter;stroke-opacity:1" d="M 74.7128,187.853 56.5295,177.752 z" id="boundary" inkscape:connector-curvature="0" />
	<path style="fill:none;stroke:red;stroke-width:1px;stroke-linecap:butt;stroke-linejoin:miter;stroke-opacity:1" d="M 54.5092,343.422 64.611,323.218 z" id="boundary" inkscape:connector-curvature="0" />
	<path style="fill:none;stroke:red;stroke-width:1px;stroke-linecap:butt;stroke-linejoin:miter;stroke-opacity:1" d="M 64.611,323.218 64.611,303.014 z" id="boundary" inkscape:connector-curvature="0" />
	<path style="fill:none;stroke:red;stroke-width:1px;stroke-linecap:butt;stroke-linejoin:miter;stroke-opacity:1" d="M 52.4888,105.018 70.6721,94.9165 z" id="boundary" inkscape:connector-curvature="0" />
	<path style="fill:none;stroke:red;stroke-width:1px;stroke-linecap:butt;stroke-linejoin:miter;stroke-opacity:1" d="M 74.7128,272.709 84.8147,242.403 z" id="boundary" inkscape:connector-curvature="0" />
	<path style="fill:none;stroke:red;stroke-width:1px;stroke-linecap:butt;stroke-linejoin:miter;stroke-opacity:1" d="M 74.7128,272.709 64.611,303.014 z" id="boundary" inkscape:connector-curvature="0" />
	<path style="fill:none;stroke:red;stroke-width:1px;stroke-linecap:butt;stroke-linejoin:miter;stroke-opacity:1" d="M 94.9165,224.22 84.8147,242.403 z" id="boundary" inkscape:connector-curvature="0" />
	<path style="fill:none;stroke:red;stroke-width:1px;stroke-linecap:butt;stroke-linejoin:miter;stroke-opacity:1" d="M 111.079,84.8147 90.8758,84.8147 z" id="boundary" inkscape:connector-curvature="0" />
	<path style="fill:none;stroke:red;stroke-width:1px;stroke-linecap:butt;stroke-linejoin:miter;stroke-opacity:1" d="M 90.8758,84.8147 70.6721,94.9165 z" id="boundary" inkscape:connector-curvature="0" />
	<path style="fill:none;stroke:red;stroke-width:1px;stroke-linecap:butt;stroke-linejoin:miter;stroke-opacity:1" d="M 84.8147,464.644 64.611,460.603 z" id="boundary" inkscape:connector-curvature="0" />
	<path style="fill:none;stroke:red;stroke-width:1px;stroke-linecap:butt;stroke-linejoin:miter;stroke-opacity:1" d="M 94.9165,787.902 84.8147,818.208 z" id="boundary" inkscape:connector-curvature="0" />
	<path style="fill:none;stroke:red;stroke-width:1px;stroke-linecap:butt;stroke-linejoin:miter;stroke-opacity:1" d="M 84.8147,818.208 105.018,824.269 z" id="boundary" inkscape:connector-curvature="0" />
	<path style="fill:none;stroke:red;stroke-width:1px;stroke-linecap:butt;stroke-linejoin:miter;stroke-opacity:1" d="M 94.9165,224.22 84.8147,206.037 z" id="boundary" inkscape:connector-curvature="0" />
	<path style="fill:none;stroke:red;stroke-width:1px;stroke-linecap:butt;stroke-linejoin:miter;stroke-opacity:1" d="M 84.8147,464.644 94.9165,444.44 z" id="boundary" inkscape:connector-curvature="0" />
	<path style="fill:none;stroke:red;stroke-width:1px;stroke-linecap:butt;stroke-linejoin:miter;stroke-opacity:1" d="M 125.222,454.542 115.12,434.338 z" id="boundary" inkscape:connector-curvature="0" />
	<path style="fill:none;stroke:red;stroke-width:1px;stroke-linecap:butt;stroke-linejoin:miter;stroke-opacity:1" d="M 115.12,434.338 94.9165,444.44 z" id="boundary" inkscape:connector-curvature="0" />
	<path style="fill:none;stroke:red;stroke-width:1px;stroke-linecap:butt;stroke-linejoin:miter;stroke-opacity:1" d="M 127.242,68.6517 147.446,58.5499 z" id="boundary" inkscape:connector-curvature="0" />
	<path style="fill:none;stroke:red;stroke-width:1px;stroke-linecap:butt;stroke-linejoin:miter;stroke-opacity:1" d="M 127.242,68.6517 111.079,84.8147 z" id="boundary" inkscape:connector-curvature="0" />
	<path style="fill:none;stroke:red;stroke-width:1px;stroke-linecap:butt;stroke-linejoin:miter;stroke-opacity:1" d="M 94.9165,727.291 94.9165,747.495 z" id="boundary" inkscape:connector-curvature="0" />
	<path style="fill:none;stroke:red;stroke-width:1px;stroke-linecap:butt;stroke-linejoin:miter;stroke-opacity:1" d="M 94.9165,747.495 94.9165,767.699 z" id="boundary" inkscape:connector-curvature="0" />
	<path style="fill:none;stroke:red;stroke-width:1px;stroke-linecap:butt;stroke-linejoin:miter;stroke-opacity:1" d="M 105.018,666.68 105.018,646.477 z" id="boundary" inkscape:connector-curvature="0" />
	<path style="fill:none;stroke:red;stroke-width:1px;stroke-linecap:butt;stroke-linejoin:miter;stroke-opacity:1" d="M 94.9165,767.699 94.9165,787.902 z" id="boundary" inkscape:connector-curvature="0" />
	<path style="fill:none;stroke:red;stroke-width:1px;stroke-linecap:butt;stroke-linejoin:miter;stroke-opacity:1" d="M 212.098,894.982 206.037,874.778 z" id="boundary" inkscape:connector-curvature="0" />
	<path style="fill:none;stroke:red;stroke-width:1px;stroke-linecap:butt;stroke-linejoin:miter;stroke-opacity:1" d="M 105.018,686.884 105.018,707.088 z" id="boundary" inkscape:connector-curvature="0" />
	<path style="fill:none;stroke:red;stroke-width:1px;stroke-linecap:butt;stroke-linejoin:miter;stroke-opacity:1" d="M 105.018,707.088 94.9165,727.291 z" id="boundary" inkscape:connector-curvature="0" />
	<path style="fill:none;stroke:red;stroke-width:1px;stroke-linecap:butt;stroke-linejoin:miter;stroke-opacity:1" d="M 105.018,666.68 105.018,686.884 z" id="boundary" inkscape:connector-curvature="0" />
	<path style="fill:none;stroke:red;stroke-width:1px;stroke-linecap:butt;stroke-linejoin:miter;stroke-opacity:1" d="M 125.222,494.949 115.12,515.153 z" id="boundary" inkscape:connector-curvature="0" />
	<path style="fill:none;stroke:red;stroke-width:1px;stroke-linecap:butt;stroke-linejoin:miter;stroke-opacity:1" d="M 115.12,515.153 125.222,533.336 z" id="boundary" inkscape:connector-curvature="0" />
	<path style="fill:none;stroke:red;stroke-width:1px;stroke-linecap:butt;stroke-linejoin:miter;stroke-opacity:1" d="M 105.018,646.477 115.12,626.273 z" id="boundary" inkscape:connector-curvature="0" />
	<path style="fill:none;stroke:red;stroke-width:1px;stroke-linecap:butt;stroke-linejoin:miter;stroke-opacity:1" d="M 115.12,626.273 115.12,606.069 z" id="boundary" inkscape:connector-curvature="0" />
	<path style="fill:none;stroke:red;stroke-width:1px;stroke-linecap:butt;stroke-linejoin:miter;stroke-opacity:1" d="M 125.222,824.269 145.426,828.31 z" id="boundary" inkscape:connector-curvature="0" />
	<path style="fill:none;stroke:red;stroke-width:1px;stroke-linecap:butt;stroke-linejoin:miter;stroke-opacity:1" d="M 125.222,494.949 125.222,474.745 z" id="boundary" inkscape:connector-curvature="0" />
	<path style="fill:none;stroke:red;stroke-width:1px;stroke-linecap:butt;stroke-linejoin:miter;stroke-opacity:1" d="M 125.222,474.745 125.222,454.542 z" id="boundary" inkscape:connector-curvature="0" />
	<path style="fill:none;stroke:red;stroke-width:1px;stroke-linecap:butt;stroke-linejoin:miter;stroke-opacity:1" d="M 115.12,434.338 131.283,420.196 z" id="boundary" inkscape:connector-curvature="0" />
	<path style="fill:none;stroke:red;stroke-width:1px;stroke-linecap:butt;stroke-linejoin:miter;stroke-opacity:1" d="M 125.222,533.336 125.222,553.54 z" id="boundary" inkscape:connector-curvature="0" />
	<path style="fill:none;stroke:red;stroke-width:1px;stroke-linecap:butt;stroke-linejoin:miter;stroke-opacity:1" d="M 185.833,838.411 195.935,856.595 z" id="boundary" inkscape:connector-curvature="0" />
	<path style="fill:none;stroke:red;stroke-width:1px;stroke-linecap:butt;stroke-linejoin:miter;stroke-opacity:1" d="M 125.222,573.743 115.12,606.069 z" id="boundary" inkscape:connector-curvature="0" />
	<path style="fill:none;stroke:red;stroke-width:1px;stroke-linecap:butt;stroke-linejoin:miter;stroke-opacity:1" d="M 125.222,573.743 125.222,553.54 z" id="boundary" inkscape:connector-curvature="0" />
	<path style="fill:none;stroke:red;stroke-width:1px;stroke-linecap:butt;stroke-linejoin:miter;stroke-opacity:1" d="M 551.519,319.177 555.56,339.381 z" id="boundary" inkscape:connector-curvature="0" />
	<path style="fill:none;stroke:red;stroke-width:1px;stroke-linecap:butt;stroke-linejoin:miter;stroke-opacity:1" d="M 385.849,4 406.053,4 z" id="boundary" inkscape:connector-curvature="0" />
	<path style="fill:none;stroke:red;stroke-width:1px;stroke-linecap:butt;stroke-linejoin:miter;stroke-opacity:1" d="M 105.018,824.269 125.222,824.269 z" id="boundary" inkscape:connector-curvature="0" />
	<path style="fill:none;stroke:red;stroke-width:1px;stroke-linecap:butt;stroke-linejoin:miter;stroke-opacity:1" d="M 155.527,808.106 165.629,787.902 z" id="boundary" inkscape:connector-curvature="0" />
	<path style="fill:none;stroke:red;stroke-width:1px;stroke-linecap:butt;stroke-linejoin:miter;stroke-opacity:1" d="M 165.629,787.902 185.833,793.963 z" id="boundary" inkscape:connector-curvature="0" />
	<path style="fill:none;stroke:red;stroke-width:1px;stroke-linecap:butt;stroke-linejoin:miter;stroke-opacity:1" d="M 167.65,48.4481 147.446,58.5499 z" id="boundary" inkscape:connector-curvature="0" />
	<path style="fill:none;stroke:red;stroke-width:1px;stroke-linecap:butt;stroke-linejoin:miter;stroke-opacity:1" d="M 187.853,38.3462 208.057,34.3055 z" id="boundary" inkscape:connector-curvature="0" />
	<path style="fill:none;stroke:red;stroke-width:1px;stroke-linecap:butt;stroke-linejoin:miter;stroke-opacity:1" d="M 187.853,38.3462 167.65,48.4481 z" id="boundary" inkscape:connector-curvature="0" />
	<path style="fill:none;stroke:red;stroke-width:1px;stroke-linecap:butt;stroke-linejoin:miter;stroke-opacity:1" d="M 145.426,828.31 155.527,808.106 z" id="boundary" inkscape:connector-curvature="0" />
	<path style="fill:none;stroke:red;stroke-width:1px;stroke-linecap:butt;stroke-linejoin:miter;stroke-opacity:1" d="M 185.833,793.963 181.792,773.76 z" id="boundary" inkscape:connector-curvature="0" />
	<path style="fill:none;stroke:red;stroke-width:1px;stroke-linecap:butt;stroke-linejoin:miter;stroke-opacity:1" d="M 195.935,856.595 206.037,874.778 z" id="boundary" inkscape:connector-curvature="0" />
	<path style="fill:none;stroke:red;stroke-width:1px;stroke-linecap:butt;stroke-linejoin:miter;stroke-opacity:1" d="M 185.833,793.963 191.894,814.167 z" id="boundary" inkscape:connector-curvature="0" />
	<path style="fill:none;stroke:red;stroke-width:1px;stroke-linecap:butt;stroke-linejoin:miter;stroke-opacity:1" d="M 208.057,34.3055 226.24,24.2037 z" id="boundary" inkscape:connector-curvature="0" />
	<path style="fill:none;stroke:red;stroke-width:1px;stroke-linecap:butt;stroke-linejoin:miter;stroke-opacity:1" d="M 226.24,24.2037 246.444,20.1629 z" id="boundary" inkscape:connector-curvature="0" />
	<path style="fill:none;stroke:red;stroke-width:1px;stroke-linecap:butt;stroke-linejoin:miter;stroke-opacity:1" d="M 191.894,814.167 185.833,838.411 z" id="boundary" inkscape:connector-curvature="0" />
	<path style="fill:none;stroke:red;stroke-width:1px;stroke-linecap:butt;stroke-linejoin:miter;stroke-opacity:1" d="M 216.138,915.185 226.24,933.369 z" id="boundary" inkscape:connector-curvature="0" />
	<path style="fill:none;stroke:red;stroke-width:1px;stroke-linecap:butt;stroke-linejoin:miter;stroke-opacity:1" d="M 286.851,14.1018 266.648,14.1018 z" id="boundary" inkscape:connector-curvature="0" />
	<path style="fill:none;stroke:red;stroke-width:1px;stroke-linecap:butt;stroke-linejoin:miter;stroke-opacity:1" d="M 266.648,14.1018 246.444,20.1629 z" id="boundary" inkscape:connector-curvature="0" />
	<path style="fill:none;stroke:red;stroke-width:1px;stroke-linecap:butt;stroke-linejoin:miter;stroke-opacity:1" d="M 216.138,915.185 212.098,894.982 z" id="boundary" inkscape:connector-curvature="0" />
	<path style="fill:none;stroke:red;stroke-width:1px;stroke-linecap:butt;stroke-linejoin:miter;stroke-opacity:1" d="M 226.24,933.369 238.363,949.532 z" id="boundary" inkscape:connector-curvature="0" />
	<path style="fill:none;stroke:red;stroke-width:1px;stroke-linecap:butt;stroke-linejoin:miter;stroke-opacity:1" d="M 238.363,949.532 252.505,965.695 z" id="boundary" inkscape:connector-curvature="0" />
	<path style="fill:none;stroke:red;stroke-width:1px;stroke-linecap:butt;stroke-linejoin:miter;stroke-opacity:1" d="M 365.646,4 345.442,4 z" id="boundary" inkscape:connector-curvature="0" />
	<path style="fill:none;stroke:red;stroke-width:1px;stroke-linecap:butt;stroke-linejoin:miter;stroke-opacity:1" d="M 305.035,4 325.238,4 z" id="boundary" inkscape:connector-curvature="0" />
	<path style="fill:none;stroke:red;stroke-width:1px;stroke-linecap:butt;stroke-linejoin:miter;stroke-opacity:1" d="M 305.035,4 286.851,14.1018 z" id="boundary" inkscape:connector-curvature="0" />
	<path style="fill:none;stroke:red;stroke-width:1px;stroke-linecap:butt;stroke-linejoin:miter;stroke-opacity:1" d="M 252.505,965.695 270.688,975.796 z" id="boundary" inkscape:connector-curvature="0" />
	<path style="fill:none;stroke:red;stroke-width:1px;stroke-linecap:butt;stroke-linejoin:miter;stroke-opacity:1" d="M 325.238,4 345.442,4 z" id="boundary" inkscape:connector-curvature="0" />
	<path style="fill:none;stroke:red;stroke-width:1px;stroke-linecap:butt;stroke-linejoin:miter;stroke-opacity:1" d="M 309.075,989.939 329.279,996 z" id="boundary" inkscape:connector-curvature="0" />
	<path style="fill:none;stroke:red;stroke-width:1px;stroke-linecap:butt;stroke-linejoin:miter;stroke-opacity:1" d="M 309.075,989.939 288.872,985.898 z" id="boundary" inkscape:connector-curvature="0" />
	<path style="fill:none;stroke:red;stroke-width:1px;stroke-linecap:butt;stroke-linejoin:miter;stroke-opacity:1" d="M 270.688,975.796 288.872,985.898 z" id="boundary" inkscape:connector-curvature="0" />
	<path style="fill:none;stroke:red;stroke-width:1px;stroke-linecap:butt;stroke-linejoin:miter;stroke-opacity:1" d="M 329.279,996 349.483,996 z" id="boundary" inkscape:connector-curvature="0" />
	<path style="fill:none;stroke:red;stroke-width:1px;stroke-linecap:butt;stroke-linejoin:miter;stroke-opacity:1" d="M 349.483,996 369.686,996 z" id="boundary" inkscape:connector-curvature="0" />
	<path style="fill:none;stroke:red;stroke-width:1px;stroke-linecap:butt;stroke-linejoin:miter;stroke-opacity:1" d="M 426.257,6.02037 446.46,14.1018 z" id="boundary" inkscape:connector-curvature="0" />
	<path style="fill:none;stroke:red;stroke-width:1px;stroke-linecap:butt;stroke-linejoin:miter;stroke-opacity:1" d="M 426.257,6.02037 406.053,4 z" id="boundary" inkscape:connector-curvature="0" />
	<path style="fill:none;stroke:red;stroke-width:1px;stroke-linecap:butt;stroke-linejoin:miter;stroke-opacity:1" d="M 385.849,4 365.646,4 z" id="boundary" inkscape:connector-curvature="0" />
	<path style="fill:none;stroke:red;stroke-width:1px;stroke-linecap:butt;stroke-linejoin:miter;stroke-opacity:1" d="M 369.686,996 389.89,996 z" id="boundary" inkscape:connector-curvature="0" />
	<path style="fill:none;stroke:red;stroke-width:1px;stroke-linecap:butt;stroke-linejoin:miter;stroke-opacity:1" d="M 428.277,985.898 448.481,979.837 z" id="boundary" inkscape:connector-curvature="0" />
	<path style="fill:none;stroke:red;stroke-width:1px;stroke-linecap:butt;stroke-linejoin:miter;stroke-opacity:1" d="M 448.481,979.837 468.684,979.837 z" id="boundary" inkscape:connector-curvature="0" />
	<path style="fill:none;stroke:red;stroke-width:1px;stroke-linecap:butt;stroke-linejoin:miter;stroke-opacity:1" d="M 466.664,14.1018 486.868,16.1222 z" id="boundary" inkscape:connector-curvature="0" />
	<path style="fill:none;stroke:red;stroke-width:1px;stroke-linecap:butt;stroke-linejoin:miter;stroke-opacity:1" d="M 486.868,16.1222 507.071,24.2037 z" id="boundary" inkscape:connector-curvature="0" />
	<path style="fill:none;stroke:red;stroke-width:1px;stroke-linecap:butt;stroke-linejoin:miter;stroke-opacity:1" d="M 389.89,996 410.094,996 z" id="boundary" inkscape:connector-curvature="0" />
	<path style="fill:none;stroke:red;stroke-width:1px;stroke-linecap:butt;stroke-linejoin:miter;stroke-opacity:1" d="M 410.094,996 428.277,985.898 z" id="boundary" inkscape:connector-curvature="0" />
	<path style="fill:none;stroke:red;stroke-width:1px;stroke-linecap:butt;stroke-linejoin:miter;stroke-opacity:1" d="M 507.071,24.2037 525.255,34.3055 z" id="boundary" inkscape:connector-curvature="0" />
	<path style="fill:none;stroke:red;stroke-width:1px;stroke-linecap:butt;stroke-linejoin:miter;stroke-opacity:1" d="M 555.56,339.381 565.662,357.564 z" id="boundary" inkscape:connector-curvature="0" />
	<path style="fill:none;stroke:red;stroke-width:1px;stroke-linecap:butt;stroke-linejoin:miter;stroke-opacity:1" d="M 446.46,14.1018 466.664,14.1018 z" id="boundary" inkscape:connector-curvature="0" />
	<path style="fill:none;stroke:red;stroke-width:1px;stroke-linecap:butt;stroke-linejoin:miter;stroke-opacity:1" d="M 468.684,979.837 484.847,963.674 z" id="boundary" inkscape:connector-curvature="0" />
	<path style="fill:none;stroke:red;stroke-width:1px;stroke-linecap:butt;stroke-linejoin:miter;stroke-opacity:1" d="M 484.847,963.674 501.01,935.389 z" id="boundary" inkscape:connector-curvature="0" />
	<path style="fill:none;stroke:red;stroke-width:1px;stroke-linecap:butt;stroke-linejoin:miter;stroke-opacity:1" d="M 543.438,44.4073 525.255,34.3055 z" id="boundary" inkscape:connector-curvature="0" />
	<path style="fill:none;stroke:red;stroke-width:1px;stroke-linecap:butt;stroke-linejoin:miter;stroke-opacity:1" d="M 501.01,935.389 511.112,915.185 z" id="boundary" inkscape:connector-curvature="0" />
	<path style="fill:none;stroke:red;stroke-width:1px;stroke-linecap:butt;stroke-linejoin:miter;stroke-opacity:1" d="M 511.112,915.185 521.214,894.982 z" id="boundary" inkscape:connector-curvature="0" />
	<path style="fill:none;stroke:red;stroke-width:1px;stroke-linecap:butt;stroke-linejoin:miter;stroke-opacity:1" d="M 581.825,642.436 571.723,662.64 z" id="boundary" inkscape:connector-curvature="0" />
	<path style="fill:none;stroke:red;stroke-width:1px;stroke-linecap:butt;stroke-linejoin:miter;stroke-opacity:1" d="M 531.316,834.371 531.316,854.574 z" id="boundary" inkscape:connector-curvature="0" />
	<path style="fill:none;stroke:red;stroke-width:1px;stroke-linecap:butt;stroke-linejoin:miter;stroke-opacity:1" d="M 531.316,854.574 531.316,874.778 z" id="boundary" inkscape:connector-curvature="0" />
	<path style="fill:none;stroke:red;stroke-width:1px;stroke-linecap:butt;stroke-linejoin:miter;stroke-opacity:1" d="M 531.316,874.778 521.214,894.982 z" id="boundary" inkscape:connector-curvature="0" />
	<path style="fill:none;stroke:red;stroke-width:1px;stroke-linecap:butt;stroke-linejoin:miter;stroke-opacity:1" d="M 531.316,834.371 541.418,804.065 z" id="boundary" inkscape:connector-curvature="0" />
	<path style="fill:none;stroke:red;stroke-width:1px;stroke-linecap:butt;stroke-linejoin:miter;stroke-opacity:1" d="M 541.418,804.065 541.418,773.76 z" id="boundary" inkscape:connector-curvature="0" />
	<path style="fill:none;stroke:red;stroke-width:1px;stroke-linecap:butt;stroke-linejoin:miter;stroke-opacity:1" d="M 541.418,773.76 551.519,753.556 z" id="boundary" inkscape:connector-curvature="0" />
	<path style="fill:none;stroke:red;stroke-width:1px;stroke-linecap:butt;stroke-linejoin:miter;stroke-opacity:1" d="M 551.519,753.556 551.519,723.251 z" id="boundary" inkscape:connector-curvature="0" />
	<path style="fill:none;stroke:red;stroke-width:1px;stroke-linecap:butt;stroke-linejoin:miter;stroke-opacity:1" d="M 591.927,622.232 581.825,642.436 z" id="boundary" inkscape:connector-curvature="0" />
	<path style="fill:none;stroke:red;stroke-width:1px;stroke-linecap:butt;stroke-linejoin:miter;stroke-opacity:1" d="M 581.825,54.5092 563.642,44.4073 z" id="boundary" inkscape:connector-curvature="0" />
	<path style="fill:none;stroke:red;stroke-width:1px;stroke-linecap:butt;stroke-linejoin:miter;stroke-opacity:1" d="M 563.642,44.4073 543.438,44.4073 z" id="boundary" inkscape:connector-curvature="0" />
	<path style="fill:none;stroke:red;stroke-width:1px;stroke-linecap:butt;stroke-linejoin:miter;stroke-opacity:1" d="M 551.519,723.251 561.621,703.047 z" id="boundary" inkscape:connector-curvature="0" />
	<path style="fill:none;stroke:red;stroke-width:1px;stroke-linecap:butt;stroke-linejoin:miter;stroke-opacity:1" d="M 561.621,703.047 561.621,682.843 z" id="boundary" inkscape:connector-curvature="0" />
	<path style="fill:none;stroke:red;stroke-width:1px;stroke-linecap:butt;stroke-linejoin:miter;stroke-opacity:1" d="M 551.519,319.177 569.703,309.075 z" id="boundary" inkscape:connector-curvature="0" />
	<path style="fill:none;stroke:red;stroke-width:1px;stroke-linecap:butt;stroke-linejoin:miter;stroke-opacity:1" d="M 587.886,298.974 569.703,309.075 z" id="boundary" inkscape:connector-curvature="0" />
	<path style="fill:none;stroke:red;stroke-width:1px;stroke-linecap:butt;stroke-linejoin:miter;stroke-opacity:1" d="M 591.927,622.232 591.927,602.029 z" id="boundary" inkscape:connector-curvature="0" />
	<path style="fill:none;stroke:red;stroke-width:1px;stroke-linecap:butt;stroke-linejoin:miter;stroke-opacity:1" d="M 561.621,682.843 571.723,662.64 z" id="boundary" inkscape:connector-curvature="0" />
	<path style="fill:none;stroke:red;stroke-width:1px;stroke-linecap:butt;stroke-linejoin:miter;stroke-opacity:1" d="M 591.927,412.114 589.906,391.91 z" id="boundary" inkscape:connector-curvature="0" />
	<path style="fill:none;stroke:red;stroke-width:1px;stroke-linecap:butt;stroke-linejoin:miter;stroke-opacity:1" d="M 589.906,391.91 579.804,373.727 z" id="boundary" inkscape:connector-curvature="0" />
	<path style="fill:none;stroke:red;stroke-width:1px;stroke-linecap:butt;stroke-linejoin:miter;stroke-opacity:1" d="M 600.008,64.611 581.825,54.5092 z" id="boundary" inkscape:connector-curvature="0" />
	<path style="fill:none;stroke:red;stroke-width:1px;stroke-linecap:butt;stroke-linejoin:miter;stroke-opacity:1" d="M 565.662,357.564 579.804,373.727 z" id="boundary" inkscape:connector-curvature="0" />
	<path style="fill:none;stroke:red;stroke-width:1px;stroke-linecap:butt;stroke-linejoin:miter;stroke-opacity:1" d="M 642.436,282.811 622.232,278.77 z" id="boundary" inkscape:connector-curvature="0" />
	<path style="fill:none;stroke:red;stroke-width:1px;stroke-linecap:butt;stroke-linejoin:miter;stroke-opacity:1" d="M 622.232,278.77 602.029,278.77 z" id="boundary" inkscape:connector-curvature="0" />
	<path style="fill:none;stroke:red;stroke-width:1px;stroke-linecap:butt;stroke-linejoin:miter;stroke-opacity:1" d="M 602.029,278.77 587.886,298.974 z" id="boundary" inkscape:connector-curvature="0" />
	<path style="fill:none;stroke:red;stroke-width:1px;stroke-linecap:butt;stroke-linejoin:miter;stroke-opacity:1" d="M 773.76,329.279 753.556,323.218 z" id="boundary" inkscape:connector-curvature="0" />
	<path style="fill:none;stroke:red;stroke-width:1px;stroke-linecap:butt;stroke-linejoin:miter;stroke-opacity:1" d="M 753.556,323.218 733.352,325.238 z" id="boundary" inkscape:connector-curvature="0" />
	<path style="fill:none;stroke:red;stroke-width:1px;stroke-linecap:butt;stroke-linejoin:miter;stroke-opacity:1" d="M 789.923,315.136 773.76,329.279 z" id="boundary" inkscape:connector-curvature="0" />
	<path style="fill:none;stroke:red;stroke-width:1px;stroke-linecap:butt;stroke-linejoin:miter;stroke-opacity:1" d="M 602.029,430.297 591.927,412.114 z" id="boundary" inkscape:connector-curvature="0" />
	<path style="fill:none;stroke:red;stroke-width:1px;stroke-linecap:butt;stroke-linejoin:miter;stroke-opacity:1" d="M 616.171,76.7332 600.008,64.611 z" id="boundary" inkscape:connector-curvature="0" />
	<path style="fill:none;stroke:red;stroke-width:1px;stroke-linecap:butt;stroke-linejoin:miter;stroke-opacity:1" d="M 591.927,602.029 602.029,581.825 z" id="boundary" inkscape:connector-curvature="0" />
	<path style="fill:none;stroke:red;stroke-width:1px;stroke-linecap:butt;stroke-linejoin:miter;stroke-opacity:1" d="M 602.029,581.825 602.029,561.621 z" id="boundary" inkscape:connector-curvature="0" />
	<path style="fill:none;stroke:red;stroke-width:1px;stroke-linecap:butt;stroke-linejoin:miter;stroke-opacity:1" d="M 602.029,470.705 606.069,450.501 z" id="boundary" inkscape:connector-curvature="0" />
	<path style="fill:none;stroke:red;stroke-width:1px;stroke-linecap:butt;stroke-linejoin:miter;stroke-opacity:1" d="M 602.029,470.705 606.069,490.908 z" id="boundary" inkscape:connector-curvature="0" />
	<path style="fill:none;stroke:red;stroke-width:1px;stroke-linecap:butt;stroke-linejoin:miter;stroke-opacity:1" d="M 602.029,430.297 606.069,450.501 z" id="boundary" inkscape:connector-curvature="0" />
	<path style="fill:none;stroke:red;stroke-width:1px;stroke-linecap:butt;stroke-linejoin:miter;stroke-opacity:1" d="M 642.436,282.811 662.64,288.872 z" id="boundary" inkscape:connector-curvature="0" />
	<path style="fill:none;stroke:red;stroke-width:1px;stroke-linecap:butt;stroke-linejoin:miter;stroke-opacity:1" d="M 612.13,531.316 612.13,511.112 z" id="boundary" inkscape:connector-curvature="0" />
	<path style="fill:none;stroke:red;stroke-width:1px;stroke-linecap:butt;stroke-linejoin:miter;stroke-opacity:1" d="M 612.13,511.112 606.069,490.908 z" id="boundary" inkscape:connector-curvature="0" />
	<path style="fill:none;stroke:red;stroke-width:1px;stroke-linecap:butt;stroke-linejoin:miter;stroke-opacity:1" d="M 602.029,561.621 612.13,531.316 z" id="boundary" inkscape:connector-curvature="0" />
	<path style="fill:none;stroke:red;stroke-width:1px;stroke-linecap:butt;stroke-linejoin:miter;stroke-opacity:1" d="M 701.026,303.014 682.843,292.912 z" id="boundary" inkscape:connector-curvature="0" />
	<path style="fill:none;stroke:red;stroke-width:1px;stroke-linecap:butt;stroke-linejoin:miter;stroke-opacity:1" d="M 682.843,292.912 662.64,288.872 z" id="boundary" inkscape:connector-curvature="0" />
	<path style="fill:none;stroke:red;stroke-width:1px;stroke-linecap:butt;stroke-linejoin:miter;stroke-opacity:1" d="M 632.334,90.8758 616.171,76.7332 z" id="boundary" inkscape:connector-curvature="0" />
	<path style="fill:none;stroke:red;stroke-width:1px;stroke-linecap:butt;stroke-linejoin:miter;stroke-opacity:1" d="M 646.477,107.039 652.538,127.242 z" id="boundary" inkscape:connector-curvature="0" />
	<path style="fill:none;stroke:red;stroke-width:1px;stroke-linecap:butt;stroke-linejoin:miter;stroke-opacity:1" d="M 646.477,107.039 632.334,90.8758 z" id="boundary" inkscape:connector-curvature="0" />
	<path style="fill:none;stroke:red;stroke-width:1px;stroke-linecap:butt;stroke-linejoin:miter;stroke-opacity:1" d="M 662.64,145.426 652.538,127.242 z" id="boundary" inkscape:connector-curvature="0" />
	<path style="fill:none;stroke:red;stroke-width:1px;stroke-linecap:butt;stroke-linejoin:miter;stroke-opacity:1" d="M 678.802,157.548 662.64,145.426 z" id="boundary" inkscape:connector-curvature="0" />
	<path style="fill:none;stroke:red;stroke-width:1px;stroke-linecap:butt;stroke-linejoin:miter;stroke-opacity:1" d="M 701.026,303.014 721.23,309.075 z" id="boundary" inkscape:connector-curvature="0" />
	<path style="fill:none;stroke:red;stroke-width:1px;stroke-linecap:butt;stroke-linejoin:miter;stroke-opacity:1" d="M 721.23,309.075 733.352,325.238 z" id="boundary" inkscape:connector-curvature="0" />
	<path style="fill:none;stroke:red;stroke-width:1px;stroke-linecap:butt;stroke-linejoin:miter;stroke-opacity:1" d="M 696.986,167.65 678.802,157.548 z" id="boundary" inkscape:connector-curvature="0" />
	<path style="fill:none;stroke:red;stroke-width:1px;stroke-linecap:butt;stroke-linejoin:miter;stroke-opacity:1" d="M 713.149,181.792 696.986,167.65 z" id="boundary" inkscape:connector-curvature="0" />
	<path style="fill:none;stroke:red;stroke-width:1px;stroke-linecap:butt;stroke-linejoin:miter;stroke-opacity:1" d="M 727.291,197.955 713.149,181.792 z" id="boundary" inkscape:connector-curvature="0" />
	<path style="fill:none;stroke:red;stroke-width:1px;stroke-linecap:butt;stroke-linejoin:miter;stroke-opacity:1" d="M 743.454,212.098 727.291,197.955 z" id="boundary" inkscape:connector-curvature="0" />
	<path style="fill:none;stroke:red;stroke-width:1px;stroke-linecap:butt;stroke-linejoin:miter;stroke-opacity:1" d="M 771.739,240.383 761.637,222.2 z" id="boundary" inkscape:connector-curvature="0" />
	<path style="fill:none;stroke:red;stroke-width:1px;stroke-linecap:butt;stroke-linejoin:miter;stroke-opacity:1" d="M 761.637,222.2 743.454,212.098 z" id="boundary" inkscape:connector-curvature="0" />
	<path style="fill:none;stroke:red;stroke-width:1px;stroke-linecap:butt;stroke-linejoin:miter;stroke-opacity:1" d="M 783.862,256.546 771.739,240.383 z" id="boundary" inkscape:connector-curvature="0" />
	<path style="fill:none;stroke:red;stroke-width:1px;stroke-linecap:butt;stroke-linejoin:miter;stroke-opacity:1" d="M 793.963,274.729 783.862,256.546 z" id="boundary" inkscape:connector-curvature="0" />
	<path style="fill:none;stroke:red;stroke-width:1px;stroke-linecap:butt;stroke-linejoin:miter;stroke-opacity:1" d="M 793.963,294.933 793.963,274.729 z" id="boundary" inkscape:connector-curvature="0" />
	<path style="fill:none;stroke:red;stroke-width:1px;stroke-linecap:butt;stroke-linejoin:miter;stroke-opacity:1" d="M 789.923,315.136 793.963,294.933 z" id="boundary" inkscape:connector-curvature="0" />
	<circle cx="4" cy="151.487" r="4" fill="#0" id="circle0"/>
	<circle cx="20.1629" cy="135.324" r="4" fill="#0" id="circle1"/>
	<circle cx="20.1629" cy="165.629" r="4" fill="#0" id="circle2"/>
	<circle cx="36.3259" cy="119.161" r="4" fill="#0" id="circle3"/>
	<circle cx="36.3259" cy="177.752" r="4" fill="#0" id="circle4"/>
	<circle cx="44.4073" cy="373.727" r="4" fill="#0" id="circle5"/>
	<circle cx="44.4073" cy="414.134" r="4" fill="#0" id="circle6"/>
	<circle cx="44.4073" cy="434.338" r="4" fill="#0" id="circle7"/>
	<circle cx="44.4073" cy="454.542" r="4" fill="#0" id="circle8"/>
	<circle cx="52.4888" cy="105.018" r="4" fill="#0" id="circle9"/>
	<circle cx="54.5092" cy="343.422" r="4" fill="#0" id="circle10"/>
	<circle cx="54.5092" cy="391.91" r="4" fill="#0" id="circle11"/>
	<circle cx="56.5295" cy="177.752" r="4" fill="#0" id="circle12"/>
	<circle cx="64.611" cy="303.014" r="4" fill="#0" id="circle13"/>
	<circle cx="64.611" cy="323.218" r="4" fill="#0" id="circle14"/>
	<circle cx="64.611" cy="460.603" r="4" fill="#0" id="circle15"/>
	<circle cx="70.6721" cy="94.9165" r="4" fill="#0" id="circle16"/>
	<circle cx="74.7128" cy="187.853" r="4" fill="#0" id="circle17"/>
	<circle cx="74.7128" cy="272.709" r="4" fill="#0" id="circle18"/>
	<circle cx="84.8147" cy="206.037" r="4" fill="#0" id="circle19"/>
	<circle cx="84.8147" cy="242.403" r="4" fill="#0" id="circle20"/>
	<circle cx="84.8147" cy="464.644" r="4" fill="#0" id="circle21"/>
	<circle cx="84.8147" cy="818.208" r="4" fill="#0" id="circle22"/>
	<circle cx="90.8758" cy="84.8147" r="4" fill="#0" id="circle23"/>
	<circle cx="94.9165" cy="224.22" r="4" fill="#0" id="circle24"/>
	<circle cx="94.9165" cy="444.44" r="4" fill="#0" id="circle25"/>
	<circle cx="94.9165" cy="727.291" r="4" fill="#0" id="circle26"/>
	<circle cx="94.9165" cy="747.495" r="4" fill="#0" id="circle27"/>
	<circle cx="94.9165" cy="767.699" r="4" fill="#0" id="circle28"/>
	<circle cx="94.9165" cy="787.902" r="4" fill="#0" id="circle29"/>
	<circle cx="105.018" cy="646.477" r="4" fill="#0" id="circle30"/>
	<circle cx="105.018" cy="666.68" r="4" fill="#0" id="circle31"/>
	<circle cx="105.018" cy="686.884" r="4" fill="#0" id="circle32"/>
	<circle cx="105.018" cy="707.088" r="4" fill="#0" id="circle33"/>
	<circle cx="105.018" cy="824.269" r="4" fill="#0" id="circle34"/>
	<circle cx="111.079" cy="84.8147" r="4" fill="#0" id="circle35"/>
	<circle cx="115.12" cy="434.338" r="4" fill="#0" id="circle36"/>
	<circle cx="115.12" cy="515.153" r="4" fill="#0" id="circle37"/>
	<circle cx="115.12" cy="606.069" r="4" fill="#0" id="circle38"/>
	<circle cx="115.12" cy="626.273" r="4" fill="#0" id="circle39"/>
	<circle cx="125.222" cy="454.542" r="4" fill="#0" id="circle40"/>
	<circle cx="125.222" cy="474.745" r="4" fill="#0" id="circle41"/>
	<circle cx="125.222" cy="494.949" r="4" fill="#0" id="circle42"/>
	<circle cx="125.222" cy="533.336" r="4" fill="#0" id="circle43"/>
	<circle cx="125.222" cy="553.54" r="4" fill="#0" id="circle44"/>
	<circle cx="125.222" cy="573.743" r="4" fill="#0" id="circle45"/>
	<circle cx="125.222" cy="824.269" r="4" fill="#0" id="circle46"/>
	<circle cx="127.242" cy="68.6517" r="4" fill="#0" id="circle47"/>
	<circle cx="131.283" cy="420.196" r="4" fill="#0" id="circle48"/>
	<circle cx="145.426" cy="828.31" r="4" fill="#0" id="circle49"/>
	<circle cx="147.446" cy="58.5499" r="4" fill="#0" id="circle50"/>
	<circle cx="155.527" cy="808.106" r="4" fill="#0" id="circle51"/>
	<circle cx="165.629" cy="787.902" r="4" fill="#0" id="circle52"/>
	<circle cx="167.65" cy="48.4481" r="4" fill="#0" id="circle53"/>
	<circle cx="181.792" cy="773.76" r="4" fill="#0" id="circle54"/>
	<circle cx="185.833" cy="793.963" r="4" fill="#0" id="circle55"/>
	<circle cx="185.833" cy="838.411" r="4" fill="#0" id="circle56"/>
	<circle cx="187.853" cy="38.3462" r="4" fill="#0" id="circle57"/>
	<circle cx="191.894" cy="814.167" r="4" fill="#0" id="circle58"/>
	<circle cx="195.935" cy="856.595" r="4" fill="#0" id="circle59"/>
	<circle cx="206.037" cy="874.778" r="4" fill="#0" id="circle60"/>
	<circle cx="208.057" cy="34.3055" r="4" fill="#0" id="circle61"/>
	<circle cx="212.098" cy="894.982" r="4" fill="#0" id="circle62"/>
	<circle cx="216.138" cy="915.185" r="4" fill="#0" id="circle63"/>
	<circle cx="226.24" cy="24.2037" r="4" fill="#0" id="circle64"/>
	<circle cx="226.24" cy="933.369" r="4" fill="#0" id="circle65"/>
	<circle cx="238.363" cy="949.532" r="4" fill="#0" id="circle66"/>
	<circle cx="246.444" cy="20.1629" r="4" fill="#0" id="circle67"/>
	<circle cx="252.505" cy="965.695" r="4" fill="#0" id="circle68"/>
	<circle cx="266.648" cy="14.1018" r="4" fill="#0" id="circle69"/>
	<circle cx="270.688" cy="975.796" r="4" fill="#0" id="circle70"/>
	<circle cx="286.851" cy="14.1018" r="4" fill="#0" id="circle71"/>
	<circle cx="288.872" cy="985.898" r="4" fill="#0" id="circle72"/>
	<circle cx="305.035" cy="4" r="4" fill="#0" id="circle73"/>
	<circle cx="309.075" cy="989.939" r="4" fill="#0" id="circle74"/>
	<circle cx="325.238" cy="4" r="4" fill="#0" id="circle75"/>
	<circle cx="329.279" cy="996" r="4" fill="#0" id="circle76"/>
	<circle cx="345.442" cy="4" r="4" fill="#0" id="circle77"/>
	<circle cx="349.483" cy="996" r="4" fill="#0" id="circle78"/>
	<circle cx="365.646" cy="4" r="4" fill="#0" id="circle79"/>
	<circle cx="369.686" cy="996" r="4" fill="#0" id="circle80"/>
	<circle cx="385.849" cy="4" r="4" fill="#0" id="circle81"/>
	<circle cx="389.89" cy="996" r="4" fill="#0" id="circle82"/>
	<circle cx="406.053" cy="4" r="4" fill="#0" id="circle83"/>
	<circle cx="410.094" cy="996" r="4" fill="#0" id="circle84"/>
	<circle cx="426.257" cy="6.02037" r="4" fill="#0" id="circle85"/>
	<circle cx="428.277" cy="985.898" r="4" fill="#0" id="circle86"/>
	<circle cx="446.46" cy="14.1018" r="4" fill="#0" id="circle87"/>
	<circle cx="448.481" cy="979.837" r="4" fill="#0" id="circle88"/>
	<circle cx="466.664" cy="14.1018" r="4" fill="#0" id="circle89"/>
	<circle cx="468.684" cy="979.837" r="4" fill="#0" id="circle90"/>
	<circle cx="484.847" cy="963.674" r="4" fill="#0" id="circle91"/>
	<circle cx="486.868" cy="16.1222" r="4" fill="#0" id="circle92"/>
	<circle cx="501.01" cy="935.389" r="4" fill="#0" id="circle93"/>
	<circle cx="507.071" cy="24.2037" r="4" fill="#0" id="circle94"/>
	<circle cx="511.112" cy="915.185" r="4" fill="#0" id="circle95"/>
	<circle cx="521.214" cy="894.982" r="4" fill="#0" id="circle96"/>
	<circle cx="525.255" cy="34.3055" r="4" fill="#0" id="circle97"/>
	<circle cx="531.316" cy="834.371" r="4" fill="#0" id="circle98"/>
	<circle cx="531.316" cy="854.574" r="4" fill="#0" id="circle99"/>
	<circle cx="531.316" cy="874.778" r="4" fill="#0" id="circle100"/>
	<circle cx="541.418" cy="773.76" r="4" fill="#0" id="circle101"/>
	<circle cx="541.418" cy="804.065" r="4" fill="#0" id="circle102"/>
	<circle cx="543.438" cy="44.4073" r="4" fill="#0" id="circle103"/>
	<circle cx="551.519" cy="319.177" r="4" fill="#0" id="circle104"/>
	<circle cx="551.519" cy="723.251" r="4" fill="#0" id="circle105"/>
	<circle cx="551.519" cy="753.556" r="4" fill="#0" id="circle106"/>
	<circle cx="555.56" cy="339.381" r="4" fill="#0" id="circle107"/>
	<circle cx="561.621" cy="682.843" r="4" fill="#0" id="circle108"/>
	<circle cx="561.621" cy="703.047" r="4" fill="#0" id="circle109"/>
	<circle cx="563.642" cy="44.4073" r="4" fill="#0" id="circle110"/>
	<circle cx="565.662" cy="357.564" r="4" fill="#0" id="circle111"/>
	<circle cx="569.703" cy="309.075" r="4" fill="#0" id="circle112"/>
	<circle cx="571.723" cy="662.64" r="4" fill="#0" id="circle113"/>
	<circle cx="579.804" cy="373.727" r="4" fill="#0" id="circle114"/>
	<circle cx="581.825" cy="54.5092" r="4" fill="#0" id="circle115"/>
	<circle cx="581.825" cy="642.436" r="4" fill="#0" id="circle116"/>
	<circle cx="587.886" cy="298.974" r="4" fill="#0" id="circle117"/>
	<circle cx="589.906" cy="391.91" r="4" fill="#0" id="circle118"/>
	<circle cx="591.927" cy="412.114" r="4" fill="#0" id="circle119"/>
	<circle cx="591.927" cy="602.029" r="4" fill="#0" id="circle120"/>
	<circle cx="591.927" cy="622.232" r="4" fill="#0" id="circle121"/>
	<circle cx="600.008" cy="64.611" r="4" fill="#0" id="circle122"/>
	<circle cx="602.029" cy="278.77" r="4" fill="#0" id="circle123"/>
	<circle cx="602.029" cy="430.297" r="4" fill="#0" id="circle124"/>
	<circle cx="602.029" cy="470.705" r="4" fill="#0" id="circle125"/>
	<circle cx="602.029" cy="561.621" r="4" fill="#0" id="circle126"/>
	<circle cx="602.029" cy="581.825" r="4" fill="#0" id="circle127"/>
	<circle cx="606.069" cy="450.501" r="4" fill="#0" id="circle128"/>
	<circle cx="606.069" cy="490.908" r="4" fill="#0" id="circle129"/>
	<circle cx="612.13" cy="511.112" r="4" fill="#0" id="circle130"/>
	<circle cx="612.13" cy="531.316" r="4" fill="#0" id="circle131"/>
	<circle cx="616.171" cy="76.7332" r="4" fill="#0" id="circle132"/>
	<circle cx="622.232" cy="278.77" r="4" fill="#0" id="circle133"/>
	<circle cx="632.334" cy="90.8758" r="4" fill="#0" id="circle134"/>
	<circle cx="642.436" cy="282.811" r="4" fill="#0" id="circle135"/>
	<circle cx="646.477" cy="107.039" r="4" fill="#0" id="circle136"/>
	<circle cx="652.538" cy="127.242" r="4" fill="#0" id="circle137"/>
	<circle cx="662.64" cy="145.426" r="4" fill="#0" id="circle138"/>
	<circle cx="662.64" cy="288.872" r="4" fill="#0" id="circle139"/>
	<circle cx="678.802" cy="157.548" r="4" fill="#0" id="circle140"/>
	<circle cx="682.843" cy="292.912" r="4" fill="#0" id="circle141"/>
	<circle cx="696.986" cy="167.65" r="4" fill="#0" id="circle142"/>
	<circle cx="701.026" cy="303.014" r="4" fill="#0" id="circle143"/>
	<circle cx="713.149" cy="181.792" r="4" fill="#0" id="circle144"/>
	<circle cx="721.23" cy="309.075" r="4" fill="#0" id="circle145"/>
	<circle cx="727.291" cy="197.955" r="4" fill="#0" id="circle146"/>
	<circle cx="733.352" cy="325.238" r="4" fill="#0" id="circle147"/>
	<circle cx="743.454" cy="212.098" r="4" fill="#0" id="circle148"/>
	<circle cx="753.556" cy="323.218" r="4" fill="#0" id="circle149"/>
	<circle cx="761.637" cy="222.2" r="4" fill="#0" id="circle150"/>
	<circle cx="771.739" cy="240.383" r="4" fill="#0" id="circle151"/>
	<circle cx="773.76" cy="329.279" r="4" fill="#0" id="circle152"/>
	<circle cx="783.862" cy="256.546" r="4" fill="#0" id="circle153"/>
	<circle cx="789.923" cy="315.136" r="4" fill="#0" id="circle154"/>
	<circle cx="793.963" cy="274.729" r="4" fill="#0" id="circle155"/>
	<circle cx="793.963" cy="294.933" r="4" fill="#0" id="circle156"/>
	</g>
</svg>