<?xml version="1.0" encoding="UTF-8" standalone="no"?>
<!-- Created with CurveBenchmark -->
<svg
	xmlns:dc="http://purl.org/dc/elements/1.1/"
	xmlns:cc="http://creativecommons.org/ns#"
	xmlns:rdf="http://www.w3.org/1999/02/22-rdf-syntax-ns#"
	xmlns:svg="http://www.w3.org/2000/svg"
	xmlns="http://www.w3.org/2000/svg"
	xmlns:sodipodi="http://sodipodi.sourceforge.net/DTD/sodipodi-0.dtd"
	xmlns:inkscape="http://www.inkscape.org/namespaces/inkscape"
	width="1000"
	height="1000"
	id="svg2"
	version="1.1"
	sodipodi:docname="manifold/peel-stef02.png.txt">
<defs
	id="defs4" />
<metadata
	id="metadata7">
	<rdf:RDF>
		<cc:Work
			rdf:about="">
			<dc:format>image/svg+xml</dc:format>
			<dc:type
				rdf:resource="http://purl.org/dc/dcmitype/StillImage" />
			<dc:title></dc:title>
		</cc:Work>
	</rdf:RDF>
</metadata>
<g
	inkscape:label="Layer 1"
	inkscape:groupmode="layer"
	id="layer1">
	<path style="fill:none;stroke:red;stroke-width:1px;stroke-linecap:butt;stroke-linejoin:miter;stroke-opacity:1" d="M 30.8713,127.16 15.1964,109.246 z" id="boundary" inkscape:connector-curvature="0" />
	<path style="fill:none;stroke:red;stroke-width:1px;stroke-linecap:butt;stroke-linejoin:miter;stroke-opacity:1" d="M 4,89.0926 15.1964,55.5034 z" id="boundary" inkscape:connector-curvature="0" />
	<path style="fill:none;stroke:red;stroke-width:1px;stroke-linecap:butt;stroke-linejoin:miter;stroke-opacity:1" d="M 4,89.0926 15.1964,109.246 z" id="boundary" inkscape:connector-curvature="0" />
	<path style="fill:none;stroke:red;stroke-width:1px;stroke-linecap:butt;stroke-linejoin:miter;stroke-opacity:1" d="M 15.1964,55.5034 26.3928,33.1106 z" id="boundary" inkscape:connector-curvature="0" />
	<path style="fill:none;stroke:red;stroke-width:1px;stroke-linecap:butt;stroke-linejoin:miter;stroke-opacity:1" d="M 53.2641,136.117 75.6569,140.596 z" id="boundary" inkscape:connector-curvature="0" />
	<path style="fill:none;stroke:red;stroke-width:1px;stroke-linecap:butt;stroke-linejoin:miter;stroke-opacity:1" d="M 26.3928,33.1106 44.307,15.1964 z" id="boundary" inkscape:connector-curvature="0" />
	<path style="fill:none;stroke:red;stroke-width:1px;stroke-linecap:butt;stroke-linejoin:miter;stroke-opacity:1" d="M 30.8713,127.16 53.2641,136.117 z" id="boundary" inkscape:connector-curvature="0" />
	<path style="fill:none;stroke:red;stroke-width:1px;stroke-linecap:butt;stroke-linejoin:miter;stroke-opacity:1" d="M 75.6569,140.596 98.0497,140.596 z" id="boundary" inkscape:connector-curvature="0" />
	<path style="fill:none;stroke:red;stroke-width:1px;stroke-linecap:butt;stroke-linejoin:miter;stroke-opacity:1" d="M 44.307,15.1964 64.4605,4 z" id="boundary" inkscape:connector-curvature="0" />
	<path style="fill:none;stroke:red;stroke-width:1px;stroke-linecap:butt;stroke-linejoin:miter;stroke-opacity:1" d="M 64.4605,4 86.8533,4 z" id="boundary" inkscape:connector-curvature="0" />
	<path style="fill:none;stroke:red;stroke-width:1px;stroke-linecap:butt;stroke-linejoin:miter;stroke-opacity:1" d="M 127.16,162.989 127.16,185.381 z" id="boundary" inkscape:connector-curvature="0" />
	<path style="fill:none;stroke:red;stroke-width:1px;stroke-linecap:butt;stroke-linejoin:miter;stroke-opacity:1" d="M 120.442,140.596 127.16,162.989 z" id="boundary" inkscape:connector-curvature="0" />
	<path style="fill:none;stroke:red;stroke-width:1px;stroke-linecap:butt;stroke-linejoin:miter;stroke-opacity:1" d="M 120.442,140.596 98.0497,140.596 z" id="boundary" inkscape:connector-curvature="0" />
	<path style="fill:none;stroke:red;stroke-width:1px;stroke-linecap:butt;stroke-linejoin:miter;stroke-opacity:1" d="M 86.8533,4 109.246,4 z" id="boundary" inkscape:connector-curvature="0" />
	<path style="fill:none;stroke:red;stroke-width:1px;stroke-linecap:butt;stroke-linejoin:miter;stroke-opacity:1" d="M 109.246,4 129.4,15.1964 z" id="boundary" inkscape:connector-curvature="0" />
	<path style="fill:none;stroke:red;stroke-width:1px;stroke-linecap:butt;stroke-linejoin:miter;stroke-opacity:1" d="M 147.314,28.6321 129.4,15.1964 z" id="boundary" inkscape:connector-curvature="0" />
	<path style="fill:none;stroke:red;stroke-width:1px;stroke-linecap:butt;stroke-linejoin:miter;stroke-opacity:1" d="M 239.124,917.625 239.124,940.018 z" id="boundary" inkscape:connector-curvature="0" />
	<path style="fill:none;stroke:red;stroke-width:1px;stroke-linecap:butt;stroke-linejoin:miter;stroke-opacity:1" d="M 127.16,185.381 127.16,207.774 z" id="boundary" inkscape:connector-curvature="0" />
	<path style="fill:none;stroke:red;stroke-width:1px;stroke-linecap:butt;stroke-linejoin:miter;stroke-opacity:1" d="M 127.16,207.774 127.16,230.167 z" id="boundary" inkscape:connector-curvature="0" />
	<path style="fill:none;stroke:red;stroke-width:1px;stroke-linecap:butt;stroke-linejoin:miter;stroke-opacity:1" d="M 174.185,66.6998 183.142,89.0926 z" id="boundary" inkscape:connector-curvature="0" />
	<path style="fill:none;stroke:red;stroke-width:1px;stroke-linecap:butt;stroke-linejoin:miter;stroke-opacity:1" d="M 127.16,230.167 133.878,252.56 z" id="boundary" inkscape:connector-curvature="0" />
	<path style="fill:none;stroke:red;stroke-width:1px;stroke-linecap:butt;stroke-linejoin:miter;stroke-opacity:1" d="M 162.989,46.5463 147.314,28.6321 z" id="boundary" inkscape:connector-curvature="0" />
	<path style="fill:none;stroke:red;stroke-width:1px;stroke-linecap:butt;stroke-linejoin:miter;stroke-opacity:1" d="M 154.032,642.194 165.228,662.348 z" id="boundary" inkscape:connector-curvature="0" />
	<path style="fill:none;stroke:red;stroke-width:1px;stroke-linecap:butt;stroke-linejoin:miter;stroke-opacity:1" d="M 154.032,642.194 138.357,624.28 z" id="boundary" inkscape:connector-curvature="0" />
	<path style="fill:none;stroke:red;stroke-width:1px;stroke-linecap:butt;stroke-linejoin:miter;stroke-opacity:1" d="M 138.357,559.341 138.357,581.734 z" id="boundary" inkscape:connector-curvature="0" />
	<path style="fill:none;stroke:red;stroke-width:1px;stroke-linecap:butt;stroke-linejoin:miter;stroke-opacity:1" d="M 138.357,581.734 127.16,604.126 z" id="boundary" inkscape:connector-curvature="0" />
	<path style="fill:none;stroke:red;stroke-width:1px;stroke-linecap:butt;stroke-linejoin:miter;stroke-opacity:1" d="M 145.074,272.713 133.878,252.56 z" id="boundary" inkscape:connector-curvature="0" />
	<path style="fill:none;stroke:red;stroke-width:1px;stroke-linecap:butt;stroke-linejoin:miter;stroke-opacity:1" d="M 127.16,604.126 138.357,624.28 z" id="boundary" inkscape:connector-curvature="0" />
	<path style="fill:none;stroke:red;stroke-width:1px;stroke-linecap:butt;stroke-linejoin:miter;stroke-opacity:1" d="M 138.357,559.341 156.271,541.427 z" id="boundary" inkscape:connector-curvature="0" />
	<path style="fill:none;stroke:red;stroke-width:1px;stroke-linecap:butt;stroke-linejoin:miter;stroke-opacity:1" d="M 174.185,66.6998 162.989,46.5463 z" id="boundary" inkscape:connector-curvature="0" />
	<path style="fill:none;stroke:red;stroke-width:1px;stroke-linecap:butt;stroke-linejoin:miter;stroke-opacity:1" d="M 183.142,89.0926 201.056,104.767 z" id="boundary" inkscape:connector-curvature="0" />
	<path style="fill:none;stroke:red;stroke-width:1px;stroke-linecap:butt;stroke-linejoin:miter;stroke-opacity:1" d="M 156.271,541.427 174.185,523.512 z" id="boundary" inkscape:connector-curvature="0" />
	<path style="fill:none;stroke:red;stroke-width:1px;stroke-linecap:butt;stroke-linejoin:miter;stroke-opacity:1" d="M 145.074,272.713 165.228,283.91 z" id="boundary" inkscape:connector-curvature="0" />
	<path style="fill:none;stroke:red;stroke-width:1px;stroke-linecap:butt;stroke-linejoin:miter;stroke-opacity:1" d="M 201.056,104.767 216.731,122.682 z" id="boundary" inkscape:connector-curvature="0" />
	<path style="fill:none;stroke:red;stroke-width:1px;stroke-linecap:butt;stroke-linejoin:miter;stroke-opacity:1" d="M 230.167,610.844 230.167,588.451 z" id="boundary" inkscape:connector-curvature="0" />
	<path style="fill:none;stroke:red;stroke-width:1px;stroke-linecap:butt;stroke-linejoin:miter;stroke-opacity:1" d="M 183.142,678.023 189.86,700.415 z" id="boundary" inkscape:connector-curvature="0" />
	<path style="fill:none;stroke:red;stroke-width:1px;stroke-linecap:butt;stroke-linejoin:miter;stroke-opacity:1" d="M 183.142,678.023 165.228,662.348 z" id="boundary" inkscape:connector-curvature="0" />
	<path style="fill:none;stroke:red;stroke-width:1px;stroke-linecap:butt;stroke-linejoin:miter;stroke-opacity:1" d="M 165.228,283.91 187.621,292.867 z" id="boundary" inkscape:connector-curvature="0" />
	<path style="fill:none;stroke:red;stroke-width:1px;stroke-linecap:butt;stroke-linejoin:miter;stroke-opacity:1" d="M 174.185,523.512 192.099,507.837 z" id="boundary" inkscape:connector-curvature="0" />
	<path style="fill:none;stroke:red;stroke-width:1px;stroke-linecap:butt;stroke-linejoin:miter;stroke-opacity:1" d="M 207.774,716.09 223.449,734.005 z" id="boundary" inkscape:connector-curvature="0" />
	<path style="fill:none;stroke:red;stroke-width:1px;stroke-linecap:butt;stroke-linejoin:miter;stroke-opacity:1" d="M 207.774,304.063 187.621,292.867 z" id="boundary" inkscape:connector-curvature="0" />
	<path style="fill:none;stroke:red;stroke-width:1px;stroke-linecap:butt;stroke-linejoin:miter;stroke-opacity:1" d="M 192.099,507.837 212.253,496.641 z" id="boundary" inkscape:connector-curvature="0" />
	<path style="fill:none;stroke:red;stroke-width:1px;stroke-linecap:butt;stroke-linejoin:miter;stroke-opacity:1" d="M 239.124,131.639 252.56,149.553 z" id="boundary" inkscape:connector-curvature="0" />
	<path style="fill:none;stroke:red;stroke-width:1px;stroke-linecap:butt;stroke-linejoin:miter;stroke-opacity:1" d="M 239.124,131.639 216.731,122.682 z" id="boundary" inkscape:connector-curvature="0" />
	<path style="fill:none;stroke:red;stroke-width:1px;stroke-linecap:butt;stroke-linejoin:miter;stroke-opacity:1" d="M 207.774,716.09 189.86,700.415 z" id="boundary" inkscape:connector-curvature="0" />
	<path style="fill:none;stroke:red;stroke-width:1px;stroke-linecap:butt;stroke-linejoin:miter;stroke-opacity:1" d="M 207.774,304.063 230.167,313.02 z" id="boundary" inkscape:connector-curvature="0" />
	<path style="fill:none;stroke:red;stroke-width:1px;stroke-linecap:butt;stroke-linejoin:miter;stroke-opacity:1" d="M 230.167,313.02 245.842,330.935 z" id="boundary" inkscape:connector-curvature="0" />
	<path style="fill:none;stroke:red;stroke-width:1px;stroke-linecap:butt;stroke-linejoin:miter;stroke-opacity:1" d="M 241.363,630.998 230.167,610.844 z" id="boundary" inkscape:connector-curvature="0" />
	<path style="fill:none;stroke:red;stroke-width:1px;stroke-linecap:butt;stroke-linejoin:miter;stroke-opacity:1" d="M 230.167,588.451 252.56,588.451 z" id="boundary" inkscape:connector-curvature="0" />
	<path style="fill:none;stroke:red;stroke-width:1px;stroke-linecap:butt;stroke-linejoin:miter;stroke-opacity:1" d="M 259.278,644.433 241.363,630.998 z" id="boundary" inkscape:connector-curvature="0" />
	<path style="fill:none;stroke:red;stroke-width:1px;stroke-linecap:butt;stroke-linejoin:miter;stroke-opacity:1" d="M 212.253,496.641 234.646,485.445 z" id="boundary" inkscape:connector-curvature="0" />
	<path style="fill:none;stroke:red;stroke-width:1px;stroke-linecap:butt;stroke-linejoin:miter;stroke-opacity:1" d="M 241.363,749.679 223.449,734.005 z" id="boundary" inkscape:connector-curvature="0" />
	<path style="fill:none;stroke:red;stroke-width:1px;stroke-linecap:butt;stroke-linejoin:miter;stroke-opacity:1" d="M 274.953,662.348 259.278,644.433 z" id="boundary" inkscape:connector-curvature="0" />
	<path style="fill:none;stroke:red;stroke-width:1px;stroke-linecap:butt;stroke-linejoin:miter;stroke-opacity:1" d="M 252.56,588.451 272.713,577.255 z" id="boundary" inkscape:connector-curvature="0" />
	<path style="fill:none;stroke:red;stroke-width:1px;stroke-linecap:butt;stroke-linejoin:miter;stroke-opacity:1" d="M 286.149,682.501 274.953,662.348 z" id="boundary" inkscape:connector-curvature="0" />
	<path style="fill:none;stroke:red;stroke-width:1px;stroke-linecap:butt;stroke-linejoin:miter;stroke-opacity:1" d="M 268.235,339.892 245.842,330.935 z" id="boundary" inkscape:connector-curvature="0" />
	<path style="fill:none;stroke:red;stroke-width:1px;stroke-linecap:butt;stroke-linejoin:miter;stroke-opacity:1" d="M 274.953,149.553 292.867,162.989 z" id="boundary" inkscape:connector-curvature="0" />
	<path style="fill:none;stroke:red;stroke-width:1px;stroke-linecap:butt;stroke-linejoin:miter;stroke-opacity:1" d="M 274.953,149.553 252.56,149.553 z" id="boundary" inkscape:connector-curvature="0" />
	<path style="fill:none;stroke:red;stroke-width:1px;stroke-linecap:butt;stroke-linejoin:miter;stroke-opacity:1" d="M 257.038,767.594 241.363,749.679 z" id="boundary" inkscape:connector-curvature="0" />
	<path style="fill:none;stroke:red;stroke-width:1px;stroke-linecap:butt;stroke-linejoin:miter;stroke-opacity:1" d="M 239.124,940.018 261.517,946.736 z" id="boundary" inkscape:connector-curvature="0" />
	<path style="fill:none;stroke:red;stroke-width:1px;stroke-linecap:butt;stroke-linejoin:miter;stroke-opacity:1" d="M 234.646,485.445 257.038,474.248 z" id="boundary" inkscape:connector-curvature="0" />
	<path style="fill:none;stroke:red;stroke-width:1px;stroke-linecap:butt;stroke-linejoin:miter;stroke-opacity:1" d="M 843.729,984.804 866.122,991.521 z" id="boundary" inkscape:connector-curvature="0" />
	<path style="fill:none;stroke:red;stroke-width:1px;stroke-linecap:butt;stroke-linejoin:miter;stroke-opacity:1" d="M 239.124,917.625 257.038,899.711 z" id="boundary" inkscape:connector-curvature="0" />
	<path style="fill:none;stroke:red;stroke-width:1px;stroke-linecap:butt;stroke-linejoin:miter;stroke-opacity:1" d="M 295.106,577.255 272.713,577.255 z" id="boundary" inkscape:connector-curvature="0" />
	<path style="fill:none;stroke:red;stroke-width:1px;stroke-linecap:butt;stroke-linejoin:miter;stroke-opacity:1" d="M 274.953,783.269 257.038,767.594 z" id="boundary" inkscape:connector-curvature="0" />
	<path style="fill:none;stroke:red;stroke-width:1px;stroke-linecap:butt;stroke-linejoin:miter;stroke-opacity:1" d="M 306.302,693.698 286.149,682.501 z" id="boundary" inkscape:connector-curvature="0" />
	<path style="fill:none;stroke:red;stroke-width:1px;stroke-linecap:butt;stroke-linejoin:miter;stroke-opacity:1" d="M 257.038,474.248 274.953,456.334 z" id="boundary" inkscape:connector-curvature="0" />
	<path style="fill:none;stroke:red;stroke-width:1px;stroke-linecap:butt;stroke-linejoin:miter;stroke-opacity:1" d="M 313.02,174.185 292.867,162.989 z" id="boundary" inkscape:connector-curvature="0" />
	<path style="fill:none;stroke:red;stroke-width:1px;stroke-linecap:butt;stroke-linejoin:miter;stroke-opacity:1" d="M 277.192,888.515 257.038,899.711 z" id="boundary" inkscape:connector-curvature="0" />
	<path style="fill:none;stroke:red;stroke-width:1px;stroke-linecap:butt;stroke-linejoin:miter;stroke-opacity:1" d="M 295.106,413.788 295.106,380.199 z" id="boundary" inkscape:connector-curvature="0" />
	<path style="fill:none;stroke:red;stroke-width:1px;stroke-linecap:butt;stroke-linejoin:miter;stroke-opacity:1" d="M 295.106,380.199 286.149,353.327 z" id="boundary" inkscape:connector-curvature="0" />
	<path style="fill:none;stroke:red;stroke-width:1px;stroke-linecap:butt;stroke-linejoin:miter;stroke-opacity:1" d="M 286.149,353.327 268.235,339.892 z" id="boundary" inkscape:connector-curvature="0" />
	<path style="fill:none;stroke:red;stroke-width:1px;stroke-linecap:butt;stroke-linejoin:miter;stroke-opacity:1" d="M 295.106,828.054 290.628,801.183 z" id="boundary" inkscape:connector-curvature="0" />
	<path style="fill:none;stroke:red;stroke-width:1px;stroke-linecap:butt;stroke-linejoin:miter;stroke-opacity:1" d="M 290.628,801.183 274.953,783.269 z" id="boundary" inkscape:connector-curvature="0" />
	<path style="fill:none;stroke:red;stroke-width:1px;stroke-linecap:butt;stroke-linejoin:miter;stroke-opacity:1" d="M 292.867,440.659 274.953,456.334 z" id="boundary" inkscape:connector-curvature="0" />
	<path style="fill:none;stroke:red;stroke-width:1px;stroke-linecap:butt;stroke-linejoin:miter;stroke-opacity:1" d="M 261.517,946.736 283.91,946.736 z" id="boundary" inkscape:connector-curvature="0" />
	<path style="fill:none;stroke:red;stroke-width:1px;stroke-linecap:butt;stroke-linejoin:miter;stroke-opacity:1" d="M 306.302,693.698 324.217,709.372 z" id="boundary" inkscape:connector-curvature="0" />
	<path style="fill:none;stroke:red;stroke-width:1px;stroke-linecap:butt;stroke-linejoin:miter;stroke-opacity:1" d="M 304.063,935.54 326.456,931.061 z" id="boundary" inkscape:connector-curvature="0" />
	<path style="fill:none;stroke:red;stroke-width:1px;stroke-linecap:butt;stroke-linejoin:miter;stroke-opacity:1" d="M 304.063,935.54 283.91,946.736 z" id="boundary" inkscape:connector-curvature="0" />
	<path style="fill:none;stroke:red;stroke-width:1px;stroke-linecap:butt;stroke-linejoin:miter;stroke-opacity:1" d="M 330.935,189.86 348.849,205.535 z" id="boundary" inkscape:connector-curvature="0" />
	<path style="fill:none;stroke:red;stroke-width:1px;stroke-linecap:butt;stroke-linejoin:miter;stroke-opacity:1" d="M 295.106,850.447 295.106,828.054 z" id="boundary" inkscape:connector-curvature="0" />
	<path style="fill:none;stroke:red;stroke-width:1px;stroke-linecap:butt;stroke-linejoin:miter;stroke-opacity:1" d="M 330.935,189.86 313.02,174.185 z" id="boundary" inkscape:connector-curvature="0" />
	<path style="fill:none;stroke:red;stroke-width:1px;stroke-linecap:butt;stroke-linejoin:miter;stroke-opacity:1" d="M 337.652,566.059 315.26,566.059 z" id="boundary" inkscape:connector-curvature="0" />
	<path style="fill:none;stroke:red;stroke-width:1px;stroke-linecap:butt;stroke-linejoin:miter;stroke-opacity:1" d="M 315.26,566.059 295.106,577.255 z" id="boundary" inkscape:connector-curvature="0" />
	<path style="fill:none;stroke:red;stroke-width:1px;stroke-linecap:butt;stroke-linejoin:miter;stroke-opacity:1" d="M 292.867,440.659 295.106,413.788 z" id="boundary" inkscape:connector-curvature="0" />
	<path style="fill:none;stroke:red;stroke-width:1px;stroke-linecap:butt;stroke-linejoin:miter;stroke-opacity:1" d="M 348.849,205.535 369.002,216.731 z" id="boundary" inkscape:connector-curvature="0" />
	<path style="fill:none;stroke:red;stroke-width:1px;stroke-linecap:butt;stroke-linejoin:miter;stroke-opacity:1" d="M 277.192,888.515 295.106,872.84 z" id="boundary" inkscape:connector-curvature="0" />
	<path style="fill:none;stroke:red;stroke-width:1px;stroke-linecap:butt;stroke-linejoin:miter;stroke-opacity:1" d="M 295.106,872.84 295.106,850.447 z" id="boundary" inkscape:connector-curvature="0" />
	<path style="fill:none;stroke:red;stroke-width:1px;stroke-linecap:butt;stroke-linejoin:miter;stroke-opacity:1" d="M 324.217,709.372 344.37,720.569 z" id="boundary" inkscape:connector-curvature="0" />
	<path style="fill:none;stroke:red;stroke-width:1px;stroke-linecap:butt;stroke-linejoin:miter;stroke-opacity:1" d="M 344.37,720.569 353.327,742.962 z" id="boundary" inkscape:connector-curvature="0" />
	<path style="fill:none;stroke:red;stroke-width:1px;stroke-linecap:butt;stroke-linejoin:miter;stroke-opacity:1" d="M 326.456,931.061 348.849,931.061 z" id="boundary" inkscape:connector-curvature="0" />
	<path style="fill:none;stroke:red;stroke-width:1px;stroke-linecap:butt;stroke-linejoin:miter;stroke-opacity:1" d="M 409.309,239.124 427.223,252.56 z" id="boundary" inkscape:connector-curvature="0" />
	<path style="fill:none;stroke:red;stroke-width:1px;stroke-linecap:butt;stroke-linejoin:miter;stroke-opacity:1" d="M 360.045,566.059 337.652,566.059 z" id="boundary" inkscape:connector-curvature="0" />
	<path style="fill:none;stroke:red;stroke-width:1px;stroke-linecap:butt;stroke-linejoin:miter;stroke-opacity:1" d="M 416.027,897.472 393.634,908.668 z" id="boundary" inkscape:connector-curvature="0" />
	<path style="fill:none;stroke:red;stroke-width:1px;stroke-linecap:butt;stroke-linejoin:miter;stroke-opacity:1" d="M 371.242,756.397 380.199,778.79 z" id="boundary" inkscape:connector-curvature="0" />
	<path style="fill:none;stroke:red;stroke-width:1px;stroke-linecap:butt;stroke-linejoin:miter;stroke-opacity:1" d="M 371.242,756.397 353.327,742.962 z" id="boundary" inkscape:connector-curvature="0" />
	<path style="fill:none;stroke:red;stroke-width:1px;stroke-linecap:butt;stroke-linejoin:miter;stroke-opacity:1" d="M 369.002,216.731 389.156,227.928 z" id="boundary" inkscape:connector-curvature="0" />
	<path style="fill:none;stroke:red;stroke-width:1px;stroke-linecap:butt;stroke-linejoin:miter;stroke-opacity:1" d="M 360.045,566.059 382.438,566.059 z" id="boundary" inkscape:connector-curvature="0" />
	<path style="fill:none;stroke:red;stroke-width:1px;stroke-linecap:butt;stroke-linejoin:miter;stroke-opacity:1" d="M 391.395,798.944 380.199,778.79 z" id="boundary" inkscape:connector-curvature="0" />
	<path style="fill:none;stroke:red;stroke-width:1px;stroke-linecap:butt;stroke-linejoin:miter;stroke-opacity:1" d="M 409.309,239.124 389.156,227.928 z" id="boundary" inkscape:connector-curvature="0" />
	<path style="fill:none;stroke:red;stroke-width:1px;stroke-linecap:butt;stroke-linejoin:miter;stroke-opacity:1" d="M 382.438,566.059 404.831,566.059 z" id="boundary" inkscape:connector-curvature="0" />
	<path style="fill:none;stroke:red;stroke-width:1px;stroke-linecap:butt;stroke-linejoin:miter;stroke-opacity:1" d="M 348.849,931.061 371.242,919.865 z" id="boundary" inkscape:connector-curvature="0" />
	<path style="fill:none;stroke:red;stroke-width:1px;stroke-linecap:butt;stroke-linejoin:miter;stroke-opacity:1" d="M 391.395,798.944 407.07,816.858 z" id="boundary" inkscape:connector-curvature="0" />
	<path style="fill:none;stroke:red;stroke-width:1px;stroke-linecap:butt;stroke-linejoin:miter;stroke-opacity:1" d="M 427.223,566.059 447.377,577.255 z" id="boundary" inkscape:connector-curvature="0" />
	<path style="fill:none;stroke:red;stroke-width:1px;stroke-linecap:butt;stroke-linejoin:miter;stroke-opacity:1" d="M 427.223,566.059 404.831,566.059 z" id="boundary" inkscape:connector-curvature="0" />
	<path style="fill:none;stroke:red;stroke-width:1px;stroke-linecap:butt;stroke-linejoin:miter;stroke-opacity:1" d="M 427.223,252.56 442.898,270.474 z" id="boundary" inkscape:connector-curvature="0" />
	<path style="fill:none;stroke:red;stroke-width:1px;stroke-linecap:butt;stroke-linejoin:miter;stroke-opacity:1" d="M 485.445,601.887 496.641,622.041 z" id="boundary" inkscape:connector-curvature="0" />
	<path style="fill:none;stroke:red;stroke-width:1px;stroke-linecap:butt;stroke-linejoin:miter;stroke-opacity:1" d="M 485.445,601.887 467.53,588.451 z" id="boundary" inkscape:connector-curvature="0" />
	<path style="fill:none;stroke:red;stroke-width:1px;stroke-linecap:butt;stroke-linejoin:miter;stroke-opacity:1" d="M 407.07,816.858 418.266,837.011 z" id="boundary" inkscape:connector-curvature="0" />
	<path style="fill:none;stroke:red;stroke-width:1px;stroke-linecap:butt;stroke-linejoin:miter;stroke-opacity:1" d="M 371.242,919.865 393.634,908.668 z" id="boundary" inkscape:connector-curvature="0" />
	<path style="fill:none;stroke:red;stroke-width:1px;stroke-linecap:butt;stroke-linejoin:miter;stroke-opacity:1" d="M 727.287,798.944 747.44,810.14 z" id="boundary" inkscape:connector-curvature="0" />
	<path style="fill:none;stroke:red;stroke-width:1px;stroke-linecap:butt;stroke-linejoin:miter;stroke-opacity:1" d="M 727.287,798.944 704.894,789.986 z" id="boundary" inkscape:connector-curvature="0" />
	<path style="fill:none;stroke:red;stroke-width:1px;stroke-linecap:butt;stroke-linejoin:miter;stroke-opacity:1" d="M 442.898,270.474 454.095,290.628 z" id="boundary" inkscape:connector-curvature="0" />
	<path style="fill:none;stroke:red;stroke-width:1px;stroke-linecap:butt;stroke-linejoin:miter;stroke-opacity:1" d="M 467.53,588.451 447.377,577.255 z" id="boundary" inkscape:connector-curvature="0" />
	<path style="fill:none;stroke:red;stroke-width:1px;stroke-linecap:butt;stroke-linejoin:miter;stroke-opacity:1" d="M 418.266,837.011 431.702,854.926 z" id="boundary" inkscape:connector-curvature="0" />
	<path style="fill:none;stroke:red;stroke-width:1px;stroke-linecap:butt;stroke-linejoin:miter;stroke-opacity:1" d="M 431.702,854.926 431.702,877.318 z" id="boundary" inkscape:connector-curvature="0" />
	<path style="fill:none;stroke:red;stroke-width:1px;stroke-linecap:butt;stroke-linejoin:miter;stroke-opacity:1" d="M 498.88,371.242 510.077,391.395 z" id="boundary" inkscape:connector-curvature="0" />
	<path style="fill:none;stroke:red;stroke-width:1px;stroke-linecap:butt;stroke-linejoin:miter;stroke-opacity:1" d="M 510.077,639.955 527.991,655.63 z" id="boundary" inkscape:connector-curvature="0" />
	<path style="fill:none;stroke:red;stroke-width:1px;stroke-linecap:butt;stroke-linejoin:miter;stroke-opacity:1" d="M 454.095,290.628 465.291,310.781 z" id="boundary" inkscape:connector-curvature="0" />
	<path style="fill:none;stroke:red;stroke-width:1px;stroke-linecap:butt;stroke-linejoin:miter;stroke-opacity:1" d="M 431.702,877.318 416.027,897.472 z" id="boundary" inkscape:connector-curvature="0" />
	<path style="fill:none;stroke:red;stroke-width:1px;stroke-linecap:butt;stroke-linejoin:miter;stroke-opacity:1" d="M 465.291,310.781 476.488,330.935 z" id="boundary" inkscape:connector-curvature="0" />
	<path style="fill:none;stroke:red;stroke-width:1px;stroke-linecap:butt;stroke-linejoin:miter;stroke-opacity:1" d="M 510.077,639.955 496.641,622.041 z" id="boundary" inkscape:connector-curvature="0" />
	<path style="fill:none;stroke:red;stroke-width:1px;stroke-linecap:butt;stroke-linejoin:miter;stroke-opacity:1" d="M 476.488,330.935 487.684,351.088 z" id="boundary" inkscape:connector-curvature="0" />
	<path style="fill:none;stroke:red;stroke-width:1px;stroke-linecap:butt;stroke-linejoin:miter;stroke-opacity:1" d="M 487.684,351.088 498.88,371.242 z" id="boundary" inkscape:connector-curvature="0" />
	<path style="fill:none;stroke:red;stroke-width:1px;stroke-linecap:butt;stroke-linejoin:miter;stroke-opacity:1" d="M 527.991,655.63 548.144,666.826 z" id="boundary" inkscape:connector-curvature="0" />
	<path style="fill:none;stroke:red;stroke-width:1px;stroke-linecap:butt;stroke-linejoin:miter;stroke-opacity:1" d="M 548.144,666.826 559.341,686.98 z" id="boundary" inkscape:connector-curvature="0" />
	<path style="fill:none;stroke:red;stroke-width:1px;stroke-linecap:butt;stroke-linejoin:miter;stroke-opacity:1" d="M 510.077,391.395 521.273,411.549 z" id="boundary" inkscape:connector-curvature="0" />
	<path style="fill:none;stroke:red;stroke-width:1px;stroke-linecap:butt;stroke-linejoin:miter;stroke-opacity:1" d="M 521.273,411.549 532.47,431.702 z" id="boundary" inkscape:connector-curvature="0" />
	<path style="fill:none;stroke:red;stroke-width:1px;stroke-linecap:butt;stroke-linejoin:miter;stroke-opacity:1" d="M 532.47,431.702 536.948,454.095 z" id="boundary" inkscape:connector-curvature="0" />
	<path style="fill:none;stroke:red;stroke-width:1px;stroke-linecap:butt;stroke-linejoin:miter;stroke-opacity:1" d="M 548.144,474.248 536.948,454.095 z" id="boundary" inkscape:connector-curvature="0" />
	<path style="fill:none;stroke:red;stroke-width:1px;stroke-linecap:butt;stroke-linejoin:miter;stroke-opacity:1" d="M 554.862,496.641 548.144,474.248 z" id="boundary" inkscape:connector-curvature="0" />
	<path style="fill:none;stroke:red;stroke-width:1px;stroke-linecap:butt;stroke-linejoin:miter;stroke-opacity:1" d="M 579.494,698.176 559.341,686.98 z" id="boundary" inkscape:connector-curvature="0" />
	<path style="fill:none;stroke:red;stroke-width:1px;stroke-linecap:butt;stroke-linejoin:miter;stroke-opacity:1" d="M 554.862,496.641 566.059,516.795 z" id="boundary" inkscape:connector-curvature="0" />
	<path style="fill:none;stroke:red;stroke-width:1px;stroke-linecap:butt;stroke-linejoin:miter;stroke-opacity:1" d="M 566.059,516.795 566.059,539.187 z" id="boundary" inkscape:connector-curvature="0" />
	<path style="fill:none;stroke:red;stroke-width:1px;stroke-linecap:butt;stroke-linejoin:miter;stroke-opacity:1" d="M 566.059,539.187 577.255,559.341 z" id="boundary" inkscape:connector-curvature="0" />
	<path style="fill:none;stroke:red;stroke-width:1px;stroke-linecap:butt;stroke-linejoin:miter;stroke-opacity:1" d="M 604.126,734.005 597.409,711.612 z" id="boundary" inkscape:connector-curvature="0" />
	<path style="fill:none;stroke:red;stroke-width:1px;stroke-linecap:butt;stroke-linejoin:miter;stroke-opacity:1" d="M 597.409,711.612 579.494,698.176 z" id="boundary" inkscape:connector-curvature="0" />
	<path style="fill:none;stroke:red;stroke-width:1px;stroke-linecap:butt;stroke-linejoin:miter;stroke-opacity:1" d="M 626.519,742.962 604.126,734.005 z" id="boundary" inkscape:connector-curvature="0" />
	<path style="fill:none;stroke:red;stroke-width:1px;stroke-linecap:butt;stroke-linejoin:miter;stroke-opacity:1" d="M 577.255,559.341 592.93,577.255 z" id="boundary" inkscape:connector-curvature="0" />
	<path style="fill:none;stroke:red;stroke-width:1px;stroke-linecap:butt;stroke-linejoin:miter;stroke-opacity:1" d="M 626.519,742.962 646.673,754.158 z" id="boundary" inkscape:connector-curvature="0" />
	<path style="fill:none;stroke:red;stroke-width:1px;stroke-linecap:butt;stroke-linejoin:miter;stroke-opacity:1" d="M 592.93,577.255 615.323,586.212 z" id="boundary" inkscape:connector-curvature="0" />
	<path style="fill:none;stroke:red;stroke-width:1px;stroke-linecap:butt;stroke-linejoin:miter;stroke-opacity:1" d="M 615.323,586.212 635.476,597.409 z" id="boundary" inkscape:connector-curvature="0" />
	<path style="fill:none;stroke:red;stroke-width:1px;stroke-linecap:butt;stroke-linejoin:miter;stroke-opacity:1" d="M 646.673,754.158 664.587,767.594 z" id="boundary" inkscape:connector-curvature="0" />
	<path style="fill:none;stroke:red;stroke-width:1px;stroke-linecap:butt;stroke-linejoin:miter;stroke-opacity:1" d="M 653.391,613.084 635.476,597.409 z" id="boundary" inkscape:connector-curvature="0" />
	<path style="fill:none;stroke:red;stroke-width:1px;stroke-linecap:butt;stroke-linejoin:miter;stroke-opacity:1" d="M 664.587,767.594 684.74,778.79 z" id="boundary" inkscape:connector-curvature="0" />
	<path style="fill:none;stroke:red;stroke-width:1px;stroke-linecap:butt;stroke-linejoin:miter;stroke-opacity:1" d="M 666.826,630.998 653.391,613.084 z" id="boundary" inkscape:connector-curvature="0" />
	<path style="fill:none;stroke:red;stroke-width:1px;stroke-linecap:butt;stroke-linejoin:miter;stroke-opacity:1" d="M 684.74,778.79 704.894,789.986 z" id="boundary" inkscape:connector-curvature="0" />
	<path style="fill:none;stroke:red;stroke-width:1px;stroke-linecap:butt;stroke-linejoin:miter;stroke-opacity:1" d="M 666.826,630.998 689.219,637.716 z" id="boundary" inkscape:connector-curvature="0" />
	<path style="fill:none;stroke:red;stroke-width:1px;stroke-linecap:butt;stroke-linejoin:miter;stroke-opacity:1" d="M 789.986,830.293 769.833,819.097 z" id="boundary" inkscape:connector-curvature="0" />
	<path style="fill:none;stroke:red;stroke-width:1px;stroke-linecap:butt;stroke-linejoin:miter;stroke-opacity:1" d="M 709.372,648.912 689.219,637.716 z" id="boundary" inkscape:connector-curvature="0" />
	<path style="fill:none;stroke:red;stroke-width:1px;stroke-linecap:butt;stroke-linejoin:miter;stroke-opacity:1" d="M 747.44,810.14 769.833,819.097 z" id="boundary" inkscape:connector-curvature="0" />
	<path style="fill:none;stroke:red;stroke-width:1px;stroke-linecap:butt;stroke-linejoin:miter;stroke-opacity:1" d="M 727.287,664.587 709.372,648.912 z" id="boundary" inkscape:connector-curvature="0" />
	<path style="fill:none;stroke:red;stroke-width:1px;stroke-linecap:butt;stroke-linejoin:miter;stroke-opacity:1" d="M 832.533,850.447 812.379,839.251 z" id="boundary" inkscape:connector-curvature="0" />
	<path style="fill:none;stroke:red;stroke-width:1px;stroke-linecap:butt;stroke-linejoin:miter;stroke-opacity:1" d="M 727.287,664.587 749.679,664.587 z" id="boundary" inkscape:connector-curvature="0" />
	<path style="fill:none;stroke:red;stroke-width:1px;stroke-linecap:butt;stroke-linejoin:miter;stroke-opacity:1" d="M 749.679,664.587 765.354,682.501 z" id="boundary" inkscape:connector-curvature="0" />
	<path style="fill:none;stroke:red;stroke-width:1px;stroke-linecap:butt;stroke-linejoin:miter;stroke-opacity:1" d="M 854.926,888.515 854.926,910.907 z" id="boundary" inkscape:connector-curvature="0" />
	<path style="fill:none;stroke:red;stroke-width:1px;stroke-linecap:butt;stroke-linejoin:miter;stroke-opacity:1" d="M 765.354,682.501 787.747,691.458 z" id="boundary" inkscape:connector-curvature="0" />
	<path style="fill:none;stroke:red;stroke-width:1px;stroke-linecap:butt;stroke-linejoin:miter;stroke-opacity:1" d="M 787.747,691.458 810.14,698.176 z" id="boundary" inkscape:connector-curvature="0" />
	<path style="fill:none;stroke:red;stroke-width:1px;stroke-linecap:butt;stroke-linejoin:miter;stroke-opacity:1" d="M 828.054,711.612 810.14,698.176 z" id="boundary" inkscape:connector-curvature="0" />
	<path style="fill:none;stroke:red;stroke-width:1px;stroke-linecap:butt;stroke-linejoin:miter;stroke-opacity:1" d="M 845.968,727.287 828.054,711.612 z" id="boundary" inkscape:connector-curvature="0" />
	<path style="fill:none;stroke:red;stroke-width:1px;stroke-linecap:butt;stroke-linejoin:miter;stroke-opacity:1" d="M 866.122,991.521 888.515,996 z" id="boundary" inkscape:connector-curvature="0" />
	<path style="fill:none;stroke:red;stroke-width:1px;stroke-linecap:butt;stroke-linejoin:miter;stroke-opacity:1" d="M 861.643,745.201 845.968,727.287 z" id="boundary" inkscape:connector-curvature="0" />
	<path style="fill:none;stroke:red;stroke-width:1px;stroke-linecap:butt;stroke-linejoin:miter;stroke-opacity:1" d="M 854.926,955.693 843.729,984.804 z" id="boundary" inkscape:connector-curvature="0" />
	<path style="fill:none;stroke:red;stroke-width:1px;stroke-linecap:butt;stroke-linejoin:miter;stroke-opacity:1" d="M 812.379,839.251 789.986,830.293 z" id="boundary" inkscape:connector-curvature="0" />
	<path style="fill:none;stroke:red;stroke-width:1px;stroke-linecap:butt;stroke-linejoin:miter;stroke-opacity:1" d="M 879.558,760.876 888.515,783.269 z" id="boundary" inkscape:connector-curvature="0" />
	<path style="fill:none;stroke:red;stroke-width:1px;stroke-linecap:butt;stroke-linejoin:miter;stroke-opacity:1" d="M 879.558,760.876 861.643,745.201 z" id="boundary" inkscape:connector-curvature="0" />
	<path style="fill:none;stroke:red;stroke-width:1px;stroke-linecap:butt;stroke-linejoin:miter;stroke-opacity:1" d="M 832.533,850.447 850.447,866.122 z" id="boundary" inkscape:connector-curvature="0" />
	<path style="fill:none;stroke:red;stroke-width:1px;stroke-linecap:butt;stroke-linejoin:miter;stroke-opacity:1" d="M 850.447,866.122 854.926,888.515 z" id="boundary" inkscape:connector-curvature="0" />
	<path style="fill:none;stroke:red;stroke-width:1px;stroke-linecap:butt;stroke-linejoin:miter;stroke-opacity:1" d="M 854.926,910.907 854.926,933.3 z" id="boundary" inkscape:connector-curvature="0" />
	<path style="fill:none;stroke:red;stroke-width:1px;stroke-linecap:butt;stroke-linejoin:miter;stroke-opacity:1" d="M 901.95,801.183 888.515,783.269 z" id="boundary" inkscape:connector-curvature="0" />
	<path style="fill:none;stroke:red;stroke-width:1px;stroke-linecap:butt;stroke-linejoin:miter;stroke-opacity:1" d="M 854.926,933.3 854.926,955.693 z" id="boundary" inkscape:connector-curvature="0" />
	<path style="fill:none;stroke:red;stroke-width:1px;stroke-linecap:butt;stroke-linejoin:miter;stroke-opacity:1" d="M 913.147,821.336 901.95,801.183 z" id="boundary" inkscape:connector-curvature="0" />
	<path style="fill:none;stroke:red;stroke-width:1px;stroke-linecap:butt;stroke-linejoin:miter;stroke-opacity:1" d="M 888.515,996 906.429,978.086 z" id="boundary" inkscape:connector-curvature="0" />
	<path style="fill:none;stroke:red;stroke-width:1px;stroke-linecap:butt;stroke-linejoin:miter;stroke-opacity:1" d="M 906.429,978.086 924.343,957.932 z" id="boundary" inkscape:connector-curvature="0" />
	<path style="fill:none;stroke:red;stroke-width:1px;stroke-linecap:butt;stroke-linejoin:miter;stroke-opacity:1" d="M 913.147,821.336 935.54,821.336 z" id="boundary" inkscape:connector-curvature="0" />
	<path style="fill:none;stroke:red;stroke-width:1px;stroke-linecap:butt;stroke-linejoin:miter;stroke-opacity:1" d="M 935.54,821.336 953.454,834.772 z" id="boundary" inkscape:connector-curvature="0" />
	<path style="fill:none;stroke:red;stroke-width:1px;stroke-linecap:butt;stroke-linejoin:miter;stroke-opacity:1" d="M 924.343,957.932 935.54,935.54 z" id="boundary" inkscape:connector-curvature="0" />
	<path style="fill:none;stroke:red;stroke-width:1px;stroke-linecap:butt;stroke-linejoin:miter;stroke-opacity:1" d="M 935.54,935.54 946.736,913.147 z" id="boundary" inkscape:connector-curvature="0" />
	<path style="fill:none;stroke:red;stroke-width:1px;stroke-linecap:butt;stroke-linejoin:miter;stroke-opacity:1" d="M 953.454,834.772 957.932,868.361 z" id="boundary" inkscape:connector-curvature="0" />
	<path style="fill:none;stroke:red;stroke-width:1px;stroke-linecap:butt;stroke-linejoin:miter;stroke-opacity:1" d="M 957.932,868.361 957.932,890.754 z" id="boundary" inkscape:connector-curvature="0" />
	<path style="fill:none;stroke:red;stroke-width:1px;stroke-linecap:butt;stroke-linejoin:miter;stroke-opacity:1" d="M 957.932,890.754 946.736,913.147 z" id="boundary" inkscape:connector-curvature="0" />
	<circle cx="4" cy="89.0926" r="4" fill="#0" id="circle0"/>
	<circle cx="15.1964" cy="55.5034" r="4" fill="#0" id="circle1"/>
	<circle cx="15.1964" cy="109.246" r="4" fill="#0" id="circle2"/>
	<circle cx="26.3928" cy="33.1106" r="4" fill="#0" id="circle3"/>
	<circle cx="30.8713" cy="127.16" r="4" fill="#0" id="circle4"/>
	<circle cx="44.307" cy="15.1964" r="4" fill="#0" id="circle5"/>
	<circle cx="53.2641" cy="136.117" r="4" fill="#0" id="circle6"/>
	<circle cx="64.4605" cy="4" r="4" fill="#0" id="circle7"/>
	<circle cx="75.6569" cy="140.596" r="4" fill="#0" id="circle8"/>
	<circle cx="86.8533" cy="4" r="4" fill="#0" id="circle9"/>
	<circle cx="98.0497" cy="140.596" r="4" fill="#0" id="circle10"/>
	<circle cx="109.246" cy="4" r="4" fill="#0" id="circle11"/>
	<circle cx="120.442" cy="140.596" r="4" fill="#0" id="circle12"/>
	<circle cx="127.16" cy="162.989" r="4" fill="#0" id="circle13"/>
	<circle cx="127.16" cy="185.381" r="4" fill="#0" id="circle14"/>
	<circle cx="127.16" cy="207.774" r="4" fill="#0" id="circle15"/>
	<circle cx="127.16" cy="230.167" r="4" fill="#0" id="circle16"/>
	<circle cx="127.16" cy="604.126" r="4" fill="#0" id="circle17"/>
	<circle cx="129.4" cy="15.1964" r="4" fill="#0" id="circle18"/>
	<circle cx="133.878" cy="252.56" r="4" fill="#0" id="circle19"/>
	<circle cx="138.357" cy="559.341" r="4" fill="#0" id="circle20"/>
	<circle cx="138.357" cy="581.734" r="4" fill="#0" id="circle21"/>
	<circle cx="138.357" cy="624.28" r="4" fill="#0" id="circle22"/>
	<circle cx="145.074" cy="272.713" r="4" fill="#0" id="circle23"/>
	<circle cx="147.314" cy="28.6321" r="4" fill="#0" id="circle24"/>
	<circle cx="154.032" cy="642.194" r="4" fill="#0" id="circle25"/>
	<circle cx="156.271" cy="541.427" r="4" fill="#0" id="circle26"/>
	<circle cx="162.989" cy="46.5463" r="4" fill="#0" id="circle27"/>
	<circle cx="165.228" cy="283.91" r="4" fill="#0" id="circle28"/>
	<circle cx="165.228" cy="662.348" r="4" fill="#0" id="circle29"/>
	<circle cx="174.185" cy="66.6998" r="4" fill="#0" id="circle30"/>
	<circle cx="174.185" cy="523.512" r="4" fill="#0" id="circle31"/>
	<circle cx="183.142" cy="89.0926" r="4" fill="#0" id="circle32"/>
	<circle cx="183.142" cy="678.023" r="4" fill="#0" id="circle33"/>
	<circle cx="187.621" cy="292.867" r="4" fill="#0" id="circle34"/>
	<circle cx="189.86" cy="700.415" r="4" fill="#0" id="circle35"/>
	<circle cx="192.099" cy="507.837" r="4" fill="#0" id="circle36"/>
	<circle cx="201.056" cy="104.767" r="4" fill="#0" id="circle37"/>
	<circle cx="207.774" cy="304.063" r="4" fill="#0" id="circle38"/>
	<circle cx="207.774" cy="716.09" r="4" fill="#0" id="circle39"/>
	<circle cx="212.253" cy="496.641" r="4" fill="#0" id="circle40"/>
	<circle cx="216.731" cy="122.682" r="4" fill="#0" id="circle41"/>
	<circle cx="223.449" cy="734.005" r="4" fill="#0" id="circle42"/>
	<circle cx="230.167" cy="313.02" r="4" fill="#0" id="circle43"/>
	<circle cx="230.167" cy="588.451" r="4" fill="#0" id="circle44"/>
	<circle cx="230.167" cy="610.844" r="4" fill="#0" id="circle45"/>
	<circle cx="234.646" cy="485.445" r="4" fill="#0" id="circle46"/>
	<circle cx="239.124" cy="131.639" r="4" fill="#0" id="circle47"/>
	<circle cx="239.124" cy="917.625" r="4" fill="#0" id="circle48"/>
	<circle cx="239.124" cy="940.018" r="4" fill="#0" id="circle49"/>
	<circle cx="241.363" cy="630.998" r="4" fill="#0" id="circle50"/>
	<circle cx="241.363" cy="749.679" r="4" fill="#0" id="circle51"/>
	<circle cx="245.842" cy="330.935" r="4" fill="#0" id="circle52"/>
	<circle cx="252.56" cy="149.553" r="4" fill="#0" id="circle53"/>
	<circle cx="252.56" cy="588.451" r="4" fill="#0" id="circle54"/>
	<circle cx="257.038" cy="474.248" r="4" fill="#0" id="circle55"/>
	<circle cx="257.038" cy="767.594" r="4" fill="#0" id="circle56"/>
	<circle cx="257.038" cy="899.711" r="4" fill="#0" id="circle57"/>
	<circle cx="259.278" cy="644.433" r="4" fill="#0" id="circle58"/>
	<circle cx="261.517" cy="946.736" r="4" fill="#0" id="circle59"/>
	<circle cx="268.235" cy="339.892" r="4" fill="#0" id="circle60"/>
	<circle cx="272.713" cy="577.255" r="4" fill="#0" id="circle61"/>
	<circle cx="274.953" cy="149.553" r="4" fill="#0" id="circle62"/>
	<circle cx="274.953" cy="456.334" r="4" fill="#0" id="circle63"/>
	<circle cx="274.953" cy="662.348" r="4" fill="#0" id="circle64"/>
	<circle cx="274.953" cy="783.269" r="4" fill="#0" id="circle65"/>
	<circle cx="277.192" cy="888.515" r="4" fill="#0" id="circle66"/>
	<circle cx="283.91" cy="946.736" r="4" fill="#0" id="circle67"/>
	<circle cx="286.149" cy="353.327" r="4" fill="#0" id="circle68"/>
	<circle cx="286.149" cy="682.501" r="4" fill="#0" id="circle69"/>
	<circle cx="290.628" cy="801.183" r="4" fill="#0" id="circle70"/>
	<circle cx="292.867" cy="162.989" r="4" fill="#0" id="circle71"/>
	<circle cx="292.867" cy="440.659" r="4" fill="#0" id="circle72"/>
	<circle cx="295.106" cy="380.199" r="4" fill="#0" id="circle73"/>
	<circle cx="295.106" cy="413.788" r="4" fill="#0" id="circle74"/>
	<circle cx="295.106" cy="577.255" r="4" fill="#0" id="circle75"/>
	<circle cx="295.106" cy="828.054" r="4" fill="#0" id="circle76"/>
	<circle cx="295.106" cy="850.447" r="4" fill="#0" id="circle77"/>
	<circle cx="295.106" cy="872.84" r="4" fill="#0" id="circle78"/>
	<circle cx="304.063" cy="935.54" r="4" fill="#0" id="circle79"/>
	<circle cx="306.302" cy="693.698" r="4" fill="#0" id="circle80"/>
	<circle cx="313.02" cy="174.185" r="4" fill="#0" id="circle81"/>
	<circle cx="315.26" cy="566.059" r="4" fill="#0" id="circle82"/>
	<circle cx="324.217" cy="709.372" r="4" fill="#0" id="circle83"/>
	<circle cx="326.456" cy="931.061" r="4" fill="#0" id="circle84"/>
	<circle cx="330.935" cy="189.86" r="4" fill="#0" id="circle85"/>
	<circle cx="337.652" cy="566.059" r="4" fill="#0" id="circle86"/>
	<circle cx="344.37" cy="720.569" r="4" fill="#0" id="circle87"/>
	<circle cx="348.849" cy="205.535" r="4" fill="#0" id="circle88"/>
	<circle cx="348.849" cy="931.061" r="4" fill="#0" id="circle89"/>
	<circle cx="353.327" cy="742.962" r="4" fill="#0" id="circle90"/>
	<circle cx="360.045" cy="566.059" r="4" fill="#0" id="circle91"/>
	<circle cx="369.002" cy="216.731" r="4" fill="#0" id="circle92"/>
	<circle cx="371.242" cy="756.397" r="4" fill="#0" id="circle93"/>
	<circle cx="371.242" cy="919.865" r="4" fill="#0" id="circle94"/>
	<circle cx="380.199" cy="778.79" r="4" fill="#0" id="circle95"/>
	<circle cx="382.438" cy="566.059" r="4" fill="#0" id="circle96"/>
	<circle cx="389.156" cy="227.928" r="4" fill="#0" id="circle97"/>
	<circle cx="391.395" cy="798.944" r="4" fill="#0" id="circle98"/>
	<circle cx="393.634" cy="908.668" r="4" fill="#0" id="circle99"/>
	<circle cx="404.831" cy="566.059" r="4" fill="#0" id="circle100"/>
	<circle cx="407.07" cy="816.858" r="4" fill="#0" id="circle101"/>
	<circle cx="409.309" cy="239.124" r="4" fill="#0" id="circle102"/>
	<circle cx="416.027" cy="897.472" r="4" fill="#0" id="circle103"/>
	<circle cx="418.266" cy="837.011" r="4" fill="#0" id="circle104"/>
	<circle cx="427.223" cy="252.56" r="4" fill="#0" id="circle105"/>
	<circle cx="427.223" cy="566.059" r="4" fill="#0" id="circle106"/>
	<circle cx="431.702" cy="854.926" r="4" fill="#0" id="circle107"/>
	<circle cx="431.702" cy="877.318" r="4" fill="#0" id="circle108"/>
	<circle cx="442.898" cy="270.474" r="4" fill="#0" id="circle109"/>
	<circle cx="447.377" cy="577.255" r="4" fill="#0" id="circle110"/>
	<circle cx="454.095" cy="290.628" r="4" fill="#0" id="circle111"/>
	<circle cx="465.291" cy="310.781" r="4" fill="#0" id="circle112"/>
	<circle cx="467.53" cy="588.451" r="4" fill="#0" id="circle113"/>
	<circle cx="476.488" cy="330.935" r="4" fill="#0" id="circle114"/>
	<circle cx="485.445" cy="601.887" r="4" fill="#0" id="circle115"/>
	<circle cx="487.684" cy="351.088" r="4" fill="#0" id="circle116"/>
	<circle cx="496.641" cy="622.041" r="4" fill="#0" id="circle117"/>
	<circle cx="498.88" cy="371.242" r="4" fill="#0" id="circle118"/>
	<circle cx="510.077" cy="391.395" r="4" fill="#0" id="circle119"/>
	<circle cx="510.077" cy="639.955" r="4" fill="#0" id="circle120"/>
	<circle cx="521.273" cy="411.549" r="4" fill="#0" id="circle121"/>
	<circle cx="527.991" cy="655.63" r="4" fill="#0" id="circle122"/>
	<circle cx="532.47" cy="431.702" r="4" fill="#0" id="circle123"/>
	<circle cx="536.948" cy="454.095" r="4" fill="#0" id="circle124"/>
	<circle cx="548.144" cy="474.248" r="4" fill="#0" id="circle125"/>
	<circle cx="548.144" cy="666.826" r="4" fill="#0" id="circle126"/>
	<circle cx="554.862" cy="496.641" r="4" fill="#0" id="circle127"/>
	<circle cx="559.341" cy="686.98" r="4" fill="#0" id="circle128"/>
	<circle cx="566.059" cy="516.795" r="4" fill="#0" id="circle129"/>
	<circle cx="566.059" cy="539.187" r="4" fill="#0" id="circle130"/>
	<circle cx="577.255" cy="559.341" r="4" fill="#0" id="circle131"/>
	<circle cx="579.494" cy="698.176" r="4" fill="#0" id="circle132"/>
	<circle cx="592.93" cy="577.255" r="4" fill="#0" id="circle133"/>
	<circle cx="597.409" cy="711.612" r="4" fill="#0" id="circle134"/>
	<circle cx="604.126" cy="734.005" r="4" fill="#0" id="circle135"/>
	<circle cx="615.323" cy="586.212" r="4" fill="#0" id="circle136"/>
	<circle cx="626.519" cy="742.962" r="4" fill="#0" id="circle137"/>
	<circle cx="635.476" cy="597.409" r="4" fill="#0" id="circle138"/>
	<circle cx="646.673" cy="754.158" r="4" fill="#0" id="circle139"/>
	<circle cx="653.391" cy="613.084" r="4" fill="#0" id="circle140"/>
	<circle cx="664.587" cy="767.594" r="4" fill="#0" id="circle141"/>
	<circle cx="666.826" cy="630.998" r="4" fill="#0" id="circle142"/>
	<circle cx="684.74" cy="778.79" r="4" fill="#0" id="circle143"/>
	<circle cx="689.219" cy="637.716" r="4" fill="#0" id="circle144"/>
	<circle cx="704.894" cy="789.986" r="4" fill="#0" id="circle145"/>
	<circle cx="709.372" cy="648.912" r="4" fill="#0" id="circle146"/>
	<circle cx="727.287" cy="664.587" r="4" fill="#0" id="circle147"/>
	<circle cx="727.287" cy="798.944" r="4" fill="#0" id="circle148"/>
	<circle cx="747.44" cy="810.14" r="4" fill="#0" id="circle149"/>
	<circle cx="749.679" cy="664.587" r="4" fill="#0" id="circle150"/>
	<circle cx="765.354" cy="682.501" r="4" fill="#0" id="circle151"/>
	<circle cx="769.833" cy="819.097" r="4" fill="#0" id="circle152"/>
	<circle cx="787.747" cy="691.458" r="4" fill="#0" id="circle153"/>
	<circle cx="789.986" cy="830.293" r="4" fill="#0" id="circle154"/>
	<circle cx="810.14" cy="698.176" r="4" fill="#0" id="circle155"/>
	<circle cx="812.379" cy="839.251" r="4" fill="#0" id="circle156"/>
	<circle cx="828.054" cy="711.612" r="4" fill="#0" id="circle157"/>
	<circle cx="832.533" cy="850.447" r="4" fill="#0" id="circle158"/>
	<circle cx="843.729" cy="984.804" r="4" fill="#0" id="circle159"/>
	<circle cx="845.968" cy="727.287" r="4" fill="#0" id="circle160"/>
	<circle cx="850.447" cy="866.122" r="4" fill="#0" id="circle161"/>
	<circle cx="854.926" cy="888.515" r="4" fill="#0" id="circle162"/>
	<circle cx="854.926" cy="910.907" r="4" fill="#0" id="circle163"/>
	<circle cx="854.926" cy="933.3" r="4" fill="#0" id="circle164"/>
	<circle cx="854.926" cy="955.693" r="4" fill="#0" id="circle165"/>
	<circle cx="861.643" cy="745.201" r="4" fill="#0" id="circle166"/>
	<circle cx="866.122" cy="991.521" r="4" fill="#0" id="circle167"/>
	<circle cx="879.558" cy="760.876" r="4" fill="#0" id="circle168"/>
	<circle cx="888.515" cy="783.269" r="4" fill="#0" id="circle169"/>
	<circle cx="888.515" cy="996" r="4" fill="#0" id="circle170"/>
	<circle cx="901.95" cy="801.183" r="4" fill="#0" id="circle171"/>
	<circle cx="906.429" cy="978.086" r="4" fill="#0" id="circle172"/>
	<circle cx="913.147" cy="821.336" r="4" fill="#0" id="circle173"/>
	<circle cx="924.343" cy="957.932" r="4" fill="#0" id="circle174"/>
	<circle cx="935.54" cy="821.336" r="4" fill="#0" id="circle175"/>
	<circle cx="935.54" cy="935.54" r="4" fill="#0" id="circle176"/>
	<circle cx="946.736" cy="913.147" r="4" fill="#0" id="circle177"/>
	<circle cx="953.454" cy="834.772" r="4" fill="#0" id="circle178"/>
	<circle cx="957.932" cy="868.361" r="4" fill="#0" id="circle179"/>
	<circle cx="957.932" cy="890.754" r="4" fill="#0" id="circle180"/>
	</g>
</svg>