<?xml version="1.0" encoding="UTF-8" standalone="no"?>
<!-- Created with CurveBenchmark -->
<svg
	xmlns:dc="http://purl.org/dc/elements/1.1/"
	xmlns:cc="http://creativecommons.org/ns#"
	xmlns:rdf="http://www.w3.org/1999/02/22-rdf-syntax-ns#"
	xmlns:svg="http://www.w3.org/2000/svg"
	xmlns="http://www.w3.org/2000/svg"
	xmlns:sodipodi="http://sodipodi.sourceforge.net/DTD/sodipodi-0.dtd"
	xmlns:inkscape="http://www.inkscape.org/namespaces/inkscape"
	width="1000"
	height="1000"
	id="svg2"
	version="1.1"
	sodipodi:docname="manifold/peel-textbox29.png.txt">
<defs
	id="defs4" />
<metadata
	id="metadata7">
	<rdf:RDF>
		<cc:Work
			rdf:about="">
			<dc:format>image/svg+xml</dc:format>
			<dc:type
				rdf:resource="http://purl.org/dc/dcmitype/StillImage" />
			<dc:title></dc:title>
		</cc:Work>
	</rdf:RDF>
</metadata>
<g
	inkscape:label="Layer 1"
	inkscape:groupmode="layer"
	id="layer1">
	<path style="fill:none;stroke:red;stroke-width:1px;stroke-linecap:butt;stroke-linejoin:miter;stroke-opacity:1" d="M 13.3409,420.603 13.3409,439.284 z" id="boundary" inkscape:connector-curvature="0" />
	<path style="fill:none;stroke:red;stroke-width:1px;stroke-linecap:butt;stroke-linejoin:miter;stroke-opacity:1" d="M 13.3409,420.603 13.3409,392.58 z" id="boundary" inkscape:connector-curvature="0" />
	<path style="fill:none;stroke:red;stroke-width:1px;stroke-linecap:butt;stroke-linejoin:miter;stroke-opacity:1" d="M 13.3409,439.284 13.3409,457.966 z" id="boundary" inkscape:connector-curvature="0" />
	<path style="fill:none;stroke:red;stroke-width:1px;stroke-linecap:butt;stroke-linejoin:miter;stroke-opacity:1" d="M 13.3409,457.966 4,485.989 z" id="boundary" inkscape:connector-curvature="0" />
	<path style="fill:none;stroke:red;stroke-width:1px;stroke-linecap:butt;stroke-linejoin:miter;stroke-opacity:1" d="M 13.3409,392.58 22.6817,364.557 z" id="boundary" inkscape:connector-curvature="0" />
	<path style="fill:none;stroke:red;stroke-width:1px;stroke-linecap:butt;stroke-linejoin:miter;stroke-opacity:1" d="M 22.6817,364.557 22.6817,336.535 z" id="boundary" inkscape:connector-curvature="0" />
	<path style="fill:none;stroke:red;stroke-width:1px;stroke-linecap:butt;stroke-linejoin:miter;stroke-opacity:1" d="M 18.9454,517.748 4,504.67 z" id="boundary" inkscape:connector-curvature="0" />
	<path style="fill:none;stroke:red;stroke-width:1px;stroke-linecap:butt;stroke-linejoin:miter;stroke-opacity:1" d="M 4,504.67 4,485.989 z" id="boundary" inkscape:connector-curvature="0" />
	<path style="fill:none;stroke:red;stroke-width:1px;stroke-linecap:butt;stroke-linejoin:miter;stroke-opacity:1" d="M 26.4181,536.429 18.9454,517.748 z" id="boundary" inkscape:connector-curvature="0" />
	<path style="fill:none;stroke:red;stroke-width:1px;stroke-linecap:butt;stroke-linejoin:miter;stroke-opacity:1" d="M 32.0226,317.853 22.6817,336.535 z" id="boundary" inkscape:connector-curvature="0" />
	<path style="fill:none;stroke:red;stroke-width:1px;stroke-linecap:butt;stroke-linejoin:miter;stroke-opacity:1" d="M 32.0226,317.853 46.968,302.908 z" id="boundary" inkscape:connector-curvature="0" />
	<path style="fill:none;stroke:red;stroke-width:1px;stroke-linecap:butt;stroke-linejoin:miter;stroke-opacity:1" d="M 41.3635,547.638 26.4181,536.429 z" id="boundary" inkscape:connector-curvature="0" />
	<path style="fill:none;stroke:red;stroke-width:1px;stroke-linecap:butt;stroke-linejoin:miter;stroke-opacity:1" d="M 46.968,302.908 60.0452,280.49 z" id="boundary" inkscape:connector-curvature="0" />
	<path style="fill:none;stroke:red;stroke-width:1px;stroke-linecap:butt;stroke-linejoin:miter;stroke-opacity:1" d="M 52.5725,562.584 41.3635,547.638 z" id="boundary" inkscape:connector-curvature="0" />
	<path style="fill:none;stroke:red;stroke-width:1px;stroke-linecap:butt;stroke-linejoin:miter;stroke-opacity:1" d="M 60.0452,280.49 78.7269,261.808 z" id="boundary" inkscape:connector-curvature="0" />
	<path style="fill:none;stroke:red;stroke-width:1px;stroke-linecap:butt;stroke-linejoin:miter;stroke-opacity:1" d="M 78.7269,261.808 97.4087,252.467 z" id="boundary" inkscape:connector-curvature="0" />
	<path style="fill:none;stroke:red;stroke-width:1px;stroke-linecap:butt;stroke-linejoin:miter;stroke-opacity:1" d="M 61.9134,579.397 52.5725,562.584 z" id="boundary" inkscape:connector-curvature="0" />
	<path style="fill:none;stroke:red;stroke-width:1px;stroke-linecap:butt;stroke-linejoin:miter;stroke-opacity:1" d="M 302.908,878.305 312.249,895.119 z" id="boundary" inkscape:connector-curvature="0" />
	<path style="fill:none;stroke:red;stroke-width:1px;stroke-linecap:butt;stroke-linejoin:miter;stroke-opacity:1" d="M 312.249,895.119 312.249,913.8 z" id="boundary" inkscape:connector-curvature="0" />
	<path style="fill:none;stroke:red;stroke-width:1px;stroke-linecap:butt;stroke-linejoin:miter;stroke-opacity:1" d="M 93.6723,601.815 74.9906,594.343 z" id="boundary" inkscape:connector-curvature="0" />
	<path style="fill:none;stroke:red;stroke-width:1px;stroke-linecap:butt;stroke-linejoin:miter;stroke-opacity:1" d="M 74.9906,594.343 61.9134,579.397 z" id="boundary" inkscape:connector-curvature="0" />
	<path style="fill:none;stroke:red;stroke-width:1px;stroke-linecap:butt;stroke-linejoin:miter;stroke-opacity:1" d="M 97.4087,233.785 97.4087,252.467 z" id="boundary" inkscape:connector-curvature="0" />
	<path style="fill:none;stroke:red;stroke-width:1px;stroke-linecap:butt;stroke-linejoin:miter;stroke-opacity:1" d="M 106.75,616.761 93.6723,601.815 z" id="boundary" inkscape:connector-curvature="0" />
	<path style="fill:none;stroke:red;stroke-width:1px;stroke-linecap:butt;stroke-linejoin:miter;stroke-opacity:1" d="M 116.09,228.181 97.4087,233.785 z" id="boundary" inkscape:connector-curvature="0" />
	<path style="fill:none;stroke:red;stroke-width:1px;stroke-linecap:butt;stroke-linejoin:miter;stroke-opacity:1" d="M 116.09,228.181 132.904,218.84 z" id="boundary" inkscape:connector-curvature="0" />
	<path style="fill:none;stroke:red;stroke-width:1px;stroke-linecap:butt;stroke-linejoin:miter;stroke-opacity:1" d="M 172.136,177.74 166.531,200.158 z" id="boundary" inkscape:connector-curvature="0" />
	<path style="fill:none;stroke:red;stroke-width:1px;stroke-linecap:butt;stroke-linejoin:miter;stroke-opacity:1" d="M 166.531,200.158 149.718,209.499 z" id="boundary" inkscape:connector-curvature="0" />
	<path style="fill:none;stroke:red;stroke-width:1px;stroke-linecap:butt;stroke-linejoin:miter;stroke-opacity:1" d="M 125.431,622.365 106.75,616.761 z" id="boundary" inkscape:connector-curvature="0" />
	<path style="fill:none;stroke:red;stroke-width:1px;stroke-linecap:butt;stroke-linejoin:miter;stroke-opacity:1" d="M 132.904,218.84 149.718,209.499 z" id="boundary" inkscape:connector-curvature="0" />
	<path style="fill:none;stroke:red;stroke-width:1px;stroke-linecap:butt;stroke-linejoin:miter;stroke-opacity:1" d="M 142.245,631.706 125.431,622.365 z" id="boundary" inkscape:connector-curvature="0" />
	<path style="fill:none;stroke:red;stroke-width:1px;stroke-linecap:butt;stroke-linejoin:miter;stroke-opacity:1" d="M 160.927,631.706 142.245,631.706 z" id="boundary" inkscape:connector-curvature="0" />
	<path style="fill:none;stroke:red;stroke-width:1px;stroke-linecap:butt;stroke-linejoin:miter;stroke-opacity:1" d="M 177.74,641.047 160.927,631.706 z" id="boundary" inkscape:connector-curvature="0" />
	<path style="fill:none;stroke:red;stroke-width:1px;stroke-linecap:butt;stroke-linejoin:miter;stroke-opacity:1" d="M 172.136,177.74 190.817,172.136 z" id="boundary" inkscape:connector-curvature="0" />
	<path style="fill:none;stroke:red;stroke-width:1px;stroke-linecap:butt;stroke-linejoin:miter;stroke-opacity:1" d="M 220.708,147.849 239.39,144.113 z" id="boundary" inkscape:connector-curvature="0" />
	<path style="fill:none;stroke:red;stroke-width:1px;stroke-linecap:butt;stroke-linejoin:miter;stroke-opacity:1" d="M 196.422,648.52 213.235,657.861 z" id="boundary" inkscape:connector-curvature="0" />
	<path style="fill:none;stroke:red;stroke-width:1px;stroke-linecap:butt;stroke-linejoin:miter;stroke-opacity:1" d="M 196.422,648.52 177.74,641.047 z" id="boundary" inkscape:connector-curvature="0" />
	<path style="fill:none;stroke:red;stroke-width:1px;stroke-linecap:butt;stroke-linejoin:miter;stroke-opacity:1" d="M 202.026,157.19 220.708,147.849 z" id="boundary" inkscape:connector-curvature="0" />
	<path style="fill:none;stroke:red;stroke-width:1px;stroke-linecap:butt;stroke-linejoin:miter;stroke-opacity:1" d="M 202.026,157.19 190.817,172.136 z" id="boundary" inkscape:connector-curvature="0" />
	<path style="fill:none;stroke:red;stroke-width:1px;stroke-linecap:butt;stroke-linejoin:miter;stroke-opacity:1" d="M 231.917,650.388 213.235,657.861 z" id="boundary" inkscape:connector-curvature="0" />
	<path style="fill:none;stroke:red;stroke-width:1px;stroke-linecap:butt;stroke-linejoin:miter;stroke-opacity:1" d="M 248.731,659.729 231.917,650.388 z" id="boundary" inkscape:connector-curvature="0" />
	<path style="fill:none;stroke:red;stroke-width:1px;stroke-linecap:butt;stroke-linejoin:miter;stroke-opacity:1" d="M 265.544,112.354 256.203,134.772 z" id="boundary" inkscape:connector-curvature="0" />
	<path style="fill:none;stroke:red;stroke-width:1px;stroke-linecap:butt;stroke-linejoin:miter;stroke-opacity:1" d="M 256.203,134.772 239.39,144.113 z" id="boundary" inkscape:connector-curvature="0" />
	<path style="fill:none;stroke:red;stroke-width:1px;stroke-linecap:butt;stroke-linejoin:miter;stroke-opacity:1" d="M 265.544,112.354 284.226,106.75 z" id="boundary" inkscape:connector-curvature="0" />
	<path style="fill:none;stroke:red;stroke-width:1px;stroke-linecap:butt;stroke-linejoin:miter;stroke-opacity:1" d="M 265.544,650.388 248.731,659.729 z" id="boundary" inkscape:connector-curvature="0" />
	<path style="fill:none;stroke:red;stroke-width:1px;stroke-linecap:butt;stroke-linejoin:miter;stroke-opacity:1" d="M 284.226,106.75 301.04,97.4087 z" id="boundary" inkscape:connector-curvature="0" />
	<path style="fill:none;stroke:red;stroke-width:1px;stroke-linecap:butt;stroke-linejoin:miter;stroke-opacity:1" d="M 301.04,97.4087 319.721,97.4087 z" id="boundary" inkscape:connector-curvature="0" />
	<path style="fill:none;stroke:red;stroke-width:1px;stroke-linecap:butt;stroke-linejoin:miter;stroke-opacity:1" d="M 276.753,665.333 265.544,650.388 z" id="boundary" inkscape:connector-curvature="0" />
	<path style="fill:none;stroke:red;stroke-width:1px;stroke-linecap:butt;stroke-linejoin:miter;stroke-opacity:1" d="M 312.249,728.851 312.249,747.533 z" id="boundary" inkscape:connector-curvature="0" />
	<path style="fill:none;stroke:red;stroke-width:1px;stroke-linecap:butt;stroke-linejoin:miter;stroke-opacity:1" d="M 295.435,659.729 276.753,665.333 z" id="boundary" inkscape:connector-curvature="0" />
	<path style="fill:none;stroke:red;stroke-width:1px;stroke-linecap:butt;stroke-linejoin:miter;stroke-opacity:1" d="M 312.249,669.07 312.249,687.751 z" id="boundary" inkscape:connector-curvature="0" />
	<path style="fill:none;stroke:red;stroke-width:1px;stroke-linecap:butt;stroke-linejoin:miter;stroke-opacity:1" d="M 312.249,669.07 295.435,659.729 z" id="boundary" inkscape:connector-curvature="0" />
	<path style="fill:none;stroke:red;stroke-width:1px;stroke-linecap:butt;stroke-linejoin:miter;stroke-opacity:1" d="M 319.721,97.4087 336.535,88.0678 z" id="boundary" inkscape:connector-curvature="0" />
	<path style="fill:none;stroke:red;stroke-width:1px;stroke-linecap:butt;stroke-linejoin:miter;stroke-opacity:1" d="M 312.249,913.8 312.249,932.482 z" id="boundary" inkscape:connector-curvature="0" />
	<path style="fill:none;stroke:red;stroke-width:1px;stroke-linecap:butt;stroke-linejoin:miter;stroke-opacity:1" d="M 312.249,747.533 312.249,766.215 z" id="boundary" inkscape:connector-curvature="0" />
	<path style="fill:none;stroke:red;stroke-width:1px;stroke-linecap:butt;stroke-linejoin:miter;stroke-opacity:1" d="M 312.249,687.751 317.853,706.433 z" id="boundary" inkscape:connector-curvature="0" />
	<path style="fill:none;stroke:red;stroke-width:1px;stroke-linecap:butt;stroke-linejoin:miter;stroke-opacity:1" d="M 317.853,706.433 312.249,728.851 z" id="boundary" inkscape:connector-curvature="0" />
	<path style="fill:none;stroke:red;stroke-width:1px;stroke-linecap:butt;stroke-linejoin:miter;stroke-opacity:1" d="M 312.249,766.215 317.853,788.633 z" id="boundary" inkscape:connector-curvature="0" />
	<path style="fill:none;stroke:red;stroke-width:1px;stroke-linecap:butt;stroke-linejoin:miter;stroke-opacity:1" d="M 317.853,788.633 302.908,803.578 z" id="boundary" inkscape:connector-curvature="0" />
	<path style="fill:none;stroke:red;stroke-width:1px;stroke-linecap:butt;stroke-linejoin:miter;stroke-opacity:1" d="M 312.249,820.392 312.249,839.073 z" id="boundary" inkscape:connector-curvature="0" />
	<path style="fill:none;stroke:red;stroke-width:1px;stroke-linecap:butt;stroke-linejoin:miter;stroke-opacity:1" d="M 312.249,820.392 302.908,803.578 z" id="boundary" inkscape:connector-curvature="0" />
	<path style="fill:none;stroke:red;stroke-width:1px;stroke-linecap:butt;stroke-linejoin:miter;stroke-opacity:1" d="M 312.249,857.755 302.908,878.305 z" id="boundary" inkscape:connector-curvature="0" />
	<path style="fill:none;stroke:red;stroke-width:1px;stroke-linecap:butt;stroke-linejoin:miter;stroke-opacity:1" d="M 312.249,857.755 312.249,839.073 z" id="boundary" inkscape:connector-curvature="0" />
	<path style="fill:none;stroke:red;stroke-width:1px;stroke-linecap:butt;stroke-linejoin:miter;stroke-opacity:1" d="M 370.162,63.7815 351.48,73.1224 z" id="boundary" inkscape:connector-curvature="0" />
	<path style="fill:none;stroke:red;stroke-width:1px;stroke-linecap:butt;stroke-linejoin:miter;stroke-opacity:1" d="M 351.48,73.1224 336.535,88.0678 z" id="boundary" inkscape:connector-curvature="0" />
	<path style="fill:none;stroke:red;stroke-width:1px;stroke-linecap:butt;stroke-linejoin:miter;stroke-opacity:1" d="M 330.93,925.009 312.249,932.482 z" id="boundary" inkscape:connector-curvature="0" />
	<path style="fill:none;stroke:red;stroke-width:1px;stroke-linecap:butt;stroke-linejoin:miter;stroke-opacity:1" d="M 388.844,60.0452 370.162,63.7815 z" id="boundary" inkscape:connector-curvature="0" />
	<path style="fill:none;stroke:red;stroke-width:1px;stroke-linecap:butt;stroke-linejoin:miter;stroke-opacity:1" d="M 351.48,902.591 332.798,902.591 z" id="boundary" inkscape:connector-curvature="0" />
	<path style="fill:none;stroke:red;stroke-width:1px;stroke-linecap:butt;stroke-linejoin:miter;stroke-opacity:1" d="M 360.821,865.228 360.821,883.91 z" id="boundary" inkscape:connector-curvature="0" />
	<path style="fill:none;stroke:red;stroke-width:1px;stroke-linecap:butt;stroke-linejoin:miter;stroke-opacity:1" d="M 627.97,609.288 641.047,594.343 z" id="boundary" inkscape:connector-curvature="0" />
	<path style="fill:none;stroke:red;stroke-width:1px;stroke-linecap:butt;stroke-linejoin:miter;stroke-opacity:1" d="M 360.821,883.91 351.48,902.591 z" id="boundary" inkscape:connector-curvature="0" />
	<path style="fill:none;stroke:red;stroke-width:1px;stroke-linecap:butt;stroke-linejoin:miter;stroke-opacity:1" d="M 491.593,659.729 478.516,684.015 z" id="boundary" inkscape:connector-curvature="0" />
	<path style="fill:none;stroke:red;stroke-width:1px;stroke-linecap:butt;stroke-linejoin:miter;stroke-opacity:1" d="M 405.657,50.7043 388.844,60.0452 z" id="boundary" inkscape:connector-curvature="0" />
	<path style="fill:none;stroke:red;stroke-width:1px;stroke-linecap:butt;stroke-linejoin:miter;stroke-opacity:1" d="M 379.503,827.864 379.503,846.546 z" id="boundary" inkscape:connector-curvature="0" />
	<path style="fill:none;stroke:red;stroke-width:1px;stroke-linecap:butt;stroke-linejoin:miter;stroke-opacity:1" d="M 379.503,846.546 360.821,865.228 z" id="boundary" inkscape:connector-curvature="0" />
	<path style="fill:none;stroke:red;stroke-width:1px;stroke-linecap:butt;stroke-linejoin:miter;stroke-opacity:1" d="M 379.503,827.864 398.185,809.183 z" id="boundary" inkscape:connector-curvature="0" />
	<path style="fill:none;stroke:red;stroke-width:1px;stroke-linecap:butt;stroke-linejoin:miter;stroke-opacity:1" d="M 424.339,46.968 443.021,50.7043 z" id="boundary" inkscape:connector-curvature="0" />
	<path style="fill:none;stroke:red;stroke-width:1px;stroke-linecap:butt;stroke-linejoin:miter;stroke-opacity:1" d="M 424.339,46.968 405.657,50.7043 z" id="boundary" inkscape:connector-curvature="0" />
	<path style="fill:none;stroke:red;stroke-width:1px;stroke-linecap:butt;stroke-linejoin:miter;stroke-opacity:1" d="M 575.661,631.706 556.979,631.706 z" id="boundary" inkscape:connector-curvature="0" />
	<path style="fill:none;stroke:red;stroke-width:1px;stroke-linecap:butt;stroke-linejoin:miter;stroke-opacity:1" d="M 556.979,631.706 538.298,641.047 z" id="boundary" inkscape:connector-curvature="0" />
	<path style="fill:none;stroke:red;stroke-width:1px;stroke-linecap:butt;stroke-linejoin:miter;stroke-opacity:1" d="M 407.525,790.501 398.185,809.183 z" id="boundary" inkscape:connector-curvature="0" />
	<path style="fill:none;stroke:red;stroke-width:1px;stroke-linecap:butt;stroke-linejoin:miter;stroke-opacity:1" d="M 416.866,771.819 407.525,790.501 z" id="boundary" inkscape:connector-curvature="0" />
	<path style="fill:none;stroke:red;stroke-width:1px;stroke-linecap:butt;stroke-linejoin:miter;stroke-opacity:1" d="M 426.207,753.137 416.866,771.819 z" id="boundary" inkscape:connector-curvature="0" />
	<path style="fill:none;stroke:red;stroke-width:1px;stroke-linecap:butt;stroke-linejoin:miter;stroke-opacity:1" d="M 441.153,740.06 426.207,753.137 z" id="boundary" inkscape:connector-curvature="0" />
	<path style="fill:none;stroke:red;stroke-width:1px;stroke-linecap:butt;stroke-linejoin:miter;stroke-opacity:1" d="M 454.23,715.774 441.153,740.06 z" id="boundary" inkscape:connector-curvature="0" />
	<path style="fill:none;stroke:red;stroke-width:1px;stroke-linecap:butt;stroke-linejoin:miter;stroke-opacity:1" d="M 459.834,41.3635 443.021,50.7043 z" id="boundary" inkscape:connector-curvature="0" />
	<path style="fill:none;stroke:red;stroke-width:1px;stroke-linecap:butt;stroke-linejoin:miter;stroke-opacity:1" d="M 463.571,697.092 454.23,715.774 z" id="boundary" inkscape:connector-curvature="0" />
	<path style="fill:none;stroke:red;stroke-width:1px;stroke-linecap:butt;stroke-linejoin:miter;stroke-opacity:1" d="M 476.648,32.0226 495.33,32.0226 z" id="boundary" inkscape:connector-curvature="0" />
	<path style="fill:none;stroke:red;stroke-width:1px;stroke-linecap:butt;stroke-linejoin:miter;stroke-opacity:1" d="M 476.648,32.0226 459.834,41.3635 z" id="boundary" inkscape:connector-curvature="0" />
	<path style="fill:none;stroke:red;stroke-width:1px;stroke-linecap:butt;stroke-linejoin:miter;stroke-opacity:1" d="M 478.516,684.015 463.571,697.092 z" id="boundary" inkscape:connector-curvature="0" />
	<path style="fill:none;stroke:red;stroke-width:1px;stroke-linecap:butt;stroke-linejoin:miter;stroke-opacity:1" d="M 519.616,641.047 538.298,641.047 z" id="boundary" inkscape:connector-curvature="0" />
	<path style="fill:none;stroke:red;stroke-width:1px;stroke-linecap:butt;stroke-linejoin:miter;stroke-opacity:1" d="M 500.934,641.047 491.593,659.729 z" id="boundary" inkscape:connector-curvature="0" />
	<path style="fill:none;stroke:red;stroke-width:1px;stroke-linecap:butt;stroke-linejoin:miter;stroke-opacity:1" d="M 512.143,22.6817 530.825,15.209 z" id="boundary" inkscape:connector-curvature="0" />
	<path style="fill:none;stroke:red;stroke-width:1px;stroke-linecap:butt;stroke-linejoin:miter;stroke-opacity:1" d="M 530.825,15.209 549.507,22.6817 z" id="boundary" inkscape:connector-curvature="0" />
	<path style="fill:none;stroke:red;stroke-width:1px;stroke-linecap:butt;stroke-linejoin:miter;stroke-opacity:1" d="M 519.616,641.047 500.934,641.047 z" id="boundary" inkscape:connector-curvature="0" />
	<path style="fill:none;stroke:red;stroke-width:1px;stroke-linecap:butt;stroke-linejoin:miter;stroke-opacity:1" d="M 495.33,32.0226 512.143,22.6817 z" id="boundary" inkscape:connector-curvature="0" />
	<path style="fill:none;stroke:red;stroke-width:1px;stroke-linecap:butt;stroke-linejoin:miter;stroke-opacity:1" d="M 549.507,22.6817 568.188,22.6817 z" id="boundary" inkscape:connector-curvature="0" />
	<path style="fill:none;stroke:red;stroke-width:1px;stroke-linecap:butt;stroke-linejoin:miter;stroke-opacity:1" d="M 592.475,622.365 575.661,631.706 z" id="boundary" inkscape:connector-curvature="0" />
	<path style="fill:none;stroke:red;stroke-width:1px;stroke-linecap:butt;stroke-linejoin:miter;stroke-opacity:1" d="M 627.97,609.288 609.288,613.024 z" id="boundary" inkscape:connector-curvature="0" />
	<path style="fill:none;stroke:red;stroke-width:1px;stroke-linecap:butt;stroke-linejoin:miter;stroke-opacity:1" d="M 609.288,613.024 592.475,622.365 z" id="boundary" inkscape:connector-curvature="0" />
	<path style="fill:none;stroke:red;stroke-width:1px;stroke-linecap:butt;stroke-linejoin:miter;stroke-opacity:1" d="M 586.87,15.209 605.552,13.3409 z" id="boundary" inkscape:connector-curvature="0" />
	<path style="fill:none;stroke:red;stroke-width:1px;stroke-linecap:butt;stroke-linejoin:miter;stroke-opacity:1" d="M 586.87,15.209 568.188,22.6817 z" id="boundary" inkscape:connector-curvature="0" />
	<path style="fill:none;stroke:red;stroke-width:1px;stroke-linecap:butt;stroke-linejoin:miter;stroke-opacity:1" d="M 605.552,13.3409 624.234,13.3409 z" id="boundary" inkscape:connector-curvature="0" />
	<path style="fill:none;stroke:red;stroke-width:1px;stroke-linecap:butt;stroke-linejoin:miter;stroke-opacity:1" d="M 641.047,4 655.992,15.209 z" id="boundary" inkscape:connector-curvature="0" />
	<path style="fill:none;stroke:red;stroke-width:1px;stroke-linecap:butt;stroke-linejoin:miter;stroke-opacity:1" d="M 641.047,4 624.234,13.3409 z" id="boundary" inkscape:connector-curvature="0" />
	<path style="fill:none;stroke:red;stroke-width:1px;stroke-linecap:butt;stroke-linejoin:miter;stroke-opacity:1" d="M 659.729,585.002 678.411,585.002 z" id="boundary" inkscape:connector-curvature="0" />
	<path style="fill:none;stroke:red;stroke-width:1px;stroke-linecap:butt;stroke-linejoin:miter;stroke-opacity:1" d="M 659.729,585.002 641.047,594.343 z" id="boundary" inkscape:connector-curvature="0" />
	<path style="fill:none;stroke:red;stroke-width:1px;stroke-linecap:butt;stroke-linejoin:miter;stroke-opacity:1" d="M 678.411,585.002 695.224,575.661 z" id="boundary" inkscape:connector-curvature="0" />
	<path style="fill:none;stroke:red;stroke-width:1px;stroke-linecap:butt;stroke-linejoin:miter;stroke-opacity:1" d="M 655.992,15.209 674.674,13.3409 z" id="boundary" inkscape:connector-curvature="0" />
	<path style="fill:none;stroke:red;stroke-width:1px;stroke-linecap:butt;stroke-linejoin:miter;stroke-opacity:1" d="M 691.488,4 708.301,13.3409 z" id="boundary" inkscape:connector-curvature="0" />
	<path style="fill:none;stroke:red;stroke-width:1px;stroke-linecap:butt;stroke-linejoin:miter;stroke-opacity:1" d="M 691.488,4 674.674,13.3409 z" id="boundary" inkscape:connector-curvature="0" />
	<path style="fill:none;stroke:red;stroke-width:1px;stroke-linecap:butt;stroke-linejoin:miter;stroke-opacity:1" d="M 695.224,575.661 712.038,566.32 z" id="boundary" inkscape:connector-curvature="0" />
	<path style="fill:none;stroke:red;stroke-width:1px;stroke-linecap:butt;stroke-linejoin:miter;stroke-opacity:1" d="M 712.038,566.32 730.719,562.584 z" id="boundary" inkscape:connector-curvature="0" />
	<path style="fill:none;stroke:red;stroke-width:1px;stroke-linecap:butt;stroke-linejoin:miter;stroke-opacity:1" d="M 725.115,4 743.797,9.60452 z" id="boundary" inkscape:connector-curvature="0" />
	<path style="fill:none;stroke:red;stroke-width:1px;stroke-linecap:butt;stroke-linejoin:miter;stroke-opacity:1" d="M 725.115,4 708.301,13.3409 z" id="boundary" inkscape:connector-curvature="0" />
	<path style="fill:none;stroke:red;stroke-width:1px;stroke-linecap:butt;stroke-linejoin:miter;stroke-opacity:1" d="M 743.797,9.60452 762.478,13.3409 z" id="boundary" inkscape:connector-curvature="0" />
	<path style="fill:none;stroke:red;stroke-width:1px;stroke-linecap:butt;stroke-linejoin:miter;stroke-opacity:1" d="M 779.292,523.352 797.974,514.011 z" id="boundary" inkscape:connector-curvature="0" />
	<path style="fill:none;stroke:red;stroke-width:1px;stroke-linecap:butt;stroke-linejoin:miter;stroke-opacity:1" d="M 743.797,538.298 730.719,562.584 z" id="boundary" inkscape:connector-curvature="0" />
	<path style="fill:none;stroke:red;stroke-width:1px;stroke-linecap:butt;stroke-linejoin:miter;stroke-opacity:1" d="M 760.61,528.957 743.797,538.298 z" id="boundary" inkscape:connector-curvature="0" />
	<path style="fill:none;stroke:red;stroke-width:1px;stroke-linecap:butt;stroke-linejoin:miter;stroke-opacity:1" d="M 779.292,523.352 760.61,528.957 z" id="boundary" inkscape:connector-curvature="0" />
	<path style="fill:none;stroke:red;stroke-width:1px;stroke-linecap:butt;stroke-linejoin:miter;stroke-opacity:1" d="M 781.16,13.3409 762.478,13.3409 z" id="boundary" inkscape:connector-curvature="0" />
	<path style="fill:none;stroke:red;stroke-width:1px;stroke-linecap:butt;stroke-linejoin:miter;stroke-opacity:1" d="M 799.842,13.3409 816.655,22.6817 z" id="boundary" inkscape:connector-curvature="0" />
	<path style="fill:none;stroke:red;stroke-width:1px;stroke-linecap:butt;stroke-linejoin:miter;stroke-opacity:1" d="M 799.842,13.3409 781.16,13.3409 z" id="boundary" inkscape:connector-curvature="0" />
	<path style="fill:none;stroke:red;stroke-width:1px;stroke-linecap:butt;stroke-linejoin:miter;stroke-opacity:1" d="M 812.919,499.066 797.974,514.011 z" id="boundary" inkscape:connector-curvature="0" />
	<path style="fill:none;stroke:red;stroke-width:1px;stroke-linecap:butt;stroke-linejoin:miter;stroke-opacity:1" d="M 827.864,482.252 812.919,499.066 z" id="boundary" inkscape:connector-curvature="0" />
	<path style="fill:none;stroke:red;stroke-width:1px;stroke-linecap:butt;stroke-linejoin:miter;stroke-opacity:1" d="M 835.337,22.6817 852.151,32.0226 z" id="boundary" inkscape:connector-curvature="0" />
	<path style="fill:none;stroke:red;stroke-width:1px;stroke-linecap:butt;stroke-linejoin:miter;stroke-opacity:1" d="M 835.337,22.6817 816.655,22.6817 z" id="boundary" inkscape:connector-curvature="0" />
	<path style="fill:none;stroke:red;stroke-width:1px;stroke-linecap:butt;stroke-linejoin:miter;stroke-opacity:1" d="M 844.678,472.911 827.864,482.252 z" id="boundary" inkscape:connector-curvature="0" />
	<path style="fill:none;stroke:red;stroke-width:1px;stroke-linecap:butt;stroke-linejoin:miter;stroke-opacity:1" d="M 859.623,461.702 844.678,472.911 z" id="boundary" inkscape:connector-curvature="0" />
	<path style="fill:none;stroke:red;stroke-width:1px;stroke-linecap:butt;stroke-linejoin:miter;stroke-opacity:1" d="M 870.832,33.8908 880.173,50.7043 z" id="boundary" inkscape:connector-curvature="0" />
	<path style="fill:none;stroke:red;stroke-width:1px;stroke-linecap:butt;stroke-linejoin:miter;stroke-opacity:1" d="M 870.832,33.8908 852.151,32.0226 z" id="boundary" inkscape:connector-curvature="0" />
	<path style="fill:none;stroke:red;stroke-width:1px;stroke-linecap:butt;stroke-linejoin:miter;stroke-opacity:1" d="M 874.569,444.889 859.623,461.702 z" id="boundary" inkscape:connector-curvature="0" />
	<path style="fill:none;stroke:red;stroke-width:1px;stroke-linecap:butt;stroke-linejoin:miter;stroke-opacity:1" d="M 893.25,426.207 908.196,413.13 z" id="boundary" inkscape:connector-curvature="0" />
	<path style="fill:none;stroke:red;stroke-width:1px;stroke-linecap:butt;stroke-linejoin:miter;stroke-opacity:1" d="M 893.25,426.207 874.569,444.889 z" id="boundary" inkscape:connector-curvature="0" />
	<path style="fill:none;stroke:red;stroke-width:1px;stroke-linecap:butt;stroke-linejoin:miter;stroke-opacity:1" d="M 896.987,60.0452 911.932,71.2542 z" id="boundary" inkscape:connector-curvature="0" />
	<path style="fill:none;stroke:red;stroke-width:1px;stroke-linecap:butt;stroke-linejoin:miter;stroke-opacity:1" d="M 880.173,50.7043 896.987,60.0452 z" id="boundary" inkscape:connector-curvature="0" />
	<path style="fill:none;stroke:red;stroke-width:1px;stroke-linecap:butt;stroke-linejoin:miter;stroke-opacity:1" d="M 921.273,398.185 908.196,413.13 z" id="boundary" inkscape:connector-curvature="0" />
	<path style="fill:none;stroke:red;stroke-width:1px;stroke-linecap:butt;stroke-linejoin:miter;stroke-opacity:1" d="M 926.878,82.4633 936.218,99.2768 z" id="boundary" inkscape:connector-curvature="0" />
	<path style="fill:none;stroke:red;stroke-width:1px;stroke-linecap:butt;stroke-linejoin:miter;stroke-opacity:1" d="M 926.878,82.4633 911.932,71.2542 z" id="boundary" inkscape:connector-curvature="0" />
	<path style="fill:none;stroke:red;stroke-width:1px;stroke-linecap:butt;stroke-linejoin:miter;stroke-opacity:1" d="M 939.955,379.503 921.273,398.185 z" id="boundary" inkscape:connector-curvature="0" />
	<path style="fill:none;stroke:red;stroke-width:1px;stroke-linecap:butt;stroke-linejoin:miter;stroke-opacity:1" d="M 949.296,360.821 939.955,379.503 z" id="boundary" inkscape:connector-curvature="0" />
	<path style="fill:none;stroke:red;stroke-width:1px;stroke-linecap:butt;stroke-linejoin:miter;stroke-opacity:1" d="M 953.032,108.618 962.373,125.431 z" id="boundary" inkscape:connector-curvature="0" />
	<path style="fill:none;stroke:red;stroke-width:1px;stroke-linecap:butt;stroke-linejoin:miter;stroke-opacity:1" d="M 953.032,108.618 936.218,99.2768 z" id="boundary" inkscape:connector-curvature="0" />
	<path style="fill:none;stroke:red;stroke-width:1px;stroke-linecap:butt;stroke-linejoin:miter;stroke-opacity:1" d="M 958.637,332.798 949.296,360.821 z" id="boundary" inkscape:connector-curvature="0" />
	<path style="fill:none;stroke:red;stroke-width:1px;stroke-linecap:butt;stroke-linejoin:miter;stroke-opacity:1" d="M 973.582,319.721 958.637,332.798 z" id="boundary" inkscape:connector-curvature="0" />
	<path style="fill:none;stroke:red;stroke-width:1px;stroke-linecap:butt;stroke-linejoin:miter;stroke-opacity:1" d="M 975.45,140.377 962.373,125.431 z" id="boundary" inkscape:connector-curvature="0" />
	<path style="fill:none;stroke:red;stroke-width:1px;stroke-linecap:butt;stroke-linejoin:miter;stroke-opacity:1" d="M 977.318,295.435 973.582,319.721 z" id="boundary" inkscape:connector-curvature="0" />
	<path style="fill:none;stroke:red;stroke-width:1px;stroke-linecap:butt;stroke-linejoin:miter;stroke-opacity:1" d="M 986.659,155.322 990.395,174.004 z" id="boundary" inkscape:connector-curvature="0" />
	<path style="fill:none;stroke:red;stroke-width:1px;stroke-linecap:butt;stroke-linejoin:miter;stroke-opacity:1" d="M 986.659,155.322 975.45,140.377 z" id="boundary" inkscape:connector-curvature="0" />
	<path style="fill:none;stroke:red;stroke-width:1px;stroke-linecap:butt;stroke-linejoin:miter;stroke-opacity:1" d="M 986.659,248.731 986.659,267.412 z" id="boundary" inkscape:connector-curvature="0" />
	<path style="fill:none;stroke:red;stroke-width:1px;stroke-linecap:butt;stroke-linejoin:miter;stroke-opacity:1" d="M 986.659,267.412 977.318,295.435 z" id="boundary" inkscape:connector-curvature="0" />
	<path style="fill:none;stroke:red;stroke-width:1px;stroke-linecap:butt;stroke-linejoin:miter;stroke-opacity:1" d="M 990.395,174.004 986.659,192.685 z" id="boundary" inkscape:connector-curvature="0" />
	<path style="fill:none;stroke:red;stroke-width:1px;stroke-linecap:butt;stroke-linejoin:miter;stroke-opacity:1" d="M 986.659,248.731 986.659,230.049 z" id="boundary" inkscape:connector-curvature="0" />
	<path style="fill:none;stroke:red;stroke-width:1px;stroke-linecap:butt;stroke-linejoin:miter;stroke-opacity:1" d="M 986.659,192.685 996,209.499 z" id="boundary" inkscape:connector-curvature="0" />
	<path style="fill:none;stroke:red;stroke-width:1px;stroke-linecap:butt;stroke-linejoin:miter;stroke-opacity:1" d="M 986.659,230.049 996,209.499 z" id="boundary" inkscape:connector-curvature="0" />
	<circle cx="4" cy="485.989" r="4" fill="#0" id="circle0"/>
	<circle cx="4" cy="504.67" r="4" fill="#0" id="circle1"/>
	<circle cx="13.3409" cy="392.58" r="4" fill="#0" id="circle2"/>
	<circle cx="13.3409" cy="420.603" r="4" fill="#0" id="circle3"/>
	<circle cx="13.3409" cy="439.284" r="4" fill="#0" id="circle4"/>
	<circle cx="13.3409" cy="457.966" r="4" fill="#0" id="circle5"/>
	<circle cx="18.9454" cy="517.748" r="4" fill="#0" id="circle6"/>
	<circle cx="22.6817" cy="336.535" r="4" fill="#0" id="circle7"/>
	<circle cx="22.6817" cy="364.557" r="4" fill="#0" id="circle8"/>
	<circle cx="26.4181" cy="536.429" r="4" fill="#0" id="circle9"/>
	<circle cx="32.0226" cy="317.853" r="4" fill="#0" id="circle10"/>
	<circle cx="41.3635" cy="547.638" r="4" fill="#0" id="circle11"/>
	<circle cx="46.968" cy="302.908" r="4" fill="#0" id="circle12"/>
	<circle cx="52.5725" cy="562.584" r="4" fill="#0" id="circle13"/>
	<circle cx="60.0452" cy="280.49" r="4" fill="#0" id="circle14"/>
	<circle cx="61.9134" cy="579.397" r="4" fill="#0" id="circle15"/>
	<circle cx="74.9906" cy="594.343" r="4" fill="#0" id="circle16"/>
	<circle cx="78.7269" cy="261.808" r="4" fill="#0" id="circle17"/>
	<circle cx="93.6723" cy="601.815" r="4" fill="#0" id="circle18"/>
	<circle cx="97.4087" cy="233.785" r="4" fill="#0" id="circle19"/>
	<circle cx="97.4087" cy="252.467" r="4" fill="#0" id="circle20"/>
	<circle cx="106.75" cy="616.761" r="4" fill="#0" id="circle21"/>
	<circle cx="116.09" cy="228.181" r="4" fill="#0" id="circle22"/>
	<circle cx="125.431" cy="622.365" r="4" fill="#0" id="circle23"/>
	<circle cx="132.904" cy="218.84" r="4" fill="#0" id="circle24"/>
	<circle cx="142.245" cy="631.706" r="4" fill="#0" id="circle25"/>
	<circle cx="149.718" cy="209.499" r="4" fill="#0" id="circle26"/>
	<circle cx="160.927" cy="631.706" r="4" fill="#0" id="circle27"/>
	<circle cx="166.531" cy="200.158" r="4" fill="#0" id="circle28"/>
	<circle cx="172.136" cy="177.74" r="4" fill="#0" id="circle29"/>
	<circle cx="177.74" cy="641.047" r="4" fill="#0" id="circle30"/>
	<circle cx="190.817" cy="172.136" r="4" fill="#0" id="circle31"/>
	<circle cx="196.422" cy="648.52" r="4" fill="#0" id="circle32"/>
	<circle cx="202.026" cy="157.19" r="4" fill="#0" id="circle33"/>
	<circle cx="213.235" cy="657.861" r="4" fill="#0" id="circle34"/>
	<circle cx="220.708" cy="147.849" r="4" fill="#0" id="circle35"/>
	<circle cx="231.917" cy="650.388" r="4" fill="#0" id="circle36"/>
	<circle cx="239.39" cy="144.113" r="4" fill="#0" id="circle37"/>
	<circle cx="248.731" cy="659.729" r="4" fill="#0" id="circle38"/>
	<circle cx="256.203" cy="134.772" r="4" fill="#0" id="circle39"/>
	<circle cx="265.544" cy="112.354" r="4" fill="#0" id="circle40"/>
	<circle cx="265.544" cy="650.388" r="4" fill="#0" id="circle41"/>
	<circle cx="276.753" cy="665.333" r="4" fill="#0" id="circle42"/>
	<circle cx="284.226" cy="106.75" r="4" fill="#0" id="circle43"/>
	<circle cx="295.435" cy="659.729" r="4" fill="#0" id="circle44"/>
	<circle cx="301.04" cy="97.4087" r="4" fill="#0" id="circle45"/>
	<circle cx="302.908" cy="803.578" r="4" fill="#0" id="circle46"/>
	<circle cx="302.908" cy="878.305" r="4" fill="#0" id="circle47"/>
	<circle cx="312.249" cy="669.07" r="4" fill="#0" id="circle48"/>
	<circle cx="312.249" cy="687.751" r="4" fill="#0" id="circle49"/>
	<circle cx="312.249" cy="728.851" r="4" fill="#0" id="circle50"/>
	<circle cx="312.249" cy="747.533" r="4" fill="#0" id="circle51"/>
	<circle cx="312.249" cy="766.215" r="4" fill="#0" id="circle52"/>
	<circle cx="312.249" cy="820.392" r="4" fill="#0" id="circle53"/>
	<circle cx="312.249" cy="839.073" r="4" fill="#0" id="circle54"/>
	<circle cx="312.249" cy="857.755" r="4" fill="#0" id="circle55"/>
	<circle cx="312.249" cy="895.119" r="4" fill="#0" id="circle56"/>
	<circle cx="312.249" cy="913.8" r="4" fill="#0" id="circle57"/>
	<circle cx="312.249" cy="932.482" r="4" fill="#0" id="circle58"/>
	<circle cx="317.853" cy="706.433" r="4" fill="#0" id="circle59"/>
	<circle cx="317.853" cy="788.633" r="4" fill="#0" id="circle60"/>
	<circle cx="319.721" cy="97.4087" r="4" fill="#0" id="circle61"/>
	<circle cx="330.93" cy="925.009" r="4" fill="#0" id="circle62"/>
	<circle cx="332.798" cy="902.591" r="4" fill="#0" id="circle63"/>
	<circle cx="336.535" cy="88.0678" r="4" fill="#0" id="circle64"/>
	<circle cx="351.48" cy="73.1224" r="4" fill="#0" id="circle65"/>
	<circle cx="351.48" cy="902.591" r="4" fill="#0" id="circle66"/>
	<circle cx="360.821" cy="865.228" r="4" fill="#0" id="circle67"/>
	<circle cx="360.821" cy="883.91" r="4" fill="#0" id="circle68"/>
	<circle cx="370.162" cy="63.7815" r="4" fill="#0" id="circle69"/>
	<circle cx="379.503" cy="827.864" r="4" fill="#0" id="circle70"/>
	<circle cx="379.503" cy="846.546" r="4" fill="#0" id="circle71"/>
	<circle cx="388.844" cy="60.0452" r="4" fill="#0" id="circle72"/>
	<circle cx="398.185" cy="809.183" r="4" fill="#0" id="circle73"/>
	<circle cx="405.657" cy="50.7043" r="4" fill="#0" id="circle74"/>
	<circle cx="407.525" cy="790.501" r="4" fill="#0" id="circle75"/>
	<circle cx="416.866" cy="771.819" r="4" fill="#0" id="circle76"/>
	<circle cx="424.339" cy="46.968" r="4" fill="#0" id="circle77"/>
	<circle cx="426.207" cy="753.137" r="4" fill="#0" id="circle78"/>
	<circle cx="441.153" cy="740.06" r="4" fill="#0" id="circle79"/>
	<circle cx="443.021" cy="50.7043" r="4" fill="#0" id="circle80"/>
	<circle cx="454.23" cy="715.774" r="4" fill="#0" id="circle81"/>
	<circle cx="459.834" cy="41.3635" r="4" fill="#0" id="circle82"/>
	<circle cx="463.571" cy="697.092" r="4" fill="#0" id="circle83"/>
	<circle cx="476.648" cy="32.0226" r="4" fill="#0" id="circle84"/>
	<circle cx="478.516" cy="684.015" r="4" fill="#0" id="circle85"/>
	<circle cx="491.593" cy="659.729" r="4" fill="#0" id="circle86"/>
	<circle cx="495.33" cy="32.0226" r="4" fill="#0" id="circle87"/>
	<circle cx="500.934" cy="641.047" r="4" fill="#0" id="circle88"/>
	<circle cx="512.143" cy="22.6817" r="4" fill="#0" id="circle89"/>
	<circle cx="519.616" cy="641.047" r="4" fill="#0" id="circle90"/>
	<circle cx="530.825" cy="15.209" r="4" fill="#0" id="circle91"/>
	<circle cx="538.298" cy="641.047" r="4" fill="#0" id="circle92"/>
	<circle cx="549.507" cy="22.6817" r="4" fill="#0" id="circle93"/>
	<circle cx="556.979" cy="631.706" r="4" fill="#0" id="circle94"/>
	<circle cx="568.188" cy="22.6817" r="4" fill="#0" id="circle95"/>
	<circle cx="575.661" cy="631.706" r="4" fill="#0" id="circle96"/>
	<circle cx="586.87" cy="15.209" r="4" fill="#0" id="circle97"/>
	<circle cx="592.475" cy="622.365" r="4" fill="#0" id="circle98"/>
	<circle cx="605.552" cy="13.3409" r="4" fill="#0" id="circle99"/>
	<circle cx="609.288" cy="613.024" r="4" fill="#0" id="circle100"/>
	<circle cx="624.234" cy="13.3409" r="4" fill="#0" id="circle101"/>
	<circle cx="627.97" cy="609.288" r="4" fill="#0" id="circle102"/>
	<circle cx="641.047" cy="4" r="4" fill="#0" id="circle103"/>
	<circle cx="641.047" cy="594.343" r="4" fill="#0" id="circle104"/>
	<circle cx="655.992" cy="15.209" r="4" fill="#0" id="circle105"/>
	<circle cx="659.729" cy="585.002" r="4" fill="#0" id="circle106"/>
	<circle cx="674.674" cy="13.3409" r="4" fill="#0" id="circle107"/>
	<circle cx="678.411" cy="585.002" r="4" fill="#0" id="circle108"/>
	<circle cx="691.488" cy="4" r="4" fill="#0" id="circle109"/>
	<circle cx="695.224" cy="575.661" r="4" fill="#0" id="circle110"/>
	<circle cx="708.301" cy="13.3409" r="4" fill="#0" id="circle111"/>
	<circle cx="712.038" cy="566.32" r="4" fill="#0" id="circle112"/>
	<circle cx="725.115" cy="4" r="4" fill="#0" id="circle113"/>
	<circle cx="730.719" cy="562.584" r="4" fill="#0" id="circle114"/>
	<circle cx="743.797" cy="9.60452" r="4" fill="#0" id="circle115"/>
	<circle cx="743.797" cy="538.298" r="4" fill="#0" id="circle116"/>
	<circle cx="760.61" cy="528.957" r="4" fill="#0" id="circle117"/>
	<circle cx="762.478" cy="13.3409" r="4" fill="#0" id="circle118"/>
	<circle cx="779.292" cy="523.352" r="4" fill="#0" id="circle119"/>
	<circle cx="781.16" cy="13.3409" r="4" fill="#0" id="circle120"/>
	<circle cx="797.974" cy="514.011" r="4" fill="#0" id="circle121"/>
	<circle cx="799.842" cy="13.3409" r="4" fill="#0" id="circle122"/>
	<circle cx="812.919" cy="499.066" r="4" fill="#0" id="circle123"/>
	<circle cx="816.655" cy="22.6817" r="4" fill="#0" id="circle124"/>
	<circle cx="827.864" cy="482.252" r="4" fill="#0" id="circle125"/>
	<circle cx="835.337" cy="22.6817" r="4" fill="#0" id="circle126"/>
	<circle cx="844.678" cy="472.911" r="4" fill="#0" id="circle127"/>
	<circle cx="852.151" cy="32.0226" r="4" fill="#0" id="circle128"/>
	<circle cx="859.623" cy="461.702" r="4" fill="#0" id="circle129"/>
	<circle cx="870.832" cy="33.8908" r="4" fill="#0" id="circle130"/>
	<circle cx="874.569" cy="444.889" r="4" fill="#0" id="circle131"/>
	<circle cx="880.173" cy="50.7043" r="4" fill="#0" id="circle132"/>
	<circle cx="893.25" cy="426.207" r="4" fill="#0" id="circle133"/>
	<circle cx="896.987" cy="60.0452" r="4" fill="#0" id="circle134"/>
	<circle cx="908.196" cy="413.13" r="4" fill="#0" id="circle135"/>
	<circle cx="911.932" cy="71.2542" r="4" fill="#0" id="circle136"/>
	<circle cx="921.273" cy="398.185" r="4" fill="#0" id="circle137"/>
	<circle cx="926.878" cy="82.4633" r="4" fill="#0" id="circle138"/>
	<circle cx="936.218" cy="99.2768" r="4" fill="#0" id="circle139"/>
	<circle cx="939.955" cy="379.503" r="4" fill="#0" id="circle140"/>
	<circle cx="949.296" cy="360.821" r="4" fill="#0" id="circle141"/>
	<circle cx="953.032" cy="108.618" r="4" fill="#0" id="circle142"/>
	<circle cx="958.637" cy="332.798" r="4" fill="#0" id="circle143"/>
	<circle cx="962.373" cy="125.431" r="4" fill="#0" id="circle144"/>
	<circle cx="973.582" cy="319.721" r="4" fill="#0" id="circle145"/>
	<circle cx="975.45" cy="140.377" r="4" fill="#0" id="circle146"/>
	<circle cx="977.318" cy="295.435" r="4" fill="#0" id="circle147"/>
	<circle cx="986.659" cy="155.322" r="4" fill="#0" id="circle148"/>
	<circle cx="986.659" cy="192.685" r="4" fill="#0" id="circle149"/>
	<circle cx="986.659" cy="230.049" r="4" fill="#0" id="circle150"/>
	<circle cx="986.659" cy="248.731" r="4" fill="#0" id="circle151"/>
	<circle cx="986.659" cy="267.412" r="4" fill="#0" id="circle152"/>
	<circle cx="990.395" cy="174.004" r="4" fill="#0" id="circle153"/>
	<circle cx="996" cy="209.499" r="4" fill="#0" id="circle154"/>
	</g>
</svg>