<?xml version="1.0" encoding="UTF-8" standalone="no"?>
<!-- Created with CurveBenchmark -->
<svg
	xmlns:dc="http://purl.org/dc/elements/1.1/"
	xmlns:cc="http://creativecommons.org/ns#"
	xmlns:rdf="http://www.w3.org/1999/02/22-rdf-syntax-ns#"
	xmlns:svg="http://www.w3.org/2000/svg"
	xmlns="http://www.w3.org/2000/svg"
	xmlns:sodipodi="http://sodipodi.sourceforge.net/DTD/sodipodi-0.dtd"
	xmlns:inkscape="http://www.inkscape.org/namespaces/inkscape"
	width="1000"
	height="1000"
	id="svg2"
	version="1.1"
	sodipodi:docname="manifold/peel-teddy095.png.txt">
<defs
	id="defs4" />
<metadata
	id="metadata7">
	<rdf:RDF>
		<cc:Work
			rdf:about="">
			<dc:format>image/svg+xml</dc:format>
			<dc:type
				rdf:resource="http://purl.org/dc/dcmitype/StillImage" />
			<dc:title></dc:title>
		</cc:Work>
	</rdf:RDF>
</metadata>
<g
	inkscape:label="Layer 1"
	inkscape:groupmode="layer"
	id="layer1">
	<path style="fill:none;stroke:red;stroke-width:1px;stroke-linecap:butt;stroke-linejoin:miter;stroke-opacity:1" d="M 37.9145,439.236 15.3048,461.846 z" id="boundary" inkscape:connector-curvature="0" />
	<path style="fill:none;stroke:red;stroke-width:1px;stroke-linecap:butt;stroke-linejoin:miter;stroke-opacity:1" d="M 15.3048,461.846 4,495.761 z" id="boundary" inkscape:connector-curvature="0" />
	<path style="fill:none;stroke:red;stroke-width:1px;stroke-linecap:butt;stroke-linejoin:miter;stroke-opacity:1" d="M 20.9573,580.547 9.65242,552.285 z" id="boundary" inkscape:connector-curvature="0" />
	<path style="fill:none;stroke:red;stroke-width:1px;stroke-linecap:butt;stroke-linejoin:miter;stroke-opacity:1" d="M 4,524.023 4,495.761 z" id="boundary" inkscape:connector-curvature="0" />
	<path style="fill:none;stroke:red;stroke-width:1px;stroke-linecap:butt;stroke-linejoin:miter;stroke-opacity:1" d="M 4,524.023 9.65242,552.285 z" id="boundary" inkscape:connector-curvature="0" />
	<path style="fill:none;stroke:red;stroke-width:1px;stroke-linecap:butt;stroke-linejoin:miter;stroke-opacity:1" d="M 26.6097,252.707 26.6097,224.444 z" id="boundary" inkscape:connector-curvature="0" />
	<path style="fill:none;stroke:red;stroke-width:1px;stroke-linecap:butt;stroke-linejoin:miter;stroke-opacity:1" d="M 26.6097,224.444 26.6097,196.182 z" id="boundary" inkscape:connector-curvature="0" />
	<path style="fill:none;stroke:red;stroke-width:1px;stroke-linecap:butt;stroke-linejoin:miter;stroke-opacity:1" d="M 20.9573,580.547 40.7407,603.157 z" id="boundary" inkscape:connector-curvature="0" />
	<path style="fill:none;stroke:red;stroke-width:1px;stroke-linecap:butt;stroke-linejoin:miter;stroke-opacity:1" d="M 32.2621,280.969 26.6097,252.707 z" id="boundary" inkscape:connector-curvature="0" />
	<path style="fill:none;stroke:red;stroke-width:1px;stroke-linecap:butt;stroke-linejoin:miter;stroke-opacity:1" d="M 26.6097,196.182 37.9145,162.268 z" id="boundary" inkscape:connector-curvature="0" />
	<path style="fill:none;stroke:red;stroke-width:1px;stroke-linecap:butt;stroke-linejoin:miter;stroke-opacity:1" d="M 40.7407,309.231 32.2621,280.969 z" id="boundary" inkscape:connector-curvature="0" />
	<path style="fill:none;stroke:red;stroke-width:1px;stroke-linecap:butt;stroke-linejoin:miter;stroke-opacity:1" d="M 49.2194,134.006 37.9145,162.268 z" id="boundary" inkscape:connector-curvature="0" />
	<path style="fill:none;stroke:red;stroke-width:1px;stroke-linecap:butt;stroke-linejoin:miter;stroke-opacity:1" d="M 40.7407,603.157 57.698,625.766 z" id="boundary" inkscape:connector-curvature="0" />
	<path style="fill:none;stroke:red;stroke-width:1px;stroke-linecap:butt;stroke-linejoin:miter;stroke-opacity:1" d="M 57.698,625.766 66.1766,654.028 z" id="boundary" inkscape:connector-curvature="0" />
	<path style="fill:none;stroke:red;stroke-width:1px;stroke-linecap:butt;stroke-linejoin:miter;stroke-opacity:1" d="M 40.7407,309.231 54.8718,334.667 z" id="boundary" inkscape:connector-curvature="0" />
	<path style="fill:none;stroke:red;stroke-width:1px;stroke-linecap:butt;stroke-linejoin:miter;stroke-opacity:1" d="M 49.2194,105.744 49.2194,77.4815 z" id="boundary" inkscape:connector-curvature="0" />
	<path style="fill:none;stroke:red;stroke-width:1px;stroke-linecap:butt;stroke-linejoin:miter;stroke-opacity:1" d="M 49.2194,77.4815 49.2194,49.2194 z" id="boundary" inkscape:connector-curvature="0" />
	<path style="fill:none;stroke:red;stroke-width:1px;stroke-linecap:butt;stroke-linejoin:miter;stroke-opacity:1" d="M 49.2194,134.006 49.2194,105.744 z" id="boundary" inkscape:connector-curvature="0" />
	<path style="fill:none;stroke:red;stroke-width:1px;stroke-linecap:butt;stroke-linejoin:miter;stroke-opacity:1" d="M 196.182,35.0883 224.444,43.567 z" id="boundary" inkscape:connector-curvature="0" />
	<path style="fill:none;stroke:red;stroke-width:1px;stroke-linecap:butt;stroke-linejoin:miter;stroke-opacity:1" d="M 49.2194,49.2194 66.1766,26.6097 z" id="boundary" inkscape:connector-curvature="0" />
	<path style="fill:none;stroke:red;stroke-width:1px;stroke-linecap:butt;stroke-linejoin:miter;stroke-opacity:1" d="M 88.7863,9.65242 117.048,4 z" id="boundary" inkscape:connector-curvature="0" />
	<path style="fill:none;stroke:red;stroke-width:1px;stroke-linecap:butt;stroke-linejoin:miter;stroke-opacity:1" d="M 88.7863,9.65242 66.1766,26.6097 z" id="boundary" inkscape:connector-curvature="0" />
	<path style="fill:none;stroke:red;stroke-width:1px;stroke-linecap:butt;stroke-linejoin:miter;stroke-opacity:1" d="M 66.1766,362.929 54.8718,334.667 z" id="boundary" inkscape:connector-curvature="0" />
	<path style="fill:none;stroke:red;stroke-width:1px;stroke-linecap:butt;stroke-linejoin:miter;stroke-opacity:1" d="M 37.9145,439.236 60.5242,416.627 z" id="boundary" inkscape:connector-curvature="0" />
	<path style="fill:none;stroke:red;stroke-width:1px;stroke-linecap:butt;stroke-linejoin:miter;stroke-opacity:1" d="M 77.4815,860.342 77.4815,888.604 z" id="boundary" inkscape:connector-curvature="0" />
	<path style="fill:none;stroke:red;stroke-width:1px;stroke-linecap:butt;stroke-linejoin:miter;stroke-opacity:1" d="M 117.048,4 145.311,9.65242 z" id="boundary" inkscape:connector-curvature="0" />
	<path style="fill:none;stroke:red;stroke-width:1px;stroke-linecap:butt;stroke-linejoin:miter;stroke-opacity:1" d="M 60.5242,416.627 77.4815,391.191 z" id="boundary" inkscape:connector-curvature="0" />
	<path style="fill:none;stroke:red;stroke-width:1px;stroke-linecap:butt;stroke-linejoin:miter;stroke-opacity:1" d="M 77.4815,391.191 66.1766,362.929 z" id="boundary" inkscape:connector-curvature="0" />
	<path style="fill:none;stroke:red;stroke-width:1px;stroke-linecap:butt;stroke-linejoin:miter;stroke-opacity:1" d="M 60.5242,750.12 63.3504,778.382 z" id="boundary" inkscape:connector-curvature="0" />
	<path style="fill:none;stroke:red;stroke-width:1px;stroke-linecap:butt;stroke-linejoin:miter;stroke-opacity:1" d="M 63.3504,778.382 77.4815,803.818 z" id="boundary" inkscape:connector-curvature="0" />
	<path style="fill:none;stroke:red;stroke-width:1px;stroke-linecap:butt;stroke-linejoin:miter;stroke-opacity:1" d="M 77.4815,888.604 83.1339,916.866 z" id="boundary" inkscape:connector-curvature="0" />
	<path style="fill:none;stroke:red;stroke-width:1px;stroke-linecap:butt;stroke-linejoin:miter;stroke-opacity:1" d="M 60.5242,750.12 66.1766,710.553 z" id="boundary" inkscape:connector-curvature="0" />
	<path style="fill:none;stroke:red;stroke-width:1px;stroke-linecap:butt;stroke-linejoin:miter;stroke-opacity:1" d="M 145.311,9.65242 173.573,18.1311 z" id="boundary" inkscape:connector-curvature="0" />
	<path style="fill:none;stroke:red;stroke-width:1px;stroke-linecap:butt;stroke-linejoin:miter;stroke-opacity:1" d="M 173.573,18.1311 196.182,35.0883 z" id="boundary" inkscape:connector-curvature="0" />
	<path style="fill:none;stroke:red;stroke-width:1px;stroke-linecap:butt;stroke-linejoin:miter;stroke-opacity:1" d="M 447.715,371.407 464.672,394.017 z" id="boundary" inkscape:connector-curvature="0" />
	<path style="fill:none;stroke:red;stroke-width:1px;stroke-linecap:butt;stroke-linejoin:miter;stroke-opacity:1" d="M 66.1766,710.553 71.8291,682.291 z" id="boundary" inkscape:connector-curvature="0" />
	<path style="fill:none;stroke:red;stroke-width:1px;stroke-linecap:butt;stroke-linejoin:miter;stroke-opacity:1" d="M 71.8291,682.291 66.1766,654.028 z" id="boundary" inkscape:connector-curvature="0" />
	<path style="fill:none;stroke:red;stroke-width:1px;stroke-linecap:butt;stroke-linejoin:miter;stroke-opacity:1" d="M 413.801,156.615 430.758,179.225 z" id="boundary" inkscape:connector-curvature="0" />
	<path style="fill:none;stroke:red;stroke-width:1px;stroke-linecap:butt;stroke-linejoin:miter;stroke-opacity:1" d="M 77.4815,803.818 77.4815,832.08 z" id="boundary" inkscape:connector-curvature="0" />
	<path style="fill:none;stroke:red;stroke-width:1px;stroke-linecap:butt;stroke-linejoin:miter;stroke-opacity:1" d="M 526.849,687.943 521.197,659.681 z" id="boundary" inkscape:connector-curvature="0" />
	<path style="fill:none;stroke:red;stroke-width:1px;stroke-linecap:butt;stroke-linejoin:miter;stroke-opacity:1" d="M 77.4815,832.08 77.4815,860.342 z" id="boundary" inkscape:connector-curvature="0" />
	<path style="fill:none;stroke:red;stroke-width:1px;stroke-linecap:butt;stroke-linejoin:miter;stroke-opacity:1" d="M 83.1339,916.866 88.7863,945.128 z" id="boundary" inkscape:connector-curvature="0" />
	<path style="fill:none;stroke:red;stroke-width:1px;stroke-linecap:butt;stroke-linejoin:miter;stroke-opacity:1" d="M 88.7863,945.128 105.744,967.738 z" id="boundary" inkscape:connector-curvature="0" />
	<path style="fill:none;stroke:red;stroke-width:1px;stroke-linecap:butt;stroke-linejoin:miter;stroke-opacity:1" d="M 105.744,967.738 131.179,981.869 z" id="boundary" inkscape:connector-curvature="0" />
	<path style="fill:none;stroke:red;stroke-width:1px;stroke-linecap:butt;stroke-linejoin:miter;stroke-opacity:1" d="M 131.179,981.869 159.442,990.348 z" id="boundary" inkscape:connector-curvature="0" />
	<path style="fill:none;stroke:red;stroke-width:1px;stroke-linecap:butt;stroke-linejoin:miter;stroke-opacity:1" d="M 224.444,43.567 252.707,43.567 z" id="boundary" inkscape:connector-curvature="0" />
	<path style="fill:none;stroke:red;stroke-width:1px;stroke-linecap:butt;stroke-linejoin:miter;stroke-opacity:1" d="M 159.442,990.348 187.704,996 z" id="boundary" inkscape:connector-curvature="0" />
	<path style="fill:none;stroke:red;stroke-width:1px;stroke-linecap:butt;stroke-linejoin:miter;stroke-opacity:1" d="M 413.801,128.353 413.801,156.615 z" id="boundary" inkscape:connector-curvature="0" />
	<path style="fill:none;stroke:red;stroke-width:1px;stroke-linecap:butt;stroke-linejoin:miter;stroke-opacity:1" d="M 187.704,996 215.966,996 z" id="boundary" inkscape:connector-curvature="0" />
	<path style="fill:none;stroke:red;stroke-width:1px;stroke-linecap:butt;stroke-linejoin:miter;stroke-opacity:1" d="M 215.966,996 244.228,996 z" id="boundary" inkscape:connector-curvature="0" />
	<path style="fill:none;stroke:red;stroke-width:1px;stroke-linecap:butt;stroke-linejoin:miter;stroke-opacity:1" d="M 303.578,9.65242 275.316,20.9573 z" id="boundary" inkscape:connector-curvature="0" />
	<path style="fill:none;stroke:red;stroke-width:1px;stroke-linecap:butt;stroke-linejoin:miter;stroke-opacity:1" d="M 275.316,20.9573 252.707,43.567 z" id="boundary" inkscape:connector-curvature="0" />
	<path style="fill:none;stroke:red;stroke-width:1px;stroke-linecap:butt;stroke-linejoin:miter;stroke-opacity:1" d="M 244.228,996 272.49,996 z" id="boundary" inkscape:connector-curvature="0" />
	<path style="fill:none;stroke:red;stroke-width:1px;stroke-linecap:butt;stroke-linejoin:miter;stroke-opacity:1" d="M 331.84,4 360.103,9.65242 z" id="boundary" inkscape:connector-curvature="0" />
	<path style="fill:none;stroke:red;stroke-width:1px;stroke-linecap:butt;stroke-linejoin:miter;stroke-opacity:1" d="M 331.84,4 303.578,9.65242 z" id="boundary" inkscape:connector-curvature="0" />
	<path style="fill:none;stroke:red;stroke-width:1px;stroke-linecap:butt;stroke-linejoin:miter;stroke-opacity:1" d="M 272.49,996 300.752,996 z" id="boundary" inkscape:connector-curvature="0" />
	<path style="fill:none;stroke:red;stroke-width:1px;stroke-linecap:butt;stroke-linejoin:miter;stroke-opacity:1" d="M 360.103,9.65242 385.538,23.7835 z" id="boundary" inkscape:connector-curvature="0" />
	<path style="fill:none;stroke:red;stroke-width:1px;stroke-linecap:butt;stroke-linejoin:miter;stroke-opacity:1" d="M 555.111,984.695 583.373,996 z" id="boundary" inkscape:connector-curvature="0" />
	<path style="fill:none;stroke:red;stroke-width:1px;stroke-linecap:butt;stroke-linejoin:miter;stroke-opacity:1" d="M 300.752,996 329.014,996 z" id="boundary" inkscape:connector-curvature="0" />
	<path style="fill:none;stroke:red;stroke-width:1px;stroke-linecap:butt;stroke-linejoin:miter;stroke-opacity:1" d="M 329.014,996 357.276,990.348 z" id="boundary" inkscape:connector-curvature="0" />
	<path style="fill:none;stroke:red;stroke-width:1px;stroke-linecap:butt;stroke-linejoin:miter;stroke-opacity:1" d="M 385.538,979.043 413.801,973.39 z" id="boundary" inkscape:connector-curvature="0" />
	<path style="fill:none;stroke:red;stroke-width:1px;stroke-linecap:butt;stroke-linejoin:miter;stroke-opacity:1" d="M 413.801,973.39 442.063,973.39 z" id="boundary" inkscape:connector-curvature="0" />
	<path style="fill:none;stroke:red;stroke-width:1px;stroke-linecap:butt;stroke-linejoin:miter;stroke-opacity:1" d="M 408.148,43.567 419.453,71.8291 z" id="boundary" inkscape:connector-curvature="0" />
	<path style="fill:none;stroke:red;stroke-width:1px;stroke-linecap:butt;stroke-linejoin:miter;stroke-opacity:1" d="M 408.148,43.567 385.538,23.7835 z" id="boundary" inkscape:connector-curvature="0" />
	<path style="fill:none;stroke:red;stroke-width:1px;stroke-linecap:butt;stroke-linejoin:miter;stroke-opacity:1" d="M 357.276,990.348 385.538,979.043 z" id="boundary" inkscape:connector-curvature="0" />
	<path style="fill:none;stroke:red;stroke-width:1px;stroke-linecap:butt;stroke-linejoin:miter;stroke-opacity:1" d="M 442.063,973.39 470.325,970.564 z" id="boundary" inkscape:connector-curvature="0" />
	<path style="fill:none;stroke:red;stroke-width:1px;stroke-linecap:butt;stroke-linejoin:miter;stroke-opacity:1" d="M 470.325,970.564 498.587,973.39 z" id="boundary" inkscape:connector-curvature="0" />
	<path style="fill:none;stroke:red;stroke-width:1px;stroke-linecap:butt;stroke-linejoin:miter;stroke-opacity:1" d="M 413.801,128.353 419.453,100.091 z" id="boundary" inkscape:connector-curvature="0" />
	<path style="fill:none;stroke:red;stroke-width:1px;stroke-linecap:butt;stroke-linejoin:miter;stroke-opacity:1" d="M 419.453,71.8291 419.453,100.091 z" id="boundary" inkscape:connector-curvature="0" />
	<path style="fill:none;stroke:red;stroke-width:1px;stroke-linecap:butt;stroke-linejoin:miter;stroke-opacity:1" d="M 487.282,410.974 464.672,394.017 z" id="boundary" inkscape:connector-curvature="0" />
	<path style="fill:none;stroke:red;stroke-width:1px;stroke-linecap:butt;stroke-linejoin:miter;stroke-opacity:1" d="M 555.111,984.695 526.849,973.39 z" id="boundary" inkscape:connector-curvature="0" />
	<path style="fill:none;stroke:red;stroke-width:1px;stroke-linecap:butt;stroke-linejoin:miter;stroke-opacity:1" d="M 526.849,973.39 498.587,973.39 z" id="boundary" inkscape:connector-curvature="0" />
	<path style="fill:none;stroke:red;stroke-width:1px;stroke-linecap:butt;stroke-linejoin:miter;stroke-opacity:1" d="M 430.758,179.225 453.368,196.182 z" id="boundary" inkscape:connector-curvature="0" />
	<path style="fill:none;stroke:red;stroke-width:1px;stroke-linecap:butt;stroke-linejoin:miter;stroke-opacity:1" d="M 512.718,425.105 487.282,410.974 z" id="boundary" inkscape:connector-curvature="0" />
	<path style="fill:none;stroke:red;stroke-width:1px;stroke-linecap:butt;stroke-linejoin:miter;stroke-opacity:1" d="M 498.587,258.359 492.934,286.621 z" id="boundary" inkscape:connector-curvature="0" />
	<path style="fill:none;stroke:red;stroke-width:1px;stroke-linecap:butt;stroke-linejoin:miter;stroke-opacity:1" d="M 470.325,348.798 484.456,323.362 z" id="boundary" inkscape:connector-curvature="0" />
	<path style="fill:none;stroke:red;stroke-width:1px;stroke-linecap:butt;stroke-linejoin:miter;stroke-opacity:1" d="M 447.715,371.407 470.325,348.798 z" id="boundary" inkscape:connector-curvature="0" />
	<path style="fill:none;stroke:red;stroke-width:1px;stroke-linecap:butt;stroke-linejoin:miter;stroke-opacity:1" d="M 526.849,687.943 532.501,716.205 z" id="boundary" inkscape:connector-curvature="0" />
	<path style="fill:none;stroke:red;stroke-width:1px;stroke-linecap:butt;stroke-linejoin:miter;stroke-opacity:1" d="M 453.368,196.182 475.977,213.14 z" id="boundary" inkscape:connector-curvature="0" />
	<path style="fill:none;stroke:red;stroke-width:1px;stroke-linecap:butt;stroke-linejoin:miter;stroke-opacity:1" d="M 484.456,323.362 492.934,286.621 z" id="boundary" inkscape:connector-curvature="0" />
	<path style="fill:none;stroke:red;stroke-width:1px;stroke-linecap:butt;stroke-linejoin:miter;stroke-opacity:1" d="M 475.977,213.14 498.587,230.097 z" id="boundary" inkscape:connector-curvature="0" />
	<path style="fill:none;stroke:red;stroke-width:1px;stroke-linecap:butt;stroke-linejoin:miter;stroke-opacity:1" d="M 498.587,258.359 498.587,230.097 z" id="boundary" inkscape:connector-curvature="0" />
	<path style="fill:none;stroke:red;stroke-width:1px;stroke-linecap:butt;stroke-linejoin:miter;stroke-opacity:1" d="M 540.98,427.932 512.718,425.105 z" id="boundary" inkscape:connector-curvature="0" />
	<path style="fill:none;stroke:red;stroke-width:1px;stroke-linecap:butt;stroke-linejoin:miter;stroke-opacity:1" d="M 555.111,733.162 532.501,716.205 z" id="boundary" inkscape:connector-curvature="0" />
	<path style="fill:none;stroke:red;stroke-width:1px;stroke-linecap:butt;stroke-linejoin:miter;stroke-opacity:1" d="M 549.459,648.376 521.197,659.681 z" id="boundary" inkscape:connector-curvature="0" />
	<path style="fill:none;stroke:red;stroke-width:1px;stroke-linecap:butt;stroke-linejoin:miter;stroke-opacity:1" d="M 569.242,433.584 540.98,427.932 z" id="boundary" inkscape:connector-curvature="0" />
	<path style="fill:none;stroke:red;stroke-width:1px;stroke-linecap:butt;stroke-linejoin:miter;stroke-opacity:1" d="M 555.111,733.162 583.373,738.815 z" id="boundary" inkscape:connector-curvature="0" />
	<path style="fill:none;stroke:red;stroke-width:1px;stroke-linecap:butt;stroke-linejoin:miter;stroke-opacity:1" d="M 549.459,648.376 577.721,639.897 z" id="boundary" inkscape:connector-curvature="0" />
	<path style="fill:none;stroke:red;stroke-width:1px;stroke-linecap:butt;stroke-linejoin:miter;stroke-opacity:1" d="M 597.504,436.41 569.242,433.584 z" id="boundary" inkscape:connector-curvature="0" />
	<path style="fill:none;stroke:red;stroke-width:1px;stroke-linecap:butt;stroke-linejoin:miter;stroke-opacity:1" d="M 577.721,639.897 605.983,628.593 z" id="boundary" inkscape:connector-curvature="0" />
	<path style="fill:none;stroke:red;stroke-width:1px;stroke-linecap:butt;stroke-linejoin:miter;stroke-opacity:1" d="M 583.373,738.815 611.635,730.336 z" id="boundary" inkscape:connector-curvature="0" />
	<path style="fill:none;stroke:red;stroke-width:1px;stroke-linecap:butt;stroke-linejoin:miter;stroke-opacity:1" d="M 625.766,444.889 597.504,436.41 z" id="boundary" inkscape:connector-curvature="0" />
	<path style="fill:none;stroke:red;stroke-width:1px;stroke-linecap:butt;stroke-linejoin:miter;stroke-opacity:1" d="M 583.373,996 611.635,996 z" id="boundary" inkscape:connector-curvature="0" />
	<path style="fill:none;stroke:red;stroke-width:1px;stroke-linecap:butt;stroke-linejoin:miter;stroke-opacity:1" d="M 605.983,628.593 634.245,614.462 z" id="boundary" inkscape:connector-curvature="0" />
	<path style="fill:none;stroke:red;stroke-width:1px;stroke-linecap:butt;stroke-linejoin:miter;stroke-opacity:1" d="M 611.635,730.336 639.897,727.51 z" id="boundary" inkscape:connector-curvature="0" />
	<path style="fill:none;stroke:red;stroke-width:1px;stroke-linecap:butt;stroke-linejoin:miter;stroke-opacity:1" d="M 685.117,504.239 673.812,475.977 z" id="boundary" inkscape:connector-curvature="0" />
	<path style="fill:none;stroke:red;stroke-width:1px;stroke-linecap:butt;stroke-linejoin:miter;stroke-opacity:1" d="M 611.635,996 639.897,996 z" id="boundary" inkscape:connector-curvature="0" />
	<path style="fill:none;stroke:red;stroke-width:1px;stroke-linecap:butt;stroke-linejoin:miter;stroke-opacity:1" d="M 634.245,614.462 659.681,600.33 z" id="boundary" inkscape:connector-curvature="0" />
	<path style="fill:none;stroke:red;stroke-width:1px;stroke-linecap:butt;stroke-linejoin:miter;stroke-opacity:1" d="M 625.766,444.889 654.028,453.368 z" id="boundary" inkscape:connector-curvature="0" />
	<path style="fill:none;stroke:red;stroke-width:1px;stroke-linecap:butt;stroke-linejoin:miter;stroke-opacity:1" d="M 654.028,453.368 673.812,475.977 z" id="boundary" inkscape:connector-curvature="0" />
	<path style="fill:none;stroke:red;stroke-width:1px;stroke-linecap:butt;stroke-linejoin:miter;stroke-opacity:1" d="M 639.897,727.51 668.16,727.51 z" id="boundary" inkscape:connector-curvature="0" />
	<path style="fill:none;stroke:red;stroke-width:1px;stroke-linecap:butt;stroke-linejoin:miter;stroke-opacity:1" d="M 752.946,789.687 741.641,761.425 z" id="boundary" inkscape:connector-curvature="0" />
	<path style="fill:none;stroke:red;stroke-width:1px;stroke-linecap:butt;stroke-linejoin:miter;stroke-opacity:1" d="M 685.117,504.239 685.117,532.501 z" id="boundary" inkscape:connector-curvature="0" />
	<path style="fill:none;stroke:red;stroke-width:1px;stroke-linecap:butt;stroke-linejoin:miter;stroke-opacity:1" d="M 659.681,600.33 676.638,577.721 z" id="boundary" inkscape:connector-curvature="0" />
	<path style="fill:none;stroke:red;stroke-width:1px;stroke-linecap:butt;stroke-linejoin:miter;stroke-opacity:1" d="M 685.117,532.501 676.638,577.721 z" id="boundary" inkscape:connector-curvature="0" />
	<path style="fill:none;stroke:red;stroke-width:1px;stroke-linecap:butt;stroke-linejoin:miter;stroke-opacity:1" d="M 668.16,727.51 696.422,727.51 z" id="boundary" inkscape:connector-curvature="0" />
	<path style="fill:none;stroke:red;stroke-width:1px;stroke-linecap:butt;stroke-linejoin:miter;stroke-opacity:1" d="M 741.641,761.425 724.684,738.815 z" id="boundary" inkscape:connector-curvature="0" />
	<path style="fill:none;stroke:red;stroke-width:1px;stroke-linecap:butt;stroke-linejoin:miter;stroke-opacity:1" d="M 724.684,738.815 696.422,727.51 z" id="boundary" inkscape:connector-curvature="0" />
	<path style="fill:none;stroke:red;stroke-width:1px;stroke-linecap:butt;stroke-linejoin:miter;stroke-opacity:1" d="M 668.16,990.348 639.897,996 z" id="boundary" inkscape:connector-curvature="0" />
	<path style="fill:none;stroke:red;stroke-width:1px;stroke-linecap:butt;stroke-linejoin:miter;stroke-opacity:1" d="M 752.946,817.949 752.946,789.687 z" id="boundary" inkscape:connector-curvature="0" />
	<path style="fill:none;stroke:red;stroke-width:1px;stroke-linecap:butt;stroke-linejoin:miter;stroke-opacity:1" d="M 696.422,981.869 721.858,967.738 z" id="boundary" inkscape:connector-curvature="0" />
	<path style="fill:none;stroke:red;stroke-width:1px;stroke-linecap:butt;stroke-linejoin:miter;stroke-opacity:1" d="M 758.598,846.211 752.946,817.949 z" id="boundary" inkscape:connector-curvature="0" />
	<path style="fill:none;stroke:red;stroke-width:1px;stroke-linecap:butt;stroke-linejoin:miter;stroke-opacity:1" d="M 696.422,981.869 668.16,990.348 z" id="boundary" inkscape:connector-curvature="0" />
	<path style="fill:none;stroke:red;stroke-width:1px;stroke-linecap:butt;stroke-linejoin:miter;stroke-opacity:1" d="M 721.858,967.738 744.467,945.128 z" id="boundary" inkscape:connector-curvature="0" />
	<path style="fill:none;stroke:red;stroke-width:1px;stroke-linecap:butt;stroke-linejoin:miter;stroke-opacity:1" d="M 744.467,945.128 752.946,902.735 z" id="boundary" inkscape:connector-curvature="0" />
	<path style="fill:none;stroke:red;stroke-width:1px;stroke-linecap:butt;stroke-linejoin:miter;stroke-opacity:1" d="M 758.598,846.211 758.598,874.473 z" id="boundary" inkscape:connector-curvature="0" />
	<path style="fill:none;stroke:red;stroke-width:1px;stroke-linecap:butt;stroke-linejoin:miter;stroke-opacity:1" d="M 758.598,874.473 752.946,902.735 z" id="boundary" inkscape:connector-curvature="0" />
	<circle cx="4" cy="495.761" r="4" fill="#0" id="circle0"/>
	<circle cx="4" cy="524.023" r="4" fill="#0" id="circle1"/>
	<circle cx="9.65242" cy="552.285" r="4" fill="#0" id="circle2"/>
	<circle cx="15.3048" cy="461.846" r="4" fill="#0" id="circle3"/>
	<circle cx="20.9573" cy="580.547" r="4" fill="#0" id="circle4"/>
	<circle cx="26.6097" cy="196.182" r="4" fill="#0" id="circle5"/>
	<circle cx="26.6097" cy="224.444" r="4" fill="#0" id="circle6"/>
	<circle cx="26.6097" cy="252.707" r="4" fill="#0" id="circle7"/>
	<circle cx="32.2621" cy="280.969" r="4" fill="#0" id="circle8"/>
	<circle cx="37.9145" cy="162.268" r="4" fill="#0" id="circle9"/>
	<circle cx="37.9145" cy="439.236" r="4" fill="#0" id="circle10"/>
	<circle cx="40.7407" cy="309.231" r="4" fill="#0" id="circle11"/>
	<circle cx="40.7407" cy="603.157" r="4" fill="#0" id="circle12"/>
	<circle cx="49.2194" cy="49.2194" r="4" fill="#0" id="circle13"/>
	<circle cx="49.2194" cy="77.4815" r="4" fill="#0" id="circle14"/>
	<circle cx="49.2194" cy="105.744" r="4" fill="#0" id="circle15"/>
	<circle cx="49.2194" cy="134.006" r="4" fill="#0" id="circle16"/>
	<circle cx="54.8718" cy="334.667" r="4" fill="#0" id="circle17"/>
	<circle cx="57.698" cy="625.766" r="4" fill="#0" id="circle18"/>
	<circle cx="60.5242" cy="416.627" r="4" fill="#0" id="circle19"/>
	<circle cx="60.5242" cy="750.12" r="4" fill="#0" id="circle20"/>
	<circle cx="63.3504" cy="778.382" r="4" fill="#0" id="circle21"/>
	<circle cx="66.1766" cy="26.6097" r="4" fill="#0" id="circle22"/>
	<circle cx="66.1766" cy="362.929" r="4" fill="#0" id="circle23"/>
	<circle cx="66.1766" cy="654.028" r="4" fill="#0" id="circle24"/>
	<circle cx="66.1766" cy="710.553" r="4" fill="#0" id="circle25"/>
	<circle cx="71.8291" cy="682.291" r="4" fill="#0" id="circle26"/>
	<circle cx="77.4815" cy="391.191" r="4" fill="#0" id="circle27"/>
	<circle cx="77.4815" cy="803.818" r="4" fill="#0" id="circle28"/>
	<circle cx="77.4815" cy="832.08" r="4" fill="#0" id="circle29"/>
	<circle cx="77.4815" cy="860.342" r="4" fill="#0" id="circle30"/>
	<circle cx="77.4815" cy="888.604" r="4" fill="#0" id="circle31"/>
	<circle cx="83.1339" cy="916.866" r="4" fill="#0" id="circle32"/>
	<circle cx="88.7863" cy="9.65242" r="4" fill="#0" id="circle33"/>
	<circle cx="88.7863" cy="945.128" r="4" fill="#0" id="circle34"/>
	<circle cx="105.744" cy="967.738" r="4" fill="#0" id="circle35"/>
	<circle cx="117.048" cy="4" r="4" fill="#0" id="circle36"/>
	<circle cx="131.179" cy="981.869" r="4" fill="#0" id="circle37"/>
	<circle cx="145.311" cy="9.65242" r="4" fill="#0" id="circle38"/>
	<circle cx="159.442" cy="990.348" r="4" fill="#0" id="circle39"/>
	<circle cx="173.573" cy="18.1311" r="4" fill="#0" id="circle40"/>
	<circle cx="187.704" cy="996" r="4" fill="#0" id="circle41"/>
	<circle cx="196.182" cy="35.0883" r="4" fill="#0" id="circle42"/>
	<circle cx="215.966" cy="996" r="4" fill="#0" id="circle43"/>
	<circle cx="224.444" cy="43.567" r="4" fill="#0" id="circle44"/>
	<circle cx="244.228" cy="996" r="4" fill="#0" id="circle45"/>
	<circle cx="252.707" cy="43.567" r="4" fill="#0" id="circle46"/>
	<circle cx="272.49" cy="996" r="4" fill="#0" id="circle47"/>
	<circle cx="275.316" cy="20.9573" r="4" fill="#0" id="circle48"/>
	<circle cx="300.752" cy="996" r="4" fill="#0" id="circle49"/>
	<circle cx="303.578" cy="9.65242" r="4" fill="#0" id="circle50"/>
	<circle cx="329.014" cy="996" r="4" fill="#0" id="circle51"/>
	<circle cx="331.84" cy="4" r="4" fill="#0" id="circle52"/>
	<circle cx="357.276" cy="990.348" r="4" fill="#0" id="circle53"/>
	<circle cx="360.103" cy="9.65242" r="4" fill="#0" id="circle54"/>
	<circle cx="385.538" cy="23.7835" r="4" fill="#0" id="circle55"/>
	<circle cx="385.538" cy="979.043" r="4" fill="#0" id="circle56"/>
	<circle cx="408.148" cy="43.567" r="4" fill="#0" id="circle57"/>
	<circle cx="413.801" cy="128.353" r="4" fill="#0" id="circle58"/>
	<circle cx="413.801" cy="156.615" r="4" fill="#0" id="circle59"/>
	<circle cx="413.801" cy="973.39" r="4" fill="#0" id="circle60"/>
	<circle cx="419.453" cy="71.8291" r="4" fill="#0" id="circle61"/>
	<circle cx="419.453" cy="100.091" r="4" fill="#0" id="circle62"/>
	<circle cx="430.758" cy="179.225" r="4" fill="#0" id="circle63"/>
	<circle cx="442.063" cy="973.39" r="4" fill="#0" id="circle64"/>
	<circle cx="447.715" cy="371.407" r="4" fill="#0" id="circle65"/>
	<circle cx="453.368" cy="196.182" r="4" fill="#0" id="circle66"/>
	<circle cx="464.672" cy="394.017" r="4" fill="#0" id="circle67"/>
	<circle cx="470.325" cy="348.798" r="4" fill="#0" id="circle68"/>
	<circle cx="470.325" cy="970.564" r="4" fill="#0" id="circle69"/>
	<circle cx="475.977" cy="213.14" r="4" fill="#0" id="circle70"/>
	<circle cx="484.456" cy="323.362" r="4" fill="#0" id="circle71"/>
	<circle cx="487.282" cy="410.974" r="4" fill="#0" id="circle72"/>
	<circle cx="492.934" cy="286.621" r="4" fill="#0" id="circle73"/>
	<circle cx="498.587" cy="230.097" r="4" fill="#0" id="circle74"/>
	<circle cx="498.587" cy="258.359" r="4" fill="#0" id="circle75"/>
	<circle cx="498.587" cy="973.39" r="4" fill="#0" id="circle76"/>
	<circle cx="512.718" cy="425.105" r="4" fill="#0" id="circle77"/>
	<circle cx="521.197" cy="659.681" r="4" fill="#0" id="circle78"/>
	<circle cx="526.849" cy="687.943" r="4" fill="#0" id="circle79"/>
	<circle cx="526.849" cy="973.39" r="4" fill="#0" id="circle80"/>
	<circle cx="532.501" cy="716.205" r="4" fill="#0" id="circle81"/>
	<circle cx="540.98" cy="427.932" r="4" fill="#0" id="circle82"/>
	<circle cx="549.459" cy="648.376" r="4" fill="#0" id="circle83"/>
	<circle cx="555.111" cy="733.162" r="4" fill="#0" id="circle84"/>
	<circle cx="555.111" cy="984.695" r="4" fill="#0" id="circle85"/>
	<circle cx="569.242" cy="433.584" r="4" fill="#0" id="circle86"/>
	<circle cx="577.721" cy="639.897" r="4" fill="#0" id="circle87"/>
	<circle cx="583.373" cy="738.815" r="4" fill="#0" id="circle88"/>
	<circle cx="583.373" cy="996" r="4" fill="#0" id="circle89"/>
	<circle cx="597.504" cy="436.41" r="4" fill="#0" id="circle90"/>
	<circle cx="605.983" cy="628.593" r="4" fill="#0" id="circle91"/>
	<circle cx="611.635" cy="730.336" r="4" fill="#0" id="circle92"/>
	<circle cx="611.635" cy="996" r="4" fill="#0" id="circle93"/>
	<circle cx="625.766" cy="444.889" r="4" fill="#0" id="circle94"/>
	<circle cx="634.245" cy="614.462" r="4" fill="#0" id="circle95"/>
	<circle cx="639.897" cy="727.51" r="4" fill="#0" id="circle96"/>
	<circle cx="639.897" cy="996" r="4" fill="#0" id="circle97"/>
	<circle cx="654.028" cy="453.368" r="4" fill="#0" id="circle98"/>
	<circle cx="659.681" cy="600.33" r="4" fill="#0" id="circle99"/>
	<circle cx="668.16" cy="727.51" r="4" fill="#0" id="circle100"/>
	<circle cx="668.16" cy="990.348" r="4" fill="#0" id="circle101"/>
	<circle cx="673.812" cy="475.977" r="4" fill="#0" id="circle102"/>
	<circle cx="676.638" cy="577.721" r="4" fill="#0" id="circle103"/>
	<circle cx="685.117" cy="504.239" r="4" fill="#0" id="circle104"/>
	<circle cx="685.117" cy="532.501" r="4" fill="#0" id="circle105"/>
	<circle cx="696.422" cy="727.51" r="4" fill="#0" id="circle106"/>
	<circle cx="696.422" cy="981.869" r="4" fill="#0" id="circle107"/>
	<circle cx="721.858" cy="967.738" r="4" fill="#0" id="circle108"/>
	<circle cx="724.684" cy="738.815" r="4" fill="#0" id="circle109"/>
	<circle cx="741.641" cy="761.425" r="4" fill="#0" id="circle110"/>
	<circle cx="744.467" cy="945.128" r="4" fill="#0" id="circle111"/>
	<circle cx="752.946" cy="789.687" r="4" fill="#0" id="circle112"/>
	<circle cx="752.946" cy="817.949" r="4" fill="#0" id="circle113"/>
	<circle cx="752.946" cy="902.735" r="4" fill="#0" id="circle114"/>
	<circle cx="758.598" cy="846.211" r="4" fill="#0" id="circle115"/>
	<circle cx="758.598" cy="874.473" r="4" fill="#0" id="circle116"/>
	</g>
</svg>