<?xml version="1.0" encoding="UTF-8" standalone="no"?>
<!-- Created with CurveBenchmark -->
<svg
	xmlns:dc="http://purl.org/dc/elements/1.1/"
	xmlns:cc="http://creativecommons.org/ns#"
	xmlns:rdf="http://www.w3.org/1999/02/22-rdf-syntax-ns#"
	xmlns:svg="http://www.w3.org/2000/svg"
	xmlns="http://www.w3.org/2000/svg"
	xmlns:sodipodi="http://sodipodi.sourceforge.net/DTD/sodipodi-0.dtd"
	xmlns:inkscape="http://www.inkscape.org/namespaces/inkscape"
	width="1000"
	height="1000"
	id="svg2"
	version="1.1"
	sodipodi:docname="manifold/peel-Heart14.png.txt">
<defs
	id="defs4" />
<metadata
	id="metadata7">
	<rdf:RDF>
		<cc:Work
			rdf:about="">
			<dc:format>image/svg+xml</dc:format>
			<dc:type
				rdf:resource="http://purl.org/dc/dcmitype/StillImage" />
			<dc:title></dc:title>
		</cc:Work>
	</rdf:RDF>
</metadata>
<g
	inkscape:label="Layer 1"
	inkscape:groupmode="layer"
	id="layer1">
	<path style="fill:none;stroke:red;stroke-width:1px;stroke-linecap:butt;stroke-linejoin:miter;stroke-opacity:1" d="M 13.9598,199.213 4,219.133 z" id="boundary" inkscape:connector-curvature="0" />
	<path style="fill:none;stroke:red;stroke-width:1px;stroke-linecap:butt;stroke-linejoin:miter;stroke-opacity:1" d="M 4,219.133 4,239.052 z" id="boundary" inkscape:connector-curvature="0" />
	<path style="fill:none;stroke:red;stroke-width:1px;stroke-linecap:butt;stroke-linejoin:miter;stroke-opacity:1" d="M 13.9598,199.213 13.9598,179.293 z" id="boundary" inkscape:connector-curvature="0" />
	<path style="fill:none;stroke:red;stroke-width:1px;stroke-linecap:butt;stroke-linejoin:miter;stroke-opacity:1" d="M 4,239.052 4,258.972 z" id="boundary" inkscape:connector-curvature="0" />
	<path style="fill:none;stroke:red;stroke-width:1px;stroke-linecap:butt;stroke-linejoin:miter;stroke-opacity:1" d="M 195.229,4 175.309,4 z" id="boundary" inkscape:connector-curvature="0" />
	<path style="fill:none;stroke:red;stroke-width:1px;stroke-linecap:butt;stroke-linejoin:miter;stroke-opacity:1" d="M 175.309,4 155.39,4 z" id="boundary" inkscape:connector-curvature="0" />
	<path style="fill:none;stroke:red;stroke-width:1px;stroke-linecap:butt;stroke-linejoin:miter;stroke-opacity:1" d="M 53.7992,79.6948 43.8394,99.6145 z" id="boundary" inkscape:connector-curvature="0" />
	<path style="fill:none;stroke:red;stroke-width:1px;stroke-linecap:butt;stroke-linejoin:miter;stroke-opacity:1" d="M 4,278.892 4,298.811 z" id="boundary" inkscape:connector-curvature="0" />
	<path style="fill:none;stroke:red;stroke-width:1px;stroke-linecap:butt;stroke-linejoin:miter;stroke-opacity:1" d="M 4,338.651 4,358.57 z" id="boundary" inkscape:connector-curvature="0" />
	<path style="fill:none;stroke:red;stroke-width:1px;stroke-linecap:butt;stroke-linejoin:miter;stroke-opacity:1" d="M 13.9598,396.418 4,378.49 z" id="boundary" inkscape:connector-curvature="0" />
	<path style="fill:none;stroke:red;stroke-width:1px;stroke-linecap:butt;stroke-linejoin:miter;stroke-opacity:1" d="M 4,378.49 4,358.57 z" id="boundary" inkscape:connector-curvature="0" />
	<path style="fill:none;stroke:red;stroke-width:1px;stroke-linecap:butt;stroke-linejoin:miter;stroke-opacity:1" d="M 13.9598,179.293 23.9197,159.373 z" id="boundary" inkscape:connector-curvature="0" />
	<path style="fill:none;stroke:red;stroke-width:1px;stroke-linecap:butt;stroke-linejoin:miter;stroke-opacity:1" d="M 13.9598,416.337 13.9598,396.418 z" id="boundary" inkscape:connector-curvature="0" />
	<path style="fill:none;stroke:red;stroke-width:1px;stroke-linecap:butt;stroke-linejoin:miter;stroke-opacity:1" d="M 155.39,4 135.47,7.98394 z" id="boundary" inkscape:connector-curvature="0" />
	<path style="fill:none;stroke:red;stroke-width:1px;stroke-linecap:butt;stroke-linejoin:miter;stroke-opacity:1" d="M 135.47,7.98394 115.55,17.9438 z" id="boundary" inkscape:connector-curvature="0" />
	<path style="fill:none;stroke:red;stroke-width:1px;stroke-linecap:butt;stroke-linejoin:miter;stroke-opacity:1" d="M 23.9197,159.373 23.9197,139.454 z" id="boundary" inkscape:connector-curvature="0" />
	<path style="fill:none;stroke:red;stroke-width:1px;stroke-linecap:butt;stroke-linejoin:miter;stroke-opacity:1" d="M 23.9197,434.265 13.9598,416.337 z" id="boundary" inkscape:connector-curvature="0" />
	<path style="fill:none;stroke:red;stroke-width:1px;stroke-linecap:butt;stroke-linejoin:miter;stroke-opacity:1" d="M 33.8795,119.534 43.8394,99.6145 z" id="boundary" inkscape:connector-curvature="0" />
	<path style="fill:none;stroke:red;stroke-width:1px;stroke-linecap:butt;stroke-linejoin:miter;stroke-opacity:1" d="M 23.9197,454.185 23.9197,434.265 z" id="boundary" inkscape:connector-curvature="0" />
	<path style="fill:none;stroke:red;stroke-width:1px;stroke-linecap:butt;stroke-linejoin:miter;stroke-opacity:1" d="M 23.9197,139.454 33.8795,119.534 z" id="boundary" inkscape:connector-curvature="0" />
	<path style="fill:none;stroke:red;stroke-width:1px;stroke-linecap:butt;stroke-linejoin:miter;stroke-opacity:1" d="M 33.8795,472.112 23.9197,454.185 z" id="boundary" inkscape:connector-curvature="0" />
	<path style="fill:none;stroke:red;stroke-width:1px;stroke-linecap:butt;stroke-linejoin:miter;stroke-opacity:1" d="M 43.8394,490.04 33.8795,472.112 z" id="boundary" inkscape:connector-curvature="0" />
	<path style="fill:none;stroke:red;stroke-width:1px;stroke-linecap:butt;stroke-linejoin:miter;stroke-opacity:1" d="M 115.55,17.9438 95.6305,27.9036 z" id="boundary" inkscape:connector-curvature="0" />
	<path style="fill:none;stroke:red;stroke-width:1px;stroke-linecap:butt;stroke-linejoin:miter;stroke-opacity:1" d="M 95.6305,27.9036 79.6948,43.8394 z" id="boundary" inkscape:connector-curvature="0" />
	<path style="fill:none;stroke:red;stroke-width:1px;stroke-linecap:butt;stroke-linejoin:miter;stroke-opacity:1" d="M 63.759,59.7751 79.6948,43.8394 z" id="boundary" inkscape:connector-curvature="0" />
	<path style="fill:none;stroke:red;stroke-width:1px;stroke-linecap:butt;stroke-linejoin:miter;stroke-opacity:1" d="M 63.759,59.7751 53.7992,79.6948 z" id="boundary" inkscape:connector-curvature="0" />
	<path style="fill:none;stroke:red;stroke-width:1px;stroke-linecap:butt;stroke-linejoin:miter;stroke-opacity:1" d="M 53.7992,507.968 43.8394,490.04 z" id="boundary" inkscape:connector-curvature="0" />
	<path style="fill:none;stroke:red;stroke-width:1px;stroke-linecap:butt;stroke-linejoin:miter;stroke-opacity:1" d="M 53.7992,507.968 63.759,525.896 z" id="boundary" inkscape:connector-curvature="0" />
	<path style="fill:none;stroke:red;stroke-width:1px;stroke-linecap:butt;stroke-linejoin:miter;stroke-opacity:1" d="M 91.6466,553.783 73.7189,543.823 z" id="boundary" inkscape:connector-curvature="0" />
	<path style="fill:none;stroke:red;stroke-width:1px;stroke-linecap:butt;stroke-linejoin:miter;stroke-opacity:1" d="M 73.7189,543.823 63.759,525.896 z" id="boundary" inkscape:connector-curvature="0" />
	<path style="fill:none;stroke:red;stroke-width:1px;stroke-linecap:butt;stroke-linejoin:miter;stroke-opacity:1" d="M 99.6145,573.703 91.6466,553.783 z" id="boundary" inkscape:connector-curvature="0" />
	<path style="fill:none;stroke:red;stroke-width:1px;stroke-linecap:butt;stroke-linejoin:miter;stroke-opacity:1" d="M 252.996,19.9357 235.068,9.9759 z" id="boundary" inkscape:connector-curvature="0" />
	<path style="fill:none;stroke:red;stroke-width:1px;stroke-linecap:butt;stroke-linejoin:miter;stroke-opacity:1" d="M 109.574,591.631 99.6145,573.703 z" id="boundary" inkscape:connector-curvature="0" />
	<path style="fill:none;stroke:red;stroke-width:1px;stroke-linecap:butt;stroke-linejoin:miter;stroke-opacity:1" d="M 235.068,9.9759 215.149,4 z" id="boundary" inkscape:connector-curvature="0" />
	<path style="fill:none;stroke:red;stroke-width:1px;stroke-linecap:butt;stroke-linejoin:miter;stroke-opacity:1" d="M 215.149,4 195.229,4 z" id="boundary" inkscape:connector-curvature="0" />
	<path style="fill:none;stroke:red;stroke-width:1px;stroke-linecap:butt;stroke-linejoin:miter;stroke-opacity:1" d="M 125.51,603.582 109.574,591.631 z" id="boundary" inkscape:connector-curvature="0" />
	<path style="fill:none;stroke:red;stroke-width:1px;stroke-linecap:butt;stroke-linejoin:miter;stroke-opacity:1" d="M 252.996,19.9357 272.916,23.9197 z" id="boundary" inkscape:connector-curvature="0" />
	<path style="fill:none;stroke:red;stroke-width:1px;stroke-linecap:butt;stroke-linejoin:miter;stroke-opacity:1" d="M 272.916,23.9197 290.843,33.8795 z" id="boundary" inkscape:connector-curvature="0" />
	<path style="fill:none;stroke:red;stroke-width:1px;stroke-linecap:butt;stroke-linejoin:miter;stroke-opacity:1" d="M 137.462,619.518 125.51,603.582 z" id="boundary" inkscape:connector-curvature="0" />
	<path style="fill:none;stroke:red;stroke-width:1px;stroke-linecap:butt;stroke-linejoin:miter;stroke-opacity:1" d="M 322.715,59.7751 338.651,73.7189 z" id="boundary" inkscape:connector-curvature="0" />
	<path style="fill:none;stroke:red;stroke-width:1px;stroke-linecap:butt;stroke-linejoin:miter;stroke-opacity:1" d="M 145.43,639.438 137.462,619.518 z" id="boundary" inkscape:connector-curvature="0" />
	<path style="fill:none;stroke:red;stroke-width:1px;stroke-linecap:butt;stroke-linejoin:miter;stroke-opacity:1" d="M 308.771,43.8394 322.715,59.7751 z" id="boundary" inkscape:connector-curvature="0" />
	<path style="fill:none;stroke:red;stroke-width:1px;stroke-linecap:butt;stroke-linejoin:miter;stroke-opacity:1" d="M 308.771,43.8394 290.843,33.8795 z" id="boundary" inkscape:connector-curvature="0" />
	<path style="fill:none;stroke:red;stroke-width:1px;stroke-linecap:butt;stroke-linejoin:miter;stroke-opacity:1" d="M 161.365,653.382 145.43,639.438 z" id="boundary" inkscape:connector-curvature="0" />
	<path style="fill:none;stroke:red;stroke-width:1px;stroke-linecap:butt;stroke-linejoin:miter;stroke-opacity:1" d="M 338.651,73.7189 354.586,85.6707 z" id="boundary" inkscape:connector-curvature="0" />
	<path style="fill:none;stroke:red;stroke-width:1px;stroke-linecap:butt;stroke-linejoin:miter;stroke-opacity:1" d="M 354.586,85.6707 364.546,103.598 z" id="boundary" inkscape:connector-curvature="0" />
	<path style="fill:none;stroke:red;stroke-width:1px;stroke-linecap:butt;stroke-linejoin:miter;stroke-opacity:1" d="M 175.309,669.317 161.365,653.382 z" id="boundary" inkscape:connector-curvature="0" />
	<path style="fill:none;stroke:red;stroke-width:1px;stroke-linecap:butt;stroke-linejoin:miter;stroke-opacity:1" d="M 191.245,683.261 175.309,669.317 z" id="boundary" inkscape:connector-curvature="0" />
	<path style="fill:none;stroke:red;stroke-width:1px;stroke-linecap:butt;stroke-linejoin:miter;stroke-opacity:1" d="M 203.197,699.197 213.157,717.124 z" id="boundary" inkscape:connector-curvature="0" />
	<path style="fill:none;stroke:red;stroke-width:1px;stroke-linecap:butt;stroke-linejoin:miter;stroke-opacity:1" d="M 203.197,699.197 191.245,683.261 z" id="boundary" inkscape:connector-curvature="0" />
	<path style="fill:none;stroke:red;stroke-width:1px;stroke-linecap:butt;stroke-linejoin:miter;stroke-opacity:1" d="M 410.361,167.341 402.394,147.422 z" id="boundary" inkscape:connector-curvature="0" />
	<path style="fill:none;stroke:red;stroke-width:1px;stroke-linecap:butt;stroke-linejoin:miter;stroke-opacity:1" d="M 233.076,723.1 213.157,717.124 z" id="boundary" inkscape:connector-curvature="0" />
	<path style="fill:none;stroke:red;stroke-width:1px;stroke-linecap:butt;stroke-linejoin:miter;stroke-opacity:1" d="M 392.434,129.494 402.394,147.422 z" id="boundary" inkscape:connector-curvature="0" />
	<path style="fill:none;stroke:red;stroke-width:1px;stroke-linecap:butt;stroke-linejoin:miter;stroke-opacity:1" d="M 239.052,743.02 233.076,723.1 z" id="boundary" inkscape:connector-curvature="0" />
	<path style="fill:none;stroke:red;stroke-width:1px;stroke-linecap:butt;stroke-linejoin:miter;stroke-opacity:1" d="M 653.382,37.8635 639.438,53.7992 z" id="boundary" inkscape:connector-curvature="0" />
	<path style="fill:none;stroke:red;stroke-width:1px;stroke-linecap:butt;stroke-linejoin:miter;stroke-opacity:1" d="M 639.438,53.7992 623.502,67.743 z" id="boundary" inkscape:connector-curvature="0" />
	<path style="fill:none;stroke:red;stroke-width:1px;stroke-linecap:butt;stroke-linejoin:miter;stroke-opacity:1" d="M 4,258.972 4,278.892 z" id="boundary" inkscape:connector-curvature="0" />
	<path style="fill:none;stroke:red;stroke-width:1px;stroke-linecap:butt;stroke-linejoin:miter;stroke-opacity:1" d="M 591.631,99.6145 577.687,123.518 z" id="boundary" inkscape:connector-curvature="0" />
	<path style="fill:none;stroke:red;stroke-width:1px;stroke-linecap:butt;stroke-linejoin:miter;stroke-opacity:1" d="M 577.687,123.518 561.751,139.454 z" id="boundary" inkscape:connector-curvature="0" />
	<path style="fill:none;stroke:red;stroke-width:1px;stroke-linecap:butt;stroke-linejoin:miter;stroke-opacity:1" d="M 256.98,752.98 239.052,743.02 z" id="boundary" inkscape:connector-curvature="0" />
	<path style="fill:none;stroke:red;stroke-width:1px;stroke-linecap:butt;stroke-linejoin:miter;stroke-opacity:1" d="M 410.361,167.341 420.321,185.269 z" id="boundary" inkscape:connector-curvature="0" />
	<path style="fill:none;stroke:red;stroke-width:1px;stroke-linecap:butt;stroke-linejoin:miter;stroke-opacity:1" d="M 420.321,185.269 428.289,205.189 z" id="boundary" inkscape:connector-curvature="0" />
	<path style="fill:none;stroke:red;stroke-width:1px;stroke-linecap:butt;stroke-linejoin:miter;stroke-opacity:1" d="M 272.916,764.932 282.876,782.859 z" id="boundary" inkscape:connector-curvature="0" />
	<path style="fill:none;stroke:red;stroke-width:1px;stroke-linecap:butt;stroke-linejoin:miter;stroke-opacity:1" d="M 272.916,764.932 256.98,752.98 z" id="boundary" inkscape:connector-curvature="0" />
	<path style="fill:none;stroke:red;stroke-width:1px;stroke-linecap:butt;stroke-linejoin:miter;stroke-opacity:1" d="M 428.289,205.189 434.265,225.108 z" id="boundary" inkscape:connector-curvature="0" />
	<path style="fill:none;stroke:red;stroke-width:1px;stroke-linecap:butt;stroke-linejoin:miter;stroke-opacity:1" d="M 384.466,109.574 392.434,129.494 z" id="boundary" inkscape:connector-curvature="0" />
	<path style="fill:none;stroke:red;stroke-width:1px;stroke-linecap:butt;stroke-linejoin:miter;stroke-opacity:1" d="M 384.466,109.574 364.546,103.598 z" id="boundary" inkscape:connector-curvature="0" />
	<path style="fill:none;stroke:red;stroke-width:1px;stroke-linecap:butt;stroke-linejoin:miter;stroke-opacity:1" d="M 294.827,798.795 282.876,782.859 z" id="boundary" inkscape:connector-curvature="0" />
	<path style="fill:none;stroke:red;stroke-width:1px;stroke-linecap:butt;stroke-linejoin:miter;stroke-opacity:1" d="M 438.249,245.028 434.265,225.108 z" id="boundary" inkscape:connector-curvature="0" />
	<path style="fill:none;stroke:red;stroke-width:1px;stroke-linecap:butt;stroke-linejoin:miter;stroke-opacity:1" d="M 312.755,808.755 294.827,798.795 z" id="boundary" inkscape:connector-curvature="0" />
	<path style="fill:none;stroke:red;stroke-width:1px;stroke-linecap:butt;stroke-linejoin:miter;stroke-opacity:1" d="M 322.715,826.683 312.755,808.755 z" id="boundary" inkscape:connector-curvature="0" />
	<path style="fill:none;stroke:red;stroke-width:1px;stroke-linecap:butt;stroke-linejoin:miter;stroke-opacity:1" d="M 531.871,199.213 527.888,233.076 z" id="boundary" inkscape:connector-curvature="0" />
	<path style="fill:none;stroke:red;stroke-width:1px;stroke-linecap:butt;stroke-linejoin:miter;stroke-opacity:1" d="M 4,318.731 4,298.811 z" id="boundary" inkscape:connector-curvature="0" />
	<path style="fill:none;stroke:red;stroke-width:1px;stroke-linecap:butt;stroke-linejoin:miter;stroke-opacity:1" d="M 342.635,832.659 322.715,826.683 z" id="boundary" inkscape:connector-curvature="0" />
	<path style="fill:none;stroke:red;stroke-width:1px;stroke-linecap:butt;stroke-linejoin:miter;stroke-opacity:1" d="M 4,318.731 4,338.651 z" id="boundary" inkscape:connector-curvature="0" />
	<path style="fill:none;stroke:red;stroke-width:1px;stroke-linecap:butt;stroke-linejoin:miter;stroke-opacity:1" d="M 348.61,852.578 342.635,832.659 z" id="boundary" inkscape:connector-curvature="0" />
	<path style="fill:none;stroke:red;stroke-width:1px;stroke-linecap:butt;stroke-linejoin:miter;stroke-opacity:1" d="M 364.546,866.522 348.61,852.578 z" id="boundary" inkscape:connector-curvature="0" />
	<path style="fill:none;stroke:red;stroke-width:1px;stroke-linecap:butt;stroke-linejoin:miter;stroke-opacity:1" d="M 378.49,882.458 364.546,866.522 z" id="boundary" inkscape:connector-curvature="0" />
	<path style="fill:none;stroke:red;stroke-width:1px;stroke-linecap:butt;stroke-linejoin:miter;stroke-opacity:1" d="M 454.185,282.876 448.209,262.956 z" id="boundary" inkscape:connector-curvature="0" />
	<path style="fill:none;stroke:red;stroke-width:1px;stroke-linecap:butt;stroke-linejoin:miter;stroke-opacity:1" d="M 448.209,262.956 438.249,245.028 z" id="boundary" inkscape:connector-curvature="0" />
	<path style="fill:none;stroke:red;stroke-width:1px;stroke-linecap:butt;stroke-linejoin:miter;stroke-opacity:1" d="M 394.426,896.402 402.394,916.321 z" id="boundary" inkscape:connector-curvature="0" />
	<path style="fill:none;stroke:red;stroke-width:1px;stroke-linecap:butt;stroke-linejoin:miter;stroke-opacity:1" d="M 394.426,896.402 378.49,882.458 z" id="boundary" inkscape:connector-curvature="0" />
	<path style="fill:none;stroke:red;stroke-width:1px;stroke-linecap:butt;stroke-linejoin:miter;stroke-opacity:1" d="M 507.968,272.916 498.008,292.835 z" id="boundary" inkscape:connector-curvature="0" />
	<path style="fill:none;stroke:red;stroke-width:1px;stroke-linecap:butt;stroke-linejoin:miter;stroke-opacity:1" d="M 464.145,320.723 464.145,300.803 z" id="boundary" inkscape:connector-curvature="0" />
	<path style="fill:none;stroke:red;stroke-width:1px;stroke-linecap:butt;stroke-linejoin:miter;stroke-opacity:1" d="M 464.145,300.803 454.185,282.876 z" id="boundary" inkscape:connector-curvature="0" />
	<path style="fill:none;stroke:red;stroke-width:1px;stroke-linecap:butt;stroke-linejoin:miter;stroke-opacity:1" d="M 418.329,930.265 402.394,916.321 z" id="boundary" inkscape:connector-curvature="0" />
	<path style="fill:none;stroke:red;stroke-width:1px;stroke-linecap:butt;stroke-linejoin:miter;stroke-opacity:1" d="M 432.273,946.201 418.329,930.265 z" id="boundary" inkscape:connector-curvature="0" />
	<path style="fill:none;stroke:red;stroke-width:1px;stroke-linecap:butt;stroke-linejoin:miter;stroke-opacity:1" d="M 488.048,312.755 480.08,332.675 z" id="boundary" inkscape:connector-curvature="0" />
	<path style="fill:none;stroke:red;stroke-width:1px;stroke-linecap:butt;stroke-linejoin:miter;stroke-opacity:1" d="M 480.08,332.675 464.145,320.723 z" id="boundary" inkscape:connector-curvature="0" />
	<path style="fill:none;stroke:red;stroke-width:1px;stroke-linecap:butt;stroke-linejoin:miter;stroke-opacity:1" d="M 448.209,960.145 432.273,946.201 z" id="boundary" inkscape:connector-curvature="0" />
	<path style="fill:none;stroke:red;stroke-width:1px;stroke-linecap:butt;stroke-linejoin:miter;stroke-opacity:1" d="M 462.153,976.08 472.112,994.008 z" id="boundary" inkscape:connector-curvature="0" />
	<path style="fill:none;stroke:red;stroke-width:1px;stroke-linecap:butt;stroke-linejoin:miter;stroke-opacity:1" d="M 462.153,976.08 448.209,960.145 z" id="boundary" inkscape:connector-curvature="0" />
	<path style="fill:none;stroke:red;stroke-width:1px;stroke-linecap:butt;stroke-linejoin:miter;stroke-opacity:1" d="M 488.048,312.755 498.008,292.835 z" id="boundary" inkscape:connector-curvature="0" />
	<path style="fill:none;stroke:red;stroke-width:1px;stroke-linecap:butt;stroke-linejoin:miter;stroke-opacity:1" d="M 492.032,996 472.112,994.008 z" id="boundary" inkscape:connector-curvature="0" />
	<path style="fill:none;stroke:red;stroke-width:1px;stroke-linecap:butt;stroke-linejoin:miter;stroke-opacity:1" d="M 507.968,980.064 492.032,996 z" id="boundary" inkscape:connector-curvature="0" />
	<path style="fill:none;stroke:red;stroke-width:1px;stroke-linecap:butt;stroke-linejoin:miter;stroke-opacity:1" d="M 517.928,252.996 527.888,233.076 z" id="boundary" inkscape:connector-curvature="0" />
	<path style="fill:none;stroke:red;stroke-width:1px;stroke-linecap:butt;stroke-linejoin:miter;stroke-opacity:1" d="M 507.968,272.916 517.928,252.996 z" id="boundary" inkscape:connector-curvature="0" />
	<path style="fill:none;stroke:red;stroke-width:1px;stroke-linecap:butt;stroke-linejoin:miter;stroke-opacity:1" d="M 523.904,962.137 507.968,980.064 z" id="boundary" inkscape:connector-curvature="0" />
	<path style="fill:none;stroke:red;stroke-width:1px;stroke-linecap:butt;stroke-linejoin:miter;stroke-opacity:1" d="M 539.839,948.193 559.759,938.233 z" id="boundary" inkscape:connector-curvature="0" />
	<path style="fill:none;stroke:red;stroke-width:1px;stroke-linecap:butt;stroke-linejoin:miter;stroke-opacity:1" d="M 539.839,948.193 523.904,962.137 z" id="boundary" inkscape:connector-curvature="0" />
	<path style="fill:none;stroke:red;stroke-width:1px;stroke-linecap:butt;stroke-linejoin:miter;stroke-opacity:1" d="M 531.871,199.213 541.831,179.293 z" id="boundary" inkscape:connector-curvature="0" />
	<path style="fill:none;stroke:red;stroke-width:1px;stroke-linecap:butt;stroke-linejoin:miter;stroke-opacity:1" d="M 551.791,159.373 541.831,179.293 z" id="boundary" inkscape:connector-curvature="0" />
	<path style="fill:none;stroke:red;stroke-width:1px;stroke-linecap:butt;stroke-linejoin:miter;stroke-opacity:1" d="M 551.791,159.373 561.751,139.454 z" id="boundary" inkscape:connector-curvature="0" />
	<path style="fill:none;stroke:red;stroke-width:1px;stroke-linecap:butt;stroke-linejoin:miter;stroke-opacity:1" d="M 591.631,912.337 607.566,900.386 z" id="boundary" inkscape:connector-curvature="0" />
	<path style="fill:none;stroke:red;stroke-width:1px;stroke-linecap:butt;stroke-linejoin:miter;stroke-opacity:1" d="M 573.703,922.297 559.759,938.233 z" id="boundary" inkscape:connector-curvature="0" />
	<path style="fill:none;stroke:red;stroke-width:1px;stroke-linecap:butt;stroke-linejoin:miter;stroke-opacity:1" d="M 591.631,99.6145 607.566,83.6787 z" id="boundary" inkscape:connector-curvature="0" />
	<path style="fill:none;stroke:red;stroke-width:1px;stroke-linecap:butt;stroke-linejoin:miter;stroke-opacity:1" d="M 591.631,912.337 573.703,922.297 z" id="boundary" inkscape:connector-curvature="0" />
	<path style="fill:none;stroke:red;stroke-width:1px;stroke-linecap:butt;stroke-linejoin:miter;stroke-opacity:1" d="M 752.98,29.8956 733.06,23.9197 z" id="boundary" inkscape:connector-curvature="0" />
	<path style="fill:none;stroke:red;stroke-width:1px;stroke-linecap:butt;stroke-linejoin:miter;stroke-opacity:1" d="M 733.06,23.9197 713.141,23.9197 z" id="boundary" inkscape:connector-curvature="0" />
	<path style="fill:none;stroke:red;stroke-width:1px;stroke-linecap:butt;stroke-linejoin:miter;stroke-opacity:1" d="M 693.221,23.9197 713.141,23.9197 z" id="boundary" inkscape:connector-curvature="0" />
	<path style="fill:none;stroke:red;stroke-width:1px;stroke-linecap:butt;stroke-linejoin:miter;stroke-opacity:1" d="M 617.526,882.458 607.566,900.386 z" id="boundary" inkscape:connector-curvature="0" />
	<path style="fill:none;stroke:red;stroke-width:1px;stroke-linecap:butt;stroke-linejoin:miter;stroke-opacity:1" d="M 693.221,23.9197 673.301,27.9036 z" id="boundary" inkscape:connector-curvature="0" />
	<path style="fill:none;stroke:red;stroke-width:1px;stroke-linecap:butt;stroke-linejoin:miter;stroke-opacity:1" d="M 635.454,872.498 617.526,882.458 z" id="boundary" inkscape:connector-curvature="0" />
	<path style="fill:none;stroke:red;stroke-width:1px;stroke-linecap:butt;stroke-linejoin:miter;stroke-opacity:1" d="M 607.566,83.6787 623.502,67.743 z" id="boundary" inkscape:connector-curvature="0" />
	<path style="fill:none;stroke:red;stroke-width:1px;stroke-linecap:butt;stroke-linejoin:miter;stroke-opacity:1" d="M 770.908,39.8554 752.98,29.8956 z" id="boundary" inkscape:connector-curvature="0" />
	<path style="fill:none;stroke:red;stroke-width:1px;stroke-linecap:butt;stroke-linejoin:miter;stroke-opacity:1" d="M 653.382,862.538 635.454,872.498 z" id="boundary" inkscape:connector-curvature="0" />
	<path style="fill:none;stroke:red;stroke-width:1px;stroke-linecap:butt;stroke-linejoin:miter;stroke-opacity:1" d="M 653.382,37.8635 673.301,27.9036 z" id="boundary" inkscape:connector-curvature="0" />
	<path style="fill:none;stroke:red;stroke-width:1px;stroke-linecap:butt;stroke-linejoin:miter;stroke-opacity:1" d="M 669.317,848.594 653.382,862.538 z" id="boundary" inkscape:connector-curvature="0" />
	<path style="fill:none;stroke:red;stroke-width:1px;stroke-linecap:butt;stroke-linejoin:miter;stroke-opacity:1" d="M 689.237,838.635 669.317,848.594 z" id="boundary" inkscape:connector-curvature="0" />
	<path style="fill:none;stroke:red;stroke-width:1px;stroke-linecap:butt;stroke-linejoin:miter;stroke-opacity:1" d="M 703.181,812.739 689.237,838.635 z" id="boundary" inkscape:connector-curvature="0" />
	<path style="fill:none;stroke:red;stroke-width:1px;stroke-linecap:butt;stroke-linejoin:miter;stroke-opacity:1" d="M 723.1,802.779 703.181,812.739 z" id="boundary" inkscape:connector-curvature="0" />
	<path style="fill:none;stroke:red;stroke-width:1px;stroke-linecap:butt;stroke-linejoin:miter;stroke-opacity:1" d="M 790.827,47.8233 770.908,39.8554 z" id="boundary" inkscape:connector-curvature="0" />
	<path style="fill:none;stroke:red;stroke-width:1px;stroke-linecap:butt;stroke-linejoin:miter;stroke-opacity:1" d="M 739.036,788.835 723.1,802.779 z" id="boundary" inkscape:connector-curvature="0" />
	<path style="fill:none;stroke:red;stroke-width:1px;stroke-linecap:butt;stroke-linejoin:miter;stroke-opacity:1" d="M 808.755,57.7831 790.827,47.8233 z" id="boundary" inkscape:connector-curvature="0" />
	<path style="fill:none;stroke:red;stroke-width:1px;stroke-linecap:butt;stroke-linejoin:miter;stroke-opacity:1" d="M 752.98,772.9 739.036,788.835 z" id="boundary" inkscape:connector-curvature="0" />
	<path style="fill:none;stroke:red;stroke-width:1px;stroke-linecap:butt;stroke-linejoin:miter;stroke-opacity:1" d="M 768.916,758.956 752.98,772.9 z" id="boundary" inkscape:connector-curvature="0" />
	<path style="fill:none;stroke:red;stroke-width:1px;stroke-linecap:butt;stroke-linejoin:miter;stroke-opacity:1" d="M 782.859,743.02 768.916,758.956 z" id="boundary" inkscape:connector-curvature="0" />
	<path style="fill:none;stroke:red;stroke-width:1px;stroke-linecap:butt;stroke-linejoin:miter;stroke-opacity:1" d="M 842.618,81.6867 828.675,65.751 z" id="boundary" inkscape:connector-curvature="0" />
	<path style="fill:none;stroke:red;stroke-width:1px;stroke-linecap:butt;stroke-linejoin:miter;stroke-opacity:1" d="M 828.675,65.751 808.755,57.7831 z" id="boundary" inkscape:connector-curvature="0" />
	<path style="fill:none;stroke:red;stroke-width:1px;stroke-linecap:butt;stroke-linejoin:miter;stroke-opacity:1" d="M 798.795,729.076 782.859,743.02 z" id="boundary" inkscape:connector-curvature="0" />
	<path style="fill:none;stroke:red;stroke-width:1px;stroke-linecap:butt;stroke-linejoin:miter;stroke-opacity:1" d="M 858.554,95.6305 842.618,81.6867 z" id="boundary" inkscape:connector-curvature="0" />
	<path style="fill:none;stroke:red;stroke-width:1px;stroke-linecap:butt;stroke-linejoin:miter;stroke-opacity:1" d="M 812.739,703.181 798.795,729.076 z" id="boundary" inkscape:connector-curvature="0" />
	<path style="fill:none;stroke:red;stroke-width:1px;stroke-linecap:butt;stroke-linejoin:miter;stroke-opacity:1" d="M 872.498,111.566 882.458,129.494 z" id="boundary" inkscape:connector-curvature="0" />
	<path style="fill:none;stroke:red;stroke-width:1px;stroke-linecap:butt;stroke-linejoin:miter;stroke-opacity:1" d="M 872.498,111.566 858.554,95.6305 z" id="boundary" inkscape:connector-curvature="0" />
	<path style="fill:none;stroke:red;stroke-width:1px;stroke-linecap:butt;stroke-linejoin:miter;stroke-opacity:1" d="M 828.675,689.237 812.739,703.181 z" id="boundary" inkscape:connector-curvature="0" />
	<path style="fill:none;stroke:red;stroke-width:1px;stroke-linecap:butt;stroke-linejoin:miter;stroke-opacity:1" d="M 842.618,673.301 828.675,689.237 z" id="boundary" inkscape:connector-curvature="0" />
	<path style="fill:none;stroke:red;stroke-width:1px;stroke-linecap:butt;stroke-linejoin:miter;stroke-opacity:1" d="M 852.578,653.382 842.618,673.301 z" id="boundary" inkscape:connector-curvature="0" />
	<path style="fill:none;stroke:red;stroke-width:1px;stroke-linecap:butt;stroke-linejoin:miter;stroke-opacity:1" d="M 862.538,633.462 852.578,653.382 z" id="boundary" inkscape:connector-curvature="0" />
	<path style="fill:none;stroke:red;stroke-width:1px;stroke-linecap:butt;stroke-linejoin:miter;stroke-opacity:1" d="M 912.337,159.373 920.305,179.293 z" id="boundary" inkscape:connector-curvature="0" />
	<path style="fill:none;stroke:red;stroke-width:1px;stroke-linecap:butt;stroke-linejoin:miter;stroke-opacity:1" d="M 912.337,159.373 898.394,143.438 z" id="boundary" inkscape:connector-curvature="0" />
	<path style="fill:none;stroke:red;stroke-width:1px;stroke-linecap:butt;stroke-linejoin:miter;stroke-opacity:1" d="M 872.498,613.542 862.538,633.462 z" id="boundary" inkscape:connector-curvature="0" />
	<path style="fill:none;stroke:red;stroke-width:1px;stroke-linecap:butt;stroke-linejoin:miter;stroke-opacity:1" d="M 932.257,239.052 930.265,219.133 z" id="boundary" inkscape:connector-curvature="0" />
	<path style="fill:none;stroke:red;stroke-width:1px;stroke-linecap:butt;stroke-linejoin:miter;stroke-opacity:1" d="M 930.265,219.133 922.297,199.213 z" id="boundary" inkscape:connector-curvature="0" />
	<path style="fill:none;stroke:red;stroke-width:1px;stroke-linecap:butt;stroke-linejoin:miter;stroke-opacity:1" d="M 882.458,593.622 872.498,613.542 z" id="boundary" inkscape:connector-curvature="0" />
	<path style="fill:none;stroke:red;stroke-width:1px;stroke-linecap:butt;stroke-linejoin:miter;stroke-opacity:1" d="M 892.418,573.703 882.458,593.622 z" id="boundary" inkscape:connector-curvature="0" />
	<path style="fill:none;stroke:red;stroke-width:1px;stroke-linecap:butt;stroke-linejoin:miter;stroke-opacity:1" d="M 922.297,199.213 920.305,179.293 z" id="boundary" inkscape:connector-curvature="0" />
	<path style="fill:none;stroke:red;stroke-width:1px;stroke-linecap:butt;stroke-linejoin:miter;stroke-opacity:1" d="M 882.458,129.494 898.394,143.438 z" id="boundary" inkscape:connector-curvature="0" />
	<path style="fill:none;stroke:red;stroke-width:1px;stroke-linecap:butt;stroke-linejoin:miter;stroke-opacity:1" d="M 902.378,553.783 892.418,573.703 z" id="boundary" inkscape:connector-curvature="0" />
	<path style="fill:none;stroke:red;stroke-width:1px;stroke-linecap:butt;stroke-linejoin:miter;stroke-opacity:1" d="M 912.337,533.863 902.378,553.783 z" id="boundary" inkscape:connector-curvature="0" />
	<path style="fill:none;stroke:red;stroke-width:1px;stroke-linecap:butt;stroke-linejoin:miter;stroke-opacity:1" d="M 942.217,278.892 940.225,258.972 z" id="boundary" inkscape:connector-curvature="0" />
	<path style="fill:none;stroke:red;stroke-width:1px;stroke-linecap:butt;stroke-linejoin:miter;stroke-opacity:1" d="M 940.225,258.972 932.257,239.052 z" id="boundary" inkscape:connector-curvature="0" />
	<path style="fill:none;stroke:red;stroke-width:1px;stroke-linecap:butt;stroke-linejoin:miter;stroke-opacity:1" d="M 922.297,513.944 912.337,533.863 z" id="boundary" inkscape:connector-curvature="0" />
	<path style="fill:none;stroke:red;stroke-width:1px;stroke-linecap:butt;stroke-linejoin:miter;stroke-opacity:1" d="M 922.297,513.944 922.297,494.024 z" id="boundary" inkscape:connector-curvature="0" />
	<path style="fill:none;stroke:red;stroke-width:1px;stroke-linecap:butt;stroke-linejoin:miter;stroke-opacity:1" d="M 942.217,278.892 942.217,298.811 z" id="boundary" inkscape:connector-curvature="0" />
	<path style="fill:none;stroke:red;stroke-width:1px;stroke-linecap:butt;stroke-linejoin:miter;stroke-opacity:1" d="M 932.257,454.185 932.257,474.104 z" id="boundary" inkscape:connector-curvature="0" />
	<path style="fill:none;stroke:red;stroke-width:1px;stroke-linecap:butt;stroke-linejoin:miter;stroke-opacity:1" d="M 932.257,474.104 922.297,494.024 z" id="boundary" inkscape:connector-curvature="0" />
	<path style="fill:none;stroke:red;stroke-width:1px;stroke-linecap:butt;stroke-linejoin:miter;stroke-opacity:1" d="M 942.217,318.731 942.217,298.811 z" id="boundary" inkscape:connector-curvature="0" />
	<path style="fill:none;stroke:red;stroke-width:1px;stroke-linecap:butt;stroke-linejoin:miter;stroke-opacity:1" d="M 942.217,338.651 942.217,318.731 z" id="boundary" inkscape:connector-curvature="0" />
	<path style="fill:none;stroke:red;stroke-width:1px;stroke-linecap:butt;stroke-linejoin:miter;stroke-opacity:1" d="M 942.217,358.57 942.217,338.651 z" id="boundary" inkscape:connector-curvature="0" />
	<path style="fill:none;stroke:red;stroke-width:1px;stroke-linecap:butt;stroke-linejoin:miter;stroke-opacity:1" d="M 942.217,358.57 942.217,378.49 z" id="boundary" inkscape:connector-curvature="0" />
	<path style="fill:none;stroke:red;stroke-width:1px;stroke-linecap:butt;stroke-linejoin:miter;stroke-opacity:1" d="M 942.217,378.49 942.217,398.41 z" id="boundary" inkscape:connector-curvature="0" />
	<path style="fill:none;stroke:red;stroke-width:1px;stroke-linecap:butt;stroke-linejoin:miter;stroke-opacity:1" d="M 942.217,398.41 942.217,418.329 z" id="boundary" inkscape:connector-curvature="0" />
	<path style="fill:none;stroke:red;stroke-width:1px;stroke-linecap:butt;stroke-linejoin:miter;stroke-opacity:1" d="M 942.217,418.329 932.257,454.185 z" id="boundary" inkscape:connector-curvature="0" />
	<circle cx="4" cy="219.133" r="4" fill="#0" id="circle0"/>
	<circle cx="4" cy="239.052" r="4" fill="#0" id="circle1"/>
	<circle cx="4" cy="258.972" r="4" fill="#0" id="circle2"/>
	<circle cx="4" cy="278.892" r="4" fill="#0" id="circle3"/>
	<circle cx="4" cy="298.811" r="4" fill="#0" id="circle4"/>
	<circle cx="4" cy="318.731" r="4" fill="#0" id="circle5"/>
	<circle cx="4" cy="338.651" r="4" fill="#0" id="circle6"/>
	<circle cx="4" cy="358.57" r="4" fill="#0" id="circle7"/>
	<circle cx="4" cy="378.49" r="4" fill="#0" id="circle8"/>
	<circle cx="13.9598" cy="179.293" r="4" fill="#0" id="circle9"/>
	<circle cx="13.9598" cy="199.213" r="4" fill="#0" id="circle10"/>
	<circle cx="13.9598" cy="396.418" r="4" fill="#0" id="circle11"/>
	<circle cx="13.9598" cy="416.337" r="4" fill="#0" id="circle12"/>
	<circle cx="23.9197" cy="139.454" r="4" fill="#0" id="circle13"/>
	<circle cx="23.9197" cy="159.373" r="4" fill="#0" id="circle14"/>
	<circle cx="23.9197" cy="434.265" r="4" fill="#0" id="circle15"/>
	<circle cx="23.9197" cy="454.185" r="4" fill="#0" id="circle16"/>
	<circle cx="33.8795" cy="119.534" r="4" fill="#0" id="circle17"/>
	<circle cx="33.8795" cy="472.112" r="4" fill="#0" id="circle18"/>
	<circle cx="43.8394" cy="99.6145" r="4" fill="#0" id="circle19"/>
	<circle cx="43.8394" cy="490.04" r="4" fill="#0" id="circle20"/>
	<circle cx="53.7992" cy="79.6948" r="4" fill="#0" id="circle21"/>
	<circle cx="53.7992" cy="507.968" r="4" fill="#0" id="circle22"/>
	<circle cx="63.759" cy="59.7751" r="4" fill="#0" id="circle23"/>
	<circle cx="63.759" cy="525.896" r="4" fill="#0" id="circle24"/>
	<circle cx="73.7189" cy="543.823" r="4" fill="#0" id="circle25"/>
	<circle cx="79.6948" cy="43.8394" r="4" fill="#0" id="circle26"/>
	<circle cx="91.6466" cy="553.783" r="4" fill="#0" id="circle27"/>
	<circle cx="95.6305" cy="27.9036" r="4" fill="#0" id="circle28"/>
	<circle cx="99.6145" cy="573.703" r="4" fill="#0" id="circle29"/>
	<circle cx="109.574" cy="591.631" r="4" fill="#0" id="circle30"/>
	<circle cx="115.55" cy="17.9438" r="4" fill="#0" id="circle31"/>
	<circle cx="125.51" cy="603.582" r="4" fill="#0" id="circle32"/>
	<circle cx="135.47" cy="7.98394" r="4" fill="#0" id="circle33"/>
	<circle cx="137.462" cy="619.518" r="4" fill="#0" id="circle34"/>
	<circle cx="145.43" cy="639.438" r="4" fill="#0" id="circle35"/>
	<circle cx="155.39" cy="4" r="4" fill="#0" id="circle36"/>
	<circle cx="161.365" cy="653.382" r="4" fill="#0" id="circle37"/>
	<circle cx="175.309" cy="4" r="4" fill="#0" id="circle38"/>
	<circle cx="175.309" cy="669.317" r="4" fill="#0" id="circle39"/>
	<circle cx="191.245" cy="683.261" r="4" fill="#0" id="circle40"/>
	<circle cx="195.229" cy="4" r="4" fill="#0" id="circle41"/>
	<circle cx="203.197" cy="699.197" r="4" fill="#0" id="circle42"/>
	<circle cx="213.157" cy="717.124" r="4" fill="#0" id="circle43"/>
	<circle cx="215.149" cy="4" r="4" fill="#0" id="circle44"/>
	<circle cx="233.076" cy="723.1" r="4" fill="#0" id="circle45"/>
	<circle cx="235.068" cy="9.9759" r="4" fill="#0" id="circle46"/>
	<circle cx="239.052" cy="743.02" r="4" fill="#0" id="circle47"/>
	<circle cx="252.996" cy="19.9357" r="4" fill="#0" id="circle48"/>
	<circle cx="256.98" cy="752.98" r="4" fill="#0" id="circle49"/>
	<circle cx="272.916" cy="23.9197" r="4" fill="#0" id="circle50"/>
	<circle cx="272.916" cy="764.932" r="4" fill="#0" id="circle51"/>
	<circle cx="282.876" cy="782.859" r="4" fill="#0" id="circle52"/>
	<circle cx="290.843" cy="33.8795" r="4" fill="#0" id="circle53"/>
	<circle cx="294.827" cy="798.795" r="4" fill="#0" id="circle54"/>
	<circle cx="308.771" cy="43.8394" r="4" fill="#0" id="circle55"/>
	<circle cx="312.755" cy="808.755" r="4" fill="#0" id="circle56"/>
	<circle cx="322.715" cy="59.7751" r="4" fill="#0" id="circle57"/>
	<circle cx="322.715" cy="826.683" r="4" fill="#0" id="circle58"/>
	<circle cx="338.651" cy="73.7189" r="4" fill="#0" id="circle59"/>
	<circle cx="342.635" cy="832.659" r="4" fill="#0" id="circle60"/>
	<circle cx="348.61" cy="852.578" r="4" fill="#0" id="circle61"/>
	<circle cx="354.586" cy="85.6707" r="4" fill="#0" id="circle62"/>
	<circle cx="364.546" cy="103.598" r="4" fill="#0" id="circle63"/>
	<circle cx="364.546" cy="866.522" r="4" fill="#0" id="circle64"/>
	<circle cx="378.49" cy="882.458" r="4" fill="#0" id="circle65"/>
	<circle cx="384.466" cy="109.574" r="4" fill="#0" id="circle66"/>
	<circle cx="392.434" cy="129.494" r="4" fill="#0" id="circle67"/>
	<circle cx="394.426" cy="896.402" r="4" fill="#0" id="circle68"/>
	<circle cx="402.394" cy="147.422" r="4" fill="#0" id="circle69"/>
	<circle cx="402.394" cy="916.321" r="4" fill="#0" id="circle70"/>
	<circle cx="410.361" cy="167.341" r="4" fill="#0" id="circle71"/>
	<circle cx="418.329" cy="930.265" r="4" fill="#0" id="circle72"/>
	<circle cx="420.321" cy="185.269" r="4" fill="#0" id="circle73"/>
	<circle cx="428.289" cy="205.189" r="4" fill="#0" id="circle74"/>
	<circle cx="432.273" cy="946.201" r="4" fill="#0" id="circle75"/>
	<circle cx="434.265" cy="225.108" r="4" fill="#0" id="circle76"/>
	<circle cx="438.249" cy="245.028" r="4" fill="#0" id="circle77"/>
	<circle cx="448.209" cy="262.956" r="4" fill="#0" id="circle78"/>
	<circle cx="448.209" cy="960.145" r="4" fill="#0" id="circle79"/>
	<circle cx="454.185" cy="282.876" r="4" fill="#0" id="circle80"/>
	<circle cx="462.153" cy="976.08" r="4" fill="#0" id="circle81"/>
	<circle cx="464.145" cy="300.803" r="4" fill="#0" id="circle82"/>
	<circle cx="464.145" cy="320.723" r="4" fill="#0" id="circle83"/>
	<circle cx="472.112" cy="994.008" r="4" fill="#0" id="circle84"/>
	<circle cx="480.08" cy="332.675" r="4" fill="#0" id="circle85"/>
	<circle cx="488.048" cy="312.755" r="4" fill="#0" id="circle86"/>
	<circle cx="492.032" cy="996" r="4" fill="#0" id="circle87"/>
	<circle cx="498.008" cy="292.835" r="4" fill="#0" id="circle88"/>
	<circle cx="507.968" cy="272.916" r="4" fill="#0" id="circle89"/>
	<circle cx="507.968" cy="980.064" r="4" fill="#0" id="circle90"/>
	<circle cx="517.928" cy="252.996" r="4" fill="#0" id="circle91"/>
	<circle cx="523.904" cy="962.137" r="4" fill="#0" id="circle92"/>
	<circle cx="527.888" cy="233.076" r="4" fill="#0" id="circle93"/>
	<circle cx="531.871" cy="199.213" r="4" fill="#0" id="circle94"/>
	<circle cx="539.839" cy="948.193" r="4" fill="#0" id="circle95"/>
	<circle cx="541.831" cy="179.293" r="4" fill="#0" id="circle96"/>
	<circle cx="551.791" cy="159.373" r="4" fill="#0" id="circle97"/>
	<circle cx="559.759" cy="938.233" r="4" fill="#0" id="circle98"/>
	<circle cx="561.751" cy="139.454" r="4" fill="#0" id="circle99"/>
	<circle cx="573.703" cy="922.297" r="4" fill="#0" id="circle100"/>
	<circle cx="577.687" cy="123.518" r="4" fill="#0" id="circle101"/>
	<circle cx="591.631" cy="99.6145" r="4" fill="#0" id="circle102"/>
	<circle cx="591.631" cy="912.337" r="4" fill="#0" id="circle103"/>
	<circle cx="607.566" cy="83.6787" r="4" fill="#0" id="circle104"/>
	<circle cx="607.566" cy="900.386" r="4" fill="#0" id="circle105"/>
	<circle cx="617.526" cy="882.458" r="4" fill="#0" id="circle106"/>
	<circle cx="623.502" cy="67.743" r="4" fill="#0" id="circle107"/>
	<circle cx="635.454" cy="872.498" r="4" fill="#0" id="circle108"/>
	<circle cx="639.438" cy="53.7992" r="4" fill="#0" id="circle109"/>
	<circle cx="653.382" cy="37.8635" r="4" fill="#0" id="circle110"/>
	<circle cx="653.382" cy="862.538" r="4" fill="#0" id="circle111"/>
	<circle cx="669.317" cy="848.594" r="4" fill="#0" id="circle112"/>
	<circle cx="673.301" cy="27.9036" r="4" fill="#0" id="circle113"/>
	<circle cx="689.237" cy="838.635" r="4" fill="#0" id="circle114"/>
	<circle cx="693.221" cy="23.9197" r="4" fill="#0" id="circle115"/>
	<circle cx="703.181" cy="812.739" r="4" fill="#0" id="circle116"/>
	<circle cx="713.141" cy="23.9197" r="4" fill="#0" id="circle117"/>
	<circle cx="723.1" cy="802.779" r="4" fill="#0" id="circle118"/>
	<circle cx="733.06" cy="23.9197" r="4" fill="#0" id="circle119"/>
	<circle cx="739.036" cy="788.835" r="4" fill="#0" id="circle120"/>
	<circle cx="752.98" cy="29.8956" r="4" fill="#0" id="circle121"/>
	<circle cx="752.98" cy="772.9" r="4" fill="#0" id="circle122"/>
	<circle cx="768.916" cy="758.956" r="4" fill="#0" id="circle123"/>
	<circle cx="770.908" cy="39.8554" r="4" fill="#0" id="circle124"/>
	<circle cx="782.859" cy="743.02" r="4" fill="#0" id="circle125"/>
	<circle cx="790.827" cy="47.8233" r="4" fill="#0" id="circle126"/>
	<circle cx="798.795" cy="729.076" r="4" fill="#0" id="circle127"/>
	<circle cx="808.755" cy="57.7831" r="4" fill="#0" id="circle128"/>
	<circle cx="812.739" cy="703.181" r="4" fill="#0" id="circle129"/>
	<circle cx="828.675" cy="65.751" r="4" fill="#0" id="circle130"/>
	<circle cx="828.675" cy="689.237" r="4" fill="#0" id="circle131"/>
	<circle cx="842.618" cy="81.6867" r="4" fill="#0" id="circle132"/>
	<circle cx="842.618" cy="673.301" r="4" fill="#0" id="circle133"/>
	<circle cx="852.578" cy="653.382" r="4" fill="#0" id="circle134"/>
	<circle cx="858.554" cy="95.6305" r="4" fill="#0" id="circle135"/>
	<circle cx="862.538" cy="633.462" r="4" fill="#0" id="circle136"/>
	<circle cx="872.498" cy="111.566" r="4" fill="#0" id="circle137"/>
	<circle cx="872.498" cy="613.542" r="4" fill="#0" id="circle138"/>
	<circle cx="882.458" cy="129.494" r="4" fill="#0" id="circle139"/>
	<circle cx="882.458" cy="593.622" r="4" fill="#0" id="circle140"/>
	<circle cx="892.418" cy="573.703" r="4" fill="#0" id="circle141"/>
	<circle cx="898.394" cy="143.438" r="4" fill="#0" id="circle142"/>
	<circle cx="902.378" cy="553.783" r="4" fill="#0" id="circle143"/>
	<circle cx="912.337" cy="159.373" r="4" fill="#0" id="circle144"/>
	<circle cx="912.337" cy="533.863" r="4" fill="#0" id="circle145"/>
	<circle cx="920.305" cy="179.293" r="4" fill="#0" id="circle146"/>
	<circle cx="922.297" cy="199.213" r="4" fill="#0" id="circle147"/>
	<circle cx="922.297" cy="494.024" r="4" fill="#0" id="circle148"/>
	<circle cx="922.297" cy="513.944" r="4" fill="#0" id="circle149"/>
	<circle cx="930.265" cy="219.133" r="4" fill="#0" id="circle150"/>
	<circle cx="932.257" cy="239.052" r="4" fill="#0" id="circle151"/>
	<circle cx="932.257" cy="454.185" r="4" fill="#0" id="circle152"/>
	<circle cx="932.257" cy="474.104" r="4" fill="#0" id="circle153"/>
	<circle cx="940.225" cy="258.972" r="4" fill="#0" id="circle154"/>
	<circle cx="942.217" cy="278.892" r="4" fill="#0" id="circle155"/>
	<circle cx="942.217" cy="298.811" r="4" fill="#0" id="circle156"/>
	<circle cx="942.217" cy="318.731" r="4" fill="#0" id="circle157"/>
	<circle cx="942.217" cy="338.651" r="4" fill="#0" id="circle158"/>
	<circle cx="942.217" cy="358.57" r="4" fill="#0" id="circle159"/>
	<circle cx="942.217" cy="378.49" r="4" fill="#0" id="circle160"/>
	<circle cx="942.217" cy="398.41" r="4" fill="#0" id="circle161"/>
	<circle cx="942.217" cy="418.329" r="4" fill="#0" id="circle162"/>
	</g>
</svg>