<?xml version="1.0" encoding="UTF-8" standalone="no"?>
<!-- Created with CurveBenchmark -->
<svg
	xmlns:dc="http://purl.org/dc/elements/1.1/"
	xmlns:cc="http://creativecommons.org/ns#"
	xmlns:rdf="http://www.w3.org/1999/02/22-rdf-syntax-ns#"
	xmlns:svg="http://www.w3.org/2000/svg"
	xmlns="http://www.w3.org/2000/svg"
	xmlns:sodipodi="http://sodipodi.sourceforge.net/DTD/sodipodi-0.dtd"
	xmlns:inkscape="http://www.inkscape.org/namespaces/inkscape"
	width="1000"
	height="1000"
	id="svg2"
	version="1.1"
	sodipodi:docname="manifold/peel-fish350.png.txt">
<defs
	id="defs4" />
<metadata
	id="metadata7">
	<rdf:RDF>
		<cc:Work
			rdf:about="">
			<dc:format>image/svg+xml</dc:format>
			<dc:type
				rdf:resource="http://purl.org/dc/dcmitype/StillImage" />
			<dc:title></dc:title>
		</cc:Work>
	</rdf:RDF>
</metadata>
<g
	inkscape:label="Layer 1"
	inkscape:groupmode="layer"
	id="layer1">
	<path style="fill:none;stroke:red;stroke-width:1px;stroke-linecap:butt;stroke-linejoin:miter;stroke-opacity:1" d="M 40.9513,251.289 18.212,234.235 z" id="boundary" inkscape:connector-curvature="0" />
	<path style="fill:none;stroke:red;stroke-width:1px;stroke-linecap:butt;stroke-linejoin:miter;stroke-opacity:1" d="M 18.212,234.235 4,208.653 z" id="boundary" inkscape:connector-curvature="0" />
	<path style="fill:none;stroke:red;stroke-width:1px;stroke-linecap:butt;stroke-linejoin:miter;stroke-opacity:1" d="M 4,208.653 26.7393,191.599 z" id="boundary" inkscape:connector-curvature="0" />
	<path style="fill:none;stroke:red;stroke-width:1px;stroke-linecap:butt;stroke-linejoin:miter;stroke-opacity:1" d="M 60.8481,274.029 40.9513,251.289 z" id="boundary" inkscape:connector-curvature="0" />
	<path style="fill:none;stroke:red;stroke-width:1px;stroke-linecap:butt;stroke-linejoin:miter;stroke-opacity:1" d="M 52.3209,177.387 26.7393,191.599 z" id="boundary" inkscape:connector-curvature="0" />
	<path style="fill:none;stroke:red;stroke-width:1px;stroke-linecap:butt;stroke-linejoin:miter;stroke-opacity:1" d="M 77.9026,163.175 52.3209,177.387 z" id="boundary" inkscape:connector-curvature="0" />
	<path style="fill:none;stroke:red;stroke-width:1px;stroke-linecap:butt;stroke-linejoin:miter;stroke-opacity:1" d="M 106.327,157.49 77.9026,163.175 z" id="boundary" inkscape:connector-curvature="0" />
	<path style="fill:none;stroke:red;stroke-width:1px;stroke-linecap:butt;stroke-linejoin:miter;stroke-opacity:1" d="M 60.8481,274.029 83.5874,293.926 z" id="boundary" inkscape:connector-curvature="0" />
	<path style="fill:none;stroke:red;stroke-width:1px;stroke-linecap:butt;stroke-linejoin:miter;stroke-opacity:1" d="M 109.169,308.138 83.5874,293.926 z" id="boundary" inkscape:connector-curvature="0" />
	<path style="fill:none;stroke:red;stroke-width:1px;stroke-linecap:butt;stroke-linejoin:miter;stroke-opacity:1" d="M 131.908,143.278 106.327,157.49 z" id="boundary" inkscape:connector-curvature="0" />
	<path style="fill:none;stroke:red;stroke-width:1px;stroke-linecap:butt;stroke-linejoin:miter;stroke-opacity:1" d="M 137.593,319.507 109.169,308.138 z" id="boundary" inkscape:connector-curvature="0" />
	<path style="fill:none;stroke:red;stroke-width:1px;stroke-linecap:butt;stroke-linejoin:miter;stroke-opacity:1" d="M 160.332,131.908 131.908,143.278 z" id="boundary" inkscape:connector-curvature="0" />
	<path style="fill:none;stroke:red;stroke-width:1px;stroke-linecap:butt;stroke-linejoin:miter;stroke-opacity:1" d="M 166.017,330.877 137.593,319.507 z" id="boundary" inkscape:connector-curvature="0" />
	<path style="fill:none;stroke:red;stroke-width:1px;stroke-linecap:butt;stroke-linejoin:miter;stroke-opacity:1" d="M 188.756,123.381 160.332,131.908 z" id="boundary" inkscape:connector-curvature="0" />
	<path style="fill:none;stroke:red;stroke-width:1px;stroke-linecap:butt;stroke-linejoin:miter;stroke-opacity:1" d="M 194.441,342.246 166.017,330.877 z" id="boundary" inkscape:connector-curvature="0" />
	<path style="fill:none;stroke:red;stroke-width:1px;stroke-linecap:butt;stroke-linejoin:miter;stroke-opacity:1" d="M 217.181,112.011 188.756,123.381 z" id="boundary" inkscape:connector-curvature="0" />
	<path style="fill:none;stroke:red;stroke-width:1px;stroke-linecap:butt;stroke-linejoin:miter;stroke-opacity:1" d="M 222.865,353.616 194.441,342.246 z" id="boundary" inkscape:connector-curvature="0" />
	<path style="fill:none;stroke:red;stroke-width:1px;stroke-linecap:butt;stroke-linejoin:miter;stroke-opacity:1" d="M 245.605,103.484 217.181,112.011 z" id="boundary" inkscape:connector-curvature="0" />
	<path style="fill:none;stroke:red;stroke-width:1px;stroke-linecap:butt;stroke-linejoin:miter;stroke-opacity:1" d="M 313.822,407.622 330.877,430.361 z" id="boundary" inkscape:connector-curvature="0" />
	<path style="fill:none;stroke:red;stroke-width:1px;stroke-linecap:butt;stroke-linejoin:miter;stroke-opacity:1" d="M 251.289,359.301 222.865,353.616 z" id="boundary" inkscape:connector-curvature="0" />
	<path style="fill:none;stroke:red;stroke-width:1px;stroke-linecap:butt;stroke-linejoin:miter;stroke-opacity:1" d="M 274.029,100.642 245.605,103.484 z" id="boundary" inkscape:connector-curvature="0" />
	<path style="fill:none;stroke:red;stroke-width:1px;stroke-linecap:butt;stroke-linejoin:miter;stroke-opacity:1" d="M 299.61,382.04 313.822,407.622 z" id="boundary" inkscape:connector-curvature="0" />
	<path style="fill:none;stroke:red;stroke-width:1px;stroke-linecap:butt;stroke-linejoin:miter;stroke-opacity:1" d="M 279.713,359.301 251.289,359.301 z" id="boundary" inkscape:connector-curvature="0" />
	<path style="fill:none;stroke:red;stroke-width:1px;stroke-linecap:butt;stroke-linejoin:miter;stroke-opacity:1" d="M 299.61,49.4785 299.61,77.9026 z" id="boundary" inkscape:connector-curvature="0" />
	<path style="fill:none;stroke:red;stroke-width:1px;stroke-linecap:butt;stroke-linejoin:miter;stroke-opacity:1" d="M 299.61,77.9026 274.029,100.642 z" id="boundary" inkscape:connector-curvature="0" />
	<path style="fill:none;stroke:red;stroke-width:1px;stroke-linecap:butt;stroke-linejoin:miter;stroke-opacity:1" d="M 299.61,382.04 279.713,359.301 z" id="boundary" inkscape:connector-curvature="0" />
	<path style="fill:none;stroke:red;stroke-width:1px;stroke-linecap:butt;stroke-linejoin:miter;stroke-opacity:1" d="M 427.519,15.3696 399.095,4 z" id="boundary" inkscape:connector-curvature="0" />
	<path style="fill:none;stroke:red;stroke-width:1px;stroke-linecap:butt;stroke-linejoin:miter;stroke-opacity:1" d="M 299.61,49.4785 328.034,38.1089 z" id="boundary" inkscape:connector-curvature="0" />
	<path style="fill:none;stroke:red;stroke-width:1px;stroke-linecap:butt;stroke-linejoin:miter;stroke-opacity:1" d="M 399.095,4 370.67,4 z" id="boundary" inkscape:connector-curvature="0" />
	<path style="fill:none;stroke:red;stroke-width:1px;stroke-linecap:butt;stroke-linejoin:miter;stroke-opacity:1" d="M 342.246,12.5272 370.67,4 z" id="boundary" inkscape:connector-curvature="0" />
	<path style="fill:none;stroke:red;stroke-width:1px;stroke-linecap:butt;stroke-linejoin:miter;stroke-opacity:1" d="M 342.246,12.5272 328.034,38.1089 z" id="boundary" inkscape:connector-curvature="0" />
	<path style="fill:none;stroke:red;stroke-width:1px;stroke-linecap:butt;stroke-linejoin:miter;stroke-opacity:1" d="M 330.877,430.361 353.616,447.415 z" id="boundary" inkscape:connector-curvature="0" />
	<path style="fill:none;stroke:red;stroke-width:1px;stroke-linecap:butt;stroke-linejoin:miter;stroke-opacity:1" d="M 481.524,35.2665 455.943,21.0544 z" id="boundary" inkscape:connector-curvature="0" />
	<path style="fill:none;stroke:red;stroke-width:1px;stroke-linecap:butt;stroke-linejoin:miter;stroke-opacity:1" d="M 455.943,21.0544 427.519,15.3696 z" id="boundary" inkscape:connector-curvature="0" />
	<path style="fill:none;stroke:red;stroke-width:1px;stroke-linecap:butt;stroke-linejoin:miter;stroke-opacity:1" d="M 407.622,458.785 379.198,461.628 z" id="boundary" inkscape:connector-curvature="0" />
	<path style="fill:none;stroke:red;stroke-width:1px;stroke-linecap:butt;stroke-linejoin:miter;stroke-opacity:1" d="M 379.198,461.628 353.616,447.415 z" id="boundary" inkscape:connector-curvature="0" />
	<path style="fill:none;stroke:red;stroke-width:1px;stroke-linecap:butt;stroke-linejoin:miter;stroke-opacity:1" d="M 441.731,353.616 450.258,382.04 z" id="boundary" inkscape:connector-curvature="0" />
	<path style="fill:none;stroke:red;stroke-width:1px;stroke-linecap:butt;stroke-linejoin:miter;stroke-opacity:1" d="M 723.129,364.986 751.553,364.986 z" id="boundary" inkscape:connector-curvature="0" />
	<path style="fill:none;stroke:red;stroke-width:1px;stroke-linecap:butt;stroke-linejoin:miter;stroke-opacity:1" d="M 447.415,421.834 436.046,450.258 z" id="boundary" inkscape:connector-curvature="0" />
	<path style="fill:none;stroke:red;stroke-width:1px;stroke-linecap:butt;stroke-linejoin:miter;stroke-opacity:1" d="M 436.046,450.258 407.622,458.785 z" id="boundary" inkscape:connector-curvature="0" />
	<path style="fill:none;stroke:red;stroke-width:1px;stroke-linecap:butt;stroke-linejoin:miter;stroke-opacity:1" d="M 450.258,382.04 447.415,421.834 z" id="boundary" inkscape:connector-curvature="0" />
	<path style="fill:none;stroke:red;stroke-width:1px;stroke-linecap:butt;stroke-linejoin:miter;stroke-opacity:1" d="M 498.579,353.616 527.003,347.931 z" id="boundary" inkscape:connector-curvature="0" />
	<path style="fill:none;stroke:red;stroke-width:1px;stroke-linecap:butt;stroke-linejoin:miter;stroke-opacity:1" d="M 481.524,35.2665 507.106,49.4785 z" id="boundary" inkscape:connector-curvature="0" />
	<path style="fill:none;stroke:red;stroke-width:1px;stroke-linecap:butt;stroke-linejoin:miter;stroke-opacity:1" d="M 470.155,353.616 498.579,353.616 z" id="boundary" inkscape:connector-curvature="0" />
	<path style="fill:none;stroke:red;stroke-width:1px;stroke-linecap:butt;stroke-linejoin:miter;stroke-opacity:1" d="M 470.155,353.616 441.731,353.616 z" id="boundary" inkscape:connector-curvature="0" />
	<path style="fill:none;stroke:red;stroke-width:1px;stroke-linecap:butt;stroke-linejoin:miter;stroke-opacity:1" d="M 507.106,49.4785 532.688,63.6905 z" id="boundary" inkscape:connector-curvature="0" />
	<path style="fill:none;stroke:red;stroke-width:1px;stroke-linecap:butt;stroke-linejoin:miter;stroke-opacity:1" d="M 527.003,347.931 555.427,347.931 z" id="boundary" inkscape:connector-curvature="0" />
	<path style="fill:none;stroke:red;stroke-width:1px;stroke-linecap:butt;stroke-linejoin:miter;stroke-opacity:1" d="M 532.688,63.6905 558.269,77.9026 z" id="boundary" inkscape:connector-curvature="0" />
	<path style="fill:none;stroke:red;stroke-width:1px;stroke-linecap:butt;stroke-linejoin:miter;stroke-opacity:1" d="M 555.427,347.931 583.851,347.931 z" id="boundary" inkscape:connector-curvature="0" />
	<path style="fill:none;stroke:red;stroke-width:1px;stroke-linecap:butt;stroke-linejoin:miter;stroke-opacity:1" d="M 558.269,77.9026 581.009,94.957 z" id="boundary" inkscape:connector-curvature="0" />
	<path style="fill:none;stroke:red;stroke-width:1px;stroke-linecap:butt;stroke-linejoin:miter;stroke-opacity:1" d="M 609.433,92.1146 581.009,94.957 z" id="boundary" inkscape:connector-curvature="0" />
	<path style="fill:none;stroke:red;stroke-width:1px;stroke-linecap:butt;stroke-linejoin:miter;stroke-opacity:1" d="M 612.275,342.246 640.699,345.089 z" id="boundary" inkscape:connector-curvature="0" />
	<path style="fill:none;stroke:red;stroke-width:1px;stroke-linecap:butt;stroke-linejoin:miter;stroke-opacity:1" d="M 640.699,345.089 666.281,359.301 z" id="boundary" inkscape:connector-curvature="0" />
	<path style="fill:none;stroke:red;stroke-width:1px;stroke-linecap:butt;stroke-linejoin:miter;stroke-opacity:1" d="M 612.275,342.246 583.851,347.931 z" id="boundary" inkscape:connector-curvature="0" />
	<path style="fill:none;stroke:red;stroke-width:1px;stroke-linecap:butt;stroke-linejoin:miter;stroke-opacity:1" d="M 694.705,77.9026 717.444,94.957 z" id="boundary" inkscape:connector-curvature="0" />
	<path style="fill:none;stroke:red;stroke-width:1px;stroke-linecap:butt;stroke-linejoin:miter;stroke-opacity:1" d="M 609.433,92.1146 637.857,80.745 z" id="boundary" inkscape:connector-curvature="0" />
	<path style="fill:none;stroke:red;stroke-width:1px;stroke-linecap:butt;stroke-linejoin:miter;stroke-opacity:1" d="M 666.281,72.2178 694.705,77.9026 z" id="boundary" inkscape:connector-curvature="0" />
	<path style="fill:none;stroke:red;stroke-width:1px;stroke-linecap:butt;stroke-linejoin:miter;stroke-opacity:1" d="M 666.281,72.2178 637.857,80.745 z" id="boundary" inkscape:connector-curvature="0" />
	<path style="fill:none;stroke:red;stroke-width:1px;stroke-linecap:butt;stroke-linejoin:miter;stroke-opacity:1" d="M 717.444,94.957 740.183,112.011 z" id="boundary" inkscape:connector-curvature="0" />
	<path style="fill:none;stroke:red;stroke-width:1px;stroke-linecap:butt;stroke-linejoin:miter;stroke-opacity:1" d="M 694.705,364.986 666.281,359.301 z" id="boundary" inkscape:connector-curvature="0" />
	<path style="fill:none;stroke:red;stroke-width:1px;stroke-linecap:butt;stroke-linejoin:miter;stroke-opacity:1" d="M 740.183,112.011 760.08,134.751 z" id="boundary" inkscape:connector-curvature="0" />
	<path style="fill:none;stroke:red;stroke-width:1px;stroke-linecap:butt;stroke-linejoin:miter;stroke-opacity:1" d="M 723.129,364.986 694.705,364.986 z" id="boundary" inkscape:connector-curvature="0" />
	<path style="fill:none;stroke:red;stroke-width:1px;stroke-linecap:butt;stroke-linejoin:miter;stroke-opacity:1" d="M 760.08,134.751 782.819,154.648 z" id="boundary" inkscape:connector-curvature="0" />
	<path style="fill:none;stroke:red;stroke-width:1px;stroke-linecap:butt;stroke-linejoin:miter;stroke-opacity:1" d="M 782.819,154.648 797.032,180.229 z" id="boundary" inkscape:connector-curvature="0" />
	<path style="fill:none;stroke:red;stroke-width:1px;stroke-linecap:butt;stroke-linejoin:miter;stroke-opacity:1" d="M 950.521,336.562 978.946,336.562 z" id="boundary" inkscape:connector-curvature="0" />
	<path style="fill:none;stroke:red;stroke-width:1px;stroke-linecap:butt;stroke-linejoin:miter;stroke-opacity:1" d="M 922.097,325.192 950.521,336.562 z" id="boundary" inkscape:connector-curvature="0" />
	<path style="fill:none;stroke:red;stroke-width:1px;stroke-linecap:butt;stroke-linejoin:miter;stroke-opacity:1" d="M 771.45,342.246 751.553,364.986 z" id="boundary" inkscape:connector-curvature="0" />
	<path style="fill:none;stroke:red;stroke-width:1px;stroke-linecap:butt;stroke-linejoin:miter;stroke-opacity:1" d="M 782.819,313.822 771.45,342.246 z" id="boundary" inkscape:connector-curvature="0" />
	<path style="fill:none;stroke:red;stroke-width:1px;stroke-linecap:butt;stroke-linejoin:miter;stroke-opacity:1" d="M 785.662,276.871 782.819,313.822 z" id="boundary" inkscape:connector-curvature="0" />
	<path style="fill:none;stroke:red;stroke-width:1px;stroke-linecap:butt;stroke-linejoin:miter;stroke-opacity:1" d="M 814.086,274.029 842.51,285.398 z" id="boundary" inkscape:connector-curvature="0" />
	<path style="fill:none;stroke:red;stroke-width:1px;stroke-linecap:butt;stroke-linejoin:miter;stroke-opacity:1" d="M 814.086,274.029 785.662,276.871 z" id="boundary" inkscape:connector-curvature="0" />
	<path style="fill:none;stroke:red;stroke-width:1px;stroke-linecap:butt;stroke-linejoin:miter;stroke-opacity:1" d="M 825.456,177.387 797.032,180.229 z" id="boundary" inkscape:connector-curvature="0" />
	<path style="fill:none;stroke:red;stroke-width:1px;stroke-linecap:butt;stroke-linejoin:miter;stroke-opacity:1" d="M 842.51,285.398 868.092,299.61 z" id="boundary" inkscape:connector-curvature="0" />
	<path style="fill:none;stroke:red;stroke-width:1px;stroke-linecap:butt;stroke-linejoin:miter;stroke-opacity:1" d="M 851.037,163.175 825.456,177.387 z" id="boundary" inkscape:connector-curvature="0" />
	<path style="fill:none;stroke:red;stroke-width:1px;stroke-linecap:butt;stroke-linejoin:miter;stroke-opacity:1" d="M 868.092,299.61 893.673,313.822 z" id="boundary" inkscape:connector-curvature="0" />
	<path style="fill:none;stroke:red;stroke-width:1px;stroke-linecap:butt;stroke-linejoin:miter;stroke-opacity:1" d="M 879.461,151.805 851.037,163.175 z" id="boundary" inkscape:connector-curvature="0" />
	<path style="fill:none;stroke:red;stroke-width:1px;stroke-linecap:butt;stroke-linejoin:miter;stroke-opacity:1" d="M 984.63,191.599 984.63,220.023 z" id="boundary" inkscape:connector-curvature="0" />
	<path style="fill:none;stroke:red;stroke-width:1px;stroke-linecap:butt;stroke-linejoin:miter;stroke-opacity:1" d="M 879.461,151.805 907.885,140.436 z" id="boundary" inkscape:connector-curvature="0" />
	<path style="fill:none;stroke:red;stroke-width:1px;stroke-linecap:butt;stroke-linejoin:miter;stroke-opacity:1" d="M 922.097,325.192 893.673,313.822 z" id="boundary" inkscape:connector-curvature="0" />
	<path style="fill:none;stroke:red;stroke-width:1px;stroke-linecap:butt;stroke-linejoin:miter;stroke-opacity:1" d="M 936.309,129.066 907.885,140.436 z" id="boundary" inkscape:connector-curvature="0" />
	<path style="fill:none;stroke:red;stroke-width:1px;stroke-linecap:butt;stroke-linejoin:miter;stroke-opacity:1" d="M 964.734,123.381 936.309,129.066 z" id="boundary" inkscape:connector-curvature="0" />
	<path style="fill:none;stroke:red;stroke-width:1px;stroke-linecap:butt;stroke-linejoin:miter;stroke-opacity:1" d="M 984.63,248.447 984.63,220.023 z" id="boundary" inkscape:connector-curvature="0" />
	<path style="fill:none;stroke:red;stroke-width:1px;stroke-linecap:butt;stroke-linejoin:miter;stroke-opacity:1" d="M 964.734,123.381 993.158,117.696 z" id="boundary" inkscape:connector-curvature="0" />
	<path style="fill:none;stroke:red;stroke-width:1px;stroke-linecap:butt;stroke-linejoin:miter;stroke-opacity:1" d="M 990.315,276.871 984.63,248.447 z" id="boundary" inkscape:connector-curvature="0" />
	<path style="fill:none;stroke:red;stroke-width:1px;stroke-linecap:butt;stroke-linejoin:miter;stroke-opacity:1" d="M 996,157.49 984.63,191.599 z" id="boundary" inkscape:connector-curvature="0" />
	<path style="fill:none;stroke:red;stroke-width:1px;stroke-linecap:butt;stroke-linejoin:miter;stroke-opacity:1" d="M 990.315,276.871 996,305.295 z" id="boundary" inkscape:connector-curvature="0" />
	<path style="fill:none;stroke:red;stroke-width:1px;stroke-linecap:butt;stroke-linejoin:miter;stroke-opacity:1" d="M 996,305.295 978.946,336.562 z" id="boundary" inkscape:connector-curvature="0" />
	<path style="fill:none;stroke:red;stroke-width:1px;stroke-linecap:butt;stroke-linejoin:miter;stroke-opacity:1" d="M 993.158,117.696 996,157.49 z" id="boundary" inkscape:connector-curvature="0" />
	<circle cx="4" cy="208.653" r="4" fill="#0" id="circle0"/>
	<circle cx="18.212" cy="234.235" r="4" fill="#0" id="circle1"/>
	<circle cx="26.7393" cy="191.599" r="4" fill="#0" id="circle2"/>
	<circle cx="40.9513" cy="251.289" r="4" fill="#0" id="circle3"/>
	<circle cx="52.3209" cy="177.387" r="4" fill="#0" id="circle4"/>
	<circle cx="60.8481" cy="274.029" r="4" fill="#0" id="circle5"/>
	<circle cx="77.9026" cy="163.175" r="4" fill="#0" id="circle6"/>
	<circle cx="83.5874" cy="293.926" r="4" fill="#0" id="circle7"/>
	<circle cx="106.327" cy="157.49" r="4" fill="#0" id="circle8"/>
	<circle cx="109.169" cy="308.138" r="4" fill="#0" id="circle9"/>
	<circle cx="131.908" cy="143.278" r="4" fill="#0" id="circle10"/>
	<circle cx="137.593" cy="319.507" r="4" fill="#0" id="circle11"/>
	<circle cx="160.332" cy="131.908" r="4" fill="#0" id="circle12"/>
	<circle cx="166.017" cy="330.877" r="4" fill="#0" id="circle13"/>
	<circle cx="188.756" cy="123.381" r="4" fill="#0" id="circle14"/>
	<circle cx="194.441" cy="342.246" r="4" fill="#0" id="circle15"/>
	<circle cx="217.181" cy="112.011" r="4" fill="#0" id="circle16"/>
	<circle cx="222.865" cy="353.616" r="4" fill="#0" id="circle17"/>
	<circle cx="245.605" cy="103.484" r="4" fill="#0" id="circle18"/>
	<circle cx="251.289" cy="359.301" r="4" fill="#0" id="circle19"/>
	<circle cx="274.029" cy="100.642" r="4" fill="#0" id="circle20"/>
	<circle cx="279.713" cy="359.301" r="4" fill="#0" id="circle21"/>
	<circle cx="299.61" cy="49.4785" r="4" fill="#0" id="circle22"/>
	<circle cx="299.61" cy="77.9026" r="4" fill="#0" id="circle23"/>
	<circle cx="299.61" cy="382.04" r="4" fill="#0" id="circle24"/>
	<circle cx="313.822" cy="407.622" r="4" fill="#0" id="circle25"/>
	<circle cx="328.034" cy="38.1089" r="4" fill="#0" id="circle26"/>
	<circle cx="330.877" cy="430.361" r="4" fill="#0" id="circle27"/>
	<circle cx="342.246" cy="12.5272" r="4" fill="#0" id="circle28"/>
	<circle cx="353.616" cy="447.415" r="4" fill="#0" id="circle29"/>
	<circle cx="370.67" cy="4" r="4" fill="#0" id="circle30"/>
	<circle cx="379.198" cy="461.628" r="4" fill="#0" id="circle31"/>
	<circle cx="399.095" cy="4" r="4" fill="#0" id="circle32"/>
	<circle cx="407.622" cy="458.785" r="4" fill="#0" id="circle33"/>
	<circle cx="427.519" cy="15.3696" r="4" fill="#0" id="circle34"/>
	<circle cx="436.046" cy="450.258" r="4" fill="#0" id="circle35"/>
	<circle cx="441.731" cy="353.616" r="4" fill="#0" id="circle36"/>
	<circle cx="447.415" cy="421.834" r="4" fill="#0" id="circle37"/>
	<circle cx="450.258" cy="382.04" r="4" fill="#0" id="circle38"/>
	<circle cx="455.943" cy="21.0544" r="4" fill="#0" id="circle39"/>
	<circle cx="470.155" cy="353.616" r="4" fill="#0" id="circle40"/>
	<circle cx="481.524" cy="35.2665" r="4" fill="#0" id="circle41"/>
	<circle cx="498.579" cy="353.616" r="4" fill="#0" id="circle42"/>
	<circle cx="507.106" cy="49.4785" r="4" fill="#0" id="circle43"/>
	<circle cx="527.003" cy="347.931" r="4" fill="#0" id="circle44"/>
	<circle cx="532.688" cy="63.6905" r="4" fill="#0" id="circle45"/>
	<circle cx="555.427" cy="347.931" r="4" fill="#0" id="circle46"/>
	<circle cx="558.269" cy="77.9026" r="4" fill="#0" id="circle47"/>
	<circle cx="581.009" cy="94.957" r="4" fill="#0" id="circle48"/>
	<circle cx="583.851" cy="347.931" r="4" fill="#0" id="circle49"/>
	<circle cx="609.433" cy="92.1146" r="4" fill="#0" id="circle50"/>
	<circle cx="612.275" cy="342.246" r="4" fill="#0" id="circle51"/>
	<circle cx="637.857" cy="80.745" r="4" fill="#0" id="circle52"/>
	<circle cx="640.699" cy="345.089" r="4" fill="#0" id="circle53"/>
	<circle cx="666.281" cy="72.2178" r="4" fill="#0" id="circle54"/>
	<circle cx="666.281" cy="359.301" r="4" fill="#0" id="circle55"/>
	<circle cx="694.705" cy="77.9026" r="4" fill="#0" id="circle56"/>
	<circle cx="694.705" cy="364.986" r="4" fill="#0" id="circle57"/>
	<circle cx="717.444" cy="94.957" r="4" fill="#0" id="circle58"/>
	<circle cx="723.129" cy="364.986" r="4" fill="#0" id="circle59"/>
	<circle cx="740.183" cy="112.011" r="4" fill="#0" id="circle60"/>
	<circle cx="751.553" cy="364.986" r="4" fill="#0" id="circle61"/>
	<circle cx="760.08" cy="134.751" r="4" fill="#0" id="circle62"/>
	<circle cx="771.45" cy="342.246" r="4" fill="#0" id="circle63"/>
	<circle cx="782.819" cy="154.648" r="4" fill="#0" id="circle64"/>
	<circle cx="782.819" cy="313.822" r="4" fill="#0" id="circle65"/>
	<circle cx="785.662" cy="276.871" r="4" fill="#0" id="circle66"/>
	<circle cx="797.032" cy="180.229" r="4" fill="#0" id="circle67"/>
	<circle cx="814.086" cy="274.029" r="4" fill="#0" id="circle68"/>
	<circle cx="825.456" cy="177.387" r="4" fill="#0" id="circle69"/>
	<circle cx="842.51" cy="285.398" r="4" fill="#0" id="circle70"/>
	<circle cx="851.037" cy="163.175" r="4" fill="#0" id="circle71"/>
	<circle cx="868.092" cy="299.61" r="4" fill="#0" id="circle72"/>
	<circle cx="879.461" cy="151.805" r="4" fill="#0" id="circle73"/>
	<circle cx="893.673" cy="313.822" r="4" fill="#0" id="circle74"/>
	<circle cx="907.885" cy="140.436" r="4" fill="#0" id="circle75"/>
	<circle cx="922.097" cy="325.192" r="4" fill="#0" id="circle76"/>
	<circle cx="936.309" cy="129.066" r="4" fill="#0" id="circle77"/>
	<circle cx="950.521" cy="336.562" r="4" fill="#0" id="circle78"/>
	<circle cx="964.734" cy="123.381" r="4" fill="#0" id="circle79"/>
	<circle cx="978.946" cy="336.562" r="4" fill="#0" id="circle80"/>
	<circle cx="984.63" cy="191.599" r="4" fill="#0" id="circle81"/>
	<circle cx="984.63" cy="220.023" r="4" fill="#0" id="circle82"/>
	<circle cx="984.63" cy="248.447" r="4" fill="#0" id="circle83"/>
	<circle cx="990.315" cy="276.871" r="4" fill="#0" id="circle84"/>
	<circle cx="993.158" cy="117.696" r="4" fill="#0" id="circle85"/>
	<circle cx="996" cy="157.49" r="4" fill="#0" id="circle86"/>
	<circle cx="996" cy="305.295" r="4" fill="#0" id="circle87"/>
	</g>
</svg>