<?xml version="1.0" encoding="UTF-8" standalone="no"?>
<!-- Created with CurveBenchmark -->
<svg
	xmlns:dc="http://purl.org/dc/elements/1.1/"
	xmlns:cc="http://creativecommons.org/ns#"
	xmlns:rdf="http://www.w3.org/1999/02/22-rdf-syntax-ns#"
	xmlns:svg="http://www.w3.org/2000/svg"
	xmlns="http://www.w3.org/2000/svg"
	xmlns:sodipodi="http://sodipodi.sourceforge.net/DTD/sodipodi-0.dtd"
	xmlns:inkscape="http://www.inkscape.org/namespaces/inkscape"
	width="1000"
	height="1000"
	id="svg2"
	version="1.1"
	sodipodi:docname="manifold/peel-hammer33.png.txt">
<defs
	id="defs4" />
<metadata
	id="metadata7">
	<rdf:RDF>
		<cc:Work
			rdf:about="">
			<dc:format>image/svg+xml</dc:format>
			<dc:type
				rdf:resource="http://purl.org/dc/dcmitype/StillImage" />
			<dc:title></dc:title>
		</cc:Work>
	</rdf:RDF>
</metadata>
<g
	inkscape:label="Layer 1"
	inkscape:groupmode="layer"
	id="layer1">
	<path style="fill:none;stroke:red;stroke-width:1px;stroke-linecap:butt;stroke-linejoin:miter;stroke-opacity:1" d="M 29.5451,244.549 14.6438,227.519 z" id="boundary" inkscape:connector-curvature="0" />
	<path style="fill:none;stroke:red;stroke-width:1px;stroke-linecap:butt;stroke-linejoin:miter;stroke-opacity:1" d="M 14.6438,227.519 4,208.361 z" id="boundary" inkscape:connector-curvature="0" />
	<path style="fill:none;stroke:red;stroke-width:1px;stroke-linecap:butt;stroke-linejoin:miter;stroke-opacity:1" d="M 4,208.361 21.03,191.33 z" id="boundary" inkscape:connector-curvature="0" />
	<path style="fill:none;stroke:red;stroke-width:1px;stroke-linecap:butt;stroke-linejoin:miter;stroke-opacity:1" d="M 38.0601,174.3 21.03,191.33 z" id="boundary" inkscape:connector-curvature="0" />
	<path style="fill:none;stroke:red;stroke-width:1px;stroke-linecap:butt;stroke-linejoin:miter;stroke-opacity:1" d="M 46.5751,257.322 29.5451,244.549 z" id="boundary" inkscape:connector-curvature="0" />
	<path style="fill:none;stroke:red;stroke-width:1px;stroke-linecap:butt;stroke-linejoin:miter;stroke-opacity:1" d="M 55.0901,159.399 38.0601,174.3 z" id="boundary" inkscape:connector-curvature="0" />
	<path style="fill:none;stroke:red;stroke-width:1px;stroke-linecap:butt;stroke-linejoin:miter;stroke-opacity:1" d="M 63.6052,138.112 55.0901,159.399 z" id="boundary" inkscape:connector-curvature="0" />
	<path style="fill:none;stroke:red;stroke-width:1px;stroke-linecap:butt;stroke-linejoin:miter;stroke-opacity:1" d="M 78.5064,112.567 95.5365,95.5365 z" id="boundary" inkscape:connector-curvature="0" />
	<path style="fill:none;stroke:red;stroke-width:1px;stroke-linecap:butt;stroke-linejoin:miter;stroke-opacity:1" d="M 63.6052,138.112 78.5064,112.567 z" id="boundary" inkscape:connector-curvature="0" />
	<path style="fill:none;stroke:red;stroke-width:1px;stroke-linecap:butt;stroke-linejoin:miter;stroke-opacity:1" d="M 87.0215,267.966 65.7339,267.966 z" id="boundary" inkscape:connector-curvature="0" />
	<path style="fill:none;stroke:red;stroke-width:1px;stroke-linecap:butt;stroke-linejoin:miter;stroke-opacity:1" d="M 65.7339,267.966 46.5751,257.322 z" id="boundary" inkscape:connector-curvature="0" />
	<path style="fill:none;stroke:red;stroke-width:1px;stroke-linecap:butt;stroke-linejoin:miter;stroke-opacity:1" d="M 106.18,278.609 87.0215,267.966 z" id="boundary" inkscape:connector-curvature="0" />
	<path style="fill:none;stroke:red;stroke-width:1px;stroke-linecap:butt;stroke-linejoin:miter;stroke-opacity:1" d="M 106.18,74.2489 95.5365,95.5365 z" id="boundary" inkscape:connector-curvature="0" />
	<path style="fill:none;stroke:red;stroke-width:1px;stroke-linecap:butt;stroke-linejoin:miter;stroke-opacity:1" d="M 214.747,23.1588 193.459,14.6438 z" id="boundary" inkscape:connector-curvature="0" />
	<path style="fill:none;stroke:red;stroke-width:1px;stroke-linecap:butt;stroke-linejoin:miter;stroke-opacity:1" d="M 106.18,74.2489 121.082,48.7039 z" id="boundary" inkscape:connector-curvature="0" />
	<path style="fill:none;stroke:red;stroke-width:1px;stroke-linecap:butt;stroke-linejoin:miter;stroke-opacity:1" d="M 121.082,261.579 106.18,278.609 z" id="boundary" inkscape:connector-curvature="0" />
	<path style="fill:none;stroke:red;stroke-width:1px;stroke-linecap:butt;stroke-linejoin:miter;stroke-opacity:1" d="M 121.082,48.7039 138.112,31.6738 z" id="boundary" inkscape:connector-curvature="0" />
	<path style="fill:none;stroke:red;stroke-width:1px;stroke-linecap:butt;stroke-linejoin:miter;stroke-opacity:1" d="M 191.33,223.262 206.232,240.292 z" id="boundary" inkscape:connector-curvature="0" />
	<path style="fill:none;stroke:red;stroke-width:1px;stroke-linecap:butt;stroke-linejoin:miter;stroke-opacity:1" d="M 138.112,244.549 121.082,261.579 z" id="boundary" inkscape:connector-curvature="0" />
	<path style="fill:none;stroke:red;stroke-width:1px;stroke-linecap:butt;stroke-linejoin:miter;stroke-opacity:1" d="M 148.755,223.262 138.112,244.549 z" id="boundary" inkscape:connector-curvature="0" />
	<path style="fill:none;stroke:red;stroke-width:1px;stroke-linecap:butt;stroke-linejoin:miter;stroke-opacity:1" d="M 153.013,6.12876 174.3,4 z" id="boundary" inkscape:connector-curvature="0" />
	<path style="fill:none;stroke:red;stroke-width:1px;stroke-linecap:butt;stroke-linejoin:miter;stroke-opacity:1" d="M 153.013,6.12876 138.112,31.6738 z" id="boundary" inkscape:connector-curvature="0" />
	<path style="fill:none;stroke:red;stroke-width:1px;stroke-linecap:butt;stroke-linejoin:miter;stroke-opacity:1" d="M 170.043,214.747 191.33,223.262 z" id="boundary" inkscape:connector-curvature="0" />
	<path style="fill:none;stroke:red;stroke-width:1px;stroke-linecap:butt;stroke-linejoin:miter;stroke-opacity:1" d="M 170.043,214.747 148.755,223.262 z" id="boundary" inkscape:connector-curvature="0" />
	<path style="fill:none;stroke:red;stroke-width:1px;stroke-linecap:butt;stroke-linejoin:miter;stroke-opacity:1" d="M 174.3,4 193.459,14.6438 z" id="boundary" inkscape:connector-curvature="0" />
	<path style="fill:none;stroke:red;stroke-width:1px;stroke-linecap:butt;stroke-linejoin:miter;stroke-opacity:1" d="M 206.232,240.292 223.262,255.193 z" id="boundary" inkscape:connector-curvature="0" />
	<path style="fill:none;stroke:red;stroke-width:1px;stroke-linecap:butt;stroke-linejoin:miter;stroke-opacity:1" d="M 208.361,140.24 212.618,161.528 z" id="boundary" inkscape:connector-curvature="0" />
	<path style="fill:none;stroke:red;stroke-width:1px;stroke-linecap:butt;stroke-linejoin:miter;stroke-opacity:1" d="M 219.004,118.953 208.361,140.24 z" id="boundary" inkscape:connector-curvature="0" />
	<path style="fill:none;stroke:red;stroke-width:1px;stroke-linecap:butt;stroke-linejoin:miter;stroke-opacity:1" d="M 212.618,161.528 229.648,176.429 z" id="boundary" inkscape:connector-curvature="0" />
	<path style="fill:none;stroke:red;stroke-width:1px;stroke-linecap:butt;stroke-linejoin:miter;stroke-opacity:1" d="M 236.034,104.052 219.004,118.953 z" id="boundary" inkscape:connector-curvature="0" />
	<path style="fill:none;stroke:red;stroke-width:1px;stroke-linecap:butt;stroke-linejoin:miter;stroke-opacity:1" d="M 229.648,176.429 250.936,180.687 z" id="boundary" inkscape:connector-curvature="0" />
	<path style="fill:none;stroke:red;stroke-width:1px;stroke-linecap:butt;stroke-linejoin:miter;stroke-opacity:1" d="M 242.421,265.837 223.262,255.193 z" id="boundary" inkscape:connector-curvature="0" />
	<path style="fill:none;stroke:red;stroke-width:1px;stroke-linecap:butt;stroke-linejoin:miter;stroke-opacity:1" d="M 214.747,23.1588 233.906,33.8026 z" id="boundary" inkscape:connector-curvature="0" />
	<path style="fill:none;stroke:red;stroke-width:1px;stroke-linecap:butt;stroke-linejoin:miter;stroke-opacity:1" d="M 236.034,104.052 250.936,87.0215 z" id="boundary" inkscape:connector-curvature="0" />
	<path style="fill:none;stroke:red;stroke-width:1px;stroke-linecap:butt;stroke-linejoin:miter;stroke-opacity:1" d="M 250.936,48.7039 233.906,33.8026 z" id="boundary" inkscape:connector-curvature="0" />
	<path style="fill:none;stroke:red;stroke-width:1px;stroke-linecap:butt;stroke-linejoin:miter;stroke-opacity:1" d="M 250.936,180.687 267.966,193.459 z" id="boundary" inkscape:connector-curvature="0" />
	<path style="fill:none;stroke:red;stroke-width:1px;stroke-linecap:butt;stroke-linejoin:miter;stroke-opacity:1" d="M 259.451,278.609 242.421,265.837 z" id="boundary" inkscape:connector-curvature="0" />
	<path style="fill:none;stroke:red;stroke-width:1px;stroke-linecap:butt;stroke-linejoin:miter;stroke-opacity:1" d="M 261.579,67.8627 250.936,87.0215 z" id="boundary" inkscape:connector-curvature="0" />
	<path style="fill:none;stroke:red;stroke-width:1px;stroke-linecap:butt;stroke-linejoin:miter;stroke-opacity:1" d="M 250.936,48.7039 261.579,67.8627 z" id="boundary" inkscape:connector-curvature="0" />
	<path style="fill:none;stroke:red;stroke-width:1px;stroke-linecap:butt;stroke-linejoin:miter;stroke-opacity:1" d="M 291.382,297.768 304.155,314.798 z" id="boundary" inkscape:connector-curvature="0" />
	<path style="fill:none;stroke:red;stroke-width:1px;stroke-linecap:butt;stroke-linejoin:miter;stroke-opacity:1" d="M 267.966,193.459 287.124,204.103 z" id="boundary" inkscape:connector-curvature="0" />
	<path style="fill:none;stroke:red;stroke-width:1px;stroke-linecap:butt;stroke-linejoin:miter;stroke-opacity:1" d="M 280.738,278.609 259.451,278.609 z" id="boundary" inkscape:connector-curvature="0" />
	<path style="fill:none;stroke:red;stroke-width:1px;stroke-linecap:butt;stroke-linejoin:miter;stroke-opacity:1" d="M 287.124,204.103 297.768,223.262 z" id="boundary" inkscape:connector-curvature="0" />
	<path style="fill:none;stroke:red;stroke-width:1px;stroke-linecap:butt;stroke-linejoin:miter;stroke-opacity:1" d="M 291.382,297.768 280.738,278.609 z" id="boundary" inkscape:connector-curvature="0" />
	<path style="fill:none;stroke:red;stroke-width:1px;stroke-linecap:butt;stroke-linejoin:miter;stroke-opacity:1" d="M 297.768,223.262 316.927,233.906 z" id="boundary" inkscape:connector-curvature="0" />
	<path style="fill:none;stroke:red;stroke-width:1px;stroke-linecap:butt;stroke-linejoin:miter;stroke-opacity:1" d="M 316.927,233.906 336.086,244.549 z" id="boundary" inkscape:connector-curvature="0" />
	<path style="fill:none;stroke:red;stroke-width:1px;stroke-linecap:butt;stroke-linejoin:miter;stroke-opacity:1" d="M 323.313,325.442 333.957,344.601 z" id="boundary" inkscape:connector-curvature="0" />
	<path style="fill:none;stroke:red;stroke-width:1px;stroke-linecap:butt;stroke-linejoin:miter;stroke-opacity:1" d="M 323.313,325.442 304.155,314.798 z" id="boundary" inkscape:connector-curvature="0" />
	<path style="fill:none;stroke:red;stroke-width:1px;stroke-linecap:butt;stroke-linejoin:miter;stroke-opacity:1" d="M 336.086,244.549 355.245,255.193 z" id="boundary" inkscape:connector-curvature="0" />
	<path style="fill:none;stroke:red;stroke-width:1px;stroke-linecap:butt;stroke-linejoin:miter;stroke-opacity:1" d="M 333.957,344.601 344.601,363.76 z" id="boundary" inkscape:connector-curvature="0" />
	<path style="fill:none;stroke:red;stroke-width:1px;stroke-linecap:butt;stroke-linejoin:miter;stroke-opacity:1" d="M 344.601,363.76 357.373,380.79 z" id="boundary" inkscape:connector-curvature="0" />
	<path style="fill:none;stroke:red;stroke-width:1px;stroke-linecap:butt;stroke-linejoin:miter;stroke-opacity:1" d="M 372.275,267.966 355.245,255.193 z" id="boundary" inkscape:connector-curvature="0" />
	<path style="fill:none;stroke:red;stroke-width:1px;stroke-linecap:butt;stroke-linejoin:miter;stroke-opacity:1" d="M 357.373,380.79 374.403,395.691 z" id="boundary" inkscape:connector-curvature="0" />
	<path style="fill:none;stroke:red;stroke-width:1px;stroke-linecap:butt;stroke-linejoin:miter;stroke-opacity:1" d="M 374.403,395.691 382.918,416.979 z" id="boundary" inkscape:connector-curvature="0" />
	<path style="fill:none;stroke:red;stroke-width:1px;stroke-linecap:butt;stroke-linejoin:miter;stroke-opacity:1" d="M 372.275,267.966 393.562,265.837 z" id="boundary" inkscape:connector-curvature="0" />
	<path style="fill:none;stroke:red;stroke-width:1px;stroke-linecap:butt;stroke-linejoin:miter;stroke-opacity:1" d="M 393.562,265.837 408.464,282.867 z" id="boundary" inkscape:connector-curvature="0" />
	<path style="fill:none;stroke:red;stroke-width:1px;stroke-linecap:butt;stroke-linejoin:miter;stroke-opacity:1" d="M 408.464,282.867 429.751,291.382 z" id="boundary" inkscape:connector-curvature="0" />
	<path style="fill:none;stroke:red;stroke-width:1px;stroke-linecap:butt;stroke-linejoin:miter;stroke-opacity:1" d="M 382.918,416.979 399.948,431.88 z" id="boundary" inkscape:connector-curvature="0" />
	<path style="fill:none;stroke:red;stroke-width:1px;stroke-linecap:butt;stroke-linejoin:miter;stroke-opacity:1" d="M 399.948,431.88 414.85,448.91 z" id="boundary" inkscape:connector-curvature="0" />
	<path style="fill:none;stroke:red;stroke-width:1px;stroke-linecap:butt;stroke-linejoin:miter;stroke-opacity:1" d="M 470.197,302.026 451.039,291.382 z" id="boundary" inkscape:connector-curvature="0" />
	<path style="fill:none;stroke:red;stroke-width:1px;stroke-linecap:butt;stroke-linejoin:miter;stroke-opacity:1" d="M 451.039,291.382 429.751,291.382 z" id="boundary" inkscape:connector-curvature="0" />
	<path style="fill:none;stroke:red;stroke-width:1px;stroke-linecap:butt;stroke-linejoin:miter;stroke-opacity:1" d="M 434.009,459.554 414.85,448.91 z" id="boundary" inkscape:connector-curvature="0" />
	<path style="fill:none;stroke:red;stroke-width:1px;stroke-linecap:butt;stroke-linejoin:miter;stroke-opacity:1" d="M 453.167,470.197 434.009,459.554 z" id="boundary" inkscape:connector-curvature="0" />
	<path style="fill:none;stroke:red;stroke-width:1px;stroke-linecap:butt;stroke-linejoin:miter;stroke-opacity:1" d="M 470.197,302.026 491.485,310.541 z" id="boundary" inkscape:connector-curvature="0" />
	<path style="fill:none;stroke:red;stroke-width:1px;stroke-linecap:butt;stroke-linejoin:miter;stroke-opacity:1" d="M 491.485,310.541 506.386,327.571 z" id="boundary" inkscape:connector-curvature="0" />
	<path style="fill:none;stroke:red;stroke-width:1px;stroke-linecap:butt;stroke-linejoin:miter;stroke-opacity:1" d="M 472.326,480.841 485.099,497.871 z" id="boundary" inkscape:connector-curvature="0" />
	<path style="fill:none;stroke:red;stroke-width:1px;stroke-linecap:butt;stroke-linejoin:miter;stroke-opacity:1" d="M 472.326,480.841 453.167,470.197 z" id="boundary" inkscape:connector-curvature="0" />
	<path style="fill:none;stroke:red;stroke-width:1px;stroke-linecap:butt;stroke-linejoin:miter;stroke-opacity:1" d="M 544.704,350.987 527.674,336.086 z" id="boundary" inkscape:connector-curvature="0" />
	<path style="fill:none;stroke:red;stroke-width:1px;stroke-linecap:butt;stroke-linejoin:miter;stroke-opacity:1" d="M 527.674,336.086 506.386,327.571 z" id="boundary" inkscape:connector-curvature="0" />
	<path style="fill:none;stroke:red;stroke-width:1px;stroke-linecap:butt;stroke-linejoin:miter;stroke-opacity:1" d="M 485.099,497.871 502.129,512.773 z" id="boundary" inkscape:connector-curvature="0" />
	<path style="fill:none;stroke:red;stroke-width:1px;stroke-linecap:butt;stroke-linejoin:miter;stroke-opacity:1" d="M 502.129,512.773 517.03,529.803 z" id="boundary" inkscape:connector-curvature="0" />
	<path style="fill:none;stroke:red;stroke-width:1px;stroke-linecap:butt;stroke-linejoin:miter;stroke-opacity:1" d="M 517.03,529.803 534.06,544.704 z" id="boundary" inkscape:connector-curvature="0" />
	<path style="fill:none;stroke:red;stroke-width:1px;stroke-linecap:butt;stroke-linejoin:miter;stroke-opacity:1" d="M 583.021,372.275 563.863,361.631 z" id="boundary" inkscape:connector-curvature="0" />
	<path style="fill:none;stroke:red;stroke-width:1px;stroke-linecap:butt;stroke-linejoin:miter;stroke-opacity:1" d="M 563.863,361.631 544.704,350.987 z" id="boundary" inkscape:connector-curvature="0" />
	<path style="fill:none;stroke:red;stroke-width:1px;stroke-linecap:butt;stroke-linejoin:miter;stroke-opacity:1" d="M 600.052,387.176 583.021,372.275 z" id="boundary" inkscape:connector-curvature="0" />
	<path style="fill:none;stroke:red;stroke-width:1px;stroke-linecap:butt;stroke-linejoin:miter;stroke-opacity:1" d="M 619.21,397.82 600.052,387.176 z" id="boundary" inkscape:connector-curvature="0" />
	<path style="fill:none;stroke:red;stroke-width:1px;stroke-linecap:butt;stroke-linejoin:miter;stroke-opacity:1" d="M 574.506,563.863 553.219,555.348 z" id="boundary" inkscape:connector-curvature="0" />
	<path style="fill:none;stroke:red;stroke-width:1px;stroke-linecap:butt;stroke-linejoin:miter;stroke-opacity:1" d="M 595.794,565.991 574.506,563.863 z" id="boundary" inkscape:connector-curvature="0" />
	<path style="fill:none;stroke:red;stroke-width:1px;stroke-linecap:butt;stroke-linejoin:miter;stroke-opacity:1" d="M 534.06,544.704 553.219,555.348 z" id="boundary" inkscape:connector-curvature="0" />
	<path style="fill:none;stroke:red;stroke-width:1px;stroke-linecap:butt;stroke-linejoin:miter;stroke-opacity:1" d="M 619.21,397.82 640.498,406.335 z" id="boundary" inkscape:connector-curvature="0" />
	<path style="fill:none;stroke:red;stroke-width:1px;stroke-linecap:butt;stroke-linejoin:miter;stroke-opacity:1" d="M 640.498,406.335 655.399,423.365 z" id="boundary" inkscape:connector-curvature="0" />
	<path style="fill:none;stroke:red;stroke-width:1px;stroke-linecap:butt;stroke-linejoin:miter;stroke-opacity:1" d="M 595.794,565.991 606.438,585.15 z" id="boundary" inkscape:connector-curvature="0" />
	<path style="fill:none;stroke:red;stroke-width:1px;stroke-linecap:butt;stroke-linejoin:miter;stroke-opacity:1" d="M 625.597,595.794 606.438,585.15 z" id="boundary" inkscape:connector-curvature="0" />
	<path style="fill:none;stroke:red;stroke-width:1px;stroke-linecap:butt;stroke-linejoin:miter;stroke-opacity:1" d="M 672.429,438.266 655.399,423.365 z" id="boundary" inkscape:connector-curvature="0" />
	<path style="fill:none;stroke:red;stroke-width:1px;stroke-linecap:butt;stroke-linejoin:miter;stroke-opacity:1" d="M 672.429,438.266 691.588,448.91 z" id="boundary" inkscape:connector-curvature="0" />
	<path style="fill:none;stroke:red;stroke-width:1px;stroke-linecap:butt;stroke-linejoin:miter;stroke-opacity:1" d="M 625.597,595.794 642.627,608.567 z" id="boundary" inkscape:connector-curvature="0" />
	<path style="fill:none;stroke:red;stroke-width:1px;stroke-linecap:butt;stroke-linejoin:miter;stroke-opacity:1" d="M 663.914,608.567 642.627,608.567 z" id="boundary" inkscape:connector-curvature="0" />
	<path style="fill:none;stroke:red;stroke-width:1px;stroke-linecap:butt;stroke-linejoin:miter;stroke-opacity:1" d="M 691.588,448.91 708.618,463.811 z" id="boundary" inkscape:connector-curvature="0" />
	<path style="fill:none;stroke:red;stroke-width:1px;stroke-linecap:butt;stroke-linejoin:miter;stroke-opacity:1" d="M 676.687,625.597 663.914,608.567 z" id="boundary" inkscape:connector-curvature="0" />
	<path style="fill:none;stroke:red;stroke-width:1px;stroke-linecap:butt;stroke-linejoin:miter;stroke-opacity:1" d="M 697.974,634.112 676.687,625.597 z" id="boundary" inkscape:connector-curvature="0" />
	<path style="fill:none;stroke:red;stroke-width:1px;stroke-linecap:butt;stroke-linejoin:miter;stroke-opacity:1" d="M 761.837,495.742 749.064,478.712 z" id="boundary" inkscape:connector-curvature="0" />
	<path style="fill:none;stroke:red;stroke-width:1px;stroke-linecap:butt;stroke-linejoin:miter;stroke-opacity:1" d="M 749.064,478.712 729.906,468.069 z" id="boundary" inkscape:connector-curvature="0" />
	<path style="fill:none;stroke:red;stroke-width:1px;stroke-linecap:butt;stroke-linejoin:miter;stroke-opacity:1" d="M 729.906,468.069 708.618,463.811 z" id="boundary" inkscape:connector-curvature="0" />
	<path style="fill:none;stroke:red;stroke-width:1px;stroke-linecap:butt;stroke-linejoin:miter;stroke-opacity:1" d="M 697.974,634.112 712.876,651.142 z" id="boundary" inkscape:connector-curvature="0" />
	<path style="fill:none;stroke:red;stroke-width:1px;stroke-linecap:butt;stroke-linejoin:miter;stroke-opacity:1" d="M 734.163,659.657 712.876,651.142 z" id="boundary" inkscape:connector-curvature="0" />
	<path style="fill:none;stroke:red;stroke-width:1px;stroke-linecap:butt;stroke-linejoin:miter;stroke-opacity:1" d="M 761.837,495.742 778.867,510.644 z" id="boundary" inkscape:connector-curvature="0" />
	<path style="fill:none;stroke:red;stroke-width:1px;stroke-linecap:butt;stroke-linejoin:miter;stroke-opacity:1" d="M 755.451,661.785 734.163,659.657 z" id="boundary" inkscape:connector-curvature="0" />
	<path style="fill:none;stroke:red;stroke-width:1px;stroke-linecap:butt;stroke-linejoin:miter;stroke-opacity:1" d="M 772.481,676.687 755.451,661.785 z" id="boundary" inkscape:connector-curvature="0" />
	<path style="fill:none;stroke:red;stroke-width:1px;stroke-linecap:butt;stroke-linejoin:miter;stroke-opacity:1" d="M 778.867,510.644 798.026,521.288 z" id="boundary" inkscape:connector-curvature="0" />
	<path style="fill:none;stroke:red;stroke-width:1px;stroke-linecap:butt;stroke-linejoin:miter;stroke-opacity:1" d="M 793.768,683.073 772.481,676.687 z" id="boundary" inkscape:connector-curvature="0" />
	<path style="fill:none;stroke:red;stroke-width:1px;stroke-linecap:butt;stroke-linejoin:miter;stroke-opacity:1" d="M 798.026,521.288 817.185,531.931 z" id="boundary" inkscape:connector-curvature="0" />
	<path style="fill:none;stroke:red;stroke-width:1px;stroke-linecap:butt;stroke-linejoin:miter;stroke-opacity:1" d="M 812.927,693.717 793.768,683.073 z" id="boundary" inkscape:connector-curvature="0" />
	<path style="fill:none;stroke:red;stroke-width:1px;stroke-linecap:butt;stroke-linejoin:miter;stroke-opacity:1" d="M 846.987,563.863 834.215,546.833 z" id="boundary" inkscape:connector-curvature="0" />
	<path style="fill:none;stroke:red;stroke-width:1px;stroke-linecap:butt;stroke-linejoin:miter;stroke-opacity:1" d="M 834.215,546.833 817.185,531.931 z" id="boundary" inkscape:connector-curvature="0" />
	<path style="fill:none;stroke:red;stroke-width:1px;stroke-linecap:butt;stroke-linejoin:miter;stroke-opacity:1" d="M 857.631,583.021 846.987,563.863 z" id="boundary" inkscape:connector-curvature="0" />
	<path style="fill:none;stroke:red;stroke-width:1px;stroke-linecap:butt;stroke-linejoin:miter;stroke-opacity:1" d="M 834.215,693.717 812.927,693.717 z" id="boundary" inkscape:connector-curvature="0" />
	<path style="fill:none;stroke:red;stroke-width:1px;stroke-linecap:butt;stroke-linejoin:miter;stroke-opacity:1" d="M 846.987,710.747 834.215,693.717 z" id="boundary" inkscape:connector-curvature="0" />
	<path style="fill:none;stroke:red;stroke-width:1px;stroke-linecap:butt;stroke-linejoin:miter;stroke-opacity:1" d="M 857.631,583.021 874.661,595.794 z" id="boundary" inkscape:connector-curvature="0" />
	<path style="fill:none;stroke:red;stroke-width:1px;stroke-linecap:butt;stroke-linejoin:miter;stroke-opacity:1" d="M 925.751,746.936 944.91,757.579 z" id="boundary" inkscape:connector-curvature="0" />
	<path style="fill:none;stroke:red;stroke-width:1px;stroke-linecap:butt;stroke-linejoin:miter;stroke-opacity:1" d="M 868.275,715.004 846.987,710.747 z" id="boundary" inkscape:connector-curvature="0" />
	<path style="fill:none;stroke:red;stroke-width:1px;stroke-linecap:butt;stroke-linejoin:miter;stroke-opacity:1" d="M 874.661,595.794 889.562,612.824 z" id="boundary" inkscape:connector-curvature="0" />
	<path style="fill:none;stroke:red;stroke-width:1px;stroke-linecap:butt;stroke-linejoin:miter;stroke-opacity:1" d="M 887.433,725.648 868.275,715.004 z" id="boundary" inkscape:connector-curvature="0" />
	<path style="fill:none;stroke:red;stroke-width:1px;stroke-linecap:butt;stroke-linejoin:miter;stroke-opacity:1" d="M 889.562,612.824 908.721,623.468 z" id="boundary" inkscape:connector-curvature="0" />
	<path style="fill:none;stroke:red;stroke-width:1px;stroke-linecap:butt;stroke-linejoin:miter;stroke-opacity:1" d="M 906.592,736.292 887.433,725.648 z" id="boundary" inkscape:connector-curvature="0" />
	<path style="fill:none;stroke:red;stroke-width:1px;stroke-linecap:butt;stroke-linejoin:miter;stroke-opacity:1" d="M 908.721,623.468 930.009,627.725 z" id="boundary" inkscape:connector-curvature="0" />
	<path style="fill:none;stroke:red;stroke-width:1px;stroke-linecap:butt;stroke-linejoin:miter;stroke-opacity:1" d="M 930.009,627.725 942.781,644.755 z" id="boundary" inkscape:connector-curvature="0" />
	<path style="fill:none;stroke:red;stroke-width:1px;stroke-linecap:butt;stroke-linejoin:miter;stroke-opacity:1" d="M 925.751,746.936 906.592,736.292 z" id="boundary" inkscape:connector-curvature="0" />
	<path style="fill:none;stroke:red;stroke-width:1px;stroke-linecap:butt;stroke-linejoin:miter;stroke-opacity:1" d="M 959.811,659.657 942.781,644.755 z" id="boundary" inkscape:connector-curvature="0" />
	<path style="fill:none;stroke:red;stroke-width:1px;stroke-linecap:butt;stroke-linejoin:miter;stroke-opacity:1" d="M 959.811,659.657 978.97,670.3 z" id="boundary" inkscape:connector-curvature="0" />
	<path style="fill:none;stroke:red;stroke-width:1px;stroke-linecap:butt;stroke-linejoin:miter;stroke-opacity:1" d="M 983.227,740.549 966.197,757.579 z" id="boundary" inkscape:connector-curvature="0" />
	<path style="fill:none;stroke:red;stroke-width:1px;stroke-linecap:butt;stroke-linejoin:miter;stroke-opacity:1" d="M 966.197,757.579 944.91,757.579 z" id="boundary" inkscape:connector-curvature="0" />
	<path style="fill:none;stroke:red;stroke-width:1px;stroke-linecap:butt;stroke-linejoin:miter;stroke-opacity:1" d="M 993.871,687.33 996,708.618 z" id="boundary" inkscape:connector-curvature="0" />
	<path style="fill:none;stroke:red;stroke-width:1px;stroke-linecap:butt;stroke-linejoin:miter;stroke-opacity:1" d="M 993.871,687.33 978.97,670.3 z" id="boundary" inkscape:connector-curvature="0" />
	<path style="fill:none;stroke:red;stroke-width:1px;stroke-linecap:butt;stroke-linejoin:miter;stroke-opacity:1" d="M 996,708.618 983.227,740.549 z" id="boundary" inkscape:connector-curvature="0" />
	<circle cx="4" cy="208.361" r="4" fill="#0" id="circle0"/>
	<circle cx="14.6438" cy="227.519" r="4" fill="#0" id="circle1"/>
	<circle cx="21.03" cy="191.33" r="4" fill="#0" id="circle2"/>
	<circle cx="29.5451" cy="244.549" r="4" fill="#0" id="circle3"/>
	<circle cx="38.0601" cy="174.3" r="4" fill="#0" id="circle4"/>
	<circle cx="46.5751" cy="257.322" r="4" fill="#0" id="circle5"/>
	<circle cx="55.0901" cy="159.399" r="4" fill="#0" id="circle6"/>
	<circle cx="63.6052" cy="138.112" r="4" fill="#0" id="circle7"/>
	<circle cx="65.7339" cy="267.966" r="4" fill="#0" id="circle8"/>
	<circle cx="78.5064" cy="112.567" r="4" fill="#0" id="circle9"/>
	<circle cx="87.0215" cy="267.966" r="4" fill="#0" id="circle10"/>
	<circle cx="95.5365" cy="95.5365" r="4" fill="#0" id="circle11"/>
	<circle cx="106.18" cy="74.2489" r="4" fill="#0" id="circle12"/>
	<circle cx="106.18" cy="278.609" r="4" fill="#0" id="circle13"/>
	<circle cx="121.082" cy="48.7039" r="4" fill="#0" id="circle14"/>
	<circle cx="121.082" cy="261.579" r="4" fill="#0" id="circle15"/>
	<circle cx="138.112" cy="31.6738" r="4" fill="#0" id="circle16"/>
	<circle cx="138.112" cy="244.549" r="4" fill="#0" id="circle17"/>
	<circle cx="148.755" cy="223.262" r="4" fill="#0" id="circle18"/>
	<circle cx="153.013" cy="6.12876" r="4" fill="#0" id="circle19"/>
	<circle cx="170.043" cy="214.747" r="4" fill="#0" id="circle20"/>
	<circle cx="174.3" cy="4" r="4" fill="#0" id="circle21"/>
	<circle cx="191.33" cy="223.262" r="4" fill="#0" id="circle22"/>
	<circle cx="193.459" cy="14.6438" r="4" fill="#0" id="circle23"/>
	<circle cx="206.232" cy="240.292" r="4" fill="#0" id="circle24"/>
	<circle cx="208.361" cy="140.24" r="4" fill="#0" id="circle25"/>
	<circle cx="212.618" cy="161.528" r="4" fill="#0" id="circle26"/>
	<circle cx="214.747" cy="23.1588" r="4" fill="#0" id="circle27"/>
	<circle cx="219.004" cy="118.953" r="4" fill="#0" id="circle28"/>
	<circle cx="223.262" cy="255.193" r="4" fill="#0" id="circle29"/>
	<circle cx="229.648" cy="176.429" r="4" fill="#0" id="circle30"/>
	<circle cx="233.906" cy="33.8026" r="4" fill="#0" id="circle31"/>
	<circle cx="236.034" cy="104.052" r="4" fill="#0" id="circle32"/>
	<circle cx="242.421" cy="265.837" r="4" fill="#0" id="circle33"/>
	<circle cx="250.936" cy="48.7039" r="4" fill="#0" id="circle34"/>
	<circle cx="250.936" cy="87.0215" r="4" fill="#0" id="circle35"/>
	<circle cx="250.936" cy="180.687" r="4" fill="#0" id="circle36"/>
	<circle cx="259.451" cy="278.609" r="4" fill="#0" id="circle37"/>
	<circle cx="261.579" cy="67.8627" r="4" fill="#0" id="circle38"/>
	<circle cx="267.966" cy="193.459" r="4" fill="#0" id="circle39"/>
	<circle cx="280.738" cy="278.609" r="4" fill="#0" id="circle40"/>
	<circle cx="287.124" cy="204.103" r="4" fill="#0" id="circle41"/>
	<circle cx="291.382" cy="297.768" r="4" fill="#0" id="circle42"/>
	<circle cx="297.768" cy="223.262" r="4" fill="#0" id="circle43"/>
	<circle cx="304.155" cy="314.798" r="4" fill="#0" id="circle44"/>
	<circle cx="316.927" cy="233.906" r="4" fill="#0" id="circle45"/>
	<circle cx="323.313" cy="325.442" r="4" fill="#0" id="circle46"/>
	<circle cx="333.957" cy="344.601" r="4" fill="#0" id="circle47"/>
	<circle cx="336.086" cy="244.549" r="4" fill="#0" id="circle48"/>
	<circle cx="344.601" cy="363.76" r="4" fill="#0" id="circle49"/>
	<circle cx="355.245" cy="255.193" r="4" fill="#0" id="circle50"/>
	<circle cx="357.373" cy="380.79" r="4" fill="#0" id="circle51"/>
	<circle cx="372.275" cy="267.966" r="4" fill="#0" id="circle52"/>
	<circle cx="374.403" cy="395.691" r="4" fill="#0" id="circle53"/>
	<circle cx="382.918" cy="416.979" r="4" fill="#0" id="circle54"/>
	<circle cx="393.562" cy="265.837" r="4" fill="#0" id="circle55"/>
	<circle cx="399.948" cy="431.88" r="4" fill="#0" id="circle56"/>
	<circle cx="408.464" cy="282.867" r="4" fill="#0" id="circle57"/>
	<circle cx="414.85" cy="448.91" r="4" fill="#0" id="circle58"/>
	<circle cx="429.751" cy="291.382" r="4" fill="#0" id="circle59"/>
	<circle cx="434.009" cy="459.554" r="4" fill="#0" id="circle60"/>
	<circle cx="451.039" cy="291.382" r="4" fill="#0" id="circle61"/>
	<circle cx="453.167" cy="470.197" r="4" fill="#0" id="circle62"/>
	<circle cx="470.197" cy="302.026" r="4" fill="#0" id="circle63"/>
	<circle cx="472.326" cy="480.841" r="4" fill="#0" id="circle64"/>
	<circle cx="485.099" cy="497.871" r="4" fill="#0" id="circle65"/>
	<circle cx="491.485" cy="310.541" r="4" fill="#0" id="circle66"/>
	<circle cx="502.129" cy="512.773" r="4" fill="#0" id="circle67"/>
	<circle cx="506.386" cy="327.571" r="4" fill="#0" id="circle68"/>
	<circle cx="517.03" cy="529.803" r="4" fill="#0" id="circle69"/>
	<circle cx="527.674" cy="336.086" r="4" fill="#0" id="circle70"/>
	<circle cx="534.06" cy="544.704" r="4" fill="#0" id="circle71"/>
	<circle cx="544.704" cy="350.987" r="4" fill="#0" id="circle72"/>
	<circle cx="553.219" cy="555.348" r="4" fill="#0" id="circle73"/>
	<circle cx="563.863" cy="361.631" r="4" fill="#0" id="circle74"/>
	<circle cx="574.506" cy="563.863" r="4" fill="#0" id="circle75"/>
	<circle cx="583.021" cy="372.275" r="4" fill="#0" id="circle76"/>
	<circle cx="595.794" cy="565.991" r="4" fill="#0" id="circle77"/>
	<circle cx="600.052" cy="387.176" r="4" fill="#0" id="circle78"/>
	<circle cx="606.438" cy="585.15" r="4" fill="#0" id="circle79"/>
	<circle cx="619.21" cy="397.82" r="4" fill="#0" id="circle80"/>
	<circle cx="625.597" cy="595.794" r="4" fill="#0" id="circle81"/>
	<circle cx="640.498" cy="406.335" r="4" fill="#0" id="circle82"/>
	<circle cx="642.627" cy="608.567" r="4" fill="#0" id="circle83"/>
	<circle cx="655.399" cy="423.365" r="4" fill="#0" id="circle84"/>
	<circle cx="663.914" cy="608.567" r="4" fill="#0" id="circle85"/>
	<circle cx="672.429" cy="438.266" r="4" fill="#0" id="circle86"/>
	<circle cx="676.687" cy="625.597" r="4" fill="#0" id="circle87"/>
	<circle cx="691.588" cy="448.91" r="4" fill="#0" id="circle88"/>
	<circle cx="697.974" cy="634.112" r="4" fill="#0" id="circle89"/>
	<circle cx="708.618" cy="463.811" r="4" fill="#0" id="circle90"/>
	<circle cx="712.876" cy="651.142" r="4" fill="#0" id="circle91"/>
	<circle cx="729.906" cy="468.069" r="4" fill="#0" id="circle92"/>
	<circle cx="734.163" cy="659.657" r="4" fill="#0" id="circle93"/>
	<circle cx="749.064" cy="478.712" r="4" fill="#0" id="circle94"/>
	<circle cx="755.451" cy="661.785" r="4" fill="#0" id="circle95"/>
	<circle cx="761.837" cy="495.742" r="4" fill="#0" id="circle96"/>
	<circle cx="772.481" cy="676.687" r="4" fill="#0" id="circle97"/>
	<circle cx="778.867" cy="510.644" r="4" fill="#0" id="circle98"/>
	<circle cx="793.768" cy="683.073" r="4" fill="#0" id="circle99"/>
	<circle cx="798.026" cy="521.288" r="4" fill="#0" id="circle100"/>
	<circle cx="812.927" cy="693.717" r="4" fill="#0" id="circle101"/>
	<circle cx="817.185" cy="531.931" r="4" fill="#0" id="circle102"/>
	<circle cx="834.215" cy="546.833" r="4" fill="#0" id="circle103"/>
	<circle cx="834.215" cy="693.717" r="4" fill="#0" id="circle104"/>
	<circle cx="846.987" cy="563.863" r="4" fill="#0" id="circle105"/>
	<circle cx="846.987" cy="710.747" r="4" fill="#0" id="circle106"/>
	<circle cx="857.631" cy="583.021" r="4" fill="#0" id="circle107"/>
	<circle cx="868.275" cy="715.004" r="4" fill="#0" id="circle108"/>
	<circle cx="874.661" cy="595.794" r="4" fill="#0" id="circle109"/>
	<circle cx="887.433" cy="725.648" r="4" fill="#0" id="circle110"/>
	<circle cx="889.562" cy="612.824" r="4" fill="#0" id="circle111"/>
	<circle cx="906.592" cy="736.292" r="4" fill="#0" id="circle112"/>
	<circle cx="908.721" cy="623.468" r="4" fill="#0" id="circle113"/>
	<circle cx="925.751" cy="746.936" r="4" fill="#0" id="circle114"/>
	<circle cx="930.009" cy="627.725" r="4" fill="#0" id="circle115"/>
	<circle cx="942.781" cy="644.755" r="4" fill="#0" id="circle116"/>
	<circle cx="944.91" cy="757.579" r="4" fill="#0" id="circle117"/>
	<circle cx="959.811" cy="659.657" r="4" fill="#0" id="circle118"/>
	<circle cx="966.197" cy="757.579" r="4" fill="#0" id="circle119"/>
	<circle cx="978.97" cy="670.3" r="4" fill="#0" id="circle120"/>
	<circle cx="983.227" cy="740.549" r="4" fill="#0" id="circle121"/>
	<circle cx="993.871" cy="687.33" r="4" fill="#0" id="circle122"/>
	<circle cx="996" cy="708.618" r="4" fill="#0" id="circle123"/>
	</g>
</svg>