<?xml version="1.0" encoding="UTF-8" standalone="no"?>
<!-- Created with CurveBenchmark -->
<svg
	xmlns:dc="http://purl.org/dc/elements/1.1/"
	xmlns:cc="http://creativecommons.org/ns#"
	xmlns:rdf="http://www.w3.org/1999/02/22-rdf-syntax-ns#"
	xmlns:svg="http://www.w3.org/2000/svg"
	xmlns="http://www.w3.org/2000/svg"
	xmlns:sodipodi="http://sodipodi.sourceforge.net/DTD/sodipodi-0.dtd"
	xmlns:inkscape="http://www.inkscape.org/namespaces/inkscape"
	width="1000"
	height="1000"
	id="svg2"
	version="1.1"
	sodipodi:docname="manifold/peel-television300.png.txt">
<defs
	id="defs4" />
<metadata
	id="metadata7">
	<rdf:RDF>
		<cc:Work
			rdf:about="">
			<dc:format>image/svg+xml</dc:format>
			<dc:type
				rdf:resource="http://purl.org/dc/dcmitype/StillImage" />
			<dc:title></dc:title>
		</cc:Work>
	</rdf:RDF>
</metadata>
<g
	inkscape:label="Layer 1"
	inkscape:groupmode="layer"
	id="layer1">
	<path style="fill:none;stroke:red;stroke-width:1px;stroke-linecap:butt;stroke-linejoin:miter;stroke-opacity:1" d="M 4,948.762 4,909.397 z" id="boundary" inkscape:connector-curvature="0" />
	<path style="fill:none;stroke:red;stroke-width:1px;stroke-linecap:butt;stroke-linejoin:miter;stroke-opacity:1" d="M 4,909.397 43.3651,901.524 z" id="boundary" inkscape:connector-curvature="0" />
	<path style="fill:none;stroke:red;stroke-width:1px;stroke-linecap:butt;stroke-linejoin:miter;stroke-opacity:1" d="M 4,948.762 23.6825,984.19 z" id="boundary" inkscape:connector-curvature="0" />
	<path style="fill:none;stroke:red;stroke-width:1px;stroke-linecap:butt;stroke-linejoin:miter;stroke-opacity:1" d="M 23.6825,984.19 63.0476,996 z" id="boundary" inkscape:connector-curvature="0" />
	<path style="fill:none;stroke:red;stroke-width:1px;stroke-linecap:butt;stroke-linejoin:miter;stroke-opacity:1" d="M 102.413,984.19 141.778,984.19 z" id="boundary" inkscape:connector-curvature="0" />
	<path style="fill:none;stroke:red;stroke-width:1px;stroke-linecap:butt;stroke-linejoin:miter;stroke-opacity:1" d="M 102.413,984.19 63.0476,996 z" id="boundary" inkscape:connector-curvature="0" />
	<path style="fill:none;stroke:red;stroke-width:1px;stroke-linecap:butt;stroke-linejoin:miter;stroke-opacity:1" d="M 43.3651,901.524 82.7302,901.524 z" id="boundary" inkscape:connector-curvature="0" />
	<path style="fill:none;stroke:red;stroke-width:1px;stroke-linecap:butt;stroke-linejoin:miter;stroke-opacity:1" d="M 82.7302,901.524 122.095,901.524 z" id="boundary" inkscape:connector-curvature="0" />
	<path style="fill:none;stroke:red;stroke-width:1px;stroke-linecap:butt;stroke-linejoin:miter;stroke-opacity:1" d="M 141.778,984.19 181.143,984.19 z" id="boundary" inkscape:connector-curvature="0" />
	<path style="fill:none;stroke:red;stroke-width:1px;stroke-linecap:butt;stroke-linejoin:miter;stroke-opacity:1" d="M 169.333,692.889 137.841,665.333 z" id="boundary" inkscape:connector-curvature="0" />
	<path style="fill:none;stroke:red;stroke-width:1px;stroke-linecap:butt;stroke-linejoin:miter;stroke-opacity:1" d="M 122.095,901.524 161.46,901.524 z" id="boundary" inkscape:connector-curvature="0" />
	<path style="fill:none;stroke:red;stroke-width:1px;stroke-linecap:butt;stroke-linejoin:miter;stroke-opacity:1" d="M 181.143,984.19 220.508,984.19 z" id="boundary" inkscape:connector-curvature="0" />
	<path style="fill:none;stroke:red;stroke-width:1px;stroke-linecap:butt;stroke-linejoin:miter;stroke-opacity:1" d="M 177.206,783.429 137.841,783.429 z" id="boundary" inkscape:connector-curvature="0" />
	<path style="fill:none;stroke:red;stroke-width:1px;stroke-linecap:butt;stroke-linejoin:miter;stroke-opacity:1" d="M 185.079,51.2381 185.079,11.873 z" id="boundary" inkscape:connector-curvature="0" />
	<path style="fill:none;stroke:red;stroke-width:1px;stroke-linecap:butt;stroke-linejoin:miter;stroke-opacity:1" d="M 157.524,818.857 196.889,818.857 z" id="boundary" inkscape:connector-curvature="0" />
	<path style="fill:none;stroke:red;stroke-width:1px;stroke-linecap:butt;stroke-linejoin:miter;stroke-opacity:1" d="M 185.079,51.2381 185.079,90.6032 z" id="boundary" inkscape:connector-curvature="0" />
	<path style="fill:none;stroke:red;stroke-width:1px;stroke-linecap:butt;stroke-linejoin:miter;stroke-opacity:1" d="M 185.079,169.333 185.079,129.968 z" id="boundary" inkscape:connector-curvature="0" />
	<path style="fill:none;stroke:red;stroke-width:1px;stroke-linecap:butt;stroke-linejoin:miter;stroke-opacity:1" d="M 185.079,129.968 185.079,90.6032 z" id="boundary" inkscape:connector-curvature="0" />
	<path style="fill:none;stroke:red;stroke-width:1px;stroke-linecap:butt;stroke-linejoin:miter;stroke-opacity:1" d="M 185.079,208.698 185.079,169.333 z" id="boundary" inkscape:connector-curvature="0" />
	<path style="fill:none;stroke:red;stroke-width:1px;stroke-linecap:butt;stroke-linejoin:miter;stroke-opacity:1" d="M 220.508,984.19 259.873,984.19 z" id="boundary" inkscape:connector-curvature="0" />
	<path style="fill:none;stroke:red;stroke-width:1px;stroke-linecap:butt;stroke-linejoin:miter;stroke-opacity:1" d="M 259.873,984.19 299.238,992.063 z" id="boundary" inkscape:connector-curvature="0" />
	<path style="fill:none;stroke:red;stroke-width:1px;stroke-linecap:butt;stroke-linejoin:miter;stroke-opacity:1" d="M 185.079,248.063 185.079,208.698 z" id="boundary" inkscape:connector-curvature="0" />
	<path style="fill:none;stroke:red;stroke-width:1px;stroke-linecap:butt;stroke-linejoin:miter;stroke-opacity:1" d="M 185.079,11.873 224.444,4 z" id="boundary" inkscape:connector-curvature="0" />
	<path style="fill:none;stroke:red;stroke-width:1px;stroke-linecap:butt;stroke-linejoin:miter;stroke-opacity:1" d="M 185.079,287.429 185.079,248.063 z" id="boundary" inkscape:connector-curvature="0" />
	<path style="fill:none;stroke:red;stroke-width:1px;stroke-linecap:butt;stroke-linejoin:miter;stroke-opacity:1" d="M 263.81,4 224.444,4 z" id="boundary" inkscape:connector-curvature="0" />
	<path style="fill:none;stroke:red;stroke-width:1px;stroke-linecap:butt;stroke-linejoin:miter;stroke-opacity:1" d="M 185.079,326.794 185.079,287.429 z" id="boundary" inkscape:connector-curvature="0" />
	<path style="fill:none;stroke:red;stroke-width:1px;stroke-linecap:butt;stroke-linejoin:miter;stroke-opacity:1" d="M 185.079,366.159 185.079,326.794 z" id="boundary" inkscape:connector-curvature="0" />
	<path style="fill:none;stroke:red;stroke-width:1px;stroke-linecap:butt;stroke-linejoin:miter;stroke-opacity:1" d="M 263.81,4 303.175,4 z" id="boundary" inkscape:connector-curvature="0" />
	<path style="fill:none;stroke:red;stroke-width:1px;stroke-linecap:butt;stroke-linejoin:miter;stroke-opacity:1" d="M 185.079,366.159 185.079,405.524 z" id="boundary" inkscape:connector-curvature="0" />
	<path style="fill:none;stroke:red;stroke-width:1px;stroke-linecap:butt;stroke-linejoin:miter;stroke-opacity:1" d="M 303.175,4 342.54,4 z" id="boundary" inkscape:connector-curvature="0" />
	<path style="fill:none;stroke:red;stroke-width:1px;stroke-linecap:butt;stroke-linejoin:miter;stroke-opacity:1" d="M 185.079,405.524 185.079,444.889 z" id="boundary" inkscape:connector-curvature="0" />
	<path style="fill:none;stroke:red;stroke-width:1px;stroke-linecap:butt;stroke-linejoin:miter;stroke-opacity:1" d="M 185.079,444.889 185.079,484.254 z" id="boundary" inkscape:connector-curvature="0" />
	<path style="fill:none;stroke:red;stroke-width:1px;stroke-linecap:butt;stroke-linejoin:miter;stroke-opacity:1" d="M 381.905,4 342.54,4 z" id="boundary" inkscape:connector-curvature="0" />
	<path style="fill:none;stroke:red;stroke-width:1px;stroke-linecap:butt;stroke-linejoin:miter;stroke-opacity:1" d="M 185.079,484.254 189.016,523.619 z" id="boundary" inkscape:connector-curvature="0" />
	<path style="fill:none;stroke:red;stroke-width:1px;stroke-linecap:butt;stroke-linejoin:miter;stroke-opacity:1" d="M 685.016,192.952 685.016,232.317 z" id="boundary" inkscape:connector-curvature="0" />
	<path style="fill:none;stroke:red;stroke-width:1px;stroke-linecap:butt;stroke-linejoin:miter;stroke-opacity:1" d="M 208.698,692.889 169.333,692.889 z" id="boundary" inkscape:connector-curvature="0" />
	<path style="fill:none;stroke:red;stroke-width:1px;stroke-linecap:butt;stroke-linejoin:miter;stroke-opacity:1" d="M 189.016,523.619 228.381,527.556 z" id="boundary" inkscape:connector-curvature="0" />
	<path style="fill:none;stroke:red;stroke-width:1px;stroke-linecap:butt;stroke-linejoin:miter;stroke-opacity:1" d="M 161.46,901.524 200.825,901.524 z" id="boundary" inkscape:connector-curvature="0" />
	<path style="fill:none;stroke:red;stroke-width:1px;stroke-linecap:butt;stroke-linejoin:miter;stroke-opacity:1" d="M 216.571,783.429 177.206,783.429 z" id="boundary" inkscape:connector-curvature="0" />
	<path style="fill:none;stroke:red;stroke-width:1px;stroke-linecap:butt;stroke-linejoin:miter;stroke-opacity:1" d="M 196.889,818.857 236.254,818.857 z" id="boundary" inkscape:connector-curvature="0" />
	<path style="fill:none;stroke:red;stroke-width:1px;stroke-linecap:butt;stroke-linejoin:miter;stroke-opacity:1" d="M 228.381,657.46 189.016,657.46 z" id="boundary" inkscape:connector-curvature="0" />
	<path style="fill:none;stroke:red;stroke-width:1px;stroke-linecap:butt;stroke-linejoin:miter;stroke-opacity:1" d="M 248.063,692.889 208.698,692.889 z" id="boundary" inkscape:connector-curvature="0" />
	<path style="fill:none;stroke:red;stroke-width:1px;stroke-linecap:butt;stroke-linejoin:miter;stroke-opacity:1" d="M 200.825,901.524 240.19,901.524 z" id="boundary" inkscape:connector-curvature="0" />
	<path style="fill:none;stroke:red;stroke-width:1px;stroke-linecap:butt;stroke-linejoin:miter;stroke-opacity:1" d="M 287.429,562.984 267.746,527.556 z" id="boundary" inkscape:connector-curvature="0" />
	<path style="fill:none;stroke:red;stroke-width:1px;stroke-linecap:butt;stroke-linejoin:miter;stroke-opacity:1" d="M 267.746,527.556 228.381,527.556 z" id="boundary" inkscape:connector-curvature="0" />
	<path style="fill:none;stroke:red;stroke-width:1px;stroke-linecap:butt;stroke-linejoin:miter;stroke-opacity:1" d="M 255.937,783.429 216.571,783.429 z" id="boundary" inkscape:connector-curvature="0" />
	<path style="fill:none;stroke:red;stroke-width:1px;stroke-linecap:butt;stroke-linejoin:miter;stroke-opacity:1" d="M 236.254,818.857 275.619,818.857 z" id="boundary" inkscape:connector-curvature="0" />
	<path style="fill:none;stroke:red;stroke-width:1px;stroke-linecap:butt;stroke-linejoin:miter;stroke-opacity:1" d="M 275.619,818.857 287.429,858.222 z" id="boundary" inkscape:connector-curvature="0" />
	<path style="fill:none;stroke:red;stroke-width:1px;stroke-linecap:butt;stroke-linejoin:miter;stroke-opacity:1" d="M 267.746,657.46 228.381,657.46 z" id="boundary" inkscape:connector-curvature="0" />
	<path style="fill:none;stroke:red;stroke-width:1px;stroke-linecap:butt;stroke-linejoin:miter;stroke-opacity:1" d="M 287.429,562.984 287.429,602.349 z" id="boundary" inkscape:connector-curvature="0" />
	<path style="fill:none;stroke:red;stroke-width:1px;stroke-linecap:butt;stroke-linejoin:miter;stroke-opacity:1" d="M 287.429,696.825 248.063,692.889 z" id="boundary" inkscape:connector-curvature="0" />
	<path style="fill:none;stroke:red;stroke-width:1px;stroke-linecap:butt;stroke-linejoin:miter;stroke-opacity:1" d="M 287.429,736.19 287.429,696.825 z" id="boundary" inkscape:connector-curvature="0" />
	<path style="fill:none;stroke:red;stroke-width:1px;stroke-linecap:butt;stroke-linejoin:miter;stroke-opacity:1" d="M 381.905,4 421.27,4 z" id="boundary" inkscape:connector-curvature="0" />
	<path style="fill:none;stroke:red;stroke-width:1px;stroke-linecap:butt;stroke-linejoin:miter;stroke-opacity:1" d="M 240.19,901.524 279.556,901.524 z" id="boundary" inkscape:connector-curvature="0" />
	<path style="fill:none;stroke:red;stroke-width:1px;stroke-linecap:butt;stroke-linejoin:miter;stroke-opacity:1" d="M 287.429,602.349 267.746,657.46 z" id="boundary" inkscape:connector-curvature="0" />
	<path style="fill:none;stroke:red;stroke-width:1px;stroke-linecap:butt;stroke-linejoin:miter;stroke-opacity:1" d="M 338.603,984.19 377.968,984.19 z" id="boundary" inkscape:connector-curvature="0" />
	<path style="fill:none;stroke:red;stroke-width:1px;stroke-linecap:butt;stroke-linejoin:miter;stroke-opacity:1" d="M 338.603,984.19 299.238,992.063 z" id="boundary" inkscape:connector-curvature="0" />
	<path style="fill:none;stroke:red;stroke-width:1px;stroke-linecap:butt;stroke-linejoin:miter;stroke-opacity:1" d="M 287.429,736.19 255.937,783.429 z" id="boundary" inkscape:connector-curvature="0" />
	<path style="fill:none;stroke:red;stroke-width:1px;stroke-linecap:butt;stroke-linejoin:miter;stroke-opacity:1" d="M 500,4 460.635,4 z" id="boundary" inkscape:connector-curvature="0" />
	<path style="fill:none;stroke:red;stroke-width:1px;stroke-linecap:butt;stroke-linejoin:miter;stroke-opacity:1" d="M 464.571,570.857 464.571,531.492 z" id="boundary" inkscape:connector-curvature="0" />
	<path style="fill:none;stroke:red;stroke-width:1px;stroke-linecap:butt;stroke-linejoin:miter;stroke-opacity:1" d="M 464.571,736.19 464.571,696.825 z" id="boundary" inkscape:connector-curvature="0" />
	<path style="fill:none;stroke:red;stroke-width:1px;stroke-linecap:butt;stroke-linejoin:miter;stroke-opacity:1" d="M 279.556,901.524 287.429,858.222 z" id="boundary" inkscape:connector-curvature="0" />
	<path style="fill:none;stroke:red;stroke-width:1px;stroke-linecap:butt;stroke-linejoin:miter;stroke-opacity:1" d="M 464.571,570.857 464.571,610.222 z" id="boundary" inkscape:connector-curvature="0" />
	<path style="fill:none;stroke:red;stroke-width:1px;stroke-linecap:butt;stroke-linejoin:miter;stroke-opacity:1" d="M 377.968,984.19 417.333,984.19 z" id="boundary" inkscape:connector-curvature="0" />
	<path style="fill:none;stroke:red;stroke-width:1px;stroke-linecap:butt;stroke-linejoin:miter;stroke-opacity:1" d="M 460.635,4 421.27,4 z" id="boundary" inkscape:connector-curvature="0" />
	<path style="fill:none;stroke:red;stroke-width:1px;stroke-linecap:butt;stroke-linejoin:miter;stroke-opacity:1" d="M 417.333,984.19 456.698,984.19 z" id="boundary" inkscape:connector-curvature="0" />
	<path style="fill:none;stroke:red;stroke-width:1px;stroke-linecap:butt;stroke-linejoin:miter;stroke-opacity:1" d="M 464.571,862.159 464.571,822.794 z" id="boundary" inkscape:connector-curvature="0" />
	<path style="fill:none;stroke:red;stroke-width:1px;stroke-linecap:butt;stroke-linejoin:miter;stroke-opacity:1" d="M 456.698,984.19 496.063,984.19 z" id="boundary" inkscape:connector-curvature="0" />
	<path style="fill:none;stroke:red;stroke-width:1px;stroke-linecap:butt;stroke-linejoin:miter;stroke-opacity:1" d="M 496.063,984.19 535.429,984.19 z" id="boundary" inkscape:connector-curvature="0" />
	<path style="fill:none;stroke:red;stroke-width:1px;stroke-linecap:butt;stroke-linejoin:miter;stroke-opacity:1" d="M 464.571,610.222 464.571,649.587 z" id="boundary" inkscape:connector-curvature="0" />
	<path style="fill:none;stroke:red;stroke-width:1px;stroke-linecap:butt;stroke-linejoin:miter;stroke-opacity:1" d="M 507.873,901.524 547.238,901.524 z" id="boundary" inkscape:connector-curvature="0" />
	<path style="fill:none;stroke:red;stroke-width:1px;stroke-linecap:butt;stroke-linejoin:miter;stroke-opacity:1" d="M 539.365,4 500,4 z" id="boundary" inkscape:connector-curvature="0" />
	<path style="fill:none;stroke:red;stroke-width:1px;stroke-linecap:butt;stroke-linejoin:miter;stroke-opacity:1" d="M 464.571,531.492 503.937,527.556 z" id="boundary" inkscape:connector-curvature="0" />
	<path style="fill:none;stroke:red;stroke-width:1px;stroke-linecap:butt;stroke-linejoin:miter;stroke-opacity:1" d="M 464.571,736.19 464.571,775.556 z" id="boundary" inkscape:connector-curvature="0" />
	<path style="fill:none;stroke:red;stroke-width:1px;stroke-linecap:butt;stroke-linejoin:miter;stroke-opacity:1" d="M 543.302,527.556 503.937,527.556 z" id="boundary" inkscape:connector-curvature="0" />
	<path style="fill:none;stroke:red;stroke-width:1px;stroke-linecap:butt;stroke-linejoin:miter;stroke-opacity:1" d="M 503.937,657.46 464.571,649.587 z" id="boundary" inkscape:connector-curvature="0" />
	<path style="fill:none;stroke:red;stroke-width:1px;stroke-linecap:butt;stroke-linejoin:miter;stroke-opacity:1" d="M 468.508,901.524 464.571,862.159 z" id="boundary" inkscape:connector-curvature="0" />
	<path style="fill:none;stroke:red;stroke-width:1px;stroke-linecap:butt;stroke-linejoin:miter;stroke-opacity:1" d="M 503.937,783.429 464.571,775.556 z" id="boundary" inkscape:connector-curvature="0" />
	<path style="fill:none;stroke:red;stroke-width:1px;stroke-linecap:butt;stroke-linejoin:miter;stroke-opacity:1" d="M 685.016,232.317 685.016,271.683 z" id="boundary" inkscape:connector-curvature="0" />
	<path style="fill:none;stroke:red;stroke-width:1px;stroke-linecap:butt;stroke-linejoin:miter;stroke-opacity:1" d="M 535.429,984.19 574.794,984.19 z" id="boundary" inkscape:connector-curvature="0" />
	<path style="fill:none;stroke:red;stroke-width:1px;stroke-linecap:butt;stroke-linejoin:miter;stroke-opacity:1" d="M 578.73,4 539.365,4 z" id="boundary" inkscape:connector-curvature="0" />
	<path style="fill:none;stroke:red;stroke-width:1px;stroke-linecap:butt;stroke-linejoin:miter;stroke-opacity:1" d="M 468.508,901.524 507.873,901.524 z" id="boundary" inkscape:connector-curvature="0" />
	<path style="fill:none;stroke:red;stroke-width:1px;stroke-linecap:butt;stroke-linejoin:miter;stroke-opacity:1" d="M 503.937,783.429 543.302,783.429 z" id="boundary" inkscape:connector-curvature="0" />
	<path style="fill:none;stroke:red;stroke-width:1px;stroke-linecap:butt;stroke-linejoin:miter;stroke-opacity:1" d="M 547.238,901.524 586.603,901.524 z" id="boundary" inkscape:connector-curvature="0" />
	<path style="fill:none;stroke:red;stroke-width:1px;stroke-linecap:butt;stroke-linejoin:miter;stroke-opacity:1" d="M 685.016,114.222 685.016,153.587 z" id="boundary" inkscape:connector-curvature="0" />
	<path style="fill:none;stroke:red;stroke-width:1px;stroke-linecap:butt;stroke-linejoin:miter;stroke-opacity:1" d="M 543.302,657.46 503.937,657.46 z" id="boundary" inkscape:connector-curvature="0" />
	<path style="fill:none;stroke:red;stroke-width:1px;stroke-linecap:butt;stroke-linejoin:miter;stroke-opacity:1" d="M 562.984,692.889 523.619,692.889 z" id="boundary" inkscape:connector-curvature="0" />
	<path style="fill:none;stroke:red;stroke-width:1px;stroke-linecap:butt;stroke-linejoin:miter;stroke-opacity:1" d="M 574.794,984.19 614.159,984.19 z" id="boundary" inkscape:connector-curvature="0" />
	<path style="fill:none;stroke:red;stroke-width:1px;stroke-linecap:butt;stroke-linejoin:miter;stroke-opacity:1" d="M 618.095,4 578.73,4 z" id="boundary" inkscape:connector-curvature="0" />
	<path style="fill:none;stroke:red;stroke-width:1px;stroke-linecap:butt;stroke-linejoin:miter;stroke-opacity:1" d="M 523.619,818.857 562.984,818.857 z" id="boundary" inkscape:connector-curvature="0" />
	<path style="fill:none;stroke:red;stroke-width:1px;stroke-linecap:butt;stroke-linejoin:miter;stroke-opacity:1" d="M 543.302,527.556 582.667,527.556 z" id="boundary" inkscape:connector-curvature="0" />
	<path style="fill:none;stroke:red;stroke-width:1px;stroke-linecap:butt;stroke-linejoin:miter;stroke-opacity:1" d="M 543.302,783.429 582.667,783.429 z" id="boundary" inkscape:connector-curvature="0" />
	<path style="fill:none;stroke:red;stroke-width:1px;stroke-linecap:butt;stroke-linejoin:miter;stroke-opacity:1" d="M 586.603,901.524 625.968,901.524 z" id="boundary" inkscape:connector-curvature="0" />
	<path style="fill:none;stroke:red;stroke-width:1px;stroke-linecap:butt;stroke-linejoin:miter;stroke-opacity:1" d="M 685.016,74.8571 685.016,114.222 z" id="boundary" inkscape:connector-curvature="0" />
	<path style="fill:none;stroke:red;stroke-width:1px;stroke-linecap:butt;stroke-linejoin:miter;stroke-opacity:1" d="M 582.667,657.46 543.302,657.46 z" id="boundary" inkscape:connector-curvature="0" />
	<path style="fill:none;stroke:red;stroke-width:1px;stroke-linecap:butt;stroke-linejoin:miter;stroke-opacity:1" d="M 602.349,692.889 562.984,692.889 z" id="boundary" inkscape:connector-curvature="0" />
	<path style="fill:none;stroke:red;stroke-width:1px;stroke-linecap:butt;stroke-linejoin:miter;stroke-opacity:1" d="M 614.159,984.19 653.524,984.19 z" id="boundary" inkscape:connector-curvature="0" />
	<path style="fill:none;stroke:red;stroke-width:1px;stroke-linecap:butt;stroke-linejoin:miter;stroke-opacity:1" d="M 685.016,35.4921 685.016,74.8571 z" id="boundary" inkscape:connector-curvature="0" />
	<path style="fill:none;stroke:red;stroke-width:1px;stroke-linecap:butt;stroke-linejoin:miter;stroke-opacity:1" d="M 562.984,818.857 602.349,818.857 z" id="boundary" inkscape:connector-curvature="0" />
	<path style="fill:none;stroke:red;stroke-width:1px;stroke-linecap:butt;stroke-linejoin:miter;stroke-opacity:1" d="M 582.667,527.556 622.032,527.556 z" id="boundary" inkscape:connector-curvature="0" />
	<path style="fill:none;stroke:red;stroke-width:1px;stroke-linecap:butt;stroke-linejoin:miter;stroke-opacity:1" d="M 582.667,783.429 622.032,783.429 z" id="boundary" inkscape:connector-curvature="0" />
	<path style="fill:none;stroke:red;stroke-width:1px;stroke-linecap:butt;stroke-linejoin:miter;stroke-opacity:1" d="M 625.968,901.524 665.333,901.524 z" id="boundary" inkscape:connector-curvature="0" />
	<path style="fill:none;stroke:red;stroke-width:1px;stroke-linecap:butt;stroke-linejoin:miter;stroke-opacity:1" d="M 685.016,153.587 685.016,192.952 z" id="boundary" inkscape:connector-curvature="0" />
	<path style="fill:none;stroke:red;stroke-width:1px;stroke-linecap:butt;stroke-linejoin:miter;stroke-opacity:1" d="M 622.032,657.46 582.667,657.46 z" id="boundary" inkscape:connector-curvature="0" />
	<path style="fill:none;stroke:red;stroke-width:1px;stroke-linecap:butt;stroke-linejoin:miter;stroke-opacity:1" d="M 641.714,692.889 602.349,692.889 z" id="boundary" inkscape:connector-curvature="0" />
	<path style="fill:none;stroke:red;stroke-width:1px;stroke-linecap:butt;stroke-linejoin:miter;stroke-opacity:1" d="M 653.524,984.19 692.889,984.19 z" id="boundary" inkscape:connector-curvature="0" />
	<path style="fill:none;stroke:red;stroke-width:1px;stroke-linecap:butt;stroke-linejoin:miter;stroke-opacity:1" d="M 685.016,35.4921 657.46,4 z" id="boundary" inkscape:connector-curvature="0" />
	<path style="fill:none;stroke:red;stroke-width:1px;stroke-linecap:butt;stroke-linejoin:miter;stroke-opacity:1" d="M 657.46,4 618.095,4 z" id="boundary" inkscape:connector-curvature="0" />
	<path style="fill:none;stroke:red;stroke-width:1px;stroke-linecap:butt;stroke-linejoin:miter;stroke-opacity:1" d="M 602.349,818.857 641.714,818.857 z" id="boundary" inkscape:connector-curvature="0" />
	<path style="fill:none;stroke:red;stroke-width:1px;stroke-linecap:butt;stroke-linejoin:miter;stroke-opacity:1" d="M 622.032,527.556 661.397,527.556 z" id="boundary" inkscape:connector-curvature="0" />
	<path style="fill:none;stroke:red;stroke-width:1px;stroke-linecap:butt;stroke-linejoin:miter;stroke-opacity:1" d="M 622.032,783.429 661.397,783.429 z" id="boundary" inkscape:connector-curvature="0" />
	<path style="fill:none;stroke:red;stroke-width:1px;stroke-linecap:butt;stroke-linejoin:miter;stroke-opacity:1" d="M 665.333,901.524 704.698,901.524 z" id="boundary" inkscape:connector-curvature="0" />
	<path style="fill:none;stroke:red;stroke-width:1px;stroke-linecap:butt;stroke-linejoin:miter;stroke-opacity:1" d="M 661.397,657.46 622.032,657.46 z" id="boundary" inkscape:connector-curvature="0" />
	<path style="fill:none;stroke:red;stroke-width:1px;stroke-linecap:butt;stroke-linejoin:miter;stroke-opacity:1" d="M 681.079,692.889 641.714,692.889 z" id="boundary" inkscape:connector-curvature="0" />
	<path style="fill:none;stroke:red;stroke-width:1px;stroke-linecap:butt;stroke-linejoin:miter;stroke-opacity:1" d="M 641.714,818.857 681.079,818.857 z" id="boundary" inkscape:connector-curvature="0" />
	<path style="fill:none;stroke:red;stroke-width:1px;stroke-linecap:butt;stroke-linejoin:miter;stroke-opacity:1" d="M 661.397,657.46 700.762,657.46 z" id="boundary" inkscape:connector-curvature="0" />
	<path style="fill:none;stroke:red;stroke-width:1px;stroke-linecap:butt;stroke-linejoin:miter;stroke-opacity:1" d="M 661.397,783.429 700.762,783.429 z" id="boundary" inkscape:connector-curvature="0" />
	<path style="fill:none;stroke:red;stroke-width:1px;stroke-linecap:butt;stroke-linejoin:miter;stroke-opacity:1" d="M 692.889,984.19 732.254,984.19 z" id="boundary" inkscape:connector-curvature="0" />
	<path style="fill:none;stroke:red;stroke-width:1px;stroke-linecap:butt;stroke-linejoin:miter;stroke-opacity:1" d="M 685.016,311.048 685.016,271.683 z" id="boundary" inkscape:connector-curvature="0" />
	<path style="fill:none;stroke:red;stroke-width:1px;stroke-linecap:butt;stroke-linejoin:miter;stroke-opacity:1" d="M 704.698,901.524 744.063,901.524 z" id="boundary" inkscape:connector-curvature="0" />
	<path style="fill:none;stroke:red;stroke-width:1px;stroke-linecap:butt;stroke-linejoin:miter;stroke-opacity:1" d="M 685.016,311.048 685.016,350.413 z" id="boundary" inkscape:connector-curvature="0" />
	<path style="fill:none;stroke:red;stroke-width:1px;stroke-linecap:butt;stroke-linejoin:miter;stroke-opacity:1" d="M 685.016,389.778 685.016,350.413 z" id="boundary" inkscape:connector-curvature="0" />
	<path style="fill:none;stroke:red;stroke-width:1px;stroke-linecap:butt;stroke-linejoin:miter;stroke-opacity:1" d="M 685.016,429.143 685.016,389.778 z" id="boundary" inkscape:connector-curvature="0" />
	<path style="fill:none;stroke:red;stroke-width:1px;stroke-linecap:butt;stroke-linejoin:miter;stroke-opacity:1" d="M 685.016,429.143 685.016,468.508 z" id="boundary" inkscape:connector-curvature="0" />
	<path style="fill:none;stroke:red;stroke-width:1px;stroke-linecap:butt;stroke-linejoin:miter;stroke-opacity:1" d="M 685.016,468.508 661.397,527.556 z" id="boundary" inkscape:connector-curvature="0" />
	<path style="fill:none;stroke:red;stroke-width:1px;stroke-linecap:butt;stroke-linejoin:miter;stroke-opacity:1" d="M 681.079,692.889 720.444,692.889 z" id="boundary" inkscape:connector-curvature="0" />
	<path style="fill:none;stroke:red;stroke-width:1px;stroke-linecap:butt;stroke-linejoin:miter;stroke-opacity:1" d="M 681.079,818.857 720.444,818.857 z" id="boundary" inkscape:connector-curvature="0" />
	<path style="fill:none;stroke:red;stroke-width:1px;stroke-linecap:butt;stroke-linejoin:miter;stroke-opacity:1" d="M 732.254,984.19 771.619,984.19 z" id="boundary" inkscape:connector-curvature="0" />
	<path style="fill:none;stroke:red;stroke-width:1px;stroke-linecap:butt;stroke-linejoin:miter;stroke-opacity:1" d="M 700.762,783.429 740.127,783.429 z" id="boundary" inkscape:connector-curvature="0" />
	<path style="fill:none;stroke:red;stroke-width:1px;stroke-linecap:butt;stroke-linejoin:miter;stroke-opacity:1" d="M 700.762,657.46 740.127,657.46 z" id="boundary" inkscape:connector-curvature="0" />
	<path style="fill:none;stroke:red;stroke-width:1px;stroke-linecap:butt;stroke-linejoin:miter;stroke-opacity:1" d="M 744.063,901.524 783.429,901.524 z" id="boundary" inkscape:connector-curvature="0" />
	<path style="fill:none;stroke:red;stroke-width:1px;stroke-linecap:butt;stroke-linejoin:miter;stroke-opacity:1" d="M 759.81,692.889 720.444,692.889 z" id="boundary" inkscape:connector-curvature="0" />
	<path style="fill:none;stroke:red;stroke-width:1px;stroke-linecap:butt;stroke-linejoin:miter;stroke-opacity:1" d="M 720.444,818.857 759.81,818.857 z" id="boundary" inkscape:connector-curvature="0" />
	<path style="fill:none;stroke:red;stroke-width:1px;stroke-linecap:butt;stroke-linejoin:miter;stroke-opacity:1" d="M 771.619,984.19 810.984,984.19 z" id="boundary" inkscape:connector-curvature="0" />
	<path style="fill:none;stroke:red;stroke-width:1px;stroke-linecap:butt;stroke-linejoin:miter;stroke-opacity:1" d="M 810.984,984.19 850.349,996 z" id="boundary" inkscape:connector-curvature="0" />
	<path style="fill:none;stroke:red;stroke-width:1px;stroke-linecap:butt;stroke-linejoin:miter;stroke-opacity:1" d="M 740.127,783.429 779.492,783.429 z" id="boundary" inkscape:connector-curvature="0" />
	<path style="fill:none;stroke:red;stroke-width:1px;stroke-linecap:butt;stroke-linejoin:miter;stroke-opacity:1" d="M 740.127,657.46 779.492,657.46 z" id="boundary" inkscape:connector-curvature="0" />
	<path style="fill:none;stroke:red;stroke-width:1px;stroke-linecap:butt;stroke-linejoin:miter;stroke-opacity:1" d="M 783.429,901.524 822.794,901.524 z" id="boundary" inkscape:connector-curvature="0" />
	<path style="fill:none;stroke:red;stroke-width:1px;stroke-linecap:butt;stroke-linejoin:miter;stroke-opacity:1" d="M 799.175,692.889 759.81,692.889 z" id="boundary" inkscape:connector-curvature="0" />
	<path style="fill:none;stroke:red;stroke-width:1px;stroke-linecap:butt;stroke-linejoin:miter;stroke-opacity:1" d="M 759.81,818.857 799.175,818.857 z" id="boundary" inkscape:connector-curvature="0" />
	<path style="fill:none;stroke:red;stroke-width:1px;stroke-linecap:butt;stroke-linejoin:miter;stroke-opacity:1" d="M 779.492,783.429 818.857,783.429 z" id="boundary" inkscape:connector-curvature="0" />
	<path style="fill:none;stroke:red;stroke-width:1px;stroke-linecap:butt;stroke-linejoin:miter;stroke-opacity:1" d="M 779.492,657.46 818.857,657.46 z" id="boundary" inkscape:connector-curvature="0" />
	<path style="fill:none;stroke:red;stroke-width:1px;stroke-linecap:butt;stroke-linejoin:miter;stroke-opacity:1" d="M 822.794,901.524 862.159,901.524 z" id="boundary" inkscape:connector-curvature="0" />
	<path style="fill:none;stroke:red;stroke-width:1px;stroke-linecap:butt;stroke-linejoin:miter;stroke-opacity:1" d="M 838.54,692.889 799.175,692.889 z" id="boundary" inkscape:connector-curvature="0" />
	<path style="fill:none;stroke:red;stroke-width:1px;stroke-linecap:butt;stroke-linejoin:miter;stroke-opacity:1" d="M 799.175,818.857 838.54,818.857 z" id="boundary" inkscape:connector-curvature="0" />
	<path style="fill:none;stroke:red;stroke-width:1px;stroke-linecap:butt;stroke-linejoin:miter;stroke-opacity:1" d="M 818.857,783.429 858.222,783.429 z" id="boundary" inkscape:connector-curvature="0" />
	<path style="fill:none;stroke:red;stroke-width:1px;stroke-linecap:butt;stroke-linejoin:miter;stroke-opacity:1" d="M 818.857,657.46 858.222,657.46 z" id="boundary" inkscape:connector-curvature="0" />
	<path style="fill:none;stroke:red;stroke-width:1px;stroke-linecap:butt;stroke-linejoin:miter;stroke-opacity:1" d="M 889.714,984.19 850.349,996 z" id="boundary" inkscape:connector-curvature="0" />
	<path style="fill:none;stroke:red;stroke-width:1px;stroke-linecap:butt;stroke-linejoin:miter;stroke-opacity:1" d="M 862.159,901.524 897.587,921.206 z" id="boundary" inkscape:connector-curvature="0" />
	<path style="fill:none;stroke:red;stroke-width:1px;stroke-linecap:butt;stroke-linejoin:miter;stroke-opacity:1" d="M 897.587,921.206 889.714,984.19 z" id="boundary" inkscape:connector-curvature="0" />
	<circle cx="4" cy="909.397" r="4" fill="#0" id="circle0"/>
	<circle cx="4" cy="948.762" r="4" fill="#0" id="circle1"/>
	<circle cx="23.6825" cy="984.19" r="4" fill="#0" id="circle2"/>
	<circle cx="43.3651" cy="901.524" r="4" fill="#0" id="circle3"/>
	<circle cx="63.0476" cy="996" r="4" fill="#0" id="circle4"/>
	<circle cx="82.7302" cy="901.524" r="4" fill="#0" id="circle5"/>
	<circle cx="102.413" cy="984.19" r="4" fill="#0" id="circle6"/>
	<circle cx="122.095" cy="901.524" r="4" fill="#0" id="circle7"/>
	<circle cx="137.841" cy="665.333" r="4" fill="#0" id="circle8"/>
	<circle cx="137.841" cy="783.429" r="4" fill="#0" id="circle9"/>
	<circle cx="141.778" cy="984.19" r="4" fill="#0" id="circle10"/>
	<circle cx="157.524" cy="818.857" r="4" fill="#0" id="circle11"/>
	<circle cx="161.46" cy="901.524" r="4" fill="#0" id="circle12"/>
	<circle cx="169.333" cy="692.889" r="4" fill="#0" id="circle13"/>
	<circle cx="177.206" cy="783.429" r="4" fill="#0" id="circle14"/>
	<circle cx="181.143" cy="984.19" r="4" fill="#0" id="circle15"/>
	<circle cx="185.079" cy="11.873" r="4" fill="#0" id="circle16"/>
	<circle cx="185.079" cy="51.2381" r="4" fill="#0" id="circle17"/>
	<circle cx="185.079" cy="90.6032" r="4" fill="#0" id="circle18"/>
	<circle cx="185.079" cy="129.968" r="4" fill="#0" id="circle19"/>
	<circle cx="185.079" cy="169.333" r="4" fill="#0" id="circle20"/>
	<circle cx="185.079" cy="208.698" r="4" fill="#0" id="circle21"/>
	<circle cx="185.079" cy="248.063" r="4" fill="#0" id="circle22"/>
	<circle cx="185.079" cy="287.429" r="4" fill="#0" id="circle23"/>
	<circle cx="185.079" cy="326.794" r="4" fill="#0" id="circle24"/>
	<circle cx="185.079" cy="366.159" r="4" fill="#0" id="circle25"/>
	<circle cx="185.079" cy="405.524" r="4" fill="#0" id="circle26"/>
	<circle cx="185.079" cy="444.889" r="4" fill="#0" id="circle27"/>
	<circle cx="185.079" cy="484.254" r="4" fill="#0" id="circle28"/>
	<circle cx="189.016" cy="523.619" r="4" fill="#0" id="circle29"/>
	<circle cx="189.016" cy="657.46" r="4" fill="#0" id="circle30"/>
	<circle cx="196.889" cy="818.857" r="4" fill="#0" id="circle31"/>
	<circle cx="200.825" cy="901.524" r="4" fill="#0" id="circle32"/>
	<circle cx="208.698" cy="692.889" r="4" fill="#0" id="circle33"/>
	<circle cx="216.571" cy="783.429" r="4" fill="#0" id="circle34"/>
	<circle cx="220.508" cy="984.19" r="4" fill="#0" id="circle35"/>
	<circle cx="224.444" cy="4" r="4" fill="#0" id="circle36"/>
	<circle cx="228.381" cy="527.556" r="4" fill="#0" id="circle37"/>
	<circle cx="228.381" cy="657.46" r="4" fill="#0" id="circle38"/>
	<circle cx="236.254" cy="818.857" r="4" fill="#0" id="circle39"/>
	<circle cx="240.19" cy="901.524" r="4" fill="#0" id="circle40"/>
	<circle cx="248.063" cy="692.889" r="4" fill="#0" id="circle41"/>
	<circle cx="255.937" cy="783.429" r="4" fill="#0" id="circle42"/>
	<circle cx="259.873" cy="984.19" r="4" fill="#0" id="circle43"/>
	<circle cx="263.81" cy="4" r="4" fill="#0" id="circle44"/>
	<circle cx="267.746" cy="527.556" r="4" fill="#0" id="circle45"/>
	<circle cx="267.746" cy="657.46" r="4" fill="#0" id="circle46"/>
	<circle cx="275.619" cy="818.857" r="4" fill="#0" id="circle47"/>
	<circle cx="279.556" cy="901.524" r="4" fill="#0" id="circle48"/>
	<circle cx="287.429" cy="562.984" r="4" fill="#0" id="circle49"/>
	<circle cx="287.429" cy="602.349" r="4" fill="#0" id="circle50"/>
	<circle cx="287.429" cy="696.825" r="4" fill="#0" id="circle51"/>
	<circle cx="287.429" cy="736.19" r="4" fill="#0" id="circle52"/>
	<circle cx="287.429" cy="858.222" r="4" fill="#0" id="circle53"/>
	<circle cx="299.238" cy="992.063" r="4" fill="#0" id="circle54"/>
	<circle cx="303.175" cy="4" r="4" fill="#0" id="circle55"/>
	<circle cx="338.603" cy="984.19" r="4" fill="#0" id="circle56"/>
	<circle cx="342.54" cy="4" r="4" fill="#0" id="circle57"/>
	<circle cx="377.968" cy="984.19" r="4" fill="#0" id="circle58"/>
	<circle cx="381.905" cy="4" r="4" fill="#0" id="circle59"/>
	<circle cx="417.333" cy="984.19" r="4" fill="#0" id="circle60"/>
	<circle cx="421.27" cy="4" r="4" fill="#0" id="circle61"/>
	<circle cx="456.698" cy="984.19" r="4" fill="#0" id="circle62"/>
	<circle cx="460.635" cy="4" r="4" fill="#0" id="circle63"/>
	<circle cx="464.571" cy="531.492" r="4" fill="#0" id="circle64"/>
	<circle cx="464.571" cy="570.857" r="4" fill="#0" id="circle65"/>
	<circle cx="464.571" cy="610.222" r="4" fill="#0" id="circle66"/>
	<circle cx="464.571" cy="649.587" r="4" fill="#0" id="circle67"/>
	<circle cx="464.571" cy="696.825" r="4" fill="#0" id="circle68"/>
	<circle cx="464.571" cy="736.19" r="4" fill="#0" id="circle69"/>
	<circle cx="464.571" cy="775.556" r="4" fill="#0" id="circle70"/>
	<circle cx="464.571" cy="822.794" r="4" fill="#0" id="circle71"/>
	<circle cx="464.571" cy="862.159" r="4" fill="#0" id="circle72"/>
	<circle cx="468.508" cy="901.524" r="4" fill="#0" id="circle73"/>
	<circle cx="496.063" cy="984.19" r="4" fill="#0" id="circle74"/>
	<circle cx="500" cy="4" r="4" fill="#0" id="circle75"/>
	<circle cx="503.937" cy="527.556" r="4" fill="#0" id="circle76"/>
	<circle cx="503.937" cy="657.46" r="4" fill="#0" id="circle77"/>
	<circle cx="503.937" cy="783.429" r="4" fill="#0" id="circle78"/>
	<circle cx="507.873" cy="901.524" r="4" fill="#0" id="circle79"/>
	<circle cx="523.619" cy="692.889" r="4" fill="#0" id="circle80"/>
	<circle cx="523.619" cy="818.857" r="4" fill="#0" id="circle81"/>
	<circle cx="535.429" cy="984.19" r="4" fill="#0" id="circle82"/>
	<circle cx="539.365" cy="4" r="4" fill="#0" id="circle83"/>
	<circle cx="543.302" cy="527.556" r="4" fill="#0" id="circle84"/>
	<circle cx="543.302" cy="657.46" r="4" fill="#0" id="circle85"/>
	<circle cx="543.302" cy="783.429" r="4" fill="#0" id="circle86"/>
	<circle cx="547.238" cy="901.524" r="4" fill="#0" id="circle87"/>
	<circle cx="562.984" cy="692.889" r="4" fill="#0" id="circle88"/>
	<circle cx="562.984" cy="818.857" r="4" fill="#0" id="circle89"/>
	<circle cx="574.794" cy="984.19" r="4" fill="#0" id="circle90"/>
	<circle cx="578.73" cy="4" r="4" fill="#0" id="circle91"/>
	<circle cx="582.667" cy="527.556" r="4" fill="#0" id="circle92"/>
	<circle cx="582.667" cy="657.46" r="4" fill="#0" id="circle93"/>
	<circle cx="582.667" cy="783.429" r="4" fill="#0" id="circle94"/>
	<circle cx="586.603" cy="901.524" r="4" fill="#0" id="circle95"/>
	<circle cx="602.349" cy="692.889" r="4" fill="#0" id="circle96"/>
	<circle cx="602.349" cy="818.857" r="4" fill="#0" id="circle97"/>
	<circle cx="614.159" cy="984.19" r="4" fill="#0" id="circle98"/>
	<circle cx="618.095" cy="4" r="4" fill="#0" id="circle99"/>
	<circle cx="622.032" cy="527.556" r="4" fill="#0" id="circle100"/>
	<circle cx="622.032" cy="657.46" r="4" fill="#0" id="circle101"/>
	<circle cx="622.032" cy="783.429" r="4" fill="#0" id="circle102"/>
	<circle cx="625.968" cy="901.524" r="4" fill="#0" id="circle103"/>
	<circle cx="641.714" cy="692.889" r="4" fill="#0" id="circle104"/>
	<circle cx="641.714" cy="818.857" r="4" fill="#0" id="circle105"/>
	<circle cx="653.524" cy="984.19" r="4" fill="#0" id="circle106"/>
	<circle cx="657.46" cy="4" r="4" fill="#0" id="circle107"/>
	<circle cx="661.397" cy="527.556" r="4" fill="#0" id="circle108"/>
	<circle cx="661.397" cy="657.46" r="4" fill="#0" id="circle109"/>
	<circle cx="661.397" cy="783.429" r="4" fill="#0" id="circle110"/>
	<circle cx="665.333" cy="901.524" r="4" fill="#0" id="circle111"/>
	<circle cx="681.079" cy="692.889" r="4" fill="#0" id="circle112"/>
	<circle cx="681.079" cy="818.857" r="4" fill="#0" id="circle113"/>
	<circle cx="685.016" cy="35.4921" r="4" fill="#0" id="circle114"/>
	<circle cx="685.016" cy="74.8571" r="4" fill="#0" id="circle115"/>
	<circle cx="685.016" cy="114.222" r="4" fill="#0" id="circle116"/>
	<circle cx="685.016" cy="153.587" r="4" fill="#0" id="circle117"/>
	<circle cx="685.016" cy="192.952" r="4" fill="#0" id="circle118"/>
	<circle cx="685.016" cy="232.317" r="4" fill="#0" id="circle119"/>
	<circle cx="685.016" cy="271.683" r="4" fill="#0" id="circle120"/>
	<circle cx="685.016" cy="311.048" r="4" fill="#0" id="circle121"/>
	<circle cx="685.016" cy="350.413" r="4" fill="#0" id="circle122"/>
	<circle cx="685.016" cy="389.778" r="4" fill="#0" id="circle123"/>
	<circle cx="685.016" cy="429.143" r="4" fill="#0" id="circle124"/>
	<circle cx="685.016" cy="468.508" r="4" fill="#0" id="circle125"/>
	<circle cx="692.889" cy="984.19" r="4" fill="#0" id="circle126"/>
	<circle cx="700.762" cy="657.46" r="4" fill="#0" id="circle127"/>
	<circle cx="700.762" cy="783.429" r="4" fill="#0" id="circle128"/>
	<circle cx="704.698" cy="901.524" r="4" fill="#0" id="circle129"/>
	<circle cx="720.444" cy="692.889" r="4" fill="#0" id="circle130"/>
	<circle cx="720.444" cy="818.857" r="4" fill="#0" id="circle131"/>
	<circle cx="732.254" cy="984.19" r="4" fill="#0" id="circle132"/>
	<circle cx="740.127" cy="657.46" r="4" fill="#0" id="circle133"/>
	<circle cx="740.127" cy="783.429" r="4" fill="#0" id="circle134"/>
	<circle cx="744.063" cy="901.524" r="4" fill="#0" id="circle135"/>
	<circle cx="759.81" cy="692.889" r="4" fill="#0" id="circle136"/>
	<circle cx="759.81" cy="818.857" r="4" fill="#0" id="circle137"/>
	<circle cx="771.619" cy="984.19" r="4" fill="#0" id="circle138"/>
	<circle cx="779.492" cy="657.46" r="4" fill="#0" id="circle139"/>
	<circle cx="779.492" cy="783.429" r="4" fill="#0" id="circle140"/>
	<circle cx="783.429" cy="901.524" r="4" fill="#0" id="circle141"/>
	<circle cx="799.175" cy="692.889" r="4" fill="#0" id="circle142"/>
	<circle cx="799.175" cy="818.857" r="4" fill="#0" id="circle143"/>
	<circle cx="810.984" cy="984.19" r="4" fill="#0" id="circle144"/>
	<circle cx="818.857" cy="657.46" r="4" fill="#0" id="circle145"/>
	<circle cx="818.857" cy="783.429" r="4" fill="#0" id="circle146"/>
	<circle cx="822.794" cy="901.524" r="4" fill="#0" id="circle147"/>
	<circle cx="838.54" cy="692.889" r="4" fill="#0" id="circle148"/>
	<circle cx="838.54" cy="818.857" r="4" fill="#0" id="circle149"/>
	<circle cx="850.349" cy="996" r="4" fill="#0" id="circle150"/>
	<circle cx="858.222" cy="657.46" r="4" fill="#0" id="circle151"/>
	<circle cx="858.222" cy="783.429" r="4" fill="#0" id="circle152"/>
	<circle cx="862.159" cy="901.524" r="4" fill="#0" id="circle153"/>
	<circle cx="889.714" cy="984.19" r="4" fill="#0" id="circle154"/>
	<circle cx="897.587" cy="921.206" r="4" fill="#0" id="circle155"/>
	</g>
</svg>