<?xml version="1.0" encoding="UTF-8" standalone="no"?>
<!-- Created with CurveBenchmark -->
<svg
	xmlns:dc="http://purl.org/dc/elements/1.1/"
	xmlns:cc="http://creativecommons.org/ns#"
	xmlns:rdf="http://www.w3.org/1999/02/22-rdf-syntax-ns#"
	xmlns:svg="http://www.w3.org/2000/svg"
	xmlns="http://www.w3.org/2000/svg"
	xmlns:sodipodi="http://sodipodi.sourceforge.net/DTD/sodipodi-0.dtd"
	xmlns:inkscape="http://www.inkscape.org/namespaces/inkscape"
	width="1000"
	height="1000"
	id="svg2"
	version="1.1"
	sodipodi:docname="manifold/peel-teddy280.png.txt">
<defs
	id="defs4" />
<metadata
	id="metadata7">
	<rdf:RDF>
		<cc:Work
			rdf:about="">
			<dc:format>image/svg+xml</dc:format>
			<dc:type
				rdf:resource="http://purl.org/dc/dcmitype/StillImage" />
			<dc:title></dc:title>
		</cc:Work>
	</rdf:RDF>
</metadata>
<g
	inkscape:label="Layer 1"
	inkscape:groupmode="layer"
	id="layer1">
	<path style="fill:none;stroke:red;stroke-width:1px;stroke-linecap:butt;stroke-linejoin:miter;stroke-opacity:1" d="M 117.048,727.51 88.7863,727.51 z" id="boundary" inkscape:connector-curvature="0" />
	<path style="fill:none;stroke:red;stroke-width:1px;stroke-linecap:butt;stroke-linejoin:miter;stroke-opacity:1" d="M 9.65242,902.735 9.65242,874.473 z" id="boundary" inkscape:connector-curvature="0" />
	<path style="fill:none;stroke:red;stroke-width:1px;stroke-linecap:butt;stroke-linejoin:miter;stroke-opacity:1" d="M 9.65242,874.473 4,846.211 z" id="boundary" inkscape:connector-curvature="0" />
	<path style="fill:none;stroke:red;stroke-width:1px;stroke-linecap:butt;stroke-linejoin:miter;stroke-opacity:1" d="M 9.65242,800.991 15.3048,767.077 z" id="boundary" inkscape:connector-curvature="0" />
	<path style="fill:none;stroke:red;stroke-width:1px;stroke-linecap:butt;stroke-linejoin:miter;stroke-opacity:1" d="M 15.3048,767.077 37.9145,744.467 z" id="boundary" inkscape:connector-curvature="0" />
	<path style="fill:none;stroke:red;stroke-width:1px;stroke-linecap:butt;stroke-linejoin:miter;stroke-opacity:1" d="M 60.5242,727.51 88.7863,727.51 z" id="boundary" inkscape:connector-curvature="0" />
	<path style="fill:none;stroke:red;stroke-width:1px;stroke-linecap:butt;stroke-linejoin:miter;stroke-opacity:1" d="M 60.5242,727.51 37.9145,744.467 z" id="boundary" inkscape:connector-curvature="0" />
	<path style="fill:none;stroke:red;stroke-width:1px;stroke-linecap:butt;stroke-linejoin:miter;stroke-opacity:1" d="M 9.65242,902.735 12.4786,930.997 z" id="boundary" inkscape:connector-curvature="0" />
	<path style="fill:none;stroke:red;stroke-width:1px;stroke-linecap:butt;stroke-linejoin:miter;stroke-opacity:1" d="M 12.4786,930.997 26.6097,956.433 z" id="boundary" inkscape:connector-curvature="0" />
	<path style="fill:none;stroke:red;stroke-width:1px;stroke-linecap:butt;stroke-linejoin:miter;stroke-opacity:1" d="M 26.6097,956.433 49.2194,973.39 z" id="boundary" inkscape:connector-curvature="0" />
	<path style="fill:none;stroke:red;stroke-width:1px;stroke-linecap:butt;stroke-linejoin:miter;stroke-opacity:1" d="M 9.65242,800.991 4,846.211 z" id="boundary" inkscape:connector-curvature="0" />
	<path style="fill:none;stroke:red;stroke-width:1px;stroke-linecap:butt;stroke-linejoin:miter;stroke-opacity:1" d="M 83.1339,557.937 77.4815,529.675 z" id="boundary" inkscape:connector-curvature="0" />
	<path style="fill:none;stroke:red;stroke-width:1px;stroke-linecap:butt;stroke-linejoin:miter;stroke-opacity:1" d="M 77.4815,529.675 77.4815,501.413 z" id="boundary" inkscape:connector-curvature="0" />
	<path style="fill:none;stroke:red;stroke-width:1px;stroke-linecap:butt;stroke-linejoin:miter;stroke-opacity:1" d="M 49.2194,973.39 77.4815,984.695 z" id="boundary" inkscape:connector-curvature="0" />
	<path style="fill:none;stroke:red;stroke-width:1px;stroke-linecap:butt;stroke-linejoin:miter;stroke-opacity:1" d="M 139.658,444.889 111.396,456.194 z" id="boundary" inkscape:connector-curvature="0" />
	<path style="fill:none;stroke:red;stroke-width:1px;stroke-linecap:butt;stroke-linejoin:miter;stroke-opacity:1" d="M 97.265,583.373 83.1339,557.937 z" id="boundary" inkscape:connector-curvature="0" />
	<path style="fill:none;stroke:red;stroke-width:1px;stroke-linecap:butt;stroke-linejoin:miter;stroke-opacity:1" d="M 111.396,456.194 88.7863,473.151 z" id="boundary" inkscape:connector-curvature="0" />
	<path style="fill:none;stroke:red;stroke-width:1px;stroke-linecap:butt;stroke-linejoin:miter;stroke-opacity:1" d="M 88.7863,473.151 77.4815,501.413 z" id="boundary" inkscape:connector-curvature="0" />
	<path style="fill:none;stroke:red;stroke-width:1px;stroke-linecap:butt;stroke-linejoin:miter;stroke-opacity:1" d="M 114.222,605.983 97.265,583.373 z" id="boundary" inkscape:connector-curvature="0" />
	<path style="fill:none;stroke:red;stroke-width:1px;stroke-linecap:butt;stroke-linejoin:miter;stroke-opacity:1" d="M 77.4815,984.695 105.744,990.348 z" id="boundary" inkscape:connector-curvature="0" />
	<path style="fill:none;stroke:red;stroke-width:1px;stroke-linecap:butt;stroke-linejoin:miter;stroke-opacity:1" d="M 139.658,620.114 114.222,605.983 z" id="boundary" inkscape:connector-curvature="0" />
	<path style="fill:none;stroke:red;stroke-width:1px;stroke-linecap:butt;stroke-linejoin:miter;stroke-opacity:1" d="M 173.573,738.815 145.311,727.51 z" id="boundary" inkscape:connector-curvature="0" />
	<path style="fill:none;stroke:red;stroke-width:1px;stroke-linecap:butt;stroke-linejoin:miter;stroke-opacity:1" d="M 145.311,727.51 117.048,727.51 z" id="boundary" inkscape:connector-curvature="0" />
	<path style="fill:none;stroke:red;stroke-width:1px;stroke-linecap:butt;stroke-linejoin:miter;stroke-opacity:1" d="M 167.92,439.236 139.658,444.889 z" id="boundary" inkscape:connector-curvature="0" />
	<path style="fill:none;stroke:red;stroke-width:1px;stroke-linecap:butt;stroke-linejoin:miter;stroke-opacity:1" d="M 165.094,634.245 139.658,620.114 z" id="boundary" inkscape:connector-curvature="0" />
	<path style="fill:none;stroke:red;stroke-width:1px;stroke-linecap:butt;stroke-linejoin:miter;stroke-opacity:1" d="M 165.094,634.245 193.356,639.897 z" id="boundary" inkscape:connector-curvature="0" />
	<path style="fill:none;stroke:red;stroke-width:1px;stroke-linecap:butt;stroke-linejoin:miter;stroke-opacity:1" d="M 105.744,990.348 134.006,996 z" id="boundary" inkscape:connector-curvature="0" />
	<path style="fill:none;stroke:red;stroke-width:1px;stroke-linecap:butt;stroke-linejoin:miter;stroke-opacity:1" d="M 360.103,973.39 331.84,973.39 z" id="boundary" inkscape:connector-curvature="0" />
	<path style="fill:none;stroke:red;stroke-width:1px;stroke-linecap:butt;stroke-linejoin:miter;stroke-opacity:1" d="M 134.006,996 162.268,996 z" id="boundary" inkscape:connector-curvature="0" />
	<path style="fill:none;stroke:red;stroke-width:1px;stroke-linecap:butt;stroke-linejoin:miter;stroke-opacity:1" d="M 196.182,433.584 224.444,427.932 z" id="boundary" inkscape:connector-curvature="0" />
	<path style="fill:none;stroke:red;stroke-width:1px;stroke-linecap:butt;stroke-linejoin:miter;stroke-opacity:1" d="M 190.53,990.348 162.268,996 z" id="boundary" inkscape:connector-curvature="0" />
	<path style="fill:none;stroke:red;stroke-width:1px;stroke-linecap:butt;stroke-linejoin:miter;stroke-opacity:1" d="M 218.792,979.043 247.054,973.39 z" id="boundary" inkscape:connector-curvature="0" />
	<path style="fill:none;stroke:red;stroke-width:1px;stroke-linecap:butt;stroke-linejoin:miter;stroke-opacity:1" d="M 218.792,979.043 190.53,990.348 z" id="boundary" inkscape:connector-curvature="0" />
	<path style="fill:none;stroke:red;stroke-width:1px;stroke-linecap:butt;stroke-linejoin:miter;stroke-opacity:1" d="M 167.92,439.236 196.182,433.584 z" id="boundary" inkscape:connector-curvature="0" />
	<path style="fill:none;stroke:red;stroke-width:1px;stroke-linecap:butt;stroke-linejoin:miter;stroke-opacity:1" d="M 266.838,275.316 264.011,247.054 z" id="boundary" inkscape:connector-curvature="0" />
	<path style="fill:none;stroke:red;stroke-width:1px;stroke-linecap:butt;stroke-linejoin:miter;stroke-opacity:1" d="M 173.573,738.815 201.835,738.815 z" id="boundary" inkscape:connector-curvature="0" />
	<path style="fill:none;stroke:red;stroke-width:1px;stroke-linecap:butt;stroke-linejoin:miter;stroke-opacity:1" d="M 221.618,651.202 193.356,639.897 z" id="boundary" inkscape:connector-curvature="0" />
	<path style="fill:none;stroke:red;stroke-width:1px;stroke-linecap:butt;stroke-linejoin:miter;stroke-opacity:1" d="M 235.749,687.943 221.618,651.202 z" id="boundary" inkscape:connector-curvature="0" />
	<path style="fill:none;stroke:red;stroke-width:1px;stroke-linecap:butt;stroke-linejoin:miter;stroke-opacity:1" d="M 230.097,727.51 235.749,687.943 z" id="boundary" inkscape:connector-curvature="0" />
	<path style="fill:none;stroke:red;stroke-width:1px;stroke-linecap:butt;stroke-linejoin:miter;stroke-opacity:1" d="M 224.444,427.932 252.707,427.932 z" id="boundary" inkscape:connector-curvature="0" />
	<path style="fill:none;stroke:red;stroke-width:1px;stroke-linecap:butt;stroke-linejoin:miter;stroke-opacity:1" d="M 201.835,738.815 230.097,727.51 z" id="boundary" inkscape:connector-curvature="0" />
	<path style="fill:none;stroke:red;stroke-width:1px;stroke-linecap:butt;stroke-linejoin:miter;stroke-opacity:1" d="M 247.054,973.39 275.316,967.738 z" id="boundary" inkscape:connector-curvature="0" />
	<path style="fill:none;stroke:red;stroke-width:1px;stroke-linecap:butt;stroke-linejoin:miter;stroke-opacity:1" d="M 275.316,967.738 303.578,973.39 z" id="boundary" inkscape:connector-curvature="0" />
	<path style="fill:none;stroke:red;stroke-width:1px;stroke-linecap:butt;stroke-linejoin:miter;stroke-opacity:1" d="M 275.316,410.974 252.707,427.932 z" id="boundary" inkscape:connector-curvature="0" />
	<path style="fill:none;stroke:red;stroke-width:1px;stroke-linecap:butt;stroke-linejoin:miter;stroke-opacity:1" d="M 275.316,303.578 266.838,275.316 z" id="boundary" inkscape:connector-curvature="0" />
	<path style="fill:none;stroke:red;stroke-width:1px;stroke-linecap:butt;stroke-linejoin:miter;stroke-opacity:1" d="M 283.795,331.84 275.316,303.578 z" id="boundary" inkscape:connector-curvature="0" />
	<path style="fill:none;stroke:red;stroke-width:1px;stroke-linecap:butt;stroke-linejoin:miter;stroke-opacity:1" d="M 297.926,394.017 320.536,377.06 z" id="boundary" inkscape:connector-curvature="0" />
	<path style="fill:none;stroke:red;stroke-width:1px;stroke-linecap:butt;stroke-linejoin:miter;stroke-opacity:1" d="M 320.536,377.06 300.752,354.45 z" id="boundary" inkscape:connector-curvature="0" />
	<path style="fill:none;stroke:red;stroke-width:1px;stroke-linecap:butt;stroke-linejoin:miter;stroke-opacity:1" d="M 297.926,394.017 275.316,410.974 z" id="boundary" inkscape:connector-curvature="0" />
	<path style="fill:none;stroke:red;stroke-width:1px;stroke-linecap:butt;stroke-linejoin:miter;stroke-opacity:1" d="M 264.011,247.054 278.142,221.618 z" id="boundary" inkscape:connector-curvature="0" />
	<path style="fill:none;stroke:red;stroke-width:1px;stroke-linecap:butt;stroke-linejoin:miter;stroke-opacity:1" d="M 278.142,221.618 300.752,204.661 z" id="boundary" inkscape:connector-curvature="0" />
	<path style="fill:none;stroke:red;stroke-width:1px;stroke-linecap:butt;stroke-linejoin:miter;stroke-opacity:1" d="M 300.752,354.45 283.795,331.84 z" id="boundary" inkscape:connector-curvature="0" />
	<path style="fill:none;stroke:red;stroke-width:1px;stroke-linecap:butt;stroke-linejoin:miter;stroke-opacity:1" d="M 388.365,979.043 410.974,996 z" id="boundary" inkscape:connector-curvature="0" />
	<path style="fill:none;stroke:red;stroke-width:1px;stroke-linecap:butt;stroke-linejoin:miter;stroke-opacity:1" d="M 388.365,979.043 360.103,973.39 z" id="boundary" inkscape:connector-curvature="0" />
	<path style="fill:none;stroke:red;stroke-width:1px;stroke-linecap:butt;stroke-linejoin:miter;stroke-opacity:1" d="M 326.188,190.53 300.752,204.661 z" id="boundary" inkscape:connector-curvature="0" />
	<path style="fill:none;stroke:red;stroke-width:1px;stroke-linecap:butt;stroke-linejoin:miter;stroke-opacity:1" d="M 343.145,167.92 326.188,190.53 z" id="boundary" inkscape:connector-curvature="0" />
	<path style="fill:none;stroke:red;stroke-width:1px;stroke-linecap:butt;stroke-linejoin:miter;stroke-opacity:1" d="M 331.84,973.39 303.578,973.39 z" id="boundary" inkscape:connector-curvature="0" />
	<path style="fill:none;stroke:red;stroke-width:1px;stroke-linecap:butt;stroke-linejoin:miter;stroke-opacity:1" d="M 343.145,167.92 348.798,122.701 z" id="boundary" inkscape:connector-curvature="0" />
	<path style="fill:none;stroke:red;stroke-width:1px;stroke-linecap:butt;stroke-linejoin:miter;stroke-opacity:1" d="M 348.798,122.701 343.145,94.4387 z" id="boundary" inkscape:connector-curvature="0" />
	<path style="fill:none;stroke:red;stroke-width:1px;stroke-linecap:butt;stroke-linejoin:miter;stroke-opacity:1" d="M 343.145,94.4387 348.798,54.8718 z" id="boundary" inkscape:connector-curvature="0" />
	<path style="fill:none;stroke:red;stroke-width:1px;stroke-linecap:butt;stroke-linejoin:miter;stroke-opacity:1" d="M 348.798,54.8718 365.755,32.2621 z" id="boundary" inkscape:connector-curvature="0" />
	<path style="fill:none;stroke:red;stroke-width:1px;stroke-linecap:butt;stroke-linejoin:miter;stroke-opacity:1" d="M 388.365,15.3048 365.755,32.2621 z" id="boundary" inkscape:connector-curvature="0" />
	<path style="fill:none;stroke:red;stroke-width:1px;stroke-linecap:butt;stroke-linejoin:miter;stroke-opacity:1" d="M 416.627,4 444.889,6.82621 z" id="boundary" inkscape:connector-curvature="0" />
	<path style="fill:none;stroke:red;stroke-width:1px;stroke-linecap:butt;stroke-linejoin:miter;stroke-opacity:1" d="M 416.627,4 388.365,15.3048 z" id="boundary" inkscape:connector-curvature="0" />
	<path style="fill:none;stroke:red;stroke-width:1px;stroke-linecap:butt;stroke-linejoin:miter;stroke-opacity:1" d="M 444.889,6.82621 473.151,15.3048 z" id="boundary" inkscape:connector-curvature="0" />
	<path style="fill:none;stroke:red;stroke-width:1px;stroke-linecap:butt;stroke-linejoin:miter;stroke-opacity:1" d="M 473.151,15.3048 498.587,29.4359 z" id="boundary" inkscape:connector-curvature="0" />
	<path style="fill:none;stroke:red;stroke-width:1px;stroke-linecap:butt;stroke-linejoin:miter;stroke-opacity:1" d="M 410.974,996 439.236,996 z" id="boundary" inkscape:connector-curvature="0" />
	<path style="fill:none;stroke:red;stroke-width:1px;stroke-linecap:butt;stroke-linejoin:miter;stroke-opacity:1" d="M 498.587,29.4359 524.023,43.567 z" id="boundary" inkscape:connector-curvature="0" />
	<path style="fill:none;stroke:red;stroke-width:1px;stroke-linecap:butt;stroke-linejoin:miter;stroke-opacity:1" d="M 439.236,996 467.499,996 z" id="boundary" inkscape:connector-curvature="0" />
	<path style="fill:none;stroke:red;stroke-width:1px;stroke-linecap:butt;stroke-linejoin:miter;stroke-opacity:1" d="M 552.285,43.567 524.023,43.567 z" id="boundary" inkscape:connector-curvature="0" />
	<path style="fill:none;stroke:red;stroke-width:1px;stroke-linecap:butt;stroke-linejoin:miter;stroke-opacity:1" d="M 467.499,996 495.761,996 z" id="boundary" inkscape:connector-curvature="0" />
	<path style="fill:none;stroke:red;stroke-width:1px;stroke-linecap:butt;stroke-linejoin:miter;stroke-opacity:1" d="M 628.593,6.82621 656.855,4 z" id="boundary" inkscape:connector-curvature="0" />
	<path style="fill:none;stroke:red;stroke-width:1px;stroke-linecap:butt;stroke-linejoin:miter;stroke-opacity:1" d="M 656.855,4 685.117,15.3048 z" id="boundary" inkscape:connector-curvature="0" />
	<path style="fill:none;stroke:red;stroke-width:1px;stroke-linecap:butt;stroke-linejoin:miter;stroke-opacity:1" d="M 690.769,812.296 690.769,784.034 z" id="boundary" inkscape:connector-curvature="0" />
	<path style="fill:none;stroke:red;stroke-width:1px;stroke-linecap:butt;stroke-linejoin:miter;stroke-opacity:1" d="M 716.205,60.5242 707.726,32.2621 z" id="boundary" inkscape:connector-curvature="0" />
	<path style="fill:none;stroke:red;stroke-width:1px;stroke-linecap:butt;stroke-linejoin:miter;stroke-opacity:1" d="M 707.726,32.2621 685.117,15.3048 z" id="boundary" inkscape:connector-curvature="0" />
	<path style="fill:none;stroke:red;stroke-width:1px;stroke-linecap:butt;stroke-linejoin:miter;stroke-opacity:1" d="M 552.285,43.567 577.721,29.4359 z" id="boundary" inkscape:connector-curvature="0" />
	<path style="fill:none;stroke:red;stroke-width:1px;stroke-linecap:butt;stroke-linejoin:miter;stroke-opacity:1" d="M 690.769,840.558 690.769,812.296 z" id="boundary" inkscape:connector-curvature="0" />
	<path style="fill:none;stroke:red;stroke-width:1px;stroke-linecap:butt;stroke-linejoin:miter;stroke-opacity:1" d="M 577.721,29.4359 600.33,12.4786 z" id="boundary" inkscape:connector-curvature="0" />
	<path style="fill:none;stroke:red;stroke-width:1px;stroke-linecap:butt;stroke-linejoin:miter;stroke-opacity:1" d="M 600.33,12.4786 628.593,6.82621 z" id="boundary" inkscape:connector-curvature="0" />
	<path style="fill:none;stroke:red;stroke-width:1px;stroke-linecap:butt;stroke-linejoin:miter;stroke-opacity:1" d="M 552.285,996 580.547,996 z" id="boundary" inkscape:connector-curvature="0" />
	<path style="fill:none;stroke:red;stroke-width:1px;stroke-linecap:butt;stroke-linejoin:miter;stroke-opacity:1" d="M 580.547,996 608.809,990.348 z" id="boundary" inkscape:connector-curvature="0" />
	<path style="fill:none;stroke:red;stroke-width:1px;stroke-linecap:butt;stroke-linejoin:miter;stroke-opacity:1" d="M 608.809,990.348 637.071,979.043 z" id="boundary" inkscape:connector-curvature="0" />
	<path style="fill:none;stroke:red;stroke-width:1px;stroke-linecap:butt;stroke-linejoin:miter;stroke-opacity:1" d="M 637.071,979.043 665.333,967.738 z" id="boundary" inkscape:connector-curvature="0" />
	<path style="fill:none;stroke:red;stroke-width:1px;stroke-linecap:butt;stroke-linejoin:miter;stroke-opacity:1" d="M 665.333,967.738 673.812,936.65 z" id="boundary" inkscape:connector-curvature="0" />
	<path style="fill:none;stroke:red;stroke-width:1px;stroke-linecap:butt;stroke-linejoin:miter;stroke-opacity:1" d="M 679.464,908.387 690.769,868.821 z" id="boundary" inkscape:connector-curvature="0" />
	<path style="fill:none;stroke:red;stroke-width:1px;stroke-linecap:butt;stroke-linejoin:miter;stroke-opacity:1" d="M 679.464,908.387 673.812,936.65 z" id="boundary" inkscape:connector-curvature="0" />
	<path style="fill:none;stroke:red;stroke-width:1px;stroke-linecap:butt;stroke-linejoin:miter;stroke-opacity:1" d="M 524.023,996 495.761,996 z" id="boundary" inkscape:connector-curvature="0" />
	<path style="fill:none;stroke:red;stroke-width:1px;stroke-linecap:butt;stroke-linejoin:miter;stroke-opacity:1" d="M 687.943,396.843 696.422,360.103 z" id="boundary" inkscape:connector-curvature="0" />
	<path style="fill:none;stroke:red;stroke-width:1px;stroke-linecap:butt;stroke-linejoin:miter;stroke-opacity:1" d="M 552.285,996 524.023,996 z" id="boundary" inkscape:connector-curvature="0" />
	<path style="fill:none;stroke:red;stroke-width:1px;stroke-linecap:butt;stroke-linejoin:miter;stroke-opacity:1" d="M 707.726,419.453 687.943,396.843 z" id="boundary" inkscape:connector-curvature="0" />
	<path style="fill:none;stroke:red;stroke-width:1px;stroke-linecap:butt;stroke-linejoin:miter;stroke-opacity:1" d="M 696.422,642.724 696.422,670.986 z" id="boundary" inkscape:connector-curvature="0" />
	<path style="fill:none;stroke:red;stroke-width:1px;stroke-linecap:butt;stroke-linejoin:miter;stroke-opacity:1" d="M 690.769,840.558 690.769,868.821 z" id="boundary" inkscape:connector-curvature="0" />
	<path style="fill:none;stroke:red;stroke-width:1px;stroke-linecap:butt;stroke-linejoin:miter;stroke-opacity:1" d="M 735.989,586.199 752.946,557.937 z" id="boundary" inkscape:connector-curvature="0" />
	<path style="fill:none;stroke:red;stroke-width:1px;stroke-linecap:butt;stroke-linejoin:miter;stroke-opacity:1" d="M 696.422,699.248 696.422,670.986 z" id="boundary" inkscape:connector-curvature="0" />
	<path style="fill:none;stroke:red;stroke-width:1px;stroke-linecap:butt;stroke-linejoin:miter;stroke-opacity:1" d="M 696.422,699.248 699.248,727.51 z" id="boundary" inkscape:connector-curvature="0" />
	<path style="fill:none;stroke:red;stroke-width:1px;stroke-linecap:butt;stroke-linejoin:miter;stroke-opacity:1" d="M 710.553,334.667 724.684,303.578 z" id="boundary" inkscape:connector-curvature="0" />
	<path style="fill:none;stroke:red;stroke-width:1px;stroke-linecap:butt;stroke-linejoin:miter;stroke-opacity:1" d="M 699.248,727.51 702.074,755.772 z" id="boundary" inkscape:connector-curvature="0" />
	<path style="fill:none;stroke:red;stroke-width:1px;stroke-linecap:butt;stroke-linejoin:miter;stroke-opacity:1" d="M 702.074,755.772 690.769,784.034 z" id="boundary" inkscape:connector-curvature="0" />
	<path style="fill:none;stroke:red;stroke-width:1px;stroke-linecap:butt;stroke-linejoin:miter;stroke-opacity:1" d="M 696.422,642.724 713.379,614.462 z" id="boundary" inkscape:connector-curvature="0" />
	<path style="fill:none;stroke:red;stroke-width:1px;stroke-linecap:butt;stroke-linejoin:miter;stroke-opacity:1" d="M 735.989,586.199 713.379,614.462 z" id="boundary" inkscape:connector-curvature="0" />
	<path style="fill:none;stroke:red;stroke-width:1px;stroke-linecap:butt;stroke-linejoin:miter;stroke-opacity:1" d="M 719.031,148.137 710.553,119.875 z" id="boundary" inkscape:connector-curvature="0" />
	<path style="fill:none;stroke:red;stroke-width:1px;stroke-linecap:butt;stroke-linejoin:miter;stroke-opacity:1" d="M 696.422,360.103 710.553,334.667 z" id="boundary" inkscape:connector-curvature="0" />
	<path style="fill:none;stroke:red;stroke-width:1px;stroke-linecap:butt;stroke-linejoin:miter;stroke-opacity:1" d="M 735.989,258.359 735.989,204.661 z" id="boundary" inkscape:connector-curvature="0" />
	<path style="fill:none;stroke:red;stroke-width:1px;stroke-linecap:butt;stroke-linejoin:miter;stroke-opacity:1" d="M 719.031,88.7863 710.553,119.875 z" id="boundary" inkscape:connector-curvature="0" />
	<path style="fill:none;stroke:red;stroke-width:1px;stroke-linecap:butt;stroke-linejoin:miter;stroke-opacity:1" d="M 719.031,88.7863 716.205,60.5242 z" id="boundary" inkscape:connector-curvature="0" />
	<path style="fill:none;stroke:red;stroke-width:1px;stroke-linecap:butt;stroke-linejoin:miter;stroke-opacity:1" d="M 730.336,176.399 735.989,204.661 z" id="boundary" inkscape:connector-curvature="0" />
	<path style="fill:none;stroke:red;stroke-width:1px;stroke-linecap:butt;stroke-linejoin:miter;stroke-opacity:1" d="M 730.336,176.399 719.031,148.137 z" id="boundary" inkscape:connector-curvature="0" />
	<path style="fill:none;stroke:red;stroke-width:1px;stroke-linecap:butt;stroke-linejoin:miter;stroke-opacity:1" d="M 707.726,419.453 730.336,439.236 z" id="boundary" inkscape:connector-curvature="0" />
	<path style="fill:none;stroke:red;stroke-width:1px;stroke-linecap:butt;stroke-linejoin:miter;stroke-opacity:1" d="M 724.684,303.578 735.989,258.359 z" id="boundary" inkscape:connector-curvature="0" />
	<path style="fill:none;stroke:red;stroke-width:1px;stroke-linecap:butt;stroke-linejoin:miter;stroke-opacity:1" d="M 730.336,439.236 750.12,461.846 z" id="boundary" inkscape:connector-curvature="0" />
	<path style="fill:none;stroke:red;stroke-width:1px;stroke-linecap:butt;stroke-linejoin:miter;stroke-opacity:1" d="M 752.946,557.937 764.251,518.37 z" id="boundary" inkscape:connector-curvature="0" />
	<path style="fill:none;stroke:red;stroke-width:1px;stroke-linecap:butt;stroke-linejoin:miter;stroke-opacity:1" d="M 750.12,461.846 758.598,490.108 z" id="boundary" inkscape:connector-curvature="0" />
	<path style="fill:none;stroke:red;stroke-width:1px;stroke-linecap:butt;stroke-linejoin:miter;stroke-opacity:1" d="M 758.598,490.108 764.251,518.37 z" id="boundary" inkscape:connector-curvature="0" />
	<circle cx="4" cy="846.211" r="4" fill="#0" id="circle0"/>
	<circle cx="9.65242" cy="800.991" r="4" fill="#0" id="circle1"/>
	<circle cx="9.65242" cy="874.473" r="4" fill="#0" id="circle2"/>
	<circle cx="9.65242" cy="902.735" r="4" fill="#0" id="circle3"/>
	<circle cx="12.4786" cy="930.997" r="4" fill="#0" id="circle4"/>
	<circle cx="15.3048" cy="767.077" r="4" fill="#0" id="circle5"/>
	<circle cx="26.6097" cy="956.433" r="4" fill="#0" id="circle6"/>
	<circle cx="37.9145" cy="744.467" r="4" fill="#0" id="circle7"/>
	<circle cx="49.2194" cy="973.39" r="4" fill="#0" id="circle8"/>
	<circle cx="60.5242" cy="727.51" r="4" fill="#0" id="circle9"/>
	<circle cx="77.4815" cy="501.413" r="4" fill="#0" id="circle10"/>
	<circle cx="77.4815" cy="529.675" r="4" fill="#0" id="circle11"/>
	<circle cx="77.4815" cy="984.695" r="4" fill="#0" id="circle12"/>
	<circle cx="83.1339" cy="557.937" r="4" fill="#0" id="circle13"/>
	<circle cx="88.7863" cy="473.151" r="4" fill="#0" id="circle14"/>
	<circle cx="88.7863" cy="727.51" r="4" fill="#0" id="circle15"/>
	<circle cx="97.265" cy="583.373" r="4" fill="#0" id="circle16"/>
	<circle cx="105.744" cy="990.348" r="4" fill="#0" id="circle17"/>
	<circle cx="111.396" cy="456.194" r="4" fill="#0" id="circle18"/>
	<circle cx="114.222" cy="605.983" r="4" fill="#0" id="circle19"/>
	<circle cx="117.048" cy="727.51" r="4" fill="#0" id="circle20"/>
	<circle cx="134.006" cy="996" r="4" fill="#0" id="circle21"/>
	<circle cx="139.658" cy="444.889" r="4" fill="#0" id="circle22"/>
	<circle cx="139.658" cy="620.114" r="4" fill="#0" id="circle23"/>
	<circle cx="145.311" cy="727.51" r="4" fill="#0" id="circle24"/>
	<circle cx="162.268" cy="996" r="4" fill="#0" id="circle25"/>
	<circle cx="165.094" cy="634.245" r="4" fill="#0" id="circle26"/>
	<circle cx="167.92" cy="439.236" r="4" fill="#0" id="circle27"/>
	<circle cx="173.573" cy="738.815" r="4" fill="#0" id="circle28"/>
	<circle cx="190.53" cy="990.348" r="4" fill="#0" id="circle29"/>
	<circle cx="193.356" cy="639.897" r="4" fill="#0" id="circle30"/>
	<circle cx="196.182" cy="433.584" r="4" fill="#0" id="circle31"/>
	<circle cx="201.835" cy="738.815" r="4" fill="#0" id="circle32"/>
	<circle cx="218.792" cy="979.043" r="4" fill="#0" id="circle33"/>
	<circle cx="221.618" cy="651.202" r="4" fill="#0" id="circle34"/>
	<circle cx="224.444" cy="427.932" r="4" fill="#0" id="circle35"/>
	<circle cx="230.097" cy="727.51" r="4" fill="#0" id="circle36"/>
	<circle cx="235.749" cy="687.943" r="4" fill="#0" id="circle37"/>
	<circle cx="247.054" cy="973.39" r="4" fill="#0" id="circle38"/>
	<circle cx="252.707" cy="427.932" r="4" fill="#0" id="circle39"/>
	<circle cx="264.011" cy="247.054" r="4" fill="#0" id="circle40"/>
	<circle cx="266.838" cy="275.316" r="4" fill="#0" id="circle41"/>
	<circle cx="275.316" cy="303.578" r="4" fill="#0" id="circle42"/>
	<circle cx="275.316" cy="410.974" r="4" fill="#0" id="circle43"/>
	<circle cx="275.316" cy="967.738" r="4" fill="#0" id="circle44"/>
	<circle cx="278.142" cy="221.618" r="4" fill="#0" id="circle45"/>
	<circle cx="283.795" cy="331.84" r="4" fill="#0" id="circle46"/>
	<circle cx="297.926" cy="394.017" r="4" fill="#0" id="circle47"/>
	<circle cx="300.752" cy="204.661" r="4" fill="#0" id="circle48"/>
	<circle cx="300.752" cy="354.45" r="4" fill="#0" id="circle49"/>
	<circle cx="303.578" cy="973.39" r="4" fill="#0" id="circle50"/>
	<circle cx="320.536" cy="377.06" r="4" fill="#0" id="circle51"/>
	<circle cx="326.188" cy="190.53" r="4" fill="#0" id="circle52"/>
	<circle cx="331.84" cy="973.39" r="4" fill="#0" id="circle53"/>
	<circle cx="343.145" cy="94.4387" r="4" fill="#0" id="circle54"/>
	<circle cx="343.145" cy="167.92" r="4" fill="#0" id="circle55"/>
	<circle cx="348.798" cy="54.8718" r="4" fill="#0" id="circle56"/>
	<circle cx="348.798" cy="122.701" r="4" fill="#0" id="circle57"/>
	<circle cx="360.103" cy="973.39" r="4" fill="#0" id="circle58"/>
	<circle cx="365.755" cy="32.2621" r="4" fill="#0" id="circle59"/>
	<circle cx="388.365" cy="15.3048" r="4" fill="#0" id="circle60"/>
	<circle cx="388.365" cy="979.043" r="4" fill="#0" id="circle61"/>
	<circle cx="410.974" cy="996" r="4" fill="#0" id="circle62"/>
	<circle cx="416.627" cy="4" r="4" fill="#0" id="circle63"/>
	<circle cx="439.236" cy="996" r="4" fill="#0" id="circle64"/>
	<circle cx="444.889" cy="6.82621" r="4" fill="#0" id="circle65"/>
	<circle cx="467.499" cy="996" r="4" fill="#0" id="circle66"/>
	<circle cx="473.151" cy="15.3048" r="4" fill="#0" id="circle67"/>
	<circle cx="495.761" cy="996" r="4" fill="#0" id="circle68"/>
	<circle cx="498.587" cy="29.4359" r="4" fill="#0" id="circle69"/>
	<circle cx="524.023" cy="43.567" r="4" fill="#0" id="circle70"/>
	<circle cx="524.023" cy="996" r="4" fill="#0" id="circle71"/>
	<circle cx="552.285" cy="43.567" r="4" fill="#0" id="circle72"/>
	<circle cx="552.285" cy="996" r="4" fill="#0" id="circle73"/>
	<circle cx="577.721" cy="29.4359" r="4" fill="#0" id="circle74"/>
	<circle cx="580.547" cy="996" r="4" fill="#0" id="circle75"/>
	<circle cx="600.33" cy="12.4786" r="4" fill="#0" id="circle76"/>
	<circle cx="608.809" cy="990.348" r="4" fill="#0" id="circle77"/>
	<circle cx="628.593" cy="6.82621" r="4" fill="#0" id="circle78"/>
	<circle cx="637.071" cy="979.043" r="4" fill="#0" id="circle79"/>
	<circle cx="656.855" cy="4" r="4" fill="#0" id="circle80"/>
	<circle cx="665.333" cy="967.738" r="4" fill="#0" id="circle81"/>
	<circle cx="673.812" cy="936.65" r="4" fill="#0" id="circle82"/>
	<circle cx="679.464" cy="908.387" r="4" fill="#0" id="circle83"/>
	<circle cx="685.117" cy="15.3048" r="4" fill="#0" id="circle84"/>
	<circle cx="687.943" cy="396.843" r="4" fill="#0" id="circle85"/>
	<circle cx="690.769" cy="784.034" r="4" fill="#0" id="circle86"/>
	<circle cx="690.769" cy="812.296" r="4" fill="#0" id="circle87"/>
	<circle cx="690.769" cy="840.558" r="4" fill="#0" id="circle88"/>
	<circle cx="690.769" cy="868.821" r="4" fill="#0" id="circle89"/>
	<circle cx="696.422" cy="360.103" r="4" fill="#0" id="circle90"/>
	<circle cx="696.422" cy="642.724" r="4" fill="#0" id="circle91"/>
	<circle cx="696.422" cy="670.986" r="4" fill="#0" id="circle92"/>
	<circle cx="696.422" cy="699.248" r="4" fill="#0" id="circle93"/>
	<circle cx="699.248" cy="727.51" r="4" fill="#0" id="circle94"/>
	<circle cx="702.074" cy="755.772" r="4" fill="#0" id="circle95"/>
	<circle cx="707.726" cy="32.2621" r="4" fill="#0" id="circle96"/>
	<circle cx="707.726" cy="419.453" r="4" fill="#0" id="circle97"/>
	<circle cx="710.553" cy="119.875" r="4" fill="#0" id="circle98"/>
	<circle cx="710.553" cy="334.667" r="4" fill="#0" id="circle99"/>
	<circle cx="713.379" cy="614.462" r="4" fill="#0" id="circle100"/>
	<circle cx="716.205" cy="60.5242" r="4" fill="#0" id="circle101"/>
	<circle cx="719.031" cy="88.7863" r="4" fill="#0" id="circle102"/>
	<circle cx="719.031" cy="148.137" r="4" fill="#0" id="circle103"/>
	<circle cx="724.684" cy="303.578" r="4" fill="#0" id="circle104"/>
	<circle cx="730.336" cy="176.399" r="4" fill="#0" id="circle105"/>
	<circle cx="730.336" cy="439.236" r="4" fill="#0" id="circle106"/>
	<circle cx="735.989" cy="204.661" r="4" fill="#0" id="circle107"/>
	<circle cx="735.989" cy="258.359" r="4" fill="#0" id="circle108"/>
	<circle cx="735.989" cy="586.199" r="4" fill="#0" id="circle109"/>
	<circle cx="750.12" cy="461.846" r="4" fill="#0" id="circle110"/>
	<circle cx="752.946" cy="557.937" r="4" fill="#0" id="circle111"/>
	<circle cx="758.598" cy="490.108" r="4" fill="#0" id="circle112"/>
	<circle cx="764.251" cy="518.37" r="4" fill="#0" id="circle113"/>
	</g>
</svg>