<?xml version="1.0" encoding="UTF-8" standalone="no"?>
<!-- Created with CurveBenchmark -->
<svg
	xmlns:dc="http://purl.org/dc/elements/1.1/"
	xmlns:cc="http://creativecommons.org/ns#"
	xmlns:rdf="http://www.w3.org/1999/02/22-rdf-syntax-ns#"
	xmlns:svg="http://www.w3.org/2000/svg"
	xmlns="http://www.w3.org/2000/svg"
	xmlns:sodipodi="http://sodipodi.sourceforge.net/DTD/sodipodi-0.dtd"
	xmlns:inkscape="http://www.inkscape.org/namespaces/inkscape"
	width="1000"
	height="1000"
	id="svg2"
	version="1.1"
	sodipodi:docname="manifold/peel-cat3.png.txt">
<defs
	id="defs4" />
<metadata
	id="metadata7">
	<rdf:RDF>
		<cc:Work
			rdf:about="">
			<dc:format>image/svg+xml</dc:format>
			<dc:type
				rdf:resource="http://purl.org/dc/dcmitype/StillImage" />
			<dc:title></dc:title>
		</cc:Work>
	</rdf:RDF>
</metadata>
<g
	inkscape:label="Layer 1"
	inkscape:groupmode="layer"
	id="layer1">
	<path style="fill:none;stroke:red;stroke-width:1px;stroke-linecap:butt;stroke-linejoin:miter;stroke-opacity:1" d="M 23.84,501.984 4,496.032 z" id="boundary" inkscape:connector-curvature="0" />
	<path style="fill:none;stroke:red;stroke-width:1px;stroke-linecap:butt;stroke-linejoin:miter;stroke-opacity:1" d="M 4,496.032 4,476.192 z" id="boundary" inkscape:connector-curvature="0" />
	<path style="fill:none;stroke:red;stroke-width:1px;stroke-linecap:butt;stroke-linejoin:miter;stroke-opacity:1" d="M 4,476.192 23.84,466.272 z" id="boundary" inkscape:connector-curvature="0" />
	<path style="fill:none;stroke:red;stroke-width:1px;stroke-linecap:butt;stroke-linejoin:miter;stroke-opacity:1" d="M 41.696,511.904 23.84,501.984 z" id="boundary" inkscape:connector-curvature="0" />
	<path style="fill:none;stroke:red;stroke-width:1px;stroke-linecap:butt;stroke-linejoin:miter;stroke-opacity:1" d="M 43.68,456.352 23.84,466.272 z" id="boundary" inkscape:connector-curvature="0" />
	<path style="fill:none;stroke:red;stroke-width:1px;stroke-linecap:butt;stroke-linejoin:miter;stroke-opacity:1" d="M 83.36,148.832 83.36,128.992 z" id="boundary" inkscape:connector-curvature="0" />
	<path style="fill:none;stroke:red;stroke-width:1px;stroke-linecap:butt;stroke-linejoin:miter;stroke-opacity:1" d="M 61.536,511.904 41.696,511.904 z" id="boundary" inkscape:connector-curvature="0" />
	<path style="fill:none;stroke:red;stroke-width:1px;stroke-linecap:butt;stroke-linejoin:miter;stroke-opacity:1" d="M 63.52,446.432 43.68,456.352 z" id="boundary" inkscape:connector-curvature="0" />
	<path style="fill:none;stroke:red;stroke-width:1px;stroke-linecap:butt;stroke-linejoin:miter;stroke-opacity:1" d="M 93.28,186.528 93.28,206.368 z" id="boundary" inkscape:connector-curvature="0" />
	<path style="fill:none;stroke:red;stroke-width:1px;stroke-linecap:butt;stroke-linejoin:miter;stroke-opacity:1" d="M 79.392,430.56 63.52,446.432 z" id="boundary" inkscape:connector-curvature="0" />
	<path style="fill:none;stroke:red;stroke-width:1px;stroke-linecap:butt;stroke-linejoin:miter;stroke-opacity:1" d="M 79.392,501.984 61.536,511.904 z" id="boundary" inkscape:connector-curvature="0" />
	<path style="fill:none;stroke:red;stroke-width:1px;stroke-linecap:butt;stroke-linejoin:miter;stroke-opacity:1" d="M 93.28,206.368 93.28,226.208 z" id="boundary" inkscape:connector-curvature="0" />
	<path style="fill:none;stroke:red;stroke-width:1px;stroke-linecap:butt;stroke-linejoin:miter;stroke-opacity:1" d="M 99.232,500 79.392,501.984 z" id="boundary" inkscape:connector-curvature="0" />
	<path style="fill:none;stroke:red;stroke-width:1px;stroke-linecap:butt;stroke-linejoin:miter;stroke-opacity:1" d="M 93.28,166.688 93.28,186.528 z" id="boundary" inkscape:connector-curvature="0" />
	<path style="fill:none;stroke:red;stroke-width:1px;stroke-linecap:butt;stroke-linejoin:miter;stroke-opacity:1" d="M 93.28,166.688 83.36,148.832 z" id="boundary" inkscape:connector-curvature="0" />
	<path style="fill:none;stroke:red;stroke-width:1px;stroke-linecap:butt;stroke-linejoin:miter;stroke-opacity:1" d="M 103.2,123.04 83.36,128.992 z" id="boundary" inkscape:connector-curvature="0" />
	<path style="fill:none;stroke:red;stroke-width:1px;stroke-linecap:butt;stroke-linejoin:miter;stroke-opacity:1" d="M 93.28,226.208 93.28,246.048 z" id="boundary" inkscape:connector-curvature="0" />
	<path style="fill:none;stroke:red;stroke-width:1px;stroke-linecap:butt;stroke-linejoin:miter;stroke-opacity:1" d="M 93.28,246.048 93.28,265.888 z" id="boundary" inkscape:connector-curvature="0" />
	<path style="fill:none;stroke:red;stroke-width:1px;stroke-linecap:butt;stroke-linejoin:miter;stroke-opacity:1" d="M 103.2,123.04 123.04,127.008 z" id="boundary" inkscape:connector-curvature="0" />
	<path style="fill:none;stroke:red;stroke-width:1px;stroke-linecap:butt;stroke-linejoin:miter;stroke-opacity:1" d="M 142.88,132.96 123.04,127.008 z" id="boundary" inkscape:connector-curvature="0" />
	<path style="fill:none;stroke:red;stroke-width:1px;stroke-linecap:butt;stroke-linejoin:miter;stroke-opacity:1" d="M 103.2,283.744 93.28,265.888 z" id="boundary" inkscape:connector-curvature="0" />
	<path style="fill:none;stroke:red;stroke-width:1px;stroke-linecap:butt;stroke-linejoin:miter;stroke-opacity:1" d="M 99.232,420.64 79.392,430.56 z" id="boundary" inkscape:connector-curvature="0" />
	<path style="fill:none;stroke:red;stroke-width:1px;stroke-linecap:butt;stroke-linejoin:miter;stroke-opacity:1" d="M 115.104,299.616 103.2,283.744 z" id="boundary" inkscape:connector-curvature="0" />
	<path style="fill:none;stroke:red;stroke-width:1px;stroke-linecap:butt;stroke-linejoin:miter;stroke-opacity:1" d="M 119.072,490.08 99.232,500 z" id="boundary" inkscape:connector-curvature="0" />
	<path style="fill:none;stroke:red;stroke-width:1px;stroke-linecap:butt;stroke-linejoin:miter;stroke-opacity:1" d="M 125.024,317.472 115.104,299.616 z" id="boundary" inkscape:connector-curvature="0" />
	<path style="fill:none;stroke:red;stroke-width:1px;stroke-linecap:butt;stroke-linejoin:miter;stroke-opacity:1" d="M 99.232,420.64 115.104,404.768 z" id="boundary" inkscape:connector-curvature="0" />
	<path style="fill:none;stroke:red;stroke-width:1px;stroke-linecap:butt;stroke-linejoin:miter;stroke-opacity:1" d="M 180.576,123.04 160.736,123.04 z" id="boundary" inkscape:connector-curvature="0" />
	<path style="fill:none;stroke:red;stroke-width:1px;stroke-linecap:butt;stroke-linejoin:miter;stroke-opacity:1" d="M 160.736,123.04 142.88,132.96 z" id="boundary" inkscape:connector-curvature="0" />
	<path style="fill:none;stroke:red;stroke-width:1px;stroke-linecap:butt;stroke-linejoin:miter;stroke-opacity:1" d="M 138.912,480.16 119.072,490.08 z" id="boundary" inkscape:connector-curvature="0" />
	<path style="fill:none;stroke:red;stroke-width:1px;stroke-linecap:butt;stroke-linejoin:miter;stroke-opacity:1" d="M 125.024,317.472 138.912,333.344 z" id="boundary" inkscape:connector-curvature="0" />
	<path style="fill:none;stroke:red;stroke-width:1px;stroke-linecap:butt;stroke-linejoin:miter;stroke-opacity:1" d="M 134.944,394.848 115.104,404.768 z" id="boundary" inkscape:connector-curvature="0" />
	<path style="fill:none;stroke:red;stroke-width:1px;stroke-linecap:butt;stroke-linejoin:miter;stroke-opacity:1" d="M 150.816,380.96 134.944,394.848 z" id="boundary" inkscape:connector-curvature="0" />
	<path style="fill:none;stroke:red;stroke-width:1px;stroke-linecap:butt;stroke-linejoin:miter;stroke-opacity:1" d="M 138.912,333.344 156.768,343.264 z" id="boundary" inkscape:connector-curvature="0" />
	<path style="fill:none;stroke:red;stroke-width:1px;stroke-linecap:butt;stroke-linejoin:miter;stroke-opacity:1" d="M 301.6,525.792 311.52,543.648 z" id="boundary" inkscape:connector-curvature="0" />
	<path style="fill:none;stroke:red;stroke-width:1px;stroke-linecap:butt;stroke-linejoin:miter;stroke-opacity:1" d="M 154.784,462.304 138.912,480.16 z" id="boundary" inkscape:connector-curvature="0" />
	<path style="fill:none;stroke:red;stroke-width:1px;stroke-linecap:butt;stroke-linejoin:miter;stroke-opacity:1" d="M 156.768,343.264 168.672,371.04 z" id="boundary" inkscape:connector-curvature="0" />
	<path style="fill:none;stroke:red;stroke-width:1px;stroke-linecap:butt;stroke-linejoin:miter;stroke-opacity:1" d="M 168.672,371.04 150.816,380.96 z" id="boundary" inkscape:connector-curvature="0" />
	<path style="fill:none;stroke:red;stroke-width:1px;stroke-linecap:butt;stroke-linejoin:miter;stroke-opacity:1" d="M 174.624,452.384 154.784,462.304 z" id="boundary" inkscape:connector-curvature="0" />
	<path style="fill:none;stroke:red;stroke-width:1px;stroke-linecap:butt;stroke-linejoin:miter;stroke-opacity:1" d="M 180.576,123.04 200.416,123.04 z" id="boundary" inkscape:connector-curvature="0" />
	<path style="fill:none;stroke:red;stroke-width:1px;stroke-linecap:butt;stroke-linejoin:miter;stroke-opacity:1" d="M 200.416,123.04 220.256,123.04 z" id="boundary" inkscape:connector-curvature="0" />
	<path style="fill:none;stroke:red;stroke-width:1px;stroke-linecap:butt;stroke-linejoin:miter;stroke-opacity:1" d="M 194.464,442.464 174.624,452.384 z" id="boundary" inkscape:connector-curvature="0" />
	<path style="fill:none;stroke:red;stroke-width:1px;stroke-linecap:butt;stroke-linejoin:miter;stroke-opacity:1" d="M 212.32,432.544 194.464,442.464 z" id="boundary" inkscape:connector-curvature="0" />
	<path style="fill:none;stroke:red;stroke-width:1px;stroke-linecap:butt;stroke-linejoin:miter;stroke-opacity:1" d="M 228.192,420.64 212.32,432.544 z" id="boundary" inkscape:connector-curvature="0" />
	<path style="fill:none;stroke:red;stroke-width:1px;stroke-linecap:butt;stroke-linejoin:miter;stroke-opacity:1" d="M 234.144,107.168 250.016,93.28 z" id="boundary" inkscape:connector-curvature="0" />
	<path style="fill:none;stroke:red;stroke-width:1px;stroke-linecap:butt;stroke-linejoin:miter;stroke-opacity:1" d="M 250.016,93.28 267.872,103.2 z" id="boundary" inkscape:connector-curvature="0" />
	<path style="fill:none;stroke:red;stroke-width:1px;stroke-linecap:butt;stroke-linejoin:miter;stroke-opacity:1" d="M 220.256,123.04 234.144,107.168 z" id="boundary" inkscape:connector-curvature="0" />
	<path style="fill:none;stroke:red;stroke-width:1px;stroke-linecap:butt;stroke-linejoin:miter;stroke-opacity:1" d="M 244.064,402.784 228.192,420.64 z" id="boundary" inkscape:connector-curvature="0" />
	<path style="fill:none;stroke:red;stroke-width:1px;stroke-linecap:butt;stroke-linejoin:miter;stroke-opacity:1" d="M 259.936,388.896 244.064,402.784 z" id="boundary" inkscape:connector-curvature="0" />
	<path style="fill:none;stroke:red;stroke-width:1px;stroke-linecap:butt;stroke-linejoin:miter;stroke-opacity:1" d="M 267.872,103.2 287.712,103.2 z" id="boundary" inkscape:connector-curvature="0" />
	<path style="fill:none;stroke:red;stroke-width:1px;stroke-linecap:butt;stroke-linejoin:miter;stroke-opacity:1" d="M 273.824,373.024 259.936,388.896 z" id="boundary" inkscape:connector-curvature="0" />
	<path style="fill:none;stroke:red;stroke-width:1px;stroke-linecap:butt;stroke-linejoin:miter;stroke-opacity:1" d="M 291.68,363.104 311.52,363.104 z" id="boundary" inkscape:connector-curvature="0" />
	<path style="fill:none;stroke:red;stroke-width:1px;stroke-linecap:butt;stroke-linejoin:miter;stroke-opacity:1" d="M 291.68,363.104 273.824,373.024 z" id="boundary" inkscape:connector-curvature="0" />
	<path style="fill:none;stroke:red;stroke-width:1px;stroke-linecap:butt;stroke-linejoin:miter;stroke-opacity:1" d="M 303.584,87.328 323.424,77.408 z" id="boundary" inkscape:connector-curvature="0" />
	<path style="fill:none;stroke:red;stroke-width:1px;stroke-linecap:butt;stroke-linejoin:miter;stroke-opacity:1" d="M 303.584,87.328 287.712,103.2 z" id="boundary" inkscape:connector-curvature="0" />
	<path style="fill:none;stroke:red;stroke-width:1px;stroke-linecap:butt;stroke-linejoin:miter;stroke-opacity:1" d="M 311.52,543.648 331.36,551.584 z" id="boundary" inkscape:connector-curvature="0" />
	<path style="fill:none;stroke:red;stroke-width:1px;stroke-linecap:butt;stroke-linejoin:miter;stroke-opacity:1" d="M 311.52,363.104 331.36,363.104 z" id="boundary" inkscape:connector-curvature="0" />
	<path style="fill:none;stroke:red;stroke-width:1px;stroke-linecap:butt;stroke-linejoin:miter;stroke-opacity:1" d="M 311.52,505.952 301.6,525.792 z" id="boundary" inkscape:connector-curvature="0" />
	<path style="fill:none;stroke:red;stroke-width:1px;stroke-linecap:butt;stroke-linejoin:miter;stroke-opacity:1" d="M 371.04,398.816 363.104,378.976 z" id="boundary" inkscape:connector-curvature="0" />
	<path style="fill:none;stroke:red;stroke-width:1px;stroke-linecap:butt;stroke-linejoin:miter;stroke-opacity:1" d="M 323.424,77.408 343.264,73.44 z" id="boundary" inkscape:connector-curvature="0" />
	<path style="fill:none;stroke:red;stroke-width:1px;stroke-linecap:butt;stroke-linejoin:miter;stroke-opacity:1" d="M 311.52,505.952 331.36,500 z" id="boundary" inkscape:connector-curvature="0" />
	<path style="fill:none;stroke:red;stroke-width:1px;stroke-linecap:butt;stroke-linejoin:miter;stroke-opacity:1" d="M 331.36,363.104 351.2,363.104 z" id="boundary" inkscape:connector-curvature="0" />
	<path style="fill:none;stroke:red;stroke-width:1px;stroke-linecap:butt;stroke-linejoin:miter;stroke-opacity:1" d="M 351.2,363.104 363.104,378.976 z" id="boundary" inkscape:connector-curvature="0" />
	<path style="fill:none;stroke:red;stroke-width:1px;stroke-linecap:butt;stroke-linejoin:miter;stroke-opacity:1" d="M 371.04,418.656 371.04,398.816 z" id="boundary" inkscape:connector-curvature="0" />
	<path style="fill:none;stroke:red;stroke-width:1px;stroke-linecap:butt;stroke-linejoin:miter;stroke-opacity:1" d="M 343.264,73.44 361.12,63.52 z" id="boundary" inkscape:connector-curvature="0" />
	<path style="fill:none;stroke:red;stroke-width:1px;stroke-linecap:butt;stroke-linejoin:miter;stroke-opacity:1" d="M 351.2,496.032 331.36,500 z" id="boundary" inkscape:connector-curvature="0" />
	<path style="fill:none;stroke:red;stroke-width:1px;stroke-linecap:butt;stroke-linejoin:miter;stroke-opacity:1" d="M 361.12,63.52 380.96,63.52 z" id="boundary" inkscape:connector-curvature="0" />
	<path style="fill:none;stroke:red;stroke-width:1px;stroke-linecap:butt;stroke-linejoin:miter;stroke-opacity:1" d="M 351.2,551.584 331.36,551.584 z" id="boundary" inkscape:connector-curvature="0" />
	<path style="fill:none;stroke:red;stroke-width:1px;stroke-linecap:butt;stroke-linejoin:miter;stroke-opacity:1" d="M 400.8,63.52 380.96,63.52 z" id="boundary" inkscape:connector-curvature="0" />
	<path style="fill:none;stroke:red;stroke-width:1px;stroke-linecap:butt;stroke-linejoin:miter;stroke-opacity:1" d="M 351.2,496.032 367.072,480.16 z" id="boundary" inkscape:connector-curvature="0" />
	<path style="fill:none;stroke:red;stroke-width:1px;stroke-linecap:butt;stroke-linejoin:miter;stroke-opacity:1" d="M 371.04,418.656 371.04,438.496 z" id="boundary" inkscape:connector-curvature="0" />
	<path style="fill:none;stroke:red;stroke-width:1px;stroke-linecap:butt;stroke-linejoin:miter;stroke-opacity:1" d="M 371.04,545.632 351.2,551.584 z" id="boundary" inkscape:connector-curvature="0" />
	<path style="fill:none;stroke:red;stroke-width:1px;stroke-linecap:butt;stroke-linejoin:miter;stroke-opacity:1" d="M 420.64,63.52 400.8,63.52 z" id="boundary" inkscape:connector-curvature="0" />
	<path style="fill:none;stroke:red;stroke-width:1px;stroke-linecap:butt;stroke-linejoin:miter;stroke-opacity:1" d="M 371.04,438.496 371.04,458.336 z" id="boundary" inkscape:connector-curvature="0" />
	<path style="fill:none;stroke:red;stroke-width:1px;stroke-linecap:butt;stroke-linejoin:miter;stroke-opacity:1" d="M 420.64,63.52 440.48,63.52 z" id="boundary" inkscape:connector-curvature="0" />
	<path style="fill:none;stroke:red;stroke-width:1px;stroke-linecap:butt;stroke-linejoin:miter;stroke-opacity:1" d="M 371.04,458.336 367.072,480.16 z" id="boundary" inkscape:connector-curvature="0" />
	<path style="fill:none;stroke:red;stroke-width:1px;stroke-linecap:butt;stroke-linejoin:miter;stroke-opacity:1" d="M 390.88,535.712 371.04,545.632 z" id="boundary" inkscape:connector-curvature="0" />
	<path style="fill:none;stroke:red;stroke-width:1px;stroke-linecap:butt;stroke-linejoin:miter;stroke-opacity:1" d="M 460.32,63.52 440.48,63.52 z" id="boundary" inkscape:connector-curvature="0" />
	<path style="fill:none;stroke:red;stroke-width:1px;stroke-linecap:butt;stroke-linejoin:miter;stroke-opacity:1" d="M 406.752,519.84 390.88,535.712 z" id="boundary" inkscape:connector-curvature="0" />
	<path style="fill:none;stroke:red;stroke-width:1px;stroke-linecap:butt;stroke-linejoin:miter;stroke-opacity:1" d="M 609.12,466.272 624.992,480.16 z" id="boundary" inkscape:connector-curvature="0" />
	<path style="fill:none;stroke:red;stroke-width:1px;stroke-linecap:butt;stroke-linejoin:miter;stroke-opacity:1" d="M 422.624,492.064 406.752,519.84 z" id="boundary" inkscape:connector-curvature="0" />
	<path style="fill:none;stroke:red;stroke-width:1px;stroke-linecap:butt;stroke-linejoin:miter;stroke-opacity:1" d="M 438.496,478.176 422.624,492.064 z" id="boundary" inkscape:connector-curvature="0" />
	<path style="fill:none;stroke:red;stroke-width:1px;stroke-linecap:butt;stroke-linejoin:miter;stroke-opacity:1" d="M 448.416,458.336 438.496,478.176 z" id="boundary" inkscape:connector-curvature="0" />
	<path style="fill:none;stroke:red;stroke-width:1px;stroke-linecap:butt;stroke-linejoin:miter;stroke-opacity:1" d="M 452.384,432.544 448.416,458.336 z" id="boundary" inkscape:connector-curvature="0" />
	<path style="fill:none;stroke:red;stroke-width:1px;stroke-linecap:butt;stroke-linejoin:miter;stroke-opacity:1" d="M 462.304,392.864 462.304,412.704 z" id="boundary" inkscape:connector-curvature="0" />
	<path style="fill:none;stroke:red;stroke-width:1px;stroke-linecap:butt;stroke-linejoin:miter;stroke-opacity:1" d="M 462.304,412.704 452.384,432.544 z" id="boundary" inkscape:connector-curvature="0" />
	<path style="fill:none;stroke:red;stroke-width:1px;stroke-linecap:butt;stroke-linejoin:miter;stroke-opacity:1" d="M 460.32,63.52 478.176,53.6 z" id="boundary" inkscape:connector-curvature="0" />
	<path style="fill:none;stroke:red;stroke-width:1px;stroke-linecap:butt;stroke-linejoin:miter;stroke-opacity:1" d="M 472.224,353.184 472.224,373.024 z" id="boundary" inkscape:connector-curvature="0" />
	<path style="fill:none;stroke:red;stroke-width:1px;stroke-linecap:butt;stroke-linejoin:miter;stroke-opacity:1" d="M 472.224,373.024 462.304,392.864 z" id="boundary" inkscape:connector-curvature="0" />
	<path style="fill:none;stroke:red;stroke-width:1px;stroke-linecap:butt;stroke-linejoin:miter;stroke-opacity:1" d="M 472.224,353.184 482.144,333.344 z" id="boundary" inkscape:connector-curvature="0" />
	<path style="fill:none;stroke:red;stroke-width:1px;stroke-linecap:butt;stroke-linejoin:miter;stroke-opacity:1" d="M 501.984,333.344 519.84,323.424 z" id="boundary" inkscape:connector-curvature="0" />
	<path style="fill:none;stroke:red;stroke-width:1px;stroke-linecap:butt;stroke-linejoin:miter;stroke-opacity:1" d="M 519.84,323.424 539.68,323.424 z" id="boundary" inkscape:connector-curvature="0" />
	<path style="fill:none;stroke:red;stroke-width:1px;stroke-linecap:butt;stroke-linejoin:miter;stroke-opacity:1" d="M 478.176,53.6 498.016,53.6 z" id="boundary" inkscape:connector-curvature="0" />
	<path style="fill:none;stroke:red;stroke-width:1px;stroke-linecap:butt;stroke-linejoin:miter;stroke-opacity:1" d="M 482.144,333.344 501.984,333.344 z" id="boundary" inkscape:connector-curvature="0" />
	<path style="fill:none;stroke:red;stroke-width:1px;stroke-linecap:butt;stroke-linejoin:miter;stroke-opacity:1" d="M 515.872,43.68 535.712,43.68 z" id="boundary" inkscape:connector-curvature="0" />
	<path style="fill:none;stroke:red;stroke-width:1px;stroke-linecap:butt;stroke-linejoin:miter;stroke-opacity:1" d="M 515.872,43.68 498.016,53.6 z" id="boundary" inkscape:connector-curvature="0" />
	<path style="fill:none;stroke:red;stroke-width:1px;stroke-linecap:butt;stroke-linejoin:miter;stroke-opacity:1" d="M 559.52,323.424 539.68,323.424 z" id="boundary" inkscape:connector-curvature="0" />
	<path style="fill:none;stroke:red;stroke-width:1px;stroke-linecap:butt;stroke-linejoin:miter;stroke-opacity:1" d="M 553.568,33.76 535.712,43.68 z" id="boundary" inkscape:connector-curvature="0" />
	<path style="fill:none;stroke:red;stroke-width:1px;stroke-linecap:butt;stroke-linejoin:miter;stroke-opacity:1" d="M 559.52,323.424 577.376,313.504 z" id="boundary" inkscape:connector-curvature="0" />
	<path style="fill:none;stroke:red;stroke-width:1px;stroke-linecap:butt;stroke-linejoin:miter;stroke-opacity:1" d="M 577.376,313.504 597.216,313.504 z" id="boundary" inkscape:connector-curvature="0" />
	<path style="fill:none;stroke:red;stroke-width:1px;stroke-linecap:butt;stroke-linejoin:miter;stroke-opacity:1" d="M 573.408,25.824 593.248,23.84 z" id="boundary" inkscape:connector-curvature="0" />
	<path style="fill:none;stroke:red;stroke-width:1px;stroke-linecap:butt;stroke-linejoin:miter;stroke-opacity:1" d="M 573.408,25.824 553.568,33.76 z" id="boundary" inkscape:connector-curvature="0" />
	<path style="fill:none;stroke:red;stroke-width:1px;stroke-linecap:butt;stroke-linejoin:miter;stroke-opacity:1" d="M 609.12,466.272 609.12,446.432 z" id="boundary" inkscape:connector-curvature="0" />
	<path style="fill:none;stroke:red;stroke-width:1px;stroke-linecap:butt;stroke-linejoin:miter;stroke-opacity:1" d="M 613.088,15.904 632.928,13.92 z" id="boundary" inkscape:connector-curvature="0" />
	<path style="fill:none;stroke:red;stroke-width:1px;stroke-linecap:butt;stroke-linejoin:miter;stroke-opacity:1" d="M 613.088,15.904 593.248,23.84 z" id="boundary" inkscape:connector-curvature="0" />
	<path style="fill:none;stroke:red;stroke-width:1px;stroke-linecap:butt;stroke-linejoin:miter;stroke-opacity:1" d="M 597.216,313.504 617.056,313.504 z" id="boundary" inkscape:connector-curvature="0" />
	<path style="fill:none;stroke:red;stroke-width:1px;stroke-linecap:butt;stroke-linejoin:miter;stroke-opacity:1" d="M 624.992,480.16 644.832,482.144 z" id="boundary" inkscape:connector-curvature="0" />
	<path style="fill:none;stroke:red;stroke-width:1px;stroke-linecap:butt;stroke-linejoin:miter;stroke-opacity:1" d="M 624.992,430.56 609.12,446.432 z" id="boundary" inkscape:connector-curvature="0" />
	<path style="fill:none;stroke:red;stroke-width:1px;stroke-linecap:butt;stroke-linejoin:miter;stroke-opacity:1" d="M 632.928,13.92 652.768,13.92 z" id="boundary" inkscape:connector-curvature="0" />
	<path style="fill:none;stroke:red;stroke-width:1px;stroke-linecap:butt;stroke-linejoin:miter;stroke-opacity:1" d="M 617.056,313.504 636.896,313.504 z" id="boundary" inkscape:connector-curvature="0" />
	<path style="fill:none;stroke:red;stroke-width:1px;stroke-linecap:butt;stroke-linejoin:miter;stroke-opacity:1" d="M 642.848,420.64 624.992,430.56 z" id="boundary" inkscape:connector-curvature="0" />
	<path style="fill:none;stroke:red;stroke-width:1px;stroke-linecap:butt;stroke-linejoin:miter;stroke-opacity:1" d="M 684.512,341.28 674.592,323.424 z" id="boundary" inkscape:connector-curvature="0" />
	<path style="fill:none;stroke:red;stroke-width:1px;stroke-linecap:butt;stroke-linejoin:miter;stroke-opacity:1" d="M 674.592,323.424 656.736,313.504 z" id="boundary" inkscape:connector-curvature="0" />
	<path style="fill:none;stroke:red;stroke-width:1px;stroke-linecap:butt;stroke-linejoin:miter;stroke-opacity:1" d="M 636.896,313.504 656.736,313.504 z" id="boundary" inkscape:connector-curvature="0" />
	<path style="fill:none;stroke:red;stroke-width:1px;stroke-linecap:butt;stroke-linejoin:miter;stroke-opacity:1" d="M 769.824,511.904 757.92,496.032 z" id="boundary" inkscape:connector-curvature="0" />
	<path style="fill:none;stroke:red;stroke-width:1px;stroke-linecap:butt;stroke-linejoin:miter;stroke-opacity:1" d="M 670.624,4 690.464,4 z" id="boundary" inkscape:connector-curvature="0" />
	<path style="fill:none;stroke:red;stroke-width:1px;stroke-linecap:butt;stroke-linejoin:miter;stroke-opacity:1" d="M 670.624,4 652.768,13.92 z" id="boundary" inkscape:connector-curvature="0" />
	<path style="fill:none;stroke:red;stroke-width:1px;stroke-linecap:butt;stroke-linejoin:miter;stroke-opacity:1" d="M 662.688,420.64 642.848,420.64 z" id="boundary" inkscape:connector-curvature="0" />
	<path style="fill:none;stroke:red;stroke-width:1px;stroke-linecap:butt;stroke-linejoin:miter;stroke-opacity:1" d="M 664.672,480.16 644.832,482.144 z" id="boundary" inkscape:connector-curvature="0" />
	<path style="fill:none;stroke:red;stroke-width:1px;stroke-linecap:butt;stroke-linejoin:miter;stroke-opacity:1" d="M 710.304,4 690.464,4 z" id="boundary" inkscape:connector-curvature="0" />
	<path style="fill:none;stroke:red;stroke-width:1px;stroke-linecap:butt;stroke-linejoin:miter;stroke-opacity:1" d="M 692.448,361.12 684.512,341.28 z" id="boundary" inkscape:connector-curvature="0" />
	<path style="fill:none;stroke:red;stroke-width:1px;stroke-linecap:butt;stroke-linejoin:miter;stroke-opacity:1" d="M 682.528,412.704 662.688,420.64 z" id="boundary" inkscape:connector-curvature="0" />
	<path style="fill:none;stroke:red;stroke-width:1px;stroke-linecap:butt;stroke-linejoin:miter;stroke-opacity:1" d="M 692.448,392.864 692.448,361.12 z" id="boundary" inkscape:connector-curvature="0" />
	<path style="fill:none;stroke:red;stroke-width:1px;stroke-linecap:butt;stroke-linejoin:miter;stroke-opacity:1" d="M 684.512,472.224 664.672,480.16 z" id="boundary" inkscape:connector-curvature="0" />
	<path style="fill:none;stroke:red;stroke-width:1px;stroke-linecap:butt;stroke-linejoin:miter;stroke-opacity:1" d="M 749.984,4 730.144,4 z" id="boundary" inkscape:connector-curvature="0" />
	<path style="fill:none;stroke:red;stroke-width:1px;stroke-linecap:butt;stroke-linejoin:miter;stroke-opacity:1" d="M 704.352,470.24 684.512,472.224 z" id="boundary" inkscape:connector-curvature="0" />
	<path style="fill:none;stroke:red;stroke-width:1px;stroke-linecap:butt;stroke-linejoin:miter;stroke-opacity:1" d="M 730.144,4 710.304,4 z" id="boundary" inkscape:connector-curvature="0" />
	<path style="fill:none;stroke:red;stroke-width:1px;stroke-linecap:butt;stroke-linejoin:miter;stroke-opacity:1" d="M 682.528,412.704 692.448,392.864 z" id="boundary" inkscape:connector-curvature="0" />
	<path style="fill:none;stroke:red;stroke-width:1px;stroke-linecap:butt;stroke-linejoin:miter;stroke-opacity:1" d="M 769.824,4 787.68,13.92 z" id="boundary" inkscape:connector-curvature="0" />
	<path style="fill:none;stroke:red;stroke-width:1px;stroke-linecap:butt;stroke-linejoin:miter;stroke-opacity:1" d="M 769.824,4 749.984,4 z" id="boundary" inkscape:connector-curvature="0" />
	<path style="fill:none;stroke:red;stroke-width:1px;stroke-linecap:butt;stroke-linejoin:miter;stroke-opacity:1" d="M 757.92,476.192 757.92,496.032 z" id="boundary" inkscape:connector-curvature="0" />
	<path style="fill:none;stroke:red;stroke-width:1px;stroke-linecap:butt;stroke-linejoin:miter;stroke-opacity:1" d="M 720.224,452.384 704.352,470.24 z" id="boundary" inkscape:connector-curvature="0" />
	<path style="fill:none;stroke:red;stroke-width:1px;stroke-linecap:butt;stroke-linejoin:miter;stroke-opacity:1" d="M 736.096,438.496 720.224,452.384 z" id="boundary" inkscape:connector-curvature="0" />
	<path style="fill:none;stroke:red;stroke-width:1px;stroke-linecap:butt;stroke-linejoin:miter;stroke-opacity:1" d="M 779.744,343.264 779.744,323.424 z" id="boundary" inkscape:connector-curvature="0" />
	<path style="fill:none;stroke:red;stroke-width:1px;stroke-linecap:butt;stroke-linejoin:miter;stroke-opacity:1" d="M 749.984,422.624 736.096,438.496 z" id="boundary" inkscape:connector-curvature="0" />
	<path style="fill:none;stroke:red;stroke-width:1px;stroke-linecap:butt;stroke-linejoin:miter;stroke-opacity:1" d="M 759.904,402.784 749.984,422.624 z" id="boundary" inkscape:connector-curvature="0" />
	<path style="fill:none;stroke:red;stroke-width:1px;stroke-linecap:butt;stroke-linejoin:miter;stroke-opacity:1" d="M 759.904,402.784 769.824,382.944 z" id="boundary" inkscape:connector-curvature="0" />
	<path style="fill:none;stroke:red;stroke-width:1px;stroke-linecap:butt;stroke-linejoin:miter;stroke-opacity:1" d="M 757.92,476.192 773.792,460.32 z" id="boundary" inkscape:connector-curvature="0" />
	<path style="fill:none;stroke:red;stroke-width:1px;stroke-linecap:butt;stroke-linejoin:miter;stroke-opacity:1" d="M 779.744,363.104 779.744,343.264 z" id="boundary" inkscape:connector-curvature="0" />
	<path style="fill:none;stroke:red;stroke-width:1px;stroke-linecap:butt;stroke-linejoin:miter;stroke-opacity:1" d="M 789.664,511.904 769.824,511.904 z" id="boundary" inkscape:connector-curvature="0" />
	<path style="fill:none;stroke:red;stroke-width:1px;stroke-linecap:butt;stroke-linejoin:miter;stroke-opacity:1" d="M 769.824,382.944 779.744,363.104 z" id="boundary" inkscape:connector-curvature="0" />
	<path style="fill:none;stroke:red;stroke-width:1px;stroke-linecap:butt;stroke-linejoin:miter;stroke-opacity:1" d="M 787.68,13.92 807.52,13.92 z" id="boundary" inkscape:connector-curvature="0" />
	<path style="fill:none;stroke:red;stroke-width:1px;stroke-linecap:butt;stroke-linejoin:miter;stroke-opacity:1" d="M 807.52,13.92 825.376,23.84 z" id="boundary" inkscape:connector-curvature="0" />
	<path style="fill:none;stroke:red;stroke-width:1px;stroke-linecap:butt;stroke-linejoin:miter;stroke-opacity:1" d="M 799.584,347.232 813.472,363.104 z" id="boundary" inkscape:connector-curvature="0" />
	<path style="fill:none;stroke:red;stroke-width:1px;stroke-linecap:butt;stroke-linejoin:miter;stroke-opacity:1" d="M 791.648,450.4 773.792,460.32 z" id="boundary" inkscape:connector-curvature="0" />
	<path style="fill:none;stroke:red;stroke-width:1px;stroke-linecap:butt;stroke-linejoin:miter;stroke-opacity:1" d="M 809.504,511.904 789.664,511.904 z" id="boundary" inkscape:connector-curvature="0" />
	<path style="fill:none;stroke:red;stroke-width:1px;stroke-linecap:butt;stroke-linejoin:miter;stroke-opacity:1" d="M 791.648,450.4 811.488,442.464 z" id="boundary" inkscape:connector-curvature="0" />
	<path style="fill:none;stroke:red;stroke-width:1px;stroke-linecap:butt;stroke-linejoin:miter;stroke-opacity:1" d="M 825.376,23.84 845.216,23.84 z" id="boundary" inkscape:connector-curvature="0" />
	<path style="fill:none;stroke:red;stroke-width:1px;stroke-linecap:butt;stroke-linejoin:miter;stroke-opacity:1" d="M 845.216,23.84 863.072,33.76 z" id="boundary" inkscape:connector-curvature="0" />
	<path style="fill:none;stroke:red;stroke-width:1px;stroke-linecap:butt;stroke-linejoin:miter;stroke-opacity:1" d="M 813.472,363.104 827.36,378.976 z" id="boundary" inkscape:connector-curvature="0" />
	<path style="fill:none;stroke:red;stroke-width:1px;stroke-linecap:butt;stroke-linejoin:miter;stroke-opacity:1" d="M 827.36,378.976 827.36,398.816 z" id="boundary" inkscape:connector-curvature="0" />
	<path style="fill:none;stroke:red;stroke-width:1px;stroke-linecap:butt;stroke-linejoin:miter;stroke-opacity:1" d="M 882.912,33.76 896.8,49.632 z" id="boundary" inkscape:connector-curvature="0" />
	<path style="fill:none;stroke:red;stroke-width:1px;stroke-linecap:butt;stroke-linejoin:miter;stroke-opacity:1" d="M 882.912,33.76 863.072,33.76 z" id="boundary" inkscape:connector-curvature="0" />
	<path style="fill:none;stroke:red;stroke-width:1px;stroke-linecap:butt;stroke-linejoin:miter;stroke-opacity:1" d="M 827.36,398.816 827.36,418.656 z" id="boundary" inkscape:connector-curvature="0" />
	<path style="fill:none;stroke:red;stroke-width:1px;stroke-linecap:butt;stroke-linejoin:miter;stroke-opacity:1" d="M 811.488,442.464 827.36,418.656 z" id="boundary" inkscape:connector-curvature="0" />
	<path style="fill:none;stroke:red;stroke-width:1px;stroke-linecap:butt;stroke-linejoin:miter;stroke-opacity:1" d="M 888.864,283.744 888.864,263.904 z" id="boundary" inkscape:connector-curvature="0" />
	<path style="fill:none;stroke:red;stroke-width:1px;stroke-linecap:butt;stroke-linejoin:miter;stroke-opacity:1" d="M 827.36,501.984 809.504,511.904 z" id="boundary" inkscape:connector-curvature="0" />
	<path style="fill:none;stroke:red;stroke-width:1px;stroke-linecap:butt;stroke-linejoin:miter;stroke-opacity:1" d="M 847.2,496.032 827.36,501.984 z" id="boundary" inkscape:connector-curvature="0" />
	<path style="fill:none;stroke:red;stroke-width:1px;stroke-linecap:butt;stroke-linejoin:miter;stroke-opacity:1" d="M 888.864,283.744 888.864,303.584 z" id="boundary" inkscape:connector-curvature="0" />
	<path style="fill:none;stroke:red;stroke-width:1px;stroke-linecap:butt;stroke-linejoin:miter;stroke-opacity:1" d="M 863.072,480.16 847.2,496.032 z" id="boundary" inkscape:connector-curvature="0" />
	<path style="fill:none;stroke:red;stroke-width:1px;stroke-linecap:butt;stroke-linejoin:miter;stroke-opacity:1" d="M 878.944,452.384 863.072,480.16 z" id="boundary" inkscape:connector-curvature="0" />
	<path style="fill:none;stroke:red;stroke-width:1px;stroke-linecap:butt;stroke-linejoin:miter;stroke-opacity:1" d="M 892.832,323.424 888.864,303.584 z" id="boundary" inkscape:connector-curvature="0" />
	<path style="fill:none;stroke:red;stroke-width:1px;stroke-linecap:butt;stroke-linejoin:miter;stroke-opacity:1" d="M 888.864,263.904 898.784,244.064 z" id="boundary" inkscape:connector-curvature="0" />
	<path style="fill:none;stroke:red;stroke-width:1px;stroke-linecap:butt;stroke-linejoin:miter;stroke-opacity:1" d="M 898.784,244.064 898.784,224.224 z" id="boundary" inkscape:connector-curvature="0" />
	<path style="fill:none;stroke:red;stroke-width:1px;stroke-linecap:butt;stroke-linejoin:miter;stroke-opacity:1" d="M 888.864,432.544 878.944,452.384 z" id="boundary" inkscape:connector-curvature="0" />
	<path style="fill:none;stroke:red;stroke-width:1px;stroke-linecap:butt;stroke-linejoin:miter;stroke-opacity:1" d="M 892.832,323.424 898.784,343.264 z" id="boundary" inkscape:connector-curvature="0" />
	<path style="fill:none;stroke:red;stroke-width:1px;stroke-linecap:butt;stroke-linejoin:miter;stroke-opacity:1" d="M 962.272,43.68 954.336,63.52 z" id="boundary" inkscape:connector-curvature="0" />
	<path style="fill:none;stroke:red;stroke-width:1px;stroke-linecap:butt;stroke-linejoin:miter;stroke-opacity:1" d="M 954.336,63.52 934.496,63.52 z" id="boundary" inkscape:connector-curvature="0" />
	<path style="fill:none;stroke:red;stroke-width:1px;stroke-linecap:butt;stroke-linejoin:miter;stroke-opacity:1" d="M 968.224,125.024 948.384,125.024 z" id="boundary" inkscape:connector-curvature="0" />
	<path style="fill:none;stroke:red;stroke-width:1px;stroke-linecap:butt;stroke-linejoin:miter;stroke-opacity:1" d="M 908.704,194.464 898.784,224.224 z" id="boundary" inkscape:connector-curvature="0" />
	<path style="fill:none;stroke:red;stroke-width:1px;stroke-linecap:butt;stroke-linejoin:miter;stroke-opacity:1" d="M 898.784,343.264 902.752,363.104 z" id="boundary" inkscape:connector-curvature="0" />
	<path style="fill:none;stroke:red;stroke-width:1px;stroke-linecap:butt;stroke-linejoin:miter;stroke-opacity:1" d="M 898.784,402.784 888.864,432.544 z" id="boundary" inkscape:connector-curvature="0" />
	<path style="fill:none;stroke:red;stroke-width:1px;stroke-linecap:butt;stroke-linejoin:miter;stroke-opacity:1" d="M 908.704,382.944 898.784,402.784 z" id="boundary" inkscape:connector-curvature="0" />
	<path style="fill:none;stroke:red;stroke-width:1px;stroke-linecap:butt;stroke-linejoin:miter;stroke-opacity:1" d="M 908.704,382.944 902.752,363.104 z" id="boundary" inkscape:connector-curvature="0" />
	<path style="fill:none;stroke:red;stroke-width:1px;stroke-linecap:butt;stroke-linejoin:miter;stroke-opacity:1" d="M 896.8,49.632 916.64,53.6 z" id="boundary" inkscape:connector-curvature="0" />
	<path style="fill:none;stroke:red;stroke-width:1px;stroke-linecap:butt;stroke-linejoin:miter;stroke-opacity:1" d="M 918.624,144.864 918.624,164.704 z" id="boundary" inkscape:connector-curvature="0" />
	<path style="fill:none;stroke:red;stroke-width:1px;stroke-linecap:butt;stroke-linejoin:miter;stroke-opacity:1" d="M 918.624,164.704 908.704,194.464 z" id="boundary" inkscape:connector-curvature="0" />
	<path style="fill:none;stroke:red;stroke-width:1px;stroke-linecap:butt;stroke-linejoin:miter;stroke-opacity:1" d="M 934.496,63.52 916.64,53.6 z" id="boundary" inkscape:connector-curvature="0" />
	<path style="fill:none;stroke:red;stroke-width:1px;stroke-linecap:butt;stroke-linejoin:miter;stroke-opacity:1" d="M 928.544,125.024 948.384,125.024 z" id="boundary" inkscape:connector-curvature="0" />
	<path style="fill:none;stroke:red;stroke-width:1px;stroke-linecap:butt;stroke-linejoin:miter;stroke-opacity:1" d="M 928.544,125.024 918.624,144.864 z" id="boundary" inkscape:connector-curvature="0" />
	<path style="fill:none;stroke:red;stroke-width:1px;stroke-linecap:butt;stroke-linejoin:miter;stroke-opacity:1" d="M 962.272,43.68 982.112,43.68 z" id="boundary" inkscape:connector-curvature="0" />
	<path style="fill:none;stroke:red;stroke-width:1px;stroke-linecap:butt;stroke-linejoin:miter;stroke-opacity:1" d="M 968.224,125.024 984.096,111.136 z" id="boundary" inkscape:connector-curvature="0" />
	<path style="fill:none;stroke:red;stroke-width:1px;stroke-linecap:butt;stroke-linejoin:miter;stroke-opacity:1" d="M 982.112,43.68 996,59.552 z" id="boundary" inkscape:connector-curvature="0" />
	<path style="fill:none;stroke:red;stroke-width:1px;stroke-linecap:butt;stroke-linejoin:miter;stroke-opacity:1" d="M 994.016,91.296 984.096,111.136 z" id="boundary" inkscape:connector-curvature="0" />
	<path style="fill:none;stroke:red;stroke-width:1px;stroke-linecap:butt;stroke-linejoin:miter;stroke-opacity:1" d="M 996,59.552 994.016,91.296 z" id="boundary" inkscape:connector-curvature="0" />
	<circle cx="4" cy="476.192" r="4" fill="#0" id="circle0"/>
	<circle cx="4" cy="496.032" r="4" fill="#0" id="circle1"/>
	<circle cx="23.84" cy="466.272" r="4" fill="#0" id="circle2"/>
	<circle cx="23.84" cy="501.984" r="4" fill="#0" id="circle3"/>
	<circle cx="41.696" cy="511.904" r="4" fill="#0" id="circle4"/>
	<circle cx="43.68" cy="456.352" r="4" fill="#0" id="circle5"/>
	<circle cx="61.536" cy="511.904" r="4" fill="#0" id="circle6"/>
	<circle cx="63.52" cy="446.432" r="4" fill="#0" id="circle7"/>
	<circle cx="79.392" cy="430.56" r="4" fill="#0" id="circle8"/>
	<circle cx="79.392" cy="501.984" r="4" fill="#0" id="circle9"/>
	<circle cx="83.36" cy="128.992" r="4" fill="#0" id="circle10"/>
	<circle cx="83.36" cy="148.832" r="4" fill="#0" id="circle11"/>
	<circle cx="93.28" cy="166.688" r="4" fill="#0" id="circle12"/>
	<circle cx="93.28" cy="186.528" r="4" fill="#0" id="circle13"/>
	<circle cx="93.28" cy="206.368" r="4" fill="#0" id="circle14"/>
	<circle cx="93.28" cy="226.208" r="4" fill="#0" id="circle15"/>
	<circle cx="93.28" cy="246.048" r="4" fill="#0" id="circle16"/>
	<circle cx="93.28" cy="265.888" r="4" fill="#0" id="circle17"/>
	<circle cx="99.232" cy="420.64" r="4" fill="#0" id="circle18"/>
	<circle cx="99.232" cy="500" r="4" fill="#0" id="circle19"/>
	<circle cx="103.2" cy="123.04" r="4" fill="#0" id="circle20"/>
	<circle cx="103.2" cy="283.744" r="4" fill="#0" id="circle21"/>
	<circle cx="115.104" cy="299.616" r="4" fill="#0" id="circle22"/>
	<circle cx="115.104" cy="404.768" r="4" fill="#0" id="circle23"/>
	<circle cx="119.072" cy="490.08" r="4" fill="#0" id="circle24"/>
	<circle cx="123.04" cy="127.008" r="4" fill="#0" id="circle25"/>
	<circle cx="125.024" cy="317.472" r="4" fill="#0" id="circle26"/>
	<circle cx="134.944" cy="394.848" r="4" fill="#0" id="circle27"/>
	<circle cx="138.912" cy="333.344" r="4" fill="#0" id="circle28"/>
	<circle cx="138.912" cy="480.16" r="4" fill="#0" id="circle29"/>
	<circle cx="142.88" cy="132.96" r="4" fill="#0" id="circle30"/>
	<circle cx="150.816" cy="380.96" r="4" fill="#0" id="circle31"/>
	<circle cx="154.784" cy="462.304" r="4" fill="#0" id="circle32"/>
	<circle cx="156.768" cy="343.264" r="4" fill="#0" id="circle33"/>
	<circle cx="160.736" cy="123.04" r="4" fill="#0" id="circle34"/>
	<circle cx="168.672" cy="371.04" r="4" fill="#0" id="circle35"/>
	<circle cx="174.624" cy="452.384" r="4" fill="#0" id="circle36"/>
	<circle cx="180.576" cy="123.04" r="4" fill="#0" id="circle37"/>
	<circle cx="194.464" cy="442.464" r="4" fill="#0" id="circle38"/>
	<circle cx="200.416" cy="123.04" r="4" fill="#0" id="circle39"/>
	<circle cx="212.32" cy="432.544" r="4" fill="#0" id="circle40"/>
	<circle cx="220.256" cy="123.04" r="4" fill="#0" id="circle41"/>
	<circle cx="228.192" cy="420.64" r="4" fill="#0" id="circle42"/>
	<circle cx="234.144" cy="107.168" r="4" fill="#0" id="circle43"/>
	<circle cx="244.064" cy="402.784" r="4" fill="#0" id="circle44"/>
	<circle cx="250.016" cy="93.28" r="4" fill="#0" id="circle45"/>
	<circle cx="259.936" cy="388.896" r="4" fill="#0" id="circle46"/>
	<circle cx="267.872" cy="103.2" r="4" fill="#0" id="circle47"/>
	<circle cx="273.824" cy="373.024" r="4" fill="#0" id="circle48"/>
	<circle cx="287.712" cy="103.2" r="4" fill="#0" id="circle49"/>
	<circle cx="291.68" cy="363.104" r="4" fill="#0" id="circle50"/>
	<circle cx="301.6" cy="525.792" r="4" fill="#0" id="circle51"/>
	<circle cx="303.584" cy="87.328" r="4" fill="#0" id="circle52"/>
	<circle cx="311.52" cy="363.104" r="4" fill="#0" id="circle53"/>
	<circle cx="311.52" cy="505.952" r="4" fill="#0" id="circle54"/>
	<circle cx="311.52" cy="543.648" r="4" fill="#0" id="circle55"/>
	<circle cx="323.424" cy="77.408" r="4" fill="#0" id="circle56"/>
	<circle cx="331.36" cy="363.104" r="4" fill="#0" id="circle57"/>
	<circle cx="331.36" cy="500" r="4" fill="#0" id="circle58"/>
	<circle cx="331.36" cy="551.584" r="4" fill="#0" id="circle59"/>
	<circle cx="343.264" cy="73.44" r="4" fill="#0" id="circle60"/>
	<circle cx="351.2" cy="363.104" r="4" fill="#0" id="circle61"/>
	<circle cx="351.2" cy="496.032" r="4" fill="#0" id="circle62"/>
	<circle cx="351.2" cy="551.584" r="4" fill="#0" id="circle63"/>
	<circle cx="361.12" cy="63.52" r="4" fill="#0" id="circle64"/>
	<circle cx="363.104" cy="378.976" r="4" fill="#0" id="circle65"/>
	<circle cx="367.072" cy="480.16" r="4" fill="#0" id="circle66"/>
	<circle cx="371.04" cy="398.816" r="4" fill="#0" id="circle67"/>
	<circle cx="371.04" cy="418.656" r="4" fill="#0" id="circle68"/>
	<circle cx="371.04" cy="438.496" r="4" fill="#0" id="circle69"/>
	<circle cx="371.04" cy="458.336" r="4" fill="#0" id="circle70"/>
	<circle cx="371.04" cy="545.632" r="4" fill="#0" id="circle71"/>
	<circle cx="380.96" cy="63.52" r="4" fill="#0" id="circle72"/>
	<circle cx="390.88" cy="535.712" r="4" fill="#0" id="circle73"/>
	<circle cx="400.8" cy="63.52" r="4" fill="#0" id="circle74"/>
	<circle cx="406.752" cy="519.84" r="4" fill="#0" id="circle75"/>
	<circle cx="420.64" cy="63.52" r="4" fill="#0" id="circle76"/>
	<circle cx="422.624" cy="492.064" r="4" fill="#0" id="circle77"/>
	<circle cx="438.496" cy="478.176" r="4" fill="#0" id="circle78"/>
	<circle cx="440.48" cy="63.52" r="4" fill="#0" id="circle79"/>
	<circle cx="448.416" cy="458.336" r="4" fill="#0" id="circle80"/>
	<circle cx="452.384" cy="432.544" r="4" fill="#0" id="circle81"/>
	<circle cx="460.32" cy="63.52" r="4" fill="#0" id="circle82"/>
	<circle cx="462.304" cy="392.864" r="4" fill="#0" id="circle83"/>
	<circle cx="462.304" cy="412.704" r="4" fill="#0" id="circle84"/>
	<circle cx="472.224" cy="353.184" r="4" fill="#0" id="circle85"/>
	<circle cx="472.224" cy="373.024" r="4" fill="#0" id="circle86"/>
	<circle cx="478.176" cy="53.6" r="4" fill="#0" id="circle87"/>
	<circle cx="482.144" cy="333.344" r="4" fill="#0" id="circle88"/>
	<circle cx="498.016" cy="53.6" r="4" fill="#0" id="circle89"/>
	<circle cx="501.984" cy="333.344" r="4" fill="#0" id="circle90"/>
	<circle cx="515.872" cy="43.68" r="4" fill="#0" id="circle91"/>
	<circle cx="519.84" cy="323.424" r="4" fill="#0" id="circle92"/>
	<circle cx="535.712" cy="43.68" r="4" fill="#0" id="circle93"/>
	<circle cx="539.68" cy="323.424" r="4" fill="#0" id="circle94"/>
	<circle cx="553.568" cy="33.76" r="4" fill="#0" id="circle95"/>
	<circle cx="559.52" cy="323.424" r="4" fill="#0" id="circle96"/>
	<circle cx="573.408" cy="25.824" r="4" fill="#0" id="circle97"/>
	<circle cx="577.376" cy="313.504" r="4" fill="#0" id="circle98"/>
	<circle cx="593.248" cy="23.84" r="4" fill="#0" id="circle99"/>
	<circle cx="597.216" cy="313.504" r="4" fill="#0" id="circle100"/>
	<circle cx="609.12" cy="446.432" r="4" fill="#0" id="circle101"/>
	<circle cx="609.12" cy="466.272" r="4" fill="#0" id="circle102"/>
	<circle cx="613.088" cy="15.904" r="4" fill="#0" id="circle103"/>
	<circle cx="617.056" cy="313.504" r="4" fill="#0" id="circle104"/>
	<circle cx="624.992" cy="430.56" r="4" fill="#0" id="circle105"/>
	<circle cx="624.992" cy="480.16" r="4" fill="#0" id="circle106"/>
	<circle cx="632.928" cy="13.92" r="4" fill="#0" id="circle107"/>
	<circle cx="636.896" cy="313.504" r="4" fill="#0" id="circle108"/>
	<circle cx="642.848" cy="420.64" r="4" fill="#0" id="circle109"/>
	<circle cx="644.832" cy="482.144" r="4" fill="#0" id="circle110"/>
	<circle cx="652.768" cy="13.92" r="4" fill="#0" id="circle111"/>
	<circle cx="656.736" cy="313.504" r="4" fill="#0" id="circle112"/>
	<circle cx="662.688" cy="420.64" r="4" fill="#0" id="circle113"/>
	<circle cx="664.672" cy="480.16" r="4" fill="#0" id="circle114"/>
	<circle cx="670.624" cy="4" r="4" fill="#0" id="circle115"/>
	<circle cx="674.592" cy="323.424" r="4" fill="#0" id="circle116"/>
	<circle cx="682.528" cy="412.704" r="4" fill="#0" id="circle117"/>
	<circle cx="684.512" cy="341.28" r="4" fill="#0" id="circle118"/>
	<circle cx="684.512" cy="472.224" r="4" fill="#0" id="circle119"/>
	<circle cx="690.464" cy="4" r="4" fill="#0" id="circle120"/>
	<circle cx="692.448" cy="361.12" r="4" fill="#0" id="circle121"/>
	<circle cx="692.448" cy="392.864" r="4" fill="#0" id="circle122"/>
	<circle cx="704.352" cy="470.24" r="4" fill="#0" id="circle123"/>
	<circle cx="710.304" cy="4" r="4" fill="#0" id="circle124"/>
	<circle cx="720.224" cy="452.384" r="4" fill="#0" id="circle125"/>
	<circle cx="730.144" cy="4" r="4" fill="#0" id="circle126"/>
	<circle cx="736.096" cy="438.496" r="4" fill="#0" id="circle127"/>
	<circle cx="749.984" cy="4" r="4" fill="#0" id="circle128"/>
	<circle cx="749.984" cy="422.624" r="4" fill="#0" id="circle129"/>
	<circle cx="757.92" cy="476.192" r="4" fill="#0" id="circle130"/>
	<circle cx="757.92" cy="496.032" r="4" fill="#0" id="circle131"/>
	<circle cx="759.904" cy="402.784" r="4" fill="#0" id="circle132"/>
	<circle cx="769.824" cy="4" r="4" fill="#0" id="circle133"/>
	<circle cx="769.824" cy="382.944" r="4" fill="#0" id="circle134"/>
	<circle cx="769.824" cy="511.904" r="4" fill="#0" id="circle135"/>
	<circle cx="773.792" cy="460.32" r="4" fill="#0" id="circle136"/>
	<circle cx="779.744" cy="323.424" r="4" fill="#0" id="circle137"/>
	<circle cx="779.744" cy="343.264" r="4" fill="#0" id="circle138"/>
	<circle cx="779.744" cy="363.104" r="4" fill="#0" id="circle139"/>
	<circle cx="787.68" cy="13.92" r="4" fill="#0" id="circle140"/>
	<circle cx="789.664" cy="511.904" r="4" fill="#0" id="circle141"/>
	<circle cx="791.648" cy="450.4" r="4" fill="#0" id="circle142"/>
	<circle cx="799.584" cy="347.232" r="4" fill="#0" id="circle143"/>
	<circle cx="807.52" cy="13.92" r="4" fill="#0" id="circle144"/>
	<circle cx="809.504" cy="511.904" r="4" fill="#0" id="circle145"/>
	<circle cx="811.488" cy="442.464" r="4" fill="#0" id="circle146"/>
	<circle cx="813.472" cy="363.104" r="4" fill="#0" id="circle147"/>
	<circle cx="825.376" cy="23.84" r="4" fill="#0" id="circle148"/>
	<circle cx="827.36" cy="378.976" r="4" fill="#0" id="circle149"/>
	<circle cx="827.36" cy="398.816" r="4" fill="#0" id="circle150"/>
	<circle cx="827.36" cy="418.656" r="4" fill="#0" id="circle151"/>
	<circle cx="827.36" cy="501.984" r="4" fill="#0" id="circle152"/>
	<circle cx="845.216" cy="23.84" r="4" fill="#0" id="circle153"/>
	<circle cx="847.2" cy="496.032" r="4" fill="#0" id="circle154"/>
	<circle cx="863.072" cy="33.76" r="4" fill="#0" id="circle155"/>
	<circle cx="863.072" cy="480.16" r="4" fill="#0" id="circle156"/>
	<circle cx="878.944" cy="452.384" r="4" fill="#0" id="circle157"/>
	<circle cx="882.912" cy="33.76" r="4" fill="#0" id="circle158"/>
	<circle cx="888.864" cy="263.904" r="4" fill="#0" id="circle159"/>
	<circle cx="888.864" cy="283.744" r="4" fill="#0" id="circle160"/>
	<circle cx="888.864" cy="303.584" r="4" fill="#0" id="circle161"/>
	<circle cx="888.864" cy="432.544" r="4" fill="#0" id="circle162"/>
	<circle cx="892.832" cy="323.424" r="4" fill="#0" id="circle163"/>
	<circle cx="896.8" cy="49.632" r="4" fill="#0" id="circle164"/>
	<circle cx="898.784" cy="224.224" r="4" fill="#0" id="circle165"/>
	<circle cx="898.784" cy="244.064" r="4" fill="#0" id="circle166"/>
	<circle cx="898.784" cy="343.264" r="4" fill="#0" id="circle167"/>
	<circle cx="898.784" cy="402.784" r="4" fill="#0" id="circle168"/>
	<circle cx="902.752" cy="363.104" r="4" fill="#0" id="circle169"/>
	<circle cx="908.704" cy="194.464" r="4" fill="#0" id="circle170"/>
	<circle cx="908.704" cy="382.944" r="4" fill="#0" id="circle171"/>
	<circle cx="916.64" cy="53.6" r="4" fill="#0" id="circle172"/>
	<circle cx="918.624" cy="144.864" r="4" fill="#0" id="circle173"/>
	<circle cx="918.624" cy="164.704" r="4" fill="#0" id="circle174"/>
	<circle cx="928.544" cy="125.024" r="4" fill="#0" id="circle175"/>
	<circle cx="934.496" cy="63.52" r="4" fill="#0" id="circle176"/>
	<circle cx="948.384" cy="125.024" r="4" fill="#0" id="circle177"/>
	<circle cx="954.336" cy="63.52" r="4" fill="#0" id="circle178"/>
	<circle cx="962.272" cy="43.68" r="4" fill="#0" id="circle179"/>
	<circle cx="968.224" cy="125.024" r="4" fill="#0" id="circle180"/>
	<circle cx="982.112" cy="43.68" r="4" fill="#0" id="circle181"/>
	<circle cx="984.096" cy="111.136" r="4" fill="#0" id="circle182"/>
	<circle cx="994.016" cy="91.296" r="4" fill="#0" id="circle183"/>
	<circle cx="996" cy="59.552" r="4" fill="#0" id="circle184"/>
	</g>
</svg>